1547
# CPU
33,5,1	65,10,1	97,15,1	129,20,1	161,25,1	193,30,1	225,35,1	257,40,1	289,45,1	321,50,1	353,55,1	385,60,1	417,65,1	449,70,1	481,75,1	513,80,1	545,85,1	577,90,1	609,95,1	641,100,1	673,105,1	705,110,1	737,115,1	769,120,1	
25,4,1	57,9,1	89,14,1	121,19,1	153,24,1	185,29,1	217,34,1	249,39,1	281,44,1	313,49,1	345,54,1	377,59,1	409,64,1	441,69,1	473,74,1	505,79,1	537,84,1	569,89,1	601,94,1	633,99,1	665,104,1	697,109,1	729,114,1	761,119,1	
17,3,1	49,8,1	81,13,1	113,18,1	145,23,1	177,28,1	209,33,1	241,38,1	273,43,1	305,48,1	337,53,1	369,58,1	401,63,1	433,68,1	465,73,1	497,78,1	529,83,1	561,88,1	593,93,1	625,98,1	657,103,1	689,108,1	721,113,1	753,118,1	
9,2,1	41,7,1	73,12,1	105,17,1	137,22,1	169,27,1	201,32,1	233,37,1	265,42,1	297,47,1	329,52,1	361,57,1	393,62,1	425,67,1	457,72,1	489,77,1	521,82,1	553,87,1	585,92,1	617,97,1	649,102,1	681,107,1	713,112,1	745,117,1	
0,0,1	1,1,1	2,11,1	3,31,1	4,71,1	5,116,1	6,111,1	7,106,1	8,101,1	9,96,1	10,91,1	11,86,1	12,81,1	13,66,1	14,76,1	15,61,1	16,56,1	17,51,1	18,46,1	19,41,1	20,26,1	21,36,1	22,21,1	23,6,1	24,16,1	1546,121,1	
# Incoming
25,(0, 5),8	57,(0, 10),8	89,(0, 15),8	121,(0, 20),8	153,(0, 25),8	185,(0, 30),8	217,(0, 35),8	249,(0, 40),8	281,(0, 45),8	313,(0, 50),8	345,(0, 55),8	377,(0, 60),8	409,(0, 65),8	441,(0, 70),8	473,(0, 75),8	505,(0, 80),8	537,(0, 85),8	569,(0, 90),8	601,(0, 95),8	633,(0, 100),8	665,(0, 105),8	697,(0, 110),8	729,(0, 115),8	761,(0, 120),8	
17,(0, 4),8	49,(0, 9),8	81,(0, 14),8	113,(0, 19),8	145,(0, 24),8	177,(0, 29),8	209,(0, 34),8	241,(0, 39),8	273,(0, 44),8	305,(0, 49),8	337,(0, 54),8	369,(0, 59),8	401,(0, 64),8	433,(0, 69),8	465,(0, 74),8	497,(0, 79),8	529,(0, 84),8	561,(0, 89),8	593,(0, 94),8	625,(0, 99),8	657,(0, 104),8	689,(0, 109),8	721,(0, 114),8	753,(0, 119),8	
9,(0, 3),8	41,(0, 8),8	73,(0, 13),8	105,(0, 18),8	137,(0, 23),8	169,(0, 28),8	201,(0, 33),8	233,(0, 38),8	265,(0, 43),8	297,(0, 48),8	329,(0, 53),8	361,(0, 58),8	393,(0, 63),8	425,(0, 68),8	457,(0, 73),8	489,(0, 78),8	521,(0, 83),8	553,(0, 88),8	585,(0, 93),8	617,(0, 98),8	649,(0, 103),8	681,(0, 108),8	713,(0, 113),8	745,(0, 118),8	
1,(0, 2),8	33,(0, 7),8	65,(0, 12),8	97,(0, 17),8	129,(0, 22),8	161,(0, 27),8	193,(0, 32),8	225,(0, 37),8	257,(0, 42),8	289,(0, 47),8	321,(0, 52),8	353,(0, 57),8	385,(0, 62),8	417,(0, 67),8	449,(0, 72),8	481,(0, 77),8	513,(0, 82),8	545,(0, 87),8	577,(0, 92),8	609,(0, 97),8	641,(0, 102),8	673,(0, 107),8	705,(0, 112),8	737,(0, 117),8	
10,(2, 121),16	26,(3, 121),16	42,(4, 121),16	58,(5, 121),16	74,(7, 121),16	90,(8, 121),16	106,(9, 121),16	122,(10, 121),16	138,(12, 121),16	154,(13, 121),16	170,(14, 121),16	186,(15, 121),16	202,(17, 121),16	218,(18, 121),16	234,(19, 121),16	250,(20, 121),16	266,(22, 121),16	282,(23, 121),16	298,(24, 121),16	314,(25, 121),16	330,(27, 121),16	346,(28, 121),16	362,(29, 121),16	378,(30, 121),16	394,(32, 121),16	410,(33, 121),16	426,(34, 121),16	442,(35, 121),16	458,(37, 121),16	474,(38, 121),16	490,(39, 121),16	506,(40, 121),16	522,(42, 121),16	538,(43, 121),16	554,(44, 121),16	570,(45, 121),16	586,(47, 121),16	602,(48, 121),16	618,(49, 121),16	634,(50, 121),16	650,(52, 121),16	666,(53, 121),16	682,(54, 121),16	698,(55, 121),16	714,(57, 121),16	730,(58, 121),16	746,(59, 121),16	762,(60, 121),16	778,(62, 121),16	794,(63, 121),16	810,(64, 121),16	826,(65, 121),16	842,(67, 121),16	858,(68, 121),16	874,(69, 121),16	890,(70, 121),16	906,(72, 121),16	922,(73, 121),16	938,(74, 121),16	954,(75, 121),16	970,(77, 121),16	986,(78, 121),16	1002,(79, 121),16	1018,(80, 121),16	1034,(82, 121),16	1050,(83, 121),16	1066,(84, 121),16	1082,(85, 121),16	1098,(87, 121),16	1114,(88, 121),16	1130,(89, 121),16	1146,(90, 121),16	1162,(92, 121),16	1178,(93, 121),16	1194,(94, 121),16	1210,(95, 121),16	1226,(97, 121),16	1242,(98, 121),16	1258,(99, 121),16	1274,(100, 121),16	1290,(102, 121),16	1306,(103, 121),16	1322,(104, 121),16	1338,(105, 121),16	1354,(107, 121),16	1370,(108, 121),16	1386,(109, 121),16	1402,(110, 121),16	1418,(112, 121),16	1434,(113, 121),16	1450,(114, 121),16	1466,(115, 121),16	1482,(117, 121),16	1498,(118, 121),16	1514,(119, 121),16	1530,(120, 121),16	
# Outgoing
58,(5, 121),16	122,(10, 121),16	186,(15, 121),16	250,(20, 121),16	314,(25, 121),16	378,(30, 121),16	442,(35, 121),16	506,(40, 121),16	570,(45, 121),16	634,(50, 121),16	698,(55, 121),16	762,(60, 121),16	826,(65, 121),16	890,(70, 121),16	954,(75, 121),16	1018,(80, 121),16	1082,(85, 121),16	1146,(90, 121),16	1210,(95, 121),16	1274,(100, 121),16	1338,(105, 121),16	1402,(110, 121),16	1466,(115, 121),16	1530,(120, 121),16	
42,(4, 121),16	106,(9, 121),16	170,(14, 121),16	234,(19, 121),16	298,(24, 121),16	362,(29, 121),16	426,(34, 121),16	490,(39, 121),16	554,(44, 121),16	618,(49, 121),16	682,(54, 121),16	746,(59, 121),16	810,(64, 121),16	874,(69, 121),16	938,(74, 121),16	1002,(79, 121),16	1066,(84, 121),16	1130,(89, 121),16	1194,(94, 121),16	1258,(99, 121),16	1322,(104, 121),16	1386,(109, 121),16	1450,(114, 121),16	1514,(119, 121),16	
26,(3, 121),16	90,(8, 121),16	154,(13, 121),16	218,(18, 121),16	282,(23, 121),16	346,(28, 121),16	410,(33, 121),16	474,(38, 121),16	538,(43, 121),16	602,(48, 121),16	666,(53, 121),16	730,(58, 121),16	794,(63, 121),16	858,(68, 121),16	922,(73, 121),16	986,(78, 121),16	1050,(83, 121),16	1114,(88, 121),16	1178,(93, 121),16	1242,(98, 121),16	1306,(103, 121),16	1370,(108, 121),16	1434,(113, 121),16	1498,(118, 121),16	
10,(2, 121),16	74,(7, 121),16	138,(12, 121),16	202,(17, 121),16	266,(22, 121),16	330,(27, 121),16	394,(32, 121),16	458,(37, 121),16	522,(42, 121),16	586,(47, 121),16	650,(52, 121),16	714,(57, 121),16	778,(62, 121),16	842,(67, 121),16	906,(72, 121),16	970,(77, 121),16	1034,(82, 121),16	1098,(87, 121),16	1162,(92, 121),16	1226,(97, 121),16	1290,(102, 121),16	1354,(107, 121),16	1418,(112, 121),16	1482,(117, 121),16	
1,(0, 2),8	9,(0, 3),8	17,(0, 4),8	25,(0, 5),8	33,(0, 7),8	41,(0, 8),8	49,(0, 9),8	57,(0, 10),8	65,(0, 12),8	73,(0, 13),8	81,(0, 14),8	89,(0, 15),8	97,(0, 17),8	105,(0, 18),8	113,(0, 19),8	121,(0, 20),8	129,(0, 22),8	137,(0, 23),8	145,(0, 24),8	153,(0, 25),8	161,(0, 27),8	169,(0, 28),8	177,(0, 29),8	185,(0, 30),8	193,(0, 32),8	201,(0, 33),8	209,(0, 34),8	217,(0, 35),8	225,(0, 37),8	233,(0, 38),8	241,(0, 39),8	249,(0, 40),8	257,(0, 42),8	265,(0, 43),8	273,(0, 44),8	281,(0, 45),8	289,(0, 47),8	297,(0, 48),8	305,(0, 49),8	313,(0, 50),8	321,(0, 52),8	329,(0, 53),8	337,(0, 54),8	345,(0, 55),8	353,(0, 57),8	361,(0, 58),8	369,(0, 59),8	377,(0, 60),8	385,(0, 62),8	393,(0, 63),8	401,(0, 64),8	409,(0, 65),8	417,(0, 67),8	425,(0, 68),8	433,(0, 69),8	441,(0, 70),8	449,(0, 72),8	457,(0, 73),8	465,(0, 74),8	473,(0, 75),8	481,(0, 77),8	489,(0, 78),8	497,(0, 79),8	505,(0, 80),8	513,(0, 82),8	521,(0, 83),8	529,(0, 84),8	537,(0, 85),8	545,(0, 87),8	553,(0, 88),8	561,(0, 89),8	569,(0, 90),8	577,(0, 92),8	585,(0, 93),8	593,(0, 94),8	601,(0, 95),8	609,(0, 97),8	617,(0, 98),8	625,(0, 99),8	633,(0, 100),8	641,(0, 102),8	649,(0, 103),8	657,(0, 104),8	665,(0, 105),8	673,(0, 107),8	681,(0, 108),8	689,(0, 109),8	697,(0, 110),8	705,(0, 112),8	713,(0, 113),8	721,(0, 114),8	729,(0, 115),8	737,(0, 117),8	745,(0, 118),8	753,(0, 119),8	761,(0, 120),8	
