235
# CPU
0,11,1	1,10,45	46,2,45	91,4,45	136,6,45	181,8,45	234,0,1	
5,1,45	50,3,45	95,5,45	140,7,45	185,9,45	
# Incoming
50,(1, 0),4	95,(3, 0),4	140,(5, 0),4	185,(7, 0),4	230,(9, 0),4	
1,(11, 1),4	5,(11, 3),4	9,(11, 5),4	13,(11, 7),4	17,(11, 9),4	
# Outgoing
1,(11, 1),4	5,(11, 3),4	9,(11, 5),4	13,(11, 7),4	17,(11, 9),4	
50,(1, 0),4	95,(3, 0),4	140,(5, 0),4	185,(7, 0),4	230,(9, 0),4	
