10
# CPU
0,11,1	1,1,1	2,2,1	3,3,1	4,5,1	5,6,1	6,8,1	7,9,1	9,0,1	
3,4,1	5,7,1	7,10,1	
# Incoming
4,(4, 0),1	6,(7, 0),1	8,(10, 0),1	
1,(11, 4),2	3,(11, 7),2	5,(11, 10),2	
# Outgoing
1,(11, 4),2	3,(11, 7),2	5,(11, 10),2	
4,(4, 0),1	6,(7, 0),1	8,(10, 0),1	
