161
# CPU
0,161,1	1,111,1	2,110,1	3,112,1	4,109,1	5,108,1	6,107,1	7,113,1	8,106,1	9,114,1	10,105,1	11,115,1	12,104,1	13,103,1	14,102,1	15,116,1	16,101,1	17,100,1	18,99,1	19,117,1	20,98,1	21,97,1	22,96,1	23,118,1	24,95,1	25,119,1	26,94,1	27,120,1	28,93,1	29,92,1	30,91,1	31,121,1	32,90,1	33,81,1	34,80,1	35,82,1	36,79,1	37,78,1	38,77,1	39,83,1	40,76,1	41,84,1	42,75,1	43,85,1	44,74,1	45,73,1	46,72,1	47,86,1	48,71,1	49,87,1	50,70,1	51,88,1	52,69,1	53,68,1	54,67,1	55,89,1	56,66,1	57,122,1	58,65,1	59,123,1	60,64,1	61,63,1	62,62,1	63,124,1	64,61,1	65,125,1	66,60,1	67,126,1	68,59,1	69,58,1	70,57,1	71,127,1	72,56,1	73,128,1	74,55,1	75,129,1	76,54,1	77,53,1	78,52,1	79,130,1	80,51,1	81,131,1	82,50,1	83,132,1	84,49,1	85,48,1	86,47,1	87,133,1	88,46,1	89,134,1	90,45,1	91,135,1	92,44,1	93,43,1	94,42,1	95,136,1	96,41,1	97,145,1	98,144,1	99,146,1	100,143,1	101,142,1	102,141,1	103,147,1	104,140,1	105,28,1	106,27,1	107,148,1	108,138,1	109,137,1	110,149,1	111,40,1	112,39,1	113,38,1	114,150,1	115,37,1	116,36,1	117,35,1	118,151,1	119,34,1	120,33,1	121,32,1	122,152,1	123,31,1	124,30,1	125,29,1	126,153,1	127,26,1	128,17,1	129,16,1	130,18,1	131,15,1	132,19,1	133,14,1	134,20,1	135,13,1	136,21,1	137,12,1	138,22,1	139,11,1	140,23,1	141,10,1	142,24,1	143,9,1	144,1,1	145,2,1	146,3,1	147,4,1	148,5,1	149,6,1	150,7,1	151,8,1	152,25,1	153,154,1	154,155,1	155,156,1	156,157,1	157,158,1	158,159,1	159,160,1	160,0,1	
105,139,1	
# Incoming
106,(139, 0),8	
1,(161, 139),104	
# Outgoing
1,(161, 139),104	
106,(139, 0),8	
