206
# CPU
0,11,1	1,10,34	35,1,34	69,2,34	103,3,34	137,5,34	171,9,34	205,0,1	
37,6,34	73,7,34	109,4,34	145,8,34	



# Incoming
71,(6, 0),12	107,(7, 0),12	143,(4, 0),12	179,(8, 0),12	
1,(11, 6),36	37,(11, 7),36	73,(11, 4),36	109,(11, 8),36	



# Outgoing
1,(11, 6),36	37,(11, 7),36	73,(11, 4),36	109,(11, 8),36	
71,(6, 0),12	107,(7, 0),12	143,(4, 0),12	179,(8, 0),12	



