1442
# CPU
0,0,1	1,1,12	13,3,12	25,7,12	37,15,12	49,31,12	61,63,12	73,120,12	85,119,12	97,118,12	109,117,12	121,116,12	133,115,12	145,114,12	157,113,12	169,112,12	181,111,12	193,110,12	205,109,12	217,108,12	229,107,12	241,106,12	253,105,12	265,104,12	277,103,12	289,102,12	301,101,12	313,100,12	325,99,12	337,98,12	349,97,12	361,96,12	373,95,12	385,94,12	397,93,12	409,92,12	421,91,12	433,90,12	445,89,12	457,88,12	469,87,12	481,86,12	493,85,12	505,84,12	517,83,12	529,82,12	541,81,12	553,80,12	565,79,12	577,78,12	589,77,12	601,76,12	613,75,12	625,74,12	637,73,12	649,72,12	661,71,12	673,70,12	685,69,12	697,68,12	709,67,12	721,66,12	733,65,12	745,62,12	757,64,12	769,61,12	781,60,12	793,59,12	805,58,12	817,57,12	829,56,12	841,55,12	853,54,12	865,53,12	877,52,12	889,51,12	901,50,12	913,49,12	925,48,12	937,47,12	949,46,12	961,45,12	973,44,12	985,43,12	997,42,12	1009,41,12	1021,40,12	1033,39,12	1045,38,12	1057,37,12	1069,36,12	1081,35,12	1093,34,12	1105,33,12	1117,30,12	1129,32,12	1141,29,12	1153,28,12	1165,27,12	1177,26,12	1189,25,12	1201,24,12	1213,23,12	1225,22,12	1237,21,12	1249,20,12	1261,19,12	1273,18,12	1285,17,12	1297,14,12	1309,16,12	1321,13,12	1333,12,12	1345,11,12	1357,10,12	1369,9,12	1381,6,12	1393,8,12	1405,5,12	1417,2,12	1429,4,12	1441,121,1	




# Incoming





# Outgoing





