159
# CPU
17,2,1	33,4,1	49,6,1	65,8,1	81,10,1	
0,0,1	1,1,1	2,5,1	3,9,1	4,3,1	5,7,1	158,11,1	
# Incoming
1,(0, 2),16	17,(0, 4),16	33,(0, 6),16	49,(0, 8),16	65,(0, 10),16	
18,(2, 11),28	46,(4, 11),28	74,(6, 11),28	102,(8, 11),28	130,(10, 11),28	
# Outgoing
18,(2, 11),28	46,(4, 11),28	74,(6, 11),28	102,(8, 11),28	130,(10, 11),28	
1,(0, 2),16	17,(0, 4),16	33,(0, 6),16	49,(0, 8),16	65,(0, 10),16	
