8401
# CPU
157,3,128	313,6,128	469,9,128	625,12,128	781,15,128	937,18,128	1093,21,128	1249,24,128	1405,27,128	1561,30,128	1717,33,128	1873,36,128	2029,39,128	2185,42,128	2341,45,128	2497,48,128	2653,51,128	2809,54,128	2965,57,128	3121,60,128	3277,63,128	3433,66,128	3589,69,128	3745,72,128	3901,75,128	4057,78,128	4213,81,128	4369,84,128	4525,87,128	4681,90,128	4837,93,128	4993,96,128	5149,99,128	5305,102,128	5461,105,128	5617,108,128	5773,111,128	5929,114,128	6085,117,128	6241,120,128	6397,123,128	6553,126,128	6709,129,128	6865,132,128	7021,135,128	7177,138,128	7333,141,128	7489,144,128	7645,147,128	7801,150,128	7957,153,128	8113,156,128	8269,159,128	
79,2,128	235,5,128	391,8,128	547,11,128	703,14,128	859,17,128	1015,20,128	1171,23,128	1327,26,128	1483,29,128	1639,32,128	1795,35,128	1951,38,128	2107,41,128	2263,44,128	2419,47,128	2575,50,128	2731,53,128	2887,56,128	3043,59,128	3199,62,128	3355,65,128	3511,68,128	3667,71,128	3823,74,128	3979,77,128	4135,80,128	4291,83,128	4447,86,128	4603,89,128	4759,92,128	4915,95,128	5071,98,128	5227,101,128	5383,104,128	5539,107,128	5695,110,128	5851,113,128	6007,116,128	6163,119,128	6319,122,128	6475,125,128	6631,128,128	6787,131,128	6943,134,128	7099,137,128	7255,140,128	7411,143,128	7567,146,128	7723,149,128	7879,152,128	8035,155,128	8191,158,128	
0,0,1	1,1,128	129,7,128	257,19,128	385,43,128	513,91,128	641,160,128	769,157,128	897,154,128	1025,151,128	1153,148,128	1281,145,128	1409,142,128	1537,139,128	1665,136,128	1793,133,128	1921,130,128	2049,127,128	2177,124,128	2305,121,128	2433,118,128	2561,115,128	2689,112,128	2817,109,128	2945,106,128	3073,103,128	3201,100,128	3329,97,128	3457,88,128	3585,94,128	3713,85,128	3841,82,128	3969,79,128	4097,76,128	4225,73,128	4353,70,128	4481,67,128	4609,64,128	4737,61,128	4865,58,128	4993,55,128	5121,52,128	5249,49,128	5377,40,128	5505,46,128	5633,37,128	5761,34,128	5889,31,128	6017,28,128	6145,25,128	6273,16,128	6401,22,128	6529,13,128	6657,4,128	6785,10,128	8400,161,1	
# Incoming
79,(0, 3),78	235,(0, 6),78	391,(0, 9),78	547,(0, 12),78	703,(0, 15),78	859,(0, 18),78	1015,(0, 21),78	1171,(0, 24),78	1327,(0, 27),78	1483,(0, 30),78	1639,(0, 33),78	1795,(0, 36),78	1951,(0, 39),78	2107,(0, 42),78	2263,(0, 45),78	2419,(0, 48),78	2575,(0, 51),78	2731,(0, 54),78	2887,(0, 57),78	3043,(0, 60),78	3199,(0, 63),78	3355,(0, 66),78	3511,(0, 69),78	3667,(0, 72),78	3823,(0, 75),78	3979,(0, 78),78	4135,(0, 81),78	4291,(0, 84),78	4447,(0, 87),78	4603,(0, 90),78	4759,(0, 93),78	4915,(0, 96),78	5071,(0, 99),78	5227,(0, 102),78	5383,(0, 105),78	5539,(0, 108),78	5695,(0, 111),78	5851,(0, 114),78	6007,(0, 117),78	6163,(0, 120),78	6319,(0, 123),78	6475,(0, 126),78	6631,(0, 129),78	6787,(0, 132),78	6943,(0, 135),78	7099,(0, 138),78	7255,(0, 141),78	7411,(0, 144),78	7567,(0, 147),78	7723,(0, 150),78	7879,(0, 153),78	8035,(0, 156),78	8191,(0, 159),78	
1,(0, 2),78	157,(0, 5),78	313,(0, 8),78	469,(0, 11),78	625,(0, 14),78	781,(0, 17),78	937,(0, 20),78	1093,(0, 23),78	1249,(0, 26),78	1405,(0, 29),78	1561,(0, 32),78	1717,(0, 35),78	1873,(0, 38),78	2029,(0, 41),78	2185,(0, 44),78	2341,(0, 47),78	2497,(0, 50),78	2653,(0, 53),78	2809,(0, 56),78	2965,(0, 59),78	3121,(0, 62),78	3277,(0, 65),78	3433,(0, 68),78	3589,(0, 71),78	3745,(0, 74),78	3901,(0, 77),78	4057,(0, 80),78	4213,(0, 83),78	4369,(0, 86),78	4525,(0, 89),78	4681,(0, 92),78	4837,(0, 95),78	4993,(0, 98),78	5149,(0, 101),78	5305,(0, 104),78	5461,(0, 107),78	5617,(0, 110),78	5773,(0, 113),78	5929,(0, 116),78	6085,(0, 119),78	6241,(0, 122),78	6397,(0, 125),78	6553,(0, 128),78	6709,(0, 131),78	6865,(0, 134),78	7021,(0, 137),78	7177,(0, 140),78	7333,(0, 143),78	7489,(0, 146),78	7645,(0, 149),78	7801,(0, 152),78	7957,(0, 155),78	8113,(0, 158),78	
207,(2, 161),3	285,(3, 161),3	363,(5, 161),3	441,(6, 161),3	519,(8, 161),3	597,(9, 161),3	675,(11, 161),3	753,(12, 161),3	831,(14, 161),3	909,(15, 161),3	987,(17, 161),3	1065,(18, 161),3	1143,(20, 161),3	1221,(21, 161),3	1299,(23, 161),3	1377,(24, 161),3	1455,(26, 161),3	1533,(27, 161),3	1611,(29, 161),3	1689,(30, 161),3	1767,(32, 161),3	1845,(33, 161),3	1923,(35, 161),3	2001,(36, 161),3	2079,(38, 161),3	2157,(39, 161),3	2235,(41, 161),3	2313,(42, 161),3	2391,(44, 161),3	2469,(45, 161),3	2547,(47, 161),3	2625,(48, 161),3	2703,(50, 161),3	2781,(51, 161),3	2859,(53, 161),3	2937,(54, 161),3	3015,(56, 161),3	3093,(57, 161),3	3171,(59, 161),3	3249,(60, 161),3	3327,(62, 161),3	3405,(63, 161),3	3483,(65, 161),3	3561,(66, 161),3	3639,(68, 161),3	3717,(69, 161),3	3795,(71, 161),3	3873,(72, 161),3	3951,(74, 161),3	4029,(75, 161),3	4107,(77, 161),3	4185,(78, 161),3	4263,(80, 161),3	4341,(81, 161),3	4419,(83, 161),3	4497,(84, 161),3	4575,(86, 161),3	4653,(87, 161),3	4731,(89, 161),3	4809,(90, 161),3	4887,(92, 161),3	4965,(93, 161),3	5043,(95, 161),3	5121,(96, 161),3	5199,(98, 161),3	5277,(99, 161),3	5355,(101, 161),3	5433,(102, 161),3	5511,(104, 161),3	5589,(105, 161),3	5667,(107, 161),3	5745,(108, 161),3	5823,(110, 161),3	5901,(111, 161),3	5979,(113, 161),3	6057,(114, 161),3	6135,(116, 161),3	6213,(117, 161),3	6291,(119, 161),3	6369,(120, 161),3	6447,(122, 161),3	6525,(123, 161),3	6603,(125, 161),3	6681,(126, 161),3	6759,(128, 161),3	6837,(129, 161),3	6915,(131, 161),3	6993,(132, 161),3	7071,(134, 161),3	7149,(135, 161),3	7227,(137, 161),3	7305,(138, 161),3	7383,(140, 161),3	7461,(141, 161),3	7539,(143, 161),3	7617,(144, 161),3	7695,(146, 161),3	7773,(147, 161),3	7851,(149, 161),3	7929,(150, 161),3	8007,(152, 161),3	8085,(153, 161),3	8163,(155, 161),3	8241,(156, 161),3	8319,(158, 161),3	8397,(159, 161),3	
# Outgoing
285,(3, 161),3	441,(6, 161),3	597,(9, 161),3	753,(12, 161),3	909,(15, 161),3	1065,(18, 161),3	1221,(21, 161),3	1377,(24, 161),3	1533,(27, 161),3	1689,(30, 161),3	1845,(33, 161),3	2001,(36, 161),3	2157,(39, 161),3	2313,(42, 161),3	2469,(45, 161),3	2625,(48, 161),3	2781,(51, 161),3	2937,(54, 161),3	3093,(57, 161),3	3249,(60, 161),3	3405,(63, 161),3	3561,(66, 161),3	3717,(69, 161),3	3873,(72, 161),3	4029,(75, 161),3	4185,(78, 161),3	4341,(81, 161),3	4497,(84, 161),3	4653,(87, 161),3	4809,(90, 161),3	4965,(93, 161),3	5121,(96, 161),3	5277,(99, 161),3	5433,(102, 161),3	5589,(105, 161),3	5745,(108, 161),3	5901,(111, 161),3	6057,(114, 161),3	6213,(117, 161),3	6369,(120, 161),3	6525,(123, 161),3	6681,(126, 161),3	6837,(129, 161),3	6993,(132, 161),3	7149,(135, 161),3	7305,(138, 161),3	7461,(141, 161),3	7617,(144, 161),3	7773,(147, 161),3	7929,(150, 161),3	8085,(153, 161),3	8241,(156, 161),3	8397,(159, 161),3	
207,(2, 161),3	363,(5, 161),3	519,(8, 161),3	675,(11, 161),3	831,(14, 161),3	987,(17, 161),3	1143,(20, 161),3	1299,(23, 161),3	1455,(26, 161),3	1611,(29, 161),3	1767,(32, 161),3	1923,(35, 161),3	2079,(38, 161),3	2235,(41, 161),3	2391,(44, 161),3	2547,(47, 161),3	2703,(50, 161),3	2859,(53, 161),3	3015,(56, 161),3	3171,(59, 161),3	3327,(62, 161),3	3483,(65, 161),3	3639,(68, 161),3	3795,(71, 161),3	3951,(74, 161),3	4107,(77, 161),3	4263,(80, 161),3	4419,(83, 161),3	4575,(86, 161),3	4731,(89, 161),3	4887,(92, 161),3	5043,(95, 161),3	5199,(98, 161),3	5355,(101, 161),3	5511,(104, 161),3	5667,(107, 161),3	5823,(110, 161),3	5979,(113, 161),3	6135,(116, 161),3	6291,(119, 161),3	6447,(122, 161),3	6603,(125, 161),3	6759,(128, 161),3	6915,(131, 161),3	7071,(134, 161),3	7227,(137, 161),3	7383,(140, 161),3	7539,(143, 161),3	7695,(146, 161),3	7851,(149, 161),3	8007,(152, 161),3	8163,(155, 161),3	8319,(158, 161),3	
1,(0, 2),78	79,(0, 3),78	157,(0, 5),78	235,(0, 6),78	313,(0, 8),78	391,(0, 9),78	469,(0, 11),78	547,(0, 12),78	625,(0, 14),78	703,(0, 15),78	781,(0, 17),78	859,(0, 18),78	937,(0, 20),78	1015,(0, 21),78	1093,(0, 23),78	1171,(0, 24),78	1249,(0, 26),78	1327,(0, 27),78	1405,(0, 29),78	1483,(0, 30),78	1561,(0, 32),78	1639,(0, 33),78	1717,(0, 35),78	1795,(0, 36),78	1873,(0, 38),78	1951,(0, 39),78	2029,(0, 41),78	2107,(0, 42),78	2185,(0, 44),78	2263,(0, 45),78	2341,(0, 47),78	2419,(0, 48),78	2497,(0, 50),78	2575,(0, 51),78	2653,(0, 53),78	2731,(0, 54),78	2809,(0, 56),78	2887,(0, 57),78	2965,(0, 59),78	3043,(0, 60),78	3121,(0, 62),78	3199,(0, 63),78	3277,(0, 65),78	3355,(0, 66),78	3433,(0, 68),78	3511,(0, 69),78	3589,(0, 71),78	3667,(0, 72),78	3745,(0, 74),78	3823,(0, 75),78	3901,(0, 77),78	3979,(0, 78),78	4057,(0, 80),78	4135,(0, 81),78	4213,(0, 83),78	4291,(0, 84),78	4369,(0, 86),78	4447,(0, 87),78	4525,(0, 89),78	4603,(0, 90),78	4681,(0, 92),78	4759,(0, 93),78	4837,(0, 95),78	4915,(0, 96),78	4993,(0, 98),78	5071,(0, 99),78	5149,(0, 101),78	5227,(0, 102),78	5305,(0, 104),78	5383,(0, 105),78	5461,(0, 107),78	5539,(0, 108),78	5617,(0, 110),78	5695,(0, 111),78	5773,(0, 113),78	5851,(0, 114),78	5929,(0, 116),78	6007,(0, 117),78	6085,(0, 119),78	6163,(0, 120),78	6241,(0, 122),78	6319,(0, 123),78	6397,(0, 125),78	6475,(0, 126),78	6553,(0, 128),78	6631,(0, 129),78	6709,(0, 131),78	6787,(0, 132),78	6865,(0, 134),78	6943,(0, 135),78	7021,(0, 137),78	7099,(0, 138),78	7177,(0, 140),78	7255,(0, 141),78	7333,(0, 143),78	7411,(0, 144),78	7489,(0, 146),78	7567,(0, 147),78	7645,(0, 149),78	7723,(0, 150),78	7801,(0, 152),78	7879,(0, 153),78	7957,(0, 155),78	8035,(0, 156),78	8113,(0, 158),78	8191,(0, 159),78	
