390
# CPU
0,161,1	1,160,4	5,110,4	9,111,4	13,109,4	17,112,4	21,113,4	25,108,4	29,114,4	33,107,4	37,115,4	41,106,4	45,116,4	49,103,4	53,99,4	57,117,4	61,118,4	65,119,4	69,96,4	73,94,4	77,120,4	81,80,4	85,81,4	89,78,4	93,77,4	97,76,4	101,75,4	105,74,4	109,73,4	113,72,4	117,71,4	121,70,4	125,69,4	129,67,4	133,68,4	137,66,4	141,65,4	145,64,4	149,62,4	153,61,4	157,63,4	161,60,4	165,58,4	169,57,4	173,56,4	177,55,4	181,59,4	185,53,4	189,52,4	193,51,4	197,50,4	201,49,4	205,48,4	209,47,4	213,46,4	217,45,4	221,44,4	225,42,4	229,43,4	233,144,4	237,145,4	241,143,4	245,142,4	249,146,4	253,141,4	257,147,4	261,140,4	265,139,4	269,148,4	273,138,4	277,149,4	281,41,4	285,150,4	289,38,4	293,36,4	297,151,4	301,34,4	305,152,4	309,17,4	313,16,4	317,15,4	321,14,4	325,18,4	329,13,4	333,12,4	337,11,4	341,10,4	345,9,4	349,1,4	353,2,4	357,3,4	361,4,4	365,5,4	369,6,4	373,7,4	377,8,4	381,19,4	385,159,4	389,0,1	
3,104,4	14,87,4	20,123,4	36,135,4	42,39,4	62,158,4	
8,97,4	15,89,4	21,124,4	30,131,4	34,133,4	43,37,4	48,29,4	58,153,4	
9,95,4	13,88,4	19,122,4	24,126,4	35,134,4	40,54,4	50,27,4	54,26,4	60,155,4	
7,98,4	18,121,4	25,127,4	29,130,4	41,40,4	47,30,4	51,25,4	55,31,4	59,154,4	
4,102,4	12,90,4	28,129,4	33,132,4	46,32,4	64,156,4	
6,100,4	32,83,4	39,137,4	57,21,4	63,20,4	
11,91,4	17,92,4	23,125,4	38,136,4	45,33,4	49,28,4	53,24,4	61,157,4	
5,101,4	10,93,4	16,86,4	22,85,4	27,128,4	
2,105,4	26,84,4	31,82,4	37,79,4	44,35,4	52,23,4	56,22,4	
# Incoming
6,(105, 0),6	12,(104, 0),6	18,(102, 0),6	24,(101, 0),6	30,(100, 0),6	36,(98, 0),6	42,(97, 0),6	48,(95, 0),6	54,(93, 0),6	60,(91, 0),6	66,(90, 0),6	72,(88, 0),6	78,(87, 0),6	84,(89, 0),6	90,(86, 0),6	96,(92, 0),6	102,(121, 0),6	108,(122, 0),6	114,(123, 0),6	120,(124, 0),6	126,(85, 0),6	132,(125, 0),6	138,(126, 0),6	144,(127, 0),6	150,(84, 0),6	156,(128, 0),6	162,(129, 0),6	168,(130, 0),6	174,(131, 0),6	180,(82, 0),6	186,(83, 0),6	192,(132, 0),6	198,(133, 0),6	204,(134, 0),6	210,(135, 0),6	216,(79, 0),6	222,(136, 0),6	228,(137, 0),6	234,(54, 0),6	240,(40, 0),6	246,(39, 0),6	252,(37, 0),6	258,(35, 0),6	264,(33, 0),6	270,(32, 0),6	276,(30, 0),6	282,(29, 0),6	288,(28, 0),6	294,(27, 0),6	300,(25, 0),6	306,(23, 0),6	312,(24, 0),6	318,(26, 0),6	324,(31, 0),6	330,(22, 0),6	336,(21, 0),6	342,(153, 0),6	348,(154, 0),6	354,(155, 0),6	360,(157, 0),6	366,(158, 0),6	372,(20, 0),6	378,(156, 0),6	
2,(161, 104),1	13,(161, 87),1	19,(161, 123),1	35,(161, 135),1	41,(161, 39),1	61,(161, 158),1	
7,(161, 97),1	14,(161, 89),1	20,(161, 124),1	29,(161, 131),1	33,(161, 133),1	42,(161, 37),1	47,(161, 29),1	57,(161, 153),1	
8,(161, 95),1	12,(161, 88),1	18,(161, 122),1	23,(161, 126),1	34,(161, 134),1	39,(161, 54),1	49,(161, 27),1	53,(161, 26),1	59,(161, 155),1	
6,(161, 98),1	17,(161, 121),1	24,(161, 127),1	28,(161, 130),1	40,(161, 40),1	46,(161, 30),1	50,(161, 25),1	54,(161, 31),1	58,(161, 154),1	
3,(161, 102),1	11,(161, 90),1	27,(161, 129),1	32,(161, 132),1	45,(161, 32),1	63,(161, 156),1	
5,(161, 100),1	31,(161, 83),1	38,(161, 137),1	56,(161, 21),1	62,(161, 20),1	
10,(161, 91),1	16,(161, 92),1	22,(161, 125),1	37,(161, 136),1	44,(161, 33),1	48,(161, 28),1	52,(161, 24),1	60,(161, 157),1	
4,(161, 101),1	9,(161, 93),1	15,(161, 86),1	21,(161, 85),1	26,(161, 128),1	
1,(161, 105),1	25,(161, 84),1	30,(161, 82),1	36,(161, 79),1	43,(161, 35),1	51,(161, 23),1	55,(161, 22),1	
# Outgoing
1,(161, 105),1	2,(161, 104),1	3,(161, 102),1	4,(161, 101),1	5,(161, 100),1	6,(161, 98),1	7,(161, 97),1	8,(161, 95),1	9,(161, 93),1	10,(161, 91),1	11,(161, 90),1	12,(161, 88),1	13,(161, 87),1	14,(161, 89),1	15,(161, 86),1	16,(161, 92),1	17,(161, 121),1	18,(161, 122),1	19,(161, 123),1	20,(161, 124),1	21,(161, 85),1	22,(161, 125),1	23,(161, 126),1	24,(161, 127),1	25,(161, 84),1	26,(161, 128),1	27,(161, 129),1	28,(161, 130),1	29,(161, 131),1	30,(161, 82),1	31,(161, 83),1	32,(161, 132),1	33,(161, 133),1	34,(161, 134),1	35,(161, 135),1	36,(161, 79),1	37,(161, 136),1	38,(161, 137),1	39,(161, 54),1	40,(161, 40),1	41,(161, 39),1	42,(161, 37),1	43,(161, 35),1	44,(161, 33),1	45,(161, 32),1	46,(161, 30),1	47,(161, 29),1	48,(161, 28),1	49,(161, 27),1	50,(161, 25),1	51,(161, 23),1	52,(161, 24),1	53,(161, 26),1	54,(161, 31),1	55,(161, 22),1	56,(161, 21),1	57,(161, 153),1	58,(161, 154),1	59,(161, 155),1	60,(161, 157),1	61,(161, 158),1	62,(161, 20),1	63,(161, 156),1	
12,(104, 0),6	78,(87, 0),6	114,(123, 0),6	210,(135, 0),6	246,(39, 0),6	366,(158, 0),6	
42,(97, 0),6	84,(89, 0),6	120,(124, 0),6	174,(131, 0),6	198,(133, 0),6	252,(37, 0),6	282,(29, 0),6	342,(153, 0),6	
48,(95, 0),6	72,(88, 0),6	108,(122, 0),6	138,(126, 0),6	204,(134, 0),6	234,(54, 0),6	294,(27, 0),6	318,(26, 0),6	354,(155, 0),6	
36,(98, 0),6	102,(121, 0),6	144,(127, 0),6	168,(130, 0),6	240,(40, 0),6	276,(30, 0),6	300,(25, 0),6	324,(31, 0),6	348,(154, 0),6	
18,(102, 0),6	66,(90, 0),6	162,(129, 0),6	192,(132, 0),6	270,(32, 0),6	378,(156, 0),6	
30,(100, 0),6	186,(83, 0),6	228,(137, 0),6	336,(21, 0),6	372,(20, 0),6	
60,(91, 0),6	96,(92, 0),6	132,(125, 0),6	222,(136, 0),6	264,(33, 0),6	288,(28, 0),6	312,(24, 0),6	360,(157, 0),6	
24,(101, 0),6	54,(93, 0),6	90,(86, 0),6	126,(85, 0),6	156,(128, 0),6	
6,(105, 0),6	150,(84, 0),6	180,(82, 0),6	216,(79, 0),6	258,(35, 0),6	306,(23, 0),6	330,(22, 0),6	
