10296
# CPU
53,2,128	181,4,128	309,6,128	437,8,128	565,10,128	693,12,128	821,14,128	949,16,128	1077,18,128	1205,20,128	1333,22,128	1461,24,128	1589,26,128	1717,28,128	1845,30,128	1973,32,128	2101,34,128	2229,36,128	2357,38,128	2485,40,128	2613,42,128	2741,44,128	2869,46,128	2997,48,128	3125,50,128	3253,52,128	3381,54,128	3509,56,128	3637,58,128	3765,60,128	3893,62,128	4021,64,128	4149,66,128	4277,68,128	4405,70,128	4533,72,128	4661,74,128	4789,76,128	4917,78,128	5045,80,128	5173,82,128	5301,84,128	5429,86,128	5557,88,128	5685,90,128	5813,92,128	5941,94,128	6069,96,128	6197,98,128	6325,100,128	6453,102,128	6581,104,128	6709,106,128	6837,108,128	6965,110,128	7093,112,128	7221,114,128	7349,116,128	7477,118,128	7605,120,128	7733,122,128	7861,124,128	7989,126,128	8117,128,128	8245,130,128	8373,132,128	8501,134,128	8629,136,128	8757,138,128	8885,140,128	9013,142,128	9141,144,128	9269,146,128	9397,148,128	9525,150,128	9653,152,128	9781,154,128	9909,156,128	10037,158,128	10165,160,128	
0,0,1	1,1,128	129,5,128	257,13,128	385,29,128	513,61,128	641,125,128	769,159,128	897,157,128	1025,155,128	1153,153,128	1281,151,128	1409,149,128	1537,147,128	1665,145,128	1793,143,128	1921,141,128	2049,139,128	2177,137,128	2305,135,128	2433,133,128	2561,131,128	2689,129,128	2817,123,128	2945,127,128	3073,121,128	3201,119,128	3329,117,128	3457,115,128	3585,113,128	3713,111,128	3841,109,128	3969,107,128	4097,105,128	4225,103,128	4353,101,128	4481,99,128	4609,97,128	4737,95,128	4865,93,128	4993,91,128	5121,89,128	5249,87,128	5377,85,128	5505,83,128	5633,81,128	5761,79,128	5889,77,128	6017,75,128	6145,73,128	6273,71,128	6401,69,128	6529,67,128	6657,65,128	6785,59,128	6913,63,128	7041,57,128	7169,55,128	7297,53,128	7425,51,128	7553,49,128	7681,47,128	7809,45,128	7937,43,128	8065,41,128	8193,39,128	8321,37,128	8449,35,128	8577,33,128	8705,27,128	8833,31,128	8961,25,128	9089,23,128	9217,21,128	9345,19,128	9473,17,128	9601,11,128	9729,15,128	9857,9,128	9985,3,128	10113,7,128	10295,161,1	
# Incoming
1,(0, 2),52	53,(0, 4),52	105,(0, 6),52	157,(0, 8),52	209,(0, 10),52	261,(0, 12),52	313,(0, 14),52	365,(0, 16),52	417,(0, 18),52	469,(0, 20),52	521,(0, 22),52	573,(0, 24),52	625,(0, 26),52	677,(0, 28),52	729,(0, 30),52	781,(0, 32),52	833,(0, 34),52	885,(0, 36),52	937,(0, 38),52	989,(0, 40),52	1041,(0, 42),52	1093,(0, 44),52	1145,(0, 46),52	1197,(0, 48),52	1249,(0, 50),52	1301,(0, 52),52	1353,(0, 54),52	1405,(0, 56),52	1457,(0, 58),52	1509,(0, 60),52	1561,(0, 62),52	1613,(0, 64),52	1665,(0, 66),52	1717,(0, 68),52	1769,(0, 70),52	1821,(0, 72),52	1873,(0, 74),52	1925,(0, 76),52	1977,(0, 78),52	2029,(0, 80),52	2081,(0, 82),52	2133,(0, 84),52	2185,(0, 86),52	2237,(0, 88),52	2289,(0, 90),52	2341,(0, 92),52	2393,(0, 94),52	2445,(0, 96),52	2497,(0, 98),52	2549,(0, 100),52	2601,(0, 102),52	2653,(0, 104),52	2705,(0, 106),52	2757,(0, 108),52	2809,(0, 110),52	2861,(0, 112),52	2913,(0, 114),52	2965,(0, 116),52	3017,(0, 118),52	3069,(0, 120),52	3121,(0, 122),52	3173,(0, 124),52	3225,(0, 126),52	3277,(0, 128),52	3329,(0, 130),52	3381,(0, 132),52	3433,(0, 134),52	3485,(0, 136),52	3537,(0, 138),52	3589,(0, 140),52	3641,(0, 142),52	3693,(0, 144),52	3745,(0, 146),52	3797,(0, 148),52	3849,(0, 150),52	3901,(0, 152),52	3953,(0, 154),52	4005,(0, 156),52	4057,(0, 158),52	4109,(0, 160),52	
181,(2, 161),2	309,(4, 161),2	437,(6, 161),2	565,(8, 161),2	693,(10, 161),2	821,(12, 161),2	949,(14, 161),2	1077,(16, 161),2	1205,(18, 161),2	1333,(20, 161),2	1461,(22, 161),2	1589,(24, 161),2	1717,(26, 161),2	1845,(28, 161),2	1973,(30, 161),2	2101,(32, 161),2	2229,(34, 161),2	2357,(36, 161),2	2485,(38, 161),2	2613,(40, 161),2	2741,(42, 161),2	2869,(44, 161),2	2997,(46, 161),2	3125,(48, 161),2	3253,(50, 161),2	3381,(52, 161),2	3509,(54, 161),2	3637,(56, 161),2	3765,(58, 161),2	3893,(60, 161),2	4021,(62, 161),2	4149,(64, 161),2	4277,(66, 161),2	4405,(68, 161),2	4533,(70, 161),2	4661,(72, 161),2	4789,(74, 161),2	4917,(76, 161),2	5045,(78, 161),2	5173,(80, 161),2	5301,(82, 161),2	5429,(84, 161),2	5557,(86, 161),2	5685,(88, 161),2	5813,(90, 161),2	5941,(92, 161),2	6069,(94, 161),2	6197,(96, 161),2	6325,(98, 161),2	6453,(100, 161),2	6581,(102, 161),2	6709,(104, 161),2	6837,(106, 161),2	6965,(108, 161),2	7093,(110, 161),2	7221,(112, 161),2	7349,(114, 161),2	7477,(116, 161),2	7605,(118, 161),2	7733,(120, 161),2	7861,(122, 161),2	7989,(124, 161),2	8117,(126, 161),2	8245,(128, 161),2	8373,(130, 161),2	8501,(132, 161),2	8629,(134, 161),2	8757,(136, 161),2	8885,(138, 161),2	9013,(140, 161),2	9141,(142, 161),2	9269,(144, 161),2	9397,(146, 161),2	9525,(148, 161),2	9653,(150, 161),2	9781,(152, 161),2	9909,(154, 161),2	10037,(156, 161),2	10165,(158, 161),2	10293,(160, 161),2	
# Outgoing
181,(2, 161),2	309,(4, 161),2	437,(6, 161),2	565,(8, 161),2	693,(10, 161),2	821,(12, 161),2	949,(14, 161),2	1077,(16, 161),2	1205,(18, 161),2	1333,(20, 161),2	1461,(22, 161),2	1589,(24, 161),2	1717,(26, 161),2	1845,(28, 161),2	1973,(30, 161),2	2101,(32, 161),2	2229,(34, 161),2	2357,(36, 161),2	2485,(38, 161),2	2613,(40, 161),2	2741,(42, 161),2	2869,(44, 161),2	2997,(46, 161),2	3125,(48, 161),2	3253,(50, 161),2	3381,(52, 161),2	3509,(54, 161),2	3637,(56, 161),2	3765,(58, 161),2	3893,(60, 161),2	4021,(62, 161),2	4149,(64, 161),2	4277,(66, 161),2	4405,(68, 161),2	4533,(70, 161),2	4661,(72, 161),2	4789,(74, 161),2	4917,(76, 161),2	5045,(78, 161),2	5173,(80, 161),2	5301,(82, 161),2	5429,(84, 161),2	5557,(86, 161),2	5685,(88, 161),2	5813,(90, 161),2	5941,(92, 161),2	6069,(94, 161),2	6197,(96, 161),2	6325,(98, 161),2	6453,(100, 161),2	6581,(102, 161),2	6709,(104, 161),2	6837,(106, 161),2	6965,(108, 161),2	7093,(110, 161),2	7221,(112, 161),2	7349,(114, 161),2	7477,(116, 161),2	7605,(118, 161),2	7733,(120, 161),2	7861,(122, 161),2	7989,(124, 161),2	8117,(126, 161),2	8245,(128, 161),2	8373,(130, 161),2	8501,(132, 161),2	8629,(134, 161),2	8757,(136, 161),2	8885,(138, 161),2	9013,(140, 161),2	9141,(142, 161),2	9269,(144, 161),2	9397,(146, 161),2	9525,(148, 161),2	9653,(150, 161),2	9781,(152, 161),2	9909,(154, 161),2	10037,(156, 161),2	10165,(158, 161),2	10293,(160, 161),2	
1,(0, 2),52	53,(0, 4),52	105,(0, 6),52	157,(0, 8),52	209,(0, 10),52	261,(0, 12),52	313,(0, 14),52	365,(0, 16),52	417,(0, 18),52	469,(0, 20),52	521,(0, 22),52	573,(0, 24),52	625,(0, 26),52	677,(0, 28),52	729,(0, 30),52	781,(0, 32),52	833,(0, 34),52	885,(0, 36),52	937,(0, 38),52	989,(0, 40),52	1041,(0, 42),52	1093,(0, 44),52	1145,(0, 46),52	1197,(0, 48),52	1249,(0, 50),52	1301,(0, 52),52	1353,(0, 54),52	1405,(0, 56),52	1457,(0, 58),52	1509,(0, 60),52	1561,(0, 62),52	1613,(0, 64),52	1665,(0, 66),52	1717,(0, 68),52	1769,(0, 70),52	1821,(0, 72),52	1873,(0, 74),52	1925,(0, 76),52	1977,(0, 78),52	2029,(0, 80),52	2081,(0, 82),52	2133,(0, 84),52	2185,(0, 86),52	2237,(0, 88),52	2289,(0, 90),52	2341,(0, 92),52	2393,(0, 94),52	2445,(0, 96),52	2497,(0, 98),52	2549,(0, 100),52	2601,(0, 102),52	2653,(0, 104),52	2705,(0, 106),52	2757,(0, 108),52	2809,(0, 110),52	2861,(0, 112),52	2913,(0, 114),52	2965,(0, 116),52	3017,(0, 118),52	3069,(0, 120),52	3121,(0, 122),52	3173,(0, 124),52	3225,(0, 126),52	3277,(0, 128),52	3329,(0, 130),52	3381,(0, 132),52	3433,(0, 134),52	3485,(0, 136),52	3537,(0, 138),52	3589,(0, 140),52	3641,(0, 142),52	3693,(0, 144),52	3745,(0, 146),52	3797,(0, 148),52	3849,(0, 150),52	3901,(0, 152),52	3953,(0, 154),52	4005,(0, 156),52	4057,(0, 158),52	4109,(0, 160),52	
