1766
# CPU
3,2,22	25,4,22	47,6,22	69,8,22	91,10,22	113,12,22	135,14,22	157,16,22	179,18,22	201,20,22	223,22,22	245,24,22	267,26,22	289,28,22	311,30,22	333,32,22	355,34,22	377,36,22	399,38,22	421,40,22	443,42,22	465,44,22	487,46,22	509,48,22	531,50,22	553,52,22	575,54,22	597,56,22	619,58,22	641,60,22	663,62,22	685,64,22	707,66,22	729,68,22	751,70,22	773,72,22	795,74,22	817,76,22	839,78,22	861,80,22	883,82,22	905,84,22	927,86,22	949,88,22	971,90,22	993,92,22	1015,94,22	1037,96,22	1059,98,22	1081,100,22	1103,102,22	1125,104,22	1147,106,22	1169,108,22	1191,110,22	1213,112,22	1235,114,22	1257,116,22	1279,118,22	1301,120,22	1323,122,22	1345,124,22	1367,126,22	1389,128,22	1411,130,22	1433,132,22	1455,134,22	1477,136,22	1499,138,22	1521,140,22	1543,142,22	1565,144,22	1587,146,22	1609,148,22	1631,150,22	1653,152,22	1675,154,22	1697,156,22	1719,158,22	1741,160,22	
0,0,1	1,1,22	23,5,22	45,13,22	67,29,22	89,61,22	111,125,22	133,159,22	155,157,22	177,155,22	199,153,22	221,151,22	243,149,22	265,147,22	287,145,22	309,143,22	331,141,22	353,139,22	375,137,22	397,135,22	419,133,22	441,131,22	463,129,22	485,123,22	507,127,22	529,121,22	551,119,22	573,117,22	595,115,22	617,113,22	639,111,22	661,109,22	683,107,22	705,105,22	727,103,22	749,101,22	771,99,22	793,97,22	815,95,22	837,93,22	859,91,22	881,89,22	903,87,22	925,85,22	947,83,22	969,81,22	991,79,22	1013,77,22	1035,75,22	1057,73,22	1079,71,22	1101,69,22	1123,67,22	1145,65,22	1167,59,22	1189,63,22	1211,57,22	1233,55,22	1255,53,22	1277,51,22	1299,49,22	1321,47,22	1343,45,22	1365,43,22	1387,41,22	1409,39,22	1431,37,22	1453,35,22	1475,33,22	1497,27,22	1519,31,22	1541,25,22	1563,23,22	1585,21,22	1607,19,22	1629,17,22	1651,11,22	1673,15,22	1695,9,22	1717,3,22	1739,7,22	1765,161,1	
# Incoming
1,(0, 2),2	3,(0, 4),2	5,(0, 6),2	7,(0, 8),2	9,(0, 10),2	11,(0, 12),2	13,(0, 14),2	15,(0, 16),2	17,(0, 18),2	19,(0, 20),2	21,(0, 22),2	23,(0, 24),2	25,(0, 26),2	27,(0, 28),2	29,(0, 30),2	31,(0, 32),2	33,(0, 34),2	35,(0, 36),2	37,(0, 38),2	39,(0, 40),2	41,(0, 42),2	43,(0, 44),2	45,(0, 46),2	47,(0, 48),2	49,(0, 50),2	51,(0, 52),2	53,(0, 54),2	55,(0, 56),2	57,(0, 58),2	59,(0, 60),2	61,(0, 62),2	63,(0, 64),2	65,(0, 66),2	67,(0, 68),2	69,(0, 70),2	71,(0, 72),2	73,(0, 74),2	75,(0, 76),2	77,(0, 78),2	79,(0, 80),2	81,(0, 82),2	83,(0, 84),2	85,(0, 86),2	87,(0, 88),2	89,(0, 90),2	91,(0, 92),2	93,(0, 94),2	95,(0, 96),2	97,(0, 98),2	99,(0, 100),2	101,(0, 102),2	103,(0, 104),2	105,(0, 106),2	107,(0, 108),2	109,(0, 110),2	111,(0, 112),2	113,(0, 114),2	115,(0, 116),2	117,(0, 118),2	119,(0, 120),2	121,(0, 122),2	123,(0, 124),2	125,(0, 126),2	127,(0, 128),2	129,(0, 130),2	131,(0, 132),2	133,(0, 134),2	135,(0, 136),2	137,(0, 138),2	139,(0, 140),2	141,(0, 142),2	143,(0, 144),2	145,(0, 146),2	147,(0, 148),2	149,(0, 150),2	151,(0, 152),2	153,(0, 154),2	155,(0, 156),2	157,(0, 158),2	159,(0, 160),2	
25,(2, 161),2	47,(4, 161),2	69,(6, 161),2	91,(8, 161),2	113,(10, 161),2	135,(12, 161),2	157,(14, 161),2	179,(16, 161),2	201,(18, 161),2	223,(20, 161),2	245,(22, 161),2	267,(24, 161),2	289,(26, 161),2	311,(28, 161),2	333,(30, 161),2	355,(32, 161),2	377,(34, 161),2	399,(36, 161),2	421,(38, 161),2	443,(40, 161),2	465,(42, 161),2	487,(44, 161),2	509,(46, 161),2	531,(48, 161),2	553,(50, 161),2	575,(52, 161),2	597,(54, 161),2	619,(56, 161),2	641,(58, 161),2	663,(60, 161),2	685,(62, 161),2	707,(64, 161),2	729,(66, 161),2	751,(68, 161),2	773,(70, 161),2	795,(72, 161),2	817,(74, 161),2	839,(76, 161),2	861,(78, 161),2	883,(80, 161),2	905,(82, 161),2	927,(84, 161),2	949,(86, 161),2	971,(88, 161),2	993,(90, 161),2	1015,(92, 161),2	1037,(94, 161),2	1059,(96, 161),2	1081,(98, 161),2	1103,(100, 161),2	1125,(102, 161),2	1147,(104, 161),2	1169,(106, 161),2	1191,(108, 161),2	1213,(110, 161),2	1235,(112, 161),2	1257,(114, 161),2	1279,(116, 161),2	1301,(118, 161),2	1323,(120, 161),2	1345,(122, 161),2	1367,(124, 161),2	1389,(126, 161),2	1411,(128, 161),2	1433,(130, 161),2	1455,(132, 161),2	1477,(134, 161),2	1499,(136, 161),2	1521,(138, 161),2	1543,(140, 161),2	1565,(142, 161),2	1587,(144, 161),2	1609,(146, 161),2	1631,(148, 161),2	1653,(150, 161),2	1675,(152, 161),2	1697,(154, 161),2	1719,(156, 161),2	1741,(158, 161),2	1763,(160, 161),2	
# Outgoing
25,(2, 161),2	47,(4, 161),2	69,(6, 161),2	91,(8, 161),2	113,(10, 161),2	135,(12, 161),2	157,(14, 161),2	179,(16, 161),2	201,(18, 161),2	223,(20, 161),2	245,(22, 161),2	267,(24, 161),2	289,(26, 161),2	311,(28, 161),2	333,(30, 161),2	355,(32, 161),2	377,(34, 161),2	399,(36, 161),2	421,(38, 161),2	443,(40, 161),2	465,(42, 161),2	487,(44, 161),2	509,(46, 161),2	531,(48, 161),2	553,(50, 161),2	575,(52, 161),2	597,(54, 161),2	619,(56, 161),2	641,(58, 161),2	663,(60, 161),2	685,(62, 161),2	707,(64, 161),2	729,(66, 161),2	751,(68, 161),2	773,(70, 161),2	795,(72, 161),2	817,(74, 161),2	839,(76, 161),2	861,(78, 161),2	883,(80, 161),2	905,(82, 161),2	927,(84, 161),2	949,(86, 161),2	971,(88, 161),2	993,(90, 161),2	1015,(92, 161),2	1037,(94, 161),2	1059,(96, 161),2	1081,(98, 161),2	1103,(100, 161),2	1125,(102, 161),2	1147,(104, 161),2	1169,(106, 161),2	1191,(108, 161),2	1213,(110, 161),2	1235,(112, 161),2	1257,(114, 161),2	1279,(116, 161),2	1301,(118, 161),2	1323,(120, 161),2	1345,(122, 161),2	1367,(124, 161),2	1389,(126, 161),2	1411,(128, 161),2	1433,(130, 161),2	1455,(132, 161),2	1477,(134, 161),2	1499,(136, 161),2	1521,(138, 161),2	1543,(140, 161),2	1565,(142, 161),2	1587,(144, 161),2	1609,(146, 161),2	1631,(148, 161),2	1653,(150, 161),2	1675,(152, 161),2	1697,(154, 161),2	1719,(156, 161),2	1741,(158, 161),2	1763,(160, 161),2	
1,(0, 2),2	3,(0, 4),2	5,(0, 6),2	7,(0, 8),2	9,(0, 10),2	11,(0, 12),2	13,(0, 14),2	15,(0, 16),2	17,(0, 18),2	19,(0, 20),2	21,(0, 22),2	23,(0, 24),2	25,(0, 26),2	27,(0, 28),2	29,(0, 30),2	31,(0, 32),2	33,(0, 34),2	35,(0, 36),2	37,(0, 38),2	39,(0, 40),2	41,(0, 42),2	43,(0, 44),2	45,(0, 46),2	47,(0, 48),2	49,(0, 50),2	51,(0, 52),2	53,(0, 54),2	55,(0, 56),2	57,(0, 58),2	59,(0, 60),2	61,(0, 62),2	63,(0, 64),2	65,(0, 66),2	67,(0, 68),2	69,(0, 70),2	71,(0, 72),2	73,(0, 74),2	75,(0, 76),2	77,(0, 78),2	79,(0, 80),2	81,(0, 82),2	83,(0, 84),2	85,(0, 86),2	87,(0, 88),2	89,(0, 90),2	91,(0, 92),2	93,(0, 94),2	95,(0, 96),2	97,(0, 98),2	99,(0, 100),2	101,(0, 102),2	103,(0, 104),2	105,(0, 106),2	107,(0, 108),2	109,(0, 110),2	111,(0, 112),2	113,(0, 114),2	115,(0, 116),2	117,(0, 118),2	119,(0, 120),2	121,(0, 122),2	123,(0, 124),2	125,(0, 126),2	127,(0, 128),2	129,(0, 130),2	131,(0, 132),2	133,(0, 134),2	135,(0, 136),2	137,(0, 138),2	139,(0, 140),2	141,(0, 142),2	143,(0, 144),2	145,(0, 146),2	147,(0, 148),2	149,(0, 150),2	151,(0, 152),2	153,(0, 154),2	155,(0, 156),2	157,(0, 158),2	159,(0, 160),2	
