26
# CPU
0,11,1	1,10,3	4,1,3	7,2,3	10,3,3	13,4,3	16,5,3	19,8,3	22,9,3	25,0,1	
7,7,3	13,6,3	


# Incoming
10,(7, 0),4	16,(6, 0),4	
1,(11, 7),6	7,(11, 6),6	


# Outgoing
1,(11, 7),6	7,(11, 6),6	
10,(7, 0),4	16,(6, 0),4	


