250
# CPU
0,11,1	1,10,40	41,1,40	81,3,40	121,5,40	161,6,40	201,8,40	249,0,1	
49,2,40	97,4,40	145,7,40	193,9,40	

# Incoming
89,(2, 0),16	137,(4, 0),16	185,(7, 0),16	233,(9, 0),16	
1,(11, 2),48	49,(11, 4),48	97,(11, 7),48	145,(11, 9),48	

# Outgoing
1,(11, 2),48	49,(11, 4),48	97,(11, 7),48	145,(11, 9),48	
89,(2, 0),16	137,(4, 0),16	185,(7, 0),16	233,(9, 0),16	

