586
# CPU
0,121,1	1,76,8	9,75,8	17,74,8	25,30,8	33,96,8	41,72,8	49,17,8	57,39,8	65,70,8	73,106,8	81,100,8	89,68,8	97,99,8	105,42,8	113,65,8	121,16,8	129,102,8	137,63,8	145,60,8	153,40,8	161,62,8	169,66,8	177,36,8	185,59,8	193,56,8	201,29,8	209,58,8	217,108,8	225,33,8	233,55,8	241,103,8	249,32,8	257,52,8	265,50,8	273,28,8	281,104,8	289,116,8	297,26,8	305,101,8	313,8,8	321,37,8	329,105,8	337,25,8	345,110,8	353,98,8	361,115,8	369,27,8	377,107,8	385,21,8	393,1,8	401,109,8	409,95,8	417,23,8	425,22,8	433,14,8	441,2,8	449,20,8	457,114,8	465,12,8	473,19,8	481,11,8	489,9,8	497,18,8	505,3,8	513,4,8	521,5,8	529,10,8	537,7,8	545,6,8	553,13,8	561,15,8	569,24,8	577,120,8	585,0,1	
49,84,8	301,57,8	313,51,8	397,53,8	541,118,8	
169,88,8	229,91,8	241,64,8	373,46,8	517,34,8	
25,82,8	85,78,8	97,77,8	157,87,8	385,44,8	445,97,8	457,94,8	529,117,8	
13,81,8	217,67,8	277,93,8	289,54,8	505,113,8	
145,86,8	205,90,8	349,47,8	493,112,8	565,31,8	
61,83,8	73,79,8	133,71,8	361,45,8	421,41,8	
181,69,8	253,61,8	265,92,8	433,43,8	
193,89,8	325,49,8	337,48,8	469,35,8	481,111,8	553,119,8	
37,80,8	109,73,8	121,85,8	409,38,8	
# Incoming
21,(81, 0),2	33,(82, 0),2	45,(80, 0),2	57,(84, 0),2	69,(83, 0),2	81,(79, 0),2	93,(78, 0),2	105,(77, 0),2	117,(73, 0),2	129,(85, 0),2	141,(71, 0),2	153,(86, 0),2	165,(87, 0),2	177,(88, 0),2	189,(69, 0),2	201,(89, 0),2	213,(90, 0),2	225,(67, 0),2	237,(91, 0),2	249,(64, 0),2	261,(61, 0),2	273,(92, 0),2	285,(93, 0),2	297,(54, 0),2	309,(57, 0),2	321,(51, 0),2	333,(49, 0),2	345,(48, 0),2	357,(47, 0),2	369,(45, 0),2	381,(46, 0),2	393,(44, 0),2	405,(53, 0),2	417,(38, 0),2	429,(41, 0),2	441,(43, 0),2	453,(97, 0),2	465,(94, 0),2	477,(35, 0),2	489,(111, 0),2	501,(112, 0),2	513,(113, 0),2	525,(34, 0),2	537,(117, 0),2	549,(118, 0),2	561,(119, 0),2	573,(31, 0),2	
37,(121, 84),12	289,(121, 57),12	301,(121, 51),12	385,(121, 53),12	529,(121, 118),12	
157,(121, 88),12	217,(121, 91),12	229,(121, 64),12	361,(121, 46),12	505,(121, 34),12	
13,(121, 82),12	73,(121, 78),12	85,(121, 77),12	145,(121, 87),12	373,(121, 44),12	433,(121, 97),12	445,(121, 94),12	517,(121, 117),12	
1,(121, 81),12	205,(121, 67),12	265,(121, 93),12	277,(121, 54),12	493,(121, 113),12	
133,(121, 86),12	193,(121, 90),12	337,(121, 47),12	481,(121, 112),12	553,(121, 31),12	
49,(121, 83),12	61,(121, 79),12	121,(121, 71),12	349,(121, 45),12	409,(121, 41),12	
169,(121, 69),12	241,(121, 61),12	253,(121, 92),12	421,(121, 43),12	
181,(121, 89),12	313,(121, 49),12	325,(121, 48),12	457,(121, 35),12	469,(121, 111),12	541,(121, 119),12	
25,(121, 80),12	97,(121, 73),12	109,(121, 85),12	397,(121, 38),12	
# Outgoing
1,(121, 81),12	13,(121, 82),12	25,(121, 80),12	37,(121, 84),12	49,(121, 83),12	61,(121, 79),12	73,(121, 78),12	85,(121, 77),12	97,(121, 73),12	109,(121, 85),12	121,(121, 71),12	133,(121, 86),12	145,(121, 87),12	157,(121, 88),12	169,(121, 69),12	181,(121, 89),12	193,(121, 90),12	205,(121, 67),12	217,(121, 91),12	229,(121, 64),12	241,(121, 61),12	253,(121, 92),12	265,(121, 93),12	277,(121, 54),12	289,(121, 57),12	301,(121, 51),12	313,(121, 49),12	325,(121, 48),12	337,(121, 47),12	349,(121, 45),12	361,(121, 46),12	373,(121, 44),12	385,(121, 53),12	397,(121, 38),12	409,(121, 41),12	421,(121, 43),12	433,(121, 97),12	445,(121, 94),12	457,(121, 35),12	469,(121, 111),12	481,(121, 112),12	493,(121, 113),12	505,(121, 34),12	517,(121, 117),12	529,(121, 118),12	541,(121, 119),12	553,(121, 31),12	
57,(84, 0),2	309,(57, 0),2	321,(51, 0),2	405,(53, 0),2	549,(118, 0),2	
177,(88, 0),2	237,(91, 0),2	249,(64, 0),2	381,(46, 0),2	525,(34, 0),2	
33,(82, 0),2	93,(78, 0),2	105,(77, 0),2	165,(87, 0),2	393,(44, 0),2	453,(97, 0),2	465,(94, 0),2	537,(117, 0),2	
21,(81, 0),2	225,(67, 0),2	285,(93, 0),2	297,(54, 0),2	513,(113, 0),2	
153,(86, 0),2	213,(90, 0),2	357,(47, 0),2	501,(112, 0),2	573,(31, 0),2	
69,(83, 0),2	81,(79, 0),2	141,(71, 0),2	369,(45, 0),2	429,(41, 0),2	
189,(69, 0),2	261,(61, 0),2	273,(92, 0),2	441,(43, 0),2	
201,(89, 0),2	333,(49, 0),2	345,(48, 0),2	477,(35, 0),2	489,(111, 0),2	561,(119, 0),2	
45,(80, 0),2	117,(73, 0),2	129,(85, 0),2	417,(38, 0),2	
