586
# CPU
0,121,1	1,120,8	9,75,8	17,74,8	25,73,8	33,72,8	41,71,8	49,70,8	57,69,8	65,67,8	73,68,8	81,66,8	89,65,8	97,64,8	105,62,8	113,61,8	121,63,8	129,60,8	137,58,8	145,57,8	153,56,8	161,55,8	169,59,8	177,53,8	185,52,8	193,51,8	201,50,8	209,49,8	217,48,8	225,47,8	233,46,8	241,45,8	249,44,8	257,42,8	265,43,8	273,104,8	281,105,8	289,103,8	297,102,8	305,106,8	313,101,8	321,107,8	329,100,8	337,99,8	345,108,8	353,54,8	361,109,8	369,39,8	377,110,8	385,38,8	393,36,8	401,111,8	409,34,8	417,112,8	425,17,8	433,16,8	441,15,8	449,14,8	457,18,8	465,13,8	473,12,8	481,11,8	489,10,8	497,9,8	505,1,8	513,2,8	521,3,8	529,4,8	537,5,8	545,6,8	553,7,8	561,8,8	569,19,8	577,119,8	585,0,1	
49,84,8	301,40,8	313,37,8	397,26,8	541,117,8	
169,92,8	229,96,8	241,97,8	373,29,8	517,21,8	
25,81,8	85,86,8	97,87,8	157,91,8	385,27,8	445,28,8	457,31,8	529,116,8	
13,80,8	217,95,8	277,76,8	289,41,8	505,115,8	
145,90,8	205,94,8	349,32,8	493,114,8	565,20,8	
61,83,8	73,85,8	133,89,8	361,30,8	421,22,8	
181,78,8	253,77,8	265,98,8	433,24,8	
193,93,8	325,35,8	337,33,8	469,25,8	481,113,8	553,118,8	
37,82,8	109,79,8	121,88,8	409,23,8	
# Incoming
21,(80, 0),2	33,(81, 0),2	45,(82, 0),2	57,(84, 0),2	69,(83, 0),2	81,(85, 0),2	93,(86, 0),2	105,(87, 0),2	117,(79, 0),2	129,(88, 0),2	141,(89, 0),2	153,(90, 0),2	165,(91, 0),2	177,(92, 0),2	189,(78, 0),2	201,(93, 0),2	213,(94, 0),2	225,(95, 0),2	237,(96, 0),2	249,(97, 0),2	261,(77, 0),2	273,(98, 0),2	285,(76, 0),2	297,(41, 0),2	309,(40, 0),2	321,(37, 0),2	333,(35, 0),2	345,(33, 0),2	357,(32, 0),2	369,(30, 0),2	381,(29, 0),2	393,(27, 0),2	405,(26, 0),2	417,(23, 0),2	429,(22, 0),2	441,(24, 0),2	453,(28, 0),2	465,(31, 0),2	477,(25, 0),2	489,(113, 0),2	501,(114, 0),2	513,(115, 0),2	525,(21, 0),2	537,(116, 0),2	549,(117, 0),2	561,(118, 0),2	573,(20, 0),2	
37,(121, 84),12	289,(121, 40),12	301,(121, 37),12	385,(121, 26),12	529,(121, 117),12	
157,(121, 92),12	217,(121, 96),12	229,(121, 97),12	361,(121, 29),12	505,(121, 21),12	
13,(121, 81),12	73,(121, 86),12	85,(121, 87),12	145,(121, 91),12	373,(121, 27),12	433,(121, 28),12	445,(121, 31),12	517,(121, 116),12	
1,(121, 80),12	205,(121, 95),12	265,(121, 76),12	277,(121, 41),12	493,(121, 115),12	
133,(121, 90),12	193,(121, 94),12	337,(121, 32),12	481,(121, 114),12	553,(121, 20),12	
49,(121, 83),12	61,(121, 85),12	121,(121, 89),12	349,(121, 30),12	409,(121, 22),12	
169,(121, 78),12	241,(121, 77),12	253,(121, 98),12	421,(121, 24),12	
181,(121, 93),12	313,(121, 35),12	325,(121, 33),12	457,(121, 25),12	469,(121, 113),12	541,(121, 118),12	
25,(121, 82),12	97,(121, 79),12	109,(121, 88),12	397,(121, 23),12	
# Outgoing
1,(121, 80),12	13,(121, 81),12	25,(121, 82),12	37,(121, 84),12	49,(121, 83),12	61,(121, 85),12	73,(121, 86),12	85,(121, 87),12	97,(121, 79),12	109,(121, 88),12	121,(121, 89),12	133,(121, 90),12	145,(121, 91),12	157,(121, 92),12	169,(121, 78),12	181,(121, 93),12	193,(121, 94),12	205,(121, 95),12	217,(121, 96),12	229,(121, 97),12	241,(121, 77),12	253,(121, 98),12	265,(121, 76),12	277,(121, 41),12	289,(121, 40),12	301,(121, 37),12	313,(121, 35),12	325,(121, 33),12	337,(121, 32),12	349,(121, 30),12	361,(121, 29),12	373,(121, 27),12	385,(121, 26),12	397,(121, 23),12	409,(121, 22),12	421,(121, 24),12	433,(121, 28),12	445,(121, 31),12	457,(121, 25),12	469,(121, 113),12	481,(121, 114),12	493,(121, 115),12	505,(121, 21),12	517,(121, 116),12	529,(121, 117),12	541,(121, 118),12	553,(121, 20),12	
57,(84, 0),2	309,(40, 0),2	321,(37, 0),2	405,(26, 0),2	549,(117, 0),2	
177,(92, 0),2	237,(96, 0),2	249,(97, 0),2	381,(29, 0),2	525,(21, 0),2	
33,(81, 0),2	93,(86, 0),2	105,(87, 0),2	165,(91, 0),2	393,(27, 0),2	453,(28, 0),2	465,(31, 0),2	537,(116, 0),2	
21,(80, 0),2	225,(95, 0),2	285,(76, 0),2	297,(41, 0),2	513,(115, 0),2	
153,(90, 0),2	213,(94, 0),2	357,(32, 0),2	501,(114, 0),2	573,(20, 0),2	
69,(83, 0),2	81,(85, 0),2	141,(89, 0),2	369,(30, 0),2	429,(22, 0),2	
189,(78, 0),2	261,(77, 0),2	273,(98, 0),2	441,(24, 0),2	
201,(93, 0),2	333,(35, 0),2	345,(33, 0),2	477,(25, 0),2	489,(113, 0),2	561,(118, 0),2	
45,(82, 0),2	117,(79, 0),2	129,(88, 0),2	417,(23, 0),2	
