291
# CPU
129,5,1	257,10,1	
97,4,1	225,9,1	
65,3,1	193,8,1	
33,2,1	161,7,1	
0,0,1	1,1,1	2,6,1	290,11,1	
# Incoming
97,(0, 5),32	225,(0, 10),32	
65,(0, 4),32	193,(0, 9),32	
33,(0, 3),32	161,(0, 8),32	
1,(0, 2),32	129,(0, 7),32	
34,(2, 11),32	66,(3, 11),32	98,(4, 11),32	130,(5, 11),32	162,(7, 11),32	194,(8, 11),32	226,(9, 11),32	258,(10, 11),32	
# Outgoing
130,(5, 11),32	258,(10, 11),32	
98,(4, 11),32	226,(9, 11),32	
66,(3, 11),32	194,(8, 11),32	
34,(2, 11),32	162,(7, 11),32	
1,(0, 2),32	33,(0, 3),32	65,(0, 4),32	97,(0, 5),32	129,(0, 7),32	161,(0, 8),32	193,(0, 9),32	225,(0, 10),32	
