206
# CPU
0,11,1	1,1,34	35,2,34	69,3,34	103,4,34	137,6,34	171,10,34	205,0,1	
37,7,34	73,8,34	109,5,34	145,9,34	


# Incoming
71,(7, 0),12	107,(8, 0),12	143,(5, 0),12	179,(9, 0),12	
1,(11, 7),36	37,(11, 8),36	73,(11, 5),36	109,(11, 9),36	


# Outgoing
1,(11, 7),36	37,(11, 8),36	73,(11, 5),36	109,(11, 9),36	
71,(7, 0),12	107,(8, 0),12	143,(5, 0),12	179,(9, 0),12	


