891
# CPU
0,161,1	1,111,22	23,110,22	45,114,22	67,103,22	89,100,22	111,97,22	133,119,22	155,92,22	177,81,22	199,78,22	221,84,22	243,73,22	265,87,22	287,68,22	309,122,22	331,63,22	353,125,22	375,58,22	397,128,22	419,53,22	441,131,22	463,48,22	485,134,22	507,43,22	529,145,22	551,142,22	573,139,22	595,40,22	617,37,22	639,34,22	661,31,22	683,28,22	705,17,22	727,19,22	749,21,22	771,23,22	793,1,22	815,5,22	837,25,22	859,157,22	
10,112,22	32,108,22	54,106,22	76,101,22	98,98,22	120,95,22	142,93,22	164,90,22	186,79,22	208,76,22	230,74,22	252,71,22	274,69,22	296,66,22	318,64,22	340,61,22	362,59,22	384,56,22	406,54,22	428,51,22	450,49,22	472,46,22	494,44,22	516,41,22	538,143,22	560,140,22	582,137,22	604,38,22	626,35,22	648,32,22	670,29,22	692,26,22	714,15,22	736,13,22	758,11,22	780,9,22	802,4,22	824,8,22	846,156,22	868,160,22	890,0,1	
4,105,22	26,109,22	48,107,22	70,102,22	92,99,22	114,96,22	136,94,22	158,91,22	180,80,22	202,77,22	224,75,22	246,72,22	268,70,22	290,67,22	312,65,22	334,62,22	356,60,22	378,57,22	400,55,22	422,52,22	444,50,22	466,47,22	488,45,22	510,42,22	532,144,22	554,141,22	576,138,22	598,39,22	620,36,22	642,33,22	664,30,22	686,27,22	708,16,22	730,14,22	752,12,22	774,10,22	796,2,22	818,6,22	840,154,22	862,158,22	
7,104,22	29,113,22	51,115,22	73,116,22	95,117,22	117,118,22	139,120,22	161,121,22	183,82,22	205,83,22	227,85,22	249,86,22	271,88,22	293,89,22	315,123,22	337,124,22	359,126,22	381,127,22	403,129,22	425,130,22	447,132,22	469,133,22	491,135,22	513,136,22	535,146,22	557,147,22	579,148,22	601,149,22	623,150,22	645,151,22	667,152,22	689,153,22	711,18,22	733,20,22	755,22,22	777,24,22	799,3,22	821,7,22	843,155,22	865,159,22	
# Incoming

7,(161, 112),3	16,(161, 108),3	25,(161, 106),3	28,(105, 0),3	31,(104, 0),3	34,(161, 101),3	43,(161, 98),3	48,(109, 0),3	52,(161, 95),3	55,(113, 0),3	61,(161, 93),3	70,(161, 90),3	73,(107, 0),3	76,(115, 0),3	79,(161, 79),3	88,(161, 76),3	92,(102, 0),3	97,(161, 74),3	100,(116, 0),3	106,(161, 71),3	115,(161, 69),3	118,(99, 0),3	121,(117, 0),3	124,(161, 66),3	133,(161, 64),3	136,(96, 0),3	139,(118, 0),3	142,(161, 61),3	151,(161, 59),3	160,(161, 56),3	163,(94, 0),3	166,(120, 0),3	169,(161, 54),3	178,(161, 51),3	181,(91, 0),3	184,(121, 0),3	187,(161, 49),3	196,(161, 46),3	202,(80, 0),3	205,(161, 44),3	208,(82, 0),3	214,(161, 41),3	223,(161, 143),3	226,(77, 0),3	229,(83, 0),3	232,(161, 140),3	241,(161, 137),3	246,(75, 0),3	250,(161, 38),3	253,(85, 0),3	259,(161, 35),3	268,(161, 32),3	271,(72, 0),3	274,(86, 0),3	277,(161, 29),3	286,(161, 26),3	290,(70, 0),3	295,(161, 15),3	298,(88, 0),3	304,(161, 13),3	313,(161, 11),3	316,(67, 0),3	319,(89, 0),3	322,(161, 9),3	331,(161, 4),3	334,(65, 0),3	337,(123, 0),3	340,(161, 8),3	349,(161, 156),3	358,(161, 160),3	361,(111, 0),3	364,(110, 0),3	367,(114, 0),3	370,(103, 0),3	373,(100, 0),3	376,(97, 0),3	379,(119, 0),3	382,(92, 0),3	385,(81, 0),3	388,(78, 0),3	391,(84, 0),3	394,(73, 0),3	397,(87, 0),3	400,(68, 0),3	403,(122, 0),3	406,(63, 0),3	409,(62, 0),3	412,(124, 0),3	415,(125, 0),3	418,(60, 0),3	421,(126, 0),3	424,(58, 0),3	427,(57, 0),3	430,(127, 0),3	433,(128, 0),3	436,(55, 0),3	439,(129, 0),3	442,(53, 0),3	445,(52, 0),3	448,(130, 0),3	463,(131, 0),3	466,(50, 0),3	469,(132, 0),3	485,(48, 0),3	488,(47, 0),3	491,(133, 0),3	507,(134, 0),3	510,(45, 0),3	513,(135, 0),3	529,(43, 0),3	532,(42, 0),3	535,(136, 0),3	551,(145, 0),3	554,(144, 0),3	557,(146, 0),3	573,(142, 0),3	576,(141, 0),3	579,(147, 0),3	595,(139, 0),3	598,(138, 0),3	601,(148, 0),3	617,(40, 0),3	620,(39, 0),3	623,(149, 0),3	639,(37, 0),3	642,(36, 0),3	645,(150, 0),3	661,(34, 0),3	664,(33, 0),3	667,(151, 0),3	683,(31, 0),3	686,(30, 0),3	689,(152, 0),3	705,(28, 0),3	708,(27, 0),3	711,(153, 0),3	727,(17, 0),3	730,(16, 0),3	733,(18, 0),3	749,(19, 0),3	752,(14, 0),3	755,(20, 0),3	771,(21, 0),3	774,(12, 0),3	777,(22, 0),3	793,(23, 0),3	796,(10, 0),3	799,(24, 0),3	815,(1, 0),3	818,(2, 0),3	821,(3, 0),3	837,(5, 0),3	840,(6, 0),3	843,(7, 0),3	859,(25, 0),3	862,(154, 0),3	865,(155, 0),3	881,(157, 0),3	884,(158, 0),3	887,(159, 0),3	
1,(161, 105),3	10,(161, 109),3	19,(161, 107),3	28,(161, 102),3	37,(161, 99),3	46,(161, 96),3	55,(161, 94),3	64,(161, 91),3	73,(161, 80),3	82,(161, 77),3	91,(161, 75),3	100,(161, 72),3	109,(161, 70),3	118,(161, 67),3	127,(161, 65),3	136,(161, 62),3	145,(161, 60),3	154,(161, 57),3	163,(161, 55),3	172,(161, 52),3	181,(161, 50),3	190,(161, 47),3	199,(161, 45),3	208,(161, 42),3	217,(161, 144),3	226,(161, 141),3	235,(161, 138),3	244,(161, 39),3	253,(161, 36),3	262,(161, 33),3	271,(161, 30),3	280,(161, 27),3	289,(161, 16),3	298,(161, 14),3	307,(161, 12),3	316,(161, 10),3	325,(161, 2),3	334,(161, 6),3	343,(161, 154),3	352,(161, 158),3	
4,(161, 104),3	13,(161, 113),3	22,(161, 115),3	31,(161, 116),3	40,(161, 117),3	49,(161, 118),3	58,(161, 120),3	67,(161, 121),3	76,(161, 82),3	85,(161, 83),3	94,(161, 85),3	103,(161, 86),3	112,(161, 88),3	121,(161, 89),3	130,(161, 123),3	139,(161, 124),3	148,(161, 126),3	157,(161, 127),3	166,(161, 129),3	175,(161, 130),3	184,(161, 132),3	193,(161, 133),3	202,(161, 135),3	211,(161, 136),3	220,(161, 146),3	229,(161, 147),3	238,(161, 148),3	247,(161, 149),3	256,(161, 150),3	265,(161, 151),3	274,(161, 152),3	283,(161, 153),3	292,(161, 18),3	301,(161, 20),3	310,(161, 22),3	319,(161, 24),3	328,(161, 3),3	337,(161, 7),3	346,(161, 155),3	355,(161, 159),3	
# Outgoing
1,(161, 105),3	4,(161, 104),3	7,(161, 112),3	10,(161, 109),3	13,(161, 113),3	16,(161, 108),3	19,(161, 107),3	22,(161, 115),3	25,(161, 106),3	28,(161, 102),3	31,(161, 116),3	34,(161, 101),3	37,(161, 99),3	40,(161, 117),3	43,(161, 98),3	46,(161, 96),3	49,(161, 118),3	52,(161, 95),3	55,(161, 94),3	58,(161, 120),3	61,(161, 93),3	64,(161, 91),3	67,(161, 121),3	70,(161, 90),3	73,(161, 80),3	76,(161, 82),3	79,(161, 79),3	82,(161, 77),3	85,(161, 83),3	88,(161, 76),3	91,(161, 75),3	94,(161, 85),3	97,(161, 74),3	100,(161, 72),3	103,(161, 86),3	106,(161, 71),3	109,(161, 70),3	112,(161, 88),3	115,(161, 69),3	118,(161, 67),3	121,(161, 89),3	124,(161, 66),3	127,(161, 65),3	130,(161, 123),3	133,(161, 64),3	136,(161, 62),3	139,(161, 124),3	142,(161, 61),3	145,(161, 60),3	148,(161, 126),3	151,(161, 59),3	154,(161, 57),3	157,(161, 127),3	160,(161, 56),3	163,(161, 55),3	166,(161, 129),3	169,(161, 54),3	172,(161, 52),3	175,(161, 130),3	178,(161, 51),3	181,(161, 50),3	184,(161, 132),3	187,(161, 49),3	190,(161, 47),3	193,(161, 133),3	196,(161, 46),3	199,(161, 45),3	202,(161, 135),3	205,(161, 44),3	208,(161, 42),3	211,(161, 136),3	214,(161, 41),3	217,(161, 144),3	220,(161, 146),3	223,(161, 143),3	226,(161, 141),3	229,(161, 147),3	232,(161, 140),3	235,(161, 138),3	238,(161, 148),3	241,(161, 137),3	244,(161, 39),3	247,(161, 149),3	250,(161, 38),3	253,(161, 36),3	256,(161, 150),3	259,(161, 35),3	262,(161, 33),3	265,(161, 151),3	268,(161, 32),3	271,(161, 30),3	274,(161, 152),3	277,(161, 29),3	280,(161, 27),3	283,(161, 153),3	286,(161, 26),3	289,(161, 16),3	292,(161, 18),3	295,(161, 15),3	298,(161, 14),3	301,(161, 20),3	304,(161, 13),3	307,(161, 12),3	310,(161, 22),3	313,(161, 11),3	316,(161, 10),3	319,(161, 24),3	322,(161, 9),3	325,(161, 2),3	328,(161, 3),3	331,(161, 4),3	334,(161, 6),3	337,(161, 7),3	340,(161, 8),3	343,(161, 154),3	346,(161, 155),3	349,(161, 156),3	352,(161, 158),3	355,(161, 159),3	358,(161, 160),3	361,(111, 0),3	364,(110, 0),3	367,(114, 0),3	370,(103, 0),3	373,(100, 0),3	376,(97, 0),3	379,(119, 0),3	382,(92, 0),3	385,(81, 0),3	388,(78, 0),3	391,(84, 0),3	394,(73, 0),3	397,(87, 0),3	400,(68, 0),3	403,(122, 0),3	406,(63, 0),3	415,(125, 0),3	424,(58, 0),3	433,(128, 0),3	442,(53, 0),3	463,(131, 0),3	485,(48, 0),3	507,(134, 0),3	529,(43, 0),3	551,(145, 0),3	573,(142, 0),3	595,(139, 0),3	617,(40, 0),3	639,(37, 0),3	661,(34, 0),3	683,(31, 0),3	705,(28, 0),3	727,(17, 0),3	749,(19, 0),3	771,(21, 0),3	793,(23, 0),3	815,(1, 0),3	837,(5, 0),3	859,(25, 0),3	881,(157, 0),3	

28,(105, 0),3	48,(109, 0),3	73,(107, 0),3	92,(102, 0),3	118,(99, 0),3	136,(96, 0),3	163,(94, 0),3	181,(91, 0),3	202,(80, 0),3	226,(77, 0),3	246,(75, 0),3	271,(72, 0),3	290,(70, 0),3	316,(67, 0),3	334,(65, 0),3	409,(62, 0),3	418,(60, 0),3	427,(57, 0),3	436,(55, 0),3	445,(52, 0),3	466,(50, 0),3	488,(47, 0),3	510,(45, 0),3	532,(42, 0),3	554,(144, 0),3	576,(141, 0),3	598,(138, 0),3	620,(39, 0),3	642,(36, 0),3	664,(33, 0),3	686,(30, 0),3	708,(27, 0),3	730,(16, 0),3	752,(14, 0),3	774,(12, 0),3	796,(10, 0),3	818,(2, 0),3	840,(6, 0),3	862,(154, 0),3	884,(158, 0),3	
31,(104, 0),3	55,(113, 0),3	76,(115, 0),3	100,(116, 0),3	121,(117, 0),3	139,(118, 0),3	166,(120, 0),3	184,(121, 0),3	208,(82, 0),3	229,(83, 0),3	253,(85, 0),3	274,(86, 0),3	298,(88, 0),3	319,(89, 0),3	337,(123, 0),3	412,(124, 0),3	421,(126, 0),3	430,(127, 0),3	439,(129, 0),3	448,(130, 0),3	469,(132, 0),3	491,(133, 0),3	513,(135, 0),3	535,(136, 0),3	557,(146, 0),3	579,(147, 0),3	601,(148, 0),3	623,(149, 0),3	645,(150, 0),3	667,(151, 0),3	689,(152, 0),3	711,(153, 0),3	733,(18, 0),3	755,(20, 0),3	777,(22, 0),3	799,(24, 0),3	821,(3, 0),3	843,(7, 0),3	865,(155, 0),3	887,(159, 0),3	
