16
# CPU
0,11,1	1,10,2	3,1,2	5,2,2	7,3,2	9,5,2	11,7,2	13,8,2	15,0,1	
4,4,2	7,6,2	10,9,2	
# Incoming
6,(4, 0),3	9,(6, 0),3	12,(9, 0),3	
1,(11, 4),3	4,(11, 6),3	7,(11, 9),3	
# Outgoing
1,(11, 4),3	4,(11, 6),3	7,(11, 9),3	
6,(4, 0),3	9,(6, 0),3	12,(9, 0),3	
