1940
# CPU
0,121,1	1,120,19	20,75,19	39,76,19	58,74,19	77,73,19	96,72,19	115,71,19	134,77,19	153,70,19	172,78,19	191,69,19	210,68,19	229,67,19	248,66,19	267,79,19	286,65,19	305,81,19	324,63,19	343,62,19	362,64,19	381,61,19	400,82,19	419,60,19	438,59,19	457,58,19	476,57,19	495,85,19	514,56,19	533,55,19	552,87,19	571,54,19	590,53,19	609,52,19	628,89,19	647,90,19	666,50,19	685,91,19	704,49,19	723,48,19	742,92,19	761,46,19	780,93,19	799,45,19	818,94,19	837,44,19	856,42,19	875,95,19	894,41,19	913,104,19	932,103,19	951,102,19	970,101,19	989,100,19	1008,106,19	1027,99,19	1046,98,19	1065,107,19	1084,96,19	1103,40,19	1122,39,19	1141,108,19	1160,37,19	1179,36,19	1198,109,19	1217,35,19	1236,34,19	1255,33,19	1274,32,19	1293,31,19	1312,30,19	1331,111,19	1350,29,19	1369,28,19	1388,112,19	1407,26,19	1426,17,19	1445,16,19	1464,18,19	1483,19,19	1502,14,19	1521,20,19	1540,13,19	1559,21,19	1578,12,19	1597,11,19	1616,23,19	1635,10,19	1654,24,19	1673,9,19	1692,2,19	1711,3,19	1730,4,19	1749,5,19	1768,6,19	1787,7,19	1806,25,19	1825,113,19	1844,114,19	1863,115,19	1882,116,19	1901,118,19	1920,119,19	1939,0,1	
7,83,19	26,51,19	45,97,19	64,15,19	83,117,19	
13,84,19	32,43,19	51,110,19	70,1,19	
10,88,19	29,47,19	48,38,19	67,22,19	
4,80,19	23,86,19	42,105,19	61,27,19	80,8,19	
# Incoming
23,(80, 0),105	128,(83, 0),105	233,(88, 0),105	338,(84, 0),105	443,(86, 0),105	548,(51, 0),105	653,(47, 0),105	758,(43, 0),105	863,(105, 0),105	968,(97, 0),105	1073,(38, 0),105	1178,(110, 0),105	1283,(27, 0),105	1388,(15, 0),105	1493,(22, 0),105	1598,(1, 0),105	1703,(8, 0),105	1808,(117, 0),105	
4,(121, 83),3	16,(121, 51),3	28,(121, 97),3	40,(121, 15),3	52,(121, 117),3	
10,(121, 84),3	22,(121, 43),3	34,(121, 110),3	46,(121, 1),3	
7,(121, 88),3	19,(121, 47),3	31,(121, 38),3	43,(121, 22),3	
1,(121, 80),3	13,(121, 86),3	25,(121, 105),3	37,(121, 27),3	49,(121, 8),3	
# Outgoing
1,(121, 80),3	4,(121, 83),3	7,(121, 88),3	10,(121, 84),3	13,(121, 86),3	16,(121, 51),3	19,(121, 47),3	22,(121, 43),3	25,(121, 105),3	28,(121, 97),3	31,(121, 38),3	34,(121, 110),3	37,(121, 27),3	40,(121, 15),3	43,(121, 22),3	46,(121, 1),3	49,(121, 8),3	52,(121, 117),3	
128,(83, 0),105	548,(51, 0),105	968,(97, 0),105	1388,(15, 0),105	1808,(117, 0),105	
338,(84, 0),105	758,(43, 0),105	1178,(110, 0),105	1598,(1, 0),105	
233,(88, 0),105	653,(47, 0),105	1073,(38, 0),105	1493,(22, 0),105	
23,(80, 0),105	443,(86, 0),105	863,(105, 0),105	1283,(27, 0),105	1703,(8, 0),105	
