4451
# CPU
7,2,3	13,4,3	19,6,3	25,8,3	31,10,3	37,12,3	43,14,3	49,16,3	55,18,3	61,20,3	67,22,3	73,24,3	79,26,3	85,28,3	91,30,3	97,32,3	103,34,3	109,36,3	115,38,3	121,40,3	127,42,3	133,44,3	139,46,3	145,48,3	151,50,3	157,52,3	163,54,3	169,56,3	175,58,3	181,60,3	187,62,3	193,64,3	199,66,3	205,68,3	211,70,3	217,72,3	223,74,3	229,76,3	235,78,3	241,80,3	247,82,3	253,84,3	259,86,3	265,88,3	271,90,3	277,92,3	283,94,3	289,96,3	295,98,3	301,100,3	307,102,3	313,104,3	319,106,3	325,108,3	331,110,3	337,112,3	343,114,3	349,116,3	355,118,3	361,120,3	
0,0,1	1,1,3	4,5,3	7,13,3	10,29,3	13,61,3	16,119,3	19,117,3	22,115,3	25,113,3	28,111,3	31,109,3	34,107,3	37,105,3	40,103,3	43,101,3	46,99,3	49,97,3	52,95,3	55,93,3	58,91,3	61,89,3	64,87,3	67,85,3	70,83,3	73,81,3	76,79,3	79,77,3	82,75,3	85,73,3	88,71,3	91,69,3	94,67,3	97,65,3	100,59,3	103,63,3	106,57,3	109,55,3	112,53,3	115,51,3	118,49,3	121,47,3	124,45,3	127,43,3	130,41,3	133,39,3	136,37,3	139,35,3	142,33,3	145,27,3	148,31,3	151,25,3	154,23,3	157,21,3	160,19,3	163,17,3	166,11,3	169,15,3	172,9,3	175,3,3	178,7,3	4450,121,1	
# Incoming
1,(0, 2),6	7,(0, 4),6	13,(0, 6),6	19,(0, 8),6	25,(0, 10),6	31,(0, 12),6	37,(0, 14),6	43,(0, 16),6	49,(0, 18),6	55,(0, 20),6	61,(0, 22),6	67,(0, 24),6	73,(0, 26),6	79,(0, 28),6	85,(0, 30),6	91,(0, 32),6	97,(0, 34),6	103,(0, 36),6	109,(0, 38),6	115,(0, 40),6	121,(0, 42),6	127,(0, 44),6	133,(0, 46),6	139,(0, 48),6	145,(0, 50),6	151,(0, 52),6	157,(0, 54),6	163,(0, 56),6	169,(0, 58),6	175,(0, 60),6	181,(0, 62),6	187,(0, 64),6	193,(0, 66),6	199,(0, 68),6	205,(0, 70),6	211,(0, 72),6	217,(0, 74),6	223,(0, 76),6	229,(0, 78),6	235,(0, 80),6	241,(0, 82),6	247,(0, 84),6	253,(0, 86),6	259,(0, 88),6	265,(0, 90),6	271,(0, 92),6	277,(0, 94),6	283,(0, 96),6	289,(0, 98),6	295,(0, 100),6	301,(0, 102),6	307,(0, 104),6	313,(0, 106),6	319,(0, 108),6	325,(0, 110),6	331,(0, 112),6	337,(0, 114),6	343,(0, 116),6	349,(0, 118),6	355,(0, 120),6	
10,(2, 121),74	84,(4, 121),74	158,(6, 121),74	232,(8, 121),74	306,(10, 121),74	380,(12, 121),74	454,(14, 121),74	528,(16, 121),74	602,(18, 121),74	676,(20, 121),74	750,(22, 121),74	824,(24, 121),74	898,(26, 121),74	972,(28, 121),74	1046,(30, 121),74	1120,(32, 121),74	1194,(34, 121),74	1268,(36, 121),74	1342,(38, 121),74	1416,(40, 121),74	1490,(42, 121),74	1564,(44, 121),74	1638,(46, 121),74	1712,(48, 121),74	1786,(50, 121),74	1860,(52, 121),74	1934,(54, 121),74	2008,(56, 121),74	2082,(58, 121),74	2156,(60, 121),74	2230,(62, 121),74	2304,(64, 121),74	2378,(66, 121),74	2452,(68, 121),74	2526,(70, 121),74	2600,(72, 121),74	2674,(74, 121),74	2748,(76, 121),74	2822,(78, 121),74	2896,(80, 121),74	2970,(82, 121),74	3044,(84, 121),74	3118,(86, 121),74	3192,(88, 121),74	3266,(90, 121),74	3340,(92, 121),74	3414,(94, 121),74	3488,(96, 121),74	3562,(98, 121),74	3636,(100, 121),74	3710,(102, 121),74	3784,(104, 121),74	3858,(106, 121),74	3932,(108, 121),74	4006,(110, 121),74	4080,(112, 121),74	4154,(114, 121),74	4228,(116, 121),74	4302,(118, 121),74	4376,(120, 121),74	
# Outgoing
10,(2, 121),74	84,(4, 121),74	158,(6, 121),74	232,(8, 121),74	306,(10, 121),74	380,(12, 121),74	454,(14, 121),74	528,(16, 121),74	602,(18, 121),74	676,(20, 121),74	750,(22, 121),74	824,(24, 121),74	898,(26, 121),74	972,(28, 121),74	1046,(30, 121),74	1120,(32, 121),74	1194,(34, 121),74	1268,(36, 121),74	1342,(38, 121),74	1416,(40, 121),74	1490,(42, 121),74	1564,(44, 121),74	1638,(46, 121),74	1712,(48, 121),74	1786,(50, 121),74	1860,(52, 121),74	1934,(54, 121),74	2008,(56, 121),74	2082,(58, 121),74	2156,(60, 121),74	2230,(62, 121),74	2304,(64, 121),74	2378,(66, 121),74	2452,(68, 121),74	2526,(70, 121),74	2600,(72, 121),74	2674,(74, 121),74	2748,(76, 121),74	2822,(78, 121),74	2896,(80, 121),74	2970,(82, 121),74	3044,(84, 121),74	3118,(86, 121),74	3192,(88, 121),74	3266,(90, 121),74	3340,(92, 121),74	3414,(94, 121),74	3488,(96, 121),74	3562,(98, 121),74	3636,(100, 121),74	3710,(102, 121),74	3784,(104, 121),74	3858,(106, 121),74	3932,(108, 121),74	4006,(110, 121),74	4080,(112, 121),74	4154,(114, 121),74	4228,(116, 121),74	4302,(118, 121),74	4376,(120, 121),74	
1,(0, 2),6	7,(0, 4),6	13,(0, 6),6	19,(0, 8),6	25,(0, 10),6	31,(0, 12),6	37,(0, 14),6	43,(0, 16),6	49,(0, 18),6	55,(0, 20),6	61,(0, 22),6	67,(0, 24),6	73,(0, 26),6	79,(0, 28),6	85,(0, 30),6	91,(0, 32),6	97,(0, 34),6	103,(0, 36),6	109,(0, 38),6	115,(0, 40),6	121,(0, 42),6	127,(0, 44),6	133,(0, 46),6	139,(0, 48),6	145,(0, 50),6	151,(0, 52),6	157,(0, 54),6	163,(0, 56),6	169,(0, 58),6	175,(0, 60),6	181,(0, 62),6	187,(0, 64),6	193,(0, 66),6	199,(0, 68),6	205,(0, 70),6	211,(0, 72),6	217,(0, 74),6	223,(0, 76),6	229,(0, 78),6	235,(0, 80),6	241,(0, 82),6	247,(0, 84),6	253,(0, 86),6	259,(0, 88),6	265,(0, 90),6	271,(0, 92),6	277,(0, 94),6	283,(0, 96),6	289,(0, 98),6	295,(0, 100),6	301,(0, 102),6	307,(0, 104),6	313,(0, 106),6	319,(0, 108),6	325,(0, 110),6	331,(0, 112),6	337,(0, 114),6	343,(0, 116),6	349,(0, 118),6	355,(0, 120),6	
