246
# CPU
0,0,1	1,76,4	5,106,4	9,77,4	13,29,4	17,26,4	21,17,4	25,55,4	29,51,4	33,54,4	37,73,4	41,100,4	45,107,4	49,96,4	53,27,4	57,42,4	61,63,4	65,14,4	69,66,4	73,91,4	77,41,4	81,59,4	85,58,4	89,6,4	93,9,4	97,32,4	101,103,4	105,12,4	109,117,4	113,11,4	117,105,4	121,115,4	125,109,4	129,18,4	133,48,4	137,47,4	141,33,4	145,8,4	149,110,4	153,114,4	157,104,4	161,28,4	165,38,4	169,37,4	173,118,4	177,108,4	181,20,4	185,7,4	189,5,4	193,119,4	197,112,4	201,16,4	205,101,4	209,19,4	213,22,4	217,3,4	221,4,4	225,1,4	229,10,4	233,2,4	237,15,4	241,13,4	245,121,1	
9,81,4	21,84,4	89,92,4	113,94,4	125,53,4	165,97,4	177,36,4	209,102,4	225,113,4	233,120,4	237,21,4	
77,89,4	101,64,4	137,60,4	
17,83,4	29,85,4	41,75,4	53,74,4	65,88,4	149,46,4	161,45,4	185,99,4	197,31,4	221,111,4	
5,80,4	121,56,4	173,39,4	
61,87,4	73,68,4	85,90,4	97,93,4	109,61,4	133,52,4	145,95,4	205,25,4	217,24,4	
25,82,4	49,71,4	157,43,4	169,40,4	193,34,4	229,116,4	
13,79,4	37,86,4	105,62,4	117,57,4	181,35,4	
57,70,4	81,67,4	93,65,4	129,50,4	141,49,4	153,44,4	201,30,4	213,23,4	
33,78,4	45,72,4	69,69,4	189,98,4	
# Incoming
9,(80, 121),1	13,(81, 121),1	17,(79, 121),1	21,(83, 121),1	25,(84, 121),1	29,(82, 121),1	33,(85, 121),1	37,(78, 121),1	41,(86, 121),1	45,(75, 121),1	49,(72, 121),1	53,(71, 121),1	57,(74, 121),1	61,(70, 121),1	65,(87, 121),1	69,(88, 121),1	73,(69, 121),1	77,(68, 121),1	81,(89, 121),1	85,(67, 121),1	89,(90, 121),1	93,(92, 121),1	97,(65, 121),1	101,(93, 121),1	105,(64, 121),1	109,(62, 121),1	113,(61, 121),1	117,(94, 121),1	121,(57, 121),1	125,(56, 121),1	129,(53, 121),1	133,(50, 121),1	137,(52, 121),1	141,(60, 121),1	145,(49, 121),1	149,(95, 121),1	153,(46, 121),1	157,(44, 121),1	161,(43, 121),1	165,(45, 121),1	169,(97, 121),1	173,(40, 121),1	177,(39, 121),1	181,(36, 121),1	185,(35, 121),1	189,(99, 121),1	193,(98, 121),1	197,(34, 121),1	201,(31, 121),1	205,(30, 121),1	209,(25, 121),1	213,(102, 121),1	217,(23, 121),1	221,(24, 121),1	225,(111, 121),1	229,(113, 121),1	233,(116, 121),1	237,(120, 121),1	241,(21, 121),1	
5,(0, 81),4	17,(0, 84),4	85,(0, 92),4	109,(0, 94),4	121,(0, 53),4	161,(0, 97),4	173,(0, 36),4	205,(0, 102),4	221,(0, 113),4	229,(0, 120),4	233,(0, 21),4	
73,(0, 89),4	97,(0, 64),4	133,(0, 60),4	
13,(0, 83),4	25,(0, 85),4	37,(0, 75),4	49,(0, 74),4	61,(0, 88),4	145,(0, 46),4	157,(0, 45),4	181,(0, 99),4	193,(0, 31),4	217,(0, 111),4	
1,(0, 80),4	117,(0, 56),4	169,(0, 39),4	
57,(0, 87),4	69,(0, 68),4	81,(0, 90),4	93,(0, 93),4	105,(0, 61),4	129,(0, 52),4	141,(0, 95),4	201,(0, 25),4	213,(0, 24),4	
21,(0, 82),4	45,(0, 71),4	153,(0, 43),4	165,(0, 40),4	189,(0, 34),4	225,(0, 116),4	
9,(0, 79),4	33,(0, 86),4	101,(0, 62),4	113,(0, 57),4	177,(0, 35),4	
53,(0, 70),4	77,(0, 67),4	89,(0, 65),4	125,(0, 50),4	137,(0, 49),4	149,(0, 44),4	197,(0, 30),4	209,(0, 23),4	
29,(0, 78),4	41,(0, 72),4	65,(0, 69),4	185,(0, 98),4	
# Outgoing
1,(0, 80),4	5,(0, 81),4	9,(0, 79),4	13,(0, 83),4	17,(0, 84),4	21,(0, 82),4	25,(0, 85),4	29,(0, 78),4	33,(0, 86),4	37,(0, 75),4	41,(0, 72),4	45,(0, 71),4	49,(0, 74),4	53,(0, 70),4	57,(0, 87),4	61,(0, 88),4	65,(0, 69),4	69,(0, 68),4	73,(0, 89),4	77,(0, 67),4	81,(0, 90),4	85,(0, 92),4	89,(0, 65),4	93,(0, 93),4	97,(0, 64),4	101,(0, 62),4	105,(0, 61),4	109,(0, 94),4	113,(0, 57),4	117,(0, 56),4	121,(0, 53),4	125,(0, 50),4	129,(0, 52),4	133,(0, 60),4	137,(0, 49),4	141,(0, 95),4	145,(0, 46),4	149,(0, 44),4	153,(0, 43),4	157,(0, 45),4	161,(0, 97),4	165,(0, 40),4	169,(0, 39),4	173,(0, 36),4	177,(0, 35),4	181,(0, 99),4	185,(0, 98),4	189,(0, 34),4	193,(0, 31),4	197,(0, 30),4	201,(0, 25),4	205,(0, 102),4	209,(0, 23),4	213,(0, 24),4	217,(0, 111),4	221,(0, 113),4	225,(0, 116),4	229,(0, 120),4	233,(0, 21),4	
13,(81, 121),1	25,(84, 121),1	93,(92, 121),1	117,(94, 121),1	129,(53, 121),1	169,(97, 121),1	181,(36, 121),1	213,(102, 121),1	229,(113, 121),1	237,(120, 121),1	241,(21, 121),1	
81,(89, 121),1	105,(64, 121),1	141,(60, 121),1	
21,(83, 121),1	33,(85, 121),1	45,(75, 121),1	57,(74, 121),1	69,(88, 121),1	153,(46, 121),1	165,(45, 121),1	189,(99, 121),1	201,(31, 121),1	225,(111, 121),1	
9,(80, 121),1	125,(56, 121),1	177,(39, 121),1	
65,(87, 121),1	77,(68, 121),1	89,(90, 121),1	101,(93, 121),1	113,(61, 121),1	137,(52, 121),1	149,(95, 121),1	209,(25, 121),1	221,(24, 121),1	
29,(82, 121),1	53,(71, 121),1	161,(43, 121),1	173,(40, 121),1	197,(34, 121),1	233,(116, 121),1	
17,(79, 121),1	41,(86, 121),1	109,(62, 121),1	121,(57, 121),1	185,(35, 121),1	
61,(70, 121),1	85,(67, 121),1	97,(65, 121),1	133,(50, 121),1	145,(49, 121),1	157,(44, 121),1	205,(30, 121),1	217,(23, 121),1	
37,(78, 121),1	49,(72, 121),1	73,(69, 121),1	193,(98, 121),1	
