547
# CPU
19,4,2	37,8,2	55,12,2	73,16,2	91,20,2	109,24,2	127,28,2	145,32,2	163,36,2	181,40,2	199,44,2	217,48,2	235,52,2	253,56,2	271,60,2	289,64,2	307,68,2	325,72,2	343,76,2	361,80,2	379,84,2	397,88,2	415,92,2	433,96,2	451,100,2	469,104,2	487,108,2	505,112,2	523,116,2	541,120,2	
13,3,2	31,7,2	49,11,2	67,15,2	85,19,2	103,23,2	121,27,2	139,31,2	157,35,2	175,39,2	193,43,2	211,47,2	229,51,2	247,55,2	265,59,2	283,63,2	301,67,2	319,71,2	337,75,2	355,79,2	373,83,2	391,87,2	409,91,2	427,95,2	445,99,2	463,103,2	481,107,2	499,111,2	517,115,2	535,119,2	
7,2,2	25,6,2	43,10,2	61,14,2	79,18,2	97,22,2	115,26,2	133,30,2	151,34,2	169,38,2	187,42,2	205,46,2	223,50,2	241,54,2	259,58,2	277,62,2	295,66,2	313,70,2	331,74,2	349,78,2	367,82,2	385,86,2	403,90,2	421,94,2	439,98,2	457,102,2	475,106,2	493,110,2	511,114,2	529,118,2	
0,0,1	1,1,2	3,9,2	5,25,2	7,57,2	9,117,2	11,113,2	13,109,2	15,105,2	17,101,2	19,97,2	21,93,2	23,89,2	25,85,2	27,81,2	29,77,2	31,73,2	33,69,2	35,65,2	37,53,2	39,61,2	41,49,2	43,45,2	45,41,2	47,37,2	49,33,2	51,21,2	53,29,2	55,17,2	57,5,2	59,13,2	546,121,1	
# Incoming
13,(0, 4),6	31,(0, 8),6	49,(0, 12),6	67,(0, 16),6	85,(0, 20),6	103,(0, 24),6	121,(0, 28),6	139,(0, 32),6	157,(0, 36),6	175,(0, 40),6	193,(0, 44),6	211,(0, 48),6	229,(0, 52),6	247,(0, 56),6	265,(0, 60),6	283,(0, 64),6	301,(0, 68),6	319,(0, 72),6	337,(0, 76),6	355,(0, 80),6	373,(0, 84),6	391,(0, 88),6	409,(0, 92),6	427,(0, 96),6	445,(0, 100),6	463,(0, 104),6	481,(0, 108),6	499,(0, 112),6	517,(0, 116),6	535,(0, 120),6	
7,(0, 3),6	25,(0, 7),6	43,(0, 11),6	61,(0, 15),6	79,(0, 19),6	97,(0, 23),6	115,(0, 27),6	133,(0, 31),6	151,(0, 35),6	169,(0, 39),6	187,(0, 43),6	205,(0, 47),6	223,(0, 51),6	241,(0, 55),6	259,(0, 59),6	277,(0, 63),6	295,(0, 67),6	313,(0, 71),6	331,(0, 75),6	349,(0, 79),6	367,(0, 83),6	385,(0, 87),6	403,(0, 91),6	421,(0, 95),6	439,(0, 99),6	457,(0, 103),6	475,(0, 107),6	493,(0, 111),6	511,(0, 115),6	529,(0, 119),6	
1,(0, 2),6	19,(0, 6),6	37,(0, 10),6	55,(0, 14),6	73,(0, 18),6	91,(0, 22),6	109,(0, 26),6	127,(0, 30),6	145,(0, 34),6	163,(0, 38),6	181,(0, 42),6	199,(0, 46),6	217,(0, 50),6	235,(0, 54),6	253,(0, 58),6	271,(0, 62),6	289,(0, 66),6	307,(0, 70),6	325,(0, 74),6	343,(0, 78),6	361,(0, 82),6	379,(0, 86),6	397,(0, 90),6	415,(0, 94),6	433,(0, 98),6	451,(0, 102),6	469,(0, 106),6	487,(0, 110),6	505,(0, 114),6	523,(0, 118),6	
9,(2, 121),3	15,(3, 121),3	21,(4, 121),3	27,(6, 121),3	33,(7, 121),3	39,(8, 121),3	45,(10, 121),3	51,(11, 121),3	57,(12, 121),3	63,(14, 121),3	69,(15, 121),3	75,(16, 121),3	81,(18, 121),3	87,(19, 121),3	93,(20, 121),3	99,(22, 121),3	105,(23, 121),3	111,(24, 121),3	117,(26, 121),3	123,(27, 121),3	129,(28, 121),3	135,(30, 121),3	141,(31, 121),3	147,(32, 121),3	153,(34, 121),3	159,(35, 121),3	165,(36, 121),3	171,(38, 121),3	177,(39, 121),3	183,(40, 121),3	189,(42, 121),3	195,(43, 121),3	201,(44, 121),3	207,(46, 121),3	213,(47, 121),3	219,(48, 121),3	225,(50, 121),3	231,(51, 121),3	237,(52, 121),3	243,(54, 121),3	249,(55, 121),3	255,(56, 121),3	261,(58, 121),3	267,(59, 121),3	273,(60, 121),3	279,(62, 121),3	285,(63, 121),3	291,(64, 121),3	297,(66, 121),3	303,(67, 121),3	309,(68, 121),3	315,(70, 121),3	321,(71, 121),3	327,(72, 121),3	333,(74, 121),3	339,(75, 121),3	345,(76, 121),3	351,(78, 121),3	357,(79, 121),3	363,(80, 121),3	369,(82, 121),3	375,(83, 121),3	381,(84, 121),3	387,(86, 121),3	393,(87, 121),3	399,(88, 121),3	405,(90, 121),3	411,(91, 121),3	417,(92, 121),3	423,(94, 121),3	429,(95, 121),3	435,(96, 121),3	441,(98, 121),3	447,(99, 121),3	453,(100, 121),3	459,(102, 121),3	465,(103, 121),3	471,(104, 121),3	477,(106, 121),3	483,(107, 121),3	489,(108, 121),3	495,(110, 121),3	501,(111, 121),3	507,(112, 121),3	513,(114, 121),3	519,(115, 121),3	525,(116, 121),3	531,(118, 121),3	537,(119, 121),3	543,(120, 121),3	
# Outgoing
21,(4, 121),3	39,(8, 121),3	57,(12, 121),3	75,(16, 121),3	93,(20, 121),3	111,(24, 121),3	129,(28, 121),3	147,(32, 121),3	165,(36, 121),3	183,(40, 121),3	201,(44, 121),3	219,(48, 121),3	237,(52, 121),3	255,(56, 121),3	273,(60, 121),3	291,(64, 121),3	309,(68, 121),3	327,(72, 121),3	345,(76, 121),3	363,(80, 121),3	381,(84, 121),3	399,(88, 121),3	417,(92, 121),3	435,(96, 121),3	453,(100, 121),3	471,(104, 121),3	489,(108, 121),3	507,(112, 121),3	525,(116, 121),3	543,(120, 121),3	
15,(3, 121),3	33,(7, 121),3	51,(11, 121),3	69,(15, 121),3	87,(19, 121),3	105,(23, 121),3	123,(27, 121),3	141,(31, 121),3	159,(35, 121),3	177,(39, 121),3	195,(43, 121),3	213,(47, 121),3	231,(51, 121),3	249,(55, 121),3	267,(59, 121),3	285,(63, 121),3	303,(67, 121),3	321,(71, 121),3	339,(75, 121),3	357,(79, 121),3	375,(83, 121),3	393,(87, 121),3	411,(91, 121),3	429,(95, 121),3	447,(99, 121),3	465,(103, 121),3	483,(107, 121),3	501,(111, 121),3	519,(115, 121),3	537,(119, 121),3	
9,(2, 121),3	27,(6, 121),3	45,(10, 121),3	63,(14, 121),3	81,(18, 121),3	99,(22, 121),3	117,(26, 121),3	135,(30, 121),3	153,(34, 121),3	171,(38, 121),3	189,(42, 121),3	207,(46, 121),3	225,(50, 121),3	243,(54, 121),3	261,(58, 121),3	279,(62, 121),3	297,(66, 121),3	315,(70, 121),3	333,(74, 121),3	351,(78, 121),3	369,(82, 121),3	387,(86, 121),3	405,(90, 121),3	423,(94, 121),3	441,(98, 121),3	459,(102, 121),3	477,(106, 121),3	495,(110, 121),3	513,(114, 121),3	531,(118, 121),3	
1,(0, 2),6	7,(0, 3),6	13,(0, 4),6	19,(0, 6),6	25,(0, 7),6	31,(0, 8),6	37,(0, 10),6	43,(0, 11),6	49,(0, 12),6	55,(0, 14),6	61,(0, 15),6	67,(0, 16),6	73,(0, 18),6	79,(0, 19),6	85,(0, 20),6	91,(0, 22),6	97,(0, 23),6	103,(0, 24),6	109,(0, 26),6	115,(0, 27),6	121,(0, 28),6	127,(0, 30),6	133,(0, 31),6	139,(0, 32),6	145,(0, 34),6	151,(0, 35),6	157,(0, 36),6	163,(0, 38),6	169,(0, 39),6	175,(0, 40),6	181,(0, 42),6	187,(0, 43),6	193,(0, 44),6	199,(0, 46),6	205,(0, 47),6	211,(0, 48),6	217,(0, 50),6	223,(0, 51),6	229,(0, 52),6	235,(0, 54),6	241,(0, 55),6	247,(0, 56),6	253,(0, 58),6	259,(0, 59),6	265,(0, 60),6	271,(0, 62),6	277,(0, 63),6	283,(0, 64),6	289,(0, 66),6	295,(0, 67),6	301,(0, 68),6	307,(0, 70),6	313,(0, 71),6	319,(0, 72),6	325,(0, 74),6	331,(0, 75),6	337,(0, 76),6	343,(0, 78),6	349,(0, 79),6	355,(0, 80),6	361,(0, 82),6	367,(0, 83),6	373,(0, 84),6	379,(0, 86),6	385,(0, 87),6	391,(0, 88),6	397,(0, 90),6	403,(0, 91),6	409,(0, 92),6	415,(0, 94),6	421,(0, 95),6	427,(0, 96),6	433,(0, 98),6	439,(0, 99),6	445,(0, 100),6	451,(0, 102),6	457,(0, 103),6	463,(0, 104),6	469,(0, 106),6	475,(0, 107),6	481,(0, 108),6	487,(0, 110),6	493,(0, 111),6	499,(0, 112),6	505,(0, 114),6	511,(0, 115),6	517,(0, 116),6	523,(0, 118),6	529,(0, 119),6	535,(0, 120),6	
