3512
# CPU
0,161,1	1,160,30	31,110,30	61,111,30	91,109,30	121,108,30	151,112,30	181,113,30	211,107,30	241,114,30	271,106,30	301,105,30	331,115,30	361,103,30	391,102,30	421,116,30	451,100,30	481,99,30	511,117,30	541,118,30	571,119,30	601,96,30	631,95,30	661,120,30	691,93,30	721,81,30	751,80,30	781,79,30	811,77,30	841,78,30	871,76,30	901,75,30	931,82,30	961,74,30	991,72,30	1021,73,30	1051,71,30	1081,70,30	1111,83,30	1141,68,30	1171,67,30	1201,69,30	1231,66,30	1261,65,30	1291,64,30	1321,63,30	1351,62,30	1381,61,30	1411,84,30	1441,60,30	1471,59,30	1501,58,30	1531,57,30	1561,56,30	1591,90,30	1621,55,30	1651,54,30	1681,53,30	1711,52,30	1741,51,30	1771,50,30	1801,124,30	1831,49,30	1861,47,30	1891,48,30	1921,46,30	1951,45,30	1981,129,30	2011,43,30	2041,42,30	2071,44,30	2101,144,30	2131,143,30	2161,145,30	2191,142,30	2221,141,30	2251,146,30	2281,140,30	2311,133,30	2341,147,30	2371,131,30	2401,40,30	2431,148,30	2461,39,30	2491,149,30	2521,37,30	2551,36,30	2581,150,30	2611,34,30	2641,32,30	2671,151,30	2701,31,30	2731,29,30	2761,152,30	2791,28,30	2821,16,30	2851,17,30	2881,15,30	2911,14,30	2941,18,30	2971,13,30	3001,12,30	3031,19,30	3061,11,30	3091,10,30	3121,20,30	3151,1,30	3181,2,30	3211,3,30	3241,4,30	3271,5,30	3301,6,30	3331,7,30	3361,8,30	3391,9,30	3421,26,30	3451,158,30	3481,159,30	3511,0,1	
81,104,30	161,101,30	321,97,30	401,94,30	961,92,30	1041,121,30	1281,125,30	1601,130,30	1681,134,30	1761,135,30	2161,132,30	2241,41,30	2801,21,30	3281,27,30	3361,157,30	3441,153,30	
721,85,30	801,87,30	1121,122,30	1361,126,30	1841,136,30	2001,138,30	2321,38,30	2481,33,30	2641,25,30	2721,23,30	2881,22,30	2961,24,30	
241,98,30	481,91,30	561,89,30	641,86,30	881,88,30	1201,123,30	1441,127,30	1521,128,30	1921,137,30	2081,139,30	2401,35,30	2561,30,30	3041,154,30	3121,155,30	3201,156,30	
# Incoming
111,(104, 0),2	191,(101, 0),2	271,(98, 0),2	351,(97, 0),2	431,(94, 0),2	511,(91, 0),2	591,(89, 0),2	671,(86, 0),2	751,(85, 0),2	831,(87, 0),2	911,(88, 0),2	991,(92, 0),2	1071,(121, 0),2	1151,(122, 0),2	1231,(123, 0),2	1311,(125, 0),2	1391,(126, 0),2	1471,(127, 0),2	1551,(128, 0),2	1631,(130, 0),2	1711,(134, 0),2	1791,(135, 0),2	1871,(136, 0),2	1951,(137, 0),2	2031,(138, 0),2	2111,(139, 0),2	2191,(132, 0),2	2271,(41, 0),2	2351,(38, 0),2	2431,(35, 0),2	2511,(33, 0),2	2591,(30, 0),2	2671,(25, 0),2	2751,(23, 0),2	2831,(21, 0),2	2911,(22, 0),2	2991,(24, 0),2	3071,(154, 0),2	3151,(155, 0),2	3231,(156, 0),2	3311,(27, 0),2	3391,(157, 0),2	3471,(153, 0),2	
1,(161, 104),80	81,(161, 101),80	241,(161, 97),80	321,(161, 94),80	881,(161, 92),80	961,(161, 121),80	1201,(161, 125),80	1521,(161, 130),80	1601,(161, 134),80	1681,(161, 135),80	2081,(161, 132),80	2161,(161, 41),80	2721,(161, 21),80	3201,(161, 27),80	3281,(161, 157),80	3361,(161, 153),80	
641,(161, 85),80	721,(161, 87),80	1041,(161, 122),80	1281,(161, 126),80	1761,(161, 136),80	1921,(161, 138),80	2241,(161, 38),80	2401,(161, 33),80	2561,(161, 25),80	2641,(161, 23),80	2801,(161, 22),80	2881,(161, 24),80	
161,(161, 98),80	401,(161, 91),80	481,(161, 89),80	561,(161, 86),80	801,(161, 88),80	1121,(161, 123),80	1361,(161, 127),80	1441,(161, 128),80	1841,(161, 137),80	2001,(161, 139),80	2321,(161, 35),80	2481,(161, 30),80	2961,(161, 154),80	3041,(161, 155),80	3121,(161, 156),80	
# Outgoing
1,(161, 104),80	81,(161, 101),80	161,(161, 98),80	241,(161, 97),80	321,(161, 94),80	401,(161, 91),80	481,(161, 89),80	561,(161, 86),80	641,(161, 85),80	721,(161, 87),80	801,(161, 88),80	881,(161, 92),80	961,(161, 121),80	1041,(161, 122),80	1121,(161, 123),80	1201,(161, 125),80	1281,(161, 126),80	1361,(161, 127),80	1441,(161, 128),80	1521,(161, 130),80	1601,(161, 134),80	1681,(161, 135),80	1761,(161, 136),80	1841,(161, 137),80	1921,(161, 138),80	2001,(161, 139),80	2081,(161, 132),80	2161,(161, 41),80	2241,(161, 38),80	2321,(161, 35),80	2401,(161, 33),80	2481,(161, 30),80	2561,(161, 25),80	2641,(161, 23),80	2721,(161, 21),80	2801,(161, 22),80	2881,(161, 24),80	2961,(161, 154),80	3041,(161, 155),80	3121,(161, 156),80	3201,(161, 27),80	3281,(161, 157),80	3361,(161, 153),80	
111,(104, 0),2	191,(101, 0),2	351,(97, 0),2	431,(94, 0),2	991,(92, 0),2	1071,(121, 0),2	1311,(125, 0),2	1631,(130, 0),2	1711,(134, 0),2	1791,(135, 0),2	2191,(132, 0),2	2271,(41, 0),2	2831,(21, 0),2	3311,(27, 0),2	3391,(157, 0),2	3471,(153, 0),2	
751,(85, 0),2	831,(87, 0),2	1151,(122, 0),2	1391,(126, 0),2	1871,(136, 0),2	2031,(138, 0),2	2351,(38, 0),2	2511,(33, 0),2	2671,(25, 0),2	2751,(23, 0),2	2911,(22, 0),2	2991,(24, 0),2	
271,(98, 0),2	511,(91, 0),2	591,(89, 0),2	671,(86, 0),2	911,(88, 0),2	1231,(123, 0),2	1471,(127, 0),2	1551,(128, 0),2	1951,(137, 0),2	2111,(139, 0),2	2431,(35, 0),2	2591,(30, 0),2	3071,(154, 0),2	3151,(155, 0),2	3231,(156, 0),2	
