124
# CPU
0,0,1	1,76,2	3,53,2	5,95,2	7,39,2	9,96,2	11,45,2	13,37,2	15,44,2	17,46,2	19,35,2	21,43,2	23,42,2	25,33,2	27,47,2	29,103,2	31,65,2	33,40,2	35,104,2	37,29,2	39,36,2	41,105,2	43,27,2	45,34,2	47,106,2	49,25,2	51,107,2	53,31,2	55,58,2	57,28,2	59,30,2	61,97,2	63,24,2	65,23,2	67,54,2	69,48,2	71,41,2	73,111,2	75,1,2	77,32,2	79,112,2	81,22,2	83,2,2	85,113,2	87,3,2	89,4,2	91,55,2	93,5,2	95,15,2	97,51,2	99,117,2	101,13,2	103,11,2	105,118,2	107,14,2	109,115,2	111,10,2	113,16,2	115,17,2	117,56,2	119,116,2	121,120,2	123,121,1	
3,77,2	5,74,2	7,75,2	9,73,2	11,78,2	13,72,2	15,79,2	17,80,2	19,81,2	21,71,2	23,82,2	25,83,2	27,84,2	29,69,2	31,70,2	33,85,2	35,68,2	37,67,2	39,86,2	41,66,2	43,87,2	45,64,2	47,63,2	49,88,2	51,62,2	53,61,2	55,89,2	57,100,2	59,101,2	61,99,2	63,102,2	65,98,2	67,108,2	69,94,2	71,109,2	73,92,2	75,93,2	77,91,2	79,90,2	81,60,2	83,110,2	85,57,2	87,59,2	89,21,2	91,20,2	93,26,2	95,38,2	97,19,2	99,18,2	101,49,2	103,50,2	105,6,2	107,7,2	109,8,2	111,9,2	113,12,2	115,52,2	117,114,2	119,119,2	
# Incoming
5,(77, 121),1	7,(74, 121),1	9,(75, 121),1	11,(73, 121),1	13,(78, 121),1	15,(72, 121),1	17,(79, 121),1	19,(80, 121),1	21,(81, 121),1	23,(71, 121),1	25,(82, 121),1	27,(83, 121),1	29,(84, 121),1	31,(69, 121),1	33,(70, 121),1	35,(85, 121),1	37,(68, 121),1	39,(67, 121),1	41,(86, 121),1	43,(66, 121),1	45,(87, 121),1	47,(64, 121),1	49,(63, 121),1	51,(88, 121),1	53,(62, 121),1	55,(61, 121),1	57,(89, 121),1	59,(100, 121),1	61,(101, 121),1	63,(99, 121),1	65,(102, 121),1	67,(98, 121),1	69,(108, 121),1	71,(94, 121),1	73,(109, 121),1	75,(92, 121),1	77,(93, 121),1	79,(91, 121),1	81,(90, 121),1	83,(60, 121),1	85,(110, 121),1	87,(57, 121),1	89,(59, 121),1	91,(21, 121),1	93,(20, 121),1	95,(26, 121),1	97,(38, 121),1	99,(19, 121),1	101,(18, 121),1	103,(49, 121),1	105,(50, 121),1	107,(6, 121),1	109,(7, 121),1	111,(8, 121),1	113,(9, 121),1	115,(12, 121),1	117,(52, 121),1	119,(114, 121),1	121,(119, 121),1	
1,(0, 77),2	3,(0, 74),2	5,(0, 75),2	7,(0, 73),2	9,(0, 78),2	11,(0, 72),2	13,(0, 79),2	15,(0, 80),2	17,(0, 81),2	19,(0, 71),2	21,(0, 82),2	23,(0, 83),2	25,(0, 84),2	27,(0, 69),2	29,(0, 70),2	31,(0, 85),2	33,(0, 68),2	35,(0, 67),2	37,(0, 86),2	39,(0, 66),2	41,(0, 87),2	43,(0, 64),2	45,(0, 63),2	47,(0, 88),2	49,(0, 62),2	51,(0, 61),2	53,(0, 89),2	55,(0, 100),2	57,(0, 101),2	59,(0, 99),2	61,(0, 102),2	63,(0, 98),2	65,(0, 108),2	67,(0, 94),2	69,(0, 109),2	71,(0, 92),2	73,(0, 93),2	75,(0, 91),2	77,(0, 90),2	79,(0, 60),2	81,(0, 110),2	83,(0, 57),2	85,(0, 59),2	87,(0, 21),2	89,(0, 20),2	91,(0, 26),2	93,(0, 38),2	95,(0, 19),2	97,(0, 18),2	99,(0, 49),2	101,(0, 50),2	103,(0, 6),2	105,(0, 7),2	107,(0, 8),2	109,(0, 9),2	111,(0, 12),2	113,(0, 52),2	115,(0, 114),2	117,(0, 119),2	
# Outgoing
1,(0, 77),2	3,(0, 74),2	5,(0, 75),2	7,(0, 73),2	9,(0, 78),2	11,(0, 72),2	13,(0, 79),2	15,(0, 80),2	17,(0, 81),2	19,(0, 71),2	21,(0, 82),2	23,(0, 83),2	25,(0, 84),2	27,(0, 69),2	29,(0, 70),2	31,(0, 85),2	33,(0, 68),2	35,(0, 67),2	37,(0, 86),2	39,(0, 66),2	41,(0, 87),2	43,(0, 64),2	45,(0, 63),2	47,(0, 88),2	49,(0, 62),2	51,(0, 61),2	53,(0, 89),2	55,(0, 100),2	57,(0, 101),2	59,(0, 99),2	61,(0, 102),2	63,(0, 98),2	65,(0, 108),2	67,(0, 94),2	69,(0, 109),2	71,(0, 92),2	73,(0, 93),2	75,(0, 91),2	77,(0, 90),2	79,(0, 60),2	81,(0, 110),2	83,(0, 57),2	85,(0, 59),2	87,(0, 21),2	89,(0, 20),2	91,(0, 26),2	93,(0, 38),2	95,(0, 19),2	97,(0, 18),2	99,(0, 49),2	101,(0, 50),2	103,(0, 6),2	105,(0, 7),2	107,(0, 8),2	109,(0, 9),2	111,(0, 12),2	113,(0, 52),2	115,(0, 114),2	117,(0, 119),2	
5,(77, 121),1	7,(74, 121),1	9,(75, 121),1	11,(73, 121),1	13,(78, 121),1	15,(72, 121),1	17,(79, 121),1	19,(80, 121),1	21,(81, 121),1	23,(71, 121),1	25,(82, 121),1	27,(83, 121),1	29,(84, 121),1	31,(69, 121),1	33,(70, 121),1	35,(85, 121),1	37,(68, 121),1	39,(67, 121),1	41,(86, 121),1	43,(66, 121),1	45,(87, 121),1	47,(64, 121),1	49,(63, 121),1	51,(88, 121),1	53,(62, 121),1	55,(61, 121),1	57,(89, 121),1	59,(100, 121),1	61,(101, 121),1	63,(99, 121),1	65,(102, 121),1	67,(98, 121),1	69,(108, 121),1	71,(94, 121),1	73,(109, 121),1	75,(92, 121),1	77,(93, 121),1	79,(91, 121),1	81,(90, 121),1	83,(60, 121),1	85,(110, 121),1	87,(57, 121),1	89,(59, 121),1	91,(21, 121),1	93,(20, 121),1	95,(26, 121),1	97,(38, 121),1	99,(19, 121),1	101,(18, 121),1	103,(49, 121),1	105,(50, 121),1	107,(6, 121),1	109,(7, 121),1	111,(8, 121),1	113,(9, 121),1	115,(12, 121),1	117,(52, 121),1	119,(114, 121),1	121,(119, 121),1	
