218
# CPU
0,121,1	1,120,2	3,75,2	5,76,2	7,74,2	9,73,2	11,72,2	13,77,2	15,71,2	17,78,2	19,70,2	21,69,2	23,68,2	25,67,2	27,79,2	29,66,2	31,80,2	33,65,2	35,81,2	37,63,2	39,62,2	41,64,2	43,61,2	45,83,2	47,60,2	49,84,2	51,59,2	53,58,2	55,57,2	57,56,2	59,86,2	61,55,2	63,87,2	65,54,2	67,53,2	69,52,2	71,51,2	73,89,2	75,50,2	77,90,2	79,49,2	81,48,2	83,47,2	85,91,2	87,46,2	89,45,2	91,92,2	93,44,2	95,43,2	97,42,2	99,93,2	101,41,2	103,104,2	105,105,2	107,103,2	109,102,2	111,101,2	113,106,2	115,100,2	117,98,2	119,96,2	121,107,2	123,95,2	125,40,2	127,108,2	129,39,2	131,38,2	133,36,2	135,109,2	137,35,2	139,34,2	141,110,2	143,33,2	145,32,2	147,30,2	149,111,2	151,29,2	153,28,2	155,27,2	157,112,2	159,17,2	161,16,2	163,18,2	165,15,2	167,19,2	169,14,2	171,20,2	173,13,2	175,12,2	177,21,2	179,11,2	181,23,2	183,10,2	185,25,2	187,9,2	189,1,2	191,2,2	193,3,2	195,4,2	197,5,2	199,6,2	201,7,2	203,8,2	205,26,2	207,113,2	209,114,2	211,115,2	213,118,2	215,119,2	217,0,1	
3,85,2	13,117,2	
2,82,2	7,99,2	9,31,2	11,24,2	
5,94,2	8,37,2	10,22,2	12,116,2	
4,88,2	6,97,2	
# Incoming
4,(82, 0),17	21,(85, 0),17	38,(88, 0),17	55,(94, 0),17	72,(97, 0),17	89,(99, 0),17	106,(37, 0),17	123,(31, 0),17	140,(22, 0),17	157,(24, 0),17	174,(116, 0),17	191,(117, 0),17	
2,(121, 85),1	12,(121, 117),1	
1,(121, 82),1	6,(121, 99),1	8,(121, 31),1	10,(121, 24),1	
4,(121, 94),1	7,(121, 37),1	9,(121, 22),1	11,(121, 116),1	
3,(121, 88),1	5,(121, 97),1	
# Outgoing
1,(121, 82),1	2,(121, 85),1	3,(121, 88),1	4,(121, 94),1	5,(121, 97),1	6,(121, 99),1	7,(121, 37),1	8,(121, 31),1	9,(121, 22),1	10,(121, 24),1	11,(121, 116),1	12,(121, 117),1	
21,(85, 0),17	191,(117, 0),17	
4,(82, 0),17	89,(99, 0),17	123,(31, 0),17	157,(24, 0),17	
55,(94, 0),17	106,(37, 0),17	140,(22, 0),17	174,(116, 0),17	
38,(88, 0),17	72,(97, 0),17	
