99
# CPU
0,121,1	1,76,1	2,75,1	3,77,1	4,74,1	5,30,1	6,96,1	7,72,1	8,73,1	9,17,1	10,39,1	11,71,1	12,70,1	13,106,1	14,100,1	15,68,1	16,69,1	17,99,1	18,42,1	19,66,1	20,65,1	21,16,1	22,102,1	23,64,1	24,63,1	25,60,1	26,40,1	27,67,1	28,62,1	29,79,1	30,36,1	31,59,1	32,61,1	33,56,1	34,29,1	35,78,1	36,58,1	37,108,1	38,33,1	39,55,1	40,57,1	41,103,1	42,32,1	43,53,1	44,52,1	45,50,1	46,28,1	47,101,1	48,104,1	49,116,1	50,26,1	51,98,1	52,97,1	53,8,1	54,37,1	55,105,1	56,95,1	57,25,1	58,110,1	59,94,1	60,93,1	61,115,1	62,27,1	63,87,1	64,107,1	65,21,1	66,1,1	67,109,1	68,54,1	69,47,1	70,23,1	71,111,1	72,22,1	73,14,1	74,2,1	75,24,1	76,20,1	77,114,1	78,12,1	79,19,1	80,31,1	81,11,1	82,9,1	83,34,1	84,18,1	85,3,1	86,4,1	87,5,1	88,6,1	89,13,1	90,10,1	91,7,1	92,15,1	93,35,1	94,43,1	95,112,1	96,118,1	97,120,1	98,0,1	
9,84,1	53,51,1	
29,88,1	41,91,1	
5,82,1	17,81,1	65,44,1	77,46,1	89,117,1	
37,90,1	49,80,1	85,113,1	
25,86,1	
13,83,1	61,45,1	
45,92,1	73,41,1	
33,89,1	57,48,1	81,49,1	93,119,1	
21,85,1	69,38,1	
# Incoming
6,(82, 0),4	10,(84, 0),4	14,(83, 0),4	18,(81, 0),4	22,(85, 0),4	26,(86, 0),4	30,(88, 0),4	34,(89, 0),4	38,(90, 0),4	42,(91, 0),4	46,(92, 0),4	50,(80, 0),4	54,(51, 0),4	58,(48, 0),4	62,(45, 0),4	66,(44, 0),4	70,(38, 0),4	74,(41, 0),4	78,(46, 0),4	82,(49, 0),4	86,(113, 0),4	90,(117, 0),4	94,(119, 0),4	
5,(121, 84),4	49,(121, 51),4	
25,(121, 88),4	37,(121, 91),4	
1,(121, 82),4	13,(121, 81),4	61,(121, 44),4	73,(121, 46),4	85,(121, 117),4	
33,(121, 90),4	45,(121, 80),4	81,(121, 113),4	
21,(121, 86),4	
9,(121, 83),4	57,(121, 45),4	
41,(121, 92),4	69,(121, 41),4	
29,(121, 89),4	53,(121, 48),4	77,(121, 49),4	89,(121, 119),4	
17,(121, 85),4	65,(121, 38),4	
# Outgoing
1,(121, 82),4	5,(121, 84),4	9,(121, 83),4	13,(121, 81),4	17,(121, 85),4	21,(121, 86),4	25,(121, 88),4	29,(121, 89),4	33,(121, 90),4	37,(121, 91),4	41,(121, 92),4	45,(121, 80),4	49,(121, 51),4	53,(121, 48),4	57,(121, 45),4	61,(121, 44),4	65,(121, 38),4	69,(121, 41),4	73,(121, 46),4	77,(121, 49),4	81,(121, 113),4	85,(121, 117),4	89,(121, 119),4	
10,(84, 0),4	54,(51, 0),4	
30,(88, 0),4	42,(91, 0),4	
6,(82, 0),4	18,(81, 0),4	66,(44, 0),4	78,(46, 0),4	90,(117, 0),4	
38,(90, 0),4	50,(80, 0),4	86,(113, 0),4	
26,(86, 0),4	
14,(83, 0),4	62,(45, 0),4	
46,(92, 0),4	74,(41, 0),4	
34,(89, 0),4	58,(48, 0),4	82,(49, 0),4	94,(119, 0),4	
22,(85, 0),4	70,(38, 0),4	
