3042
# CPU
37,10,12	73,20,12	109,30,12	145,40,12	181,50,12	217,60,12	253,70,12	289,80,12	325,90,12	361,100,12	397,110,12	433,120,12	
33,9,12	69,19,12	105,29,12	141,39,12	177,49,12	213,59,12	249,69,12	285,79,12	321,89,12	357,99,12	393,109,12	429,119,12	
29,8,12	65,18,12	101,28,12	137,38,12	173,48,12	209,58,12	245,68,12	281,78,12	317,88,12	353,98,12	389,108,12	425,118,12	
25,7,12	61,17,12	97,27,12	133,37,12	169,47,12	205,57,12	241,67,12	277,77,12	313,87,12	349,97,12	385,107,12	421,117,12	
21,6,12	57,16,12	93,26,12	129,36,12	165,46,12	201,56,12	237,66,12	273,76,12	309,86,12	345,96,12	381,106,12	417,116,12	
17,5,12	53,15,12	89,25,12	125,35,12	161,45,12	197,55,12	233,65,12	269,75,12	305,85,12	341,95,12	377,105,12	413,115,12	
13,4,12	49,14,12	85,24,12	121,34,12	157,44,12	193,54,12	229,64,12	265,74,12	301,84,12	337,94,12	373,104,12	409,114,12	
9,3,12	45,13,12	81,23,12	117,33,12	153,43,12	189,53,12	225,63,12	261,73,12	297,83,12	333,93,12	369,103,12	405,113,12	
5,2,12	41,12,12	77,22,12	113,32,12	149,42,12	185,52,12	221,62,12	257,72,12	293,82,12	329,92,12	365,102,12	401,112,12	
0,0,1	1,1,12	13,21,12	25,61,12	37,111,12	49,101,12	61,91,12	73,81,12	85,51,12	97,71,12	109,41,12	121,11,12	133,31,12	3041,121,1	
# Incoming
33,(0, 10),4	69,(0, 20),4	105,(0, 30),4	141,(0, 40),4	177,(0, 50),4	213,(0, 60),4	249,(0, 70),4	285,(0, 80),4	321,(0, 90),4	357,(0, 100),4	393,(0, 110),4	429,(0, 120),4	
29,(0, 9),4	65,(0, 19),4	101,(0, 29),4	137,(0, 39),4	173,(0, 49),4	209,(0, 59),4	245,(0, 69),4	281,(0, 79),4	317,(0, 89),4	353,(0, 99),4	389,(0, 109),4	425,(0, 119),4	
25,(0, 8),4	61,(0, 18),4	97,(0, 28),4	133,(0, 38),4	169,(0, 48),4	205,(0, 58),4	241,(0, 68),4	277,(0, 78),4	313,(0, 88),4	349,(0, 98),4	385,(0, 108),4	421,(0, 118),4	
21,(0, 7),4	57,(0, 17),4	93,(0, 27),4	129,(0, 37),4	165,(0, 47),4	201,(0, 57),4	237,(0, 67),4	273,(0, 77),4	309,(0, 87),4	345,(0, 97),4	381,(0, 107),4	417,(0, 117),4	
17,(0, 6),4	53,(0, 16),4	89,(0, 26),4	125,(0, 36),4	161,(0, 46),4	197,(0, 56),4	233,(0, 66),4	269,(0, 76),4	305,(0, 86),4	341,(0, 96),4	377,(0, 106),4	413,(0, 116),4	
13,(0, 5),4	49,(0, 15),4	85,(0, 25),4	121,(0, 35),4	157,(0, 45),4	193,(0, 55),4	229,(0, 65),4	265,(0, 75),4	301,(0, 85),4	337,(0, 95),4	373,(0, 105),4	409,(0, 115),4	
9,(0, 4),4	45,(0, 14),4	81,(0, 24),4	117,(0, 34),4	153,(0, 44),4	189,(0, 54),4	225,(0, 64),4	261,(0, 74),4	297,(0, 84),4	333,(0, 94),4	369,(0, 104),4	405,(0, 114),4	
5,(0, 3),4	41,(0, 13),4	77,(0, 23),4	113,(0, 33),4	149,(0, 43),4	185,(0, 53),4	221,(0, 63),4	257,(0, 73),4	293,(0, 83),4	329,(0, 93),4	365,(0, 103),4	401,(0, 113),4	
1,(0, 2),4	37,(0, 12),4	73,(0, 22),4	109,(0, 32),4	145,(0, 42),4	181,(0, 52),4	217,(0, 62),4	253,(0, 72),4	289,(0, 82),4	325,(0, 92),4	361,(0, 102),4	397,(0, 112),4	
17,(2, 121),28	45,(3, 121),28	73,(4, 121),28	101,(5, 121),28	129,(6, 121),28	157,(7, 121),28	185,(8, 121),28	213,(9, 121),28	241,(10, 121),28	269,(12, 121),28	297,(13, 121),28	325,(14, 121),28	353,(15, 121),28	381,(16, 121),28	409,(17, 121),28	437,(18, 121),28	465,(19, 121),28	493,(20, 121),28	521,(22, 121),28	549,(23, 121),28	577,(24, 121),28	605,(25, 121),28	633,(26, 121),28	661,(27, 121),28	689,(28, 121),28	717,(29, 121),28	745,(30, 121),28	773,(32, 121),28	801,(33, 121),28	829,(34, 121),28	857,(35, 121),28	885,(36, 121),28	913,(37, 121),28	941,(38, 121),28	969,(39, 121),28	997,(40, 121),28	1025,(42, 121),28	1053,(43, 121),28	1081,(44, 121),28	1109,(45, 121),28	1137,(46, 121),28	1165,(47, 121),28	1193,(48, 121),28	1221,(49, 121),28	1249,(50, 121),28	1277,(52, 121),28	1305,(53, 121),28	1333,(54, 121),28	1361,(55, 121),28	1389,(56, 121),28	1417,(57, 121),28	1445,(58, 121),28	1473,(59, 121),28	1501,(60, 121),28	1529,(62, 121),28	1557,(63, 121),28	1585,(64, 121),28	1613,(65, 121),28	1641,(66, 121),28	1669,(67, 121),28	1697,(68, 121),28	1725,(69, 121),28	1753,(70, 121),28	1781,(72, 121),28	1809,(73, 121),28	1837,(74, 121),28	1865,(75, 121),28	1893,(76, 121),28	1921,(77, 121),28	1949,(78, 121),28	1977,(79, 121),28	2005,(80, 121),28	2033,(82, 121),28	2061,(83, 121),28	2089,(84, 121),28	2117,(85, 121),28	2145,(86, 121),28	2173,(87, 121),28	2201,(88, 121),28	2229,(89, 121),28	2257,(90, 121),28	2285,(92, 121),28	2313,(93, 121),28	2341,(94, 121),28	2369,(95, 121),28	2397,(96, 121),28	2425,(97, 121),28	2453,(98, 121),28	2481,(99, 121),28	2509,(100, 121),28	2537,(102, 121),28	2565,(103, 121),28	2593,(104, 121),28	2621,(105, 121),28	2649,(106, 121),28	2677,(107, 121),28	2705,(108, 121),28	2733,(109, 121),28	2761,(110, 121),28	2789,(112, 121),28	2817,(113, 121),28	2845,(114, 121),28	2873,(115, 121),28	2901,(116, 121),28	2929,(117, 121),28	2957,(118, 121),28	2985,(119, 121),28	3013,(120, 121),28	
# Outgoing
241,(10, 121),28	493,(20, 121),28	745,(30, 121),28	997,(40, 121),28	1249,(50, 121),28	1501,(60, 121),28	1753,(70, 121),28	2005,(80, 121),28	2257,(90, 121),28	2509,(100, 121),28	2761,(110, 121),28	3013,(120, 121),28	
213,(9, 121),28	465,(19, 121),28	717,(29, 121),28	969,(39, 121),28	1221,(49, 121),28	1473,(59, 121),28	1725,(69, 121),28	1977,(79, 121),28	2229,(89, 121),28	2481,(99, 121),28	2733,(109, 121),28	2985,(119, 121),28	
185,(8, 121),28	437,(18, 121),28	689,(28, 121),28	941,(38, 121),28	1193,(48, 121),28	1445,(58, 121),28	1697,(68, 121),28	1949,(78, 121),28	2201,(88, 121),28	2453,(98, 121),28	2705,(108, 121),28	2957,(118, 121),28	
157,(7, 121),28	409,(17, 121),28	661,(27, 121),28	913,(37, 121),28	1165,(47, 121),28	1417,(57, 121),28	1669,(67, 121),28	1921,(77, 121),28	2173,(87, 121),28	2425,(97, 121),28	2677,(107, 121),28	2929,(117, 121),28	
129,(6, 121),28	381,(16, 121),28	633,(26, 121),28	885,(36, 121),28	1137,(46, 121),28	1389,(56, 121),28	1641,(66, 121),28	1893,(76, 121),28	2145,(86, 121),28	2397,(96, 121),28	2649,(106, 121),28	2901,(116, 121),28	
101,(5, 121),28	353,(15, 121),28	605,(25, 121),28	857,(35, 121),28	1109,(45, 121),28	1361,(55, 121),28	1613,(65, 121),28	1865,(75, 121),28	2117,(85, 121),28	2369,(95, 121),28	2621,(105, 121),28	2873,(115, 121),28	
73,(4, 121),28	325,(14, 121),28	577,(24, 121),28	829,(34, 121),28	1081,(44, 121),28	1333,(54, 121),28	1585,(64, 121),28	1837,(74, 121),28	2089,(84, 121),28	2341,(94, 121),28	2593,(104, 121),28	2845,(114, 121),28	
45,(3, 121),28	297,(13, 121),28	549,(23, 121),28	801,(33, 121),28	1053,(43, 121),28	1305,(53, 121),28	1557,(63, 121),28	1809,(73, 121),28	2061,(83, 121),28	2313,(93, 121),28	2565,(103, 121),28	2817,(113, 121),28	
17,(2, 121),28	269,(12, 121),28	521,(22, 121),28	773,(32, 121),28	1025,(42, 121),28	1277,(52, 121),28	1529,(62, 121),28	1781,(72, 121),28	2033,(82, 121),28	2285,(92, 121),28	2537,(102, 121),28	2789,(112, 121),28	
1,(0, 2),4	5,(0, 3),4	9,(0, 4),4	13,(0, 5),4	17,(0, 6),4	21,(0, 7),4	25,(0, 8),4	29,(0, 9),4	33,(0, 10),4	37,(0, 12),4	41,(0, 13),4	45,(0, 14),4	49,(0, 15),4	53,(0, 16),4	57,(0, 17),4	61,(0, 18),4	65,(0, 19),4	69,(0, 20),4	73,(0, 22),4	77,(0, 23),4	81,(0, 24),4	85,(0, 25),4	89,(0, 26),4	93,(0, 27),4	97,(0, 28),4	101,(0, 29),4	105,(0, 30),4	109,(0, 32),4	113,(0, 33),4	117,(0, 34),4	121,(0, 35),4	125,(0, 36),4	129,(0, 37),4	133,(0, 38),4	137,(0, 39),4	141,(0, 40),4	145,(0, 42),4	149,(0, 43),4	153,(0, 44),4	157,(0, 45),4	161,(0, 46),4	165,(0, 47),4	169,(0, 48),4	173,(0, 49),4	177,(0, 50),4	181,(0, 52),4	185,(0, 53),4	189,(0, 54),4	193,(0, 55),4	197,(0, 56),4	201,(0, 57),4	205,(0, 58),4	209,(0, 59),4	213,(0, 60),4	217,(0, 62),4	221,(0, 63),4	225,(0, 64),4	229,(0, 65),4	233,(0, 66),4	237,(0, 67),4	241,(0, 68),4	245,(0, 69),4	249,(0, 70),4	253,(0, 72),4	257,(0, 73),4	261,(0, 74),4	265,(0, 75),4	269,(0, 76),4	273,(0, 77),4	277,(0, 78),4	281,(0, 79),4	285,(0, 80),4	289,(0, 82),4	293,(0, 83),4	297,(0, 84),4	301,(0, 85),4	305,(0, 86),4	309,(0, 87),4	313,(0, 88),4	317,(0, 89),4	321,(0, 90),4	325,(0, 92),4	329,(0, 93),4	333,(0, 94),4	337,(0, 95),4	341,(0, 96),4	345,(0, 97),4	349,(0, 98),4	353,(0, 99),4	357,(0, 100),4	361,(0, 102),4	365,(0, 103),4	369,(0, 104),4	373,(0, 105),4	377,(0, 106),4	381,(0, 107),4	385,(0, 108),4	389,(0, 109),4	393,(0, 110),4	397,(0, 112),4	401,(0, 113),4	405,(0, 114),4	409,(0, 115),4	413,(0, 116),4	417,(0, 117),4	421,(0, 118),4	425,(0, 119),4	429,(0, 120),4	
