271
# CPU
145,10,1	
129,9,1	
113,8,1	
97,7,1	
81,6,1	
65,5,1	
49,4,1	
33,3,1	
17,2,1	
0,0,1	1,1,1	270,11,1	
# Incoming
129,(0, 10),16	
113,(0, 9),16	
97,(0, 8),16	
81,(0, 7),16	
65,(0, 6),16	
49,(0, 5),16	
33,(0, 4),16	
17,(0, 3),16	
1,(0, 2),16	
18,(2, 11),28	46,(3, 11),28	74,(4, 11),28	102,(5, 11),28	130,(6, 11),28	158,(7, 11),28	186,(8, 11),28	214,(9, 11),28	242,(10, 11),28	
# Outgoing
242,(10, 11),28	
214,(9, 11),28	
186,(8, 11),28	
158,(7, 11),28	
130,(6, 11),28	
102,(5, 11),28	
74,(4, 11),28	
46,(3, 11),28	
18,(2, 11),28	
1,(0, 2),16	17,(0, 3),16	33,(0, 4),16	49,(0, 5),16	65,(0, 6),16	81,(0, 7),16	97,(0, 8),16	113,(0, 9),16	129,(0, 10),16	
