21
# CPU
0,11,1	1,1,2	3,2,2	5,3,2	7,4,2	9,5,2	11,6,2	13,7,2	15,8,2	20,0,1	
15,10,2	




8,9,2	



# Incoming
10,(9, 0),3	17,(10, 0),3	
8,(11, 10),7	




1,(11, 9),7	



# Outgoing
1,(11, 9),7	8,(11, 10),7	
17,(10, 0),3	




10,(9, 0),3	



