888
# CPU
0,161,1	1,111,22	23,110,22	45,114,22	67,103,22	89,100,22	111,97,22	133,119,22	155,92,22	177,81,22	199,78,22	221,84,22	243,73,22	265,87,22	287,68,22	309,122,22	331,63,22	353,125,22	375,58,22	397,128,22	419,53,22	441,131,22	463,48,22	485,134,22	507,43,22	529,145,22	551,142,22	573,139,22	595,40,22	617,37,22	639,34,22	661,31,22	683,28,22	705,17,22	727,19,22	749,21,22	771,23,22	793,1,22	815,5,22	837,25,22	859,157,22	
7,112,22	29,108,22	51,106,22	73,101,22	95,98,22	117,95,22	139,93,22	161,90,22	183,79,22	205,76,22	227,74,22	249,71,22	271,69,22	293,66,22	315,64,22	337,61,22	359,59,22	381,56,22	403,54,22	425,51,22	447,49,22	469,46,22	491,44,22	513,41,22	535,143,22	557,140,22	579,137,22	601,38,22	623,35,22	645,32,22	667,29,22	689,26,22	711,15,22	733,13,22	755,11,22	777,9,22	799,4,22	821,8,22	843,156,22	865,160,22	887,0,1	
3,105,22	25,109,22	47,107,22	69,102,22	91,99,22	113,96,22	135,94,22	157,91,22	179,80,22	201,77,22	223,75,22	245,72,22	267,70,22	289,67,22	311,65,22	333,62,22	355,60,22	377,57,22	399,55,22	421,52,22	443,50,22	465,47,22	487,45,22	509,42,22	531,144,22	553,141,22	575,138,22	597,39,22	619,36,22	641,33,22	663,30,22	685,27,22	707,16,22	729,14,22	751,12,22	773,10,22	795,2,22	817,6,22	839,154,22	861,158,22	
5,104,22	27,113,22	49,115,22	71,116,22	93,117,22	115,118,22	137,120,22	159,121,22	181,82,22	203,83,22	225,85,22	247,86,22	269,88,22	291,89,22	313,123,22	335,124,22	357,126,22	379,127,22	401,129,22	423,130,22	445,132,22	467,133,22	489,135,22	511,136,22	533,146,22	555,147,22	577,148,22	599,149,22	621,150,22	643,151,22	665,152,22	687,153,22	709,18,22	731,20,22	753,22,22	775,24,22	797,3,22	819,7,22	841,155,22	863,159,22	
# Incoming

5,(161, 112),2	11,(161, 108),2	17,(161, 106),2	23,(161, 101),2	25,(105, 0),2	27,(104, 0),2	29,(161, 98),2	35,(161, 95),2	41,(161, 93),2	47,(161, 90),2	49,(109, 0),2	51,(113, 0),2	53,(161, 79),2	59,(161, 76),2	65,(161, 74),2	69,(107, 0),2	71,(161, 71),2	73,(115, 0),2	77,(161, 69),2	83,(161, 66),2	89,(161, 64),2	91,(102, 0),2	93,(116, 0),2	95,(161, 61),2	101,(161, 59),2	107,(161, 56),2	113,(161, 54),2	115,(99, 0),2	117,(117, 0),2	119,(161, 51),2	125,(161, 49),2	131,(161, 46),2	135,(96, 0),2	137,(161, 44),2	139,(118, 0),2	143,(161, 41),2	149,(161, 143),2	155,(161, 140),2	157,(94, 0),2	159,(120, 0),2	161,(161, 137),2	167,(161, 38),2	173,(161, 35),2	179,(161, 32),2	181,(91, 0),2	183,(121, 0),2	185,(161, 29),2	191,(161, 26),2	197,(161, 15),2	201,(80, 0),2	203,(161, 13),2	205,(82, 0),2	209,(161, 11),2	215,(161, 9),2	221,(161, 4),2	223,(77, 0),2	225,(83, 0),2	227,(161, 8),2	233,(161, 156),2	239,(161, 160),2	241,(111, 0),2	243,(110, 0),2	245,(114, 0),2	247,(103, 0),2	249,(100, 0),2	251,(97, 0),2	253,(119, 0),2	255,(92, 0),2	257,(81, 0),2	259,(78, 0),2	261,(84, 0),2	263,(75, 0),2	265,(85, 0),2	267,(73, 0),2	269,(72, 0),2	271,(86, 0),2	287,(87, 0),2	289,(70, 0),2	291,(88, 0),2	309,(68, 0),2	311,(67, 0),2	313,(89, 0),2	331,(122, 0),2	333,(65, 0),2	335,(123, 0),2	353,(63, 0),2	355,(62, 0),2	357,(124, 0),2	375,(125, 0),2	377,(60, 0),2	379,(126, 0),2	397,(58, 0),2	399,(57, 0),2	401,(127, 0),2	419,(128, 0),2	421,(55, 0),2	423,(129, 0),2	441,(53, 0),2	443,(52, 0),2	445,(130, 0),2	463,(131, 0),2	465,(50, 0),2	467,(132, 0),2	485,(48, 0),2	487,(47, 0),2	489,(133, 0),2	507,(134, 0),2	509,(45, 0),2	511,(135, 0),2	529,(43, 0),2	531,(42, 0),2	533,(136, 0),2	551,(145, 0),2	553,(144, 0),2	555,(146, 0),2	573,(142, 0),2	575,(141, 0),2	577,(147, 0),2	595,(139, 0),2	597,(138, 0),2	599,(148, 0),2	617,(40, 0),2	619,(39, 0),2	621,(149, 0),2	639,(37, 0),2	641,(36, 0),2	643,(150, 0),2	661,(34, 0),2	663,(33, 0),2	665,(151, 0),2	683,(31, 0),2	685,(30, 0),2	687,(152, 0),2	705,(28, 0),2	707,(27, 0),2	709,(153, 0),2	727,(17, 0),2	729,(16, 0),2	731,(18, 0),2	749,(19, 0),2	751,(14, 0),2	753,(20, 0),2	771,(21, 0),2	773,(12, 0),2	775,(22, 0),2	793,(23, 0),2	795,(10, 0),2	797,(24, 0),2	815,(1, 0),2	817,(2, 0),2	819,(3, 0),2	837,(5, 0),2	839,(6, 0),2	841,(7, 0),2	859,(25, 0),2	861,(154, 0),2	863,(155, 0),2	881,(157, 0),2	883,(158, 0),2	885,(159, 0),2	
1,(161, 105),2	7,(161, 109),2	13,(161, 107),2	19,(161, 102),2	25,(161, 99),2	31,(161, 96),2	37,(161, 94),2	43,(161, 91),2	49,(161, 80),2	55,(161, 77),2	61,(161, 75),2	67,(161, 72),2	73,(161, 70),2	79,(161, 67),2	85,(161, 65),2	91,(161, 62),2	97,(161, 60),2	103,(161, 57),2	109,(161, 55),2	115,(161, 52),2	121,(161, 50),2	127,(161, 47),2	133,(161, 45),2	139,(161, 42),2	145,(161, 144),2	151,(161, 141),2	157,(161, 138),2	163,(161, 39),2	169,(161, 36),2	175,(161, 33),2	181,(161, 30),2	187,(161, 27),2	193,(161, 16),2	199,(161, 14),2	205,(161, 12),2	211,(161, 10),2	217,(161, 2),2	223,(161, 6),2	229,(161, 154),2	235,(161, 158),2	
3,(161, 104),2	9,(161, 113),2	15,(161, 115),2	21,(161, 116),2	27,(161, 117),2	33,(161, 118),2	39,(161, 120),2	45,(161, 121),2	51,(161, 82),2	57,(161, 83),2	63,(161, 85),2	69,(161, 86),2	75,(161, 88),2	81,(161, 89),2	87,(161, 123),2	93,(161, 124),2	99,(161, 126),2	105,(161, 127),2	111,(161, 129),2	117,(161, 130),2	123,(161, 132),2	129,(161, 133),2	135,(161, 135),2	141,(161, 136),2	147,(161, 146),2	153,(161, 147),2	159,(161, 148),2	165,(161, 149),2	171,(161, 150),2	177,(161, 151),2	183,(161, 152),2	189,(161, 153),2	195,(161, 18),2	201,(161, 20),2	207,(161, 22),2	213,(161, 24),2	219,(161, 3),2	225,(161, 7),2	231,(161, 155),2	237,(161, 159),2	
# Outgoing
1,(161, 105),2	3,(161, 104),2	5,(161, 112),2	7,(161, 109),2	9,(161, 113),2	11,(161, 108),2	13,(161, 107),2	15,(161, 115),2	17,(161, 106),2	19,(161, 102),2	21,(161, 116),2	23,(161, 101),2	25,(161, 99),2	27,(161, 117),2	29,(161, 98),2	31,(161, 96),2	33,(161, 118),2	35,(161, 95),2	37,(161, 94),2	39,(161, 120),2	41,(161, 93),2	43,(161, 91),2	45,(161, 121),2	47,(161, 90),2	49,(161, 80),2	51,(161, 82),2	53,(161, 79),2	55,(161, 77),2	57,(161, 83),2	59,(161, 76),2	61,(161, 75),2	63,(161, 85),2	65,(161, 74),2	67,(161, 72),2	69,(161, 86),2	71,(161, 71),2	73,(161, 70),2	75,(161, 88),2	77,(161, 69),2	79,(161, 67),2	81,(161, 89),2	83,(161, 66),2	85,(161, 65),2	87,(161, 123),2	89,(161, 64),2	91,(161, 62),2	93,(161, 124),2	95,(161, 61),2	97,(161, 60),2	99,(161, 126),2	101,(161, 59),2	103,(161, 57),2	105,(161, 127),2	107,(161, 56),2	109,(161, 55),2	111,(161, 129),2	113,(161, 54),2	115,(161, 52),2	117,(161, 130),2	119,(161, 51),2	121,(161, 50),2	123,(161, 132),2	125,(161, 49),2	127,(161, 47),2	129,(161, 133),2	131,(161, 46),2	133,(161, 45),2	135,(161, 135),2	137,(161, 44),2	139,(161, 42),2	141,(161, 136),2	143,(161, 41),2	145,(161, 144),2	147,(161, 146),2	149,(161, 143),2	151,(161, 141),2	153,(161, 147),2	155,(161, 140),2	157,(161, 138),2	159,(161, 148),2	161,(161, 137),2	163,(161, 39),2	165,(161, 149),2	167,(161, 38),2	169,(161, 36),2	171,(161, 150),2	173,(161, 35),2	175,(161, 33),2	177,(161, 151),2	179,(161, 32),2	181,(161, 30),2	183,(161, 152),2	185,(161, 29),2	187,(161, 27),2	189,(161, 153),2	191,(161, 26),2	193,(161, 16),2	195,(161, 18),2	197,(161, 15),2	199,(161, 14),2	201,(161, 20),2	203,(161, 13),2	205,(161, 12),2	207,(161, 22),2	209,(161, 11),2	211,(161, 10),2	213,(161, 24),2	215,(161, 9),2	217,(161, 2),2	219,(161, 3),2	221,(161, 4),2	223,(161, 6),2	225,(161, 7),2	227,(161, 8),2	229,(161, 154),2	231,(161, 155),2	233,(161, 156),2	235,(161, 158),2	237,(161, 159),2	239,(161, 160),2	241,(111, 0),2	243,(110, 0),2	245,(114, 0),2	247,(103, 0),2	249,(100, 0),2	251,(97, 0),2	253,(119, 0),2	255,(92, 0),2	257,(81, 0),2	259,(78, 0),2	261,(84, 0),2	267,(73, 0),2	287,(87, 0),2	309,(68, 0),2	331,(122, 0),2	353,(63, 0),2	375,(125, 0),2	397,(58, 0),2	419,(128, 0),2	441,(53, 0),2	463,(131, 0),2	485,(48, 0),2	507,(134, 0),2	529,(43, 0),2	551,(145, 0),2	573,(142, 0),2	595,(139, 0),2	617,(40, 0),2	639,(37, 0),2	661,(34, 0),2	683,(31, 0),2	705,(28, 0),2	727,(17, 0),2	749,(19, 0),2	771,(21, 0),2	793,(23, 0),2	815,(1, 0),2	837,(5, 0),2	859,(25, 0),2	881,(157, 0),2	

25,(105, 0),2	49,(109, 0),2	69,(107, 0),2	91,(102, 0),2	115,(99, 0),2	135,(96, 0),2	157,(94, 0),2	181,(91, 0),2	201,(80, 0),2	223,(77, 0),2	263,(75, 0),2	269,(72, 0),2	289,(70, 0),2	311,(67, 0),2	333,(65, 0),2	355,(62, 0),2	377,(60, 0),2	399,(57, 0),2	421,(55, 0),2	443,(52, 0),2	465,(50, 0),2	487,(47, 0),2	509,(45, 0),2	531,(42, 0),2	553,(144, 0),2	575,(141, 0),2	597,(138, 0),2	619,(39, 0),2	641,(36, 0),2	663,(33, 0),2	685,(30, 0),2	707,(27, 0),2	729,(16, 0),2	751,(14, 0),2	773,(12, 0),2	795,(10, 0),2	817,(2, 0),2	839,(6, 0),2	861,(154, 0),2	883,(158, 0),2	
27,(104, 0),2	51,(113, 0),2	73,(115, 0),2	93,(116, 0),2	117,(117, 0),2	139,(118, 0),2	159,(120, 0),2	183,(121, 0),2	205,(82, 0),2	225,(83, 0),2	265,(85, 0),2	271,(86, 0),2	291,(88, 0),2	313,(89, 0),2	335,(123, 0),2	357,(124, 0),2	379,(126, 0),2	401,(127, 0),2	423,(129, 0),2	445,(130, 0),2	467,(132, 0),2	489,(133, 0),2	511,(135, 0),2	533,(136, 0),2	555,(146, 0),2	577,(147, 0),2	599,(148, 0),2	621,(149, 0),2	643,(150, 0),2	665,(151, 0),2	687,(152, 0),2	709,(153, 0),2	731,(18, 0),2	753,(20, 0),2	775,(22, 0),2	797,(24, 0),2	819,(3, 0),2	841,(7, 0),2	863,(155, 0),2	885,(159, 0),2	
