1741
# CPU
13,5,8	25,10,8	37,15,8	49,20,8	61,25,8	73,30,8	85,35,8	97,40,8	109,45,8	121,50,8	133,55,8	145,60,8	157,65,8	169,70,8	181,75,8	193,80,8	205,85,8	217,90,8	229,95,8	241,100,8	253,105,8	265,110,8	277,115,8	289,120,8	
10,4,8	22,9,8	34,14,8	46,19,8	58,24,8	70,29,8	82,34,8	94,39,8	106,44,8	118,49,8	130,54,8	142,59,8	154,64,8	166,69,8	178,74,8	190,79,8	202,84,8	214,89,8	226,94,8	238,99,8	250,104,8	262,109,8	274,114,8	286,119,8	
7,3,8	19,8,8	31,13,8	43,18,8	55,23,8	67,28,8	79,33,8	91,38,8	103,43,8	115,48,8	127,53,8	139,58,8	151,63,8	163,68,8	175,73,8	187,78,8	199,83,8	211,88,8	223,93,8	235,98,8	247,103,8	259,108,8	271,113,8	283,118,8	
4,2,8	16,7,8	28,12,8	40,17,8	52,22,8	64,27,8	76,32,8	88,37,8	100,42,8	112,47,8	124,52,8	136,57,8	148,62,8	160,67,8	172,72,8	184,77,8	196,82,8	208,87,8	220,92,8	232,97,8	244,102,8	256,107,8	268,112,8	280,117,8	
0,0,1	1,1,8	9,11,8	17,31,8	25,71,8	33,116,8	41,111,8	49,106,8	57,101,8	65,96,8	73,91,8	81,86,8	89,81,8	97,66,8	105,76,8	113,61,8	121,56,8	129,51,8	137,46,8	145,41,8	153,26,8	161,36,8	169,21,8	177,6,8	185,16,8	1740,121,1	
# Incoming
10,(0, 5),3	22,(0, 10),3	34,(0, 15),3	46,(0, 20),3	58,(0, 25),3	70,(0, 30),3	82,(0, 35),3	94,(0, 40),3	106,(0, 45),3	118,(0, 50),3	130,(0, 55),3	142,(0, 60),3	154,(0, 65),3	166,(0, 70),3	178,(0, 75),3	190,(0, 80),3	202,(0, 85),3	214,(0, 90),3	226,(0, 95),3	238,(0, 100),3	250,(0, 105),3	262,(0, 110),3	274,(0, 115),3	286,(0, 120),3	
7,(0, 4),3	19,(0, 9),3	31,(0, 14),3	43,(0, 19),3	55,(0, 24),3	67,(0, 29),3	79,(0, 34),3	91,(0, 39),3	103,(0, 44),3	115,(0, 49),3	127,(0, 54),3	139,(0, 59),3	151,(0, 64),3	163,(0, 69),3	175,(0, 74),3	187,(0, 79),3	199,(0, 84),3	211,(0, 89),3	223,(0, 94),3	235,(0, 99),3	247,(0, 104),3	259,(0, 109),3	271,(0, 114),3	283,(0, 119),3	
4,(0, 3),3	16,(0, 8),3	28,(0, 13),3	40,(0, 18),3	52,(0, 23),3	64,(0, 28),3	76,(0, 33),3	88,(0, 38),3	100,(0, 43),3	112,(0, 48),3	124,(0, 53),3	136,(0, 58),3	148,(0, 63),3	160,(0, 68),3	172,(0, 73),3	184,(0, 78),3	196,(0, 83),3	208,(0, 88),3	220,(0, 93),3	232,(0, 98),3	244,(0, 103),3	256,(0, 108),3	268,(0, 113),3	280,(0, 118),3	
1,(0, 2),3	13,(0, 7),3	25,(0, 12),3	37,(0, 17),3	49,(0, 22),3	61,(0, 27),3	73,(0, 32),3	85,(0, 37),3	97,(0, 42),3	109,(0, 47),3	121,(0, 52),3	133,(0, 57),3	145,(0, 62),3	157,(0, 67),3	169,(0, 72),3	181,(0, 77),3	193,(0, 82),3	205,(0, 87),3	217,(0, 92),3	229,(0, 97),3	241,(0, 102),3	253,(0, 107),3	265,(0, 112),3	277,(0, 117),3	
12,(2, 121),18	30,(3, 121),18	48,(4, 121),18	66,(5, 121),18	84,(7, 121),18	102,(8, 121),18	120,(9, 121),18	138,(10, 121),18	156,(12, 121),18	174,(13, 121),18	192,(14, 121),18	210,(15, 121),18	228,(17, 121),18	246,(18, 121),18	264,(19, 121),18	282,(20, 121),18	300,(22, 121),18	318,(23, 121),18	336,(24, 121),18	354,(25, 121),18	372,(27, 121),18	390,(28, 121),18	408,(29, 121),18	426,(30, 121),18	444,(32, 121),18	462,(33, 121),18	480,(34, 121),18	498,(35, 121),18	516,(37, 121),18	534,(38, 121),18	552,(39, 121),18	570,(40, 121),18	588,(42, 121),18	606,(43, 121),18	624,(44, 121),18	642,(45, 121),18	660,(47, 121),18	678,(48, 121),18	696,(49, 121),18	714,(50, 121),18	732,(52, 121),18	750,(53, 121),18	768,(54, 121),18	786,(55, 121),18	804,(57, 121),18	822,(58, 121),18	840,(59, 121),18	858,(60, 121),18	876,(62, 121),18	894,(63, 121),18	912,(64, 121),18	930,(65, 121),18	948,(67, 121),18	966,(68, 121),18	984,(69, 121),18	1002,(70, 121),18	1020,(72, 121),18	1038,(73, 121),18	1056,(74, 121),18	1074,(75, 121),18	1092,(77, 121),18	1110,(78, 121),18	1128,(79, 121),18	1146,(80, 121),18	1164,(82, 121),18	1182,(83, 121),18	1200,(84, 121),18	1218,(85, 121),18	1236,(87, 121),18	1254,(88, 121),18	1272,(89, 121),18	1290,(90, 121),18	1308,(92, 121),18	1326,(93, 121),18	1344,(94, 121),18	1362,(95, 121),18	1380,(97, 121),18	1398,(98, 121),18	1416,(99, 121),18	1434,(100, 121),18	1452,(102, 121),18	1470,(103, 121),18	1488,(104, 121),18	1506,(105, 121),18	1524,(107, 121),18	1542,(108, 121),18	1560,(109, 121),18	1578,(110, 121),18	1596,(112, 121),18	1614,(113, 121),18	1632,(114, 121),18	1650,(115, 121),18	1668,(117, 121),18	1686,(118, 121),18	1704,(119, 121),18	1722,(120, 121),18	
# Outgoing
66,(5, 121),18	138,(10, 121),18	210,(15, 121),18	282,(20, 121),18	354,(25, 121),18	426,(30, 121),18	498,(35, 121),18	570,(40, 121),18	642,(45, 121),18	714,(50, 121),18	786,(55, 121),18	858,(60, 121),18	930,(65, 121),18	1002,(70, 121),18	1074,(75, 121),18	1146,(80, 121),18	1218,(85, 121),18	1290,(90, 121),18	1362,(95, 121),18	1434,(100, 121),18	1506,(105, 121),18	1578,(110, 121),18	1650,(115, 121),18	1722,(120, 121),18	
48,(4, 121),18	120,(9, 121),18	192,(14, 121),18	264,(19, 121),18	336,(24, 121),18	408,(29, 121),18	480,(34, 121),18	552,(39, 121),18	624,(44, 121),18	696,(49, 121),18	768,(54, 121),18	840,(59, 121),18	912,(64, 121),18	984,(69, 121),18	1056,(74, 121),18	1128,(79, 121),18	1200,(84, 121),18	1272,(89, 121),18	1344,(94, 121),18	1416,(99, 121),18	1488,(104, 121),18	1560,(109, 121),18	1632,(114, 121),18	1704,(119, 121),18	
30,(3, 121),18	102,(8, 121),18	174,(13, 121),18	246,(18, 121),18	318,(23, 121),18	390,(28, 121),18	462,(33, 121),18	534,(38, 121),18	606,(43, 121),18	678,(48, 121),18	750,(53, 121),18	822,(58, 121),18	894,(63, 121),18	966,(68, 121),18	1038,(73, 121),18	1110,(78, 121),18	1182,(83, 121),18	1254,(88, 121),18	1326,(93, 121),18	1398,(98, 121),18	1470,(103, 121),18	1542,(108, 121),18	1614,(113, 121),18	1686,(118, 121),18	
12,(2, 121),18	84,(7, 121),18	156,(12, 121),18	228,(17, 121),18	300,(22, 121),18	372,(27, 121),18	444,(32, 121),18	516,(37, 121),18	588,(42, 121),18	660,(47, 121),18	732,(52, 121),18	804,(57, 121),18	876,(62, 121),18	948,(67, 121),18	1020,(72, 121),18	1092,(77, 121),18	1164,(82, 121),18	1236,(87, 121),18	1308,(92, 121),18	1380,(97, 121),18	1452,(102, 121),18	1524,(107, 121),18	1596,(112, 121),18	1668,(117, 121),18	
1,(0, 2),3	4,(0, 3),3	7,(0, 4),3	10,(0, 5),3	13,(0, 7),3	16,(0, 8),3	19,(0, 9),3	22,(0, 10),3	25,(0, 12),3	28,(0, 13),3	31,(0, 14),3	34,(0, 15),3	37,(0, 17),3	40,(0, 18),3	43,(0, 19),3	46,(0, 20),3	49,(0, 22),3	52,(0, 23),3	55,(0, 24),3	58,(0, 25),3	61,(0, 27),3	64,(0, 28),3	67,(0, 29),3	70,(0, 30),3	73,(0, 32),3	76,(0, 33),3	79,(0, 34),3	82,(0, 35),3	85,(0, 37),3	88,(0, 38),3	91,(0, 39),3	94,(0, 40),3	97,(0, 42),3	100,(0, 43),3	103,(0, 44),3	106,(0, 45),3	109,(0, 47),3	112,(0, 48),3	115,(0, 49),3	118,(0, 50),3	121,(0, 52),3	124,(0, 53),3	127,(0, 54),3	130,(0, 55),3	133,(0, 57),3	136,(0, 58),3	139,(0, 59),3	142,(0, 60),3	145,(0, 62),3	148,(0, 63),3	151,(0, 64),3	154,(0, 65),3	157,(0, 67),3	160,(0, 68),3	163,(0, 69),3	166,(0, 70),3	169,(0, 72),3	172,(0, 73),3	175,(0, 74),3	178,(0, 75),3	181,(0, 77),3	184,(0, 78),3	187,(0, 79),3	190,(0, 80),3	193,(0, 82),3	196,(0, 83),3	199,(0, 84),3	202,(0, 85),3	205,(0, 87),3	208,(0, 88),3	211,(0, 89),3	214,(0, 90),3	217,(0, 92),3	220,(0, 93),3	223,(0, 94),3	226,(0, 95),3	229,(0, 97),3	232,(0, 98),3	235,(0, 99),3	238,(0, 100),3	241,(0, 102),3	244,(0, 103),3	247,(0, 104),3	250,(0, 105),3	253,(0, 107),3	256,(0, 108),3	259,(0, 109),3	262,(0, 110),3	265,(0, 112),3	268,(0, 113),3	271,(0, 114),3	274,(0, 115),3	277,(0, 117),3	280,(0, 118),3	283,(0, 119),3	286,(0, 120),3	
