56332
# CPU
705,2,2	1409,4,2	2113,6,2	2817,8,2	3521,10,2	4225,12,2	4929,14,2	5633,16,2	6337,18,2	7041,20,2	7745,22,2	8449,24,2	9153,26,2	9857,28,2	10561,30,2	11265,32,2	11969,34,2	12673,36,2	13377,38,2	14081,40,2	14785,42,2	15489,44,2	16193,46,2	16897,48,2	17601,50,2	18305,52,2	19009,54,2	19713,56,2	20417,58,2	21121,60,2	21825,62,2	22529,64,2	23233,66,2	23937,68,2	24641,70,2	25345,72,2	26049,74,2	26753,76,2	27457,78,2	28161,80,2	28865,82,2	29569,84,2	30273,86,2	30977,88,2	31681,90,2	32385,92,2	33089,94,2	33793,96,2	34497,98,2	35201,100,2	35905,102,2	36609,104,2	37313,106,2	38017,108,2	38721,110,2	39425,112,2	40129,114,2	40833,116,2	41537,118,2	42241,120,2	42945,122,2	43649,124,2	44353,126,2	45057,128,2	45761,130,2	46465,132,2	47169,134,2	47873,136,2	48577,138,2	49281,140,2	49985,142,2	50689,144,2	51393,146,2	52097,148,2	52801,150,2	53505,152,2	54209,154,2	54913,156,2	55617,158,2	56321,160,2	
0,0,1	1,1,2	3,5,2	5,13,2	7,29,2	9,61,2	11,125,2	13,159,2	15,157,2	17,155,2	19,153,2	21,151,2	23,149,2	25,147,2	27,145,2	29,143,2	31,141,2	33,139,2	35,137,2	37,135,2	39,133,2	41,131,2	43,129,2	45,123,2	47,127,2	49,121,2	51,119,2	53,117,2	55,115,2	57,113,2	59,111,2	61,109,2	63,107,2	65,105,2	67,103,2	69,101,2	71,99,2	73,97,2	75,95,2	77,93,2	79,91,2	81,89,2	83,87,2	85,85,2	87,83,2	89,81,2	91,79,2	93,77,2	95,75,2	97,73,2	99,71,2	101,69,2	103,67,2	105,65,2	107,59,2	109,63,2	111,57,2	113,55,2	115,53,2	117,51,2	119,49,2	121,47,2	123,45,2	125,43,2	127,41,2	129,39,2	131,37,2	133,35,2	135,33,2	137,27,2	139,31,2	141,25,2	143,23,2	145,21,2	147,19,2	149,17,2	151,11,2	153,15,2	155,9,2	157,3,2	159,7,2	56331,161,1	
# Incoming
1,(0, 2),704	705,(0, 4),704	1409,(0, 6),704	2113,(0, 8),704	2817,(0, 10),704	3521,(0, 12),704	4225,(0, 14),704	4929,(0, 16),704	5633,(0, 18),704	6337,(0, 20),704	7041,(0, 22),704	7745,(0, 24),704	8449,(0, 26),704	9153,(0, 28),704	9857,(0, 30),704	10561,(0, 32),704	11265,(0, 34),704	11969,(0, 36),704	12673,(0, 38),704	13377,(0, 40),704	14081,(0, 42),704	14785,(0, 44),704	15489,(0, 46),704	16193,(0, 48),704	16897,(0, 50),704	17601,(0, 52),704	18305,(0, 54),704	19009,(0, 56),704	19713,(0, 58),704	20417,(0, 60),704	21121,(0, 62),704	21825,(0, 64),704	22529,(0, 66),704	23233,(0, 68),704	23937,(0, 70),704	24641,(0, 72),704	25345,(0, 74),704	26049,(0, 76),704	26753,(0, 78),704	27457,(0, 80),704	28161,(0, 82),704	28865,(0, 84),704	29569,(0, 86),704	30273,(0, 88),704	30977,(0, 90),704	31681,(0, 92),704	32385,(0, 94),704	33089,(0, 96),704	33793,(0, 98),704	34497,(0, 100),704	35201,(0, 102),704	35905,(0, 104),704	36609,(0, 106),704	37313,(0, 108),704	38017,(0, 110),704	38721,(0, 112),704	39425,(0, 114),704	40129,(0, 116),704	40833,(0, 118),704	41537,(0, 120),704	42241,(0, 122),704	42945,(0, 124),704	43649,(0, 126),704	44353,(0, 128),704	45057,(0, 130),704	45761,(0, 132),704	46465,(0, 134),704	47169,(0, 136),704	47873,(0, 138),704	48577,(0, 140),704	49281,(0, 142),704	49985,(0, 144),704	50689,(0, 146),704	51393,(0, 148),704	52097,(0, 150),704	52801,(0, 152),704	53505,(0, 154),704	54209,(0, 156),704	54913,(0, 158),704	55617,(0, 160),704	
707,(2, 161),8	1411,(4, 161),8	2115,(6, 161),8	2819,(8, 161),8	3523,(10, 161),8	4227,(12, 161),8	4931,(14, 161),8	5635,(16, 161),8	6339,(18, 161),8	7043,(20, 161),8	7747,(22, 161),8	8451,(24, 161),8	9155,(26, 161),8	9859,(28, 161),8	10563,(30, 161),8	11267,(32, 161),8	11971,(34, 161),8	12675,(36, 161),8	13379,(38, 161),8	14083,(40, 161),8	14787,(42, 161),8	15491,(44, 161),8	16195,(46, 161),8	16899,(48, 161),8	17603,(50, 161),8	18307,(52, 161),8	19011,(54, 161),8	19715,(56, 161),8	20419,(58, 161),8	21123,(60, 161),8	21827,(62, 161),8	22531,(64, 161),8	23235,(66, 161),8	23939,(68, 161),8	24643,(70, 161),8	25347,(72, 161),8	26051,(74, 161),8	26755,(76, 161),8	27459,(78, 161),8	28163,(80, 161),8	28867,(82, 161),8	29571,(84, 161),8	30275,(86, 161),8	30979,(88, 161),8	31683,(90, 161),8	32387,(92, 161),8	33091,(94, 161),8	33795,(96, 161),8	34499,(98, 161),8	35203,(100, 161),8	35907,(102, 161),8	36611,(104, 161),8	37315,(106, 161),8	38019,(108, 161),8	38723,(110, 161),8	39427,(112, 161),8	40131,(114, 161),8	40835,(116, 161),8	41539,(118, 161),8	42243,(120, 161),8	42947,(122, 161),8	43651,(124, 161),8	44355,(126, 161),8	45059,(128, 161),8	45763,(130, 161),8	46467,(132, 161),8	47171,(134, 161),8	47875,(136, 161),8	48579,(138, 161),8	49283,(140, 161),8	49987,(142, 161),8	50691,(144, 161),8	51395,(146, 161),8	52099,(148, 161),8	52803,(150, 161),8	53507,(152, 161),8	54211,(154, 161),8	54915,(156, 161),8	55619,(158, 161),8	56323,(160, 161),8	
# Outgoing
707,(2, 161),8	1411,(4, 161),8	2115,(6, 161),8	2819,(8, 161),8	3523,(10, 161),8	4227,(12, 161),8	4931,(14, 161),8	5635,(16, 161),8	6339,(18, 161),8	7043,(20, 161),8	7747,(22, 161),8	8451,(24, 161),8	9155,(26, 161),8	9859,(28, 161),8	10563,(30, 161),8	11267,(32, 161),8	11971,(34, 161),8	12675,(36, 161),8	13379,(38, 161),8	14083,(40, 161),8	14787,(42, 161),8	15491,(44, 161),8	16195,(46, 161),8	16899,(48, 161),8	17603,(50, 161),8	18307,(52, 161),8	19011,(54, 161),8	19715,(56, 161),8	20419,(58, 161),8	21123,(60, 161),8	21827,(62, 161),8	22531,(64, 161),8	23235,(66, 161),8	23939,(68, 161),8	24643,(70, 161),8	25347,(72, 161),8	26051,(74, 161),8	26755,(76, 161),8	27459,(78, 161),8	28163,(80, 161),8	28867,(82, 161),8	29571,(84, 161),8	30275,(86, 161),8	30979,(88, 161),8	31683,(90, 161),8	32387,(92, 161),8	33091,(94, 161),8	33795,(96, 161),8	34499,(98, 161),8	35203,(100, 161),8	35907,(102, 161),8	36611,(104, 161),8	37315,(106, 161),8	38019,(108, 161),8	38723,(110, 161),8	39427,(112, 161),8	40131,(114, 161),8	40835,(116, 161),8	41539,(118, 161),8	42243,(120, 161),8	42947,(122, 161),8	43651,(124, 161),8	44355,(126, 161),8	45059,(128, 161),8	45763,(130, 161),8	46467,(132, 161),8	47171,(134, 161),8	47875,(136, 161),8	48579,(138, 161),8	49283,(140, 161),8	49987,(142, 161),8	50691,(144, 161),8	51395,(146, 161),8	52099,(148, 161),8	52803,(150, 161),8	53507,(152, 161),8	54211,(154, 161),8	54915,(156, 161),8	55619,(158, 161),8	56323,(160, 161),8	
1,(0, 2),704	705,(0, 4),704	1409,(0, 6),704	2113,(0, 8),704	2817,(0, 10),704	3521,(0, 12),704	4225,(0, 14),704	4929,(0, 16),704	5633,(0, 18),704	6337,(0, 20),704	7041,(0, 22),704	7745,(0, 24),704	8449,(0, 26),704	9153,(0, 28),704	9857,(0, 30),704	10561,(0, 32),704	11265,(0, 34),704	11969,(0, 36),704	12673,(0, 38),704	13377,(0, 40),704	14081,(0, 42),704	14785,(0, 44),704	15489,(0, 46),704	16193,(0, 48),704	16897,(0, 50),704	17601,(0, 52),704	18305,(0, 54),704	19009,(0, 56),704	19713,(0, 58),704	20417,(0, 60),704	21121,(0, 62),704	21825,(0, 64),704	22529,(0, 66),704	23233,(0, 68),704	23937,(0, 70),704	24641,(0, 72),704	25345,(0, 74),704	26049,(0, 76),704	26753,(0, 78),704	27457,(0, 80),704	28161,(0, 82),704	28865,(0, 84),704	29569,(0, 86),704	30273,(0, 88),704	30977,(0, 90),704	31681,(0, 92),704	32385,(0, 94),704	33089,(0, 96),704	33793,(0, 98),704	34497,(0, 100),704	35201,(0, 102),704	35905,(0, 104),704	36609,(0, 106),704	37313,(0, 108),704	38017,(0, 110),704	38721,(0, 112),704	39425,(0, 114),704	40129,(0, 116),704	40833,(0, 118),704	41537,(0, 120),704	42241,(0, 122),704	42945,(0, 124),704	43649,(0, 126),704	44353,(0, 128),704	45057,(0, 130),704	45761,(0, 132),704	46465,(0, 134),704	47169,(0, 136),704	47873,(0, 138),704	48577,(0, 140),704	49281,(0, 142),704	49985,(0, 144),704	50689,(0, 146),704	51393,(0, 148),704	52097,(0, 150),704	52801,(0, 152),704	53505,(0, 154),704	54209,(0, 156),704	54913,(0, 158),704	55617,(0, 160),704	
