176
# CPU
0,11,1	1,10,29	30,1,29	59,3,29	88,5,29	117,7,29	146,9,29	175,0,1	
4,2,29	33,6,29	
7,4,29	36,8,29	
# Incoming
33,(2, 0),30	63,(4, 0),30	93,(6, 0),30	123,(8, 0),30	
1,(11, 2),3	7,(11, 6),3	
4,(11, 4),3	10,(11, 8),3	
# Outgoing
1,(11, 2),3	4,(11, 4),3	7,(11, 6),3	10,(11, 8),3	
33,(2, 0),30	93,(6, 0),30	
63,(4, 0),30	123,(8, 0),30	
