246
# CPU
0,0,1	1,76,4	5,92,4	9,25,4	13,37,4	17,102,4	21,95,4	25,49,4	29,71,4	33,42,4	37,83,4	41,94,4	45,69,4	49,96,4	53,18,4	57,48,4	61,38,4	65,108,4	69,47,4	73,16,4	77,23,4	81,109,4	85,103,4	89,110,4	93,58,4	97,90,4	101,57,4	105,11,4	109,54,4	113,20,4	117,112,4	121,19,4	125,34,4	129,33,4	133,113,4	137,50,4	141,14,4	145,99,4	149,15,4	153,44,4	157,26,4	161,111,4	165,10,4	169,41,4	173,104,4	177,7,4	181,22,4	185,21,4	189,24,4	193,107,4	197,29,4	201,118,4	205,13,4	209,3,4	213,12,4	217,17,4	221,5,4	225,9,4	229,4,4	233,2,4	237,6,4	241,120,4	245,121,1	
9,80,4	37,73,4	49,68,4	61,85,4	73,86,4	101,87,4	113,93,4	125,97,4	145,51,4	157,101,4	177,35,4	193,31,4	209,116,4	217,117,4	225,8,4	229,27,4	233,1,4	237,119,4	
21,75,4	33,82,4	45,72,4	57,84,4	85,62,4	97,59,4	109,88,4	121,91,4	133,53,4	153,100,4	165,45,4	189,105,4	205,106,4	
5,79,4	17,77,4	29,81,4	41,70,4	69,66,4	81,63,4	93,61,4	105,56,4	129,55,4	141,98,4	161,43,4	173,39,4	185,36,4	201,28,4	213,115,4	221,114,4	
13,78,4	25,74,4	53,67,4	65,65,4	77,64,4	89,60,4	117,89,4	137,52,4	149,46,4	169,40,4	181,32,4	197,30,4	
# Incoming
9,(79, 121),1	13,(80, 121),1	17,(78, 121),1	21,(77, 121),1	25,(75, 121),1	29,(74, 121),1	33,(81, 121),1	37,(82, 121),1	41,(73, 121),1	45,(70, 121),1	49,(72, 121),1	53,(68, 121),1	57,(67, 121),1	61,(84, 121),1	65,(85, 121),1	69,(65, 121),1	73,(66, 121),1	77,(86, 121),1	81,(64, 121),1	85,(63, 121),1	89,(62, 121),1	93,(60, 121),1	97,(61, 121),1	101,(59, 121),1	105,(87, 121),1	109,(56, 121),1	113,(88, 121),1	117,(93, 121),1	121,(89, 121),1	125,(91, 121),1	129,(97, 121),1	133,(55, 121),1	137,(53, 121),1	141,(52, 121),1	145,(98, 121),1	149,(51, 121),1	153,(46, 121),1	157,(100, 121),1	161,(101, 121),1	165,(43, 121),1	169,(45, 121),1	173,(40, 121),1	177,(39, 121),1	181,(35, 121),1	185,(32, 121),1	189,(36, 121),1	193,(105, 121),1	197,(31, 121),1	201,(30, 121),1	205,(28, 121),1	209,(106, 121),1	213,(116, 121),1	217,(115, 121),1	221,(117, 121),1	225,(114, 121),1	229,(8, 121),1	233,(27, 121),1	237,(1, 121),1	241,(119, 121),1	
5,(0, 80),4	33,(0, 73),4	45,(0, 68),4	57,(0, 85),4	69,(0, 86),4	97,(0, 87),4	109,(0, 93),4	121,(0, 97),4	141,(0, 51),4	153,(0, 101),4	173,(0, 35),4	189,(0, 31),4	205,(0, 116),4	213,(0, 117),4	221,(0, 8),4	225,(0, 27),4	229,(0, 1),4	233,(0, 119),4	
17,(0, 75),4	29,(0, 82),4	41,(0, 72),4	53,(0, 84),4	81,(0, 62),4	93,(0, 59),4	105,(0, 88),4	117,(0, 91),4	129,(0, 53),4	149,(0, 100),4	161,(0, 45),4	185,(0, 105),4	201,(0, 106),4	
1,(0, 79),4	13,(0, 77),4	25,(0, 81),4	37,(0, 70),4	65,(0, 66),4	77,(0, 63),4	89,(0, 61),4	101,(0, 56),4	125,(0, 55),4	137,(0, 98),4	157,(0, 43),4	169,(0, 39),4	181,(0, 36),4	197,(0, 28),4	209,(0, 115),4	217,(0, 114),4	
9,(0, 78),4	21,(0, 74),4	49,(0, 67),4	61,(0, 65),4	73,(0, 64),4	85,(0, 60),4	113,(0, 89),4	133,(0, 52),4	145,(0, 46),4	165,(0, 40),4	177,(0, 32),4	193,(0, 30),4	
# Outgoing
1,(0, 79),4	5,(0, 80),4	9,(0, 78),4	13,(0, 77),4	17,(0, 75),4	21,(0, 74),4	25,(0, 81),4	29,(0, 82),4	33,(0, 73),4	37,(0, 70),4	41,(0, 72),4	45,(0, 68),4	49,(0, 67),4	53,(0, 84),4	57,(0, 85),4	61,(0, 65),4	65,(0, 66),4	69,(0, 86),4	73,(0, 64),4	77,(0, 63),4	81,(0, 62),4	85,(0, 60),4	89,(0, 61),4	93,(0, 59),4	97,(0, 87),4	101,(0, 56),4	105,(0, 88),4	109,(0, 93),4	113,(0, 89),4	117,(0, 91),4	121,(0, 97),4	125,(0, 55),4	129,(0, 53),4	133,(0, 52),4	137,(0, 98),4	141,(0, 51),4	145,(0, 46),4	149,(0, 100),4	153,(0, 101),4	157,(0, 43),4	161,(0, 45),4	165,(0, 40),4	169,(0, 39),4	173,(0, 35),4	177,(0, 32),4	181,(0, 36),4	185,(0, 105),4	189,(0, 31),4	193,(0, 30),4	197,(0, 28),4	201,(0, 106),4	205,(0, 116),4	209,(0, 115),4	213,(0, 117),4	217,(0, 114),4	221,(0, 8),4	225,(0, 27),4	229,(0, 1),4	233,(0, 119),4	
13,(80, 121),1	41,(73, 121),1	53,(68, 121),1	65,(85, 121),1	77,(86, 121),1	105,(87, 121),1	117,(93, 121),1	129,(97, 121),1	149,(51, 121),1	161,(101, 121),1	181,(35, 121),1	197,(31, 121),1	213,(116, 121),1	221,(117, 121),1	229,(8, 121),1	233,(27, 121),1	237,(1, 121),1	241,(119, 121),1	
25,(75, 121),1	37,(82, 121),1	49,(72, 121),1	61,(84, 121),1	89,(62, 121),1	101,(59, 121),1	113,(88, 121),1	125,(91, 121),1	137,(53, 121),1	157,(100, 121),1	169,(45, 121),1	193,(105, 121),1	209,(106, 121),1	
9,(79, 121),1	21,(77, 121),1	33,(81, 121),1	45,(70, 121),1	73,(66, 121),1	85,(63, 121),1	97,(61, 121),1	109,(56, 121),1	133,(55, 121),1	145,(98, 121),1	165,(43, 121),1	177,(39, 121),1	189,(36, 121),1	205,(28, 121),1	217,(115, 121),1	225,(114, 121),1	
17,(78, 121),1	29,(74, 121),1	57,(67, 121),1	69,(65, 121),1	81,(64, 121),1	93,(60, 121),1	121,(89, 121),1	141,(52, 121),1	153,(46, 121),1	173,(40, 121),1	185,(32, 121),1	201,(30, 121),1	
