926
# CPU
0,121,1	1,120,12	13,75,12	25,76,12	37,73,12	49,77,12	61,71,12	73,70,12	85,79,12	97,68,12	109,67,12	121,66,12	133,65,12	145,82,12	157,63,12	169,62,12	181,61,12	193,84,12	205,85,12	217,58,12	229,57,12	241,56,12	253,87,12	265,88,12	277,54,12	289,52,12	301,51,12	313,90,12	325,91,12	337,49,12	349,47,12	361,92,12	373,93,12	385,94,12	397,44,12	409,42,12	421,95,12	433,104,12	445,103,12	457,102,12	469,100,12	481,106,12	493,98,12	505,97,12	517,96,12	529,40,12	541,108,12	553,37,12	565,36,12	577,35,12	589,34,12	601,110,12	613,32,12	625,30,12	637,29,12	649,28,12	661,112,12	673,26,12	685,16,12	697,18,12	709,19,12	721,20,12	733,13,12	745,12,12	757,22,12	769,23,12	781,10,12	793,9,12	805,2,12	817,3,12	829,5,12	841,6,12	853,8,12	865,25,12	877,114,12	889,116,12	901,117,12	913,119,12	925,0,1	
22,74,12	43,72,12	64,78,12	85,69,12	106,80,12	127,81,12	148,64,12	169,83,12	190,60,12	211,59,12	232,86,12	253,55,12	274,53,12	295,89,12	316,50,12	337,48,12	358,46,12	379,45,12	400,43,12	421,41,12	442,105,12	463,101,12	484,99,12	505,107,12	526,39,12	547,38,12	568,109,12	589,33,12	610,31,12	631,111,12	652,27,12	673,17,12	694,15,12	715,14,12	736,21,12	757,11,12	778,24,12	799,1,12	820,4,12	841,7,12	862,113,12	883,115,12	904,118,12	
# Incoming
34,(74, 0),3	55,(72, 0),3	76,(78, 0),3	97,(69, 0),3	118,(80, 0),3	139,(81, 0),3	160,(64, 0),3	181,(83, 0),3	202,(60, 0),3	223,(59, 0),3	244,(86, 0),3	265,(55, 0),3	286,(53, 0),3	307,(89, 0),3	328,(50, 0),3	349,(48, 0),3	370,(46, 0),3	391,(45, 0),3	412,(43, 0),3	433,(41, 0),3	454,(105, 0),3	475,(101, 0),3	496,(99, 0),3	517,(107, 0),3	538,(39, 0),3	559,(38, 0),3	580,(109, 0),3	601,(33, 0),3	622,(31, 0),3	643,(111, 0),3	664,(27, 0),3	685,(17, 0),3	706,(15, 0),3	727,(14, 0),3	748,(21, 0),3	769,(11, 0),3	790,(24, 0),3	811,(1, 0),3	832,(4, 0),3	853,(7, 0),3	874,(113, 0),3	895,(115, 0),3	916,(118, 0),3	
1,(121, 74),21	22,(121, 72),21	43,(121, 78),21	64,(121, 69),21	85,(121, 80),21	106,(121, 81),21	127,(121, 64),21	148,(121, 83),21	169,(121, 60),21	190,(121, 59),21	211,(121, 86),21	232,(121, 55),21	253,(121, 53),21	274,(121, 89),21	295,(121, 50),21	316,(121, 48),21	337,(121, 46),21	358,(121, 45),21	379,(121, 43),21	400,(121, 41),21	421,(121, 105),21	442,(121, 101),21	463,(121, 99),21	484,(121, 107),21	505,(121, 39),21	526,(121, 38),21	547,(121, 109),21	568,(121, 33),21	589,(121, 31),21	610,(121, 111),21	631,(121, 27),21	652,(121, 17),21	673,(121, 15),21	694,(121, 14),21	715,(121, 21),21	736,(121, 11),21	757,(121, 24),21	778,(121, 1),21	799,(121, 4),21	820,(121, 7),21	841,(121, 113),21	862,(121, 115),21	883,(121, 118),21	
# Outgoing
1,(121, 74),21	22,(121, 72),21	43,(121, 78),21	64,(121, 69),21	85,(121, 80),21	106,(121, 81),21	127,(121, 64),21	148,(121, 83),21	169,(121, 60),21	190,(121, 59),21	211,(121, 86),21	232,(121, 55),21	253,(121, 53),21	274,(121, 89),21	295,(121, 50),21	316,(121, 48),21	337,(121, 46),21	358,(121, 45),21	379,(121, 43),21	400,(121, 41),21	421,(121, 105),21	442,(121, 101),21	463,(121, 99),21	484,(121, 107),21	505,(121, 39),21	526,(121, 38),21	547,(121, 109),21	568,(121, 33),21	589,(121, 31),21	610,(121, 111),21	631,(121, 27),21	652,(121, 17),21	673,(121, 15),21	694,(121, 14),21	715,(121, 21),21	736,(121, 11),21	757,(121, 24),21	778,(121, 1),21	799,(121, 4),21	820,(121, 7),21	841,(121, 113),21	862,(121, 115),21	883,(121, 118),21	
34,(74, 0),3	55,(72, 0),3	76,(78, 0),3	97,(69, 0),3	118,(80, 0),3	139,(81, 0),3	160,(64, 0),3	181,(83, 0),3	202,(60, 0),3	223,(59, 0),3	244,(86, 0),3	265,(55, 0),3	286,(53, 0),3	307,(89, 0),3	328,(50, 0),3	349,(48, 0),3	370,(46, 0),3	391,(45, 0),3	412,(43, 0),3	433,(41, 0),3	454,(105, 0),3	475,(101, 0),3	496,(99, 0),3	517,(107, 0),3	538,(39, 0),3	559,(38, 0),3	580,(109, 0),3	601,(33, 0),3	622,(31, 0),3	643,(111, 0),3	664,(27, 0),3	685,(17, 0),3	706,(15, 0),3	727,(14, 0),3	748,(21, 0),3	769,(11, 0),3	790,(24, 0),3	811,(1, 0),3	832,(4, 0),3	853,(7, 0),3	874,(113, 0),3	895,(115, 0),3	916,(118, 0),3	
