344
# CPU
0,121,1	1,120,3	4,75,3	7,76,3	10,74,3	13,73,3	16,72,3	19,77,3	22,71,3	25,78,3	28,70,3	31,79,3	34,69,3	37,68,3	40,67,3	43,80,3	46,66,3	49,81,3	52,65,3	55,82,3	58,64,3	61,63,3	64,62,3	67,83,3	70,61,3	73,84,3	76,60,3	79,85,3	82,59,3	85,57,3	88,58,3	91,56,3	94,86,3	97,55,3	100,87,3	103,54,3	106,53,3	109,52,3	112,88,3	115,51,3	118,90,3	121,50,3	124,91,3	127,49,3	130,48,3	133,47,3	136,46,3	139,92,3	142,45,3	145,93,3	148,44,3	151,43,3	154,42,3	157,94,3	160,41,3	163,104,3	166,103,3	169,105,3	172,102,3	175,101,3	178,100,3	181,106,3	184,99,3	187,98,3	190,107,3	193,97,3	196,96,3	199,39,3	202,108,3	205,38,3	208,37,3	211,36,3	214,109,3	217,35,3	220,34,3	223,33,3	226,110,3	229,32,3	232,31,3	235,111,3	238,30,3	241,29,3	244,28,3	247,112,3	250,26,3	253,17,3	256,16,3	259,18,3	262,15,3	265,19,3	268,14,3	271,20,3	274,13,3	277,12,3	280,21,3	283,11,3	286,22,3	289,10,3	292,23,3	295,9,3	298,1,3	301,2,3	304,3,3	307,4,3	310,5,3	313,6,3	316,7,3	319,8,3	322,24,3	325,113,3	328,114,3	331,115,3	334,116,3	337,117,3	340,119,3	343,0,1	
145,40,3	

289,118,3	
97,95,3	

241,25,3	

49,89,3	
193,27,3	
# Incoming
52,(89, 0),33	100,(95, 0),33	148,(40, 0),33	196,(27, 0),33	244,(25, 0),33	292,(118, 0),33	
97,(121, 40),48	

241,(121, 118),48	
49,(121, 95),48	

193,(121, 25),48	

1,(121, 89),48	
145,(121, 27),48	
# Outgoing
1,(121, 89),48	49,(121, 95),48	97,(121, 40),48	145,(121, 27),48	193,(121, 25),48	241,(121, 118),48	
148,(40, 0),33	

292,(118, 0),33	
100,(95, 0),33	

244,(25, 0),33	

52,(89, 0),33	
196,(27, 0),33	
