101
# CPU
0,11,1	1,1,15	16,2,15	31,4,15	46,6,15	61,7,15	76,9,15	100,0,1	
21,3,15	41,5,15	61,8,15	81,10,15	

# Incoming
36,(3, 0),4	56,(5, 0),4	76,(8, 0),4	96,(10, 0),4	
1,(11, 3),20	21,(11, 5),20	41,(11, 8),20	61,(11, 10),20	

# Outgoing
1,(11, 3),20	21,(11, 5),20	41,(11, 8),20	61,(11, 10),20	
36,(3, 0),4	56,(5, 0),4	76,(8, 0),4	96,(10, 0),4	

