237
# CPU
145,10,3	
129,9,3	
113,8,3	
97,7,3	
81,6,3	
65,5,3	
49,4,3	
33,3,3	
17,2,3	
0,0,1	1,1,3	236,11,1	
# Incoming
129,(0, 10),16	
113,(0, 9),16	
97,(0, 8),16	
81,(0, 7),16	
65,(0, 6),16	
49,(0, 5),16	
33,(0, 4),16	
17,(0, 3),16	
1,(0, 2),16	
20,(2, 11),24	44,(3, 11),24	68,(4, 11),24	92,(5, 11),24	116,(6, 11),24	140,(7, 11),24	164,(8, 11),24	188,(9, 11),24	212,(10, 11),24	
# Outgoing
212,(10, 11),24	
188,(9, 11),24	
164,(8, 11),24	
140,(7, 11),24	
116,(6, 11),24	
92,(5, 11),24	
68,(4, 11),24	
44,(3, 11),24	
20,(2, 11),24	
1,(0, 2),16	17,(0, 3),16	33,(0, 4),16	49,(0, 5),16	65,(0, 6),16	81,(0, 7),16	97,(0, 8),16	113,(0, 9),16	129,(0, 10),16	
