37
# CPU
0,11,1	1,10,5	6,1,5	11,2,5	16,4,5	21,5,5	26,7,5	31,9,5	36,0,1	
3,3,5	8,6,5	13,8,5	
# Incoming
8,(3, 0),9	17,(6, 0),9	26,(8, 0),9	
1,(11, 3),2	3,(11, 6),2	5,(11, 8),2	
# Outgoing
1,(11, 3),2	3,(11, 6),2	5,(11, 8),2	
8,(3, 0),9	17,(6, 0),9	26,(8, 0),9	
