3872
# CPU
0,161,1	1,111,30	31,110,30	61,112,30	91,109,30	121,107,30	151,67,30	181,113,30	211,114,30	241,74,30	271,65,30	301,115,30	331,108,30	361,41,30	391,64,30	421,116,30	451,117,30	481,105,30	511,86,30	541,118,30	571,106,30	601,136,30	631,131,30	661,104,30	691,102,30	721,137,30	751,58,30	781,88,30	811,87,30	841,138,30	871,130,30	901,83,30	931,84,30	961,34,30	991,55,30	1021,85,30	1051,82,30	1081,33,30	1111,133,30	1141,80,30	1171,81,30	1201,143,30	1231,39,30	1261,78,30	1291,77,30	1321,27,30	1351,140,30	1381,76,30	1411,79,30	1441,94,30	1471,44,30	1501,73,30	1531,72,30	1561,145,30	1591,141,30	1621,70,30	1651,69,30	1681,23,30	1711,42,30	1741,71,30	1771,68,30	1801,22,30	1831,38,30	1861,66,30	1891,75,30	1921,148,30	1951,30,30	1981,63,30	2011,62,30	2041,93,30	2071,35,30	2101,60,30	2131,61,30	2161,18,30	2191,36,30	2221,59,30	2251,57,30	2281,15,30	2311,32,30	2341,142,30	2371,144,30	2401,151,30	2431,29,30	2461,139,30	2491,135,30	2521,43,30	2551,45,30	2581,146,30	2611,134,30	2641,90,30	2671,150,30	2701,129,30	2731,126,30	2761,16,30	2791,28,30	2821,147,30	2851,149,30	2881,25,30	2911,1,30	2941,152,30	2971,91,30	3001,13,30	3031,26,30	3061,153,30	3091,24,30	3121,11,30	3151,2,30	3181,31,30	3211,21,30	3241,52,30	3271,12,30	3301,20,30	3331,37,30	3361,158,30	3391,8,30	3421,19,30	3451,17,30	3481,3,30	3511,4,30	3541,5,30	3571,6,30	3601,156,30	3631,9,30	3661,7,30	3691,10,30	3721,14,30	3751,56,30	3781,157,30	3811,159,30	3841,160,30	3871,0,1	
121,103,30	241,101,30	361,100,30	481,98,30	721,92,30	841,99,30	1441,122,30	1681,123,30	1921,125,30	2041,127,30	2161,128,30	2281,132,30	2641,51,30	2761,49,30	2881,48,30	3001,47,30	3241,155,30	3361,154,30	3601,50,30	3721,46,30	
601,95,30	961,97,30	1081,120,30	1201,96,30	1321,121,30	1561,119,30	1801,124,30	2401,54,30	2521,53,30	3121,89,30	3481,40,30	
# Incoming
151,(103, 0),3	271,(101, 0),3	391,(100, 0),3	511,(98, 0),3	631,(95, 0),3	751,(92, 0),3	871,(99, 0),3	991,(97, 0),3	1111,(120, 0),3	1231,(96, 0),3	1351,(121, 0),3	1471,(122, 0),3	1591,(119, 0),3	1711,(123, 0),3	1831,(124, 0),3	1951,(125, 0),3	2071,(127, 0),3	2191,(128, 0),3	2311,(132, 0),3	2431,(54, 0),3	2551,(53, 0),3	2671,(51, 0),3	2791,(49, 0),3	2911,(48, 0),3	3031,(47, 0),3	3151,(89, 0),3	3271,(155, 0),3	3391,(154, 0),3	3511,(40, 0),3	3631,(50, 0),3	3751,(46, 0),3	
1,(161, 103),120	121,(161, 101),120	241,(161, 100),120	361,(161, 98),120	601,(161, 92),120	721,(161, 99),120	1321,(161, 122),120	1561,(161, 123),120	1801,(161, 125),120	1921,(161, 127),120	2041,(161, 128),120	2161,(161, 132),120	2521,(161, 51),120	2641,(161, 49),120	2761,(161, 48),120	2881,(161, 47),120	3121,(161, 155),120	3241,(161, 154),120	3481,(161, 50),120	3601,(161, 46),120	
481,(161, 95),120	841,(161, 97),120	961,(161, 120),120	1081,(161, 96),120	1201,(161, 121),120	1441,(161, 119),120	1681,(161, 124),120	2281,(161, 54),120	2401,(161, 53),120	3001,(161, 89),120	3361,(161, 40),120	
# Outgoing
1,(161, 103),120	121,(161, 101),120	241,(161, 100),120	361,(161, 98),120	481,(161, 95),120	601,(161, 92),120	721,(161, 99),120	841,(161, 97),120	961,(161, 120),120	1081,(161, 96),120	1201,(161, 121),120	1321,(161, 122),120	1441,(161, 119),120	1561,(161, 123),120	1681,(161, 124),120	1801,(161, 125),120	1921,(161, 127),120	2041,(161, 128),120	2161,(161, 132),120	2281,(161, 54),120	2401,(161, 53),120	2521,(161, 51),120	2641,(161, 49),120	2761,(161, 48),120	2881,(161, 47),120	3001,(161, 89),120	3121,(161, 155),120	3241,(161, 154),120	3361,(161, 40),120	3481,(161, 50),120	3601,(161, 46),120	
151,(103, 0),3	271,(101, 0),3	391,(100, 0),3	511,(98, 0),3	751,(92, 0),3	871,(99, 0),3	1471,(122, 0),3	1711,(123, 0),3	1951,(125, 0),3	2071,(127, 0),3	2191,(128, 0),3	2311,(132, 0),3	2671,(51, 0),3	2791,(49, 0),3	2911,(48, 0),3	3031,(47, 0),3	3271,(155, 0),3	3391,(154, 0),3	3631,(50, 0),3	3751,(46, 0),3	
631,(95, 0),3	991,(97, 0),3	1111,(120, 0),3	1231,(96, 0),3	1351,(121, 0),3	1591,(119, 0),3	1831,(124, 0),3	2431,(54, 0),3	2551,(53, 0),3	3151,(89, 0),3	3511,(40, 0),3	
