426
# CPU
0,121,1	1,76,4	5,75,4	9,77,4	13,74,4	17,73,4	21,72,4	25,78,4	29,71,4	33,70,4	37,79,4	41,69,4	45,68,4	49,67,4	53,80,4	57,66,4	61,65,4	65,81,4	69,64,4	73,63,4	77,62,4	81,82,4	85,61,4	89,60,4	93,83,4	97,59,4	101,58,4	105,57,4	109,85,4	113,56,4	117,36,4	121,33,4	125,87,4	129,55,4	133,54,4	137,88,4	141,53,4	145,90,4	149,52,4	153,51,4	157,50,4	161,49,4	165,91,4	169,48,4	173,93,4	177,47,4	181,46,4	185,45,4	189,44,4	193,94,4	197,43,4	201,105,4	205,106,4	209,104,4	213,103,4	217,102,4	221,107,4	225,101,4	229,100,4	233,37,4	237,27,4	241,108,4	245,98,4	249,109,4	253,96,4	257,42,4	261,41,4	265,110,4	269,40,4	273,38,4	277,111,4	281,35,4	285,34,4	289,31,4	293,112,4	297,30,4	301,29,4	305,113,4	309,28,4	313,17,4	317,16,4	321,15,4	325,18,4	329,14,4	333,19,4	337,13,4	341,20,4	345,12,4	349,5,4	353,1,4	357,21,4	361,23,4	365,11,4	369,2,4	373,3,4	377,4,4	381,6,4	385,7,4	389,8,4	393,9,4	397,10,4	401,24,4	405,25,4	409,115,4	413,117,4	417,118,4	421,120,4	425,0,1	
291,26,4	
146,95,4	378,116,4	
30,84,4	262,32,4	
204,99,4	
117,92,4	233,39,4	349,114,4	
88,89,4	
175,97,4	320,22,4	
407,119,4	
59,86,4	
# Incoming
34,(84, 0),4	63,(86, 0),4	92,(89, 0),4	121,(92, 0),4	150,(95, 0),4	179,(97, 0),4	208,(99, 0),4	237,(39, 0),4	266,(32, 0),4	295,(26, 0),4	324,(22, 0),4	353,(114, 0),4	382,(116, 0),4	411,(119, 0),4	
262,(121, 26),29	
117,(121, 95),29	349,(121, 116),29	
1,(121, 84),29	233,(121, 32),29	
175,(121, 99),29	
88,(121, 92),29	204,(121, 39),29	320,(121, 114),29	
59,(121, 89),29	
146,(121, 97),29	291,(121, 22),29	
378,(121, 119),29	
30,(121, 86),29	
# Outgoing
1,(121, 84),29	30,(121, 86),29	59,(121, 89),29	88,(121, 92),29	117,(121, 95),29	146,(121, 97),29	175,(121, 99),29	204,(121, 39),29	233,(121, 32),29	262,(121, 26),29	291,(121, 22),29	320,(121, 114),29	349,(121, 116),29	378,(121, 119),29	
295,(26, 0),4	
150,(95, 0),4	382,(116, 0),4	
34,(84, 0),4	266,(32, 0),4	
208,(99, 0),4	
121,(92, 0),4	237,(39, 0),4	353,(114, 0),4	
92,(89, 0),4	
179,(97, 0),4	324,(22, 0),4	
411,(119, 0),4	
63,(86, 0),4	
