773
# CPU
5,5,2	9,10,2	13,15,2	17,20,2	21,25,2	25,30,2	29,35,2	33,40,2	37,45,2	41,50,2	45,55,2	49,60,2	53,65,2	57,70,2	61,75,2	65,80,2	69,85,2	73,90,2	77,95,2	81,100,2	85,105,2	89,110,2	93,115,2	97,120,2	
4,4,2	8,9,2	12,14,2	16,19,2	20,24,2	24,29,2	28,34,2	32,39,2	36,44,2	40,49,2	44,54,2	48,59,2	52,64,2	56,69,2	60,74,2	64,79,2	68,84,2	72,89,2	76,94,2	80,99,2	84,104,2	88,109,2	92,114,2	96,119,2	
3,3,2	7,8,2	11,13,2	15,18,2	19,23,2	23,28,2	27,33,2	31,38,2	35,43,2	39,48,2	43,53,2	47,58,2	51,63,2	55,68,2	59,73,2	63,78,2	67,83,2	71,88,2	75,93,2	79,98,2	83,103,2	87,108,2	91,113,2	95,118,2	
2,2,2	6,7,2	10,12,2	14,17,2	18,22,2	22,27,2	26,32,2	30,37,2	34,42,2	38,47,2	42,52,2	46,57,2	50,62,2	54,67,2	58,72,2	62,77,2	66,82,2	70,87,2	74,92,2	78,97,2	82,102,2	86,107,2	90,112,2	94,117,2	
0,0,1	1,1,2	3,11,2	5,31,2	7,71,2	9,116,2	11,111,2	13,106,2	15,101,2	17,96,2	19,91,2	21,86,2	23,81,2	25,66,2	27,76,2	29,61,2	31,56,2	33,51,2	35,46,2	37,41,2	39,26,2	41,36,2	43,21,2	45,6,2	47,16,2	772,121,1	
# Incoming
4,(0, 5),1	8,(0, 10),1	12,(0, 15),1	16,(0, 20),1	20,(0, 25),1	24,(0, 30),1	28,(0, 35),1	32,(0, 40),1	36,(0, 45),1	40,(0, 50),1	44,(0, 55),1	48,(0, 60),1	52,(0, 65),1	56,(0, 70),1	60,(0, 75),1	64,(0, 80),1	68,(0, 85),1	72,(0, 90),1	76,(0, 95),1	80,(0, 100),1	84,(0, 105),1	88,(0, 110),1	92,(0, 115),1	96,(0, 120),1	
3,(0, 4),1	7,(0, 9),1	11,(0, 14),1	15,(0, 19),1	19,(0, 24),1	23,(0, 29),1	27,(0, 34),1	31,(0, 39),1	35,(0, 44),1	39,(0, 49),1	43,(0, 54),1	47,(0, 59),1	51,(0, 64),1	55,(0, 69),1	59,(0, 74),1	63,(0, 79),1	67,(0, 84),1	71,(0, 89),1	75,(0, 94),1	79,(0, 99),1	83,(0, 104),1	87,(0, 109),1	91,(0, 114),1	95,(0, 119),1	
2,(0, 3),1	6,(0, 8),1	10,(0, 13),1	14,(0, 18),1	18,(0, 23),1	22,(0, 28),1	26,(0, 33),1	30,(0, 38),1	34,(0, 43),1	38,(0, 48),1	42,(0, 53),1	46,(0, 58),1	50,(0, 63),1	54,(0, 68),1	58,(0, 73),1	62,(0, 78),1	66,(0, 83),1	70,(0, 88),1	74,(0, 93),1	78,(0, 98),1	82,(0, 103),1	86,(0, 108),1	90,(0, 113),1	94,(0, 118),1	
1,(0, 2),1	5,(0, 7),1	9,(0, 12),1	13,(0, 17),1	17,(0, 22),1	21,(0, 27),1	25,(0, 32),1	29,(0, 37),1	33,(0, 42),1	37,(0, 47),1	41,(0, 52),1	45,(0, 57),1	49,(0, 62),1	53,(0, 67),1	57,(0, 72),1	61,(0, 77),1	65,(0, 82),1	69,(0, 87),1	73,(0, 92),1	77,(0, 97),1	81,(0, 102),1	85,(0, 107),1	89,(0, 112),1	93,(0, 117),1	
4,(2, 121),8	12,(3, 121),8	20,(4, 121),8	28,(5, 121),8	36,(7, 121),8	44,(8, 121),8	52,(9, 121),8	60,(10, 121),8	68,(12, 121),8	76,(13, 121),8	84,(14, 121),8	92,(15, 121),8	100,(17, 121),8	108,(18, 121),8	116,(19, 121),8	124,(20, 121),8	132,(22, 121),8	140,(23, 121),8	148,(24, 121),8	156,(25, 121),8	164,(27, 121),8	172,(28, 121),8	180,(29, 121),8	188,(30, 121),8	196,(32, 121),8	204,(33, 121),8	212,(34, 121),8	220,(35, 121),8	228,(37, 121),8	236,(38, 121),8	244,(39, 121),8	252,(40, 121),8	260,(42, 121),8	268,(43, 121),8	276,(44, 121),8	284,(45, 121),8	292,(47, 121),8	300,(48, 121),8	308,(49, 121),8	316,(50, 121),8	324,(52, 121),8	332,(53, 121),8	340,(54, 121),8	348,(55, 121),8	356,(57, 121),8	364,(58, 121),8	372,(59, 121),8	380,(60, 121),8	388,(62, 121),8	396,(63, 121),8	404,(64, 121),8	412,(65, 121),8	420,(67, 121),8	428,(68, 121),8	436,(69, 121),8	444,(70, 121),8	452,(72, 121),8	460,(73, 121),8	468,(74, 121),8	476,(75, 121),8	484,(77, 121),8	492,(78, 121),8	500,(79, 121),8	508,(80, 121),8	516,(82, 121),8	524,(83, 121),8	532,(84, 121),8	540,(85, 121),8	548,(87, 121),8	556,(88, 121),8	564,(89, 121),8	572,(90, 121),8	580,(92, 121),8	588,(93, 121),8	596,(94, 121),8	604,(95, 121),8	612,(97, 121),8	620,(98, 121),8	628,(99, 121),8	636,(100, 121),8	644,(102, 121),8	652,(103, 121),8	660,(104, 121),8	668,(105, 121),8	676,(107, 121),8	684,(108, 121),8	692,(109, 121),8	700,(110, 121),8	708,(112, 121),8	716,(113, 121),8	724,(114, 121),8	732,(115, 121),8	740,(117, 121),8	748,(118, 121),8	756,(119, 121),8	764,(120, 121),8	
# Outgoing
28,(5, 121),8	60,(10, 121),8	92,(15, 121),8	124,(20, 121),8	156,(25, 121),8	188,(30, 121),8	220,(35, 121),8	252,(40, 121),8	284,(45, 121),8	316,(50, 121),8	348,(55, 121),8	380,(60, 121),8	412,(65, 121),8	444,(70, 121),8	476,(75, 121),8	508,(80, 121),8	540,(85, 121),8	572,(90, 121),8	604,(95, 121),8	636,(100, 121),8	668,(105, 121),8	700,(110, 121),8	732,(115, 121),8	764,(120, 121),8	
20,(4, 121),8	52,(9, 121),8	84,(14, 121),8	116,(19, 121),8	148,(24, 121),8	180,(29, 121),8	212,(34, 121),8	244,(39, 121),8	276,(44, 121),8	308,(49, 121),8	340,(54, 121),8	372,(59, 121),8	404,(64, 121),8	436,(69, 121),8	468,(74, 121),8	500,(79, 121),8	532,(84, 121),8	564,(89, 121),8	596,(94, 121),8	628,(99, 121),8	660,(104, 121),8	692,(109, 121),8	724,(114, 121),8	756,(119, 121),8	
12,(3, 121),8	44,(8, 121),8	76,(13, 121),8	108,(18, 121),8	140,(23, 121),8	172,(28, 121),8	204,(33, 121),8	236,(38, 121),8	268,(43, 121),8	300,(48, 121),8	332,(53, 121),8	364,(58, 121),8	396,(63, 121),8	428,(68, 121),8	460,(73, 121),8	492,(78, 121),8	524,(83, 121),8	556,(88, 121),8	588,(93, 121),8	620,(98, 121),8	652,(103, 121),8	684,(108, 121),8	716,(113, 121),8	748,(118, 121),8	
4,(2, 121),8	36,(7, 121),8	68,(12, 121),8	100,(17, 121),8	132,(22, 121),8	164,(27, 121),8	196,(32, 121),8	228,(37, 121),8	260,(42, 121),8	292,(47, 121),8	324,(52, 121),8	356,(57, 121),8	388,(62, 121),8	420,(67, 121),8	452,(72, 121),8	484,(77, 121),8	516,(82, 121),8	548,(87, 121),8	580,(92, 121),8	612,(97, 121),8	644,(102, 121),8	676,(107, 121),8	708,(112, 121),8	740,(117, 121),8	
1,(0, 2),1	2,(0, 3),1	3,(0, 4),1	4,(0, 5),1	5,(0, 7),1	6,(0, 8),1	7,(0, 9),1	8,(0, 10),1	9,(0, 12),1	10,(0, 13),1	11,(0, 14),1	12,(0, 15),1	13,(0, 17),1	14,(0, 18),1	15,(0, 19),1	16,(0, 20),1	17,(0, 22),1	18,(0, 23),1	19,(0, 24),1	20,(0, 25),1	21,(0, 27),1	22,(0, 28),1	23,(0, 29),1	24,(0, 30),1	25,(0, 32),1	26,(0, 33),1	27,(0, 34),1	28,(0, 35),1	29,(0, 37),1	30,(0, 38),1	31,(0, 39),1	32,(0, 40),1	33,(0, 42),1	34,(0, 43),1	35,(0, 44),1	36,(0, 45),1	37,(0, 47),1	38,(0, 48),1	39,(0, 49),1	40,(0, 50),1	41,(0, 52),1	42,(0, 53),1	43,(0, 54),1	44,(0, 55),1	45,(0, 57),1	46,(0, 58),1	47,(0, 59),1	48,(0, 60),1	49,(0, 62),1	50,(0, 63),1	51,(0, 64),1	52,(0, 65),1	53,(0, 67),1	54,(0, 68),1	55,(0, 69),1	56,(0, 70),1	57,(0, 72),1	58,(0, 73),1	59,(0, 74),1	60,(0, 75),1	61,(0, 77),1	62,(0, 78),1	63,(0, 79),1	64,(0, 80),1	65,(0, 82),1	66,(0, 83),1	67,(0, 84),1	68,(0, 85),1	69,(0, 87),1	70,(0, 88),1	71,(0, 89),1	72,(0, 90),1	73,(0, 92),1	74,(0, 93),1	75,(0, 94),1	76,(0, 95),1	77,(0, 97),1	78,(0, 98),1	79,(0, 99),1	80,(0, 100),1	81,(0, 102),1	82,(0, 103),1	83,(0, 104),1	84,(0, 105),1	85,(0, 107),1	86,(0, 108),1	87,(0, 109),1	88,(0, 110),1	89,(0, 112),1	90,(0, 113),1	91,(0, 114),1	92,(0, 115),1	93,(0, 117),1	94,(0, 118),1	95,(0, 119),1	96,(0, 120),1	
