182
# CPU
9,3,45	54,6,45	99,9,45	
5,2,45	50,5,45	95,8,45	
0,0,1	1,1,45	46,7,45	91,4,45	136,10,45	181,11,1	
# Incoming
5,(0, 3),4	13,(0, 6),4	21,(0, 9),4	
1,(0, 2),4	9,(0, 5),4	17,(0, 8),4	
50,(2, 11),4	54,(3, 11),4	95,(5, 11),4	99,(6, 11),4	140,(8, 11),4	144,(9, 11),4	
# Outgoing
54,(3, 11),4	99,(6, 11),4	144,(9, 11),4	
50,(2, 11),4	95,(5, 11),4	140,(8, 11),4	
1,(0, 2),4	5,(0, 3),4	9,(0, 5),4	13,(0, 6),4	17,(0, 8),4	21,(0, 9),4	
