228
# CPU
13,2,34	47,4,34	81,6,34	115,8,34	149,10,34	
0,0,1	1,1,34	35,5,34	69,9,34	103,3,34	137,7,34	227,11,1	
# Incoming
1,(0, 2),12	13,(0, 4),12	25,(0, 6),12	37,(0, 8),12	49,(0, 10),12	
47,(2, 11),36	83,(4, 11),36	119,(6, 11),36	155,(8, 11),36	191,(10, 11),36	
# Outgoing
47,(2, 11),36	83,(4, 11),36	119,(6, 11),36	155,(8, 11),36	191,(10, 11),36	
1,(0, 2),12	13,(0, 4),12	25,(0, 6),12	37,(0, 8),12	49,(0, 10),12	
