13446
# CPU
417,5,128	833,10,128	1249,15,128	1665,20,128	2081,25,128	2497,30,128	2913,35,128	3329,40,128	3745,45,128	4161,50,128	4577,55,128	4993,60,128	5409,65,128	5825,70,128	6241,75,128	6657,80,128	7073,85,128	7489,90,128	7905,95,128	8321,100,128	8737,105,128	9153,110,128	9569,115,128	9985,120,128	10401,125,128	10817,130,128	11233,135,128	11649,140,128	12065,145,128	12481,150,128	12897,155,128	13313,160,128	
313,4,128	729,9,128	1145,14,128	1561,19,128	1977,24,128	2393,29,128	2809,34,128	3225,39,128	3641,44,128	4057,49,128	4473,54,128	4889,59,128	5305,64,128	5721,69,128	6137,74,128	6553,79,128	6969,84,128	7385,89,128	7801,94,128	8217,99,128	8633,104,128	9049,109,128	9465,114,128	9881,119,128	10297,124,128	10713,129,128	11129,134,128	11545,139,128	11961,144,128	12377,149,128	12793,154,128	13209,159,128	
209,3,128	625,8,128	1041,13,128	1457,18,128	1873,23,128	2289,28,128	2705,33,128	3121,38,128	3537,43,128	3953,48,128	4369,53,128	4785,58,128	5201,63,128	5617,68,128	6033,73,128	6449,78,128	6865,83,128	7281,88,128	7697,93,128	8113,98,128	8529,103,128	8945,108,128	9361,113,128	9777,118,128	10193,123,128	10609,128,128	11025,133,128	11441,138,128	11857,143,128	12273,148,128	12689,153,128	13105,158,128	
105,2,128	521,7,128	937,12,128	1353,17,128	1769,22,128	2185,27,128	2601,32,128	3017,37,128	3433,42,128	3849,47,128	4265,52,128	4681,57,128	5097,62,128	5513,67,128	5929,72,128	6345,77,128	6761,82,128	7177,87,128	7593,92,128	8009,97,128	8425,102,128	8841,107,128	9257,112,128	9673,117,128	10089,122,128	10505,127,128	10921,132,128	11337,137,128	11753,142,128	12169,147,128	12585,152,128	13001,157,128	
0,0,1	1,1,128	129,11,128	257,31,128	385,71,128	513,151,128	641,146,128	769,156,128	897,141,128	1025,136,128	1153,131,128	1281,126,128	1409,121,128	1537,116,128	1665,111,128	1793,106,128	1921,101,128	2049,96,128	2177,91,128	2305,86,128	2433,81,128	2561,66,128	2689,76,128	2817,61,128	2945,56,128	3073,51,128	3201,46,128	3329,41,128	3457,26,128	3585,36,128	3713,21,128	3841,6,128	3969,16,128	13445,161,1	
# Incoming
313,(0, 5),104	729,(0, 10),104	1145,(0, 15),104	1561,(0, 20),104	1977,(0, 25),104	2393,(0, 30),104	2809,(0, 35),104	3225,(0, 40),104	3641,(0, 45),104	4057,(0, 50),104	4473,(0, 55),104	4889,(0, 60),104	5305,(0, 65),104	5721,(0, 70),104	6137,(0, 75),104	6553,(0, 80),104	6969,(0, 85),104	7385,(0, 90),104	7801,(0, 95),104	8217,(0, 100),104	8633,(0, 105),104	9049,(0, 110),104	9465,(0, 115),104	9881,(0, 120),104	10297,(0, 125),104	10713,(0, 130),104	11129,(0, 135),104	11545,(0, 140),104	11961,(0, 145),104	12377,(0, 150),104	12793,(0, 155),104	13209,(0, 160),104	
209,(0, 4),104	625,(0, 9),104	1041,(0, 14),104	1457,(0, 19),104	1873,(0, 24),104	2289,(0, 29),104	2705,(0, 34),104	3121,(0, 39),104	3537,(0, 44),104	3953,(0, 49),104	4369,(0, 54),104	4785,(0, 59),104	5201,(0, 64),104	5617,(0, 69),104	6033,(0, 74),104	6449,(0, 79),104	6865,(0, 84),104	7281,(0, 89),104	7697,(0, 94),104	8113,(0, 99),104	8529,(0, 104),104	8945,(0, 109),104	9361,(0, 114),104	9777,(0, 119),104	10193,(0, 124),104	10609,(0, 129),104	11025,(0, 134),104	11441,(0, 139),104	11857,(0, 144),104	12273,(0, 149),104	12689,(0, 154),104	13105,(0, 159),104	
105,(0, 3),104	521,(0, 8),104	937,(0, 13),104	1353,(0, 18),104	1769,(0, 23),104	2185,(0, 28),104	2601,(0, 33),104	3017,(0, 38),104	3433,(0, 43),104	3849,(0, 48),104	4265,(0, 53),104	4681,(0, 58),104	5097,(0, 63),104	5513,(0, 68),104	5929,(0, 73),104	6345,(0, 78),104	6761,(0, 83),104	7177,(0, 88),104	7593,(0, 93),104	8009,(0, 98),104	8425,(0, 103),104	8841,(0, 108),104	9257,(0, 113),104	9673,(0, 118),104	10089,(0, 123),104	10505,(0, 128),104	10921,(0, 133),104	11337,(0, 138),104	11753,(0, 143),104	12169,(0, 148),104	12585,(0, 153),104	13001,(0, 158),104	
1,(0, 2),104	417,(0, 7),104	833,(0, 12),104	1249,(0, 17),104	1665,(0, 22),104	2081,(0, 27),104	2497,(0, 32),104	2913,(0, 37),104	3329,(0, 42),104	3745,(0, 47),104	4161,(0, 52),104	4577,(0, 57),104	4993,(0, 62),104	5409,(0, 67),104	5825,(0, 72),104	6241,(0, 77),104	6657,(0, 82),104	7073,(0, 87),104	7489,(0, 92),104	7905,(0, 97),104	8321,(0, 102),104	8737,(0, 107),104	9153,(0, 112),104	9569,(0, 117),104	9985,(0, 122),104	10401,(0, 127),104	10817,(0, 132),104	11233,(0, 137),104	11649,(0, 142),104	12065,(0, 147),104	12481,(0, 152),104	12897,(0, 157),104	
233,(2, 161),4	337,(3, 161),4	441,(4, 161),4	545,(5, 161),4	649,(7, 161),4	753,(8, 161),4	857,(9, 161),4	961,(10, 161),4	1065,(12, 161),4	1169,(13, 161),4	1273,(14, 161),4	1377,(15, 161),4	1481,(17, 161),4	1585,(18, 161),4	1689,(19, 161),4	1793,(20, 161),4	1897,(22, 161),4	2001,(23, 161),4	2105,(24, 161),4	2209,(25, 161),4	2313,(27, 161),4	2417,(28, 161),4	2521,(29, 161),4	2625,(30, 161),4	2729,(32, 161),4	2833,(33, 161),4	2937,(34, 161),4	3041,(35, 161),4	3145,(37, 161),4	3249,(38, 161),4	3353,(39, 161),4	3457,(40, 161),4	3561,(42, 161),4	3665,(43, 161),4	3769,(44, 161),4	3873,(45, 161),4	3977,(47, 161),4	4081,(48, 161),4	4185,(49, 161),4	4289,(50, 161),4	4393,(52, 161),4	4497,(53, 161),4	4601,(54, 161),4	4705,(55, 161),4	4809,(57, 161),4	4913,(58, 161),4	5017,(59, 161),4	5121,(60, 161),4	5225,(62, 161),4	5329,(63, 161),4	5433,(64, 161),4	5537,(65, 161),4	5641,(67, 161),4	5745,(68, 161),4	5849,(69, 161),4	5953,(70, 161),4	6057,(72, 161),4	6161,(73, 161),4	6265,(74, 161),4	6369,(75, 161),4	6473,(77, 161),4	6577,(78, 161),4	6681,(79, 161),4	6785,(80, 161),4	6889,(82, 161),4	6993,(83, 161),4	7097,(84, 161),4	7201,(85, 161),4	7305,(87, 161),4	7409,(88, 161),4	7513,(89, 161),4	7617,(90, 161),4	7721,(92, 161),4	7825,(93, 161),4	7929,(94, 161),4	8033,(95, 161),4	8137,(97, 161),4	8241,(98, 161),4	8345,(99, 161),4	8449,(100, 161),4	8553,(102, 161),4	8657,(103, 161),4	8761,(104, 161),4	8865,(105, 161),4	8969,(107, 161),4	9073,(108, 161),4	9177,(109, 161),4	9281,(110, 161),4	9385,(112, 161),4	9489,(113, 161),4	9593,(114, 161),4	9697,(115, 161),4	9801,(117, 161),4	9905,(118, 161),4	10009,(119, 161),4	10113,(120, 161),4	10217,(122, 161),4	10321,(123, 161),4	10425,(124, 161),4	10529,(125, 161),4	10633,(127, 161),4	10737,(128, 161),4	10841,(129, 161),4	10945,(130, 161),4	11049,(132, 161),4	11153,(133, 161),4	11257,(134, 161),4	11361,(135, 161),4	11465,(137, 161),4	11569,(138, 161),4	11673,(139, 161),4	11777,(140, 161),4	11881,(142, 161),4	11985,(143, 161),4	12089,(144, 161),4	12193,(145, 161),4	12297,(147, 161),4	12401,(148, 161),4	12505,(149, 161),4	12609,(150, 161),4	12713,(152, 161),4	12817,(153, 161),4	12921,(154, 161),4	13025,(155, 161),4	13129,(157, 161),4	13233,(158, 161),4	13337,(159, 161),4	13441,(160, 161),4	
# Outgoing
545,(5, 161),4	961,(10, 161),4	1377,(15, 161),4	1793,(20, 161),4	2209,(25, 161),4	2625,(30, 161),4	3041,(35, 161),4	3457,(40, 161),4	3873,(45, 161),4	4289,(50, 161),4	4705,(55, 161),4	5121,(60, 161),4	5537,(65, 161),4	5953,(70, 161),4	6369,(75, 161),4	6785,(80, 161),4	7201,(85, 161),4	7617,(90, 161),4	8033,(95, 161),4	8449,(100, 161),4	8865,(105, 161),4	9281,(110, 161),4	9697,(115, 161),4	10113,(120, 161),4	10529,(125, 161),4	10945,(130, 161),4	11361,(135, 161),4	11777,(140, 161),4	12193,(145, 161),4	12609,(150, 161),4	13025,(155, 161),4	13441,(160, 161),4	
441,(4, 161),4	857,(9, 161),4	1273,(14, 161),4	1689,(19, 161),4	2105,(24, 161),4	2521,(29, 161),4	2937,(34, 161),4	3353,(39, 161),4	3769,(44, 161),4	4185,(49, 161),4	4601,(54, 161),4	5017,(59, 161),4	5433,(64, 161),4	5849,(69, 161),4	6265,(74, 161),4	6681,(79, 161),4	7097,(84, 161),4	7513,(89, 161),4	7929,(94, 161),4	8345,(99, 161),4	8761,(104, 161),4	9177,(109, 161),4	9593,(114, 161),4	10009,(119, 161),4	10425,(124, 161),4	10841,(129, 161),4	11257,(134, 161),4	11673,(139, 161),4	12089,(144, 161),4	12505,(149, 161),4	12921,(154, 161),4	13337,(159, 161),4	
337,(3, 161),4	753,(8, 161),4	1169,(13, 161),4	1585,(18, 161),4	2001,(23, 161),4	2417,(28, 161),4	2833,(33, 161),4	3249,(38, 161),4	3665,(43, 161),4	4081,(48, 161),4	4497,(53, 161),4	4913,(58, 161),4	5329,(63, 161),4	5745,(68, 161),4	6161,(73, 161),4	6577,(78, 161),4	6993,(83, 161),4	7409,(88, 161),4	7825,(93, 161),4	8241,(98, 161),4	8657,(103, 161),4	9073,(108, 161),4	9489,(113, 161),4	9905,(118, 161),4	10321,(123, 161),4	10737,(128, 161),4	11153,(133, 161),4	11569,(138, 161),4	11985,(143, 161),4	12401,(148, 161),4	12817,(153, 161),4	13233,(158, 161),4	
233,(2, 161),4	649,(7, 161),4	1065,(12, 161),4	1481,(17, 161),4	1897,(22, 161),4	2313,(27, 161),4	2729,(32, 161),4	3145,(37, 161),4	3561,(42, 161),4	3977,(47, 161),4	4393,(52, 161),4	4809,(57, 161),4	5225,(62, 161),4	5641,(67, 161),4	6057,(72, 161),4	6473,(77, 161),4	6889,(82, 161),4	7305,(87, 161),4	7721,(92, 161),4	8137,(97, 161),4	8553,(102, 161),4	8969,(107, 161),4	9385,(112, 161),4	9801,(117, 161),4	10217,(122, 161),4	10633,(127, 161),4	11049,(132, 161),4	11465,(137, 161),4	11881,(142, 161),4	12297,(147, 161),4	12713,(152, 161),4	13129,(157, 161),4	
1,(0, 2),104	105,(0, 3),104	209,(0, 4),104	313,(0, 5),104	417,(0, 7),104	521,(0, 8),104	625,(0, 9),104	729,(0, 10),104	833,(0, 12),104	937,(0, 13),104	1041,(0, 14),104	1145,(0, 15),104	1249,(0, 17),104	1353,(0, 18),104	1457,(0, 19),104	1561,(0, 20),104	1665,(0, 22),104	1769,(0, 23),104	1873,(0, 24),104	1977,(0, 25),104	2081,(0, 27),104	2185,(0, 28),104	2289,(0, 29),104	2393,(0, 30),104	2497,(0, 32),104	2601,(0, 33),104	2705,(0, 34),104	2809,(0, 35),104	2913,(0, 37),104	3017,(0, 38),104	3121,(0, 39),104	3225,(0, 40),104	3329,(0, 42),104	3433,(0, 43),104	3537,(0, 44),104	3641,(0, 45),104	3745,(0, 47),104	3849,(0, 48),104	3953,(0, 49),104	4057,(0, 50),104	4161,(0, 52),104	4265,(0, 53),104	4369,(0, 54),104	4473,(0, 55),104	4577,(0, 57),104	4681,(0, 58),104	4785,(0, 59),104	4889,(0, 60),104	4993,(0, 62),104	5097,(0, 63),104	5201,(0, 64),104	5305,(0, 65),104	5409,(0, 67),104	5513,(0, 68),104	5617,(0, 69),104	5721,(0, 70),104	5825,(0, 72),104	5929,(0, 73),104	6033,(0, 74),104	6137,(0, 75),104	6241,(0, 77),104	6345,(0, 78),104	6449,(0, 79),104	6553,(0, 80),104	6657,(0, 82),104	6761,(0, 83),104	6865,(0, 84),104	6969,(0, 85),104	7073,(0, 87),104	7177,(0, 88),104	7281,(0, 89),104	7385,(0, 90),104	7489,(0, 92),104	7593,(0, 93),104	7697,(0, 94),104	7801,(0, 95),104	7905,(0, 97),104	8009,(0, 98),104	8113,(0, 99),104	8217,(0, 100),104	8321,(0, 102),104	8425,(0, 103),104	8529,(0, 104),104	8633,(0, 105),104	8737,(0, 107),104	8841,(0, 108),104	8945,(0, 109),104	9049,(0, 110),104	9153,(0, 112),104	9257,(0, 113),104	9361,(0, 114),104	9465,(0, 115),104	9569,(0, 117),104	9673,(0, 118),104	9777,(0, 119),104	9881,(0, 120),104	9985,(0, 122),104	10089,(0, 123),104	10193,(0, 124),104	10297,(0, 125),104	10401,(0, 127),104	10505,(0, 128),104	10609,(0, 129),104	10713,(0, 130),104	10817,(0, 132),104	10921,(0, 133),104	11025,(0, 134),104	11129,(0, 135),104	11233,(0, 137),104	11337,(0, 138),104	11441,(0, 139),104	11545,(0, 140),104	11649,(0, 142),104	11753,(0, 143),104	11857,(0, 144),104	11961,(0, 145),104	12065,(0, 147),104	12169,(0, 148),104	12273,(0, 149),104	12377,(0, 150),104	12481,(0, 152),104	12585,(0, 153),104	12689,(0, 154),104	12793,(0, 155),104	12897,(0, 157),104	13001,(0, 158),104	13105,(0, 159),104	13209,(0, 160),104	
