236
# CPU
0,121,1	1,120,2	3,75,2	5,76,2	7,74,2	9,73,2	11,72,2	13,77,2	15,71,2	17,78,2	19,70,2	21,79,2	23,69,2	25,68,2	27,67,2	29,80,2	31,66,2	33,81,2	35,65,2	37,82,2	39,64,2	41,63,2	43,62,2	45,83,2	47,61,2	49,84,2	51,60,2	53,85,2	55,59,2	57,58,2	59,57,2	61,86,2	63,56,2	65,87,2	67,55,2	69,88,2	71,54,2	73,53,2	75,52,2	77,51,2	79,89,2	81,50,2	83,90,2	85,49,2	87,48,2	89,47,2	91,91,2	93,46,2	95,93,2	97,45,2	99,94,2	101,44,2	103,43,2	105,42,2	107,95,2	109,41,2	111,104,2	113,103,2	115,105,2	117,102,2	119,101,2	121,100,2	123,106,2	125,99,2	127,98,2	129,97,2	131,107,2	133,96,2	135,40,2	137,39,2	139,108,2	141,38,2	143,37,2	145,109,2	147,36,2	149,35,2	151,34,2	153,110,2	155,33,2	157,31,2	159,30,2	161,111,2	163,29,2	165,28,2	167,27,2	169,112,2	171,26,2	173,17,2	175,16,2	177,18,2	179,15,2	181,19,2	183,14,2	185,20,2	187,13,2	189,21,2	191,12,2	193,22,2	195,11,2	197,23,2	199,10,2	201,24,2	203,9,2	205,1,2	207,2,2	209,3,2	211,4,2	213,5,2	215,6,2	217,7,2	219,8,2	221,25,2	223,113,2	225,114,2	227,116,2	229,117,2	231,118,2	233,119,2	235,0,1	

13,115,2	


9,32,2	

5,92,2	


# Incoming
7,(92, 0),68	75,(32, 0),68	143,(115, 0),68	

9,(121, 115),4	


5,(121, 32),4	

1,(121, 92),4	


# Outgoing
1,(121, 92),4	5,(121, 32),4	9,(121, 115),4	

143,(115, 0),68	


75,(32, 0),68	

7,(92, 0),68	


