27007
# CPU
901,4,1	1801,8,1	2701,12,1	3601,16,1	4501,20,1	5401,24,1	6301,28,1	7201,32,1	8101,36,1	9001,40,1	9901,44,1	10801,48,1	11701,52,1	12601,56,1	13501,60,1	14401,64,1	15301,68,1	16201,72,1	17101,76,1	18001,80,1	18901,84,1	19801,88,1	20701,92,1	21601,96,1	22501,100,1	23401,104,1	24301,108,1	25201,112,1	26101,116,1	27001,120,1	
601,3,1	1501,7,1	2401,11,1	3301,15,1	4201,19,1	5101,23,1	6001,27,1	6901,31,1	7801,35,1	8701,39,1	9601,43,1	10501,47,1	11401,51,1	12301,55,1	13201,59,1	14101,63,1	15001,67,1	15901,71,1	16801,75,1	17701,79,1	18601,83,1	19501,87,1	20401,91,1	21301,95,1	22201,99,1	23101,103,1	24001,107,1	24901,111,1	25801,115,1	26701,119,1	
301,2,1	1201,6,1	2101,10,1	3001,14,1	3901,18,1	4801,22,1	5701,26,1	6601,30,1	7501,34,1	8401,38,1	9301,42,1	10201,46,1	11101,50,1	12001,54,1	12901,58,1	13801,62,1	14701,66,1	15601,70,1	16501,74,1	17401,78,1	18301,82,1	19201,86,1	20101,90,1	21001,94,1	21901,98,1	22801,102,1	23701,106,1	24601,110,1	25501,114,1	26401,118,1	
0,0,1	1,1,1	2,9,1	3,25,1	4,57,1	5,117,1	6,113,1	7,109,1	8,105,1	9,101,1	10,97,1	11,93,1	12,89,1	13,85,1	14,81,1	15,77,1	16,73,1	17,69,1	18,65,1	19,53,1	20,61,1	21,49,1	22,45,1	23,41,1	24,37,1	25,33,1	26,21,1	27,29,1	28,17,1	29,5,1	30,13,1	27006,121,1	
# Incoming
601,(0, 4),300	1501,(0, 8),300	2401,(0, 12),300	3301,(0, 16),300	4201,(0, 20),300	5101,(0, 24),300	6001,(0, 28),300	6901,(0, 32),300	7801,(0, 36),300	8701,(0, 40),300	9601,(0, 44),300	10501,(0, 48),300	11401,(0, 52),300	12301,(0, 56),300	13201,(0, 60),300	14101,(0, 64),300	15001,(0, 68),300	15901,(0, 72),300	16801,(0, 76),300	17701,(0, 80),300	18601,(0, 84),300	19501,(0, 88),300	20401,(0, 92),300	21301,(0, 96),300	22201,(0, 100),300	23101,(0, 104),300	24001,(0, 108),300	24901,(0, 112),300	25801,(0, 116),300	26701,(0, 120),300	
301,(0, 3),300	1201,(0, 7),300	2101,(0, 11),300	3001,(0, 15),300	3901,(0, 19),300	4801,(0, 23),300	5701,(0, 27),300	6601,(0, 31),300	7501,(0, 35),300	8401,(0, 39),300	9301,(0, 43),300	10201,(0, 47),300	11101,(0, 51),300	12001,(0, 55),300	12901,(0, 59),300	13801,(0, 63),300	14701,(0, 67),300	15601,(0, 71),300	16501,(0, 75),300	17401,(0, 79),300	18301,(0, 83),300	19201,(0, 87),300	20101,(0, 91),300	21001,(0, 95),300	21901,(0, 99),300	22801,(0, 103),300	23701,(0, 107),300	24601,(0, 111),300	25501,(0, 115),300	26401,(0, 119),300	
1,(0, 2),300	901,(0, 6),300	1801,(0, 10),300	2701,(0, 14),300	3601,(0, 18),300	4501,(0, 22),300	5401,(0, 26),300	6301,(0, 30),300	7201,(0, 34),300	8101,(0, 38),300	9001,(0, 42),300	9901,(0, 46),300	10801,(0, 50),300	11701,(0, 54),300	12601,(0, 58),300	13501,(0, 62),300	14401,(0, 66),300	15301,(0, 70),300	16201,(0, 74),300	17101,(0, 78),300	18001,(0, 82),300	18901,(0, 86),300	19801,(0, 90),300	20701,(0, 94),300	21601,(0, 98),300	22501,(0, 102),300	23401,(0, 106),300	24301,(0, 110),300	25201,(0, 114),300	26101,(0, 118),300	
302,(2, 121),4	602,(3, 121),4	902,(4, 121),4	1202,(6, 121),4	1502,(7, 121),4	1802,(8, 121),4	2102,(10, 121),4	2402,(11, 121),4	2702,(12, 121),4	3002,(14, 121),4	3302,(15, 121),4	3602,(16, 121),4	3902,(18, 121),4	4202,(19, 121),4	4502,(20, 121),4	4802,(22, 121),4	5102,(23, 121),4	5402,(24, 121),4	5702,(26, 121),4	6002,(27, 121),4	6302,(28, 121),4	6602,(30, 121),4	6902,(31, 121),4	7202,(32, 121),4	7502,(34, 121),4	7802,(35, 121),4	8102,(36, 121),4	8402,(38, 121),4	8702,(39, 121),4	9002,(40, 121),4	9302,(42, 121),4	9602,(43, 121),4	9902,(44, 121),4	10202,(46, 121),4	10502,(47, 121),4	10802,(48, 121),4	11102,(50, 121),4	11402,(51, 121),4	11702,(52, 121),4	12002,(54, 121),4	12302,(55, 121),4	12602,(56, 121),4	12902,(58, 121),4	13202,(59, 121),4	13502,(60, 121),4	13802,(62, 121),4	14102,(63, 121),4	14402,(64, 121),4	14702,(66, 121),4	15002,(67, 121),4	15302,(68, 121),4	15602,(70, 121),4	15902,(71, 121),4	16202,(72, 121),4	16502,(74, 121),4	16802,(75, 121),4	17102,(76, 121),4	17402,(78, 121),4	17702,(79, 121),4	18002,(80, 121),4	18302,(82, 121),4	18602,(83, 121),4	18902,(84, 121),4	19202,(86, 121),4	19502,(87, 121),4	19802,(88, 121),4	20102,(90, 121),4	20402,(91, 121),4	20702,(92, 121),4	21002,(94, 121),4	21302,(95, 121),4	21602,(96, 121),4	21902,(98, 121),4	22202,(99, 121),4	22502,(100, 121),4	22802,(102, 121),4	23102,(103, 121),4	23402,(104, 121),4	23702,(106, 121),4	24002,(107, 121),4	24302,(108, 121),4	24602,(110, 121),4	24902,(111, 121),4	25202,(112, 121),4	25502,(114, 121),4	25802,(115, 121),4	26102,(116, 121),4	26402,(118, 121),4	26702,(119, 121),4	27002,(120, 121),4	
# Outgoing
902,(4, 121),4	1802,(8, 121),4	2702,(12, 121),4	3602,(16, 121),4	4502,(20, 121),4	5402,(24, 121),4	6302,(28, 121),4	7202,(32, 121),4	8102,(36, 121),4	9002,(40, 121),4	9902,(44, 121),4	10802,(48, 121),4	11702,(52, 121),4	12602,(56, 121),4	13502,(60, 121),4	14402,(64, 121),4	15302,(68, 121),4	16202,(72, 121),4	17102,(76, 121),4	18002,(80, 121),4	18902,(84, 121),4	19802,(88, 121),4	20702,(92, 121),4	21602,(96, 121),4	22502,(100, 121),4	23402,(104, 121),4	24302,(108, 121),4	25202,(112, 121),4	26102,(116, 121),4	27002,(120, 121),4	
602,(3, 121),4	1502,(7, 121),4	2402,(11, 121),4	3302,(15, 121),4	4202,(19, 121),4	5102,(23, 121),4	6002,(27, 121),4	6902,(31, 121),4	7802,(35, 121),4	8702,(39, 121),4	9602,(43, 121),4	10502,(47, 121),4	11402,(51, 121),4	12302,(55, 121),4	13202,(59, 121),4	14102,(63, 121),4	15002,(67, 121),4	15902,(71, 121),4	16802,(75, 121),4	17702,(79, 121),4	18602,(83, 121),4	19502,(87, 121),4	20402,(91, 121),4	21302,(95, 121),4	22202,(99, 121),4	23102,(103, 121),4	24002,(107, 121),4	24902,(111, 121),4	25802,(115, 121),4	26702,(119, 121),4	
302,(2, 121),4	1202,(6, 121),4	2102,(10, 121),4	3002,(14, 121),4	3902,(18, 121),4	4802,(22, 121),4	5702,(26, 121),4	6602,(30, 121),4	7502,(34, 121),4	8402,(38, 121),4	9302,(42, 121),4	10202,(46, 121),4	11102,(50, 121),4	12002,(54, 121),4	12902,(58, 121),4	13802,(62, 121),4	14702,(66, 121),4	15602,(70, 121),4	16502,(74, 121),4	17402,(78, 121),4	18302,(82, 121),4	19202,(86, 121),4	20102,(90, 121),4	21002,(94, 121),4	21902,(98, 121),4	22802,(102, 121),4	23702,(106, 121),4	24602,(110, 121),4	25502,(114, 121),4	26402,(118, 121),4	
1,(0, 2),300	301,(0, 3),300	601,(0, 4),300	901,(0, 6),300	1201,(0, 7),300	1501,(0, 8),300	1801,(0, 10),300	2101,(0, 11),300	2401,(0, 12),300	2701,(0, 14),300	3001,(0, 15),300	3301,(0, 16),300	3601,(0, 18),300	3901,(0, 19),300	4201,(0, 20),300	4501,(0, 22),300	4801,(0, 23),300	5101,(0, 24),300	5401,(0, 26),300	5701,(0, 27),300	6001,(0, 28),300	6301,(0, 30),300	6601,(0, 31),300	6901,(0, 32),300	7201,(0, 34),300	7501,(0, 35),300	7801,(0, 36),300	8101,(0, 38),300	8401,(0, 39),300	8701,(0, 40),300	9001,(0, 42),300	9301,(0, 43),300	9601,(0, 44),300	9901,(0, 46),300	10201,(0, 47),300	10501,(0, 48),300	10801,(0, 50),300	11101,(0, 51),300	11401,(0, 52),300	11701,(0, 54),300	12001,(0, 55),300	12301,(0, 56),300	12601,(0, 58),300	12901,(0, 59),300	13201,(0, 60),300	13501,(0, 62),300	13801,(0, 63),300	14101,(0, 64),300	14401,(0, 66),300	14701,(0, 67),300	15001,(0, 68),300	15301,(0, 70),300	15601,(0, 71),300	15901,(0, 72),300	16201,(0, 74),300	16501,(0, 75),300	16801,(0, 76),300	17101,(0, 78),300	17401,(0, 79),300	17701,(0, 80),300	18001,(0, 82),300	18301,(0, 83),300	18601,(0, 84),300	18901,(0, 86),300	19201,(0, 87),300	19501,(0, 88),300	19801,(0, 90),300	20101,(0, 91),300	20401,(0, 92),300	20701,(0, 94),300	21001,(0, 95),300	21301,(0, 96),300	21601,(0, 98),300	21901,(0, 99),300	22201,(0, 100),300	22501,(0, 102),300	22801,(0, 103),300	23101,(0, 104),300	23401,(0, 106),300	23701,(0, 107),300	24001,(0, 108),300	24301,(0, 110),300	24601,(0, 111),300	24901,(0, 112),300	25201,(0, 114),300	25501,(0, 115),300	25801,(0, 116),300	26101,(0, 118),300	26401,(0, 119),300	26701,(0, 120),300	
