13505
# CPU
451,4,1	901,8,1	1351,12,1	1801,16,1	2251,20,1	2701,24,1	3151,28,1	3601,32,1	4051,36,1	4501,40,1	4951,44,1	5401,48,1	5851,52,1	6301,56,1	6751,60,1	7201,64,1	7651,68,1	8101,72,1	8551,76,1	9001,80,1	9451,84,1	9901,88,1	10351,92,1	10801,96,1	11251,100,1	11701,104,1	12151,108,1	12601,112,1	13051,116,1	13501,120,1	
301,3,1	751,7,1	1201,11,1	1651,15,1	2101,19,1	2551,23,1	3001,27,1	3451,31,1	3901,35,1	4351,39,1	4801,43,1	5251,47,1	5701,51,1	6151,55,1	6601,59,1	7051,63,1	7501,67,1	7951,71,1	8401,75,1	8851,79,1	9301,83,1	9751,87,1	10201,91,1	10651,95,1	11101,99,1	11551,103,1	12001,107,1	12451,111,1	12901,115,1	13351,119,1	
151,2,1	601,6,1	1051,10,1	1501,14,1	1951,18,1	2401,22,1	2851,26,1	3301,30,1	3751,34,1	4201,38,1	4651,42,1	5101,46,1	5551,50,1	6001,54,1	6451,58,1	6901,62,1	7351,66,1	7801,70,1	8251,74,1	8701,78,1	9151,82,1	9601,86,1	10051,90,1	10501,94,1	10951,98,1	11401,102,1	11851,106,1	12301,110,1	12751,114,1	13201,118,1	
0,0,1	1,1,1	2,9,1	3,25,1	4,57,1	5,117,1	6,113,1	7,109,1	8,105,1	9,101,1	10,97,1	11,93,1	12,89,1	13,85,1	14,81,1	15,77,1	16,73,1	17,69,1	18,65,1	19,53,1	20,61,1	21,49,1	22,45,1	23,41,1	24,37,1	25,33,1	26,21,1	27,29,1	28,17,1	29,5,1	30,13,1	13504,121,1	
# Incoming
301,(0, 4),150	751,(0, 8),150	1201,(0, 12),150	1651,(0, 16),150	2101,(0, 20),150	2551,(0, 24),150	3001,(0, 28),150	3451,(0, 32),150	3901,(0, 36),150	4351,(0, 40),150	4801,(0, 44),150	5251,(0, 48),150	5701,(0, 52),150	6151,(0, 56),150	6601,(0, 60),150	7051,(0, 64),150	7501,(0, 68),150	7951,(0, 72),150	8401,(0, 76),150	8851,(0, 80),150	9301,(0, 84),150	9751,(0, 88),150	10201,(0, 92),150	10651,(0, 96),150	11101,(0, 100),150	11551,(0, 104),150	12001,(0, 108),150	12451,(0, 112),150	12901,(0, 116),150	13351,(0, 120),150	
151,(0, 3),150	601,(0, 7),150	1051,(0, 11),150	1501,(0, 15),150	1951,(0, 19),150	2401,(0, 23),150	2851,(0, 27),150	3301,(0, 31),150	3751,(0, 35),150	4201,(0, 39),150	4651,(0, 43),150	5101,(0, 47),150	5551,(0, 51),150	6001,(0, 55),150	6451,(0, 59),150	6901,(0, 63),150	7351,(0, 67),150	7801,(0, 71),150	8251,(0, 75),150	8701,(0, 79),150	9151,(0, 83),150	9601,(0, 87),150	10051,(0, 91),150	10501,(0, 95),150	10951,(0, 99),150	11401,(0, 103),150	11851,(0, 107),150	12301,(0, 111),150	12751,(0, 115),150	13201,(0, 119),150	
1,(0, 2),150	451,(0, 6),150	901,(0, 10),150	1351,(0, 14),150	1801,(0, 18),150	2251,(0, 22),150	2701,(0, 26),150	3151,(0, 30),150	3601,(0, 34),150	4051,(0, 38),150	4501,(0, 42),150	4951,(0, 46),150	5401,(0, 50),150	5851,(0, 54),150	6301,(0, 58),150	6751,(0, 62),150	7201,(0, 66),150	7651,(0, 70),150	8101,(0, 74),150	8551,(0, 78),150	9001,(0, 82),150	9451,(0, 86),150	9901,(0, 90),150	10351,(0, 94),150	10801,(0, 98),150	11251,(0, 102),150	11701,(0, 106),150	12151,(0, 110),150	12601,(0, 114),150	13051,(0, 118),150	
152,(2, 121),2	302,(3, 121),2	452,(4, 121),2	602,(6, 121),2	752,(7, 121),2	902,(8, 121),2	1052,(10, 121),2	1202,(11, 121),2	1352,(12, 121),2	1502,(14, 121),2	1652,(15, 121),2	1802,(16, 121),2	1952,(18, 121),2	2102,(19, 121),2	2252,(20, 121),2	2402,(22, 121),2	2552,(23, 121),2	2702,(24, 121),2	2852,(26, 121),2	3002,(27, 121),2	3152,(28, 121),2	3302,(30, 121),2	3452,(31, 121),2	3602,(32, 121),2	3752,(34, 121),2	3902,(35, 121),2	4052,(36, 121),2	4202,(38, 121),2	4352,(39, 121),2	4502,(40, 121),2	4652,(42, 121),2	4802,(43, 121),2	4952,(44, 121),2	5102,(46, 121),2	5252,(47, 121),2	5402,(48, 121),2	5552,(50, 121),2	5702,(51, 121),2	5852,(52, 121),2	6002,(54, 121),2	6152,(55, 121),2	6302,(56, 121),2	6452,(58, 121),2	6602,(59, 121),2	6752,(60, 121),2	6902,(62, 121),2	7052,(63, 121),2	7202,(64, 121),2	7352,(66, 121),2	7502,(67, 121),2	7652,(68, 121),2	7802,(70, 121),2	7952,(71, 121),2	8102,(72, 121),2	8252,(74, 121),2	8402,(75, 121),2	8552,(76, 121),2	8702,(78, 121),2	8852,(79, 121),2	9002,(80, 121),2	9152,(82, 121),2	9302,(83, 121),2	9452,(84, 121),2	9602,(86, 121),2	9752,(87, 121),2	9902,(88, 121),2	10052,(90, 121),2	10202,(91, 121),2	10352,(92, 121),2	10502,(94, 121),2	10652,(95, 121),2	10802,(96, 121),2	10952,(98, 121),2	11102,(99, 121),2	11252,(100, 121),2	11402,(102, 121),2	11552,(103, 121),2	11702,(104, 121),2	11852,(106, 121),2	12002,(107, 121),2	12152,(108, 121),2	12302,(110, 121),2	12452,(111, 121),2	12602,(112, 121),2	12752,(114, 121),2	12902,(115, 121),2	13052,(116, 121),2	13202,(118, 121),2	13352,(119, 121),2	13502,(120, 121),2	
# Outgoing
452,(4, 121),2	902,(8, 121),2	1352,(12, 121),2	1802,(16, 121),2	2252,(20, 121),2	2702,(24, 121),2	3152,(28, 121),2	3602,(32, 121),2	4052,(36, 121),2	4502,(40, 121),2	4952,(44, 121),2	5402,(48, 121),2	5852,(52, 121),2	6302,(56, 121),2	6752,(60, 121),2	7202,(64, 121),2	7652,(68, 121),2	8102,(72, 121),2	8552,(76, 121),2	9002,(80, 121),2	9452,(84, 121),2	9902,(88, 121),2	10352,(92, 121),2	10802,(96, 121),2	11252,(100, 121),2	11702,(104, 121),2	12152,(108, 121),2	12602,(112, 121),2	13052,(116, 121),2	13502,(120, 121),2	
302,(3, 121),2	752,(7, 121),2	1202,(11, 121),2	1652,(15, 121),2	2102,(19, 121),2	2552,(23, 121),2	3002,(27, 121),2	3452,(31, 121),2	3902,(35, 121),2	4352,(39, 121),2	4802,(43, 121),2	5252,(47, 121),2	5702,(51, 121),2	6152,(55, 121),2	6602,(59, 121),2	7052,(63, 121),2	7502,(67, 121),2	7952,(71, 121),2	8402,(75, 121),2	8852,(79, 121),2	9302,(83, 121),2	9752,(87, 121),2	10202,(91, 121),2	10652,(95, 121),2	11102,(99, 121),2	11552,(103, 121),2	12002,(107, 121),2	12452,(111, 121),2	12902,(115, 121),2	13352,(119, 121),2	
152,(2, 121),2	602,(6, 121),2	1052,(10, 121),2	1502,(14, 121),2	1952,(18, 121),2	2402,(22, 121),2	2852,(26, 121),2	3302,(30, 121),2	3752,(34, 121),2	4202,(38, 121),2	4652,(42, 121),2	5102,(46, 121),2	5552,(50, 121),2	6002,(54, 121),2	6452,(58, 121),2	6902,(62, 121),2	7352,(66, 121),2	7802,(70, 121),2	8252,(74, 121),2	8702,(78, 121),2	9152,(82, 121),2	9602,(86, 121),2	10052,(90, 121),2	10502,(94, 121),2	10952,(98, 121),2	11402,(102, 121),2	11852,(106, 121),2	12302,(110, 121),2	12752,(114, 121),2	13202,(118, 121),2	
1,(0, 2),150	151,(0, 3),150	301,(0, 4),150	451,(0, 6),150	601,(0, 7),150	751,(0, 8),150	901,(0, 10),150	1051,(0, 11),150	1201,(0, 12),150	1351,(0, 14),150	1501,(0, 15),150	1651,(0, 16),150	1801,(0, 18),150	1951,(0, 19),150	2101,(0, 20),150	2251,(0, 22),150	2401,(0, 23),150	2551,(0, 24),150	2701,(0, 26),150	2851,(0, 27),150	3001,(0, 28),150	3151,(0, 30),150	3301,(0, 31),150	3451,(0, 32),150	3601,(0, 34),150	3751,(0, 35),150	3901,(0, 36),150	4051,(0, 38),150	4201,(0, 39),150	4351,(0, 40),150	4501,(0, 42),150	4651,(0, 43),150	4801,(0, 44),150	4951,(0, 46),150	5101,(0, 47),150	5251,(0, 48),150	5401,(0, 50),150	5551,(0, 51),150	5701,(0, 52),150	5851,(0, 54),150	6001,(0, 55),150	6151,(0, 56),150	6301,(0, 58),150	6451,(0, 59),150	6601,(0, 60),150	6751,(0, 62),150	6901,(0, 63),150	7051,(0, 64),150	7201,(0, 66),150	7351,(0, 67),150	7501,(0, 68),150	7651,(0, 70),150	7801,(0, 71),150	7951,(0, 72),150	8101,(0, 74),150	8251,(0, 75),150	8401,(0, 76),150	8551,(0, 78),150	8701,(0, 79),150	8851,(0, 80),150	9001,(0, 82),150	9151,(0, 83),150	9301,(0, 84),150	9451,(0, 86),150	9601,(0, 87),150	9751,(0, 88),150	9901,(0, 90),150	10051,(0, 91),150	10201,(0, 92),150	10351,(0, 94),150	10501,(0, 95),150	10651,(0, 96),150	10801,(0, 98),150	10951,(0, 99),150	11101,(0, 100),150	11251,(0, 102),150	11401,(0, 103),150	11551,(0, 104),150	11701,(0, 106),150	11851,(0, 107),150	12001,(0, 108),150	12151,(0, 110),150	12301,(0, 111),150	12451,(0, 112),150	12601,(0, 114),150	12751,(0, 115),150	12901,(0, 116),150	13051,(0, 118),150	13201,(0, 119),150	13351,(0, 120),150	
