58
# CPU
5,5,15	20,10,15	
4,4,15	19,9,15	
3,3,15	18,8,15	
2,2,15	17,7,15	
0,0,1	1,1,15	16,6,15	57,11,1	
# Incoming
4,(0, 5),1	8,(0, 10),1	
3,(0, 4),1	7,(0, 9),1	
2,(0, 3),1	6,(0, 8),1	
1,(0, 2),1	5,(0, 7),1	
17,(2, 11),5	22,(3, 11),5	27,(4, 11),5	32,(5, 11),5	37,(7, 11),5	42,(8, 11),5	47,(9, 11),5	52,(10, 11),5	
# Outgoing
32,(5, 11),5	52,(10, 11),5	
27,(4, 11),5	47,(9, 11),5	
22,(3, 11),5	42,(8, 11),5	
17,(2, 11),5	37,(7, 11),5	
1,(0, 2),1	2,(0, 3),1	3,(0, 4),1	4,(0, 5),1	5,(0, 7),1	6,(0, 8),1	7,(0, 9),1	8,(0, 10),1	
