554
# CPU
0,0,1	1,111,4	5,110,4	9,112,4	13,109,4	17,108,4	21,107,4	25,35,4	29,128,4	33,113,4	37,114,4	41,106,4	45,105,4	49,88,4	53,134,4	57,104,4	61,102,4	65,115,4	69,101,4	73,91,4	77,130,4	81,100,4	85,116,4	89,98,4	93,117,4	97,129,4	101,131,4	105,95,4	109,94,4	113,82,4	117,81,4	121,143,4	125,132,4	129,78,4	133,79,4	137,77,4	141,80,4	145,146,4	149,127,4	153,74,4	157,73,4	161,75,4	165,72,4	169,29,4	173,45,4	177,76,4	181,71,4	185,70,4	189,83,4	193,53,4	197,37,4	201,84,4	205,69,4	209,68,4	213,67,4	217,10,4	221,42,4	225,85,4	229,89,4	233,66,4	237,65,4	241,62,4	245,40,4	249,93,4	253,64,4	257,118,4	261,63,4	265,61,4	269,144,4	273,59,4	277,60,4	281,58,4	285,119,4	289,6,4	293,145,4	297,56,4	301,55,4	305,57,4	309,54,4	313,133,4	317,30,4	321,51,4	325,52,4	329,50,4	333,141,4	337,148,4	341,138,4	345,140,4	349,139,4	353,142,4	357,137,4	361,9,4	365,32,4	369,147,4	373,136,4	377,135,4	381,149,4	385,8,4	389,1,4	393,150,4	397,121,4	401,49,4	405,48,4	409,14,4	413,151,4	417,46,4	421,152,4	425,44,4	429,41,4	433,158,4	437,2,4	441,24,4	445,23,4	449,25,4	453,22,4	457,13,4	461,3,4	465,26,4	469,27,4	473,21,4	477,28,4	481,17,4	485,15,4	489,33,4	493,20,4	497,4,4	501,5,4	505,12,4	509,7,4	513,11,4	517,16,4	521,18,4	525,19,4	529,39,4	533,34,4	537,154,4	541,156,4	545,157,4	549,160,4	553,161,1	
121,87,4	289,126,4	361,47,4	
217,120,4	505,155,4	
73,96,4	
145,86,4	313,125,4	433,31,4	
241,122,4	385,43,4	
25,103,4	97,90,4	169,92,4	457,36,4	529,159,4	
265,124,4	337,123,4	
481,153,4	
49,99,4	193,97,4	409,38,4	
# Incoming
29,(103, 161),4	53,(99, 161),4	77,(96, 161),4	101,(90, 161),4	125,(87, 161),4	149,(86, 161),4	173,(92, 161),4	197,(97, 161),4	221,(120, 161),4	245,(122, 161),4	269,(124, 161),4	293,(126, 161),4	317,(125, 161),4	341,(123, 161),4	365,(47, 161),4	389,(43, 161),4	413,(38, 161),4	437,(31, 161),4	461,(36, 161),4	485,(153, 161),4	509,(155, 161),4	533,(159, 161),4	
97,(0, 87),24	265,(0, 126),24	337,(0, 47),24	
193,(0, 120),24	481,(0, 155),24	
49,(0, 96),24	
121,(0, 86),24	289,(0, 125),24	409,(0, 31),24	
217,(0, 122),24	361,(0, 43),24	
1,(0, 103),24	73,(0, 90),24	145,(0, 92),24	433,(0, 36),24	505,(0, 159),24	
241,(0, 124),24	313,(0, 123),24	
457,(0, 153),24	
25,(0, 99),24	169,(0, 97),24	385,(0, 38),24	
# Outgoing
1,(0, 103),24	25,(0, 99),24	49,(0, 96),24	73,(0, 90),24	97,(0, 87),24	121,(0, 86),24	145,(0, 92),24	169,(0, 97),24	193,(0, 120),24	217,(0, 122),24	241,(0, 124),24	265,(0, 126),24	289,(0, 125),24	313,(0, 123),24	337,(0, 47),24	361,(0, 43),24	385,(0, 38),24	409,(0, 31),24	433,(0, 36),24	457,(0, 153),24	481,(0, 155),24	505,(0, 159),24	
125,(87, 161),4	293,(126, 161),4	365,(47, 161),4	
221,(120, 161),4	509,(155, 161),4	
77,(96, 161),4	
149,(86, 161),4	317,(125, 161),4	437,(31, 161),4	
245,(122, 161),4	389,(43, 161),4	
29,(103, 161),4	101,(90, 161),4	173,(92, 161),4	461,(36, 161),4	533,(159, 161),4	
269,(124, 161),4	341,(123, 161),4	
485,(153, 161),4	
53,(99, 161),4	197,(97, 161),4	413,(38, 161),4	
