1764
# CPU
0,161,1	1,160,22	23,111,22	45,108,22	67,112,22	89,113,22	111,114,22	133,103,22	155,115,22	177,100,22	199,116,22	221,97,22	243,117,22	265,118,22	287,119,22	309,92,22	331,120,22	353,81,22	375,82,22	397,78,22	419,83,22	441,84,22	463,85,22	485,73,22	507,86,22	529,87,22	551,88,22	573,68,22	595,89,22	617,121,22	639,122,22	661,63,22	683,123,22	705,124,22	727,125,22	749,58,22	771,126,22	793,127,22	815,128,22	837,53,22	859,129,22	881,130,22	903,131,22	925,48,22	947,132,22	969,133,22	991,134,22	1013,43,22	1035,135,22	1057,144,22	1079,145,22	1101,141,22	1123,146,22	1145,138,22	1167,147,22	1189,40,22	1211,148,22	1233,37,22	1255,149,22	1277,34,22	1299,150,22	1321,31,22	1343,151,22	1365,28,22	1387,152,22	1409,17,22	1431,18,22	1453,19,22	1475,20,22	1497,21,22	1519,22,22	1541,23,22	1563,24,22	1585,1,22	1607,3,22	1629,5,22	1651,7,22	1673,25,22	1695,154,22	1717,156,22	1739,158,22	1763,0,1	
2,110,22	24,109,22	46,107,22	68,106,22	90,105,22	112,104,22	134,102,22	156,101,22	178,99,22	200,98,22	222,96,22	244,95,22	266,94,22	288,93,22	310,91,22	332,90,22	354,80,22	376,79,22	398,77,22	420,76,22	442,75,22	464,74,22	486,72,22	508,71,22	530,70,22	552,69,22	574,67,22	596,66,22	618,65,22	640,64,22	662,62,22	684,61,22	706,60,22	728,59,22	750,57,22	772,56,22	794,55,22	816,54,22	838,52,22	860,51,22	882,50,22	904,49,22	926,47,22	948,46,22	970,45,22	992,44,22	1014,42,22	1036,41,22	1058,143,22	1080,142,22	1102,140,22	1124,139,22	1146,137,22	1168,136,22	1190,39,22	1212,38,22	1234,36,22	1256,35,22	1278,33,22	1300,32,22	1322,30,22	1344,29,22	1366,27,22	1388,26,22	1410,16,22	1432,15,22	1454,14,22	1476,13,22	1498,12,22	1520,11,22	1542,10,22	1564,9,22	1586,2,22	1608,4,22	1630,6,22	1652,8,22	1674,153,22	1696,155,22	1718,157,22	1740,159,22	
# Incoming
24,(110, 0),1	46,(109, 0),1	68,(107, 0),1	90,(106, 0),1	112,(105, 0),1	134,(104, 0),1	156,(102, 0),1	178,(101, 0),1	200,(99, 0),1	222,(98, 0),1	244,(96, 0),1	266,(95, 0),1	288,(94, 0),1	310,(93, 0),1	332,(91, 0),1	354,(90, 0),1	376,(80, 0),1	398,(79, 0),1	420,(77, 0),1	442,(76, 0),1	464,(75, 0),1	486,(74, 0),1	508,(72, 0),1	530,(71, 0),1	552,(70, 0),1	574,(69, 0),1	596,(67, 0),1	618,(66, 0),1	640,(65, 0),1	662,(64, 0),1	684,(62, 0),1	706,(61, 0),1	728,(60, 0),1	750,(59, 0),1	772,(57, 0),1	794,(56, 0),1	816,(55, 0),1	838,(54, 0),1	860,(52, 0),1	882,(51, 0),1	904,(50, 0),1	926,(49, 0),1	948,(47, 0),1	970,(46, 0),1	992,(45, 0),1	1014,(44, 0),1	1036,(42, 0),1	1058,(41, 0),1	1080,(143, 0),1	1102,(142, 0),1	1124,(140, 0),1	1146,(139, 0),1	1168,(137, 0),1	1190,(136, 0),1	1212,(39, 0),1	1234,(38, 0),1	1256,(36, 0),1	1278,(35, 0),1	1300,(33, 0),1	1322,(32, 0),1	1344,(30, 0),1	1366,(29, 0),1	1388,(27, 0),1	1410,(26, 0),1	1432,(16, 0),1	1454,(15, 0),1	1476,(14, 0),1	1498,(13, 0),1	1520,(12, 0),1	1542,(11, 0),1	1564,(10, 0),1	1586,(9, 0),1	1608,(2, 0),1	1630,(4, 0),1	1652,(6, 0),1	1674,(8, 0),1	1696,(153, 0),1	1718,(155, 0),1	1740,(157, 0),1	1762,(159, 0),1	
1,(161, 110),1	2,(161, 109),1	3,(161, 107),1	4,(161, 106),1	5,(161, 105),1	6,(161, 104),1	7,(161, 102),1	8,(161, 101),1	9,(161, 99),1	10,(161, 98),1	11,(161, 96),1	12,(161, 95),1	13,(161, 94),1	14,(161, 93),1	15,(161, 91),1	16,(161, 90),1	17,(161, 80),1	18,(161, 79),1	19,(161, 77),1	20,(161, 76),1	21,(161, 75),1	22,(161, 74),1	23,(161, 72),1	24,(161, 71),1	25,(161, 70),1	26,(161, 69),1	27,(161, 67),1	28,(161, 66),1	29,(161, 65),1	30,(161, 64),1	31,(161, 62),1	32,(161, 61),1	33,(161, 60),1	34,(161, 59),1	35,(161, 57),1	36,(161, 56),1	37,(161, 55),1	38,(161, 54),1	39,(161, 52),1	40,(161, 51),1	41,(161, 50),1	42,(161, 49),1	43,(161, 47),1	44,(161, 46),1	45,(161, 45),1	46,(161, 44),1	47,(161, 42),1	48,(161, 41),1	49,(161, 143),1	50,(161, 142),1	51,(161, 140),1	52,(161, 139),1	53,(161, 137),1	54,(161, 136),1	55,(161, 39),1	56,(161, 38),1	57,(161, 36),1	58,(161, 35),1	59,(161, 33),1	60,(161, 32),1	61,(161, 30),1	62,(161, 29),1	63,(161, 27),1	64,(161, 26),1	65,(161, 16),1	66,(161, 15),1	67,(161, 14),1	68,(161, 13),1	69,(161, 12),1	70,(161, 11),1	71,(161, 10),1	72,(161, 9),1	73,(161, 2),1	74,(161, 4),1	75,(161, 6),1	76,(161, 8),1	77,(161, 153),1	78,(161, 155),1	79,(161, 157),1	80,(161, 159),1	
# Outgoing
1,(161, 110),1	2,(161, 109),1	3,(161, 107),1	4,(161, 106),1	5,(161, 105),1	6,(161, 104),1	7,(161, 102),1	8,(161, 101),1	9,(161, 99),1	10,(161, 98),1	11,(161, 96),1	12,(161, 95),1	13,(161, 94),1	14,(161, 93),1	15,(161, 91),1	16,(161, 90),1	17,(161, 80),1	18,(161, 79),1	19,(161, 77),1	20,(161, 76),1	21,(161, 75),1	22,(161, 74),1	23,(161, 72),1	24,(161, 71),1	25,(161, 70),1	26,(161, 69),1	27,(161, 67),1	28,(161, 66),1	29,(161, 65),1	30,(161, 64),1	31,(161, 62),1	32,(161, 61),1	33,(161, 60),1	34,(161, 59),1	35,(161, 57),1	36,(161, 56),1	37,(161, 55),1	38,(161, 54),1	39,(161, 52),1	40,(161, 51),1	41,(161, 50),1	42,(161, 49),1	43,(161, 47),1	44,(161, 46),1	45,(161, 45),1	46,(161, 44),1	47,(161, 42),1	48,(161, 41),1	49,(161, 143),1	50,(161, 142),1	51,(161, 140),1	52,(161, 139),1	53,(161, 137),1	54,(161, 136),1	55,(161, 39),1	56,(161, 38),1	57,(161, 36),1	58,(161, 35),1	59,(161, 33),1	60,(161, 32),1	61,(161, 30),1	62,(161, 29),1	63,(161, 27),1	64,(161, 26),1	65,(161, 16),1	66,(161, 15),1	67,(161, 14),1	68,(161, 13),1	69,(161, 12),1	70,(161, 11),1	71,(161, 10),1	72,(161, 9),1	73,(161, 2),1	74,(161, 4),1	75,(161, 6),1	76,(161, 8),1	77,(161, 153),1	78,(161, 155),1	79,(161, 157),1	80,(161, 159),1	
24,(110, 0),1	46,(109, 0),1	68,(107, 0),1	90,(106, 0),1	112,(105, 0),1	134,(104, 0),1	156,(102, 0),1	178,(101, 0),1	200,(99, 0),1	222,(98, 0),1	244,(96, 0),1	266,(95, 0),1	288,(94, 0),1	310,(93, 0),1	332,(91, 0),1	354,(90, 0),1	376,(80, 0),1	398,(79, 0),1	420,(77, 0),1	442,(76, 0),1	464,(75, 0),1	486,(74, 0),1	508,(72, 0),1	530,(71, 0),1	552,(70, 0),1	574,(69, 0),1	596,(67, 0),1	618,(66, 0),1	640,(65, 0),1	662,(64, 0),1	684,(62, 0),1	706,(61, 0),1	728,(60, 0),1	750,(59, 0),1	772,(57, 0),1	794,(56, 0),1	816,(55, 0),1	838,(54, 0),1	860,(52, 0),1	882,(51, 0),1	904,(50, 0),1	926,(49, 0),1	948,(47, 0),1	970,(46, 0),1	992,(45, 0),1	1014,(44, 0),1	1036,(42, 0),1	1058,(41, 0),1	1080,(143, 0),1	1102,(142, 0),1	1124,(140, 0),1	1146,(139, 0),1	1168,(137, 0),1	1190,(136, 0),1	1212,(39, 0),1	1234,(38, 0),1	1256,(36, 0),1	1278,(35, 0),1	1300,(33, 0),1	1322,(32, 0),1	1344,(30, 0),1	1366,(29, 0),1	1388,(27, 0),1	1410,(26, 0),1	1432,(16, 0),1	1454,(15, 0),1	1476,(14, 0),1	1498,(13, 0),1	1520,(12, 0),1	1542,(11, 0),1	1564,(10, 0),1	1586,(9, 0),1	1608,(2, 0),1	1630,(4, 0),1	1652,(6, 0),1	1674,(8, 0),1	1696,(153, 0),1	1718,(155, 0),1	1740,(157, 0),1	1762,(159, 0),1	
