147
# CPU
0,0,1	1,1,29	30,2,29	59,4,29	88,8,29	117,10,29	146,11,1	
41,3,29	81,7,29	
21,6,29	61,5,29	101,9,29	

# Incoming
50,(6, 11),2	70,(3, 11),2	90,(5, 11),2	110,(7, 11),2	130,(9, 11),2	
21,(0, 3),20	61,(0, 7),20	
1,(0, 6),20	41,(0, 5),20	81,(0, 9),20	

# Outgoing
1,(0, 6),20	21,(0, 3),20	41,(0, 5),20	61,(0, 7),20	81,(0, 9),20	
70,(3, 11),2	110,(7, 11),2	
50,(6, 11),2	90,(5, 11),2	130,(9, 11),2	

