2016
# CPU
0,0,1	1,76,19	20,75,19	39,77,19	58,74,19	77,73,19	96,72,19	115,78,19	134,71,19	153,70,19	172,80,19	191,69,19	210,68,19	229,67,19	248,81,19	267,66,19	286,65,19	305,83,19	324,64,19	343,63,19	362,62,19	381,84,19	400,61,19	419,85,19	438,86,19	457,59,19	476,58,19	495,57,19	514,87,19	533,56,19	552,88,19	571,89,19	590,54,19	609,53,19	628,52,19	647,90,19	666,51,19	685,91,19	704,92,19	723,49,19	742,48,19	761,47,19	780,93,19	799,46,19	818,94,19	837,45,19	856,44,19	875,43,19	894,42,19	913,96,19	932,41,19	951,105,19	970,104,19	989,103,19	1008,102,19	1027,101,19	1046,107,19	1065,100,19	1084,99,19	1103,98,19	1122,97,19	1141,40,19	1160,39,19	1179,109,19	1198,38,19	1217,37,19	1236,36,19	1255,110,19	1274,34,19	1293,33,19	1312,111,19	1331,32,19	1350,31,19	1369,30,19	1388,112,19	1407,28,19	1426,27,19	1445,113,19	1464,26,19	1483,17,19	1502,16,19	1521,18,19	1540,15,19	1559,14,19	1578,20,19	1597,13,19	1616,21,19	1635,12,19	1654,22,19	1673,11,19	1692,10,19	1711,24,19	1730,9,19	1749,1,19	1768,2,19	1787,3,19	1806,4,19	1825,6,19	1844,7,19	1863,8,19	1882,25,19	1901,114,19	1920,115,19	1939,116,19	1958,117,19	1977,119,19	1996,120,19	2015,121,1	
141,79,19	281,82,19	421,60,19	561,55,19	701,50,19	841,95,19	981,106,19	1121,108,19	1261,35,19	1401,29,19	1541,19,19	1681,23,19	1821,5,19	1961,118,19	
# Incoming
160,(79, 121),4	300,(82, 121),4	440,(60, 121),4	580,(55, 121),4	720,(50, 121),4	860,(95, 121),4	1000,(106, 121),4	1140,(108, 121),4	1280,(35, 121),4	1420,(29, 121),4	1560,(19, 121),4	1700,(23, 121),4	1840,(5, 121),4	1980,(118, 121),4	
1,(0, 79),140	141,(0, 82),140	281,(0, 60),140	421,(0, 55),140	561,(0, 50),140	701,(0, 95),140	841,(0, 106),140	981,(0, 108),140	1121,(0, 35),140	1261,(0, 29),140	1401,(0, 19),140	1541,(0, 23),140	1681,(0, 5),140	1821,(0, 118),140	
# Outgoing
1,(0, 79),140	141,(0, 82),140	281,(0, 60),140	421,(0, 55),140	561,(0, 50),140	701,(0, 95),140	841,(0, 106),140	981,(0, 108),140	1121,(0, 35),140	1261,(0, 29),140	1401,(0, 19),140	1541,(0, 23),140	1681,(0, 5),140	1821,(0, 118),140	
160,(79, 121),4	300,(82, 121),4	440,(60, 121),4	580,(55, 121),4	720,(50, 121),4	860,(95, 121),4	1000,(106, 121),4	1140,(108, 121),4	1280,(35, 121),4	1420,(29, 121),4	1560,(19, 121),4	1700,(23, 121),4	1840,(5, 121),4	1980,(118, 121),4	
