122
# CPU
0,121,1	1,120,1	2,75,1	3,76,1	4,74,1	5,73,1	6,72,1	7,77,1	8,71,1	9,78,1	10,70,1	11,79,1	12,69,1	13,68,1	14,67,1	15,80,1	16,66,1	17,81,1	18,65,1	19,82,1	20,64,1	21,63,1	22,62,1	23,83,1	24,61,1	25,84,1	26,60,1	27,85,1	28,59,1	29,58,1	30,57,1	31,86,1	32,56,1	33,87,1	34,55,1	35,88,1	36,54,1	37,53,1	38,52,1	39,89,1	40,51,1	41,90,1	42,50,1	43,91,1	44,49,1	45,48,1	46,47,1	47,92,1	48,46,1	49,93,1	50,45,1	51,94,1	52,44,1	53,43,1	54,42,1	55,95,1	56,41,1	57,104,1	58,103,1	59,105,1	60,102,1	61,101,1	62,100,1	63,106,1	64,99,1	65,98,1	66,97,1	67,107,1	68,96,1	69,40,1	70,39,1	71,108,1	72,38,1	73,37,1	74,36,1	75,109,1	76,35,1	77,34,1	78,33,1	79,110,1	80,32,1	81,31,1	82,30,1	83,111,1	84,29,1	85,28,1	86,27,1	87,112,1	88,26,1	89,17,1	90,16,1	91,18,1	92,15,1	93,19,1	94,14,1	95,20,1	96,13,1	97,21,1	98,12,1	99,22,1	100,11,1	101,23,1	102,10,1	103,24,1	104,9,1	105,1,1	106,2,1	107,3,1	108,4,1	109,5,1	110,6,1	111,7,1	112,8,1	113,25,1	114,113,1	115,114,1	116,115,1	117,116,1	118,117,1	119,118,1	120,119,1	121,0,1	


# Incoming



# Outgoing



