330
# CPU
0,121,1	1,120,8	9,75,8	17,72,8	25,77,8	33,69,8	41,79,8	49,65,8	57,63,8	65,61,8	73,85,8	81,57,8	89,87,8	97,54,8	105,89,8	113,50,8	121,48,8	129,46,8	137,94,8	145,42,8	153,104,8	161,102,8	169,106,8	177,97,8	185,40,8	193,38,8	201,109,8	209,33,8	217,31,8	225,29,8	233,112,8	241,16,8	249,19,8	257,13,8	265,22,8	273,10,8	281,1,8	289,4,8	297,7,8	305,113,8	313,116,8	321,119,8	329,0,1	
2,83,8	10,73,8	18,71,8	26,78,8	34,67,8	42,80,8	50,64,8	58,82,8	66,60,8	74,58,8	82,56,8	90,88,8	98,52,8	106,90,8	114,49,8	122,92,8	130,45,8	138,43,8	146,41,8	154,105,8	162,100,8	170,98,8	178,96,8	186,108,8	194,36,8	202,34,8	210,32,8	218,111,8	226,27,8	234,17,8	242,15,8	250,20,8	258,12,8	266,23,8	274,9,8	282,3,8	290,6,8	298,25,8	306,115,8	314,118,8	
3,74,8	11,76,8	19,70,8	27,68,8	35,66,8	43,81,8	51,62,8	59,84,8	67,59,8	75,86,8	83,55,8	91,53,8	99,51,8	107,91,8	115,47,8	123,93,8	131,44,8	139,95,8	147,103,8	155,101,8	163,99,8	171,107,8	179,39,8	187,37,8	195,35,8	203,110,8	211,30,8	219,28,8	227,26,8	235,18,8	243,14,8	251,21,8	259,11,8	267,24,8	275,2,8	283,5,8	291,8,8	299,114,8	307,117,8	
# Incoming
10,(83, 0),4	14,(74, 0),4	18,(73, 0),4	22,(76, 0),4	26,(71, 0),4	30,(70, 0),4	34,(78, 0),4	38,(68, 0),4	42,(67, 0),4	46,(66, 0),4	50,(80, 0),4	54,(81, 0),4	58,(64, 0),4	62,(62, 0),4	66,(82, 0),4	70,(84, 0),4	74,(60, 0),4	78,(59, 0),4	82,(58, 0),4	86,(86, 0),4	90,(56, 0),4	94,(55, 0),4	98,(88, 0),4	102,(53, 0),4	106,(52, 0),4	110,(51, 0),4	114,(90, 0),4	118,(91, 0),4	122,(49, 0),4	126,(47, 0),4	130,(92, 0),4	134,(93, 0),4	138,(45, 0),4	142,(44, 0),4	146,(43, 0),4	150,(95, 0),4	154,(41, 0),4	158,(103, 0),4	162,(105, 0),4	166,(101, 0),4	170,(100, 0),4	174,(99, 0),4	178,(98, 0),4	182,(107, 0),4	186,(96, 0),4	190,(39, 0),4	194,(108, 0),4	198,(37, 0),4	202,(36, 0),4	206,(35, 0),4	210,(34, 0),4	214,(110, 0),4	218,(32, 0),4	222,(30, 0),4	226,(111, 0),4	230,(28, 0),4	234,(27, 0),4	238,(26, 0),4	242,(17, 0),4	246,(18, 0),4	250,(15, 0),4	254,(14, 0),4	258,(20, 0),4	262,(21, 0),4	266,(12, 0),4	270,(11, 0),4	274,(23, 0),4	278,(24, 0),4	282,(9, 0),4	286,(2, 0),4	290,(3, 0),4	294,(5, 0),4	298,(6, 0),4	302,(8, 0),4	306,(25, 0),4	310,(114, 0),4	314,(115, 0),4	318,(117, 0),4	322,(118, 0),4	
1,(121, 83),1	3,(121, 73),1	5,(121, 71),1	7,(121, 78),1	9,(121, 67),1	11,(121, 80),1	13,(121, 64),1	15,(121, 82),1	17,(121, 60),1	19,(121, 58),1	21,(121, 56),1	23,(121, 88),1	25,(121, 52),1	27,(121, 90),1	29,(121, 49),1	31,(121, 92),1	33,(121, 45),1	35,(121, 43),1	37,(121, 41),1	39,(121, 105),1	41,(121, 100),1	43,(121, 98),1	45,(121, 96),1	47,(121, 108),1	49,(121, 36),1	51,(121, 34),1	53,(121, 32),1	55,(121, 111),1	57,(121, 27),1	59,(121, 17),1	61,(121, 15),1	63,(121, 20),1	65,(121, 12),1	67,(121, 23),1	69,(121, 9),1	71,(121, 3),1	73,(121, 6),1	75,(121, 25),1	77,(121, 115),1	79,(121, 118),1	
2,(121, 74),1	4,(121, 76),1	6,(121, 70),1	8,(121, 68),1	10,(121, 66),1	12,(121, 81),1	14,(121, 62),1	16,(121, 84),1	18,(121, 59),1	20,(121, 86),1	22,(121, 55),1	24,(121, 53),1	26,(121, 51),1	28,(121, 91),1	30,(121, 47),1	32,(121, 93),1	34,(121, 44),1	36,(121, 95),1	38,(121, 103),1	40,(121, 101),1	42,(121, 99),1	44,(121, 107),1	46,(121, 39),1	48,(121, 37),1	50,(121, 35),1	52,(121, 110),1	54,(121, 30),1	56,(121, 28),1	58,(121, 26),1	60,(121, 18),1	62,(121, 14),1	64,(121, 21),1	66,(121, 11),1	68,(121, 24),1	70,(121, 2),1	72,(121, 5),1	74,(121, 8),1	76,(121, 114),1	78,(121, 117),1	
# Outgoing
1,(121, 83),1	2,(121, 74),1	3,(121, 73),1	4,(121, 76),1	5,(121, 71),1	6,(121, 70),1	7,(121, 78),1	8,(121, 68),1	9,(121, 67),1	10,(121, 66),1	11,(121, 80),1	12,(121, 81),1	13,(121, 64),1	14,(121, 62),1	15,(121, 82),1	16,(121, 84),1	17,(121, 60),1	18,(121, 59),1	19,(121, 58),1	20,(121, 86),1	21,(121, 56),1	22,(121, 55),1	23,(121, 88),1	24,(121, 53),1	25,(121, 52),1	26,(121, 51),1	27,(121, 90),1	28,(121, 91),1	29,(121, 49),1	30,(121, 47),1	31,(121, 92),1	32,(121, 93),1	33,(121, 45),1	34,(121, 44),1	35,(121, 43),1	36,(121, 95),1	37,(121, 41),1	38,(121, 103),1	39,(121, 105),1	40,(121, 101),1	41,(121, 100),1	42,(121, 99),1	43,(121, 98),1	44,(121, 107),1	45,(121, 96),1	46,(121, 39),1	47,(121, 108),1	48,(121, 37),1	49,(121, 36),1	50,(121, 35),1	51,(121, 34),1	52,(121, 110),1	53,(121, 32),1	54,(121, 30),1	55,(121, 111),1	56,(121, 28),1	57,(121, 27),1	58,(121, 26),1	59,(121, 17),1	60,(121, 18),1	61,(121, 15),1	62,(121, 14),1	63,(121, 20),1	64,(121, 21),1	65,(121, 12),1	66,(121, 11),1	67,(121, 23),1	68,(121, 24),1	69,(121, 9),1	70,(121, 2),1	71,(121, 3),1	72,(121, 5),1	73,(121, 6),1	74,(121, 8),1	75,(121, 25),1	76,(121, 114),1	77,(121, 115),1	78,(121, 117),1	79,(121, 118),1	
10,(83, 0),4	18,(73, 0),4	26,(71, 0),4	34,(78, 0),4	42,(67, 0),4	50,(80, 0),4	58,(64, 0),4	66,(82, 0),4	74,(60, 0),4	82,(58, 0),4	90,(56, 0),4	98,(88, 0),4	106,(52, 0),4	114,(90, 0),4	122,(49, 0),4	130,(92, 0),4	138,(45, 0),4	146,(43, 0),4	154,(41, 0),4	162,(105, 0),4	170,(100, 0),4	178,(98, 0),4	186,(96, 0),4	194,(108, 0),4	202,(36, 0),4	210,(34, 0),4	218,(32, 0),4	226,(111, 0),4	234,(27, 0),4	242,(17, 0),4	250,(15, 0),4	258,(20, 0),4	266,(12, 0),4	274,(23, 0),4	282,(9, 0),4	290,(3, 0),4	298,(6, 0),4	306,(25, 0),4	314,(115, 0),4	322,(118, 0),4	
14,(74, 0),4	22,(76, 0),4	30,(70, 0),4	38,(68, 0),4	46,(66, 0),4	54,(81, 0),4	62,(62, 0),4	70,(84, 0),4	78,(59, 0),4	86,(86, 0),4	94,(55, 0),4	102,(53, 0),4	110,(51, 0),4	118,(91, 0),4	126,(47, 0),4	134,(93, 0),4	142,(44, 0),4	150,(95, 0),4	158,(103, 0),4	166,(101, 0),4	174,(99, 0),4	182,(107, 0),4	190,(39, 0),4	198,(37, 0),4	206,(35, 0),4	214,(110, 0),4	222,(30, 0),4	230,(28, 0),4	238,(26, 0),4	246,(18, 0),4	254,(14, 0),4	262,(21, 0),4	270,(11, 0),4	278,(24, 0),4	286,(2, 0),4	294,(5, 0),4	302,(8, 0),4	310,(114, 0),4	318,(117, 0),4	
