5931
# CPU
13,3,3	25,6,3	37,9,3	49,12,3	61,15,3	73,18,3	85,21,3	97,24,3	109,27,3	121,30,3	133,33,3	145,36,3	157,39,3	169,42,3	181,45,3	193,48,3	205,51,3	217,54,3	229,57,3	241,60,3	253,63,3	265,66,3	277,69,3	289,72,3	301,75,3	313,78,3	325,81,3	337,84,3	349,87,3	361,90,3	373,93,3	385,96,3	397,99,3	409,102,3	421,105,3	433,108,3	445,111,3	457,114,3	469,117,3	481,120,3	
7,2,3	19,5,3	31,8,3	43,11,3	55,14,3	67,17,3	79,20,3	91,23,3	103,26,3	115,29,3	127,32,3	139,35,3	151,38,3	163,41,3	175,44,3	187,47,3	199,50,3	211,53,3	223,56,3	235,59,3	247,62,3	259,65,3	271,68,3	283,71,3	295,74,3	307,77,3	319,80,3	331,83,3	343,86,3	355,89,3	367,92,3	379,95,3	391,98,3	403,101,3	415,104,3	427,107,3	439,110,3	451,113,3	463,116,3	475,119,3	
0,0,1	1,1,3	4,7,3	7,19,3	10,43,3	13,91,3	16,118,3	19,115,3	22,112,3	25,109,3	28,106,3	31,103,3	34,100,3	37,97,3	40,88,3	43,94,3	46,85,3	49,82,3	52,79,3	55,76,3	58,73,3	61,70,3	64,67,3	67,64,3	70,61,3	73,58,3	76,55,3	79,52,3	82,49,3	85,40,3	88,46,3	91,37,3	94,34,3	97,31,3	100,28,3	103,25,3	106,16,3	109,22,3	112,13,3	115,4,3	118,10,3	5930,121,1	
# Incoming
7,(0, 3),6	19,(0, 6),6	31,(0, 9),6	43,(0, 12),6	55,(0, 15),6	67,(0, 18),6	79,(0, 21),6	91,(0, 24),6	103,(0, 27),6	115,(0, 30),6	127,(0, 33),6	139,(0, 36),6	151,(0, 39),6	163,(0, 42),6	175,(0, 45),6	187,(0, 48),6	199,(0, 51),6	211,(0, 54),6	223,(0, 57),6	235,(0, 60),6	247,(0, 63),6	259,(0, 66),6	271,(0, 69),6	283,(0, 72),6	295,(0, 75),6	307,(0, 78),6	319,(0, 81),6	331,(0, 84),6	343,(0, 87),6	355,(0, 90),6	367,(0, 93),6	379,(0, 96),6	391,(0, 99),6	403,(0, 102),6	415,(0, 105),6	427,(0, 108),6	439,(0, 111),6	451,(0, 114),6	463,(0, 117),6	475,(0, 120),6	
1,(0, 2),6	13,(0, 5),6	25,(0, 8),6	37,(0, 11),6	49,(0, 14),6	61,(0, 17),6	73,(0, 20),6	85,(0, 23),6	97,(0, 26),6	109,(0, 29),6	121,(0, 32),6	133,(0, 35),6	145,(0, 38),6	157,(0, 41),6	169,(0, 44),6	181,(0, 47),6	193,(0, 50),6	205,(0, 53),6	217,(0, 56),6	229,(0, 59),6	241,(0, 62),6	253,(0, 65),6	265,(0, 68),6	277,(0, 71),6	289,(0, 74),6	301,(0, 77),6	313,(0, 80),6	325,(0, 83),6	337,(0, 86),6	349,(0, 89),6	361,(0, 92),6	373,(0, 95),6	385,(0, 98),6	397,(0, 101),6	409,(0, 104),6	421,(0, 107),6	433,(0, 110),6	445,(0, 113),6	457,(0, 116),6	469,(0, 119),6	
10,(2, 121),74	84,(3, 121),74	158,(5, 121),74	232,(6, 121),74	306,(8, 121),74	380,(9, 121),74	454,(11, 121),74	528,(12, 121),74	602,(14, 121),74	676,(15, 121),74	750,(17, 121),74	824,(18, 121),74	898,(20, 121),74	972,(21, 121),74	1046,(23, 121),74	1120,(24, 121),74	1194,(26, 121),74	1268,(27, 121),74	1342,(29, 121),74	1416,(30, 121),74	1490,(32, 121),74	1564,(33, 121),74	1638,(35, 121),74	1712,(36, 121),74	1786,(38, 121),74	1860,(39, 121),74	1934,(41, 121),74	2008,(42, 121),74	2082,(44, 121),74	2156,(45, 121),74	2230,(47, 121),74	2304,(48, 121),74	2378,(50, 121),74	2452,(51, 121),74	2526,(53, 121),74	2600,(54, 121),74	2674,(56, 121),74	2748,(57, 121),74	2822,(59, 121),74	2896,(60, 121),74	2970,(62, 121),74	3044,(63, 121),74	3118,(65, 121),74	3192,(66, 121),74	3266,(68, 121),74	3340,(69, 121),74	3414,(71, 121),74	3488,(72, 121),74	3562,(74, 121),74	3636,(75, 121),74	3710,(77, 121),74	3784,(78, 121),74	3858,(80, 121),74	3932,(81, 121),74	4006,(83, 121),74	4080,(84, 121),74	4154,(86, 121),74	4228,(87, 121),74	4302,(89, 121),74	4376,(90, 121),74	4450,(92, 121),74	4524,(93, 121),74	4598,(95, 121),74	4672,(96, 121),74	4746,(98, 121),74	4820,(99, 121),74	4894,(101, 121),74	4968,(102, 121),74	5042,(104, 121),74	5116,(105, 121),74	5190,(107, 121),74	5264,(108, 121),74	5338,(110, 121),74	5412,(111, 121),74	5486,(113, 121),74	5560,(114, 121),74	5634,(116, 121),74	5708,(117, 121),74	5782,(119, 121),74	5856,(120, 121),74	
# Outgoing
84,(3, 121),74	232,(6, 121),74	380,(9, 121),74	528,(12, 121),74	676,(15, 121),74	824,(18, 121),74	972,(21, 121),74	1120,(24, 121),74	1268,(27, 121),74	1416,(30, 121),74	1564,(33, 121),74	1712,(36, 121),74	1860,(39, 121),74	2008,(42, 121),74	2156,(45, 121),74	2304,(48, 121),74	2452,(51, 121),74	2600,(54, 121),74	2748,(57, 121),74	2896,(60, 121),74	3044,(63, 121),74	3192,(66, 121),74	3340,(69, 121),74	3488,(72, 121),74	3636,(75, 121),74	3784,(78, 121),74	3932,(81, 121),74	4080,(84, 121),74	4228,(87, 121),74	4376,(90, 121),74	4524,(93, 121),74	4672,(96, 121),74	4820,(99, 121),74	4968,(102, 121),74	5116,(105, 121),74	5264,(108, 121),74	5412,(111, 121),74	5560,(114, 121),74	5708,(117, 121),74	5856,(120, 121),74	
10,(2, 121),74	158,(5, 121),74	306,(8, 121),74	454,(11, 121),74	602,(14, 121),74	750,(17, 121),74	898,(20, 121),74	1046,(23, 121),74	1194,(26, 121),74	1342,(29, 121),74	1490,(32, 121),74	1638,(35, 121),74	1786,(38, 121),74	1934,(41, 121),74	2082,(44, 121),74	2230,(47, 121),74	2378,(50, 121),74	2526,(53, 121),74	2674,(56, 121),74	2822,(59, 121),74	2970,(62, 121),74	3118,(65, 121),74	3266,(68, 121),74	3414,(71, 121),74	3562,(74, 121),74	3710,(77, 121),74	3858,(80, 121),74	4006,(83, 121),74	4154,(86, 121),74	4302,(89, 121),74	4450,(92, 121),74	4598,(95, 121),74	4746,(98, 121),74	4894,(101, 121),74	5042,(104, 121),74	5190,(107, 121),74	5338,(110, 121),74	5486,(113, 121),74	5634,(116, 121),74	5782,(119, 121),74	
1,(0, 2),6	7,(0, 3),6	13,(0, 5),6	19,(0, 6),6	25,(0, 8),6	31,(0, 9),6	37,(0, 11),6	43,(0, 12),6	49,(0, 14),6	55,(0, 15),6	61,(0, 17),6	67,(0, 18),6	73,(0, 20),6	79,(0, 21),6	85,(0, 23),6	91,(0, 24),6	97,(0, 26),6	103,(0, 27),6	109,(0, 29),6	115,(0, 30),6	121,(0, 32),6	127,(0, 33),6	133,(0, 35),6	139,(0, 36),6	145,(0, 38),6	151,(0, 39),6	157,(0, 41),6	163,(0, 42),6	169,(0, 44),6	175,(0, 45),6	181,(0, 47),6	187,(0, 48),6	193,(0, 50),6	199,(0, 51),6	205,(0, 53),6	211,(0, 54),6	217,(0, 56),6	223,(0, 57),6	229,(0, 59),6	235,(0, 60),6	241,(0, 62),6	247,(0, 63),6	253,(0, 65),6	259,(0, 66),6	265,(0, 68),6	271,(0, 69),6	277,(0, 71),6	283,(0, 72),6	289,(0, 74),6	295,(0, 75),6	301,(0, 77),6	307,(0, 78),6	313,(0, 80),6	319,(0, 81),6	325,(0, 83),6	331,(0, 84),6	337,(0, 86),6	343,(0, 87),6	349,(0, 89),6	355,(0, 90),6	361,(0, 92),6	367,(0, 93),6	373,(0, 95),6	379,(0, 96),6	385,(0, 98),6	391,(0, 99),6	397,(0, 101),6	403,(0, 102),6	409,(0, 104),6	415,(0, 105),6	421,(0, 107),6	427,(0, 108),6	433,(0, 110),6	439,(0, 111),6	445,(0, 113),6	451,(0, 114),6	457,(0, 116),6	463,(0, 117),6	469,(0, 119),6	475,(0, 120),6	
