1190
# CPU
0,161,1	1,160,22	23,110,22	45,112,22	67,106,22	89,103,22	111,101,22	133,116,22	155,96,22	177,118,22	199,93,22	221,120,22	243,80,22	265,78,22	287,76,22	309,85,22	331,72,22	353,87,22	375,69,22	397,89,22	419,65,22	441,63,22	463,61,22	485,125,22	507,57,22	529,127,22	551,54,22	573,129,22	595,50,22	617,48,22	639,46,22	661,134,22	683,42,22	705,144,22	727,142,22	749,146,22	771,137,22	793,40,22	815,38,22	837,149,22	859,33,22	881,31,22	903,29,22	925,152,22	947,16,22	969,19,22	991,13,22	1013,22,22	1035,10,22	1057,1,22	1079,4,22	1101,7,22	1123,153,22	1145,156,22	1167,159,22	1189,0,1	
3,111,22	25,108,22	47,113,22	69,104,22	91,115,22	113,99,22	135,97,22	157,95,22	179,119,22	201,91,22	223,81,22	245,79,22	267,83,22	289,75,22	311,73,22	333,71,22	355,88,22	377,67,22	399,121,22	421,64,22	443,123,22	465,60,22	487,58,22	509,56,22	531,128,22	553,52,22	575,130,22	597,49,22	619,132,22	641,45,22	663,43,22	685,41,22	707,145,22	729,140,22	751,138,22	773,136,22	795,148,22	817,36,22	839,34,22	861,32,22	883,151,22	905,27,22	927,17,22	949,15,22	971,20,22	993,12,22	1015,23,22	1037,9,22	1059,3,22	1081,6,22	1103,25,22	1125,155,22	1147,158,22	
2,105,22	24,109,22	46,107,22	68,114,22	90,102,22	112,100,22	134,98,22	156,117,22	178,94,22	200,92,22	222,90,22	244,82,22	266,77,22	288,84,22	310,74,22	332,86,22	354,70,22	376,68,22	398,66,22	420,122,22	442,62,22	464,124,22	486,59,22	508,126,22	530,55,22	552,53,22	574,51,22	596,131,22	618,47,22	640,133,22	662,44,22	684,135,22	706,143,22	728,141,22	750,139,22	772,147,22	794,39,22	816,37,22	838,35,22	860,150,22	882,30,22	904,28,22	926,26,22	948,18,22	970,14,22	992,21,22	1014,11,22	1036,24,22	1058,2,22	1080,5,22	1102,8,22	1124,154,22	1146,157,22	
# Incoming
24,(105, 0),1	25,(111, 0),1	46,(109, 0),1	47,(108, 0),1	68,(107, 0),1	69,(113, 0),1	90,(114, 0),1	91,(104, 0),1	112,(102, 0),1	113,(115, 0),1	134,(100, 0),1	135,(99, 0),1	156,(98, 0),1	157,(97, 0),1	178,(117, 0),1	179,(95, 0),1	200,(94, 0),1	201,(119, 0),1	222,(92, 0),1	223,(91, 0),1	244,(90, 0),1	245,(81, 0),1	266,(82, 0),1	267,(79, 0),1	288,(77, 0),1	289,(83, 0),1	310,(84, 0),1	311,(75, 0),1	332,(74, 0),1	333,(73, 0),1	354,(86, 0),1	355,(71, 0),1	376,(70, 0),1	377,(88, 0),1	398,(68, 0),1	399,(67, 0),1	420,(66, 0),1	421,(121, 0),1	442,(122, 0),1	443,(64, 0),1	464,(62, 0),1	465,(123, 0),1	486,(124, 0),1	487,(60, 0),1	508,(59, 0),1	509,(58, 0),1	530,(126, 0),1	531,(56, 0),1	552,(55, 0),1	553,(128, 0),1	574,(53, 0),1	575,(52, 0),1	596,(51, 0),1	597,(130, 0),1	618,(131, 0),1	619,(49, 0),1	640,(47, 0),1	641,(132, 0),1	662,(133, 0),1	663,(45, 0),1	684,(44, 0),1	685,(43, 0),1	706,(135, 0),1	707,(41, 0),1	728,(143, 0),1	729,(145, 0),1	750,(141, 0),1	751,(140, 0),1	772,(139, 0),1	773,(138, 0),1	794,(147, 0),1	795,(136, 0),1	816,(39, 0),1	817,(148, 0),1	838,(37, 0),1	839,(36, 0),1	860,(35, 0),1	861,(34, 0),1	882,(150, 0),1	883,(32, 0),1	904,(30, 0),1	905,(151, 0),1	926,(28, 0),1	927,(27, 0),1	948,(26, 0),1	949,(17, 0),1	970,(18, 0),1	971,(15, 0),1	992,(14, 0),1	993,(20, 0),1	1014,(21, 0),1	1015,(12, 0),1	1036,(11, 0),1	1037,(23, 0),1	1058,(24, 0),1	1059,(9, 0),1	1080,(2, 0),1	1081,(3, 0),1	1102,(5, 0),1	1103,(6, 0),1	1124,(8, 0),1	1125,(25, 0),1	1146,(154, 0),1	1147,(155, 0),1	1168,(157, 0),1	1169,(158, 0),1	
2,(161, 111),1	4,(161, 108),1	6,(161, 113),1	8,(161, 104),1	10,(161, 115),1	12,(161, 99),1	14,(161, 97),1	16,(161, 95),1	18,(161, 119),1	20,(161, 91),1	22,(161, 81),1	24,(161, 79),1	26,(161, 83),1	28,(161, 75),1	30,(161, 73),1	32,(161, 71),1	34,(161, 88),1	36,(161, 67),1	38,(161, 121),1	40,(161, 64),1	42,(161, 123),1	44,(161, 60),1	46,(161, 58),1	48,(161, 56),1	50,(161, 128),1	52,(161, 52),1	54,(161, 130),1	56,(161, 49),1	58,(161, 132),1	60,(161, 45),1	62,(161, 43),1	64,(161, 41),1	66,(161, 145),1	68,(161, 140),1	70,(161, 138),1	72,(161, 136),1	74,(161, 148),1	76,(161, 36),1	78,(161, 34),1	80,(161, 32),1	82,(161, 151),1	84,(161, 27),1	86,(161, 17),1	88,(161, 15),1	90,(161, 20),1	92,(161, 12),1	94,(161, 23),1	96,(161, 9),1	98,(161, 3),1	100,(161, 6),1	102,(161, 25),1	104,(161, 155),1	106,(161, 158),1	
1,(161, 105),1	3,(161, 109),1	5,(161, 107),1	7,(161, 114),1	9,(161, 102),1	11,(161, 100),1	13,(161, 98),1	15,(161, 117),1	17,(161, 94),1	19,(161, 92),1	21,(161, 90),1	23,(161, 82),1	25,(161, 77),1	27,(161, 84),1	29,(161, 74),1	31,(161, 86),1	33,(161, 70),1	35,(161, 68),1	37,(161, 66),1	39,(161, 122),1	41,(161, 62),1	43,(161, 124),1	45,(161, 59),1	47,(161, 126),1	49,(161, 55),1	51,(161, 53),1	53,(161, 51),1	55,(161, 131),1	57,(161, 47),1	59,(161, 133),1	61,(161, 44),1	63,(161, 135),1	65,(161, 143),1	67,(161, 141),1	69,(161, 139),1	71,(161, 147),1	73,(161, 39),1	75,(161, 37),1	77,(161, 35),1	79,(161, 150),1	81,(161, 30),1	83,(161, 28),1	85,(161, 26),1	87,(161, 18),1	89,(161, 14),1	91,(161, 21),1	93,(161, 11),1	95,(161, 24),1	97,(161, 2),1	99,(161, 5),1	101,(161, 8),1	103,(161, 154),1	105,(161, 157),1	
# Outgoing
1,(161, 105),1	2,(161, 111),1	3,(161, 109),1	4,(161, 108),1	5,(161, 107),1	6,(161, 113),1	7,(161, 114),1	8,(161, 104),1	9,(161, 102),1	10,(161, 115),1	11,(161, 100),1	12,(161, 99),1	13,(161, 98),1	14,(161, 97),1	15,(161, 117),1	16,(161, 95),1	17,(161, 94),1	18,(161, 119),1	19,(161, 92),1	20,(161, 91),1	21,(161, 90),1	22,(161, 81),1	23,(161, 82),1	24,(161, 79),1	25,(161, 77),1	26,(161, 83),1	27,(161, 84),1	28,(161, 75),1	29,(161, 74),1	30,(161, 73),1	31,(161, 86),1	32,(161, 71),1	33,(161, 70),1	34,(161, 88),1	35,(161, 68),1	36,(161, 67),1	37,(161, 66),1	38,(161, 121),1	39,(161, 122),1	40,(161, 64),1	41,(161, 62),1	42,(161, 123),1	43,(161, 124),1	44,(161, 60),1	45,(161, 59),1	46,(161, 58),1	47,(161, 126),1	48,(161, 56),1	49,(161, 55),1	50,(161, 128),1	51,(161, 53),1	52,(161, 52),1	53,(161, 51),1	54,(161, 130),1	55,(161, 131),1	56,(161, 49),1	57,(161, 47),1	58,(161, 132),1	59,(161, 133),1	60,(161, 45),1	61,(161, 44),1	62,(161, 43),1	63,(161, 135),1	64,(161, 41),1	65,(161, 143),1	66,(161, 145),1	67,(161, 141),1	68,(161, 140),1	69,(161, 139),1	70,(161, 138),1	71,(161, 147),1	72,(161, 136),1	73,(161, 39),1	74,(161, 148),1	75,(161, 37),1	76,(161, 36),1	77,(161, 35),1	78,(161, 34),1	79,(161, 150),1	80,(161, 32),1	81,(161, 30),1	82,(161, 151),1	83,(161, 28),1	84,(161, 27),1	85,(161, 26),1	86,(161, 17),1	87,(161, 18),1	88,(161, 15),1	89,(161, 14),1	90,(161, 20),1	91,(161, 21),1	92,(161, 12),1	93,(161, 11),1	94,(161, 23),1	95,(161, 24),1	96,(161, 9),1	97,(161, 2),1	98,(161, 3),1	99,(161, 5),1	100,(161, 6),1	101,(161, 8),1	102,(161, 25),1	103,(161, 154),1	104,(161, 155),1	105,(161, 157),1	106,(161, 158),1	
25,(111, 0),1	47,(108, 0),1	69,(113, 0),1	91,(104, 0),1	113,(115, 0),1	135,(99, 0),1	157,(97, 0),1	179,(95, 0),1	201,(119, 0),1	223,(91, 0),1	245,(81, 0),1	267,(79, 0),1	289,(83, 0),1	311,(75, 0),1	333,(73, 0),1	355,(71, 0),1	377,(88, 0),1	399,(67, 0),1	421,(121, 0),1	443,(64, 0),1	465,(123, 0),1	487,(60, 0),1	509,(58, 0),1	531,(56, 0),1	553,(128, 0),1	575,(52, 0),1	597,(130, 0),1	619,(49, 0),1	641,(132, 0),1	663,(45, 0),1	685,(43, 0),1	707,(41, 0),1	729,(145, 0),1	751,(140, 0),1	773,(138, 0),1	795,(136, 0),1	817,(148, 0),1	839,(36, 0),1	861,(34, 0),1	883,(32, 0),1	905,(151, 0),1	927,(27, 0),1	949,(17, 0),1	971,(15, 0),1	993,(20, 0),1	1015,(12, 0),1	1037,(23, 0),1	1059,(9, 0),1	1081,(3, 0),1	1103,(6, 0),1	1125,(25, 0),1	1147,(155, 0),1	1169,(158, 0),1	
24,(105, 0),1	46,(109, 0),1	68,(107, 0),1	90,(114, 0),1	112,(102, 0),1	134,(100, 0),1	156,(98, 0),1	178,(117, 0),1	200,(94, 0),1	222,(92, 0),1	244,(90, 0),1	266,(82, 0),1	288,(77, 0),1	310,(84, 0),1	332,(74, 0),1	354,(86, 0),1	376,(70, 0),1	398,(68, 0),1	420,(66, 0),1	442,(122, 0),1	464,(62, 0),1	486,(124, 0),1	508,(59, 0),1	530,(126, 0),1	552,(55, 0),1	574,(53, 0),1	596,(51, 0),1	618,(131, 0),1	640,(47, 0),1	662,(133, 0),1	684,(44, 0),1	706,(135, 0),1	728,(143, 0),1	750,(141, 0),1	772,(139, 0),1	794,(147, 0),1	816,(39, 0),1	838,(37, 0),1	860,(35, 0),1	882,(150, 0),1	904,(30, 0),1	926,(28, 0),1	948,(26, 0),1	970,(18, 0),1	992,(14, 0),1	1014,(21, 0),1	1036,(11, 0),1	1058,(24, 0),1	1080,(2, 0),1	1102,(5, 0),1	1124,(8, 0),1	1146,(154, 0),1	1168,(157, 0),1	
