7352
# CPU
613,10,2	1225,20,2	1837,30,2	2449,40,2	3061,50,2	3673,60,2	4285,70,2	4897,80,2	5509,90,2	6121,100,2	6733,110,2	7345,120,2	
545,9,2	1157,19,2	1769,29,2	2381,39,2	2993,49,2	3605,59,2	4217,69,2	4829,79,2	5441,89,2	6053,99,2	6665,109,2	7277,119,2	
477,8,2	1089,18,2	1701,28,2	2313,38,2	2925,48,2	3537,58,2	4149,68,2	4761,78,2	5373,88,2	5985,98,2	6597,108,2	7209,118,2	
409,7,2	1021,17,2	1633,27,2	2245,37,2	2857,47,2	3469,57,2	4081,67,2	4693,77,2	5305,87,2	5917,97,2	6529,107,2	7141,117,2	
341,6,2	953,16,2	1565,26,2	2177,36,2	2789,46,2	3401,56,2	4013,66,2	4625,76,2	5237,86,2	5849,96,2	6461,106,2	7073,116,2	
273,5,2	885,15,2	1497,25,2	2109,35,2	2721,45,2	3333,55,2	3945,65,2	4557,75,2	5169,85,2	5781,95,2	6393,105,2	7005,115,2	
205,4,2	817,14,2	1429,24,2	2041,34,2	2653,44,2	3265,54,2	3877,64,2	4489,74,2	5101,84,2	5713,94,2	6325,104,2	6937,114,2	
137,3,2	749,13,2	1361,23,2	1973,33,2	2585,43,2	3197,53,2	3809,63,2	4421,73,2	5033,83,2	5645,93,2	6257,103,2	6869,113,2	
69,2,2	681,12,2	1293,22,2	1905,32,2	2517,42,2	3129,52,2	3741,62,2	4353,72,2	4965,82,2	5577,92,2	6189,102,2	6801,112,2	
0,0,1	1,1,2	3,21,2	5,61,2	7,111,2	9,101,2	11,91,2	13,81,2	15,51,2	17,71,2	19,41,2	21,11,2	23,31,2	7351,121,1	
# Incoming
545,(0, 10),68	1157,(0, 20),68	1769,(0, 30),68	2381,(0, 40),68	2993,(0, 50),68	3605,(0, 60),68	4217,(0, 70),68	4829,(0, 80),68	5441,(0, 90),68	6053,(0, 100),68	6665,(0, 110),68	7277,(0, 120),68	
477,(0, 9),68	1089,(0, 19),68	1701,(0, 29),68	2313,(0, 39),68	2925,(0, 49),68	3537,(0, 59),68	4149,(0, 69),68	4761,(0, 79),68	5373,(0, 89),68	5985,(0, 99),68	6597,(0, 109),68	7209,(0, 119),68	
409,(0, 8),68	1021,(0, 18),68	1633,(0, 28),68	2245,(0, 38),68	2857,(0, 48),68	3469,(0, 58),68	4081,(0, 68),68	4693,(0, 78),68	5305,(0, 88),68	5917,(0, 98),68	6529,(0, 108),68	7141,(0, 118),68	
341,(0, 7),68	953,(0, 17),68	1565,(0, 27),68	2177,(0, 37),68	2789,(0, 47),68	3401,(0, 57),68	4013,(0, 67),68	4625,(0, 77),68	5237,(0, 87),68	5849,(0, 97),68	6461,(0, 107),68	7073,(0, 117),68	
273,(0, 6),68	885,(0, 16),68	1497,(0, 26),68	2109,(0, 36),68	2721,(0, 46),68	3333,(0, 56),68	3945,(0, 66),68	4557,(0, 76),68	5169,(0, 86),68	5781,(0, 96),68	6393,(0, 106),68	7005,(0, 116),68	
205,(0, 5),68	817,(0, 15),68	1429,(0, 25),68	2041,(0, 35),68	2653,(0, 45),68	3265,(0, 55),68	3877,(0, 65),68	4489,(0, 75),68	5101,(0, 85),68	5713,(0, 95),68	6325,(0, 105),68	6937,(0, 115),68	
137,(0, 4),68	749,(0, 14),68	1361,(0, 24),68	1973,(0, 34),68	2585,(0, 44),68	3197,(0, 54),68	3809,(0, 64),68	4421,(0, 74),68	5033,(0, 84),68	5645,(0, 94),68	6257,(0, 104),68	6869,(0, 114),68	
69,(0, 3),68	681,(0, 13),68	1293,(0, 23),68	1905,(0, 33),68	2517,(0, 43),68	3129,(0, 53),68	3741,(0, 63),68	4353,(0, 73),68	4965,(0, 83),68	5577,(0, 93),68	6189,(0, 103),68	6801,(0, 113),68	
1,(0, 2),68	613,(0, 12),68	1225,(0, 22),68	1837,(0, 32),68	2449,(0, 42),68	3061,(0, 52),68	3673,(0, 62),68	4285,(0, 72),68	4897,(0, 82),68	5509,(0, 92),68	6121,(0, 102),68	6733,(0, 112),68	
71,(2, 121),4	139,(3, 121),4	207,(4, 121),4	275,(5, 121),4	343,(6, 121),4	411,(7, 121),4	479,(8, 121),4	547,(9, 121),4	615,(10, 121),4	683,(12, 121),4	751,(13, 121),4	819,(14, 121),4	887,(15, 121),4	955,(16, 121),4	1023,(17, 121),4	1091,(18, 121),4	1159,(19, 121),4	1227,(20, 121),4	1295,(22, 121),4	1363,(23, 121),4	1431,(24, 121),4	1499,(25, 121),4	1567,(26, 121),4	1635,(27, 121),4	1703,(28, 121),4	1771,(29, 121),4	1839,(30, 121),4	1907,(32, 121),4	1975,(33, 121),4	2043,(34, 121),4	2111,(35, 121),4	2179,(36, 121),4	2247,(37, 121),4	2315,(38, 121),4	2383,(39, 121),4	2451,(40, 121),4	2519,(42, 121),4	2587,(43, 121),4	2655,(44, 121),4	2723,(45, 121),4	2791,(46, 121),4	2859,(47, 121),4	2927,(48, 121),4	2995,(49, 121),4	3063,(50, 121),4	3131,(52, 121),4	3199,(53, 121),4	3267,(54, 121),4	3335,(55, 121),4	3403,(56, 121),4	3471,(57, 121),4	3539,(58, 121),4	3607,(59, 121),4	3675,(60, 121),4	3743,(62, 121),4	3811,(63, 121),4	3879,(64, 121),4	3947,(65, 121),4	4015,(66, 121),4	4083,(67, 121),4	4151,(68, 121),4	4219,(69, 121),4	4287,(70, 121),4	4355,(72, 121),4	4423,(73, 121),4	4491,(74, 121),4	4559,(75, 121),4	4627,(76, 121),4	4695,(77, 121),4	4763,(78, 121),4	4831,(79, 121),4	4899,(80, 121),4	4967,(82, 121),4	5035,(83, 121),4	5103,(84, 121),4	5171,(85, 121),4	5239,(86, 121),4	5307,(87, 121),4	5375,(88, 121),4	5443,(89, 121),4	5511,(90, 121),4	5579,(92, 121),4	5647,(93, 121),4	5715,(94, 121),4	5783,(95, 121),4	5851,(96, 121),4	5919,(97, 121),4	5987,(98, 121),4	6055,(99, 121),4	6123,(100, 121),4	6191,(102, 121),4	6259,(103, 121),4	6327,(104, 121),4	6395,(105, 121),4	6463,(106, 121),4	6531,(107, 121),4	6599,(108, 121),4	6667,(109, 121),4	6735,(110, 121),4	6803,(112, 121),4	6871,(113, 121),4	6939,(114, 121),4	7007,(115, 121),4	7075,(116, 121),4	7143,(117, 121),4	7211,(118, 121),4	7279,(119, 121),4	7347,(120, 121),4	
# Outgoing
615,(10, 121),4	1227,(20, 121),4	1839,(30, 121),4	2451,(40, 121),4	3063,(50, 121),4	3675,(60, 121),4	4287,(70, 121),4	4899,(80, 121),4	5511,(90, 121),4	6123,(100, 121),4	6735,(110, 121),4	7347,(120, 121),4	
547,(9, 121),4	1159,(19, 121),4	1771,(29, 121),4	2383,(39, 121),4	2995,(49, 121),4	3607,(59, 121),4	4219,(69, 121),4	4831,(79, 121),4	5443,(89, 121),4	6055,(99, 121),4	6667,(109, 121),4	7279,(119, 121),4	
479,(8, 121),4	1091,(18, 121),4	1703,(28, 121),4	2315,(38, 121),4	2927,(48, 121),4	3539,(58, 121),4	4151,(68, 121),4	4763,(78, 121),4	5375,(88, 121),4	5987,(98, 121),4	6599,(108, 121),4	7211,(118, 121),4	
411,(7, 121),4	1023,(17, 121),4	1635,(27, 121),4	2247,(37, 121),4	2859,(47, 121),4	3471,(57, 121),4	4083,(67, 121),4	4695,(77, 121),4	5307,(87, 121),4	5919,(97, 121),4	6531,(107, 121),4	7143,(117, 121),4	
343,(6, 121),4	955,(16, 121),4	1567,(26, 121),4	2179,(36, 121),4	2791,(46, 121),4	3403,(56, 121),4	4015,(66, 121),4	4627,(76, 121),4	5239,(86, 121),4	5851,(96, 121),4	6463,(106, 121),4	7075,(116, 121),4	
275,(5, 121),4	887,(15, 121),4	1499,(25, 121),4	2111,(35, 121),4	2723,(45, 121),4	3335,(55, 121),4	3947,(65, 121),4	4559,(75, 121),4	5171,(85, 121),4	5783,(95, 121),4	6395,(105, 121),4	7007,(115, 121),4	
207,(4, 121),4	819,(14, 121),4	1431,(24, 121),4	2043,(34, 121),4	2655,(44, 121),4	3267,(54, 121),4	3879,(64, 121),4	4491,(74, 121),4	5103,(84, 121),4	5715,(94, 121),4	6327,(104, 121),4	6939,(114, 121),4	
139,(3, 121),4	751,(13, 121),4	1363,(23, 121),4	1975,(33, 121),4	2587,(43, 121),4	3199,(53, 121),4	3811,(63, 121),4	4423,(73, 121),4	5035,(83, 121),4	5647,(93, 121),4	6259,(103, 121),4	6871,(113, 121),4	
71,(2, 121),4	683,(12, 121),4	1295,(22, 121),4	1907,(32, 121),4	2519,(42, 121),4	3131,(52, 121),4	3743,(62, 121),4	4355,(72, 121),4	4967,(82, 121),4	5579,(92, 121),4	6191,(102, 121),4	6803,(112, 121),4	
1,(0, 2),68	69,(0, 3),68	137,(0, 4),68	205,(0, 5),68	273,(0, 6),68	341,(0, 7),68	409,(0, 8),68	477,(0, 9),68	545,(0, 10),68	613,(0, 12),68	681,(0, 13),68	749,(0, 14),68	817,(0, 15),68	885,(0, 16),68	953,(0, 17),68	1021,(0, 18),68	1089,(0, 19),68	1157,(0, 20),68	1225,(0, 22),68	1293,(0, 23),68	1361,(0, 24),68	1429,(0, 25),68	1497,(0, 26),68	1565,(0, 27),68	1633,(0, 28),68	1701,(0, 29),68	1769,(0, 30),68	1837,(0, 32),68	1905,(0, 33),68	1973,(0, 34),68	2041,(0, 35),68	2109,(0, 36),68	2177,(0, 37),68	2245,(0, 38),68	2313,(0, 39),68	2381,(0, 40),68	2449,(0, 42),68	2517,(0, 43),68	2585,(0, 44),68	2653,(0, 45),68	2721,(0, 46),68	2789,(0, 47),68	2857,(0, 48),68	2925,(0, 49),68	2993,(0, 50),68	3061,(0, 52),68	3129,(0, 53),68	3197,(0, 54),68	3265,(0, 55),68	3333,(0, 56),68	3401,(0, 57),68	3469,(0, 58),68	3537,(0, 59),68	3605,(0, 60),68	3673,(0, 62),68	3741,(0, 63),68	3809,(0, 64),68	3877,(0, 65),68	3945,(0, 66),68	4013,(0, 67),68	4081,(0, 68),68	4149,(0, 69),68	4217,(0, 70),68	4285,(0, 72),68	4353,(0, 73),68	4421,(0, 74),68	4489,(0, 75),68	4557,(0, 76),68	4625,(0, 77),68	4693,(0, 78),68	4761,(0, 79),68	4829,(0, 80),68	4897,(0, 82),68	4965,(0, 83),68	5033,(0, 84),68	5101,(0, 85),68	5169,(0, 86),68	5237,(0, 87),68	5305,(0, 88),68	5373,(0, 89),68	5441,(0, 90),68	5509,(0, 92),68	5577,(0, 93),68	5645,(0, 94),68	5713,(0, 95),68	5781,(0, 96),68	5849,(0, 97),68	5917,(0, 98),68	5985,(0, 99),68	6053,(0, 100),68	6121,(0, 102),68	6189,(0, 103),68	6257,(0, 104),68	6325,(0, 105),68	6393,(0, 106),68	6461,(0, 107),68	6529,(0, 108),68	6597,(0, 109),68	6665,(0, 110),68	6733,(0, 112),68	6801,(0, 113),68	6869,(0, 114),68	6937,(0, 115),68	7005,(0, 116),68	7073,(0, 117),68	7141,(0, 118),68	7209,(0, 119),68	7277,(0, 120),68	
