876
# CPU
73,10,8	145,20,8	217,30,8	289,40,8	361,50,8	433,60,8	505,70,8	577,80,8	649,90,8	721,100,8	793,110,8	865,120,8	
65,9,8	137,19,8	209,29,8	281,39,8	353,49,8	425,59,8	497,69,8	569,79,8	641,89,8	713,99,8	785,109,8	857,119,8	
57,8,8	129,18,8	201,28,8	273,38,8	345,48,8	417,58,8	489,68,8	561,78,8	633,88,8	705,98,8	777,108,8	849,118,8	
49,7,8	121,17,8	193,27,8	265,37,8	337,47,8	409,57,8	481,67,8	553,77,8	625,87,8	697,97,8	769,107,8	841,117,8	
41,6,8	113,16,8	185,26,8	257,36,8	329,46,8	401,56,8	473,66,8	545,76,8	617,86,8	689,96,8	761,106,8	833,116,8	
33,5,8	105,15,8	177,25,8	249,35,8	321,45,8	393,55,8	465,65,8	537,75,8	609,85,8	681,95,8	753,105,8	825,115,8	
25,4,8	97,14,8	169,24,8	241,34,8	313,44,8	385,54,8	457,64,8	529,74,8	601,84,8	673,94,8	745,104,8	817,114,8	
17,3,8	89,13,8	161,23,8	233,33,8	305,43,8	377,53,8	449,63,8	521,73,8	593,83,8	665,93,8	737,103,8	809,113,8	
9,2,8	81,12,8	153,22,8	225,32,8	297,42,8	369,52,8	441,62,8	513,72,8	585,82,8	657,92,8	729,102,8	801,112,8	
0,0,1	1,1,8	9,21,8	17,61,8	25,111,8	33,101,8	41,91,8	49,81,8	57,51,8	65,71,8	73,41,8	81,11,8	89,31,8	875,121,1	
# Incoming
65,(0, 10),8	137,(0, 20),8	209,(0, 30),8	281,(0, 40),8	353,(0, 50),8	425,(0, 60),8	497,(0, 70),8	569,(0, 80),8	641,(0, 90),8	713,(0, 100),8	785,(0, 110),8	857,(0, 120),8	
57,(0, 9),8	129,(0, 19),8	201,(0, 29),8	273,(0, 39),8	345,(0, 49),8	417,(0, 59),8	489,(0, 69),8	561,(0, 79),8	633,(0, 89),8	705,(0, 99),8	777,(0, 109),8	849,(0, 119),8	
49,(0, 8),8	121,(0, 18),8	193,(0, 28),8	265,(0, 38),8	337,(0, 48),8	409,(0, 58),8	481,(0, 68),8	553,(0, 78),8	625,(0, 88),8	697,(0, 98),8	769,(0, 108),8	841,(0, 118),8	
41,(0, 7),8	113,(0, 17),8	185,(0, 27),8	257,(0, 37),8	329,(0, 47),8	401,(0, 57),8	473,(0, 67),8	545,(0, 77),8	617,(0, 87),8	689,(0, 97),8	761,(0, 107),8	833,(0, 117),8	
33,(0, 6),8	105,(0, 16),8	177,(0, 26),8	249,(0, 36),8	321,(0, 46),8	393,(0, 56),8	465,(0, 66),8	537,(0, 76),8	609,(0, 86),8	681,(0, 96),8	753,(0, 106),8	825,(0, 116),8	
25,(0, 5),8	97,(0, 15),8	169,(0, 25),8	241,(0, 35),8	313,(0, 45),8	385,(0, 55),8	457,(0, 65),8	529,(0, 75),8	601,(0, 85),8	673,(0, 95),8	745,(0, 105),8	817,(0, 115),8	
17,(0, 4),8	89,(0, 14),8	161,(0, 24),8	233,(0, 34),8	305,(0, 44),8	377,(0, 54),8	449,(0, 64),8	521,(0, 74),8	593,(0, 84),8	665,(0, 94),8	737,(0, 104),8	809,(0, 114),8	
9,(0, 3),8	81,(0, 13),8	153,(0, 23),8	225,(0, 33),8	297,(0, 43),8	369,(0, 53),8	441,(0, 63),8	513,(0, 73),8	585,(0, 83),8	657,(0, 93),8	729,(0, 103),8	801,(0, 113),8	
1,(0, 2),8	73,(0, 12),8	145,(0, 22),8	217,(0, 32),8	289,(0, 42),8	361,(0, 52),8	433,(0, 62),8	505,(0, 72),8	577,(0, 82),8	649,(0, 92),8	721,(0, 102),8	793,(0, 112),8	
17,(2, 121),2	25,(3, 121),2	33,(4, 121),2	41,(5, 121),2	49,(6, 121),2	57,(7, 121),2	65,(8, 121),2	73,(9, 121),2	81,(10, 121),2	89,(12, 121),2	97,(13, 121),2	105,(14, 121),2	113,(15, 121),2	121,(16, 121),2	129,(17, 121),2	137,(18, 121),2	145,(19, 121),2	153,(20, 121),2	161,(22, 121),2	169,(23, 121),2	177,(24, 121),2	185,(25, 121),2	193,(26, 121),2	201,(27, 121),2	209,(28, 121),2	217,(29, 121),2	225,(30, 121),2	233,(32, 121),2	241,(33, 121),2	249,(34, 121),2	257,(35, 121),2	265,(36, 121),2	273,(37, 121),2	281,(38, 121),2	289,(39, 121),2	297,(40, 121),2	305,(42, 121),2	313,(43, 121),2	321,(44, 121),2	329,(45, 121),2	337,(46, 121),2	345,(47, 121),2	353,(48, 121),2	361,(49, 121),2	369,(50, 121),2	377,(52, 121),2	385,(53, 121),2	393,(54, 121),2	401,(55, 121),2	409,(56, 121),2	417,(57, 121),2	425,(58, 121),2	433,(59, 121),2	441,(60, 121),2	449,(62, 121),2	457,(63, 121),2	465,(64, 121),2	473,(65, 121),2	481,(66, 121),2	489,(67, 121),2	497,(68, 121),2	505,(69, 121),2	513,(70, 121),2	521,(72, 121),2	529,(73, 121),2	537,(74, 121),2	545,(75, 121),2	553,(76, 121),2	561,(77, 121),2	569,(78, 121),2	577,(79, 121),2	585,(80, 121),2	593,(82, 121),2	601,(83, 121),2	609,(84, 121),2	617,(85, 121),2	625,(86, 121),2	633,(87, 121),2	641,(88, 121),2	649,(89, 121),2	657,(90, 121),2	665,(92, 121),2	673,(93, 121),2	681,(94, 121),2	689,(95, 121),2	697,(96, 121),2	705,(97, 121),2	713,(98, 121),2	721,(99, 121),2	729,(100, 121),2	737,(102, 121),2	745,(103, 121),2	753,(104, 121),2	761,(105, 121),2	769,(106, 121),2	777,(107, 121),2	785,(108, 121),2	793,(109, 121),2	801,(110, 121),2	809,(112, 121),2	817,(113, 121),2	825,(114, 121),2	833,(115, 121),2	841,(116, 121),2	849,(117, 121),2	857,(118, 121),2	865,(119, 121),2	873,(120, 121),2	
# Outgoing
81,(10, 121),2	153,(20, 121),2	225,(30, 121),2	297,(40, 121),2	369,(50, 121),2	441,(60, 121),2	513,(70, 121),2	585,(80, 121),2	657,(90, 121),2	729,(100, 121),2	801,(110, 121),2	873,(120, 121),2	
73,(9, 121),2	145,(19, 121),2	217,(29, 121),2	289,(39, 121),2	361,(49, 121),2	433,(59, 121),2	505,(69, 121),2	577,(79, 121),2	649,(89, 121),2	721,(99, 121),2	793,(109, 121),2	865,(119, 121),2	
65,(8, 121),2	137,(18, 121),2	209,(28, 121),2	281,(38, 121),2	353,(48, 121),2	425,(58, 121),2	497,(68, 121),2	569,(78, 121),2	641,(88, 121),2	713,(98, 121),2	785,(108, 121),2	857,(118, 121),2	
57,(7, 121),2	129,(17, 121),2	201,(27, 121),2	273,(37, 121),2	345,(47, 121),2	417,(57, 121),2	489,(67, 121),2	561,(77, 121),2	633,(87, 121),2	705,(97, 121),2	777,(107, 121),2	849,(117, 121),2	
49,(6, 121),2	121,(16, 121),2	193,(26, 121),2	265,(36, 121),2	337,(46, 121),2	409,(56, 121),2	481,(66, 121),2	553,(76, 121),2	625,(86, 121),2	697,(96, 121),2	769,(106, 121),2	841,(116, 121),2	
41,(5, 121),2	113,(15, 121),2	185,(25, 121),2	257,(35, 121),2	329,(45, 121),2	401,(55, 121),2	473,(65, 121),2	545,(75, 121),2	617,(85, 121),2	689,(95, 121),2	761,(105, 121),2	833,(115, 121),2	
33,(4, 121),2	105,(14, 121),2	177,(24, 121),2	249,(34, 121),2	321,(44, 121),2	393,(54, 121),2	465,(64, 121),2	537,(74, 121),2	609,(84, 121),2	681,(94, 121),2	753,(104, 121),2	825,(114, 121),2	
25,(3, 121),2	97,(13, 121),2	169,(23, 121),2	241,(33, 121),2	313,(43, 121),2	385,(53, 121),2	457,(63, 121),2	529,(73, 121),2	601,(83, 121),2	673,(93, 121),2	745,(103, 121),2	817,(113, 121),2	
17,(2, 121),2	89,(12, 121),2	161,(22, 121),2	233,(32, 121),2	305,(42, 121),2	377,(52, 121),2	449,(62, 121),2	521,(72, 121),2	593,(82, 121),2	665,(92, 121),2	737,(102, 121),2	809,(112, 121),2	
1,(0, 2),8	9,(0, 3),8	17,(0, 4),8	25,(0, 5),8	33,(0, 6),8	41,(0, 7),8	49,(0, 8),8	57,(0, 9),8	65,(0, 10),8	73,(0, 12),8	81,(0, 13),8	89,(0, 14),8	97,(0, 15),8	105,(0, 16),8	113,(0, 17),8	121,(0, 18),8	129,(0, 19),8	137,(0, 20),8	145,(0, 22),8	153,(0, 23),8	161,(0, 24),8	169,(0, 25),8	177,(0, 26),8	185,(0, 27),8	193,(0, 28),8	201,(0, 29),8	209,(0, 30),8	217,(0, 32),8	225,(0, 33),8	233,(0, 34),8	241,(0, 35),8	249,(0, 36),8	257,(0, 37),8	265,(0, 38),8	273,(0, 39),8	281,(0, 40),8	289,(0, 42),8	297,(0, 43),8	305,(0, 44),8	313,(0, 45),8	321,(0, 46),8	329,(0, 47),8	337,(0, 48),8	345,(0, 49),8	353,(0, 50),8	361,(0, 52),8	369,(0, 53),8	377,(0, 54),8	385,(0, 55),8	393,(0, 56),8	401,(0, 57),8	409,(0, 58),8	417,(0, 59),8	425,(0, 60),8	433,(0, 62),8	441,(0, 63),8	449,(0, 64),8	457,(0, 65),8	465,(0, 66),8	473,(0, 67),8	481,(0, 68),8	489,(0, 69),8	497,(0, 70),8	505,(0, 72),8	513,(0, 73),8	521,(0, 74),8	529,(0, 75),8	537,(0, 76),8	545,(0, 77),8	553,(0, 78),8	561,(0, 79),8	569,(0, 80),8	577,(0, 82),8	585,(0, 83),8	593,(0, 84),8	601,(0, 85),8	609,(0, 86),8	617,(0, 87),8	625,(0, 88),8	633,(0, 89),8	641,(0, 90),8	649,(0, 92),8	657,(0, 93),8	665,(0, 94),8	673,(0, 95),8	681,(0, 96),8	689,(0, 97),8	697,(0, 98),8	705,(0, 99),8	713,(0, 100),8	721,(0, 102),8	729,(0, 103),8	737,(0, 104),8	745,(0, 105),8	753,(0, 106),8	761,(0, 107),8	769,(0, 108),8	777,(0, 109),8	785,(0, 110),8	793,(0, 112),8	801,(0, 113),8	809,(0, 114),8	817,(0, 115),8	825,(0, 116),8	833,(0, 117),8	841,(0, 118),8	849,(0, 119),8	857,(0, 120),8	
