19
# CPU
7,4,1	13,8,1	
5,3,1	11,7,1	
3,2,1	9,6,1	15,10,1	
0,0,1	1,1,1	2,5,1	3,9,1	18,11,1	
# Incoming
5,(0, 4),2	11,(0, 8),2	
3,(0, 3),2	9,(0, 7),2	
1,(0, 2),2	7,(0, 6),2	13,(0, 10),2	
4,(2, 11),2	6,(3, 11),2	8,(4, 11),2	10,(6, 11),2	12,(7, 11),2	14,(8, 11),2	16,(10, 11),2	
# Outgoing
8,(4, 11),2	14,(8, 11),2	
6,(3, 11),2	12,(7, 11),2	
4,(2, 11),2	10,(6, 11),2	16,(10, 11),2	
1,(0, 2),2	3,(0, 3),2	5,(0, 4),2	7,(0, 6),2	9,(0, 7),2	11,(0, 8),2	13,(0, 10),2	
