398
# CPU
0,121,1	1,120,4	5,75,4	9,76,4	13,74,4	17,73,4	21,72,4	25,71,4	29,77,4	33,70,4	37,78,4	41,68,4	45,67,4	49,69,4	53,66,4	57,79,4	61,65,4	65,64,4	69,63,4	73,62,4	77,61,4	81,81,4	85,60,4	89,83,4	93,59,4	97,57,4	101,58,4	105,56,4	109,85,4	113,55,4	117,54,4	121,53,4	125,52,4	129,87,4	133,51,4	137,50,4	141,89,4	145,49,4	149,47,4	153,48,4	157,46,4	161,91,4	165,45,4	169,44,4	173,43,4	177,42,4	181,94,4	185,104,4	189,103,4	193,105,4	197,102,4	201,101,4	205,106,4	209,100,4	213,99,4	217,98,4	221,107,4	225,95,4	229,40,4	233,108,4	237,39,4	241,37,4	245,109,4	249,36,4	253,35,4	257,110,4	261,33,4	265,32,4	269,31,4	273,111,4	277,29,4	281,28,4	285,112,4	289,27,4	293,16,4	297,17,4	301,15,4	305,18,4	309,14,4	313,13,4	317,19,4	321,12,4	325,20,4	329,11,4	333,10,4	337,22,4	341,9,4	345,1,4	349,2,4	353,3,4	357,4,4	361,5,4	365,6,4	369,7,4	373,8,4	377,24,4	381,113,4	385,115,4	389,118,4	393,119,4	397,0,1	
109,90,4	127,92,4	163,96,4	235,34,4	289,21,4	325,25,4	379,114,4	
73,86,4	91,88,4	217,38,4	307,23,4	343,116,4	
37,82,4	55,84,4	181,97,4	199,41,4	253,30,4	271,26,4	361,117,4	
19,80,4	145,93,4	
# Incoming
23,(80, 0),2	41,(82, 0),2	59,(84, 0),2	77,(86, 0),2	95,(88, 0),2	113,(90, 0),2	131,(92, 0),2	149,(93, 0),2	167,(96, 0),2	185,(97, 0),2	203,(41, 0),2	221,(38, 0),2	239,(34, 0),2	257,(30, 0),2	275,(26, 0),2	293,(21, 0),2	311,(23, 0),2	329,(25, 0),2	347,(116, 0),2	365,(117, 0),2	383,(114, 0),2	
91,(121, 90),18	109,(121, 92),18	145,(121, 96),18	217,(121, 34),18	271,(121, 21),18	307,(121, 25),18	361,(121, 114),18	
55,(121, 86),18	73,(121, 88),18	199,(121, 38),18	289,(121, 23),18	325,(121, 116),18	
19,(121, 82),18	37,(121, 84),18	163,(121, 97),18	181,(121, 41),18	235,(121, 30),18	253,(121, 26),18	343,(121, 117),18	
1,(121, 80),18	127,(121, 93),18	
# Outgoing
1,(121, 80),18	19,(121, 82),18	37,(121, 84),18	55,(121, 86),18	73,(121, 88),18	91,(121, 90),18	109,(121, 92),18	127,(121, 93),18	145,(121, 96),18	163,(121, 97),18	181,(121, 41),18	199,(121, 38),18	217,(121, 34),18	235,(121, 30),18	253,(121, 26),18	271,(121, 21),18	289,(121, 23),18	307,(121, 25),18	325,(121, 116),18	343,(121, 117),18	361,(121, 114),18	
113,(90, 0),2	131,(92, 0),2	167,(96, 0),2	239,(34, 0),2	293,(21, 0),2	329,(25, 0),2	383,(114, 0),2	
77,(86, 0),2	95,(88, 0),2	221,(38, 0),2	311,(23, 0),2	347,(116, 0),2	
41,(82, 0),2	59,(84, 0),2	185,(97, 0),2	203,(41, 0),2	257,(30, 0),2	275,(26, 0),2	365,(117, 0),2	
23,(80, 0),2	149,(93, 0),2	
