338
# CPU
0,121,1	1,120,3	4,75,3	7,76,3	10,74,3	13,73,3	16,72,3	19,77,3	22,71,3	25,78,3	28,70,3	31,79,3	34,69,3	37,68,3	40,67,3	43,66,3	46,81,3	49,65,3	52,82,3	55,64,3	58,63,3	61,62,3	64,83,3	67,61,3	70,84,3	73,60,3	76,85,3	79,58,3	82,57,3	85,86,3	88,56,3	91,87,3	94,55,3	97,88,3	100,54,3	103,53,3	106,52,3	109,89,3	112,51,3	115,90,3	118,91,3	121,49,3	124,48,3	127,47,3	130,92,3	133,46,3	136,93,3	139,45,3	142,94,3	145,44,3	148,43,3	151,42,3	154,41,3	157,104,3	160,103,3	163,105,3	166,102,3	169,101,3	172,100,3	175,106,3	178,99,3	181,98,3	184,97,3	187,107,3	190,40,3	193,39,3	196,108,3	199,38,3	202,37,3	205,36,3	208,109,3	211,35,3	214,34,3	217,33,3	220,110,3	223,32,3	226,31,3	229,111,3	232,29,3	235,28,3	238,27,3	241,112,3	244,26,3	247,17,3	250,16,3	253,18,3	256,15,3	259,19,3	262,14,3	265,13,3	268,21,3	271,12,3	274,22,3	277,11,3	280,23,3	283,10,3	286,24,3	289,9,3	292,1,3	295,2,3	298,3,3	301,5,3	304,6,3	307,7,3	310,8,3	313,25,3	316,113,3	319,114,3	322,115,3	325,116,3	328,117,3	331,118,3	334,119,3	337,0,1	
38,80,3	75,59,3	112,50,3	149,95,3	186,96,3	223,30,3	260,20,3	297,4,3	
# Incoming
41,(80, 0),3	78,(59, 0),3	115,(50, 0),3	152,(95, 0),3	189,(96, 0),3	226,(30, 0),3	263,(20, 0),3	300,(4, 0),3	
1,(121, 80),37	38,(121, 59),37	75,(121, 50),37	112,(121, 95),37	149,(121, 96),37	186,(121, 30),37	223,(121, 20),37	260,(121, 4),37	
# Outgoing
1,(121, 80),37	38,(121, 59),37	75,(121, 50),37	112,(121, 95),37	149,(121, 96),37	186,(121, 30),37	223,(121, 20),37	260,(121, 4),37	
41,(80, 0),3	78,(59, 0),3	115,(50, 0),3	152,(95, 0),3	189,(96, 0),3	226,(30, 0),3	263,(20, 0),3	300,(4, 0),3	
