1758
# CPU
0,161,1	1,111,12	13,110,12	25,112,12	37,109,12	49,108,12	61,107,12	73,113,12	85,106,12	97,114,12	109,115,12	121,105,12	133,104,12	145,103,12	157,116,12	169,102,12	181,101,12	193,117,12	205,99,12	217,98,12	229,97,12	241,118,12	253,96,12	265,136,12	277,131,12	289,94,12	301,93,12	313,92,12	325,119,12	337,91,12	349,81,12	361,80,12	373,79,12	385,78,12	397,77,12	409,82,12	421,76,12	433,83,12	445,75,12	457,74,12	469,73,12	481,72,12	493,84,12	505,71,12	517,85,12	529,143,12	541,37,12	553,69,12	565,68,12	577,70,12	589,67,12	601,86,12	613,66,12	625,65,12	637,64,12	649,63,12	661,87,12	673,62,12	685,88,12	697,61,12	709,60,12	721,59,12	733,58,12	745,120,12	757,57,12	769,121,12	781,56,12	793,22,12	805,34,12	817,55,12	829,124,12	841,54,12	853,125,12	865,53,12	877,127,12	889,51,12	901,50,12	913,52,12	925,49,12	937,129,12	949,48,12	961,130,12	973,46,12	985,45,12	997,47,12	1009,44,12	1021,145,12	1033,144,12	1045,146,12	1057,151,12	1069,25,12	1081,142,12	1093,141,12	1105,140,12	1117,139,12	1129,147,12	1141,137,12	1153,134,12	1165,148,12	1177,133,12	1189,43,12	1201,42,12	1213,149,12	1225,40,12	1237,39,12	1249,150,12	1261,38,12	1273,35,12	1285,33,12	1297,152,12	1309,32,12	1321,12,12	1333,19,12	1345,153,12	1357,18,12	1369,17,12	1381,20,12	1393,16,12	1405,21,12	1417,15,12	1429,14,12	1441,23,12	1453,13,12	1465,24,12	1477,11,12	1489,27,12	1501,10,12	1513,9,12	1525,1,12	1537,2,12	1549,3,12	1561,4,12	1573,5,12	1585,157,12	1597,7,12	1609,6,12	1621,8,12	1633,28,12	1645,29,12	1657,155,12	1669,158,12	1681,160,12	1757,0,1	
441,122,12	617,126,12	881,135,12	1321,26,12	1585,31,12	1673,159,12	
89,100,12	177,95,12	265,89,12	353,90,12	529,123,12	705,128,12	793,132,12	969,138,12	1057,41,12	1145,36,12	1233,30,12	1409,154,12	1497,156,12	
# Incoming
101,(100, 0),72	189,(95, 0),72	277,(89, 0),72	365,(90, 0),72	453,(122, 0),72	541,(123, 0),72	629,(126, 0),72	717,(128, 0),72	805,(132, 0),72	893,(135, 0),72	981,(138, 0),72	1069,(41, 0),72	1157,(36, 0),72	1245,(30, 0),72	1333,(26, 0),72	1421,(154, 0),72	1509,(156, 0),72	1597,(31, 0),72	1685,(159, 0),72	
353,(161, 122),88	529,(161, 126),88	793,(161, 135),88	1233,(161, 26),88	1497,(161, 31),88	1585,(161, 159),88	
1,(161, 100),88	89,(161, 95),88	177,(161, 89),88	265,(161, 90),88	441,(161, 123),88	617,(161, 128),88	705,(161, 132),88	881,(161, 138),88	969,(161, 41),88	1057,(161, 36),88	1145,(161, 30),88	1321,(161, 154),88	1409,(161, 156),88	
# Outgoing
1,(161, 100),88	89,(161, 95),88	177,(161, 89),88	265,(161, 90),88	353,(161, 122),88	441,(161, 123),88	529,(161, 126),88	617,(161, 128),88	705,(161, 132),88	793,(161, 135),88	881,(161, 138),88	969,(161, 41),88	1057,(161, 36),88	1145,(161, 30),88	1233,(161, 26),88	1321,(161, 154),88	1409,(161, 156),88	1497,(161, 31),88	1585,(161, 159),88	
453,(122, 0),72	629,(126, 0),72	893,(135, 0),72	1333,(26, 0),72	1597,(31, 0),72	1685,(159, 0),72	
101,(100, 0),72	189,(95, 0),72	277,(89, 0),72	365,(90, 0),72	541,(123, 0),72	717,(128, 0),72	805,(132, 0),72	981,(138, 0),72	1069,(41, 0),72	1157,(36, 0),72	1245,(30, 0),72	1421,(154, 0),72	1509,(156, 0),72	
