13023
# CPU
131,2,1	261,4,1	391,6,1	521,8,1	651,10,1	781,12,1	911,14,1	1041,16,1	1171,18,1	1301,20,1	1431,22,1	1561,24,1	1691,26,1	1821,28,1	1951,30,1	2081,32,1	2211,34,1	2341,36,1	2471,38,1	2601,40,1	2731,42,1	2861,44,1	2991,46,1	3121,48,1	3251,50,1	3381,52,1	3511,54,1	3641,56,1	3771,58,1	3901,60,1	4031,62,1	4161,64,1	4291,66,1	4421,68,1	4551,70,1	4681,72,1	4811,74,1	4941,76,1	5071,78,1	5201,80,1	5331,82,1	5461,84,1	5591,86,1	5721,88,1	5851,90,1	5981,92,1	6111,94,1	6241,96,1	6371,98,1	6501,100,1	6631,102,1	6761,104,1	6891,106,1	7021,108,1	7151,110,1	7281,112,1	7411,114,1	7541,116,1	7671,118,1	7801,120,1	7931,122,1	8061,124,1	8191,126,1	8321,128,1	8451,130,1	8581,132,1	8711,134,1	8841,136,1	8971,138,1	9101,140,1	9231,142,1	9361,144,1	9491,146,1	9621,148,1	9751,150,1	9881,152,1	10011,154,1	10141,156,1	10271,158,1	10401,160,1	10531,162,1	10661,164,1	10791,166,1	10921,168,1	11051,170,1	11181,172,1	11311,174,1	11441,176,1	11571,178,1	11701,180,1	11831,182,1	11961,184,1	12091,186,1	12221,188,1	12351,190,1	12481,192,1	12611,194,1	12741,196,1	12871,198,1	13001,200,1	
0,0,1	1,1,1	2,5,1	3,13,1	4,29,1	5,61,1	6,125,1	7,199,1	8,197,1	9,195,1	10,193,1	11,191,1	12,189,1	13,187,1	14,185,1	15,183,1	16,181,1	17,179,1	18,177,1	19,175,1	20,173,1	21,171,1	22,169,1	23,167,1	24,165,1	25,163,1	26,161,1	27,159,1	28,157,1	29,155,1	30,153,1	31,151,1	32,149,1	33,147,1	34,145,1	35,143,1	36,141,1	37,139,1	38,137,1	39,135,1	40,133,1	41,131,1	42,129,1	43,123,1	44,127,1	45,121,1	46,119,1	47,117,1	48,115,1	49,113,1	50,111,1	51,109,1	52,107,1	53,105,1	54,103,1	55,101,1	56,99,1	57,97,1	58,95,1	59,93,1	60,91,1	61,89,1	62,87,1	63,85,1	64,83,1	65,81,1	66,79,1	67,77,1	68,75,1	69,73,1	70,71,1	71,69,1	72,67,1	73,65,1	74,59,1	75,63,1	76,57,1	77,55,1	78,53,1	79,51,1	80,49,1	81,47,1	82,45,1	83,43,1	84,41,1	85,39,1	86,37,1	87,35,1	88,33,1	89,27,1	90,31,1	91,25,1	92,23,1	93,21,1	94,19,1	95,17,1	96,11,1	97,15,1	98,9,1	99,3,1	100,7,1	13022,201,1	
# Incoming
1,(0, 2),130	131,(0, 4),130	261,(0, 6),130	391,(0, 8),130	521,(0, 10),130	651,(0, 12),130	781,(0, 14),130	911,(0, 16),130	1041,(0, 18),130	1171,(0, 20),130	1301,(0, 22),130	1431,(0, 24),130	1561,(0, 26),130	1691,(0, 28),130	1821,(0, 30),130	1951,(0, 32),130	2081,(0, 34),130	2211,(0, 36),130	2341,(0, 38),130	2471,(0, 40),130	2601,(0, 42),130	2731,(0, 44),130	2861,(0, 46),130	2991,(0, 48),130	3121,(0, 50),130	3251,(0, 52),130	3381,(0, 54),130	3511,(0, 56),130	3641,(0, 58),130	3771,(0, 60),130	3901,(0, 62),130	4031,(0, 64),130	4161,(0, 66),130	4291,(0, 68),130	4421,(0, 70),130	4551,(0, 72),130	4681,(0, 74),130	4811,(0, 76),130	4941,(0, 78),130	5071,(0, 80),130	5201,(0, 82),130	5331,(0, 84),130	5461,(0, 86),130	5591,(0, 88),130	5721,(0, 90),130	5851,(0, 92),130	5981,(0, 94),130	6111,(0, 96),130	6241,(0, 98),130	6371,(0, 100),130	6501,(0, 102),130	6631,(0, 104),130	6761,(0, 106),130	6891,(0, 108),130	7021,(0, 110),130	7151,(0, 112),130	7281,(0, 114),130	7411,(0, 116),130	7541,(0, 118),130	7671,(0, 120),130	7801,(0, 122),130	7931,(0, 124),130	8061,(0, 126),130	8191,(0, 128),130	8321,(0, 130),130	8451,(0, 132),130	8581,(0, 134),130	8711,(0, 136),130	8841,(0, 138),130	8971,(0, 140),130	9101,(0, 142),130	9231,(0, 144),130	9361,(0, 146),130	9491,(0, 148),130	9621,(0, 150),130	9751,(0, 152),130	9881,(0, 154),130	10011,(0, 156),130	10141,(0, 158),130	10271,(0, 160),130	10401,(0, 162),130	10531,(0, 164),130	10661,(0, 166),130	10791,(0, 168),130	10921,(0, 170),130	11051,(0, 172),130	11181,(0, 174),130	11311,(0, 176),130	11441,(0, 178),130	11571,(0, 180),130	11701,(0, 182),130	11831,(0, 184),130	11961,(0, 186),130	12091,(0, 188),130	12221,(0, 190),130	12351,(0, 192),130	12481,(0, 194),130	12611,(0, 196),130	12741,(0, 198),130	12871,(0, 200),130	
132,(2, 201),20	262,(4, 201),20	392,(6, 201),20	522,(8, 201),20	652,(10, 201),20	782,(12, 201),20	912,(14, 201),20	1042,(16, 201),20	1172,(18, 201),20	1302,(20, 201),20	1432,(22, 201),20	1562,(24, 201),20	1692,(26, 201),20	1822,(28, 201),20	1952,(30, 201),20	2082,(32, 201),20	2212,(34, 201),20	2342,(36, 201),20	2472,(38, 201),20	2602,(40, 201),20	2732,(42, 201),20	2862,(44, 201),20	2992,(46, 201),20	3122,(48, 201),20	3252,(50, 201),20	3382,(52, 201),20	3512,(54, 201),20	3642,(56, 201),20	3772,(58, 201),20	3902,(60, 201),20	4032,(62, 201),20	4162,(64, 201),20	4292,(66, 201),20	4422,(68, 201),20	4552,(70, 201),20	4682,(72, 201),20	4812,(74, 201),20	4942,(76, 201),20	5072,(78, 201),20	5202,(80, 201),20	5332,(82, 201),20	5462,(84, 201),20	5592,(86, 201),20	5722,(88, 201),20	5852,(90, 201),20	5982,(92, 201),20	6112,(94, 201),20	6242,(96, 201),20	6372,(98, 201),20	6502,(100, 201),20	6632,(102, 201),20	6762,(104, 201),20	6892,(106, 201),20	7022,(108, 201),20	7152,(110, 201),20	7282,(112, 201),20	7412,(114, 201),20	7542,(116, 201),20	7672,(118, 201),20	7802,(120, 201),20	7932,(122, 201),20	8062,(124, 201),20	8192,(126, 201),20	8322,(128, 201),20	8452,(130, 201),20	8582,(132, 201),20	8712,(134, 201),20	8842,(136, 201),20	8972,(138, 201),20	9102,(140, 201),20	9232,(142, 201),20	9362,(144, 201),20	9492,(146, 201),20	9622,(148, 201),20	9752,(150, 201),20	9882,(152, 201),20	10012,(154, 201),20	10142,(156, 201),20	10272,(158, 201),20	10402,(160, 201),20	10532,(162, 201),20	10662,(164, 201),20	10792,(166, 201),20	10922,(168, 201),20	11052,(170, 201),20	11182,(172, 201),20	11312,(174, 201),20	11442,(176, 201),20	11572,(178, 201),20	11702,(180, 201),20	11832,(182, 201),20	11962,(184, 201),20	12092,(186, 201),20	12222,(188, 201),20	12352,(190, 201),20	12482,(192, 201),20	12612,(194, 201),20	12742,(196, 201),20	12872,(198, 201),20	13002,(200, 201),20	
# Outgoing
132,(2, 201),20	262,(4, 201),20	392,(6, 201),20	522,(8, 201),20	652,(10, 201),20	782,(12, 201),20	912,(14, 201),20	1042,(16, 201),20	1172,(18, 201),20	1302,(20, 201),20	1432,(22, 201),20	1562,(24, 201),20	1692,(26, 201),20	1822,(28, 201),20	1952,(30, 201),20	2082,(32, 201),20	2212,(34, 201),20	2342,(36, 201),20	2472,(38, 201),20	2602,(40, 201),20	2732,(42, 201),20	2862,(44, 201),20	2992,(46, 201),20	3122,(48, 201),20	3252,(50, 201),20	3382,(52, 201),20	3512,(54, 201),20	3642,(56, 201),20	3772,(58, 201),20	3902,(60, 201),20	4032,(62, 201),20	4162,(64, 201),20	4292,(66, 201),20	4422,(68, 201),20	4552,(70, 201),20	4682,(72, 201),20	4812,(74, 201),20	4942,(76, 201),20	5072,(78, 201),20	5202,(80, 201),20	5332,(82, 201),20	5462,(84, 201),20	5592,(86, 201),20	5722,(88, 201),20	5852,(90, 201),20	5982,(92, 201),20	6112,(94, 201),20	6242,(96, 201),20	6372,(98, 201),20	6502,(100, 201),20	6632,(102, 201),20	6762,(104, 201),20	6892,(106, 201),20	7022,(108, 201),20	7152,(110, 201),20	7282,(112, 201),20	7412,(114, 201),20	7542,(116, 201),20	7672,(118, 201),20	7802,(120, 201),20	7932,(122, 201),20	8062,(124, 201),20	8192,(126, 201),20	8322,(128, 201),20	8452,(130, 201),20	8582,(132, 201),20	8712,(134, 201),20	8842,(136, 201),20	8972,(138, 201),20	9102,(140, 201),20	9232,(142, 201),20	9362,(144, 201),20	9492,(146, 201),20	9622,(148, 201),20	9752,(150, 201),20	9882,(152, 201),20	10012,(154, 201),20	10142,(156, 201),20	10272,(158, 201),20	10402,(160, 201),20	10532,(162, 201),20	10662,(164, 201),20	10792,(166, 201),20	10922,(168, 201),20	11052,(170, 201),20	11182,(172, 201),20	11312,(174, 201),20	11442,(176, 201),20	11572,(178, 201),20	11702,(180, 201),20	11832,(182, 201),20	11962,(184, 201),20	12092,(186, 201),20	12222,(188, 201),20	12352,(190, 201),20	12482,(192, 201),20	12612,(194, 201),20	12742,(196, 201),20	12872,(198, 201),20	13002,(200, 201),20	
1,(0, 2),130	131,(0, 4),130	261,(0, 6),130	391,(0, 8),130	521,(0, 10),130	651,(0, 12),130	781,(0, 14),130	911,(0, 16),130	1041,(0, 18),130	1171,(0, 20),130	1301,(0, 22),130	1431,(0, 24),130	1561,(0, 26),130	1691,(0, 28),130	1821,(0, 30),130	1951,(0, 32),130	2081,(0, 34),130	2211,(0, 36),130	2341,(0, 38),130	2471,(0, 40),130	2601,(0, 42),130	2731,(0, 44),130	2861,(0, 46),130	2991,(0, 48),130	3121,(0, 50),130	3251,(0, 52),130	3381,(0, 54),130	3511,(0, 56),130	3641,(0, 58),130	3771,(0, 60),130	3901,(0, 62),130	4031,(0, 64),130	4161,(0, 66),130	4291,(0, 68),130	4421,(0, 70),130	4551,(0, 72),130	4681,(0, 74),130	4811,(0, 76),130	4941,(0, 78),130	5071,(0, 80),130	5201,(0, 82),130	5331,(0, 84),130	5461,(0, 86),130	5591,(0, 88),130	5721,(0, 90),130	5851,(0, 92),130	5981,(0, 94),130	6111,(0, 96),130	6241,(0, 98),130	6371,(0, 100),130	6501,(0, 102),130	6631,(0, 104),130	6761,(0, 106),130	6891,(0, 108),130	7021,(0, 110),130	7151,(0, 112),130	7281,(0, 114),130	7411,(0, 116),130	7541,(0, 118),130	7671,(0, 120),130	7801,(0, 122),130	7931,(0, 124),130	8061,(0, 126),130	8191,(0, 128),130	8321,(0, 130),130	8451,(0, 132),130	8581,(0, 134),130	8711,(0, 136),130	8841,(0, 138),130	8971,(0, 140),130	9101,(0, 142),130	9231,(0, 144),130	9361,(0, 146),130	9491,(0, 148),130	9621,(0, 150),130	9751,(0, 152),130	9881,(0, 154),130	10011,(0, 156),130	10141,(0, 158),130	10271,(0, 160),130	10401,(0, 162),130	10531,(0, 164),130	10661,(0, 166),130	10791,(0, 168),130	10921,(0, 170),130	11051,(0, 172),130	11181,(0, 174),130	11311,(0, 176),130	11441,(0, 178),130	11571,(0, 180),130	11701,(0, 182),130	11831,(0, 184),130	11961,(0, 186),130	12091,(0, 188),130	12221,(0, 190),130	12351,(0, 192),130	12481,(0, 194),130	12611,(0, 196),130	12741,(0, 198),130	12871,(0, 200),130	
