103
# CPU
0,201,1	1,139,1	2,134,1	3,88,1	4,156,1	5,86,1	6,158,1	7,58,1	8,91,1	9,169,1	10,175,1	11,126,1	12,81,1	13,60,1	14,154,1	15,41,1	16,170,1	17,177,1	18,40,1	19,32,1	20,155,1	21,57,1	22,77,1	23,141,1	24,80,1	25,172,1	26,111,1	27,53,1	28,52,1	29,73,1	30,35,1	31,72,1	32,146,1	33,34,1	34,50,1	35,163,1	36,31,1	37,70,1	38,25,1	39,21,1	40,69,1	41,166,1	42,48,1	43,30,1	44,152,1	45,20,1	46,161,1	47,66,1	48,171,1	49,173,1	50,68,1	51,64,1	52,153,1	53,65,1	54,186,1	55,42,1	56,29,1	57,16,1	58,160,1	59,188,1	60,19,1	61,85,1	62,183,1	63,27,1	64,17,1	65,18,1	66,190,1	67,192,1	68,76,1	69,184,1	70,182,1	71,71,1	72,191,1	73,189,1	74,181,1	75,12,1	76,22,1	77,185,1	78,37,1	79,187,1	80,33,1	81,174,1	82,193,1	83,176,1	84,23,1	85,24,1	86,9,1	87,10,1	88,198,1	89,178,1	90,195,1	91,7,1	92,26,1	93,4,1	94,13,1	95,14,1	96,3,1	97,199,1	98,5,1	99,2,1	100,6,1	101,200,1	102,0,1	
5,136,1	8,137,1	11,129,1	12,138,1	14,124,1	18,120,1	21,121,1	24,122,1	27,140,1	28,142,1	30,143,1	34,145,1	37,147,1	40,149,1	43,150,1	44,102,1	46,100,1	50,151,1	53,157,1	56,159,1	61,167,1	64,168,1	69,79,1	72,74,1	77,59,1	81,47,1	85,51,1	89,38,1	91,194,1	93,196,1	95,197,1	96,11,1	97,8,1	98,15,1	99,1,1	100,36,1	
2,135,1	7,131,1	10,127,1	13,125,1	17,118,1	19,117,1	20,116,1	23,114,1	26,113,1	29,110,1	33,144,1	35,106,1	36,107,1	39,148,1	42,104,1	45,101,1	49,97,1	51,96,1	52,95,1	55,94,1	58,90,1	63,162,1	66,84,1	71,78,1	74,62,1	79,55,1	80,49,1	83,44,1	84,46,1	87,54,1	88,39,1	
3,133,1	4,132,1	6,130,1	9,128,1	15,123,1	16,119,1	22,115,1	25,112,1	31,109,1	32,108,1	38,105,1	41,103,1	47,99,1	48,98,1	54,93,1	57,92,1	59,164,1	60,165,1	62,89,1	65,87,1	67,82,1	68,83,1	70,75,1	73,63,1	75,61,1	76,67,1	78,56,1	82,45,1	86,43,1	90,28,1	92,180,1	94,179,1	
# Incoming
3,(135, 0),1	4,(133, 0),1	5,(132, 0),1	6,(136, 0),1	7,(130, 0),1	8,(131, 0),1	9,(137, 0),1	10,(128, 0),1	11,(127, 0),1	12,(129, 0),1	13,(138, 0),1	14,(125, 0),1	15,(124, 0),1	16,(123, 0),1	17,(119, 0),1	18,(118, 0),1	19,(120, 0),1	20,(117, 0),1	21,(116, 0),1	22,(121, 0),1	23,(115, 0),1	24,(114, 0),1	25,(122, 0),1	26,(112, 0),1	27,(113, 0),1	28,(140, 0),1	29,(142, 0),1	30,(110, 0),1	31,(143, 0),1	32,(109, 0),1	33,(108, 0),1	34,(144, 0),1	35,(145, 0),1	36,(106, 0),1	37,(107, 0),1	38,(147, 0),1	39,(105, 0),1	40,(148, 0),1	41,(149, 0),1	42,(103, 0),1	43,(104, 0),1	44,(150, 0),1	45,(102, 0),1	46,(101, 0),1	47,(100, 0),1	48,(99, 0),1	49,(98, 0),1	50,(97, 0),1	51,(151, 0),1	52,(96, 0),1	53,(95, 0),1	54,(157, 0),1	55,(93, 0),1	56,(94, 0),1	57,(159, 0),1	58,(92, 0),1	59,(90, 0),1	60,(164, 0),1	61,(165, 0),1	62,(167, 0),1	63,(89, 0),1	64,(162, 0),1	65,(168, 0),1	66,(87, 0),1	67,(84, 0),1	68,(82, 0),1	69,(83, 0),1	70,(79, 0),1	71,(75, 0),1	72,(78, 0),1	73,(74, 0),1	74,(63, 0),1	75,(62, 0),1	76,(61, 0),1	77,(67, 0),1	78,(59, 0),1	79,(56, 0),1	80,(55, 0),1	81,(49, 0),1	82,(47, 0),1	83,(45, 0),1	84,(44, 0),1	85,(46, 0),1	86,(51, 0),1	87,(43, 0),1	88,(54, 0),1	89,(39, 0),1	90,(38, 0),1	91,(28, 0),1	92,(194, 0),1	93,(180, 0),1	94,(196, 0),1	95,(179, 0),1	96,(197, 0),1	97,(11, 0),1	98,(8, 0),1	99,(15, 0),1	100,(1, 0),1	101,(36, 0),1	
4,(201, 136),1	7,(201, 137),1	10,(201, 129),1	11,(201, 138),1	13,(201, 124),1	17,(201, 120),1	20,(201, 121),1	23,(201, 122),1	26,(201, 140),1	27,(201, 142),1	29,(201, 143),1	33,(201, 145),1	36,(201, 147),1	39,(201, 149),1	42,(201, 150),1	43,(201, 102),1	45,(201, 100),1	49,(201, 151),1	52,(201, 157),1	55,(201, 159),1	60,(201, 167),1	63,(201, 168),1	68,(201, 79),1	71,(201, 74),1	76,(201, 59),1	80,(201, 47),1	84,(201, 51),1	88,(201, 38),1	90,(201, 194),1	92,(201, 196),1	94,(201, 197),1	95,(201, 11),1	96,(201, 8),1	97,(201, 15),1	98,(201, 1),1	99,(201, 36),1	
1,(201, 135),1	6,(201, 131),1	9,(201, 127),1	12,(201, 125),1	16,(201, 118),1	18,(201, 117),1	19,(201, 116),1	22,(201, 114),1	25,(201, 113),1	28,(201, 110),1	32,(201, 144),1	34,(201, 106),1	35,(201, 107),1	38,(201, 148),1	41,(201, 104),1	44,(201, 101),1	48,(201, 97),1	50,(201, 96),1	51,(201, 95),1	54,(201, 94),1	57,(201, 90),1	62,(201, 162),1	65,(201, 84),1	70,(201, 78),1	73,(201, 62),1	78,(201, 55),1	79,(201, 49),1	82,(201, 44),1	83,(201, 46),1	86,(201, 54),1	87,(201, 39),1	
2,(201, 133),1	3,(201, 132),1	5,(201, 130),1	8,(201, 128),1	14,(201, 123),1	15,(201, 119),1	21,(201, 115),1	24,(201, 112),1	30,(201, 109),1	31,(201, 108),1	37,(201, 105),1	40,(201, 103),1	46,(201, 99),1	47,(201, 98),1	53,(201, 93),1	56,(201, 92),1	58,(201, 164),1	59,(201, 165),1	61,(201, 89),1	64,(201, 87),1	66,(201, 82),1	67,(201, 83),1	69,(201, 75),1	72,(201, 63),1	74,(201, 61),1	75,(201, 67),1	77,(201, 56),1	81,(201, 45),1	85,(201, 43),1	89,(201, 28),1	91,(201, 180),1	93,(201, 179),1	
# Outgoing
1,(201, 135),1	2,(201, 133),1	3,(201, 132),1	4,(201, 136),1	5,(201, 130),1	6,(201, 131),1	7,(201, 137),1	8,(201, 128),1	9,(201, 127),1	10,(201, 129),1	11,(201, 138),1	12,(201, 125),1	13,(201, 124),1	14,(201, 123),1	15,(201, 119),1	16,(201, 118),1	17,(201, 120),1	18,(201, 117),1	19,(201, 116),1	20,(201, 121),1	21,(201, 115),1	22,(201, 114),1	23,(201, 122),1	24,(201, 112),1	25,(201, 113),1	26,(201, 140),1	27,(201, 142),1	28,(201, 110),1	29,(201, 143),1	30,(201, 109),1	31,(201, 108),1	32,(201, 144),1	33,(201, 145),1	34,(201, 106),1	35,(201, 107),1	36,(201, 147),1	37,(201, 105),1	38,(201, 148),1	39,(201, 149),1	40,(201, 103),1	41,(201, 104),1	42,(201, 150),1	43,(201, 102),1	44,(201, 101),1	45,(201, 100),1	46,(201, 99),1	47,(201, 98),1	48,(201, 97),1	49,(201, 151),1	50,(201, 96),1	51,(201, 95),1	52,(201, 157),1	53,(201, 93),1	54,(201, 94),1	55,(201, 159),1	56,(201, 92),1	57,(201, 90),1	58,(201, 164),1	59,(201, 165),1	60,(201, 167),1	61,(201, 89),1	62,(201, 162),1	63,(201, 168),1	64,(201, 87),1	65,(201, 84),1	66,(201, 82),1	67,(201, 83),1	68,(201, 79),1	69,(201, 75),1	70,(201, 78),1	71,(201, 74),1	72,(201, 63),1	73,(201, 62),1	74,(201, 61),1	75,(201, 67),1	76,(201, 59),1	77,(201, 56),1	78,(201, 55),1	79,(201, 49),1	80,(201, 47),1	81,(201, 45),1	82,(201, 44),1	83,(201, 46),1	84,(201, 51),1	85,(201, 43),1	86,(201, 54),1	87,(201, 39),1	88,(201, 38),1	89,(201, 28),1	90,(201, 194),1	91,(201, 180),1	92,(201, 196),1	93,(201, 179),1	94,(201, 197),1	95,(201, 11),1	96,(201, 8),1	97,(201, 15),1	98,(201, 1),1	99,(201, 36),1	
6,(136, 0),1	9,(137, 0),1	12,(129, 0),1	13,(138, 0),1	15,(124, 0),1	19,(120, 0),1	22,(121, 0),1	25,(122, 0),1	28,(140, 0),1	29,(142, 0),1	31,(143, 0),1	35,(145, 0),1	38,(147, 0),1	41,(149, 0),1	44,(150, 0),1	45,(102, 0),1	47,(100, 0),1	51,(151, 0),1	54,(157, 0),1	57,(159, 0),1	62,(167, 0),1	65,(168, 0),1	70,(79, 0),1	73,(74, 0),1	78,(59, 0),1	82,(47, 0),1	86,(51, 0),1	90,(38, 0),1	92,(194, 0),1	94,(196, 0),1	96,(197, 0),1	97,(11, 0),1	98,(8, 0),1	99,(15, 0),1	100,(1, 0),1	101,(36, 0),1	
3,(135, 0),1	8,(131, 0),1	11,(127, 0),1	14,(125, 0),1	18,(118, 0),1	20,(117, 0),1	21,(116, 0),1	24,(114, 0),1	27,(113, 0),1	30,(110, 0),1	34,(144, 0),1	36,(106, 0),1	37,(107, 0),1	40,(148, 0),1	43,(104, 0),1	46,(101, 0),1	50,(97, 0),1	52,(96, 0),1	53,(95, 0),1	56,(94, 0),1	59,(90, 0),1	64,(162, 0),1	67,(84, 0),1	72,(78, 0),1	75,(62, 0),1	80,(55, 0),1	81,(49, 0),1	84,(44, 0),1	85,(46, 0),1	88,(54, 0),1	89,(39, 0),1	
4,(133, 0),1	5,(132, 0),1	7,(130, 0),1	10,(128, 0),1	16,(123, 0),1	17,(119, 0),1	23,(115, 0),1	26,(112, 0),1	32,(109, 0),1	33,(108, 0),1	39,(105, 0),1	42,(103, 0),1	48,(99, 0),1	49,(98, 0),1	55,(93, 0),1	58,(92, 0),1	60,(164, 0),1	61,(165, 0),1	63,(89, 0),1	66,(87, 0),1	68,(82, 0),1	69,(83, 0),1	71,(75, 0),1	74,(63, 0),1	76,(61, 0),1	77,(67, 0),1	79,(56, 0),1	83,(45, 0),1	87,(43, 0),1	91,(28, 0),1	93,(180, 0),1	95,(179, 0),1	
