7937
# CPU
397,10,3	793,20,3	1189,30,3	1585,40,3	1981,50,3	2377,60,3	2773,70,3	3169,80,3	3565,90,3	3961,100,3	4357,110,3	4753,120,3	5149,130,3	5545,140,3	5941,150,3	6337,160,3	6733,170,3	7129,180,3	7525,190,3	7921,200,3	
353,9,3	749,19,3	1145,29,3	1541,39,3	1937,49,3	2333,59,3	2729,69,3	3125,79,3	3521,89,3	3917,99,3	4313,109,3	4709,119,3	5105,129,3	5501,139,3	5897,149,3	6293,159,3	6689,169,3	7085,179,3	7481,189,3	7877,199,3	
309,8,3	705,18,3	1101,28,3	1497,38,3	1893,48,3	2289,58,3	2685,68,3	3081,78,3	3477,88,3	3873,98,3	4269,108,3	4665,118,3	5061,128,3	5457,138,3	5853,148,3	6249,158,3	6645,168,3	7041,178,3	7437,188,3	7833,198,3	
265,7,3	661,17,3	1057,27,3	1453,37,3	1849,47,3	2245,57,3	2641,67,3	3037,77,3	3433,87,3	3829,97,3	4225,107,3	4621,117,3	5017,127,3	5413,137,3	5809,147,3	6205,157,3	6601,167,3	6997,177,3	7393,187,3	7789,197,3	
221,6,3	617,16,3	1013,26,3	1409,36,3	1805,46,3	2201,56,3	2597,66,3	2993,76,3	3389,86,3	3785,96,3	4181,106,3	4577,116,3	4973,126,3	5369,136,3	5765,146,3	6161,156,3	6557,166,3	6953,176,3	7349,186,3	7745,196,3	
177,5,3	573,15,3	969,25,3	1365,35,3	1761,45,3	2157,55,3	2553,65,3	2949,75,3	3345,85,3	3741,95,3	4137,105,3	4533,115,3	4929,125,3	5325,135,3	5721,145,3	6117,155,3	6513,165,3	6909,175,3	7305,185,3	7701,195,3	
133,4,3	529,14,3	925,24,3	1321,34,3	1717,44,3	2113,54,3	2509,64,3	2905,74,3	3301,84,3	3697,94,3	4093,104,3	4489,114,3	4885,124,3	5281,134,3	5677,144,3	6073,154,3	6469,164,3	6865,174,3	7261,184,3	7657,194,3	
89,3,3	485,13,3	881,23,3	1277,33,3	1673,43,3	2069,53,3	2465,63,3	2861,73,3	3257,83,3	3653,93,3	4049,103,3	4445,113,3	4841,123,3	5237,133,3	5633,143,3	6029,153,3	6425,163,3	6821,173,3	7217,183,3	7613,193,3	
45,2,3	441,12,3	837,22,3	1233,32,3	1629,42,3	2025,52,3	2421,62,3	2817,72,3	3213,82,3	3609,92,3	4005,102,3	4401,112,3	4797,122,3	5193,132,3	5589,142,3	5985,152,3	6381,162,3	6777,172,3	7173,182,3	7569,192,3	
0,0,1	1,1,3	4,21,3	7,61,3	10,141,3	13,191,3	16,181,3	19,171,3	22,161,3	25,131,3	28,151,3	31,121,3	34,111,3	37,101,3	40,91,3	43,81,3	46,51,3	49,71,3	52,41,3	55,11,3	58,31,3	7936,201,1	
# Incoming
353,(0, 10),44	749,(0, 20),44	1145,(0, 30),44	1541,(0, 40),44	1937,(0, 50),44	2333,(0, 60),44	2729,(0, 70),44	3125,(0, 80),44	3521,(0, 90),44	3917,(0, 100),44	4313,(0, 110),44	4709,(0, 120),44	5105,(0, 130),44	5501,(0, 140),44	5897,(0, 150),44	6293,(0, 160),44	6689,(0, 170),44	7085,(0, 180),44	7481,(0, 190),44	7877,(0, 200),44	
309,(0, 9),44	705,(0, 19),44	1101,(0, 29),44	1497,(0, 39),44	1893,(0, 49),44	2289,(0, 59),44	2685,(0, 69),44	3081,(0, 79),44	3477,(0, 89),44	3873,(0, 99),44	4269,(0, 109),44	4665,(0, 119),44	5061,(0, 129),44	5457,(0, 139),44	5853,(0, 149),44	6249,(0, 159),44	6645,(0, 169),44	7041,(0, 179),44	7437,(0, 189),44	7833,(0, 199),44	
265,(0, 8),44	661,(0, 18),44	1057,(0, 28),44	1453,(0, 38),44	1849,(0, 48),44	2245,(0, 58),44	2641,(0, 68),44	3037,(0, 78),44	3433,(0, 88),44	3829,(0, 98),44	4225,(0, 108),44	4621,(0, 118),44	5017,(0, 128),44	5413,(0, 138),44	5809,(0, 148),44	6205,(0, 158),44	6601,(0, 168),44	6997,(0, 178),44	7393,(0, 188),44	7789,(0, 198),44	
221,(0, 7),44	617,(0, 17),44	1013,(0, 27),44	1409,(0, 37),44	1805,(0, 47),44	2201,(0, 57),44	2597,(0, 67),44	2993,(0, 77),44	3389,(0, 87),44	3785,(0, 97),44	4181,(0, 107),44	4577,(0, 117),44	4973,(0, 127),44	5369,(0, 137),44	5765,(0, 147),44	6161,(0, 157),44	6557,(0, 167),44	6953,(0, 177),44	7349,(0, 187),44	7745,(0, 197),44	
177,(0, 6),44	573,(0, 16),44	969,(0, 26),44	1365,(0, 36),44	1761,(0, 46),44	2157,(0, 56),44	2553,(0, 66),44	2949,(0, 76),44	3345,(0, 86),44	3741,(0, 96),44	4137,(0, 106),44	4533,(0, 116),44	4929,(0, 126),44	5325,(0, 136),44	5721,(0, 146),44	6117,(0, 156),44	6513,(0, 166),44	6909,(0, 176),44	7305,(0, 186),44	7701,(0, 196),44	
133,(0, 5),44	529,(0, 15),44	925,(0, 25),44	1321,(0, 35),44	1717,(0, 45),44	2113,(0, 55),44	2509,(0, 65),44	2905,(0, 75),44	3301,(0, 85),44	3697,(0, 95),44	4093,(0, 105),44	4489,(0, 115),44	4885,(0, 125),44	5281,(0, 135),44	5677,(0, 145),44	6073,(0, 155),44	6469,(0, 165),44	6865,(0, 175),44	7261,(0, 185),44	7657,(0, 195),44	
89,(0, 4),44	485,(0, 14),44	881,(0, 24),44	1277,(0, 34),44	1673,(0, 44),44	2069,(0, 54),44	2465,(0, 64),44	2861,(0, 74),44	3257,(0, 84),44	3653,(0, 94),44	4049,(0, 104),44	4445,(0, 114),44	4841,(0, 124),44	5237,(0, 134),44	5633,(0, 144),44	6029,(0, 154),44	6425,(0, 164),44	6821,(0, 174),44	7217,(0, 184),44	7613,(0, 194),44	
45,(0, 3),44	441,(0, 13),44	837,(0, 23),44	1233,(0, 33),44	1629,(0, 43),44	2025,(0, 53),44	2421,(0, 63),44	2817,(0, 73),44	3213,(0, 83),44	3609,(0, 93),44	4005,(0, 103),44	4401,(0, 113),44	4797,(0, 123),44	5193,(0, 133),44	5589,(0, 143),44	5985,(0, 153),44	6381,(0, 163),44	6777,(0, 173),44	7173,(0, 183),44	7569,(0, 193),44	
1,(0, 2),44	397,(0, 12),44	793,(0, 22),44	1189,(0, 32),44	1585,(0, 42),44	1981,(0, 52),44	2377,(0, 62),44	2773,(0, 72),44	3169,(0, 82),44	3565,(0, 92),44	3961,(0, 102),44	4357,(0, 112),44	4753,(0, 122),44	5149,(0, 132),44	5545,(0, 142),44	5941,(0, 152),44	6337,(0, 162),44	6733,(0, 172),44	7129,(0, 182),44	7525,(0, 192),44	
48,(2, 201),12	92,(3, 201),12	136,(4, 201),12	180,(5, 201),12	224,(6, 201),12	268,(7, 201),12	312,(8, 201),12	356,(9, 201),12	400,(10, 201),12	444,(12, 201),12	488,(13, 201),12	532,(14, 201),12	576,(15, 201),12	620,(16, 201),12	664,(17, 201),12	708,(18, 201),12	752,(19, 201),12	796,(20, 201),12	840,(22, 201),12	884,(23, 201),12	928,(24, 201),12	972,(25, 201),12	1016,(26, 201),12	1060,(27, 201),12	1104,(28, 201),12	1148,(29, 201),12	1192,(30, 201),12	1236,(32, 201),12	1280,(33, 201),12	1324,(34, 201),12	1368,(35, 201),12	1412,(36, 201),12	1456,(37, 201),12	1500,(38, 201),12	1544,(39, 201),12	1588,(40, 201),12	1632,(42, 201),12	1676,(43, 201),12	1720,(44, 201),12	1764,(45, 201),12	1808,(46, 201),12	1852,(47, 201),12	1896,(48, 201),12	1940,(49, 201),12	1984,(50, 201),12	2028,(52, 201),12	2072,(53, 201),12	2116,(54, 201),12	2160,(55, 201),12	2204,(56, 201),12	2248,(57, 201),12	2292,(58, 201),12	2336,(59, 201),12	2380,(60, 201),12	2424,(62, 201),12	2468,(63, 201),12	2512,(64, 201),12	2556,(65, 201),12	2600,(66, 201),12	2644,(67, 201),12	2688,(68, 201),12	2732,(69, 201),12	2776,(70, 201),12	2820,(72, 201),12	2864,(73, 201),12	2908,(74, 201),12	2952,(75, 201),12	2996,(76, 201),12	3040,(77, 201),12	3084,(78, 201),12	3128,(79, 201),12	3172,(80, 201),12	3216,(82, 201),12	3260,(83, 201),12	3304,(84, 201),12	3348,(85, 201),12	3392,(86, 201),12	3436,(87, 201),12	3480,(88, 201),12	3524,(89, 201),12	3568,(90, 201),12	3612,(92, 201),12	3656,(93, 201),12	3700,(94, 201),12	3744,(95, 201),12	3788,(96, 201),12	3832,(97, 201),12	3876,(98, 201),12	3920,(99, 201),12	3964,(100, 201),12	4008,(102, 201),12	4052,(103, 201),12	4096,(104, 201),12	4140,(105, 201),12	4184,(106, 201),12	4228,(107, 201),12	4272,(108, 201),12	4316,(109, 201),12	4360,(110, 201),12	4404,(112, 201),12	4448,(113, 201),12	4492,(114, 201),12	4536,(115, 201),12	4580,(116, 201),12	4624,(117, 201),12	4668,(118, 201),12	4712,(119, 201),12	4756,(120, 201),12	4800,(122, 201),12	4844,(123, 201),12	4888,(124, 201),12	4932,(125, 201),12	4976,(126, 201),12	5020,(127, 201),12	5064,(128, 201),12	5108,(129, 201),12	5152,(130, 201),12	5196,(132, 201),12	5240,(133, 201),12	5284,(134, 201),12	5328,(135, 201),12	5372,(136, 201),12	5416,(137, 201),12	5460,(138, 201),12	5504,(139, 201),12	5548,(140, 201),12	5592,(142, 201),12	5636,(143, 201),12	5680,(144, 201),12	5724,(145, 201),12	5768,(146, 201),12	5812,(147, 201),12	5856,(148, 201),12	5900,(149, 201),12	5944,(150, 201),12	5988,(152, 201),12	6032,(153, 201),12	6076,(154, 201),12	6120,(155, 201),12	6164,(156, 201),12	6208,(157, 201),12	6252,(158, 201),12	6296,(159, 201),12	6340,(160, 201),12	6384,(162, 201),12	6428,(163, 201),12	6472,(164, 201),12	6516,(165, 201),12	6560,(166, 201),12	6604,(167, 201),12	6648,(168, 201),12	6692,(169, 201),12	6736,(170, 201),12	6780,(172, 201),12	6824,(173, 201),12	6868,(174, 201),12	6912,(175, 201),12	6956,(176, 201),12	7000,(177, 201),12	7044,(178, 201),12	7088,(179, 201),12	7132,(180, 201),12	7176,(182, 201),12	7220,(183, 201),12	7264,(184, 201),12	7308,(185, 201),12	7352,(186, 201),12	7396,(187, 201),12	7440,(188, 201),12	7484,(189, 201),12	7528,(190, 201),12	7572,(192, 201),12	7616,(193, 201),12	7660,(194, 201),12	7704,(195, 201),12	7748,(196, 201),12	7792,(197, 201),12	7836,(198, 201),12	7880,(199, 201),12	7924,(200, 201),12	
# Outgoing
400,(10, 201),12	796,(20, 201),12	1192,(30, 201),12	1588,(40, 201),12	1984,(50, 201),12	2380,(60, 201),12	2776,(70, 201),12	3172,(80, 201),12	3568,(90, 201),12	3964,(100, 201),12	4360,(110, 201),12	4756,(120, 201),12	5152,(130, 201),12	5548,(140, 201),12	5944,(150, 201),12	6340,(160, 201),12	6736,(170, 201),12	7132,(180, 201),12	7528,(190, 201),12	7924,(200, 201),12	
356,(9, 201),12	752,(19, 201),12	1148,(29, 201),12	1544,(39, 201),12	1940,(49, 201),12	2336,(59, 201),12	2732,(69, 201),12	3128,(79, 201),12	3524,(89, 201),12	3920,(99, 201),12	4316,(109, 201),12	4712,(119, 201),12	5108,(129, 201),12	5504,(139, 201),12	5900,(149, 201),12	6296,(159, 201),12	6692,(169, 201),12	7088,(179, 201),12	7484,(189, 201),12	7880,(199, 201),12	
312,(8, 201),12	708,(18, 201),12	1104,(28, 201),12	1500,(38, 201),12	1896,(48, 201),12	2292,(58, 201),12	2688,(68, 201),12	3084,(78, 201),12	3480,(88, 201),12	3876,(98, 201),12	4272,(108, 201),12	4668,(118, 201),12	5064,(128, 201),12	5460,(138, 201),12	5856,(148, 201),12	6252,(158, 201),12	6648,(168, 201),12	7044,(178, 201),12	7440,(188, 201),12	7836,(198, 201),12	
268,(7, 201),12	664,(17, 201),12	1060,(27, 201),12	1456,(37, 201),12	1852,(47, 201),12	2248,(57, 201),12	2644,(67, 201),12	3040,(77, 201),12	3436,(87, 201),12	3832,(97, 201),12	4228,(107, 201),12	4624,(117, 201),12	5020,(127, 201),12	5416,(137, 201),12	5812,(147, 201),12	6208,(157, 201),12	6604,(167, 201),12	7000,(177, 201),12	7396,(187, 201),12	7792,(197, 201),12	
224,(6, 201),12	620,(16, 201),12	1016,(26, 201),12	1412,(36, 201),12	1808,(46, 201),12	2204,(56, 201),12	2600,(66, 201),12	2996,(76, 201),12	3392,(86, 201),12	3788,(96, 201),12	4184,(106, 201),12	4580,(116, 201),12	4976,(126, 201),12	5372,(136, 201),12	5768,(146, 201),12	6164,(156, 201),12	6560,(166, 201),12	6956,(176, 201),12	7352,(186, 201),12	7748,(196, 201),12	
180,(5, 201),12	576,(15, 201),12	972,(25, 201),12	1368,(35, 201),12	1764,(45, 201),12	2160,(55, 201),12	2556,(65, 201),12	2952,(75, 201),12	3348,(85, 201),12	3744,(95, 201),12	4140,(105, 201),12	4536,(115, 201),12	4932,(125, 201),12	5328,(135, 201),12	5724,(145, 201),12	6120,(155, 201),12	6516,(165, 201),12	6912,(175, 201),12	7308,(185, 201),12	7704,(195, 201),12	
136,(4, 201),12	532,(14, 201),12	928,(24, 201),12	1324,(34, 201),12	1720,(44, 201),12	2116,(54, 201),12	2512,(64, 201),12	2908,(74, 201),12	3304,(84, 201),12	3700,(94, 201),12	4096,(104, 201),12	4492,(114, 201),12	4888,(124, 201),12	5284,(134, 201),12	5680,(144, 201),12	6076,(154, 201),12	6472,(164, 201),12	6868,(174, 201),12	7264,(184, 201),12	7660,(194, 201),12	
92,(3, 201),12	488,(13, 201),12	884,(23, 201),12	1280,(33, 201),12	1676,(43, 201),12	2072,(53, 201),12	2468,(63, 201),12	2864,(73, 201),12	3260,(83, 201),12	3656,(93, 201),12	4052,(103, 201),12	4448,(113, 201),12	4844,(123, 201),12	5240,(133, 201),12	5636,(143, 201),12	6032,(153, 201),12	6428,(163, 201),12	6824,(173, 201),12	7220,(183, 201),12	7616,(193, 201),12	
48,(2, 201),12	444,(12, 201),12	840,(22, 201),12	1236,(32, 201),12	1632,(42, 201),12	2028,(52, 201),12	2424,(62, 201),12	2820,(72, 201),12	3216,(82, 201),12	3612,(92, 201),12	4008,(102, 201),12	4404,(112, 201),12	4800,(122, 201),12	5196,(132, 201),12	5592,(142, 201),12	5988,(152, 201),12	6384,(162, 201),12	6780,(172, 201),12	7176,(182, 201),12	7572,(192, 201),12	
1,(0, 2),44	45,(0, 3),44	89,(0, 4),44	133,(0, 5),44	177,(0, 6),44	221,(0, 7),44	265,(0, 8),44	309,(0, 9),44	353,(0, 10),44	397,(0, 12),44	441,(0, 13),44	485,(0, 14),44	529,(0, 15),44	573,(0, 16),44	617,(0, 17),44	661,(0, 18),44	705,(0, 19),44	749,(0, 20),44	793,(0, 22),44	837,(0, 23),44	881,(0, 24),44	925,(0, 25),44	969,(0, 26),44	1013,(0, 27),44	1057,(0, 28),44	1101,(0, 29),44	1145,(0, 30),44	1189,(0, 32),44	1233,(0, 33),44	1277,(0, 34),44	1321,(0, 35),44	1365,(0, 36),44	1409,(0, 37),44	1453,(0, 38),44	1497,(0, 39),44	1541,(0, 40),44	1585,(0, 42),44	1629,(0, 43),44	1673,(0, 44),44	1717,(0, 45),44	1761,(0, 46),44	1805,(0, 47),44	1849,(0, 48),44	1893,(0, 49),44	1937,(0, 50),44	1981,(0, 52),44	2025,(0, 53),44	2069,(0, 54),44	2113,(0, 55),44	2157,(0, 56),44	2201,(0, 57),44	2245,(0, 58),44	2289,(0, 59),44	2333,(0, 60),44	2377,(0, 62),44	2421,(0, 63),44	2465,(0, 64),44	2509,(0, 65),44	2553,(0, 66),44	2597,(0, 67),44	2641,(0, 68),44	2685,(0, 69),44	2729,(0, 70),44	2773,(0, 72),44	2817,(0, 73),44	2861,(0, 74),44	2905,(0, 75),44	2949,(0, 76),44	2993,(0, 77),44	3037,(0, 78),44	3081,(0, 79),44	3125,(0, 80),44	3169,(0, 82),44	3213,(0, 83),44	3257,(0, 84),44	3301,(0, 85),44	3345,(0, 86),44	3389,(0, 87),44	3433,(0, 88),44	3477,(0, 89),44	3521,(0, 90),44	3565,(0, 92),44	3609,(0, 93),44	3653,(0, 94),44	3697,(0, 95),44	3741,(0, 96),44	3785,(0, 97),44	3829,(0, 98),44	3873,(0, 99),44	3917,(0, 100),44	3961,(0, 102),44	4005,(0, 103),44	4049,(0, 104),44	4093,(0, 105),44	4137,(0, 106),44	4181,(0, 107),44	4225,(0, 108),44	4269,(0, 109),44	4313,(0, 110),44	4357,(0, 112),44	4401,(0, 113),44	4445,(0, 114),44	4489,(0, 115),44	4533,(0, 116),44	4577,(0, 117),44	4621,(0, 118),44	4665,(0, 119),44	4709,(0, 120),44	4753,(0, 122),44	4797,(0, 123),44	4841,(0, 124),44	4885,(0, 125),44	4929,(0, 126),44	4973,(0, 127),44	5017,(0, 128),44	5061,(0, 129),44	5105,(0, 130),44	5149,(0, 132),44	5193,(0, 133),44	5237,(0, 134),44	5281,(0, 135),44	5325,(0, 136),44	5369,(0, 137),44	5413,(0, 138),44	5457,(0, 139),44	5501,(0, 140),44	5545,(0, 142),44	5589,(0, 143),44	5633,(0, 144),44	5677,(0, 145),44	5721,(0, 146),44	5765,(0, 147),44	5809,(0, 148),44	5853,(0, 149),44	5897,(0, 150),44	5941,(0, 152),44	5985,(0, 153),44	6029,(0, 154),44	6073,(0, 155),44	6117,(0, 156),44	6161,(0, 157),44	6205,(0, 158),44	6249,(0, 159),44	6293,(0, 160),44	6337,(0, 162),44	6381,(0, 163),44	6425,(0, 164),44	6469,(0, 165),44	6513,(0, 166),44	6557,(0, 167),44	6601,(0, 168),44	6645,(0, 169),44	6689,(0, 170),44	6733,(0, 172),44	6777,(0, 173),44	6821,(0, 174),44	6865,(0, 175),44	6909,(0, 176),44	6953,(0, 177),44	6997,(0, 178),44	7041,(0, 179),44	7085,(0, 180),44	7129,(0, 182),44	7173,(0, 183),44	7217,(0, 184),44	7261,(0, 185),44	7305,(0, 186),44	7349,(0, 187),44	7393,(0, 188),44	7437,(0, 189),44	7481,(0, 190),44	7525,(0, 192),44	7569,(0, 193),44	7613,(0, 194),44	7657,(0, 195),44	7701,(0, 196),44	7745,(0, 197),44	7789,(0, 198),44	7833,(0, 199),44	7877,(0, 200),44	
