178
# CPU
0,201,1	1,200,1	2,138,1	3,139,1	4,137,1	5,136,1	6,135,1	7,140,1	8,134,1	9,133,1	10,132,1	11,141,1	12,130,1	13,129,1	14,142,1	15,128,1	16,143,1	17,127,1	18,144,1	19,125,1	20,124,1	21,145,1	22,123,1	23,122,1	24,121,1	25,146,1	26,119,1	27,118,1	28,147,1	29,117,1	30,148,1	31,116,1	32,149,1	33,114,1	34,113,1	35,150,1	36,112,1	37,111,1	38,110,1	39,151,1	40,108,1	41,107,1	42,152,1	43,106,1	44,153,1	45,105,1	46,154,1	47,103,1	48,102,1	49,155,1	50,101,1	51,100,1	52,99,1	53,156,1	54,97,1	55,96,1	56,157,1	57,95,1	58,158,1	59,94,1	60,159,1	61,92,1	62,91,1	63,160,1	64,90,1	65,81,1	66,80,1	67,82,1	68,78,1	69,77,1	70,83,1	71,76,1	72,84,1	73,75,1	74,85,1	75,73,1	76,72,1	77,86,1	78,71,1	79,87,1	80,70,1	81,88,1	82,68,1	83,67,1	84,89,1	85,66,1	86,161,1	87,65,1	88,162,1	89,63,1	90,62,1	91,163,1	92,61,1	93,164,1	94,60,1	95,165,1	96,58,1	97,57,1	98,166,1	99,56,1	100,167,1	101,55,1	102,168,1	103,53,1	104,52,1	105,169,1	106,51,1	107,170,1	108,50,1	109,171,1	110,48,1	111,47,1	112,172,1	113,46,1	114,173,1	115,45,1	116,174,1	117,43,1	118,42,1	119,175,1	120,41,1	121,184,1	122,183,1	123,185,1	124,181,1	125,180,1	126,186,1	127,179,1	128,178,1	129,177,1	130,187,1	131,40,1	132,39,1	133,188,1	134,38,1	135,37,1	136,36,1	137,189,1	138,34,1	139,33,1	140,190,1	141,32,1	142,31,1	143,30,1	144,191,1	145,28,1	146,27,1	147,192,1	148,26,1	149,17,1	150,16,1	151,18,1	152,19,1	153,14,1	154,20,1	155,13,1	156,21,1	157,12,1	158,22,1	159,23,1	160,10,1	161,24,1	162,9,1	163,1,1	164,2,1	165,3,1	166,5,1	167,6,1	168,7,1	169,8,1	170,25,1	171,193,1	172,194,1	173,196,1	174,197,1	175,198,1	176,199,1	177,0,1	
8,131,1	15,126,1	22,120,1	29,115,1	36,109,1	43,104,1	50,98,1	57,93,1	64,79,1	71,74,1	78,69,1	85,64,1	92,59,1	99,54,1	106,49,1	113,44,1	120,182,1	127,176,1	134,35,1	141,29,1	148,15,1	155,11,1	162,4,1	169,195,1	
# Incoming
9,(131, 0),3	16,(126, 0),3	23,(120, 0),3	30,(115, 0),3	37,(109, 0),3	44,(104, 0),3	51,(98, 0),3	58,(93, 0),3	65,(79, 0),3	72,(74, 0),3	79,(69, 0),3	86,(64, 0),3	93,(59, 0),3	100,(54, 0),3	107,(49, 0),3	114,(44, 0),3	121,(182, 0),3	128,(176, 0),3	135,(35, 0),3	142,(29, 0),3	149,(15, 0),3	156,(11, 0),3	163,(4, 0),3	170,(195, 0),3	
1,(201, 131),7	8,(201, 126),7	15,(201, 120),7	22,(201, 115),7	29,(201, 109),7	36,(201, 104),7	43,(201, 98),7	50,(201, 93),7	57,(201, 79),7	64,(201, 74),7	71,(201, 69),7	78,(201, 64),7	85,(201, 59),7	92,(201, 54),7	99,(201, 49),7	106,(201, 44),7	113,(201, 182),7	120,(201, 176),7	127,(201, 35),7	134,(201, 29),7	141,(201, 15),7	148,(201, 11),7	155,(201, 4),7	162,(201, 195),7	
# Outgoing
1,(201, 131),7	8,(201, 126),7	15,(201, 120),7	22,(201, 115),7	29,(201, 109),7	36,(201, 104),7	43,(201, 98),7	50,(201, 93),7	57,(201, 79),7	64,(201, 74),7	71,(201, 69),7	78,(201, 64),7	85,(201, 59),7	92,(201, 54),7	99,(201, 49),7	106,(201, 44),7	113,(201, 182),7	120,(201, 176),7	127,(201, 35),7	134,(201, 29),7	141,(201, 15),7	148,(201, 11),7	155,(201, 4),7	162,(201, 195),7	
9,(131, 0),3	16,(126, 0),3	23,(120, 0),3	30,(115, 0),3	37,(109, 0),3	44,(104, 0),3	51,(98, 0),3	58,(93, 0),3	65,(79, 0),3	72,(74, 0),3	79,(69, 0),3	86,(64, 0),3	93,(59, 0),3	100,(54, 0),3	107,(49, 0),3	114,(44, 0),3	121,(182, 0),3	128,(176, 0),3	135,(35, 0),3	142,(29, 0),3	149,(15, 0),3	156,(11, 0),3	163,(4, 0),3	170,(195, 0),3	
