1059
# CPU
433,10,1	865,20,1	
385,9,1	817,19,1	
337,8,1	769,18,1	
289,7,1	721,17,1	
241,6,1	673,16,1	
193,5,1	625,15,1	
145,4,1	577,14,1	
97,3,1	529,13,1	
49,2,1	481,12,1	
0,0,1	1,1,1	2,11,1	1058,21,1	
# Incoming
385,(0, 10),48	817,(0, 20),48	
337,(0, 9),48	769,(0, 19),48	
289,(0, 8),48	721,(0, 18),48	
241,(0, 7),48	673,(0, 17),48	
193,(0, 6),48	625,(0, 16),48	
145,(0, 5),48	577,(0, 15),48	
97,(0, 4),48	529,(0, 14),48	
49,(0, 3),48	481,(0, 13),48	
1,(0, 2),48	433,(0, 12),48	
50,(2, 21),56	106,(3, 21),56	162,(4, 21),56	218,(5, 21),56	274,(6, 21),56	330,(7, 21),56	386,(8, 21),56	442,(9, 21),56	498,(10, 21),56	554,(12, 21),56	610,(13, 21),56	666,(14, 21),56	722,(15, 21),56	778,(16, 21),56	834,(17, 21),56	890,(18, 21),56	946,(19, 21),56	1002,(20, 21),56	
# Outgoing
498,(10, 21),56	1002,(20, 21),56	
442,(9, 21),56	946,(19, 21),56	
386,(8, 21),56	890,(18, 21),56	
330,(7, 21),56	834,(17, 21),56	
274,(6, 21),56	778,(16, 21),56	
218,(5, 21),56	722,(15, 21),56	
162,(4, 21),56	666,(14, 21),56	
106,(3, 21),56	610,(13, 21),56	
50,(2, 21),56	554,(12, 21),56	
1,(0, 2),48	49,(0, 3),48	97,(0, 4),48	145,(0, 5),48	193,(0, 6),48	241,(0, 7),48	289,(0, 8),48	337,(0, 9),48	385,(0, 10),48	433,(0, 12),48	481,(0, 13),48	529,(0, 14),48	577,(0, 15),48	625,(0, 16),48	673,(0, 17),48	721,(0, 18),48	769,(0, 19),48	817,(0, 20),48	
