576
# CPU
55,3,1	109,6,1	163,9,1	217,12,1	271,15,1	325,18,1	
28,2,1	82,5,1	136,8,1	190,11,1	244,14,1	298,17,1	352,20,1	
0,0,1	1,1,1	2,7,1	3,16,1	4,19,1	5,13,1	6,4,1	7,10,1	575,21,1	
# Incoming
28,(0, 3),27	82,(0, 6),27	136,(0, 9),27	190,(0, 12),27	244,(0, 15),27	298,(0, 18),27	
1,(0, 2),27	55,(0, 5),27	109,(0, 8),27	163,(0, 11),27	217,(0, 14),27	271,(0, 17),27	325,(0, 20),27	
29,(2, 21),42	71,(3, 21),42	113,(5, 21),42	155,(6, 21),42	197,(8, 21),42	239,(9, 21),42	281,(11, 21),42	323,(12, 21),42	365,(14, 21),42	407,(15, 21),42	449,(17, 21),42	491,(18, 21),42	533,(20, 21),42	
# Outgoing
71,(3, 21),42	155,(6, 21),42	239,(9, 21),42	323,(12, 21),42	407,(15, 21),42	491,(18, 21),42	
29,(2, 21),42	113,(5, 21),42	197,(8, 21),42	281,(11, 21),42	365,(14, 21),42	449,(17, 21),42	533,(20, 21),42	
1,(0, 2),27	28,(0, 3),27	55,(0, 5),27	82,(0, 6),27	109,(0, 8),27	136,(0, 9),27	163,(0, 11),27	190,(0, 12),27	217,(0, 14),27	244,(0, 15),27	271,(0, 17),27	298,(0, 18),27	325,(0, 20),27	
