131
# CPU
25,4,1	49,8,1	73,12,1	97,16,1	121,20,1	
17,3,1	41,7,1	65,11,1	89,15,1	113,19,1	
9,2,1	33,6,1	57,10,1	81,14,1	105,18,1	
0,0,1	1,1,1	2,9,1	3,17,1	4,5,1	5,13,1	130,21,1	
# Incoming
17,(0, 4),8	41,(0, 8),8	65,(0, 12),8	89,(0, 16),8	113,(0, 20),8	
9,(0, 3),8	33,(0, 7),8	57,(0, 11),8	81,(0, 15),8	105,(0, 19),8	
1,(0, 2),8	25,(0, 6),8	49,(0, 10),8	73,(0, 14),8	97,(0, 18),8	
10,(2, 21),8	18,(3, 21),8	26,(4, 21),8	34,(6, 21),8	42,(7, 21),8	50,(8, 21),8	58,(10, 21),8	66,(11, 21),8	74,(12, 21),8	82,(14, 21),8	90,(15, 21),8	98,(16, 21),8	106,(18, 21),8	114,(19, 21),8	122,(20, 21),8	
# Outgoing
26,(4, 21),8	50,(8, 21),8	74,(12, 21),8	98,(16, 21),8	122,(20, 21),8	
18,(3, 21),8	42,(7, 21),8	66,(11, 21),8	90,(15, 21),8	114,(19, 21),8	
10,(2, 21),8	34,(6, 21),8	58,(10, 21),8	82,(14, 21),8	106,(18, 21),8	
1,(0, 2),8	9,(0, 3),8	17,(0, 4),8	25,(0, 6),8	33,(0, 7),8	41,(0, 8),8	49,(0, 10),8	57,(0, 11),8	65,(0, 12),8	73,(0, 14),8	81,(0, 15),8	89,(0, 16),8	97,(0, 18),8	105,(0, 19),8	113,(0, 20),8	
