2602
# CPU
0,0,1	1,1,13	14,3,13	27,7,13	40,15,13	53,31,13	66,63,13	79,127,13	92,200,13	105,199,13	118,198,13	131,197,13	144,196,13	157,195,13	170,194,13	183,193,13	196,192,13	209,191,13	222,190,13	235,189,13	248,188,13	261,187,13	274,186,13	287,185,13	300,184,13	313,183,13	326,182,13	339,181,13	352,180,13	365,179,13	378,178,13	391,177,13	404,176,13	417,175,13	430,174,13	443,173,13	456,172,13	469,171,13	482,170,13	495,169,13	508,168,13	521,167,13	534,166,13	547,165,13	560,164,13	573,163,13	586,162,13	599,161,13	612,160,13	625,159,13	638,158,13	651,157,13	664,156,13	677,155,13	690,154,13	703,153,13	716,152,13	729,151,13	742,150,13	755,149,13	768,148,13	781,147,13	794,146,13	807,145,13	820,144,13	833,143,13	846,142,13	859,141,13	872,140,13	885,139,13	898,138,13	911,137,13	924,136,13	937,135,13	950,134,13	963,133,13	976,132,13	989,131,13	1002,130,13	1015,129,13	1028,126,13	1041,128,13	1054,125,13	1067,124,13	1080,123,13	1093,122,13	1106,121,13	1119,120,13	1132,119,13	1145,118,13	1158,117,13	1171,116,13	1184,115,13	1197,114,13	1210,113,13	1223,112,13	1236,111,13	1249,110,13	1262,109,13	1275,108,13	1288,107,13	1301,106,13	1314,105,13	1327,104,13	1340,103,13	1353,102,13	1366,101,13	1379,100,13	1392,99,13	1405,98,13	1418,97,13	1431,96,13	1444,95,13	1457,94,13	1470,93,13	1483,92,13	1496,91,13	1509,90,13	1522,89,13	1535,88,13	1548,87,13	1561,86,13	1574,85,13	1587,84,13	1600,83,13	1613,82,13	1626,81,13	1639,80,13	1652,79,13	1665,78,13	1678,77,13	1691,76,13	1704,75,13	1717,74,13	1730,73,13	1743,72,13	1756,71,13	1769,70,13	1782,69,13	1795,68,13	1808,67,13	1821,66,13	1834,65,13	1847,62,13	1860,64,13	1873,61,13	1886,60,13	1899,59,13	1912,58,13	1925,57,13	1938,56,13	1951,55,13	1964,54,13	1977,53,13	1990,52,13	2003,51,13	2016,50,13	2029,49,13	2042,48,13	2055,47,13	2068,46,13	2081,45,13	2094,44,13	2107,43,13	2120,42,13	2133,41,13	2146,40,13	2159,39,13	2172,38,13	2185,37,13	2198,36,13	2211,35,13	2224,34,13	2237,33,13	2250,30,13	2263,32,13	2276,29,13	2289,28,13	2302,27,13	2315,26,13	2328,25,13	2341,24,13	2354,23,13	2367,22,13	2380,21,13	2393,20,13	2406,19,13	2419,18,13	2432,17,13	2445,14,13	2458,16,13	2471,13,13	2484,12,13	2497,11,13	2510,10,13	2523,9,13	2536,6,13	2549,8,13	2562,5,13	2575,2,13	2588,4,13	2601,201,1	

# Incoming


# Outgoing


