385
# CPU
0,0,1	1,139,2	3,138,2	5,140,2	7,137,2	9,136,2	11,135,2	13,141,2	15,134,2	17,133,2	19,132,2	21,142,2	23,131,2	25,130,2	27,129,2	29,143,2	31,169,2	33,160,2	35,128,2	37,127,2	39,126,2	41,125,2	43,144,2	45,123,2	47,122,2	49,121,2	51,145,2	53,120,2	55,119,2	57,118,2	59,146,2	61,177,2	63,73,2	65,147,2	67,117,2	69,116,2	71,115,2	73,148,2	75,114,2	77,113,2	79,112,2	81,149,2	83,110,2	85,109,2	87,108,2	89,150,2	91,173,2	93,56,2	95,151,2	97,107,2	99,106,2	101,105,2	103,152,2	105,104,2	107,103,2	109,102,2	111,153,2	113,100,2	115,99,2	117,98,2	119,154,2	121,33,2	123,61,2	125,156,2	127,155,2	129,97,2	131,96,2	133,157,2	135,95,2	137,85,2	139,84,2	141,86,2	143,83,2	145,82,2	147,81,2	149,87,2	151,168,2	153,54,2	155,80,2	157,79,2	159,78,2	161,77,2	163,88,2	165,76,2	167,89,2	169,75,2	171,91,2	173,74,2	175,72,2	177,71,2	179,92,2	181,174,2	183,36,2	185,70,2	187,69,2	189,68,2	191,67,2	193,94,2	195,66,2	197,158,2	199,65,2	201,161,2	203,64,2	205,63,2	207,62,2	209,162,2	211,16,2	213,184,2	215,60,2	217,59,2	219,58,2	221,57,2	223,163,2	225,55,2	227,164,2	229,53,2	231,166,2	233,52,2	235,51,2	237,50,2	239,167,2	241,17,2	243,187,2	245,49,2	247,48,2	249,47,2	251,46,2	253,170,2	255,45,2	257,183,2	259,182,2	261,185,2	263,181,2	265,180,2	267,179,2	269,186,2	271,192,2	273,35,2	275,178,2	277,175,2	279,172,2	281,171,2	283,188,2	285,44,2	287,42,2	289,41,2	291,189,2	293,40,2	295,39,2	297,38,2	299,190,2	301,31,2	303,1,2	305,191,2	307,37,2	309,34,2	311,32,2	313,193,2	315,30,2	317,20,2	319,19,2	321,21,2	323,18,2	325,22,2	327,15,2	329,23,2	331,27,2	333,197,2	335,13,2	337,12,2	339,14,2	341,11,2	343,24,2	345,10,2	347,2,2	349,3,2	351,4,2	353,5,2	355,6,2	357,7,2	359,8,2	361,199,2	363,9,2	365,25,2	367,29,2	369,194,2	371,196,2	373,198,2	375,200,2	384,201,1	
301,28,2	331,26,2	361,195,2	
61,111,2	121,93,2	181,159,2	
31,124,2	91,101,2	151,90,2	211,165,2	241,176,2	271,43,2	
# Incoming
33,(124, 201),21	63,(111, 201),21	93,(101, 201),21	123,(93, 201),21	153,(90, 201),21	183,(159, 201),21	213,(165, 201),21	243,(176, 201),21	273,(43, 201),21	303,(28, 201),21	333,(26, 201),21	363,(195, 201),21	
271,(0, 28),30	301,(0, 26),30	331,(0, 195),30	
31,(0, 111),30	91,(0, 93),30	151,(0, 159),30	
1,(0, 124),30	61,(0, 101),30	121,(0, 90),30	181,(0, 165),30	211,(0, 176),30	241,(0, 43),30	
# Outgoing
1,(0, 124),30	31,(0, 111),30	61,(0, 101),30	91,(0, 93),30	121,(0, 90),30	151,(0, 159),30	181,(0, 165),30	211,(0, 176),30	241,(0, 43),30	271,(0, 28),30	301,(0, 26),30	331,(0, 195),30	
303,(28, 201),21	333,(26, 201),21	363,(195, 201),21	
63,(111, 201),21	123,(93, 201),21	183,(159, 201),21	
33,(124, 201),21	93,(101, 201),21	153,(90, 201),21	213,(165, 201),21	243,(176, 201),21	273,(43, 201),21	
