11539
# CPU
289,5,13	577,10,13	865,15,13	1153,20,13	1441,25,13	1729,30,13	2017,35,13	2305,40,13	2593,45,13	2881,50,13	3169,55,13	3457,60,13	3745,65,13	4033,70,13	4321,75,13	4609,80,13	4897,85,13	5185,90,13	5473,95,13	5761,100,13	6049,105,13	6337,110,13	6625,115,13	6913,120,13	7201,125,13	7489,130,13	7777,135,13	8065,140,13	8353,145,13	8641,150,13	8929,155,13	9217,160,13	9505,165,13	9793,170,13	10081,175,13	10369,180,13	10657,185,13	10945,190,13	11233,195,13	11521,200,13	
217,4,13	505,9,13	793,14,13	1081,19,13	1369,24,13	1657,29,13	1945,34,13	2233,39,13	2521,44,13	2809,49,13	3097,54,13	3385,59,13	3673,64,13	3961,69,13	4249,74,13	4537,79,13	4825,84,13	5113,89,13	5401,94,13	5689,99,13	5977,104,13	6265,109,13	6553,114,13	6841,119,13	7129,124,13	7417,129,13	7705,134,13	7993,139,13	8281,144,13	8569,149,13	8857,154,13	9145,159,13	9433,164,13	9721,169,13	10009,174,13	10297,179,13	10585,184,13	10873,189,13	11161,194,13	11449,199,13	
145,3,13	433,8,13	721,13,13	1009,18,13	1297,23,13	1585,28,13	1873,33,13	2161,38,13	2449,43,13	2737,48,13	3025,53,13	3313,58,13	3601,63,13	3889,68,13	4177,73,13	4465,78,13	4753,83,13	5041,88,13	5329,93,13	5617,98,13	5905,103,13	6193,108,13	6481,113,13	6769,118,13	7057,123,13	7345,128,13	7633,133,13	7921,138,13	8209,143,13	8497,148,13	8785,153,13	9073,158,13	9361,163,13	9649,168,13	9937,173,13	10225,178,13	10513,183,13	10801,188,13	11089,193,13	11377,198,13	
73,2,13	361,7,13	649,12,13	937,17,13	1225,22,13	1513,27,13	1801,32,13	2089,37,13	2377,42,13	2665,47,13	2953,52,13	3241,57,13	3529,62,13	3817,67,13	4105,72,13	4393,77,13	4681,82,13	4969,87,13	5257,92,13	5545,97,13	5833,102,13	6121,107,13	6409,112,13	6697,117,13	6985,122,13	7273,127,13	7561,132,13	7849,137,13	8137,142,13	8425,147,13	8713,152,13	9001,157,13	9289,162,13	9577,167,13	9865,172,13	10153,177,13	10441,182,13	10729,187,13	11017,192,13	11305,197,13	
0,0,1	1,1,13	14,11,13	27,31,13	40,71,13	53,151,13	66,196,13	79,191,13	92,186,13	105,181,13	118,176,13	131,171,13	144,166,13	157,161,13	170,146,13	183,156,13	196,141,13	209,136,13	222,131,13	235,126,13	248,121,13	261,116,13	274,111,13	287,106,13	300,101,13	313,96,13	326,91,13	339,86,13	352,81,13	365,66,13	378,76,13	391,61,13	404,56,13	417,51,13	430,46,13	443,41,13	456,26,13	469,36,13	482,21,13	495,6,13	508,16,13	11538,201,1	
# Incoming
217,(0, 5),72	505,(0, 10),72	793,(0, 15),72	1081,(0, 20),72	1369,(0, 25),72	1657,(0, 30),72	1945,(0, 35),72	2233,(0, 40),72	2521,(0, 45),72	2809,(0, 50),72	3097,(0, 55),72	3385,(0, 60),72	3673,(0, 65),72	3961,(0, 70),72	4249,(0, 75),72	4537,(0, 80),72	4825,(0, 85),72	5113,(0, 90),72	5401,(0, 95),72	5689,(0, 100),72	5977,(0, 105),72	6265,(0, 110),72	6553,(0, 115),72	6841,(0, 120),72	7129,(0, 125),72	7417,(0, 130),72	7705,(0, 135),72	7993,(0, 140),72	8281,(0, 145),72	8569,(0, 150),72	8857,(0, 155),72	9145,(0, 160),72	9433,(0, 165),72	9721,(0, 170),72	10009,(0, 175),72	10297,(0, 180),72	10585,(0, 185),72	10873,(0, 190),72	11161,(0, 195),72	11449,(0, 200),72	
145,(0, 4),72	433,(0, 9),72	721,(0, 14),72	1009,(0, 19),72	1297,(0, 24),72	1585,(0, 29),72	1873,(0, 34),72	2161,(0, 39),72	2449,(0, 44),72	2737,(0, 49),72	3025,(0, 54),72	3313,(0, 59),72	3601,(0, 64),72	3889,(0, 69),72	4177,(0, 74),72	4465,(0, 79),72	4753,(0, 84),72	5041,(0, 89),72	5329,(0, 94),72	5617,(0, 99),72	5905,(0, 104),72	6193,(0, 109),72	6481,(0, 114),72	6769,(0, 119),72	7057,(0, 124),72	7345,(0, 129),72	7633,(0, 134),72	7921,(0, 139),72	8209,(0, 144),72	8497,(0, 149),72	8785,(0, 154),72	9073,(0, 159),72	9361,(0, 164),72	9649,(0, 169),72	9937,(0, 174),72	10225,(0, 179),72	10513,(0, 184),72	10801,(0, 189),72	11089,(0, 194),72	11377,(0, 199),72	
73,(0, 3),72	361,(0, 8),72	649,(0, 13),72	937,(0, 18),72	1225,(0, 23),72	1513,(0, 28),72	1801,(0, 33),72	2089,(0, 38),72	2377,(0, 43),72	2665,(0, 48),72	2953,(0, 53),72	3241,(0, 58),72	3529,(0, 63),72	3817,(0, 68),72	4105,(0, 73),72	4393,(0, 78),72	4681,(0, 83),72	4969,(0, 88),72	5257,(0, 93),72	5545,(0, 98),72	5833,(0, 103),72	6121,(0, 108),72	6409,(0, 113),72	6697,(0, 118),72	6985,(0, 123),72	7273,(0, 128),72	7561,(0, 133),72	7849,(0, 138),72	8137,(0, 143),72	8425,(0, 148),72	8713,(0, 153),72	9001,(0, 158),72	9289,(0, 163),72	9577,(0, 168),72	9865,(0, 173),72	10153,(0, 178),72	10441,(0, 183),72	10729,(0, 188),72	11017,(0, 193),72	11305,(0, 198),72	
1,(0, 2),72	289,(0, 7),72	577,(0, 12),72	865,(0, 17),72	1153,(0, 22),72	1441,(0, 27),72	1729,(0, 32),72	2017,(0, 37),72	2305,(0, 42),72	2593,(0, 47),72	2881,(0, 52),72	3169,(0, 57),72	3457,(0, 62),72	3745,(0, 67),72	4033,(0, 72),72	4321,(0, 77),72	4609,(0, 82),72	4897,(0, 87),72	5185,(0, 92),72	5473,(0, 97),72	5761,(0, 102),72	6049,(0, 107),72	6337,(0, 112),72	6625,(0, 117),72	6913,(0, 122),72	7201,(0, 127),72	7489,(0, 132),72	7777,(0, 137),72	8065,(0, 142),72	8353,(0, 147),72	8641,(0, 152),72	8929,(0, 157),72	9217,(0, 162),72	9505,(0, 167),72	9793,(0, 172),72	10081,(0, 177),72	10369,(0, 182),72	10657,(0, 187),72	10945,(0, 192),72	11233,(0, 197),72	
86,(2, 201),4	158,(3, 201),4	230,(4, 201),4	302,(5, 201),4	374,(7, 201),4	446,(8, 201),4	518,(9, 201),4	590,(10, 201),4	662,(12, 201),4	734,(13, 201),4	806,(14, 201),4	878,(15, 201),4	950,(17, 201),4	1022,(18, 201),4	1094,(19, 201),4	1166,(20, 201),4	1238,(22, 201),4	1310,(23, 201),4	1382,(24, 201),4	1454,(25, 201),4	1526,(27, 201),4	1598,(28, 201),4	1670,(29, 201),4	1742,(30, 201),4	1814,(32, 201),4	1886,(33, 201),4	1958,(34, 201),4	2030,(35, 201),4	2102,(37, 201),4	2174,(38, 201),4	2246,(39, 201),4	2318,(40, 201),4	2390,(42, 201),4	2462,(43, 201),4	2534,(44, 201),4	2606,(45, 201),4	2678,(47, 201),4	2750,(48, 201),4	2822,(49, 201),4	2894,(50, 201),4	2966,(52, 201),4	3038,(53, 201),4	3110,(54, 201),4	3182,(55, 201),4	3254,(57, 201),4	3326,(58, 201),4	3398,(59, 201),4	3470,(60, 201),4	3542,(62, 201),4	3614,(63, 201),4	3686,(64, 201),4	3758,(65, 201),4	3830,(67, 201),4	3902,(68, 201),4	3974,(69, 201),4	4046,(70, 201),4	4118,(72, 201),4	4190,(73, 201),4	4262,(74, 201),4	4334,(75, 201),4	4406,(77, 201),4	4478,(78, 201),4	4550,(79, 201),4	4622,(80, 201),4	4694,(82, 201),4	4766,(83, 201),4	4838,(84, 201),4	4910,(85, 201),4	4982,(87, 201),4	5054,(88, 201),4	5126,(89, 201),4	5198,(90, 201),4	5270,(92, 201),4	5342,(93, 201),4	5414,(94, 201),4	5486,(95, 201),4	5558,(97, 201),4	5630,(98, 201),4	5702,(99, 201),4	5774,(100, 201),4	5846,(102, 201),4	5918,(103, 201),4	5990,(104, 201),4	6062,(105, 201),4	6134,(107, 201),4	6206,(108, 201),4	6278,(109, 201),4	6350,(110, 201),4	6422,(112, 201),4	6494,(113, 201),4	6566,(114, 201),4	6638,(115, 201),4	6710,(117, 201),4	6782,(118, 201),4	6854,(119, 201),4	6926,(120, 201),4	6998,(122, 201),4	7070,(123, 201),4	7142,(124, 201),4	7214,(125, 201),4	7286,(127, 201),4	7358,(128, 201),4	7430,(129, 201),4	7502,(130, 201),4	7574,(132, 201),4	7646,(133, 201),4	7718,(134, 201),4	7790,(135, 201),4	7862,(137, 201),4	7934,(138, 201),4	8006,(139, 201),4	8078,(140, 201),4	8150,(142, 201),4	8222,(143, 201),4	8294,(144, 201),4	8366,(145, 201),4	8438,(147, 201),4	8510,(148, 201),4	8582,(149, 201),4	8654,(150, 201),4	8726,(152, 201),4	8798,(153, 201),4	8870,(154, 201),4	8942,(155, 201),4	9014,(157, 201),4	9086,(158, 201),4	9158,(159, 201),4	9230,(160, 201),4	9302,(162, 201),4	9374,(163, 201),4	9446,(164, 201),4	9518,(165, 201),4	9590,(167, 201),4	9662,(168, 201),4	9734,(169, 201),4	9806,(170, 201),4	9878,(172, 201),4	9950,(173, 201),4	10022,(174, 201),4	10094,(175, 201),4	10166,(177, 201),4	10238,(178, 201),4	10310,(179, 201),4	10382,(180, 201),4	10454,(182, 201),4	10526,(183, 201),4	10598,(184, 201),4	10670,(185, 201),4	10742,(187, 201),4	10814,(188, 201),4	10886,(189, 201),4	10958,(190, 201),4	11030,(192, 201),4	11102,(193, 201),4	11174,(194, 201),4	11246,(195, 201),4	11318,(197, 201),4	11390,(198, 201),4	11462,(199, 201),4	11534,(200, 201),4	
# Outgoing
302,(5, 201),4	590,(10, 201),4	878,(15, 201),4	1166,(20, 201),4	1454,(25, 201),4	1742,(30, 201),4	2030,(35, 201),4	2318,(40, 201),4	2606,(45, 201),4	2894,(50, 201),4	3182,(55, 201),4	3470,(60, 201),4	3758,(65, 201),4	4046,(70, 201),4	4334,(75, 201),4	4622,(80, 201),4	4910,(85, 201),4	5198,(90, 201),4	5486,(95, 201),4	5774,(100, 201),4	6062,(105, 201),4	6350,(110, 201),4	6638,(115, 201),4	6926,(120, 201),4	7214,(125, 201),4	7502,(130, 201),4	7790,(135, 201),4	8078,(140, 201),4	8366,(145, 201),4	8654,(150, 201),4	8942,(155, 201),4	9230,(160, 201),4	9518,(165, 201),4	9806,(170, 201),4	10094,(175, 201),4	10382,(180, 201),4	10670,(185, 201),4	10958,(190, 201),4	11246,(195, 201),4	11534,(200, 201),4	
230,(4, 201),4	518,(9, 201),4	806,(14, 201),4	1094,(19, 201),4	1382,(24, 201),4	1670,(29, 201),4	1958,(34, 201),4	2246,(39, 201),4	2534,(44, 201),4	2822,(49, 201),4	3110,(54, 201),4	3398,(59, 201),4	3686,(64, 201),4	3974,(69, 201),4	4262,(74, 201),4	4550,(79, 201),4	4838,(84, 201),4	5126,(89, 201),4	5414,(94, 201),4	5702,(99, 201),4	5990,(104, 201),4	6278,(109, 201),4	6566,(114, 201),4	6854,(119, 201),4	7142,(124, 201),4	7430,(129, 201),4	7718,(134, 201),4	8006,(139, 201),4	8294,(144, 201),4	8582,(149, 201),4	8870,(154, 201),4	9158,(159, 201),4	9446,(164, 201),4	9734,(169, 201),4	10022,(174, 201),4	10310,(179, 201),4	10598,(184, 201),4	10886,(189, 201),4	11174,(194, 201),4	11462,(199, 201),4	
158,(3, 201),4	446,(8, 201),4	734,(13, 201),4	1022,(18, 201),4	1310,(23, 201),4	1598,(28, 201),4	1886,(33, 201),4	2174,(38, 201),4	2462,(43, 201),4	2750,(48, 201),4	3038,(53, 201),4	3326,(58, 201),4	3614,(63, 201),4	3902,(68, 201),4	4190,(73, 201),4	4478,(78, 201),4	4766,(83, 201),4	5054,(88, 201),4	5342,(93, 201),4	5630,(98, 201),4	5918,(103, 201),4	6206,(108, 201),4	6494,(113, 201),4	6782,(118, 201),4	7070,(123, 201),4	7358,(128, 201),4	7646,(133, 201),4	7934,(138, 201),4	8222,(143, 201),4	8510,(148, 201),4	8798,(153, 201),4	9086,(158, 201),4	9374,(163, 201),4	9662,(168, 201),4	9950,(173, 201),4	10238,(178, 201),4	10526,(183, 201),4	10814,(188, 201),4	11102,(193, 201),4	11390,(198, 201),4	
86,(2, 201),4	374,(7, 201),4	662,(12, 201),4	950,(17, 201),4	1238,(22, 201),4	1526,(27, 201),4	1814,(32, 201),4	2102,(37, 201),4	2390,(42, 201),4	2678,(47, 201),4	2966,(52, 201),4	3254,(57, 201),4	3542,(62, 201),4	3830,(67, 201),4	4118,(72, 201),4	4406,(77, 201),4	4694,(82, 201),4	4982,(87, 201),4	5270,(92, 201),4	5558,(97, 201),4	5846,(102, 201),4	6134,(107, 201),4	6422,(112, 201),4	6710,(117, 201),4	6998,(122, 201),4	7286,(127, 201),4	7574,(132, 201),4	7862,(137, 201),4	8150,(142, 201),4	8438,(147, 201),4	8726,(152, 201),4	9014,(157, 201),4	9302,(162, 201),4	9590,(167, 201),4	9878,(172, 201),4	10166,(177, 201),4	10454,(182, 201),4	10742,(187, 201),4	11030,(192, 201),4	11318,(197, 201),4	
1,(0, 2),72	73,(0, 3),72	145,(0, 4),72	217,(0, 5),72	289,(0, 7),72	361,(0, 8),72	433,(0, 9),72	505,(0, 10),72	577,(0, 12),72	649,(0, 13),72	721,(0, 14),72	793,(0, 15),72	865,(0, 17),72	937,(0, 18),72	1009,(0, 19),72	1081,(0, 20),72	1153,(0, 22),72	1225,(0, 23),72	1297,(0, 24),72	1369,(0, 25),72	1441,(0, 27),72	1513,(0, 28),72	1585,(0, 29),72	1657,(0, 30),72	1729,(0, 32),72	1801,(0, 33),72	1873,(0, 34),72	1945,(0, 35),72	2017,(0, 37),72	2089,(0, 38),72	2161,(0, 39),72	2233,(0, 40),72	2305,(0, 42),72	2377,(0, 43),72	2449,(0, 44),72	2521,(0, 45),72	2593,(0, 47),72	2665,(0, 48),72	2737,(0, 49),72	2809,(0, 50),72	2881,(0, 52),72	2953,(0, 53),72	3025,(0, 54),72	3097,(0, 55),72	3169,(0, 57),72	3241,(0, 58),72	3313,(0, 59),72	3385,(0, 60),72	3457,(0, 62),72	3529,(0, 63),72	3601,(0, 64),72	3673,(0, 65),72	3745,(0, 67),72	3817,(0, 68),72	3889,(0, 69),72	3961,(0, 70),72	4033,(0, 72),72	4105,(0, 73),72	4177,(0, 74),72	4249,(0, 75),72	4321,(0, 77),72	4393,(0, 78),72	4465,(0, 79),72	4537,(0, 80),72	4609,(0, 82),72	4681,(0, 83),72	4753,(0, 84),72	4825,(0, 85),72	4897,(0, 87),72	4969,(0, 88),72	5041,(0, 89),72	5113,(0, 90),72	5185,(0, 92),72	5257,(0, 93),72	5329,(0, 94),72	5401,(0, 95),72	5473,(0, 97),72	5545,(0, 98),72	5617,(0, 99),72	5689,(0, 100),72	5761,(0, 102),72	5833,(0, 103),72	5905,(0, 104),72	5977,(0, 105),72	6049,(0, 107),72	6121,(0, 108),72	6193,(0, 109),72	6265,(0, 110),72	6337,(0, 112),72	6409,(0, 113),72	6481,(0, 114),72	6553,(0, 115),72	6625,(0, 117),72	6697,(0, 118),72	6769,(0, 119),72	6841,(0, 120),72	6913,(0, 122),72	6985,(0, 123),72	7057,(0, 124),72	7129,(0, 125),72	7201,(0, 127),72	7273,(0, 128),72	7345,(0, 129),72	7417,(0, 130),72	7489,(0, 132),72	7561,(0, 133),72	7633,(0, 134),72	7705,(0, 135),72	7777,(0, 137),72	7849,(0, 138),72	7921,(0, 139),72	7993,(0, 140),72	8065,(0, 142),72	8137,(0, 143),72	8209,(0, 144),72	8281,(0, 145),72	8353,(0, 147),72	8425,(0, 148),72	8497,(0, 149),72	8569,(0, 150),72	8641,(0, 152),72	8713,(0, 153),72	8785,(0, 154),72	8857,(0, 155),72	8929,(0, 157),72	9001,(0, 158),72	9073,(0, 159),72	9145,(0, 160),72	9217,(0, 162),72	9289,(0, 163),72	9361,(0, 164),72	9433,(0, 165),72	9505,(0, 167),72	9577,(0, 168),72	9649,(0, 169),72	9721,(0, 170),72	9793,(0, 172),72	9865,(0, 173),72	9937,(0, 174),72	10009,(0, 175),72	10081,(0, 177),72	10153,(0, 178),72	10225,(0, 179),72	10297,(0, 180),72	10369,(0, 182),72	10441,(0, 183),72	10513,(0, 184),72	10585,(0, 185),72	10657,(0, 187),72	10729,(0, 188),72	10801,(0, 189),72	10873,(0, 190),72	10945,(0, 192),72	11017,(0, 193),72	11089,(0, 194),72	11161,(0, 195),72	11233,(0, 197),72	11305,(0, 198),72	11377,(0, 199),72	11449,(0, 200),72	
