199
# CPU
0,201,1	1,200,1	2,138,1	3,139,1	4,137,1	5,136,1	6,135,1	7,140,1	8,134,1	9,133,1	10,132,1	11,141,1	12,131,1	13,130,1	14,129,1	15,142,1	16,128,1	17,143,1	18,127,1	19,144,1	20,126,1	21,125,1	22,124,1	23,145,1	24,123,1	25,122,1	26,121,1	27,146,1	28,120,1	29,119,1	30,118,1	31,147,1	32,117,1	33,148,1	34,116,1	35,149,1	36,115,1	37,114,1	38,113,1	39,150,1	40,112,1	41,111,1	42,110,1	43,151,1	44,109,1	45,108,1	46,107,1	47,152,1	48,106,1	49,153,1	50,105,1	51,154,1	52,104,1	53,103,1	54,102,1	55,155,1	56,101,1	57,100,1	58,99,1	59,156,1	60,98,1	61,97,1	62,157,1	63,96,1	64,158,1	65,95,1	66,159,1	67,94,1	68,93,1	69,91,1	70,160,1	71,90,1	72,81,1	73,80,1	74,82,1	75,79,1	76,78,1	77,77,1	78,83,1	79,76,1	80,84,1	81,75,1	82,85,1	83,74,1	84,73,1	85,72,1	86,86,1	87,71,1	88,87,1	89,70,1	90,88,1	91,69,1	92,68,1	93,67,1	94,89,1	95,66,1	96,161,1	97,65,1	98,162,1	99,64,1	100,63,1	101,62,1	102,163,1	103,61,1	104,164,1	105,60,1	106,165,1	107,59,1	108,58,1	109,57,1	110,166,1	111,56,1	112,167,1	113,55,1	114,168,1	115,54,1	116,53,1	117,52,1	118,51,1	119,169,1	120,50,1	121,170,1	122,49,1	123,48,1	124,47,1	125,171,1	126,46,1	127,172,1	128,45,1	129,173,1	130,44,1	131,43,1	132,42,1	133,175,1	134,41,1	135,184,1	136,183,1	137,185,1	138,182,1	139,181,1	140,180,1	141,186,1	142,179,1	143,178,1	144,177,1	145,187,1	146,176,1	147,40,1	148,39,1	149,188,1	150,38,1	151,37,1	152,36,1	153,189,1	154,35,1	155,34,1	156,33,1	157,190,1	158,32,1	159,31,1	160,30,1	161,191,1	162,29,1	163,28,1	164,27,1	165,192,1	166,26,1	167,17,1	168,16,1	169,18,1	170,15,1	171,19,1	172,14,1	173,20,1	174,13,1	175,12,1	176,21,1	177,11,1	178,22,1	179,10,1	180,23,1	181,9,1	182,1,1	183,2,1	184,3,1	185,4,1	186,5,1	187,6,1	188,7,1	189,8,1	190,24,1	191,25,1	192,193,1	193,195,1	194,196,1	195,197,1	196,198,1	197,199,1	198,0,1	
13,194,1	
5,92,1	9,174,1	
# Incoming
6,(92, 0),56	62,(174, 0),56	118,(194, 0),56	
9,(201, 194),4	
1,(201, 92),4	5,(201, 174),4	
# Outgoing
1,(201, 92),4	5,(201, 174),4	9,(201, 194),4	
118,(194, 0),56	
6,(92, 0),56	62,(174, 0),56	
