403
# CPU
3,3,1	5,6,1	7,9,1	9,12,1	11,15,1	13,18,1	15,21,1	17,24,1	19,27,1	21,30,1	23,33,1	25,36,1	27,39,1	29,42,1	31,45,1	33,48,1	35,51,1	37,54,1	39,57,1	41,60,1	43,63,1	45,66,1	47,69,1	49,72,1	51,75,1	53,78,1	55,81,1	57,84,1	59,87,1	61,90,1	63,93,1	65,96,1	67,99,1	69,102,1	71,105,1	73,108,1	75,111,1	77,114,1	79,117,1	81,120,1	83,123,1	85,126,1	87,129,1	89,132,1	91,135,1	93,138,1	95,141,1	97,144,1	99,147,1	101,150,1	103,153,1	105,156,1	107,159,1	109,162,1	111,165,1	113,168,1	115,171,1	117,174,1	119,177,1	121,180,1	123,183,1	125,186,1	127,189,1	129,192,1	131,195,1	133,198,1	
2,2,1	4,5,1	6,8,1	8,11,1	10,14,1	12,17,1	14,20,1	16,23,1	18,26,1	20,29,1	22,32,1	24,35,1	26,38,1	28,41,1	30,44,1	32,47,1	34,50,1	36,53,1	38,56,1	40,59,1	42,62,1	44,65,1	46,68,1	48,71,1	50,74,1	52,77,1	54,80,1	56,83,1	58,86,1	60,89,1	62,92,1	64,95,1	66,98,1	68,101,1	70,104,1	72,107,1	74,110,1	76,113,1	78,116,1	80,119,1	82,122,1	84,125,1	86,128,1	88,131,1	90,134,1	92,137,1	94,140,1	96,143,1	98,146,1	100,149,1	102,152,1	104,155,1	106,158,1	108,161,1	110,164,1	112,167,1	114,170,1	116,173,1	118,176,1	120,179,1	122,182,1	124,185,1	126,188,1	128,191,1	130,194,1	132,197,1	134,200,1	
0,0,1	1,1,1	2,7,1	3,19,1	4,43,1	5,91,1	6,187,1	7,199,1	8,196,1	9,193,1	10,184,1	11,190,1	12,181,1	13,178,1	14,175,1	15,172,1	16,169,1	17,166,1	18,163,1	19,160,1	20,157,1	21,154,1	22,151,1	23,148,1	24,145,1	25,142,1	26,139,1	27,136,1	28,133,1	29,130,1	30,127,1	31,124,1	32,121,1	33,118,1	34,115,1	35,112,1	36,109,1	37,106,1	38,103,1	39,100,1	40,97,1	41,88,1	42,94,1	43,85,1	44,82,1	45,79,1	46,76,1	47,73,1	48,70,1	49,67,1	50,64,1	51,61,1	52,58,1	53,55,1	54,52,1	55,49,1	56,40,1	57,46,1	58,37,1	59,34,1	60,31,1	61,28,1	62,25,1	63,16,1	64,22,1	65,13,1	66,4,1	67,10,1	402,201,1	
# Incoming
2,(0, 3),1	4,(0, 6),1	6,(0, 9),1	8,(0, 12),1	10,(0, 15),1	12,(0, 18),1	14,(0, 21),1	16,(0, 24),1	18,(0, 27),1	20,(0, 30),1	22,(0, 33),1	24,(0, 36),1	26,(0, 39),1	28,(0, 42),1	30,(0, 45),1	32,(0, 48),1	34,(0, 51),1	36,(0, 54),1	38,(0, 57),1	40,(0, 60),1	42,(0, 63),1	44,(0, 66),1	46,(0, 69),1	48,(0, 72),1	50,(0, 75),1	52,(0, 78),1	54,(0, 81),1	56,(0, 84),1	58,(0, 87),1	60,(0, 90),1	62,(0, 93),1	64,(0, 96),1	66,(0, 99),1	68,(0, 102),1	70,(0, 105),1	72,(0, 108),1	74,(0, 111),1	76,(0, 114),1	78,(0, 117),1	80,(0, 120),1	82,(0, 123),1	84,(0, 126),1	86,(0, 129),1	88,(0, 132),1	90,(0, 135),1	92,(0, 138),1	94,(0, 141),1	96,(0, 144),1	98,(0, 147),1	100,(0, 150),1	102,(0, 153),1	104,(0, 156),1	106,(0, 159),1	108,(0, 162),1	110,(0, 165),1	112,(0, 168),1	114,(0, 171),1	116,(0, 174),1	118,(0, 177),1	120,(0, 180),1	122,(0, 183),1	124,(0, 186),1	126,(0, 189),1	128,(0, 192),1	130,(0, 195),1	132,(0, 198),1	
1,(0, 2),1	3,(0, 5),1	5,(0, 8),1	7,(0, 11),1	9,(0, 14),1	11,(0, 17),1	13,(0, 20),1	15,(0, 23),1	17,(0, 26),1	19,(0, 29),1	21,(0, 32),1	23,(0, 35),1	25,(0, 38),1	27,(0, 41),1	29,(0, 44),1	31,(0, 47),1	33,(0, 50),1	35,(0, 53),1	37,(0, 56),1	39,(0, 59),1	41,(0, 62),1	43,(0, 65),1	45,(0, 68),1	47,(0, 71),1	49,(0, 74),1	51,(0, 77),1	53,(0, 80),1	55,(0, 83),1	57,(0, 86),1	59,(0, 89),1	61,(0, 92),1	63,(0, 95),1	65,(0, 98),1	67,(0, 101),1	69,(0, 104),1	71,(0, 107),1	73,(0, 110),1	75,(0, 113),1	77,(0, 116),1	79,(0, 119),1	81,(0, 122),1	83,(0, 125),1	85,(0, 128),1	87,(0, 131),1	89,(0, 134),1	91,(0, 137),1	93,(0, 140),1	95,(0, 143),1	97,(0, 146),1	99,(0, 149),1	101,(0, 152),1	103,(0, 155),1	105,(0, 158),1	107,(0, 161),1	109,(0, 164),1	111,(0, 167),1	113,(0, 170),1	115,(0, 173),1	117,(0, 176),1	119,(0, 179),1	121,(0, 182),1	123,(0, 185),1	125,(0, 188),1	127,(0, 191),1	129,(0, 194),1	131,(0, 197),1	133,(0, 200),1	
3,(2, 201),3	6,(3, 201),3	9,(5, 201),3	12,(6, 201),3	15,(8, 201),3	18,(9, 201),3	21,(11, 201),3	24,(12, 201),3	27,(14, 201),3	30,(15, 201),3	33,(17, 201),3	36,(18, 201),3	39,(20, 201),3	42,(21, 201),3	45,(23, 201),3	48,(24, 201),3	51,(26, 201),3	54,(27, 201),3	57,(29, 201),3	60,(30, 201),3	63,(32, 201),3	66,(33, 201),3	69,(35, 201),3	72,(36, 201),3	75,(38, 201),3	78,(39, 201),3	81,(41, 201),3	84,(42, 201),3	87,(44, 201),3	90,(45, 201),3	93,(47, 201),3	96,(48, 201),3	99,(50, 201),3	102,(51, 201),3	105,(53, 201),3	108,(54, 201),3	111,(56, 201),3	114,(57, 201),3	117,(59, 201),3	120,(60, 201),3	123,(62, 201),3	126,(63, 201),3	129,(65, 201),3	132,(66, 201),3	135,(68, 201),3	138,(69, 201),3	141,(71, 201),3	144,(72, 201),3	147,(74, 201),3	150,(75, 201),3	153,(77, 201),3	156,(78, 201),3	159,(80, 201),3	162,(81, 201),3	165,(83, 201),3	168,(84, 201),3	171,(86, 201),3	174,(87, 201),3	177,(89, 201),3	180,(90, 201),3	183,(92, 201),3	186,(93, 201),3	189,(95, 201),3	192,(96, 201),3	195,(98, 201),3	198,(99, 201),3	201,(101, 201),3	204,(102, 201),3	207,(104, 201),3	210,(105, 201),3	213,(107, 201),3	216,(108, 201),3	219,(110, 201),3	222,(111, 201),3	225,(113, 201),3	228,(114, 201),3	231,(116, 201),3	234,(117, 201),3	237,(119, 201),3	240,(120, 201),3	243,(122, 201),3	246,(123, 201),3	249,(125, 201),3	252,(126, 201),3	255,(128, 201),3	258,(129, 201),3	261,(131, 201),3	264,(132, 201),3	267,(134, 201),3	270,(135, 201),3	273,(137, 201),3	276,(138, 201),3	279,(140, 201),3	282,(141, 201),3	285,(143, 201),3	288,(144, 201),3	291,(146, 201),3	294,(147, 201),3	297,(149, 201),3	300,(150, 201),3	303,(152, 201),3	306,(153, 201),3	309,(155, 201),3	312,(156, 201),3	315,(158, 201),3	318,(159, 201),3	321,(161, 201),3	324,(162, 201),3	327,(164, 201),3	330,(165, 201),3	333,(167, 201),3	336,(168, 201),3	339,(170, 201),3	342,(171, 201),3	345,(173, 201),3	348,(174, 201),3	351,(176, 201),3	354,(177, 201),3	357,(179, 201),3	360,(180, 201),3	363,(182, 201),3	366,(183, 201),3	369,(185, 201),3	372,(186, 201),3	375,(188, 201),3	378,(189, 201),3	381,(191, 201),3	384,(192, 201),3	387,(194, 201),3	390,(195, 201),3	393,(197, 201),3	396,(198, 201),3	399,(200, 201),3	
# Outgoing
6,(3, 201),3	12,(6, 201),3	18,(9, 201),3	24,(12, 201),3	30,(15, 201),3	36,(18, 201),3	42,(21, 201),3	48,(24, 201),3	54,(27, 201),3	60,(30, 201),3	66,(33, 201),3	72,(36, 201),3	78,(39, 201),3	84,(42, 201),3	90,(45, 201),3	96,(48, 201),3	102,(51, 201),3	108,(54, 201),3	114,(57, 201),3	120,(60, 201),3	126,(63, 201),3	132,(66, 201),3	138,(69, 201),3	144,(72, 201),3	150,(75, 201),3	156,(78, 201),3	162,(81, 201),3	168,(84, 201),3	174,(87, 201),3	180,(90, 201),3	186,(93, 201),3	192,(96, 201),3	198,(99, 201),3	204,(102, 201),3	210,(105, 201),3	216,(108, 201),3	222,(111, 201),3	228,(114, 201),3	234,(117, 201),3	240,(120, 201),3	246,(123, 201),3	252,(126, 201),3	258,(129, 201),3	264,(132, 201),3	270,(135, 201),3	276,(138, 201),3	282,(141, 201),3	288,(144, 201),3	294,(147, 201),3	300,(150, 201),3	306,(153, 201),3	312,(156, 201),3	318,(159, 201),3	324,(162, 201),3	330,(165, 201),3	336,(168, 201),3	342,(171, 201),3	348,(174, 201),3	354,(177, 201),3	360,(180, 201),3	366,(183, 201),3	372,(186, 201),3	378,(189, 201),3	384,(192, 201),3	390,(195, 201),3	396,(198, 201),3	
3,(2, 201),3	9,(5, 201),3	15,(8, 201),3	21,(11, 201),3	27,(14, 201),3	33,(17, 201),3	39,(20, 201),3	45,(23, 201),3	51,(26, 201),3	57,(29, 201),3	63,(32, 201),3	69,(35, 201),3	75,(38, 201),3	81,(41, 201),3	87,(44, 201),3	93,(47, 201),3	99,(50, 201),3	105,(53, 201),3	111,(56, 201),3	117,(59, 201),3	123,(62, 201),3	129,(65, 201),3	135,(68, 201),3	141,(71, 201),3	147,(74, 201),3	153,(77, 201),3	159,(80, 201),3	165,(83, 201),3	171,(86, 201),3	177,(89, 201),3	183,(92, 201),3	189,(95, 201),3	195,(98, 201),3	201,(101, 201),3	207,(104, 201),3	213,(107, 201),3	219,(110, 201),3	225,(113, 201),3	231,(116, 201),3	237,(119, 201),3	243,(122, 201),3	249,(125, 201),3	255,(128, 201),3	261,(131, 201),3	267,(134, 201),3	273,(137, 201),3	279,(140, 201),3	285,(143, 201),3	291,(146, 201),3	297,(149, 201),3	303,(152, 201),3	309,(155, 201),3	315,(158, 201),3	321,(161, 201),3	327,(164, 201),3	333,(167, 201),3	339,(170, 201),3	345,(173, 201),3	351,(176, 201),3	357,(179, 201),3	363,(182, 201),3	369,(185, 201),3	375,(188, 201),3	381,(191, 201),3	387,(194, 201),3	393,(197, 201),3	399,(200, 201),3	
1,(0, 2),1	2,(0, 3),1	3,(0, 5),1	4,(0, 6),1	5,(0, 8),1	6,(0, 9),1	7,(0, 11),1	8,(0, 12),1	9,(0, 14),1	10,(0, 15),1	11,(0, 17),1	12,(0, 18),1	13,(0, 20),1	14,(0, 21),1	15,(0, 23),1	16,(0, 24),1	17,(0, 26),1	18,(0, 27),1	19,(0, 29),1	20,(0, 30),1	21,(0, 32),1	22,(0, 33),1	23,(0, 35),1	24,(0, 36),1	25,(0, 38),1	26,(0, 39),1	27,(0, 41),1	28,(0, 42),1	29,(0, 44),1	30,(0, 45),1	31,(0, 47),1	32,(0, 48),1	33,(0, 50),1	34,(0, 51),1	35,(0, 53),1	36,(0, 54),1	37,(0, 56),1	38,(0, 57),1	39,(0, 59),1	40,(0, 60),1	41,(0, 62),1	42,(0, 63),1	43,(0, 65),1	44,(0, 66),1	45,(0, 68),1	46,(0, 69),1	47,(0, 71),1	48,(0, 72),1	49,(0, 74),1	50,(0, 75),1	51,(0, 77),1	52,(0, 78),1	53,(0, 80),1	54,(0, 81),1	55,(0, 83),1	56,(0, 84),1	57,(0, 86),1	58,(0, 87),1	59,(0, 89),1	60,(0, 90),1	61,(0, 92),1	62,(0, 93),1	63,(0, 95),1	64,(0, 96),1	65,(0, 98),1	66,(0, 99),1	67,(0, 101),1	68,(0, 102),1	69,(0, 104),1	70,(0, 105),1	71,(0, 107),1	72,(0, 108),1	73,(0, 110),1	74,(0, 111),1	75,(0, 113),1	76,(0, 114),1	77,(0, 116),1	78,(0, 117),1	79,(0, 119),1	80,(0, 120),1	81,(0, 122),1	82,(0, 123),1	83,(0, 125),1	84,(0, 126),1	85,(0, 128),1	86,(0, 129),1	87,(0, 131),1	88,(0, 132),1	89,(0, 134),1	90,(0, 135),1	91,(0, 137),1	92,(0, 138),1	93,(0, 140),1	94,(0, 141),1	95,(0, 143),1	96,(0, 144),1	97,(0, 146),1	98,(0, 147),1	99,(0, 149),1	100,(0, 150),1	101,(0, 152),1	102,(0, 153),1	103,(0, 155),1	104,(0, 156),1	105,(0, 158),1	106,(0, 159),1	107,(0, 161),1	108,(0, 162),1	109,(0, 164),1	110,(0, 165),1	111,(0, 167),1	112,(0, 168),1	113,(0, 170),1	114,(0, 171),1	115,(0, 173),1	116,(0, 174),1	117,(0, 176),1	118,(0, 177),1	119,(0, 179),1	120,(0, 180),1	121,(0, 182),1	122,(0, 183),1	123,(0, 185),1	124,(0, 186),1	125,(0, 188),1	126,(0, 189),1	127,(0, 191),1	128,(0, 192),1	129,(0, 194),1	130,(0, 195),1	131,(0, 197),1	132,(0, 198),1	133,(0, 200),1	
