3005
# CPU
0,201,1	1,200,30	31,139,30	61,136,30	91,140,30	121,133,30	151,141,30	181,130,30	211,142,30	241,143,30	271,144,30	301,125,30	331,145,30	361,122,30	391,146,30	421,119,30	451,147,30	481,148,30	511,149,30	541,114,30	571,150,30	601,111,30	631,151,30	661,108,30	691,152,30	721,153,30	751,154,30	781,103,30	811,155,30	841,100,30	871,156,30	901,97,30	931,157,30	961,158,30	991,159,30	1021,92,30	1051,160,30	1081,81,30	1111,82,30	1141,78,30	1171,83,30	1201,84,30	1231,85,30	1261,73,30	1291,86,30	1321,87,30	1351,88,30	1381,68,30	1411,89,30	1441,161,30	1471,162,30	1501,63,30	1531,163,30	1561,164,30	1591,165,30	1621,58,30	1651,166,30	1681,167,30	1711,168,30	1741,53,30	1771,169,30	1801,170,30	1831,171,30	1861,48,30	1891,172,30	1921,173,30	1951,174,30	1981,43,30	2011,175,30	2041,184,30	2071,185,30	2101,181,30	2131,186,30	2161,178,30	2191,187,30	2221,40,30	2251,188,30	2281,37,30	2311,189,30	2341,34,30	2371,190,30	2401,31,30	2431,191,30	2461,28,30	2491,192,30	2521,17,30	2551,18,30	2581,19,30	2611,20,30	2641,21,30	2671,22,30	2701,23,30	2731,24,30	2761,1,30	2791,3,30	2821,5,30	2851,7,30	2881,25,30	2911,194,30	2941,196,30	2971,198,30	3004,0,1	
3,138,30	33,137,30	63,135,30	93,134,30	123,132,30	153,131,30	183,129,30	213,128,30	243,127,30	273,126,30	303,124,30	333,123,30	363,121,30	393,120,30	423,118,30	453,117,30	483,116,30	513,115,30	543,113,30	573,112,30	603,110,30	633,109,30	663,107,30	693,106,30	723,105,30	753,104,30	783,102,30	813,101,30	843,99,30	873,98,30	903,96,30	933,95,30	963,94,30	993,93,30	1023,91,30	1053,90,30	1083,80,30	1113,79,30	1143,77,30	1173,76,30	1203,75,30	1233,74,30	1263,72,30	1293,71,30	1323,70,30	1353,69,30	1383,67,30	1413,66,30	1443,65,30	1473,64,30	1503,62,30	1533,61,30	1563,60,30	1593,59,30	1623,57,30	1653,56,30	1683,55,30	1713,54,30	1743,52,30	1773,51,30	1803,50,30	1833,49,30	1863,47,30	1893,46,30	1923,45,30	1953,44,30	1983,42,30	2013,41,30	2043,183,30	2073,182,30	2103,180,30	2133,179,30	2163,177,30	2193,176,30	2223,39,30	2253,38,30	2283,36,30	2313,35,30	2343,33,30	2373,32,30	2403,30,30	2433,29,30	2463,27,30	2493,26,30	2523,16,30	2553,15,30	2583,14,30	2613,13,30	2643,12,30	2673,11,30	2703,10,30	2733,9,30	2763,2,30	2793,4,30	2823,6,30	2853,8,30	2883,193,30	2913,195,30	2943,197,30	2973,199,30	
# Incoming
33,(138, 0),1	63,(137, 0),1	93,(135, 0),1	123,(134, 0),1	153,(132, 0),1	183,(131, 0),1	213,(129, 0),1	243,(128, 0),1	273,(127, 0),1	303,(126, 0),1	333,(124, 0),1	363,(123, 0),1	393,(121, 0),1	423,(120, 0),1	453,(118, 0),1	483,(117, 0),1	513,(116, 0),1	543,(115, 0),1	573,(113, 0),1	603,(112, 0),1	633,(110, 0),1	663,(109, 0),1	693,(107, 0),1	723,(106, 0),1	753,(105, 0),1	783,(104, 0),1	813,(102, 0),1	843,(101, 0),1	873,(99, 0),1	903,(98, 0),1	933,(96, 0),1	963,(95, 0),1	993,(94, 0),1	1023,(93, 0),1	1053,(91, 0),1	1083,(90, 0),1	1113,(80, 0),1	1143,(79, 0),1	1173,(77, 0),1	1203,(76, 0),1	1233,(75, 0),1	1263,(74, 0),1	1293,(72, 0),1	1323,(71, 0),1	1353,(70, 0),1	1383,(69, 0),1	1413,(67, 0),1	1443,(66, 0),1	1473,(65, 0),1	1503,(64, 0),1	1533,(62, 0),1	1563,(61, 0),1	1593,(60, 0),1	1623,(59, 0),1	1653,(57, 0),1	1683,(56, 0),1	1713,(55, 0),1	1743,(54, 0),1	1773,(52, 0),1	1803,(51, 0),1	1833,(50, 0),1	1863,(49, 0),1	1893,(47, 0),1	1923,(46, 0),1	1953,(45, 0),1	1983,(44, 0),1	2013,(42, 0),1	2043,(41, 0),1	2073,(183, 0),1	2103,(182, 0),1	2133,(180, 0),1	2163,(179, 0),1	2193,(177, 0),1	2223,(176, 0),1	2253,(39, 0),1	2283,(38, 0),1	2313,(36, 0),1	2343,(35, 0),1	2373,(33, 0),1	2403,(32, 0),1	2433,(30, 0),1	2463,(29, 0),1	2493,(27, 0),1	2523,(26, 0),1	2553,(16, 0),1	2583,(15, 0),1	2613,(14, 0),1	2643,(13, 0),1	2673,(12, 0),1	2703,(11, 0),1	2733,(10, 0),1	2763,(9, 0),1	2793,(2, 0),1	2823,(4, 0),1	2853,(6, 0),1	2883,(8, 0),1	2913,(193, 0),1	2943,(195, 0),1	2973,(197, 0),1	3003,(199, 0),1	
1,(201, 138),2	3,(201, 137),2	5,(201, 135),2	7,(201, 134),2	9,(201, 132),2	11,(201, 131),2	13,(201, 129),2	15,(201, 128),2	17,(201, 127),2	19,(201, 126),2	21,(201, 124),2	23,(201, 123),2	25,(201, 121),2	27,(201, 120),2	29,(201, 118),2	31,(201, 117),2	33,(201, 116),2	35,(201, 115),2	37,(201, 113),2	39,(201, 112),2	41,(201, 110),2	43,(201, 109),2	45,(201, 107),2	47,(201, 106),2	49,(201, 105),2	51,(201, 104),2	53,(201, 102),2	55,(201, 101),2	57,(201, 99),2	59,(201, 98),2	61,(201, 96),2	63,(201, 95),2	65,(201, 94),2	67,(201, 93),2	69,(201, 91),2	71,(201, 90),2	73,(201, 80),2	75,(201, 79),2	77,(201, 77),2	79,(201, 76),2	81,(201, 75),2	83,(201, 74),2	85,(201, 72),2	87,(201, 71),2	89,(201, 70),2	91,(201, 69),2	93,(201, 67),2	95,(201, 66),2	97,(201, 65),2	99,(201, 64),2	101,(201, 62),2	103,(201, 61),2	105,(201, 60),2	107,(201, 59),2	109,(201, 57),2	111,(201, 56),2	113,(201, 55),2	115,(201, 54),2	117,(201, 52),2	119,(201, 51),2	121,(201, 50),2	123,(201, 49),2	125,(201, 47),2	127,(201, 46),2	129,(201, 45),2	131,(201, 44),2	133,(201, 42),2	135,(201, 41),2	137,(201, 183),2	139,(201, 182),2	141,(201, 180),2	143,(201, 179),2	145,(201, 177),2	147,(201, 176),2	149,(201, 39),2	151,(201, 38),2	153,(201, 36),2	155,(201, 35),2	157,(201, 33),2	159,(201, 32),2	161,(201, 30),2	163,(201, 29),2	165,(201, 27),2	167,(201, 26),2	169,(201, 16),2	171,(201, 15),2	173,(201, 14),2	175,(201, 13),2	177,(201, 12),2	179,(201, 11),2	181,(201, 10),2	183,(201, 9),2	185,(201, 2),2	187,(201, 4),2	189,(201, 6),2	191,(201, 8),2	193,(201, 193),2	195,(201, 195),2	197,(201, 197),2	199,(201, 199),2	
# Outgoing
1,(201, 138),2	3,(201, 137),2	5,(201, 135),2	7,(201, 134),2	9,(201, 132),2	11,(201, 131),2	13,(201, 129),2	15,(201, 128),2	17,(201, 127),2	19,(201, 126),2	21,(201, 124),2	23,(201, 123),2	25,(201, 121),2	27,(201, 120),2	29,(201, 118),2	31,(201, 117),2	33,(201, 116),2	35,(201, 115),2	37,(201, 113),2	39,(201, 112),2	41,(201, 110),2	43,(201, 109),2	45,(201, 107),2	47,(201, 106),2	49,(201, 105),2	51,(201, 104),2	53,(201, 102),2	55,(201, 101),2	57,(201, 99),2	59,(201, 98),2	61,(201, 96),2	63,(201, 95),2	65,(201, 94),2	67,(201, 93),2	69,(201, 91),2	71,(201, 90),2	73,(201, 80),2	75,(201, 79),2	77,(201, 77),2	79,(201, 76),2	81,(201, 75),2	83,(201, 74),2	85,(201, 72),2	87,(201, 71),2	89,(201, 70),2	91,(201, 69),2	93,(201, 67),2	95,(201, 66),2	97,(201, 65),2	99,(201, 64),2	101,(201, 62),2	103,(201, 61),2	105,(201, 60),2	107,(201, 59),2	109,(201, 57),2	111,(201, 56),2	113,(201, 55),2	115,(201, 54),2	117,(201, 52),2	119,(201, 51),2	121,(201, 50),2	123,(201, 49),2	125,(201, 47),2	127,(201, 46),2	129,(201, 45),2	131,(201, 44),2	133,(201, 42),2	135,(201, 41),2	137,(201, 183),2	139,(201, 182),2	141,(201, 180),2	143,(201, 179),2	145,(201, 177),2	147,(201, 176),2	149,(201, 39),2	151,(201, 38),2	153,(201, 36),2	155,(201, 35),2	157,(201, 33),2	159,(201, 32),2	161,(201, 30),2	163,(201, 29),2	165,(201, 27),2	167,(201, 26),2	169,(201, 16),2	171,(201, 15),2	173,(201, 14),2	175,(201, 13),2	177,(201, 12),2	179,(201, 11),2	181,(201, 10),2	183,(201, 9),2	185,(201, 2),2	187,(201, 4),2	189,(201, 6),2	191,(201, 8),2	193,(201, 193),2	195,(201, 195),2	197,(201, 197),2	199,(201, 199),2	
33,(138, 0),1	63,(137, 0),1	93,(135, 0),1	123,(134, 0),1	153,(132, 0),1	183,(131, 0),1	213,(129, 0),1	243,(128, 0),1	273,(127, 0),1	303,(126, 0),1	333,(124, 0),1	363,(123, 0),1	393,(121, 0),1	423,(120, 0),1	453,(118, 0),1	483,(117, 0),1	513,(116, 0),1	543,(115, 0),1	573,(113, 0),1	603,(112, 0),1	633,(110, 0),1	663,(109, 0),1	693,(107, 0),1	723,(106, 0),1	753,(105, 0),1	783,(104, 0),1	813,(102, 0),1	843,(101, 0),1	873,(99, 0),1	903,(98, 0),1	933,(96, 0),1	963,(95, 0),1	993,(94, 0),1	1023,(93, 0),1	1053,(91, 0),1	1083,(90, 0),1	1113,(80, 0),1	1143,(79, 0),1	1173,(77, 0),1	1203,(76, 0),1	1233,(75, 0),1	1263,(74, 0),1	1293,(72, 0),1	1323,(71, 0),1	1353,(70, 0),1	1383,(69, 0),1	1413,(67, 0),1	1443,(66, 0),1	1473,(65, 0),1	1503,(64, 0),1	1533,(62, 0),1	1563,(61, 0),1	1593,(60, 0),1	1623,(59, 0),1	1653,(57, 0),1	1683,(56, 0),1	1713,(55, 0),1	1743,(54, 0),1	1773,(52, 0),1	1803,(51, 0),1	1833,(50, 0),1	1863,(49, 0),1	1893,(47, 0),1	1923,(46, 0),1	1953,(45, 0),1	1983,(44, 0),1	2013,(42, 0),1	2043,(41, 0),1	2073,(183, 0),1	2103,(182, 0),1	2133,(180, 0),1	2163,(179, 0),1	2193,(177, 0),1	2223,(176, 0),1	2253,(39, 0),1	2283,(38, 0),1	2313,(36, 0),1	2343,(35, 0),1	2373,(33, 0),1	2403,(32, 0),1	2433,(30, 0),1	2463,(29, 0),1	2493,(27, 0),1	2523,(26, 0),1	2553,(16, 0),1	2583,(15, 0),1	2613,(14, 0),1	2643,(13, 0),1	2673,(12, 0),1	2703,(11, 0),1	2733,(10, 0),1	2763,(9, 0),1	2793,(2, 0),1	2823,(4, 0),1	2853,(6, 0),1	2883,(8, 0),1	2913,(193, 0),1	2943,(195, 0),1	2973,(197, 0),1	3003,(199, 0),1	
