174
# CPU
0,201,1	1,139,1	2,138,1	3,140,1	4,137,1	5,136,1	6,135,1	7,44,1	8,84,1	9,141,1	10,142,1	11,134,1	12,133,1	13,16,1	14,83,1	15,144,1	16,143,1	17,145,1	18,132,1	19,165,1	20,79,1	21,131,1	22,129,1	23,128,1	24,146,1	25,40,1	26,78,1	27,147,1	28,126,1	29,148,1	30,125,1	31,185,1	32,74,1	33,124,1	34,149,1	35,122,1	36,120,1	37,105,1	38,171,1	39,119,1	40,118,1	41,150,1	42,116,1	43,164,1	44,68,1	45,151,1	46,115,1	47,113,1	48,152,1	49,103,1	50,66,1	51,153,1	52,112,1	53,111,1	54,109,1	55,154,1	56,62,1	57,155,1	58,156,1	59,108,1	60,106,1	61,56,1	62,61,1	63,94,1	64,93,1	65,95,1	66,92,1	67,182,1	68,57,1	69,90,1	70,91,1	71,89,1	72,96,1	73,98,1	74,41,1	75,87,1	76,86,1	77,88,1	78,85,1	79,49,1	80,46,1	81,82,1	82,97,1	83,81,1	84,101,1	85,158,1	86,43,1	87,77,1	88,76,1	89,80,1	90,75,1	91,17,1	92,181,1	93,73,1	94,72,1	95,71,1	96,104,1	97,14,1	98,183,1	99,70,1	100,69,1	101,67,1	102,65,1	103,194,1	104,34,1	105,64,1	106,159,1	107,63,1	108,60,1	109,8,1	110,29,1	111,161,1	112,59,1	113,163,1	114,58,1	115,192,1	116,31,1	117,54,1	118,179,1	119,178,1	120,180,1	121,196,1	122,28,1	123,177,1	124,176,1	125,175,1	126,174,1	127,45,1	128,33,1	129,184,1	130,186,1	131,172,1	132,169,1	133,189,1	134,27,1	135,53,1	136,52,1	137,187,1	138,51,1	139,191,1	140,23,1	141,48,1	142,47,1	143,39,1	144,188,1	145,190,1	146,35,1	147,20,1	148,19,1	149,21,1	150,18,1	151,195,1	152,10,1	153,15,1	154,22,1	155,13,1	156,24,1	157,38,1	158,198,1	159,1,1	160,2,1	161,3,1	162,4,1	163,6,1	164,5,1	165,7,1	166,9,1	167,11,1	168,12,1	169,25,1	170,193,1	171,197,1	172,199,1	173,0,1	
55,102,1	73,157,1	115,173,1	145,30,1	169,200,1	
7,130,1	25,121,1	
43,110,1	97,168,1	133,42,1	151,32,1	
61,99,1	79,160,1	121,55,1	
13,127,1	103,167,1	157,37,1	
31,117,1	49,107,1	139,36,1	
67,100,1	85,162,1	
19,123,1	109,170,1	127,50,1	163,26,1	
37,114,1	91,166,1	
# Incoming
8,(130, 0),2	14,(127, 0),2	20,(123, 0),2	26,(121, 0),2	32,(117, 0),2	38,(114, 0),2	44,(110, 0),2	50,(107, 0),2	56,(102, 0),2	62,(99, 0),2	68,(100, 0),2	74,(157, 0),2	80,(160, 0),2	86,(162, 0),2	92,(166, 0),2	98,(168, 0),2	104,(167, 0),2	110,(170, 0),2	116,(173, 0),2	122,(55, 0),2	128,(50, 0),2	134,(42, 0),2	140,(36, 0),2	146,(30, 0),2	152,(32, 0),2	158,(37, 0),2	164,(26, 0),2	170,(200, 0),2	
49,(201, 102),6	67,(201, 157),6	109,(201, 173),6	139,(201, 30),6	163,(201, 200),6	
1,(201, 130),6	19,(201, 121),6	
37,(201, 110),6	91,(201, 168),6	127,(201, 42),6	145,(201, 32),6	
55,(201, 99),6	73,(201, 160),6	115,(201, 55),6	
7,(201, 127),6	97,(201, 167),6	151,(201, 37),6	
25,(201, 117),6	43,(201, 107),6	133,(201, 36),6	
61,(201, 100),6	79,(201, 162),6	
13,(201, 123),6	103,(201, 170),6	121,(201, 50),6	157,(201, 26),6	
31,(201, 114),6	85,(201, 166),6	
# Outgoing
1,(201, 130),6	7,(201, 127),6	13,(201, 123),6	19,(201, 121),6	25,(201, 117),6	31,(201, 114),6	37,(201, 110),6	43,(201, 107),6	49,(201, 102),6	55,(201, 99),6	61,(201, 100),6	67,(201, 157),6	73,(201, 160),6	79,(201, 162),6	85,(201, 166),6	91,(201, 168),6	97,(201, 167),6	103,(201, 170),6	109,(201, 173),6	115,(201, 55),6	121,(201, 50),6	127,(201, 42),6	133,(201, 36),6	139,(201, 30),6	145,(201, 32),6	151,(201, 37),6	157,(201, 26),6	163,(201, 200),6	
56,(102, 0),2	74,(157, 0),2	116,(173, 0),2	146,(30, 0),2	170,(200, 0),2	
8,(130, 0),2	26,(121, 0),2	
44,(110, 0),2	98,(168, 0),2	134,(42, 0),2	152,(32, 0),2	
62,(99, 0),2	80,(160, 0),2	122,(55, 0),2	
14,(127, 0),2	104,(167, 0),2	158,(37, 0),2	
32,(117, 0),2	50,(107, 0),2	140,(36, 0),2	
68,(100, 0),2	86,(162, 0),2	
20,(123, 0),2	110,(170, 0),2	128,(50, 0),2	164,(26, 0),2	
38,(114, 0),2	92,(166, 0),2	
