2212
# CPU
0,201,1	1,200,13	14,138,13	27,139,13	40,137,13	53,136,13	66,135,13	79,140,13	92,134,13	105,133,13	118,141,13	131,132,13	144,131,13	157,142,13	170,129,13	183,143,13	196,127,13	209,144,13	222,125,13	235,124,13	248,145,13	261,123,13	274,122,13	287,121,13	300,120,13	313,119,13	326,118,13	339,147,13	352,117,13	365,148,13	378,149,13	391,115,13	404,114,13	417,113,13	430,150,13	443,111,13	456,110,13	469,151,13	482,109,13	495,108,13	508,107,13	521,106,13	534,153,13	547,105,13	560,154,13	573,104,13	586,102,13	599,155,13	612,101,13	625,100,13	638,99,13	651,156,13	664,97,13	677,96,13	690,157,13	703,95,13	716,158,13	729,159,13	742,93,13	755,92,13	768,91,13	781,160,13	794,90,13	807,80,13	820,82,13	833,79,13	846,78,13	859,77,13	872,76,13	885,84,13	898,75,13	911,85,13	924,74,13	937,73,13	950,86,13	963,71,13	976,87,13	989,70,13	1002,88,13	1015,68,13	1028,67,13	1041,89,13	1054,66,13	1067,161,13	1080,65,13	1093,64,13	1106,63,13	1119,62,13	1132,163,13	1145,61,13	1158,60,13	1171,165,13	1184,59,13	1197,58,13	1210,57,13	1223,166,13	1236,167,13	1249,55,13	1262,168,13	1275,54,13	1288,53,13	1301,52,13	1314,51,13	1327,170,13	1340,50,13	1353,171,13	1366,49,13	1379,47,13	1392,172,13	1405,46,13	1418,173,13	1431,45,13	1444,174,13	1457,43,13	1470,42,13	1483,175,13	1496,41,13	1509,184,13	1522,185,13	1535,182,13	1548,181,13	1561,180,13	1574,186,13	1587,179,13	1600,177,13	1613,187,13	1626,176,13	1639,40,13	1652,39,13	1665,38,13	1678,37,13	1691,36,13	1704,189,13	1717,35,13	1730,34,13	1743,190,13	1756,32,13	1769,31,13	1782,30,13	1795,191,13	1808,28,13	1821,27,13	1834,192,13	1847,26,13	1860,17,13	1873,16,13	1886,15,13	1899,19,13	1912,14,13	1925,20,13	1938,13,13	1951,12,13	1964,22,13	1977,11,13	1990,23,13	2003,10,13	2016,24,13	2029,1,13	2042,2,13	2055,3,13	2068,4,13	2081,5,13	2094,7,13	2107,8,13	2120,25,13	2133,193,13	2146,194,13	2159,195,13	2172,197,13	2185,198,13	2198,199,13	2211,0,1	
5,128,13	18,126,13	31,116,13	44,152,13	57,98,13	70,81,13	83,72,13	96,162,13	109,56,13	122,48,13	135,183,13	148,188,13	161,29,13	174,21,13	187,6,13	
9,130,13	22,146,13	35,112,13	48,103,13	61,94,13	74,83,13	87,69,13	100,164,13	113,169,13	126,44,13	139,178,13	152,33,13	165,18,13	178,9,13	191,196,13	
# Incoming
18,(128, 0),72	90,(130, 0),72	162,(126, 0),72	234,(146, 0),72	306,(116, 0),72	378,(112, 0),72	450,(152, 0),72	522,(103, 0),72	594,(98, 0),72	666,(94, 0),72	738,(81, 0),72	810,(83, 0),72	882,(72, 0),72	954,(69, 0),72	1026,(162, 0),72	1098,(164, 0),72	1170,(56, 0),72	1242,(169, 0),72	1314,(48, 0),72	1386,(44, 0),72	1458,(183, 0),72	1530,(178, 0),72	1602,(188, 0),72	1674,(33, 0),72	1746,(29, 0),72	1818,(18, 0),72	1890,(21, 0),72	1962,(9, 0),72	2034,(6, 0),72	2106,(196, 0),72	
1,(201, 128),4	9,(201, 126),4	17,(201, 116),4	25,(201, 152),4	33,(201, 98),4	41,(201, 81),4	49,(201, 72),4	57,(201, 162),4	65,(201, 56),4	73,(201, 48),4	81,(201, 183),4	89,(201, 188),4	97,(201, 29),4	105,(201, 21),4	113,(201, 6),4	
5,(201, 130),4	13,(201, 146),4	21,(201, 112),4	29,(201, 103),4	37,(201, 94),4	45,(201, 83),4	53,(201, 69),4	61,(201, 164),4	69,(201, 169),4	77,(201, 44),4	85,(201, 178),4	93,(201, 33),4	101,(201, 18),4	109,(201, 9),4	117,(201, 196),4	
# Outgoing
1,(201, 128),4	5,(201, 130),4	9,(201, 126),4	13,(201, 146),4	17,(201, 116),4	21,(201, 112),4	25,(201, 152),4	29,(201, 103),4	33,(201, 98),4	37,(201, 94),4	41,(201, 81),4	45,(201, 83),4	49,(201, 72),4	53,(201, 69),4	57,(201, 162),4	61,(201, 164),4	65,(201, 56),4	69,(201, 169),4	73,(201, 48),4	77,(201, 44),4	81,(201, 183),4	85,(201, 178),4	89,(201, 188),4	93,(201, 33),4	97,(201, 29),4	101,(201, 18),4	105,(201, 21),4	109,(201, 9),4	113,(201, 6),4	117,(201, 196),4	
18,(128, 0),72	162,(126, 0),72	306,(116, 0),72	450,(152, 0),72	594,(98, 0),72	738,(81, 0),72	882,(72, 0),72	1026,(162, 0),72	1170,(56, 0),72	1314,(48, 0),72	1458,(183, 0),72	1602,(188, 0),72	1746,(29, 0),72	1890,(21, 0),72	2034,(6, 0),72	
90,(130, 0),72	234,(146, 0),72	378,(112, 0),72	522,(103, 0),72	666,(94, 0),72	810,(83, 0),72	954,(69, 0),72	1098,(164, 0),72	1242,(169, 0),72	1386,(44, 0),72	1530,(178, 0),72	1674,(33, 0),72	1818,(18, 0),72	1962,(9, 0),72	2106,(196, 0),72	
