562
# CPU
0,21,1	1,20,35	36,10,35	71,11,35	106,9,35	141,2,35	176,3,35	211,4,35	246,6,35	281,7,35	316,8,35	351,13,35	386,14,35	421,15,35	456,17,35	491,18,35	526,19,35	561,0,1	
25,1,35	60,5,35	95,12,35	130,16,35	
# Incoming
60,(1, 0),104	164,(5, 0),104	268,(12, 0),104	372,(16, 0),104	
1,(21, 1),24	25,(21, 5),24	49,(21, 12),24	73,(21, 16),24	
# Outgoing
1,(21, 1),24	25,(21, 5),24	49,(21, 12),24	73,(21, 16),24	
60,(1, 0),104	164,(5, 0),104	268,(12, 0),104	372,(16, 0),104	
