153
# CPU
0,201,1	1,139,1	2,138,1	3,140,1	4,120,1	5,85,1	6,141,1	7,176,1	8,83,1	9,137,1	10,21,1	11,70,1	12,142,1	13,46,1	14,160,1	15,143,1	16,112,1	17,161,1	18,136,1	19,188,1	20,67,1	21,135,1	22,40,1	23,80,1	24,144,1	25,118,1	26,78,1	27,146,1	28,28,1	29,169,1	30,145,1	31,35,1	32,163,1	33,134,1	34,180,1	35,162,1	36,128,1	37,26,1	38,62,1	39,147,1	40,165,1	41,74,1	42,133,1	43,108,1	44,72,1	45,148,1	46,54,1	47,97,1	48,149,1	49,106,1	50,68,1	51,151,1	52,167,1	53,168,1	54,126,1	55,55,1	56,92,1	57,100,1	58,65,1	59,171,1	60,98,1	61,11,1	62,63,1	63,99,1	64,102,1	65,45,1	66,95,1	67,30,1	68,53,1	69,96,1	70,69,1	71,51,1	72,94,1	73,66,1	74,42,1	75,101,1	76,179,1	77,49,1	78,91,1	79,175,1	80,48,1	81,90,1	82,50,1	83,84,1	84,89,1	85,15,1	86,183,1	87,88,1	88,164,1	89,41,1	90,86,1	91,79,1	92,33,1	93,87,1	94,6,1	95,185,1	96,81,1	97,32,1	98,186,1	99,77,1	100,12,1	101,71,1	102,76,1	103,10,1	104,38,1	105,182,1	106,196,1	107,36,1	108,181,1	109,17,1	110,59,1	111,184,1	112,64,1	113,44,1	114,187,1	115,8,1	116,1,1	117,189,1	118,195,1	119,190,1	120,177,1	121,29,1	122,2,1	123,178,1	124,52,1	125,3,1	126,191,1	127,192,1	128,170,1	129,31,1	130,14,1	131,22,1	132,34,1	133,199,1	134,194,1	135,25,1	136,19,1	137,16,1	138,27,1	139,23,1	140,18,1	141,4,1	142,9,1	143,7,1	144,5,1	145,13,1	146,20,1	147,24,1	148,37,1	149,39,1	150,193,1	151,198,1	152,0,1	
37,115,1	55,105,1	64,119,1	94,166,1	103,172,1	127,56,1	139,174,1	145,197,1	148,200,1	
4,132,1	22,125,1	112,82,1	
13,131,1	31,121,1	40,113,1	67,152,1	76,155,1	85,158,1	121,58,1	130,61,1	
49,114,1	58,109,1	106,93,1	
7,130,1	88,117,1	97,159,1	115,73,1	142,173,1	
16,127,1	25,123,1	34,116,1	43,111,1	52,107,1	70,153,1	79,150,1	124,57,1	133,47,1	
61,104,1	100,103,1	
10,129,1	19,124,1	82,156,1	91,157,1	109,75,1	118,60,1	136,43,1	
28,122,1	46,110,1	73,154,1	
# Incoming
5,(132, 0),1	8,(130, 0),1	11,(129, 0),1	14,(131, 0),1	17,(127, 0),1	20,(124, 0),1	23,(125, 0),1	26,(123, 0),1	29,(122, 0),1	32,(121, 0),1	35,(116, 0),1	38,(115, 0),1	41,(113, 0),1	44,(111, 0),1	47,(110, 0),1	50,(114, 0),1	53,(107, 0),1	56,(105, 0),1	59,(109, 0),1	62,(104, 0),1	65,(119, 0),1	68,(152, 0),1	71,(153, 0),1	74,(154, 0),1	77,(155, 0),1	80,(150, 0),1	83,(156, 0),1	86,(158, 0),1	89,(117, 0),1	92,(157, 0),1	95,(166, 0),1	98,(159, 0),1	101,(103, 0),1	104,(172, 0),1	107,(93, 0),1	110,(75, 0),1	113,(82, 0),1	116,(73, 0),1	119,(60, 0),1	122,(58, 0),1	125,(57, 0),1	128,(56, 0),1	131,(61, 0),1	134,(47, 0),1	137,(43, 0),1	140,(174, 0),1	143,(173, 0),1	146,(197, 0),1	149,(200, 0),1	
34,(201, 115),3	52,(201, 105),3	61,(201, 119),3	91,(201, 166),3	100,(201, 172),3	124,(201, 56),3	136,(201, 174),3	142,(201, 197),3	145,(201, 200),3	
1,(201, 132),3	19,(201, 125),3	109,(201, 82),3	
10,(201, 131),3	28,(201, 121),3	37,(201, 113),3	64,(201, 152),3	73,(201, 155),3	82,(201, 158),3	118,(201, 58),3	127,(201, 61),3	
46,(201, 114),3	55,(201, 109),3	103,(201, 93),3	
4,(201, 130),3	85,(201, 117),3	94,(201, 159),3	112,(201, 73),3	139,(201, 173),3	
13,(201, 127),3	22,(201, 123),3	31,(201, 116),3	40,(201, 111),3	49,(201, 107),3	67,(201, 153),3	76,(201, 150),3	121,(201, 57),3	130,(201, 47),3	
58,(201, 104),3	97,(201, 103),3	
7,(201, 129),3	16,(201, 124),3	79,(201, 156),3	88,(201, 157),3	106,(201, 75),3	115,(201, 60),3	133,(201, 43),3	
25,(201, 122),3	43,(201, 110),3	70,(201, 154),3	
# Outgoing
1,(201, 132),3	4,(201, 130),3	7,(201, 129),3	10,(201, 131),3	13,(201, 127),3	16,(201, 124),3	19,(201, 125),3	22,(201, 123),3	25,(201, 122),3	28,(201, 121),3	31,(201, 116),3	34,(201, 115),3	37,(201, 113),3	40,(201, 111),3	43,(201, 110),3	46,(201, 114),3	49,(201, 107),3	52,(201, 105),3	55,(201, 109),3	58,(201, 104),3	61,(201, 119),3	64,(201, 152),3	67,(201, 153),3	70,(201, 154),3	73,(201, 155),3	76,(201, 150),3	79,(201, 156),3	82,(201, 158),3	85,(201, 117),3	88,(201, 157),3	91,(201, 166),3	94,(201, 159),3	97,(201, 103),3	100,(201, 172),3	103,(201, 93),3	106,(201, 75),3	109,(201, 82),3	112,(201, 73),3	115,(201, 60),3	118,(201, 58),3	121,(201, 57),3	124,(201, 56),3	127,(201, 61),3	130,(201, 47),3	133,(201, 43),3	136,(201, 174),3	139,(201, 173),3	142,(201, 197),3	145,(201, 200),3	
38,(115, 0),1	56,(105, 0),1	65,(119, 0),1	95,(166, 0),1	104,(172, 0),1	128,(56, 0),1	140,(174, 0),1	146,(197, 0),1	149,(200, 0),1	
5,(132, 0),1	23,(125, 0),1	113,(82, 0),1	
14,(131, 0),1	32,(121, 0),1	41,(113, 0),1	68,(152, 0),1	77,(155, 0),1	86,(158, 0),1	122,(58, 0),1	131,(61, 0),1	
50,(114, 0),1	59,(109, 0),1	107,(93, 0),1	
8,(130, 0),1	89,(117, 0),1	98,(159, 0),1	116,(73, 0),1	143,(173, 0),1	
17,(127, 0),1	26,(123, 0),1	35,(116, 0),1	44,(111, 0),1	53,(107, 0),1	71,(153, 0),1	80,(150, 0),1	125,(57, 0),1	134,(47, 0),1	
62,(104, 0),1	101,(103, 0),1	
11,(129, 0),1	20,(124, 0),1	83,(156, 0),1	92,(157, 0),1	110,(75, 0),1	119,(60, 0),1	137,(43, 0),1	
29,(122, 0),1	47,(110, 0),1	74,(154, 0),1	
