131
# CPU
10,10,2	19,20,2	
9,9,2	18,19,2	
8,8,2	17,18,2	
7,7,2	16,17,2	
6,6,2	15,16,2	
5,5,2	14,15,2	
4,4,2	13,14,2	
3,3,2	12,13,2	
2,2,2	11,12,2	
0,0,1	1,1,2	3,11,2	130,21,1	
# Incoming
9,(0, 10),1	18,(0, 20),1	
8,(0, 9),1	17,(0, 19),1	
7,(0, 8),1	16,(0, 18),1	
6,(0, 7),1	15,(0, 17),1	
5,(0, 6),1	14,(0, 16),1	
4,(0, 5),1	13,(0, 15),1	
3,(0, 4),1	12,(0, 14),1	
2,(0, 3),1	11,(0, 13),1	
1,(0, 2),1	10,(0, 12),1	
4,(2, 21),7	11,(3, 21),7	18,(4, 21),7	25,(5, 21),7	32,(6, 21),7	39,(7, 21),7	46,(8, 21),7	53,(9, 21),7	60,(10, 21),7	67,(12, 21),7	74,(13, 21),7	81,(14, 21),7	88,(15, 21),7	95,(16, 21),7	102,(17, 21),7	109,(18, 21),7	116,(19, 21),7	123,(20, 21),7	
# Outgoing
60,(10, 21),7	123,(20, 21),7	
53,(9, 21),7	116,(19, 21),7	
46,(8, 21),7	109,(18, 21),7	
39,(7, 21),7	102,(17, 21),7	
32,(6, 21),7	95,(16, 21),7	
25,(5, 21),7	88,(15, 21),7	
18,(4, 21),7	81,(14, 21),7	
11,(3, 21),7	74,(13, 21),7	
4,(2, 21),7	67,(12, 21),7	
1,(0, 2),1	2,(0, 3),1	3,(0, 4),1	4,(0, 5),1	5,(0, 6),1	6,(0, 7),1	7,(0, 8),1	8,(0, 9),1	9,(0, 10),1	10,(0, 12),1	11,(0, 13),1	12,(0, 14),1	13,(0, 15),1	14,(0, 16),1	15,(0, 17),1	16,(0, 18),1	17,(0, 19),1	18,(0, 20),1	
