3867
# CPU
97,5,5	193,10,5	289,15,5	385,20,5	481,25,5	577,30,5	673,35,5	769,40,5	865,45,5	961,50,5	1057,55,5	1153,60,5	1249,65,5	1345,70,5	1441,75,5	1537,80,5	1633,85,5	1729,90,5	1825,95,5	1921,100,5	2017,105,5	2113,110,5	2209,115,5	2305,120,5	2401,125,5	2497,130,5	2593,135,5	2689,140,5	2785,145,5	2881,150,5	2977,155,5	3073,160,5	3169,165,5	3265,170,5	3361,175,5	3457,180,5	3553,185,5	3649,190,5	3745,195,5	3841,200,5	
73,4,5	169,9,5	265,14,5	361,19,5	457,24,5	553,29,5	649,34,5	745,39,5	841,44,5	937,49,5	1033,54,5	1129,59,5	1225,64,5	1321,69,5	1417,74,5	1513,79,5	1609,84,5	1705,89,5	1801,94,5	1897,99,5	1993,104,5	2089,109,5	2185,114,5	2281,119,5	2377,124,5	2473,129,5	2569,134,5	2665,139,5	2761,144,5	2857,149,5	2953,154,5	3049,159,5	3145,164,5	3241,169,5	3337,174,5	3433,179,5	3529,184,5	3625,189,5	3721,194,5	3817,199,5	
49,3,5	145,8,5	241,13,5	337,18,5	433,23,5	529,28,5	625,33,5	721,38,5	817,43,5	913,48,5	1009,53,5	1105,58,5	1201,63,5	1297,68,5	1393,73,5	1489,78,5	1585,83,5	1681,88,5	1777,93,5	1873,98,5	1969,103,5	2065,108,5	2161,113,5	2257,118,5	2353,123,5	2449,128,5	2545,133,5	2641,138,5	2737,143,5	2833,148,5	2929,153,5	3025,158,5	3121,163,5	3217,168,5	3313,173,5	3409,178,5	3505,183,5	3601,188,5	3697,193,5	3793,198,5	
25,2,5	121,7,5	217,12,5	313,17,5	409,22,5	505,27,5	601,32,5	697,37,5	793,42,5	889,47,5	985,52,5	1081,57,5	1177,62,5	1273,67,5	1369,72,5	1465,77,5	1561,82,5	1657,87,5	1753,92,5	1849,97,5	1945,102,5	2041,107,5	2137,112,5	2233,117,5	2329,122,5	2425,127,5	2521,132,5	2617,137,5	2713,142,5	2809,147,5	2905,152,5	3001,157,5	3097,162,5	3193,167,5	3289,172,5	3385,177,5	3481,182,5	3577,187,5	3673,192,5	3769,197,5	
0,0,1	1,1,5	6,11,5	11,31,5	16,71,5	21,151,5	26,196,5	31,191,5	36,186,5	41,181,5	46,176,5	51,171,5	56,166,5	61,161,5	66,146,5	71,156,5	76,141,5	81,136,5	86,131,5	91,126,5	96,121,5	101,116,5	106,111,5	111,106,5	116,101,5	121,96,5	126,91,5	131,86,5	136,81,5	141,66,5	146,76,5	151,61,5	156,56,5	161,51,5	166,46,5	171,41,5	176,26,5	181,36,5	186,21,5	191,6,5	196,16,5	3866,201,1	
# Incoming
73,(0, 5),24	169,(0, 10),24	265,(0, 15),24	361,(0, 20),24	457,(0, 25),24	553,(0, 30),24	649,(0, 35),24	745,(0, 40),24	841,(0, 45),24	937,(0, 50),24	1033,(0, 55),24	1129,(0, 60),24	1225,(0, 65),24	1321,(0, 70),24	1417,(0, 75),24	1513,(0, 80),24	1609,(0, 85),24	1705,(0, 90),24	1801,(0, 95),24	1897,(0, 100),24	1993,(0, 105),24	2089,(0, 110),24	2185,(0, 115),24	2281,(0, 120),24	2377,(0, 125),24	2473,(0, 130),24	2569,(0, 135),24	2665,(0, 140),24	2761,(0, 145),24	2857,(0, 150),24	2953,(0, 155),24	3049,(0, 160),24	3145,(0, 165),24	3241,(0, 170),24	3337,(0, 175),24	3433,(0, 180),24	3529,(0, 185),24	3625,(0, 190),24	3721,(0, 195),24	3817,(0, 200),24	
49,(0, 4),24	145,(0, 9),24	241,(0, 14),24	337,(0, 19),24	433,(0, 24),24	529,(0, 29),24	625,(0, 34),24	721,(0, 39),24	817,(0, 44),24	913,(0, 49),24	1009,(0, 54),24	1105,(0, 59),24	1201,(0, 64),24	1297,(0, 69),24	1393,(0, 74),24	1489,(0, 79),24	1585,(0, 84),24	1681,(0, 89),24	1777,(0, 94),24	1873,(0, 99),24	1969,(0, 104),24	2065,(0, 109),24	2161,(0, 114),24	2257,(0, 119),24	2353,(0, 124),24	2449,(0, 129),24	2545,(0, 134),24	2641,(0, 139),24	2737,(0, 144),24	2833,(0, 149),24	2929,(0, 154),24	3025,(0, 159),24	3121,(0, 164),24	3217,(0, 169),24	3313,(0, 174),24	3409,(0, 179),24	3505,(0, 184),24	3601,(0, 189),24	3697,(0, 194),24	3793,(0, 199),24	
25,(0, 3),24	121,(0, 8),24	217,(0, 13),24	313,(0, 18),24	409,(0, 23),24	505,(0, 28),24	601,(0, 33),24	697,(0, 38),24	793,(0, 43),24	889,(0, 48),24	985,(0, 53),24	1081,(0, 58),24	1177,(0, 63),24	1273,(0, 68),24	1369,(0, 73),24	1465,(0, 78),24	1561,(0, 83),24	1657,(0, 88),24	1753,(0, 93),24	1849,(0, 98),24	1945,(0, 103),24	2041,(0, 108),24	2137,(0, 113),24	2233,(0, 118),24	2329,(0, 123),24	2425,(0, 128),24	2521,(0, 133),24	2617,(0, 138),24	2713,(0, 143),24	2809,(0, 148),24	2905,(0, 153),24	3001,(0, 158),24	3097,(0, 163),24	3193,(0, 168),24	3289,(0, 173),24	3385,(0, 178),24	3481,(0, 183),24	3577,(0, 188),24	3673,(0, 193),24	3769,(0, 198),24	
1,(0, 2),24	97,(0, 7),24	193,(0, 12),24	289,(0, 17),24	385,(0, 22),24	481,(0, 27),24	577,(0, 32),24	673,(0, 37),24	769,(0, 42),24	865,(0, 47),24	961,(0, 52),24	1057,(0, 57),24	1153,(0, 62),24	1249,(0, 67),24	1345,(0, 72),24	1441,(0, 77),24	1537,(0, 82),24	1633,(0, 87),24	1729,(0, 92),24	1825,(0, 97),24	1921,(0, 102),24	2017,(0, 107),24	2113,(0, 112),24	2209,(0, 117),24	2305,(0, 122),24	2401,(0, 127),24	2497,(0, 132),24	2593,(0, 137),24	2689,(0, 142),24	2785,(0, 147),24	2881,(0, 152),24	2977,(0, 157),24	3073,(0, 162),24	3169,(0, 167),24	3265,(0, 172),24	3361,(0, 177),24	3457,(0, 182),24	3553,(0, 187),24	3649,(0, 192),24	3745,(0, 197),24	
30,(2, 201),20	54,(3, 201),20	78,(4, 201),20	102,(5, 201),20	126,(7, 201),20	150,(8, 201),20	174,(9, 201),20	198,(10, 201),20	222,(12, 201),20	246,(13, 201),20	270,(14, 201),20	294,(15, 201),20	318,(17, 201),20	342,(18, 201),20	366,(19, 201),20	390,(20, 201),20	414,(22, 201),20	438,(23, 201),20	462,(24, 201),20	486,(25, 201),20	510,(27, 201),20	534,(28, 201),20	558,(29, 201),20	582,(30, 201),20	606,(32, 201),20	630,(33, 201),20	654,(34, 201),20	678,(35, 201),20	702,(37, 201),20	726,(38, 201),20	750,(39, 201),20	774,(40, 201),20	798,(42, 201),20	822,(43, 201),20	846,(44, 201),20	870,(45, 201),20	894,(47, 201),20	918,(48, 201),20	942,(49, 201),20	966,(50, 201),20	990,(52, 201),20	1014,(53, 201),20	1038,(54, 201),20	1062,(55, 201),20	1086,(57, 201),20	1110,(58, 201),20	1134,(59, 201),20	1158,(60, 201),20	1182,(62, 201),20	1206,(63, 201),20	1230,(64, 201),20	1254,(65, 201),20	1278,(67, 201),20	1302,(68, 201),20	1326,(69, 201),20	1350,(70, 201),20	1374,(72, 201),20	1398,(73, 201),20	1422,(74, 201),20	1446,(75, 201),20	1470,(77, 201),20	1494,(78, 201),20	1518,(79, 201),20	1542,(80, 201),20	1566,(82, 201),20	1590,(83, 201),20	1614,(84, 201),20	1638,(85, 201),20	1662,(87, 201),20	1686,(88, 201),20	1710,(89, 201),20	1734,(90, 201),20	1758,(92, 201),20	1782,(93, 201),20	1806,(94, 201),20	1830,(95, 201),20	1854,(97, 201),20	1878,(98, 201),20	1902,(99, 201),20	1926,(100, 201),20	1950,(102, 201),20	1974,(103, 201),20	1998,(104, 201),20	2022,(105, 201),20	2046,(107, 201),20	2070,(108, 201),20	2094,(109, 201),20	2118,(110, 201),20	2142,(112, 201),20	2166,(113, 201),20	2190,(114, 201),20	2214,(115, 201),20	2238,(117, 201),20	2262,(118, 201),20	2286,(119, 201),20	2310,(120, 201),20	2334,(122, 201),20	2358,(123, 201),20	2382,(124, 201),20	2406,(125, 201),20	2430,(127, 201),20	2454,(128, 201),20	2478,(129, 201),20	2502,(130, 201),20	2526,(132, 201),20	2550,(133, 201),20	2574,(134, 201),20	2598,(135, 201),20	2622,(137, 201),20	2646,(138, 201),20	2670,(139, 201),20	2694,(140, 201),20	2718,(142, 201),20	2742,(143, 201),20	2766,(144, 201),20	2790,(145, 201),20	2814,(147, 201),20	2838,(148, 201),20	2862,(149, 201),20	2886,(150, 201),20	2910,(152, 201),20	2934,(153, 201),20	2958,(154, 201),20	2982,(155, 201),20	3006,(157, 201),20	3030,(158, 201),20	3054,(159, 201),20	3078,(160, 201),20	3102,(162, 201),20	3126,(163, 201),20	3150,(164, 201),20	3174,(165, 201),20	3198,(167, 201),20	3222,(168, 201),20	3246,(169, 201),20	3270,(170, 201),20	3294,(172, 201),20	3318,(173, 201),20	3342,(174, 201),20	3366,(175, 201),20	3390,(177, 201),20	3414,(178, 201),20	3438,(179, 201),20	3462,(180, 201),20	3486,(182, 201),20	3510,(183, 201),20	3534,(184, 201),20	3558,(185, 201),20	3582,(187, 201),20	3606,(188, 201),20	3630,(189, 201),20	3654,(190, 201),20	3678,(192, 201),20	3702,(193, 201),20	3726,(194, 201),20	3750,(195, 201),20	3774,(197, 201),20	3798,(198, 201),20	3822,(199, 201),20	3846,(200, 201),20	
# Outgoing
102,(5, 201),20	198,(10, 201),20	294,(15, 201),20	390,(20, 201),20	486,(25, 201),20	582,(30, 201),20	678,(35, 201),20	774,(40, 201),20	870,(45, 201),20	966,(50, 201),20	1062,(55, 201),20	1158,(60, 201),20	1254,(65, 201),20	1350,(70, 201),20	1446,(75, 201),20	1542,(80, 201),20	1638,(85, 201),20	1734,(90, 201),20	1830,(95, 201),20	1926,(100, 201),20	2022,(105, 201),20	2118,(110, 201),20	2214,(115, 201),20	2310,(120, 201),20	2406,(125, 201),20	2502,(130, 201),20	2598,(135, 201),20	2694,(140, 201),20	2790,(145, 201),20	2886,(150, 201),20	2982,(155, 201),20	3078,(160, 201),20	3174,(165, 201),20	3270,(170, 201),20	3366,(175, 201),20	3462,(180, 201),20	3558,(185, 201),20	3654,(190, 201),20	3750,(195, 201),20	3846,(200, 201),20	
78,(4, 201),20	174,(9, 201),20	270,(14, 201),20	366,(19, 201),20	462,(24, 201),20	558,(29, 201),20	654,(34, 201),20	750,(39, 201),20	846,(44, 201),20	942,(49, 201),20	1038,(54, 201),20	1134,(59, 201),20	1230,(64, 201),20	1326,(69, 201),20	1422,(74, 201),20	1518,(79, 201),20	1614,(84, 201),20	1710,(89, 201),20	1806,(94, 201),20	1902,(99, 201),20	1998,(104, 201),20	2094,(109, 201),20	2190,(114, 201),20	2286,(119, 201),20	2382,(124, 201),20	2478,(129, 201),20	2574,(134, 201),20	2670,(139, 201),20	2766,(144, 201),20	2862,(149, 201),20	2958,(154, 201),20	3054,(159, 201),20	3150,(164, 201),20	3246,(169, 201),20	3342,(174, 201),20	3438,(179, 201),20	3534,(184, 201),20	3630,(189, 201),20	3726,(194, 201),20	3822,(199, 201),20	
54,(3, 201),20	150,(8, 201),20	246,(13, 201),20	342,(18, 201),20	438,(23, 201),20	534,(28, 201),20	630,(33, 201),20	726,(38, 201),20	822,(43, 201),20	918,(48, 201),20	1014,(53, 201),20	1110,(58, 201),20	1206,(63, 201),20	1302,(68, 201),20	1398,(73, 201),20	1494,(78, 201),20	1590,(83, 201),20	1686,(88, 201),20	1782,(93, 201),20	1878,(98, 201),20	1974,(103, 201),20	2070,(108, 201),20	2166,(113, 201),20	2262,(118, 201),20	2358,(123, 201),20	2454,(128, 201),20	2550,(133, 201),20	2646,(138, 201),20	2742,(143, 201),20	2838,(148, 201),20	2934,(153, 201),20	3030,(158, 201),20	3126,(163, 201),20	3222,(168, 201),20	3318,(173, 201),20	3414,(178, 201),20	3510,(183, 201),20	3606,(188, 201),20	3702,(193, 201),20	3798,(198, 201),20	
30,(2, 201),20	126,(7, 201),20	222,(12, 201),20	318,(17, 201),20	414,(22, 201),20	510,(27, 201),20	606,(32, 201),20	702,(37, 201),20	798,(42, 201),20	894,(47, 201),20	990,(52, 201),20	1086,(57, 201),20	1182,(62, 201),20	1278,(67, 201),20	1374,(72, 201),20	1470,(77, 201),20	1566,(82, 201),20	1662,(87, 201),20	1758,(92, 201),20	1854,(97, 201),20	1950,(102, 201),20	2046,(107, 201),20	2142,(112, 201),20	2238,(117, 201),20	2334,(122, 201),20	2430,(127, 201),20	2526,(132, 201),20	2622,(137, 201),20	2718,(142, 201),20	2814,(147, 201),20	2910,(152, 201),20	3006,(157, 201),20	3102,(162, 201),20	3198,(167, 201),20	3294,(172, 201),20	3390,(177, 201),20	3486,(182, 201),20	3582,(187, 201),20	3678,(192, 201),20	3774,(197, 201),20	
1,(0, 2),24	25,(0, 3),24	49,(0, 4),24	73,(0, 5),24	97,(0, 7),24	121,(0, 8),24	145,(0, 9),24	169,(0, 10),24	193,(0, 12),24	217,(0, 13),24	241,(0, 14),24	265,(0, 15),24	289,(0, 17),24	313,(0, 18),24	337,(0, 19),24	361,(0, 20),24	385,(0, 22),24	409,(0, 23),24	433,(0, 24),24	457,(0, 25),24	481,(0, 27),24	505,(0, 28),24	529,(0, 29),24	553,(0, 30),24	577,(0, 32),24	601,(0, 33),24	625,(0, 34),24	649,(0, 35),24	673,(0, 37),24	697,(0, 38),24	721,(0, 39),24	745,(0, 40),24	769,(0, 42),24	793,(0, 43),24	817,(0, 44),24	841,(0, 45),24	865,(0, 47),24	889,(0, 48),24	913,(0, 49),24	937,(0, 50),24	961,(0, 52),24	985,(0, 53),24	1009,(0, 54),24	1033,(0, 55),24	1057,(0, 57),24	1081,(0, 58),24	1105,(0, 59),24	1129,(0, 60),24	1153,(0, 62),24	1177,(0, 63),24	1201,(0, 64),24	1225,(0, 65),24	1249,(0, 67),24	1273,(0, 68),24	1297,(0, 69),24	1321,(0, 70),24	1345,(0, 72),24	1369,(0, 73),24	1393,(0, 74),24	1417,(0, 75),24	1441,(0, 77),24	1465,(0, 78),24	1489,(0, 79),24	1513,(0, 80),24	1537,(0, 82),24	1561,(0, 83),24	1585,(0, 84),24	1609,(0, 85),24	1633,(0, 87),24	1657,(0, 88),24	1681,(0, 89),24	1705,(0, 90),24	1729,(0, 92),24	1753,(0, 93),24	1777,(0, 94),24	1801,(0, 95),24	1825,(0, 97),24	1849,(0, 98),24	1873,(0, 99),24	1897,(0, 100),24	1921,(0, 102),24	1945,(0, 103),24	1969,(0, 104),24	1993,(0, 105),24	2017,(0, 107),24	2041,(0, 108),24	2065,(0, 109),24	2089,(0, 110),24	2113,(0, 112),24	2137,(0, 113),24	2161,(0, 114),24	2185,(0, 115),24	2209,(0, 117),24	2233,(0, 118),24	2257,(0, 119),24	2281,(0, 120),24	2305,(0, 122),24	2329,(0, 123),24	2353,(0, 124),24	2377,(0, 125),24	2401,(0, 127),24	2425,(0, 128),24	2449,(0, 129),24	2473,(0, 130),24	2497,(0, 132),24	2521,(0, 133),24	2545,(0, 134),24	2569,(0, 135),24	2593,(0, 137),24	2617,(0, 138),24	2641,(0, 139),24	2665,(0, 140),24	2689,(0, 142),24	2713,(0, 143),24	2737,(0, 144),24	2761,(0, 145),24	2785,(0, 147),24	2809,(0, 148),24	2833,(0, 149),24	2857,(0, 150),24	2881,(0, 152),24	2905,(0, 153),24	2929,(0, 154),24	2953,(0, 155),24	2977,(0, 157),24	3001,(0, 158),24	3025,(0, 159),24	3049,(0, 160),24	3073,(0, 162),24	3097,(0, 163),24	3121,(0, 164),24	3145,(0, 165),24	3169,(0, 167),24	3193,(0, 168),24	3217,(0, 169),24	3241,(0, 170),24	3265,(0, 172),24	3289,(0, 173),24	3313,(0, 174),24	3337,(0, 175),24	3361,(0, 177),24	3385,(0, 178),24	3409,(0, 179),24	3433,(0, 180),24	3457,(0, 182),24	3481,(0, 183),24	3505,(0, 184),24	3529,(0, 185),24	3553,(0, 187),24	3577,(0, 188),24	3601,(0, 189),24	3625,(0, 190),24	3649,(0, 192),24	3673,(0, 193),24	3697,(0, 194),24	3721,(0, 195),24	3745,(0, 197),24	3769,(0, 198),24	3793,(0, 199),24	3817,(0, 200),24	
