1242
# CPU
0,201,1	1,200,10	11,138,10	21,139,10	31,137,10	41,136,10	51,140,10	61,135,10	71,141,10	81,134,10	91,142,10	101,132,10	111,143,10	121,144,10	131,131,10	141,145,10	151,130,10	161,129,10	171,146,10	181,126,10	191,147,10	201,123,10	211,148,10	221,149,10	231,122,10	241,150,10	251,120,10	261,117,10	271,151,10	281,114,10	291,152,10	301,153,10	311,112,10	321,154,10	331,110,10	341,155,10	351,107,10	361,105,10	371,156,10	381,102,10	391,157,10	401,158,10	411,159,10	421,100,10	431,97,10	441,160,10	451,81,10	461,80,10	471,79,10	481,77,10	491,76,10	501,78,10	511,75,10	521,74,10	531,72,10	541,71,10	551,73,10	561,70,10	571,68,10	581,67,10	591,66,10	601,69,10	611,65,10	621,63,10	631,62,10	641,61,10	651,60,10	661,64,10	671,58,10	681,57,10	691,56,10	701,55,10	711,59,10	721,53,10	731,52,10	741,51,10	751,50,10	761,54,10	771,48,10	781,47,10	791,46,10	801,45,10	811,44,10	821,43,10	831,42,10	841,41,10	851,184,10	861,185,10	871,183,10	881,186,10	891,182,10	901,181,10	911,187,10	921,180,10	931,188,10	941,84,10	951,83,10	961,189,10	971,82,10	981,190,10	991,40,10	1001,37,10	1011,191,10	1021,35,10	1031,192,10	1041,17,10	1051,16,10	1061,15,10	1071,14,10	1081,18,10	1091,13,10	1101,12,10	1111,11,10	1121,10,10	1131,9,10	1141,1,10	1151,2,10	1161,3,10	1171,4,10	1181,5,10	1191,6,10	1201,8,10	1211,196,10	1221,197,10	1231,199,10	1241,0,1	
19,128,10	37,125,10	91,115,10	109,111,10	127,108,10	154,103,10	172,99,10	190,96,10	208,93,10	271,162,10	289,164,10	316,166,10	334,168,10	361,170,10	379,172,10	415,175,10	433,177,10	451,178,10	469,49,10	487,38,10	514,33,10	595,193,10	622,195,10	649,22,10	667,7,10	685,198,10	
10,133,10	28,127,10	46,124,10	64,119,10	82,116,10	145,104,10	181,98,10	199,94,10	217,91,10	235,87,10	253,95,10	280,163,10	307,165,10	325,167,10	352,169,10	370,171,10	397,173,10	424,176,10	505,34,10	532,29,10	550,26,10	568,23,10	586,32,10	604,194,10	640,19,10	658,25,10	676,20,10	
55,121,10	73,118,10	100,113,10	118,109,10	136,106,10	163,101,10	226,89,10	244,85,10	262,161,10	298,92,10	343,90,10	388,88,10	406,174,10	442,86,10	460,179,10	478,39,10	496,36,10	523,31,10	541,28,10	559,24,10	577,21,10	613,30,10	631,27,10	
# Incoming
20,(133, 0),16	36,(128, 0),16	52,(127, 0),16	68,(125, 0),16	84,(124, 0),16	100,(121, 0),16	116,(119, 0),16	132,(118, 0),16	148,(116, 0),16	164,(115, 0),16	180,(113, 0),16	196,(111, 0),16	212,(109, 0),16	228,(108, 0),16	244,(106, 0),16	260,(104, 0),16	276,(103, 0),16	292,(101, 0),16	308,(99, 0),16	324,(98, 0),16	340,(96, 0),16	356,(94, 0),16	372,(93, 0),16	388,(91, 0),16	404,(89, 0),16	420,(87, 0),16	436,(85, 0),16	452,(95, 0),16	468,(161, 0),16	484,(162, 0),16	500,(163, 0),16	516,(164, 0),16	532,(92, 0),16	548,(165, 0),16	564,(166, 0),16	580,(167, 0),16	596,(168, 0),16	612,(90, 0),16	628,(169, 0),16	644,(170, 0),16	660,(171, 0),16	676,(172, 0),16	692,(88, 0),16	708,(173, 0),16	724,(174, 0),16	740,(175, 0),16	756,(176, 0),16	772,(177, 0),16	788,(86, 0),16	804,(178, 0),16	820,(179, 0),16	836,(49, 0),16	852,(39, 0),16	868,(38, 0),16	884,(36, 0),16	900,(34, 0),16	916,(33, 0),16	932,(31, 0),16	948,(29, 0),16	964,(28, 0),16	980,(26, 0),16	996,(24, 0),16	1012,(23, 0),16	1028,(21, 0),16	1044,(32, 0),16	1060,(193, 0),16	1076,(194, 0),16	1092,(30, 0),16	1108,(195, 0),16	1124,(27, 0),16	1140,(19, 0),16	1156,(22, 0),16	1172,(25, 0),16	1188,(7, 0),16	1204,(20, 0),16	1220,(198, 0),16	
10,(201, 128),9	28,(201, 125),9	82,(201, 115),9	100,(201, 111),9	118,(201, 108),9	145,(201, 103),9	163,(201, 99),9	181,(201, 96),9	199,(201, 93),9	262,(201, 162),9	280,(201, 164),9	307,(201, 166),9	325,(201, 168),9	352,(201, 170),9	370,(201, 172),9	406,(201, 175),9	424,(201, 177),9	442,(201, 178),9	460,(201, 49),9	478,(201, 38),9	505,(201, 33),9	586,(201, 193),9	613,(201, 195),9	640,(201, 22),9	658,(201, 7),9	676,(201, 198),9	
1,(201, 133),9	19,(201, 127),9	37,(201, 124),9	55,(201, 119),9	73,(201, 116),9	136,(201, 104),9	172,(201, 98),9	190,(201, 94),9	208,(201, 91),9	226,(201, 87),9	244,(201, 95),9	271,(201, 163),9	298,(201, 165),9	316,(201, 167),9	343,(201, 169),9	361,(201, 171),9	388,(201, 173),9	415,(201, 176),9	496,(201, 34),9	523,(201, 29),9	541,(201, 26),9	559,(201, 23),9	577,(201, 32),9	595,(201, 194),9	631,(201, 19),9	649,(201, 25),9	667,(201, 20),9	
46,(201, 121),9	64,(201, 118),9	91,(201, 113),9	109,(201, 109),9	127,(201, 106),9	154,(201, 101),9	217,(201, 89),9	235,(201, 85),9	253,(201, 161),9	289,(201, 92),9	334,(201, 90),9	379,(201, 88),9	397,(201, 174),9	433,(201, 86),9	451,(201, 179),9	469,(201, 39),9	487,(201, 36),9	514,(201, 31),9	532,(201, 28),9	550,(201, 24),9	568,(201, 21),9	604,(201, 30),9	622,(201, 27),9	
# Outgoing
1,(201, 133),9	10,(201, 128),9	19,(201, 127),9	28,(201, 125),9	37,(201, 124),9	46,(201, 121),9	55,(201, 119),9	64,(201, 118),9	73,(201, 116),9	82,(201, 115),9	91,(201, 113),9	100,(201, 111),9	109,(201, 109),9	118,(201, 108),9	127,(201, 106),9	136,(201, 104),9	145,(201, 103),9	154,(201, 101),9	163,(201, 99),9	172,(201, 98),9	181,(201, 96),9	190,(201, 94),9	199,(201, 93),9	208,(201, 91),9	217,(201, 89),9	226,(201, 87),9	235,(201, 85),9	244,(201, 95),9	253,(201, 161),9	262,(201, 162),9	271,(201, 163),9	280,(201, 164),9	289,(201, 92),9	298,(201, 165),9	307,(201, 166),9	316,(201, 167),9	325,(201, 168),9	334,(201, 90),9	343,(201, 169),9	352,(201, 170),9	361,(201, 171),9	370,(201, 172),9	379,(201, 88),9	388,(201, 173),9	397,(201, 174),9	406,(201, 175),9	415,(201, 176),9	424,(201, 177),9	433,(201, 86),9	442,(201, 178),9	451,(201, 179),9	460,(201, 49),9	469,(201, 39),9	478,(201, 38),9	487,(201, 36),9	496,(201, 34),9	505,(201, 33),9	514,(201, 31),9	523,(201, 29),9	532,(201, 28),9	541,(201, 26),9	550,(201, 24),9	559,(201, 23),9	568,(201, 21),9	577,(201, 32),9	586,(201, 193),9	595,(201, 194),9	604,(201, 30),9	613,(201, 195),9	622,(201, 27),9	631,(201, 19),9	640,(201, 22),9	649,(201, 25),9	658,(201, 7),9	667,(201, 20),9	676,(201, 198),9	
36,(128, 0),16	68,(125, 0),16	164,(115, 0),16	196,(111, 0),16	228,(108, 0),16	276,(103, 0),16	308,(99, 0),16	340,(96, 0),16	372,(93, 0),16	484,(162, 0),16	516,(164, 0),16	564,(166, 0),16	596,(168, 0),16	644,(170, 0),16	676,(172, 0),16	740,(175, 0),16	772,(177, 0),16	804,(178, 0),16	836,(49, 0),16	868,(38, 0),16	916,(33, 0),16	1060,(193, 0),16	1108,(195, 0),16	1156,(22, 0),16	1188,(7, 0),16	1220,(198, 0),16	
20,(133, 0),16	52,(127, 0),16	84,(124, 0),16	116,(119, 0),16	148,(116, 0),16	260,(104, 0),16	324,(98, 0),16	356,(94, 0),16	388,(91, 0),16	420,(87, 0),16	452,(95, 0),16	500,(163, 0),16	548,(165, 0),16	580,(167, 0),16	628,(169, 0),16	660,(171, 0),16	708,(173, 0),16	756,(176, 0),16	900,(34, 0),16	948,(29, 0),16	980,(26, 0),16	1012,(23, 0),16	1044,(32, 0),16	1076,(194, 0),16	1140,(19, 0),16	1172,(25, 0),16	1204,(20, 0),16	
100,(121, 0),16	132,(118, 0),16	180,(113, 0),16	212,(109, 0),16	244,(106, 0),16	292,(101, 0),16	404,(89, 0),16	436,(85, 0),16	468,(161, 0),16	532,(92, 0),16	612,(90, 0),16	692,(88, 0),16	724,(174, 0),16	788,(86, 0),16	820,(179, 0),16	852,(39, 0),16	884,(36, 0),16	932,(31, 0),16	964,(28, 0),16	996,(24, 0),16	1028,(21, 0),16	1092,(30, 0),16	1124,(27, 0),16	
