22
# CPU
0,0,1	1,1,1	2,3,1	3,7,1	4,15,1	5,20,1	6,19,1	7,18,1	8,17,1	9,14,1	10,16,1	11,13,1	12,12,1	13,11,1	14,10,1	15,9,1	16,6,1	17,8,1	18,5,1	19,2,1	20,4,1	21,21,1	




# Incoming





# Outgoing





