3634
# CPU
73,4,12	145,8,12	217,12,12	289,16,12	361,20,12	433,24,12	505,28,12	577,32,12	649,36,12	721,40,12	793,44,12	865,48,12	937,52,12	1009,56,12	1081,60,12	1153,64,12	1225,68,12	1297,72,12	1369,76,12	1441,80,12	1513,84,12	1585,88,12	1657,92,12	1729,96,12	1801,100,12	1873,104,12	1945,108,12	2017,112,12	2089,116,12	2161,120,12	2233,124,12	2305,128,12	2377,132,12	2449,136,12	2521,140,12	2593,144,12	2665,148,12	2737,152,12	2809,156,12	2881,160,12	2953,164,12	3025,168,12	3097,172,12	3169,176,12	3241,180,12	3313,184,12	3385,188,12	3457,192,12	3529,196,12	3601,200,12	
49,3,12	121,7,12	193,11,12	265,15,12	337,19,12	409,23,12	481,27,12	553,31,12	625,35,12	697,39,12	769,43,12	841,47,12	913,51,12	985,55,12	1057,59,12	1129,63,12	1201,67,12	1273,71,12	1345,75,12	1417,79,12	1489,83,12	1561,87,12	1633,91,12	1705,95,12	1777,99,12	1849,103,12	1921,107,12	1993,111,12	2065,115,12	2137,119,12	2209,123,12	2281,127,12	2353,131,12	2425,135,12	2497,139,12	2569,143,12	2641,147,12	2713,151,12	2785,155,12	2857,159,12	2929,163,12	3001,167,12	3073,171,12	3145,175,12	3217,179,12	3289,183,12	3361,187,12	3433,191,12	3505,195,12	3577,199,12	
25,2,12	97,6,12	169,10,12	241,14,12	313,18,12	385,22,12	457,26,12	529,30,12	601,34,12	673,38,12	745,42,12	817,46,12	889,50,12	961,54,12	1033,58,12	1105,62,12	1177,66,12	1249,70,12	1321,74,12	1393,78,12	1465,82,12	1537,86,12	1609,90,12	1681,94,12	1753,98,12	1825,102,12	1897,106,12	1969,110,12	2041,114,12	2113,118,12	2185,122,12	2257,126,12	2329,130,12	2401,134,12	2473,138,12	2545,142,12	2617,146,12	2689,150,12	2761,154,12	2833,158,12	2905,162,12	2977,166,12	3049,170,12	3121,174,12	3193,178,12	3265,182,12	3337,186,12	3409,190,12	3481,194,12	3553,198,12	
0,0,1	1,1,12	13,9,12	25,25,12	37,57,12	49,121,12	61,197,12	73,193,12	85,189,12	97,185,12	109,181,12	121,177,12	133,173,12	145,169,12	157,165,12	169,161,12	181,157,12	193,153,12	205,149,12	217,145,12	229,141,12	241,137,12	253,133,12	265,129,12	277,117,12	289,125,12	301,113,12	313,109,12	325,105,12	337,101,12	349,97,12	361,93,12	373,89,12	385,85,12	397,81,12	409,77,12	421,73,12	433,69,12	445,65,12	457,53,12	469,61,12	481,49,12	493,45,12	505,41,12	517,37,12	529,33,12	541,21,12	553,29,12	565,17,12	577,5,12	589,13,12	3633,201,1	
# Incoming
49,(0, 4),24	121,(0, 8),24	193,(0, 12),24	265,(0, 16),24	337,(0, 20),24	409,(0, 24),24	481,(0, 28),24	553,(0, 32),24	625,(0, 36),24	697,(0, 40),24	769,(0, 44),24	841,(0, 48),24	913,(0, 52),24	985,(0, 56),24	1057,(0, 60),24	1129,(0, 64),24	1201,(0, 68),24	1273,(0, 72),24	1345,(0, 76),24	1417,(0, 80),24	1489,(0, 84),24	1561,(0, 88),24	1633,(0, 92),24	1705,(0, 96),24	1777,(0, 100),24	1849,(0, 104),24	1921,(0, 108),24	1993,(0, 112),24	2065,(0, 116),24	2137,(0, 120),24	2209,(0, 124),24	2281,(0, 128),24	2353,(0, 132),24	2425,(0, 136),24	2497,(0, 140),24	2569,(0, 144),24	2641,(0, 148),24	2713,(0, 152),24	2785,(0, 156),24	2857,(0, 160),24	2929,(0, 164),24	3001,(0, 168),24	3073,(0, 172),24	3145,(0, 176),24	3217,(0, 180),24	3289,(0, 184),24	3361,(0, 188),24	3433,(0, 192),24	3505,(0, 196),24	3577,(0, 200),24	
25,(0, 3),24	97,(0, 7),24	169,(0, 11),24	241,(0, 15),24	313,(0, 19),24	385,(0, 23),24	457,(0, 27),24	529,(0, 31),24	601,(0, 35),24	673,(0, 39),24	745,(0, 43),24	817,(0, 47),24	889,(0, 51),24	961,(0, 55),24	1033,(0, 59),24	1105,(0, 63),24	1177,(0, 67),24	1249,(0, 71),24	1321,(0, 75),24	1393,(0, 79),24	1465,(0, 83),24	1537,(0, 87),24	1609,(0, 91),24	1681,(0, 95),24	1753,(0, 99),24	1825,(0, 103),24	1897,(0, 107),24	1969,(0, 111),24	2041,(0, 115),24	2113,(0, 119),24	2185,(0, 123),24	2257,(0, 127),24	2329,(0, 131),24	2401,(0, 135),24	2473,(0, 139),24	2545,(0, 143),24	2617,(0, 147),24	2689,(0, 151),24	2761,(0, 155),24	2833,(0, 159),24	2905,(0, 163),24	2977,(0, 167),24	3049,(0, 171),24	3121,(0, 175),24	3193,(0, 179),24	3265,(0, 183),24	3337,(0, 187),24	3409,(0, 191),24	3481,(0, 195),24	3553,(0, 199),24	
1,(0, 2),24	73,(0, 6),24	145,(0, 10),24	217,(0, 14),24	289,(0, 18),24	361,(0, 22),24	433,(0, 26),24	505,(0, 30),24	577,(0, 34),24	649,(0, 38),24	721,(0, 42),24	793,(0, 46),24	865,(0, 50),24	937,(0, 54),24	1009,(0, 58),24	1081,(0, 62),24	1153,(0, 66),24	1225,(0, 70),24	1297,(0, 74),24	1369,(0, 78),24	1441,(0, 82),24	1513,(0, 86),24	1585,(0, 90),24	1657,(0, 94),24	1729,(0, 98),24	1801,(0, 102),24	1873,(0, 106),24	1945,(0, 110),24	2017,(0, 114),24	2089,(0, 118),24	2161,(0, 122),24	2233,(0, 126),24	2305,(0, 130),24	2377,(0, 134),24	2449,(0, 138),24	2521,(0, 142),24	2593,(0, 146),24	2665,(0, 150),24	2737,(0, 154),24	2809,(0, 158),24	2881,(0, 162),24	2953,(0, 166),24	3025,(0, 170),24	3097,(0, 174),24	3169,(0, 178),24	3241,(0, 182),24	3313,(0, 186),24	3385,(0, 190),24	3457,(0, 194),24	3529,(0, 198),24	
37,(2, 201),20	61,(3, 201),20	85,(4, 201),20	109,(6, 201),20	133,(7, 201),20	157,(8, 201),20	181,(10, 201),20	205,(11, 201),20	229,(12, 201),20	253,(14, 201),20	277,(15, 201),20	301,(16, 201),20	325,(18, 201),20	349,(19, 201),20	373,(20, 201),20	397,(22, 201),20	421,(23, 201),20	445,(24, 201),20	469,(26, 201),20	493,(27, 201),20	517,(28, 201),20	541,(30, 201),20	565,(31, 201),20	589,(32, 201),20	613,(34, 201),20	637,(35, 201),20	661,(36, 201),20	685,(38, 201),20	709,(39, 201),20	733,(40, 201),20	757,(42, 201),20	781,(43, 201),20	805,(44, 201),20	829,(46, 201),20	853,(47, 201),20	877,(48, 201),20	901,(50, 201),20	925,(51, 201),20	949,(52, 201),20	973,(54, 201),20	997,(55, 201),20	1021,(56, 201),20	1045,(58, 201),20	1069,(59, 201),20	1093,(60, 201),20	1117,(62, 201),20	1141,(63, 201),20	1165,(64, 201),20	1189,(66, 201),20	1213,(67, 201),20	1237,(68, 201),20	1261,(70, 201),20	1285,(71, 201),20	1309,(72, 201),20	1333,(74, 201),20	1357,(75, 201),20	1381,(76, 201),20	1405,(78, 201),20	1429,(79, 201),20	1453,(80, 201),20	1477,(82, 201),20	1501,(83, 201),20	1525,(84, 201),20	1549,(86, 201),20	1573,(87, 201),20	1597,(88, 201),20	1621,(90, 201),20	1645,(91, 201),20	1669,(92, 201),20	1693,(94, 201),20	1717,(95, 201),20	1741,(96, 201),20	1765,(98, 201),20	1789,(99, 201),20	1813,(100, 201),20	1837,(102, 201),20	1861,(103, 201),20	1885,(104, 201),20	1909,(106, 201),20	1933,(107, 201),20	1957,(108, 201),20	1981,(110, 201),20	2005,(111, 201),20	2029,(112, 201),20	2053,(114, 201),20	2077,(115, 201),20	2101,(116, 201),20	2125,(118, 201),20	2149,(119, 201),20	2173,(120, 201),20	2197,(122, 201),20	2221,(123, 201),20	2245,(124, 201),20	2269,(126, 201),20	2293,(127, 201),20	2317,(128, 201),20	2341,(130, 201),20	2365,(131, 201),20	2389,(132, 201),20	2413,(134, 201),20	2437,(135, 201),20	2461,(136, 201),20	2485,(138, 201),20	2509,(139, 201),20	2533,(140, 201),20	2557,(142, 201),20	2581,(143, 201),20	2605,(144, 201),20	2629,(146, 201),20	2653,(147, 201),20	2677,(148, 201),20	2701,(150, 201),20	2725,(151, 201),20	2749,(152, 201),20	2773,(154, 201),20	2797,(155, 201),20	2821,(156, 201),20	2845,(158, 201),20	2869,(159, 201),20	2893,(160, 201),20	2917,(162, 201),20	2941,(163, 201),20	2965,(164, 201),20	2989,(166, 201),20	3013,(167, 201),20	3037,(168, 201),20	3061,(170, 201),20	3085,(171, 201),20	3109,(172, 201),20	3133,(174, 201),20	3157,(175, 201),20	3181,(176, 201),20	3205,(178, 201),20	3229,(179, 201),20	3253,(180, 201),20	3277,(182, 201),20	3301,(183, 201),20	3325,(184, 201),20	3349,(186, 201),20	3373,(187, 201),20	3397,(188, 201),20	3421,(190, 201),20	3445,(191, 201),20	3469,(192, 201),20	3493,(194, 201),20	3517,(195, 201),20	3541,(196, 201),20	3565,(198, 201),20	3589,(199, 201),20	3613,(200, 201),20	
# Outgoing
85,(4, 201),20	157,(8, 201),20	229,(12, 201),20	301,(16, 201),20	373,(20, 201),20	445,(24, 201),20	517,(28, 201),20	589,(32, 201),20	661,(36, 201),20	733,(40, 201),20	805,(44, 201),20	877,(48, 201),20	949,(52, 201),20	1021,(56, 201),20	1093,(60, 201),20	1165,(64, 201),20	1237,(68, 201),20	1309,(72, 201),20	1381,(76, 201),20	1453,(80, 201),20	1525,(84, 201),20	1597,(88, 201),20	1669,(92, 201),20	1741,(96, 201),20	1813,(100, 201),20	1885,(104, 201),20	1957,(108, 201),20	2029,(112, 201),20	2101,(116, 201),20	2173,(120, 201),20	2245,(124, 201),20	2317,(128, 201),20	2389,(132, 201),20	2461,(136, 201),20	2533,(140, 201),20	2605,(144, 201),20	2677,(148, 201),20	2749,(152, 201),20	2821,(156, 201),20	2893,(160, 201),20	2965,(164, 201),20	3037,(168, 201),20	3109,(172, 201),20	3181,(176, 201),20	3253,(180, 201),20	3325,(184, 201),20	3397,(188, 201),20	3469,(192, 201),20	3541,(196, 201),20	3613,(200, 201),20	
61,(3, 201),20	133,(7, 201),20	205,(11, 201),20	277,(15, 201),20	349,(19, 201),20	421,(23, 201),20	493,(27, 201),20	565,(31, 201),20	637,(35, 201),20	709,(39, 201),20	781,(43, 201),20	853,(47, 201),20	925,(51, 201),20	997,(55, 201),20	1069,(59, 201),20	1141,(63, 201),20	1213,(67, 201),20	1285,(71, 201),20	1357,(75, 201),20	1429,(79, 201),20	1501,(83, 201),20	1573,(87, 201),20	1645,(91, 201),20	1717,(95, 201),20	1789,(99, 201),20	1861,(103, 201),20	1933,(107, 201),20	2005,(111, 201),20	2077,(115, 201),20	2149,(119, 201),20	2221,(123, 201),20	2293,(127, 201),20	2365,(131, 201),20	2437,(135, 201),20	2509,(139, 201),20	2581,(143, 201),20	2653,(147, 201),20	2725,(151, 201),20	2797,(155, 201),20	2869,(159, 201),20	2941,(163, 201),20	3013,(167, 201),20	3085,(171, 201),20	3157,(175, 201),20	3229,(179, 201),20	3301,(183, 201),20	3373,(187, 201),20	3445,(191, 201),20	3517,(195, 201),20	3589,(199, 201),20	
37,(2, 201),20	109,(6, 201),20	181,(10, 201),20	253,(14, 201),20	325,(18, 201),20	397,(22, 201),20	469,(26, 201),20	541,(30, 201),20	613,(34, 201),20	685,(38, 201),20	757,(42, 201),20	829,(46, 201),20	901,(50, 201),20	973,(54, 201),20	1045,(58, 201),20	1117,(62, 201),20	1189,(66, 201),20	1261,(70, 201),20	1333,(74, 201),20	1405,(78, 201),20	1477,(82, 201),20	1549,(86, 201),20	1621,(90, 201),20	1693,(94, 201),20	1765,(98, 201),20	1837,(102, 201),20	1909,(106, 201),20	1981,(110, 201),20	2053,(114, 201),20	2125,(118, 201),20	2197,(122, 201),20	2269,(126, 201),20	2341,(130, 201),20	2413,(134, 201),20	2485,(138, 201),20	2557,(142, 201),20	2629,(146, 201),20	2701,(150, 201),20	2773,(154, 201),20	2845,(158, 201),20	2917,(162, 201),20	2989,(166, 201),20	3061,(170, 201),20	3133,(174, 201),20	3205,(178, 201),20	3277,(182, 201),20	3349,(186, 201),20	3421,(190, 201),20	3493,(194, 201),20	3565,(198, 201),20	
1,(0, 2),24	25,(0, 3),24	49,(0, 4),24	73,(0, 6),24	97,(0, 7),24	121,(0, 8),24	145,(0, 10),24	169,(0, 11),24	193,(0, 12),24	217,(0, 14),24	241,(0, 15),24	265,(0, 16),24	289,(0, 18),24	313,(0, 19),24	337,(0, 20),24	361,(0, 22),24	385,(0, 23),24	409,(0, 24),24	433,(0, 26),24	457,(0, 27),24	481,(0, 28),24	505,(0, 30),24	529,(0, 31),24	553,(0, 32),24	577,(0, 34),24	601,(0, 35),24	625,(0, 36),24	649,(0, 38),24	673,(0, 39),24	697,(0, 40),24	721,(0, 42),24	745,(0, 43),24	769,(0, 44),24	793,(0, 46),24	817,(0, 47),24	841,(0, 48),24	865,(0, 50),24	889,(0, 51),24	913,(0, 52),24	937,(0, 54),24	961,(0, 55),24	985,(0, 56),24	1009,(0, 58),24	1033,(0, 59),24	1057,(0, 60),24	1081,(0, 62),24	1105,(0, 63),24	1129,(0, 64),24	1153,(0, 66),24	1177,(0, 67),24	1201,(0, 68),24	1225,(0, 70),24	1249,(0, 71),24	1273,(0, 72),24	1297,(0, 74),24	1321,(0, 75),24	1345,(0, 76),24	1369,(0, 78),24	1393,(0, 79),24	1417,(0, 80),24	1441,(0, 82),24	1465,(0, 83),24	1489,(0, 84),24	1513,(0, 86),24	1537,(0, 87),24	1561,(0, 88),24	1585,(0, 90),24	1609,(0, 91),24	1633,(0, 92),24	1657,(0, 94),24	1681,(0, 95),24	1705,(0, 96),24	1729,(0, 98),24	1753,(0, 99),24	1777,(0, 100),24	1801,(0, 102),24	1825,(0, 103),24	1849,(0, 104),24	1873,(0, 106),24	1897,(0, 107),24	1921,(0, 108),24	1945,(0, 110),24	1969,(0, 111),24	1993,(0, 112),24	2017,(0, 114),24	2041,(0, 115),24	2065,(0, 116),24	2089,(0, 118),24	2113,(0, 119),24	2137,(0, 120),24	2161,(0, 122),24	2185,(0, 123),24	2209,(0, 124),24	2233,(0, 126),24	2257,(0, 127),24	2281,(0, 128),24	2305,(0, 130),24	2329,(0, 131),24	2353,(0, 132),24	2377,(0, 134),24	2401,(0, 135),24	2425,(0, 136),24	2449,(0, 138),24	2473,(0, 139),24	2497,(0, 140),24	2521,(0, 142),24	2545,(0, 143),24	2569,(0, 144),24	2593,(0, 146),24	2617,(0, 147),24	2641,(0, 148),24	2665,(0, 150),24	2689,(0, 151),24	2713,(0, 152),24	2737,(0, 154),24	2761,(0, 155),24	2785,(0, 156),24	2809,(0, 158),24	2833,(0, 159),24	2857,(0, 160),24	2881,(0, 162),24	2905,(0, 163),24	2929,(0, 164),24	2953,(0, 166),24	2977,(0, 167),24	3001,(0, 168),24	3025,(0, 170),24	3049,(0, 171),24	3073,(0, 172),24	3097,(0, 174),24	3121,(0, 175),24	3145,(0, 176),24	3169,(0, 178),24	3193,(0, 179),24	3217,(0, 180),24	3241,(0, 182),24	3265,(0, 183),24	3289,(0, 184),24	3313,(0, 186),24	3337,(0, 187),24	3361,(0, 188),24	3385,(0, 190),24	3409,(0, 191),24	3433,(0, 192),24	3457,(0, 194),24	3481,(0, 195),24	3505,(0, 196),24	3529,(0, 198),24	3553,(0, 199),24	3577,(0, 200),24	
