7657
# CPU
1905,5,27	3809,10,27	5713,15,27	7617,20,27	
1429,4,27	3333,9,27	5237,14,27	7141,19,27	
953,3,27	2857,8,27	4761,13,27	6665,18,27	
477,2,27	2381,7,27	4285,12,27	6189,17,27	
0,0,1	1,1,27	28,11,27	55,6,27	82,16,27	7656,21,1	
# Incoming
1429,(0, 5),476	3333,(0, 10),476	5237,(0, 15),476	7141,(0, 20),476	
953,(0, 4),476	2857,(0, 9),476	4761,(0, 14),476	6665,(0, 19),476	
477,(0, 3),476	2381,(0, 8),476	4285,(0, 13),476	6189,(0, 18),476	
1,(0, 2),476	1905,(0, 7),476	3809,(0, 12),476	5713,(0, 17),476	
504,(2, 21),12	980,(3, 21),12	1456,(4, 21),12	1932,(5, 21),12	2408,(7, 21),12	2884,(8, 21),12	3360,(9, 21),12	3836,(10, 21),12	4312,(12, 21),12	4788,(13, 21),12	5264,(14, 21),12	5740,(15, 21),12	6216,(17, 21),12	6692,(18, 21),12	7168,(19, 21),12	7644,(20, 21),12	
# Outgoing
1932,(5, 21),12	3836,(10, 21),12	5740,(15, 21),12	7644,(20, 21),12	
1456,(4, 21),12	3360,(9, 21),12	5264,(14, 21),12	7168,(19, 21),12	
980,(3, 21),12	2884,(8, 21),12	4788,(13, 21),12	6692,(18, 21),12	
504,(2, 21),12	2408,(7, 21),12	4312,(12, 21),12	6216,(17, 21),12	
1,(0, 2),476	477,(0, 3),476	953,(0, 4),476	1429,(0, 5),476	1905,(0, 7),476	2381,(0, 8),476	2857,(0, 9),476	3333,(0, 10),476	3809,(0, 12),476	4285,(0, 13),476	4761,(0, 14),476	5237,(0, 15),476	5713,(0, 17),476	6189,(0, 18),476	6665,(0, 19),476	7141,(0, 20),476	
