110
# CPU
0,21,1	1,20,6	7,10,6	13,11,6	19,9,6	25,1,6	31,2,6	37,3,6	43,4,6	49,5,6	55,6,6	61,7,6	67,8,6	73,12,6	79,13,6	85,14,6	91,16,6	97,17,6	103,19,6	109,0,1	







31,15,6	61,18,6	

# Incoming
37,(15, 0),20	67,(18, 0),20	







1,(21, 15),30	31,(21, 18),30	

# Outgoing
1,(21, 15),30	31,(21, 18),30	







37,(15, 0),20	67,(18, 0),20	

