753
# CPU
0,201,1	1,200,4	5,138,4	9,139,4	13,137,4	17,136,4	21,135,4	25,140,4	29,134,4	33,133,4	37,132,4	41,141,4	45,131,4	49,130,4	53,129,4	57,142,4	61,128,4	65,143,4	69,144,4	73,127,4	77,126,4	81,125,4	85,145,4	89,123,4	93,122,4	97,121,4	101,146,4	105,120,4	109,119,4	113,118,4	117,147,4	121,117,4	125,148,4	129,149,4	133,116,4	137,115,4	141,114,4	145,150,4	149,113,4	153,112,4	157,110,4	161,151,4	165,109,4	169,108,4	173,107,4	177,152,4	181,153,4	185,106,4	189,154,4	193,105,4	197,104,4	201,103,4	205,155,4	209,102,4	213,100,4	217,99,4	221,156,4	225,98,4	229,97,4	233,96,4	237,157,4	241,158,4	245,95,4	249,159,4	253,94,4	257,93,4	261,92,4	265,160,4	269,90,4	273,81,4	277,80,4	281,82,4	285,79,4	289,78,4	293,77,4	297,76,4	301,83,4	305,75,4	309,84,4	313,74,4	317,73,4	321,72,4	325,85,4	329,71,4	333,87,4	337,70,4	341,88,4	345,69,4	349,68,4	353,67,4	357,66,4	361,89,4	365,65,4	369,161,4	373,64,4	377,63,4	381,62,4	385,162,4	389,61,4	393,164,4	397,60,4	401,165,4	405,59,4	409,57,4	413,58,4	417,56,4	421,166,4	425,55,4	429,167,4	433,54,4	437,53,4	441,52,4	445,169,4	449,51,4	453,170,4	457,50,4	461,171,4	465,48,4	469,47,4	473,49,4	477,46,4	481,172,4	485,45,4	489,173,4	493,44,4	497,43,4	501,42,4	505,174,4	509,41,4	513,184,4	517,183,4	521,185,4	525,182,4	529,181,4	533,186,4	537,180,4	541,179,4	545,177,4	549,187,4	553,175,4	557,40,4	561,39,4	565,188,4	569,38,4	573,37,4	577,36,4	581,189,4	585,35,4	589,34,4	593,190,4	597,33,4	601,31,4	605,30,4	609,191,4	613,29,4	617,28,4	621,27,4	625,192,4	629,26,4	633,17,4	637,16,4	641,15,4	645,18,4	649,14,4	653,19,4	657,13,4	661,20,4	665,12,4	669,22,4	673,11,4	677,23,4	681,10,4	685,24,4	689,9,4	693,1,4	697,2,4	701,3,4	705,4,4	709,5,4	713,6,4	717,7,4	721,8,4	725,25,4	729,193,4	733,194,4	737,195,4	741,197,4	745,198,4	752,0,1	
172,101,4	343,163,4	457,176,4	685,196,4	742,199,4	
115,111,4	400,168,4	628,21,4	
58,124,4	229,91,4	286,86,4	514,178,4	571,32,4	
# Incoming
62,(124, 0),6	119,(111, 0),6	176,(101, 0),6	233,(91, 0),6	290,(86, 0),6	347,(163, 0),6	404,(168, 0),6	461,(176, 0),6	518,(178, 0),6	575,(32, 0),6	632,(21, 0),6	689,(196, 0),6	746,(199, 0),6	
115,(201, 101),57	286,(201, 163),57	400,(201, 176),57	628,(201, 196),57	685,(201, 199),57	
58,(201, 111),57	343,(201, 168),57	571,(201, 21),57	
1,(201, 124),57	172,(201, 91),57	229,(201, 86),57	457,(201, 178),57	514,(201, 32),57	
# Outgoing
1,(201, 124),57	58,(201, 111),57	115,(201, 101),57	172,(201, 91),57	229,(201, 86),57	286,(201, 163),57	343,(201, 168),57	400,(201, 176),57	457,(201, 178),57	514,(201, 32),57	571,(201, 21),57	628,(201, 196),57	685,(201, 199),57	
176,(101, 0),6	347,(163, 0),6	461,(176, 0),6	689,(196, 0),6	746,(199, 0),6	
119,(111, 0),6	404,(168, 0),6	632,(21, 0),6	
62,(124, 0),6	233,(91, 0),6	290,(86, 0),6	518,(178, 0),6	575,(32, 0),6	
