8118
# CPU
163,4,13	325,8,13	487,12,13	649,16,13	811,20,13	973,24,13	1135,28,13	1297,32,13	1459,36,13	1621,40,13	1783,44,13	1945,48,13	2107,52,13	2269,56,13	2431,60,13	2593,64,13	2755,68,13	2917,72,13	3079,76,13	3241,80,13	3403,84,13	3565,88,13	3727,92,13	3889,96,13	4051,100,13	4213,104,13	4375,108,13	4537,112,13	4699,116,13	4861,120,13	5023,124,13	5185,128,13	5347,132,13	5509,136,13	5671,140,13	5833,144,13	5995,148,13	6157,152,13	6319,156,13	6481,160,13	6643,164,13	6805,168,13	6967,172,13	7129,176,13	7291,180,13	7453,184,13	7615,188,13	7777,192,13	7939,196,13	8101,200,13	
109,3,13	271,7,13	433,11,13	595,15,13	757,19,13	919,23,13	1081,27,13	1243,31,13	1405,35,13	1567,39,13	1729,43,13	1891,47,13	2053,51,13	2215,55,13	2377,59,13	2539,63,13	2701,67,13	2863,71,13	3025,75,13	3187,79,13	3349,83,13	3511,87,13	3673,91,13	3835,95,13	3997,99,13	4159,103,13	4321,107,13	4483,111,13	4645,115,13	4807,119,13	4969,123,13	5131,127,13	5293,131,13	5455,135,13	5617,139,13	5779,143,13	5941,147,13	6103,151,13	6265,155,13	6427,159,13	6589,163,13	6751,167,13	6913,171,13	7075,175,13	7237,179,13	7399,183,13	7561,187,13	7723,191,13	7885,195,13	8047,199,13	
55,2,13	217,6,13	379,10,13	541,14,13	703,18,13	865,22,13	1027,26,13	1189,30,13	1351,34,13	1513,38,13	1675,42,13	1837,46,13	1999,50,13	2161,54,13	2323,58,13	2485,62,13	2647,66,13	2809,70,13	2971,74,13	3133,78,13	3295,82,13	3457,86,13	3619,90,13	3781,94,13	3943,98,13	4105,102,13	4267,106,13	4429,110,13	4591,114,13	4753,118,13	4915,122,13	5077,126,13	5239,130,13	5401,134,13	5563,138,13	5725,142,13	5887,146,13	6049,150,13	6211,154,13	6373,158,13	6535,162,13	6697,166,13	6859,170,13	7021,174,13	7183,178,13	7345,182,13	7507,186,13	7669,190,13	7831,194,13	7993,198,13	
0,0,1	1,1,13	14,9,13	27,25,13	40,57,13	53,121,13	66,197,13	79,193,13	92,189,13	105,185,13	118,181,13	131,177,13	144,173,13	157,169,13	170,165,13	183,161,13	196,157,13	209,153,13	222,149,13	235,145,13	248,141,13	261,137,13	274,133,13	287,129,13	300,117,13	313,125,13	326,113,13	339,109,13	352,105,13	365,101,13	378,97,13	391,93,13	404,89,13	417,85,13	430,81,13	443,77,13	456,73,13	469,69,13	482,65,13	495,53,13	508,61,13	521,49,13	534,45,13	547,41,13	560,37,13	573,33,13	586,21,13	599,29,13	612,17,13	625,5,13	638,13,13	8117,201,1	
# Incoming
109,(0, 4),54	271,(0, 8),54	433,(0, 12),54	595,(0, 16),54	757,(0, 20),54	919,(0, 24),54	1081,(0, 28),54	1243,(0, 32),54	1405,(0, 36),54	1567,(0, 40),54	1729,(0, 44),54	1891,(0, 48),54	2053,(0, 52),54	2215,(0, 56),54	2377,(0, 60),54	2539,(0, 64),54	2701,(0, 68),54	2863,(0, 72),54	3025,(0, 76),54	3187,(0, 80),54	3349,(0, 84),54	3511,(0, 88),54	3673,(0, 92),54	3835,(0, 96),54	3997,(0, 100),54	4159,(0, 104),54	4321,(0, 108),54	4483,(0, 112),54	4645,(0, 116),54	4807,(0, 120),54	4969,(0, 124),54	5131,(0, 128),54	5293,(0, 132),54	5455,(0, 136),54	5617,(0, 140),54	5779,(0, 144),54	5941,(0, 148),54	6103,(0, 152),54	6265,(0, 156),54	6427,(0, 160),54	6589,(0, 164),54	6751,(0, 168),54	6913,(0, 172),54	7075,(0, 176),54	7237,(0, 180),54	7399,(0, 184),54	7561,(0, 188),54	7723,(0, 192),54	7885,(0, 196),54	8047,(0, 200),54	
55,(0, 3),54	217,(0, 7),54	379,(0, 11),54	541,(0, 15),54	703,(0, 19),54	865,(0, 23),54	1027,(0, 27),54	1189,(0, 31),54	1351,(0, 35),54	1513,(0, 39),54	1675,(0, 43),54	1837,(0, 47),54	1999,(0, 51),54	2161,(0, 55),54	2323,(0, 59),54	2485,(0, 63),54	2647,(0, 67),54	2809,(0, 71),54	2971,(0, 75),54	3133,(0, 79),54	3295,(0, 83),54	3457,(0, 87),54	3619,(0, 91),54	3781,(0, 95),54	3943,(0, 99),54	4105,(0, 103),54	4267,(0, 107),54	4429,(0, 111),54	4591,(0, 115),54	4753,(0, 119),54	4915,(0, 123),54	5077,(0, 127),54	5239,(0, 131),54	5401,(0, 135),54	5563,(0, 139),54	5725,(0, 143),54	5887,(0, 147),54	6049,(0, 151),54	6211,(0, 155),54	6373,(0, 159),54	6535,(0, 163),54	6697,(0, 167),54	6859,(0, 171),54	7021,(0, 175),54	7183,(0, 179),54	7345,(0, 183),54	7507,(0, 187),54	7669,(0, 191),54	7831,(0, 195),54	7993,(0, 199),54	
1,(0, 2),54	163,(0, 6),54	325,(0, 10),54	487,(0, 14),54	649,(0, 18),54	811,(0, 22),54	973,(0, 26),54	1135,(0, 30),54	1297,(0, 34),54	1459,(0, 38),54	1621,(0, 42),54	1783,(0, 46),54	1945,(0, 50),54	2107,(0, 54),54	2269,(0, 58),54	2431,(0, 62),54	2593,(0, 66),54	2755,(0, 70),54	2917,(0, 74),54	3079,(0, 78),54	3241,(0, 82),54	3403,(0, 86),54	3565,(0, 90),54	3727,(0, 94),54	3889,(0, 98),54	4051,(0, 102),54	4213,(0, 106),54	4375,(0, 110),54	4537,(0, 114),54	4699,(0, 118),54	4861,(0, 122),54	5023,(0, 126),54	5185,(0, 130),54	5347,(0, 134),54	5509,(0, 138),54	5671,(0, 142),54	5833,(0, 146),54	5995,(0, 150),54	6157,(0, 154),54	6319,(0, 158),54	6481,(0, 162),54	6643,(0, 166),54	6805,(0, 170),54	6967,(0, 174),54	7129,(0, 178),54	7291,(0, 182),54	7453,(0, 186),54	7615,(0, 190),54	7777,(0, 194),54	7939,(0, 198),54	
68,(2, 201),3	122,(3, 201),3	176,(4, 201),3	230,(6, 201),3	284,(7, 201),3	338,(8, 201),3	392,(10, 201),3	446,(11, 201),3	500,(12, 201),3	554,(14, 201),3	608,(15, 201),3	662,(16, 201),3	716,(18, 201),3	770,(19, 201),3	824,(20, 201),3	878,(22, 201),3	932,(23, 201),3	986,(24, 201),3	1040,(26, 201),3	1094,(27, 201),3	1148,(28, 201),3	1202,(30, 201),3	1256,(31, 201),3	1310,(32, 201),3	1364,(34, 201),3	1418,(35, 201),3	1472,(36, 201),3	1526,(38, 201),3	1580,(39, 201),3	1634,(40, 201),3	1688,(42, 201),3	1742,(43, 201),3	1796,(44, 201),3	1850,(46, 201),3	1904,(47, 201),3	1958,(48, 201),3	2012,(50, 201),3	2066,(51, 201),3	2120,(52, 201),3	2174,(54, 201),3	2228,(55, 201),3	2282,(56, 201),3	2336,(58, 201),3	2390,(59, 201),3	2444,(60, 201),3	2498,(62, 201),3	2552,(63, 201),3	2606,(64, 201),3	2660,(66, 201),3	2714,(67, 201),3	2768,(68, 201),3	2822,(70, 201),3	2876,(71, 201),3	2930,(72, 201),3	2984,(74, 201),3	3038,(75, 201),3	3092,(76, 201),3	3146,(78, 201),3	3200,(79, 201),3	3254,(80, 201),3	3308,(82, 201),3	3362,(83, 201),3	3416,(84, 201),3	3470,(86, 201),3	3524,(87, 201),3	3578,(88, 201),3	3632,(90, 201),3	3686,(91, 201),3	3740,(92, 201),3	3794,(94, 201),3	3848,(95, 201),3	3902,(96, 201),3	3956,(98, 201),3	4010,(99, 201),3	4064,(100, 201),3	4118,(102, 201),3	4172,(103, 201),3	4226,(104, 201),3	4280,(106, 201),3	4334,(107, 201),3	4388,(108, 201),3	4442,(110, 201),3	4496,(111, 201),3	4550,(112, 201),3	4604,(114, 201),3	4658,(115, 201),3	4712,(116, 201),3	4766,(118, 201),3	4820,(119, 201),3	4874,(120, 201),3	4928,(122, 201),3	4982,(123, 201),3	5036,(124, 201),3	5090,(126, 201),3	5144,(127, 201),3	5198,(128, 201),3	5252,(130, 201),3	5306,(131, 201),3	5360,(132, 201),3	5414,(134, 201),3	5468,(135, 201),3	5522,(136, 201),3	5576,(138, 201),3	5630,(139, 201),3	5684,(140, 201),3	5738,(142, 201),3	5792,(143, 201),3	5846,(144, 201),3	5900,(146, 201),3	5954,(147, 201),3	6008,(148, 201),3	6062,(150, 201),3	6116,(151, 201),3	6170,(152, 201),3	6224,(154, 201),3	6278,(155, 201),3	6332,(156, 201),3	6386,(158, 201),3	6440,(159, 201),3	6494,(160, 201),3	6548,(162, 201),3	6602,(163, 201),3	6656,(164, 201),3	6710,(166, 201),3	6764,(167, 201),3	6818,(168, 201),3	6872,(170, 201),3	6926,(171, 201),3	6980,(172, 201),3	7034,(174, 201),3	7088,(175, 201),3	7142,(176, 201),3	7196,(178, 201),3	7250,(179, 201),3	7304,(180, 201),3	7358,(182, 201),3	7412,(183, 201),3	7466,(184, 201),3	7520,(186, 201),3	7574,(187, 201),3	7628,(188, 201),3	7682,(190, 201),3	7736,(191, 201),3	7790,(192, 201),3	7844,(194, 201),3	7898,(195, 201),3	7952,(196, 201),3	8006,(198, 201),3	8060,(199, 201),3	8114,(200, 201),3	
# Outgoing
176,(4, 201),3	338,(8, 201),3	500,(12, 201),3	662,(16, 201),3	824,(20, 201),3	986,(24, 201),3	1148,(28, 201),3	1310,(32, 201),3	1472,(36, 201),3	1634,(40, 201),3	1796,(44, 201),3	1958,(48, 201),3	2120,(52, 201),3	2282,(56, 201),3	2444,(60, 201),3	2606,(64, 201),3	2768,(68, 201),3	2930,(72, 201),3	3092,(76, 201),3	3254,(80, 201),3	3416,(84, 201),3	3578,(88, 201),3	3740,(92, 201),3	3902,(96, 201),3	4064,(100, 201),3	4226,(104, 201),3	4388,(108, 201),3	4550,(112, 201),3	4712,(116, 201),3	4874,(120, 201),3	5036,(124, 201),3	5198,(128, 201),3	5360,(132, 201),3	5522,(136, 201),3	5684,(140, 201),3	5846,(144, 201),3	6008,(148, 201),3	6170,(152, 201),3	6332,(156, 201),3	6494,(160, 201),3	6656,(164, 201),3	6818,(168, 201),3	6980,(172, 201),3	7142,(176, 201),3	7304,(180, 201),3	7466,(184, 201),3	7628,(188, 201),3	7790,(192, 201),3	7952,(196, 201),3	8114,(200, 201),3	
122,(3, 201),3	284,(7, 201),3	446,(11, 201),3	608,(15, 201),3	770,(19, 201),3	932,(23, 201),3	1094,(27, 201),3	1256,(31, 201),3	1418,(35, 201),3	1580,(39, 201),3	1742,(43, 201),3	1904,(47, 201),3	2066,(51, 201),3	2228,(55, 201),3	2390,(59, 201),3	2552,(63, 201),3	2714,(67, 201),3	2876,(71, 201),3	3038,(75, 201),3	3200,(79, 201),3	3362,(83, 201),3	3524,(87, 201),3	3686,(91, 201),3	3848,(95, 201),3	4010,(99, 201),3	4172,(103, 201),3	4334,(107, 201),3	4496,(111, 201),3	4658,(115, 201),3	4820,(119, 201),3	4982,(123, 201),3	5144,(127, 201),3	5306,(131, 201),3	5468,(135, 201),3	5630,(139, 201),3	5792,(143, 201),3	5954,(147, 201),3	6116,(151, 201),3	6278,(155, 201),3	6440,(159, 201),3	6602,(163, 201),3	6764,(167, 201),3	6926,(171, 201),3	7088,(175, 201),3	7250,(179, 201),3	7412,(183, 201),3	7574,(187, 201),3	7736,(191, 201),3	7898,(195, 201),3	8060,(199, 201),3	
68,(2, 201),3	230,(6, 201),3	392,(10, 201),3	554,(14, 201),3	716,(18, 201),3	878,(22, 201),3	1040,(26, 201),3	1202,(30, 201),3	1364,(34, 201),3	1526,(38, 201),3	1688,(42, 201),3	1850,(46, 201),3	2012,(50, 201),3	2174,(54, 201),3	2336,(58, 201),3	2498,(62, 201),3	2660,(66, 201),3	2822,(70, 201),3	2984,(74, 201),3	3146,(78, 201),3	3308,(82, 201),3	3470,(86, 201),3	3632,(90, 201),3	3794,(94, 201),3	3956,(98, 201),3	4118,(102, 201),3	4280,(106, 201),3	4442,(110, 201),3	4604,(114, 201),3	4766,(118, 201),3	4928,(122, 201),3	5090,(126, 201),3	5252,(130, 201),3	5414,(134, 201),3	5576,(138, 201),3	5738,(142, 201),3	5900,(146, 201),3	6062,(150, 201),3	6224,(154, 201),3	6386,(158, 201),3	6548,(162, 201),3	6710,(166, 201),3	6872,(170, 201),3	7034,(174, 201),3	7196,(178, 201),3	7358,(182, 201),3	7520,(186, 201),3	7682,(190, 201),3	7844,(194, 201),3	8006,(198, 201),3	
1,(0, 2),54	55,(0, 3),54	109,(0, 4),54	163,(0, 6),54	217,(0, 7),54	271,(0, 8),54	325,(0, 10),54	379,(0, 11),54	433,(0, 12),54	487,(0, 14),54	541,(0, 15),54	595,(0, 16),54	649,(0, 18),54	703,(0, 19),54	757,(0, 20),54	811,(0, 22),54	865,(0, 23),54	919,(0, 24),54	973,(0, 26),54	1027,(0, 27),54	1081,(0, 28),54	1135,(0, 30),54	1189,(0, 31),54	1243,(0, 32),54	1297,(0, 34),54	1351,(0, 35),54	1405,(0, 36),54	1459,(0, 38),54	1513,(0, 39),54	1567,(0, 40),54	1621,(0, 42),54	1675,(0, 43),54	1729,(0, 44),54	1783,(0, 46),54	1837,(0, 47),54	1891,(0, 48),54	1945,(0, 50),54	1999,(0, 51),54	2053,(0, 52),54	2107,(0, 54),54	2161,(0, 55),54	2215,(0, 56),54	2269,(0, 58),54	2323,(0, 59),54	2377,(0, 60),54	2431,(0, 62),54	2485,(0, 63),54	2539,(0, 64),54	2593,(0, 66),54	2647,(0, 67),54	2701,(0, 68),54	2755,(0, 70),54	2809,(0, 71),54	2863,(0, 72),54	2917,(0, 74),54	2971,(0, 75),54	3025,(0, 76),54	3079,(0, 78),54	3133,(0, 79),54	3187,(0, 80),54	3241,(0, 82),54	3295,(0, 83),54	3349,(0, 84),54	3403,(0, 86),54	3457,(0, 87),54	3511,(0, 88),54	3565,(0, 90),54	3619,(0, 91),54	3673,(0, 92),54	3727,(0, 94),54	3781,(0, 95),54	3835,(0, 96),54	3889,(0, 98),54	3943,(0, 99),54	3997,(0, 100),54	4051,(0, 102),54	4105,(0, 103),54	4159,(0, 104),54	4213,(0, 106),54	4267,(0, 107),54	4321,(0, 108),54	4375,(0, 110),54	4429,(0, 111),54	4483,(0, 112),54	4537,(0, 114),54	4591,(0, 115),54	4645,(0, 116),54	4699,(0, 118),54	4753,(0, 119),54	4807,(0, 120),54	4861,(0, 122),54	4915,(0, 123),54	4969,(0, 124),54	5023,(0, 126),54	5077,(0, 127),54	5131,(0, 128),54	5185,(0, 130),54	5239,(0, 131),54	5293,(0, 132),54	5347,(0, 134),54	5401,(0, 135),54	5455,(0, 136),54	5509,(0, 138),54	5563,(0, 139),54	5617,(0, 140),54	5671,(0, 142),54	5725,(0, 143),54	5779,(0, 144),54	5833,(0, 146),54	5887,(0, 147),54	5941,(0, 148),54	5995,(0, 150),54	6049,(0, 151),54	6103,(0, 152),54	6157,(0, 154),54	6211,(0, 155),54	6265,(0, 156),54	6319,(0, 158),54	6373,(0, 159),54	6427,(0, 160),54	6481,(0, 162),54	6535,(0, 163),54	6589,(0, 164),54	6643,(0, 166),54	6697,(0, 167),54	6751,(0, 168),54	6805,(0, 170),54	6859,(0, 171),54	6913,(0, 172),54	6967,(0, 174),54	7021,(0, 175),54	7075,(0, 176),54	7129,(0, 178),54	7183,(0, 179),54	7237,(0, 180),54	7291,(0, 182),54	7345,(0, 183),54	7399,(0, 184),54	7453,(0, 186),54	7507,(0, 187),54	7561,(0, 188),54	7615,(0, 190),54	7669,(0, 191),54	7723,(0, 192),54	7777,(0, 194),54	7831,(0, 195),54	7885,(0, 196),54	7939,(0, 198),54	7993,(0, 199),54	8047,(0, 200),54	
