2212
# CPU
0,0,1	1,139,13	14,138,13	27,140,13	40,137,13	53,136,13	66,135,13	79,141,13	92,134,13	105,133,13	118,142,13	131,132,13	144,131,13	157,143,13	170,130,13	183,144,13	196,128,13	209,145,13	222,127,13	235,126,13	248,146,13	261,124,13	274,123,13	287,122,13	300,147,13	313,120,13	326,119,13	339,148,13	352,118,13	365,149,13	378,150,13	391,117,13	404,115,13	417,114,13	430,151,13	443,113,13	456,111,13	469,152,13	482,110,13	495,109,13	508,153,13	521,108,13	534,154,13	547,106,13	560,155,13	573,105,13	586,104,13	599,156,13	612,102,13	625,101,13	638,100,13	651,157,13	664,98,13	677,97,13	690,158,13	703,96,13	716,159,13	729,160,13	742,94,13	755,93,13	768,92,13	781,161,13	794,81,13	807,80,13	820,82,13	833,79,13	846,78,13	859,77,13	872,76,13	885,83,13	898,75,13	911,84,13	924,74,13	937,30,13	950,176,13	963,72,13	976,73,13	989,71,13	1002,85,13	1015,69,13	1028,68,13	1041,70,13	1054,67,13	1067,87,13	1080,66,13	1093,65,13	1106,64,13	1119,63,13	1132,88,13	1145,62,13	1158,61,13	1171,91,13	1184,60,13	1197,59,13	1210,58,13	1223,163,13	1236,57,13	1249,56,13	1262,165,13	1275,55,13	1288,54,13	1301,53,13	1314,52,13	1327,167,13	1340,51,13	1353,169,13	1366,50,13	1379,48,13	1392,49,13	1405,47,13	1418,171,13	1431,46,13	1444,45,13	1457,44,13	1470,43,13	1483,173,13	1496,42,13	1509,185,13	1522,186,13	1535,184,13	1548,183,13	1561,182,13	1574,187,13	1587,181,13	1600,180,13	1613,188,13	1626,177,13	1639,174,13	1652,41,13	1665,189,13	1678,39,13	1691,38,13	1704,190,13	1717,37,13	1730,36,13	1743,191,13	1756,35,13	1769,33,13	1782,32,13	1795,192,13	1808,31,13	1821,28,13	1834,193,13	1847,27,13	1860,17,13	1873,12,13	1886,1,13	1899,18,13	1912,16,13	1925,19,13	1938,15,13	1951,14,13	1964,20,13	1977,13,13	1990,21,13	2003,11,13	2016,23,13	2029,2,13	2042,3,13	2055,4,13	2068,5,13	2081,6,13	2094,7,13	2107,8,13	2120,9,13	2133,10,13	2146,24,13	2159,194,13	2172,197,13	2185,198,13	2198,199,13	2211,201,1	
865,89,13	1369,175,13	2161,200,13	
145,125,13	1441,178,13	
217,121,13	577,99,13	937,162,13	1801,25,13	
649,95,13	1009,164,13	1513,179,13	1585,40,13	

289,116,13	361,112,13	721,90,13	793,86,13	1153,168,13	1945,26,13	
1081,166,13	1297,172,13	1873,22,13	2017,195,13	
433,107,13	1225,170,13	1657,34,13	1729,29,13	2089,196,13	
73,129,13	505,103,13	
# Incoming
86,(129, 201),4	158,(125, 201),4	230,(121, 201),4	302,(116, 201),4	374,(112, 201),4	446,(107, 201),4	518,(103, 201),4	590,(99, 201),4	662,(95, 201),4	734,(90, 201),4	806,(86, 201),4	878,(89, 201),4	950,(162, 201),4	1022,(164, 201),4	1094,(166, 201),4	1166,(168, 201),4	1238,(170, 201),4	1310,(172, 201),4	1382,(175, 201),4	1454,(178, 201),4	1526,(179, 201),4	1598,(40, 201),4	1670,(34, 201),4	1742,(29, 201),4	1814,(25, 201),4	1886,(22, 201),4	1958,(26, 201),4	2030,(195, 201),4	2102,(196, 201),4	2174,(200, 201),4	
793,(0, 89),72	1297,(0, 175),72	2089,(0, 200),72	
73,(0, 125),72	1369,(0, 178),72	
145,(0, 121),72	505,(0, 99),72	865,(0, 162),72	1729,(0, 25),72	
577,(0, 95),72	937,(0, 164),72	1441,(0, 179),72	1513,(0, 40),72	

217,(0, 116),72	289,(0, 112),72	649,(0, 90),72	721,(0, 86),72	1081,(0, 168),72	1873,(0, 26),72	
1009,(0, 166),72	1225,(0, 172),72	1801,(0, 22),72	1945,(0, 195),72	
361,(0, 107),72	1153,(0, 170),72	1585,(0, 34),72	1657,(0, 29),72	2017,(0, 196),72	
1,(0, 129),72	433,(0, 103),72	
# Outgoing
1,(0, 129),72	73,(0, 125),72	145,(0, 121),72	217,(0, 116),72	289,(0, 112),72	361,(0, 107),72	433,(0, 103),72	505,(0, 99),72	577,(0, 95),72	649,(0, 90),72	721,(0, 86),72	793,(0, 89),72	865,(0, 162),72	937,(0, 164),72	1009,(0, 166),72	1081,(0, 168),72	1153,(0, 170),72	1225,(0, 172),72	1297,(0, 175),72	1369,(0, 178),72	1441,(0, 179),72	1513,(0, 40),72	1585,(0, 34),72	1657,(0, 29),72	1729,(0, 25),72	1801,(0, 22),72	1873,(0, 26),72	1945,(0, 195),72	2017,(0, 196),72	2089,(0, 200),72	
878,(89, 201),4	1382,(175, 201),4	2174,(200, 201),4	
158,(125, 201),4	1454,(178, 201),4	
230,(121, 201),4	590,(99, 201),4	950,(162, 201),4	1814,(25, 201),4	
662,(95, 201),4	1022,(164, 201),4	1526,(179, 201),4	1598,(40, 201),4	

302,(116, 201),4	374,(112, 201),4	734,(90, 201),4	806,(86, 201),4	1166,(168, 201),4	1958,(26, 201),4	
1094,(166, 201),4	1310,(172, 201),4	1886,(22, 201),4	2030,(195, 201),4	
446,(107, 201),4	1238,(170, 201),4	1670,(34, 201),4	1742,(29, 201),4	2102,(196, 201),4	
86,(129, 201),4	518,(103, 201),4	
