153
# CPU
0,201,1	1,139,1	2,138,1	3,140,1	4,88,1	5,85,1	6,141,1	7,87,1	8,83,1	9,142,1	10,58,1	11,70,1	12,143,1	13,169,1	14,160,1	15,137,1	16,128,1	17,161,1	18,136,1	19,60,1	20,67,1	21,144,1	22,41,1	23,80,1	24,145,1	25,177,1	26,78,1	27,146,1	28,32,1	29,170,1	30,135,1	31,56,1	32,163,1	33,131,1	34,122,1	35,164,1	36,127,1	37,173,1	38,61,1	39,147,1	40,52,1	41,74,1	42,148,1	43,75,1	44,72,1	45,149,1	46,73,1	47,100,1	48,150,1	49,34,1	50,68,1	51,152,1	52,162,1	53,168,1	54,124,1	55,66,1	56,96,1	57,104,1	58,21,1	59,172,1	60,102,1	61,165,1	62,62,1	63,101,1	64,29,1	65,44,1	66,99,1	67,20,1	68,51,1	69,103,1	70,63,1	71,49,1	72,98,1	73,174,1	74,40,1	75,97,1	76,64,1	77,47,1	78,95,1	79,69,1	80,46,1	81,105,1	82,37,1	83,90,1	84,94,1	85,16,1	86,184,1	87,93,1	88,188,1	89,42,1	90,91,1	91,107,1	92,31,1	93,89,1	94,25,1	95,185,1	96,84,1	97,17,1	98,186,1	99,82,1	100,192,1	101,71,1	102,79,1	103,183,1	104,35,1	105,180,1	106,81,1	107,30,1	108,181,1	109,191,1	110,53,1	111,179,1	112,12,1	113,39,1	114,182,1	115,189,1	116,1,1	117,178,1	118,190,1	119,187,1	120,175,1	121,54,1	122,2,1	123,176,1	124,55,1	125,3,1	126,193,1	127,23,1	128,59,1	129,26,1	130,13,1	131,15,1	132,27,1	133,50,1	134,197,1	135,22,1	136,10,1	137,9,1	138,24,1	139,7,1	140,14,1	141,4,1	142,33,1	143,6,1	144,5,1	145,199,1	146,8,1	147,11,1	148,19,1	149,86,1	150,194,1	151,200,1	152,0,1	
7,134,1	16,129,1	31,119,1	40,114,1	55,108,1	64,117,1	79,155,1	91,167,1	103,158,1	115,65,1	121,45,1	127,43,1	133,48,1	136,195,1	139,196,1	142,198,1	145,28,1	148,18,1	
10,132,1	19,126,1	25,121,1	28,120,1	34,116,1	43,112,1	49,115,1	52,109,1	58,110,1	67,118,1	73,151,1	76,153,1	82,156,1	94,171,1	106,92,1	118,57,1	124,38,1	130,36,1	
4,133,1	13,130,1	22,125,1	37,113,1	46,111,1	61,106,1	70,123,1	85,157,1	88,159,1	97,166,1	100,154,1	109,77,1	112,76,1	
# Incoming
5,(133, 0),3	8,(134, 0),3	11,(132, 0),3	14,(130, 0),3	17,(129, 0),3	20,(126, 0),3	23,(125, 0),3	26,(121, 0),3	29,(120, 0),3	32,(119, 0),3	35,(116, 0),3	38,(113, 0),3	41,(114, 0),3	44,(112, 0),3	47,(111, 0),3	50,(115, 0),3	53,(109, 0),3	56,(108, 0),3	59,(110, 0),3	62,(106, 0),3	65,(117, 0),3	68,(118, 0),3	71,(123, 0),3	74,(151, 0),3	77,(153, 0),3	80,(155, 0),3	83,(156, 0),3	86,(157, 0),3	89,(159, 0),3	92,(167, 0),3	95,(171, 0),3	98,(166, 0),3	101,(154, 0),3	104,(158, 0),3	107,(92, 0),3	110,(77, 0),3	113,(76, 0),3	116,(65, 0),3	119,(57, 0),3	122,(45, 0),3	125,(38, 0),3	128,(43, 0),3	131,(36, 0),3	134,(48, 0),3	137,(195, 0),3	140,(196, 0),3	143,(198, 0),3	146,(28, 0),3	149,(18, 0),3	
4,(201, 134),3	13,(201, 129),3	28,(201, 119),3	37,(201, 114),3	52,(201, 108),3	61,(201, 117),3	76,(201, 155),3	88,(201, 167),3	100,(201, 158),3	112,(201, 65),3	118,(201, 45),3	124,(201, 43),3	130,(201, 48),3	133,(201, 195),3	136,(201, 196),3	139,(201, 198),3	142,(201, 28),3	145,(201, 18),3	
7,(201, 132),3	16,(201, 126),3	22,(201, 121),3	25,(201, 120),3	31,(201, 116),3	40,(201, 112),3	46,(201, 115),3	49,(201, 109),3	55,(201, 110),3	64,(201, 118),3	70,(201, 151),3	73,(201, 153),3	79,(201, 156),3	91,(201, 171),3	103,(201, 92),3	115,(201, 57),3	121,(201, 38),3	127,(201, 36),3	
1,(201, 133),3	10,(201, 130),3	19,(201, 125),3	34,(201, 113),3	43,(201, 111),3	58,(201, 106),3	67,(201, 123),3	82,(201, 157),3	85,(201, 159),3	94,(201, 166),3	97,(201, 154),3	106,(201, 77),3	109,(201, 76),3	
# Outgoing
1,(201, 133),3	4,(201, 134),3	7,(201, 132),3	10,(201, 130),3	13,(201, 129),3	16,(201, 126),3	19,(201, 125),3	22,(201, 121),3	25,(201, 120),3	28,(201, 119),3	31,(201, 116),3	34,(201, 113),3	37,(201, 114),3	40,(201, 112),3	43,(201, 111),3	46,(201, 115),3	49,(201, 109),3	52,(201, 108),3	55,(201, 110),3	58,(201, 106),3	61,(201, 117),3	64,(201, 118),3	67,(201, 123),3	70,(201, 151),3	73,(201, 153),3	76,(201, 155),3	79,(201, 156),3	82,(201, 157),3	85,(201, 159),3	88,(201, 167),3	91,(201, 171),3	94,(201, 166),3	97,(201, 154),3	100,(201, 158),3	103,(201, 92),3	106,(201, 77),3	109,(201, 76),3	112,(201, 65),3	115,(201, 57),3	118,(201, 45),3	121,(201, 38),3	124,(201, 43),3	127,(201, 36),3	130,(201, 48),3	133,(201, 195),3	136,(201, 196),3	139,(201, 198),3	142,(201, 28),3	145,(201, 18),3	
8,(134, 0),3	17,(129, 0),3	32,(119, 0),3	41,(114, 0),3	56,(108, 0),3	65,(117, 0),3	80,(155, 0),3	92,(167, 0),3	104,(158, 0),3	116,(65, 0),3	122,(45, 0),3	128,(43, 0),3	134,(48, 0),3	137,(195, 0),3	140,(196, 0),3	143,(198, 0),3	146,(28, 0),3	149,(18, 0),3	
11,(132, 0),3	20,(126, 0),3	26,(121, 0),3	29,(120, 0),3	35,(116, 0),3	44,(112, 0),3	50,(115, 0),3	53,(109, 0),3	59,(110, 0),3	68,(118, 0),3	74,(151, 0),3	77,(153, 0),3	83,(156, 0),3	95,(171, 0),3	107,(92, 0),3	119,(57, 0),3	125,(38, 0),3	131,(36, 0),3	
5,(133, 0),3	14,(130, 0),3	23,(125, 0),3	38,(113, 0),3	47,(111, 0),3	62,(106, 0),3	71,(123, 0),3	86,(157, 0),3	89,(159, 0),3	98,(166, 0),3	101,(154, 0),3	110,(77, 0),3	113,(76, 0),3	
