128
# CPU
0,21,1	1,11,6	7,10,6	13,12,6	19,9,6	25,1,6	31,2,6	37,3,6	43,4,6	49,5,6	55,6,6	61,7,6	67,8,6	73,13,6	79,14,6	85,15,6	91,16,6	97,19,6	103,20,6	127,0,1	
46,18,6	91,17,6	


# Incoming
52,(18, 0),30	97,(17, 0),30	
1,(21, 18),45	46,(21, 17),45	


# Outgoing
1,(21, 18),45	46,(21, 17),45	
52,(18, 0),30	97,(17, 0),30	


