1652
# CPU
0,201,1	1,200,15	16,138,15	31,139,15	46,137,15	61,140,15	76,136,15	91,141,15	106,135,15	121,142,15	136,143,15	151,144,15	166,134,15	181,133,15	196,145,15	211,132,15	226,146,15	241,131,15	256,147,15	271,148,15	286,149,15	301,127,15	316,150,15	331,123,15	346,120,15	361,151,15	376,118,15	391,152,15	406,153,15	421,154,15	436,113,15	451,155,15	466,111,15	481,156,15	496,107,15	511,157,15	526,105,15	541,158,15	556,159,15	571,101,15	586,160,15	601,80,15	616,81,15	631,78,15	646,77,15	661,76,15	676,75,15	691,73,15	706,72,15	721,71,15	736,70,15	751,69,15	766,67,15	781,66,15	796,68,15	811,65,15	826,63,15	841,62,15	856,61,15	871,60,15	886,59,15	901,57,15	916,56,15	931,55,15	946,54,15	961,52,15	976,53,15	991,51,15	1006,50,15	1021,48,15	1036,47,15	1051,46,15	1066,45,15	1081,44,15	1096,42,15	1111,41,15	1126,184,15	1141,185,15	1156,183,15	1171,186,15	1186,182,15	1201,187,15	1216,181,15	1231,188,15	1246,180,15	1261,64,15	1276,189,15	1291,58,15	1306,190,15	1321,49,15	1336,191,15	1351,40,15	1366,192,15	1381,17,15	1396,16,15	1411,15,15	1426,14,15	1441,13,15	1456,12,15	1471,11,15	1486,10,15	1501,9,15	1516,1,15	1531,2,15	1546,3,15	1561,4,15	1576,5,15	1591,7,15	1606,8,15	1621,197,15	1636,199,15	1651,0,1	
55,128,15	91,125,15	109,124,15	145,121,15	163,119,15	217,115,15	235,114,15	253,112,15	289,109,15	307,108,15	379,102,15	415,99,15	451,96,15	469,95,15	523,90,15	577,86,15	595,98,15	613,161,15	631,162,15	667,163,15	721,165,15	775,167,15	793,168,15	847,170,15	901,172,15	937,173,15	955,174,15	973,175,15	1009,176,15	1027,177,15	1063,178,15	1081,179,15	1117,43,15	1153,38,15	1207,34,15	1225,33,15	1243,31,15	1297,27,15	1315,26,15	1333,24,15	1351,23,15	1405,193,15	1441,194,15	1477,195,15	1585,6,15	1603,196,15	1621,198,15	
19,130,15	37,129,15	73,126,15	127,122,15	181,117,15	199,116,15	271,110,15	325,106,15	343,104,15	361,103,15	397,100,15	433,97,15	487,93,15	505,92,15	541,88,15	559,87,15	649,94,15	685,91,15	703,164,15	739,89,15	757,166,15	811,85,15	829,169,15	865,84,15	883,171,15	919,83,15	991,82,15	1045,79,15	1099,74,15	1135,39,15	1171,36,15	1189,35,15	1261,29,15	1279,28,15	1369,21,15	1387,37,15	1423,32,15	1459,30,15	1495,25,15	1513,18,15	1531,19,15	1549,20,15	1567,22,15	
# Incoming
34,(130, 0),3	52,(129, 0),3	70,(128, 0),3	88,(126, 0),3	106,(125, 0),3	124,(124, 0),3	142,(122, 0),3	160,(121, 0),3	178,(119, 0),3	196,(117, 0),3	214,(116, 0),3	232,(115, 0),3	250,(114, 0),3	268,(112, 0),3	286,(110, 0),3	304,(109, 0),3	322,(108, 0),3	340,(106, 0),3	358,(104, 0),3	376,(103, 0),3	394,(102, 0),3	412,(100, 0),3	430,(99, 0),3	448,(97, 0),3	466,(96, 0),3	484,(95, 0),3	502,(93, 0),3	520,(92, 0),3	538,(90, 0),3	556,(88, 0),3	574,(87, 0),3	592,(86, 0),3	610,(98, 0),3	628,(161, 0),3	646,(162, 0),3	664,(94, 0),3	682,(163, 0),3	700,(91, 0),3	718,(164, 0),3	736,(165, 0),3	754,(89, 0),3	772,(166, 0),3	790,(167, 0),3	808,(168, 0),3	826,(85, 0),3	844,(169, 0),3	862,(170, 0),3	880,(84, 0),3	898,(171, 0),3	916,(172, 0),3	934,(83, 0),3	952,(173, 0),3	970,(174, 0),3	988,(175, 0),3	1006,(82, 0),3	1024,(176, 0),3	1042,(177, 0),3	1060,(79, 0),3	1078,(178, 0),3	1096,(179, 0),3	1114,(74, 0),3	1132,(43, 0),3	1150,(39, 0),3	1168,(38, 0),3	1186,(36, 0),3	1204,(35, 0),3	1222,(34, 0),3	1240,(33, 0),3	1258,(31, 0),3	1276,(29, 0),3	1294,(28, 0),3	1312,(27, 0),3	1330,(26, 0),3	1348,(24, 0),3	1366,(23, 0),3	1384,(21, 0),3	1402,(37, 0),3	1420,(193, 0),3	1438,(32, 0),3	1456,(194, 0),3	1474,(30, 0),3	1492,(195, 0),3	1510,(25, 0),3	1528,(18, 0),3	1546,(19, 0),3	1564,(20, 0),3	1582,(22, 0),3	1600,(6, 0),3	1618,(196, 0),3	1636,(198, 0),3	
37,(201, 128),18	73,(201, 125),18	91,(201, 124),18	127,(201, 121),18	145,(201, 119),18	199,(201, 115),18	217,(201, 114),18	235,(201, 112),18	271,(201, 109),18	289,(201, 108),18	361,(201, 102),18	397,(201, 99),18	433,(201, 96),18	451,(201, 95),18	505,(201, 90),18	559,(201, 86),18	577,(201, 98),18	595,(201, 161),18	613,(201, 162),18	649,(201, 163),18	703,(201, 165),18	757,(201, 167),18	775,(201, 168),18	829,(201, 170),18	883,(201, 172),18	919,(201, 173),18	937,(201, 174),18	955,(201, 175),18	991,(201, 176),18	1009,(201, 177),18	1045,(201, 178),18	1063,(201, 179),18	1099,(201, 43),18	1135,(201, 38),18	1189,(201, 34),18	1207,(201, 33),18	1225,(201, 31),18	1279,(201, 27),18	1297,(201, 26),18	1315,(201, 24),18	1333,(201, 23),18	1387,(201, 193),18	1423,(201, 194),18	1459,(201, 195),18	1567,(201, 6),18	1585,(201, 196),18	1603,(201, 198),18	
1,(201, 130),18	19,(201, 129),18	55,(201, 126),18	109,(201, 122),18	163,(201, 117),18	181,(201, 116),18	253,(201, 110),18	307,(201, 106),18	325,(201, 104),18	343,(201, 103),18	379,(201, 100),18	415,(201, 97),18	469,(201, 93),18	487,(201, 92),18	523,(201, 88),18	541,(201, 87),18	631,(201, 94),18	667,(201, 91),18	685,(201, 164),18	721,(201, 89),18	739,(201, 166),18	793,(201, 85),18	811,(201, 169),18	847,(201, 84),18	865,(201, 171),18	901,(201, 83),18	973,(201, 82),18	1027,(201, 79),18	1081,(201, 74),18	1117,(201, 39),18	1153,(201, 36),18	1171,(201, 35),18	1243,(201, 29),18	1261,(201, 28),18	1351,(201, 21),18	1369,(201, 37),18	1405,(201, 32),18	1441,(201, 30),18	1477,(201, 25),18	1495,(201, 18),18	1513,(201, 19),18	1531,(201, 20),18	1549,(201, 22),18	
# Outgoing
1,(201, 130),18	19,(201, 129),18	37,(201, 128),18	55,(201, 126),18	73,(201, 125),18	91,(201, 124),18	109,(201, 122),18	127,(201, 121),18	145,(201, 119),18	163,(201, 117),18	181,(201, 116),18	199,(201, 115),18	217,(201, 114),18	235,(201, 112),18	253,(201, 110),18	271,(201, 109),18	289,(201, 108),18	307,(201, 106),18	325,(201, 104),18	343,(201, 103),18	361,(201, 102),18	379,(201, 100),18	397,(201, 99),18	415,(201, 97),18	433,(201, 96),18	451,(201, 95),18	469,(201, 93),18	487,(201, 92),18	505,(201, 90),18	523,(201, 88),18	541,(201, 87),18	559,(201, 86),18	577,(201, 98),18	595,(201, 161),18	613,(201, 162),18	631,(201, 94),18	649,(201, 163),18	667,(201, 91),18	685,(201, 164),18	703,(201, 165),18	721,(201, 89),18	739,(201, 166),18	757,(201, 167),18	775,(201, 168),18	793,(201, 85),18	811,(201, 169),18	829,(201, 170),18	847,(201, 84),18	865,(201, 171),18	883,(201, 172),18	901,(201, 83),18	919,(201, 173),18	937,(201, 174),18	955,(201, 175),18	973,(201, 82),18	991,(201, 176),18	1009,(201, 177),18	1027,(201, 79),18	1045,(201, 178),18	1063,(201, 179),18	1081,(201, 74),18	1099,(201, 43),18	1117,(201, 39),18	1135,(201, 38),18	1153,(201, 36),18	1171,(201, 35),18	1189,(201, 34),18	1207,(201, 33),18	1225,(201, 31),18	1243,(201, 29),18	1261,(201, 28),18	1279,(201, 27),18	1297,(201, 26),18	1315,(201, 24),18	1333,(201, 23),18	1351,(201, 21),18	1369,(201, 37),18	1387,(201, 193),18	1405,(201, 32),18	1423,(201, 194),18	1441,(201, 30),18	1459,(201, 195),18	1477,(201, 25),18	1495,(201, 18),18	1513,(201, 19),18	1531,(201, 20),18	1549,(201, 22),18	1567,(201, 6),18	1585,(201, 196),18	1603,(201, 198),18	
70,(128, 0),3	106,(125, 0),3	124,(124, 0),3	160,(121, 0),3	178,(119, 0),3	232,(115, 0),3	250,(114, 0),3	268,(112, 0),3	304,(109, 0),3	322,(108, 0),3	394,(102, 0),3	430,(99, 0),3	466,(96, 0),3	484,(95, 0),3	538,(90, 0),3	592,(86, 0),3	610,(98, 0),3	628,(161, 0),3	646,(162, 0),3	682,(163, 0),3	736,(165, 0),3	790,(167, 0),3	808,(168, 0),3	862,(170, 0),3	916,(172, 0),3	952,(173, 0),3	970,(174, 0),3	988,(175, 0),3	1024,(176, 0),3	1042,(177, 0),3	1078,(178, 0),3	1096,(179, 0),3	1132,(43, 0),3	1168,(38, 0),3	1222,(34, 0),3	1240,(33, 0),3	1258,(31, 0),3	1312,(27, 0),3	1330,(26, 0),3	1348,(24, 0),3	1366,(23, 0),3	1420,(193, 0),3	1456,(194, 0),3	1492,(195, 0),3	1600,(6, 0),3	1618,(196, 0),3	1636,(198, 0),3	
34,(130, 0),3	52,(129, 0),3	88,(126, 0),3	142,(122, 0),3	196,(117, 0),3	214,(116, 0),3	286,(110, 0),3	340,(106, 0),3	358,(104, 0),3	376,(103, 0),3	412,(100, 0),3	448,(97, 0),3	502,(93, 0),3	520,(92, 0),3	556,(88, 0),3	574,(87, 0),3	664,(94, 0),3	700,(91, 0),3	718,(164, 0),3	754,(89, 0),3	772,(166, 0),3	826,(85, 0),3	844,(169, 0),3	880,(84, 0),3	898,(171, 0),3	934,(83, 0),3	1006,(82, 0),3	1060,(79, 0),3	1114,(74, 0),3	1150,(39, 0),3	1186,(36, 0),3	1204,(35, 0),3	1276,(29, 0),3	1294,(28, 0),3	1384,(21, 0),3	1402,(37, 0),3	1438,(32, 0),3	1474,(30, 0),3	1510,(25, 0),3	1528,(18, 0),3	1546,(19, 0),3	1564,(20, 0),3	1582,(22, 0),3	
