338
# CPU
0,201,1	1,200,2	3,138,2	5,139,2	7,137,2	9,136,2	11,135,2	13,140,2	15,134,2	17,133,2	19,141,2	21,132,2	23,131,2	25,130,2	27,142,2	29,143,2	31,129,2	33,144,2	35,128,2	37,126,2	39,145,2	41,125,2	43,124,2	45,122,2	47,146,2	49,121,2	51,120,2	53,147,2	55,118,2	57,148,2	59,149,2	61,117,2	63,116,2	65,114,2	67,150,2	69,113,2	71,112,2	73,151,2	75,110,2	77,109,2	79,152,2	81,108,2	83,153,2	85,106,2	87,154,2	89,105,2	91,104,2	93,155,2	95,102,2	97,101,2	99,156,2	101,100,2	103,98,2	105,97,2	107,157,2	109,158,2	111,96,2	113,159,2	115,94,2	117,93,2	119,160,2	121,91,2	123,81,2	125,80,2	127,82,2	129,78,2	131,77,2	133,79,2	135,76,2	137,83,2	139,75,2	141,74,2	143,73,2	145,72,2	147,84,2	149,71,2	151,70,2	153,85,2	155,69,2	157,68,2	159,67,2	161,66,2	163,86,2	165,65,2	167,90,2	169,63,2	171,62,2	173,64,2	175,61,2	177,161,2	179,60,2	181,59,2	183,58,2	185,57,2	187,163,2	189,56,2	191,55,2	193,165,2	195,54,2	197,53,2	199,52,2	201,51,2	203,167,2	205,50,2	207,169,2	209,48,2	211,47,2	213,49,2	215,46,2	217,171,2	219,45,2	221,44,2	223,43,2	225,42,2	227,173,2	229,184,2	231,183,2	233,185,2	235,182,2	237,181,2	239,186,2	241,180,2	243,179,2	245,177,2	247,187,2	249,175,2	251,41,2	253,188,2	255,39,2	257,38,2	259,189,2	261,37,2	263,36,2	265,34,2	267,190,2	269,33,2	271,32,2	273,191,2	275,30,2	277,29,2	279,192,2	281,28,2	283,17,2	285,16,2	287,18,2	289,15,2	291,14,2	293,19,2	295,13,2	297,20,2	299,12,2	301,11,2	303,21,2	305,10,2	307,22,2	309,1,2	311,2,2	313,3,2	315,4,2	317,5,2	319,6,2	321,7,2	323,8,2	325,9,2	327,25,2	329,193,2	331,196,2	333,197,2	335,199,2	337,0,1	
71,92,2	85,88,2	197,24,2	





134,172,2	148,176,2	155,178,2	162,40,2	211,194,2	
8,127,2	15,123,2	22,119,2	43,107,2	127,170,2	141,174,2	169,35,2	176,31,2	204,26,2	218,195,2	225,198,2	
29,115,2	36,111,2	50,103,2	57,99,2	64,95,2	78,87,2	92,89,2	99,162,2	106,164,2	113,166,2	120,168,2	183,27,2	190,23,2	
# Incoming
10,(127, 0),10	20,(123, 0),10	30,(119, 0),10	40,(115, 0),10	50,(111, 0),10	60,(107, 0),10	70,(103, 0),10	80,(99, 0),10	90,(95, 0),10	100,(92, 0),10	110,(87, 0),10	120,(88, 0),10	130,(89, 0),10	140,(162, 0),10	150,(164, 0),10	160,(166, 0),10	170,(168, 0),10	180,(170, 0),10	190,(172, 0),10	200,(174, 0),10	210,(176, 0),10	220,(178, 0),10	230,(40, 0),10	240,(35, 0),10	250,(31, 0),10	260,(27, 0),10	270,(23, 0),10	280,(24, 0),10	290,(26, 0),10	300,(194, 0),10	310,(195, 0),10	320,(198, 0),10	
64,(201, 92),7	78,(201, 88),7	190,(201, 24),7	





127,(201, 172),7	141,(201, 176),7	148,(201, 178),7	155,(201, 40),7	204,(201, 194),7	
1,(201, 127),7	8,(201, 123),7	15,(201, 119),7	36,(201, 107),7	120,(201, 170),7	134,(201, 174),7	162,(201, 35),7	169,(201, 31),7	197,(201, 26),7	211,(201, 195),7	218,(201, 198),7	
22,(201, 115),7	29,(201, 111),7	43,(201, 103),7	50,(201, 99),7	57,(201, 95),7	71,(201, 87),7	85,(201, 89),7	92,(201, 162),7	99,(201, 164),7	106,(201, 166),7	113,(201, 168),7	176,(201, 27),7	183,(201, 23),7	
# Outgoing
1,(201, 127),7	8,(201, 123),7	15,(201, 119),7	22,(201, 115),7	29,(201, 111),7	36,(201, 107),7	43,(201, 103),7	50,(201, 99),7	57,(201, 95),7	64,(201, 92),7	71,(201, 87),7	78,(201, 88),7	85,(201, 89),7	92,(201, 162),7	99,(201, 164),7	106,(201, 166),7	113,(201, 168),7	120,(201, 170),7	127,(201, 172),7	134,(201, 174),7	141,(201, 176),7	148,(201, 178),7	155,(201, 40),7	162,(201, 35),7	169,(201, 31),7	176,(201, 27),7	183,(201, 23),7	190,(201, 24),7	197,(201, 26),7	204,(201, 194),7	211,(201, 195),7	218,(201, 198),7	
100,(92, 0),10	120,(88, 0),10	280,(24, 0),10	





190,(172, 0),10	210,(176, 0),10	220,(178, 0),10	230,(40, 0),10	300,(194, 0),10	
10,(127, 0),10	20,(123, 0),10	30,(119, 0),10	60,(107, 0),10	180,(170, 0),10	200,(174, 0),10	240,(35, 0),10	250,(31, 0),10	290,(26, 0),10	310,(195, 0),10	320,(198, 0),10	
40,(115, 0),10	50,(111, 0),10	70,(103, 0),10	80,(99, 0),10	90,(95, 0),10	110,(87, 0),10	130,(89, 0),10	140,(162, 0),10	150,(164, 0),10	160,(166, 0),10	170,(168, 0),10	260,(27, 0),10	270,(23, 0),10	
