226
# CPU
0,21,1	1,20,28	29,10,28	57,2,28	85,5,28	113,8,28	141,13,28	169,16,28	197,19,28	225,0,1	
7,9,28	35,3,28	63,6,28	91,11,28	119,14,28	147,18,28	
4,15,28	32,1,28	60,4,28	88,7,28	116,12,28	144,17,28	
# Incoming
32,(15, 0),15	47,(9, 0),15	62,(1, 0),15	77,(3, 0),15	92,(4, 0),15	107,(6, 0),15	122,(7, 0),15	137,(11, 0),15	152,(12, 0),15	167,(14, 0),15	182,(17, 0),15	197,(18, 0),15	
4,(21, 9),3	10,(21, 3),3	16,(21, 6),3	22,(21, 11),3	28,(21, 14),3	34,(21, 18),3	
1,(21, 15),3	7,(21, 1),3	13,(21, 4),3	19,(21, 7),3	25,(21, 12),3	31,(21, 17),3	
# Outgoing
1,(21, 15),3	4,(21, 9),3	7,(21, 1),3	10,(21, 3),3	13,(21, 4),3	16,(21, 6),3	19,(21, 7),3	22,(21, 11),3	25,(21, 12),3	28,(21, 14),3	31,(21, 17),3	34,(21, 18),3	
47,(9, 0),15	77,(3, 0),15	107,(6, 0),15	137,(11, 0),15	167,(14, 0),15	197,(18, 0),15	
32,(15, 0),15	62,(1, 0),15	92,(4, 0),15	122,(7, 0),15	152,(12, 0),15	182,(17, 0),15	
