407
# CPU
0,201,1	1,200,6	7,138,6	13,140,6	19,133,6	25,130,6	31,128,6	37,144,6	43,124,6	49,122,6	55,120,6	61,147,6	67,116,6	73,114,6	79,112,6	85,151,6	91,107,6	97,153,6	103,104,6	109,155,6	115,99,6	121,97,6	127,95,6	133,159,6	139,91,6	145,81,6	151,79,6	157,83,6	163,75,6	169,73,6	175,71,6	181,88,6	187,67,6	193,161,6	199,64,6	205,163,6	211,60,6	217,58,6	223,56,6	229,168,6	235,52,6	241,170,6	247,49,6	253,172,6	259,45,6	265,43,6	271,41,6	277,185,6	283,180,6	289,178,6	295,176,6	301,188,6	307,36,6	313,34,6	319,32,6	325,191,6	331,27,6	337,17,6	343,15,6	349,20,6	355,12,6	361,23,6	367,9,6	373,3,6	379,6,6	385,25,6	391,195,6	397,198,6	406,0,1	
5,139,6	11,136,6	17,134,6	23,132,6	29,142,6	35,127,6	41,125,6	47,123,6	53,146,6	59,118,6	65,148,6	71,115,6	77,150,6	83,110,6	89,108,6	95,106,6	101,154,6	107,102,6	113,100,6	119,98,6	125,157,6	131,94,6	137,92,6	143,90,6	149,82,6	155,77,6	161,84,6	167,74,6	173,86,6	179,70,6	185,68,6	191,66,6	197,162,6	203,62,6	209,164,6	215,59,6	221,166,6	227,55,6	233,53,6	239,51,6	245,171,6	251,47,6	257,173,6	263,44,6	269,175,6	275,183,6	281,181,6	287,179,6	293,187,6	299,39,6	305,37,6	311,35,6	317,190,6	323,30,6	329,28,6	335,26,6	341,18,6	347,14,6	353,21,6	359,11,6	365,24,6	371,2,6	377,5,6	383,8,6	389,194,6	395,197,6	
3,131,6	9,137,6	15,135,6	21,141,6	27,129,6	33,143,6	39,126,6	45,145,6	51,121,6	57,119,6	63,117,6	69,149,6	75,113,6	81,111,6	87,109,6	93,152,6	99,105,6	105,103,6	111,101,6	117,156,6	123,96,6	129,158,6	135,93,6	141,160,6	147,80,6	153,78,6	159,76,6	165,85,6	171,72,6	177,87,6	183,69,6	189,89,6	195,65,6	201,63,6	207,61,6	213,165,6	219,57,6	225,167,6	231,54,6	237,169,6	243,50,6	249,48,6	255,46,6	261,174,6	267,42,6	273,184,6	279,182,6	285,186,6	291,177,6	297,40,6	303,38,6	309,189,6	315,33,6	321,31,6	327,29,6	333,192,6	339,16,6	345,19,6	351,13,6	357,22,6	363,10,6	369,1,6	375,4,6	381,7,6	387,193,6	393,196,6	399,199,6	
# Incoming
9,(131, 0),1	11,(139, 0),1	15,(137, 0),1	17,(136, 0),1	21,(135, 0),1	23,(134, 0),1	27,(141, 0),1	29,(132, 0),1	33,(129, 0),1	35,(142, 0),1	39,(143, 0),1	41,(127, 0),1	45,(126, 0),1	47,(125, 0),1	51,(145, 0),1	53,(123, 0),1	57,(121, 0),1	59,(146, 0),1	63,(119, 0),1	65,(118, 0),1	69,(117, 0),1	71,(148, 0),1	75,(149, 0),1	77,(115, 0),1	81,(113, 0),1	83,(150, 0),1	87,(111, 0),1	89,(110, 0),1	93,(109, 0),1	95,(108, 0),1	99,(152, 0),1	101,(106, 0),1	105,(105, 0),1	107,(154, 0),1	111,(103, 0),1	113,(102, 0),1	117,(101, 0),1	119,(100, 0),1	123,(156, 0),1	125,(98, 0),1	129,(96, 0),1	131,(157, 0),1	135,(158, 0),1	137,(94, 0),1	141,(93, 0),1	143,(92, 0),1	147,(160, 0),1	149,(90, 0),1	153,(80, 0),1	155,(82, 0),1	159,(78, 0),1	161,(77, 0),1	165,(76, 0),1	167,(84, 0),1	171,(85, 0),1	173,(74, 0),1	177,(72, 0),1	179,(86, 0),1	183,(87, 0),1	185,(70, 0),1	189,(69, 0),1	191,(68, 0),1	195,(89, 0),1	197,(66, 0),1	201,(65, 0),1	203,(162, 0),1	207,(63, 0),1	209,(62, 0),1	213,(61, 0),1	215,(164, 0),1	219,(165, 0),1	221,(59, 0),1	225,(57, 0),1	227,(166, 0),1	231,(167, 0),1	233,(55, 0),1	237,(54, 0),1	239,(53, 0),1	243,(169, 0),1	245,(51, 0),1	249,(50, 0),1	251,(171, 0),1	255,(48, 0),1	257,(47, 0),1	261,(46, 0),1	263,(173, 0),1	267,(174, 0),1	269,(44, 0),1	273,(42, 0),1	275,(175, 0),1	279,(184, 0),1	281,(183, 0),1	285,(182, 0),1	287,(181, 0),1	291,(186, 0),1	293,(179, 0),1	297,(177, 0),1	299,(187, 0),1	303,(40, 0),1	305,(39, 0),1	309,(38, 0),1	311,(37, 0),1	315,(189, 0),1	317,(35, 0),1	321,(33, 0),1	323,(190, 0),1	327,(31, 0),1	329,(30, 0),1	333,(29, 0),1	335,(28, 0),1	339,(192, 0),1	341,(26, 0),1	345,(16, 0),1	347,(18, 0),1	351,(19, 0),1	353,(14, 0),1	357,(13, 0),1	359,(21, 0),1	363,(22, 0),1	365,(11, 0),1	369,(10, 0),1	371,(24, 0),1	375,(1, 0),1	377,(2, 0),1	381,(4, 0),1	383,(5, 0),1	387,(7, 0),1	389,(8, 0),1	393,(193, 0),1	395,(194, 0),1	399,(196, 0),1	401,(197, 0),1	405,(199, 0),1	
3,(201, 139),2	7,(201, 136),2	11,(201, 134),2	15,(201, 132),2	19,(201, 142),2	23,(201, 127),2	27,(201, 125),2	31,(201, 123),2	35,(201, 146),2	39,(201, 118),2	43,(201, 148),2	47,(201, 115),2	51,(201, 150),2	55,(201, 110),2	59,(201, 108),2	63,(201, 106),2	67,(201, 154),2	71,(201, 102),2	75,(201, 100),2	79,(201, 98),2	83,(201, 157),2	87,(201, 94),2	91,(201, 92),2	95,(201, 90),2	99,(201, 82),2	103,(201, 77),2	107,(201, 84),2	111,(201, 74),2	115,(201, 86),2	119,(201, 70),2	123,(201, 68),2	127,(201, 66),2	131,(201, 162),2	135,(201, 62),2	139,(201, 164),2	143,(201, 59),2	147,(201, 166),2	151,(201, 55),2	155,(201, 53),2	159,(201, 51),2	163,(201, 171),2	167,(201, 47),2	171,(201, 173),2	175,(201, 44),2	179,(201, 175),2	183,(201, 183),2	187,(201, 181),2	191,(201, 179),2	195,(201, 187),2	199,(201, 39),2	203,(201, 37),2	207,(201, 35),2	211,(201, 190),2	215,(201, 30),2	219,(201, 28),2	223,(201, 26),2	227,(201, 18),2	231,(201, 14),2	235,(201, 21),2	239,(201, 11),2	243,(201, 24),2	247,(201, 2),2	251,(201, 5),2	255,(201, 8),2	259,(201, 194),2	263,(201, 197),2	
1,(201, 131),2	5,(201, 137),2	9,(201, 135),2	13,(201, 141),2	17,(201, 129),2	21,(201, 143),2	25,(201, 126),2	29,(201, 145),2	33,(201, 121),2	37,(201, 119),2	41,(201, 117),2	45,(201, 149),2	49,(201, 113),2	53,(201, 111),2	57,(201, 109),2	61,(201, 152),2	65,(201, 105),2	69,(201, 103),2	73,(201, 101),2	77,(201, 156),2	81,(201, 96),2	85,(201, 158),2	89,(201, 93),2	93,(201, 160),2	97,(201, 80),2	101,(201, 78),2	105,(201, 76),2	109,(201, 85),2	113,(201, 72),2	117,(201, 87),2	121,(201, 69),2	125,(201, 89),2	129,(201, 65),2	133,(201, 63),2	137,(201, 61),2	141,(201, 165),2	145,(201, 57),2	149,(201, 167),2	153,(201, 54),2	157,(201, 169),2	161,(201, 50),2	165,(201, 48),2	169,(201, 46),2	173,(201, 174),2	177,(201, 42),2	181,(201, 184),2	185,(201, 182),2	189,(201, 186),2	193,(201, 177),2	197,(201, 40),2	201,(201, 38),2	205,(201, 189),2	209,(201, 33),2	213,(201, 31),2	217,(201, 29),2	221,(201, 192),2	225,(201, 16),2	229,(201, 19),2	233,(201, 13),2	237,(201, 22),2	241,(201, 10),2	245,(201, 1),2	249,(201, 4),2	253,(201, 7),2	257,(201, 193),2	261,(201, 196),2	265,(201, 199),2	
# Outgoing
1,(201, 131),2	3,(201, 139),2	5,(201, 137),2	7,(201, 136),2	9,(201, 135),2	11,(201, 134),2	13,(201, 141),2	15,(201, 132),2	17,(201, 129),2	19,(201, 142),2	21,(201, 143),2	23,(201, 127),2	25,(201, 126),2	27,(201, 125),2	29,(201, 145),2	31,(201, 123),2	33,(201, 121),2	35,(201, 146),2	37,(201, 119),2	39,(201, 118),2	41,(201, 117),2	43,(201, 148),2	45,(201, 149),2	47,(201, 115),2	49,(201, 113),2	51,(201, 150),2	53,(201, 111),2	55,(201, 110),2	57,(201, 109),2	59,(201, 108),2	61,(201, 152),2	63,(201, 106),2	65,(201, 105),2	67,(201, 154),2	69,(201, 103),2	71,(201, 102),2	73,(201, 101),2	75,(201, 100),2	77,(201, 156),2	79,(201, 98),2	81,(201, 96),2	83,(201, 157),2	85,(201, 158),2	87,(201, 94),2	89,(201, 93),2	91,(201, 92),2	93,(201, 160),2	95,(201, 90),2	97,(201, 80),2	99,(201, 82),2	101,(201, 78),2	103,(201, 77),2	105,(201, 76),2	107,(201, 84),2	109,(201, 85),2	111,(201, 74),2	113,(201, 72),2	115,(201, 86),2	117,(201, 87),2	119,(201, 70),2	121,(201, 69),2	123,(201, 68),2	125,(201, 89),2	127,(201, 66),2	129,(201, 65),2	131,(201, 162),2	133,(201, 63),2	135,(201, 62),2	137,(201, 61),2	139,(201, 164),2	141,(201, 165),2	143,(201, 59),2	145,(201, 57),2	147,(201, 166),2	149,(201, 167),2	151,(201, 55),2	153,(201, 54),2	155,(201, 53),2	157,(201, 169),2	159,(201, 51),2	161,(201, 50),2	163,(201, 171),2	165,(201, 48),2	167,(201, 47),2	169,(201, 46),2	171,(201, 173),2	173,(201, 174),2	175,(201, 44),2	177,(201, 42),2	179,(201, 175),2	181,(201, 184),2	183,(201, 183),2	185,(201, 182),2	187,(201, 181),2	189,(201, 186),2	191,(201, 179),2	193,(201, 177),2	195,(201, 187),2	197,(201, 40),2	199,(201, 39),2	201,(201, 38),2	203,(201, 37),2	205,(201, 189),2	207,(201, 35),2	209,(201, 33),2	211,(201, 190),2	213,(201, 31),2	215,(201, 30),2	217,(201, 29),2	219,(201, 28),2	221,(201, 192),2	223,(201, 26),2	225,(201, 16),2	227,(201, 18),2	229,(201, 19),2	231,(201, 14),2	233,(201, 13),2	235,(201, 21),2	237,(201, 22),2	239,(201, 11),2	241,(201, 10),2	243,(201, 24),2	245,(201, 1),2	247,(201, 2),2	249,(201, 4),2	251,(201, 5),2	253,(201, 7),2	255,(201, 8),2	257,(201, 193),2	259,(201, 194),2	261,(201, 196),2	263,(201, 197),2	265,(201, 199),2	
11,(139, 0),1	17,(136, 0),1	23,(134, 0),1	29,(132, 0),1	35,(142, 0),1	41,(127, 0),1	47,(125, 0),1	53,(123, 0),1	59,(146, 0),1	65,(118, 0),1	71,(148, 0),1	77,(115, 0),1	83,(150, 0),1	89,(110, 0),1	95,(108, 0),1	101,(106, 0),1	107,(154, 0),1	113,(102, 0),1	119,(100, 0),1	125,(98, 0),1	131,(157, 0),1	137,(94, 0),1	143,(92, 0),1	149,(90, 0),1	155,(82, 0),1	161,(77, 0),1	167,(84, 0),1	173,(74, 0),1	179,(86, 0),1	185,(70, 0),1	191,(68, 0),1	197,(66, 0),1	203,(162, 0),1	209,(62, 0),1	215,(164, 0),1	221,(59, 0),1	227,(166, 0),1	233,(55, 0),1	239,(53, 0),1	245,(51, 0),1	251,(171, 0),1	257,(47, 0),1	263,(173, 0),1	269,(44, 0),1	275,(175, 0),1	281,(183, 0),1	287,(181, 0),1	293,(179, 0),1	299,(187, 0),1	305,(39, 0),1	311,(37, 0),1	317,(35, 0),1	323,(190, 0),1	329,(30, 0),1	335,(28, 0),1	341,(26, 0),1	347,(18, 0),1	353,(14, 0),1	359,(21, 0),1	365,(11, 0),1	371,(24, 0),1	377,(2, 0),1	383,(5, 0),1	389,(8, 0),1	395,(194, 0),1	401,(197, 0),1	
9,(131, 0),1	15,(137, 0),1	21,(135, 0),1	27,(141, 0),1	33,(129, 0),1	39,(143, 0),1	45,(126, 0),1	51,(145, 0),1	57,(121, 0),1	63,(119, 0),1	69,(117, 0),1	75,(149, 0),1	81,(113, 0),1	87,(111, 0),1	93,(109, 0),1	99,(152, 0),1	105,(105, 0),1	111,(103, 0),1	117,(101, 0),1	123,(156, 0),1	129,(96, 0),1	135,(158, 0),1	141,(93, 0),1	147,(160, 0),1	153,(80, 0),1	159,(78, 0),1	165,(76, 0),1	171,(85, 0),1	177,(72, 0),1	183,(87, 0),1	189,(69, 0),1	195,(89, 0),1	201,(65, 0),1	207,(63, 0),1	213,(61, 0),1	219,(165, 0),1	225,(57, 0),1	231,(167, 0),1	237,(54, 0),1	243,(169, 0),1	249,(50, 0),1	255,(48, 0),1	261,(46, 0),1	267,(174, 0),1	273,(42, 0),1	279,(184, 0),1	285,(182, 0),1	291,(186, 0),1	297,(177, 0),1	303,(40, 0),1	309,(38, 0),1	315,(189, 0),1	321,(33, 0),1	327,(31, 0),1	333,(29, 0),1	339,(192, 0),1	345,(16, 0),1	351,(19, 0),1	357,(13, 0),1	363,(22, 0),1	369,(10, 0),1	375,(1, 0),1	381,(4, 0),1	387,(7, 0),1	393,(193, 0),1	399,(196, 0),1	405,(199, 0),1	
