2108
# CPU
0,201,1	1,200,13	14,138,13	27,139,13	40,137,13	53,136,13	66,140,13	79,135,13	92,134,13	105,133,13	118,141,13	131,132,13	144,131,13	157,142,13	170,143,13	183,129,13	196,144,13	209,128,13	222,126,13	235,145,13	248,125,13	261,124,13	274,122,13	287,146,13	300,121,13	313,119,13	326,147,13	339,148,13	352,117,13	365,149,13	378,116,13	391,115,13	404,150,13	417,113,13	430,112,13	443,151,13	456,110,13	469,109,13	482,108,13	495,152,13	508,153,13	521,106,13	534,154,13	547,105,13	560,103,13	573,155,13	586,102,13	599,100,13	612,156,13	625,99,13	638,98,13	651,96,13	664,157,13	677,158,13	690,95,13	703,159,13	716,94,13	729,92,13	742,160,13	755,91,13	768,80,13	781,81,13	794,79,13	807,78,13	820,77,13	833,76,13	846,82,13	859,75,13	872,74,13	885,73,13	898,72,13	911,83,13	924,71,13	937,70,13	950,84,13	963,69,13	976,68,13	989,67,13	1002,66,13	1015,85,13	1028,65,13	1041,64,13	1054,63,13	1067,62,13	1080,86,13	1093,61,13	1106,60,13	1119,89,13	1132,59,13	1145,57,13	1158,58,13	1171,56,13	1184,162,13	1197,55,13	1210,54,13	1223,53,13	1236,52,13	1249,51,13	1262,167,13	1275,50,13	1288,169,13	1301,48,13	1314,47,13	1327,49,13	1340,46,13	1353,172,13	1366,45,13	1379,44,13	1392,43,13	1405,42,13	1418,41,13	1431,184,13	1444,183,13	1457,185,13	1470,182,13	1483,181,13	1496,186,13	1509,180,13	1522,179,13	1535,187,13	1548,178,13	1561,176,13	1574,188,13	1587,40,13	1600,39,13	1613,38,13	1626,189,13	1639,35,13	1652,34,13	1665,190,13	1678,33,13	1691,31,13	1704,191,13	1717,30,13	1730,29,13	1743,192,13	1756,27,13	1769,17,13	1782,16,13	1795,15,13	1808,18,13	1821,14,13	1834,19,13	1847,13,13	1860,12,13	1873,20,13	1886,11,13	1899,10,13	1912,21,13	1925,9,13	1938,1,13	1951,2,13	1964,3,13	1977,4,13	1990,5,13	2003,6,13	2016,7,13	2029,8,13	2042,24,13	2055,193,13	2068,195,13	2081,196,13	2094,199,13	2107,0,1	
16,118,13	31,101,13	52,163,13	67,170,13	82,174,13	97,25,13	115,198,13	
7,127,13	43,87,13	58,164,13	88,36,13	
22,111,13	55,165,13	79,177,13	109,194,13	
40,90,13	73,173,13	106,26,13	
4,130,13	49,161,13	64,168,13	103,22,13	
13,120,13	28,104,13	46,88,13	76,175,13	94,28,13	
19,114,13	37,93,13	112,197,13	
10,123,13	34,97,13	61,166,13	91,32,13	
25,107,13	70,171,13	85,37,13	100,23,13	
# Incoming
17,(130, 0),54	71,(127, 0),54	125,(123, 0),54	179,(120, 0),54	233,(118, 0),54	287,(114, 0),54	341,(111, 0),54	395,(107, 0),54	449,(104, 0),54	503,(101, 0),54	557,(97, 0),54	611,(93, 0),54	665,(90, 0),54	719,(87, 0),54	773,(88, 0),54	827,(161, 0),54	881,(163, 0),54	935,(165, 0),54	989,(164, 0),54	1043,(166, 0),54	1097,(168, 0),54	1151,(170, 0),54	1205,(171, 0),54	1259,(173, 0),54	1313,(175, 0),54	1367,(177, 0),54	1421,(174, 0),54	1475,(37, 0),54	1529,(36, 0),54	1583,(32, 0),54	1637,(28, 0),54	1691,(25, 0),54	1745,(23, 0),54	1799,(22, 0),54	1853,(26, 0),54	1907,(194, 0),54	1961,(197, 0),54	2015,(198, 0),54	
13,(201, 118),3	28,(201, 101),3	49,(201, 163),3	64,(201, 170),3	79,(201, 174),3	94,(201, 25),3	112,(201, 198),3	
4,(201, 127),3	40,(201, 87),3	55,(201, 164),3	85,(201, 36),3	
19,(201, 111),3	52,(201, 165),3	76,(201, 177),3	106,(201, 194),3	
37,(201, 90),3	70,(201, 173),3	103,(201, 26),3	
1,(201, 130),3	46,(201, 161),3	61,(201, 168),3	100,(201, 22),3	
10,(201, 120),3	25,(201, 104),3	43,(201, 88),3	73,(201, 175),3	91,(201, 28),3	
16,(201, 114),3	34,(201, 93),3	109,(201, 197),3	
7,(201, 123),3	31,(201, 97),3	58,(201, 166),3	88,(201, 32),3	
22,(201, 107),3	67,(201, 171),3	82,(201, 37),3	97,(201, 23),3	
# Outgoing
1,(201, 130),3	4,(201, 127),3	7,(201, 123),3	10,(201, 120),3	13,(201, 118),3	16,(201, 114),3	19,(201, 111),3	22,(201, 107),3	25,(201, 104),3	28,(201, 101),3	31,(201, 97),3	34,(201, 93),3	37,(201, 90),3	40,(201, 87),3	43,(201, 88),3	46,(201, 161),3	49,(201, 163),3	52,(201, 165),3	55,(201, 164),3	58,(201, 166),3	61,(201, 168),3	64,(201, 170),3	67,(201, 171),3	70,(201, 173),3	73,(201, 175),3	76,(201, 177),3	79,(201, 174),3	82,(201, 37),3	85,(201, 36),3	88,(201, 32),3	91,(201, 28),3	94,(201, 25),3	97,(201, 23),3	100,(201, 22),3	103,(201, 26),3	106,(201, 194),3	109,(201, 197),3	112,(201, 198),3	
233,(118, 0),54	503,(101, 0),54	881,(163, 0),54	1151,(170, 0),54	1421,(174, 0),54	1691,(25, 0),54	2015,(198, 0),54	
71,(127, 0),54	719,(87, 0),54	989,(164, 0),54	1529,(36, 0),54	
341,(111, 0),54	935,(165, 0),54	1367,(177, 0),54	1907,(194, 0),54	
665,(90, 0),54	1259,(173, 0),54	1853,(26, 0),54	
17,(130, 0),54	827,(161, 0),54	1097,(168, 0),54	1799,(22, 0),54	
179,(120, 0),54	449,(104, 0),54	773,(88, 0),54	1313,(175, 0),54	1637,(28, 0),54	
287,(114, 0),54	611,(93, 0),54	1961,(197, 0),54	
125,(123, 0),54	557,(97, 0),54	1043,(166, 0),54	1583,(32, 0),54	
395,(107, 0),54	1205,(171, 0),54	1475,(37, 0),54	1745,(23, 0),54	
