1618
# CPU
0,0,1	1,139,12	13,138,12	25,55,12	37,86,12	49,132,12	61,114,12	73,169,12	85,84,12	97,82,12	109,70,12	121,83,12	133,160,12	145,39,12	157,167,12	169,51,12	181,81,12	193,128,12	205,68,12	217,127,12	229,80,12	241,126,12	253,66,12	265,173,12	277,162,12	289,119,12	301,170,12	313,52,12	325,161,12	337,34,12	349,171,12	361,75,12	373,76,12	385,120,12	397,61,12	409,32,12	421,77,12	433,73,12	445,174,12	457,157,12	469,164,12	481,163,12	493,101,12	505,110,12	517,67,12	529,41,12	541,151,12	553,179,12	565,65,12	577,57,12	589,98,12	601,43,12	613,168,12	625,78,12	637,46,12	649,71,12	661,172,12	673,25,12	685,45,12	697,182,12	709,54,12	721,166,12	733,42,12	745,159,12	757,53,12	769,49,12	781,38,12	793,176,12	805,50,12	817,103,12	829,36,12	841,187,12	853,181,12	865,64,12	877,92,12	889,165,12	901,183,12	913,62,12	925,30,12	937,16,12	949,184,12	961,189,12	973,29,12	985,190,12	997,178,12	1009,90,12	1021,27,12	1033,180,12	1045,35,12	1057,11,12	1069,79,12	1081,47,12	1093,33,12	1105,192,12	1117,155,12	1129,13,12	1141,28,12	1153,44,12	1165,69,12	1177,17,12	1189,56,12	1201,15,12	1213,188,12	1225,191,12	1237,40,12	1249,85,12	1261,186,12	1273,195,12	1285,175,12	1297,10,12	1309,185,12	1321,20,12	1333,26,12	1345,7,12	1357,158,12	1369,21,12	1381,14,12	1393,22,12	1405,48,12	1417,5,12	1429,12,12	1441,198,12	1453,8,12	1465,9,12	1477,18,12	1489,24,12	1501,194,12	1513,3,12	1525,1,12	1537,31,12	1549,2,12	1561,4,12	1573,6,12	1585,19,12	1597,200,12	1617,201,1	
361,122,12	457,118,12	481,116,12	505,117,12	553,113,12	577,111,12	601,112,12	625,109,12	649,115,12	673,108,12	697,107,12	745,105,12	1321,63,12	1345,59,12	1369,58,12	1537,23,12	1585,199,12	
73,133,12	97,136,12	121,137,12	169,130,12	193,140,12	217,141,12	241,142,12	265,129,12	289,125,12	313,124,12	337,123,12	385,143,12	409,144,12	433,145,12	529,121,12	721,106,12	769,146,12	793,104,12	817,147,12	841,102,12	865,100,12	889,99,12	937,148,12	1225,88,12	1249,89,12	1273,74,12	1297,72,12	1393,60,12	1417,87,12	1513,197,12	
25,134,12	49,135,12	145,131,12	913,97,12	961,95,12	985,94,12	1009,93,12	1033,91,12	1057,96,12	1081,149,12	1129,150,12	1153,153,12	1177,154,12	1201,156,12	1441,37,12	1465,177,12	1489,196,12	1561,193,12	
1105,152,12	
# Incoming
37,(134, 201),20	61,(135, 201),20	85,(133, 201),20	109,(136, 201),20	133,(137, 201),20	157,(131, 201),20	181,(130, 201),20	205,(140, 201),20	229,(141, 201),20	253,(142, 201),20	277,(129, 201),20	301,(125, 201),20	325,(124, 201),20	349,(123, 201),20	373,(122, 201),20	397,(143, 201),20	421,(144, 201),20	445,(145, 201),20	469,(118, 201),20	493,(116, 201),20	517,(117, 201),20	541,(121, 201),20	565,(113, 201),20	589,(111, 201),20	613,(112, 201),20	637,(109, 201),20	661,(115, 201),20	685,(108, 201),20	709,(107, 201),20	733,(106, 201),20	757,(105, 201),20	781,(146, 201),20	805,(104, 201),20	829,(147, 201),20	853,(102, 201),20	877,(100, 201),20	901,(99, 201),20	925,(97, 201),20	949,(148, 201),20	973,(95, 201),20	997,(94, 201),20	1021,(93, 201),20	1045,(91, 201),20	1069,(96, 201),20	1093,(149, 201),20	1117,(152, 201),20	1141,(150, 201),20	1165,(153, 201),20	1189,(154, 201),20	1213,(156, 201),20	1237,(88, 201),20	1261,(89, 201),20	1285,(74, 201),20	1309,(72, 201),20	1333,(63, 201),20	1357,(59, 201),20	1381,(58, 201),20	1405,(60, 201),20	1429,(87, 201),20	1453,(37, 201),20	1477,(177, 201),20	1501,(196, 201),20	1525,(197, 201),20	1549,(23, 201),20	1573,(193, 201),20	1597,(199, 201),20	
337,(0, 122),24	433,(0, 118),24	457,(0, 116),24	481,(0, 117),24	529,(0, 113),24	553,(0, 111),24	577,(0, 112),24	601,(0, 109),24	625,(0, 115),24	649,(0, 108),24	673,(0, 107),24	721,(0, 105),24	1297,(0, 63),24	1321,(0, 59),24	1345,(0, 58),24	1513,(0, 23),24	1561,(0, 199),24	
49,(0, 133),24	73,(0, 136),24	97,(0, 137),24	145,(0, 130),24	169,(0, 140),24	193,(0, 141),24	217,(0, 142),24	241,(0, 129),24	265,(0, 125),24	289,(0, 124),24	313,(0, 123),24	361,(0, 143),24	385,(0, 144),24	409,(0, 145),24	505,(0, 121),24	697,(0, 106),24	745,(0, 146),24	769,(0, 104),24	793,(0, 147),24	817,(0, 102),24	841,(0, 100),24	865,(0, 99),24	913,(0, 148),24	1201,(0, 88),24	1225,(0, 89),24	1249,(0, 74),24	1273,(0, 72),24	1369,(0, 60),24	1393,(0, 87),24	1489,(0, 197),24	
1,(0, 134),24	25,(0, 135),24	121,(0, 131),24	889,(0, 97),24	937,(0, 95),24	961,(0, 94),24	985,(0, 93),24	1009,(0, 91),24	1033,(0, 96),24	1057,(0, 149),24	1105,(0, 150),24	1129,(0, 153),24	1153,(0, 154),24	1177,(0, 156),24	1417,(0, 37),24	1441,(0, 177),24	1465,(0, 196),24	1537,(0, 193),24	
1081,(0, 152),24	
# Outgoing
1,(0, 134),24	25,(0, 135),24	49,(0, 133),24	73,(0, 136),24	97,(0, 137),24	121,(0, 131),24	145,(0, 130),24	169,(0, 140),24	193,(0, 141),24	217,(0, 142),24	241,(0, 129),24	265,(0, 125),24	289,(0, 124),24	313,(0, 123),24	337,(0, 122),24	361,(0, 143),24	385,(0, 144),24	409,(0, 145),24	433,(0, 118),24	457,(0, 116),24	481,(0, 117),24	505,(0, 121),24	529,(0, 113),24	553,(0, 111),24	577,(0, 112),24	601,(0, 109),24	625,(0, 115),24	649,(0, 108),24	673,(0, 107),24	697,(0, 106),24	721,(0, 105),24	745,(0, 146),24	769,(0, 104),24	793,(0, 147),24	817,(0, 102),24	841,(0, 100),24	865,(0, 99),24	889,(0, 97),24	913,(0, 148),24	937,(0, 95),24	961,(0, 94),24	985,(0, 93),24	1009,(0, 91),24	1033,(0, 96),24	1057,(0, 149),24	1081,(0, 152),24	1105,(0, 150),24	1129,(0, 153),24	1153,(0, 154),24	1177,(0, 156),24	1201,(0, 88),24	1225,(0, 89),24	1249,(0, 74),24	1273,(0, 72),24	1297,(0, 63),24	1321,(0, 59),24	1345,(0, 58),24	1369,(0, 60),24	1393,(0, 87),24	1417,(0, 37),24	1441,(0, 177),24	1465,(0, 196),24	1489,(0, 197),24	1513,(0, 23),24	1537,(0, 193),24	1561,(0, 199),24	
373,(122, 201),20	469,(118, 201),20	493,(116, 201),20	517,(117, 201),20	565,(113, 201),20	589,(111, 201),20	613,(112, 201),20	637,(109, 201),20	661,(115, 201),20	685,(108, 201),20	709,(107, 201),20	757,(105, 201),20	1333,(63, 201),20	1357,(59, 201),20	1381,(58, 201),20	1549,(23, 201),20	1597,(199, 201),20	
85,(133, 201),20	109,(136, 201),20	133,(137, 201),20	181,(130, 201),20	205,(140, 201),20	229,(141, 201),20	253,(142, 201),20	277,(129, 201),20	301,(125, 201),20	325,(124, 201),20	349,(123, 201),20	397,(143, 201),20	421,(144, 201),20	445,(145, 201),20	541,(121, 201),20	733,(106, 201),20	781,(146, 201),20	805,(104, 201),20	829,(147, 201),20	853,(102, 201),20	877,(100, 201),20	901,(99, 201),20	949,(148, 201),20	1237,(88, 201),20	1261,(89, 201),20	1285,(74, 201),20	1309,(72, 201),20	1405,(60, 201),20	1429,(87, 201),20	1525,(197, 201),20	
37,(134, 201),20	61,(135, 201),20	157,(131, 201),20	925,(97, 201),20	973,(95, 201),20	997,(94, 201),20	1021,(93, 201),20	1045,(91, 201),20	1069,(96, 201),20	1093,(149, 201),20	1141,(150, 201),20	1165,(153, 201),20	1189,(154, 201),20	1213,(156, 201),20	1453,(37, 201),20	1477,(177, 201),20	1501,(196, 201),20	1573,(193, 201),20	
1117,(152, 201),20	
