402
# CPU
0,0,1	1,1,2	3,3,2	5,7,2	7,15,2	9,31,2	11,63,2	13,127,2	15,200,2	17,199,2	19,198,2	21,197,2	23,196,2	25,195,2	27,194,2	29,193,2	31,192,2	33,191,2	35,190,2	37,189,2	39,188,2	41,187,2	43,186,2	45,185,2	47,184,2	49,183,2	51,182,2	53,181,2	55,180,2	57,179,2	59,178,2	61,177,2	63,176,2	65,175,2	67,174,2	69,173,2	71,172,2	73,171,2	75,170,2	77,169,2	79,168,2	81,167,2	83,166,2	85,165,2	87,164,2	89,163,2	91,162,2	93,161,2	95,160,2	97,159,2	99,158,2	101,157,2	103,156,2	105,155,2	107,154,2	109,153,2	111,152,2	113,151,2	115,150,2	117,149,2	119,148,2	121,147,2	123,146,2	125,145,2	127,144,2	129,143,2	131,142,2	133,141,2	135,140,2	137,139,2	139,138,2	141,137,2	143,136,2	145,135,2	147,134,2	149,133,2	151,132,2	153,131,2	155,130,2	157,129,2	159,126,2	161,128,2	163,125,2	165,124,2	167,123,2	169,122,2	171,121,2	173,120,2	175,119,2	177,118,2	179,117,2	181,116,2	183,115,2	185,114,2	187,113,2	189,112,2	191,111,2	193,110,2	195,109,2	197,108,2	199,107,2	201,106,2	203,105,2	205,104,2	207,103,2	209,102,2	211,101,2	213,100,2	215,99,2	217,98,2	219,97,2	221,96,2	223,95,2	225,94,2	227,93,2	229,92,2	231,91,2	233,90,2	235,89,2	237,88,2	239,87,2	241,86,2	243,85,2	245,84,2	247,83,2	249,82,2	251,81,2	253,80,2	255,79,2	257,78,2	259,77,2	261,76,2	263,75,2	265,74,2	267,73,2	269,72,2	271,71,2	273,70,2	275,69,2	277,68,2	279,67,2	281,66,2	283,65,2	285,62,2	287,64,2	289,61,2	291,60,2	293,59,2	295,58,2	297,57,2	299,56,2	301,55,2	303,54,2	305,53,2	307,52,2	309,51,2	311,50,2	313,49,2	315,48,2	317,47,2	319,46,2	321,45,2	323,44,2	325,43,2	327,42,2	329,41,2	331,40,2	333,39,2	335,38,2	337,37,2	339,36,2	341,35,2	343,34,2	345,33,2	347,30,2	349,32,2	351,29,2	353,28,2	355,27,2	357,26,2	359,25,2	361,24,2	363,23,2	365,22,2	367,21,2	369,20,2	371,19,2	373,18,2	375,17,2	377,14,2	379,16,2	381,13,2	383,12,2	385,11,2	387,10,2	389,9,2	391,6,2	393,8,2	395,5,2	397,2,2	399,4,2	401,201,1	

# Incoming


# Outgoing


