2535
# CPU
5,3,4	9,6,4	13,9,4	17,12,4	21,15,4	25,18,4	29,21,4	33,24,4	37,27,4	41,30,4	45,33,4	49,36,4	53,39,4	57,42,4	61,45,4	65,48,4	69,51,4	73,54,4	77,57,4	81,60,4	85,63,4	89,66,4	93,69,4	97,72,4	101,75,4	105,78,4	109,81,4	113,84,4	117,87,4	121,90,4	125,93,4	129,96,4	133,99,4	137,102,4	141,105,4	145,108,4	149,111,4	153,114,4	157,117,4	161,120,4	165,123,4	169,126,4	173,129,4	177,132,4	181,135,4	185,138,4	189,141,4	193,144,4	197,147,4	201,150,4	205,153,4	209,156,4	213,159,4	217,162,4	221,165,4	225,168,4	229,171,4	233,174,4	237,177,4	241,180,4	245,183,4	249,186,4	253,189,4	257,192,4	261,195,4	265,198,4	
3,2,4	7,5,4	11,8,4	15,11,4	19,14,4	23,17,4	27,20,4	31,23,4	35,26,4	39,29,4	43,32,4	47,35,4	51,38,4	55,41,4	59,44,4	63,47,4	67,50,4	71,53,4	75,56,4	79,59,4	83,62,4	87,65,4	91,68,4	95,71,4	99,74,4	103,77,4	107,80,4	111,83,4	115,86,4	119,89,4	123,92,4	127,95,4	131,98,4	135,101,4	139,104,4	143,107,4	147,110,4	151,113,4	155,116,4	159,119,4	163,122,4	167,125,4	171,128,4	175,131,4	179,134,4	183,137,4	187,140,4	191,143,4	195,146,4	199,149,4	203,152,4	207,155,4	211,158,4	215,161,4	219,164,4	223,167,4	227,170,4	231,173,4	235,176,4	239,179,4	243,182,4	247,185,4	251,188,4	255,191,4	259,194,4	263,197,4	267,200,4	
0,0,1	1,1,4	5,7,4	9,19,4	13,43,4	17,91,4	21,187,4	25,199,4	29,196,4	33,193,4	37,184,4	41,190,4	45,181,4	49,178,4	53,175,4	57,172,4	61,169,4	65,166,4	69,163,4	73,160,4	77,157,4	81,154,4	85,151,4	89,148,4	93,145,4	97,142,4	101,139,4	105,136,4	109,133,4	113,130,4	117,127,4	121,124,4	125,121,4	129,118,4	133,115,4	137,112,4	141,109,4	145,106,4	149,103,4	153,100,4	157,97,4	161,88,4	165,94,4	169,85,4	173,82,4	177,79,4	181,76,4	185,73,4	189,70,4	193,67,4	197,64,4	201,61,4	205,58,4	209,55,4	213,52,4	217,49,4	221,40,4	225,46,4	229,37,4	233,34,4	237,31,4	241,28,4	245,25,4	249,16,4	253,22,4	257,13,4	261,4,4	265,10,4	2534,201,1	
# Incoming
3,(0, 3),2	7,(0, 6),2	11,(0, 9),2	15,(0, 12),2	19,(0, 15),2	23,(0, 18),2	27,(0, 21),2	31,(0, 24),2	35,(0, 27),2	39,(0, 30),2	43,(0, 33),2	47,(0, 36),2	51,(0, 39),2	55,(0, 42),2	59,(0, 45),2	63,(0, 48),2	67,(0, 51),2	71,(0, 54),2	75,(0, 57),2	79,(0, 60),2	83,(0, 63),2	87,(0, 66),2	91,(0, 69),2	95,(0, 72),2	99,(0, 75),2	103,(0, 78),2	107,(0, 81),2	111,(0, 84),2	115,(0, 87),2	119,(0, 90),2	123,(0, 93),2	127,(0, 96),2	131,(0, 99),2	135,(0, 102),2	139,(0, 105),2	143,(0, 108),2	147,(0, 111),2	151,(0, 114),2	155,(0, 117),2	159,(0, 120),2	163,(0, 123),2	167,(0, 126),2	171,(0, 129),2	175,(0, 132),2	179,(0, 135),2	183,(0, 138),2	187,(0, 141),2	191,(0, 144),2	195,(0, 147),2	199,(0, 150),2	203,(0, 153),2	207,(0, 156),2	211,(0, 159),2	215,(0, 162),2	219,(0, 165),2	223,(0, 168),2	227,(0, 171),2	231,(0, 174),2	235,(0, 177),2	239,(0, 180),2	243,(0, 183),2	247,(0, 186),2	251,(0, 189),2	255,(0, 192),2	259,(0, 195),2	263,(0, 198),2	
1,(0, 2),2	5,(0, 5),2	9,(0, 8),2	13,(0, 11),2	17,(0, 14),2	21,(0, 17),2	25,(0, 20),2	29,(0, 23),2	33,(0, 26),2	37,(0, 29),2	41,(0, 32),2	45,(0, 35),2	49,(0, 38),2	53,(0, 41),2	57,(0, 44),2	61,(0, 47),2	65,(0, 50),2	69,(0, 53),2	73,(0, 56),2	77,(0, 59),2	81,(0, 62),2	85,(0, 65),2	89,(0, 68),2	93,(0, 71),2	97,(0, 74),2	101,(0, 77),2	105,(0, 80),2	109,(0, 83),2	113,(0, 86),2	117,(0, 89),2	121,(0, 92),2	125,(0, 95),2	129,(0, 98),2	133,(0, 101),2	137,(0, 104),2	141,(0, 107),2	145,(0, 110),2	149,(0, 113),2	153,(0, 116),2	157,(0, 119),2	161,(0, 122),2	165,(0, 125),2	169,(0, 128),2	173,(0, 131),2	177,(0, 134),2	181,(0, 137),2	185,(0, 140),2	189,(0, 143),2	193,(0, 146),2	197,(0, 149),2	201,(0, 152),2	205,(0, 155),2	209,(0, 158),2	213,(0, 161),2	217,(0, 164),2	221,(0, 167),2	225,(0, 170),2	229,(0, 173),2	233,(0, 176),2	237,(0, 179),2	241,(0, 182),2	245,(0, 185),2	249,(0, 188),2	253,(0, 191),2	257,(0, 194),2	261,(0, 197),2	265,(0, 200),2	
7,(2, 201),19	26,(3, 201),19	45,(5, 201),19	64,(6, 201),19	83,(8, 201),19	102,(9, 201),19	121,(11, 201),19	140,(12, 201),19	159,(14, 201),19	178,(15, 201),19	197,(17, 201),19	216,(18, 201),19	235,(20, 201),19	254,(21, 201),19	273,(23, 201),19	292,(24, 201),19	311,(26, 201),19	330,(27, 201),19	349,(29, 201),19	368,(30, 201),19	387,(32, 201),19	406,(33, 201),19	425,(35, 201),19	444,(36, 201),19	463,(38, 201),19	482,(39, 201),19	501,(41, 201),19	520,(42, 201),19	539,(44, 201),19	558,(45, 201),19	577,(47, 201),19	596,(48, 201),19	615,(50, 201),19	634,(51, 201),19	653,(53, 201),19	672,(54, 201),19	691,(56, 201),19	710,(57, 201),19	729,(59, 201),19	748,(60, 201),19	767,(62, 201),19	786,(63, 201),19	805,(65, 201),19	824,(66, 201),19	843,(68, 201),19	862,(69, 201),19	881,(71, 201),19	900,(72, 201),19	919,(74, 201),19	938,(75, 201),19	957,(77, 201),19	976,(78, 201),19	995,(80, 201),19	1014,(81, 201),19	1033,(83, 201),19	1052,(84, 201),19	1071,(86, 201),19	1090,(87, 201),19	1109,(89, 201),19	1128,(90, 201),19	1147,(92, 201),19	1166,(93, 201),19	1185,(95, 201),19	1204,(96, 201),19	1223,(98, 201),19	1242,(99, 201),19	1261,(101, 201),19	1280,(102, 201),19	1299,(104, 201),19	1318,(105, 201),19	1337,(107, 201),19	1356,(108, 201),19	1375,(110, 201),19	1394,(111, 201),19	1413,(113, 201),19	1432,(114, 201),19	1451,(116, 201),19	1470,(117, 201),19	1489,(119, 201),19	1508,(120, 201),19	1527,(122, 201),19	1546,(123, 201),19	1565,(125, 201),19	1584,(126, 201),19	1603,(128, 201),19	1622,(129, 201),19	1641,(131, 201),19	1660,(132, 201),19	1679,(134, 201),19	1698,(135, 201),19	1717,(137, 201),19	1736,(138, 201),19	1755,(140, 201),19	1774,(141, 201),19	1793,(143, 201),19	1812,(144, 201),19	1831,(146, 201),19	1850,(147, 201),19	1869,(149, 201),19	1888,(150, 201),19	1907,(152, 201),19	1926,(153, 201),19	1945,(155, 201),19	1964,(156, 201),19	1983,(158, 201),19	2002,(159, 201),19	2021,(161, 201),19	2040,(162, 201),19	2059,(164, 201),19	2078,(165, 201),19	2097,(167, 201),19	2116,(168, 201),19	2135,(170, 201),19	2154,(171, 201),19	2173,(173, 201),19	2192,(174, 201),19	2211,(176, 201),19	2230,(177, 201),19	2249,(179, 201),19	2268,(180, 201),19	2287,(182, 201),19	2306,(183, 201),19	2325,(185, 201),19	2344,(186, 201),19	2363,(188, 201),19	2382,(189, 201),19	2401,(191, 201),19	2420,(192, 201),19	2439,(194, 201),19	2458,(195, 201),19	2477,(197, 201),19	2496,(198, 201),19	2515,(200, 201),19	
# Outgoing
26,(3, 201),19	64,(6, 201),19	102,(9, 201),19	140,(12, 201),19	178,(15, 201),19	216,(18, 201),19	254,(21, 201),19	292,(24, 201),19	330,(27, 201),19	368,(30, 201),19	406,(33, 201),19	444,(36, 201),19	482,(39, 201),19	520,(42, 201),19	558,(45, 201),19	596,(48, 201),19	634,(51, 201),19	672,(54, 201),19	710,(57, 201),19	748,(60, 201),19	786,(63, 201),19	824,(66, 201),19	862,(69, 201),19	900,(72, 201),19	938,(75, 201),19	976,(78, 201),19	1014,(81, 201),19	1052,(84, 201),19	1090,(87, 201),19	1128,(90, 201),19	1166,(93, 201),19	1204,(96, 201),19	1242,(99, 201),19	1280,(102, 201),19	1318,(105, 201),19	1356,(108, 201),19	1394,(111, 201),19	1432,(114, 201),19	1470,(117, 201),19	1508,(120, 201),19	1546,(123, 201),19	1584,(126, 201),19	1622,(129, 201),19	1660,(132, 201),19	1698,(135, 201),19	1736,(138, 201),19	1774,(141, 201),19	1812,(144, 201),19	1850,(147, 201),19	1888,(150, 201),19	1926,(153, 201),19	1964,(156, 201),19	2002,(159, 201),19	2040,(162, 201),19	2078,(165, 201),19	2116,(168, 201),19	2154,(171, 201),19	2192,(174, 201),19	2230,(177, 201),19	2268,(180, 201),19	2306,(183, 201),19	2344,(186, 201),19	2382,(189, 201),19	2420,(192, 201),19	2458,(195, 201),19	2496,(198, 201),19	
7,(2, 201),19	45,(5, 201),19	83,(8, 201),19	121,(11, 201),19	159,(14, 201),19	197,(17, 201),19	235,(20, 201),19	273,(23, 201),19	311,(26, 201),19	349,(29, 201),19	387,(32, 201),19	425,(35, 201),19	463,(38, 201),19	501,(41, 201),19	539,(44, 201),19	577,(47, 201),19	615,(50, 201),19	653,(53, 201),19	691,(56, 201),19	729,(59, 201),19	767,(62, 201),19	805,(65, 201),19	843,(68, 201),19	881,(71, 201),19	919,(74, 201),19	957,(77, 201),19	995,(80, 201),19	1033,(83, 201),19	1071,(86, 201),19	1109,(89, 201),19	1147,(92, 201),19	1185,(95, 201),19	1223,(98, 201),19	1261,(101, 201),19	1299,(104, 201),19	1337,(107, 201),19	1375,(110, 201),19	1413,(113, 201),19	1451,(116, 201),19	1489,(119, 201),19	1527,(122, 201),19	1565,(125, 201),19	1603,(128, 201),19	1641,(131, 201),19	1679,(134, 201),19	1717,(137, 201),19	1755,(140, 201),19	1793,(143, 201),19	1831,(146, 201),19	1869,(149, 201),19	1907,(152, 201),19	1945,(155, 201),19	1983,(158, 201),19	2021,(161, 201),19	2059,(164, 201),19	2097,(167, 201),19	2135,(170, 201),19	2173,(173, 201),19	2211,(176, 201),19	2249,(179, 201),19	2287,(182, 201),19	2325,(185, 201),19	2363,(188, 201),19	2401,(191, 201),19	2439,(194, 201),19	2477,(197, 201),19	2515,(200, 201),19	
1,(0, 2),2	3,(0, 3),2	5,(0, 5),2	7,(0, 6),2	9,(0, 8),2	11,(0, 9),2	13,(0, 11),2	15,(0, 12),2	17,(0, 14),2	19,(0, 15),2	21,(0, 17),2	23,(0, 18),2	25,(0, 20),2	27,(0, 21),2	29,(0, 23),2	31,(0, 24),2	33,(0, 26),2	35,(0, 27),2	37,(0, 29),2	39,(0, 30),2	41,(0, 32),2	43,(0, 33),2	45,(0, 35),2	47,(0, 36),2	49,(0, 38),2	51,(0, 39),2	53,(0, 41),2	55,(0, 42),2	57,(0, 44),2	59,(0, 45),2	61,(0, 47),2	63,(0, 48),2	65,(0, 50),2	67,(0, 51),2	69,(0, 53),2	71,(0, 54),2	73,(0, 56),2	75,(0, 57),2	77,(0, 59),2	79,(0, 60),2	81,(0, 62),2	83,(0, 63),2	85,(0, 65),2	87,(0, 66),2	89,(0, 68),2	91,(0, 69),2	93,(0, 71),2	95,(0, 72),2	97,(0, 74),2	99,(0, 75),2	101,(0, 77),2	103,(0, 78),2	105,(0, 80),2	107,(0, 81),2	109,(0, 83),2	111,(0, 84),2	113,(0, 86),2	115,(0, 87),2	117,(0, 89),2	119,(0, 90),2	121,(0, 92),2	123,(0, 93),2	125,(0, 95),2	127,(0, 96),2	129,(0, 98),2	131,(0, 99),2	133,(0, 101),2	135,(0, 102),2	137,(0, 104),2	139,(0, 105),2	141,(0, 107),2	143,(0, 108),2	145,(0, 110),2	147,(0, 111),2	149,(0, 113),2	151,(0, 114),2	153,(0, 116),2	155,(0, 117),2	157,(0, 119),2	159,(0, 120),2	161,(0, 122),2	163,(0, 123),2	165,(0, 125),2	167,(0, 126),2	169,(0, 128),2	171,(0, 129),2	173,(0, 131),2	175,(0, 132),2	177,(0, 134),2	179,(0, 135),2	181,(0, 137),2	183,(0, 138),2	185,(0, 140),2	187,(0, 141),2	189,(0, 143),2	191,(0, 144),2	193,(0, 146),2	195,(0, 147),2	197,(0, 149),2	199,(0, 150),2	201,(0, 152),2	203,(0, 153),2	205,(0, 155),2	207,(0, 156),2	209,(0, 158),2	211,(0, 159),2	213,(0, 161),2	215,(0, 162),2	217,(0, 164),2	219,(0, 165),2	221,(0, 167),2	223,(0, 168),2	225,(0, 170),2	227,(0, 171),2	229,(0, 173),2	231,(0, 174),2	233,(0, 176),2	235,(0, 177),2	237,(0, 179),2	239,(0, 180),2	241,(0, 182),2	243,(0, 183),2	245,(0, 185),2	247,(0, 186),2	249,(0, 188),2	251,(0, 189),2	253,(0, 191),2	255,(0, 192),2	257,(0, 194),2	259,(0, 195),2	261,(0, 197),2	263,(0, 198),2	265,(0, 200),2	
