706
# CPU
4,2,1	7,4,1	10,6,1	13,8,1	16,10,1	19,12,1	22,14,1	25,16,1	28,18,1	31,20,1	34,22,1	37,24,1	40,26,1	43,28,1	46,30,1	49,32,1	52,34,1	55,36,1	58,38,1	61,40,1	64,42,1	67,44,1	70,46,1	73,48,1	76,50,1	79,52,1	82,54,1	85,56,1	88,58,1	91,60,1	94,62,1	97,64,1	100,66,1	103,68,1	106,70,1	109,72,1	112,74,1	115,76,1	118,78,1	121,80,1	124,82,1	127,84,1	130,86,1	133,88,1	136,90,1	139,92,1	142,94,1	145,96,1	148,98,1	151,100,1	154,102,1	157,104,1	160,106,1	163,108,1	166,110,1	169,112,1	172,114,1	175,116,1	178,118,1	181,120,1	184,122,1	187,124,1	190,126,1	193,128,1	196,130,1	199,132,1	202,134,1	205,136,1	208,138,1	211,140,1	214,142,1	217,144,1	220,146,1	223,148,1	226,150,1	229,152,1	232,154,1	235,156,1	238,158,1	241,160,1	244,162,1	247,164,1	250,166,1	253,168,1	256,170,1	259,172,1	262,174,1	265,176,1	268,178,1	271,180,1	274,182,1	277,184,1	280,186,1	283,188,1	286,190,1	289,192,1	292,194,1	295,196,1	298,198,1	301,200,1	
0,0,1	1,1,1	2,5,1	3,13,1	4,29,1	5,61,1	6,125,1	7,199,1	8,197,1	9,195,1	10,193,1	11,191,1	12,189,1	13,187,1	14,185,1	15,183,1	16,181,1	17,179,1	18,177,1	19,175,1	20,173,1	21,171,1	22,169,1	23,167,1	24,165,1	25,163,1	26,161,1	27,159,1	28,157,1	29,155,1	30,153,1	31,151,1	32,149,1	33,147,1	34,145,1	35,143,1	36,141,1	37,139,1	38,137,1	39,135,1	40,133,1	41,131,1	42,129,1	43,123,1	44,127,1	45,121,1	46,119,1	47,117,1	48,115,1	49,113,1	50,111,1	51,109,1	52,107,1	53,105,1	54,103,1	55,101,1	56,99,1	57,97,1	58,95,1	59,93,1	60,91,1	61,89,1	62,87,1	63,85,1	64,83,1	65,81,1	66,79,1	67,77,1	68,75,1	69,73,1	70,71,1	71,69,1	72,67,1	73,65,1	74,59,1	75,63,1	76,57,1	77,55,1	78,53,1	79,51,1	80,49,1	81,47,1	82,45,1	83,43,1	84,41,1	85,39,1	86,37,1	87,35,1	88,33,1	89,27,1	90,31,1	91,25,1	92,23,1	93,21,1	94,19,1	95,17,1	96,11,1	97,15,1	98,9,1	99,3,1	100,7,1	705,201,1	
# Incoming
1,(0, 2),3	4,(0, 4),3	7,(0, 6),3	10,(0, 8),3	13,(0, 10),3	16,(0, 12),3	19,(0, 14),3	22,(0, 16),3	25,(0, 18),3	28,(0, 20),3	31,(0, 22),3	34,(0, 24),3	37,(0, 26),3	40,(0, 28),3	43,(0, 30),3	46,(0, 32),3	49,(0, 34),3	52,(0, 36),3	55,(0, 38),3	58,(0, 40),3	61,(0, 42),3	64,(0, 44),3	67,(0, 46),3	70,(0, 48),3	73,(0, 50),3	76,(0, 52),3	79,(0, 54),3	82,(0, 56),3	85,(0, 58),3	88,(0, 60),3	91,(0, 62),3	94,(0, 64),3	97,(0, 66),3	100,(0, 68),3	103,(0, 70),3	106,(0, 72),3	109,(0, 74),3	112,(0, 76),3	115,(0, 78),3	118,(0, 80),3	121,(0, 82),3	124,(0, 84),3	127,(0, 86),3	130,(0, 88),3	133,(0, 90),3	136,(0, 92),3	139,(0, 94),3	142,(0, 96),3	145,(0, 98),3	148,(0, 100),3	151,(0, 102),3	154,(0, 104),3	157,(0, 106),3	160,(0, 108),3	163,(0, 110),3	166,(0, 112),3	169,(0, 114),3	172,(0, 116),3	175,(0, 118),3	178,(0, 120),3	181,(0, 122),3	184,(0, 124),3	187,(0, 126),3	190,(0, 128),3	193,(0, 130),3	196,(0, 132),3	199,(0, 134),3	202,(0, 136),3	205,(0, 138),3	208,(0, 140),3	211,(0, 142),3	214,(0, 144),3	217,(0, 146),3	220,(0, 148),3	223,(0, 150),3	226,(0, 152),3	229,(0, 154),3	232,(0, 156),3	235,(0, 158),3	238,(0, 160),3	241,(0, 162),3	244,(0, 164),3	247,(0, 166),3	250,(0, 168),3	253,(0, 170),3	256,(0, 172),3	259,(0, 174),3	262,(0, 176),3	265,(0, 178),3	268,(0, 180),3	271,(0, 182),3	274,(0, 184),3	277,(0, 186),3	280,(0, 188),3	283,(0, 190),3	286,(0, 192),3	289,(0, 194),3	292,(0, 196),3	295,(0, 198),3	298,(0, 200),3	
5,(2, 201),7	12,(4, 201),7	19,(6, 201),7	26,(8, 201),7	33,(10, 201),7	40,(12, 201),7	47,(14, 201),7	54,(16, 201),7	61,(18, 201),7	68,(20, 201),7	75,(22, 201),7	82,(24, 201),7	89,(26, 201),7	96,(28, 201),7	103,(30, 201),7	110,(32, 201),7	117,(34, 201),7	124,(36, 201),7	131,(38, 201),7	138,(40, 201),7	145,(42, 201),7	152,(44, 201),7	159,(46, 201),7	166,(48, 201),7	173,(50, 201),7	180,(52, 201),7	187,(54, 201),7	194,(56, 201),7	201,(58, 201),7	208,(60, 201),7	215,(62, 201),7	222,(64, 201),7	229,(66, 201),7	236,(68, 201),7	243,(70, 201),7	250,(72, 201),7	257,(74, 201),7	264,(76, 201),7	271,(78, 201),7	278,(80, 201),7	285,(82, 201),7	292,(84, 201),7	299,(86, 201),7	306,(88, 201),7	313,(90, 201),7	320,(92, 201),7	327,(94, 201),7	334,(96, 201),7	341,(98, 201),7	348,(100, 201),7	355,(102, 201),7	362,(104, 201),7	369,(106, 201),7	376,(108, 201),7	383,(110, 201),7	390,(112, 201),7	397,(114, 201),7	404,(116, 201),7	411,(118, 201),7	418,(120, 201),7	425,(122, 201),7	432,(124, 201),7	439,(126, 201),7	446,(128, 201),7	453,(130, 201),7	460,(132, 201),7	467,(134, 201),7	474,(136, 201),7	481,(138, 201),7	488,(140, 201),7	495,(142, 201),7	502,(144, 201),7	509,(146, 201),7	516,(148, 201),7	523,(150, 201),7	530,(152, 201),7	537,(154, 201),7	544,(156, 201),7	551,(158, 201),7	558,(160, 201),7	565,(162, 201),7	572,(164, 201),7	579,(166, 201),7	586,(168, 201),7	593,(170, 201),7	600,(172, 201),7	607,(174, 201),7	614,(176, 201),7	621,(178, 201),7	628,(180, 201),7	635,(182, 201),7	642,(184, 201),7	649,(186, 201),7	656,(188, 201),7	663,(190, 201),7	670,(192, 201),7	677,(194, 201),7	684,(196, 201),7	691,(198, 201),7	698,(200, 201),7	
# Outgoing
5,(2, 201),7	12,(4, 201),7	19,(6, 201),7	26,(8, 201),7	33,(10, 201),7	40,(12, 201),7	47,(14, 201),7	54,(16, 201),7	61,(18, 201),7	68,(20, 201),7	75,(22, 201),7	82,(24, 201),7	89,(26, 201),7	96,(28, 201),7	103,(30, 201),7	110,(32, 201),7	117,(34, 201),7	124,(36, 201),7	131,(38, 201),7	138,(40, 201),7	145,(42, 201),7	152,(44, 201),7	159,(46, 201),7	166,(48, 201),7	173,(50, 201),7	180,(52, 201),7	187,(54, 201),7	194,(56, 201),7	201,(58, 201),7	208,(60, 201),7	215,(62, 201),7	222,(64, 201),7	229,(66, 201),7	236,(68, 201),7	243,(70, 201),7	250,(72, 201),7	257,(74, 201),7	264,(76, 201),7	271,(78, 201),7	278,(80, 201),7	285,(82, 201),7	292,(84, 201),7	299,(86, 201),7	306,(88, 201),7	313,(90, 201),7	320,(92, 201),7	327,(94, 201),7	334,(96, 201),7	341,(98, 201),7	348,(100, 201),7	355,(102, 201),7	362,(104, 201),7	369,(106, 201),7	376,(108, 201),7	383,(110, 201),7	390,(112, 201),7	397,(114, 201),7	404,(116, 201),7	411,(118, 201),7	418,(120, 201),7	425,(122, 201),7	432,(124, 201),7	439,(126, 201),7	446,(128, 201),7	453,(130, 201),7	460,(132, 201),7	467,(134, 201),7	474,(136, 201),7	481,(138, 201),7	488,(140, 201),7	495,(142, 201),7	502,(144, 201),7	509,(146, 201),7	516,(148, 201),7	523,(150, 201),7	530,(152, 201),7	537,(154, 201),7	544,(156, 201),7	551,(158, 201),7	558,(160, 201),7	565,(162, 201),7	572,(164, 201),7	579,(166, 201),7	586,(168, 201),7	593,(170, 201),7	600,(172, 201),7	607,(174, 201),7	614,(176, 201),7	621,(178, 201),7	628,(180, 201),7	635,(182, 201),7	642,(184, 201),7	649,(186, 201),7	656,(188, 201),7	663,(190, 201),7	670,(192, 201),7	677,(194, 201),7	684,(196, 201),7	691,(198, 201),7	698,(200, 201),7	
1,(0, 2),3	4,(0, 4),3	7,(0, 6),3	10,(0, 8),3	13,(0, 10),3	16,(0, 12),3	19,(0, 14),3	22,(0, 16),3	25,(0, 18),3	28,(0, 20),3	31,(0, 22),3	34,(0, 24),3	37,(0, 26),3	40,(0, 28),3	43,(0, 30),3	46,(0, 32),3	49,(0, 34),3	52,(0, 36),3	55,(0, 38),3	58,(0, 40),3	61,(0, 42),3	64,(0, 44),3	67,(0, 46),3	70,(0, 48),3	73,(0, 50),3	76,(0, 52),3	79,(0, 54),3	82,(0, 56),3	85,(0, 58),3	88,(0, 60),3	91,(0, 62),3	94,(0, 64),3	97,(0, 66),3	100,(0, 68),3	103,(0, 70),3	106,(0, 72),3	109,(0, 74),3	112,(0, 76),3	115,(0, 78),3	118,(0, 80),3	121,(0, 82),3	124,(0, 84),3	127,(0, 86),3	130,(0, 88),3	133,(0, 90),3	136,(0, 92),3	139,(0, 94),3	142,(0, 96),3	145,(0, 98),3	148,(0, 100),3	151,(0, 102),3	154,(0, 104),3	157,(0, 106),3	160,(0, 108),3	163,(0, 110),3	166,(0, 112),3	169,(0, 114),3	172,(0, 116),3	175,(0, 118),3	178,(0, 120),3	181,(0, 122),3	184,(0, 124),3	187,(0, 126),3	190,(0, 128),3	193,(0, 130),3	196,(0, 132),3	199,(0, 134),3	202,(0, 136),3	205,(0, 138),3	208,(0, 140),3	211,(0, 142),3	214,(0, 144),3	217,(0, 146),3	220,(0, 148),3	223,(0, 150),3	226,(0, 152),3	229,(0, 154),3	232,(0, 156),3	235,(0, 158),3	238,(0, 160),3	241,(0, 162),3	244,(0, 164),3	247,(0, 166),3	250,(0, 168),3	253,(0, 170),3	256,(0, 172),3	259,(0, 174),3	262,(0, 176),3	265,(0, 178),3	268,(0, 180),3	271,(0, 182),3	274,(0, 184),3	277,(0, 186),3	280,(0, 188),3	283,(0, 190),3	286,(0, 192),3	289,(0, 194),3	292,(0, 196),3	295,(0, 198),3	298,(0, 200),3	
