2667
# CPU
9,3,1	17,6,1	25,9,1	33,12,1	41,15,1	49,18,1	57,21,1	65,24,1	73,27,1	81,30,1	89,33,1	97,36,1	105,39,1	113,42,1	121,45,1	129,48,1	137,51,1	145,54,1	153,57,1	161,60,1	169,63,1	177,66,1	185,69,1	193,72,1	201,75,1	209,78,1	217,81,1	225,84,1	233,87,1	241,90,1	249,93,1	257,96,1	265,99,1	273,102,1	281,105,1	289,108,1	297,111,1	305,114,1	313,117,1	321,120,1	329,123,1	337,126,1	345,129,1	353,132,1	361,135,1	369,138,1	377,141,1	385,144,1	393,147,1	401,150,1	409,153,1	417,156,1	425,159,1	433,162,1	441,165,1	449,168,1	457,171,1	465,174,1	473,177,1	481,180,1	489,183,1	497,186,1	505,189,1	513,192,1	521,195,1	529,198,1	
5,2,1	13,5,1	21,8,1	29,11,1	37,14,1	45,17,1	53,20,1	61,23,1	69,26,1	77,29,1	85,32,1	93,35,1	101,38,1	109,41,1	117,44,1	125,47,1	133,50,1	141,53,1	149,56,1	157,59,1	165,62,1	173,65,1	181,68,1	189,71,1	197,74,1	205,77,1	213,80,1	221,83,1	229,86,1	237,89,1	245,92,1	253,95,1	261,98,1	269,101,1	277,104,1	285,107,1	293,110,1	301,113,1	309,116,1	317,119,1	325,122,1	333,125,1	341,128,1	349,131,1	357,134,1	365,137,1	373,140,1	381,143,1	389,146,1	397,149,1	405,152,1	413,155,1	421,158,1	429,161,1	437,164,1	445,167,1	453,170,1	461,173,1	469,176,1	477,179,1	485,182,1	493,185,1	501,188,1	509,191,1	517,194,1	525,197,1	533,200,1	
0,0,1	1,1,1	2,7,1	3,19,1	4,43,1	5,91,1	6,187,1	7,199,1	8,196,1	9,193,1	10,184,1	11,190,1	12,181,1	13,178,1	14,175,1	15,172,1	16,169,1	17,166,1	18,163,1	19,160,1	20,157,1	21,154,1	22,151,1	23,148,1	24,145,1	25,142,1	26,139,1	27,136,1	28,133,1	29,130,1	30,127,1	31,124,1	32,121,1	33,118,1	34,115,1	35,112,1	36,109,1	37,106,1	38,103,1	39,100,1	40,97,1	41,88,1	42,94,1	43,85,1	44,82,1	45,79,1	46,76,1	47,73,1	48,70,1	49,67,1	50,64,1	51,61,1	52,58,1	53,55,1	54,52,1	55,49,1	56,40,1	57,46,1	58,37,1	59,34,1	60,31,1	61,28,1	62,25,1	63,16,1	64,22,1	65,13,1	66,4,1	67,10,1	2666,201,1	
# Incoming
5,(0, 3),4	13,(0, 6),4	21,(0, 9),4	29,(0, 12),4	37,(0, 15),4	45,(0, 18),4	53,(0, 21),4	61,(0, 24),4	69,(0, 27),4	77,(0, 30),4	85,(0, 33),4	93,(0, 36),4	101,(0, 39),4	109,(0, 42),4	117,(0, 45),4	125,(0, 48),4	133,(0, 51),4	141,(0, 54),4	149,(0, 57),4	157,(0, 60),4	165,(0, 63),4	173,(0, 66),4	181,(0, 69),4	189,(0, 72),4	197,(0, 75),4	205,(0, 78),4	213,(0, 81),4	221,(0, 84),4	229,(0, 87),4	237,(0, 90),4	245,(0, 93),4	253,(0, 96),4	261,(0, 99),4	269,(0, 102),4	277,(0, 105),4	285,(0, 108),4	293,(0, 111),4	301,(0, 114),4	309,(0, 117),4	317,(0, 120),4	325,(0, 123),4	333,(0, 126),4	341,(0, 129),4	349,(0, 132),4	357,(0, 135),4	365,(0, 138),4	373,(0, 141),4	381,(0, 144),4	389,(0, 147),4	397,(0, 150),4	405,(0, 153),4	413,(0, 156),4	421,(0, 159),4	429,(0, 162),4	437,(0, 165),4	445,(0, 168),4	453,(0, 171),4	461,(0, 174),4	469,(0, 177),4	477,(0, 180),4	485,(0, 183),4	493,(0, 186),4	501,(0, 189),4	509,(0, 192),4	517,(0, 195),4	525,(0, 198),4	
1,(0, 2),4	9,(0, 5),4	17,(0, 8),4	25,(0, 11),4	33,(0, 14),4	41,(0, 17),4	49,(0, 20),4	57,(0, 23),4	65,(0, 26),4	73,(0, 29),4	81,(0, 32),4	89,(0, 35),4	97,(0, 38),4	105,(0, 41),4	113,(0, 44),4	121,(0, 47),4	129,(0, 50),4	137,(0, 53),4	145,(0, 56),4	153,(0, 59),4	161,(0, 62),4	169,(0, 65),4	177,(0, 68),4	185,(0, 71),4	193,(0, 74),4	201,(0, 77),4	209,(0, 80),4	217,(0, 83),4	225,(0, 86),4	233,(0, 89),4	241,(0, 92),4	249,(0, 95),4	257,(0, 98),4	265,(0, 101),4	273,(0, 104),4	281,(0, 107),4	289,(0, 110),4	297,(0, 113),4	305,(0, 116),4	313,(0, 119),4	321,(0, 122),4	329,(0, 125),4	337,(0, 128),4	345,(0, 131),4	353,(0, 134),4	361,(0, 137),4	369,(0, 140),4	377,(0, 143),4	385,(0, 146),4	393,(0, 149),4	401,(0, 152),4	409,(0, 155),4	417,(0, 158),4	425,(0, 161),4	433,(0, 164),4	441,(0, 167),4	449,(0, 170),4	457,(0, 173),4	465,(0, 176),4	473,(0, 179),4	481,(0, 182),4	489,(0, 185),4	497,(0, 188),4	505,(0, 191),4	513,(0, 194),4	521,(0, 197),4	529,(0, 200),4	
6,(2, 201),20	26,(3, 201),20	46,(5, 201),20	66,(6, 201),20	86,(8, 201),20	106,(9, 201),20	126,(11, 201),20	146,(12, 201),20	166,(14, 201),20	186,(15, 201),20	206,(17, 201),20	226,(18, 201),20	246,(20, 201),20	266,(21, 201),20	286,(23, 201),20	306,(24, 201),20	326,(26, 201),20	346,(27, 201),20	366,(29, 201),20	386,(30, 201),20	406,(32, 201),20	426,(33, 201),20	446,(35, 201),20	466,(36, 201),20	486,(38, 201),20	506,(39, 201),20	526,(41, 201),20	546,(42, 201),20	566,(44, 201),20	586,(45, 201),20	606,(47, 201),20	626,(48, 201),20	646,(50, 201),20	666,(51, 201),20	686,(53, 201),20	706,(54, 201),20	726,(56, 201),20	746,(57, 201),20	766,(59, 201),20	786,(60, 201),20	806,(62, 201),20	826,(63, 201),20	846,(65, 201),20	866,(66, 201),20	886,(68, 201),20	906,(69, 201),20	926,(71, 201),20	946,(72, 201),20	966,(74, 201),20	986,(75, 201),20	1006,(77, 201),20	1026,(78, 201),20	1046,(80, 201),20	1066,(81, 201),20	1086,(83, 201),20	1106,(84, 201),20	1126,(86, 201),20	1146,(87, 201),20	1166,(89, 201),20	1186,(90, 201),20	1206,(92, 201),20	1226,(93, 201),20	1246,(95, 201),20	1266,(96, 201),20	1286,(98, 201),20	1306,(99, 201),20	1326,(101, 201),20	1346,(102, 201),20	1366,(104, 201),20	1386,(105, 201),20	1406,(107, 201),20	1426,(108, 201),20	1446,(110, 201),20	1466,(111, 201),20	1486,(113, 201),20	1506,(114, 201),20	1526,(116, 201),20	1546,(117, 201),20	1566,(119, 201),20	1586,(120, 201),20	1606,(122, 201),20	1626,(123, 201),20	1646,(125, 201),20	1666,(126, 201),20	1686,(128, 201),20	1706,(129, 201),20	1726,(131, 201),20	1746,(132, 201),20	1766,(134, 201),20	1786,(135, 201),20	1806,(137, 201),20	1826,(138, 201),20	1846,(140, 201),20	1866,(141, 201),20	1886,(143, 201),20	1906,(144, 201),20	1926,(146, 201),20	1946,(147, 201),20	1966,(149, 201),20	1986,(150, 201),20	2006,(152, 201),20	2026,(153, 201),20	2046,(155, 201),20	2066,(156, 201),20	2086,(158, 201),20	2106,(159, 201),20	2126,(161, 201),20	2146,(162, 201),20	2166,(164, 201),20	2186,(165, 201),20	2206,(167, 201),20	2226,(168, 201),20	2246,(170, 201),20	2266,(171, 201),20	2286,(173, 201),20	2306,(174, 201),20	2326,(176, 201),20	2346,(177, 201),20	2366,(179, 201),20	2386,(180, 201),20	2406,(182, 201),20	2426,(183, 201),20	2446,(185, 201),20	2466,(186, 201),20	2486,(188, 201),20	2506,(189, 201),20	2526,(191, 201),20	2546,(192, 201),20	2566,(194, 201),20	2586,(195, 201),20	2606,(197, 201),20	2626,(198, 201),20	2646,(200, 201),20	
# Outgoing
26,(3, 201),20	66,(6, 201),20	106,(9, 201),20	146,(12, 201),20	186,(15, 201),20	226,(18, 201),20	266,(21, 201),20	306,(24, 201),20	346,(27, 201),20	386,(30, 201),20	426,(33, 201),20	466,(36, 201),20	506,(39, 201),20	546,(42, 201),20	586,(45, 201),20	626,(48, 201),20	666,(51, 201),20	706,(54, 201),20	746,(57, 201),20	786,(60, 201),20	826,(63, 201),20	866,(66, 201),20	906,(69, 201),20	946,(72, 201),20	986,(75, 201),20	1026,(78, 201),20	1066,(81, 201),20	1106,(84, 201),20	1146,(87, 201),20	1186,(90, 201),20	1226,(93, 201),20	1266,(96, 201),20	1306,(99, 201),20	1346,(102, 201),20	1386,(105, 201),20	1426,(108, 201),20	1466,(111, 201),20	1506,(114, 201),20	1546,(117, 201),20	1586,(120, 201),20	1626,(123, 201),20	1666,(126, 201),20	1706,(129, 201),20	1746,(132, 201),20	1786,(135, 201),20	1826,(138, 201),20	1866,(141, 201),20	1906,(144, 201),20	1946,(147, 201),20	1986,(150, 201),20	2026,(153, 201),20	2066,(156, 201),20	2106,(159, 201),20	2146,(162, 201),20	2186,(165, 201),20	2226,(168, 201),20	2266,(171, 201),20	2306,(174, 201),20	2346,(177, 201),20	2386,(180, 201),20	2426,(183, 201),20	2466,(186, 201),20	2506,(189, 201),20	2546,(192, 201),20	2586,(195, 201),20	2626,(198, 201),20	
6,(2, 201),20	46,(5, 201),20	86,(8, 201),20	126,(11, 201),20	166,(14, 201),20	206,(17, 201),20	246,(20, 201),20	286,(23, 201),20	326,(26, 201),20	366,(29, 201),20	406,(32, 201),20	446,(35, 201),20	486,(38, 201),20	526,(41, 201),20	566,(44, 201),20	606,(47, 201),20	646,(50, 201),20	686,(53, 201),20	726,(56, 201),20	766,(59, 201),20	806,(62, 201),20	846,(65, 201),20	886,(68, 201),20	926,(71, 201),20	966,(74, 201),20	1006,(77, 201),20	1046,(80, 201),20	1086,(83, 201),20	1126,(86, 201),20	1166,(89, 201),20	1206,(92, 201),20	1246,(95, 201),20	1286,(98, 201),20	1326,(101, 201),20	1366,(104, 201),20	1406,(107, 201),20	1446,(110, 201),20	1486,(113, 201),20	1526,(116, 201),20	1566,(119, 201),20	1606,(122, 201),20	1646,(125, 201),20	1686,(128, 201),20	1726,(131, 201),20	1766,(134, 201),20	1806,(137, 201),20	1846,(140, 201),20	1886,(143, 201),20	1926,(146, 201),20	1966,(149, 201),20	2006,(152, 201),20	2046,(155, 201),20	2086,(158, 201),20	2126,(161, 201),20	2166,(164, 201),20	2206,(167, 201),20	2246,(170, 201),20	2286,(173, 201),20	2326,(176, 201),20	2366,(179, 201),20	2406,(182, 201),20	2446,(185, 201),20	2486,(188, 201),20	2526,(191, 201),20	2566,(194, 201),20	2606,(197, 201),20	2646,(200, 201),20	
1,(0, 2),4	5,(0, 3),4	9,(0, 5),4	13,(0, 6),4	17,(0, 8),4	21,(0, 9),4	25,(0, 11),4	29,(0, 12),4	33,(0, 14),4	37,(0, 15),4	41,(0, 17),4	45,(0, 18),4	49,(0, 20),4	53,(0, 21),4	57,(0, 23),4	61,(0, 24),4	65,(0, 26),4	69,(0, 27),4	73,(0, 29),4	77,(0, 30),4	81,(0, 32),4	85,(0, 33),4	89,(0, 35),4	93,(0, 36),4	97,(0, 38),4	101,(0, 39),4	105,(0, 41),4	109,(0, 42),4	113,(0, 44),4	117,(0, 45),4	121,(0, 47),4	125,(0, 48),4	129,(0, 50),4	133,(0, 51),4	137,(0, 53),4	141,(0, 54),4	145,(0, 56),4	149,(0, 57),4	153,(0, 59),4	157,(0, 60),4	161,(0, 62),4	165,(0, 63),4	169,(0, 65),4	173,(0, 66),4	177,(0, 68),4	181,(0, 69),4	185,(0, 71),4	189,(0, 72),4	193,(0, 74),4	197,(0, 75),4	201,(0, 77),4	205,(0, 78),4	209,(0, 80),4	213,(0, 81),4	217,(0, 83),4	221,(0, 84),4	225,(0, 86),4	229,(0, 87),4	233,(0, 89),4	237,(0, 90),4	241,(0, 92),4	245,(0, 93),4	249,(0, 95),4	253,(0, 96),4	257,(0, 98),4	261,(0, 99),4	265,(0, 101),4	269,(0, 102),4	273,(0, 104),4	277,(0, 105),4	281,(0, 107),4	285,(0, 108),4	289,(0, 110),4	293,(0, 111),4	297,(0, 113),4	301,(0, 114),4	305,(0, 116),4	309,(0, 117),4	313,(0, 119),4	317,(0, 120),4	321,(0, 122),4	325,(0, 123),4	329,(0, 125),4	333,(0, 126),4	337,(0, 128),4	341,(0, 129),4	345,(0, 131),4	349,(0, 132),4	353,(0, 134),4	357,(0, 135),4	361,(0, 137),4	365,(0, 138),4	369,(0, 140),4	373,(0, 141),4	377,(0, 143),4	381,(0, 144),4	385,(0, 146),4	389,(0, 147),4	393,(0, 149),4	397,(0, 150),4	401,(0, 152),4	405,(0, 153),4	409,(0, 155),4	413,(0, 156),4	417,(0, 158),4	421,(0, 159),4	425,(0, 161),4	429,(0, 162),4	433,(0, 164),4	437,(0, 165),4	441,(0, 167),4	445,(0, 168),4	449,(0, 170),4	453,(0, 171),4	457,(0, 173),4	461,(0, 174),4	465,(0, 176),4	469,(0, 177),4	473,(0, 179),4	477,(0, 180),4	481,(0, 182),4	485,(0, 183),4	489,(0, 185),4	493,(0, 186),4	497,(0, 188),4	501,(0, 189),4	505,(0, 191),4	509,(0, 192),4	513,(0, 194),4	517,(0, 195),4	521,(0, 197),4	525,(0, 198),4	529,(0, 200),4	
