727
# CPU
13,4,1	25,8,1	37,12,1	49,16,1	61,20,1	
9,3,1	21,7,1	33,11,1	45,15,1	57,19,1	
5,2,1	17,6,1	29,10,1	41,14,1	53,18,1	
0,0,1	1,1,1	2,9,1	3,17,1	4,5,1	5,13,1	726,21,1	
# Incoming
9,(0, 4),4	21,(0, 8),4	33,(0, 12),4	45,(0, 16),4	57,(0, 20),4	
5,(0, 3),4	17,(0, 7),4	29,(0, 11),4	41,(0, 15),4	53,(0, 19),4	
1,(0, 2),4	13,(0, 6),4	25,(0, 10),4	37,(0, 14),4	49,(0, 18),4	
6,(2, 21),48	54,(3, 21),48	102,(4, 21),48	150,(6, 21),48	198,(7, 21),48	246,(8, 21),48	294,(10, 21),48	342,(11, 21),48	390,(12, 21),48	438,(14, 21),48	486,(15, 21),48	534,(16, 21),48	582,(18, 21),48	630,(19, 21),48	678,(20, 21),48	
# Outgoing
102,(4, 21),48	246,(8, 21),48	390,(12, 21),48	534,(16, 21),48	678,(20, 21),48	
54,(3, 21),48	198,(7, 21),48	342,(11, 21),48	486,(15, 21),48	630,(19, 21),48	
6,(2, 21),48	150,(6, 21),48	294,(10, 21),48	438,(14, 21),48	582,(18, 21),48	
1,(0, 2),4	5,(0, 3),4	9,(0, 4),4	13,(0, 6),4	17,(0, 7),4	21,(0, 8),4	25,(0, 10),4	29,(0, 11),4	33,(0, 12),4	37,(0, 14),4	41,(0, 15),4	45,(0, 16),4	49,(0, 18),4	53,(0, 19),4	57,(0, 20),4	
