6031
# CPU
29,2,1	57,4,1	85,6,1	113,8,1	141,10,1	169,12,1	197,14,1	225,16,1	253,18,1	281,20,1	309,22,1	337,24,1	365,26,1	393,28,1	421,30,1	449,32,1	477,34,1	505,36,1	533,38,1	561,40,1	589,42,1	617,44,1	645,46,1	673,48,1	701,50,1	729,52,1	757,54,1	785,56,1	813,58,1	841,60,1	869,62,1	897,64,1	925,66,1	953,68,1	981,70,1	1009,72,1	1037,74,1	1065,76,1	1093,78,1	1121,80,1	1149,82,1	1177,84,1	1205,86,1	1233,88,1	1261,90,1	1289,92,1	1317,94,1	1345,96,1	1373,98,1	1401,100,1	1429,102,1	1457,104,1	1485,106,1	1513,108,1	1541,110,1	1569,112,1	1597,114,1	1625,116,1	1653,118,1	1681,120,1	1709,122,1	1737,124,1	1765,126,1	1793,128,1	1821,130,1	1849,132,1	1877,134,1	1905,136,1	1933,138,1	1961,140,1	1989,142,1	2017,144,1	2045,146,1	2073,148,1	2101,150,1	2129,152,1	2157,154,1	2185,156,1	2213,158,1	2241,160,1	2269,162,1	2297,164,1	2325,166,1	2353,168,1	2381,170,1	2409,172,1	2437,174,1	2465,176,1	2493,178,1	2521,180,1	2549,182,1	2577,184,1	2605,186,1	2633,188,1	2661,190,1	2689,192,1	2717,194,1	2745,196,1	2773,198,1	2801,200,1	
0,0,1	1,1,1	2,5,1	3,13,1	4,29,1	5,61,1	6,125,1	7,199,1	8,197,1	9,195,1	10,193,1	11,191,1	12,189,1	13,187,1	14,185,1	15,183,1	16,181,1	17,179,1	18,177,1	19,175,1	20,173,1	21,171,1	22,169,1	23,167,1	24,165,1	25,163,1	26,161,1	27,159,1	28,157,1	29,155,1	30,153,1	31,151,1	32,149,1	33,147,1	34,145,1	35,143,1	36,141,1	37,139,1	38,137,1	39,135,1	40,133,1	41,131,1	42,129,1	43,123,1	44,127,1	45,121,1	46,119,1	47,117,1	48,115,1	49,113,1	50,111,1	51,109,1	52,107,1	53,105,1	54,103,1	55,101,1	56,99,1	57,97,1	58,95,1	59,93,1	60,91,1	61,89,1	62,87,1	63,85,1	64,83,1	65,81,1	66,79,1	67,77,1	68,75,1	69,73,1	70,71,1	71,69,1	72,67,1	73,65,1	74,59,1	75,63,1	76,57,1	77,55,1	78,53,1	79,51,1	80,49,1	81,47,1	82,45,1	83,43,1	84,41,1	85,39,1	86,37,1	87,35,1	88,33,1	89,27,1	90,31,1	91,25,1	92,23,1	93,21,1	94,19,1	95,17,1	96,11,1	97,15,1	98,9,1	99,3,1	100,7,1	6030,201,1	
# Incoming
1,(0, 2),28	29,(0, 4),28	57,(0, 6),28	85,(0, 8),28	113,(0, 10),28	141,(0, 12),28	169,(0, 14),28	197,(0, 16),28	225,(0, 18),28	253,(0, 20),28	281,(0, 22),28	309,(0, 24),28	337,(0, 26),28	365,(0, 28),28	393,(0, 30),28	421,(0, 32),28	449,(0, 34),28	477,(0, 36),28	505,(0, 38),28	533,(0, 40),28	561,(0, 42),28	589,(0, 44),28	617,(0, 46),28	645,(0, 48),28	673,(0, 50),28	701,(0, 52),28	729,(0, 54),28	757,(0, 56),28	785,(0, 58),28	813,(0, 60),28	841,(0, 62),28	869,(0, 64),28	897,(0, 66),28	925,(0, 68),28	953,(0, 70),28	981,(0, 72),28	1009,(0, 74),28	1037,(0, 76),28	1065,(0, 78),28	1093,(0, 80),28	1121,(0, 82),28	1149,(0, 84),28	1177,(0, 86),28	1205,(0, 88),28	1233,(0, 90),28	1261,(0, 92),28	1289,(0, 94),28	1317,(0, 96),28	1345,(0, 98),28	1373,(0, 100),28	1401,(0, 102),28	1429,(0, 104),28	1457,(0, 106),28	1485,(0, 108),28	1513,(0, 110),28	1541,(0, 112),28	1569,(0, 114),28	1597,(0, 116),28	1625,(0, 118),28	1653,(0, 120),28	1681,(0, 122),28	1709,(0, 124),28	1737,(0, 126),28	1765,(0, 128),28	1793,(0, 130),28	1821,(0, 132),28	1849,(0, 134),28	1877,(0, 136),28	1905,(0, 138),28	1933,(0, 140),28	1961,(0, 142),28	1989,(0, 144),28	2017,(0, 146),28	2045,(0, 148),28	2073,(0, 150),28	2101,(0, 152),28	2129,(0, 154),28	2157,(0, 156),28	2185,(0, 158),28	2213,(0, 160),28	2241,(0, 162),28	2269,(0, 164),28	2297,(0, 166),28	2325,(0, 168),28	2353,(0, 170),28	2381,(0, 172),28	2409,(0, 174),28	2437,(0, 176),28	2465,(0, 178),28	2493,(0, 180),28	2521,(0, 182),28	2549,(0, 184),28	2577,(0, 186),28	2605,(0, 188),28	2633,(0, 190),28	2661,(0, 192),28	2689,(0, 194),28	2717,(0, 196),28	2745,(0, 198),28	2773,(0, 200),28	
30,(2, 201),60	90,(4, 201),60	150,(6, 201),60	210,(8, 201),60	270,(10, 201),60	330,(12, 201),60	390,(14, 201),60	450,(16, 201),60	510,(18, 201),60	570,(20, 201),60	630,(22, 201),60	690,(24, 201),60	750,(26, 201),60	810,(28, 201),60	870,(30, 201),60	930,(32, 201),60	990,(34, 201),60	1050,(36, 201),60	1110,(38, 201),60	1170,(40, 201),60	1230,(42, 201),60	1290,(44, 201),60	1350,(46, 201),60	1410,(48, 201),60	1470,(50, 201),60	1530,(52, 201),60	1590,(54, 201),60	1650,(56, 201),60	1710,(58, 201),60	1770,(60, 201),60	1830,(62, 201),60	1890,(64, 201),60	1950,(66, 201),60	2010,(68, 201),60	2070,(70, 201),60	2130,(72, 201),60	2190,(74, 201),60	2250,(76, 201),60	2310,(78, 201),60	2370,(80, 201),60	2430,(82, 201),60	2490,(84, 201),60	2550,(86, 201),60	2610,(88, 201),60	2670,(90, 201),60	2730,(92, 201),60	2790,(94, 201),60	2850,(96, 201),60	2910,(98, 201),60	2970,(100, 201),60	3030,(102, 201),60	3090,(104, 201),60	3150,(106, 201),60	3210,(108, 201),60	3270,(110, 201),60	3330,(112, 201),60	3390,(114, 201),60	3450,(116, 201),60	3510,(118, 201),60	3570,(120, 201),60	3630,(122, 201),60	3690,(124, 201),60	3750,(126, 201),60	3810,(128, 201),60	3870,(130, 201),60	3930,(132, 201),60	3990,(134, 201),60	4050,(136, 201),60	4110,(138, 201),60	4170,(140, 201),60	4230,(142, 201),60	4290,(144, 201),60	4350,(146, 201),60	4410,(148, 201),60	4470,(150, 201),60	4530,(152, 201),60	4590,(154, 201),60	4650,(156, 201),60	4710,(158, 201),60	4770,(160, 201),60	4830,(162, 201),60	4890,(164, 201),60	4950,(166, 201),60	5010,(168, 201),60	5070,(170, 201),60	5130,(172, 201),60	5190,(174, 201),60	5250,(176, 201),60	5310,(178, 201),60	5370,(180, 201),60	5430,(182, 201),60	5490,(184, 201),60	5550,(186, 201),60	5610,(188, 201),60	5670,(190, 201),60	5730,(192, 201),60	5790,(194, 201),60	5850,(196, 201),60	5910,(198, 201),60	5970,(200, 201),60	
# Outgoing
30,(2, 201),60	90,(4, 201),60	150,(6, 201),60	210,(8, 201),60	270,(10, 201),60	330,(12, 201),60	390,(14, 201),60	450,(16, 201),60	510,(18, 201),60	570,(20, 201),60	630,(22, 201),60	690,(24, 201),60	750,(26, 201),60	810,(28, 201),60	870,(30, 201),60	930,(32, 201),60	990,(34, 201),60	1050,(36, 201),60	1110,(38, 201),60	1170,(40, 201),60	1230,(42, 201),60	1290,(44, 201),60	1350,(46, 201),60	1410,(48, 201),60	1470,(50, 201),60	1530,(52, 201),60	1590,(54, 201),60	1650,(56, 201),60	1710,(58, 201),60	1770,(60, 201),60	1830,(62, 201),60	1890,(64, 201),60	1950,(66, 201),60	2010,(68, 201),60	2070,(70, 201),60	2130,(72, 201),60	2190,(74, 201),60	2250,(76, 201),60	2310,(78, 201),60	2370,(80, 201),60	2430,(82, 201),60	2490,(84, 201),60	2550,(86, 201),60	2610,(88, 201),60	2670,(90, 201),60	2730,(92, 201),60	2790,(94, 201),60	2850,(96, 201),60	2910,(98, 201),60	2970,(100, 201),60	3030,(102, 201),60	3090,(104, 201),60	3150,(106, 201),60	3210,(108, 201),60	3270,(110, 201),60	3330,(112, 201),60	3390,(114, 201),60	3450,(116, 201),60	3510,(118, 201),60	3570,(120, 201),60	3630,(122, 201),60	3690,(124, 201),60	3750,(126, 201),60	3810,(128, 201),60	3870,(130, 201),60	3930,(132, 201),60	3990,(134, 201),60	4050,(136, 201),60	4110,(138, 201),60	4170,(140, 201),60	4230,(142, 201),60	4290,(144, 201),60	4350,(146, 201),60	4410,(148, 201),60	4470,(150, 201),60	4530,(152, 201),60	4590,(154, 201),60	4650,(156, 201),60	4710,(158, 201),60	4770,(160, 201),60	4830,(162, 201),60	4890,(164, 201),60	4950,(166, 201),60	5010,(168, 201),60	5070,(170, 201),60	5130,(172, 201),60	5190,(174, 201),60	5250,(176, 201),60	5310,(178, 201),60	5370,(180, 201),60	5430,(182, 201),60	5490,(184, 201),60	5550,(186, 201),60	5610,(188, 201),60	5670,(190, 201),60	5730,(192, 201),60	5790,(194, 201),60	5850,(196, 201),60	5910,(198, 201),60	5970,(200, 201),60	
1,(0, 2),28	29,(0, 4),28	57,(0, 6),28	85,(0, 8),28	113,(0, 10),28	141,(0, 12),28	169,(0, 14),28	197,(0, 16),28	225,(0, 18),28	253,(0, 20),28	281,(0, 22),28	309,(0, 24),28	337,(0, 26),28	365,(0, 28),28	393,(0, 30),28	421,(0, 32),28	449,(0, 34),28	477,(0, 36),28	505,(0, 38),28	533,(0, 40),28	561,(0, 42),28	589,(0, 44),28	617,(0, 46),28	645,(0, 48),28	673,(0, 50),28	701,(0, 52),28	729,(0, 54),28	757,(0, 56),28	785,(0, 58),28	813,(0, 60),28	841,(0, 62),28	869,(0, 64),28	897,(0, 66),28	925,(0, 68),28	953,(0, 70),28	981,(0, 72),28	1009,(0, 74),28	1037,(0, 76),28	1065,(0, 78),28	1093,(0, 80),28	1121,(0, 82),28	1149,(0, 84),28	1177,(0, 86),28	1205,(0, 88),28	1233,(0, 90),28	1261,(0, 92),28	1289,(0, 94),28	1317,(0, 96),28	1345,(0, 98),28	1373,(0, 100),28	1401,(0, 102),28	1429,(0, 104),28	1457,(0, 106),28	1485,(0, 108),28	1513,(0, 110),28	1541,(0, 112),28	1569,(0, 114),28	1597,(0, 116),28	1625,(0, 118),28	1653,(0, 120),28	1681,(0, 122),28	1709,(0, 124),28	1737,(0, 126),28	1765,(0, 128),28	1793,(0, 130),28	1821,(0, 132),28	1849,(0, 134),28	1877,(0, 136),28	1905,(0, 138),28	1933,(0, 140),28	1961,(0, 142),28	1989,(0, 144),28	2017,(0, 146),28	2045,(0, 148),28	2073,(0, 150),28	2101,(0, 152),28	2129,(0, 154),28	2157,(0, 156),28	2185,(0, 158),28	2213,(0, 160),28	2241,(0, 162),28	2269,(0, 164),28	2297,(0, 166),28	2325,(0, 168),28	2353,(0, 170),28	2381,(0, 172),28	2409,(0, 174),28	2437,(0, 176),28	2465,(0, 178),28	2493,(0, 180),28	2521,(0, 182),28	2549,(0, 184),28	2577,(0, 186),28	2605,(0, 188),28	2633,(0, 190),28	2661,(0, 192),28	2689,(0, 194),28	2717,(0, 196),28	2745,(0, 198),28	2773,(0, 200),28	
