796
# CPU
0,0,1	1,139,5	6,138,5	11,140,5	16,137,5	21,136,5	26,141,5	31,135,5	36,134,5	41,142,5	46,133,5	51,131,5	56,143,5	61,130,5	66,144,5	71,128,5	76,145,5	81,127,5	86,125,5	91,50,5	96,163,5	101,124,5	106,146,5	111,122,5	116,120,5	121,147,5	126,119,5	131,148,5	136,149,5	141,117,5	146,116,5	151,150,5	156,114,5	161,113,5	166,151,5	171,111,5	176,110,5	181,162,5	186,68,5	191,152,5	196,109,5	201,153,5	206,107,5	211,106,5	216,154,5	221,103,5	226,102,5	231,155,5	236,101,5	241,99,5	246,156,5	251,98,5	256,157,5	261,158,5	266,96,5	271,179,5	276,58,5	281,95,5	286,84,5	291,83,5	296,82,5	301,81,5	306,80,5	311,79,5	316,85,5	321,78,5	326,77,5	331,76,5	336,75,5	341,86,5	346,74,5	351,73,5	356,87,5	361,47,5	366,42,5	371,72,5	376,71,5	381,70,5	386,89,5	391,69,5	396,67,5	401,66,5	406,65,5	411,93,5	416,64,5	421,63,5	426,62,5	431,61,5	436,60,5	441,161,5	446,59,5	451,39,5	456,33,5	461,57,5	466,166,5	471,56,5	476,55,5	481,168,5	486,54,5	491,52,5	496,53,5	501,51,5	506,49,5	511,171,5	516,48,5	521,46,5	526,45,5	531,44,5	536,185,5	541,192,5	546,182,5	551,184,5	556,183,5	561,186,5	566,181,5	571,180,5	576,187,5	581,177,5	586,43,5	591,188,5	596,41,5	601,40,5	606,189,5	611,37,5	616,36,5	621,190,5	626,34,5	631,15,5	636,20,5	641,191,5	646,32,5	651,193,5	656,30,5	661,18,5	666,17,5	671,16,5	676,19,5	681,14,5	686,13,5	691,21,5	696,12,5	701,22,5	706,11,5	711,10,5	716,24,5	721,3,5	726,7,5	731,1,5	736,2,5	741,4,5	746,5,5	751,6,5	756,8,5	761,9,5	766,26,5	771,194,5	776,199,5	781,200,5	795,201,1	
91,121,5	127,115,5	199,104,5	271,91,5	307,90,5	343,159,5	433,169,5	469,172,5	559,174,5	649,27,5	703,29,5	721,197,5	739,198,5	775,196,5	
37,129,5	109,118,5	145,112,5	289,88,5	379,164,5	415,167,5	505,175,5	613,31,5	685,25,5	
55,126,5	73,123,5	181,105,5	217,100,5	253,94,5	325,92,5	577,38,5	757,195,5	
19,132,5	163,108,5	235,97,5	361,160,5	397,165,5	451,170,5	487,173,5	523,176,5	541,178,5	595,35,5	631,28,5	667,23,5	
# Incoming
24,(132, 201),15	42,(129, 201),15	60,(126, 201),15	78,(123, 201),15	96,(121, 201),15	114,(118, 201),15	132,(115, 201),15	150,(112, 201),15	168,(108, 201),15	186,(105, 201),15	204,(104, 201),15	222,(100, 201),15	240,(97, 201),15	258,(94, 201),15	276,(91, 201),15	294,(88, 201),15	312,(90, 201),15	330,(92, 201),15	348,(159, 201),15	366,(160, 201),15	384,(164, 201),15	402,(165, 201),15	420,(167, 201),15	438,(169, 201),15	456,(170, 201),15	474,(172, 201),15	492,(173, 201),15	510,(175, 201),15	528,(176, 201),15	546,(178, 201),15	564,(174, 201),15	582,(38, 201),15	600,(35, 201),15	618,(31, 201),15	636,(28, 201),15	654,(27, 201),15	672,(23, 201),15	690,(25, 201),15	708,(29, 201),15	726,(197, 201),15	744,(198, 201),15	762,(195, 201),15	780,(196, 201),15	
73,(0, 121),18	109,(0, 115),18	181,(0, 104),18	253,(0, 91),18	289,(0, 90),18	325,(0, 159),18	415,(0, 169),18	451,(0, 172),18	541,(0, 174),18	631,(0, 27),18	685,(0, 29),18	703,(0, 197),18	721,(0, 198),18	757,(0, 196),18	
19,(0, 129),18	91,(0, 118),18	127,(0, 112),18	271,(0, 88),18	361,(0, 164),18	397,(0, 167),18	487,(0, 175),18	595,(0, 31),18	667,(0, 25),18	
37,(0, 126),18	55,(0, 123),18	163,(0, 105),18	199,(0, 100),18	235,(0, 94),18	307,(0, 92),18	559,(0, 38),18	739,(0, 195),18	
1,(0, 132),18	145,(0, 108),18	217,(0, 97),18	343,(0, 160),18	379,(0, 165),18	433,(0, 170),18	469,(0, 173),18	505,(0, 176),18	523,(0, 178),18	577,(0, 35),18	613,(0, 28),18	649,(0, 23),18	
# Outgoing
1,(0, 132),18	19,(0, 129),18	37,(0, 126),18	55,(0, 123),18	73,(0, 121),18	91,(0, 118),18	109,(0, 115),18	127,(0, 112),18	145,(0, 108),18	163,(0, 105),18	181,(0, 104),18	199,(0, 100),18	217,(0, 97),18	235,(0, 94),18	253,(0, 91),18	271,(0, 88),18	289,(0, 90),18	307,(0, 92),18	325,(0, 159),18	343,(0, 160),18	361,(0, 164),18	379,(0, 165),18	397,(0, 167),18	415,(0, 169),18	433,(0, 170),18	451,(0, 172),18	469,(0, 173),18	487,(0, 175),18	505,(0, 176),18	523,(0, 178),18	541,(0, 174),18	559,(0, 38),18	577,(0, 35),18	595,(0, 31),18	613,(0, 28),18	631,(0, 27),18	649,(0, 23),18	667,(0, 25),18	685,(0, 29),18	703,(0, 197),18	721,(0, 198),18	739,(0, 195),18	757,(0, 196),18	
96,(121, 201),15	132,(115, 201),15	204,(104, 201),15	276,(91, 201),15	312,(90, 201),15	348,(159, 201),15	438,(169, 201),15	474,(172, 201),15	564,(174, 201),15	654,(27, 201),15	708,(29, 201),15	726,(197, 201),15	744,(198, 201),15	780,(196, 201),15	
42,(129, 201),15	114,(118, 201),15	150,(112, 201),15	294,(88, 201),15	384,(164, 201),15	420,(167, 201),15	510,(175, 201),15	618,(31, 201),15	690,(25, 201),15	
60,(126, 201),15	78,(123, 201),15	186,(105, 201),15	222,(100, 201),15	258,(94, 201),15	330,(92, 201),15	582,(38, 201),15	762,(195, 201),15	
24,(132, 201),15	168,(108, 201),15	240,(97, 201),15	366,(160, 201),15	402,(165, 201),15	456,(170, 201),15	492,(173, 201),15	528,(176, 201),15	546,(178, 201),15	600,(35, 201),15	636,(28, 201),15	672,(23, 201),15	
