2018
# CPU
5,3,30	35,6,30	65,9,30	95,12,30	125,15,30	155,18,30	185,21,30	215,24,30	245,27,30	275,30,30	305,33,30	335,36,30	365,39,30	395,42,30	425,45,30	455,48,30	485,51,30	515,54,30	545,57,30	575,60,30	605,63,30	635,66,30	665,69,30	695,72,30	725,75,30	755,78,30	785,81,30	815,84,30	845,87,30	875,90,30	905,93,30	935,96,30	965,99,30	995,102,30	1025,105,30	1055,108,30	1085,111,30	1115,114,30	1145,117,30	1175,120,30	1205,123,30	1235,126,30	1265,129,30	1295,132,30	1325,135,30	1355,138,30	1385,141,30	1415,144,30	1445,147,30	1475,150,30	1505,153,30	1535,156,30	1565,159,30	1595,162,30	1625,165,30	1655,168,30	1685,171,30	1715,174,30	1745,177,30	1775,180,30	1805,183,30	1835,186,30	1865,189,30	1895,192,30	1925,195,30	1955,198,30	
3,2,30	33,5,30	63,8,30	93,11,30	123,14,30	153,17,30	183,20,30	213,23,30	243,26,30	273,29,30	303,32,30	333,35,30	363,38,30	393,41,30	423,44,30	453,47,30	483,50,30	513,53,30	543,56,30	573,59,30	603,62,30	633,65,30	663,68,30	693,71,30	723,74,30	753,77,30	783,80,30	813,83,30	843,86,30	873,89,30	903,92,30	933,95,30	963,98,30	993,101,30	1023,104,30	1053,107,30	1083,110,30	1113,113,30	1143,116,30	1173,119,30	1203,122,30	1233,125,30	1263,128,30	1293,131,30	1323,134,30	1353,137,30	1383,140,30	1413,143,30	1443,146,30	1473,149,30	1503,152,30	1533,155,30	1563,158,30	1593,161,30	1623,164,30	1653,167,30	1683,170,30	1713,173,30	1743,176,30	1773,179,30	1803,182,30	1833,185,30	1863,188,30	1893,191,30	1923,194,30	1953,197,30	1983,200,30	
0,0,1	1,1,30	31,7,30	61,19,30	91,43,30	121,91,30	151,187,30	181,199,30	211,196,30	241,193,30	271,184,30	301,190,30	331,181,30	361,178,30	391,175,30	421,172,30	451,169,30	481,166,30	511,163,30	541,160,30	571,157,30	601,154,30	631,151,30	661,148,30	691,145,30	721,142,30	751,139,30	781,136,30	811,133,30	841,130,30	871,127,30	901,124,30	931,121,30	961,118,30	991,115,30	1021,112,30	1051,109,30	1081,106,30	1111,103,30	1141,100,30	1171,97,30	1201,88,30	1231,94,30	1261,85,30	1291,82,30	1321,79,30	1351,76,30	1381,73,30	1411,70,30	1441,67,30	1471,64,30	1501,61,30	1531,58,30	1561,55,30	1591,52,30	1621,49,30	1651,40,30	1681,46,30	1711,37,30	1741,34,30	1771,31,30	1801,28,30	1831,25,30	1861,16,30	1891,22,30	1921,13,30	1951,4,30	1981,10,30	2017,201,1	
# Incoming
3,(0, 3),2	7,(0, 6),2	11,(0, 9),2	15,(0, 12),2	19,(0, 15),2	23,(0, 18),2	27,(0, 21),2	31,(0, 24),2	35,(0, 27),2	39,(0, 30),2	43,(0, 33),2	47,(0, 36),2	51,(0, 39),2	55,(0, 42),2	59,(0, 45),2	63,(0, 48),2	67,(0, 51),2	71,(0, 54),2	75,(0, 57),2	79,(0, 60),2	83,(0, 63),2	87,(0, 66),2	91,(0, 69),2	95,(0, 72),2	99,(0, 75),2	103,(0, 78),2	107,(0, 81),2	111,(0, 84),2	115,(0, 87),2	119,(0, 90),2	123,(0, 93),2	127,(0, 96),2	131,(0, 99),2	135,(0, 102),2	139,(0, 105),2	143,(0, 108),2	147,(0, 111),2	151,(0, 114),2	155,(0, 117),2	159,(0, 120),2	163,(0, 123),2	167,(0, 126),2	171,(0, 129),2	175,(0, 132),2	179,(0, 135),2	183,(0, 138),2	187,(0, 141),2	191,(0, 144),2	195,(0, 147),2	199,(0, 150),2	203,(0, 153),2	207,(0, 156),2	211,(0, 159),2	215,(0, 162),2	219,(0, 165),2	223,(0, 168),2	227,(0, 171),2	231,(0, 174),2	235,(0, 177),2	239,(0, 180),2	243,(0, 183),2	247,(0, 186),2	251,(0, 189),2	255,(0, 192),2	259,(0, 195),2	263,(0, 198),2	
1,(0, 2),2	5,(0, 5),2	9,(0, 8),2	13,(0, 11),2	17,(0, 14),2	21,(0, 17),2	25,(0, 20),2	29,(0, 23),2	33,(0, 26),2	37,(0, 29),2	41,(0, 32),2	45,(0, 35),2	49,(0, 38),2	53,(0, 41),2	57,(0, 44),2	61,(0, 47),2	65,(0, 50),2	69,(0, 53),2	73,(0, 56),2	77,(0, 59),2	81,(0, 62),2	85,(0, 65),2	89,(0, 68),2	93,(0, 71),2	97,(0, 74),2	101,(0, 77),2	105,(0, 80),2	109,(0, 83),2	113,(0, 86),2	117,(0, 89),2	121,(0, 92),2	125,(0, 95),2	129,(0, 98),2	133,(0, 101),2	137,(0, 104),2	141,(0, 107),2	145,(0, 110),2	149,(0, 113),2	153,(0, 116),2	157,(0, 119),2	161,(0, 122),2	165,(0, 125),2	169,(0, 128),2	173,(0, 131),2	177,(0, 134),2	181,(0, 137),2	185,(0, 140),2	189,(0, 143),2	193,(0, 146),2	197,(0, 149),2	201,(0, 152),2	205,(0, 155),2	209,(0, 158),2	213,(0, 161),2	217,(0, 164),2	221,(0, 167),2	225,(0, 170),2	229,(0, 173),2	233,(0, 176),2	237,(0, 179),2	241,(0, 182),2	245,(0, 185),2	249,(0, 188),2	253,(0, 191),2	257,(0, 194),2	261,(0, 197),2	265,(0, 200),2	
33,(2, 201),4	37,(3, 201),4	63,(5, 201),4	67,(6, 201),4	93,(8, 201),4	97,(9, 201),4	123,(11, 201),4	127,(12, 201),4	153,(14, 201),4	157,(15, 201),4	183,(17, 201),4	187,(18, 201),4	213,(20, 201),4	217,(21, 201),4	243,(23, 201),4	247,(24, 201),4	273,(26, 201),4	277,(27, 201),4	303,(29, 201),4	307,(30, 201),4	333,(32, 201),4	337,(33, 201),4	363,(35, 201),4	367,(36, 201),4	393,(38, 201),4	397,(39, 201),4	423,(41, 201),4	427,(42, 201),4	453,(44, 201),4	457,(45, 201),4	483,(47, 201),4	487,(48, 201),4	513,(50, 201),4	517,(51, 201),4	543,(53, 201),4	547,(54, 201),4	573,(56, 201),4	577,(57, 201),4	603,(59, 201),4	607,(60, 201),4	633,(62, 201),4	637,(63, 201),4	663,(65, 201),4	667,(66, 201),4	693,(68, 201),4	697,(69, 201),4	723,(71, 201),4	727,(72, 201),4	753,(74, 201),4	757,(75, 201),4	783,(77, 201),4	787,(78, 201),4	813,(80, 201),4	817,(81, 201),4	843,(83, 201),4	847,(84, 201),4	873,(86, 201),4	877,(87, 201),4	903,(89, 201),4	907,(90, 201),4	933,(92, 201),4	937,(93, 201),4	963,(95, 201),4	967,(96, 201),4	993,(98, 201),4	997,(99, 201),4	1023,(101, 201),4	1027,(102, 201),4	1053,(104, 201),4	1057,(105, 201),4	1083,(107, 201),4	1087,(108, 201),4	1113,(110, 201),4	1117,(111, 201),4	1143,(113, 201),4	1147,(114, 201),4	1173,(116, 201),4	1177,(117, 201),4	1203,(119, 201),4	1207,(120, 201),4	1233,(122, 201),4	1237,(123, 201),4	1263,(125, 201),4	1267,(126, 201),4	1293,(128, 201),4	1297,(129, 201),4	1323,(131, 201),4	1327,(132, 201),4	1353,(134, 201),4	1357,(135, 201),4	1383,(137, 201),4	1387,(138, 201),4	1413,(140, 201),4	1417,(141, 201),4	1443,(143, 201),4	1447,(144, 201),4	1473,(146, 201),4	1477,(147, 201),4	1503,(149, 201),4	1507,(150, 201),4	1533,(152, 201),4	1537,(153, 201),4	1563,(155, 201),4	1567,(156, 201),4	1593,(158, 201),4	1597,(159, 201),4	1623,(161, 201),4	1627,(162, 201),4	1653,(164, 201),4	1657,(165, 201),4	1683,(167, 201),4	1687,(168, 201),4	1713,(170, 201),4	1717,(171, 201),4	1743,(173, 201),4	1747,(174, 201),4	1773,(176, 201),4	1777,(177, 201),4	1803,(179, 201),4	1807,(180, 201),4	1833,(182, 201),4	1837,(183, 201),4	1863,(185, 201),4	1867,(186, 201),4	1893,(188, 201),4	1897,(189, 201),4	1923,(191, 201),4	1927,(192, 201),4	1953,(194, 201),4	1957,(195, 201),4	1983,(197, 201),4	1987,(198, 201),4	2013,(200, 201),4	
# Outgoing
37,(3, 201),4	67,(6, 201),4	97,(9, 201),4	127,(12, 201),4	157,(15, 201),4	187,(18, 201),4	217,(21, 201),4	247,(24, 201),4	277,(27, 201),4	307,(30, 201),4	337,(33, 201),4	367,(36, 201),4	397,(39, 201),4	427,(42, 201),4	457,(45, 201),4	487,(48, 201),4	517,(51, 201),4	547,(54, 201),4	577,(57, 201),4	607,(60, 201),4	637,(63, 201),4	667,(66, 201),4	697,(69, 201),4	727,(72, 201),4	757,(75, 201),4	787,(78, 201),4	817,(81, 201),4	847,(84, 201),4	877,(87, 201),4	907,(90, 201),4	937,(93, 201),4	967,(96, 201),4	997,(99, 201),4	1027,(102, 201),4	1057,(105, 201),4	1087,(108, 201),4	1117,(111, 201),4	1147,(114, 201),4	1177,(117, 201),4	1207,(120, 201),4	1237,(123, 201),4	1267,(126, 201),4	1297,(129, 201),4	1327,(132, 201),4	1357,(135, 201),4	1387,(138, 201),4	1417,(141, 201),4	1447,(144, 201),4	1477,(147, 201),4	1507,(150, 201),4	1537,(153, 201),4	1567,(156, 201),4	1597,(159, 201),4	1627,(162, 201),4	1657,(165, 201),4	1687,(168, 201),4	1717,(171, 201),4	1747,(174, 201),4	1777,(177, 201),4	1807,(180, 201),4	1837,(183, 201),4	1867,(186, 201),4	1897,(189, 201),4	1927,(192, 201),4	1957,(195, 201),4	1987,(198, 201),4	
33,(2, 201),4	63,(5, 201),4	93,(8, 201),4	123,(11, 201),4	153,(14, 201),4	183,(17, 201),4	213,(20, 201),4	243,(23, 201),4	273,(26, 201),4	303,(29, 201),4	333,(32, 201),4	363,(35, 201),4	393,(38, 201),4	423,(41, 201),4	453,(44, 201),4	483,(47, 201),4	513,(50, 201),4	543,(53, 201),4	573,(56, 201),4	603,(59, 201),4	633,(62, 201),4	663,(65, 201),4	693,(68, 201),4	723,(71, 201),4	753,(74, 201),4	783,(77, 201),4	813,(80, 201),4	843,(83, 201),4	873,(86, 201),4	903,(89, 201),4	933,(92, 201),4	963,(95, 201),4	993,(98, 201),4	1023,(101, 201),4	1053,(104, 201),4	1083,(107, 201),4	1113,(110, 201),4	1143,(113, 201),4	1173,(116, 201),4	1203,(119, 201),4	1233,(122, 201),4	1263,(125, 201),4	1293,(128, 201),4	1323,(131, 201),4	1353,(134, 201),4	1383,(137, 201),4	1413,(140, 201),4	1443,(143, 201),4	1473,(146, 201),4	1503,(149, 201),4	1533,(152, 201),4	1563,(155, 201),4	1593,(158, 201),4	1623,(161, 201),4	1653,(164, 201),4	1683,(167, 201),4	1713,(170, 201),4	1743,(173, 201),4	1773,(176, 201),4	1803,(179, 201),4	1833,(182, 201),4	1863,(185, 201),4	1893,(188, 201),4	1923,(191, 201),4	1953,(194, 201),4	1983,(197, 201),4	2013,(200, 201),4	
1,(0, 2),2	3,(0, 3),2	5,(0, 5),2	7,(0, 6),2	9,(0, 8),2	11,(0, 9),2	13,(0, 11),2	15,(0, 12),2	17,(0, 14),2	19,(0, 15),2	21,(0, 17),2	23,(0, 18),2	25,(0, 20),2	27,(0, 21),2	29,(0, 23),2	31,(0, 24),2	33,(0, 26),2	35,(0, 27),2	37,(0, 29),2	39,(0, 30),2	41,(0, 32),2	43,(0, 33),2	45,(0, 35),2	47,(0, 36),2	49,(0, 38),2	51,(0, 39),2	53,(0, 41),2	55,(0, 42),2	57,(0, 44),2	59,(0, 45),2	61,(0, 47),2	63,(0, 48),2	65,(0, 50),2	67,(0, 51),2	69,(0, 53),2	71,(0, 54),2	73,(0, 56),2	75,(0, 57),2	77,(0, 59),2	79,(0, 60),2	81,(0, 62),2	83,(0, 63),2	85,(0, 65),2	87,(0, 66),2	89,(0, 68),2	91,(0, 69),2	93,(0, 71),2	95,(0, 72),2	97,(0, 74),2	99,(0, 75),2	101,(0, 77),2	103,(0, 78),2	105,(0, 80),2	107,(0, 81),2	109,(0, 83),2	111,(0, 84),2	113,(0, 86),2	115,(0, 87),2	117,(0, 89),2	119,(0, 90),2	121,(0, 92),2	123,(0, 93),2	125,(0, 95),2	127,(0, 96),2	129,(0, 98),2	131,(0, 99),2	133,(0, 101),2	135,(0, 102),2	137,(0, 104),2	139,(0, 105),2	141,(0, 107),2	143,(0, 108),2	145,(0, 110),2	147,(0, 111),2	149,(0, 113),2	151,(0, 114),2	153,(0, 116),2	155,(0, 117),2	157,(0, 119),2	159,(0, 120),2	161,(0, 122),2	163,(0, 123),2	165,(0, 125),2	167,(0, 126),2	169,(0, 128),2	171,(0, 129),2	173,(0, 131),2	175,(0, 132),2	177,(0, 134),2	179,(0, 135),2	181,(0, 137),2	183,(0, 138),2	185,(0, 140),2	187,(0, 141),2	189,(0, 143),2	191,(0, 144),2	193,(0, 146),2	195,(0, 147),2	197,(0, 149),2	199,(0, 150),2	201,(0, 152),2	203,(0, 153),2	205,(0, 155),2	207,(0, 156),2	209,(0, 158),2	211,(0, 159),2	213,(0, 161),2	215,(0, 162),2	217,(0, 164),2	219,(0, 165),2	221,(0, 167),2	223,(0, 168),2	225,(0, 170),2	227,(0, 171),2	229,(0, 173),2	231,(0, 174),2	233,(0, 176),2	235,(0, 177),2	237,(0, 179),2	239,(0, 180),2	241,(0, 182),2	243,(0, 183),2	245,(0, 185),2	247,(0, 186),2	249,(0, 188),2	251,(0, 189),2	253,(0, 191),2	255,(0, 192),2	257,(0, 194),2	259,(0, 195),2	261,(0, 197),2	263,(0, 198),2	265,(0, 200),2	
