128
# CPU
0,21,1	1,11,6	7,10,6	13,12,6	19,9,6	25,1,6	31,2,6	37,3,6	43,4,6	49,6,6	55,7,6	61,8,6	67,13,6	73,14,6	79,15,6	85,16,6	91,17,6	97,19,6	103,20,6	127,0,1	
46,5,6	91,18,6	
# Incoming
52,(5, 0),30	97,(18, 0),30	
1,(21, 5),45	46,(21, 18),45	
# Outgoing
1,(21, 5),45	46,(21, 18),45	
52,(5, 0),30	97,(18, 0),30	
