1234
# CPU
0,201,1	1,139,8	9,138,8	17,140,8	25,137,8	33,135,8	41,141,8	49,134,8	57,132,8	65,142,8	73,131,8	81,129,8	89,143,8	97,128,8	105,161,8	113,79,8	121,144,8	129,126,8	137,145,8	145,124,8	153,123,8	161,146,8	169,121,8	177,120,8	185,147,8	193,118,8	201,148,8	209,73,8	217,165,8	225,116,8	233,115,8	241,114,8	249,113,8	257,112,8	265,111,8	273,110,8	281,109,8	289,108,8	297,152,8	305,107,8	313,65,8	321,66,8	329,106,8	337,154,8	345,104,8	353,103,8	361,155,8	369,101,8	377,100,8	385,156,8	393,157,8	401,98,8	409,158,8	417,162,8	425,172,8	433,95,8	441,94,8	449,84,8	457,86,8	465,83,8	473,81,8	481,87,8	489,80,8	497,78,8	505,89,8	513,77,8	521,51,8	529,176,8	537,75,8	545,90,8	553,91,8	561,72,8	569,71,8	577,92,8	585,69,8	593,93,8	601,97,8	609,67,8	617,64,8	625,39,8	633,33,8	641,160,8	649,63,8	657,62,8	665,61,8	673,60,8	681,59,8	689,166,8	697,58,8	705,57,8	713,56,8	721,55,8	729,185,8	737,31,8	745,168,8	753,169,8	761,52,8	769,50,8	777,170,8	785,171,8	793,48,8	801,173,8	809,46,8	817,45,8	825,174,8	833,26,8	841,27,8	849,186,8	857,183,8	865,181,8	873,187,8	881,180,8	889,178,8	897,188,8	905,177,8	913,44,8	921,189,8	929,43,8	937,42,8	945,23,8	953,190,8	961,40,8	969,191,8	977,37,8	985,36,8	993,192,8	1001,34,8	1009,32,8	1017,193,8	1025,29,8	1033,17,8	1041,25,8	1049,1,8	1057,18,8	1065,15,8	1073,14,8	1081,20,8	1089,13,8	1097,12,8	1105,22,8	1113,11,8	1121,10,8	1129,2,8	1137,3,8	1145,4,8	1153,6,8	1161,7,8	1169,8,8	1177,28,8	1185,194,8	1193,195,8	1201,197,8	1209,198,8	1217,199,8	1233,0,1	
27,136,8	53,133,8	79,130,8	105,127,8	131,125,8	157,122,8	183,119,8	209,149,8	235,117,8	261,150,8	287,151,8	313,153,8	339,105,8	365,102,8	391,99,8	417,96,8	443,85,8	469,82,8	495,88,8	521,76,8	547,74,8	573,70,8	599,68,8	625,159,8	651,163,8	677,164,8	703,167,8	729,54,8	755,53,8	781,49,8	807,47,8	833,184,8	859,182,8	885,179,8	911,175,8	937,41,8	963,38,8	989,35,8	1015,30,8	1041,16,8	1067,19,8	1093,21,8	1119,24,8	1145,5,8	1171,9,8	1197,196,8	1223,200,8	
# Incoming
35,(136, 0),2	61,(133, 0),2	87,(130, 0),2	113,(127, 0),2	139,(125, 0),2	165,(122, 0),2	191,(119, 0),2	217,(149, 0),2	243,(117, 0),2	269,(150, 0),2	295,(151, 0),2	321,(153, 0),2	347,(105, 0),2	373,(102, 0),2	399,(99, 0),2	425,(96, 0),2	451,(85, 0),2	477,(82, 0),2	503,(88, 0),2	529,(76, 0),2	555,(74, 0),2	581,(70, 0),2	607,(68, 0),2	633,(159, 0),2	659,(163, 0),2	685,(164, 0),2	711,(167, 0),2	737,(54, 0),2	763,(53, 0),2	789,(49, 0),2	815,(47, 0),2	841,(184, 0),2	867,(182, 0),2	893,(179, 0),2	919,(175, 0),2	945,(41, 0),2	971,(38, 0),2	997,(35, 0),2	1023,(30, 0),2	1049,(16, 0),2	1075,(19, 0),2	1101,(21, 0),2	1127,(24, 0),2	1153,(5, 0),2	1179,(9, 0),2	1205,(196, 0),2	1231,(200, 0),2	
1,(201, 136),26	27,(201, 133),26	53,(201, 130),26	79,(201, 127),26	105,(201, 125),26	131,(201, 122),26	157,(201, 119),26	183,(201, 149),26	209,(201, 117),26	235,(201, 150),26	261,(201, 151),26	287,(201, 153),26	313,(201, 105),26	339,(201, 102),26	365,(201, 99),26	391,(201, 96),26	417,(201, 85),26	443,(201, 82),26	469,(201, 88),26	495,(201, 76),26	521,(201, 74),26	547,(201, 70),26	573,(201, 68),26	599,(201, 159),26	625,(201, 163),26	651,(201, 164),26	677,(201, 167),26	703,(201, 54),26	729,(201, 53),26	755,(201, 49),26	781,(201, 47),26	807,(201, 184),26	833,(201, 182),26	859,(201, 179),26	885,(201, 175),26	911,(201, 41),26	937,(201, 38),26	963,(201, 35),26	989,(201, 30),26	1015,(201, 16),26	1041,(201, 19),26	1067,(201, 21),26	1093,(201, 24),26	1119,(201, 5),26	1145,(201, 9),26	1171,(201, 196),26	1197,(201, 200),26	
# Outgoing
1,(201, 136),26	27,(201, 133),26	53,(201, 130),26	79,(201, 127),26	105,(201, 125),26	131,(201, 122),26	157,(201, 119),26	183,(201, 149),26	209,(201, 117),26	235,(201, 150),26	261,(201, 151),26	287,(201, 153),26	313,(201, 105),26	339,(201, 102),26	365,(201, 99),26	391,(201, 96),26	417,(201, 85),26	443,(201, 82),26	469,(201, 88),26	495,(201, 76),26	521,(201, 74),26	547,(201, 70),26	573,(201, 68),26	599,(201, 159),26	625,(201, 163),26	651,(201, 164),26	677,(201, 167),26	703,(201, 54),26	729,(201, 53),26	755,(201, 49),26	781,(201, 47),26	807,(201, 184),26	833,(201, 182),26	859,(201, 179),26	885,(201, 175),26	911,(201, 41),26	937,(201, 38),26	963,(201, 35),26	989,(201, 30),26	1015,(201, 16),26	1041,(201, 19),26	1067,(201, 21),26	1093,(201, 24),26	1119,(201, 5),26	1145,(201, 9),26	1171,(201, 196),26	1197,(201, 200),26	
35,(136, 0),2	61,(133, 0),2	87,(130, 0),2	113,(127, 0),2	139,(125, 0),2	165,(122, 0),2	191,(119, 0),2	217,(149, 0),2	243,(117, 0),2	269,(150, 0),2	295,(151, 0),2	321,(153, 0),2	347,(105, 0),2	373,(102, 0),2	399,(99, 0),2	425,(96, 0),2	451,(85, 0),2	477,(82, 0),2	503,(88, 0),2	529,(76, 0),2	555,(74, 0),2	581,(70, 0),2	607,(68, 0),2	633,(159, 0),2	659,(163, 0),2	685,(164, 0),2	711,(167, 0),2	737,(54, 0),2	763,(53, 0),2	789,(49, 0),2	815,(47, 0),2	841,(184, 0),2	867,(182, 0),2	893,(179, 0),2	919,(175, 0),2	945,(41, 0),2	971,(38, 0),2	997,(35, 0),2	1023,(30, 0),2	1049,(16, 0),2	1075,(19, 0),2	1101,(21, 0),2	1127,(24, 0),2	1153,(5, 0),2	1179,(9, 0),2	1205,(196, 0),2	1231,(200, 0),2	
