211
# CPU
0,201,1	1,139,1	2,138,1	3,140,1	4,137,1	5,136,1	6,135,1	7,141,1	8,134,1	9,133,1	10,132,1	11,142,1	12,131,1	13,130,1	14,129,1	15,143,1	16,128,1	17,144,1	18,127,1	19,145,1	20,126,1	21,125,1	22,124,1	23,146,1	24,123,1	25,122,1	26,121,1	27,147,1	28,120,1	29,119,1	30,118,1	31,148,1	32,117,1	33,149,1	34,116,1	35,150,1	36,115,1	37,114,1	38,113,1	39,151,1	40,112,1	41,111,1	42,110,1	43,152,1	44,109,1	45,108,1	46,107,1	47,153,1	48,106,1	49,154,1	50,105,1	51,155,1	52,104,1	53,103,1	54,102,1	55,156,1	56,101,1	57,100,1	58,99,1	59,157,1	60,98,1	61,167,1	62,171,1	63,96,1	64,97,1	65,95,1	66,158,1	67,94,1	68,93,1	69,91,1	70,159,1	71,90,1	72,81,1	73,80,1	74,82,1	75,79,1	76,78,1	77,77,1	78,83,1	79,76,1	80,84,1	81,75,1	82,85,1	83,74,1	84,73,1	85,72,1	86,86,1	87,71,1	88,87,1	89,70,1	90,88,1	91,69,1	92,68,1	93,67,1	94,89,1	95,66,1	96,160,1	97,65,1	98,161,1	99,64,1	100,63,1	101,62,1	102,162,1	103,61,1	104,163,1	105,60,1	106,164,1	107,59,1	108,58,1	109,57,1	110,165,1	111,56,1	112,166,1	113,55,1	114,168,1	115,54,1	116,53,1	117,52,1	118,169,1	119,51,1	120,170,1	121,188,1	122,31,1	123,49,1	124,48,1	125,50,1	126,47,1	127,172,1	128,46,1	129,173,1	130,45,1	131,44,1	132,43,1	133,174,1	134,42,1	135,184,1	136,183,1	137,185,1	138,182,1	139,181,1	140,180,1	141,186,1	142,179,1	143,178,1	144,177,1	145,187,1	146,176,1	147,41,1	148,40,1	149,189,1	150,39,1	151,38,1	152,37,1	153,190,1	154,36,1	155,35,1	156,34,1	157,191,1	158,33,1	159,32,1	160,30,1	161,192,1	162,29,1	163,28,1	164,27,1	165,193,1	166,26,1	167,17,1	168,16,1	169,18,1	170,15,1	171,19,1	172,14,1	173,20,1	174,13,1	175,21,1	176,12,1	177,22,1	178,11,1	179,23,1	180,10,1	181,1,1	182,7,1	183,2,1	184,3,1	185,4,1	186,5,1	187,6,1	188,8,1	189,9,1	190,24,1	191,25,1	192,194,1	193,195,1	194,196,1	195,198,1	196,199,1	197,200,1	210,0,1	
181,197,1	
61,92,1	121,175,1	
# Incoming
62,(92, 0),28	122,(175, 0),28	182,(197, 0),28	
121,(201, 197),60	
1,(201, 92),60	61,(201, 175),60	
# Outgoing
1,(201, 92),60	61,(201, 175),60	121,(201, 197),60	
182,(197, 0),28	
62,(92, 0),28	122,(175, 0),28	
