308
# CPU
0,201,1	1,139,6	7,153,6	13,71,6	19,46,6	25,167,6	31,51,6	37,157,6	43,158,6	49,48,6	55,47,6	61,83,6	67,162,6	73,61,6	79,42,6	85,41,6	91,151,6	97,57,6	103,55,6	109,36,6	115,35,6	121,34,6	127,53,6	133,173,6	139,185,6	145,183,6	151,84,6	157,32,6	163,179,6	169,58,6	175,187,6	181,188,6	187,25,6	193,24,6	199,43,6	205,17,6	211,191,6	217,20,6	223,19,6	229,16,6	235,28,6	241,26,6	247,21,6	253,15,6	259,7,6	265,23,6	271,198,6	277,6,6	283,5,6	289,196,6	295,4,6	301,200,6	307,0,1	
9,130,6	21,133,6	27,124,6	39,137,6	49,138,6	57,141,6	69,143,6	75,144,6	87,147,6	97,148,6	105,150,6	117,161,6	123,163,6	133,93,6	141,165,6	147,88,6	157,168,6	165,169,6	171,170,6	181,72,6	189,172,6	195,174,6	205,59,6	213,60,6	225,176,6	237,180,6	249,184,6	259,194,6	265,195,6	271,27,6	277,11,6	283,13,6	289,1,6	295,8,6	
5,135,6	11,128,6	17,126,6	23,125,6	29,122,6	35,120,6	41,118,6	47,115,6	55,140,6	61,142,6	67,109,6	77,106,6	83,104,6	89,103,6	95,100,6	103,149,6	109,159,6	115,160,6	125,96,6	131,94,6	139,90,6	149,86,6	155,82,6	163,79,6	173,76,6	179,73,6	187,171,6	197,66,6	203,64,6	211,52,6	217,62,6	223,63,6	229,177,6	235,178,6	241,181,6	247,182,6	253,193,6	281,12,6	287,14,6	293,3,6	299,199,6	
7,129,6	13,131,6	19,132,6	31,136,6	37,119,6	43,117,6	53,113,6	59,112,6	65,110,6	71,108,6	79,145,6	85,146,6	91,102,6	101,98,6	107,97,6	113,155,6	119,154,6	127,164,6	137,91,6	143,89,6	151,166,6	161,80,6	167,78,6	175,75,6	185,69,6	191,68,6	199,175,6	209,54,6	215,50,6	221,45,6	227,44,6	233,39,6	239,38,6	245,33,6	251,31,6	257,190,6	263,186,6	269,29,6	275,18,6	291,2,6	297,197,6	
3,134,6	15,127,6	25,123,6	33,121,6	45,116,6	51,114,6	63,111,6	73,107,6	81,105,6	93,101,6	99,99,6	111,156,6	121,152,6	129,95,6	135,92,6	145,87,6	153,85,6	159,81,6	169,77,6	177,74,6	183,70,6	193,67,6	201,65,6	207,56,6	219,49,6	231,40,6	243,37,6	255,192,6	261,189,6	267,30,6	273,22,6	279,10,6	285,9,6	
# Incoming
9,(134, 0),2	11,(135, 0),2	13,(129, 0),2	15,(130, 0),2	17,(128, 0),2	19,(131, 0),2	21,(127, 0),2	23,(126, 0),2	25,(132, 0),2	27,(133, 0),2	29,(125, 0),2	31,(123, 0),2	33,(124, 0),2	35,(122, 0),2	37,(136, 0),2	39,(121, 0),2	41,(120, 0),2	43,(119, 0),2	45,(137, 0),2	47,(118, 0),2	49,(117, 0),2	51,(116, 0),2	53,(115, 0),2	55,(138, 0),2	57,(114, 0),2	59,(113, 0),2	61,(140, 0),2	63,(141, 0),2	65,(112, 0),2	67,(142, 0),2	69,(111, 0),2	71,(110, 0),2	73,(109, 0),2	75,(143, 0),2	77,(108, 0),2	79,(107, 0),2	81,(144, 0),2	83,(106, 0),2	85,(145, 0),2	87,(105, 0),2	89,(104, 0),2	91,(146, 0),2	93,(147, 0),2	95,(103, 0),2	97,(102, 0),2	99,(101, 0),2	101,(100, 0),2	103,(148, 0),2	105,(99, 0),2	107,(98, 0),2	109,(149, 0),2	111,(150, 0),2	113,(97, 0),2	115,(159, 0),2	117,(156, 0),2	119,(155, 0),2	121,(160, 0),2	123,(161, 0),2	125,(154, 0),2	127,(152, 0),2	129,(163, 0),2	131,(96, 0),2	133,(164, 0),2	135,(95, 0),2	137,(94, 0),2	139,(93, 0),2	141,(92, 0),2	143,(91, 0),2	145,(90, 0),2	147,(165, 0),2	149,(89, 0),2	151,(87, 0),2	153,(88, 0),2	155,(86, 0),2	157,(166, 0),2	159,(85, 0),2	161,(82, 0),2	163,(168, 0),2	165,(81, 0),2	167,(80, 0),2	169,(79, 0),2	171,(169, 0),2	173,(78, 0),2	175,(77, 0),2	177,(170, 0),2	179,(76, 0),2	181,(75, 0),2	183,(74, 0),2	185,(73, 0),2	187,(72, 0),2	189,(70, 0),2	191,(69, 0),2	193,(171, 0),2	195,(172, 0),2	197,(68, 0),2	199,(67, 0),2	201,(174, 0),2	203,(66, 0),2	205,(175, 0),2	207,(65, 0),2	209,(64, 0),2	211,(59, 0),2	213,(56, 0),2	215,(54, 0),2	217,(52, 0),2	219,(60, 0),2	221,(50, 0),2	223,(62, 0),2	225,(49, 0),2	227,(45, 0),2	229,(63, 0),2	231,(176, 0),2	233,(44, 0),2	235,(177, 0),2	237,(40, 0),2	239,(39, 0),2	241,(178, 0),2	243,(180, 0),2	245,(38, 0),2	247,(181, 0),2	249,(37, 0),2	251,(33, 0),2	253,(182, 0),2	255,(184, 0),2	257,(31, 0),2	259,(193, 0),2	261,(192, 0),2	263,(190, 0),2	265,(194, 0),2	267,(189, 0),2	269,(186, 0),2	271,(195, 0),2	273,(30, 0),2	275,(29, 0),2	277,(27, 0),2	279,(22, 0),2	281,(18, 0),2	283,(11, 0),2	285,(10, 0),2	287,(12, 0),2	289,(13, 0),2	291,(9, 0),2	293,(14, 0),2	295,(1, 0),2	297,(2, 0),2	299,(3, 0),2	301,(8, 0),2	303,(197, 0),2	305,(199, 0),2	
7,(201, 130),2	19,(201, 133),2	25,(201, 124),2	37,(201, 137),2	47,(201, 138),2	55,(201, 141),2	67,(201, 143),2	73,(201, 144),2	85,(201, 147),2	95,(201, 148),2	103,(201, 150),2	115,(201, 161),2	121,(201, 163),2	131,(201, 93),2	139,(201, 165),2	145,(201, 88),2	155,(201, 168),2	163,(201, 169),2	169,(201, 170),2	179,(201, 72),2	187,(201, 172),2	193,(201, 174),2	203,(201, 59),2	211,(201, 60),2	223,(201, 176),2	235,(201, 180),2	247,(201, 184),2	257,(201, 194),2	263,(201, 195),2	269,(201, 27),2	275,(201, 11),2	281,(201, 13),2	287,(201, 1),2	293,(201, 8),2	
3,(201, 135),2	9,(201, 128),2	15,(201, 126),2	21,(201, 125),2	27,(201, 122),2	33,(201, 120),2	39,(201, 118),2	45,(201, 115),2	53,(201, 140),2	59,(201, 142),2	65,(201, 109),2	75,(201, 106),2	81,(201, 104),2	87,(201, 103),2	93,(201, 100),2	101,(201, 149),2	107,(201, 159),2	113,(201, 160),2	123,(201, 96),2	129,(201, 94),2	137,(201, 90),2	147,(201, 86),2	153,(201, 82),2	161,(201, 79),2	171,(201, 76),2	177,(201, 73),2	185,(201, 171),2	195,(201, 66),2	201,(201, 64),2	209,(201, 52),2	215,(201, 62),2	221,(201, 63),2	227,(201, 177),2	233,(201, 178),2	239,(201, 181),2	245,(201, 182),2	251,(201, 193),2	279,(201, 12),2	285,(201, 14),2	291,(201, 3),2	297,(201, 199),2	
5,(201, 129),2	11,(201, 131),2	17,(201, 132),2	29,(201, 136),2	35,(201, 119),2	41,(201, 117),2	51,(201, 113),2	57,(201, 112),2	63,(201, 110),2	69,(201, 108),2	77,(201, 145),2	83,(201, 146),2	89,(201, 102),2	99,(201, 98),2	105,(201, 97),2	111,(201, 155),2	117,(201, 154),2	125,(201, 164),2	135,(201, 91),2	141,(201, 89),2	149,(201, 166),2	159,(201, 80),2	165,(201, 78),2	173,(201, 75),2	183,(201, 69),2	189,(201, 68),2	197,(201, 175),2	207,(201, 54),2	213,(201, 50),2	219,(201, 45),2	225,(201, 44),2	231,(201, 39),2	237,(201, 38),2	243,(201, 33),2	249,(201, 31),2	255,(201, 190),2	261,(201, 186),2	267,(201, 29),2	273,(201, 18),2	289,(201, 2),2	295,(201, 197),2	
1,(201, 134),2	13,(201, 127),2	23,(201, 123),2	31,(201, 121),2	43,(201, 116),2	49,(201, 114),2	61,(201, 111),2	71,(201, 107),2	79,(201, 105),2	91,(201, 101),2	97,(201, 99),2	109,(201, 156),2	119,(201, 152),2	127,(201, 95),2	133,(201, 92),2	143,(201, 87),2	151,(201, 85),2	157,(201, 81),2	167,(201, 77),2	175,(201, 74),2	181,(201, 70),2	191,(201, 67),2	199,(201, 65),2	205,(201, 56),2	217,(201, 49),2	229,(201, 40),2	241,(201, 37),2	253,(201, 192),2	259,(201, 189),2	265,(201, 30),2	271,(201, 22),2	277,(201, 10),2	283,(201, 9),2	
# Outgoing
1,(201, 134),2	3,(201, 135),2	5,(201, 129),2	7,(201, 130),2	9,(201, 128),2	11,(201, 131),2	13,(201, 127),2	15,(201, 126),2	17,(201, 132),2	19,(201, 133),2	21,(201, 125),2	23,(201, 123),2	25,(201, 124),2	27,(201, 122),2	29,(201, 136),2	31,(201, 121),2	33,(201, 120),2	35,(201, 119),2	37,(201, 137),2	39,(201, 118),2	41,(201, 117),2	43,(201, 116),2	45,(201, 115),2	47,(201, 138),2	49,(201, 114),2	51,(201, 113),2	53,(201, 140),2	55,(201, 141),2	57,(201, 112),2	59,(201, 142),2	61,(201, 111),2	63,(201, 110),2	65,(201, 109),2	67,(201, 143),2	69,(201, 108),2	71,(201, 107),2	73,(201, 144),2	75,(201, 106),2	77,(201, 145),2	79,(201, 105),2	81,(201, 104),2	83,(201, 146),2	85,(201, 147),2	87,(201, 103),2	89,(201, 102),2	91,(201, 101),2	93,(201, 100),2	95,(201, 148),2	97,(201, 99),2	99,(201, 98),2	101,(201, 149),2	103,(201, 150),2	105,(201, 97),2	107,(201, 159),2	109,(201, 156),2	111,(201, 155),2	113,(201, 160),2	115,(201, 161),2	117,(201, 154),2	119,(201, 152),2	121,(201, 163),2	123,(201, 96),2	125,(201, 164),2	127,(201, 95),2	129,(201, 94),2	131,(201, 93),2	133,(201, 92),2	135,(201, 91),2	137,(201, 90),2	139,(201, 165),2	141,(201, 89),2	143,(201, 87),2	145,(201, 88),2	147,(201, 86),2	149,(201, 166),2	151,(201, 85),2	153,(201, 82),2	155,(201, 168),2	157,(201, 81),2	159,(201, 80),2	161,(201, 79),2	163,(201, 169),2	165,(201, 78),2	167,(201, 77),2	169,(201, 170),2	171,(201, 76),2	173,(201, 75),2	175,(201, 74),2	177,(201, 73),2	179,(201, 72),2	181,(201, 70),2	183,(201, 69),2	185,(201, 171),2	187,(201, 172),2	189,(201, 68),2	191,(201, 67),2	193,(201, 174),2	195,(201, 66),2	197,(201, 175),2	199,(201, 65),2	201,(201, 64),2	203,(201, 59),2	205,(201, 56),2	207,(201, 54),2	209,(201, 52),2	211,(201, 60),2	213,(201, 50),2	215,(201, 62),2	217,(201, 49),2	219,(201, 45),2	221,(201, 63),2	223,(201, 176),2	225,(201, 44),2	227,(201, 177),2	229,(201, 40),2	231,(201, 39),2	233,(201, 178),2	235,(201, 180),2	237,(201, 38),2	239,(201, 181),2	241,(201, 37),2	243,(201, 33),2	245,(201, 182),2	247,(201, 184),2	249,(201, 31),2	251,(201, 193),2	253,(201, 192),2	255,(201, 190),2	257,(201, 194),2	259,(201, 189),2	261,(201, 186),2	263,(201, 195),2	265,(201, 30),2	267,(201, 29),2	269,(201, 27),2	271,(201, 22),2	273,(201, 18),2	275,(201, 11),2	277,(201, 10),2	279,(201, 12),2	281,(201, 13),2	283,(201, 9),2	285,(201, 14),2	287,(201, 1),2	289,(201, 2),2	291,(201, 3),2	293,(201, 8),2	295,(201, 197),2	297,(201, 199),2	
15,(130, 0),2	27,(133, 0),2	33,(124, 0),2	45,(137, 0),2	55,(138, 0),2	63,(141, 0),2	75,(143, 0),2	81,(144, 0),2	93,(147, 0),2	103,(148, 0),2	111,(150, 0),2	123,(161, 0),2	129,(163, 0),2	139,(93, 0),2	147,(165, 0),2	153,(88, 0),2	163,(168, 0),2	171,(169, 0),2	177,(170, 0),2	187,(72, 0),2	195,(172, 0),2	201,(174, 0),2	211,(59, 0),2	219,(60, 0),2	231,(176, 0),2	243,(180, 0),2	255,(184, 0),2	265,(194, 0),2	271,(195, 0),2	277,(27, 0),2	283,(11, 0),2	289,(13, 0),2	295,(1, 0),2	301,(8, 0),2	
11,(135, 0),2	17,(128, 0),2	23,(126, 0),2	29,(125, 0),2	35,(122, 0),2	41,(120, 0),2	47,(118, 0),2	53,(115, 0),2	61,(140, 0),2	67,(142, 0),2	73,(109, 0),2	83,(106, 0),2	89,(104, 0),2	95,(103, 0),2	101,(100, 0),2	109,(149, 0),2	115,(159, 0),2	121,(160, 0),2	131,(96, 0),2	137,(94, 0),2	145,(90, 0),2	155,(86, 0),2	161,(82, 0),2	169,(79, 0),2	179,(76, 0),2	185,(73, 0),2	193,(171, 0),2	203,(66, 0),2	209,(64, 0),2	217,(52, 0),2	223,(62, 0),2	229,(63, 0),2	235,(177, 0),2	241,(178, 0),2	247,(181, 0),2	253,(182, 0),2	259,(193, 0),2	287,(12, 0),2	293,(14, 0),2	299,(3, 0),2	305,(199, 0),2	
13,(129, 0),2	19,(131, 0),2	25,(132, 0),2	37,(136, 0),2	43,(119, 0),2	49,(117, 0),2	59,(113, 0),2	65,(112, 0),2	71,(110, 0),2	77,(108, 0),2	85,(145, 0),2	91,(146, 0),2	97,(102, 0),2	107,(98, 0),2	113,(97, 0),2	119,(155, 0),2	125,(154, 0),2	133,(164, 0),2	143,(91, 0),2	149,(89, 0),2	157,(166, 0),2	167,(80, 0),2	173,(78, 0),2	181,(75, 0),2	191,(69, 0),2	197,(68, 0),2	205,(175, 0),2	215,(54, 0),2	221,(50, 0),2	227,(45, 0),2	233,(44, 0),2	239,(39, 0),2	245,(38, 0),2	251,(33, 0),2	257,(31, 0),2	263,(190, 0),2	269,(186, 0),2	275,(29, 0),2	281,(18, 0),2	297,(2, 0),2	303,(197, 0),2	
9,(134, 0),2	21,(127, 0),2	31,(123, 0),2	39,(121, 0),2	51,(116, 0),2	57,(114, 0),2	69,(111, 0),2	79,(107, 0),2	87,(105, 0),2	99,(101, 0),2	105,(99, 0),2	117,(156, 0),2	127,(152, 0),2	135,(95, 0),2	141,(92, 0),2	151,(87, 0),2	159,(85, 0),2	165,(81, 0),2	175,(77, 0),2	183,(74, 0),2	189,(70, 0),2	199,(67, 0),2	207,(65, 0),2	213,(56, 0),2	225,(49, 0),2	237,(40, 0),2	249,(37, 0),2	261,(192, 0),2	267,(189, 0),2	273,(30, 0),2	279,(22, 0),2	285,(10, 0),2	291,(9, 0),2	
