410
# CPU
0,201,1	1,139,6	7,60,6	13,156,6	19,87,6	25,58,6	31,159,6	37,175,6	43,61,6	49,62,6	55,82,6	61,170,6	67,157,6	73,32,6	79,172,6	85,76,6	91,160,6	97,173,6	103,174,6	109,50,6	115,49,6	121,70,6	127,47,6	133,46,6	139,178,6	145,67,6	151,43,6	157,65,6	163,180,6	169,28,6	175,40,6	181,161,6	187,152,6	193,168,6	199,169,6	205,153,6	211,34,6	217,35,6	223,158,6	229,162,6	235,184,6	241,69,6	247,14,6	253,17,6	259,186,6	265,192,6	271,190,6	277,185,6	283,187,6	289,191,6	295,183,6	301,16,6	307,15,6	313,189,6	319,21,6	325,193,6	331,20,6	337,19,6	343,182,6	349,198,6	355,1,6	361,8,6	367,7,6	373,11,6	379,2,6	385,199,6	391,3,6	397,12,6	409,0,1	
31,128,6	46,140,6	70,119,6	82,120,6	88,121,6	94,111,6	100,109,6	106,107,6	112,105,6	118,143,6	124,144,6	133,146,6	145,147,6	151,148,6	157,149,6	163,95,6	169,150,6	175,151,6	181,91,6	187,89,6	199,84,6	223,77,6	235,164,6	241,166,6	247,167,6	253,171,6	259,68,6	268,64,6	274,59,6	280,56,6	286,54,6	292,52,6	322,36,6	328,31,6	337,177,6	343,26,6	361,195,6	370,196,6	382,10,6	391,4,6	397,13,6	
7,135,6	19,136,6	25,137,6	37,126,6	43,138,6	55,141,6	79,113,6	109,142,6	130,145,6	136,101,6	142,100,6	160,96,6	193,86,6	205,81,6	211,154,6	217,155,6	229,74,6	256,71,6	307,176,6	313,39,6	319,33,6	334,37,6	349,24,6	355,179,6	379,197,6	385,9,6	394,5,6	400,200,6	
13,132,6	49,124,6	61,118,6	67,116,6	73,115,6	148,98,6	154,97,6	166,94,6	172,93,6	178,92,6	184,90,6	202,83,6	208,80,6	232,165,6	244,73,6	250,72,6	262,66,6	295,45,6	301,48,6	340,27,6	346,25,6	352,23,6	364,194,6	376,18,6	388,6,6	
4,134,6	10,133,6	16,131,6	22,130,6	28,129,6	34,127,6	40,125,6	52,123,6	58,122,6	64,117,6	76,114,6	85,112,6	91,110,6	97,108,6	103,106,6	115,104,6	121,103,6	127,102,6	139,99,6	190,88,6	196,85,6	214,79,6	220,78,6	226,75,6	238,163,6	265,63,6	271,57,6	277,55,6	283,53,6	289,51,6	298,44,6	304,42,6	310,41,6	316,38,6	325,30,6	331,29,6	358,22,6	367,188,6	373,181,6	
# Incoming
10,(134, 0),3	13,(135, 0),3	16,(133, 0),3	19,(132, 0),3	22,(131, 0),3	25,(136, 0),3	28,(130, 0),3	31,(137, 0),3	34,(129, 0),3	37,(128, 0),3	40,(127, 0),3	43,(126, 0),3	46,(125, 0),3	49,(138, 0),3	52,(140, 0),3	55,(124, 0),3	58,(123, 0),3	61,(141, 0),3	64,(122, 0),3	67,(118, 0),3	70,(117, 0),3	73,(116, 0),3	76,(119, 0),3	79,(115, 0),3	82,(114, 0),3	85,(113, 0),3	88,(120, 0),3	91,(112, 0),3	94,(121, 0),3	97,(110, 0),3	100,(111, 0),3	103,(108, 0),3	106,(109, 0),3	109,(106, 0),3	112,(107, 0),3	115,(142, 0),3	118,(105, 0),3	121,(104, 0),3	124,(143, 0),3	127,(103, 0),3	130,(144, 0),3	133,(102, 0),3	136,(145, 0),3	139,(146, 0),3	142,(101, 0),3	145,(99, 0),3	148,(100, 0),3	151,(147, 0),3	154,(98, 0),3	157,(148, 0),3	160,(97, 0),3	163,(149, 0),3	166,(96, 0),3	169,(95, 0),3	172,(94, 0),3	175,(150, 0),3	178,(93, 0),3	181,(151, 0),3	184,(92, 0),3	187,(91, 0),3	190,(90, 0),3	193,(89, 0),3	196,(88, 0),3	199,(86, 0),3	202,(85, 0),3	205,(84, 0),3	208,(83, 0),3	211,(81, 0),3	214,(80, 0),3	217,(154, 0),3	220,(79, 0),3	223,(155, 0),3	226,(78, 0),3	229,(77, 0),3	232,(75, 0),3	235,(74, 0),3	238,(165, 0),3	241,(164, 0),3	244,(163, 0),3	247,(166, 0),3	250,(73, 0),3	253,(167, 0),3	256,(72, 0),3	259,(171, 0),3	262,(71, 0),3	265,(68, 0),3	268,(66, 0),3	271,(63, 0),3	274,(64, 0),3	277,(57, 0),3	280,(59, 0),3	283,(55, 0),3	286,(56, 0),3	289,(53, 0),3	292,(54, 0),3	295,(51, 0),3	298,(52, 0),3	301,(45, 0),3	304,(44, 0),3	307,(48, 0),3	310,(42, 0),3	313,(176, 0),3	316,(41, 0),3	319,(39, 0),3	322,(38, 0),3	325,(33, 0),3	328,(36, 0),3	331,(30, 0),3	334,(31, 0),3	337,(29, 0),3	340,(37, 0),3	343,(177, 0),3	346,(27, 0),3	349,(26, 0),3	352,(25, 0),3	355,(24, 0),3	358,(23, 0),3	361,(179, 0),3	364,(22, 0),3	367,(195, 0),3	370,(194, 0),3	373,(188, 0),3	376,(196, 0),3	379,(181, 0),3	382,(18, 0),3	385,(197, 0),3	388,(10, 0),3	391,(9, 0),3	394,(6, 0),3	397,(4, 0),3	400,(5, 0),3	403,(13, 0),3	406,(200, 0),3	
28,(201, 128),3	43,(201, 140),3	67,(201, 119),3	79,(201, 120),3	85,(201, 121),3	91,(201, 111),3	97,(201, 109),3	103,(201, 107),3	109,(201, 105),3	115,(201, 143),3	121,(201, 144),3	130,(201, 146),3	142,(201, 147),3	148,(201, 148),3	154,(201, 149),3	160,(201, 95),3	166,(201, 150),3	172,(201, 151),3	178,(201, 91),3	184,(201, 89),3	196,(201, 84),3	220,(201, 77),3	232,(201, 164),3	238,(201, 166),3	244,(201, 167),3	250,(201, 171),3	256,(201, 68),3	265,(201, 64),3	271,(201, 59),3	277,(201, 56),3	283,(201, 54),3	289,(201, 52),3	319,(201, 36),3	325,(201, 31),3	334,(201, 177),3	340,(201, 26),3	358,(201, 195),3	367,(201, 196),3	379,(201, 10),3	388,(201, 4),3	394,(201, 13),3	
4,(201, 135),3	16,(201, 136),3	22,(201, 137),3	34,(201, 126),3	40,(201, 138),3	52,(201, 141),3	76,(201, 113),3	106,(201, 142),3	127,(201, 145),3	133,(201, 101),3	139,(201, 100),3	157,(201, 96),3	190,(201, 86),3	202,(201, 81),3	208,(201, 154),3	214,(201, 155),3	226,(201, 74),3	253,(201, 71),3	304,(201, 176),3	310,(201, 39),3	316,(201, 33),3	331,(201, 37),3	346,(201, 24),3	352,(201, 179),3	376,(201, 197),3	382,(201, 9),3	391,(201, 5),3	397,(201, 200),3	
10,(201, 132),3	46,(201, 124),3	58,(201, 118),3	64,(201, 116),3	70,(201, 115),3	145,(201, 98),3	151,(201, 97),3	163,(201, 94),3	169,(201, 93),3	175,(201, 92),3	181,(201, 90),3	199,(201, 83),3	205,(201, 80),3	229,(201, 165),3	241,(201, 73),3	247,(201, 72),3	259,(201, 66),3	292,(201, 45),3	298,(201, 48),3	337,(201, 27),3	343,(201, 25),3	349,(201, 23),3	361,(201, 194),3	373,(201, 18),3	385,(201, 6),3	
1,(201, 134),3	7,(201, 133),3	13,(201, 131),3	19,(201, 130),3	25,(201, 129),3	31,(201, 127),3	37,(201, 125),3	49,(201, 123),3	55,(201, 122),3	61,(201, 117),3	73,(201, 114),3	82,(201, 112),3	88,(201, 110),3	94,(201, 108),3	100,(201, 106),3	112,(201, 104),3	118,(201, 103),3	124,(201, 102),3	136,(201, 99),3	187,(201, 88),3	193,(201, 85),3	211,(201, 79),3	217,(201, 78),3	223,(201, 75),3	235,(201, 163),3	262,(201, 63),3	268,(201, 57),3	274,(201, 55),3	280,(201, 53),3	286,(201, 51),3	295,(201, 44),3	301,(201, 42),3	307,(201, 41),3	313,(201, 38),3	322,(201, 30),3	328,(201, 29),3	355,(201, 22),3	364,(201, 188),3	370,(201, 181),3	
# Outgoing
1,(201, 134),3	4,(201, 135),3	7,(201, 133),3	10,(201, 132),3	13,(201, 131),3	16,(201, 136),3	19,(201, 130),3	22,(201, 137),3	25,(201, 129),3	28,(201, 128),3	31,(201, 127),3	34,(201, 126),3	37,(201, 125),3	40,(201, 138),3	43,(201, 140),3	46,(201, 124),3	49,(201, 123),3	52,(201, 141),3	55,(201, 122),3	58,(201, 118),3	61,(201, 117),3	64,(201, 116),3	67,(201, 119),3	70,(201, 115),3	73,(201, 114),3	76,(201, 113),3	79,(201, 120),3	82,(201, 112),3	85,(201, 121),3	88,(201, 110),3	91,(201, 111),3	94,(201, 108),3	97,(201, 109),3	100,(201, 106),3	103,(201, 107),3	106,(201, 142),3	109,(201, 105),3	112,(201, 104),3	115,(201, 143),3	118,(201, 103),3	121,(201, 144),3	124,(201, 102),3	127,(201, 145),3	130,(201, 146),3	133,(201, 101),3	136,(201, 99),3	139,(201, 100),3	142,(201, 147),3	145,(201, 98),3	148,(201, 148),3	151,(201, 97),3	154,(201, 149),3	157,(201, 96),3	160,(201, 95),3	163,(201, 94),3	166,(201, 150),3	169,(201, 93),3	172,(201, 151),3	175,(201, 92),3	178,(201, 91),3	181,(201, 90),3	184,(201, 89),3	187,(201, 88),3	190,(201, 86),3	193,(201, 85),3	196,(201, 84),3	199,(201, 83),3	202,(201, 81),3	205,(201, 80),3	208,(201, 154),3	211,(201, 79),3	214,(201, 155),3	217,(201, 78),3	220,(201, 77),3	223,(201, 75),3	226,(201, 74),3	229,(201, 165),3	232,(201, 164),3	235,(201, 163),3	238,(201, 166),3	241,(201, 73),3	244,(201, 167),3	247,(201, 72),3	250,(201, 171),3	253,(201, 71),3	256,(201, 68),3	259,(201, 66),3	262,(201, 63),3	265,(201, 64),3	268,(201, 57),3	271,(201, 59),3	274,(201, 55),3	277,(201, 56),3	280,(201, 53),3	283,(201, 54),3	286,(201, 51),3	289,(201, 52),3	292,(201, 45),3	295,(201, 44),3	298,(201, 48),3	301,(201, 42),3	304,(201, 176),3	307,(201, 41),3	310,(201, 39),3	313,(201, 38),3	316,(201, 33),3	319,(201, 36),3	322,(201, 30),3	325,(201, 31),3	328,(201, 29),3	331,(201, 37),3	334,(201, 177),3	337,(201, 27),3	340,(201, 26),3	343,(201, 25),3	346,(201, 24),3	349,(201, 23),3	352,(201, 179),3	355,(201, 22),3	358,(201, 195),3	361,(201, 194),3	364,(201, 188),3	367,(201, 196),3	370,(201, 181),3	373,(201, 18),3	376,(201, 197),3	379,(201, 10),3	382,(201, 9),3	385,(201, 6),3	388,(201, 4),3	391,(201, 5),3	394,(201, 13),3	397,(201, 200),3	
37,(128, 0),3	52,(140, 0),3	76,(119, 0),3	88,(120, 0),3	94,(121, 0),3	100,(111, 0),3	106,(109, 0),3	112,(107, 0),3	118,(105, 0),3	124,(143, 0),3	130,(144, 0),3	139,(146, 0),3	151,(147, 0),3	157,(148, 0),3	163,(149, 0),3	169,(95, 0),3	175,(150, 0),3	181,(151, 0),3	187,(91, 0),3	193,(89, 0),3	205,(84, 0),3	229,(77, 0),3	241,(164, 0),3	247,(166, 0),3	253,(167, 0),3	259,(171, 0),3	265,(68, 0),3	274,(64, 0),3	280,(59, 0),3	286,(56, 0),3	292,(54, 0),3	298,(52, 0),3	328,(36, 0),3	334,(31, 0),3	343,(177, 0),3	349,(26, 0),3	367,(195, 0),3	376,(196, 0),3	388,(10, 0),3	397,(4, 0),3	403,(13, 0),3	
13,(135, 0),3	25,(136, 0),3	31,(137, 0),3	43,(126, 0),3	49,(138, 0),3	61,(141, 0),3	85,(113, 0),3	115,(142, 0),3	136,(145, 0),3	142,(101, 0),3	148,(100, 0),3	166,(96, 0),3	199,(86, 0),3	211,(81, 0),3	217,(154, 0),3	223,(155, 0),3	235,(74, 0),3	262,(71, 0),3	313,(176, 0),3	319,(39, 0),3	325,(33, 0),3	340,(37, 0),3	355,(24, 0),3	361,(179, 0),3	385,(197, 0),3	391,(9, 0),3	400,(5, 0),3	406,(200, 0),3	
19,(132, 0),3	55,(124, 0),3	67,(118, 0),3	73,(116, 0),3	79,(115, 0),3	154,(98, 0),3	160,(97, 0),3	172,(94, 0),3	178,(93, 0),3	184,(92, 0),3	190,(90, 0),3	208,(83, 0),3	214,(80, 0),3	238,(165, 0),3	250,(73, 0),3	256,(72, 0),3	268,(66, 0),3	301,(45, 0),3	307,(48, 0),3	346,(27, 0),3	352,(25, 0),3	358,(23, 0),3	370,(194, 0),3	382,(18, 0),3	394,(6, 0),3	
10,(134, 0),3	16,(133, 0),3	22,(131, 0),3	28,(130, 0),3	34,(129, 0),3	40,(127, 0),3	46,(125, 0),3	58,(123, 0),3	64,(122, 0),3	70,(117, 0),3	82,(114, 0),3	91,(112, 0),3	97,(110, 0),3	103,(108, 0),3	109,(106, 0),3	121,(104, 0),3	127,(103, 0),3	133,(102, 0),3	145,(99, 0),3	196,(88, 0),3	202,(85, 0),3	220,(79, 0),3	226,(78, 0),3	232,(75, 0),3	244,(163, 0),3	271,(63, 0),3	277,(57, 0),3	283,(55, 0),3	289,(53, 0),3	295,(51, 0),3	304,(44, 0),3	310,(42, 0),3	316,(41, 0),3	322,(38, 0),3	331,(30, 0),3	337,(29, 0),3	364,(22, 0),3	373,(188, 0),3	379,(181, 0),3	
