4438
# CPU
17,5,16	33,10,16	49,15,16	65,20,16	
13,4,16	29,9,16	45,14,16	61,19,16	
9,3,16	25,8,16	41,13,16	57,18,16	
5,2,16	21,7,16	37,12,16	53,17,16	
0,0,1	1,1,16	17,11,16	33,6,16	49,16,16	4437,21,1	
# Incoming
13,(0, 5),4	29,(0, 10),4	45,(0, 15),4	61,(0, 20),4	
9,(0, 4),4	25,(0, 9),4	41,(0, 14),4	57,(0, 19),4	
5,(0, 3),4	21,(0, 8),4	37,(0, 13),4	53,(0, 18),4	
1,(0, 2),4	17,(0, 7),4	33,(0, 12),4	49,(0, 17),4	
21,(2, 21),276	297,(3, 21),276	573,(4, 21),276	849,(5, 21),276	1125,(7, 21),276	1401,(8, 21),276	1677,(9, 21),276	1953,(10, 21),276	2229,(12, 21),276	2505,(13, 21),276	2781,(14, 21),276	3057,(15, 21),276	3333,(17, 21),276	3609,(18, 21),276	3885,(19, 21),276	4161,(20, 21),276	
# Outgoing
849,(5, 21),276	1953,(10, 21),276	3057,(15, 21),276	4161,(20, 21),276	
573,(4, 21),276	1677,(9, 21),276	2781,(14, 21),276	3885,(19, 21),276	
297,(3, 21),276	1401,(8, 21),276	2505,(13, 21),276	3609,(18, 21),276	
21,(2, 21),276	1125,(7, 21),276	2229,(12, 21),276	3333,(17, 21),276	
1,(0, 2),4	5,(0, 3),4	9,(0, 4),4	13,(0, 5),4	17,(0, 7),4	21,(0, 8),4	25,(0, 9),4	29,(0, 10),4	33,(0, 12),4	37,(0, 13),4	41,(0, 14),4	45,(0, 15),4	49,(0, 17),4	53,(0, 18),4	57,(0, 19),4	61,(0, 20),4	
