1291
# CPU
613,10,1	1225,20,1	
545,9,1	1157,19,1	
477,8,1	1089,18,1	
409,7,1	1021,17,1	
341,6,1	953,16,1	
273,5,1	885,15,1	
205,4,1	817,14,1	
137,3,1	749,13,1	
69,2,1	681,12,1	
0,0,1	1,1,1	2,11,1	1290,21,1	
# Incoming
545,(0, 10),68	1157,(0, 20),68	
477,(0, 9),68	1089,(0, 19),68	
409,(0, 8),68	1021,(0, 18),68	
341,(0, 7),68	953,(0, 17),68	
273,(0, 6),68	885,(0, 16),68	
205,(0, 5),68	817,(0, 15),68	
137,(0, 4),68	749,(0, 14),68	
69,(0, 3),68	681,(0, 13),68	
1,(0, 2),68	613,(0, 12),68	
70,(2, 21),64	138,(3, 21),64	206,(4, 21),64	274,(5, 21),64	342,(6, 21),64	410,(7, 21),64	478,(8, 21),64	546,(9, 21),64	614,(10, 21),64	682,(12, 21),64	750,(13, 21),64	818,(14, 21),64	886,(15, 21),64	954,(16, 21),64	1022,(17, 21),64	1090,(18, 21),64	1158,(19, 21),64	1226,(20, 21),64	
# Outgoing
614,(10, 21),64	1226,(20, 21),64	
546,(9, 21),64	1158,(19, 21),64	
478,(8, 21),64	1090,(18, 21),64	
410,(7, 21),64	1022,(17, 21),64	
342,(6, 21),64	954,(16, 21),64	
274,(5, 21),64	886,(15, 21),64	
206,(4, 21),64	818,(14, 21),64	
138,(3, 21),64	750,(13, 21),64	
70,(2, 21),64	682,(12, 21),64	
1,(0, 2),68	69,(0, 3),68	137,(0, 4),68	205,(0, 5),68	273,(0, 6),68	341,(0, 7),68	409,(0, 8),68	477,(0, 9),68	545,(0, 10),68	613,(0, 12),68	681,(0, 13),68	749,(0, 14),68	817,(0, 15),68	885,(0, 16),68	953,(0, 17),68	1021,(0, 18),68	1089,(0, 19),68	1157,(0, 20),68	
