40
# CPU
0,21,1	1,11,2	3,10,2	5,12,2	7,9,2	9,1,2	11,2,2	13,3,2	15,4,2	17,5,2	19,6,2	21,7,2	23,8,2	25,13,2	27,14,2	29,15,2	31,17,2	33,18,2	35,19,2	37,20,2	39,0,1	
29,16,2	


# Incoming
31,(16, 0),4	
1,(21, 16),28	


# Outgoing
1,(21, 16),28	
31,(16, 0),4	


