605
# CPU
0,201,1	1,139,6	7,140,6	13,136,6	19,141,6	25,133,6	31,142,6	37,130,6	43,143,6	49,144,6	55,145,6	61,125,6	67,146,6	73,122,6	79,147,6	85,119,6	91,148,6	97,149,6	103,150,6	109,114,6	115,151,6	121,111,6	127,152,6	133,108,6	139,153,6	145,154,6	151,155,6	157,103,6	163,156,6	169,100,6	175,157,6	181,97,6	187,158,6	193,159,6	199,160,6	205,92,6	211,161,6	217,81,6	223,82,6	229,78,6	235,83,6	241,84,6	247,85,6	253,73,6	259,86,6	265,87,6	271,88,6	277,68,6	283,89,6	289,162,6	295,163,6	301,63,6	307,164,6	313,165,6	319,166,6	325,58,6	331,167,6	337,168,6	343,169,6	349,53,6	355,170,6	361,171,6	367,172,6	373,48,6	379,173,6	385,174,6	391,175,6	397,43,6	403,176,6	409,185,6	415,186,6	421,182,6	427,187,6	433,179,6	439,188,6	445,40,6	451,189,6	457,37,6	463,190,6	469,34,6	475,191,6	481,31,6	487,192,6	493,28,6	499,193,6	505,17,6	511,18,6	517,19,6	523,20,6	529,21,6	535,22,6	541,23,6	547,24,6	553,1,6	559,3,6	565,5,6	571,7,6	577,25,6	583,195,6	589,197,6	595,199,6	
4,138,6	10,137,6	16,135,6	22,134,6	28,132,6	34,131,6	40,129,6	46,128,6	52,127,6	58,126,6	64,124,6	70,123,6	76,121,6	82,120,6	88,118,6	94,117,6	100,116,6	106,115,6	112,113,6	118,112,6	124,110,6	130,109,6	136,107,6	142,106,6	148,105,6	154,104,6	160,102,6	166,101,6	172,99,6	178,98,6	184,96,6	190,95,6	196,94,6	202,93,6	208,91,6	214,90,6	220,80,6	226,79,6	232,77,6	238,76,6	244,75,6	250,74,6	256,72,6	262,71,6	268,70,6	274,69,6	280,67,6	286,66,6	292,65,6	298,64,6	304,62,6	310,61,6	316,60,6	322,59,6	328,57,6	334,56,6	340,55,6	346,54,6	352,52,6	358,51,6	364,50,6	370,49,6	376,47,6	382,46,6	388,45,6	394,44,6	400,42,6	406,41,6	412,184,6	418,183,6	424,181,6	430,180,6	436,178,6	442,177,6	448,39,6	454,38,6	460,36,6	466,35,6	472,33,6	478,32,6	484,30,6	490,29,6	496,27,6	502,26,6	508,16,6	514,15,6	520,14,6	526,13,6	532,12,6	538,11,6	544,10,6	550,9,6	556,2,6	562,4,6	568,6,6	574,8,6	580,194,6	586,196,6	592,198,6	598,200,6	604,0,1	
# Incoming

1,(201, 138),3	4,(201, 137),3	7,(201, 135),3	10,(201, 134),3	13,(201, 132),3	16,(201, 131),3	19,(201, 129),3	22,(201, 128),3	25,(201, 127),3	28,(201, 126),3	31,(201, 124),3	34,(201, 123),3	37,(201, 121),3	40,(201, 120),3	43,(201, 118),3	46,(201, 117),3	49,(201, 116),3	52,(201, 115),3	55,(201, 113),3	58,(201, 112),3	61,(201, 110),3	64,(201, 109),3	67,(201, 107),3	70,(201, 106),3	73,(201, 105),3	76,(201, 104),3	79,(201, 102),3	82,(201, 101),3	85,(201, 99),3	88,(201, 98),3	91,(201, 96),3	94,(201, 95),3	97,(201, 94),3	100,(201, 93),3	103,(201, 91),3	106,(201, 90),3	109,(201, 80),3	112,(201, 79),3	115,(201, 77),3	118,(201, 76),3	121,(201, 75),3	124,(201, 74),3	127,(201, 72),3	130,(201, 71),3	133,(201, 70),3	136,(201, 69),3	139,(201, 67),3	142,(201, 66),3	145,(201, 65),3	148,(201, 64),3	151,(201, 62),3	154,(201, 61),3	157,(201, 60),3	160,(201, 59),3	163,(201, 57),3	166,(201, 56),3	169,(201, 55),3	172,(201, 54),3	175,(201, 52),3	178,(201, 51),3	181,(201, 50),3	184,(201, 49),3	187,(201, 47),3	190,(201, 46),3	193,(201, 45),3	196,(201, 44),3	199,(201, 42),3	202,(201, 41),3	205,(201, 184),3	208,(201, 183),3	211,(201, 181),3	214,(201, 180),3	217,(201, 178),3	220,(201, 177),3	223,(201, 39),3	226,(201, 38),3	229,(201, 36),3	232,(201, 35),3	235,(201, 33),3	238,(201, 32),3	241,(201, 30),3	244,(201, 29),3	247,(201, 27),3	250,(201, 26),3	253,(201, 16),3	256,(201, 15),3	259,(201, 14),3	262,(201, 13),3	265,(201, 12),3	268,(201, 11),3	271,(201, 10),3	274,(201, 9),3	277,(201, 2),3	280,(201, 4),3	283,(201, 6),3	286,(201, 8),3	289,(201, 194),3	292,(201, 196),3	295,(201, 198),3	298,(201, 200),3	301,(139, 0),3	304,(140, 0),3	307,(136, 0),3	310,(141, 0),3	313,(133, 0),3	316,(142, 0),3	319,(130, 0),3	322,(143, 0),3	325,(144, 0),3	328,(145, 0),3	331,(125, 0),3	334,(146, 0),3	337,(122, 0),3	340,(147, 0),3	343,(119, 0),3	346,(148, 0),3	349,(149, 0),3	352,(150, 0),3	355,(114, 0),3	358,(151, 0),3	361,(111, 0),3	364,(152, 0),3	367,(108, 0),3	370,(153, 0),3	373,(154, 0),3	376,(155, 0),3	379,(103, 0),3	382,(156, 0),3	385,(100, 0),3	388,(157, 0),3	391,(97, 0),3	394,(158, 0),3	397,(159, 0),3	400,(160, 0),3	403,(92, 0),3	406,(161, 0),3	409,(81, 0),3	412,(82, 0),3	415,(78, 0),3	418,(83, 0),3	421,(84, 0),3	424,(85, 0),3	427,(73, 0),3	430,(86, 0),3	433,(87, 0),3	436,(88, 0),3	439,(68, 0),3	442,(89, 0),3	445,(162, 0),3	448,(163, 0),3	451,(63, 0),3	454,(164, 0),3	457,(165, 0),3	460,(166, 0),3	463,(58, 0),3	466,(167, 0),3	469,(168, 0),3	472,(169, 0),3	475,(53, 0),3	478,(170, 0),3	481,(171, 0),3	484,(172, 0),3	487,(48, 0),3	490,(173, 0),3	493,(174, 0),3	496,(175, 0),3	499,(43, 0),3	502,(176, 0),3	505,(185, 0),3	508,(186, 0),3	511,(182, 0),3	514,(187, 0),3	517,(179, 0),3	520,(188, 0),3	523,(40, 0),3	526,(189, 0),3	529,(37, 0),3	532,(190, 0),3	535,(34, 0),3	538,(191, 0),3	541,(31, 0),3	544,(192, 0),3	547,(28, 0),3	550,(193, 0),3	553,(17, 0),3	556,(18, 0),3	559,(19, 0),3	562,(20, 0),3	565,(21, 0),3	568,(22, 0),3	571,(23, 0),3	574,(24, 0),3	577,(1, 0),3	580,(3, 0),3	583,(5, 0),3	586,(7, 0),3	589,(25, 0),3	592,(195, 0),3	595,(197, 0),3	601,(199, 0),3	
# Outgoing
1,(201, 138),3	4,(201, 137),3	7,(201, 135),3	10,(201, 134),3	13,(201, 132),3	16,(201, 131),3	19,(201, 129),3	22,(201, 128),3	25,(201, 127),3	28,(201, 126),3	31,(201, 124),3	34,(201, 123),3	37,(201, 121),3	40,(201, 120),3	43,(201, 118),3	46,(201, 117),3	49,(201, 116),3	52,(201, 115),3	55,(201, 113),3	58,(201, 112),3	61,(201, 110),3	64,(201, 109),3	67,(201, 107),3	70,(201, 106),3	73,(201, 105),3	76,(201, 104),3	79,(201, 102),3	82,(201, 101),3	85,(201, 99),3	88,(201, 98),3	91,(201, 96),3	94,(201, 95),3	97,(201, 94),3	100,(201, 93),3	103,(201, 91),3	106,(201, 90),3	109,(201, 80),3	112,(201, 79),3	115,(201, 77),3	118,(201, 76),3	121,(201, 75),3	124,(201, 74),3	127,(201, 72),3	130,(201, 71),3	133,(201, 70),3	136,(201, 69),3	139,(201, 67),3	142,(201, 66),3	145,(201, 65),3	148,(201, 64),3	151,(201, 62),3	154,(201, 61),3	157,(201, 60),3	160,(201, 59),3	163,(201, 57),3	166,(201, 56),3	169,(201, 55),3	172,(201, 54),3	175,(201, 52),3	178,(201, 51),3	181,(201, 50),3	184,(201, 49),3	187,(201, 47),3	190,(201, 46),3	193,(201, 45),3	196,(201, 44),3	199,(201, 42),3	202,(201, 41),3	205,(201, 184),3	208,(201, 183),3	211,(201, 181),3	214,(201, 180),3	217,(201, 178),3	220,(201, 177),3	223,(201, 39),3	226,(201, 38),3	229,(201, 36),3	232,(201, 35),3	235,(201, 33),3	238,(201, 32),3	241,(201, 30),3	244,(201, 29),3	247,(201, 27),3	250,(201, 26),3	253,(201, 16),3	256,(201, 15),3	259,(201, 14),3	262,(201, 13),3	265,(201, 12),3	268,(201, 11),3	271,(201, 10),3	274,(201, 9),3	277,(201, 2),3	280,(201, 4),3	283,(201, 6),3	286,(201, 8),3	289,(201, 194),3	292,(201, 196),3	295,(201, 198),3	298,(201, 200),3	301,(139, 0),3	304,(140, 0),3	307,(136, 0),3	310,(141, 0),3	313,(133, 0),3	316,(142, 0),3	319,(130, 0),3	322,(143, 0),3	325,(144, 0),3	328,(145, 0),3	331,(125, 0),3	334,(146, 0),3	337,(122, 0),3	340,(147, 0),3	343,(119, 0),3	346,(148, 0),3	349,(149, 0),3	352,(150, 0),3	355,(114, 0),3	358,(151, 0),3	361,(111, 0),3	364,(152, 0),3	367,(108, 0),3	370,(153, 0),3	373,(154, 0),3	376,(155, 0),3	379,(103, 0),3	382,(156, 0),3	385,(100, 0),3	388,(157, 0),3	391,(97, 0),3	394,(158, 0),3	397,(159, 0),3	400,(160, 0),3	403,(92, 0),3	406,(161, 0),3	409,(81, 0),3	412,(82, 0),3	415,(78, 0),3	418,(83, 0),3	421,(84, 0),3	424,(85, 0),3	427,(73, 0),3	430,(86, 0),3	433,(87, 0),3	436,(88, 0),3	439,(68, 0),3	442,(89, 0),3	445,(162, 0),3	448,(163, 0),3	451,(63, 0),3	454,(164, 0),3	457,(165, 0),3	460,(166, 0),3	463,(58, 0),3	466,(167, 0),3	469,(168, 0),3	472,(169, 0),3	475,(53, 0),3	478,(170, 0),3	481,(171, 0),3	484,(172, 0),3	487,(48, 0),3	490,(173, 0),3	493,(174, 0),3	496,(175, 0),3	499,(43, 0),3	502,(176, 0),3	505,(185, 0),3	508,(186, 0),3	511,(182, 0),3	514,(187, 0),3	517,(179, 0),3	520,(188, 0),3	523,(40, 0),3	526,(189, 0),3	529,(37, 0),3	532,(190, 0),3	535,(34, 0),3	538,(191, 0),3	541,(31, 0),3	544,(192, 0),3	547,(28, 0),3	550,(193, 0),3	553,(17, 0),3	556,(18, 0),3	559,(19, 0),3	562,(20, 0),3	565,(21, 0),3	568,(22, 0),3	571,(23, 0),3	574,(24, 0),3	577,(1, 0),3	580,(3, 0),3	583,(5, 0),3	586,(7, 0),3	589,(25, 0),3	592,(195, 0),3	595,(197, 0),3	601,(199, 0),3	

