488
# CPU
0,201,1	1,200,6	7,138,6	13,139,6	19,140,6	25,137,6	31,141,6	37,142,6	43,143,6	49,144,6	55,136,6	61,145,6	67,146,6	73,135,6	79,147,6	85,149,6	91,148,6	97,150,6	103,133,6	109,151,6	115,152,6	121,153,6	127,154,6	133,155,6	139,132,6	145,156,6	151,131,6	157,158,6	163,159,6	169,157,6	175,160,6	181,80,6	187,78,6	193,76,6	199,75,6	205,73,6	211,72,6	217,70,6	223,69,6	229,67,6	235,66,6	241,64,6	247,62,6	253,61,6	259,60,6	265,57,6	271,56,6	277,55,6	283,53,6	289,51,6	295,50,6	301,48,6	307,47,6	313,45,6	319,44,6	325,42,6	331,184,6	337,185,6	343,183,6	349,186,6	355,187,6	361,182,6	367,188,6	373,189,6	379,181,6	385,190,6	391,52,6	397,191,6	403,192,6	409,16,6	415,15,6	421,14,6	427,13,6	433,11,6	439,10,6	445,1,6	451,2,6	457,3,6	463,4,6	469,7,6	475,19,6	481,199,6	487,0,1	
9,130,6	21,128,6	33,126,6	41,121,6	49,119,6	57,118,6	69,115,6	77,111,6	85,109,6	93,107,6	105,105,6	121,99,6	133,96,6	141,94,6	153,92,6	161,88,6	169,86,6	181,161,6	189,102,6	197,163,6	209,165,6	225,167,6	233,168,6	241,169,6	249,170,6	257,171,6	265,172,6	273,173,6	289,175,6	297,176,6	313,178,6	325,180,6	341,37,6	353,34,6	361,32,6	373,29,6	381,27,6	393,25,6	405,49,6	413,193,6	421,194,6	433,195,6	441,196,6	453,17,6	461,5,6	469,8,6	477,198,6	
5,134,6	13,129,6	29,124,6	45,120,6	61,116,6	89,108,6	97,106,6	109,103,6	117,100,6	125,98,6	137,95,6	145,93,6	173,123,6	185,162,6	205,164,6	213,84,6	221,166,6	237,81,6	281,174,6	301,177,6	309,58,6	317,179,6	333,39,6	349,35,6	365,31,6	377,28,6	385,26,6	397,23,6	429,22,6	449,12,6	457,18,6	465,6,6	473,197,6	
17,127,6	25,125,6	37,122,6	53,117,6	65,114,6	73,112,6	81,110,6	101,104,6	113,101,6	129,97,6	149,91,6	157,89,6	165,87,6	177,113,6	193,90,6	201,85,6	217,83,6	229,82,6	245,79,6	253,77,6	261,74,6	269,71,6	277,68,6	285,65,6	293,63,6	305,59,6	321,54,6	329,40,6	337,38,6	345,36,6	357,33,6	369,30,6	389,24,6	401,21,6	409,46,6	417,43,6	425,41,6	437,20,6	445,9,6	
# Incoming
11,(134, 0),2	15,(130, 0),2	19,(129, 0),2	23,(127, 0),2	27,(128, 0),2	31,(125, 0),2	35,(124, 0),2	39,(126, 0),2	43,(122, 0),2	47,(121, 0),2	51,(120, 0),2	55,(119, 0),2	59,(117, 0),2	63,(118, 0),2	67,(116, 0),2	71,(114, 0),2	75,(115, 0),2	79,(112, 0),2	83,(111, 0),2	87,(110, 0),2	91,(109, 0),2	95,(108, 0),2	99,(107, 0),2	103,(106, 0),2	107,(104, 0),2	111,(105, 0),2	115,(103, 0),2	119,(101, 0),2	123,(100, 0),2	127,(99, 0),2	131,(98, 0),2	135,(97, 0),2	139,(96, 0),2	143,(95, 0),2	147,(94, 0),2	151,(93, 0),2	155,(91, 0),2	159,(92, 0),2	163,(89, 0),2	167,(88, 0),2	171,(87, 0),2	175,(86, 0),2	179,(123, 0),2	183,(113, 0),2	187,(161, 0),2	191,(162, 0),2	195,(102, 0),2	199,(90, 0),2	203,(163, 0),2	207,(85, 0),2	211,(164, 0),2	215,(165, 0),2	219,(84, 0),2	223,(83, 0),2	227,(166, 0),2	231,(167, 0),2	235,(82, 0),2	239,(168, 0),2	243,(81, 0),2	247,(169, 0),2	251,(79, 0),2	255,(170, 0),2	259,(77, 0),2	263,(171, 0),2	267,(74, 0),2	271,(172, 0),2	275,(71, 0),2	279,(173, 0),2	283,(68, 0),2	287,(174, 0),2	291,(65, 0),2	295,(175, 0),2	299,(63, 0),2	303,(176, 0),2	307,(177, 0),2	311,(59, 0),2	315,(58, 0),2	319,(178, 0),2	323,(179, 0),2	327,(54, 0),2	331,(180, 0),2	335,(40, 0),2	339,(39, 0),2	343,(38, 0),2	347,(37, 0),2	351,(36, 0),2	355,(35, 0),2	359,(34, 0),2	363,(33, 0),2	367,(32, 0),2	371,(31, 0),2	375,(30, 0),2	379,(29, 0),2	383,(28, 0),2	387,(27, 0),2	391,(26, 0),2	395,(24, 0),2	399,(25, 0),2	403,(23, 0),2	407,(21, 0),2	411,(49, 0),2	415,(46, 0),2	419,(193, 0),2	423,(43, 0),2	427,(194, 0),2	431,(41, 0),2	435,(22, 0),2	439,(195, 0),2	443,(20, 0),2	447,(196, 0),2	451,(9, 0),2	455,(12, 0),2	459,(17, 0),2	463,(18, 0),2	467,(5, 0),2	471,(6, 0),2	475,(8, 0),2	479,(197, 0),2	483,(198, 0),2	
5,(201, 130),4	17,(201, 128),4	29,(201, 126),4	37,(201, 121),4	45,(201, 119),4	53,(201, 118),4	65,(201, 115),4	73,(201, 111),4	81,(201, 109),4	89,(201, 107),4	101,(201, 105),4	117,(201, 99),4	129,(201, 96),4	137,(201, 94),4	149,(201, 92),4	157,(201, 88),4	165,(201, 86),4	177,(201, 161),4	185,(201, 102),4	193,(201, 163),4	205,(201, 165),4	221,(201, 167),4	229,(201, 168),4	237,(201, 169),4	245,(201, 170),4	253,(201, 171),4	261,(201, 172),4	269,(201, 173),4	285,(201, 175),4	293,(201, 176),4	309,(201, 178),4	321,(201, 180),4	337,(201, 37),4	349,(201, 34),4	357,(201, 32),4	369,(201, 29),4	377,(201, 27),4	389,(201, 25),4	401,(201, 49),4	409,(201, 193),4	417,(201, 194),4	429,(201, 195),4	437,(201, 196),4	449,(201, 17),4	457,(201, 5),4	465,(201, 8),4	473,(201, 198),4	
1,(201, 134),4	9,(201, 129),4	25,(201, 124),4	41,(201, 120),4	57,(201, 116),4	85,(201, 108),4	93,(201, 106),4	105,(201, 103),4	113,(201, 100),4	121,(201, 98),4	133,(201, 95),4	141,(201, 93),4	169,(201, 123),4	181,(201, 162),4	201,(201, 164),4	209,(201, 84),4	217,(201, 166),4	233,(201, 81),4	277,(201, 174),4	297,(201, 177),4	305,(201, 58),4	313,(201, 179),4	329,(201, 39),4	345,(201, 35),4	361,(201, 31),4	373,(201, 28),4	381,(201, 26),4	393,(201, 23),4	425,(201, 22),4	445,(201, 12),4	453,(201, 18),4	461,(201, 6),4	469,(201, 197),4	
13,(201, 127),4	21,(201, 125),4	33,(201, 122),4	49,(201, 117),4	61,(201, 114),4	69,(201, 112),4	77,(201, 110),4	97,(201, 104),4	109,(201, 101),4	125,(201, 97),4	145,(201, 91),4	153,(201, 89),4	161,(201, 87),4	173,(201, 113),4	189,(201, 90),4	197,(201, 85),4	213,(201, 83),4	225,(201, 82),4	241,(201, 79),4	249,(201, 77),4	257,(201, 74),4	265,(201, 71),4	273,(201, 68),4	281,(201, 65),4	289,(201, 63),4	301,(201, 59),4	317,(201, 54),4	325,(201, 40),4	333,(201, 38),4	341,(201, 36),4	353,(201, 33),4	365,(201, 30),4	385,(201, 24),4	397,(201, 21),4	405,(201, 46),4	413,(201, 43),4	421,(201, 41),4	433,(201, 20),4	441,(201, 9),4	
# Outgoing
1,(201, 134),4	5,(201, 130),4	9,(201, 129),4	13,(201, 127),4	17,(201, 128),4	21,(201, 125),4	25,(201, 124),4	29,(201, 126),4	33,(201, 122),4	37,(201, 121),4	41,(201, 120),4	45,(201, 119),4	49,(201, 117),4	53,(201, 118),4	57,(201, 116),4	61,(201, 114),4	65,(201, 115),4	69,(201, 112),4	73,(201, 111),4	77,(201, 110),4	81,(201, 109),4	85,(201, 108),4	89,(201, 107),4	93,(201, 106),4	97,(201, 104),4	101,(201, 105),4	105,(201, 103),4	109,(201, 101),4	113,(201, 100),4	117,(201, 99),4	121,(201, 98),4	125,(201, 97),4	129,(201, 96),4	133,(201, 95),4	137,(201, 94),4	141,(201, 93),4	145,(201, 91),4	149,(201, 92),4	153,(201, 89),4	157,(201, 88),4	161,(201, 87),4	165,(201, 86),4	169,(201, 123),4	173,(201, 113),4	177,(201, 161),4	181,(201, 162),4	185,(201, 102),4	189,(201, 90),4	193,(201, 163),4	197,(201, 85),4	201,(201, 164),4	205,(201, 165),4	209,(201, 84),4	213,(201, 83),4	217,(201, 166),4	221,(201, 167),4	225,(201, 82),4	229,(201, 168),4	233,(201, 81),4	237,(201, 169),4	241,(201, 79),4	245,(201, 170),4	249,(201, 77),4	253,(201, 171),4	257,(201, 74),4	261,(201, 172),4	265,(201, 71),4	269,(201, 173),4	273,(201, 68),4	277,(201, 174),4	281,(201, 65),4	285,(201, 175),4	289,(201, 63),4	293,(201, 176),4	297,(201, 177),4	301,(201, 59),4	305,(201, 58),4	309,(201, 178),4	313,(201, 179),4	317,(201, 54),4	321,(201, 180),4	325,(201, 40),4	329,(201, 39),4	333,(201, 38),4	337,(201, 37),4	341,(201, 36),4	345,(201, 35),4	349,(201, 34),4	353,(201, 33),4	357,(201, 32),4	361,(201, 31),4	365,(201, 30),4	369,(201, 29),4	373,(201, 28),4	377,(201, 27),4	381,(201, 26),4	385,(201, 24),4	389,(201, 25),4	393,(201, 23),4	397,(201, 21),4	401,(201, 49),4	405,(201, 46),4	409,(201, 193),4	413,(201, 43),4	417,(201, 194),4	421,(201, 41),4	425,(201, 22),4	429,(201, 195),4	433,(201, 20),4	437,(201, 196),4	441,(201, 9),4	445,(201, 12),4	449,(201, 17),4	453,(201, 18),4	457,(201, 5),4	461,(201, 6),4	465,(201, 8),4	469,(201, 197),4	473,(201, 198),4	
15,(130, 0),2	27,(128, 0),2	39,(126, 0),2	47,(121, 0),2	55,(119, 0),2	63,(118, 0),2	75,(115, 0),2	83,(111, 0),2	91,(109, 0),2	99,(107, 0),2	111,(105, 0),2	127,(99, 0),2	139,(96, 0),2	147,(94, 0),2	159,(92, 0),2	167,(88, 0),2	175,(86, 0),2	187,(161, 0),2	195,(102, 0),2	203,(163, 0),2	215,(165, 0),2	231,(167, 0),2	239,(168, 0),2	247,(169, 0),2	255,(170, 0),2	263,(171, 0),2	271,(172, 0),2	279,(173, 0),2	295,(175, 0),2	303,(176, 0),2	319,(178, 0),2	331,(180, 0),2	347,(37, 0),2	359,(34, 0),2	367,(32, 0),2	379,(29, 0),2	387,(27, 0),2	399,(25, 0),2	411,(49, 0),2	419,(193, 0),2	427,(194, 0),2	439,(195, 0),2	447,(196, 0),2	459,(17, 0),2	467,(5, 0),2	475,(8, 0),2	483,(198, 0),2	
11,(134, 0),2	19,(129, 0),2	35,(124, 0),2	51,(120, 0),2	67,(116, 0),2	95,(108, 0),2	103,(106, 0),2	115,(103, 0),2	123,(100, 0),2	131,(98, 0),2	143,(95, 0),2	151,(93, 0),2	179,(123, 0),2	191,(162, 0),2	211,(164, 0),2	219,(84, 0),2	227,(166, 0),2	243,(81, 0),2	287,(174, 0),2	307,(177, 0),2	315,(58, 0),2	323,(179, 0),2	339,(39, 0),2	355,(35, 0),2	371,(31, 0),2	383,(28, 0),2	391,(26, 0),2	403,(23, 0),2	435,(22, 0),2	455,(12, 0),2	463,(18, 0),2	471,(6, 0),2	479,(197, 0),2	
23,(127, 0),2	31,(125, 0),2	43,(122, 0),2	59,(117, 0),2	71,(114, 0),2	79,(112, 0),2	87,(110, 0),2	107,(104, 0),2	119,(101, 0),2	135,(97, 0),2	155,(91, 0),2	163,(89, 0),2	171,(87, 0),2	183,(113, 0),2	199,(90, 0),2	207,(85, 0),2	223,(83, 0),2	235,(82, 0),2	251,(79, 0),2	259,(77, 0),2	267,(74, 0),2	275,(71, 0),2	283,(68, 0),2	291,(65, 0),2	299,(63, 0),2	311,(59, 0),2	327,(54, 0),2	335,(40, 0),2	343,(38, 0),2	351,(36, 0),2	363,(33, 0),2	375,(30, 0),2	395,(24, 0),2	407,(21, 0),2	415,(46, 0),2	423,(43, 0),2	431,(41, 0),2	443,(20, 0),2	451,(9, 0),2	
