36
# CPU
0,21,1	1,11,2	3,10,2	5,12,2	7,9,2	9,1,2	11,2,2	13,3,2	15,4,2	17,5,2	19,6,2	21,7,2	23,8,2	25,13,2	27,14,2	29,18,2	31,19,2	33,20,2	35,0,1	
28,16,2	
10,17,2	19,15,2	

# Incoming
12,(17, 0),3	21,(15, 0),3	30,(16, 0),3	
19,(21, 16),9	
1,(21, 17),9	10,(21, 15),9	

# Outgoing
1,(21, 17),9	10,(21, 15),9	19,(21, 16),9	
30,(16, 0),3	
12,(17, 0),3	21,(15, 0),3	

