185
# CPU
0,201,1	1,139,1	2,138,1	3,140,1	4,137,1	5,136,1	6,135,1	7,141,1	8,134,1	9,133,1	10,132,1	11,83,1	12,82,1	13,131,1	14,143,1	15,130,1	16,144,1	17,129,1	18,145,1	19,128,1	20,127,1	21,162,1	22,77,1	23,125,1	24,124,1	25,146,1	26,123,1	27,122,1	28,121,1	29,147,1	30,120,1	31,73,1	32,165,1	33,119,1	34,118,1	35,117,1	36,149,1	37,116,1	38,115,1	39,114,1	40,150,1	41,172,1	42,166,1	43,111,1	44,110,1	45,113,1	46,109,1	47,151,1	48,108,1	49,107,1	50,106,1	51,64,1	52,63,1	53,105,1	54,153,1	55,104,1	56,103,1	57,102,1	58,154,1	59,101,1	60,155,1	61,59,1	62,159,1	63,99,1	64,98,1	65,100,1	66,97,1	67,88,1	68,87,1	69,89,1	70,86,1	71,174,1	72,53,1	73,85,1	74,90,1	75,81,1	76,91,1	77,80,1	78,79,1	79,78,1	80,92,1	81,176,1	82,44,1	83,93,1	84,75,1	85,74,1	86,72,1	87,94,1	88,71,1	89,95,1	90,70,1	91,40,1	92,39,1	93,69,1	94,157,1	95,68,1	96,158,1	97,67,1	98,160,1	99,66,1	100,65,1	101,58,1	102,36,1	103,163,1	104,62,1	105,164,1	106,61,1	107,60,1	108,57,1	109,167,1	110,56,1	111,31,1	112,32,1	113,169,1	114,55,1	115,54,1	116,170,1	117,52,1	118,171,1	119,51,1	120,173,1	121,28,1	122,47,1	123,175,1	124,49,1	125,185,1	126,184,1	127,186,1	128,183,1	129,182,1	130,181,1	131,23,1	132,30,1	133,180,1	134,188,1	135,179,1	136,178,1	137,177,1	138,189,1	139,48,1	140,46,1	141,1,1	142,25,1	143,45,1	144,43,1	145,191,1	146,42,1	147,41,1	148,38,1	149,192,1	150,37,1	151,35,1	152,19,1	153,193,1	154,18,1	155,17,1	156,20,1	157,16,1	158,21,1	159,15,1	160,22,1	161,27,1	162,197,1	163,13,1	164,12,1	165,24,1	166,11,1	167,26,1	168,10,1	169,2,1	170,3,1	171,4,1	172,6,1	173,7,1	174,8,1	175,9,1	176,29,1	177,33,1	178,194,1	179,195,1	180,196,1	181,198,1	182,200,1	184,0,1	
11,142,1	21,126,1	31,148,1	41,112,1	51,152,1	61,156,1	71,84,1	81,76,1	91,96,1	101,161,1	111,168,1	121,50,1	131,187,1	141,190,1	151,34,1	161,14,1	171,5,1	181,199,1	
# Incoming
12,(142, 0),2	22,(126, 0),2	32,(148, 0),2	42,(112, 0),2	52,(152, 0),2	62,(156, 0),2	72,(84, 0),2	82,(76, 0),2	92,(96, 0),2	102,(161, 0),2	112,(168, 0),2	122,(50, 0),2	132,(187, 0),2	142,(190, 0),2	152,(34, 0),2	162,(14, 0),2	172,(5, 0),2	182,(199, 0),2	
1,(201, 142),10	11,(201, 126),10	21,(201, 148),10	31,(201, 112),10	41,(201, 152),10	51,(201, 156),10	61,(201, 84),10	71,(201, 76),10	81,(201, 96),10	91,(201, 161),10	101,(201, 168),10	111,(201, 50),10	121,(201, 187),10	131,(201, 190),10	141,(201, 34),10	151,(201, 14),10	161,(201, 5),10	171,(201, 199),10	
# Outgoing
1,(201, 142),10	11,(201, 126),10	21,(201, 148),10	31,(201, 112),10	41,(201, 152),10	51,(201, 156),10	61,(201, 84),10	71,(201, 76),10	81,(201, 96),10	91,(201, 161),10	101,(201, 168),10	111,(201, 50),10	121,(201, 187),10	131,(201, 190),10	141,(201, 34),10	151,(201, 14),10	161,(201, 5),10	171,(201, 199),10	
12,(142, 0),2	22,(126, 0),2	32,(148, 0),2	42,(112, 0),2	52,(152, 0),2	62,(156, 0),2	72,(84, 0),2	82,(76, 0),2	92,(96, 0),2	102,(161, 0),2	112,(168, 0),2	122,(50, 0),2	132,(187, 0),2	142,(190, 0),2	152,(34, 0),2	162,(14, 0),2	172,(5, 0),2	182,(199, 0),2	
