169
# CPU
0,201,1	1,139,1	2,138,1	3,140,1	4,137,1	5,136,1	6,85,1	7,113,1	8,135,1	9,134,1	10,142,1	11,83,1	12,69,1	13,143,1	14,132,1	15,144,1	16,161,1	17,168,1	18,129,1	19,128,1	20,130,1	21,78,1	22,65,1	23,145,1	24,126,1	25,125,1	26,77,1	27,63,1	28,147,1	29,124,1	30,148,1	31,164,1	32,171,1	33,121,1	34,120,1	35,119,1	36,163,1	37,172,1	38,116,1	39,115,1	40,117,1	41,70,1	42,56,1	43,149,1	44,114,1	45,112,1	46,68,1	47,174,1	48,110,1	49,109,1	50,111,1	51,166,1	52,91,1	53,108,1	54,106,1	55,151,1	56,60,1	57,155,1	58,104,1	59,103,1	60,105,1	61,58,1	62,86,1	63,95,1	64,93,1	65,92,1	66,173,1	67,41,1	68,96,1	69,89,1	70,97,1	71,175,1	72,39,1	73,88,1	74,84,1	75,98,1	76,46,1	77,37,1	78,82,1	79,81,1	80,100,1	81,45,1	82,35,1	83,102,1	84,80,1	85,79,1	86,43,1	87,33,1	88,154,1	89,76,1	90,156,1	91,183,1	92,67,1	93,75,1	94,73,1	95,157,1	96,184,1	97,29,1	98,71,1	99,66,1	100,158,1	101,185,1	102,27,1	103,159,1	104,62,1	105,61,1	106,186,1	107,25,1	108,160,1	109,57,1	110,162,1	111,31,1	112,52,1	113,165,1	114,54,1	115,181,1	116,28,1	117,178,1	118,180,1	119,179,1	120,187,1	121,23,1	122,44,1	123,188,1	124,176,1	125,170,1	126,32,1	127,191,1	128,167,1	129,53,1	130,169,1	131,24,1	132,192,1	133,50,1	134,49,1	135,48,1	136,1,1	137,193,1	138,42,1	139,40,1	140,47,1	141,2,1	142,36,1	143,18,1	144,17,1	145,20,1	146,12,1	147,30,1	148,16,1	149,15,1	150,22,1	151,10,1	152,8,1	153,34,1	154,14,1	155,3,1	156,11,1	157,197,1	158,5,1	159,6,1	160,7,1	161,13,1	162,38,1	163,194,1	164,195,1	165,196,1	166,198,1	167,200,1	168,0,1	
6,141,1	11,133,1	16,131,1	21,127,1	26,146,1	31,122,1	36,118,1	41,123,1	46,150,1	51,107,1	56,152,1	61,94,1	66,90,1	71,87,1	76,99,1	81,101,1	86,153,1	91,74,1	96,72,1	101,64,1	106,59,1	111,55,1	116,182,1	121,177,1	126,189,1	131,51,1	136,190,1	141,19,1	146,21,1	151,26,1	156,4,1	161,9,1	166,199,1	
# Incoming
7,(141, 0),1	12,(133, 0),1	17,(131, 0),1	22,(127, 0),1	27,(146, 0),1	32,(122, 0),1	37,(118, 0),1	42,(123, 0),1	47,(150, 0),1	52,(107, 0),1	57,(152, 0),1	62,(94, 0),1	67,(90, 0),1	72,(87, 0),1	77,(99, 0),1	82,(101, 0),1	87,(153, 0),1	92,(74, 0),1	97,(72, 0),1	102,(64, 0),1	107,(59, 0),1	112,(55, 0),1	117,(182, 0),1	122,(177, 0),1	127,(189, 0),1	132,(51, 0),1	137,(190, 0),1	142,(19, 0),1	147,(21, 0),1	152,(26, 0),1	157,(4, 0),1	162,(9, 0),1	167,(199, 0),1	
1,(201, 141),5	6,(201, 133),5	11,(201, 131),5	16,(201, 127),5	21,(201, 146),5	26,(201, 122),5	31,(201, 118),5	36,(201, 123),5	41,(201, 150),5	46,(201, 107),5	51,(201, 152),5	56,(201, 94),5	61,(201, 90),5	66,(201, 87),5	71,(201, 99),5	76,(201, 101),5	81,(201, 153),5	86,(201, 74),5	91,(201, 72),5	96,(201, 64),5	101,(201, 59),5	106,(201, 55),5	111,(201, 182),5	116,(201, 177),5	121,(201, 189),5	126,(201, 51),5	131,(201, 190),5	136,(201, 19),5	141,(201, 21),5	146,(201, 26),5	151,(201, 4),5	156,(201, 9),5	161,(201, 199),5	
# Outgoing
1,(201, 141),5	6,(201, 133),5	11,(201, 131),5	16,(201, 127),5	21,(201, 146),5	26,(201, 122),5	31,(201, 118),5	36,(201, 123),5	41,(201, 150),5	46,(201, 107),5	51,(201, 152),5	56,(201, 94),5	61,(201, 90),5	66,(201, 87),5	71,(201, 99),5	76,(201, 101),5	81,(201, 153),5	86,(201, 74),5	91,(201, 72),5	96,(201, 64),5	101,(201, 59),5	106,(201, 55),5	111,(201, 182),5	116,(201, 177),5	121,(201, 189),5	126,(201, 51),5	131,(201, 190),5	136,(201, 19),5	141,(201, 21),5	146,(201, 26),5	151,(201, 4),5	156,(201, 9),5	161,(201, 199),5	
7,(141, 0),1	12,(133, 0),1	17,(131, 0),1	22,(127, 0),1	27,(146, 0),1	32,(122, 0),1	37,(118, 0),1	42,(123, 0),1	47,(150, 0),1	52,(107, 0),1	57,(152, 0),1	62,(94, 0),1	67,(90, 0),1	72,(87, 0),1	77,(99, 0),1	82,(101, 0),1	87,(153, 0),1	92,(74, 0),1	97,(72, 0),1	102,(64, 0),1	107,(59, 0),1	112,(55, 0),1	117,(182, 0),1	122,(177, 0),1	127,(189, 0),1	132,(51, 0),1	137,(190, 0),1	142,(19, 0),1	147,(21, 0),1	152,(26, 0),1	157,(4, 0),1	162,(9, 0),1	167,(199, 0),1	
