4839
# CPU
49,2,10	97,4,10	145,6,10	193,8,10	241,10,10	289,12,10	337,14,10	385,16,10	433,18,10	481,20,10	529,22,10	577,24,10	625,26,10	673,28,10	721,30,10	769,32,10	817,34,10	865,36,10	913,38,10	961,40,10	1009,42,10	1057,44,10	1105,46,10	1153,48,10	1201,50,10	1249,52,10	1297,54,10	1345,56,10	1393,58,10	1441,60,10	1489,62,10	1537,64,10	1585,66,10	1633,68,10	1681,70,10	1729,72,10	1777,74,10	1825,76,10	1873,78,10	1921,80,10	1969,82,10	2017,84,10	2065,86,10	2113,88,10	2161,90,10	2209,92,10	2257,94,10	2305,96,10	2353,98,10	2401,100,10	2449,102,10	2497,104,10	2545,106,10	2593,108,10	2641,110,10	2689,112,10	2737,114,10	2785,116,10	2833,118,10	2881,120,10	2929,122,10	2977,124,10	3025,126,10	3073,128,10	3121,130,10	3169,132,10	3217,134,10	3265,136,10	3313,138,10	3361,140,10	3409,142,10	3457,144,10	3505,146,10	3553,148,10	3601,150,10	3649,152,10	3697,154,10	3745,156,10	3793,158,10	3841,160,10	3889,162,10	3937,164,10	3985,166,10	4033,168,10	4081,170,10	4129,172,10	4177,174,10	4225,176,10	4273,178,10	4321,180,10	4369,182,10	4417,184,10	4465,186,10	4513,188,10	4561,190,10	4609,192,10	4657,194,10	4705,196,10	4753,198,10	4801,200,10	
0,0,1	1,1,10	11,5,10	21,13,10	31,29,10	41,61,10	51,125,10	61,199,10	71,197,10	81,195,10	91,193,10	101,191,10	111,189,10	121,187,10	131,185,10	141,183,10	151,181,10	161,179,10	171,177,10	181,175,10	191,173,10	201,171,10	211,169,10	221,167,10	231,165,10	241,163,10	251,161,10	261,159,10	271,157,10	281,155,10	291,153,10	301,151,10	311,149,10	321,147,10	331,145,10	341,143,10	351,141,10	361,139,10	371,137,10	381,135,10	391,133,10	401,131,10	411,129,10	421,123,10	431,127,10	441,121,10	451,119,10	461,117,10	471,115,10	481,113,10	491,111,10	501,109,10	511,107,10	521,105,10	531,103,10	541,101,10	551,99,10	561,97,10	571,95,10	581,93,10	591,91,10	601,89,10	611,87,10	621,85,10	631,83,10	641,81,10	651,79,10	661,77,10	671,75,10	681,73,10	691,71,10	701,69,10	711,67,10	721,65,10	731,59,10	741,63,10	751,57,10	761,55,10	771,53,10	781,51,10	791,49,10	801,47,10	811,45,10	821,43,10	831,41,10	841,39,10	851,37,10	861,35,10	871,33,10	881,27,10	891,31,10	901,25,10	911,23,10	921,21,10	931,19,10	941,17,10	951,11,10	961,15,10	971,9,10	981,3,10	991,7,10	4838,201,1	
# Incoming
1,(0, 2),48	49,(0, 4),48	97,(0, 6),48	145,(0, 8),48	193,(0, 10),48	241,(0, 12),48	289,(0, 14),48	337,(0, 16),48	385,(0, 18),48	433,(0, 20),48	481,(0, 22),48	529,(0, 24),48	577,(0, 26),48	625,(0, 28),48	673,(0, 30),48	721,(0, 32),48	769,(0, 34),48	817,(0, 36),48	865,(0, 38),48	913,(0, 40),48	961,(0, 42),48	1009,(0, 44),48	1057,(0, 46),48	1105,(0, 48),48	1153,(0, 50),48	1201,(0, 52),48	1249,(0, 54),48	1297,(0, 56),48	1345,(0, 58),48	1393,(0, 60),48	1441,(0, 62),48	1489,(0, 64),48	1537,(0, 66),48	1585,(0, 68),48	1633,(0, 70),48	1681,(0, 72),48	1729,(0, 74),48	1777,(0, 76),48	1825,(0, 78),48	1873,(0, 80),48	1921,(0, 82),48	1969,(0, 84),48	2017,(0, 86),48	2065,(0, 88),48	2113,(0, 90),48	2161,(0, 92),48	2209,(0, 94),48	2257,(0, 96),48	2305,(0, 98),48	2353,(0, 100),48	2401,(0, 102),48	2449,(0, 104),48	2497,(0, 106),48	2545,(0, 108),48	2593,(0, 110),48	2641,(0, 112),48	2689,(0, 114),48	2737,(0, 116),48	2785,(0, 118),48	2833,(0, 120),48	2881,(0, 122),48	2929,(0, 124),48	2977,(0, 126),48	3025,(0, 128),48	3073,(0, 130),48	3121,(0, 132),48	3169,(0, 134),48	3217,(0, 136),48	3265,(0, 138),48	3313,(0, 140),48	3361,(0, 142),48	3409,(0, 144),48	3457,(0, 146),48	3505,(0, 148),48	3553,(0, 150),48	3601,(0, 152),48	3649,(0, 154),48	3697,(0, 156),48	3745,(0, 158),48	3793,(0, 160),48	3841,(0, 162),48	3889,(0, 164),48	3937,(0, 166),48	3985,(0, 168),48	4033,(0, 170),48	4081,(0, 172),48	4129,(0, 174),48	4177,(0, 176),48	4225,(0, 178),48	4273,(0, 180),48	4321,(0, 182),48	4369,(0, 184),48	4417,(0, 186),48	4465,(0, 188),48	4513,(0, 190),48	4561,(0, 192),48	4609,(0, 194),48	4657,(0, 196),48	4705,(0, 198),48	4753,(0, 200),48	
59,(2, 201),27	107,(4, 201),27	155,(6, 201),27	203,(8, 201),27	251,(10, 201),27	299,(12, 201),27	347,(14, 201),27	395,(16, 201),27	443,(18, 201),27	491,(20, 201),27	539,(22, 201),27	587,(24, 201),27	635,(26, 201),27	683,(28, 201),27	731,(30, 201),27	779,(32, 201),27	827,(34, 201),27	875,(36, 201),27	923,(38, 201),27	971,(40, 201),27	1019,(42, 201),27	1067,(44, 201),27	1115,(46, 201),27	1163,(48, 201),27	1211,(50, 201),27	1259,(52, 201),27	1307,(54, 201),27	1355,(56, 201),27	1403,(58, 201),27	1451,(60, 201),27	1499,(62, 201),27	1547,(64, 201),27	1595,(66, 201),27	1643,(68, 201),27	1691,(70, 201),27	1739,(72, 201),27	1787,(74, 201),27	1835,(76, 201),27	1883,(78, 201),27	1931,(80, 201),27	1979,(82, 201),27	2027,(84, 201),27	2075,(86, 201),27	2123,(88, 201),27	2171,(90, 201),27	2219,(92, 201),27	2267,(94, 201),27	2315,(96, 201),27	2363,(98, 201),27	2411,(100, 201),27	2459,(102, 201),27	2507,(104, 201),27	2555,(106, 201),27	2603,(108, 201),27	2651,(110, 201),27	2699,(112, 201),27	2747,(114, 201),27	2795,(116, 201),27	2843,(118, 201),27	2891,(120, 201),27	2939,(122, 201),27	2987,(124, 201),27	3035,(126, 201),27	3083,(128, 201),27	3131,(130, 201),27	3179,(132, 201),27	3227,(134, 201),27	3275,(136, 201),27	3323,(138, 201),27	3371,(140, 201),27	3419,(142, 201),27	3467,(144, 201),27	3515,(146, 201),27	3563,(148, 201),27	3611,(150, 201),27	3659,(152, 201),27	3707,(154, 201),27	3755,(156, 201),27	3803,(158, 201),27	3851,(160, 201),27	3899,(162, 201),27	3947,(164, 201),27	3995,(166, 201),27	4043,(168, 201),27	4091,(170, 201),27	4139,(172, 201),27	4187,(174, 201),27	4235,(176, 201),27	4283,(178, 201),27	4331,(180, 201),27	4379,(182, 201),27	4427,(184, 201),27	4475,(186, 201),27	4523,(188, 201),27	4571,(190, 201),27	4619,(192, 201),27	4667,(194, 201),27	4715,(196, 201),27	4763,(198, 201),27	4811,(200, 201),27	
# Outgoing
59,(2, 201),27	107,(4, 201),27	155,(6, 201),27	203,(8, 201),27	251,(10, 201),27	299,(12, 201),27	347,(14, 201),27	395,(16, 201),27	443,(18, 201),27	491,(20, 201),27	539,(22, 201),27	587,(24, 201),27	635,(26, 201),27	683,(28, 201),27	731,(30, 201),27	779,(32, 201),27	827,(34, 201),27	875,(36, 201),27	923,(38, 201),27	971,(40, 201),27	1019,(42, 201),27	1067,(44, 201),27	1115,(46, 201),27	1163,(48, 201),27	1211,(50, 201),27	1259,(52, 201),27	1307,(54, 201),27	1355,(56, 201),27	1403,(58, 201),27	1451,(60, 201),27	1499,(62, 201),27	1547,(64, 201),27	1595,(66, 201),27	1643,(68, 201),27	1691,(70, 201),27	1739,(72, 201),27	1787,(74, 201),27	1835,(76, 201),27	1883,(78, 201),27	1931,(80, 201),27	1979,(82, 201),27	2027,(84, 201),27	2075,(86, 201),27	2123,(88, 201),27	2171,(90, 201),27	2219,(92, 201),27	2267,(94, 201),27	2315,(96, 201),27	2363,(98, 201),27	2411,(100, 201),27	2459,(102, 201),27	2507,(104, 201),27	2555,(106, 201),27	2603,(108, 201),27	2651,(110, 201),27	2699,(112, 201),27	2747,(114, 201),27	2795,(116, 201),27	2843,(118, 201),27	2891,(120, 201),27	2939,(122, 201),27	2987,(124, 201),27	3035,(126, 201),27	3083,(128, 201),27	3131,(130, 201),27	3179,(132, 201),27	3227,(134, 201),27	3275,(136, 201),27	3323,(138, 201),27	3371,(140, 201),27	3419,(142, 201),27	3467,(144, 201),27	3515,(146, 201),27	3563,(148, 201),27	3611,(150, 201),27	3659,(152, 201),27	3707,(154, 201),27	3755,(156, 201),27	3803,(158, 201),27	3851,(160, 201),27	3899,(162, 201),27	3947,(164, 201),27	3995,(166, 201),27	4043,(168, 201),27	4091,(170, 201),27	4139,(172, 201),27	4187,(174, 201),27	4235,(176, 201),27	4283,(178, 201),27	4331,(180, 201),27	4379,(182, 201),27	4427,(184, 201),27	4475,(186, 201),27	4523,(188, 201),27	4571,(190, 201),27	4619,(192, 201),27	4667,(194, 201),27	4715,(196, 201),27	4763,(198, 201),27	4811,(200, 201),27	
1,(0, 2),48	49,(0, 4),48	97,(0, 6),48	145,(0, 8),48	193,(0, 10),48	241,(0, 12),48	289,(0, 14),48	337,(0, 16),48	385,(0, 18),48	433,(0, 20),48	481,(0, 22),48	529,(0, 24),48	577,(0, 26),48	625,(0, 28),48	673,(0, 30),48	721,(0, 32),48	769,(0, 34),48	817,(0, 36),48	865,(0, 38),48	913,(0, 40),48	961,(0, 42),48	1009,(0, 44),48	1057,(0, 46),48	1105,(0, 48),48	1153,(0, 50),48	1201,(0, 52),48	1249,(0, 54),48	1297,(0, 56),48	1345,(0, 58),48	1393,(0, 60),48	1441,(0, 62),48	1489,(0, 64),48	1537,(0, 66),48	1585,(0, 68),48	1633,(0, 70),48	1681,(0, 72),48	1729,(0, 74),48	1777,(0, 76),48	1825,(0, 78),48	1873,(0, 80),48	1921,(0, 82),48	1969,(0, 84),48	2017,(0, 86),48	2065,(0, 88),48	2113,(0, 90),48	2161,(0, 92),48	2209,(0, 94),48	2257,(0, 96),48	2305,(0, 98),48	2353,(0, 100),48	2401,(0, 102),48	2449,(0, 104),48	2497,(0, 106),48	2545,(0, 108),48	2593,(0, 110),48	2641,(0, 112),48	2689,(0, 114),48	2737,(0, 116),48	2785,(0, 118),48	2833,(0, 120),48	2881,(0, 122),48	2929,(0, 124),48	2977,(0, 126),48	3025,(0, 128),48	3073,(0, 130),48	3121,(0, 132),48	3169,(0, 134),48	3217,(0, 136),48	3265,(0, 138),48	3313,(0, 140),48	3361,(0, 142),48	3409,(0, 144),48	3457,(0, 146),48	3505,(0, 148),48	3553,(0, 150),48	3601,(0, 152),48	3649,(0, 154),48	3697,(0, 156),48	3745,(0, 158),48	3793,(0, 160),48	3841,(0, 162),48	3889,(0, 164),48	3937,(0, 166),48	3985,(0, 168),48	4033,(0, 170),48	4081,(0, 172),48	4129,(0, 174),48	4177,(0, 176),48	4225,(0, 178),48	4273,(0, 180),48	4321,(0, 182),48	4369,(0, 184),48	4417,(0, 186),48	4465,(0, 188),48	4513,(0, 190),48	4561,(0, 192),48	4609,(0, 194),48	4657,(0, 196),48	4705,(0, 198),48	4753,(0, 200),48	
