2015
# CPU
0,201,1	1,200,30	31,138,30	61,140,30	91,133,30	121,130,30	151,128,30	181,144,30	211,124,30	241,122,30	271,120,30	301,147,30	331,116,30	361,114,30	391,112,30	421,151,30	451,107,30	481,153,30	511,104,30	541,155,30	571,99,30	601,97,30	631,95,30	661,159,30	691,91,30	721,81,30	751,79,30	781,83,30	811,75,30	841,73,30	871,71,30	901,88,30	931,67,30	961,161,30	991,64,30	1021,163,30	1051,60,30	1081,58,30	1111,56,30	1141,168,30	1171,52,30	1201,170,30	1231,49,30	1261,172,30	1291,45,30	1321,43,30	1351,41,30	1381,185,30	1411,180,30	1441,178,30	1471,176,30	1501,188,30	1531,36,30	1561,34,30	1591,32,30	1621,191,30	1651,27,30	1681,17,30	1711,15,30	1741,20,30	1771,12,30	1801,23,30	1831,9,30	1861,3,30	1891,6,30	1921,25,30	1951,195,30	1981,198,30	2014,0,1	
5,139,30	35,136,30	65,134,30	95,132,30	125,142,30	155,127,30	185,125,30	215,123,30	245,146,30	275,118,30	305,148,30	335,115,30	365,150,30	395,110,30	425,108,30	455,106,30	485,154,30	515,102,30	545,100,30	575,98,30	605,157,30	635,94,30	665,92,30	695,90,30	725,82,30	755,77,30	785,84,30	815,74,30	845,86,30	875,70,30	905,68,30	935,66,30	965,162,30	995,62,30	1025,164,30	1055,59,30	1085,166,30	1115,55,30	1145,53,30	1175,51,30	1205,171,30	1235,47,30	1265,173,30	1295,44,30	1325,175,30	1355,183,30	1385,181,30	1415,179,30	1445,187,30	1475,39,30	1505,37,30	1535,35,30	1565,190,30	1595,30,30	1625,28,30	1655,26,30	1685,18,30	1715,14,30	1745,21,30	1775,11,30	1805,24,30	1835,2,30	1865,5,30	1895,8,30	1925,194,30	1955,197,30	
3,131,30	33,137,30	63,135,30	93,141,30	123,129,30	153,143,30	183,126,30	213,145,30	243,121,30	273,119,30	303,117,30	333,149,30	363,113,30	393,111,30	423,109,30	453,152,30	483,105,30	513,103,30	543,101,30	573,156,30	603,96,30	633,158,30	663,93,30	693,160,30	723,80,30	753,78,30	783,76,30	813,85,30	843,72,30	873,87,30	903,69,30	933,89,30	963,65,30	993,63,30	1023,61,30	1053,165,30	1083,57,30	1113,167,30	1143,54,30	1173,169,30	1203,50,30	1233,48,30	1263,46,30	1293,174,30	1323,42,30	1353,184,30	1383,182,30	1413,186,30	1443,177,30	1473,40,30	1503,38,30	1533,189,30	1563,33,30	1593,31,30	1623,29,30	1653,192,30	1683,16,30	1713,19,30	1743,13,30	1773,22,30	1803,10,30	1833,1,30	1863,4,30	1893,7,30	1923,193,30	1953,196,30	1983,199,30	
# Incoming
33,(131, 0),1	35,(139, 0),1	63,(137, 0),1	65,(136, 0),1	93,(135, 0),1	95,(134, 0),1	123,(141, 0),1	125,(132, 0),1	153,(129, 0),1	155,(142, 0),1	183,(143, 0),1	185,(127, 0),1	213,(126, 0),1	215,(125, 0),1	243,(145, 0),1	245,(123, 0),1	273,(121, 0),1	275,(146, 0),1	303,(119, 0),1	305,(118, 0),1	333,(117, 0),1	335,(148, 0),1	363,(149, 0),1	365,(115, 0),1	393,(113, 0),1	395,(150, 0),1	423,(111, 0),1	425,(110, 0),1	453,(109, 0),1	455,(108, 0),1	483,(152, 0),1	485,(106, 0),1	513,(105, 0),1	515,(154, 0),1	543,(103, 0),1	545,(102, 0),1	573,(101, 0),1	575,(100, 0),1	603,(156, 0),1	605,(98, 0),1	633,(96, 0),1	635,(157, 0),1	663,(158, 0),1	665,(94, 0),1	693,(93, 0),1	695,(92, 0),1	723,(160, 0),1	725,(90, 0),1	753,(80, 0),1	755,(82, 0),1	783,(78, 0),1	785,(77, 0),1	813,(76, 0),1	815,(84, 0),1	843,(85, 0),1	845,(74, 0),1	873,(72, 0),1	875,(86, 0),1	903,(87, 0),1	905,(70, 0),1	933,(69, 0),1	935,(68, 0),1	963,(89, 0),1	965,(66, 0),1	993,(65, 0),1	995,(162, 0),1	1023,(63, 0),1	1025,(62, 0),1	1053,(61, 0),1	1055,(164, 0),1	1083,(165, 0),1	1085,(59, 0),1	1113,(57, 0),1	1115,(166, 0),1	1143,(167, 0),1	1145,(55, 0),1	1173,(54, 0),1	1175,(53, 0),1	1203,(169, 0),1	1205,(51, 0),1	1233,(50, 0),1	1235,(171, 0),1	1263,(48, 0),1	1265,(47, 0),1	1293,(46, 0),1	1295,(173, 0),1	1323,(174, 0),1	1325,(44, 0),1	1353,(42, 0),1	1355,(175, 0),1	1383,(184, 0),1	1385,(183, 0),1	1413,(182, 0),1	1415,(181, 0),1	1443,(186, 0),1	1445,(179, 0),1	1473,(177, 0),1	1475,(187, 0),1	1503,(40, 0),1	1505,(39, 0),1	1533,(38, 0),1	1535,(37, 0),1	1563,(189, 0),1	1565,(35, 0),1	1593,(33, 0),1	1595,(190, 0),1	1623,(31, 0),1	1625,(30, 0),1	1653,(29, 0),1	1655,(28, 0),1	1683,(192, 0),1	1685,(26, 0),1	1713,(16, 0),1	1715,(18, 0),1	1743,(19, 0),1	1745,(14, 0),1	1773,(13, 0),1	1775,(21, 0),1	1803,(22, 0),1	1805,(11, 0),1	1833,(10, 0),1	1835,(24, 0),1	1863,(1, 0),1	1865,(2, 0),1	1893,(4, 0),1	1895,(5, 0),1	1923,(7, 0),1	1925,(8, 0),1	1953,(193, 0),1	1955,(194, 0),1	1983,(196, 0),1	1985,(197, 0),1	2013,(199, 0),1	
3,(201, 139),2	7,(201, 136),2	11,(201, 134),2	15,(201, 132),2	19,(201, 142),2	23,(201, 127),2	27,(201, 125),2	31,(201, 123),2	35,(201, 146),2	39,(201, 118),2	43,(201, 148),2	47,(201, 115),2	51,(201, 150),2	55,(201, 110),2	59,(201, 108),2	63,(201, 106),2	67,(201, 154),2	71,(201, 102),2	75,(201, 100),2	79,(201, 98),2	83,(201, 157),2	87,(201, 94),2	91,(201, 92),2	95,(201, 90),2	99,(201, 82),2	103,(201, 77),2	107,(201, 84),2	111,(201, 74),2	115,(201, 86),2	119,(201, 70),2	123,(201, 68),2	127,(201, 66),2	131,(201, 162),2	135,(201, 62),2	139,(201, 164),2	143,(201, 59),2	147,(201, 166),2	151,(201, 55),2	155,(201, 53),2	159,(201, 51),2	163,(201, 171),2	167,(201, 47),2	171,(201, 173),2	175,(201, 44),2	179,(201, 175),2	183,(201, 183),2	187,(201, 181),2	191,(201, 179),2	195,(201, 187),2	199,(201, 39),2	203,(201, 37),2	207,(201, 35),2	211,(201, 190),2	215,(201, 30),2	219,(201, 28),2	223,(201, 26),2	227,(201, 18),2	231,(201, 14),2	235,(201, 21),2	239,(201, 11),2	243,(201, 24),2	247,(201, 2),2	251,(201, 5),2	255,(201, 8),2	259,(201, 194),2	263,(201, 197),2	
1,(201, 131),2	5,(201, 137),2	9,(201, 135),2	13,(201, 141),2	17,(201, 129),2	21,(201, 143),2	25,(201, 126),2	29,(201, 145),2	33,(201, 121),2	37,(201, 119),2	41,(201, 117),2	45,(201, 149),2	49,(201, 113),2	53,(201, 111),2	57,(201, 109),2	61,(201, 152),2	65,(201, 105),2	69,(201, 103),2	73,(201, 101),2	77,(201, 156),2	81,(201, 96),2	85,(201, 158),2	89,(201, 93),2	93,(201, 160),2	97,(201, 80),2	101,(201, 78),2	105,(201, 76),2	109,(201, 85),2	113,(201, 72),2	117,(201, 87),2	121,(201, 69),2	125,(201, 89),2	129,(201, 65),2	133,(201, 63),2	137,(201, 61),2	141,(201, 165),2	145,(201, 57),2	149,(201, 167),2	153,(201, 54),2	157,(201, 169),2	161,(201, 50),2	165,(201, 48),2	169,(201, 46),2	173,(201, 174),2	177,(201, 42),2	181,(201, 184),2	185,(201, 182),2	189,(201, 186),2	193,(201, 177),2	197,(201, 40),2	201,(201, 38),2	205,(201, 189),2	209,(201, 33),2	213,(201, 31),2	217,(201, 29),2	221,(201, 192),2	225,(201, 16),2	229,(201, 19),2	233,(201, 13),2	237,(201, 22),2	241,(201, 10),2	245,(201, 1),2	249,(201, 4),2	253,(201, 7),2	257,(201, 193),2	261,(201, 196),2	265,(201, 199),2	
# Outgoing
1,(201, 131),2	3,(201, 139),2	5,(201, 137),2	7,(201, 136),2	9,(201, 135),2	11,(201, 134),2	13,(201, 141),2	15,(201, 132),2	17,(201, 129),2	19,(201, 142),2	21,(201, 143),2	23,(201, 127),2	25,(201, 126),2	27,(201, 125),2	29,(201, 145),2	31,(201, 123),2	33,(201, 121),2	35,(201, 146),2	37,(201, 119),2	39,(201, 118),2	41,(201, 117),2	43,(201, 148),2	45,(201, 149),2	47,(201, 115),2	49,(201, 113),2	51,(201, 150),2	53,(201, 111),2	55,(201, 110),2	57,(201, 109),2	59,(201, 108),2	61,(201, 152),2	63,(201, 106),2	65,(201, 105),2	67,(201, 154),2	69,(201, 103),2	71,(201, 102),2	73,(201, 101),2	75,(201, 100),2	77,(201, 156),2	79,(201, 98),2	81,(201, 96),2	83,(201, 157),2	85,(201, 158),2	87,(201, 94),2	89,(201, 93),2	91,(201, 92),2	93,(201, 160),2	95,(201, 90),2	97,(201, 80),2	99,(201, 82),2	101,(201, 78),2	103,(201, 77),2	105,(201, 76),2	107,(201, 84),2	109,(201, 85),2	111,(201, 74),2	113,(201, 72),2	115,(201, 86),2	117,(201, 87),2	119,(201, 70),2	121,(201, 69),2	123,(201, 68),2	125,(201, 89),2	127,(201, 66),2	129,(201, 65),2	131,(201, 162),2	133,(201, 63),2	135,(201, 62),2	137,(201, 61),2	139,(201, 164),2	141,(201, 165),2	143,(201, 59),2	145,(201, 57),2	147,(201, 166),2	149,(201, 167),2	151,(201, 55),2	153,(201, 54),2	155,(201, 53),2	157,(201, 169),2	159,(201, 51),2	161,(201, 50),2	163,(201, 171),2	165,(201, 48),2	167,(201, 47),2	169,(201, 46),2	171,(201, 173),2	173,(201, 174),2	175,(201, 44),2	177,(201, 42),2	179,(201, 175),2	181,(201, 184),2	183,(201, 183),2	185,(201, 182),2	187,(201, 181),2	189,(201, 186),2	191,(201, 179),2	193,(201, 177),2	195,(201, 187),2	197,(201, 40),2	199,(201, 39),2	201,(201, 38),2	203,(201, 37),2	205,(201, 189),2	207,(201, 35),2	209,(201, 33),2	211,(201, 190),2	213,(201, 31),2	215,(201, 30),2	217,(201, 29),2	219,(201, 28),2	221,(201, 192),2	223,(201, 26),2	225,(201, 16),2	227,(201, 18),2	229,(201, 19),2	231,(201, 14),2	233,(201, 13),2	235,(201, 21),2	237,(201, 22),2	239,(201, 11),2	241,(201, 10),2	243,(201, 24),2	245,(201, 1),2	247,(201, 2),2	249,(201, 4),2	251,(201, 5),2	253,(201, 7),2	255,(201, 8),2	257,(201, 193),2	259,(201, 194),2	261,(201, 196),2	263,(201, 197),2	265,(201, 199),2	
35,(139, 0),1	65,(136, 0),1	95,(134, 0),1	125,(132, 0),1	155,(142, 0),1	185,(127, 0),1	215,(125, 0),1	245,(123, 0),1	275,(146, 0),1	305,(118, 0),1	335,(148, 0),1	365,(115, 0),1	395,(150, 0),1	425,(110, 0),1	455,(108, 0),1	485,(106, 0),1	515,(154, 0),1	545,(102, 0),1	575,(100, 0),1	605,(98, 0),1	635,(157, 0),1	665,(94, 0),1	695,(92, 0),1	725,(90, 0),1	755,(82, 0),1	785,(77, 0),1	815,(84, 0),1	845,(74, 0),1	875,(86, 0),1	905,(70, 0),1	935,(68, 0),1	965,(66, 0),1	995,(162, 0),1	1025,(62, 0),1	1055,(164, 0),1	1085,(59, 0),1	1115,(166, 0),1	1145,(55, 0),1	1175,(53, 0),1	1205,(51, 0),1	1235,(171, 0),1	1265,(47, 0),1	1295,(173, 0),1	1325,(44, 0),1	1355,(175, 0),1	1385,(183, 0),1	1415,(181, 0),1	1445,(179, 0),1	1475,(187, 0),1	1505,(39, 0),1	1535,(37, 0),1	1565,(35, 0),1	1595,(190, 0),1	1625,(30, 0),1	1655,(28, 0),1	1685,(26, 0),1	1715,(18, 0),1	1745,(14, 0),1	1775,(21, 0),1	1805,(11, 0),1	1835,(24, 0),1	1865,(2, 0),1	1895,(5, 0),1	1925,(8, 0),1	1955,(194, 0),1	1985,(197, 0),1	
33,(131, 0),1	63,(137, 0),1	93,(135, 0),1	123,(141, 0),1	153,(129, 0),1	183,(143, 0),1	213,(126, 0),1	243,(145, 0),1	273,(121, 0),1	303,(119, 0),1	333,(117, 0),1	363,(149, 0),1	393,(113, 0),1	423,(111, 0),1	453,(109, 0),1	483,(152, 0),1	513,(105, 0),1	543,(103, 0),1	573,(101, 0),1	603,(156, 0),1	633,(96, 0),1	663,(158, 0),1	693,(93, 0),1	723,(160, 0),1	753,(80, 0),1	783,(78, 0),1	813,(76, 0),1	843,(85, 0),1	873,(72, 0),1	903,(87, 0),1	933,(69, 0),1	963,(89, 0),1	993,(65, 0),1	1023,(63, 0),1	1053,(61, 0),1	1083,(165, 0),1	1113,(57, 0),1	1143,(167, 0),1	1173,(54, 0),1	1203,(169, 0),1	1233,(50, 0),1	1263,(48, 0),1	1293,(46, 0),1	1323,(174, 0),1	1353,(42, 0),1	1383,(184, 0),1	1413,(182, 0),1	1443,(186, 0),1	1473,(177, 0),1	1503,(40, 0),1	1533,(38, 0),1	1563,(189, 0),1	1593,(33, 0),1	1623,(31, 0),1	1653,(29, 0),1	1683,(192, 0),1	1713,(16, 0),1	1743,(19, 0),1	1773,(13, 0),1	1803,(22, 0),1	1833,(10, 0),1	1863,(1, 0),1	1893,(4, 0),1	1923,(7, 0),1	1953,(193, 0),1	1983,(196, 0),1	2013,(199, 0),1	
