335
# CPU
7,4,1	13,8,1	19,12,1	25,16,1	31,20,1	
5,3,1	11,7,1	17,11,1	23,15,1	29,19,1	
3,2,1	9,6,1	15,10,1	21,14,1	27,18,1	
0,0,1	1,1,1	2,9,1	3,17,1	4,5,1	5,13,1	334,21,1	
# Incoming
5,(0, 4),2	11,(0, 8),2	17,(0, 12),2	23,(0, 16),2	29,(0, 20),2	
3,(0, 3),2	9,(0, 7),2	15,(0, 11),2	21,(0, 15),2	27,(0, 19),2	
1,(0, 2),2	7,(0, 6),2	13,(0, 10),2	19,(0, 14),2	25,(0, 18),2	
4,(2, 21),22	26,(3, 21),22	48,(4, 21),22	70,(6, 21),22	92,(7, 21),22	114,(8, 21),22	136,(10, 21),22	158,(11, 21),22	180,(12, 21),22	202,(14, 21),22	224,(15, 21),22	246,(16, 21),22	268,(18, 21),22	290,(19, 21),22	312,(20, 21),22	
# Outgoing
48,(4, 21),22	114,(8, 21),22	180,(12, 21),22	246,(16, 21),22	312,(20, 21),22	
26,(3, 21),22	92,(7, 21),22	158,(11, 21),22	224,(15, 21),22	290,(19, 21),22	
4,(2, 21),22	70,(6, 21),22	136,(10, 21),22	202,(14, 21),22	268,(18, 21),22	
1,(0, 2),2	3,(0, 3),2	5,(0, 4),2	7,(0, 6),2	9,(0, 7),2	11,(0, 8),2	13,(0, 10),2	15,(0, 11),2	17,(0, 12),2	19,(0, 14),2	21,(0, 15),2	23,(0, 16),2	25,(0, 18),2	27,(0, 19),2	29,(0, 20),2	
