1534
# CPU
0,201,1	1,200,10	11,138,10	21,139,10	31,137,10	41,136,10	51,135,10	61,140,10	71,134,10	81,133,10	91,141,10	101,132,10	111,130,10	121,142,10	131,143,10	141,129,10	151,144,10	161,127,10	171,125,10	181,145,10	191,124,10	201,122,10	211,146,10	221,120,10	231,119,10	241,147,10	251,148,10	261,118,10	271,149,10	281,116,10	291,115,10	301,150,10	311,114,10	321,113,10	331,151,10	341,112,10	351,110,10	361,152,10	371,108,10	381,153,10	391,154,10	401,107,10	411,105,10	421,155,10	431,103,10	441,102,10	451,156,10	461,101,10	471,99,10	481,157,10	491,97,10	501,158,10	511,159,10	521,96,10	531,94,10	541,160,10	551,93,10	561,81,10	571,80,10	581,79,10	591,78,10	601,77,10	611,76,10	621,82,10	631,75,10	641,74,10	651,73,10	661,72,10	671,71,10	681,83,10	691,70,10	701,69,10	711,68,10	721,67,10	731,66,10	741,84,10	751,65,10	761,64,10	771,63,10	781,62,10	791,61,10	801,88,10	811,60,10	821,59,10	831,58,10	841,57,10	851,161,10	861,56,10	871,55,10	881,164,10	891,53,10	901,52,10	911,54,10	921,51,10	931,50,10	941,168,10	951,48,10	961,47,10	971,49,10	981,46,10	991,45,10	1001,170,10	1011,44,10	1021,42,10	1031,43,10	1041,41,10	1051,184,10	1061,185,10	1071,183,10	1081,182,10	1091,186,10	1101,181,10	1111,179,10	1121,187,10	1131,175,10	1141,171,10	1151,188,10	1161,40,10	1171,38,10	1181,189,10	1191,37,10	1201,35,10	1211,190,10	1221,34,10	1231,32,10	1241,191,10	1251,31,10	1261,29,10	1271,192,10	1281,28,10	1291,17,10	1301,16,10	1311,15,10	1321,18,10	1331,14,10	1341,13,10	1351,19,10	1361,12,10	1371,11,10	1381,20,10	1391,10,10	1401,9,10	1411,1,10	1421,2,10	1431,3,10	1441,4,10	1451,5,10	1461,6,10	1471,7,10	1481,8,10	1491,23,10	1501,194,10	1511,197,10	1521,198,10	1533,0,1	
55,126,10	91,121,10	145,109,10	181,104,10	217,98,10	343,89,10	379,162,10	415,165,10	469,169,10	523,176,10	541,177,10	577,180,10	811,193,10	829,27,10	847,199,10	
73,123,10	109,117,10	163,106,10	235,95,10	271,90,10	307,85,10	361,91,10	433,166,10	487,173,10	595,172,10	649,33,10	685,25,10	721,21,10	739,24,10	
19,131,10	37,128,10	127,111,10	199,100,10	253,92,10	289,86,10	325,87,10	397,163,10	451,167,10	505,174,10	559,178,10	613,39,10	631,36,10	667,30,10	703,22,10	757,26,10	775,195,10	793,196,10	
# Incoming
29,(131, 0),32	61,(128, 0),32	93,(126, 0),32	125,(123, 0),32	157,(121, 0),32	189,(117, 0),32	221,(111, 0),32	253,(109, 0),32	285,(106, 0),32	317,(104, 0),32	349,(100, 0),32	381,(98, 0),32	413,(95, 0),32	445,(92, 0),32	477,(90, 0),32	509,(86, 0),32	541,(85, 0),32	573,(87, 0),32	605,(89, 0),32	637,(91, 0),32	669,(162, 0),32	701,(163, 0),32	733,(165, 0),32	765,(166, 0),32	797,(167, 0),32	829,(169, 0),32	861,(173, 0),32	893,(174, 0),32	925,(176, 0),32	957,(177, 0),32	989,(178, 0),32	1021,(180, 0),32	1053,(172, 0),32	1085,(39, 0),32	1117,(36, 0),32	1149,(33, 0),32	1181,(30, 0),32	1213,(25, 0),32	1245,(22, 0),32	1277,(21, 0),32	1309,(24, 0),32	1341,(26, 0),32	1373,(195, 0),32	1405,(196, 0),32	1437,(193, 0),32	1469,(27, 0),32	1501,(199, 0),32	
37,(201, 126),18	73,(201, 121),18	127,(201, 109),18	163,(201, 104),18	199,(201, 98),18	325,(201, 89),18	361,(201, 162),18	397,(201, 165),18	451,(201, 169),18	505,(201, 176),18	523,(201, 177),18	559,(201, 180),18	793,(201, 193),18	811,(201, 27),18	829,(201, 199),18	
55,(201, 123),18	91,(201, 117),18	145,(201, 106),18	217,(201, 95),18	253,(201, 90),18	289,(201, 85),18	343,(201, 91),18	415,(201, 166),18	469,(201, 173),18	577,(201, 172),18	631,(201, 33),18	667,(201, 25),18	703,(201, 21),18	721,(201, 24),18	
1,(201, 131),18	19,(201, 128),18	109,(201, 111),18	181,(201, 100),18	235,(201, 92),18	271,(201, 86),18	307,(201, 87),18	379,(201, 163),18	433,(201, 167),18	487,(201, 174),18	541,(201, 178),18	595,(201, 39),18	613,(201, 36),18	649,(201, 30),18	685,(201, 22),18	739,(201, 26),18	757,(201, 195),18	775,(201, 196),18	
# Outgoing
1,(201, 131),18	19,(201, 128),18	37,(201, 126),18	55,(201, 123),18	73,(201, 121),18	91,(201, 117),18	109,(201, 111),18	127,(201, 109),18	145,(201, 106),18	163,(201, 104),18	181,(201, 100),18	199,(201, 98),18	217,(201, 95),18	235,(201, 92),18	253,(201, 90),18	271,(201, 86),18	289,(201, 85),18	307,(201, 87),18	325,(201, 89),18	343,(201, 91),18	361,(201, 162),18	379,(201, 163),18	397,(201, 165),18	415,(201, 166),18	433,(201, 167),18	451,(201, 169),18	469,(201, 173),18	487,(201, 174),18	505,(201, 176),18	523,(201, 177),18	541,(201, 178),18	559,(201, 180),18	577,(201, 172),18	595,(201, 39),18	613,(201, 36),18	631,(201, 33),18	649,(201, 30),18	667,(201, 25),18	685,(201, 22),18	703,(201, 21),18	721,(201, 24),18	739,(201, 26),18	757,(201, 195),18	775,(201, 196),18	793,(201, 193),18	811,(201, 27),18	829,(201, 199),18	
93,(126, 0),32	157,(121, 0),32	253,(109, 0),32	317,(104, 0),32	381,(98, 0),32	605,(89, 0),32	669,(162, 0),32	733,(165, 0),32	829,(169, 0),32	925,(176, 0),32	957,(177, 0),32	1021,(180, 0),32	1437,(193, 0),32	1469,(27, 0),32	1501,(199, 0),32	
125,(123, 0),32	189,(117, 0),32	285,(106, 0),32	413,(95, 0),32	477,(90, 0),32	541,(85, 0),32	637,(91, 0),32	765,(166, 0),32	861,(173, 0),32	1053,(172, 0),32	1149,(33, 0),32	1213,(25, 0),32	1277,(21, 0),32	1309,(24, 0),32	
29,(131, 0),32	61,(128, 0),32	221,(111, 0),32	349,(100, 0),32	445,(92, 0),32	509,(86, 0),32	573,(87, 0),32	701,(163, 0),32	797,(167, 0),32	893,(174, 0),32	989,(178, 0),32	1085,(39, 0),32	1117,(36, 0),32	1181,(30, 0),32	1245,(22, 0),32	1341,(26, 0),32	1373,(195, 0),32	1405,(196, 0),32	
