202
# CPU
0,0,1	1,139,1	2,138,1	3,140,1	4,137,1	5,136,1	6,135,1	7,141,1	8,134,1	9,133,1	10,132,1	11,142,1	12,131,1	13,130,1	14,129,1	15,143,1	16,128,1	17,144,1	18,127,1	19,145,1	20,126,1	21,125,1	22,124,1	23,146,1	24,123,1	25,122,1	26,121,1	27,147,1	28,120,1	29,119,1	30,118,1	31,148,1	32,117,1	33,149,1	34,116,1	35,150,1	36,115,1	37,114,1	38,113,1	39,151,1	40,112,1	41,111,1	42,110,1	43,152,1	44,109,1	45,108,1	46,107,1	47,153,1	48,106,1	49,154,1	50,105,1	51,155,1	52,104,1	53,103,1	54,102,1	55,156,1	56,101,1	57,100,1	58,99,1	59,157,1	60,98,1	61,97,1	62,96,1	63,158,1	64,95,1	65,159,1	66,94,1	67,160,1	68,93,1	69,92,1	70,91,1	71,161,1	72,90,1	73,81,1	74,80,1	75,82,1	76,79,1	77,78,1	78,77,1	79,83,1	80,76,1	81,84,1	82,75,1	83,85,1	84,74,1	85,73,1	86,72,1	87,86,1	88,71,1	89,87,1	90,70,1	91,88,1	92,69,1	93,68,1	94,67,1	95,89,1	96,66,1	97,162,1	98,65,1	99,163,1	100,64,1	101,63,1	102,62,1	103,164,1	104,61,1	105,165,1	106,60,1	107,166,1	108,59,1	109,58,1	110,57,1	111,167,1	112,56,1	113,168,1	114,55,1	115,169,1	116,54,1	117,53,1	118,52,1	119,170,1	120,51,1	121,171,1	122,50,1	123,172,1	124,49,1	125,48,1	126,47,1	127,173,1	128,46,1	129,174,1	130,45,1	131,175,1	132,44,1	133,43,1	134,42,1	135,176,1	136,41,1	137,185,1	138,184,1	139,186,1	140,183,1	141,182,1	142,181,1	143,187,1	144,180,1	145,179,1	146,178,1	147,188,1	148,177,1	149,40,1	150,39,1	151,189,1	152,38,1	153,37,1	154,36,1	155,190,1	156,35,1	157,34,1	158,33,1	159,191,1	160,32,1	161,31,1	162,30,1	163,192,1	164,29,1	165,28,1	166,27,1	167,193,1	168,26,1	169,17,1	170,16,1	171,18,1	172,15,1	173,19,1	174,14,1	175,20,1	176,13,1	177,21,1	178,12,1	179,22,1	180,11,1	181,23,1	182,10,1	183,24,1	184,9,1	185,1,1	186,2,1	187,3,1	188,4,1	189,5,1	190,6,1	191,7,1	192,8,1	193,25,1	194,194,1	195,195,1	196,196,1	197,197,1	198,198,1	199,199,1	200,200,1	201,201,1	




# Incoming





# Outgoing





