4162
# CPU
0,0,1	1,1,13	14,3,13	27,7,13	40,15,13	53,31,13	66,63,13	79,127,13	92,255,13	105,320,13	118,319,13	131,318,13	144,317,13	157,316,13	170,315,13	183,314,13	196,313,13	209,312,13	222,311,13	235,310,13	248,309,13	261,308,13	274,307,13	287,306,13	300,305,13	313,304,13	326,303,13	339,302,13	352,301,13	365,300,13	378,299,13	391,298,13	404,297,13	417,296,13	430,295,13	443,294,13	456,293,13	469,292,13	482,291,13	495,290,13	508,289,13	521,288,13	534,287,13	547,286,13	560,285,13	573,284,13	586,283,13	599,282,13	612,281,13	625,280,13	638,279,13	651,278,13	664,277,13	677,276,13	690,275,13	703,274,13	716,273,13	729,272,13	742,271,13	755,270,13	768,269,13	781,268,13	794,267,13	807,266,13	820,265,13	833,264,13	846,263,13	859,262,13	872,261,13	885,260,13	898,259,13	911,258,13	924,257,13	937,254,13	950,256,13	963,253,13	976,252,13	989,251,13	1002,250,13	1015,249,13	1028,248,13	1041,247,13	1054,246,13	1067,245,13	1080,244,13	1093,243,13	1106,242,13	1119,241,13	1132,240,13	1145,239,13	1158,238,13	1171,237,13	1184,236,13	1197,235,13	1210,234,13	1223,233,13	1236,232,13	1249,231,13	1262,230,13	1275,229,13	1288,228,13	1301,227,13	1314,226,13	1327,225,13	1340,224,13	1353,223,13	1366,222,13	1379,221,13	1392,220,13	1405,219,13	1418,218,13	1431,217,13	1444,216,13	1457,215,13	1470,214,13	1483,213,13	1496,212,13	1509,211,13	1522,210,13	1535,209,13	1548,208,13	1561,207,13	1574,206,13	1587,205,13	1600,204,13	1613,203,13	1626,202,13	1639,201,13	1652,200,13	1665,199,13	1678,198,13	1691,197,13	1704,196,13	1717,195,13	1730,194,13	1743,193,13	1756,192,13	1769,191,13	1782,190,13	1795,189,13	1808,188,13	1821,187,13	1834,186,13	1847,185,13	1860,184,13	1873,183,13	1886,182,13	1899,181,13	1912,180,13	1925,179,13	1938,178,13	1951,177,13	1964,176,13	1977,175,13	1990,174,13	2003,173,13	2016,172,13	2029,171,13	2042,170,13	2055,169,13	2068,168,13	2081,167,13	2094,166,13	2107,165,13	2120,164,13	2133,163,13	2146,162,13	2159,161,13	2172,160,13	2185,159,13	2198,158,13	2211,157,13	2224,156,13	2237,155,13	2250,154,13	2263,153,13	2276,152,13	2289,151,13	2302,150,13	2315,149,13	2328,148,13	2341,147,13	2354,146,13	2367,145,13	2380,144,13	2393,143,13	2406,142,13	2419,141,13	2432,140,13	2445,139,13	2458,138,13	2471,137,13	2484,136,13	2497,135,13	2510,134,13	2523,133,13	2536,132,13	2549,131,13	2562,130,13	2575,129,13	2588,126,13	2601,128,13	2614,125,13	2627,124,13	2640,123,13	2653,122,13	2666,121,13	2679,120,13	2692,119,13	2705,118,13	2718,117,13	2731,116,13	2744,115,13	2757,114,13	2770,113,13	2783,112,13	2796,111,13	2809,110,13	2822,109,13	2835,108,13	2848,107,13	2861,106,13	2874,105,13	2887,104,13	2900,103,13	2913,102,13	2926,101,13	2939,100,13	2952,99,13	2965,98,13	2978,97,13	2991,96,13	3004,95,13	3017,94,13	3030,93,13	3043,92,13	3056,91,13	3069,90,13	3082,89,13	3095,88,13	3108,87,13	3121,86,13	3134,85,13	3147,84,13	3160,83,13	3173,82,13	3186,81,13	3199,80,13	3212,79,13	3225,78,13	3238,77,13	3251,76,13	3264,75,13	3277,74,13	3290,73,13	3303,72,13	3316,71,13	3329,70,13	3342,69,13	3355,68,13	3368,67,13	3381,66,13	3394,65,13	3407,62,13	3420,64,13	3433,61,13	3446,60,13	3459,59,13	3472,58,13	3485,57,13	3498,56,13	3511,55,13	3524,54,13	3537,53,13	3550,52,13	3563,51,13	3576,50,13	3589,49,13	3602,48,13	3615,47,13	3628,46,13	3641,45,13	3654,44,13	3667,43,13	3680,42,13	3693,41,13	3706,40,13	3719,39,13	3732,38,13	3745,37,13	3758,36,13	3771,35,13	3784,34,13	3797,33,13	3810,30,13	3823,32,13	3836,29,13	3849,28,13	3862,27,13	3875,26,13	3888,25,13	3901,24,13	3914,23,13	3927,22,13	3940,21,13	3953,20,13	3966,19,13	3979,18,13	3992,17,13	4005,14,13	4018,16,13	4031,13,13	4044,12,13	4057,11,13	4070,10,13	4083,9,13	4096,6,13	4109,8,13	4122,5,13	4135,2,13	4148,4,13	4161,321,1	



# Incoming




# Outgoing




