5647
# CPU
25,5,7	49,10,7	73,15,7	97,20,7	121,25,7	145,30,7	169,35,7	193,40,7	217,45,7	241,50,7	265,55,7	289,60,7	313,65,7	337,70,7	361,75,7	385,80,7	409,85,7	433,90,7	457,95,7	481,100,7	505,105,7	529,110,7	553,115,7	577,120,7	601,125,7	625,130,7	649,135,7	673,140,7	697,145,7	721,150,7	745,155,7	769,160,7	793,165,7	817,170,7	841,175,7	865,180,7	889,185,7	913,190,7	937,195,7	961,200,7	985,205,7	1009,210,7	1033,215,7	1057,220,7	1081,225,7	1105,230,7	1129,235,7	1153,240,7	1177,245,7	1201,250,7	1225,255,7	1249,260,7	1273,265,7	1297,270,7	1321,275,7	1345,280,7	1369,285,7	1393,290,7	1417,295,7	1441,300,7	1465,305,7	1489,310,7	1513,315,7	1537,320,7	
19,4,7	43,9,7	67,14,7	91,19,7	115,24,7	139,29,7	163,34,7	187,39,7	211,44,7	235,49,7	259,54,7	283,59,7	307,64,7	331,69,7	355,74,7	379,79,7	403,84,7	427,89,7	451,94,7	475,99,7	499,104,7	523,109,7	547,114,7	571,119,7	595,124,7	619,129,7	643,134,7	667,139,7	691,144,7	715,149,7	739,154,7	763,159,7	787,164,7	811,169,7	835,174,7	859,179,7	883,184,7	907,189,7	931,194,7	955,199,7	979,204,7	1003,209,7	1027,214,7	1051,219,7	1075,224,7	1099,229,7	1123,234,7	1147,239,7	1171,244,7	1195,249,7	1219,254,7	1243,259,7	1267,264,7	1291,269,7	1315,274,7	1339,279,7	1363,284,7	1387,289,7	1411,294,7	1435,299,7	1459,304,7	1483,309,7	1507,314,7	1531,319,7	
13,3,7	37,8,7	61,13,7	85,18,7	109,23,7	133,28,7	157,33,7	181,38,7	205,43,7	229,48,7	253,53,7	277,58,7	301,63,7	325,68,7	349,73,7	373,78,7	397,83,7	421,88,7	445,93,7	469,98,7	493,103,7	517,108,7	541,113,7	565,118,7	589,123,7	613,128,7	637,133,7	661,138,7	685,143,7	709,148,7	733,153,7	757,158,7	781,163,7	805,168,7	829,173,7	853,178,7	877,183,7	901,188,7	925,193,7	949,198,7	973,203,7	997,208,7	1021,213,7	1045,218,7	1069,223,7	1093,228,7	1117,233,7	1141,238,7	1165,243,7	1189,248,7	1213,253,7	1237,258,7	1261,263,7	1285,268,7	1309,273,7	1333,278,7	1357,283,7	1381,288,7	1405,293,7	1429,298,7	1453,303,7	1477,308,7	1501,313,7	1525,318,7	
7,2,7	31,7,7	55,12,7	79,17,7	103,22,7	127,27,7	151,32,7	175,37,7	199,42,7	223,47,7	247,52,7	271,57,7	295,62,7	319,67,7	343,72,7	367,77,7	391,82,7	415,87,7	439,92,7	463,97,7	487,102,7	511,107,7	535,112,7	559,117,7	583,122,7	607,127,7	631,132,7	655,137,7	679,142,7	703,147,7	727,152,7	751,157,7	775,162,7	799,167,7	823,172,7	847,177,7	871,182,7	895,187,7	919,192,7	943,197,7	967,202,7	991,207,7	1015,212,7	1039,217,7	1063,222,7	1087,227,7	1111,232,7	1135,237,7	1159,242,7	1183,247,7	1207,252,7	1231,257,7	1255,262,7	1279,267,7	1303,272,7	1327,277,7	1351,282,7	1375,287,7	1399,292,7	1423,297,7	1447,302,7	1471,307,7	1495,312,7	1519,317,7	
0,0,1	1,1,7	8,11,7	15,31,7	22,71,7	29,151,7	36,311,7	43,306,7	50,316,7	57,301,7	64,296,7	71,291,7	78,286,7	85,281,7	92,276,7	99,271,7	106,266,7	113,261,7	120,256,7	127,251,7	134,246,7	141,241,7	148,236,7	155,231,7	162,226,7	169,221,7	176,216,7	183,211,7	190,206,7	197,201,7	204,196,7	211,191,7	218,186,7	225,181,7	232,176,7	239,171,7	246,166,7	253,161,7	260,146,7	267,156,7	274,141,7	281,136,7	288,131,7	295,126,7	302,121,7	309,116,7	316,111,7	323,106,7	330,101,7	337,96,7	344,91,7	351,86,7	358,81,7	365,66,7	372,76,7	379,61,7	386,56,7	393,51,7	400,46,7	407,41,7	414,26,7	421,36,7	428,21,7	435,6,7	442,16,7	5646,321,1	
# Incoming
19,(0, 5),6	43,(0, 10),6	67,(0, 15),6	91,(0, 20),6	115,(0, 25),6	139,(0, 30),6	163,(0, 35),6	187,(0, 40),6	211,(0, 45),6	235,(0, 50),6	259,(0, 55),6	283,(0, 60),6	307,(0, 65),6	331,(0, 70),6	355,(0, 75),6	379,(0, 80),6	403,(0, 85),6	427,(0, 90),6	451,(0, 95),6	475,(0, 100),6	499,(0, 105),6	523,(0, 110),6	547,(0, 115),6	571,(0, 120),6	595,(0, 125),6	619,(0, 130),6	643,(0, 135),6	667,(0, 140),6	691,(0, 145),6	715,(0, 150),6	739,(0, 155),6	763,(0, 160),6	787,(0, 165),6	811,(0, 170),6	835,(0, 175),6	859,(0, 180),6	883,(0, 185),6	907,(0, 190),6	931,(0, 195),6	955,(0, 200),6	979,(0, 205),6	1003,(0, 210),6	1027,(0, 215),6	1051,(0, 220),6	1075,(0, 225),6	1099,(0, 230),6	1123,(0, 235),6	1147,(0, 240),6	1171,(0, 245),6	1195,(0, 250),6	1219,(0, 255),6	1243,(0, 260),6	1267,(0, 265),6	1291,(0, 270),6	1315,(0, 275),6	1339,(0, 280),6	1363,(0, 285),6	1387,(0, 290),6	1411,(0, 295),6	1435,(0, 300),6	1459,(0, 305),6	1483,(0, 310),6	1507,(0, 315),6	1531,(0, 320),6	
13,(0, 4),6	37,(0, 9),6	61,(0, 14),6	85,(0, 19),6	109,(0, 24),6	133,(0, 29),6	157,(0, 34),6	181,(0, 39),6	205,(0, 44),6	229,(0, 49),6	253,(0, 54),6	277,(0, 59),6	301,(0, 64),6	325,(0, 69),6	349,(0, 74),6	373,(0, 79),6	397,(0, 84),6	421,(0, 89),6	445,(0, 94),6	469,(0, 99),6	493,(0, 104),6	517,(0, 109),6	541,(0, 114),6	565,(0, 119),6	589,(0, 124),6	613,(0, 129),6	637,(0, 134),6	661,(0, 139),6	685,(0, 144),6	709,(0, 149),6	733,(0, 154),6	757,(0, 159),6	781,(0, 164),6	805,(0, 169),6	829,(0, 174),6	853,(0, 179),6	877,(0, 184),6	901,(0, 189),6	925,(0, 194),6	949,(0, 199),6	973,(0, 204),6	997,(0, 209),6	1021,(0, 214),6	1045,(0, 219),6	1069,(0, 224),6	1093,(0, 229),6	1117,(0, 234),6	1141,(0, 239),6	1165,(0, 244),6	1189,(0, 249),6	1213,(0, 254),6	1237,(0, 259),6	1261,(0, 264),6	1285,(0, 269),6	1309,(0, 274),6	1333,(0, 279),6	1357,(0, 284),6	1381,(0, 289),6	1405,(0, 294),6	1429,(0, 299),6	1453,(0, 304),6	1477,(0, 309),6	1501,(0, 314),6	1525,(0, 319),6	
7,(0, 3),6	31,(0, 8),6	55,(0, 13),6	79,(0, 18),6	103,(0, 23),6	127,(0, 28),6	151,(0, 33),6	175,(0, 38),6	199,(0, 43),6	223,(0, 48),6	247,(0, 53),6	271,(0, 58),6	295,(0, 63),6	319,(0, 68),6	343,(0, 73),6	367,(0, 78),6	391,(0, 83),6	415,(0, 88),6	439,(0, 93),6	463,(0, 98),6	487,(0, 103),6	511,(0, 108),6	535,(0, 113),6	559,(0, 118),6	583,(0, 123),6	607,(0, 128),6	631,(0, 133),6	655,(0, 138),6	679,(0, 143),6	703,(0, 148),6	727,(0, 153),6	751,(0, 158),6	775,(0, 163),6	799,(0, 168),6	823,(0, 173),6	847,(0, 178),6	871,(0, 183),6	895,(0, 188),6	919,(0, 193),6	943,(0, 198),6	967,(0, 203),6	991,(0, 208),6	1015,(0, 213),6	1039,(0, 218),6	1063,(0, 223),6	1087,(0, 228),6	1111,(0, 233),6	1135,(0, 238),6	1159,(0, 243),6	1183,(0, 248),6	1207,(0, 253),6	1231,(0, 258),6	1255,(0, 263),6	1279,(0, 268),6	1303,(0, 273),6	1327,(0, 278),6	1351,(0, 283),6	1375,(0, 288),6	1399,(0, 293),6	1423,(0, 298),6	1447,(0, 303),6	1471,(0, 308),6	1495,(0, 313),6	1519,(0, 318),6	
1,(0, 2),6	25,(0, 7),6	49,(0, 12),6	73,(0, 17),6	97,(0, 22),6	121,(0, 27),6	145,(0, 32),6	169,(0, 37),6	193,(0, 42),6	217,(0, 47),6	241,(0, 52),6	265,(0, 57),6	289,(0, 62),6	313,(0, 67),6	337,(0, 72),6	361,(0, 77),6	385,(0, 82),6	409,(0, 87),6	433,(0, 92),6	457,(0, 97),6	481,(0, 102),6	505,(0, 107),6	529,(0, 112),6	553,(0, 117),6	577,(0, 122),6	601,(0, 127),6	625,(0, 132),6	649,(0, 137),6	673,(0, 142),6	697,(0, 147),6	721,(0, 152),6	745,(0, 157),6	769,(0, 162),6	793,(0, 167),6	817,(0, 172),6	841,(0, 177),6	865,(0, 182),6	889,(0, 187),6	913,(0, 192),6	937,(0, 197),6	961,(0, 202),6	985,(0, 207),6	1009,(0, 212),6	1033,(0, 217),6	1057,(0, 222),6	1081,(0, 227),6	1105,(0, 232),6	1129,(0, 237),6	1153,(0, 242),6	1177,(0, 247),6	1201,(0, 252),6	1225,(0, 257),6	1249,(0, 262),6	1273,(0, 267),6	1297,(0, 272),6	1321,(0, 277),6	1345,(0, 282),6	1369,(0, 287),6	1393,(0, 292),6	1417,(0, 297),6	1441,(0, 302),6	1465,(0, 307),6	1489,(0, 312),6	1513,(0, 317),6	
14,(2, 321),22	36,(3, 321),22	58,(4, 321),22	80,(5, 321),22	102,(7, 321),22	124,(8, 321),22	146,(9, 321),22	168,(10, 321),22	190,(12, 321),22	212,(13, 321),22	234,(14, 321),22	256,(15, 321),22	278,(17, 321),22	300,(18, 321),22	322,(19, 321),22	344,(20, 321),22	366,(22, 321),22	388,(23, 321),22	410,(24, 321),22	432,(25, 321),22	454,(27, 321),22	476,(28, 321),22	498,(29, 321),22	520,(30, 321),22	542,(32, 321),22	564,(33, 321),22	586,(34, 321),22	608,(35, 321),22	630,(37, 321),22	652,(38, 321),22	674,(39, 321),22	696,(40, 321),22	718,(42, 321),22	740,(43, 321),22	762,(44, 321),22	784,(45, 321),22	806,(47, 321),22	828,(48, 321),22	850,(49, 321),22	872,(50, 321),22	894,(52, 321),22	916,(53, 321),22	938,(54, 321),22	960,(55, 321),22	982,(57, 321),22	1004,(58, 321),22	1026,(59, 321),22	1048,(60, 321),22	1070,(62, 321),22	1092,(63, 321),22	1114,(64, 321),22	1136,(65, 321),22	1158,(67, 321),22	1180,(68, 321),22	1202,(69, 321),22	1224,(70, 321),22	1246,(72, 321),22	1268,(73, 321),22	1290,(74, 321),22	1312,(75, 321),22	1334,(77, 321),22	1356,(78, 321),22	1378,(79, 321),22	1400,(80, 321),22	1422,(82, 321),22	1444,(83, 321),22	1466,(84, 321),22	1488,(85, 321),22	1510,(87, 321),22	1532,(88, 321),22	1554,(89, 321),22	1576,(90, 321),22	1598,(92, 321),22	1620,(93, 321),22	1642,(94, 321),22	1664,(95, 321),22	1686,(97, 321),22	1708,(98, 321),22	1730,(99, 321),22	1752,(100, 321),22	1774,(102, 321),22	1796,(103, 321),22	1818,(104, 321),22	1840,(105, 321),22	1862,(107, 321),22	1884,(108, 321),22	1906,(109, 321),22	1928,(110, 321),22	1950,(112, 321),22	1972,(113, 321),22	1994,(114, 321),22	2016,(115, 321),22	2038,(117, 321),22	2060,(118, 321),22	2082,(119, 321),22	2104,(120, 321),22	2126,(122, 321),22	2148,(123, 321),22	2170,(124, 321),22	2192,(125, 321),22	2214,(127, 321),22	2236,(128, 321),22	2258,(129, 321),22	2280,(130, 321),22	2302,(132, 321),22	2324,(133, 321),22	2346,(134, 321),22	2368,(135, 321),22	2390,(137, 321),22	2412,(138, 321),22	2434,(139, 321),22	2456,(140, 321),22	2478,(142, 321),22	2500,(143, 321),22	2522,(144, 321),22	2544,(145, 321),22	2566,(147, 321),22	2588,(148, 321),22	2610,(149, 321),22	2632,(150, 321),22	2654,(152, 321),22	2676,(153, 321),22	2698,(154, 321),22	2720,(155, 321),22	2742,(157, 321),22	2764,(158, 321),22	2786,(159, 321),22	2808,(160, 321),22	2830,(162, 321),22	2852,(163, 321),22	2874,(164, 321),22	2896,(165, 321),22	2918,(167, 321),22	2940,(168, 321),22	2962,(169, 321),22	2984,(170, 321),22	3006,(172, 321),22	3028,(173, 321),22	3050,(174, 321),22	3072,(175, 321),22	3094,(177, 321),22	3116,(178, 321),22	3138,(179, 321),22	3160,(180, 321),22	3182,(182, 321),22	3204,(183, 321),22	3226,(184, 321),22	3248,(185, 321),22	3270,(187, 321),22	3292,(188, 321),22	3314,(189, 321),22	3336,(190, 321),22	3358,(192, 321),22	3380,(193, 321),22	3402,(194, 321),22	3424,(195, 321),22	3446,(197, 321),22	3468,(198, 321),22	3490,(199, 321),22	3512,(200, 321),22	3534,(202, 321),22	3556,(203, 321),22	3578,(204, 321),22	3600,(205, 321),22	3622,(207, 321),22	3644,(208, 321),22	3666,(209, 321),22	3688,(210, 321),22	3710,(212, 321),22	3732,(213, 321),22	3754,(214, 321),22	3776,(215, 321),22	3798,(217, 321),22	3820,(218, 321),22	3842,(219, 321),22	3864,(220, 321),22	3886,(222, 321),22	3908,(223, 321),22	3930,(224, 321),22	3952,(225, 321),22	3974,(227, 321),22	3996,(228, 321),22	4018,(229, 321),22	4040,(230, 321),22	4062,(232, 321),22	4084,(233, 321),22	4106,(234, 321),22	4128,(235, 321),22	4150,(237, 321),22	4172,(238, 321),22	4194,(239, 321),22	4216,(240, 321),22	4238,(242, 321),22	4260,(243, 321),22	4282,(244, 321),22	4304,(245, 321),22	4326,(247, 321),22	4348,(248, 321),22	4370,(249, 321),22	4392,(250, 321),22	4414,(252, 321),22	4436,(253, 321),22	4458,(254, 321),22	4480,(255, 321),22	4502,(257, 321),22	4524,(258, 321),22	4546,(259, 321),22	4568,(260, 321),22	4590,(262, 321),22	4612,(263, 321),22	4634,(264, 321),22	4656,(265, 321),22	4678,(267, 321),22	4700,(268, 321),22	4722,(269, 321),22	4744,(270, 321),22	4766,(272, 321),22	4788,(273, 321),22	4810,(274, 321),22	4832,(275, 321),22	4854,(277, 321),22	4876,(278, 321),22	4898,(279, 321),22	4920,(280, 321),22	4942,(282, 321),22	4964,(283, 321),22	4986,(284, 321),22	5008,(285, 321),22	5030,(287, 321),22	5052,(288, 321),22	5074,(289, 321),22	5096,(290, 321),22	5118,(292, 321),22	5140,(293, 321),22	5162,(294, 321),22	5184,(295, 321),22	5206,(297, 321),22	5228,(298, 321),22	5250,(299, 321),22	5272,(300, 321),22	5294,(302, 321),22	5316,(303, 321),22	5338,(304, 321),22	5360,(305, 321),22	5382,(307, 321),22	5404,(308, 321),22	5426,(309, 321),22	5448,(310, 321),22	5470,(312, 321),22	5492,(313, 321),22	5514,(314, 321),22	5536,(315, 321),22	5558,(317, 321),22	5580,(318, 321),22	5602,(319, 321),22	5624,(320, 321),22	
# Outgoing
80,(5, 321),22	168,(10, 321),22	256,(15, 321),22	344,(20, 321),22	432,(25, 321),22	520,(30, 321),22	608,(35, 321),22	696,(40, 321),22	784,(45, 321),22	872,(50, 321),22	960,(55, 321),22	1048,(60, 321),22	1136,(65, 321),22	1224,(70, 321),22	1312,(75, 321),22	1400,(80, 321),22	1488,(85, 321),22	1576,(90, 321),22	1664,(95, 321),22	1752,(100, 321),22	1840,(105, 321),22	1928,(110, 321),22	2016,(115, 321),22	2104,(120, 321),22	2192,(125, 321),22	2280,(130, 321),22	2368,(135, 321),22	2456,(140, 321),22	2544,(145, 321),22	2632,(150, 321),22	2720,(155, 321),22	2808,(160, 321),22	2896,(165, 321),22	2984,(170, 321),22	3072,(175, 321),22	3160,(180, 321),22	3248,(185, 321),22	3336,(190, 321),22	3424,(195, 321),22	3512,(200, 321),22	3600,(205, 321),22	3688,(210, 321),22	3776,(215, 321),22	3864,(220, 321),22	3952,(225, 321),22	4040,(230, 321),22	4128,(235, 321),22	4216,(240, 321),22	4304,(245, 321),22	4392,(250, 321),22	4480,(255, 321),22	4568,(260, 321),22	4656,(265, 321),22	4744,(270, 321),22	4832,(275, 321),22	4920,(280, 321),22	5008,(285, 321),22	5096,(290, 321),22	5184,(295, 321),22	5272,(300, 321),22	5360,(305, 321),22	5448,(310, 321),22	5536,(315, 321),22	5624,(320, 321),22	
58,(4, 321),22	146,(9, 321),22	234,(14, 321),22	322,(19, 321),22	410,(24, 321),22	498,(29, 321),22	586,(34, 321),22	674,(39, 321),22	762,(44, 321),22	850,(49, 321),22	938,(54, 321),22	1026,(59, 321),22	1114,(64, 321),22	1202,(69, 321),22	1290,(74, 321),22	1378,(79, 321),22	1466,(84, 321),22	1554,(89, 321),22	1642,(94, 321),22	1730,(99, 321),22	1818,(104, 321),22	1906,(109, 321),22	1994,(114, 321),22	2082,(119, 321),22	2170,(124, 321),22	2258,(129, 321),22	2346,(134, 321),22	2434,(139, 321),22	2522,(144, 321),22	2610,(149, 321),22	2698,(154, 321),22	2786,(159, 321),22	2874,(164, 321),22	2962,(169, 321),22	3050,(174, 321),22	3138,(179, 321),22	3226,(184, 321),22	3314,(189, 321),22	3402,(194, 321),22	3490,(199, 321),22	3578,(204, 321),22	3666,(209, 321),22	3754,(214, 321),22	3842,(219, 321),22	3930,(224, 321),22	4018,(229, 321),22	4106,(234, 321),22	4194,(239, 321),22	4282,(244, 321),22	4370,(249, 321),22	4458,(254, 321),22	4546,(259, 321),22	4634,(264, 321),22	4722,(269, 321),22	4810,(274, 321),22	4898,(279, 321),22	4986,(284, 321),22	5074,(289, 321),22	5162,(294, 321),22	5250,(299, 321),22	5338,(304, 321),22	5426,(309, 321),22	5514,(314, 321),22	5602,(319, 321),22	
36,(3, 321),22	124,(8, 321),22	212,(13, 321),22	300,(18, 321),22	388,(23, 321),22	476,(28, 321),22	564,(33, 321),22	652,(38, 321),22	740,(43, 321),22	828,(48, 321),22	916,(53, 321),22	1004,(58, 321),22	1092,(63, 321),22	1180,(68, 321),22	1268,(73, 321),22	1356,(78, 321),22	1444,(83, 321),22	1532,(88, 321),22	1620,(93, 321),22	1708,(98, 321),22	1796,(103, 321),22	1884,(108, 321),22	1972,(113, 321),22	2060,(118, 321),22	2148,(123, 321),22	2236,(128, 321),22	2324,(133, 321),22	2412,(138, 321),22	2500,(143, 321),22	2588,(148, 321),22	2676,(153, 321),22	2764,(158, 321),22	2852,(163, 321),22	2940,(168, 321),22	3028,(173, 321),22	3116,(178, 321),22	3204,(183, 321),22	3292,(188, 321),22	3380,(193, 321),22	3468,(198, 321),22	3556,(203, 321),22	3644,(208, 321),22	3732,(213, 321),22	3820,(218, 321),22	3908,(223, 321),22	3996,(228, 321),22	4084,(233, 321),22	4172,(238, 321),22	4260,(243, 321),22	4348,(248, 321),22	4436,(253, 321),22	4524,(258, 321),22	4612,(263, 321),22	4700,(268, 321),22	4788,(273, 321),22	4876,(278, 321),22	4964,(283, 321),22	5052,(288, 321),22	5140,(293, 321),22	5228,(298, 321),22	5316,(303, 321),22	5404,(308, 321),22	5492,(313, 321),22	5580,(318, 321),22	
14,(2, 321),22	102,(7, 321),22	190,(12, 321),22	278,(17, 321),22	366,(22, 321),22	454,(27, 321),22	542,(32, 321),22	630,(37, 321),22	718,(42, 321),22	806,(47, 321),22	894,(52, 321),22	982,(57, 321),22	1070,(62, 321),22	1158,(67, 321),22	1246,(72, 321),22	1334,(77, 321),22	1422,(82, 321),22	1510,(87, 321),22	1598,(92, 321),22	1686,(97, 321),22	1774,(102, 321),22	1862,(107, 321),22	1950,(112, 321),22	2038,(117, 321),22	2126,(122, 321),22	2214,(127, 321),22	2302,(132, 321),22	2390,(137, 321),22	2478,(142, 321),22	2566,(147, 321),22	2654,(152, 321),22	2742,(157, 321),22	2830,(162, 321),22	2918,(167, 321),22	3006,(172, 321),22	3094,(177, 321),22	3182,(182, 321),22	3270,(187, 321),22	3358,(192, 321),22	3446,(197, 321),22	3534,(202, 321),22	3622,(207, 321),22	3710,(212, 321),22	3798,(217, 321),22	3886,(222, 321),22	3974,(227, 321),22	4062,(232, 321),22	4150,(237, 321),22	4238,(242, 321),22	4326,(247, 321),22	4414,(252, 321),22	4502,(257, 321),22	4590,(262, 321),22	4678,(267, 321),22	4766,(272, 321),22	4854,(277, 321),22	4942,(282, 321),22	5030,(287, 321),22	5118,(292, 321),22	5206,(297, 321),22	5294,(302, 321),22	5382,(307, 321),22	5470,(312, 321),22	5558,(317, 321),22	
1,(0, 2),6	7,(0, 3),6	13,(0, 4),6	19,(0, 5),6	25,(0, 7),6	31,(0, 8),6	37,(0, 9),6	43,(0, 10),6	49,(0, 12),6	55,(0, 13),6	61,(0, 14),6	67,(0, 15),6	73,(0, 17),6	79,(0, 18),6	85,(0, 19),6	91,(0, 20),6	97,(0, 22),6	103,(0, 23),6	109,(0, 24),6	115,(0, 25),6	121,(0, 27),6	127,(0, 28),6	133,(0, 29),6	139,(0, 30),6	145,(0, 32),6	151,(0, 33),6	157,(0, 34),6	163,(0, 35),6	169,(0, 37),6	175,(0, 38),6	181,(0, 39),6	187,(0, 40),6	193,(0, 42),6	199,(0, 43),6	205,(0, 44),6	211,(0, 45),6	217,(0, 47),6	223,(0, 48),6	229,(0, 49),6	235,(0, 50),6	241,(0, 52),6	247,(0, 53),6	253,(0, 54),6	259,(0, 55),6	265,(0, 57),6	271,(0, 58),6	277,(0, 59),6	283,(0, 60),6	289,(0, 62),6	295,(0, 63),6	301,(0, 64),6	307,(0, 65),6	313,(0, 67),6	319,(0, 68),6	325,(0, 69),6	331,(0, 70),6	337,(0, 72),6	343,(0, 73),6	349,(0, 74),6	355,(0, 75),6	361,(0, 77),6	367,(0, 78),6	373,(0, 79),6	379,(0, 80),6	385,(0, 82),6	391,(0, 83),6	397,(0, 84),6	403,(0, 85),6	409,(0, 87),6	415,(0, 88),6	421,(0, 89),6	427,(0, 90),6	433,(0, 92),6	439,(0, 93),6	445,(0, 94),6	451,(0, 95),6	457,(0, 97),6	463,(0, 98),6	469,(0, 99),6	475,(0, 100),6	481,(0, 102),6	487,(0, 103),6	493,(0, 104),6	499,(0, 105),6	505,(0, 107),6	511,(0, 108),6	517,(0, 109),6	523,(0, 110),6	529,(0, 112),6	535,(0, 113),6	541,(0, 114),6	547,(0, 115),6	553,(0, 117),6	559,(0, 118),6	565,(0, 119),6	571,(0, 120),6	577,(0, 122),6	583,(0, 123),6	589,(0, 124),6	595,(0, 125),6	601,(0, 127),6	607,(0, 128),6	613,(0, 129),6	619,(0, 130),6	625,(0, 132),6	631,(0, 133),6	637,(0, 134),6	643,(0, 135),6	649,(0, 137),6	655,(0, 138),6	661,(0, 139),6	667,(0, 140),6	673,(0, 142),6	679,(0, 143),6	685,(0, 144),6	691,(0, 145),6	697,(0, 147),6	703,(0, 148),6	709,(0, 149),6	715,(0, 150),6	721,(0, 152),6	727,(0, 153),6	733,(0, 154),6	739,(0, 155),6	745,(0, 157),6	751,(0, 158),6	757,(0, 159),6	763,(0, 160),6	769,(0, 162),6	775,(0, 163),6	781,(0, 164),6	787,(0, 165),6	793,(0, 167),6	799,(0, 168),6	805,(0, 169),6	811,(0, 170),6	817,(0, 172),6	823,(0, 173),6	829,(0, 174),6	835,(0, 175),6	841,(0, 177),6	847,(0, 178),6	853,(0, 179),6	859,(0, 180),6	865,(0, 182),6	871,(0, 183),6	877,(0, 184),6	883,(0, 185),6	889,(0, 187),6	895,(0, 188),6	901,(0, 189),6	907,(0, 190),6	913,(0, 192),6	919,(0, 193),6	925,(0, 194),6	931,(0, 195),6	937,(0, 197),6	943,(0, 198),6	949,(0, 199),6	955,(0, 200),6	961,(0, 202),6	967,(0, 203),6	973,(0, 204),6	979,(0, 205),6	985,(0, 207),6	991,(0, 208),6	997,(0, 209),6	1003,(0, 210),6	1009,(0, 212),6	1015,(0, 213),6	1021,(0, 214),6	1027,(0, 215),6	1033,(0, 217),6	1039,(0, 218),6	1045,(0, 219),6	1051,(0, 220),6	1057,(0, 222),6	1063,(0, 223),6	1069,(0, 224),6	1075,(0, 225),6	1081,(0, 227),6	1087,(0, 228),6	1093,(0, 229),6	1099,(0, 230),6	1105,(0, 232),6	1111,(0, 233),6	1117,(0, 234),6	1123,(0, 235),6	1129,(0, 237),6	1135,(0, 238),6	1141,(0, 239),6	1147,(0, 240),6	1153,(0, 242),6	1159,(0, 243),6	1165,(0, 244),6	1171,(0, 245),6	1177,(0, 247),6	1183,(0, 248),6	1189,(0, 249),6	1195,(0, 250),6	1201,(0, 252),6	1207,(0, 253),6	1213,(0, 254),6	1219,(0, 255),6	1225,(0, 257),6	1231,(0, 258),6	1237,(0, 259),6	1243,(0, 260),6	1249,(0, 262),6	1255,(0, 263),6	1261,(0, 264),6	1267,(0, 265),6	1273,(0, 267),6	1279,(0, 268),6	1285,(0, 269),6	1291,(0, 270),6	1297,(0, 272),6	1303,(0, 273),6	1309,(0, 274),6	1315,(0, 275),6	1321,(0, 277),6	1327,(0, 278),6	1333,(0, 279),6	1339,(0, 280),6	1345,(0, 282),6	1351,(0, 283),6	1357,(0, 284),6	1363,(0, 285),6	1369,(0, 287),6	1375,(0, 288),6	1381,(0, 289),6	1387,(0, 290),6	1393,(0, 292),6	1399,(0, 293),6	1405,(0, 294),6	1411,(0, 295),6	1417,(0, 297),6	1423,(0, 298),6	1429,(0, 299),6	1435,(0, 300),6	1441,(0, 302),6	1447,(0, 303),6	1453,(0, 304),6	1459,(0, 305),6	1465,(0, 307),6	1471,(0, 308),6	1477,(0, 309),6	1483,(0, 310),6	1489,(0, 312),6	1495,(0, 313),6	1501,(0, 314),6	1507,(0, 315),6	1513,(0, 317),6	1519,(0, 318),6	1525,(0, 319),6	1531,(0, 320),6	
