4866
# CPU
0,321,1	1,211,16	17,210,16	33,212,16	49,209,16	65,208,16	81,207,16	97,213,16	113,206,16	129,214,16	145,205,16	161,215,16	177,204,16	193,203,16	209,202,16	225,216,16	241,201,16	257,200,16	273,199,16	289,59,16	305,124,16	321,198,16	337,217,16	353,197,16	369,218,16	385,196,16	401,220,16	417,195,16	433,194,16	449,193,16	465,221,16	481,192,16	497,222,16	513,191,16	529,223,16	545,190,16	561,189,16	577,133,16	593,116,16	609,224,16	625,188,16	641,225,16	657,187,16	673,186,16	689,185,16	705,227,16	721,184,16	737,183,16	753,182,16	769,228,16	785,181,16	801,180,16	817,179,16	833,229,16	849,178,16	865,117,16	881,268,16	897,177,16	913,176,16	929,175,16	945,230,16	961,174,16	977,240,16	993,239,16	1009,241,16	1025,238,16	1041,237,16	1057,236,16	1073,242,16	1089,235,16	1105,243,16	1121,234,16	1137,244,16	1153,69,16	1169,271,16	1185,233,16	1201,231,16	1217,173,16	1233,172,16	1249,245,16	1265,170,16	1281,169,16	1297,168,16	1313,246,16	1329,167,16	1345,247,16	1361,166,16	1377,248,16	1393,165,16	1409,164,16	1425,163,16	1441,286,16	1457,99,16	1473,162,16	1489,249,16	1505,161,16	1521,160,16	1537,159,16	1553,250,16	1569,157,16	1585,251,16	1601,156,16	1617,252,16	1633,155,16	1649,154,16	1665,153,16	1681,253,16	1697,152,16	1713,151,16	1729,289,16	1745,125,16	1761,150,16	1777,149,16	1793,254,16	1809,148,16	1825,255,16	1841,147,16	1857,256,16	1873,145,16	1889,144,16	1905,143,16	1921,257,16	1937,142,16	1953,141,16	1969,140,16	1985,258,16	2001,139,16	2017,290,16	2033,83,16	2049,138,16	2065,259,16	2081,137,16	2097,260,16	2113,136,16	2129,135,16	2145,132,16	2161,261,16	2177,131,16	2193,130,16	2209,129,16	2225,262,16	2241,128,16	2257,127,16	2273,126,16	2289,263,16	2305,277,16	2321,75,16	2337,264,16	2353,123,16	2369,122,16	2385,121,16	2401,265,16	2417,119,16	2433,118,16	2449,115,16	2465,266,16	2481,114,16	2497,113,16	2513,112,16	2529,267,16	2545,111,16	2561,269,16	2577,110,16	2593,32,16	2609,67,16	2625,270,16	2641,272,16	2657,109,16	2673,108,16	2689,106,16	2705,273,16	2721,105,16	2737,104,16	2753,103,16	2769,274,16	2785,102,16	2801,275,16	2817,101,16	2833,276,16	2849,100,16	2865,98,16	2881,22,16	2897,60,16	2913,89,16	2929,88,16	2945,90,16	2961,87,16	2977,86,16	2993,85,16	3009,91,16	3025,84,16	3041,92,16	3057,82,16	3073,93,16	3089,81,16	3105,80,16	3121,79,16	3137,94,16	3153,78,16	3169,37,16	3185,46,16	3201,96,16	3217,77,16	3233,76,16	3249,97,16	3265,74,16	3281,278,16	3297,73,16	3313,280,16	3329,72,16	3345,71,16	3361,70,16	3377,281,16	3393,68,16	3409,282,16	3425,66,16	3441,283,16	3457,48,16	3473,61,16	3489,65,16	3505,64,16	3521,284,16	3537,63,16	3553,285,16	3569,62,16	3585,58,16	3601,57,16	3617,288,16	3633,56,16	3649,291,16	3665,55,16	3681,292,16	3697,54,16	3713,53,16	3729,52,16	3745,306,16	3761,307,16	3777,50,16	3793,51,16	3809,49,16	3825,47,16	3841,45,16	3857,293,16	3873,44,16	3889,303,16	3905,302,16	3921,304,16	3937,301,16	3953,300,16	3969,299,16	3985,305,16	4001,298,16	4017,297,16	4033,313,16	4049,28,16	4065,296,16	4081,295,16	4097,308,16	4113,43,16	4129,42,16	4145,40,16	4161,309,16	4177,39,16	4193,38,16	4209,36,16	4225,310,16	4241,35,16	4257,34,16	4273,33,16	4289,311,16	4305,31,16	4321,14,16	4337,19,16	4353,312,16	4369,18,16	4385,17,16	4401,20,16	4417,16,16	4433,21,16	4449,15,16	4465,23,16	4481,13,16	4497,24,16	4513,12,16	4529,25,16	4545,11,16	4561,26,16	4577,10,16	4593,29,16	4609,3,16	4625,7,16	4641,1,16	4657,2,16	4673,4,16	4689,5,16	4705,6,16	4721,8,16	4737,9,16	4753,30,16	4769,314,16	4785,315,16	4801,316,16	4817,318,16	4833,319,16	4849,320,16	4865,0,1	
1153,171,16	2305,120,16	4321,27,16	4609,317,16	
577,226,16	1441,158,16	2593,107,16	3457,287,16	4033,41,16	
865,232,16	1729,146,16	2017,134,16	2881,95,16	
289,219,16	3169,279,16	3745,294,16	
# Incoming
305,(219, 0),4	593,(226, 0),4	881,(232, 0),4	1169,(171, 0),4	1457,(158, 0),4	1745,(146, 0),4	2033,(134, 0),4	2321,(120, 0),4	2609,(107, 0),4	2897,(95, 0),4	3185,(279, 0),4	3473,(287, 0),4	3761,(294, 0),4	4049,(41, 0),4	4337,(27, 0),4	4625,(317, 0),4	
865,(321, 171),288	2017,(321, 120),288	4033,(321, 27),288	4321,(321, 317),288	
289,(321, 226),288	1153,(321, 158),288	2305,(321, 107),288	3169,(321, 287),288	3745,(321, 41),288	
577,(321, 232),288	1441,(321, 146),288	1729,(321, 134),288	2593,(321, 95),288	
1,(321, 219),288	2881,(321, 279),288	3457,(321, 294),288	
# Outgoing
1,(321, 219),288	289,(321, 226),288	577,(321, 232),288	865,(321, 171),288	1153,(321, 158),288	1441,(321, 146),288	1729,(321, 134),288	2017,(321, 120),288	2305,(321, 107),288	2593,(321, 95),288	2881,(321, 279),288	3169,(321, 287),288	3457,(321, 294),288	3745,(321, 41),288	4033,(321, 27),288	4321,(321, 317),288	
1169,(171, 0),4	2321,(120, 0),4	4337,(27, 0),4	4625,(317, 0),4	
593,(226, 0),4	1457,(158, 0),4	2609,(107, 0),4	3473,(287, 0),4	4049,(41, 0),4	
881,(232, 0),4	1745,(146, 0),4	2033,(134, 0),4	2897,(95, 0),4	
305,(219, 0),4	3185,(279, 0),4	3761,(294, 0),4	
