4356
# CPU
0,321,1	1,211,14	15,210,14	29,212,14	43,209,14	57,208,14	71,207,14	85,213,14	99,206,14	113,214,14	127,205,14	141,215,14	155,204,14	169,203,14	183,202,14	197,216,14	211,201,14	225,200,14	239,199,14	253,217,14	267,198,14	281,197,14	295,196,14	309,218,14	323,195,14	337,219,14	351,194,14	365,220,14	379,193,14	393,192,14	407,191,14	421,221,14	435,190,14	449,189,14	463,223,14	477,188,14	491,187,14	505,186,14	519,224,14	533,185,14	547,225,14	561,184,14	575,226,14	589,183,14	603,182,14	617,181,14	631,227,14	645,180,14	659,179,14	673,178,14	687,228,14	701,177,14	715,176,14	729,175,14	743,229,14	757,174,14	771,230,14	785,173,14	799,231,14	813,172,14	827,171,14	841,170,14	855,232,14	869,169,14	883,240,14	897,242,14	911,239,14	925,238,14	939,237,14	953,243,14	967,236,14	981,244,14	995,235,14	1009,245,14	1023,234,14	1037,233,14	1051,168,14	1065,246,14	1079,167,14	1093,166,14	1107,165,14	1121,247,14	1135,164,14	1149,163,14	1163,162,14	1177,248,14	1191,161,14	1205,249,14	1219,160,14	1233,250,14	1247,159,14	1261,158,14	1275,157,14	1289,251,14	1303,156,14	1317,154,14	1331,252,14	1345,153,14	1359,152,14	1373,151,14	1387,253,14	1401,150,14	1415,254,14	1429,149,14	1443,255,14	1457,148,14	1471,147,14	1485,146,14	1499,256,14	1513,145,14	1527,144,14	1541,143,14	1555,257,14	1569,142,14	1583,141,14	1597,140,14	1611,258,14	1625,139,14	1639,259,14	1653,138,14	1667,260,14	1681,137,14	1695,136,14	1709,135,14	1723,261,14	1737,134,14	1751,132,14	1765,262,14	1779,131,14	1793,130,14	1807,129,14	1821,263,14	1835,128,14	1849,264,14	1863,127,14	1877,265,14	1891,126,14	1905,125,14	1919,124,14	1933,266,14	1947,123,14	1961,122,14	1975,121,14	1989,267,14	2003,120,14	2017,119,14	2031,118,14	2045,268,14	2059,117,14	2073,269,14	2087,116,14	2101,270,14	2115,115,14	2129,114,14	2143,113,14	2157,271,14	2171,112,14	2185,110,14	2199,272,14	2213,109,14	2227,108,14	2241,107,14	2255,273,14	2269,106,14	2283,274,14	2297,105,14	2311,275,14	2325,104,14	2339,103,14	2353,102,14	2367,276,14	2381,101,14	2395,100,14	2409,99,14	2423,277,14	2437,98,14	2451,97,14	2465,96,14	2479,278,14	2493,95,14	2507,279,14	2521,94,14	2535,280,14	2549,93,14	2563,92,14	2577,91,14	2591,281,14	2605,90,14	2619,80,14	2633,82,14	2647,79,14	2661,78,14	2675,77,14	2689,83,14	2703,76,14	2717,84,14	2731,75,14	2745,85,14	2759,74,14	2773,73,14	2787,72,14	2801,86,14	2815,71,14	2829,87,14	2843,70,14	2857,88,14	2871,69,14	2885,68,14	2899,67,14	2913,89,14	2927,66,14	2941,282,14	2955,65,14	2969,283,14	2983,64,14	2997,63,14	3011,62,14	3025,284,14	3039,61,14	3053,38,14	3067,303,14	3081,60,14	3095,59,14	3109,58,14	3123,286,14	3137,57,14	3151,287,14	3165,56,14	3179,288,14	3193,55,14	3207,54,14	3221,53,14	3235,289,14	3249,52,14	3263,290,14	3277,51,14	3291,291,14	3305,50,14	3319,49,14	3333,48,14	3347,292,14	3361,47,14	3375,293,14	3389,46,14	3403,294,14	3417,45,14	3431,44,14	3445,43,14	3459,295,14	3473,42,14	3487,305,14	3501,306,14	3515,302,14	3529,301,14	3543,300,14	3557,307,14	3571,299,14	3585,298,14	3599,297,14	3613,308,14	3627,296,14	3641,41,14	3655,40,14	3669,309,14	3683,39,14	3697,37,14	3711,36,14	3725,310,14	3739,35,14	3753,34,14	3767,33,14	3781,311,14	3795,32,14	3809,31,14	3823,30,14	3837,312,14	3851,29,14	3865,28,14	3879,27,14	3893,313,14	3907,26,14	3921,17,14	3935,18,14	3949,15,14	3963,19,14	3977,14,14	3991,20,14	4005,13,14	4019,21,14	4033,12,14	4047,22,14	4061,11,14	4075,23,14	4089,10,14	4103,24,14	4117,9,14	4131,1,14	4145,2,14	4159,3,14	4173,4,14	4187,5,14	4201,6,14	4215,7,14	4229,8,14	4243,25,14	4257,314,14	4271,315,14	4285,316,14	4299,317,14	4313,318,14	4327,319,14	4341,320,14	4355,0,1	
437,222,14	873,241,14	1309,155,14	1745,133,14	2181,111,14	2617,81,14	3053,285,14	3489,304,14	3925,16,14	
# Incoming
451,(222, 0),16	887,(241, 0),16	1323,(155, 0),16	1759,(133, 0),16	2195,(111, 0),16	2631,(81, 0),16	3067,(285, 0),16	3503,(304, 0),16	3939,(16, 0),16	
1,(321, 222),436	437,(321, 241),436	873,(321, 155),436	1309,(321, 133),436	1745,(321, 111),436	2181,(321, 81),436	2617,(321, 285),436	3053,(321, 304),436	3489,(321, 16),436	
# Outgoing
1,(321, 222),436	437,(321, 241),436	873,(321, 155),436	1309,(321, 133),436	1745,(321, 111),436	2181,(321, 81),436	2617,(321, 285),436	3053,(321, 304),436	3489,(321, 16),436	
451,(222, 0),16	887,(241, 0),16	1323,(155, 0),16	1759,(133, 0),16	2195,(111, 0),16	2631,(81, 0),16	3067,(285, 0),16	3503,(304, 0),16	3939,(16, 0),16	
