308
# CPU
0,321,1	1,320,1	2,210,1	3,211,1	4,209,1	5,208,1	6,207,1	7,212,1	8,206,1	9,213,1	10,205,1	11,214,1	12,204,1	13,203,1	14,202,1	15,215,1	16,201,1	17,200,1	18,199,1	19,216,1	20,198,1	21,197,1	22,196,1	23,217,1	24,195,1	25,218,1	26,194,1	27,219,1	28,193,1	29,192,1	30,191,1	31,220,1	32,190,1	33,221,1	34,189,1	35,188,1	36,187,1	37,186,1	38,222,1	39,185,1	40,223,1	41,184,1	42,224,1	43,183,1	44,182,1	45,181,1	46,225,1	47,180,1	48,179,1	49,178,1	50,227,1	51,177,1	52,176,1	53,175,1	54,174,1	55,228,1	56,173,1	57,229,1	58,172,1	59,171,1	60,170,1	61,230,1	62,169,1	63,240,1	64,239,1	65,241,1	66,238,1	67,237,1	68,236,1	69,242,1	70,235,1	71,243,1	72,234,1	73,244,1	74,232,1	75,231,1	76,245,1	77,168,1	78,167,1	79,166,1	80,246,1	81,164,1	82,163,1	83,162,1	84,247,1	85,161,1	86,248,1	87,160,1	88,249,1	89,159,1	90,158,1	91,157,1	92,250,1	93,156,1	94,155,1	95,251,1	96,154,1	97,153,1	98,152,1	99,252,1	100,150,1	101,253,1	102,149,1	103,254,1	104,148,1	105,147,1	106,146,1	107,255,1	108,145,1	109,144,1	110,143,1	111,256,1	112,142,1	113,141,1	114,257,1	115,140,1	116,258,1	117,139,1	118,259,1	119,138,1	120,136,1	121,135,1	122,260,1	123,134,1	124,133,1	125,132,1	126,261,1	127,131,1	128,130,1	129,129,1	130,262,1	131,128,1	132,263,1	133,127,1	134,264,1	135,126,1	136,125,1	137,265,1	138,124,1	139,122,1	140,121,1	141,266,1	142,120,1	143,119,1	144,118,1	145,267,1	146,117,1	147,268,1	148,116,1	149,269,1	150,115,1	151,114,1	152,113,1	153,270,1	154,112,1	155,111,1	156,271,1	157,110,1	158,109,1	159,108,1	160,272,1	161,107,1	162,273,1	163,105,1	164,274,1	165,104,1	166,103,1	167,102,1	168,275,1	169,101,1	170,100,1	171,99,1	172,276,1	173,98,1	174,97,1	175,277,1	176,96,1	177,278,1	178,95,1	179,279,1	180,94,1	181,93,1	182,91,1	183,280,1	184,90,1	185,81,1	186,80,1	187,82,1	188,79,1	189,78,1	190,77,1	191,83,1	192,76,1	193,84,1	194,75,1	195,74,1	196,73,1	197,72,1	198,85,1	199,71,1	200,86,1	201,70,1	202,87,1	203,69,1	204,68,1	205,67,1	206,89,1	207,66,1	208,281,1	209,65,1	210,282,1	211,64,1	212,63,1	213,62,1	214,61,1	215,283,1	216,60,1	217,284,1	218,59,1	219,58,1	220,57,1	221,285,1	222,56,1	223,287,1	224,55,1	225,288,1	226,54,1	227,53,1	228,52,1	229,289,1	230,51,1	231,290,1	232,50,1	233,291,1	234,48,1	235,47,1	236,49,1	237,46,1	238,292,1	239,45,1	240,293,1	241,44,1	242,43,1	243,42,1	244,294,1	245,41,1	246,304,1	247,303,1	248,305,1	249,302,1	250,301,1	251,300,1	252,306,1	253,299,1	254,298,1	255,307,1	256,297,1	257,295,1	258,40,1	259,308,1	260,38,1	261,37,1	262,36,1	263,309,1	264,35,1	265,34,1	266,33,1	267,310,1	268,32,1	269,31,1	270,30,1	271,311,1	272,29,1	273,28,1	274,312,1	275,27,1	276,17,1	277,16,1	278,18,1	279,15,1	280,19,1	281,14,1	282,20,1	283,13,1	284,21,1	285,12,1	286,23,1	287,11,1	288,24,1	289,10,1	290,25,1	291,9,1	292,1,1	293,2,1	294,3,1	295,4,1	296,5,1	297,6,1	298,7,1	299,8,1	300,26,1	301,313,1	302,314,1	303,315,1	304,317,1	305,318,1	306,319,1	307,0,1	
21,226,1	41,233,1	181,88,1	221,296,1	
101,137,1	121,123,1	141,106,1	201,286,1	
61,165,1	81,151,1	161,92,1	241,39,1	261,22,1	281,316,1	
# Incoming
22,(226, 0),12	42,(233, 0),12	62,(165, 0),12	82,(151, 0),12	102,(137, 0),12	122,(123, 0),12	142,(106, 0),12	162,(92, 0),12	182,(88, 0),12	202,(286, 0),12	222,(296, 0),12	242,(39, 0),12	262,(22, 0),12	282,(316, 0),12	
1,(321, 226),20	21,(321, 233),20	161,(321, 88),20	201,(321, 296),20	
81,(321, 137),20	101,(321, 123),20	121,(321, 106),20	181,(321, 286),20	
41,(321, 165),20	61,(321, 151),20	141,(321, 92),20	221,(321, 39),20	241,(321, 22),20	261,(321, 316),20	
# Outgoing
1,(321, 226),20	21,(321, 233),20	41,(321, 165),20	61,(321, 151),20	81,(321, 137),20	101,(321, 123),20	121,(321, 106),20	141,(321, 92),20	161,(321, 88),20	181,(321, 286),20	201,(321, 296),20	221,(321, 39),20	241,(321, 22),20	261,(321, 316),20	
22,(226, 0),12	42,(233, 0),12	182,(88, 0),12	222,(296, 0),12	
102,(137, 0),12	122,(123, 0),12	142,(106, 0),12	202,(286, 0),12	
62,(165, 0),12	82,(151, 0),12	162,(92, 0),12	242,(39, 0),12	262,(22, 0),12	282,(316, 0),12	
