4626
# CPU
0,321,1	1,320,16	17,210,16	33,211,16	49,209,16	65,208,16	81,207,16	97,212,16	113,206,16	129,213,16	145,205,16	161,204,16	177,203,16	193,202,16	209,214,16	225,201,16	241,200,16	257,199,16	273,215,16	289,198,16	305,196,16	321,197,16	337,195,16	353,217,16	369,194,16	385,218,16	401,193,16	417,192,16	433,191,16	449,190,16	465,220,16	481,189,16	497,221,16	513,188,16	529,187,16	545,186,16	561,223,16	577,185,16	593,184,16	609,224,16	625,183,16	641,182,16	657,181,16	673,225,16	689,180,16	705,179,16	721,178,16	737,177,16	753,176,16	769,175,16	785,227,16	801,174,16	817,228,16	833,173,16	849,230,16	865,172,16	881,170,16	897,171,16	913,169,16	929,240,16	945,239,16	961,241,16	977,238,16	993,237,16	1009,236,16	1025,242,16	1041,243,16	1057,235,16	1073,244,16	1089,234,16	1105,233,16	1121,168,16	1137,245,16	1153,167,16	1169,166,16	1185,246,16	1201,165,16	1217,164,16	1233,163,16	1249,247,16	1265,161,16	1281,248,16	1297,160,16	1313,249,16	1329,159,16	1345,158,16	1361,250,16	1377,157,16	1393,156,16	1409,154,16	1425,251,16	1441,153,16	1457,152,16	1473,252,16	1489,151,16	1505,253,16	1521,150,16	1537,254,16	1553,149,16	1569,147,16	1585,146,16	1601,255,16	1617,145,16	1633,144,16	1649,256,16	1665,143,16	1681,141,16	1697,140,16	1713,257,16	1729,139,16	1745,258,16	1761,259,16	1777,138,16	1793,137,16	1809,136,16	1825,260,16	1841,134,16	1857,133,16	1873,132,16	1889,261,16	1905,131,16	1921,130,16	1937,262,16	1953,129,16	1969,263,16	1985,127,16	2001,264,16	2017,126,16	2033,125,16	2049,265,16	2065,124,16	2081,123,16	2097,121,16	2113,266,16	2129,120,16	2145,119,16	2161,118,16	2177,267,16	2193,268,16	2209,117,16	2225,269,16	2241,116,16	2257,114,16	2273,113,16	2289,270,16	2305,112,16	2321,111,16	2337,271,16	2353,110,16	2369,109,16	2385,107,16	2401,272,16	2417,106,16	2433,273,16	2449,105,16	2465,274,16	2481,104,16	2497,103,16	2513,275,16	2529,101,16	2545,100,16	2561,99,16	2577,276,16	2593,98,16	2609,97,16	2625,277,16	2641,96,16	2657,278,16	2673,94,16	2689,279,16	2705,93,16	2721,92,16	2737,91,16	2753,280,16	2769,81,16	2785,80,16	2801,82,16	2817,79,16	2833,78,16	2849,77,16	2865,83,16	2881,76,16	2897,75,16	2913,84,16	2929,74,16	2945,73,16	2961,72,16	2977,85,16	2993,71,16	3009,86,16	3025,70,16	3041,69,16	3057,68,16	3073,67,16	3089,89,16	3105,66,16	3121,90,16	3137,65,16	3153,281,16	3169,64,16	3185,62,16	3201,63,16	3217,61,16	3233,283,16	3249,60,16	3265,284,16	3281,59,16	3297,58,16	3313,57,16	3329,56,16	3345,286,16	3361,55,16	3377,287,16	3393,54,16	3409,53,16	3425,52,16	3441,288,16	3457,51,16	3473,50,16	3489,290,16	3505,49,16	3521,48,16	3537,47,16	3553,291,16	3569,46,16	3585,293,16	3601,45,16	3617,44,16	3633,43,16	3649,42,16	3665,294,16	3681,41,16	3697,304,16	3713,303,16	3729,305,16	3745,302,16	3761,301,16	3777,306,16	3793,300,16	3809,299,16	3825,298,16	3841,307,16	3857,295,16	3873,40,16	3889,39,16	3905,308,16	3921,38,16	3937,37,16	3953,309,16	3969,36,16	3985,34,16	4001,33,16	4017,310,16	4033,32,16	4049,31,16	4065,311,16	4081,30,16	4097,29,16	4113,27,16	4129,312,16	4145,26,16	4161,17,16	4177,16,16	4193,15,16	4209,18,16	4225,14,16	4241,19,16	4257,13,16	4273,20,16	4289,12,16	4305,22,16	4321,11,16	4337,10,16	4353,23,16	4369,9,16	4385,1,16	4401,2,16	4417,3,16	4433,4,16	4449,5,16	4465,6,16	4481,7,16	4497,8,16	4513,24,16	4529,313,16	4545,314,16	4561,315,16	4577,316,16	4593,318,16	4609,319,16	4625,0,1	
145,216,16	289,219,16	577,226,16	1009,231,16	2017,122,16	2449,102,16	2593,95,16	3313,289,16	3601,296,16	
721,229,16	1153,162,16	1585,142,16	2161,115,16	3025,282,16	3745,297,16	
433,222,16	865,232,16	1729,135,16	2305,108,16	2737,88,16	3169,285,16	3457,292,16	3889,35,16	4033,28,16	4321,25,16	4465,317,16	
1297,155,16	1441,148,16	1873,128,16	2881,87,16	4177,21,16	
# Incoming
161,(216, 0),2	305,(219, 0),2	449,(222, 0),2	593,(226, 0),2	737,(229, 0),2	881,(232, 0),2	1025,(231, 0),2	1169,(162, 0),2	1313,(155, 0),2	1457,(148, 0),2	1601,(142, 0),2	1745,(135, 0),2	1889,(128, 0),2	2033,(122, 0),2	2177,(115, 0),2	2321,(108, 0),2	2465,(102, 0),2	2609,(95, 0),2	2753,(88, 0),2	2897,(87, 0),2	3041,(282, 0),2	3185,(285, 0),2	3329,(289, 0),2	3473,(292, 0),2	3617,(296, 0),2	3761,(297, 0),2	3905,(35, 0),2	4049,(28, 0),2	4193,(21, 0),2	4337,(25, 0),2	4481,(317, 0),2	
1,(321, 216),144	145,(321, 219),144	433,(321, 226),144	865,(321, 231),144	1873,(321, 122),144	2305,(321, 102),144	2449,(321, 95),144	3169,(321, 289),144	3457,(321, 296),144	
577,(321, 229),144	1009,(321, 162),144	1441,(321, 142),144	2017,(321, 115),144	2881,(321, 282),144	3601,(321, 297),144	
289,(321, 222),144	721,(321, 232),144	1585,(321, 135),144	2161,(321, 108),144	2593,(321, 88),144	3025,(321, 285),144	3313,(321, 292),144	3745,(321, 35),144	3889,(321, 28),144	4177,(321, 25),144	4321,(321, 317),144	
1153,(321, 155),144	1297,(321, 148),144	1729,(321, 128),144	2737,(321, 87),144	4033,(321, 21),144	
# Outgoing
1,(321, 216),144	145,(321, 219),144	289,(321, 222),144	433,(321, 226),144	577,(321, 229),144	721,(321, 232),144	865,(321, 231),144	1009,(321, 162),144	1153,(321, 155),144	1297,(321, 148),144	1441,(321, 142),144	1585,(321, 135),144	1729,(321, 128),144	1873,(321, 122),144	2017,(321, 115),144	2161,(321, 108),144	2305,(321, 102),144	2449,(321, 95),144	2593,(321, 88),144	2737,(321, 87),144	2881,(321, 282),144	3025,(321, 285),144	3169,(321, 289),144	3313,(321, 292),144	3457,(321, 296),144	3601,(321, 297),144	3745,(321, 35),144	3889,(321, 28),144	4033,(321, 21),144	4177,(321, 25),144	4321,(321, 317),144	
161,(216, 0),2	305,(219, 0),2	593,(226, 0),2	1025,(231, 0),2	2033,(122, 0),2	2465,(102, 0),2	2609,(95, 0),2	3329,(289, 0),2	3617,(296, 0),2	
737,(229, 0),2	1169,(162, 0),2	1601,(142, 0),2	2177,(115, 0),2	3041,(282, 0),2	3761,(297, 0),2	
449,(222, 0),2	881,(232, 0),2	1745,(135, 0),2	2321,(108, 0),2	2753,(88, 0),2	3185,(285, 0),2	3473,(292, 0),2	3905,(35, 0),2	4049,(28, 0),2	4337,(25, 0),2	4481,(317, 0),2	
1313,(155, 0),2	1457,(148, 0),2	1889,(128, 0),2	2897,(87, 0),2	4193,(21, 0),2	
