11285
# CPU
49,5,7	97,10,7	145,15,7	193,20,7	241,25,7	289,30,7	337,35,7	385,40,7	433,45,7	481,50,7	529,55,7	577,60,7	625,65,7	673,70,7	721,75,7	769,80,7	817,85,7	865,90,7	913,95,7	961,100,7	1009,105,7	1057,110,7	1105,115,7	1153,120,7	1201,125,7	1249,130,7	1297,135,7	1345,140,7	1393,145,7	1441,150,7	1489,155,7	1537,160,7	1585,165,7	1633,170,7	1681,175,7	1729,180,7	1777,185,7	1825,190,7	1873,195,7	1921,200,7	1969,205,7	2017,210,7	2065,215,7	2113,220,7	2161,225,7	2209,230,7	2257,235,7	2305,240,7	2353,245,7	2401,250,7	2449,255,7	2497,260,7	2545,265,7	2593,270,7	2641,275,7	2689,280,7	2737,285,7	2785,290,7	2833,295,7	2881,300,7	2929,305,7	2977,310,7	3025,315,7	3073,320,7	
37,4,7	85,9,7	133,14,7	181,19,7	229,24,7	277,29,7	325,34,7	373,39,7	421,44,7	469,49,7	517,54,7	565,59,7	613,64,7	661,69,7	709,74,7	757,79,7	805,84,7	853,89,7	901,94,7	949,99,7	997,104,7	1045,109,7	1093,114,7	1141,119,7	1189,124,7	1237,129,7	1285,134,7	1333,139,7	1381,144,7	1429,149,7	1477,154,7	1525,159,7	1573,164,7	1621,169,7	1669,174,7	1717,179,7	1765,184,7	1813,189,7	1861,194,7	1909,199,7	1957,204,7	2005,209,7	2053,214,7	2101,219,7	2149,224,7	2197,229,7	2245,234,7	2293,239,7	2341,244,7	2389,249,7	2437,254,7	2485,259,7	2533,264,7	2581,269,7	2629,274,7	2677,279,7	2725,284,7	2773,289,7	2821,294,7	2869,299,7	2917,304,7	2965,309,7	3013,314,7	3061,319,7	
25,3,7	73,8,7	121,13,7	169,18,7	217,23,7	265,28,7	313,33,7	361,38,7	409,43,7	457,48,7	505,53,7	553,58,7	601,63,7	649,68,7	697,73,7	745,78,7	793,83,7	841,88,7	889,93,7	937,98,7	985,103,7	1033,108,7	1081,113,7	1129,118,7	1177,123,7	1225,128,7	1273,133,7	1321,138,7	1369,143,7	1417,148,7	1465,153,7	1513,158,7	1561,163,7	1609,168,7	1657,173,7	1705,178,7	1753,183,7	1801,188,7	1849,193,7	1897,198,7	1945,203,7	1993,208,7	2041,213,7	2089,218,7	2137,223,7	2185,228,7	2233,233,7	2281,238,7	2329,243,7	2377,248,7	2425,253,7	2473,258,7	2521,263,7	2569,268,7	2617,273,7	2665,278,7	2713,283,7	2761,288,7	2809,293,7	2857,298,7	2905,303,7	2953,308,7	3001,313,7	3049,318,7	
13,2,7	61,7,7	109,12,7	157,17,7	205,22,7	253,27,7	301,32,7	349,37,7	397,42,7	445,47,7	493,52,7	541,57,7	589,62,7	637,67,7	685,72,7	733,77,7	781,82,7	829,87,7	877,92,7	925,97,7	973,102,7	1021,107,7	1069,112,7	1117,117,7	1165,122,7	1213,127,7	1261,132,7	1309,137,7	1357,142,7	1405,147,7	1453,152,7	1501,157,7	1549,162,7	1597,167,7	1645,172,7	1693,177,7	1741,182,7	1789,187,7	1837,192,7	1885,197,7	1933,202,7	1981,207,7	2029,212,7	2077,217,7	2125,222,7	2173,227,7	2221,232,7	2269,237,7	2317,242,7	2365,247,7	2413,252,7	2461,257,7	2509,262,7	2557,267,7	2605,272,7	2653,277,7	2701,282,7	2749,287,7	2797,292,7	2845,297,7	2893,302,7	2941,307,7	2989,312,7	3037,317,7	
0,0,1	1,1,7	8,11,7	15,31,7	22,71,7	29,151,7	36,311,7	43,306,7	50,316,7	57,301,7	64,296,7	71,291,7	78,286,7	85,281,7	92,276,7	99,271,7	106,266,7	113,261,7	120,256,7	127,251,7	134,246,7	141,241,7	148,236,7	155,231,7	162,226,7	169,221,7	176,216,7	183,211,7	190,206,7	197,201,7	204,196,7	211,191,7	218,186,7	225,181,7	232,176,7	239,171,7	246,166,7	253,161,7	260,146,7	267,156,7	274,141,7	281,136,7	288,131,7	295,126,7	302,121,7	309,116,7	316,111,7	323,106,7	330,101,7	337,96,7	344,91,7	351,86,7	358,81,7	365,66,7	372,76,7	379,61,7	386,56,7	393,51,7	400,46,7	407,41,7	414,26,7	421,36,7	428,21,7	435,6,7	442,16,7	11284,321,1	
# Incoming
37,(0, 5),12	85,(0, 10),12	133,(0, 15),12	181,(0, 20),12	229,(0, 25),12	277,(0, 30),12	325,(0, 35),12	373,(0, 40),12	421,(0, 45),12	469,(0, 50),12	517,(0, 55),12	565,(0, 60),12	613,(0, 65),12	661,(0, 70),12	709,(0, 75),12	757,(0, 80),12	805,(0, 85),12	853,(0, 90),12	901,(0, 95),12	949,(0, 100),12	997,(0, 105),12	1045,(0, 110),12	1093,(0, 115),12	1141,(0, 120),12	1189,(0, 125),12	1237,(0, 130),12	1285,(0, 135),12	1333,(0, 140),12	1381,(0, 145),12	1429,(0, 150),12	1477,(0, 155),12	1525,(0, 160),12	1573,(0, 165),12	1621,(0, 170),12	1669,(0, 175),12	1717,(0, 180),12	1765,(0, 185),12	1813,(0, 190),12	1861,(0, 195),12	1909,(0, 200),12	1957,(0, 205),12	2005,(0, 210),12	2053,(0, 215),12	2101,(0, 220),12	2149,(0, 225),12	2197,(0, 230),12	2245,(0, 235),12	2293,(0, 240),12	2341,(0, 245),12	2389,(0, 250),12	2437,(0, 255),12	2485,(0, 260),12	2533,(0, 265),12	2581,(0, 270),12	2629,(0, 275),12	2677,(0, 280),12	2725,(0, 285),12	2773,(0, 290),12	2821,(0, 295),12	2869,(0, 300),12	2917,(0, 305),12	2965,(0, 310),12	3013,(0, 315),12	3061,(0, 320),12	
25,(0, 4),12	73,(0, 9),12	121,(0, 14),12	169,(0, 19),12	217,(0, 24),12	265,(0, 29),12	313,(0, 34),12	361,(0, 39),12	409,(0, 44),12	457,(0, 49),12	505,(0, 54),12	553,(0, 59),12	601,(0, 64),12	649,(0, 69),12	697,(0, 74),12	745,(0, 79),12	793,(0, 84),12	841,(0, 89),12	889,(0, 94),12	937,(0, 99),12	985,(0, 104),12	1033,(0, 109),12	1081,(0, 114),12	1129,(0, 119),12	1177,(0, 124),12	1225,(0, 129),12	1273,(0, 134),12	1321,(0, 139),12	1369,(0, 144),12	1417,(0, 149),12	1465,(0, 154),12	1513,(0, 159),12	1561,(0, 164),12	1609,(0, 169),12	1657,(0, 174),12	1705,(0, 179),12	1753,(0, 184),12	1801,(0, 189),12	1849,(0, 194),12	1897,(0, 199),12	1945,(0, 204),12	1993,(0, 209),12	2041,(0, 214),12	2089,(0, 219),12	2137,(0, 224),12	2185,(0, 229),12	2233,(0, 234),12	2281,(0, 239),12	2329,(0, 244),12	2377,(0, 249),12	2425,(0, 254),12	2473,(0, 259),12	2521,(0, 264),12	2569,(0, 269),12	2617,(0, 274),12	2665,(0, 279),12	2713,(0, 284),12	2761,(0, 289),12	2809,(0, 294),12	2857,(0, 299),12	2905,(0, 304),12	2953,(0, 309),12	3001,(0, 314),12	3049,(0, 319),12	
13,(0, 3),12	61,(0, 8),12	109,(0, 13),12	157,(0, 18),12	205,(0, 23),12	253,(0, 28),12	301,(0, 33),12	349,(0, 38),12	397,(0, 43),12	445,(0, 48),12	493,(0, 53),12	541,(0, 58),12	589,(0, 63),12	637,(0, 68),12	685,(0, 73),12	733,(0, 78),12	781,(0, 83),12	829,(0, 88),12	877,(0, 93),12	925,(0, 98),12	973,(0, 103),12	1021,(0, 108),12	1069,(0, 113),12	1117,(0, 118),12	1165,(0, 123),12	1213,(0, 128),12	1261,(0, 133),12	1309,(0, 138),12	1357,(0, 143),12	1405,(0, 148),12	1453,(0, 153),12	1501,(0, 158),12	1549,(0, 163),12	1597,(0, 168),12	1645,(0, 173),12	1693,(0, 178),12	1741,(0, 183),12	1789,(0, 188),12	1837,(0, 193),12	1885,(0, 198),12	1933,(0, 203),12	1981,(0, 208),12	2029,(0, 213),12	2077,(0, 218),12	2125,(0, 223),12	2173,(0, 228),12	2221,(0, 233),12	2269,(0, 238),12	2317,(0, 243),12	2365,(0, 248),12	2413,(0, 253),12	2461,(0, 258),12	2509,(0, 263),12	2557,(0, 268),12	2605,(0, 273),12	2653,(0, 278),12	2701,(0, 283),12	2749,(0, 288),12	2797,(0, 293),12	2845,(0, 298),12	2893,(0, 303),12	2941,(0, 308),12	2989,(0, 313),12	3037,(0, 318),12	
1,(0, 2),12	49,(0, 7),12	97,(0, 12),12	145,(0, 17),12	193,(0, 22),12	241,(0, 27),12	289,(0, 32),12	337,(0, 37),12	385,(0, 42),12	433,(0, 47),12	481,(0, 52),12	529,(0, 57),12	577,(0, 62),12	625,(0, 67),12	673,(0, 72),12	721,(0, 77),12	769,(0, 82),12	817,(0, 87),12	865,(0, 92),12	913,(0, 97),12	961,(0, 102),12	1009,(0, 107),12	1057,(0, 112),12	1105,(0, 117),12	1153,(0, 122),12	1201,(0, 127),12	1249,(0, 132),12	1297,(0, 137),12	1345,(0, 142),12	1393,(0, 147),12	1441,(0, 152),12	1489,(0, 157),12	1537,(0, 162),12	1585,(0, 167),12	1633,(0, 172),12	1681,(0, 177),12	1729,(0, 182),12	1777,(0, 187),12	1825,(0, 192),12	1873,(0, 197),12	1921,(0, 202),12	1969,(0, 207),12	2017,(0, 212),12	2065,(0, 217),12	2113,(0, 222),12	2161,(0, 227),12	2209,(0, 232),12	2257,(0, 237),12	2305,(0, 242),12	2353,(0, 247),12	2401,(0, 252),12	2449,(0, 257),12	2497,(0, 262),12	2545,(0, 267),12	2593,(0, 272),12	2641,(0, 277),12	2689,(0, 282),12	2737,(0, 287),12	2785,(0, 292),12	2833,(0, 297),12	2881,(0, 302),12	2929,(0, 307),12	2977,(0, 312),12	3025,(0, 317),12	
20,(2, 321),44	64,(3, 321),44	108,(4, 321),44	152,(5, 321),44	196,(7, 321),44	240,(8, 321),44	284,(9, 321),44	328,(10, 321),44	372,(12, 321),44	416,(13, 321),44	460,(14, 321),44	504,(15, 321),44	548,(17, 321),44	592,(18, 321),44	636,(19, 321),44	680,(20, 321),44	724,(22, 321),44	768,(23, 321),44	812,(24, 321),44	856,(25, 321),44	900,(27, 321),44	944,(28, 321),44	988,(29, 321),44	1032,(30, 321),44	1076,(32, 321),44	1120,(33, 321),44	1164,(34, 321),44	1208,(35, 321),44	1252,(37, 321),44	1296,(38, 321),44	1340,(39, 321),44	1384,(40, 321),44	1428,(42, 321),44	1472,(43, 321),44	1516,(44, 321),44	1560,(45, 321),44	1604,(47, 321),44	1648,(48, 321),44	1692,(49, 321),44	1736,(50, 321),44	1780,(52, 321),44	1824,(53, 321),44	1868,(54, 321),44	1912,(55, 321),44	1956,(57, 321),44	2000,(58, 321),44	2044,(59, 321),44	2088,(60, 321),44	2132,(62, 321),44	2176,(63, 321),44	2220,(64, 321),44	2264,(65, 321),44	2308,(67, 321),44	2352,(68, 321),44	2396,(69, 321),44	2440,(70, 321),44	2484,(72, 321),44	2528,(73, 321),44	2572,(74, 321),44	2616,(75, 321),44	2660,(77, 321),44	2704,(78, 321),44	2748,(79, 321),44	2792,(80, 321),44	2836,(82, 321),44	2880,(83, 321),44	2924,(84, 321),44	2968,(85, 321),44	3012,(87, 321),44	3056,(88, 321),44	3100,(89, 321),44	3144,(90, 321),44	3188,(92, 321),44	3232,(93, 321),44	3276,(94, 321),44	3320,(95, 321),44	3364,(97, 321),44	3408,(98, 321),44	3452,(99, 321),44	3496,(100, 321),44	3540,(102, 321),44	3584,(103, 321),44	3628,(104, 321),44	3672,(105, 321),44	3716,(107, 321),44	3760,(108, 321),44	3804,(109, 321),44	3848,(110, 321),44	3892,(112, 321),44	3936,(113, 321),44	3980,(114, 321),44	4024,(115, 321),44	4068,(117, 321),44	4112,(118, 321),44	4156,(119, 321),44	4200,(120, 321),44	4244,(122, 321),44	4288,(123, 321),44	4332,(124, 321),44	4376,(125, 321),44	4420,(127, 321),44	4464,(128, 321),44	4508,(129, 321),44	4552,(130, 321),44	4596,(132, 321),44	4640,(133, 321),44	4684,(134, 321),44	4728,(135, 321),44	4772,(137, 321),44	4816,(138, 321),44	4860,(139, 321),44	4904,(140, 321),44	4948,(142, 321),44	4992,(143, 321),44	5036,(144, 321),44	5080,(145, 321),44	5124,(147, 321),44	5168,(148, 321),44	5212,(149, 321),44	5256,(150, 321),44	5300,(152, 321),44	5344,(153, 321),44	5388,(154, 321),44	5432,(155, 321),44	5476,(157, 321),44	5520,(158, 321),44	5564,(159, 321),44	5608,(160, 321),44	5652,(162, 321),44	5696,(163, 321),44	5740,(164, 321),44	5784,(165, 321),44	5828,(167, 321),44	5872,(168, 321),44	5916,(169, 321),44	5960,(170, 321),44	6004,(172, 321),44	6048,(173, 321),44	6092,(174, 321),44	6136,(175, 321),44	6180,(177, 321),44	6224,(178, 321),44	6268,(179, 321),44	6312,(180, 321),44	6356,(182, 321),44	6400,(183, 321),44	6444,(184, 321),44	6488,(185, 321),44	6532,(187, 321),44	6576,(188, 321),44	6620,(189, 321),44	6664,(190, 321),44	6708,(192, 321),44	6752,(193, 321),44	6796,(194, 321),44	6840,(195, 321),44	6884,(197, 321),44	6928,(198, 321),44	6972,(199, 321),44	7016,(200, 321),44	7060,(202, 321),44	7104,(203, 321),44	7148,(204, 321),44	7192,(205, 321),44	7236,(207, 321),44	7280,(208, 321),44	7324,(209, 321),44	7368,(210, 321),44	7412,(212, 321),44	7456,(213, 321),44	7500,(214, 321),44	7544,(215, 321),44	7588,(217, 321),44	7632,(218, 321),44	7676,(219, 321),44	7720,(220, 321),44	7764,(222, 321),44	7808,(223, 321),44	7852,(224, 321),44	7896,(225, 321),44	7940,(227, 321),44	7984,(228, 321),44	8028,(229, 321),44	8072,(230, 321),44	8116,(232, 321),44	8160,(233, 321),44	8204,(234, 321),44	8248,(235, 321),44	8292,(237, 321),44	8336,(238, 321),44	8380,(239, 321),44	8424,(240, 321),44	8468,(242, 321),44	8512,(243, 321),44	8556,(244, 321),44	8600,(245, 321),44	8644,(247, 321),44	8688,(248, 321),44	8732,(249, 321),44	8776,(250, 321),44	8820,(252, 321),44	8864,(253, 321),44	8908,(254, 321),44	8952,(255, 321),44	8996,(257, 321),44	9040,(258, 321),44	9084,(259, 321),44	9128,(260, 321),44	9172,(262, 321),44	9216,(263, 321),44	9260,(264, 321),44	9304,(265, 321),44	9348,(267, 321),44	9392,(268, 321),44	9436,(269, 321),44	9480,(270, 321),44	9524,(272, 321),44	9568,(273, 321),44	9612,(274, 321),44	9656,(275, 321),44	9700,(277, 321),44	9744,(278, 321),44	9788,(279, 321),44	9832,(280, 321),44	9876,(282, 321),44	9920,(283, 321),44	9964,(284, 321),44	10008,(285, 321),44	10052,(287, 321),44	10096,(288, 321),44	10140,(289, 321),44	10184,(290, 321),44	10228,(292, 321),44	10272,(293, 321),44	10316,(294, 321),44	10360,(295, 321),44	10404,(297, 321),44	10448,(298, 321),44	10492,(299, 321),44	10536,(300, 321),44	10580,(302, 321),44	10624,(303, 321),44	10668,(304, 321),44	10712,(305, 321),44	10756,(307, 321),44	10800,(308, 321),44	10844,(309, 321),44	10888,(310, 321),44	10932,(312, 321),44	10976,(313, 321),44	11020,(314, 321),44	11064,(315, 321),44	11108,(317, 321),44	11152,(318, 321),44	11196,(319, 321),44	11240,(320, 321),44	
# Outgoing
152,(5, 321),44	328,(10, 321),44	504,(15, 321),44	680,(20, 321),44	856,(25, 321),44	1032,(30, 321),44	1208,(35, 321),44	1384,(40, 321),44	1560,(45, 321),44	1736,(50, 321),44	1912,(55, 321),44	2088,(60, 321),44	2264,(65, 321),44	2440,(70, 321),44	2616,(75, 321),44	2792,(80, 321),44	2968,(85, 321),44	3144,(90, 321),44	3320,(95, 321),44	3496,(100, 321),44	3672,(105, 321),44	3848,(110, 321),44	4024,(115, 321),44	4200,(120, 321),44	4376,(125, 321),44	4552,(130, 321),44	4728,(135, 321),44	4904,(140, 321),44	5080,(145, 321),44	5256,(150, 321),44	5432,(155, 321),44	5608,(160, 321),44	5784,(165, 321),44	5960,(170, 321),44	6136,(175, 321),44	6312,(180, 321),44	6488,(185, 321),44	6664,(190, 321),44	6840,(195, 321),44	7016,(200, 321),44	7192,(205, 321),44	7368,(210, 321),44	7544,(215, 321),44	7720,(220, 321),44	7896,(225, 321),44	8072,(230, 321),44	8248,(235, 321),44	8424,(240, 321),44	8600,(245, 321),44	8776,(250, 321),44	8952,(255, 321),44	9128,(260, 321),44	9304,(265, 321),44	9480,(270, 321),44	9656,(275, 321),44	9832,(280, 321),44	10008,(285, 321),44	10184,(290, 321),44	10360,(295, 321),44	10536,(300, 321),44	10712,(305, 321),44	10888,(310, 321),44	11064,(315, 321),44	11240,(320, 321),44	
108,(4, 321),44	284,(9, 321),44	460,(14, 321),44	636,(19, 321),44	812,(24, 321),44	988,(29, 321),44	1164,(34, 321),44	1340,(39, 321),44	1516,(44, 321),44	1692,(49, 321),44	1868,(54, 321),44	2044,(59, 321),44	2220,(64, 321),44	2396,(69, 321),44	2572,(74, 321),44	2748,(79, 321),44	2924,(84, 321),44	3100,(89, 321),44	3276,(94, 321),44	3452,(99, 321),44	3628,(104, 321),44	3804,(109, 321),44	3980,(114, 321),44	4156,(119, 321),44	4332,(124, 321),44	4508,(129, 321),44	4684,(134, 321),44	4860,(139, 321),44	5036,(144, 321),44	5212,(149, 321),44	5388,(154, 321),44	5564,(159, 321),44	5740,(164, 321),44	5916,(169, 321),44	6092,(174, 321),44	6268,(179, 321),44	6444,(184, 321),44	6620,(189, 321),44	6796,(194, 321),44	6972,(199, 321),44	7148,(204, 321),44	7324,(209, 321),44	7500,(214, 321),44	7676,(219, 321),44	7852,(224, 321),44	8028,(229, 321),44	8204,(234, 321),44	8380,(239, 321),44	8556,(244, 321),44	8732,(249, 321),44	8908,(254, 321),44	9084,(259, 321),44	9260,(264, 321),44	9436,(269, 321),44	9612,(274, 321),44	9788,(279, 321),44	9964,(284, 321),44	10140,(289, 321),44	10316,(294, 321),44	10492,(299, 321),44	10668,(304, 321),44	10844,(309, 321),44	11020,(314, 321),44	11196,(319, 321),44	
64,(3, 321),44	240,(8, 321),44	416,(13, 321),44	592,(18, 321),44	768,(23, 321),44	944,(28, 321),44	1120,(33, 321),44	1296,(38, 321),44	1472,(43, 321),44	1648,(48, 321),44	1824,(53, 321),44	2000,(58, 321),44	2176,(63, 321),44	2352,(68, 321),44	2528,(73, 321),44	2704,(78, 321),44	2880,(83, 321),44	3056,(88, 321),44	3232,(93, 321),44	3408,(98, 321),44	3584,(103, 321),44	3760,(108, 321),44	3936,(113, 321),44	4112,(118, 321),44	4288,(123, 321),44	4464,(128, 321),44	4640,(133, 321),44	4816,(138, 321),44	4992,(143, 321),44	5168,(148, 321),44	5344,(153, 321),44	5520,(158, 321),44	5696,(163, 321),44	5872,(168, 321),44	6048,(173, 321),44	6224,(178, 321),44	6400,(183, 321),44	6576,(188, 321),44	6752,(193, 321),44	6928,(198, 321),44	7104,(203, 321),44	7280,(208, 321),44	7456,(213, 321),44	7632,(218, 321),44	7808,(223, 321),44	7984,(228, 321),44	8160,(233, 321),44	8336,(238, 321),44	8512,(243, 321),44	8688,(248, 321),44	8864,(253, 321),44	9040,(258, 321),44	9216,(263, 321),44	9392,(268, 321),44	9568,(273, 321),44	9744,(278, 321),44	9920,(283, 321),44	10096,(288, 321),44	10272,(293, 321),44	10448,(298, 321),44	10624,(303, 321),44	10800,(308, 321),44	10976,(313, 321),44	11152,(318, 321),44	
20,(2, 321),44	196,(7, 321),44	372,(12, 321),44	548,(17, 321),44	724,(22, 321),44	900,(27, 321),44	1076,(32, 321),44	1252,(37, 321),44	1428,(42, 321),44	1604,(47, 321),44	1780,(52, 321),44	1956,(57, 321),44	2132,(62, 321),44	2308,(67, 321),44	2484,(72, 321),44	2660,(77, 321),44	2836,(82, 321),44	3012,(87, 321),44	3188,(92, 321),44	3364,(97, 321),44	3540,(102, 321),44	3716,(107, 321),44	3892,(112, 321),44	4068,(117, 321),44	4244,(122, 321),44	4420,(127, 321),44	4596,(132, 321),44	4772,(137, 321),44	4948,(142, 321),44	5124,(147, 321),44	5300,(152, 321),44	5476,(157, 321),44	5652,(162, 321),44	5828,(167, 321),44	6004,(172, 321),44	6180,(177, 321),44	6356,(182, 321),44	6532,(187, 321),44	6708,(192, 321),44	6884,(197, 321),44	7060,(202, 321),44	7236,(207, 321),44	7412,(212, 321),44	7588,(217, 321),44	7764,(222, 321),44	7940,(227, 321),44	8116,(232, 321),44	8292,(237, 321),44	8468,(242, 321),44	8644,(247, 321),44	8820,(252, 321),44	8996,(257, 321),44	9172,(262, 321),44	9348,(267, 321),44	9524,(272, 321),44	9700,(277, 321),44	9876,(282, 321),44	10052,(287, 321),44	10228,(292, 321),44	10404,(297, 321),44	10580,(302, 321),44	10756,(307, 321),44	10932,(312, 321),44	11108,(317, 321),44	
1,(0, 2),12	13,(0, 3),12	25,(0, 4),12	37,(0, 5),12	49,(0, 7),12	61,(0, 8),12	73,(0, 9),12	85,(0, 10),12	97,(0, 12),12	109,(0, 13),12	121,(0, 14),12	133,(0, 15),12	145,(0, 17),12	157,(0, 18),12	169,(0, 19),12	181,(0, 20),12	193,(0, 22),12	205,(0, 23),12	217,(0, 24),12	229,(0, 25),12	241,(0, 27),12	253,(0, 28),12	265,(0, 29),12	277,(0, 30),12	289,(0, 32),12	301,(0, 33),12	313,(0, 34),12	325,(0, 35),12	337,(0, 37),12	349,(0, 38),12	361,(0, 39),12	373,(0, 40),12	385,(0, 42),12	397,(0, 43),12	409,(0, 44),12	421,(0, 45),12	433,(0, 47),12	445,(0, 48),12	457,(0, 49),12	469,(0, 50),12	481,(0, 52),12	493,(0, 53),12	505,(0, 54),12	517,(0, 55),12	529,(0, 57),12	541,(0, 58),12	553,(0, 59),12	565,(0, 60),12	577,(0, 62),12	589,(0, 63),12	601,(0, 64),12	613,(0, 65),12	625,(0, 67),12	637,(0, 68),12	649,(0, 69),12	661,(0, 70),12	673,(0, 72),12	685,(0, 73),12	697,(0, 74),12	709,(0, 75),12	721,(0, 77),12	733,(0, 78),12	745,(0, 79),12	757,(0, 80),12	769,(0, 82),12	781,(0, 83),12	793,(0, 84),12	805,(0, 85),12	817,(0, 87),12	829,(0, 88),12	841,(0, 89),12	853,(0, 90),12	865,(0, 92),12	877,(0, 93),12	889,(0, 94),12	901,(0, 95),12	913,(0, 97),12	925,(0, 98),12	937,(0, 99),12	949,(0, 100),12	961,(0, 102),12	973,(0, 103),12	985,(0, 104),12	997,(0, 105),12	1009,(0, 107),12	1021,(0, 108),12	1033,(0, 109),12	1045,(0, 110),12	1057,(0, 112),12	1069,(0, 113),12	1081,(0, 114),12	1093,(0, 115),12	1105,(0, 117),12	1117,(0, 118),12	1129,(0, 119),12	1141,(0, 120),12	1153,(0, 122),12	1165,(0, 123),12	1177,(0, 124),12	1189,(0, 125),12	1201,(0, 127),12	1213,(0, 128),12	1225,(0, 129),12	1237,(0, 130),12	1249,(0, 132),12	1261,(0, 133),12	1273,(0, 134),12	1285,(0, 135),12	1297,(0, 137),12	1309,(0, 138),12	1321,(0, 139),12	1333,(0, 140),12	1345,(0, 142),12	1357,(0, 143),12	1369,(0, 144),12	1381,(0, 145),12	1393,(0, 147),12	1405,(0, 148),12	1417,(0, 149),12	1429,(0, 150),12	1441,(0, 152),12	1453,(0, 153),12	1465,(0, 154),12	1477,(0, 155),12	1489,(0, 157),12	1501,(0, 158),12	1513,(0, 159),12	1525,(0, 160),12	1537,(0, 162),12	1549,(0, 163),12	1561,(0, 164),12	1573,(0, 165),12	1585,(0, 167),12	1597,(0, 168),12	1609,(0, 169),12	1621,(0, 170),12	1633,(0, 172),12	1645,(0, 173),12	1657,(0, 174),12	1669,(0, 175),12	1681,(0, 177),12	1693,(0, 178),12	1705,(0, 179),12	1717,(0, 180),12	1729,(0, 182),12	1741,(0, 183),12	1753,(0, 184),12	1765,(0, 185),12	1777,(0, 187),12	1789,(0, 188),12	1801,(0, 189),12	1813,(0, 190),12	1825,(0, 192),12	1837,(0, 193),12	1849,(0, 194),12	1861,(0, 195),12	1873,(0, 197),12	1885,(0, 198),12	1897,(0, 199),12	1909,(0, 200),12	1921,(0, 202),12	1933,(0, 203),12	1945,(0, 204),12	1957,(0, 205),12	1969,(0, 207),12	1981,(0, 208),12	1993,(0, 209),12	2005,(0, 210),12	2017,(0, 212),12	2029,(0, 213),12	2041,(0, 214),12	2053,(0, 215),12	2065,(0, 217),12	2077,(0, 218),12	2089,(0, 219),12	2101,(0, 220),12	2113,(0, 222),12	2125,(0, 223),12	2137,(0, 224),12	2149,(0, 225),12	2161,(0, 227),12	2173,(0, 228),12	2185,(0, 229),12	2197,(0, 230),12	2209,(0, 232),12	2221,(0, 233),12	2233,(0, 234),12	2245,(0, 235),12	2257,(0, 237),12	2269,(0, 238),12	2281,(0, 239),12	2293,(0, 240),12	2305,(0, 242),12	2317,(0, 243),12	2329,(0, 244),12	2341,(0, 245),12	2353,(0, 247),12	2365,(0, 248),12	2377,(0, 249),12	2389,(0, 250),12	2401,(0, 252),12	2413,(0, 253),12	2425,(0, 254),12	2437,(0, 255),12	2449,(0, 257),12	2461,(0, 258),12	2473,(0, 259),12	2485,(0, 260),12	2497,(0, 262),12	2509,(0, 263),12	2521,(0, 264),12	2533,(0, 265),12	2545,(0, 267),12	2557,(0, 268),12	2569,(0, 269),12	2581,(0, 270),12	2593,(0, 272),12	2605,(0, 273),12	2617,(0, 274),12	2629,(0, 275),12	2641,(0, 277),12	2653,(0, 278),12	2665,(0, 279),12	2677,(0, 280),12	2689,(0, 282),12	2701,(0, 283),12	2713,(0, 284),12	2725,(0, 285),12	2737,(0, 287),12	2749,(0, 288),12	2761,(0, 289),12	2773,(0, 290),12	2785,(0, 292),12	2797,(0, 293),12	2809,(0, 294),12	2821,(0, 295),12	2833,(0, 297),12	2845,(0, 298),12	2857,(0, 299),12	2869,(0, 300),12	2881,(0, 302),12	2893,(0, 303),12	2905,(0, 304),12	2917,(0, 305),12	2929,(0, 307),12	2941,(0, 308),12	2953,(0, 309),12	2965,(0, 310),12	2977,(0, 312),12	2989,(0, 313),12	3001,(0, 314),12	3013,(0, 315),12	3025,(0, 317),12	3037,(0, 318),12	3049,(0, 319),12	3061,(0, 320),12	
