1941
# CPU
0,321,1	1,211,7	8,210,7	15,212,7	22,209,7	29,208,7	36,207,7	43,213,7	50,206,7	57,205,7	64,214,7	71,204,7	78,203,7	85,202,7	92,201,7	99,200,7	106,199,7	113,216,7	120,198,7	127,197,7	134,196,7	141,195,7	148,217,7	155,194,7	162,219,7	169,193,7	176,192,7	183,191,7	190,190,7	197,221,7	204,189,7	211,222,7	218,188,7	225,186,7	232,187,7	239,185,7	246,224,7	253,184,7	260,226,7	267,182,7	274,181,7	281,183,7	288,180,7	295,179,7	302,178,7	309,262,7	316,110,7	323,176,7	330,177,7	337,175,7	344,227,7	351,174,7	358,173,7	365,172,7	372,171,7	379,230,7	386,170,7	393,240,7	400,241,7	407,239,7	414,238,7	421,237,7	428,242,7	435,236,7	442,243,7	449,244,7	456,234,7	463,233,7	470,231,7	477,245,7	484,169,7	491,167,7	498,246,7	505,166,7	512,165,7	519,164,7	526,247,7	533,248,7	540,162,7	547,249,7	554,161,7	561,160,7	568,159,7	575,250,7	582,157,7	589,156,7	596,251,7	603,155,7	610,153,7	617,43,7	624,81,7	631,253,7	638,252,7	645,254,7	652,152,7	659,151,7	666,255,7	673,150,7	680,148,7	687,147,7	694,256,7	701,146,7	708,144,7	715,257,7	722,143,7	729,258,7	736,142,7	743,259,7	750,140,7	757,139,7	764,260,7	771,138,7	778,137,7	785,135,7	792,261,7	799,134,7	806,133,7	813,263,7	820,132,7	827,264,7	834,130,7	841,265,7	848,129,7	855,128,7	862,266,7	869,127,7	876,125,7	883,267,7	890,124,7	897,123,7	904,122,7	911,268,7	918,120,7	925,293,7	932,284,7	939,119,7	946,118,7	953,117,7	960,269,7	967,115,7	974,114,7	981,270,7	988,113,7	995,112,7	1002,109,7	1009,271,7	1016,272,7	1023,108,7	1030,273,7	1037,107,7	1044,106,7	1051,104,7	1058,274,7	1065,103,7	1072,102,7	1079,275,7	1086,100,7	1093,99,7	1100,98,7	1107,276,7	1114,277,7	1121,97,7	1128,278,7	1135,96,7	1142,94,7	1149,279,7	1156,93,7	1163,83,7	1170,82,7	1177,84,7	1184,80,7	1191,78,7	1198,79,7	1205,77,7	1212,85,7	1219,76,7	1226,86,7	1233,25,7	1240,40,7	1247,75,7	1254,74,7	1261,87,7	1268,73,7	1275,89,7	1282,71,7	1289,70,7	1296,72,7	1303,69,7	1310,90,7	1317,68,7	1324,67,7	1331,66,7	1338,65,7	1345,280,7	1352,64,7	1359,282,7	1366,63,7	1373,62,7	1380,61,7	1387,60,7	1394,283,7	1401,59,7	1408,286,7	1415,58,7	1422,57,7	1429,56,7	1436,55,7	1443,288,7	1450,54,7	1457,53,7	1464,289,7	1471,52,7	1478,51,7	1485,50,7	1492,291,7	1499,49,7	1506,48,7	1513,294,7	1520,47,7	1527,46,7	1534,45,7	1541,31,7	1548,27,7	1555,305,7	1562,306,7	1569,304,7	1576,303,7	1583,302,7	1590,307,7	1597,301,7	1604,300,7	1611,308,7	1618,299,7	1625,296,7	1632,309,7	1639,44,7	1646,42,7	1653,41,7	1660,310,7	1667,38,7	1674,37,7	1681,311,7	1688,36,7	1695,35,7	1702,33,7	1709,312,7	1716,32,7	1723,30,7	1730,313,7	1737,29,7	1744,17,7	1751,16,7	1758,18,7	1765,15,7	1772,14,7	1779,19,7	1786,13,7	1793,20,7	1800,12,7	1807,11,7	1814,21,7	1821,10,7	1828,23,7	1835,9,7	1842,1,7	1849,28,7	1856,316,7	1863,2,7	1870,3,7	1877,4,7	1884,5,7	1891,6,7	1898,7,7	1905,8,7	1912,314,7	1919,318,7	1926,319,7	1933,320,7	1940,0,1	
177,223,7	265,228,7	353,232,7	573,154,7	705,141,7	793,131,7	1145,91,7	1233,92,7	1321,285,7	1409,290,7	1585,297,7	1629,39,7	1761,22,7	
89,218,7	133,220,7	397,235,7	485,163,7	925,116,7	1057,101,7	1189,88,7	1365,287,7	1673,34,7	
221,225,7	309,229,7	529,158,7	617,149,7	749,136,7	837,126,7	881,121,7	969,111,7	1277,281,7	1453,292,7	1541,298,7	1849,317,7	1893,315,7	
45,215,7	441,168,7	661,145,7	1013,105,7	1101,95,7	1497,295,7	1717,26,7	1805,24,7	
# Incoming
52,(215, 0),12	96,(218, 0),12	140,(220, 0),12	184,(223, 0),12	228,(225, 0),12	272,(228, 0),12	316,(229, 0),12	360,(232, 0),12	404,(235, 0),12	448,(168, 0),12	492,(163, 0),12	536,(158, 0),12	580,(154, 0),12	624,(149, 0),12	668,(145, 0),12	712,(141, 0),12	756,(136, 0),12	800,(131, 0),12	844,(126, 0),12	888,(121, 0),12	932,(116, 0),12	976,(111, 0),12	1020,(105, 0),12	1064,(101, 0),12	1108,(95, 0),12	1152,(91, 0),12	1196,(88, 0),12	1240,(92, 0),12	1284,(281, 0),12	1328,(285, 0),12	1372,(287, 0),12	1416,(290, 0),12	1460,(292, 0),12	1504,(295, 0),12	1548,(298, 0),12	1592,(297, 0),12	1636,(39, 0),12	1680,(34, 0),12	1724,(26, 0),12	1768,(22, 0),12	1812,(24, 0),12	1856,(317, 0),12	1900,(315, 0),12	
133,(321, 223),44	221,(321, 228),44	309,(321, 232),44	529,(321, 154),44	661,(321, 141),44	749,(321, 131),44	1101,(321, 91),44	1189,(321, 92),44	1277,(321, 285),44	1365,(321, 290),44	1541,(321, 297),44	1585,(321, 39),44	1717,(321, 22),44	
45,(321, 218),44	89,(321, 220),44	353,(321, 235),44	441,(321, 163),44	881,(321, 116),44	1013,(321, 101),44	1145,(321, 88),44	1321,(321, 287),44	1629,(321, 34),44	
177,(321, 225),44	265,(321, 229),44	485,(321, 158),44	573,(321, 149),44	705,(321, 136),44	793,(321, 126),44	837,(321, 121),44	925,(321, 111),44	1233,(321, 281),44	1409,(321, 292),44	1497,(321, 298),44	1805,(321, 317),44	1849,(321, 315),44	
1,(321, 215),44	397,(321, 168),44	617,(321, 145),44	969,(321, 105),44	1057,(321, 95),44	1453,(321, 295),44	1673,(321, 26),44	1761,(321, 24),44	
# Outgoing
1,(321, 215),44	45,(321, 218),44	89,(321, 220),44	133,(321, 223),44	177,(321, 225),44	221,(321, 228),44	265,(321, 229),44	309,(321, 232),44	353,(321, 235),44	397,(321, 168),44	441,(321, 163),44	485,(321, 158),44	529,(321, 154),44	573,(321, 149),44	617,(321, 145),44	661,(321, 141),44	705,(321, 136),44	749,(321, 131),44	793,(321, 126),44	837,(321, 121),44	881,(321, 116),44	925,(321, 111),44	969,(321, 105),44	1013,(321, 101),44	1057,(321, 95),44	1101,(321, 91),44	1145,(321, 88),44	1189,(321, 92),44	1233,(321, 281),44	1277,(321, 285),44	1321,(321, 287),44	1365,(321, 290),44	1409,(321, 292),44	1453,(321, 295),44	1497,(321, 298),44	1541,(321, 297),44	1585,(321, 39),44	1629,(321, 34),44	1673,(321, 26),44	1717,(321, 22),44	1761,(321, 24),44	1805,(321, 317),44	1849,(321, 315),44	
184,(223, 0),12	272,(228, 0),12	360,(232, 0),12	580,(154, 0),12	712,(141, 0),12	800,(131, 0),12	1152,(91, 0),12	1240,(92, 0),12	1328,(285, 0),12	1416,(290, 0),12	1592,(297, 0),12	1636,(39, 0),12	1768,(22, 0),12	
96,(218, 0),12	140,(220, 0),12	404,(235, 0),12	492,(163, 0),12	932,(116, 0),12	1064,(101, 0),12	1196,(88, 0),12	1372,(287, 0),12	1680,(34, 0),12	
228,(225, 0),12	316,(229, 0),12	536,(158, 0),12	624,(149, 0),12	756,(136, 0),12	844,(126, 0),12	888,(121, 0),12	976,(111, 0),12	1284,(281, 0),12	1460,(292, 0),12	1548,(298, 0),12	1856,(317, 0),12	1900,(315, 0),12	
52,(215, 0),12	448,(168, 0),12	668,(145, 0),12	1020,(105, 0),12	1108,(95, 0),12	1504,(295, 0),12	1724,(26, 0),12	1812,(24, 0),12	
