10259
# CPU
25,3,21	49,6,21	73,9,21	97,12,21	121,15,21	145,18,21	169,21,21	193,24,21	217,27,21	241,30,21	265,33,21	289,36,21	313,39,21	337,42,21	361,45,21	385,48,21	409,51,21	433,54,21	457,57,21	481,60,21	505,63,21	529,66,21	553,69,21	577,72,21	601,75,21	625,78,21	649,81,21	673,84,21	697,87,21	721,90,21	745,93,21	769,96,21	793,99,21	817,102,21	841,105,21	865,108,21	889,111,21	913,114,21	937,117,21	961,120,21	985,123,21	1009,126,21	1033,129,21	1057,132,21	1081,135,21	1105,138,21	1129,141,21	1153,144,21	1177,147,21	1201,150,21	1225,153,21	1249,156,21	1273,159,21	1297,162,21	1321,165,21	1345,168,21	1369,171,21	1393,174,21	1417,177,21	1441,180,21	1465,183,21	1489,186,21	1513,189,21	1537,192,21	1561,195,21	1585,198,21	1609,201,21	1633,204,21	1657,207,21	1681,210,21	1705,213,21	1729,216,21	1753,219,21	1777,222,21	1801,225,21	1825,228,21	1849,231,21	1873,234,21	1897,237,21	1921,240,21	1945,243,21	1969,246,21	1993,249,21	2017,252,21	2041,255,21	2065,258,21	2089,261,21	2113,264,21	2137,267,21	2161,270,21	2185,273,21	2209,276,21	2233,279,21	2257,282,21	2281,285,21	2305,288,21	2329,291,21	2353,294,21	2377,297,21	2401,300,21	2425,303,21	2449,306,21	2473,309,21	2497,312,21	2521,315,21	2545,318,21	
13,2,21	37,5,21	61,8,21	85,11,21	109,14,21	133,17,21	157,20,21	181,23,21	205,26,21	229,29,21	253,32,21	277,35,21	301,38,21	325,41,21	349,44,21	373,47,21	397,50,21	421,53,21	445,56,21	469,59,21	493,62,21	517,65,21	541,68,21	565,71,21	589,74,21	613,77,21	637,80,21	661,83,21	685,86,21	709,89,21	733,92,21	757,95,21	781,98,21	805,101,21	829,104,21	853,107,21	877,110,21	901,113,21	925,116,21	949,119,21	973,122,21	997,125,21	1021,128,21	1045,131,21	1069,134,21	1093,137,21	1117,140,21	1141,143,21	1165,146,21	1189,149,21	1213,152,21	1237,155,21	1261,158,21	1285,161,21	1309,164,21	1333,167,21	1357,170,21	1381,173,21	1405,176,21	1429,179,21	1453,182,21	1477,185,21	1501,188,21	1525,191,21	1549,194,21	1573,197,21	1597,200,21	1621,203,21	1645,206,21	1669,209,21	1693,212,21	1717,215,21	1741,218,21	1765,221,21	1789,224,21	1813,227,21	1837,230,21	1861,233,21	1885,236,21	1909,239,21	1933,242,21	1957,245,21	1981,248,21	2005,251,21	2029,254,21	2053,257,21	2077,260,21	2101,263,21	2125,266,21	2149,269,21	2173,272,21	2197,275,21	2221,278,21	2245,281,21	2269,284,21	2293,287,21	2317,290,21	2341,293,21	2365,296,21	2389,299,21	2413,302,21	2437,305,21	2461,308,21	2485,311,21	2509,314,21	2533,317,21	2557,320,21	
0,0,1	1,1,21	22,7,21	43,19,21	64,43,21	85,91,21	106,187,21	127,319,21	148,316,21	169,313,21	190,310,21	211,307,21	232,304,21	253,301,21	274,298,21	295,295,21	316,292,21	337,289,21	358,286,21	379,283,21	400,280,21	421,277,21	442,274,21	463,271,21	484,268,21	505,265,21	526,262,21	547,259,21	568,256,21	589,253,21	610,250,21	631,247,21	652,244,21	673,241,21	694,238,21	715,235,21	736,232,21	757,229,21	778,226,21	799,223,21	820,220,21	841,217,21	862,214,21	883,211,21	904,208,21	925,205,21	946,202,21	967,199,21	988,196,21	1009,193,21	1030,184,21	1051,190,21	1072,181,21	1093,178,21	1114,175,21	1135,172,21	1156,169,21	1177,166,21	1198,163,21	1219,160,21	1240,157,21	1261,154,21	1282,151,21	1303,148,21	1324,145,21	1345,142,21	1366,139,21	1387,136,21	1408,133,21	1429,130,21	1450,127,21	1471,124,21	1492,121,21	1513,118,21	1534,115,21	1555,112,21	1576,109,21	1597,106,21	1618,103,21	1639,100,21	1660,97,21	1681,88,21	1702,94,21	1723,85,21	1744,82,21	1765,79,21	1786,76,21	1807,73,21	1828,70,21	1849,67,21	1870,64,21	1891,61,21	1912,58,21	1933,55,21	1954,52,21	1975,49,21	1996,40,21	2017,46,21	2038,37,21	2059,34,21	2080,31,21	2101,28,21	2122,25,21	2143,16,21	2164,22,21	2185,13,21	2206,4,21	2227,10,21	10258,321,1	
# Incoming
13,(0, 3),12	37,(0, 6),12	61,(0, 9),12	85,(0, 12),12	109,(0, 15),12	133,(0, 18),12	157,(0, 21),12	181,(0, 24),12	205,(0, 27),12	229,(0, 30),12	253,(0, 33),12	277,(0, 36),12	301,(0, 39),12	325,(0, 42),12	349,(0, 45),12	373,(0, 48),12	397,(0, 51),12	421,(0, 54),12	445,(0, 57),12	469,(0, 60),12	493,(0, 63),12	517,(0, 66),12	541,(0, 69),12	565,(0, 72),12	589,(0, 75),12	613,(0, 78),12	637,(0, 81),12	661,(0, 84),12	685,(0, 87),12	709,(0, 90),12	733,(0, 93),12	757,(0, 96),12	781,(0, 99),12	805,(0, 102),12	829,(0, 105),12	853,(0, 108),12	877,(0, 111),12	901,(0, 114),12	925,(0, 117),12	949,(0, 120),12	973,(0, 123),12	997,(0, 126),12	1021,(0, 129),12	1045,(0, 132),12	1069,(0, 135),12	1093,(0, 138),12	1117,(0, 141),12	1141,(0, 144),12	1165,(0, 147),12	1189,(0, 150),12	1213,(0, 153),12	1237,(0, 156),12	1261,(0, 159),12	1285,(0, 162),12	1309,(0, 165),12	1333,(0, 168),12	1357,(0, 171),12	1381,(0, 174),12	1405,(0, 177),12	1429,(0, 180),12	1453,(0, 183),12	1477,(0, 186),12	1501,(0, 189),12	1525,(0, 192),12	1549,(0, 195),12	1573,(0, 198),12	1597,(0, 201),12	1621,(0, 204),12	1645,(0, 207),12	1669,(0, 210),12	1693,(0, 213),12	1717,(0, 216),12	1741,(0, 219),12	1765,(0, 222),12	1789,(0, 225),12	1813,(0, 228),12	1837,(0, 231),12	1861,(0, 234),12	1885,(0, 237),12	1909,(0, 240),12	1933,(0, 243),12	1957,(0, 246),12	1981,(0, 249),12	2005,(0, 252),12	2029,(0, 255),12	2053,(0, 258),12	2077,(0, 261),12	2101,(0, 264),12	2125,(0, 267),12	2149,(0, 270),12	2173,(0, 273),12	2197,(0, 276),12	2221,(0, 279),12	2245,(0, 282),12	2269,(0, 285),12	2293,(0, 288),12	2317,(0, 291),12	2341,(0, 294),12	2365,(0, 297),12	2389,(0, 300),12	2413,(0, 303),12	2437,(0, 306),12	2461,(0, 309),12	2485,(0, 312),12	2509,(0, 315),12	2533,(0, 318),12	
1,(0, 2),12	25,(0, 5),12	49,(0, 8),12	73,(0, 11),12	97,(0, 14),12	121,(0, 17),12	145,(0, 20),12	169,(0, 23),12	193,(0, 26),12	217,(0, 29),12	241,(0, 32),12	265,(0, 35),12	289,(0, 38),12	313,(0, 41),12	337,(0, 44),12	361,(0, 47),12	385,(0, 50),12	409,(0, 53),12	433,(0, 56),12	457,(0, 59),12	481,(0, 62),12	505,(0, 65),12	529,(0, 68),12	553,(0, 71),12	577,(0, 74),12	601,(0, 77),12	625,(0, 80),12	649,(0, 83),12	673,(0, 86),12	697,(0, 89),12	721,(0, 92),12	745,(0, 95),12	769,(0, 98),12	793,(0, 101),12	817,(0, 104),12	841,(0, 107),12	865,(0, 110),12	889,(0, 113),12	913,(0, 116),12	937,(0, 119),12	961,(0, 122),12	985,(0, 125),12	1009,(0, 128),12	1033,(0, 131),12	1057,(0, 134),12	1081,(0, 137),12	1105,(0, 140),12	1129,(0, 143),12	1153,(0, 146),12	1177,(0, 149),12	1201,(0, 152),12	1225,(0, 155),12	1249,(0, 158),12	1273,(0, 161),12	1297,(0, 164),12	1321,(0, 167),12	1345,(0, 170),12	1369,(0, 173),12	1393,(0, 176),12	1417,(0, 179),12	1441,(0, 182),12	1465,(0, 185),12	1489,(0, 188),12	1513,(0, 191),12	1537,(0, 194),12	1561,(0, 197),12	1585,(0, 200),12	1609,(0, 203),12	1633,(0, 206),12	1657,(0, 209),12	1681,(0, 212),12	1705,(0, 215),12	1729,(0, 218),12	1753,(0, 221),12	1777,(0, 224),12	1801,(0, 227),12	1825,(0, 230),12	1849,(0, 233),12	1873,(0, 236),12	1897,(0, 239),12	1921,(0, 242),12	1945,(0, 245),12	1969,(0, 248),12	1993,(0, 251),12	2017,(0, 254),12	2041,(0, 257),12	2065,(0, 260),12	2089,(0, 263),12	2113,(0, 266),12	2137,(0, 269),12	2161,(0, 272),12	2185,(0, 275),12	2209,(0, 278),12	2233,(0, 281),12	2257,(0, 284),12	2281,(0, 287),12	2305,(0, 290),12	2329,(0, 293),12	2353,(0, 296),12	2377,(0, 299),12	2401,(0, 302),12	2425,(0, 305),12	2449,(0, 308),12	2473,(0, 311),12	2497,(0, 314),12	2521,(0, 317),12	2545,(0, 320),12	
34,(2, 321),48	82,(3, 321),48	130,(5, 321),48	178,(6, 321),48	226,(8, 321),48	274,(9, 321),48	322,(11, 321),48	370,(12, 321),48	418,(14, 321),48	466,(15, 321),48	514,(17, 321),48	562,(18, 321),48	610,(20, 321),48	658,(21, 321),48	706,(23, 321),48	754,(24, 321),48	802,(26, 321),48	850,(27, 321),48	898,(29, 321),48	946,(30, 321),48	994,(32, 321),48	1042,(33, 321),48	1090,(35, 321),48	1138,(36, 321),48	1186,(38, 321),48	1234,(39, 321),48	1282,(41, 321),48	1330,(42, 321),48	1378,(44, 321),48	1426,(45, 321),48	1474,(47, 321),48	1522,(48, 321),48	1570,(50, 321),48	1618,(51, 321),48	1666,(53, 321),48	1714,(54, 321),48	1762,(56, 321),48	1810,(57, 321),48	1858,(59, 321),48	1906,(60, 321),48	1954,(62, 321),48	2002,(63, 321),48	2050,(65, 321),48	2098,(66, 321),48	2146,(68, 321),48	2194,(69, 321),48	2242,(71, 321),48	2290,(72, 321),48	2338,(74, 321),48	2386,(75, 321),48	2434,(77, 321),48	2482,(78, 321),48	2530,(80, 321),48	2578,(81, 321),48	2626,(83, 321),48	2674,(84, 321),48	2722,(86, 321),48	2770,(87, 321),48	2818,(89, 321),48	2866,(90, 321),48	2914,(92, 321),48	2962,(93, 321),48	3010,(95, 321),48	3058,(96, 321),48	3106,(98, 321),48	3154,(99, 321),48	3202,(101, 321),48	3250,(102, 321),48	3298,(104, 321),48	3346,(105, 321),48	3394,(107, 321),48	3442,(108, 321),48	3490,(110, 321),48	3538,(111, 321),48	3586,(113, 321),48	3634,(114, 321),48	3682,(116, 321),48	3730,(117, 321),48	3778,(119, 321),48	3826,(120, 321),48	3874,(122, 321),48	3922,(123, 321),48	3970,(125, 321),48	4018,(126, 321),48	4066,(128, 321),48	4114,(129, 321),48	4162,(131, 321),48	4210,(132, 321),48	4258,(134, 321),48	4306,(135, 321),48	4354,(137, 321),48	4402,(138, 321),48	4450,(140, 321),48	4498,(141, 321),48	4546,(143, 321),48	4594,(144, 321),48	4642,(146, 321),48	4690,(147, 321),48	4738,(149, 321),48	4786,(150, 321),48	4834,(152, 321),48	4882,(153, 321),48	4930,(155, 321),48	4978,(156, 321),48	5026,(158, 321),48	5074,(159, 321),48	5122,(161, 321),48	5170,(162, 321),48	5218,(164, 321),48	5266,(165, 321),48	5314,(167, 321),48	5362,(168, 321),48	5410,(170, 321),48	5458,(171, 321),48	5506,(173, 321),48	5554,(174, 321),48	5602,(176, 321),48	5650,(177, 321),48	5698,(179, 321),48	5746,(180, 321),48	5794,(182, 321),48	5842,(183, 321),48	5890,(185, 321),48	5938,(186, 321),48	5986,(188, 321),48	6034,(189, 321),48	6082,(191, 321),48	6130,(192, 321),48	6178,(194, 321),48	6226,(195, 321),48	6274,(197, 321),48	6322,(198, 321),48	6370,(200, 321),48	6418,(201, 321),48	6466,(203, 321),48	6514,(204, 321),48	6562,(206, 321),48	6610,(207, 321),48	6658,(209, 321),48	6706,(210, 321),48	6754,(212, 321),48	6802,(213, 321),48	6850,(215, 321),48	6898,(216, 321),48	6946,(218, 321),48	6994,(219, 321),48	7042,(221, 321),48	7090,(222, 321),48	7138,(224, 321),48	7186,(225, 321),48	7234,(227, 321),48	7282,(228, 321),48	7330,(230, 321),48	7378,(231, 321),48	7426,(233, 321),48	7474,(234, 321),48	7522,(236, 321),48	7570,(237, 321),48	7618,(239, 321),48	7666,(240, 321),48	7714,(242, 321),48	7762,(243, 321),48	7810,(245, 321),48	7858,(246, 321),48	7906,(248, 321),48	7954,(249, 321),48	8002,(251, 321),48	8050,(252, 321),48	8098,(254, 321),48	8146,(255, 321),48	8194,(257, 321),48	8242,(258, 321),48	8290,(260, 321),48	8338,(261, 321),48	8386,(263, 321),48	8434,(264, 321),48	8482,(266, 321),48	8530,(267, 321),48	8578,(269, 321),48	8626,(270, 321),48	8674,(272, 321),48	8722,(273, 321),48	8770,(275, 321),48	8818,(276, 321),48	8866,(278, 321),48	8914,(279, 321),48	8962,(281, 321),48	9010,(282, 321),48	9058,(284, 321),48	9106,(285, 321),48	9154,(287, 321),48	9202,(288, 321),48	9250,(290, 321),48	9298,(291, 321),48	9346,(293, 321),48	9394,(294, 321),48	9442,(296, 321),48	9490,(297, 321),48	9538,(299, 321),48	9586,(300, 321),48	9634,(302, 321),48	9682,(303, 321),48	9730,(305, 321),48	9778,(306, 321),48	9826,(308, 321),48	9874,(309, 321),48	9922,(311, 321),48	9970,(312, 321),48	10018,(314, 321),48	10066,(315, 321),48	10114,(317, 321),48	10162,(318, 321),48	10210,(320, 321),48	
# Outgoing
82,(3, 321),48	178,(6, 321),48	274,(9, 321),48	370,(12, 321),48	466,(15, 321),48	562,(18, 321),48	658,(21, 321),48	754,(24, 321),48	850,(27, 321),48	946,(30, 321),48	1042,(33, 321),48	1138,(36, 321),48	1234,(39, 321),48	1330,(42, 321),48	1426,(45, 321),48	1522,(48, 321),48	1618,(51, 321),48	1714,(54, 321),48	1810,(57, 321),48	1906,(60, 321),48	2002,(63, 321),48	2098,(66, 321),48	2194,(69, 321),48	2290,(72, 321),48	2386,(75, 321),48	2482,(78, 321),48	2578,(81, 321),48	2674,(84, 321),48	2770,(87, 321),48	2866,(90, 321),48	2962,(93, 321),48	3058,(96, 321),48	3154,(99, 321),48	3250,(102, 321),48	3346,(105, 321),48	3442,(108, 321),48	3538,(111, 321),48	3634,(114, 321),48	3730,(117, 321),48	3826,(120, 321),48	3922,(123, 321),48	4018,(126, 321),48	4114,(129, 321),48	4210,(132, 321),48	4306,(135, 321),48	4402,(138, 321),48	4498,(141, 321),48	4594,(144, 321),48	4690,(147, 321),48	4786,(150, 321),48	4882,(153, 321),48	4978,(156, 321),48	5074,(159, 321),48	5170,(162, 321),48	5266,(165, 321),48	5362,(168, 321),48	5458,(171, 321),48	5554,(174, 321),48	5650,(177, 321),48	5746,(180, 321),48	5842,(183, 321),48	5938,(186, 321),48	6034,(189, 321),48	6130,(192, 321),48	6226,(195, 321),48	6322,(198, 321),48	6418,(201, 321),48	6514,(204, 321),48	6610,(207, 321),48	6706,(210, 321),48	6802,(213, 321),48	6898,(216, 321),48	6994,(219, 321),48	7090,(222, 321),48	7186,(225, 321),48	7282,(228, 321),48	7378,(231, 321),48	7474,(234, 321),48	7570,(237, 321),48	7666,(240, 321),48	7762,(243, 321),48	7858,(246, 321),48	7954,(249, 321),48	8050,(252, 321),48	8146,(255, 321),48	8242,(258, 321),48	8338,(261, 321),48	8434,(264, 321),48	8530,(267, 321),48	8626,(270, 321),48	8722,(273, 321),48	8818,(276, 321),48	8914,(279, 321),48	9010,(282, 321),48	9106,(285, 321),48	9202,(288, 321),48	9298,(291, 321),48	9394,(294, 321),48	9490,(297, 321),48	9586,(300, 321),48	9682,(303, 321),48	9778,(306, 321),48	9874,(309, 321),48	9970,(312, 321),48	10066,(315, 321),48	10162,(318, 321),48	
34,(2, 321),48	130,(5, 321),48	226,(8, 321),48	322,(11, 321),48	418,(14, 321),48	514,(17, 321),48	610,(20, 321),48	706,(23, 321),48	802,(26, 321),48	898,(29, 321),48	994,(32, 321),48	1090,(35, 321),48	1186,(38, 321),48	1282,(41, 321),48	1378,(44, 321),48	1474,(47, 321),48	1570,(50, 321),48	1666,(53, 321),48	1762,(56, 321),48	1858,(59, 321),48	1954,(62, 321),48	2050,(65, 321),48	2146,(68, 321),48	2242,(71, 321),48	2338,(74, 321),48	2434,(77, 321),48	2530,(80, 321),48	2626,(83, 321),48	2722,(86, 321),48	2818,(89, 321),48	2914,(92, 321),48	3010,(95, 321),48	3106,(98, 321),48	3202,(101, 321),48	3298,(104, 321),48	3394,(107, 321),48	3490,(110, 321),48	3586,(113, 321),48	3682,(116, 321),48	3778,(119, 321),48	3874,(122, 321),48	3970,(125, 321),48	4066,(128, 321),48	4162,(131, 321),48	4258,(134, 321),48	4354,(137, 321),48	4450,(140, 321),48	4546,(143, 321),48	4642,(146, 321),48	4738,(149, 321),48	4834,(152, 321),48	4930,(155, 321),48	5026,(158, 321),48	5122,(161, 321),48	5218,(164, 321),48	5314,(167, 321),48	5410,(170, 321),48	5506,(173, 321),48	5602,(176, 321),48	5698,(179, 321),48	5794,(182, 321),48	5890,(185, 321),48	5986,(188, 321),48	6082,(191, 321),48	6178,(194, 321),48	6274,(197, 321),48	6370,(200, 321),48	6466,(203, 321),48	6562,(206, 321),48	6658,(209, 321),48	6754,(212, 321),48	6850,(215, 321),48	6946,(218, 321),48	7042,(221, 321),48	7138,(224, 321),48	7234,(227, 321),48	7330,(230, 321),48	7426,(233, 321),48	7522,(236, 321),48	7618,(239, 321),48	7714,(242, 321),48	7810,(245, 321),48	7906,(248, 321),48	8002,(251, 321),48	8098,(254, 321),48	8194,(257, 321),48	8290,(260, 321),48	8386,(263, 321),48	8482,(266, 321),48	8578,(269, 321),48	8674,(272, 321),48	8770,(275, 321),48	8866,(278, 321),48	8962,(281, 321),48	9058,(284, 321),48	9154,(287, 321),48	9250,(290, 321),48	9346,(293, 321),48	9442,(296, 321),48	9538,(299, 321),48	9634,(302, 321),48	9730,(305, 321),48	9826,(308, 321),48	9922,(311, 321),48	10018,(314, 321),48	10114,(317, 321),48	10210,(320, 321),48	
1,(0, 2),12	13,(0, 3),12	25,(0, 5),12	37,(0, 6),12	49,(0, 8),12	61,(0, 9),12	73,(0, 11),12	85,(0, 12),12	97,(0, 14),12	109,(0, 15),12	121,(0, 17),12	133,(0, 18),12	145,(0, 20),12	157,(0, 21),12	169,(0, 23),12	181,(0, 24),12	193,(0, 26),12	205,(0, 27),12	217,(0, 29),12	229,(0, 30),12	241,(0, 32),12	253,(0, 33),12	265,(0, 35),12	277,(0, 36),12	289,(0, 38),12	301,(0, 39),12	313,(0, 41),12	325,(0, 42),12	337,(0, 44),12	349,(0, 45),12	361,(0, 47),12	373,(0, 48),12	385,(0, 50),12	397,(0, 51),12	409,(0, 53),12	421,(0, 54),12	433,(0, 56),12	445,(0, 57),12	457,(0, 59),12	469,(0, 60),12	481,(0, 62),12	493,(0, 63),12	505,(0, 65),12	517,(0, 66),12	529,(0, 68),12	541,(0, 69),12	553,(0, 71),12	565,(0, 72),12	577,(0, 74),12	589,(0, 75),12	601,(0, 77),12	613,(0, 78),12	625,(0, 80),12	637,(0, 81),12	649,(0, 83),12	661,(0, 84),12	673,(0, 86),12	685,(0, 87),12	697,(0, 89),12	709,(0, 90),12	721,(0, 92),12	733,(0, 93),12	745,(0, 95),12	757,(0, 96),12	769,(0, 98),12	781,(0, 99),12	793,(0, 101),12	805,(0, 102),12	817,(0, 104),12	829,(0, 105),12	841,(0, 107),12	853,(0, 108),12	865,(0, 110),12	877,(0, 111),12	889,(0, 113),12	901,(0, 114),12	913,(0, 116),12	925,(0, 117),12	937,(0, 119),12	949,(0, 120),12	961,(0, 122),12	973,(0, 123),12	985,(0, 125),12	997,(0, 126),12	1009,(0, 128),12	1021,(0, 129),12	1033,(0, 131),12	1045,(0, 132),12	1057,(0, 134),12	1069,(0, 135),12	1081,(0, 137),12	1093,(0, 138),12	1105,(0, 140),12	1117,(0, 141),12	1129,(0, 143),12	1141,(0, 144),12	1153,(0, 146),12	1165,(0, 147),12	1177,(0, 149),12	1189,(0, 150),12	1201,(0, 152),12	1213,(0, 153),12	1225,(0, 155),12	1237,(0, 156),12	1249,(0, 158),12	1261,(0, 159),12	1273,(0, 161),12	1285,(0, 162),12	1297,(0, 164),12	1309,(0, 165),12	1321,(0, 167),12	1333,(0, 168),12	1345,(0, 170),12	1357,(0, 171),12	1369,(0, 173),12	1381,(0, 174),12	1393,(0, 176),12	1405,(0, 177),12	1417,(0, 179),12	1429,(0, 180),12	1441,(0, 182),12	1453,(0, 183),12	1465,(0, 185),12	1477,(0, 186),12	1489,(0, 188),12	1501,(0, 189),12	1513,(0, 191),12	1525,(0, 192),12	1537,(0, 194),12	1549,(0, 195),12	1561,(0, 197),12	1573,(0, 198),12	1585,(0, 200),12	1597,(0, 201),12	1609,(0, 203),12	1621,(0, 204),12	1633,(0, 206),12	1645,(0, 207),12	1657,(0, 209),12	1669,(0, 210),12	1681,(0, 212),12	1693,(0, 213),12	1705,(0, 215),12	1717,(0, 216),12	1729,(0, 218),12	1741,(0, 219),12	1753,(0, 221),12	1765,(0, 222),12	1777,(0, 224),12	1789,(0, 225),12	1801,(0, 227),12	1813,(0, 228),12	1825,(0, 230),12	1837,(0, 231),12	1849,(0, 233),12	1861,(0, 234),12	1873,(0, 236),12	1885,(0, 237),12	1897,(0, 239),12	1909,(0, 240),12	1921,(0, 242),12	1933,(0, 243),12	1945,(0, 245),12	1957,(0, 246),12	1969,(0, 248),12	1981,(0, 249),12	1993,(0, 251),12	2005,(0, 252),12	2017,(0, 254),12	2029,(0, 255),12	2041,(0, 257),12	2053,(0, 258),12	2065,(0, 260),12	2077,(0, 261),12	2089,(0, 263),12	2101,(0, 264),12	2113,(0, 266),12	2125,(0, 267),12	2137,(0, 269),12	2149,(0, 270),12	2161,(0, 272),12	2173,(0, 273),12	2185,(0, 275),12	2197,(0, 276),12	2209,(0, 278),12	2221,(0, 279),12	2233,(0, 281),12	2245,(0, 282),12	2257,(0, 284),12	2269,(0, 285),12	2281,(0, 287),12	2293,(0, 288),12	2305,(0, 290),12	2317,(0, 291),12	2329,(0, 293),12	2341,(0, 294),12	2353,(0, 296),12	2365,(0, 297),12	2377,(0, 299),12	2389,(0, 300),12	2401,(0, 302),12	2413,(0, 303),12	2425,(0, 305),12	2437,(0, 306),12	2449,(0, 308),12	2461,(0, 309),12	2473,(0, 311),12	2485,(0, 312),12	2497,(0, 314),12	2509,(0, 315),12	2521,(0, 317),12	2533,(0, 318),12	2545,(0, 320),12	
