1544
# CPU
0,321,1	1,320,6	7,210,6	13,211,6	19,209,6	25,208,6	31,207,6	37,206,6	43,212,6	49,205,6	55,213,6	61,203,6	67,202,6	73,204,6	79,201,6	85,199,6	91,200,6	97,198,6	103,197,6	109,196,6	115,195,6	121,214,6	127,194,6	133,193,6	139,192,6	145,191,6	151,216,6	157,190,6	163,189,6	169,218,6	175,188,6	181,186,6	187,187,6	193,185,6	199,221,6	205,184,6	211,183,6	217,182,6	223,181,6	229,180,6	235,179,6	241,178,6	247,223,6	253,176,6	259,175,6	265,177,6	271,174,6	277,173,6	283,226,6	289,172,6	295,171,6	301,170,6	307,169,6	313,240,6	319,239,6	325,241,6	331,238,6	337,237,6	343,242,6	349,243,6	355,236,6	361,244,6	367,235,6	373,233,6	379,245,6	385,228,6	391,168,6	397,246,6	403,166,6	409,165,6	415,163,6	421,247,6	427,248,6	433,162,6	439,249,6	445,161,6	451,159,6	457,250,6	463,158,6	469,156,6	475,251,6	481,155,6	487,153,6	493,252,6	499,152,6	505,253,6	511,151,6	517,254,6	523,150,6	529,148,6	535,255,6	541,147,6	547,145,6	553,256,6	559,144,6	565,142,6	571,257,6	577,141,6	583,258,6	589,259,6	595,140,6	601,138,6	607,137,6	613,260,6	619,135,6	625,134,6	631,261,6	637,132,6	643,131,6	649,262,6	655,130,6	661,263,6	667,264,6	673,128,6	679,127,6	685,265,6	691,125,6	697,124,6	703,122,6	709,266,6	715,121,6	721,120,6	727,267,6	733,268,6	739,118,6	745,269,6	751,117,6	757,115,6	763,270,6	769,114,6	775,112,6	781,271,6	787,111,6	793,110,6	799,108,6	805,272,6	811,273,6	817,107,6	823,274,6	829,105,6	835,104,6	841,275,6	847,102,6	853,101,6	859,276,6	865,100,6	871,98,6	877,277,6	883,97,6	889,278,6	895,95,6	901,279,6	907,94,6	913,92,6	919,280,6	925,81,6	931,80,6	937,82,6	943,79,6	949,77,6	955,78,6	961,76,6	967,83,6	973,75,6	979,74,6	985,73,6	991,72,6	997,71,6	1003,84,6	1009,70,6	1015,85,6	1021,68,6	1027,67,6	1033,69,6	1039,66,6	1045,65,6	1051,87,6	1057,64,6	1063,63,6	1069,62,6	1075,61,6	1081,91,6	1087,60,6	1093,59,6	1099,58,6	1105,57,6	1111,282,6	1117,56,6	1123,55,6	1129,283,6	1135,54,6	1141,52,6	1147,53,6	1153,51,6	1159,286,6	1165,50,6	1171,49,6	1177,48,6	1183,47,6	1189,46,6	1195,288,6	1201,45,6	1207,291,6	1213,43,6	1219,42,6	1225,44,6	1231,41,6	1237,304,6	1243,305,6	1249,303,6	1255,302,6	1261,306,6	1267,301,6	1273,300,6	1279,298,6	1285,307,6	1291,296,6	1297,293,6	1303,308,6	1309,39,6	1315,38,6	1321,309,6	1327,37,6	1333,35,6	1339,310,6	1345,34,6	1351,32,6	1357,311,6	1363,31,6	1369,30,6	1375,28,6	1381,312,6	1387,17,6	1393,16,6	1399,18,6	1405,15,6	1411,14,6	1417,19,6	1423,13,6	1429,12,6	1435,20,6	1441,11,6	1447,21,6	1453,10,6	1459,9,6	1465,1,6	1471,2,6	1477,3,6	1483,4,6	1489,5,6	1495,6,6	1501,7,6	1507,8,6	1513,22,6	1519,25,6	1525,315,6	1531,317,6	1537,318,6	1543,0,1	
19,219,6	37,224,6	55,229,6	73,234,6	91,164,6	109,154,6	223,90,6	307,299,6	349,24,6	361,314,6	379,319,6	
127,143,6	145,133,6	289,294,6	325,33,6	
163,123,6	181,113,6	199,103,6	217,93,6	271,289,6	
49,227,6	85,167,6	103,157,6	121,146,6	139,136,6	235,88,6	253,284,6	301,297,6	343,23,6	
13,217,6	67,232,6	157,126,6	265,287,6	283,292,6	319,36,6	
31,222,6	175,116,6	193,106,6	211,96,6	229,86,6	337,26,6	355,27,6	373,316,6	
25,220,6	43,225,6	79,231,6	97,160,6	247,281,6	313,40,6	
7,215,6	61,230,6	115,149,6	133,139,6	169,119,6	277,290,6	295,295,6	331,29,6	367,313,6	
151,129,6	187,109,6	205,99,6	241,89,6	259,285,6	
# Incoming
13,(215, 0),24	37,(217, 0),24	61,(219, 0),24	85,(220, 0),24	109,(222, 0),24	133,(224, 0),24	157,(225, 0),24	181,(227, 0),24	205,(229, 0),24	229,(230, 0),24	253,(232, 0),24	277,(234, 0),24	301,(231, 0),24	325,(167, 0),24	349,(164, 0),24	373,(160, 0),24	397,(157, 0),24	421,(154, 0),24	445,(149, 0),24	469,(146, 0),24	493,(143, 0),24	517,(139, 0),24	541,(136, 0),24	565,(133, 0),24	589,(129, 0),24	613,(126, 0),24	637,(123, 0),24	661,(119, 0),24	685,(116, 0),24	709,(113, 0),24	733,(109, 0),24	757,(106, 0),24	781,(103, 0),24	805,(99, 0),24	829,(96, 0),24	853,(93, 0),24	877,(90, 0),24	901,(86, 0),24	925,(88, 0),24	949,(89, 0),24	973,(281, 0),24	997,(284, 0),24	1021,(285, 0),24	1045,(287, 0),24	1069,(289, 0),24	1093,(290, 0),24	1117,(292, 0),24	1141,(294, 0),24	1165,(295, 0),24	1189,(297, 0),24	1213,(299, 0),24	1237,(40, 0),24	1261,(36, 0),24	1285,(33, 0),24	1309,(29, 0),24	1333,(26, 0),24	1357,(23, 0),24	1381,(24, 0),24	1405,(27, 0),24	1429,(314, 0),24	1453,(313, 0),24	1477,(316, 0),24	1501,(319, 0),24	
13,(321, 219),6	31,(321, 224),6	49,(321, 229),6	67,(321, 234),6	85,(321, 164),6	103,(321, 154),6	217,(321, 90),6	301,(321, 299),6	343,(321, 24),6	355,(321, 314),6	373,(321, 319),6	
121,(321, 143),6	139,(321, 133),6	283,(321, 294),6	319,(321, 33),6	
157,(321, 123),6	175,(321, 113),6	193,(321, 103),6	211,(321, 93),6	265,(321, 289),6	
43,(321, 227),6	79,(321, 167),6	97,(321, 157),6	115,(321, 146),6	133,(321, 136),6	229,(321, 88),6	247,(321, 284),6	295,(321, 297),6	337,(321, 23),6	
7,(321, 217),6	61,(321, 232),6	151,(321, 126),6	259,(321, 287),6	277,(321, 292),6	313,(321, 36),6	
25,(321, 222),6	169,(321, 116),6	187,(321, 106),6	205,(321, 96),6	223,(321, 86),6	331,(321, 26),6	349,(321, 27),6	367,(321, 316),6	
19,(321, 220),6	37,(321, 225),6	73,(321, 231),6	91,(321, 160),6	241,(321, 281),6	307,(321, 40),6	
1,(321, 215),6	55,(321, 230),6	109,(321, 149),6	127,(321, 139),6	163,(321, 119),6	271,(321, 290),6	289,(321, 295),6	325,(321, 29),6	361,(321, 313),6	
145,(321, 129),6	181,(321, 109),6	199,(321, 99),6	235,(321, 89),6	253,(321, 285),6	
# Outgoing
1,(321, 215),6	7,(321, 217),6	13,(321, 219),6	19,(321, 220),6	25,(321, 222),6	31,(321, 224),6	37,(321, 225),6	43,(321, 227),6	49,(321, 229),6	55,(321, 230),6	61,(321, 232),6	67,(321, 234),6	73,(321, 231),6	79,(321, 167),6	85,(321, 164),6	91,(321, 160),6	97,(321, 157),6	103,(321, 154),6	109,(321, 149),6	115,(321, 146),6	121,(321, 143),6	127,(321, 139),6	133,(321, 136),6	139,(321, 133),6	145,(321, 129),6	151,(321, 126),6	157,(321, 123),6	163,(321, 119),6	169,(321, 116),6	175,(321, 113),6	181,(321, 109),6	187,(321, 106),6	193,(321, 103),6	199,(321, 99),6	205,(321, 96),6	211,(321, 93),6	217,(321, 90),6	223,(321, 86),6	229,(321, 88),6	235,(321, 89),6	241,(321, 281),6	247,(321, 284),6	253,(321, 285),6	259,(321, 287),6	265,(321, 289),6	271,(321, 290),6	277,(321, 292),6	283,(321, 294),6	289,(321, 295),6	295,(321, 297),6	301,(321, 299),6	307,(321, 40),6	313,(321, 36),6	319,(321, 33),6	325,(321, 29),6	331,(321, 26),6	337,(321, 23),6	343,(321, 24),6	349,(321, 27),6	355,(321, 314),6	361,(321, 313),6	367,(321, 316),6	373,(321, 319),6	
61,(219, 0),24	133,(224, 0),24	205,(229, 0),24	277,(234, 0),24	349,(164, 0),24	421,(154, 0),24	877,(90, 0),24	1213,(299, 0),24	1381,(24, 0),24	1429,(314, 0),24	1501,(319, 0),24	
493,(143, 0),24	565,(133, 0),24	1141,(294, 0),24	1285,(33, 0),24	
637,(123, 0),24	709,(113, 0),24	781,(103, 0),24	853,(93, 0),24	1069,(289, 0),24	
181,(227, 0),24	325,(167, 0),24	397,(157, 0),24	469,(146, 0),24	541,(136, 0),24	925,(88, 0),24	997,(284, 0),24	1189,(297, 0),24	1357,(23, 0),24	
37,(217, 0),24	253,(232, 0),24	613,(126, 0),24	1045,(287, 0),24	1117,(292, 0),24	1261,(36, 0),24	
109,(222, 0),24	685,(116, 0),24	757,(106, 0),24	829,(96, 0),24	901,(86, 0),24	1333,(26, 0),24	1405,(27, 0),24	1477,(316, 0),24	
85,(220, 0),24	157,(225, 0),24	301,(231, 0),24	373,(160, 0),24	973,(281, 0),24	1237,(40, 0),24	
13,(215, 0),24	229,(230, 0),24	445,(149, 0),24	517,(139, 0),24	661,(119, 0),24	1093,(290, 0),24	1165,(295, 0),24	1309,(29, 0),24	1453,(313, 0),24	
589,(129, 0),24	733,(109, 0),24	805,(99, 0),24	949,(89, 0),24	1021,(285, 0),24	
