5792
# CPU
10,2,21	31,4,21	52,6,21	73,8,21	94,10,21	115,12,21	136,14,21	157,16,21	178,18,21	199,20,21	220,22,21	241,24,21	262,26,21	283,28,21	304,30,21	325,32,21	346,34,21	367,36,21	388,38,21	409,40,21	430,42,21	451,44,21	472,46,21	493,48,21	514,50,21	535,52,21	556,54,21	577,56,21	598,58,21	619,60,21	640,62,21	661,64,21	682,66,21	703,68,21	724,70,21	745,72,21	766,74,21	787,76,21	808,78,21	829,80,21	850,82,21	871,84,21	892,86,21	913,88,21	934,90,21	955,92,21	976,94,21	997,96,21	1018,98,21	1039,100,21	1060,102,21	1081,104,21	1102,106,21	1123,108,21	1144,110,21	1165,112,21	1186,114,21	1207,116,21	1228,118,21	1249,120,21	1270,122,21	1291,124,21	1312,126,21	1333,128,21	1354,130,21	1375,132,21	1396,134,21	1417,136,21	1438,138,21	1459,140,21	1480,142,21	1501,144,21	1522,146,21	1543,148,21	1564,150,21	1585,152,21	1606,154,21	1627,156,21	1648,158,21	1669,160,21	1690,162,21	1711,164,21	1732,166,21	1753,168,21	1774,170,21	1795,172,21	1816,174,21	1837,176,21	1858,178,21	1879,180,21	1900,182,21	1921,184,21	1942,186,21	1963,188,21	1984,190,21	2005,192,21	2026,194,21	2047,196,21	2068,198,21	2089,200,21	2110,202,21	2131,204,21	2152,206,21	2173,208,21	2194,210,21	2215,212,21	2236,214,21	2257,216,21	2278,218,21	2299,220,21	2320,222,21	2341,224,21	2362,226,21	2383,228,21	2404,230,21	2425,232,21	2446,234,21	2467,236,21	2488,238,21	2509,240,21	2530,242,21	2551,244,21	2572,246,21	2593,248,21	2614,250,21	2635,252,21	2656,254,21	2677,256,21	2698,258,21	2719,260,21	2740,262,21	2761,264,21	2782,266,21	2803,268,21	2824,270,21	2845,272,21	2866,274,21	2887,276,21	2908,278,21	2929,280,21	2950,282,21	2971,284,21	2992,286,21	3013,288,21	3034,290,21	3055,292,21	3076,294,21	3097,296,21	3118,298,21	3139,300,21	3160,302,21	3181,304,21	3202,306,21	3223,308,21	3244,310,21	3265,312,21	3286,314,21	3307,316,21	3328,318,21	3349,320,21	
0,0,1	1,1,21	22,5,21	43,13,21	64,29,21	85,61,21	106,125,21	127,253,21	148,319,21	169,317,21	190,315,21	211,313,21	232,311,21	253,309,21	274,307,21	295,305,21	316,303,21	337,301,21	358,299,21	379,297,21	400,295,21	421,293,21	442,291,21	463,289,21	484,287,21	505,285,21	526,283,21	547,281,21	568,279,21	589,277,21	610,275,21	631,273,21	652,271,21	673,269,21	694,267,21	715,265,21	736,263,21	757,261,21	778,259,21	799,257,21	820,251,21	841,255,21	862,249,21	883,247,21	904,245,21	925,243,21	946,241,21	967,239,21	988,237,21	1009,235,21	1030,233,21	1051,231,21	1072,229,21	1093,227,21	1114,225,21	1135,223,21	1156,221,21	1177,219,21	1198,217,21	1219,215,21	1240,213,21	1261,211,21	1282,209,21	1303,207,21	1324,205,21	1345,203,21	1366,201,21	1387,199,21	1408,197,21	1429,195,21	1450,193,21	1471,191,21	1492,189,21	1513,187,21	1534,185,21	1555,183,21	1576,181,21	1597,179,21	1618,177,21	1639,175,21	1660,173,21	1681,171,21	1702,169,21	1723,167,21	1744,165,21	1765,163,21	1786,161,21	1807,159,21	1828,157,21	1849,155,21	1870,153,21	1891,151,21	1912,149,21	1933,147,21	1954,145,21	1975,143,21	1996,141,21	2017,139,21	2038,137,21	2059,135,21	2080,133,21	2101,131,21	2122,129,21	2143,123,21	2164,127,21	2185,121,21	2206,119,21	2227,117,21	2248,115,21	2269,113,21	2290,111,21	2311,109,21	2332,107,21	2353,105,21	2374,103,21	2395,101,21	2416,99,21	2437,97,21	2458,95,21	2479,93,21	2500,91,21	2521,89,21	2542,87,21	2563,85,21	2584,83,21	2605,81,21	2626,79,21	2647,77,21	2668,75,21	2689,73,21	2710,71,21	2731,69,21	2752,67,21	2773,65,21	2794,59,21	2815,63,21	2836,57,21	2857,55,21	2878,53,21	2899,51,21	2920,49,21	2941,47,21	2962,45,21	2983,43,21	3004,41,21	3025,39,21	3046,37,21	3067,35,21	3088,33,21	3109,27,21	3130,31,21	3151,25,21	3172,23,21	3193,21,21	3214,19,21	3235,17,21	3256,11,21	3277,15,21	3298,9,21	3319,3,21	3340,7,21	5791,321,1	
# Incoming
1,(0, 2),9	10,(0, 4),9	19,(0, 6),9	28,(0, 8),9	37,(0, 10),9	46,(0, 12),9	55,(0, 14),9	64,(0, 16),9	73,(0, 18),9	82,(0, 20),9	91,(0, 22),9	100,(0, 24),9	109,(0, 26),9	118,(0, 28),9	127,(0, 30),9	136,(0, 32),9	145,(0, 34),9	154,(0, 36),9	163,(0, 38),9	172,(0, 40),9	181,(0, 42),9	190,(0, 44),9	199,(0, 46),9	208,(0, 48),9	217,(0, 50),9	226,(0, 52),9	235,(0, 54),9	244,(0, 56),9	253,(0, 58),9	262,(0, 60),9	271,(0, 62),9	280,(0, 64),9	289,(0, 66),9	298,(0, 68),9	307,(0, 70),9	316,(0, 72),9	325,(0, 74),9	334,(0, 76),9	343,(0, 78),9	352,(0, 80),9	361,(0, 82),9	370,(0, 84),9	379,(0, 86),9	388,(0, 88),9	397,(0, 90),9	406,(0, 92),9	415,(0, 94),9	424,(0, 96),9	433,(0, 98),9	442,(0, 100),9	451,(0, 102),9	460,(0, 104),9	469,(0, 106),9	478,(0, 108),9	487,(0, 110),9	496,(0, 112),9	505,(0, 114),9	514,(0, 116),9	523,(0, 118),9	532,(0, 120),9	541,(0, 122),9	550,(0, 124),9	559,(0, 126),9	568,(0, 128),9	577,(0, 130),9	586,(0, 132),9	595,(0, 134),9	604,(0, 136),9	613,(0, 138),9	622,(0, 140),9	631,(0, 142),9	640,(0, 144),9	649,(0, 146),9	658,(0, 148),9	667,(0, 150),9	676,(0, 152),9	685,(0, 154),9	694,(0, 156),9	703,(0, 158),9	712,(0, 160),9	721,(0, 162),9	730,(0, 164),9	739,(0, 166),9	748,(0, 168),9	757,(0, 170),9	766,(0, 172),9	775,(0, 174),9	784,(0, 176),9	793,(0, 178),9	802,(0, 180),9	811,(0, 182),9	820,(0, 184),9	829,(0, 186),9	838,(0, 188),9	847,(0, 190),9	856,(0, 192),9	865,(0, 194),9	874,(0, 196),9	883,(0, 198),9	892,(0, 200),9	901,(0, 202),9	910,(0, 204),9	919,(0, 206),9	928,(0, 208),9	937,(0, 210),9	946,(0, 212),9	955,(0, 214),9	964,(0, 216),9	973,(0, 218),9	982,(0, 220),9	991,(0, 222),9	1000,(0, 224),9	1009,(0, 226),9	1018,(0, 228),9	1027,(0, 230),9	1036,(0, 232),9	1045,(0, 234),9	1054,(0, 236),9	1063,(0, 238),9	1072,(0, 240),9	1081,(0, 242),9	1090,(0, 244),9	1099,(0, 246),9	1108,(0, 248),9	1117,(0, 250),9	1126,(0, 252),9	1135,(0, 254),9	1144,(0, 256),9	1153,(0, 258),9	1162,(0, 260),9	1171,(0, 262),9	1180,(0, 264),9	1189,(0, 266),9	1198,(0, 268),9	1207,(0, 270),9	1216,(0, 272),9	1225,(0, 274),9	1234,(0, 276),9	1243,(0, 278),9	1252,(0, 280),9	1261,(0, 282),9	1270,(0, 284),9	1279,(0, 286),9	1288,(0, 288),9	1297,(0, 290),9	1306,(0, 292),9	1315,(0, 294),9	1324,(0, 296),9	1333,(0, 298),9	1342,(0, 300),9	1351,(0, 302),9	1360,(0, 304),9	1369,(0, 306),9	1378,(0, 308),9	1387,(0, 310),9	1396,(0, 312),9	1405,(0, 314),9	1414,(0, 316),9	1423,(0, 318),9	1432,(0, 320),9	
31,(2, 321),36	67,(4, 321),36	103,(6, 321),36	139,(8, 321),36	175,(10, 321),36	211,(12, 321),36	247,(14, 321),36	283,(16, 321),36	319,(18, 321),36	355,(20, 321),36	391,(22, 321),36	427,(24, 321),36	463,(26, 321),36	499,(28, 321),36	535,(30, 321),36	571,(32, 321),36	607,(34, 321),36	643,(36, 321),36	679,(38, 321),36	715,(40, 321),36	751,(42, 321),36	787,(44, 321),36	823,(46, 321),36	859,(48, 321),36	895,(50, 321),36	931,(52, 321),36	967,(54, 321),36	1003,(56, 321),36	1039,(58, 321),36	1075,(60, 321),36	1111,(62, 321),36	1147,(64, 321),36	1183,(66, 321),36	1219,(68, 321),36	1255,(70, 321),36	1291,(72, 321),36	1327,(74, 321),36	1363,(76, 321),36	1399,(78, 321),36	1435,(80, 321),36	1471,(82, 321),36	1507,(84, 321),36	1543,(86, 321),36	1579,(88, 321),36	1615,(90, 321),36	1651,(92, 321),36	1687,(94, 321),36	1723,(96, 321),36	1759,(98, 321),36	1795,(100, 321),36	1831,(102, 321),36	1867,(104, 321),36	1903,(106, 321),36	1939,(108, 321),36	1975,(110, 321),36	2011,(112, 321),36	2047,(114, 321),36	2083,(116, 321),36	2119,(118, 321),36	2155,(120, 321),36	2191,(122, 321),36	2227,(124, 321),36	2263,(126, 321),36	2299,(128, 321),36	2335,(130, 321),36	2371,(132, 321),36	2407,(134, 321),36	2443,(136, 321),36	2479,(138, 321),36	2515,(140, 321),36	2551,(142, 321),36	2587,(144, 321),36	2623,(146, 321),36	2659,(148, 321),36	2695,(150, 321),36	2731,(152, 321),36	2767,(154, 321),36	2803,(156, 321),36	2839,(158, 321),36	2875,(160, 321),36	2911,(162, 321),36	2947,(164, 321),36	2983,(166, 321),36	3019,(168, 321),36	3055,(170, 321),36	3091,(172, 321),36	3127,(174, 321),36	3163,(176, 321),36	3199,(178, 321),36	3235,(180, 321),36	3271,(182, 321),36	3307,(184, 321),36	3343,(186, 321),36	3379,(188, 321),36	3415,(190, 321),36	3451,(192, 321),36	3487,(194, 321),36	3523,(196, 321),36	3559,(198, 321),36	3595,(200, 321),36	3631,(202, 321),36	3667,(204, 321),36	3703,(206, 321),36	3739,(208, 321),36	3775,(210, 321),36	3811,(212, 321),36	3847,(214, 321),36	3883,(216, 321),36	3919,(218, 321),36	3955,(220, 321),36	3991,(222, 321),36	4027,(224, 321),36	4063,(226, 321),36	4099,(228, 321),36	4135,(230, 321),36	4171,(232, 321),36	4207,(234, 321),36	4243,(236, 321),36	4279,(238, 321),36	4315,(240, 321),36	4351,(242, 321),36	4387,(244, 321),36	4423,(246, 321),36	4459,(248, 321),36	4495,(250, 321),36	4531,(252, 321),36	4567,(254, 321),36	4603,(256, 321),36	4639,(258, 321),36	4675,(260, 321),36	4711,(262, 321),36	4747,(264, 321),36	4783,(266, 321),36	4819,(268, 321),36	4855,(270, 321),36	4891,(272, 321),36	4927,(274, 321),36	4963,(276, 321),36	4999,(278, 321),36	5035,(280, 321),36	5071,(282, 321),36	5107,(284, 321),36	5143,(286, 321),36	5179,(288, 321),36	5215,(290, 321),36	5251,(292, 321),36	5287,(294, 321),36	5323,(296, 321),36	5359,(298, 321),36	5395,(300, 321),36	5431,(302, 321),36	5467,(304, 321),36	5503,(306, 321),36	5539,(308, 321),36	5575,(310, 321),36	5611,(312, 321),36	5647,(314, 321),36	5683,(316, 321),36	5719,(318, 321),36	5755,(320, 321),36	
# Outgoing
31,(2, 321),36	67,(4, 321),36	103,(6, 321),36	139,(8, 321),36	175,(10, 321),36	211,(12, 321),36	247,(14, 321),36	283,(16, 321),36	319,(18, 321),36	355,(20, 321),36	391,(22, 321),36	427,(24, 321),36	463,(26, 321),36	499,(28, 321),36	535,(30, 321),36	571,(32, 321),36	607,(34, 321),36	643,(36, 321),36	679,(38, 321),36	715,(40, 321),36	751,(42, 321),36	787,(44, 321),36	823,(46, 321),36	859,(48, 321),36	895,(50, 321),36	931,(52, 321),36	967,(54, 321),36	1003,(56, 321),36	1039,(58, 321),36	1075,(60, 321),36	1111,(62, 321),36	1147,(64, 321),36	1183,(66, 321),36	1219,(68, 321),36	1255,(70, 321),36	1291,(72, 321),36	1327,(74, 321),36	1363,(76, 321),36	1399,(78, 321),36	1435,(80, 321),36	1471,(82, 321),36	1507,(84, 321),36	1543,(86, 321),36	1579,(88, 321),36	1615,(90, 321),36	1651,(92, 321),36	1687,(94, 321),36	1723,(96, 321),36	1759,(98, 321),36	1795,(100, 321),36	1831,(102, 321),36	1867,(104, 321),36	1903,(106, 321),36	1939,(108, 321),36	1975,(110, 321),36	2011,(112, 321),36	2047,(114, 321),36	2083,(116, 321),36	2119,(118, 321),36	2155,(120, 321),36	2191,(122, 321),36	2227,(124, 321),36	2263,(126, 321),36	2299,(128, 321),36	2335,(130, 321),36	2371,(132, 321),36	2407,(134, 321),36	2443,(136, 321),36	2479,(138, 321),36	2515,(140, 321),36	2551,(142, 321),36	2587,(144, 321),36	2623,(146, 321),36	2659,(148, 321),36	2695,(150, 321),36	2731,(152, 321),36	2767,(154, 321),36	2803,(156, 321),36	2839,(158, 321),36	2875,(160, 321),36	2911,(162, 321),36	2947,(164, 321),36	2983,(166, 321),36	3019,(168, 321),36	3055,(170, 321),36	3091,(172, 321),36	3127,(174, 321),36	3163,(176, 321),36	3199,(178, 321),36	3235,(180, 321),36	3271,(182, 321),36	3307,(184, 321),36	3343,(186, 321),36	3379,(188, 321),36	3415,(190, 321),36	3451,(192, 321),36	3487,(194, 321),36	3523,(196, 321),36	3559,(198, 321),36	3595,(200, 321),36	3631,(202, 321),36	3667,(204, 321),36	3703,(206, 321),36	3739,(208, 321),36	3775,(210, 321),36	3811,(212, 321),36	3847,(214, 321),36	3883,(216, 321),36	3919,(218, 321),36	3955,(220, 321),36	3991,(222, 321),36	4027,(224, 321),36	4063,(226, 321),36	4099,(228, 321),36	4135,(230, 321),36	4171,(232, 321),36	4207,(234, 321),36	4243,(236, 321),36	4279,(238, 321),36	4315,(240, 321),36	4351,(242, 321),36	4387,(244, 321),36	4423,(246, 321),36	4459,(248, 321),36	4495,(250, 321),36	4531,(252, 321),36	4567,(254, 321),36	4603,(256, 321),36	4639,(258, 321),36	4675,(260, 321),36	4711,(262, 321),36	4747,(264, 321),36	4783,(266, 321),36	4819,(268, 321),36	4855,(270, 321),36	4891,(272, 321),36	4927,(274, 321),36	4963,(276, 321),36	4999,(278, 321),36	5035,(280, 321),36	5071,(282, 321),36	5107,(284, 321),36	5143,(286, 321),36	5179,(288, 321),36	5215,(290, 321),36	5251,(292, 321),36	5287,(294, 321),36	5323,(296, 321),36	5359,(298, 321),36	5395,(300, 321),36	5431,(302, 321),36	5467,(304, 321),36	5503,(306, 321),36	5539,(308, 321),36	5575,(310, 321),36	5611,(312, 321),36	5647,(314, 321),36	5683,(316, 321),36	5719,(318, 321),36	5755,(320, 321),36	
1,(0, 2),9	10,(0, 4),9	19,(0, 6),9	28,(0, 8),9	37,(0, 10),9	46,(0, 12),9	55,(0, 14),9	64,(0, 16),9	73,(0, 18),9	82,(0, 20),9	91,(0, 22),9	100,(0, 24),9	109,(0, 26),9	118,(0, 28),9	127,(0, 30),9	136,(0, 32),9	145,(0, 34),9	154,(0, 36),9	163,(0, 38),9	172,(0, 40),9	181,(0, 42),9	190,(0, 44),9	199,(0, 46),9	208,(0, 48),9	217,(0, 50),9	226,(0, 52),9	235,(0, 54),9	244,(0, 56),9	253,(0, 58),9	262,(0, 60),9	271,(0, 62),9	280,(0, 64),9	289,(0, 66),9	298,(0, 68),9	307,(0, 70),9	316,(0, 72),9	325,(0, 74),9	334,(0, 76),9	343,(0, 78),9	352,(0, 80),9	361,(0, 82),9	370,(0, 84),9	379,(0, 86),9	388,(0, 88),9	397,(0, 90),9	406,(0, 92),9	415,(0, 94),9	424,(0, 96),9	433,(0, 98),9	442,(0, 100),9	451,(0, 102),9	460,(0, 104),9	469,(0, 106),9	478,(0, 108),9	487,(0, 110),9	496,(0, 112),9	505,(0, 114),9	514,(0, 116),9	523,(0, 118),9	532,(0, 120),9	541,(0, 122),9	550,(0, 124),9	559,(0, 126),9	568,(0, 128),9	577,(0, 130),9	586,(0, 132),9	595,(0, 134),9	604,(0, 136),9	613,(0, 138),9	622,(0, 140),9	631,(0, 142),9	640,(0, 144),9	649,(0, 146),9	658,(0, 148),9	667,(0, 150),9	676,(0, 152),9	685,(0, 154),9	694,(0, 156),9	703,(0, 158),9	712,(0, 160),9	721,(0, 162),9	730,(0, 164),9	739,(0, 166),9	748,(0, 168),9	757,(0, 170),9	766,(0, 172),9	775,(0, 174),9	784,(0, 176),9	793,(0, 178),9	802,(0, 180),9	811,(0, 182),9	820,(0, 184),9	829,(0, 186),9	838,(0, 188),9	847,(0, 190),9	856,(0, 192),9	865,(0, 194),9	874,(0, 196),9	883,(0, 198),9	892,(0, 200),9	901,(0, 202),9	910,(0, 204),9	919,(0, 206),9	928,(0, 208),9	937,(0, 210),9	946,(0, 212),9	955,(0, 214),9	964,(0, 216),9	973,(0, 218),9	982,(0, 220),9	991,(0, 222),9	1000,(0, 224),9	1009,(0, 226),9	1018,(0, 228),9	1027,(0, 230),9	1036,(0, 232),9	1045,(0, 234),9	1054,(0, 236),9	1063,(0, 238),9	1072,(0, 240),9	1081,(0, 242),9	1090,(0, 244),9	1099,(0, 246),9	1108,(0, 248),9	1117,(0, 250),9	1126,(0, 252),9	1135,(0, 254),9	1144,(0, 256),9	1153,(0, 258),9	1162,(0, 260),9	1171,(0, 262),9	1180,(0, 264),9	1189,(0, 266),9	1198,(0, 268),9	1207,(0, 270),9	1216,(0, 272),9	1225,(0, 274),9	1234,(0, 276),9	1243,(0, 278),9	1252,(0, 280),9	1261,(0, 282),9	1270,(0, 284),9	1279,(0, 286),9	1288,(0, 288),9	1297,(0, 290),9	1306,(0, 292),9	1315,(0, 294),9	1324,(0, 296),9	1333,(0, 298),9	1342,(0, 300),9	1351,(0, 302),9	1360,(0, 304),9	1369,(0, 306),9	1378,(0, 308),9	1387,(0, 310),9	1396,(0, 312),9	1405,(0, 314),9	1414,(0, 316),9	1423,(0, 318),9	1432,(0, 320),9	
