34581
# CPU
4,2,16	20,4,16	36,6,16	52,8,16	68,10,16	84,12,16	100,14,16	116,16,16	132,18,16	148,20,16	164,22,16	180,24,16	196,26,16	212,28,16	228,30,16	244,32,16	260,34,16	276,36,16	292,38,16	308,40,16	324,42,16	340,44,16	356,46,16	372,48,16	388,50,16	404,52,16	420,54,16	436,56,16	452,58,16	468,60,16	484,62,16	500,64,16	516,66,16	532,68,16	548,70,16	564,72,16	580,74,16	596,76,16	612,78,16	628,80,16	644,82,16	660,84,16	676,86,16	692,88,16	708,90,16	724,92,16	740,94,16	756,96,16	772,98,16	788,100,16	804,102,16	820,104,16	836,106,16	852,108,16	868,110,16	884,112,16	900,114,16	916,116,16	932,118,16	948,120,16	964,122,16	980,124,16	996,126,16	1012,128,16	1028,130,16	1044,132,16	1060,134,16	1076,136,16	1092,138,16	1108,140,16	1124,142,16	1140,144,16	1156,146,16	1172,148,16	1188,150,16	1204,152,16	1220,154,16	1236,156,16	1252,158,16	1268,160,16	1284,162,16	1300,164,16	1316,166,16	1332,168,16	1348,170,16	1364,172,16	1380,174,16	1396,176,16	1412,178,16	1428,180,16	1444,182,16	1460,184,16	1476,186,16	1492,188,16	1508,190,16	1524,192,16	1540,194,16	1556,196,16	1572,198,16	1588,200,16	1604,202,16	1620,204,16	1636,206,16	1652,208,16	1668,210,16	1684,212,16	1700,214,16	1716,216,16	1732,218,16	1748,220,16	1764,222,16	1780,224,16	1796,226,16	1812,228,16	1828,230,16	1844,232,16	1860,234,16	1876,236,16	1892,238,16	1908,240,16	1924,242,16	1940,244,16	1956,246,16	1972,248,16	1988,250,16	2004,252,16	2020,254,16	2036,256,16	2052,258,16	2068,260,16	2084,262,16	2100,264,16	2116,266,16	2132,268,16	2148,270,16	2164,272,16	2180,274,16	2196,276,16	2212,278,16	2228,280,16	2244,282,16	2260,284,16	2276,286,16	2292,288,16	2308,290,16	2324,292,16	2340,294,16	2356,296,16	2372,298,16	2388,300,16	2404,302,16	2420,304,16	2436,306,16	2452,308,16	2468,310,16	2484,312,16	2500,314,16	2516,316,16	2532,318,16	2548,320,16	
0,0,1	1,1,16	17,5,16	33,13,16	49,29,16	65,61,16	81,125,16	97,253,16	113,319,16	129,317,16	145,315,16	161,313,16	177,311,16	193,309,16	209,307,16	225,305,16	241,303,16	257,301,16	273,299,16	289,297,16	305,295,16	321,293,16	337,291,16	353,289,16	369,287,16	385,285,16	401,283,16	417,281,16	433,279,16	449,277,16	465,275,16	481,273,16	497,271,16	513,269,16	529,267,16	545,265,16	561,263,16	577,261,16	593,259,16	609,257,16	625,251,16	641,255,16	657,249,16	673,247,16	689,245,16	705,243,16	721,241,16	737,239,16	753,237,16	769,235,16	785,233,16	801,231,16	817,229,16	833,227,16	849,225,16	865,223,16	881,221,16	897,219,16	913,217,16	929,215,16	945,213,16	961,211,16	977,209,16	993,207,16	1009,205,16	1025,203,16	1041,201,16	1057,199,16	1073,197,16	1089,195,16	1105,193,16	1121,191,16	1137,189,16	1153,187,16	1169,185,16	1185,183,16	1201,181,16	1217,179,16	1233,177,16	1249,175,16	1265,173,16	1281,171,16	1297,169,16	1313,167,16	1329,165,16	1345,163,16	1361,161,16	1377,159,16	1393,157,16	1409,155,16	1425,153,16	1441,151,16	1457,149,16	1473,147,16	1489,145,16	1505,143,16	1521,141,16	1537,139,16	1553,137,16	1569,135,16	1585,133,16	1601,131,16	1617,129,16	1633,123,16	1649,127,16	1665,121,16	1681,119,16	1697,117,16	1713,115,16	1729,113,16	1745,111,16	1761,109,16	1777,107,16	1793,105,16	1809,103,16	1825,101,16	1841,99,16	1857,97,16	1873,95,16	1889,93,16	1905,91,16	1921,89,16	1937,87,16	1953,85,16	1969,83,16	1985,81,16	2001,79,16	2017,77,16	2033,75,16	2049,73,16	2065,71,16	2081,69,16	2097,67,16	2113,65,16	2129,59,16	2145,63,16	2161,57,16	2177,55,16	2193,53,16	2209,51,16	2225,49,16	2241,47,16	2257,45,16	2273,43,16	2289,41,16	2305,39,16	2321,37,16	2337,35,16	2353,33,16	2369,27,16	2385,31,16	2401,25,16	2417,23,16	2433,21,16	2449,19,16	2465,17,16	2481,11,16	2497,15,16	2513,9,16	2529,3,16	2545,7,16	34580,321,1	
# Incoming
1,(0, 2),3	4,(0, 4),3	7,(0, 6),3	10,(0, 8),3	13,(0, 10),3	16,(0, 12),3	19,(0, 14),3	22,(0, 16),3	25,(0, 18),3	28,(0, 20),3	31,(0, 22),3	34,(0, 24),3	37,(0, 26),3	40,(0, 28),3	43,(0, 30),3	46,(0, 32),3	49,(0, 34),3	52,(0, 36),3	55,(0, 38),3	58,(0, 40),3	61,(0, 42),3	64,(0, 44),3	67,(0, 46),3	70,(0, 48),3	73,(0, 50),3	76,(0, 52),3	79,(0, 54),3	82,(0, 56),3	85,(0, 58),3	88,(0, 60),3	91,(0, 62),3	94,(0, 64),3	97,(0, 66),3	100,(0, 68),3	103,(0, 70),3	106,(0, 72),3	109,(0, 74),3	112,(0, 76),3	115,(0, 78),3	118,(0, 80),3	121,(0, 82),3	124,(0, 84),3	127,(0, 86),3	130,(0, 88),3	133,(0, 90),3	136,(0, 92),3	139,(0, 94),3	142,(0, 96),3	145,(0, 98),3	148,(0, 100),3	151,(0, 102),3	154,(0, 104),3	157,(0, 106),3	160,(0, 108),3	163,(0, 110),3	166,(0, 112),3	169,(0, 114),3	172,(0, 116),3	175,(0, 118),3	178,(0, 120),3	181,(0, 122),3	184,(0, 124),3	187,(0, 126),3	190,(0, 128),3	193,(0, 130),3	196,(0, 132),3	199,(0, 134),3	202,(0, 136),3	205,(0, 138),3	208,(0, 140),3	211,(0, 142),3	214,(0, 144),3	217,(0, 146),3	220,(0, 148),3	223,(0, 150),3	226,(0, 152),3	229,(0, 154),3	232,(0, 156),3	235,(0, 158),3	238,(0, 160),3	241,(0, 162),3	244,(0, 164),3	247,(0, 166),3	250,(0, 168),3	253,(0, 170),3	256,(0, 172),3	259,(0, 174),3	262,(0, 176),3	265,(0, 178),3	268,(0, 180),3	271,(0, 182),3	274,(0, 184),3	277,(0, 186),3	280,(0, 188),3	283,(0, 190),3	286,(0, 192),3	289,(0, 194),3	292,(0, 196),3	295,(0, 198),3	298,(0, 200),3	301,(0, 202),3	304,(0, 204),3	307,(0, 206),3	310,(0, 208),3	313,(0, 210),3	316,(0, 212),3	319,(0, 214),3	322,(0, 216),3	325,(0, 218),3	328,(0, 220),3	331,(0, 222),3	334,(0, 224),3	337,(0, 226),3	340,(0, 228),3	343,(0, 230),3	346,(0, 232),3	349,(0, 234),3	352,(0, 236),3	355,(0, 238),3	358,(0, 240),3	361,(0, 242),3	364,(0, 244),3	367,(0, 246),3	370,(0, 248),3	373,(0, 250),3	376,(0, 252),3	379,(0, 254),3	382,(0, 256),3	385,(0, 258),3	388,(0, 260),3	391,(0, 262),3	394,(0, 264),3	397,(0, 266),3	400,(0, 268),3	403,(0, 270),3	406,(0, 272),3	409,(0, 274),3	412,(0, 276),3	415,(0, 278),3	418,(0, 280),3	421,(0, 282),3	424,(0, 284),3	427,(0, 286),3	430,(0, 288),3	433,(0, 290),3	436,(0, 292),3	439,(0, 294),3	442,(0, 296),3	445,(0, 298),3	448,(0, 300),3	451,(0, 302),3	454,(0, 304),3	457,(0, 306),3	460,(0, 308),3	463,(0, 310),3	466,(0, 312),3	469,(0, 314),3	472,(0, 316),3	475,(0, 318),3	478,(0, 320),3	
20,(2, 321),216	236,(4, 321),216	452,(6, 321),216	668,(8, 321),216	884,(10, 321),216	1100,(12, 321),216	1316,(14, 321),216	1532,(16, 321),216	1748,(18, 321),216	1964,(20, 321),216	2180,(22, 321),216	2396,(24, 321),216	2612,(26, 321),216	2828,(28, 321),216	3044,(30, 321),216	3260,(32, 321),216	3476,(34, 321),216	3692,(36, 321),216	3908,(38, 321),216	4124,(40, 321),216	4340,(42, 321),216	4556,(44, 321),216	4772,(46, 321),216	4988,(48, 321),216	5204,(50, 321),216	5420,(52, 321),216	5636,(54, 321),216	5852,(56, 321),216	6068,(58, 321),216	6284,(60, 321),216	6500,(62, 321),216	6716,(64, 321),216	6932,(66, 321),216	7148,(68, 321),216	7364,(70, 321),216	7580,(72, 321),216	7796,(74, 321),216	8012,(76, 321),216	8228,(78, 321),216	8444,(80, 321),216	8660,(82, 321),216	8876,(84, 321),216	9092,(86, 321),216	9308,(88, 321),216	9524,(90, 321),216	9740,(92, 321),216	9956,(94, 321),216	10172,(96, 321),216	10388,(98, 321),216	10604,(100, 321),216	10820,(102, 321),216	11036,(104, 321),216	11252,(106, 321),216	11468,(108, 321),216	11684,(110, 321),216	11900,(112, 321),216	12116,(114, 321),216	12332,(116, 321),216	12548,(118, 321),216	12764,(120, 321),216	12980,(122, 321),216	13196,(124, 321),216	13412,(126, 321),216	13628,(128, 321),216	13844,(130, 321),216	14060,(132, 321),216	14276,(134, 321),216	14492,(136, 321),216	14708,(138, 321),216	14924,(140, 321),216	15140,(142, 321),216	15356,(144, 321),216	15572,(146, 321),216	15788,(148, 321),216	16004,(150, 321),216	16220,(152, 321),216	16436,(154, 321),216	16652,(156, 321),216	16868,(158, 321),216	17084,(160, 321),216	17300,(162, 321),216	17516,(164, 321),216	17732,(166, 321),216	17948,(168, 321),216	18164,(170, 321),216	18380,(172, 321),216	18596,(174, 321),216	18812,(176, 321),216	19028,(178, 321),216	19244,(180, 321),216	19460,(182, 321),216	19676,(184, 321),216	19892,(186, 321),216	20108,(188, 321),216	20324,(190, 321),216	20540,(192, 321),216	20756,(194, 321),216	20972,(196, 321),216	21188,(198, 321),216	21404,(200, 321),216	21620,(202, 321),216	21836,(204, 321),216	22052,(206, 321),216	22268,(208, 321),216	22484,(210, 321),216	22700,(212, 321),216	22916,(214, 321),216	23132,(216, 321),216	23348,(218, 321),216	23564,(220, 321),216	23780,(222, 321),216	23996,(224, 321),216	24212,(226, 321),216	24428,(228, 321),216	24644,(230, 321),216	24860,(232, 321),216	25076,(234, 321),216	25292,(236, 321),216	25508,(238, 321),216	25724,(240, 321),216	25940,(242, 321),216	26156,(244, 321),216	26372,(246, 321),216	26588,(248, 321),216	26804,(250, 321),216	27020,(252, 321),216	27236,(254, 321),216	27452,(256, 321),216	27668,(258, 321),216	27884,(260, 321),216	28100,(262, 321),216	28316,(264, 321),216	28532,(266, 321),216	28748,(268, 321),216	28964,(270, 321),216	29180,(272, 321),216	29396,(274, 321),216	29612,(276, 321),216	29828,(278, 321),216	30044,(280, 321),216	30260,(282, 321),216	30476,(284, 321),216	30692,(286, 321),216	30908,(288, 321),216	31124,(290, 321),216	31340,(292, 321),216	31556,(294, 321),216	31772,(296, 321),216	31988,(298, 321),216	32204,(300, 321),216	32420,(302, 321),216	32636,(304, 321),216	32852,(306, 321),216	33068,(308, 321),216	33284,(310, 321),216	33500,(312, 321),216	33716,(314, 321),216	33932,(316, 321),216	34148,(318, 321),216	34364,(320, 321),216	
# Outgoing
20,(2, 321),216	236,(4, 321),216	452,(6, 321),216	668,(8, 321),216	884,(10, 321),216	1100,(12, 321),216	1316,(14, 321),216	1532,(16, 321),216	1748,(18, 321),216	1964,(20, 321),216	2180,(22, 321),216	2396,(24, 321),216	2612,(26, 321),216	2828,(28, 321),216	3044,(30, 321),216	3260,(32, 321),216	3476,(34, 321),216	3692,(36, 321),216	3908,(38, 321),216	4124,(40, 321),216	4340,(42, 321),216	4556,(44, 321),216	4772,(46, 321),216	4988,(48, 321),216	5204,(50, 321),216	5420,(52, 321),216	5636,(54, 321),216	5852,(56, 321),216	6068,(58, 321),216	6284,(60, 321),216	6500,(62, 321),216	6716,(64, 321),216	6932,(66, 321),216	7148,(68, 321),216	7364,(70, 321),216	7580,(72, 321),216	7796,(74, 321),216	8012,(76, 321),216	8228,(78, 321),216	8444,(80, 321),216	8660,(82, 321),216	8876,(84, 321),216	9092,(86, 321),216	9308,(88, 321),216	9524,(90, 321),216	9740,(92, 321),216	9956,(94, 321),216	10172,(96, 321),216	10388,(98, 321),216	10604,(100, 321),216	10820,(102, 321),216	11036,(104, 321),216	11252,(106, 321),216	11468,(108, 321),216	11684,(110, 321),216	11900,(112, 321),216	12116,(114, 321),216	12332,(116, 321),216	12548,(118, 321),216	12764,(120, 321),216	12980,(122, 321),216	13196,(124, 321),216	13412,(126, 321),216	13628,(128, 321),216	13844,(130, 321),216	14060,(132, 321),216	14276,(134, 321),216	14492,(136, 321),216	14708,(138, 321),216	14924,(140, 321),216	15140,(142, 321),216	15356,(144, 321),216	15572,(146, 321),216	15788,(148, 321),216	16004,(150, 321),216	16220,(152, 321),216	16436,(154, 321),216	16652,(156, 321),216	16868,(158, 321),216	17084,(160, 321),216	17300,(162, 321),216	17516,(164, 321),216	17732,(166, 321),216	17948,(168, 321),216	18164,(170, 321),216	18380,(172, 321),216	18596,(174, 321),216	18812,(176, 321),216	19028,(178, 321),216	19244,(180, 321),216	19460,(182, 321),216	19676,(184, 321),216	19892,(186, 321),216	20108,(188, 321),216	20324,(190, 321),216	20540,(192, 321),216	20756,(194, 321),216	20972,(196, 321),216	21188,(198, 321),216	21404,(200, 321),216	21620,(202, 321),216	21836,(204, 321),216	22052,(206, 321),216	22268,(208, 321),216	22484,(210, 321),216	22700,(212, 321),216	22916,(214, 321),216	23132,(216, 321),216	23348,(218, 321),216	23564,(220, 321),216	23780,(222, 321),216	23996,(224, 321),216	24212,(226, 321),216	24428,(228, 321),216	24644,(230, 321),216	24860,(232, 321),216	25076,(234, 321),216	25292,(236, 321),216	25508,(238, 321),216	25724,(240, 321),216	25940,(242, 321),216	26156,(244, 321),216	26372,(246, 321),216	26588,(248, 321),216	26804,(250, 321),216	27020,(252, 321),216	27236,(254, 321),216	27452,(256, 321),216	27668,(258, 321),216	27884,(260, 321),216	28100,(262, 321),216	28316,(264, 321),216	28532,(266, 321),216	28748,(268, 321),216	28964,(270, 321),216	29180,(272, 321),216	29396,(274, 321),216	29612,(276, 321),216	29828,(278, 321),216	30044,(280, 321),216	30260,(282, 321),216	30476,(284, 321),216	30692,(286, 321),216	30908,(288, 321),216	31124,(290, 321),216	31340,(292, 321),216	31556,(294, 321),216	31772,(296, 321),216	31988,(298, 321),216	32204,(300, 321),216	32420,(302, 321),216	32636,(304, 321),216	32852,(306, 321),216	33068,(308, 321),216	33284,(310, 321),216	33500,(312, 321),216	33716,(314, 321),216	33932,(316, 321),216	34148,(318, 321),216	34364,(320, 321),216	
1,(0, 2),3	4,(0, 4),3	7,(0, 6),3	10,(0, 8),3	13,(0, 10),3	16,(0, 12),3	19,(0, 14),3	22,(0, 16),3	25,(0, 18),3	28,(0, 20),3	31,(0, 22),3	34,(0, 24),3	37,(0, 26),3	40,(0, 28),3	43,(0, 30),3	46,(0, 32),3	49,(0, 34),3	52,(0, 36),3	55,(0, 38),3	58,(0, 40),3	61,(0, 42),3	64,(0, 44),3	67,(0, 46),3	70,(0, 48),3	73,(0, 50),3	76,(0, 52),3	79,(0, 54),3	82,(0, 56),3	85,(0, 58),3	88,(0, 60),3	91,(0, 62),3	94,(0, 64),3	97,(0, 66),3	100,(0, 68),3	103,(0, 70),3	106,(0, 72),3	109,(0, 74),3	112,(0, 76),3	115,(0, 78),3	118,(0, 80),3	121,(0, 82),3	124,(0, 84),3	127,(0, 86),3	130,(0, 88),3	133,(0, 90),3	136,(0, 92),3	139,(0, 94),3	142,(0, 96),3	145,(0, 98),3	148,(0, 100),3	151,(0, 102),3	154,(0, 104),3	157,(0, 106),3	160,(0, 108),3	163,(0, 110),3	166,(0, 112),3	169,(0, 114),3	172,(0, 116),3	175,(0, 118),3	178,(0, 120),3	181,(0, 122),3	184,(0, 124),3	187,(0, 126),3	190,(0, 128),3	193,(0, 130),3	196,(0, 132),3	199,(0, 134),3	202,(0, 136),3	205,(0, 138),3	208,(0, 140),3	211,(0, 142),3	214,(0, 144),3	217,(0, 146),3	220,(0, 148),3	223,(0, 150),3	226,(0, 152),3	229,(0, 154),3	232,(0, 156),3	235,(0, 158),3	238,(0, 160),3	241,(0, 162),3	244,(0, 164),3	247,(0, 166),3	250,(0, 168),3	253,(0, 170),3	256,(0, 172),3	259,(0, 174),3	262,(0, 176),3	265,(0, 178),3	268,(0, 180),3	271,(0, 182),3	274,(0, 184),3	277,(0, 186),3	280,(0, 188),3	283,(0, 190),3	286,(0, 192),3	289,(0, 194),3	292,(0, 196),3	295,(0, 198),3	298,(0, 200),3	301,(0, 202),3	304,(0, 204),3	307,(0, 206),3	310,(0, 208),3	313,(0, 210),3	316,(0, 212),3	319,(0, 214),3	322,(0, 216),3	325,(0, 218),3	328,(0, 220),3	331,(0, 222),3	334,(0, 224),3	337,(0, 226),3	340,(0, 228),3	343,(0, 230),3	346,(0, 232),3	349,(0, 234),3	352,(0, 236),3	355,(0, 238),3	358,(0, 240),3	361,(0, 242),3	364,(0, 244),3	367,(0, 246),3	370,(0, 248),3	373,(0, 250),3	376,(0, 252),3	379,(0, 254),3	382,(0, 256),3	385,(0, 258),3	388,(0, 260),3	391,(0, 262),3	394,(0, 264),3	397,(0, 266),3	400,(0, 268),3	403,(0, 270),3	406,(0, 272),3	409,(0, 274),3	412,(0, 276),3	415,(0, 278),3	418,(0, 280),3	421,(0, 282),3	424,(0, 284),3	427,(0, 286),3	430,(0, 288),3	433,(0, 290),3	436,(0, 292),3	439,(0, 294),3	442,(0, 296),3	445,(0, 298),3	448,(0, 300),3	451,(0, 302),3	454,(0, 304),3	457,(0, 306),3	460,(0, 308),3	463,(0, 310),3	466,(0, 312),3	469,(0, 314),3	472,(0, 316),3	475,(0, 318),3	478,(0, 320),3	
