4691
# CPU
0,321,1	1,320,21	22,210,21	43,211,21	64,208,21	85,207,21	106,209,21	127,206,21	148,205,21	169,204,21	190,203,21	211,202,21	232,201,21	253,200,21	274,199,21	295,198,21	316,196,21	337,197,21	358,195,21	379,194,21	400,193,21	421,192,21	442,191,21	463,190,21	484,212,21	505,189,21	526,188,21	547,186,21	568,187,21	589,185,21	610,184,21	631,213,21	652,182,21	673,181,21	694,180,21	715,179,21	736,178,21	757,177,21	778,176,21	799,175,21	820,174,21	841,173,21	862,183,21	883,171,21	904,170,21	925,172,21	946,240,21	967,239,21	988,241,21	1009,238,21	1030,242,21	1051,237,21	1072,243,21	1093,244,21	1114,236,21	1135,235,21	1156,245,21	1177,226,21	1198,169,21	1219,246,21	1240,167,21	1261,165,21	1282,247,21	1303,248,21	1324,249,21	1345,163,21	1366,161,21	1387,250,21	1408,159,21	1429,158,21	1450,251,21	1471,156,21	1492,154,21	1513,252,21	1534,253,21	1555,254,21	1576,152,21	1597,151,21	1618,255,21	1639,149,21	1660,148,21	1681,256,21	1702,146,21	1723,144,21	1744,257,21	1765,258,21	1786,142,21	1807,259,21	1828,140,21	1849,260,21	1870,138,21	1891,136,21	1912,261,21	1933,134,21	1954,133,21	1975,262,21	1996,263,21	2017,131,21	2038,264,21	2059,129,21	2080,265,21	2101,127,21	2122,126,21	2143,266,21	2164,124,21	2185,122,21	2206,267,21	2227,268,21	2248,120,21	2269,269,21	2290,118,21	2311,116,21	2332,270,21	2353,114,21	2374,271,21	2395,112,21	2416,111,21	2437,272,21	2458,109,21	2479,273,21	2500,274,21	2521,107,21	2542,105,21	2563,275,21	2584,103,21	2605,101,21	2626,276,21	2647,100,21	2668,277,21	2689,98,21	2710,278,21	2731,279,21	2752,96,21	2773,94,21	2794,280,21	2815,81,21	2836,80,21	2857,79,21	2878,78,21	2899,77,21	2920,76,21	2941,82,21	2962,75,21	2983,74,21	3004,72,21	3025,73,21	3046,71,21	3067,70,21	3088,69,21	3109,68,21	3130,67,21	3151,66,21	3172,83,21	3193,65,21	3214,64,21	3235,62,21	3256,63,21	3277,61,21	3298,60,21	3319,84,21	3340,58,21	3361,57,21	3382,56,21	3403,59,21	3424,55,21	3445,54,21	3466,53,21	3487,52,21	3508,51,21	3529,50,21	3550,85,21	3571,48,21	3592,47,21	3613,49,21	3634,46,21	3655,45,21	3676,44,21	3697,43,21	3718,42,21	3739,41,21	3760,304,21	3781,305,21	3802,303,21	3823,302,21	3844,306,21	3865,301,21	3886,300,21	3907,307,21	3928,295,21	3949,283,21	3970,308,21	3991,40,21	4012,309,21	4033,38,21	4054,37,21	4075,310,21	4096,35,21	4117,34,21	4138,311,21	4159,32,21	4180,30,21	4201,312,21	4222,17,21	4243,16,21	4264,15,21	4285,18,21	4306,14,21	4327,13,21	4348,12,21	4369,19,21	4390,11,21	4411,10,21	4432,9,21	4453,1,21	4474,2,21	4495,3,21	4516,4,21	4537,5,21	4558,6,21	4579,7,21	4600,8,21	4621,20,21	4642,21,21	4663,316,21	4690,0,1	
193,218,21	625,228,21	673,229,21	721,230,21	1105,164,21	1153,162,21	1585,141,21	2449,102,21	2977,281,21	3073,284,21	3697,298,21	3745,299,21	4561,317,21	4609,319,21	4657,318,21	
97,216,21	145,217,21	577,227,21	1201,160,21	1633,139,21	1681,137,21	1729,135,21	2113,117,21	2161,115,21	3601,296,21	3649,297,21	
2209,113,21	2641,93,21	2737,89,21	3121,285,21	3169,286,21	3217,287,21	4129,25,21	
241,219,21	289,220,21	769,231,21	865,233,21	1249,157,21	1297,155,21	1345,153,21	1393,150,21	2593,95,21	2689,91,21	3793,92,21	3841,39,21	4177,23,21	4225,22,21	
337,221,21	817,232,21	1825,130,21	1873,128,21	3361,290,21	3409,291,21	3889,36,21	4369,313,21	4417,314,21	
385,222,21	1777,132,21	2257,110,21	2305,108,21	2353,106,21	2401,104,21	2785,86,21	3265,288,21	3313,289,21	4273,26,21	4321,28,21	
529,225,21	913,234,21	961,215,21	1009,168,21	1057,166,21	1489,145,21	1537,143,21	2833,87,21	2881,88,21	3457,292,21	
49,214,21	433,223,21	481,224,21	1441,147,21	1921,125,21	1969,123,21	2065,119,21	3505,293,21	3553,294,21	3937,33,21	3985,31,21	4033,29,21	4465,24,21	4513,315,21	
2017,121,21	2497,99,21	2545,97,21	2929,90,21	3025,282,21	4081,27,21	
# Incoming
70,(214, 0),12	118,(216, 0),12	166,(217, 0),12	214,(218, 0),12	262,(219, 0),12	310,(220, 0),12	358,(221, 0),12	406,(222, 0),12	454,(223, 0),12	502,(224, 0),12	550,(225, 0),12	598,(227, 0),12	646,(228, 0),12	694,(229, 0),12	742,(230, 0),12	790,(231, 0),12	838,(232, 0),12	886,(233, 0),12	934,(234, 0),12	982,(215, 0),12	1030,(168, 0),12	1078,(166, 0),12	1126,(164, 0),12	1174,(162, 0),12	1222,(160, 0),12	1270,(157, 0),12	1318,(155, 0),12	1366,(153, 0),12	1414,(150, 0),12	1462,(147, 0),12	1510,(145, 0),12	1558,(143, 0),12	1606,(141, 0),12	1654,(139, 0),12	1702,(137, 0),12	1750,(135, 0),12	1798,(132, 0),12	1846,(130, 0),12	1894,(128, 0),12	1942,(125, 0),12	1990,(123, 0),12	2038,(121, 0),12	2086,(119, 0),12	2134,(117, 0),12	2182,(115, 0),12	2230,(113, 0),12	2278,(110, 0),12	2326,(108, 0),12	2374,(106, 0),12	2422,(104, 0),12	2470,(102, 0),12	2518,(99, 0),12	2566,(97, 0),12	2614,(95, 0),12	2662,(93, 0),12	2710,(91, 0),12	2758,(89, 0),12	2806,(86, 0),12	2854,(87, 0),12	2902,(88, 0),12	2950,(90, 0),12	2998,(281, 0),12	3046,(282, 0),12	3094,(284, 0),12	3142,(285, 0),12	3190,(286, 0),12	3238,(287, 0),12	3286,(288, 0),12	3334,(289, 0),12	3382,(290, 0),12	3430,(291, 0),12	3478,(292, 0),12	3526,(293, 0),12	3574,(294, 0),12	3622,(296, 0),12	3670,(297, 0),12	3718,(298, 0),12	3766,(299, 0),12	3814,(92, 0),12	3862,(39, 0),12	3910,(36, 0),12	3958,(33, 0),12	4006,(31, 0),12	4054,(29, 0),12	4102,(27, 0),12	4150,(25, 0),12	4198,(23, 0),12	4246,(22, 0),12	4294,(26, 0),12	4342,(28, 0),12	4390,(313, 0),12	4438,(314, 0),12	4486,(24, 0),12	4534,(315, 0),12	4582,(317, 0),12	4630,(319, 0),12	4678,(318, 0),12	
145,(321, 218),48	577,(321, 228),48	625,(321, 229),48	673,(321, 230),48	1057,(321, 164),48	1105,(321, 162),48	1537,(321, 141),48	2401,(321, 102),48	2929,(321, 281),48	3025,(321, 284),48	3649,(321, 298),48	3697,(321, 299),48	4513,(321, 317),48	4561,(321, 319),48	4609,(321, 318),48	
49,(321, 216),48	97,(321, 217),48	529,(321, 227),48	1153,(321, 160),48	1585,(321, 139),48	1633,(321, 137),48	1681,(321, 135),48	2065,(321, 117),48	2113,(321, 115),48	3553,(321, 296),48	3601,(321, 297),48	
2161,(321, 113),48	2593,(321, 93),48	2689,(321, 89),48	3073,(321, 285),48	3121,(321, 286),48	3169,(321, 287),48	4081,(321, 25),48	
193,(321, 219),48	241,(321, 220),48	721,(321, 231),48	817,(321, 233),48	1201,(321, 157),48	1249,(321, 155),48	1297,(321, 153),48	1345,(321, 150),48	2545,(321, 95),48	2641,(321, 91),48	3745,(321, 92),48	3793,(321, 39),48	4129,(321, 23),48	4177,(321, 22),48	
289,(321, 221),48	769,(321, 232),48	1777,(321, 130),48	1825,(321, 128),48	3313,(321, 290),48	3361,(321, 291),48	3841,(321, 36),48	4321,(321, 313),48	4369,(321, 314),48	
337,(321, 222),48	1729,(321, 132),48	2209,(321, 110),48	2257,(321, 108),48	2305,(321, 106),48	2353,(321, 104),48	2737,(321, 86),48	3217,(321, 288),48	3265,(321, 289),48	4225,(321, 26),48	4273,(321, 28),48	
481,(321, 225),48	865,(321, 234),48	913,(321, 215),48	961,(321, 168),48	1009,(321, 166),48	1441,(321, 145),48	1489,(321, 143),48	2785,(321, 87),48	2833,(321, 88),48	3409,(321, 292),48	
1,(321, 214),48	385,(321, 223),48	433,(321, 224),48	1393,(321, 147),48	1873,(321, 125),48	1921,(321, 123),48	2017,(321, 119),48	3457,(321, 293),48	3505,(321, 294),48	3889,(321, 33),48	3937,(321, 31),48	3985,(321, 29),48	4417,(321, 24),48	4465,(321, 315),48	
1969,(321, 121),48	2449,(321, 99),48	2497,(321, 97),48	2881,(321, 90),48	2977,(321, 282),48	4033,(321, 27),48	
# Outgoing
1,(321, 214),48	49,(321, 216),48	97,(321, 217),48	145,(321, 218),48	193,(321, 219),48	241,(321, 220),48	289,(321, 221),48	337,(321, 222),48	385,(321, 223),48	433,(321, 224),48	481,(321, 225),48	529,(321, 227),48	577,(321, 228),48	625,(321, 229),48	673,(321, 230),48	721,(321, 231),48	769,(321, 232),48	817,(321, 233),48	865,(321, 234),48	913,(321, 215),48	961,(321, 168),48	1009,(321, 166),48	1057,(321, 164),48	1105,(321, 162),48	1153,(321, 160),48	1201,(321, 157),48	1249,(321, 155),48	1297,(321, 153),48	1345,(321, 150),48	1393,(321, 147),48	1441,(321, 145),48	1489,(321, 143),48	1537,(321, 141),48	1585,(321, 139),48	1633,(321, 137),48	1681,(321, 135),48	1729,(321, 132),48	1777,(321, 130),48	1825,(321, 128),48	1873,(321, 125),48	1921,(321, 123),48	1969,(321, 121),48	2017,(321, 119),48	2065,(321, 117),48	2113,(321, 115),48	2161,(321, 113),48	2209,(321, 110),48	2257,(321, 108),48	2305,(321, 106),48	2353,(321, 104),48	2401,(321, 102),48	2449,(321, 99),48	2497,(321, 97),48	2545,(321, 95),48	2593,(321, 93),48	2641,(321, 91),48	2689,(321, 89),48	2737,(321, 86),48	2785,(321, 87),48	2833,(321, 88),48	2881,(321, 90),48	2929,(321, 281),48	2977,(321, 282),48	3025,(321, 284),48	3073,(321, 285),48	3121,(321, 286),48	3169,(321, 287),48	3217,(321, 288),48	3265,(321, 289),48	3313,(321, 290),48	3361,(321, 291),48	3409,(321, 292),48	3457,(321, 293),48	3505,(321, 294),48	3553,(321, 296),48	3601,(321, 297),48	3649,(321, 298),48	3697,(321, 299),48	3745,(321, 92),48	3793,(321, 39),48	3841,(321, 36),48	3889,(321, 33),48	3937,(321, 31),48	3985,(321, 29),48	4033,(321, 27),48	4081,(321, 25),48	4129,(321, 23),48	4177,(321, 22),48	4225,(321, 26),48	4273,(321, 28),48	4321,(321, 313),48	4369,(321, 314),48	4417,(321, 24),48	4465,(321, 315),48	4513,(321, 317),48	4561,(321, 319),48	4609,(321, 318),48	
214,(218, 0),12	646,(228, 0),12	694,(229, 0),12	742,(230, 0),12	1126,(164, 0),12	1174,(162, 0),12	1606,(141, 0),12	2470,(102, 0),12	2998,(281, 0),12	3094,(284, 0),12	3718,(298, 0),12	3766,(299, 0),12	4582,(317, 0),12	4630,(319, 0),12	4678,(318, 0),12	
118,(216, 0),12	166,(217, 0),12	598,(227, 0),12	1222,(160, 0),12	1654,(139, 0),12	1702,(137, 0),12	1750,(135, 0),12	2134,(117, 0),12	2182,(115, 0),12	3622,(296, 0),12	3670,(297, 0),12	
2230,(113, 0),12	2662,(93, 0),12	2758,(89, 0),12	3142,(285, 0),12	3190,(286, 0),12	3238,(287, 0),12	4150,(25, 0),12	
262,(219, 0),12	310,(220, 0),12	790,(231, 0),12	886,(233, 0),12	1270,(157, 0),12	1318,(155, 0),12	1366,(153, 0),12	1414,(150, 0),12	2614,(95, 0),12	2710,(91, 0),12	3814,(92, 0),12	3862,(39, 0),12	4198,(23, 0),12	4246,(22, 0),12	
358,(221, 0),12	838,(232, 0),12	1846,(130, 0),12	1894,(128, 0),12	3382,(290, 0),12	3430,(291, 0),12	3910,(36, 0),12	4390,(313, 0),12	4438,(314, 0),12	
406,(222, 0),12	1798,(132, 0),12	2278,(110, 0),12	2326,(108, 0),12	2374,(106, 0),12	2422,(104, 0),12	2806,(86, 0),12	3286,(288, 0),12	3334,(289, 0),12	4294,(26, 0),12	4342,(28, 0),12	
550,(225, 0),12	934,(234, 0),12	982,(215, 0),12	1030,(168, 0),12	1078,(166, 0),12	1510,(145, 0),12	1558,(143, 0),12	2854,(87, 0),12	2902,(88, 0),12	3478,(292, 0),12	
70,(214, 0),12	454,(223, 0),12	502,(224, 0),12	1462,(147, 0),12	1942,(125, 0),12	1990,(123, 0),12	2086,(119, 0),12	3526,(293, 0),12	3574,(294, 0),12	3958,(33, 0),12	4006,(31, 0),12	4054,(29, 0),12	4486,(24, 0),12	4534,(315, 0),12	
2038,(121, 0),12	2518,(99, 0),12	2566,(97, 0),12	2950,(90, 0),12	3046,(282, 0),12	4102,(27, 0),12	
