992
# CPU
0,321,1	1,320,13	14,209,13	27,206,13	40,203,13	53,200,13	66,197,13	79,194,13	92,191,13	105,189,13	118,186,13	131,225,13	144,226,13	157,227,13	170,228,13	183,172,13	196,169,13	209,238,13	222,235,13	235,232,13	248,166,13	261,163,13	274,248,13	287,157,13	300,154,13	313,151,13	326,149,13	339,255,13	352,256,13	365,257,13	378,259,13	391,134,13	404,131,13	417,128,13	430,126,13	443,122,13	456,119,13	469,268,13	482,114,13	495,110,13	508,107,13	521,105,13	534,102,13	547,276,13	560,277,13	573,279,13	586,280,13	599,79,13	612,76,13	625,74,13	638,71,13	651,68,13	664,281,13	677,63,13	690,284,13	703,57,13	716,55,13	729,52,13	742,50,13	755,292,13	768,294,13	781,295,13	794,305,13	807,299,13	820,296,13	833,38,13	846,35,13	859,31,13	872,28,13	885,17,13	898,19,13	911,12,13	924,10,13	937,2,13	950,6,13	963,314,13	976,318,13	991,0,1	
4,215,13	17,201,13	30,193,13	43,185,13	56,177,13	69,231,13	82,244,13	95,247,13	108,251,13	121,146,13	134,138,13	147,129,13	160,121,13	173,113,13	186,273,13	199,97,13	212,81,13	225,73,13	238,66,13	251,59,13	264,51,13	277,44,13	290,306,13	303,309,13	316,312,13	329,22,13	342,7,13	
2,214,13	15,202,13	28,216,13	41,187,13	54,179,13	67,171,13	80,243,13	93,164,13	106,156,13	119,148,13	132,139,13	145,261,13	158,265,13	171,269,13	184,272,13	197,99,13	210,91,13	223,75,13	236,67,13	249,60,13	262,53,13	275,293,13	288,301,13	301,37,13	314,29,13	327,13,13	340,4,13	353,319,13	
8,218,13	21,196,13	34,221,13	47,182,13	60,229,13	73,237,13	86,167,13	99,159,13	112,150,13	125,142,13	138,260,13	151,264,13	164,267,13	177,271,13	190,275,13	203,94,13	216,77,13	229,70,13	242,62,13	255,287,13	268,48,13	281,304,13	294,40,13	307,32,13	320,15,13	333,9,13	346,315,13	
5,211,13	18,199,13	31,192,13	44,224,13	57,176,13	70,240,13	83,233,13	96,161,13	109,153,13	122,145,13	135,137,13	148,262,13	161,266,13	174,270,13	187,274,13	200,96,13	213,80,13	226,72,13	239,65,13	252,58,13	265,290,13	278,43,13	291,298,13	304,34,13	317,26,13	330,11,13	343,8,13	
3,213,13	16,205,13	29,219,13	42,223,13	55,178,13	68,170,13	81,234,13	94,162,13	107,155,13	120,147,13	133,258,13	146,130,13	159,123,13	172,115,13	185,106,13	198,98,13	211,90,13	224,85,13	237,89,13	250,285,13	263,289,13	276,45,13	289,300,13	302,36,13	315,27,13	328,21,13	341,5,13	
9,217,13	22,212,13	35,222,13	48,181,13	61,173,13	74,236,13	87,165,13	100,158,13	113,253,13	126,141,13	139,133,13	152,125,13	165,117,13	178,109,13	191,101,13	204,93,13	217,83,13	230,88,13	243,283,13	256,288,13	269,47,13	282,303,13	295,39,13	308,30,13	321,14,13	334,1,13	347,316,13	
6,210,13	19,207,13	32,220,13	45,184,13	58,175,13	71,239,13	84,168,13	97,160,13	110,152,13	123,144,13	136,136,13	149,263,13	162,120,13	175,112,13	188,104,13	201,95,13	214,82,13	227,86,13	240,282,13	253,286,13	266,291,13	279,42,13	292,297,13	305,33,13	318,16,13	331,23,13	344,25,13	
10,204,13	23,195,13	36,188,13	49,180,13	62,230,13	75,242,13	88,246,13	101,250,13	114,254,13	127,140,13	140,132,13	153,124,13	166,116,13	179,108,13	192,100,13	205,92,13	218,84,13	231,69,13	244,61,13	257,54,13	270,46,13	283,302,13	296,308,13	309,311,13	322,20,13	335,3,13	348,317,13	
7,208,13	20,198,13	33,190,13	46,183,13	59,174,13	72,241,13	85,245,13	98,249,13	111,252,13	124,143,13	137,135,13	150,127,13	163,118,13	176,111,13	189,103,13	202,278,13	215,78,13	228,87,13	241,64,13	254,56,13	267,49,13	280,41,13	293,307,13	306,310,13	319,18,13	332,24,13	345,313,13	
# Incoming
15,(214, 0),4	19,(213, 0),4	23,(215, 0),4	27,(211, 0),4	31,(210, 0),4	35,(208, 0),4	39,(218, 0),4	43,(217, 0),4	47,(204, 0),4	51,(202, 0),4	55,(205, 0),4	59,(201, 0),4	63,(199, 0),4	67,(207, 0),4	71,(198, 0),4	75,(196, 0),4	79,(212, 0),4	83,(195, 0),4	87,(216, 0),4	91,(219, 0),4	95,(193, 0),4	99,(192, 0),4	103,(220, 0),4	107,(190, 0),4	111,(221, 0),4	115,(222, 0),4	119,(188, 0),4	123,(187, 0),4	127,(223, 0),4	131,(185, 0),4	135,(224, 0),4	139,(184, 0),4	143,(183, 0),4	147,(182, 0),4	151,(181, 0),4	155,(180, 0),4	159,(179, 0),4	163,(178, 0),4	167,(177, 0),4	171,(176, 0),4	175,(175, 0),4	179,(174, 0),4	183,(229, 0),4	187,(173, 0),4	191,(230, 0),4	195,(171, 0),4	199,(170, 0),4	203,(231, 0),4	207,(240, 0),4	211,(239, 0),4	215,(241, 0),4	219,(237, 0),4	223,(236, 0),4	227,(242, 0),4	231,(243, 0),4	235,(234, 0),4	239,(244, 0),4	243,(233, 0),4	247,(168, 0),4	251,(245, 0),4	255,(167, 0),4	259,(165, 0),4	263,(246, 0),4	267,(164, 0),4	271,(162, 0),4	275,(247, 0),4	279,(161, 0),4	283,(160, 0),4	287,(249, 0),4	291,(159, 0),4	295,(158, 0),4	299,(250, 0),4	303,(156, 0),4	307,(155, 0),4	311,(251, 0),4	315,(153, 0),4	319,(152, 0),4	323,(252, 0),4	327,(150, 0),4	331,(253, 0),4	335,(254, 0),4	339,(148, 0),4	343,(147, 0),4	347,(146, 0),4	351,(145, 0),4	355,(144, 0),4	359,(143, 0),4	363,(142, 0),4	367,(141, 0),4	371,(140, 0),4	375,(139, 0),4	379,(258, 0),4	383,(138, 0),4	387,(137, 0),4	391,(136, 0),4	395,(135, 0),4	399,(260, 0),4	403,(133, 0),4	407,(132, 0),4	411,(261, 0),4	415,(130, 0),4	419,(129, 0),4	423,(262, 0),4	427,(263, 0),4	431,(127, 0),4	435,(264, 0),4	439,(125, 0),4	443,(124, 0),4	447,(265, 0),4	451,(123, 0),4	455,(121, 0),4	459,(266, 0),4	463,(120, 0),4	467,(118, 0),4	471,(267, 0),4	475,(117, 0),4	479,(116, 0),4	483,(269, 0),4	487,(115, 0),4	491,(113, 0),4	495,(270, 0),4	499,(112, 0),4	503,(111, 0),4	507,(271, 0),4	511,(109, 0),4	515,(108, 0),4	519,(272, 0),4	523,(106, 0),4	527,(273, 0),4	531,(274, 0),4	535,(104, 0),4	539,(103, 0),4	543,(275, 0),4	547,(101, 0),4	551,(100, 0),4	555,(99, 0),4	559,(98, 0),4	563,(97, 0),4	567,(96, 0),4	571,(95, 0),4	575,(278, 0),4	579,(94, 0),4	583,(93, 0),4	587,(92, 0),4	591,(91, 0),4	595,(90, 0),4	599,(81, 0),4	603,(80, 0),4	607,(82, 0),4	611,(78, 0),4	615,(77, 0),4	619,(83, 0),4	623,(84, 0),4	627,(75, 0),4	631,(85, 0),4	635,(73, 0),4	639,(72, 0),4	643,(86, 0),4	647,(87, 0),4	651,(70, 0),4	655,(88, 0),4	659,(69, 0),4	663,(67, 0),4	667,(89, 0),4	671,(66, 0),4	675,(65, 0),4	679,(282, 0),4	683,(64, 0),4	687,(62, 0),4	691,(283, 0),4	695,(61, 0),4	699,(60, 0),4	703,(285, 0),4	707,(59, 0),4	711,(58, 0),4	715,(286, 0),4	719,(56, 0),4	723,(287, 0),4	727,(288, 0),4	731,(54, 0),4	735,(53, 0),4	739,(289, 0),4	743,(51, 0),4	747,(290, 0),4	751,(291, 0),4	755,(49, 0),4	759,(48, 0),4	763,(47, 0),4	767,(46, 0),4	771,(293, 0),4	775,(45, 0),4	779,(44, 0),4	783,(43, 0),4	787,(42, 0),4	791,(41, 0),4	795,(304, 0),4	799,(303, 0),4	803,(302, 0),4	807,(301, 0),4	811,(300, 0),4	815,(306, 0),4	819,(298, 0),4	823,(297, 0),4	827,(307, 0),4	831,(40, 0),4	835,(39, 0),4	839,(308, 0),4	843,(37, 0),4	847,(36, 0),4	851,(309, 0),4	855,(34, 0),4	859,(33, 0),4	863,(310, 0),4	867,(32, 0),4	871,(30, 0),4	875,(311, 0),4	879,(29, 0),4	883,(27, 0),4	887,(312, 0),4	891,(26, 0),4	895,(16, 0),4	899,(18, 0),4	903,(15, 0),4	907,(14, 0),4	911,(20, 0),4	915,(13, 0),4	919,(21, 0),4	923,(22, 0),4	927,(11, 0),4	931,(23, 0),4	935,(24, 0),4	939,(9, 0),4	943,(1, 0),4	947,(3, 0),4	951,(4, 0),4	955,(5, 0),4	959,(7, 0),4	963,(8, 0),4	967,(25, 0),4	971,(313, 0),4	975,(315, 0),4	979,(316, 0),4	983,(317, 0),4	987,(319, 0),4	
3,(321, 215),1	12,(321, 201),1	21,(321, 193),1	30,(321, 185),1	39,(321, 177),1	48,(321, 231),1	57,(321, 244),1	66,(321, 247),1	75,(321, 251),1	84,(321, 146),1	93,(321, 138),1	102,(321, 129),1	111,(321, 121),1	120,(321, 113),1	129,(321, 273),1	138,(321, 97),1	147,(321, 81),1	156,(321, 73),1	165,(321, 66),1	174,(321, 59),1	183,(321, 51),1	192,(321, 44),1	201,(321, 306),1	210,(321, 309),1	219,(321, 312),1	228,(321, 22),1	237,(321, 7),1	
1,(321, 214),1	10,(321, 202),1	19,(321, 216),1	28,(321, 187),1	37,(321, 179),1	46,(321, 171),1	55,(321, 243),1	64,(321, 164),1	73,(321, 156),1	82,(321, 148),1	91,(321, 139),1	100,(321, 261),1	109,(321, 265),1	118,(321, 269),1	127,(321, 272),1	136,(321, 99),1	145,(321, 91),1	154,(321, 75),1	163,(321, 67),1	172,(321, 60),1	181,(321, 53),1	190,(321, 293),1	199,(321, 301),1	208,(321, 37),1	217,(321, 29),1	226,(321, 13),1	235,(321, 4),1	244,(321, 319),1	
7,(321, 218),1	16,(321, 196),1	25,(321, 221),1	34,(321, 182),1	43,(321, 229),1	52,(321, 237),1	61,(321, 167),1	70,(321, 159),1	79,(321, 150),1	88,(321, 142),1	97,(321, 260),1	106,(321, 264),1	115,(321, 267),1	124,(321, 271),1	133,(321, 275),1	142,(321, 94),1	151,(321, 77),1	160,(321, 70),1	169,(321, 62),1	178,(321, 287),1	187,(321, 48),1	196,(321, 304),1	205,(321, 40),1	214,(321, 32),1	223,(321, 15),1	232,(321, 9),1	241,(321, 315),1	
4,(321, 211),1	13,(321, 199),1	22,(321, 192),1	31,(321, 224),1	40,(321, 176),1	49,(321, 240),1	58,(321, 233),1	67,(321, 161),1	76,(321, 153),1	85,(321, 145),1	94,(321, 137),1	103,(321, 262),1	112,(321, 266),1	121,(321, 270),1	130,(321, 274),1	139,(321, 96),1	148,(321, 80),1	157,(321, 72),1	166,(321, 65),1	175,(321, 58),1	184,(321, 290),1	193,(321, 43),1	202,(321, 298),1	211,(321, 34),1	220,(321, 26),1	229,(321, 11),1	238,(321, 8),1	
2,(321, 213),1	11,(321, 205),1	20,(321, 219),1	29,(321, 223),1	38,(321, 178),1	47,(321, 170),1	56,(321, 234),1	65,(321, 162),1	74,(321, 155),1	83,(321, 147),1	92,(321, 258),1	101,(321, 130),1	110,(321, 123),1	119,(321, 115),1	128,(321, 106),1	137,(321, 98),1	146,(321, 90),1	155,(321, 85),1	164,(321, 89),1	173,(321, 285),1	182,(321, 289),1	191,(321, 45),1	200,(321, 300),1	209,(321, 36),1	218,(321, 27),1	227,(321, 21),1	236,(321, 5),1	
8,(321, 217),1	17,(321, 212),1	26,(321, 222),1	35,(321, 181),1	44,(321, 173),1	53,(321, 236),1	62,(321, 165),1	71,(321, 158),1	80,(321, 253),1	89,(321, 141),1	98,(321, 133),1	107,(321, 125),1	116,(321, 117),1	125,(321, 109),1	134,(321, 101),1	143,(321, 93),1	152,(321, 83),1	161,(321, 88),1	170,(321, 283),1	179,(321, 288),1	188,(321, 47),1	197,(321, 303),1	206,(321, 39),1	215,(321, 30),1	224,(321, 14),1	233,(321, 1),1	242,(321, 316),1	
5,(321, 210),1	14,(321, 207),1	23,(321, 220),1	32,(321, 184),1	41,(321, 175),1	50,(321, 239),1	59,(321, 168),1	68,(321, 160),1	77,(321, 152),1	86,(321, 144),1	95,(321, 136),1	104,(321, 263),1	113,(321, 120),1	122,(321, 112),1	131,(321, 104),1	140,(321, 95),1	149,(321, 82),1	158,(321, 86),1	167,(321, 282),1	176,(321, 286),1	185,(321, 291),1	194,(321, 42),1	203,(321, 297),1	212,(321, 33),1	221,(321, 16),1	230,(321, 23),1	239,(321, 25),1	
9,(321, 204),1	18,(321, 195),1	27,(321, 188),1	36,(321, 180),1	45,(321, 230),1	54,(321, 242),1	63,(321, 246),1	72,(321, 250),1	81,(321, 254),1	90,(321, 140),1	99,(321, 132),1	108,(321, 124),1	117,(321, 116),1	126,(321, 108),1	135,(321, 100),1	144,(321, 92),1	153,(321, 84),1	162,(321, 69),1	171,(321, 61),1	180,(321, 54),1	189,(321, 46),1	198,(321, 302),1	207,(321, 308),1	216,(321, 311),1	225,(321, 20),1	234,(321, 3),1	243,(321, 317),1	
6,(321, 208),1	15,(321, 198),1	24,(321, 190),1	33,(321, 183),1	42,(321, 174),1	51,(321, 241),1	60,(321, 245),1	69,(321, 249),1	78,(321, 252),1	87,(321, 143),1	96,(321, 135),1	105,(321, 127),1	114,(321, 118),1	123,(321, 111),1	132,(321, 103),1	141,(321, 278),1	150,(321, 78),1	159,(321, 87),1	168,(321, 64),1	177,(321, 56),1	186,(321, 49),1	195,(321, 41),1	204,(321, 307),1	213,(321, 310),1	222,(321, 18),1	231,(321, 24),1	240,(321, 313),1	
# Outgoing
1,(321, 214),1	2,(321, 213),1	3,(321, 215),1	4,(321, 211),1	5,(321, 210),1	6,(321, 208),1	7,(321, 218),1	8,(321, 217),1	9,(321, 204),1	10,(321, 202),1	11,(321, 205),1	12,(321, 201),1	13,(321, 199),1	14,(321, 207),1	15,(321, 198),1	16,(321, 196),1	17,(321, 212),1	18,(321, 195),1	19,(321, 216),1	20,(321, 219),1	21,(321, 193),1	22,(321, 192),1	23,(321, 220),1	24,(321, 190),1	25,(321, 221),1	26,(321, 222),1	27,(321, 188),1	28,(321, 187),1	29,(321, 223),1	30,(321, 185),1	31,(321, 224),1	32,(321, 184),1	33,(321, 183),1	34,(321, 182),1	35,(321, 181),1	36,(321, 180),1	37,(321, 179),1	38,(321, 178),1	39,(321, 177),1	40,(321, 176),1	41,(321, 175),1	42,(321, 174),1	43,(321, 229),1	44,(321, 173),1	45,(321, 230),1	46,(321, 171),1	47,(321, 170),1	48,(321, 231),1	49,(321, 240),1	50,(321, 239),1	51,(321, 241),1	52,(321, 237),1	53,(321, 236),1	54,(321, 242),1	55,(321, 243),1	56,(321, 234),1	57,(321, 244),1	58,(321, 233),1	59,(321, 168),1	60,(321, 245),1	61,(321, 167),1	62,(321, 165),1	63,(321, 246),1	64,(321, 164),1	65,(321, 162),1	66,(321, 247),1	67,(321, 161),1	68,(321, 160),1	69,(321, 249),1	70,(321, 159),1	71,(321, 158),1	72,(321, 250),1	73,(321, 156),1	74,(321, 155),1	75,(321, 251),1	76,(321, 153),1	77,(321, 152),1	78,(321, 252),1	79,(321, 150),1	80,(321, 253),1	81,(321, 254),1	82,(321, 148),1	83,(321, 147),1	84,(321, 146),1	85,(321, 145),1	86,(321, 144),1	87,(321, 143),1	88,(321, 142),1	89,(321, 141),1	90,(321, 140),1	91,(321, 139),1	92,(321, 258),1	93,(321, 138),1	94,(321, 137),1	95,(321, 136),1	96,(321, 135),1	97,(321, 260),1	98,(321, 133),1	99,(321, 132),1	100,(321, 261),1	101,(321, 130),1	102,(321, 129),1	103,(321, 262),1	104,(321, 263),1	105,(321, 127),1	106,(321, 264),1	107,(321, 125),1	108,(321, 124),1	109,(321, 265),1	110,(321, 123),1	111,(321, 121),1	112,(321, 266),1	113,(321, 120),1	114,(321, 118),1	115,(321, 267),1	116,(321, 117),1	117,(321, 116),1	118,(321, 269),1	119,(321, 115),1	120,(321, 113),1	121,(321, 270),1	122,(321, 112),1	123,(321, 111),1	124,(321, 271),1	125,(321, 109),1	126,(321, 108),1	127,(321, 272),1	128,(321, 106),1	129,(321, 273),1	130,(321, 274),1	131,(321, 104),1	132,(321, 103),1	133,(321, 275),1	134,(321, 101),1	135,(321, 100),1	136,(321, 99),1	137,(321, 98),1	138,(321, 97),1	139,(321, 96),1	140,(321, 95),1	141,(321, 278),1	142,(321, 94),1	143,(321, 93),1	144,(321, 92),1	145,(321, 91),1	146,(321, 90),1	147,(321, 81),1	148,(321, 80),1	149,(321, 82),1	150,(321, 78),1	151,(321, 77),1	152,(321, 83),1	153,(321, 84),1	154,(321, 75),1	155,(321, 85),1	156,(321, 73),1	157,(321, 72),1	158,(321, 86),1	159,(321, 87),1	160,(321, 70),1	161,(321, 88),1	162,(321, 69),1	163,(321, 67),1	164,(321, 89),1	165,(321, 66),1	166,(321, 65),1	167,(321, 282),1	168,(321, 64),1	169,(321, 62),1	170,(321, 283),1	171,(321, 61),1	172,(321, 60),1	173,(321, 285),1	174,(321, 59),1	175,(321, 58),1	176,(321, 286),1	177,(321, 56),1	178,(321, 287),1	179,(321, 288),1	180,(321, 54),1	181,(321, 53),1	182,(321, 289),1	183,(321, 51),1	184,(321, 290),1	185,(321, 291),1	186,(321, 49),1	187,(321, 48),1	188,(321, 47),1	189,(321, 46),1	190,(321, 293),1	191,(321, 45),1	192,(321, 44),1	193,(321, 43),1	194,(321, 42),1	195,(321, 41),1	196,(321, 304),1	197,(321, 303),1	198,(321, 302),1	199,(321, 301),1	200,(321, 300),1	201,(321, 306),1	202,(321, 298),1	203,(321, 297),1	204,(321, 307),1	205,(321, 40),1	206,(321, 39),1	207,(321, 308),1	208,(321, 37),1	209,(321, 36),1	210,(321, 309),1	211,(321, 34),1	212,(321, 33),1	213,(321, 310),1	214,(321, 32),1	215,(321, 30),1	216,(321, 311),1	217,(321, 29),1	218,(321, 27),1	219,(321, 312),1	220,(321, 26),1	221,(321, 16),1	222,(321, 18),1	223,(321, 15),1	224,(321, 14),1	225,(321, 20),1	226,(321, 13),1	227,(321, 21),1	228,(321, 22),1	229,(321, 11),1	230,(321, 23),1	231,(321, 24),1	232,(321, 9),1	233,(321, 1),1	234,(321, 3),1	235,(321, 4),1	236,(321, 5),1	237,(321, 7),1	238,(321, 8),1	239,(321, 25),1	240,(321, 313),1	241,(321, 315),1	242,(321, 316),1	243,(321, 317),1	244,(321, 319),1	
23,(215, 0),4	59,(201, 0),4	95,(193, 0),4	131,(185, 0),4	167,(177, 0),4	203,(231, 0),4	239,(244, 0),4	275,(247, 0),4	311,(251, 0),4	347,(146, 0),4	383,(138, 0),4	419,(129, 0),4	455,(121, 0),4	491,(113, 0),4	527,(273, 0),4	563,(97, 0),4	599,(81, 0),4	635,(73, 0),4	671,(66, 0),4	707,(59, 0),4	743,(51, 0),4	779,(44, 0),4	815,(306, 0),4	851,(309, 0),4	887,(312, 0),4	923,(22, 0),4	959,(7, 0),4	
15,(214, 0),4	51,(202, 0),4	87,(216, 0),4	123,(187, 0),4	159,(179, 0),4	195,(171, 0),4	231,(243, 0),4	267,(164, 0),4	303,(156, 0),4	339,(148, 0),4	375,(139, 0),4	411,(261, 0),4	447,(265, 0),4	483,(269, 0),4	519,(272, 0),4	555,(99, 0),4	591,(91, 0),4	627,(75, 0),4	663,(67, 0),4	699,(60, 0),4	735,(53, 0),4	771,(293, 0),4	807,(301, 0),4	843,(37, 0),4	879,(29, 0),4	915,(13, 0),4	951,(4, 0),4	987,(319, 0),4	
39,(218, 0),4	75,(196, 0),4	111,(221, 0),4	147,(182, 0),4	183,(229, 0),4	219,(237, 0),4	255,(167, 0),4	291,(159, 0),4	327,(150, 0),4	363,(142, 0),4	399,(260, 0),4	435,(264, 0),4	471,(267, 0),4	507,(271, 0),4	543,(275, 0),4	579,(94, 0),4	615,(77, 0),4	651,(70, 0),4	687,(62, 0),4	723,(287, 0),4	759,(48, 0),4	795,(304, 0),4	831,(40, 0),4	867,(32, 0),4	903,(15, 0),4	939,(9, 0),4	975,(315, 0),4	
27,(211, 0),4	63,(199, 0),4	99,(192, 0),4	135,(224, 0),4	171,(176, 0),4	207,(240, 0),4	243,(233, 0),4	279,(161, 0),4	315,(153, 0),4	351,(145, 0),4	387,(137, 0),4	423,(262, 0),4	459,(266, 0),4	495,(270, 0),4	531,(274, 0),4	567,(96, 0),4	603,(80, 0),4	639,(72, 0),4	675,(65, 0),4	711,(58, 0),4	747,(290, 0),4	783,(43, 0),4	819,(298, 0),4	855,(34, 0),4	891,(26, 0),4	927,(11, 0),4	963,(8, 0),4	
19,(213, 0),4	55,(205, 0),4	91,(219, 0),4	127,(223, 0),4	163,(178, 0),4	199,(170, 0),4	235,(234, 0),4	271,(162, 0),4	307,(155, 0),4	343,(147, 0),4	379,(258, 0),4	415,(130, 0),4	451,(123, 0),4	487,(115, 0),4	523,(106, 0),4	559,(98, 0),4	595,(90, 0),4	631,(85, 0),4	667,(89, 0),4	703,(285, 0),4	739,(289, 0),4	775,(45, 0),4	811,(300, 0),4	847,(36, 0),4	883,(27, 0),4	919,(21, 0),4	955,(5, 0),4	
43,(217, 0),4	79,(212, 0),4	115,(222, 0),4	151,(181, 0),4	187,(173, 0),4	223,(236, 0),4	259,(165, 0),4	295,(158, 0),4	331,(253, 0),4	367,(141, 0),4	403,(133, 0),4	439,(125, 0),4	475,(117, 0),4	511,(109, 0),4	547,(101, 0),4	583,(93, 0),4	619,(83, 0),4	655,(88, 0),4	691,(283, 0),4	727,(288, 0),4	763,(47, 0),4	799,(303, 0),4	835,(39, 0),4	871,(30, 0),4	907,(14, 0),4	943,(1, 0),4	979,(316, 0),4	
31,(210, 0),4	67,(207, 0),4	103,(220, 0),4	139,(184, 0),4	175,(175, 0),4	211,(239, 0),4	247,(168, 0),4	283,(160, 0),4	319,(152, 0),4	355,(144, 0),4	391,(136, 0),4	427,(263, 0),4	463,(120, 0),4	499,(112, 0),4	535,(104, 0),4	571,(95, 0),4	607,(82, 0),4	643,(86, 0),4	679,(282, 0),4	715,(286, 0),4	751,(291, 0),4	787,(42, 0),4	823,(297, 0),4	859,(33, 0),4	895,(16, 0),4	931,(23, 0),4	967,(25, 0),4	
47,(204, 0),4	83,(195, 0),4	119,(188, 0),4	155,(180, 0),4	191,(230, 0),4	227,(242, 0),4	263,(246, 0),4	299,(250, 0),4	335,(254, 0),4	371,(140, 0),4	407,(132, 0),4	443,(124, 0),4	479,(116, 0),4	515,(108, 0),4	551,(100, 0),4	587,(92, 0),4	623,(84, 0),4	659,(69, 0),4	695,(61, 0),4	731,(54, 0),4	767,(46, 0),4	803,(302, 0),4	839,(308, 0),4	875,(311, 0),4	911,(20, 0),4	947,(3, 0),4	983,(317, 0),4	
35,(208, 0),4	71,(198, 0),4	107,(190, 0),4	143,(183, 0),4	179,(174, 0),4	215,(241, 0),4	251,(245, 0),4	287,(249, 0),4	323,(252, 0),4	359,(143, 0),4	395,(135, 0),4	431,(127, 0),4	467,(118, 0),4	503,(111, 0),4	539,(103, 0),4	575,(278, 0),4	611,(78, 0),4	647,(87, 0),4	683,(64, 0),4	719,(56, 0),4	755,(49, 0),4	791,(41, 0),4	827,(307, 0),4	863,(310, 0),4	899,(18, 0),4	935,(24, 0),4	971,(313, 0),4	
