956
# CPU
0,321,1	1,211,3	4,210,3	7,212,3	10,209,3	13,208,3	16,207,3	19,213,3	22,206,3	25,214,3	28,205,3	31,215,3	34,204,3	37,203,3	40,202,3	43,216,3	46,201,3	49,200,3	52,199,3	55,217,3	58,198,3	61,197,3	64,196,3	67,218,3	70,195,3	73,219,3	76,194,3	79,220,3	82,193,3	85,192,3	88,191,3	91,221,3	94,190,3	97,222,3	100,189,3	103,223,3	106,188,3	109,187,3	112,186,3	115,224,3	118,185,3	121,225,3	124,184,3	127,226,3	130,183,3	133,182,3	136,181,3	139,227,3	142,180,3	145,179,3	148,178,3	151,228,3	154,177,3	157,176,3	160,175,3	163,229,3	166,174,3	169,230,3	172,173,3	175,231,3	178,172,3	181,171,3	184,170,3	187,232,3	190,169,3	193,241,3	196,240,3	199,242,3	202,239,3	205,238,3	208,237,3	211,243,3	214,236,3	217,244,3	220,235,3	223,245,3	226,234,3	229,233,3	232,168,3	235,246,3	238,167,3	241,166,3	244,165,3	247,247,3	250,164,3	253,163,3	256,162,3	259,248,3	262,161,3	265,249,3	268,160,3	271,250,3	274,159,3	277,158,3	280,157,3	283,251,3	286,156,3	289,155,3	292,154,3	295,252,3	298,153,3	301,152,3	304,151,3	307,253,3	310,150,3	313,254,3	316,149,3	319,255,3	322,148,3	325,147,3	328,146,3	331,256,3	334,145,3	337,144,3	340,257,3	343,143,3	346,142,3	349,141,3	352,258,3	355,140,3	358,259,3	361,139,3	364,260,3	367,137,3	370,136,3	373,135,3	376,261,3	379,134,3	382,133,3	385,132,3	388,262,3	391,131,3	394,130,3	397,129,3	400,263,3	403,128,3	406,264,3	409,127,3	412,265,3	415,126,3	418,125,3	421,124,3	424,266,3	427,123,3	430,122,3	433,121,3	436,267,3	439,120,3	442,119,3	445,118,3	448,268,3	451,117,3	454,269,3	457,116,3	460,270,3	463,115,3	466,114,3	469,113,3	472,271,3	475,112,3	478,111,3	481,110,3	484,272,3	487,109,3	490,108,3	493,107,3	496,273,3	499,106,3	502,274,3	505,105,3	508,275,3	511,104,3	514,103,3	517,102,3	520,276,3	523,101,3	526,100,3	529,99,3	532,277,3	535,98,3	538,97,3	541,96,3	544,278,3	547,95,3	550,279,3	553,94,3	556,280,3	559,93,3	562,92,3	565,91,3	568,281,3	571,90,3	574,81,3	577,80,3	580,82,3	583,79,3	586,78,3	589,77,3	592,83,3	595,76,3	598,84,3	601,75,3	604,85,3	607,74,3	610,73,3	613,72,3	616,86,3	619,71,3	622,87,3	625,70,3	628,88,3	631,69,3	634,68,3	637,67,3	640,89,3	643,66,3	646,282,3	649,65,3	652,283,3	655,64,3	658,63,3	661,62,3	664,284,3	667,61,3	670,285,3	673,60,3	676,286,3	679,58,3	682,57,3	685,59,3	688,56,3	691,287,3	694,55,3	697,288,3	700,54,3	703,53,3	706,52,3	709,289,3	712,51,3	715,291,3	718,50,3	721,292,3	724,49,3	727,48,3	730,47,3	733,293,3	736,46,3	739,294,3	742,45,3	745,295,3	748,44,3	751,43,3	754,42,3	757,296,3	760,41,3	763,305,3	766,304,3	769,306,3	772,303,3	775,302,3	778,301,3	781,307,3	784,300,3	787,299,3	790,298,3	793,308,3	796,297,3	799,40,3	802,39,3	805,309,3	808,38,3	811,37,3	814,36,3	817,310,3	820,35,3	823,34,3	826,33,3	829,311,3	832,32,3	835,31,3	838,30,3	841,312,3	844,29,3	847,28,3	850,27,3	853,313,3	856,26,3	859,17,3	862,16,3	865,18,3	868,15,3	871,19,3	874,14,3	877,20,3	880,13,3	883,21,3	886,12,3	889,22,3	892,11,3	895,23,3	898,10,3	901,24,3	904,9,3	907,1,3	910,2,3	913,3,3	916,4,3	919,5,3	922,6,3	925,7,3	928,8,3	931,25,3	934,314,3	937,315,3	940,316,3	943,317,3	946,318,3	949,319,3	952,320,3	955,0,1	




339,138,3	
677,290,3	



# Incoming
342,(138, 0),4	680,(290, 0),4	




1,(321, 138),338	
339,(321, 290),338	



# Outgoing
1,(321, 138),338	339,(321, 290),338	




342,(138, 0),4	
680,(290, 0),4	



