4195
# CPU
0,321,1	1,211,16	17,210,16	33,212,16	49,209,16	65,208,16	81,213,16	97,206,16	113,214,16	129,205,16	145,258,16	161,126,16	177,203,16	193,215,16	209,202,16	225,200,16	241,216,16	257,199,16	273,198,16	289,123,16	305,122,16	321,218,16	337,197,16	353,219,16	369,195,16	385,194,16	401,220,16	417,193,16	433,118,16	449,117,16	465,222,16	481,192,16	497,191,16	513,190,16	529,224,16	545,189,16	561,225,16	577,97,16	593,265,16	609,187,16	625,186,16	641,185,16	657,226,16	673,183,16	689,182,16	705,181,16	721,267,16	737,109,16	753,227,16	769,228,16	785,179,16	801,177,16	817,229,16	833,176,16	849,238,16	865,269,16	881,277,16	897,235,16	913,234,16	929,236,16	945,239,16	961,232,16	977,240,16	993,231,16	1009,270,16	1025,100,16	1041,230,16	1057,174,16	1073,173,16	1089,172,16	1105,171,16	1121,170,16	1137,242,16	1153,95,16	1169,96,16	1185,244,16	1201,169,16	1217,168,16	1233,245,16	1249,166,16	1265,165,16	1281,164,16	1297,272,16	1313,98,16	1329,162,16	1345,246,16	1361,161,16	1377,160,16	1393,248,16	1409,159,16	1425,158,16	1441,78,16	1457,92,16	1473,157,16	1489,156,16	1505,250,16	1521,154,16	1537,153,16	1553,251,16	1569,152,16	1585,88,16	1601,278,16	1617,151,16	1633,150,16	1649,149,16	1665,148,16	1681,147,16	1697,146,16	1713,254,16	1729,84,16	1745,69,16	1761,255,16	1777,144,16	1793,256,16	1809,257,16	1825,142,16	1841,141,16	1857,140,16	1873,79,16	1889,283,16	1905,138,16	1921,139,16	1937,137,16	1953,135,16	1969,260,16	1985,134,16	2001,261,16	2017,74,16	2033,285,16	2049,132,16	2065,131,16	2081,133,16	2097,129,16	2113,128,16	2129,263,16	2145,127,16	2161,287,16	2177,67,16	2193,125,16	2209,264,16	2225,121,16	2241,120,16	2257,119,16	2273,116,16	2289,268,16	2305,294,16	2321,63,16	2337,115,16	2353,113,16	2369,112,16	2385,271,16	2401,110,16	2417,273,16	2433,108,16	2449,291,16	2465,290,16	2481,105,16	2497,106,16	2513,104,16	2529,87,16	2545,90,16	2561,86,16	2577,85,16	2593,293,16	2609,41,16	2625,91,16	2641,82,16	2657,93,16	2673,80,16	2689,77,16	2705,94,16	2721,76,16	2737,45,16	2753,44,16	2769,101,16	2785,75,16	2801,73,16	2817,72,16	2833,103,16	2849,71,16	2865,274,16	2881,40,16	2897,39,16	2913,275,16	2929,68,16	2945,276,16	2961,279,16	2977,65,16	2993,64,16	3009,62,16	3025,36,16	3041,304,16	3057,61,16	3073,281,16	3089,60,16	3105,58,16	3121,282,16	3137,57,16	3153,284,16	3169,27,16	3185,32,16	3201,56,16	3217,55,16	3233,288,16	3249,289,16	3265,53,16	3281,292,16	3297,52,16	3313,28,16	3329,26,16	3345,295,16	3361,305,16	3377,303,16	3393,302,16	3409,301,16	3425,300,16	3441,307,16	3457,23,16	3473,38,16	3489,308,16	3505,298,16	3521,297,16	3537,309,16	3553,50,16	3569,49,16	3585,48,16	3601,24,16	3617,22,16	3633,47,16	3649,311,16	3665,46,16	3681,42,16	3697,312,16	3713,37,16	3729,35,16	3745,1,16	3761,2,16	3777,19,16	3793,18,16	3809,20,16	3825,21,16	3841,16,16	3857,25,16	3873,15,16	3889,11,16	3905,10,16	3921,30,16	3937,31,16	3953,14,16	3969,13,16	3985,3,16	4001,4,16	4017,5,16	4033,317,16	4049,8,16	4065,7,16	4081,9,16	4097,12,16	4113,314,16	4129,315,16	4145,316,16	4161,318,16	4177,319,16	4194,0,1	
73,207,16	145,204,16	217,201,16	289,217,16	361,196,16	433,221,16	505,223,16	577,188,16	649,184,16	721,180,16	793,178,16	865,237,16	937,233,16	1009,175,16	1081,241,16	1153,243,16	1225,167,16	1297,163,16	1369,247,16	1441,249,16	1513,155,16	1585,252,16	1657,253,16	1729,145,16	1801,143,16	1873,259,16	1945,136,16	2017,262,16	2089,130,16	2161,124,16	2233,266,16	2305,114,16	2377,111,16	2449,107,16	2521,89,16	2593,83,16	2665,81,16	2737,99,16	2809,102,16	2881,70,16	2953,66,16	3025,280,16	3097,59,16	3169,286,16	3241,54,16	3313,51,16	3385,306,16	3457,299,16	3529,296,16	3601,310,16	3673,43,16	3745,313,16	3817,17,16	3889,29,16	3961,33,16	4033,6,16	4105,34,16	4177,320,16	
# Incoming
89,(207, 0),1	161,(204, 0),1	233,(201, 0),1	305,(217, 0),1	377,(196, 0),1	449,(221, 0),1	521,(223, 0),1	593,(188, 0),1	665,(184, 0),1	737,(180, 0),1	809,(178, 0),1	881,(237, 0),1	953,(233, 0),1	1025,(175, 0),1	1097,(241, 0),1	1169,(243, 0),1	1241,(167, 0),1	1313,(163, 0),1	1385,(247, 0),1	1457,(249, 0),1	1529,(155, 0),1	1601,(252, 0),1	1673,(253, 0),1	1745,(145, 0),1	1817,(143, 0),1	1889,(259, 0),1	1961,(136, 0),1	2033,(262, 0),1	2105,(130, 0),1	2177,(124, 0),1	2249,(266, 0),1	2321,(114, 0),1	2393,(111, 0),1	2465,(107, 0),1	2537,(89, 0),1	2609,(83, 0),1	2681,(81, 0),1	2753,(99, 0),1	2825,(102, 0),1	2897,(70, 0),1	2969,(66, 0),1	3041,(280, 0),1	3113,(59, 0),1	3185,(286, 0),1	3257,(54, 0),1	3329,(51, 0),1	3401,(306, 0),1	3473,(299, 0),1	3545,(296, 0),1	3617,(310, 0),1	3689,(43, 0),1	3761,(313, 0),1	3833,(17, 0),1	3905,(29, 0),1	3977,(33, 0),1	4049,(6, 0),1	4121,(34, 0),1	4193,(320, 0),1	
1,(321, 207),72	73,(321, 204),72	145,(321, 201),72	217,(321, 217),72	289,(321, 196),72	361,(321, 221),72	433,(321, 223),72	505,(321, 188),72	577,(321, 184),72	649,(321, 180),72	721,(321, 178),72	793,(321, 237),72	865,(321, 233),72	937,(321, 175),72	1009,(321, 241),72	1081,(321, 243),72	1153,(321, 167),72	1225,(321, 163),72	1297,(321, 247),72	1369,(321, 249),72	1441,(321, 155),72	1513,(321, 252),72	1585,(321, 253),72	1657,(321, 145),72	1729,(321, 143),72	1801,(321, 259),72	1873,(321, 136),72	1945,(321, 262),72	2017,(321, 130),72	2089,(321, 124),72	2161,(321, 266),72	2233,(321, 114),72	2305,(321, 111),72	2377,(321, 107),72	2449,(321, 89),72	2521,(321, 83),72	2593,(321, 81),72	2665,(321, 99),72	2737,(321, 102),72	2809,(321, 70),72	2881,(321, 66),72	2953,(321, 280),72	3025,(321, 59),72	3097,(321, 286),72	3169,(321, 54),72	3241,(321, 51),72	3313,(321, 306),72	3385,(321, 299),72	3457,(321, 296),72	3529,(321, 310),72	3601,(321, 43),72	3673,(321, 313),72	3745,(321, 17),72	3817,(321, 29),72	3889,(321, 33),72	3961,(321, 6),72	4033,(321, 34),72	4105,(321, 320),72	
# Outgoing
1,(321, 207),72	73,(321, 204),72	145,(321, 201),72	217,(321, 217),72	289,(321, 196),72	361,(321, 221),72	433,(321, 223),72	505,(321, 188),72	577,(321, 184),72	649,(321, 180),72	721,(321, 178),72	793,(321, 237),72	865,(321, 233),72	937,(321, 175),72	1009,(321, 241),72	1081,(321, 243),72	1153,(321, 167),72	1225,(321, 163),72	1297,(321, 247),72	1369,(321, 249),72	1441,(321, 155),72	1513,(321, 252),72	1585,(321, 253),72	1657,(321, 145),72	1729,(321, 143),72	1801,(321, 259),72	1873,(321, 136),72	1945,(321, 262),72	2017,(321, 130),72	2089,(321, 124),72	2161,(321, 266),72	2233,(321, 114),72	2305,(321, 111),72	2377,(321, 107),72	2449,(321, 89),72	2521,(321, 83),72	2593,(321, 81),72	2665,(321, 99),72	2737,(321, 102),72	2809,(321, 70),72	2881,(321, 66),72	2953,(321, 280),72	3025,(321, 59),72	3097,(321, 286),72	3169,(321, 54),72	3241,(321, 51),72	3313,(321, 306),72	3385,(321, 299),72	3457,(321, 296),72	3529,(321, 310),72	3601,(321, 43),72	3673,(321, 313),72	3745,(321, 17),72	3817,(321, 29),72	3889,(321, 33),72	3961,(321, 6),72	4033,(321, 34),72	4105,(321, 320),72	
89,(207, 0),1	161,(204, 0),1	233,(201, 0),1	305,(217, 0),1	377,(196, 0),1	449,(221, 0),1	521,(223, 0),1	593,(188, 0),1	665,(184, 0),1	737,(180, 0),1	809,(178, 0),1	881,(237, 0),1	953,(233, 0),1	1025,(175, 0),1	1097,(241, 0),1	1169,(243, 0),1	1241,(167, 0),1	1313,(163, 0),1	1385,(247, 0),1	1457,(249, 0),1	1529,(155, 0),1	1601,(252, 0),1	1673,(253, 0),1	1745,(145, 0),1	1817,(143, 0),1	1889,(259, 0),1	1961,(136, 0),1	2033,(262, 0),1	2105,(130, 0),1	2177,(124, 0),1	2249,(266, 0),1	2321,(114, 0),1	2393,(111, 0),1	2465,(107, 0),1	2537,(89, 0),1	2609,(83, 0),1	2681,(81, 0),1	2753,(99, 0),1	2825,(102, 0),1	2897,(70, 0),1	2969,(66, 0),1	3041,(280, 0),1	3113,(59, 0),1	3185,(286, 0),1	3257,(54, 0),1	3329,(51, 0),1	3401,(306, 0),1	3473,(299, 0),1	3545,(296, 0),1	3617,(310, 0),1	3689,(43, 0),1	3761,(313, 0),1	3833,(17, 0),1	3905,(29, 0),1	3977,(33, 0),1	4049,(6, 0),1	4121,(34, 0),1	4193,(320, 0),1	
