4482
# CPU
0,321,1	1,320,14	15,210,14	29,211,14	43,209,14	57,208,14	71,207,14	85,212,14	99,206,14	113,213,14	127,205,14	141,214,14	155,204,14	169,203,14	183,202,14	197,215,14	211,201,14	225,200,14	239,199,14	253,216,14	267,198,14	281,197,14	295,196,14	309,217,14	323,195,14	337,218,14	351,194,14	365,219,14	379,193,14	393,192,14	407,191,14	421,220,14	435,190,14	449,221,14	463,189,14	477,222,14	491,188,14	505,187,14	519,186,14	533,223,14	547,185,14	561,224,14	575,184,14	589,225,14	603,183,14	617,182,14	631,181,14	645,226,14	659,180,14	673,179,14	687,178,14	701,227,14	715,177,14	729,176,14	743,175,14	757,228,14	771,174,14	785,229,14	799,173,14	813,230,14	827,172,14	841,171,14	855,170,14	869,231,14	883,169,14	897,240,14	911,239,14	925,241,14	939,238,14	953,237,14	967,236,14	981,242,14	995,235,14	1009,243,14	1023,234,14	1037,244,14	1051,233,14	1065,232,14	1079,168,14	1093,245,14	1107,167,14	1121,166,14	1135,165,14	1149,246,14	1163,164,14	1177,163,14	1191,162,14	1205,247,14	1219,161,14	1233,248,14	1247,160,14	1261,249,14	1275,159,14	1289,158,14	1303,157,14	1317,250,14	1331,156,14	1345,155,14	1359,154,14	1373,251,14	1387,153,14	1401,152,14	1415,151,14	1429,252,14	1443,150,14	1457,253,14	1471,149,14	1485,254,14	1499,148,14	1513,147,14	1527,146,14	1541,255,14	1555,145,14	1569,144,14	1583,143,14	1597,256,14	1611,142,14	1625,141,14	1639,140,14	1653,257,14	1667,139,14	1681,258,14	1695,138,14	1709,259,14	1723,137,14	1737,136,14	1751,135,14	1765,260,14	1779,134,14	1793,133,14	1807,132,14	1821,261,14	1835,131,14	1849,130,14	1863,129,14	1877,262,14	1891,128,14	1905,263,14	1919,127,14	1933,264,14	1947,126,14	1961,125,14	1975,124,14	1989,265,14	2003,123,14	2017,122,14	2031,121,14	2045,266,14	2059,120,14	2073,119,14	2087,118,14	2101,267,14	2115,117,14	2129,268,14	2143,116,14	2157,269,14	2171,115,14	2185,114,14	2199,113,14	2213,270,14	2227,112,14	2241,111,14	2255,110,14	2269,271,14	2283,109,14	2297,108,14	2311,107,14	2325,272,14	2339,106,14	2353,273,14	2367,105,14	2381,274,14	2395,104,14	2409,103,14	2423,102,14	2437,275,14	2451,101,14	2465,100,14	2479,99,14	2493,276,14	2507,98,14	2521,97,14	2535,96,14	2549,277,14	2563,95,14	2577,278,14	2591,94,14	2605,279,14	2619,93,14	2633,92,14	2647,91,14	2661,280,14	2675,90,14	2689,81,14	2703,80,14	2717,82,14	2731,79,14	2745,78,14	2759,77,14	2773,83,14	2787,76,14	2801,84,14	2815,75,14	2829,85,14	2843,74,14	2857,73,14	2871,72,14	2885,86,14	2899,71,14	2913,87,14	2927,70,14	2941,88,14	2955,69,14	2969,68,14	2983,67,14	2997,89,14	3011,66,14	3025,281,14	3039,65,14	3053,282,14	3067,64,14	3081,63,14	3095,62,14	3109,283,14	3123,61,14	3137,284,14	3151,60,14	3165,285,14	3179,59,14	3193,58,14	3207,57,14	3221,286,14	3235,56,14	3249,287,14	3263,55,14	3277,288,14	3291,54,14	3305,53,14	3319,52,14	3333,289,14	3347,51,14	3361,290,14	3375,50,14	3389,291,14	3403,49,14	3417,48,14	3431,47,14	3445,292,14	3459,46,14	3473,293,14	3487,45,14	3501,294,14	3515,44,14	3529,43,14	3543,42,14	3557,295,14	3571,41,14	3585,304,14	3599,303,14	3613,305,14	3627,302,14	3641,301,14	3655,300,14	3669,306,14	3683,299,14	3697,298,14	3711,297,14	3725,307,14	3739,296,14	3753,40,14	3767,39,14	3781,308,14	3795,38,14	3809,37,14	3823,36,14	3837,309,14	3851,35,14	3865,34,14	3879,33,14	3893,310,14	3907,32,14	3921,31,14	3935,30,14	3949,311,14	3963,29,14	3977,28,14	3991,27,14	4005,312,14	4019,26,14	4033,17,14	4047,16,14	4061,18,14	4075,15,14	4089,19,14	4103,14,14	4117,20,14	4131,13,14	4145,21,14	4159,12,14	4173,22,14	4187,11,14	4201,23,14	4215,10,14	4229,24,14	4243,9,14	4257,1,14	4271,2,14	4285,3,14	4299,4,14	4313,5,14	4327,6,14	4341,7,14	4355,8,14	4369,25,14	4383,313,14	4397,314,14	4411,315,14	4425,316,14	4439,317,14	4453,318,14	4467,319,14	4481,0,1	
# Incoming

# Outgoing

