322
# CPU
0,0,1	1,1,1	2,3,1	3,7,1	4,15,1	5,31,1	6,63,1	7,127,1	8,255,1	9,320,1	10,319,1	11,318,1	12,317,1	13,316,1	14,315,1	15,314,1	16,313,1	17,312,1	18,311,1	19,310,1	20,309,1	21,308,1	22,307,1	23,306,1	24,305,1	25,304,1	26,303,1	27,302,1	28,301,1	29,300,1	30,299,1	31,298,1	32,297,1	33,296,1	34,295,1	35,294,1	36,293,1	37,292,1	38,291,1	39,290,1	40,289,1	41,288,1	42,287,1	43,286,1	44,285,1	45,284,1	46,283,1	47,282,1	48,281,1	49,280,1	50,279,1	51,278,1	52,277,1	53,276,1	54,275,1	55,274,1	56,273,1	57,272,1	58,271,1	59,270,1	60,269,1	61,268,1	62,267,1	63,266,1	64,265,1	65,264,1	66,263,1	67,262,1	68,261,1	69,260,1	70,259,1	71,258,1	72,257,1	73,254,1	74,256,1	75,253,1	76,252,1	77,251,1	78,250,1	79,249,1	80,248,1	81,247,1	82,246,1	83,245,1	84,244,1	85,243,1	86,242,1	87,241,1	88,240,1	89,239,1	90,238,1	91,237,1	92,236,1	93,235,1	94,234,1	95,233,1	96,232,1	97,231,1	98,230,1	99,229,1	100,228,1	101,227,1	102,226,1	103,225,1	104,224,1	105,223,1	106,222,1	107,221,1	108,220,1	109,219,1	110,218,1	111,217,1	112,216,1	113,215,1	114,214,1	115,213,1	116,212,1	117,211,1	118,210,1	119,209,1	120,208,1	121,207,1	122,206,1	123,205,1	124,204,1	125,203,1	126,202,1	127,201,1	128,200,1	129,199,1	130,198,1	131,197,1	132,196,1	133,195,1	134,194,1	135,193,1	136,192,1	137,191,1	138,190,1	139,189,1	140,188,1	141,187,1	142,186,1	143,185,1	144,184,1	145,183,1	146,182,1	147,181,1	148,180,1	149,179,1	150,178,1	151,177,1	152,176,1	153,175,1	154,174,1	155,173,1	156,172,1	157,171,1	158,170,1	159,169,1	160,168,1	161,167,1	162,166,1	163,165,1	164,164,1	165,163,1	166,162,1	167,161,1	168,160,1	169,159,1	170,158,1	171,157,1	172,156,1	173,155,1	174,154,1	175,153,1	176,152,1	177,151,1	178,150,1	179,149,1	180,148,1	181,147,1	182,146,1	183,145,1	184,144,1	185,143,1	186,142,1	187,141,1	188,140,1	189,139,1	190,138,1	191,137,1	192,136,1	193,135,1	194,134,1	195,133,1	196,132,1	197,131,1	198,130,1	199,129,1	200,126,1	201,128,1	202,125,1	203,124,1	204,123,1	205,122,1	206,121,1	207,120,1	208,119,1	209,118,1	210,117,1	211,116,1	212,115,1	213,114,1	214,113,1	215,112,1	216,111,1	217,110,1	218,109,1	219,108,1	220,107,1	221,106,1	222,105,1	223,104,1	224,103,1	225,102,1	226,101,1	227,100,1	228,99,1	229,98,1	230,97,1	231,96,1	232,95,1	233,94,1	234,93,1	235,92,1	236,91,1	237,90,1	238,89,1	239,88,1	240,87,1	241,86,1	242,85,1	243,84,1	244,83,1	245,82,1	246,81,1	247,80,1	248,79,1	249,78,1	250,77,1	251,76,1	252,75,1	253,74,1	254,73,1	255,72,1	256,71,1	257,70,1	258,69,1	259,68,1	260,67,1	261,66,1	262,65,1	263,62,1	264,64,1	265,61,1	266,60,1	267,59,1	268,58,1	269,57,1	270,56,1	271,55,1	272,54,1	273,53,1	274,52,1	275,51,1	276,50,1	277,49,1	278,48,1	279,47,1	280,46,1	281,45,1	282,44,1	283,43,1	284,42,1	285,41,1	286,40,1	287,39,1	288,38,1	289,37,1	290,36,1	291,35,1	292,34,1	293,33,1	294,30,1	295,32,1	296,29,1	297,28,1	298,27,1	299,26,1	300,25,1	301,24,1	302,23,1	303,22,1	304,21,1	305,20,1	306,19,1	307,18,1	308,17,1	309,14,1	310,16,1	311,13,1	312,12,1	313,11,1	314,10,1	315,9,1	316,6,1	317,8,1	318,5,1	319,2,1	320,4,1	321,321,1	









# Incoming










# Outgoing










