2572
# CPU
17,2,6	33,4,6	49,6,6	65,8,6	81,10,6	97,12,6	113,14,6	129,16,6	145,18,6	161,20,6	177,22,6	193,24,6	209,26,6	225,28,6	241,30,6	257,32,6	273,34,6	289,36,6	305,38,6	321,40,6	337,42,6	353,44,6	369,46,6	385,48,6	401,50,6	417,52,6	433,54,6	449,56,6	465,58,6	481,60,6	497,62,6	513,64,6	529,66,6	545,68,6	561,70,6	577,72,6	593,74,6	609,76,6	625,78,6	641,80,6	657,82,6	673,84,6	689,86,6	705,88,6	721,90,6	737,92,6	753,94,6	769,96,6	785,98,6	801,100,6	817,102,6	833,104,6	849,106,6	865,108,6	881,110,6	897,112,6	913,114,6	929,116,6	945,118,6	961,120,6	977,122,6	993,124,6	1009,126,6	1025,128,6	1041,130,6	1057,132,6	1073,134,6	1089,136,6	1105,138,6	1121,140,6	1137,142,6	1153,144,6	1169,146,6	1185,148,6	1201,150,6	1217,152,6	1233,154,6	1249,156,6	1265,158,6	1281,160,6	1297,162,6	1313,164,6	1329,166,6	1345,168,6	1361,170,6	1377,172,6	1393,174,6	1409,176,6	1425,178,6	1441,180,6	1457,182,6	1473,184,6	1489,186,6	1505,188,6	1521,190,6	1537,192,6	1553,194,6	1569,196,6	1585,198,6	1601,200,6	1617,202,6	1633,204,6	1649,206,6	1665,208,6	1681,210,6	1697,212,6	1713,214,6	1729,216,6	1745,218,6	1761,220,6	1777,222,6	1793,224,6	1809,226,6	1825,228,6	1841,230,6	1857,232,6	1873,234,6	1889,236,6	1905,238,6	1921,240,6	1937,242,6	1953,244,6	1969,246,6	1985,248,6	2001,250,6	2017,252,6	2033,254,6	2049,256,6	2065,258,6	2081,260,6	2097,262,6	2113,264,6	2129,266,6	2145,268,6	2161,270,6	2177,272,6	2193,274,6	2209,276,6	2225,278,6	2241,280,6	2257,282,6	2273,284,6	2289,286,6	2305,288,6	2321,290,6	2337,292,6	2353,294,6	2369,296,6	2385,298,6	2401,300,6	2417,302,6	2433,304,6	2449,306,6	2465,308,6	2481,310,6	2497,312,6	2513,314,6	2529,316,6	2545,318,6	2561,320,6	
0,0,1	1,1,6	7,5,6	13,13,6	19,29,6	25,61,6	31,125,6	37,253,6	43,319,6	49,317,6	55,315,6	61,313,6	67,311,6	73,309,6	79,307,6	85,305,6	91,303,6	97,301,6	103,299,6	109,297,6	115,295,6	121,293,6	127,291,6	133,289,6	139,287,6	145,285,6	151,283,6	157,281,6	163,279,6	169,277,6	175,275,6	181,273,6	187,271,6	193,269,6	199,267,6	205,265,6	211,263,6	217,261,6	223,259,6	229,257,6	235,251,6	241,255,6	247,249,6	253,247,6	259,245,6	265,243,6	271,241,6	277,239,6	283,237,6	289,235,6	295,233,6	301,231,6	307,229,6	313,227,6	319,225,6	325,223,6	331,221,6	337,219,6	343,217,6	349,215,6	355,213,6	361,211,6	367,209,6	373,207,6	379,205,6	385,203,6	391,201,6	397,199,6	403,197,6	409,195,6	415,193,6	421,191,6	427,189,6	433,187,6	439,185,6	445,183,6	451,181,6	457,179,6	463,177,6	469,175,6	475,173,6	481,171,6	487,169,6	493,167,6	499,165,6	505,163,6	511,161,6	517,159,6	523,157,6	529,155,6	535,153,6	541,151,6	547,149,6	553,147,6	559,145,6	565,143,6	571,141,6	577,139,6	583,137,6	589,135,6	595,133,6	601,131,6	607,129,6	613,123,6	619,127,6	625,121,6	631,119,6	637,117,6	643,115,6	649,113,6	655,111,6	661,109,6	667,107,6	673,105,6	679,103,6	685,101,6	691,99,6	697,97,6	703,95,6	709,93,6	715,91,6	721,89,6	727,87,6	733,85,6	739,83,6	745,81,6	751,79,6	757,77,6	763,75,6	769,73,6	775,71,6	781,69,6	787,67,6	793,65,6	799,59,6	805,63,6	811,57,6	817,55,6	823,53,6	829,51,6	835,49,6	841,47,6	847,45,6	853,43,6	859,41,6	865,39,6	871,37,6	877,35,6	883,33,6	889,27,6	895,31,6	901,25,6	907,23,6	913,21,6	919,19,6	925,17,6	931,11,6	937,15,6	943,9,6	949,3,6	955,7,6	2571,321,1	
# Incoming
1,(0, 2),16	17,(0, 4),16	33,(0, 6),16	49,(0, 8),16	65,(0, 10),16	81,(0, 12),16	97,(0, 14),16	113,(0, 16),16	129,(0, 18),16	145,(0, 20),16	161,(0, 22),16	177,(0, 24),16	193,(0, 26),16	209,(0, 28),16	225,(0, 30),16	241,(0, 32),16	257,(0, 34),16	273,(0, 36),16	289,(0, 38),16	305,(0, 40),16	321,(0, 42),16	337,(0, 44),16	353,(0, 46),16	369,(0, 48),16	385,(0, 50),16	401,(0, 52),16	417,(0, 54),16	433,(0, 56),16	449,(0, 58),16	465,(0, 60),16	481,(0, 62),16	497,(0, 64),16	513,(0, 66),16	529,(0, 68),16	545,(0, 70),16	561,(0, 72),16	577,(0, 74),16	593,(0, 76),16	609,(0, 78),16	625,(0, 80),16	641,(0, 82),16	657,(0, 84),16	673,(0, 86),16	689,(0, 88),16	705,(0, 90),16	721,(0, 92),16	737,(0, 94),16	753,(0, 96),16	769,(0, 98),16	785,(0, 100),16	801,(0, 102),16	817,(0, 104),16	833,(0, 106),16	849,(0, 108),16	865,(0, 110),16	881,(0, 112),16	897,(0, 114),16	913,(0, 116),16	929,(0, 118),16	945,(0, 120),16	961,(0, 122),16	977,(0, 124),16	993,(0, 126),16	1009,(0, 128),16	1025,(0, 130),16	1041,(0, 132),16	1057,(0, 134),16	1073,(0, 136),16	1089,(0, 138),16	1105,(0, 140),16	1121,(0, 142),16	1137,(0, 144),16	1153,(0, 146),16	1169,(0, 148),16	1185,(0, 150),16	1201,(0, 152),16	1217,(0, 154),16	1233,(0, 156),16	1249,(0, 158),16	1265,(0, 160),16	1281,(0, 162),16	1297,(0, 164),16	1313,(0, 166),16	1329,(0, 168),16	1345,(0, 170),16	1361,(0, 172),16	1377,(0, 174),16	1393,(0, 176),16	1409,(0, 178),16	1425,(0, 180),16	1441,(0, 182),16	1457,(0, 184),16	1473,(0, 186),16	1489,(0, 188),16	1505,(0, 190),16	1521,(0, 192),16	1537,(0, 194),16	1553,(0, 196),16	1569,(0, 198),16	1585,(0, 200),16	1601,(0, 202),16	1617,(0, 204),16	1633,(0, 206),16	1649,(0, 208),16	1665,(0, 210),16	1681,(0, 212),16	1697,(0, 214),16	1713,(0, 216),16	1729,(0, 218),16	1745,(0, 220),16	1761,(0, 222),16	1777,(0, 224),16	1793,(0, 226),16	1809,(0, 228),16	1825,(0, 230),16	1841,(0, 232),16	1857,(0, 234),16	1873,(0, 236),16	1889,(0, 238),16	1905,(0, 240),16	1921,(0, 242),16	1937,(0, 244),16	1953,(0, 246),16	1969,(0, 248),16	1985,(0, 250),16	2001,(0, 252),16	2017,(0, 254),16	2033,(0, 256),16	2049,(0, 258),16	2065,(0, 260),16	2081,(0, 262),16	2097,(0, 264),16	2113,(0, 266),16	2129,(0, 268),16	2145,(0, 270),16	2161,(0, 272),16	2177,(0, 274),16	2193,(0, 276),16	2209,(0, 278),16	2225,(0, 280),16	2241,(0, 282),16	2257,(0, 284),16	2273,(0, 286),16	2289,(0, 288),16	2305,(0, 290),16	2321,(0, 292),16	2337,(0, 294),16	2353,(0, 296),16	2369,(0, 298),16	2385,(0, 300),16	2401,(0, 302),16	2417,(0, 304),16	2433,(0, 306),16	2449,(0, 308),16	2465,(0, 310),16	2481,(0, 312),16	2497,(0, 314),16	2513,(0, 316),16	2529,(0, 318),16	2545,(0, 320),16	
23,(2, 321),4	39,(4, 321),4	55,(6, 321),4	71,(8, 321),4	87,(10, 321),4	103,(12, 321),4	119,(14, 321),4	135,(16, 321),4	151,(18, 321),4	167,(20, 321),4	183,(22, 321),4	199,(24, 321),4	215,(26, 321),4	231,(28, 321),4	247,(30, 321),4	263,(32, 321),4	279,(34, 321),4	295,(36, 321),4	311,(38, 321),4	327,(40, 321),4	343,(42, 321),4	359,(44, 321),4	375,(46, 321),4	391,(48, 321),4	407,(50, 321),4	423,(52, 321),4	439,(54, 321),4	455,(56, 321),4	471,(58, 321),4	487,(60, 321),4	503,(62, 321),4	519,(64, 321),4	535,(66, 321),4	551,(68, 321),4	567,(70, 321),4	583,(72, 321),4	599,(74, 321),4	615,(76, 321),4	631,(78, 321),4	647,(80, 321),4	663,(82, 321),4	679,(84, 321),4	695,(86, 321),4	711,(88, 321),4	727,(90, 321),4	743,(92, 321),4	759,(94, 321),4	775,(96, 321),4	791,(98, 321),4	807,(100, 321),4	823,(102, 321),4	839,(104, 321),4	855,(106, 321),4	871,(108, 321),4	887,(110, 321),4	903,(112, 321),4	919,(114, 321),4	935,(116, 321),4	951,(118, 321),4	967,(120, 321),4	983,(122, 321),4	999,(124, 321),4	1015,(126, 321),4	1031,(128, 321),4	1047,(130, 321),4	1063,(132, 321),4	1079,(134, 321),4	1095,(136, 321),4	1111,(138, 321),4	1127,(140, 321),4	1143,(142, 321),4	1159,(144, 321),4	1175,(146, 321),4	1191,(148, 321),4	1207,(150, 321),4	1223,(152, 321),4	1239,(154, 321),4	1255,(156, 321),4	1271,(158, 321),4	1287,(160, 321),4	1303,(162, 321),4	1319,(164, 321),4	1335,(166, 321),4	1351,(168, 321),4	1367,(170, 321),4	1383,(172, 321),4	1399,(174, 321),4	1415,(176, 321),4	1431,(178, 321),4	1447,(180, 321),4	1463,(182, 321),4	1479,(184, 321),4	1495,(186, 321),4	1511,(188, 321),4	1527,(190, 321),4	1543,(192, 321),4	1559,(194, 321),4	1575,(196, 321),4	1591,(198, 321),4	1607,(200, 321),4	1623,(202, 321),4	1639,(204, 321),4	1655,(206, 321),4	1671,(208, 321),4	1687,(210, 321),4	1703,(212, 321),4	1719,(214, 321),4	1735,(216, 321),4	1751,(218, 321),4	1767,(220, 321),4	1783,(222, 321),4	1799,(224, 321),4	1815,(226, 321),4	1831,(228, 321),4	1847,(230, 321),4	1863,(232, 321),4	1879,(234, 321),4	1895,(236, 321),4	1911,(238, 321),4	1927,(240, 321),4	1943,(242, 321),4	1959,(244, 321),4	1975,(246, 321),4	1991,(248, 321),4	2007,(250, 321),4	2023,(252, 321),4	2039,(254, 321),4	2055,(256, 321),4	2071,(258, 321),4	2087,(260, 321),4	2103,(262, 321),4	2119,(264, 321),4	2135,(266, 321),4	2151,(268, 321),4	2167,(270, 321),4	2183,(272, 321),4	2199,(274, 321),4	2215,(276, 321),4	2231,(278, 321),4	2247,(280, 321),4	2263,(282, 321),4	2279,(284, 321),4	2295,(286, 321),4	2311,(288, 321),4	2327,(290, 321),4	2343,(292, 321),4	2359,(294, 321),4	2375,(296, 321),4	2391,(298, 321),4	2407,(300, 321),4	2423,(302, 321),4	2439,(304, 321),4	2455,(306, 321),4	2471,(308, 321),4	2487,(310, 321),4	2503,(312, 321),4	2519,(314, 321),4	2535,(316, 321),4	2551,(318, 321),4	2567,(320, 321),4	
# Outgoing
23,(2, 321),4	39,(4, 321),4	55,(6, 321),4	71,(8, 321),4	87,(10, 321),4	103,(12, 321),4	119,(14, 321),4	135,(16, 321),4	151,(18, 321),4	167,(20, 321),4	183,(22, 321),4	199,(24, 321),4	215,(26, 321),4	231,(28, 321),4	247,(30, 321),4	263,(32, 321),4	279,(34, 321),4	295,(36, 321),4	311,(38, 321),4	327,(40, 321),4	343,(42, 321),4	359,(44, 321),4	375,(46, 321),4	391,(48, 321),4	407,(50, 321),4	423,(52, 321),4	439,(54, 321),4	455,(56, 321),4	471,(58, 321),4	487,(60, 321),4	503,(62, 321),4	519,(64, 321),4	535,(66, 321),4	551,(68, 321),4	567,(70, 321),4	583,(72, 321),4	599,(74, 321),4	615,(76, 321),4	631,(78, 321),4	647,(80, 321),4	663,(82, 321),4	679,(84, 321),4	695,(86, 321),4	711,(88, 321),4	727,(90, 321),4	743,(92, 321),4	759,(94, 321),4	775,(96, 321),4	791,(98, 321),4	807,(100, 321),4	823,(102, 321),4	839,(104, 321),4	855,(106, 321),4	871,(108, 321),4	887,(110, 321),4	903,(112, 321),4	919,(114, 321),4	935,(116, 321),4	951,(118, 321),4	967,(120, 321),4	983,(122, 321),4	999,(124, 321),4	1015,(126, 321),4	1031,(128, 321),4	1047,(130, 321),4	1063,(132, 321),4	1079,(134, 321),4	1095,(136, 321),4	1111,(138, 321),4	1127,(140, 321),4	1143,(142, 321),4	1159,(144, 321),4	1175,(146, 321),4	1191,(148, 321),4	1207,(150, 321),4	1223,(152, 321),4	1239,(154, 321),4	1255,(156, 321),4	1271,(158, 321),4	1287,(160, 321),4	1303,(162, 321),4	1319,(164, 321),4	1335,(166, 321),4	1351,(168, 321),4	1367,(170, 321),4	1383,(172, 321),4	1399,(174, 321),4	1415,(176, 321),4	1431,(178, 321),4	1447,(180, 321),4	1463,(182, 321),4	1479,(184, 321),4	1495,(186, 321),4	1511,(188, 321),4	1527,(190, 321),4	1543,(192, 321),4	1559,(194, 321),4	1575,(196, 321),4	1591,(198, 321),4	1607,(200, 321),4	1623,(202, 321),4	1639,(204, 321),4	1655,(206, 321),4	1671,(208, 321),4	1687,(210, 321),4	1703,(212, 321),4	1719,(214, 321),4	1735,(216, 321),4	1751,(218, 321),4	1767,(220, 321),4	1783,(222, 321),4	1799,(224, 321),4	1815,(226, 321),4	1831,(228, 321),4	1847,(230, 321),4	1863,(232, 321),4	1879,(234, 321),4	1895,(236, 321),4	1911,(238, 321),4	1927,(240, 321),4	1943,(242, 321),4	1959,(244, 321),4	1975,(246, 321),4	1991,(248, 321),4	2007,(250, 321),4	2023,(252, 321),4	2039,(254, 321),4	2055,(256, 321),4	2071,(258, 321),4	2087,(260, 321),4	2103,(262, 321),4	2119,(264, 321),4	2135,(266, 321),4	2151,(268, 321),4	2167,(270, 321),4	2183,(272, 321),4	2199,(274, 321),4	2215,(276, 321),4	2231,(278, 321),4	2247,(280, 321),4	2263,(282, 321),4	2279,(284, 321),4	2295,(286, 321),4	2311,(288, 321),4	2327,(290, 321),4	2343,(292, 321),4	2359,(294, 321),4	2375,(296, 321),4	2391,(298, 321),4	2407,(300, 321),4	2423,(302, 321),4	2439,(304, 321),4	2455,(306, 321),4	2471,(308, 321),4	2487,(310, 321),4	2503,(312, 321),4	2519,(314, 321),4	2535,(316, 321),4	2551,(318, 321),4	2567,(320, 321),4	
1,(0, 2),16	17,(0, 4),16	33,(0, 6),16	49,(0, 8),16	65,(0, 10),16	81,(0, 12),16	97,(0, 14),16	113,(0, 16),16	129,(0, 18),16	145,(0, 20),16	161,(0, 22),16	177,(0, 24),16	193,(0, 26),16	209,(0, 28),16	225,(0, 30),16	241,(0, 32),16	257,(0, 34),16	273,(0, 36),16	289,(0, 38),16	305,(0, 40),16	321,(0, 42),16	337,(0, 44),16	353,(0, 46),16	369,(0, 48),16	385,(0, 50),16	401,(0, 52),16	417,(0, 54),16	433,(0, 56),16	449,(0, 58),16	465,(0, 60),16	481,(0, 62),16	497,(0, 64),16	513,(0, 66),16	529,(0, 68),16	545,(0, 70),16	561,(0, 72),16	577,(0, 74),16	593,(0, 76),16	609,(0, 78),16	625,(0, 80),16	641,(0, 82),16	657,(0, 84),16	673,(0, 86),16	689,(0, 88),16	705,(0, 90),16	721,(0, 92),16	737,(0, 94),16	753,(0, 96),16	769,(0, 98),16	785,(0, 100),16	801,(0, 102),16	817,(0, 104),16	833,(0, 106),16	849,(0, 108),16	865,(0, 110),16	881,(0, 112),16	897,(0, 114),16	913,(0, 116),16	929,(0, 118),16	945,(0, 120),16	961,(0, 122),16	977,(0, 124),16	993,(0, 126),16	1009,(0, 128),16	1025,(0, 130),16	1041,(0, 132),16	1057,(0, 134),16	1073,(0, 136),16	1089,(0, 138),16	1105,(0, 140),16	1121,(0, 142),16	1137,(0, 144),16	1153,(0, 146),16	1169,(0, 148),16	1185,(0, 150),16	1201,(0, 152),16	1217,(0, 154),16	1233,(0, 156),16	1249,(0, 158),16	1265,(0, 160),16	1281,(0, 162),16	1297,(0, 164),16	1313,(0, 166),16	1329,(0, 168),16	1345,(0, 170),16	1361,(0, 172),16	1377,(0, 174),16	1393,(0, 176),16	1409,(0, 178),16	1425,(0, 180),16	1441,(0, 182),16	1457,(0, 184),16	1473,(0, 186),16	1489,(0, 188),16	1505,(0, 190),16	1521,(0, 192),16	1537,(0, 194),16	1553,(0, 196),16	1569,(0, 198),16	1585,(0, 200),16	1601,(0, 202),16	1617,(0, 204),16	1633,(0, 206),16	1649,(0, 208),16	1665,(0, 210),16	1681,(0, 212),16	1697,(0, 214),16	1713,(0, 216),16	1729,(0, 218),16	1745,(0, 220),16	1761,(0, 222),16	1777,(0, 224),16	1793,(0, 226),16	1809,(0, 228),16	1825,(0, 230),16	1841,(0, 232),16	1857,(0, 234),16	1873,(0, 236),16	1889,(0, 238),16	1905,(0, 240),16	1921,(0, 242),16	1937,(0, 244),16	1953,(0, 246),16	1969,(0, 248),16	1985,(0, 250),16	2001,(0, 252),16	2017,(0, 254),16	2033,(0, 256),16	2049,(0, 258),16	2065,(0, 260),16	2081,(0, 262),16	2097,(0, 264),16	2113,(0, 266),16	2129,(0, 268),16	2145,(0, 270),16	2161,(0, 272),16	2177,(0, 274),16	2193,(0, 276),16	2209,(0, 278),16	2225,(0, 280),16	2241,(0, 282),16	2257,(0, 284),16	2273,(0, 286),16	2289,(0, 288),16	2305,(0, 290),16	2321,(0, 292),16	2337,(0, 294),16	2353,(0, 296),16	2369,(0, 298),16	2385,(0, 300),16	2401,(0, 302),16	2417,(0, 304),16	2433,(0, 306),16	2449,(0, 308),16	2465,(0, 310),16	2481,(0, 312),16	2497,(0, 314),16	2513,(0, 316),16	2529,(0, 318),16	2545,(0, 320),16	
