4691
# CPU
0,321,1	1,211,21	22,210,21	43,212,21	64,208,21	85,207,21	106,206,21	127,209,21	148,205,21	169,204,21	190,203,21	211,202,21	232,201,21	253,199,21	274,200,21	295,197,21	316,196,21	337,275,21	358,260,21	379,194,21	400,193,21	421,192,21	442,191,21	463,190,21	484,189,21	505,195,21	526,188,21	547,186,21	568,187,21	589,185,21	610,184,21	631,183,21	652,182,21	673,120,21	694,264,21	715,180,21	736,179,21	757,178,21	778,176,21	799,177,21	820,175,21	841,174,21	862,181,21	883,172,21	904,171,21	925,170,21	946,238,21	967,239,21	988,237,21	1009,70,21	1030,269,21	1051,236,21	1072,240,21	1093,241,21	1114,235,21	1135,234,21	1156,242,21	1177,232,21	1198,173,21	1219,243,21	1240,168,21	1261,244,21	1282,166,21	1303,245,21	1324,246,21	1345,101,21	1366,94,21	1387,247,21	1408,164,21	1429,162,21	1450,248,21	1471,161,21	1492,249,21	1513,158,21	1534,250,21	1555,251,21	1576,155,21	1597,153,21	1618,252,21	1639,151,21	1660,150,21	1681,91,21	1702,90,21	1723,253,21	1744,254,21	1765,255,21	1786,256,21	1807,148,21	1828,146,21	1849,257,21	1870,144,21	1891,141,21	1912,258,21	1933,139,21	1954,137,21	1975,259,21	1996,261,21	2017,39,21	2038,288,21	2059,135,21	2080,262,21	2101,133,21	2122,131,21	2143,263,21	2164,129,21	2185,127,21	2206,265,21	2227,266,21	2248,125,21	2269,267,21	2290,123,21	2311,268,21	2332,122,21	2353,50,21	2374,72,21	2395,270,21	2416,119,21	2437,271,21	2458,272,21	2479,117,21	2500,273,21	2521,115,21	2542,112,21	2563,274,21	2584,109,21	2605,276,21	2626,108,21	2647,106,21	2668,277,21	2689,44,21	2710,62,21	2731,279,21	2752,278,21	2773,104,21	2794,280,21	2815,87,21	2836,86,21	2857,85,21	2878,84,21	2899,83,21	2920,82,21	2941,81,21	2962,88,21	2983,79,21	3004,78,21	3025,302,21	3046,46,21	3067,77,21	3088,76,21	3109,75,21	3130,74,21	3151,73,21	3172,71,21	3193,80,21	3214,69,21	3235,67,21	3256,68,21	3277,66,21	3298,65,21	3319,64,21	3340,63,21	3361,35,21	3382,37,21	3403,89,21	3424,61,21	3445,60,21	3466,58,21	3487,59,21	3508,57,21	3529,56,21	3550,92,21	3571,54,21	3592,53,21	3613,52,21	3634,55,21	3655,51,21	3676,49,21	3697,311,21	3718,26,21	3739,47,21	3760,304,21	3781,305,21	3802,303,21	3823,301,21	3844,306,21	3865,300,21	3886,298,21	3907,307,21	3928,296,21	3949,308,21	3970,45,21	3991,43,21	4012,309,21	4033,31,21	4054,312,21	4075,41,21	4096,38,21	4117,34,21	4138,310,21	4159,32,21	4180,313,21	4201,29,21	4222,17,21	4243,16,21	4264,15,21	4285,14,21	4306,18,21	4327,13,21	4348,12,21	4369,7,21	4390,1,21	4411,19,21	4432,11,21	4453,2,21	4474,3,21	4495,4,21	4516,5,21	4537,6,21	4558,8,21	4579,9,21	4600,10,21	4621,20,21	4642,24,21	4663,320,21	4690,0,1	
337,220,21	433,221,21	673,227,21	1201,163,21	1297,159,21	1489,152,21	1873,136,21	1921,134,21	1969,132,21	2497,110,21	2593,105,21	2641,103,21	3025,102,21	3121,282,21	3361,289,21	3409,290,21	3457,291,21	3505,292,21	3745,299,21	3793,297,21	3841,48,21	3937,40,21	3985,36,21	4177,25,21	4369,27,21	4513,318,21	4561,315,21	4657,319,21	
385,213,21	481,222,21	865,230,21	913,231,21	961,233,21	1345,157,21	1393,156,21	1441,154,21	2065,128,21	2113,126,21	2161,124,21	2545,107,21	2833,93,21	3073,281,21	3169,283,21	3889,42,21	4033,33,21	4081,30,21	4129,28,21	4225,21,21	4417,314,21	4465,317,21	
49,214,21	97,215,21	145,216,21	529,223,21	577,224,21	1009,229,21	1537,149,21	1585,147,21	1633,145,21	2017,130,21	2209,121,21	2305,116,21	2689,100,21	2737,99,21	2785,97,21	2881,95,21	3217,284,21	3265,285,21	3553,293,21	3601,294,21	3649,295,21	4273,22,21	4321,23,21	4609,316,21	
193,217,21	241,218,21	289,219,21	625,225,21	721,198,21	769,226,21	817,228,21	1057,169,21	1105,167,21	1153,165,21	1249,160,21	1681,143,21	1729,142,21	1777,140,21	1825,138,21	2257,118,21	2353,114,21	2401,113,21	2449,111,21	2929,96,21	2977,98,21	3313,286,21	3697,287,21	
# Incoming
70,(214, 0),12	118,(215, 0),12	166,(216, 0),12	214,(217, 0),12	262,(218, 0),12	310,(219, 0),12	358,(220, 0),12	406,(213, 0),12	454,(221, 0),12	502,(222, 0),12	550,(223, 0),12	598,(224, 0),12	646,(225, 0),12	694,(227, 0),12	742,(198, 0),12	790,(226, 0),12	838,(228, 0),12	886,(230, 0),12	934,(231, 0),12	982,(233, 0),12	1030,(229, 0),12	1078,(169, 0),12	1126,(167, 0),12	1174,(165, 0),12	1222,(163, 0),12	1270,(160, 0),12	1318,(159, 0),12	1366,(157, 0),12	1414,(156, 0),12	1462,(154, 0),12	1510,(152, 0),12	1558,(149, 0),12	1606,(147, 0),12	1654,(145, 0),12	1702,(143, 0),12	1750,(142, 0),12	1798,(140, 0),12	1846,(138, 0),12	1894,(136, 0),12	1942,(134, 0),12	1990,(132, 0),12	2038,(130, 0),12	2086,(128, 0),12	2134,(126, 0),12	2182,(124, 0),12	2230,(121, 0),12	2278,(118, 0),12	2326,(116, 0),12	2374,(114, 0),12	2422,(113, 0),12	2470,(111, 0),12	2518,(110, 0),12	2566,(107, 0),12	2614,(105, 0),12	2662,(103, 0),12	2710,(100, 0),12	2758,(99, 0),12	2806,(97, 0),12	2854,(93, 0),12	2902,(95, 0),12	2950,(96, 0),12	2998,(98, 0),12	3046,(102, 0),12	3094,(281, 0),12	3142,(282, 0),12	3190,(283, 0),12	3238,(284, 0),12	3286,(285, 0),12	3334,(286, 0),12	3382,(289, 0),12	3430,(290, 0),12	3478,(291, 0),12	3526,(292, 0),12	3574,(293, 0),12	3622,(294, 0),12	3670,(295, 0),12	3718,(287, 0),12	3766,(299, 0),12	3814,(297, 0),12	3862,(48, 0),12	3910,(42, 0),12	3958,(40, 0),12	4006,(36, 0),12	4054,(33, 0),12	4102,(30, 0),12	4150,(28, 0),12	4198,(25, 0),12	4246,(21, 0),12	4294,(22, 0),12	4342,(23, 0),12	4390,(27, 0),12	4438,(314, 0),12	4486,(317, 0),12	4534,(318, 0),12	4582,(315, 0),12	4630,(316, 0),12	4678,(319, 0),12	
289,(321, 220),48	385,(321, 221),48	625,(321, 227),48	1153,(321, 163),48	1249,(321, 159),48	1441,(321, 152),48	1825,(321, 136),48	1873,(321, 134),48	1921,(321, 132),48	2449,(321, 110),48	2545,(321, 105),48	2593,(321, 103),48	2977,(321, 102),48	3073,(321, 282),48	3313,(321, 289),48	3361,(321, 290),48	3409,(321, 291),48	3457,(321, 292),48	3697,(321, 299),48	3745,(321, 297),48	3793,(321, 48),48	3889,(321, 40),48	3937,(321, 36),48	4129,(321, 25),48	4321,(321, 27),48	4465,(321, 318),48	4513,(321, 315),48	4609,(321, 319),48	
337,(321, 213),48	433,(321, 222),48	817,(321, 230),48	865,(321, 231),48	913,(321, 233),48	1297,(321, 157),48	1345,(321, 156),48	1393,(321, 154),48	2017,(321, 128),48	2065,(321, 126),48	2113,(321, 124),48	2497,(321, 107),48	2785,(321, 93),48	3025,(321, 281),48	3121,(321, 283),48	3841,(321, 42),48	3985,(321, 33),48	4033,(321, 30),48	4081,(321, 28),48	4177,(321, 21),48	4369,(321, 314),48	4417,(321, 317),48	
1,(321, 214),48	49,(321, 215),48	97,(321, 216),48	481,(321, 223),48	529,(321, 224),48	961,(321, 229),48	1489,(321, 149),48	1537,(321, 147),48	1585,(321, 145),48	1969,(321, 130),48	2161,(321, 121),48	2257,(321, 116),48	2641,(321, 100),48	2689,(321, 99),48	2737,(321, 97),48	2833,(321, 95),48	3169,(321, 284),48	3217,(321, 285),48	3505,(321, 293),48	3553,(321, 294),48	3601,(321, 295),48	4225,(321, 22),48	4273,(321, 23),48	4561,(321, 316),48	
145,(321, 217),48	193,(321, 218),48	241,(321, 219),48	577,(321, 225),48	673,(321, 198),48	721,(321, 226),48	769,(321, 228),48	1009,(321, 169),48	1057,(321, 167),48	1105,(321, 165),48	1201,(321, 160),48	1633,(321, 143),48	1681,(321, 142),48	1729,(321, 140),48	1777,(321, 138),48	2209,(321, 118),48	2305,(321, 114),48	2353,(321, 113),48	2401,(321, 111),48	2881,(321, 96),48	2929,(321, 98),48	3265,(321, 286),48	3649,(321, 287),48	
# Outgoing
1,(321, 214),48	49,(321, 215),48	97,(321, 216),48	145,(321, 217),48	193,(321, 218),48	241,(321, 219),48	289,(321, 220),48	337,(321, 213),48	385,(321, 221),48	433,(321, 222),48	481,(321, 223),48	529,(321, 224),48	577,(321, 225),48	625,(321, 227),48	673,(321, 198),48	721,(321, 226),48	769,(321, 228),48	817,(321, 230),48	865,(321, 231),48	913,(321, 233),48	961,(321, 229),48	1009,(321, 169),48	1057,(321, 167),48	1105,(321, 165),48	1153,(321, 163),48	1201,(321, 160),48	1249,(321, 159),48	1297,(321, 157),48	1345,(321, 156),48	1393,(321, 154),48	1441,(321, 152),48	1489,(321, 149),48	1537,(321, 147),48	1585,(321, 145),48	1633,(321, 143),48	1681,(321, 142),48	1729,(321, 140),48	1777,(321, 138),48	1825,(321, 136),48	1873,(321, 134),48	1921,(321, 132),48	1969,(321, 130),48	2017,(321, 128),48	2065,(321, 126),48	2113,(321, 124),48	2161,(321, 121),48	2209,(321, 118),48	2257,(321, 116),48	2305,(321, 114),48	2353,(321, 113),48	2401,(321, 111),48	2449,(321, 110),48	2497,(321, 107),48	2545,(321, 105),48	2593,(321, 103),48	2641,(321, 100),48	2689,(321, 99),48	2737,(321, 97),48	2785,(321, 93),48	2833,(321, 95),48	2881,(321, 96),48	2929,(321, 98),48	2977,(321, 102),48	3025,(321, 281),48	3073,(321, 282),48	3121,(321, 283),48	3169,(321, 284),48	3217,(321, 285),48	3265,(321, 286),48	3313,(321, 289),48	3361,(321, 290),48	3409,(321, 291),48	3457,(321, 292),48	3505,(321, 293),48	3553,(321, 294),48	3601,(321, 295),48	3649,(321, 287),48	3697,(321, 299),48	3745,(321, 297),48	3793,(321, 48),48	3841,(321, 42),48	3889,(321, 40),48	3937,(321, 36),48	3985,(321, 33),48	4033,(321, 30),48	4081,(321, 28),48	4129,(321, 25),48	4177,(321, 21),48	4225,(321, 22),48	4273,(321, 23),48	4321,(321, 27),48	4369,(321, 314),48	4417,(321, 317),48	4465,(321, 318),48	4513,(321, 315),48	4561,(321, 316),48	4609,(321, 319),48	
358,(220, 0),12	454,(221, 0),12	694,(227, 0),12	1222,(163, 0),12	1318,(159, 0),12	1510,(152, 0),12	1894,(136, 0),12	1942,(134, 0),12	1990,(132, 0),12	2518,(110, 0),12	2614,(105, 0),12	2662,(103, 0),12	3046,(102, 0),12	3142,(282, 0),12	3382,(289, 0),12	3430,(290, 0),12	3478,(291, 0),12	3526,(292, 0),12	3766,(299, 0),12	3814,(297, 0),12	3862,(48, 0),12	3958,(40, 0),12	4006,(36, 0),12	4198,(25, 0),12	4390,(27, 0),12	4534,(318, 0),12	4582,(315, 0),12	4678,(319, 0),12	
406,(213, 0),12	502,(222, 0),12	886,(230, 0),12	934,(231, 0),12	982,(233, 0),12	1366,(157, 0),12	1414,(156, 0),12	1462,(154, 0),12	2086,(128, 0),12	2134,(126, 0),12	2182,(124, 0),12	2566,(107, 0),12	2854,(93, 0),12	3094,(281, 0),12	3190,(283, 0),12	3910,(42, 0),12	4054,(33, 0),12	4102,(30, 0),12	4150,(28, 0),12	4246,(21, 0),12	4438,(314, 0),12	4486,(317, 0),12	
70,(214, 0),12	118,(215, 0),12	166,(216, 0),12	550,(223, 0),12	598,(224, 0),12	1030,(229, 0),12	1558,(149, 0),12	1606,(147, 0),12	1654,(145, 0),12	2038,(130, 0),12	2230,(121, 0),12	2326,(116, 0),12	2710,(100, 0),12	2758,(99, 0),12	2806,(97, 0),12	2902,(95, 0),12	3238,(284, 0),12	3286,(285, 0),12	3574,(293, 0),12	3622,(294, 0),12	3670,(295, 0),12	4294,(22, 0),12	4342,(23, 0),12	4630,(316, 0),12	
214,(217, 0),12	262,(218, 0),12	310,(219, 0),12	646,(225, 0),12	742,(198, 0),12	790,(226, 0),12	838,(228, 0),12	1078,(169, 0),12	1126,(167, 0),12	1174,(165, 0),12	1270,(160, 0),12	1702,(143, 0),12	1750,(142, 0),12	1798,(140, 0),12	1846,(138, 0),12	2278,(118, 0),12	2374,(114, 0),12	2422,(113, 0),12	2470,(111, 0),12	2950,(96, 0),12	2998,(98, 0),12	3334,(286, 0),12	3718,(287, 0),12	
