4195
# CPU
0,321,1	1,211,16	17,210,16	33,212,16	49,209,16	65,208,16	81,207,16	97,206,16	113,213,16	129,205,16	145,93,16	161,127,16	177,204,16	193,214,16	209,203,16	225,201,16	241,202,16	257,200,16	273,199,16	289,66,16	305,124,16	321,215,16	337,198,16	353,216,16	369,196,16	385,195,16	401,197,16	417,194,16	433,274,16	449,119,16	465,193,16	481,192,16	497,191,16	513,190,16	529,218,16	545,189,16	561,220,16	577,284,16	593,263,16	609,186,16	625,185,16	641,184,16	657,183,16	673,182,16	689,181,16	705,180,16	721,258,16	737,110,16	753,179,16	769,187,16	785,178,16	801,176,16	817,177,16	833,175,16	849,237,16	865,56,16	881,276,16	897,236,16	913,235,16	929,238,16	945,239,16	961,234,16	977,240,16	993,233,16	1009,115,16	1025,102,16	1041,241,16	1057,225,16	1073,222,16	1089,242,16	1105,174,16	1121,173,16	1137,243,16	1153,73,16	1169,99,16	1185,245,16	1201,244,16	1217,171,16	1233,246,16	1249,169,16	1265,168,16	1281,166,16	1297,268,16	1313,100,16	1329,165,16	1345,247,16	1361,163,16	1377,248,16	1393,249,16	1409,162,16	1425,161,16	1441,98,16	1457,95,16	1473,250,16	1489,159,16	1505,251,16	1521,157,16	1537,156,16	1553,252,16	1569,154,16	1585,62,16	1601,277,16	1617,253,16	1633,153,16	1649,151,16	1665,254,16	1681,149,16	1697,148,16	1713,255,16	1729,59,16	1745,74,16	1761,256,16	1777,147,16	1793,257,16	1809,259,16	1825,145,16	1841,144,16	1857,142,16	1873,290,16	1889,281,16	1905,139,16	1921,140,16	1937,138,16	1953,136,16	1969,260,16	1985,135,16	2001,261,16	2017,40,16	2033,283,16	2049,134,16	2065,132,16	2081,262,16	2097,131,16	2113,130,16	2129,264,16	2145,129,16	2161,279,16	2177,72,16	2193,126,16	2209,265,16	2225,125,16	2241,266,16	2257,123,16	2273,121,16	2289,267,16	2305,70,16	2321,68,16	2337,269,16	2353,120,16	2369,118,16	2385,270,16	2401,116,16	2417,271,16	2433,113,16	2449,32,16	2465,292,16	2481,112,16	2497,272,16	2513,109,16	2529,91,16	2545,92,16	2561,90,16	2577,89,16	2593,58,16	2609,43,16	2625,94,16	2641,88,16	2657,96,16	2673,86,16	2689,85,16	2705,87,16	2721,84,16	2737,38,16	2753,47,16	2769,97,16	2785,83,16	2801,82,16	2817,81,16	2833,103,16	2849,80,16	2865,107,16	2881,52,16	2897,42,16	2913,79,16	2929,78,16	2945,275,16	2961,77,16	2977,76,16	2993,75,16	3009,71,16	3025,288,16	3041,304,16	3057,67,16	3073,69,16	3089,65,16	3105,63,16	3121,64,16	3137,61,16	3153,280,16	3169,305,16	3185,31,16	3201,57,16	3217,55,16	3233,60,16	3249,54,16	3265,53,16	3281,285,16	3297,51,16	3313,307,16	3329,26,16	3345,49,16	3361,302,16	3377,301,16	3393,303,16	3409,300,16	3425,299,16	3441,306,16	3457,312,16	3473,35,16	3489,298,16	3505,295,16	3521,289,16	3537,308,16	3553,50,16	3569,48,16	3585,45,16	3601,39,16	3617,22,16	3633,309,16	3649,310,16	3665,41,16	3681,37,16	3697,311,16	3713,34,16	3729,33,16	3745,15,16	3761,1,16	3777,19,16	3793,18,16	3809,20,16	3825,17,16	3841,16,16	3857,21,16	3873,14,16	3889,2,16	3905,10,16	3921,23,16	3937,25,16	3953,13,16	3969,12,16	3985,3,16	4001,4,16	4017,5,16	4033,314,16	4049,7,16	4065,6,16	4081,8,16	4097,9,16	4113,11,16	4129,29,16	4145,313,16	4161,317,16	4177,319,16	4194,0,1	
433,226,16	649,229,16	721,230,16	937,188,16	1081,170,16	1153,167,16	1585,150,16	1801,141,16	1873,137,16	2017,128,16	2377,108,16	2449,105,16	2521,101,16	2593,104,16	3025,287,16	3241,296,16	3313,297,16	3529,44,16	3601,36,16	3673,28,16	3817,27,16	4033,318,16	4177,320,16	
217,221,16	289,223,16	577,228,16	1009,172,16	1225,164,16	1369,158,16	1441,155,16	1729,143,16	2089,122,16	2233,114,16	2305,111,16	2881,282,16	2953,286,16	3745,24,16	3889,30,16	4105,315,16	
73,217,16	145,219,16	361,224,16	505,227,16	793,231,16	865,232,16	1297,160,16	1513,152,16	1657,146,16	1945,133,16	2161,117,16	2665,106,16	2737,273,16	2809,278,16	3097,293,16	3169,294,16	3385,291,16	3457,46,16	3961,316,16	
# Incoming
89,(217, 0),1	161,(219, 0),1	233,(221, 0),1	305,(223, 0),1	377,(224, 0),1	449,(226, 0),1	521,(227, 0),1	593,(228, 0),1	665,(229, 0),1	737,(230, 0),1	809,(231, 0),1	881,(232, 0),1	953,(188, 0),1	1025,(172, 0),1	1097,(170, 0),1	1169,(167, 0),1	1241,(164, 0),1	1313,(160, 0),1	1385,(158, 0),1	1457,(155, 0),1	1529,(152, 0),1	1601,(150, 0),1	1673,(146, 0),1	1745,(143, 0),1	1817,(141, 0),1	1889,(137, 0),1	1961,(133, 0),1	2033,(128, 0),1	2105,(122, 0),1	2177,(117, 0),1	2249,(114, 0),1	2321,(111, 0),1	2393,(108, 0),1	2465,(105, 0),1	2537,(101, 0),1	2609,(104, 0),1	2681,(106, 0),1	2753,(273, 0),1	2825,(278, 0),1	2897,(282, 0),1	2969,(286, 0),1	3041,(287, 0),1	3113,(293, 0),1	3185,(294, 0),1	3257,(296, 0),1	3329,(297, 0),1	3401,(291, 0),1	3473,(46, 0),1	3545,(44, 0),1	3617,(36, 0),1	3689,(28, 0),1	3761,(24, 0),1	3833,(27, 0),1	3905,(30, 0),1	3977,(316, 0),1	4049,(318, 0),1	4121,(315, 0),1	4193,(320, 0),1	
361,(321, 226),72	577,(321, 229),72	649,(321, 230),72	865,(321, 188),72	1009,(321, 170),72	1081,(321, 167),72	1513,(321, 150),72	1729,(321, 141),72	1801,(321, 137),72	1945,(321, 128),72	2305,(321, 108),72	2377,(321, 105),72	2449,(321, 101),72	2521,(321, 104),72	2953,(321, 287),72	3169,(321, 296),72	3241,(321, 297),72	3457,(321, 44),72	3529,(321, 36),72	3601,(321, 28),72	3745,(321, 27),72	3961,(321, 318),72	4105,(321, 320),72	
145,(321, 221),72	217,(321, 223),72	505,(321, 228),72	937,(321, 172),72	1153,(321, 164),72	1297,(321, 158),72	1369,(321, 155),72	1657,(321, 143),72	2017,(321, 122),72	2161,(321, 114),72	2233,(321, 111),72	2809,(321, 282),72	2881,(321, 286),72	3673,(321, 24),72	3817,(321, 30),72	4033,(321, 315),72	
1,(321, 217),72	73,(321, 219),72	289,(321, 224),72	433,(321, 227),72	721,(321, 231),72	793,(321, 232),72	1225,(321, 160),72	1441,(321, 152),72	1585,(321, 146),72	1873,(321, 133),72	2089,(321, 117),72	2593,(321, 106),72	2665,(321, 273),72	2737,(321, 278),72	3025,(321, 293),72	3097,(321, 294),72	3313,(321, 291),72	3385,(321, 46),72	3889,(321, 316),72	
# Outgoing
1,(321, 217),72	73,(321, 219),72	145,(321, 221),72	217,(321, 223),72	289,(321, 224),72	361,(321, 226),72	433,(321, 227),72	505,(321, 228),72	577,(321, 229),72	649,(321, 230),72	721,(321, 231),72	793,(321, 232),72	865,(321, 188),72	937,(321, 172),72	1009,(321, 170),72	1081,(321, 167),72	1153,(321, 164),72	1225,(321, 160),72	1297,(321, 158),72	1369,(321, 155),72	1441,(321, 152),72	1513,(321, 150),72	1585,(321, 146),72	1657,(321, 143),72	1729,(321, 141),72	1801,(321, 137),72	1873,(321, 133),72	1945,(321, 128),72	2017,(321, 122),72	2089,(321, 117),72	2161,(321, 114),72	2233,(321, 111),72	2305,(321, 108),72	2377,(321, 105),72	2449,(321, 101),72	2521,(321, 104),72	2593,(321, 106),72	2665,(321, 273),72	2737,(321, 278),72	2809,(321, 282),72	2881,(321, 286),72	2953,(321, 287),72	3025,(321, 293),72	3097,(321, 294),72	3169,(321, 296),72	3241,(321, 297),72	3313,(321, 291),72	3385,(321, 46),72	3457,(321, 44),72	3529,(321, 36),72	3601,(321, 28),72	3673,(321, 24),72	3745,(321, 27),72	3817,(321, 30),72	3889,(321, 316),72	3961,(321, 318),72	4033,(321, 315),72	4105,(321, 320),72	
449,(226, 0),1	665,(229, 0),1	737,(230, 0),1	953,(188, 0),1	1097,(170, 0),1	1169,(167, 0),1	1601,(150, 0),1	1817,(141, 0),1	1889,(137, 0),1	2033,(128, 0),1	2393,(108, 0),1	2465,(105, 0),1	2537,(101, 0),1	2609,(104, 0),1	3041,(287, 0),1	3257,(296, 0),1	3329,(297, 0),1	3545,(44, 0),1	3617,(36, 0),1	3689,(28, 0),1	3833,(27, 0),1	4049,(318, 0),1	4193,(320, 0),1	
233,(221, 0),1	305,(223, 0),1	593,(228, 0),1	1025,(172, 0),1	1241,(164, 0),1	1385,(158, 0),1	1457,(155, 0),1	1745,(143, 0),1	2105,(122, 0),1	2249,(114, 0),1	2321,(111, 0),1	2897,(282, 0),1	2969,(286, 0),1	3761,(24, 0),1	3905,(30, 0),1	4121,(315, 0),1	
89,(217, 0),1	161,(219, 0),1	377,(224, 0),1	521,(227, 0),1	809,(231, 0),1	881,(232, 0),1	1313,(160, 0),1	1529,(152, 0),1	1673,(146, 0),1	1961,(133, 0),1	2177,(117, 0),1	2681,(106, 0),1	2753,(273, 0),1	2825,(278, 0),1	3113,(293, 0),1	3185,(294, 0),1	3401,(291, 0),1	3473,(46, 0),1	3977,(316, 0),1	
