294
# CPU
0,321,1	1,320,1	2,210,1	3,211,1	4,209,1	5,208,1	6,207,1	7,212,1	8,206,1	9,213,1	10,205,1	11,214,1	12,204,1	13,203,1	14,202,1	15,215,1	16,201,1	17,200,1	18,216,1	19,198,1	20,197,1	21,196,1	22,217,1	23,195,1	24,218,1	25,194,1	26,219,1	27,193,1	28,191,1	29,220,1	30,190,1	31,221,1	32,189,1	33,222,1	34,188,1	35,187,1	36,186,1	37,223,1	38,224,1	39,184,1	40,225,1	41,183,1	42,182,1	43,181,1	44,226,1	45,180,1	46,179,1	47,178,1	48,177,1	49,176,1	50,175,1	51,228,1	52,174,1	53,229,1	54,173,1	55,230,1	56,172,1	57,171,1	58,231,1	59,169,1	60,240,1	61,239,1	62,241,1	63,238,1	64,237,1	65,236,1	66,242,1	67,235,1	68,234,1	69,244,1	70,233,1	71,232,1	72,168,1	73,245,1	74,167,1	75,166,1	76,165,1	77,246,1	78,163,1	79,162,1	80,247,1	81,161,1	82,248,1	83,160,1	84,249,1	85,159,1	86,158,1	87,157,1	88,156,1	89,155,1	90,154,1	91,251,1	92,153,1	93,152,1	94,151,1	95,252,1	96,150,1	97,253,1	98,254,1	99,148,1	100,147,1	101,146,1	102,255,1	103,145,1	104,144,1	105,143,1	106,256,1	107,142,1	108,140,1	109,257,1	110,139,1	111,258,1	112,138,1	113,259,1	114,137,1	115,136,1	116,135,1	117,260,1	118,133,1	119,132,1	120,261,1	121,131,1	122,130,1	123,129,1	124,262,1	125,128,1	126,263,1	127,127,1	128,126,1	129,125,1	130,124,1	131,265,1	132,123,1	133,122,1	134,121,1	135,266,1	136,120,1	137,119,1	138,267,1	139,117,1	140,268,1	141,116,1	142,269,1	143,115,1	144,114,1	145,113,1	146,270,1	147,112,1	148,110,1	149,271,1	150,109,1	151,108,1	152,107,1	153,272,1	154,106,1	155,273,1	156,105,1	157,274,1	158,103,1	159,102,1	160,275,1	161,101,1	162,100,1	163,99,1	164,276,1	165,98,1	166,97,1	167,96,1	168,95,1	169,278,1	170,94,1	171,279,1	172,93,1	173,92,1	174,91,1	175,280,1	176,90,1	177,81,1	178,82,1	179,79,1	180,78,1	181,77,1	182,83,1	183,76,1	184,84,1	185,75,1	186,85,1	187,74,1	188,72,1	189,86,1	190,71,1	191,87,1	192,70,1	193,88,1	194,69,1	195,68,1	196,67,1	197,89,1	198,281,1	199,65,1	200,282,1	201,64,1	202,63,1	203,62,1	204,283,1	205,61,1	206,284,1	207,60,1	208,59,1	209,58,1	210,57,1	211,286,1	212,56,1	213,287,1	214,55,1	215,288,1	216,54,1	217,53,1	218,289,1	219,51,1	220,290,1	221,50,1	222,291,1	223,49,1	224,48,1	225,47,1	226,292,1	227,46,1	228,45,1	229,294,1	230,44,1	231,43,1	232,42,1	233,295,1	234,41,1	235,304,1	236,303,1	237,305,1	238,301,1	239,300,1	240,306,1	241,299,1	242,298,1	243,297,1	244,307,1	245,296,1	246,40,1	247,39,1	248,38,1	249,37,1	250,36,1	251,309,1	252,35,1	253,34,1	254,33,1	255,310,1	256,32,1	257,31,1	258,311,1	259,29,1	260,28,1	261,27,1	262,312,1	263,26,1	264,17,1	265,16,1	266,18,1	267,15,1	268,14,1	269,20,1	270,13,1	271,21,1	272,12,1	273,22,1	274,11,1	275,23,1	276,10,1	277,24,1	278,1,1	279,2,1	280,3,1	281,4,1	282,5,1	283,6,1	284,7,1	285,8,1	286,25,1	287,313,1	288,315,1	289,316,1	290,317,1	291,318,1	292,319,1	293,0,1	
11,199,1	21,192,1	31,185,1	41,227,1	51,170,1	61,243,1	71,164,1	81,250,1	91,149,1	101,141,1	111,134,1	121,264,1	131,118,1	141,111,1	151,104,1	161,277,1	171,80,1	181,73,1	191,66,1	201,285,1	211,52,1	221,293,1	231,302,1	241,308,1	251,30,1	261,19,1	271,9,1	281,314,1	
# Incoming
12,(199, 0),6	22,(192, 0),6	32,(185, 0),6	42,(227, 0),6	52,(170, 0),6	62,(243, 0),6	72,(164, 0),6	82,(250, 0),6	92,(149, 0),6	102,(141, 0),6	112,(134, 0),6	122,(264, 0),6	132,(118, 0),6	142,(111, 0),6	152,(104, 0),6	162,(277, 0),6	172,(80, 0),6	182,(73, 0),6	192,(66, 0),6	202,(285, 0),6	212,(52, 0),6	222,(293, 0),6	232,(302, 0),6	242,(308, 0),6	252,(30, 0),6	262,(19, 0),6	272,(9, 0),6	282,(314, 0),6	
1,(321, 199),10	11,(321, 192),10	21,(321, 185),10	31,(321, 227),10	41,(321, 170),10	51,(321, 243),10	61,(321, 164),10	71,(321, 250),10	81,(321, 149),10	91,(321, 141),10	101,(321, 134),10	111,(321, 264),10	121,(321, 118),10	131,(321, 111),10	141,(321, 104),10	151,(321, 277),10	161,(321, 80),10	171,(321, 73),10	181,(321, 66),10	191,(321, 285),10	201,(321, 52),10	211,(321, 293),10	221,(321, 302),10	231,(321, 308),10	241,(321, 30),10	251,(321, 19),10	261,(321, 9),10	271,(321, 314),10	
# Outgoing
1,(321, 199),10	11,(321, 192),10	21,(321, 185),10	31,(321, 227),10	41,(321, 170),10	51,(321, 243),10	61,(321, 164),10	71,(321, 250),10	81,(321, 149),10	91,(321, 141),10	101,(321, 134),10	111,(321, 264),10	121,(321, 118),10	131,(321, 111),10	141,(321, 104),10	151,(321, 277),10	161,(321, 80),10	171,(321, 73),10	181,(321, 66),10	191,(321, 285),10	201,(321, 52),10	211,(321, 293),10	221,(321, 302),10	231,(321, 308),10	241,(321, 30),10	251,(321, 19),10	261,(321, 9),10	271,(321, 314),10	
12,(199, 0),6	22,(192, 0),6	32,(185, 0),6	42,(227, 0),6	52,(170, 0),6	62,(243, 0),6	72,(164, 0),6	82,(250, 0),6	92,(149, 0),6	102,(141, 0),6	112,(134, 0),6	122,(264, 0),6	132,(118, 0),6	142,(111, 0),6	152,(104, 0),6	162,(277, 0),6	172,(80, 0),6	182,(73, 0),6	192,(66, 0),6	202,(285, 0),6	212,(52, 0),6	222,(293, 0),6	232,(302, 0),6	242,(308, 0),6	252,(30, 0),6	262,(19, 0),6	272,(9, 0),6	282,(314, 0),6	
