1709
# CPU
0,321,1	1,320,7	8,210,7	15,211,7	22,209,7	29,208,7	36,207,7	43,206,7	50,212,7	57,205,7	64,204,7	71,203,7	78,202,7	85,201,7	92,200,7	99,199,7	106,198,7	113,197,7	120,196,7	127,195,7	134,213,7	141,194,7	148,193,7	155,192,7	162,191,7	169,190,7	176,214,7	183,189,7	190,188,7	197,187,7	204,186,7	211,185,7	218,215,7	225,184,7	232,183,7	239,182,7	246,181,7	253,180,7	260,179,7	267,178,7	274,177,7	281,176,7	288,175,7	295,174,7	302,217,7	309,173,7	316,172,7	323,171,7	330,170,7	337,221,7	344,240,7	351,239,7	358,241,7	365,238,7	372,237,7	379,242,7	386,243,7	393,236,7	400,244,7	407,232,7	414,225,7	421,245,7	428,169,7	435,167,7	442,246,7	449,166,7	456,164,7	463,247,7	470,248,7	477,162,7	484,249,7	491,161,7	498,159,7	505,250,7	512,158,7	519,156,7	526,251,7	533,155,7	540,153,7	547,252,7	554,152,7	561,253,7	568,254,7	575,150,7	582,148,7	589,255,7	596,147,7	603,145,7	610,256,7	617,144,7	624,142,7	631,257,7	638,141,7	645,258,7	652,259,7	659,139,7	666,137,7	673,260,7	680,136,7	687,134,7	694,261,7	701,133,7	708,131,7	715,262,7	722,130,7	729,263,7	736,264,7	743,128,7	750,127,7	757,265,7	764,125,7	771,123,7	778,266,7	785,122,7	792,120,7	799,119,7	806,267,7	813,268,7	820,117,7	827,269,7	834,116,7	841,115,7	848,270,7	855,114,7	862,113,7	869,271,7	876,111,7	883,109,7	890,272,7	897,273,7	904,108,7	911,274,7	918,106,7	925,105,7	932,275,7	939,103,7	946,101,7	953,276,7	960,100,7	967,98,7	974,277,7	981,278,7	988,96,7	995,279,7	1002,95,7	1009,94,7	1016,280,7	1023,81,7	1030,80,7	1037,82,7	1044,78,7	1051,77,7	1058,79,7	1065,76,7	1072,75,7	1079,83,7	1086,73,7	1093,72,7	1100,74,7	1107,71,7	1114,70,7	1121,84,7	1128,69,7	1135,67,7	1142,68,7	1149,66,7	1156,65,7	1163,86,7	1170,64,7	1177,62,7	1184,63,7	1191,61,7	1198,60,7	1205,92,7	1212,59,7	1219,57,7	1226,58,7	1233,56,7	1240,55,7	1247,283,7	1254,54,7	1261,53,7	1268,52,7	1275,51,7	1282,286,7	1289,50,7	1296,49,7	1303,48,7	1310,47,7	1317,46,7	1324,290,7	1331,45,7	1338,44,7	1345,43,7	1352,42,7	1359,41,7	1366,304,7	1373,305,7	1380,303,7	1387,302,7	1394,306,7	1401,301,7	1408,300,7	1415,293,7	1422,307,7	1429,292,7	1436,40,7	1443,308,7	1450,39,7	1457,37,7	1464,309,7	1471,36,7	1478,34,7	1485,310,7	1492,33,7	1499,31,7	1506,311,7	1513,30,7	1520,29,7	1527,312,7	1534,17,7	1541,16,7	1548,15,7	1555,18,7	1562,14,7	1569,19,7	1576,13,7	1583,12,7	1590,20,7	1597,11,7	1604,10,7	1611,23,7	1618,1,7	1625,2,7	1632,3,7	1639,4,7	1646,5,7	1653,6,7	1660,7,7	1667,8,7	1674,9,7	1681,313,7	1688,317,7	1695,318,7	1708,0,1	
45,218,7	111,222,7	221,229,7	287,233,7	353,228,7	375,168,7	419,163,7	485,154,7	529,149,7	617,138,7	639,135,7	661,132,7	727,124,7	815,110,7	881,102,7	925,97,7	991,88,7	1035,87,7	1057,89,7	1189,287,7	1255,294,7	1321,298,7	1343,299,7	1673,26,7	1695,319,7	
67,219,7	133,223,7	155,224,7	177,226,7	243,230,7	265,231,7	309,234,7	441,160,7	463,157,7	551,146,7	573,143,7	683,129,7	749,121,7	837,107,7	903,99,7	947,93,7	1013,85,7	1101,281,7	1145,284,7	1167,285,7	1211,288,7	1277,295,7	1365,297,7	1409,38,7	1475,27,7	1519,22,7	1563,25,7	1651,28,7	
23,216,7	89,220,7	199,227,7	331,235,7	397,165,7	507,151,7	595,140,7	705,126,7	771,118,7	793,112,7	859,104,7	969,90,7	1079,91,7	1123,282,7	1233,289,7	1299,296,7	1387,291,7	1431,35,7	1453,32,7	1497,24,7	1541,21,7	1585,314,7	1607,315,7	1629,316,7	
# Incoming
30,(216, 0),6	52,(218, 0),6	74,(219, 0),6	96,(220, 0),6	118,(222, 0),6	140,(223, 0),6	162,(224, 0),6	184,(226, 0),6	206,(227, 0),6	228,(229, 0),6	250,(230, 0),6	272,(231, 0),6	294,(233, 0),6	316,(234, 0),6	338,(235, 0),6	360,(228, 0),6	382,(168, 0),6	404,(165, 0),6	426,(163, 0),6	448,(160, 0),6	470,(157, 0),6	492,(154, 0),6	514,(151, 0),6	536,(149, 0),6	558,(146, 0),6	580,(143, 0),6	602,(140, 0),6	624,(138, 0),6	646,(135, 0),6	668,(132, 0),6	690,(129, 0),6	712,(126, 0),6	734,(124, 0),6	756,(121, 0),6	778,(118, 0),6	800,(112, 0),6	822,(110, 0),6	844,(107, 0),6	866,(104, 0),6	888,(102, 0),6	910,(99, 0),6	932,(97, 0),6	954,(93, 0),6	976,(90, 0),6	998,(88, 0),6	1020,(85, 0),6	1042,(87, 0),6	1064,(89, 0),6	1086,(91, 0),6	1108,(281, 0),6	1130,(282, 0),6	1152,(284, 0),6	1174,(285, 0),6	1196,(287, 0),6	1218,(288, 0),6	1240,(289, 0),6	1262,(294, 0),6	1284,(295, 0),6	1306,(296, 0),6	1328,(298, 0),6	1350,(299, 0),6	1372,(297, 0),6	1394,(291, 0),6	1416,(38, 0),6	1438,(35, 0),6	1460,(32, 0),6	1482,(27, 0),6	1504,(24, 0),6	1526,(22, 0),6	1548,(21, 0),6	1570,(25, 0),6	1592,(314, 0),6	1614,(315, 0),6	1636,(316, 0),6	1658,(28, 0),6	1680,(26, 0),6	1702,(319, 0),6	
23,(321, 218),22	89,(321, 222),22	199,(321, 229),22	265,(321, 233),22	331,(321, 228),22	353,(321, 168),22	397,(321, 163),22	463,(321, 154),22	507,(321, 149),22	595,(321, 138),22	617,(321, 135),22	639,(321, 132),22	705,(321, 124),22	793,(321, 110),22	859,(321, 102),22	903,(321, 97),22	969,(321, 88),22	1013,(321, 87),22	1035,(321, 89),22	1167,(321, 287),22	1233,(321, 294),22	1299,(321, 298),22	1321,(321, 299),22	1651,(321, 26),22	1673,(321, 319),22	
45,(321, 219),22	111,(321, 223),22	133,(321, 224),22	155,(321, 226),22	221,(321, 230),22	243,(321, 231),22	287,(321, 234),22	419,(321, 160),22	441,(321, 157),22	529,(321, 146),22	551,(321, 143),22	661,(321, 129),22	727,(321, 121),22	815,(321, 107),22	881,(321, 99),22	925,(321, 93),22	991,(321, 85),22	1079,(321, 281),22	1123,(321, 284),22	1145,(321, 285),22	1189,(321, 288),22	1255,(321, 295),22	1343,(321, 297),22	1387,(321, 38),22	1453,(321, 27),22	1497,(321, 22),22	1541,(321, 25),22	1629,(321, 28),22	
1,(321, 216),22	67,(321, 220),22	177,(321, 227),22	309,(321, 235),22	375,(321, 165),22	485,(321, 151),22	573,(321, 140),22	683,(321, 126),22	749,(321, 118),22	771,(321, 112),22	837,(321, 104),22	947,(321, 90),22	1057,(321, 91),22	1101,(321, 282),22	1211,(321, 289),22	1277,(321, 296),22	1365,(321, 291),22	1409,(321, 35),22	1431,(321, 32),22	1475,(321, 24),22	1519,(321, 21),22	1563,(321, 314),22	1585,(321, 315),22	1607,(321, 316),22	
# Outgoing
1,(321, 216),22	23,(321, 218),22	45,(321, 219),22	67,(321, 220),22	89,(321, 222),22	111,(321, 223),22	133,(321, 224),22	155,(321, 226),22	177,(321, 227),22	199,(321, 229),22	221,(321, 230),22	243,(321, 231),22	265,(321, 233),22	287,(321, 234),22	309,(321, 235),22	331,(321, 228),22	353,(321, 168),22	375,(321, 165),22	397,(321, 163),22	419,(321, 160),22	441,(321, 157),22	463,(321, 154),22	485,(321, 151),22	507,(321, 149),22	529,(321, 146),22	551,(321, 143),22	573,(321, 140),22	595,(321, 138),22	617,(321, 135),22	639,(321, 132),22	661,(321, 129),22	683,(321, 126),22	705,(321, 124),22	727,(321, 121),22	749,(321, 118),22	771,(321, 112),22	793,(321, 110),22	815,(321, 107),22	837,(321, 104),22	859,(321, 102),22	881,(321, 99),22	903,(321, 97),22	925,(321, 93),22	947,(321, 90),22	969,(321, 88),22	991,(321, 85),22	1013,(321, 87),22	1035,(321, 89),22	1057,(321, 91),22	1079,(321, 281),22	1101,(321, 282),22	1123,(321, 284),22	1145,(321, 285),22	1167,(321, 287),22	1189,(321, 288),22	1211,(321, 289),22	1233,(321, 294),22	1255,(321, 295),22	1277,(321, 296),22	1299,(321, 298),22	1321,(321, 299),22	1343,(321, 297),22	1365,(321, 291),22	1387,(321, 38),22	1409,(321, 35),22	1431,(321, 32),22	1453,(321, 27),22	1475,(321, 24),22	1497,(321, 22),22	1519,(321, 21),22	1541,(321, 25),22	1563,(321, 314),22	1585,(321, 315),22	1607,(321, 316),22	1629,(321, 28),22	1651,(321, 26),22	1673,(321, 319),22	
52,(218, 0),6	118,(222, 0),6	228,(229, 0),6	294,(233, 0),6	360,(228, 0),6	382,(168, 0),6	426,(163, 0),6	492,(154, 0),6	536,(149, 0),6	624,(138, 0),6	646,(135, 0),6	668,(132, 0),6	734,(124, 0),6	822,(110, 0),6	888,(102, 0),6	932,(97, 0),6	998,(88, 0),6	1042,(87, 0),6	1064,(89, 0),6	1196,(287, 0),6	1262,(294, 0),6	1328,(298, 0),6	1350,(299, 0),6	1680,(26, 0),6	1702,(319, 0),6	
74,(219, 0),6	140,(223, 0),6	162,(224, 0),6	184,(226, 0),6	250,(230, 0),6	272,(231, 0),6	316,(234, 0),6	448,(160, 0),6	470,(157, 0),6	558,(146, 0),6	580,(143, 0),6	690,(129, 0),6	756,(121, 0),6	844,(107, 0),6	910,(99, 0),6	954,(93, 0),6	1020,(85, 0),6	1108,(281, 0),6	1152,(284, 0),6	1174,(285, 0),6	1218,(288, 0),6	1284,(295, 0),6	1372,(297, 0),6	1416,(38, 0),6	1482,(27, 0),6	1526,(22, 0),6	1570,(25, 0),6	1658,(28, 0),6	
30,(216, 0),6	96,(220, 0),6	206,(227, 0),6	338,(235, 0),6	404,(165, 0),6	514,(151, 0),6	602,(140, 0),6	712,(126, 0),6	778,(118, 0),6	800,(112, 0),6	866,(104, 0),6	976,(90, 0),6	1086,(91, 0),6	1130,(282, 0),6	1240,(289, 0),6	1306,(296, 0),6	1394,(291, 0),6	1438,(35, 0),6	1460,(32, 0),6	1504,(24, 0),6	1548,(21, 0),6	1592,(314, 0),6	1614,(315, 0),6	1636,(316, 0),6	
