1601
# CPU
0,321,1	1,320,13	14,210,13	27,208,13	40,206,13	53,211,13	66,203,13	79,201,13	92,214,13	105,197,13	118,195,13	131,194,13	144,192,13	157,190,13	170,189,13	183,187,13	196,185,13	209,184,13	222,182,13	235,226,13	248,178,13	261,176,13	274,228,13	287,173,13	300,171,13	313,231,13	326,239,13	339,238,13	352,242,13	365,234,13	378,233,13	391,245,13	404,165,13	417,164,13	430,247,13	443,248,13	456,159,13	469,250,13	482,155,13	495,153,13	508,252,13	521,253,13	534,148,13	547,146,13	560,144,13	573,142,13	586,140,13	599,258,13	612,137,13	625,135,13	638,133,13	651,261,13	664,129,13	677,263,13	690,264,13	703,124,13	716,122,13	729,266,13	742,118,13	755,117,13	768,269,13	781,113,13	794,112,13	807,271,13	820,107,13	833,106,13	846,274,13	859,103,13	872,101,13	885,276,13	898,97,13	911,95,13	924,279,13	937,92,13	950,90,13	963,80,13	976,78,13	989,76,13	1002,75,13	1015,73,13	1028,71,13	1041,70,13	1054,68,13	1067,89,13	1080,65,13	1093,63,13	1106,283,13	1119,60,13	1132,58,13	1145,286,13	1158,55,13	1171,54,13	1184,289,13	1197,50,13	1210,49,13	1223,292,13	1236,45,13	1249,44,13	1262,295,13	1275,304,13	1288,302,13	1301,306,13	1314,298,13	1327,296,13	1340,308,13	1353,37,13	1366,35,13	1379,33,13	1392,31,13	1405,29,13	1418,27,13	1431,17,13	1444,15,13	1457,14,13	1470,21,13	1483,22,13	1496,10,13	1509,1,13	1522,3,13	1535,6,13	1548,25,13	1561,314,13	1574,317,13	1587,319,13	1600,0,1	
5,216,13	18,205,13	31,200,13	44,215,13	57,191,13	70,188,13	83,225,13	96,179,13	109,174,13	122,170,13	135,237,13	148,244,13	161,166,13	174,161,13	187,157,13	200,152,13	213,254,13	226,143,13	239,139,13	252,260,13	265,130,13	278,126,13	291,121,13	304,268,13	317,270,13	330,108,13	343,104,13	356,99,13	369,278,13	382,280,13	395,77,13	408,74,13	421,88,13	434,281,13	447,61,13	460,57,13	473,53,13	486,291,13	499,293,13	512,41,13	525,300,13	538,40,13	551,309,13	564,30,13	577,26,13	590,20,13	603,23,13	616,4,13	629,313,13	
7,217,13	20,204,13	33,199,13	46,218,13	59,220,13	72,186,13	85,183,13	98,227,13	111,229,13	124,169,13	137,236,13	150,232,13	163,246,13	176,160,13	189,156,13	202,151,13	215,147,13	228,256,13	241,138,13	254,134,13	267,262,13	280,125,13	293,120,13	306,116,13	319,111,13	332,272,13	345,102,13	358,98,13	371,94,13	384,81,13	397,83,13	410,72,13	423,69,13	436,282,13	449,284,13	462,56,13	475,52,13	488,48,13	501,294,13	514,303,13	527,299,13	540,39,13	553,34,13	566,311,13	579,16,13	592,13,13	605,24,13	618,5,13	631,315,13	
9,207,13	22,202,13	35,198,13	48,219,13	61,221,13	74,223,13	87,181,13	100,177,13	113,230,13	126,240,13	139,235,13	152,168,13	165,163,13	178,249,13	191,154,13	204,150,13	217,255,13	230,141,13	243,259,13	256,132,13	269,128,13	282,265,13	295,119,13	308,115,13	321,110,13	334,273,13	347,275,13	360,96,13	373,93,13	386,82,13	399,84,13	412,86,13	425,67,13	438,64,13	451,285,13	464,287,13	477,51,13	490,47,13	503,43,13	516,305,13	529,297,13	542,38,13	555,310,13	568,28,13	581,18,13	594,12,13	607,9,13	620,7,13	633,316,13	
3,212,13	16,209,13	29,213,13	42,196,13	55,193,13	68,222,13	81,224,13	94,180,13	107,175,13	120,172,13	133,241,13	146,243,13	159,167,13	172,162,13	185,158,13	198,251,13	211,149,13	224,145,13	237,257,13	250,136,13	263,131,13	276,127,13	289,123,13	302,267,13	315,114,13	328,109,13	341,105,13	354,100,13	367,277,13	380,91,13	393,79,13	406,85,13	419,87,13	432,66,13	445,62,13	458,59,13	471,288,13	484,290,13	497,46,13	510,42,13	523,301,13	536,307,13	549,36,13	562,32,13	575,312,13	588,19,13	601,11,13	614,2,13	627,8,13	640,318,13	
# Incoming
16,(212, 0),8	24,(216, 0),8	32,(217, 0),8	40,(207, 0),8	48,(209, 0),8	56,(205, 0),8	64,(204, 0),8	72,(202, 0),8	80,(213, 0),8	88,(200, 0),8	96,(199, 0),8	104,(198, 0),8	112,(196, 0),8	120,(215, 0),8	128,(218, 0),8	136,(219, 0),8	144,(193, 0),8	152,(191, 0),8	160,(220, 0),8	168,(221, 0),8	176,(222, 0),8	184,(188, 0),8	192,(186, 0),8	200,(223, 0),8	208,(224, 0),8	216,(225, 0),8	224,(183, 0),8	232,(181, 0),8	240,(180, 0),8	248,(179, 0),8	256,(227, 0),8	264,(177, 0),8	272,(175, 0),8	280,(174, 0),8	288,(229, 0),8	296,(230, 0),8	304,(172, 0),8	312,(170, 0),8	320,(169, 0),8	328,(240, 0),8	336,(241, 0),8	344,(237, 0),8	352,(236, 0),8	360,(235, 0),8	368,(243, 0),8	376,(244, 0),8	384,(232, 0),8	392,(168, 0),8	400,(167, 0),8	408,(166, 0),8	416,(246, 0),8	424,(163, 0),8	432,(162, 0),8	440,(161, 0),8	448,(160, 0),8	456,(249, 0),8	464,(158, 0),8	472,(157, 0),8	480,(156, 0),8	488,(154, 0),8	496,(251, 0),8	504,(152, 0),8	512,(151, 0),8	520,(150, 0),8	528,(149, 0),8	536,(254, 0),8	544,(147, 0),8	552,(255, 0),8	560,(145, 0),8	568,(143, 0),8	576,(256, 0),8	584,(141, 0),8	592,(257, 0),8	600,(139, 0),8	608,(138, 0),8	616,(259, 0),8	624,(136, 0),8	632,(260, 0),8	640,(134, 0),8	648,(132, 0),8	656,(131, 0),8	664,(130, 0),8	672,(262, 0),8	680,(128, 0),8	688,(127, 0),8	696,(126, 0),8	704,(125, 0),8	712,(265, 0),8	720,(123, 0),8	728,(121, 0),8	736,(120, 0),8	744,(119, 0),8	752,(267, 0),8	760,(268, 0),8	768,(116, 0),8	776,(115, 0),8	784,(114, 0),8	792,(270, 0),8	800,(111, 0),8	808,(110, 0),8	816,(109, 0),8	824,(108, 0),8	832,(272, 0),8	840,(273, 0),8	848,(105, 0),8	856,(104, 0),8	864,(102, 0),8	872,(275, 0),8	880,(100, 0),8	888,(99, 0),8	896,(98, 0),8	904,(96, 0),8	912,(277, 0),8	920,(278, 0),8	928,(94, 0),8	936,(93, 0),8	944,(91, 0),8	952,(280, 0),8	960,(81, 0),8	968,(82, 0),8	976,(79, 0),8	984,(77, 0),8	992,(83, 0),8	1000,(84, 0),8	1008,(85, 0),8	1016,(74, 0),8	1024,(72, 0),8	1032,(86, 0),8	1040,(87, 0),8	1048,(88, 0),8	1056,(69, 0),8	1064,(67, 0),8	1072,(66, 0),8	1080,(281, 0),8	1088,(282, 0),8	1096,(64, 0),8	1104,(62, 0),8	1112,(61, 0),8	1120,(284, 0),8	1128,(285, 0),8	1136,(59, 0),8	1144,(57, 0),8	1152,(56, 0),8	1160,(287, 0),8	1168,(288, 0),8	1176,(53, 0),8	1184,(52, 0),8	1192,(51, 0),8	1200,(290, 0),8	1208,(291, 0),8	1216,(48, 0),8	1224,(47, 0),8	1232,(46, 0),8	1240,(293, 0),8	1248,(294, 0),8	1256,(43, 0),8	1264,(42, 0),8	1272,(41, 0),8	1280,(303, 0),8	1288,(305, 0),8	1296,(301, 0),8	1304,(300, 0),8	1312,(299, 0),8	1320,(297, 0),8	1328,(307, 0),8	1336,(40, 0),8	1344,(39, 0),8	1352,(38, 0),8	1360,(36, 0),8	1368,(309, 0),8	1376,(34, 0),8	1384,(310, 0),8	1392,(32, 0),8	1400,(30, 0),8	1408,(311, 0),8	1416,(28, 0),8	1424,(312, 0),8	1432,(26, 0),8	1440,(16, 0),8	1448,(18, 0),8	1456,(19, 0),8	1464,(20, 0),8	1472,(13, 0),8	1480,(12, 0),8	1488,(11, 0),8	1496,(23, 0),8	1504,(24, 0),8	1512,(9, 0),8	1520,(2, 0),8	1528,(4, 0),8	1536,(5, 0),8	1544,(7, 0),8	1552,(8, 0),8	1560,(313, 0),8	1568,(315, 0),8	1576,(316, 0),8	1584,(318, 0),8	
3,(321, 216),2	11,(321, 205),2	19,(321, 200),2	27,(321, 215),2	35,(321, 191),2	43,(321, 188),2	51,(321, 225),2	59,(321, 179),2	67,(321, 174),2	75,(321, 170),2	83,(321, 237),2	91,(321, 244),2	99,(321, 166),2	107,(321, 161),2	115,(321, 157),2	123,(321, 152),2	131,(321, 254),2	139,(321, 143),2	147,(321, 139),2	155,(321, 260),2	163,(321, 130),2	171,(321, 126),2	179,(321, 121),2	187,(321, 268),2	195,(321, 270),2	203,(321, 108),2	211,(321, 104),2	219,(321, 99),2	227,(321, 278),2	235,(321, 280),2	243,(321, 77),2	251,(321, 74),2	259,(321, 88),2	267,(321, 281),2	275,(321, 61),2	283,(321, 57),2	291,(321, 53),2	299,(321, 291),2	307,(321, 293),2	315,(321, 41),2	323,(321, 300),2	331,(321, 40),2	339,(321, 309),2	347,(321, 30),2	355,(321, 26),2	363,(321, 20),2	371,(321, 23),2	379,(321, 4),2	387,(321, 313),2	
5,(321, 217),2	13,(321, 204),2	21,(321, 199),2	29,(321, 218),2	37,(321, 220),2	45,(321, 186),2	53,(321, 183),2	61,(321, 227),2	69,(321, 229),2	77,(321, 169),2	85,(321, 236),2	93,(321, 232),2	101,(321, 246),2	109,(321, 160),2	117,(321, 156),2	125,(321, 151),2	133,(321, 147),2	141,(321, 256),2	149,(321, 138),2	157,(321, 134),2	165,(321, 262),2	173,(321, 125),2	181,(321, 120),2	189,(321, 116),2	197,(321, 111),2	205,(321, 272),2	213,(321, 102),2	221,(321, 98),2	229,(321, 94),2	237,(321, 81),2	245,(321, 83),2	253,(321, 72),2	261,(321, 69),2	269,(321, 282),2	277,(321, 284),2	285,(321, 56),2	293,(321, 52),2	301,(321, 48),2	309,(321, 294),2	317,(321, 303),2	325,(321, 299),2	333,(321, 39),2	341,(321, 34),2	349,(321, 311),2	357,(321, 16),2	365,(321, 13),2	373,(321, 24),2	381,(321, 5),2	389,(321, 315),2	
7,(321, 207),2	15,(321, 202),2	23,(321, 198),2	31,(321, 219),2	39,(321, 221),2	47,(321, 223),2	55,(321, 181),2	63,(321, 177),2	71,(321, 230),2	79,(321, 240),2	87,(321, 235),2	95,(321, 168),2	103,(321, 163),2	111,(321, 249),2	119,(321, 154),2	127,(321, 150),2	135,(321, 255),2	143,(321, 141),2	151,(321, 259),2	159,(321, 132),2	167,(321, 128),2	175,(321, 265),2	183,(321, 119),2	191,(321, 115),2	199,(321, 110),2	207,(321, 273),2	215,(321, 275),2	223,(321, 96),2	231,(321, 93),2	239,(321, 82),2	247,(321, 84),2	255,(321, 86),2	263,(321, 67),2	271,(321, 64),2	279,(321, 285),2	287,(321, 287),2	295,(321, 51),2	303,(321, 47),2	311,(321, 43),2	319,(321, 305),2	327,(321, 297),2	335,(321, 38),2	343,(321, 310),2	351,(321, 28),2	359,(321, 18),2	367,(321, 12),2	375,(321, 9),2	383,(321, 7),2	391,(321, 316),2	
1,(321, 212),2	9,(321, 209),2	17,(321, 213),2	25,(321, 196),2	33,(321, 193),2	41,(321, 222),2	49,(321, 224),2	57,(321, 180),2	65,(321, 175),2	73,(321, 172),2	81,(321, 241),2	89,(321, 243),2	97,(321, 167),2	105,(321, 162),2	113,(321, 158),2	121,(321, 251),2	129,(321, 149),2	137,(321, 145),2	145,(321, 257),2	153,(321, 136),2	161,(321, 131),2	169,(321, 127),2	177,(321, 123),2	185,(321, 267),2	193,(321, 114),2	201,(321, 109),2	209,(321, 105),2	217,(321, 100),2	225,(321, 277),2	233,(321, 91),2	241,(321, 79),2	249,(321, 85),2	257,(321, 87),2	265,(321, 66),2	273,(321, 62),2	281,(321, 59),2	289,(321, 288),2	297,(321, 290),2	305,(321, 46),2	313,(321, 42),2	321,(321, 301),2	329,(321, 307),2	337,(321, 36),2	345,(321, 32),2	353,(321, 312),2	361,(321, 19),2	369,(321, 11),2	377,(321, 2),2	385,(321, 8),2	393,(321, 318),2	
# Outgoing
1,(321, 212),2	3,(321, 216),2	5,(321, 217),2	7,(321, 207),2	9,(321, 209),2	11,(321, 205),2	13,(321, 204),2	15,(321, 202),2	17,(321, 213),2	19,(321, 200),2	21,(321, 199),2	23,(321, 198),2	25,(321, 196),2	27,(321, 215),2	29,(321, 218),2	31,(321, 219),2	33,(321, 193),2	35,(321, 191),2	37,(321, 220),2	39,(321, 221),2	41,(321, 222),2	43,(321, 188),2	45,(321, 186),2	47,(321, 223),2	49,(321, 224),2	51,(321, 225),2	53,(321, 183),2	55,(321, 181),2	57,(321, 180),2	59,(321, 179),2	61,(321, 227),2	63,(321, 177),2	65,(321, 175),2	67,(321, 174),2	69,(321, 229),2	71,(321, 230),2	73,(321, 172),2	75,(321, 170),2	77,(321, 169),2	79,(321, 240),2	81,(321, 241),2	83,(321, 237),2	85,(321, 236),2	87,(321, 235),2	89,(321, 243),2	91,(321, 244),2	93,(321, 232),2	95,(321, 168),2	97,(321, 167),2	99,(321, 166),2	101,(321, 246),2	103,(321, 163),2	105,(321, 162),2	107,(321, 161),2	109,(321, 160),2	111,(321, 249),2	113,(321, 158),2	115,(321, 157),2	117,(321, 156),2	119,(321, 154),2	121,(321, 251),2	123,(321, 152),2	125,(321, 151),2	127,(321, 150),2	129,(321, 149),2	131,(321, 254),2	133,(321, 147),2	135,(321, 255),2	137,(321, 145),2	139,(321, 143),2	141,(321, 256),2	143,(321, 141),2	145,(321, 257),2	147,(321, 139),2	149,(321, 138),2	151,(321, 259),2	153,(321, 136),2	155,(321, 260),2	157,(321, 134),2	159,(321, 132),2	161,(321, 131),2	163,(321, 130),2	165,(321, 262),2	167,(321, 128),2	169,(321, 127),2	171,(321, 126),2	173,(321, 125),2	175,(321, 265),2	177,(321, 123),2	179,(321, 121),2	181,(321, 120),2	183,(321, 119),2	185,(321, 267),2	187,(321, 268),2	189,(321, 116),2	191,(321, 115),2	193,(321, 114),2	195,(321, 270),2	197,(321, 111),2	199,(321, 110),2	201,(321, 109),2	203,(321, 108),2	205,(321, 272),2	207,(321, 273),2	209,(321, 105),2	211,(321, 104),2	213,(321, 102),2	215,(321, 275),2	217,(321, 100),2	219,(321, 99),2	221,(321, 98),2	223,(321, 96),2	225,(321, 277),2	227,(321, 278),2	229,(321, 94),2	231,(321, 93),2	233,(321, 91),2	235,(321, 280),2	237,(321, 81),2	239,(321, 82),2	241,(321, 79),2	243,(321, 77),2	245,(321, 83),2	247,(321, 84),2	249,(321, 85),2	251,(321, 74),2	253,(321, 72),2	255,(321, 86),2	257,(321, 87),2	259,(321, 88),2	261,(321, 69),2	263,(321, 67),2	265,(321, 66),2	267,(321, 281),2	269,(321, 282),2	271,(321, 64),2	273,(321, 62),2	275,(321, 61),2	277,(321, 284),2	279,(321, 285),2	281,(321, 59),2	283,(321, 57),2	285,(321, 56),2	287,(321, 287),2	289,(321, 288),2	291,(321, 53),2	293,(321, 52),2	295,(321, 51),2	297,(321, 290),2	299,(321, 291),2	301,(321, 48),2	303,(321, 47),2	305,(321, 46),2	307,(321, 293),2	309,(321, 294),2	311,(321, 43),2	313,(321, 42),2	315,(321, 41),2	317,(321, 303),2	319,(321, 305),2	321,(321, 301),2	323,(321, 300),2	325,(321, 299),2	327,(321, 297),2	329,(321, 307),2	331,(321, 40),2	333,(321, 39),2	335,(321, 38),2	337,(321, 36),2	339,(321, 309),2	341,(321, 34),2	343,(321, 310),2	345,(321, 32),2	347,(321, 30),2	349,(321, 311),2	351,(321, 28),2	353,(321, 312),2	355,(321, 26),2	357,(321, 16),2	359,(321, 18),2	361,(321, 19),2	363,(321, 20),2	365,(321, 13),2	367,(321, 12),2	369,(321, 11),2	371,(321, 23),2	373,(321, 24),2	375,(321, 9),2	377,(321, 2),2	379,(321, 4),2	381,(321, 5),2	383,(321, 7),2	385,(321, 8),2	387,(321, 313),2	389,(321, 315),2	391,(321, 316),2	393,(321, 318),2	
24,(216, 0),8	56,(205, 0),8	88,(200, 0),8	120,(215, 0),8	152,(191, 0),8	184,(188, 0),8	216,(225, 0),8	248,(179, 0),8	280,(174, 0),8	312,(170, 0),8	344,(237, 0),8	376,(244, 0),8	408,(166, 0),8	440,(161, 0),8	472,(157, 0),8	504,(152, 0),8	536,(254, 0),8	568,(143, 0),8	600,(139, 0),8	632,(260, 0),8	664,(130, 0),8	696,(126, 0),8	728,(121, 0),8	760,(268, 0),8	792,(270, 0),8	824,(108, 0),8	856,(104, 0),8	888,(99, 0),8	920,(278, 0),8	952,(280, 0),8	984,(77, 0),8	1016,(74, 0),8	1048,(88, 0),8	1080,(281, 0),8	1112,(61, 0),8	1144,(57, 0),8	1176,(53, 0),8	1208,(291, 0),8	1240,(293, 0),8	1272,(41, 0),8	1304,(300, 0),8	1336,(40, 0),8	1368,(309, 0),8	1400,(30, 0),8	1432,(26, 0),8	1464,(20, 0),8	1496,(23, 0),8	1528,(4, 0),8	1560,(313, 0),8	
32,(217, 0),8	64,(204, 0),8	96,(199, 0),8	128,(218, 0),8	160,(220, 0),8	192,(186, 0),8	224,(183, 0),8	256,(227, 0),8	288,(229, 0),8	320,(169, 0),8	352,(236, 0),8	384,(232, 0),8	416,(246, 0),8	448,(160, 0),8	480,(156, 0),8	512,(151, 0),8	544,(147, 0),8	576,(256, 0),8	608,(138, 0),8	640,(134, 0),8	672,(262, 0),8	704,(125, 0),8	736,(120, 0),8	768,(116, 0),8	800,(111, 0),8	832,(272, 0),8	864,(102, 0),8	896,(98, 0),8	928,(94, 0),8	960,(81, 0),8	992,(83, 0),8	1024,(72, 0),8	1056,(69, 0),8	1088,(282, 0),8	1120,(284, 0),8	1152,(56, 0),8	1184,(52, 0),8	1216,(48, 0),8	1248,(294, 0),8	1280,(303, 0),8	1312,(299, 0),8	1344,(39, 0),8	1376,(34, 0),8	1408,(311, 0),8	1440,(16, 0),8	1472,(13, 0),8	1504,(24, 0),8	1536,(5, 0),8	1568,(315, 0),8	
40,(207, 0),8	72,(202, 0),8	104,(198, 0),8	136,(219, 0),8	168,(221, 0),8	200,(223, 0),8	232,(181, 0),8	264,(177, 0),8	296,(230, 0),8	328,(240, 0),8	360,(235, 0),8	392,(168, 0),8	424,(163, 0),8	456,(249, 0),8	488,(154, 0),8	520,(150, 0),8	552,(255, 0),8	584,(141, 0),8	616,(259, 0),8	648,(132, 0),8	680,(128, 0),8	712,(265, 0),8	744,(119, 0),8	776,(115, 0),8	808,(110, 0),8	840,(273, 0),8	872,(275, 0),8	904,(96, 0),8	936,(93, 0),8	968,(82, 0),8	1000,(84, 0),8	1032,(86, 0),8	1064,(67, 0),8	1096,(64, 0),8	1128,(285, 0),8	1160,(287, 0),8	1192,(51, 0),8	1224,(47, 0),8	1256,(43, 0),8	1288,(305, 0),8	1320,(297, 0),8	1352,(38, 0),8	1384,(310, 0),8	1416,(28, 0),8	1448,(18, 0),8	1480,(12, 0),8	1512,(9, 0),8	1544,(7, 0),8	1576,(316, 0),8	
16,(212, 0),8	48,(209, 0),8	80,(213, 0),8	112,(196, 0),8	144,(193, 0),8	176,(222, 0),8	208,(224, 0),8	240,(180, 0),8	272,(175, 0),8	304,(172, 0),8	336,(241, 0),8	368,(243, 0),8	400,(167, 0),8	432,(162, 0),8	464,(158, 0),8	496,(251, 0),8	528,(149, 0),8	560,(145, 0),8	592,(257, 0),8	624,(136, 0),8	656,(131, 0),8	688,(127, 0),8	720,(123, 0),8	752,(267, 0),8	784,(114, 0),8	816,(109, 0),8	848,(105, 0),8	880,(100, 0),8	912,(277, 0),8	944,(91, 0),8	976,(79, 0),8	1008,(85, 0),8	1040,(87, 0),8	1072,(66, 0),8	1104,(62, 0),8	1136,(59, 0),8	1168,(288, 0),8	1200,(290, 0),8	1232,(46, 0),8	1264,(42, 0),8	1296,(301, 0),8	1328,(307, 0),8	1360,(36, 0),8	1392,(32, 0),8	1424,(312, 0),8	1456,(19, 0),8	1488,(11, 0),8	1520,(2, 0),8	1552,(8, 0),8	1584,(318, 0),8	
