6722
# CPU
0,0,1	1,1,21	22,3,21	43,7,21	64,15,21	85,31,21	106,63,21	127,127,21	148,255,21	169,320,21	190,319,21	211,318,21	232,317,21	253,316,21	274,315,21	295,314,21	316,313,21	337,312,21	358,311,21	379,310,21	400,309,21	421,308,21	442,307,21	463,306,21	484,305,21	505,304,21	526,303,21	547,302,21	568,301,21	589,300,21	610,299,21	631,298,21	652,297,21	673,296,21	694,295,21	715,294,21	736,293,21	757,292,21	778,291,21	799,290,21	820,289,21	841,288,21	862,287,21	883,286,21	904,285,21	925,284,21	946,283,21	967,282,21	988,281,21	1009,280,21	1030,279,21	1051,278,21	1072,277,21	1093,276,21	1114,275,21	1135,274,21	1156,273,21	1177,272,21	1198,271,21	1219,270,21	1240,269,21	1261,268,21	1282,267,21	1303,266,21	1324,265,21	1345,264,21	1366,263,21	1387,262,21	1408,261,21	1429,260,21	1450,259,21	1471,258,21	1492,257,21	1513,254,21	1534,256,21	1555,253,21	1576,252,21	1597,251,21	1618,250,21	1639,249,21	1660,248,21	1681,247,21	1702,246,21	1723,245,21	1744,244,21	1765,243,21	1786,242,21	1807,241,21	1828,240,21	1849,239,21	1870,238,21	1891,237,21	1912,236,21	1933,235,21	1954,234,21	1975,233,21	1996,232,21	2017,231,21	2038,230,21	2059,229,21	2080,228,21	2101,227,21	2122,226,21	2143,225,21	2164,224,21	2185,223,21	2206,222,21	2227,221,21	2248,220,21	2269,219,21	2290,218,21	2311,217,21	2332,216,21	2353,215,21	2374,214,21	2395,213,21	2416,212,21	2437,211,21	2458,210,21	2479,209,21	2500,208,21	2521,207,21	2542,206,21	2563,205,21	2584,204,21	2605,203,21	2626,202,21	2647,201,21	2668,200,21	2689,199,21	2710,198,21	2731,197,21	2752,196,21	2773,195,21	2794,194,21	2815,193,21	2836,192,21	2857,191,21	2878,190,21	2899,189,21	2920,188,21	2941,187,21	2962,186,21	2983,185,21	3004,184,21	3025,183,21	3046,182,21	3067,181,21	3088,180,21	3109,179,21	3130,178,21	3151,177,21	3172,176,21	3193,175,21	3214,174,21	3235,173,21	3256,172,21	3277,171,21	3298,170,21	3319,169,21	3340,168,21	3361,167,21	3382,166,21	3403,165,21	3424,164,21	3445,163,21	3466,162,21	3487,161,21	3508,160,21	3529,159,21	3550,158,21	3571,157,21	3592,156,21	3613,155,21	3634,154,21	3655,153,21	3676,152,21	3697,151,21	3718,150,21	3739,149,21	3760,148,21	3781,147,21	3802,146,21	3823,145,21	3844,144,21	3865,143,21	3886,142,21	3907,141,21	3928,140,21	3949,139,21	3970,138,21	3991,137,21	4012,136,21	4033,135,21	4054,134,21	4075,133,21	4096,132,21	4117,131,21	4138,130,21	4159,129,21	4180,126,21	4201,128,21	4222,125,21	4243,124,21	4264,123,21	4285,122,21	4306,121,21	4327,120,21	4348,119,21	4369,118,21	4390,117,21	4411,116,21	4432,115,21	4453,114,21	4474,113,21	4495,112,21	4516,111,21	4537,110,21	4558,109,21	4579,108,21	4600,107,21	4621,106,21	4642,105,21	4663,104,21	4684,103,21	4705,102,21	4726,101,21	4747,100,21	4768,99,21	4789,98,21	4810,97,21	4831,96,21	4852,95,21	4873,94,21	4894,93,21	4915,92,21	4936,91,21	4957,90,21	4978,89,21	4999,88,21	5020,87,21	5041,86,21	5062,85,21	5083,84,21	5104,83,21	5125,82,21	5146,81,21	5167,80,21	5188,79,21	5209,78,21	5230,77,21	5251,76,21	5272,75,21	5293,74,21	5314,73,21	5335,72,21	5356,71,21	5377,70,21	5398,69,21	5419,68,21	5440,67,21	5461,66,21	5482,65,21	5503,62,21	5524,64,21	5545,61,21	5566,60,21	5587,59,21	5608,58,21	5629,57,21	5650,56,21	5671,55,21	5692,54,21	5713,53,21	5734,52,21	5755,51,21	5776,50,21	5797,49,21	5818,48,21	5839,47,21	5860,46,21	5881,45,21	5902,44,21	5923,43,21	5944,42,21	5965,41,21	5986,40,21	6007,39,21	6028,38,21	6049,37,21	6070,36,21	6091,35,21	6112,34,21	6133,33,21	6154,30,21	6175,32,21	6196,29,21	6217,28,21	6238,27,21	6259,26,21	6280,25,21	6301,24,21	6322,23,21	6343,22,21	6364,21,21	6385,20,21	6406,19,21	6427,18,21	6448,17,21	6469,14,21	6490,16,21	6511,13,21	6532,12,21	6553,11,21	6574,10,21	6595,9,21	6616,6,21	6637,8,21	6658,5,21	6679,2,21	6700,4,21	6721,321,1	

# Incoming


# Outgoing


