959
# CPU
0,321,1	1,320,3	4,210,3	7,211,3	10,209,3	13,208,3	16,207,3	19,212,3	22,206,3	25,213,3	28,205,3	31,214,3	34,204,3	37,203,3	40,202,3	43,215,3	46,201,3	49,200,3	52,199,3	55,216,3	58,198,3	61,197,3	64,196,3	67,217,3	70,195,3	73,218,3	76,194,3	79,219,3	82,193,3	85,192,3	88,191,3	91,220,3	94,190,3	97,221,3	100,189,3	103,222,3	106,188,3	109,187,3	112,186,3	115,223,3	118,185,3	121,224,3	124,184,3	127,225,3	130,183,3	133,182,3	136,181,3	139,226,3	142,180,3	145,179,3	148,178,3	151,227,3	154,177,3	157,176,3	160,175,3	163,228,3	166,174,3	169,229,3	172,173,3	175,230,3	178,172,3	181,171,3	184,170,3	187,231,3	190,169,3	193,240,3	196,239,3	199,241,3	202,238,3	205,237,3	208,236,3	211,242,3	214,235,3	217,243,3	220,234,3	223,244,3	226,233,3	229,232,3	232,168,3	235,245,3	238,167,3	241,166,3	244,165,3	247,246,3	250,164,3	253,163,3	256,162,3	259,247,3	262,161,3	265,248,3	268,160,3	271,249,3	274,159,3	277,158,3	280,157,3	283,250,3	286,156,3	289,155,3	292,154,3	295,251,3	298,153,3	301,152,3	304,151,3	307,252,3	310,150,3	313,253,3	316,149,3	319,254,3	322,148,3	325,147,3	328,146,3	331,255,3	334,145,3	337,144,3	340,143,3	343,256,3	346,142,3	349,141,3	352,140,3	355,257,3	358,139,3	361,258,3	364,138,3	367,259,3	370,137,3	373,136,3	376,135,3	379,260,3	382,134,3	385,133,3	388,132,3	391,261,3	394,131,3	397,130,3	400,129,3	403,262,3	406,128,3	409,263,3	412,127,3	415,264,3	418,126,3	421,125,3	424,124,3	427,265,3	430,123,3	433,122,3	436,121,3	439,266,3	442,120,3	445,119,3	448,118,3	451,267,3	454,117,3	457,268,3	460,116,3	463,269,3	466,115,3	469,114,3	472,113,3	475,270,3	478,112,3	481,111,3	484,110,3	487,271,3	490,109,3	493,108,3	496,107,3	499,272,3	502,106,3	505,273,3	508,105,3	511,274,3	514,104,3	517,103,3	520,102,3	523,275,3	526,101,3	529,100,3	532,99,3	535,276,3	538,98,3	541,97,3	544,96,3	547,277,3	550,95,3	553,278,3	556,94,3	559,279,3	562,93,3	565,92,3	568,91,3	571,280,3	574,90,3	577,81,3	580,80,3	583,82,3	586,79,3	589,78,3	592,77,3	595,83,3	598,76,3	601,84,3	604,75,3	607,85,3	610,74,3	613,73,3	616,72,3	619,86,3	622,71,3	625,87,3	628,70,3	631,88,3	634,69,3	637,68,3	640,67,3	643,89,3	646,66,3	649,281,3	652,65,3	655,282,3	658,64,3	661,63,3	664,62,3	667,283,3	670,61,3	673,284,3	676,60,3	679,285,3	682,59,3	685,58,3	688,57,3	691,56,3	694,286,3	697,55,3	700,287,3	703,54,3	706,53,3	709,52,3	712,288,3	715,51,3	718,289,3	721,50,3	724,291,3	727,49,3	730,48,3	733,47,3	736,292,3	739,46,3	742,293,3	745,45,3	748,294,3	751,44,3	754,43,3	757,42,3	760,295,3	763,41,3	766,304,3	769,303,3	772,305,3	775,302,3	778,301,3	781,300,3	784,306,3	787,299,3	790,298,3	793,297,3	796,307,3	799,296,3	802,40,3	805,39,3	808,308,3	811,38,3	814,37,3	817,36,3	820,309,3	823,35,3	826,34,3	829,33,3	832,310,3	835,32,3	838,31,3	841,30,3	844,311,3	847,29,3	850,28,3	853,27,3	856,312,3	859,26,3	862,17,3	865,16,3	868,18,3	871,15,3	874,19,3	877,14,3	880,20,3	883,13,3	886,21,3	889,12,3	892,22,3	895,11,3	898,23,3	901,10,3	904,24,3	907,9,3	910,1,3	913,2,3	916,3,3	919,4,3	922,5,3	925,6,3	928,7,3	931,8,3	934,25,3	937,313,3	940,314,3	943,315,3	946,316,3	949,317,3	952,318,3	955,319,3	958,0,1	

677,290,3	







# Incoming
680,(290, 0),8	

1,(321, 290),676	







# Outgoing
1,(321, 290),676	

680,(290, 0),8	







