736
# CPU
73,4,2	145,8,2	217,12,2	289,16,2	361,20,2	433,24,2	505,28,2	577,32,2	649,36,2	721,40,2	
49,3,2	121,7,2	193,11,2	265,15,2	337,19,2	409,23,2	481,27,2	553,31,2	625,35,2	697,39,2	
25,2,2	97,6,2	169,10,2	241,14,2	313,18,2	385,22,2	457,26,2	529,30,2	601,34,2	673,38,2	
0,0,1	1,1,2	3,9,2	5,25,2	7,37,2	9,33,2	11,21,2	13,29,2	15,17,2	17,5,2	19,13,2	735,41,1	
# Incoming
49,(0, 4),24	121,(0, 8),24	193,(0, 12),24	265,(0, 16),24	337,(0, 20),24	409,(0, 24),24	481,(0, 28),24	553,(0, 32),24	625,(0, 36),24	697,(0, 40),24	
25,(0, 3),24	97,(0, 7),24	169,(0, 11),24	241,(0, 15),24	313,(0, 19),24	385,(0, 23),24	457,(0, 27),24	529,(0, 31),24	601,(0, 35),24	673,(0, 39),24	
1,(0, 2),24	73,(0, 6),24	145,(0, 10),24	217,(0, 14),24	289,(0, 18),24	361,(0, 22),24	433,(0, 26),24	505,(0, 30),24	577,(0, 34),24	649,(0, 38),24	
27,(2, 41),12	51,(3, 41),12	75,(4, 41),12	99,(6, 41),12	123,(7, 41),12	147,(8, 41),12	171,(10, 41),12	195,(11, 41),12	219,(12, 41),12	243,(14, 41),12	267,(15, 41),12	291,(16, 41),12	315,(18, 41),12	339,(19, 41),12	363,(20, 41),12	387,(22, 41),12	411,(23, 41),12	435,(24, 41),12	459,(26, 41),12	483,(27, 41),12	507,(28, 41),12	531,(30, 41),12	555,(31, 41),12	579,(32, 41),12	603,(34, 41),12	627,(35, 41),12	651,(36, 41),12	675,(38, 41),12	699,(39, 41),12	723,(40, 41),12	
# Outgoing
75,(4, 41),12	147,(8, 41),12	219,(12, 41),12	291,(16, 41),12	363,(20, 41),12	435,(24, 41),12	507,(28, 41),12	579,(32, 41),12	651,(36, 41),12	723,(40, 41),12	
51,(3, 41),12	123,(7, 41),12	195,(11, 41),12	267,(15, 41),12	339,(19, 41),12	411,(23, 41),12	483,(27, 41),12	555,(31, 41),12	627,(35, 41),12	699,(39, 41),12	
27,(2, 41),12	99,(6, 41),12	171,(10, 41),12	243,(14, 41),12	315,(18, 41),12	387,(22, 41),12	459,(26, 41),12	531,(30, 41),12	603,(34, 41),12	675,(38, 41),12	
1,(0, 2),24	25,(0, 3),24	49,(0, 4),24	73,(0, 6),24	97,(0, 7),24	121,(0, 8),24	145,(0, 10),24	169,(0, 11),24	193,(0, 12),24	217,(0, 14),24	241,(0, 15),24	265,(0, 16),24	289,(0, 18),24	313,(0, 19),24	337,(0, 20),24	361,(0, 22),24	385,(0, 23),24	409,(0, 24),24	433,(0, 26),24	457,(0, 27),24	481,(0, 28),24	505,(0, 30),24	529,(0, 31),24	553,(0, 32),24	577,(0, 34),24	601,(0, 35),24	625,(0, 36),24	649,(0, 38),24	673,(0, 39),24	697,(0, 40),24	
