73
# CPU
9,5,5	17,10,5	25,15,5	33,20,5	41,25,5	49,30,5	57,35,5	65,40,5	
7,4,5	15,9,5	23,14,5	31,19,5	39,24,5	47,29,5	55,34,5	63,39,5	
5,3,5	13,8,5	21,13,5	29,18,5	37,23,5	45,28,5	53,33,5	61,38,5	
3,2,5	11,7,5	19,12,5	27,17,5	35,22,5	43,27,5	51,32,5	59,37,5	
0,0,1	1,1,5	6,11,5	11,31,5	16,26,5	21,36,5	26,21,5	31,6,5	36,16,5	72,41,1	
# Incoming
7,(0, 5),2	15,(0, 10),2	23,(0, 15),2	31,(0, 20),2	39,(0, 25),2	47,(0, 30),2	55,(0, 35),2	63,(0, 40),2	
5,(0, 4),2	13,(0, 9),2	21,(0, 14),2	29,(0, 19),2	37,(0, 24),2	45,(0, 29),2	53,(0, 34),2	61,(0, 39),2	
3,(0, 3),2	11,(0, 8),2	19,(0, 13),2	27,(0, 18),2	35,(0, 23),2	43,(0, 28),2	51,(0, 33),2	59,(0, 38),2	
1,(0, 2),2	9,(0, 7),2	17,(0, 12),2	25,(0, 17),2	33,(0, 22),2	41,(0, 27),2	49,(0, 32),2	57,(0, 37),2	
8,(2, 41),2	10,(3, 41),2	12,(4, 41),2	14,(5, 41),2	16,(7, 41),2	18,(8, 41),2	20,(9, 41),2	22,(10, 41),2	24,(12, 41),2	26,(13, 41),2	28,(14, 41),2	30,(15, 41),2	32,(17, 41),2	34,(18, 41),2	36,(19, 41),2	38,(20, 41),2	40,(22, 41),2	42,(23, 41),2	44,(24, 41),2	46,(25, 41),2	48,(27, 41),2	50,(28, 41),2	52,(29, 41),2	54,(30, 41),2	56,(32, 41),2	58,(33, 41),2	60,(34, 41),2	62,(35, 41),2	64,(37, 41),2	66,(38, 41),2	68,(39, 41),2	70,(40, 41),2	
# Outgoing
14,(5, 41),2	22,(10, 41),2	30,(15, 41),2	38,(20, 41),2	46,(25, 41),2	54,(30, 41),2	62,(35, 41),2	70,(40, 41),2	
12,(4, 41),2	20,(9, 41),2	28,(14, 41),2	36,(19, 41),2	44,(24, 41),2	52,(29, 41),2	60,(34, 41),2	68,(39, 41),2	
10,(3, 41),2	18,(8, 41),2	26,(13, 41),2	34,(18, 41),2	42,(23, 41),2	50,(28, 41),2	58,(33, 41),2	66,(38, 41),2	
8,(2, 41),2	16,(7, 41),2	24,(12, 41),2	32,(17, 41),2	40,(22, 41),2	48,(27, 41),2	56,(32, 41),2	64,(37, 41),2	
1,(0, 2),2	3,(0, 3),2	5,(0, 4),2	7,(0, 5),2	9,(0, 7),2	11,(0, 8),2	13,(0, 9),2	15,(0, 10),2	17,(0, 12),2	19,(0, 13),2	21,(0, 14),2	23,(0, 15),2	25,(0, 17),2	27,(0, 18),2	29,(0, 19),2	31,(0, 20),2	33,(0, 22),2	35,(0, 23),2	37,(0, 24),2	39,(0, 25),2	41,(0, 27),2	43,(0, 28),2	45,(0, 29),2	47,(0, 30),2	49,(0, 32),2	51,(0, 33),2	53,(0, 34),2	55,(0, 35),2	57,(0, 37),2	59,(0, 38),2	61,(0, 39),2	63,(0, 40),2	
