293
# CPU
19,10,1	37,20,1	55,30,1	73,40,1	
17,9,1	35,19,1	53,29,1	71,39,1	
15,8,1	33,18,1	51,28,1	69,38,1	
13,7,1	31,17,1	49,27,1	67,37,1	
11,6,1	29,16,1	47,26,1	65,36,1	
9,5,1	27,15,1	45,25,1	63,35,1	
7,4,1	25,14,1	43,24,1	61,34,1	
5,3,1	23,13,1	41,23,1	59,33,1	
3,2,1	21,12,1	39,22,1	57,32,1	
0,0,1	1,1,1	2,21,1	3,11,1	4,31,1	292,41,1	
# Incoming
17,(0, 10),2	35,(0, 20),2	53,(0, 30),2	71,(0, 40),2	
15,(0, 9),2	33,(0, 19),2	51,(0, 29),2	69,(0, 39),2	
13,(0, 8),2	31,(0, 18),2	49,(0, 28),2	67,(0, 38),2	
11,(0, 7),2	29,(0, 17),2	47,(0, 27),2	65,(0, 37),2	
9,(0, 6),2	27,(0, 16),2	45,(0, 26),2	63,(0, 36),2	
7,(0, 5),2	25,(0, 15),2	43,(0, 25),2	61,(0, 35),2	
5,(0, 4),2	23,(0, 14),2	41,(0, 24),2	59,(0, 34),2	
3,(0, 3),2	21,(0, 13),2	39,(0, 23),2	57,(0, 33),2	
1,(0, 2),2	19,(0, 12),2	37,(0, 22),2	55,(0, 32),2	
4,(2, 41),8	12,(3, 41),8	20,(4, 41),8	28,(5, 41),8	36,(6, 41),8	44,(7, 41),8	52,(8, 41),8	60,(9, 41),8	68,(10, 41),8	76,(12, 41),8	84,(13, 41),8	92,(14, 41),8	100,(15, 41),8	108,(16, 41),8	116,(17, 41),8	124,(18, 41),8	132,(19, 41),8	140,(20, 41),8	148,(22, 41),8	156,(23, 41),8	164,(24, 41),8	172,(25, 41),8	180,(26, 41),8	188,(27, 41),8	196,(28, 41),8	204,(29, 41),8	212,(30, 41),8	220,(32, 41),8	228,(33, 41),8	236,(34, 41),8	244,(35, 41),8	252,(36, 41),8	260,(37, 41),8	268,(38, 41),8	276,(39, 41),8	284,(40, 41),8	
# Outgoing
68,(10, 41),8	140,(20, 41),8	212,(30, 41),8	284,(40, 41),8	
60,(9, 41),8	132,(19, 41),8	204,(29, 41),8	276,(39, 41),8	
52,(8, 41),8	124,(18, 41),8	196,(28, 41),8	268,(38, 41),8	
44,(7, 41),8	116,(17, 41),8	188,(27, 41),8	260,(37, 41),8	
36,(6, 41),8	108,(16, 41),8	180,(26, 41),8	252,(36, 41),8	
28,(5, 41),8	100,(15, 41),8	172,(25, 41),8	244,(35, 41),8	
20,(4, 41),8	92,(14, 41),8	164,(24, 41),8	236,(34, 41),8	
12,(3, 41),8	84,(13, 41),8	156,(23, 41),8	228,(33, 41),8	
4,(2, 41),8	76,(12, 41),8	148,(22, 41),8	220,(32, 41),8	
1,(0, 2),2	3,(0, 3),2	5,(0, 4),2	7,(0, 5),2	9,(0, 6),2	11,(0, 7),2	13,(0, 8),2	15,(0, 9),2	17,(0, 10),2	19,(0, 12),2	21,(0, 13),2	23,(0, 14),2	25,(0, 15),2	27,(0, 16),2	29,(0, 17),2	31,(0, 18),2	33,(0, 19),2	35,(0, 20),2	37,(0, 22),2	39,(0, 23),2	41,(0, 24),2	43,(0, 25),2	45,(0, 26),2	47,(0, 27),2	49,(0, 28),2	51,(0, 29),2	53,(0, 30),2	55,(0, 32),2	57,(0, 33),2	59,(0, 34),2	61,(0, 35),2	63,(0, 36),2	65,(0, 37),2	67,(0, 38),2	69,(0, 39),2	71,(0, 40),2	
