4007
# CPU
307,3,9	613,6,9	919,9,9	1225,12,9	1531,15,9	1837,18,9	2143,21,9	2449,24,9	2755,27,9	3061,30,9	3367,33,9	3673,36,9	3979,39,9	
154,2,9	460,5,9	766,8,9	1072,11,9	1378,14,9	1684,17,9	1990,20,9	2296,23,9	2602,26,9	2908,29,9	3214,32,9	3520,35,9	3826,38,9	
0,0,1	1,1,9	10,7,9	19,19,9	28,40,9	37,37,9	46,34,9	55,31,9	64,28,9	73,25,9	82,16,9	91,22,9	100,13,9	109,4,9	118,10,9	4006,41,1	
# Incoming
154,(0, 3),153	460,(0, 6),153	766,(0, 9),153	1072,(0, 12),153	1378,(0, 15),153	1684,(0, 18),153	1990,(0, 21),153	2296,(0, 24),153	2602,(0, 27),153	2908,(0, 30),153	3214,(0, 33),153	3520,(0, 36),153	3826,(0, 39),153	
1,(0, 2),153	307,(0, 5),153	613,(0, 8),153	919,(0, 11),153	1225,(0, 14),153	1531,(0, 17),153	1837,(0, 20),153	2143,(0, 23),153	2449,(0, 26),153	2755,(0, 29),153	3061,(0, 32),153	3367,(0, 35),153	3673,(0, 38),153	
163,(2, 41),18	316,(3, 41),18	469,(5, 41),18	622,(6, 41),18	775,(8, 41),18	928,(9, 41),18	1081,(11, 41),18	1234,(12, 41),18	1387,(14, 41),18	1540,(15, 41),18	1693,(17, 41),18	1846,(18, 41),18	1999,(20, 41),18	2152,(21, 41),18	2305,(23, 41),18	2458,(24, 41),18	2611,(26, 41),18	2764,(27, 41),18	2917,(29, 41),18	3070,(30, 41),18	3223,(32, 41),18	3376,(33, 41),18	3529,(35, 41),18	3682,(36, 41),18	3835,(38, 41),18	3988,(39, 41),18	
# Outgoing
316,(3, 41),18	622,(6, 41),18	928,(9, 41),18	1234,(12, 41),18	1540,(15, 41),18	1846,(18, 41),18	2152,(21, 41),18	2458,(24, 41),18	2764,(27, 41),18	3070,(30, 41),18	3376,(33, 41),18	3682,(36, 41),18	3988,(39, 41),18	
163,(2, 41),18	469,(5, 41),18	775,(8, 41),18	1081,(11, 41),18	1387,(14, 41),18	1693,(17, 41),18	1999,(20, 41),18	2305,(23, 41),18	2611,(26, 41),18	2917,(29, 41),18	3223,(32, 41),18	3529,(35, 41),18	3835,(38, 41),18	
1,(0, 2),153	154,(0, 3),153	307,(0, 5),153	460,(0, 6),153	613,(0, 8),153	766,(0, 9),153	919,(0, 11),153	1072,(0, 12),153	1225,(0, 14),153	1378,(0, 15),153	1531,(0, 17),153	1684,(0, 18),153	1837,(0, 20),153	1990,(0, 21),153	2143,(0, 23),153	2296,(0, 24),153	2449,(0, 26),153	2602,(0, 27),153	2755,(0, 29),153	2908,(0, 30),153	3061,(0, 32),153	3214,(0, 33),153	3367,(0, 35),153	3520,(0, 36),153	3673,(0, 38),153	3826,(0, 39),153	
