40
# CPU
0,41,1	1,40,1	2,30,1	3,31,1	4,29,1	5,28,1	6,27,1	7,32,1	8,26,1	9,17,1	10,16,1	11,18,1	12,15,1	13,19,1	14,14,1	15,20,1	16,13,1	17,21,1	18,12,1	19,22,1	20,11,1	21,10,1	22,23,1	23,9,1	24,1,1	25,2,1	26,3,1	27,4,1	28,5,1	29,6,1	30,7,1	31,8,1	32,24,1	33,25,1	34,33,1	35,35,1	36,37,1	37,38,1	38,39,1	39,0,1	
13,36,1	

7,34,1	
# Incoming
8,(34, 0),12	20,(36, 0),12	
7,(41, 36),6	

1,(41, 34),6	
# Outgoing
1,(41, 34),6	7,(41, 36),6	
20,(36, 0),12	

8,(34, 0),12	
