43
# CPU
0,41,1	1,31,1	2,30,1	3,32,1	4,29,1	5,28,1	6,27,1	7,33,1	8,26,1	9,17,1	10,16,1	11,18,1	12,15,1	13,19,1	14,14,1	15,20,1	16,13,1	17,21,1	18,12,1	19,22,1	20,11,1	21,23,1	22,10,1	23,24,1	24,9,1	25,1,1	26,2,1	27,3,1	28,4,1	29,5,1	30,6,1	31,7,1	32,8,1	33,25,1	34,34,1	35,35,1	36,36,1	37,37,1	38,38,1	39,40,1	42,0,1	


33,39,1	






# Incoming
34,(39, 0),8	


1,(41, 39),32	






# Outgoing
1,(41, 39),32	


34,(39, 0),8	






