325
# CPU
41,5,1	81,10,1	121,15,1	161,20,1	201,25,1	241,30,1	281,35,1	321,40,1	
31,4,1	71,9,1	111,14,1	151,19,1	191,24,1	231,29,1	271,34,1	311,39,1	
21,3,1	61,8,1	101,13,1	141,18,1	181,23,1	221,28,1	261,33,1	301,38,1	
11,2,1	51,7,1	91,12,1	131,17,1	171,22,1	211,27,1	251,32,1	291,37,1	
0,0,1	1,1,1	2,11,1	3,31,1	4,26,1	5,36,1	6,21,1	7,6,1	8,16,1	324,41,1	
# Incoming
31,(0, 5),10	71,(0, 10),10	111,(0, 15),10	151,(0, 20),10	191,(0, 25),10	231,(0, 30),10	271,(0, 35),10	311,(0, 40),10	
21,(0, 4),10	61,(0, 9),10	101,(0, 14),10	141,(0, 19),10	181,(0, 24),10	221,(0, 29),10	261,(0, 34),10	301,(0, 39),10	
11,(0, 3),10	51,(0, 8),10	91,(0, 13),10	131,(0, 18),10	171,(0, 23),10	211,(0, 28),10	251,(0, 33),10	291,(0, 38),10	
1,(0, 2),10	41,(0, 7),10	81,(0, 12),10	121,(0, 17),10	161,(0, 22),10	201,(0, 27),10	241,(0, 32),10	281,(0, 37),10	
12,(2, 41),2	22,(3, 41),2	32,(4, 41),2	42,(5, 41),2	52,(7, 41),2	62,(8, 41),2	72,(9, 41),2	82,(10, 41),2	92,(12, 41),2	102,(13, 41),2	112,(14, 41),2	122,(15, 41),2	132,(17, 41),2	142,(18, 41),2	152,(19, 41),2	162,(20, 41),2	172,(22, 41),2	182,(23, 41),2	192,(24, 41),2	202,(25, 41),2	212,(27, 41),2	222,(28, 41),2	232,(29, 41),2	242,(30, 41),2	252,(32, 41),2	262,(33, 41),2	272,(34, 41),2	282,(35, 41),2	292,(37, 41),2	302,(38, 41),2	312,(39, 41),2	322,(40, 41),2	
# Outgoing
42,(5, 41),2	82,(10, 41),2	122,(15, 41),2	162,(20, 41),2	202,(25, 41),2	242,(30, 41),2	282,(35, 41),2	322,(40, 41),2	
32,(4, 41),2	72,(9, 41),2	112,(14, 41),2	152,(19, 41),2	192,(24, 41),2	232,(29, 41),2	272,(34, 41),2	312,(39, 41),2	
22,(3, 41),2	62,(8, 41),2	102,(13, 41),2	142,(18, 41),2	182,(23, 41),2	222,(28, 41),2	262,(33, 41),2	302,(38, 41),2	
12,(2, 41),2	52,(7, 41),2	92,(12, 41),2	132,(17, 41),2	172,(22, 41),2	212,(27, 41),2	252,(32, 41),2	292,(37, 41),2	
1,(0, 2),10	11,(0, 3),10	21,(0, 4),10	31,(0, 5),10	41,(0, 7),10	51,(0, 8),10	61,(0, 9),10	71,(0, 10),10	81,(0, 12),10	91,(0, 13),10	101,(0, 14),10	111,(0, 15),10	121,(0, 17),10	131,(0, 18),10	141,(0, 19),10	151,(0, 20),10	161,(0, 22),10	171,(0, 23),10	181,(0, 24),10	191,(0, 25),10	201,(0, 27),10	211,(0, 28),10	221,(0, 29),10	231,(0, 30),10	241,(0, 32),10	251,(0, 33),10	261,(0, 34),10	271,(0, 35),10	281,(0, 37),10	291,(0, 38),10	301,(0, 39),10	311,(0, 40),10	
