306
# CPU
0,41,1	1,40,15	16,31,15	31,28,15	46,32,15	61,17,15	76,18,15	91,19,15	106,20,15	121,21,15	136,22,15	151,23,15	166,24,15	181,1,15	196,3,15	211,5,15	226,7,15	241,25,15	256,34,15	271,36,15	286,38,15	305,0,1	
2,30,15	17,29,15	32,27,15	47,26,15	62,16,15	77,15,15	92,14,15	107,13,15	122,12,15	137,11,15	152,10,15	167,9,15	182,2,15	197,4,15	212,6,15	227,8,15	242,33,15	257,35,15	272,37,15	287,39,15	
# Incoming
17,(30, 0),3	32,(29, 0),3	47,(27, 0),3	62,(26, 0),3	77,(16, 0),3	92,(15, 0),3	107,(14, 0),3	122,(13, 0),3	137,(12, 0),3	152,(11, 0),3	167,(10, 0),3	182,(9, 0),3	197,(2, 0),3	212,(4, 0),3	227,(6, 0),3	242,(8, 0),3	257,(33, 0),3	272,(35, 0),3	287,(37, 0),3	302,(39, 0),3	
1,(41, 30),1	2,(41, 29),1	3,(41, 27),1	4,(41, 26),1	5,(41, 16),1	6,(41, 15),1	7,(41, 14),1	8,(41, 13),1	9,(41, 12),1	10,(41, 11),1	11,(41, 10),1	12,(41, 9),1	13,(41, 2),1	14,(41, 4),1	15,(41, 6),1	16,(41, 8),1	17,(41, 33),1	18,(41, 35),1	19,(41, 37),1	20,(41, 39),1	
# Outgoing
1,(41, 30),1	2,(41, 29),1	3,(41, 27),1	4,(41, 26),1	5,(41, 16),1	6,(41, 15),1	7,(41, 14),1	8,(41, 13),1	9,(41, 12),1	10,(41, 11),1	11,(41, 10),1	12,(41, 9),1	13,(41, 2),1	14,(41, 4),1	15,(41, 6),1	16,(41, 8),1	17,(41, 33),1	18,(41, 35),1	19,(41, 37),1	20,(41, 39),1	
17,(30, 0),3	32,(29, 0),3	47,(27, 0),3	62,(26, 0),3	77,(16, 0),3	92,(15, 0),3	107,(14, 0),3	122,(13, 0),3	137,(12, 0),3	152,(11, 0),3	167,(10, 0),3	182,(9, 0),3	197,(2, 0),3	212,(4, 0),3	227,(6, 0),3	242,(8, 0),3	257,(33, 0),3	272,(35, 0),3	287,(37, 0),3	302,(39, 0),3	
