1594
# CPU
397,10,4	793,20,4	1189,30,4	1585,40,4	
353,9,4	749,19,4	1145,29,4	1541,39,4	
309,8,4	705,18,4	1101,28,4	1497,38,4	
265,7,4	661,17,4	1057,27,4	1453,37,4	
221,6,4	617,16,4	1013,26,4	1409,36,4	
177,5,4	573,15,4	969,25,4	1365,35,4	
133,4,4	529,14,4	925,24,4	1321,34,4	
89,3,4	485,13,4	881,23,4	1277,33,4	
45,2,4	441,12,4	837,22,4	1233,32,4	
0,0,1	1,1,4	5,21,4	9,11,4	13,31,4	1593,41,1	
# Incoming
353,(0, 10),44	749,(0, 20),44	1145,(0, 30),44	1541,(0, 40),44	
309,(0, 9),44	705,(0, 19),44	1101,(0, 29),44	1497,(0, 39),44	
265,(0, 8),44	661,(0, 18),44	1057,(0, 28),44	1453,(0, 38),44	
221,(0, 7),44	617,(0, 17),44	1013,(0, 27),44	1409,(0, 37),44	
177,(0, 6),44	573,(0, 16),44	969,(0, 26),44	1365,(0, 36),44	
133,(0, 5),44	529,(0, 15),44	925,(0, 25),44	1321,(0, 35),44	
89,(0, 4),44	485,(0, 14),44	881,(0, 24),44	1277,(0, 34),44	
45,(0, 3),44	441,(0, 13),44	837,(0, 23),44	1233,(0, 33),44	
1,(0, 2),44	397,(0, 12),44	793,(0, 22),44	1189,(0, 32),44	
49,(2, 41),4	93,(3, 41),4	137,(4, 41),4	181,(5, 41),4	225,(6, 41),4	269,(7, 41),4	313,(8, 41),4	357,(9, 41),4	401,(10, 41),4	445,(12, 41),4	489,(13, 41),4	533,(14, 41),4	577,(15, 41),4	621,(16, 41),4	665,(17, 41),4	709,(18, 41),4	753,(19, 41),4	797,(20, 41),4	841,(22, 41),4	885,(23, 41),4	929,(24, 41),4	973,(25, 41),4	1017,(26, 41),4	1061,(27, 41),4	1105,(28, 41),4	1149,(29, 41),4	1193,(30, 41),4	1237,(32, 41),4	1281,(33, 41),4	1325,(34, 41),4	1369,(35, 41),4	1413,(36, 41),4	1457,(37, 41),4	1501,(38, 41),4	1545,(39, 41),4	1589,(40, 41),4	
# Outgoing
401,(10, 41),4	797,(20, 41),4	1193,(30, 41),4	1589,(40, 41),4	
357,(9, 41),4	753,(19, 41),4	1149,(29, 41),4	1545,(39, 41),4	
313,(8, 41),4	709,(18, 41),4	1105,(28, 41),4	1501,(38, 41),4	
269,(7, 41),4	665,(17, 41),4	1061,(27, 41),4	1457,(37, 41),4	
225,(6, 41),4	621,(16, 41),4	1017,(26, 41),4	1413,(36, 41),4	
181,(5, 41),4	577,(15, 41),4	973,(25, 41),4	1369,(35, 41),4	
137,(4, 41),4	533,(14, 41),4	929,(24, 41),4	1325,(34, 41),4	
93,(3, 41),4	489,(13, 41),4	885,(23, 41),4	1281,(33, 41),4	
49,(2, 41),4	445,(12, 41),4	841,(22, 41),4	1237,(32, 41),4	
1,(0, 2),44	45,(0, 3),44	89,(0, 4),44	133,(0, 5),44	177,(0, 6),44	221,(0, 7),44	265,(0, 8),44	309,(0, 9),44	353,(0, 10),44	397,(0, 12),44	441,(0, 13),44	485,(0, 14),44	529,(0, 15),44	573,(0, 16),44	617,(0, 17),44	661,(0, 18),44	705,(0, 19),44	749,(0, 20),44	793,(0, 22),44	837,(0, 23),44	881,(0, 24),44	925,(0, 25),44	969,(0, 26),44	1013,(0, 27),44	1057,(0, 28),44	1101,(0, 29),44	1145,(0, 30),44	1189,(0, 32),44	1233,(0, 33),44	1277,(0, 34),44	1321,(0, 35),44	1365,(0, 36),44	1409,(0, 37),44	1453,(0, 38),44	1497,(0, 39),44	1541,(0, 40),44	
