99
# CPU
0,41,1	1,31,5	6,32,5	11,30,5	16,33,5	21,28,5	26,1,5	31,15,5	36,14,5	41,9,5	46,2,5	51,13,5	56,3,5	61,8,5	66,5,5	71,4,5	76,7,5	81,11,5	86,39,5	98,0,1	
9,24,5	29,34,5	37,35,5	45,36,5	53,37,5	65,17,5	73,6,5	81,19,5	89,40,5	
5,25,5	13,23,5	21,29,5	61,16,5	69,18,5	77,10,5	85,38,5	
17,21,5	25,27,5	33,26,5	41,22,5	49,20,5	57,12,5	
# Incoming
10,(25, 0),4	14,(24, 0),4	18,(23, 0),4	22,(21, 0),4	26,(29, 0),4	30,(27, 0),4	34,(34, 0),4	38,(26, 0),4	42,(35, 0),4	46,(22, 0),4	50,(36, 0),4	54,(20, 0),4	58,(37, 0),4	62,(12, 0),4	66,(16, 0),4	70,(17, 0),4	74,(18, 0),4	78,(6, 0),4	82,(10, 0),4	86,(19, 0),4	90,(38, 0),4	94,(40, 0),4	
5,(41, 24),4	25,(41, 34),4	33,(41, 35),4	41,(41, 36),4	49,(41, 37),4	61,(41, 17),4	69,(41, 6),4	77,(41, 19),4	85,(41, 40),4	
1,(41, 25),4	9,(41, 23),4	17,(41, 29),4	57,(41, 16),4	65,(41, 18),4	73,(41, 10),4	81,(41, 38),4	
13,(41, 21),4	21,(41, 27),4	29,(41, 26),4	37,(41, 22),4	45,(41, 20),4	53,(41, 12),4	
# Outgoing
1,(41, 25),4	5,(41, 24),4	9,(41, 23),4	13,(41, 21),4	17,(41, 29),4	21,(41, 27),4	25,(41, 34),4	29,(41, 26),4	33,(41, 35),4	37,(41, 22),4	41,(41, 36),4	45,(41, 20),4	49,(41, 37),4	53,(41, 12),4	57,(41, 16),4	61,(41, 17),4	65,(41, 18),4	69,(41, 6),4	73,(41, 10),4	77,(41, 19),4	81,(41, 38),4	85,(41, 40),4	
14,(24, 0),4	34,(34, 0),4	42,(35, 0),4	50,(36, 0),4	58,(37, 0),4	70,(17, 0),4	78,(6, 0),4	86,(19, 0),4	94,(40, 0),4	
10,(25, 0),4	18,(23, 0),4	26,(29, 0),4	66,(16, 0),4	74,(18, 0),4	82,(10, 0),4	90,(38, 0),4	
22,(21, 0),4	30,(27, 0),4	38,(26, 0),4	46,(22, 0),4	54,(20, 0),4	62,(12, 0),4	
