602
# CPU
0,41,1	1,31,15	16,30,15	31,32,15	46,29,15	61,28,15	76,27,15	91,33,15	106,26,15	121,17,15	136,16,15	151,18,15	166,15,15	181,19,15	196,14,15	211,20,15	226,13,15	241,21,15	256,12,15	271,22,15	286,11,15	301,23,15	316,10,15	331,24,15	346,9,15	361,1,15	376,2,15	391,3,15	406,4,15	421,5,15	436,6,15	451,7,15	466,8,15	481,25,15	496,34,15	511,35,15	526,36,15	541,37,15	556,38,15	571,39,15	586,40,15	601,0,1	
# Incoming

# Outgoing

