338
# CPU
5,3,24	29,6,24	53,9,24	77,12,24	101,15,24	125,18,24	149,21,24	173,24,24	197,27,24	221,30,24	245,33,24	269,36,24	293,39,24	
3,2,24	27,5,24	51,8,24	75,11,24	99,14,24	123,17,24	147,20,24	171,23,24	195,26,24	219,29,24	243,32,24	267,35,24	291,38,24	
0,0,1	1,1,24	25,7,24	49,19,24	73,40,24	97,37,24	121,34,24	145,31,24	169,28,24	193,25,24	217,16,24	241,22,24	265,13,24	289,4,24	313,10,24	337,41,1	
# Incoming
3,(0, 3),2	7,(0, 6),2	11,(0, 9),2	15,(0, 12),2	19,(0, 15),2	23,(0, 18),2	27,(0, 21),2	31,(0, 24),2	35,(0, 27),2	39,(0, 30),2	43,(0, 33),2	47,(0, 36),2	51,(0, 39),2	
1,(0, 2),2	5,(0, 5),2	9,(0, 8),2	13,(0, 11),2	17,(0, 14),2	21,(0, 17),2	25,(0, 20),2	29,(0, 23),2	33,(0, 26),2	37,(0, 29),2	41,(0, 32),2	45,(0, 35),2	49,(0, 38),2	
27,(2, 41),1	29,(3, 41),1	51,(5, 41),1	53,(6, 41),1	75,(8, 41),1	77,(9, 41),1	99,(11, 41),1	101,(12, 41),1	123,(14, 41),1	125,(15, 41),1	147,(17, 41),1	149,(18, 41),1	171,(20, 41),1	173,(21, 41),1	195,(23, 41),1	197,(24, 41),1	219,(26, 41),1	221,(27, 41),1	243,(29, 41),1	245,(30, 41),1	267,(32, 41),1	269,(33, 41),1	291,(35, 41),1	293,(36, 41),1	315,(38, 41),1	317,(39, 41),1	
# Outgoing
29,(3, 41),1	53,(6, 41),1	77,(9, 41),1	101,(12, 41),1	125,(15, 41),1	149,(18, 41),1	173,(21, 41),1	197,(24, 41),1	221,(27, 41),1	245,(30, 41),1	269,(33, 41),1	293,(36, 41),1	317,(39, 41),1	
27,(2, 41),1	51,(5, 41),1	75,(8, 41),1	99,(11, 41),1	123,(14, 41),1	147,(17, 41),1	171,(20, 41),1	195,(23, 41),1	219,(26, 41),1	243,(29, 41),1	267,(32, 41),1	291,(35, 41),1	315,(38, 41),1	
1,(0, 2),2	3,(0, 3),2	5,(0, 5),2	7,(0, 6),2	9,(0, 8),2	11,(0, 9),2	13,(0, 11),2	15,(0, 12),2	17,(0, 14),2	19,(0, 15),2	21,(0, 17),2	23,(0, 18),2	25,(0, 20),2	27,(0, 21),2	29,(0, 23),2	31,(0, 24),2	33,(0, 26),2	35,(0, 27),2	37,(0, 29),2	39,(0, 30),2	41,(0, 32),2	43,(0, 33),2	45,(0, 35),2	47,(0, 36),2	49,(0, 38),2	51,(0, 39),2	
