549
# CPU
37,10,39	76,20,39	115,30,39	154,40,39	
33,9,39	72,19,39	111,29,39	150,39,39	
29,8,39	68,18,39	107,28,39	146,38,39	
25,7,39	64,17,39	103,27,39	142,37,39	
21,6,39	60,16,39	99,26,39	138,36,39	
17,5,39	56,15,39	95,25,39	134,35,39	
13,4,39	52,14,39	91,24,39	130,34,39	
9,3,39	48,13,39	87,23,39	126,33,39	
5,2,39	44,12,39	83,22,39	122,32,39	
0,0,1	1,1,39	40,21,39	79,11,39	118,31,39	548,41,1	
# Incoming
33,(0, 10),4	69,(0, 20),4	105,(0, 30),4	141,(0, 40),4	
29,(0, 9),4	65,(0, 19),4	101,(0, 29),4	137,(0, 39),4	
25,(0, 8),4	61,(0, 18),4	97,(0, 28),4	133,(0, 38),4	
21,(0, 7),4	57,(0, 17),4	93,(0, 27),4	129,(0, 37),4	
17,(0, 6),4	53,(0, 16),4	89,(0, 26),4	125,(0, 36),4	
13,(0, 5),4	49,(0, 15),4	85,(0, 25),4	121,(0, 35),4	
9,(0, 4),4	45,(0, 14),4	81,(0, 24),4	117,(0, 34),4	
5,(0, 3),4	41,(0, 13),4	77,(0, 23),4	113,(0, 33),4	
1,(0, 2),4	37,(0, 12),4	73,(0, 22),4	109,(0, 32),4	
44,(2, 41),14	58,(3, 41),14	72,(4, 41),14	86,(5, 41),14	100,(6, 41),14	114,(7, 41),14	128,(8, 41),14	142,(9, 41),14	156,(10, 41),14	170,(12, 41),14	184,(13, 41),14	198,(14, 41),14	212,(15, 41),14	226,(16, 41),14	240,(17, 41),14	254,(18, 41),14	268,(19, 41),14	282,(20, 41),14	296,(22, 41),14	310,(23, 41),14	324,(24, 41),14	338,(25, 41),14	352,(26, 41),14	366,(27, 41),14	380,(28, 41),14	394,(29, 41),14	408,(30, 41),14	422,(32, 41),14	436,(33, 41),14	450,(34, 41),14	464,(35, 41),14	478,(36, 41),14	492,(37, 41),14	506,(38, 41),14	520,(39, 41),14	534,(40, 41),14	
# Outgoing
156,(10, 41),14	282,(20, 41),14	408,(30, 41),14	534,(40, 41),14	
142,(9, 41),14	268,(19, 41),14	394,(29, 41),14	520,(39, 41),14	
128,(8, 41),14	254,(18, 41),14	380,(28, 41),14	506,(38, 41),14	
114,(7, 41),14	240,(17, 41),14	366,(27, 41),14	492,(37, 41),14	
100,(6, 41),14	226,(16, 41),14	352,(26, 41),14	478,(36, 41),14	
86,(5, 41),14	212,(15, 41),14	338,(25, 41),14	464,(35, 41),14	
72,(4, 41),14	198,(14, 41),14	324,(24, 41),14	450,(34, 41),14	
58,(3, 41),14	184,(13, 41),14	310,(23, 41),14	436,(33, 41),14	
44,(2, 41),14	170,(12, 41),14	296,(22, 41),14	422,(32, 41),14	
1,(0, 2),4	5,(0, 3),4	9,(0, 4),4	13,(0, 5),4	17,(0, 6),4	21,(0, 7),4	25,(0, 8),4	29,(0, 9),4	33,(0, 10),4	37,(0, 12),4	41,(0, 13),4	45,(0, 14),4	49,(0, 15),4	53,(0, 16),4	57,(0, 17),4	61,(0, 18),4	65,(0, 19),4	69,(0, 20),4	73,(0, 22),4	77,(0, 23),4	81,(0, 24),4	85,(0, 25),4	89,(0, 26),4	93,(0, 27),4	97,(0, 28),4	101,(0, 29),4	105,(0, 30),4	109,(0, 32),4	113,(0, 33),4	117,(0, 34),4	121,(0, 35),4	125,(0, 36),4	129,(0, 37),4	133,(0, 38),4	137,(0, 39),4	141,(0, 40),4	
