800
# CPU
5,2,39	44,4,39	83,6,39	122,8,39	161,10,39	200,12,39	239,14,39	278,16,39	317,18,39	356,20,39	395,22,39	434,24,39	473,26,39	512,28,39	551,30,39	590,32,39	629,34,39	668,36,39	707,38,39	746,40,39	
0,0,1	1,1,39	40,5,39	79,13,39	118,29,39	157,39,39	196,37,39	235,35,39	274,33,39	313,27,39	352,31,39	391,25,39	430,23,39	469,21,39	508,19,39	547,17,39	586,11,39	625,15,39	664,9,39	703,3,39	742,7,39	799,41,1	
# Incoming
1,(0, 2),4	5,(0, 4),4	9,(0, 6),4	13,(0, 8),4	17,(0, 10),4	21,(0, 12),4	25,(0, 14),4	29,(0, 16),4	33,(0, 18),4	37,(0, 20),4	41,(0, 22),4	45,(0, 24),4	49,(0, 26),4	53,(0, 28),4	57,(0, 30),4	61,(0, 32),4	65,(0, 34),4	69,(0, 36),4	73,(0, 38),4	77,(0, 40),4	
44,(2, 41),14	83,(4, 41),14	122,(6, 41),14	161,(8, 41),14	200,(10, 41),14	239,(12, 41),14	278,(14, 41),14	317,(16, 41),14	356,(18, 41),14	395,(20, 41),14	434,(22, 41),14	473,(24, 41),14	512,(26, 41),14	551,(28, 41),14	590,(30, 41),14	629,(32, 41),14	668,(34, 41),14	707,(36, 41),14	746,(38, 41),14	785,(40, 41),14	
# Outgoing
44,(2, 41),14	83,(4, 41),14	122,(6, 41),14	161,(8, 41),14	200,(10, 41),14	239,(12, 41),14	278,(14, 41),14	317,(16, 41),14	356,(18, 41),14	395,(20, 41),14	434,(22, 41),14	473,(24, 41),14	512,(26, 41),14	551,(28, 41),14	590,(30, 41),14	629,(32, 41),14	668,(34, 41),14	707,(36, 41),14	746,(38, 41),14	785,(40, 41),14	
1,(0, 2),4	5,(0, 4),4	9,(0, 6),4	13,(0, 8),4	17,(0, 10),4	21,(0, 12),4	25,(0, 14),4	29,(0, 16),4	33,(0, 18),4	37,(0, 20),4	41,(0, 22),4	45,(0, 24),4	49,(0, 26),4	53,(0, 28),4	57,(0, 30),4	61,(0, 32),4	65,(0, 34),4	69,(0, 36),4	73,(0, 38),4	77,(0, 40),4	
