845
# CPU
7,4,1	13,8,1	19,12,1	25,16,1	31,20,1	37,24,1	43,28,1	49,32,1	55,36,1	61,40,1	
5,3,1	11,7,1	17,11,1	23,15,1	29,19,1	35,23,1	41,27,1	47,31,1	53,35,1	59,39,1	
3,2,1	9,6,1	15,10,1	21,14,1	27,18,1	33,22,1	39,26,1	45,30,1	51,34,1	57,38,1	
0,0,1	1,1,1	2,9,1	3,25,1	4,37,1	5,33,1	6,21,1	7,29,1	8,17,1	9,5,1	10,13,1	844,41,1	
# Incoming
5,(0, 4),2	11,(0, 8),2	17,(0, 12),2	23,(0, 16),2	29,(0, 20),2	35,(0, 24),2	41,(0, 28),2	47,(0, 32),2	53,(0, 36),2	59,(0, 40),2	
3,(0, 3),2	9,(0, 7),2	15,(0, 11),2	21,(0, 15),2	27,(0, 19),2	33,(0, 23),2	39,(0, 27),2	45,(0, 31),2	51,(0, 35),2	57,(0, 39),2	
1,(0, 2),2	7,(0, 6),2	13,(0, 10),2	19,(0, 14),2	25,(0, 18),2	31,(0, 22),2	37,(0, 26),2	43,(0, 30),2	49,(0, 34),2	55,(0, 38),2	
4,(2, 41),28	32,(3, 41),28	60,(4, 41),28	88,(6, 41),28	116,(7, 41),28	144,(8, 41),28	172,(10, 41),28	200,(11, 41),28	228,(12, 41),28	256,(14, 41),28	284,(15, 41),28	312,(16, 41),28	340,(18, 41),28	368,(19, 41),28	396,(20, 41),28	424,(22, 41),28	452,(23, 41),28	480,(24, 41),28	508,(26, 41),28	536,(27, 41),28	564,(28, 41),28	592,(30, 41),28	620,(31, 41),28	648,(32, 41),28	676,(34, 41),28	704,(35, 41),28	732,(36, 41),28	760,(38, 41),28	788,(39, 41),28	816,(40, 41),28	
# Outgoing
60,(4, 41),28	144,(8, 41),28	228,(12, 41),28	312,(16, 41),28	396,(20, 41),28	480,(24, 41),28	564,(28, 41),28	648,(32, 41),28	732,(36, 41),28	816,(40, 41),28	
32,(3, 41),28	116,(7, 41),28	200,(11, 41),28	284,(15, 41),28	368,(19, 41),28	452,(23, 41),28	536,(27, 41),28	620,(31, 41),28	704,(35, 41),28	788,(39, 41),28	
4,(2, 41),28	88,(6, 41),28	172,(10, 41),28	256,(14, 41),28	340,(18, 41),28	424,(22, 41),28	508,(26, 41),28	592,(30, 41),28	676,(34, 41),28	760,(38, 41),28	
1,(0, 2),2	3,(0, 3),2	5,(0, 4),2	7,(0, 6),2	9,(0, 7),2	11,(0, 8),2	13,(0, 10),2	15,(0, 11),2	17,(0, 12),2	19,(0, 14),2	21,(0, 15),2	23,(0, 16),2	25,(0, 18),2	27,(0, 19),2	29,(0, 20),2	31,(0, 22),2	33,(0, 23),2	35,(0, 24),2	37,(0, 26),2	39,(0, 27),2	41,(0, 28),2	43,(0, 30),2	45,(0, 31),2	47,(0, 32),2	49,(0, 34),2	51,(0, 35),2	53,(0, 36),2	55,(0, 38),2	57,(0, 39),2	59,(0, 40),2	
