169
# CPU
0,41,1	1,31,3	4,30,3	7,32,3	10,29,3	13,28,3	16,27,3	19,33,3	22,26,3	25,17,3	28,16,3	31,18,3	34,15,3	37,19,3	40,14,3	43,20,3	46,13,3	49,21,3	52,12,3	55,22,3	58,11,3	61,23,3	64,10,3	67,24,3	70,9,3	73,1,3	76,2,3	79,3,3	82,4,3	85,5,3	88,6,3	91,7,3	94,8,3	97,25,3	100,35,3	103,36,3	106,37,3	109,38,3	112,39,3	115,40,3	168,0,1	
99,34,3	
# Incoming
102,(34, 0),66	
1,(41, 34),98	
# Outgoing
1,(41, 34),98	
102,(34, 0),66	
