602
# CPU
0,0,1	1,1,15	16,3,15	31,7,15	46,15,15	61,31,15	76,40,15	91,39,15	106,38,15	121,37,15	136,36,15	151,35,15	166,34,15	181,33,15	196,30,15	211,32,15	226,29,15	241,28,15	256,27,15	271,26,15	286,25,15	301,24,15	316,23,15	331,22,15	346,21,15	361,20,15	376,19,15	391,18,15	406,17,15	421,14,15	436,16,15	451,13,15	466,12,15	481,11,15	496,10,15	511,9,15	526,6,15	541,8,15	556,5,15	571,2,15	586,4,15	601,41,1	
# Incoming

# Outgoing

