41
# CPU
0,0,1	1,31,1	2,30,1	3,32,1	4,29,1	5,28,1	6,27,1	7,33,1	8,26,1	9,17,1	10,16,1	11,18,1	12,15,1	13,19,1	14,14,1	15,20,1	16,13,1	17,21,1	18,12,1	19,22,1	20,11,1	21,1,1	22,8,1	23,23,1	24,2,1	25,3,1	26,4,1	27,5,1	28,6,1	29,7,1	30,9,1	31,10,1	32,24,1	33,34,1	34,35,1	35,36,1	36,37,1	37,38,1	38,39,1	39,40,1	40,41,1	



21,25,1	
# Incoming
22,(25, 41),4	



1,(0, 25),20	
# Outgoing
1,(0, 25),20	



22,(25, 41),4	
