402
# CPU
0,41,1	1,31,10	11,30,10	21,32,10	31,29,10	41,28,10	51,27,10	61,33,10	71,26,10	81,17,10	91,16,10	101,18,10	111,15,10	121,19,10	131,14,10	141,20,10	151,13,10	161,21,10	171,12,10	181,22,10	191,11,10	201,23,10	211,10,10	221,24,10	231,9,10	241,1,10	251,2,10	261,3,10	271,4,10	281,5,10	291,6,10	301,7,10	311,8,10	321,25,10	331,34,10	341,35,10	351,36,10	361,37,10	371,38,10	381,39,10	391,40,10	401,0,1	
# Incoming

# Outgoing

