128
# CPU
7,2,5	13,4,5	19,6,5	25,8,5	31,10,5	37,12,5	43,14,5	49,16,5	55,18,5	61,20,5	67,22,5	73,24,5	79,26,5	85,28,5	91,30,5	97,32,5	103,34,5	109,36,5	115,38,5	121,40,5	
0,0,1	1,1,5	6,5,5	11,13,5	16,29,5	21,39,5	26,37,5	31,35,5	36,33,5	41,27,5	46,31,5	51,25,5	56,23,5	61,21,5	66,19,5	71,17,5	76,11,5	81,15,5	86,9,5	91,3,5	96,7,5	127,41,1	
# Incoming
1,(0, 2),6	7,(0, 4),6	13,(0, 6),6	19,(0, 8),6	25,(0, 10),6	31,(0, 12),6	37,(0, 14),6	43,(0, 16),6	49,(0, 18),6	55,(0, 20),6	61,(0, 22),6	67,(0, 24),6	73,(0, 26),6	79,(0, 28),6	85,(0, 30),6	91,(0, 32),6	97,(0, 34),6	103,(0, 36),6	109,(0, 38),6	115,(0, 40),6	
12,(2, 41),1	18,(4, 41),1	24,(6, 41),1	30,(8, 41),1	36,(10, 41),1	42,(12, 41),1	48,(14, 41),1	54,(16, 41),1	60,(18, 41),1	66,(20, 41),1	72,(22, 41),1	78,(24, 41),1	84,(26, 41),1	90,(28, 41),1	96,(30, 41),1	102,(32, 41),1	108,(34, 41),1	114,(36, 41),1	120,(38, 41),1	126,(40, 41),1	
# Outgoing
12,(2, 41),1	18,(4, 41),1	24,(6, 41),1	30,(8, 41),1	36,(10, 41),1	42,(12, 41),1	48,(14, 41),1	54,(16, 41),1	60,(18, 41),1	66,(20, 41),1	72,(22, 41),1	78,(24, 41),1	84,(26, 41),1	90,(28, 41),1	96,(30, 41),1	102,(32, 41),1	108,(34, 41),1	114,(36, 41),1	120,(38, 41),1	126,(40, 41),1	
1,(0, 2),6	7,(0, 4),6	13,(0, 6),6	19,(0, 8),6	25,(0, 10),6	31,(0, 12),6	37,(0, 14),6	43,(0, 16),6	49,(0, 18),6	55,(0, 20),6	61,(0, 22),6	67,(0, 24),6	73,(0, 26),6	79,(0, 28),6	85,(0, 30),6	91,(0, 32),6	97,(0, 34),6	103,(0, 36),6	109,(0, 38),6	115,(0, 40),6	
