122
# CPU
0,0,1	1,1,3	4,3,3	7,7,3	10,15,3	13,31,3	16,40,3	19,39,3	22,38,3	25,37,3	28,36,3	31,35,3	34,34,3	37,33,3	40,30,3	43,32,3	46,29,3	49,28,3	52,27,3	55,26,3	58,25,3	61,24,3	64,23,3	67,22,3	70,21,3	73,20,3	76,19,3	79,18,3	82,17,3	85,14,3	88,16,3	91,13,3	94,12,3	97,11,3	100,10,3	103,9,3	106,6,3	109,8,3	112,5,3	115,2,3	118,4,3	121,41,1	



# Incoming




# Outgoing




