12216
# CPU
1525,5,19	3049,10,19	4573,15,19	6097,20,19	7621,25,19	9145,30,19	10669,35,19	12193,40,19	
1144,4,19	2668,9,19	4192,14,19	5716,19,19	7240,24,19	8764,29,19	10288,34,19	11812,39,19	
763,3,19	2287,8,19	3811,13,19	5335,18,19	6859,23,19	8383,28,19	9907,33,19	11431,38,19	
382,2,19	1906,7,19	3430,12,19	4954,17,19	6478,22,19	8002,27,19	9526,32,19	11050,37,19	
0,0,1	1,1,19	20,11,19	39,31,19	58,26,19	77,36,19	96,21,19	115,6,19	134,16,19	12215,41,1	
# Incoming
1144,(0, 5),381	2668,(0, 10),381	4192,(0, 15),381	5716,(0, 20),381	7240,(0, 25),381	8764,(0, 30),381	10288,(0, 35),381	11812,(0, 40),381	
763,(0, 4),381	2287,(0, 9),381	3811,(0, 14),381	5335,(0, 19),381	6859,(0, 24),381	8383,(0, 29),381	9907,(0, 34),381	11431,(0, 39),381	
382,(0, 3),381	1906,(0, 8),381	3430,(0, 13),381	4954,(0, 18),381	6478,(0, 23),381	8002,(0, 28),381	9526,(0, 33),381	11050,(0, 38),381	
1,(0, 2),381	1525,(0, 7),381	3049,(0, 12),381	4573,(0, 17),381	6097,(0, 22),381	7621,(0, 27),381	9145,(0, 32),381	10669,(0, 37),381	
401,(2, 41),3	782,(3, 41),3	1163,(4, 41),3	1544,(5, 41),3	1925,(7, 41),3	2306,(8, 41),3	2687,(9, 41),3	3068,(10, 41),3	3449,(12, 41),3	3830,(13, 41),3	4211,(14, 41),3	4592,(15, 41),3	4973,(17, 41),3	5354,(18, 41),3	5735,(19, 41),3	6116,(20, 41),3	6497,(22, 41),3	6878,(23, 41),3	7259,(24, 41),3	7640,(25, 41),3	8021,(27, 41),3	8402,(28, 41),3	8783,(29, 41),3	9164,(30, 41),3	9545,(32, 41),3	9926,(33, 41),3	10307,(34, 41),3	10688,(35, 41),3	11069,(37, 41),3	11450,(38, 41),3	11831,(39, 41),3	12212,(40, 41),3	
# Outgoing
1544,(5, 41),3	3068,(10, 41),3	4592,(15, 41),3	6116,(20, 41),3	7640,(25, 41),3	9164,(30, 41),3	10688,(35, 41),3	12212,(40, 41),3	
1163,(4, 41),3	2687,(9, 41),3	4211,(14, 41),3	5735,(19, 41),3	7259,(24, 41),3	8783,(29, 41),3	10307,(34, 41),3	11831,(39, 41),3	
782,(3, 41),3	2306,(8, 41),3	3830,(13, 41),3	5354,(18, 41),3	6878,(23, 41),3	8402,(28, 41),3	9926,(33, 41),3	11450,(38, 41),3	
401,(2, 41),3	1925,(7, 41),3	3449,(12, 41),3	4973,(17, 41),3	6497,(22, 41),3	8021,(27, 41),3	9545,(32, 41),3	11069,(37, 41),3	
1,(0, 2),381	382,(0, 3),381	763,(0, 4),381	1144,(0, 5),381	1525,(0, 7),381	1906,(0, 8),381	2287,(0, 9),381	2668,(0, 10),381	3049,(0, 12),381	3430,(0, 13),381	3811,(0, 14),381	4192,(0, 15),381	4573,(0, 17),381	4954,(0, 18),381	5335,(0, 19),381	5716,(0, 20),381	6097,(0, 22),381	6478,(0, 23),381	6859,(0, 24),381	7240,(0, 25),381	7621,(0, 27),381	8002,(0, 28),381	8383,(0, 29),381	8764,(0, 30),381	9145,(0, 32),381	9526,(0, 33),381	9907,(0, 34),381	10288,(0, 35),381	10669,(0, 37),381	11050,(0, 38),381	11431,(0, 39),381	11812,(0, 40),381	
