252
# CPU
0,41,1	1,31,10	11,30,10	21,32,10	31,16,10	41,19,10	51,18,10	61,9,10	71,1,10	81,17,10	91,13,10	101,11,10	111,20,10	121,8,10	131,7,10	141,15,10	151,2,10	161,3,10	171,4,10	181,10,10	191,6,10	201,5,10	211,12,10	221,21,10	231,39,10	241,40,10	251,0,1	
121,36,10	181,22,10	196,33,10	211,14,10	226,38,10	
46,25,10	76,27,10	91,28,10	106,29,10	151,37,10	
16,24,10	31,23,10	61,26,10	136,35,10	166,34,10	
# Incoming
26,(24, 0),15	41,(23, 0),15	56,(25, 0),15	71,(26, 0),15	86,(27, 0),15	101,(28, 0),15	116,(29, 0),15	131,(36, 0),15	146,(35, 0),15	161,(37, 0),15	176,(34, 0),15	191,(22, 0),15	206,(33, 0),15	221,(14, 0),15	236,(38, 0),15	
106,(41, 36),15	166,(41, 22),15	181,(41, 33),15	196,(41, 14),15	211,(41, 38),15	
31,(41, 25),15	61,(41, 27),15	76,(41, 28),15	91,(41, 29),15	136,(41, 37),15	
1,(41, 24),15	16,(41, 23),15	46,(41, 26),15	121,(41, 35),15	151,(41, 34),15	
# Outgoing
1,(41, 24),15	16,(41, 23),15	31,(41, 25),15	46,(41, 26),15	61,(41, 27),15	76,(41, 28),15	91,(41, 29),15	106,(41, 36),15	121,(41, 35),15	136,(41, 37),15	151,(41, 34),15	166,(41, 22),15	181,(41, 33),15	196,(41, 14),15	211,(41, 38),15	
131,(36, 0),15	191,(22, 0),15	206,(33, 0),15	221,(14, 0),15	236,(38, 0),15	
56,(25, 0),15	86,(27, 0),15	101,(28, 0),15	116,(29, 0),15	161,(37, 0),15	
26,(24, 0),15	41,(23, 0),15	71,(26, 0),15	146,(35, 0),15	176,(34, 0),15	
