971
# CPU
25,4,1	49,8,1	73,12,1	97,16,1	121,20,1	145,24,1	169,28,1	193,32,1	217,36,1	241,40,1	
17,3,1	41,7,1	65,11,1	89,15,1	113,19,1	137,23,1	161,27,1	185,31,1	209,35,1	233,39,1	
9,2,1	33,6,1	57,10,1	81,14,1	105,18,1	129,22,1	153,26,1	177,30,1	201,34,1	225,38,1	
0,0,1	1,1,1	2,9,1	3,25,1	4,37,1	5,33,1	6,21,1	7,29,1	8,17,1	9,5,1	10,13,1	970,41,1	
# Incoming
17,(0, 4),8	41,(0, 8),8	65,(0, 12),8	89,(0, 16),8	113,(0, 20),8	137,(0, 24),8	161,(0, 28),8	185,(0, 32),8	209,(0, 36),8	233,(0, 40),8	
9,(0, 3),8	33,(0, 7),8	57,(0, 11),8	81,(0, 15),8	105,(0, 19),8	129,(0, 23),8	153,(0, 27),8	177,(0, 31),8	201,(0, 35),8	225,(0, 39),8	
1,(0, 2),8	25,(0, 6),8	49,(0, 10),8	73,(0, 14),8	97,(0, 18),8	121,(0, 22),8	145,(0, 26),8	169,(0, 30),8	193,(0, 34),8	217,(0, 38),8	
10,(2, 41),32	42,(3, 41),32	74,(4, 41),32	106,(6, 41),32	138,(7, 41),32	170,(8, 41),32	202,(10, 41),32	234,(11, 41),32	266,(12, 41),32	298,(14, 41),32	330,(15, 41),32	362,(16, 41),32	394,(18, 41),32	426,(19, 41),32	458,(20, 41),32	490,(22, 41),32	522,(23, 41),32	554,(24, 41),32	586,(26, 41),32	618,(27, 41),32	650,(28, 41),32	682,(30, 41),32	714,(31, 41),32	746,(32, 41),32	778,(34, 41),32	810,(35, 41),32	842,(36, 41),32	874,(38, 41),32	906,(39, 41),32	938,(40, 41),32	
# Outgoing
74,(4, 41),32	170,(8, 41),32	266,(12, 41),32	362,(16, 41),32	458,(20, 41),32	554,(24, 41),32	650,(28, 41),32	746,(32, 41),32	842,(36, 41),32	938,(40, 41),32	
42,(3, 41),32	138,(7, 41),32	234,(11, 41),32	330,(15, 41),32	426,(19, 41),32	522,(23, 41),32	618,(27, 41),32	714,(31, 41),32	810,(35, 41),32	906,(39, 41),32	
10,(2, 41),32	106,(6, 41),32	202,(10, 41),32	298,(14, 41),32	394,(18, 41),32	490,(22, 41),32	586,(26, 41),32	682,(30, 41),32	778,(34, 41),32	874,(38, 41),32	
1,(0, 2),8	9,(0, 3),8	17,(0, 4),8	25,(0, 6),8	33,(0, 7),8	41,(0, 8),8	49,(0, 10),8	57,(0, 11),8	65,(0, 12),8	73,(0, 14),8	81,(0, 15),8	89,(0, 16),8	97,(0, 18),8	105,(0, 19),8	113,(0, 20),8	121,(0, 22),8	129,(0, 23),8	137,(0, 24),8	145,(0, 26),8	153,(0, 27),8	161,(0, 28),8	169,(0, 30),8	177,(0, 31),8	185,(0, 32),8	193,(0, 34),8	201,(0, 35),8	209,(0, 36),8	217,(0, 38),8	225,(0, 39),8	233,(0, 40),8	
