236
# CPU
0,41,1	1,40,6	7,30,6	13,31,6	19,29,6	25,28,6	31,27,6	37,32,6	43,26,6	49,17,6	55,16,6	61,18,6	67,15,6	73,19,6	79,14,6	85,20,6	91,13,6	97,21,6	103,12,6	109,22,6	115,11,6	121,23,6	127,10,6	133,24,6	139,9,6	145,1,6	151,2,6	157,3,6	163,4,6	169,5,6	175,6,6	181,7,6	187,8,6	193,25,6	199,34,6	205,35,6	211,36,6	217,37,6	223,38,6	229,39,6	235,0,1	
85,33,6	
# Incoming
91,(33, 0),112	
1,(41, 33),84	
# Outgoing
1,(41, 33),84	
91,(33, 0),112	
