1018
# CPU
34,2,3	67,4,3	100,6,3	133,8,3	166,10,3	199,12,3	232,14,3	265,16,3	298,18,3	331,20,3	364,22,3	397,24,3	430,26,3	463,28,3	496,30,3	529,32,3	562,34,3	595,36,3	628,38,3	661,40,3	
0,0,1	1,1,3	4,5,3	7,13,3	10,29,3	13,39,3	16,37,3	19,35,3	22,33,3	25,27,3	28,31,3	31,25,3	34,23,3	37,21,3	40,19,3	43,17,3	46,11,3	49,15,3	52,9,3	55,3,3	58,7,3	1017,41,1	
# Incoming
1,(0, 2),33	34,(0, 4),33	67,(0, 6),33	100,(0, 8),33	133,(0, 10),33	166,(0, 12),33	199,(0, 14),33	232,(0, 16),33	265,(0, 18),33	298,(0, 20),33	331,(0, 22),33	364,(0, 24),33	397,(0, 26),33	430,(0, 28),33	463,(0, 30),33	496,(0, 32),33	529,(0, 34),33	562,(0, 36),33	595,(0, 38),33	628,(0, 40),33	
37,(2, 41),49	86,(4, 41),49	135,(6, 41),49	184,(8, 41),49	233,(10, 41),49	282,(12, 41),49	331,(14, 41),49	380,(16, 41),49	429,(18, 41),49	478,(20, 41),49	527,(22, 41),49	576,(24, 41),49	625,(26, 41),49	674,(28, 41),49	723,(30, 41),49	772,(32, 41),49	821,(34, 41),49	870,(36, 41),49	919,(38, 41),49	968,(40, 41),49	
# Outgoing
37,(2, 41),49	86,(4, 41),49	135,(6, 41),49	184,(8, 41),49	233,(10, 41),49	282,(12, 41),49	331,(14, 41),49	380,(16, 41),49	429,(18, 41),49	478,(20, 41),49	527,(22, 41),49	576,(24, 41),49	625,(26, 41),49	674,(28, 41),49	723,(30, 41),49	772,(32, 41),49	821,(34, 41),49	870,(36, 41),49	919,(38, 41),49	968,(40, 41),49	
1,(0, 2),33	34,(0, 4),33	67,(0, 6),33	100,(0, 8),33	133,(0, 10),33	166,(0, 12),33	199,(0, 14),33	232,(0, 16),33	265,(0, 18),33	298,(0, 20),33	331,(0, 22),33	364,(0, 24),33	397,(0, 26),33	430,(0, 28),33	463,(0, 30),33	496,(0, 32),33	529,(0, 34),33	562,(0, 36),33	595,(0, 38),33	628,(0, 40),33	
