72
# CPU
0,41,1	1,31,5	6,30,5	11,33,5	16,16,5	21,19,5	26,13,5	31,22,5	36,10,5	41,1,5	46,4,5	51,7,5	56,34,5	61,37,5	66,40,5	71,0,1	
3,32,5	8,28,5	13,17,5	18,15,5	23,20,5	28,12,5	33,23,5	38,9,5	43,3,5	48,6,5	53,26,5	58,36,5	63,39,5	
2,25,5	7,29,5	12,27,5	17,18,5	22,14,5	27,21,5	32,11,5	37,24,5	42,2,5	47,5,5	52,8,5	57,35,5	62,38,5	
# Incoming
7,(25, 0),1	8,(32, 0),1	12,(29, 0),1	13,(28, 0),1	17,(27, 0),1	18,(17, 0),1	22,(18, 0),1	23,(15, 0),1	27,(14, 0),1	28,(20, 0),1	32,(21, 0),1	33,(12, 0),1	37,(11, 0),1	38,(23, 0),1	42,(24, 0),1	43,(9, 0),1	47,(2, 0),1	48,(3, 0),1	52,(5, 0),1	53,(6, 0),1	57,(8, 0),1	58,(26, 0),1	62,(35, 0),1	63,(36, 0),1	67,(38, 0),1	68,(39, 0),1	
2,(41, 32),1	4,(41, 28),1	6,(41, 17),1	8,(41, 15),1	10,(41, 20),1	12,(41, 12),1	14,(41, 23),1	16,(41, 9),1	18,(41, 3),1	20,(41, 6),1	22,(41, 26),1	24,(41, 36),1	26,(41, 39),1	
1,(41, 25),1	3,(41, 29),1	5,(41, 27),1	7,(41, 18),1	9,(41, 14),1	11,(41, 21),1	13,(41, 11),1	15,(41, 24),1	17,(41, 2),1	19,(41, 5),1	21,(41, 8),1	23,(41, 35),1	25,(41, 38),1	
# Outgoing
1,(41, 25),1	2,(41, 32),1	3,(41, 29),1	4,(41, 28),1	5,(41, 27),1	6,(41, 17),1	7,(41, 18),1	8,(41, 15),1	9,(41, 14),1	10,(41, 20),1	11,(41, 21),1	12,(41, 12),1	13,(41, 11),1	14,(41, 23),1	15,(41, 24),1	16,(41, 9),1	17,(41, 2),1	18,(41, 3),1	19,(41, 5),1	20,(41, 6),1	21,(41, 8),1	22,(41, 26),1	23,(41, 35),1	24,(41, 36),1	25,(41, 38),1	26,(41, 39),1	
8,(32, 0),1	13,(28, 0),1	18,(17, 0),1	23,(15, 0),1	28,(20, 0),1	33,(12, 0),1	38,(23, 0),1	43,(9, 0),1	48,(3, 0),1	53,(6, 0),1	58,(26, 0),1	63,(36, 0),1	68,(39, 0),1	
7,(25, 0),1	12,(29, 0),1	17,(27, 0),1	22,(18, 0),1	27,(14, 0),1	32,(21, 0),1	37,(11, 0),1	42,(24, 0),1	47,(2, 0),1	52,(5, 0),1	57,(8, 0),1	62,(35, 0),1	67,(38, 0),1	
