129
# CPU
13,4,3	25,8,3	37,12,3	49,16,3	61,20,3	73,24,3	85,28,3	97,32,3	109,36,3	121,40,3	
9,3,3	21,7,3	33,11,3	45,15,3	57,19,3	69,23,3	81,27,3	93,31,3	105,35,3	117,39,3	
5,2,3	17,6,3	29,10,3	41,14,3	53,18,3	65,22,3	77,26,3	89,30,3	101,34,3	113,38,3	
0,0,1	1,1,3	4,9,3	7,25,3	10,37,3	13,33,3	16,21,3	19,29,3	22,17,3	25,5,3	28,13,3	128,41,1	
# Incoming
9,(0, 4),4	21,(0, 8),4	33,(0, 12),4	45,(0, 16),4	57,(0, 20),4	69,(0, 24),4	81,(0, 28),4	93,(0, 32),4	105,(0, 36),4	117,(0, 40),4	
5,(0, 3),4	17,(0, 7),4	29,(0, 11),4	41,(0, 15),4	53,(0, 19),4	65,(0, 23),4	77,(0, 27),4	89,(0, 31),4	101,(0, 35),4	113,(0, 39),4	
1,(0, 2),4	13,(0, 6),4	25,(0, 10),4	37,(0, 14),4	49,(0, 18),4	61,(0, 22),4	73,(0, 26),4	85,(0, 30),4	97,(0, 34),4	109,(0, 38),4	
8,(2, 41),4	12,(3, 41),4	16,(4, 41),4	20,(6, 41),4	24,(7, 41),4	28,(8, 41),4	32,(10, 41),4	36,(11, 41),4	40,(12, 41),4	44,(14, 41),4	48,(15, 41),4	52,(16, 41),4	56,(18, 41),4	60,(19, 41),4	64,(20, 41),4	68,(22, 41),4	72,(23, 41),4	76,(24, 41),4	80,(26, 41),4	84,(27, 41),4	88,(28, 41),4	92,(30, 41),4	96,(31, 41),4	100,(32, 41),4	104,(34, 41),4	108,(35, 41),4	112,(36, 41),4	116,(38, 41),4	120,(39, 41),4	124,(40, 41),4	
# Outgoing
16,(4, 41),4	28,(8, 41),4	40,(12, 41),4	52,(16, 41),4	64,(20, 41),4	76,(24, 41),4	88,(28, 41),4	100,(32, 41),4	112,(36, 41),4	124,(40, 41),4	
12,(3, 41),4	24,(7, 41),4	36,(11, 41),4	48,(15, 41),4	60,(19, 41),4	72,(23, 41),4	84,(27, 41),4	96,(31, 41),4	108,(35, 41),4	120,(39, 41),4	
8,(2, 41),4	20,(6, 41),4	32,(10, 41),4	44,(14, 41),4	56,(18, 41),4	68,(22, 41),4	80,(26, 41),4	92,(30, 41),4	104,(34, 41),4	116,(38, 41),4	
1,(0, 2),4	5,(0, 3),4	9,(0, 4),4	13,(0, 6),4	17,(0, 7),4	21,(0, 8),4	25,(0, 10),4	29,(0, 11),4	33,(0, 12),4	37,(0, 14),4	41,(0, 15),4	45,(0, 16),4	49,(0, 18),4	53,(0, 19),4	57,(0, 20),4	61,(0, 22),4	65,(0, 23),4	69,(0, 24),4	73,(0, 26),4	77,(0, 27),4	81,(0, 28),4	85,(0, 30),4	89,(0, 31),4	93,(0, 32),4	97,(0, 34),4	101,(0, 35),4	105,(0, 36),4	109,(0, 38),4	113,(0, 39),4	117,(0, 40),4	
