668
# CPU
0,41,1	1,40,37	38,31,37	75,30,37	112,32,37	149,17,37	186,15,37	223,14,37	260,13,37	297,12,37	334,11,37	371,10,37	408,1,37	445,2,37	482,3,37	519,4,37	556,5,37	593,6,37	630,39,37	667,0,1	
65,29,37	113,34,37	169,7,37	
25,27,37	73,20,37	129,37,37	177,9,37	
17,25,37	57,28,37	153,38,37	
41,24,37	89,21,37	
81,19,37	161,8,37	
9,26,37	137,36,37	
105,33,37	
49,22,37	121,16,37	
33,23,37	97,18,37	145,35,37	
# Incoming
46,(26, 0),28	74,(25, 0),28	102,(27, 0),28	130,(23, 0),28	158,(24, 0),28	186,(22, 0),28	214,(28, 0),28	242,(29, 0),28	270,(20, 0),28	298,(19, 0),28	326,(21, 0),28	354,(18, 0),28	382,(33, 0),28	410,(34, 0),28	438,(16, 0),28	466,(37, 0),28	494,(36, 0),28	522,(35, 0),28	550,(38, 0),28	578,(8, 0),28	606,(7, 0),28	634,(9, 0),28	
57,(41, 29),8	105,(41, 34),8	161,(41, 7),8	
17,(41, 27),8	65,(41, 20),8	121,(41, 37),8	169,(41, 9),8	
9,(41, 25),8	49,(41, 28),8	145,(41, 38),8	
33,(41, 24),8	81,(41, 21),8	
73,(41, 19),8	153,(41, 8),8	
1,(41, 26),8	129,(41, 36),8	
97,(41, 33),8	
41,(41, 22),8	113,(41, 16),8	
25,(41, 23),8	89,(41, 18),8	137,(41, 35),8	
# Outgoing
1,(41, 26),8	9,(41, 25),8	17,(41, 27),8	25,(41, 23),8	33,(41, 24),8	41,(41, 22),8	49,(41, 28),8	57,(41, 29),8	65,(41, 20),8	73,(41, 19),8	81,(41, 21),8	89,(41, 18),8	97,(41, 33),8	105,(41, 34),8	113,(41, 16),8	121,(41, 37),8	129,(41, 36),8	137,(41, 35),8	145,(41, 38),8	153,(41, 8),8	161,(41, 7),8	169,(41, 9),8	
242,(29, 0),28	410,(34, 0),28	606,(7, 0),28	
102,(27, 0),28	270,(20, 0),28	466,(37, 0),28	634,(9, 0),28	
74,(25, 0),28	214,(28, 0),28	550,(38, 0),28	
158,(24, 0),28	326,(21, 0),28	
298,(19, 0),28	578,(8, 0),28	
46,(26, 0),28	494,(36, 0),28	
382,(33, 0),28	
186,(22, 0),28	438,(16, 0),28	
130,(23, 0),28	354,(18, 0),28	522,(35, 0),28	
