335
# CPU
0,0,1	1,31,9	10,30,9	19,32,9	28,29,9	37,28,9	46,27,9	55,33,9	64,26,9	73,17,9	82,16,9	91,18,9	100,15,9	109,14,9	118,19,9	127,13,9	136,20,9	145,12,9	154,21,9	163,11,9	172,22,9	181,10,9	190,23,9	199,9,9	208,1,9	217,2,9	226,3,9	235,4,9	244,5,9	253,6,9	262,7,9	271,8,9	280,25,9	289,34,9	298,35,9	307,38,9	316,37,9	325,40,9	334,41,1	
205,36,9	

103,24,9	

307,39,9	




# Incoming
112,(24, 41),12	214,(36, 41),12	316,(39, 41),12	
103,(0, 36),102	

1,(0, 24),102	

205,(0, 39),102	




# Outgoing
1,(0, 24),102	103,(0, 36),102	205,(0, 39),102	
214,(36, 41),12	

112,(24, 41),12	

316,(39, 41),12	




