1562
# CPU
0,0,1	1,1,39	40,3,39	79,7,39	118,15,39	157,31,39	196,40,39	235,39,39	274,38,39	313,37,39	352,36,39	391,35,39	430,34,39	469,33,39	508,30,39	547,32,39	586,29,39	625,28,39	664,27,39	703,26,39	742,25,39	781,24,39	820,23,39	859,22,39	898,21,39	937,20,39	976,19,39	1015,18,39	1054,17,39	1093,14,39	1132,16,39	1171,13,39	1210,12,39	1249,11,39	1288,10,39	1327,9,39	1366,6,39	1405,8,39	1444,5,39	1483,2,39	1522,4,39	1561,41,1	



# Incoming




# Outgoing




