2066
# CPU
505,10,6	1009,20,6	1513,30,6	2017,40,6	
449,9,6	953,19,6	1457,29,6	1961,39,6	
393,8,6	897,18,6	1401,28,6	1905,38,6	
337,7,6	841,17,6	1345,27,6	1849,37,6	
281,6,6	785,16,6	1289,26,6	1793,36,6	
225,5,6	729,15,6	1233,25,6	1737,35,6	
169,4,6	673,14,6	1177,24,6	1681,34,6	
113,3,6	617,13,6	1121,23,6	1625,33,6	
57,2,6	561,12,6	1065,22,6	1569,32,6	
0,0,1	1,1,6	7,21,6	13,11,6	19,31,6	2065,41,1	
# Incoming
449,(0, 10),56	953,(0, 20),56	1457,(0, 30),56	1961,(0, 40),56	
393,(0, 9),56	897,(0, 19),56	1401,(0, 29),56	1905,(0, 39),56	
337,(0, 8),56	841,(0, 18),56	1345,(0, 28),56	1849,(0, 38),56	
281,(0, 7),56	785,(0, 17),56	1289,(0, 27),56	1793,(0, 37),56	
225,(0, 6),56	729,(0, 16),56	1233,(0, 26),56	1737,(0, 36),56	
169,(0, 5),56	673,(0, 15),56	1177,(0, 25),56	1681,(0, 35),56	
113,(0, 4),56	617,(0, 14),56	1121,(0, 24),56	1625,(0, 34),56	
57,(0, 3),56	561,(0, 13),56	1065,(0, 23),56	1569,(0, 33),56	
1,(0, 2),56	505,(0, 12),56	1009,(0, 22),56	1513,(0, 32),56	
63,(2, 41),42	119,(3, 41),42	175,(4, 41),42	231,(5, 41),42	287,(6, 41),42	343,(7, 41),42	399,(8, 41),42	455,(9, 41),42	511,(10, 41),42	567,(12, 41),42	623,(13, 41),42	679,(14, 41),42	735,(15, 41),42	791,(16, 41),42	847,(17, 41),42	903,(18, 41),42	959,(19, 41),42	1015,(20, 41),42	1071,(22, 41),42	1127,(23, 41),42	1183,(24, 41),42	1239,(25, 41),42	1295,(26, 41),42	1351,(27, 41),42	1407,(28, 41),42	1463,(29, 41),42	1519,(30, 41),42	1575,(32, 41),42	1631,(33, 41),42	1687,(34, 41),42	1743,(35, 41),42	1799,(36, 41),42	1855,(37, 41),42	1911,(38, 41),42	1967,(39, 41),42	2023,(40, 41),42	
# Outgoing
511,(10, 41),42	1015,(20, 41),42	1519,(30, 41),42	2023,(40, 41),42	
455,(9, 41),42	959,(19, 41),42	1463,(29, 41),42	1967,(39, 41),42	
399,(8, 41),42	903,(18, 41),42	1407,(28, 41),42	1911,(38, 41),42	
343,(7, 41),42	847,(17, 41),42	1351,(27, 41),42	1855,(37, 41),42	
287,(6, 41),42	791,(16, 41),42	1295,(26, 41),42	1799,(36, 41),42	
231,(5, 41),42	735,(15, 41),42	1239,(25, 41),42	1743,(35, 41),42	
175,(4, 41),42	679,(14, 41),42	1183,(24, 41),42	1687,(34, 41),42	
119,(3, 41),42	623,(13, 41),42	1127,(23, 41),42	1631,(33, 41),42	
63,(2, 41),42	567,(12, 41),42	1071,(22, 41),42	1575,(32, 41),42	
1,(0, 2),56	57,(0, 3),56	113,(0, 4),56	169,(0, 5),56	225,(0, 6),56	281,(0, 7),56	337,(0, 8),56	393,(0, 9),56	449,(0, 10),56	505,(0, 12),56	561,(0, 13),56	617,(0, 14),56	673,(0, 15),56	729,(0, 16),56	785,(0, 17),56	841,(0, 18),56	897,(0, 19),56	953,(0, 20),56	1009,(0, 22),56	1065,(0, 23),56	1121,(0, 24),56	1177,(0, 25),56	1233,(0, 26),56	1289,(0, 27),56	1345,(0, 28),56	1401,(0, 29),56	1457,(0, 30),56	1513,(0, 32),56	1569,(0, 33),56	1625,(0, 34),56	1681,(0, 35),56	1737,(0, 36),56	1793,(0, 37),56	1849,(0, 38),56	1905,(0, 39),56	1961,(0, 40),56	
