1853
# CPU
460,10,9	919,20,9	1378,30,9	1837,40,9	
409,9,9	868,19,9	1327,29,9	1786,39,9	
358,8,9	817,18,9	1276,28,9	1735,38,9	
307,7,9	766,17,9	1225,27,9	1684,37,9	
256,6,9	715,16,9	1174,26,9	1633,36,9	
205,5,9	664,15,9	1123,25,9	1582,35,9	
154,4,9	613,14,9	1072,24,9	1531,34,9	
103,3,9	562,13,9	1021,23,9	1480,33,9	
52,2,9	511,12,9	970,22,9	1429,32,9	
0,0,1	1,1,9	10,21,9	19,11,9	28,31,9	1852,41,1	
# Incoming
409,(0, 10),51	868,(0, 20),51	1327,(0, 30),51	1786,(0, 40),51	
358,(0, 9),51	817,(0, 19),51	1276,(0, 29),51	1735,(0, 39),51	
307,(0, 8),51	766,(0, 18),51	1225,(0, 28),51	1684,(0, 38),51	
256,(0, 7),51	715,(0, 17),51	1174,(0, 27),51	1633,(0, 37),51	
205,(0, 6),51	664,(0, 16),51	1123,(0, 26),51	1582,(0, 36),51	
154,(0, 5),51	613,(0, 15),51	1072,(0, 25),51	1531,(0, 35),51	
103,(0, 4),51	562,(0, 14),51	1021,(0, 24),51	1480,(0, 34),51	
52,(0, 3),51	511,(0, 13),51	970,(0, 23),51	1429,(0, 33),51	
1,(0, 2),51	460,(0, 12),51	919,(0, 22),51	1378,(0, 32),51	
61,(2, 41),6	112,(3, 41),6	163,(4, 41),6	214,(5, 41),6	265,(6, 41),6	316,(7, 41),6	367,(8, 41),6	418,(9, 41),6	469,(10, 41),6	520,(12, 41),6	571,(13, 41),6	622,(14, 41),6	673,(15, 41),6	724,(16, 41),6	775,(17, 41),6	826,(18, 41),6	877,(19, 41),6	928,(20, 41),6	979,(22, 41),6	1030,(23, 41),6	1081,(24, 41),6	1132,(25, 41),6	1183,(26, 41),6	1234,(27, 41),6	1285,(28, 41),6	1336,(29, 41),6	1387,(30, 41),6	1438,(32, 41),6	1489,(33, 41),6	1540,(34, 41),6	1591,(35, 41),6	1642,(36, 41),6	1693,(37, 41),6	1744,(38, 41),6	1795,(39, 41),6	1846,(40, 41),6	
# Outgoing
469,(10, 41),6	928,(20, 41),6	1387,(30, 41),6	1846,(40, 41),6	
418,(9, 41),6	877,(19, 41),6	1336,(29, 41),6	1795,(39, 41),6	
367,(8, 41),6	826,(18, 41),6	1285,(28, 41),6	1744,(38, 41),6	
316,(7, 41),6	775,(17, 41),6	1234,(27, 41),6	1693,(37, 41),6	
265,(6, 41),6	724,(16, 41),6	1183,(26, 41),6	1642,(36, 41),6	
214,(5, 41),6	673,(15, 41),6	1132,(25, 41),6	1591,(35, 41),6	
163,(4, 41),6	622,(14, 41),6	1081,(24, 41),6	1540,(34, 41),6	
112,(3, 41),6	571,(13, 41),6	1030,(23, 41),6	1489,(33, 41),6	
61,(2, 41),6	520,(12, 41),6	979,(22, 41),6	1438,(32, 41),6	
1,(0, 2),51	52,(0, 3),51	103,(0, 4),51	154,(0, 5),51	205,(0, 6),51	256,(0, 7),51	307,(0, 8),51	358,(0, 9),51	409,(0, 10),51	460,(0, 12),51	511,(0, 13),51	562,(0, 14),51	613,(0, 15),51	664,(0, 16),51	715,(0, 17),51	766,(0, 18),51	817,(0, 19),51	868,(0, 20),51	919,(0, 22),51	970,(0, 23),51	1021,(0, 24),51	1072,(0, 25),51	1123,(0, 26),51	1174,(0, 27),51	1225,(0, 28),51	1276,(0, 29),51	1327,(0, 30),51	1378,(0, 32),51	1429,(0, 33),51	1480,(0, 34),51	1531,(0, 35),51	1582,(0, 36),51	1633,(0, 37),51	1684,(0, 38),51	1735,(0, 39),51	1786,(0, 40),51	
