546
# CPU
136,10,1	271,20,1	406,30,1	541,40,1	
121,9,1	256,19,1	391,29,1	526,39,1	
106,8,1	241,18,1	376,28,1	511,38,1	
91,7,1	226,17,1	361,27,1	496,37,1	
76,6,1	211,16,1	346,26,1	481,36,1	
61,5,1	196,15,1	331,25,1	466,35,1	
46,4,1	181,14,1	316,24,1	451,34,1	
31,3,1	166,13,1	301,23,1	436,33,1	
16,2,1	151,12,1	286,22,1	421,32,1	
0,0,1	1,1,1	2,21,1	3,11,1	4,31,1	545,41,1	
# Incoming
121,(0, 10),15	256,(0, 20),15	391,(0, 30),15	526,(0, 40),15	
106,(0, 9),15	241,(0, 19),15	376,(0, 29),15	511,(0, 39),15	
91,(0, 8),15	226,(0, 18),15	361,(0, 28),15	496,(0, 38),15	
76,(0, 7),15	211,(0, 17),15	346,(0, 27),15	481,(0, 37),15	
61,(0, 6),15	196,(0, 16),15	331,(0, 26),15	466,(0, 36),15	
46,(0, 5),15	181,(0, 15),15	316,(0, 25),15	451,(0, 35),15	
31,(0, 4),15	166,(0, 14),15	301,(0, 24),15	436,(0, 34),15	
16,(0, 3),15	151,(0, 13),15	286,(0, 23),15	421,(0, 33),15	
1,(0, 2),15	136,(0, 12),15	271,(0, 22),15	406,(0, 32),15	
17,(2, 41),3	32,(3, 41),3	47,(4, 41),3	62,(5, 41),3	77,(6, 41),3	92,(7, 41),3	107,(8, 41),3	122,(9, 41),3	137,(10, 41),3	152,(12, 41),3	167,(13, 41),3	182,(14, 41),3	197,(15, 41),3	212,(16, 41),3	227,(17, 41),3	242,(18, 41),3	257,(19, 41),3	272,(20, 41),3	287,(22, 41),3	302,(23, 41),3	317,(24, 41),3	332,(25, 41),3	347,(26, 41),3	362,(27, 41),3	377,(28, 41),3	392,(29, 41),3	407,(30, 41),3	422,(32, 41),3	437,(33, 41),3	452,(34, 41),3	467,(35, 41),3	482,(36, 41),3	497,(37, 41),3	512,(38, 41),3	527,(39, 41),3	542,(40, 41),3	
# Outgoing
137,(10, 41),3	272,(20, 41),3	407,(30, 41),3	542,(40, 41),3	
122,(9, 41),3	257,(19, 41),3	392,(29, 41),3	527,(39, 41),3	
107,(8, 41),3	242,(18, 41),3	377,(28, 41),3	512,(38, 41),3	
92,(7, 41),3	227,(17, 41),3	362,(27, 41),3	497,(37, 41),3	
77,(6, 41),3	212,(16, 41),3	347,(26, 41),3	482,(36, 41),3	
62,(5, 41),3	197,(15, 41),3	332,(25, 41),3	467,(35, 41),3	
47,(4, 41),3	182,(14, 41),3	317,(24, 41),3	452,(34, 41),3	
32,(3, 41),3	167,(13, 41),3	302,(23, 41),3	437,(33, 41),3	
17,(2, 41),3	152,(12, 41),3	287,(22, 41),3	422,(32, 41),3	
1,(0, 2),15	16,(0, 3),15	31,(0, 4),15	46,(0, 5),15	61,(0, 6),15	76,(0, 7),15	91,(0, 8),15	106,(0, 9),15	121,(0, 10),15	136,(0, 12),15	151,(0, 13),15	166,(0, 14),15	181,(0, 15),15	196,(0, 16),15	211,(0, 17),15	226,(0, 18),15	241,(0, 19),15	256,(0, 20),15	271,(0, 22),15	286,(0, 23),15	301,(0, 24),15	316,(0, 25),15	331,(0, 26),15	346,(0, 27),15	361,(0, 28),15	376,(0, 29),15	391,(0, 30),15	406,(0, 32),15	421,(0, 33),15	436,(0, 34),15	451,(0, 35),15	466,(0, 36),15	481,(0, 37),15	496,(0, 38),15	511,(0, 39),15	526,(0, 40),15	
