18313
# CPU
4573,10,19	9145,20,19	13717,30,19	18289,40,19	
4065,9,19	8637,19,19	13209,29,19	17781,39,19	
3557,8,19	8129,18,19	12701,28,19	17273,38,19	
3049,7,19	7621,17,19	12193,27,19	16765,37,19	
2541,6,19	7113,16,19	11685,26,19	16257,36,19	
2033,5,19	6605,15,19	11177,25,19	15749,35,19	
1525,4,19	6097,14,19	10669,24,19	15241,34,19	
1017,3,19	5589,13,19	10161,23,19	14733,33,19	
509,2,19	5081,12,19	9653,22,19	14225,32,19	
0,0,1	1,1,19	20,21,19	39,11,19	58,31,19	18312,41,1	
# Incoming
4065,(0, 10),508	8637,(0, 20),508	13209,(0, 30),508	17781,(0, 40),508	
3557,(0, 9),508	8129,(0, 19),508	12701,(0, 29),508	17273,(0, 39),508	
3049,(0, 8),508	7621,(0, 18),508	12193,(0, 28),508	16765,(0, 38),508	
2541,(0, 7),508	7113,(0, 17),508	11685,(0, 27),508	16257,(0, 37),508	
2033,(0, 6),508	6605,(0, 16),508	11177,(0, 26),508	15749,(0, 36),508	
1525,(0, 5),508	6097,(0, 15),508	10669,(0, 25),508	15241,(0, 35),508	
1017,(0, 4),508	5589,(0, 14),508	10161,(0, 24),508	14733,(0, 34),508	
509,(0, 3),508	5081,(0, 13),508	9653,(0, 23),508	14225,(0, 33),508	
1,(0, 2),508	4573,(0, 12),508	9145,(0, 22),508	13717,(0, 32),508	
528,(2, 41),4	1036,(3, 41),4	1544,(4, 41),4	2052,(5, 41),4	2560,(6, 41),4	3068,(7, 41),4	3576,(8, 41),4	4084,(9, 41),4	4592,(10, 41),4	5100,(12, 41),4	5608,(13, 41),4	6116,(14, 41),4	6624,(15, 41),4	7132,(16, 41),4	7640,(17, 41),4	8148,(18, 41),4	8656,(19, 41),4	9164,(20, 41),4	9672,(22, 41),4	10180,(23, 41),4	10688,(24, 41),4	11196,(25, 41),4	11704,(26, 41),4	12212,(27, 41),4	12720,(28, 41),4	13228,(29, 41),4	13736,(30, 41),4	14244,(32, 41),4	14752,(33, 41),4	15260,(34, 41),4	15768,(35, 41),4	16276,(36, 41),4	16784,(37, 41),4	17292,(38, 41),4	17800,(39, 41),4	18308,(40, 41),4	
# Outgoing
4592,(10, 41),4	9164,(20, 41),4	13736,(30, 41),4	18308,(40, 41),4	
4084,(9, 41),4	8656,(19, 41),4	13228,(29, 41),4	17800,(39, 41),4	
3576,(8, 41),4	8148,(18, 41),4	12720,(28, 41),4	17292,(38, 41),4	
3068,(7, 41),4	7640,(17, 41),4	12212,(27, 41),4	16784,(37, 41),4	
2560,(6, 41),4	7132,(16, 41),4	11704,(26, 41),4	16276,(36, 41),4	
2052,(5, 41),4	6624,(15, 41),4	11196,(25, 41),4	15768,(35, 41),4	
1544,(4, 41),4	6116,(14, 41),4	10688,(24, 41),4	15260,(34, 41),4	
1036,(3, 41),4	5608,(13, 41),4	10180,(23, 41),4	14752,(33, 41),4	
528,(2, 41),4	5100,(12, 41),4	9672,(22, 41),4	14244,(32, 41),4	
1,(0, 2),508	509,(0, 3),508	1017,(0, 4),508	1525,(0, 5),508	2033,(0, 6),508	2541,(0, 7),508	3049,(0, 8),508	3557,(0, 9),508	4065,(0, 10),508	4573,(0, 12),508	5081,(0, 13),508	5589,(0, 14),508	6097,(0, 15),508	6605,(0, 16),508	7113,(0, 17),508	7621,(0, 18),508	8129,(0, 19),508	8637,(0, 20),508	9145,(0, 22),508	9653,(0, 23),508	10161,(0, 24),508	10669,(0, 25),508	11177,(0, 26),508	11685,(0, 27),508	12193,(0, 28),508	12701,(0, 29),508	13209,(0, 30),508	13717,(0, 32),508	14225,(0, 33),508	14733,(0, 34),508	15241,(0, 35),508	15749,(0, 36),508	16257,(0, 37),508	16765,(0, 38),508	17273,(0, 39),508	17781,(0, 40),508	
