197
# CPU
25,5,1	49,10,1	73,15,1	97,20,1	121,25,1	145,30,1	169,35,1	193,40,1	
19,4,1	43,9,1	67,14,1	91,19,1	115,24,1	139,29,1	163,34,1	187,39,1	
13,3,1	37,8,1	61,13,1	85,18,1	109,23,1	133,28,1	157,33,1	181,38,1	
7,2,1	31,7,1	55,12,1	79,17,1	103,22,1	127,27,1	151,32,1	175,37,1	
0,0,1	1,1,1	2,11,1	3,31,1	4,26,1	5,36,1	6,21,1	7,6,1	8,16,1	196,41,1	
# Incoming
19,(0, 5),6	43,(0, 10),6	67,(0, 15),6	91,(0, 20),6	115,(0, 25),6	139,(0, 30),6	163,(0, 35),6	187,(0, 40),6	
13,(0, 4),6	37,(0, 9),6	61,(0, 14),6	85,(0, 19),6	109,(0, 24),6	133,(0, 29),6	157,(0, 34),6	181,(0, 39),6	
7,(0, 3),6	31,(0, 8),6	55,(0, 13),6	79,(0, 18),6	103,(0, 23),6	127,(0, 28),6	151,(0, 33),6	175,(0, 38),6	
1,(0, 2),6	25,(0, 7),6	49,(0, 12),6	73,(0, 17),6	97,(0, 22),6	121,(0, 27),6	145,(0, 32),6	169,(0, 37),6	
8,(2, 41),2	14,(3, 41),2	20,(4, 41),2	26,(5, 41),2	32,(7, 41),2	38,(8, 41),2	44,(9, 41),2	50,(10, 41),2	56,(12, 41),2	62,(13, 41),2	68,(14, 41),2	74,(15, 41),2	80,(17, 41),2	86,(18, 41),2	92,(19, 41),2	98,(20, 41),2	104,(22, 41),2	110,(23, 41),2	116,(24, 41),2	122,(25, 41),2	128,(27, 41),2	134,(28, 41),2	140,(29, 41),2	146,(30, 41),2	152,(32, 41),2	158,(33, 41),2	164,(34, 41),2	170,(35, 41),2	176,(37, 41),2	182,(38, 41),2	188,(39, 41),2	194,(40, 41),2	
# Outgoing
26,(5, 41),2	50,(10, 41),2	74,(15, 41),2	98,(20, 41),2	122,(25, 41),2	146,(30, 41),2	170,(35, 41),2	194,(40, 41),2	
20,(4, 41),2	44,(9, 41),2	68,(14, 41),2	92,(19, 41),2	116,(24, 41),2	140,(29, 41),2	164,(34, 41),2	188,(39, 41),2	
14,(3, 41),2	38,(8, 41),2	62,(13, 41),2	86,(18, 41),2	110,(23, 41),2	134,(28, 41),2	158,(33, 41),2	182,(38, 41),2	
8,(2, 41),2	32,(7, 41),2	56,(12, 41),2	80,(17, 41),2	104,(22, 41),2	128,(27, 41),2	152,(32, 41),2	176,(37, 41),2	
1,(0, 2),6	7,(0, 3),6	13,(0, 4),6	19,(0, 5),6	25,(0, 7),6	31,(0, 8),6	37,(0, 9),6	43,(0, 10),6	49,(0, 12),6	55,(0, 13),6	61,(0, 14),6	67,(0, 15),6	73,(0, 17),6	79,(0, 18),6	85,(0, 19),6	91,(0, 20),6	97,(0, 22),6	103,(0, 23),6	109,(0, 24),6	115,(0, 25),6	121,(0, 27),6	127,(0, 28),6	133,(0, 29),6	139,(0, 30),6	145,(0, 32),6	151,(0, 33),6	157,(0, 34),6	163,(0, 35),6	169,(0, 37),6	175,(0, 38),6	181,(0, 39),6	187,(0, 40),6	
