2810
# CPU
0,501,1	1,329,6	7,328,6	13,330,6	19,327,6	25,326,6	31,325,6	37,331,6	43,324,6	49,323,6	55,322,6	61,332,6	67,321,6	73,333,6	79,320,6	85,319,6	91,318,6	97,317,6	103,334,6	109,316,6	115,335,6	121,315,6	127,336,6	133,314,6	139,313,6	145,312,6	151,211,6	157,198,6	163,337,6	169,339,6	175,311,6	181,310,6	187,309,6	193,340,6	199,308,6	205,307,6	211,306,6	217,341,6	223,305,6	229,303,6	235,304,6	241,302,6	247,343,6	253,301,6	259,344,6	265,300,6	271,299,6	277,298,6	283,345,6	289,297,6	295,346,6	301,287,6	307,154,6	313,296,6	319,295,6	325,348,6	331,294,6	337,349,6	343,293,6	349,350,6	355,292,6	361,291,6	367,290,6	373,351,6	379,288,6	385,286,6	391,289,6	397,285,6	403,284,6	409,283,6	415,353,6	421,282,6	427,354,6	433,281,6	439,355,6	445,280,6	451,100,6	457,416,6	463,278,6	469,279,6	475,277,6	481,356,6	487,276,6	493,275,6	499,274,6	505,358,6	511,273,6	517,359,6	523,272,6	529,271,6	535,270,6	541,269,6	547,360,6	553,268,6	559,267,6	565,266,6	571,362,6	577,265,6	583,264,6	589,263,6	595,363,6	601,31,6	607,138,6	613,364,6	619,262,6	625,261,6	631,260,6	637,366,6	643,259,6	649,367,6	655,258,6	661,368,6	667,257,6	673,256,6	679,255,6	685,254,6	691,370,6	697,253,6	703,371,6	709,252,6	715,251,6	721,250,6	727,372,6	733,249,6	739,248,6	745,247,6	751,38,6	757,427,6	763,245,6	769,246,6	775,244,6	781,373,6	787,243,6	793,375,6	799,242,6	805,241,6	811,240,6	817,376,6	823,239,6	829,238,6	835,377,6	841,237,6	847,236,6	853,235,6	859,379,6	865,234,6	871,380,6	877,233,6	883,381,6	889,232,6	895,231,6	901,69,6	907,121,6	913,230,6	919,229,6	925,383,6	931,228,6	937,227,6	943,226,6	949,384,6	955,225,6	961,385,6	967,224,6	973,387,6	979,222,6	985,221,6	991,223,6	997,220,6	1003,388,6	1009,219,6	1015,389,6	1021,218,6	1027,217,6	1033,216,6	1039,390,6	1045,215,6	1051,33,6	1057,438,6	1063,214,6	1069,213,6	1075,212,6	1081,392,6	1087,210,6	1093,209,6	1099,208,6	1105,393,6	1111,207,6	1117,206,6	1123,205,6	1129,204,6	1135,394,6	1141,203,6	1147,396,6	1153,202,6	1159,201,6	1165,200,6	1171,397,6	1177,199,6	1183,398,6	1189,197,6	1195,400,6	1201,444,6	1207,452,6	1213,194,6	1219,193,6	1225,195,6	1231,192,6	1237,196,6	1243,191,6	1249,190,6	1255,189,6	1261,401,6	1267,188,6	1273,187,6	1279,186,6	1285,185,6	1291,184,6	1297,183,6	1303,403,6	1309,182,6	1315,404,6	1321,181,6	1327,405,6	1333,180,6	1339,179,6	1345,178,6	1351,468,6	1357,447,6	1363,414,6	1369,415,6	1375,413,6	1381,412,6	1387,411,6	1393,417,6	1399,410,6	1405,418,6	1411,408,6	1417,419,6	1423,407,6	1429,177,6	1435,420,6	1441,176,6	1447,175,6	1453,174,6	1459,421,6	1465,173,6	1471,171,6	1477,170,6	1483,422,6	1489,169,6	1495,423,6	1501,59,6	1507,89,6	1513,424,6	1519,168,6	1525,425,6	1531,167,6	1537,166,6	1543,165,6	1549,426,6	1555,164,6	1561,162,6	1567,161,6	1573,428,6	1579,429,6	1585,160,6	1591,430,6	1597,159,6	1603,158,6	1609,157,6	1615,431,6	1621,156,6	1627,153,6	1633,152,6	1639,432,6	1645,151,6	1651,91,6	1657,456,6	1663,150,6	1669,433,6	1675,149,6	1681,434,6	1687,148,6	1693,147,6	1699,146,6	1705,435,6	1711,144,6	1717,143,6	1723,142,6	1729,436,6	1735,141,6	1741,140,6	1747,437,6	1753,139,6	1759,439,6	1765,137,6	1771,440,6	1777,135,6	1783,134,6	1789,133,6	1795,441,6	1801,488,6	1807,70,6	1813,132,6	1819,131,6	1825,130,6	1831,129,6	1837,442,6	1843,128,6	1849,443,6	1855,127,6	1861,445,6	1867,125,6	1873,124,6	1879,446,6	1885,123,6	1891,122,6	1897,120,6	1903,448,6	1909,119,6	1915,117,6	1921,116,6	1927,449,6	1933,115,6	1939,450,6	1945,114,6	1951,465,6	1957,71,6	1963,113,6	1969,451,6	1975,112,6	1981,111,6	1987,110,6	1993,453,6	1999,109,6	2005,107,6	2011,106,6	2017,454,6	2023,105,6	2029,455,6	2035,457,6	2041,104,6	2047,103,6	2053,102,6	2059,458,6	2065,99,6	2071,88,6	2077,87,6	2083,90,6	2089,86,6	2095,85,6	2101,462,6	2107,44,6	2113,84,6	2119,83,6	2125,92,6	2131,82,6	2137,81,6	2143,80,6	2149,93,6	2155,79,6	2161,94,6	2167,78,6	2173,95,6	2179,76,6	2185,75,6	2191,77,6	2197,74,6	2203,97,6	2209,73,6	2215,98,6	2221,72,6	2227,68,6	2233,67,6	2239,459,6	2245,66,6	2251,16,6	2257,482,6	2263,65,6	2269,64,6	2275,63,6	2281,460,6	2287,62,6	2293,463,6	2299,61,6	2305,464,6	2311,60,6	2317,58,6	2323,57,6	2329,56,6	2335,466,6	2341,55,6	2347,469,6	2353,54,6	2359,53,6	2365,52,6	2371,470,6	2377,51,6	2383,471,6	2389,50,6	2395,473,6	2401,10,6	2407,46,6	2413,49,6	2419,48,6	2425,484,6	2431,483,6	2437,485,6	2443,481,6	2449,480,6	2455,479,6	2461,486,6	2467,478,6	2473,477,6	2479,487,6	2485,475,6	2491,474,6	2497,47,6	2503,489,6	2509,45,6	2515,43,6	2521,41,6	2527,490,6	2533,40,6	2539,39,6	2545,37,6	2551,9,6	2557,491,6	2563,36,6	2569,492,6	2575,35,6	2581,34,6	2587,32,6	2593,493,6	2599,29,6	2605,20,6	2611,19,6	2617,21,6	2623,18,6	2629,17,6	2635,22,6	2641,15,6	2647,23,6	2653,14,6	2659,24,6	2665,13,6	2671,25,6	2677,12,6	2683,26,6	2689,11,6	2695,1,6	2701,494,6	2707,497,6	2713,2,6	2719,3,6	2725,4,6	2731,5,6	2737,6,6	2743,7,6	2749,8,6	2755,28,6	2761,496,6	2767,498,6	2773,499,6	2809,0,1	
1276,406,6	1426,172,6	1576,155,6	2101,96,6	2476,42,6	2776,500,6	
976,391,6	1126,399,6	1726,136,6	1876,118,6	2326,472,6	
226,347,6	376,357,6	676,374,6	826,382,6	2626,27,6	
76,338,6	526,365,6	2026,101,6	2176,461,6	


1051,395,6	1201,402,6	1351,409,6	1651,145,6	2401,476,6	
451,361,6	901,386,6	1501,163,6	1801,126,6	2701,495,6	
151,342,6	301,352,6	601,369,6	751,378,6	1951,108,6	2251,467,6	2551,30,6	
# Incoming
82,(338, 0),27	157,(342, 0),27	232,(347, 0),27	307,(352, 0),27	382,(357, 0),27	457,(361, 0),27	532,(365, 0),27	607,(369, 0),27	682,(374, 0),27	757,(378, 0),27	832,(382, 0),27	907,(386, 0),27	982,(391, 0),27	1057,(395, 0),27	1132,(399, 0),27	1207,(402, 0),27	1282,(406, 0),27	1357,(409, 0),27	1432,(172, 0),27	1507,(163, 0),27	1582,(155, 0),27	1657,(145, 0),27	1732,(136, 0),27	1807,(126, 0),27	1882,(118, 0),27	1957,(108, 0),27	2032,(101, 0),27	2107,(96, 0),27	2182,(461, 0),27	2257,(467, 0),27	2332,(472, 0),27	2407,(476, 0),27	2482,(42, 0),27	2557,(30, 0),27	2632,(27, 0),27	2707,(495, 0),27	2782,(500, 0),27	
1201,(501, 406),75	1351,(501, 172),75	1501,(501, 155),75	2026,(501, 96),75	2401,(501, 42),75	2701,(501, 500),75	
901,(501, 391),75	1051,(501, 399),75	1651,(501, 136),75	1801,(501, 118),75	2251,(501, 472),75	
151,(501, 347),75	301,(501, 357),75	601,(501, 374),75	751,(501, 382),75	2551,(501, 27),75	
1,(501, 338),75	451,(501, 365),75	1951,(501, 101),75	2101,(501, 461),75	


976,(501, 395),75	1126,(501, 402),75	1276,(501, 409),75	1576,(501, 145),75	2326,(501, 476),75	
376,(501, 361),75	826,(501, 386),75	1426,(501, 163),75	1726,(501, 126),75	2626,(501, 495),75	
76,(501, 342),75	226,(501, 352),75	526,(501, 369),75	676,(501, 378),75	1876,(501, 108),75	2176,(501, 467),75	2476,(501, 30),75	
# Outgoing
1,(501, 338),75	76,(501, 342),75	151,(501, 347),75	226,(501, 352),75	301,(501, 357),75	376,(501, 361),75	451,(501, 365),75	526,(501, 369),75	601,(501, 374),75	676,(501, 378),75	751,(501, 382),75	826,(501, 386),75	901,(501, 391),75	976,(501, 395),75	1051,(501, 399),75	1126,(501, 402),75	1201,(501, 406),75	1276,(501, 409),75	1351,(501, 172),75	1426,(501, 163),75	1501,(501, 155),75	1576,(501, 145),75	1651,(501, 136),75	1726,(501, 126),75	1801,(501, 118),75	1876,(501, 108),75	1951,(501, 101),75	2026,(501, 96),75	2101,(501, 461),75	2176,(501, 467),75	2251,(501, 472),75	2326,(501, 476),75	2401,(501, 42),75	2476,(501, 30),75	2551,(501, 27),75	2626,(501, 495),75	2701,(501, 500),75	
1282,(406, 0),27	1432,(172, 0),27	1582,(155, 0),27	2107,(96, 0),27	2482,(42, 0),27	2782,(500, 0),27	
982,(391, 0),27	1132,(399, 0),27	1732,(136, 0),27	1882,(118, 0),27	2332,(472, 0),27	
232,(347, 0),27	382,(357, 0),27	682,(374, 0),27	832,(382, 0),27	2632,(27, 0),27	
82,(338, 0),27	532,(365, 0),27	2032,(101, 0),27	2182,(461, 0),27	


1057,(395, 0),27	1207,(402, 0),27	1357,(409, 0),27	1657,(145, 0),27	2407,(476, 0),27	
457,(361, 0),27	907,(386, 0),27	1507,(163, 0),27	1807,(126, 0),27	2707,(495, 0),27	
157,(342, 0),27	307,(352, 0),27	607,(369, 0),27	757,(378, 0),27	1957,(108, 0),27	2257,(467, 0),27	2557,(30, 0),27	
