7656
# CPU
0,0,1	1,329,31	32,328,31	63,326,31	94,325,31	125,323,31	156,322,31	187,321,31	218,320,31	249,318,31	280,317,31	311,316,31	342,315,31	373,313,31	404,312,31	435,311,31	466,310,31	497,308,31	528,307,31	559,305,31	590,304,31	621,302,31	652,301,31	683,300,31	714,299,31	745,297,31	776,296,31	807,295,31	838,294,31	869,292,31	900,291,31	931,154,31	962,412,31	993,287,31	1024,286,31	1055,284,31	1086,283,31	1117,281,31	1148,280,31	1179,279,31	1210,278,31	1241,276,31	1272,275,31	1303,274,31	1334,273,31	1365,271,31	1396,270,31	1427,269,31	1458,268,31	1489,266,31	1520,265,31	1551,263,31	1582,262,31	1613,260,31	1644,259,31	1675,258,31	1706,257,31	1737,255,31	1768,254,31	1799,253,31	1830,252,31	1861,436,31	1892,153,31	1923,249,31	1954,247,31	1985,246,31	2016,244,31	2047,243,31	2078,241,31	2109,240,31	2140,239,31	2171,238,31	2202,236,31	2233,235,31	2264,234,31	2295,233,31	2326,231,31	2357,230,31	2388,229,31	2419,228,31	2450,226,31	2481,225,31	2512,223,31	2543,222,31	2574,220,31	2605,219,31	2636,218,31	2667,217,31	2698,215,31	2729,214,31	2760,213,31	2791,429,31	2822,129,31	2853,209,31	2884,208,31	2915,207,31	2946,205,31	2977,204,31	3008,202,31	3039,201,31	3070,199,31	3101,198,31	3132,197,31	3163,196,31	3194,194,31	3225,193,31	3256,192,31	3287,191,31	3318,189,31	3349,188,31	3380,187,31	3411,186,31	3442,184,31	3473,183,31	3504,181,31	3535,180,31	3566,178,31	3597,177,31	3628,176,31	3659,175,31	3690,173,31	3721,87,31	3752,104,31	3783,420,31	3814,421,31	3845,422,31	3876,423,31	3907,419,31	3938,424,31	3969,418,31	4000,425,31	4031,417,31	4062,426,31	4093,427,31	4124,428,31	4155,416,31	4186,430,31	4217,415,31	4248,431,31	4279,185,31	4310,432,31	4341,433,31	4372,434,31	4403,182,31	4434,435,31	4465,170,31	4496,437,31	4527,167,31	4558,438,31	4589,439,31	4620,440,31	4651,99,31	4682,115,31	4713,441,31	4744,442,31	4775,162,31	4806,443,31	4837,444,31	4868,445,31	4899,158,31	4930,446,31	4961,152,31	4992,447,31	5023,147,31	5054,448,31	5085,449,31	5116,450,31	5147,144,31	5178,451,31	5209,131,31	5240,452,31	5271,126,31	5302,453,31	5333,454,31	5364,455,31	5395,122,31	5426,456,31	5457,117,31	5488,457,31	5519,113,31	5550,458,31	5581,476,31	5612,471,31	5643,459,31	5674,81,31	5705,80,31	5736,78,31	5767,77,31	5798,76,31	5829,75,31	5860,73,31	5891,72,31	5922,71,31	5953,70,31	5984,68,31	6015,67,31	6046,66,31	6077,65,31	6108,63,31	6139,62,31	6170,61,31	6201,60,31	6232,58,31	6263,57,31	6294,56,31	6325,55,31	6356,53,31	6387,52,31	6418,51,31	6449,50,31	6480,48,31	6511,24,31	6542,487,31	6573,45,31	6604,43,31	6635,42,31	6666,484,31	6697,485,31	6728,483,31	6759,486,31	6790,482,31	6821,488,31	6852,481,31	6883,489,31	6914,480,31	6945,490,31	6976,49,31	7007,491,31	7038,47,31	7069,492,31	7100,46,31	7131,493,31	7162,16,31	7193,15,31	7224,14,31	7255,13,31	7286,12,31	7317,11,31	7348,10,31	7379,9,31	7410,1,31	7441,6,31	7472,2,31	7503,3,31	7534,5,31	7565,497,31	7596,499,31	7655,501,1	
61,338,31	181,341,31	241,342,31	331,344,31	421,346,31	481,347,31	601,350,31	691,352,31	781,354,31	841,355,31	931,357,31	991,309,31	1081,359,31	1171,361,31	1261,363,31	1321,364,31	1411,366,31	1501,368,31	1621,371,31	1681,372,31	1771,374,31	1861,272,31	1921,376,31	2011,378,31	2131,381,31	2191,382,31	2281,384,31	2371,386,31	2431,387,31	2551,390,31	2641,392,31	2731,394,31	2791,227,31	2851,395,31	2911,396,31	3031,399,31	3121,401,31	3211,403,31	3271,404,31	3361,406,31	3451,408,31	3571,411,31	3631,413,31	3721,174,31	3781,179,31	3871,168,31	3961,164,31	4081,159,31	4141,156,31	4261,149,31	4351,145,31	4441,141,31	4561,136,31	4621,133,31	4681,132,31	4801,127,31	4861,124,31	4981,119,31	5071,114,31	5161,110,31	5281,105,31	5341,101,31	5461,95,31	5551,91,31	5611,90,31	5731,460,31	5821,462,31	5911,464,31	5971,465,31	6061,467,31	6151,469,31	6211,470,31	6301,473,31	6391,475,31	6451,477,31	6571,59,31	6661,44,31	6751,38,31	6871,33,31	6991,28,31	7111,22,31	7201,494,31	7261,495,31	7321,496,31	7381,17,31	7441,19,31	7531,4,31	7591,498,31	
31,333,31	91,339,31	151,340,31	271,343,31	391,345,31	511,348,31	571,349,31	631,351,31	751,353,31	871,356,31	961,314,31	1051,358,31	1111,360,31	1231,362,31	1351,365,31	1471,367,31	1531,369,31	1591,370,31	1711,373,31	1831,375,31	1981,377,31	2041,379,31	2101,380,31	2221,383,31	2341,385,31	2461,388,31	2521,389,31	2581,391,31	2701,393,31	2941,397,31	3001,398,31	3061,400,31	3181,402,31	3301,405,31	3421,407,31	3481,409,31	3541,410,31	3661,414,31	3811,171,31	3931,165,31	3991,163,31	4051,160,31	4171,155,31	4231,150,31	4291,148,31	4411,142,31	4471,140,31	4531,137,31	4651,135,31	4711,139,31	4771,128,31	4891,123,31	4951,120,31	5011,118,31	5131,111,31	5191,109,31	5251,106,31	5371,100,31	5431,96,31	5491,94,31	5641,88,31	5701,108,31	5761,461,31	5881,463,31	6001,466,31	6121,468,31	6241,472,31	6361,474,31	6481,478,31	6541,64,31	6601,479,31	6721,39,31	6781,37,31	6841,34,31	6901,32,31	6961,29,31	7021,27,31	7081,23,31	7141,41,31	7411,18,31	7501,20,31	7561,7,31	7621,500,31	
121,337,31	211,336,31	301,335,31	361,334,31	451,332,31	541,331,31	661,330,31	721,327,31	811,324,31	901,319,31	1021,306,31	1141,303,31	1201,298,31	1291,293,31	1381,290,31	1441,289,31	1561,288,31	1651,285,31	1741,282,31	1801,277,31	1891,267,31	1951,264,31	2071,261,31	2161,256,31	2251,251,31	2311,250,31	2401,248,31	2491,245,31	2611,242,31	2671,237,31	2761,232,31	2821,224,31	2881,221,31	2971,216,31	3091,212,31	3151,211,31	3241,210,31	3331,206,31	3391,203,31	3511,200,31	3601,195,31	3691,190,31	3751,172,31	3841,169,31	3901,166,31	4021,161,31	4111,157,31	4201,151,31	4321,146,31	4381,143,31	4501,138,31	4591,134,31	4741,130,31	4831,125,31	4921,121,31	5041,116,31	5101,112,31	5221,107,31	5311,102,31	5401,97,31	5521,92,31	5581,89,31	5671,85,31	5791,103,31	5851,98,31	5941,93,31	6031,86,31	6091,84,31	6181,83,31	6271,82,31	6331,79,31	6421,74,31	6511,69,31	6631,54,31	6691,40,31	6811,35,31	6931,30,31	7051,25,31	7171,36,31	7231,31,31	7291,26,31	7351,21,31	7471,8,31	
# Incoming
62,(333, 501),3	92,(338, 501),3	122,(339, 501),3	152,(337, 501),3	182,(340, 501),3	212,(341, 501),3	242,(336, 501),3	272,(342, 501),3	302,(343, 501),3	332,(335, 501),3	362,(344, 501),3	392,(334, 501),3	422,(345, 501),3	452,(346, 501),3	482,(332, 501),3	512,(347, 501),3	542,(348, 501),3	572,(331, 501),3	602,(349, 501),3	632,(350, 501),3	662,(351, 501),3	692,(330, 501),3	722,(352, 501),3	752,(327, 501),3	782,(353, 501),3	812,(354, 501),3	842,(324, 501),3	872,(355, 501),3	902,(356, 501),3	932,(319, 501),3	962,(357, 501),3	992,(314, 501),3	1022,(309, 501),3	1052,(306, 501),3	1082,(358, 501),3	1112,(359, 501),3	1142,(360, 501),3	1172,(303, 501),3	1202,(361, 501),3	1232,(298, 501),3	1262,(362, 501),3	1292,(363, 501),3	1322,(293, 501),3	1352,(364, 501),3	1382,(365, 501),3	1412,(290, 501),3	1442,(366, 501),3	1472,(289, 501),3	1502,(367, 501),3	1532,(368, 501),3	1562,(369, 501),3	1592,(288, 501),3	1622,(370, 501),3	1652,(371, 501),3	1682,(285, 501),3	1712,(372, 501),3	1742,(373, 501),3	1772,(282, 501),3	1802,(374, 501),3	1832,(277, 501),3	1862,(375, 501),3	1892,(272, 501),3	1922,(267, 501),3	1952,(376, 501),3	1982,(264, 501),3	2012,(377, 501),3	2042,(378, 501),3	2072,(379, 501),3	2102,(261, 501),3	2132,(380, 501),3	2162,(381, 501),3	2192,(256, 501),3	2222,(382, 501),3	2252,(383, 501),3	2282,(251, 501),3	2312,(384, 501),3	2342,(250, 501),3	2372,(385, 501),3	2402,(386, 501),3	2432,(248, 501),3	2462,(387, 501),3	2492,(388, 501),3	2522,(245, 501),3	2552,(389, 501),3	2582,(390, 501),3	2612,(391, 501),3	2642,(242, 501),3	2672,(392, 501),3	2702,(237, 501),3	2732,(393, 501),3	2762,(394, 501),3	2792,(232, 501),3	2822,(227, 501),3	2852,(224, 501),3	2882,(395, 501),3	2912,(221, 501),3	2942,(396, 501),3	2972,(397, 501),3	3002,(216, 501),3	3032,(398, 501),3	3062,(399, 501),3	3092,(400, 501),3	3122,(212, 501),3	3152,(401, 501),3	3182,(211, 501),3	3212,(402, 501),3	3242,(403, 501),3	3272,(210, 501),3	3302,(404, 501),3	3332,(405, 501),3	3362,(206, 501),3	3392,(406, 501),3	3422,(203, 501),3	3452,(407, 501),3	3482,(408, 501),3	3512,(409, 501),3	3542,(200, 501),3	3572,(410, 501),3	3602,(411, 501),3	3632,(195, 501),3	3662,(413, 501),3	3692,(414, 501),3	3722,(190, 501),3	3752,(174, 501),3	3782,(172, 501),3	3812,(179, 501),3	3842,(171, 501),3	3872,(169, 501),3	3902,(168, 501),3	3932,(166, 501),3	3962,(165, 501),3	3992,(164, 501),3	4022,(163, 501),3	4052,(161, 501),3	4082,(160, 501),3	4112,(159, 501),3	4142,(157, 501),3	4172,(156, 501),3	4202,(155, 501),3	4232,(151, 501),3	4262,(150, 501),3	4292,(149, 501),3	4322,(148, 501),3	4352,(146, 501),3	4382,(145, 501),3	4412,(143, 501),3	4442,(142, 501),3	4472,(141, 501),3	4502,(140, 501),3	4532,(138, 501),3	4562,(137, 501),3	4592,(136, 501),3	4622,(134, 501),3	4652,(133, 501),3	4682,(135, 501),3	4712,(132, 501),3	4742,(139, 501),3	4772,(130, 501),3	4802,(128, 501),3	4832,(127, 501),3	4862,(125, 501),3	4892,(124, 501),3	4922,(123, 501),3	4952,(121, 501),3	4982,(120, 501),3	5012,(119, 501),3	5042,(118, 501),3	5072,(116, 501),3	5102,(114, 501),3	5132,(112, 501),3	5162,(111, 501),3	5192,(110, 501),3	5222,(109, 501),3	5252,(107, 501),3	5282,(106, 501),3	5312,(105, 501),3	5342,(102, 501),3	5372,(101, 501),3	5402,(100, 501),3	5432,(97, 501),3	5462,(96, 501),3	5492,(95, 501),3	5522,(94, 501),3	5552,(92, 501),3	5582,(91, 501),3	5612,(89, 501),3	5642,(90, 501),3	5672,(88, 501),3	5702,(85, 501),3	5732,(108, 501),3	5762,(460, 501),3	5792,(461, 501),3	5822,(103, 501),3	5852,(462, 501),3	5882,(98, 501),3	5912,(463, 501),3	5942,(464, 501),3	5972,(93, 501),3	6002,(465, 501),3	6032,(466, 501),3	6062,(86, 501),3	6092,(467, 501),3	6122,(84, 501),3	6152,(468, 501),3	6182,(469, 501),3	6212,(83, 501),3	6242,(470, 501),3	6272,(472, 501),3	6302,(82, 501),3	6332,(473, 501),3	6362,(79, 501),3	6392,(474, 501),3	6422,(475, 501),3	6452,(74, 501),3	6482,(477, 501),3	6512,(478, 501),3	6542,(69, 501),3	6572,(64, 501),3	6602,(59, 501),3	6632,(479, 501),3	6662,(54, 501),3	6692,(44, 501),3	6722,(40, 501),3	6752,(39, 501),3	6782,(38, 501),3	6812,(37, 501),3	6842,(35, 501),3	6872,(34, 501),3	6902,(33, 501),3	6932,(32, 501),3	6962,(30, 501),3	6992,(29, 501),3	7022,(28, 501),3	7052,(27, 501),3	7082,(25, 501),3	7112,(23, 501),3	7142,(22, 501),3	7172,(41, 501),3	7202,(36, 501),3	7232,(494, 501),3	7262,(31, 501),3	7292,(495, 501),3	7322,(26, 501),3	7352,(496, 501),3	7382,(21, 501),3	7412,(17, 501),3	7442,(18, 501),3	7472,(19, 501),3	7502,(8, 501),3	7532,(20, 501),3	7562,(4, 501),3	7592,(7, 501),3	7622,(498, 501),3	7652,(500, 501),3	
31,(0, 338),30	151,(0, 341),30	211,(0, 342),30	301,(0, 344),30	391,(0, 346),30	451,(0, 347),30	571,(0, 350),30	661,(0, 352),30	751,(0, 354),30	811,(0, 355),30	901,(0, 357),30	961,(0, 309),30	1051,(0, 359),30	1141,(0, 361),30	1231,(0, 363),30	1291,(0, 364),30	1381,(0, 366),30	1471,(0, 368),30	1591,(0, 371),30	1651,(0, 372),30	1741,(0, 374),30	1831,(0, 272),30	1891,(0, 376),30	1981,(0, 378),30	2101,(0, 381),30	2161,(0, 382),30	2251,(0, 384),30	2341,(0, 386),30	2401,(0, 387),30	2521,(0, 390),30	2611,(0, 392),30	2701,(0, 394),30	2761,(0, 227),30	2821,(0, 395),30	2881,(0, 396),30	3001,(0, 399),30	3091,(0, 401),30	3181,(0, 403),30	3241,(0, 404),30	3331,(0, 406),30	3421,(0, 408),30	3541,(0, 411),30	3601,(0, 413),30	3691,(0, 174),30	3751,(0, 179),30	3841,(0, 168),30	3931,(0, 164),30	4051,(0, 159),30	4111,(0, 156),30	4231,(0, 149),30	4321,(0, 145),30	4411,(0, 141),30	4531,(0, 136),30	4591,(0, 133),30	4651,(0, 132),30	4771,(0, 127),30	4831,(0, 124),30	4951,(0, 119),30	5041,(0, 114),30	5131,(0, 110),30	5251,(0, 105),30	5311,(0, 101),30	5431,(0, 95),30	5521,(0, 91),30	5581,(0, 90),30	5701,(0, 460),30	5791,(0, 462),30	5881,(0, 464),30	5941,(0, 465),30	6031,(0, 467),30	6121,(0, 469),30	6181,(0, 470),30	6271,(0, 473),30	6361,(0, 475),30	6421,(0, 477),30	6541,(0, 59),30	6631,(0, 44),30	6721,(0, 38),30	6841,(0, 33),30	6961,(0, 28),30	7081,(0, 22),30	7171,(0, 494),30	7231,(0, 495),30	7291,(0, 496),30	7351,(0, 17),30	7411,(0, 19),30	7501,(0, 4),30	7561,(0, 498),30	
1,(0, 333),30	61,(0, 339),30	121,(0, 340),30	241,(0, 343),30	361,(0, 345),30	481,(0, 348),30	541,(0, 349),30	601,(0, 351),30	721,(0, 353),30	841,(0, 356),30	931,(0, 314),30	1021,(0, 358),30	1081,(0, 360),30	1201,(0, 362),30	1321,(0, 365),30	1441,(0, 367),30	1501,(0, 369),30	1561,(0, 370),30	1681,(0, 373),30	1801,(0, 375),30	1951,(0, 377),30	2011,(0, 379),30	2071,(0, 380),30	2191,(0, 383),30	2311,(0, 385),30	2431,(0, 388),30	2491,(0, 389),30	2551,(0, 391),30	2671,(0, 393),30	2911,(0, 397),30	2971,(0, 398),30	3031,(0, 400),30	3151,(0, 402),30	3271,(0, 405),30	3391,(0, 407),30	3451,(0, 409),30	3511,(0, 410),30	3631,(0, 414),30	3781,(0, 171),30	3901,(0, 165),30	3961,(0, 163),30	4021,(0, 160),30	4141,(0, 155),30	4201,(0, 150),30	4261,(0, 148),30	4381,(0, 142),30	4441,(0, 140),30	4501,(0, 137),30	4621,(0, 135),30	4681,(0, 139),30	4741,(0, 128),30	4861,(0, 123),30	4921,(0, 120),30	4981,(0, 118),30	5101,(0, 111),30	5161,(0, 109),30	5221,(0, 106),30	5341,(0, 100),30	5401,(0, 96),30	5461,(0, 94),30	5611,(0, 88),30	5671,(0, 108),30	5731,(0, 461),30	5851,(0, 463),30	5971,(0, 466),30	6091,(0, 468),30	6211,(0, 472),30	6331,(0, 474),30	6451,(0, 478),30	6511,(0, 64),30	6571,(0, 479),30	6691,(0, 39),30	6751,(0, 37),30	6811,(0, 34),30	6871,(0, 32),30	6931,(0, 29),30	6991,(0, 27),30	7051,(0, 23),30	7111,(0, 41),30	7381,(0, 18),30	7471,(0, 20),30	7531,(0, 7),30	7591,(0, 500),30	
91,(0, 337),30	181,(0, 336),30	271,(0, 335),30	331,(0, 334),30	421,(0, 332),30	511,(0, 331),30	631,(0, 330),30	691,(0, 327),30	781,(0, 324),30	871,(0, 319),30	991,(0, 306),30	1111,(0, 303),30	1171,(0, 298),30	1261,(0, 293),30	1351,(0, 290),30	1411,(0, 289),30	1531,(0, 288),30	1621,(0, 285),30	1711,(0, 282),30	1771,(0, 277),30	1861,(0, 267),30	1921,(0, 264),30	2041,(0, 261),30	2131,(0, 256),30	2221,(0, 251),30	2281,(0, 250),30	2371,(0, 248),30	2461,(0, 245),30	2581,(0, 242),30	2641,(0, 237),30	2731,(0, 232),30	2791,(0, 224),30	2851,(0, 221),30	2941,(0, 216),30	3061,(0, 212),30	3121,(0, 211),30	3211,(0, 210),30	3301,(0, 206),30	3361,(0, 203),30	3481,(0, 200),30	3571,(0, 195),30	3661,(0, 190),30	3721,(0, 172),30	3811,(0, 169),30	3871,(0, 166),30	3991,(0, 161),30	4081,(0, 157),30	4171,(0, 151),30	4291,(0, 146),30	4351,(0, 143),30	4471,(0, 138),30	4561,(0, 134),30	4711,(0, 130),30	4801,(0, 125),30	4891,(0, 121),30	5011,(0, 116),30	5071,(0, 112),30	5191,(0, 107),30	5281,(0, 102),30	5371,(0, 97),30	5491,(0, 92),30	5551,(0, 89),30	5641,(0, 85),30	5761,(0, 103),30	5821,(0, 98),30	5911,(0, 93),30	6001,(0, 86),30	6061,(0, 84),30	6151,(0, 83),30	6241,(0, 82),30	6301,(0, 79),30	6391,(0, 74),30	6481,(0, 69),30	6601,(0, 54),30	6661,(0, 40),30	6781,(0, 35),30	6901,(0, 30),30	7021,(0, 25),30	7141,(0, 36),30	7201,(0, 31),30	7261,(0, 26),30	7321,(0, 21),30	7441,(0, 8),30	
# Outgoing
1,(0, 333),30	31,(0, 338),30	61,(0, 339),30	91,(0, 337),30	121,(0, 340),30	151,(0, 341),30	181,(0, 336),30	211,(0, 342),30	241,(0, 343),30	271,(0, 335),30	301,(0, 344),30	331,(0, 334),30	361,(0, 345),30	391,(0, 346),30	421,(0, 332),30	451,(0, 347),30	481,(0, 348),30	511,(0, 331),30	541,(0, 349),30	571,(0, 350),30	601,(0, 351),30	631,(0, 330),30	661,(0, 352),30	691,(0, 327),30	721,(0, 353),30	751,(0, 354),30	781,(0, 324),30	811,(0, 355),30	841,(0, 356),30	871,(0, 319),30	901,(0, 357),30	931,(0, 314),30	961,(0, 309),30	991,(0, 306),30	1021,(0, 358),30	1051,(0, 359),30	1081,(0, 360),30	1111,(0, 303),30	1141,(0, 361),30	1171,(0, 298),30	1201,(0, 362),30	1231,(0, 363),30	1261,(0, 293),30	1291,(0, 364),30	1321,(0, 365),30	1351,(0, 290),30	1381,(0, 366),30	1411,(0, 289),30	1441,(0, 367),30	1471,(0, 368),30	1501,(0, 369),30	1531,(0, 288),30	1561,(0, 370),30	1591,(0, 371),30	1621,(0, 285),30	1651,(0, 372),30	1681,(0, 373),30	1711,(0, 282),30	1741,(0, 374),30	1771,(0, 277),30	1801,(0, 375),30	1831,(0, 272),30	1861,(0, 267),30	1891,(0, 376),30	1921,(0, 264),30	1951,(0, 377),30	1981,(0, 378),30	2011,(0, 379),30	2041,(0, 261),30	2071,(0, 380),30	2101,(0, 381),30	2131,(0, 256),30	2161,(0, 382),30	2191,(0, 383),30	2221,(0, 251),30	2251,(0, 384),30	2281,(0, 250),30	2311,(0, 385),30	2341,(0, 386),30	2371,(0, 248),30	2401,(0, 387),30	2431,(0, 388),30	2461,(0, 245),30	2491,(0, 389),30	2521,(0, 390),30	2551,(0, 391),30	2581,(0, 242),30	2611,(0, 392),30	2641,(0, 237),30	2671,(0, 393),30	2701,(0, 394),30	2731,(0, 232),30	2761,(0, 227),30	2791,(0, 224),30	2821,(0, 395),30	2851,(0, 221),30	2881,(0, 396),30	2911,(0, 397),30	2941,(0, 216),30	2971,(0, 398),30	3001,(0, 399),30	3031,(0, 400),30	3061,(0, 212),30	3091,(0, 401),30	3121,(0, 211),30	3151,(0, 402),30	3181,(0, 403),30	3211,(0, 210),30	3241,(0, 404),30	3271,(0, 405),30	3301,(0, 206),30	3331,(0, 406),30	3361,(0, 203),30	3391,(0, 407),30	3421,(0, 408),30	3451,(0, 409),30	3481,(0, 200),30	3511,(0, 410),30	3541,(0, 411),30	3571,(0, 195),30	3601,(0, 413),30	3631,(0, 414),30	3661,(0, 190),30	3691,(0, 174),30	3721,(0, 172),30	3751,(0, 179),30	3781,(0, 171),30	3811,(0, 169),30	3841,(0, 168),30	3871,(0, 166),30	3901,(0, 165),30	3931,(0, 164),30	3961,(0, 163),30	3991,(0, 161),30	4021,(0, 160),30	4051,(0, 159),30	4081,(0, 157),30	4111,(0, 156),30	4141,(0, 155),30	4171,(0, 151),30	4201,(0, 150),30	4231,(0, 149),30	4261,(0, 148),30	4291,(0, 146),30	4321,(0, 145),30	4351,(0, 143),30	4381,(0, 142),30	4411,(0, 141),30	4441,(0, 140),30	4471,(0, 138),30	4501,(0, 137),30	4531,(0, 136),30	4561,(0, 134),30	4591,(0, 133),30	4621,(0, 135),30	4651,(0, 132),30	4681,(0, 139),30	4711,(0, 130),30	4741,(0, 128),30	4771,(0, 127),30	4801,(0, 125),30	4831,(0, 124),30	4861,(0, 123),30	4891,(0, 121),30	4921,(0, 120),30	4951,(0, 119),30	4981,(0, 118),30	5011,(0, 116),30	5041,(0, 114),30	5071,(0, 112),30	5101,(0, 111),30	5131,(0, 110),30	5161,(0, 109),30	5191,(0, 107),30	5221,(0, 106),30	5251,(0, 105),30	5281,(0, 102),30	5311,(0, 101),30	5341,(0, 100),30	5371,(0, 97),30	5401,(0, 96),30	5431,(0, 95),30	5461,(0, 94),30	5491,(0, 92),30	5521,(0, 91),30	5551,(0, 89),30	5581,(0, 90),30	5611,(0, 88),30	5641,(0, 85),30	5671,(0, 108),30	5701,(0, 460),30	5731,(0, 461),30	5761,(0, 103),30	5791,(0, 462),30	5821,(0, 98),30	5851,(0, 463),30	5881,(0, 464),30	5911,(0, 93),30	5941,(0, 465),30	5971,(0, 466),30	6001,(0, 86),30	6031,(0, 467),30	6061,(0, 84),30	6091,(0, 468),30	6121,(0, 469),30	6151,(0, 83),30	6181,(0, 470),30	6211,(0, 472),30	6241,(0, 82),30	6271,(0, 473),30	6301,(0, 79),30	6331,(0, 474),30	6361,(0, 475),30	6391,(0, 74),30	6421,(0, 477),30	6451,(0, 478),30	6481,(0, 69),30	6511,(0, 64),30	6541,(0, 59),30	6571,(0, 479),30	6601,(0, 54),30	6631,(0, 44),30	6661,(0, 40),30	6691,(0, 39),30	6721,(0, 38),30	6751,(0, 37),30	6781,(0, 35),30	6811,(0, 34),30	6841,(0, 33),30	6871,(0, 32),30	6901,(0, 30),30	6931,(0, 29),30	6961,(0, 28),30	6991,(0, 27),30	7021,(0, 25),30	7051,(0, 23),30	7081,(0, 22),30	7111,(0, 41),30	7141,(0, 36),30	7171,(0, 494),30	7201,(0, 31),30	7231,(0, 495),30	7261,(0, 26),30	7291,(0, 496),30	7321,(0, 21),30	7351,(0, 17),30	7381,(0, 18),30	7411,(0, 19),30	7441,(0, 8),30	7471,(0, 20),30	7501,(0, 4),30	7531,(0, 7),30	7561,(0, 498),30	7591,(0, 500),30	
92,(338, 501),3	212,(341, 501),3	272,(342, 501),3	362,(344, 501),3	452,(346, 501),3	512,(347, 501),3	632,(350, 501),3	722,(352, 501),3	812,(354, 501),3	872,(355, 501),3	962,(357, 501),3	1022,(309, 501),3	1112,(359, 501),3	1202,(361, 501),3	1292,(363, 501),3	1352,(364, 501),3	1442,(366, 501),3	1532,(368, 501),3	1652,(371, 501),3	1712,(372, 501),3	1802,(374, 501),3	1892,(272, 501),3	1952,(376, 501),3	2042,(378, 501),3	2162,(381, 501),3	2222,(382, 501),3	2312,(384, 501),3	2402,(386, 501),3	2462,(387, 501),3	2582,(390, 501),3	2672,(392, 501),3	2762,(394, 501),3	2822,(227, 501),3	2882,(395, 501),3	2942,(396, 501),3	3062,(399, 501),3	3152,(401, 501),3	3242,(403, 501),3	3302,(404, 501),3	3392,(406, 501),3	3482,(408, 501),3	3602,(411, 501),3	3662,(413, 501),3	3752,(174, 501),3	3812,(179, 501),3	3902,(168, 501),3	3992,(164, 501),3	4112,(159, 501),3	4172,(156, 501),3	4292,(149, 501),3	4382,(145, 501),3	4472,(141, 501),3	4592,(136, 501),3	4652,(133, 501),3	4712,(132, 501),3	4832,(127, 501),3	4892,(124, 501),3	5012,(119, 501),3	5102,(114, 501),3	5192,(110, 501),3	5312,(105, 501),3	5372,(101, 501),3	5492,(95, 501),3	5582,(91, 501),3	5642,(90, 501),3	5762,(460, 501),3	5852,(462, 501),3	5942,(464, 501),3	6002,(465, 501),3	6092,(467, 501),3	6182,(469, 501),3	6242,(470, 501),3	6332,(473, 501),3	6422,(475, 501),3	6482,(477, 501),3	6602,(59, 501),3	6692,(44, 501),3	6782,(38, 501),3	6902,(33, 501),3	7022,(28, 501),3	7142,(22, 501),3	7232,(494, 501),3	7292,(495, 501),3	7352,(496, 501),3	7412,(17, 501),3	7472,(19, 501),3	7562,(4, 501),3	7622,(498, 501),3	
62,(333, 501),3	122,(339, 501),3	182,(340, 501),3	302,(343, 501),3	422,(345, 501),3	542,(348, 501),3	602,(349, 501),3	662,(351, 501),3	782,(353, 501),3	902,(356, 501),3	992,(314, 501),3	1082,(358, 501),3	1142,(360, 501),3	1262,(362, 501),3	1382,(365, 501),3	1502,(367, 501),3	1562,(369, 501),3	1622,(370, 501),3	1742,(373, 501),3	1862,(375, 501),3	2012,(377, 501),3	2072,(379, 501),3	2132,(380, 501),3	2252,(383, 501),3	2372,(385, 501),3	2492,(388, 501),3	2552,(389, 501),3	2612,(391, 501),3	2732,(393, 501),3	2972,(397, 501),3	3032,(398, 501),3	3092,(400, 501),3	3212,(402, 501),3	3332,(405, 501),3	3452,(407, 501),3	3512,(409, 501),3	3572,(410, 501),3	3692,(414, 501),3	3842,(171, 501),3	3962,(165, 501),3	4022,(163, 501),3	4082,(160, 501),3	4202,(155, 501),3	4262,(150, 501),3	4322,(148, 501),3	4442,(142, 501),3	4502,(140, 501),3	4562,(137, 501),3	4682,(135, 501),3	4742,(139, 501),3	4802,(128, 501),3	4922,(123, 501),3	4982,(120, 501),3	5042,(118, 501),3	5162,(111, 501),3	5222,(109, 501),3	5282,(106, 501),3	5402,(100, 501),3	5462,(96, 501),3	5522,(94, 501),3	5672,(88, 501),3	5732,(108, 501),3	5792,(461, 501),3	5912,(463, 501),3	6032,(466, 501),3	6152,(468, 501),3	6272,(472, 501),3	6392,(474, 501),3	6512,(478, 501),3	6572,(64, 501),3	6632,(479, 501),3	6752,(39, 501),3	6812,(37, 501),3	6872,(34, 501),3	6932,(32, 501),3	6992,(29, 501),3	7052,(27, 501),3	7112,(23, 501),3	7172,(41, 501),3	7442,(18, 501),3	7532,(20, 501),3	7592,(7, 501),3	7652,(500, 501),3	
152,(337, 501),3	242,(336, 501),3	332,(335, 501),3	392,(334, 501),3	482,(332, 501),3	572,(331, 501),3	692,(330, 501),3	752,(327, 501),3	842,(324, 501),3	932,(319, 501),3	1052,(306, 501),3	1172,(303, 501),3	1232,(298, 501),3	1322,(293, 501),3	1412,(290, 501),3	1472,(289, 501),3	1592,(288, 501),3	1682,(285, 501),3	1772,(282, 501),3	1832,(277, 501),3	1922,(267, 501),3	1982,(264, 501),3	2102,(261, 501),3	2192,(256, 501),3	2282,(251, 501),3	2342,(250, 501),3	2432,(248, 501),3	2522,(245, 501),3	2642,(242, 501),3	2702,(237, 501),3	2792,(232, 501),3	2852,(224, 501),3	2912,(221, 501),3	3002,(216, 501),3	3122,(212, 501),3	3182,(211, 501),3	3272,(210, 501),3	3362,(206, 501),3	3422,(203, 501),3	3542,(200, 501),3	3632,(195, 501),3	3722,(190, 501),3	3782,(172, 501),3	3872,(169, 501),3	3932,(166, 501),3	4052,(161, 501),3	4142,(157, 501),3	4232,(151, 501),3	4352,(146, 501),3	4412,(143, 501),3	4532,(138, 501),3	4622,(134, 501),3	4772,(130, 501),3	4862,(125, 501),3	4952,(121, 501),3	5072,(116, 501),3	5132,(112, 501),3	5252,(107, 501),3	5342,(102, 501),3	5432,(97, 501),3	5552,(92, 501),3	5612,(89, 501),3	5702,(85, 501),3	5822,(103, 501),3	5882,(98, 501),3	5972,(93, 501),3	6062,(86, 501),3	6122,(84, 501),3	6212,(83, 501),3	6302,(82, 501),3	6362,(79, 501),3	6452,(74, 501),3	6542,(69, 501),3	6662,(54, 501),3	6722,(40, 501),3	6842,(35, 501),3	6962,(30, 501),3	7082,(25, 501),3	7202,(36, 501),3	7262,(31, 501),3	7322,(26, 501),3	7382,(21, 501),3	7502,(8, 501),3	
