502
# CPU
0,0,1	1,1,1	2,3,1	3,7,1	4,15,1	5,31,1	6,63,1	7,127,1	8,255,1	9,500,1	10,499,1	11,498,1	12,497,1	13,496,1	14,495,1	15,494,1	16,493,1	17,492,1	18,491,1	19,490,1	20,489,1	21,488,1	22,487,1	23,486,1	24,485,1	25,484,1	26,483,1	27,482,1	28,481,1	29,480,1	30,479,1	31,478,1	32,477,1	33,476,1	34,475,1	35,474,1	36,473,1	37,472,1	38,471,1	39,470,1	40,469,1	41,468,1	42,467,1	43,466,1	44,465,1	45,464,1	46,463,1	47,462,1	48,461,1	49,460,1	50,459,1	51,458,1	52,457,1	53,456,1	54,455,1	55,454,1	56,453,1	57,452,1	58,451,1	59,450,1	60,449,1	61,448,1	62,447,1	63,446,1	64,445,1	65,444,1	66,443,1	67,442,1	68,441,1	69,440,1	70,439,1	71,438,1	72,437,1	73,436,1	74,435,1	75,434,1	76,433,1	77,432,1	78,431,1	79,430,1	80,429,1	81,428,1	82,427,1	83,426,1	84,425,1	85,424,1	86,423,1	87,422,1	88,421,1	89,420,1	90,419,1	91,418,1	92,417,1	93,416,1	94,415,1	95,414,1	96,413,1	97,412,1	98,411,1	99,410,1	100,409,1	101,408,1	102,407,1	103,406,1	104,405,1	105,404,1	106,403,1	107,402,1	108,401,1	109,400,1	110,399,1	111,398,1	112,397,1	113,396,1	114,395,1	115,394,1	116,393,1	117,392,1	118,391,1	119,390,1	120,389,1	121,388,1	122,387,1	123,386,1	124,385,1	125,384,1	126,383,1	127,382,1	128,381,1	129,380,1	130,379,1	131,378,1	132,377,1	133,376,1	134,375,1	135,374,1	136,373,1	137,372,1	138,371,1	139,370,1	140,369,1	141,368,1	142,367,1	143,366,1	144,365,1	145,364,1	146,363,1	147,362,1	148,361,1	149,360,1	150,359,1	151,358,1	152,357,1	153,356,1	154,355,1	155,354,1	156,353,1	157,352,1	158,351,1	159,350,1	160,349,1	161,348,1	162,347,1	163,346,1	164,345,1	165,344,1	166,343,1	167,342,1	168,341,1	169,340,1	170,339,1	171,338,1	172,337,1	173,336,1	174,335,1	175,334,1	176,333,1	177,332,1	178,331,1	179,330,1	180,329,1	181,328,1	182,327,1	183,326,1	184,325,1	185,324,1	186,323,1	187,322,1	188,321,1	189,320,1	190,319,1	191,318,1	192,317,1	193,316,1	194,315,1	195,314,1	196,313,1	197,312,1	198,311,1	199,310,1	200,309,1	201,308,1	202,307,1	203,306,1	204,305,1	205,304,1	206,303,1	207,302,1	208,301,1	209,300,1	210,299,1	211,298,1	212,297,1	213,296,1	214,295,1	215,294,1	216,293,1	217,292,1	218,291,1	219,290,1	220,289,1	221,288,1	222,287,1	223,286,1	224,285,1	225,284,1	226,283,1	227,282,1	228,281,1	229,280,1	230,279,1	231,278,1	232,277,1	233,276,1	234,275,1	235,274,1	236,273,1	237,272,1	238,271,1	239,270,1	240,269,1	241,268,1	242,267,1	243,266,1	244,265,1	245,264,1	246,263,1	247,262,1	248,261,1	249,260,1	250,259,1	251,258,1	252,257,1	253,254,1	254,256,1	255,253,1	256,252,1	257,251,1	258,250,1	259,249,1	260,248,1	261,247,1	262,246,1	263,245,1	264,244,1	265,243,1	266,242,1	267,241,1	268,240,1	269,239,1	270,238,1	271,237,1	272,236,1	273,235,1	274,234,1	275,233,1	276,232,1	277,231,1	278,230,1	279,229,1	280,228,1	281,227,1	282,226,1	283,225,1	284,224,1	285,223,1	286,222,1	287,221,1	288,220,1	289,219,1	290,218,1	291,217,1	292,216,1	293,215,1	294,214,1	295,213,1	296,212,1	297,211,1	298,210,1	299,209,1	300,208,1	301,207,1	302,206,1	303,205,1	304,204,1	305,203,1	306,202,1	307,201,1	308,200,1	309,199,1	310,198,1	311,197,1	312,196,1	313,195,1	314,194,1	315,193,1	316,192,1	317,191,1	318,190,1	319,189,1	320,188,1	321,187,1	322,186,1	323,185,1	324,184,1	325,183,1	326,182,1	327,181,1	328,180,1	329,179,1	330,178,1	331,177,1	332,176,1	333,175,1	334,174,1	335,173,1	336,172,1	337,171,1	338,170,1	339,169,1	340,168,1	341,167,1	342,166,1	343,165,1	344,164,1	345,163,1	346,162,1	347,161,1	348,160,1	349,159,1	350,158,1	351,157,1	352,156,1	353,155,1	354,154,1	355,153,1	356,152,1	357,151,1	358,150,1	359,149,1	360,148,1	361,147,1	362,146,1	363,145,1	364,144,1	365,143,1	366,142,1	367,141,1	368,140,1	369,139,1	370,138,1	371,137,1	372,136,1	373,135,1	374,134,1	375,133,1	376,132,1	377,131,1	378,130,1	379,129,1	380,126,1	381,128,1	382,125,1	383,124,1	384,123,1	385,122,1	386,121,1	387,120,1	388,119,1	389,118,1	390,117,1	391,116,1	392,115,1	393,114,1	394,113,1	395,112,1	396,111,1	397,110,1	398,109,1	399,108,1	400,107,1	401,106,1	402,105,1	403,104,1	404,103,1	405,102,1	406,101,1	407,100,1	408,99,1	409,98,1	410,97,1	411,96,1	412,95,1	413,94,1	414,93,1	415,92,1	416,91,1	417,90,1	418,89,1	419,88,1	420,87,1	421,86,1	422,85,1	423,84,1	424,83,1	425,82,1	426,81,1	427,80,1	428,79,1	429,78,1	430,77,1	431,76,1	432,75,1	433,74,1	434,73,1	435,72,1	436,71,1	437,70,1	438,69,1	439,68,1	440,67,1	441,66,1	442,65,1	443,62,1	444,64,1	445,61,1	446,60,1	447,59,1	448,58,1	449,57,1	450,56,1	451,55,1	452,54,1	453,53,1	454,52,1	455,51,1	456,50,1	457,49,1	458,48,1	459,47,1	460,46,1	461,45,1	462,44,1	463,43,1	464,42,1	465,41,1	466,40,1	467,39,1	468,38,1	469,37,1	470,36,1	471,35,1	472,34,1	473,33,1	474,30,1	475,32,1	476,29,1	477,28,1	478,27,1	479,26,1	480,25,1	481,24,1	482,23,1	483,22,1	484,21,1	485,20,1	486,19,1	487,18,1	488,17,1	489,14,1	490,16,1	491,13,1	492,12,1	493,11,1	494,10,1	495,9,1	496,6,1	497,8,1	498,5,1	499,2,1	500,4,1	501,501,1	









# Incoming










# Outgoing










