1331
# CPU
0,501,1	1,329,3	4,328,3	7,330,3	10,327,3	13,326,3	16,325,3	19,331,3	22,324,3	25,322,3	28,323,3	31,321,3	34,332,3	37,320,3	40,333,3	43,319,3	46,318,3	49,317,3	52,316,3	55,334,3	58,315,3	61,335,3	64,314,3	67,313,3	70,417,3	73,199,3	76,312,3	79,311,3	82,336,3	85,310,3	88,309,3	91,308,3	94,307,3	97,306,3	100,305,3	103,337,3	106,304,3	109,303,3	112,302,3	115,338,3	118,301,3	121,300,3	124,339,3	127,299,3	130,298,3	133,297,3	136,341,3	139,1,3	142,409,3	145,296,3	148,295,3	151,294,3	154,293,3	157,342,3	160,292,3	163,291,3	166,345,3	169,290,3	172,289,3	175,288,3	178,346,3	181,287,3	184,286,3	187,285,3	190,284,3	193,283,3	196,282,3	199,348,3	202,281,3	205,349,3	208,149,3	211,147,3	214,280,3	217,279,3	220,351,3	223,278,3	226,352,3	229,277,3	232,276,3	235,275,3	238,274,3	241,355,3	244,273,3	247,356,3	250,272,3	253,357,3	256,270,3	259,269,3	262,271,3	265,268,3	268,267,3	271,266,3	274,359,3	277,411,3	280,164,3	283,264,3	286,263,3	289,265,3	292,262,3	295,361,3	298,261,3	301,259,3	304,260,3	307,258,3	310,362,3	313,257,3	316,364,3	319,256,3	322,255,3	325,254,3	328,253,3	331,365,3	334,252,3	337,367,3	340,251,3	343,250,3	346,185,3	349,154,3	352,249,3	355,248,3	358,369,3	361,247,3	364,246,3	367,245,3	370,244,3	373,370,3	376,243,3	379,372,3	382,242,3	385,241,3	388,240,3	391,373,3	394,239,3	397,238,3	400,375,3	403,237,3	406,236,3	409,235,3	412,377,3	415,386,3	418,207,3	421,234,3	424,233,3	427,232,3	430,231,3	433,378,3	436,230,3	439,228,3	442,229,3	445,227,3	448,226,3	451,225,3	454,380,3	457,224,3	460,381,3	463,223,3	466,222,3	469,221,3	472,220,3	475,383,3	478,219,3	481,385,3	484,2,3	487,131,3	490,218,3	493,217,3	496,387,3	499,216,3	502,389,3	505,215,3	508,214,3	511,213,3	514,212,3	517,390,3	520,211,3	523,210,3	526,209,3	529,392,3	532,206,3	535,205,3	538,208,3	541,204,3	544,394,3	547,203,3	550,395,3	553,435,3	556,121,3	559,201,3	562,200,3	565,202,3	568,198,3	571,397,3	574,197,3	577,195,3	580,196,3	583,194,3	586,398,3	589,193,3	592,400,3	595,192,3	598,191,3	601,190,3	604,189,3	607,188,3	610,187,3	613,402,3	616,186,3	619,184,3	622,93,3	625,455,3	628,183,3	631,182,3	634,403,3	637,181,3	640,180,3	643,179,3	646,178,3	649,419,3	652,418,3	655,420,3	658,416,3	661,415,3	664,414,3	667,421,3	670,422,3	673,410,3	676,423,3	679,408,3	682,406,3	685,405,3	688,424,3	691,122,3	694,451,3	697,177,3	700,176,3	703,175,3	706,174,3	709,425,3	712,172,3	715,426,3	718,427,3	721,171,3	724,170,3	727,169,3	730,428,3	733,167,3	736,166,3	739,429,3	742,165,3	745,163,3	748,161,3	751,430,3	754,160,3	757,431,3	760,462,3	763,96,3	766,159,3	769,158,3	772,432,3	775,157,3	778,155,3	781,153,3	784,433,3	787,152,3	790,151,3	793,434,3	796,150,3	799,436,3	802,146,3	805,437,3	808,145,3	811,144,3	814,438,3	817,142,3	820,141,3	823,140,3	826,439,3	829,48,3	832,72,3	835,440,3	838,139,3	841,441,3	844,138,3	847,442,3	850,136,3	853,135,3	856,443,3	859,134,3	862,133,3	865,130,3	868,444,3	871,129,3	874,128,3	877,445,3	880,126,3	883,446,3	886,125,3	889,447,3	892,124,3	895,123,3	898,460,3	901,75,3	904,120,3	907,118,3	910,448,3	913,117,3	916,116,3	919,115,3	922,449,3	925,450,3	928,114,3	931,452,3	934,112,3	937,111,3	940,110,3	943,453,3	946,108,3	949,107,3	952,454,3	955,106,3	958,105,3	961,104,3	964,456,3	967,54,3	970,63,3	973,458,3	976,457,3	979,102,3	982,101,3	985,459,3	988,100,3	991,87,3	994,88,3	997,86,3	1000,85,3	1003,84,3	1006,89,3	1009,83,3	1012,90,3	1015,82,3	1018,81,3	1021,80,3	1024,79,3	1027,91,3	1030,78,3	1033,92,3	1036,483,3	1039,39,3	1042,76,3	1045,74,3	1048,77,3	1051,73,3	1054,94,3	1057,71,3	1060,70,3	1063,69,3	1066,68,3	1069,95,3	1072,67,3	1075,97,3	1078,66,3	1081,461,3	1084,64,3	1087,62,3	1090,65,3	1093,61,3	1096,463,3	1099,60,3	1102,466,3	1105,487,3	1108,35,3	1111,58,3	1114,57,3	1117,59,3	1120,56,3	1123,467,3	1126,55,3	1129,52,3	1132,53,3	1135,51,3	1138,469,3	1141,50,3	1144,470,3	1147,49,3	1150,47,3	1153,46,3	1156,45,3	1159,484,3	1162,482,3	1165,485,3	1168,481,3	1171,480,3	1174,472,3	1177,25,3	1180,486,3	1183,479,3	1186,488,3	1189,477,3	1192,476,3	1195,474,3	1198,489,3	1201,44,3	1204,43,3	1207,490,3	1210,42,3	1213,40,3	1216,38,3	1219,491,3	1222,37,3	1225,34,3	1228,492,3	1231,33,3	1234,32,3	1237,31,3	1240,493,3	1243,17,3	1246,27,3	1249,19,3	1252,18,3	1255,20,3	1258,16,3	1261,21,3	1264,15,3	1267,14,3	1270,22,3	1273,13,3	1276,23,3	1279,12,3	1282,24,3	1285,11,3	1288,3,3	1291,4,3	1294,5,3	1297,6,3	1300,7,3	1303,8,3	1306,9,3	1309,10,3	1312,494,3	1315,496,3	1318,497,3	1321,498,3	1324,499,3	1327,500,3	1330,0,1	
24,340,3	47,343,3	93,347,3	139,353,3	185,358,3	231,363,3	254,366,3	300,371,3	323,374,3	415,384,3	438,388,3	461,391,3	507,396,3	576,404,3	599,407,3	622,412,3	714,162,3	760,148,3	783,143,3	806,137,3	852,127,3	898,113,3	921,109,3	944,103,3	967,98,3	990,99,3	1013,464,3	1059,468,3	1082,471,3	1105,473,3	1174,41,3	1197,36,3	1243,30,3	1266,495,3	1312,28,3	
70,344,3	116,350,3	162,354,3	208,360,3	277,368,3	346,376,3	369,379,3	392,382,3	484,393,3	530,399,3	553,401,3	645,413,3	668,173,3	691,168,3	737,156,3	829,132,3	875,119,3	1036,465,3	1128,475,3	1151,478,3	1220,29,3	1289,26,3	
# Incoming
27,(340, 0),1	50,(343, 0),1	73,(344, 0),1	96,(347, 0),1	119,(350, 0),1	142,(353, 0),1	165,(354, 0),1	188,(358, 0),1	211,(360, 0),1	234,(363, 0),1	257,(366, 0),1	280,(368, 0),1	303,(371, 0),1	326,(374, 0),1	349,(376, 0),1	372,(379, 0),1	395,(382, 0),1	418,(384, 0),1	441,(388, 0),1	464,(391, 0),1	487,(393, 0),1	510,(396, 0),1	533,(399, 0),1	556,(401, 0),1	579,(404, 0),1	602,(407, 0),1	625,(412, 0),1	648,(413, 0),1	671,(173, 0),1	694,(168, 0),1	717,(162, 0),1	740,(156, 0),1	763,(148, 0),1	786,(143, 0),1	809,(137, 0),1	832,(132, 0),1	855,(127, 0),1	878,(119, 0),1	901,(113, 0),1	924,(109, 0),1	947,(103, 0),1	970,(98, 0),1	993,(99, 0),1	1016,(464, 0),1	1039,(465, 0),1	1062,(468, 0),1	1085,(471, 0),1	1108,(473, 0),1	1131,(475, 0),1	1154,(478, 0),1	1177,(41, 0),1	1200,(36, 0),1	1223,(29, 0),1	1246,(30, 0),1	1269,(495, 0),1	1292,(26, 0),1	1315,(28, 0),1	
1,(501, 340),23	24,(501, 343),23	70,(501, 347),23	116,(501, 353),23	162,(501, 358),23	208,(501, 363),23	231,(501, 366),23	277,(501, 371),23	300,(501, 374),23	392,(501, 384),23	415,(501, 388),23	438,(501, 391),23	484,(501, 396),23	553,(501, 404),23	576,(501, 407),23	599,(501, 412),23	691,(501, 162),23	737,(501, 148),23	760,(501, 143),23	783,(501, 137),23	829,(501, 127),23	875,(501, 113),23	898,(501, 109),23	921,(501, 103),23	944,(501, 98),23	967,(501, 99),23	990,(501, 464),23	1036,(501, 468),23	1059,(501, 471),23	1082,(501, 473),23	1151,(501, 41),23	1174,(501, 36),23	1220,(501, 30),23	1243,(501, 495),23	1289,(501, 28),23	
47,(501, 344),23	93,(501, 350),23	139,(501, 354),23	185,(501, 360),23	254,(501, 368),23	323,(501, 376),23	346,(501, 379),23	369,(501, 382),23	461,(501, 393),23	507,(501, 399),23	530,(501, 401),23	622,(501, 413),23	645,(501, 173),23	668,(501, 168),23	714,(501, 156),23	806,(501, 132),23	852,(501, 119),23	1013,(501, 465),23	1105,(501, 475),23	1128,(501, 478),23	1197,(501, 29),23	1266,(501, 26),23	
# Outgoing
1,(501, 340),23	24,(501, 343),23	47,(501, 344),23	70,(501, 347),23	93,(501, 350),23	116,(501, 353),23	139,(501, 354),23	162,(501, 358),23	185,(501, 360),23	208,(501, 363),23	231,(501, 366),23	254,(501, 368),23	277,(501, 371),23	300,(501, 374),23	323,(501, 376),23	346,(501, 379),23	369,(501, 382),23	392,(501, 384),23	415,(501, 388),23	438,(501, 391),23	461,(501, 393),23	484,(501, 396),23	507,(501, 399),23	530,(501, 401),23	553,(501, 404),23	576,(501, 407),23	599,(501, 412),23	622,(501, 413),23	645,(501, 173),23	668,(501, 168),23	691,(501, 162),23	714,(501, 156),23	737,(501, 148),23	760,(501, 143),23	783,(501, 137),23	806,(501, 132),23	829,(501, 127),23	852,(501, 119),23	875,(501, 113),23	898,(501, 109),23	921,(501, 103),23	944,(501, 98),23	967,(501, 99),23	990,(501, 464),23	1013,(501, 465),23	1036,(501, 468),23	1059,(501, 471),23	1082,(501, 473),23	1105,(501, 475),23	1128,(501, 478),23	1151,(501, 41),23	1174,(501, 36),23	1197,(501, 29),23	1220,(501, 30),23	1243,(501, 495),23	1266,(501, 26),23	1289,(501, 28),23	
27,(340, 0),1	50,(343, 0),1	96,(347, 0),1	142,(353, 0),1	188,(358, 0),1	234,(363, 0),1	257,(366, 0),1	303,(371, 0),1	326,(374, 0),1	418,(384, 0),1	441,(388, 0),1	464,(391, 0),1	510,(396, 0),1	579,(404, 0),1	602,(407, 0),1	625,(412, 0),1	717,(162, 0),1	763,(148, 0),1	786,(143, 0),1	809,(137, 0),1	855,(127, 0),1	901,(113, 0),1	924,(109, 0),1	947,(103, 0),1	970,(98, 0),1	993,(99, 0),1	1016,(464, 0),1	1062,(468, 0),1	1085,(471, 0),1	1108,(473, 0),1	1177,(41, 0),1	1200,(36, 0),1	1246,(30, 0),1	1269,(495, 0),1	1315,(28, 0),1	
73,(344, 0),1	119,(350, 0),1	165,(354, 0),1	211,(360, 0),1	280,(368, 0),1	349,(376, 0),1	372,(379, 0),1	395,(382, 0),1	487,(393, 0),1	533,(399, 0),1	556,(401, 0),1	648,(413, 0),1	671,(173, 0),1	694,(168, 0),1	740,(156, 0),1	832,(132, 0),1	878,(119, 0),1	1039,(465, 0),1	1131,(475, 0),1	1154,(478, 0),1	1223,(29, 0),1	1292,(26, 0),1	
