3006
# CPU
13,2,2	25,4,2	37,6,2	49,8,2	61,10,2	73,12,2	85,14,2	97,16,2	109,18,2	121,20,2	133,22,2	145,24,2	157,26,2	169,28,2	181,30,2	193,32,2	205,34,2	217,36,2	229,38,2	241,40,2	253,42,2	265,44,2	277,46,2	289,48,2	301,50,2	313,52,2	325,54,2	337,56,2	349,58,2	361,60,2	373,62,2	385,64,2	397,66,2	409,68,2	421,70,2	433,72,2	445,74,2	457,76,2	469,78,2	481,80,2	493,82,2	505,84,2	517,86,2	529,88,2	541,90,2	553,92,2	565,94,2	577,96,2	589,98,2	601,100,2	613,102,2	625,104,2	637,106,2	649,108,2	661,110,2	673,112,2	685,114,2	697,116,2	709,118,2	721,120,2	733,122,2	745,124,2	757,126,2	769,128,2	781,130,2	793,132,2	805,134,2	817,136,2	829,138,2	841,140,2	853,142,2	865,144,2	877,146,2	889,148,2	901,150,2	913,152,2	925,154,2	937,156,2	949,158,2	961,160,2	973,162,2	985,164,2	997,166,2	1009,168,2	1021,170,2	1033,172,2	1045,174,2	1057,176,2	1069,178,2	1081,180,2	1093,182,2	1105,184,2	1117,186,2	1129,188,2	1141,190,2	1153,192,2	1165,194,2	1177,196,2	1189,198,2	1201,200,2	1213,202,2	1225,204,2	1237,206,2	1249,208,2	1261,210,2	1273,212,2	1285,214,2	1297,216,2	1309,218,2	1321,220,2	1333,222,2	1345,224,2	1357,226,2	1369,228,2	1381,230,2	1393,232,2	1405,234,2	1417,236,2	1429,238,2	1441,240,2	1453,242,2	1465,244,2	1477,246,2	1489,248,2	1501,250,2	1513,252,2	1525,254,2	1537,256,2	1549,258,2	1561,260,2	1573,262,2	1585,264,2	1597,266,2	1609,268,2	1621,270,2	1633,272,2	1645,274,2	1657,276,2	1669,278,2	1681,280,2	1693,282,2	1705,284,2	1717,286,2	1729,288,2	1741,290,2	1753,292,2	1765,294,2	1777,296,2	1789,298,2	1801,300,2	1813,302,2	1825,304,2	1837,306,2	1849,308,2	1861,310,2	1873,312,2	1885,314,2	1897,316,2	1909,318,2	1921,320,2	1933,322,2	1945,324,2	1957,326,2	1969,328,2	1981,330,2	1993,332,2	2005,334,2	2017,336,2	2029,338,2	2041,340,2	2053,342,2	2065,344,2	2077,346,2	2089,348,2	2101,350,2	2113,352,2	2125,354,2	2137,356,2	2149,358,2	2161,360,2	2173,362,2	2185,364,2	2197,366,2	2209,368,2	2221,370,2	2233,372,2	2245,374,2	2257,376,2	2269,378,2	2281,380,2	2293,382,2	2305,384,2	2317,386,2	2329,388,2	2341,390,2	2353,392,2	2365,394,2	2377,396,2	2389,398,2	2401,400,2	2413,402,2	2425,404,2	2437,406,2	2449,408,2	2461,410,2	2473,412,2	2485,414,2	2497,416,2	2509,418,2	2521,420,2	2533,422,2	2545,424,2	2557,426,2	2569,428,2	2581,430,2	2593,432,2	2605,434,2	2617,436,2	2629,438,2	2641,440,2	2653,442,2	2665,444,2	2677,446,2	2689,448,2	2701,450,2	2713,452,2	2725,454,2	2737,456,2	2749,458,2	2761,460,2	2773,462,2	2785,464,2	2797,466,2	2809,468,2	2821,470,2	2833,472,2	2845,474,2	2857,476,2	2869,478,2	2881,480,2	2893,482,2	2905,484,2	2917,486,2	2929,488,2	2941,490,2	2953,492,2	2965,494,2	2977,496,2	2989,498,2	3001,500,2	
0,0,1	1,1,2	3,5,2	5,13,2	7,29,2	9,61,2	11,125,2	13,253,2	15,499,2	17,497,2	19,495,2	21,493,2	23,491,2	25,489,2	27,487,2	29,485,2	31,483,2	33,481,2	35,479,2	37,477,2	39,475,2	41,473,2	43,471,2	45,469,2	47,467,2	49,465,2	51,463,2	53,461,2	55,459,2	57,457,2	59,455,2	61,453,2	63,451,2	65,449,2	67,447,2	69,445,2	71,443,2	73,441,2	75,439,2	77,437,2	79,435,2	81,433,2	83,431,2	85,429,2	87,427,2	89,425,2	91,423,2	93,421,2	95,419,2	97,417,2	99,415,2	101,413,2	103,411,2	105,409,2	107,407,2	109,405,2	111,403,2	113,401,2	115,399,2	117,397,2	119,395,2	121,393,2	123,391,2	125,389,2	127,387,2	129,385,2	131,383,2	133,381,2	135,379,2	137,377,2	139,375,2	141,373,2	143,371,2	145,369,2	147,367,2	149,365,2	151,363,2	153,361,2	155,359,2	157,357,2	159,355,2	161,353,2	163,351,2	165,349,2	167,347,2	169,345,2	171,343,2	173,341,2	175,339,2	177,337,2	179,335,2	181,333,2	183,331,2	185,329,2	187,327,2	189,325,2	191,323,2	193,321,2	195,319,2	197,317,2	199,315,2	201,313,2	203,311,2	205,309,2	207,307,2	209,305,2	211,303,2	213,301,2	215,299,2	217,297,2	219,295,2	221,293,2	223,291,2	225,289,2	227,287,2	229,285,2	231,283,2	233,281,2	235,279,2	237,277,2	239,275,2	241,273,2	243,271,2	245,269,2	247,267,2	249,265,2	251,263,2	253,261,2	255,259,2	257,257,2	259,251,2	261,255,2	263,249,2	265,247,2	267,245,2	269,243,2	271,241,2	273,239,2	275,237,2	277,235,2	279,233,2	281,231,2	283,229,2	285,227,2	287,225,2	289,223,2	291,221,2	293,219,2	295,217,2	297,215,2	299,213,2	301,211,2	303,209,2	305,207,2	307,205,2	309,203,2	311,201,2	313,199,2	315,197,2	317,195,2	319,193,2	321,191,2	323,189,2	325,187,2	327,185,2	329,183,2	331,181,2	333,179,2	335,177,2	337,175,2	339,173,2	341,171,2	343,169,2	345,167,2	347,165,2	349,163,2	351,161,2	353,159,2	355,157,2	357,155,2	359,153,2	361,151,2	363,149,2	365,147,2	367,145,2	369,143,2	371,141,2	373,139,2	375,137,2	377,135,2	379,133,2	381,131,2	383,129,2	385,123,2	387,127,2	389,121,2	391,119,2	393,117,2	395,115,2	397,113,2	399,111,2	401,109,2	403,107,2	405,105,2	407,103,2	409,101,2	411,99,2	413,97,2	415,95,2	417,93,2	419,91,2	421,89,2	423,87,2	425,85,2	427,83,2	429,81,2	431,79,2	433,77,2	435,75,2	437,73,2	439,71,2	441,69,2	443,67,2	445,65,2	447,59,2	449,63,2	451,57,2	453,55,2	455,53,2	457,51,2	459,49,2	461,47,2	463,45,2	465,43,2	467,41,2	469,39,2	471,37,2	473,35,2	475,33,2	477,27,2	479,31,2	481,25,2	483,23,2	485,21,2	487,19,2	489,17,2	491,11,2	493,15,2	495,9,2	497,3,2	499,7,2	3005,501,1	
# Incoming
1,(0, 2),12	13,(0, 4),12	25,(0, 6),12	37,(0, 8),12	49,(0, 10),12	61,(0, 12),12	73,(0, 14),12	85,(0, 16),12	97,(0, 18),12	109,(0, 20),12	121,(0, 22),12	133,(0, 24),12	145,(0, 26),12	157,(0, 28),12	169,(0, 30),12	181,(0, 32),12	193,(0, 34),12	205,(0, 36),12	217,(0, 38),12	229,(0, 40),12	241,(0, 42),12	253,(0, 44),12	265,(0, 46),12	277,(0, 48),12	289,(0, 50),12	301,(0, 52),12	313,(0, 54),12	325,(0, 56),12	337,(0, 58),12	349,(0, 60),12	361,(0, 62),12	373,(0, 64),12	385,(0, 66),12	397,(0, 68),12	409,(0, 70),12	421,(0, 72),12	433,(0, 74),12	445,(0, 76),12	457,(0, 78),12	469,(0, 80),12	481,(0, 82),12	493,(0, 84),12	505,(0, 86),12	517,(0, 88),12	529,(0, 90),12	541,(0, 92),12	553,(0, 94),12	565,(0, 96),12	577,(0, 98),12	589,(0, 100),12	601,(0, 102),12	613,(0, 104),12	625,(0, 106),12	637,(0, 108),12	649,(0, 110),12	661,(0, 112),12	673,(0, 114),12	685,(0, 116),12	697,(0, 118),12	709,(0, 120),12	721,(0, 122),12	733,(0, 124),12	745,(0, 126),12	757,(0, 128),12	769,(0, 130),12	781,(0, 132),12	793,(0, 134),12	805,(0, 136),12	817,(0, 138),12	829,(0, 140),12	841,(0, 142),12	853,(0, 144),12	865,(0, 146),12	877,(0, 148),12	889,(0, 150),12	901,(0, 152),12	913,(0, 154),12	925,(0, 156),12	937,(0, 158),12	949,(0, 160),12	961,(0, 162),12	973,(0, 164),12	985,(0, 166),12	997,(0, 168),12	1009,(0, 170),12	1021,(0, 172),12	1033,(0, 174),12	1045,(0, 176),12	1057,(0, 178),12	1069,(0, 180),12	1081,(0, 182),12	1093,(0, 184),12	1105,(0, 186),12	1117,(0, 188),12	1129,(0, 190),12	1141,(0, 192),12	1153,(0, 194),12	1165,(0, 196),12	1177,(0, 198),12	1189,(0, 200),12	1201,(0, 202),12	1213,(0, 204),12	1225,(0, 206),12	1237,(0, 208),12	1249,(0, 210),12	1261,(0, 212),12	1273,(0, 214),12	1285,(0, 216),12	1297,(0, 218),12	1309,(0, 220),12	1321,(0, 222),12	1333,(0, 224),12	1345,(0, 226),12	1357,(0, 228),12	1369,(0, 230),12	1381,(0, 232),12	1393,(0, 234),12	1405,(0, 236),12	1417,(0, 238),12	1429,(0, 240),12	1441,(0, 242),12	1453,(0, 244),12	1465,(0, 246),12	1477,(0, 248),12	1489,(0, 250),12	1501,(0, 252),12	1513,(0, 254),12	1525,(0, 256),12	1537,(0, 258),12	1549,(0, 260),12	1561,(0, 262),12	1573,(0, 264),12	1585,(0, 266),12	1597,(0, 268),12	1609,(0, 270),12	1621,(0, 272),12	1633,(0, 274),12	1645,(0, 276),12	1657,(0, 278),12	1669,(0, 280),12	1681,(0, 282),12	1693,(0, 284),12	1705,(0, 286),12	1717,(0, 288),12	1729,(0, 290),12	1741,(0, 292),12	1753,(0, 294),12	1765,(0, 296),12	1777,(0, 298),12	1789,(0, 300),12	1801,(0, 302),12	1813,(0, 304),12	1825,(0, 306),12	1837,(0, 308),12	1849,(0, 310),12	1861,(0, 312),12	1873,(0, 314),12	1885,(0, 316),12	1897,(0, 318),12	1909,(0, 320),12	1921,(0, 322),12	1933,(0, 324),12	1945,(0, 326),12	1957,(0, 328),12	1969,(0, 330),12	1981,(0, 332),12	1993,(0, 334),12	2005,(0, 336),12	2017,(0, 338),12	2029,(0, 340),12	2041,(0, 342),12	2053,(0, 344),12	2065,(0, 346),12	2077,(0, 348),12	2089,(0, 350),12	2101,(0, 352),12	2113,(0, 354),12	2125,(0, 356),12	2137,(0, 358),12	2149,(0, 360),12	2161,(0, 362),12	2173,(0, 364),12	2185,(0, 366),12	2197,(0, 368),12	2209,(0, 370),12	2221,(0, 372),12	2233,(0, 374),12	2245,(0, 376),12	2257,(0, 378),12	2269,(0, 380),12	2281,(0, 382),12	2293,(0, 384),12	2305,(0, 386),12	2317,(0, 388),12	2329,(0, 390),12	2341,(0, 392),12	2353,(0, 394),12	2365,(0, 396),12	2377,(0, 398),12	2389,(0, 400),12	2401,(0, 402),12	2413,(0, 404),12	2425,(0, 406),12	2437,(0, 408),12	2449,(0, 410),12	2461,(0, 412),12	2473,(0, 414),12	2485,(0, 416),12	2497,(0, 418),12	2509,(0, 420),12	2521,(0, 422),12	2533,(0, 424),12	2545,(0, 426),12	2557,(0, 428),12	2569,(0, 430),12	2581,(0, 432),12	2593,(0, 434),12	2605,(0, 436),12	2617,(0, 438),12	2629,(0, 440),12	2641,(0, 442),12	2653,(0, 444),12	2665,(0, 446),12	2677,(0, 448),12	2689,(0, 450),12	2701,(0, 452),12	2713,(0, 454),12	2725,(0, 456),12	2737,(0, 458),12	2749,(0, 460),12	2761,(0, 462),12	2773,(0, 464),12	2785,(0, 466),12	2797,(0, 468),12	2809,(0, 470),12	2821,(0, 472),12	2833,(0, 474),12	2845,(0, 476),12	2857,(0, 478),12	2869,(0, 480),12	2881,(0, 482),12	2893,(0, 484),12	2905,(0, 486),12	2917,(0, 488),12	2929,(0, 490),12	2941,(0, 492),12	2953,(0, 494),12	2965,(0, 496),12	2977,(0, 498),12	2989,(0, 500),12	
15,(2, 501),2	27,(4, 501),2	39,(6, 501),2	51,(8, 501),2	63,(10, 501),2	75,(12, 501),2	87,(14, 501),2	99,(16, 501),2	111,(18, 501),2	123,(20, 501),2	135,(22, 501),2	147,(24, 501),2	159,(26, 501),2	171,(28, 501),2	183,(30, 501),2	195,(32, 501),2	207,(34, 501),2	219,(36, 501),2	231,(38, 501),2	243,(40, 501),2	255,(42, 501),2	267,(44, 501),2	279,(46, 501),2	291,(48, 501),2	303,(50, 501),2	315,(52, 501),2	327,(54, 501),2	339,(56, 501),2	351,(58, 501),2	363,(60, 501),2	375,(62, 501),2	387,(64, 501),2	399,(66, 501),2	411,(68, 501),2	423,(70, 501),2	435,(72, 501),2	447,(74, 501),2	459,(76, 501),2	471,(78, 501),2	483,(80, 501),2	495,(82, 501),2	507,(84, 501),2	519,(86, 501),2	531,(88, 501),2	543,(90, 501),2	555,(92, 501),2	567,(94, 501),2	579,(96, 501),2	591,(98, 501),2	603,(100, 501),2	615,(102, 501),2	627,(104, 501),2	639,(106, 501),2	651,(108, 501),2	663,(110, 501),2	675,(112, 501),2	687,(114, 501),2	699,(116, 501),2	711,(118, 501),2	723,(120, 501),2	735,(122, 501),2	747,(124, 501),2	759,(126, 501),2	771,(128, 501),2	783,(130, 501),2	795,(132, 501),2	807,(134, 501),2	819,(136, 501),2	831,(138, 501),2	843,(140, 501),2	855,(142, 501),2	867,(144, 501),2	879,(146, 501),2	891,(148, 501),2	903,(150, 501),2	915,(152, 501),2	927,(154, 501),2	939,(156, 501),2	951,(158, 501),2	963,(160, 501),2	975,(162, 501),2	987,(164, 501),2	999,(166, 501),2	1011,(168, 501),2	1023,(170, 501),2	1035,(172, 501),2	1047,(174, 501),2	1059,(176, 501),2	1071,(178, 501),2	1083,(180, 501),2	1095,(182, 501),2	1107,(184, 501),2	1119,(186, 501),2	1131,(188, 501),2	1143,(190, 501),2	1155,(192, 501),2	1167,(194, 501),2	1179,(196, 501),2	1191,(198, 501),2	1203,(200, 501),2	1215,(202, 501),2	1227,(204, 501),2	1239,(206, 501),2	1251,(208, 501),2	1263,(210, 501),2	1275,(212, 501),2	1287,(214, 501),2	1299,(216, 501),2	1311,(218, 501),2	1323,(220, 501),2	1335,(222, 501),2	1347,(224, 501),2	1359,(226, 501),2	1371,(228, 501),2	1383,(230, 501),2	1395,(232, 501),2	1407,(234, 501),2	1419,(236, 501),2	1431,(238, 501),2	1443,(240, 501),2	1455,(242, 501),2	1467,(244, 501),2	1479,(246, 501),2	1491,(248, 501),2	1503,(250, 501),2	1515,(252, 501),2	1527,(254, 501),2	1539,(256, 501),2	1551,(258, 501),2	1563,(260, 501),2	1575,(262, 501),2	1587,(264, 501),2	1599,(266, 501),2	1611,(268, 501),2	1623,(270, 501),2	1635,(272, 501),2	1647,(274, 501),2	1659,(276, 501),2	1671,(278, 501),2	1683,(280, 501),2	1695,(282, 501),2	1707,(284, 501),2	1719,(286, 501),2	1731,(288, 501),2	1743,(290, 501),2	1755,(292, 501),2	1767,(294, 501),2	1779,(296, 501),2	1791,(298, 501),2	1803,(300, 501),2	1815,(302, 501),2	1827,(304, 501),2	1839,(306, 501),2	1851,(308, 501),2	1863,(310, 501),2	1875,(312, 501),2	1887,(314, 501),2	1899,(316, 501),2	1911,(318, 501),2	1923,(320, 501),2	1935,(322, 501),2	1947,(324, 501),2	1959,(326, 501),2	1971,(328, 501),2	1983,(330, 501),2	1995,(332, 501),2	2007,(334, 501),2	2019,(336, 501),2	2031,(338, 501),2	2043,(340, 501),2	2055,(342, 501),2	2067,(344, 501),2	2079,(346, 501),2	2091,(348, 501),2	2103,(350, 501),2	2115,(352, 501),2	2127,(354, 501),2	2139,(356, 501),2	2151,(358, 501),2	2163,(360, 501),2	2175,(362, 501),2	2187,(364, 501),2	2199,(366, 501),2	2211,(368, 501),2	2223,(370, 501),2	2235,(372, 501),2	2247,(374, 501),2	2259,(376, 501),2	2271,(378, 501),2	2283,(380, 501),2	2295,(382, 501),2	2307,(384, 501),2	2319,(386, 501),2	2331,(388, 501),2	2343,(390, 501),2	2355,(392, 501),2	2367,(394, 501),2	2379,(396, 501),2	2391,(398, 501),2	2403,(400, 501),2	2415,(402, 501),2	2427,(404, 501),2	2439,(406, 501),2	2451,(408, 501),2	2463,(410, 501),2	2475,(412, 501),2	2487,(414, 501),2	2499,(416, 501),2	2511,(418, 501),2	2523,(420, 501),2	2535,(422, 501),2	2547,(424, 501),2	2559,(426, 501),2	2571,(428, 501),2	2583,(430, 501),2	2595,(432, 501),2	2607,(434, 501),2	2619,(436, 501),2	2631,(438, 501),2	2643,(440, 501),2	2655,(442, 501),2	2667,(444, 501),2	2679,(446, 501),2	2691,(448, 501),2	2703,(450, 501),2	2715,(452, 501),2	2727,(454, 501),2	2739,(456, 501),2	2751,(458, 501),2	2763,(460, 501),2	2775,(462, 501),2	2787,(464, 501),2	2799,(466, 501),2	2811,(468, 501),2	2823,(470, 501),2	2835,(472, 501),2	2847,(474, 501),2	2859,(476, 501),2	2871,(478, 501),2	2883,(480, 501),2	2895,(482, 501),2	2907,(484, 501),2	2919,(486, 501),2	2931,(488, 501),2	2943,(490, 501),2	2955,(492, 501),2	2967,(494, 501),2	2979,(496, 501),2	2991,(498, 501),2	3003,(500, 501),2	
# Outgoing
15,(2, 501),2	27,(4, 501),2	39,(6, 501),2	51,(8, 501),2	63,(10, 501),2	75,(12, 501),2	87,(14, 501),2	99,(16, 501),2	111,(18, 501),2	123,(20, 501),2	135,(22, 501),2	147,(24, 501),2	159,(26, 501),2	171,(28, 501),2	183,(30, 501),2	195,(32, 501),2	207,(34, 501),2	219,(36, 501),2	231,(38, 501),2	243,(40, 501),2	255,(42, 501),2	267,(44, 501),2	279,(46, 501),2	291,(48, 501),2	303,(50, 501),2	315,(52, 501),2	327,(54, 501),2	339,(56, 501),2	351,(58, 501),2	363,(60, 501),2	375,(62, 501),2	387,(64, 501),2	399,(66, 501),2	411,(68, 501),2	423,(70, 501),2	435,(72, 501),2	447,(74, 501),2	459,(76, 501),2	471,(78, 501),2	483,(80, 501),2	495,(82, 501),2	507,(84, 501),2	519,(86, 501),2	531,(88, 501),2	543,(90, 501),2	555,(92, 501),2	567,(94, 501),2	579,(96, 501),2	591,(98, 501),2	603,(100, 501),2	615,(102, 501),2	627,(104, 501),2	639,(106, 501),2	651,(108, 501),2	663,(110, 501),2	675,(112, 501),2	687,(114, 501),2	699,(116, 501),2	711,(118, 501),2	723,(120, 501),2	735,(122, 501),2	747,(124, 501),2	759,(126, 501),2	771,(128, 501),2	783,(130, 501),2	795,(132, 501),2	807,(134, 501),2	819,(136, 501),2	831,(138, 501),2	843,(140, 501),2	855,(142, 501),2	867,(144, 501),2	879,(146, 501),2	891,(148, 501),2	903,(150, 501),2	915,(152, 501),2	927,(154, 501),2	939,(156, 501),2	951,(158, 501),2	963,(160, 501),2	975,(162, 501),2	987,(164, 501),2	999,(166, 501),2	1011,(168, 501),2	1023,(170, 501),2	1035,(172, 501),2	1047,(174, 501),2	1059,(176, 501),2	1071,(178, 501),2	1083,(180, 501),2	1095,(182, 501),2	1107,(184, 501),2	1119,(186, 501),2	1131,(188, 501),2	1143,(190, 501),2	1155,(192, 501),2	1167,(194, 501),2	1179,(196, 501),2	1191,(198, 501),2	1203,(200, 501),2	1215,(202, 501),2	1227,(204, 501),2	1239,(206, 501),2	1251,(208, 501),2	1263,(210, 501),2	1275,(212, 501),2	1287,(214, 501),2	1299,(216, 501),2	1311,(218, 501),2	1323,(220, 501),2	1335,(222, 501),2	1347,(224, 501),2	1359,(226, 501),2	1371,(228, 501),2	1383,(230, 501),2	1395,(232, 501),2	1407,(234, 501),2	1419,(236, 501),2	1431,(238, 501),2	1443,(240, 501),2	1455,(242, 501),2	1467,(244, 501),2	1479,(246, 501),2	1491,(248, 501),2	1503,(250, 501),2	1515,(252, 501),2	1527,(254, 501),2	1539,(256, 501),2	1551,(258, 501),2	1563,(260, 501),2	1575,(262, 501),2	1587,(264, 501),2	1599,(266, 501),2	1611,(268, 501),2	1623,(270, 501),2	1635,(272, 501),2	1647,(274, 501),2	1659,(276, 501),2	1671,(278, 501),2	1683,(280, 501),2	1695,(282, 501),2	1707,(284, 501),2	1719,(286, 501),2	1731,(288, 501),2	1743,(290, 501),2	1755,(292, 501),2	1767,(294, 501),2	1779,(296, 501),2	1791,(298, 501),2	1803,(300, 501),2	1815,(302, 501),2	1827,(304, 501),2	1839,(306, 501),2	1851,(308, 501),2	1863,(310, 501),2	1875,(312, 501),2	1887,(314, 501),2	1899,(316, 501),2	1911,(318, 501),2	1923,(320, 501),2	1935,(322, 501),2	1947,(324, 501),2	1959,(326, 501),2	1971,(328, 501),2	1983,(330, 501),2	1995,(332, 501),2	2007,(334, 501),2	2019,(336, 501),2	2031,(338, 501),2	2043,(340, 501),2	2055,(342, 501),2	2067,(344, 501),2	2079,(346, 501),2	2091,(348, 501),2	2103,(350, 501),2	2115,(352, 501),2	2127,(354, 501),2	2139,(356, 501),2	2151,(358, 501),2	2163,(360, 501),2	2175,(362, 501),2	2187,(364, 501),2	2199,(366, 501),2	2211,(368, 501),2	2223,(370, 501),2	2235,(372, 501),2	2247,(374, 501),2	2259,(376, 501),2	2271,(378, 501),2	2283,(380, 501),2	2295,(382, 501),2	2307,(384, 501),2	2319,(386, 501),2	2331,(388, 501),2	2343,(390, 501),2	2355,(392, 501),2	2367,(394, 501),2	2379,(396, 501),2	2391,(398, 501),2	2403,(400, 501),2	2415,(402, 501),2	2427,(404, 501),2	2439,(406, 501),2	2451,(408, 501),2	2463,(410, 501),2	2475,(412, 501),2	2487,(414, 501),2	2499,(416, 501),2	2511,(418, 501),2	2523,(420, 501),2	2535,(422, 501),2	2547,(424, 501),2	2559,(426, 501),2	2571,(428, 501),2	2583,(430, 501),2	2595,(432, 501),2	2607,(434, 501),2	2619,(436, 501),2	2631,(438, 501),2	2643,(440, 501),2	2655,(442, 501),2	2667,(444, 501),2	2679,(446, 501),2	2691,(448, 501),2	2703,(450, 501),2	2715,(452, 501),2	2727,(454, 501),2	2739,(456, 501),2	2751,(458, 501),2	2763,(460, 501),2	2775,(462, 501),2	2787,(464, 501),2	2799,(466, 501),2	2811,(468, 501),2	2823,(470, 501),2	2835,(472, 501),2	2847,(474, 501),2	2859,(476, 501),2	2871,(478, 501),2	2883,(480, 501),2	2895,(482, 501),2	2907,(484, 501),2	2919,(486, 501),2	2931,(488, 501),2	2943,(490, 501),2	2955,(492, 501),2	2967,(494, 501),2	2979,(496, 501),2	2991,(498, 501),2	3003,(500, 501),2	
1,(0, 2),12	13,(0, 4),12	25,(0, 6),12	37,(0, 8),12	49,(0, 10),12	61,(0, 12),12	73,(0, 14),12	85,(0, 16),12	97,(0, 18),12	109,(0, 20),12	121,(0, 22),12	133,(0, 24),12	145,(0, 26),12	157,(0, 28),12	169,(0, 30),12	181,(0, 32),12	193,(0, 34),12	205,(0, 36),12	217,(0, 38),12	229,(0, 40),12	241,(0, 42),12	253,(0, 44),12	265,(0, 46),12	277,(0, 48),12	289,(0, 50),12	301,(0, 52),12	313,(0, 54),12	325,(0, 56),12	337,(0, 58),12	349,(0, 60),12	361,(0, 62),12	373,(0, 64),12	385,(0, 66),12	397,(0, 68),12	409,(0, 70),12	421,(0, 72),12	433,(0, 74),12	445,(0, 76),12	457,(0, 78),12	469,(0, 80),12	481,(0, 82),12	493,(0, 84),12	505,(0, 86),12	517,(0, 88),12	529,(0, 90),12	541,(0, 92),12	553,(0, 94),12	565,(0, 96),12	577,(0, 98),12	589,(0, 100),12	601,(0, 102),12	613,(0, 104),12	625,(0, 106),12	637,(0, 108),12	649,(0, 110),12	661,(0, 112),12	673,(0, 114),12	685,(0, 116),12	697,(0, 118),12	709,(0, 120),12	721,(0, 122),12	733,(0, 124),12	745,(0, 126),12	757,(0, 128),12	769,(0, 130),12	781,(0, 132),12	793,(0, 134),12	805,(0, 136),12	817,(0, 138),12	829,(0, 140),12	841,(0, 142),12	853,(0, 144),12	865,(0, 146),12	877,(0, 148),12	889,(0, 150),12	901,(0, 152),12	913,(0, 154),12	925,(0, 156),12	937,(0, 158),12	949,(0, 160),12	961,(0, 162),12	973,(0, 164),12	985,(0, 166),12	997,(0, 168),12	1009,(0, 170),12	1021,(0, 172),12	1033,(0, 174),12	1045,(0, 176),12	1057,(0, 178),12	1069,(0, 180),12	1081,(0, 182),12	1093,(0, 184),12	1105,(0, 186),12	1117,(0, 188),12	1129,(0, 190),12	1141,(0, 192),12	1153,(0, 194),12	1165,(0, 196),12	1177,(0, 198),12	1189,(0, 200),12	1201,(0, 202),12	1213,(0, 204),12	1225,(0, 206),12	1237,(0, 208),12	1249,(0, 210),12	1261,(0, 212),12	1273,(0, 214),12	1285,(0, 216),12	1297,(0, 218),12	1309,(0, 220),12	1321,(0, 222),12	1333,(0, 224),12	1345,(0, 226),12	1357,(0, 228),12	1369,(0, 230),12	1381,(0, 232),12	1393,(0, 234),12	1405,(0, 236),12	1417,(0, 238),12	1429,(0, 240),12	1441,(0, 242),12	1453,(0, 244),12	1465,(0, 246),12	1477,(0, 248),12	1489,(0, 250),12	1501,(0, 252),12	1513,(0, 254),12	1525,(0, 256),12	1537,(0, 258),12	1549,(0, 260),12	1561,(0, 262),12	1573,(0, 264),12	1585,(0, 266),12	1597,(0, 268),12	1609,(0, 270),12	1621,(0, 272),12	1633,(0, 274),12	1645,(0, 276),12	1657,(0, 278),12	1669,(0, 280),12	1681,(0, 282),12	1693,(0, 284),12	1705,(0, 286),12	1717,(0, 288),12	1729,(0, 290),12	1741,(0, 292),12	1753,(0, 294),12	1765,(0, 296),12	1777,(0, 298),12	1789,(0, 300),12	1801,(0, 302),12	1813,(0, 304),12	1825,(0, 306),12	1837,(0, 308),12	1849,(0, 310),12	1861,(0, 312),12	1873,(0, 314),12	1885,(0, 316),12	1897,(0, 318),12	1909,(0, 320),12	1921,(0, 322),12	1933,(0, 324),12	1945,(0, 326),12	1957,(0, 328),12	1969,(0, 330),12	1981,(0, 332),12	1993,(0, 334),12	2005,(0, 336),12	2017,(0, 338),12	2029,(0, 340),12	2041,(0, 342),12	2053,(0, 344),12	2065,(0, 346),12	2077,(0, 348),12	2089,(0, 350),12	2101,(0, 352),12	2113,(0, 354),12	2125,(0, 356),12	2137,(0, 358),12	2149,(0, 360),12	2161,(0, 362),12	2173,(0, 364),12	2185,(0, 366),12	2197,(0, 368),12	2209,(0, 370),12	2221,(0, 372),12	2233,(0, 374),12	2245,(0, 376),12	2257,(0, 378),12	2269,(0, 380),12	2281,(0, 382),12	2293,(0, 384),12	2305,(0, 386),12	2317,(0, 388),12	2329,(0, 390),12	2341,(0, 392),12	2353,(0, 394),12	2365,(0, 396),12	2377,(0, 398),12	2389,(0, 400),12	2401,(0, 402),12	2413,(0, 404),12	2425,(0, 406),12	2437,(0, 408),12	2449,(0, 410),12	2461,(0, 412),12	2473,(0, 414),12	2485,(0, 416),12	2497,(0, 418),12	2509,(0, 420),12	2521,(0, 422),12	2533,(0, 424),12	2545,(0, 426),12	2557,(0, 428),12	2569,(0, 430),12	2581,(0, 432),12	2593,(0, 434),12	2605,(0, 436),12	2617,(0, 438),12	2629,(0, 440),12	2641,(0, 442),12	2653,(0, 444),12	2665,(0, 446),12	2677,(0, 448),12	2689,(0, 450),12	2701,(0, 452),12	2713,(0, 454),12	2725,(0, 456),12	2737,(0, 458),12	2749,(0, 460),12	2761,(0, 462),12	2773,(0, 464),12	2785,(0, 466),12	2797,(0, 468),12	2809,(0, 470),12	2821,(0, 472),12	2833,(0, 474),12	2845,(0, 476),12	2857,(0, 478),12	2869,(0, 480),12	2881,(0, 482),12	2893,(0, 484),12	2905,(0, 486),12	2917,(0, 488),12	2929,(0, 490),12	2941,(0, 492),12	2953,(0, 494),12	2965,(0, 496),12	2977,(0, 498),12	2989,(0, 500),12	
