54624
# CPU
329,3,2	657,6,2	985,9,2	1313,12,2	1641,15,2	1969,18,2	2297,21,2	2625,24,2	2953,27,2	3281,30,2	3609,33,2	3937,36,2	4265,39,2	4593,42,2	4921,45,2	5249,48,2	5577,51,2	5905,54,2	6233,57,2	6561,60,2	6889,63,2	7217,66,2	7545,69,2	7873,72,2	8201,75,2	8529,78,2	8857,81,2	9185,84,2	9513,87,2	9841,90,2	10169,93,2	10497,96,2	10825,99,2	11153,102,2	11481,105,2	11809,108,2	12137,111,2	12465,114,2	12793,117,2	13121,120,2	13449,123,2	13777,126,2	14105,129,2	14433,132,2	14761,135,2	15089,138,2	15417,141,2	15745,144,2	16073,147,2	16401,150,2	16729,153,2	17057,156,2	17385,159,2	17713,162,2	18041,165,2	18369,168,2	18697,171,2	19025,174,2	19353,177,2	19681,180,2	20009,183,2	20337,186,2	20665,189,2	20993,192,2	21321,195,2	21649,198,2	21977,201,2	22305,204,2	22633,207,2	22961,210,2	23289,213,2	23617,216,2	23945,219,2	24273,222,2	24601,225,2	24929,228,2	25257,231,2	25585,234,2	25913,237,2	26241,240,2	26569,243,2	26897,246,2	27225,249,2	27553,252,2	27881,255,2	28209,258,2	28537,261,2	28865,264,2	29193,267,2	29521,270,2	29849,273,2	30177,276,2	30505,279,2	30833,282,2	31161,285,2	31489,288,2	31817,291,2	32145,294,2	32473,297,2	32801,300,2	33129,303,2	33457,306,2	33785,309,2	34113,312,2	34441,315,2	34769,318,2	35097,321,2	35425,324,2	35753,327,2	36081,330,2	36409,333,2	36737,336,2	37065,339,2	37393,342,2	37721,345,2	38049,348,2	38377,351,2	38705,354,2	39033,357,2	39361,360,2	39689,363,2	40017,366,2	40345,369,2	40673,372,2	41001,375,2	41329,378,2	41657,381,2	41985,384,2	42313,387,2	42641,390,2	42969,393,2	43297,396,2	43625,399,2	43953,402,2	44281,405,2	44609,408,2	44937,411,2	45265,414,2	45593,417,2	45921,420,2	46249,423,2	46577,426,2	46905,429,2	47233,432,2	47561,435,2	47889,438,2	48217,441,2	48545,444,2	48873,447,2	49201,450,2	49529,453,2	49857,456,2	50185,459,2	50513,462,2	50841,465,2	51169,468,2	51497,471,2	51825,474,2	52153,477,2	52481,480,2	52809,483,2	53137,486,2	53465,489,2	53793,492,2	54121,495,2	54449,498,2	
165,2,2	493,5,2	821,8,2	1149,11,2	1477,14,2	1805,17,2	2133,20,2	2461,23,2	2789,26,2	3117,29,2	3445,32,2	3773,35,2	4101,38,2	4429,41,2	4757,44,2	5085,47,2	5413,50,2	5741,53,2	6069,56,2	6397,59,2	6725,62,2	7053,65,2	7381,68,2	7709,71,2	8037,74,2	8365,77,2	8693,80,2	9021,83,2	9349,86,2	9677,89,2	10005,92,2	10333,95,2	10661,98,2	10989,101,2	11317,104,2	11645,107,2	11973,110,2	12301,113,2	12629,116,2	12957,119,2	13285,122,2	13613,125,2	13941,128,2	14269,131,2	14597,134,2	14925,137,2	15253,140,2	15581,143,2	15909,146,2	16237,149,2	16565,152,2	16893,155,2	17221,158,2	17549,161,2	17877,164,2	18205,167,2	18533,170,2	18861,173,2	19189,176,2	19517,179,2	19845,182,2	20173,185,2	20501,188,2	20829,191,2	21157,194,2	21485,197,2	21813,200,2	22141,203,2	22469,206,2	22797,209,2	23125,212,2	23453,215,2	23781,218,2	24109,221,2	24437,224,2	24765,227,2	25093,230,2	25421,233,2	25749,236,2	26077,239,2	26405,242,2	26733,245,2	27061,248,2	27389,251,2	27717,254,2	28045,257,2	28373,260,2	28701,263,2	29029,266,2	29357,269,2	29685,272,2	30013,275,2	30341,278,2	30669,281,2	30997,284,2	31325,287,2	31653,290,2	31981,293,2	32309,296,2	32637,299,2	32965,302,2	33293,305,2	33621,308,2	33949,311,2	34277,314,2	34605,317,2	34933,320,2	35261,323,2	35589,326,2	35917,329,2	36245,332,2	36573,335,2	36901,338,2	37229,341,2	37557,344,2	37885,347,2	38213,350,2	38541,353,2	38869,356,2	39197,359,2	39525,362,2	39853,365,2	40181,368,2	40509,371,2	40837,374,2	41165,377,2	41493,380,2	41821,383,2	42149,386,2	42477,389,2	42805,392,2	43133,395,2	43461,398,2	43789,401,2	44117,404,2	44445,407,2	44773,410,2	45101,413,2	45429,416,2	45757,419,2	46085,422,2	46413,425,2	46741,428,2	47069,431,2	47397,434,2	47725,437,2	48053,440,2	48381,443,2	48709,446,2	49037,449,2	49365,452,2	49693,455,2	50021,458,2	50349,461,2	50677,464,2	51005,467,2	51333,470,2	51661,473,2	51989,476,2	52317,479,2	52645,482,2	52973,485,2	53301,488,2	53629,491,2	53957,494,2	54285,497,2	54613,500,2	
0,0,1	1,1,2	3,7,2	5,19,2	7,43,2	9,91,2	11,187,2	13,379,2	15,499,2	17,496,2	19,493,2	21,490,2	23,487,2	25,484,2	27,481,2	29,478,2	31,475,2	33,472,2	35,469,2	37,466,2	39,463,2	41,460,2	43,457,2	45,454,2	47,451,2	49,448,2	51,445,2	53,442,2	55,439,2	57,436,2	59,433,2	61,430,2	63,427,2	65,424,2	67,421,2	69,418,2	71,415,2	73,412,2	75,409,2	77,406,2	79,403,2	81,400,2	83,397,2	85,394,2	87,391,2	89,388,2	91,385,2	93,376,2	95,382,2	97,373,2	99,370,2	101,367,2	103,364,2	105,361,2	107,358,2	109,355,2	111,352,2	113,349,2	115,346,2	117,343,2	119,340,2	121,337,2	123,334,2	125,331,2	127,328,2	129,325,2	131,322,2	133,319,2	135,316,2	137,313,2	139,310,2	141,307,2	143,304,2	145,301,2	147,298,2	149,295,2	151,292,2	153,289,2	155,286,2	157,283,2	159,280,2	161,277,2	163,274,2	165,271,2	167,268,2	169,265,2	171,262,2	173,259,2	175,256,2	177,253,2	179,250,2	181,247,2	183,244,2	185,241,2	187,238,2	189,235,2	191,232,2	193,229,2	195,226,2	197,223,2	199,220,2	201,217,2	203,214,2	205,211,2	207,208,2	209,205,2	211,202,2	213,199,2	215,196,2	217,193,2	219,184,2	221,190,2	223,181,2	225,178,2	227,175,2	229,172,2	231,169,2	233,166,2	235,163,2	237,160,2	239,157,2	241,154,2	243,151,2	245,148,2	247,145,2	249,142,2	251,139,2	253,136,2	255,133,2	257,130,2	259,127,2	261,124,2	263,121,2	265,118,2	267,115,2	269,112,2	271,109,2	273,106,2	275,103,2	277,100,2	279,97,2	281,88,2	283,94,2	285,85,2	287,82,2	289,79,2	291,76,2	293,73,2	295,70,2	297,67,2	299,64,2	301,61,2	303,58,2	305,55,2	307,52,2	309,49,2	311,40,2	313,46,2	315,37,2	317,34,2	319,31,2	321,28,2	323,25,2	325,16,2	327,22,2	329,13,2	331,4,2	333,10,2	54623,501,1	
# Incoming
165,(0, 3),164	493,(0, 6),164	821,(0, 9),164	1149,(0, 12),164	1477,(0, 15),164	1805,(0, 18),164	2133,(0, 21),164	2461,(0, 24),164	2789,(0, 27),164	3117,(0, 30),164	3445,(0, 33),164	3773,(0, 36),164	4101,(0, 39),164	4429,(0, 42),164	4757,(0, 45),164	5085,(0, 48),164	5413,(0, 51),164	5741,(0, 54),164	6069,(0, 57),164	6397,(0, 60),164	6725,(0, 63),164	7053,(0, 66),164	7381,(0, 69),164	7709,(0, 72),164	8037,(0, 75),164	8365,(0, 78),164	8693,(0, 81),164	9021,(0, 84),164	9349,(0, 87),164	9677,(0, 90),164	10005,(0, 93),164	10333,(0, 96),164	10661,(0, 99),164	10989,(0, 102),164	11317,(0, 105),164	11645,(0, 108),164	11973,(0, 111),164	12301,(0, 114),164	12629,(0, 117),164	12957,(0, 120),164	13285,(0, 123),164	13613,(0, 126),164	13941,(0, 129),164	14269,(0, 132),164	14597,(0, 135),164	14925,(0, 138),164	15253,(0, 141),164	15581,(0, 144),164	15909,(0, 147),164	16237,(0, 150),164	16565,(0, 153),164	16893,(0, 156),164	17221,(0, 159),164	17549,(0, 162),164	17877,(0, 165),164	18205,(0, 168),164	18533,(0, 171),164	18861,(0, 174),164	19189,(0, 177),164	19517,(0, 180),164	19845,(0, 183),164	20173,(0, 186),164	20501,(0, 189),164	20829,(0, 192),164	21157,(0, 195),164	21485,(0, 198),164	21813,(0, 201),164	22141,(0, 204),164	22469,(0, 207),164	22797,(0, 210),164	23125,(0, 213),164	23453,(0, 216),164	23781,(0, 219),164	24109,(0, 222),164	24437,(0, 225),164	24765,(0, 228),164	25093,(0, 231),164	25421,(0, 234),164	25749,(0, 237),164	26077,(0, 240),164	26405,(0, 243),164	26733,(0, 246),164	27061,(0, 249),164	27389,(0, 252),164	27717,(0, 255),164	28045,(0, 258),164	28373,(0, 261),164	28701,(0, 264),164	29029,(0, 267),164	29357,(0, 270),164	29685,(0, 273),164	30013,(0, 276),164	30341,(0, 279),164	30669,(0, 282),164	30997,(0, 285),164	31325,(0, 288),164	31653,(0, 291),164	31981,(0, 294),164	32309,(0, 297),164	32637,(0, 300),164	32965,(0, 303),164	33293,(0, 306),164	33621,(0, 309),164	33949,(0, 312),164	34277,(0, 315),164	34605,(0, 318),164	34933,(0, 321),164	35261,(0, 324),164	35589,(0, 327),164	35917,(0, 330),164	36245,(0, 333),164	36573,(0, 336),164	36901,(0, 339),164	37229,(0, 342),164	37557,(0, 345),164	37885,(0, 348),164	38213,(0, 351),164	38541,(0, 354),164	38869,(0, 357),164	39197,(0, 360),164	39525,(0, 363),164	39853,(0, 366),164	40181,(0, 369),164	40509,(0, 372),164	40837,(0, 375),164	41165,(0, 378),164	41493,(0, 381),164	41821,(0, 384),164	42149,(0, 387),164	42477,(0, 390),164	42805,(0, 393),164	43133,(0, 396),164	43461,(0, 399),164	43789,(0, 402),164	44117,(0, 405),164	44445,(0, 408),164	44773,(0, 411),164	45101,(0, 414),164	45429,(0, 417),164	45757,(0, 420),164	46085,(0, 423),164	46413,(0, 426),164	46741,(0, 429),164	47069,(0, 432),164	47397,(0, 435),164	47725,(0, 438),164	48053,(0, 441),164	48381,(0, 444),164	48709,(0, 447),164	49037,(0, 450),164	49365,(0, 453),164	49693,(0, 456),164	50021,(0, 459),164	50349,(0, 462),164	50677,(0, 465),164	51005,(0, 468),164	51333,(0, 471),164	51661,(0, 474),164	51989,(0, 477),164	52317,(0, 480),164	52645,(0, 483),164	52973,(0, 486),164	53301,(0, 489),164	53629,(0, 492),164	53957,(0, 495),164	54285,(0, 498),164	
1,(0, 2),164	329,(0, 5),164	657,(0, 8),164	985,(0, 11),164	1313,(0, 14),164	1641,(0, 17),164	1969,(0, 20),164	2297,(0, 23),164	2625,(0, 26),164	2953,(0, 29),164	3281,(0, 32),164	3609,(0, 35),164	3937,(0, 38),164	4265,(0, 41),164	4593,(0, 44),164	4921,(0, 47),164	5249,(0, 50),164	5577,(0, 53),164	5905,(0, 56),164	6233,(0, 59),164	6561,(0, 62),164	6889,(0, 65),164	7217,(0, 68),164	7545,(0, 71),164	7873,(0, 74),164	8201,(0, 77),164	8529,(0, 80),164	8857,(0, 83),164	9185,(0, 86),164	9513,(0, 89),164	9841,(0, 92),164	10169,(0, 95),164	10497,(0, 98),164	10825,(0, 101),164	11153,(0, 104),164	11481,(0, 107),164	11809,(0, 110),164	12137,(0, 113),164	12465,(0, 116),164	12793,(0, 119),164	13121,(0, 122),164	13449,(0, 125),164	13777,(0, 128),164	14105,(0, 131),164	14433,(0, 134),164	14761,(0, 137),164	15089,(0, 140),164	15417,(0, 143),164	15745,(0, 146),164	16073,(0, 149),164	16401,(0, 152),164	16729,(0, 155),164	17057,(0, 158),164	17385,(0, 161),164	17713,(0, 164),164	18041,(0, 167),164	18369,(0, 170),164	18697,(0, 173),164	19025,(0, 176),164	19353,(0, 179),164	19681,(0, 182),164	20009,(0, 185),164	20337,(0, 188),164	20665,(0, 191),164	20993,(0, 194),164	21321,(0, 197),164	21649,(0, 200),164	21977,(0, 203),164	22305,(0, 206),164	22633,(0, 209),164	22961,(0, 212),164	23289,(0, 215),164	23617,(0, 218),164	23945,(0, 221),164	24273,(0, 224),164	24601,(0, 227),164	24929,(0, 230),164	25257,(0, 233),164	25585,(0, 236),164	25913,(0, 239),164	26241,(0, 242),164	26569,(0, 245),164	26897,(0, 248),164	27225,(0, 251),164	27553,(0, 254),164	27881,(0, 257),164	28209,(0, 260),164	28537,(0, 263),164	28865,(0, 266),164	29193,(0, 269),164	29521,(0, 272),164	29849,(0, 275),164	30177,(0, 278),164	30505,(0, 281),164	30833,(0, 284),164	31161,(0, 287),164	31489,(0, 290),164	31817,(0, 293),164	32145,(0, 296),164	32473,(0, 299),164	32801,(0, 302),164	33129,(0, 305),164	33457,(0, 308),164	33785,(0, 311),164	34113,(0, 314),164	34441,(0, 317),164	34769,(0, 320),164	35097,(0, 323),164	35425,(0, 326),164	35753,(0, 329),164	36081,(0, 332),164	36409,(0, 335),164	36737,(0, 338),164	37065,(0, 341),164	37393,(0, 344),164	37721,(0, 347),164	38049,(0, 350),164	38377,(0, 353),164	38705,(0, 356),164	39033,(0, 359),164	39361,(0, 362),164	39689,(0, 365),164	40017,(0, 368),164	40345,(0, 371),164	40673,(0, 374),164	41001,(0, 377),164	41329,(0, 380),164	41657,(0, 383),164	41985,(0, 386),164	42313,(0, 389),164	42641,(0, 392),164	42969,(0, 395),164	43297,(0, 398),164	43625,(0, 401),164	43953,(0, 404),164	44281,(0, 407),164	44609,(0, 410),164	44937,(0, 413),164	45265,(0, 416),164	45593,(0, 419),164	45921,(0, 422),164	46249,(0, 425),164	46577,(0, 428),164	46905,(0, 431),164	47233,(0, 434),164	47561,(0, 437),164	47889,(0, 440),164	48217,(0, 443),164	48545,(0, 446),164	48873,(0, 449),164	49201,(0, 452),164	49529,(0, 455),164	49857,(0, 458),164	50185,(0, 461),164	50513,(0, 464),164	50841,(0, 467),164	51169,(0, 470),164	51497,(0, 473),164	51825,(0, 476),164	52153,(0, 479),164	52481,(0, 482),164	52809,(0, 485),164	53137,(0, 488),164	53465,(0, 491),164	53793,(0, 494),164	54121,(0, 497),164	54449,(0, 500),164	
167,(2, 501),8	331,(3, 501),8	495,(5, 501),8	659,(6, 501),8	823,(8, 501),8	987,(9, 501),8	1151,(11, 501),8	1315,(12, 501),8	1479,(14, 501),8	1643,(15, 501),8	1807,(17, 501),8	1971,(18, 501),8	2135,(20, 501),8	2299,(21, 501),8	2463,(23, 501),8	2627,(24, 501),8	2791,(26, 501),8	2955,(27, 501),8	3119,(29, 501),8	3283,(30, 501),8	3447,(32, 501),8	3611,(33, 501),8	3775,(35, 501),8	3939,(36, 501),8	4103,(38, 501),8	4267,(39, 501),8	4431,(41, 501),8	4595,(42, 501),8	4759,(44, 501),8	4923,(45, 501),8	5087,(47, 501),8	5251,(48, 501),8	5415,(50, 501),8	5579,(51, 501),8	5743,(53, 501),8	5907,(54, 501),8	6071,(56, 501),8	6235,(57, 501),8	6399,(59, 501),8	6563,(60, 501),8	6727,(62, 501),8	6891,(63, 501),8	7055,(65, 501),8	7219,(66, 501),8	7383,(68, 501),8	7547,(69, 501),8	7711,(71, 501),8	7875,(72, 501),8	8039,(74, 501),8	8203,(75, 501),8	8367,(77, 501),8	8531,(78, 501),8	8695,(80, 501),8	8859,(81, 501),8	9023,(83, 501),8	9187,(84, 501),8	9351,(86, 501),8	9515,(87, 501),8	9679,(89, 501),8	9843,(90, 501),8	10007,(92, 501),8	10171,(93, 501),8	10335,(95, 501),8	10499,(96, 501),8	10663,(98, 501),8	10827,(99, 501),8	10991,(101, 501),8	11155,(102, 501),8	11319,(104, 501),8	11483,(105, 501),8	11647,(107, 501),8	11811,(108, 501),8	11975,(110, 501),8	12139,(111, 501),8	12303,(113, 501),8	12467,(114, 501),8	12631,(116, 501),8	12795,(117, 501),8	12959,(119, 501),8	13123,(120, 501),8	13287,(122, 501),8	13451,(123, 501),8	13615,(125, 501),8	13779,(126, 501),8	13943,(128, 501),8	14107,(129, 501),8	14271,(131, 501),8	14435,(132, 501),8	14599,(134, 501),8	14763,(135, 501),8	14927,(137, 501),8	15091,(138, 501),8	15255,(140, 501),8	15419,(141, 501),8	15583,(143, 501),8	15747,(144, 501),8	15911,(146, 501),8	16075,(147, 501),8	16239,(149, 501),8	16403,(150, 501),8	16567,(152, 501),8	16731,(153, 501),8	16895,(155, 501),8	17059,(156, 501),8	17223,(158, 501),8	17387,(159, 501),8	17551,(161, 501),8	17715,(162, 501),8	17879,(164, 501),8	18043,(165, 501),8	18207,(167, 501),8	18371,(168, 501),8	18535,(170, 501),8	18699,(171, 501),8	18863,(173, 501),8	19027,(174, 501),8	19191,(176, 501),8	19355,(177, 501),8	19519,(179, 501),8	19683,(180, 501),8	19847,(182, 501),8	20011,(183, 501),8	20175,(185, 501),8	20339,(186, 501),8	20503,(188, 501),8	20667,(189, 501),8	20831,(191, 501),8	20995,(192, 501),8	21159,(194, 501),8	21323,(195, 501),8	21487,(197, 501),8	21651,(198, 501),8	21815,(200, 501),8	21979,(201, 501),8	22143,(203, 501),8	22307,(204, 501),8	22471,(206, 501),8	22635,(207, 501),8	22799,(209, 501),8	22963,(210, 501),8	23127,(212, 501),8	23291,(213, 501),8	23455,(215, 501),8	23619,(216, 501),8	23783,(218, 501),8	23947,(219, 501),8	24111,(221, 501),8	24275,(222, 501),8	24439,(224, 501),8	24603,(225, 501),8	24767,(227, 501),8	24931,(228, 501),8	25095,(230, 501),8	25259,(231, 501),8	25423,(233, 501),8	25587,(234, 501),8	25751,(236, 501),8	25915,(237, 501),8	26079,(239, 501),8	26243,(240, 501),8	26407,(242, 501),8	26571,(243, 501),8	26735,(245, 501),8	26899,(246, 501),8	27063,(248, 501),8	27227,(249, 501),8	27391,(251, 501),8	27555,(252, 501),8	27719,(254, 501),8	27883,(255, 501),8	28047,(257, 501),8	28211,(258, 501),8	28375,(260, 501),8	28539,(261, 501),8	28703,(263, 501),8	28867,(264, 501),8	29031,(266, 501),8	29195,(267, 501),8	29359,(269, 501),8	29523,(270, 501),8	29687,(272, 501),8	29851,(273, 501),8	30015,(275, 501),8	30179,(276, 501),8	30343,(278, 501),8	30507,(279, 501),8	30671,(281, 501),8	30835,(282, 501),8	30999,(284, 501),8	31163,(285, 501),8	31327,(287, 501),8	31491,(288, 501),8	31655,(290, 501),8	31819,(291, 501),8	31983,(293, 501),8	32147,(294, 501),8	32311,(296, 501),8	32475,(297, 501),8	32639,(299, 501),8	32803,(300, 501),8	32967,(302, 501),8	33131,(303, 501),8	33295,(305, 501),8	33459,(306, 501),8	33623,(308, 501),8	33787,(309, 501),8	33951,(311, 501),8	34115,(312, 501),8	34279,(314, 501),8	34443,(315, 501),8	34607,(317, 501),8	34771,(318, 501),8	34935,(320, 501),8	35099,(321, 501),8	35263,(323, 501),8	35427,(324, 501),8	35591,(326, 501),8	35755,(327, 501),8	35919,(329, 501),8	36083,(330, 501),8	36247,(332, 501),8	36411,(333, 501),8	36575,(335, 501),8	36739,(336, 501),8	36903,(338, 501),8	37067,(339, 501),8	37231,(341, 501),8	37395,(342, 501),8	37559,(344, 501),8	37723,(345, 501),8	37887,(347, 501),8	38051,(348, 501),8	38215,(350, 501),8	38379,(351, 501),8	38543,(353, 501),8	38707,(354, 501),8	38871,(356, 501),8	39035,(357, 501),8	39199,(359, 501),8	39363,(360, 501),8	39527,(362, 501),8	39691,(363, 501),8	39855,(365, 501),8	40019,(366, 501),8	40183,(368, 501),8	40347,(369, 501),8	40511,(371, 501),8	40675,(372, 501),8	40839,(374, 501),8	41003,(375, 501),8	41167,(377, 501),8	41331,(378, 501),8	41495,(380, 501),8	41659,(381, 501),8	41823,(383, 501),8	41987,(384, 501),8	42151,(386, 501),8	42315,(387, 501),8	42479,(389, 501),8	42643,(390, 501),8	42807,(392, 501),8	42971,(393, 501),8	43135,(395, 501),8	43299,(396, 501),8	43463,(398, 501),8	43627,(399, 501),8	43791,(401, 501),8	43955,(402, 501),8	44119,(404, 501),8	44283,(405, 501),8	44447,(407, 501),8	44611,(408, 501),8	44775,(410, 501),8	44939,(411, 501),8	45103,(413, 501),8	45267,(414, 501),8	45431,(416, 501),8	45595,(417, 501),8	45759,(419, 501),8	45923,(420, 501),8	46087,(422, 501),8	46251,(423, 501),8	46415,(425, 501),8	46579,(426, 501),8	46743,(428, 501),8	46907,(429, 501),8	47071,(431, 501),8	47235,(432, 501),8	47399,(434, 501),8	47563,(435, 501),8	47727,(437, 501),8	47891,(438, 501),8	48055,(440, 501),8	48219,(441, 501),8	48383,(443, 501),8	48547,(444, 501),8	48711,(446, 501),8	48875,(447, 501),8	49039,(449, 501),8	49203,(450, 501),8	49367,(452, 501),8	49531,(453, 501),8	49695,(455, 501),8	49859,(456, 501),8	50023,(458, 501),8	50187,(459, 501),8	50351,(461, 501),8	50515,(462, 501),8	50679,(464, 501),8	50843,(465, 501),8	51007,(467, 501),8	51171,(468, 501),8	51335,(470, 501),8	51499,(471, 501),8	51663,(473, 501),8	51827,(474, 501),8	51991,(476, 501),8	52155,(477, 501),8	52319,(479, 501),8	52483,(480, 501),8	52647,(482, 501),8	52811,(483, 501),8	52975,(485, 501),8	53139,(486, 501),8	53303,(488, 501),8	53467,(489, 501),8	53631,(491, 501),8	53795,(492, 501),8	53959,(494, 501),8	54123,(495, 501),8	54287,(497, 501),8	54451,(498, 501),8	54615,(500, 501),8	
# Outgoing
331,(3, 501),8	659,(6, 501),8	987,(9, 501),8	1315,(12, 501),8	1643,(15, 501),8	1971,(18, 501),8	2299,(21, 501),8	2627,(24, 501),8	2955,(27, 501),8	3283,(30, 501),8	3611,(33, 501),8	3939,(36, 501),8	4267,(39, 501),8	4595,(42, 501),8	4923,(45, 501),8	5251,(48, 501),8	5579,(51, 501),8	5907,(54, 501),8	6235,(57, 501),8	6563,(60, 501),8	6891,(63, 501),8	7219,(66, 501),8	7547,(69, 501),8	7875,(72, 501),8	8203,(75, 501),8	8531,(78, 501),8	8859,(81, 501),8	9187,(84, 501),8	9515,(87, 501),8	9843,(90, 501),8	10171,(93, 501),8	10499,(96, 501),8	10827,(99, 501),8	11155,(102, 501),8	11483,(105, 501),8	11811,(108, 501),8	12139,(111, 501),8	12467,(114, 501),8	12795,(117, 501),8	13123,(120, 501),8	13451,(123, 501),8	13779,(126, 501),8	14107,(129, 501),8	14435,(132, 501),8	14763,(135, 501),8	15091,(138, 501),8	15419,(141, 501),8	15747,(144, 501),8	16075,(147, 501),8	16403,(150, 501),8	16731,(153, 501),8	17059,(156, 501),8	17387,(159, 501),8	17715,(162, 501),8	18043,(165, 501),8	18371,(168, 501),8	18699,(171, 501),8	19027,(174, 501),8	19355,(177, 501),8	19683,(180, 501),8	20011,(183, 501),8	20339,(186, 501),8	20667,(189, 501),8	20995,(192, 501),8	21323,(195, 501),8	21651,(198, 501),8	21979,(201, 501),8	22307,(204, 501),8	22635,(207, 501),8	22963,(210, 501),8	23291,(213, 501),8	23619,(216, 501),8	23947,(219, 501),8	24275,(222, 501),8	24603,(225, 501),8	24931,(228, 501),8	25259,(231, 501),8	25587,(234, 501),8	25915,(237, 501),8	26243,(240, 501),8	26571,(243, 501),8	26899,(246, 501),8	27227,(249, 501),8	27555,(252, 501),8	27883,(255, 501),8	28211,(258, 501),8	28539,(261, 501),8	28867,(264, 501),8	29195,(267, 501),8	29523,(270, 501),8	29851,(273, 501),8	30179,(276, 501),8	30507,(279, 501),8	30835,(282, 501),8	31163,(285, 501),8	31491,(288, 501),8	31819,(291, 501),8	32147,(294, 501),8	32475,(297, 501),8	32803,(300, 501),8	33131,(303, 501),8	33459,(306, 501),8	33787,(309, 501),8	34115,(312, 501),8	34443,(315, 501),8	34771,(318, 501),8	35099,(321, 501),8	35427,(324, 501),8	35755,(327, 501),8	36083,(330, 501),8	36411,(333, 501),8	36739,(336, 501),8	37067,(339, 501),8	37395,(342, 501),8	37723,(345, 501),8	38051,(348, 501),8	38379,(351, 501),8	38707,(354, 501),8	39035,(357, 501),8	39363,(360, 501),8	39691,(363, 501),8	40019,(366, 501),8	40347,(369, 501),8	40675,(372, 501),8	41003,(375, 501),8	41331,(378, 501),8	41659,(381, 501),8	41987,(384, 501),8	42315,(387, 501),8	42643,(390, 501),8	42971,(393, 501),8	43299,(396, 501),8	43627,(399, 501),8	43955,(402, 501),8	44283,(405, 501),8	44611,(408, 501),8	44939,(411, 501),8	45267,(414, 501),8	45595,(417, 501),8	45923,(420, 501),8	46251,(423, 501),8	46579,(426, 501),8	46907,(429, 501),8	47235,(432, 501),8	47563,(435, 501),8	47891,(438, 501),8	48219,(441, 501),8	48547,(444, 501),8	48875,(447, 501),8	49203,(450, 501),8	49531,(453, 501),8	49859,(456, 501),8	50187,(459, 501),8	50515,(462, 501),8	50843,(465, 501),8	51171,(468, 501),8	51499,(471, 501),8	51827,(474, 501),8	52155,(477, 501),8	52483,(480, 501),8	52811,(483, 501),8	53139,(486, 501),8	53467,(489, 501),8	53795,(492, 501),8	54123,(495, 501),8	54451,(498, 501),8	
167,(2, 501),8	495,(5, 501),8	823,(8, 501),8	1151,(11, 501),8	1479,(14, 501),8	1807,(17, 501),8	2135,(20, 501),8	2463,(23, 501),8	2791,(26, 501),8	3119,(29, 501),8	3447,(32, 501),8	3775,(35, 501),8	4103,(38, 501),8	4431,(41, 501),8	4759,(44, 501),8	5087,(47, 501),8	5415,(50, 501),8	5743,(53, 501),8	6071,(56, 501),8	6399,(59, 501),8	6727,(62, 501),8	7055,(65, 501),8	7383,(68, 501),8	7711,(71, 501),8	8039,(74, 501),8	8367,(77, 501),8	8695,(80, 501),8	9023,(83, 501),8	9351,(86, 501),8	9679,(89, 501),8	10007,(92, 501),8	10335,(95, 501),8	10663,(98, 501),8	10991,(101, 501),8	11319,(104, 501),8	11647,(107, 501),8	11975,(110, 501),8	12303,(113, 501),8	12631,(116, 501),8	12959,(119, 501),8	13287,(122, 501),8	13615,(125, 501),8	13943,(128, 501),8	14271,(131, 501),8	14599,(134, 501),8	14927,(137, 501),8	15255,(140, 501),8	15583,(143, 501),8	15911,(146, 501),8	16239,(149, 501),8	16567,(152, 501),8	16895,(155, 501),8	17223,(158, 501),8	17551,(161, 501),8	17879,(164, 501),8	18207,(167, 501),8	18535,(170, 501),8	18863,(173, 501),8	19191,(176, 501),8	19519,(179, 501),8	19847,(182, 501),8	20175,(185, 501),8	20503,(188, 501),8	20831,(191, 501),8	21159,(194, 501),8	21487,(197, 501),8	21815,(200, 501),8	22143,(203, 501),8	22471,(206, 501),8	22799,(209, 501),8	23127,(212, 501),8	23455,(215, 501),8	23783,(218, 501),8	24111,(221, 501),8	24439,(224, 501),8	24767,(227, 501),8	25095,(230, 501),8	25423,(233, 501),8	25751,(236, 501),8	26079,(239, 501),8	26407,(242, 501),8	26735,(245, 501),8	27063,(248, 501),8	27391,(251, 501),8	27719,(254, 501),8	28047,(257, 501),8	28375,(260, 501),8	28703,(263, 501),8	29031,(266, 501),8	29359,(269, 501),8	29687,(272, 501),8	30015,(275, 501),8	30343,(278, 501),8	30671,(281, 501),8	30999,(284, 501),8	31327,(287, 501),8	31655,(290, 501),8	31983,(293, 501),8	32311,(296, 501),8	32639,(299, 501),8	32967,(302, 501),8	33295,(305, 501),8	33623,(308, 501),8	33951,(311, 501),8	34279,(314, 501),8	34607,(317, 501),8	34935,(320, 501),8	35263,(323, 501),8	35591,(326, 501),8	35919,(329, 501),8	36247,(332, 501),8	36575,(335, 501),8	36903,(338, 501),8	37231,(341, 501),8	37559,(344, 501),8	37887,(347, 501),8	38215,(350, 501),8	38543,(353, 501),8	38871,(356, 501),8	39199,(359, 501),8	39527,(362, 501),8	39855,(365, 501),8	40183,(368, 501),8	40511,(371, 501),8	40839,(374, 501),8	41167,(377, 501),8	41495,(380, 501),8	41823,(383, 501),8	42151,(386, 501),8	42479,(389, 501),8	42807,(392, 501),8	43135,(395, 501),8	43463,(398, 501),8	43791,(401, 501),8	44119,(404, 501),8	44447,(407, 501),8	44775,(410, 501),8	45103,(413, 501),8	45431,(416, 501),8	45759,(419, 501),8	46087,(422, 501),8	46415,(425, 501),8	46743,(428, 501),8	47071,(431, 501),8	47399,(434, 501),8	47727,(437, 501),8	48055,(440, 501),8	48383,(443, 501),8	48711,(446, 501),8	49039,(449, 501),8	49367,(452, 501),8	49695,(455, 501),8	50023,(458, 501),8	50351,(461, 501),8	50679,(464, 501),8	51007,(467, 501),8	51335,(470, 501),8	51663,(473, 501),8	51991,(476, 501),8	52319,(479, 501),8	52647,(482, 501),8	52975,(485, 501),8	53303,(488, 501),8	53631,(491, 501),8	53959,(494, 501),8	54287,(497, 501),8	54615,(500, 501),8	
1,(0, 2),164	165,(0, 3),164	329,(0, 5),164	493,(0, 6),164	657,(0, 8),164	821,(0, 9),164	985,(0, 11),164	1149,(0, 12),164	1313,(0, 14),164	1477,(0, 15),164	1641,(0, 17),164	1805,(0, 18),164	1969,(0, 20),164	2133,(0, 21),164	2297,(0, 23),164	2461,(0, 24),164	2625,(0, 26),164	2789,(0, 27),164	2953,(0, 29),164	3117,(0, 30),164	3281,(0, 32),164	3445,(0, 33),164	3609,(0, 35),164	3773,(0, 36),164	3937,(0, 38),164	4101,(0, 39),164	4265,(0, 41),164	4429,(0, 42),164	4593,(0, 44),164	4757,(0, 45),164	4921,(0, 47),164	5085,(0, 48),164	5249,(0, 50),164	5413,(0, 51),164	5577,(0, 53),164	5741,(0, 54),164	5905,(0, 56),164	6069,(0, 57),164	6233,(0, 59),164	6397,(0, 60),164	6561,(0, 62),164	6725,(0, 63),164	6889,(0, 65),164	7053,(0, 66),164	7217,(0, 68),164	7381,(0, 69),164	7545,(0, 71),164	7709,(0, 72),164	7873,(0, 74),164	8037,(0, 75),164	8201,(0, 77),164	8365,(0, 78),164	8529,(0, 80),164	8693,(0, 81),164	8857,(0, 83),164	9021,(0, 84),164	9185,(0, 86),164	9349,(0, 87),164	9513,(0, 89),164	9677,(0, 90),164	9841,(0, 92),164	10005,(0, 93),164	10169,(0, 95),164	10333,(0, 96),164	10497,(0, 98),164	10661,(0, 99),164	10825,(0, 101),164	10989,(0, 102),164	11153,(0, 104),164	11317,(0, 105),164	11481,(0, 107),164	11645,(0, 108),164	11809,(0, 110),164	11973,(0, 111),164	12137,(0, 113),164	12301,(0, 114),164	12465,(0, 116),164	12629,(0, 117),164	12793,(0, 119),164	12957,(0, 120),164	13121,(0, 122),164	13285,(0, 123),164	13449,(0, 125),164	13613,(0, 126),164	13777,(0, 128),164	13941,(0, 129),164	14105,(0, 131),164	14269,(0, 132),164	14433,(0, 134),164	14597,(0, 135),164	14761,(0, 137),164	14925,(0, 138),164	15089,(0, 140),164	15253,(0, 141),164	15417,(0, 143),164	15581,(0, 144),164	15745,(0, 146),164	15909,(0, 147),164	16073,(0, 149),164	16237,(0, 150),164	16401,(0, 152),164	16565,(0, 153),164	16729,(0, 155),164	16893,(0, 156),164	17057,(0, 158),164	17221,(0, 159),164	17385,(0, 161),164	17549,(0, 162),164	17713,(0, 164),164	17877,(0, 165),164	18041,(0, 167),164	18205,(0, 168),164	18369,(0, 170),164	18533,(0, 171),164	18697,(0, 173),164	18861,(0, 174),164	19025,(0, 176),164	19189,(0, 177),164	19353,(0, 179),164	19517,(0, 180),164	19681,(0, 182),164	19845,(0, 183),164	20009,(0, 185),164	20173,(0, 186),164	20337,(0, 188),164	20501,(0, 189),164	20665,(0, 191),164	20829,(0, 192),164	20993,(0, 194),164	21157,(0, 195),164	21321,(0, 197),164	21485,(0, 198),164	21649,(0, 200),164	21813,(0, 201),164	21977,(0, 203),164	22141,(0, 204),164	22305,(0, 206),164	22469,(0, 207),164	22633,(0, 209),164	22797,(0, 210),164	22961,(0, 212),164	23125,(0, 213),164	23289,(0, 215),164	23453,(0, 216),164	23617,(0, 218),164	23781,(0, 219),164	23945,(0, 221),164	24109,(0, 222),164	24273,(0, 224),164	24437,(0, 225),164	24601,(0, 227),164	24765,(0, 228),164	24929,(0, 230),164	25093,(0, 231),164	25257,(0, 233),164	25421,(0, 234),164	25585,(0, 236),164	25749,(0, 237),164	25913,(0, 239),164	26077,(0, 240),164	26241,(0, 242),164	26405,(0, 243),164	26569,(0, 245),164	26733,(0, 246),164	26897,(0, 248),164	27061,(0, 249),164	27225,(0, 251),164	27389,(0, 252),164	27553,(0, 254),164	27717,(0, 255),164	27881,(0, 257),164	28045,(0, 258),164	28209,(0, 260),164	28373,(0, 261),164	28537,(0, 263),164	28701,(0, 264),164	28865,(0, 266),164	29029,(0, 267),164	29193,(0, 269),164	29357,(0, 270),164	29521,(0, 272),164	29685,(0, 273),164	29849,(0, 275),164	30013,(0, 276),164	30177,(0, 278),164	30341,(0, 279),164	30505,(0, 281),164	30669,(0, 282),164	30833,(0, 284),164	30997,(0, 285),164	31161,(0, 287),164	31325,(0, 288),164	31489,(0, 290),164	31653,(0, 291),164	31817,(0, 293),164	31981,(0, 294),164	32145,(0, 296),164	32309,(0, 297),164	32473,(0, 299),164	32637,(0, 300),164	32801,(0, 302),164	32965,(0, 303),164	33129,(0, 305),164	33293,(0, 306),164	33457,(0, 308),164	33621,(0, 309),164	33785,(0, 311),164	33949,(0, 312),164	34113,(0, 314),164	34277,(0, 315),164	34441,(0, 317),164	34605,(0, 318),164	34769,(0, 320),164	34933,(0, 321),164	35097,(0, 323),164	35261,(0, 324),164	35425,(0, 326),164	35589,(0, 327),164	35753,(0, 329),164	35917,(0, 330),164	36081,(0, 332),164	36245,(0, 333),164	36409,(0, 335),164	36573,(0, 336),164	36737,(0, 338),164	36901,(0, 339),164	37065,(0, 341),164	37229,(0, 342),164	37393,(0, 344),164	37557,(0, 345),164	37721,(0, 347),164	37885,(0, 348),164	38049,(0, 350),164	38213,(0, 351),164	38377,(0, 353),164	38541,(0, 354),164	38705,(0, 356),164	38869,(0, 357),164	39033,(0, 359),164	39197,(0, 360),164	39361,(0, 362),164	39525,(0, 363),164	39689,(0, 365),164	39853,(0, 366),164	40017,(0, 368),164	40181,(0, 369),164	40345,(0, 371),164	40509,(0, 372),164	40673,(0, 374),164	40837,(0, 375),164	41001,(0, 377),164	41165,(0, 378),164	41329,(0, 380),164	41493,(0, 381),164	41657,(0, 383),164	41821,(0, 384),164	41985,(0, 386),164	42149,(0, 387),164	42313,(0, 389),164	42477,(0, 390),164	42641,(0, 392),164	42805,(0, 393),164	42969,(0, 395),164	43133,(0, 396),164	43297,(0, 398),164	43461,(0, 399),164	43625,(0, 401),164	43789,(0, 402),164	43953,(0, 404),164	44117,(0, 405),164	44281,(0, 407),164	44445,(0, 408),164	44609,(0, 410),164	44773,(0, 411),164	44937,(0, 413),164	45101,(0, 414),164	45265,(0, 416),164	45429,(0, 417),164	45593,(0, 419),164	45757,(0, 420),164	45921,(0, 422),164	46085,(0, 423),164	46249,(0, 425),164	46413,(0, 426),164	46577,(0, 428),164	46741,(0, 429),164	46905,(0, 431),164	47069,(0, 432),164	47233,(0, 434),164	47397,(0, 435),164	47561,(0, 437),164	47725,(0, 438),164	47889,(0, 440),164	48053,(0, 441),164	48217,(0, 443),164	48381,(0, 444),164	48545,(0, 446),164	48709,(0, 447),164	48873,(0, 449),164	49037,(0, 450),164	49201,(0, 452),164	49365,(0, 453),164	49529,(0, 455),164	49693,(0, 456),164	49857,(0, 458),164	50021,(0, 459),164	50185,(0, 461),164	50349,(0, 462),164	50513,(0, 464),164	50677,(0, 465),164	50841,(0, 467),164	51005,(0, 468),164	51169,(0, 470),164	51333,(0, 471),164	51497,(0, 473),164	51661,(0, 474),164	51825,(0, 476),164	51989,(0, 477),164	52153,(0, 479),164	52317,(0, 480),164	52481,(0, 482),164	52645,(0, 483),164	52809,(0, 485),164	52973,(0, 486),164	53137,(0, 488),164	53301,(0, 489),164	53465,(0, 491),164	53629,(0, 492),164	53793,(0, 494),164	53957,(0, 495),164	54121,(0, 497),164	54285,(0, 498),164	54449,(0, 500),164	
