1551
# CPU
0,501,1	1,329,5	6,328,5	11,327,5	16,326,5	21,331,5	26,323,5	31,322,5	36,321,5	41,399,5	46,203,5	51,319,5	56,318,5	61,317,5	66,316,5	71,336,5	76,314,5	81,419,5	86,199,5	91,312,5	96,338,5	101,310,5	106,339,5	111,308,5	116,306,5	121,194,5	126,193,5	131,341,5	136,304,5	141,303,5	146,302,5	151,301,5	156,344,5	161,189,5	166,409,5	171,298,5	176,297,5	181,346,5	186,347,5	191,294,5	196,293,5	201,178,5	206,412,5	211,290,5	216,289,5	221,288,5	226,286,5	231,350,5	236,351,5	241,414,5	246,146,5	251,282,5	256,352,5	261,353,5	266,354,5	271,279,5	276,277,5	281,168,5	286,417,5	291,356,5	296,275,5	301,273,5	306,272,5	311,271,5	316,358,5	321,138,5	326,163,5	331,268,5	336,360,5	341,361,5	346,265,5	351,264,5	356,263,5	361,159,5	366,158,5	371,262,5	376,261,5	381,260,5	386,259,5	391,367,5	396,257,5	401,154,5	406,153,5	411,255,5	416,369,5	421,253,5	426,370,5	431,251,5	436,250,5	441,428,5	446,147,5	451,372,5	456,247,5	461,246,5	466,245,5	471,244,5	476,375,5	481,431,5	486,215,5	491,241,5	496,240,5	501,377,5	506,237,5	511,236,5	516,235,5	521,135,5	526,136,5	531,380,5	536,233,5	541,232,5	546,230,5	551,382,5	556,383,5	561,111,5	566,130,5	571,227,5	576,385,5	581,386,5	586,387,5	591,224,5	596,222,5	601,126,5	606,125,5	611,389,5	616,220,5	621,218,5	626,217,5	631,391,5	636,392,5	641,121,5	646,120,5	651,213,5	656,394,5	661,395,5	666,210,5	671,209,5	676,208,5	681,444,5	686,115,5	691,206,5	696,205,5	701,204,5	706,201,5	711,400,5	716,198,5	721,110,5	726,455,5	731,196,5	736,402,5	741,192,5	746,403,5	751,190,5	756,413,5	761,103,5	766,104,5	771,418,5	776,410,5	781,408,5	786,407,5	791,406,5	796,422,5	801,457,5	806,450,5	811,186,5	816,185,5	821,404,5	826,423,5	831,182,5	836,181,5	841,93,5	846,453,5	851,177,5	856,176,5	861,175,5	866,173,5	871,426,5	876,427,5	881,451,5	886,94,5	891,169,5	896,429,5	901,166,5	906,430,5	911,164,5	916,161,5	921,456,5	926,87,5	931,433,5	936,157,5	941,155,5	946,152,5	951,151,5	956,435,5	961,83,5	966,69,5	971,148,5	976,437,5	981,438,5	986,143,5	991,142,5	996,141,5	1001,463,5	1006,462,5	1011,134,5	1016,133,5	1021,132,5	1026,131,5	1031,441,5	1036,128,5	1041,471,5	1046,72,5	1051,123,5	1056,442,5	1061,119,5	1066,443,5	1071,117,5	1076,116,5	1081,65,5	1086,66,5	1091,447,5	1096,113,5	1101,109,5	1106,108,5	1111,107,5	1116,449,5	1121,470,5	1126,59,5	1131,102,5	1136,101,5	1141,454,5	1146,88,5	1151,86,5	1156,85,5	1161,474,5	1166,53,5	1171,90,5	1176,81,5	1181,80,5	1186,78,5	1191,92,5	1196,95,5	1201,44,5	1206,37,5	1211,75,5	1216,97,5	1221,98,5	1226,458,5	1231,71,5	1236,68,5	1241,482,5	1246,39,5	1251,460,5	1256,64,5	1261,62,5	1266,61,5	1271,464,5	1276,465,5	1281,29,5	1286,34,5	1291,57,5	1296,467,5	1301,468,5	1306,54,5	1311,52,5	1316,51,5	1321,487,5	1326,28,5	1331,49,5	1336,48,5	1341,47,5	1346,483,5	1351,485,5	1356,480,5	1361,24,5	1366,23,5	1371,478,5	1376,488,5	1381,476,5	1386,489,5	1391,46,5	1396,43,5	1401,25,5	1406,22,5	1411,491,5	1416,41,5	1421,38,5	1426,36,5	1431,35,5	1436,493,5	1441,1,5	1446,31,5	1451,16,5	1456,19,5	1461,20,5	1466,21,5	1471,13,5	1476,12,5	1481,2,5	1486,9,5	1491,3,5	1496,4,5	1501,6,5	1506,8,5	1511,10,5	1516,32,5	1521,494,5	1526,496,5	1531,498,5	1536,499,5	1550,0,1	
9,330,5	17,325,5	25,324,5	33,332,5	41,320,5	49,333,5	57,334,5	65,335,5	73,315,5	81,313,5	89,337,5	97,311,5	105,309,5	113,307,5	121,340,5	129,305,5	137,342,5	145,343,5	153,300,5	161,345,5	169,299,5	177,296,5	185,295,5	193,348,5	201,292,5	209,291,5	217,349,5	225,287,5	233,285,5	241,284,5	249,283,5	257,281,5	265,280,5	273,278,5	281,355,5	289,276,5	297,274,5	305,357,5	313,270,5	321,269,5	329,359,5	337,267,5	345,266,5	353,362,5	361,363,5	369,364,5	377,365,5	385,366,5	393,258,5	401,368,5	409,256,5	417,254,5	425,252,5	433,371,5	441,249,5	449,248,5	457,373,5	465,374,5	473,243,5	481,242,5	489,376,5	497,239,5	505,238,5	513,378,5	521,234,5	529,379,5	537,381,5	545,231,5	553,229,5	561,384,5	569,228,5	577,226,5	585,225,5	593,223,5	601,388,5	609,221,5	617,219,5	625,390,5	633,216,5	641,214,5	649,393,5	657,212,5	665,211,5	673,396,5	681,207,5	689,397,5	697,398,5	705,202,5	713,200,5	721,401,5	729,197,5	737,195,5	745,191,5	753,415,5	761,416,5	769,411,5	777,420,5	785,421,5	793,405,5	801,188,5	809,187,5	817,184,5	825,183,5	833,424,5	841,180,5	849,179,5	857,425,5	865,174,5	873,172,5	881,171,5	889,170,5	897,167,5	905,165,5	913,162,5	921,160,5	929,432,5	937,156,5	945,434,5	953,150,5	961,149,5	969,436,5	977,145,5	985,144,5	993,439,5	1001,139,5	1009,137,5	1017,140,5	1025,440,5	1033,129,5	1041,127,5	1049,124,5	1057,122,5	1065,118,5	1073,445,5	1081,446,5	1089,114,5	1097,112,5	1105,448,5	1113,106,5	1121,105,5	1129,452,5	1137,100,5	1145,99,5	1153,89,5	1161,82,5	1169,84,5	1177,91,5	1185,79,5	1193,77,5	1201,96,5	1209,76,5	1217,74,5	1225,73,5	1233,70,5	1241,67,5	1249,459,5	1257,63,5	1265,461,5	1273,60,5	1281,58,5	1289,466,5	1297,56,5	1305,55,5	1313,469,5	1321,50,5	1329,472,5	1337,473,5	1345,484,5	1353,481,5	1361,486,5	1369,479,5	1377,477,5	1385,475,5	1393,45,5	1401,490,5	1409,42,5	1417,40,5	1425,492,5	1433,33,5	1441,18,5	1449,17,5	1457,15,5	1465,14,5	1473,26,5	1481,27,5	1489,30,5	1497,5,5	1505,7,5	1513,11,5	1521,495,5	1529,497,5	1537,500,5	
# Incoming
14,(330, 0),8	22,(325, 0),8	30,(324, 0),8	38,(332, 0),8	46,(320, 0),8	54,(333, 0),8	62,(334, 0),8	70,(335, 0),8	78,(315, 0),8	86,(313, 0),8	94,(337, 0),8	102,(311, 0),8	110,(309, 0),8	118,(307, 0),8	126,(340, 0),8	134,(305, 0),8	142,(342, 0),8	150,(343, 0),8	158,(300, 0),8	166,(345, 0),8	174,(299, 0),8	182,(296, 0),8	190,(295, 0),8	198,(348, 0),8	206,(292, 0),8	214,(291, 0),8	222,(349, 0),8	230,(287, 0),8	238,(285, 0),8	246,(284, 0),8	254,(283, 0),8	262,(281, 0),8	270,(280, 0),8	278,(278, 0),8	286,(355, 0),8	294,(276, 0),8	302,(274, 0),8	310,(357, 0),8	318,(270, 0),8	326,(269, 0),8	334,(359, 0),8	342,(267, 0),8	350,(266, 0),8	358,(362, 0),8	366,(363, 0),8	374,(364, 0),8	382,(365, 0),8	390,(366, 0),8	398,(258, 0),8	406,(368, 0),8	414,(256, 0),8	422,(254, 0),8	430,(252, 0),8	438,(371, 0),8	446,(249, 0),8	454,(248, 0),8	462,(373, 0),8	470,(374, 0),8	478,(243, 0),8	486,(242, 0),8	494,(376, 0),8	502,(239, 0),8	510,(238, 0),8	518,(378, 0),8	526,(234, 0),8	534,(379, 0),8	542,(381, 0),8	550,(231, 0),8	558,(229, 0),8	566,(384, 0),8	574,(228, 0),8	582,(226, 0),8	590,(225, 0),8	598,(223, 0),8	606,(388, 0),8	614,(221, 0),8	622,(219, 0),8	630,(390, 0),8	638,(216, 0),8	646,(214, 0),8	654,(393, 0),8	662,(212, 0),8	670,(211, 0),8	678,(396, 0),8	686,(207, 0),8	694,(397, 0),8	702,(398, 0),8	710,(202, 0),8	718,(200, 0),8	726,(401, 0),8	734,(197, 0),8	742,(195, 0),8	750,(191, 0),8	758,(415, 0),8	766,(416, 0),8	774,(411, 0),8	782,(420, 0),8	790,(421, 0),8	798,(405, 0),8	806,(188, 0),8	814,(187, 0),8	822,(184, 0),8	830,(183, 0),8	838,(424, 0),8	846,(180, 0),8	854,(179, 0),8	862,(425, 0),8	870,(174, 0),8	878,(172, 0),8	886,(171, 0),8	894,(170, 0),8	902,(167, 0),8	910,(165, 0),8	918,(162, 0),8	926,(160, 0),8	934,(432, 0),8	942,(156, 0),8	950,(434, 0),8	958,(150, 0),8	966,(149, 0),8	974,(436, 0),8	982,(145, 0),8	990,(144, 0),8	998,(439, 0),8	1006,(139, 0),8	1014,(137, 0),8	1022,(140, 0),8	1030,(440, 0),8	1038,(129, 0),8	1046,(127, 0),8	1054,(124, 0),8	1062,(122, 0),8	1070,(118, 0),8	1078,(445, 0),8	1086,(446, 0),8	1094,(114, 0),8	1102,(112, 0),8	1110,(448, 0),8	1118,(106, 0),8	1126,(105, 0),8	1134,(452, 0),8	1142,(100, 0),8	1150,(99, 0),8	1158,(89, 0),8	1166,(82, 0),8	1174,(84, 0),8	1182,(91, 0),8	1190,(79, 0),8	1198,(77, 0),8	1206,(96, 0),8	1214,(76, 0),8	1222,(74, 0),8	1230,(73, 0),8	1238,(70, 0),8	1246,(67, 0),8	1254,(459, 0),8	1262,(63, 0),8	1270,(461, 0),8	1278,(60, 0),8	1286,(58, 0),8	1294,(466, 0),8	1302,(56, 0),8	1310,(55, 0),8	1318,(469, 0),8	1326,(50, 0),8	1334,(472, 0),8	1342,(473, 0),8	1350,(484, 0),8	1358,(481, 0),8	1366,(486, 0),8	1374,(479, 0),8	1382,(477, 0),8	1390,(475, 0),8	1398,(45, 0),8	1406,(490, 0),8	1414,(42, 0),8	1422,(40, 0),8	1430,(492, 0),8	1438,(33, 0),8	1446,(18, 0),8	1454,(17, 0),8	1462,(15, 0),8	1470,(14, 0),8	1478,(26, 0),8	1486,(27, 0),8	1494,(30, 0),8	1502,(5, 0),8	1510,(7, 0),8	1518,(11, 0),8	1526,(495, 0),8	1534,(497, 0),8	1542,(500, 0),8	
1,(501, 330),8	9,(501, 325),8	17,(501, 324),8	25,(501, 332),8	33,(501, 320),8	41,(501, 333),8	49,(501, 334),8	57,(501, 335),8	65,(501, 315),8	73,(501, 313),8	81,(501, 337),8	89,(501, 311),8	97,(501, 309),8	105,(501, 307),8	113,(501, 340),8	121,(501, 305),8	129,(501, 342),8	137,(501, 343),8	145,(501, 300),8	153,(501, 345),8	161,(501, 299),8	169,(501, 296),8	177,(501, 295),8	185,(501, 348),8	193,(501, 292),8	201,(501, 291),8	209,(501, 349),8	217,(501, 287),8	225,(501, 285),8	233,(501, 284),8	241,(501, 283),8	249,(501, 281),8	257,(501, 280),8	265,(501, 278),8	273,(501, 355),8	281,(501, 276),8	289,(501, 274),8	297,(501, 357),8	305,(501, 270),8	313,(501, 269),8	321,(501, 359),8	329,(501, 267),8	337,(501, 266),8	345,(501, 362),8	353,(501, 363),8	361,(501, 364),8	369,(501, 365),8	377,(501, 366),8	385,(501, 258),8	393,(501, 368),8	401,(501, 256),8	409,(501, 254),8	417,(501, 252),8	425,(501, 371),8	433,(501, 249),8	441,(501, 248),8	449,(501, 373),8	457,(501, 374),8	465,(501, 243),8	473,(501, 242),8	481,(501, 376),8	489,(501, 239),8	497,(501, 238),8	505,(501, 378),8	513,(501, 234),8	521,(501, 379),8	529,(501, 381),8	537,(501, 231),8	545,(501, 229),8	553,(501, 384),8	561,(501, 228),8	569,(501, 226),8	577,(501, 225),8	585,(501, 223),8	593,(501, 388),8	601,(501, 221),8	609,(501, 219),8	617,(501, 390),8	625,(501, 216),8	633,(501, 214),8	641,(501, 393),8	649,(501, 212),8	657,(501, 211),8	665,(501, 396),8	673,(501, 207),8	681,(501, 397),8	689,(501, 398),8	697,(501, 202),8	705,(501, 200),8	713,(501, 401),8	721,(501, 197),8	729,(501, 195),8	737,(501, 191),8	745,(501, 415),8	753,(501, 416),8	761,(501, 411),8	769,(501, 420),8	777,(501, 421),8	785,(501, 405),8	793,(501, 188),8	801,(501, 187),8	809,(501, 184),8	817,(501, 183),8	825,(501, 424),8	833,(501, 180),8	841,(501, 179),8	849,(501, 425),8	857,(501, 174),8	865,(501, 172),8	873,(501, 171),8	881,(501, 170),8	889,(501, 167),8	897,(501, 165),8	905,(501, 162),8	913,(501, 160),8	921,(501, 432),8	929,(501, 156),8	937,(501, 434),8	945,(501, 150),8	953,(501, 149),8	961,(501, 436),8	969,(501, 145),8	977,(501, 144),8	985,(501, 439),8	993,(501, 139),8	1001,(501, 137),8	1009,(501, 140),8	1017,(501, 440),8	1025,(501, 129),8	1033,(501, 127),8	1041,(501, 124),8	1049,(501, 122),8	1057,(501, 118),8	1065,(501, 445),8	1073,(501, 446),8	1081,(501, 114),8	1089,(501, 112),8	1097,(501, 448),8	1105,(501, 106),8	1113,(501, 105),8	1121,(501, 452),8	1129,(501, 100),8	1137,(501, 99),8	1145,(501, 89),8	1153,(501, 82),8	1161,(501, 84),8	1169,(501, 91),8	1177,(501, 79),8	1185,(501, 77),8	1193,(501, 96),8	1201,(501, 76),8	1209,(501, 74),8	1217,(501, 73),8	1225,(501, 70),8	1233,(501, 67),8	1241,(501, 459),8	1249,(501, 63),8	1257,(501, 461),8	1265,(501, 60),8	1273,(501, 58),8	1281,(501, 466),8	1289,(501, 56),8	1297,(501, 55),8	1305,(501, 469),8	1313,(501, 50),8	1321,(501, 472),8	1329,(501, 473),8	1337,(501, 484),8	1345,(501, 481),8	1353,(501, 486),8	1361,(501, 479),8	1369,(501, 477),8	1377,(501, 475),8	1385,(501, 45),8	1393,(501, 490),8	1401,(501, 42),8	1409,(501, 40),8	1417,(501, 492),8	1425,(501, 33),8	1433,(501, 18),8	1441,(501, 17),8	1449,(501, 15),8	1457,(501, 14),8	1465,(501, 26),8	1473,(501, 27),8	1481,(501, 30),8	1489,(501, 5),8	1497,(501, 7),8	1505,(501, 11),8	1513,(501, 495),8	1521,(501, 497),8	1529,(501, 500),8	
# Outgoing
1,(501, 330),8	9,(501, 325),8	17,(501, 324),8	25,(501, 332),8	33,(501, 320),8	41,(501, 333),8	49,(501, 334),8	57,(501, 335),8	65,(501, 315),8	73,(501, 313),8	81,(501, 337),8	89,(501, 311),8	97,(501, 309),8	105,(501, 307),8	113,(501, 340),8	121,(501, 305),8	129,(501, 342),8	137,(501, 343),8	145,(501, 300),8	153,(501, 345),8	161,(501, 299),8	169,(501, 296),8	177,(501, 295),8	185,(501, 348),8	193,(501, 292),8	201,(501, 291),8	209,(501, 349),8	217,(501, 287),8	225,(501, 285),8	233,(501, 284),8	241,(501, 283),8	249,(501, 281),8	257,(501, 280),8	265,(501, 278),8	273,(501, 355),8	281,(501, 276),8	289,(501, 274),8	297,(501, 357),8	305,(501, 270),8	313,(501, 269),8	321,(501, 359),8	329,(501, 267),8	337,(501, 266),8	345,(501, 362),8	353,(501, 363),8	361,(501, 364),8	369,(501, 365),8	377,(501, 366),8	385,(501, 258),8	393,(501, 368),8	401,(501, 256),8	409,(501, 254),8	417,(501, 252),8	425,(501, 371),8	433,(501, 249),8	441,(501, 248),8	449,(501, 373),8	457,(501, 374),8	465,(501, 243),8	473,(501, 242),8	481,(501, 376),8	489,(501, 239),8	497,(501, 238),8	505,(501, 378),8	513,(501, 234),8	521,(501, 379),8	529,(501, 381),8	537,(501, 231),8	545,(501, 229),8	553,(501, 384),8	561,(501, 228),8	569,(501, 226),8	577,(501, 225),8	585,(501, 223),8	593,(501, 388),8	601,(501, 221),8	609,(501, 219),8	617,(501, 390),8	625,(501, 216),8	633,(501, 214),8	641,(501, 393),8	649,(501, 212),8	657,(501, 211),8	665,(501, 396),8	673,(501, 207),8	681,(501, 397),8	689,(501, 398),8	697,(501, 202),8	705,(501, 200),8	713,(501, 401),8	721,(501, 197),8	729,(501, 195),8	737,(501, 191),8	745,(501, 415),8	753,(501, 416),8	761,(501, 411),8	769,(501, 420),8	777,(501, 421),8	785,(501, 405),8	793,(501, 188),8	801,(501, 187),8	809,(501, 184),8	817,(501, 183),8	825,(501, 424),8	833,(501, 180),8	841,(501, 179),8	849,(501, 425),8	857,(501, 174),8	865,(501, 172),8	873,(501, 171),8	881,(501, 170),8	889,(501, 167),8	897,(501, 165),8	905,(501, 162),8	913,(501, 160),8	921,(501, 432),8	929,(501, 156),8	937,(501, 434),8	945,(501, 150),8	953,(501, 149),8	961,(501, 436),8	969,(501, 145),8	977,(501, 144),8	985,(501, 439),8	993,(501, 139),8	1001,(501, 137),8	1009,(501, 140),8	1017,(501, 440),8	1025,(501, 129),8	1033,(501, 127),8	1041,(501, 124),8	1049,(501, 122),8	1057,(501, 118),8	1065,(501, 445),8	1073,(501, 446),8	1081,(501, 114),8	1089,(501, 112),8	1097,(501, 448),8	1105,(501, 106),8	1113,(501, 105),8	1121,(501, 452),8	1129,(501, 100),8	1137,(501, 99),8	1145,(501, 89),8	1153,(501, 82),8	1161,(501, 84),8	1169,(501, 91),8	1177,(501, 79),8	1185,(501, 77),8	1193,(501, 96),8	1201,(501, 76),8	1209,(501, 74),8	1217,(501, 73),8	1225,(501, 70),8	1233,(501, 67),8	1241,(501, 459),8	1249,(501, 63),8	1257,(501, 461),8	1265,(501, 60),8	1273,(501, 58),8	1281,(501, 466),8	1289,(501, 56),8	1297,(501, 55),8	1305,(501, 469),8	1313,(501, 50),8	1321,(501, 472),8	1329,(501, 473),8	1337,(501, 484),8	1345,(501, 481),8	1353,(501, 486),8	1361,(501, 479),8	1369,(501, 477),8	1377,(501, 475),8	1385,(501, 45),8	1393,(501, 490),8	1401,(501, 42),8	1409,(501, 40),8	1417,(501, 492),8	1425,(501, 33),8	1433,(501, 18),8	1441,(501, 17),8	1449,(501, 15),8	1457,(501, 14),8	1465,(501, 26),8	1473,(501, 27),8	1481,(501, 30),8	1489,(501, 5),8	1497,(501, 7),8	1505,(501, 11),8	1513,(501, 495),8	1521,(501, 497),8	1529,(501, 500),8	
14,(330, 0),8	22,(325, 0),8	30,(324, 0),8	38,(332, 0),8	46,(320, 0),8	54,(333, 0),8	62,(334, 0),8	70,(335, 0),8	78,(315, 0),8	86,(313, 0),8	94,(337, 0),8	102,(311, 0),8	110,(309, 0),8	118,(307, 0),8	126,(340, 0),8	134,(305, 0),8	142,(342, 0),8	150,(343, 0),8	158,(300, 0),8	166,(345, 0),8	174,(299, 0),8	182,(296, 0),8	190,(295, 0),8	198,(348, 0),8	206,(292, 0),8	214,(291, 0),8	222,(349, 0),8	230,(287, 0),8	238,(285, 0),8	246,(284, 0),8	254,(283, 0),8	262,(281, 0),8	270,(280, 0),8	278,(278, 0),8	286,(355, 0),8	294,(276, 0),8	302,(274, 0),8	310,(357, 0),8	318,(270, 0),8	326,(269, 0),8	334,(359, 0),8	342,(267, 0),8	350,(266, 0),8	358,(362, 0),8	366,(363, 0),8	374,(364, 0),8	382,(365, 0),8	390,(366, 0),8	398,(258, 0),8	406,(368, 0),8	414,(256, 0),8	422,(254, 0),8	430,(252, 0),8	438,(371, 0),8	446,(249, 0),8	454,(248, 0),8	462,(373, 0),8	470,(374, 0),8	478,(243, 0),8	486,(242, 0),8	494,(376, 0),8	502,(239, 0),8	510,(238, 0),8	518,(378, 0),8	526,(234, 0),8	534,(379, 0),8	542,(381, 0),8	550,(231, 0),8	558,(229, 0),8	566,(384, 0),8	574,(228, 0),8	582,(226, 0),8	590,(225, 0),8	598,(223, 0),8	606,(388, 0),8	614,(221, 0),8	622,(219, 0),8	630,(390, 0),8	638,(216, 0),8	646,(214, 0),8	654,(393, 0),8	662,(212, 0),8	670,(211, 0),8	678,(396, 0),8	686,(207, 0),8	694,(397, 0),8	702,(398, 0),8	710,(202, 0),8	718,(200, 0),8	726,(401, 0),8	734,(197, 0),8	742,(195, 0),8	750,(191, 0),8	758,(415, 0),8	766,(416, 0),8	774,(411, 0),8	782,(420, 0),8	790,(421, 0),8	798,(405, 0),8	806,(188, 0),8	814,(187, 0),8	822,(184, 0),8	830,(183, 0),8	838,(424, 0),8	846,(180, 0),8	854,(179, 0),8	862,(425, 0),8	870,(174, 0),8	878,(172, 0),8	886,(171, 0),8	894,(170, 0),8	902,(167, 0),8	910,(165, 0),8	918,(162, 0),8	926,(160, 0),8	934,(432, 0),8	942,(156, 0),8	950,(434, 0),8	958,(150, 0),8	966,(149, 0),8	974,(436, 0),8	982,(145, 0),8	990,(144, 0),8	998,(439, 0),8	1006,(139, 0),8	1014,(137, 0),8	1022,(140, 0),8	1030,(440, 0),8	1038,(129, 0),8	1046,(127, 0),8	1054,(124, 0),8	1062,(122, 0),8	1070,(118, 0),8	1078,(445, 0),8	1086,(446, 0),8	1094,(114, 0),8	1102,(112, 0),8	1110,(448, 0),8	1118,(106, 0),8	1126,(105, 0),8	1134,(452, 0),8	1142,(100, 0),8	1150,(99, 0),8	1158,(89, 0),8	1166,(82, 0),8	1174,(84, 0),8	1182,(91, 0),8	1190,(79, 0),8	1198,(77, 0),8	1206,(96, 0),8	1214,(76, 0),8	1222,(74, 0),8	1230,(73, 0),8	1238,(70, 0),8	1246,(67, 0),8	1254,(459, 0),8	1262,(63, 0),8	1270,(461, 0),8	1278,(60, 0),8	1286,(58, 0),8	1294,(466, 0),8	1302,(56, 0),8	1310,(55, 0),8	1318,(469, 0),8	1326,(50, 0),8	1334,(472, 0),8	1342,(473, 0),8	1350,(484, 0),8	1358,(481, 0),8	1366,(486, 0),8	1374,(479, 0),8	1382,(477, 0),8	1390,(475, 0),8	1398,(45, 0),8	1406,(490, 0),8	1414,(42, 0),8	1422,(40, 0),8	1430,(492, 0),8	1438,(33, 0),8	1446,(18, 0),8	1454,(17, 0),8	1462,(15, 0),8	1470,(14, 0),8	1478,(26, 0),8	1486,(27, 0),8	1494,(30, 0),8	1502,(5, 0),8	1510,(7, 0),8	1518,(11, 0),8	1526,(495, 0),8	1534,(497, 0),8	1542,(500, 0),8	
