3004
# CPU
13,2,1	25,4,1	37,6,1	49,8,1	61,10,1	73,12,1	85,14,1	97,16,1	109,18,1	121,20,1	133,22,1	145,24,1	157,26,1	169,28,1	181,30,1	193,32,1	205,34,1	217,36,1	229,38,1	241,40,1	253,42,1	265,44,1	277,46,1	289,48,1	301,50,1	313,52,1	325,54,1	337,56,1	349,58,1	361,60,1	373,62,1	385,64,1	397,66,1	409,68,1	421,70,1	433,72,1	445,74,1	457,76,1	469,78,1	481,80,1	493,82,1	505,84,1	517,86,1	529,88,1	541,90,1	553,92,1	565,94,1	577,96,1	589,98,1	601,100,1	613,102,1	625,104,1	637,106,1	649,108,1	661,110,1	673,112,1	685,114,1	697,116,1	709,118,1	721,120,1	733,122,1	745,124,1	757,126,1	769,128,1	781,130,1	793,132,1	805,134,1	817,136,1	829,138,1	841,140,1	853,142,1	865,144,1	877,146,1	889,148,1	901,150,1	913,152,1	925,154,1	937,156,1	949,158,1	961,160,1	973,162,1	985,164,1	997,166,1	1009,168,1	1021,170,1	1033,172,1	1045,174,1	1057,176,1	1069,178,1	1081,180,1	1093,182,1	1105,184,1	1117,186,1	1129,188,1	1141,190,1	1153,192,1	1165,194,1	1177,196,1	1189,198,1	1201,200,1	1213,202,1	1225,204,1	1237,206,1	1249,208,1	1261,210,1	1273,212,1	1285,214,1	1297,216,1	1309,218,1	1321,220,1	1333,222,1	1345,224,1	1357,226,1	1369,228,1	1381,230,1	1393,232,1	1405,234,1	1417,236,1	1429,238,1	1441,240,1	1453,242,1	1465,244,1	1477,246,1	1489,248,1	1501,250,1	1513,252,1	1525,254,1	1537,256,1	1549,258,1	1561,260,1	1573,262,1	1585,264,1	1597,266,1	1609,268,1	1621,270,1	1633,272,1	1645,274,1	1657,276,1	1669,278,1	1681,280,1	1693,282,1	1705,284,1	1717,286,1	1729,288,1	1741,290,1	1753,292,1	1765,294,1	1777,296,1	1789,298,1	1801,300,1	1813,302,1	1825,304,1	1837,306,1	1849,308,1	1861,310,1	1873,312,1	1885,314,1	1897,316,1	1909,318,1	1921,320,1	1933,322,1	1945,324,1	1957,326,1	1969,328,1	1981,330,1	1993,332,1	2005,334,1	2017,336,1	2029,338,1	2041,340,1	2053,342,1	2065,344,1	2077,346,1	2089,348,1	2101,350,1	2113,352,1	2125,354,1	2137,356,1	2149,358,1	2161,360,1	2173,362,1	2185,364,1	2197,366,1	2209,368,1	2221,370,1	2233,372,1	2245,374,1	2257,376,1	2269,378,1	2281,380,1	2293,382,1	2305,384,1	2317,386,1	2329,388,1	2341,390,1	2353,392,1	2365,394,1	2377,396,1	2389,398,1	2401,400,1	2413,402,1	2425,404,1	2437,406,1	2449,408,1	2461,410,1	2473,412,1	2485,414,1	2497,416,1	2509,418,1	2521,420,1	2533,422,1	2545,424,1	2557,426,1	2569,428,1	2581,430,1	2593,432,1	2605,434,1	2617,436,1	2629,438,1	2641,440,1	2653,442,1	2665,444,1	2677,446,1	2689,448,1	2701,450,1	2713,452,1	2725,454,1	2737,456,1	2749,458,1	2761,460,1	2773,462,1	2785,464,1	2797,466,1	2809,468,1	2821,470,1	2833,472,1	2845,474,1	2857,476,1	2869,478,1	2881,480,1	2893,482,1	2905,484,1	2917,486,1	2929,488,1	2941,490,1	2953,492,1	2965,494,1	2977,496,1	2989,498,1	3001,500,1	
0,0,1	1,1,1	2,5,1	3,13,1	4,29,1	5,61,1	6,125,1	7,253,1	8,499,1	9,497,1	10,495,1	11,493,1	12,491,1	13,489,1	14,487,1	15,485,1	16,483,1	17,481,1	18,479,1	19,477,1	20,475,1	21,473,1	22,471,1	23,469,1	24,467,1	25,465,1	26,463,1	27,461,1	28,459,1	29,457,1	30,455,1	31,453,1	32,451,1	33,449,1	34,447,1	35,445,1	36,443,1	37,441,1	38,439,1	39,437,1	40,435,1	41,433,1	42,431,1	43,429,1	44,427,1	45,425,1	46,423,1	47,421,1	48,419,1	49,417,1	50,415,1	51,413,1	52,411,1	53,409,1	54,407,1	55,405,1	56,403,1	57,401,1	58,399,1	59,397,1	60,395,1	61,393,1	62,391,1	63,389,1	64,387,1	65,385,1	66,383,1	67,381,1	68,379,1	69,377,1	70,375,1	71,373,1	72,371,1	73,369,1	74,367,1	75,365,1	76,363,1	77,361,1	78,359,1	79,357,1	80,355,1	81,353,1	82,351,1	83,349,1	84,347,1	85,345,1	86,343,1	87,341,1	88,339,1	89,337,1	90,335,1	91,333,1	92,331,1	93,329,1	94,327,1	95,325,1	96,323,1	97,321,1	98,319,1	99,317,1	100,315,1	101,313,1	102,311,1	103,309,1	104,307,1	105,305,1	106,303,1	107,301,1	108,299,1	109,297,1	110,295,1	111,293,1	112,291,1	113,289,1	114,287,1	115,285,1	116,283,1	117,281,1	118,279,1	119,277,1	120,275,1	121,273,1	122,271,1	123,269,1	124,267,1	125,265,1	126,263,1	127,261,1	128,259,1	129,257,1	130,251,1	131,255,1	132,249,1	133,247,1	134,245,1	135,243,1	136,241,1	137,239,1	138,237,1	139,235,1	140,233,1	141,231,1	142,229,1	143,227,1	144,225,1	145,223,1	146,221,1	147,219,1	148,217,1	149,215,1	150,213,1	151,211,1	152,209,1	153,207,1	154,205,1	155,203,1	156,201,1	157,199,1	158,197,1	159,195,1	160,193,1	161,191,1	162,189,1	163,187,1	164,185,1	165,183,1	166,181,1	167,179,1	168,177,1	169,175,1	170,173,1	171,171,1	172,169,1	173,167,1	174,165,1	175,163,1	176,161,1	177,159,1	178,157,1	179,155,1	180,153,1	181,151,1	182,149,1	183,147,1	184,145,1	185,143,1	186,141,1	187,139,1	188,137,1	189,135,1	190,133,1	191,131,1	192,129,1	193,123,1	194,127,1	195,121,1	196,119,1	197,117,1	198,115,1	199,113,1	200,111,1	201,109,1	202,107,1	203,105,1	204,103,1	205,101,1	206,99,1	207,97,1	208,95,1	209,93,1	210,91,1	211,89,1	212,87,1	213,85,1	214,83,1	215,81,1	216,79,1	217,77,1	218,75,1	219,73,1	220,71,1	221,69,1	222,67,1	223,65,1	224,59,1	225,63,1	226,57,1	227,55,1	228,53,1	229,51,1	230,49,1	231,47,1	232,45,1	233,43,1	234,41,1	235,39,1	236,37,1	237,35,1	238,33,1	239,27,1	240,31,1	241,25,1	242,23,1	243,21,1	244,19,1	245,17,1	246,11,1	247,15,1	248,9,1	249,3,1	250,7,1	3003,501,1	
# Incoming
1,(0, 2),12	13,(0, 4),12	25,(0, 6),12	37,(0, 8),12	49,(0, 10),12	61,(0, 12),12	73,(0, 14),12	85,(0, 16),12	97,(0, 18),12	109,(0, 20),12	121,(0, 22),12	133,(0, 24),12	145,(0, 26),12	157,(0, 28),12	169,(0, 30),12	181,(0, 32),12	193,(0, 34),12	205,(0, 36),12	217,(0, 38),12	229,(0, 40),12	241,(0, 42),12	253,(0, 44),12	265,(0, 46),12	277,(0, 48),12	289,(0, 50),12	301,(0, 52),12	313,(0, 54),12	325,(0, 56),12	337,(0, 58),12	349,(0, 60),12	361,(0, 62),12	373,(0, 64),12	385,(0, 66),12	397,(0, 68),12	409,(0, 70),12	421,(0, 72),12	433,(0, 74),12	445,(0, 76),12	457,(0, 78),12	469,(0, 80),12	481,(0, 82),12	493,(0, 84),12	505,(0, 86),12	517,(0, 88),12	529,(0, 90),12	541,(0, 92),12	553,(0, 94),12	565,(0, 96),12	577,(0, 98),12	589,(0, 100),12	601,(0, 102),12	613,(0, 104),12	625,(0, 106),12	637,(0, 108),12	649,(0, 110),12	661,(0, 112),12	673,(0, 114),12	685,(0, 116),12	697,(0, 118),12	709,(0, 120),12	721,(0, 122),12	733,(0, 124),12	745,(0, 126),12	757,(0, 128),12	769,(0, 130),12	781,(0, 132),12	793,(0, 134),12	805,(0, 136),12	817,(0, 138),12	829,(0, 140),12	841,(0, 142),12	853,(0, 144),12	865,(0, 146),12	877,(0, 148),12	889,(0, 150),12	901,(0, 152),12	913,(0, 154),12	925,(0, 156),12	937,(0, 158),12	949,(0, 160),12	961,(0, 162),12	973,(0, 164),12	985,(0, 166),12	997,(0, 168),12	1009,(0, 170),12	1021,(0, 172),12	1033,(0, 174),12	1045,(0, 176),12	1057,(0, 178),12	1069,(0, 180),12	1081,(0, 182),12	1093,(0, 184),12	1105,(0, 186),12	1117,(0, 188),12	1129,(0, 190),12	1141,(0, 192),12	1153,(0, 194),12	1165,(0, 196),12	1177,(0, 198),12	1189,(0, 200),12	1201,(0, 202),12	1213,(0, 204),12	1225,(0, 206),12	1237,(0, 208),12	1249,(0, 210),12	1261,(0, 212),12	1273,(0, 214),12	1285,(0, 216),12	1297,(0, 218),12	1309,(0, 220),12	1321,(0, 222),12	1333,(0, 224),12	1345,(0, 226),12	1357,(0, 228),12	1369,(0, 230),12	1381,(0, 232),12	1393,(0, 234),12	1405,(0, 236),12	1417,(0, 238),12	1429,(0, 240),12	1441,(0, 242),12	1453,(0, 244),12	1465,(0, 246),12	1477,(0, 248),12	1489,(0, 250),12	1501,(0, 252),12	1513,(0, 254),12	1525,(0, 256),12	1537,(0, 258),12	1549,(0, 260),12	1561,(0, 262),12	1573,(0, 264),12	1585,(0, 266),12	1597,(0, 268),12	1609,(0, 270),12	1621,(0, 272),12	1633,(0, 274),12	1645,(0, 276),12	1657,(0, 278),12	1669,(0, 280),12	1681,(0, 282),12	1693,(0, 284),12	1705,(0, 286),12	1717,(0, 288),12	1729,(0, 290),12	1741,(0, 292),12	1753,(0, 294),12	1765,(0, 296),12	1777,(0, 298),12	1789,(0, 300),12	1801,(0, 302),12	1813,(0, 304),12	1825,(0, 306),12	1837,(0, 308),12	1849,(0, 310),12	1861,(0, 312),12	1873,(0, 314),12	1885,(0, 316),12	1897,(0, 318),12	1909,(0, 320),12	1921,(0, 322),12	1933,(0, 324),12	1945,(0, 326),12	1957,(0, 328),12	1969,(0, 330),12	1981,(0, 332),12	1993,(0, 334),12	2005,(0, 336),12	2017,(0, 338),12	2029,(0, 340),12	2041,(0, 342),12	2053,(0, 344),12	2065,(0, 346),12	2077,(0, 348),12	2089,(0, 350),12	2101,(0, 352),12	2113,(0, 354),12	2125,(0, 356),12	2137,(0, 358),12	2149,(0, 360),12	2161,(0, 362),12	2173,(0, 364),12	2185,(0, 366),12	2197,(0, 368),12	2209,(0, 370),12	2221,(0, 372),12	2233,(0, 374),12	2245,(0, 376),12	2257,(0, 378),12	2269,(0, 380),12	2281,(0, 382),12	2293,(0, 384),12	2305,(0, 386),12	2317,(0, 388),12	2329,(0, 390),12	2341,(0, 392),12	2353,(0, 394),12	2365,(0, 396),12	2377,(0, 398),12	2389,(0, 400),12	2401,(0, 402),12	2413,(0, 404),12	2425,(0, 406),12	2437,(0, 408),12	2449,(0, 410),12	2461,(0, 412),12	2473,(0, 414),12	2485,(0, 416),12	2497,(0, 418),12	2509,(0, 420),12	2521,(0, 422),12	2533,(0, 424),12	2545,(0, 426),12	2557,(0, 428),12	2569,(0, 430),12	2581,(0, 432),12	2593,(0, 434),12	2605,(0, 436),12	2617,(0, 438),12	2629,(0, 440),12	2641,(0, 442),12	2653,(0, 444),12	2665,(0, 446),12	2677,(0, 448),12	2689,(0, 450),12	2701,(0, 452),12	2713,(0, 454),12	2725,(0, 456),12	2737,(0, 458),12	2749,(0, 460),12	2761,(0, 462),12	2773,(0, 464),12	2785,(0, 466),12	2797,(0, 468),12	2809,(0, 470),12	2821,(0, 472),12	2833,(0, 474),12	2845,(0, 476),12	2857,(0, 478),12	2869,(0, 480),12	2881,(0, 482),12	2893,(0, 484),12	2905,(0, 486),12	2917,(0, 488),12	2929,(0, 490),12	2941,(0, 492),12	2953,(0, 494),12	2965,(0, 496),12	2977,(0, 498),12	2989,(0, 500),12	
14,(2, 501),1	26,(4, 501),1	38,(6, 501),1	50,(8, 501),1	62,(10, 501),1	74,(12, 501),1	86,(14, 501),1	98,(16, 501),1	110,(18, 501),1	122,(20, 501),1	134,(22, 501),1	146,(24, 501),1	158,(26, 501),1	170,(28, 501),1	182,(30, 501),1	194,(32, 501),1	206,(34, 501),1	218,(36, 501),1	230,(38, 501),1	242,(40, 501),1	254,(42, 501),1	266,(44, 501),1	278,(46, 501),1	290,(48, 501),1	302,(50, 501),1	314,(52, 501),1	326,(54, 501),1	338,(56, 501),1	350,(58, 501),1	362,(60, 501),1	374,(62, 501),1	386,(64, 501),1	398,(66, 501),1	410,(68, 501),1	422,(70, 501),1	434,(72, 501),1	446,(74, 501),1	458,(76, 501),1	470,(78, 501),1	482,(80, 501),1	494,(82, 501),1	506,(84, 501),1	518,(86, 501),1	530,(88, 501),1	542,(90, 501),1	554,(92, 501),1	566,(94, 501),1	578,(96, 501),1	590,(98, 501),1	602,(100, 501),1	614,(102, 501),1	626,(104, 501),1	638,(106, 501),1	650,(108, 501),1	662,(110, 501),1	674,(112, 501),1	686,(114, 501),1	698,(116, 501),1	710,(118, 501),1	722,(120, 501),1	734,(122, 501),1	746,(124, 501),1	758,(126, 501),1	770,(128, 501),1	782,(130, 501),1	794,(132, 501),1	806,(134, 501),1	818,(136, 501),1	830,(138, 501),1	842,(140, 501),1	854,(142, 501),1	866,(144, 501),1	878,(146, 501),1	890,(148, 501),1	902,(150, 501),1	914,(152, 501),1	926,(154, 501),1	938,(156, 501),1	950,(158, 501),1	962,(160, 501),1	974,(162, 501),1	986,(164, 501),1	998,(166, 501),1	1010,(168, 501),1	1022,(170, 501),1	1034,(172, 501),1	1046,(174, 501),1	1058,(176, 501),1	1070,(178, 501),1	1082,(180, 501),1	1094,(182, 501),1	1106,(184, 501),1	1118,(186, 501),1	1130,(188, 501),1	1142,(190, 501),1	1154,(192, 501),1	1166,(194, 501),1	1178,(196, 501),1	1190,(198, 501),1	1202,(200, 501),1	1214,(202, 501),1	1226,(204, 501),1	1238,(206, 501),1	1250,(208, 501),1	1262,(210, 501),1	1274,(212, 501),1	1286,(214, 501),1	1298,(216, 501),1	1310,(218, 501),1	1322,(220, 501),1	1334,(222, 501),1	1346,(224, 501),1	1358,(226, 501),1	1370,(228, 501),1	1382,(230, 501),1	1394,(232, 501),1	1406,(234, 501),1	1418,(236, 501),1	1430,(238, 501),1	1442,(240, 501),1	1454,(242, 501),1	1466,(244, 501),1	1478,(246, 501),1	1490,(248, 501),1	1502,(250, 501),1	1514,(252, 501),1	1526,(254, 501),1	1538,(256, 501),1	1550,(258, 501),1	1562,(260, 501),1	1574,(262, 501),1	1586,(264, 501),1	1598,(266, 501),1	1610,(268, 501),1	1622,(270, 501),1	1634,(272, 501),1	1646,(274, 501),1	1658,(276, 501),1	1670,(278, 501),1	1682,(280, 501),1	1694,(282, 501),1	1706,(284, 501),1	1718,(286, 501),1	1730,(288, 501),1	1742,(290, 501),1	1754,(292, 501),1	1766,(294, 501),1	1778,(296, 501),1	1790,(298, 501),1	1802,(300, 501),1	1814,(302, 501),1	1826,(304, 501),1	1838,(306, 501),1	1850,(308, 501),1	1862,(310, 501),1	1874,(312, 501),1	1886,(314, 501),1	1898,(316, 501),1	1910,(318, 501),1	1922,(320, 501),1	1934,(322, 501),1	1946,(324, 501),1	1958,(326, 501),1	1970,(328, 501),1	1982,(330, 501),1	1994,(332, 501),1	2006,(334, 501),1	2018,(336, 501),1	2030,(338, 501),1	2042,(340, 501),1	2054,(342, 501),1	2066,(344, 501),1	2078,(346, 501),1	2090,(348, 501),1	2102,(350, 501),1	2114,(352, 501),1	2126,(354, 501),1	2138,(356, 501),1	2150,(358, 501),1	2162,(360, 501),1	2174,(362, 501),1	2186,(364, 501),1	2198,(366, 501),1	2210,(368, 501),1	2222,(370, 501),1	2234,(372, 501),1	2246,(374, 501),1	2258,(376, 501),1	2270,(378, 501),1	2282,(380, 501),1	2294,(382, 501),1	2306,(384, 501),1	2318,(386, 501),1	2330,(388, 501),1	2342,(390, 501),1	2354,(392, 501),1	2366,(394, 501),1	2378,(396, 501),1	2390,(398, 501),1	2402,(400, 501),1	2414,(402, 501),1	2426,(404, 501),1	2438,(406, 501),1	2450,(408, 501),1	2462,(410, 501),1	2474,(412, 501),1	2486,(414, 501),1	2498,(416, 501),1	2510,(418, 501),1	2522,(420, 501),1	2534,(422, 501),1	2546,(424, 501),1	2558,(426, 501),1	2570,(428, 501),1	2582,(430, 501),1	2594,(432, 501),1	2606,(434, 501),1	2618,(436, 501),1	2630,(438, 501),1	2642,(440, 501),1	2654,(442, 501),1	2666,(444, 501),1	2678,(446, 501),1	2690,(448, 501),1	2702,(450, 501),1	2714,(452, 501),1	2726,(454, 501),1	2738,(456, 501),1	2750,(458, 501),1	2762,(460, 501),1	2774,(462, 501),1	2786,(464, 501),1	2798,(466, 501),1	2810,(468, 501),1	2822,(470, 501),1	2834,(472, 501),1	2846,(474, 501),1	2858,(476, 501),1	2870,(478, 501),1	2882,(480, 501),1	2894,(482, 501),1	2906,(484, 501),1	2918,(486, 501),1	2930,(488, 501),1	2942,(490, 501),1	2954,(492, 501),1	2966,(494, 501),1	2978,(496, 501),1	2990,(498, 501),1	3002,(500, 501),1	
# Outgoing
14,(2, 501),1	26,(4, 501),1	38,(6, 501),1	50,(8, 501),1	62,(10, 501),1	74,(12, 501),1	86,(14, 501),1	98,(16, 501),1	110,(18, 501),1	122,(20, 501),1	134,(22, 501),1	146,(24, 501),1	158,(26, 501),1	170,(28, 501),1	182,(30, 501),1	194,(32, 501),1	206,(34, 501),1	218,(36, 501),1	230,(38, 501),1	242,(40, 501),1	254,(42, 501),1	266,(44, 501),1	278,(46, 501),1	290,(48, 501),1	302,(50, 501),1	314,(52, 501),1	326,(54, 501),1	338,(56, 501),1	350,(58, 501),1	362,(60, 501),1	374,(62, 501),1	386,(64, 501),1	398,(66, 501),1	410,(68, 501),1	422,(70, 501),1	434,(72, 501),1	446,(74, 501),1	458,(76, 501),1	470,(78, 501),1	482,(80, 501),1	494,(82, 501),1	506,(84, 501),1	518,(86, 501),1	530,(88, 501),1	542,(90, 501),1	554,(92, 501),1	566,(94, 501),1	578,(96, 501),1	590,(98, 501),1	602,(100, 501),1	614,(102, 501),1	626,(104, 501),1	638,(106, 501),1	650,(108, 501),1	662,(110, 501),1	674,(112, 501),1	686,(114, 501),1	698,(116, 501),1	710,(118, 501),1	722,(120, 501),1	734,(122, 501),1	746,(124, 501),1	758,(126, 501),1	770,(128, 501),1	782,(130, 501),1	794,(132, 501),1	806,(134, 501),1	818,(136, 501),1	830,(138, 501),1	842,(140, 501),1	854,(142, 501),1	866,(144, 501),1	878,(146, 501),1	890,(148, 501),1	902,(150, 501),1	914,(152, 501),1	926,(154, 501),1	938,(156, 501),1	950,(158, 501),1	962,(160, 501),1	974,(162, 501),1	986,(164, 501),1	998,(166, 501),1	1010,(168, 501),1	1022,(170, 501),1	1034,(172, 501),1	1046,(174, 501),1	1058,(176, 501),1	1070,(178, 501),1	1082,(180, 501),1	1094,(182, 501),1	1106,(184, 501),1	1118,(186, 501),1	1130,(188, 501),1	1142,(190, 501),1	1154,(192, 501),1	1166,(194, 501),1	1178,(196, 501),1	1190,(198, 501),1	1202,(200, 501),1	1214,(202, 501),1	1226,(204, 501),1	1238,(206, 501),1	1250,(208, 501),1	1262,(210, 501),1	1274,(212, 501),1	1286,(214, 501),1	1298,(216, 501),1	1310,(218, 501),1	1322,(220, 501),1	1334,(222, 501),1	1346,(224, 501),1	1358,(226, 501),1	1370,(228, 501),1	1382,(230, 501),1	1394,(232, 501),1	1406,(234, 501),1	1418,(236, 501),1	1430,(238, 501),1	1442,(240, 501),1	1454,(242, 501),1	1466,(244, 501),1	1478,(246, 501),1	1490,(248, 501),1	1502,(250, 501),1	1514,(252, 501),1	1526,(254, 501),1	1538,(256, 501),1	1550,(258, 501),1	1562,(260, 501),1	1574,(262, 501),1	1586,(264, 501),1	1598,(266, 501),1	1610,(268, 501),1	1622,(270, 501),1	1634,(272, 501),1	1646,(274, 501),1	1658,(276, 501),1	1670,(278, 501),1	1682,(280, 501),1	1694,(282, 501),1	1706,(284, 501),1	1718,(286, 501),1	1730,(288, 501),1	1742,(290, 501),1	1754,(292, 501),1	1766,(294, 501),1	1778,(296, 501),1	1790,(298, 501),1	1802,(300, 501),1	1814,(302, 501),1	1826,(304, 501),1	1838,(306, 501),1	1850,(308, 501),1	1862,(310, 501),1	1874,(312, 501),1	1886,(314, 501),1	1898,(316, 501),1	1910,(318, 501),1	1922,(320, 501),1	1934,(322, 501),1	1946,(324, 501),1	1958,(326, 501),1	1970,(328, 501),1	1982,(330, 501),1	1994,(332, 501),1	2006,(334, 501),1	2018,(336, 501),1	2030,(338, 501),1	2042,(340, 501),1	2054,(342, 501),1	2066,(344, 501),1	2078,(346, 501),1	2090,(348, 501),1	2102,(350, 501),1	2114,(352, 501),1	2126,(354, 501),1	2138,(356, 501),1	2150,(358, 501),1	2162,(360, 501),1	2174,(362, 501),1	2186,(364, 501),1	2198,(366, 501),1	2210,(368, 501),1	2222,(370, 501),1	2234,(372, 501),1	2246,(374, 501),1	2258,(376, 501),1	2270,(378, 501),1	2282,(380, 501),1	2294,(382, 501),1	2306,(384, 501),1	2318,(386, 501),1	2330,(388, 501),1	2342,(390, 501),1	2354,(392, 501),1	2366,(394, 501),1	2378,(396, 501),1	2390,(398, 501),1	2402,(400, 501),1	2414,(402, 501),1	2426,(404, 501),1	2438,(406, 501),1	2450,(408, 501),1	2462,(410, 501),1	2474,(412, 501),1	2486,(414, 501),1	2498,(416, 501),1	2510,(418, 501),1	2522,(420, 501),1	2534,(422, 501),1	2546,(424, 501),1	2558,(426, 501),1	2570,(428, 501),1	2582,(430, 501),1	2594,(432, 501),1	2606,(434, 501),1	2618,(436, 501),1	2630,(438, 501),1	2642,(440, 501),1	2654,(442, 501),1	2666,(444, 501),1	2678,(446, 501),1	2690,(448, 501),1	2702,(450, 501),1	2714,(452, 501),1	2726,(454, 501),1	2738,(456, 501),1	2750,(458, 501),1	2762,(460, 501),1	2774,(462, 501),1	2786,(464, 501),1	2798,(466, 501),1	2810,(468, 501),1	2822,(470, 501),1	2834,(472, 501),1	2846,(474, 501),1	2858,(476, 501),1	2870,(478, 501),1	2882,(480, 501),1	2894,(482, 501),1	2906,(484, 501),1	2918,(486, 501),1	2930,(488, 501),1	2942,(490, 501),1	2954,(492, 501),1	2966,(494, 501),1	2978,(496, 501),1	2990,(498, 501),1	3002,(500, 501),1	
1,(0, 2),12	13,(0, 4),12	25,(0, 6),12	37,(0, 8),12	49,(0, 10),12	61,(0, 12),12	73,(0, 14),12	85,(0, 16),12	97,(0, 18),12	109,(0, 20),12	121,(0, 22),12	133,(0, 24),12	145,(0, 26),12	157,(0, 28),12	169,(0, 30),12	181,(0, 32),12	193,(0, 34),12	205,(0, 36),12	217,(0, 38),12	229,(0, 40),12	241,(0, 42),12	253,(0, 44),12	265,(0, 46),12	277,(0, 48),12	289,(0, 50),12	301,(0, 52),12	313,(0, 54),12	325,(0, 56),12	337,(0, 58),12	349,(0, 60),12	361,(0, 62),12	373,(0, 64),12	385,(0, 66),12	397,(0, 68),12	409,(0, 70),12	421,(0, 72),12	433,(0, 74),12	445,(0, 76),12	457,(0, 78),12	469,(0, 80),12	481,(0, 82),12	493,(0, 84),12	505,(0, 86),12	517,(0, 88),12	529,(0, 90),12	541,(0, 92),12	553,(0, 94),12	565,(0, 96),12	577,(0, 98),12	589,(0, 100),12	601,(0, 102),12	613,(0, 104),12	625,(0, 106),12	637,(0, 108),12	649,(0, 110),12	661,(0, 112),12	673,(0, 114),12	685,(0, 116),12	697,(0, 118),12	709,(0, 120),12	721,(0, 122),12	733,(0, 124),12	745,(0, 126),12	757,(0, 128),12	769,(0, 130),12	781,(0, 132),12	793,(0, 134),12	805,(0, 136),12	817,(0, 138),12	829,(0, 140),12	841,(0, 142),12	853,(0, 144),12	865,(0, 146),12	877,(0, 148),12	889,(0, 150),12	901,(0, 152),12	913,(0, 154),12	925,(0, 156),12	937,(0, 158),12	949,(0, 160),12	961,(0, 162),12	973,(0, 164),12	985,(0, 166),12	997,(0, 168),12	1009,(0, 170),12	1021,(0, 172),12	1033,(0, 174),12	1045,(0, 176),12	1057,(0, 178),12	1069,(0, 180),12	1081,(0, 182),12	1093,(0, 184),12	1105,(0, 186),12	1117,(0, 188),12	1129,(0, 190),12	1141,(0, 192),12	1153,(0, 194),12	1165,(0, 196),12	1177,(0, 198),12	1189,(0, 200),12	1201,(0, 202),12	1213,(0, 204),12	1225,(0, 206),12	1237,(0, 208),12	1249,(0, 210),12	1261,(0, 212),12	1273,(0, 214),12	1285,(0, 216),12	1297,(0, 218),12	1309,(0, 220),12	1321,(0, 222),12	1333,(0, 224),12	1345,(0, 226),12	1357,(0, 228),12	1369,(0, 230),12	1381,(0, 232),12	1393,(0, 234),12	1405,(0, 236),12	1417,(0, 238),12	1429,(0, 240),12	1441,(0, 242),12	1453,(0, 244),12	1465,(0, 246),12	1477,(0, 248),12	1489,(0, 250),12	1501,(0, 252),12	1513,(0, 254),12	1525,(0, 256),12	1537,(0, 258),12	1549,(0, 260),12	1561,(0, 262),12	1573,(0, 264),12	1585,(0, 266),12	1597,(0, 268),12	1609,(0, 270),12	1621,(0, 272),12	1633,(0, 274),12	1645,(0, 276),12	1657,(0, 278),12	1669,(0, 280),12	1681,(0, 282),12	1693,(0, 284),12	1705,(0, 286),12	1717,(0, 288),12	1729,(0, 290),12	1741,(0, 292),12	1753,(0, 294),12	1765,(0, 296),12	1777,(0, 298),12	1789,(0, 300),12	1801,(0, 302),12	1813,(0, 304),12	1825,(0, 306),12	1837,(0, 308),12	1849,(0, 310),12	1861,(0, 312),12	1873,(0, 314),12	1885,(0, 316),12	1897,(0, 318),12	1909,(0, 320),12	1921,(0, 322),12	1933,(0, 324),12	1945,(0, 326),12	1957,(0, 328),12	1969,(0, 330),12	1981,(0, 332),12	1993,(0, 334),12	2005,(0, 336),12	2017,(0, 338),12	2029,(0, 340),12	2041,(0, 342),12	2053,(0, 344),12	2065,(0, 346),12	2077,(0, 348),12	2089,(0, 350),12	2101,(0, 352),12	2113,(0, 354),12	2125,(0, 356),12	2137,(0, 358),12	2149,(0, 360),12	2161,(0, 362),12	2173,(0, 364),12	2185,(0, 366),12	2197,(0, 368),12	2209,(0, 370),12	2221,(0, 372),12	2233,(0, 374),12	2245,(0, 376),12	2257,(0, 378),12	2269,(0, 380),12	2281,(0, 382),12	2293,(0, 384),12	2305,(0, 386),12	2317,(0, 388),12	2329,(0, 390),12	2341,(0, 392),12	2353,(0, 394),12	2365,(0, 396),12	2377,(0, 398),12	2389,(0, 400),12	2401,(0, 402),12	2413,(0, 404),12	2425,(0, 406),12	2437,(0, 408),12	2449,(0, 410),12	2461,(0, 412),12	2473,(0, 414),12	2485,(0, 416),12	2497,(0, 418),12	2509,(0, 420),12	2521,(0, 422),12	2533,(0, 424),12	2545,(0, 426),12	2557,(0, 428),12	2569,(0, 430),12	2581,(0, 432),12	2593,(0, 434),12	2605,(0, 436),12	2617,(0, 438),12	2629,(0, 440),12	2641,(0, 442),12	2653,(0, 444),12	2665,(0, 446),12	2677,(0, 448),12	2689,(0, 450),12	2701,(0, 452),12	2713,(0, 454),12	2725,(0, 456),12	2737,(0, 458),12	2749,(0, 460),12	2761,(0, 462),12	2773,(0, 464),12	2785,(0, 466),12	2797,(0, 468),12	2809,(0, 470),12	2821,(0, 472),12	2833,(0, 474),12	2845,(0, 476),12	2857,(0, 478),12	2869,(0, 480),12	2881,(0, 482),12	2893,(0, 484),12	2905,(0, 486),12	2917,(0, 488),12	2929,(0, 490),12	2941,(0, 492),12	2953,(0, 494),12	2965,(0, 496),12	2977,(0, 498),12	2989,(0, 500),12	
