1119
# CPU
0,501,1	1,329,5	6,328,5	11,326,5	16,325,5	21,154,5	26,206,5	31,322,5	36,321,5	41,152,5	46,203,5	51,319,5	56,317,5	61,390,5	66,200,5	71,314,5	76,312,5	81,105,5	86,197,5	91,309,5	96,308,5	101,211,5	106,194,5	111,305,5	116,304,5	121,299,5	126,411,5	131,301,5	136,300,5	141,139,5	146,182,5	151,296,5	156,294,5	161,399,5	166,178,5	171,291,5	176,290,5	181,133,5	186,416,5	191,286,5	196,285,5	201,90,5	206,418,5	211,282,5	216,280,5	221,190,5	226,169,5	231,277,5	236,275,5	241,437,5	246,165,5	251,272,5	256,271,5	261,184,5	266,162,5	271,268,5	276,267,5	281,440,5	286,158,5	291,264,5	296,262,5	301,415,5	306,425,5	311,257,5	316,256,5	321,110,5	326,427,5	331,253,5	336,252,5	341,419,5	346,429,5	351,247,5	356,246,5	361,161,5	366,142,5	371,243,5	376,241,5	381,457,5	386,431,5	391,237,5	396,235,5	401,58,5	406,134,5	411,233,5	416,232,5	421,424,5	426,435,5	431,227,5	436,226,5	441,426,5	446,127,5	451,222,5	456,221,5	461,91,5	466,124,5	471,218,5	476,217,5	481,64,5	486,121,5	491,215,5	496,214,5	501,62,5	506,444,5	511,208,5	516,207,5	521,114,5	526,116,5	531,204,5	536,201,5	541,129,5	546,448,5	551,405,5	556,404,5	561,189,5	566,107,5	571,408,5	576,409,5	581,75,5	586,103,5	591,410,5	596,412,5	601,447,5	606,99,5	611,414,5	616,413,5	621,450,5	626,102,5	631,417,5	636,420,5	641,50,5	646,98,5	651,422,5	656,423,5	661,100,5	666,456,5	671,428,5	676,430,5	681,454,5	686,88,5	691,432,5	696,421,5	701,459,5	706,461,5	711,433,5	716,407,5	721,61,5	726,463,5	731,434,5	736,436,5	741,455,5	746,465,5	751,167,5	756,438,5	761,77,5	766,467,5	771,439,5	776,441,5	781,475,5	786,70,5	791,442,5	796,155,5	801,68,5	806,470,5	811,445,5	816,446,5	821,478,5	826,59,5	831,93,5	836,92,5	841,56,5	846,54,5	851,87,5	856,85,5	861,38,5	866,45,5	871,83,5	876,81,5	881,473,5	886,41,5	891,78,5	896,76,5	901,32,5	906,483,5	911,71,5	916,69,5	921,464,5	926,34,5	931,65,5	936,63,5	941,14,5	946,486,5	951,53,5	956,52,5	961,492,5	966,27,5	971,482,5	976,484,5	981,488,5	986,24,5	991,481,5	996,485,5	1001,16,5	1006,487,5	1011,489,5	1016,480,5	1021,19,5	1026,1,5	1031,491,5	1036,490,5	1041,18,5	1046,21,5	1051,20,5	1056,17,5	1061,2,5	1066,10,5	1071,13,5	1076,12,5	1081,11,5	1086,3,5	1091,4,5	1096,5,5	1101,6,5	1106,22,5	1111,500,5	1118,0,1	
9,334,5	21,336,5	29,337,5	37,338,5	45,327,5	69,342,5	81,344,5	89,345,5	109,348,5	121,350,5	129,307,5	141,352,5	161,298,5	169,355,5	181,357,5	193,358,5	221,361,5	229,362,5	249,364,5	273,368,5	293,370,5	313,371,5	321,372,5	329,258,5	353,374,5	369,379,5	381,249,5	401,382,5	409,383,5	417,384,5	429,236,5	441,231,5	449,386,5	465,388,5	481,392,5	497,394,5	517,396,5	525,213,5	537,400,5	545,401,5	557,199,5	565,209,5	577,193,5	585,402,5	597,187,5	613,181,5	625,179,5	637,174,5	653,171,5	665,406,5	693,156,5	701,151,5	713,148,5	733,143,5	745,137,5	757,128,5	765,132,5	773,122,5	785,119,5	797,113,5	805,117,5	817,106,5	829,111,5	841,140,5	849,141,5	861,449,5	869,451,5	889,453,5	913,462,5	929,471,5	941,474,5	949,72,5	965,66,5	977,51,5	985,49,5	1013,39,5	1025,33,5	1041,35,5	1049,37,5	1069,496,5	1077,497,5	1101,7,5	1109,499,5	
5,333,5	17,335,5	41,339,5	49,340,5	57,341,5	65,323,5	97,346,5	113,349,5	137,351,5	149,353,5	157,354,5	173,356,5	189,292,5	201,359,5	209,287,5	217,360,5	241,279,5	257,365,5	269,367,5	281,270,5	289,369,5	301,265,5	309,261,5	333,373,5	341,254,5	349,250,5	361,378,5	377,380,5	389,245,5	421,239,5	433,385,5	457,387,5	469,389,5	477,391,5	505,395,5	513,219,5	521,397,5	529,398,5	553,202,5	573,195,5	593,188,5	609,186,5	617,180,5	633,175,5	649,403,5	661,170,5	673,164,5	689,163,5	709,149,5	717,147,5	729,144,5	753,130,5	777,120,5	789,125,5	825,104,5	837,138,5	845,96,5	857,443,5	881,86,5	897,458,5	909,79,5	921,73,5	937,472,5	957,476,5	973,55,5	993,46,5	1009,40,5	1021,31,5	1033,29,5	1057,477,5	1089,498,5	1097,15,5	1105,8,5	
25,331,5	77,343,5	85,316,5	101,347,5	117,311,5	125,310,5	133,306,5	145,303,5	165,297,5	177,295,5	205,288,5	225,283,5	237,363,5	261,366,5	325,259,5	357,377,5	365,376,5	397,381,5	405,242,5	425,238,5	437,234,5	445,230,5	453,229,5	485,224,5	493,393,5	533,212,5	605,183,5	641,173,5	681,159,5	721,146,5	741,135,5	749,131,5	793,115,5	813,108,5	865,94,5	877,452,5	901,460,5	925,469,5	945,466,5	1001,44,5	1037,28,5	1045,26,5	1061,479,5	1085,493,5	1093,9,5	
13,332,5	33,330,5	53,324,5	61,320,5	73,318,5	93,315,5	105,313,5	153,302,5	185,293,5	197,289,5	213,284,5	233,281,5	245,278,5	253,276,5	265,274,5	277,273,5	285,269,5	297,266,5	305,263,5	317,260,5	337,255,5	345,251,5	373,375,5	385,248,5	393,244,5	413,240,5	461,228,5	473,225,5	489,223,5	501,220,5	509,216,5	541,210,5	549,205,5	561,198,5	569,196,5	581,192,5	589,191,5	601,185,5	621,177,5	629,176,5	645,172,5	657,168,5	669,166,5	677,160,5	685,157,5	697,153,5	705,150,5	725,145,5	737,136,5	761,126,5	769,123,5	781,118,5	801,112,5	809,109,5	821,101,5	833,97,5	853,95,5	873,89,5	885,84,5	893,82,5	905,80,5	917,74,5	933,468,5	953,67,5	961,60,5	969,57,5	981,48,5	989,47,5	997,43,5	1005,42,5	1017,36,5	1029,30,5	1053,25,5	1065,23,5	1073,495,5	1081,494,5	
# Incoming
10,(333, 0),4	14,(334, 0),4	18,(332, 0),4	22,(335, 0),4	26,(336, 0),4	30,(331, 0),4	34,(337, 0),4	38,(330, 0),4	42,(338, 0),4	46,(339, 0),4	50,(327, 0),4	54,(340, 0),4	58,(324, 0),4	62,(341, 0),4	66,(320, 0),4	70,(323, 0),4	74,(342, 0),4	78,(318, 0),4	82,(343, 0),4	86,(344, 0),4	90,(316, 0),4	94,(345, 0),4	98,(315, 0),4	102,(346, 0),4	106,(347, 0),4	110,(313, 0),4	114,(348, 0),4	118,(349, 0),4	122,(311, 0),4	126,(350, 0),4	130,(310, 0),4	134,(307, 0),4	138,(306, 0),4	142,(351, 0),4	146,(352, 0),4	150,(303, 0),4	154,(353, 0),4	158,(302, 0),4	162,(354, 0),4	166,(298, 0),4	170,(297, 0),4	174,(355, 0),4	178,(356, 0),4	182,(295, 0),4	186,(357, 0),4	190,(293, 0),4	194,(292, 0),4	198,(358, 0),4	202,(289, 0),4	206,(359, 0),4	210,(288, 0),4	214,(287, 0),4	218,(284, 0),4	222,(360, 0),4	226,(361, 0),4	230,(283, 0),4	234,(362, 0),4	238,(281, 0),4	242,(363, 0),4	246,(279, 0),4	250,(278, 0),4	254,(364, 0),4	258,(276, 0),4	262,(365, 0),4	266,(366, 0),4	270,(274, 0),4	274,(367, 0),4	278,(368, 0),4	282,(273, 0),4	286,(270, 0),4	290,(269, 0),4	294,(369, 0),4	298,(370, 0),4	302,(266, 0),4	306,(265, 0),4	310,(263, 0),4	314,(261, 0),4	318,(371, 0),4	322,(260, 0),4	326,(372, 0),4	330,(259, 0),4	334,(258, 0),4	338,(373, 0),4	342,(255, 0),4	346,(254, 0),4	350,(251, 0),4	354,(250, 0),4	358,(374, 0),4	362,(377, 0),4	366,(378, 0),4	370,(376, 0),4	374,(379, 0),4	378,(375, 0),4	382,(380, 0),4	386,(249, 0),4	390,(248, 0),4	394,(245, 0),4	398,(244, 0),4	402,(381, 0),4	406,(382, 0),4	410,(242, 0),4	414,(383, 0),4	418,(240, 0),4	422,(384, 0),4	426,(239, 0),4	430,(238, 0),4	434,(236, 0),4	438,(385, 0),4	442,(234, 0),4	446,(231, 0),4	450,(230, 0),4	454,(386, 0),4	458,(229, 0),4	462,(387, 0),4	466,(228, 0),4	470,(388, 0),4	474,(389, 0),4	478,(225, 0),4	482,(391, 0),4	486,(392, 0),4	490,(224, 0),4	494,(223, 0),4	498,(393, 0),4	502,(394, 0),4	506,(220, 0),4	510,(395, 0),4	514,(216, 0),4	518,(219, 0),4	522,(396, 0),4	526,(397, 0),4	530,(213, 0),4	534,(398, 0),4	538,(212, 0),4	542,(400, 0),4	546,(210, 0),4	550,(401, 0),4	554,(205, 0),4	558,(202, 0),4	562,(199, 0),4	566,(198, 0),4	570,(209, 0),4	574,(196, 0),4	578,(195, 0),4	582,(193, 0),4	586,(192, 0),4	590,(402, 0),4	594,(191, 0),4	598,(188, 0),4	602,(187, 0),4	606,(185, 0),4	610,(183, 0),4	614,(186, 0),4	618,(181, 0),4	622,(180, 0),4	626,(177, 0),4	630,(179, 0),4	634,(176, 0),4	638,(175, 0),4	642,(174, 0),4	646,(173, 0),4	650,(172, 0),4	654,(403, 0),4	658,(171, 0),4	662,(168, 0),4	666,(170, 0),4	670,(406, 0),4	674,(166, 0),4	678,(164, 0),4	682,(160, 0),4	686,(159, 0),4	690,(157, 0),4	694,(163, 0),4	698,(156, 0),4	702,(153, 0),4	706,(151, 0),4	710,(150, 0),4	714,(149, 0),4	718,(148, 0),4	722,(147, 0),4	726,(146, 0),4	730,(145, 0),4	734,(144, 0),4	738,(143, 0),4	742,(136, 0),4	746,(135, 0),4	750,(137, 0),4	754,(131, 0),4	758,(130, 0),4	762,(128, 0),4	766,(126, 0),4	770,(132, 0),4	774,(123, 0),4	778,(122, 0),4	782,(120, 0),4	786,(118, 0),4	790,(119, 0),4	794,(125, 0),4	798,(115, 0),4	802,(113, 0),4	806,(112, 0),4	810,(117, 0),4	814,(109, 0),4	818,(108, 0),4	822,(106, 0),4	826,(101, 0),4	830,(104, 0),4	834,(111, 0),4	838,(97, 0),4	842,(138, 0),4	846,(140, 0),4	850,(96, 0),4	854,(141, 0),4	858,(95, 0),4	862,(443, 0),4	866,(449, 0),4	870,(94, 0),4	874,(451, 0),4	878,(89, 0),4	882,(452, 0),4	886,(86, 0),4	890,(84, 0),4	894,(453, 0),4	898,(82, 0),4	902,(458, 0),4	906,(460, 0),4	910,(80, 0),4	914,(79, 0),4	918,(462, 0),4	922,(74, 0),4	926,(73, 0),4	930,(469, 0),4	934,(471, 0),4	938,(468, 0),4	942,(472, 0),4	946,(474, 0),4	950,(466, 0),4	954,(72, 0),4	958,(67, 0),4	962,(476, 0),4	966,(60, 0),4	970,(66, 0),4	974,(57, 0),4	978,(55, 0),4	982,(51, 0),4	986,(48, 0),4	990,(49, 0),4	994,(47, 0),4	998,(46, 0),4	1002,(43, 0),4	1006,(44, 0),4	1010,(42, 0),4	1014,(40, 0),4	1018,(39, 0),4	1022,(36, 0),4	1026,(31, 0),4	1030,(33, 0),4	1034,(30, 0),4	1038,(29, 0),4	1042,(28, 0),4	1046,(35, 0),4	1050,(26, 0),4	1054,(37, 0),4	1058,(25, 0),4	1062,(477, 0),4	1066,(479, 0),4	1070,(23, 0),4	1074,(496, 0),4	1078,(495, 0),4	1082,(497, 0),4	1086,(494, 0),4	1090,(493, 0),4	1094,(498, 0),4	1098,(9, 0),4	1102,(15, 0),4	1106,(7, 0),4	1110,(8, 0),4	1114,(499, 0),4	
5,(501, 334),4	17,(501, 336),4	25,(501, 337),4	33,(501, 338),4	41,(501, 327),4	65,(501, 342),4	77,(501, 344),4	85,(501, 345),4	105,(501, 348),4	117,(501, 350),4	125,(501, 307),4	137,(501, 352),4	157,(501, 298),4	165,(501, 355),4	177,(501, 357),4	189,(501, 358),4	217,(501, 361),4	225,(501, 362),4	245,(501, 364),4	269,(501, 368),4	289,(501, 370),4	309,(501, 371),4	317,(501, 372),4	325,(501, 258),4	349,(501, 374),4	365,(501, 379),4	377,(501, 249),4	397,(501, 382),4	405,(501, 383),4	413,(501, 384),4	425,(501, 236),4	437,(501, 231),4	445,(501, 386),4	461,(501, 388),4	477,(501, 392),4	493,(501, 394),4	513,(501, 396),4	521,(501, 213),4	533,(501, 400),4	541,(501, 401),4	553,(501, 199),4	561,(501, 209),4	573,(501, 193),4	581,(501, 402),4	593,(501, 187),4	609,(501, 181),4	621,(501, 179),4	633,(501, 174),4	649,(501, 171),4	661,(501, 406),4	689,(501, 156),4	697,(501, 151),4	709,(501, 148),4	729,(501, 143),4	741,(501, 137),4	753,(501, 128),4	761,(501, 132),4	769,(501, 122),4	781,(501, 119),4	793,(501, 113),4	801,(501, 117),4	813,(501, 106),4	825,(501, 111),4	837,(501, 140),4	845,(501, 141),4	857,(501, 449),4	865,(501, 451),4	885,(501, 453),4	909,(501, 462),4	925,(501, 471),4	937,(501, 474),4	945,(501, 72),4	961,(501, 66),4	973,(501, 51),4	981,(501, 49),4	1009,(501, 39),4	1021,(501, 33),4	1037,(501, 35),4	1045,(501, 37),4	1065,(501, 496),4	1073,(501, 497),4	1097,(501, 7),4	1105,(501, 499),4	
1,(501, 333),4	13,(501, 335),4	37,(501, 339),4	45,(501, 340),4	53,(501, 341),4	61,(501, 323),4	93,(501, 346),4	109,(501, 349),4	133,(501, 351),4	145,(501, 353),4	153,(501, 354),4	169,(501, 356),4	185,(501, 292),4	197,(501, 359),4	205,(501, 287),4	213,(501, 360),4	237,(501, 279),4	253,(501, 365),4	265,(501, 367),4	277,(501, 270),4	285,(501, 369),4	297,(501, 265),4	305,(501, 261),4	329,(501, 373),4	337,(501, 254),4	345,(501, 250),4	357,(501, 378),4	373,(501, 380),4	385,(501, 245),4	417,(501, 239),4	429,(501, 385),4	453,(501, 387),4	465,(501, 389),4	473,(501, 391),4	501,(501, 395),4	509,(501, 219),4	517,(501, 397),4	525,(501, 398),4	549,(501, 202),4	569,(501, 195),4	589,(501, 188),4	605,(501, 186),4	613,(501, 180),4	629,(501, 175),4	645,(501, 403),4	657,(501, 170),4	669,(501, 164),4	685,(501, 163),4	705,(501, 149),4	713,(501, 147),4	725,(501, 144),4	749,(501, 130),4	773,(501, 120),4	785,(501, 125),4	821,(501, 104),4	833,(501, 138),4	841,(501, 96),4	853,(501, 443),4	877,(501, 86),4	893,(501, 458),4	905,(501, 79),4	917,(501, 73),4	933,(501, 472),4	953,(501, 476),4	969,(501, 55),4	989,(501, 46),4	1005,(501, 40),4	1017,(501, 31),4	1029,(501, 29),4	1053,(501, 477),4	1085,(501, 498),4	1093,(501, 15),4	1101,(501, 8),4	
21,(501, 331),4	73,(501, 343),4	81,(501, 316),4	97,(501, 347),4	113,(501, 311),4	121,(501, 310),4	129,(501, 306),4	141,(501, 303),4	161,(501, 297),4	173,(501, 295),4	201,(501, 288),4	221,(501, 283),4	233,(501, 363),4	257,(501, 366),4	321,(501, 259),4	353,(501, 377),4	361,(501, 376),4	393,(501, 381),4	401,(501, 242),4	421,(501, 238),4	433,(501, 234),4	441,(501, 230),4	449,(501, 229),4	481,(501, 224),4	489,(501, 393),4	529,(501, 212),4	601,(501, 183),4	637,(501, 173),4	677,(501, 159),4	717,(501, 146),4	737,(501, 135),4	745,(501, 131),4	789,(501, 115),4	809,(501, 108),4	861,(501, 94),4	873,(501, 452),4	897,(501, 460),4	921,(501, 469),4	941,(501, 466),4	997,(501, 44),4	1033,(501, 28),4	1041,(501, 26),4	1057,(501, 479),4	1081,(501, 493),4	1089,(501, 9),4	
9,(501, 332),4	29,(501, 330),4	49,(501, 324),4	57,(501, 320),4	69,(501, 318),4	89,(501, 315),4	101,(501, 313),4	149,(501, 302),4	181,(501, 293),4	193,(501, 289),4	209,(501, 284),4	229,(501, 281),4	241,(501, 278),4	249,(501, 276),4	261,(501, 274),4	273,(501, 273),4	281,(501, 269),4	293,(501, 266),4	301,(501, 263),4	313,(501, 260),4	333,(501, 255),4	341,(501, 251),4	369,(501, 375),4	381,(501, 248),4	389,(501, 244),4	409,(501, 240),4	457,(501, 228),4	469,(501, 225),4	485,(501, 223),4	497,(501, 220),4	505,(501, 216),4	537,(501, 210),4	545,(501, 205),4	557,(501, 198),4	565,(501, 196),4	577,(501, 192),4	585,(501, 191),4	597,(501, 185),4	617,(501, 177),4	625,(501, 176),4	641,(501, 172),4	653,(501, 168),4	665,(501, 166),4	673,(501, 160),4	681,(501, 157),4	693,(501, 153),4	701,(501, 150),4	721,(501, 145),4	733,(501, 136),4	757,(501, 126),4	765,(501, 123),4	777,(501, 118),4	797,(501, 112),4	805,(501, 109),4	817,(501, 101),4	829,(501, 97),4	849,(501, 95),4	869,(501, 89),4	881,(501, 84),4	889,(501, 82),4	901,(501, 80),4	913,(501, 74),4	929,(501, 468),4	949,(501, 67),4	957,(501, 60),4	965,(501, 57),4	977,(501, 48),4	985,(501, 47),4	993,(501, 43),4	1001,(501, 42),4	1013,(501, 36),4	1025,(501, 30),4	1049,(501, 25),4	1061,(501, 23),4	1069,(501, 495),4	1077,(501, 494),4	
# Outgoing
1,(501, 333),4	5,(501, 334),4	9,(501, 332),4	13,(501, 335),4	17,(501, 336),4	21,(501, 331),4	25,(501, 337),4	29,(501, 330),4	33,(501, 338),4	37,(501, 339),4	41,(501, 327),4	45,(501, 340),4	49,(501, 324),4	53,(501, 341),4	57,(501, 320),4	61,(501, 323),4	65,(501, 342),4	69,(501, 318),4	73,(501, 343),4	77,(501, 344),4	81,(501, 316),4	85,(501, 345),4	89,(501, 315),4	93,(501, 346),4	97,(501, 347),4	101,(501, 313),4	105,(501, 348),4	109,(501, 349),4	113,(501, 311),4	117,(501, 350),4	121,(501, 310),4	125,(501, 307),4	129,(501, 306),4	133,(501, 351),4	137,(501, 352),4	141,(501, 303),4	145,(501, 353),4	149,(501, 302),4	153,(501, 354),4	157,(501, 298),4	161,(501, 297),4	165,(501, 355),4	169,(501, 356),4	173,(501, 295),4	177,(501, 357),4	181,(501, 293),4	185,(501, 292),4	189,(501, 358),4	193,(501, 289),4	197,(501, 359),4	201,(501, 288),4	205,(501, 287),4	209,(501, 284),4	213,(501, 360),4	217,(501, 361),4	221,(501, 283),4	225,(501, 362),4	229,(501, 281),4	233,(501, 363),4	237,(501, 279),4	241,(501, 278),4	245,(501, 364),4	249,(501, 276),4	253,(501, 365),4	257,(501, 366),4	261,(501, 274),4	265,(501, 367),4	269,(501, 368),4	273,(501, 273),4	277,(501, 270),4	281,(501, 269),4	285,(501, 369),4	289,(501, 370),4	293,(501, 266),4	297,(501, 265),4	301,(501, 263),4	305,(501, 261),4	309,(501, 371),4	313,(501, 260),4	317,(501, 372),4	321,(501, 259),4	325,(501, 258),4	329,(501, 373),4	333,(501, 255),4	337,(501, 254),4	341,(501, 251),4	345,(501, 250),4	349,(501, 374),4	353,(501, 377),4	357,(501, 378),4	361,(501, 376),4	365,(501, 379),4	369,(501, 375),4	373,(501, 380),4	377,(501, 249),4	381,(501, 248),4	385,(501, 245),4	389,(501, 244),4	393,(501, 381),4	397,(501, 382),4	401,(501, 242),4	405,(501, 383),4	409,(501, 240),4	413,(501, 384),4	417,(501, 239),4	421,(501, 238),4	425,(501, 236),4	429,(501, 385),4	433,(501, 234),4	437,(501, 231),4	441,(501, 230),4	445,(501, 386),4	449,(501, 229),4	453,(501, 387),4	457,(501, 228),4	461,(501, 388),4	465,(501, 389),4	469,(501, 225),4	473,(501, 391),4	477,(501, 392),4	481,(501, 224),4	485,(501, 223),4	489,(501, 393),4	493,(501, 394),4	497,(501, 220),4	501,(501, 395),4	505,(501, 216),4	509,(501, 219),4	513,(501, 396),4	517,(501, 397),4	521,(501, 213),4	525,(501, 398),4	529,(501, 212),4	533,(501, 400),4	537,(501, 210),4	541,(501, 401),4	545,(501, 205),4	549,(501, 202),4	553,(501, 199),4	557,(501, 198),4	561,(501, 209),4	565,(501, 196),4	569,(501, 195),4	573,(501, 193),4	577,(501, 192),4	581,(501, 402),4	585,(501, 191),4	589,(501, 188),4	593,(501, 187),4	597,(501, 185),4	601,(501, 183),4	605,(501, 186),4	609,(501, 181),4	613,(501, 180),4	617,(501, 177),4	621,(501, 179),4	625,(501, 176),4	629,(501, 175),4	633,(501, 174),4	637,(501, 173),4	641,(501, 172),4	645,(501, 403),4	649,(501, 171),4	653,(501, 168),4	657,(501, 170),4	661,(501, 406),4	665,(501, 166),4	669,(501, 164),4	673,(501, 160),4	677,(501, 159),4	681,(501, 157),4	685,(501, 163),4	689,(501, 156),4	693,(501, 153),4	697,(501, 151),4	701,(501, 150),4	705,(501, 149),4	709,(501, 148),4	713,(501, 147),4	717,(501, 146),4	721,(501, 145),4	725,(501, 144),4	729,(501, 143),4	733,(501, 136),4	737,(501, 135),4	741,(501, 137),4	745,(501, 131),4	749,(501, 130),4	753,(501, 128),4	757,(501, 126),4	761,(501, 132),4	765,(501, 123),4	769,(501, 122),4	773,(501, 120),4	777,(501, 118),4	781,(501, 119),4	785,(501, 125),4	789,(501, 115),4	793,(501, 113),4	797,(501, 112),4	801,(501, 117),4	805,(501, 109),4	809,(501, 108),4	813,(501, 106),4	817,(501, 101),4	821,(501, 104),4	825,(501, 111),4	829,(501, 97),4	833,(501, 138),4	837,(501, 140),4	841,(501, 96),4	845,(501, 141),4	849,(501, 95),4	853,(501, 443),4	857,(501, 449),4	861,(501, 94),4	865,(501, 451),4	869,(501, 89),4	873,(501, 452),4	877,(501, 86),4	881,(501, 84),4	885,(501, 453),4	889,(501, 82),4	893,(501, 458),4	897,(501, 460),4	901,(501, 80),4	905,(501, 79),4	909,(501, 462),4	913,(501, 74),4	917,(501, 73),4	921,(501, 469),4	925,(501, 471),4	929,(501, 468),4	933,(501, 472),4	937,(501, 474),4	941,(501, 466),4	945,(501, 72),4	949,(501, 67),4	953,(501, 476),4	957,(501, 60),4	961,(501, 66),4	965,(501, 57),4	969,(501, 55),4	973,(501, 51),4	977,(501, 48),4	981,(501, 49),4	985,(501, 47),4	989,(501, 46),4	993,(501, 43),4	997,(501, 44),4	1001,(501, 42),4	1005,(501, 40),4	1009,(501, 39),4	1013,(501, 36),4	1017,(501, 31),4	1021,(501, 33),4	1025,(501, 30),4	1029,(501, 29),4	1033,(501, 28),4	1037,(501, 35),4	1041,(501, 26),4	1045,(501, 37),4	1049,(501, 25),4	1053,(501, 477),4	1057,(501, 479),4	1061,(501, 23),4	1065,(501, 496),4	1069,(501, 495),4	1073,(501, 497),4	1077,(501, 494),4	1081,(501, 493),4	1085,(501, 498),4	1089,(501, 9),4	1093,(501, 15),4	1097,(501, 7),4	1101,(501, 8),4	1105,(501, 499),4	
14,(334, 0),4	26,(336, 0),4	34,(337, 0),4	42,(338, 0),4	50,(327, 0),4	74,(342, 0),4	86,(344, 0),4	94,(345, 0),4	114,(348, 0),4	126,(350, 0),4	134,(307, 0),4	146,(352, 0),4	166,(298, 0),4	174,(355, 0),4	186,(357, 0),4	198,(358, 0),4	226,(361, 0),4	234,(362, 0),4	254,(364, 0),4	278,(368, 0),4	298,(370, 0),4	318,(371, 0),4	326,(372, 0),4	334,(258, 0),4	358,(374, 0),4	374,(379, 0),4	386,(249, 0),4	406,(382, 0),4	414,(383, 0),4	422,(384, 0),4	434,(236, 0),4	446,(231, 0),4	454,(386, 0),4	470,(388, 0),4	486,(392, 0),4	502,(394, 0),4	522,(396, 0),4	530,(213, 0),4	542,(400, 0),4	550,(401, 0),4	562,(199, 0),4	570,(209, 0),4	582,(193, 0),4	590,(402, 0),4	602,(187, 0),4	618,(181, 0),4	630,(179, 0),4	642,(174, 0),4	658,(171, 0),4	670,(406, 0),4	698,(156, 0),4	706,(151, 0),4	718,(148, 0),4	738,(143, 0),4	750,(137, 0),4	762,(128, 0),4	770,(132, 0),4	778,(122, 0),4	790,(119, 0),4	802,(113, 0),4	810,(117, 0),4	822,(106, 0),4	834,(111, 0),4	846,(140, 0),4	854,(141, 0),4	866,(449, 0),4	874,(451, 0),4	894,(453, 0),4	918,(462, 0),4	934,(471, 0),4	946,(474, 0),4	954,(72, 0),4	970,(66, 0),4	982,(51, 0),4	990,(49, 0),4	1018,(39, 0),4	1030,(33, 0),4	1046,(35, 0),4	1054,(37, 0),4	1074,(496, 0),4	1082,(497, 0),4	1106,(7, 0),4	1114,(499, 0),4	
10,(333, 0),4	22,(335, 0),4	46,(339, 0),4	54,(340, 0),4	62,(341, 0),4	70,(323, 0),4	102,(346, 0),4	118,(349, 0),4	142,(351, 0),4	154,(353, 0),4	162,(354, 0),4	178,(356, 0),4	194,(292, 0),4	206,(359, 0),4	214,(287, 0),4	222,(360, 0),4	246,(279, 0),4	262,(365, 0),4	274,(367, 0),4	286,(270, 0),4	294,(369, 0),4	306,(265, 0),4	314,(261, 0),4	338,(373, 0),4	346,(254, 0),4	354,(250, 0),4	366,(378, 0),4	382,(380, 0),4	394,(245, 0),4	426,(239, 0),4	438,(385, 0),4	462,(387, 0),4	474,(389, 0),4	482,(391, 0),4	510,(395, 0),4	518,(219, 0),4	526,(397, 0),4	534,(398, 0),4	558,(202, 0),4	578,(195, 0),4	598,(188, 0),4	614,(186, 0),4	622,(180, 0),4	638,(175, 0),4	654,(403, 0),4	666,(170, 0),4	678,(164, 0),4	694,(163, 0),4	714,(149, 0),4	722,(147, 0),4	734,(144, 0),4	758,(130, 0),4	782,(120, 0),4	794,(125, 0),4	830,(104, 0),4	842,(138, 0),4	850,(96, 0),4	862,(443, 0),4	886,(86, 0),4	902,(458, 0),4	914,(79, 0),4	926,(73, 0),4	942,(472, 0),4	962,(476, 0),4	978,(55, 0),4	998,(46, 0),4	1014,(40, 0),4	1026,(31, 0),4	1038,(29, 0),4	1062,(477, 0),4	1094,(498, 0),4	1102,(15, 0),4	1110,(8, 0),4	
30,(331, 0),4	82,(343, 0),4	90,(316, 0),4	106,(347, 0),4	122,(311, 0),4	130,(310, 0),4	138,(306, 0),4	150,(303, 0),4	170,(297, 0),4	182,(295, 0),4	210,(288, 0),4	230,(283, 0),4	242,(363, 0),4	266,(366, 0),4	330,(259, 0),4	362,(377, 0),4	370,(376, 0),4	402,(381, 0),4	410,(242, 0),4	430,(238, 0),4	442,(234, 0),4	450,(230, 0),4	458,(229, 0),4	490,(224, 0),4	498,(393, 0),4	538,(212, 0),4	610,(183, 0),4	646,(173, 0),4	686,(159, 0),4	726,(146, 0),4	746,(135, 0),4	754,(131, 0),4	798,(115, 0),4	818,(108, 0),4	870,(94, 0),4	882,(452, 0),4	906,(460, 0),4	930,(469, 0),4	950,(466, 0),4	1006,(44, 0),4	1042,(28, 0),4	1050,(26, 0),4	1066,(479, 0),4	1090,(493, 0),4	1098,(9, 0),4	
18,(332, 0),4	38,(330, 0),4	58,(324, 0),4	66,(320, 0),4	78,(318, 0),4	98,(315, 0),4	110,(313, 0),4	158,(302, 0),4	190,(293, 0),4	202,(289, 0),4	218,(284, 0),4	238,(281, 0),4	250,(278, 0),4	258,(276, 0),4	270,(274, 0),4	282,(273, 0),4	290,(269, 0),4	302,(266, 0),4	310,(263, 0),4	322,(260, 0),4	342,(255, 0),4	350,(251, 0),4	378,(375, 0),4	390,(248, 0),4	398,(244, 0),4	418,(240, 0),4	466,(228, 0),4	478,(225, 0),4	494,(223, 0),4	506,(220, 0),4	514,(216, 0),4	546,(210, 0),4	554,(205, 0),4	566,(198, 0),4	574,(196, 0),4	586,(192, 0),4	594,(191, 0),4	606,(185, 0),4	626,(177, 0),4	634,(176, 0),4	650,(172, 0),4	662,(168, 0),4	674,(166, 0),4	682,(160, 0),4	690,(157, 0),4	702,(153, 0),4	710,(150, 0),4	730,(145, 0),4	742,(136, 0),4	766,(126, 0),4	774,(123, 0),4	786,(118, 0),4	806,(112, 0),4	814,(109, 0),4	826,(101, 0),4	838,(97, 0),4	858,(95, 0),4	878,(89, 0),4	890,(84, 0),4	898,(82, 0),4	910,(80, 0),4	922,(74, 0),4	938,(468, 0),4	958,(67, 0),4	966,(60, 0),4	974,(57, 0),4	986,(48, 0),4	994,(47, 0),4	1002,(43, 0),4	1010,(42, 0),4	1022,(36, 0),4	1034,(30, 0),4	1058,(25, 0),4	1070,(23, 0),4	1078,(495, 0),4	1086,(494, 0),4	
