1002
# CPU
0,501,1	1,500,2	3,328,2	5,329,2	7,327,2	9,326,2	11,325,2	13,330,2	15,324,2	17,323,2	19,322,2	21,331,2	23,321,2	25,332,2	27,320,2	29,333,2	31,319,2	33,318,2	35,317,2	37,334,2	39,316,2	41,335,2	43,315,2	45,336,2	47,314,2	49,313,2	51,312,2	53,337,2	55,311,2	57,338,2	59,310,2	61,339,2	63,309,2	65,308,2	67,307,2	69,340,2	71,306,2	73,305,2	75,304,2	77,341,2	79,303,2	81,302,2	83,301,2	85,342,2	87,300,2	89,343,2	91,299,2	93,344,2	95,298,2	97,297,2	99,296,2	101,345,2	103,295,2	105,346,2	107,294,2	109,347,2	111,293,2	113,292,2	115,291,2	117,348,2	119,290,2	121,349,2	123,289,2	125,350,2	127,288,2	129,287,2	131,286,2	133,351,2	135,285,2	137,284,2	139,283,2	141,352,2	143,282,2	145,281,2	147,280,2	149,353,2	151,279,2	153,354,2	155,278,2	157,355,2	159,277,2	161,276,2	163,275,2	165,356,2	167,274,2	169,357,2	171,273,2	173,358,2	175,272,2	177,271,2	179,270,2	181,359,2	183,269,2	185,360,2	187,268,2	189,361,2	191,267,2	193,266,2	195,265,2	197,362,2	199,264,2	201,263,2	203,262,2	205,363,2	207,261,2	209,260,2	211,259,2	213,364,2	215,258,2	217,365,2	219,257,2	221,366,2	223,256,2	225,255,2	227,254,2	229,367,2	231,253,2	233,368,2	235,252,2	237,369,2	239,251,2	241,250,2	243,249,2	245,370,2	247,248,2	249,371,2	251,247,2	253,372,2	255,246,2	257,245,2	259,244,2	261,373,2	263,243,2	265,242,2	267,241,2	269,374,2	271,240,2	273,239,2	275,238,2	277,375,2	279,237,2	281,376,2	283,236,2	285,377,2	287,235,2	289,234,2	291,233,2	293,378,2	295,232,2	297,379,2	299,231,2	301,380,2	303,230,2	305,229,2	307,228,2	309,381,2	311,227,2	313,382,2	315,226,2	317,383,2	319,225,2	321,224,2	323,223,2	325,384,2	327,222,2	329,221,2	331,220,2	333,385,2	335,219,2	337,218,2	339,217,2	341,386,2	343,216,2	345,387,2	347,215,2	349,388,2	351,214,2	353,213,2	355,212,2	357,389,2	359,211,2	361,390,2	363,210,2	365,391,2	367,209,2	369,208,2	371,207,2	373,392,2	375,206,2	377,393,2	379,205,2	381,394,2	383,204,2	385,203,2	387,202,2	389,395,2	391,201,2	393,200,2	395,199,2	397,396,2	399,198,2	401,197,2	403,196,2	405,397,2	407,195,2	409,398,2	411,194,2	413,399,2	415,193,2	417,192,2	419,191,2	421,400,2	423,190,2	425,401,2	427,189,2	429,402,2	431,188,2	433,187,2	435,186,2	437,403,2	439,185,2	441,404,2	443,184,2	445,405,2	447,183,2	449,182,2	451,181,2	453,406,2	455,180,2	457,179,2	459,178,2	461,407,2	463,177,2	465,176,2	467,175,2	469,408,2	471,174,2	473,409,2	475,173,2	477,410,2	479,172,2	481,171,2	483,170,2	485,411,2	487,169,2	489,420,2	491,419,2	493,421,2	495,418,2	497,417,2	499,416,2	501,422,2	503,415,2	505,423,2	507,414,2	509,424,2	511,413,2	513,412,2	515,168,2	517,425,2	519,167,2	521,166,2	523,165,2	525,426,2	527,164,2	529,163,2	531,162,2	533,427,2	535,161,2	537,428,2	539,160,2	541,429,2	543,159,2	545,158,2	547,157,2	549,430,2	551,156,2	553,155,2	555,154,2	557,431,2	559,153,2	561,152,2	563,151,2	565,432,2	567,150,2	569,433,2	571,149,2	573,434,2	575,148,2	577,147,2	579,146,2	581,435,2	583,145,2	585,144,2	587,143,2	589,436,2	591,142,2	593,141,2	595,140,2	597,437,2	599,139,2	601,438,2	603,138,2	605,439,2	607,137,2	609,136,2	611,135,2	613,440,2	615,134,2	617,133,2	619,132,2	621,441,2	623,131,2	625,130,2	627,129,2	629,442,2	631,128,2	633,443,2	635,127,2	637,444,2	639,126,2	641,125,2	643,124,2	645,445,2	647,123,2	649,122,2	651,121,2	653,446,2	655,120,2	657,119,2	659,118,2	661,447,2	663,117,2	665,448,2	667,116,2	669,449,2	671,115,2	673,114,2	675,113,2	677,450,2	679,112,2	681,111,2	683,110,2	685,451,2	687,109,2	689,108,2	691,107,2	693,452,2	695,106,2	697,453,2	699,105,2	701,454,2	703,104,2	705,103,2	707,102,2	709,455,2	711,101,2	713,100,2	715,99,2	717,456,2	719,98,2	721,97,2	723,96,2	725,457,2	727,95,2	729,458,2	731,94,2	733,459,2	735,93,2	737,92,2	739,91,2	741,460,2	743,90,2	745,81,2	747,80,2	749,82,2	751,79,2	753,78,2	755,77,2	757,83,2	759,76,2	761,84,2	763,75,2	765,85,2	767,74,2	769,73,2	771,72,2	773,86,2	775,71,2	777,87,2	779,70,2	781,88,2	783,69,2	785,68,2	787,67,2	789,89,2	791,66,2	793,461,2	795,65,2	797,462,2	799,64,2	801,63,2	803,62,2	805,463,2	807,61,2	809,464,2	811,60,2	813,465,2	815,59,2	817,58,2	819,57,2	821,466,2	823,56,2	825,467,2	827,55,2	829,468,2	831,54,2	833,53,2	835,52,2	837,469,2	839,51,2	841,470,2	843,50,2	845,471,2	847,49,2	849,48,2	851,47,2	853,472,2	855,46,2	857,473,2	859,45,2	861,474,2	863,44,2	865,43,2	867,42,2	869,475,2	871,41,2	873,484,2	875,483,2	877,485,2	879,482,2	881,481,2	883,480,2	885,486,2	887,479,2	889,478,2	891,477,2	893,487,2	895,476,2	897,40,2	899,39,2	901,488,2	903,38,2	905,37,2	907,36,2	909,489,2	911,35,2	913,34,2	915,33,2	917,490,2	919,32,2	921,31,2	923,30,2	925,491,2	927,29,2	929,28,2	931,27,2	933,492,2	935,26,2	937,17,2	939,16,2	941,18,2	943,15,2	945,19,2	947,14,2	949,20,2	951,13,2	953,21,2	955,12,2	957,22,2	959,11,2	961,23,2	963,10,2	965,24,2	967,9,2	969,1,2	971,2,2	973,3,2	975,4,2	977,5,2	979,6,2	981,7,2	983,8,2	985,25,2	987,493,2	989,494,2	991,495,2	993,496,2	995,497,2	997,498,2	999,499,2	1001,0,1	
# Incoming

# Outgoing

