181260
# CPU
0,501,1	1,329,725	726,330,725	1451,326,725	2176,331,725	2901,323,725	3626,332,725	4351,333,725	5076,334,725	5801,318,725	6526,335,725	7251,336,725	7976,337,725	8701,313,725	9426,338,725	10151,339,725	10876,340,725	11601,308,725	12326,341,725	13051,305,725	13776,342,725	14501,302,725	15226,343,725	15951,344,725	16676,345,725	17401,297,725	18126,346,725	18851,347,725	19576,348,725	20301,292,725	21026,349,725	21751,350,725	22476,351,725	23201,287,725	23926,352,725	24651,284,725	25376,353,725	26101,281,725	26826,354,725	27551,355,725	28276,356,725	29001,276,725	29726,357,725	30451,358,725	31176,359,725	31901,271,725	32626,360,725	33351,361,725	34076,362,725	34801,266,725	35526,363,725	36251,263,725	36976,364,725	37701,260,725	38426,365,725	39151,366,725	39876,367,725	40601,255,725	41326,368,725	42051,369,725	42776,370,725	43501,250,725	44226,371,725	44951,372,725	45676,373,725	46401,245,725	47126,374,725	47851,242,725	48576,375,725	49301,239,725	50026,376,725	50751,377,725	51476,378,725	52201,234,725	52926,379,725	53651,380,725	54376,381,725	55101,229,725	55826,382,725	56551,383,725	57276,384,725	58001,224,725	58726,385,725	59451,221,725	60176,386,725	60901,218,725	61626,387,725	62351,388,725	63076,389,725	63801,213,725	64526,390,725	65251,391,725	65976,392,725	66701,208,725	67426,393,725	68151,394,725	68876,395,725	69601,203,725	70326,396,725	71051,200,725	71776,397,725	72501,197,725	73226,398,725	73951,399,725	74676,400,725	75401,192,725	76126,401,725	76851,402,725	77576,403,725	78301,187,725	79026,404,725	79751,405,725	80476,406,725	81201,182,725	81926,407,725	82651,179,725	83376,408,725	84101,176,725	84826,409,725	85551,410,725	86276,411,725	87001,171,725	87726,412,725	88451,421,725	89176,422,725	89901,418,725	90626,423,725	91351,424,725	92076,425,725	92801,413,725	93526,426,725	94251,166,725	94976,427,725	95701,163,725	96426,428,725	97151,429,725	97876,430,725	98601,158,725	99326,431,725	100051,155,725	100776,432,725	101501,152,725	102226,433,725	102951,434,725	103676,435,725	104401,147,725	105126,436,725	105851,144,725	106576,437,725	107301,141,725	108026,438,725	108751,439,725	109476,440,725	110201,136,725	110926,441,725	111651,133,725	112376,442,725	113101,130,725	113826,443,725	114551,444,725	115276,445,725	116001,125,725	116726,446,725	117451,122,725	118176,447,725	118901,119,725	119626,448,725	120351,449,725	121076,450,725	121801,114,725	122526,451,725	123251,111,725	123976,452,725	124701,108,725	125426,453,725	126151,454,725	126876,455,725	127601,103,725	128326,456,725	129051,100,725	129776,457,725	130501,97,725	131226,458,725	131951,459,725	132676,460,725	133401,92,725	134126,461,725	134851,81,725	135576,82,725	136301,78,725	137026,83,725	137751,84,725	138476,85,725	139201,73,725	139926,86,725	140651,87,725	141376,88,725	142101,68,725	142826,89,725	143551,462,725	144276,463,725	145001,63,725	145726,464,725	146451,465,725	147176,466,725	147901,58,725	148626,467,725	149351,468,725	150076,469,725	150801,53,725	151526,470,725	152251,471,725	152976,472,725	153701,48,725	154426,473,725	155151,474,725	155876,475,725	156601,43,725	157326,476,725	158051,485,725	158776,486,725	159501,482,725	160226,487,725	160951,479,725	161676,488,725	162401,40,725	163126,489,725	163851,37,725	164576,490,725	165301,34,725	166026,491,725	166751,31,725	167476,492,725	168201,28,725	168926,493,725	169651,17,725	170376,18,725	171101,19,725	171826,20,725	172551,21,725	173276,22,725	174001,23,725	174726,24,725	175451,1,725	176176,3,725	176901,5,725	177626,7,725	178351,25,725	179076,495,725	179801,497,725	180526,499,725	
9,328,725	734,327,725	1459,325,725	2184,324,725	2909,322,725	3634,321,725	4359,320,725	5084,319,725	5809,317,725	6534,316,725	7259,315,725	7984,314,725	8709,312,725	9434,311,725	10159,310,725	10884,309,725	11609,307,725	12334,306,725	13059,304,725	13784,303,725	14509,301,725	15234,300,725	15959,299,725	16684,298,725	17409,296,725	18134,295,725	18859,294,725	19584,293,725	20309,291,725	21034,290,725	21759,289,725	22484,288,725	23209,286,725	23934,285,725	24659,283,725	25384,282,725	26109,280,725	26834,279,725	27559,278,725	28284,277,725	29009,275,725	29734,274,725	30459,273,725	31184,272,725	31909,270,725	32634,269,725	33359,268,725	34084,267,725	34809,265,725	35534,264,725	36259,262,725	36984,261,725	37709,259,725	38434,258,725	39159,257,725	39884,256,725	40609,254,725	41334,253,725	42059,252,725	42784,251,725	43509,249,725	44234,248,725	44959,247,725	45684,246,725	46409,244,725	47134,243,725	47859,241,725	48584,240,725	49309,238,725	50034,237,725	50759,236,725	51484,235,725	52209,233,725	52934,232,725	53659,231,725	54384,230,725	55109,228,725	55834,227,725	56559,226,725	57284,225,725	58009,223,725	58734,222,725	59459,220,725	60184,219,725	60909,217,725	61634,216,725	62359,215,725	63084,214,725	63809,212,725	64534,211,725	65259,210,725	65984,209,725	66709,207,725	67434,206,725	68159,205,725	68884,204,725	69609,202,725	70334,201,725	71059,199,725	71784,198,725	72509,196,725	73234,195,725	73959,194,725	74684,193,725	75409,191,725	76134,190,725	76859,189,725	77584,188,725	78309,186,725	79034,185,725	79759,184,725	80484,183,725	81209,181,725	81934,180,725	82659,178,725	83384,177,725	84109,175,725	84834,174,725	85559,173,725	86284,172,725	87009,170,725	87734,169,725	88459,420,725	89184,419,725	89909,417,725	90634,416,725	91359,415,725	92084,414,725	92809,168,725	93534,167,725	94259,165,725	94984,164,725	95709,162,725	96434,161,725	97159,160,725	97884,159,725	98609,157,725	99334,156,725	100059,154,725	100784,153,725	101509,151,725	102234,150,725	102959,149,725	103684,148,725	104409,146,725	105134,145,725	105859,143,725	106584,142,725	107309,140,725	108034,139,725	108759,138,725	109484,137,725	110209,135,725	110934,134,725	111659,132,725	112384,131,725	113109,129,725	113834,128,725	114559,127,725	115284,126,725	116009,124,725	116734,123,725	117459,121,725	118184,120,725	118909,118,725	119634,117,725	120359,116,725	121084,115,725	121809,113,725	122534,112,725	123259,110,725	123984,109,725	124709,107,725	125434,106,725	126159,105,725	126884,104,725	127609,102,725	128334,101,725	129059,99,725	129784,98,725	130509,96,725	131234,95,725	131959,94,725	132684,93,725	133409,91,725	134134,90,725	134859,80,725	135584,79,725	136309,77,725	137034,76,725	137759,75,725	138484,74,725	139209,72,725	139934,71,725	140659,70,725	141384,69,725	142109,67,725	142834,66,725	143559,65,725	144284,64,725	145009,62,725	145734,61,725	146459,60,725	147184,59,725	147909,57,725	148634,56,725	149359,55,725	150084,54,725	150809,52,725	151534,51,725	152259,50,725	152984,49,725	153709,47,725	154434,46,725	155159,45,725	155884,44,725	156609,42,725	157334,41,725	158059,484,725	158784,483,725	159509,481,725	160234,480,725	160959,478,725	161684,477,725	162409,39,725	163134,38,725	163859,36,725	164584,35,725	165309,33,725	166034,32,725	166759,30,725	167484,29,725	168209,27,725	168934,26,725	169659,16,725	170384,15,725	171109,14,725	171834,13,725	172559,12,725	173284,11,725	174009,10,725	174734,9,725	175459,2,725	176184,4,725	176909,6,725	177634,8,725	178359,494,725	179084,496,725	179809,498,725	180534,500,725	181259,0,1	
# Incoming

1,(501, 328),8	9,(501, 327),8	17,(501, 325),8	25,(501, 324),8	33,(501, 322),8	41,(501, 321),8	49,(501, 320),8	57,(501, 319),8	65,(501, 317),8	73,(501, 316),8	81,(501, 315),8	89,(501, 314),8	97,(501, 312),8	105,(501, 311),8	113,(501, 310),8	121,(501, 309),8	129,(501, 307),8	137,(501, 306),8	145,(501, 304),8	153,(501, 303),8	161,(501, 301),8	169,(501, 300),8	177,(501, 299),8	185,(501, 298),8	193,(501, 296),8	201,(501, 295),8	209,(501, 294),8	217,(501, 293),8	225,(501, 291),8	233,(501, 290),8	241,(501, 289),8	249,(501, 288),8	257,(501, 286),8	265,(501, 285),8	273,(501, 283),8	281,(501, 282),8	289,(501, 280),8	297,(501, 279),8	305,(501, 278),8	313,(501, 277),8	321,(501, 275),8	329,(501, 274),8	337,(501, 273),8	345,(501, 272),8	353,(501, 270),8	361,(501, 269),8	369,(501, 268),8	377,(501, 267),8	385,(501, 265),8	393,(501, 264),8	401,(501, 262),8	409,(501, 261),8	417,(501, 259),8	425,(501, 258),8	433,(501, 257),8	441,(501, 256),8	449,(501, 254),8	457,(501, 253),8	465,(501, 252),8	473,(501, 251),8	481,(501, 249),8	489,(501, 248),8	497,(501, 247),8	505,(501, 246),8	513,(501, 244),8	521,(501, 243),8	529,(501, 241),8	537,(501, 240),8	545,(501, 238),8	553,(501, 237),8	561,(501, 236),8	569,(501, 235),8	577,(501, 233),8	585,(501, 232),8	593,(501, 231),8	601,(501, 230),8	609,(501, 228),8	617,(501, 227),8	625,(501, 226),8	633,(501, 225),8	641,(501, 223),8	649,(501, 222),8	657,(501, 220),8	665,(501, 219),8	673,(501, 217),8	681,(501, 216),8	689,(501, 215),8	697,(501, 214),8	705,(501, 212),8	713,(501, 211),8	721,(501, 210),8	729,(501, 209),8	737,(501, 207),8	745,(501, 206),8	753,(501, 205),8	761,(501, 204),8	769,(501, 202),8	777,(501, 201),8	785,(501, 199),8	793,(501, 198),8	801,(501, 196),8	809,(501, 195),8	817,(501, 194),8	825,(501, 193),8	833,(501, 191),8	841,(501, 190),8	849,(501, 189),8	857,(501, 188),8	865,(501, 186),8	873,(501, 185),8	881,(501, 184),8	889,(501, 183),8	897,(501, 181),8	905,(501, 180),8	913,(501, 178),8	921,(501, 177),8	929,(501, 175),8	937,(501, 174),8	945,(501, 173),8	953,(501, 172),8	961,(501, 170),8	969,(501, 169),8	977,(501, 420),8	985,(501, 419),8	993,(501, 417),8	1001,(501, 416),8	1009,(501, 415),8	1017,(501, 414),8	1025,(501, 168),8	1033,(501, 167),8	1041,(501, 165),8	1049,(501, 164),8	1057,(501, 162),8	1065,(501, 161),8	1073,(501, 160),8	1081,(501, 159),8	1089,(501, 157),8	1097,(501, 156),8	1105,(501, 154),8	1113,(501, 153),8	1121,(501, 151),8	1129,(501, 150),8	1137,(501, 149),8	1145,(501, 148),8	1153,(501, 146),8	1161,(501, 145),8	1169,(501, 143),8	1177,(501, 142),8	1185,(501, 140),8	1193,(501, 139),8	1201,(501, 138),8	1209,(501, 137),8	1217,(501, 135),8	1225,(501, 134),8	1233,(501, 132),8	1241,(501, 131),8	1249,(501, 129),8	1257,(501, 128),8	1265,(501, 127),8	1273,(501, 126),8	1281,(501, 124),8	1289,(501, 123),8	1297,(501, 121),8	1305,(501, 120),8	1313,(501, 118),8	1321,(501, 117),8	1329,(501, 116),8	1337,(501, 115),8	1345,(501, 113),8	1353,(501, 112),8	1361,(501, 110),8	1369,(501, 109),8	1377,(501, 107),8	1385,(501, 106),8	1393,(501, 105),8	1401,(501, 104),8	1409,(501, 102),8	1417,(501, 101),8	1425,(501, 99),8	1433,(501, 98),8	1441,(501, 96),8	1449,(501, 95),8	1457,(501, 94),8	1465,(501, 93),8	1473,(501, 91),8	1481,(501, 90),8	1489,(501, 80),8	1497,(501, 79),8	1505,(501, 77),8	1513,(501, 76),8	1521,(501, 75),8	1529,(501, 74),8	1537,(501, 72),8	1545,(501, 71),8	1553,(501, 70),8	1561,(501, 69),8	1569,(501, 67),8	1577,(501, 66),8	1585,(501, 65),8	1593,(501, 64),8	1601,(501, 62),8	1609,(501, 61),8	1617,(501, 60),8	1625,(501, 59),8	1633,(501, 57),8	1641,(501, 56),8	1649,(501, 55),8	1657,(501, 54),8	1665,(501, 52),8	1673,(501, 51),8	1681,(501, 50),8	1689,(501, 49),8	1697,(501, 47),8	1705,(501, 46),8	1713,(501, 45),8	1721,(501, 44),8	1729,(501, 42),8	1737,(501, 41),8	1745,(501, 484),8	1753,(501, 483),8	1761,(501, 481),8	1769,(501, 480),8	1777,(501, 478),8	1785,(501, 477),8	1793,(501, 39),8	1801,(501, 38),8	1809,(501, 36),8	1817,(501, 35),8	1825,(501, 33),8	1833,(501, 32),8	1841,(501, 30),8	1849,(501, 29),8	1857,(501, 27),8	1865,(501, 26),8	1873,(501, 16),8	1881,(501, 15),8	1889,(501, 14),8	1897,(501, 13),8	1905,(501, 12),8	1913,(501, 11),8	1921,(501, 10),8	1929,(501, 9),8	1937,(501, 2),8	1945,(501, 4),8	1953,(501, 6),8	1961,(501, 8),8	1969,(501, 494),8	1977,(501, 496),8	1985,(501, 498),8	1993,(501, 500),8	2001,(329, 0),2	2003,(330, 0),2	2176,(326, 0),2	2901,(331, 0),2	3626,(323, 0),2	4351,(332, 0),2	5076,(333, 0),2	5801,(334, 0),2	6526,(318, 0),2	7251,(335, 0),2	7976,(336, 0),2	8701,(337, 0),2	9426,(313, 0),2	10151,(338, 0),2	10876,(339, 0),2	11601,(340, 0),2	12326,(308, 0),2	13051,(341, 0),2	13776,(305, 0),2	14501,(342, 0),2	15226,(302, 0),2	15951,(343, 0),2	16676,(344, 0),2	17401,(345, 0),2	18126,(297, 0),2	18851,(346, 0),2	19576,(347, 0),2	20301,(348, 0),2	21026,(292, 0),2	21751,(349, 0),2	22476,(350, 0),2	23201,(351, 0),2	23926,(287, 0),2	24651,(352, 0),2	25376,(284, 0),2	26101,(353, 0),2	26826,(281, 0),2	27551,(354, 0),2	28276,(355, 0),2	29001,(356, 0),2	29726,(276, 0),2	30451,(357, 0),2	31176,(358, 0),2	31901,(359, 0),2	32626,(271, 0),2	33351,(360, 0),2	34076,(361, 0),2	34801,(362, 0),2	35526,(266, 0),2	36251,(363, 0),2	36976,(263, 0),2	37701,(364, 0),2	38426,(260, 0),2	39151,(365, 0),2	39876,(366, 0),2	40601,(367, 0),2	41326,(255, 0),2	42051,(368, 0),2	42776,(369, 0),2	43501,(370, 0),2	44226,(250, 0),2	44951,(371, 0),2	45676,(372, 0),2	46401,(373, 0),2	47126,(245, 0),2	47851,(374, 0),2	48576,(242, 0),2	49301,(375, 0),2	50026,(239, 0),2	50751,(376, 0),2	51476,(377, 0),2	52201,(378, 0),2	52926,(234, 0),2	53651,(379, 0),2	54376,(380, 0),2	55101,(381, 0),2	55826,(229, 0),2	56551,(382, 0),2	57276,(383, 0),2	58001,(384, 0),2	58726,(224, 0),2	59451,(385, 0),2	60176,(221, 0),2	60901,(386, 0),2	61626,(218, 0),2	62351,(387, 0),2	63076,(388, 0),2	63801,(389, 0),2	64526,(213, 0),2	65251,(390, 0),2	65976,(391, 0),2	66701,(392, 0),2	67426,(208, 0),2	68151,(393, 0),2	68876,(394, 0),2	69601,(395, 0),2	70326,(203, 0),2	71051,(396, 0),2	71776,(200, 0),2	72501,(397, 0),2	73226,(197, 0),2	73951,(398, 0),2	74676,(399, 0),2	75401,(400, 0),2	76126,(192, 0),2	76851,(401, 0),2	77576,(402, 0),2	78301,(403, 0),2	79026,(187, 0),2	79751,(404, 0),2	80476,(405, 0),2	81201,(406, 0),2	81926,(182, 0),2	82651,(407, 0),2	83376,(179, 0),2	84101,(408, 0),2	84826,(176, 0),2	85551,(409, 0),2	86276,(410, 0),2	87001,(411, 0),2	87726,(171, 0),2	88451,(412, 0),2	89176,(421, 0),2	89901,(422, 0),2	90626,(418, 0),2	91351,(423, 0),2	92076,(424, 0),2	92801,(425, 0),2	93526,(413, 0),2	94251,(426, 0),2	94976,(166, 0),2	95701,(427, 0),2	96426,(163, 0),2	97151,(428, 0),2	97876,(429, 0),2	98601,(430, 0),2	99326,(158, 0),2	100051,(431, 0),2	100776,(155, 0),2	101501,(432, 0),2	102226,(152, 0),2	102951,(433, 0),2	103676,(434, 0),2	104401,(435, 0),2	105126,(147, 0),2	105851,(436, 0),2	106576,(144, 0),2	107301,(437, 0),2	108026,(141, 0),2	108751,(438, 0),2	109476,(439, 0),2	110201,(440, 0),2	110926,(136, 0),2	111651,(441, 0),2	112376,(133, 0),2	113101,(442, 0),2	113826,(130, 0),2	114551,(443, 0),2	115276,(444, 0),2	116001,(445, 0),2	116726,(125, 0),2	117451,(446, 0),2	118176,(122, 0),2	118901,(447, 0),2	119626,(119, 0),2	120351,(448, 0),2	121076,(449, 0),2	121801,(450, 0),2	122526,(114, 0),2	123251,(451, 0),2	123976,(111, 0),2	124701,(452, 0),2	125426,(108, 0),2	126151,(453, 0),2	126876,(454, 0),2	127601,(455, 0),2	128326,(103, 0),2	129051,(456, 0),2	129776,(100, 0),2	130501,(457, 0),2	131226,(97, 0),2	131951,(458, 0),2	132676,(459, 0),2	133401,(460, 0),2	134126,(92, 0),2	134851,(461, 0),2	135576,(81, 0),2	136301,(82, 0),2	137026,(78, 0),2	137751,(83, 0),2	138476,(84, 0),2	139201,(85, 0),2	139926,(73, 0),2	140651,(86, 0),2	141376,(87, 0),2	142101,(88, 0),2	142826,(68, 0),2	143551,(89, 0),2	144276,(462, 0),2	145001,(463, 0),2	145726,(63, 0),2	146451,(464, 0),2	147176,(465, 0),2	147901,(466, 0),2	148626,(58, 0),2	149351,(467, 0),2	150076,(468, 0),2	150801,(469, 0),2	151526,(53, 0),2	152251,(470, 0),2	152976,(471, 0),2	153701,(472, 0),2	154426,(48, 0),2	155151,(473, 0),2	155876,(474, 0),2	156601,(475, 0),2	157326,(43, 0),2	158051,(476, 0),2	158776,(485, 0),2	159501,(486, 0),2	160226,(482, 0),2	160951,(487, 0),2	161676,(479, 0),2	162401,(488, 0),2	163126,(40, 0),2	163851,(489, 0),2	164576,(37, 0),2	165301,(490, 0),2	166026,(34, 0),2	166751,(491, 0),2	167476,(31, 0),2	168201,(492, 0),2	168926,(28, 0),2	169651,(493, 0),2	170376,(17, 0),2	171101,(18, 0),2	171826,(19, 0),2	172551,(20, 0),2	173276,(21, 0),2	174001,(22, 0),2	174726,(23, 0),2	175451,(24, 0),2	176176,(1, 0),2	176901,(3, 0),2	177626,(5, 0),2	178351,(7, 0),2	179076,(25, 0),2	179801,(495, 0),2	180526,(497, 0),2	181251,(499, 0),2	
# Outgoing
1,(501, 328),8	9,(501, 327),8	17,(501, 325),8	25,(501, 324),8	33,(501, 322),8	41,(501, 321),8	49,(501, 320),8	57,(501, 319),8	65,(501, 317),8	73,(501, 316),8	81,(501, 315),8	89,(501, 314),8	97,(501, 312),8	105,(501, 311),8	113,(501, 310),8	121,(501, 309),8	129,(501, 307),8	137,(501, 306),8	145,(501, 304),8	153,(501, 303),8	161,(501, 301),8	169,(501, 300),8	177,(501, 299),8	185,(501, 298),8	193,(501, 296),8	201,(501, 295),8	209,(501, 294),8	217,(501, 293),8	225,(501, 291),8	233,(501, 290),8	241,(501, 289),8	249,(501, 288),8	257,(501, 286),8	265,(501, 285),8	273,(501, 283),8	281,(501, 282),8	289,(501, 280),8	297,(501, 279),8	305,(501, 278),8	313,(501, 277),8	321,(501, 275),8	329,(501, 274),8	337,(501, 273),8	345,(501, 272),8	353,(501, 270),8	361,(501, 269),8	369,(501, 268),8	377,(501, 267),8	385,(501, 265),8	393,(501, 264),8	401,(501, 262),8	409,(501, 261),8	417,(501, 259),8	425,(501, 258),8	433,(501, 257),8	441,(501, 256),8	449,(501, 254),8	457,(501, 253),8	465,(501, 252),8	473,(501, 251),8	481,(501, 249),8	489,(501, 248),8	497,(501, 247),8	505,(501, 246),8	513,(501, 244),8	521,(501, 243),8	529,(501, 241),8	537,(501, 240),8	545,(501, 238),8	553,(501, 237),8	561,(501, 236),8	569,(501, 235),8	577,(501, 233),8	585,(501, 232),8	593,(501, 231),8	601,(501, 230),8	609,(501, 228),8	617,(501, 227),8	625,(501, 226),8	633,(501, 225),8	641,(501, 223),8	649,(501, 222),8	657,(501, 220),8	665,(501, 219),8	673,(501, 217),8	681,(501, 216),8	689,(501, 215),8	697,(501, 214),8	705,(501, 212),8	713,(501, 211),8	721,(501, 210),8	729,(501, 209),8	737,(501, 207),8	745,(501, 206),8	753,(501, 205),8	761,(501, 204),8	769,(501, 202),8	777,(501, 201),8	785,(501, 199),8	793,(501, 198),8	801,(501, 196),8	809,(501, 195),8	817,(501, 194),8	825,(501, 193),8	833,(501, 191),8	841,(501, 190),8	849,(501, 189),8	857,(501, 188),8	865,(501, 186),8	873,(501, 185),8	881,(501, 184),8	889,(501, 183),8	897,(501, 181),8	905,(501, 180),8	913,(501, 178),8	921,(501, 177),8	929,(501, 175),8	937,(501, 174),8	945,(501, 173),8	953,(501, 172),8	961,(501, 170),8	969,(501, 169),8	977,(501, 420),8	985,(501, 419),8	993,(501, 417),8	1001,(501, 416),8	1009,(501, 415),8	1017,(501, 414),8	1025,(501, 168),8	1033,(501, 167),8	1041,(501, 165),8	1049,(501, 164),8	1057,(501, 162),8	1065,(501, 161),8	1073,(501, 160),8	1081,(501, 159),8	1089,(501, 157),8	1097,(501, 156),8	1105,(501, 154),8	1113,(501, 153),8	1121,(501, 151),8	1129,(501, 150),8	1137,(501, 149),8	1145,(501, 148),8	1153,(501, 146),8	1161,(501, 145),8	1169,(501, 143),8	1177,(501, 142),8	1185,(501, 140),8	1193,(501, 139),8	1201,(501, 138),8	1209,(501, 137),8	1217,(501, 135),8	1225,(501, 134),8	1233,(501, 132),8	1241,(501, 131),8	1249,(501, 129),8	1257,(501, 128),8	1265,(501, 127),8	1273,(501, 126),8	1281,(501, 124),8	1289,(501, 123),8	1297,(501, 121),8	1305,(501, 120),8	1313,(501, 118),8	1321,(501, 117),8	1329,(501, 116),8	1337,(501, 115),8	1345,(501, 113),8	1353,(501, 112),8	1361,(501, 110),8	1369,(501, 109),8	1377,(501, 107),8	1385,(501, 106),8	1393,(501, 105),8	1401,(501, 104),8	1409,(501, 102),8	1417,(501, 101),8	1425,(501, 99),8	1433,(501, 98),8	1441,(501, 96),8	1449,(501, 95),8	1457,(501, 94),8	1465,(501, 93),8	1473,(501, 91),8	1481,(501, 90),8	1489,(501, 80),8	1497,(501, 79),8	1505,(501, 77),8	1513,(501, 76),8	1521,(501, 75),8	1529,(501, 74),8	1537,(501, 72),8	1545,(501, 71),8	1553,(501, 70),8	1561,(501, 69),8	1569,(501, 67),8	1577,(501, 66),8	1585,(501, 65),8	1593,(501, 64),8	1601,(501, 62),8	1609,(501, 61),8	1617,(501, 60),8	1625,(501, 59),8	1633,(501, 57),8	1641,(501, 56),8	1649,(501, 55),8	1657,(501, 54),8	1665,(501, 52),8	1673,(501, 51),8	1681,(501, 50),8	1689,(501, 49),8	1697,(501, 47),8	1705,(501, 46),8	1713,(501, 45),8	1721,(501, 44),8	1729,(501, 42),8	1737,(501, 41),8	1745,(501, 484),8	1753,(501, 483),8	1761,(501, 481),8	1769,(501, 480),8	1777,(501, 478),8	1785,(501, 477),8	1793,(501, 39),8	1801,(501, 38),8	1809,(501, 36),8	1817,(501, 35),8	1825,(501, 33),8	1833,(501, 32),8	1841,(501, 30),8	1849,(501, 29),8	1857,(501, 27),8	1865,(501, 26),8	1873,(501, 16),8	1881,(501, 15),8	1889,(501, 14),8	1897,(501, 13),8	1905,(501, 12),8	1913,(501, 11),8	1921,(501, 10),8	1929,(501, 9),8	1937,(501, 2),8	1945,(501, 4),8	1953,(501, 6),8	1961,(501, 8),8	1969,(501, 494),8	1977,(501, 496),8	1985,(501, 498),8	1993,(501, 500),8	2001,(329, 0),2	2003,(330, 0),2	2176,(326, 0),2	2901,(331, 0),2	3626,(323, 0),2	4351,(332, 0),2	5076,(333, 0),2	5801,(334, 0),2	6526,(318, 0),2	7251,(335, 0),2	7976,(336, 0),2	8701,(337, 0),2	9426,(313, 0),2	10151,(338, 0),2	10876,(339, 0),2	11601,(340, 0),2	12326,(308, 0),2	13051,(341, 0),2	13776,(305, 0),2	14501,(342, 0),2	15226,(302, 0),2	15951,(343, 0),2	16676,(344, 0),2	17401,(345, 0),2	18126,(297, 0),2	18851,(346, 0),2	19576,(347, 0),2	20301,(348, 0),2	21026,(292, 0),2	21751,(349, 0),2	22476,(350, 0),2	23201,(351, 0),2	23926,(287, 0),2	24651,(352, 0),2	25376,(284, 0),2	26101,(353, 0),2	26826,(281, 0),2	27551,(354, 0),2	28276,(355, 0),2	29001,(356, 0),2	29726,(276, 0),2	30451,(357, 0),2	31176,(358, 0),2	31901,(359, 0),2	32626,(271, 0),2	33351,(360, 0),2	34076,(361, 0),2	34801,(362, 0),2	35526,(266, 0),2	36251,(363, 0),2	36976,(263, 0),2	37701,(364, 0),2	38426,(260, 0),2	39151,(365, 0),2	39876,(366, 0),2	40601,(367, 0),2	41326,(255, 0),2	42051,(368, 0),2	42776,(369, 0),2	43501,(370, 0),2	44226,(250, 0),2	44951,(371, 0),2	45676,(372, 0),2	46401,(373, 0),2	47126,(245, 0),2	47851,(374, 0),2	48576,(242, 0),2	49301,(375, 0),2	50026,(239, 0),2	50751,(376, 0),2	51476,(377, 0),2	52201,(378, 0),2	52926,(234, 0),2	53651,(379, 0),2	54376,(380, 0),2	55101,(381, 0),2	55826,(229, 0),2	56551,(382, 0),2	57276,(383, 0),2	58001,(384, 0),2	58726,(224, 0),2	59451,(385, 0),2	60176,(221, 0),2	60901,(386, 0),2	61626,(218, 0),2	62351,(387, 0),2	63076,(388, 0),2	63801,(389, 0),2	64526,(213, 0),2	65251,(390, 0),2	65976,(391, 0),2	66701,(392, 0),2	67426,(208, 0),2	68151,(393, 0),2	68876,(394, 0),2	69601,(395, 0),2	70326,(203, 0),2	71051,(396, 0),2	71776,(200, 0),2	72501,(397, 0),2	73226,(197, 0),2	73951,(398, 0),2	74676,(399, 0),2	75401,(400, 0),2	76126,(192, 0),2	76851,(401, 0),2	77576,(402, 0),2	78301,(403, 0),2	79026,(187, 0),2	79751,(404, 0),2	80476,(405, 0),2	81201,(406, 0),2	81926,(182, 0),2	82651,(407, 0),2	83376,(179, 0),2	84101,(408, 0),2	84826,(176, 0),2	85551,(409, 0),2	86276,(410, 0),2	87001,(411, 0),2	87726,(171, 0),2	88451,(412, 0),2	89176,(421, 0),2	89901,(422, 0),2	90626,(418, 0),2	91351,(423, 0),2	92076,(424, 0),2	92801,(425, 0),2	93526,(413, 0),2	94251,(426, 0),2	94976,(166, 0),2	95701,(427, 0),2	96426,(163, 0),2	97151,(428, 0),2	97876,(429, 0),2	98601,(430, 0),2	99326,(158, 0),2	100051,(431, 0),2	100776,(155, 0),2	101501,(432, 0),2	102226,(152, 0),2	102951,(433, 0),2	103676,(434, 0),2	104401,(435, 0),2	105126,(147, 0),2	105851,(436, 0),2	106576,(144, 0),2	107301,(437, 0),2	108026,(141, 0),2	108751,(438, 0),2	109476,(439, 0),2	110201,(440, 0),2	110926,(136, 0),2	111651,(441, 0),2	112376,(133, 0),2	113101,(442, 0),2	113826,(130, 0),2	114551,(443, 0),2	115276,(444, 0),2	116001,(445, 0),2	116726,(125, 0),2	117451,(446, 0),2	118176,(122, 0),2	118901,(447, 0),2	119626,(119, 0),2	120351,(448, 0),2	121076,(449, 0),2	121801,(450, 0),2	122526,(114, 0),2	123251,(451, 0),2	123976,(111, 0),2	124701,(452, 0),2	125426,(108, 0),2	126151,(453, 0),2	126876,(454, 0),2	127601,(455, 0),2	128326,(103, 0),2	129051,(456, 0),2	129776,(100, 0),2	130501,(457, 0),2	131226,(97, 0),2	131951,(458, 0),2	132676,(459, 0),2	133401,(460, 0),2	134126,(92, 0),2	134851,(461, 0),2	135576,(81, 0),2	136301,(82, 0),2	137026,(78, 0),2	137751,(83, 0),2	138476,(84, 0),2	139201,(85, 0),2	139926,(73, 0),2	140651,(86, 0),2	141376,(87, 0),2	142101,(88, 0),2	142826,(68, 0),2	143551,(89, 0),2	144276,(462, 0),2	145001,(463, 0),2	145726,(63, 0),2	146451,(464, 0),2	147176,(465, 0),2	147901,(466, 0),2	148626,(58, 0),2	149351,(467, 0),2	150076,(468, 0),2	150801,(469, 0),2	151526,(53, 0),2	152251,(470, 0),2	152976,(471, 0),2	153701,(472, 0),2	154426,(48, 0),2	155151,(473, 0),2	155876,(474, 0),2	156601,(475, 0),2	157326,(43, 0),2	158051,(476, 0),2	158776,(485, 0),2	159501,(486, 0),2	160226,(482, 0),2	160951,(487, 0),2	161676,(479, 0),2	162401,(488, 0),2	163126,(40, 0),2	163851,(489, 0),2	164576,(37, 0),2	165301,(490, 0),2	166026,(34, 0),2	166751,(491, 0),2	167476,(31, 0),2	168201,(492, 0),2	168926,(28, 0),2	169651,(493, 0),2	170376,(17, 0),2	171101,(18, 0),2	171826,(19, 0),2	172551,(20, 0),2	173276,(21, 0),2	174001,(22, 0),2	174726,(23, 0),2	175451,(24, 0),2	176176,(1, 0),2	176901,(3, 0),2	177626,(5, 0),2	178351,(7, 0),2	179076,(25, 0),2	179801,(495, 0),2	180526,(497, 0),2	181251,(499, 0),2	

