1412
# CPU
0,501,1	1,329,3	4,328,3	7,330,3	10,327,3	13,326,3	16,325,3	19,331,3	22,324,3	25,323,3	28,322,3	31,332,3	34,321,3	37,333,3	40,320,3	43,334,3	46,319,3	49,317,3	52,335,3	55,316,3	58,336,3	61,315,3	64,337,3	67,314,3	70,313,3	73,312,3	76,338,3	79,311,3	82,339,3	85,310,3	88,340,3	91,309,3	94,307,3	97,341,3	100,306,3	103,305,3	106,304,3	109,342,3	112,303,3	115,302,3	118,301,3	121,343,3	124,300,3	127,344,3	130,299,3	133,345,3	136,298,3	139,190,3	142,189,3	145,346,3	148,347,3	151,296,3	154,348,3	157,295,3	160,294,3	163,293,3	166,349,3	169,292,3	172,350,3	175,291,3	178,351,3	181,290,3	184,289,3	187,352,3	190,287,3	193,286,3	196,285,3	199,353,3	202,284,3	205,283,3	208,282,3	211,354,3	214,281,3	217,355,3	220,280,3	223,356,3	226,279,3	229,278,3	232,357,3	235,276,3	238,358,3	241,275,3	244,359,3	247,274,3	250,273,3	253,272,3	256,360,3	259,271,3	262,361,3	265,270,3	268,362,3	271,269,3	274,268,3	277,140,3	280,164,3	283,267,3	286,266,3	289,364,3	292,265,3	295,264,3	298,263,3	301,365,3	304,262,3	307,366,3	310,261,3	313,367,3	316,260,3	319,259,3	322,258,3	325,257,3	328,369,3	331,256,3	334,370,3	337,255,3	340,254,3	343,253,3	346,371,3	349,252,3	352,372,3	355,251,3	358,373,3	361,250,3	364,249,3	367,248,3	370,247,3	373,246,3	376,245,3	379,375,3	382,244,3	385,243,3	388,242,3	391,376,3	394,241,3	397,377,3	400,240,3	403,378,3	406,239,3	409,238,3	412,237,3	415,429,3	418,145,3	421,379,3	424,380,3	427,235,3	430,234,3	433,233,3	436,381,3	439,232,3	442,382,3	445,231,3	448,383,3	451,230,3	454,229,3	457,228,3	460,384,3	463,226,3	466,225,3	469,385,3	472,224,3	475,223,3	478,222,3	481,386,3	484,221,3	487,387,3	490,220,3	493,388,3	496,219,3	499,218,3	502,217,3	505,389,3	508,390,3	511,215,3	514,391,3	517,214,3	520,213,3	523,212,3	526,392,3	529,211,3	532,393,3	535,210,3	538,394,3	541,209,3	544,208,3	547,207,3	550,395,3	553,125,3	556,124,3	559,396,3	562,205,3	565,204,3	568,203,3	571,397,3	574,202,3	577,398,3	580,201,3	583,399,3	586,200,3	589,199,3	592,198,3	595,400,3	598,197,3	601,196,3	604,402,3	607,195,3	610,194,3	613,193,3	616,403,3	619,192,3	622,404,3	625,191,3	628,405,3	631,188,3	634,187,3	637,186,3	640,406,3	643,185,3	646,183,3	649,407,3	652,182,3	655,181,3	658,180,3	661,408,3	664,179,3	667,409,3	670,178,3	673,410,3	676,177,3	679,176,3	682,175,3	685,411,3	688,174,3	691,449,3	694,103,3	697,420,3	700,418,3	703,417,3	706,421,3	709,416,3	712,422,3	715,415,3	718,423,3	721,414,3	724,413,3	727,412,3	730,424,3	733,173,3	736,172,3	739,425,3	742,170,3	745,169,3	748,168,3	751,426,3	754,167,3	757,427,3	760,166,3	763,428,3	766,165,3	769,163,3	772,162,3	775,430,3	778,161,3	781,160,3	784,431,3	787,158,3	790,157,3	793,156,3	796,432,3	799,155,3	802,433,3	805,154,3	808,434,3	811,153,3	814,152,3	817,151,3	820,435,3	823,150,3	826,149,3	829,456,3	832,120,3	835,147,3	838,146,3	841,436,3	844,144,3	847,437,3	850,143,3	853,438,3	856,142,3	859,141,3	862,139,3	865,439,3	868,138,3	871,137,3	874,136,3	877,135,3	880,134,3	883,133,3	886,441,3	889,132,3	892,442,3	895,131,3	898,443,3	901,130,3	904,129,3	907,128,3	910,444,3	913,127,3	916,126,3	919,123,3	922,122,3	925,121,3	928,119,3	931,446,3	934,118,3	937,447,3	940,117,3	943,448,3	946,116,3	949,115,3	952,114,3	955,450,3	958,113,3	961,112,3	964,111,3	967,69,3	970,467,3	973,109,3	976,110,3	979,108,3	982,452,3	985,107,3	988,453,3	991,106,3	994,105,3	997,104,3	1000,454,3	1003,102,3	1006,101,3	1009,100,3	1012,455,3	1015,98,3	1018,97,3	1021,457,3	1024,96,3	1027,458,3	1030,95,3	1033,459,3	1036,94,3	1039,93,3	1042,92,3	1045,460,3	1048,91,3	1051,82,3	1054,81,3	1057,83,3	1060,79,3	1063,78,3	1066,84,3	1069,77,3	1072,85,3	1075,76,3	1078,86,3	1081,75,3	1084,74,3	1087,73,3	1090,87,3	1093,72,3	1096,88,3	1099,71,3	1102,89,3	1105,37,3	1108,43,3	1111,90,3	1114,68,3	1117,461,3	1120,67,3	1123,462,3	1126,66,3	1129,65,3	1132,64,3	1135,463,3	1138,63,3	1141,464,3	1144,62,3	1147,465,3	1150,61,3	1153,59,3	1156,466,3	1159,58,3	1162,468,3	1165,57,3	1168,469,3	1171,56,3	1174,55,3	1177,54,3	1180,470,3	1183,53,3	1186,471,3	1189,52,3	1192,472,3	1195,51,3	1198,49,3	1201,473,3	1204,48,3	1207,474,3	1210,47,3	1213,475,3	1216,46,3	1219,45,3	1222,44,3	1225,476,3	1228,42,3	1231,485,3	1234,484,3	1237,486,3	1240,483,3	1243,24,3	1246,23,3	1249,487,3	1252,481,3	1255,480,3	1258,488,3	1261,479,3	1264,478,3	1267,477,3	1270,489,3	1273,41,3	1276,40,3	1279,39,3	1282,490,3	1285,38,3	1288,36,3	1291,491,3	1294,34,3	1297,33,3	1300,32,3	1303,492,3	1306,31,3	1309,30,3	1312,29,3	1315,493,3	1318,28,3	1321,17,3	1324,16,3	1327,18,3	1330,15,3	1333,19,3	1336,20,3	1339,13,3	1342,21,3	1345,12,3	1348,22,3	1351,11,3	1354,25,3	1357,10,3	1360,26,3	1363,9,3	1366,1,3	1369,2,3	1372,3,3	1375,4,3	1378,5,3	1381,7,3	1384,27,3	1387,8,3	1390,494,3	1393,495,3	1396,496,3	1399,497,3	1402,498,3	1405,499,3	1408,500,3	1411,0,1	
47,318,3	93,308,3	139,297,3	185,288,3	231,277,3	277,363,3	323,368,3	369,374,3	415,236,3	461,227,3	507,216,3	553,206,3	599,401,3	645,184,3	691,419,3	737,171,3	783,159,3	829,148,3	875,440,3	921,445,3	967,451,3	1013,99,3	1059,80,3	1105,70,3	1151,60,3	1197,50,3	1243,482,3	1289,35,3	1335,14,3	1381,6,3	
# Incoming
50,(318, 0),2	96,(308, 0),2	142,(297, 0),2	188,(288, 0),2	234,(277, 0),2	280,(363, 0),2	326,(368, 0),2	372,(374, 0),2	418,(236, 0),2	464,(227, 0),2	510,(216, 0),2	556,(206, 0),2	602,(401, 0),2	648,(184, 0),2	694,(419, 0),2	740,(171, 0),2	786,(159, 0),2	832,(148, 0),2	878,(440, 0),2	924,(445, 0),2	970,(451, 0),2	1016,(99, 0),2	1062,(80, 0),2	1108,(70, 0),2	1154,(60, 0),2	1200,(50, 0),2	1246,(482, 0),2	1292,(35, 0),2	1338,(14, 0),2	1384,(6, 0),2	
1,(501, 318),46	47,(501, 308),46	93,(501, 297),46	139,(501, 288),46	185,(501, 277),46	231,(501, 363),46	277,(501, 368),46	323,(501, 374),46	369,(501, 236),46	415,(501, 227),46	461,(501, 216),46	507,(501, 206),46	553,(501, 401),46	599,(501, 184),46	645,(501, 419),46	691,(501, 171),46	737,(501, 159),46	783,(501, 148),46	829,(501, 440),46	875,(501, 445),46	921,(501, 451),46	967,(501, 99),46	1013,(501, 80),46	1059,(501, 70),46	1105,(501, 60),46	1151,(501, 50),46	1197,(501, 482),46	1243,(501, 35),46	1289,(501, 14),46	1335,(501, 6),46	
# Outgoing
1,(501, 318),46	47,(501, 308),46	93,(501, 297),46	139,(501, 288),46	185,(501, 277),46	231,(501, 363),46	277,(501, 368),46	323,(501, 374),46	369,(501, 236),46	415,(501, 227),46	461,(501, 216),46	507,(501, 206),46	553,(501, 401),46	599,(501, 184),46	645,(501, 419),46	691,(501, 171),46	737,(501, 159),46	783,(501, 148),46	829,(501, 440),46	875,(501, 445),46	921,(501, 451),46	967,(501, 99),46	1013,(501, 80),46	1059,(501, 70),46	1105,(501, 60),46	1151,(501, 50),46	1197,(501, 482),46	1243,(501, 35),46	1289,(501, 14),46	1335,(501, 6),46	
50,(318, 0),2	96,(308, 0),2	142,(297, 0),2	188,(288, 0),2	234,(277, 0),2	280,(363, 0),2	326,(368, 0),2	372,(374, 0),2	418,(236, 0),2	464,(227, 0),2	510,(216, 0),2	556,(206, 0),2	602,(401, 0),2	648,(184, 0),2	694,(419, 0),2	740,(171, 0),2	786,(159, 0),2	832,(148, 0),2	878,(440, 0),2	924,(445, 0),2	970,(451, 0),2	1016,(99, 0),2	1062,(80, 0),2	1108,(70, 0),2	1154,(60, 0),2	1200,(50, 0),2	1246,(482, 0),2	1292,(35, 0),2	1338,(14, 0),2	1384,(6, 0),2	
