72570
# CPU
17,5,725	742,10,725	1467,15,725	2192,20,725	2917,25,725	3642,30,725	4367,35,725	5092,40,725	5817,45,725	6542,50,725	7267,55,725	7992,60,725	8717,65,725	9442,70,725	10167,75,725	10892,80,725	11617,85,725	12342,90,725	13067,95,725	13792,100,725	14517,105,725	15242,110,725	15967,115,725	16692,120,725	17417,125,725	18142,130,725	18867,135,725	19592,140,725	20317,145,725	21042,150,725	21767,155,725	22492,160,725	23217,165,725	23942,170,725	24667,175,725	25392,180,725	26117,185,725	26842,190,725	27567,195,725	28292,200,725	29017,205,725	29742,210,725	30467,215,725	31192,220,725	31917,225,725	32642,230,725	33367,235,725	34092,240,725	34817,245,725	35542,250,725	36267,255,725	36992,260,725	37717,265,725	38442,270,725	39167,275,725	39892,280,725	40617,285,725	41342,290,725	42067,295,725	42792,300,725	43517,305,725	44242,310,725	44967,315,725	45692,320,725	46417,325,725	47142,330,725	47867,335,725	48592,340,725	49317,345,725	50042,350,725	50767,355,725	51492,360,725	52217,365,725	52942,370,725	53667,375,725	54392,380,725	55117,385,725	55842,390,725	56567,395,725	57292,400,725	58017,405,725	58742,410,725	59467,415,725	60192,420,725	60917,425,725	61642,430,725	62367,435,725	63092,440,725	63817,445,725	64542,450,725	65267,455,725	65992,460,725	66717,465,725	67442,470,725	68167,475,725	68892,480,725	69617,485,725	70342,490,725	71067,495,725	71792,500,725	
13,4,725	738,9,725	1463,14,725	2188,19,725	2913,24,725	3638,29,725	4363,34,725	5088,39,725	5813,44,725	6538,49,725	7263,54,725	7988,59,725	8713,64,725	9438,69,725	10163,74,725	10888,79,725	11613,84,725	12338,89,725	13063,94,725	13788,99,725	14513,104,725	15238,109,725	15963,114,725	16688,119,725	17413,124,725	18138,129,725	18863,134,725	19588,139,725	20313,144,725	21038,149,725	21763,154,725	22488,159,725	23213,164,725	23938,169,725	24663,174,725	25388,179,725	26113,184,725	26838,189,725	27563,194,725	28288,199,725	29013,204,725	29738,209,725	30463,214,725	31188,219,725	31913,224,725	32638,229,725	33363,234,725	34088,239,725	34813,244,725	35538,249,725	36263,254,725	36988,259,725	37713,264,725	38438,269,725	39163,274,725	39888,279,725	40613,284,725	41338,289,725	42063,294,725	42788,299,725	43513,304,725	44238,309,725	44963,314,725	45688,319,725	46413,324,725	47138,329,725	47863,334,725	48588,339,725	49313,344,725	50038,349,725	50763,354,725	51488,359,725	52213,364,725	52938,369,725	53663,374,725	54388,379,725	55113,384,725	55838,389,725	56563,394,725	57288,399,725	58013,404,725	58738,409,725	59463,414,725	60188,419,725	60913,424,725	61638,429,725	62363,434,725	63088,439,725	63813,444,725	64538,449,725	65263,454,725	65988,459,725	66713,464,725	67438,469,725	68163,474,725	68888,479,725	69613,484,725	70338,489,725	71063,494,725	71788,499,725	
9,3,725	734,8,725	1459,13,725	2184,18,725	2909,23,725	3634,28,725	4359,33,725	5084,38,725	5809,43,725	6534,48,725	7259,53,725	7984,58,725	8709,63,725	9434,68,725	10159,73,725	10884,78,725	11609,83,725	12334,88,725	13059,93,725	13784,98,725	14509,103,725	15234,108,725	15959,113,725	16684,118,725	17409,123,725	18134,128,725	18859,133,725	19584,138,725	20309,143,725	21034,148,725	21759,153,725	22484,158,725	23209,163,725	23934,168,725	24659,173,725	25384,178,725	26109,183,725	26834,188,725	27559,193,725	28284,198,725	29009,203,725	29734,208,725	30459,213,725	31184,218,725	31909,223,725	32634,228,725	33359,233,725	34084,238,725	34809,243,725	35534,248,725	36259,253,725	36984,258,725	37709,263,725	38434,268,725	39159,273,725	39884,278,725	40609,283,725	41334,288,725	42059,293,725	42784,298,725	43509,303,725	44234,308,725	44959,313,725	45684,318,725	46409,323,725	47134,328,725	47859,333,725	48584,338,725	49309,343,725	50034,348,725	50759,353,725	51484,358,725	52209,363,725	52934,368,725	53659,373,725	54384,378,725	55109,383,725	55834,388,725	56559,393,725	57284,398,725	58009,403,725	58734,408,725	59459,413,725	60184,418,725	60909,423,725	61634,428,725	62359,433,725	63084,438,725	63809,443,725	64534,448,725	65259,453,725	65984,458,725	66709,463,725	67434,468,725	68159,473,725	68884,478,725	69609,483,725	70334,488,725	71059,493,725	71784,498,725	
5,2,725	730,7,725	1455,12,725	2180,17,725	2905,22,725	3630,27,725	4355,32,725	5080,37,725	5805,42,725	6530,47,725	7255,52,725	7980,57,725	8705,62,725	9430,67,725	10155,72,725	10880,77,725	11605,82,725	12330,87,725	13055,92,725	13780,97,725	14505,102,725	15230,107,725	15955,112,725	16680,117,725	17405,122,725	18130,127,725	18855,132,725	19580,137,725	20305,142,725	21030,147,725	21755,152,725	22480,157,725	23205,162,725	23930,167,725	24655,172,725	25380,177,725	26105,182,725	26830,187,725	27555,192,725	28280,197,725	29005,202,725	29730,207,725	30455,212,725	31180,217,725	31905,222,725	32630,227,725	33355,232,725	34080,237,725	34805,242,725	35530,247,725	36255,252,725	36980,257,725	37705,262,725	38430,267,725	39155,272,725	39880,277,725	40605,282,725	41330,287,725	42055,292,725	42780,297,725	43505,302,725	44230,307,725	44955,312,725	45680,317,725	46405,322,725	47130,327,725	47855,332,725	48580,337,725	49305,342,725	50030,347,725	50755,352,725	51480,357,725	52205,362,725	52930,367,725	53655,372,725	54380,377,725	55105,382,725	55830,387,725	56555,392,725	57280,397,725	58005,402,725	58730,407,725	59455,412,725	60180,417,725	60905,422,725	61630,427,725	62355,432,725	63080,437,725	63805,442,725	64530,447,725	65255,452,725	65980,457,725	66705,462,725	67430,467,725	68155,472,725	68880,477,725	69605,482,725	70330,487,725	71055,492,725	71780,497,725	
0,0,1	1,1,725	726,11,725	1451,31,725	2176,71,725	2901,151,725	3626,311,725	4351,496,725	5076,491,725	5801,486,725	6526,481,725	7251,476,725	7976,471,725	8701,466,725	9426,461,725	10151,456,725	10876,451,725	11601,446,725	12326,441,725	13051,436,725	13776,431,725	14501,426,725	15226,421,725	15951,416,725	16676,411,725	17401,406,725	18126,401,725	18851,396,725	19576,391,725	20301,386,725	21026,381,725	21751,376,725	22476,371,725	23201,366,725	23926,361,725	24651,356,725	25376,351,725	26101,346,725	26826,341,725	27551,336,725	28276,331,725	29001,326,725	29726,321,725	30451,306,725	31176,316,725	31901,301,725	32626,296,725	33351,291,725	34076,286,725	34801,281,725	35526,276,725	36251,271,725	36976,266,725	37701,261,725	38426,256,725	39151,251,725	39876,246,725	40601,241,725	41326,236,725	42051,231,725	42776,226,725	43501,221,725	44226,216,725	44951,211,725	45676,206,725	46401,201,725	47126,196,725	47851,191,725	48576,186,725	49301,181,725	50026,176,725	50751,171,725	51476,166,725	52201,161,725	52926,146,725	53651,156,725	54376,141,725	55101,136,725	55826,131,725	56551,126,725	57276,121,725	58001,116,725	58726,111,725	59451,106,725	60176,101,725	60901,96,725	61626,91,725	62351,86,725	63076,81,725	63801,66,725	64526,76,725	65251,61,725	65976,56,725	66701,51,725	67426,46,725	68151,41,725	68876,26,725	69601,36,725	70326,21,725	71051,6,725	71776,16,725	72569,501,1	
# Incoming
13,(0, 5),4	29,(0, 10),4	45,(0, 15),4	61,(0, 20),4	77,(0, 25),4	93,(0, 30),4	109,(0, 35),4	125,(0, 40),4	141,(0, 45),4	157,(0, 50),4	173,(0, 55),4	189,(0, 60),4	205,(0, 65),4	221,(0, 70),4	237,(0, 75),4	253,(0, 80),4	269,(0, 85),4	285,(0, 90),4	301,(0, 95),4	317,(0, 100),4	333,(0, 105),4	349,(0, 110),4	365,(0, 115),4	381,(0, 120),4	397,(0, 125),4	413,(0, 130),4	429,(0, 135),4	445,(0, 140),4	461,(0, 145),4	477,(0, 150),4	493,(0, 155),4	509,(0, 160),4	525,(0, 165),4	541,(0, 170),4	557,(0, 175),4	573,(0, 180),4	589,(0, 185),4	605,(0, 190),4	621,(0, 195),4	637,(0, 200),4	653,(0, 205),4	669,(0, 210),4	685,(0, 215),4	701,(0, 220),4	717,(0, 225),4	733,(0, 230),4	749,(0, 235),4	765,(0, 240),4	781,(0, 245),4	797,(0, 250),4	813,(0, 255),4	829,(0, 260),4	845,(0, 265),4	861,(0, 270),4	877,(0, 275),4	893,(0, 280),4	909,(0, 285),4	925,(0, 290),4	941,(0, 295),4	957,(0, 300),4	973,(0, 305),4	989,(0, 310),4	1005,(0, 315),4	1021,(0, 320),4	1037,(0, 325),4	1053,(0, 330),4	1069,(0, 335),4	1085,(0, 340),4	1101,(0, 345),4	1117,(0, 350),4	1133,(0, 355),4	1149,(0, 360),4	1165,(0, 365),4	1181,(0, 370),4	1197,(0, 375),4	1213,(0, 380),4	1229,(0, 385),4	1245,(0, 390),4	1261,(0, 395),4	1277,(0, 400),4	1293,(0, 405),4	1309,(0, 410),4	1325,(0, 415),4	1341,(0, 420),4	1357,(0, 425),4	1373,(0, 430),4	1389,(0, 435),4	1405,(0, 440),4	1421,(0, 445),4	1437,(0, 450),4	1453,(0, 455),4	1469,(0, 460),4	1485,(0, 465),4	1501,(0, 470),4	1517,(0, 475),4	1533,(0, 480),4	1549,(0, 485),4	1565,(0, 490),4	1581,(0, 495),4	1597,(0, 500),4	
9,(0, 4),4	25,(0, 9),4	41,(0, 14),4	57,(0, 19),4	73,(0, 24),4	89,(0, 29),4	105,(0, 34),4	121,(0, 39),4	137,(0, 44),4	153,(0, 49),4	169,(0, 54),4	185,(0, 59),4	201,(0, 64),4	217,(0, 69),4	233,(0, 74),4	249,(0, 79),4	265,(0, 84),4	281,(0, 89),4	297,(0, 94),4	313,(0, 99),4	329,(0, 104),4	345,(0, 109),4	361,(0, 114),4	377,(0, 119),4	393,(0, 124),4	409,(0, 129),4	425,(0, 134),4	441,(0, 139),4	457,(0, 144),4	473,(0, 149),4	489,(0, 154),4	505,(0, 159),4	521,(0, 164),4	537,(0, 169),4	553,(0, 174),4	569,(0, 179),4	585,(0, 184),4	601,(0, 189),4	617,(0, 194),4	633,(0, 199),4	649,(0, 204),4	665,(0, 209),4	681,(0, 214),4	697,(0, 219),4	713,(0, 224),4	729,(0, 229),4	745,(0, 234),4	761,(0, 239),4	777,(0, 244),4	793,(0, 249),4	809,(0, 254),4	825,(0, 259),4	841,(0, 264),4	857,(0, 269),4	873,(0, 274),4	889,(0, 279),4	905,(0, 284),4	921,(0, 289),4	937,(0, 294),4	953,(0, 299),4	969,(0, 304),4	985,(0, 309),4	1001,(0, 314),4	1017,(0, 319),4	1033,(0, 324),4	1049,(0, 329),4	1065,(0, 334),4	1081,(0, 339),4	1097,(0, 344),4	1113,(0, 349),4	1129,(0, 354),4	1145,(0, 359),4	1161,(0, 364),4	1177,(0, 369),4	1193,(0, 374),4	1209,(0, 379),4	1225,(0, 384),4	1241,(0, 389),4	1257,(0, 394),4	1273,(0, 399),4	1289,(0, 404),4	1305,(0, 409),4	1321,(0, 414),4	1337,(0, 419),4	1353,(0, 424),4	1369,(0, 429),4	1385,(0, 434),4	1401,(0, 439),4	1417,(0, 444),4	1433,(0, 449),4	1449,(0, 454),4	1465,(0, 459),4	1481,(0, 464),4	1497,(0, 469),4	1513,(0, 474),4	1529,(0, 479),4	1545,(0, 484),4	1561,(0, 489),4	1577,(0, 494),4	1593,(0, 499),4	
5,(0, 3),4	21,(0, 8),4	37,(0, 13),4	53,(0, 18),4	69,(0, 23),4	85,(0, 28),4	101,(0, 33),4	117,(0, 38),4	133,(0, 43),4	149,(0, 48),4	165,(0, 53),4	181,(0, 58),4	197,(0, 63),4	213,(0, 68),4	229,(0, 73),4	245,(0, 78),4	261,(0, 83),4	277,(0, 88),4	293,(0, 93),4	309,(0, 98),4	325,(0, 103),4	341,(0, 108),4	357,(0, 113),4	373,(0, 118),4	389,(0, 123),4	405,(0, 128),4	421,(0, 133),4	437,(0, 138),4	453,(0, 143),4	469,(0, 148),4	485,(0, 153),4	501,(0, 158),4	517,(0, 163),4	533,(0, 168),4	549,(0, 173),4	565,(0, 178),4	581,(0, 183),4	597,(0, 188),4	613,(0, 193),4	629,(0, 198),4	645,(0, 203),4	661,(0, 208),4	677,(0, 213),4	693,(0, 218),4	709,(0, 223),4	725,(0, 228),4	741,(0, 233),4	757,(0, 238),4	773,(0, 243),4	789,(0, 248),4	805,(0, 253),4	821,(0, 258),4	837,(0, 263),4	853,(0, 268),4	869,(0, 273),4	885,(0, 278),4	901,(0, 283),4	917,(0, 288),4	933,(0, 293),4	949,(0, 298),4	965,(0, 303),4	981,(0, 308),4	997,(0, 313),4	1013,(0, 318),4	1029,(0, 323),4	1045,(0, 328),4	1061,(0, 333),4	1077,(0, 338),4	1093,(0, 343),4	1109,(0, 348),4	1125,(0, 353),4	1141,(0, 358),4	1157,(0, 363),4	1173,(0, 368),4	1189,(0, 373),4	1205,(0, 378),4	1221,(0, 383),4	1237,(0, 388),4	1253,(0, 393),4	1269,(0, 398),4	1285,(0, 403),4	1301,(0, 408),4	1317,(0, 413),4	1333,(0, 418),4	1349,(0, 423),4	1365,(0, 428),4	1381,(0, 433),4	1397,(0, 438),4	1413,(0, 443),4	1429,(0, 448),4	1445,(0, 453),4	1461,(0, 458),4	1477,(0, 463),4	1493,(0, 468),4	1509,(0, 473),4	1525,(0, 478),4	1541,(0, 483),4	1557,(0, 488),4	1573,(0, 493),4	1589,(0, 498),4	
1,(0, 2),4	17,(0, 7),4	33,(0, 12),4	49,(0, 17),4	65,(0, 22),4	81,(0, 27),4	97,(0, 32),4	113,(0, 37),4	129,(0, 42),4	145,(0, 47),4	161,(0, 52),4	177,(0, 57),4	193,(0, 62),4	209,(0, 67),4	225,(0, 72),4	241,(0, 77),4	257,(0, 82),4	273,(0, 87),4	289,(0, 92),4	305,(0, 97),4	321,(0, 102),4	337,(0, 107),4	353,(0, 112),4	369,(0, 117),4	385,(0, 122),4	401,(0, 127),4	417,(0, 132),4	433,(0, 137),4	449,(0, 142),4	465,(0, 147),4	481,(0, 152),4	497,(0, 157),4	513,(0, 162),4	529,(0, 167),4	545,(0, 172),4	561,(0, 177),4	577,(0, 182),4	593,(0, 187),4	609,(0, 192),4	625,(0, 197),4	641,(0, 202),4	657,(0, 207),4	673,(0, 212),4	689,(0, 217),4	705,(0, 222),4	721,(0, 227),4	737,(0, 232),4	753,(0, 237),4	769,(0, 242),4	785,(0, 247),4	801,(0, 252),4	817,(0, 257),4	833,(0, 262),4	849,(0, 267),4	865,(0, 272),4	881,(0, 277),4	897,(0, 282),4	913,(0, 287),4	929,(0, 292),4	945,(0, 297),4	961,(0, 302),4	977,(0, 307),4	993,(0, 312),4	1009,(0, 317),4	1025,(0, 322),4	1041,(0, 327),4	1057,(0, 332),4	1073,(0, 337),4	1089,(0, 342),4	1105,(0, 347),4	1121,(0, 352),4	1137,(0, 357),4	1153,(0, 362),4	1169,(0, 367),4	1185,(0, 372),4	1201,(0, 377),4	1217,(0, 382),4	1233,(0, 387),4	1249,(0, 392),4	1265,(0, 397),4	1281,(0, 402),4	1297,(0, 407),4	1313,(0, 412),4	1329,(0, 417),4	1345,(0, 422),4	1361,(0, 427),4	1377,(0, 432),4	1393,(0, 437),4	1409,(0, 442),4	1425,(0, 447),4	1441,(0, 452),4	1457,(0, 457),4	1473,(0, 462),4	1489,(0, 467),4	1505,(0, 472),4	1521,(0, 477),4	1537,(0, 482),4	1553,(0, 487),4	1569,(0, 492),4	1585,(0, 497),4	
730,(2, 501),16	746,(3, 501),16	762,(4, 501),16	778,(5, 501),16	1455,(7, 501),16	1471,(8, 501),16	1487,(9, 501),16	1503,(10, 501),16	2180,(12, 501),16	2196,(13, 501),16	2212,(14, 501),16	2228,(15, 501),16	2905,(17, 501),16	2921,(18, 501),16	2937,(19, 501),16	2953,(20, 501),16	3630,(22, 501),16	3646,(23, 501),16	3662,(24, 501),16	3678,(25, 501),16	4355,(27, 501),16	4371,(28, 501),16	4387,(29, 501),16	4403,(30, 501),16	5080,(32, 501),16	5096,(33, 501),16	5112,(34, 501),16	5128,(35, 501),16	5805,(37, 501),16	5821,(38, 501),16	5837,(39, 501),16	5853,(40, 501),16	6530,(42, 501),16	6546,(43, 501),16	6562,(44, 501),16	6578,(45, 501),16	7255,(47, 501),16	7271,(48, 501),16	7287,(49, 501),16	7303,(50, 501),16	7980,(52, 501),16	7996,(53, 501),16	8012,(54, 501),16	8028,(55, 501),16	8705,(57, 501),16	8721,(58, 501),16	8737,(59, 501),16	8753,(60, 501),16	9430,(62, 501),16	9446,(63, 501),16	9462,(64, 501),16	9478,(65, 501),16	10155,(67, 501),16	10171,(68, 501),16	10187,(69, 501),16	10203,(70, 501),16	10880,(72, 501),16	10896,(73, 501),16	10912,(74, 501),16	10928,(75, 501),16	11605,(77, 501),16	11621,(78, 501),16	11637,(79, 501),16	11653,(80, 501),16	12330,(82, 501),16	12346,(83, 501),16	12362,(84, 501),16	12378,(85, 501),16	13055,(87, 501),16	13071,(88, 501),16	13087,(89, 501),16	13103,(90, 501),16	13780,(92, 501),16	13796,(93, 501),16	13812,(94, 501),16	13828,(95, 501),16	14505,(97, 501),16	14521,(98, 501),16	14537,(99, 501),16	14553,(100, 501),16	15230,(102, 501),16	15246,(103, 501),16	15262,(104, 501),16	15278,(105, 501),16	15955,(107, 501),16	15971,(108, 501),16	15987,(109, 501),16	16003,(110, 501),16	16680,(112, 501),16	16696,(113, 501),16	16712,(114, 501),16	16728,(115, 501),16	17405,(117, 501),16	17421,(118, 501),16	17437,(119, 501),16	17453,(120, 501),16	18130,(122, 501),16	18146,(123, 501),16	18162,(124, 501),16	18178,(125, 501),16	18855,(127, 501),16	18871,(128, 501),16	18887,(129, 501),16	18903,(130, 501),16	19580,(132, 501),16	19596,(133, 501),16	19612,(134, 501),16	19628,(135, 501),16	20305,(137, 501),16	20321,(138, 501),16	20337,(139, 501),16	20353,(140, 501),16	21030,(142, 501),16	21046,(143, 501),16	21062,(144, 501),16	21078,(145, 501),16	21755,(147, 501),16	21771,(148, 501),16	21787,(149, 501),16	21803,(150, 501),16	22480,(152, 501),16	22496,(153, 501),16	22512,(154, 501),16	22528,(155, 501),16	23205,(157, 501),16	23221,(158, 501),16	23237,(159, 501),16	23253,(160, 501),16	23930,(162, 501),16	23946,(163, 501),16	23962,(164, 501),16	23978,(165, 501),16	24655,(167, 501),16	24671,(168, 501),16	24687,(169, 501),16	24703,(170, 501),16	25380,(172, 501),16	25396,(173, 501),16	25412,(174, 501),16	25428,(175, 501),16	26105,(177, 501),16	26121,(178, 501),16	26137,(179, 501),16	26153,(180, 501),16	26830,(182, 501),16	26846,(183, 501),16	26862,(184, 501),16	26878,(185, 501),16	27555,(187, 501),16	27571,(188, 501),16	27587,(189, 501),16	27603,(190, 501),16	28280,(192, 501),16	28296,(193, 501),16	28312,(194, 501),16	28328,(195, 501),16	29005,(197, 501),16	29021,(198, 501),16	29037,(199, 501),16	29053,(200, 501),16	29730,(202, 501),16	29746,(203, 501),16	29762,(204, 501),16	29778,(205, 501),16	30455,(207, 501),16	30471,(208, 501),16	30487,(209, 501),16	30503,(210, 501),16	31180,(212, 501),16	31196,(213, 501),16	31212,(214, 501),16	31228,(215, 501),16	31905,(217, 501),16	31921,(218, 501),16	31937,(219, 501),16	31953,(220, 501),16	32630,(222, 501),16	32646,(223, 501),16	32662,(224, 501),16	32678,(225, 501),16	33355,(227, 501),16	33371,(228, 501),16	33387,(229, 501),16	33403,(230, 501),16	34080,(232, 501),16	34096,(233, 501),16	34112,(234, 501),16	34128,(235, 501),16	34805,(237, 501),16	34821,(238, 501),16	34837,(239, 501),16	34853,(240, 501),16	35530,(242, 501),16	35546,(243, 501),16	35562,(244, 501),16	35578,(245, 501),16	36255,(247, 501),16	36271,(248, 501),16	36287,(249, 501),16	36303,(250, 501),16	36980,(252, 501),16	36996,(253, 501),16	37012,(254, 501),16	37028,(255, 501),16	37705,(257, 501),16	37721,(258, 501),16	37737,(259, 501),16	37753,(260, 501),16	38430,(262, 501),16	38446,(263, 501),16	38462,(264, 501),16	38478,(265, 501),16	39155,(267, 501),16	39171,(268, 501),16	39187,(269, 501),16	39203,(270, 501),16	39880,(272, 501),16	39896,(273, 501),16	39912,(274, 501),16	39928,(275, 501),16	40605,(277, 501),16	40621,(278, 501),16	40637,(279, 501),16	40653,(280, 501),16	41330,(282, 501),16	41346,(283, 501),16	41362,(284, 501),16	41378,(285, 501),16	42055,(287, 501),16	42071,(288, 501),16	42087,(289, 501),16	42103,(290, 501),16	42780,(292, 501),16	42796,(293, 501),16	42812,(294, 501),16	42828,(295, 501),16	43505,(297, 501),16	43521,(298, 501),16	43537,(299, 501),16	43553,(300, 501),16	44230,(302, 501),16	44246,(303, 501),16	44262,(304, 501),16	44278,(305, 501),16	44955,(307, 501),16	44971,(308, 501),16	44987,(309, 501),16	45003,(310, 501),16	45680,(312, 501),16	45696,(313, 501),16	45712,(314, 501),16	45728,(315, 501),16	46405,(317, 501),16	46421,(318, 501),16	46437,(319, 501),16	46453,(320, 501),16	47130,(322, 501),16	47146,(323, 501),16	47162,(324, 501),16	47178,(325, 501),16	47855,(327, 501),16	47871,(328, 501),16	47887,(329, 501),16	47903,(330, 501),16	48580,(332, 501),16	48596,(333, 501),16	48612,(334, 501),16	48628,(335, 501),16	49305,(337, 501),16	49321,(338, 501),16	49337,(339, 501),16	49353,(340, 501),16	50030,(342, 501),16	50046,(343, 501),16	50062,(344, 501),16	50078,(345, 501),16	50755,(347, 501),16	50771,(348, 501),16	50787,(349, 501),16	50803,(350, 501),16	51480,(352, 501),16	51496,(353, 501),16	51512,(354, 501),16	51528,(355, 501),16	52205,(357, 501),16	52221,(358, 501),16	52237,(359, 501),16	52253,(360, 501),16	52930,(362, 501),16	52946,(363, 501),16	52962,(364, 501),16	52978,(365, 501),16	53655,(367, 501),16	53671,(368, 501),16	53687,(369, 501),16	53703,(370, 501),16	54380,(372, 501),16	54396,(373, 501),16	54412,(374, 501),16	54428,(375, 501),16	55105,(377, 501),16	55121,(378, 501),16	55137,(379, 501),16	55153,(380, 501),16	55830,(382, 501),16	55846,(383, 501),16	55862,(384, 501),16	55878,(385, 501),16	56555,(387, 501),16	56571,(388, 501),16	56587,(389, 501),16	56603,(390, 501),16	57280,(392, 501),16	57296,(393, 501),16	57312,(394, 501),16	57328,(395, 501),16	58005,(397, 501),16	58021,(398, 501),16	58037,(399, 501),16	58053,(400, 501),16	58730,(402, 501),16	58746,(403, 501),16	58762,(404, 501),16	58778,(405, 501),16	59455,(407, 501),16	59471,(408, 501),16	59487,(409, 501),16	59503,(410, 501),16	60180,(412, 501),16	60196,(413, 501),16	60212,(414, 501),16	60228,(415, 501),16	60905,(417, 501),16	60921,(418, 501),16	60937,(419, 501),16	60953,(420, 501),16	61630,(422, 501),16	61646,(423, 501),16	61662,(424, 501),16	61678,(425, 501),16	62355,(427, 501),16	62371,(428, 501),16	62387,(429, 501),16	62403,(430, 501),16	63080,(432, 501),16	63096,(433, 501),16	63112,(434, 501),16	63128,(435, 501),16	63805,(437, 501),16	63821,(438, 501),16	63837,(439, 501),16	63853,(440, 501),16	64530,(442, 501),16	64546,(443, 501),16	64562,(444, 501),16	64578,(445, 501),16	65255,(447, 501),16	65271,(448, 501),16	65287,(449, 501),16	65303,(450, 501),16	65980,(452, 501),16	65996,(453, 501),16	66012,(454, 501),16	66028,(455, 501),16	66705,(457, 501),16	66721,(458, 501),16	66737,(459, 501),16	66753,(460, 501),16	67430,(462, 501),16	67446,(463, 501),16	67462,(464, 501),16	67478,(465, 501),16	68155,(467, 501),16	68171,(468, 501),16	68187,(469, 501),16	68203,(470, 501),16	68880,(472, 501),16	68896,(473, 501),16	68912,(474, 501),16	68928,(475, 501),16	69605,(477, 501),16	69621,(478, 501),16	69637,(479, 501),16	69653,(480, 501),16	70330,(482, 501),16	70346,(483, 501),16	70362,(484, 501),16	70378,(485, 501),16	71055,(487, 501),16	71071,(488, 501),16	71087,(489, 501),16	71103,(490, 501),16	71780,(492, 501),16	71796,(493, 501),16	71812,(494, 501),16	71828,(495, 501),16	72505,(497, 501),16	72521,(498, 501),16	72537,(499, 501),16	72553,(500, 501),16	
# Outgoing
778,(5, 501),16	1503,(10, 501),16	2228,(15, 501),16	2953,(20, 501),16	3678,(25, 501),16	4403,(30, 501),16	5128,(35, 501),16	5853,(40, 501),16	6578,(45, 501),16	7303,(50, 501),16	8028,(55, 501),16	8753,(60, 501),16	9478,(65, 501),16	10203,(70, 501),16	10928,(75, 501),16	11653,(80, 501),16	12378,(85, 501),16	13103,(90, 501),16	13828,(95, 501),16	14553,(100, 501),16	15278,(105, 501),16	16003,(110, 501),16	16728,(115, 501),16	17453,(120, 501),16	18178,(125, 501),16	18903,(130, 501),16	19628,(135, 501),16	20353,(140, 501),16	21078,(145, 501),16	21803,(150, 501),16	22528,(155, 501),16	23253,(160, 501),16	23978,(165, 501),16	24703,(170, 501),16	25428,(175, 501),16	26153,(180, 501),16	26878,(185, 501),16	27603,(190, 501),16	28328,(195, 501),16	29053,(200, 501),16	29778,(205, 501),16	30503,(210, 501),16	31228,(215, 501),16	31953,(220, 501),16	32678,(225, 501),16	33403,(230, 501),16	34128,(235, 501),16	34853,(240, 501),16	35578,(245, 501),16	36303,(250, 501),16	37028,(255, 501),16	37753,(260, 501),16	38478,(265, 501),16	39203,(270, 501),16	39928,(275, 501),16	40653,(280, 501),16	41378,(285, 501),16	42103,(290, 501),16	42828,(295, 501),16	43553,(300, 501),16	44278,(305, 501),16	45003,(310, 501),16	45728,(315, 501),16	46453,(320, 501),16	47178,(325, 501),16	47903,(330, 501),16	48628,(335, 501),16	49353,(340, 501),16	50078,(345, 501),16	50803,(350, 501),16	51528,(355, 501),16	52253,(360, 501),16	52978,(365, 501),16	53703,(370, 501),16	54428,(375, 501),16	55153,(380, 501),16	55878,(385, 501),16	56603,(390, 501),16	57328,(395, 501),16	58053,(400, 501),16	58778,(405, 501),16	59503,(410, 501),16	60228,(415, 501),16	60953,(420, 501),16	61678,(425, 501),16	62403,(430, 501),16	63128,(435, 501),16	63853,(440, 501),16	64578,(445, 501),16	65303,(450, 501),16	66028,(455, 501),16	66753,(460, 501),16	67478,(465, 501),16	68203,(470, 501),16	68928,(475, 501),16	69653,(480, 501),16	70378,(485, 501),16	71103,(490, 501),16	71828,(495, 501),16	72553,(500, 501),16	
762,(4, 501),16	1487,(9, 501),16	2212,(14, 501),16	2937,(19, 501),16	3662,(24, 501),16	4387,(29, 501),16	5112,(34, 501),16	5837,(39, 501),16	6562,(44, 501),16	7287,(49, 501),16	8012,(54, 501),16	8737,(59, 501),16	9462,(64, 501),16	10187,(69, 501),16	10912,(74, 501),16	11637,(79, 501),16	12362,(84, 501),16	13087,(89, 501),16	13812,(94, 501),16	14537,(99, 501),16	15262,(104, 501),16	15987,(109, 501),16	16712,(114, 501),16	17437,(119, 501),16	18162,(124, 501),16	18887,(129, 501),16	19612,(134, 501),16	20337,(139, 501),16	21062,(144, 501),16	21787,(149, 501),16	22512,(154, 501),16	23237,(159, 501),16	23962,(164, 501),16	24687,(169, 501),16	25412,(174, 501),16	26137,(179, 501),16	26862,(184, 501),16	27587,(189, 501),16	28312,(194, 501),16	29037,(199, 501),16	29762,(204, 501),16	30487,(209, 501),16	31212,(214, 501),16	31937,(219, 501),16	32662,(224, 501),16	33387,(229, 501),16	34112,(234, 501),16	34837,(239, 501),16	35562,(244, 501),16	36287,(249, 501),16	37012,(254, 501),16	37737,(259, 501),16	38462,(264, 501),16	39187,(269, 501),16	39912,(274, 501),16	40637,(279, 501),16	41362,(284, 501),16	42087,(289, 501),16	42812,(294, 501),16	43537,(299, 501),16	44262,(304, 501),16	44987,(309, 501),16	45712,(314, 501),16	46437,(319, 501),16	47162,(324, 501),16	47887,(329, 501),16	48612,(334, 501),16	49337,(339, 501),16	50062,(344, 501),16	50787,(349, 501),16	51512,(354, 501),16	52237,(359, 501),16	52962,(364, 501),16	53687,(369, 501),16	54412,(374, 501),16	55137,(379, 501),16	55862,(384, 501),16	56587,(389, 501),16	57312,(394, 501),16	58037,(399, 501),16	58762,(404, 501),16	59487,(409, 501),16	60212,(414, 501),16	60937,(419, 501),16	61662,(424, 501),16	62387,(429, 501),16	63112,(434, 501),16	63837,(439, 501),16	64562,(444, 501),16	65287,(449, 501),16	66012,(454, 501),16	66737,(459, 501),16	67462,(464, 501),16	68187,(469, 501),16	68912,(474, 501),16	69637,(479, 501),16	70362,(484, 501),16	71087,(489, 501),16	71812,(494, 501),16	72537,(499, 501),16	
746,(3, 501),16	1471,(8, 501),16	2196,(13, 501),16	2921,(18, 501),16	3646,(23, 501),16	4371,(28, 501),16	5096,(33, 501),16	5821,(38, 501),16	6546,(43, 501),16	7271,(48, 501),16	7996,(53, 501),16	8721,(58, 501),16	9446,(63, 501),16	10171,(68, 501),16	10896,(73, 501),16	11621,(78, 501),16	12346,(83, 501),16	13071,(88, 501),16	13796,(93, 501),16	14521,(98, 501),16	15246,(103, 501),16	15971,(108, 501),16	16696,(113, 501),16	17421,(118, 501),16	18146,(123, 501),16	18871,(128, 501),16	19596,(133, 501),16	20321,(138, 501),16	21046,(143, 501),16	21771,(148, 501),16	22496,(153, 501),16	23221,(158, 501),16	23946,(163, 501),16	24671,(168, 501),16	25396,(173, 501),16	26121,(178, 501),16	26846,(183, 501),16	27571,(188, 501),16	28296,(193, 501),16	29021,(198, 501),16	29746,(203, 501),16	30471,(208, 501),16	31196,(213, 501),16	31921,(218, 501),16	32646,(223, 501),16	33371,(228, 501),16	34096,(233, 501),16	34821,(238, 501),16	35546,(243, 501),16	36271,(248, 501),16	36996,(253, 501),16	37721,(258, 501),16	38446,(263, 501),16	39171,(268, 501),16	39896,(273, 501),16	40621,(278, 501),16	41346,(283, 501),16	42071,(288, 501),16	42796,(293, 501),16	43521,(298, 501),16	44246,(303, 501),16	44971,(308, 501),16	45696,(313, 501),16	46421,(318, 501),16	47146,(323, 501),16	47871,(328, 501),16	48596,(333, 501),16	49321,(338, 501),16	50046,(343, 501),16	50771,(348, 501),16	51496,(353, 501),16	52221,(358, 501),16	52946,(363, 501),16	53671,(368, 501),16	54396,(373, 501),16	55121,(378, 501),16	55846,(383, 501),16	56571,(388, 501),16	57296,(393, 501),16	58021,(398, 501),16	58746,(403, 501),16	59471,(408, 501),16	60196,(413, 501),16	60921,(418, 501),16	61646,(423, 501),16	62371,(428, 501),16	63096,(433, 501),16	63821,(438, 501),16	64546,(443, 501),16	65271,(448, 501),16	65996,(453, 501),16	66721,(458, 501),16	67446,(463, 501),16	68171,(468, 501),16	68896,(473, 501),16	69621,(478, 501),16	70346,(483, 501),16	71071,(488, 501),16	71796,(493, 501),16	72521,(498, 501),16	
730,(2, 501),16	1455,(7, 501),16	2180,(12, 501),16	2905,(17, 501),16	3630,(22, 501),16	4355,(27, 501),16	5080,(32, 501),16	5805,(37, 501),16	6530,(42, 501),16	7255,(47, 501),16	7980,(52, 501),16	8705,(57, 501),16	9430,(62, 501),16	10155,(67, 501),16	10880,(72, 501),16	11605,(77, 501),16	12330,(82, 501),16	13055,(87, 501),16	13780,(92, 501),16	14505,(97, 501),16	15230,(102, 501),16	15955,(107, 501),16	16680,(112, 501),16	17405,(117, 501),16	18130,(122, 501),16	18855,(127, 501),16	19580,(132, 501),16	20305,(137, 501),16	21030,(142, 501),16	21755,(147, 501),16	22480,(152, 501),16	23205,(157, 501),16	23930,(162, 501),16	24655,(167, 501),16	25380,(172, 501),16	26105,(177, 501),16	26830,(182, 501),16	27555,(187, 501),16	28280,(192, 501),16	29005,(197, 501),16	29730,(202, 501),16	30455,(207, 501),16	31180,(212, 501),16	31905,(217, 501),16	32630,(222, 501),16	33355,(227, 501),16	34080,(232, 501),16	34805,(237, 501),16	35530,(242, 501),16	36255,(247, 501),16	36980,(252, 501),16	37705,(257, 501),16	38430,(262, 501),16	39155,(267, 501),16	39880,(272, 501),16	40605,(277, 501),16	41330,(282, 501),16	42055,(287, 501),16	42780,(292, 501),16	43505,(297, 501),16	44230,(302, 501),16	44955,(307, 501),16	45680,(312, 501),16	46405,(317, 501),16	47130,(322, 501),16	47855,(327, 501),16	48580,(332, 501),16	49305,(337, 501),16	50030,(342, 501),16	50755,(347, 501),16	51480,(352, 501),16	52205,(357, 501),16	52930,(362, 501),16	53655,(367, 501),16	54380,(372, 501),16	55105,(377, 501),16	55830,(382, 501),16	56555,(387, 501),16	57280,(392, 501),16	58005,(397, 501),16	58730,(402, 501),16	59455,(407, 501),16	60180,(412, 501),16	60905,(417, 501),16	61630,(422, 501),16	62355,(427, 501),16	63080,(432, 501),16	63805,(437, 501),16	64530,(442, 501),16	65255,(447, 501),16	65980,(452, 501),16	66705,(457, 501),16	67430,(462, 501),16	68155,(467, 501),16	68880,(472, 501),16	69605,(477, 501),16	70330,(482, 501),16	71055,(487, 501),16	71780,(492, 501),16	72505,(497, 501),16	
1,(0, 2),4	5,(0, 3),4	9,(0, 4),4	13,(0, 5),4	17,(0, 7),4	21,(0, 8),4	25,(0, 9),4	29,(0, 10),4	33,(0, 12),4	37,(0, 13),4	41,(0, 14),4	45,(0, 15),4	49,(0, 17),4	53,(0, 18),4	57,(0, 19),4	61,(0, 20),4	65,(0, 22),4	69,(0, 23),4	73,(0, 24),4	77,(0, 25),4	81,(0, 27),4	85,(0, 28),4	89,(0, 29),4	93,(0, 30),4	97,(0, 32),4	101,(0, 33),4	105,(0, 34),4	109,(0, 35),4	113,(0, 37),4	117,(0, 38),4	121,(0, 39),4	125,(0, 40),4	129,(0, 42),4	133,(0, 43),4	137,(0, 44),4	141,(0, 45),4	145,(0, 47),4	149,(0, 48),4	153,(0, 49),4	157,(0, 50),4	161,(0, 52),4	165,(0, 53),4	169,(0, 54),4	173,(0, 55),4	177,(0, 57),4	181,(0, 58),4	185,(0, 59),4	189,(0, 60),4	193,(0, 62),4	197,(0, 63),4	201,(0, 64),4	205,(0, 65),4	209,(0, 67),4	213,(0, 68),4	217,(0, 69),4	221,(0, 70),4	225,(0, 72),4	229,(0, 73),4	233,(0, 74),4	237,(0, 75),4	241,(0, 77),4	245,(0, 78),4	249,(0, 79),4	253,(0, 80),4	257,(0, 82),4	261,(0, 83),4	265,(0, 84),4	269,(0, 85),4	273,(0, 87),4	277,(0, 88),4	281,(0, 89),4	285,(0, 90),4	289,(0, 92),4	293,(0, 93),4	297,(0, 94),4	301,(0, 95),4	305,(0, 97),4	309,(0, 98),4	313,(0, 99),4	317,(0, 100),4	321,(0, 102),4	325,(0, 103),4	329,(0, 104),4	333,(0, 105),4	337,(0, 107),4	341,(0, 108),4	345,(0, 109),4	349,(0, 110),4	353,(0, 112),4	357,(0, 113),4	361,(0, 114),4	365,(0, 115),4	369,(0, 117),4	373,(0, 118),4	377,(0, 119),4	381,(0, 120),4	385,(0, 122),4	389,(0, 123),4	393,(0, 124),4	397,(0, 125),4	401,(0, 127),4	405,(0, 128),4	409,(0, 129),4	413,(0, 130),4	417,(0, 132),4	421,(0, 133),4	425,(0, 134),4	429,(0, 135),4	433,(0, 137),4	437,(0, 138),4	441,(0, 139),4	445,(0, 140),4	449,(0, 142),4	453,(0, 143),4	457,(0, 144),4	461,(0, 145),4	465,(0, 147),4	469,(0, 148),4	473,(0, 149),4	477,(0, 150),4	481,(0, 152),4	485,(0, 153),4	489,(0, 154),4	493,(0, 155),4	497,(0, 157),4	501,(0, 158),4	505,(0, 159),4	509,(0, 160),4	513,(0, 162),4	517,(0, 163),4	521,(0, 164),4	525,(0, 165),4	529,(0, 167),4	533,(0, 168),4	537,(0, 169),4	541,(0, 170),4	545,(0, 172),4	549,(0, 173),4	553,(0, 174),4	557,(0, 175),4	561,(0, 177),4	565,(0, 178),4	569,(0, 179),4	573,(0, 180),4	577,(0, 182),4	581,(0, 183),4	585,(0, 184),4	589,(0, 185),4	593,(0, 187),4	597,(0, 188),4	601,(0, 189),4	605,(0, 190),4	609,(0, 192),4	613,(0, 193),4	617,(0, 194),4	621,(0, 195),4	625,(0, 197),4	629,(0, 198),4	633,(0, 199),4	637,(0, 200),4	641,(0, 202),4	645,(0, 203),4	649,(0, 204),4	653,(0, 205),4	657,(0, 207),4	661,(0, 208),4	665,(0, 209),4	669,(0, 210),4	673,(0, 212),4	677,(0, 213),4	681,(0, 214),4	685,(0, 215),4	689,(0, 217),4	693,(0, 218),4	697,(0, 219),4	701,(0, 220),4	705,(0, 222),4	709,(0, 223),4	713,(0, 224),4	717,(0, 225),4	721,(0, 227),4	725,(0, 228),4	729,(0, 229),4	733,(0, 230),4	737,(0, 232),4	741,(0, 233),4	745,(0, 234),4	749,(0, 235),4	753,(0, 237),4	757,(0, 238),4	761,(0, 239),4	765,(0, 240),4	769,(0, 242),4	773,(0, 243),4	777,(0, 244),4	781,(0, 245),4	785,(0, 247),4	789,(0, 248),4	793,(0, 249),4	797,(0, 250),4	801,(0, 252),4	805,(0, 253),4	809,(0, 254),4	813,(0, 255),4	817,(0, 257),4	821,(0, 258),4	825,(0, 259),4	829,(0, 260),4	833,(0, 262),4	837,(0, 263),4	841,(0, 264),4	845,(0, 265),4	849,(0, 267),4	853,(0, 268),4	857,(0, 269),4	861,(0, 270),4	865,(0, 272),4	869,(0, 273),4	873,(0, 274),4	877,(0, 275),4	881,(0, 277),4	885,(0, 278),4	889,(0, 279),4	893,(0, 280),4	897,(0, 282),4	901,(0, 283),4	905,(0, 284),4	909,(0, 285),4	913,(0, 287),4	917,(0, 288),4	921,(0, 289),4	925,(0, 290),4	929,(0, 292),4	933,(0, 293),4	937,(0, 294),4	941,(0, 295),4	945,(0, 297),4	949,(0, 298),4	953,(0, 299),4	957,(0, 300),4	961,(0, 302),4	965,(0, 303),4	969,(0, 304),4	973,(0, 305),4	977,(0, 307),4	981,(0, 308),4	985,(0, 309),4	989,(0, 310),4	993,(0, 312),4	997,(0, 313),4	1001,(0, 314),4	1005,(0, 315),4	1009,(0, 317),4	1013,(0, 318),4	1017,(0, 319),4	1021,(0, 320),4	1025,(0, 322),4	1029,(0, 323),4	1033,(0, 324),4	1037,(0, 325),4	1041,(0, 327),4	1045,(0, 328),4	1049,(0, 329),4	1053,(0, 330),4	1057,(0, 332),4	1061,(0, 333),4	1065,(0, 334),4	1069,(0, 335),4	1073,(0, 337),4	1077,(0, 338),4	1081,(0, 339),4	1085,(0, 340),4	1089,(0, 342),4	1093,(0, 343),4	1097,(0, 344),4	1101,(0, 345),4	1105,(0, 347),4	1109,(0, 348),4	1113,(0, 349),4	1117,(0, 350),4	1121,(0, 352),4	1125,(0, 353),4	1129,(0, 354),4	1133,(0, 355),4	1137,(0, 357),4	1141,(0, 358),4	1145,(0, 359),4	1149,(0, 360),4	1153,(0, 362),4	1157,(0, 363),4	1161,(0, 364),4	1165,(0, 365),4	1169,(0, 367),4	1173,(0, 368),4	1177,(0, 369),4	1181,(0, 370),4	1185,(0, 372),4	1189,(0, 373),4	1193,(0, 374),4	1197,(0, 375),4	1201,(0, 377),4	1205,(0, 378),4	1209,(0, 379),4	1213,(0, 380),4	1217,(0, 382),4	1221,(0, 383),4	1225,(0, 384),4	1229,(0, 385),4	1233,(0, 387),4	1237,(0, 388),4	1241,(0, 389),4	1245,(0, 390),4	1249,(0, 392),4	1253,(0, 393),4	1257,(0, 394),4	1261,(0, 395),4	1265,(0, 397),4	1269,(0, 398),4	1273,(0, 399),4	1277,(0, 400),4	1281,(0, 402),4	1285,(0, 403),4	1289,(0, 404),4	1293,(0, 405),4	1297,(0, 407),4	1301,(0, 408),4	1305,(0, 409),4	1309,(0, 410),4	1313,(0, 412),4	1317,(0, 413),4	1321,(0, 414),4	1325,(0, 415),4	1329,(0, 417),4	1333,(0, 418),4	1337,(0, 419),4	1341,(0, 420),4	1345,(0, 422),4	1349,(0, 423),4	1353,(0, 424),4	1357,(0, 425),4	1361,(0, 427),4	1365,(0, 428),4	1369,(0, 429),4	1373,(0, 430),4	1377,(0, 432),4	1381,(0, 433),4	1385,(0, 434),4	1389,(0, 435),4	1393,(0, 437),4	1397,(0, 438),4	1401,(0, 439),4	1405,(0, 440),4	1409,(0, 442),4	1413,(0, 443),4	1417,(0, 444),4	1421,(0, 445),4	1425,(0, 447),4	1429,(0, 448),4	1433,(0, 449),4	1437,(0, 450),4	1441,(0, 452),4	1445,(0, 453),4	1449,(0, 454),4	1453,(0, 455),4	1457,(0, 457),4	1461,(0, 458),4	1465,(0, 459),4	1469,(0, 460),4	1473,(0, 462),4	1477,(0, 463),4	1481,(0, 464),4	1485,(0, 465),4	1489,(0, 467),4	1493,(0, 468),4	1497,(0, 469),4	1501,(0, 470),4	1505,(0, 472),4	1509,(0, 473),4	1513,(0, 474),4	1517,(0, 475),4	1521,(0, 477),4	1525,(0, 478),4	1529,(0, 479),4	1533,(0, 480),4	1537,(0, 482),4	1541,(0, 483),4	1545,(0, 484),4	1549,(0, 485),4	1553,(0, 487),4	1557,(0, 488),4	1561,(0, 489),4	1565,(0, 490),4	1569,(0, 492),4	1573,(0, 493),4	1577,(0, 494),4	1581,(0, 495),4	1585,(0, 497),4	1589,(0, 498),4	1593,(0, 499),4	1597,(0, 500),4	
