109381
# CPU
244,10,2	487,20,2	730,30,2	973,40,2	1216,50,2	1459,60,2	1702,70,2	1945,80,2	2188,90,2	2431,100,2	2674,110,2	2917,120,2	3160,130,2	3403,140,2	3646,150,2	3889,160,2	4132,170,2	4375,180,2	4618,190,2	4861,200,2	5104,210,2	5347,220,2	5590,230,2	5833,240,2	6076,250,2	6319,260,2	6562,270,2	6805,280,2	7048,290,2	7291,300,2	7534,310,2	7777,320,2	8020,330,2	8263,340,2	8506,350,2	8749,360,2	8992,370,2	9235,380,2	9478,390,2	9721,400,2	9964,410,2	10207,420,2	10450,430,2	10693,440,2	10936,450,2	11179,460,2	11422,470,2	11665,480,2	11908,490,2	12151,500,2	
217,9,2	460,19,2	703,29,2	946,39,2	1189,49,2	1432,59,2	1675,69,2	1918,79,2	2161,89,2	2404,99,2	2647,109,2	2890,119,2	3133,129,2	3376,139,2	3619,149,2	3862,159,2	4105,169,2	4348,179,2	4591,189,2	4834,199,2	5077,209,2	5320,219,2	5563,229,2	5806,239,2	6049,249,2	6292,259,2	6535,269,2	6778,279,2	7021,289,2	7264,299,2	7507,309,2	7750,319,2	7993,329,2	8236,339,2	8479,349,2	8722,359,2	8965,369,2	9208,379,2	9451,389,2	9694,399,2	9937,409,2	10180,419,2	10423,429,2	10666,439,2	10909,449,2	11152,459,2	11395,469,2	11638,479,2	11881,489,2	12124,499,2	
190,8,2	433,18,2	676,28,2	919,38,2	1162,48,2	1405,58,2	1648,68,2	1891,78,2	2134,88,2	2377,98,2	2620,108,2	2863,118,2	3106,128,2	3349,138,2	3592,148,2	3835,158,2	4078,168,2	4321,178,2	4564,188,2	4807,198,2	5050,208,2	5293,218,2	5536,228,2	5779,238,2	6022,248,2	6265,258,2	6508,268,2	6751,278,2	6994,288,2	7237,298,2	7480,308,2	7723,318,2	7966,328,2	8209,338,2	8452,348,2	8695,358,2	8938,368,2	9181,378,2	9424,388,2	9667,398,2	9910,408,2	10153,418,2	10396,428,2	10639,438,2	10882,448,2	11125,458,2	11368,468,2	11611,478,2	11854,488,2	12097,498,2	
163,7,2	406,17,2	649,27,2	892,37,2	1135,47,2	1378,57,2	1621,67,2	1864,77,2	2107,87,2	2350,97,2	2593,107,2	2836,117,2	3079,127,2	3322,137,2	3565,147,2	3808,157,2	4051,167,2	4294,177,2	4537,187,2	4780,197,2	5023,207,2	5266,217,2	5509,227,2	5752,237,2	5995,247,2	6238,257,2	6481,267,2	6724,277,2	6967,287,2	7210,297,2	7453,307,2	7696,317,2	7939,327,2	8182,337,2	8425,347,2	8668,357,2	8911,367,2	9154,377,2	9397,387,2	9640,397,2	9883,407,2	10126,417,2	10369,427,2	10612,437,2	10855,447,2	11098,457,2	11341,467,2	11584,477,2	11827,487,2	12070,497,2	
136,6,2	379,16,2	622,26,2	865,36,2	1108,46,2	1351,56,2	1594,66,2	1837,76,2	2080,86,2	2323,96,2	2566,106,2	2809,116,2	3052,126,2	3295,136,2	3538,146,2	3781,156,2	4024,166,2	4267,176,2	4510,186,2	4753,196,2	4996,206,2	5239,216,2	5482,226,2	5725,236,2	5968,246,2	6211,256,2	6454,266,2	6697,276,2	6940,286,2	7183,296,2	7426,306,2	7669,316,2	7912,326,2	8155,336,2	8398,346,2	8641,356,2	8884,366,2	9127,376,2	9370,386,2	9613,396,2	9856,406,2	10099,416,2	10342,426,2	10585,436,2	10828,446,2	11071,456,2	11314,466,2	11557,476,2	11800,486,2	12043,496,2	
109,5,2	352,15,2	595,25,2	838,35,2	1081,45,2	1324,55,2	1567,65,2	1810,75,2	2053,85,2	2296,95,2	2539,105,2	2782,115,2	3025,125,2	3268,135,2	3511,145,2	3754,155,2	3997,165,2	4240,175,2	4483,185,2	4726,195,2	4969,205,2	5212,215,2	5455,225,2	5698,235,2	5941,245,2	6184,255,2	6427,265,2	6670,275,2	6913,285,2	7156,295,2	7399,305,2	7642,315,2	7885,325,2	8128,335,2	8371,345,2	8614,355,2	8857,365,2	9100,375,2	9343,385,2	9586,395,2	9829,405,2	10072,415,2	10315,425,2	10558,435,2	10801,445,2	11044,455,2	11287,465,2	11530,475,2	11773,485,2	12016,495,2	
82,4,2	325,14,2	568,24,2	811,34,2	1054,44,2	1297,54,2	1540,64,2	1783,74,2	2026,84,2	2269,94,2	2512,104,2	2755,114,2	2998,124,2	3241,134,2	3484,144,2	3727,154,2	3970,164,2	4213,174,2	4456,184,2	4699,194,2	4942,204,2	5185,214,2	5428,224,2	5671,234,2	5914,244,2	6157,254,2	6400,264,2	6643,274,2	6886,284,2	7129,294,2	7372,304,2	7615,314,2	7858,324,2	8101,334,2	8344,344,2	8587,354,2	8830,364,2	9073,374,2	9316,384,2	9559,394,2	9802,404,2	10045,414,2	10288,424,2	10531,434,2	10774,444,2	11017,454,2	11260,464,2	11503,474,2	11746,484,2	11989,494,2	
55,3,2	298,13,2	541,23,2	784,33,2	1027,43,2	1270,53,2	1513,63,2	1756,73,2	1999,83,2	2242,93,2	2485,103,2	2728,113,2	2971,123,2	3214,133,2	3457,143,2	3700,153,2	3943,163,2	4186,173,2	4429,183,2	4672,193,2	4915,203,2	5158,213,2	5401,223,2	5644,233,2	5887,243,2	6130,253,2	6373,263,2	6616,273,2	6859,283,2	7102,293,2	7345,303,2	7588,313,2	7831,323,2	8074,333,2	8317,343,2	8560,353,2	8803,363,2	9046,373,2	9289,383,2	9532,393,2	9775,403,2	10018,413,2	10261,423,2	10504,433,2	10747,443,2	10990,453,2	11233,463,2	11476,473,2	11719,483,2	11962,493,2	
28,2,2	271,12,2	514,22,2	757,32,2	1000,42,2	1243,52,2	1486,62,2	1729,72,2	1972,82,2	2215,92,2	2458,102,2	2701,112,2	2944,122,2	3187,132,2	3430,142,2	3673,152,2	3916,162,2	4159,172,2	4402,182,2	4645,192,2	4888,202,2	5131,212,2	5374,222,2	5617,232,2	5860,242,2	6103,252,2	6346,262,2	6589,272,2	6832,282,2	7075,292,2	7318,302,2	7561,312,2	7804,322,2	8047,332,2	8290,342,2	8533,352,2	8776,362,2	9019,372,2	9262,382,2	9505,392,2	9748,402,2	9991,412,2	10234,422,2	10477,432,2	10720,442,2	10963,452,2	11206,462,2	11449,472,2	11692,482,2	11935,492,2	
0,0,1	1,1,2	3,21,2	5,61,2	7,141,2	9,301,2	11,491,2	13,481,2	15,471,2	17,461,2	19,451,2	21,441,2	23,431,2	25,421,2	27,411,2	29,401,2	31,391,2	33,381,2	35,371,2	37,361,2	39,351,2	41,341,2	43,331,2	45,321,2	47,291,2	49,311,2	51,281,2	53,271,2	55,261,2	57,251,2	59,241,2	61,231,2	63,221,2	65,211,2	67,201,2	69,191,2	71,181,2	73,171,2	75,161,2	77,131,2	79,151,2	81,121,2	83,111,2	85,101,2	87,91,2	89,81,2	91,51,2	93,71,2	95,41,2	97,11,2	99,31,2	109380,501,1	
# Incoming
217,(0, 10),27	460,(0, 20),27	703,(0, 30),27	946,(0, 40),27	1189,(0, 50),27	1432,(0, 60),27	1675,(0, 70),27	1918,(0, 80),27	2161,(0, 90),27	2404,(0, 100),27	2647,(0, 110),27	2890,(0, 120),27	3133,(0, 130),27	3376,(0, 140),27	3619,(0, 150),27	3862,(0, 160),27	4105,(0, 170),27	4348,(0, 180),27	4591,(0, 190),27	4834,(0, 200),27	5077,(0, 210),27	5320,(0, 220),27	5563,(0, 230),27	5806,(0, 240),27	6049,(0, 250),27	6292,(0, 260),27	6535,(0, 270),27	6778,(0, 280),27	7021,(0, 290),27	7264,(0, 300),27	7507,(0, 310),27	7750,(0, 320),27	7993,(0, 330),27	8236,(0, 340),27	8479,(0, 350),27	8722,(0, 360),27	8965,(0, 370),27	9208,(0, 380),27	9451,(0, 390),27	9694,(0, 400),27	9937,(0, 410),27	10180,(0, 420),27	10423,(0, 430),27	10666,(0, 440),27	10909,(0, 450),27	11152,(0, 460),27	11395,(0, 470),27	11638,(0, 480),27	11881,(0, 490),27	12124,(0, 500),27	
190,(0, 9),27	433,(0, 19),27	676,(0, 29),27	919,(0, 39),27	1162,(0, 49),27	1405,(0, 59),27	1648,(0, 69),27	1891,(0, 79),27	2134,(0, 89),27	2377,(0, 99),27	2620,(0, 109),27	2863,(0, 119),27	3106,(0, 129),27	3349,(0, 139),27	3592,(0, 149),27	3835,(0, 159),27	4078,(0, 169),27	4321,(0, 179),27	4564,(0, 189),27	4807,(0, 199),27	5050,(0, 209),27	5293,(0, 219),27	5536,(0, 229),27	5779,(0, 239),27	6022,(0, 249),27	6265,(0, 259),27	6508,(0, 269),27	6751,(0, 279),27	6994,(0, 289),27	7237,(0, 299),27	7480,(0, 309),27	7723,(0, 319),27	7966,(0, 329),27	8209,(0, 339),27	8452,(0, 349),27	8695,(0, 359),27	8938,(0, 369),27	9181,(0, 379),27	9424,(0, 389),27	9667,(0, 399),27	9910,(0, 409),27	10153,(0, 419),27	10396,(0, 429),27	10639,(0, 439),27	10882,(0, 449),27	11125,(0, 459),27	11368,(0, 469),27	11611,(0, 479),27	11854,(0, 489),27	12097,(0, 499),27	
163,(0, 8),27	406,(0, 18),27	649,(0, 28),27	892,(0, 38),27	1135,(0, 48),27	1378,(0, 58),27	1621,(0, 68),27	1864,(0, 78),27	2107,(0, 88),27	2350,(0, 98),27	2593,(0, 108),27	2836,(0, 118),27	3079,(0, 128),27	3322,(0, 138),27	3565,(0, 148),27	3808,(0, 158),27	4051,(0, 168),27	4294,(0, 178),27	4537,(0, 188),27	4780,(0, 198),27	5023,(0, 208),27	5266,(0, 218),27	5509,(0, 228),27	5752,(0, 238),27	5995,(0, 248),27	6238,(0, 258),27	6481,(0, 268),27	6724,(0, 278),27	6967,(0, 288),27	7210,(0, 298),27	7453,(0, 308),27	7696,(0, 318),27	7939,(0, 328),27	8182,(0, 338),27	8425,(0, 348),27	8668,(0, 358),27	8911,(0, 368),27	9154,(0, 378),27	9397,(0, 388),27	9640,(0, 398),27	9883,(0, 408),27	10126,(0, 418),27	10369,(0, 428),27	10612,(0, 438),27	10855,(0, 448),27	11098,(0, 458),27	11341,(0, 468),27	11584,(0, 478),27	11827,(0, 488),27	12070,(0, 498),27	
136,(0, 7),27	379,(0, 17),27	622,(0, 27),27	865,(0, 37),27	1108,(0, 47),27	1351,(0, 57),27	1594,(0, 67),27	1837,(0, 77),27	2080,(0, 87),27	2323,(0, 97),27	2566,(0, 107),27	2809,(0, 117),27	3052,(0, 127),27	3295,(0, 137),27	3538,(0, 147),27	3781,(0, 157),27	4024,(0, 167),27	4267,(0, 177),27	4510,(0, 187),27	4753,(0, 197),27	4996,(0, 207),27	5239,(0, 217),27	5482,(0, 227),27	5725,(0, 237),27	5968,(0, 247),27	6211,(0, 257),27	6454,(0, 267),27	6697,(0, 277),27	6940,(0, 287),27	7183,(0, 297),27	7426,(0, 307),27	7669,(0, 317),27	7912,(0, 327),27	8155,(0, 337),27	8398,(0, 347),27	8641,(0, 357),27	8884,(0, 367),27	9127,(0, 377),27	9370,(0, 387),27	9613,(0, 397),27	9856,(0, 407),27	10099,(0, 417),27	10342,(0, 427),27	10585,(0, 437),27	10828,(0, 447),27	11071,(0, 457),27	11314,(0, 467),27	11557,(0, 477),27	11800,(0, 487),27	12043,(0, 497),27	
109,(0, 6),27	352,(0, 16),27	595,(0, 26),27	838,(0, 36),27	1081,(0, 46),27	1324,(0, 56),27	1567,(0, 66),27	1810,(0, 76),27	2053,(0, 86),27	2296,(0, 96),27	2539,(0, 106),27	2782,(0, 116),27	3025,(0, 126),27	3268,(0, 136),27	3511,(0, 146),27	3754,(0, 156),27	3997,(0, 166),27	4240,(0, 176),27	4483,(0, 186),27	4726,(0, 196),27	4969,(0, 206),27	5212,(0, 216),27	5455,(0, 226),27	5698,(0, 236),27	5941,(0, 246),27	6184,(0, 256),27	6427,(0, 266),27	6670,(0, 276),27	6913,(0, 286),27	7156,(0, 296),27	7399,(0, 306),27	7642,(0, 316),27	7885,(0, 326),27	8128,(0, 336),27	8371,(0, 346),27	8614,(0, 356),27	8857,(0, 366),27	9100,(0, 376),27	9343,(0, 386),27	9586,(0, 396),27	9829,(0, 406),27	10072,(0, 416),27	10315,(0, 426),27	10558,(0, 436),27	10801,(0, 446),27	11044,(0, 456),27	11287,(0, 466),27	11530,(0, 476),27	11773,(0, 486),27	12016,(0, 496),27	
82,(0, 5),27	325,(0, 15),27	568,(0, 25),27	811,(0, 35),27	1054,(0, 45),27	1297,(0, 55),27	1540,(0, 65),27	1783,(0, 75),27	2026,(0, 85),27	2269,(0, 95),27	2512,(0, 105),27	2755,(0, 115),27	2998,(0, 125),27	3241,(0, 135),27	3484,(0, 145),27	3727,(0, 155),27	3970,(0, 165),27	4213,(0, 175),27	4456,(0, 185),27	4699,(0, 195),27	4942,(0, 205),27	5185,(0, 215),27	5428,(0, 225),27	5671,(0, 235),27	5914,(0, 245),27	6157,(0, 255),27	6400,(0, 265),27	6643,(0, 275),27	6886,(0, 285),27	7129,(0, 295),27	7372,(0, 305),27	7615,(0, 315),27	7858,(0, 325),27	8101,(0, 335),27	8344,(0, 345),27	8587,(0, 355),27	8830,(0, 365),27	9073,(0, 375),27	9316,(0, 385),27	9559,(0, 395),27	9802,(0, 405),27	10045,(0, 415),27	10288,(0, 425),27	10531,(0, 435),27	10774,(0, 445),27	11017,(0, 455),27	11260,(0, 465),27	11503,(0, 475),27	11746,(0, 485),27	11989,(0, 495),27	
55,(0, 4),27	298,(0, 14),27	541,(0, 24),27	784,(0, 34),27	1027,(0, 44),27	1270,(0, 54),27	1513,(0, 64),27	1756,(0, 74),27	1999,(0, 84),27	2242,(0, 94),27	2485,(0, 104),27	2728,(0, 114),27	2971,(0, 124),27	3214,(0, 134),27	3457,(0, 144),27	3700,(0, 154),27	3943,(0, 164),27	4186,(0, 174),27	4429,(0, 184),27	4672,(0, 194),27	4915,(0, 204),27	5158,(0, 214),27	5401,(0, 224),27	5644,(0, 234),27	5887,(0, 244),27	6130,(0, 254),27	6373,(0, 264),27	6616,(0, 274),27	6859,(0, 284),27	7102,(0, 294),27	7345,(0, 304),27	7588,(0, 314),27	7831,(0, 324),27	8074,(0, 334),27	8317,(0, 344),27	8560,(0, 354),27	8803,(0, 364),27	9046,(0, 374),27	9289,(0, 384),27	9532,(0, 394),27	9775,(0, 404),27	10018,(0, 414),27	10261,(0, 424),27	10504,(0, 434),27	10747,(0, 444),27	10990,(0, 454),27	11233,(0, 464),27	11476,(0, 474),27	11719,(0, 484),27	11962,(0, 494),27	
28,(0, 3),27	271,(0, 13),27	514,(0, 23),27	757,(0, 33),27	1000,(0, 43),27	1243,(0, 53),27	1486,(0, 63),27	1729,(0, 73),27	1972,(0, 83),27	2215,(0, 93),27	2458,(0, 103),27	2701,(0, 113),27	2944,(0, 123),27	3187,(0, 133),27	3430,(0, 143),27	3673,(0, 153),27	3916,(0, 163),27	4159,(0, 173),27	4402,(0, 183),27	4645,(0, 193),27	4888,(0, 203),27	5131,(0, 213),27	5374,(0, 223),27	5617,(0, 233),27	5860,(0, 243),27	6103,(0, 253),27	6346,(0, 263),27	6589,(0, 273),27	6832,(0, 283),27	7075,(0, 293),27	7318,(0, 303),27	7561,(0, 313),27	7804,(0, 323),27	8047,(0, 333),27	8290,(0, 343),27	8533,(0, 353),27	8776,(0, 363),27	9019,(0, 373),27	9262,(0, 383),27	9505,(0, 393),27	9748,(0, 403),27	9991,(0, 413),27	10234,(0, 423),27	10477,(0, 433),27	10720,(0, 443),27	10963,(0, 453),27	11206,(0, 463),27	11449,(0, 473),27	11692,(0, 483),27	11935,(0, 493),27	
1,(0, 2),27	244,(0, 12),27	487,(0, 22),27	730,(0, 32),27	973,(0, 42),27	1216,(0, 52),27	1459,(0, 62),27	1702,(0, 72),27	1945,(0, 82),27	2188,(0, 92),27	2431,(0, 102),27	2674,(0, 112),27	2917,(0, 122),27	3160,(0, 132),27	3403,(0, 142),27	3646,(0, 152),27	3889,(0, 162),27	4132,(0, 172),27	4375,(0, 182),27	4618,(0, 192),27	4861,(0, 202),27	5104,(0, 212),27	5347,(0, 222),27	5590,(0, 232),27	5833,(0, 242),27	6076,(0, 252),27	6319,(0, 262),27	6562,(0, 272),27	6805,(0, 282),27	7048,(0, 292),27	7291,(0, 302),27	7534,(0, 312),27	7777,(0, 322),27	8020,(0, 332),27	8263,(0, 342),27	8506,(0, 352),27	8749,(0, 362),27	8992,(0, 372),27	9235,(0, 382),27	9478,(0, 392),27	9721,(0, 402),27	9964,(0, 412),27	10207,(0, 422),27	10450,(0, 432),27	10693,(0, 442),27	10936,(0, 452),27	11179,(0, 462),27	11422,(0, 472),27	11665,(0, 482),27	11908,(0, 492),27	
30,(2, 501),243	273,(3, 501),243	516,(4, 501),243	759,(5, 501),243	1002,(6, 501),243	1245,(7, 501),243	1488,(8, 501),243	1731,(9, 501),243	1974,(10, 501),243	2217,(12, 501),243	2460,(13, 501),243	2703,(14, 501),243	2946,(15, 501),243	3189,(16, 501),243	3432,(17, 501),243	3675,(18, 501),243	3918,(19, 501),243	4161,(20, 501),243	4404,(22, 501),243	4647,(23, 501),243	4890,(24, 501),243	5133,(25, 501),243	5376,(26, 501),243	5619,(27, 501),243	5862,(28, 501),243	6105,(29, 501),243	6348,(30, 501),243	6591,(32, 501),243	6834,(33, 501),243	7077,(34, 501),243	7320,(35, 501),243	7563,(36, 501),243	7806,(37, 501),243	8049,(38, 501),243	8292,(39, 501),243	8535,(40, 501),243	8778,(42, 501),243	9021,(43, 501),243	9264,(44, 501),243	9507,(45, 501),243	9750,(46, 501),243	9993,(47, 501),243	10236,(48, 501),243	10479,(49, 501),243	10722,(50, 501),243	10965,(52, 501),243	11208,(53, 501),243	11451,(54, 501),243	11694,(55, 501),243	11937,(56, 501),243	12180,(57, 501),243	12423,(58, 501),243	12666,(59, 501),243	12909,(60, 501),243	13152,(62, 501),243	13395,(63, 501),243	13638,(64, 501),243	13881,(65, 501),243	14124,(66, 501),243	14367,(67, 501),243	14610,(68, 501),243	14853,(69, 501),243	15096,(70, 501),243	15339,(72, 501),243	15582,(73, 501),243	15825,(74, 501),243	16068,(75, 501),243	16311,(76, 501),243	16554,(77, 501),243	16797,(78, 501),243	17040,(79, 501),243	17283,(80, 501),243	17526,(82, 501),243	17769,(83, 501),243	18012,(84, 501),243	18255,(85, 501),243	18498,(86, 501),243	18741,(87, 501),243	18984,(88, 501),243	19227,(89, 501),243	19470,(90, 501),243	19713,(92, 501),243	19956,(93, 501),243	20199,(94, 501),243	20442,(95, 501),243	20685,(96, 501),243	20928,(97, 501),243	21171,(98, 501),243	21414,(99, 501),243	21657,(100, 501),243	21900,(102, 501),243	22143,(103, 501),243	22386,(104, 501),243	22629,(105, 501),243	22872,(106, 501),243	23115,(107, 501),243	23358,(108, 501),243	23601,(109, 501),243	23844,(110, 501),243	24087,(112, 501),243	24330,(113, 501),243	24573,(114, 501),243	24816,(115, 501),243	25059,(116, 501),243	25302,(117, 501),243	25545,(118, 501),243	25788,(119, 501),243	26031,(120, 501),243	26274,(122, 501),243	26517,(123, 501),243	26760,(124, 501),243	27003,(125, 501),243	27246,(126, 501),243	27489,(127, 501),243	27732,(128, 501),243	27975,(129, 501),243	28218,(130, 501),243	28461,(132, 501),243	28704,(133, 501),243	28947,(134, 501),243	29190,(135, 501),243	29433,(136, 501),243	29676,(137, 501),243	29919,(138, 501),243	30162,(139, 501),243	30405,(140, 501),243	30648,(142, 501),243	30891,(143, 501),243	31134,(144, 501),243	31377,(145, 501),243	31620,(146, 501),243	31863,(147, 501),243	32106,(148, 501),243	32349,(149, 501),243	32592,(150, 501),243	32835,(152, 501),243	33078,(153, 501),243	33321,(154, 501),243	33564,(155, 501),243	33807,(156, 501),243	34050,(157, 501),243	34293,(158, 501),243	34536,(159, 501),243	34779,(160, 501),243	35022,(162, 501),243	35265,(163, 501),243	35508,(164, 501),243	35751,(165, 501),243	35994,(166, 501),243	36237,(167, 501),243	36480,(168, 501),243	36723,(169, 501),243	36966,(170, 501),243	37209,(172, 501),243	37452,(173, 501),243	37695,(174, 501),243	37938,(175, 501),243	38181,(176, 501),243	38424,(177, 501),243	38667,(178, 501),243	38910,(179, 501),243	39153,(180, 501),243	39396,(182, 501),243	39639,(183, 501),243	39882,(184, 501),243	40125,(185, 501),243	40368,(186, 501),243	40611,(187, 501),243	40854,(188, 501),243	41097,(189, 501),243	41340,(190, 501),243	41583,(192, 501),243	41826,(193, 501),243	42069,(194, 501),243	42312,(195, 501),243	42555,(196, 501),243	42798,(197, 501),243	43041,(198, 501),243	43284,(199, 501),243	43527,(200, 501),243	43770,(202, 501),243	44013,(203, 501),243	44256,(204, 501),243	44499,(205, 501),243	44742,(206, 501),243	44985,(207, 501),243	45228,(208, 501),243	45471,(209, 501),243	45714,(210, 501),243	45957,(212, 501),243	46200,(213, 501),243	46443,(214, 501),243	46686,(215, 501),243	46929,(216, 501),243	47172,(217, 501),243	47415,(218, 501),243	47658,(219, 501),243	47901,(220, 501),243	48144,(222, 501),243	48387,(223, 501),243	48630,(224, 501),243	48873,(225, 501),243	49116,(226, 501),243	49359,(227, 501),243	49602,(228, 501),243	49845,(229, 501),243	50088,(230, 501),243	50331,(232, 501),243	50574,(233, 501),243	50817,(234, 501),243	51060,(235, 501),243	51303,(236, 501),243	51546,(237, 501),243	51789,(238, 501),243	52032,(239, 501),243	52275,(240, 501),243	52518,(242, 501),243	52761,(243, 501),243	53004,(244, 501),243	53247,(245, 501),243	53490,(246, 501),243	53733,(247, 501),243	53976,(248, 501),243	54219,(249, 501),243	54462,(250, 501),243	54705,(252, 501),243	54948,(253, 501),243	55191,(254, 501),243	55434,(255, 501),243	55677,(256, 501),243	55920,(257, 501),243	56163,(258, 501),243	56406,(259, 501),243	56649,(260, 501),243	56892,(262, 501),243	57135,(263, 501),243	57378,(264, 501),243	57621,(265, 501),243	57864,(266, 501),243	58107,(267, 501),243	58350,(268, 501),243	58593,(269, 501),243	58836,(270, 501),243	59079,(272, 501),243	59322,(273, 501),243	59565,(274, 501),243	59808,(275, 501),243	60051,(276, 501),243	60294,(277, 501),243	60537,(278, 501),243	60780,(279, 501),243	61023,(280, 501),243	61266,(282, 501),243	61509,(283, 501),243	61752,(284, 501),243	61995,(285, 501),243	62238,(286, 501),243	62481,(287, 501),243	62724,(288, 501),243	62967,(289, 501),243	63210,(290, 501),243	63453,(292, 501),243	63696,(293, 501),243	63939,(294, 501),243	64182,(295, 501),243	64425,(296, 501),243	64668,(297, 501),243	64911,(298, 501),243	65154,(299, 501),243	65397,(300, 501),243	65640,(302, 501),243	65883,(303, 501),243	66126,(304, 501),243	66369,(305, 501),243	66612,(306, 501),243	66855,(307, 501),243	67098,(308, 501),243	67341,(309, 501),243	67584,(310, 501),243	67827,(312, 501),243	68070,(313, 501),243	68313,(314, 501),243	68556,(315, 501),243	68799,(316, 501),243	69042,(317, 501),243	69285,(318, 501),243	69528,(319, 501),243	69771,(320, 501),243	70014,(322, 501),243	70257,(323, 501),243	70500,(324, 501),243	70743,(325, 501),243	70986,(326, 501),243	71229,(327, 501),243	71472,(328, 501),243	71715,(329, 501),243	71958,(330, 501),243	72201,(332, 501),243	72444,(333, 501),243	72687,(334, 501),243	72930,(335, 501),243	73173,(336, 501),243	73416,(337, 501),243	73659,(338, 501),243	73902,(339, 501),243	74145,(340, 501),243	74388,(342, 501),243	74631,(343, 501),243	74874,(344, 501),243	75117,(345, 501),243	75360,(346, 501),243	75603,(347, 501),243	75846,(348, 501),243	76089,(349, 501),243	76332,(350, 501),243	76575,(352, 501),243	76818,(353, 501),243	77061,(354, 501),243	77304,(355, 501),243	77547,(356, 501),243	77790,(357, 501),243	78033,(358, 501),243	78276,(359, 501),243	78519,(360, 501),243	78762,(362, 501),243	79005,(363, 501),243	79248,(364, 501),243	79491,(365, 501),243	79734,(366, 501),243	79977,(367, 501),243	80220,(368, 501),243	80463,(369, 501),243	80706,(370, 501),243	80949,(372, 501),243	81192,(373, 501),243	81435,(374, 501),243	81678,(375, 501),243	81921,(376, 501),243	82164,(377, 501),243	82407,(378, 501),243	82650,(379, 501),243	82893,(380, 501),243	83136,(382, 501),243	83379,(383, 501),243	83622,(384, 501),243	83865,(385, 501),243	84108,(386, 501),243	84351,(387, 501),243	84594,(388, 501),243	84837,(389, 501),243	85080,(390, 501),243	85323,(392, 501),243	85566,(393, 501),243	85809,(394, 501),243	86052,(395, 501),243	86295,(396, 501),243	86538,(397, 501),243	86781,(398, 501),243	87024,(399, 501),243	87267,(400, 501),243	87510,(402, 501),243	87753,(403, 501),243	87996,(404, 501),243	88239,(405, 501),243	88482,(406, 501),243	88725,(407, 501),243	88968,(408, 501),243	89211,(409, 501),243	89454,(410, 501),243	89697,(412, 501),243	89940,(413, 501),243	90183,(414, 501),243	90426,(415, 501),243	90669,(416, 501),243	90912,(417, 501),243	91155,(418, 501),243	91398,(419, 501),243	91641,(420, 501),243	91884,(422, 501),243	92127,(423, 501),243	92370,(424, 501),243	92613,(425, 501),243	92856,(426, 501),243	93099,(427, 501),243	93342,(428, 501),243	93585,(429, 501),243	93828,(430, 501),243	94071,(432, 501),243	94314,(433, 501),243	94557,(434, 501),243	94800,(435, 501),243	95043,(436, 501),243	95286,(437, 501),243	95529,(438, 501),243	95772,(439, 501),243	96015,(440, 501),243	96258,(442, 501),243	96501,(443, 501),243	96744,(444, 501),243	96987,(445, 501),243	97230,(446, 501),243	97473,(447, 501),243	97716,(448, 501),243	97959,(449, 501),243	98202,(450, 501),243	98445,(452, 501),243	98688,(453, 501),243	98931,(454, 501),243	99174,(455, 501),243	99417,(456, 501),243	99660,(457, 501),243	99903,(458, 501),243	100146,(459, 501),243	100389,(460, 501),243	100632,(462, 501),243	100875,(463, 501),243	101118,(464, 501),243	101361,(465, 501),243	101604,(466, 501),243	101847,(467, 501),243	102090,(468, 501),243	102333,(469, 501),243	102576,(470, 501),243	102819,(472, 501),243	103062,(473, 501),243	103305,(474, 501),243	103548,(475, 501),243	103791,(476, 501),243	104034,(477, 501),243	104277,(478, 501),243	104520,(479, 501),243	104763,(480, 501),243	105006,(482, 501),243	105249,(483, 501),243	105492,(484, 501),243	105735,(485, 501),243	105978,(486, 501),243	106221,(487, 501),243	106464,(488, 501),243	106707,(489, 501),243	106950,(490, 501),243	107193,(492, 501),243	107436,(493, 501),243	107679,(494, 501),243	107922,(495, 501),243	108165,(496, 501),243	108408,(497, 501),243	108651,(498, 501),243	108894,(499, 501),243	109137,(500, 501),243	
# Outgoing
1974,(10, 501),243	4161,(20, 501),243	6348,(30, 501),243	8535,(40, 501),243	10722,(50, 501),243	12909,(60, 501),243	15096,(70, 501),243	17283,(80, 501),243	19470,(90, 501),243	21657,(100, 501),243	23844,(110, 501),243	26031,(120, 501),243	28218,(130, 501),243	30405,(140, 501),243	32592,(150, 501),243	34779,(160, 501),243	36966,(170, 501),243	39153,(180, 501),243	41340,(190, 501),243	43527,(200, 501),243	45714,(210, 501),243	47901,(220, 501),243	50088,(230, 501),243	52275,(240, 501),243	54462,(250, 501),243	56649,(260, 501),243	58836,(270, 501),243	61023,(280, 501),243	63210,(290, 501),243	65397,(300, 501),243	67584,(310, 501),243	69771,(320, 501),243	71958,(330, 501),243	74145,(340, 501),243	76332,(350, 501),243	78519,(360, 501),243	80706,(370, 501),243	82893,(380, 501),243	85080,(390, 501),243	87267,(400, 501),243	89454,(410, 501),243	91641,(420, 501),243	93828,(430, 501),243	96015,(440, 501),243	98202,(450, 501),243	100389,(460, 501),243	102576,(470, 501),243	104763,(480, 501),243	106950,(490, 501),243	109137,(500, 501),243	
1731,(9, 501),243	3918,(19, 501),243	6105,(29, 501),243	8292,(39, 501),243	10479,(49, 501),243	12666,(59, 501),243	14853,(69, 501),243	17040,(79, 501),243	19227,(89, 501),243	21414,(99, 501),243	23601,(109, 501),243	25788,(119, 501),243	27975,(129, 501),243	30162,(139, 501),243	32349,(149, 501),243	34536,(159, 501),243	36723,(169, 501),243	38910,(179, 501),243	41097,(189, 501),243	43284,(199, 501),243	45471,(209, 501),243	47658,(219, 501),243	49845,(229, 501),243	52032,(239, 501),243	54219,(249, 501),243	56406,(259, 501),243	58593,(269, 501),243	60780,(279, 501),243	62967,(289, 501),243	65154,(299, 501),243	67341,(309, 501),243	69528,(319, 501),243	71715,(329, 501),243	73902,(339, 501),243	76089,(349, 501),243	78276,(359, 501),243	80463,(369, 501),243	82650,(379, 501),243	84837,(389, 501),243	87024,(399, 501),243	89211,(409, 501),243	91398,(419, 501),243	93585,(429, 501),243	95772,(439, 501),243	97959,(449, 501),243	100146,(459, 501),243	102333,(469, 501),243	104520,(479, 501),243	106707,(489, 501),243	108894,(499, 501),243	
1488,(8, 501),243	3675,(18, 501),243	5862,(28, 501),243	8049,(38, 501),243	10236,(48, 501),243	12423,(58, 501),243	14610,(68, 501),243	16797,(78, 501),243	18984,(88, 501),243	21171,(98, 501),243	23358,(108, 501),243	25545,(118, 501),243	27732,(128, 501),243	29919,(138, 501),243	32106,(148, 501),243	34293,(158, 501),243	36480,(168, 501),243	38667,(178, 501),243	40854,(188, 501),243	43041,(198, 501),243	45228,(208, 501),243	47415,(218, 501),243	49602,(228, 501),243	51789,(238, 501),243	53976,(248, 501),243	56163,(258, 501),243	58350,(268, 501),243	60537,(278, 501),243	62724,(288, 501),243	64911,(298, 501),243	67098,(308, 501),243	69285,(318, 501),243	71472,(328, 501),243	73659,(338, 501),243	75846,(348, 501),243	78033,(358, 501),243	80220,(368, 501),243	82407,(378, 501),243	84594,(388, 501),243	86781,(398, 501),243	88968,(408, 501),243	91155,(418, 501),243	93342,(428, 501),243	95529,(438, 501),243	97716,(448, 501),243	99903,(458, 501),243	102090,(468, 501),243	104277,(478, 501),243	106464,(488, 501),243	108651,(498, 501),243	
1245,(7, 501),243	3432,(17, 501),243	5619,(27, 501),243	7806,(37, 501),243	9993,(47, 501),243	12180,(57, 501),243	14367,(67, 501),243	16554,(77, 501),243	18741,(87, 501),243	20928,(97, 501),243	23115,(107, 501),243	25302,(117, 501),243	27489,(127, 501),243	29676,(137, 501),243	31863,(147, 501),243	34050,(157, 501),243	36237,(167, 501),243	38424,(177, 501),243	40611,(187, 501),243	42798,(197, 501),243	44985,(207, 501),243	47172,(217, 501),243	49359,(227, 501),243	51546,(237, 501),243	53733,(247, 501),243	55920,(257, 501),243	58107,(267, 501),243	60294,(277, 501),243	62481,(287, 501),243	64668,(297, 501),243	66855,(307, 501),243	69042,(317, 501),243	71229,(327, 501),243	73416,(337, 501),243	75603,(347, 501),243	77790,(357, 501),243	79977,(367, 501),243	82164,(377, 501),243	84351,(387, 501),243	86538,(397, 501),243	88725,(407, 501),243	90912,(417, 501),243	93099,(427, 501),243	95286,(437, 501),243	97473,(447, 501),243	99660,(457, 501),243	101847,(467, 501),243	104034,(477, 501),243	106221,(487, 501),243	108408,(497, 501),243	
1002,(6, 501),243	3189,(16, 501),243	5376,(26, 501),243	7563,(36, 501),243	9750,(46, 501),243	11937,(56, 501),243	14124,(66, 501),243	16311,(76, 501),243	18498,(86, 501),243	20685,(96, 501),243	22872,(106, 501),243	25059,(116, 501),243	27246,(126, 501),243	29433,(136, 501),243	31620,(146, 501),243	33807,(156, 501),243	35994,(166, 501),243	38181,(176, 501),243	40368,(186, 501),243	42555,(196, 501),243	44742,(206, 501),243	46929,(216, 501),243	49116,(226, 501),243	51303,(236, 501),243	53490,(246, 501),243	55677,(256, 501),243	57864,(266, 501),243	60051,(276, 501),243	62238,(286, 501),243	64425,(296, 501),243	66612,(306, 501),243	68799,(316, 501),243	70986,(326, 501),243	73173,(336, 501),243	75360,(346, 501),243	77547,(356, 501),243	79734,(366, 501),243	81921,(376, 501),243	84108,(386, 501),243	86295,(396, 501),243	88482,(406, 501),243	90669,(416, 501),243	92856,(426, 501),243	95043,(436, 501),243	97230,(446, 501),243	99417,(456, 501),243	101604,(466, 501),243	103791,(476, 501),243	105978,(486, 501),243	108165,(496, 501),243	
759,(5, 501),243	2946,(15, 501),243	5133,(25, 501),243	7320,(35, 501),243	9507,(45, 501),243	11694,(55, 501),243	13881,(65, 501),243	16068,(75, 501),243	18255,(85, 501),243	20442,(95, 501),243	22629,(105, 501),243	24816,(115, 501),243	27003,(125, 501),243	29190,(135, 501),243	31377,(145, 501),243	33564,(155, 501),243	35751,(165, 501),243	37938,(175, 501),243	40125,(185, 501),243	42312,(195, 501),243	44499,(205, 501),243	46686,(215, 501),243	48873,(225, 501),243	51060,(235, 501),243	53247,(245, 501),243	55434,(255, 501),243	57621,(265, 501),243	59808,(275, 501),243	61995,(285, 501),243	64182,(295, 501),243	66369,(305, 501),243	68556,(315, 501),243	70743,(325, 501),243	72930,(335, 501),243	75117,(345, 501),243	77304,(355, 501),243	79491,(365, 501),243	81678,(375, 501),243	83865,(385, 501),243	86052,(395, 501),243	88239,(405, 501),243	90426,(415, 501),243	92613,(425, 501),243	94800,(435, 501),243	96987,(445, 501),243	99174,(455, 501),243	101361,(465, 501),243	103548,(475, 501),243	105735,(485, 501),243	107922,(495, 501),243	
516,(4, 501),243	2703,(14, 501),243	4890,(24, 501),243	7077,(34, 501),243	9264,(44, 501),243	11451,(54, 501),243	13638,(64, 501),243	15825,(74, 501),243	18012,(84, 501),243	20199,(94, 501),243	22386,(104, 501),243	24573,(114, 501),243	26760,(124, 501),243	28947,(134, 501),243	31134,(144, 501),243	33321,(154, 501),243	35508,(164, 501),243	37695,(174, 501),243	39882,(184, 501),243	42069,(194, 501),243	44256,(204, 501),243	46443,(214, 501),243	48630,(224, 501),243	50817,(234, 501),243	53004,(244, 501),243	55191,(254, 501),243	57378,(264, 501),243	59565,(274, 501),243	61752,(284, 501),243	63939,(294, 501),243	66126,(304, 501),243	68313,(314, 501),243	70500,(324, 501),243	72687,(334, 501),243	74874,(344, 501),243	77061,(354, 501),243	79248,(364, 501),243	81435,(374, 501),243	83622,(384, 501),243	85809,(394, 501),243	87996,(404, 501),243	90183,(414, 501),243	92370,(424, 501),243	94557,(434, 501),243	96744,(444, 501),243	98931,(454, 501),243	101118,(464, 501),243	103305,(474, 501),243	105492,(484, 501),243	107679,(494, 501),243	
273,(3, 501),243	2460,(13, 501),243	4647,(23, 501),243	6834,(33, 501),243	9021,(43, 501),243	11208,(53, 501),243	13395,(63, 501),243	15582,(73, 501),243	17769,(83, 501),243	19956,(93, 501),243	22143,(103, 501),243	24330,(113, 501),243	26517,(123, 501),243	28704,(133, 501),243	30891,(143, 501),243	33078,(153, 501),243	35265,(163, 501),243	37452,(173, 501),243	39639,(183, 501),243	41826,(193, 501),243	44013,(203, 501),243	46200,(213, 501),243	48387,(223, 501),243	50574,(233, 501),243	52761,(243, 501),243	54948,(253, 501),243	57135,(263, 501),243	59322,(273, 501),243	61509,(283, 501),243	63696,(293, 501),243	65883,(303, 501),243	68070,(313, 501),243	70257,(323, 501),243	72444,(333, 501),243	74631,(343, 501),243	76818,(353, 501),243	79005,(363, 501),243	81192,(373, 501),243	83379,(383, 501),243	85566,(393, 501),243	87753,(403, 501),243	89940,(413, 501),243	92127,(423, 501),243	94314,(433, 501),243	96501,(443, 501),243	98688,(453, 501),243	100875,(463, 501),243	103062,(473, 501),243	105249,(483, 501),243	107436,(493, 501),243	
30,(2, 501),243	2217,(12, 501),243	4404,(22, 501),243	6591,(32, 501),243	8778,(42, 501),243	10965,(52, 501),243	13152,(62, 501),243	15339,(72, 501),243	17526,(82, 501),243	19713,(92, 501),243	21900,(102, 501),243	24087,(112, 501),243	26274,(122, 501),243	28461,(132, 501),243	30648,(142, 501),243	32835,(152, 501),243	35022,(162, 501),243	37209,(172, 501),243	39396,(182, 501),243	41583,(192, 501),243	43770,(202, 501),243	45957,(212, 501),243	48144,(222, 501),243	50331,(232, 501),243	52518,(242, 501),243	54705,(252, 501),243	56892,(262, 501),243	59079,(272, 501),243	61266,(282, 501),243	63453,(292, 501),243	65640,(302, 501),243	67827,(312, 501),243	70014,(322, 501),243	72201,(332, 501),243	74388,(342, 501),243	76575,(352, 501),243	78762,(362, 501),243	80949,(372, 501),243	83136,(382, 501),243	85323,(392, 501),243	87510,(402, 501),243	89697,(412, 501),243	91884,(422, 501),243	94071,(432, 501),243	96258,(442, 501),243	98445,(452, 501),243	100632,(462, 501),243	102819,(472, 501),243	105006,(482, 501),243	107193,(492, 501),243	
1,(0, 2),27	28,(0, 3),27	55,(0, 4),27	82,(0, 5),27	109,(0, 6),27	136,(0, 7),27	163,(0, 8),27	190,(0, 9),27	217,(0, 10),27	244,(0, 12),27	271,(0, 13),27	298,(0, 14),27	325,(0, 15),27	352,(0, 16),27	379,(0, 17),27	406,(0, 18),27	433,(0, 19),27	460,(0, 20),27	487,(0, 22),27	514,(0, 23),27	541,(0, 24),27	568,(0, 25),27	595,(0, 26),27	622,(0, 27),27	649,(0, 28),27	676,(0, 29),27	703,(0, 30),27	730,(0, 32),27	757,(0, 33),27	784,(0, 34),27	811,(0, 35),27	838,(0, 36),27	865,(0, 37),27	892,(0, 38),27	919,(0, 39),27	946,(0, 40),27	973,(0, 42),27	1000,(0, 43),27	1027,(0, 44),27	1054,(0, 45),27	1081,(0, 46),27	1108,(0, 47),27	1135,(0, 48),27	1162,(0, 49),27	1189,(0, 50),27	1216,(0, 52),27	1243,(0, 53),27	1270,(0, 54),27	1297,(0, 55),27	1324,(0, 56),27	1351,(0, 57),27	1378,(0, 58),27	1405,(0, 59),27	1432,(0, 60),27	1459,(0, 62),27	1486,(0, 63),27	1513,(0, 64),27	1540,(0, 65),27	1567,(0, 66),27	1594,(0, 67),27	1621,(0, 68),27	1648,(0, 69),27	1675,(0, 70),27	1702,(0, 72),27	1729,(0, 73),27	1756,(0, 74),27	1783,(0, 75),27	1810,(0, 76),27	1837,(0, 77),27	1864,(0, 78),27	1891,(0, 79),27	1918,(0, 80),27	1945,(0, 82),27	1972,(0, 83),27	1999,(0, 84),27	2026,(0, 85),27	2053,(0, 86),27	2080,(0, 87),27	2107,(0, 88),27	2134,(0, 89),27	2161,(0, 90),27	2188,(0, 92),27	2215,(0, 93),27	2242,(0, 94),27	2269,(0, 95),27	2296,(0, 96),27	2323,(0, 97),27	2350,(0, 98),27	2377,(0, 99),27	2404,(0, 100),27	2431,(0, 102),27	2458,(0, 103),27	2485,(0, 104),27	2512,(0, 105),27	2539,(0, 106),27	2566,(0, 107),27	2593,(0, 108),27	2620,(0, 109),27	2647,(0, 110),27	2674,(0, 112),27	2701,(0, 113),27	2728,(0, 114),27	2755,(0, 115),27	2782,(0, 116),27	2809,(0, 117),27	2836,(0, 118),27	2863,(0, 119),27	2890,(0, 120),27	2917,(0, 122),27	2944,(0, 123),27	2971,(0, 124),27	2998,(0, 125),27	3025,(0, 126),27	3052,(0, 127),27	3079,(0, 128),27	3106,(0, 129),27	3133,(0, 130),27	3160,(0, 132),27	3187,(0, 133),27	3214,(0, 134),27	3241,(0, 135),27	3268,(0, 136),27	3295,(0, 137),27	3322,(0, 138),27	3349,(0, 139),27	3376,(0, 140),27	3403,(0, 142),27	3430,(0, 143),27	3457,(0, 144),27	3484,(0, 145),27	3511,(0, 146),27	3538,(0, 147),27	3565,(0, 148),27	3592,(0, 149),27	3619,(0, 150),27	3646,(0, 152),27	3673,(0, 153),27	3700,(0, 154),27	3727,(0, 155),27	3754,(0, 156),27	3781,(0, 157),27	3808,(0, 158),27	3835,(0, 159),27	3862,(0, 160),27	3889,(0, 162),27	3916,(0, 163),27	3943,(0, 164),27	3970,(0, 165),27	3997,(0, 166),27	4024,(0, 167),27	4051,(0, 168),27	4078,(0, 169),27	4105,(0, 170),27	4132,(0, 172),27	4159,(0, 173),27	4186,(0, 174),27	4213,(0, 175),27	4240,(0, 176),27	4267,(0, 177),27	4294,(0, 178),27	4321,(0, 179),27	4348,(0, 180),27	4375,(0, 182),27	4402,(0, 183),27	4429,(0, 184),27	4456,(0, 185),27	4483,(0, 186),27	4510,(0, 187),27	4537,(0, 188),27	4564,(0, 189),27	4591,(0, 190),27	4618,(0, 192),27	4645,(0, 193),27	4672,(0, 194),27	4699,(0, 195),27	4726,(0, 196),27	4753,(0, 197),27	4780,(0, 198),27	4807,(0, 199),27	4834,(0, 200),27	4861,(0, 202),27	4888,(0, 203),27	4915,(0, 204),27	4942,(0, 205),27	4969,(0, 206),27	4996,(0, 207),27	5023,(0, 208),27	5050,(0, 209),27	5077,(0, 210),27	5104,(0, 212),27	5131,(0, 213),27	5158,(0, 214),27	5185,(0, 215),27	5212,(0, 216),27	5239,(0, 217),27	5266,(0, 218),27	5293,(0, 219),27	5320,(0, 220),27	5347,(0, 222),27	5374,(0, 223),27	5401,(0, 224),27	5428,(0, 225),27	5455,(0, 226),27	5482,(0, 227),27	5509,(0, 228),27	5536,(0, 229),27	5563,(0, 230),27	5590,(0, 232),27	5617,(0, 233),27	5644,(0, 234),27	5671,(0, 235),27	5698,(0, 236),27	5725,(0, 237),27	5752,(0, 238),27	5779,(0, 239),27	5806,(0, 240),27	5833,(0, 242),27	5860,(0, 243),27	5887,(0, 244),27	5914,(0, 245),27	5941,(0, 246),27	5968,(0, 247),27	5995,(0, 248),27	6022,(0, 249),27	6049,(0, 250),27	6076,(0, 252),27	6103,(0, 253),27	6130,(0, 254),27	6157,(0, 255),27	6184,(0, 256),27	6211,(0, 257),27	6238,(0, 258),27	6265,(0, 259),27	6292,(0, 260),27	6319,(0, 262),27	6346,(0, 263),27	6373,(0, 264),27	6400,(0, 265),27	6427,(0, 266),27	6454,(0, 267),27	6481,(0, 268),27	6508,(0, 269),27	6535,(0, 270),27	6562,(0, 272),27	6589,(0, 273),27	6616,(0, 274),27	6643,(0, 275),27	6670,(0, 276),27	6697,(0, 277),27	6724,(0, 278),27	6751,(0, 279),27	6778,(0, 280),27	6805,(0, 282),27	6832,(0, 283),27	6859,(0, 284),27	6886,(0, 285),27	6913,(0, 286),27	6940,(0, 287),27	6967,(0, 288),27	6994,(0, 289),27	7021,(0, 290),27	7048,(0, 292),27	7075,(0, 293),27	7102,(0, 294),27	7129,(0, 295),27	7156,(0, 296),27	7183,(0, 297),27	7210,(0, 298),27	7237,(0, 299),27	7264,(0, 300),27	7291,(0, 302),27	7318,(0, 303),27	7345,(0, 304),27	7372,(0, 305),27	7399,(0, 306),27	7426,(0, 307),27	7453,(0, 308),27	7480,(0, 309),27	7507,(0, 310),27	7534,(0, 312),27	7561,(0, 313),27	7588,(0, 314),27	7615,(0, 315),27	7642,(0, 316),27	7669,(0, 317),27	7696,(0, 318),27	7723,(0, 319),27	7750,(0, 320),27	7777,(0, 322),27	7804,(0, 323),27	7831,(0, 324),27	7858,(0, 325),27	7885,(0, 326),27	7912,(0, 327),27	7939,(0, 328),27	7966,(0, 329),27	7993,(0, 330),27	8020,(0, 332),27	8047,(0, 333),27	8074,(0, 334),27	8101,(0, 335),27	8128,(0, 336),27	8155,(0, 337),27	8182,(0, 338),27	8209,(0, 339),27	8236,(0, 340),27	8263,(0, 342),27	8290,(0, 343),27	8317,(0, 344),27	8344,(0, 345),27	8371,(0, 346),27	8398,(0, 347),27	8425,(0, 348),27	8452,(0, 349),27	8479,(0, 350),27	8506,(0, 352),27	8533,(0, 353),27	8560,(0, 354),27	8587,(0, 355),27	8614,(0, 356),27	8641,(0, 357),27	8668,(0, 358),27	8695,(0, 359),27	8722,(0, 360),27	8749,(0, 362),27	8776,(0, 363),27	8803,(0, 364),27	8830,(0, 365),27	8857,(0, 366),27	8884,(0, 367),27	8911,(0, 368),27	8938,(0, 369),27	8965,(0, 370),27	8992,(0, 372),27	9019,(0, 373),27	9046,(0, 374),27	9073,(0, 375),27	9100,(0, 376),27	9127,(0, 377),27	9154,(0, 378),27	9181,(0, 379),27	9208,(0, 380),27	9235,(0, 382),27	9262,(0, 383),27	9289,(0, 384),27	9316,(0, 385),27	9343,(0, 386),27	9370,(0, 387),27	9397,(0, 388),27	9424,(0, 389),27	9451,(0, 390),27	9478,(0, 392),27	9505,(0, 393),27	9532,(0, 394),27	9559,(0, 395),27	9586,(0, 396),27	9613,(0, 397),27	9640,(0, 398),27	9667,(0, 399),27	9694,(0, 400),27	9721,(0, 402),27	9748,(0, 403),27	9775,(0, 404),27	9802,(0, 405),27	9829,(0, 406),27	9856,(0, 407),27	9883,(0, 408),27	9910,(0, 409),27	9937,(0, 410),27	9964,(0, 412),27	9991,(0, 413),27	10018,(0, 414),27	10045,(0, 415),27	10072,(0, 416),27	10099,(0, 417),27	10126,(0, 418),27	10153,(0, 419),27	10180,(0, 420),27	10207,(0, 422),27	10234,(0, 423),27	10261,(0, 424),27	10288,(0, 425),27	10315,(0, 426),27	10342,(0, 427),27	10369,(0, 428),27	10396,(0, 429),27	10423,(0, 430),27	10450,(0, 432),27	10477,(0, 433),27	10504,(0, 434),27	10531,(0, 435),27	10558,(0, 436),27	10585,(0, 437),27	10612,(0, 438),27	10639,(0, 439),27	10666,(0, 440),27	10693,(0, 442),27	10720,(0, 443),27	10747,(0, 444),27	10774,(0, 445),27	10801,(0, 446),27	10828,(0, 447),27	10855,(0, 448),27	10882,(0, 449),27	10909,(0, 450),27	10936,(0, 452),27	10963,(0, 453),27	10990,(0, 454),27	11017,(0, 455),27	11044,(0, 456),27	11071,(0, 457),27	11098,(0, 458),27	11125,(0, 459),27	11152,(0, 460),27	11179,(0, 462),27	11206,(0, 463),27	11233,(0, 464),27	11260,(0, 465),27	11287,(0, 466),27	11314,(0, 467),27	11341,(0, 468),27	11368,(0, 469),27	11395,(0, 470),27	11422,(0, 472),27	11449,(0, 473),27	11476,(0, 474),27	11503,(0, 475),27	11530,(0, 476),27	11557,(0, 477),27	11584,(0, 478),27	11611,(0, 479),27	11638,(0, 480),27	11665,(0, 482),27	11692,(0, 483),27	11719,(0, 484),27	11746,(0, 485),27	11773,(0, 486),27	11800,(0, 487),27	11827,(0, 488),27	11854,(0, 489),27	11881,(0, 490),27	11908,(0, 492),27	11935,(0, 493),27	11962,(0, 494),27	11989,(0, 495),27	12016,(0, 496),27	12043,(0, 497),27	12070,(0, 498),27	12097,(0, 499),27	12124,(0, 500),27	
