860
# CPU
0,0,1	1,329,2	3,328,2	5,330,2	7,327,2	9,326,2	11,325,2	13,396,2	15,398,2	17,322,2	19,323,2	21,321,2	23,324,2	25,163,2	27,204,2	29,320,2	31,319,2	33,331,2	35,318,2	37,197,2	39,401,2	41,317,2	43,316,2	45,315,2	47,332,2	49,288,2	51,200,2	53,333,2	55,314,2	57,313,2	59,312,2	61,191,2	63,404,2	65,310,2	67,311,2	69,309,2	71,308,2	73,153,2	75,160,2	77,334,2	79,307,2	81,337,2	83,306,2	85,271,2	87,193,2	89,305,2	91,338,2	93,304,2	95,341,2	97,35,2	99,411,2	101,302,2	103,301,2	105,303,2	107,300,2	109,100,2	111,183,2	113,299,2	115,343,2	117,298,2	119,297,2	121,87,2	123,414,2	125,295,2	127,294,2	129,296,2	131,293,2	133,179,2	135,177,2	137,345,2	139,292,2	141,291,2	143,346,2	145,148,2	147,147,2	149,348,2	151,290,2	153,289,2	155,287,2	157,44,2	159,418,2	161,286,2	163,350,2	165,285,2	167,284,2	169,273,2	171,172,2	173,283,2	175,282,2	177,352,2	179,281,2	181,41,2	183,421,2	185,279,2	187,280,2	189,278,2	191,355,2	193,451,2	195,168,2	197,276,2	199,275,2	201,277,2	203,274,2	205,95,2	207,423,2	209,270,2	211,272,2	213,269,2	215,357,2	217,39,2	219,383,2	221,267,2	223,266,2	225,268,2	227,265,2	229,60,2	231,161,2	233,264,2	235,263,2	237,262,2	239,358,2	241,422,2	243,427,2	245,260,2	247,259,2	249,258,2	251,257,2	253,58,2	255,156,2	257,261,2	259,361,2	261,256,2	263,255,2	265,129,2	267,430,2	269,254,2	271,253,2	273,364,2	275,252,2	277,88,2	279,150,2	281,251,2	283,250,2	285,249,2	287,367,2	289,181,2	291,223,2	293,248,2	295,247,2	297,371,2	299,246,2	301,472,2	303,433,2	305,243,2	307,244,2	309,242,2	311,245,2	313,222,2	315,140,2	317,241,2	319,240,2	321,372,2	323,239,2	325,32,2	327,436,2	329,238,2	331,237,2	333,236,2	335,375,2	337,113,2	339,137,2	341,235,2	343,234,2	345,233,2	347,232,2	349,48,2	351,439,2	353,231,2	355,377,2	357,230,2	359,229,2	361,79,2	363,449,2	365,228,2	367,227,2	369,380,2	371,226,2	373,29,2	375,131,2	377,225,2	379,382,2	381,224,2	383,385,2	385,482,2	387,441,2	389,219,2	391,218,2	393,217,2	395,216,2	397,443,2	399,125,2	401,214,2	403,215,2	405,213,2	407,220,2	409,188,2	411,444,2	413,211,2	415,210,2	417,212,2	419,209,2	421,466,2	423,118,2	425,402,2	427,400,2	429,399,2	431,403,2	433,65,2	435,453,2	437,405,2	439,397,2	441,395,2	443,394,2	445,25,2	447,446,2	449,391,2	451,406,2	453,221,2	455,207,2	457,19,2	459,112,2	461,408,2	463,407,2	465,409,2	467,206,2	469,63,2	471,450,2	473,203,2	475,202,2	477,201,2	479,410,2	481,176,2	483,115,2	485,412,2	487,198,2	489,413,2	491,196,2	493,107,2	495,111,2	497,415,2	499,416,2	501,195,2	503,192,2	505,461,2	507,151,2	509,190,2	511,187,2	513,417,2	515,186,2	517,481,2	519,452,2	521,184,2	523,182,2	525,180,2	527,419,2	529,474,2	531,101,2	533,175,2	535,174,2	537,171,2	539,170,2	541,152,2	543,455,2	545,420,2	547,424,2	549,169,2	551,167,2	553,28,2	555,94,2	557,425,2	559,165,2	561,426,2	563,164,2	565,27,2	567,92,2	569,428,2	571,429,2	573,159,2	575,431,2	577,33,2	579,467,2	581,158,2	583,155,2	585,154,2	587,146,2	589,135,2	591,460,2	593,145,2	595,432,2	597,143,2	599,434,2	601,490,2	603,82,2	605,142,2	607,139,2	609,435,2	611,138,2	613,124,2	615,463,2	617,136,2	619,134,2	621,132,2	623,437,2	625,120,2	627,75,2	629,440,2	631,438,2	633,130,2	635,127,2	637,114,2	639,72,2	641,108,2	643,109,2	645,106,2	647,105,2	649,454,2	651,53,2	653,104,2	655,103,2	657,110,2	659,102,2	661,38,2	663,471,2	665,98,2	667,99,2	669,97,2	671,116,2	673,70,2	675,56,2	677,96,2	679,93,2	681,117,2	683,91,2	685,458,2	687,52,2	689,89,2	691,90,2	693,86,2	695,121,2	697,30,2	699,480,2	701,84,2	703,83,2	705,85,2	707,81,2	709,50,2	711,46,2	713,126,2	715,80,2	717,78,2	719,445,2	721,74,2	723,36,2	725,456,2	727,77,2	729,76,2	731,73,2	733,487,2	735,485,2	737,69,2	739,71,2	741,68,2	743,67,2	745,497,2	747,34,2	749,478,2	751,477,2	753,479,2	755,476,2	757,495,2	759,24,2	761,475,2	763,473,2	765,470,2	767,483,2	769,55,2	771,40,2	773,484,2	775,464,2	777,457,2	779,66,2	781,494,2	783,23,2	785,62,2	787,486,2	789,61,2	791,57,2	793,37,2	795,489,2	797,54,2	799,51,2	801,488,2	803,47,2	805,5,2	807,17,2	809,16,2	811,18,2	813,15,2	815,20,2	817,499,2	819,493,2	821,13,2	823,12,2	825,14,2	827,11,2	829,1,2	831,8,2	833,2,2	835,3,2	837,4,2	839,6,2	841,10,2	843,9,2	845,7,2	847,21,2	849,22,2	851,31,2	853,496,2	855,491,2	857,500,2	859,501,1	
37,339,2	73,344,2	109,351,2	337,384,2	373,389,2	445,205,2	481,189,2	649,122,2	793,45,2	
193,363,2	229,368,2	265,373,2	301,378,2	409,393,2	517,173,2	733,469,2	769,59,2	
85,347,2	157,359,2	553,157,2	589,141,2	661,442,2	697,459,2	841,492,2	
49,340,2	121,353,2	277,374,2	385,390,2	421,392,2	457,199,2	625,123,2	805,26,2	
13,335,2	241,369,2	313,379,2	349,386,2	493,185,2	529,166,2	565,149,2	709,462,2	745,468,2	853,498,2	
97,349,2	133,354,2	169,360,2	205,365,2	637,119,2	673,447,2	781,49,2	817,42,2	
61,342,2	289,376,2	325,381,2	433,208,2	469,194,2	601,133,2	757,64,2	829,43,2	
25,336,2	181,362,2	253,370,2	361,387,2	397,388,2	505,178,2	541,162,2	721,465,2	
145,356,2	217,366,2	577,144,2	613,128,2	685,448,2	
# Incoming
15,(335, 501),2	27,(336, 501),2	39,(339, 501),2	51,(340, 501),2	63,(342, 501),2	75,(344, 501),2	87,(347, 501),2	99,(349, 501),2	111,(351, 501),2	123,(353, 501),2	135,(354, 501),2	147,(356, 501),2	159,(359, 501),2	171,(360, 501),2	183,(362, 501),2	195,(363, 501),2	207,(365, 501),2	219,(366, 501),2	231,(368, 501),2	243,(369, 501),2	255,(370, 501),2	267,(373, 501),2	279,(374, 501),2	291,(376, 501),2	303,(378, 501),2	315,(379, 501),2	327,(381, 501),2	339,(384, 501),2	351,(386, 501),2	363,(387, 501),2	375,(389, 501),2	387,(390, 501),2	399,(388, 501),2	411,(393, 501),2	423,(392, 501),2	435,(208, 501),2	447,(205, 501),2	459,(199, 501),2	471,(194, 501),2	483,(189, 501),2	495,(185, 501),2	507,(178, 501),2	519,(173, 501),2	531,(166, 501),2	543,(162, 501),2	555,(157, 501),2	567,(149, 501),2	579,(144, 501),2	591,(141, 501),2	603,(133, 501),2	615,(128, 501),2	627,(123, 501),2	639,(119, 501),2	651,(122, 501),2	663,(442, 501),2	675,(447, 501),2	687,(448, 501),2	699,(459, 501),2	711,(462, 501),2	723,(465, 501),2	735,(469, 501),2	747,(468, 501),2	759,(64, 501),2	771,(59, 501),2	783,(49, 501),2	795,(45, 501),2	807,(26, 501),2	819,(42, 501),2	831,(43, 501),2	843,(492, 501),2	855,(498, 501),2	
25,(0, 339),12	61,(0, 344),12	97,(0, 351),12	325,(0, 384),12	361,(0, 389),12	433,(0, 205),12	469,(0, 189),12	637,(0, 122),12	781,(0, 45),12	
181,(0, 363),12	217,(0, 368),12	253,(0, 373),12	289,(0, 378),12	397,(0, 393),12	505,(0, 173),12	721,(0, 469),12	757,(0, 59),12	
73,(0, 347),12	145,(0, 359),12	541,(0, 157),12	577,(0, 141),12	649,(0, 442),12	685,(0, 459),12	829,(0, 492),12	
37,(0, 340),12	109,(0, 353),12	265,(0, 374),12	373,(0, 390),12	409,(0, 392),12	445,(0, 199),12	613,(0, 123),12	793,(0, 26),12	
1,(0, 335),12	229,(0, 369),12	301,(0, 379),12	337,(0, 386),12	481,(0, 185),12	517,(0, 166),12	553,(0, 149),12	697,(0, 462),12	733,(0, 468),12	841,(0, 498),12	
85,(0, 349),12	121,(0, 354),12	157,(0, 360),12	193,(0, 365),12	625,(0, 119),12	661,(0, 447),12	769,(0, 49),12	805,(0, 42),12	
49,(0, 342),12	277,(0, 376),12	313,(0, 381),12	421,(0, 208),12	457,(0, 194),12	589,(0, 133),12	745,(0, 64),12	817,(0, 43),12	
13,(0, 336),12	169,(0, 362),12	241,(0, 370),12	349,(0, 387),12	385,(0, 388),12	493,(0, 178),12	529,(0, 162),12	709,(0, 465),12	
133,(0, 356),12	205,(0, 366),12	565,(0, 144),12	601,(0, 128),12	673,(0, 448),12	
# Outgoing
1,(0, 335),12	13,(0, 336),12	25,(0, 339),12	37,(0, 340),12	49,(0, 342),12	61,(0, 344),12	73,(0, 347),12	85,(0, 349),12	97,(0, 351),12	109,(0, 353),12	121,(0, 354),12	133,(0, 356),12	145,(0, 359),12	157,(0, 360),12	169,(0, 362),12	181,(0, 363),12	193,(0, 365),12	205,(0, 366),12	217,(0, 368),12	229,(0, 369),12	241,(0, 370),12	253,(0, 373),12	265,(0, 374),12	277,(0, 376),12	289,(0, 378),12	301,(0, 379),12	313,(0, 381),12	325,(0, 384),12	337,(0, 386),12	349,(0, 387),12	361,(0, 389),12	373,(0, 390),12	385,(0, 388),12	397,(0, 393),12	409,(0, 392),12	421,(0, 208),12	433,(0, 205),12	445,(0, 199),12	457,(0, 194),12	469,(0, 189),12	481,(0, 185),12	493,(0, 178),12	505,(0, 173),12	517,(0, 166),12	529,(0, 162),12	541,(0, 157),12	553,(0, 149),12	565,(0, 144),12	577,(0, 141),12	589,(0, 133),12	601,(0, 128),12	613,(0, 123),12	625,(0, 119),12	637,(0, 122),12	649,(0, 442),12	661,(0, 447),12	673,(0, 448),12	685,(0, 459),12	697,(0, 462),12	709,(0, 465),12	721,(0, 469),12	733,(0, 468),12	745,(0, 64),12	757,(0, 59),12	769,(0, 49),12	781,(0, 45),12	793,(0, 26),12	805,(0, 42),12	817,(0, 43),12	829,(0, 492),12	841,(0, 498),12	
39,(339, 501),2	75,(344, 501),2	111,(351, 501),2	339,(384, 501),2	375,(389, 501),2	447,(205, 501),2	483,(189, 501),2	651,(122, 501),2	795,(45, 501),2	
195,(363, 501),2	231,(368, 501),2	267,(373, 501),2	303,(378, 501),2	411,(393, 501),2	519,(173, 501),2	735,(469, 501),2	771,(59, 501),2	
87,(347, 501),2	159,(359, 501),2	555,(157, 501),2	591,(141, 501),2	663,(442, 501),2	699,(459, 501),2	843,(492, 501),2	
51,(340, 501),2	123,(353, 501),2	279,(374, 501),2	387,(390, 501),2	423,(392, 501),2	459,(199, 501),2	627,(123, 501),2	807,(26, 501),2	
15,(335, 501),2	243,(369, 501),2	315,(379, 501),2	351,(386, 501),2	495,(185, 501),2	531,(166, 501),2	567,(149, 501),2	711,(462, 501),2	747,(468, 501),2	855,(498, 501),2	
99,(349, 501),2	135,(354, 501),2	171,(360, 501),2	207,(365, 501),2	639,(119, 501),2	675,(447, 501),2	783,(49, 501),2	819,(42, 501),2	
63,(342, 501),2	291,(376, 501),2	327,(381, 501),2	435,(208, 501),2	471,(194, 501),2	603,(133, 501),2	759,(64, 501),2	831,(43, 501),2	
27,(336, 501),2	183,(362, 501),2	255,(370, 501),2	363,(387, 501),2	399,(388, 501),2	507,(178, 501),2	543,(162, 501),2	723,(465, 501),2	
147,(356, 501),2	219,(366, 501),2	579,(144, 501),2	615,(128, 501),2	687,(448, 501),2	
