25010
# CPU
55,3,6	109,6,6	163,9,6	217,12,6	271,15,6	325,18,6	379,21,6	433,24,6	487,27,6	541,30,6	595,33,6	649,36,6	703,39,6	757,42,6	811,45,6	865,48,6	919,51,6	973,54,6	1027,57,6	1081,60,6	1135,63,6	1189,66,6	1243,69,6	1297,72,6	1351,75,6	1405,78,6	1459,81,6	1513,84,6	1567,87,6	1621,90,6	1675,93,6	1729,96,6	1783,99,6	1837,102,6	1891,105,6	1945,108,6	1999,111,6	2053,114,6	2107,117,6	2161,120,6	2215,123,6	2269,126,6	2323,129,6	2377,132,6	2431,135,6	2485,138,6	2539,141,6	2593,144,6	2647,147,6	2701,150,6	2755,153,6	2809,156,6	2863,159,6	2917,162,6	2971,165,6	3025,168,6	3079,171,6	3133,174,6	3187,177,6	3241,180,6	3295,183,6	3349,186,6	3403,189,6	3457,192,6	3511,195,6	3565,198,6	3619,201,6	3673,204,6	3727,207,6	3781,210,6	3835,213,6	3889,216,6	3943,219,6	3997,222,6	4051,225,6	4105,228,6	4159,231,6	4213,234,6	4267,237,6	4321,240,6	4375,243,6	4429,246,6	4483,249,6	4537,252,6	4591,255,6	4645,258,6	4699,261,6	4753,264,6	4807,267,6	4861,270,6	4915,273,6	4969,276,6	5023,279,6	5077,282,6	5131,285,6	5185,288,6	5239,291,6	5293,294,6	5347,297,6	5401,300,6	5455,303,6	5509,306,6	5563,309,6	5617,312,6	5671,315,6	5725,318,6	5779,321,6	5833,324,6	5887,327,6	5941,330,6	5995,333,6	6049,336,6	6103,339,6	6157,342,6	6211,345,6	6265,348,6	6319,351,6	6373,354,6	6427,357,6	6481,360,6	6535,363,6	6589,366,6	6643,369,6	6697,372,6	6751,375,6	6805,378,6	6859,381,6	6913,384,6	6967,387,6	7021,390,6	7075,393,6	7129,396,6	7183,399,6	7237,402,6	7291,405,6	7345,408,6	7399,411,6	7453,414,6	7507,417,6	7561,420,6	7615,423,6	7669,426,6	7723,429,6	7777,432,6	7831,435,6	7885,438,6	7939,441,6	7993,444,6	8047,447,6	8101,450,6	8155,453,6	8209,456,6	8263,459,6	8317,462,6	8371,465,6	8425,468,6	8479,471,6	8533,474,6	8587,477,6	8641,480,6	8695,483,6	8749,486,6	8803,489,6	8857,492,6	8911,495,6	8965,498,6	
28,2,6	82,5,6	136,8,6	190,11,6	244,14,6	298,17,6	352,20,6	406,23,6	460,26,6	514,29,6	568,32,6	622,35,6	676,38,6	730,41,6	784,44,6	838,47,6	892,50,6	946,53,6	1000,56,6	1054,59,6	1108,62,6	1162,65,6	1216,68,6	1270,71,6	1324,74,6	1378,77,6	1432,80,6	1486,83,6	1540,86,6	1594,89,6	1648,92,6	1702,95,6	1756,98,6	1810,101,6	1864,104,6	1918,107,6	1972,110,6	2026,113,6	2080,116,6	2134,119,6	2188,122,6	2242,125,6	2296,128,6	2350,131,6	2404,134,6	2458,137,6	2512,140,6	2566,143,6	2620,146,6	2674,149,6	2728,152,6	2782,155,6	2836,158,6	2890,161,6	2944,164,6	2998,167,6	3052,170,6	3106,173,6	3160,176,6	3214,179,6	3268,182,6	3322,185,6	3376,188,6	3430,191,6	3484,194,6	3538,197,6	3592,200,6	3646,203,6	3700,206,6	3754,209,6	3808,212,6	3862,215,6	3916,218,6	3970,221,6	4024,224,6	4078,227,6	4132,230,6	4186,233,6	4240,236,6	4294,239,6	4348,242,6	4402,245,6	4456,248,6	4510,251,6	4564,254,6	4618,257,6	4672,260,6	4726,263,6	4780,266,6	4834,269,6	4888,272,6	4942,275,6	4996,278,6	5050,281,6	5104,284,6	5158,287,6	5212,290,6	5266,293,6	5320,296,6	5374,299,6	5428,302,6	5482,305,6	5536,308,6	5590,311,6	5644,314,6	5698,317,6	5752,320,6	5806,323,6	5860,326,6	5914,329,6	5968,332,6	6022,335,6	6076,338,6	6130,341,6	6184,344,6	6238,347,6	6292,350,6	6346,353,6	6400,356,6	6454,359,6	6508,362,6	6562,365,6	6616,368,6	6670,371,6	6724,374,6	6778,377,6	6832,380,6	6886,383,6	6940,386,6	6994,389,6	7048,392,6	7102,395,6	7156,398,6	7210,401,6	7264,404,6	7318,407,6	7372,410,6	7426,413,6	7480,416,6	7534,419,6	7588,422,6	7642,425,6	7696,428,6	7750,431,6	7804,434,6	7858,437,6	7912,440,6	7966,443,6	8020,446,6	8074,449,6	8128,452,6	8182,455,6	8236,458,6	8290,461,6	8344,464,6	8398,467,6	8452,470,6	8506,473,6	8560,476,6	8614,479,6	8668,482,6	8722,485,6	8776,488,6	8830,491,6	8884,494,6	8938,497,6	8992,500,6	
0,0,1	1,1,6	7,7,6	13,19,6	19,43,6	25,91,6	31,187,6	37,379,6	43,499,6	49,496,6	55,493,6	61,490,6	67,487,6	73,484,6	79,481,6	85,478,6	91,475,6	97,472,6	103,469,6	109,466,6	115,463,6	121,460,6	127,457,6	133,454,6	139,451,6	145,448,6	151,445,6	157,442,6	163,439,6	169,436,6	175,433,6	181,430,6	187,427,6	193,424,6	199,421,6	205,418,6	211,415,6	217,412,6	223,409,6	229,406,6	235,403,6	241,400,6	247,397,6	253,394,6	259,391,6	265,388,6	271,385,6	277,376,6	283,382,6	289,373,6	295,370,6	301,367,6	307,364,6	313,361,6	319,358,6	325,355,6	331,352,6	337,349,6	343,346,6	349,343,6	355,340,6	361,337,6	367,334,6	373,331,6	379,328,6	385,325,6	391,322,6	397,319,6	403,316,6	409,313,6	415,310,6	421,307,6	427,304,6	433,301,6	439,298,6	445,295,6	451,292,6	457,289,6	463,286,6	469,283,6	475,280,6	481,277,6	487,274,6	493,271,6	499,268,6	505,265,6	511,262,6	517,259,6	523,256,6	529,253,6	535,250,6	541,247,6	547,244,6	553,241,6	559,238,6	565,235,6	571,232,6	577,229,6	583,226,6	589,223,6	595,220,6	601,217,6	607,214,6	613,211,6	619,208,6	625,205,6	631,202,6	637,199,6	643,196,6	649,193,6	655,184,6	661,190,6	667,181,6	673,178,6	679,175,6	685,172,6	691,169,6	697,166,6	703,163,6	709,160,6	715,157,6	721,154,6	727,151,6	733,148,6	739,145,6	745,142,6	751,139,6	757,136,6	763,133,6	769,130,6	775,127,6	781,124,6	787,121,6	793,118,6	799,115,6	805,112,6	811,109,6	817,106,6	823,103,6	829,100,6	835,97,6	841,88,6	847,94,6	853,85,6	859,82,6	865,79,6	871,76,6	877,73,6	883,70,6	889,67,6	895,64,6	901,61,6	907,58,6	913,55,6	919,52,6	925,49,6	931,40,6	937,46,6	943,37,6	949,34,6	955,31,6	961,28,6	967,25,6	973,16,6	979,22,6	985,13,6	991,4,6	997,10,6	25009,501,1	
# Incoming
28,(0, 3),27	82,(0, 6),27	136,(0, 9),27	190,(0, 12),27	244,(0, 15),27	298,(0, 18),27	352,(0, 21),27	406,(0, 24),27	460,(0, 27),27	514,(0, 30),27	568,(0, 33),27	622,(0, 36),27	676,(0, 39),27	730,(0, 42),27	784,(0, 45),27	838,(0, 48),27	892,(0, 51),27	946,(0, 54),27	1000,(0, 57),27	1054,(0, 60),27	1108,(0, 63),27	1162,(0, 66),27	1216,(0, 69),27	1270,(0, 72),27	1324,(0, 75),27	1378,(0, 78),27	1432,(0, 81),27	1486,(0, 84),27	1540,(0, 87),27	1594,(0, 90),27	1648,(0, 93),27	1702,(0, 96),27	1756,(0, 99),27	1810,(0, 102),27	1864,(0, 105),27	1918,(0, 108),27	1972,(0, 111),27	2026,(0, 114),27	2080,(0, 117),27	2134,(0, 120),27	2188,(0, 123),27	2242,(0, 126),27	2296,(0, 129),27	2350,(0, 132),27	2404,(0, 135),27	2458,(0, 138),27	2512,(0, 141),27	2566,(0, 144),27	2620,(0, 147),27	2674,(0, 150),27	2728,(0, 153),27	2782,(0, 156),27	2836,(0, 159),27	2890,(0, 162),27	2944,(0, 165),27	2998,(0, 168),27	3052,(0, 171),27	3106,(0, 174),27	3160,(0, 177),27	3214,(0, 180),27	3268,(0, 183),27	3322,(0, 186),27	3376,(0, 189),27	3430,(0, 192),27	3484,(0, 195),27	3538,(0, 198),27	3592,(0, 201),27	3646,(0, 204),27	3700,(0, 207),27	3754,(0, 210),27	3808,(0, 213),27	3862,(0, 216),27	3916,(0, 219),27	3970,(0, 222),27	4024,(0, 225),27	4078,(0, 228),27	4132,(0, 231),27	4186,(0, 234),27	4240,(0, 237),27	4294,(0, 240),27	4348,(0, 243),27	4402,(0, 246),27	4456,(0, 249),27	4510,(0, 252),27	4564,(0, 255),27	4618,(0, 258),27	4672,(0, 261),27	4726,(0, 264),27	4780,(0, 267),27	4834,(0, 270),27	4888,(0, 273),27	4942,(0, 276),27	4996,(0, 279),27	5050,(0, 282),27	5104,(0, 285),27	5158,(0, 288),27	5212,(0, 291),27	5266,(0, 294),27	5320,(0, 297),27	5374,(0, 300),27	5428,(0, 303),27	5482,(0, 306),27	5536,(0, 309),27	5590,(0, 312),27	5644,(0, 315),27	5698,(0, 318),27	5752,(0, 321),27	5806,(0, 324),27	5860,(0, 327),27	5914,(0, 330),27	5968,(0, 333),27	6022,(0, 336),27	6076,(0, 339),27	6130,(0, 342),27	6184,(0, 345),27	6238,(0, 348),27	6292,(0, 351),27	6346,(0, 354),27	6400,(0, 357),27	6454,(0, 360),27	6508,(0, 363),27	6562,(0, 366),27	6616,(0, 369),27	6670,(0, 372),27	6724,(0, 375),27	6778,(0, 378),27	6832,(0, 381),27	6886,(0, 384),27	6940,(0, 387),27	6994,(0, 390),27	7048,(0, 393),27	7102,(0, 396),27	7156,(0, 399),27	7210,(0, 402),27	7264,(0, 405),27	7318,(0, 408),27	7372,(0, 411),27	7426,(0, 414),27	7480,(0, 417),27	7534,(0, 420),27	7588,(0, 423),27	7642,(0, 426),27	7696,(0, 429),27	7750,(0, 432),27	7804,(0, 435),27	7858,(0, 438),27	7912,(0, 441),27	7966,(0, 444),27	8020,(0, 447),27	8074,(0, 450),27	8128,(0, 453),27	8182,(0, 456),27	8236,(0, 459),27	8290,(0, 462),27	8344,(0, 465),27	8398,(0, 468),27	8452,(0, 471),27	8506,(0, 474),27	8560,(0, 477),27	8614,(0, 480),27	8668,(0, 483),27	8722,(0, 486),27	8776,(0, 489),27	8830,(0, 492),27	8884,(0, 495),27	8938,(0, 498),27	
1,(0, 2),27	55,(0, 5),27	109,(0, 8),27	163,(0, 11),27	217,(0, 14),27	271,(0, 17),27	325,(0, 20),27	379,(0, 23),27	433,(0, 26),27	487,(0, 29),27	541,(0, 32),27	595,(0, 35),27	649,(0, 38),27	703,(0, 41),27	757,(0, 44),27	811,(0, 47),27	865,(0, 50),27	919,(0, 53),27	973,(0, 56),27	1027,(0, 59),27	1081,(0, 62),27	1135,(0, 65),27	1189,(0, 68),27	1243,(0, 71),27	1297,(0, 74),27	1351,(0, 77),27	1405,(0, 80),27	1459,(0, 83),27	1513,(0, 86),27	1567,(0, 89),27	1621,(0, 92),27	1675,(0, 95),27	1729,(0, 98),27	1783,(0, 101),27	1837,(0, 104),27	1891,(0, 107),27	1945,(0, 110),27	1999,(0, 113),27	2053,(0, 116),27	2107,(0, 119),27	2161,(0, 122),27	2215,(0, 125),27	2269,(0, 128),27	2323,(0, 131),27	2377,(0, 134),27	2431,(0, 137),27	2485,(0, 140),27	2539,(0, 143),27	2593,(0, 146),27	2647,(0, 149),27	2701,(0, 152),27	2755,(0, 155),27	2809,(0, 158),27	2863,(0, 161),27	2917,(0, 164),27	2971,(0, 167),27	3025,(0, 170),27	3079,(0, 173),27	3133,(0, 176),27	3187,(0, 179),27	3241,(0, 182),27	3295,(0, 185),27	3349,(0, 188),27	3403,(0, 191),27	3457,(0, 194),27	3511,(0, 197),27	3565,(0, 200),27	3619,(0, 203),27	3673,(0, 206),27	3727,(0, 209),27	3781,(0, 212),27	3835,(0, 215),27	3889,(0, 218),27	3943,(0, 221),27	3997,(0, 224),27	4051,(0, 227),27	4105,(0, 230),27	4159,(0, 233),27	4213,(0, 236),27	4267,(0, 239),27	4321,(0, 242),27	4375,(0, 245),27	4429,(0, 248),27	4483,(0, 251),27	4537,(0, 254),27	4591,(0, 257),27	4645,(0, 260),27	4699,(0, 263),27	4753,(0, 266),27	4807,(0, 269),27	4861,(0, 272),27	4915,(0, 275),27	4969,(0, 278),27	5023,(0, 281),27	5077,(0, 284),27	5131,(0, 287),27	5185,(0, 290),27	5239,(0, 293),27	5293,(0, 296),27	5347,(0, 299),27	5401,(0, 302),27	5455,(0, 305),27	5509,(0, 308),27	5563,(0, 311),27	5617,(0, 314),27	5671,(0, 317),27	5725,(0, 320),27	5779,(0, 323),27	5833,(0, 326),27	5887,(0, 329),27	5941,(0, 332),27	5995,(0, 335),27	6049,(0, 338),27	6103,(0, 341),27	6157,(0, 344),27	6211,(0, 347),27	6265,(0, 350),27	6319,(0, 353),27	6373,(0, 356),27	6427,(0, 359),27	6481,(0, 362),27	6535,(0, 365),27	6589,(0, 368),27	6643,(0, 371),27	6697,(0, 374),27	6751,(0, 377),27	6805,(0, 380),27	6859,(0, 383),27	6913,(0, 386),27	6967,(0, 389),27	7021,(0, 392),27	7075,(0, 395),27	7129,(0, 398),27	7183,(0, 401),27	7237,(0, 404),27	7291,(0, 407),27	7345,(0, 410),27	7399,(0, 413),27	7453,(0, 416),27	7507,(0, 419),27	7561,(0, 422),27	7615,(0, 425),27	7669,(0, 428),27	7723,(0, 431),27	7777,(0, 434),27	7831,(0, 437),27	7885,(0, 440),27	7939,(0, 443),27	7993,(0, 446),27	8047,(0, 449),27	8101,(0, 452),27	8155,(0, 455),27	8209,(0, 458),27	8263,(0, 461),27	8317,(0, 464),27	8371,(0, 467),27	8425,(0, 470),27	8479,(0, 473),27	8533,(0, 476),27	8587,(0, 479),27	8641,(0, 482),27	8695,(0, 485),27	8749,(0, 488),27	8803,(0, 491),27	8857,(0, 494),27	8911,(0, 497),27	8965,(0, 500),27	
34,(2, 501),75	109,(3, 501),75	184,(5, 501),75	259,(6, 501),75	334,(8, 501),75	409,(9, 501),75	484,(11, 501),75	559,(12, 501),75	634,(14, 501),75	709,(15, 501),75	784,(17, 501),75	859,(18, 501),75	934,(20, 501),75	1009,(21, 501),75	1084,(23, 501),75	1159,(24, 501),75	1234,(26, 501),75	1309,(27, 501),75	1384,(29, 501),75	1459,(30, 501),75	1534,(32, 501),75	1609,(33, 501),75	1684,(35, 501),75	1759,(36, 501),75	1834,(38, 501),75	1909,(39, 501),75	1984,(41, 501),75	2059,(42, 501),75	2134,(44, 501),75	2209,(45, 501),75	2284,(47, 501),75	2359,(48, 501),75	2434,(50, 501),75	2509,(51, 501),75	2584,(53, 501),75	2659,(54, 501),75	2734,(56, 501),75	2809,(57, 501),75	2884,(59, 501),75	2959,(60, 501),75	3034,(62, 501),75	3109,(63, 501),75	3184,(65, 501),75	3259,(66, 501),75	3334,(68, 501),75	3409,(69, 501),75	3484,(71, 501),75	3559,(72, 501),75	3634,(74, 501),75	3709,(75, 501),75	3784,(77, 501),75	3859,(78, 501),75	3934,(80, 501),75	4009,(81, 501),75	4084,(83, 501),75	4159,(84, 501),75	4234,(86, 501),75	4309,(87, 501),75	4384,(89, 501),75	4459,(90, 501),75	4534,(92, 501),75	4609,(93, 501),75	4684,(95, 501),75	4759,(96, 501),75	4834,(98, 501),75	4909,(99, 501),75	4984,(101, 501),75	5059,(102, 501),75	5134,(104, 501),75	5209,(105, 501),75	5284,(107, 501),75	5359,(108, 501),75	5434,(110, 501),75	5509,(111, 501),75	5584,(113, 501),75	5659,(114, 501),75	5734,(116, 501),75	5809,(117, 501),75	5884,(119, 501),75	5959,(120, 501),75	6034,(122, 501),75	6109,(123, 501),75	6184,(125, 501),75	6259,(126, 501),75	6334,(128, 501),75	6409,(129, 501),75	6484,(131, 501),75	6559,(132, 501),75	6634,(134, 501),75	6709,(135, 501),75	6784,(137, 501),75	6859,(138, 501),75	6934,(140, 501),75	7009,(141, 501),75	7084,(143, 501),75	7159,(144, 501),75	7234,(146, 501),75	7309,(147, 501),75	7384,(149, 501),75	7459,(150, 501),75	7534,(152, 501),75	7609,(153, 501),75	7684,(155, 501),75	7759,(156, 501),75	7834,(158, 501),75	7909,(159, 501),75	7984,(161, 501),75	8059,(162, 501),75	8134,(164, 501),75	8209,(165, 501),75	8284,(167, 501),75	8359,(168, 501),75	8434,(170, 501),75	8509,(171, 501),75	8584,(173, 501),75	8659,(174, 501),75	8734,(176, 501),75	8809,(177, 501),75	8884,(179, 501),75	8959,(180, 501),75	9034,(182, 501),75	9109,(183, 501),75	9184,(185, 501),75	9259,(186, 501),75	9334,(188, 501),75	9409,(189, 501),75	9484,(191, 501),75	9559,(192, 501),75	9634,(194, 501),75	9709,(195, 501),75	9784,(197, 501),75	9859,(198, 501),75	9934,(200, 501),75	10009,(201, 501),75	10084,(203, 501),75	10159,(204, 501),75	10234,(206, 501),75	10309,(207, 501),75	10384,(209, 501),75	10459,(210, 501),75	10534,(212, 501),75	10609,(213, 501),75	10684,(215, 501),75	10759,(216, 501),75	10834,(218, 501),75	10909,(219, 501),75	10984,(221, 501),75	11059,(222, 501),75	11134,(224, 501),75	11209,(225, 501),75	11284,(227, 501),75	11359,(228, 501),75	11434,(230, 501),75	11509,(231, 501),75	11584,(233, 501),75	11659,(234, 501),75	11734,(236, 501),75	11809,(237, 501),75	11884,(239, 501),75	11959,(240, 501),75	12034,(242, 501),75	12109,(243, 501),75	12184,(245, 501),75	12259,(246, 501),75	12334,(248, 501),75	12409,(249, 501),75	12484,(251, 501),75	12559,(252, 501),75	12634,(254, 501),75	12709,(255, 501),75	12784,(257, 501),75	12859,(258, 501),75	12934,(260, 501),75	13009,(261, 501),75	13084,(263, 501),75	13159,(264, 501),75	13234,(266, 501),75	13309,(267, 501),75	13384,(269, 501),75	13459,(270, 501),75	13534,(272, 501),75	13609,(273, 501),75	13684,(275, 501),75	13759,(276, 501),75	13834,(278, 501),75	13909,(279, 501),75	13984,(281, 501),75	14059,(282, 501),75	14134,(284, 501),75	14209,(285, 501),75	14284,(287, 501),75	14359,(288, 501),75	14434,(290, 501),75	14509,(291, 501),75	14584,(293, 501),75	14659,(294, 501),75	14734,(296, 501),75	14809,(297, 501),75	14884,(299, 501),75	14959,(300, 501),75	15034,(302, 501),75	15109,(303, 501),75	15184,(305, 501),75	15259,(306, 501),75	15334,(308, 501),75	15409,(309, 501),75	15484,(311, 501),75	15559,(312, 501),75	15634,(314, 501),75	15709,(315, 501),75	15784,(317, 501),75	15859,(318, 501),75	15934,(320, 501),75	16009,(321, 501),75	16084,(323, 501),75	16159,(324, 501),75	16234,(326, 501),75	16309,(327, 501),75	16384,(329, 501),75	16459,(330, 501),75	16534,(332, 501),75	16609,(333, 501),75	16684,(335, 501),75	16759,(336, 501),75	16834,(338, 501),75	16909,(339, 501),75	16984,(341, 501),75	17059,(342, 501),75	17134,(344, 501),75	17209,(345, 501),75	17284,(347, 501),75	17359,(348, 501),75	17434,(350, 501),75	17509,(351, 501),75	17584,(353, 501),75	17659,(354, 501),75	17734,(356, 501),75	17809,(357, 501),75	17884,(359, 501),75	17959,(360, 501),75	18034,(362, 501),75	18109,(363, 501),75	18184,(365, 501),75	18259,(366, 501),75	18334,(368, 501),75	18409,(369, 501),75	18484,(371, 501),75	18559,(372, 501),75	18634,(374, 501),75	18709,(375, 501),75	18784,(377, 501),75	18859,(378, 501),75	18934,(380, 501),75	19009,(381, 501),75	19084,(383, 501),75	19159,(384, 501),75	19234,(386, 501),75	19309,(387, 501),75	19384,(389, 501),75	19459,(390, 501),75	19534,(392, 501),75	19609,(393, 501),75	19684,(395, 501),75	19759,(396, 501),75	19834,(398, 501),75	19909,(399, 501),75	19984,(401, 501),75	20059,(402, 501),75	20134,(404, 501),75	20209,(405, 501),75	20284,(407, 501),75	20359,(408, 501),75	20434,(410, 501),75	20509,(411, 501),75	20584,(413, 501),75	20659,(414, 501),75	20734,(416, 501),75	20809,(417, 501),75	20884,(419, 501),75	20959,(420, 501),75	21034,(422, 501),75	21109,(423, 501),75	21184,(425, 501),75	21259,(426, 501),75	21334,(428, 501),75	21409,(429, 501),75	21484,(431, 501),75	21559,(432, 501),75	21634,(434, 501),75	21709,(435, 501),75	21784,(437, 501),75	21859,(438, 501),75	21934,(440, 501),75	22009,(441, 501),75	22084,(443, 501),75	22159,(444, 501),75	22234,(446, 501),75	22309,(447, 501),75	22384,(449, 501),75	22459,(450, 501),75	22534,(452, 501),75	22609,(453, 501),75	22684,(455, 501),75	22759,(456, 501),75	22834,(458, 501),75	22909,(459, 501),75	22984,(461, 501),75	23059,(462, 501),75	23134,(464, 501),75	23209,(465, 501),75	23284,(467, 501),75	23359,(468, 501),75	23434,(470, 501),75	23509,(471, 501),75	23584,(473, 501),75	23659,(474, 501),75	23734,(476, 501),75	23809,(477, 501),75	23884,(479, 501),75	23959,(480, 501),75	24034,(482, 501),75	24109,(483, 501),75	24184,(485, 501),75	24259,(486, 501),75	24334,(488, 501),75	24409,(489, 501),75	24484,(491, 501),75	24559,(492, 501),75	24634,(494, 501),75	24709,(495, 501),75	24784,(497, 501),75	24859,(498, 501),75	24934,(500, 501),75	
# Outgoing
109,(3, 501),75	259,(6, 501),75	409,(9, 501),75	559,(12, 501),75	709,(15, 501),75	859,(18, 501),75	1009,(21, 501),75	1159,(24, 501),75	1309,(27, 501),75	1459,(30, 501),75	1609,(33, 501),75	1759,(36, 501),75	1909,(39, 501),75	2059,(42, 501),75	2209,(45, 501),75	2359,(48, 501),75	2509,(51, 501),75	2659,(54, 501),75	2809,(57, 501),75	2959,(60, 501),75	3109,(63, 501),75	3259,(66, 501),75	3409,(69, 501),75	3559,(72, 501),75	3709,(75, 501),75	3859,(78, 501),75	4009,(81, 501),75	4159,(84, 501),75	4309,(87, 501),75	4459,(90, 501),75	4609,(93, 501),75	4759,(96, 501),75	4909,(99, 501),75	5059,(102, 501),75	5209,(105, 501),75	5359,(108, 501),75	5509,(111, 501),75	5659,(114, 501),75	5809,(117, 501),75	5959,(120, 501),75	6109,(123, 501),75	6259,(126, 501),75	6409,(129, 501),75	6559,(132, 501),75	6709,(135, 501),75	6859,(138, 501),75	7009,(141, 501),75	7159,(144, 501),75	7309,(147, 501),75	7459,(150, 501),75	7609,(153, 501),75	7759,(156, 501),75	7909,(159, 501),75	8059,(162, 501),75	8209,(165, 501),75	8359,(168, 501),75	8509,(171, 501),75	8659,(174, 501),75	8809,(177, 501),75	8959,(180, 501),75	9109,(183, 501),75	9259,(186, 501),75	9409,(189, 501),75	9559,(192, 501),75	9709,(195, 501),75	9859,(198, 501),75	10009,(201, 501),75	10159,(204, 501),75	10309,(207, 501),75	10459,(210, 501),75	10609,(213, 501),75	10759,(216, 501),75	10909,(219, 501),75	11059,(222, 501),75	11209,(225, 501),75	11359,(228, 501),75	11509,(231, 501),75	11659,(234, 501),75	11809,(237, 501),75	11959,(240, 501),75	12109,(243, 501),75	12259,(246, 501),75	12409,(249, 501),75	12559,(252, 501),75	12709,(255, 501),75	12859,(258, 501),75	13009,(261, 501),75	13159,(264, 501),75	13309,(267, 501),75	13459,(270, 501),75	13609,(273, 501),75	13759,(276, 501),75	13909,(279, 501),75	14059,(282, 501),75	14209,(285, 501),75	14359,(288, 501),75	14509,(291, 501),75	14659,(294, 501),75	14809,(297, 501),75	14959,(300, 501),75	15109,(303, 501),75	15259,(306, 501),75	15409,(309, 501),75	15559,(312, 501),75	15709,(315, 501),75	15859,(318, 501),75	16009,(321, 501),75	16159,(324, 501),75	16309,(327, 501),75	16459,(330, 501),75	16609,(333, 501),75	16759,(336, 501),75	16909,(339, 501),75	17059,(342, 501),75	17209,(345, 501),75	17359,(348, 501),75	17509,(351, 501),75	17659,(354, 501),75	17809,(357, 501),75	17959,(360, 501),75	18109,(363, 501),75	18259,(366, 501),75	18409,(369, 501),75	18559,(372, 501),75	18709,(375, 501),75	18859,(378, 501),75	19009,(381, 501),75	19159,(384, 501),75	19309,(387, 501),75	19459,(390, 501),75	19609,(393, 501),75	19759,(396, 501),75	19909,(399, 501),75	20059,(402, 501),75	20209,(405, 501),75	20359,(408, 501),75	20509,(411, 501),75	20659,(414, 501),75	20809,(417, 501),75	20959,(420, 501),75	21109,(423, 501),75	21259,(426, 501),75	21409,(429, 501),75	21559,(432, 501),75	21709,(435, 501),75	21859,(438, 501),75	22009,(441, 501),75	22159,(444, 501),75	22309,(447, 501),75	22459,(450, 501),75	22609,(453, 501),75	22759,(456, 501),75	22909,(459, 501),75	23059,(462, 501),75	23209,(465, 501),75	23359,(468, 501),75	23509,(471, 501),75	23659,(474, 501),75	23809,(477, 501),75	23959,(480, 501),75	24109,(483, 501),75	24259,(486, 501),75	24409,(489, 501),75	24559,(492, 501),75	24709,(495, 501),75	24859,(498, 501),75	
34,(2, 501),75	184,(5, 501),75	334,(8, 501),75	484,(11, 501),75	634,(14, 501),75	784,(17, 501),75	934,(20, 501),75	1084,(23, 501),75	1234,(26, 501),75	1384,(29, 501),75	1534,(32, 501),75	1684,(35, 501),75	1834,(38, 501),75	1984,(41, 501),75	2134,(44, 501),75	2284,(47, 501),75	2434,(50, 501),75	2584,(53, 501),75	2734,(56, 501),75	2884,(59, 501),75	3034,(62, 501),75	3184,(65, 501),75	3334,(68, 501),75	3484,(71, 501),75	3634,(74, 501),75	3784,(77, 501),75	3934,(80, 501),75	4084,(83, 501),75	4234,(86, 501),75	4384,(89, 501),75	4534,(92, 501),75	4684,(95, 501),75	4834,(98, 501),75	4984,(101, 501),75	5134,(104, 501),75	5284,(107, 501),75	5434,(110, 501),75	5584,(113, 501),75	5734,(116, 501),75	5884,(119, 501),75	6034,(122, 501),75	6184,(125, 501),75	6334,(128, 501),75	6484,(131, 501),75	6634,(134, 501),75	6784,(137, 501),75	6934,(140, 501),75	7084,(143, 501),75	7234,(146, 501),75	7384,(149, 501),75	7534,(152, 501),75	7684,(155, 501),75	7834,(158, 501),75	7984,(161, 501),75	8134,(164, 501),75	8284,(167, 501),75	8434,(170, 501),75	8584,(173, 501),75	8734,(176, 501),75	8884,(179, 501),75	9034,(182, 501),75	9184,(185, 501),75	9334,(188, 501),75	9484,(191, 501),75	9634,(194, 501),75	9784,(197, 501),75	9934,(200, 501),75	10084,(203, 501),75	10234,(206, 501),75	10384,(209, 501),75	10534,(212, 501),75	10684,(215, 501),75	10834,(218, 501),75	10984,(221, 501),75	11134,(224, 501),75	11284,(227, 501),75	11434,(230, 501),75	11584,(233, 501),75	11734,(236, 501),75	11884,(239, 501),75	12034,(242, 501),75	12184,(245, 501),75	12334,(248, 501),75	12484,(251, 501),75	12634,(254, 501),75	12784,(257, 501),75	12934,(260, 501),75	13084,(263, 501),75	13234,(266, 501),75	13384,(269, 501),75	13534,(272, 501),75	13684,(275, 501),75	13834,(278, 501),75	13984,(281, 501),75	14134,(284, 501),75	14284,(287, 501),75	14434,(290, 501),75	14584,(293, 501),75	14734,(296, 501),75	14884,(299, 501),75	15034,(302, 501),75	15184,(305, 501),75	15334,(308, 501),75	15484,(311, 501),75	15634,(314, 501),75	15784,(317, 501),75	15934,(320, 501),75	16084,(323, 501),75	16234,(326, 501),75	16384,(329, 501),75	16534,(332, 501),75	16684,(335, 501),75	16834,(338, 501),75	16984,(341, 501),75	17134,(344, 501),75	17284,(347, 501),75	17434,(350, 501),75	17584,(353, 501),75	17734,(356, 501),75	17884,(359, 501),75	18034,(362, 501),75	18184,(365, 501),75	18334,(368, 501),75	18484,(371, 501),75	18634,(374, 501),75	18784,(377, 501),75	18934,(380, 501),75	19084,(383, 501),75	19234,(386, 501),75	19384,(389, 501),75	19534,(392, 501),75	19684,(395, 501),75	19834,(398, 501),75	19984,(401, 501),75	20134,(404, 501),75	20284,(407, 501),75	20434,(410, 501),75	20584,(413, 501),75	20734,(416, 501),75	20884,(419, 501),75	21034,(422, 501),75	21184,(425, 501),75	21334,(428, 501),75	21484,(431, 501),75	21634,(434, 501),75	21784,(437, 501),75	21934,(440, 501),75	22084,(443, 501),75	22234,(446, 501),75	22384,(449, 501),75	22534,(452, 501),75	22684,(455, 501),75	22834,(458, 501),75	22984,(461, 501),75	23134,(464, 501),75	23284,(467, 501),75	23434,(470, 501),75	23584,(473, 501),75	23734,(476, 501),75	23884,(479, 501),75	24034,(482, 501),75	24184,(485, 501),75	24334,(488, 501),75	24484,(491, 501),75	24634,(494, 501),75	24784,(497, 501),75	24934,(500, 501),75	
1,(0, 2),27	28,(0, 3),27	55,(0, 5),27	82,(0, 6),27	109,(0, 8),27	136,(0, 9),27	163,(0, 11),27	190,(0, 12),27	217,(0, 14),27	244,(0, 15),27	271,(0, 17),27	298,(0, 18),27	325,(0, 20),27	352,(0, 21),27	379,(0, 23),27	406,(0, 24),27	433,(0, 26),27	460,(0, 27),27	487,(0, 29),27	514,(0, 30),27	541,(0, 32),27	568,(0, 33),27	595,(0, 35),27	622,(0, 36),27	649,(0, 38),27	676,(0, 39),27	703,(0, 41),27	730,(0, 42),27	757,(0, 44),27	784,(0, 45),27	811,(0, 47),27	838,(0, 48),27	865,(0, 50),27	892,(0, 51),27	919,(0, 53),27	946,(0, 54),27	973,(0, 56),27	1000,(0, 57),27	1027,(0, 59),27	1054,(0, 60),27	1081,(0, 62),27	1108,(0, 63),27	1135,(0, 65),27	1162,(0, 66),27	1189,(0, 68),27	1216,(0, 69),27	1243,(0, 71),27	1270,(0, 72),27	1297,(0, 74),27	1324,(0, 75),27	1351,(0, 77),27	1378,(0, 78),27	1405,(0, 80),27	1432,(0, 81),27	1459,(0, 83),27	1486,(0, 84),27	1513,(0, 86),27	1540,(0, 87),27	1567,(0, 89),27	1594,(0, 90),27	1621,(0, 92),27	1648,(0, 93),27	1675,(0, 95),27	1702,(0, 96),27	1729,(0, 98),27	1756,(0, 99),27	1783,(0, 101),27	1810,(0, 102),27	1837,(0, 104),27	1864,(0, 105),27	1891,(0, 107),27	1918,(0, 108),27	1945,(0, 110),27	1972,(0, 111),27	1999,(0, 113),27	2026,(0, 114),27	2053,(0, 116),27	2080,(0, 117),27	2107,(0, 119),27	2134,(0, 120),27	2161,(0, 122),27	2188,(0, 123),27	2215,(0, 125),27	2242,(0, 126),27	2269,(0, 128),27	2296,(0, 129),27	2323,(0, 131),27	2350,(0, 132),27	2377,(0, 134),27	2404,(0, 135),27	2431,(0, 137),27	2458,(0, 138),27	2485,(0, 140),27	2512,(0, 141),27	2539,(0, 143),27	2566,(0, 144),27	2593,(0, 146),27	2620,(0, 147),27	2647,(0, 149),27	2674,(0, 150),27	2701,(0, 152),27	2728,(0, 153),27	2755,(0, 155),27	2782,(0, 156),27	2809,(0, 158),27	2836,(0, 159),27	2863,(0, 161),27	2890,(0, 162),27	2917,(0, 164),27	2944,(0, 165),27	2971,(0, 167),27	2998,(0, 168),27	3025,(0, 170),27	3052,(0, 171),27	3079,(0, 173),27	3106,(0, 174),27	3133,(0, 176),27	3160,(0, 177),27	3187,(0, 179),27	3214,(0, 180),27	3241,(0, 182),27	3268,(0, 183),27	3295,(0, 185),27	3322,(0, 186),27	3349,(0, 188),27	3376,(0, 189),27	3403,(0, 191),27	3430,(0, 192),27	3457,(0, 194),27	3484,(0, 195),27	3511,(0, 197),27	3538,(0, 198),27	3565,(0, 200),27	3592,(0, 201),27	3619,(0, 203),27	3646,(0, 204),27	3673,(0, 206),27	3700,(0, 207),27	3727,(0, 209),27	3754,(0, 210),27	3781,(0, 212),27	3808,(0, 213),27	3835,(0, 215),27	3862,(0, 216),27	3889,(0, 218),27	3916,(0, 219),27	3943,(0, 221),27	3970,(0, 222),27	3997,(0, 224),27	4024,(0, 225),27	4051,(0, 227),27	4078,(0, 228),27	4105,(0, 230),27	4132,(0, 231),27	4159,(0, 233),27	4186,(0, 234),27	4213,(0, 236),27	4240,(0, 237),27	4267,(0, 239),27	4294,(0, 240),27	4321,(0, 242),27	4348,(0, 243),27	4375,(0, 245),27	4402,(0, 246),27	4429,(0, 248),27	4456,(0, 249),27	4483,(0, 251),27	4510,(0, 252),27	4537,(0, 254),27	4564,(0, 255),27	4591,(0, 257),27	4618,(0, 258),27	4645,(0, 260),27	4672,(0, 261),27	4699,(0, 263),27	4726,(0, 264),27	4753,(0, 266),27	4780,(0, 267),27	4807,(0, 269),27	4834,(0, 270),27	4861,(0, 272),27	4888,(0, 273),27	4915,(0, 275),27	4942,(0, 276),27	4969,(0, 278),27	4996,(0, 279),27	5023,(0, 281),27	5050,(0, 282),27	5077,(0, 284),27	5104,(0, 285),27	5131,(0, 287),27	5158,(0, 288),27	5185,(0, 290),27	5212,(0, 291),27	5239,(0, 293),27	5266,(0, 294),27	5293,(0, 296),27	5320,(0, 297),27	5347,(0, 299),27	5374,(0, 300),27	5401,(0, 302),27	5428,(0, 303),27	5455,(0, 305),27	5482,(0, 306),27	5509,(0, 308),27	5536,(0, 309),27	5563,(0, 311),27	5590,(0, 312),27	5617,(0, 314),27	5644,(0, 315),27	5671,(0, 317),27	5698,(0, 318),27	5725,(0, 320),27	5752,(0, 321),27	5779,(0, 323),27	5806,(0, 324),27	5833,(0, 326),27	5860,(0, 327),27	5887,(0, 329),27	5914,(0, 330),27	5941,(0, 332),27	5968,(0, 333),27	5995,(0, 335),27	6022,(0, 336),27	6049,(0, 338),27	6076,(0, 339),27	6103,(0, 341),27	6130,(0, 342),27	6157,(0, 344),27	6184,(0, 345),27	6211,(0, 347),27	6238,(0, 348),27	6265,(0, 350),27	6292,(0, 351),27	6319,(0, 353),27	6346,(0, 354),27	6373,(0, 356),27	6400,(0, 357),27	6427,(0, 359),27	6454,(0, 360),27	6481,(0, 362),27	6508,(0, 363),27	6535,(0, 365),27	6562,(0, 366),27	6589,(0, 368),27	6616,(0, 369),27	6643,(0, 371),27	6670,(0, 372),27	6697,(0, 374),27	6724,(0, 375),27	6751,(0, 377),27	6778,(0, 378),27	6805,(0, 380),27	6832,(0, 381),27	6859,(0, 383),27	6886,(0, 384),27	6913,(0, 386),27	6940,(0, 387),27	6967,(0, 389),27	6994,(0, 390),27	7021,(0, 392),27	7048,(0, 393),27	7075,(0, 395),27	7102,(0, 396),27	7129,(0, 398),27	7156,(0, 399),27	7183,(0, 401),27	7210,(0, 402),27	7237,(0, 404),27	7264,(0, 405),27	7291,(0, 407),27	7318,(0, 408),27	7345,(0, 410),27	7372,(0, 411),27	7399,(0, 413),27	7426,(0, 414),27	7453,(0, 416),27	7480,(0, 417),27	7507,(0, 419),27	7534,(0, 420),27	7561,(0, 422),27	7588,(0, 423),27	7615,(0, 425),27	7642,(0, 426),27	7669,(0, 428),27	7696,(0, 429),27	7723,(0, 431),27	7750,(0, 432),27	7777,(0, 434),27	7804,(0, 435),27	7831,(0, 437),27	7858,(0, 438),27	7885,(0, 440),27	7912,(0, 441),27	7939,(0, 443),27	7966,(0, 444),27	7993,(0, 446),27	8020,(0, 447),27	8047,(0, 449),27	8074,(0, 450),27	8101,(0, 452),27	8128,(0, 453),27	8155,(0, 455),27	8182,(0, 456),27	8209,(0, 458),27	8236,(0, 459),27	8263,(0, 461),27	8290,(0, 462),27	8317,(0, 464),27	8344,(0, 465),27	8371,(0, 467),27	8398,(0, 468),27	8425,(0, 470),27	8452,(0, 471),27	8479,(0, 473),27	8506,(0, 474),27	8533,(0, 476),27	8560,(0, 477),27	8587,(0, 479),27	8614,(0, 480),27	8641,(0, 482),27	8668,(0, 483),27	8695,(0, 485),27	8722,(0, 486),27	8749,(0, 488),27	8776,(0, 489),27	8803,(0, 491),27	8830,(0, 492),27	8857,(0, 494),27	8884,(0, 495),27	8911,(0, 497),27	8938,(0, 498),27	8965,(0, 500),27	
