1119
# CPU
0,501,1	1,329,5	6,328,5	11,326,5	16,325,5	21,401,5	26,205,5	31,321,5	36,320,5	41,350,5	46,201,5	51,317,5	56,315,5	61,116,5	66,199,5	71,313,5	76,311,5	81,192,5	86,196,5	91,308,5	96,307,5	101,438,5	106,193,5	111,303,5	116,302,5	121,68,5	126,410,5	131,299,5	136,298,5	141,102,5	146,181,5	151,295,5	156,293,5	161,413,5	166,177,5	171,290,5	176,289,5	181,98,5	186,415,5	191,285,5	196,284,5	201,44,5	206,417,5	211,281,5	216,279,5	221,371,5	226,168,5	231,275,5	236,273,5	241,412,5	246,164,5	251,270,5	256,269,5	261,261,5	266,161,5	271,266,5	276,265,5	281,160,5	286,157,5	291,263,5	296,260,5	301,467,5	306,425,5	311,255,5	316,254,5	321,247,5	326,427,5	331,251,5	336,250,5	341,239,5	346,429,5	351,245,5	356,244,5	361,81,5	366,143,5	371,241,5	376,238,5	381,230,5	386,432,5	391,235,5	396,233,5	401,82,5	406,136,5	411,231,5	416,229,5	421,48,5	426,436,5	431,225,5	436,224,5	441,26,5	446,132,5	451,221,5	456,220,5	461,212,5	466,128,5	471,217,5	476,216,5	481,462,5	486,124,5	491,213,5	496,211,5	501,443,5	506,442,5	511,204,5	516,203,5	521,465,5	526,117,5	531,198,5	536,195,5	541,29,5	546,446,5	551,405,5	556,404,5	561,447,5	566,110,5	571,407,5	576,408,5	581,60,5	586,107,5	591,409,5	596,411,5	601,118,5	606,103,5	611,418,5	616,416,5	621,113,5	626,106,5	631,420,5	636,421,5	641,162,5	646,100,5	651,423,5	656,424,5	661,457,5	666,453,5	671,422,5	676,426,5	681,73,5	686,92,5	691,430,5	696,428,5	701,87,5	706,458,5	711,433,5	716,431,5	721,460,5	726,459,5	731,419,5	736,434,5	741,466,5	746,461,5	751,414,5	756,435,5	761,485,5	766,463,5	771,406,5	776,437,5	781,486,5	786,71,5	791,439,5	796,149,5	801,440,5	806,469,5	811,441,5	816,444,5	821,58,5	826,63,5	831,94,5	836,93,5	841,15,5	846,59,5	851,90,5	856,88,5	861,21,5	866,50,5	871,85,5	876,83,5	881,54,5	886,45,5	891,79,5	896,78,5	901,38,5	906,481,5	911,74,5	916,72,5	921,478,5	926,37,5	931,67,5	936,66,5	941,492,5	946,483,5	951,57,5	956,56,5	961,19,5	966,31,5	971,480,5	976,482,5	981,9,5	986,28,5	991,484,5	996,487,5	1001,495,5	1006,479,5	1011,488,5	1016,477,5	1021,10,5	1026,1,5	1031,490,5	1036,489,5	1041,497,5	1046,22,5	1051,20,5	1056,18,5	1061,13,5	1066,11,5	1071,16,5	1076,14,5	1081,6,5	1086,2,5	1091,3,5	1096,4,5	1101,5,5	1106,7,5	1111,500,5	1118,0,1	
9,336,5	29,338,5	41,330,5	49,340,5	61,342,5	81,345,5	89,346,5	101,316,5	109,348,5	129,309,5	161,301,5	169,356,5	181,358,5	425,386,5	477,393,5	497,395,5	505,215,5	545,200,5	557,190,5	565,189,5	577,185,5	585,197,5	597,180,5	605,399,5	637,171,5	769,127,5	801,114,5	809,111,5	821,109,5	829,135,5	841,445,5	849,448,5	861,450,5	957,472,5	977,53,5	985,61,5	1041,474,5	1049,475,5	1077,24,5	1105,12,5	
21,333,5	265,366,5	277,368,5	285,369,5	317,373,5	337,375,5	345,376,5	357,377,5	365,378,5	385,381,5	397,382,5	405,383,5	417,385,5	437,387,5	445,388,5	457,390,5	465,391,5	485,222,5	517,396,5	525,208,5	537,398,5	617,175,5	625,400,5	645,402,5	657,166,5	665,165,5	677,155,5	685,159,5	705,403,5	717,146,5	745,138,5	905,464,5	917,468,5	925,80,5	937,471,5	945,75,5	965,473,5	997,47,5	1005,46,5	1065,491,5	1085,494,5	1109,8,5	
5,334,5	77,344,5	117,349,5	125,351,5	137,352,5	145,353,5	157,355,5	177,357,5	197,359,5	205,360,5	217,361,5	225,286,5	237,363,5	245,280,5	257,365,5	297,372,5	305,268,5	325,374,5	377,380,5	697,151,5	725,145,5	737,139,5	757,131,5	765,130,5	777,123,5	785,122,5	797,115,5	817,105,5	877,452,5	885,454,5	897,456,5	1017,39,5	1025,42,5	1037,33,5	1057,476,5	1097,499,5	
17,337,5	37,339,5	57,341,5	65,323,5	97,347,5	105,314,5	185,296,5	353,253,5	433,234,5	473,392,5	493,394,5	513,210,5	533,397,5	553,191,5	573,186,5	593,182,5	613,176,5	633,172,5	673,156,5	825,104,5	837,142,5	857,449,5	865,97,5	953,69,5	973,55,5	993,49,5	1073,493,5	
25,332,5	45,327,5	85,319,5	165,300,5	193,294,5	213,288,5	273,367,5	293,370,5	313,264,5	333,258,5	373,379,5	393,243,5	413,384,5	453,389,5	653,167,5	693,152,5	713,147,5	753,133,5	805,112,5	845,101,5	913,86,5	933,470,5	1013,40,5	1045,32,5	
73,343,5	153,354,5	233,362,5	253,364,5	733,140,5	793,119,5	873,451,5	893,455,5	1033,34,5	1093,496,5	
33,331,5	53,324,5	113,312,5	133,306,5	173,297,5	549,194,5	561,188,5	569,187,5	601,179,5	773,125,5	813,108,5	833,126,5	853,99,5	1053,30,5	
13,335,5	93,318,5	281,272,5	349,252,5	361,249,5	389,242,5	401,240,5	409,237,5	421,236,5	429,232,5	441,228,5	461,226,5	469,223,5	481,219,5	489,218,5	501,214,5	509,209,5	521,207,5	529,206,5	541,202,5	581,184,5	589,183,5	609,178,5	621,174,5	629,173,5	641,170,5	649,169,5	669,158,5	681,154,5	709,148,5	921,77,5	941,70,5	949,65,5	961,64,5	969,62,5	981,52,5	989,51,5	1001,43,5	1069,25,5	1081,23,5	1101,498,5	
69,322,5	121,310,5	141,305,5	149,304,5	189,292,5	201,291,5	209,287,5	221,283,5	229,282,5	241,278,5	249,277,5	261,276,5	269,274,5	289,271,5	301,267,5	309,262,5	321,259,5	329,257,5	341,256,5	369,248,5	381,246,5	449,227,5	661,163,5	689,153,5	701,150,5	721,144,5	729,141,5	741,137,5	749,134,5	761,129,5	781,121,5	789,120,5	869,96,5	881,95,5	889,91,5	901,89,5	909,84,5	929,76,5	1009,41,5	1021,36,5	1029,35,5	1061,27,5	1089,17,5	
# Incoming
10,(334, 0),4	14,(336, 0),4	18,(335, 0),4	22,(337, 0),4	26,(333, 0),4	30,(332, 0),4	34,(338, 0),4	38,(331, 0),4	42,(339, 0),4	46,(330, 0),4	50,(327, 0),4	54,(340, 0),4	58,(324, 0),4	62,(341, 0),4	66,(342, 0),4	70,(323, 0),4	74,(322, 0),4	78,(343, 0),4	82,(344, 0),4	86,(345, 0),4	90,(319, 0),4	94,(346, 0),4	98,(318, 0),4	102,(347, 0),4	106,(316, 0),4	110,(314, 0),4	114,(348, 0),4	118,(312, 0),4	122,(349, 0),4	126,(310, 0),4	130,(351, 0),4	134,(309, 0),4	138,(306, 0),4	142,(352, 0),4	146,(305, 0),4	150,(353, 0),4	154,(304, 0),4	158,(354, 0),4	162,(355, 0),4	166,(301, 0),4	170,(300, 0),4	174,(356, 0),4	178,(297, 0),4	182,(357, 0),4	186,(358, 0),4	190,(296, 0),4	194,(292, 0),4	198,(294, 0),4	202,(359, 0),4	206,(291, 0),4	210,(360, 0),4	214,(287, 0),4	218,(288, 0),4	222,(361, 0),4	226,(283, 0),4	230,(286, 0),4	234,(282, 0),4	238,(362, 0),4	242,(363, 0),4	246,(278, 0),4	250,(280, 0),4	254,(277, 0),4	258,(364, 0),4	262,(365, 0),4	266,(276, 0),4	270,(366, 0),4	274,(274, 0),4	278,(367, 0),4	282,(368, 0),4	286,(272, 0),4	290,(369, 0),4	294,(271, 0),4	298,(370, 0),4	302,(372, 0),4	306,(267, 0),4	310,(268, 0),4	314,(262, 0),4	318,(264, 0),4	322,(373, 0),4	326,(259, 0),4	330,(374, 0),4	334,(257, 0),4	338,(258, 0),4	342,(375, 0),4	346,(256, 0),4	350,(376, 0),4	354,(252, 0),4	358,(253, 0),4	362,(377, 0),4	366,(249, 0),4	370,(378, 0),4	374,(248, 0),4	378,(379, 0),4	382,(380, 0),4	386,(246, 0),4	390,(381, 0),4	394,(242, 0),4	398,(243, 0),4	402,(382, 0),4	406,(240, 0),4	410,(383, 0),4	414,(237, 0),4	418,(384, 0),4	422,(385, 0),4	426,(236, 0),4	430,(386, 0),4	434,(232, 0),4	438,(234, 0),4	442,(387, 0),4	446,(228, 0),4	450,(388, 0),4	454,(227, 0),4	458,(389, 0),4	462,(390, 0),4	466,(226, 0),4	470,(391, 0),4	474,(223, 0),4	478,(392, 0),4	482,(393, 0),4	486,(219, 0),4	490,(222, 0),4	494,(218, 0),4	498,(394, 0),4	502,(395, 0),4	506,(214, 0),4	510,(215, 0),4	514,(209, 0),4	518,(210, 0),4	522,(396, 0),4	526,(207, 0),4	530,(208, 0),4	534,(206, 0),4	538,(397, 0),4	542,(398, 0),4	546,(202, 0),4	550,(200, 0),4	554,(194, 0),4	558,(191, 0),4	562,(190, 0),4	566,(188, 0),4	570,(189, 0),4	574,(187, 0),4	578,(186, 0),4	582,(185, 0),4	586,(184, 0),4	590,(197, 0),4	594,(183, 0),4	598,(182, 0),4	602,(180, 0),4	606,(179, 0),4	610,(399, 0),4	614,(178, 0),4	618,(176, 0),4	622,(175, 0),4	626,(174, 0),4	630,(400, 0),4	634,(173, 0),4	638,(172, 0),4	642,(171, 0),4	646,(170, 0),4	650,(402, 0),4	654,(169, 0),4	658,(167, 0),4	662,(166, 0),4	666,(163, 0),4	670,(165, 0),4	674,(158, 0),4	678,(156, 0),4	682,(155, 0),4	686,(154, 0),4	690,(159, 0),4	694,(153, 0),4	698,(152, 0),4	702,(151, 0),4	706,(150, 0),4	710,(403, 0),4	714,(148, 0),4	718,(147, 0),4	722,(146, 0),4	726,(144, 0),4	730,(145, 0),4	734,(141, 0),4	738,(140, 0),4	742,(139, 0),4	746,(137, 0),4	750,(138, 0),4	754,(134, 0),4	758,(133, 0),4	762,(131, 0),4	766,(129, 0),4	770,(130, 0),4	774,(127, 0),4	778,(125, 0),4	782,(123, 0),4	786,(121, 0),4	790,(122, 0),4	794,(120, 0),4	798,(119, 0),4	802,(115, 0),4	806,(114, 0),4	810,(112, 0),4	814,(111, 0),4	818,(108, 0),4	822,(105, 0),4	826,(109, 0),4	830,(104, 0),4	834,(135, 0),4	838,(126, 0),4	842,(142, 0),4	846,(445, 0),4	850,(101, 0),4	854,(448, 0),4	858,(99, 0),4	862,(449, 0),4	866,(450, 0),4	870,(97, 0),4	874,(96, 0),4	878,(451, 0),4	882,(452, 0),4	886,(95, 0),4	890,(454, 0),4	894,(91, 0),4	898,(455, 0),4	902,(456, 0),4	906,(89, 0),4	910,(464, 0),4	914,(84, 0),4	918,(86, 0),4	922,(468, 0),4	926,(77, 0),4	930,(80, 0),4	934,(76, 0),4	938,(470, 0),4	942,(471, 0),4	946,(70, 0),4	950,(75, 0),4	954,(65, 0),4	958,(69, 0),4	962,(472, 0),4	966,(64, 0),4	970,(473, 0),4	974,(62, 0),4	978,(55, 0),4	982,(53, 0),4	986,(52, 0),4	990,(61, 0),4	994,(51, 0),4	998,(49, 0),4	1002,(47, 0),4	1006,(43, 0),4	1010,(46, 0),4	1014,(41, 0),4	1018,(40, 0),4	1022,(39, 0),4	1026,(36, 0),4	1030,(42, 0),4	1034,(35, 0),4	1038,(34, 0),4	1042,(33, 0),4	1046,(474, 0),4	1050,(32, 0),4	1054,(475, 0),4	1058,(30, 0),4	1062,(476, 0),4	1066,(27, 0),4	1070,(491, 0),4	1074,(25, 0),4	1078,(493, 0),4	1082,(24, 0),4	1086,(23, 0),4	1090,(494, 0),4	1094,(17, 0),4	1098,(496, 0),4	1102,(499, 0),4	1106,(498, 0),4	1110,(12, 0),4	1114,(8, 0),4	
5,(501, 336),4	25,(501, 338),4	37,(501, 330),4	45,(501, 340),4	57,(501, 342),4	77,(501, 345),4	85,(501, 346),4	97,(501, 316),4	105,(501, 348),4	125,(501, 309),4	157,(501, 301),4	165,(501, 356),4	177,(501, 358),4	421,(501, 386),4	473,(501, 393),4	493,(501, 395),4	501,(501, 215),4	541,(501, 200),4	553,(501, 190),4	561,(501, 189),4	573,(501, 185),4	581,(501, 197),4	593,(501, 180),4	601,(501, 399),4	633,(501, 171),4	765,(501, 127),4	797,(501, 114),4	805,(501, 111),4	817,(501, 109),4	825,(501, 135),4	837,(501, 445),4	845,(501, 448),4	857,(501, 450),4	953,(501, 472),4	973,(501, 53),4	981,(501, 61),4	1037,(501, 474),4	1045,(501, 475),4	1073,(501, 24),4	1101,(501, 12),4	
17,(501, 333),4	261,(501, 366),4	273,(501, 368),4	281,(501, 369),4	313,(501, 373),4	333,(501, 375),4	341,(501, 376),4	353,(501, 377),4	361,(501, 378),4	381,(501, 381),4	393,(501, 382),4	401,(501, 383),4	413,(501, 385),4	433,(501, 387),4	441,(501, 388),4	453,(501, 390),4	461,(501, 391),4	481,(501, 222),4	513,(501, 396),4	521,(501, 208),4	533,(501, 398),4	613,(501, 175),4	621,(501, 400),4	641,(501, 402),4	653,(501, 166),4	661,(501, 165),4	673,(501, 155),4	681,(501, 159),4	701,(501, 403),4	713,(501, 146),4	741,(501, 138),4	901,(501, 464),4	913,(501, 468),4	921,(501, 80),4	933,(501, 471),4	941,(501, 75),4	961,(501, 473),4	993,(501, 47),4	1001,(501, 46),4	1061,(501, 491),4	1081,(501, 494),4	1105,(501, 8),4	
1,(501, 334),4	73,(501, 344),4	113,(501, 349),4	121,(501, 351),4	133,(501, 352),4	141,(501, 353),4	153,(501, 355),4	173,(501, 357),4	193,(501, 359),4	201,(501, 360),4	213,(501, 361),4	221,(501, 286),4	233,(501, 363),4	241,(501, 280),4	253,(501, 365),4	293,(501, 372),4	301,(501, 268),4	321,(501, 374),4	373,(501, 380),4	693,(501, 151),4	721,(501, 145),4	733,(501, 139),4	753,(501, 131),4	761,(501, 130),4	773,(501, 123),4	781,(501, 122),4	793,(501, 115),4	813,(501, 105),4	873,(501, 452),4	881,(501, 454),4	893,(501, 456),4	1013,(501, 39),4	1021,(501, 42),4	1033,(501, 33),4	1053,(501, 476),4	1093,(501, 499),4	
13,(501, 337),4	33,(501, 339),4	53,(501, 341),4	61,(501, 323),4	93,(501, 347),4	101,(501, 314),4	181,(501, 296),4	349,(501, 253),4	429,(501, 234),4	469,(501, 392),4	489,(501, 394),4	509,(501, 210),4	529,(501, 397),4	549,(501, 191),4	569,(501, 186),4	589,(501, 182),4	609,(501, 176),4	629,(501, 172),4	669,(501, 156),4	821,(501, 104),4	833,(501, 142),4	853,(501, 449),4	861,(501, 97),4	949,(501, 69),4	969,(501, 55),4	989,(501, 49),4	1069,(501, 493),4	
21,(501, 332),4	41,(501, 327),4	81,(501, 319),4	161,(501, 300),4	189,(501, 294),4	209,(501, 288),4	269,(501, 367),4	289,(501, 370),4	309,(501, 264),4	329,(501, 258),4	369,(501, 379),4	389,(501, 243),4	409,(501, 384),4	449,(501, 389),4	649,(501, 167),4	689,(501, 152),4	709,(501, 147),4	749,(501, 133),4	801,(501, 112),4	841,(501, 101),4	909,(501, 86),4	929,(501, 470),4	1009,(501, 40),4	1041,(501, 32),4	
69,(501, 343),4	149,(501, 354),4	229,(501, 362),4	249,(501, 364),4	729,(501, 140),4	789,(501, 119),4	869,(501, 451),4	889,(501, 455),4	1029,(501, 34),4	1089,(501, 496),4	
29,(501, 331),4	49,(501, 324),4	109,(501, 312),4	129,(501, 306),4	169,(501, 297),4	545,(501, 194),4	557,(501, 188),4	565,(501, 187),4	597,(501, 179),4	769,(501, 125),4	809,(501, 108),4	829,(501, 126),4	849,(501, 99),4	1049,(501, 30),4	
9,(501, 335),4	89,(501, 318),4	277,(501, 272),4	345,(501, 252),4	357,(501, 249),4	385,(501, 242),4	397,(501, 240),4	405,(501, 237),4	417,(501, 236),4	425,(501, 232),4	437,(501, 228),4	457,(501, 226),4	465,(501, 223),4	477,(501, 219),4	485,(501, 218),4	497,(501, 214),4	505,(501, 209),4	517,(501, 207),4	525,(501, 206),4	537,(501, 202),4	577,(501, 184),4	585,(501, 183),4	605,(501, 178),4	617,(501, 174),4	625,(501, 173),4	637,(501, 170),4	645,(501, 169),4	665,(501, 158),4	677,(501, 154),4	705,(501, 148),4	917,(501, 77),4	937,(501, 70),4	945,(501, 65),4	957,(501, 64),4	965,(501, 62),4	977,(501, 52),4	985,(501, 51),4	997,(501, 43),4	1065,(501, 25),4	1077,(501, 23),4	1097,(501, 498),4	
65,(501, 322),4	117,(501, 310),4	137,(501, 305),4	145,(501, 304),4	185,(501, 292),4	197,(501, 291),4	205,(501, 287),4	217,(501, 283),4	225,(501, 282),4	237,(501, 278),4	245,(501, 277),4	257,(501, 276),4	265,(501, 274),4	285,(501, 271),4	297,(501, 267),4	305,(501, 262),4	317,(501, 259),4	325,(501, 257),4	337,(501, 256),4	365,(501, 248),4	377,(501, 246),4	445,(501, 227),4	657,(501, 163),4	685,(501, 153),4	697,(501, 150),4	717,(501, 144),4	725,(501, 141),4	737,(501, 137),4	745,(501, 134),4	757,(501, 129),4	777,(501, 121),4	785,(501, 120),4	865,(501, 96),4	877,(501, 95),4	885,(501, 91),4	897,(501, 89),4	905,(501, 84),4	925,(501, 76),4	1005,(501, 41),4	1017,(501, 36),4	1025,(501, 35),4	1057,(501, 27),4	1085,(501, 17),4	
# Outgoing
1,(501, 334),4	5,(501, 336),4	9,(501, 335),4	13,(501, 337),4	17,(501, 333),4	21,(501, 332),4	25,(501, 338),4	29,(501, 331),4	33,(501, 339),4	37,(501, 330),4	41,(501, 327),4	45,(501, 340),4	49,(501, 324),4	53,(501, 341),4	57,(501, 342),4	61,(501, 323),4	65,(501, 322),4	69,(501, 343),4	73,(501, 344),4	77,(501, 345),4	81,(501, 319),4	85,(501, 346),4	89,(501, 318),4	93,(501, 347),4	97,(501, 316),4	101,(501, 314),4	105,(501, 348),4	109,(501, 312),4	113,(501, 349),4	117,(501, 310),4	121,(501, 351),4	125,(501, 309),4	129,(501, 306),4	133,(501, 352),4	137,(501, 305),4	141,(501, 353),4	145,(501, 304),4	149,(501, 354),4	153,(501, 355),4	157,(501, 301),4	161,(501, 300),4	165,(501, 356),4	169,(501, 297),4	173,(501, 357),4	177,(501, 358),4	181,(501, 296),4	185,(501, 292),4	189,(501, 294),4	193,(501, 359),4	197,(501, 291),4	201,(501, 360),4	205,(501, 287),4	209,(501, 288),4	213,(501, 361),4	217,(501, 283),4	221,(501, 286),4	225,(501, 282),4	229,(501, 362),4	233,(501, 363),4	237,(501, 278),4	241,(501, 280),4	245,(501, 277),4	249,(501, 364),4	253,(501, 365),4	257,(501, 276),4	261,(501, 366),4	265,(501, 274),4	269,(501, 367),4	273,(501, 368),4	277,(501, 272),4	281,(501, 369),4	285,(501, 271),4	289,(501, 370),4	293,(501, 372),4	297,(501, 267),4	301,(501, 268),4	305,(501, 262),4	309,(501, 264),4	313,(501, 373),4	317,(501, 259),4	321,(501, 374),4	325,(501, 257),4	329,(501, 258),4	333,(501, 375),4	337,(501, 256),4	341,(501, 376),4	345,(501, 252),4	349,(501, 253),4	353,(501, 377),4	357,(501, 249),4	361,(501, 378),4	365,(501, 248),4	369,(501, 379),4	373,(501, 380),4	377,(501, 246),4	381,(501, 381),4	385,(501, 242),4	389,(501, 243),4	393,(501, 382),4	397,(501, 240),4	401,(501, 383),4	405,(501, 237),4	409,(501, 384),4	413,(501, 385),4	417,(501, 236),4	421,(501, 386),4	425,(501, 232),4	429,(501, 234),4	433,(501, 387),4	437,(501, 228),4	441,(501, 388),4	445,(501, 227),4	449,(501, 389),4	453,(501, 390),4	457,(501, 226),4	461,(501, 391),4	465,(501, 223),4	469,(501, 392),4	473,(501, 393),4	477,(501, 219),4	481,(501, 222),4	485,(501, 218),4	489,(501, 394),4	493,(501, 395),4	497,(501, 214),4	501,(501, 215),4	505,(501, 209),4	509,(501, 210),4	513,(501, 396),4	517,(501, 207),4	521,(501, 208),4	525,(501, 206),4	529,(501, 397),4	533,(501, 398),4	537,(501, 202),4	541,(501, 200),4	545,(501, 194),4	549,(501, 191),4	553,(501, 190),4	557,(501, 188),4	561,(501, 189),4	565,(501, 187),4	569,(501, 186),4	573,(501, 185),4	577,(501, 184),4	581,(501, 197),4	585,(501, 183),4	589,(501, 182),4	593,(501, 180),4	597,(501, 179),4	601,(501, 399),4	605,(501, 178),4	609,(501, 176),4	613,(501, 175),4	617,(501, 174),4	621,(501, 400),4	625,(501, 173),4	629,(501, 172),4	633,(501, 171),4	637,(501, 170),4	641,(501, 402),4	645,(501, 169),4	649,(501, 167),4	653,(501, 166),4	657,(501, 163),4	661,(501, 165),4	665,(501, 158),4	669,(501, 156),4	673,(501, 155),4	677,(501, 154),4	681,(501, 159),4	685,(501, 153),4	689,(501, 152),4	693,(501, 151),4	697,(501, 150),4	701,(501, 403),4	705,(501, 148),4	709,(501, 147),4	713,(501, 146),4	717,(501, 144),4	721,(501, 145),4	725,(501, 141),4	729,(501, 140),4	733,(501, 139),4	737,(501, 137),4	741,(501, 138),4	745,(501, 134),4	749,(501, 133),4	753,(501, 131),4	757,(501, 129),4	761,(501, 130),4	765,(501, 127),4	769,(501, 125),4	773,(501, 123),4	777,(501, 121),4	781,(501, 122),4	785,(501, 120),4	789,(501, 119),4	793,(501, 115),4	797,(501, 114),4	801,(501, 112),4	805,(501, 111),4	809,(501, 108),4	813,(501, 105),4	817,(501, 109),4	821,(501, 104),4	825,(501, 135),4	829,(501, 126),4	833,(501, 142),4	837,(501, 445),4	841,(501, 101),4	845,(501, 448),4	849,(501, 99),4	853,(501, 449),4	857,(501, 450),4	861,(501, 97),4	865,(501, 96),4	869,(501, 451),4	873,(501, 452),4	877,(501, 95),4	881,(501, 454),4	885,(501, 91),4	889,(501, 455),4	893,(501, 456),4	897,(501, 89),4	901,(501, 464),4	905,(501, 84),4	909,(501, 86),4	913,(501, 468),4	917,(501, 77),4	921,(501, 80),4	925,(501, 76),4	929,(501, 470),4	933,(501, 471),4	937,(501, 70),4	941,(501, 75),4	945,(501, 65),4	949,(501, 69),4	953,(501, 472),4	957,(501, 64),4	961,(501, 473),4	965,(501, 62),4	969,(501, 55),4	973,(501, 53),4	977,(501, 52),4	981,(501, 61),4	985,(501, 51),4	989,(501, 49),4	993,(501, 47),4	997,(501, 43),4	1001,(501, 46),4	1005,(501, 41),4	1009,(501, 40),4	1013,(501, 39),4	1017,(501, 36),4	1021,(501, 42),4	1025,(501, 35),4	1029,(501, 34),4	1033,(501, 33),4	1037,(501, 474),4	1041,(501, 32),4	1045,(501, 475),4	1049,(501, 30),4	1053,(501, 476),4	1057,(501, 27),4	1061,(501, 491),4	1065,(501, 25),4	1069,(501, 493),4	1073,(501, 24),4	1077,(501, 23),4	1081,(501, 494),4	1085,(501, 17),4	1089,(501, 496),4	1093,(501, 499),4	1097,(501, 498),4	1101,(501, 12),4	1105,(501, 8),4	
14,(336, 0),4	34,(338, 0),4	46,(330, 0),4	54,(340, 0),4	66,(342, 0),4	86,(345, 0),4	94,(346, 0),4	106,(316, 0),4	114,(348, 0),4	134,(309, 0),4	166,(301, 0),4	174,(356, 0),4	186,(358, 0),4	430,(386, 0),4	482,(393, 0),4	502,(395, 0),4	510,(215, 0),4	550,(200, 0),4	562,(190, 0),4	570,(189, 0),4	582,(185, 0),4	590,(197, 0),4	602,(180, 0),4	610,(399, 0),4	642,(171, 0),4	774,(127, 0),4	806,(114, 0),4	814,(111, 0),4	826,(109, 0),4	834,(135, 0),4	846,(445, 0),4	854,(448, 0),4	866,(450, 0),4	962,(472, 0),4	982,(53, 0),4	990,(61, 0),4	1046,(474, 0),4	1054,(475, 0),4	1082,(24, 0),4	1110,(12, 0),4	
26,(333, 0),4	270,(366, 0),4	282,(368, 0),4	290,(369, 0),4	322,(373, 0),4	342,(375, 0),4	350,(376, 0),4	362,(377, 0),4	370,(378, 0),4	390,(381, 0),4	402,(382, 0),4	410,(383, 0),4	422,(385, 0),4	442,(387, 0),4	450,(388, 0),4	462,(390, 0),4	470,(391, 0),4	490,(222, 0),4	522,(396, 0),4	530,(208, 0),4	542,(398, 0),4	622,(175, 0),4	630,(400, 0),4	650,(402, 0),4	662,(166, 0),4	670,(165, 0),4	682,(155, 0),4	690,(159, 0),4	710,(403, 0),4	722,(146, 0),4	750,(138, 0),4	910,(464, 0),4	922,(468, 0),4	930,(80, 0),4	942,(471, 0),4	950,(75, 0),4	970,(473, 0),4	1002,(47, 0),4	1010,(46, 0),4	1070,(491, 0),4	1090,(494, 0),4	1114,(8, 0),4	
10,(334, 0),4	82,(344, 0),4	122,(349, 0),4	130,(351, 0),4	142,(352, 0),4	150,(353, 0),4	162,(355, 0),4	182,(357, 0),4	202,(359, 0),4	210,(360, 0),4	222,(361, 0),4	230,(286, 0),4	242,(363, 0),4	250,(280, 0),4	262,(365, 0),4	302,(372, 0),4	310,(268, 0),4	330,(374, 0),4	382,(380, 0),4	702,(151, 0),4	730,(145, 0),4	742,(139, 0),4	762,(131, 0),4	770,(130, 0),4	782,(123, 0),4	790,(122, 0),4	802,(115, 0),4	822,(105, 0),4	882,(452, 0),4	890,(454, 0),4	902,(456, 0),4	1022,(39, 0),4	1030,(42, 0),4	1042,(33, 0),4	1062,(476, 0),4	1102,(499, 0),4	
22,(337, 0),4	42,(339, 0),4	62,(341, 0),4	70,(323, 0),4	102,(347, 0),4	110,(314, 0),4	190,(296, 0),4	358,(253, 0),4	438,(234, 0),4	478,(392, 0),4	498,(394, 0),4	518,(210, 0),4	538,(397, 0),4	558,(191, 0),4	578,(186, 0),4	598,(182, 0),4	618,(176, 0),4	638,(172, 0),4	678,(156, 0),4	830,(104, 0),4	842,(142, 0),4	862,(449, 0),4	870,(97, 0),4	958,(69, 0),4	978,(55, 0),4	998,(49, 0),4	1078,(493, 0),4	
30,(332, 0),4	50,(327, 0),4	90,(319, 0),4	170,(300, 0),4	198,(294, 0),4	218,(288, 0),4	278,(367, 0),4	298,(370, 0),4	318,(264, 0),4	338,(258, 0),4	378,(379, 0),4	398,(243, 0),4	418,(384, 0),4	458,(389, 0),4	658,(167, 0),4	698,(152, 0),4	718,(147, 0),4	758,(133, 0),4	810,(112, 0),4	850,(101, 0),4	918,(86, 0),4	938,(470, 0),4	1018,(40, 0),4	1050,(32, 0),4	
78,(343, 0),4	158,(354, 0),4	238,(362, 0),4	258,(364, 0),4	738,(140, 0),4	798,(119, 0),4	878,(451, 0),4	898,(455, 0),4	1038,(34, 0),4	1098,(496, 0),4	
38,(331, 0),4	58,(324, 0),4	118,(312, 0),4	138,(306, 0),4	178,(297, 0),4	554,(194, 0),4	566,(188, 0),4	574,(187, 0),4	606,(179, 0),4	778,(125, 0),4	818,(108, 0),4	838,(126, 0),4	858,(99, 0),4	1058,(30, 0),4	
18,(335, 0),4	98,(318, 0),4	286,(272, 0),4	354,(252, 0),4	366,(249, 0),4	394,(242, 0),4	406,(240, 0),4	414,(237, 0),4	426,(236, 0),4	434,(232, 0),4	446,(228, 0),4	466,(226, 0),4	474,(223, 0),4	486,(219, 0),4	494,(218, 0),4	506,(214, 0),4	514,(209, 0),4	526,(207, 0),4	534,(206, 0),4	546,(202, 0),4	586,(184, 0),4	594,(183, 0),4	614,(178, 0),4	626,(174, 0),4	634,(173, 0),4	646,(170, 0),4	654,(169, 0),4	674,(158, 0),4	686,(154, 0),4	714,(148, 0),4	926,(77, 0),4	946,(70, 0),4	954,(65, 0),4	966,(64, 0),4	974,(62, 0),4	986,(52, 0),4	994,(51, 0),4	1006,(43, 0),4	1074,(25, 0),4	1086,(23, 0),4	1106,(498, 0),4	
74,(322, 0),4	126,(310, 0),4	146,(305, 0),4	154,(304, 0),4	194,(292, 0),4	206,(291, 0),4	214,(287, 0),4	226,(283, 0),4	234,(282, 0),4	246,(278, 0),4	254,(277, 0),4	266,(276, 0),4	274,(274, 0),4	294,(271, 0),4	306,(267, 0),4	314,(262, 0),4	326,(259, 0),4	334,(257, 0),4	346,(256, 0),4	374,(248, 0),4	386,(246, 0),4	454,(227, 0),4	666,(163, 0),4	694,(153, 0),4	706,(150, 0),4	726,(144, 0),4	734,(141, 0),4	746,(137, 0),4	754,(134, 0),4	766,(129, 0),4	786,(121, 0),4	794,(120, 0),4	874,(96, 0),4	886,(95, 0),4	894,(91, 0),4	906,(89, 0),4	914,(84, 0),4	934,(76, 0),4	1014,(41, 0),4	1026,(36, 0),4	1034,(35, 0),4	1066,(27, 0),4	1094,(17, 0),4	
