36324
# CPU
0,501,1	1,329,725	726,323,725	1451,327,725	2176,339,725	2901,302,725	3626,346,725	4351,350,725	5076,353,725	5801,276,725	6526,360,725	7251,263,725	7976,367,725	8701,250,725	9426,374,725	10151,377,725	10876,381,725	11601,224,725	12326,387,725	13051,391,725	13776,395,725	14501,197,725	15226,401,725	15951,405,725	16676,408,725	17401,171,725	18126,423,725	18851,166,725	19576,430,725	20301,152,725	21026,436,725	21751,439,725	22476,442,725	23201,125,725	23926,448,725	24651,111,725	25376,455,725	26101,97,725	26826,461,725	27551,84,725	28276,88,725	29001,63,725	29726,467,725	30451,471,725	31176,475,725	31901,482,725	32626,489,725	33351,31,725	34076,18,725	34801,23,725	35526,7,725	
25,336,725	750,320,725	1475,314,725	2200,307,725	2925,300,725	3650,294,725	4375,288,725	5100,280,725	5825,274,725	6550,268,725	7275,261,725	8000,254,725	8725,248,725	9450,241,725	10175,235,725	10900,228,725	11625,222,725	12350,215,725	13075,209,725	13800,202,725	14525,195,725	15250,189,725	15975,183,725	16700,175,725	17425,169,725	18150,415,725	18875,164,725	19600,157,725	20325,150,725	21050,143,725	21775,137,725	22500,129,725	23225,123,725	23950,116,725	24675,109,725	25400,102,725	26125,95,725	26850,80,725	27575,74,725	28300,67,725	29025,61,725	29750,55,725	30475,49,725	31200,42,725	31925,480,725	32650,36,725	33375,29,725	34100,14,725	34825,9,725	35550,494,725	
49,330,725	774,318,725	1499,337,725	2224,305,725	2949,345,725	3674,292,725	4399,352,725	5124,355,725	5849,359,725	6574,266,725	7299,365,725	8024,369,725	8749,373,725	9474,239,725	10199,379,725	10924,383,725	11649,386,725	12374,213,725	13099,393,725	13824,200,725	14549,400,725	15274,187,725	15999,407,725	16724,410,725	17449,422,725	18174,413,725	18899,428,725	19624,155,725	20349,435,725	21074,141,725	21799,441,725	22524,444,725	23249,447,725	23974,114,725	24699,453,725	25424,100,725	26149,460,725	26874,78,725	27599,86,725	28324,462,725	29049,466,725	29774,53,725	30499,473,725	31224,485,725	31949,488,725	32674,34,725	33399,493,725	34124,21,725	34849,3,725	35574,497,725	
9,334,725	734,321,725	1459,315,725	2184,309,725	2909,301,725	3634,295,725	4359,289,725	5084,282,725	5809,275,725	6534,269,725	7259,262,725	7984,256,725	8709,249,725	9434,243,725	10159,236,725	10884,230,725	11609,223,725	12334,216,725	13059,210,725	13784,204,725	14509,196,725	15234,190,725	15959,184,725	16684,177,725	17409,170,725	18134,416,725	18859,165,725	19584,159,725	20309,151,725	21034,145,725	21759,138,725	22484,131,725	23209,124,725	23934,117,725	24659,110,725	25384,104,725	26109,96,725	26834,90,725	27559,75,725	28284,69,725	29009,62,725	29734,56,725	30459,50,725	31184,44,725	31909,481,725	32634,38,725	33359,30,725	34084,15,725	34809,10,725	35534,8,725	
65,340,725	790,326,725	1515,338,725	2240,342,725	2965,297,725	3690,349,725	4415,284,725	5140,356,725	5865,271,725	6590,363,725	7315,366,725	8040,370,725	8765,245,725	9490,376,725	10215,380,725	10940,384,725	11665,218,725	12390,390,725	13115,394,725	13840,397,725	14565,192,725	15290,404,725	16015,179,725	16740,411,725	17465,418,725	18190,426,725	18915,429,725	19640,432,725	20365,147,725	21090,438,725	21815,133,725	22540,445,725	23265,119,725	23990,451,725	24715,454,725	25440,457,725	26165,92,725	26890,83,725	27615,87,725	28340,463,725	29065,58,725	29790,470,725	30515,474,725	31240,486,725	31965,40,725	32690,491,725	33415,17,725	34140,22,725	34865,5,725	35590,499,725	
33,333,725	758,325,725	1483,313,725	2208,341,725	2933,344,725	3658,348,725	4383,287,725	5108,354,725	5833,358,725	6558,362,725	7283,260,725	8008,368,725	8733,372,725	9458,375,725	10183,234,725	10908,382,725	11633,221,725	12358,389,725	13083,208,725	13808,396,725	14533,399,725	15258,403,725	15983,182,725	16708,409,725	17433,421,725	18158,425,725	18883,163,725	19608,431,725	20333,434,725	21058,437,725	21783,136,725	22508,443,725	23233,122,725	23958,450,725	24683,108,725	25408,456,725	26133,459,725	26858,82,725	27583,73,725	28308,89,725	29033,465,725	29758,469,725	30483,48,725	31208,476,725	31933,479,725	32658,490,725	33383,28,725	34108,20,725	34833,1,725	35558,495,725	
41,332,725	766,319,725	1491,312,725	2216,306,725	2941,299,725	3666,293,725	4391,286,725	5116,279,725	5841,273,725	6566,267,725	7291,259,725	8016,253,725	8741,247,725	9466,240,725	10191,233,725	10916,227,725	11641,220,725	12366,214,725	13091,207,725	13816,201,725	14541,194,725	15266,188,725	15991,181,725	16716,174,725	17441,420,725	18166,414,725	18891,162,725	19616,156,725	20341,149,725	21066,142,725	21791,135,725	22516,128,725	23241,121,725	23966,115,725	24691,107,725	25416,101,725	26141,94,725	26866,79,725	27591,72,725	28316,66,725	29041,60,725	29766,54,725	30491,47,725	31216,41,725	31941,478,725	32666,35,725	33391,27,725	34116,13,725	34841,2,725	35566,496,725	
17,335,725	742,324,725	1467,331,725	2192,308,725	2917,343,725	3642,347,725	4367,351,725	5092,281,725	5817,357,725	6542,361,725	7267,364,725	7992,255,725	8717,371,725	9442,242,725	10167,378,725	10892,229,725	11617,385,725	12342,388,725	13067,392,725	13792,203,725	14517,398,725	15242,402,725	15967,406,725	16692,176,725	17417,412,725	18142,424,725	18867,427,725	19592,158,725	20317,433,725	21042,144,725	21767,440,725	22492,130,725	23217,446,725	23942,449,725	24667,452,725	25392,103,725	26117,458,725	26842,81,725	27567,85,725	28292,68,725	29017,464,725	29742,468,725	30467,472,725	31192,43,725	31917,487,725	32642,37,725	33367,492,725	34092,19,725	34817,24,725	35542,25,725	
57,328,725	782,317,725	1507,311,725	2232,304,725	2957,298,725	3682,291,725	4407,285,725	5132,278,725	5857,272,725	6582,265,725	7307,258,725	8032,252,725	8757,246,725	9482,238,725	10207,232,725	10932,226,725	11657,219,725	12382,212,725	13107,206,725	13832,199,725	14557,193,725	15282,186,725	16007,180,725	16732,173,725	17457,419,725	18182,168,725	18907,161,725	19632,154,725	20357,148,725	21082,140,725	21807,134,725	22532,127,725	23257,120,725	23982,113,725	24707,106,725	25432,99,725	26157,93,725	26882,77,725	27607,71,725	28332,65,725	29057,59,725	29782,52,725	30507,46,725	31232,484,725	31957,477,725	32682,33,725	33407,26,725	34132,12,725	34857,4,725	35582,498,725	
73,322,725	798,316,725	1523,310,725	2248,303,725	2973,296,725	3698,290,725	4423,283,725	5148,277,725	5873,270,725	6598,264,725	7323,257,725	8048,251,725	8773,244,725	9498,237,725	10223,231,725	10948,225,725	11673,217,725	12398,211,725	13123,205,725	13848,198,725	14573,191,725	15298,185,725	16023,178,725	16748,172,725	17473,417,725	18198,167,725	18923,160,725	19648,153,725	20373,146,725	21098,139,725	21823,132,725	22548,126,725	23273,118,725	23998,112,725	24723,105,725	25448,98,725	26173,91,725	26898,76,725	27623,70,725	28348,64,725	29073,57,725	29798,51,725	30523,45,725	31248,483,725	31973,39,725	32698,32,725	33423,16,725	34148,11,725	34873,6,725	35598,500,725	36323,0,1	
# Incoming

17,(501, 336),8	89,(501, 320),8	161,(501, 314),8	233,(501, 307),8	305,(501, 300),8	377,(501, 294),8	449,(501, 288),8	521,(501, 280),8	593,(501, 274),8	665,(501, 268),8	737,(501, 261),8	809,(501, 254),8	881,(501, 248),8	953,(501, 241),8	1025,(501, 235),8	1097,(501, 228),8	1169,(501, 222),8	1241,(501, 215),8	1313,(501, 209),8	1385,(501, 202),8	1457,(501, 195),8	1529,(501, 189),8	1601,(501, 183),8	1673,(501, 175),8	1745,(501, 169),8	1817,(501, 415),8	1889,(501, 164),8	1961,(501, 157),8	2033,(501, 150),8	2105,(501, 143),8	2177,(501, 137),8	2249,(501, 129),8	2321,(501, 123),8	2393,(501, 116),8	2465,(501, 109),8	2537,(501, 102),8	2609,(501, 95),8	2681,(501, 80),8	2753,(501, 74),8	2825,(501, 67),8	2897,(501, 61),8	2969,(501, 55),8	3041,(501, 49),8	3113,(501, 42),8	3185,(501, 480),8	3257,(501, 36),8	3329,(501, 29),8	3401,(501, 14),8	3473,(501, 9),8	3545,(501, 494),8	
41,(501, 330),8	113,(501, 318),8	185,(501, 337),8	257,(501, 305),8	329,(501, 345),8	401,(501, 292),8	473,(501, 352),8	545,(501, 355),8	617,(501, 359),8	689,(501, 266),8	761,(501, 365),8	833,(501, 369),8	905,(501, 373),8	977,(501, 239),8	1049,(501, 379),8	1121,(501, 383),8	1193,(501, 386),8	1265,(501, 213),8	1337,(501, 393),8	1409,(501, 200),8	1481,(501, 400),8	1553,(501, 187),8	1625,(501, 407),8	1697,(501, 410),8	1769,(501, 422),8	1841,(501, 413),8	1913,(501, 428),8	1985,(501, 155),8	2057,(501, 435),8	2129,(501, 141),8	2201,(501, 441),8	2273,(501, 444),8	2345,(501, 447),8	2417,(501, 114),8	2489,(501, 453),8	2561,(501, 100),8	2633,(501, 460),8	2705,(501, 78),8	2777,(501, 86),8	2849,(501, 462),8	2921,(501, 466),8	2993,(501, 53),8	3065,(501, 473),8	3137,(501, 485),8	3209,(501, 488),8	3281,(501, 34),8	3353,(501, 493),8	3425,(501, 21),8	3497,(501, 3),8	3569,(501, 497),8	
1,(501, 334),8	73,(501, 321),8	145,(501, 315),8	217,(501, 309),8	289,(501, 301),8	361,(501, 295),8	433,(501, 289),8	505,(501, 282),8	577,(501, 275),8	649,(501, 269),8	721,(501, 262),8	793,(501, 256),8	865,(501, 249),8	937,(501, 243),8	1009,(501, 236),8	1081,(501, 230),8	1153,(501, 223),8	1225,(501, 216),8	1297,(501, 210),8	1369,(501, 204),8	1441,(501, 196),8	1513,(501, 190),8	1585,(501, 184),8	1657,(501, 177),8	1729,(501, 170),8	1801,(501, 416),8	1873,(501, 165),8	1945,(501, 159),8	2017,(501, 151),8	2089,(501, 145),8	2161,(501, 138),8	2233,(501, 131),8	2305,(501, 124),8	2377,(501, 117),8	2449,(501, 110),8	2521,(501, 104),8	2593,(501, 96),8	2665,(501, 90),8	2737,(501, 75),8	2809,(501, 69),8	2881,(501, 62),8	2953,(501, 56),8	3025,(501, 50),8	3097,(501, 44),8	3169,(501, 481),8	3241,(501, 38),8	3313,(501, 30),8	3385,(501, 15),8	3457,(501, 10),8	3529,(501, 8),8	
57,(501, 340),8	129,(501, 326),8	201,(501, 338),8	273,(501, 342),8	345,(501, 297),8	417,(501, 349),8	489,(501, 284),8	561,(501, 356),8	633,(501, 271),8	705,(501, 363),8	777,(501, 366),8	849,(501, 370),8	921,(501, 245),8	993,(501, 376),8	1065,(501, 380),8	1137,(501, 384),8	1209,(501, 218),8	1281,(501, 390),8	1353,(501, 394),8	1425,(501, 397),8	1497,(501, 192),8	1569,(501, 404),8	1641,(501, 179),8	1713,(501, 411),8	1785,(501, 418),8	1857,(501, 426),8	1929,(501, 429),8	2001,(501, 432),8	2073,(501, 147),8	2145,(501, 438),8	2217,(501, 133),8	2289,(501, 445),8	2361,(501, 119),8	2433,(501, 451),8	2505,(501, 454),8	2577,(501, 457),8	2649,(501, 92),8	2721,(501, 83),8	2793,(501, 87),8	2865,(501, 463),8	2937,(501, 58),8	3009,(501, 470),8	3081,(501, 474),8	3153,(501, 486),8	3225,(501, 40),8	3297,(501, 491),8	3369,(501, 17),8	3441,(501, 22),8	3513,(501, 5),8	3585,(501, 499),8	
25,(501, 333),8	97,(501, 325),8	169,(501, 313),8	241,(501, 341),8	313,(501, 344),8	385,(501, 348),8	457,(501, 287),8	529,(501, 354),8	601,(501, 358),8	673,(501, 362),8	745,(501, 260),8	817,(501, 368),8	889,(501, 372),8	961,(501, 375),8	1033,(501, 234),8	1105,(501, 382),8	1177,(501, 221),8	1249,(501, 389),8	1321,(501, 208),8	1393,(501, 396),8	1465,(501, 399),8	1537,(501, 403),8	1609,(501, 182),8	1681,(501, 409),8	1753,(501, 421),8	1825,(501, 425),8	1897,(501, 163),8	1969,(501, 431),8	2041,(501, 434),8	2113,(501, 437),8	2185,(501, 136),8	2257,(501, 443),8	2329,(501, 122),8	2401,(501, 450),8	2473,(501, 108),8	2545,(501, 456),8	2617,(501, 459),8	2689,(501, 82),8	2761,(501, 73),8	2833,(501, 89),8	2905,(501, 465),8	2977,(501, 469),8	3049,(501, 48),8	3121,(501, 476),8	3193,(501, 479),8	3265,(501, 490),8	3337,(501, 28),8	3409,(501, 20),8	3481,(501, 1),8	3553,(501, 495),8	
33,(501, 332),8	105,(501, 319),8	177,(501, 312),8	249,(501, 306),8	321,(501, 299),8	393,(501, 293),8	465,(501, 286),8	537,(501, 279),8	609,(501, 273),8	681,(501, 267),8	753,(501, 259),8	825,(501, 253),8	897,(501, 247),8	969,(501, 240),8	1041,(501, 233),8	1113,(501, 227),8	1185,(501, 220),8	1257,(501, 214),8	1329,(501, 207),8	1401,(501, 201),8	1473,(501, 194),8	1545,(501, 188),8	1617,(501, 181),8	1689,(501, 174),8	1761,(501, 420),8	1833,(501, 414),8	1905,(501, 162),8	1977,(501, 156),8	2049,(501, 149),8	2121,(501, 142),8	2193,(501, 135),8	2265,(501, 128),8	2337,(501, 121),8	2409,(501, 115),8	2481,(501, 107),8	2553,(501, 101),8	2625,(501, 94),8	2697,(501, 79),8	2769,(501, 72),8	2841,(501, 66),8	2913,(501, 60),8	2985,(501, 54),8	3057,(501, 47),8	3129,(501, 41),8	3201,(501, 478),8	3273,(501, 35),8	3345,(501, 27),8	3417,(501, 13),8	3489,(501, 2),8	3561,(501, 496),8	
9,(501, 335),8	81,(501, 324),8	153,(501, 331),8	225,(501, 308),8	297,(501, 343),8	369,(501, 347),8	441,(501, 351),8	513,(501, 281),8	585,(501, 357),8	657,(501, 361),8	729,(501, 364),8	801,(501, 255),8	873,(501, 371),8	945,(501, 242),8	1017,(501, 378),8	1089,(501, 229),8	1161,(501, 385),8	1233,(501, 388),8	1305,(501, 392),8	1377,(501, 203),8	1449,(501, 398),8	1521,(501, 402),8	1593,(501, 406),8	1665,(501, 176),8	1737,(501, 412),8	1809,(501, 424),8	1881,(501, 427),8	1953,(501, 158),8	2025,(501, 433),8	2097,(501, 144),8	2169,(501, 440),8	2241,(501, 130),8	2313,(501, 446),8	2385,(501, 449),8	2457,(501, 452),8	2529,(501, 103),8	2601,(501, 458),8	2673,(501, 81),8	2745,(501, 85),8	2817,(501, 68),8	2889,(501, 464),8	2961,(501, 468),8	3033,(501, 472),8	3105,(501, 43),8	3177,(501, 487),8	3249,(501, 37),8	3321,(501, 492),8	3393,(501, 19),8	3465,(501, 24),8	3537,(501, 25),8	
49,(501, 328),8	121,(501, 317),8	193,(501, 311),8	265,(501, 304),8	337,(501, 298),8	409,(501, 291),8	481,(501, 285),8	553,(501, 278),8	625,(501, 272),8	697,(501, 265),8	769,(501, 258),8	841,(501, 252),8	913,(501, 246),8	985,(501, 238),8	1057,(501, 232),8	1129,(501, 226),8	1201,(501, 219),8	1273,(501, 212),8	1345,(501, 206),8	1417,(501, 199),8	1489,(501, 193),8	1561,(501, 186),8	1633,(501, 180),8	1705,(501, 173),8	1777,(501, 419),8	1849,(501, 168),8	1921,(501, 161),8	1993,(501, 154),8	2065,(501, 148),8	2137,(501, 140),8	2209,(501, 134),8	2281,(501, 127),8	2353,(501, 120),8	2425,(501, 113),8	2497,(501, 106),8	2569,(501, 99),8	2641,(501, 93),8	2713,(501, 77),8	2785,(501, 71),8	2857,(501, 65),8	2929,(501, 59),8	3001,(501, 52),8	3073,(501, 46),8	3145,(501, 484),8	3217,(501, 477),8	3289,(501, 33),8	3361,(501, 26),8	3433,(501, 12),8	3505,(501, 4),8	3577,(501, 498),8	
65,(501, 322),8	137,(501, 316),8	209,(501, 310),8	281,(501, 303),8	353,(501, 296),8	425,(501, 290),8	497,(501, 283),8	569,(501, 277),8	641,(501, 270),8	713,(501, 264),8	734,(334, 0),2	742,(335, 0),2	750,(336, 0),2	758,(333, 0),2	766,(332, 0),2	774,(330, 0),2	782,(328, 0),2	785,(501, 257),8	793,(340, 0),2	857,(501, 251),8	929,(501, 244),8	1001,(501, 237),8	1073,(501, 231),8	1145,(501, 225),8	1217,(501, 217),8	1289,(501, 211),8	1361,(501, 205),8	1433,(501, 198),8	1459,(321, 0),2	1467,(324, 0),2	1475,(320, 0),2	1483,(325, 0),2	1491,(319, 0),2	1499,(318, 0),2	1505,(501, 191),8	1513,(317, 0),2	1515,(326, 0),2	1577,(501, 185),8	1649,(501, 178),8	1721,(501, 172),8	1793,(501, 417),8	1865,(501, 167),8	1937,(501, 160),8	2009,(501, 153),8	2081,(501, 146),8	2153,(501, 139),8	2184,(315, 0),2	2192,(331, 0),2	2200,(314, 0),2	2208,(313, 0),2	2216,(312, 0),2	2225,(501, 132),8	2233,(337, 0),2	2235,(311, 0),2	2240,(338, 0),2	2297,(501, 126),8	2369,(501, 118),8	2441,(501, 112),8	2513,(501, 105),8	2585,(501, 98),8	2657,(501, 91),8	2729,(501, 76),8	2801,(501, 70),8	2873,(501, 64),8	2909,(309, 0),2	2917,(308, 0),2	2925,(307, 0),2	2933,(341, 0),2	2941,(306, 0),2	2945,(501, 57),8	2953,(305, 0),2	2957,(304, 0),2	2965,(342, 0),2	3017,(501, 51),8	3089,(501, 45),8	3161,(501, 483),8	3233,(501, 39),8	3305,(501, 32),8	3377,(501, 16),8	3449,(501, 11),8	3521,(501, 6),8	3593,(501, 500),8	3601,(329, 0),2	3603,(323, 0),2	3605,(327, 0),2	3607,(339, 0),2	3626,(302, 0),2	3634,(301, 0),2	3642,(343, 0),2	3650,(300, 0),2	3658,(344, 0),2	3666,(299, 0),2	3674,(345, 0),2	3682,(298, 0),2	3690,(297, 0),2	4351,(346, 0),2	4359,(295, 0),2	4367,(347, 0),2	4375,(294, 0),2	4383,(348, 0),2	4391,(293, 0),2	4399,(292, 0),2	4407,(291, 0),2	4415,(349, 0),2	5076,(350, 0),2	5084,(289, 0),2	5092,(351, 0),2	5100,(288, 0),2	5108,(287, 0),2	5116,(286, 0),2	5124,(352, 0),2	5132,(285, 0),2	5140,(284, 0),2	5801,(353, 0),2	5809,(282, 0),2	5817,(281, 0),2	5825,(280, 0),2	5833,(354, 0),2	5841,(279, 0),2	5849,(355, 0),2	5857,(278, 0),2	5865,(356, 0),2	6526,(276, 0),2	6534,(275, 0),2	6542,(357, 0),2	6550,(274, 0),2	6558,(358, 0),2	6566,(273, 0),2	6574,(359, 0),2	6582,(272, 0),2	6590,(271, 0),2	7251,(360, 0),2	7259,(269, 0),2	7267,(361, 0),2	7275,(268, 0),2	7283,(362, 0),2	7291,(267, 0),2	7299,(266, 0),2	7307,(265, 0),2	7315,(363, 0),2	7976,(263, 0),2	7984,(262, 0),2	7992,(364, 0),2	8000,(261, 0),2	8008,(260, 0),2	8016,(259, 0),2	8024,(365, 0),2	8032,(258, 0),2	8040,(366, 0),2	8701,(367, 0),2	8709,(256, 0),2	8717,(255, 0),2	8725,(254, 0),2	8733,(368, 0),2	8741,(253, 0),2	8749,(369, 0),2	8757,(252, 0),2	8765,(370, 0),2	9426,(250, 0),2	9434,(249, 0),2	9442,(371, 0),2	9450,(248, 0),2	9458,(372, 0),2	9466,(247, 0),2	9474,(373, 0),2	9482,(246, 0),2	9490,(245, 0),2	10151,(374, 0),2	10159,(243, 0),2	10167,(242, 0),2	10175,(241, 0),2	10183,(375, 0),2	10191,(240, 0),2	10199,(239, 0),2	10207,(238, 0),2	10215,(376, 0),2	10876,(377, 0),2	10884,(236, 0),2	10892,(378, 0),2	10900,(235, 0),2	10908,(234, 0),2	10916,(233, 0),2	10924,(379, 0),2	10932,(232, 0),2	10940,(380, 0),2	11601,(381, 0),2	11609,(230, 0),2	11617,(229, 0),2	11625,(228, 0),2	11633,(382, 0),2	11641,(227, 0),2	11649,(383, 0),2	11657,(226, 0),2	11665,(384, 0),2	12326,(224, 0),2	12334,(223, 0),2	12342,(385, 0),2	12350,(222, 0),2	12358,(221, 0),2	12366,(220, 0),2	12374,(386, 0),2	12382,(219, 0),2	12390,(218, 0),2	13051,(387, 0),2	13059,(216, 0),2	13067,(388, 0),2	13075,(215, 0),2	13083,(389, 0),2	13091,(214, 0),2	13099,(213, 0),2	13107,(212, 0),2	13115,(390, 0),2	13776,(391, 0),2	13784,(210, 0),2	13792,(392, 0),2	13800,(209, 0),2	13808,(208, 0),2	13816,(207, 0),2	13824,(393, 0),2	13832,(206, 0),2	13840,(394, 0),2	14501,(395, 0),2	14509,(204, 0),2	14517,(203, 0),2	14525,(202, 0),2	14533,(396, 0),2	14541,(201, 0),2	14549,(200, 0),2	14557,(199, 0),2	14565,(397, 0),2	15226,(197, 0),2	15234,(196, 0),2	15242,(398, 0),2	15250,(195, 0),2	15258,(399, 0),2	15266,(194, 0),2	15274,(400, 0),2	15282,(193, 0),2	15290,(192, 0),2	15951,(401, 0),2	15959,(190, 0),2	15967,(402, 0),2	15975,(189, 0),2	15983,(403, 0),2	15991,(188, 0),2	15999,(187, 0),2	16007,(186, 0),2	16015,(404, 0),2	16676,(405, 0),2	16684,(184, 0),2	16692,(406, 0),2	16700,(183, 0),2	16708,(182, 0),2	16716,(181, 0),2	16724,(407, 0),2	16732,(180, 0),2	16740,(179, 0),2	17401,(408, 0),2	17409,(177, 0),2	17417,(176, 0),2	17425,(175, 0),2	17433,(409, 0),2	17441,(174, 0),2	17449,(410, 0),2	17457,(173, 0),2	17465,(411, 0),2	18126,(171, 0),2	18134,(170, 0),2	18142,(412, 0),2	18150,(169, 0),2	18158,(421, 0),2	18166,(420, 0),2	18174,(422, 0),2	18182,(419, 0),2	18190,(418, 0),2	18851,(423, 0),2	18859,(416, 0),2	18867,(424, 0),2	18875,(415, 0),2	18883,(425, 0),2	18891,(414, 0),2	18899,(413, 0),2	18907,(168, 0),2	18915,(426, 0),2	19576,(166, 0),2	19584,(165, 0),2	19592,(427, 0),2	19600,(164, 0),2	19608,(163, 0),2	19616,(162, 0),2	19624,(428, 0),2	19632,(161, 0),2	19640,(429, 0),2	20301,(430, 0),2	20309,(159, 0),2	20317,(158, 0),2	20325,(157, 0),2	20333,(431, 0),2	20341,(156, 0),2	20349,(155, 0),2	20357,(154, 0),2	20365,(432, 0),2	21026,(152, 0),2	21034,(151, 0),2	21042,(433, 0),2	21050,(150, 0),2	21058,(434, 0),2	21066,(149, 0),2	21074,(435, 0),2	21082,(148, 0),2	21090,(147, 0),2	21751,(436, 0),2	21759,(145, 0),2	21767,(144, 0),2	21775,(143, 0),2	21783,(437, 0),2	21791,(142, 0),2	21799,(141, 0),2	21807,(140, 0),2	21815,(438, 0),2	22476,(439, 0),2	22484,(138, 0),2	22492,(440, 0),2	22500,(137, 0),2	22508,(136, 0),2	22516,(135, 0),2	22524,(441, 0),2	22532,(134, 0),2	22540,(133, 0),2	23201,(442, 0),2	23209,(131, 0),2	23217,(130, 0),2	23225,(129, 0),2	23233,(443, 0),2	23241,(128, 0),2	23249,(444, 0),2	23257,(127, 0),2	23265,(445, 0),2	23926,(125, 0),2	23934,(124, 0),2	23942,(446, 0),2	23950,(123, 0),2	23958,(122, 0),2	23966,(121, 0),2	23974,(447, 0),2	23982,(120, 0),2	23990,(119, 0),2	24651,(448, 0),2	24659,(117, 0),2	24667,(449, 0),2	24675,(116, 0),2	24683,(450, 0),2	24691,(115, 0),2	24699,(114, 0),2	24707,(113, 0),2	24715,(451, 0),2	25376,(111, 0),2	25384,(110, 0),2	25392,(452, 0),2	25400,(109, 0),2	25408,(108, 0),2	25416,(107, 0),2	25424,(453, 0),2	25432,(106, 0),2	25440,(454, 0),2	26101,(455, 0),2	26109,(104, 0),2	26117,(103, 0),2	26125,(102, 0),2	26133,(456, 0),2	26141,(101, 0),2	26149,(100, 0),2	26157,(99, 0),2	26165,(457, 0),2	26826,(97, 0),2	26834,(96, 0),2	26842,(458, 0),2	26850,(95, 0),2	26858,(459, 0),2	26866,(94, 0),2	26874,(460, 0),2	26882,(93, 0),2	26890,(92, 0),2	27551,(461, 0),2	27559,(90, 0),2	27567,(81, 0),2	27575,(80, 0),2	27583,(82, 0),2	27591,(79, 0),2	27599,(78, 0),2	27607,(77, 0),2	27615,(83, 0),2	28276,(84, 0),2	28284,(75, 0),2	28292,(85, 0),2	28300,(74, 0),2	28308,(73, 0),2	28316,(72, 0),2	28324,(86, 0),2	28332,(71, 0),2	28340,(87, 0),2	29001,(88, 0),2	29009,(69, 0),2	29017,(68, 0),2	29025,(67, 0),2	29033,(89, 0),2	29041,(66, 0),2	29049,(462, 0),2	29057,(65, 0),2	29065,(463, 0),2	29726,(63, 0),2	29734,(62, 0),2	29742,(464, 0),2	29750,(61, 0),2	29758,(465, 0),2	29766,(60, 0),2	29774,(466, 0),2	29782,(59, 0),2	29790,(58, 0),2	30451,(467, 0),2	30459,(56, 0),2	30467,(468, 0),2	30475,(55, 0),2	30483,(469, 0),2	30491,(54, 0),2	30499,(53, 0),2	30507,(52, 0),2	30515,(470, 0),2	31176,(471, 0),2	31184,(50, 0),2	31192,(472, 0),2	31200,(49, 0),2	31208,(48, 0),2	31216,(47, 0),2	31224,(473, 0),2	31232,(46, 0),2	31240,(474, 0),2	31901,(475, 0),2	31909,(44, 0),2	31917,(43, 0),2	31925,(42, 0),2	31933,(476, 0),2	31941,(41, 0),2	31949,(485, 0),2	31957,(484, 0),2	31965,(486, 0),2	32626,(482, 0),2	32634,(481, 0),2	32642,(487, 0),2	32650,(480, 0),2	32658,(479, 0),2	32666,(478, 0),2	32674,(488, 0),2	32682,(477, 0),2	32690,(40, 0),2	33351,(489, 0),2	33359,(38, 0),2	33367,(37, 0),2	33375,(36, 0),2	33383,(490, 0),2	33391,(35, 0),2	33399,(34, 0),2	33407,(33, 0),2	33415,(491, 0),2	34076,(31, 0),2	34084,(30, 0),2	34092,(492, 0),2	34100,(29, 0),2	34108,(28, 0),2	34116,(27, 0),2	34124,(493, 0),2	34132,(26, 0),2	34140,(17, 0),2	34801,(18, 0),2	34809,(15, 0),2	34817,(19, 0),2	34825,(14, 0),2	34833,(20, 0),2	34841,(13, 0),2	34849,(21, 0),2	34857,(12, 0),2	34865,(22, 0),2	35526,(23, 0),2	35534,(10, 0),2	35542,(24, 0),2	35550,(9, 0),2	35558,(1, 0),2	35566,(2, 0),2	35574,(3, 0),2	35582,(4, 0),2	35590,(5, 0),2	36251,(7, 0),2	36259,(8, 0),2	36267,(25, 0),2	36275,(494, 0),2	36283,(495, 0),2	36291,(496, 0),2	36299,(497, 0),2	36307,(498, 0),2	36315,(499, 0),2	
# Outgoing
1,(501, 334),8	9,(501, 335),8	17,(501, 336),8	25,(501, 333),8	33,(501, 332),8	41,(501, 330),8	49,(501, 328),8	57,(501, 340),8	65,(501, 322),8	73,(501, 321),8	81,(501, 324),8	89,(501, 320),8	97,(501, 325),8	105,(501, 319),8	113,(501, 318),8	121,(501, 317),8	129,(501, 326),8	137,(501, 316),8	145,(501, 315),8	153,(501, 331),8	161,(501, 314),8	169,(501, 313),8	177,(501, 312),8	185,(501, 337),8	193,(501, 311),8	201,(501, 338),8	209,(501, 310),8	217,(501, 309),8	225,(501, 308),8	233,(501, 307),8	241,(501, 341),8	249,(501, 306),8	257,(501, 305),8	265,(501, 304),8	273,(501, 342),8	281,(501, 303),8	289,(501, 301),8	297,(501, 343),8	305,(501, 300),8	313,(501, 344),8	321,(501, 299),8	329,(501, 345),8	337,(501, 298),8	345,(501, 297),8	353,(501, 296),8	361,(501, 295),8	369,(501, 347),8	377,(501, 294),8	385,(501, 348),8	393,(501, 293),8	401,(501, 292),8	409,(501, 291),8	417,(501, 349),8	425,(501, 290),8	433,(501, 289),8	441,(501, 351),8	449,(501, 288),8	457,(501, 287),8	465,(501, 286),8	473,(501, 352),8	481,(501, 285),8	489,(501, 284),8	497,(501, 283),8	505,(501, 282),8	513,(501, 281),8	521,(501, 280),8	529,(501, 354),8	537,(501, 279),8	545,(501, 355),8	553,(501, 278),8	561,(501, 356),8	569,(501, 277),8	577,(501, 275),8	585,(501, 357),8	593,(501, 274),8	601,(501, 358),8	609,(501, 273),8	617,(501, 359),8	625,(501, 272),8	633,(501, 271),8	641,(501, 270),8	649,(501, 269),8	657,(501, 361),8	665,(501, 268),8	673,(501, 362),8	681,(501, 267),8	689,(501, 266),8	697,(501, 265),8	705,(501, 363),8	713,(501, 264),8	721,(501, 262),8	729,(501, 364),8	737,(501, 261),8	745,(501, 260),8	753,(501, 259),8	761,(501, 365),8	769,(501, 258),8	777,(501, 366),8	785,(501, 257),8	793,(501, 256),8	801,(501, 255),8	809,(501, 254),8	817,(501, 368),8	825,(501, 253),8	833,(501, 369),8	841,(501, 252),8	849,(501, 370),8	857,(501, 251),8	865,(501, 249),8	873,(501, 371),8	881,(501, 248),8	889,(501, 372),8	897,(501, 247),8	905,(501, 373),8	913,(501, 246),8	921,(501, 245),8	929,(501, 244),8	937,(501, 243),8	945,(501, 242),8	953,(501, 241),8	961,(501, 375),8	969,(501, 240),8	977,(501, 239),8	985,(501, 238),8	993,(501, 376),8	1001,(501, 237),8	1009,(501, 236),8	1017,(501, 378),8	1025,(501, 235),8	1033,(501, 234),8	1041,(501, 233),8	1049,(501, 379),8	1057,(501, 232),8	1065,(501, 380),8	1073,(501, 231),8	1081,(501, 230),8	1089,(501, 229),8	1097,(501, 228),8	1105,(501, 382),8	1113,(501, 227),8	1121,(501, 383),8	1129,(501, 226),8	1137,(501, 384),8	1145,(501, 225),8	1153,(501, 223),8	1161,(501, 385),8	1169,(501, 222),8	1177,(501, 221),8	1185,(501, 220),8	1193,(501, 386),8	1201,(501, 219),8	1209,(501, 218),8	1217,(501, 217),8	1225,(501, 216),8	1233,(501, 388),8	1241,(501, 215),8	1249,(501, 389),8	1257,(501, 214),8	1265,(501, 213),8	1273,(501, 212),8	1281,(501, 390),8	1289,(501, 211),8	1297,(501, 210),8	1305,(501, 392),8	1313,(501, 209),8	1321,(501, 208),8	1329,(501, 207),8	1337,(501, 393),8	1345,(501, 206),8	1353,(501, 394),8	1361,(501, 205),8	1369,(501, 204),8	1377,(501, 203),8	1385,(501, 202),8	1393,(501, 396),8	1401,(501, 201),8	1409,(501, 200),8	1417,(501, 199),8	1425,(501, 397),8	1433,(501, 198),8	1441,(501, 196),8	1449,(501, 398),8	1457,(501, 195),8	1465,(501, 399),8	1473,(501, 194),8	1481,(501, 400),8	1489,(501, 193),8	1497,(501, 192),8	1505,(501, 191),8	1513,(501, 190),8	1521,(501, 402),8	1529,(501, 189),8	1537,(501, 403),8	1545,(501, 188),8	1553,(501, 187),8	1561,(501, 186),8	1569,(501, 404),8	1577,(501, 185),8	1585,(501, 184),8	1593,(501, 406),8	1601,(501, 183),8	1609,(501, 182),8	1617,(501, 181),8	1625,(501, 407),8	1633,(501, 180),8	1641,(501, 179),8	1649,(501, 178),8	1657,(501, 177),8	1665,(501, 176),8	1673,(501, 175),8	1681,(501, 409),8	1689,(501, 174),8	1697,(501, 410),8	1705,(501, 173),8	1713,(501, 411),8	1721,(501, 172),8	1729,(501, 170),8	1737,(501, 412),8	1745,(501, 169),8	1753,(501, 421),8	1761,(501, 420),8	1769,(501, 422),8	1777,(501, 419),8	1785,(501, 418),8	1793,(501, 417),8	1801,(501, 416),8	1809,(501, 424),8	1817,(501, 415),8	1825,(501, 425),8	1833,(501, 414),8	1841,(501, 413),8	1849,(501, 168),8	1857,(501, 426),8	1865,(501, 167),8	1873,(501, 165),8	1881,(501, 427),8	1889,(501, 164),8	1897,(501, 163),8	1905,(501, 162),8	1913,(501, 428),8	1921,(501, 161),8	1929,(501, 429),8	1937,(501, 160),8	1945,(501, 159),8	1953,(501, 158),8	1961,(501, 157),8	1969,(501, 431),8	1977,(501, 156),8	1985,(501, 155),8	1993,(501, 154),8	2001,(501, 432),8	2009,(501, 153),8	2017,(501, 151),8	2025,(501, 433),8	2033,(501, 150),8	2041,(501, 434),8	2049,(501, 149),8	2057,(501, 435),8	2065,(501, 148),8	2073,(501, 147),8	2081,(501, 146),8	2089,(501, 145),8	2097,(501, 144),8	2105,(501, 143),8	2113,(501, 437),8	2121,(501, 142),8	2129,(501, 141),8	2137,(501, 140),8	2145,(501, 438),8	2153,(501, 139),8	2161,(501, 138),8	2169,(501, 440),8	2177,(501, 137),8	2185,(501, 136),8	2193,(501, 135),8	2201,(501, 441),8	2209,(501, 134),8	2217,(501, 133),8	2225,(501, 132),8	2233,(501, 131),8	2241,(501, 130),8	2249,(501, 129),8	2257,(501, 443),8	2265,(501, 128),8	2273,(501, 444),8	2281,(501, 127),8	2289,(501, 445),8	2297,(501, 126),8	2305,(501, 124),8	2313,(501, 446),8	2321,(501, 123),8	2329,(501, 122),8	2337,(501, 121),8	2345,(501, 447),8	2353,(501, 120),8	2361,(501, 119),8	2369,(501, 118),8	2377,(501, 117),8	2385,(501, 449),8	2393,(501, 116),8	2401,(501, 450),8	2409,(501, 115),8	2417,(501, 114),8	2425,(501, 113),8	2433,(501, 451),8	2441,(501, 112),8	2449,(501, 110),8	2457,(501, 452),8	2465,(501, 109),8	2473,(501, 108),8	2481,(501, 107),8	2489,(501, 453),8	2497,(501, 106),8	2505,(501, 454),8	2513,(501, 105),8	2521,(501, 104),8	2529,(501, 103),8	2537,(501, 102),8	2545,(501, 456),8	2553,(501, 101),8	2561,(501, 100),8	2569,(501, 99),8	2577,(501, 457),8	2585,(501, 98),8	2593,(501, 96),8	2601,(501, 458),8	2609,(501, 95),8	2617,(501, 459),8	2625,(501, 94),8	2633,(501, 460),8	2641,(501, 93),8	2649,(501, 92),8	2657,(501, 91),8	2665,(501, 90),8	2673,(501, 81),8	2681,(501, 80),8	2689,(501, 82),8	2697,(501, 79),8	2705,(501, 78),8	2713,(501, 77),8	2721,(501, 83),8	2729,(501, 76),8	2737,(501, 75),8	2745,(501, 85),8	2753,(501, 74),8	2761,(501, 73),8	2769,(501, 72),8	2777,(501, 86),8	2785,(501, 71),8	2793,(501, 87),8	2801,(501, 70),8	2809,(501, 69),8	2817,(501, 68),8	2825,(501, 67),8	2833,(501, 89),8	2841,(501, 66),8	2849,(501, 462),8	2857,(501, 65),8	2865,(501, 463),8	2873,(501, 64),8	2881,(501, 62),8	2889,(501, 464),8	2897,(501, 61),8	2905,(501, 465),8	2913,(501, 60),8	2921,(501, 466),8	2929,(501, 59),8	2937,(501, 58),8	2945,(501, 57),8	2953,(501, 56),8	2961,(501, 468),8	2969,(501, 55),8	2977,(501, 469),8	2985,(501, 54),8	2993,(501, 53),8	3001,(501, 52),8	3009,(501, 470),8	3017,(501, 51),8	3025,(501, 50),8	3033,(501, 472),8	3041,(501, 49),8	3049,(501, 48),8	3057,(501, 47),8	3065,(501, 473),8	3073,(501, 46),8	3081,(501, 474),8	3089,(501, 45),8	3097,(501, 44),8	3105,(501, 43),8	3113,(501, 42),8	3121,(501, 476),8	3129,(501, 41),8	3137,(501, 485),8	3145,(501, 484),8	3153,(501, 486),8	3161,(501, 483),8	3169,(501, 481),8	3177,(501, 487),8	3185,(501, 480),8	3193,(501, 479),8	3201,(501, 478),8	3209,(501, 488),8	3217,(501, 477),8	3225,(501, 40),8	3233,(501, 39),8	3241,(501, 38),8	3249,(501, 37),8	3257,(501, 36),8	3265,(501, 490),8	3273,(501, 35),8	3281,(501, 34),8	3289,(501, 33),8	3297,(501, 491),8	3305,(501, 32),8	3313,(501, 30),8	3321,(501, 492),8	3329,(501, 29),8	3337,(501, 28),8	3345,(501, 27),8	3353,(501, 493),8	3361,(501, 26),8	3369,(501, 17),8	3377,(501, 16),8	3385,(501, 15),8	3393,(501, 19),8	3401,(501, 14),8	3409,(501, 20),8	3417,(501, 13),8	3425,(501, 21),8	3433,(501, 12),8	3441,(501, 22),8	3449,(501, 11),8	3457,(501, 10),8	3465,(501, 24),8	3473,(501, 9),8	3481,(501, 1),8	3489,(501, 2),8	3497,(501, 3),8	3505,(501, 4),8	3513,(501, 5),8	3521,(501, 6),8	3529,(501, 8),8	3537,(501, 25),8	3545,(501, 494),8	3553,(501, 495),8	3561,(501, 496),8	3569,(501, 497),8	3577,(501, 498),8	3585,(501, 499),8	3593,(501, 500),8	3601,(329, 0),2	3603,(323, 0),2	3605,(327, 0),2	3607,(339, 0),2	3626,(302, 0),2	4351,(346, 0),2	5076,(350, 0),2	5801,(353, 0),2	6526,(276, 0),2	7251,(360, 0),2	7976,(263, 0),2	8701,(367, 0),2	9426,(250, 0),2	10151,(374, 0),2	10876,(377, 0),2	11601,(381, 0),2	12326,(224, 0),2	13051,(387, 0),2	13776,(391, 0),2	14501,(395, 0),2	15226,(197, 0),2	15951,(401, 0),2	16676,(405, 0),2	17401,(408, 0),2	18126,(171, 0),2	18851,(423, 0),2	19576,(166, 0),2	20301,(430, 0),2	21026,(152, 0),2	21751,(436, 0),2	22476,(439, 0),2	23201,(442, 0),2	23926,(125, 0),2	24651,(448, 0),2	25376,(111, 0),2	26101,(455, 0),2	26826,(97, 0),2	27551,(461, 0),2	28276,(84, 0),2	29001,(88, 0),2	29726,(63, 0),2	30451,(467, 0),2	31176,(471, 0),2	31901,(475, 0),2	32626,(482, 0),2	33351,(489, 0),2	34076,(31, 0),2	34801,(18, 0),2	35526,(23, 0),2	36251,(7, 0),2	
750,(336, 0),2	1475,(320, 0),2	2200,(314, 0),2	2925,(307, 0),2	3650,(300, 0),2	4375,(294, 0),2	5100,(288, 0),2	5825,(280, 0),2	6550,(274, 0),2	7275,(268, 0),2	8000,(261, 0),2	8725,(254, 0),2	9450,(248, 0),2	10175,(241, 0),2	10900,(235, 0),2	11625,(228, 0),2	12350,(222, 0),2	13075,(215, 0),2	13800,(209, 0),2	14525,(202, 0),2	15250,(195, 0),2	15975,(189, 0),2	16700,(183, 0),2	17425,(175, 0),2	18150,(169, 0),2	18875,(415, 0),2	19600,(164, 0),2	20325,(157, 0),2	21050,(150, 0),2	21775,(143, 0),2	22500,(137, 0),2	23225,(129, 0),2	23950,(123, 0),2	24675,(116, 0),2	25400,(109, 0),2	26125,(102, 0),2	26850,(95, 0),2	27575,(80, 0),2	28300,(74, 0),2	29025,(67, 0),2	29750,(61, 0),2	30475,(55, 0),2	31200,(49, 0),2	31925,(42, 0),2	32650,(480, 0),2	33375,(36, 0),2	34100,(29, 0),2	34825,(14, 0),2	35550,(9, 0),2	36275,(494, 0),2	
774,(330, 0),2	1499,(318, 0),2	2233,(337, 0),2	2953,(305, 0),2	3674,(345, 0),2	4399,(292, 0),2	5124,(352, 0),2	5849,(355, 0),2	6574,(359, 0),2	7299,(266, 0),2	8024,(365, 0),2	8749,(369, 0),2	9474,(373, 0),2	10199,(239, 0),2	10924,(379, 0),2	11649,(383, 0),2	12374,(386, 0),2	13099,(213, 0),2	13824,(393, 0),2	14549,(200, 0),2	15274,(400, 0),2	15999,(187, 0),2	16724,(407, 0),2	17449,(410, 0),2	18174,(422, 0),2	18899,(413, 0),2	19624,(428, 0),2	20349,(155, 0),2	21074,(435, 0),2	21799,(141, 0),2	22524,(441, 0),2	23249,(444, 0),2	23974,(447, 0),2	24699,(114, 0),2	25424,(453, 0),2	26149,(100, 0),2	26874,(460, 0),2	27599,(78, 0),2	28324,(86, 0),2	29049,(462, 0),2	29774,(466, 0),2	30499,(53, 0),2	31224,(473, 0),2	31949,(485, 0),2	32674,(488, 0),2	33399,(34, 0),2	34124,(493, 0),2	34849,(21, 0),2	35574,(3, 0),2	36299,(497, 0),2	
734,(334, 0),2	1459,(321, 0),2	2184,(315, 0),2	2909,(309, 0),2	3634,(301, 0),2	4359,(295, 0),2	5084,(289, 0),2	5809,(282, 0),2	6534,(275, 0),2	7259,(269, 0),2	7984,(262, 0),2	8709,(256, 0),2	9434,(249, 0),2	10159,(243, 0),2	10884,(236, 0),2	11609,(230, 0),2	12334,(223, 0),2	13059,(216, 0),2	13784,(210, 0),2	14509,(204, 0),2	15234,(196, 0),2	15959,(190, 0),2	16684,(184, 0),2	17409,(177, 0),2	18134,(170, 0),2	18859,(416, 0),2	19584,(165, 0),2	20309,(159, 0),2	21034,(151, 0),2	21759,(145, 0),2	22484,(138, 0),2	23209,(131, 0),2	23934,(124, 0),2	24659,(117, 0),2	25384,(110, 0),2	26109,(104, 0),2	26834,(96, 0),2	27559,(90, 0),2	28284,(75, 0),2	29009,(69, 0),2	29734,(62, 0),2	30459,(56, 0),2	31184,(50, 0),2	31909,(44, 0),2	32634,(481, 0),2	33359,(38, 0),2	34084,(30, 0),2	34809,(15, 0),2	35534,(10, 0),2	36259,(8, 0),2	
793,(340, 0),2	1515,(326, 0),2	2240,(338, 0),2	2965,(342, 0),2	3690,(297, 0),2	4415,(349, 0),2	5140,(284, 0),2	5865,(356, 0),2	6590,(271, 0),2	7315,(363, 0),2	8040,(366, 0),2	8765,(370, 0),2	9490,(245, 0),2	10215,(376, 0),2	10940,(380, 0),2	11665,(384, 0),2	12390,(218, 0),2	13115,(390, 0),2	13840,(394, 0),2	14565,(397, 0),2	15290,(192, 0),2	16015,(404, 0),2	16740,(179, 0),2	17465,(411, 0),2	18190,(418, 0),2	18915,(426, 0),2	19640,(429, 0),2	20365,(432, 0),2	21090,(147, 0),2	21815,(438, 0),2	22540,(133, 0),2	23265,(445, 0),2	23990,(119, 0),2	24715,(451, 0),2	25440,(454, 0),2	26165,(457, 0),2	26890,(92, 0),2	27615,(83, 0),2	28340,(87, 0),2	29065,(463, 0),2	29790,(58, 0),2	30515,(470, 0),2	31240,(474, 0),2	31965,(486, 0),2	32690,(40, 0),2	33415,(491, 0),2	34140,(17, 0),2	34865,(22, 0),2	35590,(5, 0),2	36315,(499, 0),2	
758,(333, 0),2	1483,(325, 0),2	2208,(313, 0),2	2933,(341, 0),2	3658,(344, 0),2	4383,(348, 0),2	5108,(287, 0),2	5833,(354, 0),2	6558,(358, 0),2	7283,(362, 0),2	8008,(260, 0),2	8733,(368, 0),2	9458,(372, 0),2	10183,(375, 0),2	10908,(234, 0),2	11633,(382, 0),2	12358,(221, 0),2	13083,(389, 0),2	13808,(208, 0),2	14533,(396, 0),2	15258,(399, 0),2	15983,(403, 0),2	16708,(182, 0),2	17433,(409, 0),2	18158,(421, 0),2	18883,(425, 0),2	19608,(163, 0),2	20333,(431, 0),2	21058,(434, 0),2	21783,(437, 0),2	22508,(136, 0),2	23233,(443, 0),2	23958,(122, 0),2	24683,(450, 0),2	25408,(108, 0),2	26133,(456, 0),2	26858,(459, 0),2	27583,(82, 0),2	28308,(73, 0),2	29033,(89, 0),2	29758,(465, 0),2	30483,(469, 0),2	31208,(48, 0),2	31933,(476, 0),2	32658,(479, 0),2	33383,(490, 0),2	34108,(28, 0),2	34833,(20, 0),2	35558,(1, 0),2	36283,(495, 0),2	
766,(332, 0),2	1491,(319, 0),2	2216,(312, 0),2	2941,(306, 0),2	3666,(299, 0),2	4391,(293, 0),2	5116,(286, 0),2	5841,(279, 0),2	6566,(273, 0),2	7291,(267, 0),2	8016,(259, 0),2	8741,(253, 0),2	9466,(247, 0),2	10191,(240, 0),2	10916,(233, 0),2	11641,(227, 0),2	12366,(220, 0),2	13091,(214, 0),2	13816,(207, 0),2	14541,(201, 0),2	15266,(194, 0),2	15991,(188, 0),2	16716,(181, 0),2	17441,(174, 0),2	18166,(420, 0),2	18891,(414, 0),2	19616,(162, 0),2	20341,(156, 0),2	21066,(149, 0),2	21791,(142, 0),2	22516,(135, 0),2	23241,(128, 0),2	23966,(121, 0),2	24691,(115, 0),2	25416,(107, 0),2	26141,(101, 0),2	26866,(94, 0),2	27591,(79, 0),2	28316,(72, 0),2	29041,(66, 0),2	29766,(60, 0),2	30491,(54, 0),2	31216,(47, 0),2	31941,(41, 0),2	32666,(478, 0),2	33391,(35, 0),2	34116,(27, 0),2	34841,(13, 0),2	35566,(2, 0),2	36291,(496, 0),2	
742,(335, 0),2	1467,(324, 0),2	2192,(331, 0),2	2917,(308, 0),2	3642,(343, 0),2	4367,(347, 0),2	5092,(351, 0),2	5817,(281, 0),2	6542,(357, 0),2	7267,(361, 0),2	7992,(364, 0),2	8717,(255, 0),2	9442,(371, 0),2	10167,(242, 0),2	10892,(378, 0),2	11617,(229, 0),2	12342,(385, 0),2	13067,(388, 0),2	13792,(392, 0),2	14517,(203, 0),2	15242,(398, 0),2	15967,(402, 0),2	16692,(406, 0),2	17417,(176, 0),2	18142,(412, 0),2	18867,(424, 0),2	19592,(427, 0),2	20317,(158, 0),2	21042,(433, 0),2	21767,(144, 0),2	22492,(440, 0),2	23217,(130, 0),2	23942,(446, 0),2	24667,(449, 0),2	25392,(452, 0),2	26117,(103, 0),2	26842,(458, 0),2	27567,(81, 0),2	28292,(85, 0),2	29017,(68, 0),2	29742,(464, 0),2	30467,(468, 0),2	31192,(472, 0),2	31917,(43, 0),2	32642,(487, 0),2	33367,(37, 0),2	34092,(492, 0),2	34817,(19, 0),2	35542,(24, 0),2	36267,(25, 0),2	
782,(328, 0),2	1513,(317, 0),2	2235,(311, 0),2	2957,(304, 0),2	3682,(298, 0),2	4407,(291, 0),2	5132,(285, 0),2	5857,(278, 0),2	6582,(272, 0),2	7307,(265, 0),2	8032,(258, 0),2	8757,(252, 0),2	9482,(246, 0),2	10207,(238, 0),2	10932,(232, 0),2	11657,(226, 0),2	12382,(219, 0),2	13107,(212, 0),2	13832,(206, 0),2	14557,(199, 0),2	15282,(193, 0),2	16007,(186, 0),2	16732,(180, 0),2	17457,(173, 0),2	18182,(419, 0),2	18907,(168, 0),2	19632,(161, 0),2	20357,(154, 0),2	21082,(148, 0),2	21807,(140, 0),2	22532,(134, 0),2	23257,(127, 0),2	23982,(120, 0),2	24707,(113, 0),2	25432,(106, 0),2	26157,(99, 0),2	26882,(93, 0),2	27607,(77, 0),2	28332,(71, 0),2	29057,(65, 0),2	29782,(59, 0),2	30507,(52, 0),2	31232,(46, 0),2	31957,(484, 0),2	32682,(477, 0),2	33407,(33, 0),2	34132,(26, 0),2	34857,(12, 0),2	35582,(4, 0),2	36307,(498, 0),2	

