1547
# CPU
0,501,1	1,500,5	6,328,5	11,329,5	16,327,5	21,325,5	26,324,5	31,323,5	36,331,5	41,321,5	46,320,5	51,319,5	56,318,5	61,334,5	66,335,5	71,315,5	76,314,5	81,313,5	86,337,5	91,338,5	96,310,5	101,309,5	106,307,5	111,340,5	116,305,5	121,304,5	126,303,5	131,301,5	136,342,5	141,343,5	146,344,5	151,298,5	156,296,5	161,345,5	166,346,5	171,347,5	176,293,5	181,291,5	186,290,5	191,349,5	196,350,5	201,288,5	206,286,5	211,285,5	216,284,5	221,352,5	226,281,5	231,280,5	236,279,5	241,354,5	246,355,5	251,276,5	256,275,5	261,274,5	266,273,5	271,358,5	276,271,5	281,270,5	286,269,5	291,268,5	296,361,5	301,266,5	306,362,5	311,264,5	316,262,5	321,363,5	326,260,5	331,364,5	336,258,5	341,257,5	346,256,5	351,255,5	356,367,5	361,253,5	366,252,5	371,251,5	376,250,5	381,370,5	386,371,5	391,247,5	396,246,5	401,245,5	406,373,5	411,242,5	416,241,5	421,240,5	426,238,5	431,375,5	436,376,5	441,236,5	446,235,5	451,233,5	456,378,5	461,379,5	466,380,5	471,230,5	476,228,5	481,381,5	486,382,5	491,383,5	496,225,5	501,223,5	506,222,5	511,221,5	516,385,5	521,219,5	526,217,5	531,216,5	536,387,5	541,388,5	546,213,5	551,212,5	556,211,5	561,390,5	566,391,5	571,208,5	576,207,5	581,206,5	586,205,5	591,394,5	596,203,5	601,202,5	606,201,5	611,199,5	616,396,5	621,197,5	626,397,5	631,195,5	636,194,5	641,399,5	646,192,5	651,400,5	656,190,5	661,189,5	666,188,5	671,187,5	676,403,5	681,185,5	686,184,5	691,183,5	696,182,5	701,406,5	706,179,5	711,178,5	716,177,5	721,176,5	726,408,5	731,409,5	736,173,5	741,172,5	746,170,5	751,411,5	756,420,5	761,419,5	766,418,5	771,416,5	776,422,5	781,423,5	786,424,5	791,413,5	796,168,5	801,425,5	806,166,5	811,426,5	816,164,5	821,162,5	826,161,5	831,428,5	836,429,5	841,159,5	846,157,5	851,156,5	856,155,5	861,431,5	866,152,5	871,151,5	876,150,5	881,433,5	886,434,5	891,147,5	896,146,5	901,145,5	906,143,5	911,436,5	916,141,5	921,140,5	926,139,5	931,138,5	936,439,5	941,136,5	946,440,5	951,134,5	956,132,5	961,441,5	966,130,5	971,442,5	976,128,5	981,127,5	986,126,5	991,125,5	996,445,5	1001,123,5	1006,121,5	1011,120,5	1016,119,5	1021,447,5	1026,448,5	1031,116,5	1036,115,5	1041,114,5	1046,450,5	1051,111,5	1056,110,5	1061,109,5	1066,107,5	1071,452,5	1076,453,5	1081,105,5	1086,104,5	1091,102,5	1096,455,5	1101,100,5	1106,456,5	1111,98,5	1116,96,5	1121,457,5	1126,458,5	1131,459,5	1136,93,5	1141,91,5	1146,90,5	1151,81,5	1156,82,5	1161,79,5	1166,77,5	1171,76,5	1176,84,5	1181,85,5	1186,73,5	1191,72,5	1196,71,5	1201,87,5	1206,88,5	1211,68,5	1216,67,5	1221,66,5	1226,65,5	1231,462,5	1236,63,5	1241,62,5	1246,61,5	1251,60,5	1256,465,5	1261,58,5	1266,466,5	1271,56,5	1276,55,5	1281,468,5	1286,53,5	1291,469,5	1296,51,5	1301,50,5	1306,49,5	1311,48,5	1316,472,5	1321,46,5	1326,45,5	1331,44,5	1336,43,5	1341,475,5	1346,484,5	1351,483,5	1356,482,5	1361,481,5	1366,486,5	1371,478,5	1376,477,5	1381,476,5	1386,39,5	1391,488,5	1396,37,5	1401,36,5	1406,35,5	1411,33,5	1416,490,5	1421,31,5	1426,491,5	1431,29,5	1436,27,5	1441,492,5	1446,17,5	1451,18,5	1456,15,5	1461,14,5	1466,13,5	1471,21,5	1476,22,5	1481,11,5	1486,10,5	1491,9,5	1496,1,5	1501,3,5	1506,5,5	1511,6,5	1516,8,5	1521,25,5	1526,494,5	1531,496,5	1536,497,5	1541,499,5	1546,0,1	
9,326,5	17,330,5	25,322,5	33,332,5	41,333,5	49,317,5	57,316,5	65,336,5	73,312,5	81,311,5	89,339,5	97,308,5	105,306,5	113,341,5	121,302,5	129,300,5	137,299,5	145,297,5	153,295,5	161,294,5	169,292,5	177,348,5	185,289,5	193,287,5	201,351,5	209,283,5	217,282,5	225,353,5	233,278,5	241,277,5	249,356,5	257,357,5	265,272,5	273,359,5	281,360,5	289,267,5	297,265,5	305,263,5	313,261,5	321,259,5	329,365,5	337,366,5	345,254,5	353,368,5	361,369,5	369,249,5	377,248,5	385,372,5	393,244,5	401,243,5	409,374,5	417,239,5	425,237,5	433,377,5	441,234,5	449,232,5	457,231,5	465,229,5	473,227,5	481,226,5	489,224,5	497,384,5	505,220,5	513,218,5	521,386,5	529,215,5	537,214,5	545,389,5	553,210,5	561,209,5	569,392,5	577,393,5	585,204,5	593,395,5	601,200,5	609,198,5	617,196,5	625,398,5	633,193,5	641,191,5	649,401,5	657,402,5	665,186,5	673,404,5	681,405,5	689,181,5	697,180,5	705,407,5	713,175,5	721,174,5	729,410,5	737,171,5	745,169,5	753,421,5	761,417,5	769,415,5	777,414,5	785,412,5	793,167,5	801,165,5	809,163,5	817,427,5	825,160,5	833,158,5	841,430,5	849,154,5	857,153,5	865,432,5	873,149,5	881,148,5	889,435,5	897,144,5	905,142,5	913,437,5	921,438,5	929,137,5	937,135,5	945,133,5	953,131,5	961,129,5	969,443,5	977,444,5	985,124,5	993,122,5	1001,446,5	1009,118,5	1017,117,5	1025,449,5	1033,113,5	1041,112,5	1049,451,5	1057,108,5	1065,106,5	1073,454,5	1081,103,5	1089,101,5	1097,99,5	1105,97,5	1113,95,5	1121,94,5	1129,92,5	1137,460,5	1145,80,5	1153,78,5	1161,83,5	1169,75,5	1177,74,5	1185,86,5	1193,70,5	1201,69,5	1209,89,5	1217,461,5	1225,64,5	1233,463,5	1241,464,5	1249,59,5	1257,57,5	1265,467,5	1273,54,5	1281,52,5	1289,470,5	1297,471,5	1305,47,5	1313,473,5	1321,474,5	1329,42,5	1337,41,5	1345,485,5	1353,480,5	1361,479,5	1369,487,5	1377,40,5	1385,38,5	1393,489,5	1401,34,5	1409,32,5	1417,30,5	1425,28,5	1433,26,5	1441,16,5	1449,19,5	1457,20,5	1465,12,5	1473,23,5	1481,24,5	1489,2,5	1497,4,5	1505,7,5	1513,493,5	1521,495,5	1529,498,5	
# Incoming
14,(326, 0),8	22,(330, 0),8	30,(322, 0),8	38,(332, 0),8	46,(333, 0),8	54,(317, 0),8	62,(316, 0),8	70,(336, 0),8	78,(312, 0),8	86,(311, 0),8	94,(339, 0),8	102,(308, 0),8	110,(306, 0),8	118,(341, 0),8	126,(302, 0),8	134,(300, 0),8	142,(299, 0),8	150,(297, 0),8	158,(295, 0),8	166,(294, 0),8	174,(292, 0),8	182,(348, 0),8	190,(289, 0),8	198,(287, 0),8	206,(351, 0),8	214,(283, 0),8	222,(282, 0),8	230,(353, 0),8	238,(278, 0),8	246,(277, 0),8	254,(356, 0),8	262,(357, 0),8	270,(272, 0),8	278,(359, 0),8	286,(360, 0),8	294,(267, 0),8	302,(265, 0),8	310,(263, 0),8	318,(261, 0),8	326,(259, 0),8	334,(365, 0),8	342,(366, 0),8	350,(254, 0),8	358,(368, 0),8	366,(369, 0),8	374,(249, 0),8	382,(248, 0),8	390,(372, 0),8	398,(244, 0),8	406,(243, 0),8	414,(374, 0),8	422,(239, 0),8	430,(237, 0),8	438,(377, 0),8	446,(234, 0),8	454,(232, 0),8	462,(231, 0),8	470,(229, 0),8	478,(227, 0),8	486,(226, 0),8	494,(224, 0),8	502,(384, 0),8	510,(220, 0),8	518,(218, 0),8	526,(386, 0),8	534,(215, 0),8	542,(214, 0),8	550,(389, 0),8	558,(210, 0),8	566,(209, 0),8	574,(392, 0),8	582,(393, 0),8	590,(204, 0),8	598,(395, 0),8	606,(200, 0),8	614,(198, 0),8	622,(196, 0),8	630,(398, 0),8	638,(193, 0),8	646,(191, 0),8	654,(401, 0),8	662,(402, 0),8	670,(186, 0),8	678,(404, 0),8	686,(405, 0),8	694,(181, 0),8	702,(180, 0),8	710,(407, 0),8	718,(175, 0),8	726,(174, 0),8	734,(410, 0),8	742,(171, 0),8	750,(169, 0),8	758,(421, 0),8	766,(417, 0),8	774,(415, 0),8	782,(414, 0),8	790,(412, 0),8	798,(167, 0),8	806,(165, 0),8	814,(163, 0),8	822,(427, 0),8	830,(160, 0),8	838,(158, 0),8	846,(430, 0),8	854,(154, 0),8	862,(153, 0),8	870,(432, 0),8	878,(149, 0),8	886,(148, 0),8	894,(435, 0),8	902,(144, 0),8	910,(142, 0),8	918,(437, 0),8	926,(438, 0),8	934,(137, 0),8	942,(135, 0),8	950,(133, 0),8	958,(131, 0),8	966,(129, 0),8	974,(443, 0),8	982,(444, 0),8	990,(124, 0),8	998,(122, 0),8	1006,(446, 0),8	1014,(118, 0),8	1022,(117, 0),8	1030,(449, 0),8	1038,(113, 0),8	1046,(112, 0),8	1054,(451, 0),8	1062,(108, 0),8	1070,(106, 0),8	1078,(454, 0),8	1086,(103, 0),8	1094,(101, 0),8	1102,(99, 0),8	1110,(97, 0),8	1118,(95, 0),8	1126,(94, 0),8	1134,(92, 0),8	1142,(460, 0),8	1150,(80, 0),8	1158,(78, 0),8	1166,(83, 0),8	1174,(75, 0),8	1182,(74, 0),8	1190,(86, 0),8	1198,(70, 0),8	1206,(69, 0),8	1214,(89, 0),8	1222,(461, 0),8	1230,(64, 0),8	1238,(463, 0),8	1246,(464, 0),8	1254,(59, 0),8	1262,(57, 0),8	1270,(467, 0),8	1278,(54, 0),8	1286,(52, 0),8	1294,(470, 0),8	1302,(471, 0),8	1310,(47, 0),8	1318,(473, 0),8	1326,(474, 0),8	1334,(42, 0),8	1342,(41, 0),8	1350,(485, 0),8	1358,(480, 0),8	1366,(479, 0),8	1374,(487, 0),8	1382,(40, 0),8	1390,(38, 0),8	1398,(489, 0),8	1406,(34, 0),8	1414,(32, 0),8	1422,(30, 0),8	1430,(28, 0),8	1438,(26, 0),8	1446,(16, 0),8	1454,(19, 0),8	1462,(20, 0),8	1470,(12, 0),8	1478,(23, 0),8	1486,(24, 0),8	1494,(2, 0),8	1502,(4, 0),8	1510,(7, 0),8	1518,(493, 0),8	1526,(495, 0),8	1534,(498, 0),8	
1,(501, 326),8	9,(501, 330),8	17,(501, 322),8	25,(501, 332),8	33,(501, 333),8	41,(501, 317),8	49,(501, 316),8	57,(501, 336),8	65,(501, 312),8	73,(501, 311),8	81,(501, 339),8	89,(501, 308),8	97,(501, 306),8	105,(501, 341),8	113,(501, 302),8	121,(501, 300),8	129,(501, 299),8	137,(501, 297),8	145,(501, 295),8	153,(501, 294),8	161,(501, 292),8	169,(501, 348),8	177,(501, 289),8	185,(501, 287),8	193,(501, 351),8	201,(501, 283),8	209,(501, 282),8	217,(501, 353),8	225,(501, 278),8	233,(501, 277),8	241,(501, 356),8	249,(501, 357),8	257,(501, 272),8	265,(501, 359),8	273,(501, 360),8	281,(501, 267),8	289,(501, 265),8	297,(501, 263),8	305,(501, 261),8	313,(501, 259),8	321,(501, 365),8	329,(501, 366),8	337,(501, 254),8	345,(501, 368),8	353,(501, 369),8	361,(501, 249),8	369,(501, 248),8	377,(501, 372),8	385,(501, 244),8	393,(501, 243),8	401,(501, 374),8	409,(501, 239),8	417,(501, 237),8	425,(501, 377),8	433,(501, 234),8	441,(501, 232),8	449,(501, 231),8	457,(501, 229),8	465,(501, 227),8	473,(501, 226),8	481,(501, 224),8	489,(501, 384),8	497,(501, 220),8	505,(501, 218),8	513,(501, 386),8	521,(501, 215),8	529,(501, 214),8	537,(501, 389),8	545,(501, 210),8	553,(501, 209),8	561,(501, 392),8	569,(501, 393),8	577,(501, 204),8	585,(501, 395),8	593,(501, 200),8	601,(501, 198),8	609,(501, 196),8	617,(501, 398),8	625,(501, 193),8	633,(501, 191),8	641,(501, 401),8	649,(501, 402),8	657,(501, 186),8	665,(501, 404),8	673,(501, 405),8	681,(501, 181),8	689,(501, 180),8	697,(501, 407),8	705,(501, 175),8	713,(501, 174),8	721,(501, 410),8	729,(501, 171),8	737,(501, 169),8	745,(501, 421),8	753,(501, 417),8	761,(501, 415),8	769,(501, 414),8	777,(501, 412),8	785,(501, 167),8	793,(501, 165),8	801,(501, 163),8	809,(501, 427),8	817,(501, 160),8	825,(501, 158),8	833,(501, 430),8	841,(501, 154),8	849,(501, 153),8	857,(501, 432),8	865,(501, 149),8	873,(501, 148),8	881,(501, 435),8	889,(501, 144),8	897,(501, 142),8	905,(501, 437),8	913,(501, 438),8	921,(501, 137),8	929,(501, 135),8	937,(501, 133),8	945,(501, 131),8	953,(501, 129),8	961,(501, 443),8	969,(501, 444),8	977,(501, 124),8	985,(501, 122),8	993,(501, 446),8	1001,(501, 118),8	1009,(501, 117),8	1017,(501, 449),8	1025,(501, 113),8	1033,(501, 112),8	1041,(501, 451),8	1049,(501, 108),8	1057,(501, 106),8	1065,(501, 454),8	1073,(501, 103),8	1081,(501, 101),8	1089,(501, 99),8	1097,(501, 97),8	1105,(501, 95),8	1113,(501, 94),8	1121,(501, 92),8	1129,(501, 460),8	1137,(501, 80),8	1145,(501, 78),8	1153,(501, 83),8	1161,(501, 75),8	1169,(501, 74),8	1177,(501, 86),8	1185,(501, 70),8	1193,(501, 69),8	1201,(501, 89),8	1209,(501, 461),8	1217,(501, 64),8	1225,(501, 463),8	1233,(501, 464),8	1241,(501, 59),8	1249,(501, 57),8	1257,(501, 467),8	1265,(501, 54),8	1273,(501, 52),8	1281,(501, 470),8	1289,(501, 471),8	1297,(501, 47),8	1305,(501, 473),8	1313,(501, 474),8	1321,(501, 42),8	1329,(501, 41),8	1337,(501, 485),8	1345,(501, 480),8	1353,(501, 479),8	1361,(501, 487),8	1369,(501, 40),8	1377,(501, 38),8	1385,(501, 489),8	1393,(501, 34),8	1401,(501, 32),8	1409,(501, 30),8	1417,(501, 28),8	1425,(501, 26),8	1433,(501, 16),8	1441,(501, 19),8	1449,(501, 20),8	1457,(501, 12),8	1465,(501, 23),8	1473,(501, 24),8	1481,(501, 2),8	1489,(501, 4),8	1497,(501, 7),8	1505,(501, 493),8	1513,(501, 495),8	1521,(501, 498),8	
# Outgoing
1,(501, 326),8	9,(501, 330),8	17,(501, 322),8	25,(501, 332),8	33,(501, 333),8	41,(501, 317),8	49,(501, 316),8	57,(501, 336),8	65,(501, 312),8	73,(501, 311),8	81,(501, 339),8	89,(501, 308),8	97,(501, 306),8	105,(501, 341),8	113,(501, 302),8	121,(501, 300),8	129,(501, 299),8	137,(501, 297),8	145,(501, 295),8	153,(501, 294),8	161,(501, 292),8	169,(501, 348),8	177,(501, 289),8	185,(501, 287),8	193,(501, 351),8	201,(501, 283),8	209,(501, 282),8	217,(501, 353),8	225,(501, 278),8	233,(501, 277),8	241,(501, 356),8	249,(501, 357),8	257,(501, 272),8	265,(501, 359),8	273,(501, 360),8	281,(501, 267),8	289,(501, 265),8	297,(501, 263),8	305,(501, 261),8	313,(501, 259),8	321,(501, 365),8	329,(501, 366),8	337,(501, 254),8	345,(501, 368),8	353,(501, 369),8	361,(501, 249),8	369,(501, 248),8	377,(501, 372),8	385,(501, 244),8	393,(501, 243),8	401,(501, 374),8	409,(501, 239),8	417,(501, 237),8	425,(501, 377),8	433,(501, 234),8	441,(501, 232),8	449,(501, 231),8	457,(501, 229),8	465,(501, 227),8	473,(501, 226),8	481,(501, 224),8	489,(501, 384),8	497,(501, 220),8	505,(501, 218),8	513,(501, 386),8	521,(501, 215),8	529,(501, 214),8	537,(501, 389),8	545,(501, 210),8	553,(501, 209),8	561,(501, 392),8	569,(501, 393),8	577,(501, 204),8	585,(501, 395),8	593,(501, 200),8	601,(501, 198),8	609,(501, 196),8	617,(501, 398),8	625,(501, 193),8	633,(501, 191),8	641,(501, 401),8	649,(501, 402),8	657,(501, 186),8	665,(501, 404),8	673,(501, 405),8	681,(501, 181),8	689,(501, 180),8	697,(501, 407),8	705,(501, 175),8	713,(501, 174),8	721,(501, 410),8	729,(501, 171),8	737,(501, 169),8	745,(501, 421),8	753,(501, 417),8	761,(501, 415),8	769,(501, 414),8	777,(501, 412),8	785,(501, 167),8	793,(501, 165),8	801,(501, 163),8	809,(501, 427),8	817,(501, 160),8	825,(501, 158),8	833,(501, 430),8	841,(501, 154),8	849,(501, 153),8	857,(501, 432),8	865,(501, 149),8	873,(501, 148),8	881,(501, 435),8	889,(501, 144),8	897,(501, 142),8	905,(501, 437),8	913,(501, 438),8	921,(501, 137),8	929,(501, 135),8	937,(501, 133),8	945,(501, 131),8	953,(501, 129),8	961,(501, 443),8	969,(501, 444),8	977,(501, 124),8	985,(501, 122),8	993,(501, 446),8	1001,(501, 118),8	1009,(501, 117),8	1017,(501, 449),8	1025,(501, 113),8	1033,(501, 112),8	1041,(501, 451),8	1049,(501, 108),8	1057,(501, 106),8	1065,(501, 454),8	1073,(501, 103),8	1081,(501, 101),8	1089,(501, 99),8	1097,(501, 97),8	1105,(501, 95),8	1113,(501, 94),8	1121,(501, 92),8	1129,(501, 460),8	1137,(501, 80),8	1145,(501, 78),8	1153,(501, 83),8	1161,(501, 75),8	1169,(501, 74),8	1177,(501, 86),8	1185,(501, 70),8	1193,(501, 69),8	1201,(501, 89),8	1209,(501, 461),8	1217,(501, 64),8	1225,(501, 463),8	1233,(501, 464),8	1241,(501, 59),8	1249,(501, 57),8	1257,(501, 467),8	1265,(501, 54),8	1273,(501, 52),8	1281,(501, 470),8	1289,(501, 471),8	1297,(501, 47),8	1305,(501, 473),8	1313,(501, 474),8	1321,(501, 42),8	1329,(501, 41),8	1337,(501, 485),8	1345,(501, 480),8	1353,(501, 479),8	1361,(501, 487),8	1369,(501, 40),8	1377,(501, 38),8	1385,(501, 489),8	1393,(501, 34),8	1401,(501, 32),8	1409,(501, 30),8	1417,(501, 28),8	1425,(501, 26),8	1433,(501, 16),8	1441,(501, 19),8	1449,(501, 20),8	1457,(501, 12),8	1465,(501, 23),8	1473,(501, 24),8	1481,(501, 2),8	1489,(501, 4),8	1497,(501, 7),8	1505,(501, 493),8	1513,(501, 495),8	1521,(501, 498),8	
14,(326, 0),8	22,(330, 0),8	30,(322, 0),8	38,(332, 0),8	46,(333, 0),8	54,(317, 0),8	62,(316, 0),8	70,(336, 0),8	78,(312, 0),8	86,(311, 0),8	94,(339, 0),8	102,(308, 0),8	110,(306, 0),8	118,(341, 0),8	126,(302, 0),8	134,(300, 0),8	142,(299, 0),8	150,(297, 0),8	158,(295, 0),8	166,(294, 0),8	174,(292, 0),8	182,(348, 0),8	190,(289, 0),8	198,(287, 0),8	206,(351, 0),8	214,(283, 0),8	222,(282, 0),8	230,(353, 0),8	238,(278, 0),8	246,(277, 0),8	254,(356, 0),8	262,(357, 0),8	270,(272, 0),8	278,(359, 0),8	286,(360, 0),8	294,(267, 0),8	302,(265, 0),8	310,(263, 0),8	318,(261, 0),8	326,(259, 0),8	334,(365, 0),8	342,(366, 0),8	350,(254, 0),8	358,(368, 0),8	366,(369, 0),8	374,(249, 0),8	382,(248, 0),8	390,(372, 0),8	398,(244, 0),8	406,(243, 0),8	414,(374, 0),8	422,(239, 0),8	430,(237, 0),8	438,(377, 0),8	446,(234, 0),8	454,(232, 0),8	462,(231, 0),8	470,(229, 0),8	478,(227, 0),8	486,(226, 0),8	494,(224, 0),8	502,(384, 0),8	510,(220, 0),8	518,(218, 0),8	526,(386, 0),8	534,(215, 0),8	542,(214, 0),8	550,(389, 0),8	558,(210, 0),8	566,(209, 0),8	574,(392, 0),8	582,(393, 0),8	590,(204, 0),8	598,(395, 0),8	606,(200, 0),8	614,(198, 0),8	622,(196, 0),8	630,(398, 0),8	638,(193, 0),8	646,(191, 0),8	654,(401, 0),8	662,(402, 0),8	670,(186, 0),8	678,(404, 0),8	686,(405, 0),8	694,(181, 0),8	702,(180, 0),8	710,(407, 0),8	718,(175, 0),8	726,(174, 0),8	734,(410, 0),8	742,(171, 0),8	750,(169, 0),8	758,(421, 0),8	766,(417, 0),8	774,(415, 0),8	782,(414, 0),8	790,(412, 0),8	798,(167, 0),8	806,(165, 0),8	814,(163, 0),8	822,(427, 0),8	830,(160, 0),8	838,(158, 0),8	846,(430, 0),8	854,(154, 0),8	862,(153, 0),8	870,(432, 0),8	878,(149, 0),8	886,(148, 0),8	894,(435, 0),8	902,(144, 0),8	910,(142, 0),8	918,(437, 0),8	926,(438, 0),8	934,(137, 0),8	942,(135, 0),8	950,(133, 0),8	958,(131, 0),8	966,(129, 0),8	974,(443, 0),8	982,(444, 0),8	990,(124, 0),8	998,(122, 0),8	1006,(446, 0),8	1014,(118, 0),8	1022,(117, 0),8	1030,(449, 0),8	1038,(113, 0),8	1046,(112, 0),8	1054,(451, 0),8	1062,(108, 0),8	1070,(106, 0),8	1078,(454, 0),8	1086,(103, 0),8	1094,(101, 0),8	1102,(99, 0),8	1110,(97, 0),8	1118,(95, 0),8	1126,(94, 0),8	1134,(92, 0),8	1142,(460, 0),8	1150,(80, 0),8	1158,(78, 0),8	1166,(83, 0),8	1174,(75, 0),8	1182,(74, 0),8	1190,(86, 0),8	1198,(70, 0),8	1206,(69, 0),8	1214,(89, 0),8	1222,(461, 0),8	1230,(64, 0),8	1238,(463, 0),8	1246,(464, 0),8	1254,(59, 0),8	1262,(57, 0),8	1270,(467, 0),8	1278,(54, 0),8	1286,(52, 0),8	1294,(470, 0),8	1302,(471, 0),8	1310,(47, 0),8	1318,(473, 0),8	1326,(474, 0),8	1334,(42, 0),8	1342,(41, 0),8	1350,(485, 0),8	1358,(480, 0),8	1366,(479, 0),8	1374,(487, 0),8	1382,(40, 0),8	1390,(38, 0),8	1398,(489, 0),8	1406,(34, 0),8	1414,(32, 0),8	1422,(30, 0),8	1430,(28, 0),8	1438,(26, 0),8	1446,(16, 0),8	1454,(19, 0),8	1462,(20, 0),8	1470,(12, 0),8	1478,(23, 0),8	1486,(24, 0),8	1494,(2, 0),8	1502,(4, 0),8	1510,(7, 0),8	1518,(493, 0),8	1526,(495, 0),8	1534,(498, 0),8	
