1412
# CPU
0,501,1	1,500,3	4,328,3	7,329,3	10,327,3	13,326,3	16,325,3	19,330,3	22,324,3	25,323,3	28,322,3	31,331,3	34,321,3	37,332,3	40,320,3	43,333,3	46,319,3	49,318,3	52,317,3	55,316,3	58,334,3	61,315,3	64,335,3	67,314,3	70,313,3	73,312,3	76,336,3	79,311,3	82,338,3	85,310,3	88,339,3	91,309,3	94,308,3	97,307,3	100,306,3	103,305,3	106,304,3	109,340,3	112,303,3	115,302,3	118,301,3	121,341,3	124,300,3	127,342,3	130,299,3	133,344,3	136,298,3	139,297,3	142,296,3	145,295,3	148,345,3	151,294,3	154,346,3	157,293,3	160,292,3	163,291,3	166,347,3	169,290,3	172,349,3	175,289,3	178,350,3	181,288,3	184,287,3	187,286,3	190,285,3	193,284,3	196,283,3	199,351,3	202,282,3	205,281,3	208,280,3	211,352,3	214,279,3	217,353,3	220,278,3	223,355,3	226,277,3	229,276,3	232,275,3	235,274,3	238,356,3	241,273,3	244,357,3	247,272,3	250,271,3	253,270,3	256,358,3	259,269,3	262,360,3	265,268,3	268,361,3	271,267,3	274,266,3	277,265,3	280,264,3	283,263,3	286,262,3	289,362,3	292,261,3	295,260,3	298,259,3	301,363,3	304,258,3	307,364,3	310,257,3	313,366,3	316,256,3	319,255,3	322,254,3	325,367,3	328,253,3	331,252,3	334,368,3	337,251,3	340,250,3	343,249,3	346,369,3	349,248,3	352,371,3	355,247,3	358,372,3	361,246,3	364,245,3	367,244,3	370,373,3	373,242,3	376,241,3	379,243,3	382,240,3	385,239,3	388,238,3	391,374,3	394,237,3	397,375,3	400,236,3	403,377,3	406,235,3	409,234,3	412,233,3	415,378,3	418,232,3	421,231,3	424,379,3	427,230,3	430,229,3	433,228,3	436,380,3	439,227,3	442,382,3	445,226,3	448,383,3	451,225,3	454,224,3	457,223,3	460,384,3	463,222,3	466,220,3	469,221,3	472,219,3	475,218,3	478,217,3	481,385,3	484,216,3	487,386,3	490,215,3	493,388,3	496,214,3	499,213,3	502,212,3	505,389,3	508,211,3	511,210,3	514,390,3	517,209,3	520,208,3	523,207,3	526,391,3	529,206,3	532,393,3	535,205,3	538,394,3	541,204,3	544,203,3	547,202,3	550,395,3	553,201,3	556,199,3	559,200,3	562,198,3	565,197,3	568,196,3	571,396,3	574,195,3	577,398,3	580,194,3	583,399,3	586,193,3	589,192,3	592,191,3	595,400,3	598,190,3	601,401,3	604,189,3	607,188,3	610,187,3	613,186,3	616,402,3	619,185,3	622,404,3	625,184,3	628,405,3	631,183,3	634,182,3	637,181,3	640,406,3	643,180,3	646,179,3	649,178,3	652,177,3	655,176,3	658,175,3	661,407,3	664,174,3	667,409,3	670,173,3	673,410,3	676,172,3	679,171,3	682,170,3	685,411,3	688,169,3	691,420,3	694,421,3	697,419,3	700,418,3	703,417,3	706,422,3	709,416,3	712,423,3	715,414,3	718,424,3	721,413,3	724,412,3	727,168,3	730,425,3	733,167,3	736,166,3	739,165,3	742,426,3	745,164,3	748,163,3	751,427,3	754,162,3	757,428,3	760,160,3	763,429,3	766,159,3	769,158,3	772,157,3	775,430,3	778,156,3	781,155,3	784,154,3	787,431,3	790,153,3	793,152,3	796,432,3	799,151,3	802,433,3	805,149,3	808,434,3	811,148,3	814,147,3	817,146,3	820,435,3	823,145,3	826,144,3	829,143,3	832,436,3	835,142,3	838,141,3	841,437,3	844,140,3	847,438,3	850,138,3	853,439,3	856,137,3	859,136,3	862,135,3	865,440,3	868,134,3	871,133,3	874,132,3	877,441,3	880,131,3	883,130,3	886,442,3	889,129,3	892,443,3	895,127,3	898,444,3	901,126,3	904,125,3	907,124,3	910,445,3	913,123,3	916,122,3	919,121,3	922,446,3	925,120,3	928,119,3	931,447,3	934,118,3	937,448,3	940,116,3	943,449,3	946,115,3	949,114,3	952,113,3	955,450,3	958,112,3	961,111,3	964,110,3	967,451,3	970,109,3	973,108,3	976,452,3	979,107,3	982,453,3	985,105,3	988,454,3	991,104,3	994,103,3	997,102,3	1000,455,3	1003,101,3	1006,100,3	1009,99,3	1012,456,3	1015,98,3	1018,97,3	1021,457,3	1024,96,3	1027,458,3	1030,94,3	1033,459,3	1036,93,3	1039,92,3	1042,91,3	1045,460,3	1048,90,3	1051,81,3	1054,80,3	1057,82,3	1060,79,3	1063,77,3	1066,78,3	1069,76,3	1072,83,3	1075,75,3	1078,84,3	1081,74,3	1084,73,3	1087,72,3	1090,85,3	1093,71,3	1096,87,3	1099,70,3	1102,88,3	1105,69,3	1108,67,3	1111,68,3	1114,66,3	1117,89,3	1120,65,3	1123,461,3	1126,64,3	1129,63,3	1132,62,3	1135,463,3	1138,61,3	1141,464,3	1144,60,3	1147,465,3	1150,59,3	1153,58,3	1156,57,3	1159,56,3	1162,466,3	1165,55,3	1168,467,3	1171,54,3	1174,53,3	1177,52,3	1180,469,3	1183,51,3	1186,470,3	1189,50,3	1192,471,3	1195,49,3	1198,48,3	1201,47,3	1204,46,3	1207,472,3	1210,45,3	1213,473,3	1216,44,3	1219,43,3	1222,42,3	1225,475,3	1228,41,3	1231,484,3	1234,483,3	1237,485,3	1240,482,3	1243,481,3	1246,486,3	1249,480,3	1252,479,3	1255,478,3	1258,487,3	1261,477,3	1264,40,3	1267,39,3	1270,488,3	1273,38,3	1276,37,3	1279,36,3	1282,489,3	1285,35,3	1288,34,3	1291,33,3	1294,490,3	1297,32,3	1300,31,3	1303,491,3	1306,29,3	1309,28,3	1312,27,3	1315,492,3	1318,26,3	1321,17,3	1324,16,3	1327,18,3	1330,15,3	1333,19,3	1336,14,3	1339,13,3	1342,20,3	1345,12,3	1348,21,3	1351,11,3	1354,22,3	1357,10,3	1360,24,3	1363,9,3	1366,1,3	1369,2,3	1372,3,3	1375,4,3	1378,5,3	1381,6,3	1384,7,3	1387,8,3	1390,25,3	1393,493,3	1396,494,3	1399,495,3	1402,496,3	1405,498,3	1408,499,3	1411,0,1	
93,343,3	277,365,3	369,376,3	461,387,3	737,161,3	875,128,3	1013,95,3	1197,474,3	1289,30,3	
139,348,3	185,354,3	415,381,3	691,415,3	783,150,3	921,117,3	1059,86,3	1335,23,3	
47,337,3	231,359,3	323,370,3	507,392,3	599,403,3	829,139,3	967,106,3	1151,468,3	1243,476,3	1381,497,3	
553,397,3	645,408,3	1105,462,3	
# Incoming
50,(337, 0),2	96,(343, 0),2	142,(348, 0),2	188,(354, 0),2	234,(359, 0),2	280,(365, 0),2	326,(370, 0),2	372,(376, 0),2	418,(381, 0),2	464,(387, 0),2	510,(392, 0),2	556,(397, 0),2	602,(403, 0),2	648,(408, 0),2	694,(415, 0),2	740,(161, 0),2	786,(150, 0),2	832,(139, 0),2	878,(128, 0),2	924,(117, 0),2	970,(106, 0),2	1016,(95, 0),2	1062,(86, 0),2	1108,(462, 0),2	1154,(468, 0),2	1200,(474, 0),2	1246,(476, 0),2	1292,(30, 0),2	1338,(23, 0),2	1384,(497, 0),2	
47,(501, 343),46	231,(501, 365),46	323,(501, 376),46	415,(501, 387),46	691,(501, 161),46	829,(501, 128),46	967,(501, 95),46	1151,(501, 474),46	1243,(501, 30),46	
93,(501, 348),46	139,(501, 354),46	369,(501, 381),46	645,(501, 415),46	737,(501, 150),46	875,(501, 117),46	1013,(501, 86),46	1289,(501, 23),46	
1,(501, 337),46	185,(501, 359),46	277,(501, 370),46	461,(501, 392),46	553,(501, 403),46	783,(501, 139),46	921,(501, 106),46	1105,(501, 468),46	1197,(501, 476),46	1335,(501, 497),46	
507,(501, 397),46	599,(501, 408),46	1059,(501, 462),46	
# Outgoing
1,(501, 337),46	47,(501, 343),46	93,(501, 348),46	139,(501, 354),46	185,(501, 359),46	231,(501, 365),46	277,(501, 370),46	323,(501, 376),46	369,(501, 381),46	415,(501, 387),46	461,(501, 392),46	507,(501, 397),46	553,(501, 403),46	599,(501, 408),46	645,(501, 415),46	691,(501, 161),46	737,(501, 150),46	783,(501, 139),46	829,(501, 128),46	875,(501, 117),46	921,(501, 106),46	967,(501, 95),46	1013,(501, 86),46	1059,(501, 462),46	1105,(501, 468),46	1151,(501, 474),46	1197,(501, 476),46	1243,(501, 30),46	1289,(501, 23),46	1335,(501, 497),46	
96,(343, 0),2	280,(365, 0),2	372,(376, 0),2	464,(387, 0),2	740,(161, 0),2	878,(128, 0),2	1016,(95, 0),2	1200,(474, 0),2	1292,(30, 0),2	
142,(348, 0),2	188,(354, 0),2	418,(381, 0),2	694,(415, 0),2	786,(150, 0),2	924,(117, 0),2	1062,(86, 0),2	1338,(23, 0),2	
50,(337, 0),2	234,(359, 0),2	326,(370, 0),2	510,(392, 0),2	602,(403, 0),2	832,(139, 0),2	970,(106, 0),2	1154,(468, 0),2	1246,(476, 0),2	1384,(497, 0),2	
556,(397, 0),2	648,(408, 0),2	1108,(462, 0),2	
