18456
# CPU
370,10,2	739,20,2	1108,30,2	1477,40,2	1846,50,2	2215,60,2	2584,70,2	2953,80,2	3322,90,2	3691,100,2	4060,110,2	4429,120,2	4798,130,2	5167,140,2	5536,150,2	5905,160,2	6274,170,2	6643,180,2	7012,190,2	7381,200,2	7750,210,2	8119,220,2	8488,230,2	8857,240,2	9226,250,2	9595,260,2	9964,270,2	10333,280,2	10702,290,2	11071,300,2	11440,310,2	11809,320,2	12178,330,2	12547,340,2	12916,350,2	13285,360,2	13654,370,2	14023,380,2	14392,390,2	14761,400,2	15130,410,2	15499,420,2	15868,430,2	16237,440,2	16606,450,2	16975,460,2	17344,470,2	17713,480,2	18082,490,2	18451,500,2	
329,9,2	698,19,2	1067,29,2	1436,39,2	1805,49,2	2174,59,2	2543,69,2	2912,79,2	3281,89,2	3650,99,2	4019,109,2	4388,119,2	4757,129,2	5126,139,2	5495,149,2	5864,159,2	6233,169,2	6602,179,2	6971,189,2	7340,199,2	7709,209,2	8078,219,2	8447,229,2	8816,239,2	9185,249,2	9554,259,2	9923,269,2	10292,279,2	10661,289,2	11030,299,2	11399,309,2	11768,319,2	12137,329,2	12506,339,2	12875,349,2	13244,359,2	13613,369,2	13982,379,2	14351,389,2	14720,399,2	15089,409,2	15458,419,2	15827,429,2	16196,439,2	16565,449,2	16934,459,2	17303,469,2	17672,479,2	18041,489,2	18410,499,2	
288,8,2	657,18,2	1026,28,2	1395,38,2	1764,48,2	2133,58,2	2502,68,2	2871,78,2	3240,88,2	3609,98,2	3978,108,2	4347,118,2	4716,128,2	5085,138,2	5454,148,2	5823,158,2	6192,168,2	6561,178,2	6930,188,2	7299,198,2	7668,208,2	8037,218,2	8406,228,2	8775,238,2	9144,248,2	9513,258,2	9882,268,2	10251,278,2	10620,288,2	10989,298,2	11358,308,2	11727,318,2	12096,328,2	12465,338,2	12834,348,2	13203,358,2	13572,368,2	13941,378,2	14310,388,2	14679,398,2	15048,408,2	15417,418,2	15786,428,2	16155,438,2	16524,448,2	16893,458,2	17262,468,2	17631,478,2	18000,488,2	18369,498,2	
247,7,2	616,17,2	985,27,2	1354,37,2	1723,47,2	2092,57,2	2461,67,2	2830,77,2	3199,87,2	3568,97,2	3937,107,2	4306,117,2	4675,127,2	5044,137,2	5413,147,2	5782,157,2	6151,167,2	6520,177,2	6889,187,2	7258,197,2	7627,207,2	7996,217,2	8365,227,2	8734,237,2	9103,247,2	9472,257,2	9841,267,2	10210,277,2	10579,287,2	10948,297,2	11317,307,2	11686,317,2	12055,327,2	12424,337,2	12793,347,2	13162,357,2	13531,367,2	13900,377,2	14269,387,2	14638,397,2	15007,407,2	15376,417,2	15745,427,2	16114,437,2	16483,447,2	16852,457,2	17221,467,2	17590,477,2	17959,487,2	18328,497,2	
206,6,2	575,16,2	944,26,2	1313,36,2	1682,46,2	2051,56,2	2420,66,2	2789,76,2	3158,86,2	3527,96,2	3896,106,2	4265,116,2	4634,126,2	5003,136,2	5372,146,2	5741,156,2	6110,166,2	6479,176,2	6848,186,2	7217,196,2	7586,206,2	7955,216,2	8324,226,2	8693,236,2	9062,246,2	9431,256,2	9800,266,2	10169,276,2	10538,286,2	10907,296,2	11276,306,2	11645,316,2	12014,326,2	12383,336,2	12752,346,2	13121,356,2	13490,366,2	13859,376,2	14228,386,2	14597,396,2	14966,406,2	15335,416,2	15704,426,2	16073,436,2	16442,446,2	16811,456,2	17180,466,2	17549,476,2	17918,486,2	18287,496,2	
165,5,2	534,15,2	903,25,2	1272,35,2	1641,45,2	2010,55,2	2379,65,2	2748,75,2	3117,85,2	3486,95,2	3855,105,2	4224,115,2	4593,125,2	4962,135,2	5331,145,2	5700,155,2	6069,165,2	6438,175,2	6807,185,2	7176,195,2	7545,205,2	7914,215,2	8283,225,2	8652,235,2	9021,245,2	9390,255,2	9759,265,2	10128,275,2	10497,285,2	10866,295,2	11235,305,2	11604,315,2	11973,325,2	12342,335,2	12711,345,2	13080,355,2	13449,365,2	13818,375,2	14187,385,2	14556,395,2	14925,405,2	15294,415,2	15663,425,2	16032,435,2	16401,445,2	16770,455,2	17139,465,2	17508,475,2	17877,485,2	18246,495,2	
124,4,2	493,14,2	862,24,2	1231,34,2	1600,44,2	1969,54,2	2338,64,2	2707,74,2	3076,84,2	3445,94,2	3814,104,2	4183,114,2	4552,124,2	4921,134,2	5290,144,2	5659,154,2	6028,164,2	6397,174,2	6766,184,2	7135,194,2	7504,204,2	7873,214,2	8242,224,2	8611,234,2	8980,244,2	9349,254,2	9718,264,2	10087,274,2	10456,284,2	10825,294,2	11194,304,2	11563,314,2	11932,324,2	12301,334,2	12670,344,2	13039,354,2	13408,364,2	13777,374,2	14146,384,2	14515,394,2	14884,404,2	15253,414,2	15622,424,2	15991,434,2	16360,444,2	16729,454,2	17098,464,2	17467,474,2	17836,484,2	18205,494,2	
83,3,2	452,13,2	821,23,2	1190,33,2	1559,43,2	1928,53,2	2297,63,2	2666,73,2	3035,83,2	3404,93,2	3773,103,2	4142,113,2	4511,123,2	4880,133,2	5249,143,2	5618,153,2	5987,163,2	6356,173,2	6725,183,2	7094,193,2	7463,203,2	7832,213,2	8201,223,2	8570,233,2	8939,243,2	9308,253,2	9677,263,2	10046,273,2	10415,283,2	10784,293,2	11153,303,2	11522,313,2	11891,323,2	12260,333,2	12629,343,2	12998,353,2	13367,363,2	13736,373,2	14105,383,2	14474,393,2	14843,403,2	15212,413,2	15581,423,2	15950,433,2	16319,443,2	16688,453,2	17057,463,2	17426,473,2	17795,483,2	18164,493,2	
42,2,2	411,12,2	780,22,2	1149,32,2	1518,42,2	1887,52,2	2256,62,2	2625,72,2	2994,82,2	3363,92,2	3732,102,2	4101,112,2	4470,122,2	4839,132,2	5208,142,2	5577,152,2	5946,162,2	6315,172,2	6684,182,2	7053,192,2	7422,202,2	7791,212,2	8160,222,2	8529,232,2	8898,242,2	9267,252,2	9636,262,2	10005,272,2	10374,282,2	10743,292,2	11112,302,2	11481,312,2	11850,322,2	12219,332,2	12588,342,2	12957,352,2	13326,362,2	13695,372,2	14064,382,2	14433,392,2	14802,402,2	15171,412,2	15540,422,2	15909,432,2	16278,442,2	16647,452,2	17016,462,2	17385,472,2	17754,482,2	18123,492,2	
0,0,1	1,1,2	3,21,2	5,61,2	7,141,2	9,301,2	11,491,2	13,481,2	15,471,2	17,461,2	19,451,2	21,441,2	23,431,2	25,421,2	27,411,2	29,401,2	31,391,2	33,381,2	35,371,2	37,361,2	39,351,2	41,341,2	43,331,2	45,321,2	47,291,2	49,311,2	51,281,2	53,271,2	55,261,2	57,251,2	59,241,2	61,231,2	63,221,2	65,211,2	67,201,2	69,191,2	71,181,2	73,171,2	75,161,2	77,131,2	79,151,2	81,121,2	83,111,2	85,101,2	87,91,2	89,81,2	91,51,2	93,71,2	95,41,2	97,11,2	99,31,2	18455,501,1	
# Incoming
329,(0, 10),41	698,(0, 20),41	1067,(0, 30),41	1436,(0, 40),41	1805,(0, 50),41	2174,(0, 60),41	2543,(0, 70),41	2912,(0, 80),41	3281,(0, 90),41	3650,(0, 100),41	4019,(0, 110),41	4388,(0, 120),41	4757,(0, 130),41	5126,(0, 140),41	5495,(0, 150),41	5864,(0, 160),41	6233,(0, 170),41	6602,(0, 180),41	6971,(0, 190),41	7340,(0, 200),41	7709,(0, 210),41	8078,(0, 220),41	8447,(0, 230),41	8816,(0, 240),41	9185,(0, 250),41	9554,(0, 260),41	9923,(0, 270),41	10292,(0, 280),41	10661,(0, 290),41	11030,(0, 300),41	11399,(0, 310),41	11768,(0, 320),41	12137,(0, 330),41	12506,(0, 340),41	12875,(0, 350),41	13244,(0, 360),41	13613,(0, 370),41	13982,(0, 380),41	14351,(0, 390),41	14720,(0, 400),41	15089,(0, 410),41	15458,(0, 420),41	15827,(0, 430),41	16196,(0, 440),41	16565,(0, 450),41	16934,(0, 460),41	17303,(0, 470),41	17672,(0, 480),41	18041,(0, 490),41	18410,(0, 500),41	
288,(0, 9),41	657,(0, 19),41	1026,(0, 29),41	1395,(0, 39),41	1764,(0, 49),41	2133,(0, 59),41	2502,(0, 69),41	2871,(0, 79),41	3240,(0, 89),41	3609,(0, 99),41	3978,(0, 109),41	4347,(0, 119),41	4716,(0, 129),41	5085,(0, 139),41	5454,(0, 149),41	5823,(0, 159),41	6192,(0, 169),41	6561,(0, 179),41	6930,(0, 189),41	7299,(0, 199),41	7668,(0, 209),41	8037,(0, 219),41	8406,(0, 229),41	8775,(0, 239),41	9144,(0, 249),41	9513,(0, 259),41	9882,(0, 269),41	10251,(0, 279),41	10620,(0, 289),41	10989,(0, 299),41	11358,(0, 309),41	11727,(0, 319),41	12096,(0, 329),41	12465,(0, 339),41	12834,(0, 349),41	13203,(0, 359),41	13572,(0, 369),41	13941,(0, 379),41	14310,(0, 389),41	14679,(0, 399),41	15048,(0, 409),41	15417,(0, 419),41	15786,(0, 429),41	16155,(0, 439),41	16524,(0, 449),41	16893,(0, 459),41	17262,(0, 469),41	17631,(0, 479),41	18000,(0, 489),41	18369,(0, 499),41	
247,(0, 8),41	616,(0, 18),41	985,(0, 28),41	1354,(0, 38),41	1723,(0, 48),41	2092,(0, 58),41	2461,(0, 68),41	2830,(0, 78),41	3199,(0, 88),41	3568,(0, 98),41	3937,(0, 108),41	4306,(0, 118),41	4675,(0, 128),41	5044,(0, 138),41	5413,(0, 148),41	5782,(0, 158),41	6151,(0, 168),41	6520,(0, 178),41	6889,(0, 188),41	7258,(0, 198),41	7627,(0, 208),41	7996,(0, 218),41	8365,(0, 228),41	8734,(0, 238),41	9103,(0, 248),41	9472,(0, 258),41	9841,(0, 268),41	10210,(0, 278),41	10579,(0, 288),41	10948,(0, 298),41	11317,(0, 308),41	11686,(0, 318),41	12055,(0, 328),41	12424,(0, 338),41	12793,(0, 348),41	13162,(0, 358),41	13531,(0, 368),41	13900,(0, 378),41	14269,(0, 388),41	14638,(0, 398),41	15007,(0, 408),41	15376,(0, 418),41	15745,(0, 428),41	16114,(0, 438),41	16483,(0, 448),41	16852,(0, 458),41	17221,(0, 468),41	17590,(0, 478),41	17959,(0, 488),41	18328,(0, 498),41	
206,(0, 7),41	575,(0, 17),41	944,(0, 27),41	1313,(0, 37),41	1682,(0, 47),41	2051,(0, 57),41	2420,(0, 67),41	2789,(0, 77),41	3158,(0, 87),41	3527,(0, 97),41	3896,(0, 107),41	4265,(0, 117),41	4634,(0, 127),41	5003,(0, 137),41	5372,(0, 147),41	5741,(0, 157),41	6110,(0, 167),41	6479,(0, 177),41	6848,(0, 187),41	7217,(0, 197),41	7586,(0, 207),41	7955,(0, 217),41	8324,(0, 227),41	8693,(0, 237),41	9062,(0, 247),41	9431,(0, 257),41	9800,(0, 267),41	10169,(0, 277),41	10538,(0, 287),41	10907,(0, 297),41	11276,(0, 307),41	11645,(0, 317),41	12014,(0, 327),41	12383,(0, 337),41	12752,(0, 347),41	13121,(0, 357),41	13490,(0, 367),41	13859,(0, 377),41	14228,(0, 387),41	14597,(0, 397),41	14966,(0, 407),41	15335,(0, 417),41	15704,(0, 427),41	16073,(0, 437),41	16442,(0, 447),41	16811,(0, 457),41	17180,(0, 467),41	17549,(0, 477),41	17918,(0, 487),41	18287,(0, 497),41	
165,(0, 6),41	534,(0, 16),41	903,(0, 26),41	1272,(0, 36),41	1641,(0, 46),41	2010,(0, 56),41	2379,(0, 66),41	2748,(0, 76),41	3117,(0, 86),41	3486,(0, 96),41	3855,(0, 106),41	4224,(0, 116),41	4593,(0, 126),41	4962,(0, 136),41	5331,(0, 146),41	5700,(0, 156),41	6069,(0, 166),41	6438,(0, 176),41	6807,(0, 186),41	7176,(0, 196),41	7545,(0, 206),41	7914,(0, 216),41	8283,(0, 226),41	8652,(0, 236),41	9021,(0, 246),41	9390,(0, 256),41	9759,(0, 266),41	10128,(0, 276),41	10497,(0, 286),41	10866,(0, 296),41	11235,(0, 306),41	11604,(0, 316),41	11973,(0, 326),41	12342,(0, 336),41	12711,(0, 346),41	13080,(0, 356),41	13449,(0, 366),41	13818,(0, 376),41	14187,(0, 386),41	14556,(0, 396),41	14925,(0, 406),41	15294,(0, 416),41	15663,(0, 426),41	16032,(0, 436),41	16401,(0, 446),41	16770,(0, 456),41	17139,(0, 466),41	17508,(0, 476),41	17877,(0, 486),41	18246,(0, 496),41	
124,(0, 5),41	493,(0, 15),41	862,(0, 25),41	1231,(0, 35),41	1600,(0, 45),41	1969,(0, 55),41	2338,(0, 65),41	2707,(0, 75),41	3076,(0, 85),41	3445,(0, 95),41	3814,(0, 105),41	4183,(0, 115),41	4552,(0, 125),41	4921,(0, 135),41	5290,(0, 145),41	5659,(0, 155),41	6028,(0, 165),41	6397,(0, 175),41	6766,(0, 185),41	7135,(0, 195),41	7504,(0, 205),41	7873,(0, 215),41	8242,(0, 225),41	8611,(0, 235),41	8980,(0, 245),41	9349,(0, 255),41	9718,(0, 265),41	10087,(0, 275),41	10456,(0, 285),41	10825,(0, 295),41	11194,(0, 305),41	11563,(0, 315),41	11932,(0, 325),41	12301,(0, 335),41	12670,(0, 345),41	13039,(0, 355),41	13408,(0, 365),41	13777,(0, 375),41	14146,(0, 385),41	14515,(0, 395),41	14884,(0, 405),41	15253,(0, 415),41	15622,(0, 425),41	15991,(0, 435),41	16360,(0, 445),41	16729,(0, 455),41	17098,(0, 465),41	17467,(0, 475),41	17836,(0, 485),41	18205,(0, 495),41	
83,(0, 4),41	452,(0, 14),41	821,(0, 24),41	1190,(0, 34),41	1559,(0, 44),41	1928,(0, 54),41	2297,(0, 64),41	2666,(0, 74),41	3035,(0, 84),41	3404,(0, 94),41	3773,(0, 104),41	4142,(0, 114),41	4511,(0, 124),41	4880,(0, 134),41	5249,(0, 144),41	5618,(0, 154),41	5987,(0, 164),41	6356,(0, 174),41	6725,(0, 184),41	7094,(0, 194),41	7463,(0, 204),41	7832,(0, 214),41	8201,(0, 224),41	8570,(0, 234),41	8939,(0, 244),41	9308,(0, 254),41	9677,(0, 264),41	10046,(0, 274),41	10415,(0, 284),41	10784,(0, 294),41	11153,(0, 304),41	11522,(0, 314),41	11891,(0, 324),41	12260,(0, 334),41	12629,(0, 344),41	12998,(0, 354),41	13367,(0, 364),41	13736,(0, 374),41	14105,(0, 384),41	14474,(0, 394),41	14843,(0, 404),41	15212,(0, 414),41	15581,(0, 424),41	15950,(0, 434),41	16319,(0, 444),41	16688,(0, 454),41	17057,(0, 464),41	17426,(0, 474),41	17795,(0, 484),41	18164,(0, 494),41	
42,(0, 3),41	411,(0, 13),41	780,(0, 23),41	1149,(0, 33),41	1518,(0, 43),41	1887,(0, 53),41	2256,(0, 63),41	2625,(0, 73),41	2994,(0, 83),41	3363,(0, 93),41	3732,(0, 103),41	4101,(0, 113),41	4470,(0, 123),41	4839,(0, 133),41	5208,(0, 143),41	5577,(0, 153),41	5946,(0, 163),41	6315,(0, 173),41	6684,(0, 183),41	7053,(0, 193),41	7422,(0, 203),41	7791,(0, 213),41	8160,(0, 223),41	8529,(0, 233),41	8898,(0, 243),41	9267,(0, 253),41	9636,(0, 263),41	10005,(0, 273),41	10374,(0, 283),41	10743,(0, 293),41	11112,(0, 303),41	11481,(0, 313),41	11850,(0, 323),41	12219,(0, 333),41	12588,(0, 343),41	12957,(0, 353),41	13326,(0, 363),41	13695,(0, 373),41	14064,(0, 383),41	14433,(0, 393),41	14802,(0, 403),41	15171,(0, 413),41	15540,(0, 423),41	15909,(0, 433),41	16278,(0, 443),41	16647,(0, 453),41	17016,(0, 463),41	17385,(0, 473),41	17754,(0, 483),41	18123,(0, 493),41	
1,(0, 2),41	370,(0, 12),41	739,(0, 22),41	1108,(0, 32),41	1477,(0, 42),41	1846,(0, 52),41	2215,(0, 62),41	2584,(0, 72),41	2953,(0, 82),41	3322,(0, 92),41	3691,(0, 102),41	4060,(0, 112),41	4429,(0, 122),41	4798,(0, 132),41	5167,(0, 142),41	5536,(0, 152),41	5905,(0, 162),41	6274,(0, 172),41	6643,(0, 182),41	7012,(0, 192),41	7381,(0, 202),41	7750,(0, 212),41	8119,(0, 222),41	8488,(0, 232),41	8857,(0, 242),41	9226,(0, 252),41	9595,(0, 262),41	9964,(0, 272),41	10333,(0, 282),41	10702,(0, 292),41	11071,(0, 302),41	11440,(0, 312),41	11809,(0, 322),41	12178,(0, 332),41	12547,(0, 342),41	12916,(0, 352),41	13285,(0, 362),41	13654,(0, 372),41	14023,(0, 382),41	14392,(0, 392),41	14761,(0, 402),41	15130,(0, 412),41	15499,(0, 422),41	15868,(0, 432),41	16237,(0, 442),41	16606,(0, 452),41	16975,(0, 462),41	17344,(0, 472),41	17713,(0, 482),41	18082,(0, 492),41	
44,(2, 501),2	85,(3, 501),2	126,(4, 501),2	167,(5, 501),2	208,(6, 501),2	249,(7, 501),2	290,(8, 501),2	331,(9, 501),2	372,(10, 501),2	413,(12, 501),2	454,(13, 501),2	495,(14, 501),2	536,(15, 501),2	577,(16, 501),2	618,(17, 501),2	659,(18, 501),2	700,(19, 501),2	741,(20, 501),2	782,(22, 501),2	823,(23, 501),2	864,(24, 501),2	905,(25, 501),2	946,(26, 501),2	987,(27, 501),2	1028,(28, 501),2	1069,(29, 501),2	1110,(30, 501),2	1151,(32, 501),2	1192,(33, 501),2	1233,(34, 501),2	1274,(35, 501),2	1315,(36, 501),2	1356,(37, 501),2	1397,(38, 501),2	1438,(39, 501),2	1479,(40, 501),2	1520,(42, 501),2	1561,(43, 501),2	1602,(44, 501),2	1643,(45, 501),2	1684,(46, 501),2	1725,(47, 501),2	1766,(48, 501),2	1807,(49, 501),2	1848,(50, 501),2	1889,(52, 501),2	1930,(53, 501),2	1971,(54, 501),2	2012,(55, 501),2	2053,(56, 501),2	2094,(57, 501),2	2135,(58, 501),2	2176,(59, 501),2	2217,(60, 501),2	2258,(62, 501),2	2299,(63, 501),2	2340,(64, 501),2	2381,(65, 501),2	2422,(66, 501),2	2463,(67, 501),2	2504,(68, 501),2	2545,(69, 501),2	2586,(70, 501),2	2627,(72, 501),2	2668,(73, 501),2	2709,(74, 501),2	2750,(75, 501),2	2791,(76, 501),2	2832,(77, 501),2	2873,(78, 501),2	2914,(79, 501),2	2955,(80, 501),2	2996,(82, 501),2	3037,(83, 501),2	3078,(84, 501),2	3119,(85, 501),2	3160,(86, 501),2	3201,(87, 501),2	3242,(88, 501),2	3283,(89, 501),2	3324,(90, 501),2	3365,(92, 501),2	3406,(93, 501),2	3447,(94, 501),2	3488,(95, 501),2	3529,(96, 501),2	3570,(97, 501),2	3611,(98, 501),2	3652,(99, 501),2	3693,(100, 501),2	3734,(102, 501),2	3775,(103, 501),2	3816,(104, 501),2	3857,(105, 501),2	3898,(106, 501),2	3939,(107, 501),2	3980,(108, 501),2	4021,(109, 501),2	4062,(110, 501),2	4103,(112, 501),2	4144,(113, 501),2	4185,(114, 501),2	4226,(115, 501),2	4267,(116, 501),2	4308,(117, 501),2	4349,(118, 501),2	4390,(119, 501),2	4431,(120, 501),2	4472,(122, 501),2	4513,(123, 501),2	4554,(124, 501),2	4595,(125, 501),2	4636,(126, 501),2	4677,(127, 501),2	4718,(128, 501),2	4759,(129, 501),2	4800,(130, 501),2	4841,(132, 501),2	4882,(133, 501),2	4923,(134, 501),2	4964,(135, 501),2	5005,(136, 501),2	5046,(137, 501),2	5087,(138, 501),2	5128,(139, 501),2	5169,(140, 501),2	5210,(142, 501),2	5251,(143, 501),2	5292,(144, 501),2	5333,(145, 501),2	5374,(146, 501),2	5415,(147, 501),2	5456,(148, 501),2	5497,(149, 501),2	5538,(150, 501),2	5579,(152, 501),2	5620,(153, 501),2	5661,(154, 501),2	5702,(155, 501),2	5743,(156, 501),2	5784,(157, 501),2	5825,(158, 501),2	5866,(159, 501),2	5907,(160, 501),2	5948,(162, 501),2	5989,(163, 501),2	6030,(164, 501),2	6071,(165, 501),2	6112,(166, 501),2	6153,(167, 501),2	6194,(168, 501),2	6235,(169, 501),2	6276,(170, 501),2	6317,(172, 501),2	6358,(173, 501),2	6399,(174, 501),2	6440,(175, 501),2	6481,(176, 501),2	6522,(177, 501),2	6563,(178, 501),2	6604,(179, 501),2	6645,(180, 501),2	6686,(182, 501),2	6727,(183, 501),2	6768,(184, 501),2	6809,(185, 501),2	6850,(186, 501),2	6891,(187, 501),2	6932,(188, 501),2	6973,(189, 501),2	7014,(190, 501),2	7055,(192, 501),2	7096,(193, 501),2	7137,(194, 501),2	7178,(195, 501),2	7219,(196, 501),2	7260,(197, 501),2	7301,(198, 501),2	7342,(199, 501),2	7383,(200, 501),2	7424,(202, 501),2	7465,(203, 501),2	7506,(204, 501),2	7547,(205, 501),2	7588,(206, 501),2	7629,(207, 501),2	7670,(208, 501),2	7711,(209, 501),2	7752,(210, 501),2	7793,(212, 501),2	7834,(213, 501),2	7875,(214, 501),2	7916,(215, 501),2	7957,(216, 501),2	7998,(217, 501),2	8039,(218, 501),2	8080,(219, 501),2	8121,(220, 501),2	8162,(222, 501),2	8203,(223, 501),2	8244,(224, 501),2	8285,(225, 501),2	8326,(226, 501),2	8367,(227, 501),2	8408,(228, 501),2	8449,(229, 501),2	8490,(230, 501),2	8531,(232, 501),2	8572,(233, 501),2	8613,(234, 501),2	8654,(235, 501),2	8695,(236, 501),2	8736,(237, 501),2	8777,(238, 501),2	8818,(239, 501),2	8859,(240, 501),2	8900,(242, 501),2	8941,(243, 501),2	8982,(244, 501),2	9023,(245, 501),2	9064,(246, 501),2	9105,(247, 501),2	9146,(248, 501),2	9187,(249, 501),2	9228,(250, 501),2	9269,(252, 501),2	9310,(253, 501),2	9351,(254, 501),2	9392,(255, 501),2	9433,(256, 501),2	9474,(257, 501),2	9515,(258, 501),2	9556,(259, 501),2	9597,(260, 501),2	9638,(262, 501),2	9679,(263, 501),2	9720,(264, 501),2	9761,(265, 501),2	9802,(266, 501),2	9843,(267, 501),2	9884,(268, 501),2	9925,(269, 501),2	9966,(270, 501),2	10007,(272, 501),2	10048,(273, 501),2	10089,(274, 501),2	10130,(275, 501),2	10171,(276, 501),2	10212,(277, 501),2	10253,(278, 501),2	10294,(279, 501),2	10335,(280, 501),2	10376,(282, 501),2	10417,(283, 501),2	10458,(284, 501),2	10499,(285, 501),2	10540,(286, 501),2	10581,(287, 501),2	10622,(288, 501),2	10663,(289, 501),2	10704,(290, 501),2	10745,(292, 501),2	10786,(293, 501),2	10827,(294, 501),2	10868,(295, 501),2	10909,(296, 501),2	10950,(297, 501),2	10991,(298, 501),2	11032,(299, 501),2	11073,(300, 501),2	11114,(302, 501),2	11155,(303, 501),2	11196,(304, 501),2	11237,(305, 501),2	11278,(306, 501),2	11319,(307, 501),2	11360,(308, 501),2	11401,(309, 501),2	11442,(310, 501),2	11483,(312, 501),2	11524,(313, 501),2	11565,(314, 501),2	11606,(315, 501),2	11647,(316, 501),2	11688,(317, 501),2	11729,(318, 501),2	11770,(319, 501),2	11811,(320, 501),2	11852,(322, 501),2	11893,(323, 501),2	11934,(324, 501),2	11975,(325, 501),2	12016,(326, 501),2	12057,(327, 501),2	12098,(328, 501),2	12139,(329, 501),2	12180,(330, 501),2	12221,(332, 501),2	12262,(333, 501),2	12303,(334, 501),2	12344,(335, 501),2	12385,(336, 501),2	12426,(337, 501),2	12467,(338, 501),2	12508,(339, 501),2	12549,(340, 501),2	12590,(342, 501),2	12631,(343, 501),2	12672,(344, 501),2	12713,(345, 501),2	12754,(346, 501),2	12795,(347, 501),2	12836,(348, 501),2	12877,(349, 501),2	12918,(350, 501),2	12959,(352, 501),2	13000,(353, 501),2	13041,(354, 501),2	13082,(355, 501),2	13123,(356, 501),2	13164,(357, 501),2	13205,(358, 501),2	13246,(359, 501),2	13287,(360, 501),2	13328,(362, 501),2	13369,(363, 501),2	13410,(364, 501),2	13451,(365, 501),2	13492,(366, 501),2	13533,(367, 501),2	13574,(368, 501),2	13615,(369, 501),2	13656,(370, 501),2	13697,(372, 501),2	13738,(373, 501),2	13779,(374, 501),2	13820,(375, 501),2	13861,(376, 501),2	13902,(377, 501),2	13943,(378, 501),2	13984,(379, 501),2	14025,(380, 501),2	14066,(382, 501),2	14107,(383, 501),2	14148,(384, 501),2	14189,(385, 501),2	14230,(386, 501),2	14271,(387, 501),2	14312,(388, 501),2	14353,(389, 501),2	14394,(390, 501),2	14435,(392, 501),2	14476,(393, 501),2	14517,(394, 501),2	14558,(395, 501),2	14599,(396, 501),2	14640,(397, 501),2	14681,(398, 501),2	14722,(399, 501),2	14763,(400, 501),2	14804,(402, 501),2	14845,(403, 501),2	14886,(404, 501),2	14927,(405, 501),2	14968,(406, 501),2	15009,(407, 501),2	15050,(408, 501),2	15091,(409, 501),2	15132,(410, 501),2	15173,(412, 501),2	15214,(413, 501),2	15255,(414, 501),2	15296,(415, 501),2	15337,(416, 501),2	15378,(417, 501),2	15419,(418, 501),2	15460,(419, 501),2	15501,(420, 501),2	15542,(422, 501),2	15583,(423, 501),2	15624,(424, 501),2	15665,(425, 501),2	15706,(426, 501),2	15747,(427, 501),2	15788,(428, 501),2	15829,(429, 501),2	15870,(430, 501),2	15911,(432, 501),2	15952,(433, 501),2	15993,(434, 501),2	16034,(435, 501),2	16075,(436, 501),2	16116,(437, 501),2	16157,(438, 501),2	16198,(439, 501),2	16239,(440, 501),2	16280,(442, 501),2	16321,(443, 501),2	16362,(444, 501),2	16403,(445, 501),2	16444,(446, 501),2	16485,(447, 501),2	16526,(448, 501),2	16567,(449, 501),2	16608,(450, 501),2	16649,(452, 501),2	16690,(453, 501),2	16731,(454, 501),2	16772,(455, 501),2	16813,(456, 501),2	16854,(457, 501),2	16895,(458, 501),2	16936,(459, 501),2	16977,(460, 501),2	17018,(462, 501),2	17059,(463, 501),2	17100,(464, 501),2	17141,(465, 501),2	17182,(466, 501),2	17223,(467, 501),2	17264,(468, 501),2	17305,(469, 501),2	17346,(470, 501),2	17387,(472, 501),2	17428,(473, 501),2	17469,(474, 501),2	17510,(475, 501),2	17551,(476, 501),2	17592,(477, 501),2	17633,(478, 501),2	17674,(479, 501),2	17715,(480, 501),2	17756,(482, 501),2	17797,(483, 501),2	17838,(484, 501),2	17879,(485, 501),2	17920,(486, 501),2	17961,(487, 501),2	18002,(488, 501),2	18043,(489, 501),2	18084,(490, 501),2	18125,(492, 501),2	18166,(493, 501),2	18207,(494, 501),2	18248,(495, 501),2	18289,(496, 501),2	18330,(497, 501),2	18371,(498, 501),2	18412,(499, 501),2	18453,(500, 501),2	
# Outgoing
372,(10, 501),2	741,(20, 501),2	1110,(30, 501),2	1479,(40, 501),2	1848,(50, 501),2	2217,(60, 501),2	2586,(70, 501),2	2955,(80, 501),2	3324,(90, 501),2	3693,(100, 501),2	4062,(110, 501),2	4431,(120, 501),2	4800,(130, 501),2	5169,(140, 501),2	5538,(150, 501),2	5907,(160, 501),2	6276,(170, 501),2	6645,(180, 501),2	7014,(190, 501),2	7383,(200, 501),2	7752,(210, 501),2	8121,(220, 501),2	8490,(230, 501),2	8859,(240, 501),2	9228,(250, 501),2	9597,(260, 501),2	9966,(270, 501),2	10335,(280, 501),2	10704,(290, 501),2	11073,(300, 501),2	11442,(310, 501),2	11811,(320, 501),2	12180,(330, 501),2	12549,(340, 501),2	12918,(350, 501),2	13287,(360, 501),2	13656,(370, 501),2	14025,(380, 501),2	14394,(390, 501),2	14763,(400, 501),2	15132,(410, 501),2	15501,(420, 501),2	15870,(430, 501),2	16239,(440, 501),2	16608,(450, 501),2	16977,(460, 501),2	17346,(470, 501),2	17715,(480, 501),2	18084,(490, 501),2	18453,(500, 501),2	
331,(9, 501),2	700,(19, 501),2	1069,(29, 501),2	1438,(39, 501),2	1807,(49, 501),2	2176,(59, 501),2	2545,(69, 501),2	2914,(79, 501),2	3283,(89, 501),2	3652,(99, 501),2	4021,(109, 501),2	4390,(119, 501),2	4759,(129, 501),2	5128,(139, 501),2	5497,(149, 501),2	5866,(159, 501),2	6235,(169, 501),2	6604,(179, 501),2	6973,(189, 501),2	7342,(199, 501),2	7711,(209, 501),2	8080,(219, 501),2	8449,(229, 501),2	8818,(239, 501),2	9187,(249, 501),2	9556,(259, 501),2	9925,(269, 501),2	10294,(279, 501),2	10663,(289, 501),2	11032,(299, 501),2	11401,(309, 501),2	11770,(319, 501),2	12139,(329, 501),2	12508,(339, 501),2	12877,(349, 501),2	13246,(359, 501),2	13615,(369, 501),2	13984,(379, 501),2	14353,(389, 501),2	14722,(399, 501),2	15091,(409, 501),2	15460,(419, 501),2	15829,(429, 501),2	16198,(439, 501),2	16567,(449, 501),2	16936,(459, 501),2	17305,(469, 501),2	17674,(479, 501),2	18043,(489, 501),2	18412,(499, 501),2	
290,(8, 501),2	659,(18, 501),2	1028,(28, 501),2	1397,(38, 501),2	1766,(48, 501),2	2135,(58, 501),2	2504,(68, 501),2	2873,(78, 501),2	3242,(88, 501),2	3611,(98, 501),2	3980,(108, 501),2	4349,(118, 501),2	4718,(128, 501),2	5087,(138, 501),2	5456,(148, 501),2	5825,(158, 501),2	6194,(168, 501),2	6563,(178, 501),2	6932,(188, 501),2	7301,(198, 501),2	7670,(208, 501),2	8039,(218, 501),2	8408,(228, 501),2	8777,(238, 501),2	9146,(248, 501),2	9515,(258, 501),2	9884,(268, 501),2	10253,(278, 501),2	10622,(288, 501),2	10991,(298, 501),2	11360,(308, 501),2	11729,(318, 501),2	12098,(328, 501),2	12467,(338, 501),2	12836,(348, 501),2	13205,(358, 501),2	13574,(368, 501),2	13943,(378, 501),2	14312,(388, 501),2	14681,(398, 501),2	15050,(408, 501),2	15419,(418, 501),2	15788,(428, 501),2	16157,(438, 501),2	16526,(448, 501),2	16895,(458, 501),2	17264,(468, 501),2	17633,(478, 501),2	18002,(488, 501),2	18371,(498, 501),2	
249,(7, 501),2	618,(17, 501),2	987,(27, 501),2	1356,(37, 501),2	1725,(47, 501),2	2094,(57, 501),2	2463,(67, 501),2	2832,(77, 501),2	3201,(87, 501),2	3570,(97, 501),2	3939,(107, 501),2	4308,(117, 501),2	4677,(127, 501),2	5046,(137, 501),2	5415,(147, 501),2	5784,(157, 501),2	6153,(167, 501),2	6522,(177, 501),2	6891,(187, 501),2	7260,(197, 501),2	7629,(207, 501),2	7998,(217, 501),2	8367,(227, 501),2	8736,(237, 501),2	9105,(247, 501),2	9474,(257, 501),2	9843,(267, 501),2	10212,(277, 501),2	10581,(287, 501),2	10950,(297, 501),2	11319,(307, 501),2	11688,(317, 501),2	12057,(327, 501),2	12426,(337, 501),2	12795,(347, 501),2	13164,(357, 501),2	13533,(367, 501),2	13902,(377, 501),2	14271,(387, 501),2	14640,(397, 501),2	15009,(407, 501),2	15378,(417, 501),2	15747,(427, 501),2	16116,(437, 501),2	16485,(447, 501),2	16854,(457, 501),2	17223,(467, 501),2	17592,(477, 501),2	17961,(487, 501),2	18330,(497, 501),2	
208,(6, 501),2	577,(16, 501),2	946,(26, 501),2	1315,(36, 501),2	1684,(46, 501),2	2053,(56, 501),2	2422,(66, 501),2	2791,(76, 501),2	3160,(86, 501),2	3529,(96, 501),2	3898,(106, 501),2	4267,(116, 501),2	4636,(126, 501),2	5005,(136, 501),2	5374,(146, 501),2	5743,(156, 501),2	6112,(166, 501),2	6481,(176, 501),2	6850,(186, 501),2	7219,(196, 501),2	7588,(206, 501),2	7957,(216, 501),2	8326,(226, 501),2	8695,(236, 501),2	9064,(246, 501),2	9433,(256, 501),2	9802,(266, 501),2	10171,(276, 501),2	10540,(286, 501),2	10909,(296, 501),2	11278,(306, 501),2	11647,(316, 501),2	12016,(326, 501),2	12385,(336, 501),2	12754,(346, 501),2	13123,(356, 501),2	13492,(366, 501),2	13861,(376, 501),2	14230,(386, 501),2	14599,(396, 501),2	14968,(406, 501),2	15337,(416, 501),2	15706,(426, 501),2	16075,(436, 501),2	16444,(446, 501),2	16813,(456, 501),2	17182,(466, 501),2	17551,(476, 501),2	17920,(486, 501),2	18289,(496, 501),2	
167,(5, 501),2	536,(15, 501),2	905,(25, 501),2	1274,(35, 501),2	1643,(45, 501),2	2012,(55, 501),2	2381,(65, 501),2	2750,(75, 501),2	3119,(85, 501),2	3488,(95, 501),2	3857,(105, 501),2	4226,(115, 501),2	4595,(125, 501),2	4964,(135, 501),2	5333,(145, 501),2	5702,(155, 501),2	6071,(165, 501),2	6440,(175, 501),2	6809,(185, 501),2	7178,(195, 501),2	7547,(205, 501),2	7916,(215, 501),2	8285,(225, 501),2	8654,(235, 501),2	9023,(245, 501),2	9392,(255, 501),2	9761,(265, 501),2	10130,(275, 501),2	10499,(285, 501),2	10868,(295, 501),2	11237,(305, 501),2	11606,(315, 501),2	11975,(325, 501),2	12344,(335, 501),2	12713,(345, 501),2	13082,(355, 501),2	13451,(365, 501),2	13820,(375, 501),2	14189,(385, 501),2	14558,(395, 501),2	14927,(405, 501),2	15296,(415, 501),2	15665,(425, 501),2	16034,(435, 501),2	16403,(445, 501),2	16772,(455, 501),2	17141,(465, 501),2	17510,(475, 501),2	17879,(485, 501),2	18248,(495, 501),2	
126,(4, 501),2	495,(14, 501),2	864,(24, 501),2	1233,(34, 501),2	1602,(44, 501),2	1971,(54, 501),2	2340,(64, 501),2	2709,(74, 501),2	3078,(84, 501),2	3447,(94, 501),2	3816,(104, 501),2	4185,(114, 501),2	4554,(124, 501),2	4923,(134, 501),2	5292,(144, 501),2	5661,(154, 501),2	6030,(164, 501),2	6399,(174, 501),2	6768,(184, 501),2	7137,(194, 501),2	7506,(204, 501),2	7875,(214, 501),2	8244,(224, 501),2	8613,(234, 501),2	8982,(244, 501),2	9351,(254, 501),2	9720,(264, 501),2	10089,(274, 501),2	10458,(284, 501),2	10827,(294, 501),2	11196,(304, 501),2	11565,(314, 501),2	11934,(324, 501),2	12303,(334, 501),2	12672,(344, 501),2	13041,(354, 501),2	13410,(364, 501),2	13779,(374, 501),2	14148,(384, 501),2	14517,(394, 501),2	14886,(404, 501),2	15255,(414, 501),2	15624,(424, 501),2	15993,(434, 501),2	16362,(444, 501),2	16731,(454, 501),2	17100,(464, 501),2	17469,(474, 501),2	17838,(484, 501),2	18207,(494, 501),2	
85,(3, 501),2	454,(13, 501),2	823,(23, 501),2	1192,(33, 501),2	1561,(43, 501),2	1930,(53, 501),2	2299,(63, 501),2	2668,(73, 501),2	3037,(83, 501),2	3406,(93, 501),2	3775,(103, 501),2	4144,(113, 501),2	4513,(123, 501),2	4882,(133, 501),2	5251,(143, 501),2	5620,(153, 501),2	5989,(163, 501),2	6358,(173, 501),2	6727,(183, 501),2	7096,(193, 501),2	7465,(203, 501),2	7834,(213, 501),2	8203,(223, 501),2	8572,(233, 501),2	8941,(243, 501),2	9310,(253, 501),2	9679,(263, 501),2	10048,(273, 501),2	10417,(283, 501),2	10786,(293, 501),2	11155,(303, 501),2	11524,(313, 501),2	11893,(323, 501),2	12262,(333, 501),2	12631,(343, 501),2	13000,(353, 501),2	13369,(363, 501),2	13738,(373, 501),2	14107,(383, 501),2	14476,(393, 501),2	14845,(403, 501),2	15214,(413, 501),2	15583,(423, 501),2	15952,(433, 501),2	16321,(443, 501),2	16690,(453, 501),2	17059,(463, 501),2	17428,(473, 501),2	17797,(483, 501),2	18166,(493, 501),2	
44,(2, 501),2	413,(12, 501),2	782,(22, 501),2	1151,(32, 501),2	1520,(42, 501),2	1889,(52, 501),2	2258,(62, 501),2	2627,(72, 501),2	2996,(82, 501),2	3365,(92, 501),2	3734,(102, 501),2	4103,(112, 501),2	4472,(122, 501),2	4841,(132, 501),2	5210,(142, 501),2	5579,(152, 501),2	5948,(162, 501),2	6317,(172, 501),2	6686,(182, 501),2	7055,(192, 501),2	7424,(202, 501),2	7793,(212, 501),2	8162,(222, 501),2	8531,(232, 501),2	8900,(242, 501),2	9269,(252, 501),2	9638,(262, 501),2	10007,(272, 501),2	10376,(282, 501),2	10745,(292, 501),2	11114,(302, 501),2	11483,(312, 501),2	11852,(322, 501),2	12221,(332, 501),2	12590,(342, 501),2	12959,(352, 501),2	13328,(362, 501),2	13697,(372, 501),2	14066,(382, 501),2	14435,(392, 501),2	14804,(402, 501),2	15173,(412, 501),2	15542,(422, 501),2	15911,(432, 501),2	16280,(442, 501),2	16649,(452, 501),2	17018,(462, 501),2	17387,(472, 501),2	17756,(482, 501),2	18125,(492, 501),2	
1,(0, 2),41	42,(0, 3),41	83,(0, 4),41	124,(0, 5),41	165,(0, 6),41	206,(0, 7),41	247,(0, 8),41	288,(0, 9),41	329,(0, 10),41	370,(0, 12),41	411,(0, 13),41	452,(0, 14),41	493,(0, 15),41	534,(0, 16),41	575,(0, 17),41	616,(0, 18),41	657,(0, 19),41	698,(0, 20),41	739,(0, 22),41	780,(0, 23),41	821,(0, 24),41	862,(0, 25),41	903,(0, 26),41	944,(0, 27),41	985,(0, 28),41	1026,(0, 29),41	1067,(0, 30),41	1108,(0, 32),41	1149,(0, 33),41	1190,(0, 34),41	1231,(0, 35),41	1272,(0, 36),41	1313,(0, 37),41	1354,(0, 38),41	1395,(0, 39),41	1436,(0, 40),41	1477,(0, 42),41	1518,(0, 43),41	1559,(0, 44),41	1600,(0, 45),41	1641,(0, 46),41	1682,(0, 47),41	1723,(0, 48),41	1764,(0, 49),41	1805,(0, 50),41	1846,(0, 52),41	1887,(0, 53),41	1928,(0, 54),41	1969,(0, 55),41	2010,(0, 56),41	2051,(0, 57),41	2092,(0, 58),41	2133,(0, 59),41	2174,(0, 60),41	2215,(0, 62),41	2256,(0, 63),41	2297,(0, 64),41	2338,(0, 65),41	2379,(0, 66),41	2420,(0, 67),41	2461,(0, 68),41	2502,(0, 69),41	2543,(0, 70),41	2584,(0, 72),41	2625,(0, 73),41	2666,(0, 74),41	2707,(0, 75),41	2748,(0, 76),41	2789,(0, 77),41	2830,(0, 78),41	2871,(0, 79),41	2912,(0, 80),41	2953,(0, 82),41	2994,(0, 83),41	3035,(0, 84),41	3076,(0, 85),41	3117,(0, 86),41	3158,(0, 87),41	3199,(0, 88),41	3240,(0, 89),41	3281,(0, 90),41	3322,(0, 92),41	3363,(0, 93),41	3404,(0, 94),41	3445,(0, 95),41	3486,(0, 96),41	3527,(0, 97),41	3568,(0, 98),41	3609,(0, 99),41	3650,(0, 100),41	3691,(0, 102),41	3732,(0, 103),41	3773,(0, 104),41	3814,(0, 105),41	3855,(0, 106),41	3896,(0, 107),41	3937,(0, 108),41	3978,(0, 109),41	4019,(0, 110),41	4060,(0, 112),41	4101,(0, 113),41	4142,(0, 114),41	4183,(0, 115),41	4224,(0, 116),41	4265,(0, 117),41	4306,(0, 118),41	4347,(0, 119),41	4388,(0, 120),41	4429,(0, 122),41	4470,(0, 123),41	4511,(0, 124),41	4552,(0, 125),41	4593,(0, 126),41	4634,(0, 127),41	4675,(0, 128),41	4716,(0, 129),41	4757,(0, 130),41	4798,(0, 132),41	4839,(0, 133),41	4880,(0, 134),41	4921,(0, 135),41	4962,(0, 136),41	5003,(0, 137),41	5044,(0, 138),41	5085,(0, 139),41	5126,(0, 140),41	5167,(0, 142),41	5208,(0, 143),41	5249,(0, 144),41	5290,(0, 145),41	5331,(0, 146),41	5372,(0, 147),41	5413,(0, 148),41	5454,(0, 149),41	5495,(0, 150),41	5536,(0, 152),41	5577,(0, 153),41	5618,(0, 154),41	5659,(0, 155),41	5700,(0, 156),41	5741,(0, 157),41	5782,(0, 158),41	5823,(0, 159),41	5864,(0, 160),41	5905,(0, 162),41	5946,(0, 163),41	5987,(0, 164),41	6028,(0, 165),41	6069,(0, 166),41	6110,(0, 167),41	6151,(0, 168),41	6192,(0, 169),41	6233,(0, 170),41	6274,(0, 172),41	6315,(0, 173),41	6356,(0, 174),41	6397,(0, 175),41	6438,(0, 176),41	6479,(0, 177),41	6520,(0, 178),41	6561,(0, 179),41	6602,(0, 180),41	6643,(0, 182),41	6684,(0, 183),41	6725,(0, 184),41	6766,(0, 185),41	6807,(0, 186),41	6848,(0, 187),41	6889,(0, 188),41	6930,(0, 189),41	6971,(0, 190),41	7012,(0, 192),41	7053,(0, 193),41	7094,(0, 194),41	7135,(0, 195),41	7176,(0, 196),41	7217,(0, 197),41	7258,(0, 198),41	7299,(0, 199),41	7340,(0, 200),41	7381,(0, 202),41	7422,(0, 203),41	7463,(0, 204),41	7504,(0, 205),41	7545,(0, 206),41	7586,(0, 207),41	7627,(0, 208),41	7668,(0, 209),41	7709,(0, 210),41	7750,(0, 212),41	7791,(0, 213),41	7832,(0, 214),41	7873,(0, 215),41	7914,(0, 216),41	7955,(0, 217),41	7996,(0, 218),41	8037,(0, 219),41	8078,(0, 220),41	8119,(0, 222),41	8160,(0, 223),41	8201,(0, 224),41	8242,(0, 225),41	8283,(0, 226),41	8324,(0, 227),41	8365,(0, 228),41	8406,(0, 229),41	8447,(0, 230),41	8488,(0, 232),41	8529,(0, 233),41	8570,(0, 234),41	8611,(0, 235),41	8652,(0, 236),41	8693,(0, 237),41	8734,(0, 238),41	8775,(0, 239),41	8816,(0, 240),41	8857,(0, 242),41	8898,(0, 243),41	8939,(0, 244),41	8980,(0, 245),41	9021,(0, 246),41	9062,(0, 247),41	9103,(0, 248),41	9144,(0, 249),41	9185,(0, 250),41	9226,(0, 252),41	9267,(0, 253),41	9308,(0, 254),41	9349,(0, 255),41	9390,(0, 256),41	9431,(0, 257),41	9472,(0, 258),41	9513,(0, 259),41	9554,(0, 260),41	9595,(0, 262),41	9636,(0, 263),41	9677,(0, 264),41	9718,(0, 265),41	9759,(0, 266),41	9800,(0, 267),41	9841,(0, 268),41	9882,(0, 269),41	9923,(0, 270),41	9964,(0, 272),41	10005,(0, 273),41	10046,(0, 274),41	10087,(0, 275),41	10128,(0, 276),41	10169,(0, 277),41	10210,(0, 278),41	10251,(0, 279),41	10292,(0, 280),41	10333,(0, 282),41	10374,(0, 283),41	10415,(0, 284),41	10456,(0, 285),41	10497,(0, 286),41	10538,(0, 287),41	10579,(0, 288),41	10620,(0, 289),41	10661,(0, 290),41	10702,(0, 292),41	10743,(0, 293),41	10784,(0, 294),41	10825,(0, 295),41	10866,(0, 296),41	10907,(0, 297),41	10948,(0, 298),41	10989,(0, 299),41	11030,(0, 300),41	11071,(0, 302),41	11112,(0, 303),41	11153,(0, 304),41	11194,(0, 305),41	11235,(0, 306),41	11276,(0, 307),41	11317,(0, 308),41	11358,(0, 309),41	11399,(0, 310),41	11440,(0, 312),41	11481,(0, 313),41	11522,(0, 314),41	11563,(0, 315),41	11604,(0, 316),41	11645,(0, 317),41	11686,(0, 318),41	11727,(0, 319),41	11768,(0, 320),41	11809,(0, 322),41	11850,(0, 323),41	11891,(0, 324),41	11932,(0, 325),41	11973,(0, 326),41	12014,(0, 327),41	12055,(0, 328),41	12096,(0, 329),41	12137,(0, 330),41	12178,(0, 332),41	12219,(0, 333),41	12260,(0, 334),41	12301,(0, 335),41	12342,(0, 336),41	12383,(0, 337),41	12424,(0, 338),41	12465,(0, 339),41	12506,(0, 340),41	12547,(0, 342),41	12588,(0, 343),41	12629,(0, 344),41	12670,(0, 345),41	12711,(0, 346),41	12752,(0, 347),41	12793,(0, 348),41	12834,(0, 349),41	12875,(0, 350),41	12916,(0, 352),41	12957,(0, 353),41	12998,(0, 354),41	13039,(0, 355),41	13080,(0, 356),41	13121,(0, 357),41	13162,(0, 358),41	13203,(0, 359),41	13244,(0, 360),41	13285,(0, 362),41	13326,(0, 363),41	13367,(0, 364),41	13408,(0, 365),41	13449,(0, 366),41	13490,(0, 367),41	13531,(0, 368),41	13572,(0, 369),41	13613,(0, 370),41	13654,(0, 372),41	13695,(0, 373),41	13736,(0, 374),41	13777,(0, 375),41	13818,(0, 376),41	13859,(0, 377),41	13900,(0, 378),41	13941,(0, 379),41	13982,(0, 380),41	14023,(0, 382),41	14064,(0, 383),41	14105,(0, 384),41	14146,(0, 385),41	14187,(0, 386),41	14228,(0, 387),41	14269,(0, 388),41	14310,(0, 389),41	14351,(0, 390),41	14392,(0, 392),41	14433,(0, 393),41	14474,(0, 394),41	14515,(0, 395),41	14556,(0, 396),41	14597,(0, 397),41	14638,(0, 398),41	14679,(0, 399),41	14720,(0, 400),41	14761,(0, 402),41	14802,(0, 403),41	14843,(0, 404),41	14884,(0, 405),41	14925,(0, 406),41	14966,(0, 407),41	15007,(0, 408),41	15048,(0, 409),41	15089,(0, 410),41	15130,(0, 412),41	15171,(0, 413),41	15212,(0, 414),41	15253,(0, 415),41	15294,(0, 416),41	15335,(0, 417),41	15376,(0, 418),41	15417,(0, 419),41	15458,(0, 420),41	15499,(0, 422),41	15540,(0, 423),41	15581,(0, 424),41	15622,(0, 425),41	15663,(0, 426),41	15704,(0, 427),41	15745,(0, 428),41	15786,(0, 429),41	15827,(0, 430),41	15868,(0, 432),41	15909,(0, 433),41	15950,(0, 434),41	15991,(0, 435),41	16032,(0, 436),41	16073,(0, 437),41	16114,(0, 438),41	16155,(0, 439),41	16196,(0, 440),41	16237,(0, 442),41	16278,(0, 443),41	16319,(0, 444),41	16360,(0, 445),41	16401,(0, 446),41	16442,(0, 447),41	16483,(0, 448),41	16524,(0, 449),41	16565,(0, 450),41	16606,(0, 452),41	16647,(0, 453),41	16688,(0, 454),41	16729,(0, 455),41	16770,(0, 456),41	16811,(0, 457),41	16852,(0, 458),41	16893,(0, 459),41	16934,(0, 460),41	16975,(0, 462),41	17016,(0, 463),41	17057,(0, 464),41	17098,(0, 465),41	17139,(0, 466),41	17180,(0, 467),41	17221,(0, 468),41	17262,(0, 469),41	17303,(0, 470),41	17344,(0, 472),41	17385,(0, 473),41	17426,(0, 474),41	17467,(0, 475),41	17508,(0, 476),41	17549,(0, 477),41	17590,(0, 478),41	17631,(0, 479),41	17672,(0, 480),41	17713,(0, 482),41	17754,(0, 483),41	17795,(0, 484),41	17836,(0, 485),41	17877,(0, 486),41	17918,(0, 487),41	17959,(0, 488),41	18000,(0, 489),41	18041,(0, 490),41	18082,(0, 492),41	18123,(0, 493),41	18164,(0, 494),41	18205,(0, 495),41	18246,(0, 496),41	18287,(0, 497),41	18328,(0, 498),41	18369,(0, 499),41	18410,(0, 500),41	
