1096
# CPU
2,2,27	29,4,27	56,6,27	83,8,27	110,10,27	137,12,27	164,14,27	191,16,27	218,18,27	245,20,27	272,22,27	299,24,27	326,26,27	353,28,27	380,30,27	407,32,27	434,34,27	461,36,27	488,38,27	515,40,27	542,42,27	569,44,27	596,46,27	623,48,27	650,50,27	677,52,27	704,54,27	731,56,27	758,58,27	785,60,27	812,62,27	839,64,27	866,66,27	893,68,27	920,70,27	947,72,27	974,74,27	1001,76,27	1028,78,27	1055,80,27	
0,0,1	1,1,27	28,5,27	55,13,27	82,29,27	109,61,27	136,79,27	163,77,27	190,75,27	217,73,27	244,71,27	271,69,27	298,67,27	325,65,27	352,59,27	379,63,27	406,57,27	433,55,27	460,53,27	487,51,27	514,49,27	541,47,27	568,45,27	595,43,27	622,41,27	649,39,27	676,37,27	703,35,27	730,33,27	757,27,27	784,31,27	811,25,27	838,23,27	865,21,27	892,19,27	919,17,27	946,11,27	973,15,27	1000,9,27	1027,3,27	1054,7,27	1095,81,1	
# Incoming
1,(0, 2),1	2,(0, 4),1	3,(0, 6),1	4,(0, 8),1	5,(0, 10),1	6,(0, 12),1	7,(0, 14),1	8,(0, 16),1	9,(0, 18),1	10,(0, 20),1	11,(0, 22),1	12,(0, 24),1	13,(0, 26),1	14,(0, 28),1	15,(0, 30),1	16,(0, 32),1	17,(0, 34),1	18,(0, 36),1	19,(0, 38),1	20,(0, 40),1	21,(0, 42),1	22,(0, 44),1	23,(0, 46),1	24,(0, 48),1	25,(0, 50),1	26,(0, 52),1	27,(0, 54),1	28,(0, 56),1	29,(0, 58),1	30,(0, 60),1	31,(0, 62),1	32,(0, 64),1	33,(0, 66),1	34,(0, 68),1	35,(0, 70),1	36,(0, 72),1	37,(0, 74),1	38,(0, 76),1	39,(0, 78),1	40,(0, 80),1	
29,(2, 81),13	56,(4, 81),13	83,(6, 81),13	110,(8, 81),13	137,(10, 81),13	164,(12, 81),13	191,(14, 81),13	218,(16, 81),13	245,(18, 81),13	272,(20, 81),13	299,(22, 81),13	326,(24, 81),13	353,(26, 81),13	380,(28, 81),13	407,(30, 81),13	434,(32, 81),13	461,(34, 81),13	488,(36, 81),13	515,(38, 81),13	542,(40, 81),13	569,(42, 81),13	596,(44, 81),13	623,(46, 81),13	650,(48, 81),13	677,(50, 81),13	704,(52, 81),13	731,(54, 81),13	758,(56, 81),13	785,(58, 81),13	812,(60, 81),13	839,(62, 81),13	866,(64, 81),13	893,(66, 81),13	920,(68, 81),13	947,(70, 81),13	974,(72, 81),13	1001,(74, 81),13	1028,(76, 81),13	1055,(78, 81),13	1082,(80, 81),13	
# Outgoing
29,(2, 81),13	56,(4, 81),13	83,(6, 81),13	110,(8, 81),13	137,(10, 81),13	164,(12, 81),13	191,(14, 81),13	218,(16, 81),13	245,(18, 81),13	272,(20, 81),13	299,(22, 81),13	326,(24, 81),13	353,(26, 81),13	380,(28, 81),13	407,(30, 81),13	434,(32, 81),13	461,(34, 81),13	488,(36, 81),13	515,(38, 81),13	542,(40, 81),13	569,(42, 81),13	596,(44, 81),13	623,(46, 81),13	650,(48, 81),13	677,(50, 81),13	704,(52, 81),13	731,(54, 81),13	758,(56, 81),13	785,(58, 81),13	812,(60, 81),13	839,(62, 81),13	866,(64, 81),13	893,(66, 81),13	920,(68, 81),13	947,(70, 81),13	974,(72, 81),13	1001,(74, 81),13	1028,(76, 81),13	1055,(78, 81),13	1082,(80, 81),13	
1,(0, 2),1	2,(0, 4),1	3,(0, 6),1	4,(0, 8),1	5,(0, 10),1	6,(0, 12),1	7,(0, 14),1	8,(0, 16),1	9,(0, 18),1	10,(0, 20),1	11,(0, 22),1	12,(0, 24),1	13,(0, 26),1	14,(0, 28),1	15,(0, 30),1	16,(0, 32),1	17,(0, 34),1	18,(0, 36),1	19,(0, 38),1	20,(0, 40),1	21,(0, 42),1	22,(0, 44),1	23,(0, 46),1	24,(0, 48),1	25,(0, 50),1	26,(0, 52),1	27,(0, 54),1	28,(0, 56),1	29,(0, 58),1	30,(0, 60),1	31,(0, 62),1	32,(0, 64),1	33,(0, 66),1	34,(0, 68),1	35,(0, 70),1	36,(0, 72),1	37,(0, 74),1	38,(0, 76),1	39,(0, 78),1	40,(0, 80),1	
