4269
# CPU
265,5,13	529,10,13	793,15,13	1057,20,13	1321,25,13	1585,30,13	1849,35,13	2113,40,13	2377,45,13	2641,50,13	2905,55,13	3169,60,13	3433,65,13	3697,70,13	3961,75,13	4225,80,13	
199,4,13	463,9,13	727,14,13	991,19,13	1255,24,13	1519,29,13	1783,34,13	2047,39,13	2311,44,13	2575,49,13	2839,54,13	3103,59,13	3367,64,13	3631,69,13	3895,74,13	4159,79,13	
133,3,13	397,8,13	661,13,13	925,18,13	1189,23,13	1453,28,13	1717,33,13	1981,38,13	2245,43,13	2509,48,13	2773,53,13	3037,58,13	3301,63,13	3565,68,13	3829,73,13	4093,78,13	
67,2,13	331,7,13	595,12,13	859,17,13	1123,22,13	1387,27,13	1651,32,13	1915,37,13	2179,42,13	2443,47,13	2707,52,13	2971,57,13	3235,62,13	3499,67,13	3763,72,13	4027,77,13	
0,0,1	1,1,13	14,11,13	27,31,13	40,71,13	53,66,13	66,76,13	79,61,13	92,56,13	105,51,13	118,46,13	131,41,13	144,26,13	157,36,13	170,21,13	183,6,13	196,16,13	4268,81,1	
# Incoming
199,(0, 5),66	463,(0, 10),66	727,(0, 15),66	991,(0, 20),66	1255,(0, 25),66	1519,(0, 30),66	1783,(0, 35),66	2047,(0, 40),66	2311,(0, 45),66	2575,(0, 50),66	2839,(0, 55),66	3103,(0, 60),66	3367,(0, 65),66	3631,(0, 70),66	3895,(0, 75),66	4159,(0, 80),66	
133,(0, 4),66	397,(0, 9),66	661,(0, 14),66	925,(0, 19),66	1189,(0, 24),66	1453,(0, 29),66	1717,(0, 34),66	1981,(0, 39),66	2245,(0, 44),66	2509,(0, 49),66	2773,(0, 54),66	3037,(0, 59),66	3301,(0, 64),66	3565,(0, 69),66	3829,(0, 74),66	4093,(0, 79),66	
67,(0, 3),66	331,(0, 8),66	595,(0, 13),66	859,(0, 18),66	1123,(0, 23),66	1387,(0, 28),66	1651,(0, 33),66	1915,(0, 38),66	2179,(0, 43),66	2443,(0, 48),66	2707,(0, 53),66	2971,(0, 58),66	3235,(0, 63),66	3499,(0, 68),66	3763,(0, 73),66	4027,(0, 78),66	
1,(0, 2),66	265,(0, 7),66	529,(0, 12),66	793,(0, 17),66	1057,(0, 22),66	1321,(0, 27),66	1585,(0, 32),66	1849,(0, 37),66	2113,(0, 42),66	2377,(0, 47),66	2641,(0, 52),66	2905,(0, 57),66	3169,(0, 62),66	3433,(0, 67),66	3697,(0, 72),66	3961,(0, 77),66	
80,(2, 81),30	146,(3, 81),30	212,(4, 81),30	278,(5, 81),30	344,(7, 81),30	410,(8, 81),30	476,(9, 81),30	542,(10, 81),30	608,(12, 81),30	674,(13, 81),30	740,(14, 81),30	806,(15, 81),30	872,(17, 81),30	938,(18, 81),30	1004,(19, 81),30	1070,(20, 81),30	1136,(22, 81),30	1202,(23, 81),30	1268,(24, 81),30	1334,(25, 81),30	1400,(27, 81),30	1466,(28, 81),30	1532,(29, 81),30	1598,(30, 81),30	1664,(32, 81),30	1730,(33, 81),30	1796,(34, 81),30	1862,(35, 81),30	1928,(37, 81),30	1994,(38, 81),30	2060,(39, 81),30	2126,(40, 81),30	2192,(42, 81),30	2258,(43, 81),30	2324,(44, 81),30	2390,(45, 81),30	2456,(47, 81),30	2522,(48, 81),30	2588,(49, 81),30	2654,(50, 81),30	2720,(52, 81),30	2786,(53, 81),30	2852,(54, 81),30	2918,(55, 81),30	2984,(57, 81),30	3050,(58, 81),30	3116,(59, 81),30	3182,(60, 81),30	3248,(62, 81),30	3314,(63, 81),30	3380,(64, 81),30	3446,(65, 81),30	3512,(67, 81),30	3578,(68, 81),30	3644,(69, 81),30	3710,(70, 81),30	3776,(72, 81),30	3842,(73, 81),30	3908,(74, 81),30	3974,(75, 81),30	4040,(77, 81),30	4106,(78, 81),30	4172,(79, 81),30	4238,(80, 81),30	
# Outgoing
278,(5, 81),30	542,(10, 81),30	806,(15, 81),30	1070,(20, 81),30	1334,(25, 81),30	1598,(30, 81),30	1862,(35, 81),30	2126,(40, 81),30	2390,(45, 81),30	2654,(50, 81),30	2918,(55, 81),30	3182,(60, 81),30	3446,(65, 81),30	3710,(70, 81),30	3974,(75, 81),30	4238,(80, 81),30	
212,(4, 81),30	476,(9, 81),30	740,(14, 81),30	1004,(19, 81),30	1268,(24, 81),30	1532,(29, 81),30	1796,(34, 81),30	2060,(39, 81),30	2324,(44, 81),30	2588,(49, 81),30	2852,(54, 81),30	3116,(59, 81),30	3380,(64, 81),30	3644,(69, 81),30	3908,(74, 81),30	4172,(79, 81),30	
146,(3, 81),30	410,(8, 81),30	674,(13, 81),30	938,(18, 81),30	1202,(23, 81),30	1466,(28, 81),30	1730,(33, 81),30	1994,(38, 81),30	2258,(43, 81),30	2522,(48, 81),30	2786,(53, 81),30	3050,(58, 81),30	3314,(63, 81),30	3578,(68, 81),30	3842,(73, 81),30	4106,(78, 81),30	
80,(2, 81),30	344,(7, 81),30	608,(12, 81),30	872,(17, 81),30	1136,(22, 81),30	1400,(27, 81),30	1664,(32, 81),30	1928,(37, 81),30	2192,(42, 81),30	2456,(47, 81),30	2720,(52, 81),30	2984,(57, 81),30	3248,(62, 81),30	3512,(67, 81),30	3776,(72, 81),30	4040,(77, 81),30	
1,(0, 2),66	67,(0, 3),66	133,(0, 4),66	199,(0, 5),66	265,(0, 7),66	331,(0, 8),66	397,(0, 9),66	463,(0, 10),66	529,(0, 12),66	595,(0, 13),66	661,(0, 14),66	727,(0, 15),66	793,(0, 17),66	859,(0, 18),66	925,(0, 19),66	991,(0, 20),66	1057,(0, 22),66	1123,(0, 23),66	1189,(0, 24),66	1255,(0, 25),66	1321,(0, 27),66	1387,(0, 28),66	1453,(0, 29),66	1519,(0, 30),66	1585,(0, 32),66	1651,(0, 33),66	1717,(0, 34),66	1783,(0, 35),66	1849,(0, 37),66	1915,(0, 38),66	1981,(0, 39),66	2047,(0, 40),66	2113,(0, 42),66	2179,(0, 43),66	2245,(0, 44),66	2311,(0, 45),66	2377,(0, 47),66	2443,(0, 48),66	2509,(0, 49),66	2575,(0, 50),66	2641,(0, 52),66	2707,(0, 53),66	2773,(0, 54),66	2839,(0, 55),66	2905,(0, 57),66	2971,(0, 58),66	3037,(0, 59),66	3103,(0, 60),66	3169,(0, 62),66	3235,(0, 63),66	3301,(0, 64),66	3367,(0, 65),66	3433,(0, 67),66	3499,(0, 68),66	3565,(0, 69),66	3631,(0, 70),66	3697,(0, 72),66	3763,(0, 73),66	3829,(0, 74),66	3895,(0, 75),66	3961,(0, 77),66	4027,(0, 78),66	4093,(0, 79),66	4159,(0, 80),66	
