3655
# CPU
121,4,13	241,8,13	361,12,13	481,16,13	601,20,13	721,24,13	841,28,13	961,32,13	1081,36,13	1201,40,13	1321,44,13	1441,48,13	1561,52,13	1681,56,13	1801,60,13	1921,64,13	2041,68,13	2161,72,13	2281,76,13	2401,80,13	
81,3,13	201,7,13	321,11,13	441,15,13	561,19,13	681,23,13	801,27,13	921,31,13	1041,35,13	1161,39,13	1281,43,13	1401,47,13	1521,51,13	1641,55,13	1761,59,13	1881,63,13	2001,67,13	2121,71,13	2241,75,13	2361,79,13	
41,2,13	161,6,13	281,10,13	401,14,13	521,18,13	641,22,13	761,26,13	881,30,13	1001,34,13	1121,38,13	1241,42,13	1361,46,13	1481,50,13	1601,54,13	1721,58,13	1841,62,13	1961,66,13	2081,70,13	2201,74,13	2321,78,13	
0,0,1	1,1,13	14,9,13	27,25,13	40,57,13	53,77,13	66,73,13	79,69,13	92,65,13	105,53,13	118,61,13	131,49,13	144,45,13	157,41,13	170,37,13	183,33,13	196,21,13	209,29,13	222,17,13	235,5,13	248,13,13	3654,81,1	
# Incoming
81,(0, 4),40	201,(0, 8),40	321,(0, 12),40	441,(0, 16),40	561,(0, 20),40	681,(0, 24),40	801,(0, 28),40	921,(0, 32),40	1041,(0, 36),40	1161,(0, 40),40	1281,(0, 44),40	1401,(0, 48),40	1521,(0, 52),40	1641,(0, 56),40	1761,(0, 60),40	1881,(0, 64),40	2001,(0, 68),40	2121,(0, 72),40	2241,(0, 76),40	2361,(0, 80),40	
41,(0, 3),40	161,(0, 7),40	281,(0, 11),40	401,(0, 15),40	521,(0, 19),40	641,(0, 23),40	761,(0, 27),40	881,(0, 31),40	1001,(0, 35),40	1121,(0, 39),40	1241,(0, 43),40	1361,(0, 47),40	1481,(0, 51),40	1601,(0, 55),40	1721,(0, 59),40	1841,(0, 63),40	1961,(0, 67),40	2081,(0, 71),40	2201,(0, 75),40	2321,(0, 79),40	
1,(0, 2),40	121,(0, 6),40	241,(0, 10),40	361,(0, 14),40	481,(0, 18),40	601,(0, 22),40	721,(0, 26),40	841,(0, 30),40	961,(0, 34),40	1081,(0, 38),40	1201,(0, 42),40	1321,(0, 46),40	1441,(0, 50),40	1561,(0, 54),40	1681,(0, 58),40	1801,(0, 62),40	1921,(0, 66),40	2041,(0, 70),40	2161,(0, 74),40	2281,(0, 78),40	
54,(2, 81),60	114,(3, 81),60	174,(4, 81),60	234,(6, 81),60	294,(7, 81),60	354,(8, 81),60	414,(10, 81),60	474,(11, 81),60	534,(12, 81),60	594,(14, 81),60	654,(15, 81),60	714,(16, 81),60	774,(18, 81),60	834,(19, 81),60	894,(20, 81),60	954,(22, 81),60	1014,(23, 81),60	1074,(24, 81),60	1134,(26, 81),60	1194,(27, 81),60	1254,(28, 81),60	1314,(30, 81),60	1374,(31, 81),60	1434,(32, 81),60	1494,(34, 81),60	1554,(35, 81),60	1614,(36, 81),60	1674,(38, 81),60	1734,(39, 81),60	1794,(40, 81),60	1854,(42, 81),60	1914,(43, 81),60	1974,(44, 81),60	2034,(46, 81),60	2094,(47, 81),60	2154,(48, 81),60	2214,(50, 81),60	2274,(51, 81),60	2334,(52, 81),60	2394,(54, 81),60	2454,(55, 81),60	2514,(56, 81),60	2574,(58, 81),60	2634,(59, 81),60	2694,(60, 81),60	2754,(62, 81),60	2814,(63, 81),60	2874,(64, 81),60	2934,(66, 81),60	2994,(67, 81),60	3054,(68, 81),60	3114,(70, 81),60	3174,(71, 81),60	3234,(72, 81),60	3294,(74, 81),60	3354,(75, 81),60	3414,(76, 81),60	3474,(78, 81),60	3534,(79, 81),60	3594,(80, 81),60	
# Outgoing
174,(4, 81),60	354,(8, 81),60	534,(12, 81),60	714,(16, 81),60	894,(20, 81),60	1074,(24, 81),60	1254,(28, 81),60	1434,(32, 81),60	1614,(36, 81),60	1794,(40, 81),60	1974,(44, 81),60	2154,(48, 81),60	2334,(52, 81),60	2514,(56, 81),60	2694,(60, 81),60	2874,(64, 81),60	3054,(68, 81),60	3234,(72, 81),60	3414,(76, 81),60	3594,(80, 81),60	
114,(3, 81),60	294,(7, 81),60	474,(11, 81),60	654,(15, 81),60	834,(19, 81),60	1014,(23, 81),60	1194,(27, 81),60	1374,(31, 81),60	1554,(35, 81),60	1734,(39, 81),60	1914,(43, 81),60	2094,(47, 81),60	2274,(51, 81),60	2454,(55, 81),60	2634,(59, 81),60	2814,(63, 81),60	2994,(67, 81),60	3174,(71, 81),60	3354,(75, 81),60	3534,(79, 81),60	
54,(2, 81),60	234,(6, 81),60	414,(10, 81),60	594,(14, 81),60	774,(18, 81),60	954,(22, 81),60	1134,(26, 81),60	1314,(30, 81),60	1494,(34, 81),60	1674,(38, 81),60	1854,(42, 81),60	2034,(46, 81),60	2214,(50, 81),60	2394,(54, 81),60	2574,(58, 81),60	2754,(62, 81),60	2934,(66, 81),60	3114,(70, 81),60	3294,(74, 81),60	3474,(78, 81),60	
1,(0, 2),40	41,(0, 3),40	81,(0, 4),40	121,(0, 6),40	161,(0, 7),40	201,(0, 8),40	241,(0, 10),40	281,(0, 11),40	321,(0, 12),40	361,(0, 14),40	401,(0, 15),40	441,(0, 16),40	481,(0, 18),40	521,(0, 19),40	561,(0, 20),40	601,(0, 22),40	641,(0, 23),40	681,(0, 24),40	721,(0, 26),40	761,(0, 27),40	801,(0, 28),40	841,(0, 30),40	881,(0, 31),40	921,(0, 32),40	961,(0, 34),40	1001,(0, 35),40	1041,(0, 36),40	1081,(0, 38),40	1121,(0, 39),40	1161,(0, 40),40	1201,(0, 42),40	1241,(0, 43),40	1281,(0, 44),40	1321,(0, 46),40	1361,(0, 47),40	1401,(0, 48),40	1441,(0, 50),40	1481,(0, 51),40	1521,(0, 52),40	1561,(0, 54),40	1601,(0, 55),40	1641,(0, 56),40	1681,(0, 58),40	1721,(0, 59),40	1761,(0, 60),40	1801,(0, 62),40	1841,(0, 63),40	1881,(0, 64),40	1921,(0, 66),40	1961,(0, 67),40	2001,(0, 68),40	2041,(0, 70),40	2081,(0, 71),40	2121,(0, 72),40	2161,(0, 74),40	2201,(0, 75),40	2241,(0, 76),40	2281,(0, 78),40	2321,(0, 79),40	2361,(0, 80),40	
