75
# CPU
0,81,1	1,80,1	2,50,1	3,51,1	4,49,1	5,48,1	6,47,1	7,52,1	8,46,1	9,53,1	10,45,1	11,54,1	12,44,1	13,43,1	14,42,1	15,41,1	16,64,1	17,63,1	18,65,1	19,62,1	20,61,1	21,60,1	22,66,1	23,58,1	24,57,1	25,67,1	26,56,1	27,55,1	28,39,1	29,68,1	30,38,1	31,37,1	32,69,1	33,36,1	34,35,1	35,34,1	36,70,1	37,32,1	38,31,1	39,30,1	40,71,1	41,29,1	42,28,1	43,72,1	44,27,1	45,17,1	46,16,1	47,18,1	48,15,1	49,19,1	50,14,1	51,13,1	52,20,1	53,12,1	54,21,1	55,11,1	56,23,1	57,10,1	58,25,1	59,1,1	60,2,1	61,3,1	62,4,1	63,5,1	64,6,1	65,7,1	66,8,1	67,9,1	68,26,1	69,73,1	70,74,1	71,77,1	72,78,1	73,79,1	74,0,1	
10,59,1	19,40,1	37,24,1	
28,33,1	64,76,1	
46,22,1	55,75,1	
# Incoming
11,(59, 0),3	20,(40, 0),3	29,(33, 0),3	38,(24, 0),3	47,(22, 0),3	56,(75, 0),3	65,(76, 0),3	
1,(81, 59),9	10,(81, 40),9	28,(81, 24),9	
19,(81, 33),9	55,(81, 76),9	
37,(81, 22),9	46,(81, 75),9	
# Outgoing
1,(81, 59),9	10,(81, 40),9	19,(81, 33),9	28,(81, 24),9	37,(81, 22),9	46,(81, 75),9	55,(81, 76),9	
11,(59, 0),3	20,(40, 0),3	38,(24, 0),3	
29,(33, 0),3	65,(76, 0),3	
47,(22, 0),3	56,(75, 0),3	
