162
# CPU
0,0,1	1,1,2	3,3,2	5,7,2	7,15,2	9,31,2	11,63,2	13,80,2	15,79,2	17,78,2	19,77,2	21,76,2	23,75,2	25,74,2	27,73,2	29,72,2	31,71,2	33,70,2	35,69,2	37,68,2	39,67,2	41,66,2	43,65,2	45,62,2	47,64,2	49,61,2	51,60,2	53,59,2	55,58,2	57,57,2	59,56,2	61,55,2	63,54,2	65,53,2	67,52,2	69,51,2	71,50,2	73,49,2	75,48,2	77,47,2	79,46,2	81,45,2	83,44,2	85,43,2	87,42,2	89,41,2	91,40,2	93,39,2	95,38,2	97,37,2	99,36,2	101,35,2	103,34,2	105,33,2	107,30,2	109,32,2	111,29,2	113,28,2	115,27,2	117,26,2	119,25,2	121,24,2	123,23,2	125,22,2	127,21,2	129,20,2	131,19,2	133,18,2	135,17,2	137,14,2	139,16,2	141,13,2	143,12,2	145,11,2	147,10,2	149,9,2	151,6,2	153,8,2	155,5,2	157,2,2	159,4,2	161,81,1	



# Incoming




# Outgoing




