1052
# CPU
0,81,1	1,51,18	19,50,18	37,52,18	55,48,18	73,47,18	91,46,18	109,49,18	127,45,18	145,44,18	163,43,18	181,42,18	199,41,18	217,65,18	235,66,18	253,64,18	271,63,18	289,67,18	307,62,18	325,61,18	343,68,18	361,55,18	379,53,18	397,14,18	415,69,18	433,40,18	451,70,18	469,38,18	487,71,18	505,36,18	523,34,18	541,72,18	559,32,18	577,30,18	595,73,18	613,29,18	631,17,18	649,18,18	667,16,18	685,15,18	703,19,18	721,13,18	739,12,18	757,11,18	775,20,18	793,28,18	811,78,18	829,1,18	847,2,18	865,3,18	883,4,18	901,5,18	919,6,18	937,7,18	955,8,18	973,10,18	991,74,18	1009,79,18	1051,0,1	
45,57,18	89,58,18	177,60,18	617,22,18	661,23,18	881,77,18	925,21,18	969,9,18	1013,80,18	
133,59,18	221,56,18	265,54,18	353,37,18	529,26,18	573,24,18	705,25,18	837,75,18	
309,39,18	397,35,18	441,33,18	485,31,18	749,27,18	793,76,18	
# Incoming
63,(57, 0),20	107,(58, 0),20	151,(59, 0),20	195,(60, 0),20	239,(56, 0),20	283,(54, 0),20	327,(39, 0),20	371,(37, 0),20	415,(35, 0),20	459,(33, 0),20	503,(31, 0),20	547,(26, 0),20	591,(24, 0),20	635,(22, 0),20	679,(23, 0),20	723,(25, 0),20	767,(27, 0),20	811,(76, 0),20	855,(75, 0),20	899,(77, 0),20	943,(21, 0),20	987,(9, 0),20	1031,(80, 0),20	
1,(81, 57),44	45,(81, 58),44	133,(81, 60),44	573,(81, 22),44	617,(81, 23),44	837,(81, 77),44	881,(81, 21),44	925,(81, 9),44	969,(81, 80),44	
89,(81, 59),44	177,(81, 56),44	221,(81, 54),44	309,(81, 37),44	485,(81, 26),44	529,(81, 24),44	661,(81, 25),44	793,(81, 75),44	
265,(81, 39),44	353,(81, 35),44	397,(81, 33),44	441,(81, 31),44	705,(81, 27),44	749,(81, 76),44	
# Outgoing
1,(81, 57),44	45,(81, 58),44	89,(81, 59),44	133,(81, 60),44	177,(81, 56),44	221,(81, 54),44	265,(81, 39),44	309,(81, 37),44	353,(81, 35),44	397,(81, 33),44	441,(81, 31),44	485,(81, 26),44	529,(81, 24),44	573,(81, 22),44	617,(81, 23),44	661,(81, 25),44	705,(81, 27),44	749,(81, 76),44	793,(81, 75),44	837,(81, 77),44	881,(81, 21),44	925,(81, 9),44	969,(81, 80),44	
63,(57, 0),20	107,(58, 0),20	195,(60, 0),20	635,(22, 0),20	679,(23, 0),20	899,(77, 0),20	943,(21, 0),20	987,(9, 0),20	1031,(80, 0),20	
151,(59, 0),20	239,(56, 0),20	283,(54, 0),20	371,(37, 0),20	547,(26, 0),20	591,(24, 0),20	723,(25, 0),20	855,(75, 0),20	
327,(39, 0),20	415,(35, 0),20	459,(33, 0),20	503,(31, 0),20	767,(27, 0),20	811,(76, 0),20	
