482
# CPU
0,0,1	1,1,6	7,3,6	13,7,6	19,15,6	25,31,6	31,63,6	37,80,6	43,79,6	49,78,6	55,77,6	61,76,6	67,75,6	73,74,6	79,73,6	85,72,6	91,71,6	97,70,6	103,69,6	109,68,6	115,67,6	121,66,6	127,65,6	133,62,6	139,64,6	145,61,6	151,60,6	157,59,6	163,58,6	169,57,6	175,56,6	181,55,6	187,54,6	193,53,6	199,52,6	205,51,6	211,50,6	217,49,6	223,48,6	229,47,6	235,46,6	241,45,6	247,44,6	253,43,6	259,42,6	265,41,6	271,40,6	277,39,6	283,38,6	289,37,6	295,36,6	301,35,6	307,34,6	313,33,6	319,30,6	325,32,6	331,29,6	337,28,6	343,27,6	349,26,6	355,25,6	361,24,6	367,23,6	373,22,6	379,21,6	385,20,6	391,19,6	397,18,6	403,17,6	409,14,6	415,16,6	421,13,6	427,12,6	433,11,6	439,10,6	445,9,6	451,6,6	457,8,6	463,5,6	469,2,6	475,4,6	481,81,1	
# Incoming

# Outgoing

