6686
# CPU
417,5,4	833,10,4	1249,15,4	1665,20,4	2081,25,4	2497,30,4	2913,35,4	3329,40,4	3745,45,4	4161,50,4	4577,55,4	4993,60,4	5409,65,4	5825,70,4	6241,75,4	6657,80,4	
313,4,4	729,9,4	1145,14,4	1561,19,4	1977,24,4	2393,29,4	2809,34,4	3225,39,4	3641,44,4	4057,49,4	4473,54,4	4889,59,4	5305,64,4	5721,69,4	6137,74,4	6553,79,4	
209,3,4	625,8,4	1041,13,4	1457,18,4	1873,23,4	2289,28,4	2705,33,4	3121,38,4	3537,43,4	3953,48,4	4369,53,4	4785,58,4	5201,63,4	5617,68,4	6033,73,4	6449,78,4	
105,2,4	521,7,4	937,12,4	1353,17,4	1769,22,4	2185,27,4	2601,32,4	3017,37,4	3433,42,4	3849,47,4	4265,52,4	4681,57,4	5097,62,4	5513,67,4	5929,72,4	6345,77,4	
0,0,1	1,1,4	5,11,4	9,31,4	13,71,4	17,66,4	21,76,4	25,61,4	29,56,4	33,51,4	37,46,4	41,41,4	45,26,4	49,36,4	53,21,4	57,6,4	61,16,4	6685,81,1	
# Incoming
313,(0, 5),104	729,(0, 10),104	1145,(0, 15),104	1561,(0, 20),104	1977,(0, 25),104	2393,(0, 30),104	2809,(0, 35),104	3225,(0, 40),104	3641,(0, 45),104	4057,(0, 50),104	4473,(0, 55),104	4889,(0, 60),104	5305,(0, 65),104	5721,(0, 70),104	6137,(0, 75),104	6553,(0, 80),104	
209,(0, 4),104	625,(0, 9),104	1041,(0, 14),104	1457,(0, 19),104	1873,(0, 24),104	2289,(0, 29),104	2705,(0, 34),104	3121,(0, 39),104	3537,(0, 44),104	3953,(0, 49),104	4369,(0, 54),104	4785,(0, 59),104	5201,(0, 64),104	5617,(0, 69),104	6033,(0, 74),104	6449,(0, 79),104	
105,(0, 3),104	521,(0, 8),104	937,(0, 13),104	1353,(0, 18),104	1769,(0, 23),104	2185,(0, 28),104	2601,(0, 33),104	3017,(0, 38),104	3433,(0, 43),104	3849,(0, 48),104	4265,(0, 53),104	4681,(0, 58),104	5097,(0, 63),104	5513,(0, 68),104	5929,(0, 73),104	6345,(0, 78),104	
1,(0, 2),104	417,(0, 7),104	833,(0, 12),104	1249,(0, 17),104	1665,(0, 22),104	2081,(0, 27),104	2497,(0, 32),104	2913,(0, 37),104	3329,(0, 42),104	3745,(0, 47),104	4161,(0, 52),104	4577,(0, 57),104	4993,(0, 62),104	5409,(0, 67),104	5825,(0, 72),104	6241,(0, 77),104	
109,(2, 81),24	213,(3, 81),24	317,(4, 81),24	421,(5, 81),24	525,(7, 81),24	629,(8, 81),24	733,(9, 81),24	837,(10, 81),24	941,(12, 81),24	1045,(13, 81),24	1149,(14, 81),24	1253,(15, 81),24	1357,(17, 81),24	1461,(18, 81),24	1565,(19, 81),24	1669,(20, 81),24	1773,(22, 81),24	1877,(23, 81),24	1981,(24, 81),24	2085,(25, 81),24	2189,(27, 81),24	2293,(28, 81),24	2397,(29, 81),24	2501,(30, 81),24	2605,(32, 81),24	2709,(33, 81),24	2813,(34, 81),24	2917,(35, 81),24	3021,(37, 81),24	3125,(38, 81),24	3229,(39, 81),24	3333,(40, 81),24	3437,(42, 81),24	3541,(43, 81),24	3645,(44, 81),24	3749,(45, 81),24	3853,(47, 81),24	3957,(48, 81),24	4061,(49, 81),24	4165,(50, 81),24	4269,(52, 81),24	4373,(53, 81),24	4477,(54, 81),24	4581,(55, 81),24	4685,(57, 81),24	4789,(58, 81),24	4893,(59, 81),24	4997,(60, 81),24	5101,(62, 81),24	5205,(63, 81),24	5309,(64, 81),24	5413,(65, 81),24	5517,(67, 81),24	5621,(68, 81),24	5725,(69, 81),24	5829,(70, 81),24	5933,(72, 81),24	6037,(73, 81),24	6141,(74, 81),24	6245,(75, 81),24	6349,(77, 81),24	6453,(78, 81),24	6557,(79, 81),24	6661,(80, 81),24	
# Outgoing
421,(5, 81),24	837,(10, 81),24	1253,(15, 81),24	1669,(20, 81),24	2085,(25, 81),24	2501,(30, 81),24	2917,(35, 81),24	3333,(40, 81),24	3749,(45, 81),24	4165,(50, 81),24	4581,(55, 81),24	4997,(60, 81),24	5413,(65, 81),24	5829,(70, 81),24	6245,(75, 81),24	6661,(80, 81),24	
317,(4, 81),24	733,(9, 81),24	1149,(14, 81),24	1565,(19, 81),24	1981,(24, 81),24	2397,(29, 81),24	2813,(34, 81),24	3229,(39, 81),24	3645,(44, 81),24	4061,(49, 81),24	4477,(54, 81),24	4893,(59, 81),24	5309,(64, 81),24	5725,(69, 81),24	6141,(74, 81),24	6557,(79, 81),24	
213,(3, 81),24	629,(8, 81),24	1045,(13, 81),24	1461,(18, 81),24	1877,(23, 81),24	2293,(28, 81),24	2709,(33, 81),24	3125,(38, 81),24	3541,(43, 81),24	3957,(48, 81),24	4373,(53, 81),24	4789,(58, 81),24	5205,(63, 81),24	5621,(68, 81),24	6037,(73, 81),24	6453,(78, 81),24	
109,(2, 81),24	525,(7, 81),24	941,(12, 81),24	1357,(17, 81),24	1773,(22, 81),24	2189,(27, 81),24	2605,(32, 81),24	3021,(37, 81),24	3437,(42, 81),24	3853,(47, 81),24	4269,(52, 81),24	4685,(57, 81),24	5101,(62, 81),24	5517,(67, 81),24	5933,(72, 81),24	6349,(77, 81),24	
1,(0, 2),104	105,(0, 3),104	209,(0, 4),104	313,(0, 5),104	417,(0, 7),104	521,(0, 8),104	625,(0, 9),104	729,(0, 10),104	833,(0, 12),104	937,(0, 13),104	1041,(0, 14),104	1145,(0, 15),104	1249,(0, 17),104	1353,(0, 18),104	1457,(0, 19),104	1561,(0, 20),104	1665,(0, 22),104	1769,(0, 23),104	1873,(0, 24),104	1977,(0, 25),104	2081,(0, 27),104	2185,(0, 28),104	2289,(0, 29),104	2393,(0, 30),104	2497,(0, 32),104	2601,(0, 33),104	2705,(0, 34),104	2809,(0, 35),104	2913,(0, 37),104	3017,(0, 38),104	3121,(0, 39),104	3225,(0, 40),104	3329,(0, 42),104	3433,(0, 43),104	3537,(0, 44),104	3641,(0, 45),104	3745,(0, 47),104	3849,(0, 48),104	3953,(0, 49),104	4057,(0, 50),104	4161,(0, 52),104	4265,(0, 53),104	4369,(0, 54),104	4473,(0, 55),104	4577,(0, 57),104	4681,(0, 58),104	4785,(0, 59),104	4889,(0, 60),104	4993,(0, 62),104	5097,(0, 63),104	5201,(0, 64),104	5305,(0, 65),104	5409,(0, 67),104	5513,(0, 68),104	5617,(0, 69),104	5721,(0, 70),104	5825,(0, 72),104	5929,(0, 73),104	6033,(0, 74),104	6137,(0, 75),104	6241,(0, 77),104	6345,(0, 78),104	6449,(0, 79),104	6553,(0, 80),104	
