82
# CPU
0,0,1	1,1,1	2,3,1	3,7,1	4,15,1	5,31,1	6,63,1	7,80,1	8,79,1	9,78,1	10,77,1	11,76,1	12,75,1	13,74,1	14,73,1	15,72,1	16,71,1	17,70,1	18,69,1	19,68,1	20,67,1	21,66,1	22,65,1	23,62,1	24,64,1	25,61,1	26,60,1	27,59,1	28,58,1	29,57,1	30,56,1	31,55,1	32,54,1	33,53,1	34,52,1	35,51,1	36,50,1	37,49,1	38,48,1	39,47,1	40,46,1	41,45,1	42,44,1	43,43,1	44,42,1	45,41,1	46,40,1	47,39,1	48,38,1	49,37,1	50,36,1	51,35,1	52,34,1	53,33,1	54,30,1	55,32,1	56,29,1	57,28,1	58,27,1	59,26,1	60,25,1	61,24,1	62,23,1	63,22,1	64,21,1	65,20,1	66,19,1	67,18,1	68,17,1	69,14,1	70,16,1	71,13,1	72,12,1	73,11,1	74,10,1	75,9,1	76,6,1	77,8,1	78,5,1	79,2,1	80,4,1	81,81,1	


# Incoming



# Outgoing



