570
# CPU
0,81,1	1,80,28	29,48,28	57,51,28	85,43,28	113,64,28	141,61,28	169,58,28	197,40,28	225,37,28	253,34,28	281,31,28	309,28,28	337,17,28	365,19,28	393,21,28	421,23,28	449,1,28	477,5,28	505,25,28	533,76,28	569,0,1	
7,49,28	35,46,28	63,44,28	91,41,28	119,62,28	147,59,28	175,56,28	203,38,28	231,35,28	259,32,28	287,29,28	315,26,28	343,15,28	371,13,28	399,11,28	427,9,28	455,4,28	483,8,28	511,75,28	539,79,28	
3,55,28	31,47,28	59,45,28	87,42,28	115,63,28	143,60,28	171,57,28	199,39,28	227,36,28	255,33,28	283,30,28	311,27,28	339,16,28	367,14,28	395,12,28	423,10,28	451,2,28	479,6,28	507,73,28	535,77,28	
5,54,28	33,50,28	61,52,28	89,53,28	117,65,28	145,66,28	173,67,28	201,68,28	229,69,28	257,70,28	285,71,28	313,72,28	341,18,28	369,20,28	397,22,28	425,24,28	453,3,28	481,7,28	509,74,28	537,78,28	
# Incoming
31,(55, 0),2	33,(54, 0),2	35,(49, 0),2	59,(47, 0),2	61,(50, 0),2	63,(46, 0),2	87,(45, 0),2	89,(52, 0),2	91,(44, 0),2	115,(42, 0),2	117,(53, 0),2	119,(41, 0),2	143,(63, 0),2	145,(65, 0),2	147,(62, 0),2	171,(60, 0),2	173,(66, 0),2	175,(59, 0),2	199,(57, 0),2	201,(67, 0),2	203,(56, 0),2	227,(39, 0),2	229,(68, 0),2	231,(38, 0),2	255,(36, 0),2	257,(69, 0),2	259,(35, 0),2	283,(33, 0),2	285,(70, 0),2	287,(32, 0),2	311,(30, 0),2	313,(71, 0),2	315,(29, 0),2	339,(27, 0),2	341,(72, 0),2	343,(26, 0),2	367,(16, 0),2	369,(18, 0),2	371,(15, 0),2	395,(14, 0),2	397,(20, 0),2	399,(13, 0),2	423,(12, 0),2	425,(22, 0),2	427,(11, 0),2	451,(10, 0),2	453,(24, 0),2	455,(9, 0),2	479,(2, 0),2	481,(3, 0),2	483,(4, 0),2	507,(6, 0),2	509,(7, 0),2	511,(8, 0),2	535,(73, 0),2	537,(74, 0),2	539,(75, 0),2	563,(77, 0),2	565,(78, 0),2	567,(79, 0),2	
5,(81, 49),2	11,(81, 46),2	17,(81, 44),2	23,(81, 41),2	29,(81, 62),2	35,(81, 59),2	41,(81, 56),2	47,(81, 38),2	53,(81, 35),2	59,(81, 32),2	65,(81, 29),2	71,(81, 26),2	77,(81, 15),2	83,(81, 13),2	89,(81, 11),2	95,(81, 9),2	101,(81, 4),2	107,(81, 8),2	113,(81, 75),2	119,(81, 79),2	
1,(81, 55),2	7,(81, 47),2	13,(81, 45),2	19,(81, 42),2	25,(81, 63),2	31,(81, 60),2	37,(81, 57),2	43,(81, 39),2	49,(81, 36),2	55,(81, 33),2	61,(81, 30),2	67,(81, 27),2	73,(81, 16),2	79,(81, 14),2	85,(81, 12),2	91,(81, 10),2	97,(81, 2),2	103,(81, 6),2	109,(81, 73),2	115,(81, 77),2	
3,(81, 54),2	9,(81, 50),2	15,(81, 52),2	21,(81, 53),2	27,(81, 65),2	33,(81, 66),2	39,(81, 67),2	45,(81, 68),2	51,(81, 69),2	57,(81, 70),2	63,(81, 71),2	69,(81, 72),2	75,(81, 18),2	81,(81, 20),2	87,(81, 22),2	93,(81, 24),2	99,(81, 3),2	105,(81, 7),2	111,(81, 74),2	117,(81, 78),2	
# Outgoing
1,(81, 55),2	3,(81, 54),2	5,(81, 49),2	7,(81, 47),2	9,(81, 50),2	11,(81, 46),2	13,(81, 45),2	15,(81, 52),2	17,(81, 44),2	19,(81, 42),2	21,(81, 53),2	23,(81, 41),2	25,(81, 63),2	27,(81, 65),2	29,(81, 62),2	31,(81, 60),2	33,(81, 66),2	35,(81, 59),2	37,(81, 57),2	39,(81, 67),2	41,(81, 56),2	43,(81, 39),2	45,(81, 68),2	47,(81, 38),2	49,(81, 36),2	51,(81, 69),2	53,(81, 35),2	55,(81, 33),2	57,(81, 70),2	59,(81, 32),2	61,(81, 30),2	63,(81, 71),2	65,(81, 29),2	67,(81, 27),2	69,(81, 72),2	71,(81, 26),2	73,(81, 16),2	75,(81, 18),2	77,(81, 15),2	79,(81, 14),2	81,(81, 20),2	83,(81, 13),2	85,(81, 12),2	87,(81, 22),2	89,(81, 11),2	91,(81, 10),2	93,(81, 24),2	95,(81, 9),2	97,(81, 2),2	99,(81, 3),2	101,(81, 4),2	103,(81, 6),2	105,(81, 7),2	107,(81, 8),2	109,(81, 73),2	111,(81, 74),2	113,(81, 75),2	115,(81, 77),2	117,(81, 78),2	119,(81, 79),2	
35,(49, 0),2	63,(46, 0),2	91,(44, 0),2	119,(41, 0),2	147,(62, 0),2	175,(59, 0),2	203,(56, 0),2	231,(38, 0),2	259,(35, 0),2	287,(32, 0),2	315,(29, 0),2	343,(26, 0),2	371,(15, 0),2	399,(13, 0),2	427,(11, 0),2	455,(9, 0),2	483,(4, 0),2	511,(8, 0),2	539,(75, 0),2	567,(79, 0),2	
31,(55, 0),2	59,(47, 0),2	87,(45, 0),2	115,(42, 0),2	143,(63, 0),2	171,(60, 0),2	199,(57, 0),2	227,(39, 0),2	255,(36, 0),2	283,(33, 0),2	311,(30, 0),2	339,(27, 0),2	367,(16, 0),2	395,(14, 0),2	423,(12, 0),2	451,(10, 0),2	479,(2, 0),2	507,(6, 0),2	535,(73, 0),2	563,(77, 0),2	
33,(54, 0),2	61,(50, 0),2	89,(52, 0),2	117,(53, 0),2	145,(65, 0),2	173,(66, 0),2	201,(67, 0),2	229,(68, 0),2	257,(69, 0),2	285,(70, 0),2	313,(71, 0),2	341,(72, 0),2	369,(18, 0),2	397,(20, 0),2	425,(22, 0),2	453,(24, 0),2	481,(3, 0),2	509,(7, 0),2	537,(74, 0),2	565,(78, 0),2	
