160
# CPU
0,0,1	1,51,2	3,50,2	5,52,2	7,49,2	9,48,2	11,47,2	13,53,2	15,46,2	17,54,2	19,45,2	21,55,2	23,44,2	25,43,2	27,42,2	29,56,2	31,41,2	33,65,2	35,64,2	37,66,2	39,63,2	41,62,2	43,61,2	45,67,2	47,60,2	49,59,2	51,58,2	53,68,2	55,57,2	57,40,2	59,39,2	61,69,2	63,38,2	65,37,2	67,36,2	69,70,2	71,35,2	73,34,2	75,33,2	77,71,2	79,32,2	81,31,2	83,30,2	85,72,2	87,29,2	89,28,2	91,27,2	93,73,2	95,26,2	97,17,2	99,16,2	101,18,2	103,15,2	105,19,2	107,14,2	109,20,2	111,13,2	113,21,2	115,77,2	117,8,2	119,22,2	121,11,2	123,23,2	125,10,2	127,1,2	129,2,2	131,3,2	133,4,2	135,5,2	137,6,2	139,7,2	141,9,2	143,24,2	145,25,2	147,74,2	149,75,2	151,76,2	153,78,2	155,79,2	157,80,2	159,81,1	
115,12,2	
# Incoming
117,(12, 81),3	
1,(0, 12),114	
# Outgoing
1,(0, 12),114	
117,(12, 81),3	
