4984
# CPU
622,10,11	1243,20,11	1864,30,11	2485,40,11	3106,50,11	3727,60,11	4348,70,11	4969,80,11	
553,9,11	1174,19,11	1795,29,11	2416,39,11	3037,49,11	3658,59,11	4279,69,11	4900,79,11	
484,8,11	1105,18,11	1726,28,11	2347,38,11	2968,48,11	3589,58,11	4210,68,11	4831,78,11	
415,7,11	1036,17,11	1657,27,11	2278,37,11	2899,47,11	3520,57,11	4141,67,11	4762,77,11	
346,6,11	967,16,11	1588,26,11	2209,36,11	2830,46,11	3451,56,11	4072,66,11	4693,76,11	
277,5,11	898,15,11	1519,25,11	2140,35,11	2761,45,11	3382,55,11	4003,65,11	4624,75,11	
208,4,11	829,14,11	1450,24,11	2071,34,11	2692,44,11	3313,54,11	3934,64,11	4555,74,11	
139,3,11	760,13,11	1381,23,11	2002,33,11	2623,43,11	3244,53,11	3865,63,11	4486,73,11	
70,2,11	691,12,11	1312,22,11	1933,32,11	2554,42,11	3175,52,11	3796,62,11	4417,72,11	
0,0,1	1,1,11	12,21,11	23,61,11	34,51,11	45,71,11	56,41,11	67,11,11	78,31,11	4983,81,1	
# Incoming
553,(0, 10),69	1174,(0, 20),69	1795,(0, 30),69	2416,(0, 40),69	3037,(0, 50),69	3658,(0, 60),69	4279,(0, 70),69	4900,(0, 80),69	
484,(0, 9),69	1105,(0, 19),69	1726,(0, 29),69	2347,(0, 39),69	2968,(0, 49),69	3589,(0, 59),69	4210,(0, 69),69	4831,(0, 79),69	
415,(0, 8),69	1036,(0, 18),69	1657,(0, 28),69	2278,(0, 38),69	2899,(0, 48),69	3520,(0, 58),69	4141,(0, 68),69	4762,(0, 78),69	
346,(0, 7),69	967,(0, 17),69	1588,(0, 27),69	2209,(0, 37),69	2830,(0, 47),69	3451,(0, 57),69	4072,(0, 67),69	4693,(0, 77),69	
277,(0, 6),69	898,(0, 16),69	1519,(0, 26),69	2140,(0, 36),69	2761,(0, 46),69	3382,(0, 56),69	4003,(0, 66),69	4624,(0, 76),69	
208,(0, 5),69	829,(0, 15),69	1450,(0, 25),69	2071,(0, 35),69	2692,(0, 45),69	3313,(0, 55),69	3934,(0, 65),69	4555,(0, 75),69	
139,(0, 4),69	760,(0, 14),69	1381,(0, 24),69	2002,(0, 34),69	2623,(0, 44),69	3244,(0, 54),69	3865,(0, 64),69	4486,(0, 74),69	
70,(0, 3),69	691,(0, 13),69	1312,(0, 23),69	1933,(0, 33),69	2554,(0, 43),69	3175,(0, 53),69	3796,(0, 63),69	4417,(0, 73),69	
1,(0, 2),69	622,(0, 12),69	1243,(0, 22),69	1864,(0, 32),69	2485,(0, 42),69	3106,(0, 52),69	3727,(0, 62),69	4348,(0, 72),69	
81,(2, 81),3	150,(3, 81),3	219,(4, 81),3	288,(5, 81),3	357,(6, 81),3	426,(7, 81),3	495,(8, 81),3	564,(9, 81),3	633,(10, 81),3	702,(12, 81),3	771,(13, 81),3	840,(14, 81),3	909,(15, 81),3	978,(16, 81),3	1047,(17, 81),3	1116,(18, 81),3	1185,(19, 81),3	1254,(20, 81),3	1323,(22, 81),3	1392,(23, 81),3	1461,(24, 81),3	1530,(25, 81),3	1599,(26, 81),3	1668,(27, 81),3	1737,(28, 81),3	1806,(29, 81),3	1875,(30, 81),3	1944,(32, 81),3	2013,(33, 81),3	2082,(34, 81),3	2151,(35, 81),3	2220,(36, 81),3	2289,(37, 81),3	2358,(38, 81),3	2427,(39, 81),3	2496,(40, 81),3	2565,(42, 81),3	2634,(43, 81),3	2703,(44, 81),3	2772,(45, 81),3	2841,(46, 81),3	2910,(47, 81),3	2979,(48, 81),3	3048,(49, 81),3	3117,(50, 81),3	3186,(52, 81),3	3255,(53, 81),3	3324,(54, 81),3	3393,(55, 81),3	3462,(56, 81),3	3531,(57, 81),3	3600,(58, 81),3	3669,(59, 81),3	3738,(60, 81),3	3807,(62, 81),3	3876,(63, 81),3	3945,(64, 81),3	4014,(65, 81),3	4083,(66, 81),3	4152,(67, 81),3	4221,(68, 81),3	4290,(69, 81),3	4359,(70, 81),3	4428,(72, 81),3	4497,(73, 81),3	4566,(74, 81),3	4635,(75, 81),3	4704,(76, 81),3	4773,(77, 81),3	4842,(78, 81),3	4911,(79, 81),3	4980,(80, 81),3	
# Outgoing
633,(10, 81),3	1254,(20, 81),3	1875,(30, 81),3	2496,(40, 81),3	3117,(50, 81),3	3738,(60, 81),3	4359,(70, 81),3	4980,(80, 81),3	
564,(9, 81),3	1185,(19, 81),3	1806,(29, 81),3	2427,(39, 81),3	3048,(49, 81),3	3669,(59, 81),3	4290,(69, 81),3	4911,(79, 81),3	
495,(8, 81),3	1116,(18, 81),3	1737,(28, 81),3	2358,(38, 81),3	2979,(48, 81),3	3600,(58, 81),3	4221,(68, 81),3	4842,(78, 81),3	
426,(7, 81),3	1047,(17, 81),3	1668,(27, 81),3	2289,(37, 81),3	2910,(47, 81),3	3531,(57, 81),3	4152,(67, 81),3	4773,(77, 81),3	
357,(6, 81),3	978,(16, 81),3	1599,(26, 81),3	2220,(36, 81),3	2841,(46, 81),3	3462,(56, 81),3	4083,(66, 81),3	4704,(76, 81),3	
288,(5, 81),3	909,(15, 81),3	1530,(25, 81),3	2151,(35, 81),3	2772,(45, 81),3	3393,(55, 81),3	4014,(65, 81),3	4635,(75, 81),3	
219,(4, 81),3	840,(14, 81),3	1461,(24, 81),3	2082,(34, 81),3	2703,(44, 81),3	3324,(54, 81),3	3945,(64, 81),3	4566,(74, 81),3	
150,(3, 81),3	771,(13, 81),3	1392,(23, 81),3	2013,(33, 81),3	2634,(43, 81),3	3255,(53, 81),3	3876,(63, 81),3	4497,(73, 81),3	
81,(2, 81),3	702,(12, 81),3	1323,(22, 81),3	1944,(32, 81),3	2565,(42, 81),3	3186,(52, 81),3	3807,(62, 81),3	4428,(72, 81),3	
1,(0, 2),69	70,(0, 3),69	139,(0, 4),69	208,(0, 5),69	277,(0, 6),69	346,(0, 7),69	415,(0, 8),69	484,(0, 9),69	553,(0, 10),69	622,(0, 12),69	691,(0, 13),69	760,(0, 14),69	829,(0, 15),69	898,(0, 16),69	967,(0, 17),69	1036,(0, 18),69	1105,(0, 19),69	1174,(0, 20),69	1243,(0, 22),69	1312,(0, 23),69	1381,(0, 24),69	1450,(0, 25),69	1519,(0, 26),69	1588,(0, 27),69	1657,(0, 28),69	1726,(0, 29),69	1795,(0, 30),69	1864,(0, 32),69	1933,(0, 33),69	2002,(0, 34),69	2071,(0, 35),69	2140,(0, 36),69	2209,(0, 37),69	2278,(0, 38),69	2347,(0, 39),69	2416,(0, 40),69	2485,(0, 42),69	2554,(0, 43),69	2623,(0, 44),69	2692,(0, 45),69	2761,(0, 46),69	2830,(0, 47),69	2899,(0, 48),69	2968,(0, 49),69	3037,(0, 50),69	3106,(0, 52),69	3175,(0, 53),69	3244,(0, 54),69	3313,(0, 55),69	3382,(0, 56),69	3451,(0, 57),69	3520,(0, 58),69	3589,(0, 59),69	3658,(0, 60),69	3727,(0, 62),69	3796,(0, 63),69	3865,(0, 64),69	3934,(0, 65),69	4003,(0, 66),69	4072,(0, 67),69	4141,(0, 68),69	4210,(0, 69),69	4279,(0, 70),69	4348,(0, 72),69	4417,(0, 73),69	4486,(0, 74),69	4555,(0, 75),69	4624,(0, 76),69	4693,(0, 77),69	4762,(0, 78),69	4831,(0, 79),69	4900,(0, 80),69	
