2104
# CPU
0,81,1	1,51,30	31,50,30	61,52,30	91,49,30	121,48,30	151,47,30	181,53,30	211,46,30	241,45,30	271,54,30	301,44,30	331,43,30	361,42,30	391,41,30	421,65,30	451,64,30	481,66,30	511,63,30	541,62,30	571,67,30	601,61,30	631,60,30	661,58,30	691,68,30	721,56,30	751,55,30	781,69,30	811,39,30	841,38,30	871,37,30	901,70,30	931,36,30	961,35,30	991,71,30	1021,33,30	1051,32,30	1081,31,30	1111,72,30	1141,30,30	1171,28,30	1201,73,30	1231,27,30	1261,17,30	1291,16,30	1321,15,30	1351,18,30	1381,14,30	1411,19,30	1441,13,30	1471,20,30	1501,12,30	1531,11,30	1561,21,30	1591,10,30	1621,23,30	1651,9,30	1681,1,30	1711,2,30	1741,3,30	1771,4,30	1801,5,30	1831,6,30	1861,7,30	1891,8,30	1921,24,30	1951,26,30	1981,75,30	2011,77,30	2041,79,30	2103,0,1	
1881,78,30	2069,80,30	
189,57,30	
1129,25,30	1505,74,30	
753,34,30	1693,76,30	
377,59,30	

565,40,30	1317,22,30	
941,29,30	

# Incoming
219,(57, 0),4	407,(59, 0),4	595,(40, 0),4	783,(34, 0),4	971,(29, 0),4	1159,(25, 0),4	1347,(22, 0),4	1535,(74, 0),4	1723,(76, 0),4	1911,(78, 0),4	2099,(80, 0),4	
1693,(81, 78),188	1881,(81, 80),188	
1,(81, 57),188	
941,(81, 25),188	1317,(81, 74),188	
565,(81, 34),188	1505,(81, 76),188	
189,(81, 59),188	

377,(81, 40),188	1129,(81, 22),188	
753,(81, 29),188	

# Outgoing
1,(81, 57),188	189,(81, 59),188	377,(81, 40),188	565,(81, 34),188	753,(81, 29),188	941,(81, 25),188	1129,(81, 22),188	1317,(81, 74),188	1505,(81, 76),188	1693,(81, 78),188	1881,(81, 80),188	
1911,(78, 0),4	2099,(80, 0),4	
219,(57, 0),4	
1159,(25, 0),4	1535,(74, 0),4	
783,(34, 0),4	1723,(76, 0),4	
407,(59, 0),4	

595,(40, 0),4	1347,(22, 0),4	
971,(29, 0),4	

