156
# CPU
0,81,1	1,80,2	3,50,2	5,51,2	7,49,2	9,48,2	11,47,2	13,52,2	15,46,2	17,53,2	19,45,2	21,54,2	23,44,2	25,43,2	27,42,2	29,55,2	31,41,2	33,64,2	35,63,2	37,65,2	39,62,2	41,61,2	43,66,2	45,60,2	47,59,2	49,58,2	51,67,2	53,57,2	55,56,2	57,40,2	59,68,2	61,39,2	63,37,2	65,36,2	67,69,2	69,35,2	71,34,2	73,33,2	75,70,2	77,32,2	79,30,2	81,71,2	83,29,2	85,28,2	87,27,2	89,72,2	91,26,2	93,17,2	95,16,2	97,18,2	99,15,2	101,19,2	103,14,2	105,20,2	107,13,2	109,21,2	111,12,2	113,22,2	115,11,2	117,10,2	119,24,2	121,9,2	123,1,2	125,2,2	127,3,2	129,4,2	131,5,2	133,6,2	135,7,2	137,8,2	139,25,2	141,73,2	143,74,2	145,75,2	147,76,2	149,77,2	151,78,2	153,79,2	155,0,1	
3,31,2	
2,38,2	4,23,2	
# Incoming
4,(38, 0),38	42,(31, 0),38	80,(23, 0),38	
2,(81, 31),1	
1,(81, 38),1	3,(81, 23),1	
# Outgoing
1,(81, 38),1	2,(81, 31),1	3,(81, 23),1	
42,(31, 0),38	
4,(38, 0),38	80,(23, 0),38	
