462
# CPU
0,81,1	1,51,28	29,47,28	57,52,28	85,41,28	113,62,28	141,58,28	169,69,28	197,35,28	225,31,28	253,27,28	281,18,28	309,13,28	337,23,28	365,2,28	393,7,28	421,76,28	
10,57,28	38,50,28	66,42,28	94,66,28	122,60,28	150,40,28	178,36,28	206,71,28	234,29,28	262,17,28	290,14,28	318,22,28	346,9,28	374,5,28	402,74,28	430,79,28	
13,48,28	41,45,28	69,54,28	97,63,28	125,59,28	153,39,28	181,70,28	209,32,28	237,28,28	265,16,28	293,20,28	321,11,28	349,1,28	377,6,28	405,75,28	433,80,28	461,0,1	
7,56,28	35,46,28	63,43,28	91,64,28	119,67,28	147,55,28	175,37,28	203,33,28	231,72,28	259,26,28	287,19,28	315,12,28	343,24,28	371,4,28	399,25,28	427,78,28	
4,53,28	32,49,28	60,44,28	88,65,28	116,61,28	144,68,28	172,38,28	200,34,28	228,30,28	256,73,28	284,15,28	312,21,28	340,10,28	368,3,28	396,8,28	424,77,28	
# Incoming

7,(81, 57),3	19,(81, 50),3	31,(81, 42),3	43,(81, 66),3	55,(81, 60),3	67,(81, 40),3	79,(81, 36),3	91,(81, 71),3	103,(81, 29),3	115,(81, 17),3	127,(81, 14),3	139,(81, 22),3	151,(81, 9),3	163,(81, 5),3	175,(81, 74),3	187,(81, 79),3	
10,(81, 48),3	22,(81, 45),3	34,(81, 54),3	37,(53, 0),3	40,(56, 0),3	43,(57, 0),3	46,(81, 63),3	58,(81, 59),3	61,(49, 0),3	64,(46, 0),3	67,(50, 0),3	70,(81, 39),3	82,(81, 70),3	88,(44, 0),3	91,(43, 0),3	94,(81, 32),3	97,(42, 0),3	106,(81, 28),3	118,(81, 16),3	121,(65, 0),3	124,(64, 0),3	127,(66, 0),3	130,(81, 20),3	142,(81, 11),3	145,(61, 0),3	148,(67, 0),3	151,(60, 0),3	154,(81, 1),3	166,(81, 6),3	172,(68, 0),3	175,(55, 0),3	178,(81, 75),3	181,(40, 0),3	190,(81, 80),3	193,(51, 0),3	196,(47, 0),3	199,(52, 0),3	202,(41, 0),3	205,(62, 0),3	208,(58, 0),3	211,(69, 0),3	214,(38, 0),3	217,(37, 0),3	220,(36, 0),3	225,(35, 0),3	228,(34, 0),3	231,(33, 0),3	234,(71, 0),3	253,(31, 0),3	256,(30, 0),3	259,(72, 0),3	262,(29, 0),3	281,(27, 0),3	284,(73, 0),3	287,(26, 0),3	290,(17, 0),3	309,(18, 0),3	312,(15, 0),3	315,(19, 0),3	318,(14, 0),3	337,(13, 0),3	340,(21, 0),3	343,(12, 0),3	346,(22, 0),3	365,(23, 0),3	368,(10, 0),3	371,(24, 0),3	374,(9, 0),3	393,(2, 0),3	396,(3, 0),3	399,(4, 0),3	402,(5, 0),3	421,(7, 0),3	424,(8, 0),3	427,(25, 0),3	430,(74, 0),3	449,(76, 0),3	452,(77, 0),3	455,(78, 0),3	458,(79, 0),3	
4,(81, 56),3	16,(81, 46),3	28,(81, 43),3	40,(81, 64),3	52,(81, 67),3	64,(81, 55),3	76,(81, 37),3	88,(81, 33),3	100,(81, 72),3	112,(81, 26),3	124,(81, 19),3	136,(81, 12),3	148,(81, 24),3	160,(81, 4),3	172,(81, 25),3	184,(81, 78),3	
1,(81, 53),3	13,(81, 49),3	25,(81, 44),3	37,(81, 65),3	49,(81, 61),3	61,(81, 68),3	73,(81, 38),3	85,(81, 34),3	97,(81, 30),3	109,(81, 73),3	121,(81, 15),3	133,(81, 21),3	145,(81, 10),3	157,(81, 3),3	169,(81, 8),3	181,(81, 77),3	
# Outgoing
1,(81, 53),3	4,(81, 56),3	7,(81, 57),3	10,(81, 48),3	13,(81, 49),3	16,(81, 46),3	19,(81, 50),3	22,(81, 45),3	25,(81, 44),3	28,(81, 43),3	31,(81, 42),3	34,(81, 54),3	37,(81, 65),3	40,(81, 64),3	43,(81, 66),3	46,(81, 63),3	49,(81, 61),3	52,(81, 67),3	55,(81, 60),3	58,(81, 59),3	61,(81, 68),3	64,(81, 55),3	67,(81, 40),3	70,(81, 39),3	73,(81, 38),3	76,(81, 37),3	79,(81, 36),3	82,(81, 70),3	85,(81, 34),3	88,(81, 33),3	91,(81, 71),3	94,(81, 32),3	97,(81, 30),3	100,(81, 72),3	103,(81, 29),3	106,(81, 28),3	109,(81, 73),3	112,(81, 26),3	115,(81, 17),3	118,(81, 16),3	121,(81, 15),3	124,(81, 19),3	127,(81, 14),3	130,(81, 20),3	133,(81, 21),3	136,(81, 12),3	139,(81, 22),3	142,(81, 11),3	145,(81, 10),3	148,(81, 24),3	151,(81, 9),3	154,(81, 1),3	157,(81, 3),3	160,(81, 4),3	163,(81, 5),3	166,(81, 6),3	169,(81, 8),3	172,(81, 25),3	175,(81, 74),3	178,(81, 75),3	181,(81, 77),3	184,(81, 78),3	187,(81, 79),3	190,(81, 80),3	193,(51, 0),3	196,(47, 0),3	199,(52, 0),3	202,(41, 0),3	205,(62, 0),3	208,(58, 0),3	211,(69, 0),3	225,(35, 0),3	253,(31, 0),3	281,(27, 0),3	309,(18, 0),3	337,(13, 0),3	365,(23, 0),3	393,(2, 0),3	421,(7, 0),3	449,(76, 0),3	
43,(57, 0),3	67,(50, 0),3	97,(42, 0),3	127,(66, 0),3	151,(60, 0),3	181,(40, 0),3	220,(36, 0),3	234,(71, 0),3	262,(29, 0),3	290,(17, 0),3	318,(14, 0),3	346,(22, 0),3	374,(9, 0),3	402,(5, 0),3	430,(74, 0),3	458,(79, 0),3	

40,(56, 0),3	64,(46, 0),3	91,(43, 0),3	124,(64, 0),3	148,(67, 0),3	175,(55, 0),3	217,(37, 0),3	231,(33, 0),3	259,(72, 0),3	287,(26, 0),3	315,(19, 0),3	343,(12, 0),3	371,(24, 0),3	399,(4, 0),3	427,(25, 0),3	455,(78, 0),3	
37,(53, 0),3	61,(49, 0),3	88,(44, 0),3	121,(65, 0),3	145,(61, 0),3	172,(68, 0),3	214,(38, 0),3	228,(34, 0),3	256,(30, 0),3	284,(73, 0),3	312,(15, 0),3	340,(21, 0),3	368,(10, 0),3	396,(3, 0),3	424,(8, 0),3	452,(77, 0),3	
