392
# CPU
0,81,1	1,51,6	7,50,6	13,52,6	19,49,6	25,66,6	31,29,6	37,47,6	43,48,6	49,55,6	55,28,6	61,45,6	67,44,6	73,32,6	79,26,6	85,64,6	91,65,6	97,16,6	103,25,6	109,67,6	115,63,6	121,70,6	127,33,6	133,62,6	139,61,6	145,13,6	151,71,6	157,60,6	163,58,6	169,14,6	175,27,6	181,68,6	187,69,6	193,73,6	199,1,6	205,53,6	211,42,6	217,18,6	223,23,6	229,72,6	235,22,6	241,17,6	247,2,6	253,24,6	259,21,6	265,76,6	271,11,6	277,20,6	283,30,6	289,78,6	295,8,6	301,19,6	307,15,6	313,3,6	319,4,6	325,5,6	331,6,6	337,12,6	343,9,6	349,7,6	355,10,6	361,31,6	367,39,6	373,40,6	379,79,6	385,80,6	391,0,1	
25,54,6	49,56,6	169,41,6	217,37,6	
97,59,6	313,75,6	
73,57,6	145,43,6	193,38,6	265,35,6	289,36,6	337,77,6	361,74,6	
121,46,6	241,34,6	
# Incoming
31,(54, 0),14	55,(56, 0),14	79,(57, 0),14	103,(59, 0),14	127,(46, 0),14	151,(43, 0),14	175,(41, 0),14	199,(38, 0),14	223,(37, 0),14	247,(34, 0),14	271,(35, 0),14	295,(36, 0),14	319,(75, 0),14	343,(77, 0),14	367,(74, 0),14	
1,(81, 54),24	25,(81, 56),24	145,(81, 41),24	193,(81, 37),24	
73,(81, 59),24	289,(81, 75),24	
49,(81, 57),24	121,(81, 43),24	169,(81, 38),24	241,(81, 35),24	265,(81, 36),24	313,(81, 77),24	337,(81, 74),24	
97,(81, 46),24	217,(81, 34),24	
# Outgoing
1,(81, 54),24	25,(81, 56),24	49,(81, 57),24	73,(81, 59),24	97,(81, 46),24	121,(81, 43),24	145,(81, 41),24	169,(81, 38),24	193,(81, 37),24	217,(81, 34),24	241,(81, 35),24	265,(81, 36),24	289,(81, 75),24	313,(81, 77),24	337,(81, 74),24	
31,(54, 0),14	55,(56, 0),14	175,(41, 0),14	223,(37, 0),14	
103,(59, 0),14	319,(75, 0),14	
79,(57, 0),14	151,(43, 0),14	199,(38, 0),14	271,(35, 0),14	295,(36, 0),14	343,(77, 0),14	367,(74, 0),14	
127,(46, 0),14	247,(34, 0),14	
