282
# CPU
0,81,1	1,80,4	5,50,4	9,51,4	13,49,4	17,48,4	21,47,4	25,52,4	29,46,4	33,53,4	37,45,4	41,44,4	45,43,4	49,42,4	53,54,4	57,41,4	61,64,4	65,65,4	69,63,4	73,62,4	77,61,4	81,66,4	85,60,4	89,58,4	93,67,4	97,57,4	101,55,4	105,40,4	109,68,4	113,39,4	117,38,4	121,69,4	125,36,4	129,35,4	133,34,4	137,70,4	141,32,4	145,31,4	149,71,4	153,30,4	157,29,4	161,28,4	165,72,4	169,17,4	173,16,4	177,18,4	181,15,4	185,19,4	189,14,4	193,13,4	197,20,4	201,12,4	205,21,4	209,11,4	213,22,4	217,10,4	221,9,4	225,1,4	229,2,4	233,3,4	237,4,4	241,5,4	245,6,4	249,7,4	253,8,4	257,24,4	261,26,4	265,73,4	269,76,4	273,77,4	277,78,4	281,0,1	
13,59,4	49,74,4	61,79,4	
25,33,4	

37,23,4	


7,56,4	
19,37,4	55,75,4	
31,27,4	43,25,4	
# Incoming
11,(56, 0),26	37,(59, 0),26	63,(37, 0),26	89,(33, 0),26	115,(27, 0),26	141,(23, 0),26	167,(25, 0),26	193,(74, 0),26	219,(75, 0),26	245,(79, 0),26	
7,(81, 59),6	43,(81, 74),6	55,(81, 79),6	
19,(81, 33),6	

31,(81, 23),6	


1,(81, 56),6	
13,(81, 37),6	49,(81, 75),6	
25,(81, 27),6	37,(81, 25),6	
# Outgoing
1,(81, 56),6	7,(81, 59),6	13,(81, 37),6	19,(81, 33),6	25,(81, 27),6	31,(81, 23),6	37,(81, 25),6	43,(81, 74),6	49,(81, 75),6	55,(81, 79),6	
37,(59, 0),26	193,(74, 0),26	245,(79, 0),26	
89,(33, 0),26	

141,(23, 0),26	


11,(56, 0),26	
63,(37, 0),26	219,(75, 0),26	
115,(27, 0),26	167,(25, 0),26	
