733
# CPU
0,81,1	1,51,18	19,52,18	37,48,18	55,53,18	73,54,18	91,55,18	109,43,18	127,56,18	145,65,18	163,66,18	181,62,18	199,67,18	217,59,18	235,68,18	253,40,18	271,69,18	289,37,18	307,70,18	325,34,18	343,71,18	361,31,18	379,72,18	397,28,18	415,73,18	433,17,18	451,18,18	469,19,18	487,20,18	505,21,18	523,22,18	541,23,18	559,24,18	577,1,18	595,3,18	613,5,18	631,7,18	649,25,18	667,75,18	685,77,18	703,79,18	
12,50,18	30,49,18	48,47,18	66,46,18	84,45,18	102,44,18	120,42,18	138,41,18	156,64,18	174,63,18	192,61,18	210,60,18	228,58,18	246,57,18	264,39,18	282,38,18	300,36,18	318,35,18	336,33,18	354,32,18	372,30,18	390,29,18	408,27,18	426,26,18	444,16,18	462,15,18	480,14,18	498,13,18	516,12,18	534,11,18	552,10,18	570,9,18	588,2,18	606,4,18	624,6,18	642,8,18	660,74,18	678,76,18	696,78,18	714,80,18	732,0,1	
# Incoming

1,(81, 50),11	12,(81, 49),11	23,(81, 47),11	34,(81, 46),11	45,(81, 45),11	56,(81, 44),11	67,(81, 42),11	78,(81, 41),11	89,(81, 64),11	100,(81, 63),11	111,(81, 61),11	122,(81, 60),11	133,(81, 58),11	144,(81, 57),11	155,(81, 39),11	166,(81, 38),11	177,(81, 36),11	188,(81, 35),11	199,(81, 33),11	210,(81, 32),11	221,(81, 30),11	232,(81, 29),11	243,(81, 27),11	254,(81, 26),11	265,(81, 16),11	276,(81, 15),11	287,(81, 14),11	298,(81, 13),11	309,(81, 12),11	320,(81, 11),11	331,(81, 10),11	342,(81, 9),11	353,(81, 2),11	364,(81, 4),11	375,(81, 6),11	386,(81, 8),11	397,(81, 74),11	408,(81, 76),11	419,(81, 78),11	430,(81, 80),11	441,(51, 0),5	446,(52, 0),5	451,(48, 0),5	456,(53, 0),5	461,(54, 0),5	466,(55, 0),5	471,(43, 0),5	476,(56, 0),5	481,(65, 0),5	486,(66, 0),5	491,(62, 0),5	496,(67, 0),5	501,(59, 0),5	506,(68, 0),5	511,(40, 0),5	516,(69, 0),5	521,(37, 0),5	526,(70, 0),5	531,(34, 0),5	536,(71, 0),5	541,(31, 0),5	546,(72, 0),5	551,(28, 0),5	556,(73, 0),5	561,(17, 0),5	566,(18, 0),5	571,(19, 0),5	576,(20, 0),5	581,(21, 0),5	586,(22, 0),5	591,(23, 0),5	596,(24, 0),5	601,(1, 0),5	613,(3, 0),5	631,(5, 0),5	649,(7, 0),5	667,(25, 0),5	685,(75, 0),5	703,(77, 0),5	721,(79, 0),5	
# Outgoing
1,(81, 50),11	12,(81, 49),11	23,(81, 47),11	34,(81, 46),11	45,(81, 45),11	56,(81, 44),11	67,(81, 42),11	78,(81, 41),11	89,(81, 64),11	100,(81, 63),11	111,(81, 61),11	122,(81, 60),11	133,(81, 58),11	144,(81, 57),11	155,(81, 39),11	166,(81, 38),11	177,(81, 36),11	188,(81, 35),11	199,(81, 33),11	210,(81, 32),11	221,(81, 30),11	232,(81, 29),11	243,(81, 27),11	254,(81, 26),11	265,(81, 16),11	276,(81, 15),11	287,(81, 14),11	298,(81, 13),11	309,(81, 12),11	320,(81, 11),11	331,(81, 10),11	342,(81, 9),11	353,(81, 2),11	364,(81, 4),11	375,(81, 6),11	386,(81, 8),11	397,(81, 74),11	408,(81, 76),11	419,(81, 78),11	430,(81, 80),11	441,(51, 0),5	446,(52, 0),5	451,(48, 0),5	456,(53, 0),5	461,(54, 0),5	466,(55, 0),5	471,(43, 0),5	476,(56, 0),5	481,(65, 0),5	486,(66, 0),5	491,(62, 0),5	496,(67, 0),5	501,(59, 0),5	506,(68, 0),5	511,(40, 0),5	516,(69, 0),5	521,(37, 0),5	526,(70, 0),5	531,(34, 0),5	536,(71, 0),5	541,(31, 0),5	546,(72, 0),5	551,(28, 0),5	556,(73, 0),5	561,(17, 0),5	566,(18, 0),5	571,(19, 0),5	576,(20, 0),5	581,(21, 0),5	586,(22, 0),5	591,(23, 0),5	596,(24, 0),5	601,(1, 0),5	613,(3, 0),5	631,(5, 0),5	649,(7, 0),5	667,(25, 0),5	685,(75, 0),5	703,(77, 0),5	721,(79, 0),5	

