482
# CPU
0,81,1	1,51,6	7,50,6	13,52,6	19,49,6	25,48,6	31,47,6	37,53,6	43,46,6	49,54,6	55,45,6	61,55,6	67,44,6	73,43,6	79,42,6	85,56,6	91,41,6	97,65,6	103,64,6	109,66,6	115,63,6	121,62,6	127,61,6	133,67,6	139,60,6	145,59,6	151,58,6	157,68,6	163,57,6	169,40,6	175,39,6	181,69,6	187,38,6	193,37,6	199,36,6	205,70,6	211,35,6	217,34,6	223,33,6	229,71,6	235,32,6	241,31,6	247,30,6	253,72,6	259,29,6	265,28,6	271,27,6	277,73,6	283,26,6	289,17,6	295,16,6	301,18,6	307,15,6	313,19,6	319,14,6	325,20,6	331,13,6	337,21,6	343,12,6	349,22,6	355,11,6	361,23,6	367,10,6	373,24,6	379,9,6	385,1,6	391,2,6	397,3,6	403,4,6	409,5,6	415,6,6	421,7,6	427,8,6	433,25,6	439,74,6	445,75,6	451,76,6	457,77,6	463,78,6	469,79,6	475,80,6	481,0,1	
# Incoming

# Outgoing

