643
# CPU
9,3,1	17,6,1	25,9,1	33,12,1	41,15,1	49,18,1	57,21,1	65,24,1	73,27,1	81,30,1	89,33,1	97,36,1	105,39,1	113,42,1	121,45,1	129,48,1	137,51,1	145,54,1	153,57,1	161,60,1	169,63,1	177,66,1	185,69,1	193,72,1	201,75,1	209,78,1	
5,2,1	13,5,1	21,8,1	29,11,1	37,14,1	45,17,1	53,20,1	61,23,1	69,26,1	77,29,1	85,32,1	93,35,1	101,38,1	109,41,1	117,44,1	125,47,1	133,50,1	141,53,1	149,56,1	157,59,1	165,62,1	173,65,1	181,68,1	189,71,1	197,74,1	205,77,1	213,80,1	
0,0,1	1,1,1	2,7,1	3,19,1	4,43,1	5,79,1	6,76,1	7,73,1	8,70,1	9,67,1	10,64,1	11,61,1	12,58,1	13,55,1	14,52,1	15,49,1	16,40,1	17,46,1	18,37,1	19,34,1	20,31,1	21,28,1	22,25,1	23,16,1	24,22,1	25,13,1	26,4,1	27,10,1	642,81,1	
# Incoming
5,(0, 3),4	13,(0, 6),4	21,(0, 9),4	29,(0, 12),4	37,(0, 15),4	45,(0, 18),4	53,(0, 21),4	61,(0, 24),4	69,(0, 27),4	77,(0, 30),4	85,(0, 33),4	93,(0, 36),4	101,(0, 39),4	109,(0, 42),4	117,(0, 45),4	125,(0, 48),4	133,(0, 51),4	141,(0, 54),4	149,(0, 57),4	157,(0, 60),4	165,(0, 63),4	173,(0, 66),4	181,(0, 69),4	189,(0, 72),4	197,(0, 75),4	205,(0, 78),4	
1,(0, 2),4	9,(0, 5),4	17,(0, 8),4	25,(0, 11),4	33,(0, 14),4	41,(0, 17),4	49,(0, 20),4	57,(0, 23),4	65,(0, 26),4	73,(0, 29),4	81,(0, 32),4	89,(0, 35),4	97,(0, 38),4	105,(0, 41),4	113,(0, 44),4	121,(0, 47),4	129,(0, 50),4	137,(0, 53),4	145,(0, 56),4	153,(0, 59),4	161,(0, 62),4	169,(0, 65),4	177,(0, 68),4	185,(0, 71),4	193,(0, 74),4	201,(0, 77),4	209,(0, 80),4	
6,(2, 81),12	18,(3, 81),12	30,(5, 81),12	42,(6, 81),12	54,(8, 81),12	66,(9, 81),12	78,(11, 81),12	90,(12, 81),12	102,(14, 81),12	114,(15, 81),12	126,(17, 81),12	138,(18, 81),12	150,(20, 81),12	162,(21, 81),12	174,(23, 81),12	186,(24, 81),12	198,(26, 81),12	210,(27, 81),12	222,(29, 81),12	234,(30, 81),12	246,(32, 81),12	258,(33, 81),12	270,(35, 81),12	282,(36, 81),12	294,(38, 81),12	306,(39, 81),12	318,(41, 81),12	330,(42, 81),12	342,(44, 81),12	354,(45, 81),12	366,(47, 81),12	378,(48, 81),12	390,(50, 81),12	402,(51, 81),12	414,(53, 81),12	426,(54, 81),12	438,(56, 81),12	450,(57, 81),12	462,(59, 81),12	474,(60, 81),12	486,(62, 81),12	498,(63, 81),12	510,(65, 81),12	522,(66, 81),12	534,(68, 81),12	546,(69, 81),12	558,(71, 81),12	570,(72, 81),12	582,(74, 81),12	594,(75, 81),12	606,(77, 81),12	618,(78, 81),12	630,(80, 81),12	
# Outgoing
18,(3, 81),12	42,(6, 81),12	66,(9, 81),12	90,(12, 81),12	114,(15, 81),12	138,(18, 81),12	162,(21, 81),12	186,(24, 81),12	210,(27, 81),12	234,(30, 81),12	258,(33, 81),12	282,(36, 81),12	306,(39, 81),12	330,(42, 81),12	354,(45, 81),12	378,(48, 81),12	402,(51, 81),12	426,(54, 81),12	450,(57, 81),12	474,(60, 81),12	498,(63, 81),12	522,(66, 81),12	546,(69, 81),12	570,(72, 81),12	594,(75, 81),12	618,(78, 81),12	
6,(2, 81),12	30,(5, 81),12	54,(8, 81),12	78,(11, 81),12	102,(14, 81),12	126,(17, 81),12	150,(20, 81),12	174,(23, 81),12	198,(26, 81),12	222,(29, 81),12	246,(32, 81),12	270,(35, 81),12	294,(38, 81),12	318,(41, 81),12	342,(44, 81),12	366,(47, 81),12	390,(50, 81),12	414,(53, 81),12	438,(56, 81),12	462,(59, 81),12	486,(62, 81),12	510,(65, 81),12	534,(68, 81),12	558,(71, 81),12	582,(74, 81),12	606,(77, 81),12	630,(80, 81),12	
1,(0, 2),4	5,(0, 3),4	9,(0, 5),4	13,(0, 6),4	17,(0, 8),4	21,(0, 9),4	25,(0, 11),4	29,(0, 12),4	33,(0, 14),4	37,(0, 15),4	41,(0, 17),4	45,(0, 18),4	49,(0, 20),4	53,(0, 21),4	57,(0, 23),4	61,(0, 24),4	65,(0, 26),4	69,(0, 27),4	73,(0, 29),4	77,(0, 30),4	81,(0, 32),4	85,(0, 33),4	89,(0, 35),4	93,(0, 36),4	97,(0, 38),4	101,(0, 39),4	105,(0, 41),4	109,(0, 42),4	113,(0, 44),4	117,(0, 45),4	121,(0, 47),4	125,(0, 48),4	129,(0, 50),4	133,(0, 51),4	137,(0, 53),4	141,(0, 54),4	145,(0, 56),4	149,(0, 57),4	153,(0, 59),4	157,(0, 60),4	161,(0, 62),4	165,(0, 63),4	169,(0, 65),4	173,(0, 66),4	177,(0, 68),4	181,(0, 69),4	185,(0, 71),4	189,(0, 72),4	193,(0, 74),4	197,(0, 75),4	201,(0, 77),4	205,(0, 78),4	209,(0, 80),4	
