2402
# CPU
0,0,1	1,1,30	31,3,30	61,7,30	91,15,30	121,31,30	151,63,30	181,80,30	211,79,30	241,78,30	271,77,30	301,76,30	331,75,30	361,74,30	391,73,30	421,72,30	451,71,30	481,70,30	511,69,30	541,68,30	571,67,30	601,66,30	631,65,30	661,62,30	691,64,30	721,61,30	751,60,30	781,59,30	811,58,30	841,57,30	871,56,30	901,55,30	931,54,30	961,53,30	991,52,30	1021,51,30	1051,50,30	1081,49,30	1111,48,30	1141,47,30	1171,46,30	1201,45,30	1231,44,30	1261,43,30	1291,42,30	1321,41,30	1351,40,30	1381,39,30	1411,38,30	1441,37,30	1471,36,30	1501,35,30	1531,34,30	1561,33,30	1591,30,30	1621,32,30	1651,29,30	1681,28,30	1711,27,30	1741,26,30	1771,25,30	1801,24,30	1831,23,30	1861,22,30	1891,21,30	1921,20,30	1951,19,30	1981,18,30	2011,17,30	2041,14,30	2071,16,30	2101,13,30	2131,12,30	2161,11,30	2191,10,30	2221,9,30	2251,6,30	2281,8,30	2311,5,30	2341,2,30	2371,4,30	2401,81,1	









# Incoming










# Outgoing










