1082
# CPU
0,81,1	1,80,27	28,50,27	55,49,27	82,47,27	109,46,27	136,45,27	163,43,27	190,42,27	217,64,27	244,65,27	271,63,27	298,66,27	325,62,27	352,67,27	379,61,27	406,68,27	433,60,27	460,69,27	487,44,27	514,70,27	541,38,27	568,71,27	595,35,27	622,72,27	649,17,27	676,16,27	703,15,27	730,14,27	757,13,27	784,11,27	811,10,27	838,9,27	865,1,27	892,2,27	919,3,27	946,4,27	973,5,27	1000,6,27	1027,8,27	1054,79,27	1081,0,1	
105,57,27	183,59,27	261,48,27	313,40,27	391,36,27	469,32,27	573,24,27	677,27,27	807,75,27	859,76,27	911,77,27	963,18,27	1015,7,27	
27,53,27	131,58,27	235,51,27	339,39,27	443,33,27	521,26,27	625,21,27	729,28,27	937,12,27	989,31,27	1041,78,27	
53,56,27	157,54,27	365,37,27	547,25,27	651,23,27	755,29,27	
79,55,27	209,52,27	287,41,27	417,34,27	495,30,27	599,22,27	703,20,27	781,19,27	833,74,27	885,73,27	
# Incoming
54,(53, 0),2	80,(56, 0),2	106,(55, 0),2	132,(57, 0),2	158,(58, 0),2	184,(54, 0),2	210,(59, 0),2	236,(52, 0),2	262,(51, 0),2	288,(48, 0),2	314,(41, 0),2	340,(40, 0),2	366,(39, 0),2	392,(37, 0),2	418,(36, 0),2	444,(34, 0),2	470,(33, 0),2	496,(32, 0),2	522,(30, 0),2	548,(26, 0),2	574,(25, 0),2	600,(24, 0),2	626,(22, 0),2	652,(21, 0),2	678,(23, 0),2	704,(27, 0),2	730,(20, 0),2	756,(28, 0),2	782,(29, 0),2	808,(19, 0),2	834,(75, 0),2	860,(74, 0),2	886,(76, 0),2	912,(73, 0),2	938,(77, 0),2	964,(12, 0),2	990,(18, 0),2	1016,(31, 0),2	1042,(7, 0),2	1068,(78, 0),2	
79,(81, 57),26	157,(81, 59),26	235,(81, 48),26	287,(81, 40),26	365,(81, 36),26	443,(81, 32),26	547,(81, 24),26	651,(81, 27),26	781,(81, 75),26	833,(81, 76),26	885,(81, 77),26	937,(81, 18),26	989,(81, 7),26	
1,(81, 53),26	105,(81, 58),26	209,(81, 51),26	313,(81, 39),26	417,(81, 33),26	495,(81, 26),26	599,(81, 21),26	703,(81, 28),26	911,(81, 12),26	963,(81, 31),26	1015,(81, 78),26	
27,(81, 56),26	131,(81, 54),26	339,(81, 37),26	521,(81, 25),26	625,(81, 23),26	729,(81, 29),26	
53,(81, 55),26	183,(81, 52),26	261,(81, 41),26	391,(81, 34),26	469,(81, 30),26	573,(81, 22),26	677,(81, 20),26	755,(81, 19),26	807,(81, 74),26	859,(81, 73),26	
# Outgoing
1,(81, 53),26	27,(81, 56),26	53,(81, 55),26	79,(81, 57),26	105,(81, 58),26	131,(81, 54),26	157,(81, 59),26	183,(81, 52),26	209,(81, 51),26	235,(81, 48),26	261,(81, 41),26	287,(81, 40),26	313,(81, 39),26	339,(81, 37),26	365,(81, 36),26	391,(81, 34),26	417,(81, 33),26	443,(81, 32),26	469,(81, 30),26	495,(81, 26),26	521,(81, 25),26	547,(81, 24),26	573,(81, 22),26	599,(81, 21),26	625,(81, 23),26	651,(81, 27),26	677,(81, 20),26	703,(81, 28),26	729,(81, 29),26	755,(81, 19),26	781,(81, 75),26	807,(81, 74),26	833,(81, 76),26	859,(81, 73),26	885,(81, 77),26	911,(81, 12),26	937,(81, 18),26	963,(81, 31),26	989,(81, 7),26	1015,(81, 78),26	
132,(57, 0),2	210,(59, 0),2	288,(48, 0),2	340,(40, 0),2	418,(36, 0),2	496,(32, 0),2	600,(24, 0),2	704,(27, 0),2	834,(75, 0),2	886,(76, 0),2	938,(77, 0),2	990,(18, 0),2	1042,(7, 0),2	
54,(53, 0),2	158,(58, 0),2	262,(51, 0),2	366,(39, 0),2	470,(33, 0),2	548,(26, 0),2	652,(21, 0),2	756,(28, 0),2	964,(12, 0),2	1016,(31, 0),2	1068,(78, 0),2	
80,(56, 0),2	184,(54, 0),2	392,(37, 0),2	574,(25, 0),2	678,(23, 0),2	782,(29, 0),2	
106,(55, 0),2	236,(52, 0),2	314,(41, 0),2	444,(34, 0),2	522,(30, 0),2	626,(22, 0),2	730,(20, 0),2	808,(19, 0),2	860,(74, 0),2	912,(73, 0),2	
