71
# CPU
0,81,1	1,80,1	2,50,1	3,51,1	4,49,1	5,48,1	6,47,1	7,52,1	8,46,1	9,53,1	10,45,1	11,44,1	12,43,1	13,42,1	14,54,1	15,41,1	16,64,1	17,65,1	18,63,1	19,62,1	20,61,1	21,66,1	22,59,1	23,57,1	24,67,1	25,56,1	26,55,1	27,39,1	28,68,1	29,38,1	30,37,1	31,69,1	32,36,1	33,34,1	34,70,1	35,33,1	36,32,1	37,31,1	38,71,1	39,29,1	40,28,1	41,72,1	42,27,1	43,17,1	44,16,1	45,18,1	46,15,1	47,14,1	48,19,1	49,13,1	50,20,1	51,12,1	52,11,1	53,21,1	54,10,1	55,24,1	56,9,1	57,1,1	58,2,1	59,3,1	60,4,1	61,5,1	62,6,1	63,7,1	64,8,1	65,26,1	66,73,1	67,74,1	68,77,1	69,78,1	70,0,1	
7,58,1	13,60,1	19,40,1	43,22,1	61,75,1	67,79,1	
37,23,1	55,76,1	
25,35,1	31,30,1	49,25,1	
# Incoming
8,(58, 0),2	14,(60, 0),2	20,(40, 0),2	26,(35, 0),2	32,(30, 0),2	38,(23, 0),2	44,(22, 0),2	50,(25, 0),2	56,(76, 0),2	62,(75, 0),2	68,(79, 0),2	
1,(81, 58),6	7,(81, 60),6	13,(81, 40),6	37,(81, 22),6	55,(81, 75),6	61,(81, 79),6	
31,(81, 23),6	49,(81, 76),6	
19,(81, 35),6	25,(81, 30),6	43,(81, 25),6	
# Outgoing
1,(81, 58),6	7,(81, 60),6	13,(81, 40),6	19,(81, 35),6	25,(81, 30),6	31,(81, 23),6	37,(81, 22),6	43,(81, 25),6	49,(81, 76),6	55,(81, 75),6	61,(81, 79),6	
8,(58, 0),2	14,(60, 0),2	20,(40, 0),2	44,(22, 0),2	62,(75, 0),2	68,(79, 0),2	
38,(23, 0),2	56,(76, 0),2	
26,(35, 0),2	32,(30, 0),2	50,(25, 0),2	
