1298
# CPU
0,81,1	1,51,27	28,50,27	55,49,27	82,47,27	109,48,27	136,46,27	163,45,27	190,44,27	217,42,27	244,41,27	271,65,27	298,66,27	325,64,27	352,27,27	379,23,27	406,67,27	433,68,27	460,63,27	487,69,27	514,62,27	541,61,27	568,70,27	595,39,27	622,71,27	649,37,27	676,72,27	703,28,27	730,1,27	757,73,27	784,17,27	811,18,27	838,16,27	865,15,27	892,14,27	919,13,27	946,12,27	973,19,27	1000,11,27	1027,2,27	1054,10,27	1081,76,27	1108,3,27	1135,4,27	1162,5,27	1189,6,27	1216,7,27	1243,8,27	1270,80,27	1297,0,1	
313,59,27	352,52,27	469,38,27	781,22,27	820,24,27	898,32,27	1093,78,27	1249,79,27	
40,54,27	235,58,27	274,60,27	430,40,27	586,33,27	625,31,27	
157,56,27	196,57,27	391,43,27	742,30,27	1015,74,27	1054,77,27	1132,75,27	1171,9,27	1210,20,27	
79,53,27	118,55,27	508,36,27	547,34,27	664,29,27	703,26,27	859,21,27	937,25,27	976,35,27	
# Incoming
67,(54, 0),3	106,(53, 0),3	145,(55, 0),3	184,(56, 0),3	223,(57, 0),3	262,(58, 0),3	301,(60, 0),3	340,(59, 0),3	379,(52, 0),3	418,(43, 0),3	457,(40, 0),3	496,(38, 0),3	535,(36, 0),3	574,(34, 0),3	613,(33, 0),3	652,(31, 0),3	691,(29, 0),3	730,(26, 0),3	769,(30, 0),3	808,(22, 0),3	847,(24, 0),3	886,(21, 0),3	925,(32, 0),3	964,(25, 0),3	1003,(35, 0),3	1042,(74, 0),3	1081,(77, 0),3	1120,(78, 0),3	1159,(75, 0),3	1198,(9, 0),3	1237,(20, 0),3	1276,(79, 0),3	
274,(81, 59),39	313,(81, 52),39	430,(81, 38),39	742,(81, 22),39	781,(81, 24),39	859,(81, 32),39	1054,(81, 78),39	1210,(81, 79),39	
1,(81, 54),39	196,(81, 58),39	235,(81, 60),39	391,(81, 40),39	547,(81, 33),39	586,(81, 31),39	
118,(81, 56),39	157,(81, 57),39	352,(81, 43),39	703,(81, 30),39	976,(81, 74),39	1015,(81, 77),39	1093,(81, 75),39	1132,(81, 9),39	1171,(81, 20),39	
40,(81, 53),39	79,(81, 55),39	469,(81, 36),39	508,(81, 34),39	625,(81, 29),39	664,(81, 26),39	820,(81, 21),39	898,(81, 25),39	937,(81, 35),39	
# Outgoing
1,(81, 54),39	40,(81, 53),39	79,(81, 55),39	118,(81, 56),39	157,(81, 57),39	196,(81, 58),39	235,(81, 60),39	274,(81, 59),39	313,(81, 52),39	352,(81, 43),39	391,(81, 40),39	430,(81, 38),39	469,(81, 36),39	508,(81, 34),39	547,(81, 33),39	586,(81, 31),39	625,(81, 29),39	664,(81, 26),39	703,(81, 30),39	742,(81, 22),39	781,(81, 24),39	820,(81, 21),39	859,(81, 32),39	898,(81, 25),39	937,(81, 35),39	976,(81, 74),39	1015,(81, 77),39	1054,(81, 78),39	1093,(81, 75),39	1132,(81, 9),39	1171,(81, 20),39	1210,(81, 79),39	
340,(59, 0),3	379,(52, 0),3	496,(38, 0),3	808,(22, 0),3	847,(24, 0),3	925,(32, 0),3	1120,(78, 0),3	1276,(79, 0),3	
67,(54, 0),3	262,(58, 0),3	301,(60, 0),3	457,(40, 0),3	613,(33, 0),3	652,(31, 0),3	
184,(56, 0),3	223,(57, 0),3	418,(43, 0),3	769,(30, 0),3	1042,(74, 0),3	1081,(77, 0),3	1159,(75, 0),3	1198,(9, 0),3	1237,(20, 0),3	
106,(53, 0),3	145,(55, 0),3	535,(36, 0),3	574,(34, 0),3	691,(29, 0),3	730,(26, 0),3	886,(21, 0),3	964,(25, 0),3	1003,(35, 0),3	
