71
# CPU
0,81,1	1,51,1	2,50,1	3,52,1	4,49,1	5,48,1	6,47,1	7,68,1	8,66,1	9,45,1	10,46,1	11,44,1	12,43,1	13,77,1	14,26,1	15,62,1	16,61,1	17,63,1	18,60,1	19,75,1	20,23,1	21,59,1	22,58,1	23,57,1	24,64,1	25,36,1	26,28,1	27,65,1	28,54,1	29,53,1	30,42,1	31,74,1	32,22,1	33,40,1	34,67,1	35,39,1	36,37,1	37,27,1	38,70,1	39,35,1	40,34,1	41,69,1	42,32,1	43,5,1	44,17,1	45,16,1	46,18,1	47,15,1	48,19,1	49,79,1	50,73,1	51,13,1	52,12,1	53,14,1	54,11,1	55,1,1	56,8,1	57,2,1	58,3,1	59,4,1	60,6,1	61,10,1	62,9,1	63,7,1	64,20,1	65,21,1	66,25,1	67,76,1	68,71,1	69,80,1	70,0,1	
37,31,1	
7,56,1	25,38,1	
61,72,1	
43,24,1	
13,55,1	67,78,1	
31,33,1	49,29,1	
19,41,1	55,30,1	


# Incoming
8,(56, 0),2	14,(55, 0),2	20,(41, 0),2	26,(38, 0),2	32,(33, 0),2	38,(31, 0),2	44,(24, 0),2	50,(29, 0),2	56,(30, 0),2	62,(72, 0),2	68,(78, 0),2	
31,(81, 31),6	
1,(81, 56),6	19,(81, 38),6	
55,(81, 72),6	
37,(81, 24),6	
7,(81, 55),6	61,(81, 78),6	
25,(81, 33),6	43,(81, 29),6	
13,(81, 41),6	49,(81, 30),6	


# Outgoing
1,(81, 56),6	7,(81, 55),6	13,(81, 41),6	19,(81, 38),6	25,(81, 33),6	31,(81, 31),6	37,(81, 24),6	43,(81, 29),6	49,(81, 30),6	55,(81, 72),6	61,(81, 78),6	
38,(31, 0),2	
8,(56, 0),2	26,(38, 0),2	
62,(72, 0),2	
44,(24, 0),2	
14,(55, 0),2	68,(78, 0),2	
32,(33, 0),2	50,(29, 0),2	
20,(41, 0),2	56,(30, 0),2	


