246
# CPU
0,81,1	1,51,4	5,50,4	9,52,4	13,70,4	17,65,4	21,47,4	25,57,4	29,66,4	33,45,4	37,11,4	41,41,4	45,44,4	49,18,4	53,28,4	57,63,4	61,17,4	65,27,4	69,64,4	73,31,4	77,38,4	81,67,4	85,43,4	89,32,4	93,68,4	97,59,4	101,1,4	105,69,4	109,39,4	113,72,4	117,62,4	121,73,4	125,2,4	129,61,4	133,35,4	137,3,4	141,71,4	145,10,4	149,40,4	153,23,4	157,19,4	161,15,4	165,24,4	169,60,4	173,77,4	177,21,4	181,78,4	185,9,4	189,20,4	193,6,4	197,13,4	201,4,4	205,26,4	209,7,4	213,5,4	217,37,4	221,8,4	225,12,4	229,16,4	233,74,4	237,79,4	241,80,4	245,0,1	
49,58,4	97,46,4	145,30,4	169,33,4	193,75,4	205,76,4	217,22,4	229,14,4	
25,49,4	61,56,4	109,42,4	
37,48,4	73,55,4	121,36,4	157,29,4	181,25,4	
13,53,4	85,54,4	133,34,4	
# Incoming
17,(53, 0),12	29,(49, 0),12	41,(48, 0),12	53,(58, 0),12	65,(56, 0),12	77,(55, 0),12	89,(54, 0),12	101,(46, 0),12	113,(42, 0),12	125,(36, 0),12	137,(34, 0),12	149,(30, 0),12	161,(29, 0),12	173,(33, 0),12	185,(25, 0),12	197,(75, 0),12	209,(76, 0),12	221,(22, 0),12	233,(14, 0),12	
37,(81, 58),12	85,(81, 46),12	133,(81, 30),12	157,(81, 33),12	181,(81, 75),12	193,(81, 76),12	205,(81, 22),12	217,(81, 14),12	
13,(81, 49),12	49,(81, 56),12	97,(81, 42),12	
25,(81, 48),12	61,(81, 55),12	109,(81, 36),12	145,(81, 29),12	169,(81, 25),12	
1,(81, 53),12	73,(81, 54),12	121,(81, 34),12	
# Outgoing
1,(81, 53),12	13,(81, 49),12	25,(81, 48),12	37,(81, 58),12	49,(81, 56),12	61,(81, 55),12	73,(81, 54),12	85,(81, 46),12	97,(81, 42),12	109,(81, 36),12	121,(81, 34),12	133,(81, 30),12	145,(81, 29),12	157,(81, 33),12	169,(81, 25),12	181,(81, 75),12	193,(81, 76),12	205,(81, 22),12	217,(81, 14),12	
53,(58, 0),12	101,(46, 0),12	149,(30, 0),12	173,(33, 0),12	197,(75, 0),12	209,(76, 0),12	221,(22, 0),12	233,(14, 0),12	
29,(49, 0),12	65,(56, 0),12	113,(42, 0),12	
41,(48, 0),12	77,(55, 0),12	125,(36, 0),12	161,(29, 0),12	185,(25, 0),12	
17,(53, 0),12	89,(54, 0),12	137,(34, 0),12	
