873
# CPU
0,81,1	1,80,13	14,50,13	27,51,13	40,49,13	53,48,13	66,47,13	79,52,13	92,46,13	105,45,13	118,53,13	131,44,13	144,43,13	157,42,13	170,41,13	183,64,13	196,63,13	209,65,13	222,62,13	235,61,13	248,66,13	261,60,13	274,59,13	287,67,13	300,56,13	313,54,13	326,40,13	339,68,13	352,39,13	365,37,13	378,69,13	391,36,13	404,35,13	417,70,13	430,33,13	443,32,13	456,30,13	469,71,13	482,29,13	495,28,13	508,72,13	521,26,13	534,16,13	547,17,13	560,15,13	573,18,13	586,14,13	599,13,13	612,19,13	625,12,13	638,20,13	651,11,13	664,10,13	677,23,13	690,9,13	703,1,13	716,2,13	729,3,13	742,4,13	755,5,13	768,6,13	781,7,13	794,8,13	807,24,13	820,73,13	833,75,13	846,78,13	859,79,13	872,0,1	
181,58,13	481,21,13	601,25,13	661,76,13	781,74,13	
61,55,13	121,57,13	361,31,13	421,27,13	
721,77,13	
241,38,13	301,34,13	541,22,13	
# Incoming
74,(55, 0),40	134,(57, 0),40	194,(58, 0),40	254,(38, 0),40	314,(34, 0),40	374,(31, 0),40	434,(27, 0),40	494,(21, 0),40	554,(22, 0),40	614,(25, 0),40	674,(76, 0),40	734,(77, 0),40	794,(74, 0),40	
121,(81, 58),60	421,(81, 21),60	541,(81, 25),60	601,(81, 76),60	721,(81, 74),60	
1,(81, 55),60	61,(81, 57),60	301,(81, 31),60	361,(81, 27),60	
661,(81, 77),60	
181,(81, 38),60	241,(81, 34),60	481,(81, 22),60	
# Outgoing
1,(81, 55),60	61,(81, 57),60	121,(81, 58),60	181,(81, 38),60	241,(81, 34),60	301,(81, 31),60	361,(81, 27),60	421,(81, 21),60	481,(81, 22),60	541,(81, 25),60	601,(81, 76),60	661,(81, 77),60	721,(81, 74),60	
194,(58, 0),40	494,(21, 0),40	614,(25, 0),40	674,(76, 0),40	794,(74, 0),40	
74,(55, 0),40	134,(57, 0),40	374,(31, 0),40	434,(27, 0),40	
734,(77, 0),40	
254,(38, 0),40	314,(34, 0),40	554,(22, 0),40	
