748
# CPU
0,0,1	1,51,23	24,50,23	47,47,23	70,46,23	93,45,23	116,43,23	139,41,23	162,65,23	185,66,23	208,67,23	231,64,23	254,68,23	277,69,23	300,63,23	323,70,23	346,19,23	369,71,23	392,72,23	415,62,23	438,17,23	461,16,23	484,14,23	507,13,23	530,12,23	553,11,23	576,9,23	599,1,23	622,2,23	645,3,23	668,5,23	691,7,23	714,79,23	747,81,1	
31,57,23	61,58,23	91,59,23	151,42,23	181,40,23	226,37,23	271,35,23	346,32,23	421,23,23	466,74,23	511,75,23	541,76,23	586,10,23	661,4,23	691,77,23	721,80,23	
16,56,23	121,60,23	196,38,23	256,33,23	301,30,23	331,28,23	376,26,23	406,24,23	451,73,23	481,61,23	571,21,23	601,15,23	631,18,23	676,6,23	706,78,23	
46,55,23	76,54,23	106,53,23	136,52,23	166,39,23	211,36,23	241,34,23	286,31,23	316,29,23	361,27,23	391,25,23	436,22,23	496,49,23	526,48,23	556,44,23	616,8,23	646,20,23	
# Incoming
39,(56, 81),3	54,(57, 81),3	69,(55, 81),3	84,(58, 81),3	99,(54, 81),3	114,(59, 81),3	129,(53, 81),3	144,(60, 81),3	159,(52, 81),3	174,(42, 81),3	189,(39, 81),3	204,(40, 81),3	219,(38, 81),3	234,(36, 81),3	249,(37, 81),3	264,(34, 81),3	279,(33, 81),3	294,(35, 81),3	309,(31, 81),3	324,(30, 81),3	339,(29, 81),3	354,(28, 81),3	369,(32, 81),3	384,(27, 81),3	399,(26, 81),3	414,(25, 81),3	429,(24, 81),3	444,(23, 81),3	459,(22, 81),3	474,(73, 81),3	489,(74, 81),3	504,(61, 81),3	519,(49, 81),3	534,(75, 81),3	549,(48, 81),3	564,(76, 81),3	579,(44, 81),3	594,(21, 81),3	609,(10, 81),3	624,(15, 81),3	639,(8, 81),3	654,(18, 81),3	669,(20, 81),3	684,(4, 81),3	699,(6, 81),3	714,(77, 81),3	729,(78, 81),3	744,(80, 81),3	
16,(0, 57),15	46,(0, 58),15	76,(0, 59),15	136,(0, 42),15	166,(0, 40),15	211,(0, 37),15	256,(0, 35),15	331,(0, 32),15	406,(0, 23),15	451,(0, 74),15	496,(0, 75),15	526,(0, 76),15	571,(0, 10),15	646,(0, 4),15	676,(0, 77),15	706,(0, 80),15	
1,(0, 56),15	106,(0, 60),15	181,(0, 38),15	241,(0, 33),15	286,(0, 30),15	316,(0, 28),15	361,(0, 26),15	391,(0, 24),15	436,(0, 73),15	466,(0, 61),15	556,(0, 21),15	586,(0, 15),15	616,(0, 18),15	661,(0, 6),15	691,(0, 78),15	
31,(0, 55),15	61,(0, 54),15	91,(0, 53),15	121,(0, 52),15	151,(0, 39),15	196,(0, 36),15	226,(0, 34),15	271,(0, 31),15	301,(0, 29),15	346,(0, 27),15	376,(0, 25),15	421,(0, 22),15	481,(0, 49),15	511,(0, 48),15	541,(0, 44),15	601,(0, 8),15	631,(0, 20),15	
# Outgoing
1,(0, 56),15	16,(0, 57),15	31,(0, 55),15	46,(0, 58),15	61,(0, 54),15	76,(0, 59),15	91,(0, 53),15	106,(0, 60),15	121,(0, 52),15	136,(0, 42),15	151,(0, 39),15	166,(0, 40),15	181,(0, 38),15	196,(0, 36),15	211,(0, 37),15	226,(0, 34),15	241,(0, 33),15	256,(0, 35),15	271,(0, 31),15	286,(0, 30),15	301,(0, 29),15	316,(0, 28),15	331,(0, 32),15	346,(0, 27),15	361,(0, 26),15	376,(0, 25),15	391,(0, 24),15	406,(0, 23),15	421,(0, 22),15	436,(0, 73),15	451,(0, 74),15	466,(0, 61),15	481,(0, 49),15	496,(0, 75),15	511,(0, 48),15	526,(0, 76),15	541,(0, 44),15	556,(0, 21),15	571,(0, 10),15	586,(0, 15),15	601,(0, 8),15	616,(0, 18),15	631,(0, 20),15	646,(0, 4),15	661,(0, 6),15	676,(0, 77),15	691,(0, 78),15	706,(0, 80),15	
54,(57, 81),3	84,(58, 81),3	114,(59, 81),3	174,(42, 81),3	204,(40, 81),3	249,(37, 81),3	294,(35, 81),3	369,(32, 81),3	444,(23, 81),3	489,(74, 81),3	534,(75, 81),3	564,(76, 81),3	609,(10, 81),3	684,(4, 81),3	714,(77, 81),3	744,(80, 81),3	
39,(56, 81),3	144,(60, 81),3	219,(38, 81),3	279,(33, 81),3	324,(30, 81),3	354,(28, 81),3	399,(26, 81),3	429,(24, 81),3	474,(73, 81),3	504,(61, 81),3	594,(21, 81),3	624,(15, 81),3	654,(18, 81),3	699,(6, 81),3	729,(78, 81),3	
69,(55, 81),3	99,(54, 81),3	129,(53, 81),3	159,(52, 81),3	189,(39, 81),3	234,(36, 81),3	264,(34, 81),3	309,(31, 81),3	339,(29, 81),3	384,(27, 81),3	414,(25, 81),3	459,(22, 81),3	519,(49, 81),3	549,(48, 81),3	579,(44, 81),3	639,(8, 81),3	669,(20, 81),3	
