928
# CPU
6,2,23	29,4,23	52,6,23	75,8,23	98,10,23	121,12,23	144,14,23	167,16,23	190,18,23	213,20,23	236,22,23	259,24,23	282,26,23	305,28,23	328,30,23	351,32,23	374,34,23	397,36,23	420,38,23	443,40,23	466,42,23	489,44,23	512,46,23	535,48,23	558,50,23	581,52,23	604,54,23	627,56,23	650,58,23	673,60,23	696,62,23	719,64,23	742,66,23	765,68,23	788,70,23	811,72,23	834,74,23	857,76,23	880,78,23	903,80,23	
0,0,1	1,1,23	24,5,23	47,13,23	70,29,23	93,61,23	116,79,23	139,77,23	162,75,23	185,73,23	208,71,23	231,69,23	254,67,23	277,65,23	300,59,23	323,63,23	346,57,23	369,55,23	392,53,23	415,51,23	438,49,23	461,47,23	484,45,23	507,43,23	530,41,23	553,39,23	576,37,23	599,35,23	622,33,23	645,27,23	668,31,23	691,25,23	714,23,23	737,21,23	760,19,23	783,17,23	806,11,23	829,15,23	852,9,23	875,3,23	898,7,23	927,81,1	
# Incoming
1,(0, 2),5	6,(0, 4),5	11,(0, 6),5	16,(0, 8),5	21,(0, 10),5	26,(0, 12),5	31,(0, 14),5	36,(0, 16),5	41,(0, 18),5	46,(0, 20),5	51,(0, 22),5	56,(0, 24),5	61,(0, 26),5	66,(0, 28),5	71,(0, 30),5	76,(0, 32),5	81,(0, 34),5	86,(0, 36),5	91,(0, 38),5	96,(0, 40),5	101,(0, 42),5	106,(0, 44),5	111,(0, 46),5	116,(0, 48),5	121,(0, 50),5	126,(0, 52),5	131,(0, 54),5	136,(0, 56),5	141,(0, 58),5	146,(0, 60),5	151,(0, 62),5	156,(0, 64),5	161,(0, 66),5	166,(0, 68),5	171,(0, 70),5	176,(0, 72),5	181,(0, 74),5	186,(0, 76),5	191,(0, 78),5	196,(0, 80),5	
29,(2, 81),1	52,(4, 81),1	75,(6, 81),1	98,(8, 81),1	121,(10, 81),1	144,(12, 81),1	167,(14, 81),1	190,(16, 81),1	213,(18, 81),1	236,(20, 81),1	259,(22, 81),1	282,(24, 81),1	305,(26, 81),1	328,(28, 81),1	351,(30, 81),1	374,(32, 81),1	397,(34, 81),1	420,(36, 81),1	443,(38, 81),1	466,(40, 81),1	489,(42, 81),1	512,(44, 81),1	535,(46, 81),1	558,(48, 81),1	581,(50, 81),1	604,(52, 81),1	627,(54, 81),1	650,(56, 81),1	673,(58, 81),1	696,(60, 81),1	719,(62, 81),1	742,(64, 81),1	765,(66, 81),1	788,(68, 81),1	811,(70, 81),1	834,(72, 81),1	857,(74, 81),1	880,(76, 81),1	903,(78, 81),1	926,(80, 81),1	
# Outgoing
29,(2, 81),1	52,(4, 81),1	75,(6, 81),1	98,(8, 81),1	121,(10, 81),1	144,(12, 81),1	167,(14, 81),1	190,(16, 81),1	213,(18, 81),1	236,(20, 81),1	259,(22, 81),1	282,(24, 81),1	305,(26, 81),1	328,(28, 81),1	351,(30, 81),1	374,(32, 81),1	397,(34, 81),1	420,(36, 81),1	443,(38, 81),1	466,(40, 81),1	489,(42, 81),1	512,(44, 81),1	535,(46, 81),1	558,(48, 81),1	581,(50, 81),1	604,(52, 81),1	627,(54, 81),1	650,(56, 81),1	673,(58, 81),1	696,(60, 81),1	719,(62, 81),1	742,(64, 81),1	765,(66, 81),1	788,(68, 81),1	811,(70, 81),1	834,(72, 81),1	857,(74, 81),1	880,(76, 81),1	903,(78, 81),1	926,(80, 81),1	
1,(0, 2),5	6,(0, 4),5	11,(0, 6),5	16,(0, 8),5	21,(0, 10),5	26,(0, 12),5	31,(0, 14),5	36,(0, 16),5	41,(0, 18),5	46,(0, 20),5	51,(0, 22),5	56,(0, 24),5	61,(0, 26),5	66,(0, 28),5	71,(0, 30),5	76,(0, 32),5	81,(0, 34),5	86,(0, 36),5	91,(0, 38),5	96,(0, 40),5	101,(0, 42),5	106,(0, 44),5	111,(0, 46),5	116,(0, 48),5	121,(0, 50),5	126,(0, 52),5	131,(0, 54),5	136,(0, 56),5	141,(0, 58),5	146,(0, 60),5	151,(0, 62),5	156,(0, 64),5	161,(0, 66),5	166,(0, 68),5	171,(0, 70),5	176,(0, 72),5	181,(0, 74),5	186,(0, 76),5	191,(0, 78),5	196,(0, 80),5	
