360
# CPU
0,81,1	1,80,7	8,50,7	15,51,7	22,48,7	29,47,7	36,46,7	43,45,7	50,49,7	57,43,7	64,42,7	71,41,7	78,64,7	85,65,7	92,63,7	99,62,7	106,66,7	113,61,7	120,67,7	127,60,7	134,53,7	141,68,7	148,44,7	155,69,7	162,39,7	169,38,7	176,70,7	183,36,7	190,71,7	197,34,7	204,32,7	211,72,7	218,17,7	225,16,7	232,15,7	239,14,7	246,13,7	253,18,7	260,12,7	267,11,7	274,10,7	281,9,7	288,1,7	295,2,7	302,3,7	309,4,7	316,5,7	323,6,7	330,7,7	337,8,7	344,19,7	351,20,7	359,0,1	
73,59,7	85,52,7	97,40,7	337,79,7	349,77,7	

193,25,7	229,27,7	325,78,7	
25,55,7	49,57,7	205,23,7	217,22,7	289,75,7	
37,56,7	61,58,7	277,74,7	301,21,7	
157,30,7	169,28,7	181,26,7	313,76,7	

13,54,7	109,37,7	121,35,7	133,33,7	145,31,7	253,29,7	265,73,7	
241,24,7	
# Incoming
20,(54, 0),3	32,(55, 0),3	44,(56, 0),3	56,(57, 0),3	68,(58, 0),3	80,(59, 0),3	92,(52, 0),3	104,(40, 0),3	116,(37, 0),3	128,(35, 0),3	140,(33, 0),3	152,(31, 0),3	164,(30, 0),3	176,(28, 0),3	188,(26, 0),3	200,(25, 0),3	212,(23, 0),3	224,(22, 0),3	236,(27, 0),3	248,(24, 0),3	260,(29, 0),3	272,(73, 0),3	284,(74, 0),3	296,(75, 0),3	308,(21, 0),3	320,(76, 0),3	332,(78, 0),3	344,(79, 0),3	356,(77, 0),3	
61,(81, 59),12	73,(81, 52),12	85,(81, 40),12	325,(81, 79),12	337,(81, 77),12	

181,(81, 25),12	217,(81, 27),12	313,(81, 78),12	
13,(81, 55),12	37,(81, 57),12	193,(81, 23),12	205,(81, 22),12	277,(81, 75),12	
25,(81, 56),12	49,(81, 58),12	265,(81, 74),12	289,(81, 21),12	
145,(81, 30),12	157,(81, 28),12	169,(81, 26),12	301,(81, 76),12	

1,(81, 54),12	97,(81, 37),12	109,(81, 35),12	121,(81, 33),12	133,(81, 31),12	241,(81, 29),12	253,(81, 73),12	
229,(81, 24),12	
# Outgoing
1,(81, 54),12	13,(81, 55),12	25,(81, 56),12	37,(81, 57),12	49,(81, 58),12	61,(81, 59),12	73,(81, 52),12	85,(81, 40),12	97,(81, 37),12	109,(81, 35),12	121,(81, 33),12	133,(81, 31),12	145,(81, 30),12	157,(81, 28),12	169,(81, 26),12	181,(81, 25),12	193,(81, 23),12	205,(81, 22),12	217,(81, 27),12	229,(81, 24),12	241,(81, 29),12	253,(81, 73),12	265,(81, 74),12	277,(81, 75),12	289,(81, 21),12	301,(81, 76),12	313,(81, 78),12	325,(81, 79),12	337,(81, 77),12	
80,(59, 0),3	92,(52, 0),3	104,(40, 0),3	344,(79, 0),3	356,(77, 0),3	

200,(25, 0),3	236,(27, 0),3	332,(78, 0),3	
32,(55, 0),3	56,(57, 0),3	212,(23, 0),3	224,(22, 0),3	296,(75, 0),3	
44,(56, 0),3	68,(58, 0),3	284,(74, 0),3	308,(21, 0),3	
164,(30, 0),3	176,(28, 0),3	188,(26, 0),3	320,(76, 0),3	

20,(54, 0),3	116,(37, 0),3	128,(35, 0),3	140,(33, 0),3	152,(31, 0),3	260,(29, 0),3	272,(73, 0),3	
248,(24, 0),3	
