1409
# CPU
0,81,1	1,80,21	22,50,21	43,51,21	64,49,21	85,48,21	106,47,21	127,52,21	148,53,21	169,45,21	190,54,21	211,44,21	232,43,21	253,55,21	274,41,21	295,64,21	316,63,21	337,65,21	358,61,21	379,60,21	400,66,21	421,59,21	442,57,21	463,67,21	484,56,21	505,40,21	526,39,21	547,38,21	568,37,21	589,36,21	610,69,21	631,35,21	652,33,21	673,70,21	694,32,21	715,31,21	736,30,21	757,29,21	778,28,21	799,27,21	820,72,21	841,26,21	862,16,21	883,18,21	904,15,21	925,19,21	946,14,21	967,13,21	988,21,21	1009,12,21	1030,22,21	1051,11,21	1072,10,21	1093,24,21	1114,9,21	1135,1,21	1156,2,21	1177,4,21	1198,5,21	1219,6,21	1240,7,21	1261,8,21	1282,73,21	1303,74,21	1324,75,21	1345,76,21	1366,77,21	1387,79,21	1408,0,1	
25,46,21	49,42,21	73,62,21	97,58,21	121,68,21	145,34,21	169,71,21	193,17,21	217,20,21	241,23,21	265,3,21	289,25,21	313,78,21	
# Incoming
46,(46, 0),104	150,(42, 0),104	254,(62, 0),104	358,(58, 0),104	462,(68, 0),104	566,(34, 0),104	670,(71, 0),104	774,(17, 0),104	878,(20, 0),104	982,(23, 0),104	1086,(3, 0),104	1190,(25, 0),104	1294,(78, 0),104	
1,(81, 46),24	25,(81, 42),24	49,(81, 62),24	73,(81, 58),24	97,(81, 68),24	121,(81, 34),24	145,(81, 71),24	169,(81, 17),24	193,(81, 20),24	217,(81, 23),24	241,(81, 3),24	265,(81, 25),24	289,(81, 78),24	
# Outgoing
1,(81, 46),24	25,(81, 42),24	49,(81, 62),24	73,(81, 58),24	97,(81, 68),24	121,(81, 34),24	145,(81, 71),24	169,(81, 17),24	193,(81, 20),24	217,(81, 23),24	241,(81, 3),24	265,(81, 25),24	289,(81, 78),24	
46,(46, 0),104	150,(42, 0),104	254,(62, 0),104	358,(58, 0),104	462,(68, 0),104	566,(34, 0),104	670,(71, 0),104	774,(17, 0),104	878,(20, 0),104	982,(23, 0),104	1086,(3, 0),104	1190,(25, 0),104	1294,(78, 0),104	
