79
# CPU
0,0,1	1,51,1	2,50,1	3,52,1	4,49,1	5,48,1	6,47,1	7,53,1	8,46,1	9,54,1	10,45,1	11,55,1	12,44,1	13,43,1	14,42,1	15,56,1	16,41,1	17,65,1	18,64,1	19,66,1	20,63,1	21,12,1	22,24,1	23,67,1	24,62,1	25,61,1	26,68,1	27,60,1	28,59,1	29,57,1	30,69,1	31,40,1	32,39,1	33,38,1	34,70,1	35,37,1	36,36,1	37,35,1	38,71,1	39,34,1	40,33,1	41,10,1	42,73,1	43,32,1	44,31,1	45,72,1	46,29,1	47,19,1	48,18,1	49,20,1	50,17,1	51,21,1	52,16,1	53,22,1	54,15,1	55,23,1	56,14,1	57,25,1	58,13,1	59,26,1	60,11,1	61,6,1	62,7,1	63,1,1	64,2,1	65,3,1	66,4,1	67,5,1	68,8,1	69,9,1	70,27,1	71,28,1	72,75,1	73,76,1	74,77,1	75,78,1	76,79,1	77,80,1	78,81,1	

41,30,1	
21,58,1	61,74,1	

# Incoming
22,(58, 81),8	42,(30, 81),8	62,(74, 81),8	

21,(0, 30),20	
1,(0, 58),20	41,(0, 74),20	

# Outgoing
1,(0, 58),20	21,(0, 30),20	41,(0, 74),20	

42,(30, 81),8	
22,(58, 81),8	62,(74, 81),8	

