578
# CPU
0,81,1	1,80,28	29,48,28	57,51,28	85,43,28	113,64,28	141,61,28	169,58,28	197,40,28	225,37,28	253,34,28	281,31,28	309,28,28	337,17,28	365,19,28	393,21,28	421,23,28	449,1,28	477,5,28	505,25,28	533,76,28	577,0,1	
13,49,28	41,46,28	69,44,28	97,41,28	125,62,28	153,59,28	181,56,28	209,38,28	237,35,28	265,32,28	293,29,28	321,26,28	349,15,28	377,13,28	405,11,28	433,9,28	461,4,28	489,8,28	517,75,28	545,79,28	
5,55,28	33,47,28	61,45,28	89,42,28	117,63,28	145,60,28	173,57,28	201,39,28	229,36,28	257,33,28	285,30,28	313,27,28	341,16,28	369,14,28	397,12,28	425,10,28	453,2,28	481,6,28	509,73,28	537,77,28	
9,54,28	37,50,28	65,52,28	93,53,28	121,65,28	149,66,28	177,67,28	205,68,28	233,69,28	261,70,28	289,71,28	317,72,28	345,18,28	373,20,28	401,22,28	429,24,28	457,3,28	485,7,28	513,74,28	541,78,28	
# Incoming
33,(55, 0),4	37,(54, 0),4	41,(49, 0),4	61,(47, 0),4	65,(50, 0),4	69,(46, 0),4	89,(45, 0),4	93,(52, 0),4	97,(44, 0),4	117,(42, 0),4	121,(53, 0),4	125,(41, 0),4	145,(63, 0),4	149,(65, 0),4	153,(62, 0),4	173,(60, 0),4	177,(66, 0),4	181,(59, 0),4	201,(57, 0),4	205,(67, 0),4	209,(56, 0),4	229,(39, 0),4	233,(68, 0),4	237,(38, 0),4	257,(36, 0),4	261,(69, 0),4	265,(35, 0),4	285,(33, 0),4	289,(70, 0),4	293,(32, 0),4	313,(30, 0),4	317,(71, 0),4	321,(29, 0),4	341,(27, 0),4	345,(72, 0),4	349,(26, 0),4	369,(16, 0),4	373,(18, 0),4	377,(15, 0),4	397,(14, 0),4	401,(20, 0),4	405,(13, 0),4	425,(12, 0),4	429,(22, 0),4	433,(11, 0),4	453,(10, 0),4	457,(24, 0),4	461,(9, 0),4	481,(2, 0),4	485,(3, 0),4	489,(4, 0),4	509,(6, 0),4	513,(7, 0),4	517,(8, 0),4	537,(73, 0),4	541,(74, 0),4	545,(75, 0),4	565,(77, 0),4	569,(78, 0),4	573,(79, 0),4	
9,(81, 49),4	21,(81, 46),4	33,(81, 44),4	45,(81, 41),4	57,(81, 62),4	69,(81, 59),4	81,(81, 56),4	93,(81, 38),4	105,(81, 35),4	117,(81, 32),4	129,(81, 29),4	141,(81, 26),4	153,(81, 15),4	165,(81, 13),4	177,(81, 11),4	189,(81, 9),4	201,(81, 4),4	213,(81, 8),4	225,(81, 75),4	237,(81, 79),4	
1,(81, 55),4	13,(81, 47),4	25,(81, 45),4	37,(81, 42),4	49,(81, 63),4	61,(81, 60),4	73,(81, 57),4	85,(81, 39),4	97,(81, 36),4	109,(81, 33),4	121,(81, 30),4	133,(81, 27),4	145,(81, 16),4	157,(81, 14),4	169,(81, 12),4	181,(81, 10),4	193,(81, 2),4	205,(81, 6),4	217,(81, 73),4	229,(81, 77),4	
5,(81, 54),4	17,(81, 50),4	29,(81, 52),4	41,(81, 53),4	53,(81, 65),4	65,(81, 66),4	77,(81, 67),4	89,(81, 68),4	101,(81, 69),4	113,(81, 70),4	125,(81, 71),4	137,(81, 72),4	149,(81, 18),4	161,(81, 20),4	173,(81, 22),4	185,(81, 24),4	197,(81, 3),4	209,(81, 7),4	221,(81, 74),4	233,(81, 78),4	
# Outgoing
1,(81, 55),4	5,(81, 54),4	9,(81, 49),4	13,(81, 47),4	17,(81, 50),4	21,(81, 46),4	25,(81, 45),4	29,(81, 52),4	33,(81, 44),4	37,(81, 42),4	41,(81, 53),4	45,(81, 41),4	49,(81, 63),4	53,(81, 65),4	57,(81, 62),4	61,(81, 60),4	65,(81, 66),4	69,(81, 59),4	73,(81, 57),4	77,(81, 67),4	81,(81, 56),4	85,(81, 39),4	89,(81, 68),4	93,(81, 38),4	97,(81, 36),4	101,(81, 69),4	105,(81, 35),4	109,(81, 33),4	113,(81, 70),4	117,(81, 32),4	121,(81, 30),4	125,(81, 71),4	129,(81, 29),4	133,(81, 27),4	137,(81, 72),4	141,(81, 26),4	145,(81, 16),4	149,(81, 18),4	153,(81, 15),4	157,(81, 14),4	161,(81, 20),4	165,(81, 13),4	169,(81, 12),4	173,(81, 22),4	177,(81, 11),4	181,(81, 10),4	185,(81, 24),4	189,(81, 9),4	193,(81, 2),4	197,(81, 3),4	201,(81, 4),4	205,(81, 6),4	209,(81, 7),4	213,(81, 8),4	217,(81, 73),4	221,(81, 74),4	225,(81, 75),4	229,(81, 77),4	233,(81, 78),4	237,(81, 79),4	
41,(49, 0),4	69,(46, 0),4	97,(44, 0),4	125,(41, 0),4	153,(62, 0),4	181,(59, 0),4	209,(56, 0),4	237,(38, 0),4	265,(35, 0),4	293,(32, 0),4	321,(29, 0),4	349,(26, 0),4	377,(15, 0),4	405,(13, 0),4	433,(11, 0),4	461,(9, 0),4	489,(4, 0),4	517,(8, 0),4	545,(75, 0),4	573,(79, 0),4	
33,(55, 0),4	61,(47, 0),4	89,(45, 0),4	117,(42, 0),4	145,(63, 0),4	173,(60, 0),4	201,(57, 0),4	229,(39, 0),4	257,(36, 0),4	285,(33, 0),4	313,(30, 0),4	341,(27, 0),4	369,(16, 0),4	397,(14, 0),4	425,(12, 0),4	453,(10, 0),4	481,(2, 0),4	509,(6, 0),4	537,(73, 0),4	565,(77, 0),4	
37,(54, 0),4	65,(50, 0),4	93,(52, 0),4	121,(53, 0),4	149,(65, 0),4	177,(66, 0),4	205,(67, 0),4	233,(68, 0),4	261,(69, 0),4	289,(70, 0),4	317,(71, 0),4	345,(72, 0),4	373,(18, 0),4	401,(20, 0),4	429,(22, 0),4	457,(24, 0),4	485,(3, 0),4	513,(7, 0),4	541,(74, 0),4	569,(78, 0),4	
