2925
# CPU
121,5,13	241,10,13	361,15,13	481,20,13	601,25,13	721,30,13	841,35,13	961,40,13	1081,45,13	1201,50,13	1321,55,13	1441,60,13	1561,65,13	1681,70,13	1801,75,13	1921,80,13	
91,4,13	211,9,13	331,14,13	451,19,13	571,24,13	691,29,13	811,34,13	931,39,13	1051,44,13	1171,49,13	1291,54,13	1411,59,13	1531,64,13	1651,69,13	1771,74,13	1891,79,13	
61,3,13	181,8,13	301,13,13	421,18,13	541,23,13	661,28,13	781,33,13	901,38,13	1021,43,13	1141,48,13	1261,53,13	1381,58,13	1501,63,13	1621,68,13	1741,73,13	1861,78,13	
31,2,13	151,7,13	271,12,13	391,17,13	511,22,13	631,27,13	751,32,13	871,37,13	991,42,13	1111,47,13	1231,52,13	1351,57,13	1471,62,13	1591,67,13	1711,72,13	1831,77,13	
0,0,1	1,1,13	14,11,13	27,31,13	40,71,13	53,66,13	66,76,13	79,61,13	92,56,13	105,51,13	118,46,13	131,41,13	144,26,13	157,36,13	170,21,13	183,6,13	196,16,13	2924,81,1	
# Incoming
91,(0, 5),30	211,(0, 10),30	331,(0, 15),30	451,(0, 20),30	571,(0, 25),30	691,(0, 30),30	811,(0, 35),30	931,(0, 40),30	1051,(0, 45),30	1171,(0, 50),30	1291,(0, 55),30	1411,(0, 60),30	1531,(0, 65),30	1651,(0, 70),30	1771,(0, 75),30	1891,(0, 80),30	
61,(0, 4),30	181,(0, 9),30	301,(0, 14),30	421,(0, 19),30	541,(0, 24),30	661,(0, 29),30	781,(0, 34),30	901,(0, 39),30	1021,(0, 44),30	1141,(0, 49),30	1261,(0, 54),30	1381,(0, 59),30	1501,(0, 64),30	1621,(0, 69),30	1741,(0, 74),30	1861,(0, 79),30	
31,(0, 3),30	151,(0, 8),30	271,(0, 13),30	391,(0, 18),30	511,(0, 23),30	631,(0, 28),30	751,(0, 33),30	871,(0, 38),30	991,(0, 43),30	1111,(0, 48),30	1231,(0, 53),30	1351,(0, 58),30	1471,(0, 63),30	1591,(0, 68),30	1711,(0, 73),30	1831,(0, 78),30	
1,(0, 2),30	121,(0, 7),30	241,(0, 12),30	361,(0, 17),30	481,(0, 22),30	601,(0, 27),30	721,(0, 32),30	841,(0, 37),30	961,(0, 42),30	1081,(0, 47),30	1201,(0, 52),30	1321,(0, 57),30	1441,(0, 62),30	1561,(0, 67),30	1681,(0, 72),30	1801,(0, 77),30	
44,(2, 81),45	89,(3, 81),45	134,(4, 81),45	179,(5, 81),45	224,(7, 81),45	269,(8, 81),45	314,(9, 81),45	359,(10, 81),45	404,(12, 81),45	449,(13, 81),45	494,(14, 81),45	539,(15, 81),45	584,(17, 81),45	629,(18, 81),45	674,(19, 81),45	719,(20, 81),45	764,(22, 81),45	809,(23, 81),45	854,(24, 81),45	899,(25, 81),45	944,(27, 81),45	989,(28, 81),45	1034,(29, 81),45	1079,(30, 81),45	1124,(32, 81),45	1169,(33, 81),45	1214,(34, 81),45	1259,(35, 81),45	1304,(37, 81),45	1349,(38, 81),45	1394,(39, 81),45	1439,(40, 81),45	1484,(42, 81),45	1529,(43, 81),45	1574,(44, 81),45	1619,(45, 81),45	1664,(47, 81),45	1709,(48, 81),45	1754,(49, 81),45	1799,(50, 81),45	1844,(52, 81),45	1889,(53, 81),45	1934,(54, 81),45	1979,(55, 81),45	2024,(57, 81),45	2069,(58, 81),45	2114,(59, 81),45	2159,(60, 81),45	2204,(62, 81),45	2249,(63, 81),45	2294,(64, 81),45	2339,(65, 81),45	2384,(67, 81),45	2429,(68, 81),45	2474,(69, 81),45	2519,(70, 81),45	2564,(72, 81),45	2609,(73, 81),45	2654,(74, 81),45	2699,(75, 81),45	2744,(77, 81),45	2789,(78, 81),45	2834,(79, 81),45	2879,(80, 81),45	
# Outgoing
179,(5, 81),45	359,(10, 81),45	539,(15, 81),45	719,(20, 81),45	899,(25, 81),45	1079,(30, 81),45	1259,(35, 81),45	1439,(40, 81),45	1619,(45, 81),45	1799,(50, 81),45	1979,(55, 81),45	2159,(60, 81),45	2339,(65, 81),45	2519,(70, 81),45	2699,(75, 81),45	2879,(80, 81),45	
134,(4, 81),45	314,(9, 81),45	494,(14, 81),45	674,(19, 81),45	854,(24, 81),45	1034,(29, 81),45	1214,(34, 81),45	1394,(39, 81),45	1574,(44, 81),45	1754,(49, 81),45	1934,(54, 81),45	2114,(59, 81),45	2294,(64, 81),45	2474,(69, 81),45	2654,(74, 81),45	2834,(79, 81),45	
89,(3, 81),45	269,(8, 81),45	449,(13, 81),45	629,(18, 81),45	809,(23, 81),45	989,(28, 81),45	1169,(33, 81),45	1349,(38, 81),45	1529,(43, 81),45	1709,(48, 81),45	1889,(53, 81),45	2069,(58, 81),45	2249,(63, 81),45	2429,(68, 81),45	2609,(73, 81),45	2789,(78, 81),45	
44,(2, 81),45	224,(7, 81),45	404,(12, 81),45	584,(17, 81),45	764,(22, 81),45	944,(27, 81),45	1124,(32, 81),45	1304,(37, 81),45	1484,(42, 81),45	1664,(47, 81),45	1844,(52, 81),45	2024,(57, 81),45	2204,(62, 81),45	2384,(67, 81),45	2564,(72, 81),45	2744,(77, 81),45	
1,(0, 2),30	31,(0, 3),30	61,(0, 4),30	91,(0, 5),30	121,(0, 7),30	151,(0, 8),30	181,(0, 9),30	211,(0, 10),30	241,(0, 12),30	271,(0, 13),30	301,(0, 14),30	331,(0, 15),30	361,(0, 17),30	391,(0, 18),30	421,(0, 19),30	451,(0, 20),30	481,(0, 22),30	511,(0, 23),30	541,(0, 24),30	571,(0, 25),30	601,(0, 27),30	631,(0, 28),30	661,(0, 29),30	691,(0, 30),30	721,(0, 32),30	751,(0, 33),30	781,(0, 34),30	811,(0, 35),30	841,(0, 37),30	871,(0, 38),30	901,(0, 39),30	931,(0, 40),30	961,(0, 42),30	991,(0, 43),30	1021,(0, 44),30	1051,(0, 45),30	1081,(0, 47),30	1111,(0, 48),30	1141,(0, 49),30	1171,(0, 50),30	1201,(0, 52),30	1231,(0, 53),30	1261,(0, 54),30	1291,(0, 55),30	1321,(0, 57),30	1351,(0, 58),30	1381,(0, 59),30	1411,(0, 60),30	1441,(0, 62),30	1471,(0, 63),30	1501,(0, 64),30	1531,(0, 65),30	1561,(0, 67),30	1591,(0, 68),30	1621,(0, 69),30	1651,(0, 70),30	1681,(0, 72),30	1711,(0, 73),30	1741,(0, 74),30	1771,(0, 75),30	1801,(0, 77),30	1831,(0, 78),30	1861,(0, 79),30	1891,(0, 80),30	
