77
# CPU
0,0,1	1,51,1	2,50,1	3,52,1	4,49,1	5,48,1	6,47,1	7,53,1	8,46,1	9,54,1	10,45,1	11,23,1	12,28,1	13,44,1	14,55,1	15,43,1	16,65,1	17,64,1	18,66,1	19,63,1	20,62,1	21,56,1	22,24,1	23,67,1	24,61,1	25,68,1	26,60,1	27,58,1	28,57,1	29,69,1	30,42,1	31,21,1	32,26,1	33,70,1	34,41,1	35,40,1	36,71,1	37,38,1	38,37,1	39,36,1	40,72,1	41,17,1	42,1,1	43,73,1	44,35,1	45,19,1	46,18,1	47,20,1	48,16,1	49,22,1	50,15,1	51,32,1	52,10,1	53,14,1	54,25,1	55,13,1	56,27,1	57,12,1	58,30,1	59,11,1	60,2,1	61,6,1	62,77,1	63,3,1	64,4,1	65,5,1	66,7,1	67,8,1	68,9,1	69,31,1	70,74,1	71,76,1	72,79,1	73,80,1	76,81,1	
21,39,1	51,75,1	61,33,1	71,78,1	
11,59,1	31,34,1	41,29,1	
# Incoming
12,(59, 81),4	22,(39, 81),4	32,(34, 81),4	42,(29, 81),4	52,(75, 81),4	62,(33, 81),4	72,(78, 81),4	
11,(0, 39),10	41,(0, 75),10	51,(0, 33),10	61,(0, 78),10	
1,(0, 59),10	21,(0, 34),10	31,(0, 29),10	
# Outgoing
1,(0, 59),10	11,(0, 39),10	21,(0, 34),10	31,(0, 29),10	41,(0, 75),10	51,(0, 33),10	61,(0, 78),10	
22,(39, 81),4	52,(75, 81),4	62,(33, 81),4	72,(78, 81),4	
12,(59, 81),4	32,(34, 81),4	42,(29, 81),4	
