1835
# CPU
61,4,13	121,8,13	181,12,13	241,16,13	301,20,13	361,24,13	421,28,13	481,32,13	541,36,13	601,40,13	661,44,13	721,48,13	781,52,13	841,56,13	901,60,13	961,64,13	1021,68,13	1081,72,13	1141,76,13	1201,80,13	
41,3,13	101,7,13	161,11,13	221,15,13	281,19,13	341,23,13	401,27,13	461,31,13	521,35,13	581,39,13	641,43,13	701,47,13	761,51,13	821,55,13	881,59,13	941,63,13	1001,67,13	1061,71,13	1121,75,13	1181,79,13	
21,2,13	81,6,13	141,10,13	201,14,13	261,18,13	321,22,13	381,26,13	441,30,13	501,34,13	561,38,13	621,42,13	681,46,13	741,50,13	801,54,13	861,58,13	921,62,13	981,66,13	1041,70,13	1101,74,13	1161,78,13	
0,0,1	1,1,13	14,9,13	27,25,13	40,57,13	53,77,13	66,73,13	79,69,13	92,65,13	105,53,13	118,61,13	131,49,13	144,45,13	157,41,13	170,37,13	183,33,13	196,21,13	209,29,13	222,17,13	235,5,13	248,13,13	1834,81,1	
# Incoming
41,(0, 4),20	101,(0, 8),20	161,(0, 12),20	221,(0, 16),20	281,(0, 20),20	341,(0, 24),20	401,(0, 28),20	461,(0, 32),20	521,(0, 36),20	581,(0, 40),20	641,(0, 44),20	701,(0, 48),20	761,(0, 52),20	821,(0, 56),20	881,(0, 60),20	941,(0, 64),20	1001,(0, 68),20	1061,(0, 72),20	1121,(0, 76),20	1181,(0, 80),20	
21,(0, 3),20	81,(0, 7),20	141,(0, 11),20	201,(0, 15),20	261,(0, 19),20	321,(0, 23),20	381,(0, 27),20	441,(0, 31),20	501,(0, 35),20	561,(0, 39),20	621,(0, 43),20	681,(0, 47),20	741,(0, 51),20	801,(0, 55),20	861,(0, 59),20	921,(0, 63),20	981,(0, 67),20	1041,(0, 71),20	1101,(0, 75),20	1161,(0, 79),20	
1,(0, 2),20	61,(0, 6),20	121,(0, 10),20	181,(0, 14),20	241,(0, 18),20	301,(0, 22),20	361,(0, 26),20	421,(0, 30),20	481,(0, 34),20	541,(0, 38),20	601,(0, 42),20	661,(0, 46),20	721,(0, 50),20	781,(0, 54),20	841,(0, 58),20	901,(0, 62),20	961,(0, 66),20	1021,(0, 70),20	1081,(0, 74),20	1141,(0, 78),20	
34,(2, 81),30	64,(3, 81),30	94,(4, 81),30	124,(6, 81),30	154,(7, 81),30	184,(8, 81),30	214,(10, 81),30	244,(11, 81),30	274,(12, 81),30	304,(14, 81),30	334,(15, 81),30	364,(16, 81),30	394,(18, 81),30	424,(19, 81),30	454,(20, 81),30	484,(22, 81),30	514,(23, 81),30	544,(24, 81),30	574,(26, 81),30	604,(27, 81),30	634,(28, 81),30	664,(30, 81),30	694,(31, 81),30	724,(32, 81),30	754,(34, 81),30	784,(35, 81),30	814,(36, 81),30	844,(38, 81),30	874,(39, 81),30	904,(40, 81),30	934,(42, 81),30	964,(43, 81),30	994,(44, 81),30	1024,(46, 81),30	1054,(47, 81),30	1084,(48, 81),30	1114,(50, 81),30	1144,(51, 81),30	1174,(52, 81),30	1204,(54, 81),30	1234,(55, 81),30	1264,(56, 81),30	1294,(58, 81),30	1324,(59, 81),30	1354,(60, 81),30	1384,(62, 81),30	1414,(63, 81),30	1444,(64, 81),30	1474,(66, 81),30	1504,(67, 81),30	1534,(68, 81),30	1564,(70, 81),30	1594,(71, 81),30	1624,(72, 81),30	1654,(74, 81),30	1684,(75, 81),30	1714,(76, 81),30	1744,(78, 81),30	1774,(79, 81),30	1804,(80, 81),30	
# Outgoing
94,(4, 81),30	184,(8, 81),30	274,(12, 81),30	364,(16, 81),30	454,(20, 81),30	544,(24, 81),30	634,(28, 81),30	724,(32, 81),30	814,(36, 81),30	904,(40, 81),30	994,(44, 81),30	1084,(48, 81),30	1174,(52, 81),30	1264,(56, 81),30	1354,(60, 81),30	1444,(64, 81),30	1534,(68, 81),30	1624,(72, 81),30	1714,(76, 81),30	1804,(80, 81),30	
64,(3, 81),30	154,(7, 81),30	244,(11, 81),30	334,(15, 81),30	424,(19, 81),30	514,(23, 81),30	604,(27, 81),30	694,(31, 81),30	784,(35, 81),30	874,(39, 81),30	964,(43, 81),30	1054,(47, 81),30	1144,(51, 81),30	1234,(55, 81),30	1324,(59, 81),30	1414,(63, 81),30	1504,(67, 81),30	1594,(71, 81),30	1684,(75, 81),30	1774,(79, 81),30	
34,(2, 81),30	124,(6, 81),30	214,(10, 81),30	304,(14, 81),30	394,(18, 81),30	484,(22, 81),30	574,(26, 81),30	664,(30, 81),30	754,(34, 81),30	844,(38, 81),30	934,(42, 81),30	1024,(46, 81),30	1114,(50, 81),30	1204,(54, 81),30	1294,(58, 81),30	1384,(62, 81),30	1474,(66, 81),30	1564,(70, 81),30	1654,(74, 81),30	1744,(78, 81),30	
1,(0, 2),20	21,(0, 3),20	41,(0, 4),20	61,(0, 6),20	81,(0, 7),20	101,(0, 8),20	121,(0, 10),20	141,(0, 11),20	161,(0, 12),20	181,(0, 14),20	201,(0, 15),20	221,(0, 16),20	241,(0, 18),20	261,(0, 19),20	281,(0, 20),20	301,(0, 22),20	321,(0, 23),20	341,(0, 24),20	361,(0, 26),20	381,(0, 27),20	401,(0, 28),20	421,(0, 30),20	441,(0, 31),20	461,(0, 32),20	481,(0, 34),20	501,(0, 35),20	521,(0, 36),20	541,(0, 38),20	561,(0, 39),20	581,(0, 40),20	601,(0, 42),20	621,(0, 43),20	641,(0, 44),20	661,(0, 46),20	681,(0, 47),20	701,(0, 48),20	721,(0, 50),20	741,(0, 51),20	761,(0, 52),20	781,(0, 54),20	801,(0, 55),20	821,(0, 56),20	841,(0, 58),20	861,(0, 59),20	881,(0, 60),20	901,(0, 62),20	921,(0, 63),20	941,(0, 64),20	961,(0, 66),20	981,(0, 67),20	1001,(0, 68),20	1021,(0, 70),20	1041,(0, 71),20	1061,(0, 72),20	1081,(0, 74),20	1101,(0, 75),20	1121,(0, 76),20	1141,(0, 78),20	1161,(0, 79),20	1181,(0, 80),20	
