79
# CPU
0,81,1	1,80,1	2,50,1	3,51,1	4,49,1	5,48,1	6,47,1	7,52,1	8,46,1	9,53,1	10,45,1	11,54,1	12,44,1	13,43,1	14,42,1	15,55,1	16,41,1	17,64,1	18,63,1	19,65,1	20,62,1	21,61,1	22,60,1	23,66,1	24,59,1	25,58,1	26,57,1	27,67,1	28,56,1	29,40,1	30,68,1	31,39,1	32,38,1	33,37,1	34,69,1	35,35,1	36,34,1	37,33,1	38,70,1	39,32,1	40,31,1	41,30,1	42,71,1	43,29,1	44,28,1	45,27,1	46,72,1	47,26,1	48,17,1	49,16,1	50,15,1	51,18,1	52,14,1	53,19,1	54,13,1	55,20,1	56,12,1	57,22,1	58,11,1	59,23,1	60,10,1	61,24,1	62,9,1	63,1,1	64,2,1	65,3,1	66,4,1	67,5,1	68,6,1	69,7,1	70,8,1	71,25,1	72,73,1	73,74,1	74,75,1	75,76,1	76,78,1	77,79,1	78,0,1	
9,36,1	


17,21,1	25,77,1	
# Incoming
10,(36, 0),20	30,(21, 0),20	50,(77, 0),20	
1,(81, 36),8	


9,(81, 21),8	17,(81, 77),8	
# Outgoing
1,(81, 36),8	9,(81, 21),8	17,(81, 77),8	
10,(36, 0),20	


30,(21, 0),20	50,(77, 0),20	
