18330
# CPU
0,201,1	1,130,183	184,40,183	367,156,183	550,194,183	733,80,183	916,57,183	1099,177,183	1282,65,183	1465,110,183	1648,167,183	1831,30,183	2014,158,183	2197,95,183	2380,161,183	2563,192,183	2746,21,183	2929,45,183	3112,188,183	3295,44,183	3478,168,183	3661,86,183	3844,58,183	4027,196,183	4210,97,183	4393,138,183	4576,33,183	4759,71,183	4942,43,183	5125,139,183	5308,146,183	5491,185,183	5674,171,183	5857,109,183	6040,104,183	6223,190,183	6406,113,183	6589,99,183	6772,169,183	6955,186,183	7138,174,183	7321,28,183	7504,157,183	7687,51,183	7870,94,183	8053,100,183	8236,133,183	8419,23,183	8602,152,183	8785,103,183	8968,151,183	9151,81,183	9334,77,183	9517,89,183	9700,159,183	9883,90,183	10066,70,183	10249,53,183	10432,68,183	10615,187,183	10798,175,183	10981,88,183	11164,54,183	11347,176,183	11530,132,183	11713,83,183	11896,153,183	12079,172,183	12262,85,183	12445,141,183	12628,200,183	12811,166,183	12994,118,183	13177,184,183	13360,24,183	13543,127,183	13726,119,183	13909,62,183	14092,116,183	14275,140,183	14458,145,183	14641,199,183	14824,134,183	15007,137,183	15190,22,183	15373,36,183	15556,69,183	15739,56,183	15922,26,183	16105,106,183	16288,42,183	16471,11,183	16654,6,183	16837,17,183	17020,1,183	17203,13,183	17386,8,183	17569,12,183	17752,7,183	17935,19,183	18118,10,183	
29,144,183	212,128,183	395,47,183	578,164,183	761,163,183	944,117,183	1127,154,183	1310,165,183	1493,179,183	1676,67,183	1859,38,183	2042,79,183	2225,123,183	2408,61,183	2591,35,183	2774,75,183	2957,162,183	3140,37,183	3323,155,183	3506,48,183	3689,29,183	3872,55,183	4055,27,183	4238,25,183	4421,182,183	4604,84,183	4787,31,183	4970,74,183	5153,39,183	5336,114,183	5519,105,183	5702,142,183	5885,73,183	6068,34,183	6251,125,183	6434,98,183	6617,149,183	6800,178,183	6983,107,183	7166,108,183	7349,78,183	7532,193,183	7715,135,183	7898,41,183	8081,120,183	8264,183,183	8447,150,183	8630,82,183	8813,101,183	8996,112,183	9179,189,183	9362,96,183	9545,64,183	9728,72,183	9911,63,183	10094,66,183	10277,91,183	10460,93,183	10643,129,183	10826,46,183	11009,160,183	11192,197,183	11375,50,183	11558,198,183	11741,60,183	11924,181,183	12107,87,183	12290,195,183	12473,121,183	12656,59,183	12839,147,183	13022,131,183	13205,143,183	13388,148,183	13571,49,183	13754,180,183	13937,111,183	14120,122,183	14303,52,183	14486,173,183	14669,136,183	14852,170,183	15035,124,183	15218,92,183	15401,126,183	15584,76,183	15767,115,183	15950,32,183	16133,191,183	16316,102,183	16499,20,183	16682,4,183	16865,18,183	17048,2,183	17231,14,183	17414,16,183	17597,9,183	17780,15,183	17963,5,183	18146,3,183	18329,0,1	
# Incoming
1127,(117, 11),2	1129,(144, 17),2	1131,(117, 1),12	1143,(164, 13),8	1151,(47, 12),6	1157,(163, 12),10	1167,(117, 12),2	1169,(144, 7),2	1171,(47, 19),2	1173,(163, 10),2	1310,(154, 6),10	1320,(154, 17),8	1328,(154, 13),14	1493,(165, 6),14	1507,(165, 1),2	1676,(179, 13),6	2042,(38, 6),16	2058,(38, 13),18	2225,(79, 17),4	2229,(79, 1),6	2235,(79, 8),4	2239,(79, 12),18	2408,(123, 6),20	2428,(123, 7),2	2430,(123, 19),8	2591,(61, 17),20	2611,(61, 7),6	2617,(61, 10),2	2957,(75, 8),4	2961,(75, 19),6	3140,(162, 11),8	3148,(162, 7),8	3156,(162, 10),2	3323,(37, 11),12	3335,(37, 8),6	3506,(155, 1),2	3508,(155, 13),6	3514,(155, 12),8	3689,(48, 11),6	3695,(48, 1),4	3699,(48, 13),4	3703,(48, 12),8	3711,(48, 10),2	3872,(29, 17),2	3874,(29, 1),8	4055,(55, 17),2	4057,(55, 12),2	4059,(55, 19),30	4238,(27, 17),22	4260,(27, 1),20	4280,(27, 7),12	4292,(27, 19),2	4294,(27, 10),22	4421,(25, 11),2	4423,(25, 10),2	4604,(182, 8),32	4636,(182, 7),22	4658,(182, 10),2	4787,(84, 7),32	4819,(84, 19),10	4970,(31, 13),22	4992,(31, 12),4	4996,(31, 10),2	5153,(74, 8),38	5191,(74, 7),4	5336,(39, 17),38	5374,(39, 13),8	5382,(39, 8),14	5396,(39, 7),4	5519,(114, 11),16	5535,(114, 6),2	5537,(114, 8),2	5702,(105, 8),22	5724,(105, 7),6	5730,(105, 10),2	5885,(142, 6),2	5887,(142, 17),14	5901,(142, 1),10	5911,(142, 10),18	6068,(73, 17),26	6094,(73, 1),16	6110,(73, 10),10	6251,(34, 6),36	6287,(34, 8),46	6333,(34, 7),2	6434,(125, 6),2	6617,(98, 1),14	6631,(98, 8),10	6641,(98, 19),6	6647,(98, 10),10	6800,(149, 17),2	6983,(178, 11),48	7031,(178, 19),20	7051,(178, 10),2	7166,(107, 12),6	7172,(107, 7),6	7178,(107, 10),50	7349,(108, 1),40	7389,(108, 13),2	7391,(108, 19),6	7532,(78, 6),6	7538,(78, 13),34	7572,(78, 12),2	7574,(78, 19),26	7715,(193, 11),2	7717,(193, 17),2	7719,(193, 1),2	7721,(193, 19),10	7731,(193, 10),56	7898,(135, 6),4	7902,(135, 13),4	7906,(135, 7),38	8081,(41, 17),6	8087,(41, 13),32	8119,(41, 19),60	8179,(41, 10),4	8264,(120, 6),2	8266,(120, 17),2	8268,(120, 12),4	8272,(120, 7),10	8447,(183, 6),32	8479,(183, 8),2	8481,(183, 7),4	8485,(183, 19),2	8487,(183, 10),2	8630,(150, 11),2	8632,(150, 12),2	8813,(82, 11),66	8879,(82, 1),2	8881,(82, 19),18	8996,(101, 13),6	9002,(101, 19),8	9179,(112, 17),2	9181,(112, 8),70	9362,(189, 8),22	9545,(96, 13),2	9547,(96, 19),12	9559,(96, 10),4	9728,(64, 7),70	9798,(64, 10),78	9911,(72, 1),40	9951,(72, 13),80	10031,(72, 7),16	10047,(72, 19),10	10094,(63, 6),16	10110,(63, 1),2	10112,(63, 19),66	10178,(63, 10),2	10277,(66, 1),84	10361,(66, 13),2	10460,(91, 6),4	10464,(91, 17),6	10470,(91, 1),22	10492,(91, 12),2	10494,(91, 7),6	10500,(91, 10),22	10643,(93, 17),10	10653,(93, 8),6	10659,(93, 12),2	10826,(129, 17),26	10852,(129, 19),18	10870,(129, 10),90	11009,(46, 11),48	11057,(46, 13),4	11061,(46, 12),10	11071,(46, 19),52	11192,(160, 7),92	11375,(197, 6),22	11397,(197, 13),10	11407,(197, 10),100	11741,(198, 11),18	11759,(198, 6),6	11765,(198, 17),2	11924,(60, 11),104	12028,(60, 19),40	12068,(60, 10),12	12107,(181, 6),2	12109,(181, 8),108	12217,(181, 7),2	12219,(181, 10),12	12290,(87, 13),2	12292,(87, 12),4	12296,(87, 19),108	12473,(195, 13),4	12656,(121, 11),2	12658,(121, 13),34	12692,(121, 12),114	12839,(59, 11),8	12847,(59, 17),6	12853,(59, 7),10	12863,(59, 19),2	13022,(147, 17),120	13142,(147, 1),4	13146,(147, 13),2	13148,(147, 8),2	13205,(131, 13),2	13207,(131, 19),2	13388,(143, 6),2	13390,(143, 8),38	13428,(143, 7),2	13430,(143, 10),134	13571,(148, 13),4	13575,(148, 8),4	13579,(148, 12),12	13591,(148, 19),2	13754,(49, 1),20	13774,(49, 8),42	13816,(49, 19),6	13822,(49, 10),66	13937,(180, 11),4	13941,(180, 1),8	13949,(180, 19),28	14120,(111, 13),2	14122,(111, 19),8	14303,(122, 1),24	14327,(122, 12),8	14335,(122, 19),6	14341,(122, 10),2	14486,(52, 1),2	14488,(52, 13),2	14490,(52, 8),20	14510,(52, 12),14	14669,(173, 6),2	14671,(173, 12),4	14675,(173, 7),2	14852,(136, 13),24	14876,(136, 12),8	14884,(136, 10),2	15035,(170, 13),2	15037,(136, 7),172	15218,(124, 6),18	15236,(124, 1),10	15246,(124, 13),2	15248,(170, 19),22	15270,(170, 10),12	15401,(92, 17),24	15425,(92, 13),14	15439,(92, 8),62	15501,(92, 7),2	15584,(126, 13),8	15592,(126, 7),50	15642,(92, 19),114	15756,(126, 10),2	15767,(76, 11),2	15769,(76, 12),10	15779,(76, 7),34	15813,(76, 19),4	15817,(76, 10),2	15950,(115, 11),2	15952,(115, 1),6	15958,(115, 13),4	15962,(115, 7),6	15968,(115, 10),16	16133,(32, 17),12	16145,(32, 19),8	16316,(191, 6),2	16318,(191, 13),36	16354,(191, 19),4	16499,(102, 6),10	16509,(102, 13),4	16513,(126, 12),332	16845,(102, 7),2	
1,(201, 144),28	29,(201, 128),28	57,(201, 47),28	85,(201, 164),28	113,(201, 163),28	141,(201, 117),28	169,(201, 154),28	197,(201, 165),28	225,(201, 179),28	253,(201, 67),28	281,(201, 38),28	309,(201, 79),28	337,(201, 123),28	365,(201, 61),28	393,(201, 35),28	421,(201, 75),28	449,(201, 162),28	477,(201, 37),28	505,(201, 155),28	533,(201, 48),28	561,(201, 29),28	589,(201, 55),28	617,(201, 27),28	645,(201, 25),28	673,(201, 182),28	701,(201, 84),28	729,(201, 31),28	757,(201, 74),28	785,(201, 39),28	813,(201, 114),28	841,(201, 105),28	869,(201, 142),28	897,(201, 73),28	925,(201, 34),28	953,(201, 125),28	981,(201, 98),28	1009,(201, 149),28	1037,(201, 178),28	1065,(201, 107),28	1093,(201, 108),28	1121,(201, 78),28	1149,(201, 193),28	1177,(201, 135),28	1205,(201, 41),28	1233,(201, 120),28	1261,(201, 183),28	1289,(201, 150),28	1317,(201, 82),28	1345,(201, 101),28	1373,(201, 112),28	1401,(201, 189),28	1429,(201, 96),28	1457,(201, 64),28	1485,(201, 72),28	1513,(201, 63),28	1541,(201, 66),28	1569,(201, 91),28	1597,(201, 93),28	1625,(201, 129),28	1653,(201, 46),28	1681,(201, 160),28	1709,(201, 197),28	1737,(201, 50),28	1765,(201, 198),28	1793,(201, 60),28	1821,(201, 181),28	1849,(201, 87),28	1877,(201, 195),28	1905,(201, 121),28	1933,(201, 59),28	1961,(201, 147),28	1989,(201, 131),28	2017,(201, 143),28	2045,(201, 148),28	2073,(201, 49),28	2101,(201, 180),28	2129,(201, 111),28	2157,(201, 122),28	2185,(201, 52),28	2213,(201, 173),28	2241,(201, 136),28	2269,(201, 170),28	2297,(201, 124),28	2325,(201, 92),28	2353,(201, 126),28	2381,(201, 76),28	2409,(201, 115),28	2437,(201, 32),28	2465,(201, 191),28	2493,(201, 102),28	2521,(156, 20),4	2525,(110, 20),4	2529,(95, 20),18	2547,(177, 4),8	2555,(95, 4),2	2557,(40, 18),4	2561,(65, 18),4	2565,(110, 18),6	2571,(167, 18),2	2573,(130, 2),2	2575,(57, 2),2	2577,(177, 2),2	2579,(110, 2),8	2587,(30, 2),2	2589,(161, 2),2	2591,(65, 14),4	2595,(161, 14),2	2597,(194, 16),2	2599,(65, 16),14	2613,(30, 16),16	2629,(156, 9),2	2631,(80, 9),8	2639,(80, 15),8	2647,(65, 15),2	2649,(161, 5),20	2669,(167, 3),4	2673,(161, 3),2	2746,(192, 20),2	2748,(192, 18),8	2756,(192, 2),20	2776,(192, 15),6	2782,(192, 3),18	2929,(21, 20),8	3112,(45, 4),4	3116,(45, 14),4	3120,(45, 16),20	3140,(45, 15),2	3142,(45, 3),22	3295,(188, 18),12	3478,(44, 16),2	3480,(44, 9),10	3490,(44, 5),2	3492,(44, 3),2	3661,(168, 9),2	3663,(168, 15),10	3844,(86, 5),24	3868,(86, 3),22	4027,(58, 20),12	4039,(58, 2),2	4041,(58, 14),2	4043,(58, 3),18	4210,(196, 4),2	4212,(196, 2),2	4214,(196, 15),4	4218,(196, 5),2	4220,(196, 3),4	4393,(97, 15),2	4576,(138, 14),8	4584,(138, 16),8	4592,(138, 9),16	4608,(138, 5),32	4942,(71, 16),14	4956,(71, 3),34	5125,(43, 20),8	5133,(43, 14),36	5169,(43, 3),22	5308,(139, 18),20	5328,(139, 2),4	5332,(139, 16),8	5340,(139, 15),38	5491,(146, 20),2	5493,(146, 4),12	5505,(146, 9),14	5519,(146, 5),2	5674,(185, 20),2	5676,(185, 4),4	5680,(185, 3),20	5857,(171, 15),2	6040,(109, 14),44	6084,(109, 15),6	6223,(104, 20),12	6235,(104, 4),2	6237,(104, 14),4	6406,(190, 4),26	6589,(113, 14),46	6635,(113, 15),4	6772,(99, 4),2	6774,(99, 3),2	6955,(169, 4),48	7003,(169, 14),26	7029,(169, 9),22	7051,(169, 15),2	7138,(186, 16),2	7140,(186, 9),14	7154,(186, 15),48	7202,(186, 5),42	7321,(174, 4),26	7347,(174, 5),50	7504,(28, 4),14	7518,(28, 14),2	7520,(28, 16),52	7572,(28, 3),2	7687,(157, 2),54	7870,(51, 4),4	7874,(51, 14),2	7876,(51, 3),4	8053,(94, 18),58	8111,(94, 9),20	8131,(94, 15),16	8147,(94, 5),40	8236,(100, 16),30	8266,(100, 9),2	8268,(100, 5),60	8328,(100, 3),12	8419,(133, 18),64	8483,(133, 9),8	8602,(23, 2),36	8638,(23, 16),8	8646,(23, 9),38	8785,(152, 4),20	8805,(152, 3),66	8968,(103, 4),42	9010,(103, 15),4	9014,(103, 3),66	9151,(151, 18),8	9159,(151, 14),22	9181,(151, 16),68	9334,(81, 15),46	9380,(81, 5),2	9382,(81, 3),70	9517,(77, 4),2	9519,(77, 18),2	9521,(77, 2),2	9523,(77, 15),2	9700,(89, 18),2	9883,(159, 2),2	9885,(159, 16),80	10066,(90, 4),2	10068,(90, 18),2	10070,(90, 2),72	10142,(90, 5),80	10249,(70, 20),40	10289,(70, 5),10	10299,(70, 3),2	10432,(53, 9),14	10615,(68, 2),4	10619,(68, 14),88	10798,(187, 2),2	10981,(175, 9),64	11045,(175, 3),10	11164,(88, 2),42	11206,(88, 14),14	11220,(88, 3),92	11347,(54, 14),2	11349,(54, 15),4	11353,(54, 5),98	11530,(176, 14),100	11630,(176, 16),2	11632,(176, 3),12	11713,(132, 9),18	11731,(132, 15),52	11783,(132, 3),102	11896,(83, 4),28	11924,(83, 3),104	12079,(153, 2),10	12089,(153, 15),4	12093,(153, 5),6	12262,(172, 4),2	12264,(172, 16),2	12266,(172, 9),22	12288,(172, 5),16	12445,(85, 5),112	12628,(141, 2),6	12634,(141, 14),14	12648,(141, 9),20	12668,(141, 3),114	12811,(200, 15),44	12994,(166, 4),2	12996,(166, 18),120	13116,(166, 2),58	13174,(166, 14),2	13176,(166, 16),18	13194,(118, 16),2	13196,(166, 5),16	13212,(118, 5),124	13360,(184, 14),2	13543,(24, 3),136	13726,(127, 9),2	13909,(119, 20),24	13933,(119, 14),18	14092,(62, 2),16	14108,(62, 14),2	14110,(62, 5),2	14112,(62, 3),20	14275,(116, 9),22	14458,(140, 2),14	14472,(140, 16),2	14641,(145, 20),10	14651,(145, 4),6	14657,(145, 2),8	14665,(145, 16),6	14671,(145, 3),2	14824,(199, 4),4	14828,(199, 16),10	14838,(199, 9),188	15026,(199, 15),22	15048,(199, 5),4	15052,(134, 5),8	15190,(137, 20),26	15216,(137, 5),54	15373,(22, 20),2	15375,(22, 18),2	15377,(22, 2),2	15379,(22, 16),76	15556,(36, 2),8	15564,(36, 14),8	15572,(36, 5),26	15739,(69, 18),2	15741,(69, 16),42	15783,(69, 5),26	15922,(56, 4),12	15934,(56, 18),8	15942,(56, 14),14	15956,(56, 9),60	16105,(26, 4),14	16119,(26, 18),4	16123,(26, 16),32	16288,(106, 16),2	16290,(106, 9),2	16292,(62, 15),178	16471,(42, 2),14	16485,(134, 15),208	16693,(11, 0),6	16837,(6, 0),6	17020,(17, 0),6	17203,(1, 0),6	17386,(13, 0),6	17569,(8, 0),6	17752,(12, 0),6	17935,(7, 0),6	18118,(19, 0),6	18301,(10, 0),6	
# Outgoing
1,(201, 144),28	29,(201, 128),28	57,(201, 47),28	85,(201, 164),28	113,(201, 163),28	141,(201, 117),28	169,(201, 154),28	197,(201, 165),28	225,(201, 179),28	253,(201, 67),28	281,(201, 38),28	309,(201, 79),28	337,(201, 123),28	365,(201, 61),28	393,(201, 35),28	421,(201, 75),28	449,(201, 162),28	477,(201, 37),28	505,(201, 155),28	533,(201, 48),28	561,(201, 29),28	589,(201, 55),28	617,(201, 27),28	645,(201, 25),28	673,(201, 182),28	701,(201, 84),28	729,(201, 31),28	757,(201, 74),28	785,(201, 39),28	813,(201, 114),28	841,(201, 105),28	869,(201, 142),28	897,(201, 73),28	925,(201, 34),28	953,(201, 125),28	981,(201, 98),28	1009,(201, 149),28	1037,(201, 178),28	1065,(201, 107),28	1093,(201, 108),28	1121,(201, 78),28	1149,(201, 193),28	1177,(201, 135),28	1205,(201, 41),28	1233,(201, 120),28	1261,(201, 183),28	1289,(201, 150),28	1317,(201, 82),28	1345,(201, 101),28	1373,(201, 112),28	1401,(201, 189),28	1429,(201, 96),28	1457,(201, 64),28	1485,(201, 72),28	1513,(201, 63),28	1541,(201, 66),28	1569,(201, 91),28	1597,(201, 93),28	1625,(201, 129),28	1653,(201, 46),28	1681,(201, 160),28	1709,(201, 197),28	1737,(201, 50),28	1765,(201, 198),28	1793,(201, 60),28	1821,(201, 181),28	1849,(201, 87),28	1877,(201, 195),28	1905,(201, 121),28	1933,(201, 59),28	1961,(201, 147),28	1989,(201, 131),28	2017,(201, 143),28	2045,(201, 148),28	2073,(201, 49),28	2101,(201, 180),28	2129,(201, 111),28	2157,(201, 122),28	2185,(201, 52),28	2213,(201, 173),28	2241,(201, 136),28	2269,(201, 170),28	2297,(201, 124),28	2325,(201, 92),28	2353,(201, 126),28	2381,(201, 76),28	2409,(201, 115),28	2437,(201, 32),28	2465,(201, 191),28	2493,(201, 102),28	2521,(156, 20),4	2525,(110, 20),4	2529,(95, 20),18	2547,(177, 4),8	2555,(95, 4),2	2557,(40, 18),4	2561,(65, 18),4	2565,(110, 18),6	2571,(167, 18),2	2573,(130, 2),2	2575,(57, 2),2	2577,(177, 2),2	2579,(110, 2),8	2587,(30, 2),2	2589,(161, 2),2	2591,(65, 14),4	2595,(161, 14),2	2597,(194, 16),2	2599,(65, 16),14	2613,(30, 16),16	2629,(156, 9),2	2631,(80, 9),8	2639,(80, 15),8	2647,(65, 15),2	2649,(161, 5),20	2669,(167, 3),4	2673,(161, 3),2	2746,(192, 20),2	2748,(192, 18),8	2756,(192, 2),20	2776,(192, 15),6	2782,(192, 3),18	2929,(21, 20),8	3112,(45, 4),4	3116,(45, 14),4	3120,(45, 16),20	3140,(45, 15),2	3142,(45, 3),22	3295,(188, 18),12	3478,(44, 16),2	3480,(44, 9),10	3490,(44, 5),2	3492,(44, 3),2	3661,(168, 9),2	3663,(168, 15),10	3844,(86, 5),24	3868,(86, 3),22	4027,(58, 20),12	4039,(58, 2),2	4041,(58, 14),2	4043,(58, 3),18	4210,(196, 4),2	4212,(196, 2),2	4214,(196, 15),4	4218,(196, 5),2	4220,(196, 3),4	4393,(97, 15),2	4576,(138, 14),8	4584,(138, 16),8	4592,(138, 9),16	4608,(138, 5),32	4942,(71, 16),14	4956,(71, 3),34	5125,(43, 20),8	5133,(43, 14),36	5169,(43, 3),22	5308,(139, 18),20	5328,(139, 2),4	5332,(139, 16),8	5340,(139, 15),38	5491,(146, 20),2	5493,(146, 4),12	5505,(146, 9),14	5519,(146, 5),2	5674,(185, 20),2	5676,(185, 4),4	5680,(185, 3),20	5857,(171, 15),2	6040,(109, 14),44	6084,(109, 15),6	6223,(104, 20),12	6235,(104, 4),2	6237,(104, 14),4	6406,(190, 4),26	6589,(113, 14),46	6635,(113, 15),4	6772,(99, 4),2	6774,(99, 3),2	6955,(169, 4),48	7003,(169, 14),26	7029,(169, 9),22	7051,(169, 15),2	7138,(186, 16),2	7140,(186, 9),14	7154,(186, 15),48	7202,(186, 5),42	7321,(174, 4),26	7347,(174, 5),50	7504,(28, 4),14	7518,(28, 14),2	7520,(28, 16),52	7572,(28, 3),2	7687,(157, 2),54	7870,(51, 4),4	7874,(51, 14),2	7876,(51, 3),4	8053,(94, 18),58	8111,(94, 9),20	8131,(94, 15),16	8147,(94, 5),40	8236,(100, 16),30	8266,(100, 9),2	8268,(100, 5),60	8328,(100, 3),12	8419,(133, 18),64	8483,(133, 9),8	8602,(23, 2),36	8638,(23, 16),8	8646,(23, 9),38	8785,(152, 4),20	8805,(152, 3),66	8968,(103, 4),42	9010,(103, 15),4	9014,(103, 3),66	9151,(151, 18),8	9159,(151, 14),22	9181,(151, 16),68	9334,(81, 15),46	9380,(81, 5),2	9382,(81, 3),70	9517,(77, 4),2	9519,(77, 18),2	9521,(77, 2),2	9523,(77, 15),2	9700,(89, 18),2	9883,(159, 2),2	9885,(159, 16),80	10066,(90, 4),2	10068,(90, 18),2	10070,(90, 2),72	10142,(90, 5),80	10249,(70, 20),40	10289,(70, 5),10	10299,(70, 3),2	10432,(53, 9),14	10615,(68, 2),4	10619,(68, 14),88	10798,(187, 2),2	10981,(175, 9),64	11045,(175, 3),10	11164,(88, 2),42	11206,(88, 14),14	11220,(88, 3),92	11347,(54, 14),2	11349,(54, 15),4	11353,(54, 5),98	11530,(176, 14),100	11630,(176, 16),2	11632,(176, 3),12	11713,(132, 9),18	11731,(132, 15),52	11783,(132, 3),102	11896,(83, 4),28	11924,(83, 3),104	12079,(153, 2),10	12089,(153, 15),4	12093,(153, 5),6	12262,(172, 4),2	12264,(172, 16),2	12266,(172, 9),22	12288,(172, 5),16	12445,(85, 5),112	12628,(141, 2),6	12634,(141, 14),14	12648,(141, 9),20	12668,(141, 3),114	12811,(200, 15),44	12994,(166, 4),2	12996,(166, 18),120	13116,(166, 2),58	13174,(166, 14),2	13176,(166, 16),18	13194,(118, 16),2	13196,(166, 5),16	13212,(118, 5),124	13360,(184, 14),2	13543,(24, 3),136	13726,(127, 9),2	13909,(119, 20),24	13933,(119, 14),18	14092,(62, 2),16	14108,(62, 14),2	14110,(62, 5),2	14112,(62, 3),20	14275,(116, 9),22	14458,(140, 2),14	14472,(140, 16),2	14641,(145, 20),10	14651,(145, 4),6	14657,(145, 2),8	14665,(145, 16),6	14671,(145, 3),2	14824,(199, 4),4	14828,(199, 16),10	14838,(199, 9),188	15026,(199, 15),22	15048,(199, 5),4	15052,(134, 5),8	15190,(137, 20),26	15216,(137, 5),54	15373,(22, 20),2	15375,(22, 18),2	15377,(22, 2),2	15379,(22, 16),76	15556,(36, 2),8	15564,(36, 14),8	15572,(36, 5),26	15739,(69, 18),2	15741,(69, 16),42	15783,(69, 5),26	15922,(56, 4),12	15934,(56, 18),8	15942,(56, 14),14	15956,(56, 9),60	16105,(26, 4),14	16119,(26, 18),4	16123,(26, 16),32	16288,(106, 16),2	16290,(106, 9),2	16292,(62, 15),178	16471,(42, 2),14	16485,(134, 15),208	16693,(11, 0),6	16837,(6, 0),6	17020,(17, 0),6	17203,(1, 0),6	17386,(13, 0),6	17569,(8, 0),6	17752,(12, 0),6	17935,(7, 0),6	18118,(19, 0),6	18301,(10, 0),6	
1127,(117, 11),2	1129,(144, 17),2	1131,(117, 1),12	1143,(164, 13),8	1151,(47, 12),6	1157,(163, 12),10	1167,(117, 12),2	1169,(144, 7),2	1171,(47, 19),2	1173,(163, 10),2	1310,(154, 6),10	1320,(154, 17),8	1328,(154, 13),14	1493,(165, 6),14	1507,(165, 1),2	1676,(179, 13),6	2042,(38, 6),16	2058,(38, 13),18	2225,(79, 17),4	2229,(79, 1),6	2235,(79, 8),4	2239,(79, 12),18	2408,(123, 6),20	2428,(123, 7),2	2430,(123, 19),8	2591,(61, 17),20	2611,(61, 7),6	2617,(61, 10),2	2957,(75, 8),4	2961,(75, 19),6	3140,(162, 11),8	3148,(162, 7),8	3156,(162, 10),2	3323,(37, 11),12	3335,(37, 8),6	3506,(155, 1),2	3508,(155, 13),6	3514,(155, 12),8	3689,(48, 11),6	3695,(48, 1),4	3699,(48, 13),4	3703,(48, 12),8	3711,(48, 10),2	3872,(29, 17),2	3874,(29, 1),8	4055,(55, 17),2	4057,(55, 12),2	4059,(55, 19),30	4238,(27, 17),22	4260,(27, 1),20	4280,(27, 7),12	4292,(27, 19),2	4294,(27, 10),22	4421,(25, 11),2	4423,(25, 10),2	4604,(182, 8),32	4636,(182, 7),22	4658,(182, 10),2	4787,(84, 7),32	4819,(84, 19),10	4970,(31, 13),22	4992,(31, 12),4	4996,(31, 10),2	5153,(74, 8),38	5191,(74, 7),4	5336,(39, 17),38	5374,(39, 13),8	5382,(39, 8),14	5396,(39, 7),4	5519,(114, 11),16	5535,(114, 6),2	5537,(114, 8),2	5702,(105, 8),22	5724,(105, 7),6	5730,(105, 10),2	5885,(142, 6),2	5887,(142, 17),14	5901,(142, 1),10	5911,(142, 10),18	6068,(73, 17),26	6094,(73, 1),16	6110,(73, 10),10	6251,(34, 6),36	6287,(34, 8),46	6333,(34, 7),2	6434,(125, 6),2	6617,(98, 1),14	6631,(98, 8),10	6641,(98, 19),6	6647,(98, 10),10	6800,(149, 17),2	6983,(178, 11),48	7031,(178, 19),20	7051,(178, 10),2	7166,(107, 12),6	7172,(107, 7),6	7178,(107, 10),50	7349,(108, 1),40	7389,(108, 13),2	7391,(108, 19),6	7532,(78, 6),6	7538,(78, 13),34	7572,(78, 12),2	7574,(78, 19),26	7715,(193, 11),2	7717,(193, 17),2	7719,(193, 1),2	7721,(193, 19),10	7731,(193, 10),56	7898,(135, 6),4	7902,(135, 13),4	7906,(135, 7),38	8081,(41, 17),6	8087,(41, 13),32	8119,(41, 19),60	8179,(41, 10),4	8264,(120, 6),2	8266,(120, 17),2	8268,(120, 12),4	8272,(120, 7),10	8447,(183, 6),32	8479,(183, 8),2	8481,(183, 7),4	8485,(183, 19),2	8487,(183, 10),2	8630,(150, 11),2	8632,(150, 12),2	8813,(82, 11),66	8879,(82, 1),2	8881,(82, 19),18	8996,(101, 13),6	9002,(101, 19),8	9179,(112, 17),2	9181,(112, 8),70	9362,(189, 8),22	9545,(96, 13),2	9547,(96, 19),12	9559,(96, 10),4	9728,(64, 7),70	9798,(64, 10),78	9911,(72, 1),40	9951,(72, 13),80	10031,(72, 7),16	10047,(72, 19),10	10094,(63, 6),16	10110,(63, 1),2	10112,(63, 19),66	10178,(63, 10),2	10277,(66, 1),84	10361,(66, 13),2	10460,(91, 6),4	10464,(91, 17),6	10470,(91, 1),22	10492,(91, 12),2	10494,(91, 7),6	10500,(91, 10),22	10643,(93, 17),10	10653,(93, 8),6	10659,(93, 12),2	10826,(129, 17),26	10852,(129, 19),18	10870,(129, 10),90	11009,(46, 11),48	11057,(46, 13),4	11061,(46, 12),10	11071,(46, 19),52	11192,(160, 7),92	11375,(197, 6),22	11397,(197, 13),10	11407,(197, 10),100	11741,(198, 11),18	11759,(198, 6),6	11765,(198, 17),2	11924,(60, 11),104	12028,(60, 19),40	12068,(60, 10),12	12107,(181, 6),2	12109,(181, 8),108	12217,(181, 7),2	12219,(181, 10),12	12290,(87, 13),2	12292,(87, 12),4	12296,(87, 19),108	12473,(195, 13),4	12656,(121, 11),2	12658,(121, 13),34	12692,(121, 12),114	12839,(59, 11),8	12847,(59, 17),6	12853,(59, 7),10	12863,(59, 19),2	13022,(147, 17),120	13142,(147, 1),4	13146,(147, 13),2	13148,(147, 8),2	13205,(131, 13),2	13207,(131, 19),2	13388,(143, 6),2	13390,(143, 8),38	13428,(143, 7),2	13430,(143, 10),134	13571,(148, 13),4	13575,(148, 8),4	13579,(148, 12),12	13591,(148, 19),2	13754,(49, 1),20	13774,(49, 8),42	13816,(49, 19),6	13822,(49, 10),66	13937,(180, 11),4	13941,(180, 1),8	13949,(180, 19),28	14120,(111, 13),2	14122,(111, 19),8	14303,(122, 1),24	14327,(122, 12),8	14335,(122, 19),6	14341,(122, 10),2	14486,(52, 1),2	14488,(52, 13),2	14490,(52, 8),20	14510,(52, 12),14	14669,(173, 6),2	14671,(173, 12),4	14675,(173, 7),2	14852,(136, 13),24	14876,(136, 12),8	14884,(136, 10),2	15035,(170, 13),2	15037,(136, 7),172	15218,(124, 6),18	15236,(124, 1),10	15246,(124, 13),2	15248,(170, 19),22	15270,(170, 10),12	15401,(92, 17),24	15425,(92, 13),14	15439,(92, 8),62	15501,(92, 7),2	15584,(126, 13),8	15592,(126, 7),50	15642,(92, 19),114	15756,(126, 10),2	15767,(76, 11),2	15769,(76, 12),10	15779,(76, 7),34	15813,(76, 19),4	15817,(76, 10),2	15950,(115, 11),2	15952,(115, 1),6	15958,(115, 13),4	15962,(115, 7),6	15968,(115, 10),16	16133,(32, 17),12	16145,(32, 19),8	16316,(191, 6),2	16318,(191, 13),36	16354,(191, 19),4	16499,(102, 6),10	16509,(102, 13),4	16513,(126, 12),332	16845,(102, 7),2	
