41052
# CPU
235,2,1	469,4,1	703,6,1	937,8,1	1171,10,1	1405,12,1	1639,14,1	1873,16,1	2107,18,1	2341,20,1	23155,43,1	25351,141,1	27737,118,1	27803,125,1	29015,177,1	29021,183,1	30379,76,1	31073,104,1	32121,165,1	32153,172,1	32351,185,1	32429,187,1	32431,188,1	32829,28,1	32977,37,1	33045,48,1	33047,50,1	33069,52,1	33129,62,1	33225,65,1	33417,74,1	33431,77,1	33871,87,1	34041,100,1	34083,115,1	34097,117,1	34103,121,1	34195,137,1	34335,140,1	34339,142,1	34349,146,1	34351,147,1	34807,151,1	34887,157,1	34983,166,1	35649,191,1	35713,193,1	35791,24,1	35793,29,1	35831,31,1	35839,34,1	35857,39,1	35885,40,1	35939,45,1	35951,46,1	35967,47,1	35987,53,1	36001,55,1	36003,56,1	36251,58,1	36259,61,1	36261,63,1	36277,64,1	36321,70,1	36327,79,1	36745,88,1	36845,97,1	36943,105,1	36949,107,1	36969,109,1	36971,110,1	36973,111,1	36975,119,1	37025,124,1	37053,128,1	37057,129,1	37061,131,1	37165,133,1	37187,143,1	37361,154,1	37397,164,1	37435,168,1	37471,174,1	37559,186,1	37937,192,1	37939,194,1	37965,198,1	37967,200,1	37969,22,1	37975,26,1	37993,27,1	37995,30,1	38005,32,1	38019,36,1	38031,38,1	38037,41,1	38057,42,1	38119,44,1	38155,49,1	38157,51,1	38159,54,1	38497,57,1	38517,59,1	38535,60,1	38537,66,1	38543,67,1	38597,68,1	38603,69,1	38609,71,1	38701,72,1	38703,73,1	38725,75,1	38739,78,1	38745,80,1	38753,81,1	38777,82,1	38779,83,1	38825,84,1	38843,85,1	38845,86,1	38847,89,1	38851,90,1	38885,91,1	38887,92,1	38891,93,1	38897,94,1	38903,95,1	38911,96,1	38923,98,1	38929,99,1	38959,101,1	38967,103,1	38993,106,1	39007,108,1	39053,112,1	39195,113,1	39197,114,1	39199,116,1	39249,120,1	39251,122,1	39331,123,1	39369,126,1	39389,127,1	39531,130,1	39563,132,1	39565,134,1	39775,135,1	39987,136,1	39991,138,1	40053,139,1	40059,144,1	40141,145,1	40159,148,1	40167,149,1	40195,150,1	40471,152,1	40473,156,1	40477,158,1	40483,159,1	40523,160,1	40677,161,1	40679,162,1	40691,163,1	40693,167,1	40701,169,1	40711,170,1	40715,171,1	40731,173,1	40733,175,1	40741,176,1	40743,178,1	40781,179,1	40783,180,1	40793,181,1	40805,182,1	40809,184,1	40835,189,1	40847,190,1	40901,195,1	40903,196,1	40905,197,1	40907,199,1	41051,201,1	
0,0,1	1,5,1	2,1,1	3,9,1	4,11,1	5,19,1	6,3,1	7,13,1	8,7,1	9,17,1	10,15,1	2302,25,1	4530,153,1	4542,21,1	4560,23,1	4912,33,1	5708,35,1	7046,102,1	9292,155,1	
# Incoming
1,(0, 2),234	235,(0, 4),234	469,(0, 6),234	703,(0, 8),234	937,(0, 10),234	1171,(0, 12),234	1405,(0, 14),234	1639,(0, 16),234	1873,(0, 18),234	2107,(0, 20),234	2341,(5, 22),6	2347,(5, 24),122	2469,(5, 28),46	2515,(5, 30),8	2523,(5, 32),16	2539,(5, 34),878	3417,(5, 36),46	3463,(5, 37),14	3477,(5, 38),2	3479,(5, 39),60	3539,(5, 40),2	3541,(5, 42),16	3557,(5, 43),14	3571,(5, 44),12	3583,(5, 46),6	3589,(5, 47),2	3591,(5, 48),8	3599,(5, 53),2	3601,(5, 55),2	3603,(5, 56),6	3609,(5, 61),2	3611,(5, 62),2	3613,(5, 63),336	3949,(5, 64),1140	5089,(5, 65),6	5095,(5, 69),2	5097,(5, 70),22	5119,(5, 74),12	5131,(5, 76),70	5201,(5, 78),8	5209,(5, 80),16	5225,(5, 83),2	5227,(5, 84),6	5233,(5, 86),16	5249,(5, 88),12	5261,(5, 89),10	5271,(5, 90),2	5273,(5, 91),2	5275,(5, 92),42	5317,(5, 93),8	5325,(5, 96),2	5327,(5, 99),10	5337,(5, 101),12	5349,(5, 103),6	5355,(5, 104),6	5361,(5, 106),212	5573,(5, 107),80	5653,(5, 118),112	5765,(5, 119),2	5767,(5, 121),22	5789,(5, 123),62	5851,(5, 126),2	5853,(5, 133),20	5873,(5, 134),6	5879,(5, 137),30	5909,(5, 138),218	6127,(5, 141),54	6181,(5, 142),2	6183,(5, 144),4	6187,(5, 145),16	6203,(5, 148),36	6239,(5, 149),12	6251,(5, 158),46	6297,(5, 166),4	6301,(5, 168),6	6307,(5, 170),18	6325,(5, 171),16	6341,(5, 172),18	6359,(5, 173),66	6425,(5, 174),84	6509,(5, 178),16	6525,(5, 184),50	6575,(5, 187),2	6577,(5, 188),4	6581,(5, 193),10	6591,(5, 194),2644	9235,(5, 199),2	9237,(5, 200),2	9239,(1, 24),34	9273,(1, 26),114	9387,(1, 27),1158	10545,(1, 28),2	10547,(1, 29),2	10549,(1, 31),48	10597,(1, 34),2	10599,(1, 36),4	10603,(1, 37),2	10605,(1, 39),2	10607,(1, 42),10	10617,(1, 44),2	10619,(1, 45),16	10635,(1, 47),24	10659,(1, 48),2	10661,(1, 50),2	10663,(1, 53),20	10683,(1, 54),20	10703,(1, 55),2	10705,(1, 57),8	10713,(1, 59),2	10715,(1, 60),2	10717,(1, 61),10	10727,(1, 62),22	10749,(1, 63),8	10757,(1, 64),12	10769,(1, 67),6	10775,(1, 76),2	10777,(1, 79),2	10779,(1, 82),24	10803,(1, 83),44	10847,(1, 86),110	10957,(1, 87),138	11095,(1, 88),46	11141,(1, 89),10	11151,(1, 91),56	11207,(1, 94),22	11229,(1, 95),2	11231,(1, 97),2	11233,(1, 98),4	11237,(1, 99),32	11269,(1, 103),22	11291,(1, 104),2	11293,(1, 105),10	11303,(1, 107),6	11309,(1, 111),4	11313,(1, 113),4	11317,(1, 114),2	11319,(1, 117),2	11321,(1, 118),58	11379,(1, 119),2	11381,(1, 120),4	11385,(1, 122),6	11391,(1, 123),6	11397,(1, 124),2	11399,(1, 125),26	11425,(1, 126),4	11429,(1, 127),66	11495,(1, 128),4	11499,(1, 131),18	11517,(1, 132),26	11543,(1, 133),2	11545,(1, 134),28	11573,(1, 135),44	11617,(1, 137),2	11619,(1, 138),2	11621,(1, 140),12	11633,(1, 141),12	11645,(1, 143),2	11647,(1, 144),18	11665,(1, 145),24	11689,(1, 146),48	11737,(1, 148),14	11751,(1, 151),28	11779,(1, 152),40	11819,(1, 156),6	11825,(1, 157),20	11845,(1, 158),2	11847,(1, 159),14	11861,(1, 160),14	11875,(1, 161),2	11877,(1, 162),2	11879,(1, 164),2	11881,(1, 165),2	11883,(1, 166),8	11891,(1, 167),14	11905,(1, 168),34	11939,(1, 170),2	11941,(1, 172),2	11943,(1, 173),34	11977,(1, 175),76	12053,(1, 177),20	12073,(1, 178),6	12079,(1, 180),2338	14417,(1, 181),4	14421,(1, 183),4	14425,(1, 185),48	14473,(1, 186),200	14673,(1, 187),2	14675,(1, 188),8	14683,(1, 189),4	14687,(1, 191),6	14693,(1, 192),22	14715,(1, 193),6	14721,(1, 195),6	14727,(1, 198),4	14731,(1, 200),32	14763,(9, 24),26	14789,(9, 26),2	14791,(9, 30),6	14797,(9, 34),6	14803,(9, 36),38	14841,(9, 38),54	14895,(9, 39),1908	16803,(9, 42),2	16805,(9, 44),30	16835,(9, 45),6	16841,(9, 46),116	16957,(9, 47),2	16959,(9, 48),4	16963,(9, 49),22	16985,(9, 53),56	17041,(9, 55),2	17043,(9, 59),2	17045,(9, 60),36	17081,(9, 61),46	17127,(9, 65),4	17131,(9, 67),22	17153,(9, 68),8	17161,(9, 73),4	17165,(9, 78),56	17221,(9, 79),2	17223,(9, 81),28	17251,(9, 82),30	17281,(9, 83),80	17361,(9, 84),4	17365,(9, 85),6	17371,(9, 87),16	17387,(9, 89),2	17389,(9, 90),4	17393,(9, 97),14	17407,(9, 101),34	17441,(9, 104),18	17459,(9, 105),172	17631,(9, 109),6	17637,(9, 111),184	17821,(9, 113),18	17839,(9, 114),8	17847,(9, 119),12	17859,(9, 122),74	17933,(9, 125),18	17951,(9, 127),228	18179,(9, 130),14	18193,(9, 131),2	18195,(9, 137),8	18203,(9, 140),8	18211,(9, 142),168	18379,(9, 143),20	18399,(9, 146),2	18401,(9, 147),4	18405,(9, 150),12	18417,(9, 151),2	18419,(9, 152),2	18421,(9, 154),8	18429,(9, 156),6	18435,(9, 157),28	18463,(9, 158),2	18465,(9, 160),6	18471,(9, 161),10	18481,(9, 163),10	18491,(9, 164),194	18685,(9, 167),2	18687,(9, 171),4	18691,(9, 177),2	18693,(9, 179),4	18697,(9, 180),56	18753,(9, 183),2	18755,(9, 184),8	18763,(9, 188),32	18795,(9, 189),64	18859,(9, 190),6	18865,(9, 191),46	18911,(9, 192),160	19071,(9, 197),4	19075,(9, 198),54	19129,(11, 22),38	19167,(11, 24),4	19171,(11, 27),2	19173,(11, 28),26	19199,(11, 30),8	19207,(11, 37),8	19215,(11, 40),22	19237,(11, 41),52	19289,(11, 43),4	19293,(11, 45),2	19295,(11, 46),70	19365,(11, 47),2	19367,(11, 50),20	19387,(11, 51),2	19389,(11, 54),16	19405,(11, 55),2	19407,(11, 58),16	19423,(11, 63),6	19429,(11, 65),2	19431,(11, 67),2	19433,(11, 69),22	19455,(11, 71),50	19505,(11, 73),8	19513,(11, 74),14	19527,(11, 75),22	19549,(11, 76),6	19555,(11, 80),12	19567,(11, 81),24	19591,(11, 82),2	19593,(11, 86),4	19597,(11, 87),6	19603,(11, 93),2	19605,(11, 94),2	19607,(11, 96),72	19679,(11, 98),160	19839,(11, 99),2	19841,(11, 103),58	19899,(11, 105),22	19921,(11, 106),2	19923,(11, 109),78	20001,(11, 116),10	20011,(11, 117),2	20013,(11, 118),124	20137,(11, 119),22	20159,(11, 120),4	20163,(11, 121),10	20173,(11, 122),2	20175,(11, 124),8	20183,(11, 125),24	20207,(11, 126),2	20209,(11, 127),2	20211,(11, 128),4	20215,(11, 130),2	20217,(11, 131),4	20221,(11, 132),2	20223,(11, 134),2	20225,(11, 135),46	20271,(11, 136),6	20277,(11, 138),172	20449,(11, 139),22	20471,(11, 140),1158	21629,(11, 142),2	21631,(11, 144),4	21635,(11, 145),14	21649,(11, 146),18	21667,(11, 147),34	21701,(11, 149),90	21791,(11, 150),50	21841,(11, 151),2	21843,(11, 157),4	21847,(11, 159),418	22265,(11, 161),22	22287,(11, 162),50	22337,(11, 165),24	22361,(11, 167),12	22373,(11, 168),80	22453,(11, 169),62	22515,(11, 171),2	22517,(11, 172),26	22543,(11, 173),20	22563,(11, 174),2	22565,(11, 175),14	22579,(11, 176),2	22581,(11, 180),22	22603,(11, 182),8	22611,(11, 183),2	22613,(11, 187),36	22649,(11, 190),6	22655,(11, 192),2	22657,(11, 193),10	22667,(11, 194),2	22669,(11, 195),8	22677,(11, 197),34	22711,(19, 22),10	22721,(19, 26),2	22723,(19, 27),2	22725,(19, 28),2	22727,(19, 31),2	22729,(19, 34),6	22735,(19, 36),20	22755,(19, 37),78	22833,(19, 39),4	22837,(19, 40),10	22847,(19, 41),2	22849,(19, 42),2	22851,(19, 43),304	23155,(19, 49),646	23801,(19, 54),8	23809,(19, 55),2	23811,(19, 56),54	23865,(19, 57),68	23933,(19, 59),20	23953,(19, 60),4	23957,(19, 66),34	23991,(19, 73),60	24051,(19, 74),10	24061,(19, 77),6	24067,(19, 78),8	24075,(19, 80),2	24077,(19, 81),24	24101,(19, 82),4	24105,(19, 84),16	24121,(19, 88),2	24123,(19, 90),14	24137,(19, 91),14	24151,(19, 92),2	24153,(19, 93),570	24723,(19, 96),2	24725,(19, 97),68	24793,(19, 99),2	24795,(19, 101),2	24797,(19, 103),2	24799,(19, 104),48	24847,(19, 105),2	24849,(19, 108),26	24875,(19, 109),14	24889,(19, 110),40	24929,(19, 112),8	24937,(19, 113),30	24967,(19, 114),14	24981,(19, 116),152	25133,(19, 118),2	25135,(19, 119),98	25233,(19, 121),2	25235,(19, 123),10	25245,(19, 125),14	25259,(19, 126),20	25279,(19, 128),2	25281,(19, 131),20	25301,(19, 134),20	25321,(19, 135),2	25323,(19, 140),2	25325,(19, 141),26	25351,(19, 142),2	25353,(19, 143),10	25363,(19, 145),2	25365,(19, 148),8	25373,(19, 149),8	25381,(19, 150),4	25385,(19, 156),22	25407,(19, 157),2	25409,(19, 161),16	25425,(19, 162),2	25427,(19, 163),2	25429,(19, 165),8	25437,(19, 167),24	25461,(19, 168),24	25485,(19, 170),178	25663,(19, 172),794	26457,(19, 175),34	26491,(19, 176),6	26497,(19, 179),2	26499,(19, 180),2	26501,(19, 183),4	26505,(19, 184),98	26603,(19, 186),42	26645,(19, 187),6	26651,(19, 191),4	26655,(19, 193),4	26659,(19, 195),26	26685,(19, 196),2	26687,(3, 22),18	26705,(3, 24),12	26717,(3, 28),58	26775,(3, 29),146	26921,(3, 36),22	26943,(3, 37),8	26951,(3, 42),12	26963,(3, 44),116	27079,(3, 47),12	27091,(3, 48),44	27135,(3, 50),2	27137,(3, 52),22	27159,(3, 54),36	27195,(3, 55),2	27197,(3, 56),102	27299,(3, 57),48	27347,(3, 58),6	27353,(3, 59),2	27355,(3, 63),10	27365,(3, 65),4	27369,(3, 66),6	27375,(3, 67),6	27381,(3, 68),2	27383,(3, 70),2	27385,(3, 71),6	27391,(3, 76),4	27395,(3, 78),16	27411,(3, 81),12	27423,(3, 82),4	27427,(3, 84),2	27429,(3, 86),12	27441,(3, 89),20	27461,(3, 90),18	27479,(3, 91),26	27505,(3, 92),4	27509,(3, 93),6	27515,(3, 94),12	27527,(3, 97),14	27541,(3, 105),2	27543,(3, 106),12	27555,(3, 115),6	27561,(3, 116),6	27567,(3, 117),40	27607,(3, 118),130	27737,(3, 119),2	27739,(3, 120),2	27741,(3, 121),32	27773,(3, 122),2	27775,(3, 123),26	27801,(3, 125),2	27803,(3, 126),4	27807,(3, 129),16	27823,(3, 131),2	27825,(3, 133),86	27911,(3, 135),18	27929,(3, 136),6	27935,(3, 137),28	27963,(3, 138),2	27965,(3, 140),4	27969,(3, 142),652	28621,(3, 143),16	28637,(3, 145),24	28661,(3, 146),26	28687,(3, 147),2	28689,(3, 150),16	28705,(3, 151),46	28751,(3, 154),12	28763,(3, 156),20	28783,(3, 157),98	28881,(3, 158),74	28955,(3, 159),6	28961,(3, 160),2	28963,(3, 164),8	28971,(3, 166),18	28989,(3, 170),4	28993,(3, 173),2	28995,(3, 176),2	28997,(3, 177),18	29015,(3, 179),2	29017,(3, 181),2	29019,(3, 183),2	29021,(3, 186),2	29023,(3, 190),26	29049,(3, 191),118	29167,(3, 193),6	29173,(3, 194),2	29175,(3, 196),68	29243,(3, 198),196	29439,(13, 24),28	29467,(13, 28),2	29469,(13, 29),8	29477,(13, 30),2	29479,(13, 31),6	29485,(13, 34),2	29487,(13, 37),18	29505,(13, 38),194	29699,(13, 39),128	29827,(13, 40),4	29831,(13, 42),2	29833,(13, 44),2	29835,(13, 46),2	29837,(13, 47),62	29899,(13, 48),62	29961,(13, 49),60	30021,(13, 54),16	30037,(13, 56),2	30039,(13, 59),2	30041,(13, 63),4	30045,(13, 65),158	30203,(13, 67),2	30205,(13, 69),4	30209,(13, 71),88	30297,(13, 74),12	30309,(13, 75),10	30319,(13, 76),60	30379,(13, 78),6	30385,(13, 79),42	30427,(13, 80),12	30439,(13, 83),20	30459,(13, 84),12	30471,(13, 85),366	30837,(13, 86),4	30841,(13, 87),6	30847,(13, 91),2	30849,(13, 94),14	30863,(13, 95),2	30865,(13, 96),2	30867,(13, 97),2	30869,(13, 98),150	31019,(13, 100),42	31061,(13, 101),2	31063,(13, 103),8	31071,(13, 104),2	31073,(13, 106),28	31101,(13, 107),4	31105,(13, 108),26	31131,(13, 109),32	31163,(13, 110),18	31181,(13, 111),2	31183,(13, 112),530	31713,(13, 113),2	31715,(13, 114),12	31727,(13, 116),14	31741,(13, 120),2	31743,(13, 121),2	31745,(13, 122),104	31849,(13, 124),8	31857,(13, 126),2	31859,(13, 127),20	31879,(13, 128),16	31895,(13, 132),24	31919,(13, 133),54	31973,(13, 134),2	31975,(13, 136),6	31981,(13, 137),2	31983,(13, 138),14	31997,(13, 139),16	32013,(13, 140),12	32025,(13, 142),18	32043,(13, 143),18	32061,(13, 144),2	32063,(13, 147),28	32091,(13, 148),8	32099,(13, 160),8	32107,(13, 165),14	32121,(13, 168),8	32129,(13, 169),2	32131,(13, 170),2	32133,(13, 172),20	32153,(13, 174),2	32155,(13, 175),2	32157,(13, 176),14	32171,(13, 180),2	32173,(13, 181),158	32331,(13, 182),8	32339,(13, 184),8	32347,(13, 185),4	32351,(13, 186),30	32381,(13, 187),48	32429,(13, 188),2	32431,(13, 190),2	32433,(13, 191),26	32459,(13, 192),74	32533,(13, 194),236	32769,(13, 196),12	32781,(13, 198),12	32793,(13, 200),4	32797,(7, 27),10	32807,(7, 28),22	32829,(7, 29),72	32901,(7, 30),10	32911,(7, 31),6	32917,(7, 32),10	32927,(7, 36),4	32931,(7, 37),46	32977,(7, 39),8	32985,(7, 44),2	32987,(7, 45),14	33001,(7, 47),4	33005,(7, 48),40	33045,(7, 50),2	33047,(7, 52),22	33069,(7, 54),30	33099,(7, 59),2	33101,(7, 62),28	33129,(7, 63),10	33139,(7, 64),82	33221,(7, 65),4	33225,(7, 67),12	33237,(7, 68),66	33303,(7, 70),50	33353,(7, 71),12	33365,(7, 74),52	33417,(7, 75),6	33423,(7, 77),8	33431,(7, 78),2	33433,(7, 80),8	33441,(7, 81),6	33447,(7, 86),58	33505,(7, 87),366	33871,(7, 90),4	33875,(7, 92),80	33955,(7, 93),2	33957,(7, 97),18	33975,(7, 100),66	34041,(7, 103),24	34065,(7, 110),8	34073,(7, 112),2	34075,(7, 113),2	34077,(7, 115),6	34083,(7, 117),14	34097,(7, 121),6	34103,(7, 123),2	34105,(7, 124),18	34123,(7, 126),2	34125,(7, 130),6	34131,(7, 131),4	34135,(7, 135),26	34161,(7, 136),2	34163,(7, 137),32	34195,(7, 138),72	34267,(7, 139),64	34331,(7, 140),4	34335,(7, 142),4	34339,(7, 144),4	34343,(7, 145),2	34345,(7, 146),4	34349,(7, 147),2	34351,(7, 148),20	34371,(7, 149),432	34803,(7, 150),2	34805,(7, 151),2	34807,(7, 152),6	34813,(7, 156),72	34885,(7, 157),2	34887,(7, 158),14	34901,(7, 161),32	34933,(7, 163),14	34947,(7, 166),36	34983,(7, 167),20	35003,(7, 170),122	35125,(7, 176),346	35471,(7, 181),14	35485,(7, 182),14	35499,(7, 186),140	35639,(7, 191),10	35649,(7, 192),62	35711,(7, 193),2	35713,(7, 194),14	35727,(7, 196),6	35733,(7, 198),34	35767,(7, 200),12	35779,(17, 24),12	35791,(17, 29),2	35793,(17, 31),38	35831,(17, 32),2	35833,(17, 34),6	35839,(17, 38),2	35841,(17, 39),16	35857,(17, 40),28	35885,(17, 42),44	35929,(17, 44),4	35933,(17, 45),6	35939,(17, 46),12	35951,(17, 47),16	35967,(17, 53),20	35987,(17, 54),2	35989,(17, 55),12	36001,(17, 56),2	36003,(17, 58),248	36251,(17, 59),4	36255,(17, 61),4	36259,(17, 63),2	36261,(17, 64),16	36277,(17, 66),22	36299,(17, 68),8	36307,(17, 69),8	36315,(17, 70),6	36321,(17, 73),4	36325,(17, 79),2	36327,(17, 80),2	36329,(17, 84),2	36331,(17, 85),356	36687,(17, 86),52	36739,(17, 88),6	36745,(17, 89),94	36839,(17, 91),2	36841,(17, 95),2	36843,(17, 97),2	36845,(17, 99),8	36853,(17, 101),78	36931,(17, 103),4	36935,(17, 105),8	36943,(17, 106),4	36947,(17, 107),2	36949,(17, 108),12	36961,(17, 109),8	36969,(17, 110),2	36971,(17, 111),2	36973,(17, 119),2	36975,(17, 120),24	36999,(17, 122),2	37001,(17, 124),24	37025,(17, 126),6	37031,(17, 127),2	37033,(17, 128),20	37053,(17, 129),4	37057,(17, 130),2	37059,(17, 131),2	37061,(17, 132),102	37163,(17, 133),2	37165,(17, 135),2	37167,(17, 136),10	37177,(17, 143),10	37187,(17, 144),92	37279,(17, 145),18	37297,(17, 148),8	37305,(17, 150),54	37359,(17, 154),2	37361,(17, 156),2	37363,(17, 158),2	37365,(17, 159),2	37367,(17, 160),14	37381,(17, 161),6	37387,(17, 164),10	37397,(17, 167),2	37399,(17, 168),36	37435,(17, 170),8	37443,(17, 171),10	37453,(17, 173),8	37461,(17, 174),10	37471,(17, 179),2	37473,(17, 180),2	37475,(17, 181),14	37489,(17, 182),56	37545,(17, 186),14	37559,(17, 189),374	37933,(17, 192),4	37937,(17, 194),2	37939,(17, 197),2	37941,(17, 198),24	37965,(17, 200),2	37967,(15, 22),2	37969,(15, 26),6	37975,(15, 27),18	37993,(15, 30),2	37995,(15, 32),10	38005,(15, 36),14	38019,(15, 38),12	38031,(15, 41),6	38037,(15, 42),20	38057,(15, 44),62	38119,(15, 49),36	38155,(15, 51),2	38157,(15, 54),2	38159,(15, 57),338	38497,(15, 59),20	38517,(15, 60),18	38535,(15, 66),2	38537,(15, 67),6	38543,(15, 68),54	38597,(15, 69),6	38603,(15, 71),6	38609,(15, 72),92	38701,(15, 73),2	38703,(15, 75),22	38725,(15, 78),14	38739,(15, 80),6	38745,(15, 81),8	38753,(15, 82),24	38777,(15, 83),2	38779,(15, 84),46	38825,(15, 85),18	38843,(15, 86),2	38845,(15, 89),2	38847,(15, 90),4	38851,(15, 91),34	38885,(15, 92),2	38887,(15, 93),4	38891,(15, 94),6	38897,(15, 95),6	38903,(15, 96),8	38911,(15, 98),12	38923,(15, 99),6	38929,(15, 101),30	38959,(15, 103),8	38967,(15, 106),26	38993,(15, 108),14	39007,(15, 112),46	39053,(15, 113),142	39195,(15, 114),2	39197,(15, 116),2	39199,(15, 120),50	39249,(15, 122),2	39251,(15, 123),80	39331,(15, 126),38	39369,(15, 127),20	39389,(15, 130),142	39531,(15, 132),32	39563,(15, 134),2	39565,(15, 135),210	39775,(15, 136),212	39987,(15, 138),4	39991,(15, 139),62	40053,(15, 144),6	40059,(15, 145),82	40141,(15, 148),18	40159,(15, 149),8	40167,(15, 150),28	40195,(15, 152),276	40471,(15, 156),2	40473,(15, 158),4	40477,(15, 159),6	40483,(15, 160),40	40523,(15, 161),154	40677,(15, 162),2	40679,(15, 163),12	40691,(15, 167),2	40693,(15, 169),8	40701,(15, 170),10	40711,(15, 171),4	40715,(15, 173),16	40731,(15, 175),2	40733,(15, 176),8	40741,(15, 178),2	40743,(15, 179),38	40781,(15, 180),2	40783,(15, 181),10	40793,(15, 182),12	40805,(15, 184),4	40809,(15, 189),26	40835,(15, 190),12	40847,(15, 195),54	40901,(15, 196),2	40903,(15, 197),2	40905,(15, 199),2	40907,(25, 201),18	40925,(153, 201),18	40943,(21, 201),18	40961,(23, 201),18	40979,(33, 201),18	40997,(35, 201),18	41015,(102, 201),18	41033,(155, 201),18	
236,(2, 23),2	238,(2, 25),32	270,(2, 35),1842	2112,(2, 153),6	2118,(4, 21),4	2122,(4, 25),2	2124,(4, 35),2	2126,(6, 21),4	2130,(6, 23),20	2150,(6, 25),8	2158,(6, 33),16	2174,(6, 155),4	2178,(8, 33),10	2188,(8, 102),10	2198,(10, 21),2	2200,(10, 23),6	2206,(10, 33),6	2212,(10, 35),2	2214,(10, 102),2	2216,(10, 155),2	2218,(12, 33),10	2228,(12, 102),28	2256,(12, 153),2	2258,(12, 155),2	2260,(14, 21),2	2262,(14, 25),2	2264,(14, 35),2	2266,(16, 25),36	2302,(16, 33),108	2410,(16, 102),134	2544,(18, 21),2	2546,(18, 35),362	2908,(18, 102),2	2910,(18, 153),1620	4530,(20, 21),12	4542,(20, 23),18	4560,(20, 33),352	4912,(20, 35),796	5708,(20, 102),1338	7046,(20, 155),2246	
# Outgoing
236,(2, 23),2	238,(2, 25),32	270,(2, 35),1842	2112,(2, 153),6	2118,(4, 21),4	2122,(4, 25),2	2124,(4, 35),2	2126,(6, 21),4	2130,(6, 23),20	2150,(6, 25),8	2158,(6, 33),16	2174,(6, 155),4	2178,(8, 33),10	2188,(8, 102),10	2198,(10, 21),2	2200,(10, 23),6	2206,(10, 33),6	2212,(10, 35),2	2214,(10, 102),2	2216,(10, 155),2	2218,(12, 33),10	2228,(12, 102),28	2256,(12, 153),2	2258,(12, 155),2	2260,(14, 21),2	2262,(14, 25),2	2264,(14, 35),2	2266,(16, 25),36	2302,(16, 33),108	2410,(16, 102),134	2544,(18, 21),2	2546,(18, 35),362	2908,(18, 102),2	2910,(18, 153),1620	4530,(20, 21),12	4542,(20, 23),18	4560,(20, 33),352	4912,(20, 35),796	5708,(20, 102),1338	7046,(20, 155),2246	
1,(0, 2),234	235,(0, 4),234	469,(0, 6),234	703,(0, 8),234	937,(0, 10),234	1171,(0, 12),234	1405,(0, 14),234	1639,(0, 16),234	1873,(0, 18),234	2107,(0, 20),234	2341,(5, 22),6	2347,(5, 24),122	2469,(5, 28),46	2515,(5, 30),8	2523,(5, 32),16	2539,(5, 34),878	3417,(5, 36),46	3463,(5, 37),14	3477,(5, 38),2	3479,(5, 39),60	3539,(5, 40),2	3541,(5, 42),16	3557,(5, 43),14	3571,(5, 44),12	3583,(5, 46),6	3589,(5, 47),2	3591,(5, 48),8	3599,(5, 53),2	3601,(5, 55),2	3603,(5, 56),6	3609,(5, 61),2	3611,(5, 62),2	3613,(5, 63),336	3949,(5, 64),1140	5089,(5, 65),6	5095,(5, 69),2	5097,(5, 70),22	5119,(5, 74),12	5131,(5, 76),70	5201,(5, 78),8	5209,(5, 80),16	5225,(5, 83),2	5227,(5, 84),6	5233,(5, 86),16	5249,(5, 88),12	5261,(5, 89),10	5271,(5, 90),2	5273,(5, 91),2	5275,(5, 92),42	5317,(5, 93),8	5325,(5, 96),2	5327,(5, 99),10	5337,(5, 101),12	5349,(5, 103),6	5355,(5, 104),6	5361,(5, 106),212	5573,(5, 107),80	5653,(5, 118),112	5765,(5, 119),2	5767,(5, 121),22	5789,(5, 123),62	5851,(5, 126),2	5853,(5, 133),20	5873,(5, 134),6	5879,(5, 137),30	5909,(5, 138),218	6127,(5, 141),54	6181,(5, 142),2	6183,(5, 144),4	6187,(5, 145),16	6203,(5, 148),36	6239,(5, 149),12	6251,(5, 158),46	6297,(5, 166),4	6301,(5, 168),6	6307,(5, 170),18	6325,(5, 171),16	6341,(5, 172),18	6359,(5, 173),66	6425,(5, 174),84	6509,(5, 178),16	6525,(5, 184),50	6575,(5, 187),2	6577,(5, 188),4	6581,(5, 193),10	6591,(5, 194),2644	9235,(5, 199),2	9237,(5, 200),2	9239,(1, 24),34	9273,(1, 26),114	9387,(1, 27),1158	10545,(1, 28),2	10547,(1, 29),2	10549,(1, 31),48	10597,(1, 34),2	10599,(1, 36),4	10603,(1, 37),2	10605,(1, 39),2	10607,(1, 42),10	10617,(1, 44),2	10619,(1, 45),16	10635,(1, 47),24	10659,(1, 48),2	10661,(1, 50),2	10663,(1, 53),20	10683,(1, 54),20	10703,(1, 55),2	10705,(1, 57),8	10713,(1, 59),2	10715,(1, 60),2	10717,(1, 61),10	10727,(1, 62),22	10749,(1, 63),8	10757,(1, 64),12	10769,(1, 67),6	10775,(1, 76),2	10777,(1, 79),2	10779,(1, 82),24	10803,(1, 83),44	10847,(1, 86),110	10957,(1, 87),138	11095,(1, 88),46	11141,(1, 89),10	11151,(1, 91),56	11207,(1, 94),22	11229,(1, 95),2	11231,(1, 97),2	11233,(1, 98),4	11237,(1, 99),32	11269,(1, 103),22	11291,(1, 104),2	11293,(1, 105),10	11303,(1, 107),6	11309,(1, 111),4	11313,(1, 113),4	11317,(1, 114),2	11319,(1, 117),2	11321,(1, 118),58	11379,(1, 119),2	11381,(1, 120),4	11385,(1, 122),6	11391,(1, 123),6	11397,(1, 124),2	11399,(1, 125),26	11425,(1, 126),4	11429,(1, 127),66	11495,(1, 128),4	11499,(1, 131),18	11517,(1, 132),26	11543,(1, 133),2	11545,(1, 134),28	11573,(1, 135),44	11617,(1, 137),2	11619,(1, 138),2	11621,(1, 140),12	11633,(1, 141),12	11645,(1, 143),2	11647,(1, 144),18	11665,(1, 145),24	11689,(1, 146),48	11737,(1, 148),14	11751,(1, 151),28	11779,(1, 152),40	11819,(1, 156),6	11825,(1, 157),20	11845,(1, 158),2	11847,(1, 159),14	11861,(1, 160),14	11875,(1, 161),2	11877,(1, 162),2	11879,(1, 164),2	11881,(1, 165),2	11883,(1, 166),8	11891,(1, 167),14	11905,(1, 168),34	11939,(1, 170),2	11941,(1, 172),2	11943,(1, 173),34	11977,(1, 175),76	12053,(1, 177),20	12073,(1, 178),6	12079,(1, 180),2338	14417,(1, 181),4	14421,(1, 183),4	14425,(1, 185),48	14473,(1, 186),200	14673,(1, 187),2	14675,(1, 188),8	14683,(1, 189),4	14687,(1, 191),6	14693,(1, 192),22	14715,(1, 193),6	14721,(1, 195),6	14727,(1, 198),4	14731,(1, 200),32	14763,(9, 24),26	14789,(9, 26),2	14791,(9, 30),6	14797,(9, 34),6	14803,(9, 36),38	14841,(9, 38),54	14895,(9, 39),1908	16803,(9, 42),2	16805,(9, 44),30	16835,(9, 45),6	16841,(9, 46),116	16957,(9, 47),2	16959,(9, 48),4	16963,(9, 49),22	16985,(9, 53),56	17041,(9, 55),2	17043,(9, 59),2	17045,(9, 60),36	17081,(9, 61),46	17127,(9, 65),4	17131,(9, 67),22	17153,(9, 68),8	17161,(9, 73),4	17165,(9, 78),56	17221,(9, 79),2	17223,(9, 81),28	17251,(9, 82),30	17281,(9, 83),80	17361,(9, 84),4	17365,(9, 85),6	17371,(9, 87),16	17387,(9, 89),2	17389,(9, 90),4	17393,(9, 97),14	17407,(9, 101),34	17441,(9, 104),18	17459,(9, 105),172	17631,(9, 109),6	17637,(9, 111),184	17821,(9, 113),18	17839,(9, 114),8	17847,(9, 119),12	17859,(9, 122),74	17933,(9, 125),18	17951,(9, 127),228	18179,(9, 130),14	18193,(9, 131),2	18195,(9, 137),8	18203,(9, 140),8	18211,(9, 142),168	18379,(9, 143),20	18399,(9, 146),2	18401,(9, 147),4	18405,(9, 150),12	18417,(9, 151),2	18419,(9, 152),2	18421,(9, 154),8	18429,(9, 156),6	18435,(9, 157),28	18463,(9, 158),2	18465,(9, 160),6	18471,(9, 161),10	18481,(9, 163),10	18491,(9, 164),194	18685,(9, 167),2	18687,(9, 171),4	18691,(9, 177),2	18693,(9, 179),4	18697,(9, 180),56	18753,(9, 183),2	18755,(9, 184),8	18763,(9, 188),32	18795,(9, 189),64	18859,(9, 190),6	18865,(9, 191),46	18911,(9, 192),160	19071,(9, 197),4	19075,(9, 198),54	19129,(11, 22),38	19167,(11, 24),4	19171,(11, 27),2	19173,(11, 28),26	19199,(11, 30),8	19207,(11, 37),8	19215,(11, 40),22	19237,(11, 41),52	19289,(11, 43),4	19293,(11, 45),2	19295,(11, 46),70	19365,(11, 47),2	19367,(11, 50),20	19387,(11, 51),2	19389,(11, 54),16	19405,(11, 55),2	19407,(11, 58),16	19423,(11, 63),6	19429,(11, 65),2	19431,(11, 67),2	19433,(11, 69),22	19455,(11, 71),50	19505,(11, 73),8	19513,(11, 74),14	19527,(11, 75),22	19549,(11, 76),6	19555,(11, 80),12	19567,(11, 81),24	19591,(11, 82),2	19593,(11, 86),4	19597,(11, 87),6	19603,(11, 93),2	19605,(11, 94),2	19607,(11, 96),72	19679,(11, 98),160	19839,(11, 99),2	19841,(11, 103),58	19899,(11, 105),22	19921,(11, 106),2	19923,(11, 109),78	20001,(11, 116),10	20011,(11, 117),2	20013,(11, 118),124	20137,(11, 119),22	20159,(11, 120),4	20163,(11, 121),10	20173,(11, 122),2	20175,(11, 124),8	20183,(11, 125),24	20207,(11, 126),2	20209,(11, 127),2	20211,(11, 128),4	20215,(11, 130),2	20217,(11, 131),4	20221,(11, 132),2	20223,(11, 134),2	20225,(11, 135),46	20271,(11, 136),6	20277,(11, 138),172	20449,(11, 139),22	20471,(11, 140),1158	21629,(11, 142),2	21631,(11, 144),4	21635,(11, 145),14	21649,(11, 146),18	21667,(11, 147),34	21701,(11, 149),90	21791,(11, 150),50	21841,(11, 151),2	21843,(11, 157),4	21847,(11, 159),418	22265,(11, 161),22	22287,(11, 162),50	22337,(11, 165),24	22361,(11, 167),12	22373,(11, 168),80	22453,(11, 169),62	22515,(11, 171),2	22517,(11, 172),26	22543,(11, 173),20	22563,(11, 174),2	22565,(11, 175),14	22579,(11, 176),2	22581,(11, 180),22	22603,(11, 182),8	22611,(11, 183),2	22613,(11, 187),36	22649,(11, 190),6	22655,(11, 192),2	22657,(11, 193),10	22667,(11, 194),2	22669,(11, 195),8	22677,(11, 197),34	22711,(19, 22),10	22721,(19, 26),2	22723,(19, 27),2	22725,(19, 28),2	22727,(19, 31),2	22729,(19, 34),6	22735,(19, 36),20	22755,(19, 37),78	22833,(19, 39),4	22837,(19, 40),10	22847,(19, 41),2	22849,(19, 42),2	22851,(19, 43),304	23155,(19, 49),646	23801,(19, 54),8	23809,(19, 55),2	23811,(19, 56),54	23865,(19, 57),68	23933,(19, 59),20	23953,(19, 60),4	23957,(19, 66),34	23991,(19, 73),60	24051,(19, 74),10	24061,(19, 77),6	24067,(19, 78),8	24075,(19, 80),2	24077,(19, 81),24	24101,(19, 82),4	24105,(19, 84),16	24121,(19, 88),2	24123,(19, 90),14	24137,(19, 91),14	24151,(19, 92),2	24153,(19, 93),570	24723,(19, 96),2	24725,(19, 97),68	24793,(19, 99),2	24795,(19, 101),2	24797,(19, 103),2	24799,(19, 104),48	24847,(19, 105),2	24849,(19, 108),26	24875,(19, 109),14	24889,(19, 110),40	24929,(19, 112),8	24937,(19, 113),30	24967,(19, 114),14	24981,(19, 116),152	25133,(19, 118),2	25135,(19, 119),98	25233,(19, 121),2	25235,(19, 123),10	25245,(19, 125),14	25259,(19, 126),20	25279,(19, 128),2	25281,(19, 131),20	25301,(19, 134),20	25321,(19, 135),2	25323,(19, 140),2	25325,(19, 141),26	25351,(19, 142),2	25353,(19, 143),10	25363,(19, 145),2	25365,(19, 148),8	25373,(19, 149),8	25381,(19, 150),4	25385,(19, 156),22	25407,(19, 157),2	25409,(19, 161),16	25425,(19, 162),2	25427,(19, 163),2	25429,(19, 165),8	25437,(19, 167),24	25461,(19, 168),24	25485,(19, 170),178	25663,(19, 172),794	26457,(19, 175),34	26491,(19, 176),6	26497,(19, 179),2	26499,(19, 180),2	26501,(19, 183),4	26505,(19, 184),98	26603,(19, 186),42	26645,(19, 187),6	26651,(19, 191),4	26655,(19, 193),4	26659,(19, 195),26	26685,(19, 196),2	26687,(3, 22),18	26705,(3, 24),12	26717,(3, 28),58	26775,(3, 29),146	26921,(3, 36),22	26943,(3, 37),8	26951,(3, 42),12	26963,(3, 44),116	27079,(3, 47),12	27091,(3, 48),44	27135,(3, 50),2	27137,(3, 52),22	27159,(3, 54),36	27195,(3, 55),2	27197,(3, 56),102	27299,(3, 57),48	27347,(3, 58),6	27353,(3, 59),2	27355,(3, 63),10	27365,(3, 65),4	27369,(3, 66),6	27375,(3, 67),6	27381,(3, 68),2	27383,(3, 70),2	27385,(3, 71),6	27391,(3, 76),4	27395,(3, 78),16	27411,(3, 81),12	27423,(3, 82),4	27427,(3, 84),2	27429,(3, 86),12	27441,(3, 89),20	27461,(3, 90),18	27479,(3, 91),26	27505,(3, 92),4	27509,(3, 93),6	27515,(3, 94),12	27527,(3, 97),14	27541,(3, 105),2	27543,(3, 106),12	27555,(3, 115),6	27561,(3, 116),6	27567,(3, 117),40	27607,(3, 118),130	27737,(3, 119),2	27739,(3, 120),2	27741,(3, 121),32	27773,(3, 122),2	27775,(3, 123),26	27801,(3, 125),2	27803,(3, 126),4	27807,(3, 129),16	27823,(3, 131),2	27825,(3, 133),86	27911,(3, 135),18	27929,(3, 136),6	27935,(3, 137),28	27963,(3, 138),2	27965,(3, 140),4	27969,(3, 142),652	28621,(3, 143),16	28637,(3, 145),24	28661,(3, 146),26	28687,(3, 147),2	28689,(3, 150),16	28705,(3, 151),46	28751,(3, 154),12	28763,(3, 156),20	28783,(3, 157),98	28881,(3, 158),74	28955,(3, 159),6	28961,(3, 160),2	28963,(3, 164),8	28971,(3, 166),18	28989,(3, 170),4	28993,(3, 173),2	28995,(3, 176),2	28997,(3, 177),18	29015,(3, 179),2	29017,(3, 181),2	29019,(3, 183),2	29021,(3, 186),2	29023,(3, 190),26	29049,(3, 191),118	29167,(3, 193),6	29173,(3, 194),2	29175,(3, 196),68	29243,(3, 198),196	29439,(13, 24),28	29467,(13, 28),2	29469,(13, 29),8	29477,(13, 30),2	29479,(13, 31),6	29485,(13, 34),2	29487,(13, 37),18	29505,(13, 38),194	29699,(13, 39),128	29827,(13, 40),4	29831,(13, 42),2	29833,(13, 44),2	29835,(13, 46),2	29837,(13, 47),62	29899,(13, 48),62	29961,(13, 49),60	30021,(13, 54),16	30037,(13, 56),2	30039,(13, 59),2	30041,(13, 63),4	30045,(13, 65),158	30203,(13, 67),2	30205,(13, 69),4	30209,(13, 71),88	30297,(13, 74),12	30309,(13, 75),10	30319,(13, 76),60	30379,(13, 78),6	30385,(13, 79),42	30427,(13, 80),12	30439,(13, 83),20	30459,(13, 84),12	30471,(13, 85),366	30837,(13, 86),4	30841,(13, 87),6	30847,(13, 91),2	30849,(13, 94),14	30863,(13, 95),2	30865,(13, 96),2	30867,(13, 97),2	30869,(13, 98),150	31019,(13, 100),42	31061,(13, 101),2	31063,(13, 103),8	31071,(13, 104),2	31073,(13, 106),28	31101,(13, 107),4	31105,(13, 108),26	31131,(13, 109),32	31163,(13, 110),18	31181,(13, 111),2	31183,(13, 112),530	31713,(13, 113),2	31715,(13, 114),12	31727,(13, 116),14	31741,(13, 120),2	31743,(13, 121),2	31745,(13, 122),104	31849,(13, 124),8	31857,(13, 126),2	31859,(13, 127),20	31879,(13, 128),16	31895,(13, 132),24	31919,(13, 133),54	31973,(13, 134),2	31975,(13, 136),6	31981,(13, 137),2	31983,(13, 138),14	31997,(13, 139),16	32013,(13, 140),12	32025,(13, 142),18	32043,(13, 143),18	32061,(13, 144),2	32063,(13, 147),28	32091,(13, 148),8	32099,(13, 160),8	32107,(13, 165),14	32121,(13, 168),8	32129,(13, 169),2	32131,(13, 170),2	32133,(13, 172),20	32153,(13, 174),2	32155,(13, 175),2	32157,(13, 176),14	32171,(13, 180),2	32173,(13, 181),158	32331,(13, 182),8	32339,(13, 184),8	32347,(13, 185),4	32351,(13, 186),30	32381,(13, 187),48	32429,(13, 188),2	32431,(13, 190),2	32433,(13, 191),26	32459,(13, 192),74	32533,(13, 194),236	32769,(13, 196),12	32781,(13, 198),12	32793,(13, 200),4	32797,(7, 27),10	32807,(7, 28),22	32829,(7, 29),72	32901,(7, 30),10	32911,(7, 31),6	32917,(7, 32),10	32927,(7, 36),4	32931,(7, 37),46	32977,(7, 39),8	32985,(7, 44),2	32987,(7, 45),14	33001,(7, 47),4	33005,(7, 48),40	33045,(7, 50),2	33047,(7, 52),22	33069,(7, 54),30	33099,(7, 59),2	33101,(7, 62),28	33129,(7, 63),10	33139,(7, 64),82	33221,(7, 65),4	33225,(7, 67),12	33237,(7, 68),66	33303,(7, 70),50	33353,(7, 71),12	33365,(7, 74),52	33417,(7, 75),6	33423,(7, 77),8	33431,(7, 78),2	33433,(7, 80),8	33441,(7, 81),6	33447,(7, 86),58	33505,(7, 87),366	33871,(7, 90),4	33875,(7, 92),80	33955,(7, 93),2	33957,(7, 97),18	33975,(7, 100),66	34041,(7, 103),24	34065,(7, 110),8	34073,(7, 112),2	34075,(7, 113),2	34077,(7, 115),6	34083,(7, 117),14	34097,(7, 121),6	34103,(7, 123),2	34105,(7, 124),18	34123,(7, 126),2	34125,(7, 130),6	34131,(7, 131),4	34135,(7, 135),26	34161,(7, 136),2	34163,(7, 137),32	34195,(7, 138),72	34267,(7, 139),64	34331,(7, 140),4	34335,(7, 142),4	34339,(7, 144),4	34343,(7, 145),2	34345,(7, 146),4	34349,(7, 147),2	34351,(7, 148),20	34371,(7, 149),432	34803,(7, 150),2	34805,(7, 151),2	34807,(7, 152),6	34813,(7, 156),72	34885,(7, 157),2	34887,(7, 158),14	34901,(7, 161),32	34933,(7, 163),14	34947,(7, 166),36	34983,(7, 167),20	35003,(7, 170),122	35125,(7, 176),346	35471,(7, 181),14	35485,(7, 182),14	35499,(7, 186),140	35639,(7, 191),10	35649,(7, 192),62	35711,(7, 193),2	35713,(7, 194),14	35727,(7, 196),6	35733,(7, 198),34	35767,(7, 200),12	35779,(17, 24),12	35791,(17, 29),2	35793,(17, 31),38	35831,(17, 32),2	35833,(17, 34),6	35839,(17, 38),2	35841,(17, 39),16	35857,(17, 40),28	35885,(17, 42),44	35929,(17, 44),4	35933,(17, 45),6	35939,(17, 46),12	35951,(17, 47),16	35967,(17, 53),20	35987,(17, 54),2	35989,(17, 55),12	36001,(17, 56),2	36003,(17, 58),248	36251,(17, 59),4	36255,(17, 61),4	36259,(17, 63),2	36261,(17, 64),16	36277,(17, 66),22	36299,(17, 68),8	36307,(17, 69),8	36315,(17, 70),6	36321,(17, 73),4	36325,(17, 79),2	36327,(17, 80),2	36329,(17, 84),2	36331,(17, 85),356	36687,(17, 86),52	36739,(17, 88),6	36745,(17, 89),94	36839,(17, 91),2	36841,(17, 95),2	36843,(17, 97),2	36845,(17, 99),8	36853,(17, 101),78	36931,(17, 103),4	36935,(17, 105),8	36943,(17, 106),4	36947,(17, 107),2	36949,(17, 108),12	36961,(17, 109),8	36969,(17, 110),2	36971,(17, 111),2	36973,(17, 119),2	36975,(17, 120),24	36999,(17, 122),2	37001,(17, 124),24	37025,(17, 126),6	37031,(17, 127),2	37033,(17, 128),20	37053,(17, 129),4	37057,(17, 130),2	37059,(17, 131),2	37061,(17, 132),102	37163,(17, 133),2	37165,(17, 135),2	37167,(17, 136),10	37177,(17, 143),10	37187,(17, 144),92	37279,(17, 145),18	37297,(17, 148),8	37305,(17, 150),54	37359,(17, 154),2	37361,(17, 156),2	37363,(17, 158),2	37365,(17, 159),2	37367,(17, 160),14	37381,(17, 161),6	37387,(17, 164),10	37397,(17, 167),2	37399,(17, 168),36	37435,(17, 170),8	37443,(17, 171),10	37453,(17, 173),8	37461,(17, 174),10	37471,(17, 179),2	37473,(17, 180),2	37475,(17, 181),14	37489,(17, 182),56	37545,(17, 186),14	37559,(17, 189),374	37933,(17, 192),4	37937,(17, 194),2	37939,(17, 197),2	37941,(17, 198),24	37965,(17, 200),2	37967,(15, 22),2	37969,(15, 26),6	37975,(15, 27),18	37993,(15, 30),2	37995,(15, 32),10	38005,(15, 36),14	38019,(15, 38),12	38031,(15, 41),6	38037,(15, 42),20	38057,(15, 44),62	38119,(15, 49),36	38155,(15, 51),2	38157,(15, 54),2	38159,(15, 57),338	38497,(15, 59),20	38517,(15, 60),18	38535,(15, 66),2	38537,(15, 67),6	38543,(15, 68),54	38597,(15, 69),6	38603,(15, 71),6	38609,(15, 72),92	38701,(15, 73),2	38703,(15, 75),22	38725,(15, 78),14	38739,(15, 80),6	38745,(15, 81),8	38753,(15, 82),24	38777,(15, 83),2	38779,(15, 84),46	38825,(15, 85),18	38843,(15, 86),2	38845,(15, 89),2	38847,(15, 90),4	38851,(15, 91),34	38885,(15, 92),2	38887,(15, 93),4	38891,(15, 94),6	38897,(15, 95),6	38903,(15, 96),8	38911,(15, 98),12	38923,(15, 99),6	38929,(15, 101),30	38959,(15, 103),8	38967,(15, 106),26	38993,(15, 108),14	39007,(15, 112),46	39053,(15, 113),142	39195,(15, 114),2	39197,(15, 116),2	39199,(15, 120),50	39249,(15, 122),2	39251,(15, 123),80	39331,(15, 126),38	39369,(15, 127),20	39389,(15, 130),142	39531,(15, 132),32	39563,(15, 134),2	39565,(15, 135),210	39775,(15, 136),212	39987,(15, 138),4	39991,(15, 139),62	40053,(15, 144),6	40059,(15, 145),82	40141,(15, 148),18	40159,(15, 149),8	40167,(15, 150),28	40195,(15, 152),276	40471,(15, 156),2	40473,(15, 158),4	40477,(15, 159),6	40483,(15, 160),40	40523,(15, 161),154	40677,(15, 162),2	40679,(15, 163),12	40691,(15, 167),2	40693,(15, 169),8	40701,(15, 170),10	40711,(15, 171),4	40715,(15, 173),16	40731,(15, 175),2	40733,(15, 176),8	40741,(15, 178),2	40743,(15, 179),38	40781,(15, 180),2	40783,(15, 181),10	40793,(15, 182),12	40805,(15, 184),4	40809,(15, 189),26	40835,(15, 190),12	40847,(15, 195),54	40901,(15, 196),2	40903,(15, 197),2	40905,(15, 199),2	40907,(25, 201),18	40925,(153, 201),18	40943,(21, 201),18	40961,(23, 201),18	40979,(33, 201),18	40997,(35, 201),18	41015,(102, 201),18	41033,(155, 201),18	
