964
# CPU
13,4,4	17,40,4	25,8,4	29,24,4	33,32,4	37,52,4	61,36,4	103,20,4	171,28,4	175,80,4	181,44,4	247,76,4	287,16,4	311,64,4	593,56,4	659,12,4	771,48,4	789,60,4	841,68,4	845,72,4	
9,3,4	13,59,4	17,75,4	21,7,4	25,55,4	43,19,4	49,27,4	55,15,4	63,47,4	171,63,4	179,35,4	201,11,4	365,31,4	369,39,4	373,67,4	383,71,4	451,79,4	603,23,4	617,43,4	653,51,4	
5,2,4	9,26,4	13,38,4	17,54,4	21,6,4	25,30,4	29,62,4	33,70,4	37,78,4	41,46,4	177,14,4	181,34,4	203,42,4	239,50,4	549,10,4	607,58,4	755,18,4	769,22,4	801,66,4	849,74,4	
0,0,1	1,5,4	5,1,4	9,73,4	13,21,4	17,25,4	21,37,4	25,49,4	29,53,4	67,17,4	79,77,4	105,29,4	109,45,4	155,9,4	183,69,4	447,61,4	581,41,4	599,57,4	637,65,4	667,13,4	767,33,4	963,81,1	
# Incoming
9,(0, 4),4	21,(0, 8),4	25,(5, 16),6	49,(5, 28),4	57,(5, 36),4	63,(5, 60),4	67,(2, 12),12	79,(2, 16),8	87,(2, 20),16	109,(2, 76),14	155,(6, 28),16	171,(5, 80),2	179,(6, 44),2	239,(1, 56),2	241,(1, 76),6	247,(6, 16),40	287,(6, 64),24	549,(3, 12),10	581,(3, 56),12	637,(3, 68),2	651,(7, 12),8	769,(7, 48),2	771,(7, 60),18	801,(7, 68),40	841,(7, 72),2	
5,(0, 3),4	17,(0, 7),4	21,(4, 55),2	31,(5, 19),12	43,(5, 27),6	49,(8, 15),6	61,(5, 47),2	67,(5, 63),104	171,(2, 35),8	179,(1, 11),10	189,(6, 11),12	203,(1, 43),6	209,(4, 31),156	365,(6, 39),2	367,(6, 67),2	369,(6, 71),14	383,(6, 79),68	451,(8, 23),152	603,(8, 43),14	617,(8, 51),36	
1,(0, 2),4	13,(0, 6),4	17,(4, 14),2	19,(4, 30),2	23,(4, 62),2	29,(8, 46),6	53,(5, 34),4	173,(1, 14),4	177,(1, 34),2	189,(1, 42),14	209,(1, 50),30	239,(3, 10),310	559,(3, 18),12	599,(3, 58),8	667,(7, 18),88	755,(7, 22),14	789,(7, 66),12	843,(7, 74),6	
9,(2, 9),36	45,(2, 17),22	67,(40, 81),6	73,(8, 69),4	77,(8, 77),2	79,(24, 81),6	85,(32, 81),6	91,(52, 81),6	97,(36, 81),6	103,(2, 29),2	105,(2, 41),2	107,(2, 45),2	109,(20, 81),6	123,(26, 81),6	129,(38, 81),6	135,(54, 81),6	141,(6, 9),14	175,(28, 81),6	181,(6, 69),2	183,(30, 81),6	189,(80, 81),6	195,(44, 81),6	201,(6, 13),26	227,(62, 81),6	233,(70, 81),6	239,(78, 81),6	311,(46, 81),6	317,(14, 81),6	323,(34, 81),6	329,(42, 81),6	335,(50, 81),6	365,(8, 61),82	553,(10, 81),6	571,(3, 41),10	593,(3, 57),6	607,(3, 65),30	639,(59, 81),6	645,(75, 81),6	653,(76, 81),6	659,(7, 13),8	667,(8, 33),100	767,(16, 81),6	773,(64, 81),6	779,(56, 81),6	785,(58, 81),6	791,(12, 81),6	797,(18, 81),6	803,(22, 81),6	809,(48, 81),6	815,(60, 81),6	821,(66, 81),6	849,(55, 81),6	855,(19, 81),6	861,(27, 81),6	867,(15, 81),6	873,(47, 81),6	879,(63, 81),6	885,(35, 81),6	891,(11, 81),6	897,(31, 81),6	903,(39, 81),6	909,(67, 81),6	915,(71, 81),6	921,(79, 81),6	927,(23, 81),6	933,(43, 81),6	939,(51, 81),6	945,(68, 81),6	951,(72, 81),6	957,(74, 81),6	
# Outgoing
17,(4, 14),2	19,(4, 30),2	21,(4, 55),2	23,(4, 62),2	29,(8, 46),6	49,(8, 15),6	67,(40, 81),6	73,(8, 69),4	77,(8, 77),2	79,(24, 81),6	85,(32, 81),6	91,(52, 81),6	97,(36, 81),6	109,(20, 81),6	175,(28, 81),6	189,(80, 81),6	195,(44, 81),6	209,(4, 31),156	365,(8, 61),82	451,(8, 23),152	603,(8, 43),14	617,(8, 51),36	653,(76, 81),6	667,(8, 33),100	767,(16, 81),6	773,(64, 81),6	779,(56, 81),6	791,(12, 81),6	809,(48, 81),6	815,(60, 81),6	945,(68, 81),6	951,(72, 81),6	
239,(3, 10),310	549,(3, 12),10	559,(3, 18),12	571,(3, 41),10	581,(3, 56),12	593,(3, 57),6	599,(3, 58),8	607,(3, 65),30	637,(3, 68),2	639,(59, 81),6	645,(75, 81),6	651,(7, 12),8	659,(7, 13),8	667,(7, 18),88	755,(7, 22),14	769,(7, 48),2	771,(7, 60),18	789,(7, 66),12	801,(7, 68),40	841,(7, 72),2	843,(7, 74),6	849,(55, 81),6	855,(19, 81),6	861,(27, 81),6	867,(15, 81),6	873,(47, 81),6	879,(63, 81),6	885,(35, 81),6	891,(11, 81),6	897,(31, 81),6	903,(39, 81),6	909,(67, 81),6	915,(71, 81),6	921,(79, 81),6	927,(23, 81),6	933,(43, 81),6	939,(51, 81),6	
9,(2, 9),36	45,(2, 17),22	67,(2, 12),12	79,(2, 16),8	87,(2, 20),16	103,(2, 29),2	105,(2, 41),2	107,(2, 45),2	109,(2, 76),14	123,(26, 81),6	129,(38, 81),6	135,(54, 81),6	141,(6, 9),14	155,(6, 28),16	171,(2, 35),8	179,(6, 44),2	181,(6, 69),2	183,(30, 81),6	189,(6, 11),12	201,(6, 13),26	227,(62, 81),6	233,(70, 81),6	239,(78, 81),6	247,(6, 16),40	287,(6, 64),24	311,(46, 81),6	317,(14, 81),6	323,(34, 81),6	329,(42, 81),6	335,(50, 81),6	365,(6, 39),2	367,(6, 67),2	369,(6, 71),14	383,(6, 79),68	553,(10, 81),6	785,(58, 81),6	797,(18, 81),6	803,(22, 81),6	821,(66, 81),6	957,(74, 81),6	
1,(0, 2),4	5,(0, 3),4	9,(0, 4),4	13,(0, 6),4	17,(0, 7),4	21,(0, 8),4	25,(5, 16),6	31,(5, 19),12	43,(5, 27),6	49,(5, 28),4	53,(5, 34),4	57,(5, 36),4	61,(5, 47),2	63,(5, 60),4	67,(5, 63),104	171,(5, 80),2	173,(1, 14),4	177,(1, 34),2	179,(1, 11),10	189,(1, 42),14	203,(1, 43),6	209,(1, 50),30	239,(1, 56),2	241,(1, 76),6	
