1102
# CPU
0,81,1	1,69,1	2,9,1	3,43,1	4,62,1	5,19,1	6,58,1	7,18,1	8,35,1	9,33,1	10,21,1	11,44,1	12,29,1	13,37,1	14,53,1	15,55,1	16,79,1	17,73,1	18,72,1	19,40,1	20,14,1	21,41,1	22,31,1	23,65,1	24,23,1	25,10,1	26,80,1	27,61,1	28,38,1	29,59,1	30,57,1	31,50,1	32,20,1	33,28,1	34,63,1	35,49,1	36,17,1	37,24,1	38,64,1	39,42,1	40,16,1	41,32,1	42,12,1	43,4,1	44,11,1	45,25,1	46,46,1	47,45,1	48,77,1	49,15,1	50,30,1	51,22,1	52,26,1	53,27,1	54,68,1	55,52,1	56,75,1	57,71,1	58,78,1	59,6,1	60,70,1	61,3,1	62,48,1	63,47,1	64,66,1	65,60,1	66,56,1	67,76,1	68,51,1	69,74,1	70,67,1	71,2,1	72,54,1	73,5,1	74,1,1	75,8,1	1100,7,1	1101,0,1	
19,39,1	55,36,1	73,13,1	
37,34,1	
# Incoming
20,(39, 1),3	38,(34, 8),15	56,(36, 7),48	104,(13, 7),996	
1,(81, 39),18	37,(81, 36),18	55,(81, 13),18	
19,(81, 34),18	
# Outgoing
1,(81, 39),18	19,(81, 34),18	37,(81, 36),18	55,(81, 13),18	
20,(39, 1),3	56,(36, 7),48	104,(13, 7),996	
38,(34, 8),15	
