170
# CPU
46,2,12	58,4,12	70,10,12	82,16,12	94,8,12	106,20,12	118,6,12	130,12,12	142,14,12	154,18,12	
0,0,1	1,1,12	13,3,12	25,13,12	37,9,12	49,19,12	88,5,12	100,7,12	130,11,12	142,15,12	154,17,12	169,21,1	
# Incoming
1,(0, 2),45	46,(1, 4),12	58,(1, 6),33	91,(1, 12),3	94,(1, 14),45	139,(1, 18),6	
58,(2, 5),30	88,(2, 7),3	91,(2, 11),39	130,(2, 15),6	136,(2, 17),3	139,(4, 21),3	142,(10, 21),3	145,(16, 21),3	148,(8, 21),3	151,(20, 21),3	154,(6, 21),3	157,(12, 21),3	160,(14, 21),3	166,(18, 21),3	
# Outgoing
58,(2, 5),30	88,(2, 7),3	91,(2, 11),39	130,(2, 15),6	136,(2, 17),3	139,(4, 21),3	142,(10, 21),3	145,(16, 21),3	148,(8, 21),3	151,(20, 21),3	154,(6, 21),3	157,(12, 21),3	160,(14, 21),3	166,(18, 21),3	
1,(0, 2),45	46,(1, 4),12	58,(1, 6),33	91,(1, 12),3	94,(1, 14),45	139,(1, 18),6	
