22058
# CPU
161,3,1	162,25,1	209,49,1	217,52,1	241,83,1	321,6,1	322,32,1	323,54,1	389,109,1	481,9,1	482,96,1	483,103,1	484,107,1	485,112,1	486,117,1	641,12,1	642,80,1	643,23,1	644,43,1	645,40,1	646,116,1	647,114,1	681,31,1	785,53,1	1229,88,1	1789,82,1	1849,81,1	1857,93,1	1961,99,1	1965,106,1	1973,21,1	2377,56,1	2425,62,1	3137,37,1	3353,39,1	3369,47,1	3373,48,1	3385,79,1	3453,100,1	3477,110,1	3557,24,1	3633,59,1	3649,65,1	3669,35,1	3709,105,1	3713,70,1	3733,78,1	3737,85,1	3813,91,1	3821,94,1	3837,98,1	3901,120,1	3941,30,1	3957,92,1	3969,50,1	4113,51,1	4257,61,1	4305,64,1	4321,69,1	4325,72,1	4329,119,1	4353,76,1	4361,84,1	4505,89,1	4653,102,1	4657,115,1	13121,63,1	13669,29,1	13773,38,1	14005,87,1	14117,95,1	14161,97,1	14169,118,1	14229,20,1	14241,26,1	14245,28,1	14249,33,1	14257,36,1	14281,41,1	14305,42,1	14317,55,1	14337,57,1	14353,58,1	14365,60,1	14421,66,1	20881,74,1	20885,86,1	21053,90,1	21165,101,1	21169,104,1	21173,108,1	21273,111,1	22057,121,1	
81,2,1	241,5,1	401,8,1	561,11,1	562,34,1	1969,19,1	2781,18,1	3385,68,1	3557,44,1	3657,27,1	3709,67,1	3725,77,1	3817,22,1	3957,16,1	4329,75,1	5693,113,1	9293,71,1	
0,0,1	1,7,1	2,10,1	3,4,1	4,1,1	5,13,1	106,15,1	502,14,1	4201,17,1	4665,45,1	8901,46,1	20489,73,1	
# Incoming
81,(0, 3),80	161,(2, 23),28	189,(2, 24),8	197,(2, 36),4	201,(2, 40),4	205,(2, 49),4	209,(2, 52),8	217,(2, 57),4	221,(2, 64),4	225,(2, 83),16	241,(0, 6),80	321,(2, 55),40	361,(2, 61),24	385,(2, 109),4	389,(5, 31),4	393,(5, 43),8	401,(0, 9),80	481,(2, 80),72	553,(5, 48),8	561,(0, 12),80	641,(5, 60),4	645,(7, 28),24	669,(7, 31),12	681,(7, 33),20	701,(7, 48),24	725,(7, 53),60	785,(7, 58),20	805,(7, 59),316	1121,(7, 62),4	1125,(7, 64),84	1209,(2, 88),20	1229,(5, 62),4	1233,(5, 90),4	1237,(7, 76),4	1241,(2, 30),404	1645,(2, 91),20	1665,(5, 21),112	1777,(5, 82),12	1789,(5, 91),40	1829,(7, 81),20	1849,(7, 91),4	1853,(7, 93),4	1857,(7, 94),12	1869,(7, 106),8	1877,(7, 119),80	1957,(5, 99),4	1961,(5, 106),4	1965,(5, 110),4	1969,(10, 21),4	1973,(10, 36),64	2037,(10, 37),132	2169,(10, 41),4	2173,(10, 42),92	2265,(10, 55),4	2269,(10, 56),108	2377,(10, 61),4	2381,(10, 62),44	2425,(10, 66),404	2829,(2, 37),308	3137,(2, 39),216	3353,(5, 111),8	3361,(5, 118),4	3365,(8, 47),4	3369,(8, 48),4	3373,(8, 57),8	3381,(8, 79),4	3385,(10, 70),36	3421,(10, 84),4	3425,(10, 86),12	3437,(10, 92),12	3449,(10, 100),4	3453,(10, 104),8	3461,(10, 110),16	3477,(4, 24),80	3557,(5, 64),68	3625,(8, 59),8	3633,(8, 65),16	3649,(8, 89),8	3657,(4, 28),4	3661,(4, 33),4	3665,(4, 35),4	3669,(4, 60),32	3701,(4, 61),4	3705,(8, 105),4	3709,(4, 70),4	3713,(4, 72),8	3721,(8, 108),4	3725,(4, 78),8	3733,(4, 85),4	3737,(4, 91),76	3813,(4, 94),8	3821,(4, 98),16	3837,(4, 118),12	3849,(4, 120),52	3901,(8, 30),40	3941,(8, 92),16	3957,(1, 28),4	3961,(1, 36),4	3965,(1, 50),4	3969,(1, 51),144	4113,(1, 55),32	4145,(1, 61),112	4257,(1, 64),48	4305,(1, 69),16	4321,(1, 72),4	4325,(8, 119),4	4329,(1, 76),24	4353,(1, 84),8	4361,(1, 86),4	4365,(1, 87),40	4405,(1, 89),100	4505,(1, 102),148	4653,(1, 115),4	4657,(13, 121),56	4713,(2, 63),8408	13121,(2, 97),400	13521,(15, 121),56	13577,(8, 29),92	13669,(8, 38),104	13773,(8, 74),88	13861,(8, 87),144	14005,(8, 95),112	14117,(8, 97),44	14161,(8, 118),8	14169,(14, 121),56	14225,(11, 20),4	14229,(11, 26),12	14241,(11, 28),4	14245,(11, 33),4	14249,(11, 36),8	14257,(11, 41),24	14281,(11, 42),24	14305,(11, 55),12	14317,(11, 57),20	14337,(11, 58),16	14353,(11, 60),12	14365,(11, 66),56	14421,(17, 121),56	14477,(45, 121),56	14533,(46, 121),56	20489,(11, 74),392	20881,(11, 86),4	20885,(11, 90),168	21053,(11, 101),112	21165,(11, 104),4	21169,(11, 108),4	21173,(11, 111),100	21273,(34, 121),56	21329,(19, 121),56	21385,(18, 121),56	21441,(68, 121),56	21497,(44, 121),56	21553,(27, 121),56	21609,(67, 121),56	21665,(77, 121),56	21721,(22, 121),56	21777,(16, 121),56	21833,(75, 121),56	21889,(113, 121),56	21945,(71, 121),56	22001,(73, 121),56	
1,(0, 2),80	161,(0, 5),80	241,(3, 19),4	321,(0, 8),80	401,(6, 16),8	481,(0, 11),80	641,(7, 16),4	645,(3, 113),108	1209,(7, 75),28	1241,(7, 77),588	1957,(10, 19),12	2597,(6, 77),84	2681,(9, 18),92	2773,(12, 18),8	2829,(10, 67),276	3105,(10, 68),280	3385,(9, 44),172	3557,(4, 27),100	3705,(4, 67),4	3721,(4, 77),4	3725,(12, 22),92	3901,(1, 16),56	4325,(1, 75),4	4329,(6, 113),1364	8901,(12, 71),392	
82,(2, 15),24	106,(2, 17),8	162,(3, 17),52	322,(6, 73),4	482,(9, 14),20	645,(8, 73),108	753,(6, 17),1844	3957,(11, 17),244	4329,(11, 45),336	5693,(12, 46),3208	14421,(11, 73),6068	
# Outgoing
162,(3, 17),52	241,(3, 19),4	322,(6, 73),4	401,(6, 16),8	482,(9, 14),20	645,(3, 113),108	753,(6, 17),1844	2597,(6, 77),84	2681,(9, 18),92	2773,(12, 18),8	3385,(9, 44),172	3725,(12, 22),92	4329,(6, 113),1364	5693,(12, 46),3208	8901,(12, 71),392	
82,(2, 15),24	106,(2, 17),8	161,(2, 23),28	189,(2, 24),8	197,(2, 36),4	201,(2, 40),4	205,(2, 49),4	209,(2, 52),8	217,(2, 57),4	221,(2, 64),4	225,(2, 83),16	321,(2, 55),40	361,(2, 61),24	385,(2, 109),4	389,(5, 31),4	393,(5, 43),8	481,(2, 80),72	553,(5, 48),8	641,(5, 60),4	645,(8, 73),108	1209,(2, 88),20	1229,(5, 62),4	1233,(5, 90),4	1241,(2, 30),404	1645,(2, 91),20	1665,(5, 21),112	1777,(5, 82),12	1789,(5, 91),40	1957,(5, 99),4	1961,(5, 106),4	1965,(5, 110),4	2829,(2, 37),308	3137,(2, 39),216	3353,(5, 111),8	3361,(5, 118),4	3365,(8, 47),4	3369,(8, 48),4	3373,(8, 57),8	3381,(8, 79),4	3557,(5, 64),68	3625,(8, 59),8	3633,(8, 65),16	3649,(8, 89),8	3705,(8, 105),4	3721,(8, 108),4	3901,(8, 30),40	3941,(8, 92),16	3957,(11, 17),244	4325,(8, 119),4	4329,(11, 45),336	4713,(2, 63),8408	13121,(2, 97),400	13577,(8, 29),92	13669,(8, 38),104	13773,(8, 74),88	13861,(8, 87),144	14005,(8, 95),112	14117,(8, 97),44	14161,(8, 118),8	14225,(11, 20),4	14229,(11, 26),12	14241,(11, 28),4	14245,(11, 33),4	14249,(11, 36),8	14257,(11, 41),24	14281,(11, 42),24	14305,(11, 55),12	14317,(11, 57),20	14337,(11, 58),16	14353,(11, 60),12	14365,(11, 66),56	14421,(11, 73),6068	20489,(11, 74),392	20881,(11, 86),4	20885,(11, 90),168	21053,(11, 101),112	21165,(11, 104),4	21169,(11, 108),4	21173,(11, 111),100	21273,(34, 121),56	21329,(19, 121),56	21385,(18, 121),56	21441,(68, 121),56	21497,(44, 121),56	21553,(27, 121),56	21609,(67, 121),56	21665,(77, 121),56	21721,(22, 121),56	21777,(16, 121),56	21833,(75, 121),56	21889,(113, 121),56	21945,(71, 121),56	
1,(0, 2),80	81,(0, 3),80	161,(0, 5),80	241,(0, 6),80	321,(0, 8),80	401,(0, 9),80	481,(0, 11),80	561,(0, 12),80	641,(7, 16),4	645,(7, 28),24	669,(7, 31),12	681,(7, 33),20	701,(7, 48),24	725,(7, 53),60	785,(7, 58),20	805,(7, 59),316	1121,(7, 62),4	1125,(7, 64),84	1209,(7, 75),28	1237,(7, 76),4	1241,(7, 77),588	1829,(7, 81),20	1849,(7, 91),4	1853,(7, 93),4	1857,(7, 94),12	1869,(7, 106),8	1877,(7, 119),80	1957,(10, 19),12	1969,(10, 21),4	1973,(10, 36),64	2037,(10, 37),132	2169,(10, 41),4	2173,(10, 42),92	2265,(10, 55),4	2269,(10, 56),108	2377,(10, 61),4	2381,(10, 62),44	2425,(10, 66),404	2829,(10, 67),276	3105,(10, 68),280	3385,(10, 70),36	3421,(10, 84),4	3425,(10, 86),12	3437,(10, 92),12	3449,(10, 100),4	3453,(10, 104),8	3461,(10, 110),16	3477,(4, 24),80	3557,(4, 27),100	3657,(4, 28),4	3661,(4, 33),4	3665,(4, 35),4	3669,(4, 60),32	3701,(4, 61),4	3705,(4, 67),4	3709,(4, 70),4	3713,(4, 72),8	3721,(4, 77),4	3725,(4, 78),8	3733,(4, 85),4	3737,(4, 91),76	3813,(4, 94),8	3821,(4, 98),16	3837,(4, 118),12	3849,(4, 120),52	3901,(1, 16),56	3957,(1, 28),4	3961,(1, 36),4	3965,(1, 50),4	3969,(1, 51),144	4113,(1, 55),32	4145,(1, 61),112	4257,(1, 64),48	4305,(1, 69),16	4321,(1, 72),4	4325,(1, 75),4	4329,(1, 76),24	4353,(1, 84),8	4361,(1, 86),4	4365,(1, 87),40	4405,(1, 89),100	4505,(1, 102),148	4653,(1, 115),4	4657,(13, 121),56	13521,(15, 121),56	14169,(14, 121),56	14421,(17, 121),56	14477,(45, 121),56	14533,(46, 121),56	22001,(73, 121),56	
