838
# CPU
0,0,1	1,10,2	3,13,2	5,54,2	7,2,2	9,112,2	11,118,2	13,11,2	15,33,2	17,90,2	19,59,2	21,3,2	23,119,2	25,95,2	27,69,2	29,18,2	31,31,2	33,1,2	35,93,2	37,117,2	39,37,2	41,39,2	43,7,2	45,88,2	47,107,2	49,82,2	51,92,2	53,42,2	55,102,2	57,23,2	59,9,2	61,91,2	63,66,2	65,113,2	67,60,2	69,19,2	71,71,2	73,115,2	75,87,2	77,81,2	79,30,2	81,6,2	83,50,2	85,55,2	87,17,2	89,106,2	91,104,2	93,96,2	95,72,2	97,78,2	99,8,2	101,28,2	103,84,2	105,47,2	107,35,2	109,103,2	111,43,2	113,22,2	115,57,2	117,63,2	119,70,2	121,97,2	123,21,2	125,120,2	127,89,2	129,36,2	131,100,2	133,85,2	135,79,2	137,56,2	139,77,2	141,16,2	145,58,2	151,99,2	157,105,2	163,98,2	169,116,2	177,20,2	185,109,2	193,101,2	201,24,2	209,53,2	219,86,2	229,94,2	239,27,2	249,49,2	259,80,2	273,114,2	289,51,2	305,76,2	325,45,2	345,61,2	365,44,2	385,52,2	409,25,2	443,29,2	479,73,2	519,68,2	569,41,2	625,83,2	681,15,2	835,46,2	837,121,1	
37,32,2	
55,5,2	57,65,2	59,26,2	61,40,2	63,75,2	






15,4,2	17,110,2	19,64,2	33,12,2	35,34,2	37,67,2	39,74,2	41,38,2	43,62,2	57,14,2	65,111,2	71,108,2	79,48,2	
# Incoming
19,(110, 121),6	25,(64, 121),6	35,(4, 21),2	37,(34, 121),6	43,(67, 121),6	49,(32, 121),6	55,(74, 121),6	61,(38, 121),6	67,(62, 121),6	73,(65, 121),6	79,(14, 121),6	85,(26, 121),6	91,(40, 121),6	97,(75, 121),6	103,(111, 121),6	109,(108, 121),6	115,(48, 121),6	121,(12, 120),2	123,(4, 89),2	125,(12, 36),2	127,(12, 100),2	129,(4, 85),2	131,(4, 79),2	133,(12, 56),2	135,(12, 77),2	137,(12, 16),2	139,(4, 58),2	141,(5, 58),4	145,(5, 99),6	151,(5, 105),6	157,(4, 98),6	163,(4, 116),6	169,(12, 20),8	177,(5, 109),8	185,(12, 101),8	193,(5, 24),8	201,(12, 53),6	207,(5, 53),2	209,(12, 86),2	211,(5, 86),8	219,(5, 94),10	229,(5, 27),10	239,(4, 49),10	249,(5, 80),10	259,(4, 114),6	265,(12, 114),8	273,(5, 51),16	289,(4, 76),16	305,(4, 45),20	325,(12, 61),20	345,(4, 44),20	365,(4, 52),20	385,(5, 25),24	409,(12, 29),34	443,(4, 73),14	457,(5, 73),22	479,(4, 68),38	517,(12, 68),2	519,(4, 41),50	569,(12, 83),18	587,(5, 83),38	625,(4, 15),38	663,(12, 15),18	681,(4, 46),6	687,(5, 46),148	
31,(4, 32),4	35,(3, 32),2	
41,(0, 5),14	61,(9, 75),2	






1,(0, 4),14	15,(2, 64),4	19,(0, 12),14	37,(3, 62),4	55,(7, 14),2	57,(1, 111),2	59,(7, 108),2	63,(9, 111),2	65,(9, 108),6	71,(2, 48),6	77,(1, 48),2	
# Outgoing
1,(0, 4),14	15,(2, 64),4	19,(0, 12),14	35,(3, 32),2	37,(3, 62),4	41,(0, 5),14	55,(7, 14),2	57,(1, 111),2	59,(7, 108),2	61,(9, 75),2	63,(9, 111),2	65,(9, 108),6	71,(2, 48),6	77,(1, 48),2	
49,(32, 121),6	
73,(65, 121),6	85,(26, 121),6	91,(40, 121),6	97,(75, 121),6	141,(5, 58),4	145,(5, 99),6	151,(5, 105),6	177,(5, 109),8	193,(5, 24),8	207,(5, 53),2	211,(5, 86),8	219,(5, 94),10	229,(5, 27),10	249,(5, 80),10	273,(5, 51),16	385,(5, 25),24	457,(5, 73),22	587,(5, 83),38	687,(5, 46),148	






19,(110, 121),6	25,(64, 121),6	31,(4, 32),4	35,(4, 21),2	37,(34, 121),6	43,(67, 121),6	55,(74, 121),6	61,(38, 121),6	67,(62, 121),6	79,(14, 121),6	103,(111, 121),6	109,(108, 121),6	115,(48, 121),6	121,(12, 120),2	123,(4, 89),2	125,(12, 36),2	127,(12, 100),2	129,(4, 85),2	131,(4, 79),2	133,(12, 56),2	135,(12, 77),2	137,(12, 16),2	139,(4, 58),2	157,(4, 98),6	163,(4, 116),6	169,(12, 20),8	185,(12, 101),8	201,(12, 53),6	209,(12, 86),2	239,(4, 49),10	259,(4, 114),6	265,(12, 114),8	289,(4, 76),16	305,(4, 45),20	325,(12, 61),20	345,(4, 44),20	365,(4, 52),20	409,(12, 29),34	443,(4, 73),14	479,(4, 68),38	517,(12, 68),2	519,(4, 41),50	569,(12, 83),18	625,(4, 15),38	663,(12, 15),18	681,(4, 46),6	
