63
# CPU
0,21,1	1,4,3	4,18,3	7,7,3	10,9,3	13,14,3	16,5,3	19,20,3	22,16,3	25,19,3	28,17,3	31,6,3	34,13,3	37,11,3	40,8,3	43,15,3	46,2,3	59,1,3	62,0,1	
13,12,3	25,10,3	37,3,3	
# Incoming
16,(12, 2),1	28,(10, 2),4	40,(3, 2),2	42,(3, 1),17	
1,(21, 12),12	13,(21, 10),12	25,(21, 3),12	
# Outgoing
1,(21, 12),12	13,(21, 10),12	25,(21, 3),12	
16,(12, 2),1	28,(10, 2),4	40,(3, 2),2	42,(3, 1),17	
