6082
# CPU
45,5,1	46,47,1	47,108,1	78,190,1	89,10,1	90,161,1	104,53,1	107,84,1	119,133,1	133,15,1	177,20,1	178,142,1	179,91,1	180,101,1	291,49,1	292,57,1	377,106,1	498,110,1	517,70,1	528,90,1	636,128,1	639,124,1	643,130,1	672,42,1	846,180,1	887,200,1	895,50,1	901,99,1	957,88,1	962,94,1	963,45,1	965,120,1	973,145,1	974,139,1	976,149,1	978,186,1	999,194,1	1006,188,1	1007,46,1	1011,60,1	1035,41,1	1037,76,1	1039,152,1	1041,87,1	1050,92,1	1051,93,1	1061,51,1	1153,165,1	1172,167,1	1186,97,1	1199,173,1	1522,182,1	2400,73,1	2415,103,1	2422,86,1	2434,170,1	2447,197,1	2449,81,1	2473,95,1	2478,155,1	2479,35,1	2490,89,1	2500,96,1	2515,116,1	2527,118,1	2533,176,1	2545,192,1	2546,28,1	2552,40,1	2559,43,1	2560,67,1	2590,83,1	2594,114,1	2595,122,1	2603,126,1	2610,136,1	2617,158,1	2618,37,1	2619,39,1	2625,55,1	2629,64,1	2633,98,1	2636,100,1	2646,112,1	2649,184,1	
34,4,1	78,9,1	122,14,1	144,193,1	145,27,1	149,44,1	153,185,1	155,59,1	166,19,1	167,56,1	168,113,1	169,175,1	179,52,1	180,36,1	288,196,1	381,172,1	383,123,1	429,69,1	498,48,1	506,54,1	516,66,1	517,164,1	550,154,1	569,34,1	618,82,1	628,141,1	631,111,1	632,121,1	635,109,1	636,115,1	650,169,1	654,132,1	697,181,1	750,187,1	760,129,1	767,135,1	768,148,1	873,72,1	879,125,1	883,191,1	896,105,1	940,179,1	973,127,1	1025,63,1	1029,75,1	1061,107,1	1087,117,1	1118,138,1	1129,144,1	1160,166,1	1179,79,1	1194,157,1	1241,189,1	1242,199,1	1588,151,1	1612,102,1	1636,119,1	1653,160,1	1754,183,1	
23,3,1	67,8,1	111,13,1	112,74,1	155,18,1	178,24,1	182,150,1	184,153,1	294,38,1	361,177,1	379,78,1	380,171,1	419,134,1	432,137,1	504,71,1	625,163,1	633,68,1	656,61,1	672,147,1	678,198,1	684,159,1	702,162,1	739,168,1	771,174,1	875,58,1	892,29,1	900,65,1	916,25,1	929,156,1	951,195,1	963,104,1	1006,32,1	1092,131,1	1119,140,1	1124,143,1	1487,80,1	1737,178,1	6081,201,1	
12,2,1	56,7,1	100,12,1	101,77,1	144,17,1	145,23,1	216,26,1	358,33,1	894,31,1	1527,146,1	1689,85,1	
0,0,1	1,6,1	2,11,1	3,1,1	4,16,1	216,22,1	515,30,1	652,21,1	1094,62,1	
# Incoming
34,(0, 5),11	47,(2, 46),6	53,(3, 28),5	58,(3, 76),1	63,(2, 50),1	64,(2, 51),1	65,(3, 83),1	66,(3, 94),4	70,(3, 100),2	72,(3, 130),1	73,(3, 139),1	74,(3, 149),3	77,(3, 190),1	78,(0, 10),11	89,(3, 192),1	90,(4, 60),1	91,(8, 70),1	92,(8, 103),2	94,(2, 53),10	104,(2, 84),3	107,(2, 90),3	110,(7, 28),1	112,(2, 133),7	120,(7, 55),1	121,(7, 96),1	122,(0, 15),11	133,(2, 142),5	138,(2, 149),12	150,(3, 152),15	165,(7, 97),1	166,(0, 20),11	177,(8, 130),1	178,(6, 28),1	179,(7, 101),1	180,(6, 46),9	189,(6, 49),102	291,(6, 57),1	292,(6, 67),4	296,(2, 35),39	335,(2, 194),20	355,(7, 50),4	359,(6, 106),12	371,(4, 67),5	376,(7, 106),1	377,(7, 120),1	378,(7, 184),1	379,(9, 43),1	380,(6, 112),1	381,(6, 118),1	382,(12, 97),1	383,(6, 130),26	409,(4, 88),9	418,(4, 99),39	457,(7, 81),5	462,(7, 110),5	467,(11, 37),3	470,(11, 40),13	483,(7, 114),11	494,(7, 128),3	497,(12, 110),1	498,(11, 50),2	500,(11, 51),5	505,(7, 197),3	508,(11, 60),3	511,(9, 70),5	516,(11, 70),1	517,(8, 39),5	522,(9, 83),3	525,(9, 90),3	528,(11, 73),15	543,(11, 86),89	632,(11, 96),1	633,(9, 96),2	635,(12, 128),1	636,(11, 116),1	637,(11, 124),2	639,(11, 130),4	643,(4, 167),22	665,(8, 42),7	672,(11, 152),15	687,(4, 192),20	707,(8, 92),7	714,(8, 112),16	730,(8, 114),10	740,(8, 182),26	766,(12, 81),2	768,(12, 96),2	770,(12, 136),1	771,(11, 180),75	846,(11, 182),20	866,(11, 188),15	881,(12, 118),2	883,(11, 200),4	887,(9, 35),7	894,(1, 50),1	895,(1, 64),3	898,(12, 99),3	901,(1, 81),55	956,(1, 88),1	957,(1, 94),5	962,(13, 45),1	963,(1, 116),1	964,(1, 120),1	965,(9, 145),8	973,(1, 139),1	974,(1, 149),1	975,(13, 149),1	976,(1, 186),2	978,(1, 194),21	999,(1, 197),1	1000,(12, 89),4	1004,(12, 188),2	1006,(16, 46),1	1007,(16, 55),2	1009,(16, 60),2	1011,(9, 37),10	1021,(9, 41),11	1032,(13, 41),3	1035,(13, 76),2	1037,(13, 152),2	1039,(16, 86),1	1040,(16, 87),1	1041,(16, 92),9	1050,(16, 93),1	1051,(16, 96),1	1052,(12, 51),9	1061,(16, 112),22	1083,(13, 97),3	1086,(13, 165),1	1087,(16, 122),4	1091,(8, 165),62	1153,(13, 155),2	1155,(14, 43),2	1157,(16, 155),1	1158,(16, 158),1	1159,(14, 86),1	1160,(16, 167),12	1172,(16, 176),3	1175,(9, 97),11	1186,(9, 103),10	1196,(13, 173),3	1199,(16, 184),9	1208,(2, 182),314	1522,(7, 98),861	2383,(12, 73),17	2400,(12, 103),15	2415,(13, 86),7	2422,(13, 170),12	2434,(13, 197),13	2447,(14, 81),2	2449,(14, 95),24	2473,(14, 155),5	2478,(17, 35),1	2479,(17, 43),2	2481,(17, 83),8	2489,(17, 89),1	2490,(17, 96),10	2500,(17, 98),9	2509,(17, 116),6	2515,(17, 118),12	2527,(17, 176),6	2533,(17, 192),12	2545,(18, 28),1	2546,(18, 39),4	2550,(18, 40),2	2552,(18, 43),7	2559,(18, 67),1	2560,(18, 83),30	2590,(18, 114),4	2594,(18, 122),1	2595,(18, 126),8	2603,(18, 136),7	2610,(18, 158),7	2617,(19, 37),1	2618,(19, 39),1	2619,(19, 55),6	2625,(19, 64),4	2629,(19, 98),4	2633,(19, 100),3	2636,(19, 112),10	2646,(19, 184),3	
23,(0, 4),11	42,(2, 34),5	53,(2, 48),10	63,(3, 36),1	64,(3, 72),1	65,(2, 144),1	66,(5, 82),1	67,(0, 9),11	78,(3, 107),1	79,(3, 144),1	80,(5, 56),4	84,(5, 111),12	96,(5, 123),3	99,(5, 141),8	107,(5, 144),3	110,(5, 185),1	111,(0, 14),11	122,(2, 79),9	131,(5, 164),6	137,(5, 193),7	144,(8, 27),1	145,(8, 44),4	149,(8, 160),1	150,(2, 185),3	153,(7, 183),1	154,(10, 59),1	155,(0, 19),11	166,(7, 52),13	179,(6, 36),1	180,(2, 82),66	246,(2, 151),17	263,(2, 196),25	288,(3, 160),47	335,(10, 69),22	357,(10, 75),7	364,(10, 79),7	371,(6, 111),9	380,(10, 172),1	381,(12, 63),1	382,(6, 123),1	383,(7, 119),29	412,(10, 183),4	416,(15, 54),1	417,(17, 66),1	418,(17, 115),1	419,(6, 135),4	423,(12, 69),6	429,(17, 117),1	430,(20, 105),1	431,(20, 179),1	432,(6, 154),4	436,(6, 160),11	447,(12, 117),6	453,(15, 34),6	459,(6, 166),7	466,(6, 199),1	467,(10, 102),13	480,(20, 115),2	483,(11, 48),15	498,(15, 102),4	505,(11, 54),1	506,(15, 129),4	510,(15, 138),4	515,(11, 66),1	516,(8, 164),1	517,(11, 72),11	528,(7, 154),22	550,(8, 34),19	569,(8, 82),49	618,(8, 119),4	622,(8, 141),6	628,(8, 179),1	629,(8, 199),1	630,(13, 111),1	631,(13, 121),1	632,(13, 157),1	633,(11, 109),2	635,(11, 115),1	636,(8, 151),7	643,(8, 169),7	650,(18, 72),1	651,(11, 132),3	654,(11, 135),5	659,(7, 179),25	684,(8, 181),13	697,(10, 148),15	712,(10, 157),23	735,(10, 187),15	750,(15, 191),4	754,(17, 129),6	766,(18, 135),1	767,(18, 148),1	771,(12, 199),39	810,(13, 63),11	821,(13, 72),52	873,(13, 125),6	881,(11, 191),2	883,(13, 105),13	900,(1, 79),1	901,(17, 75),18	929,(17, 179),11	940,(18, 183),15	965,(1, 127),8	975,(1, 151),1	1011,(16, 63),14	1025,(16, 75),4	1052,(16, 102),6	1058,(16, 107),3	1083,(16, 117),4	1092,(16, 138),26	1124,(16, 144),5	1129,(16, 151),28	1159,(16, 166),1	1160,(20, 79),19	1179,(20, 157),15	1208,(16, 189),33	1241,(16, 199),1	1527,(15, 151),61	1588,(20, 102),24	1612,(20, 119),24	1636,(20, 160),17	1737,(20, 183),17	
12,(0, 3),11	56,(0, 8),11	67,(2, 29),27	100,(0, 13),11	111,(2, 71),1	112,(5, 168),3	115,(5, 198),1	116,(10, 25),1	117,(10, 29),2	119,(2, 147),1	120,(5, 174),11	131,(7, 131),1	144,(0, 18),11	155,(10, 71),3	158,(10, 131),1	159,(10, 150),1	160,(10, 159),1	161,(12, 156),3	164,(15, 134),2	176,(4, 65),1	177,(6, 24),1	178,(4, 68),1	179,(4, 150),3	182,(4, 153),2	184,(4, 162),3	187,(5, 162),37	224,(47, 201),33	257,(108, 201),33	290,(9, 38),4	294,(9, 134),1	295,(9, 168),1	296,(6, 104),63	359,(9, 177),2	361,(9, 198),4	365,(12, 80),8	373,(20, 25),2	375,(20, 134),1	376,(14, 65),2	378,(14, 78),1	379,(20, 171),1	380,(9, 80),15	395,(14, 29),11	406,(19, 58),3	409,(6, 134),10	419,(17, 131),4	423,(6, 137),9	432,(12, 195),14	447,(6, 163),12	459,(9, 159),44	503,(19, 71),1	504,(19, 140),1	506,(11, 58),2	511,(11, 65),4	515,(190, 201),33	550,(7, 163),75	625,(14, 68),8	635,(14, 143),4	639,(20, 143),3	643,(11, 131),8	651,(20, 61),5	659,(11, 143),11	671,(11, 147),1	672,(14, 198),6	678,(20, 159),6	687,(11, 162),15	702,(11, 168),37	739,(11, 174),32	771,(10, 58),31	810,(77, 201),33	843,(14, 58),32	883,(17, 29),9	898,(1, 65),2	900,(19, 25),16	919,(17, 156),10	929,(19, 32),11	940,(17, 195),11	962,(1, 104),1	963,(23, 201),33	1000,(16, 32),6	1032,(193, 201),33	1091,(16, 131),1	1118,(16, 140),1	1119,(16, 143),5	1124,(161, 201),33	1175,(16, 178),24	1199,(53, 201),33	1232,(84, 201),33	1265,(133, 201),33	1298,(27, 201),33	1331,(44, 201),33	1364,(185, 201),33	1397,(59, 201),33	1430,(19, 80),57	1487,(19, 178),36	1523,(56, 201),33	1556,(113, 201),33	1589,(175, 201),33	1653,(20, 178),84	1754,(142, 201),33	1787,(52, 201),33	1820,(91, 201),33	1853,(101, 201),33	1886,(36, 201),33	1919,(22, 201),33	1952,(196, 201),33	1985,(49, 201),33	2018,(57, 201),33	2051,(106, 201),33	2084,(172, 201),33	2117,(123, 201),33	2150,(69, 201),33	2183,(48, 201),33	2216,(110, 201),33	2249,(54, 201),33	2282,(30, 201),33	2315,(66, 201),33	2348,(164, 201),33	2381,(70, 201),33	2415,(26, 201),33	2448,(90, 201),33	2481,(154, 201),33	2545,(33, 201),33	2578,(34, 201),33	2611,(128, 201),33	2649,(82, 201),33	2682,(141, 201),33	2715,(111, 201),33	2748,(121, 201),33	2781,(109, 201),33	2814,(115, 201),33	2847,(124, 201),33	2880,(130, 201),33	2913,(169, 201),33	2946,(21, 201),33	2979,(132, 201),33	3012,(42, 201),33	3045,(181, 201),33	3078,(187, 201),33	3111,(129, 201),33	3144,(135, 201),33	3177,(148, 201),33	3210,(180, 201),33	3243,(72, 201),33	3276,(125, 201),33	3309,(191, 201),33	3342,(200, 201),33	3375,(31, 201),33	3408,(50, 201),33	3441,(105, 201),33	3474,(99, 201),33	3507,(179, 201),33	3540,(88, 201),33	3573,(94, 201),33	3606,(45, 201),33	3639,(120, 201),33	3672,(145, 201),33	3705,(127, 201),33	3738,(139, 201),33	3771,(149, 201),33	3804,(186, 201),33	3837,(194, 201),33	3870,(188, 201),33	3903,(46, 201),33	3936,(60, 201),33	3969,(63, 201),33	4002,(75, 201),33	4035,(41, 201),33	4068,(76, 201),33	4101,(152, 201),33	4134,(87, 201),33	4167,(92, 201),33	4200,(93, 201),33	4233,(51, 201),33	4266,(107, 201),33	4299,(117, 201),33	4332,(62, 201),33	4365,(138, 201),33	4398,(144, 201),33	4431,(165, 201),33	4464,(166, 201),33	4497,(167, 201),33	4530,(79, 201),33	4563,(97, 201),33	4596,(157, 201),33	4629,(173, 201),33	4662,(189, 201),33	4695,(199, 201),33	4728,(182, 201),33	4761,(146, 201),33	4794,(151, 201),33	4827,(102, 201),33	4860,(119, 201),33	4893,(160, 201),33	4926,(85, 201),33	4959,(183, 201),33	4992,(73, 201),33	5025,(103, 201),33	5058,(86, 201),33	5091,(170, 201),33	5124,(197, 201),33	5157,(81, 201),33	5190,(95, 201),33	5223,(155, 201),33	5256,(35, 201),33	5289,(89, 201),33	5322,(96, 201),33	5355,(116, 201),33	5388,(118, 201),33	5421,(176, 201),33	5454,(192, 201),33	5487,(28, 201),33	5520,(40, 201),33	5553,(43, 201),33	5586,(67, 201),33	5619,(83, 201),33	5652,(114, 201),33	5685,(122, 201),33	5718,(126, 201),33	5751,(136, 201),33	5784,(158, 201),33	5817,(37, 201),33	5850,(39, 201),33	5883,(55, 201),33	5916,(64, 201),33	5949,(98, 201),33	5982,(100, 201),33	6015,(112, 201),33	6048,(184, 201),33	
1,(0, 2),11	45,(0, 7),11	56,(5, 26),1	59,(3, 77),4	63,(4, 33),17	80,(8, 146),1	89,(0, 12),11	100,(8, 85),28	128,(13, 23),4	133,(0, 17),11	144,(10, 23),1	145,(10, 33),7	152,(15, 33),1	165,(13, 85),11	181,(13, 31),24	205,(18, 26),11	290,(15, 85),43	333,(19, 33),25	670,(11, 146),1	887,(1, 31),7	1029,(16, 85),10	1298,(15, 146),229	1527,(18, 85),162	
13,(2, 21),23	36,(2, 30),6	57,(5, 62),1	91,(4, 62),85	176,(15, 30),1	178,(13, 22),3	187,(14, 30),3	190,(19, 22),26	216,(18, 30),1	217,(19, 30),60	335,(8, 30),180	636,(17, 21),16	802,(10, 62),292	
# Outgoing
56,(5, 26),1	57,(5, 62),1	66,(5, 82),1	80,(5, 56),4	84,(5, 111),12	96,(5, 123),3	99,(5, 141),8	107,(5, 144),3	110,(5, 185),1	112,(5, 168),3	115,(5, 198),1	116,(10, 25),1	117,(10, 29),2	120,(5, 174),11	131,(5, 164),6	137,(5, 193),7	144,(10, 23),1	145,(10, 33),7	152,(15, 33),1	154,(10, 59),1	155,(10, 71),3	158,(10, 131),1	159,(10, 150),1	160,(10, 159),1	164,(15, 134),2	176,(15, 30),1	187,(5, 162),37	224,(47, 201),33	257,(108, 201),33	290,(15, 85),43	335,(10, 69),22	357,(10, 75),7	364,(10, 79),7	373,(20, 25),2	375,(20, 134),1	379,(20, 171),1	380,(10, 172),1	412,(10, 183),4	416,(15, 54),1	430,(20, 105),1	431,(20, 179),1	453,(15, 34),6	467,(10, 102),13	480,(20, 115),2	498,(15, 102),4	506,(15, 129),4	510,(15, 138),4	515,(190, 201),33	639,(20, 143),3	651,(20, 61),5	678,(20, 159),6	697,(10, 148),15	712,(10, 157),23	735,(10, 187),15	750,(15, 191),4	771,(10, 58),31	802,(10, 62),292	1124,(161, 201),33	1160,(20, 79),19	1179,(20, 157),15	1199,(53, 201),33	1232,(84, 201),33	1265,(133, 201),33	1298,(15, 146),229	1527,(15, 151),61	1588,(20, 102),24	1612,(20, 119),24	1636,(20, 160),17	1653,(20, 178),84	1737,(20, 183),17	1754,(142, 201),33	1820,(91, 201),33	1853,(101, 201),33	1985,(49, 201),33	2018,(57, 201),33	2051,(106, 201),33	2216,(110, 201),33	2381,(70, 201),33	2448,(90, 201),33	2611,(128, 201),33	2847,(124, 201),33	2880,(130, 201),33	3012,(42, 201),33	3210,(180, 201),33	3342,(200, 201),33	3408,(50, 201),33	3474,(99, 201),33	3540,(88, 201),33	3573,(94, 201),33	3606,(45, 201),33	3639,(120, 201),33	3672,(145, 201),33	3738,(139, 201),33	3771,(149, 201),33	3804,(186, 201),33	3837,(194, 201),33	3870,(188, 201),33	3903,(46, 201),33	3936,(60, 201),33	4035,(41, 201),33	4068,(76, 201),33	4101,(152, 201),33	4134,(87, 201),33	4167,(92, 201),33	4200,(93, 201),33	4233,(51, 201),33	4431,(165, 201),33	4497,(167, 201),33	4563,(97, 201),33	4629,(173, 201),33	4728,(182, 201),33	4992,(73, 201),33	5025,(103, 201),33	5058,(86, 201),33	5091,(170, 201),33	5124,(197, 201),33	5157,(81, 201),33	5190,(95, 201),33	5223,(155, 201),33	5256,(35, 201),33	5289,(89, 201),33	5322,(96, 201),33	5355,(116, 201),33	5388,(118, 201),33	5421,(176, 201),33	5454,(192, 201),33	5487,(28, 201),33	5520,(40, 201),33	5553,(43, 201),33	5586,(67, 201),33	5619,(83, 201),33	5652,(114, 201),33	5685,(122, 201),33	5718,(126, 201),33	5751,(136, 201),33	5784,(158, 201),33	5817,(37, 201),33	5850,(39, 201),33	5883,(55, 201),33	5916,(64, 201),33	5949,(98, 201),33	5982,(100, 201),33	6015,(112, 201),33	6048,(184, 201),33	
63,(4, 33),17	90,(4, 60),1	91,(4, 62),85	176,(4, 65),1	178,(4, 68),1	179,(4, 150),3	182,(4, 153),2	184,(4, 162),3	187,(14, 30),3	190,(19, 22),26	217,(19, 30),60	290,(9, 38),4	294,(9, 134),1	295,(9, 168),1	333,(19, 33),25	359,(9, 177),2	361,(9, 198),4	371,(4, 67),5	376,(14, 65),2	378,(14, 78),1	379,(9, 43),1	380,(9, 80),15	395,(14, 29),11	406,(19, 58),3	409,(4, 88),9	418,(4, 99),39	459,(9, 159),44	503,(19, 71),1	504,(19, 140),1	511,(9, 70),5	522,(9, 83),3	525,(9, 90),3	625,(14, 68),8	633,(9, 96),2	635,(14, 143),4	643,(4, 167),22	672,(14, 198),6	687,(4, 192),20	843,(14, 58),32	887,(9, 35),7	900,(19, 25),16	929,(19, 32),11	965,(9, 145),8	1011,(9, 37),10	1021,(9, 41),11	1032,(193, 201),33	1155,(14, 43),2	1159,(14, 86),1	1175,(9, 97),11	1186,(9, 103),10	1298,(27, 201),33	1331,(44, 201),33	1364,(185, 201),33	1397,(59, 201),33	1430,(19, 80),57	1487,(19, 178),36	1523,(56, 201),33	1556,(113, 201),33	1589,(175, 201),33	1787,(52, 201),33	1886,(36, 201),33	1952,(196, 201),33	2084,(172, 201),33	2117,(123, 201),33	2150,(69, 201),33	2183,(48, 201),33	2249,(54, 201),33	2315,(66, 201),33	2348,(164, 201),33	2447,(14, 81),2	2449,(14, 95),24	2473,(14, 155),5	2481,(154, 201),33	2578,(34, 201),33	2617,(19, 37),1	2618,(19, 39),1	2619,(19, 55),6	2625,(19, 64),4	2629,(19, 98),4	2633,(19, 100),3	2636,(19, 112),10	2646,(19, 184),3	2649,(82, 201),33	2682,(141, 201),33	2715,(111, 201),33	2748,(121, 201),33	2781,(109, 201),33	2814,(115, 201),33	2913,(169, 201),33	2979,(132, 201),33	3045,(181, 201),33	3078,(187, 201),33	3111,(129, 201),33	3144,(135, 201),33	3177,(148, 201),33	3243,(72, 201),33	3276,(125, 201),33	3309,(191, 201),33	3441,(105, 201),33	3507,(179, 201),33	3705,(127, 201),33	3969,(63, 201),33	4002,(75, 201),33	4266,(107, 201),33	4299,(117, 201),33	4365,(138, 201),33	4398,(144, 201),33	4464,(166, 201),33	4530,(79, 201),33	4596,(157, 201),33	4662,(189, 201),33	4695,(199, 201),33	4794,(151, 201),33	4827,(102, 201),33	4860,(119, 201),33	4893,(160, 201),33	4959,(183, 201),33	
53,(3, 28),5	58,(3, 76),1	59,(3, 77),4	63,(3, 36),1	64,(3, 72),1	65,(3, 83),1	66,(3, 94),4	70,(3, 100),2	72,(3, 130),1	73,(3, 139),1	74,(3, 149),3	77,(3, 190),1	78,(3, 107),1	79,(3, 144),1	80,(8, 146),1	89,(3, 192),1	91,(8, 70),1	92,(8, 103),2	100,(8, 85),28	128,(13, 23),4	144,(8, 27),1	145,(8, 44),4	149,(8, 160),1	150,(3, 152),15	165,(13, 85),11	177,(8, 130),1	178,(13, 22),3	181,(13, 31),24	205,(18, 26),11	216,(18, 30),1	288,(3, 160),47	335,(8, 30),180	516,(8, 164),1	517,(8, 39),5	550,(8, 34),19	569,(8, 82),49	618,(8, 119),4	622,(8, 141),6	628,(8, 179),1	629,(8, 199),1	630,(13, 111),1	631,(13, 121),1	632,(13, 157),1	636,(8, 151),7	643,(8, 169),7	650,(18, 72),1	665,(8, 42),7	684,(8, 181),13	707,(8, 92),7	714,(8, 112),16	730,(8, 114),10	740,(8, 182),26	766,(18, 135),1	767,(18, 148),1	810,(13, 63),11	821,(13, 72),52	873,(13, 125),6	883,(13, 105),13	940,(18, 183),15	962,(13, 45),1	975,(13, 149),1	1032,(13, 41),3	1035,(13, 76),2	1037,(13, 152),2	1083,(13, 97),3	1086,(13, 165),1	1091,(8, 165),62	1153,(13, 155),2	1196,(13, 173),3	1527,(18, 85),162	2415,(13, 86),7	2422,(13, 170),12	2434,(13, 197),13	2545,(18, 28),1	2546,(18, 39),4	2550,(18, 40),2	2552,(18, 43),7	2559,(18, 67),1	2560,(18, 83),30	2590,(18, 114),4	2594,(18, 122),1	2595,(18, 126),8	2603,(18, 136),7	2610,(18, 158),7	
13,(2, 21),23	36,(2, 30),6	42,(2, 34),5	47,(2, 46),6	53,(2, 48),10	63,(2, 50),1	64,(2, 51),1	65,(2, 144),1	67,(2, 29),27	94,(2, 53),10	104,(2, 84),3	107,(2, 90),3	110,(7, 28),1	111,(2, 71),1	112,(2, 133),7	119,(2, 147),1	120,(7, 55),1	121,(7, 96),1	122,(2, 79),9	131,(7, 131),1	133,(2, 142),5	138,(2, 149),12	150,(2, 185),3	153,(7, 183),1	161,(12, 156),3	165,(7, 97),1	166,(7, 52),13	179,(7, 101),1	180,(2, 82),66	246,(2, 151),17	263,(2, 196),25	296,(2, 35),39	335,(2, 194),20	355,(7, 50),4	365,(12, 80),8	376,(7, 106),1	377,(7, 120),1	378,(7, 184),1	381,(12, 63),1	382,(12, 97),1	383,(7, 119),29	417,(17, 66),1	418,(17, 115),1	419,(17, 131),4	423,(12, 69),6	429,(17, 117),1	432,(12, 195),14	447,(12, 117),6	457,(7, 81),5	462,(7, 110),5	483,(7, 114),11	494,(7, 128),3	497,(12, 110),1	505,(7, 197),3	528,(7, 154),22	550,(7, 163),75	635,(12, 128),1	636,(17, 21),16	659,(7, 179),25	754,(17, 129),6	766,(12, 81),2	768,(12, 96),2	770,(12, 136),1	771,(12, 199),39	810,(77, 201),33	881,(12, 118),2	883,(17, 29),9	898,(12, 99),3	901,(17, 75),18	919,(17, 156),10	929,(17, 179),11	940,(17, 195),11	963,(23, 201),33	1000,(12, 89),4	1004,(12, 188),2	1052,(12, 51),9	1208,(2, 182),314	1522,(7, 98),861	2383,(12, 73),17	2400,(12, 103),15	2415,(26, 201),33	2478,(17, 35),1	2479,(17, 43),2	2481,(17, 83),8	2489,(17, 89),1	2490,(17, 96),10	2500,(17, 98),9	2509,(17, 116),6	2515,(17, 118),12	2527,(17, 176),6	2533,(17, 192),12	2545,(33, 201),33	3375,(31, 201),33	4761,(146, 201),33	4926,(85, 201),33	
1,(0, 2),11	12,(0, 3),11	23,(0, 4),11	34,(0, 5),11	45,(0, 7),11	56,(0, 8),11	67,(0, 9),11	78,(0, 10),11	89,(0, 12),11	100,(0, 13),11	111,(0, 14),11	122,(0, 15),11	133,(0, 17),11	144,(0, 18),11	155,(0, 19),11	166,(0, 20),11	177,(6, 24),1	178,(6, 28),1	179,(6, 36),1	180,(6, 46),9	189,(6, 49),102	291,(6, 57),1	292,(6, 67),4	296,(6, 104),63	359,(6, 106),12	371,(6, 111),9	380,(6, 112),1	381,(6, 118),1	382,(6, 123),1	383,(6, 130),26	409,(6, 134),10	419,(6, 135),4	423,(6, 137),9	432,(6, 154),4	436,(6, 160),11	447,(6, 163),12	459,(6, 166),7	466,(6, 199),1	467,(11, 37),3	470,(11, 40),13	483,(11, 48),15	498,(11, 50),2	500,(11, 51),5	505,(11, 54),1	506,(11, 58),2	508,(11, 60),3	511,(11, 65),4	515,(11, 66),1	516,(11, 70),1	517,(11, 72),11	528,(11, 73),15	543,(11, 86),89	632,(11, 96),1	633,(11, 109),2	635,(11, 115),1	636,(11, 116),1	637,(11, 124),2	639,(11, 130),4	643,(11, 131),8	651,(11, 132),3	654,(11, 135),5	659,(11, 143),11	670,(11, 146),1	671,(11, 147),1	672,(11, 152),15	687,(11, 162),15	702,(11, 168),37	739,(11, 174),32	771,(11, 180),75	846,(11, 182),20	866,(11, 188),15	881,(11, 191),2	883,(11, 200),4	887,(1, 31),7	894,(1, 50),1	895,(1, 64),3	898,(1, 65),2	900,(1, 79),1	901,(1, 81),55	956,(1, 88),1	957,(1, 94),5	962,(1, 104),1	963,(1, 116),1	964,(1, 120),1	965,(1, 127),8	973,(1, 139),1	974,(1, 149),1	975,(1, 151),1	976,(1, 186),2	978,(1, 194),21	999,(1, 197),1	1000,(16, 32),6	1006,(16, 46),1	1007,(16, 55),2	1009,(16, 60),2	1011,(16, 63),14	1025,(16, 75),4	1029,(16, 85),10	1039,(16, 86),1	1040,(16, 87),1	1041,(16, 92),9	1050,(16, 93),1	1051,(16, 96),1	1052,(16, 102),6	1058,(16, 107),3	1061,(16, 112),22	1083,(16, 117),4	1087,(16, 122),4	1091,(16, 131),1	1092,(16, 138),26	1118,(16, 140),1	1119,(16, 143),5	1124,(16, 144),5	1129,(16, 151),28	1157,(16, 155),1	1158,(16, 158),1	1159,(16, 166),1	1160,(16, 167),12	1172,(16, 176),3	1175,(16, 178),24	1199,(16, 184),9	1208,(16, 189),33	1241,(16, 199),1	1919,(22, 201),33	2282,(30, 201),33	2946,(21, 201),33	4332,(62, 201),33	
