7294
# CPU
25,4,3	28,16,3	31,20,3	61,8,3	133,12,3	217,40,3	285,24,3	345,28,3	573,32,3	1213,36,3	
17,3,3	57,7,3	113,11,3	137,19,3	189,39,3	341,27,3	501,31,3	581,35,3	1189,15,3	1197,23,3	
9,2,3	12,14,3	15,38,3	53,6,3	185,26,3	1173,10,3	1201,34,3	1265,18,3	1281,22,3	1293,30,3	
0,0,1	1,1,3	4,9,3	7,33,3	10,37,3	1065,5,3	1165,13,3	1177,21,3	1201,25,3	1205,17,3	1285,29,3	7293,41,1	
# Incoming
17,(0, 4),8	57,(1, 8),4	113,(1, 12),20	189,(1, 40),28	217,(2, 24),68	341,(2, 28),4	501,(2, 32),72	1201,(3, 36),12	
9,(0, 3),8	53,(1, 7),4	61,(1, 11),52	133,(1, 19),4	185,(1, 39),4	285,(2, 27),56	345,(2, 31),156	573,(2, 35),8	1165,(4, 15),24	1189,(4, 23),8	
1,(0, 2),8	25,(1, 6),28	137,(1, 26),48	1065,(3, 10),108	1197,(4, 34),4	1205,(4, 18),60	1265,(4, 22),16	1285,(4, 30),8	
581,(14, 41),240	821,(38, 41),240	1061,(3, 5),4	1065,(4, 13),100	1173,(3, 21),4	1177,(3, 25),24	1201,(4, 17),4	1281,(4, 29),4	1293,(16, 41),240	1533,(20, 41),240	1773,(6, 41),240	2013,(7, 41),240	2253,(8, 41),240	2493,(11, 41),240	2733,(12, 41),240	2973,(19, 41),240	3213,(26, 41),240	3453,(39, 41),240	3693,(40, 41),240	3933,(24, 41),240	4173,(27, 41),240	4413,(28, 41),240	4653,(31, 41),240	4893,(32, 41),240	5133,(35, 41),240	5373,(10, 41),240	5613,(15, 41),240	5853,(23, 41),240	6093,(34, 41),240	6333,(36, 41),240	6573,(18, 41),240	6813,(22, 41),240	7053,(30, 41),240	
# Outgoing
1065,(4, 13),100	1165,(4, 15),24	1189,(4, 23),8	1197,(4, 34),4	1201,(4, 17),4	1205,(4, 18),60	1265,(4, 22),16	1281,(4, 29),4	1285,(4, 30),8	1293,(16, 41),240	1533,(20, 41),240	2253,(8, 41),240	2733,(12, 41),240	3693,(40, 41),240	3933,(24, 41),240	4413,(28, 41),240	4893,(32, 41),240	6333,(36, 41),240	
1061,(3, 5),4	1065,(3, 10),108	1173,(3, 21),4	1177,(3, 25),24	1201,(3, 36),12	2013,(7, 41),240	2493,(11, 41),240	2973,(19, 41),240	3453,(39, 41),240	4173,(27, 41),240	4653,(31, 41),240	5133,(35, 41),240	5613,(15, 41),240	5853,(23, 41),240	
217,(2, 24),68	285,(2, 27),56	341,(2, 28),4	345,(2, 31),156	501,(2, 32),72	573,(2, 35),8	581,(14, 41),240	821,(38, 41),240	1773,(6, 41),240	3213,(26, 41),240	5373,(10, 41),240	6093,(34, 41),240	6573,(18, 41),240	6813,(22, 41),240	7053,(30, 41),240	
1,(0, 2),8	9,(0, 3),8	17,(0, 4),8	25,(1, 6),28	53,(1, 7),4	57,(1, 8),4	61,(1, 11),52	113,(1, 12),20	133,(1, 19),4	137,(1, 26),48	185,(1, 39),4	189,(1, 40),28	
