578
# CPU
0,41,1	1,28,16	17,24,16	33,5,16	49,39,16	65,37,16	81,36,16	97,14,16	113,10,16	129,11,16	145,6,16	161,35,16	177,18,16	193,19,16	209,9,16	225,34,16	241,13,16	257,27,16	273,33,16	289,26,16	305,22,16	321,38,16	337,40,16	353,23,16	369,31,16	385,12,16	401,20,16	417,25,16	433,29,16	449,17,16	465,32,16	481,15,16	497,8,16	513,2,16	529,4,16	545,1,16	561,3,16	577,0,1	
103,16,16	205,21,16	
307,7,16	






409,30,16	
# Incoming
221,(21, 2),9	230,(16, 4),3	323,(7, 1),33	425,(30, 4),15	440,(30, 3),54	
1,(41, 16),102	103,(41, 21),102	
205,(41, 7),102	






307,(41, 30),102	
# Outgoing
1,(41, 16),102	103,(41, 21),102	205,(41, 7),102	307,(41, 30),102	
221,(21, 2),9	230,(16, 4),3	
323,(7, 1),33	






425,(30, 4),15	440,(30, 3),54	
