1381
# CPU
0,0,1	1,6,3	4,4,3	7,8,3	10,3,3	13,79,3	16,65,3	19,7,3	22,43,3	25,46,3	28,80,3	31,53,3	34,2,3	37,25,3	40,61,3	43,66,3	46,75,3	49,5,3	52,20,3	55,28,3	58,23,3	61,13,3	64,70,3	67,12,3	70,56,3	73,45,3	76,19,3	79,58,3	82,26,3	85,39,3	88,49,3	91,35,3	94,14,3	97,37,3	100,52,3	103,57,3	106,36,3	109,11,3	112,38,3	115,77,3	118,22,3	121,76,3	124,31,3	127,18,3	130,69,3	133,48,3	136,63,3	139,27,3	142,59,3	145,33,3	148,21,3	151,42,3	154,54,3	157,40,3	160,50,3	176,32,3	192,51,3	212,17,3	244,74,3	280,34,3	320,68,3	372,30,3	480,72,3	620,73,3	840,10,3	1156,71,3	1380,81,1	
25,1,3	37,15,3	61,41,3	85,55,3	121,29,3	157,78,3	197,24,3	237,47,3	277,62,3	341,67,3	405,64,3	481,60,3	617,16,3	761,44,3	1085,9,3	

# Incoming
28,(1, 38),4	32,(1, 77),4	36,(1, 22),4	40,(1, 76),4	44,(1, 31),4	48,(1, 18),4	52,(1, 69),4	56,(1, 48),8	64,(1, 63),8	72,(1, 27),8	80,(1, 59),8	88,(1, 33),8	96,(1, 21),12	108,(1, 42),12	120,(1, 54),12	132,(1, 40),12	144,(1, 50),16	160,(1, 32),16	176,(1, 51),16	192,(1, 17),20	212,(1, 74),32	244,(1, 34),36	280,(1, 68),40	320,(1, 30),52	372,(1, 72),108	480,(1, 73),140	620,(1, 10),220	840,(1, 71),316	1156,(15, 81),16	1172,(41, 81),16	1188,(55, 81),16	1204,(29, 81),16	1220,(78, 81),16	1236,(24, 81),16	1252,(47, 81),16	1268,(62, 81),16	1284,(67, 81),16	1300,(64, 81),16	1316,(60, 81),16	1332,(16, 81),16	1348,(44, 81),16	1364,(9, 81),16	
1,(0, 1),24	25,(6, 15),4	29,(3, 15),4	33,(7, 15),4	37,(4, 41),16	53,(8, 41),4	57,(7, 41),4	61,(3, 55),24	85,(4, 29),4	89,(8, 29),4	93,(7, 29),4	97,(2, 29),24	121,(6, 78),32	153,(3, 78),4	157,(4, 24),4	161,(7, 24),20	181,(5, 24),16	197,(4, 47),12	209,(8, 47),4	213,(5, 47),24	237,(6, 62),20	257,(4, 62),4	261,(8, 62),16	277,(4, 67),12	289,(8, 67),52	341,(4, 64),4	345,(7, 64),52	397,(5, 64),8	405,(6, 60),48	453,(8, 60),8	461,(2, 60),16	477,(5, 60),4	481,(6, 16),72	553,(2, 16),28	581,(5, 16),36	617,(4, 44),40	657,(8, 44),4	661,(3, 44),4	665,(7, 44),4	669,(2, 44),8	677,(5, 44),84	761,(6, 9),16	777,(4, 9),164	941,(8, 9),24	965,(3, 9),40	1005,(7, 9),16	1021,(2, 9),64	

# Outgoing
1,(0, 1),24	25,(6, 15),4	29,(3, 15),4	33,(7, 15),4	37,(4, 41),16	53,(8, 41),4	57,(7, 41),4	61,(3, 55),24	85,(4, 29),4	89,(8, 29),4	93,(7, 29),4	97,(2, 29),24	121,(6, 78),32	153,(3, 78),4	157,(4, 24),4	161,(7, 24),20	181,(5, 24),16	197,(4, 47),12	209,(8, 47),4	213,(5, 47),24	237,(6, 62),20	257,(4, 62),4	261,(8, 62),16	277,(4, 67),12	289,(8, 67),52	341,(4, 64),4	345,(7, 64),52	397,(5, 64),8	405,(6, 60),48	453,(8, 60),8	461,(2, 60),16	477,(5, 60),4	481,(6, 16),72	553,(2, 16),28	581,(5, 16),36	617,(4, 44),40	657,(8, 44),4	661,(3, 44),4	665,(7, 44),4	669,(2, 44),8	677,(5, 44),84	761,(6, 9),16	777,(4, 9),164	941,(8, 9),24	965,(3, 9),40	1005,(7, 9),16	1021,(2, 9),64	
28,(1, 38),4	32,(1, 77),4	36,(1, 22),4	40,(1, 76),4	44,(1, 31),4	48,(1, 18),4	52,(1, 69),4	56,(1, 48),8	64,(1, 63),8	72,(1, 27),8	80,(1, 59),8	88,(1, 33),8	96,(1, 21),12	108,(1, 42),12	120,(1, 54),12	132,(1, 40),12	144,(1, 50),16	160,(1, 32),16	176,(1, 51),16	192,(1, 17),20	212,(1, 74),32	244,(1, 34),36	280,(1, 68),40	320,(1, 30),52	372,(1, 72),108	480,(1, 73),140	620,(1, 10),220	840,(1, 71),316	1156,(15, 81),16	1172,(41, 81),16	1188,(55, 81),16	1204,(29, 81),16	1220,(78, 81),16	1236,(24, 81),16	1252,(47, 81),16	1268,(62, 81),16	1284,(67, 81),16	1300,(64, 81),16	1316,(60, 81),16	1332,(16, 81),16	1348,(44, 81),16	1364,(9, 81),16	

