2550
# CPU
13,3,21	34,6,21	55,9,21	76,12,21	97,61,21	288,85,21	309,88,21	330,106,21	351,25,21	461,23,21	715,49,21	999,97,21	1033,100,21	1138,34,21	1210,40,21	1272,67,21	1419,17,21	1440,31,21	1461,79,21	1482,52,21	1503,64,21	1524,82,21	1545,91,21	1566,103,21	1587,109,21	1608,94,21	1629,118,21	1650,70,21	1671,15,21	1692,21,21	1713,37,21	1734,43,21	1755,46,21	1776,55,21	1797,58,21	1818,73,21	1839,76,21	1860,115,21	1881,28,21	1902,112,21	
7,2,21	28,5,21	49,8,21	70,11,21	91,111,21	1137,20,21	1158,54,21	1179,39,21	1200,45,21	1221,75,21	1267,102,21	1288,108,21	1309,48,21	1368,105,21	1389,120,21	1410,16,21	1431,36,21	1452,60,21	1473,63,21	1494,87,21	1515,90,21	1536,30,21	1557,42,21	1578,51,21	1599,57,21	1620,66,21	1641,81,21	1662,84,21	1683,93,21	1704,99,21	1905,117,21	1926,14,21	1947,22,21	1968,24,21	1989,27,21	2010,33,21	2031,69,21	2052,72,21	2073,78,21	2094,96,21	2115,114,21	
0,0,1	1,10,21	22,1,21	43,7,21	64,4,21	85,62,21	106,32,21	178,119,21	341,53,21	376,89,21	419,86,21	440,104,21	461,68,21	482,80,21	684,44,21	880,65,21	905,83,21	926,95,21	968,98,21	1121,110,21	1142,13,21	1163,41,21	1184,74,21	1205,113,21	1226,26,21	1247,38,21	1268,50,21	1289,59,21	1310,77,21	1331,107,21	1352,18,21	1389,19,21	1410,29,21	1431,35,21	1452,47,21	1473,92,21	1494,101,21	1515,116,21	1536,56,21	1557,71,21	2549,121,1	
# Incoming
7,(0, 3),6	19,(0, 6),6	31,(0, 9),6	43,(0, 12),6	49,(10, 17),1	50,(2, 23),1	51,(10, 31),134	185,(2, 31),1	186,(2, 82),2	188,(5, 49),1	189,(5, 106),1	190,(10, 37),4	194,(8, 37),1	195,(10, 40),9	204,(10, 43),31	235,(2, 40),13	248,(8, 49),1	249,(10, 55),9	258,(10, 76),9	267,(2, 55),10	278,(10, 82),5	283,(10, 85),5	289,(10, 100),9	298,(2, 88),4	302,(10, 106),1	303,(10, 115),3	306,(2, 25),17	323,(2, 52),17	340,(2, 58),12	352,(2, 73),55	407,(2, 76),5	412,(2, 79),24	436,(2, 94),8	444,(5, 21),11	455,(5, 23),6	642,(5, 40),8	712,(1, 40),2	714,(1, 49),1	715,(1, 76),1	716,(1, 79),6	722,(7, 79),1	786,(5, 64),10	880,(5, 73),8	905,(5, 91),4	909,(5, 97),90	999,(5, 100),34	1107,(1, 34),31	1138,(5, 109),4	1142,(5, 118),24	1166,(8, 17),6	1208,(8, 40),2	1210,(8, 46),6	1269,(8, 67),3	1283,(7, 15),2	1285,(7, 17),134	1419,(8, 115),1	1420,(11, 46),3	1423,(11, 115),2	1427,(7, 31),7	1434,(8, 79),18	1452,(11, 52),5	1463,(7, 64),9	1474,(7, 70),9	1491,(7, 82),3	1498,(7, 91),12	1513,(7, 94),1	1514,(11, 70),13	1532,(7, 103),11	1543,(7, 109),4	1547,(11, 94),8	1559,(7, 118),1	1560,(8, 70),39	1599,(4, 15),16	1615,(4, 21),1	1616,(4, 28),39	1655,(4, 37),2	1657,(4, 43),1	1658,(4, 46),1	1659,(4, 55),11	1670,(4, 58),36	1706,(4, 73),36	1742,(4, 76),19	1761,(4, 115),1	1762,(11, 28),52	1814,(11, 112),18	
1,(0, 2),6	13,(0, 5),6	25,(0, 8),6	37,(0, 11),6	50,(10, 24),1	185,(10, 33),5	190,(3, 16),1	194,(10, 39),1	195,(3, 14),12	235,(10, 51),13	248,(10, 54),1	260,(3, 90),1	267,(10, 78),10	277,(10, 81),1	278,(3, 120),2	280,(6, 14),1	281,(6, 22),5	286,(6, 24),2	288,(10, 90),1	289,(6, 30),1	290,(6, 42),1	291,(6, 81),3	294,(6, 105),1	295,(9, 22),1	298,(10, 102),4	306,(10, 117),405	711,(10, 120),1	712,(3, 102),11	723,(1, 16),6	729,(1, 20),1	730,(1, 22),14	744,(1, 24),1	745,(1, 27),358	1103,(1, 30),4	1107,(6, 51),7	1114,(6, 66),13	1127,(6, 114),2	1129,(9, 16),2	1131,(9, 20),6	1137,(9, 54),1	1138,(1, 39),5	1143,(1, 45),11	1154,(1, 48),8	1162,(1, 57),1	1163,(1, 66),2	1165,(1, 69),7	1172,(1, 72),5	1177,(1, 75),9	1186,(1, 90),1	1187,(1, 93),76	1263,(1, 99),1	1264,(1, 102),3	1267,(1, 108),4	1271,(1, 120),12	1283,(9, 48),9	1292,(9, 63),18	1310,(9, 66),1	1311,(9, 69),2	1313,(9, 81),54	1367,(9, 105),1	1368,(9, 114),9	1377,(9, 120),1	1378,(12, 16),4	1382,(12, 36),5	1387,(12, 60),1	1388,(12, 63),1	1389,(12, 66),3	1392,(12, 81),8	1400,(12, 84),2	1402,(12, 87),1	1403,(12, 90),4	1407,(12, 114),4	1419,(7, 22),1	1420,(7, 24),3	1423,(7, 30),4	1434,(7, 42),26	1460,(7, 51),1	1461,(7, 57),2	1472,(7, 66),2	1483,(7, 72),4	1487,(7, 78),2	1489,(7, 81),2	1494,(7, 84),4	1510,(7, 93),3	1514,(7, 96),1	1515,(7, 99),17	1547,(7, 114),12	1559,(9, 96),65	1624,(9, 117),281	1905,(4, 14),1	1906,(4, 22),3	1909,(4, 24),2	1911,(4, 27),1	1912,(4, 33),16	1928,(4, 69),2	1930,(4, 72),1	1931,(4, 78),43	1974,(4, 96),2	1976,(4, 114),5	
28,(2, 13),10	38,(2, 19),11	49,(2, 62),1	51,(2, 38),2	53,(2, 50),30	83,(2, 56),4	87,(2, 59),4	91,(2, 71),25	116,(2, 74),9	125,(2, 77),27	152,(2, 95),1	153,(2, 104),1	154,(2, 119),24	178,(3, 13),10	188,(3, 18),1	189,(3, 44),1	190,(5, 92),1	191,(3, 59),3	194,(3, 86),1	195,(5, 13),8	203,(5, 26),3	206,(8, 89),1	207,(3, 26),11	218,(3, 38),6	224,(3, 41),17	241,(3, 50),6	247,(3, 53),11	258,(3, 68),2	260,(8, 104),1	261,(3, 92),12	273,(3, 101),1	274,(6, 13),3	277,(5, 18),12	289,(5, 19),7	296,(6, 18),1	297,(6, 26),3	300,(6, 29),15	315,(6, 35),2	317,(6, 41),9	326,(6, 44),13	339,(6, 47),1	340,(6, 53),1	341,(6, 56),5	346,(6, 68),8	354,(6, 80),13	367,(6, 89),9	376,(6, 92),8	384,(6, 101),1	385,(6, 116),2	387,(9, 13),1	388,(9, 19),1	389,(9, 29),7	396,(9, 65),4	400,(9, 68),17	417,(9, 74),1	418,(9, 86),1	419,(9, 98),1	420,(9, 101),8	428,(9, 104),2	430,(9, 110),6	436,(9, 116),1	437,(12, 13),1	438,(12, 47),1	439,(12, 50),7	446,(12, 59),1	447,(12, 68),11	458,(12, 71),1	459,(12, 80),2	461,(5, 35),181	642,(12, 74),4	646,(12, 107),3	649,(12, 113),1	650,(5, 44),34	684,(5, 47),5	689,(5, 50),97	786,(12, 83),9	795,(12, 116),1	796,(5, 65),84	888,(5, 83),17	905,(12, 95),17	922,(12, 98),46	968,(61, 121),14	982,(85, 121),14	996,(88, 121),14	1010,(106, 121),14	1033,(5, 107),82	1115,(5, 110),6	1121,(8, 13),6	1127,(8, 18),6	1133,(8, 41),2	1135,(8, 74),2	1137,(8, 113),1	1138,(25, 121),14	1152,(23, 121),14	1172,(8, 26),19	1191,(8, 38),17	1216,(8, 50),28	1244,(8, 56),9	1253,(8, 59),16	1272,(8, 77),3	1275,(8, 107),36	1311,(11, 18),11	1322,(11, 19),67	1389,(11, 29),1	1390,(11, 35),1	1391,(11, 47),5	1396,(11, 92),9	1405,(11, 101),2	1407,(11, 116),10	1417,(49, 121),14	1431,(97, 121),14	1457,(11, 56),24	1481,(11, 71),29	1510,(100, 121),14	1527,(111, 121),14	1541,(34, 121),14	1599,(20, 121),14	1613,(54, 121),14	1627,(39, 121),14	1641,(45, 121),14	1655,(75, 121),14	1669,(102, 121),14	1683,(108, 121),14	1697,(48, 121),14	1711,(105, 121),14	1725,(120, 121),14	1739,(16, 121),14	1832,(36, 121),14	1846,(60, 121),14	1860,(63, 121),14	1874,(87, 121),14	1888,(90, 121),14	1905,(40, 121),14	1919,(67, 121),14	1933,(17, 121),14	1947,(31, 121),14	1961,(79, 121),14	1975,(52, 121),14	1989,(64, 121),14	2003,(82, 121),14	2017,(30, 121),14	2031,(91, 121),14	2045,(42, 121),14	2059,(103, 121),14	2073,(51, 121),14	2087,(109, 121),14	2101,(57, 121),14	2115,(94, 121),14	2129,(66, 121),14	2143,(118, 121),14	2157,(81, 121),14	2171,(70, 121),14	2185,(84, 121),14	2199,(15, 121),14	2213,(93, 121),14	2227,(21, 121),14	2241,(99, 121),14	2255,(37, 121),14	2269,(43, 121),14	2283,(46, 121),14	2297,(55, 121),14	2311,(58, 121),14	2325,(73, 121),14	2339,(76, 121),14	2353,(115, 121),14	2367,(28, 121),14	2381,(112, 121),14	2395,(117, 121),14	2409,(14, 121),14	2423,(22, 121),14	2437,(24, 121),14	2451,(27, 121),14	2465,(33, 121),14	2479,(69, 121),14	2493,(72, 121),14	2507,(78, 121),14	2521,(96, 121),14	2535,(114, 121),14	
# Outgoing
178,(3, 13),10	188,(3, 18),1	189,(3, 44),1	190,(3, 16),1	191,(3, 59),3	194,(3, 86),1	195,(3, 14),12	207,(3, 26),11	218,(3, 38),6	224,(3, 41),17	241,(3, 50),6	247,(3, 53),11	258,(3, 68),2	260,(3, 90),1	261,(3, 92),12	273,(3, 101),1	274,(6, 13),3	278,(3, 120),2	280,(6, 14),1	281,(6, 22),5	286,(6, 24),2	289,(6, 30),1	290,(6, 42),1	291,(6, 81),3	294,(6, 105),1	295,(9, 22),1	296,(6, 18),1	297,(6, 26),3	300,(6, 29),15	315,(6, 35),2	317,(6, 41),9	326,(6, 44),13	339,(6, 47),1	340,(6, 53),1	341,(6, 56),5	346,(6, 68),8	354,(6, 80),13	367,(6, 89),9	376,(6, 92),8	384,(6, 101),1	385,(6, 116),2	387,(9, 13),1	388,(9, 19),1	389,(9, 29),7	396,(9, 65),4	400,(9, 68),17	417,(9, 74),1	418,(9, 86),1	419,(9, 98),1	420,(9, 101),8	428,(9, 104),2	430,(9, 110),6	436,(9, 116),1	437,(12, 13),1	438,(12, 47),1	439,(12, 50),7	446,(12, 59),1	447,(12, 68),11	458,(12, 71),1	459,(12, 80),2	642,(12, 74),4	646,(12, 107),3	649,(12, 113),1	712,(3, 102),11	786,(12, 83),9	795,(12, 116),1	905,(12, 95),17	922,(12, 98),46	968,(61, 121),14	982,(85, 121),14	996,(88, 121),14	1010,(106, 121),14	1107,(6, 51),7	1114,(6, 66),13	1127,(6, 114),2	1129,(9, 16),2	1131,(9, 20),6	1137,(9, 54),1	1138,(25, 121),14	1152,(23, 121),14	1283,(9, 48),9	1292,(9, 63),18	1310,(9, 66),1	1311,(9, 69),2	1313,(9, 81),54	1367,(9, 105),1	1368,(9, 114),9	1377,(9, 120),1	1378,(12, 16),4	1382,(12, 36),5	1387,(12, 60),1	1388,(12, 63),1	1389,(12, 66),3	1392,(12, 81),8	1400,(12, 84),2	1402,(12, 87),1	1403,(12, 90),4	1407,(12, 114),4	1417,(49, 121),14	1431,(97, 121),14	1510,(100, 121),14	1541,(34, 121),14	1559,(9, 96),65	1624,(9, 117),281	1905,(40, 121),14	1919,(67, 121),14	1933,(17, 121),14	1947,(31, 121),14	1961,(79, 121),14	1975,(52, 121),14	1989,(64, 121),14	2003,(82, 121),14	2031,(91, 121),14	2059,(103, 121),14	2087,(109, 121),14	2115,(94, 121),14	2143,(118, 121),14	2171,(70, 121),14	2199,(15, 121),14	2227,(21, 121),14	2255,(37, 121),14	2269,(43, 121),14	2283,(46, 121),14	2297,(55, 121),14	2311,(58, 121),14	2325,(73, 121),14	2339,(76, 121),14	2353,(115, 121),14	2367,(28, 121),14	2381,(112, 121),14	
28,(2, 13),10	38,(2, 19),11	49,(2, 62),1	50,(2, 23),1	51,(2, 38),2	53,(2, 50),30	83,(2, 56),4	87,(2, 59),4	91,(2, 71),25	116,(2, 74),9	125,(2, 77),27	152,(2, 95),1	153,(2, 104),1	154,(2, 119),24	185,(2, 31),1	186,(2, 82),2	188,(5, 49),1	189,(5, 106),1	190,(5, 92),1	194,(8, 37),1	195,(5, 13),8	203,(5, 26),3	206,(8, 89),1	235,(2, 40),13	248,(8, 49),1	260,(8, 104),1	267,(2, 55),10	277,(5, 18),12	289,(5, 19),7	298,(2, 88),4	306,(2, 25),17	323,(2, 52),17	340,(2, 58),12	352,(2, 73),55	407,(2, 76),5	412,(2, 79),24	436,(2, 94),8	444,(5, 21),11	455,(5, 23),6	461,(5, 35),181	642,(5, 40),8	650,(5, 44),34	684,(5, 47),5	689,(5, 50),97	786,(5, 64),10	796,(5, 65),84	880,(5, 73),8	888,(5, 83),17	905,(5, 91),4	909,(5, 97),90	999,(5, 100),34	1033,(5, 107),82	1115,(5, 110),6	1121,(8, 13),6	1127,(8, 18),6	1133,(8, 41),2	1135,(8, 74),2	1137,(8, 113),1	1138,(5, 109),4	1142,(5, 118),24	1166,(8, 17),6	1172,(8, 26),19	1191,(8, 38),17	1208,(8, 40),2	1210,(8, 46),6	1216,(8, 50),28	1244,(8, 56),9	1253,(8, 59),16	1269,(8, 67),3	1272,(8, 77),3	1275,(8, 107),36	1311,(11, 18),11	1322,(11, 19),67	1389,(11, 29),1	1390,(11, 35),1	1391,(11, 47),5	1396,(11, 92),9	1405,(11, 101),2	1407,(11, 116),10	1419,(8, 115),1	1420,(11, 46),3	1423,(11, 115),2	1434,(8, 79),18	1452,(11, 52),5	1457,(11, 56),24	1481,(11, 71),29	1514,(11, 70),13	1527,(111, 121),14	1547,(11, 94),8	1560,(8, 70),39	1599,(20, 121),14	1613,(54, 121),14	1627,(39, 121),14	1641,(45, 121),14	1655,(75, 121),14	1669,(102, 121),14	1683,(108, 121),14	1697,(48, 121),14	1711,(105, 121),14	1725,(120, 121),14	1739,(16, 121),14	1762,(11, 28),52	1814,(11, 112),18	1832,(36, 121),14	1846,(60, 121),14	1860,(63, 121),14	1874,(87, 121),14	1888,(90, 121),14	2017,(30, 121),14	2045,(42, 121),14	2073,(51, 121),14	2101,(57, 121),14	2129,(66, 121),14	2157,(81, 121),14	2185,(84, 121),14	2213,(93, 121),14	2241,(99, 121),14	2395,(117, 121),14	2409,(14, 121),14	2423,(22, 121),14	2437,(24, 121),14	2451,(27, 121),14	2465,(33, 121),14	2479,(69, 121),14	2493,(72, 121),14	2507,(78, 121),14	2521,(96, 121),14	2535,(114, 121),14	
1,(0, 2),6	7,(0, 3),6	13,(0, 5),6	19,(0, 6),6	25,(0, 8),6	31,(0, 9),6	37,(0, 11),6	43,(0, 12),6	49,(10, 17),1	50,(10, 24),1	51,(10, 31),134	185,(10, 33),5	190,(10, 37),4	194,(10, 39),1	195,(10, 40),9	204,(10, 43),31	235,(10, 51),13	248,(10, 54),1	249,(10, 55),9	258,(10, 76),9	267,(10, 78),10	277,(10, 81),1	278,(10, 82),5	283,(10, 85),5	288,(10, 90),1	289,(10, 100),9	298,(10, 102),4	302,(10, 106),1	303,(10, 115),3	306,(10, 117),405	711,(10, 120),1	712,(1, 40),2	714,(1, 49),1	715,(1, 76),1	716,(1, 79),6	722,(7, 79),1	723,(1, 16),6	729,(1, 20),1	730,(1, 22),14	744,(1, 24),1	745,(1, 27),358	1103,(1, 30),4	1107,(1, 34),31	1138,(1, 39),5	1143,(1, 45),11	1154,(1, 48),8	1162,(1, 57),1	1163,(1, 66),2	1165,(1, 69),7	1172,(1, 72),5	1177,(1, 75),9	1186,(1, 90),1	1187,(1, 93),76	1263,(1, 99),1	1264,(1, 102),3	1267,(1, 108),4	1271,(1, 120),12	1283,(7, 15),2	1285,(7, 17),134	1419,(7, 22),1	1420,(7, 24),3	1423,(7, 30),4	1427,(7, 31),7	1434,(7, 42),26	1460,(7, 51),1	1461,(7, 57),2	1463,(7, 64),9	1472,(7, 66),2	1474,(7, 70),9	1483,(7, 72),4	1487,(7, 78),2	1489,(7, 81),2	1491,(7, 82),3	1494,(7, 84),4	1498,(7, 91),12	1510,(7, 93),3	1513,(7, 94),1	1514,(7, 96),1	1515,(7, 99),17	1532,(7, 103),11	1543,(7, 109),4	1547,(7, 114),12	1559,(7, 118),1	1599,(4, 15),16	1615,(4, 21),1	1616,(4, 28),39	1655,(4, 37),2	1657,(4, 43),1	1658,(4, 46),1	1659,(4, 55),11	1670,(4, 58),36	1706,(4, 73),36	1742,(4, 76),19	1761,(4, 115),1	1905,(4, 14),1	1906,(4, 22),3	1909,(4, 24),2	1911,(4, 27),1	1912,(4, 33),16	1928,(4, 69),2	1930,(4, 72),1	1931,(4, 78),43	1974,(4, 96),2	1976,(4, 114),5	
