976
# CPU
29,2,22	57,4,22	79,8,22	101,12,22	123,18,22	145,22,22	167,26,22	361,28,22	433,38,22	455,6,22	489,10,22	511,14,22	549,16,22	571,20,22	593,24,22	615,30,22	637,32,22	659,34,22	681,36,22	703,40,22	
0,0,1	1,1,22	23,3,22	45,33,22	75,5,22	143,15,22	335,19,22	357,21,22	379,37,22	431,7,22	453,9,22	487,11,22	509,13,22	531,17,22	553,23,22	583,25,22	605,27,22	651,29,22	673,31,22	695,35,22	717,39,22	975,41,1	
# Incoming
1,(0, 2),28	29,(0, 4),28	57,(1, 8),4	61,(1, 10),4	65,(1, 12),4	69,(1, 14),8	77,(1, 16),12	89,(1, 22),4	93,(1, 26),4	97,(1, 28),264	361,(1, 30),60	421,(1, 34),8	429,(1, 38),4	433,(3, 6),4	437,(3, 10),52	489,(3, 14),12	501,(3, 16),48	549,(3, 20),20	569,(3, 24),12	581,(3, 30),4	585,(3, 32),8	593,(3, 34),20	613,(3, 36),32	645,(3, 40),8	
51,(2, 5),24	75,(2, 7),20	95,(2, 9),40	135,(2, 13),4	139,(2, 15),4	143,(2, 17),4	147,(2, 19),188	335,(2, 21),4	339,(2, 25),4	343,(2, 27),4	347,(2, 29),4	351,(2, 31),8	359,(2, 37),16	375,(2, 39),16	391,(4, 7),40	431,(4, 9),4	435,(4, 11),52	487,(4, 13),12	499,(4, 17),16	515,(4, 23),16	531,(4, 25),52	583,(4, 27),4	587,(4, 29),64	651,(4, 31),16	667,(4, 35),16	683,(4, 39),4	687,(8, 41),16	703,(12, 41),16	719,(18, 41),16	735,(22, 41),16	751,(26, 41),16	767,(28, 41),16	783,(38, 41),16	799,(6, 41),16	815,(10, 41),16	831,(14, 41),16	847,(16, 41),16	863,(20, 41),16	879,(24, 41),16	895,(30, 41),16	911,(32, 41),16	927,(34, 41),16	943,(36, 41),16	959,(40, 41),16	
# Outgoing
51,(2, 5),24	75,(2, 7),20	95,(2, 9),40	135,(2, 13),4	139,(2, 15),4	143,(2, 17),4	147,(2, 19),188	335,(2, 21),4	339,(2, 25),4	343,(2, 27),4	347,(2, 29),4	351,(2, 31),8	359,(2, 37),16	375,(2, 39),16	391,(4, 7),40	431,(4, 9),4	435,(4, 11),52	487,(4, 13),12	499,(4, 17),16	515,(4, 23),16	531,(4, 25),52	583,(4, 27),4	587,(4, 29),64	651,(4, 31),16	667,(4, 35),16	683,(4, 39),4	687,(8, 41),16	703,(12, 41),16	719,(18, 41),16	735,(22, 41),16	751,(26, 41),16	767,(28, 41),16	783,(38, 41),16	799,(6, 41),16	815,(10, 41),16	831,(14, 41),16	847,(16, 41),16	863,(20, 41),16	879,(24, 41),16	895,(30, 41),16	911,(32, 41),16	927,(34, 41),16	943,(36, 41),16	959,(40, 41),16	
1,(0, 2),28	29,(0, 4),28	57,(1, 8),4	61,(1, 10),4	65,(1, 12),4	69,(1, 14),8	77,(1, 16),12	89,(1, 22),4	93,(1, 26),4	97,(1, 28),264	361,(1, 30),60	421,(1, 34),8	429,(1, 38),4	433,(3, 6),4	437,(3, 10),52	489,(3, 14),12	501,(3, 16),48	549,(3, 20),20	569,(3, 24),12	581,(3, 30),4	585,(3, 32),8	593,(3, 34),20	613,(3, 36),32	645,(3, 40),8	
