30656
# CPU
10,4,14	24,8,14	38,12,14	52,16,14	66,20,14	80,80,14	94,48,14	108,64,14	122,124,14	136,32,14	154,72,14	319,176,14	973,152,14	1045,168,14	1072,56,14	1086,92,14	1100,196,14	1198,136,14	1318,144,14	1332,148,14	1477,188,14	1504,140,14	1518,156,14	1532,172,14	1546,52,14	1560,100,14	1630,84,14	1993,108,14	2125,184,14	2263,36,14	2350,44,14	2364,60,14	2378,180,14	2674,164,14	2797,68,14	3274,76,14	3445,40,14	3502,104,14	3526,112,14	3772,116,14	3802,200,14	3820,24,14	3850,28,14	3864,88,14	3982,96,14	3996,120,14	4010,132,14	4534,192,14	4612,128,14	4639,160,14	
7,3,14	21,7,14	35,27,14	49,11,14	63,15,14	77,143,14	91,19,14	105,43,14	119,135,14	133,127,14	147,55,14	161,139,14	175,31,14	253,67,14	319,39,14	334,151,14	348,79,14	1330,159,14	1344,107,14	1358,83,14	1372,167,14	1386,175,14	1450,163,14	1464,91,14	1498,47,14	1546,51,14	1612,71,14	1951,35,14	2068,103,14	2086,191,14	2644,123,14	2695,23,14	2791,59,14	2920,111,14	3277,87,14	3291,99,14	3385,147,14	3445,171,14	3460,183,14	3496,95,14	4027,119,14	4219,63,14	4333,75,14	4387,131,14	4401,155,14	4415,187,14	4441,195,14	4459,199,14	4789,179,14	5401,115,14	
4,2,14	18,6,14	32,34,14	46,10,14	60,14,14	74,18,14	88,138,14	250,110,14	264,38,14	280,86,14	294,50,14	308,58,14	358,122,14	373,134,14	418,78,14	432,106,14	466,190,14	480,186,14	494,90,14	508,94,14	649,142,14	706,166,14	730,30,14	751,82,14	784,130,14	799,146,14	847,66,14	877,198,14	1138,178,14	1225,126,14	1294,22,14	1345,150,14	1474,26,14	1711,102,14	1747,170,14	1765,62,14	2581,162,14	2701,42,14	2749,46,14	2800,70,14	2814,74,14	3388,158,14	3448,174,14	3478,54,14	3499,98,14	3784,118,14	3798,154,14	3812,194,14	3985,114,14	4024,182,14	
0,0,1	1,5,14	15,1,14	29,13,14	43,9,14	57,17,14	71,197,14	85,65,14	99,133,14	113,113,14	127,29,14	141,41,14	178,145,14	217,185,14	231,181,14	277,53,14	343,105,14	604,161,14	625,25,14	646,73,14	661,149,14	706,153,14	799,173,14	889,117,14	928,125,14	1030,129,14	1132,137,14	1146,33,14	1492,177,14	1507,77,14	1567,89,14	1581,85,14	1595,193,14	1609,45,14	1623,169,14	1637,57,14	1651,69,14	1675,93,14	1834,157,14	1909,141,14	1966,61,14	1980,97,14	2203,121,14	2221,165,14	2572,101,14	2608,109,14	2773,21,14	2857,49,14	2911,189,14	2986,37,14	3043,81,14	30655,201,1	
# Incoming
7,(0, 4),3	16,(0, 8),3	25,(0, 12),3	34,(0, 16),3	43,(0, 20),3	46,(2, 44),12	58,(2, 52),12	112,(2, 132),15	127,(3, 32),9	136,(3, 72),18	154,(3, 76),3	157,(3, 180),3	160,(3, 188),3	163,(7, 44),12	175,(7, 68),3	205,(2, 176),12	217,(7, 148),3	220,(7, 200),3	223,(2, 184),3	241,(2, 196),3	244,(5, 40),45	289,(6, 60),6	295,(6, 176),24	319,(10, 28),3	322,(10, 68),12	334,(10, 108),6	340,(14, 40),3	343,(14, 88),3	346,(5, 116),15	361,(2, 88),411	772,(3, 152),39	811,(6, 104),90	901,(7, 92),9	910,(7, 140),12	922,(7, 152),51	973,(14, 128),24	997,(14, 164),42	1039,(14, 168),6	1045,(14, 192),15	1060,(18, 56),12	1072,(18, 92),3	1075,(18, 196),6	1174,(5, 132),6	1180,(5, 136),18	1198,(5, 140),3	1201,(5, 144),117	1318,(5, 148),3	1345,(11, 188),132	1477,(15, 140),27	1504,(15, 156),3	1507,(15, 172),15	1522,(19, 52),21	1543,(19, 100),3	1546,(1, 84),84	1630,(6, 108),363	1993,(15, 184),132	2125,(19, 36),138	2263,(19, 44),87	2350,(19, 60),9	2359,(19, 180),18	2581,(1, 164),93	2791,(13, 68),6	2818,(13, 76),456	3274,(18, 40),171	3499,(9, 104),3	3502,(9, 112),24	3526,(9, 116),246	3799,(9, 200),3	3802,(17, 24),18	3820,(17, 28),30	3850,(17, 88),6	3856,(17, 96),126	3985,(17, 120),3	3988,(17, 132),21	4027,(10, 192),507	4534,(17, 128),78	4612,(17, 160),27	
4,(0, 3),3	13,(0, 7),3	22,(0, 11),3	31,(0, 15),3	40,(0, 19),3	70,(2, 55),24	127,(2, 139),24	151,(4, 31),24	175,(4, 151),3	178,(2, 147),27	205,(4, 47),15	220,(8, 39),3	223,(12, 75),3	226,(2, 191),3	229,(2, 195),12	241,(5, 39),3	244,(2, 199),3	247,(6, 67),6	253,(6, 75),12	265,(6, 83),3	268,(6, 123),3	271,(8, 63),15	286,(10, 75),3	289,(12, 111),3	292,(12, 147),3	295,(12, 151),9	304,(12, 183),9	313,(16, 39),6	319,(16, 95),3	322,(16, 99),6	328,(16, 151),6	334,(20, 79),3	337,(20, 159),3	340,(5, 79),6	346,(10, 187),3	349,(14, 47),9	358,(14, 71),3	361,(5, 131),813	1174,(2, 159),156	1330,(14, 99),3	1333,(14, 107),9	1342,(18, 83),3	1345,(5, 155),6	1351,(5, 167),12	1363,(5, 171),12	1375,(5, 175),3	1378,(5, 191),21	1399,(6, 163),51	1450,(18, 91),12	1462,(18, 119),3	1474,(1, 47),24	1498,(1, 51),48	1546,(12, 71),66	1627,(16, 187),81	1711,(1, 147),63	1774,(20, 23),165	1939,(20, 35),12	1969,(20, 103),99	2068,(20, 191),18	2200,(10, 63),27	2572,(10, 123),72	2674,(1, 187),6	2680,(1, 199),12	2692,(13, 23),3	2749,(13, 59),42	2803,(13, 75),15	2818,(14, 111),102	2920,(14, 183),42	3043,(18, 95),39	3082,(18, 195),93	3274,(13, 87),3	3277,(13, 99),6	3283,(13, 119),33	3316,(13, 131),24	3340,(13, 147),45	3388,(13, 171),57	3448,(13, 183),12	3460,(13, 199),15	3478,(9, 95),18	3496,(10, 119),531	4027,(17, 63),192	4219,(17, 75),114	4333,(17, 131),54	4387,(17, 155),3	4390,(17, 187),12	4402,(17, 195),39	4441,(17, 199),18	4639,(17, 179),150	4789,(20, 115),612	
1,(0, 2),3	10,(0, 6),3	19,(0, 10),3	28,(0, 14),3	37,(0, 18),3	46,(5, 38),195	241,(4, 86),3	244,(4, 110),6	250,(4, 166),3	253,(8, 38),6	259,(8, 50),12	277,(3, 86),3	286,(12, 98),3	289,(5, 50),3	292,(5, 58),3	295,(5, 66),45	340,(8, 62),12	352,(8, 122),6	358,(3, 134),15	373,(3, 194),3	376,(7, 78),42	418,(7, 82),6	424,(7, 106),3	427,(7, 114),27	454,(7, 162),9	463,(7, 190),3	466,(11, 94),9	475,(11, 186),3	478,(15, 90),3	481,(15, 94),9	496,(4, 142),153	649,(11, 166),57	706,(15, 30),24	736,(8, 82),15	751,(8, 130),33	784,(12, 114),12	796,(12, 146),3	811,(15, 66),36	847,(15, 198),30	898,(12, 162),15	913,(16, 42),6	919,(20, 126),6	973,(7, 178),165	1138,(12, 54),45	1183,(12, 126),42	1225,(16, 22),69	1294,(16, 46),21	1321,(5, 150),24	1399,(1, 26),75	1492,(16, 54),33	1525,(16, 62),18	1630,(1, 102),81	1711,(16, 74),12	1723,(16, 170),24	1747,(20, 62),18	1774,(1, 162),807	2695,(13, 42),6	2701,(13, 46),48	2797,(13, 70),3	2800,(13, 74),3	3385,(13, 158),3	3445,(13, 174),3	3475,(9, 54),3	3496,(9, 98),3	3772,(9, 118),12	3784,(9, 154),12	3796,(9, 194),3	3982,(17, 114),3	4009,(17, 182),15	
94,(2, 109),18	112,(3, 29),6	118,(3, 41),3	121,(3, 161),3	124,(4, 25),9	133,(4, 109),15	148,(12, 181),3	151,(2, 145),27	178,(3, 49),33	211,(11, 61),3	214,(11, 185),3	217,(2, 181),6	223,(3, 53),54	277,(6, 169),3	280,(3, 105),63	343,(3, 117),15	358,(4, 137),138	496,(7, 37),33	529,(7, 61),27	556,(7, 109),15	571,(11, 125),15	586,(11, 153),6	592,(11, 161),12	604,(15, 25),21	625,(15, 33),3	628,(15, 85),15	643,(19, 73),3	646,(19, 93),3	649,(4, 149),12	661,(4, 153),45	706,(4, 165),12	718,(8, 57),6	724,(8, 77),12	736,(15, 49),27	772,(6, 61),9	781,(6, 93),6	787,(6, 173),12	799,(8, 117),90	889,(12, 97),9	901,(6, 125),27	928,(8, 129),102	1030,(8, 137),57	1087,(8, 157),15	1102,(12, 137),30	1132,(10, 33),6	1138,(27, 201),207	1345,(12, 121),96	1441,(12, 177),51	1492,(10, 77),15	1507,(10, 85),57	1564,(10, 89),3	1567,(14, 49),9	1576,(14, 85),3	1579,(14, 193),12	1591,(18, 45),3	1594,(18, 169),6	1612,(16, 57),9	1621,(16, 69),6	1627,(15, 93),48	1675,(15, 157),159	1834,(19, 141),75	1951,(20, 61),15	1966,(20, 97),3	1993,(34, 201),207	2200,(20, 121),3	2203,(20, 165),18	2227,(10, 101),345	2572,(20, 109),36	2644,(14, 21),129	2773,(20, 49),84	2857,(19, 189),54	2962,(18, 37),24	2986,(18, 81),57	3043,(143, 201),207	3250,(80, 201),207	3457,(48, 201),207	3664,(43, 201),207	3871,(64, 201),207	4078,(135, 201),207	4285,(124, 201),207	4534,(138, 201),207	4741,(127, 201),207	4948,(55, 201),207	5155,(139, 201),207	5401,(32, 201),207	5608,(72, 201),207	5815,(31, 201),207	6022,(110, 201),207	6229,(67, 201),207	6436,(38, 201),207	6643,(86, 201),207	6850,(50, 201),207	7057,(58, 201),207	7264,(176, 201),207	7471,(39, 201),207	7678,(151, 201),207	7885,(79, 201),207	8092,(122, 201),207	8299,(134, 201),207	8506,(78, 201),207	8713,(106, 201),207	8920,(190, 201),207	9127,(186, 201),207	9334,(90, 201),207	9541,(94, 201),207	9748,(142, 201),207	9955,(166, 201),207	10162,(30, 201),207	10369,(82, 201),207	10576,(130, 201),207	10783,(146, 201),207	10990,(66, 201),207	11197,(198, 201),207	11404,(152, 201),207	11611,(168, 201),207	11818,(56, 201),207	12025,(92, 201),207	12232,(196, 201),207	12439,(178, 201),207	12646,(136, 201),207	12853,(126, 201),207	13060,(22, 201),207	13267,(144, 201),207	13474,(159, 201),207	13681,(148, 201),207	13888,(107, 201),207	14095,(150, 201),207	14302,(83, 201),207	14509,(167, 201),207	14716,(175, 201),207	14923,(163, 201),207	15130,(91, 201),207	15337,(26, 201),207	15544,(188, 201),207	15751,(47, 201),207	15958,(140, 201),207	16165,(156, 201),207	16372,(172, 201),207	16579,(51, 201),207	16786,(52, 201),207	16993,(100, 201),207	17200,(71, 201),207	17407,(84, 201),207	17614,(102, 201),207	17821,(170, 201),207	18028,(62, 201),207	18235,(35, 201),207	18442,(108, 201),207	18649,(103, 201),207	18856,(191, 201),207	19063,(184, 201),207	19270,(36, 201),207	19477,(44, 201),207	19684,(60, 201),207	19891,(180, 201),207	20098,(162, 201),207	20305,(123, 201),207	20512,(164, 201),207	20719,(23, 201),207	20926,(42, 201),207	21133,(46, 201),207	21340,(59, 201),207	21547,(68, 201),207	21754,(70, 201),207	21961,(74, 201),207	22168,(111, 201),207	22375,(76, 201),207	22582,(87, 201),207	22789,(99, 201),207	22996,(147, 201),207	23203,(158, 201),207	23410,(40, 201),207	23617,(171, 201),207	23824,(174, 201),207	24031,(183, 201),207	24238,(54, 201),207	24445,(95, 201),207	24652,(98, 201),207	24859,(104, 201),207	25066,(112, 201),207	25273,(116, 201),207	25480,(118, 201),207	25687,(154, 201),207	25894,(200, 201),207	26101,(194, 201),207	26308,(24, 201),207	26515,(28, 201),207	26722,(88, 201),207	26929,(96, 201),207	27136,(114, 201),207	27343,(120, 201),207	27550,(132, 201),207	27757,(182, 201),207	27964,(119, 201),207	28171,(63, 201),207	28378,(75, 201),207	28585,(131, 201),207	28792,(155, 201),207	28999,(187, 201),207	29206,(195, 201),207	29413,(199, 201),207	29620,(192, 201),207	29827,(128, 201),207	30034,(160, 201),207	30241,(179, 201),207	30448,(115, 201),207	
# Outgoing
124,(4, 25),9	133,(4, 109),15	148,(12, 181),3	151,(4, 31),24	175,(4, 151),3	205,(4, 47),15	220,(8, 39),3	223,(12, 75),3	241,(4, 86),3	244,(4, 110),6	250,(4, 166),3	253,(8, 38),6	259,(8, 50),12	271,(8, 63),15	286,(12, 98),3	289,(12, 111),3	292,(12, 147),3	295,(12, 151),9	304,(12, 183),9	313,(16, 39),6	319,(16, 95),3	322,(16, 99),6	328,(16, 151),6	334,(20, 79),3	337,(20, 159),3	340,(8, 62),12	352,(8, 122),6	358,(4, 137),138	496,(4, 142),153	649,(4, 149),12	661,(4, 153),45	706,(4, 165),12	718,(8, 57),6	724,(8, 77),12	736,(8, 82),15	751,(8, 130),33	784,(12, 114),12	796,(12, 146),3	799,(8, 117),90	889,(12, 97),9	898,(12, 162),15	913,(16, 42),6	919,(20, 126),6	928,(8, 129),102	1030,(8, 137),57	1087,(8, 157),15	1102,(12, 137),30	1138,(12, 54),45	1183,(12, 126),42	1225,(16, 22),69	1294,(16, 46),21	1345,(12, 121),96	1441,(12, 177),51	1492,(16, 54),33	1525,(16, 62),18	1546,(12, 71),66	1612,(16, 57),9	1621,(16, 69),6	1627,(16, 187),81	1711,(16, 74),12	1723,(16, 170),24	1747,(20, 62),18	1774,(20, 23),165	1939,(20, 35),12	1951,(20, 61),15	1966,(20, 97),3	1969,(20, 103),99	2068,(20, 191),18	2200,(20, 121),3	2203,(20, 165),18	2572,(20, 109),36	2773,(20, 49),84	3250,(80, 201),207	3457,(48, 201),207	3871,(64, 201),207	4285,(124, 201),207	4789,(20, 115),612	5401,(32, 201),207	5608,(72, 201),207	7264,(176, 201),207	11404,(152, 201),207	11611,(168, 201),207	11818,(56, 201),207	12025,(92, 201),207	12232,(196, 201),207	12646,(136, 201),207	13267,(144, 201),207	13681,(148, 201),207	15544,(188, 201),207	15958,(140, 201),207	16165,(156, 201),207	16372,(172, 201),207	16786,(52, 201),207	16993,(100, 201),207	17407,(84, 201),207	18442,(108, 201),207	19063,(184, 201),207	19270,(36, 201),207	19477,(44, 201),207	19684,(60, 201),207	19891,(180, 201),207	20512,(164, 201),207	21547,(68, 201),207	22375,(76, 201),207	23410,(40, 201),207	24859,(104, 201),207	25066,(112, 201),207	25273,(116, 201),207	25894,(200, 201),207	26308,(24, 201),207	26515,(28, 201),207	26722,(88, 201),207	26929,(96, 201),207	27343,(120, 201),207	27550,(132, 201),207	29620,(192, 201),207	29827,(128, 201),207	30034,(160, 201),207	
112,(3, 29),6	118,(3, 41),3	121,(3, 161),3	127,(3, 32),9	136,(3, 72),18	154,(3, 76),3	157,(3, 180),3	160,(3, 188),3	163,(7, 44),12	175,(7, 68),3	178,(3, 49),33	211,(11, 61),3	214,(11, 185),3	217,(7, 148),3	220,(7, 200),3	223,(3, 53),54	277,(3, 86),3	280,(3, 105),63	343,(3, 117),15	358,(3, 134),15	373,(3, 194),3	376,(7, 78),42	418,(7, 82),6	424,(7, 106),3	427,(7, 114),27	454,(7, 162),9	463,(7, 190),3	466,(11, 94),9	475,(11, 186),3	478,(15, 90),3	481,(15, 94),9	496,(7, 37),33	529,(7, 61),27	556,(7, 109),15	571,(11, 125),15	586,(11, 153),6	592,(11, 161),12	604,(15, 25),21	625,(15, 33),3	628,(15, 85),15	643,(19, 73),3	646,(19, 93),3	649,(11, 166),57	706,(15, 30),24	736,(15, 49),27	772,(3, 152),39	811,(15, 66),36	847,(15, 198),30	901,(7, 92),9	910,(7, 140),12	922,(7, 152),51	973,(7, 178),165	1138,(27, 201),207	1345,(11, 188),132	1477,(15, 140),27	1504,(15, 156),3	1507,(15, 172),15	1522,(19, 52),21	1543,(19, 100),3	1627,(15, 93),48	1675,(15, 157),159	1834,(19, 141),75	1993,(15, 184),132	2125,(19, 36),138	2263,(19, 44),87	2350,(19, 60),9	2359,(19, 180),18	2857,(19, 189),54	3043,(143, 201),207	3664,(43, 201),207	4078,(135, 201),207	4741,(127, 201),207	4948,(55, 201),207	5155,(139, 201),207	5815,(31, 201),207	6229,(67, 201),207	7471,(39, 201),207	7678,(151, 201),207	7885,(79, 201),207	13474,(159, 201),207	13888,(107, 201),207	14302,(83, 201),207	14509,(167, 201),207	14716,(175, 201),207	14923,(163, 201),207	15130,(91, 201),207	15751,(47, 201),207	16579,(51, 201),207	17200,(71, 201),207	18235,(35, 201),207	18649,(103, 201),207	18856,(191, 201),207	20305,(123, 201),207	20719,(23, 201),207	21340,(59, 201),207	22168,(111, 201),207	22582,(87, 201),207	22789,(99, 201),207	22996,(147, 201),207	23617,(171, 201),207	24031,(183, 201),207	24445,(95, 201),207	27964,(119, 201),207	28171,(63, 201),207	28378,(75, 201),207	28585,(131, 201),207	28792,(155, 201),207	28999,(187, 201),207	29206,(195, 201),207	29413,(199, 201),207	30241,(179, 201),207	30448,(115, 201),207	
46,(2, 44),12	58,(2, 52),12	70,(2, 55),24	94,(2, 109),18	112,(2, 132),15	127,(2, 139),24	151,(2, 145),27	178,(2, 147),27	205,(2, 176),12	217,(2, 181),6	223,(2, 184),3	226,(2, 191),3	229,(2, 195),12	241,(2, 196),3	244,(2, 199),3	247,(6, 67),6	253,(6, 75),12	265,(6, 83),3	268,(6, 123),3	277,(6, 169),3	286,(10, 75),3	289,(6, 60),6	295,(6, 176),24	319,(10, 28),3	322,(10, 68),12	334,(10, 108),6	340,(14, 40),3	343,(14, 88),3	346,(10, 187),3	349,(14, 47),9	358,(14, 71),3	361,(2, 88),411	772,(6, 61),9	781,(6, 93),6	787,(6, 173),12	811,(6, 104),90	901,(6, 125),27	973,(14, 128),24	997,(14, 164),42	1039,(14, 168),6	1045,(14, 192),15	1060,(18, 56),12	1072,(18, 92),3	1075,(18, 196),6	1132,(10, 33),6	1174,(2, 159),156	1330,(14, 99),3	1333,(14, 107),9	1342,(18, 83),3	1399,(6, 163),51	1450,(18, 91),12	1462,(18, 119),3	1492,(10, 77),15	1507,(10, 85),57	1564,(10, 89),3	1567,(14, 49),9	1576,(14, 85),3	1579,(14, 193),12	1591,(18, 45),3	1594,(18, 169),6	1630,(6, 108),363	1993,(34, 201),207	2200,(10, 63),27	2227,(10, 101),345	2572,(10, 123),72	2644,(14, 21),129	2818,(14, 111),102	2920,(14, 183),42	2962,(18, 37),24	2986,(18, 81),57	3043,(18, 95),39	3082,(18, 195),93	3274,(18, 40),171	3496,(10, 119),531	4027,(10, 192),507	4534,(138, 201),207	6022,(110, 201),207	6436,(38, 201),207	6643,(86, 201),207	6850,(50, 201),207	7057,(58, 201),207	8092,(122, 201),207	8299,(134, 201),207	8506,(78, 201),207	8713,(106, 201),207	8920,(190, 201),207	9127,(186, 201),207	9334,(90, 201),207	9541,(94, 201),207	9748,(142, 201),207	9955,(166, 201),207	10162,(30, 201),207	10369,(82, 201),207	10576,(130, 201),207	10783,(146, 201),207	10990,(66, 201),207	11197,(198, 201),207	12439,(178, 201),207	12853,(126, 201),207	13060,(22, 201),207	14095,(150, 201),207	15337,(26, 201),207	17614,(102, 201),207	17821,(170, 201),207	18028,(62, 201),207	20098,(162, 201),207	20926,(42, 201),207	21133,(46, 201),207	21754,(70, 201),207	21961,(74, 201),207	23203,(158, 201),207	23824,(174, 201),207	24238,(54, 201),207	24652,(98, 201),207	25480,(118, 201),207	25687,(154, 201),207	26101,(194, 201),207	27136,(114, 201),207	27757,(182, 201),207	
1,(0, 2),3	4,(0, 3),3	7,(0, 4),3	10,(0, 6),3	13,(0, 7),3	16,(0, 8),3	19,(0, 10),3	22,(0, 11),3	25,(0, 12),3	28,(0, 14),3	31,(0, 15),3	34,(0, 16),3	37,(0, 18),3	40,(0, 19),3	43,(0, 20),3	46,(5, 38),195	241,(5, 39),3	244,(5, 40),45	289,(5, 50),3	292,(5, 58),3	295,(5, 66),45	340,(5, 79),6	346,(5, 116),15	361,(5, 131),813	1174,(5, 132),6	1180,(5, 136),18	1198,(5, 140),3	1201,(5, 144),117	1318,(5, 148),3	1321,(5, 150),24	1345,(5, 155),6	1351,(5, 167),12	1363,(5, 171),12	1375,(5, 175),3	1378,(5, 191),21	1399,(1, 26),75	1474,(1, 47),24	1498,(1, 51),48	1546,(1, 84),84	1630,(1, 102),81	1711,(1, 147),63	1774,(1, 162),807	2581,(1, 164),93	2674,(1, 187),6	2680,(1, 199),12	2692,(13, 23),3	2695,(13, 42),6	2701,(13, 46),48	2749,(13, 59),42	2791,(13, 68),6	2797,(13, 70),3	2800,(13, 74),3	2803,(13, 75),15	2818,(13, 76),456	3274,(13, 87),3	3277,(13, 99),6	3283,(13, 119),33	3316,(13, 131),24	3340,(13, 147),45	3385,(13, 158),3	3388,(13, 171),57	3445,(13, 174),3	3448,(13, 183),12	3460,(13, 199),15	3475,(9, 54),3	3478,(9, 95),18	3496,(9, 98),3	3499,(9, 104),3	3502,(9, 112),24	3526,(9, 116),246	3772,(9, 118),12	3784,(9, 154),12	3796,(9, 194),3	3799,(9, 200),3	3802,(17, 24),18	3820,(17, 28),30	3850,(17, 88),6	3856,(17, 96),126	3982,(17, 114),3	3985,(17, 120),3	3988,(17, 132),21	4009,(17, 182),15	4027,(17, 63),192	4219,(17, 75),114	4333,(17, 131),54	4387,(17, 155),3	4390,(17, 187),12	4402,(17, 195),39	4441,(17, 199),18	4534,(17, 128),78	4612,(17, 160),27	4639,(17, 179),150	
