242
# CPU
0,0,1	1,3,15	16,22,15	31,28,15	46,34,15	61,8,15	76,13,15	91,17,15	106,2,15	121,35,15	136,23,15	151,32,15	166,18,15	181,14,15	196,19,15	211,37,15	226,11,15	241,41,1	
3,4,15	18,20,15	33,21,15	48,15,15	63,6,15	78,5,15	93,9,15	108,39,15	123,27,15	138,29,15	153,10,15	168,40,15	186,33,15	
5,1,15	20,26,15	35,38,15	50,12,15	65,16,15	80,7,15	120,30,15	135,25,15	150,24,15	165,36,15	180,31,15	
# Incoming
33,(20, 41),2	35,(26, 41),2	48,(21, 41),2	50,(38, 41),2	63,(15, 41),2	65,(12, 41),2	78,(6, 41),2	80,(16, 41),2	93,(5, 41),2	95,(7, 41),2	108,(9, 41),2	123,(39, 41),2	135,(30, 41),2	138,(27, 41),2	150,(25, 41),2	153,(29, 41),2	165,(24, 41),2	168,(10, 41),2	180,(36, 41),2	183,(40, 41),2	195,(31, 41),2	201,(33, 41),2	
1,(0, 4),2	138,(2, 40),10	164,(2, 33),22	
3,(0, 1),2	16,(3, 30),104	120,(3, 25),2	122,(2, 25),2	124,(2, 24),6	130,(2, 36),8	148,(2, 31),16	
# Outgoing
1,(0, 4),2	3,(0, 1),2	16,(3, 30),104	120,(3, 25),2	122,(2, 25),2	124,(2, 24),6	130,(2, 36),8	138,(2, 40),10	148,(2, 31),16	164,(2, 33),22	
33,(20, 41),2	48,(21, 41),2	63,(15, 41),2	78,(6, 41),2	93,(5, 41),2	108,(9, 41),2	123,(39, 41),2	138,(27, 41),2	153,(29, 41),2	168,(10, 41),2	183,(40, 41),2	201,(33, 41),2	
35,(26, 41),2	50,(38, 41),2	65,(12, 41),2	80,(16, 41),2	95,(7, 41),2	135,(30, 41),2	150,(25, 41),2	165,(24, 41),2	180,(36, 41),2	195,(31, 41),2	
