623
# CPU
0,121,1	1,19,4	5,101,4	9,78,4	13,73,4	17,13,4	21,114,4	25,94,4	29,57,4	33,89,4	37,47,4	41,112,4	45,37,4	49,103,4	53,40,4	57,51,4	61,87,4	65,24,4	69,25,4	73,54,4	77,86,4	81,26,4	85,18,4	89,58,4	93,23,4	97,52,4	101,107,4	105,118,4	109,29,4	113,53,4	117,48,4	121,46,4	125,83,4	129,35,4	133,93,4	137,49,4	141,59,4	145,42,4	149,17,4	153,79,4	157,28,4	161,33,4	165,39,4	169,77,4	173,14,4	177,102,4	181,91,4	185,69,4	189,22,4	193,115,4	197,34,4	201,41,4	205,61,4	209,15,4	213,64,4	217,20,4	221,105,4	225,72,4	229,90,4	233,111,4	237,38,4	241,45,4	245,21,4	249,50,4	253,96,4	257,110,4	261,85,4	265,116,4	269,55,4	273,43,4	277,88,4	281,106,4	285,97,4	289,95,4	293,27,4	297,120,4	301,113,4	305,68,4	309,32,4	313,108,4	317,71,4	321,56,4	325,36,4	329,104,4	333,100,4	337,30,4	341,76,4	345,44,4	349,63,4	353,109,4	357,84,4	361,98,4	365,65,4	369,70,4	373,80,4	377,66,4	381,16,4	385,81,4	389,117,4	393,82,4	397,119,4	401,74,4	405,75,4	409,31,4	413,99,4	417,1,4	421,8,4	425,12,4	429,6,4	433,2,4	437,11,4	441,3,4	445,4,4	449,7,4	453,5,4	482,9,4	618,10,4	622,0,1	
91,60,4	181,92,4	271,62,4	361,67,4	
# Incoming
275,(62, 1),1	276,(60, 8),1	277,(62, 12),2	279,(92, 6),1	280,(92, 11),1	281,(62, 11),8	289,(92, 7),27	316,(62, 7),3	319,(60, 5),17	336,(92, 5),19	355,(62, 5),6	361,(62, 10),1	365,(67, 8),1	366,(67, 12),1	367,(67, 6),7	374,(67, 2),9	383,(67, 3),12	395,(67, 4),19	414,(67, 7),2	416,(67, 5),3	419,(60, 9),12	431,(62, 9),51	482,(60, 10),5	487,(67, 10),131	
1,(121, 60),90	91,(121, 92),90	181,(121, 62),90	271,(121, 67),90	
# Outgoing
1,(121, 60),90	91,(121, 92),90	181,(121, 62),90	271,(121, 67),90	
275,(62, 1),1	276,(60, 8),1	277,(62, 12),2	279,(92, 6),1	280,(92, 11),1	281,(62, 11),8	289,(92, 7),27	316,(62, 7),3	319,(60, 5),17	336,(92, 5),19	355,(62, 5),6	361,(62, 10),1	365,(67, 8),1	366,(67, 12),1	367,(67, 6),7	374,(67, 2),9	383,(67, 3),12	395,(67, 4),19	414,(67, 7),2	416,(67, 5),3	419,(60, 9),12	431,(62, 9),51	482,(60, 10),5	487,(67, 10),131	
