1395
# CPU
0,0,1	1,7,37	38,8,37	75,6,37	112,18,37	149,57,37	186,16,37	223,23,37	260,58,37	297,78,37	334,80,37	371,19,37	408,40,37	445,56,37	482,22,37	519,29,37	556,48,37	593,38,37	630,43,37	667,70,37	704,21,37	741,27,37	778,41,37	815,9,37	852,36,37	889,14,37	926,37,37	1066,60,37	
15,2,37	57,1,37	94,50,37	131,15,37	168,51,37	205,44,37	242,65,37	279,67,37	316,71,37	353,30,37	390,63,37	427,45,37	506,79,37	628,47,37	672,54,37	904,13,37	988,64,37	1194,20,37	
29,4,37	71,5,37	108,11,37	145,53,37	182,25,37	219,49,37	256,26,37	293,69,37	330,24,37	367,42,37	404,32,37	441,72,37	478,34,37	515,46,37	552,66,37	596,12,37	716,61,37	778,55,37	840,10,37	1130,76,37	
43,3,37	85,74,37	122,68,37	159,62,37	196,28,37	233,52,37	270,35,37	307,17,37	344,73,37	381,31,37	418,59,37	455,77,37	492,39,37	566,75,37	1072,33,37	1394,81,1	
# Incoming
100,(2, 57),2	102,(4, 16),2	104,(3, 58),2	106,(2, 23),2	108,(3, 78),2	110,(5, 57),2	112,(2, 56),2	114,(5, 16),4	118,(1, 23),6	124,(3, 19),8	132,(3, 27),2	134,(2, 58),10	144,(1, 78),12	156,(1, 19),10	166,(1, 56),2	168,(4, 80),2	170,(5, 80),12	182,(3, 56),12	194,(5, 56),2	196,(3, 29),6	202,(3, 70),8	210,(2, 22),2	212,(4, 29),2	214,(1, 29),2	216,(5, 29),8	232,(2, 48),2	234,(1, 48),4	238,(4, 40),18	256,(4, 38),2	258,(5, 27),2	266,(5, 22),20	286,(5, 70),6	292,(5, 37),2	296,(2, 29),8	304,(1, 38),26	336,(2, 43),6	342,(1, 43),6	348,(5, 48),20	368,(3, 43),20	402,(1, 70),2	410,(2, 27),6	416,(2, 9),2	424,(2, 21),36	460,(1, 36),2	474,(4, 27),6	480,(3, 41),32	520,(4, 70),16	536,(1, 27),22	558,(4, 41),14	572,(4, 9),14	586,(5, 9),30	616,(4, 36),24	640,(5, 36),28	668,(2, 14),14	682,(1, 14),38	720,(5, 14),54	774,(3, 37),52	826,(1, 37),88	914,(2, 60),24	938,(4, 60),74	1012,(3, 60),54	
1,(0, 2),14	43,(0, 1),14	70,(4, 50),2	72,(4, 15),2	74,(4, 51),2	76,(4, 30),2	80,(3, 15),2	85,(8, 15),2	87,(3, 44),6	93,(7, 51),12	105,(8, 44),2	110,(3, 71),2	112,(6, 15),2	114,(3, 45),2	116,(3, 54),2	118,(4, 44),6	124,(5, 67),4	128,(5, 71),6	134,(3, 63),10	144,(5, 65),20	180,(8, 67),6	186,(6, 67),10	196,(5, 63),14	216,(8, 71),16	232,(3, 20),28	260,(8, 30),22	282,(6, 30),12	294,(4, 79),8	302,(4, 54),6	308,(5, 54),4	312,(4, 64),6	322,(7, 63),4	326,(6, 63),12	368,(5, 13),12	380,(6, 45),40	420,(5, 79),54	478,(8, 79),2	480,(4, 47),40	596,(8, 47),22	618,(6, 47),10	628,(7, 54),6	634,(6, 54),38	672,(4, 13),24	840,(6, 13),64	904,(7, 64),82	986,(6, 64),2	1082,(7, 20),16	1098,(8, 20),96	
15,(0, 4),14	57,(0, 5),14	71,(7, 11),2	82,(3, 53),2	84,(3, 26),2	87,(7, 53),6	94,(1, 11),2	96,(3, 72),2	98,(3, 46),2	100,(3, 10),2	104,(1, 49),2	107,(8, 26),2	109,(1, 26),2	114,(6, 25),12	126,(2, 26),8	134,(7, 49),10	144,(3, 69),10	162,(8, 69),4	166,(6, 69),2	168,(1, 24),8	176,(2, 66),2	188,(2, 42),22	210,(3, 34),14	224,(2, 34),8	232,(7, 24),14	246,(8, 24),4	250,(1, 32),20	278,(2, 72),14	294,(7, 42),6	300,(3, 66),10	330,(1, 12),6	338,(8, 32),8	346,(6, 32),2	348,(2, 12),54	404,(1, 61),6	420,(7, 72),4	424,(8, 72),8	432,(6, 72),2	450,(7, 34),6	456,(8, 34),14	470,(2, 55),4	474,(2, 76),4	480,(8, 46),34	514,(7, 66),28	542,(8, 66),2	544,(6, 66),2	566,(7, 12),2	568,(8, 12),28	596,(3, 61),34	630,(2, 10),32	672,(7, 61),14	686,(8, 61),26	712,(6, 61),4	716,(7, 55),34	750,(8, 55),26	776,(6, 55),2	778,(8, 10),48	826,(6, 10),14	938,(1, 76),132	1072,(7, 76),6	1078,(8, 76),4	
29,(0, 3),14	66,(4, 74),4	73,(7, 35),2	75,(8, 74),10	85,(4, 62),8	96,(1, 68),4	102,(2, 62),2	108,(5, 68),2	110,(8, 52),2	112,(5, 62),2	114,(2, 35),2	116,(1, 31),2	126,(7, 28),8	134,(5, 28),10	144,(6, 52),18	164,(5, 35),4	168,(6, 35),12	180,(1, 17),8	188,(5, 17),4	196,(8, 17),18	214,(6, 17),2	216,(1, 73),8	224,(5, 73),14	238,(2, 31),10	250,(7, 73),10	260,(4, 31),6	270,(2, 59),8	292,(2, 77),4	300,(7, 31),4	304,(8, 31),16	320,(6, 31),2	322,(5, 77),26	348,(6, 59),32	380,(4, 39),12	392,(5, 39),26	418,(1, 75),6	434,(7, 77),16	462,(50, 81),8	470,(7, 39),6	476,(6, 39),2	478,(2, 75),46	524,(15, 81),8	536,(11, 81),8	546,(7, 75),6	552,(8, 75),4	556,(6, 75),10	566,(1, 33),26	592,(51, 81),8	600,(44, 81),8	608,(65, 81),8	616,(67, 81),8	696,(53, 81),8	704,(25, 81),8	712,(49, 81),8	720,(71, 81),8	728,(30, 81),8	736,(63, 81),8	744,(45, 81),8	752,(79, 81),8	760,(47, 81),8	774,(26, 81),8	782,(69, 81),8	790,(24, 81),8	798,(42, 81),8	806,(32, 81),8	814,(72, 81),8	822,(34, 81),8	830,(46, 81),8	838,(66, 81),8	846,(12, 81),8	854,(61, 81),8	862,(55, 81),8	877,(10, 81),8	988,(7, 33),4	992,(8, 33),80	1072,(54, 81),8	1080,(13, 81),8	1088,(64, 81),8	1167,(76, 81),8	1194,(18, 81),8	1202,(57, 81),8	1210,(16, 81),8	1218,(23, 81),8	1226,(58, 81),8	1234,(78, 81),8	1242,(80, 81),8	1250,(19, 81),8	1258,(40, 81),8	1266,(56, 81),8	1274,(22, 81),8	1282,(29, 81),8	1290,(48, 81),8	1298,(38, 81),8	1306,(43, 81),8	1314,(70, 81),8	1322,(21, 81),8	1330,(27, 81),8	1338,(41, 81),8	1346,(9, 81),8	1354,(36, 81),8	1362,(14, 81),8	1370,(37, 81),8	1378,(60, 81),8	1386,(20, 81),8	
# Outgoing
1,(0, 2),14	15,(0, 4),14	29,(0, 3),14	43,(0, 1),14	57,(0, 5),14	71,(7, 11),2	73,(7, 35),2	75,(8, 74),10	85,(8, 15),2	87,(7, 53),6	93,(7, 51),12	105,(8, 44),2	107,(8, 26),2	110,(8, 52),2	112,(6, 15),2	114,(6, 25),12	126,(7, 28),8	134,(7, 49),10	144,(6, 52),18	162,(8, 69),4	166,(6, 69),2	168,(6, 35),12	180,(8, 67),6	186,(6, 67),10	196,(8, 17),18	214,(6, 17),2	216,(8, 71),16	232,(7, 24),14	246,(8, 24),4	250,(7, 73),10	260,(8, 30),22	282,(6, 30),12	294,(7, 42),6	300,(7, 31),4	304,(8, 31),16	320,(6, 31),2	322,(7, 63),4	326,(6, 63),12	338,(8, 32),8	346,(6, 32),2	348,(6, 59),32	380,(6, 45),40	420,(7, 72),4	424,(8, 72),8	432,(6, 72),2	434,(7, 77),16	450,(7, 34),6	456,(8, 34),14	470,(7, 39),6	476,(6, 39),2	478,(8, 79),2	480,(8, 46),34	514,(7, 66),28	542,(8, 66),2	544,(6, 66),2	546,(7, 75),6	552,(8, 75),4	556,(6, 75),10	566,(7, 12),2	568,(8, 12),28	596,(8, 47),22	618,(6, 47),10	628,(7, 54),6	634,(6, 54),38	672,(7, 61),14	686,(8, 61),26	712,(6, 61),4	716,(7, 55),34	750,(8, 55),26	776,(6, 55),2	778,(8, 10),48	826,(6, 10),14	840,(6, 13),64	904,(7, 64),82	986,(6, 64),2	988,(7, 33),4	992,(8, 33),80	1072,(7, 76),6	1078,(8, 76),4	1082,(7, 20),16	1098,(8, 20),96	1194,(18, 81),8	1202,(57, 81),8	1210,(16, 81),8	1218,(23, 81),8	1226,(58, 81),8	1234,(78, 81),8	1242,(80, 81),8	1250,(19, 81),8	1258,(40, 81),8	1266,(56, 81),8	1274,(22, 81),8	1282,(29, 81),8	1290,(48, 81),8	1298,(38, 81),8	1306,(43, 81),8	1314,(70, 81),8	1322,(21, 81),8	1330,(27, 81),8	1338,(41, 81),8	1346,(9, 81),8	1354,(36, 81),8	1362,(14, 81),8	1370,(37, 81),8	1378,(60, 81),8	
94,(1, 11),2	96,(1, 68),4	100,(2, 57),2	102,(2, 62),2	104,(1, 49),2	106,(2, 23),2	109,(1, 26),2	112,(2, 56),2	114,(2, 35),2	116,(1, 31),2	118,(1, 23),6	126,(2, 26),8	134,(2, 58),10	144,(1, 78),12	156,(1, 19),10	166,(1, 56),2	168,(1, 24),8	176,(2, 66),2	180,(1, 17),8	188,(2, 42),22	210,(2, 22),2	214,(1, 29),2	216,(1, 73),8	224,(2, 34),8	232,(2, 48),2	234,(1, 48),4	238,(2, 31),10	250,(1, 32),20	270,(2, 59),8	278,(2, 72),14	292,(2, 77),4	296,(2, 29),8	304,(1, 38),26	330,(1, 12),6	336,(2, 43),6	342,(1, 43),6	348,(2, 12),54	402,(1, 70),2	404,(1, 61),6	410,(2, 27),6	416,(2, 9),2	418,(1, 75),6	424,(2, 21),36	460,(1, 36),2	462,(50, 81),8	470,(2, 55),4	474,(2, 76),4	478,(2, 75),46	524,(15, 81),8	536,(1, 27),22	566,(1, 33),26	592,(51, 81),8	600,(44, 81),8	608,(65, 81),8	616,(67, 81),8	630,(2, 10),32	668,(2, 14),14	682,(1, 14),38	720,(71, 81),8	728,(30, 81),8	736,(63, 81),8	744,(45, 81),8	752,(79, 81),8	760,(47, 81),8	826,(1, 37),88	914,(2, 60),24	938,(1, 76),132	1072,(54, 81),8	1080,(13, 81),8	1088,(64, 81),8	1386,(20, 81),8	
66,(4, 74),4	70,(4, 50),2	72,(4, 15),2	74,(4, 51),2	76,(4, 30),2	85,(4, 62),8	102,(4, 16),2	108,(5, 68),2	110,(5, 57),2	112,(5, 62),2	114,(5, 16),4	118,(4, 44),6	124,(5, 67),4	128,(5, 71),6	134,(5, 28),10	144,(5, 65),20	164,(5, 35),4	168,(4, 80),2	170,(5, 80),12	188,(5, 17),4	194,(5, 56),2	196,(5, 63),14	212,(4, 29),2	216,(5, 29),8	224,(5, 73),14	238,(4, 40),18	256,(4, 38),2	258,(5, 27),2	260,(4, 31),6	266,(5, 22),20	286,(5, 70),6	292,(5, 37),2	294,(4, 79),8	302,(4, 54),6	308,(5, 54),4	312,(4, 64),6	322,(5, 77),26	348,(5, 48),20	368,(5, 13),12	380,(4, 39),12	392,(5, 39),26	420,(5, 79),54	474,(4, 27),6	480,(4, 47),40	520,(4, 70),16	536,(11, 81),8	558,(4, 41),14	572,(4, 9),14	586,(5, 9),30	616,(4, 36),24	640,(5, 36),28	672,(4, 13),24	696,(53, 81),8	704,(25, 81),8	712,(49, 81),8	720,(5, 14),54	774,(26, 81),8	782,(69, 81),8	790,(24, 81),8	798,(42, 81),8	806,(32, 81),8	814,(72, 81),8	822,(34, 81),8	830,(46, 81),8	838,(66, 81),8	846,(12, 81),8	854,(61, 81),8	862,(55, 81),8	877,(10, 81),8	938,(4, 60),74	1167,(76, 81),8	
80,(3, 15),2	82,(3, 53),2	84,(3, 26),2	87,(3, 44),6	96,(3, 72),2	98,(3, 46),2	100,(3, 10),2	104,(3, 58),2	108,(3, 78),2	110,(3, 71),2	114,(3, 45),2	116,(3, 54),2	124,(3, 19),8	132,(3, 27),2	134,(3, 63),10	144,(3, 69),10	182,(3, 56),12	196,(3, 29),6	202,(3, 70),8	210,(3, 34),14	232,(3, 20),28	300,(3, 66),10	368,(3, 43),20	480,(3, 41),32	596,(3, 61),34	774,(3, 37),52	1012,(3, 60),54	
