547
# CPU
0,201,1	1,98,1	2,193,1	3,179,1	4,106,1	5,183,1	6,192,1	7,189,1	8,113,1	9,173,1	10,54,1	11,195,1	12,21,1	13,127,1	14,64,1	15,35,1	16,81,1	17,117,1	18,33,1	19,133,1	20,75,1	21,119,1	22,63,1	23,161,1	24,147,1	25,122,1	26,169,1	27,24,1	28,42,1	29,184,1	30,61,1	31,138,1	32,26,1	33,28,1	34,31,1	35,164,1	36,84,1	37,194,1	38,83,1	39,108,1	40,77,1	41,165,1	42,166,1	43,137,1	44,160,1	45,199,1	46,116,1	47,129,1	48,142,1	49,143,1	50,82,1	51,146,1	52,180,1	53,32,1	54,71,1	55,190,1	56,136,1	57,163,1	58,149,1	59,37,1	60,120,1	61,99,1	62,90,1	63,150,1	64,107,1	65,72,1	66,130,1	67,38,1	68,52,1	69,25,1	70,70,1	71,191,1	72,187,1	73,162,1	74,159,1	75,156,1	76,158,1	77,168,1	78,131,1	79,135,1	80,121,1	81,198,1	82,85,1	83,167,1	84,47,1	85,144,1	86,91,1	87,153,1	88,124,1	89,123,1	90,48,1	91,43,1	92,59,1	93,151,1	94,105,1	95,23,1	96,29,1	97,172,1	98,78,1	99,36,1	100,97,1	101,104,1	102,132,1	103,62,1	104,110,1	105,94,1	106,196,1	107,177,1	108,109,1	109,111,1	110,145,1	111,140,1	112,126,1	113,101,1	114,139,1	115,30,1	116,68,1	117,45,1	118,51,1	119,197,1	120,73,1	121,57,1	122,40,1	123,39,1	124,41,1	125,46,1	126,66,1	127,69,1	128,178,1	129,182,1	130,171,1	131,134,1	132,186,1	133,15,1	134,188,1	135,50,1	136,112,1	137,100,1	138,93,1	139,79,1	140,22,1	141,56,1	142,141,1	143,103,1	144,53,1	145,88,1	146,65,1	147,118,1	148,200,1	149,58,1	150,76,1	151,20,1	152,185,1	153,155,1	154,34,1	155,27,1	156,92,1	157,60,1	158,89,1	159,128,1	160,176,1	161,86,1	162,95,1	163,14,1	164,87,1	165,49,1	166,175,1	167,148,1	168,13,1	169,114,1	170,80,1	171,157,1	172,125,1	173,55,1	174,8,1	175,174,1	176,6,1	177,2,1	178,17,1	179,181,1	180,1,1	181,5,1	182,11,1	183,3,1	184,19,1	185,12,1	186,18,1	191,16,1	227,10,1	278,7,1	350,4,1	545,9,1	546,0,1	
19,44,1	37,115,1	55,67,1	73,170,1	91,152,1	109,96,1	127,102,1	145,74,1	163,154,1	
# Incoming
20,(44, 1),3	38,(115, 11),3	41,(115, 19),6	56,(67, 19),9	74,(170, 12),15	110,(96, 5),3	113,(96, 12),3	116,(152, 18),24	146,(74, 3),12	158,(102, 16),33	191,(154, 10),36	227,(102, 7),51	278,(74, 4),72	350,(96, 9),39	389,(154, 9),156	
1,(201, 44),18	19,(201, 115),18	37,(201, 67),18	55,(201, 170),18	73,(201, 152),18	91,(201, 96),18	109,(201, 102),18	127,(201, 74),18	145,(201, 154),18	
# Outgoing
1,(201, 44),18	19,(201, 115),18	37,(201, 67),18	55,(201, 170),18	73,(201, 152),18	91,(201, 96),18	109,(201, 102),18	127,(201, 74),18	145,(201, 154),18	
20,(44, 1),3	38,(115, 11),3	41,(115, 19),6	56,(67, 19),9	74,(170, 12),15	110,(96, 5),3	113,(96, 12),3	116,(152, 18),24	146,(74, 3),12	158,(102, 16),33	191,(154, 10),36	227,(102, 7),51	278,(74, 4),72	350,(96, 9),39	389,(154, 9),156	
