90
# CPU
0,0,1	1,1,11	12,17,11	23,15,11	34,19,11	45,6,11	56,3,11	67,20,11	78,12,11	89,21,1	
4,2,11	15,4,11	26,8,11	37,14,11	48,5,11	59,18,11	
13,11,11	24,16,11	35,13,11	46,7,11	57,9,11	68,10,11	
# Incoming
24,(11, 21),3	27,(4, 21),3	35,(16, 21),3	38,(8, 21),3	46,(13, 21),3	49,(14, 21),3	57,(7, 21),3	60,(5, 21),3	68,(9, 21),3	71,(18, 21),3	79,(10, 21),3	
1,(0, 2),3	
12,(1, 11),1	13,(1, 16),1	14,(1, 7),3	30,(2, 13),1	31,(2, 9),6	37,(1, 10),19	
# Outgoing
1,(0, 2),3	12,(1, 11),1	13,(1, 16),1	14,(1, 7),3	37,(1, 10),19	
27,(4, 21),3	30,(2, 13),1	31,(2, 9),6	38,(8, 21),3	49,(14, 21),3	60,(5, 21),3	71,(18, 21),3	
24,(11, 21),3	35,(16, 21),3	46,(13, 21),3	57,(7, 21),3	68,(9, 21),3	79,(10, 21),3	
