14966
# CPU
5713,4,2	5797,36,2	5809,40,2	5877,52,2	5913,64,2	7975,24,2	7987,32,2	11425,8,2	11427,20,2	11429,80,2	11431,12,2	11433,60,2	11461,16,2	11497,28,2	11541,68,2	11545,76,2	12157,56,2	12209,72,2	12301,44,2	12665,48,2	
3809,3,2	3811,75,2	9521,7,2	10041,47,2	10081,67,2	10185,39,2	10193,59,2	11789,35,2	11813,15,2	11837,27,2	11893,43,2	11897,55,2	11901,71,2	12045,51,2	12217,11,2	12221,19,2	12225,23,2	12233,31,2	12481,79,2	12949,63,2	
1905,2,2	1907,38,2	3815,10,2	3919,42,2	3939,46,2	7617,6,2	7619,18,2	7641,14,2	7729,50,2	7877,54,2	9683,66,2	11441,22,2	11449,26,2	11489,62,2	11517,70,2	12229,30,2	12293,34,2	12309,58,2	12473,74,2	12477,78,2	
0,0,1	1,1,2	3,5,2	5,45,2	7,57,2	9,65,2	5909,49,2	6045,77,2	7631,13,2	7645,17,2	8289,37,2	9539,9,2	9631,21,2	9635,25,2	9639,61,2	9747,69,2	9751,73,2	11431,33,2	11435,41,2	11439,53,2	11469,29,2	14965,81,1	
# Incoming
3809,(0, 4),1904	5713,(2, 20),20	5733,(2, 24),20	5753,(2, 32),32	5785,(2, 36),12	5797,(2, 40),12	5809,(2, 52),64	5873,(3, 52),4	5901,(2, 64),12	7631,(6, 16),28	7659,(6, 24),316	7975,(6, 32),12	7987,(6, 68),4	7991,(6, 80),4	9521,(0, 8),1904	11425,(7, 16),36	11461,(7, 28),36	11497,(7, 68),44	11541,(7, 76),4	11789,(1, 44),240	12045,(1, 56),112	12157,(1, 72),52	12293,(5, 44),8	12301,(7, 48),364	
1905,(0, 3),1904	5913,(2, 71),8	7617,(0, 7),1904	9521,(4, 15),12	9533,(4, 19),12	9545,(4, 35),168	9713,(4, 39),4	9717,(4, 43),4	9721,(4, 47),320	10041,(4, 63),4	10045,(4, 67),36	10081,(6, 15),40	10121,(6, 39),64	10185,(6, 59),8	11425,(1, 19),4	11441,(1, 27),284	11725,(1, 35),64	11789,(8, 15),24	11813,(8, 27),24	11837,(8, 43),56	11893,(8, 55),4	11897,(8, 71),4	12029,(1, 51),16	12209,(5, 11),8	12217,(5, 19),4	12221,(5, 23),4	12229,(5, 31),4	12477,(5, 79),4	12481,(8, 63),468	
1,(0, 2),1904	3811,(3, 10),4	3815,(3, 14),40	3855,(3, 42),64	3919,(3, 46),20	5713,(0, 6),1904	7617,(4, 14),24	7701,(4, 30),24	7725,(4, 50),4	7873,(4, 54),4	7877,(4, 58),8	7885,(4, 62),4	7889,(4, 74),8	9639,(7, 66),44	11429,(1, 22),12	11441,(8, 26),8	11469,(8, 34),4	11473,(8, 62),16	11489,(8, 70),28	12225,(5, 30),4	12233,(5, 34),60	12301,(5, 58),8	12309,(5, 74),164	12473,(5, 78),4	
5873,(2, 53),28	5901,(3, 21),4	5905,(3, 49),4	5921,(38, 81),96	6017,(3, 77),28	6045,(75, 81),96	6141,(10, 81),96	6237,(42, 81),96	6333,(46, 81),96	7619,(6, 13),12	7641,(4, 17),4	7645,(4, 21),12	7657,(4, 25),44	7729,(4, 53),144	7897,(36, 81),96	7993,(40, 81),96	8089,(52, 81),96	8185,(64, 81),96	8281,(6, 37),8	8289,(6, 61),4	8293,(18, 81),96	8389,(14, 81),96	8485,(50, 81),96	8581,(54, 81),96	8677,(24, 81),96	8773,(32, 81),96	9523,(7, 9),16	9539,(7, 21),92	9631,(7, 25),4	9635,(7, 61),4	9683,(7, 69),64	9747,(7, 73),4	9751,(66, 81),96	10043,(47, 81),96	10139,(67, 81),96	10235,(39, 81),96	10331,(59, 81),96	11427,(8, 33),4	11431,(8, 41),4	11435,(8, 53),4	11449,(8, 29),20	11517,(20, 81),96	11613,(80, 81),96	11709,(22, 81),96	11805,(26, 81),96	11901,(12, 81),96	11997,(60, 81),96	12093,(16, 81),96	12189,(62, 81),96	12285,(28, 81),96	12381,(70, 81),96	12477,(30, 81),96	12665,(35, 81),96	12761,(15, 81),96	12949,(68, 81),96	13045,(76, 81),96	13141,(27, 81),96	13237,(43, 81),96	13333,(55, 81),96	13429,(71, 81),96	13525,(51, 81),96	13621,(56, 81),96	13717,(72, 81),96	13813,(11, 81),96	13909,(19, 81),96	14005,(23, 81),96	14101,(31, 81),96	14197,(34, 81),96	14293,(44, 81),96	14389,(58, 81),96	14485,(74, 81),96	14581,(78, 81),96	14677,(79, 81),96	14773,(48, 81),96	14869,(63, 81),96	
# Outgoing
7617,(4, 14),24	7641,(4, 17),4	7645,(4, 21),12	7657,(4, 25),44	7701,(4, 30),24	7725,(4, 50),4	7729,(4, 53),144	7873,(4, 54),4	7877,(4, 58),8	7885,(4, 62),4	7889,(4, 74),8	7897,(36, 81),96	7993,(40, 81),96	8089,(52, 81),96	8185,(64, 81),96	8677,(24, 81),96	8773,(32, 81),96	9521,(4, 15),12	9533,(4, 19),12	9545,(4, 35),168	9713,(4, 39),4	9717,(4, 43),4	9721,(4, 47),320	10041,(4, 63),4	10045,(4, 67),36	11427,(8, 33),4	11431,(8, 41),4	11435,(8, 53),4	11441,(8, 26),8	11449,(8, 29),20	11469,(8, 34),4	11473,(8, 62),16	11489,(8, 70),28	11517,(20, 81),96	11613,(80, 81),96	11789,(8, 15),24	11813,(8, 27),24	11837,(8, 43),56	11893,(8, 55),4	11897,(8, 71),4	11901,(12, 81),96	11997,(60, 81),96	12093,(16, 81),96	12285,(28, 81),96	12481,(8, 63),468	12949,(68, 81),96	13045,(76, 81),96	13621,(56, 81),96	13717,(72, 81),96	14293,(44, 81),96	14773,(48, 81),96	
3811,(3, 10),4	3815,(3, 14),40	3855,(3, 42),64	3919,(3, 46),20	5873,(3, 52),4	5901,(3, 21),4	5905,(3, 49),4	6017,(3, 77),28	6045,(75, 81),96	9523,(7, 9),16	9539,(7, 21),92	9631,(7, 25),4	9635,(7, 61),4	9639,(7, 66),44	9683,(7, 69),64	9747,(7, 73),4	10043,(47, 81),96	10139,(67, 81),96	10235,(39, 81),96	10331,(59, 81),96	11425,(7, 16),36	11461,(7, 28),36	11497,(7, 68),44	11541,(7, 76),4	12301,(7, 48),364	12665,(35, 81),96	12761,(15, 81),96	13141,(27, 81),96	13237,(43, 81),96	13333,(55, 81),96	13429,(71, 81),96	13525,(51, 81),96	13813,(11, 81),96	13909,(19, 81),96	14005,(23, 81),96	14101,(31, 81),96	14677,(79, 81),96	14869,(63, 81),96	
5713,(2, 20),20	5733,(2, 24),20	5753,(2, 32),32	5785,(2, 36),12	5797,(2, 40),12	5809,(2, 52),64	5873,(2, 53),28	5901,(2, 64),12	5913,(2, 71),8	5921,(38, 81),96	6141,(10, 81),96	6237,(42, 81),96	6333,(46, 81),96	7619,(6, 13),12	7631,(6, 16),28	7659,(6, 24),316	7975,(6, 32),12	7987,(6, 68),4	7991,(6, 80),4	8281,(6, 37),8	8289,(6, 61),4	8293,(18, 81),96	8389,(14, 81),96	8485,(50, 81),96	8581,(54, 81),96	9751,(66, 81),96	10081,(6, 15),40	10121,(6, 39),64	10185,(6, 59),8	11709,(22, 81),96	11805,(26, 81),96	12189,(62, 81),96	12381,(70, 81),96	12477,(30, 81),96	14197,(34, 81),96	14389,(58, 81),96	14485,(74, 81),96	14581,(78, 81),96	
1,(0, 2),1904	1905,(0, 3),1904	3809,(0, 4),1904	5713,(0, 6),1904	7617,(0, 7),1904	9521,(0, 8),1904	11425,(1, 19),4	11429,(1, 22),12	11441,(1, 27),284	11725,(1, 35),64	11789,(1, 44),240	12029,(1, 51),16	12045,(1, 56),112	12157,(1, 72),52	12209,(5, 11),8	12217,(5, 19),4	12221,(5, 23),4	12225,(5, 30),4	12229,(5, 31),4	12233,(5, 34),60	12293,(5, 44),8	12301,(5, 58),8	12309,(5, 74),164	12473,(5, 78),4	12477,(5, 79),4	
