502
# CPU
3,3,35	38,11,35	73,7,35	108,14,35	143,17,35	178,23,35	213,8,35	248,20,35	283,26,35	318,29,35	353,32,35	388,35,35	423,38,35	
2,2,35	73,9,35	108,15,35	143,12,35	178,21,35	213,30,35	248,6,35	283,18,35	318,24,35	353,27,35	388,33,35	423,36,35	458,39,35	
0,0,1	1,1,35	36,4,35	71,31,35	106,10,35	141,25,35	176,5,35	211,16,35	246,28,35	281,19,35	316,34,35	351,13,35	386,22,35	421,37,35	456,40,35	501,41,1	
# Incoming
2,(0, 3),1	37,(1, 7),4	41,(1, 8),1	42,(2, 7),15	57,(2, 8),1	68,(2, 14),6	74,(2, 17),1	77,(1, 17),9	86,(1, 20),1	87,(2, 29),1	88,(2, 32),4	92,(2, 35),1	93,(2, 38),1	95,(1, 23),5	103,(1, 29),51	154,(1, 32),3	157,(2, 20),17	174,(2, 26),17	191,(4, 8),11	202,(4, 20),1	203,(4, 26),12	215,(4, 29),8	223,(4, 32),1	224,(4, 35),5	229,(4, 38),12	
1,(0, 2),1	36,(1, 6),1	38,(3, 9),4	42,(1, 9),31	73,(1, 15),4	77,(3, 12),3	80,(3, 18),1	81,(3, 24),1	82,(3, 27),3	85,(3, 33),1	87,(1, 21),8	95,(3, 30),3	98,(3, 39),1	100,(1, 24),2	102,(1, 27),1	157,(1, 33),4	161,(1, 36),27	188,(1, 39),1	189,(3, 36),52	241,(4, 6),1	242,(4, 18),6	248,(4, 24),16	264,(4, 27),2	266,(4, 33),1	267,(4, 36),1	268,(4, 39),3	
37,(2, 5),1	38,(2, 13),4	42,(3, 10),12	54,(3, 25),2	58,(2, 10),10	75,(2, 19),2	86,(3, 34),8	94,(2, 40),15	109,(3, 13),48	157,(3, 22),19	176,(11, 41),8	191,(9, 41),8	199,(15, 41),8	207,(12, 41),8	215,(21, 41),8	241,(3, 37),45	286,(3, 40),15	301,(7, 41),8	309,(14, 41),8	317,(17, 41),8	325,(23, 41),8	333,(8, 41),8	341,(30, 41),8	349,(20, 41),8	357,(6, 41),8	365,(26, 41),8	373,(18, 41),8	381,(29, 41),8	389,(24, 41),8	397,(32, 41),8	405,(27, 41),8	423,(35, 41),8	431,(33, 41),8	458,(36, 41),8	466,(38, 41),8	493,(39, 41),8	
# Outgoing
38,(3, 9),4	42,(3, 10),12	54,(3, 25),2	77,(3, 12),3	80,(3, 18),1	81,(3, 24),1	82,(3, 27),3	85,(3, 33),1	86,(3, 34),8	95,(3, 30),3	98,(3, 39),1	109,(3, 13),48	157,(3, 22),19	176,(11, 41),8	189,(3, 36),52	241,(3, 37),45	286,(3, 40),15	301,(7, 41),8	309,(14, 41),8	317,(17, 41),8	325,(23, 41),8	333,(8, 41),8	349,(20, 41),8	365,(26, 41),8	381,(29, 41),8	397,(32, 41),8	423,(35, 41),8	466,(38, 41),8	
37,(2, 5),1	38,(2, 13),4	42,(2, 7),15	57,(2, 8),1	58,(2, 10),10	68,(2, 14),6	74,(2, 17),1	75,(2, 19),2	87,(2, 29),1	88,(2, 32),4	92,(2, 35),1	93,(2, 38),1	94,(2, 40),15	157,(2, 20),17	174,(2, 26),17	191,(9, 41),8	199,(15, 41),8	207,(12, 41),8	215,(21, 41),8	341,(30, 41),8	357,(6, 41),8	373,(18, 41),8	389,(24, 41),8	405,(27, 41),8	431,(33, 41),8	458,(36, 41),8	493,(39, 41),8	
1,(0, 2),1	2,(0, 3),1	36,(1, 6),1	37,(1, 7),4	41,(1, 8),1	42,(1, 9),31	73,(1, 15),4	77,(1, 17),9	86,(1, 20),1	87,(1, 21),8	95,(1, 23),5	100,(1, 24),2	102,(1, 27),1	103,(1, 29),51	154,(1, 32),3	157,(1, 33),4	161,(1, 36),27	188,(1, 39),1	191,(4, 8),11	202,(4, 20),1	203,(4, 26),12	215,(4, 29),8	223,(4, 32),1	224,(4, 35),5	229,(4, 38),12	241,(4, 6),1	242,(4, 18),6	248,(4, 24),16	264,(4, 27),2	266,(4, 33),1	267,(4, 36),1	268,(4, 39),3	
