40262
# CPU
1569,3,1	3137,6,1	4705,9,1	6273,12,1	13573,96,1	20613,32,1	20821,39,1	20877,44,1	20881,46,1	21257,47,1	22157,84,1	22793,119,1	22905,21,1	23017,27,1	23029,35,1	23045,40,1	23121,49,1	23645,57,1	24713,58,1	25673,74,1	25689,75,1	26481,95,1	33713,89,1	33957,107,1	34129,24,1	34485,29,1	34677,31,1	34709,33,1	36197,52,1	36581,55,1	36745,65,1	36749,66,1	36789,73,1	36821,77,1	36825,78,1	36829,79,1	36833,80,1	37037,82,1	37053,88,1	37057,93,1	37065,94,1	37813,101,1	37849,104,1	38097,112,1	38125,113,1	38161,118,1	38181,120,1	38309,18,1	38313,19,1	38349,22,1	38353,23,1	38545,25,1	38585,26,1	38589,28,1	38601,34,1	38605,38,1	38645,41,1	38649,42,1	38709,43,1	38793,45,1	38865,48,1	38869,51,1	38881,53,1	38889,54,1	38933,59,1	38945,60,1	38957,61,1	39069,63,1	39077,64,1	39089,67,1	39093,69,1	39105,70,1	39109,71,1	39113,72,1	39193,76,1	39237,81,1	39245,83,1	39305,85,1	39309,86,1	39313,87,1	39333,90,1	39393,91,1	39473,92,1	39485,97,1	39573,98,1	39589,99,1	39633,100,1	39645,102,1	39649,103,1	39777,105,1	39793,106,1	39797,108,1	39805,109,1	39809,110,1	39813,111,1	39825,114,1	40125,115,1	40137,116,1	40157,117,1	40261,121,1	
785,2,1	2353,5,1	3921,8,1	5489,11,1	9297,36,1	20905,50,1	21265,56,1	22837,15,1	22841,16,1	22873,17,1	23021,30,1	
0,0,1	1,10,1	2,4,1	3,7,1	4,1,1	9033,68,1	9309,20,1	9313,13,1	9441,14,1	10469,37,1	14913,62,1	
# Incoming
785,(0, 3),784	1569,(2, 18),8	1577,(2, 19),4	1581,(2, 22),4	1585,(2, 24),4	1589,(2, 27),4	1593,(2, 29),16	1609,(2, 32),4	1613,(2, 33),12	1625,(2, 34),4	1629,(2, 38),28	1657,(2, 40),20	1677,(2, 41),28	1705,(2, 43),68	1773,(2, 44),8	1781,(2, 45),88	1869,(2, 48),8	1877,(2, 51),4	1881,(2, 58),52	1933,(2, 59),16	1949,(2, 60),40	1989,(2, 61),80	2069,(2, 64),4	2073,(2, 65),60	2133,(2, 66),4	2137,(2, 69),8	2145,(2, 72),104	2249,(2, 73),8	2257,(2, 74),4	2261,(2, 76),32	2293,(2, 77),4	2297,(2, 81),40	2337,(2, 85),16	2353,(0, 6),784	3137,(2, 80),88	3225,(2, 86),4	3229,(2, 87),12	3241,(2, 88),36	3277,(2, 90),16	3293,(2, 91),4	3297,(2, 93),8	3305,(2, 95),24	3329,(2, 97),4	3333,(2, 102),4	3337,(2, 103),20	3357,(2, 105),20	3377,(2, 106),184	3561,(2, 107),8	3569,(2, 109),4	3573,(2, 110),16	3589,(2, 111),28	3617,(2, 114),4	3621,(2, 115),12	3633,(2, 119),20	3921,(0, 9),784	4745,(5, 19),4	4749,(5, 21),4	4753,(5, 23),20	4773,(5, 25),8	4781,(5, 26),20	4801,(5, 28),4	4805,(5, 29),12	4817,(5, 31),68	4885,(5, 32),4	4889,(5, 33),64	4953,(5, 34),4	4957,(5, 38),4	4961,(5, 40),20	4981,(5, 43),12	4993,(5, 44),248	5241,(5, 45),100	5341,(5, 47),20	5361,(5, 52),24	5385,(5, 53),72	5457,(5, 54),8	5465,(5, 55),8	5473,(5, 66),12	5485,(5, 74),4	5489,(0, 12),784	6273,(5, 82),4	6277,(5, 84),4	6281,(5, 91),4	6285,(5, 96),4	6289,(10, 21),28	6317,(10, 23),4	6321,(10, 27),20	6341,(10, 28),4	6345,(10, 32),72	6417,(10, 33),28	6445,(10, 34),2808	9253,(10, 35),12	9265,(10, 39),144	9409,(10, 40),68	9477,(10, 41),76	9553,(10, 42),36	9589,(10, 43),24	9613,(10, 44),200	9813,(10, 46),44	9857,(10, 48),48	9905,(5, 63),56	9961,(5, 71),84	10045,(5, 92),16	10061,(5, 97),12	10073,(10, 51),80	10153,(10, 53),4	10157,(10, 57),172	10329,(10, 58),44	10373,(10, 61),12	10385,(10, 63),260	10645,(10, 65),40	10685,(10, 66),4	10689,(10, 67),4	10693,(10, 70),84	10777,(10, 72),68	10845,(10, 74),4	10849,(10, 78),4	10853,(10, 80),4	10857,(10, 81),4	10861,(10, 82),4	10865,(10, 83),228	11093,(10, 84),16	11109,(10, 86),12	11121,(10, 88),16	11137,(10, 89),12	11149,(10, 90),116	11265,(10, 92),32	11297,(10, 93),28	11325,(10, 96),4	11329,(10, 99),20	11349,(10, 102),804	12153,(10, 104),24	12177,(10, 105),260	12437,(10, 107),12	12449,(10, 108),16	12465,(10, 110),84	12549,(10, 112),24	12573,(10, 113),32	12605,(10, 114),24	12629,(10, 115),4	12633,(5, 99),4	12637,(5, 102),4	12641,(5, 104),4	12645,(5, 110),4	12649,(4, 18),12	12661,(4, 19),4	12665,(4, 21),4	12669,(4, 27),32	12701,(4, 28),4	12705,(4, 29),16	12721,(5, 93),20	12741,(5, 105),8	12749,(4, 31),56	12805,(4, 32),4	12809,(4, 34),4	12813,(4, 35),144	12957,(4, 38),28	12985,(4, 40),4	12989,(4, 41),8	12997,(4, 45),48	13045,(4, 46),12	13057,(4, 47),12	13069,(4, 53),4	13073,(4, 55),4	13077,(5, 80),36	13113,(5, 111),4	13117,(8, 18),4	13121,(8, 19),4	13125,(4, 57),56	13181,(4, 59),156	13337,(4, 69),24	13361,(4, 70),16	13377,(4, 71),8	13385,(4, 72),4	13389,(4, 73),4	13393,(4, 77),4	13397,(4, 79),16	13413,(4, 82),40	13453,(4, 87),8	13461,(4, 88),36	13497,(4, 89),4	13501,(4, 90),4	13505,(4, 91),8	13513,(4, 92),24	13537,(4, 93),8	13545,(4, 94),4	13549,(4, 96),24	13573,(4, 100),24	13597,(4, 101),2784	16381,(4, 104),20	16401,(4, 105),4	16405,(4, 106),4	16409,(4, 107),4	16413,(4, 108),32	16445,(4, 109),80	16525,(4, 113),24	16549,(4, 115),4	16553,(4, 116),4	16557,(4, 120),4	16561,(5, 109),16	16577,(8, 32),4	16581,(8, 42),4	16585,(7, 18),36	16621,(7, 23),12	16633,(7, 24),2764	19397,(7, 25),220	19617,(7, 26),100	19717,(7, 27),8	19725,(7, 28),812	20537,(7, 29),4	20541,(8, 44),4	20545,(7, 31),64	20609,(7, 32),4	20613,(7, 35),200	20813,(7, 39),8	20821,(7, 41),16	20837,(7, 43),4	20841,(7, 44),36	20877,(7, 46),4	20881,(7, 47),4	20885,(7, 48),12	20897,(8, 41),8	20905,(7, 52),40	20945,(7, 53),296	21241,(5, 120),12	21253,(8, 47),4	21257,(8, 49),4	21261,(8, 60),4	21265,(7, 57),12	21277,(7, 59),8	21285,(7, 60),8	21293,(7, 64),40	21333,(7, 66),44	21377,(7, 67),4	21381,(7, 69),16	21397,(7, 71),4	21401,(7, 75),20	21421,(7, 76),28	21449,(7, 77),16	21465,(7, 78),88	21553,(7, 79),392	21945,(7, 80),40	21985,(7, 81),104	22089,(7, 82),8	22097,(7, 84),60	22157,(7, 90),32	22189,(7, 93),8	22197,(7, 94),68	22265,(7, 98),56	22321,(7, 100),48	22369,(7, 101),8	22377,(7, 102),4	22381,(7, 103),36	22417,(7, 104),68	22485,(7, 105),12	22497,(7, 106),8	22505,(7, 108),12	22517,(7, 110),16	22533,(7, 111),24	22557,(7, 112),32	22589,(7, 113),28	22617,(7, 114),40	22657,(7, 117),80	22737,(7, 118),16	22753,(7, 119),40	22793,(7, 120),40	22833,(5, 101),28	22861,(8, 58),8	22869,(8, 63),4	22873,(1, 18),12	22885,(1, 21),20	22905,(1, 22),16	22921,(1, 23),4	22925,(1, 25),4	22929,(1, 26),64	22993,(1, 27),24	23017,(8, 64),4	23021,(1, 35),8	23029,(1, 40),16	23045,(1, 45),8	23053,(1, 48),12	23065,(1, 49),56	23121,(1, 52),60	23181,(1, 53),104	23285,(1, 57),360	23645,(1, 58),1068	24713,(1, 59),4	24717,(1, 60),4	24721,(1, 61),40	24761,(1, 65),104	24865,(1, 71),4	24869,(1, 72),36	24905,(1, 73),28	24933,(1, 74),740	25673,(1, 75),16	25689,(1, 76),100	25789,(1, 78),44	25833,(1, 79),136	25969,(1, 80),76	26045,(1, 81),4	26049,(1, 82),4	26053,(1, 85),140	26193,(1, 86),80	26273,(1, 89),4	26277,(1, 90),32	26309,(1, 91),168	26477,(1, 95),4	26481,(1, 99),4	26485,(1, 103),20	26505,(1, 104),48	26553,(1, 105),4	26557,(1, 108),28	26585,(1, 115),4	26589,(1, 116),16	26605,(1, 117),32	26637,(1, 118),12	26649,(1, 120),24	26673,(2, 54),6040	32713,(2, 117),844	33557,(5, 77),56	33613,(5, 87),44	33657,(5, 89),56	33713,(5, 94),56	33769,(5, 98),108	33877,(5, 107),80	33957,(5, 114),68	34025,(8, 22),24	34049,(8, 24),80	34129,(8, 25),56	34185,(8, 29),300	34485,(8, 31),192	34677,(8, 33),32	34709,(8, 48),16	34725,(8, 52),1472	36197,(8, 53),368	36565,(8, 55),16	36581,(8, 65),164	36745,(8, 66),4	36749,(8, 70),12	36761,(8, 71),8	36769,(8, 72),4	36773,(8, 73),16	36789,(8, 77),32	36821,(8, 78),4	36825,(8, 79),4	36829,(8, 80),4	36833,(8, 82),204	37037,(8, 83),4	37041,(8, 86),4	37045,(8, 87),4	37049,(8, 88),4	37053,(8, 93),4	37057,(8, 94),8	37065,(8, 98),52	37117,(8, 99),632	37749,(8, 100),4	37753,(8, 101),60	37813,(8, 103),4	37817,(8, 104),32	37849,(8, 105),116	37965,(8, 108),4	37969,(8, 110),28	37997,(8, 111),72	38069,(8, 112),28	38097,(8, 113),28	38125,(8, 114),16	38141,(8, 115),4	38145,(8, 118),16	38161,(8, 120),20	38181,(11, 18),128	38309,(11, 19),4	38313,(11, 22),36	38349,(11, 23),4	38353,(11, 25),192	38545,(11, 26),40	38585,(11, 28),4	38589,(11, 34),12	38601,(11, 38),4	38605,(11, 41),40	38645,(11, 42),4	38649,(11, 43),60	38709,(11, 45),84	38793,(11, 48),72	38865,(11, 51),4	38869,(11, 53),12	38881,(11, 54),8	38889,(11, 59),44	38933,(11, 60),12	38945,(11, 61),12	38957,(11, 63),112	39069,(11, 64),8	39077,(11, 67),12	39089,(11, 69),4	39093,(11, 70),12	39105,(11, 71),4	39109,(11, 72),4	39113,(11, 76),80	39193,(11, 81),44	39237,(11, 83),8	39245,(11, 85),60	39305,(11, 86),4	39309,(11, 87),4	39313,(11, 90),20	39333,(11, 91),60	39393,(11, 92),80	39473,(11, 97),12	39485,(11, 98),88	39573,(11, 99),16	39589,(11, 100),44	39633,(11, 102),12	39645,(11, 103),4	39649,(11, 105),128	39777,(11, 106),16	39793,(11, 108),4	39797,(11, 109),8	39805,(11, 110),4	39809,(11, 111),4	39813,(11, 114),12	39825,(11, 115),300	40125,(11, 116),12	40137,(11, 117),20	40157,(68, 121),8	40165,(36, 121),8	40173,(20, 121),8	40181,(13, 121),8	40189,(14, 121),8	40197,(37, 121),8	40205,(62, 121),8	40213,(50, 121),8	40221,(56, 121),8	40229,(15, 121),8	40237,(16, 121),8	40245,(17, 121),8	40253,(30, 121),8	
1,(0, 2),784	1569,(0, 5),784	2353,(3, 16),28	2381,(3, 36),8	2389,(3, 50),40	2429,(3, 56),4	3137,(0, 8),784	3921,(6, 16),8	3929,(6, 17),16	3945,(6, 30),132	4077,(6, 36),8	4085,(6, 50),44	4705,(0, 11),784	5489,(9, 16),32	5521,(9, 50),8	6273,(10, 16),16	9033,(12, 15),12	9045,(12, 16),32	9077,(12, 36),220	9905,(10, 50),168	10469,(12, 50),688	11157,(12, 56),884	12633,(4, 16),12	12645,(4, 17),4	12721,(4, 30),28	13077,(4, 56),48	16561,(7, 16),24	20541,(7, 30),4	20897,(7, 50),8	21241,(7, 56),24	22833,(1, 15),4	22837,(1, 16),4	22841,(1, 17),32	23017,(1, 30),4	
786,(2, 13),20	806,(2, 20),8	814,(2, 37),4	818,(2, 62),16	834,(2, 68),140	1570,(3, 14),32	1602,(3, 20),4	1606,(3, 37),520	2354,(5, 20),24	2378,(5, 37),4	2382,(5, 62),16	2398,(5, 68),96	3138,(6, 14),12	3150,(6, 62),8	3158,(6, 68),48	3653,(5, 13),1092	4745,(9, 20),28	4773,(9, 62),4	5489,(8, 13),52	5541,(8, 14),28	5569,(8, 37),548	6117,(9, 68),2916	9033,(11, 14),20	9053,(11, 20),256	9309,(12, 13),4	9313,(12, 14),128	9441,(12, 37),1028	12041,(12, 62),2872	
# Outgoing
1570,(3, 14),32	1602,(3, 20),4	1606,(3, 37),520	2353,(3, 16),28	2381,(3, 36),8	2389,(3, 50),40	2429,(3, 56),4	3138,(6, 14),12	3150,(6, 62),8	3158,(6, 68),48	3921,(6, 16),8	3929,(6, 17),16	3945,(6, 30),132	4077,(6, 36),8	4085,(6, 50),44	4745,(9, 20),28	4773,(9, 62),4	5489,(9, 16),32	5521,(9, 50),8	6117,(9, 68),2916	9033,(12, 15),12	9045,(12, 16),32	9077,(12, 36),220	9309,(12, 13),4	9313,(12, 14),128	9441,(12, 37),1028	10469,(12, 50),688	11157,(12, 56),884	12041,(12, 62),2872	
786,(2, 13),20	806,(2, 20),8	814,(2, 37),4	818,(2, 62),16	834,(2, 68),140	1569,(2, 18),8	1577,(2, 19),4	1581,(2, 22),4	1585,(2, 24),4	1589,(2, 27),4	1593,(2, 29),16	1609,(2, 32),4	1613,(2, 33),12	1625,(2, 34),4	1629,(2, 38),28	1657,(2, 40),20	1677,(2, 41),28	1705,(2, 43),68	1773,(2, 44),8	1781,(2, 45),88	1869,(2, 48),8	1877,(2, 51),4	1881,(2, 58),52	1933,(2, 59),16	1949,(2, 60),40	1989,(2, 61),80	2069,(2, 64),4	2073,(2, 65),60	2133,(2, 66),4	2137,(2, 69),8	2145,(2, 72),104	2249,(2, 73),8	2257,(2, 74),4	2261,(2, 76),32	2293,(2, 77),4	2297,(2, 81),40	2337,(2, 85),16	2354,(5, 20),24	2378,(5, 37),4	2382,(5, 62),16	2398,(5, 68),96	3137,(2, 80),88	3225,(2, 86),4	3229,(2, 87),12	3241,(2, 88),36	3277,(2, 90),16	3293,(2, 91),4	3297,(2, 93),8	3305,(2, 95),24	3329,(2, 97),4	3333,(2, 102),4	3337,(2, 103),20	3357,(2, 105),20	3377,(2, 106),184	3561,(2, 107),8	3569,(2, 109),4	3573,(2, 110),16	3589,(2, 111),28	3617,(2, 114),4	3621,(2, 115),12	3633,(2, 119),20	3653,(5, 13),1092	4745,(5, 19),4	4749,(5, 21),4	4753,(5, 23),20	4773,(5, 25),8	4781,(5, 26),20	4801,(5, 28),4	4805,(5, 29),12	4817,(5, 31),68	4885,(5, 32),4	4889,(5, 33),64	4953,(5, 34),4	4957,(5, 38),4	4961,(5, 40),20	4981,(5, 43),12	4993,(5, 44),248	5241,(5, 45),100	5341,(5, 47),20	5361,(5, 52),24	5385,(5, 53),72	5457,(5, 54),8	5465,(5, 55),8	5473,(5, 66),12	5485,(5, 74),4	5489,(8, 13),52	5541,(8, 14),28	5569,(8, 37),548	6273,(5, 82),4	6277,(5, 84),4	6281,(5, 91),4	6285,(5, 96),4	9033,(11, 14),20	9053,(11, 20),256	9905,(5, 63),56	9961,(5, 71),84	10045,(5, 92),16	10061,(5, 97),12	12633,(5, 99),4	12637,(5, 102),4	12641,(5, 104),4	12645,(5, 110),4	12721,(5, 93),20	12741,(5, 105),8	13077,(5, 80),36	13113,(5, 111),4	13117,(8, 18),4	13121,(8, 19),4	16561,(5, 109),16	16577,(8, 32),4	16581,(8, 42),4	20541,(8, 44),4	20897,(8, 41),8	21241,(5, 120),12	21253,(8, 47),4	21257,(8, 49),4	21261,(8, 60),4	22833,(5, 101),28	22861,(8, 58),8	22869,(8, 63),4	23017,(8, 64),4	26673,(2, 54),6040	32713,(2, 117),844	33557,(5, 77),56	33613,(5, 87),44	33657,(5, 89),56	33713,(5, 94),56	33769,(5, 98),108	33877,(5, 107),80	33957,(5, 114),68	34025,(8, 22),24	34049,(8, 24),80	34129,(8, 25),56	34185,(8, 29),300	34485,(8, 31),192	34677,(8, 33),32	34709,(8, 48),16	34725,(8, 52),1472	36197,(8, 53),368	36565,(8, 55),16	36581,(8, 65),164	36745,(8, 66),4	36749,(8, 70),12	36761,(8, 71),8	36769,(8, 72),4	36773,(8, 73),16	36789,(8, 77),32	36821,(8, 78),4	36825,(8, 79),4	36829,(8, 80),4	36833,(8, 82),204	37037,(8, 83),4	37041,(8, 86),4	37045,(8, 87),4	37049,(8, 88),4	37053,(8, 93),4	37057,(8, 94),8	37065,(8, 98),52	37117,(8, 99),632	37749,(8, 100),4	37753,(8, 101),60	37813,(8, 103),4	37817,(8, 104),32	37849,(8, 105),116	37965,(8, 108),4	37969,(8, 110),28	37997,(8, 111),72	38069,(8, 112),28	38097,(8, 113),28	38125,(8, 114),16	38141,(8, 115),4	38145,(8, 118),16	38161,(8, 120),20	38181,(11, 18),128	38309,(11, 19),4	38313,(11, 22),36	38349,(11, 23),4	38353,(11, 25),192	38545,(11, 26),40	38585,(11, 28),4	38589,(11, 34),12	38601,(11, 38),4	38605,(11, 41),40	38645,(11, 42),4	38649,(11, 43),60	38709,(11, 45),84	38793,(11, 48),72	38865,(11, 51),4	38869,(11, 53),12	38881,(11, 54),8	38889,(11, 59),44	38933,(11, 60),12	38945,(11, 61),12	38957,(11, 63),112	39069,(11, 64),8	39077,(11, 67),12	39089,(11, 69),4	39093,(11, 70),12	39105,(11, 71),4	39109,(11, 72),4	39113,(11, 76),80	39193,(11, 81),44	39237,(11, 83),8	39245,(11, 85),60	39305,(11, 86),4	39309,(11, 87),4	39313,(11, 90),20	39333,(11, 91),60	39393,(11, 92),80	39473,(11, 97),12	39485,(11, 98),88	39573,(11, 99),16	39589,(11, 100),44	39633,(11, 102),12	39645,(11, 103),4	39649,(11, 105),128	39777,(11, 106),16	39793,(11, 108),4	39797,(11, 109),8	39805,(11, 110),4	39809,(11, 111),4	39813,(11, 114),12	39825,(11, 115),300	40125,(11, 116),12	40137,(11, 117),20	40165,(36, 121),8	40213,(50, 121),8	40221,(56, 121),8	40229,(15, 121),8	40237,(16, 121),8	40245,(17, 121),8	40253,(30, 121),8	
1,(0, 2),784	785,(0, 3),784	1569,(0, 5),784	2353,(0, 6),784	3137,(0, 8),784	3921,(0, 9),784	4705,(0, 11),784	5489,(0, 12),784	6273,(10, 16),16	6289,(10, 21),28	6317,(10, 23),4	6321,(10, 27),20	6341,(10, 28),4	6345,(10, 32),72	6417,(10, 33),28	6445,(10, 34),2808	9253,(10, 35),12	9265,(10, 39),144	9409,(10, 40),68	9477,(10, 41),76	9553,(10, 42),36	9589,(10, 43),24	9613,(10, 44),200	9813,(10, 46),44	9857,(10, 48),48	9905,(10, 50),168	10073,(10, 51),80	10153,(10, 53),4	10157,(10, 57),172	10329,(10, 58),44	10373,(10, 61),12	10385,(10, 63),260	10645,(10, 65),40	10685,(10, 66),4	10689,(10, 67),4	10693,(10, 70),84	10777,(10, 72),68	10845,(10, 74),4	10849,(10, 78),4	10853,(10, 80),4	10857,(10, 81),4	10861,(10, 82),4	10865,(10, 83),228	11093,(10, 84),16	11109,(10, 86),12	11121,(10, 88),16	11137,(10, 89),12	11149,(10, 90),116	11265,(10, 92),32	11297,(10, 93),28	11325,(10, 96),4	11329,(10, 99),20	11349,(10, 102),804	12153,(10, 104),24	12177,(10, 105),260	12437,(10, 107),12	12449,(10, 108),16	12465,(10, 110),84	12549,(10, 112),24	12573,(10, 113),32	12605,(10, 114),24	12629,(10, 115),4	12633,(4, 16),12	12645,(4, 17),4	12649,(4, 18),12	12661,(4, 19),4	12665,(4, 21),4	12669,(4, 27),32	12701,(4, 28),4	12705,(4, 29),16	12721,(4, 30),28	12749,(4, 31),56	12805,(4, 32),4	12809,(4, 34),4	12813,(4, 35),144	12957,(4, 38),28	12985,(4, 40),4	12989,(4, 41),8	12997,(4, 45),48	13045,(4, 46),12	13057,(4, 47),12	13069,(4, 53),4	13073,(4, 55),4	13077,(4, 56),48	13125,(4, 57),56	13181,(4, 59),156	13337,(4, 69),24	13361,(4, 70),16	13377,(4, 71),8	13385,(4, 72),4	13389,(4, 73),4	13393,(4, 77),4	13397,(4, 79),16	13413,(4, 82),40	13453,(4, 87),8	13461,(4, 88),36	13497,(4, 89),4	13501,(4, 90),4	13505,(4, 91),8	13513,(4, 92),24	13537,(4, 93),8	13545,(4, 94),4	13549,(4, 96),24	13573,(4, 100),24	13597,(4, 101),2784	16381,(4, 104),20	16401,(4, 105),4	16405,(4, 106),4	16409,(4, 107),4	16413,(4, 108),32	16445,(4, 109),80	16525,(4, 113),24	16549,(4, 115),4	16553,(4, 116),4	16557,(4, 120),4	16561,(7, 16),24	16585,(7, 18),36	16621,(7, 23),12	16633,(7, 24),2764	19397,(7, 25),220	19617,(7, 26),100	19717,(7, 27),8	19725,(7, 28),812	20537,(7, 29),4	20541,(7, 30),4	20545,(7, 31),64	20609,(7, 32),4	20613,(7, 35),200	20813,(7, 39),8	20821,(7, 41),16	20837,(7, 43),4	20841,(7, 44),36	20877,(7, 46),4	20881,(7, 47),4	20885,(7, 48),12	20897,(7, 50),8	20905,(7, 52),40	20945,(7, 53),296	21241,(7, 56),24	21265,(7, 57),12	21277,(7, 59),8	21285,(7, 60),8	21293,(7, 64),40	21333,(7, 66),44	21377,(7, 67),4	21381,(7, 69),16	21397,(7, 71),4	21401,(7, 75),20	21421,(7, 76),28	21449,(7, 77),16	21465,(7, 78),88	21553,(7, 79),392	21945,(7, 80),40	21985,(7, 81),104	22089,(7, 82),8	22097,(7, 84),60	22157,(7, 90),32	22189,(7, 93),8	22197,(7, 94),68	22265,(7, 98),56	22321,(7, 100),48	22369,(7, 101),8	22377,(7, 102),4	22381,(7, 103),36	22417,(7, 104),68	22485,(7, 105),12	22497,(7, 106),8	22505,(7, 108),12	22517,(7, 110),16	22533,(7, 111),24	22557,(7, 112),32	22589,(7, 113),28	22617,(7, 114),40	22657,(7, 117),80	22737,(7, 118),16	22753,(7, 119),40	22793,(7, 120),40	22833,(1, 15),4	22837,(1, 16),4	22841,(1, 17),32	22873,(1, 18),12	22885,(1, 21),20	22905,(1, 22),16	22921,(1, 23),4	22925,(1, 25),4	22929,(1, 26),64	22993,(1, 27),24	23017,(1, 30),4	23021,(1, 35),8	23029,(1, 40),16	23045,(1, 45),8	23053,(1, 48),12	23065,(1, 49),56	23121,(1, 52),60	23181,(1, 53),104	23285,(1, 57),360	23645,(1, 58),1068	24713,(1, 59),4	24717,(1, 60),4	24721,(1, 61),40	24761,(1, 65),104	24865,(1, 71),4	24869,(1, 72),36	24905,(1, 73),28	24933,(1, 74),740	25673,(1, 75),16	25689,(1, 76),100	25789,(1, 78),44	25833,(1, 79),136	25969,(1, 80),76	26045,(1, 81),4	26049,(1, 82),4	26053,(1, 85),140	26193,(1, 86),80	26273,(1, 89),4	26277,(1, 90),32	26309,(1, 91),168	26477,(1, 95),4	26481,(1, 99),4	26485,(1, 103),20	26505,(1, 104),48	26553,(1, 105),4	26557,(1, 108),28	26585,(1, 115),4	26589,(1, 116),16	26605,(1, 117),32	26637,(1, 118),12	26649,(1, 120),24	40157,(68, 121),8	40173,(20, 121),8	40181,(13, 121),8	40189,(14, 121),8	40197,(37, 121),8	40205,(62, 121),8	
