236
# CPU
0,0,1	1,2,10	11,16,10	21,31,10	31,12,10	41,22,10	51,13,10	61,3,10	71,5,10	81,38,10	91,30,10	101,18,10	111,32,10	121,10,10	131,21,10	141,39,10	151,20,10	161,8,10	
5,4,10	15,9,10	25,26,10	35,19,10	45,35,10	55,6,10	65,34,10	75,25,10	85,37,10	95,23,10	105,17,10	115,27,10	125,40,10	135,14,10	145,1,10	155,36,10	165,33,10	175,15,10	185,29,10	195,11,10	205,7,10	215,24,10	225,28,10	235,41,1	
# Incoming

1,(0, 4),4	5,(0, 1),4	21,(16, 41),4	31,(31, 41),4	41,(12, 41),4	51,(22, 41),4	61,(13, 41),4	81,(5, 41),4	91,(38, 41),4	101,(30, 41),4	111,(18, 41),4	121,(32, 41),4	131,(10, 41),4	141,(21, 41),4	151,(39, 41),4	161,(20, 41),4	171,(8, 41),4	
# Outgoing
1,(0, 4),4	5,(0, 1),4	21,(16, 41),4	31,(31, 41),4	41,(12, 41),4	51,(22, 41),4	61,(13, 41),4	81,(5, 41),4	91,(38, 41),4	101,(30, 41),4	111,(18, 41),4	121,(32, 41),4	131,(10, 41),4	141,(21, 41),4	151,(39, 41),4	161,(20, 41),4	171,(8, 41),4	

