79
# CPU
38,5,4	49,8,4	58,11,4	62,14,4	66,17,4	70,20,4	
2,2,4	6,7,4	10,16,4	27,4,4	49,10,4	59,13,4	70,19,4	
0,0,1	1,1,4	5,3,4	9,9,4	13,6,4	17,12,4	21,18,4	54,15,4	78,21,1	
# Incoming
27,(1, 5),11	38,(1, 8),10	48,(2, 8),1	49,(1, 11),9	59,(1, 14),1	60,(1, 17),1	61,(2, 20),5	
1,(0, 2),1	5,(1, 4),22	48,(1, 10),1	58,(1, 13),1	61,(1, 19),9	
49,(2, 15),5	54,(7, 21),2	56,(16, 21),2	58,(4, 21),2	60,(5, 21),2	62,(8, 21),2	64,(11, 21),2	66,(10, 21),2	68,(13, 21),2	70,(14, 21),2	72,(17, 21),2	74,(19, 21),2	76,(20, 21),2	
# Outgoing
60,(5, 21),2	62,(8, 21),2	64,(11, 21),2	70,(14, 21),2	72,(17, 21),2	76,(20, 21),2	
48,(2, 8),1	49,(2, 15),5	54,(7, 21),2	56,(16, 21),2	58,(4, 21),2	61,(2, 20),5	66,(10, 21),2	68,(13, 21),2	74,(19, 21),2	
1,(0, 2),1	5,(1, 4),22	27,(1, 5),11	38,(1, 8),10	48,(1, 10),1	49,(1, 11),9	58,(1, 13),1	59,(1, 14),1	60,(1, 17),1	61,(1, 19),9	
