1224
# CPU
12,3,23	35,4,23	58,6,23	81,100,23	104,115,23	127,19,23	150,16,23	173,64,23	196,21,23	219,44,23	242,23,23	265,24,23	288,13,23	311,119,23	334,104,23	357,68,23	380,70,23	403,51,23	426,49,23	449,106,23	527,39,23	553,62,23	576,101,23	677,32,23	700,41,23	723,84,23	746,93,23	769,30,23	792,42,23	815,52,23	838,55,23	861,78,23	884,36,23	907,73,23	930,90,23	953,47,23	976,25,23	999,33,23	1022,109,23	1045,117,23	
45,7,23	68,9,23	91,46,23	114,65,23	137,27,23	160,77,23	183,107,23	206,112,23	241,87,23	499,22,23	522,26,23	545,35,23	568,37,23	591,61,23	614,66,23	637,102,23	671,15,23	694,28,23	717,45,23	740,57,23	763,94,23	786,18,23	809,74,23	832,80,23	855,83,23	878,95,23	901,50,23	924,82,23	947,105,23	970,34,23	993,43,23	1016,48,23	1039,53,23	1062,89,23	1085,96,23	1108,113,23	1131,114,23	1154,120,23	1177,69,23	1200,71,23	1223,121,1	
0,0,1	1,10,23	24,11,23	47,5,23	70,1,23	93,12,23	116,8,23	139,2,23	162,29,23	185,88,23	208,75,23	231,63,23	254,79,23	277,98,23	300,118,23	323,91,23	346,86,23	369,67,23	392,54,23	415,17,23	438,38,23	461,116,23	484,85,23	507,60,23	530,103,23	553,99,23	576,81,23	599,72,23	622,58,23	645,56,23	668,31,23	691,40,23	714,111,23	737,108,23	760,92,23	783,20,23	806,76,23	829,97,23	852,110,23	875,14,23	898,59,23	
# Incoming
1,(0, 3),11	12,(0, 4),11	23,(0, 6),11	57,(10, 52),19	76,(7, 47),2	91,(9, 33),2	334,(10, 106),6	507,(11, 39),20	544,(11, 62),9	555,(11, 101),3	564,(11, 117),20	676,(5, 32),1	677,(5, 41),1	710,(5, 84),1	711,(5, 93),10	721,(1, 30),5	726,(1, 42),6	732,(1, 52),8	740,(1, 55),1	741,(1, 78),2	743,(12, 36),1	744,(12, 73),1	745,(12, 90),1	750,(1, 47),18	809,(12, 117),1	810,(8, 25),2	812,(8, 33),8	842,(8, 109),1	852,(8, 117),1	
34,(0, 7),11	45,(0, 9),11	56,(10, 48),1	57,(3, 46),1	58,(3, 74),4	62,(4, 61),3	76,(10, 53),160	236,(10, 57),1	237,(10, 74),3	240,(10, 87),1	241,(10, 94),93	334,(6, 50),2	336,(6, 120),1	340,(10, 113),6	346,(11, 22),153	499,(11, 26),3	502,(11, 35),4	506,(11, 37),1	507,(100, 121),4	511,(115, 121),4	515,(19, 121),4	519,(16, 121),4	523,(64, 121),4	527,(11, 50),1	528,(11, 53),1	529,(11, 61),15	544,(21, 121),4	548,(44, 121),4	553,(11, 66),1	554,(11, 82),1	558,(11, 102),6	564,(23, 121),4	568,(24, 121),4	572,(13, 121),4	576,(119, 121),4	580,(104, 121),4	584,(11, 120),77	661,(5, 15),10	671,(5, 28),5	678,(5, 45),22	700,(5, 50),3	703,(5, 57),7	710,(6, 94),36	746,(1, 18),4	750,(68, 121),4	754,(70, 121),4	758,(51, 121),4	762,(49, 121),4	768,(1, 74),2	770,(1, 80),1	771,(1, 83),5	776,(1, 95),6	782,(12, 50),1	783,(12, 82),16	799,(12, 105),10	809,(106, 121),4	813,(39, 121),4	820,(8, 34),8	828,(8, 43),3	831,(8, 48),5	836,(8, 53),3	839,(8, 69),1	840,(8, 89),1	841,(8, 96),1	843,(8, 113),1	844,(8, 114),8	853,(8, 120),3	856,(2, 69),4	860,(2, 71),1	861,(29, 121),4	865,(88, 121),4	869,(75, 121),4	873,(63, 121),4	877,(79, 121),4	881,(98, 121),4	885,(118, 121),4	889,(91, 121),4	893,(86, 121),4	897,(67, 121),4	901,(54, 121),4	905,(17, 121),4	909,(38, 121),4	913,(116, 121),4	917,(85, 121),4	921,(60, 121),4	925,(103, 121),4	929,(62, 121),4	933,(99, 121),4	937,(101, 121),4	941,(81, 121),4	945,(72, 121),4	949,(58, 121),4	953,(56, 121),4	957,(31, 121),4	961,(32, 121),4	965,(40, 121),4	969,(41, 121),4	973,(111, 121),4	977,(84, 121),4	981,(108, 121),4	985,(93, 121),4	989,(92, 121),4	993,(30, 121),4	997,(20, 121),4	1001,(42, 121),4	1005,(76, 121),4	1009,(52, 121),4	1013,(97, 121),4	1017,(55, 121),4	1021,(110, 121),4	1025,(78, 121),4	1029,(14, 121),4	1033,(36, 121),4	1037,(59, 121),4	1041,(73, 121),4	1045,(90, 121),4	1049,(47, 121),4	1053,(25, 121),4	1057,(33, 121),4	1061,(109, 121),4	1068,(117, 121),4	
35,(3, 38),9	44,(3, 108),5	65,(4, 116),2	78,(7, 76),5	93,(9, 97),1	94,(9, 103),7	
# Outgoing
35,(3, 38),9	44,(3, 108),5	57,(3, 46),1	58,(3, 74),4	62,(4, 61),3	65,(4, 116),2	334,(6, 50),2	336,(6, 120),1	507,(100, 121),4	511,(115, 121),4	515,(19, 121),4	519,(16, 121),4	523,(64, 121),4	544,(21, 121),4	548,(44, 121),4	564,(23, 121),4	568,(24, 121),4	572,(13, 121),4	576,(119, 121),4	580,(104, 121),4	710,(6, 94),36	750,(68, 121),4	754,(70, 121),4	758,(51, 121),4	762,(49, 121),4	809,(106, 121),4	813,(39, 121),4	929,(62, 121),4	937,(101, 121),4	961,(32, 121),4	969,(41, 121),4	977,(84, 121),4	985,(93, 121),4	993,(30, 121),4	1001,(42, 121),4	1009,(52, 121),4	1017,(55, 121),4	1025,(78, 121),4	1033,(36, 121),4	1041,(73, 121),4	1045,(90, 121),4	1049,(47, 121),4	1053,(25, 121),4	1057,(33, 121),4	1061,(109, 121),4	1068,(117, 121),4	
76,(7, 47),2	78,(7, 76),5	91,(9, 33),2	93,(9, 97),1	94,(9, 103),7	
1,(0, 3),11	12,(0, 4),11	23,(0, 6),11	34,(0, 7),11	45,(0, 9),11	56,(10, 48),1	57,(10, 52),19	76,(10, 53),160	236,(10, 57),1	237,(10, 74),3	240,(10, 87),1	241,(10, 94),93	334,(10, 106),6	340,(10, 113),6	346,(11, 22),153	499,(11, 26),3	502,(11, 35),4	506,(11, 37),1	507,(11, 39),20	527,(11, 50),1	528,(11, 53),1	529,(11, 61),15	544,(11, 62),9	553,(11, 66),1	554,(11, 82),1	555,(11, 101),3	558,(11, 102),6	564,(11, 117),20	584,(11, 120),77	661,(5, 15),10	671,(5, 28),5	676,(5, 32),1	677,(5, 41),1	678,(5, 45),22	700,(5, 50),3	703,(5, 57),7	710,(5, 84),1	711,(5, 93),10	721,(1, 30),5	726,(1, 42),6	732,(1, 52),8	740,(1, 55),1	741,(1, 78),2	743,(12, 36),1	744,(12, 73),1	745,(12, 90),1	746,(1, 18),4	750,(1, 47),18	768,(1, 74),2	770,(1, 80),1	771,(1, 83),5	776,(1, 95),6	782,(12, 50),1	783,(12, 82),16	799,(12, 105),10	809,(12, 117),1	810,(8, 25),2	812,(8, 33),8	820,(8, 34),8	828,(8, 43),3	831,(8, 48),5	836,(8, 53),3	839,(8, 69),1	840,(8, 89),1	841,(8, 96),1	842,(8, 109),1	843,(8, 113),1	844,(8, 114),8	852,(8, 117),1	853,(8, 120),3	856,(2, 69),4	860,(2, 71),1	861,(29, 121),4	865,(88, 121),4	869,(75, 121),4	873,(63, 121),4	877,(79, 121),4	881,(98, 121),4	885,(118, 121),4	889,(91, 121),4	893,(86, 121),4	897,(67, 121),4	901,(54, 121),4	905,(17, 121),4	909,(38, 121),4	913,(116, 121),4	917,(85, 121),4	921,(60, 121),4	925,(103, 121),4	933,(99, 121),4	941,(81, 121),4	945,(72, 121),4	949,(58, 121),4	953,(56, 121),4	957,(31, 121),4	965,(40, 121),4	973,(111, 121),4	981,(108, 121),4	989,(92, 121),4	997,(20, 121),4	1005,(76, 121),4	1013,(97, 121),4	1021,(110, 121),4	1029,(14, 121),4	1037,(59, 121),4	
