307
# CPU
0,0,1	1,8,11	12,42,11	23,44,11	34,24,11	45,27,11	56,52,11	67,36,11	78,5,11	89,69,11	100,56,11	111,21,11	122,14,11	133,53,11	144,72,11	155,3,11	166,19,11	177,80,11	188,45,11	199,46,11	210,47,11	221,48,11	295,57,11	306,81,1	
3,2,11	14,71,11	25,18,11	36,23,11	47,61,11	58,73,11	69,54,11	80,55,11	91,76,11	102,64,11	113,28,11	124,49,11	135,50,11	146,32,11	157,17,11	168,35,11	179,70,11	190,9,11	201,40,11	
4,4,11	15,51,11	26,15,11	37,63,11	48,11,11	59,1,11	70,77,11	81,29,11	92,16,11	103,43,11	114,33,11	125,13,11	136,10,11	147,62,11	158,39,11	169,74,11	180,20,11	191,22,11	202,60,11	
2,6,11	13,30,11	24,66,11	35,58,11	46,79,11	57,7,11	68,41,11	79,78,11	90,75,11	101,68,11	112,34,11	123,26,11	134,65,11	145,12,11	156,38,11	167,25,11	178,37,11	189,59,11	200,31,11	228,67,11	
# Incoming
24,(30, 81),1	25,(71, 81),1	26,(51, 81),1	27,(2, 48),1	28,(6, 47),1	35,(66, 81),1	36,(18, 81),1	37,(15, 81),1	46,(58, 81),1	47,(23, 81),1	48,(63, 81),1	57,(79, 81),1	58,(61, 81),1	59,(11, 81),1	69,(73, 81),1	73,(7, 57),3	79,(41, 81),1	80,(54, 81),1	81,(77, 81),1	90,(78, 81),1	91,(55, 81),1	92,(29, 81),1	101,(75, 81),1	102,(76, 81),1	103,(16, 81),1	112,(68, 81),1	113,(64, 81),1	114,(43, 81),1	123,(34, 81),1	124,(28, 81),1	125,(33, 81),1	134,(26, 81),1	135,(49, 81),1	136,(13, 81),1	145,(65, 81),1	146,(50, 81),1	147,(10, 81),1	156,(12, 81),1	157,(32, 81),1	158,(62, 81),1	167,(38, 81),1	168,(17, 81),1	169,(39, 81),1	178,(25, 81),1	179,(35, 81),1	180,(74, 81),1	189,(37, 81),1	190,(70, 81),1	191,(20, 81),1	200,(59, 81),1	201,(9, 81),1	202,(22, 81),1	211,(31, 81),1	212,(40, 81),1	213,(60, 81),1	239,(67, 81),1	240,(1, 57),55	
2,(0, 2),1	13,(8, 64),1	14,(8, 49),2	19,(8, 50),5	25,(6, 64),1	27,(4, 54),1	30,(4, 40),1	31,(8, 32),12	43,(4, 17),2	45,(4, 9),2	48,(8, 17),14	68,(7, 55),1	70,(1, 55),1	71,(7, 28),2	89,(5, 76),1	167,(3, 35),1	170,(3, 70),2	175,(3, 9),1	183,(3, 40),8	
3,(0, 4),1	5,(0, 1),1	12,(8, 11),1	16,(8, 13),3	24,(8, 20),1	26,(6, 33),2	28,(8, 10),3	43,(8, 62),5	69,(7, 43),1	90,(5, 16),1	121,(8, 39),27	168,(3, 74),1	172,(3, 20),1	176,(3, 22),5	191,(3, 60),10	
1,(0, 6),1	4,(0, 7),1	26,(2, 37),1	28,(4, 34),1	29,(4, 26),1	71,(1, 65),1	91,(5, 26),2	93,(5, 65),3	96,(5, 12),9	105,(5, 38),16	166,(3, 25),1	169,(3, 37),1	173,(3, 59),2	181,(3, 31),2	213,(2, 67),15	
# Outgoing
1,(0, 6),1	2,(0, 2),1	3,(0, 4),1	4,(0, 7),1	5,(0, 1),1	12,(8, 11),1	13,(8, 64),1	14,(8, 49),2	16,(8, 13),3	19,(8, 50),5	24,(8, 20),1	28,(8, 10),3	31,(8, 32),12	43,(8, 62),5	48,(8, 17),14	89,(5, 76),1	90,(5, 16),1	91,(5, 26),2	93,(5, 65),3	96,(5, 12),9	105,(5, 38),16	121,(8, 39),27	166,(3, 25),1	167,(3, 35),1	168,(3, 74),1	169,(3, 37),1	170,(3, 70),2	172,(3, 20),1	173,(3, 59),2	175,(3, 9),1	176,(3, 22),5	181,(3, 31),2	183,(3, 40),8	191,(3, 60),10	
25,(71, 81),1	26,(2, 37),1	27,(2, 48),1	36,(18, 81),1	47,(23, 81),1	58,(61, 81),1	69,(73, 81),1	80,(54, 81),1	91,(55, 81),1	102,(76, 81),1	113,(64, 81),1	124,(28, 81),1	135,(49, 81),1	146,(50, 81),1	157,(32, 81),1	168,(17, 81),1	179,(35, 81),1	190,(70, 81),1	201,(9, 81),1	212,(40, 81),1	213,(2, 67),15	
26,(51, 81),1	27,(4, 54),1	28,(4, 34),1	29,(4, 26),1	30,(4, 40),1	37,(15, 81),1	43,(4, 17),2	45,(4, 9),2	48,(63, 81),1	59,(11, 81),1	70,(1, 55),1	71,(1, 65),1	81,(77, 81),1	92,(29, 81),1	103,(16, 81),1	114,(43, 81),1	125,(33, 81),1	136,(13, 81),1	147,(10, 81),1	158,(62, 81),1	169,(39, 81),1	180,(74, 81),1	191,(20, 81),1	202,(22, 81),1	213,(60, 81),1	240,(1, 57),55	
24,(30, 81),1	25,(6, 64),1	26,(6, 33),2	28,(6, 47),1	35,(66, 81),1	46,(58, 81),1	57,(79, 81),1	68,(7, 55),1	69,(7, 43),1	71,(7, 28),2	73,(7, 57),3	79,(41, 81),1	90,(78, 81),1	101,(75, 81),1	112,(68, 81),1	123,(34, 81),1	134,(26, 81),1	145,(65, 81),1	156,(12, 81),1	167,(38, 81),1	178,(25, 81),1	189,(37, 81),1	200,(59, 81),1	211,(31, 81),1	239,(67, 81),1	
