26818
# CPU
3,2,18	21,8,18	39,11,18	57,12,18	75,15,18	3585,196,18	3613,93,18	3883,88,18	3901,89,18	4003,113,18	4413,178,18	14927,163,18	15151,26,18	15169,27,18	15499,100,18	15811,71,18	16265,195,18	16361,33,18	16389,50,18	16407,57,18	16425,70,18	16499,75,18	16517,79,18	16535,82,18	16553,99,18	16589,101,18	16607,110,18	16625,120,18	16693,133,18	16835,25,18	16875,45,18	16951,63,18	16969,76,18	16987,77,18	17005,78,18	17025,83,18	17043,85,18	17111,126,18	17129,129,18	17147,138,18	17165,143,18	17183,146,18	17201,148,18	17219,151,18	17237,154,18	17255,156,18	17273,157,18	17291,166,18	17309,173,18	17327,199,18	
0,0,1	1,1,18	19,18,18	37,13,18	55,6,18	73,7,18	91,5,18	1419,194,18	2749,22,18	3079,109,18	3097,123,18	3459,189,18	3477,24,18	3529,36,18	3547,39,18	3575,182,18	3593,44,18	3655,48,18	3673,107,18	3691,55,18	3709,192,18	3727,40,18	3745,68,18	3763,60,18	3825,38,18	3843,167,18	3861,179,18	3879,119,18	3897,87,18	3915,92,18	3933,97,18	3979,69,18	3997,112,18	4015,121,18	4033,114,18	4051,128,18	4069,105,18	4087,131,18	4105,136,18	4123,124,18	4141,142,18	4205,150,18	4231,177,18	4249,155,18	4321,80,18	4375,164,18	4409,168,18	4427,174,18	4445,180,18	4577,184,18	4703,193,18	
5,3,18	23,14,18	41,19,18	59,20,18	24413,117,18	24623,31,18	24983,59,18	25107,98,18	25125,135,18	25143,152,18	25161,158,18	25185,190,18	25203,28,18	25383,34,18	25401,52,18	25635,58,18	25653,67,18	25671,72,18	25689,103,18	25707,118,18	25725,141,18	25743,170,18	25843,183,18	25861,188,18	25879,53,18	25897,96,18	25915,104,18	25933,145,18	25951,171,18	25969,198,18	25987,41,18	26005,54,18	26023,61,18	26041,62,18	26059,64,18	26077,65,18	26095,84,18	26113,90,18	26131,91,18	26149,102,18	26167,122,18	26185,132,18	26203,147,18	26221,153,18	26239,161,18	26257,165,18	26275,172,18	26293,175,18	26311,176,18	26329,185,18	26817,201,1	
7,4,18	25,9,18	43,10,18	61,16,18	79,17,18	3135,160,18	14511,32,18	14669,74,18	14985,181,18	15103,197,18	15745,35,18	15771,49,18	15913,106,18	15949,127,18	16257,187,18	16347,30,18	16381,42,18	16399,43,18	16417,46,18	16435,56,18	16453,66,18	16599,108,18	16679,130,18	16705,134,18	16743,140,18	16761,144,18	16813,162,18	16831,191,18	16849,21,18	16867,23,18	16885,29,18	16903,37,18	16921,47,18	16939,51,18	16957,73,18	17005,81,18	17031,86,18	17049,94,18	17067,95,18	17085,111,18	17103,115,18	17121,116,18	17139,125,18	17157,137,18	17175,139,18	17193,149,18	17257,159,18	17279,169,18	17309,186,18	17329,200,18	
# Incoming
1,(0, 2),2	7,(0, 8),2	13,(0, 11),2	15,(0, 12),2	19,(0, 15),2	29,(3, 25),2	31,(3, 26),2	33,(3, 63),2	35,(1, 26),38	73,(3, 27),10	83,(3, 77),2	85,(3, 82),2	87,(4, 27),44	131,(4, 45),8	139,(4, 75),6	145,(4, 76),2	147,(4, 78),2	149,(4, 89),2	151,(4, 100),2	153,(3, 79),22	175,(4, 85),6	181,(3, 93),4	185,(3, 101),2	187,(4, 101),6	193,(4, 113),28	221,(4, 129),10	231,(3, 50),40	271,(3, 85),18	289,(4, 126),12	301,(4, 133),2	303,(4, 138),12	315,(4, 146),4	319,(4, 154),2	321,(4, 156),2	323,(4, 157),2	325,(4, 163),2	327,(9, 26),8	335,(9, 50),2	337,(9, 78),2	339,(3, 57),60	399,(9, 85),6	405,(3, 110),6	411,(9, 99),2	413,(3, 138),2	415,(3, 143),2	417,(9, 33),8	425,(9, 151),2	427,(10, 76),4	431,(3, 166),2	433,(3, 199),2	435,(9, 45),8	443,(10, 133),2	445,(10, 146),2	447,(3, 100),34	481,(4, 173),66	547,(9, 75),8	555,(3, 71),96	651,(4, 83),116	805,(3, 120),54	859,(4, 178),50	909,(4, 195),16	925,(4, 196),16	941,(4, 199),20	961,(9, 89),10	971,(3, 129),14	985,(9, 63),12	997,(9, 76),14	1011,(10, 163),2	1013,(3, 148),92	1105,(9, 27),50	1155,(9, 110),8	1163,(3, 163),16	1179,(9, 79),16	1195,(9, 82),16	1211,(3, 173),70	1281,(3, 178),4	1285,(9, 120),48	1333,(9, 129),10	1343,(9, 143),10	1353,(9, 148),46	1399,(9, 156),22	1421,(9, 157),18	1439,(9, 163),34	1473,(10, 33),6	1479,(14, 25),2	1481,(14, 26),2	1483,(14, 27),2	1485,(9, 166),12	1497,(14, 33),28	1525,(10, 78),8	1533,(10, 82),24	1557,(10, 89),8	1565,(14, 50),20	1599,(14, 57),2	1603,(14, 70),2	1605,(14, 71),20	1681,(14, 75),6	1687,(14, 76),4	1691,(14, 78),32	1723,(10, 196),2	1727,(14, 88),32	1759,(14, 93),36	1795,(16, 26),2	1797,(14, 99),2	1799,(14, 100),2	1801,(10, 99),14	1815,(10, 195),4	1819,(14, 110),14	1833,(10, 101),6	1839,(16, 33),2	1841,(1, 33),2	1843,(10, 199),4	1847,(16, 27),6	1853,(16, 63),2	1855,(1, 45),8	1863,(16, 79),4	1867,(16, 89),2	1869,(1, 50),2	1903,(14, 113),36	1943,(10, 110),14	1957,(16, 126),2	1959,(14, 120),26	1985,(10, 100),54	2043,(16, 45),12	2055,(16, 50),16	2071,(14, 146),6	2077,(14, 151),2	2079,(14, 156),32	2111,(16, 25),38	2149,(1, 71),2	2151,(16, 93),12	2163,(16, 146),2	2165,(1, 76),2	2167,(1, 78),42	2209,(1, 79),2	2211,(1, 83),2	2213,(14, 166),18	2231,(1, 85),14	2245,(1, 88),2	2247,(1, 89),2	2249,(14, 178),38	2287,(16, 129),4	2291,(1, 93),2	2293,(1, 100),2	2295,(1, 101),6	2301,(16, 76),16	2317,(16, 85),20	2337,(16, 178),2	2339,(16, 195),2	2341,(17, 50),2	2343,(17, 71),2	2361,(16, 151),12	2373,(16, 163),14	2387,(17, 26),6	2413,(17, 33),6	2419,(17, 151),2	2423,(17, 156),2	2427,(17, 77),6	2433,(17, 82),4	2437,(1, 138),4	2467,(1, 143),2	2507,(19, 63),2	2509,(1, 146),28	2537,(1, 148),8	2545,(19, 57),4	2549,(19, 70),2	2551,(19, 75),2	2553,(19, 77),4	2557,(19, 78),18	2575,(19, 79),2	2577,(17, 85),12	2589,(17, 157),2	2591,(19, 82),4	2595,(19, 100),2	2597,(19, 110),2	2599,(19, 126),2	2601,(17, 110),4	2605,(17, 129),4	2609,(19, 157),4	2613,(17, 166),2	2615,(19, 173),2	2617,(17, 27),24	2641,(17, 133),4	2645,(17, 195),2	2647,(19, 101),48	2695,(17, 57),28	2723,(17, 154),4	2727,(19, 113),26	2753,(17, 89),10	2763,(17, 113),10	2773,(1, 154),2	2775,(1, 157),48	2823,(17, 199),2	2831,(1, 163),4	2837,(1, 166),2	2843,(19, 133),100	2943,(10, 25),106	3049,(10, 148),114	3201,(19, 195),84	3465,(20, 25),16	3481,(20, 27),12	3519,(16, 196),66	3585,(17, 93),28	3613,(17, 163),10	3661,(20, 57),78	3743,(20, 63),8	3751,(20, 71),2	3805,(20, 76),6	3811,(20, 78),22	3839,(20, 82),4	3843,(20, 85),6	3877,(20, 88),6	3883,(20, 89),18	3907,(20, 99),2	3909,(20, 101),10	3937,(20, 110),2	3989,(20, 113),14	4005,(20, 126),6	4055,(20, 133),8	4067,(20, 138),18	4103,(20, 146),12	4115,(20, 148),2	4117,(17, 126),50	4205,(20, 151),32	4239,(20, 157),20	4319,(20, 163),24	4375,(20, 166),32	4411,(20, 178),2	4459,(20, 195),2	4577,(17, 83),92	14461,(1, 199),6	14469,(18, 25),26	14495,(18, 26),2	14497,(18, 27),2	14615,(18, 45),8	14643,(18, 63),2	14657,(18, 70),10	14669,(18, 77),16	14737,(18, 82),6	14743,(18, 83),2	14745,(18, 85),4	14755,(18, 100),2	14757,(18, 101),2	14775,(18, 120),2	14851,(18, 143),2	14853,(18, 148),48	14901,(18, 151),2	14903,(18, 154),18	14921,(18, 163),6	14927,(18, 166),2	14933,(18, 173),34	15015,(18, 195),82	15103,(18, 199),6	15149,(13, 26),2	15151,(13, 27),18	15265,(13, 50),6	15297,(13, 57),42	15343,(13, 71),78	15421,(13, 76),10	15431,(13, 77),2	15433,(13, 79),2	15435,(13, 82),4	15449,(13, 100),50	15499,(13, 101),10	15541,(13, 126),2	15545,(13, 133),12	15629,(13, 146),2	15631,(13, 148),18	15649,(13, 156),2	15655,(13, 166),46	15719,(13, 195),8	15753,(6, 45),2	15783,(6, 57),2	15785,(6, 63),2	15809,(6, 71),2	15839,(6, 75),2	15841,(6, 77),2	15843,(6, 79),16	15861,(6, 85),2	15865,(6, 99),8	15873,(6, 101),32	15939,(6, 120),6	15945,(6, 126),2	15949,(6, 129),16	15965,(6, 133),36	16007,(6, 138),78	16105,(6, 143),4	16135,(6, 146),2	16137,(6, 148),4	16147,(6, 156),4	16151,(6, 157),12	16209,(6, 173),2	16259,(6, 195),6	16303,(7, 25),10	16347,(7, 33),14	16387,(7, 50),2	16391,(7, 57),10	16403,(7, 70),2	16471,(7, 75),28	16499,(7, 76),6	16505,(7, 79),2	16507,(7, 82),10	16517,(7, 85),22	16539,(7, 99),4	16543,(7, 101),46	16599,(7, 110),6	16609,(7, 120),2	16617,(7, 126),38	16655,(7, 129),16	16679,(7, 133),14	16721,(7, 138),4	16745,(7, 146),6	16751,(7, 148),10	16771,(7, 151),14	16785,(7, 154),8	16793,(7, 156),2	16795,(7, 157),2	16813,(7, 166),12	16833,(5, 25),2	16873,(5, 45),2	16933,(5, 63),18	16953,(5, 76),4	16957,(5, 77),4	16961,(5, 78),36	17005,(5, 83),20	17025,(5, 85),2	17081,(5, 126),30	17111,(5, 129),2	17115,(5, 138),8	17127,(5, 143),4	17131,(5, 146),2	17133,(5, 148),2	17137,(5, 151),2	17139,(5, 154),28	17167,(5, 156),58	17225,(5, 157),2	17257,(5, 166),16	17279,(5, 173),2	17309,(5, 199),18	
27,(2, 22),12	39,(2, 24),30	69,(3, 38),2	71,(3, 39),2	73,(2, 36),2	75,(2, 38),2	77,(2, 39),2	79,(2, 44),8	87,(3, 22),44	131,(3, 24),8	139,(3, 36),8	147,(3, 40),4	151,(3, 60),2	153,(4, 38),2	155,(4, 39),12	167,(4, 48),2	169,(4, 55),2	171,(2, 48),2	173,(4, 87),2	175,(3, 87),6	181,(2, 60),2	183,(4, 128),2	185,(4, 142),2	187,(2, 80),58	245,(4, 44),6	251,(4, 80),22	273,(4, 105),6	279,(4, 107),10	289,(3, 105),2	291,(3, 128),2	293,(2, 87),6	299,(2, 105),48	347,(4, 114),6	353,(4, 119),12	365,(4, 121),14	379,(4, 123),12	391,(4, 167),8	399,(3, 107),6	405,(4, 168),2	407,(4, 174),4	411,(2, 114),2	413,(4, 179),2	415,(4, 184),2	417,(2, 119),2	419,(2, 121),4	423,(2, 123),2	425,(2, 128),6	431,(4, 194),2	433,(9, 40),2	435,(2, 142),14	449,(4, 182),8	457,(9, 44),2	459,(9, 48),2	461,(2, 150),34	495,(2, 155),2	497,(3, 124),8	505,(2, 167),4	509,(2, 177),4	513,(2, 179),50	563,(9, 60),2	565,(2, 182),28	593,(2, 184),2	595,(4, 177),22	617,(4, 180),14	631,(8, 24),6	637,(8, 38),2	639,(8, 40),8	647,(9, 136),2	649,(9, 155),2	651,(3, 112),54	705,(3, 114),16	721,(8, 48),2	723,(8, 55),10	733,(8, 80),30	763,(8, 87),2	765,(8, 92),2	767,(4, 192),40	807,(8, 60),38	845,(8, 105),8	853,(9, 123),6	859,(3, 121),20	879,(8, 114),2	881,(8, 121),4	885,(8, 123),2	887,(8, 124),24	911,(8, 142),40	951,(8, 155),2	953,(8, 179),18	971,(9, 109),14	985,(3, 131),10	995,(8, 128),66	1061,(9, 22),18	1079,(9, 150),6	1085,(9, 174),2	1087,(8, 182),2	1089,(8, 192),2	1091,(9, 142),12	1103,(9, 189),2	1105,(11, 60),2	1107,(3, 155),52	1159,(11, 55),4	1163,(9, 167),8	1171,(10, 40),2	1173,(10, 105),4	1177,(10, 107),2	1179,(3, 164),32	1211,(9, 36),36	1247,(9, 180),18	1265,(9, 184),16	1281,(10, 109),2	1283,(10, 112),2	1285,(3, 180),10	1295,(3, 184),20	1315,(11, 39),12	1327,(11, 80),2	1329,(11, 136),2	1331,(3, 193),40	1371,(3, 194),48	1419,(11, 105),8	1427,(14, 22),44	1471,(11, 164),2	1473,(14, 24),6	1479,(11, 124),6	1485,(11, 131),4	1489,(11, 142),8	1497,(9, 192),10	1507,(11, 167),20	1527,(14, 38),16	1543,(14, 39),8	1551,(14, 40),2	1553,(11, 168),2	1555,(11, 177),4	1559,(11, 193),2	1561,(12, 22),2	1563,(14, 48),2	1565,(9, 128),158	1723,(14, 80),2	1725,(9, 177),52	1777,(10, 150),2	1779,(11, 180),14	1793,(10, 174),2	1795,(14, 97),2	1797,(10, 179),2	1799,(12, 40),2	1801,(14, 105),12	1813,(12, 44),2	1815,(14, 107),4	1819,(11, 184),14	1833,(12, 55),2	1835,(14, 121),24	1859,(14, 128),6	1865,(14, 142),2	1867,(14, 150),2	1869,(9, 164),74	1943,(11, 68),26	1969,(11, 192),14	1983,(16, 68),2	1985,(14, 124),26	2011,(11, 109),26	2037,(12, 105),2	2039,(10, 182),4	2043,(14, 136),8	2051,(11, 128),22	2073,(11, 155),24	2097,(10, 60),10	2107,(12, 68),4	2111,(14, 164),68	2179,(14, 168),4	2183,(14, 179),6	2189,(16, 80),2	2191,(14, 189),18	2209,(10, 69),20	2229,(12, 109),2	2231,(14, 192),6	2237,(16, 40),4	2241,(11, 182),20	2261,(10, 97),10	2271,(10, 184),6	2277,(12, 80),4	2281,(12, 107),4	2285,(12, 121),2	2287,(14, 182),32	2319,(14, 184),28	2347,(14, 193),46	2393,(10, 136),20	2413,(12, 114),8	2421,(19, 38),20	2441,(19, 39),2	2443,(9, 182),74	2517,(19, 48),2	2519,(19, 55),2	2521,(16, 48),4	2525,(16, 55),4	2529,(16, 92),6	2535,(19, 97),8	2543,(19, 105),2	2545,(11, 38),74	2619,(19, 92),28	2647,(10, 192),16	2663,(16, 24),16	2679,(16, 69),12	2691,(16, 119),2	2693,(16, 123),2	2695,(19, 107),2	2697,(19, 112),30	2727,(16, 112),6	2733,(16, 124),2	2735,(16, 142),2	2737,(16, 150),2	2739,(16, 155),8	2747,(17, 22),2	2749,(17, 48),2	2751,(17, 97),2	2753,(19, 114),50	2803,(19, 119),2	2805,(19, 128),38	2843,(12, 24),32	2875,(12, 92),10	2885,(16, 128),44	2929,(16, 164),12	2941,(17, 150),2	2943,(19, 164),30	2973,(19, 167),12	2985,(19, 174),2	2987,(12, 123),6	2993,(12, 128),2	2995,(12, 136),18	3013,(12, 167),4	3017,(12, 168),2	3019,(12, 177),2	3021,(12, 184),16	3037,(12, 189),2	3039,(12, 192),2	3041,(12, 193),2	3043,(15, 24),16	3059,(15, 60),2	3061,(15, 97),12	3073,(15, 109),6	3079,(15, 119),2	3081,(15, 123),8	3089,(15, 131),6	3095,(19, 177),36	3131,(19, 179),4	3135,(19, 180),20	3155,(19, 182),2	3157,(15, 192),6	3163,(16, 167),18	3181,(19, 189),2	3183,(10, 164),134	3317,(10, 180),82	3399,(10, 189),60	3459,(20, 24),6	3465,(16, 179),14	3479,(16, 182),40	3527,(20, 36),2	3529,(15, 150),10	3539,(20, 38),6	3545,(20, 39),2	3547,(20, 40),2	3549,(15, 128),14	3563,(15, 182),12	3577,(20, 44),4	3585,(20, 48),70	3655,(17, 107),4	3659,(20, 55),2	3661,(16, 192),44	3705,(17, 40),8	3713,(17, 68),18	3731,(17, 155),8	3739,(20, 60),4	3743,(17, 38),82	3825,(17, 167),6	3831,(17, 179),2	3833,(20, 80),6	3839,(17, 119),12	3851,(17, 168),4	3855,(20, 87),22	3877,(17, 92),22	3899,(17, 180),2	3903,(20, 97),4	3907,(17, 174),6	3919,(20, 105),4	3923,(17, 69),56	3979,(20, 112),10	3989,(17, 121),14	4003,(20, 114),2	4011,(20, 128),2	4013,(17, 105),34	4053,(20, 131),2	4063,(20, 136),2	4065,(17, 124),14	4079,(17, 142),16	4101,(20, 142),2	4117,(20, 150),88	4205,(17, 177),26	4237,(20, 155),2	4239,(17, 80),82	4343,(20, 164),32	4407,(20, 168),2	4409,(20, 174),2	4413,(20, 180),26	4451,(20, 184),2	4453,(16, 184),124	4669,(17, 193),34	
3,(0, 3),2	17,(0, 14),2	25,(0, 19),2	27,(0, 20),2	73,(1, 28),1762	1835,(2, 34),12	1847,(2, 41),2	1849,(2, 52),4	1853,(2, 53),2	1855,(2, 54),2	1857,(2, 61),14	1871,(1, 53),4	1875,(1, 61),186	2061,(1, 62),14	2075,(1, 64),26	2101,(1, 65),30	2131,(2, 59),20	2151,(1, 72),4	2155,(2, 65),2	2157,(2, 67),10	2167,(2, 91),2	2169,(2, 98),6	2175,(2, 103),6	2181,(2, 117),2	2183,(2, 118),4	2187,(2, 122),6	2193,(2, 152),16	2209,(2, 171),4	2213,(1, 84),18	2231,(2, 165),6	2237,(2, 188),4	2241,(4, 41),2	2243,(4, 52),4	2247,(4, 53),2	2249,(1, 90),42	2291,(2, 135),40	2331,(2, 185),14	2345,(4, 28),12	2357,(4, 59),2	2359,(4, 61),2	2361,(1, 117),58	2419,(1, 122),2	2421,(4, 91),2	2423,(1, 132),2	2425,(4, 132),2	2427,(1, 135),10	2437,(4, 67),4	2441,(4, 170),2	2443,(1, 141),24	2467,(8, 58),2	2469,(1, 145),40	2509,(2, 145),36	2545,(4, 72),6	2551,(1, 152),222	2773,(4, 31),44	2817,(4, 122),6	2823,(1, 158),6	2829,(1, 161),2	2831,(4, 171),4	2835,(1, 165),2	2837,(4, 64),28	2865,(4, 65),10	2875,(4, 117),10	2885,(8, 53),6	2891,(1, 170),10	2901,(1, 172),11410	14311,(1, 175),34	14345,(4, 84),36	14381,(4, 158),10	14391,(8, 59),2	14393,(8, 61),2	14395,(1, 183),2	14397,(1, 185),2	14399,(8, 72),2	14401,(1, 190),18	14419,(4, 147),20	14439,(8, 98),4	14443,(9, 84),2	14445,(1, 198),16	14461,(2, 104),84	14545,(2, 147),622	15167,(2, 161),112	15279,(2, 175),70	15349,(2, 183),842	16191,(4, 58),58	16249,(4, 90),162	16411,(4, 103),114	16525,(4, 135),1580	18105,(4, 161),12	18117,(4, 165),24	18141,(4, 183),8	18149,(4, 185),44	18193,(4, 188),8	18201,(4, 190),16	18217,(4, 198),18	18235,(18, 31),8	18243,(18, 34),4	18247,(18, 52),8	18255,(18, 53),8	18263,(18, 54),2	18265,(18, 58),448	18713,(18, 59),54	18767,(18, 61),2	18769,(18, 64),60	18829,(18, 67),36	18865,(18, 84),2	18867,(18, 91),12	18879,(18, 96),22	18901,(18, 98),2	18903,(18, 102),2	18905,(18, 103),14	18919,(18, 104),8	18927,(18, 118),4	18931,(18, 122),18	18949,(18, 132),6	18955,(18, 141),14	18969,(18, 147),2	18971,(18, 153),22	18993,(18, 170),4	18997,(18, 171),34	19031,(18, 175),6	19037,(18, 183),12	19049,(18, 185),8	19057,(18, 188),4	19061,(18, 190),14	19075,(18, 198),2	19077,(8, 34),602	19679,(8, 52),34	19713,(8, 65),24	19737,(8, 84),12	19749,(8, 90),8	19757,(8, 103),6	19763,(8, 118),4	19767,(8, 122),14	19781,(8, 135),186	19967,(8, 152),16	19983,(8, 158),12	19995,(8, 170),4	19999,(8, 172),12	20011,(8, 175),28	20039,(8, 176),24	20063,(9, 31),14	20077,(9, 52),20	20097,(9, 53),26	20123,(9, 65),4	20127,(9, 72),28	20155,(9, 91),2	20157,(9, 98),12	20169,(9, 102),2	20171,(9, 104),4	20175,(9, 118),10	20185,(9, 122),20	20205,(9, 141),12	20217,(9, 147),2	20219,(9, 152),2	20221,(9, 165),12	20233,(9, 172),2	20235,(9, 176),6	20241,(9, 185),280	20521,(9, 188),2	20523,(9, 198),2	20525,(13, 28),6	20531,(13, 31),8	20539,(13, 41),2	20541,(13, 52),2	20543,(13, 53),18	20561,(13, 65),4	20565,(13, 67),2	20567,(13, 72),2	20569,(13, 84),4	20573,(13, 91),8	20581,(13, 96),30	20611,(13, 104),6	20617,(13, 117),2	20619,(13, 118),16	20635,(13, 122),26	20661,(13, 132),108	20769,(13, 135),4	20773,(13, 141),58	20831,(13, 147),2	20833,(13, 153),4	20837,(13, 158),448	21285,(13, 161),2	21287,(13, 165),8	21295,(13, 170),60	21355,(13, 171),2	21357,(13, 172),28	21385,(13, 183),12	21397,(13, 198),6	21403,(11, 31),2	21405,(11, 34),520	21925,(11, 54),40	21965,(11, 61),2	21967,(11, 62),18	21985,(11, 64),2	21987,(11, 65),2	21989,(11, 72),10	21999,(11, 84),14	22013,(11, 90),92	22105,(11, 103),2	22107,(11, 104),18	22125,(11, 117),16	22141,(11, 118),2	22143,(11, 132),28	22171,(11, 135),40	22211,(11, 145),2	22213,(11, 147),54	22267,(11, 152),30	22297,(11, 158),36	22333,(11, 165),10	22343,(11, 176),2	22345,(11, 183),20	22365,(11, 188),6	22371,(10, 28),2	22373,(10, 34),4	22377,(10, 41),12	22389,(10, 52),28	22417,(10, 53),52	22469,(10, 58),110	22579,(10, 64),2	22581,(10, 65),8	22589,(10, 72),2	22591,(10, 90),8	22599,(10, 91),2	22601,(10, 98),4	22605,(10, 103),6	22611,(10, 104),2	22613,(10, 118),8	22621,(10, 122),6	22627,(10, 141),24	22651,(10, 145),4	22655,(10, 158),2	22657,(10, 161),2	22659,(10, 170),14	22673,(10, 171),2	22675,(10, 176),6	22681,(10, 188),12	22693,(10, 190),2	22695,(10, 198),2	22697,(6, 28),40	22737,(6, 41),6	22743,(6, 58),2	22745,(6, 59),2	22747,(6, 62),92	22839,(6, 64),42	22881,(6, 65),2	22883,(6, 72),2	22885,(6, 84),22	22907,(6, 91),2	22909,(6, 96),2	22911,(6, 102),2	22913,(6, 117),12	22925,(6, 122),8	22933,(6, 132),26	22959,(6, 135),16	22975,(6, 147),340	23315,(6, 165),12	23327,(6, 170),30	23357,(6, 171),28	23385,(6, 183),304	23689,(6, 185),2	23691,(6, 198),32	23723,(12, 28),8	23731,(12, 34),46	23777,(12, 41),14	23791,(12, 53),18	23809,(12, 58),12	23821,(12, 62),20	23841,(12, 84),6	23847,(12, 90),6	23853,(12, 91),4	23857,(12, 96),18	23875,(12, 98),48	23923,(12, 102),12	23935,(12, 103),16	23951,(12, 104),2	23953,(12, 117),2	23955,(12, 118),4	23959,(12, 122),4	23963,(12, 132),2	23965,(12, 135),18	23983,(12, 145),2	23985,(12, 165),2	23987,(12, 175),56	24043,(12, 176),2	24045,(12, 183),4	24049,(12, 185),34	24083,(12, 188),10	24093,(12, 190),14	24107,(16, 34),8	24115,(16, 52),6	24121,(16, 53),224	24345,(16, 54),2	24347,(16, 58),8	24355,(16, 61),18	24373,(16, 62),2	24375,(16, 67),4	24379,(16, 72),14	24393,(16, 90),8	24401,(16, 103),2	24403,(16, 104),6	24409,(16, 117),4	24413,(16, 122),8	24421,(16, 147),2	24423,(16, 158),104	24527,(16, 165),4	24531,(16, 172),68	24599,(16, 185),2	24601,(7, 28),8	24609,(7, 31),14	24623,(7, 34),60	24683,(7, 41),16	24699,(7, 53),268	24967,(7, 54),2	24969,(7, 58),6	24975,(7, 59),8	24983,(7, 61),62	25045,(7, 64),8	25053,(7, 72),32	25085,(7, 84),4	25089,(7, 98),18	25107,(7, 102),4	25111,(7, 103),2	25113,(7, 122),2	25115,(7, 135),2	25117,(7, 145),10	25127,(7, 147),8	25135,(7, 152),6	25141,(7, 158),6	25147,(7, 161),16	25163,(7, 171),14	25177,(7, 188),6	25183,(7, 190),2	25185,(15, 28),2	25187,(15, 34),196	25383,(15, 52),2	25385,(15, 54),2	25387,(15, 58),248	25635,(15, 64),6	25641,(15, 67),2	25643,(15, 72),2	25645,(15, 103),4	25649,(15, 118),18	25667,(15, 141),2	25669,(15, 147),30	25699,(15, 161),2	25701,(15, 170),4	25705,(15, 172),54	25759,(15, 176),4	25763,(15, 183),80	25843,(15, 188),4	25847,(17, 53),4	25851,(17, 61),2	25853,(17, 64),2	25855,(17, 96),6	25861,(17, 102),2	25863,(17, 104),16	25879,(17, 122),4	25883,(17, 132),2	25885,(17, 145),4	25889,(17, 153),6	25895,(17, 161),10	25905,(17, 165),4	25909,(17, 171),2	25911,(17, 172),2	25913,(17, 198),12	25925,(5, 41),4	25929,(5, 54),2	25931,(5, 61),14	25945,(5, 62),28	25973,(5, 64),6	25979,(5, 65),4	25983,(5, 84),30	26013,(5, 90),60	26073,(5, 91),24	26097,(5, 102),26	26123,(5, 122),2	26125,(5, 132),12	26137,(5, 147),8	26145,(5, 153),16	26161,(5, 161),2	26163,(5, 165),24	26187,(5, 172),34	26221,(5, 175),2	26223,(5, 176),36	26259,(5, 185),22	26281,(194, 201),4	26285,(22, 201),4	26289,(109, 201),4	26293,(123, 201),4	26297,(160, 201),4	26301,(189, 201),4	26305,(24, 201),4	26309,(36, 201),4	26313,(39, 201),4	26317,(182, 201),4	26321,(196, 201),4	26325,(44, 201),4	26329,(93, 201),4	26333,(48, 201),4	26337,(107, 201),4	26341,(55, 201),4	26345,(192, 201),4	26349,(40, 201),4	26353,(68, 201),4	26357,(60, 201),4	26361,(38, 201),4	26365,(167, 201),4	26369,(179, 201),4	26373,(119, 201),4	26377,(88, 201),4	26381,(87, 201),4	26385,(89, 201),4	26389,(92, 201),4	26393,(97, 201),4	26397,(69, 201),4	26401,(112, 201),4	26405,(113, 201),4	26409,(121, 201),4	26413,(114, 201),4	26417,(128, 201),4	26421,(105, 201),4	26425,(131, 201),4	26429,(136, 201),4	26433,(124, 201),4	26437,(142, 201),4	26441,(150, 201),4	26445,(177, 201),4	26449,(155, 201),4	26453,(80, 201),4	26457,(164, 201),4	26461,(168, 201),4	26465,(178, 201),4	26469,(174, 201),4	26473,(180, 201),4	26477,(184, 201),4	26481,(193, 201),4	26485,(32, 201),4	26489,(74, 201),4	26493,(163, 201),4	26497,(181, 201),4	26501,(197, 201),4	26505,(26, 201),4	26509,(27, 201),4	26513,(100, 201),4	26517,(35, 201),4	26521,(49, 201),4	26525,(71, 201),4	26529,(106, 201),4	26533,(127, 201),4	26537,(187, 201),4	26541,(195, 201),4	26545,(30, 201),4	26549,(33, 201),4	26553,(42, 201),4	26557,(50, 201),4	26561,(43, 201),4	26565,(57, 201),4	26569,(46, 201),4	26573,(70, 201),4	26577,(56, 201),4	26581,(66, 201),4	26585,(75, 201),4	26589,(79, 201),4	26593,(82, 201),4	26597,(99, 201),4	26601,(101, 201),4	26605,(108, 201),4	26609,(110, 201),4	26613,(120, 201),4	26617,(130, 201),4	26621,(133, 201),4	26625,(134, 201),4	26629,(140, 201),4	26633,(144, 201),4	26637,(162, 201),4	26641,(191, 201),4	26645,(25, 201),4	26649,(21, 201),4	26653,(23, 201),4	26657,(45, 201),4	26661,(29, 201),4	26665,(37, 201),4	26669,(47, 201),4	26673,(51, 201),4	26677,(63, 201),4	26681,(73, 201),4	26685,(76, 201),4	26689,(77, 201),4	26693,(81, 201),4	26697,(78, 201),4	26701,(83, 201),4	26705,(86, 201),4	26709,(85, 201),4	26713,(94, 201),4	26717,(95, 201),4	26721,(111, 201),4	26725,(115, 201),4	26729,(126, 201),4	26733,(116, 201),4	26737,(129, 201),4	26741,(125, 201),4	26745,(138, 201),4	26749,(137, 201),4	26753,(143, 201),4	26757,(139, 201),4	26761,(146, 201),4	26765,(149, 201),4	26769,(148, 201),4	26773,(151, 201),4	26777,(154, 201),4	26781,(156, 201),4	26785,(159, 201),4	26789,(157, 201),4	26793,(169, 201),4	26797,(166, 201),4	26801,(173, 201),4	26805,(186, 201),4	26809,(199, 201),4	26813,(200, 201),4	
5,(0, 4),2	9,(0, 9),2	11,(0, 10),2	21,(0, 16),2	23,(0, 17),2	25,(2, 21),2	27,(3, 21),2	29,(1, 21),4	33,(1, 23),2	35,(3, 30),26	61,(3, 49),2	63,(3, 74),2	65,(3, 95),2	67,(3, 106),2	69,(2, 32),4	87,(2, 46),84	173,(2, 51),8	183,(2, 73),2	185,(2, 74),2	187,(3, 32),44	245,(2, 86),48	293,(3, 35),30	323,(3, 42),16	347,(2, 106),54	401,(2, 108),10	411,(3, 130),2	413,(2, 115),2	415,(2, 116),2	417,(3, 56),12	429,(3, 137),2	431,(2, 137),2	433,(2, 140),2	435,(3, 81),12	449,(2, 144),10	459,(2, 149),2	481,(3, 115),16	497,(2, 162),8	505,(3, 66),50	563,(2, 181),2	595,(2, 186),12	607,(2, 200),10	617,(8, 23),14	647,(8, 47),42	689,(8, 51),6	695,(8, 56),2	697,(8, 73),12	709,(8, 74),2	711,(8, 94),4	715,(8, 115),4	719,(8, 125),2	721,(3, 116),84	805,(8, 127),2	853,(8, 108),18	871,(8, 139),2	873,(11, 35),2	875,(11, 37),2	877,(11, 46),2	879,(3, 127),92	971,(8, 116),14	985,(11, 47),4	989,(11, 66),2	991,(11, 106),2	993,(11, 108),2	995,(3, 139),2	997,(3, 144),16	1061,(8, 169),26	1091,(11, 86),12	1103,(11, 111),2	1105,(3, 149),2	1107,(8, 144),46	1153,(11, 125),6	1159,(3, 160),4	1163,(8, 186),28	1191,(8, 191),22	1213,(8, 197),22	1235,(11, 21),20	1255,(11, 30),36	1291,(11, 42),24	1315,(3, 186),14	1329,(3, 187),2	1331,(11, 73),26	1357,(11, 116),24	1381,(11, 137),14	1395,(11, 160),10	1405,(11, 169),10	1415,(11, 197),2	1417,(12, 46),2	1419,(3, 197),8	1427,(12, 32),40	1467,(12, 47),2	1469,(12, 56),2	1471,(14, 23),2	1473,(12, 81),2	1475,(12, 108),4	1485,(14, 30),2	1487,(14, 32),10	1497,(12, 42),8	1505,(12, 111),2	1525,(14, 35),2	1527,(12, 35),18	1545,(12, 125),2	1547,(12, 130),2	1549,(12, 187),2	1551,(12, 197),2	1553,(14, 43),8	1561,(14, 46),2	1563,(12, 49),12	1575,(12, 134),8	1583,(15, 35),2	1585,(14, 51),14	1599,(15, 56),2	1601,(14, 66),2	1603,(12, 115),22	1625,(14, 73),54	1679,(14, 74),2	1681,(12, 37),26	1707,(12, 137),8	1715,(12, 139),6	1721,(15, 73),4	1725,(14, 81),2	1727,(11, 144),52	1793,(15, 86),4	1797,(15, 111),2	1801,(15, 43),10	1811,(15, 115),2	1813,(14, 106),2	1815,(15, 125),4	1833,(14, 116),2	1835,(1, 29),4	1839,(1, 30),2	1843,(1, 37),10	1853,(1, 43),2	1863,(1, 46),2	1865,(1, 47),2	1867,(1, 49),2	1869,(14, 108),34	1903,(12, 86),26	1929,(15, 46),8	1937,(15, 149),2	1939,(14, 115),20	1983,(12, 95),28	2011,(14, 125),8	2019,(14, 127),16	2035,(14, 130),8	2043,(15, 94),6	2049,(15, 181),2	2051,(14, 137),2	2053,(14, 139),8	2061,(14, 140),10	2097,(15, 139),6	2111,(15, 21),18	2131,(1, 66),18	2155,(1, 74),10	2189,(14, 181),2	2209,(14, 191),4	2213,(15, 49),12	2237,(14, 197),2	2239,(19, 29),2	2241,(19, 32),6	2247,(19, 42),2	2261,(15, 116),12	2301,(1, 108),2	2303,(1, 111),24	2327,(1, 115),32	2359,(1, 116),2	2361,(15, 47),24	2385,(15, 160),8	2393,(14, 200),22	2415,(19, 35),6	2421,(1, 130),2	2425,(1, 134),2	2427,(15, 137),12	2441,(1, 140),2	2443,(19, 46),20	2463,(19, 47),42	2505,(19, 49),2	2509,(19, 74),2	2511,(19, 94),2	2513,(19, 127),2	2515,(19, 140),2	2521,(19, 56),14	2545,(1, 149),6	2577,(19, 81),14	2601,(19, 137),4	2605,(19, 144),2	2607,(19, 149),2	2613,(19, 169),2	2617,(19, 181),2	2619,(11, 115),150	2769,(11, 186),52	2821,(15, 140),18	2839,(1, 169),52	2891,(11, 127),96	2987,(19, 108),54	3041,(19, 111),30	3071,(19, 159),16	3087,(19, 162),8	3095,(12, 160),40	3135,(15, 159),10	3145,(15, 169),6	3151,(15, 187),6	3157,(19, 186),6	3163,(19, 187),18	3183,(19, 191),18	3201,(12, 127),78	3285,(19, 197),10	3295,(19, 200),112	3407,(20, 21),44	3451,(20, 35),6	3457,(20, 46),2	3459,(15, 134),30	3493,(20, 29),12	3505,(20, 30),22	3529,(20, 37),10	3549,(20, 42),4	3553,(20, 43),24	3581,(20, 47),4	3585,(15, 30),36	3655,(20, 51),4	3753,(20, 73),52	3849,(20, 86),6	3901,(20, 95),2	3923,(20, 106),10	3933,(20, 108),4	3939,(20, 111),40	4013,(20, 130),40	4065,(20, 137),2	4085,(20, 139),14	4099,(20, 140),2	4259,(20, 159),60	4439,(20, 181),12	4453,(20, 187),4	4457,(20, 191),2	14345,(1, 181),50	14399,(1, 186),2	14419,(1, 197),26	14467,(18, 23),2	14499,(18, 32),12	14511,(18, 43),104	14623,(18, 51),12	14635,(18, 56),8	14645,(18, 66),12	14667,(18, 74),2	14685,(18, 81),52	14749,(18, 94),6	14759,(18, 111),2	14761,(18, 115),14	14777,(18, 125),2	14779,(18, 134),28	14807,(18, 137),36	14843,(18, 139),8	14929,(18, 169),4	14967,(18, 181),18	14985,(18, 187),30	15097,(18, 197),6	15109,(13, 21),4	15113,(13, 23),36	15169,(13, 30),34	15203,(13, 37),20	15223,(13, 43),42	15271,(13, 51),26	15339,(13, 66),4	15439,(13, 86),2	15441,(13, 94),8	15509,(13, 106),24	15533,(13, 108),2	15535,(13, 115),2	15537,(13, 116),2	15539,(13, 125),2	15543,(13, 130),2	15557,(13, 139),2	15559,(13, 144),70	15651,(13, 159),2	15653,(13, 162),2	15701,(13, 186),18	15727,(6, 21),14	15741,(6, 30),2	15743,(6, 35),2	15745,(6, 37),8	15755,(6, 47),14	15769,(6, 49),2	15771,(6, 56),12	15787,(6, 66),22	15811,(6, 73),28	15859,(6, 81),2	15863,(6, 86),2	15905,(6, 106),8	15913,(6, 108),16	15929,(6, 111),10	15947,(6, 127),2	16001,(6, 134),6	16085,(6, 140),20	16109,(6, 144),26	16141,(6, 149),6	16163,(6, 159),46	16211,(6, 186),44	16255,(6, 187),2	16257,(6, 191),2	16265,(6, 200),32	16297,(7, 21),4	16301,(7, 23),2	16313,(7, 29),14	16327,(7, 30),20	16361,(7, 37),10	16371,(7, 42),10	16381,(7, 43),2	16383,(7, 46),4	16389,(7, 56),2	16401,(7, 66),2	16405,(7, 73),66	16589,(7, 108),10	16605,(7, 116),4	16611,(7, 125),6	16671,(7, 130),8	16693,(7, 134),12	16705,(7, 137),16	16725,(7, 139),2	16727,(7, 140),16	16743,(7, 144),2	16761,(7, 149),10	16797,(7, 159),12	16809,(7, 162),4	16825,(7, 186),2	16827,(7, 191),2	16829,(5, 21),2	16831,(5, 23),2	16835,(5, 29),36	16871,(5, 37),2	16875,(5, 47),32	16907,(5, 51),26	16951,(5, 73),2	16997,(5, 81),8	17027,(5, 86),4	17031,(5, 94),2	17033,(5, 95),2	17035,(5, 111),26	17061,(5, 115),6	17067,(5, 116),4	17071,(5, 125),10	17113,(5, 137),2	17123,(5, 139),4	17135,(5, 149),2	17227,(5, 159),30	17273,(5, 169),6	17281,(5, 186),28	17327,(5, 200),2	
# Outgoing
25,(2, 21),2	27,(2, 22),12	39,(2, 24),30	69,(2, 32),4	73,(2, 36),2	75,(2, 38),2	77,(2, 39),2	79,(2, 44),8	87,(2, 46),84	171,(2, 48),2	173,(2, 51),8	181,(2, 60),2	183,(2, 73),2	185,(2, 74),2	187,(2, 80),58	245,(2, 86),48	293,(2, 87),6	299,(2, 105),48	347,(2, 106),54	401,(2, 108),10	411,(2, 114),2	413,(2, 115),2	415,(2, 116),2	417,(2, 119),2	419,(2, 121),4	423,(2, 123),2	425,(2, 128),6	431,(2, 137),2	433,(2, 140),2	435,(2, 142),14	449,(2, 144),10	459,(2, 149),2	461,(2, 150),34	495,(2, 155),2	497,(2, 162),8	505,(2, 167),4	509,(2, 177),4	513,(2, 179),50	563,(2, 181),2	565,(2, 182),28	593,(2, 184),2	595,(2, 186),12	607,(2, 200),10	617,(8, 23),14	631,(8, 24),6	637,(8, 38),2	639,(8, 40),8	647,(8, 47),42	689,(8, 51),6	695,(8, 56),2	697,(8, 73),12	709,(8, 74),2	711,(8, 94),4	715,(8, 115),4	719,(8, 125),2	721,(8, 48),2	723,(8, 55),10	733,(8, 80),30	763,(8, 87),2	765,(8, 92),2	805,(8, 127),2	807,(8, 60),38	845,(8, 105),8	853,(8, 108),18	871,(8, 139),2	873,(11, 35),2	875,(11, 37),2	877,(11, 46),2	879,(8, 114),2	881,(8, 121),4	885,(8, 123),2	887,(8, 124),24	911,(8, 142),40	951,(8, 155),2	953,(8, 179),18	971,(8, 116),14	985,(11, 47),4	989,(11, 66),2	991,(11, 106),2	993,(11, 108),2	995,(8, 128),66	1061,(8, 169),26	1087,(8, 182),2	1089,(8, 192),2	1091,(11, 86),12	1103,(11, 111),2	1105,(11, 60),2	1107,(8, 144),46	1153,(11, 125),6	1159,(11, 55),4	1163,(8, 186),28	1191,(8, 191),22	1213,(8, 197),22	1235,(11, 21),20	1255,(11, 30),36	1291,(11, 42),24	1315,(11, 39),12	1327,(11, 80),2	1329,(11, 136),2	1331,(11, 73),26	1357,(11, 116),24	1381,(11, 137),14	1395,(11, 160),10	1405,(11, 169),10	1415,(11, 197),2	1417,(12, 46),2	1419,(11, 105),8	1427,(12, 32),40	1467,(12, 47),2	1469,(12, 56),2	1471,(11, 164),2	1473,(12, 81),2	1475,(12, 108),4	1479,(11, 124),6	1485,(11, 131),4	1489,(11, 142),8	1497,(12, 42),8	1505,(12, 111),2	1507,(11, 167),20	1527,(12, 35),18	1545,(12, 125),2	1547,(12, 130),2	1549,(12, 187),2	1551,(12, 197),2	1553,(11, 168),2	1555,(11, 177),4	1559,(11, 193),2	1561,(12, 22),2	1563,(12, 49),12	1575,(12, 134),8	1583,(15, 35),2	1599,(15, 56),2	1603,(12, 115),22	1681,(12, 37),26	1707,(12, 137),8	1715,(12, 139),6	1721,(15, 73),4	1727,(11, 144),52	1779,(11, 180),14	1793,(15, 86),4	1797,(15, 111),2	1799,(12, 40),2	1801,(15, 43),10	1811,(15, 115),2	1813,(12, 44),2	1815,(15, 125),4	1819,(11, 184),14	1833,(12, 55),2	1835,(2, 34),12	1847,(2, 41),2	1849,(2, 52),4	1853,(2, 53),2	1855,(2, 54),2	1857,(2, 61),14	1903,(12, 86),26	1929,(15, 46),8	1937,(15, 149),2	1943,(11, 68),26	1969,(11, 192),14	1983,(12, 95),28	2011,(11, 109),26	2037,(12, 105),2	2043,(15, 94),6	2049,(15, 181),2	2051,(11, 128),22	2073,(11, 155),24	2097,(15, 139),6	2107,(12, 68),4	2111,(15, 21),18	2131,(2, 59),20	2155,(2, 65),2	2157,(2, 67),10	2167,(2, 91),2	2169,(2, 98),6	2175,(2, 103),6	2181,(2, 117),2	2183,(2, 118),4	2187,(2, 122),6	2193,(2, 152),16	2209,(2, 171),4	2213,(15, 49),12	2229,(12, 109),2	2231,(2, 165),6	2237,(2, 188),4	2241,(11, 182),20	2261,(15, 116),12	2277,(12, 80),4	2281,(12, 107),4	2285,(12, 121),2	2291,(2, 135),40	2331,(2, 185),14	2361,(15, 47),24	2385,(15, 160),8	2413,(12, 114),8	2427,(15, 137),12	2467,(8, 58),2	2509,(2, 145),36	2545,(11, 38),74	2619,(11, 115),150	2769,(11, 186),52	2821,(15, 140),18	2843,(12, 24),32	2875,(12, 92),10	2885,(8, 53),6	2891,(11, 127),96	2987,(12, 123),6	2993,(12, 128),2	2995,(12, 136),18	3013,(12, 167),4	3017,(12, 168),2	3019,(12, 177),2	3021,(12, 184),16	3037,(12, 189),2	3039,(12, 192),2	3041,(12, 193),2	3043,(15, 24),16	3059,(15, 60),2	3061,(15, 97),12	3073,(15, 109),6	3079,(15, 119),2	3081,(15, 123),8	3089,(15, 131),6	3095,(12, 160),40	3135,(15, 159),10	3145,(15, 169),6	3151,(15, 187),6	3157,(15, 192),6	3201,(12, 127),78	3459,(15, 134),30	3529,(15, 150),10	3549,(15, 128),14	3563,(15, 182),12	3585,(15, 30),36	14391,(8, 59),2	14393,(8, 61),2	14399,(8, 72),2	14439,(8, 98),4	14461,(2, 104),84	14545,(2, 147),622	15167,(2, 161),112	15279,(2, 175),70	15349,(2, 183),842	19077,(8, 34),602	19679,(8, 52),34	19713,(8, 65),24	19737,(8, 84),12	19749,(8, 90),8	19757,(8, 103),6	19763,(8, 118),4	19767,(8, 122),14	19781,(8, 135),186	19967,(8, 152),16	19983,(8, 158),12	19995,(8, 170),4	19999,(8, 172),12	20011,(8, 175),28	20039,(8, 176),24	21403,(11, 31),2	21405,(11, 34),520	21925,(11, 54),40	21965,(11, 61),2	21967,(11, 62),18	21985,(11, 64),2	21987,(11, 65),2	21989,(11, 72),10	21999,(11, 84),14	22013,(11, 90),92	22105,(11, 103),2	22107,(11, 104),18	22125,(11, 117),16	22141,(11, 118),2	22143,(11, 132),28	22171,(11, 135),40	22211,(11, 145),2	22213,(11, 147),54	22267,(11, 152),30	22297,(11, 158),36	22333,(11, 165),10	22343,(11, 176),2	22345,(11, 183),20	22365,(11, 188),6	23723,(12, 28),8	23731,(12, 34),46	23777,(12, 41),14	23791,(12, 53),18	23809,(12, 58),12	23821,(12, 62),20	23841,(12, 84),6	23847,(12, 90),6	23853,(12, 91),4	23857,(12, 96),18	23875,(12, 98),48	23923,(12, 102),12	23935,(12, 103),16	23951,(12, 104),2	23953,(12, 117),2	23955,(12, 118),4	23959,(12, 122),4	23963,(12, 132),2	23965,(12, 135),18	23983,(12, 145),2	23985,(12, 165),2	23987,(12, 175),56	24043,(12, 176),2	24045,(12, 183),4	24049,(12, 185),34	24083,(12, 188),10	24093,(12, 190),14	25185,(15, 28),2	25187,(15, 34),196	25383,(15, 52),2	25385,(15, 54),2	25387,(15, 58),248	25635,(15, 64),6	25641,(15, 67),2	25643,(15, 72),2	25645,(15, 103),4	25649,(15, 118),18	25667,(15, 141),2	25669,(15, 147),30	25699,(15, 161),2	25701,(15, 170),4	25705,(15, 172),54	25759,(15, 176),4	25763,(15, 183),80	25843,(15, 188),4	26321,(196, 201),4	26329,(93, 201),4	26377,(88, 201),4	26385,(89, 201),4	26405,(113, 201),4	26465,(178, 201),4	26493,(163, 201),4	26505,(26, 201),4	26509,(27, 201),4	26513,(100, 201),4	26525,(71, 201),4	26541,(195, 201),4	26549,(33, 201),4	26557,(50, 201),4	26565,(57, 201),4	26573,(70, 201),4	26585,(75, 201),4	26589,(79, 201),4	26593,(82, 201),4	26597,(99, 201),4	26601,(101, 201),4	26609,(110, 201),4	26613,(120, 201),4	26621,(133, 201),4	26645,(25, 201),4	26657,(45, 201),4	26677,(63, 201),4	26685,(76, 201),4	26689,(77, 201),4	26697,(78, 201),4	26701,(83, 201),4	26709,(85, 201),4	26729,(126, 201),4	26737,(129, 201),4	26745,(138, 201),4	26753,(143, 201),4	26761,(146, 201),4	26769,(148, 201),4	26773,(151, 201),4	26777,(154, 201),4	26781,(156, 201),4	26789,(157, 201),4	26797,(166, 201),4	26801,(173, 201),4	26809,(199, 201),4	
1,(0, 2),2	3,(0, 3),2	5,(0, 4),2	7,(0, 8),2	9,(0, 9),2	11,(0, 10),2	13,(0, 11),2	15,(0, 12),2	17,(0, 14),2	19,(0, 15),2	21,(0, 16),2	23,(0, 17),2	25,(0, 19),2	27,(0, 20),2	29,(1, 21),4	33,(1, 23),2	35,(1, 26),38	73,(1, 28),1762	1835,(1, 29),4	1839,(1, 30),2	1841,(1, 33),2	1843,(1, 37),10	1853,(1, 43),2	1855,(1, 45),8	1863,(1, 46),2	1865,(1, 47),2	1867,(1, 49),2	1869,(1, 50),2	1871,(1, 53),4	1875,(1, 61),186	2061,(1, 62),14	2075,(1, 64),26	2101,(1, 65),30	2131,(1, 66),18	2149,(1, 71),2	2151,(1, 72),4	2155,(1, 74),10	2165,(1, 76),2	2167,(1, 78),42	2209,(1, 79),2	2211,(1, 83),2	2213,(1, 84),18	2231,(1, 85),14	2245,(1, 88),2	2247,(1, 89),2	2249,(1, 90),42	2291,(1, 93),2	2293,(1, 100),2	2295,(1, 101),6	2301,(1, 108),2	2303,(1, 111),24	2327,(1, 115),32	2359,(1, 116),2	2361,(1, 117),58	2419,(1, 122),2	2421,(1, 130),2	2423,(1, 132),2	2425,(1, 134),2	2427,(1, 135),10	2437,(1, 138),4	2441,(1, 140),2	2443,(1, 141),24	2467,(1, 143),2	2469,(1, 145),40	2509,(1, 146),28	2537,(1, 148),8	2545,(1, 149),6	2551,(1, 152),222	2773,(1, 154),2	2775,(1, 157),48	2823,(1, 158),6	2829,(1, 161),2	2831,(1, 163),4	2835,(1, 165),2	2837,(1, 166),2	2839,(1, 169),52	2891,(1, 170),10	2901,(1, 172),11410	14311,(1, 175),34	14345,(1, 181),50	14395,(1, 183),2	14397,(1, 185),2	14399,(1, 186),2	14401,(1, 190),18	14419,(1, 197),26	14445,(1, 198),16	14461,(1, 199),6	14467,(18, 23),2	14469,(18, 25),26	14495,(18, 26),2	14497,(18, 27),2	14499,(18, 32),12	14511,(18, 43),104	14615,(18, 45),8	14623,(18, 51),12	14635,(18, 56),8	14643,(18, 63),2	14645,(18, 66),12	14657,(18, 70),10	14667,(18, 74),2	14669,(18, 77),16	14685,(18, 81),52	14737,(18, 82),6	14743,(18, 83),2	14745,(18, 85),4	14749,(18, 94),6	14755,(18, 100),2	14757,(18, 101),2	14759,(18, 111),2	14761,(18, 115),14	14775,(18, 120),2	14777,(18, 125),2	14779,(18, 134),28	14807,(18, 137),36	14843,(18, 139),8	14851,(18, 143),2	14853,(18, 148),48	14901,(18, 151),2	14903,(18, 154),18	14921,(18, 163),6	14927,(18, 166),2	14929,(18, 169),4	14933,(18, 173),34	14967,(18, 181),18	14985,(18, 187),30	15015,(18, 195),82	15097,(18, 197),6	15103,(18, 199),6	15109,(13, 21),4	15113,(13, 23),36	15149,(13, 26),2	15151,(13, 27),18	15169,(13, 30),34	15203,(13, 37),20	15223,(13, 43),42	15265,(13, 50),6	15271,(13, 51),26	15297,(13, 57),42	15339,(13, 66),4	15343,(13, 71),78	15421,(13, 76),10	15431,(13, 77),2	15433,(13, 79),2	15435,(13, 82),4	15439,(13, 86),2	15441,(13, 94),8	15449,(13, 100),50	15499,(13, 101),10	15509,(13, 106),24	15533,(13, 108),2	15535,(13, 115),2	15537,(13, 116),2	15539,(13, 125),2	15541,(13, 126),2	15543,(13, 130),2	15545,(13, 133),12	15557,(13, 139),2	15559,(13, 144),70	15629,(13, 146),2	15631,(13, 148),18	15649,(13, 156),2	15651,(13, 159),2	15653,(13, 162),2	15655,(13, 166),46	15701,(13, 186),18	15719,(13, 195),8	15727,(6, 21),14	15741,(6, 30),2	15743,(6, 35),2	15745,(6, 37),8	15753,(6, 45),2	15755,(6, 47),14	15769,(6, 49),2	15771,(6, 56),12	15783,(6, 57),2	15785,(6, 63),2	15787,(6, 66),22	15809,(6, 71),2	15811,(6, 73),28	15839,(6, 75),2	15841,(6, 77),2	15843,(6, 79),16	15859,(6, 81),2	15861,(6, 85),2	15863,(6, 86),2	15865,(6, 99),8	15873,(6, 101),32	15905,(6, 106),8	15913,(6, 108),16	15929,(6, 111),10	15939,(6, 120),6	15945,(6, 126),2	15947,(6, 127),2	15949,(6, 129),16	15965,(6, 133),36	16001,(6, 134),6	16007,(6, 138),78	16085,(6, 140),20	16105,(6, 143),4	16109,(6, 144),26	16135,(6, 146),2	16137,(6, 148),4	16141,(6, 149),6	16147,(6, 156),4	16151,(6, 157),12	16163,(6, 159),46	16209,(6, 173),2	16211,(6, 186),44	16255,(6, 187),2	16257,(6, 191),2	16259,(6, 195),6	16265,(6, 200),32	16297,(7, 21),4	16301,(7, 23),2	16303,(7, 25),10	16313,(7, 29),14	16327,(7, 30),20	16347,(7, 33),14	16361,(7, 37),10	16371,(7, 42),10	16381,(7, 43),2	16383,(7, 46),4	16387,(7, 50),2	16389,(7, 56),2	16391,(7, 57),10	16401,(7, 66),2	16403,(7, 70),2	16405,(7, 73),66	16471,(7, 75),28	16499,(7, 76),6	16505,(7, 79),2	16507,(7, 82),10	16517,(7, 85),22	16539,(7, 99),4	16543,(7, 101),46	16589,(7, 108),10	16599,(7, 110),6	16605,(7, 116),4	16609,(7, 120),2	16611,(7, 125),6	16617,(7, 126),38	16655,(7, 129),16	16671,(7, 130),8	16679,(7, 133),14	16693,(7, 134),12	16705,(7, 137),16	16721,(7, 138),4	16725,(7, 139),2	16727,(7, 140),16	16743,(7, 144),2	16745,(7, 146),6	16751,(7, 148),10	16761,(7, 149),10	16771,(7, 151),14	16785,(7, 154),8	16793,(7, 156),2	16795,(7, 157),2	16797,(7, 159),12	16809,(7, 162),4	16813,(7, 166),12	16825,(7, 186),2	16827,(7, 191),2	16829,(5, 21),2	16831,(5, 23),2	16833,(5, 25),2	16835,(5, 29),36	16871,(5, 37),2	16873,(5, 45),2	16875,(5, 47),32	16907,(5, 51),26	16933,(5, 63),18	16951,(5, 73),2	16953,(5, 76),4	16957,(5, 77),4	16961,(5, 78),36	16997,(5, 81),8	17005,(5, 83),20	17025,(5, 85),2	17027,(5, 86),4	17031,(5, 94),2	17033,(5, 95),2	17035,(5, 111),26	17061,(5, 115),6	17067,(5, 116),4	17071,(5, 125),10	17081,(5, 126),30	17111,(5, 129),2	17113,(5, 137),2	17115,(5, 138),8	17123,(5, 139),4	17127,(5, 143),4	17131,(5, 146),2	17133,(5, 148),2	17135,(5, 149),2	17137,(5, 151),2	17139,(5, 154),28	17167,(5, 156),58	17225,(5, 157),2	17227,(5, 159),30	17257,(5, 166),16	17273,(5, 169),6	17279,(5, 173),2	17281,(5, 186),28	17309,(5, 199),18	17327,(5, 200),2	18235,(18, 31),8	18243,(18, 34),4	18247,(18, 52),8	18255,(18, 53),8	18263,(18, 54),2	18265,(18, 58),448	18713,(18, 59),54	18767,(18, 61),2	18769,(18, 64),60	18829,(18, 67),36	18865,(18, 84),2	18867,(18, 91),12	18879,(18, 96),22	18901,(18, 98),2	18903,(18, 102),2	18905,(18, 103),14	18919,(18, 104),8	18927,(18, 118),4	18931,(18, 122),18	18949,(18, 132),6	18955,(18, 141),14	18969,(18, 147),2	18971,(18, 153),22	18993,(18, 170),4	18997,(18, 171),34	19031,(18, 175),6	19037,(18, 183),12	19049,(18, 185),8	19057,(18, 188),4	19061,(18, 190),14	19075,(18, 198),2	20525,(13, 28),6	20531,(13, 31),8	20539,(13, 41),2	20541,(13, 52),2	20543,(13, 53),18	20561,(13, 65),4	20565,(13, 67),2	20567,(13, 72),2	20569,(13, 84),4	20573,(13, 91),8	20581,(13, 96),30	20611,(13, 104),6	20617,(13, 117),2	20619,(13, 118),16	20635,(13, 122),26	20661,(13, 132),108	20769,(13, 135),4	20773,(13, 141),58	20831,(13, 147),2	20833,(13, 153),4	20837,(13, 158),448	21285,(13, 161),2	21287,(13, 165),8	21295,(13, 170),60	21355,(13, 171),2	21357,(13, 172),28	21385,(13, 183),12	21397,(13, 198),6	22697,(6, 28),40	22737,(6, 41),6	22743,(6, 58),2	22745,(6, 59),2	22747,(6, 62),92	22839,(6, 64),42	22881,(6, 65),2	22883,(6, 72),2	22885,(6, 84),22	22907,(6, 91),2	22909,(6, 96),2	22911,(6, 102),2	22913,(6, 117),12	22925,(6, 122),8	22933,(6, 132),26	22959,(6, 135),16	22975,(6, 147),340	23315,(6, 165),12	23327,(6, 170),30	23357,(6, 171),28	23385,(6, 183),304	23689,(6, 185),2	23691,(6, 198),32	24601,(7, 28),8	24609,(7, 31),14	24623,(7, 34),60	24683,(7, 41),16	24699,(7, 53),268	24967,(7, 54),2	24969,(7, 58),6	24975,(7, 59),8	24983,(7, 61),62	25045,(7, 64),8	25053,(7, 72),32	25085,(7, 84),4	25089,(7, 98),18	25107,(7, 102),4	25111,(7, 103),2	25113,(7, 122),2	25115,(7, 135),2	25117,(7, 145),10	25127,(7, 147),8	25135,(7, 152),6	25141,(7, 158),6	25147,(7, 161),16	25163,(7, 171),14	25177,(7, 188),6	25183,(7, 190),2	25925,(5, 41),4	25929,(5, 54),2	25931,(5, 61),14	25945,(5, 62),28	25973,(5, 64),6	25979,(5, 65),4	25983,(5, 84),30	26013,(5, 90),60	26073,(5, 91),24	26097,(5, 102),26	26123,(5, 122),2	26125,(5, 132),12	26137,(5, 147),8	26145,(5, 153),16	26161,(5, 161),2	26163,(5, 165),24	26187,(5, 172),34	26221,(5, 175),2	26223,(5, 176),36	26259,(5, 185),22	26281,(194, 201),4	26285,(22, 201),4	26289,(109, 201),4	26293,(123, 201),4	26301,(189, 201),4	26305,(24, 201),4	26309,(36, 201),4	26313,(39, 201),4	26317,(182, 201),4	26325,(44, 201),4	26333,(48, 201),4	26337,(107, 201),4	26341,(55, 201),4	26345,(192, 201),4	26349,(40, 201),4	26353,(68, 201),4	26357,(60, 201),4	26361,(38, 201),4	26365,(167, 201),4	26369,(179, 201),4	26373,(119, 201),4	26381,(87, 201),4	26389,(92, 201),4	26393,(97, 201),4	26397,(69, 201),4	26401,(112, 201),4	26409,(121, 201),4	26413,(114, 201),4	26417,(128, 201),4	26421,(105, 201),4	26425,(131, 201),4	26429,(136, 201),4	26433,(124, 201),4	26437,(142, 201),4	26441,(150, 201),4	26445,(177, 201),4	26449,(155, 201),4	26453,(80, 201),4	26457,(164, 201),4	26461,(168, 201),4	26469,(174, 201),4	26473,(180, 201),4	26477,(184, 201),4	26481,(193, 201),4	
27,(3, 21),2	29,(3, 25),2	31,(3, 26),2	33,(3, 63),2	35,(3, 30),26	61,(3, 49),2	63,(3, 74),2	65,(3, 95),2	67,(3, 106),2	69,(3, 38),2	71,(3, 39),2	73,(3, 27),10	83,(3, 77),2	85,(3, 82),2	87,(3, 22),44	131,(3, 24),8	139,(3, 36),8	147,(3, 40),4	151,(3, 60),2	153,(3, 79),22	175,(3, 87),6	181,(3, 93),4	185,(3, 101),2	187,(3, 32),44	231,(3, 50),40	271,(3, 85),18	289,(3, 105),2	291,(3, 128),2	293,(3, 35),30	323,(3, 42),16	339,(3, 57),60	399,(3, 107),6	405,(3, 110),6	411,(3, 130),2	413,(3, 138),2	415,(3, 143),2	417,(3, 56),12	429,(3, 137),2	431,(3, 166),2	433,(3, 199),2	435,(3, 81),12	447,(3, 100),34	481,(3, 115),16	497,(3, 124),8	505,(3, 66),50	555,(3, 71),96	651,(3, 112),54	705,(3, 114),16	721,(3, 116),84	805,(3, 120),54	859,(3, 121),20	879,(3, 127),92	971,(3, 129),14	985,(3, 131),10	995,(3, 139),2	997,(3, 144),16	1013,(3, 148),92	1105,(3, 149),2	1107,(3, 155),52	1159,(3, 160),4	1163,(3, 163),16	1179,(3, 164),32	1211,(3, 173),70	1281,(3, 178),4	1285,(3, 180),10	1295,(3, 184),20	1315,(3, 186),14	1329,(3, 187),2	1331,(3, 193),40	1371,(3, 194),48	1419,(3, 197),8	1427,(14, 22),44	1471,(14, 23),2	1473,(14, 24),6	1479,(14, 25),2	1481,(14, 26),2	1483,(14, 27),2	1485,(14, 30),2	1487,(14, 32),10	1497,(14, 33),28	1525,(14, 35),2	1527,(14, 38),16	1543,(14, 39),8	1551,(14, 40),2	1553,(14, 43),8	1561,(14, 46),2	1563,(14, 48),2	1565,(14, 50),20	1585,(14, 51),14	1599,(14, 57),2	1601,(14, 66),2	1603,(14, 70),2	1605,(14, 71),20	1625,(14, 73),54	1679,(14, 74),2	1681,(14, 75),6	1687,(14, 76),4	1691,(14, 78),32	1723,(14, 80),2	1725,(14, 81),2	1727,(14, 88),32	1759,(14, 93),36	1795,(14, 97),2	1797,(14, 99),2	1799,(14, 100),2	1801,(14, 105),12	1813,(14, 106),2	1815,(14, 107),4	1819,(14, 110),14	1833,(14, 116),2	1835,(14, 121),24	1859,(14, 128),6	1865,(14, 142),2	1867,(14, 150),2	1869,(14, 108),34	1903,(14, 113),36	1939,(14, 115),20	1959,(14, 120),26	1985,(14, 124),26	2011,(14, 125),8	2019,(14, 127),16	2035,(14, 130),8	2043,(14, 136),8	2051,(14, 137),2	2053,(14, 139),8	2061,(14, 140),10	2071,(14, 146),6	2077,(14, 151),2	2079,(14, 156),32	2111,(14, 164),68	2179,(14, 168),4	2183,(14, 179),6	2189,(14, 181),2	2191,(14, 189),18	2209,(14, 191),4	2213,(14, 166),18	2231,(14, 192),6	2237,(14, 197),2	2239,(19, 29),2	2241,(19, 32),6	2247,(19, 42),2	2249,(14, 178),38	2287,(14, 182),32	2319,(14, 184),28	2347,(14, 193),46	2393,(14, 200),22	2415,(19, 35),6	2421,(19, 38),20	2441,(19, 39),2	2443,(19, 46),20	2463,(19, 47),42	2505,(19, 49),2	2507,(19, 63),2	2509,(19, 74),2	2511,(19, 94),2	2513,(19, 127),2	2515,(19, 140),2	2517,(19, 48),2	2519,(19, 55),2	2521,(19, 56),14	2535,(19, 97),8	2543,(19, 105),2	2545,(19, 57),4	2549,(19, 70),2	2551,(19, 75),2	2553,(19, 77),4	2557,(19, 78),18	2575,(19, 79),2	2577,(19, 81),14	2591,(19, 82),4	2595,(19, 100),2	2597,(19, 110),2	2599,(19, 126),2	2601,(19, 137),4	2605,(19, 144),2	2607,(19, 149),2	2609,(19, 157),4	2613,(19, 169),2	2615,(19, 173),2	2617,(19, 181),2	2619,(19, 92),28	2647,(19, 101),48	2695,(19, 107),2	2697,(19, 112),30	2727,(19, 113),26	2753,(19, 114),50	2803,(19, 119),2	2805,(19, 128),38	2843,(19, 133),100	2943,(19, 164),30	2973,(19, 167),12	2985,(19, 174),2	2987,(19, 108),54	3041,(19, 111),30	3071,(19, 159),16	3087,(19, 162),8	3095,(19, 177),36	3131,(19, 179),4	3135,(19, 180),20	3155,(19, 182),2	3157,(19, 186),6	3163,(19, 187),18	3181,(19, 189),2	3183,(19, 191),18	3201,(19, 195),84	3285,(19, 197),10	3295,(19, 200),112	3407,(20, 21),44	3451,(20, 35),6	3457,(20, 46),2	3459,(20, 24),6	3465,(20, 25),16	3481,(20, 27),12	3493,(20, 29),12	3505,(20, 30),22	3527,(20, 36),2	3529,(20, 37),10	3539,(20, 38),6	3545,(20, 39),2	3547,(20, 40),2	3549,(20, 42),4	3553,(20, 43),24	3577,(20, 44),4	3581,(20, 47),4	3585,(20, 48),70	3655,(20, 51),4	3659,(20, 55),2	3661,(20, 57),78	3739,(20, 60),4	3743,(20, 63),8	3751,(20, 71),2	3753,(20, 73),52	3805,(20, 76),6	3811,(20, 78),22	3833,(20, 80),6	3839,(20, 82),4	3843,(20, 85),6	3849,(20, 86),6	3855,(20, 87),22	3877,(20, 88),6	3883,(20, 89),18	3901,(20, 95),2	3903,(20, 97),4	3907,(20, 99),2	3909,(20, 101),10	3919,(20, 105),4	3923,(20, 106),10	3933,(20, 108),4	3937,(20, 110),2	3939,(20, 111),40	3979,(20, 112),10	3989,(20, 113),14	4003,(20, 114),2	4005,(20, 126),6	4011,(20, 128),2	4013,(20, 130),40	4053,(20, 131),2	4055,(20, 133),8	4063,(20, 136),2	4065,(20, 137),2	4067,(20, 138),18	4085,(20, 139),14	4099,(20, 140),2	4101,(20, 142),2	4103,(20, 146),12	4115,(20, 148),2	4117,(20, 150),88	4205,(20, 151),32	4237,(20, 155),2	4239,(20, 157),20	4259,(20, 159),60	4319,(20, 163),24	4343,(20, 164),32	4375,(20, 166),32	4407,(20, 168),2	4409,(20, 174),2	4411,(20, 178),2	4413,(20, 180),26	4439,(20, 181),12	4451,(20, 184),2	4453,(20, 187),4	4457,(20, 191),2	4459,(20, 195),2	
87,(4, 27),44	131,(4, 45),8	139,(4, 75),6	145,(4, 76),2	147,(4, 78),2	149,(4, 89),2	151,(4, 100),2	153,(4, 38),2	155,(4, 39),12	167,(4, 48),2	169,(4, 55),2	173,(4, 87),2	175,(4, 85),6	183,(4, 128),2	185,(4, 142),2	187,(4, 101),6	193,(4, 113),28	221,(4, 129),10	245,(4, 44),6	251,(4, 80),22	273,(4, 105),6	279,(4, 107),10	289,(4, 126),12	301,(4, 133),2	303,(4, 138),12	315,(4, 146),4	319,(4, 154),2	321,(4, 156),2	323,(4, 157),2	325,(4, 163),2	327,(9, 26),8	335,(9, 50),2	337,(9, 78),2	347,(4, 114),6	353,(4, 119),12	365,(4, 121),14	379,(4, 123),12	391,(4, 167),8	399,(9, 85),6	405,(4, 168),2	407,(4, 174),4	411,(9, 99),2	413,(4, 179),2	415,(4, 184),2	417,(9, 33),8	425,(9, 151),2	427,(10, 76),4	431,(4, 194),2	433,(9, 40),2	435,(9, 45),8	443,(10, 133),2	445,(10, 146),2	449,(4, 182),8	457,(9, 44),2	459,(9, 48),2	481,(4, 173),66	547,(9, 75),8	563,(9, 60),2	595,(4, 177),22	617,(4, 180),14	647,(9, 136),2	649,(9, 155),2	651,(4, 83),116	767,(4, 192),40	853,(9, 123),6	859,(4, 178),50	909,(4, 195),16	925,(4, 196),16	941,(4, 199),20	961,(9, 89),10	971,(9, 109),14	985,(9, 63),12	997,(9, 76),14	1011,(10, 163),2	1061,(9, 22),18	1079,(9, 150),6	1085,(9, 174),2	1091,(9, 142),12	1103,(9, 189),2	1105,(9, 27),50	1155,(9, 110),8	1163,(9, 167),8	1171,(10, 40),2	1173,(10, 105),4	1177,(10, 107),2	1179,(9, 79),16	1195,(9, 82),16	1211,(9, 36),36	1247,(9, 180),18	1265,(9, 184),16	1281,(10, 109),2	1283,(10, 112),2	1285,(9, 120),48	1333,(9, 129),10	1343,(9, 143),10	1353,(9, 148),46	1399,(9, 156),22	1421,(9, 157),18	1439,(9, 163),34	1473,(10, 33),6	1485,(9, 166),12	1497,(9, 192),10	1525,(10, 78),8	1533,(10, 82),24	1557,(10, 89),8	1565,(9, 128),158	1723,(10, 196),2	1725,(9, 177),52	1777,(10, 150),2	1793,(10, 174),2	1795,(16, 26),2	1797,(10, 179),2	1801,(10, 99),14	1815,(10, 195),4	1833,(10, 101),6	1839,(16, 33),2	1843,(10, 199),4	1847,(16, 27),6	1853,(16, 63),2	1863,(16, 79),4	1867,(16, 89),2	1869,(9, 164),74	1943,(10, 110),14	1957,(16, 126),2	1983,(16, 68),2	1985,(10, 100),54	2039,(10, 182),4	2043,(16, 45),12	2055,(16, 50),16	2097,(10, 60),10	2111,(16, 25),38	2151,(16, 93),12	2163,(16, 146),2	2189,(16, 80),2	2209,(10, 69),20	2237,(16, 40),4	2241,(4, 41),2	2243,(4, 52),4	2247,(4, 53),2	2261,(10, 97),10	2271,(10, 184),6	2287,(16, 129),4	2301,(16, 76),16	2317,(16, 85),20	2337,(16, 178),2	2339,(16, 195),2	2341,(17, 50),2	2343,(17, 71),2	2345,(4, 28),12	2357,(4, 59),2	2359,(4, 61),2	2361,(16, 151),12	2373,(16, 163),14	2387,(17, 26),6	2393,(10, 136),20	2413,(17, 33),6	2419,(17, 151),2	2421,(4, 91),2	2423,(17, 156),2	2425,(4, 132),2	2427,(17, 77),6	2433,(17, 82),4	2437,(4, 67),4	2441,(4, 170),2	2443,(9, 182),74	2521,(16, 48),4	2525,(16, 55),4	2529,(16, 92),6	2545,(4, 72),6	2577,(17, 85),12	2589,(17, 157),2	2601,(17, 110),4	2605,(17, 129),4	2613,(17, 166),2	2617,(17, 27),24	2641,(17, 133),4	2645,(17, 195),2	2647,(10, 192),16	2663,(16, 24),16	2679,(16, 69),12	2691,(16, 119),2	2693,(16, 123),2	2695,(17, 57),28	2723,(17, 154),4	2727,(16, 112),6	2733,(16, 124),2	2735,(16, 142),2	2737,(16, 150),2	2739,(16, 155),8	2747,(17, 22),2	2749,(17, 48),2	2751,(17, 97),2	2753,(17, 89),10	2763,(17, 113),10	2773,(4, 31),44	2817,(4, 122),6	2823,(17, 199),2	2831,(4, 171),4	2837,(4, 64),28	2865,(4, 65),10	2875,(4, 117),10	2885,(16, 128),44	2929,(16, 164),12	2941,(17, 150),2	2943,(10, 25),106	3049,(10, 148),114	3163,(16, 167),18	3183,(10, 164),134	3317,(10, 180),82	3399,(10, 189),60	3465,(16, 179),14	3479,(16, 182),40	3519,(16, 196),66	3585,(17, 93),28	3613,(17, 163),10	3655,(17, 107),4	3661,(16, 192),44	3705,(17, 40),8	3713,(17, 68),18	3731,(17, 155),8	3743,(17, 38),82	3825,(17, 167),6	3831,(17, 179),2	3839,(17, 119),12	3851,(17, 168),4	3877,(17, 92),22	3899,(17, 180),2	3907,(17, 174),6	3923,(17, 69),56	3989,(17, 121),14	4013,(17, 105),34	4065,(17, 124),14	4079,(17, 142),16	4117,(17, 126),50	4205,(17, 177),26	4239,(17, 80),82	4453,(16, 184),124	4577,(17, 83),92	4669,(17, 193),34	14345,(4, 84),36	14381,(4, 158),10	14419,(4, 147),20	14443,(9, 84),2	16191,(4, 58),58	16249,(4, 90),162	16411,(4, 103),114	16525,(4, 135),1580	18105,(4, 161),12	18117,(4, 165),24	18141,(4, 183),8	18149,(4, 185),44	18193,(4, 188),8	18201,(4, 190),16	18217,(4, 198),18	20063,(9, 31),14	20077,(9, 52),20	20097,(9, 53),26	20123,(9, 65),4	20127,(9, 72),28	20155,(9, 91),2	20157,(9, 98),12	20169,(9, 102),2	20171,(9, 104),4	20175,(9, 118),10	20185,(9, 122),20	20205,(9, 141),12	20217,(9, 147),2	20219,(9, 152),2	20221,(9, 165),12	20233,(9, 172),2	20235,(9, 176),6	20241,(9, 185),280	20521,(9, 188),2	20523,(9, 198),2	22371,(10, 28),2	22373,(10, 34),4	22377,(10, 41),12	22389,(10, 52),28	22417,(10, 53),52	22469,(10, 58),110	22579,(10, 64),2	22581,(10, 65),8	22589,(10, 72),2	22591,(10, 90),8	22599,(10, 91),2	22601,(10, 98),4	22605,(10, 103),6	22611,(10, 104),2	22613,(10, 118),8	22621,(10, 122),6	22627,(10, 141),24	22651,(10, 145),4	22655,(10, 158),2	22657,(10, 161),2	22659,(10, 170),14	22673,(10, 171),2	22675,(10, 176),6	22681,(10, 188),12	22693,(10, 190),2	22695,(10, 198),2	24107,(16, 34),8	24115,(16, 52),6	24121,(16, 53),224	24345,(16, 54),2	24347,(16, 58),8	24355,(16, 61),18	24373,(16, 62),2	24375,(16, 67),4	24379,(16, 72),14	24393,(16, 90),8	24401,(16, 103),2	24403,(16, 104),6	24409,(16, 117),4	24413,(16, 122),8	24421,(16, 147),2	24423,(16, 158),104	24527,(16, 165),4	24531,(16, 172),68	24599,(16, 185),2	25847,(17, 53),4	25851,(17, 61),2	25853,(17, 64),2	25855,(17, 96),6	25861,(17, 102),2	25863,(17, 104),16	25879,(17, 122),4	25883,(17, 132),2	25885,(17, 145),4	25889,(17, 153),6	25895,(17, 161),10	25905,(17, 165),4	25909,(17, 171),2	25911,(17, 172),2	25913,(17, 198),12	26297,(160, 201),4	26485,(32, 201),4	26489,(74, 201),4	26497,(181, 201),4	26501,(197, 201),4	26517,(35, 201),4	26521,(49, 201),4	26529,(106, 201),4	26533,(127, 201),4	26537,(187, 201),4	26545,(30, 201),4	26553,(42, 201),4	26561,(43, 201),4	26569,(46, 201),4	26577,(56, 201),4	26581,(66, 201),4	26605,(108, 201),4	26617,(130, 201),4	26625,(134, 201),4	26629,(140, 201),4	26633,(144, 201),4	26637,(162, 201),4	26641,(191, 201),4	26649,(21, 201),4	26653,(23, 201),4	26661,(29, 201),4	26665,(37, 201),4	26669,(47, 201),4	26673,(51, 201),4	26681,(73, 201),4	26693,(81, 201),4	26705,(86, 201),4	26713,(94, 201),4	26717,(95, 201),4	26721,(111, 201),4	26725,(115, 201),4	26733,(116, 201),4	26741,(125, 201),4	26749,(137, 201),4	26757,(139, 201),4	26765,(149, 201),4	26785,(159, 201),4	26793,(169, 201),4	26805,(186, 201),4	26813,(200, 201),4	
