5372
# CPU
145,3,10	155,53,10	165,58,10	289,6,10	299,16,10	309,18,10	319,70,10	329,78,10	339,28,10	349,66,10	359,52,10	397,24,10	453,26,10	477,33,10	497,14,10	725,39,10	825,47,10	835,51,10	893,68,10	1045,30,10	1055,61,10	1065,15,10	1133,19,10	1143,45,10	1153,59,10	1163,74,10	1229,76,10	1245,22,10	1255,62,10	1333,50,10	1343,71,10	1361,13,10	1371,35,10	1381,65,10	1461,46,10	1509,55,10	1519,11,10	1529,17,10	1589,20,10	1613,21,10	1649,37,10	1659,41,10	1673,48,10	1753,49,10	1763,54,10	1857,57,10	1867,64,10	2129,63,10	2173,72,10	2241,23,10	5141,44,10	5181,56,10	5309,60,10	5319,67,10	5329,69,10	5357,80,10	
73,2,10	83,12,10	93,36,10	217,5,10	227,29,10	245,10,10	269,25,10	361,8,10	371,40,10	381,31,10	513,34,10	619,27,10	763,75,10	811,79,10	1141,73,10	1249,38,10	1377,42,10	1897,43,10	2125,77,10	5371,81,1	
0,0,1	1,4,10	11,1,10	21,7,10	611,9,10	5105,32,10	
# Incoming
73,(0, 3),72	217,(0, 6),72	361,(4, 15),4	365,(4, 22),28	393,(4, 24),4	397,(4, 26),56	453,(4, 33),24	477,(2, 14),20	497,(2, 57),12	509,(2, 71),4	513,(4, 37),188	701,(4, 39),24	725,(4, 45),92	817,(4, 46),4	821,(4, 47),4	825,(4, 51),4	829,(4, 56),36	865,(4, 68),28	893,(4, 71),4	897,(2, 30),148	1045,(2, 61),8	1053,(5, 15),4	1057,(5, 17),44	1101,(5, 19),32	1133,(5, 45),4	1137,(5, 59),4	1141,(4, 74),4	1145,(4, 76),84	1229,(1, 13),4	1233,(1, 22),12	1245,(5, 62),4	1249,(1, 41),4	1253,(5, 50),80	1333,(5, 71),4	1337,(8, 13),24	1361,(8, 35),4	1365,(8, 49),8	1373,(8, 65),4	1377,(1, 44),52	1429,(1, 46),32	1461,(1, 49),28	1489,(1, 55),20	1509,(7, 11),4	1513,(7, 17),12	1525,(7, 20),64	1589,(7, 21),24	1613,(7, 37),36	1649,(7, 41),4	1653,(7, 48),20	1673,(7, 49),80	1753,(7, 54),8	1761,(7, 57),96	1857,(7, 64),8	1865,(2, 63),264	2129,(5, 72),44	2173,(8, 23),68	5105,(8, 44),36	5141,(8, 56),40	5181,(8, 60),128	5309,(8, 67),4	5313,(8, 69),8	5321,(8, 80),36	
1,(0, 2),72	145,(0, 5),72	217,(3, 10),28	245,(3, 25),24	269,(3, 42),12	281,(53, 81),4	285,(58, 81),4	289,(0, 8),72	361,(6, 40),4	477,(4, 34),36	611,(6, 27),8	619,(6, 75),144	763,(6, 79),48	811,(16, 81),4	815,(18, 81),4	819,(70, 81),4	823,(78, 81),4	827,(28, 81),4	831,(66, 81),4	835,(52, 81),4	839,(24, 81),4	843,(26, 81),4	847,(33, 81),4	851,(14, 81),4	855,(39, 81),4	859,(47, 81),4	863,(51, 81),4	897,(4, 73),244	1141,(68, 81),4	1145,(30, 81),4	1149,(61, 81),4	1153,(15, 81),4	1157,(19, 81),4	1161,(45, 81),4	1165,(59, 81),4	1173,(74, 81),4	1239,(76, 81),4	1245,(1, 38),4	1253,(1, 42),124	1377,(3, 43),520	1897,(6, 77),228	2125,(9, 81),4	2129,(22, 81),4	2133,(62, 81),4	2137,(50, 81),4	2141,(71, 81),4	2145,(13, 81),4	2149,(35, 81),4	2153,(65, 81),4	2157,(46, 81),4	2161,(55, 81),4	2165,(11, 81),4	2169,(17, 81),4	2173,(20, 81),4	2177,(21, 81),4	2181,(37, 81),4	2185,(41, 81),4	2189,(48, 81),4	2193,(49, 81),4	2197,(54, 81),4	2201,(57, 81),4	2205,(64, 81),4	2209,(63, 81),4	2213,(72, 81),4	2251,(23, 81),4	5115,(32, 81),4	5151,(44, 81),4	5191,(56, 81),4	5319,(60, 81),4	5329,(67, 81),4	5339,(69, 81),4	5367,(80, 81),4	
83,(2, 9),284	367,(3, 32),4	371,(6, 9),240	2241,(8, 32),2864	
# Outgoing
217,(3, 10),28	245,(3, 25),24	269,(3, 42),12	281,(53, 81),4	285,(58, 81),4	361,(6, 40),4	367,(3, 32),4	371,(6, 9),240	611,(6, 27),8	619,(6, 75),144	763,(6, 79),48	811,(16, 81),4	815,(18, 81),4	819,(70, 81),4	823,(78, 81),4	827,(28, 81),4	831,(66, 81),4	835,(52, 81),4	839,(24, 81),4	843,(26, 81),4	847,(33, 81),4	851,(14, 81),4	855,(39, 81),4	859,(47, 81),4	863,(51, 81),4	1141,(68, 81),4	1145,(30, 81),4	1149,(61, 81),4	1153,(15, 81),4	1157,(19, 81),4	1161,(45, 81),4	1165,(59, 81),4	1173,(74, 81),4	1239,(76, 81),4	1377,(3, 43),520	1897,(6, 77),228	2129,(22, 81),4	2133,(62, 81),4	2137,(50, 81),4	2141,(71, 81),4	2145,(13, 81),4	2149,(35, 81),4	2153,(65, 81),4	2157,(46, 81),4	2161,(55, 81),4	2165,(11, 81),4	2169,(17, 81),4	2173,(20, 81),4	2177,(21, 81),4	2181,(37, 81),4	2185,(41, 81),4	2189,(48, 81),4	2193,(49, 81),4	2197,(54, 81),4	2201,(57, 81),4	2205,(64, 81),4	2209,(63, 81),4	2213,(72, 81),4	2251,(23, 81),4	5151,(44, 81),4	5191,(56, 81),4	5319,(60, 81),4	5329,(67, 81),4	5339,(69, 81),4	5367,(80, 81),4	
83,(2, 9),284	477,(2, 14),20	497,(2, 57),12	509,(2, 71),4	897,(2, 30),148	1045,(2, 61),8	1053,(5, 15),4	1057,(5, 17),44	1101,(5, 19),32	1133,(5, 45),4	1137,(5, 59),4	1245,(5, 62),4	1253,(5, 50),80	1333,(5, 71),4	1337,(8, 13),24	1361,(8, 35),4	1365,(8, 49),8	1373,(8, 65),4	1865,(2, 63),264	2129,(5, 72),44	2173,(8, 23),68	2241,(8, 32),2864	5105,(8, 44),36	5141,(8, 56),40	5181,(8, 60),128	5309,(8, 67),4	5313,(8, 69),8	5321,(8, 80),36	
1,(0, 2),72	73,(0, 3),72	145,(0, 5),72	217,(0, 6),72	289,(0, 8),72	361,(4, 15),4	365,(4, 22),28	393,(4, 24),4	397,(4, 26),56	453,(4, 33),24	477,(4, 34),36	513,(4, 37),188	701,(4, 39),24	725,(4, 45),92	817,(4, 46),4	821,(4, 47),4	825,(4, 51),4	829,(4, 56),36	865,(4, 68),28	893,(4, 71),4	897,(4, 73),244	1141,(4, 74),4	1145,(4, 76),84	1229,(1, 13),4	1233,(1, 22),12	1245,(1, 38),4	1249,(1, 41),4	1253,(1, 42),124	1377,(1, 44),52	1429,(1, 46),32	1461,(1, 49),28	1489,(1, 55),20	1509,(7, 11),4	1513,(7, 17),12	1525,(7, 20),64	1589,(7, 21),24	1613,(7, 37),36	1649,(7, 41),4	1653,(7, 48),20	1673,(7, 49),80	1753,(7, 54),8	1761,(7, 57),96	1857,(7, 64),8	2125,(9, 81),4	5115,(32, 81),4	
