7538
# CPU
161,5,6	167,51,6	321,10,6	327,53,6	333,58,6	339,61,6	465,30,6	517,43,6	609,57,6	693,62,6	733,77,6	5985,46,6	6017,80,6	6269,41,6	6275,50,6	6381,59,6	6389,92,6	6429,110,6	6509,82,6	6601,65,6	6613,27,6	6625,49,6	6677,54,6	6777,68,6	6805,113,6	6853,40,6	6873,45,6	6921,35,6	6961,64,6	6967,119,6	6973,23,6	6979,37,6	6985,47,6	6997,60,6	7021,52,6	7041,72,6	7061,84,6	7097,107,6	7125,95,6	7131,101,6	7149,104,6	7161,44,6	7169,48,6	7177,56,6	7183,63,6	7189,75,6	7225,86,6	7233,89,6	7239,98,6	7249,116,6	7421,42,6	
121,4,6	127,22,6	133,85,6	139,93,6	225,67,6	281,9,6	287,21,6	293,78,6	299,120,6	401,99,6	457,24,6	477,114,6	525,71,6	693,96,6	699,76,6	797,108,6	993,55,6	3609,28,6	3861,31,6	3867,38,6	4069,81,6	4137,83,6	4301,39,6	5905,87,6	5913,102,6	5989,105,6	6057,118,6	6269,36,6	6381,73,6	6429,111,6	7065,90,6	7537,121,1	
81,3,6	241,8,6	247,33,6	253,34,6	259,94,6	481,32,6	797,16,6	849,19,6	937,115,6	1001,100,6	1233,70,6	1305,29,6	1865,106,6	3829,88,6	3893,66,6	4129,97,6	6389,103,6	6961,117,6	7021,69,6	7101,91,6	7157,109,6	7237,112,6	
41,2,6	201,7,6	361,12,6	433,17,6	689,26,6	1061,15,6	1829,79,6	
0,0,1	1,1,6	7,6,6	13,11,6	19,18,6	645,25,6	669,13,6	737,14,6	897,20,6	5429,74,6	
# Incoming
121,(0, 5),40	161,(4, 23),4	165,(4, 40),4	169,(4, 41),64	233,(4, 43),4	237,(4, 45),12	249,(4, 57),20	281,(0, 10),40	321,(2, 27),140	461,(2, 30),4	465,(2, 37),4	469,(2, 52),4	473,(3, 98),4	477,(1, 43),40	517,(1, 44),4	521,(1, 45),4	525,(1, 57),84	609,(1, 59),80	689,(1, 62),4	693,(4, 75),4	697,(1, 77),36	733,(1, 86),5104	5837,(2, 45),76	5913,(2, 64),20	5933,(2, 65),48	5981,(7, 46),4	5985,(7, 50),4	5989,(1, 107),4	5993,(2, 80),24	6017,(2, 107),12	6029,(4, 86),12	6041,(7, 60),4	6045,(8, 41),4	6049,(1, 113),4	6053,(8, 65),4	6057,(6, 23),200	6257,(6, 35),8	6265,(9, 41),4	6269,(6, 50),4	6273,(6, 63),4	6277,(6, 68),92	6369,(9, 49),4	6373,(6, 72),4	6377,(9, 59),4	6381,(6, 89),4	6385,(9, 92),4	6389,(6, 104),36	6425,(9, 110),4	6429,(6, 113),4	6433,(2, 84),44	6477,(3, 82),32	6509,(4, 44),56	6565,(4, 65),36	6601,(7, 27),12	6613,(7, 49),12	6625,(7, 54),52	6677,(7, 63),60	6737,(7, 68),40	6777,(7, 113),28	6805,(7, 116),24	6829,(8, 40),24	6853,(8, 45),20	6873,(8, 104),28	6901,(9, 35),20	6921,(9, 37),12	6933,(9, 48),16	6949,(9, 64),12	6961,(6, 119),4	6965,(11, 23),4	6969,(11, 37),4	6973,(11, 47),4	6977,(11, 60),20	6997,(9, 52),24	7021,(11, 72),20	7041,(11, 84),20	7061,(9, 107),36	7097,(12, 42),4	7101,(11, 95),24	7125,(11, 101),4	7129,(11, 104),20	7149,(12, 44),12	7161,(12, 48),8	7169,(12, 56),8	7177,(12, 63),4	7181,(12, 75),4	7185,(12, 86),40	7225,(12, 89),8	7233,(12, 98),4	7237,(11, 116),12	7249,(9, 42),172	
81,(0, 4),40	121,(3, 24),96	217,(3, 31),4	221,(3, 67),4	241,(0, 9),40	293,(3, 90),88	381,(3, 96),8	389,(3, 99),12	401,(8, 28),8	409,(8, 73),4	413,(33, 121),16	433,(1, 24),24	457,(34, 121),16	473,(2, 114),4	481,(2, 71),44	525,(94, 121),16	541,(32, 121),16	573,(7, 76),20	593,(8, 39),84	689,(5, 96),4	693,(1, 76),4	697,(5, 36),8	705,(5, 102),32	737,(5, 111),32	769,(51, 121),16	785,(12, 108),12	805,(5, 55),188	993,(7, 28),2616	3609,(8, 38),240	3849,(10, 31),12	3861,(10, 38),4	3865,(10, 39),88	3953,(10, 81),116	4069,(10, 83),68	4137,(53, 121),16	4153,(58, 121),16	4169,(61, 121),16	4185,(12, 39),116	4301,(30, 121),16	4317,(43, 121),16	4333,(57, 121),16	4349,(62, 121),16	4365,(77, 121),16	4381,(16, 121),16	4397,(19, 121),16	4413,(115, 121),16	4429,(100, 121),16	4445,(70, 121),16	4461,(29, 121),16	4477,(106, 121),16	4493,(88, 121),16	4509,(66, 121),16	4525,(97, 121),16	5429,(17, 121),16	5445,(26, 121),16	5461,(15, 121),16	5477,(79, 121),16	5837,(1, 87),68	5905,(1, 90),4	5909,(1, 102),4	5913,(1, 105),76	5991,(46, 121),16	6023,(80, 121),16	6053,(1, 118),4	6265,(6, 36),4	6275,(41, 121),16	6291,(50, 121),16	6377,(6, 73),4	6387,(59, 121),16	6403,(92, 121),16	6425,(6, 111),4	6429,(103, 121),16	6445,(110, 121),16	6515,(82, 121),16	6607,(65, 121),16	6623,(27, 121),16	6639,(49, 121),16	6683,(54, 121),16	6783,(68, 121),16	6811,(113, 121),16	6859,(40, 121),16	6879,(45, 121),16	6927,(35, 121),16	6967,(117, 121),16	6983,(64, 121),16	6999,(119, 121),16	7015,(23, 121),16	7031,(37, 121),16	7061,(11, 90),4	7065,(47, 121),16	7081,(60, 121),16	7097,(52, 121),16	7113,(69, 121),16	7129,(72, 121),16	7145,(84, 121),16	7161,(107, 121),16	7177,(91, 121),16	7193,(95, 121),16	7209,(101, 121),16	7225,(104, 121),16	7249,(18, 121),16	7265,(25, 121),16	7281,(13, 121),16	7297,(14, 121),16	7313,(20, 121),16	7329,(74, 121),16	7345,(109, 121),16	7361,(44, 121),16	7377,(48, 121),16	7393,(56, 121),16	7409,(63, 121),16	7425,(75, 121),16	7441,(86, 121),16	7457,(89, 121),16	7473,(112, 121),16	7489,(98, 121),16	7505,(116, 121),16	7521,(42, 121),16	
41,(0, 3),40	131,(4, 29),8	139,(4, 100),8	147,(4, 109),8	201,(0, 8),40	269,(4, 66),24	361,(1, 16),68	457,(1, 29),20	477,(2, 32),4	525,(2, 88),4	529,(2, 100),16	545,(7, 66),28	593,(7, 100),20	613,(12, 88),12	625,(12, 115),4	645,(4, 97),48	697,(4, 115),76	773,(4, 117),12	785,(5, 16),12	797,(5, 29),8	805,(9, 19),44	897,(9, 69),12	909,(9, 115),28	993,(5, 100),8	1001,(9, 70),232	1233,(10, 29),72	1829,(10, 106),36	3609,(7, 88),220	3829,(12, 66),64	3893,(12, 97),236	5993,(1, 109),56	6369,(6, 69),4	6385,(6, 103),4	6433,(6, 117),528	6997,(11, 69),24	7065,(11, 91),36	7149,(11, 109),8	7157,(11, 112),80	
1,(0, 2),40	127,(4, 15),4	161,(0, 7),40	321,(0, 12),40	429,(1, 17),4	673,(5, 26),16	1001,(10, 15),60	1305,(10, 79),524	
225,(3, 74),68	293,(4, 25),352	645,(5, 13),24	669,(5, 20),4	673,(12, 14),64	849,(9, 20),48	4301,(12, 74),1128	
# Outgoing
645,(5, 13),24	669,(5, 20),4	673,(5, 26),16	689,(5, 96),4	697,(5, 36),8	705,(5, 102),32	737,(5, 111),32	769,(51, 121),16	785,(5, 16),12	797,(5, 29),8	805,(5, 55),188	993,(5, 100),8	1001,(10, 15),60	1233,(10, 29),72	1305,(10, 79),524	1829,(10, 106),36	3849,(10, 31),12	3861,(10, 38),4	3865,(10, 39),88	3953,(10, 81),116	4069,(10, 83),68	4137,(53, 121),16	4153,(58, 121),16	4169,(61, 121),16	4301,(30, 121),16	4317,(43, 121),16	4333,(57, 121),16	4349,(62, 121),16	4365,(77, 121),16	5991,(46, 121),16	6023,(80, 121),16	6275,(41, 121),16	6291,(50, 121),16	6387,(59, 121),16	6403,(92, 121),16	6445,(110, 121),16	6515,(82, 121),16	6607,(65, 121),16	6623,(27, 121),16	6639,(49, 121),16	6683,(54, 121),16	6783,(68, 121),16	6811,(113, 121),16	6859,(40, 121),16	6879,(45, 121),16	6927,(35, 121),16	6983,(64, 121),16	6999,(119, 121),16	7015,(23, 121),16	7031,(37, 121),16	7065,(47, 121),16	7081,(60, 121),16	7097,(52, 121),16	7129,(72, 121),16	7145,(84, 121),16	7161,(107, 121),16	7193,(95, 121),16	7209,(101, 121),16	7225,(104, 121),16	7361,(44, 121),16	7377,(48, 121),16	7393,(56, 121),16	7409,(63, 121),16	7425,(75, 121),16	7441,(86, 121),16	7457,(89, 121),16	7489,(98, 121),16	7505,(116, 121),16	7521,(42, 121),16	
127,(4, 15),4	131,(4, 29),8	139,(4, 100),8	147,(4, 109),8	161,(4, 23),4	165,(4, 40),4	169,(4, 41),64	233,(4, 43),4	237,(4, 45),12	249,(4, 57),20	269,(4, 66),24	293,(4, 25),352	645,(4, 97),48	693,(4, 75),4	697,(4, 115),76	773,(4, 117),12	805,(9, 19),44	849,(9, 20),48	897,(9, 69),12	909,(9, 115),28	1001,(9, 70),232	6029,(4, 86),12	6265,(9, 41),4	6369,(9, 49),4	6377,(9, 59),4	6385,(9, 92),4	6425,(9, 110),4	6509,(4, 44),56	6565,(4, 65),36	6901,(9, 35),20	6921,(9, 37),12	6933,(9, 48),16	6949,(9, 64),12	6997,(9, 52),24	7061,(9, 107),36	7249,(9, 42),172	
121,(3, 24),96	217,(3, 31),4	221,(3, 67),4	225,(3, 74),68	293,(3, 90),88	381,(3, 96),8	389,(3, 99),12	401,(8, 28),8	409,(8, 73),4	413,(33, 121),16	457,(34, 121),16	473,(3, 98),4	525,(94, 121),16	541,(32, 121),16	593,(8, 39),84	3609,(8, 38),240	4381,(16, 121),16	4397,(19, 121),16	4413,(115, 121),16	4429,(100, 121),16	4445,(70, 121),16	4461,(29, 121),16	4477,(106, 121),16	4493,(88, 121),16	4509,(66, 121),16	4525,(97, 121),16	6045,(8, 41),4	6053,(8, 65),4	6429,(103, 121),16	6477,(3, 82),32	6829,(8, 40),24	6853,(8, 45),20	6873,(8, 104),28	6967,(117, 121),16	7113,(69, 121),16	7177,(91, 121),16	7345,(109, 121),16	7473,(112, 121),16	
321,(2, 27),140	461,(2, 30),4	465,(2, 37),4	469,(2, 52),4	473,(2, 114),4	477,(2, 32),4	481,(2, 71),44	525,(2, 88),4	529,(2, 100),16	545,(7, 66),28	573,(7, 76),20	593,(7, 100),20	613,(12, 88),12	625,(12, 115),4	673,(12, 14),64	785,(12, 108),12	993,(7, 28),2616	3609,(7, 88),220	3829,(12, 66),64	3893,(12, 97),236	4185,(12, 39),116	4301,(12, 74),1128	5429,(17, 121),16	5445,(26, 121),16	5461,(15, 121),16	5477,(79, 121),16	5837,(2, 45),76	5913,(2, 64),20	5933,(2, 65),48	5981,(7, 46),4	5985,(7, 50),4	5993,(2, 80),24	6017,(2, 107),12	6041,(7, 60),4	6433,(2, 84),44	6601,(7, 27),12	6613,(7, 49),12	6625,(7, 54),52	6677,(7, 63),60	6737,(7, 68),40	6777,(7, 113),28	6805,(7, 116),24	7097,(12, 42),4	7149,(12, 44),12	7161,(12, 48),8	7169,(12, 56),8	7177,(12, 63),4	7181,(12, 75),4	7185,(12, 86),40	7225,(12, 89),8	7233,(12, 98),4	
1,(0, 2),40	41,(0, 3),40	81,(0, 4),40	121,(0, 5),40	161,(0, 7),40	201,(0, 8),40	241,(0, 9),40	281,(0, 10),40	321,(0, 12),40	361,(1, 16),68	429,(1, 17),4	433,(1, 24),24	457,(1, 29),20	477,(1, 43),40	517,(1, 44),4	521,(1, 45),4	525,(1, 57),84	609,(1, 59),80	689,(1, 62),4	693,(1, 76),4	697,(1, 77),36	733,(1, 86),5104	5837,(1, 87),68	5905,(1, 90),4	5909,(1, 102),4	5913,(1, 105),76	5989,(1, 107),4	5993,(1, 109),56	6049,(1, 113),4	6053,(1, 118),4	6057,(6, 23),200	6257,(6, 35),8	6265,(6, 36),4	6269,(6, 50),4	6273,(6, 63),4	6277,(6, 68),92	6369,(6, 69),4	6373,(6, 72),4	6377,(6, 73),4	6381,(6, 89),4	6385,(6, 103),4	6389,(6, 104),36	6425,(6, 111),4	6429,(6, 113),4	6433,(6, 117),528	6961,(6, 119),4	6965,(11, 23),4	6969,(11, 37),4	6973,(11, 47),4	6977,(11, 60),20	6997,(11, 69),24	7021,(11, 72),20	7041,(11, 84),20	7061,(11, 90),4	7065,(11, 91),36	7101,(11, 95),24	7125,(11, 101),4	7129,(11, 104),20	7149,(11, 109),8	7157,(11, 112),80	7237,(11, 116),12	7249,(18, 121),16	7265,(25, 121),16	7281,(13, 121),16	7297,(14, 121),16	7313,(20, 121),16	7329,(74, 121),16	
