264
# CPU
0,0,1	1,1,22	23,3,22	45,27,22	67,36,22	89,16,22	111,33,22	153,28,22	175,37,22	197,31,22	219,11,22	241,7,22	263,41,1	
15,2,22	37,21,22	59,38,22	81,26,22	103,22,22	125,14,22	177,19,22	
47,23,22	69,18,22	
49,30,22	71,17,22	
51,32,22	73,20,22	
54,24,22	83,10,22	110,5,22	
56,40,22	119,9,22	
48,6,22	70,39,22	
46,15,22	68,12,22	90,8,22	
8,4,22	30,35,22	52,29,22	74,34,22	100,13,22	145,25,22	
# Incoming
30,(4, 27),1	37,(2, 27),1	47,(4, 31),4	52,(35, 41),4	59,(21, 41),4	68,(15, 41),4	72,(23, 41),4	76,(6, 41),4	80,(30, 41),4	84,(32, 41),4	88,(29, 41),4	92,(24, 41),4	96,(40, 41),4	100,(38, 41),4	104,(12, 41),4	108,(18, 41),4	112,(39, 41),4	116,(17, 41),4	120,(20, 41),4	124,(34, 41),4	128,(26, 41),4	132,(10, 41),4	136,(8, 41),4	140,(13, 41),4	144,(22, 41),4	148,(5, 41),4	152,(2, 28),1	153,(9, 41),4	157,(14, 41),4	161,(2, 37),4	165,(2, 31),2	167,(25, 41),4	171,(4, 11),13	184,(4, 7),10	194,(2, 7),5	199,(19, 41),4	
8,(0, 2),7	42,(1, 38),1	68,(1, 26),1	69,(4, 22),10	100,(1, 22),1	101,(4, 14),16	119,(1, 14),2	121,(3, 14),3	145,(1, 19),32	
31,(4, 23),4	38,(4, 18),1	46,(3, 23),1	53,(2, 18),4	
27,(1, 30),15	44,(1, 17),1	48,(3, 30),1	56,(4, 17),4	67,(2, 17),1	
43,(2, 32),3	46,(4, 20),1	49,(3, 32),2	56,(3, 20),5	
37,(4, 24),1	51,(3, 24),3	57,(2, 10),1	69,(1, 10),1	70,(3, 10),13	83,(2, 5),6	101,(1, 5),8	
47,(2, 40),5	54,(3, 40),2	67,(4, 9),1	89,(2, 9),10	109,(1, 9),10	
35,(4, 6),2	39,(2, 6),4	43,(4, 39),1	47,(3, 6),1	63,(2, 39),4	
24,(1, 15),3	38,(2, 15),1	39,(4, 12),2	43,(1, 12),1	45,(3, 15),1	52,(2, 12),1	60,(4, 8),7	68,(2, 8),14	83,(1, 8),1	
1,(0, 4),7	23,(1, 35),1	46,(2, 29),1	58,(2, 13),1	61,(1, 34),2	63,(3, 34),5	82,(2, 25),1	84,(3, 13),16	124,(1, 25),5	129,(3, 25),16	
# Outgoing
1,(0, 4),7	8,(0, 2),7	23,(1, 35),1	24,(1, 15),3	27,(1, 30),15	42,(1, 38),1	43,(1, 12),1	44,(1, 17),1	45,(3, 15),1	46,(3, 23),1	47,(3, 6),1	48,(3, 30),1	49,(3, 32),2	51,(3, 24),3	54,(3, 40),2	56,(3, 20),5	61,(1, 34),2	63,(3, 34),5	68,(1, 26),1	69,(1, 10),1	70,(3, 10),13	83,(1, 8),1	84,(3, 13),16	100,(1, 22),1	101,(1, 5),8	109,(1, 9),10	119,(1, 14),2	121,(3, 14),3	124,(1, 25),5	129,(3, 25),16	145,(1, 19),32	
37,(2, 27),1	38,(2, 15),1	39,(2, 6),4	43,(2, 32),3	46,(2, 29),1	47,(2, 40),5	52,(2, 12),1	53,(2, 18),4	57,(2, 10),1	58,(2, 13),1	59,(21, 41),4	63,(2, 39),4	67,(2, 17),1	68,(2, 8),14	82,(2, 25),1	83,(2, 5),6	89,(2, 9),10	100,(38, 41),4	128,(26, 41),4	144,(22, 41),4	152,(2, 28),1	157,(14, 41),4	161,(2, 37),4	165,(2, 31),2	194,(2, 7),5	199,(19, 41),4	
72,(23, 41),4	108,(18, 41),4	
80,(30, 41),4	116,(17, 41),4	
84,(32, 41),4	120,(20, 41),4	
92,(24, 41),4	132,(10, 41),4	148,(5, 41),4	
96,(40, 41),4	153,(9, 41),4	
76,(6, 41),4	112,(39, 41),4	
68,(15, 41),4	104,(12, 41),4	136,(8, 41),4	
30,(4, 27),1	31,(4, 23),4	35,(4, 6),2	37,(4, 24),1	38,(4, 18),1	39,(4, 12),2	43,(4, 39),1	46,(4, 20),1	47,(4, 31),4	52,(35, 41),4	56,(4, 17),4	60,(4, 8),7	67,(4, 9),1	69,(4, 22),10	88,(29, 41),4	101,(4, 14),16	124,(34, 41),4	140,(13, 41),4	167,(25, 41),4	171,(4, 11),13	184,(4, 7),10	
