119
# CPU
0,41,1	1,5,3	4,7,3	7,8,3	10,9,3	13,19,3	16,28,3	19,29,3	22,21,3	25,39,3	28,34,3	31,17,3	34,35,3	37,30,3	40,23,3	43,37,3	46,36,3	49,22,3	52,16,3	55,12,3	58,15,3	61,20,3	64,6,3	67,40,3	70,38,3	73,26,3	76,11,3	79,27,3	82,18,3	85,24,3	88,32,3	91,13,3	94,4,3	97,10,3	100,14,3	103,31,3	106,2,3	109,33,3	112,1,3	115,3,3	118,0,1	


61,25,3	
# Incoming
64,(25, 3),6	


1,(41, 25),60	
# Outgoing
1,(41, 25),60	


64,(25, 3),6	
