59
# CPU
0,21,1	1,4,3	4,18,3	7,7,3	10,9,3	13,12,3	16,14,3	19,5,3	22,20,3	25,16,3	28,10,3	31,17,3	34,6,3	37,13,3	40,11,3	43,3,3	46,8,3	49,15,3	52,2,3	55,1,3	58,0,1	

25,19,3	
# Incoming
28,(19, 1),8	

1,(21, 19),24	
# Outgoing
1,(21, 19),24	

28,(19, 1),8	
