1150
# CPU
38,12,10	107,23,10	119,20,10	129,24,10	176,25,10	212,19,10	222,22,10	242,31,10	252,35,10	530,13,10	614,18,10	986,27,10	1112,39,10	
10,4,10	20,9,10	30,17,10	40,11,10	50,15,10	60,28,10	70,40,10	701,21,10	989,32,10	999,36,10	
7,3,10	47,7,10	104,14,10	119,33,10	239,29,10	293,37,10	608,16,10	983,26,10	
4,2,10	14,34,10	38,6,10	116,30,10	206,10,10	344,38,10	1149,41,1	
0,0,1	1,1,10	11,5,10	515,8,10	
# Incoming
32,(1, 12),6	38,(1, 13),15	53,(1, 23),54	107,(3, 18),6	113,(3, 20),6	119,(3, 24),3	122,(3, 25),54	206,(4, 19),6	212,(4, 22),3	239,(4, 31),3	242,(4, 35),3	515,(2, 13),15	608,(2, 18),6	983,(2, 27),3	992,(2, 39),120	
7,(0, 4),3	17,(3, 11),15	32,(3, 15),3	35,(3, 28),3	38,(3, 40),3	614,(2, 21),87	986,(2, 32),3	989,(2, 36),3	
4,(0, 3),3	11,(1, 7),21	38,(4, 7),9	47,(4, 14),57	116,(1, 33),3	215,(4, 29),24	245,(4, 37),48	530,(2, 16),78	701,(2, 26),282	
1,(0, 2),3	20,(4, 6),18	48,(12, 41),27	75,(7, 41),27	107,(1, 30),9	116,(4, 10),90	206,(5, 41),27	233,(14, 41),27	260,(23, 41),27	293,(4, 38),51	344,(9, 41),27	371,(17, 41),27	398,(11, 41),27	425,(15, 41),27	452,(28, 41),27	479,(40, 41),27	506,(20, 41),27	533,(33, 41),27	560,(24, 41),27	587,(25, 41),27	614,(19, 41),27	641,(22, 41),27	668,(29, 41),27	695,(31, 41),27	722,(35, 41),27	749,(37, 41),27	776,(8, 41),27	803,(13, 41),27	830,(16, 41),27	857,(18, 41),27	884,(21, 41),27	993,(26, 41),27	1020,(27, 41),27	1047,(32, 41),27	1074,(36, 41),27	1122,(39, 41),27	
14,(2, 8),501	
# Outgoing
48,(12, 41),27	260,(23, 41),27	506,(20, 41),27	560,(24, 41),27	587,(25, 41),27	614,(19, 41),27	641,(22, 41),27	695,(31, 41),27	722,(35, 41),27	803,(13, 41),27	857,(18, 41),27	1020,(27, 41),27	1122,(39, 41),27	
20,(4, 6),18	38,(4, 7),9	47,(4, 14),57	116,(4, 10),90	206,(4, 19),6	212,(4, 22),3	215,(4, 29),24	239,(4, 31),3	242,(4, 35),3	245,(4, 37),48	293,(4, 38),51	344,(9, 41),27	371,(17, 41),27	398,(11, 41),27	425,(15, 41),27	452,(28, 41),27	479,(40, 41),27	884,(21, 41),27	1047,(32, 41),27	1074,(36, 41),27	
17,(3, 11),15	32,(3, 15),3	35,(3, 28),3	38,(3, 40),3	75,(7, 41),27	107,(3, 18),6	113,(3, 20),6	119,(3, 24),3	122,(3, 25),54	233,(14, 41),27	533,(33, 41),27	668,(29, 41),27	749,(37, 41),27	830,(16, 41),27	993,(26, 41),27	
14,(2, 8),501	515,(2, 13),15	530,(2, 16),78	608,(2, 18),6	614,(2, 21),87	701,(2, 26),282	983,(2, 27),3	986,(2, 32),3	989,(2, 36),3	992,(2, 39),120	
1,(0, 2),3	4,(0, 3),3	7,(0, 4),3	11,(1, 7),21	32,(1, 12),6	38,(1, 13),15	53,(1, 23),54	107,(1, 30),9	116,(1, 33),3	206,(5, 41),27	776,(8, 41),27	
