6096
# CPU
61,8,12	76,9,12	91,10,12	5247,19,12	5259,25,12	5271,31,12	5291,37,12	5360,43,12	5417,53,12	5429,56,12	5456,65,12	5468,68,12	5627,16,12	5649,17,12	5677,40,12	5708,44,12	5720,45,12	5732,46,12	5773,49,12	5785,52,12	5851,54,12	5867,59,12	5879,62,12	5891,67,12	5903,72,12	5915,76,12	5927,81,12	5939,83,12	5951,84,12	5963,88,12	5975,93,12	5987,95,12	5999,96,12	6011,98,12	6023,107,12	6035,113,12	6047,114,12	6059,116,12	6071,118,12	6083,120,12	6095,121,1	
16,2,12	31,4,12	46,6,12	106,11,12	4387,20,12	4399,21,12	4411,22,12	4423,23,12	4435,26,12	4447,27,12	4459,30,12	4471,32,12	4483,33,12	4495,34,12	4507,35,12	4519,39,12	4531,42,12	4543,50,12	4555,55,12	4567,60,12	4579,61,12	4591,64,12	4603,66,12	4615,69,12	4627,71,12	4639,75,12	4651,77,12	4663,79,12	4675,80,12	4687,86,12	4699,87,12	4711,89,12	4723,90,12	4735,91,12	4747,94,12	4759,99,12	4771,103,12	4783,105,12	4795,115,12	4807,117,12	
0,0,1	1,7,12	13,3,12	25,12,12	37,1,12	49,5,12	1197,13,12	1209,14,12	1221,15,12	1233,18,12	1245,24,12	1271,28,12	1283,29,12	1306,58,12	1318,36,12	1330,41,12	1342,47,12	1354,48,12	1366,51,12	1378,57,12	1390,78,12	1402,63,12	1414,73,12	1426,82,12	1438,85,12	1450,74,12	1502,92,12	1514,97,12	1526,100,12	1538,101,12	1550,102,12	1562,104,12	1611,106,12	1623,108,12	1635,109,12	1647,110,12	1659,111,12	1671,70,12	1718,38,12	1730,112,12	1742,119,12	
# Incoming
46,(0, 8),15	61,(0, 9),15	76,(0, 10),15	91,(2, 16),1	92,(2, 17),5	97,(2, 19),5	102,(2, 40),4	106,(7, 16),1	107,(7, 17),6	113,(7, 19),7	120,(2, 37),5	125,(2, 43),6	131,(2, 44),1	132,(2, 45),3	135,(2, 46),4	168,(2, 52),2	170,(2, 53),1	171,(7, 25),12	183,(2, 49),36	219,(7, 31),1	220,(2, 54),16	236,(2, 56),1	237,(2, 59),10	247,(2, 62),2	249,(2, 65),3	252,(2, 67),7	259,(2, 68),3	262,(2, 76),4	266,(2, 83),6	272,(2, 84),1	280,(2, 88),2	290,(7, 37),2	292,(2, 93),5	297,(2, 95),1	298,(7, 40),1	301,(7, 43),1	302,(7, 44),1	303,(7, 45),2	305,(7, 46),14	319,(7, 49),1	321,(7, 52),2	323,(7, 53),2	325,(7, 54),4	329,(2, 96),3	332,(2, 98),5	337,(7, 56),1	338,(7, 59),8	346,(2, 107),4	350,(2, 113),7	357,(2, 114),3	360,(2, 116),2	362,(4, 16),1	363,(7, 62),14	377,(2, 81),33	428,(7, 65),2	444,(7, 67),3	447,(7, 68),12	467,(2, 118),6	473,(2, 120),3	491,(7, 72),1	516,(4, 17),7	523,(4, 19),8	531,(4, 25),1	536,(7, 76),5	543,(4, 31),1	547,(7, 81),3	550,(7, 83),13	563,(7, 84),4	567,(4, 43),2	569,(7, 88),3	572,(4, 37),12	584,(4, 40),3	587,(4, 52),2	589,(4, 56),1	590,(7, 93),11	601,(4, 65),1	602,(7, 95),7	609,(7, 96),2	611,(7, 98),32	643,(4, 44),8	651,(4, 45),11	662,(4, 76),1	663,(7, 107),5	668,(7, 113),21	689,(7, 114),21	710,(4, 98),1	711,(7, 116),2	713,(4, 114),1	714,(7, 118),28	742,(7, 120),1442	2184,(3, 16),1	2185,(3, 17),21	2206,(3, 19),8	2214,(4, 53),5	2219,(4, 54),3	2222,(4, 118),1	2223,(3, 25),26	2249,(4, 62),3	2252,(3, 31),1	2253,(4, 46),18	2271,(4, 59),10	2281,(4, 81),2	2283,(4, 120),1	2284,(3, 37),2	2286,(6, 37),1	2287,(3, 40),1	2288,(6, 40),1	2289,(3, 43),5	2294,(3, 44),2	2296,(3, 45),16	2312,(3, 46),1	2313,(3, 49),1	2314,(4, 49),15	2329,(4, 95),3	2332,(3, 52),3	2335,(3, 53),234	2569,(3, 54),5	2574,(4, 68),7	2581,(6, 43),1	2582,(6, 59),1	2583,(3, 56),1	2584,(3, 59),3	2587,(4, 72),5	2592,(6, 113),1	2593,(3, 62),233	2826,(4, 116),8	2834,(3, 65),1	2835,(6, 16),3	2838,(6, 116),1	2839,(3, 67),5	2844,(3, 68),1	2845,(4, 67),20	2865,(4, 96),10	2875,(6, 17),3	2878,(3, 72),1	2879,(6, 54),2	2881,(3, 76),1	2882,(6, 19),8	2890,(6, 62),2	2892,(6, 118),1	2893,(3, 81),1	2894,(3, 83),12	2906,(3, 84),1	2907,(4, 83),21	2928,(4, 84),16	2944,(3, 88),3	2947,(6, 45),9	2956,(6, 65),3	2959,(3, 93),18	2977,(6, 49),4	2981,(6, 76),2	2983,(11, 19),2	2985,(3, 95),1	2986,(3, 96),11	2997,(3, 98),1	2998,(4, 93),17	3015,(11, 25),1	3016,(11, 31),1	3017,(3, 107),1	3018,(3, 113),1	3019,(3, 114),12	3031,(11, 53),1	3032,(3, 116),1	3033,(11, 56),1	3034,(3, 118),1	3035,(3, 120),10	3045,(2, 25),79	3124,(2, 31),92	3216,(2, 72),125	3341,(12, 16),1	3342,(12, 17),6	3348,(12, 19),1	3349,(12, 25),5	3354,(12, 31),4	3358,(12, 37),7	3365,(12, 40),1	3366,(12, 43),7	3373,(12, 44),2	3375,(12, 45),1	3376,(12, 46),1	3377,(12, 49),1	3378,(12, 52),6	3384,(12, 53),36	3420,(12, 54),16	3436,(12, 56),6	3442,(12, 59),13	3455,(12, 62),1	3456,(12, 65),2	3458,(12, 67),8	3466,(12, 68),1	3467,(12, 72),1	3468,(12, 76),5	3473,(12, 81),1	3474,(12, 83),4	3478,(12, 84),6	3484,(12, 88),1	3485,(12, 93),129	3614,(12, 95),13	3627,(12, 96),1	3628,(12, 98),11	3639,(12, 107),17	3656,(12, 113),3	3659,(12, 114),1	3660,(12, 116),8	3668,(12, 118),1	3669,(12, 120),13	3682,(4, 88),29	3711,(4, 107),52	3763,(4, 113),16	3779,(1, 16),1	3780,(1, 17),1	3781,(1, 19),4	3785,(1, 25),3	3788,(1, 31),74	3862,(1, 37),1	3863,(1, 40),2	3865,(1, 43),1	3866,(1, 44),1	3867,(1, 45),31	3898,(1, 46),2	3900,(1, 49),47	3947,(1, 52),13	3960,(1, 53),8	3968,(1, 54),17	3985,(1, 56),6	3991,(1, 59),9	4000,(1, 62),26	4026,(1, 65),7	4033,(1, 67),1	4034,(1, 68),1	4035,(1, 72),1	4036,(1, 76),1	4037,(6, 31),23	4060,(6, 46),9	4069,(1, 81),6	4075,(1, 83),29	4104,(1, 84),75	4179,(1, 88),1	4180,(6, 52),8	4188,(6, 53),9	4197,(6, 56),9	4206,(6, 67),7	4213,(6, 68),10	4223,(6, 81),7	4230,(6, 83),4	4234,(11, 37),2	4236,(1, 93),1	4237,(1, 95),1	4238,(1, 96),8	4246,(1, 98),25	4271,(6, 84),12	4283,(6, 88),5	4288,(6, 95),4	4292,(1, 107),3	4295,(1, 113),1	4296,(1, 114),1	4297,(6, 96),3	4300,(6, 120),7	4307,(11, 65),1	4308,(1, 116),70	4378,(11, 43),4	4382,(11, 68),1	4383,(1, 118),1	4384,(1, 120),1	4385,(6, 25),292	4677,(6, 44),58	4735,(6, 72),354	5089,(6, 93),78	5167,(6, 98),11	5178,(6, 107),13	5191,(6, 114),43	5234,(5, 16),9	5243,(5, 17),3	5246,(5, 19),1	5247,(5, 25),2	5249,(5, 31),2	5251,(5, 37),40	5291,(5, 40),40	5331,(5, 43),29	5360,(5, 44),2	5362,(5, 45),1	5363,(5, 46),14	5377,(5, 49),1	5378,(5, 52),7	5385,(5, 53),32	5417,(5, 54),1	5418,(5, 56),2	5420,(5, 59),15	5435,(5, 62),20	5455,(5, 65),1	5456,(5, 67),5	5461,(5, 68),1	5462,(5, 72),12	5474,(5, 76),8	5482,(5, 81),11	5493,(5, 83),3	5496,(5, 84),1	5497,(5, 88),7	5504,(5, 93),1	5505,(5, 95),1	5506,(5, 96),46	5552,(5, 98),1	5553,(5, 107),43	5596,(5, 113),2	5598,(5, 114),2	5600,(5, 116),7	5607,(5, 118),2	5609,(5, 120),8	5617,(11, 16),10	5627,(11, 17),22	5649,(11, 40),28	5677,(11, 44),31	5708,(11, 45),9	5717,(11, 46),15	5732,(11, 49),41	5773,(11, 52),7	5780,(11, 54),71	5851,(11, 59),16	5867,(11, 62),3	5870,(11, 67),8	5878,(11, 72),6	5884,(11, 76),1	5885,(11, 81),5	5890,(11, 83),1	5891,(11, 84),1	5892,(11, 88),1	5893,(11, 93),9	5902,(11, 95),1	5903,(11, 96),1	5904,(11, 98),3	5907,(11, 107),1	5908,(11, 113),5	5913,(11, 114),1	5914,(11, 116),9	5923,(11, 118),12	5935,(11, 120),12	5947,(13, 121),1	5948,(14, 121),1	5949,(15, 121),1	5950,(18, 121),1	5951,(24, 121),1	5952,(28, 121),1	5953,(29, 121),1	5954,(58, 121),1	5955,(36, 121),1	5956,(41, 121),1	5957,(47, 121),1	5958,(48, 121),1	5959,(51, 121),1	5960,(57, 121),1	5961,(78, 121),1	5962,(63, 121),1	5963,(73, 121),1	5964,(82, 121),1	5965,(85, 121),1	5966,(74, 121),1	5967,(92, 121),1	5968,(97, 121),1	5969,(100, 121),1	5970,(101, 121),1	5971,(102, 121),1	5972,(104, 121),1	5973,(106, 121),1	5974,(108, 121),1	5975,(109, 121),1	5976,(110, 121),1	5977,(111, 121),1	5978,(70, 121),1	5979,(38, 121),1	5980,(112, 121),1	5981,(119, 121),1	5982,(20, 121),1	5983,(21, 121),1	5984,(22, 121),1	5985,(23, 121),1	5986,(26, 121),1	5987,(27, 121),1	5988,(30, 121),1	5989,(32, 121),1	5990,(33, 121),1	5991,(34, 121),1	5992,(35, 121),1	5993,(39, 121),1	5994,(42, 121),1	5995,(50, 121),1	5996,(55, 121),1	5997,(60, 121),1	5998,(61, 121),1	5999,(64, 121),1	6000,(66, 121),1	6001,(69, 121),1	6002,(71, 121),1	6003,(75, 121),1	6004,(77, 121),1	6005,(79, 121),1	6006,(80, 121),1	6007,(86, 121),1	6008,(87, 121),1	6009,(89, 121),1	6010,(90, 121),1	6011,(91, 121),1	6012,(94, 121),1	6013,(99, 121),1	6014,(103, 121),1	6015,(105, 121),1	6016,(115, 121),1	6017,(117, 121),1	
1,(0, 2),15	16,(0, 4),15	31,(0, 6),15	91,(0, 11),15	120,(7, 20),18	138,(7, 21),4	142,(7, 22),24	166,(7, 23),5	183,(7, 26),3	186,(7, 27),25	211,(7, 30),8	219,(8, 21),1	220,(7, 32),1	221,(7, 33),29	250,(7, 34),34	284,(7, 35),6	290,(8, 22),2	292,(7, 39),6	298,(8, 26),1	299,(7, 42),2	301,(8, 20),4	305,(8, 23),14	319,(8, 30),1	320,(7, 50),1	321,(8, 32),1	322,(8, 33),1	323,(8, 39),4	327,(8, 50),1	328,(8, 60),1	329,(7, 55),8	337,(8, 35),8	345,(8, 64),1	346,(7, 60),6	352,(7, 61),11	363,(8, 27),14	377,(7, 64),51	428,(8, 66),1	429,(8, 69),1	430,(7, 66),14	444,(8, 34),12	456,(8, 77),1	457,(8, 80),1	458,(8, 87),1	459,(7, 69),1	460,(7, 71),31	491,(8, 89),1	492,(7, 75),44	536,(8, 75),5	541,(7, 77),2	543,(7, 79),1	544,(7, 80),3	547,(8, 61),12	559,(8, 79),4	563,(8, 86),3	566,(8, 103),1	567,(7, 86),1	568,(7, 87),1	569,(8, 91),2	571,(8, 105),1	572,(7, 89),2	574,(7, 90),1	575,(7, 91),15	590,(8, 90),6	596,(8, 94),5	601,(7, 94),1	602,(8, 42),30	632,(8, 99),2	634,(8, 115),4	638,(8, 117),1	639,(9, 20),3	642,(9, 22),1	643,(7, 99),18	661,(7, 103),1	662,(7, 105),1	663,(8, 55),24	687,(8, 71),19	706,(9, 21),4	710,(7, 115),1	711,(9, 26),2	713,(7, 117),1	714,(9, 23),7	721,(9, 27),23	744,(9, 30),10	754,(9, 32),1	755,(9, 33),12	767,(9, 34),1	768,(9, 35),5	773,(9, 39),2	775,(9, 42),1	776,(9, 50),12	788,(9, 55),1	789,(9, 60),1	790,(9, 61),6	796,(9, 64),2	798,(9, 66),1	799,(9, 69),1	800,(9, 71),25	825,(9, 75),3	828,(9, 77),8	836,(9, 79),9	845,(9, 80),1	846,(9, 86),2	848,(9, 87),2	850,(9, 89),1	851,(9, 90),4	855,(9, 91),7	862,(9, 94),1	863,(9, 99),4	867,(9, 103),4	871,(9, 105),1	872,(9, 115),5	877,(9, 117),6	883,(10, 20),4	887,(10, 21),1	888,(10, 22),20	908,(10, 23),3	911,(10, 26),1	912,(10, 27),3	915,(10, 30),3	918,(10, 32),21	939,(10, 33),9	1191,(10, 34),4	1195,(10, 35),19	1231,(10, 39),1	1240,(10, 42),2	1251,(10, 50),21	1274,(10, 55),8	1306,(10, 60),1	1307,(10, 61),2	1310,(10, 64),1	1311,(10, 66),4	1315,(10, 69),2	1319,(10, 71),38	1372,(10, 75),1	1373,(10, 77),1	1388,(10, 79),5	1393,(10, 80),11	1417,(10, 86),6	1423,(10, 87),5	1428,(10, 89),5	1433,(10, 90),4	1437,(10, 91),4	1502,(10, 94),1	1508,(10, 99),1	1521,(10, 103),19	1546,(10, 105),3	1640,(10, 115),1	1641,(10, 117),25	2214,(3, 20),5	2219,(3, 21),2	2221,(3, 22),1	2222,(3, 23),1	2249,(3, 26),1	2250,(3, 27),1	2251,(3, 30),1	2253,(3, 32),22	2275,(3, 33),3	2278,(3, 34),4	2282,(3, 35),2	2286,(3, 39),1	2288,(3, 42),1	2314,(3, 50),18	2574,(3, 55),9	2587,(3, 60),1	2588,(3, 61),5	2826,(3, 64),8	2835,(3, 66),4	2845,(3, 69),13	2858,(3, 71),20	2879,(3, 75),2	2882,(3, 77),2	2884,(3, 79),4	2888,(3, 80),5	2907,(3, 86),3	2910,(3, 87),34	2947,(3, 89),2	2949,(3, 90),3	2952,(3, 91),7	2977,(3, 94),8	2998,(3, 99),1	2999,(3, 103),17	3016,(3, 105),1	3031,(3, 115),1	3033,(3, 117),1	3045,(12, 20),1	3046,(12, 21),1	3047,(12, 22),1	3048,(12, 23),27	3075,(12, 26),1	3076,(12, 27),1	3077,(12, 30),2	3079,(12, 32),2	3081,(12, 33),1	3082,(12, 34),2	3084,(12, 35),12	3096,(12, 39),1	3097,(12, 42),1	3098,(12, 50),6	3104,(12, 55),1	3105,(12, 60),17	3122,(12, 61),8	3130,(12, 64),26	3156,(12, 66),1	3157,(12, 69),7	3164,(12, 71),1	3165,(12, 75),1	3166,(12, 77),1	3167,(12, 79),2	3169,(12, 80),2	3171,(12, 86),1	3172,(12, 87),2	3174,(12, 89),3	3177,(12, 90),9	3186,(12, 91),7	3193,(12, 94),20	3213,(12, 99),2	3215,(12, 103),1	3216,(12, 105),1	3217,(12, 115),1	3218,(12, 117),1	3219,(1, 20),1	3220,(1, 21),21	3241,(1, 22),7	3248,(1, 23),2	3250,(1, 26),28	3278,(1, 27),1	3279,(1, 30),5	3284,(1, 32),2	3286,(1, 33),1	3287,(1, 34),1	3288,(1, 35),27	3315,(1, 39),1	3316,(1, 42),23	3339,(1, 71),1	3340,(1, 75),1	3682,(1, 50),14	3696,(1, 55),6	3702,(1, 60),6	3708,(1, 61),10	3718,(1, 64),28	3746,(1, 66),3	3749,(1, 69),3	3752,(1, 77),7	3759,(1, 80),14	3773,(1, 86),3	3776,(1, 87),1	3777,(1, 89),1	3778,(1, 94),1	4037,(1, 79),32	4180,(1, 90),22	4202,(1, 91),34	4271,(1, 99),7	4278,(1, 103),5	4283,(1, 105),9	4297,(1, 115),11	4378,(1, 117),5	4385,(5, 20),2	4387,(5, 21),4	4391,(5, 22),1	4392,(5, 23),6	4398,(5, 26),1	4399,(5, 27),13	4412,(5, 30),4	4416,(5, 32),1	4417,(5, 33),1	4418,(5, 34),5	4423,(5, 35),1	4424,(5, 39),1	4425,(5, 42),18	4443,(5, 50),1	4444,(5, 55),1	4445,(5, 60),4	4449,(5, 61),3	4452,(5, 64),2	4454,(5, 66),1	4455,(5, 69),1	4456,(5, 71),9	4465,(5, 75),7	4472,(5, 77),4	4476,(5, 79),1	4477,(5, 80),1	4478,(5, 86),17	4495,(5, 87),12	4507,(5, 89),1	4508,(5, 90),1	4509,(5, 91),1	4510,(5, 94),15	4525,(5, 99),1	4526,(5, 103),1	4527,(5, 105),2	4529,(5, 115),11	4540,(5, 117),31	
28,(2, 13),1	29,(2, 14),5	34,(2, 15),1	35,(2, 18),15	50,(2, 24),3	53,(2, 28),2	55,(2, 29),3	58,(2, 36),8	66,(2, 38),2	68,(2, 41),2	70,(2, 47),3	73,(2, 51),4	77,(2, 57),7	84,(2, 58),7	106,(2, 63),1	107,(2, 70),7	114,(2, 73),1	115,(2, 74),2	117,(2, 78),1	118,(2, 97),1	119,(2, 100),1	139,(2, 48),29	171,(2, 82),9	180,(2, 101),2	182,(2, 104),1	183,(8, 13),29	212,(8, 14),1	213,(8, 15),5	218,(8, 24),1	219,(2, 109),1	220,(8, 18),12	232,(8, 28),2	234,(8, 29),7	241,(8, 36),6	247,(8, 38),14	261,(8, 41),3	264,(8, 47),1	265,(8, 57),4	269,(8, 63),1	270,(8, 74),2	272,(8, 78),1	273,(2, 85),7	280,(8, 82),2	282,(2, 92),8	290,(2, 110),2	292,(8, 73),4	296,(8, 101),1	297,(8, 109),1	298,(2, 106),14	312,(2, 108),4	316,(2, 111),3	319,(2, 112),4	323,(2, 119),2	325,(4, 14),1	326,(4, 15),2	328,(4, 38),1	329,(8, 85),6	335,(8, 110),1	336,(8, 111),1	337,(4, 18),7	344,(4, 41),1	345,(4, 48),1	346,(8, 48),10	356,(8, 92),3	359,(8, 112),1	360,(8, 119),1	361,(9, 14),1	362,(9, 18),1	363,(4, 24),6	369,(4, 29),5	374,(4, 51),1	375,(4, 57),1	376,(4, 58),1	377,(8, 51),26	403,(8, 97),6	409,(9, 28),1	410,(2, 102),57	467,(8, 104),9	476,(4, 13),40	516,(8, 58),14	530,(9, 29),1	531,(9, 36),1	532,(4, 28),11	543,(9, 51),1	544,(4, 36),5	549,(4, 47),14	563,(4, 63),1	564,(4, 70),2	566,(4, 73),1	567,(9, 48),2	569,(4, 78),1	570,(4, 82),1	571,(4, 85),1	572,(8, 70),16	588,(9, 57),1	589,(9, 63),1	590,(4, 92),1	591,(4, 97),1	592,(4, 100),1	593,(4, 101),5	598,(4, 104),3	601,(9, 70),1	602,(4, 74),15	617,(4, 102),17	634,(4, 106),1	635,(4, 108),5	640,(4, 112),2	642,(4, 119),1	643,(8, 100),15	658,(9, 15),5	663,(4, 109),10	673,(4, 110),4	677,(4, 111),14	691,(6, 13),2	693,(6, 14),1	694,(6, 15),5	699,(6, 18),3	702,(6, 24),3	705,(6, 28),5	710,(9, 92),1	711,(6, 29),1	712,(6, 41),1	713,(9, 97),1	714,(6, 36),4	718,(6, 38),5	723,(6, 47),17	740,(6, 48),3	743,(6, 51),13	756,(6, 57),2	758,(6, 58),1	759,(6, 63),1	760,(6, 70),70	830,(6, 73),1	831,(6, 74),1	832,(6, 78),1	833,(6, 82),2	835,(6, 85),5	840,(6, 92),21	861,(6, 97),8	869,(6, 100),1	870,(6, 101),1	871,(6, 102),41	912,(6, 104),1	913,(6, 106),7	920,(6, 108),4	924,(6, 109),11	935,(6, 110),2	937,(6, 111),8	945,(6, 112),2	947,(6, 119),1	948,(8, 102),29	977,(8, 106),11	988,(8, 108),14	1002,(9, 13),9	1011,(9, 24),15	1026,(9, 38),3	1029,(9, 41),9	1038,(9, 47),16	1054,(9, 58),2	1056,(9, 73),10	1066,(9, 74),4	1070,(9, 78),4	1074,(9, 82),4	1078,(9, 85),4	1082,(9, 100),14	1096,(9, 101),2	1098,(9, 102),46	1144,(9, 104),1	1145,(9, 106),4	1149,(9, 108),4	1153,(9, 109),1	1154,(9, 110),8	1162,(9, 111),1	1163,(9, 112),18	1181,(9, 119),3	1184,(10, 13),1	1185,(10, 14),1	1186,(10, 15),1	1187,(10, 18),1	1188,(10, 24),1	1189,(10, 28),1	1190,(10, 29),1	1191,(11, 13),6	1197,(11, 14),10	1207,(11, 15),5	1212,(11, 18),1	1213,(11, 24),1	1214,(10, 36),10	1224,(10, 38),7	1231,(11, 58),1	1232,(10, 41),8	1240,(11, 78),1	1241,(11, 100),1	1242,(10, 47),8	1250,(10, 48),1	1251,(11, 28),20	1271,(11, 102),1	1272,(10, 51),2	1274,(11, 29),5	1279,(11, 82),2	1281,(11, 106),1	1282,(10, 57),1	1283,(10, 58),23	1306,(11, 85),3	1309,(10, 63),1	1310,(11, 36),6	1316,(11, 108),1	1317,(10, 70),2	1319,(11, 41),8	1327,(11, 47),6	1333,(11, 48),9	1342,(11, 51),4	1346,(11, 57),7	1353,(11, 92),3	1356,(11, 110),1	1357,(10, 73),5	1362,(10, 74),10	1372,(11, 109),2	1374,(10, 78),14	1388,(11, 63),7	1395,(11, 73),5	1400,(11, 101),3	1403,(11, 111),1	1404,(10, 82),1	1405,(10, 85),12	1417,(11, 74),11	1428,(11, 97),9	1441,(10, 92),61	1503,(10, 97),5	1509,(10, 100),7	1516,(10, 101),1	1517,(10, 102),4	1521,(11, 104),16	1540,(10, 104),6	1549,(10, 106),62	1611,(10, 108),6	1617,(10, 109),2	1619,(10, 110),1	1620,(10, 111),18	1638,(10, 112),2	1640,(11, 70),26	1666,(10, 119),9	1675,(11, 38),43	1718,(11, 112),5	1723,(11, 119),15	
# Outgoing
183,(8, 13),29	212,(8, 14),1	213,(8, 15),5	218,(8, 24),1	219,(8, 21),1	220,(8, 18),12	232,(8, 28),2	234,(8, 29),7	241,(8, 36),6	247,(8, 38),14	261,(8, 41),3	264,(8, 47),1	265,(8, 57),4	269,(8, 63),1	270,(8, 74),2	272,(8, 78),1	280,(8, 82),2	290,(8, 22),2	292,(8, 73),4	296,(8, 101),1	297,(8, 109),1	298,(8, 26),1	301,(8, 20),4	305,(8, 23),14	319,(8, 30),1	321,(8, 32),1	322,(8, 33),1	323,(8, 39),4	327,(8, 50),1	328,(8, 60),1	329,(8, 85),6	335,(8, 110),1	336,(8, 111),1	337,(8, 35),8	345,(8, 64),1	346,(8, 48),10	356,(8, 92),3	359,(8, 112),1	360,(8, 119),1	361,(9, 14),1	362,(9, 18),1	363,(8, 27),14	377,(8, 51),26	403,(8, 97),6	409,(9, 28),1	428,(8, 66),1	429,(8, 69),1	444,(8, 34),12	456,(8, 77),1	457,(8, 80),1	458,(8, 87),1	467,(8, 104),9	491,(8, 89),1	516,(8, 58),14	530,(9, 29),1	531,(9, 36),1	536,(8, 75),5	543,(9, 51),1	547,(8, 61),12	559,(8, 79),4	563,(8, 86),3	566,(8, 103),1	567,(9, 48),2	569,(8, 91),2	571,(8, 105),1	572,(8, 70),16	588,(9, 57),1	589,(9, 63),1	590,(8, 90),6	596,(8, 94),5	601,(9, 70),1	602,(8, 42),30	632,(8, 99),2	634,(8, 115),4	638,(8, 117),1	639,(9, 20),3	642,(9, 22),1	643,(8, 100),15	658,(9, 15),5	663,(8, 55),24	687,(8, 71),19	706,(9, 21),4	710,(9, 92),1	711,(9, 26),2	713,(9, 97),1	714,(9, 23),7	721,(9, 27),23	744,(9, 30),10	754,(9, 32),1	755,(9, 33),12	767,(9, 34),1	768,(9, 35),5	773,(9, 39),2	775,(9, 42),1	776,(9, 50),12	788,(9, 55),1	789,(9, 60),1	790,(9, 61),6	796,(9, 64),2	798,(9, 66),1	799,(9, 69),1	800,(9, 71),25	825,(9, 75),3	828,(9, 77),8	836,(9, 79),9	845,(9, 80),1	846,(9, 86),2	848,(9, 87),2	850,(9, 89),1	851,(9, 90),4	855,(9, 91),7	862,(9, 94),1	863,(9, 99),4	867,(9, 103),4	871,(9, 105),1	872,(9, 115),5	877,(9, 117),6	883,(10, 20),4	887,(10, 21),1	888,(10, 22),20	908,(10, 23),3	911,(10, 26),1	912,(10, 27),3	915,(10, 30),3	918,(10, 32),21	939,(10, 33),9	948,(8, 102),29	977,(8, 106),11	988,(8, 108),14	1002,(9, 13),9	1011,(9, 24),15	1026,(9, 38),3	1029,(9, 41),9	1038,(9, 47),16	1054,(9, 58),2	1056,(9, 73),10	1066,(9, 74),4	1070,(9, 78),4	1074,(9, 82),4	1078,(9, 85),4	1082,(9, 100),14	1096,(9, 101),2	1098,(9, 102),46	1144,(9, 104),1	1145,(9, 106),4	1149,(9, 108),4	1153,(9, 109),1	1154,(9, 110),8	1162,(9, 111),1	1163,(9, 112),18	1181,(9, 119),3	1184,(10, 13),1	1185,(10, 14),1	1186,(10, 15),1	1187,(10, 18),1	1188,(10, 24),1	1189,(10, 28),1	1190,(10, 29),1	1191,(10, 34),4	1195,(10, 35),19	1214,(10, 36),10	1224,(10, 38),7	1231,(10, 39),1	1232,(10, 41),8	1240,(10, 42),2	1242,(10, 47),8	1250,(10, 48),1	1251,(10, 50),21	1272,(10, 51),2	1274,(10, 55),8	1282,(10, 57),1	1283,(10, 58),23	1306,(10, 60),1	1307,(10, 61),2	1309,(10, 63),1	1310,(10, 64),1	1311,(10, 66),4	1315,(10, 69),2	1317,(10, 70),2	1319,(10, 71),38	1357,(10, 73),5	1362,(10, 74),10	1372,(10, 75),1	1373,(10, 77),1	1374,(10, 78),14	1388,(10, 79),5	1393,(10, 80),11	1404,(10, 82),1	1405,(10, 85),12	1417,(10, 86),6	1423,(10, 87),5	1428,(10, 89),5	1433,(10, 90),4	1437,(10, 91),4	1441,(10, 92),61	1502,(10, 94),1	1503,(10, 97),5	1508,(10, 99),1	1509,(10, 100),7	1516,(10, 101),1	1517,(10, 102),4	1521,(10, 103),19	1540,(10, 104),6	1546,(10, 105),3	1549,(10, 106),62	1611,(10, 108),6	1617,(10, 109),2	1619,(10, 110),1	1620,(10, 111),18	1638,(10, 112),2	1640,(10, 115),1	1641,(10, 117),25	1666,(10, 119),9	
28,(2, 13),1	29,(2, 14),5	34,(2, 15),1	35,(2, 18),15	50,(2, 24),3	53,(2, 28),2	55,(2, 29),3	58,(2, 36),8	66,(2, 38),2	68,(2, 41),2	70,(2, 47),3	73,(2, 51),4	77,(2, 57),7	84,(2, 58),7	91,(2, 16),1	92,(2, 17),5	97,(2, 19),5	102,(2, 40),4	106,(2, 63),1	107,(2, 70),7	114,(2, 73),1	115,(2, 74),2	117,(2, 78),1	118,(2, 97),1	119,(2, 100),1	120,(2, 37),5	125,(2, 43),6	131,(2, 44),1	132,(2, 45),3	135,(2, 46),4	139,(2, 48),29	168,(2, 52),2	170,(2, 53),1	171,(2, 82),9	180,(2, 101),2	182,(2, 104),1	183,(2, 49),36	219,(2, 109),1	220,(2, 54),16	236,(2, 56),1	237,(2, 59),10	247,(2, 62),2	249,(2, 65),3	252,(2, 67),7	259,(2, 68),3	262,(2, 76),4	266,(2, 83),6	272,(2, 84),1	273,(2, 85),7	280,(2, 88),2	282,(2, 92),8	290,(2, 110),2	292,(2, 93),5	297,(2, 95),1	298,(2, 106),14	312,(2, 108),4	316,(2, 111),3	319,(2, 112),4	323,(2, 119),2	325,(4, 14),1	326,(4, 15),2	328,(4, 38),1	329,(2, 96),3	332,(2, 98),5	337,(4, 18),7	344,(4, 41),1	345,(4, 48),1	346,(2, 107),4	350,(2, 113),7	357,(2, 114),3	360,(2, 116),2	362,(4, 16),1	363,(4, 24),6	369,(4, 29),5	374,(4, 51),1	375,(4, 57),1	376,(4, 58),1	377,(2, 81),33	410,(2, 102),57	467,(2, 118),6	473,(2, 120),3	476,(4, 13),40	516,(4, 17),7	523,(4, 19),8	531,(4, 25),1	532,(4, 28),11	543,(4, 31),1	544,(4, 36),5	549,(4, 47),14	563,(4, 63),1	564,(4, 70),2	566,(4, 73),1	567,(4, 43),2	569,(4, 78),1	570,(4, 82),1	571,(4, 85),1	572,(4, 37),12	584,(4, 40),3	587,(4, 52),2	589,(4, 56),1	590,(4, 92),1	591,(4, 97),1	592,(4, 100),1	593,(4, 101),5	598,(4, 104),3	601,(4, 65),1	602,(4, 74),15	617,(4, 102),17	634,(4, 106),1	635,(4, 108),5	640,(4, 112),2	642,(4, 119),1	643,(4, 44),8	651,(4, 45),11	662,(4, 76),1	663,(4, 109),10	673,(4, 110),4	677,(4, 111),14	691,(6, 13),2	693,(6, 14),1	694,(6, 15),5	699,(6, 18),3	702,(6, 24),3	705,(6, 28),5	710,(4, 98),1	711,(6, 29),1	712,(6, 41),1	713,(4, 114),1	714,(6, 36),4	718,(6, 38),5	723,(6, 47),17	740,(6, 48),3	743,(6, 51),13	756,(6, 57),2	758,(6, 58),1	759,(6, 63),1	760,(6, 70),70	830,(6, 73),1	831,(6, 74),1	832,(6, 78),1	833,(6, 82),2	835,(6, 85),5	840,(6, 92),21	861,(6, 97),8	869,(6, 100),1	870,(6, 101),1	871,(6, 102),41	912,(6, 104),1	913,(6, 106),7	920,(6, 108),4	924,(6, 109),11	935,(6, 110),2	937,(6, 111),8	945,(6, 112),2	947,(6, 119),1	1191,(11, 13),6	1197,(11, 14),10	1207,(11, 15),5	1212,(11, 18),1	1213,(11, 24),1	1231,(11, 58),1	1240,(11, 78),1	1241,(11, 100),1	1251,(11, 28),20	1271,(11, 102),1	1274,(11, 29),5	1279,(11, 82),2	1281,(11, 106),1	1306,(11, 85),3	1310,(11, 36),6	1316,(11, 108),1	1319,(11, 41),8	1327,(11, 47),6	1333,(11, 48),9	1342,(11, 51),4	1346,(11, 57),7	1353,(11, 92),3	1356,(11, 110),1	1372,(11, 109),2	1388,(11, 63),7	1395,(11, 73),5	1400,(11, 101),3	1403,(11, 111),1	1417,(11, 74),11	1428,(11, 97),9	1521,(11, 104),16	1640,(11, 70),26	1675,(11, 38),43	1718,(11, 112),5	1723,(11, 119),15	2214,(4, 53),5	2219,(4, 54),3	2222,(4, 118),1	2249,(4, 62),3	2253,(4, 46),18	2271,(4, 59),10	2281,(4, 81),2	2283,(4, 120),1	2286,(6, 37),1	2288,(6, 40),1	2314,(4, 49),15	2329,(4, 95),3	2574,(4, 68),7	2581,(6, 43),1	2582,(6, 59),1	2587,(4, 72),5	2592,(6, 113),1	2826,(4, 116),8	2835,(6, 16),3	2838,(6, 116),1	2845,(4, 67),20	2865,(4, 96),10	2875,(6, 17),3	2879,(6, 54),2	2882,(6, 19),8	2890,(6, 62),2	2892,(6, 118),1	2907,(4, 83),21	2928,(4, 84),16	2947,(6, 45),9	2956,(6, 65),3	2977,(6, 49),4	2981,(6, 76),2	2983,(11, 19),2	2998,(4, 93),17	3015,(11, 25),1	3016,(11, 31),1	3031,(11, 53),1	3033,(11, 56),1	3045,(2, 25),79	3124,(2, 31),92	3216,(2, 72),125	3682,(4, 88),29	3711,(4, 107),52	3763,(4, 113),16	4037,(6, 31),23	4060,(6, 46),9	4180,(6, 52),8	4188,(6, 53),9	4197,(6, 56),9	4206,(6, 67),7	4213,(6, 68),10	4223,(6, 81),7	4230,(6, 83),4	4234,(11, 37),2	4271,(6, 84),12	4283,(6, 88),5	4288,(6, 95),4	4297,(6, 96),3	4300,(6, 120),7	4307,(11, 65),1	4378,(11, 43),4	4382,(11, 68),1	4385,(6, 25),292	4677,(6, 44),58	4735,(6, 72),354	5089,(6, 93),78	5167,(6, 98),11	5178,(6, 107),13	5191,(6, 114),43	5617,(11, 16),10	5627,(11, 17),22	5649,(11, 40),28	5677,(11, 44),31	5708,(11, 45),9	5717,(11, 46),15	5732,(11, 49),41	5773,(11, 52),7	5780,(11, 54),71	5851,(11, 59),16	5867,(11, 62),3	5870,(11, 67),8	5878,(11, 72),6	5884,(11, 76),1	5885,(11, 81),5	5890,(11, 83),1	5891,(11, 84),1	5892,(11, 88),1	5893,(11, 93),9	5902,(11, 95),1	5903,(11, 96),1	5904,(11, 98),3	5907,(11, 107),1	5908,(11, 113),5	5913,(11, 114),1	5914,(11, 116),9	5923,(11, 118),12	5935,(11, 120),12	5982,(20, 121),1	5983,(21, 121),1	5984,(22, 121),1	5985,(23, 121),1	5986,(26, 121),1	5987,(27, 121),1	5988,(30, 121),1	5989,(32, 121),1	5990,(33, 121),1	5991,(34, 121),1	5992,(35, 121),1	5993,(39, 121),1	5994,(42, 121),1	5995,(50, 121),1	5996,(55, 121),1	5997,(60, 121),1	5998,(61, 121),1	5999,(64, 121),1	6000,(66, 121),1	6001,(69, 121),1	6002,(71, 121),1	6003,(75, 121),1	6004,(77, 121),1	6005,(79, 121),1	6006,(80, 121),1	6007,(86, 121),1	6008,(87, 121),1	6009,(89, 121),1	6010,(90, 121),1	6011,(91, 121),1	6012,(94, 121),1	6013,(99, 121),1	6014,(103, 121),1	6015,(105, 121),1	6016,(115, 121),1	6017,(117, 121),1	
1,(0, 2),15	16,(0, 4),15	31,(0, 6),15	46,(0, 8),15	61,(0, 9),15	76,(0, 10),15	91,(0, 11),15	106,(7, 16),1	107,(7, 17),6	113,(7, 19),7	120,(7, 20),18	138,(7, 21),4	142,(7, 22),24	166,(7, 23),5	171,(7, 25),12	183,(7, 26),3	186,(7, 27),25	211,(7, 30),8	219,(7, 31),1	220,(7, 32),1	221,(7, 33),29	250,(7, 34),34	284,(7, 35),6	290,(7, 37),2	292,(7, 39),6	298,(7, 40),1	299,(7, 42),2	301,(7, 43),1	302,(7, 44),1	303,(7, 45),2	305,(7, 46),14	319,(7, 49),1	320,(7, 50),1	321,(7, 52),2	323,(7, 53),2	325,(7, 54),4	329,(7, 55),8	337,(7, 56),1	338,(7, 59),8	346,(7, 60),6	352,(7, 61),11	363,(7, 62),14	377,(7, 64),51	428,(7, 65),2	430,(7, 66),14	444,(7, 67),3	447,(7, 68),12	459,(7, 69),1	460,(7, 71),31	491,(7, 72),1	492,(7, 75),44	536,(7, 76),5	541,(7, 77),2	543,(7, 79),1	544,(7, 80),3	547,(7, 81),3	550,(7, 83),13	563,(7, 84),4	567,(7, 86),1	568,(7, 87),1	569,(7, 88),3	572,(7, 89),2	574,(7, 90),1	575,(7, 91),15	590,(7, 93),11	601,(7, 94),1	602,(7, 95),7	609,(7, 96),2	611,(7, 98),32	643,(7, 99),18	661,(7, 103),1	662,(7, 105),1	663,(7, 107),5	668,(7, 113),21	689,(7, 114),21	710,(7, 115),1	711,(7, 116),2	713,(7, 117),1	714,(7, 118),28	742,(7, 120),1442	2184,(3, 16),1	2185,(3, 17),21	2206,(3, 19),8	2214,(3, 20),5	2219,(3, 21),2	2221,(3, 22),1	2222,(3, 23),1	2223,(3, 25),26	2249,(3, 26),1	2250,(3, 27),1	2251,(3, 30),1	2252,(3, 31),1	2253,(3, 32),22	2275,(3, 33),3	2278,(3, 34),4	2282,(3, 35),2	2284,(3, 37),2	2286,(3, 39),1	2287,(3, 40),1	2288,(3, 42),1	2289,(3, 43),5	2294,(3, 44),2	2296,(3, 45),16	2312,(3, 46),1	2313,(3, 49),1	2314,(3, 50),18	2332,(3, 52),3	2335,(3, 53),234	2569,(3, 54),5	2574,(3, 55),9	2583,(3, 56),1	2584,(3, 59),3	2587,(3, 60),1	2588,(3, 61),5	2593,(3, 62),233	2826,(3, 64),8	2834,(3, 65),1	2835,(3, 66),4	2839,(3, 67),5	2844,(3, 68),1	2845,(3, 69),13	2858,(3, 71),20	2878,(3, 72),1	2879,(3, 75),2	2881,(3, 76),1	2882,(3, 77),2	2884,(3, 79),4	2888,(3, 80),5	2893,(3, 81),1	2894,(3, 83),12	2906,(3, 84),1	2907,(3, 86),3	2910,(3, 87),34	2944,(3, 88),3	2947,(3, 89),2	2949,(3, 90),3	2952,(3, 91),7	2959,(3, 93),18	2977,(3, 94),8	2985,(3, 95),1	2986,(3, 96),11	2997,(3, 98),1	2998,(3, 99),1	2999,(3, 103),17	3016,(3, 105),1	3017,(3, 107),1	3018,(3, 113),1	3019,(3, 114),12	3031,(3, 115),1	3032,(3, 116),1	3033,(3, 117),1	3034,(3, 118),1	3035,(3, 120),10	3045,(12, 20),1	3046,(12, 21),1	3047,(12, 22),1	3048,(12, 23),27	3075,(12, 26),1	3076,(12, 27),1	3077,(12, 30),2	3079,(12, 32),2	3081,(12, 33),1	3082,(12, 34),2	3084,(12, 35),12	3096,(12, 39),1	3097,(12, 42),1	3098,(12, 50),6	3104,(12, 55),1	3105,(12, 60),17	3122,(12, 61),8	3130,(12, 64),26	3156,(12, 66),1	3157,(12, 69),7	3164,(12, 71),1	3165,(12, 75),1	3166,(12, 77),1	3167,(12, 79),2	3169,(12, 80),2	3171,(12, 86),1	3172,(12, 87),2	3174,(12, 89),3	3177,(12, 90),9	3186,(12, 91),7	3193,(12, 94),20	3213,(12, 99),2	3215,(12, 103),1	3216,(12, 105),1	3217,(12, 115),1	3218,(12, 117),1	3219,(1, 20),1	3220,(1, 21),21	3241,(1, 22),7	3248,(1, 23),2	3250,(1, 26),28	3278,(1, 27),1	3279,(1, 30),5	3284,(1, 32),2	3286,(1, 33),1	3287,(1, 34),1	3288,(1, 35),27	3315,(1, 39),1	3316,(1, 42),23	3339,(1, 71),1	3340,(1, 75),1	3341,(12, 16),1	3342,(12, 17),6	3348,(12, 19),1	3349,(12, 25),5	3354,(12, 31),4	3358,(12, 37),7	3365,(12, 40),1	3366,(12, 43),7	3373,(12, 44),2	3375,(12, 45),1	3376,(12, 46),1	3377,(12, 49),1	3378,(12, 52),6	3384,(12, 53),36	3420,(12, 54),16	3436,(12, 56),6	3442,(12, 59),13	3455,(12, 62),1	3456,(12, 65),2	3458,(12, 67),8	3466,(12, 68),1	3467,(12, 72),1	3468,(12, 76),5	3473,(12, 81),1	3474,(12, 83),4	3478,(12, 84),6	3484,(12, 88),1	3485,(12, 93),129	3614,(12, 95),13	3627,(12, 96),1	3628,(12, 98),11	3639,(12, 107),17	3656,(12, 113),3	3659,(12, 114),1	3660,(12, 116),8	3668,(12, 118),1	3669,(12, 120),13	3682,(1, 50),14	3696,(1, 55),6	3702,(1, 60),6	3708,(1, 61),10	3718,(1, 64),28	3746,(1, 66),3	3749,(1, 69),3	3752,(1, 77),7	3759,(1, 80),14	3773,(1, 86),3	3776,(1, 87),1	3777,(1, 89),1	3778,(1, 94),1	3779,(1, 16),1	3780,(1, 17),1	3781,(1, 19),4	3785,(1, 25),3	3788,(1, 31),74	3862,(1, 37),1	3863,(1, 40),2	3865,(1, 43),1	3866,(1, 44),1	3867,(1, 45),31	3898,(1, 46),2	3900,(1, 49),47	3947,(1, 52),13	3960,(1, 53),8	3968,(1, 54),17	3985,(1, 56),6	3991,(1, 59),9	4000,(1, 62),26	4026,(1, 65),7	4033,(1, 67),1	4034,(1, 68),1	4035,(1, 72),1	4036,(1, 76),1	4037,(1, 79),32	4069,(1, 81),6	4075,(1, 83),29	4104,(1, 84),75	4179,(1, 88),1	4180,(1, 90),22	4202,(1, 91),34	4236,(1, 93),1	4237,(1, 95),1	4238,(1, 96),8	4246,(1, 98),25	4271,(1, 99),7	4278,(1, 103),5	4283,(1, 105),9	4292,(1, 107),3	4295,(1, 113),1	4296,(1, 114),1	4297,(1, 115),11	4308,(1, 116),70	4378,(1, 117),5	4383,(1, 118),1	4384,(1, 120),1	4385,(5, 20),2	4387,(5, 21),4	4391,(5, 22),1	4392,(5, 23),6	4398,(5, 26),1	4399,(5, 27),13	4412,(5, 30),4	4416,(5, 32),1	4417,(5, 33),1	4418,(5, 34),5	4423,(5, 35),1	4424,(5, 39),1	4425,(5, 42),18	4443,(5, 50),1	4444,(5, 55),1	4445,(5, 60),4	4449,(5, 61),3	4452,(5, 64),2	4454,(5, 66),1	4455,(5, 69),1	4456,(5, 71),9	4465,(5, 75),7	4472,(5, 77),4	4476,(5, 79),1	4477,(5, 80),1	4478,(5, 86),17	4495,(5, 87),12	4507,(5, 89),1	4508,(5, 90),1	4509,(5, 91),1	4510,(5, 94),15	4525,(5, 99),1	4526,(5, 103),1	4527,(5, 105),2	4529,(5, 115),11	4540,(5, 117),31	5234,(5, 16),9	5243,(5, 17),3	5246,(5, 19),1	5247,(5, 25),2	5249,(5, 31),2	5251,(5, 37),40	5291,(5, 40),40	5331,(5, 43),29	5360,(5, 44),2	5362,(5, 45),1	5363,(5, 46),14	5377,(5, 49),1	5378,(5, 52),7	5385,(5, 53),32	5417,(5, 54),1	5418,(5, 56),2	5420,(5, 59),15	5435,(5, 62),20	5455,(5, 65),1	5456,(5, 67),5	5461,(5, 68),1	5462,(5, 72),12	5474,(5, 76),8	5482,(5, 81),11	5493,(5, 83),3	5496,(5, 84),1	5497,(5, 88),7	5504,(5, 93),1	5505,(5, 95),1	5506,(5, 96),46	5552,(5, 98),1	5553,(5, 107),43	5596,(5, 113),2	5598,(5, 114),2	5600,(5, 116),7	5607,(5, 118),2	5609,(5, 120),8	5947,(13, 121),1	5948,(14, 121),1	5949,(15, 121),1	5950,(18, 121),1	5951,(24, 121),1	5952,(28, 121),1	5953,(29, 121),1	5954,(58, 121),1	5955,(36, 121),1	5956,(41, 121),1	5957,(47, 121),1	5958,(48, 121),1	5959,(51, 121),1	5960,(57, 121),1	5961,(78, 121),1	5962,(63, 121),1	5963,(73, 121),1	5964,(82, 121),1	5965,(85, 121),1	5966,(74, 121),1	5967,(92, 121),1	5968,(97, 121),1	5969,(100, 121),1	5970,(101, 121),1	5971,(102, 121),1	5972,(104, 121),1	5973,(106, 121),1	5974,(108, 121),1	5975,(109, 121),1	5976,(110, 121),1	5977,(111, 121),1	5978,(70, 121),1	5979,(38, 121),1	5980,(112, 121),1	5981,(119, 121),1	
