5625
# CPU
7,3,4	11,22,4	15,144,4	19,6,4	23,9,4	27,39,4	31,75,4	35,135,4	39,12,4	43,90,4	47,165,4	51,114,4	55,138,4	59,15,4	63,150,4	67,18,4	71,87,4	75,117,4	79,156,4	83,120,4	87,177,4	232,63,4	274,132,4	286,96,4	487,147,4	511,162,4	556,168,4	586,192,4	643,54,4	649,180,4	655,189,4	691,111,4	730,129,4	734,159,4	1066,81,4	1123,123,4	1132,24,4	1136,141,4	1150,27,4	1183,36,4	1279,153,4	1283,78,4	1294,45,4	1357,48,4	1361,84,4	1375,198,4	1459,195,4	1471,42,4	1477,51,4	1504,60,4	1546,66,4	1606,99,4	1610,183,4	1744,105,4	1753,108,4	1813,126,4	1864,171,4	1873,30,4	1963,186,4	1969,33,4	1990,72,4	1996,57,4	2000,69,4	2005,93,4	2009,174,4	2080,102,4	
4,2,4	8,194,4	12,5,4	16,8,4	20,119,4	24,149,4	28,155,4	32,11,4	36,14,4	40,17,4	44,77,4	48,182,4	52,131,4	56,20,4	60,38,4	64,74,4	68,146,4	72,161,4	76,197,4	80,71,4	115,47,4	226,125,4	244,65,4	685,53,4	689,59,4	694,68,4	1048,80,4	1129,86,4	1133,101,4	1137,122,4	1252,143,4	1375,107,4	1381,23,4	1471,32,4	1552,110,4	1753,26,4	1762,191,4	1807,137,4	1811,152,4	1815,92,4	1840,128,4	1870,62,4	1874,134,4	1882,83,4	1886,116,4	1939,176,4	1951,35,4	1966,200,4	2170,113,4	2176,56,4	2180,95,4	2184,164,4	2188,170,4	2260,158,4	2287,167,4	2302,50,4	2431,98,4	2791,140,4	2851,185,4	2899,44,4	4537,89,4	4567,104,4	5200,29,4	5227,41,4	5290,173,4	5608,179,4	5617,188,4	
0,0,1	1,1,4	5,19,4	9,7,4	13,10,4	17,16,4	21,13,4	25,4,4	29,52,4	33,112,4	37,76,4	41,187,4	45,49,4	49,64,4	53,163,4	57,157,4	61,97,4	65,124,4	69,70,4	73,58,4	77,127,4	81,151,4	85,190,4	89,40,4	93,61,4	97,196,4	101,136,4	105,139,4	109,73,4	113,85,4	117,103,4	121,133,4	145,178,4	175,88,4	202,106,4	211,148,4	223,172,4	227,181,4	231,142,4	268,160,4	316,184,4	361,169,4	484,91,4	568,100,4	586,34,4	622,199,4	700,109,4	712,166,4	718,37,4	727,82,4	751,43,4	925,118,4	985,67,4	997,79,4	1003,25,4	1063,130,4	1067,193,4	1135,145,4	1219,115,4	1324,121,4	1342,31,4	1348,94,4	1369,21,4	1373,175,4	1621,46,4	1714,55,4	1864,154,4	5197,28,4	5624,201,1	
# Incoming
4,(0, 3),3	10,(0, 6),3	13,(2, 36),3	16,(0, 9),3	19,(5, 78),3	22,(0, 12),3	25,(5, 138),3	28,(0, 15),3	31,(5, 150),3	34,(0, 18),3	37,(2, 72),6	46,(1, 33),12	58,(1, 42),51	115,(1, 63),117	232,(2, 132),42	274,(5, 96),12	286,(5, 153),18	304,(5, 162),18	361,(5, 189),15	484,(8, 147),3	487,(8, 159),3	490,(8, 162),21	511,(8, 168),45	556,(8, 192),30	622,(11, 54),21	643,(11, 84),3	646,(11, 180),3	649,(11, 189),6	655,(14, 141),3	673,(1, 111),18	691,(1, 129),39	730,(1, 159),3	733,(11, 57),198	931,(11, 81),135	1066,(11, 123),57	1123,(14, 174),3	1126,(17, 24),6	1132,(19, 141),3	1135,(14, 27),15	1150,(14, 36),33	1252,(19, 153),27	1279,(7, 78),3	1282,(7, 108),3	1285,(7, 183),6	1291,(10, 45),3	1294,(10, 48),63	1357,(10, 84),3	1360,(10, 198),15	1375,(14, 186),21	1396,(14, 195),63	1459,(17, 42),12	1471,(17, 51),6	1477,(17, 60),27	1504,(17, 66),42	1546,(17, 69),18	1564,(17, 99),42	1606,(17, 183),3	1609,(20, 33),3	1714,(20, 105),30	1744,(20, 108),9	1753,(10, 126),60	1840,(10, 171),24	1864,(16, 30),9	1873,(20, 174),15	1939,(16, 186),24	1966,(13, 33),3	1969,(13, 72),21	1990,(4, 57),6	1996,(4, 69),3	1999,(4, 93),6	2005,(4, 174),3	2008,(20, 102),72	
1,(0, 2),3	7,(0, 5),3	13,(0, 8),3	19,(0, 11),3	25,(0, 14),3	31,(0, 17),3	37,(0, 20),3	40,(1, 23),6	109,(1, 47),6	205,(3, 122),12	217,(3, 125),9	232,(1, 65),12	244,(1, 80),417	661,(1, 83),12	673,(3, 134),9	682,(6, 53),3	685,(6, 59),3	688,(6, 68),6	694,(6, 176),33	733,(19, 35),21	754,(19, 41),12	766,(19, 56),144	910,(19, 80),138	1048,(19, 86),81	1129,(19, 101),3	1132,(12, 122),3	1135,(19, 143),117	1252,(3, 107),123	1375,(7, 23),6	1381,(7, 26),24	1405,(7, 32),66	1471,(7, 110),81	1552,(7, 137),6	1558,(7, 158),117	1675,(7, 173),12	1687,(7, 191),54	1741,(10, 26),12	1753,(6, 191),9	1762,(9, 44),27	1789,(9, 128),6	1795,(9, 137),12	1807,(12, 152),3	1810,(15, 92),3	1813,(10, 128),27	1840,(9, 62),30	1870,(15, 134),3	1873,(16, 41),3	1876,(16, 50),3	1879,(16, 83),3	1882,(16, 116),3	1885,(16, 176),54	1939,(12, 35),12	1951,(15, 167),12	1963,(16, 200),3	1966,(6, 113),204	2170,(13, 56),6	2176,(13, 95),3	2179,(13, 164),3	2182,(13, 170),6	2188,(9, 158),72	2260,(9, 167),27	2287,(4, 50),15	2302,(4, 89),9	2311,(12, 44),21	2332,(12, 98),99	2431,(12, 104),327	2758,(12, 140),33	2791,(12, 185),60	2851,(15, 44),48	2899,(15, 89),1638	4537,(15, 104),30	5197,(18, 29),3	5200,(18, 41),27	5227,(18, 173),63	5290,(18, 179),318	5608,(18, 188),9	
43,(2, 103),63	106,(2, 133),9	115,(2, 160),21	136,(2, 178),9	145,(3, 25),3	148,(3, 67),24	172,(3, 88),3	175,(3, 106),27	202,(3, 121),3	205,(194, 201),3	208,(5, 148),3	211,(119, 201),3	214,(149, 201),3	217,(155, 201),3	220,(14, 172),3	223,(14, 181),3	226,(3, 142),3	229,(3, 160),39	268,(22, 201),3	271,(144, 201),3	274,(6, 34),21	295,(6, 193),9	304,(9, 21),3	307,(9, 166),3	310,(9, 175),3	313,(9, 184),3	316,(39, 201),3	319,(75, 201),3	322,(5, 169),39	361,(135, 201),3	364,(90, 201),3	367,(165, 201),3	370,(114, 201),3	373,(138, 201),3	376,(8, 43),90	466,(8, 91),18	484,(6, 100),84	568,(9, 34),18	586,(8, 199),36	622,(6, 115),36	658,(11, 109),42	700,(14, 166),12	712,(17, 37),6	718,(17, 46),3	721,(17, 82),6	727,(9, 43),24	751,(9, 79),156	907,(9, 118),18	925,(12, 67),15	940,(15, 67),45	985,(15, 79),12	997,(150, 201),3	1000,(18, 25),3	1003,(18, 130),60	1063,(18, 193),3	1066,(87, 201),3	1069,(117, 201),3	1072,(156, 201),3	1075,(120, 201),3	1078,(177, 201),3	1081,(63, 201),3	1084,(132, 201),3	1087,(96, 201),3	1090,(147, 201),3	1093,(162, 201),3	1096,(168, 201),3	1099,(192, 201),3	1102,(54, 201),3	1105,(180, 201),3	1108,(189, 201),3	1111,(111, 201),3	1114,(129, 201),3	1117,(159, 201),3	1120,(81, 201),3	1127,(123, 201),3	1132,(17, 145),3	1136,(24, 201),3	1140,(141, 201),3	1154,(27, 201),3	1183,(14, 115),36	1219,(14, 121),105	1324,(17, 31),18	1342,(17, 94),6	1348,(77, 201),3	1351,(182, 201),3	1354,(131, 201),3	1357,(20, 21),12	1369,(20, 175),3	1372,(38, 201),3	1375,(36, 201),3	1378,(153, 201),3	1381,(78, 201),3	1384,(45, 201),3	1387,(48, 201),3	1390,(84, 201),3	1393,(198, 201),3	1463,(195, 201),3	1475,(42, 201),3	1481,(51, 201),3	1508,(60, 201),3	1550,(66, 201),3	1612,(20, 46),9	1621,(20, 55),93	1714,(99, 201),3	1717,(183, 201),3	1748,(105, 201),3	1753,(20, 154),111	1864,(74, 201),3	1867,(146, 201),3	1870,(161, 201),3	1873,(108, 201),3	1876,(126, 201),3	1879,(171, 201),3	1882,(30, 201),3	1888,(197, 201),3	1891,(71, 201),3	1894,(47, 201),3	1897,(125, 201),3	1900,(65, 201),3	1903,(53, 201),3	1906,(59, 201),3	1909,(68, 201),3	1912,(80, 201),3	1915,(86, 201),3	1918,(101, 201),3	1921,(122, 201),3	1924,(143, 201),3	1927,(107, 201),3	1930,(23, 201),3	1933,(32, 201),3	1936,(110, 201),3	1939,(26, 201),3	1942,(191, 201),3	1945,(137, 201),3	1948,(152, 201),3	1951,(92, 201),3	1954,(128, 201),3	1957,(62, 201),3	1960,(134, 201),3	1963,(83, 201),3	1966,(116, 201),3	1969,(176, 201),3	1972,(35, 201),3	1975,(200, 201),3	2170,(186, 201),3	2173,(33, 201),3	2176,(72, 201),3	2179,(57, 201),3	2182,(69, 201),3	2185,(93, 201),3	2188,(113, 201),3	2191,(56, 201),3	2194,(95, 201),3	2197,(164, 201),3	2200,(170, 201),3	2264,(158, 201),3	2287,(174, 201),3	2290,(102, 201),3	2293,(167, 201),3	2306,(50, 201),3	2435,(98, 201),3	2795,(140, 201),3	2855,(185, 201),3	2903,(44, 201),3	4541,(89, 201),3	4567,(18, 28),630	5197,(104, 201),3	5204,(29, 201),3	5231,(41, 201),3	5294,(173, 201),3	5612,(179, 201),3	5621,(188, 201),3	
# Outgoing
145,(3, 25),3	148,(3, 67),24	172,(3, 88),3	175,(3, 106),27	202,(3, 121),3	205,(3, 122),12	217,(3, 125),9	226,(3, 142),3	229,(3, 160),39	268,(22, 201),3	271,(144, 201),3	274,(6, 34),21	295,(6, 193),9	304,(9, 21),3	307,(9, 166),3	310,(9, 175),3	313,(9, 184),3	316,(39, 201),3	319,(75, 201),3	361,(135, 201),3	364,(90, 201),3	367,(165, 201),3	370,(114, 201),3	373,(138, 201),3	484,(6, 100),84	568,(9, 34),18	622,(6, 115),36	673,(3, 134),9	682,(6, 53),3	685,(6, 59),3	688,(6, 68),6	694,(6, 176),33	727,(9, 43),24	751,(9, 79),156	907,(9, 118),18	925,(12, 67),15	940,(15, 67),45	985,(15, 79),12	997,(150, 201),3	1000,(18, 25),3	1003,(18, 130),60	1063,(18, 193),3	1066,(87, 201),3	1069,(117, 201),3	1072,(156, 201),3	1075,(120, 201),3	1078,(177, 201),3	1081,(63, 201),3	1084,(132, 201),3	1087,(96, 201),3	1090,(147, 201),3	1093,(162, 201),3	1096,(168, 201),3	1099,(192, 201),3	1102,(54, 201),3	1105,(180, 201),3	1108,(189, 201),3	1111,(111, 201),3	1114,(129, 201),3	1117,(159, 201),3	1120,(81, 201),3	1127,(123, 201),3	1132,(12, 122),3	1136,(24, 201),3	1140,(141, 201),3	1154,(27, 201),3	1252,(3, 107),123	1375,(36, 201),3	1378,(153, 201),3	1381,(78, 201),3	1384,(45, 201),3	1387,(48, 201),3	1390,(84, 201),3	1393,(198, 201),3	1463,(195, 201),3	1475,(42, 201),3	1481,(51, 201),3	1508,(60, 201),3	1550,(66, 201),3	1714,(99, 201),3	1717,(183, 201),3	1748,(105, 201),3	1753,(6, 191),9	1762,(9, 44),27	1789,(9, 128),6	1795,(9, 137),12	1807,(12, 152),3	1810,(15, 92),3	1840,(9, 62),30	1870,(15, 134),3	1873,(108, 201),3	1876,(126, 201),3	1879,(171, 201),3	1882,(30, 201),3	1939,(12, 35),12	1951,(15, 167),12	1966,(6, 113),204	2170,(186, 201),3	2173,(33, 201),3	2176,(72, 201),3	2179,(57, 201),3	2182,(69, 201),3	2185,(93, 201),3	2188,(9, 158),72	2260,(9, 167),27	2287,(174, 201),3	2290,(102, 201),3	2311,(12, 44),21	2332,(12, 98),99	2431,(12, 104),327	2758,(12, 140),33	2791,(12, 185),60	2851,(15, 44),48	2899,(15, 89),1638	4537,(15, 104),30	4567,(18, 28),630	5197,(18, 29),3	5200,(18, 41),27	5227,(18, 173),63	5290,(18, 179),318	5608,(18, 188),9	
13,(2, 36),3	19,(5, 78),3	25,(5, 138),3	31,(5, 150),3	37,(2, 72),6	43,(2, 103),63	106,(2, 133),9	115,(2, 160),21	136,(2, 178),9	205,(194, 201),3	208,(5, 148),3	211,(119, 201),3	214,(149, 201),3	217,(155, 201),3	220,(14, 172),3	223,(14, 181),3	232,(2, 132),42	274,(5, 96),12	286,(5, 153),18	304,(5, 162),18	322,(5, 169),39	361,(5, 189),15	376,(8, 43),90	466,(8, 91),18	484,(8, 147),3	487,(8, 159),3	490,(8, 162),21	511,(8, 168),45	556,(8, 192),30	586,(8, 199),36	622,(11, 54),21	643,(11, 84),3	646,(11, 180),3	649,(11, 189),6	655,(14, 141),3	658,(11, 109),42	700,(14, 166),12	712,(17, 37),6	718,(17, 46),3	721,(17, 82),6	733,(11, 57),198	931,(11, 81),135	1066,(11, 123),57	1123,(14, 174),3	1126,(17, 24),6	1132,(17, 145),3	1135,(14, 27),15	1150,(14, 36),33	1183,(14, 115),36	1219,(14, 121),105	1324,(17, 31),18	1342,(17, 94),6	1348,(77, 201),3	1351,(182, 201),3	1354,(131, 201),3	1357,(20, 21),12	1369,(20, 175),3	1372,(38, 201),3	1375,(14, 186),21	1396,(14, 195),63	1459,(17, 42),12	1471,(17, 51),6	1477,(17, 60),27	1504,(17, 66),42	1546,(17, 69),18	1564,(17, 99),42	1606,(17, 183),3	1609,(20, 33),3	1612,(20, 46),9	1621,(20, 55),93	1714,(20, 105),30	1744,(20, 108),9	1753,(20, 154),111	1864,(74, 201),3	1867,(146, 201),3	1870,(161, 201),3	1873,(20, 174),15	1888,(197, 201),3	1891,(71, 201),3	1894,(47, 201),3	1897,(125, 201),3	1900,(65, 201),3	1903,(53, 201),3	1906,(59, 201),3	1909,(68, 201),3	1912,(80, 201),3	1915,(86, 201),3	1918,(101, 201),3	1921,(122, 201),3	1924,(143, 201),3	1927,(107, 201),3	1930,(23, 201),3	1933,(32, 201),3	1936,(110, 201),3	1939,(26, 201),3	1942,(191, 201),3	1945,(137, 201),3	1948,(152, 201),3	1951,(92, 201),3	1954,(128, 201),3	1957,(62, 201),3	1960,(134, 201),3	1963,(83, 201),3	1966,(116, 201),3	1969,(176, 201),3	1972,(35, 201),3	1975,(200, 201),3	2008,(20, 102),72	2188,(113, 201),3	2191,(56, 201),3	2194,(95, 201),3	2197,(164, 201),3	2200,(170, 201),3	2264,(158, 201),3	2293,(167, 201),3	2306,(50, 201),3	2435,(98, 201),3	2795,(140, 201),3	2855,(185, 201),3	2903,(44, 201),3	4541,(89, 201),3	5197,(104, 201),3	5204,(29, 201),3	5231,(41, 201),3	5294,(173, 201),3	5612,(179, 201),3	5621,(188, 201),3	
1,(0, 2),3	4,(0, 3),3	7,(0, 5),3	10,(0, 6),3	13,(0, 8),3	16,(0, 9),3	19,(0, 11),3	22,(0, 12),3	25,(0, 14),3	28,(0, 15),3	31,(0, 17),3	34,(0, 18),3	37,(0, 20),3	40,(1, 23),6	46,(1, 33),12	58,(1, 42),51	109,(1, 47),6	115,(1, 63),117	232,(1, 65),12	244,(1, 80),417	661,(1, 83),12	673,(1, 111),18	691,(1, 129),39	730,(1, 159),3	733,(19, 35),21	754,(19, 41),12	766,(19, 56),144	910,(19, 80),138	1048,(19, 86),81	1129,(19, 101),3	1132,(19, 141),3	1135,(19, 143),117	1252,(19, 153),27	1279,(7, 78),3	1282,(7, 108),3	1285,(7, 183),6	1291,(10, 45),3	1294,(10, 48),63	1357,(10, 84),3	1360,(10, 198),15	1375,(7, 23),6	1381,(7, 26),24	1405,(7, 32),66	1471,(7, 110),81	1552,(7, 137),6	1558,(7, 158),117	1675,(7, 173),12	1687,(7, 191),54	1741,(10, 26),12	1753,(10, 126),60	1813,(10, 128),27	1840,(10, 171),24	1864,(16, 30),9	1873,(16, 41),3	1876,(16, 50),3	1879,(16, 83),3	1882,(16, 116),3	1885,(16, 176),54	1939,(16, 186),24	1963,(16, 200),3	1966,(13, 33),3	1969,(13, 72),21	1990,(4, 57),6	1996,(4, 69),3	1999,(4, 93),6	2005,(4, 174),3	2170,(13, 56),6	2176,(13, 95),3	2179,(13, 164),3	2182,(13, 170),6	2287,(4, 50),15	2302,(4, 89),9	
