23266
# CPU
7,5,183	190,6,183	373,8,183	556,11,183	739,12,183	922,13,183	1105,14,183	1288,18,183	1471,20,183	6024,130,183	6430,38,183	6978,150,183	7161,67,183	7344,116,183	7527,156,183	7710,195,183	7893,40,183	8076,53,183	8259,85,183	8442,102,183	8625,43,183	8808,47,183	8991,78,183	9174,101,183	9357,123,183	9540,131,183	9723,74,183	9906,95,183	10089,173,183	10272,179,183	10455,112,183	10638,119,183	10821,133,183	11004,149,183	11187,167,183	11370,190,183	11553,25,183	11736,60,183	11919,86,183	12102,90,183	12285,104,183	12468,126,183	12651,136,183	12834,137,183	13017,161,183	13200,163,183	13383,174,183	13566,177,183	13749,178,183	13932,184,183	14115,50,183	14298,76,183	14481,77,183	14664,94,183	14847,96,183	15030,97,183	15213,164,183	15396,168,183	15579,171,183	15762,181,183	15945,34,183	16128,35,183	16311,37,183	16494,69,183	16677,92,183	16860,100,183	17043,105,183	17226,114,183	17409,121,183	17592,138,183	17775,154,183	17958,166,183	18141,172,183	18324,176,183	18507,182,183	18690,199,183	18873,27,183	19056,36,183	19239,49,183	19422,54,183	19605,56,183	19788,58,183	19971,68,183	20154,72,183	20337,73,183	20520,79,183	20703,82,183	20886,89,183	21069,109,183	21252,113,183	21435,115,183	21618,118,183	21801,124,183	21984,142,183	22167,153,183	22350,155,183	22533,165,183	22716,185,183	22899,196,183	23082,200,183	23265,201,1	
0,0,1	1,2,183	184,3,183	367,9,183	550,7,183	733,19,183	916,4,183	1099,17,183	1282,10,183	1465,15,183	1648,16,183	1831,1,183	2014,157,183	2197,128,183	2380,144,183	2563,143,183	2746,42,183	2929,33,183	3112,152,183	3295,57,183	3478,87,183	3661,189,183	3844,198,183	4027,132,183	4210,75,183	4393,80,183	4576,103,183	4759,159,183	4942,186,183	5125,183,183	5308,23,183	5491,41,183	5674,44,183	5857,107,183	6040,120,183	6223,30,183	6406,71,183	6589,134,183	6772,135,183	6955,140,183	7138,158,183	7321,170,183	7504,194,183	7687,197,183	7870,31,183	8053,51,183	8236,59,183	8419,62,183	8602,106,183	8785,127,183	8968,83,183	9151,122,183	9334,48,183	9517,91,183	9700,45,183	9883,28,183	10066,29,183	10249,187,183	10432,175,183	10615,117,183	10798,108,183	10981,99,183	11164,66,183	11347,81,183	11530,24,183	11713,84,183	11896,88,183	12079,93,183	12262,111,183	12445,125,183	12628,129,183	12811,141,183	12994,148,183	13177,169,183	13360,193,183	13543,26,183	13726,46,183	13909,52,183	14092,55,183	14275,61,183	14458,63,183	14641,65,183	14824,139,183	15007,147,183	15190,151,183	15373,162,183	15556,180,183	15739,188,183	15922,191,183	16105,21,183	16288,22,183	16471,32,183	16654,39,183	16837,64,183	17020,70,183	17203,98,183	17386,110,183	17569,145,183	17752,146,183	17935,160,183	18118,192,183	
# Incoming
1,(0, 5),6	7,(0, 6),6	13,(0, 8),6	19,(0, 11),6	25,(0, 12),6	31,(0, 13),6	37,(0, 14),6	43,(0, 18),6	49,(0, 20),6	184,(2, 25),2	186,(2, 27),30	216,(2, 36),8	224,(2, 49),2	226,(2, 50),100	326,(2, 58),2	328,(2, 60),2	330,(2, 68),4	334,(2, 76),358	692,(2, 77),2	694,(2, 79),2	696,(2, 90),72	768,(2, 102),5218	5986,(2, 114),2	5988,(2, 115),14	6002,(2, 124),2	6004,(2, 126),18	6022,(2, 130),2	6024,(2, 136),232	6256,(2, 153),10	6266,(2, 161),2	6268,(2, 163),2	6270,(2, 166),58	6328,(2, 177),2	6330,(2, 195),64	6394,(2, 196),2	6396,(3, 27),2	6398,(3, 35),18	6416,(3, 38),14	6430,(3, 43),22	6452,(3, 49),40	6492,(3, 50),2	6494,(3, 58),18	6512,(3, 67),4	6516,(3, 76),392	6908,(3, 86),22	6930,(3, 100),12	6942,(3, 105),6	6948,(3, 112),20	6968,(3, 123),4	6972,(3, 124),2	6974,(3, 150),4	6978,(3, 161),2	6980,(3, 164),2	6982,(3, 167),4	6986,(3, 176),12	6998,(3, 179),2	7000,(3, 185),20	7020,(3, 195),2	7022,(3, 196),4	7026,(9, 25),4	7030,(9, 53),14	7044,(9, 56),60	7104,(9, 60),2	7106,(9, 67),2	7108,(9, 79),6	7114,(9, 94),20	7134,(9, 96),36	7170,(9, 100),2	7172,(9, 116),22	7194,(9, 131),28	7222,(9, 133),8	7230,(9, 138),16	7246,(9, 156),2	7248,(9, 168),2	7250,(9, 172),22	7272,(9, 181),4	7276,(9, 195),22	7298,(9, 199),188	7486,(7, 27),12	7498,(7, 34),2	7500,(7, 40),2	7502,(7, 53),54	7556,(7, 54),16	7572,(7, 69),36	7608,(7, 72),16	7624,(7, 74),4	7628,(7, 76),34	7662,(7, 85),4	7666,(7, 86),14	7680,(7, 90),2	7682,(7, 92),2	7684,(7, 94),8	7692,(7, 95),8	7700,(7, 102),2	7702,(7, 105),6	7708,(7, 115),6	7714,(7, 123),2	7716,(7, 126),50	7766,(7, 136),172	7938,(7, 167),14	7952,(7, 171),4	7956,(7, 172),6	7962,(7, 173),2	7964,(7, 174),20	7984,(7, 176),2	7986,(7, 177),2	7988,(7, 181),2	7990,(7, 182),22	8012,(7, 199),12	8024,(19, 27),2	8026,(19, 43),16	8042,(19, 47),2	8044,(19, 49),6	8050,(19, 54),4	8054,(19, 56),2	8056,(19, 60),40	8096,(19, 68),32	8128,(19, 72),10	8138,(19, 76),4	8142,(19, 78),26	8168,(19, 82),18	8186,(19, 92),114	8300,(19, 95),4	8304,(19, 96),12	8316,(19, 100),2	8318,(19, 101),8	8326,(19, 104),30	8356,(19, 118),40	8396,(19, 119),12	8408,(19, 123),8	8416,(19, 131),2	8418,(19, 133),8	8426,(19, 137),4	8430,(19, 138),12	8442,(19, 153),2	8444,(19, 166),12	8456,(19, 171),12	8468,(19, 178),20	8488,(19, 184),6	8494,(4, 37),2	8496,(4, 49),14	8510,(4, 56),12	8522,(4, 60),12	8534,(4, 74),2	8536,(4, 77),2	8538,(4, 90),2	8540,(4, 95),2	8542,(4, 104),2	8544,(4, 112),20	8564,(4, 115),4	8568,(4, 121),74	8642,(4, 126),56	8698,(4, 142),4	8702,(4, 164),2	8704,(4, 166),2	8706,(4, 172),2	8708,(4, 173),48	8756,(4, 174),26	8782,(4, 177),8	8790,(4, 178),10	8800,(4, 179),2	8802,(4, 185),4	8806,(4, 190),26	8832,(4, 196),2	8834,(4, 199),4	8838,(17, 27),22	8860,(17, 36),74	8934,(17, 56),56	8990,(17, 58),18	9008,(17, 73),26	9034,(17, 79),4	9038,(17, 89),2	9040,(17, 92),24	9064,(17, 94),2	9066,(17, 100),8	9074,(17, 109),36	9110,(17, 112),2	9112,(17, 118),12	9124,(17, 119),4	9128,(17, 133),22	9150,(17, 142),14	9164,(17, 149),2	9166,(17, 154),8	9174,(17, 167),2	9176,(17, 190),36	9212,(10, 25),2	9214,(10, 27),22	9236,(10, 49),66	9302,(10, 60),12	9314,(10, 69),12	9326,(10, 73),10	9336,(10, 76),2	9338,(10, 77),2	9340,(10, 86),8	9348,(10, 90),2	9350,(10, 94),10	9360,(10, 96),4	9364,(10, 104),14	9378,(10, 105),2	9380,(10, 115),16	9396,(10, 126),2	9398,(10, 136),2	9400,(10, 137),58	9458,(10, 142),18	9476,(10, 161),4	9480,(10, 163),2	9482,(10, 171),16	9498,(10, 174),2	9500,(10, 177),2	9502,(10, 178),2	9504,(10, 181),12	9516,(10, 182),2	9518,(10, 184),42	9560,(15, 34),4	9564,(15, 49),8	9572,(15, 50),16	9588,(15, 54),4	9592,(15, 72),20	9612,(15, 76),2	9614,(15, 77),2	9616,(15, 92),8	9624,(15, 94),16	9640,(15, 96),22	9662,(15, 97),2	9664,(15, 109),6	9670,(15, 113),4	9674,(15, 124),54	9728,(15, 153),4	9732,(15, 164),2	9734,(15, 165),2	9736,(15, 168),10	9746,(15, 171),2	9748,(15, 181),6	9754,(15, 196),4	9758,(15, 199),22	9780,(15, 200),44	9824,(16, 34),2	9826,(16, 35),2	9828,(16, 37),2	9830,(16, 69),42	9872,(16, 92),2	9874,(16, 100),30	9904,(16, 105),2	9906,(16, 114),10	9916,(16, 115),10	9926,(16, 118),2	9928,(16, 121),8	9936,(16, 124),2	9938,(16, 138),8	9946,(16, 142),4	9950,(16, 154),12	9962,(16, 166),18	9980,(16, 172),2	9982,(16, 176),2	9984,(16, 182),2	9986,(16, 199),10	9996,(1, 27),20	10016,(1, 36),2	10018,(1, 49),20	10038,(1, 54),4	10042,(1, 56),4	10046,(1, 58),2	10048,(1, 68),2	10050,(1, 72),40	10090,(1, 73),16	10106,(1, 79),6	10112,(1, 82),2	10114,(1, 89),2	10116,(1, 109),26	10142,(1, 113),2	10144,(1, 115),6	10150,(1, 118),36	10186,(1, 124),10	10196,(1, 142),10	10206,(1, 153),2	10208,(1, 155),2	10210,(1, 165),2	10212,(1, 185),4	10216,(1, 196),6	10222,(1, 200),4	10226,(157, 201),28	10254,(128, 201),28	10282,(144, 201),28	10310,(143, 201),28	10338,(42, 201),28	10366,(33, 201),28	10394,(152, 201),28	10422,(57, 201),28	10450,(87, 201),28	10478,(189, 201),28	10506,(198, 201),28	10534,(132, 201),28	10562,(75, 201),28	10590,(80, 201),28	10618,(103, 201),28	10646,(159, 201),28	10674,(186, 201),28	10702,(183, 201),28	10730,(23, 201),28	10758,(41, 201),28	10786,(44, 201),28	10814,(107, 201),28	10842,(120, 201),28	10870,(30, 201),28	10898,(71, 201),28	10926,(134, 201),28	10954,(135, 201),28	10982,(140, 201),28	11010,(158, 201),28	11038,(170, 201),28	11066,(194, 201),28	11094,(197, 201),28	11122,(31, 201),28	11150,(51, 201),28	11178,(59, 201),28	11206,(62, 201),28	11234,(106, 201),28	11262,(127, 201),28	11290,(83, 201),28	11318,(122, 201),28	11346,(48, 201),28	11374,(91, 201),28	11402,(45, 201),28	11430,(28, 201),28	11458,(29, 201),28	11486,(187, 201),28	11514,(175, 201),28	11542,(117, 201),28	11570,(108, 201),28	11598,(99, 201),28	11626,(66, 201),28	11654,(81, 201),28	11713,(24, 201),28	11896,(84, 201),28	12079,(88, 201),28	12262,(93, 201),28	12445,(111, 201),28	12628,(125, 201),28	12811,(129, 201),28	12994,(141, 201),28	13177,(148, 201),28	13360,(169, 201),28	13543,(193, 201),28	13726,(26, 201),28	13909,(46, 201),28	14092,(52, 201),28	14275,(55, 201),28	14458,(61, 201),28	14641,(63, 201),28	14824,(65, 201),28	15007,(139, 201),28	15190,(147, 201),28	15373,(151, 201),28	15556,(162, 201),28	15739,(180, 201),28	15922,(188, 201),28	16105,(191, 201),28	16288,(21, 201),28	16471,(22, 201),28	16654,(32, 201),28	16837,(39, 201),28	17020,(64, 201),28	17203,(70, 201),28	17386,(98, 201),28	17569,(110, 201),28	17752,(145, 201),28	17935,(146, 201),28	18118,(160, 201),28	18301,(192, 201),28	
190,(5, 31),16	206,(5, 32),42	248,(5, 41),8	256,(5, 44),2	258,(5, 46),26	284,(5, 59),18	302,(5, 62),2	304,(5, 70),10	314,(5, 81),2	316,(5, 98),6	322,(5, 117),2	324,(5, 129),32	356,(5, 134),8	364,(5, 143),8	372,(5, 146),2	374,(5, 147),12	386,(5, 148),132	518,(5, 162),8	526,(5, 180),78	604,(5, 183),2	606,(5, 186),42	648,(5, 193),4	652,(6, 42),22	674,(6, 44),8	682,(6, 62),14	696,(6, 63),16	712,(6, 65),2	714,(6, 88),8	722,(6, 91),4	726,(6, 103),2	728,(6, 110),2	730,(6, 120),2	732,(6, 125),2	734,(6, 135),4	738,(6, 143),2	740,(6, 157),2	742,(6, 159),50	792,(6, 183),32	824,(6, 186),4	828,(6, 188),2	830,(6, 191),2	832,(6, 197),22	854,(6, 198),6	860,(8, 30),2	862,(8, 33),4	866,(8, 39),14	880,(8, 42),10	890,(8, 51),2	892,(8, 52),20	912,(8, 75),4	916,(8, 93),6	922,(8, 98),10	932,(8, 103),2	934,(8, 106),14	948,(8, 127),42	990,(8, 140),18	1008,(8, 143),38	1046,(8, 147),2	1048,(8, 148),4	1052,(8, 151),4	1056,(8, 157),2	1058,(8, 159),2	1060,(8, 183),2	1062,(8, 189),22	1084,(11, 26),10	1094,(11, 30),2	1096,(11, 42),12	1108,(11, 45),2	1110,(11, 46),48	1158,(11, 48),6	1164,(11, 57),10	1174,(11, 59),8	1182,(11, 70),10	1192,(11, 99),2	1194,(11, 103),28	1222,(11, 106),10	1232,(11, 117),2	1234,(11, 139),4	1238,(11, 141),2	1240,(11, 162),8	1248,(11, 175),2	1250,(11, 180),4	1254,(11, 188),20	1274,(11, 193),2	1276,(11, 198),18	1294,(12, 21),4	1298,(12, 23),32	1330,(12, 31),4	1334,(12, 46),10	1344,(12, 48),8	1352,(12, 51),44	1396,(12, 52),14	1410,(12, 55),2	1412,(12, 65),4	1416,(12, 81),2	1418,(12, 83),18	1436,(12, 87),4	1440,(12, 91),2	1442,(12, 93),2	1444,(12, 107),6	1450,(12, 110),4	1454,(12, 117),2	1456,(12, 120),4	1460,(12, 122),8	1468,(12, 132),4	1472,(12, 148),12	1484,(12, 152),4	1488,(12, 159),2	1490,(12, 169),16	1506,(12, 186),20	1526,(12, 187),2	1528,(12, 188),2	1530,(12, 194),2	1532,(13, 26),4	1536,(13, 31),22	1558,(13, 39),8	1566,(13, 41),32	1598,(13, 46),4	1602,(13, 48),4	1606,(13, 52),2	1608,(13, 57),10	1618,(13, 65),6	1624,(13, 66),2	1626,(13, 87),2	1628,(13, 88),64	1692,(13, 103),2	1694,(13, 106),168	1862,(13, 108),2	1864,(13, 111),2	1866,(13, 127),12	1878,(13, 134),6	1884,(13, 135),4	1888,(13, 140),2	1890,(13, 141),2	1892,(13, 147),2	1894,(13, 148),4	1898,(13, 158),4	1902,(13, 170),2	1904,(13, 191),36	1940,(13, 194),6	1946,(13, 197),10	1956,(14, 28),2	1958,(14, 29),2	1960,(14, 31),8	1968,(14, 45),4	1972,(14, 51),2	1974,(14, 59),6	1980,(14, 62),2	1982,(14, 63),40	2022,(14, 65),4	2026,(14, 84),16	2042,(14, 88),14	2056,(14, 93),8	2064,(14, 111),14	2078,(14, 125),16	2094,(14, 129),12	2106,(14, 141),14	2120,(14, 148),26	2146,(14, 151),22	2168,(14, 160),4	2172,(14, 169),26	2198,(14, 191),2	2200,(14, 193),28	2228,(18, 22),2	2230,(18, 26),4	2234,(18, 32),90	2324,(18, 46),6	2330,(18, 52),6	2336,(18, 55),2	2338,(18, 61),6	2344,(18, 63),24	2368,(18, 64),28	2396,(18, 65),4	2400,(18, 98),2	2402,(18, 110),6	2408,(18, 139),20	2428,(18, 147),22	2450,(18, 151),8	2458,(18, 162),2	2460,(18, 180),4	2464,(18, 188),12	2476,(18, 191),24	2500,(18, 192),8	2508,(20, 21),8	2516,(20, 22),2	2518,(20, 32),8	2526,(20, 39),36	2562,(20, 64),36	2598,(20, 70),40	2638,(20, 98),6	2644,(20, 110),4	2648,(20, 145),10	2658,(20, 146),2	2660,(20, 160),26	2686,(20, 192),2	
# Outgoing
190,(5, 31),16	206,(5, 32),42	248,(5, 41),8	256,(5, 44),2	258,(5, 46),26	284,(5, 59),18	302,(5, 62),2	304,(5, 70),10	314,(5, 81),2	316,(5, 98),6	322,(5, 117),2	324,(5, 129),32	356,(5, 134),8	364,(5, 143),8	372,(5, 146),2	374,(5, 147),12	386,(5, 148),132	518,(5, 162),8	526,(5, 180),78	604,(5, 183),2	606,(5, 186),42	648,(5, 193),4	652,(6, 42),22	674,(6, 44),8	682,(6, 62),14	696,(6, 63),16	712,(6, 65),2	714,(6, 88),8	722,(6, 91),4	726,(6, 103),2	728,(6, 110),2	730,(6, 120),2	732,(6, 125),2	734,(6, 135),4	738,(6, 143),2	740,(6, 157),2	742,(6, 159),50	792,(6, 183),32	824,(6, 186),4	828,(6, 188),2	830,(6, 191),2	832,(6, 197),22	854,(6, 198),6	860,(8, 30),2	862,(8, 33),4	866,(8, 39),14	880,(8, 42),10	890,(8, 51),2	892,(8, 52),20	912,(8, 75),4	916,(8, 93),6	922,(8, 98),10	932,(8, 103),2	934,(8, 106),14	948,(8, 127),42	990,(8, 140),18	1008,(8, 143),38	1046,(8, 147),2	1048,(8, 148),4	1052,(8, 151),4	1056,(8, 157),2	1058,(8, 159),2	1060,(8, 183),2	1062,(8, 189),22	1084,(11, 26),10	1094,(11, 30),2	1096,(11, 42),12	1108,(11, 45),2	1110,(11, 46),48	1158,(11, 48),6	1164,(11, 57),10	1174,(11, 59),8	1182,(11, 70),10	1192,(11, 99),2	1194,(11, 103),28	1222,(11, 106),10	1232,(11, 117),2	1234,(11, 139),4	1238,(11, 141),2	1240,(11, 162),8	1248,(11, 175),2	1250,(11, 180),4	1254,(11, 188),20	1274,(11, 193),2	1276,(11, 198),18	1294,(12, 21),4	1298,(12, 23),32	1330,(12, 31),4	1334,(12, 46),10	1344,(12, 48),8	1352,(12, 51),44	1396,(12, 52),14	1410,(12, 55),2	1412,(12, 65),4	1416,(12, 81),2	1418,(12, 83),18	1436,(12, 87),4	1440,(12, 91),2	1442,(12, 93),2	1444,(12, 107),6	1450,(12, 110),4	1454,(12, 117),2	1456,(12, 120),4	1460,(12, 122),8	1468,(12, 132),4	1472,(12, 148),12	1484,(12, 152),4	1488,(12, 159),2	1490,(12, 169),16	1506,(12, 186),20	1526,(12, 187),2	1528,(12, 188),2	1530,(12, 194),2	1532,(13, 26),4	1536,(13, 31),22	1558,(13, 39),8	1566,(13, 41),32	1598,(13, 46),4	1602,(13, 48),4	1606,(13, 52),2	1608,(13, 57),10	1618,(13, 65),6	1624,(13, 66),2	1626,(13, 87),2	1628,(13, 88),64	1692,(13, 103),2	1694,(13, 106),168	1862,(13, 108),2	1864,(13, 111),2	1866,(13, 127),12	1878,(13, 134),6	1884,(13, 135),4	1888,(13, 140),2	1890,(13, 141),2	1892,(13, 147),2	1894,(13, 148),4	1898,(13, 158),4	1902,(13, 170),2	1904,(13, 191),36	1940,(13, 194),6	1946,(13, 197),10	1956,(14, 28),2	1958,(14, 29),2	1960,(14, 31),8	1968,(14, 45),4	1972,(14, 51),2	1974,(14, 59),6	1980,(14, 62),2	1982,(14, 63),40	2022,(14, 65),4	2026,(14, 84),16	2042,(14, 88),14	2056,(14, 93),8	2064,(14, 111),14	2078,(14, 125),16	2094,(14, 129),12	2106,(14, 141),14	2120,(14, 148),26	2146,(14, 151),22	2168,(14, 160),4	2172,(14, 169),26	2198,(14, 191),2	2200,(14, 193),28	2228,(18, 22),2	2230,(18, 26),4	2234,(18, 32),90	2324,(18, 46),6	2330,(18, 52),6	2336,(18, 55),2	2338,(18, 61),6	2344,(18, 63),24	2368,(18, 64),28	2396,(18, 65),4	2400,(18, 98),2	2402,(18, 110),6	2408,(18, 139),20	2428,(18, 147),22	2450,(18, 151),8	2458,(18, 162),2	2460,(18, 180),4	2464,(18, 188),12	2476,(18, 191),24	2500,(18, 192),8	2508,(20, 21),8	2516,(20, 22),2	2518,(20, 32),8	2526,(20, 39),36	2562,(20, 64),36	2598,(20, 70),40	2638,(20, 98),6	2644,(20, 110),4	2648,(20, 145),10	2658,(20, 146),2	2660,(20, 160),26	2686,(20, 192),2	
1,(0, 5),6	7,(0, 6),6	13,(0, 8),6	19,(0, 11),6	25,(0, 12),6	31,(0, 13),6	37,(0, 14),6	43,(0, 18),6	49,(0, 20),6	184,(2, 25),2	186,(2, 27),30	216,(2, 36),8	224,(2, 49),2	226,(2, 50),100	326,(2, 58),2	328,(2, 60),2	330,(2, 68),4	334,(2, 76),358	692,(2, 77),2	694,(2, 79),2	696,(2, 90),72	768,(2, 102),5218	5986,(2, 114),2	5988,(2, 115),14	6002,(2, 124),2	6004,(2, 126),18	6022,(2, 130),2	6024,(2, 136),232	6256,(2, 153),10	6266,(2, 161),2	6268,(2, 163),2	6270,(2, 166),58	6328,(2, 177),2	6330,(2, 195),64	6394,(2, 196),2	6396,(3, 27),2	6398,(3, 35),18	6416,(3, 38),14	6430,(3, 43),22	6452,(3, 49),40	6492,(3, 50),2	6494,(3, 58),18	6512,(3, 67),4	6516,(3, 76),392	6908,(3, 86),22	6930,(3, 100),12	6942,(3, 105),6	6948,(3, 112),20	6968,(3, 123),4	6972,(3, 124),2	6974,(3, 150),4	6978,(3, 161),2	6980,(3, 164),2	6982,(3, 167),4	6986,(3, 176),12	6998,(3, 179),2	7000,(3, 185),20	7020,(3, 195),2	7022,(3, 196),4	7026,(9, 25),4	7030,(9, 53),14	7044,(9, 56),60	7104,(9, 60),2	7106,(9, 67),2	7108,(9, 79),6	7114,(9, 94),20	7134,(9, 96),36	7170,(9, 100),2	7172,(9, 116),22	7194,(9, 131),28	7222,(9, 133),8	7230,(9, 138),16	7246,(9, 156),2	7248,(9, 168),2	7250,(9, 172),22	7272,(9, 181),4	7276,(9, 195),22	7298,(9, 199),188	7486,(7, 27),12	7498,(7, 34),2	7500,(7, 40),2	7502,(7, 53),54	7556,(7, 54),16	7572,(7, 69),36	7608,(7, 72),16	7624,(7, 74),4	7628,(7, 76),34	7662,(7, 85),4	7666,(7, 86),14	7680,(7, 90),2	7682,(7, 92),2	7684,(7, 94),8	7692,(7, 95),8	7700,(7, 102),2	7702,(7, 105),6	7708,(7, 115),6	7714,(7, 123),2	7716,(7, 126),50	7766,(7, 136),172	7938,(7, 167),14	7952,(7, 171),4	7956,(7, 172),6	7962,(7, 173),2	7964,(7, 174),20	7984,(7, 176),2	7986,(7, 177),2	7988,(7, 181),2	7990,(7, 182),22	8012,(7, 199),12	8024,(19, 27),2	8026,(19, 43),16	8042,(19, 47),2	8044,(19, 49),6	8050,(19, 54),4	8054,(19, 56),2	8056,(19, 60),40	8096,(19, 68),32	8128,(19, 72),10	8138,(19, 76),4	8142,(19, 78),26	8168,(19, 82),18	8186,(19, 92),114	8300,(19, 95),4	8304,(19, 96),12	8316,(19, 100),2	8318,(19, 101),8	8326,(19, 104),30	8356,(19, 118),40	8396,(19, 119),12	8408,(19, 123),8	8416,(19, 131),2	8418,(19, 133),8	8426,(19, 137),4	8430,(19, 138),12	8442,(19, 153),2	8444,(19, 166),12	8456,(19, 171),12	8468,(19, 178),20	8488,(19, 184),6	8494,(4, 37),2	8496,(4, 49),14	8510,(4, 56),12	8522,(4, 60),12	8534,(4, 74),2	8536,(4, 77),2	8538,(4, 90),2	8540,(4, 95),2	8542,(4, 104),2	8544,(4, 112),20	8564,(4, 115),4	8568,(4, 121),74	8642,(4, 126),56	8698,(4, 142),4	8702,(4, 164),2	8704,(4, 166),2	8706,(4, 172),2	8708,(4, 173),48	8756,(4, 174),26	8782,(4, 177),8	8790,(4, 178),10	8800,(4, 179),2	8802,(4, 185),4	8806,(4, 190),26	8832,(4, 196),2	8834,(4, 199),4	8838,(17, 27),22	8860,(17, 36),74	8934,(17, 56),56	8990,(17, 58),18	9008,(17, 73),26	9034,(17, 79),4	9038,(17, 89),2	9040,(17, 92),24	9064,(17, 94),2	9066,(17, 100),8	9074,(17, 109),36	9110,(17, 112),2	9112,(17, 118),12	9124,(17, 119),4	9128,(17, 133),22	9150,(17, 142),14	9164,(17, 149),2	9166,(17, 154),8	9174,(17, 167),2	9176,(17, 190),36	9212,(10, 25),2	9214,(10, 27),22	9236,(10, 49),66	9302,(10, 60),12	9314,(10, 69),12	9326,(10, 73),10	9336,(10, 76),2	9338,(10, 77),2	9340,(10, 86),8	9348,(10, 90),2	9350,(10, 94),10	9360,(10, 96),4	9364,(10, 104),14	9378,(10, 105),2	9380,(10, 115),16	9396,(10, 126),2	9398,(10, 136),2	9400,(10, 137),58	9458,(10, 142),18	9476,(10, 161),4	9480,(10, 163),2	9482,(10, 171),16	9498,(10, 174),2	9500,(10, 177),2	9502,(10, 178),2	9504,(10, 181),12	9516,(10, 182),2	9518,(10, 184),42	9560,(15, 34),4	9564,(15, 49),8	9572,(15, 50),16	9588,(15, 54),4	9592,(15, 72),20	9612,(15, 76),2	9614,(15, 77),2	9616,(15, 92),8	9624,(15, 94),16	9640,(15, 96),22	9662,(15, 97),2	9664,(15, 109),6	9670,(15, 113),4	9674,(15, 124),54	9728,(15, 153),4	9732,(15, 164),2	9734,(15, 165),2	9736,(15, 168),10	9746,(15, 171),2	9748,(15, 181),6	9754,(15, 196),4	9758,(15, 199),22	9780,(15, 200),44	9824,(16, 34),2	9826,(16, 35),2	9828,(16, 37),2	9830,(16, 69),42	9872,(16, 92),2	9874,(16, 100),30	9904,(16, 105),2	9906,(16, 114),10	9916,(16, 115),10	9926,(16, 118),2	9928,(16, 121),8	9936,(16, 124),2	9938,(16, 138),8	9946,(16, 142),4	9950,(16, 154),12	9962,(16, 166),18	9980,(16, 172),2	9982,(16, 176),2	9984,(16, 182),2	9986,(16, 199),10	9996,(1, 27),20	10016,(1, 36),2	10018,(1, 49),20	10038,(1, 54),4	10042,(1, 56),4	10046,(1, 58),2	10048,(1, 68),2	10050,(1, 72),40	10090,(1, 73),16	10106,(1, 79),6	10112,(1, 82),2	10114,(1, 89),2	10116,(1, 109),26	10142,(1, 113),2	10144,(1, 115),6	10150,(1, 118),36	10186,(1, 124),10	10196,(1, 142),10	10206,(1, 153),2	10208,(1, 155),2	10210,(1, 165),2	10212,(1, 185),4	10216,(1, 196),6	10222,(1, 200),4	10226,(157, 201),28	10254,(128, 201),28	10282,(144, 201),28	10310,(143, 201),28	10338,(42, 201),28	10366,(33, 201),28	10394,(152, 201),28	10422,(57, 201),28	10450,(87, 201),28	10478,(189, 201),28	10506,(198, 201),28	10534,(132, 201),28	10562,(75, 201),28	10590,(80, 201),28	10618,(103, 201),28	10646,(159, 201),28	10674,(186, 201),28	10702,(183, 201),28	10730,(23, 201),28	10758,(41, 201),28	10786,(44, 201),28	10814,(107, 201),28	10842,(120, 201),28	10870,(30, 201),28	10898,(71, 201),28	10926,(134, 201),28	10954,(135, 201),28	10982,(140, 201),28	11010,(158, 201),28	11038,(170, 201),28	11066,(194, 201),28	11094,(197, 201),28	11122,(31, 201),28	11150,(51, 201),28	11178,(59, 201),28	11206,(62, 201),28	11234,(106, 201),28	11262,(127, 201),28	11290,(83, 201),28	11318,(122, 201),28	11346,(48, 201),28	11374,(91, 201),28	11402,(45, 201),28	11430,(28, 201),28	11458,(29, 201),28	11486,(187, 201),28	11514,(175, 201),28	11542,(117, 201),28	11570,(108, 201),28	11598,(99, 201),28	11626,(66, 201),28	11654,(81, 201),28	11713,(24, 201),28	11896,(84, 201),28	12079,(88, 201),28	12262,(93, 201),28	12445,(111, 201),28	12628,(125, 201),28	12811,(129, 201),28	12994,(141, 201),28	13177,(148, 201),28	13360,(169, 201),28	13543,(193, 201),28	13726,(26, 201),28	13909,(46, 201),28	14092,(52, 201),28	14275,(55, 201),28	14458,(61, 201),28	14641,(63, 201),28	14824,(65, 201),28	15007,(139, 201),28	15190,(147, 201),28	15373,(151, 201),28	15556,(162, 201),28	15739,(180, 201),28	15922,(188, 201),28	16105,(191, 201),28	16288,(21, 201),28	16471,(22, 201),28	16654,(32, 201),28	16837,(39, 201),28	17020,(64, 201),28	17203,(70, 201),28	17386,(98, 201),28	17569,(110, 201),28	17752,(145, 201),28	17935,(146, 201),28	18118,(160, 201),28	18301,(192, 201),28	
