1738
# CPU
360,27,37	466,37,37	503,65,37	574,19,37	927,75,37	964,46,37	1001,55,37	
410,42,37	447,51,37	484,31,37	682,18,37	813,22,37	880,80,37	1008,60,37	1696,70,37	
50,8,37	315,44,37	373,17,37	492,33,37	529,53,37	566,25,37	603,62,37	861,72,37	
43,7,37	375,24,37	412,16,37	449,71,37	486,61,37	523,32,37	560,43,37	597,52,37	
36,6,37	138,15,37	223,30,37	283,21,37	332,50,37	402,59,37	489,41,37	541,69,37	727,79,37	
29,5,37	368,28,37	419,13,37	473,47,37	521,66,37	655,76,37	823,38,37	1635,56,37	
22,4,37	323,12,37	396,26,37	433,35,37	470,45,37	703,73,37	836,54,37	873,63,37	
15,3,37	296,11,37	333,14,37	419,49,37	456,29,37	578,40,37	615,68,37	661,78,37	849,58,37	
8,2,37	611,10,37	814,39,37	851,48,37	888,57,37	925,67,37	962,77,37	999,23,37	
0,0,1	1,1,37	314,34,37	351,74,37	388,9,37	425,20,37	507,64,37	753,36,37	1737,81,1	
# Incoming
120,(1, 19),5	125,(3, 19),4	129,(3, 27),1	130,(3, 46),1	131,(8, 37),2	133,(1, 27),11	144,(4, 27),3	147,(8, 75),2	172,(1, 37),44	216,(2, 27),3	219,(3, 37),26	257,(4, 46),25	287,(2, 55),2	289,(4, 55),22	311,(5, 27),1	314,(5, 37),1	315,(5, 46),1	317,(7, 75),3	323,(7, 19),9	332,(7, 27),28	366,(2, 65),20	386,(6, 55),1	403,(2, 75),23	426,(6, 19),7	433,(7, 37),33	473,(6, 75),5	485,(5, 65),10	502,(5, 55),24	526,(7, 55),17	543,(8, 19),31	586,(1, 75),3	703,(3, 75),224	927,(8, 46),17	944,(8, 55),13	
148,(1, 31),1	149,(3, 31),26	175,(4, 31),3	179,(4, 51),1	184,(4, 80),1	204,(2, 22),1	223,(2, 31),5	232,(2, 42),11	243,(4, 42),14	257,(8, 31),8	265,(8, 70),2	280,(7, 18),1	283,(3, 70),4	292,(7, 22),2	297,(5, 22),10	307,(7, 31),2	309,(7, 42),3	315,(2, 51),28	353,(2, 60),12	365,(4, 60),37	402,(5, 42),8	410,(7, 51),6	419,(4, 70),8	447,(6, 31),1	492,(3, 60),27	541,(5, 70),3	544,(7, 80),32	581,(1, 70),1	590,(6, 80),7	611,(6, 18),71	682,(6, 22),131	874,(5, 80),6	957,(8, 60),51	1635,(6, 70),61	
43,(0, 8),7	54,(3, 17),1	76,(3, 44),3	79,(3, 53),1	94,(3, 72),1	116,(1, 17),4	138,(4, 25),4	159,(1, 33),13	172,(4, 44),3	180,(4, 62),4	206,(3, 62),7	232,(1, 44),57	289,(2, 44),26	315,(4, 53),28	343,(5, 17),2	360,(7, 33),2	365,(2, 62),1	372,(6, 17),1	375,(5, 25),1	385,(7, 53),3	396,(2, 72),7	403,(3, 33),89	492,(4, 72),4	496,(5, 53),6	502,(6, 25),6	521,(7, 72),2	526,(5, 62),1	578,(6, 72),1	604,(5, 72),257	
36,(0, 7),7	80,(3, 71),1	82,(3, 43),10	92,(8, 24),2	108,(8, 32),4	112,(8, 52),1	128,(1, 24),4	132,(3, 52),10	142,(4, 16),1	149,(1, 32),10	229,(1, 43),3	243,(2, 43),3	261,(3, 61),17	278,(8, 43),17	295,(5, 16),2	307,(8, 71),8	317,(5, 61),3	320,(8, 61),13	333,(1, 61),3	337,(5, 71),3	345,(5, 24),30	375,(6, 16),8	383,(6, 32),1	384,(6, 61),2	387,(2, 71),9	402,(4, 61),17	419,(5, 32),59	478,(6, 43),11	489,(6, 52),9	
29,(0, 6),7	53,(3, 15),1	88,(2, 15),1	89,(8, 15),1	91,(8, 79),1	113,(8, 69),2	115,(1, 15),1	116,(8, 21),14	137,(4, 15),1	145,(1, 30),3	148,(4, 30),1	149,(8, 30),11	165,(4, 41),7	178,(4, 50),1	186,(2, 21),18	215,(2, 50),1	219,(2, 30),4	245,(3, 41),16	281,(7, 21),2	284,(4, 79),4	320,(3, 69),5	329,(1, 50),3	349,(2, 59),4	353,(3, 59),49	428,(2, 79),15	443,(4, 69),14	457,(8, 41),32	527,(5, 69),14	551,(5, 79),27	661,(1, 79),66	
22,(0, 5),7	46,(2, 13),8	54,(1, 13),42	96,(3, 28),25	125,(4, 13),12	139,(8, 66),1	142,(3, 56),6	149,(4, 38),1	160,(8, 76),2	214,(2, 47),1	216,(1, 38),13	230,(8, 56),6	240,(4, 66),3	243,(8, 47),11	278,(3, 66),5	289,(1, 47),37	332,(1, 56),1	343,(2, 56),1	344,(4, 47),20	364,(7, 28),4	374,(6, 66),1	382,(7, 38),3	386,(2, 66),1	387,(6, 13),32	419,(7, 76),3	426,(2, 76),2	468,(6, 47),5	507,(7, 66),14	589,(1, 76),66	753,(8, 38),70	949,(6, 56),686	
15,(0, 4),7	51,(1, 12),3	54,(2, 12),27	81,(3, 26),1	90,(8, 26),1	92,(3, 45),1	93,(3, 54),1	94,(8, 12),14	132,(1, 26),1	205,(2, 26),4	213,(2, 35),1	214,(3, 63),5	246,(2, 45),24	270,(2, 54),17	287,(3, 35),33	320,(5, 35),2	322,(7, 12),1	336,(1, 63),16	362,(7, 35),1	376,(5, 26),20	396,(5, 54),2	398,(7, 54),3	401,(7, 63),2	403,(7, 73),5	419,(6, 35),6	448,(6, 45),20	478,(5, 63),7	544,(5, 73),7	582,(1, 73),4	586,(3, 73),117	817,(6, 54),19	838,(6, 63),6	
8,(0, 3),7	50,(1, 11),1	81,(2, 14),7	96,(1, 14),19	133,(8, 40),6	143,(4, 29),1	144,(1, 29),1	156,(4, 40),9	165,(8, 14),38	209,(2, 29),4	223,(4, 49),14	255,(5, 11),13	268,(5, 14),27	295,(7, 11),1	296,(7, 14),1	307,(5, 29),4	312,(7, 49),5	328,(1, 49),1	336,(5, 68),1	337,(8, 78),7	344,(2, 58),5	368,(7, 29),14	388,(7, 58),10	410,(5, 49),9	433,(6, 29),14	508,(6, 40),70	579,(1, 68),2	581,(6, 78),9	655,(1, 78),6	823,(8, 58),26	
1,(0, 2),7	52,(3, 10),1	83,(4, 10),42	125,(1, 23),3	130,(8, 48),1	140,(8, 67),3	150,(4, 39),6	175,(3, 39),31	206,(8, 10),24	300,(7, 39),3	303,(7, 57),3	316,(5, 57),1	326,(1, 48),2	328,(3, 77),20	352,(1, 67),227	579,(5, 39),13	592,(5, 48),10	602,(5, 67),2	604,(6, 10),7	611,(7, 48),28	639,(7, 77),8	813,(6, 39),1	814,(6, 48),3	836,(6, 57),2	844,(6, 67),5	861,(5, 77),13	874,(6, 23),75	
45,(2, 9),1	55,(3, 20),14	69,(3, 34),7	76,(4, 9),7	87,(8, 9),2	89,(2, 20),97	186,(4, 34),25	211,(4, 36),12	228,(2, 34),4	237,(4, 64),3	240,(5, 9),15	255,(7, 9),25	282,(4, 74),2	284,(7, 20),8	297,(7, 34),3	300,(8, 34),7	312,(5, 34),2	315,(8, 74),5	322,(5, 36),14	336,(6, 9),36	373,(6, 64),1	374,(8, 20),48	422,(44, 81),4	427,(12, 81),4	431,(27, 81),4	435,(17, 81),4	439,(26, 81),4	447,(42, 81),4	466,(7, 64),41	507,(35, 81),4	511,(51, 81),4	515,(37, 81),4	519,(11, 81),4	523,(14, 81),4	527,(49, 81),4	531,(29, 81),4	535,(45, 81),4	539,(31, 81),4	543,(65, 81),4	574,(8, 36),179	753,(24, 81),4	757,(16, 81),4	761,(71, 81),4	765,(61, 81),4	769,(32, 81),4	773,(43, 81),4	777,(19, 81),4	781,(52, 81),4	785,(10, 81),4	789,(18, 81),4	793,(73, 81),4	849,(15, 81),4	853,(30, 81),4	857,(21, 81),4	861,(50, 81),4	865,(59, 81),4	869,(41, 81),4	873,(33, 81),4	880,(28, 81),4	884,(13, 81),4	888,(47, 81),4	892,(66, 81),4	896,(53, 81),4	900,(25, 81),4	904,(62, 81),4	908,(76, 81),4	912,(22, 81),4	916,(39, 81),4	920,(38, 81),4	927,(40, 81),4	931,(68, 81),4	935,(78, 81),4	939,(54, 81),4	943,(58, 81),4	947,(48, 81),4	951,(63, 81),4	955,(80, 81),4	959,(57, 81),4	963,(67, 81),4	967,(75, 81),4	999,(77, 81),4	1003,(46, 81),4	1008,(72, 81),4	1036,(23, 81),4	1040,(55, 81),4	1045,(60, 81),4	1672,(56, 81),4	1696,(69, 81),4	1700,(79, 81),4	1733,(70, 81),4	
# Outgoing
431,(27, 81),4	515,(37, 81),4	543,(65, 81),4	777,(19, 81),4	967,(75, 81),4	1003,(46, 81),4	1040,(55, 81),4	
447,(42, 81),4	511,(51, 81),4	539,(31, 81),4	789,(18, 81),4	912,(22, 81),4	955,(80, 81),4	1045,(60, 81),4	1733,(70, 81),4	
87,(8, 9),2	89,(8, 15),1	90,(8, 26),1	91,(8, 79),1	92,(8, 24),2	94,(8, 12),14	108,(8, 32),4	112,(8, 52),1	113,(8, 69),2	116,(8, 21),14	130,(8, 48),1	131,(8, 37),2	133,(8, 40),6	139,(8, 66),1	140,(8, 67),3	147,(8, 75),2	149,(8, 30),11	160,(8, 76),2	165,(8, 14),38	206,(8, 10),24	230,(8, 56),6	243,(8, 47),11	257,(8, 31),8	265,(8, 70),2	278,(8, 43),17	300,(8, 34),7	307,(8, 71),8	315,(8, 74),5	320,(8, 61),13	337,(8, 78),7	374,(8, 20),48	422,(44, 81),4	435,(17, 81),4	457,(8, 41),32	543,(8, 19),31	574,(8, 36),179	753,(8, 38),70	823,(8, 58),26	873,(33, 81),4	896,(53, 81),4	900,(25, 81),4	904,(62, 81),4	927,(8, 46),17	944,(8, 55),13	957,(8, 60),51	1008,(72, 81),4	
255,(7, 9),25	280,(7, 18),1	281,(7, 21),2	284,(7, 20),8	292,(7, 22),2	295,(7, 11),1	296,(7, 14),1	297,(7, 34),3	300,(7, 39),3	303,(7, 57),3	307,(7, 31),2	309,(7, 42),3	312,(7, 49),5	317,(7, 75),3	322,(7, 12),1	323,(7, 19),9	332,(7, 27),28	360,(7, 33),2	362,(7, 35),1	364,(7, 28),4	368,(7, 29),14	382,(7, 38),3	385,(7, 53),3	388,(7, 58),10	398,(7, 54),3	401,(7, 63),2	403,(7, 73),5	410,(7, 51),6	419,(7, 76),3	433,(7, 37),33	466,(7, 64),41	507,(7, 66),14	521,(7, 72),2	526,(7, 55),17	544,(7, 80),32	611,(7, 48),28	639,(7, 77),8	753,(24, 81),4	757,(16, 81),4	761,(71, 81),4	765,(61, 81),4	769,(32, 81),4	773,(43, 81),4	781,(52, 81),4	
336,(6, 9),36	372,(6, 17),1	373,(6, 64),1	374,(6, 66),1	375,(6, 16),8	383,(6, 32),1	384,(6, 61),2	386,(6, 55),1	387,(6, 13),32	419,(6, 35),6	426,(6, 19),7	433,(6, 29),14	447,(6, 31),1	448,(6, 45),20	468,(6, 47),5	473,(6, 75),5	478,(6, 43),11	489,(6, 52),9	502,(6, 25),6	508,(6, 40),70	578,(6, 72),1	581,(6, 78),9	590,(6, 80),7	604,(6, 10),7	611,(6, 18),71	682,(6, 22),131	813,(6, 39),1	814,(6, 48),3	817,(6, 54),19	836,(6, 57),2	838,(6, 63),6	844,(6, 67),5	849,(15, 81),4	853,(30, 81),4	857,(21, 81),4	861,(50, 81),4	865,(59, 81),4	869,(41, 81),4	874,(6, 23),75	949,(6, 56),686	1635,(6, 70),61	1696,(69, 81),4	1700,(79, 81),4	
240,(5, 9),15	255,(5, 11),13	268,(5, 14),27	295,(5, 16),2	297,(5, 22),10	307,(5, 29),4	311,(5, 27),1	312,(5, 34),2	314,(5, 37),1	315,(5, 46),1	316,(5, 57),1	317,(5, 61),3	320,(5, 35),2	322,(5, 36),14	336,(5, 68),1	337,(5, 71),3	343,(5, 17),2	345,(5, 24),30	375,(5, 25),1	376,(5, 26),20	396,(5, 54),2	402,(5, 42),8	410,(5, 49),9	419,(5, 32),59	478,(5, 63),7	485,(5, 65),10	496,(5, 53),6	502,(5, 55),24	526,(5, 62),1	527,(5, 69),14	541,(5, 70),3	544,(5, 73),7	551,(5, 79),27	579,(5, 39),13	592,(5, 48),10	602,(5, 67),2	604,(5, 72),257	861,(5, 77),13	874,(5, 80),6	880,(28, 81),4	884,(13, 81),4	888,(47, 81),4	892,(66, 81),4	908,(76, 81),4	920,(38, 81),4	1672,(56, 81),4	
76,(4, 9),7	83,(4, 10),42	125,(4, 13),12	137,(4, 15),1	138,(4, 25),4	142,(4, 16),1	143,(4, 29),1	144,(4, 27),3	148,(4, 30),1	149,(4, 38),1	150,(4, 39),6	156,(4, 40),9	165,(4, 41),7	172,(4, 44),3	175,(4, 31),3	178,(4, 50),1	179,(4, 51),1	180,(4, 62),4	184,(4, 80),1	186,(4, 34),25	211,(4, 36),12	223,(4, 49),14	237,(4, 64),3	240,(4, 66),3	243,(4, 42),14	257,(4, 46),25	282,(4, 74),2	284,(4, 79),4	289,(4, 55),22	315,(4, 53),28	344,(4, 47),20	365,(4, 60),37	402,(4, 61),17	419,(4, 70),8	427,(12, 81),4	439,(26, 81),4	443,(4, 69),14	492,(4, 72),4	507,(35, 81),4	535,(45, 81),4	793,(73, 81),4	939,(54, 81),4	951,(63, 81),4	
52,(3, 10),1	53,(3, 15),1	54,(3, 17),1	55,(3, 20),14	69,(3, 34),7	76,(3, 44),3	79,(3, 53),1	80,(3, 71),1	81,(3, 26),1	82,(3, 43),10	92,(3, 45),1	93,(3, 54),1	94,(3, 72),1	96,(3, 28),25	125,(3, 19),4	129,(3, 27),1	130,(3, 46),1	132,(3, 52),10	142,(3, 56),6	149,(3, 31),26	175,(3, 39),31	206,(3, 62),7	214,(3, 63),5	219,(3, 37),26	245,(3, 41),16	261,(3, 61),17	278,(3, 66),5	283,(3, 70),4	287,(3, 35),33	320,(3, 69),5	328,(3, 77),20	353,(3, 59),49	403,(3, 33),89	492,(3, 60),27	519,(11, 81),4	523,(14, 81),4	527,(49, 81),4	531,(29, 81),4	586,(3, 73),117	703,(3, 75),224	927,(40, 81),4	931,(68, 81),4	935,(78, 81),4	943,(58, 81),4	
45,(2, 9),1	46,(2, 13),8	54,(2, 12),27	81,(2, 14),7	88,(2, 15),1	89,(2, 20),97	186,(2, 21),18	204,(2, 22),1	205,(2, 26),4	209,(2, 29),4	213,(2, 35),1	214,(2, 47),1	215,(2, 50),1	216,(2, 27),3	219,(2, 30),4	223,(2, 31),5	228,(2, 34),4	232,(2, 42),11	243,(2, 43),3	246,(2, 45),24	270,(2, 54),17	287,(2, 55),2	289,(2, 44),26	315,(2, 51),28	343,(2, 56),1	344,(2, 58),5	349,(2, 59),4	353,(2, 60),12	365,(2, 62),1	366,(2, 65),20	386,(2, 66),1	387,(2, 71),9	396,(2, 72),7	403,(2, 75),23	426,(2, 76),2	428,(2, 79),15	785,(10, 81),4	916,(39, 81),4	947,(48, 81),4	959,(57, 81),4	963,(67, 81),4	999,(77, 81),4	1036,(23, 81),4	
1,(0, 2),7	8,(0, 3),7	15,(0, 4),7	22,(0, 5),7	29,(0, 6),7	36,(0, 7),7	43,(0, 8),7	50,(1, 11),1	51,(1, 12),3	54,(1, 13),42	96,(1, 14),19	115,(1, 15),1	116,(1, 17),4	120,(1, 19),5	125,(1, 23),3	128,(1, 24),4	132,(1, 26),1	133,(1, 27),11	144,(1, 29),1	145,(1, 30),3	148,(1, 31),1	149,(1, 32),10	159,(1, 33),13	172,(1, 37),44	216,(1, 38),13	229,(1, 43),3	232,(1, 44),57	289,(1, 47),37	326,(1, 48),2	328,(1, 49),1	329,(1, 50),3	332,(1, 56),1	333,(1, 61),3	336,(1, 63),16	352,(1, 67),227	579,(1, 68),2	581,(1, 70),1	582,(1, 73),4	586,(1, 75),3	589,(1, 76),66	655,(1, 78),6	661,(1, 79),66	
