608
# CPU
0,121,1	1,87,2	3,120,2	5,99,2	7,110,2	9,36,2	11,15,2	13,77,2	15,48,2	17,105,2	19,47,2	21,81,2	23,86,2	25,113,2	27,69,2	29,25,2	31,51,2	33,23,2	35,57,2	37,52,2	39,90,2	41,38,2	43,49,2	45,97,2	47,66,2	49,101,2	51,60,2	53,79,2	55,88,2	57,115,2	59,78,2	61,34,2	63,82,2	65,116,2	67,76,2	69,29,2	71,75,2	73,118,2	75,46,2	77,106,2	79,33,2	81,107,2	83,43,2	85,53,2	87,74,2	89,104,2	91,39,2	93,80,2	95,56,2	97,63,2	99,50,2	101,73,2	103,22,2	105,40,2	107,72,2	109,35,2	111,24,2	113,32,2	115,14,2	117,55,2	119,62,2	121,92,2	123,95,2	125,17,2	127,59,2	129,114,2	131,18,2	133,44,2	135,102,2	137,111,2	139,103,2	141,65,2	143,58,2	145,91,2	147,96,2	149,64,2	151,70,2	153,20,2	155,119,2	157,37,2	159,71,2	161,21,2	163,83,2	165,8,2	167,1,2	169,11,2	177,9,2	211,5,2	260,2,2	316,12,2	385,4,2	471,6,2	605,3,2	607,0,1	
7,108,2	13,94,2	19,109,2	25,93,2	31,67,2	37,61,2	43,68,2	49,89,2	55,26,2	61,41,2	67,28,2	73,16,2	79,84,2	85,19,2	91,100,2	97,54,2	103,13,2	109,27,2	115,112,2	121,31,2	127,117,2	133,85,2	139,98,2	145,42,2	151,45,2	157,30,2	234,7,2	449,10,2	
# Incoming
123,(31, 8),1	124,(94, 1),1	125,(26, 1),6	131,(54, 1),3	134,(28, 11),6	140,(85, 11),5	145,(94, 9),1	146,(67, 9),1	147,(16, 9),1	148,(100, 9),10	158,(109, 2),1	159,(30, 11),4	163,(13, 9),2	165,(85, 9),12	177,(19, 5),10	187,(112, 5),18	205,(45, 5),6	211,(61, 2),3	214,(26, 2),1	215,(19, 2),1	216,(54, 2),7	223,(112, 2),3	226,(31, 2),21	247,(117, 2),13	260,(7, 0),1	261,(93, 12),1	262,(28, 12),3	265,(16, 12),8	273,(84, 12),6	279,(100, 12),1	280,(13, 12),4	284,(27, 12),16	300,(98, 12),15	315,(45, 12),1	316,(93, 4),2	318,(89, 4),5	323,(27, 4),1	324,(31, 4),16	340,(117, 4),5	345,(85, 4),32	377,(30, 4),8	385,(100, 6),11	396,(13, 6),4	400,(112, 6),3	403,(117, 6),1	404,(42, 6),61	465,(30, 6),6	471,(10, 0),1	472,(26, 3),6	478,(41, 3),6	484,(16, 3),6	490,(84, 3),9	499,(19, 3),10	509,(100, 3),5	514,(13, 3),14	528,(112, 3),6	534,(45, 3),71	
1,(121, 108),6	7,(121, 94),6	13,(121, 109),6	19,(121, 93),6	25,(121, 67),6	31,(121, 61),6	37,(121, 68),6	43,(121, 89),6	49,(121, 26),6	55,(121, 41),6	61,(121, 28),6	67,(121, 16),6	73,(121, 84),6	79,(121, 19),6	85,(121, 100),6	91,(121, 54),6	97,(121, 13),6	103,(121, 27),6	109,(121, 112),6	115,(121, 31),6	121,(121, 117),6	127,(121, 85),6	133,(121, 98),6	139,(121, 42),6	145,(121, 45),6	151,(121, 30),6	157,(105, 7),1	158,(60, 7),1	159,(115, 7),1	160,(34, 7),3	163,(76, 7),2	165,(75, 7),7	172,(33, 7),2	174,(22, 7),1	175,(14, 7),3	178,(59, 7),26	204,(103, 7),1	205,(70, 7),1	206,(20, 7),23	229,(71, 7),5	234,(47, 10),1	235,(57, 10),3	238,(49, 10),4	242,(78, 10),1	243,(46, 10),8	251,(80, 10),3	254,(63, 10),12	266,(55, 10),19	285,(44, 10),31	316,(102, 10),33	349,(65, 10),41	390,(58, 10),34	424,(21, 10),1	425,(83, 10),24	
# Outgoing
1,(121, 108),6	7,(121, 94),6	13,(121, 109),6	19,(121, 93),6	25,(121, 67),6	31,(121, 61),6	37,(121, 68),6	43,(121, 89),6	49,(121, 26),6	55,(121, 41),6	61,(121, 28),6	67,(121, 16),6	73,(121, 84),6	79,(121, 19),6	85,(121, 100),6	91,(121, 54),6	97,(121, 13),6	103,(121, 27),6	109,(121, 112),6	115,(121, 31),6	121,(121, 117),6	127,(121, 85),6	133,(121, 98),6	139,(121, 42),6	145,(121, 45),6	151,(121, 30),6	157,(105, 7),1	158,(60, 7),1	159,(115, 7),1	160,(34, 7),3	163,(76, 7),2	165,(75, 7),7	172,(33, 7),2	174,(22, 7),1	175,(14, 7),3	178,(59, 7),26	204,(103, 7),1	205,(70, 7),1	206,(20, 7),23	229,(71, 7),5	234,(47, 10),1	235,(57, 10),3	238,(49, 10),4	242,(78, 10),1	243,(46, 10),8	251,(80, 10),3	254,(63, 10),12	266,(55, 10),19	285,(44, 10),31	316,(102, 10),33	349,(65, 10),41	390,(58, 10),34	424,(21, 10),1	425,(83, 10),24	
123,(31, 8),1	124,(94, 1),1	125,(26, 1),6	131,(54, 1),3	134,(28, 11),6	140,(85, 11),5	145,(94, 9),1	146,(67, 9),1	147,(16, 9),1	148,(100, 9),10	158,(109, 2),1	159,(30, 11),4	163,(13, 9),2	165,(85, 9),12	177,(19, 5),10	187,(112, 5),18	205,(45, 5),6	211,(61, 2),3	214,(26, 2),1	215,(19, 2),1	216,(54, 2),7	223,(112, 2),3	226,(31, 2),21	247,(117, 2),13	260,(7, 0),1	261,(93, 12),1	262,(28, 12),3	265,(16, 12),8	273,(84, 12),6	279,(100, 12),1	280,(13, 12),4	284,(27, 12),16	300,(98, 12),15	315,(45, 12),1	316,(93, 4),2	318,(89, 4),5	323,(27, 4),1	324,(31, 4),16	340,(117, 4),5	345,(85, 4),32	377,(30, 4),8	385,(100, 6),11	396,(13, 6),4	400,(112, 6),3	403,(117, 6),1	404,(42, 6),61	465,(30, 6),6	471,(10, 0),1	472,(26, 3),6	478,(41, 3),6	484,(16, 3),6	490,(84, 3),9	499,(19, 3),10	509,(100, 3),5	514,(13, 3),14	528,(112, 3),6	534,(45, 3),71	
