549
# CPU
0,0,1	1,5,1	2,22,1	3,69,1	4,50,1	5,113,1	6,53,1	7,54,1	8,55,1	9,2,1	10,119,1	11,95,1	12,41,1	13,32,1	14,20,1	15,74,1	16,108,1	17,86,1	18,39,1	19,63,1	20,7,1	21,15,1	22,48,1	23,17,1	24,94,1	25,43,1	26,3,1	27,51,1	28,78,1	29,89,1	30,81,1	31,85,1	32,6,1	33,111,1	34,110,1	35,102,1	36,84,1	37,46,1	38,79,1	39,80,1	40,18,1	41,45,1	42,14,1	43,115,1	44,68,1	45,120,1	46,12,1	47,105,1	48,56,1	49,35,1	50,23,1	51,77,1	52,70,1	53,76,1	54,33,1	55,26,1	56,40,1	57,97,1	58,4,1	59,118,1	60,116,1	61,36,1	62,13,1	63,61,1	64,106,1	65,92,1	66,67,1	67,31,1	68,71,1	69,91,1	70,11,1	71,42,1	72,66,1	73,83,1	74,90,1	75,24,1	76,109,1	77,87,1	78,57,1	79,98,1	80,104,1	81,25,1	82,59,1	83,34,1	84,117,1	85,75,1	86,10,1	87,114,1	88,62,1	89,30,1	90,93,1	91,19,1	92,100,1	93,1,1	94,47,1	95,82,1	96,21,1	97,58,1	98,49,1	99,65,1	100,99,1	101,29,1	102,52,1	103,103,1	104,44,1	127,28,1	195,27,1	547,38,1	548,121,1	
41,8,1	42,72,1	43,73,1	44,112,1	45,96,1	46,16,1	47,88,1	81,9,1	82,37,1	83,60,1	84,64,1	85,101,1	86,107,1	

# Incoming
43,(72, 121),4	47,(73, 121),4	51,(112, 121),4	55,(96, 121),4	59,(16, 121),4	63,(88, 121),4	83,(37, 121),4	87,(60, 121),4	91,(64, 121),4	95,(101, 121),4	99,(107, 121),4	103,(9, 28),24	127,(9, 27),68	195,(9, 38),352	
1,(0, 8),40	41,(0, 9),40	

# Outgoing
1,(0, 8),40	41,(0, 9),40	
43,(72, 121),4	47,(73, 121),4	51,(112, 121),4	55,(96, 121),4	59,(16, 121),4	63,(88, 121),4	83,(37, 121),4	87,(60, 121),4	91,(64, 121),4	95,(101, 121),4	99,(107, 121),4	103,(9, 28),24	127,(9, 27),68	195,(9, 38),352	

