6032
# CPU
55,10,18	472,120,18	643,100,18	913,90,18	1036,26,18	1792,30,18	1909,80,18	2020,50,18	2176,110,18	2503,40,18	2707,70,18	3109,60,18	
49,9,18	91,39,18	184,29,18	391,109,18	535,59,18	685,49,18	979,69,18	1027,25,18	1156,89,18	1897,79,18	3034,99,18	3703,119,18	
43,8,18	277,48,18	850,23,18	940,38,18	967,68,18	1126,28,18	1162,78,18	1189,98,18	2629,58,18	2839,88,18	3490,108,18	5119,118,18	
37,7,18	352,37,18	883,87,18	910,57,18	1015,21,18	1186,97,18	1252,117,18	1585,107,18	2278,27,18	2572,47,18	2692,67,18	2833,77,18	
31,6,18	988,18,18	1408,36,18	1774,46,18	1792,96,18	1810,106,18	1828,56,18	1864,66,18	2149,76,18	5104,24,18	5857,86,18	6010,116,18	
25,5,18	46,17,18	367,45,18	532,55,18	559,95,18	937,22,18	2434,35,18	2689,65,18	2782,75,18	2836,85,18	3217,105,18	3526,115,18	
19,4,18	175,54,18	484,64,18	742,16,18	1087,84,18	2263,20,18	2359,34,18	2566,44,18	2710,74,18	3031,94,18	3190,104,18	3496,114,18	
13,3,18	220,33,18	694,14,18	1636,73,18	1795,43,18	1831,63,18	2092,93,18	2839,113,18	2857,19,18	2965,83,18	3178,103,18	3562,53,18	
7,2,18	61,12,18	91,15,18	205,112,18	286,92,18	304,72,18	955,42,18	988,62,18	2125,102,18	2290,32,18	2626,52,18	2866,82,18	
0,0,1	1,1,18	19,11,18	295,51,18	601,61,18	850,31,18	949,13,18	1153,91,18	2035,71,18	2140,41,18	2176,111,18	4198,81,18	4516,101,18	6031,121,1	
# Incoming
49,(0, 10),6	55,(3, 26),3	58,(3, 30),138	196,(4, 26),33	229,(5, 90),18	247,(6, 30),3	250,(2, 40),111	361,(4, 80),15	376,(5, 26),78	454,(8, 30),6	463,(3, 110),3	469,(3, 120),3	472,(5, 30),75	547,(7, 40),72	619,(7, 100),24	643,(7, 110),6	649,(8, 50),18	667,(8, 110),9	766,(7, 80),102	868,(9, 40),3	883,(9, 90),30	937,(6, 60),81	1027,(1, 26),9	1042,(1, 30),750	1792,(12, 70),9	1897,(1, 80),12	1909,(12, 50),111	2167,(1, 110),9	2434,(11, 40),69	2629,(11, 60),15	2692,(11, 70),15	2707,(9, 60),402	
43,(0, 9),6	52,(3, 25),3	58,(5, 59),15	73,(8, 29),9	85,(6, 39),6	97,(8, 59),9	130,(5, 109),6	136,(2, 29),18	160,(6, 29),24	184,(6, 69),6	190,(6, 99),3	193,(7, 59),6	202,(3, 49),3	208,(5, 119),6	214,(7, 69),6	220,(8, 119),45	265,(10, 89),3	268,(10, 119),18	349,(3, 69),27	388,(4, 109),3	415,(7, 99),6	532,(2, 59),3	535,(6, 49),150	685,(7, 79),81	766,(10, 79),45	910,(2, 119),18	967,(12, 69),12	1024,(1, 25),3	1027,(6, 89),129	1894,(1, 79),3	2110,(1, 99),9	2179,(1, 119),78	3031,(11, 99),3	3547,(11, 119),156	
37,(0, 8),6	67,(6, 23),3	91,(6, 68),3	112,(2, 23),9	121,(2, 28),15	136,(5, 98),3	139,(4, 23),3	142,(4, 28),15	157,(7, 28),3	160,(7, 38),9	178,(2, 38),72	250,(3, 48),3	253,(10, 23),3	268,(6, 48),9	277,(6, 88),3	295,(7, 68),6	301,(7, 98),3	337,(3, 58),12	391,(4, 118),6	421,(6, 108),15	436,(7, 108),12	451,(3, 98),9	466,(3, 118),3	580,(2, 68),78	658,(2, 78),48	706,(5, 23),144	850,(9, 78),12	937,(12, 38),3	949,(12, 68),18	1036,(1, 28),6	1078,(12, 28),48	1138,(12, 78),24	1162,(12, 98),27	1189,(12, 108),18	2011,(1, 88),18	2626,(11, 58),3	2836,(11, 88),3	3217,(11, 108),273	3526,(11, 118),21	3547,(7, 118),1572	
31,(0, 7),6	61,(8, 21),3	70,(8, 57),3	73,(5, 67),3	76,(6, 27),9	91,(4, 21),48	139,(5, 21),24	163,(5, 107),3	166,(8, 107),15	190,(5, 77),6	196,(5, 97),9	229,(4, 27),81	310,(10, 27),15	325,(10, 37),27	352,(10, 77),3	355,(10, 87),3	358,(10, 117),3	367,(2, 47),117	484,(4, 57),36	520,(6, 107),12	535,(2, 67),45	580,(3, 77),60	640,(4, 67),81	721,(4, 117),51	790,(9, 47),24	814,(9, 67),12	838,(9, 77),3	841,(9, 97),3	859,(2, 97),12	871,(9, 87),12	883,(10, 57),27	988,(1, 21),27	1156,(6, 97),30	1186,(9, 117),66	1411,(4, 107),174	1864,(1, 67),30	1894,(10, 67),210	2263,(11, 27),15	2566,(11, 47),6	2689,(11, 67),3	2782,(11, 77),51	
25,(0, 6),6	46,(3, 24),6	55,(5, 18),3	64,(8, 24),3	76,(5, 96),3	82,(8, 56),15	97,(1, 18),891	988,(2, 36),9	997,(2, 96),3	1000,(3, 56),3	1003,(4, 24),3	1006,(4, 46),3	1009,(4, 56),6	1015,(1, 24),9	1024,(2, 66),54	1078,(3, 46),18	1096,(3, 86),42	1138,(7, 24),3	1141,(7, 46),6	1147,(7, 66),60	1207,(7, 76),15	1222,(8, 36),24	1246,(8, 76),24	1270,(8, 86),105	1375,(8, 106),12	1387,(9, 24),18	1405,(9, 36),3	1408,(4, 96),3	1411,(8, 116),198	1609,(9, 56),48	1657,(9, 66),3	1660,(10, 56),21	1681,(10, 66),27	1708,(10, 76),3	1711,(10, 106),9	1720,(5, 66),45	1765,(12, 46),9	1774,(12, 96),6	1780,(12, 106),3	1798,(1, 56),3	1852,(1, 66),12	1864,(7, 116),180	2044,(9, 76),105	2176,(1, 116),3	2179,(2, 116),1971	4150,(4, 86),945	5095,(11, 24),9	5104,(11, 86),72	5176,(7, 86),681	5857,(9, 116),153	
19,(0, 5),6	31,(3, 17),15	79,(2, 22),33	115,(8, 85),3	127,(7, 22),3	160,(2, 35),18	178,(4, 55),6	184,(4, 65),3	187,(4, 75),9	199,(6, 105),3	220,(7, 75),18	241,(10, 22),3	247,(10, 55),3	253,(3, 55),84	337,(4, 35),24	361,(2, 45),6	376,(4, 105),12	397,(3, 75),24	436,(6, 115),15	460,(3, 105),3	466,(10, 115),15	484,(2, 55),48	532,(10, 95),27	649,(7, 115),24	772,(9, 35),15	826,(9, 75),12	850,(2, 85),6	928,(12, 22),9	1000,(12, 75),15	1015,(12, 85),3	1222,(7, 85),561	1831,(1, 65),21	2359,(11, 35),75	2644,(11, 65),45	2710,(11, 75),72	2833,(11, 85),3	3190,(11, 105),27	3496,(11, 115),30	
13,(0, 4),6	61,(1, 16),36	97,(6, 20),6	103,(6, 44),9	112,(8, 44),3	115,(5, 20),6	121,(6, 16),39	169,(7, 54),6	175,(7, 64),3	184,(7, 84),6	196,(3, 34),6	202,(7, 114),6	244,(3, 64),3	247,(3, 74),3	250,(5, 64),57	307,(7, 44),108	415,(10, 20),24	448,(3, 84),3	451,(6, 64),33	484,(10, 44),3	511,(10, 74),3	694,(9, 16),48	742,(9, 20),30	904,(2, 114),6	979,(12, 74),9	988,(9, 84),99	1207,(12, 114),108	2092,(1, 94),18	2158,(1, 104),9	2257,(11, 20),6	2290,(11, 34),69	2503,(11, 44),63	2707,(11, 74),3	2965,(11, 94),66	3178,(11, 104),12	3490,(11, 114),6	
7,(0, 3),6	31,(2, 19),48	79,(5, 14),36	115,(6, 33),3	118,(6, 83),3	121,(5, 33),9	130,(8, 113),3	133,(7, 33),3	154,(7, 73),3	166,(4, 83),12	178,(7, 63),6	190,(7, 93),3	193,(8, 33),27	220,(10, 14),21	241,(6, 113),6	280,(6, 93),54	334,(4, 103),3	337,(6, 53),84	460,(8, 73),45	505,(8, 93),87	592,(10, 73),36	667,(9, 14),27	694,(10, 83),48	787,(9, 43),3	844,(9, 113),3	847,(2, 83),3	856,(2, 93),3	871,(2, 103),27	901,(2, 113),3	904,(5, 83),219	1123,(9, 103),12	1135,(12, 53),3	1153,(4, 93),255	1408,(9, 53),45	1453,(10, 93),54	1507,(12, 73),129	1792,(1, 43),3	1795,(1, 53),3	1801,(1, 63),30	2029,(1, 93),63	2125,(1, 103),33	2158,(4, 113),681	2839,(11, 19),9	2866,(11, 83),99	3034,(11, 103),144	3178,(5, 53),384	
1,(0, 2),6	55,(0, 12),6	61,(4, 15),30	112,(6, 92),3	136,(7, 52),3	139,(7, 62),15	157,(4, 42),6	163,(4, 62),3	166,(5, 62),24	202,(6, 112),3	205,(3, 52),33	238,(3, 62),6	244,(10, 32),3	250,(6, 42),18	268,(8, 92),18	286,(10, 72),3	307,(5, 82),24	331,(5, 102),33	364,(8, 82),57	439,(10, 42),27	685,(6, 52),252	937,(9, 42),18	955,(9, 62),33	1087,(9, 102),3	1909,(1, 82),102	2119,(1, 102),6	2278,(11, 32),12	2572,(11, 52),54	2848,(11, 82),18	
25,(2, 13),6	43,(5, 13),12	55,(6, 13),12	67,(8, 31),3	70,(6, 31),6	94,(6, 81),3	97,(7, 13),30	127,(8, 91),3	130,(7, 31),3	154,(2, 31),6	193,(6, 101),6	205,(5, 111),3	208,(6, 61),33	241,(7, 51),54	295,(48, 121),3	310,(4, 81),24	364,(17, 121),3	376,(3, 71),21	397,(54, 121),3	421,(3, 81),27	448,(7, 71),15	463,(37, 121),3	466,(45, 121),3	472,(33, 121),3	487,(10, 61),24	514,(120, 121),3	520,(4, 61),81	601,(9, 13),66	667,(55, 121),3	670,(95, 121),3	673,(100, 121),3	706,(2, 81),141	847,(9, 31),3	850,(64, 121),3	853,(14, 121),3	856,(16, 121),3	862,(9, 101),6	868,(23, 121),3	898,(2, 111),3	901,(87, 121),3	910,(10, 111),30	940,(12, 13),9	949,(57, 121),3	952,(90, 121),3	958,(38, 121),3	985,(68, 121),3	1015,(4, 91),138	1153,(5, 41),567	1720,(6, 111),42	1762,(8, 71),273	2035,(12, 41),105	2140,(15, 121),3	2143,(112, 121),3	2146,(92, 121),3	2149,(9, 111),27	2176,(39, 121),3	2179,(29, 121),3	2182,(109, 121),3	2185,(59, 121),3	2188,(49, 121),3	2191,(22, 121),3	2194,(69, 121),3	2197,(18, 121),3	2200,(21, 121),3	2203,(25, 121),3	2206,(26, 121),3	2209,(28, 121),3	2212,(89, 121),3	2215,(78, 121),3	2218,(97, 121),3	2221,(98, 121),3	2224,(117, 121),3	2227,(36, 121),3	2230,(107, 121),3	2233,(73, 121),3	2236,(46, 121),3	2239,(30, 121),3	2242,(96, 121),3	2245,(43, 121),3	2248,(106, 121),3	2251,(56, 121),3	2254,(63, 121),3	2257,(66, 121),3	2260,(79, 121),3	2263,(80, 121),3	2266,(50, 121),3	2269,(93, 121),3	2272,(76, 121),3	2275,(110, 121),3	2296,(27, 121),3	2452,(35, 121),3	2521,(40, 121),3	2590,(47, 121),3	2647,(58, 121),3	2707,(65, 121),3	2710,(67, 121),3	2725,(70, 121),3	2800,(75, 121),3	2839,(84, 121),3	2842,(20, 121),3	2845,(34, 121),3	2848,(44, 121),3	2851,(74, 121),3	2854,(77, 121),3	2857,(85, 121),3	2860,(113, 121),3	2863,(88, 121),3	2875,(19, 121),3	2983,(83, 121),3	3049,(94, 121),3	3109,(99, 121),3	3127,(60, 121),3	3196,(103, 121),3	3208,(104, 121),3	3508,(108, 121),3	3514,(114, 121),3	3562,(105, 121),3	3565,(115, 121),3	3580,(53, 121),3	3721,(119, 121),3	4150,(12, 81),48	4198,(12, 101),318	4516,(72, 121),3	4519,(42, 121),3	4522,(62, 121),3	4525,(102, 121),3	4528,(32, 121),3	4531,(52, 121),3	4534,(82, 121),3	5122,(24, 121),3	5137,(118, 121),3	5875,(86, 121),3	6028,(116, 121),3	
# Outgoing
220,(10, 14),21	241,(10, 22),3	244,(10, 32),3	247,(10, 55),3	253,(10, 23),3	265,(10, 89),3	268,(10, 119),18	286,(10, 72),3	310,(10, 27),15	325,(10, 37),27	352,(10, 77),3	355,(10, 87),3	358,(10, 117),3	415,(10, 20),24	439,(10, 42),27	466,(10, 115),15	484,(10, 44),3	487,(10, 61),24	511,(10, 74),3	514,(120, 121),3	532,(10, 95),27	592,(10, 73),36	673,(100, 121),3	694,(10, 83),48	766,(10, 79),45	883,(10, 57),27	910,(10, 111),30	952,(90, 121),3	1453,(10, 93),54	1660,(10, 56),21	1681,(10, 66),27	1708,(10, 76),3	1711,(10, 106),9	1894,(10, 67),210	2206,(26, 121),3	2239,(30, 121),3	2263,(80, 121),3	2266,(50, 121),3	2275,(110, 121),3	2521,(40, 121),3	2725,(70, 121),3	3127,(60, 121),3	
601,(9, 13),66	667,(9, 14),27	694,(9, 16),48	742,(9, 20),30	772,(9, 35),15	787,(9, 43),3	790,(9, 47),24	814,(9, 67),12	826,(9, 75),12	838,(9, 77),3	841,(9, 97),3	844,(9, 113),3	847,(9, 31),3	850,(9, 78),12	862,(9, 101),6	868,(9, 40),3	871,(9, 87),12	883,(9, 90),30	937,(9, 42),18	955,(9, 62),33	988,(9, 84),99	1087,(9, 102),3	1123,(9, 103),12	1186,(9, 117),66	1387,(9, 24),18	1405,(9, 36),3	1408,(9, 53),45	1609,(9, 56),48	1657,(9, 66),3	2044,(9, 76),105	2149,(9, 111),27	2176,(39, 121),3	2179,(29, 121),3	2182,(109, 121),3	2185,(59, 121),3	2188,(49, 121),3	2194,(69, 121),3	2203,(25, 121),3	2212,(89, 121),3	2260,(79, 121),3	2707,(9, 60),402	3109,(99, 121),3	3721,(119, 121),3	5857,(9, 116),153	
61,(8, 21),3	64,(8, 24),3	67,(8, 31),3	70,(8, 57),3	73,(8, 29),9	82,(8, 56),15	97,(8, 59),9	112,(8, 44),3	115,(8, 85),3	127,(8, 91),3	130,(8, 113),3	166,(8, 107),15	193,(8, 33),27	220,(8, 119),45	268,(8, 92),18	295,(48, 121),3	364,(8, 82),57	454,(8, 30),6	460,(8, 73),45	505,(8, 93),87	649,(8, 50),18	667,(8, 110),9	868,(23, 121),3	958,(38, 121),3	985,(68, 121),3	1222,(8, 36),24	1246,(8, 76),24	1270,(8, 86),105	1375,(8, 106),12	1411,(8, 116),198	1762,(8, 71),273	2209,(28, 121),3	2215,(78, 121),3	2221,(98, 121),3	2647,(58, 121),3	2863,(88, 121),3	3508,(108, 121),3	5137,(118, 121),3	
97,(7, 13),30	127,(7, 22),3	130,(7, 31),3	133,(7, 33),3	136,(7, 52),3	139,(7, 62),15	154,(7, 73),3	157,(7, 28),3	160,(7, 38),9	169,(7, 54),6	175,(7, 64),3	178,(7, 63),6	184,(7, 84),6	190,(7, 93),3	193,(7, 59),6	202,(7, 114),6	214,(7, 69),6	220,(7, 75),18	241,(7, 51),54	295,(7, 68),6	301,(7, 98),3	307,(7, 44),108	415,(7, 99),6	436,(7, 108),12	448,(7, 71),15	463,(37, 121),3	547,(7, 40),72	619,(7, 100),24	643,(7, 110),6	649,(7, 115),24	685,(7, 79),81	766,(7, 80),102	901,(87, 121),3	949,(57, 121),3	1138,(7, 24),3	1141,(7, 46),6	1147,(7, 66),60	1207,(7, 76),15	1222,(7, 85),561	1864,(7, 116),180	2200,(21, 121),3	2218,(97, 121),3	2224,(117, 121),3	2230,(107, 121),3	2296,(27, 121),3	2590,(47, 121),3	2710,(67, 121),3	2854,(77, 121),3	3547,(7, 118),1572	5176,(7, 86),681	
55,(6, 13),12	67,(6, 23),3	70,(6, 31),6	76,(6, 27),9	85,(6, 39),6	91,(6, 68),3	94,(6, 81),3	97,(6, 20),6	103,(6, 44),9	112,(6, 92),3	115,(6, 33),3	118,(6, 83),3	121,(6, 16),39	160,(6, 29),24	184,(6, 69),6	190,(6, 99),3	193,(6, 101),6	199,(6, 105),3	202,(6, 112),3	208,(6, 61),33	241,(6, 113),6	247,(6, 30),3	250,(6, 42),18	268,(6, 48),9	277,(6, 88),3	280,(6, 93),54	337,(6, 53),84	421,(6, 108),15	436,(6, 115),15	451,(6, 64),33	520,(6, 107),12	535,(6, 49),150	685,(6, 52),252	937,(6, 60),81	1027,(6, 89),129	1156,(6, 97),30	1720,(6, 111),42	2197,(18, 121),3	2227,(36, 121),3	2236,(46, 121),3	2242,(96, 121),3	2248,(106, 121),3	2251,(56, 121),3	2257,(66, 121),3	2272,(76, 121),3	5122,(24, 121),3	5875,(86, 121),3	6028,(116, 121),3	
43,(5, 13),12	55,(5, 18),3	58,(5, 59),15	73,(5, 67),3	76,(5, 96),3	79,(5, 14),36	115,(5, 20),6	121,(5, 33),9	130,(5, 109),6	136,(5, 98),3	139,(5, 21),24	163,(5, 107),3	166,(5, 62),24	190,(5, 77),6	196,(5, 97),9	205,(5, 111),3	208,(5, 119),6	229,(5, 90),18	250,(5, 64),57	307,(5, 82),24	331,(5, 102),33	364,(17, 121),3	376,(5, 26),78	466,(45, 121),3	472,(5, 30),75	667,(55, 121),3	670,(95, 121),3	706,(5, 23),144	904,(5, 83),219	1153,(5, 41),567	1720,(5, 66),45	2191,(22, 121),3	2452,(35, 121),3	2707,(65, 121),3	2800,(75, 121),3	2857,(85, 121),3	3178,(5, 53),384	3562,(105, 121),3	3565,(115, 121),3	
61,(4, 15),30	91,(4, 21),48	139,(4, 23),3	142,(4, 28),15	157,(4, 42),6	163,(4, 62),3	166,(4, 83),12	178,(4, 55),6	184,(4, 65),3	187,(4, 75),9	196,(4, 26),33	229,(4, 27),81	310,(4, 81),24	334,(4, 103),3	337,(4, 35),24	361,(4, 80),15	376,(4, 105),12	388,(4, 109),3	391,(4, 118),6	397,(54, 121),3	484,(4, 57),36	520,(4, 61),81	640,(4, 67),81	721,(4, 117),51	850,(64, 121),3	856,(16, 121),3	1003,(4, 24),3	1006,(4, 46),3	1009,(4, 56),6	1015,(4, 91),138	1153,(4, 93),255	1408,(4, 96),3	1411,(4, 107),174	2158,(4, 113),681	2839,(84, 121),3	2842,(20, 121),3	2845,(34, 121),3	2848,(44, 121),3	2851,(74, 121),3	3049,(94, 121),3	3208,(104, 121),3	3514,(114, 121),3	4150,(4, 86),945	
31,(3, 17),15	46,(3, 24),6	52,(3, 25),3	55,(3, 26),3	58,(3, 30),138	196,(3, 34),6	202,(3, 49),3	205,(3, 52),33	238,(3, 62),6	244,(3, 64),3	247,(3, 74),3	250,(3, 48),3	253,(3, 55),84	337,(3, 58),12	349,(3, 69),27	376,(3, 71),21	397,(3, 75),24	421,(3, 81),27	448,(3, 84),3	451,(3, 98),9	460,(3, 105),3	463,(3, 110),3	466,(3, 118),3	469,(3, 120),3	472,(33, 121),3	580,(3, 77),60	853,(14, 121),3	1000,(3, 56),3	1078,(3, 46),18	1096,(3, 86),42	2233,(73, 121),3	2245,(43, 121),3	2254,(63, 121),3	2269,(93, 121),3	2860,(113, 121),3	2875,(19, 121),3	2983,(83, 121),3	3196,(103, 121),3	3580,(53, 121),3	
25,(2, 13),6	31,(2, 19),48	79,(2, 22),33	112,(2, 23),9	121,(2, 28),15	136,(2, 29),18	154,(2, 31),6	160,(2, 35),18	178,(2, 38),72	250,(2, 40),111	361,(2, 45),6	367,(2, 47),117	484,(2, 55),48	532,(2, 59),3	535,(2, 67),45	580,(2, 68),78	658,(2, 78),48	706,(2, 81),141	847,(2, 83),3	850,(2, 85),6	856,(2, 93),3	859,(2, 97),12	871,(2, 103),27	898,(2, 111),3	901,(2, 113),3	904,(2, 114),6	910,(2, 119),18	928,(12, 22),9	937,(12, 38),3	940,(12, 13),9	949,(12, 68),18	967,(12, 69),12	979,(12, 74),9	988,(2, 36),9	997,(2, 96),3	1000,(12, 75),15	1015,(12, 85),3	1024,(2, 66),54	1078,(12, 28),48	1135,(12, 53),3	1138,(12, 78),24	1162,(12, 98),27	1189,(12, 108),18	1207,(12, 114),108	1507,(12, 73),129	1765,(12, 46),9	1774,(12, 96),6	1780,(12, 106),3	1792,(12, 70),9	1909,(12, 50),111	2035,(12, 41),105	2140,(15, 121),3	2143,(112, 121),3	2146,(92, 121),3	2179,(2, 116),1971	4150,(12, 81),48	4198,(12, 101),318	4516,(72, 121),3	4519,(42, 121),3	4522,(62, 121),3	4525,(102, 121),3	4528,(32, 121),3	4531,(52, 121),3	4534,(82, 121),3	
1,(0, 2),6	7,(0, 3),6	13,(0, 4),6	19,(0, 5),6	25,(0, 6),6	31,(0, 7),6	37,(0, 8),6	43,(0, 9),6	49,(0, 10),6	55,(0, 12),6	61,(1, 16),36	97,(1, 18),891	988,(1, 21),27	1015,(1, 24),9	1024,(1, 25),3	1027,(1, 26),9	1036,(1, 28),6	1042,(1, 30),750	1792,(1, 43),3	1795,(1, 53),3	1798,(1, 56),3	1801,(1, 63),30	1831,(1, 65),21	1852,(1, 66),12	1864,(1, 67),30	1894,(1, 79),3	1897,(1, 80),12	1909,(1, 82),102	2011,(1, 88),18	2029,(1, 93),63	2092,(1, 94),18	2110,(1, 99),9	2119,(1, 102),6	2125,(1, 103),33	2158,(1, 104),9	2167,(1, 110),9	2176,(1, 116),3	2179,(1, 119),78	2257,(11, 20),6	2263,(11, 27),15	2278,(11, 32),12	2290,(11, 34),69	2359,(11, 35),75	2434,(11, 40),69	2503,(11, 44),63	2566,(11, 47),6	2572,(11, 52),54	2626,(11, 58),3	2629,(11, 60),15	2644,(11, 65),45	2689,(11, 67),3	2692,(11, 70),15	2707,(11, 74),3	2710,(11, 75),72	2782,(11, 77),51	2833,(11, 85),3	2836,(11, 88),3	2839,(11, 19),9	2848,(11, 82),18	2866,(11, 83),99	2965,(11, 94),66	3031,(11, 99),3	3034,(11, 103),144	3178,(11, 104),12	3190,(11, 105),27	3217,(11, 108),273	3490,(11, 114),6	3496,(11, 115),30	3526,(11, 118),21	3547,(11, 119),156	5095,(11, 24),9	5104,(11, 86),72	
