10330
# CPU
385,5,1	633,34,1	2537,65,1	2769,45,1	2877,58,1	2901,64,1	2981,47,1	3333,80,1	3349,25,1	3353,30,1	3369,52,1	3649,31,1	3661,40,1	3665,43,1	3681,49,1	3737,50,1	3741,53,1	3745,54,1	3749,55,1	3801,56,1	3805,59,1	3817,60,1	3821,61,1	3837,66,1	3897,68,1	3937,71,1	3941,72,1	3945,73,1	3949,74,1	3993,78,1	9181,77,1	9209,18,1	9801,29,1	9805,37,1	9885,48,1	10153,67,1	10229,69,1	10237,70,1	10249,75,1	10317,79,1	10329,81,1	
289,4,1	601,33,1	673,41,1	777,39,1	997,63,1	1149,36,1	1409,57,1	9125,76,1	9201,17,1	9257,24,1	9877,44,1	
193,3,1	353,19,1	357,32,1	577,8,1	605,16,1	617,27,1	641,13,1	677,46,1	841,42,1	881,23,1	893,38,1	1153,51,1	9233,22,1	10149,62,1	
97,2,1	481,7,1	1173,35,1	1189,12,1	2349,14,1	2433,15,1	2533,20,1	3097,21,1	9189,11,1	9437,26,1	9797,28,1	
0,0,1	1,1,1	2,6,1	426,9,1	2269,10,1	
# Incoming
289,(0, 5),96	385,(2, 25),172	557,(2, 30),12	569,(3, 59),4	573,(3, 61),8	581,(4, 25),20	601,(2, 34),32	633,(2, 43),24	657,(2, 45),4	661,(2, 56),4	665,(2, 59),4	669,(2, 66),8	677,(1, 47),4	681,(1, 49),416	1097,(2, 48),32	1129,(2, 73),4	1133,(2, 75),20	1153,(1, 53),44	1197,(2, 79),4	1201,(3, 67),4	1205,(3, 71),4	1209,(1, 59),24	1233,(1, 60),208	1441,(1, 61),56	1497,(1, 65),48	1545,(1, 67),4	1549,(1, 68),20	1569,(1, 71),688	2257,(1, 75),112	2369,(2, 37),60	2429,(2, 49),36	2465,(2, 58),40	2505,(2, 65),32	2537,(3, 25),100	2637,(3, 31),40	2677,(3, 37),16	2693,(3, 45),76	2769,(3, 47),32	2801,(3, 49),36	2837,(3, 50),24	2861,(3, 58),16	2877,(3, 64),24	2901,(3, 70),20	2921,(4, 40),4	2925,(4, 47),56	2981,(4, 48),264	3245,(4, 60),28	3273,(4, 66),28	3301,(4, 70),12	3313,(4, 72),4	3317,(4, 73),8	3325,(4, 80),8	3333,(19, 81),4	3337,(32, 81),4	3341,(7, 25),8	3349,(7, 30),4	3353,(7, 31),4	3357,(7, 37),4	3361,(7, 50),4	3365,(7, 52),4	3369,(7, 53),4	3373,(7, 56),28	3401,(7, 60),20	3421,(7, 69),92	3513,(7, 72),92	3605,(7, 77),28	3633,(8, 29),4	3637,(8, 31),12	3649,(8, 40),12	3661,(8, 43),4	3665,(8, 48),4	3669,(8, 49),12	3681,(8, 50),56	3737,(8, 53),4	3741,(8, 54),4	3745,(8, 55),4	3749,(8, 56),52	3801,(8, 59),4	3805,(8, 60),12	3817,(8, 61),4	3821,(8, 66),16	3837,(8, 67),8	3845,(8, 68),52	3897,(8, 69),4	3901,(8, 71),36	3937,(8, 72),4	3941,(8, 73),4	3945,(8, 74),4	3949,(8, 77),8	3957,(8, 78),36	3993,(33, 81),4	3997,(16, 81),4	4001,(27, 81),4	4005,(13, 81),4	4009,(41, 81),4	4013,(46, 81),4	4017,(39, 81),4	4021,(42, 81),4	4025,(23, 81),4	4029,(38, 81),4	4033,(63, 81),4	4037,(36, 81),4	4041,(51, 81),4	4045,(35, 81),4	4049,(12, 81),4	4053,(57, 81),4	4057,(14, 81),4	4061,(15, 81),4	4065,(20, 81),4	4069,(21, 81),4	9125,(1, 77),56	9181,(1, 79),4	9185,(76, 81),4	9190,(11, 81),4	9201,(6, 18),8	9209,(17, 81),4	9234,(22, 81),4	9258,(24, 81),4	9438,(26, 81),4	9797,(6, 29),4	9801,(6, 37),4	9805,(28, 81),4	9877,(6, 48),8	9885,(44, 81),4	10149,(6, 67),4	10153,(6, 69),76	10229,(6, 70),8	10237,(6, 75),12	10249,(6, 79),68	10317,(9, 81),4	10321,(10, 81),4	10325,(62, 81),4	
193,(0, 4),96	289,(2, 17),4	357,(2, 39),4	378,(3, 41),24	402,(3, 57),4	569,(2, 33),32	617,(1, 39),48	665,(1, 41),8	673,(5, 39),80	753,(7, 17),8	761,(7, 39),16	865,(3, 63),132	997,(5, 76),148	1145,(8, 36),4	1197,(1, 57),12	1209,(7, 44),84	1293,(7, 57),116	2369,(1, 76),6756	9189,(6, 17),12	9233,(6, 24),24	9805,(6, 44),72	
97,(0, 3),96	293,(2, 19),60	353,(2, 32),4	361,(2, 42),12	373,(2, 62),4	438,(4, 22),4	442,(4, 23),20	462,(4, 27),8	481,(0, 8),96	577,(5, 46),4	581,(1, 16),24	605,(1, 27),12	617,(4, 42),16	633,(5, 13),8	641,(5, 22),20	661,(5, 51),4	673,(1, 46),4	677,(4, 51),76	753,(5, 42),88	841,(5, 62),12	853,(7, 23),28	881,(7, 38),12	1097,(1, 51),56	9209,(6, 22),24	9885,(6, 62),264	
1,(0, 2),96	314,(3, 11),36	350,(3, 12),4	354,(3, 20),20	374,(3, 26),4	385,(0, 7),96	481,(3, 35),8	489,(4, 15),48	537,(4, 20),8	545,(5, 11),32	577,(1, 12),4	581,(3, 15),284	865,(4, 11),100	965,(4, 35),208	1173,(8, 11),4	1177,(8, 12),12	2269,(8, 14),80	2349,(8, 15),84	2433,(8, 20),100	2921,(8, 21),176	9185,(6, 11),4	9257,(6, 26),180	9437,(6, 28),360	
194,(3, 10),120	314,(4, 9),112	426,(4, 10),12	1209,(8, 10),1060	
# Outgoing
545,(5, 11),32	577,(5, 46),4	633,(5, 13),8	641,(5, 22),20	661,(5, 51),4	673,(5, 39),80	753,(5, 42),88	841,(5, 62),12	997,(5, 76),148	
314,(4, 9),112	426,(4, 10),12	438,(4, 22),4	442,(4, 23),20	462,(4, 27),8	489,(4, 15),48	537,(4, 20),8	581,(4, 25),20	617,(4, 42),16	677,(4, 51),76	865,(4, 11),100	965,(4, 35),208	2921,(4, 40),4	2925,(4, 47),56	2981,(4, 48),264	3245,(4, 60),28	3273,(4, 66),28	3301,(4, 70),12	3313,(4, 72),4	3317,(4, 73),8	3325,(4, 80),8	3993,(33, 81),4	4009,(41, 81),4	4017,(39, 81),4	4033,(63, 81),4	4037,(36, 81),4	4053,(57, 81),4	9185,(76, 81),4	9209,(17, 81),4	9258,(24, 81),4	9885,(44, 81),4	
194,(3, 10),120	314,(3, 11),36	350,(3, 12),4	354,(3, 20),20	374,(3, 26),4	378,(3, 41),24	402,(3, 57),4	481,(3, 35),8	569,(3, 59),4	573,(3, 61),8	581,(3, 15),284	865,(3, 63),132	1145,(8, 36),4	1173,(8, 11),4	1177,(8, 12),12	1201,(3, 67),4	1205,(3, 71),4	1209,(8, 10),1060	2269,(8, 14),80	2349,(8, 15),84	2433,(8, 20),100	2537,(3, 25),100	2637,(3, 31),40	2677,(3, 37),16	2693,(3, 45),76	2769,(3, 47),32	2801,(3, 49),36	2837,(3, 50),24	2861,(3, 58),16	2877,(3, 64),24	2901,(3, 70),20	2921,(8, 21),176	3333,(19, 81),4	3337,(32, 81),4	3633,(8, 29),4	3637,(8, 31),12	3649,(8, 40),12	3661,(8, 43),4	3665,(8, 48),4	3669,(8, 49),12	3681,(8, 50),56	3737,(8, 53),4	3741,(8, 54),4	3745,(8, 55),4	3749,(8, 56),52	3801,(8, 59),4	3805,(8, 60),12	3817,(8, 61),4	3821,(8, 66),16	3837,(8, 67),8	3845,(8, 68),52	3897,(8, 69),4	3901,(8, 71),36	3937,(8, 72),4	3941,(8, 73),4	3945,(8, 74),4	3949,(8, 77),8	3957,(8, 78),36	3997,(16, 81),4	4001,(27, 81),4	4005,(13, 81),4	4013,(46, 81),4	4021,(42, 81),4	4025,(23, 81),4	4029,(38, 81),4	4041,(51, 81),4	9234,(22, 81),4	10325,(62, 81),4	
289,(2, 17),4	293,(2, 19),60	353,(2, 32),4	357,(2, 39),4	361,(2, 42),12	373,(2, 62),4	385,(2, 25),172	557,(2, 30),12	569,(2, 33),32	601,(2, 34),32	633,(2, 43),24	657,(2, 45),4	661,(2, 56),4	665,(2, 59),4	669,(2, 66),8	753,(7, 17),8	761,(7, 39),16	853,(7, 23),28	881,(7, 38),12	1097,(2, 48),32	1129,(2, 73),4	1133,(2, 75),20	1197,(2, 79),4	1209,(7, 44),84	1293,(7, 57),116	2369,(2, 37),60	2429,(2, 49),36	2465,(2, 58),40	2505,(2, 65),32	3341,(7, 25),8	3349,(7, 30),4	3353,(7, 31),4	3357,(7, 37),4	3361,(7, 50),4	3365,(7, 52),4	3369,(7, 53),4	3373,(7, 56),28	3401,(7, 60),20	3421,(7, 69),92	3513,(7, 72),92	3605,(7, 77),28	4045,(35, 81),4	4049,(12, 81),4	4057,(14, 81),4	4061,(15, 81),4	4065,(20, 81),4	4069,(21, 81),4	9190,(11, 81),4	9438,(26, 81),4	9805,(28, 81),4	
1,(0, 2),96	97,(0, 3),96	193,(0, 4),96	289,(0, 5),96	385,(0, 7),96	481,(0, 8),96	577,(1, 12),4	581,(1, 16),24	605,(1, 27),12	617,(1, 39),48	665,(1, 41),8	673,(1, 46),4	677,(1, 47),4	681,(1, 49),416	1097,(1, 51),56	1153,(1, 53),44	1197,(1, 57),12	1209,(1, 59),24	1233,(1, 60),208	1441,(1, 61),56	1497,(1, 65),48	1545,(1, 67),4	1549,(1, 68),20	1569,(1, 71),688	2257,(1, 75),112	2369,(1, 76),6756	9125,(1, 77),56	9181,(1, 79),4	9185,(6, 11),4	9189,(6, 17),12	9201,(6, 18),8	9209,(6, 22),24	9233,(6, 24),24	9257,(6, 26),180	9437,(6, 28),360	9797,(6, 29),4	9801,(6, 37),4	9805,(6, 44),72	9877,(6, 48),8	9885,(6, 62),264	10149,(6, 67),4	10153,(6, 69),76	10229,(6, 70),8	10237,(6, 75),12	10249,(6, 79),68	10317,(9, 81),4	10321,(10, 81),4	
