11498
# CPU
253,5,1	254,85,1	505,10,1	506,120,1	658,45,1	676,105,1	757,15,1	758,185,1	811,200,1	1009,20,1	1010,35,1	1375,100,1	1714,180,1	1861,145,1	1882,80,1	1942,30,1	2224,25,1	2239,60,1	2404,140,1	2497,40,1	2500,55,1	2548,65,1	2554,70,1	2695,90,1	2908,150,1	2983,195,1	3073,95,1	3124,125,1	3202,165,1	3253,190,1	3301,50,1	3406,110,1	3541,130,1	3571,135,1	3700,170,1	3811,155,1	3904,75,1	4072,115,1	4135,175,1	10288,160,1	
190,4,1	442,9,1	562,39,1	631,189,1	694,14,1	695,129,1	696,44,1	697,89,1	754,74,1	814,134,1	946,19,1	947,119,1	948,144,1	1990,54,1	2014,64,1	2020,84,1	2149,34,1	2152,94,1	2227,109,1	2272,59,1	2278,174,1	2335,184,1	2395,194,1	2527,154,1	2548,164,1	2656,69,1	3043,79,1	3097,104,1	3196,24,1	3238,124,1	3292,49,1	3412,29,1	3811,179,1	3814,199,1	4021,99,1	4039,139,1	4066,149,1	4114,159,1	4129,169,1	10822,114,1	
127,3,1	379,8,1	529,48,1	631,13,1	632,33,1	633,98,1	634,143,1	679,138,1	694,198,1	745,123,1	775,113,1	883,18,1	884,73,1	943,83,1	1069,178,1	1075,23,1	1123,183,1	1132,188,1	1402,133,1	1420,153,1	1792,53,1	1801,63,1	1900,118,1	1957,58,1	2008,68,1	2023,93,1	2155,28,1	2239,128,1	2356,193,1	2383,163,1	2758,78,1	3271,38,1	3313,103,1	3577,158,1	3580,168,1	3748,173,1	4063,148,1	10150,88,1	10918,43,1	11281,108,1	
64,2,1	316,7,1	478,92,1	568,12,1	569,67,1	658,87,1	820,17,1	1186,77,1	1345,82,1	1774,52,1	1909,172,1	1933,22,1	1936,37,1	1945,117,1	1948,57,1	1999,187,1	2365,137,1	2407,167,1	2593,127,1	2680,97,1	2686,177,1	2941,27,1	3082,102,1	3196,162,1	3250,182,1	3268,32,1	3283,42,1	3358,107,1	3385,142,1	3550,132,1	3817,47,1	3829,62,1	4024,112,1	4030,122,1	4060,147,1	4075,152,1	4138,192,1	4225,197,1	4822,72,1	4927,157,1	
0,0,1	1,11,1	2,16,1	3,6,1	4,1,1	319,176,1	1054,186,1	1063,91,1	1066,156,1	1384,76,1	1390,151,1	1411,181,1	1414,191,1	1714,86,1	1744,196,1	1798,36,1	1801,61,1	1804,71,1	1828,66,1	2167,116,1	2518,41,1	2566,131,1	2701,56,1	2743,21,1	2746,46,1	2749,96,1	2809,126,1	3121,111,1	3196,171,1	3388,121,1	3556,81,1	3559,101,1	3562,106,1	3574,141,1	3577,146,1	3595,166,1	3616,161,1	4444,26,1	4462,31,1	4516,51,1	4828,136,1	11497,201,1	
# Incoming
190,(0, 5),63	253,(2, 30),15	283,(3, 120),3	295,(3, 145),21	316,(2, 75),15	331,(3, 80),60	442,(0, 10),63	505,(2, 130),27	544,(2, 185),3	556,(3, 170),6	562,(7, 65),6	574,(7, 105),9	583,(12, 25),12	598,(12, 175),12	628,(8, 115),9	637,(8, 125),9	646,(8, 190),6	652,(13, 30),3	655,(13, 45),3	658,(13, 55),12	670,(13, 95),3	673,(13, 105),3	694,(0, 15),63	757,(7, 200),54	811,(12, 50),60	880,(12, 95),54	946,(0, 20),63	1075,(8, 50),111	1201,(12, 190),30	1279,(4, 100),96	1375,(17, 90),12	1402,(18, 160),6	1432,(4, 180),282	1714,(8, 110),129	1843,(17, 145),18	1873,(9, 80),9	1885,(9, 115),12	1930,(11, 30),12	1942,(11, 55),3	1945,(14, 40),3	1957,(11, 60),3	1999,(19, 25),9	2041,(11, 95),159	2200,(14, 25),24	2224,(14, 60),15	2239,(19, 40),3	2248,(11, 155),120	2368,(14, 140),36	2428,(11, 170),42	2473,(16, 40),24	2497,(16, 55),3	2500,(16, 65),48	2551,(16, 70),3	2593,(18, 90),102	2701,(17, 95),144	2845,(17, 150),63	2908,(17, 195),75	3043,(16, 95),30	3112,(16, 110),9	3121,(16, 125),3	3124,(18, 165),57	3196,(16, 165),6	3250,(16, 190),3	3253,(19, 50),48	3358,(6, 110),48	3409,(6, 130),132	3550,(6, 135),21	3583,(6, 170),117	3700,(14, 155),111	3901,(1, 75),3	3904,(18, 115),168	4129,(1, 175),6	4135,(4, 160),6153	
127,(0, 4),63	190,(3, 54),93	286,(2, 54),30	340,(5, 84),3	343,(5, 184),15	376,(2, 94),3	379,(0, 9),63	478,(2, 124),3	481,(8, 24),3	484,(8, 29),9	493,(8, 129),3	496,(2, 184),3	499,(7, 34),3	502,(7, 59),3	532,(2, 179),12	547,(7, 39),15	562,(8, 124),6	568,(7, 84),6	574,(10, 49),6	580,(10, 64),9	589,(10, 134),3	592,(10, 169),3	595,(12, 119),3	598,(3, 189),30	628,(12, 189),3	631,(0, 14),63	694,(5, 74),60	754,(8, 119),15	769,(8, 134),45	814,(8, 144),3	817,(10, 24),54	871,(12, 24),9	883,(0, 19),63	946,(12, 64),24	970,(17, 64),9	979,(17, 84),3	982,(17, 179),3	1009,(11, 24),921	1930,(12, 69),42	1972,(15, 54),18	1990,(15, 184),6	1996,(20, 79),3	2008,(11, 79),3	2011,(18, 64),3	2014,(18, 84),6	2023,(11, 94),18	2041,(8, 139),93	2134,(18, 34),15	2149,(20, 94),3	2152,(20, 174),3	2155,(17, 194),51	2206,(11, 109),21	2227,(18, 59),45	2272,(18, 174),6	2278,(18, 184),57	2335,(18, 194),60	2416,(11, 169),12	2470,(11, 179),3	2518,(20, 154),9	2527,(20, 164),21	2548,(16, 69),3	2551,(10, 69),105	2656,(15, 49),96	2758,(16, 79),285	3073,(16, 99),3	3082,(16, 104),15	3097,(15, 169),63	3160,(20, 24),36	3196,(20, 124),42	3283,(6, 49),9	3292,(20, 29),120	3580,(6, 169),3	3748,(6, 179),63	3811,(6, 199),3	3904,(1, 99),117	4030,(1, 139),9	4063,(1, 149),3	4075,(1, 159),39	4114,(1, 169),15	10150,(12, 114),672	
64,(0, 3),63	316,(0, 8),63	379,(2, 58),21	400,(2, 78),51	451,(2, 98),3	454,(5, 33),21	481,(2, 133),3	484,(5, 48),45	529,(5, 58),15	544,(10, 38),3	547,(10, 73),6	553,(10, 83),9	562,(10, 88),6	568,(0, 13),63	631,(7, 43),18	649,(7, 158),3	652,(7, 168),3	655,(7, 188),6	661,(7, 198),3	664,(10, 163),12	676,(12, 138),3	679,(12, 153),3	685,(10, 198),9	712,(12, 38),21	733,(12, 123),12	754,(10, 188),12	766,(15, 113),9	775,(15, 193),3	820,(0, 18),63	934,(17, 28),3	937,(17, 43),3	940,(17, 83),3	943,(17, 178),3	949,(4, 78),108	1057,(4, 88),3	1060,(20, 173),3	1063,(4, 148),3	1066,(20, 178),3	1072,(9, 23),3	1075,(20, 78),24	1099,(20, 183),24	1123,(20, 188),9	1147,(12, 133),27	1174,(12, 173),27	1234,(4, 93),45	1285,(12, 148),66	1351,(17, 58),15	1375,(4, 133),27	1408,(17, 153),12	1717,(9, 38),27	1753,(17, 53),39	1798,(9, 63),3	1807,(9, 78),66	1882,(9, 88),3	1897,(9, 118),3	1903,(9, 128),3	1948,(11, 58),9	1960,(11, 68),48	2011,(11, 88),3	2014,(11, 93),9	2023,(12, 28),132	2188,(14, 158),6	2194,(19, 88),3	2200,(11, 103),6	2230,(11, 128),9	2305,(14, 148),36	2341,(14, 193),15	2368,(11, 163),15	2407,(11, 168),9	2554,(16, 78),204	2758,(9, 43),267	3097,(16, 108),15	3268,(6, 38),3	3292,(6, 103),21	3571,(6, 158),6	3577,(6, 168),3	3700,(6, 173),48	4060,(1, 148),3	4063,(12, 88),6087	10288,(14, 43),630	10918,(17, 108),363	
1,(0, 2),63	128,(3, 22),21	149,(3, 52),6	155,(3, 117),27	182,(3, 147),3	185,(3, 157),3	253,(0, 7),63	316,(5, 32),21	337,(5, 62),3	358,(5, 192),3	391,(3, 92),87	505,(0, 12),63	568,(3, 167),30	598,(10, 32),24	622,(10, 52),30	652,(10, 87),6	676,(4, 57),36	712,(13, 152),27	757,(0, 17),63	820,(3, 47),255	1075,(4, 47),93	1168,(15, 172),3	1171,(20, 42),12	1183,(20, 77),3	1186,(8, 57),105	1291,(15, 22),27	1318,(15, 177),24	1342,(20, 82),3	1345,(20, 142),12	1357,(20, 192),3	1402,(4, 137),12	1414,(18, 57),3	1423,(4, 172),9	1432,(5, 127),237	1669,(18, 42),18	1744,(9, 52),30	1774,(9, 57),3	1786,(9, 62),12	1804,(9, 72),3	1900,(9, 122),3	1906,(9, 172),3	1909,(9, 192),15	1924,(14, 22),9	1933,(14, 37),3	1936,(14, 117),9	1945,(11, 57),3	1948,(9, 187),51	1999,(15, 162),138	2149,(18, 122),78	2227,(11, 112),3	2239,(11, 147),9	2248,(14, 132),57	2356,(19, 127),6	2362,(19, 137),3	2383,(11, 167),24	2407,(9, 127),186	2602,(14, 197),57	2659,(19, 97),21	2680,(19, 177),6	2776,(18, 27),165	3076,(16, 102),6	3124,(16, 147),48	3172,(16, 152),9	3181,(16, 162),15	3202,(16, 182),48	3253,(6, 32),15	3271,(6, 42),12	3313,(6, 107),45	3358,(19, 142),27	3406,(6, 122),3	3409,(18, 147),93	3541,(6, 132),9	3814,(1, 47),3	3817,(1, 62),12	3829,(1, 72),72	4021,(1, 112),3	4024,(1, 122),6	4039,(1, 147),21	4066,(1, 152),9	4135,(1, 192),3	4138,(1, 197),87	4516,(20, 72),306	4828,(20, 157),99	
268,(2, 31),15	283,(2, 51),3	286,(3, 36),6	292,(3, 71),3	316,(3, 176),3	331,(2, 86),45	376,(5, 56),45	421,(5, 81),27	454,(2, 116),3	457,(2, 121),21	478,(8, 31),3	484,(2, 151),12	496,(3, 161),60	556,(4, 26),114	670,(4, 41),6	676,(85, 201),9	685,(7, 26),27	712,(4, 61),3	715,(4, 76),234	949,(5, 171),60	1009,(7, 86),33	1042,(7, 116),6	1048,(7, 141),3	1051,(7, 186),3	1054,(10, 36),3	1057,(12, 106),3	1060,(4, 91),3	1063,(12, 156),3	1066,(4, 161),3	1069,(4, 196),3	1072,(7, 126),66	1138,(92, 201),9	1147,(10, 71),6	1153,(10, 111),12	1165,(15, 56),3	1168,(4, 86),66	1234,(7, 151),36	1270,(120, 201),9	1279,(12, 36),6	1285,(15, 111),3	1288,(15, 131),3	1291,(8, 71),54	1345,(8, 76),39	1384,(8, 126),3	1387,(8, 151),3	1390,(8, 196),3	1393,(48, 201),9	1402,(12, 166),6	1408,(15, 181),3	1411,(15, 191),3	1414,(4, 166),9	1423,(7, 121),234	1657,(12, 21),18	1675,(12, 66),18	1693,(67, 201),9	1702,(13, 86),12	1714,(9, 36),3	1717,(12, 196),27	1744,(87, 201),9	1753,(45, 201),9	1762,(105, 201),9	1771,(20, 21),6	1777,(9, 61),9	1786,(185, 201),9	1795,(20, 36),3	1798,(20, 61),3	1801,(9, 71),3	1804,(15, 66),24	1828,(200, 201),9	1837,(20, 81),3	1843,(8, 161),165	2008,(9, 116),159	2167,(9, 126),3	2170,(9, 141),18	2188,(10, 41),330	2518,(13, 131),48	2566,(33, 201),9	2575,(98, 201),9	2584,(143, 201),9	2593,(39, 201),9	2602,(12, 56),99	2701,(189, 201),9	2710,(138, 201),9	2719,(14, 21),24	2743,(14, 46),3	2746,(14, 96),3	2749,(14, 101),9	2758,(198, 201),9	2767,(123, 201),9	2776,(15, 126),33	2809,(15, 141),186	2995,(113, 201),9	3004,(17, 31),21	3025,(14, 111),96	3121,(14, 136),36	3157,(14, 171),39	3196,(129, 201),9	3205,(44, 201),9	3214,(89, 201),9	3223,(74, 201),9	3232,(134, 201),9	3241,(17, 101),138	3379,(17, 121),9	3388,(17, 141),126	3514,(18, 51),33	3547,(18, 81),9	3556,(18, 101),3	3559,(18, 106),3	3562,(18, 141),12	3574,(18, 146),3	3577,(18, 166),18	3595,(73, 201),9	3604,(83, 201),9	3613,(19, 161),3	3616,(119, 201),9	3625,(144, 201),9	3634,(20, 26),810	4444,(20, 31),18	4462,(20, 51),54	4516,(178, 201),9	4525,(23, 201),9	4534,(183, 201),9	4543,(188, 201),9	4552,(133, 201),9	4561,(153, 201),9	4570,(53, 201),9	4579,(63, 201),9	4588,(118, 201),9	4597,(58, 201),9	4606,(68, 201),9	4615,(93, 201),9	4624,(28, 201),9	4633,(128, 201),9	4642,(193, 201),9	4651,(163, 201),9	4660,(78, 201),9	4669,(38, 201),9	4678,(103, 201),9	4687,(158, 201),9	4696,(168, 201),9	4705,(173, 201),9	4714,(148, 201),9	4822,(20, 136),6	4927,(35, 201),9	4936,(100, 201),9	4945,(180, 201),9	4954,(145, 201),9	4963,(80, 201),9	4972,(30, 201),9	4981,(25, 201),9	4990,(60, 201),9	4999,(140, 201),9	5008,(40, 201),9	5017,(55, 201),9	5026,(65, 201),9	5035,(70, 201),9	5044,(90, 201),9	5053,(150, 201),9	5062,(195, 201),9	5071,(95, 201),9	5080,(125, 201),9	5089,(165, 201),9	5098,(190, 201),9	5107,(50, 201),9	5116,(110, 201),9	5125,(130, 201),9	5134,(135, 201),9	5143,(170, 201),9	5152,(155, 201),9	5161,(75, 201),9	5170,(115, 201),9	5179,(175, 201),9	10151,(88, 201),9	10289,(160, 201),9	10822,(77, 201),9	10831,(82, 201),9	10840,(52, 201),9	10849,(172, 201),9	10858,(22, 201),9	10867,(37, 201),9	10876,(117, 201),9	10885,(57, 201),9	10894,(187, 201),9	10903,(137, 201),9	10918,(54, 201),9	10927,(64, 201),9	10936,(84, 201),9	10945,(34, 201),9	10954,(94, 201),9	10963,(109, 201),9	10972,(59, 201),9	10981,(174, 201),9	10990,(184, 201),9	10999,(194, 201),9	11008,(154, 201),9	11017,(164, 201),9	11026,(69, 201),9	11035,(79, 201),9	11044,(104, 201),9	11053,(24, 201),9	11062,(124, 201),9	11071,(49, 201),9	11080,(29, 201),9	11089,(179, 201),9	11098,(199, 201),9	11107,(99, 201),9	11116,(139, 201),9	11125,(149, 201),9	11134,(159, 201),9	11143,(169, 201),9	11152,(114, 201),9	11161,(43, 201),9	11281,(167, 201),9	11290,(127, 201),9	11299,(97, 201),9	11308,(177, 201),9	11317,(27, 201),9	11326,(102, 201),9	11335,(162, 201),9	11344,(182, 201),9	11353,(32, 201),9	11362,(42, 201),9	11371,(107, 201),9	11380,(142, 201),9	11389,(132, 201),9	11398,(47, 201),9	11407,(62, 201),9	11416,(112, 201),9	11425,(122, 201),9	11434,(147, 201),9	11443,(152, 201),9	11452,(192, 201),9	11461,(197, 201),9	11470,(72, 201),9	11479,(157, 201),9	11488,(108, 201),9	
# Outgoing
316,(5, 32),21	337,(5, 62),3	340,(5, 84),3	343,(5, 184),15	358,(5, 192),3	376,(5, 56),45	421,(5, 81),27	454,(5, 33),21	484,(5, 48),45	529,(5, 58),15	544,(10, 38),3	547,(10, 73),6	553,(10, 83),9	562,(10, 88),6	574,(10, 49),6	580,(10, 64),9	589,(10, 134),3	592,(10, 169),3	598,(10, 32),24	622,(10, 52),30	652,(10, 87),6	664,(10, 163),12	676,(85, 201),9	685,(10, 198),9	694,(5, 74),60	754,(10, 188),12	766,(15, 113),9	775,(15, 193),3	817,(10, 24),54	949,(5, 171),60	1054,(10, 36),3	1060,(20, 173),3	1066,(20, 178),3	1075,(20, 78),24	1099,(20, 183),24	1123,(20, 188),9	1147,(10, 71),6	1153,(10, 111),12	1165,(15, 56),3	1168,(15, 172),3	1171,(20, 42),12	1183,(20, 77),3	1270,(120, 201),9	1285,(15, 111),3	1288,(15, 131),3	1291,(15, 22),27	1318,(15, 177),24	1342,(20, 82),3	1345,(20, 142),12	1357,(20, 192),3	1408,(15, 181),3	1411,(15, 191),3	1432,(5, 127),237	1753,(45, 201),9	1762,(105, 201),9	1771,(20, 21),6	1786,(185, 201),9	1795,(20, 36),3	1798,(20, 61),3	1804,(15, 66),24	1828,(200, 201),9	1837,(20, 81),3	1972,(15, 54),18	1990,(15, 184),6	1996,(20, 79),3	1999,(15, 162),138	2149,(20, 94),3	2152,(20, 174),3	2188,(10, 41),330	2518,(20, 154),9	2527,(20, 164),21	2551,(10, 69),105	2656,(15, 49),96	2776,(15, 126),33	2809,(15, 141),186	3097,(15, 169),63	3160,(20, 24),36	3196,(20, 124),42	3292,(20, 29),120	3634,(20, 26),810	4444,(20, 31),18	4462,(20, 51),54	4516,(20, 72),306	4822,(20, 136),6	4828,(20, 157),99	4927,(35, 201),9	4936,(100, 201),9	4945,(180, 201),9	4954,(145, 201),9	4963,(80, 201),9	4972,(30, 201),9	4981,(25, 201),9	4990,(60, 201),9	4999,(140, 201),9	5008,(40, 201),9	5017,(55, 201),9	5026,(65, 201),9	5035,(70, 201),9	5044,(90, 201),9	5053,(150, 201),9	5062,(195, 201),9	5071,(95, 201),9	5080,(125, 201),9	5089,(165, 201),9	5098,(190, 201),9	5107,(50, 201),9	5116,(110, 201),9	5125,(130, 201),9	5134,(135, 201),9	5143,(170, 201),9	5152,(155, 201),9	5161,(75, 201),9	5170,(115, 201),9	5179,(175, 201),9	10289,(160, 201),9	
556,(4, 26),114	670,(4, 41),6	676,(4, 57),36	712,(4, 61),3	715,(4, 76),234	949,(4, 78),108	1057,(4, 88),3	1060,(4, 91),3	1063,(4, 148),3	1066,(4, 161),3	1069,(4, 196),3	1072,(9, 23),3	1075,(4, 47),93	1168,(4, 86),66	1234,(4, 93),45	1279,(4, 100),96	1375,(4, 133),27	1402,(4, 137),12	1414,(4, 166),9	1423,(4, 172),9	1432,(4, 180),282	1714,(9, 36),3	1717,(9, 38),27	1744,(9, 52),30	1774,(9, 57),3	1777,(9, 61),9	1786,(9, 62),12	1798,(9, 63),3	1801,(9, 71),3	1804,(9, 72),3	1807,(9, 78),66	1873,(9, 80),9	1882,(9, 88),3	1885,(9, 115),12	1897,(9, 118),3	1900,(9, 122),3	1903,(9, 128),3	1906,(9, 172),3	1909,(9, 192),15	1924,(14, 22),9	1933,(14, 37),3	1936,(14, 117),9	1945,(14, 40),3	1948,(9, 187),51	1999,(19, 25),9	2008,(9, 116),159	2167,(9, 126),3	2170,(9, 141),18	2188,(14, 158),6	2194,(19, 88),3	2200,(14, 25),24	2224,(14, 60),15	2239,(19, 40),3	2248,(14, 132),57	2305,(14, 148),36	2341,(14, 193),15	2356,(19, 127),6	2362,(19, 137),3	2368,(14, 140),36	2407,(9, 127),186	2593,(39, 201),9	2602,(14, 197),57	2659,(19, 97),21	2680,(19, 177),6	2701,(189, 201),9	2719,(14, 21),24	2743,(14, 46),3	2746,(14, 96),3	2749,(14, 101),9	2758,(9, 43),267	3025,(14, 111),96	3121,(14, 136),36	3157,(14, 171),39	3196,(129, 201),9	3205,(44, 201),9	3214,(89, 201),9	3223,(74, 201),9	3232,(134, 201),9	3253,(19, 50),48	3358,(19, 142),27	3613,(19, 161),3	3616,(119, 201),9	3625,(144, 201),9	3700,(14, 155),111	4135,(4, 160),6153	10288,(14, 43),630	10918,(54, 201),9	10927,(64, 201),9	10936,(84, 201),9	10945,(34, 201),9	10954,(94, 201),9	10963,(109, 201),9	10972,(59, 201),9	10981,(174, 201),9	10990,(184, 201),9	10999,(194, 201),9	11008,(154, 201),9	11017,(164, 201),9	11026,(69, 201),9	11035,(79, 201),9	11044,(104, 201),9	11053,(24, 201),9	11062,(124, 201),9	11071,(49, 201),9	11080,(29, 201),9	11089,(179, 201),9	11098,(199, 201),9	11107,(99, 201),9	11116,(139, 201),9	11125,(149, 201),9	11134,(159, 201),9	11143,(169, 201),9	11152,(114, 201),9	
128,(3, 22),21	149,(3, 52),6	155,(3, 117),27	182,(3, 147),3	185,(3, 157),3	190,(3, 54),93	283,(3, 120),3	286,(3, 36),6	292,(3, 71),3	295,(3, 145),21	316,(3, 176),3	331,(3, 80),60	391,(3, 92),87	478,(8, 31),3	481,(8, 24),3	484,(8, 29),9	493,(8, 129),3	496,(3, 161),60	556,(3, 170),6	562,(8, 124),6	568,(3, 167),30	598,(3, 189),30	628,(8, 115),9	637,(8, 125),9	646,(8, 190),6	652,(13, 30),3	655,(13, 45),3	658,(13, 55),12	670,(13, 95),3	673,(13, 105),3	712,(13, 152),27	754,(8, 119),15	769,(8, 134),45	814,(8, 144),3	820,(3, 47),255	1075,(8, 50),111	1186,(8, 57),105	1291,(8, 71),54	1345,(8, 76),39	1384,(8, 126),3	1387,(8, 151),3	1390,(8, 196),3	1393,(48, 201),9	1402,(18, 160),6	1414,(18, 57),3	1669,(18, 42),18	1702,(13, 86),12	1714,(8, 110),129	1843,(8, 161),165	2011,(18, 64),3	2014,(18, 84),6	2041,(8, 139),93	2134,(18, 34),15	2149,(18, 122),78	2227,(18, 59),45	2272,(18, 174),6	2278,(18, 184),57	2335,(18, 194),60	2518,(13, 131),48	2566,(33, 201),9	2575,(98, 201),9	2584,(143, 201),9	2593,(18, 90),102	2710,(138, 201),9	2758,(198, 201),9	2767,(123, 201),9	2776,(18, 27),165	2995,(113, 201),9	3124,(18, 165),57	3409,(18, 147),93	3514,(18, 51),33	3547,(18, 81),9	3556,(18, 101),3	3559,(18, 106),3	3562,(18, 141),12	3574,(18, 146),3	3577,(18, 166),18	3595,(73, 201),9	3604,(83, 201),9	3904,(18, 115),168	4516,(178, 201),9	4525,(23, 201),9	4534,(183, 201),9	4543,(188, 201),9	4552,(133, 201),9	4561,(153, 201),9	4570,(53, 201),9	4579,(63, 201),9	4588,(118, 201),9	4597,(58, 201),9	4606,(68, 201),9	4615,(93, 201),9	4624,(28, 201),9	4633,(128, 201),9	4642,(193, 201),9	4651,(163, 201),9	4660,(78, 201),9	4669,(38, 201),9	4678,(103, 201),9	4687,(158, 201),9	4696,(168, 201),9	4705,(173, 201),9	4714,(148, 201),9	10151,(88, 201),9	11161,(43, 201),9	11488,(108, 201),9	
253,(2, 30),15	268,(2, 31),15	283,(2, 51),3	286,(2, 54),30	316,(2, 75),15	331,(2, 86),45	376,(2, 94),3	379,(2, 58),21	400,(2, 78),51	451,(2, 98),3	454,(2, 116),3	457,(2, 121),21	478,(2, 124),3	481,(2, 133),3	484,(2, 151),12	496,(2, 184),3	499,(7, 34),3	502,(7, 59),3	505,(2, 130),27	532,(2, 179),12	544,(2, 185),3	547,(7, 39),15	562,(7, 65),6	568,(7, 84),6	574,(7, 105),9	583,(12, 25),12	595,(12, 119),3	598,(12, 175),12	628,(12, 189),3	631,(7, 43),18	649,(7, 158),3	652,(7, 168),3	655,(7, 188),6	661,(7, 198),3	676,(12, 138),3	679,(12, 153),3	685,(7, 26),27	712,(12, 38),21	733,(12, 123),12	757,(7, 200),54	811,(12, 50),60	871,(12, 24),9	880,(12, 95),54	934,(17, 28),3	937,(17, 43),3	940,(17, 83),3	943,(17, 178),3	946,(12, 64),24	970,(17, 64),9	979,(17, 84),3	982,(17, 179),3	1009,(7, 86),33	1042,(7, 116),6	1048,(7, 141),3	1051,(7, 186),3	1057,(12, 106),3	1063,(12, 156),3	1072,(7, 126),66	1138,(92, 201),9	1147,(12, 133),27	1174,(12, 173),27	1201,(12, 190),30	1234,(7, 151),36	1279,(12, 36),6	1285,(12, 148),66	1351,(17, 58),15	1375,(17, 90),12	1402,(12, 166),6	1408,(17, 153),12	1423,(7, 121),234	1657,(12, 21),18	1675,(12, 66),18	1693,(67, 201),9	1717,(12, 196),27	1744,(87, 201),9	1753,(17, 53),39	1843,(17, 145),18	1930,(12, 69),42	2023,(12, 28),132	2155,(17, 194),51	2602,(12, 56),99	2701,(17, 95),144	2845,(17, 150),63	2908,(17, 195),75	3004,(17, 31),21	3241,(17, 101),138	3379,(17, 121),9	3388,(17, 141),126	4063,(12, 88),6087	10150,(12, 114),672	10822,(77, 201),9	10831,(82, 201),9	10840,(52, 201),9	10849,(172, 201),9	10858,(22, 201),9	10867,(37, 201),9	10876,(117, 201),9	10885,(57, 201),9	10894,(187, 201),9	10903,(137, 201),9	10918,(17, 108),363	11281,(167, 201),9	11290,(127, 201),9	11299,(97, 201),9	11308,(177, 201),9	11317,(27, 201),9	11326,(102, 201),9	11335,(162, 201),9	11344,(182, 201),9	11353,(32, 201),9	11362,(42, 201),9	11371,(107, 201),9	11380,(142, 201),9	11389,(132, 201),9	11398,(47, 201),9	11407,(62, 201),9	11416,(112, 201),9	11425,(122, 201),9	11434,(147, 201),9	11443,(152, 201),9	11452,(192, 201),9	11461,(197, 201),9	11470,(72, 201),9	11479,(157, 201),9	
1,(0, 2),63	64,(0, 3),63	127,(0, 4),63	190,(0, 5),63	253,(0, 7),63	316,(0, 8),63	379,(0, 9),63	442,(0, 10),63	505,(0, 12),63	568,(0, 13),63	631,(0, 14),63	694,(0, 15),63	757,(0, 17),63	820,(0, 18),63	883,(0, 19),63	946,(0, 20),63	1009,(11, 24),921	1930,(11, 30),12	1942,(11, 55),3	1945,(11, 57),3	1948,(11, 58),9	1957,(11, 60),3	1960,(11, 68),48	2008,(11, 79),3	2011,(11, 88),3	2014,(11, 93),9	2023,(11, 94),18	2041,(11, 95),159	2200,(11, 103),6	2206,(11, 109),21	2227,(11, 112),3	2230,(11, 128),9	2239,(11, 147),9	2248,(11, 155),120	2368,(11, 163),15	2383,(11, 167),24	2407,(11, 168),9	2416,(11, 169),12	2428,(11, 170),42	2470,(11, 179),3	2473,(16, 40),24	2497,(16, 55),3	2500,(16, 65),48	2548,(16, 69),3	2551,(16, 70),3	2554,(16, 78),204	2758,(16, 79),285	3043,(16, 95),30	3073,(16, 99),3	3076,(16, 102),6	3082,(16, 104),15	3097,(16, 108),15	3112,(16, 110),9	3121,(16, 125),3	3124,(16, 147),48	3172,(16, 152),9	3181,(16, 162),15	3196,(16, 165),6	3202,(16, 182),48	3250,(16, 190),3	3253,(6, 32),15	3268,(6, 38),3	3271,(6, 42),12	3283,(6, 49),9	3292,(6, 103),21	3313,(6, 107),45	3358,(6, 110),48	3406,(6, 122),3	3409,(6, 130),132	3541,(6, 132),9	3550,(6, 135),21	3571,(6, 158),6	3577,(6, 168),3	3580,(6, 169),3	3583,(6, 170),117	3700,(6, 173),48	3748,(6, 179),63	3811,(6, 199),3	3814,(1, 47),3	3817,(1, 62),12	3829,(1, 72),72	3901,(1, 75),3	3904,(1, 99),117	4021,(1, 112),3	4024,(1, 122),6	4030,(1, 139),9	4039,(1, 147),21	4060,(1, 148),3	4063,(1, 149),3	4066,(1, 152),9	4075,(1, 159),39	4114,(1, 169),15	4129,(1, 175),6	4135,(1, 192),3	4138,(1, 197),87	
