2978
# CPU
49,7,5	54,14,5	59,22,5	64,34,5	69,79,5	74,33,5	79,51,5	84,26,5	89,32,5	94,40,5	99,37,5	104,36,5	1521,12,5	1989,61,5	1994,80,5	2037,46,5	
489,10,5	561,17,5	641,27,5	701,29,5	921,60,5	1453,64,5	1517,70,5	1557,58,5	1773,67,5	1841,16,5	1861,25,5	1877,48,5	1925,52,5	2069,66,5	2181,65,5	2353,38,5	2977,81,1	
25,2,5	30,20,5	35,9,5	40,77,5	45,56,5	50,45,5	55,53,5	60,54,5	705,44,5	901,57,5	941,63,5	1525,49,5	1777,75,5	1785,76,5	1929,55,5	1957,59,5	
0,0,1	1,6,5	6,5,5	11,8,5	16,3,5	21,13,5	26,69,5	31,19,5	36,43,5	41,35,5	46,62,5	51,78,5	56,24,5	61,30,5	729,11,5	737,28,5	745,41,5	
13,1,5	18,23,5	23,39,5	28,68,5	33,74,5	38,42,5	43,47,5	48,73,5	53,4,5	58,18,5	63,71,5	68,72,5	73,21,5	78,31,5	1529,50,5	1789,15,5	
# Incoming
37,(0, 7),12	705,(6, 46),12	717,(2, 61),16	1517,(5, 12),4	1957,(8, 61),32	1989,(8, 80),4	2021,(3, 46),16	
49,(6, 10),440	489,(6, 17),72	561,(6, 27),80	641,(6, 29),60	701,(1, 65),4	705,(2, 16),4	709,(4, 64),8	717,(6, 48),4	721,(6, 52),164	885,(23, 81),16	901,(6, 60),20	921,(39, 81),16	937,(7, 66),4	941,(6, 64),512	1453,(6, 66),56	1509,(6, 70),8	1529,(5, 58),28	1557,(5, 67),216	1773,(68, 81),16	1789,(8, 16),52	1841,(8, 25),20	1861,(8, 48),16	1877,(8, 52),48	1925,(20, 81),16	1941,(74, 81),16	1957,(9, 81),16	1973,(42, 81),16	1993,(3, 38),28	2021,(77, 81),16	2037,(3, 65),28	2065,(3, 66),4	2069,(13, 81),16	2085,(2, 65),96	2181,(69, 81),16	2197,(19, 81),16	2213,(43, 81),16	2229,(35, 81),16	2245,(47, 81),16	2261,(56, 81),16	2277,(62, 81),16	2293,(73, 81),16	2309,(7, 38),44	2353,(45, 81),16	2369,(78, 81),16	2385,(14, 81),16	2401,(53, 81),16	2417,(24, 81),16	2433,(18, 81),16	2449,(22, 81),16	2465,(54, 81),16	2481,(30, 81),16	2497,(71, 81),16	2513,(34, 81),16	2529,(72, 81),16	2545,(79, 81),16	2561,(21, 81),16	2577,(33, 81),16	2593,(31, 81),16	2609,(51, 81),16	2625,(26, 81),16	2641,(32, 81),16	2657,(40, 81),16	2673,(37, 81),16	2689,(36, 81),16	2705,(44, 81),16	2721,(11, 81),16	2737,(28, 81),16	2753,(41, 81),16	2769,(57, 81),16	2785,(63, 81),16	2801,(12, 81),16	2817,(49, 81),16	2833,(50, 81),16	2849,(75, 81),16	2865,(76, 81),16	2881,(15, 81),16	2897,(55, 81),16	2913,(59, 81),16	2929,(61, 81),16	2945,(80, 81),16	2961,(46, 81),16	
13,(0, 2),12	25,(1, 20),4	701,(6, 44),4	885,(6, 57),16	921,(6, 63),20	1521,(5, 49),4	1773,(5, 75),4	1777,(5, 76),8	1925,(8, 55),4	1929,(8, 59),28	
709,(2, 28),4	713,(7, 11),16	729,(4, 28),8	737,(4, 41),8	
1,(0, 1),12	25,(0, 4),12	1525,(5, 50),4	1785,(8, 15),4	
# Outgoing
713,(7, 11),16	937,(7, 66),4	2309,(7, 38),44	2385,(14, 81),16	2449,(22, 81),16	2513,(34, 81),16	2545,(79, 81),16	2577,(33, 81),16	2609,(51, 81),16	2625,(26, 81),16	2641,(32, 81),16	2657,(40, 81),16	2673,(37, 81),16	2689,(36, 81),16	2801,(12, 81),16	2929,(61, 81),16	2945,(80, 81),16	2961,(46, 81),16	

705,(2, 16),4	709,(2, 28),4	717,(2, 61),16	1925,(20, 81),16	1957,(9, 81),16	2021,(77, 81),16	2085,(2, 65),96	2261,(56, 81),16	2353,(45, 81),16	2401,(53, 81),16	2465,(54, 81),16	2705,(44, 81),16	2769,(57, 81),16	2785,(63, 81),16	2817,(49, 81),16	2849,(75, 81),16	2865,(76, 81),16	2897,(55, 81),16	2913,(59, 81),16	
1,(0, 1),12	13,(0, 2),12	25,(0, 4),12	37,(0, 7),12	49,(6, 10),440	489,(6, 17),72	561,(6, 27),80	641,(6, 29),60	701,(6, 44),4	705,(6, 46),12	717,(6, 48),4	721,(6, 52),164	885,(6, 57),16	901,(6, 60),20	921,(6, 63),20	941,(6, 64),512	1453,(6, 66),56	1509,(6, 70),8	1517,(5, 12),4	1521,(5, 49),4	1525,(5, 50),4	1529,(5, 58),28	1557,(5, 67),216	1773,(5, 75),4	1777,(5, 76),8	1785,(8, 15),4	1789,(8, 16),52	1841,(8, 25),20	1861,(8, 48),16	1877,(8, 52),48	1925,(8, 55),4	1929,(8, 59),28	1957,(8, 61),32	1989,(8, 80),4	1993,(3, 38),28	2021,(3, 46),16	2037,(3, 65),28	2065,(3, 66),4	2069,(13, 81),16	2181,(69, 81),16	2197,(19, 81),16	2213,(43, 81),16	2229,(35, 81),16	2277,(62, 81),16	2369,(78, 81),16	2417,(24, 81),16	2481,(30, 81),16	2721,(11, 81),16	2737,(28, 81),16	2753,(41, 81),16	
25,(1, 20),4	701,(1, 65),4	709,(4, 64),8	729,(4, 28),8	737,(4, 41),8	885,(23, 81),16	921,(39, 81),16	1773,(68, 81),16	1941,(74, 81),16	1973,(42, 81),16	2245,(47, 81),16	2293,(73, 81),16	2433,(18, 81),16	2497,(71, 81),16	2529,(72, 81),16	2561,(21, 81),16	2593,(31, 81),16	2833,(50, 81),16	2881,(15, 81),16	
