4739
# CPU
28,10,24	88,88,24	112,111,24	139,56,24	208,67,24	316,74,24	379,31,24	2836,96,24	4075,48,24	4552,82,24	4576,117,24	4639,28,24	4684,38,24	4708,105,24	
25,9,24	289,34,24	313,43,24	337,90,24	364,120,24	412,60,24	475,52,24	499,79,24	526,70,24	562,113,24	661,27,24	784,84,24	973,107,24	3418,99,24	
22,8,24	46,30,24	118,80,24	205,61,24	403,24,24	427,35,24	451,71,24	544,53,24	778,85,24	826,100,24	994,108,24	1285,114,24	2854,45,24	3376,92,24	
19,7,24	67,33,24	94,25,24	118,22,24	142,41,24	178,119,24	202,112,24	238,59,24	295,106,24	319,89,24	343,98,24	397,83,24	523,69,24	634,78,24	688,51,24	
16,6,24	40,47,24	64,55,24	88,116,24	220,73,24	268,29,24	427,94,24	619,37,24	643,20,24	799,87,24	997,110,24	1186,66,24	1210,81,24	3733,104,24	
13,5,24	106,26,24	199,54,24	229,93,24	253,19,24	280,36,24	355,115,24	439,109,24	496,86,24	553,62,24	685,46,24	871,103,24	1054,77,24	1210,72,24	
10,4,24	124,32,24	148,118,24	202,50,24	229,23,24	355,15,24	391,58,24	424,40,24	448,75,24	520,68,24	745,76,24	835,97,24	3679,102,24	4738,121,1	
7,3,24	43,13,24	358,63,24	406,18,24	538,49,24	592,57,24	628,91,24	709,39,24	1039,95,24	
4,2,24	31,12,24	178,16,24	418,17,24	625,42,24	1558,65,24	1603,44,24	
0,0,1	1,11,24	25,1,24	340,14,24	607,21,24	715,101,24	3340,64,24	
# Incoming
25,(0, 10),3	46,(6, 38),3	61,(5, 38),3	64,(8, 67),18	85,(5, 88),3	88,(5, 111),3	124,(11, 48),6	136,(4, 56),3	139,(5, 67),69	220,(11, 82),93	313,(9, 74),3	364,(12, 31),15	382,(12, 82),6	427,(11, 96),18	445,(2, 48),2241	2686,(2, 96),150	2836,(3, 117),96	2932,(4, 48),1143	4075,(6, 82),477	4552,(6, 117),18	4570,(7, 38),57	4627,(1, 28),12	4639,(1, 38),45	4684,(1, 105),12	
22,(0, 9),3	40,(2, 52),3	43,(2, 60),6	49,(8, 84),3	55,(11, 27),54	109,(11, 43),15	124,(2, 27),33	157,(4, 34),9	166,(4, 70),81	247,(4, 107),3	250,(6, 34),39	289,(6, 52),9	307,(10, 43),3	310,(10, 120),6	316,(11, 90),6	322,(10, 52),21	358,(2, 120),6	364,(6, 60),48	412,(6, 107),15	427,(12, 27),6	433,(12, 113),12	445,(7, 99),3	451,(11, 107),21	472,(1, 52),3	475,(1, 79),18	496,(7, 113),9	523,(3, 70),3	553,(1, 113),9	607,(8, 27),54	778,(3, 84),6	880,(3, 107),93	3376,(12, 99),42	
19,(0, 8),3	31,(2, 30),6	43,(6, 24),3	115,(12, 80),3	133,(11, 53),3	139,(4, 71),3	142,(10, 53),3	145,(10, 61),9	193,(9, 71),3	199,(11, 61),6	247,(3, 24),156	418,(7, 35),3	421,(7, 71),3	445,(11, 100),6	451,(6, 53),93	544,(7, 100),3	619,(4, 108),84	703,(5, 85),75	778,(6, 100),48	973,(3, 108),21	994,(5, 114),291	2836,(12, 45),18	3340,(12, 92),36	
16,(0, 7),3	28,(2, 22),3	40,(5, 25),18	58,(5, 33),3	61,(6, 33),3	64,(4, 33),3	67,(6, 25),27	94,(8, 22),3	97,(2, 106),3	100,(8, 41),3	106,(6, 69),3	112,(2, 119),3	115,(5, 112),24	139,(8, 69),12	151,(8, 78),3	154,(8, 112),15	169,(8, 119),6	175,(10, 119),3	196,(9, 112),6	202,(6, 59),36	238,(8, 106),57	313,(11, 89),3	316,(10, 98),6	379,(12, 51),3	391,(12, 83),6	520,(3, 69),3	523,(5, 78),111	634,(1, 51),54	
13,(0, 6),3	55,(8, 116),3	76,(5, 73),9	85,(2, 87),12	97,(5, 110),6	103,(10, 29),39	154,(10, 94),3	157,(10, 104),15	178,(9, 37),15	205,(11, 73),15	241,(9, 29),27	289,(9, 110),21	322,(11, 94),105	427,(3, 37),87	514,(4, 37),105	619,(7, 20),9	688,(1, 104),24	745,(3, 81),33	784,(3, 87),15	871,(3, 104),9	994,(3, 110),3	1117,(7, 66),69	1186,(7, 81),12	3679,(12, 104),54	
10,(0, 5),3	37,(2, 46),3	40,(11, 26),15	55,(6, 77),3	58,(2, 72),24	82,(8, 36),6	88,(8, 115),3	94,(6, 26),12	109,(6, 109),3	118,(12, 115),3	136,(11, 54),63	199,(8, 93),30	229,(9, 19),12	241,(3, 19),6	250,(4, 115),18	268,(9, 36),12	286,(9, 86),3	295,(8, 109),33	328,(9, 103),18	346,(9, 115),9	355,(10, 46),21	376,(10, 62),39	424,(3, 46),3	427,(10, 109),12	466,(7, 86),30	496,(1, 46),9	514,(3, 62),3	538,(1, 62),15	619,(9, 46),66	835,(3, 103),36	871,(8, 77),183	1054,(10, 72),156	
7,(0, 4),3	46,(8, 15),3	49,(2, 68),9	58,(8, 97),6	82,(2, 76),3	100,(2, 118),12	112,(6, 68),9	121,(12, 32),3	124,(8, 118),6	130,(11, 50),3	133,(6, 50),69	202,(9, 23),27	229,(30, 121),6	238,(47, 121),6	244,(55, 121),6	250,(26, 121),6	256,(54, 121),6	262,(93, 121),6	280,(9, 58),6	286,(19, 121),6	298,(6, 102),54	352,(7, 15),3	355,(9, 40),33	388,(12, 58),3	391,(34, 121),6	397,(16, 121),6	403,(3, 40),21	424,(7, 75),9	433,(7, 97),12	445,(10, 97),3	448,(10, 102),15	463,(88, 121),6	469,(111, 121),6	475,(56, 121),6	481,(67, 121),6	487,(36, 121),6	493,(74, 121),6	499,(115, 121),6	505,(33, 121),6	511,(25, 121),6	517,(3, 68),3	520,(22, 121),6	526,(3, 76),219	745,(116, 121),6	751,(80, 121),6	757,(61, 121),6	763,(73, 121),6	769,(29, 121),6	775,(14, 121),6	781,(31, 121),6	787,(24, 121),6	793,(35, 121),6	799,(3, 97),36	835,(94, 121),6	841,(109, 121),6	847,(71, 121),6	853,(86, 121),6	859,(53, 121),6	865,(62, 121),6	871,(21, 121),6	877,(37, 121),6	883,(20, 121),6	889,(46, 121),6	895,(101, 121),6	901,(87, 121),6	907,(103, 121),6	997,(13, 121),6	1003,(63, 121),6	1009,(18, 121),6	1015,(49, 121),6	1021,(57, 121),6	1027,(91, 121),6	1033,(39, 121),6	1039,(43, 121),6	1045,(90, 121),6	1051,(120, 121),6	1057,(60, 121),6	1063,(52, 121),6	1069,(79, 121),6	1075,(70, 121),6	1081,(113, 121),6	1087,(27, 121),6	1093,(85, 121),6	1099,(84, 121),6	1105,(100, 121),6	1111,(107, 121),6	1117,(110, 121),6	1123,(95, 121),6	1198,(41, 121),6	1204,(119, 121),6	1210,(112, 121),6	1216,(59, 121),6	1222,(106, 121),6	1228,(89, 121),6	1234,(98, 121),6	1240,(83, 121),6	1246,(69, 121),6	1252,(78, 121),6	1258,(51, 121),6	1264,(66, 121),6	1270,(81, 121),6	1285,(77, 121),6	1291,(72, 121),6	1558,(108, 121),6	1564,(114, 121),6	2860,(96, 121),6	2878,(45, 121),6	3364,(64, 121),6	3400,(92, 121),6	3418,(12, 102),261	3679,(99, 121),6	3733,(17, 121),6	3739,(42, 121),6	3745,(65, 121),6	3751,(44, 121),6	3757,(104, 121),6	4099,(48, 121),6	4576,(82, 121),6	4600,(117, 121),6	4663,(28, 121),6	4708,(38, 121),6	4732,(105, 121),6	
4,(0, 3),3	37,(5, 13),3	40,(6, 13),3	52,(8, 91),3	67,(4, 39),69	142,(4, 91),3	157,(2, 63),201	358,(5, 18),48	406,(5, 57),45	451,(7, 49),15	505,(1, 49),33	544,(6, 57),48	592,(6, 91),36	661,(8, 39),48	709,(9, 95),330	
1,(0, 2),3	28,(0, 12),3	31,(11, 16),9	40,(4, 16),21	61,(4, 17),3	64,(5, 16),12	103,(8, 44),21	124,(9, 16),54	178,(10, 42),129	355,(7, 17),63	418,(9, 44),201	619,(1, 42),6	628,(7, 44),489	1117,(8, 65),441	1558,(1, 44),45	
31,(3, 14),210	241,(5, 14),3	244,(7, 14),96	340,(7, 64),12	352,(8, 21),255	709,(8, 101),6	2854,(12, 64),486	
# Outgoing
103,(10, 29),39	142,(10, 53),3	145,(10, 61),9	154,(10, 94),3	157,(10, 104),15	175,(10, 119),3	178,(10, 42),129	307,(10, 43),3	310,(10, 120),6	316,(10, 98),6	322,(10, 52),21	355,(10, 46),21	376,(10, 62),39	427,(10, 109),12	445,(10, 97),3	448,(10, 102),15	463,(88, 121),6	469,(111, 121),6	475,(56, 121),6	481,(67, 121),6	493,(74, 121),6	781,(31, 121),6	1054,(10, 72),156	2860,(96, 121),6	4099,(48, 121),6	4576,(82, 121),6	4600,(117, 121),6	4663,(28, 121),6	4708,(38, 121),6	4732,(105, 121),6	
124,(9, 16),54	178,(9, 37),15	193,(9, 71),3	196,(9, 112),6	202,(9, 23),27	229,(9, 19),12	241,(9, 29),27	268,(9, 36),12	280,(9, 58),6	286,(9, 86),3	289,(9, 110),21	313,(9, 74),3	328,(9, 103),18	346,(9, 115),9	355,(9, 40),33	391,(34, 121),6	418,(9, 44),201	619,(9, 46),66	709,(9, 95),330	1039,(43, 121),6	1045,(90, 121),6	1051,(120, 121),6	1057,(60, 121),6	1063,(52, 121),6	1069,(79, 121),6	1075,(70, 121),6	1081,(113, 121),6	1087,(27, 121),6	1099,(84, 121),6	1111,(107, 121),6	3679,(99, 121),6	
46,(8, 15),3	49,(8, 84),3	52,(8, 91),3	55,(8, 116),3	58,(8, 97),6	64,(8, 67),18	82,(8, 36),6	88,(8, 115),3	94,(8, 22),3	100,(8, 41),3	103,(8, 44),21	124,(8, 118),6	139,(8, 69),12	151,(8, 78),3	154,(8, 112),15	169,(8, 119),6	199,(8, 93),30	229,(30, 121),6	238,(8, 106),57	295,(8, 109),33	352,(8, 21),255	607,(8, 27),54	661,(8, 39),48	709,(8, 101),6	751,(80, 121),6	757,(61, 121),6	787,(24, 121),6	793,(35, 121),6	847,(71, 121),6	859,(53, 121),6	871,(8, 77),183	1093,(85, 121),6	1105,(100, 121),6	1117,(8, 65),441	1558,(108, 121),6	1564,(114, 121),6	2878,(45, 121),6	3400,(92, 121),6	
244,(7, 14),96	340,(7, 64),12	352,(7, 15),3	355,(7, 17),63	418,(7, 35),3	421,(7, 71),3	424,(7, 75),9	433,(7, 97),12	445,(7, 99),3	451,(7, 49),15	466,(7, 86),30	496,(7, 113),9	505,(33, 121),6	511,(25, 121),6	520,(22, 121),6	544,(7, 100),3	619,(7, 20),9	628,(7, 44),489	1117,(7, 66),69	1186,(7, 81),12	1198,(41, 121),6	1204,(119, 121),6	1210,(112, 121),6	1216,(59, 121),6	1222,(106, 121),6	1228,(89, 121),6	1234,(98, 121),6	1240,(83, 121),6	1246,(69, 121),6	1252,(78, 121),6	1258,(51, 121),6	4570,(7, 38),57	
40,(6, 13),3	43,(6, 24),3	46,(6, 38),3	55,(6, 77),3	61,(6, 33),3	67,(6, 25),27	94,(6, 26),12	106,(6, 69),3	109,(6, 109),3	112,(6, 68),9	133,(6, 50),69	202,(6, 59),36	238,(47, 121),6	244,(55, 121),6	250,(6, 34),39	289,(6, 52),9	298,(6, 102),54	364,(6, 60),48	412,(6, 107),15	451,(6, 53),93	544,(6, 57),48	592,(6, 91),36	745,(116, 121),6	763,(73, 121),6	769,(29, 121),6	778,(6, 100),48	835,(94, 121),6	877,(37, 121),6	883,(20, 121),6	901,(87, 121),6	1117,(110, 121),6	1264,(66, 121),6	1270,(81, 121),6	3757,(104, 121),6	4075,(6, 82),477	4552,(6, 117),18	
37,(5, 13),3	40,(5, 25),18	58,(5, 33),3	61,(5, 38),3	64,(5, 16),12	76,(5, 73),9	85,(5, 88),3	88,(5, 111),3	97,(5, 110),6	115,(5, 112),24	139,(5, 67),69	241,(5, 14),3	250,(26, 121),6	256,(54, 121),6	262,(93, 121),6	286,(19, 121),6	358,(5, 18),48	406,(5, 57),45	487,(36, 121),6	499,(115, 121),6	523,(5, 78),111	703,(5, 85),75	841,(109, 121),6	853,(86, 121),6	865,(62, 121),6	889,(46, 121),6	907,(103, 121),6	994,(5, 114),291	1285,(77, 121),6	1291,(72, 121),6	
40,(4, 16),21	61,(4, 17),3	64,(4, 33),3	67,(4, 39),69	136,(4, 56),3	139,(4, 71),3	142,(4, 91),3	157,(4, 34),9	166,(4, 70),81	247,(4, 107),3	250,(4, 115),18	514,(4, 37),105	619,(4, 108),84	2932,(4, 48),1143	
31,(3, 14),210	241,(3, 19),6	247,(3, 24),156	403,(3, 40),21	424,(3, 46),3	427,(3, 37),87	514,(3, 62),3	517,(3, 68),3	520,(3, 69),3	523,(3, 70),3	526,(3, 76),219	745,(3, 81),33	778,(3, 84),6	784,(3, 87),15	799,(3, 97),36	835,(3, 103),36	871,(3, 104),9	880,(3, 107),93	973,(3, 108),21	994,(3, 110),3	997,(13, 121),6	1003,(63, 121),6	1009,(18, 121),6	1015,(49, 121),6	1021,(57, 121),6	1027,(91, 121),6	1033,(39, 121),6	1123,(95, 121),6	2836,(3, 117),96	
28,(2, 22),3	31,(2, 30),6	37,(2, 46),3	40,(2, 52),3	43,(2, 60),6	49,(2, 68),9	58,(2, 72),24	82,(2, 76),3	85,(2, 87),12	97,(2, 106),3	100,(2, 118),12	112,(2, 119),3	115,(12, 80),3	118,(12, 115),3	121,(12, 32),3	124,(2, 27),33	157,(2, 63),201	358,(2, 120),6	364,(12, 31),15	379,(12, 51),3	382,(12, 82),6	388,(12, 58),3	391,(12, 83),6	397,(16, 121),6	427,(12, 27),6	433,(12, 113),12	445,(2, 48),2241	2686,(2, 96),150	2836,(12, 45),18	2854,(12, 64),486	3340,(12, 92),36	3376,(12, 99),42	3418,(12, 102),261	3679,(12, 104),54	3733,(17, 121),6	3739,(42, 121),6	3745,(65, 121),6	3751,(44, 121),6	
1,(0, 2),3	4,(0, 3),3	7,(0, 4),3	10,(0, 5),3	13,(0, 6),3	16,(0, 7),3	19,(0, 8),3	22,(0, 9),3	25,(0, 10),3	28,(0, 12),3	31,(11, 16),9	40,(11, 26),15	55,(11, 27),54	109,(11, 43),15	124,(11, 48),6	130,(11, 50),3	133,(11, 53),3	136,(11, 54),63	199,(11, 61),6	205,(11, 73),15	220,(11, 82),93	313,(11, 89),3	316,(11, 90),6	322,(11, 94),105	427,(11, 96),18	445,(11, 100),6	451,(11, 107),21	472,(1, 52),3	475,(1, 79),18	496,(1, 46),9	505,(1, 49),33	538,(1, 62),15	553,(1, 113),9	619,(1, 42),6	634,(1, 51),54	688,(1, 104),24	775,(14, 121),6	871,(21, 121),6	895,(101, 121),6	1558,(1, 44),45	3364,(64, 121),6	4627,(1, 28),12	4639,(1, 38),45	4684,(1, 105),12	
