847
# CPU
25,4,1	26,20,1	27,28,1	28,32,1	51,8,1	88,16,1	161,24,1	181,36,1	203,40,1	371,12,1	
17,3,1	18,27,1	19,35,1	48,11,1	90,23,1	201,39,1	250,7,1	256,15,1	258,31,1	505,19,1	
9,2,1	10,26,1	11,30,1	143,10,1	189,38,1	268,18,1	280,22,1	292,6,1	322,14,1	842,34,1	
0,0,1	1,1,1	54,13,1	60,21,1	88,17,1	92,29,1	110,37,1	238,9,1	240,5,1	260,33,1	824,25,1	846,41,1	
# Incoming
17,(0, 4),8	25,(3, 8),2	31,(1, 8),20	60,(2, 16),2	62,(3, 12),14	76,(3, 16),12	90,(2, 36),2	92,(3, 40),6	143,(1, 12),12	159,(1, 24),2	161,(1, 36),20	201,(1, 40),2	203,(2, 12),168	
9,(0, 3),8	40,(2, 11),8	54,(2, 15),6	88,(2, 23),2	155,(1, 15),2	189,(1, 39),12	240,(4, 7),10	250,(4, 15),6	256,(4, 31),2	371,(2, 19),134	
1,(0, 2),8	18,(3, 6),2	20,(3, 14),2	25,(1, 6),6	51,(1, 10),92	157,(1, 18),2	181,(1, 38),8	238,(3, 18),30	268,(3, 22),12	280,(4, 6),12	292,(4, 14),30	824,(4, 34),18	
10,(2, 5),16	26,(2, 9),14	40,(3, 17),6	46,(27, 41),2	48,(2, 13),6	54,(3, 21),6	60,(35, 41),2	62,(2, 17),26	88,(3, 29),4	92,(2, 37),18	110,(26, 41),2	112,(30, 41),2	114,(3, 9),124	238,(4, 5),2	258,(4, 33),2	260,(20, 41),2	262,(28, 41),2	264,(32, 41),2	266,(8, 41),2	268,(16, 41),2	270,(24, 41),2	272,(36, 41),2	274,(40, 41),2	280,(11, 41),2	282,(23, 41),2	284,(39, 41),2	286,(7, 41),2	288,(15, 41),2	290,(31, 41),2	322,(4, 25),502	824,(10, 41),2	826,(38, 41),2	828,(18, 41),2	830,(22, 41),2	832,(6, 41),2	834,(14, 41),2	836,(19, 41),2	842,(12, 41),2	844,(34, 41),2	
# Outgoing
238,(4, 5),2	240,(4, 7),10	250,(4, 15),6	256,(4, 31),2	258,(4, 33),2	260,(20, 41),2	262,(28, 41),2	264,(32, 41),2	266,(8, 41),2	268,(16, 41),2	270,(24, 41),2	272,(36, 41),2	274,(40, 41),2	280,(4, 6),12	292,(4, 14),30	322,(4, 25),502	824,(4, 34),18	842,(12, 41),2	
18,(3, 6),2	20,(3, 14),2	25,(3, 8),2	40,(3, 17),6	46,(27, 41),2	54,(3, 21),6	60,(35, 41),2	62,(3, 12),14	76,(3, 16),12	88,(3, 29),4	92,(3, 40),6	114,(3, 9),124	238,(3, 18),30	268,(3, 22),12	280,(11, 41),2	282,(23, 41),2	284,(39, 41),2	286,(7, 41),2	288,(15, 41),2	290,(31, 41),2	836,(19, 41),2	
10,(2, 5),16	26,(2, 9),14	40,(2, 11),8	48,(2, 13),6	54,(2, 15),6	60,(2, 16),2	62,(2, 17),26	88,(2, 23),2	90,(2, 36),2	92,(2, 37),18	110,(26, 41),2	112,(30, 41),2	203,(2, 12),168	371,(2, 19),134	824,(10, 41),2	826,(38, 41),2	828,(18, 41),2	830,(22, 41),2	832,(6, 41),2	834,(14, 41),2	844,(34, 41),2	
1,(0, 2),8	9,(0, 3),8	17,(0, 4),8	25,(1, 6),6	31,(1, 8),20	51,(1, 10),92	143,(1, 12),12	155,(1, 15),2	157,(1, 18),2	159,(1, 24),2	161,(1, 36),20	181,(1, 38),8	189,(1, 39),12	201,(1, 40),2	
