18430
# CPU
4045,3,1	4046,48,1	4047,93,1	4048,102,1	4049,63,1	4050,84,1	4235,33,1	8089,6,1	8090,30,1	8091,87,1	8092,117,1	8093,45,1	9527,60,1	9625,69,1	12133,9,1	12135,15,1	12137,27,1	12187,72,1	16177,12,1	16178,51,1	16179,24,1	16180,105,1	16181,54,1	16189,66,1	16191,90,1	16211,57,1	16215,81,1	16257,99,1	16355,108,1	16367,96,1	16409,18,1	16411,21,1	16413,39,1	16419,42,1	16475,114,1	16501,36,1	16609,120,1	16669,75,1	16705,111,1	16791,78,1	
2023,2,1	6067,5,1	10111,8,1	10147,14,1	10207,65,1	10209,86,1	14155,11,1	14156,59,1	14157,113,1	14158,77,1	14159,26,1	14160,68,1	14161,98,1	16179,53,1	16193,56,1	16197,23,1	16199,74,1	16251,116,1	16267,107,1	16351,38,1	16363,110,1	16403,17,1	16437,80,1	16439,101,1	16459,44,1	16479,20,1	16503,62,1	16525,71,1	16563,89,1	16583,119,1	16627,29,1	16645,32,1	16657,35,1	16659,41,1	16661,47,1	16683,92,1	16685,95,1	16697,104,1	16739,50,1	16777,83,1	
0,0,1	1,7,1	2,10,1	3,4,1	4,1,1	5,55,1	6,25,1	7,13,1	8,16,1	9,46,1	10,118,1	11,22,1	12,112,1	13,79,1	4221,31,1	4297,37,1	4383,85,1	6101,67,1	6573,97,1	8096,28,1	8108,34,1	8134,49,1	8158,58,1	8160,64,1	8218,73,1	8288,88,1	8310,100,1	10132,70,1	10190,106,1	12140,40,1	12142,43,1	12178,52,1	12198,82,1	12238,91,1	14174,61,1	14176,94,1	16180,19,1	16190,103,1	16192,109,1	16215,115,1	16389,76,1	18429,121,1	
# Incoming
2023,(0, 3),2022	4045,(2, 30),4	4221,(2, 33),14	4299,(2, 51),2	4321,(2, 69),28	6067,(0, 6),2022	8089,(5, 45),2	8091,(5, 57),6	8097,(5, 60),1430	9527,(5, 66),92	9619,(5, 69),6	9625,(5, 90),4	9629,(5, 108),30	10111,(0, 9),2022	12133,(8, 15),2	12135,(8, 27),2	12137,(8, 39),40	12177,(8, 51),8	12185,(8, 72),2	12187,(8, 120),14	14155,(0, 12),2022	16177,(11, 36),2	16179,(11, 54),2	16181,(11, 66),8	16189,(11, 90),2	16193,(7, 57),18	16213,(7, 81),2	16217,(7, 99),40	16267,(7, 108),88	16355,(11, 96),12	16403,(10, 18),6	16409,(10, 21),2	16411,(10, 39),2	16413,(10, 42),6	16439,(10, 114),36	16497,(4, 36),4	16525,(4, 75),2	16527,(4, 78),4	16583,(4, 120),26	16661,(1, 75),8	16669,(1, 78),2	16697,(1, 111),8	16705,(11, 78),86	
1,(0, 2),2022	4045,(0, 5),2022	6067,(3, 17),2	6069,(3, 53),2	6101,(3, 74),12	8089,(0, 8),2022	10111,(6, 14),36	10147,(6, 32),6	10153,(6, 53),4	10157,(6, 59),48	10205,(6, 65),2	10207,(6, 86),2	10209,(6, 113),6	12133,(0, 11),2022	14155,(9, 26),2	14157,(9, 68),2	14159,(9, 98),2	16177,(7, 53),2	16179,(7, 56),14	16193,(12, 23),4	16197,(12, 74),2	16199,(12, 92),12	16211,(7, 80),2	16215,(7, 92),2	16217,(12, 32),22	16239,(12, 116),12	16257,(7, 107),10	16267,(12, 38),84	16355,(7, 110),8	16363,(7, 119),2	16365,(10, 17),38	16419,(10, 50),4	16423,(10, 71),4	16427,(10, 80),10	16437,(10, 101),2	16439,(12, 44),20	16475,(4, 20),4	16479,(4, 35),18	16501,(4, 62),2	16503,(4, 71),22	16531,(4, 89),32	16563,(4, 119),20	16609,(1, 29),18	16627,(1, 32),18	16645,(1, 35),12	16657,(1, 41),2	16659,(1, 47),2	16671,(1, 92),12	16683,(1, 95),2	16685,(1, 104),12	16697,(12, 50),42	16739,(12, 83),38	
4049,(2, 31),172	4235,(2, 37),62	4297,(2, 49),2	4301,(2, 64),20	4349,(2, 70),18	4367,(2, 85),16	6068,(5, 34),2	6071,(3, 64),28	6099,(3, 67),2	6101,(5, 88),2	6113,(3, 100),88	6201,(3, 115),32	6233,(48, 121),42	6275,(93, 121),42	6317,(102, 121),42	6359,(63, 121),42	6401,(84, 121),42	6443,(33, 121),42	6485,(5, 73),68	6553,(5, 97),20	8090,(6, 28),6	8096,(6, 34),12	8108,(6, 49),26	8134,(6, 58),24	8158,(6, 64),2	8160,(6, 70),2	8162,(6, 73),56	8218,(6, 88),70	8288,(6, 100),22	8310,(6, 106),2	8312,(30, 121),42	8354,(87, 121),42	8396,(117, 121),42	8438,(45, 121),42	9528,(60, 121),42	9626,(69, 121),42	10112,(8, 52),18	10130,(8, 70),2	10132,(8, 106),58	10190,(8, 115),36	10226,(14, 121),42	10268,(65, 121),42	10310,(86, 121),42	12134,(9, 40),6	12140,(9, 43),2	12142,(9, 52),36	12178,(9, 76),2	12180,(9, 82),18	12198,(9, 91),40	12238,(15, 121),42	12280,(27, 121),42	12322,(72, 121),42	14156,(11, 61),18	14174,(11, 94),2	14176,(59, 121),42	14218,(113, 121),42	14260,(77, 121),42	14302,(26, 121),42	14344,(68, 121),42	14386,(98, 121),42	16178,(12, 19),2	16180,(12, 103),10	16190,(12, 109),2	16211,(12, 115),4	16215,(53, 121),42	16257,(56, 121),42	16299,(23, 121),42	16351,(12, 76),38	16389,(51, 121),42	16459,(24, 121),42	16501,(105, 121),42	16543,(54, 121),42	16585,(66, 121),42	16627,(90, 121),42	16791,(74, 121),42	16833,(57, 121),42	16875,(81, 121),42	16917,(116, 121),42	16959,(99, 121),42	17001,(107, 121),42	17043,(38, 121),42	17085,(108, 121),42	17127,(110, 121),42	17169,(96, 121),42	17211,(17, 121),42	17253,(18, 121),42	17295,(21, 121),42	17337,(39, 121),42	17379,(42, 121),42	17421,(80, 121),42	17463,(101, 121),42	17505,(44, 121),42	17547,(114, 121),42	17589,(20, 121),42	17631,(36, 121),42	17673,(62, 121),42	17715,(71, 121),42	17757,(89, 121),42	17799,(119, 121),42	17841,(120, 121),42	17883,(29, 121),42	17925,(32, 121),42	17967,(35, 121),42	18009,(41, 121),42	18051,(47, 121),42	18093,(75, 121),42	18135,(92, 121),42	18177,(95, 121),42	18219,(104, 121),42	18261,(111, 121),42	18303,(50, 121),42	18345,(83, 121),42	18387,(78, 121),42	
# Outgoing
6067,(3, 17),2	6069,(3, 53),2	6071,(3, 64),28	6099,(3, 67),2	6101,(3, 74),12	6113,(3, 100),88	6201,(3, 115),32	6233,(48, 121),42	6275,(93, 121),42	6317,(102, 121),42	6359,(63, 121),42	6401,(84, 121),42	6443,(33, 121),42	8090,(6, 28),6	8096,(6, 34),12	8108,(6, 49),26	8134,(6, 58),24	8158,(6, 64),2	8160,(6, 70),2	8162,(6, 73),56	8218,(6, 88),70	8288,(6, 100),22	8310,(6, 106),2	8312,(30, 121),42	8354,(87, 121),42	8396,(117, 121),42	8438,(45, 121),42	9528,(60, 121),42	9626,(69, 121),42	10111,(6, 14),36	10147,(6, 32),6	10153,(6, 53),4	10157,(6, 59),48	10205,(6, 65),2	10207,(6, 86),2	10209,(6, 113),6	12134,(9, 40),6	12140,(9, 43),2	12142,(9, 52),36	12178,(9, 76),2	12180,(9, 82),18	12198,(9, 91),40	12238,(15, 121),42	12280,(27, 121),42	12322,(72, 121),42	14155,(9, 26),2	14157,(9, 68),2	14159,(9, 98),2	16178,(12, 19),2	16180,(12, 103),10	16190,(12, 109),2	16193,(12, 23),4	16197,(12, 74),2	16199,(12, 92),12	16211,(12, 115),4	16217,(12, 32),22	16239,(12, 116),12	16267,(12, 38),84	16351,(12, 76),38	16389,(51, 121),42	16439,(12, 44),20	16459,(24, 121),42	16501,(105, 121),42	16543,(54, 121),42	16585,(66, 121),42	16627,(90, 121),42	16697,(12, 50),42	16739,(12, 83),38	16833,(57, 121),42	16875,(81, 121),42	16959,(99, 121),42	17085,(108, 121),42	17169,(96, 121),42	17253,(18, 121),42	17295,(21, 121),42	17337,(39, 121),42	17379,(42, 121),42	17547,(114, 121),42	17631,(36, 121),42	17841,(120, 121),42	18093,(75, 121),42	18261,(111, 121),42	18387,(78, 121),42	
4045,(2, 30),4	4049,(2, 31),172	4221,(2, 33),14	4235,(2, 37),62	4297,(2, 49),2	4299,(2, 51),2	4301,(2, 64),20	4321,(2, 69),28	4349,(2, 70),18	4367,(2, 85),16	6068,(5, 34),2	6101,(5, 88),2	6485,(5, 73),68	6553,(5, 97),20	8089,(5, 45),2	8091,(5, 57),6	8097,(5, 60),1430	9527,(5, 66),92	9619,(5, 69),6	9625,(5, 90),4	9629,(5, 108),30	10112,(8, 52),18	10130,(8, 70),2	10132,(8, 106),58	10190,(8, 115),36	10226,(14, 121),42	10268,(65, 121),42	10310,(86, 121),42	12133,(8, 15),2	12135,(8, 27),2	12137,(8, 39),40	12177,(8, 51),8	12185,(8, 72),2	12187,(8, 120),14	14156,(11, 61),18	14174,(11, 94),2	14176,(59, 121),42	14218,(113, 121),42	14260,(77, 121),42	14302,(26, 121),42	14344,(68, 121),42	14386,(98, 121),42	16177,(11, 36),2	16179,(11, 54),2	16181,(11, 66),8	16189,(11, 90),2	16215,(53, 121),42	16257,(56, 121),42	16299,(23, 121),42	16355,(11, 96),12	16705,(11, 78),86	16791,(74, 121),42	16917,(116, 121),42	17001,(107, 121),42	17043,(38, 121),42	17127,(110, 121),42	17211,(17, 121),42	17421,(80, 121),42	17463,(101, 121),42	17505,(44, 121),42	17589,(20, 121),42	17673,(62, 121),42	17715,(71, 121),42	17757,(89, 121),42	17799,(119, 121),42	17883,(29, 121),42	17925,(32, 121),42	17967,(35, 121),42	18009,(41, 121),42	18051,(47, 121),42	18135,(92, 121),42	18177,(95, 121),42	18219,(104, 121),42	18303,(50, 121),42	18345,(83, 121),42	
1,(0, 2),2022	2023,(0, 3),2022	4045,(0, 5),2022	6067,(0, 6),2022	8089,(0, 8),2022	10111,(0, 9),2022	12133,(0, 11),2022	14155,(0, 12),2022	16177,(7, 53),2	16179,(7, 56),14	16193,(7, 57),18	16211,(7, 80),2	16213,(7, 81),2	16215,(7, 92),2	16217,(7, 99),40	16257,(7, 107),10	16267,(7, 108),88	16355,(7, 110),8	16363,(7, 119),2	16365,(10, 17),38	16403,(10, 18),6	16409,(10, 21),2	16411,(10, 39),2	16413,(10, 42),6	16419,(10, 50),4	16423,(10, 71),4	16427,(10, 80),10	16437,(10, 101),2	16439,(10, 114),36	16475,(4, 20),4	16479,(4, 35),18	16497,(4, 36),4	16501,(4, 62),2	16503,(4, 71),22	16525,(4, 75),2	16527,(4, 78),4	16531,(4, 89),32	16563,(4, 119),20	16583,(4, 120),26	16609,(1, 29),18	16627,(1, 32),18	16645,(1, 35),12	16657,(1, 41),2	16659,(1, 47),2	16661,(1, 75),8	16669,(1, 78),2	16671,(1, 92),12	16683,(1, 95),2	16685,(1, 104),12	16697,(1, 111),8	
