3656
# CPU
0,0,1	1,12,2	3,19,2	5,5,2	7,6,2	9,7,2	11,2,2	13,11,2	15,128,2	17,10,2	19,118,2	21,17,2	23,116,2	25,27,2	27,110,2	29,196,2	31,1,2	33,122,2	35,8,2	37,49,2	39,133,2	41,185,2	43,3,2	45,31,2	47,154,2	49,4,2	51,197,2	53,148,2	55,45,2	57,123,2	59,18,2	61,64,2	63,97,2	65,91,2	67,93,2	69,40,2	71,16,2	73,89,2	75,150,2	77,81,2	79,119,2	81,172,2	83,180,2	85,24,2	87,168,2	89,20,2	91,85,2	93,138,2	95,166,2	97,151,2	99,61,2	101,159,2	103,50,2	105,178,2	107,162,2	109,111,2	111,23,2	113,174,2	115,120,2	117,41,2	119,79,2	121,63,2	123,9,2	125,121,2	127,158,2	129,22,2	131,94,2	133,167,2	135,186,2	137,147,2	139,163,2	141,106,2	143,104,2	145,145,2	147,68,2	149,160,2	151,53,2	153,32,2	155,84,2	157,57,2	159,52,2	161,117,2	163,83,2	165,54,2	167,102,2	169,183,2	171,198,2	173,69,2	175,107,2	177,72,2	179,25,2	181,179,2	183,21,2	185,164,2	187,101,2	189,37,2	191,134,2	193,153,2	195,33,2	197,181,2	199,129,2	201,26,2	203,144,2	205,43,2	207,188,2	209,86,2	211,187,2	213,199,2	215,73,2	217,90,2	223,105,2	235,193,2	247,88,2	259,60,2	271,74,2	283,30,2	295,35,2	307,149,2	323,96,2	339,47,2	355,67,2	371,80,2	387,36,2	403,95,2	419,177,2	435,66,2	455,76,2	475,99,2	495,171,2	515,165,2	539,59,2	563,152,2	587,140,2	611,51,2	635,92,2	659,191,2	683,135,2	707,78,2	731,103,2	759,39,2	787,189,2	815,56,2	843,156,2	871,124,2	899,75,2	927,34,2	955,194,2	987,109,2	1023,58,2	1059,98,2	1099,139,2	1139,126,2	1183,71,2	1227,42,2	1279,137,2	1331,62,2	1387,169,2	1455,87,2	1527,175,2	1603,65,2	1699,114,2	1799,200,2	1911,190,2	2039,157,2	2191,182,2	2391,143,2	2599,125,2	2815,38,2	3043,195,2	3655,201,1	
41,13,2	61,82,2	81,14,2	97,108,2	113,77,2	177,55,2	249,184,2	329,161,2	373,192,2	421,46,2	493,113,2	573,173,2	653,130,2	737,70,2	833,146,2	929,170,2	1253,132,2	1377,100,2	1529,131,2	1693,142,2	2093,115,2	2325,48,2	2641,28,2	3097,29,2	
21,15,2	141,136,2	213,127,2	289,155,2	1029,112,2	1133,176,2	1869,141,2	3649,44,2	
# Incoming
83,(14, 183),4	87,(15, 198),4	91,(15, 69),4	95,(15, 107),4	99,(15, 72),4	103,(15, 25),4	107,(13, 179),4	111,(15, 21),4	115,(13, 164),4	119,(13, 101),4	123,(15, 37),4	127,(14, 134),4	131,(15, 153),4	135,(15, 33),4	139,(14, 181),4	143,(13, 129),4	147,(13, 26),4	151,(14, 144),8	159,(15, 43),8	167,(15, 188),8	175,(15, 86),8	183,(15, 187),8	191,(14, 199),8	199,(15, 73),4	203,(13, 73),4	207,(15, 90),8	215,(13, 105),8	223,(15, 193),12	235,(15, 88),12	247,(13, 60),12	259,(14, 74),12	271,(13, 30),12	283,(15, 35),12	295,(15, 149),12	307,(15, 96),12	319,(13, 96),4	323,(15, 47),4	327,(14, 47),12	339,(13, 67),16	355,(13, 80),12	367,(14, 80),4	371,(15, 36),16	387,(15, 95),12	399,(14, 95),4	403,(14, 177),16	419,(14, 66),16	435,(15, 76),8	443,(14, 76),12	455,(15, 99),20	475,(15, 171),20	495,(15, 165),20	515,(15, 59),24	539,(13, 152),24	563,(13, 140),4	567,(14, 140),20	587,(14, 51),24	611,(14, 92),24	635,(15, 191),20	655,(13, 191),4	659,(15, 135),4	663,(13, 135),20	683,(15, 78),8	691,(13, 78),4	695,(14, 78),12	707,(15, 103),16	723,(13, 103),8	731,(14, 39),28	759,(14, 189),28	787,(15, 56),24	811,(14, 56),4	815,(15, 156),28	843,(15, 124),28	871,(15, 75),24	895,(13, 75),4	899,(13, 34),28	927,(15, 194),16	943,(14, 194),12	955,(15, 109),24	979,(14, 109),8	987,(15, 58),36	1023,(14, 98),36	1059,(15, 139),12	1071,(14, 139),28	1099,(15, 126),8	1107,(13, 126),32	1139,(13, 71),40	1179,(14, 71),4	1183,(15, 42),40	1223,(13, 42),4	1227,(14, 137),52	1279,(14, 62),52	1331,(15, 169),44	1375,(14, 169),12	1387,(13, 87),68	1455,(15, 175),68	1523,(14, 175),4	1527,(13, 65),76	1603,(15, 114),4	1607,(13, 114),56	1663,(14, 114),36	1699,(15, 200),100	1799,(14, 190),112	1911,(15, 157),16	1927,(13, 157),108	2035,(14, 157),4	2039,(15, 182),144	2183,(13, 182),4	2187,(14, 182),4	2191,(14, 143),200	2391,(13, 125),204	2595,(14, 125),4	2599,(13, 38),32	2631,(14, 38),184	2815,(15, 195),4	2819,(14, 195),224	3043,(82, 201),4	3047,(108, 201),4	3051,(77, 201),4	3055,(136, 201),4	3059,(55, 201),4	3063,(127, 201),4	3067,(184, 201),4	3071,(155, 201),4	3075,(161, 201),4	3079,(192, 201),4	3083,(46, 201),4	3087,(113, 201),4	3091,(173, 201),4	3095,(130, 201),4	3099,(70, 201),4	3103,(146, 201),4	3107,(170, 201),4	3111,(112, 201),4	3115,(176, 201),4	3119,(132, 201),4	3123,(100, 201),4	3127,(131, 201),4	3131,(142, 201),4	3135,(141, 201),4	3139,(115, 201),4	3143,(48, 201),4	3147,(28, 201),4	3151,(29, 201),4	3651,(44, 201),4	
21,(0, 13),20	41,(12, 82),4	45,(11, 82),16	61,(0, 14),20	81,(8, 108),4	85,(3, 108),12	97,(6, 77),4	101,(4, 77),4	105,(20, 77),8	115,(15, 29),4	141,(3, 55),4	145,(9, 55),32	213,(19, 184),4	217,(6, 184),4	221,(17, 184),8	229,(20, 184),20	289,(6, 161),12	301,(7, 161),4	305,(2, 161),16	321,(1, 161),8	329,(12, 192),4	333,(3, 192),8	341,(18, 192),4	345,(20, 192),28	373,(6, 46),28	401,(17, 46),4	405,(1, 46),4	409,(8, 46),12	421,(20, 113),32	453,(9, 113),40	493,(5, 173),36	529,(16, 173),40	569,(20, 173),4	573,(6, 130),64	637,(17, 130),12	649,(16, 130),4	653,(18, 70),20	673,(16, 70),60	733,(20, 70),4	737,(12, 146),24	761,(6, 146),28	789,(10, 146),4	793,(1, 146),4	797,(8, 146),28	825,(18, 146),8	833,(2, 170),16	849,(11, 170),28	877,(4, 170),52	1133,(19, 132),12	1145,(5, 132),4	1149,(6, 132),60	1209,(2, 132),12	1221,(10, 132),4	1225,(8, 132),28	1253,(7, 100),4	1257,(3, 100),20	1277,(4, 100),100	1377,(19, 131),4	1381,(4, 131),148	1529,(17, 142),20	1549,(16, 142),144	1869,(7, 115),20	1889,(2, 115),8	1897,(1, 115),4	1901,(3, 115),20	1921,(4, 115),72	1993,(20, 115),68	2061,(9, 115),32	2093,(12, 48),4	2097,(19, 48),4	2101,(6, 48),4	2105,(7, 48),24	2129,(2, 48),152	2281,(17, 48),28	2309,(3, 48),4	2313,(16, 48),12	2325,(19, 28),4	2329,(7, 28),24	2353,(2, 28),4	2357,(1, 28),36	2393,(8, 28),92	2485,(18, 28),136	2621,(20, 28),20	2641,(7, 29),32	2673,(17, 29),16	2689,(1, 29),24	2713,(16, 29),252	2965,(9, 29),132	
1,(0, 15),20	113,(7, 136),12	125,(11, 136),4	129,(10, 136),12	177,(19, 127),4	181,(16, 127),4	185,(9, 127),28	249,(19, 155),12	261,(8, 155),12	273,(4, 155),16	455,(13, 112),72	929,(12, 112),8	937,(2, 112),72	1009,(3, 112),12	1021,(18, 112),8	1029,(11, 176),32	1061,(8, 176),52	1113,(3, 176),4	1117,(4, 176),12	1129,(20, 176),4	1693,(11, 141),4	1697,(1, 141),116	1813,(4, 141),48	1861,(16, 141),8	3097,(12, 44),4	3101,(19, 44),24	3125,(5, 44),332	3457,(6, 44),28	3485,(2, 44),124	3609,(10, 44),20	3629,(4, 44),12	3641,(18, 44),4	3645,(9, 44),4	
# Outgoing
1,(0, 15),20	21,(0, 13),20	41,(12, 82),4	45,(11, 82),16	61,(0, 14),20	81,(8, 108),4	85,(3, 108),12	97,(6, 77),4	101,(4, 77),4	105,(20, 77),8	113,(7, 136),12	125,(11, 136),4	129,(10, 136),12	141,(3, 55),4	145,(9, 55),32	177,(19, 127),4	181,(16, 127),4	185,(9, 127),28	213,(19, 184),4	217,(6, 184),4	221,(17, 184),8	229,(20, 184),20	249,(19, 155),12	261,(8, 155),12	273,(4, 155),16	289,(6, 161),12	301,(7, 161),4	305,(2, 161),16	321,(1, 161),8	329,(12, 192),4	333,(3, 192),8	341,(18, 192),4	345,(20, 192),28	373,(6, 46),28	401,(17, 46),4	405,(1, 46),4	409,(8, 46),12	421,(20, 113),32	453,(9, 113),40	493,(5, 173),36	529,(16, 173),40	569,(20, 173),4	573,(6, 130),64	637,(17, 130),12	649,(16, 130),4	653,(18, 70),20	673,(16, 70),60	733,(20, 70),4	737,(12, 146),24	761,(6, 146),28	789,(10, 146),4	793,(1, 146),4	797,(8, 146),28	825,(18, 146),8	833,(2, 170),16	849,(11, 170),28	877,(4, 170),52	929,(12, 112),8	937,(2, 112),72	1009,(3, 112),12	1021,(18, 112),8	1029,(11, 176),32	1061,(8, 176),52	1113,(3, 176),4	1117,(4, 176),12	1129,(20, 176),4	1133,(19, 132),12	1145,(5, 132),4	1149,(6, 132),60	1209,(2, 132),12	1221,(10, 132),4	1225,(8, 132),28	1253,(7, 100),4	1257,(3, 100),20	1277,(4, 100),100	1377,(19, 131),4	1381,(4, 131),148	1529,(17, 142),20	1549,(16, 142),144	1693,(11, 141),4	1697,(1, 141),116	1813,(4, 141),48	1861,(16, 141),8	1869,(7, 115),20	1889,(2, 115),8	1897,(1, 115),4	1901,(3, 115),20	1921,(4, 115),72	1993,(20, 115),68	2061,(9, 115),32	2093,(12, 48),4	2097,(19, 48),4	2101,(6, 48),4	2105,(7, 48),24	2129,(2, 48),152	2281,(17, 48),28	2309,(3, 48),4	2313,(16, 48),12	2325,(19, 28),4	2329,(7, 28),24	2353,(2, 28),4	2357,(1, 28),36	2393,(8, 28),92	2485,(18, 28),136	2621,(20, 28),20	2641,(7, 29),32	2673,(17, 29),16	2689,(1, 29),24	2713,(16, 29),252	2965,(9, 29),132	3097,(12, 44),4	3101,(19, 44),24	3125,(5, 44),332	3457,(6, 44),28	3485,(2, 44),124	3609,(10, 44),20	3629,(4, 44),12	3641,(18, 44),4	3645,(9, 44),4	
83,(14, 183),4	107,(13, 179),4	115,(13, 164),4	119,(13, 101),4	127,(14, 134),4	139,(14, 181),4	143,(13, 129),4	147,(13, 26),4	151,(14, 144),8	191,(14, 199),8	203,(13, 73),4	215,(13, 105),8	247,(13, 60),12	259,(14, 74),12	271,(13, 30),12	319,(13, 96),4	327,(14, 47),12	339,(13, 67),16	355,(13, 80),12	367,(14, 80),4	399,(14, 95),4	403,(14, 177),16	419,(14, 66),16	443,(14, 76),12	455,(13, 112),72	539,(13, 152),24	563,(13, 140),4	567,(14, 140),20	587,(14, 51),24	611,(14, 92),24	655,(13, 191),4	663,(13, 135),20	691,(13, 78),4	695,(14, 78),12	723,(13, 103),8	731,(14, 39),28	759,(14, 189),28	811,(14, 56),4	895,(13, 75),4	899,(13, 34),28	943,(14, 194),12	979,(14, 109),8	1023,(14, 98),36	1071,(14, 139),28	1107,(13, 126),32	1139,(13, 71),40	1179,(14, 71),4	1223,(13, 42),4	1227,(14, 137),52	1279,(14, 62),52	1375,(14, 169),12	1387,(13, 87),68	1523,(14, 175),4	1527,(13, 65),76	1607,(13, 114),56	1663,(14, 114),36	1799,(14, 190),112	1927,(13, 157),108	2035,(14, 157),4	2183,(13, 182),4	2187,(14, 182),4	2191,(14, 143),200	2391,(13, 125),204	2595,(14, 125),4	2599,(13, 38),32	2631,(14, 38),184	2819,(14, 195),224	3043,(82, 201),4	3047,(108, 201),4	3051,(77, 201),4	3059,(55, 201),4	3067,(184, 201),4	3075,(161, 201),4	3079,(192, 201),4	3083,(46, 201),4	3087,(113, 201),4	3091,(173, 201),4	3095,(130, 201),4	3099,(70, 201),4	3103,(146, 201),4	3107,(170, 201),4	3119,(132, 201),4	3123,(100, 201),4	3127,(131, 201),4	3131,(142, 201),4	3139,(115, 201),4	3143,(48, 201),4	3147,(28, 201),4	3151,(29, 201),4	
87,(15, 198),4	91,(15, 69),4	95,(15, 107),4	99,(15, 72),4	103,(15, 25),4	111,(15, 21),4	115,(15, 29),4	123,(15, 37),4	131,(15, 153),4	135,(15, 33),4	159,(15, 43),8	167,(15, 188),8	175,(15, 86),8	183,(15, 187),8	199,(15, 73),4	207,(15, 90),8	223,(15, 193),12	235,(15, 88),12	283,(15, 35),12	295,(15, 149),12	307,(15, 96),12	323,(15, 47),4	371,(15, 36),16	387,(15, 95),12	435,(15, 76),8	455,(15, 99),20	475,(15, 171),20	495,(15, 165),20	515,(15, 59),24	635,(15, 191),20	659,(15, 135),4	683,(15, 78),8	707,(15, 103),16	787,(15, 56),24	815,(15, 156),28	843,(15, 124),28	871,(15, 75),24	927,(15, 194),16	955,(15, 109),24	987,(15, 58),36	1059,(15, 139),12	1099,(15, 126),8	1183,(15, 42),40	1331,(15, 169),44	1455,(15, 175),68	1603,(15, 114),4	1699,(15, 200),100	1911,(15, 157),16	2039,(15, 182),144	2815,(15, 195),4	3055,(136, 201),4	3063,(127, 201),4	3071,(155, 201),4	3111,(112, 201),4	3115,(176, 201),4	3135,(141, 201),4	3651,(44, 201),4	
