6197
# CPU
2512,10,39	2551,100,39	2590,40,39	2629,50,39	2668,22,39	2707,60,39	2785,70,39	3325,90,39	4282,120,39	5095,30,39	5611,80,39	6154,110,39	
2233,9,39	2296,109,39	2335,21,39	2383,69,39	2422,49,39	2461,59,39	2500,29,39	2581,39,39	2788,99,39	2872,119,39	2911,79,39	5614,89,39	
1954,8,39	1993,118,39	2032,58,39	2071,108,39	2356,98,39	2395,20,39	2434,28,39	2581,48,39	2620,88,39	3265,68,39	5098,38,39	5590,78,39	
1675,7,39	1714,97,39	1753,67,39	1792,77,39	1831,18,39	1870,37,39	1909,107,39	2335,47,39	2374,57,39	3268,87,39	3640,27,39	4252,117,39	
1396,6,39	1435,86,39	1474,116,39	2545,96,39	2584,36,39	2806,16,39	2884,76,39	3238,46,39	3277,56,39	3637,26,39	5575,66,39	5992,106,39	
1117,5,39	1156,45,39	1195,55,39	2281,15,39	2353,75,39	2842,25,39	2908,85,39	3331,95,39	3694,35,39	3853,65,39	4192,115,39	5926,105,39	
838,4,39	2137,104,39	2356,84,39	2554,14,39	2593,34,39	2632,44,39	2851,24,39	3421,64,39	3526,94,39	3565,54,39	4171,114,39	5587,74,39	
559,3,39	880,23,39	1213,13,39	1510,113,39	2542,83,39	2632,103,39	2857,33,39	3241,53,39	3757,43,39	3850,63,39	3889,73,39	5632,93,39	
280,2,39	319,112,39	919,72,39	2323,32,39	2791,12,39	2830,42,39	2869,92,39	2962,52,39	3133,82,39	3634,19,39	5125,62,39	5914,102,39	
0,0,1	1,1,39	40,11,39	79,17,39	118,41,39	2149,111,39	2188,91,39	2227,81,39	2266,71,39	2305,31,39	2707,51,39	3055,61,39	5635,101,39	6196,121,1	
# Incoming
2233,(0, 10),279	2512,(4, 100),18	2530,(6, 40),3	2533,(6, 70),9	2542,(8, 22),12	2554,(9, 60),3	2557,(9, 90),60	2653,(8, 70),132	2785,(9, 120),9	2851,(1, 30),69	2920,(12, 90),3	2950,(12, 120),3	3268,(1, 90),57	3865,(11, 110),120	4252,(11, 120),30	4282,(7, 30),813	5590,(7, 80),21	5611,(12, 110),543	
1954,(0, 9),279	2233,(2, 21),33	2266,(2, 59),27	2293,(2, 109),3	2296,(3, 21),24	2320,(3, 69),63	2383,(4, 49),24	2407,(4, 59),12	2419,(5, 29),81	2500,(6, 39),3	2557,(10, 89),3	2566,(8, 39),15	2581,(5, 119),45	2785,(8, 99),3	2863,(8, 119),9	2884,(12, 79),15	5611,(7, 89),3	
1675,(0, 8),279	1954,(2, 20),9	1963,(4, 118),3	1969,(2, 48),3	1987,(2, 58),6	1993,(2, 68),42	2035,(4, 68),45	2110,(2, 98),3	2161,(4, 98),195	2356,(9, 20),3	2359,(9, 28),12	2500,(5, 48),81	2602,(10, 88),9	3253,(1, 68),12	5095,(7, 38),3	5587,(7, 78),3	
1396,(0, 7),279	1675,(3, 67),3	1678,(3, 97),27	1705,(4, 57),45	1750,(4, 77),6	1756,(5, 18),42	1798,(5, 37),18	1816,(6, 27),12	1828,(6, 47),27	1855,(6, 107),36	2326,(9, 47),9	2335,(9, 57),3	3265,(1, 87),3	3637,(11, 27),3	4192,(11, 117),60	
1117,(0, 6),279	1396,(3, 16),3	1399,(3, 26),3	1402,(4, 46),3	1405,(4, 86),3	1408,(4, 116),3	1411,(5, 46),45	1972,(2, 56),15	2542,(9, 96),3	2554,(10, 36),3	2632,(9, 106),15	2791,(1, 16),15	2863,(12, 76),21	2920,(1, 46),318	3241,(1, 56),12	3634,(11, 26),3	3637,(10, 106),333	5125,(7, 66),450	5926,(7, 106),66	
838,(0, 5),279	1402,(3, 35),21	1963,(2, 25),6	2101,(2, 95),9	2272,(9, 15),9	2338,(9, 75),15	2560,(10, 95),3	2578,(10, 65),24	2830,(12, 25),12	2899,(12, 85),9	3328,(1, 95),3	3640,(11, 35),54	3850,(11, 65),3	4171,(11, 115),21	5914,(7, 105),12	
559,(0, 4),279	1252,(5, 54),15	1423,(3, 44),3	1435,(6, 24),18	1468,(3, 104),42	1510,(6, 64),6	1570,(6, 114),3	2113,(2, 104),24	2353,(9, 84),3	2551,(10, 14),3	2554,(8, 24),9	2563,(8, 34),3	2566,(10, 34),12	2605,(8, 44),18	2623,(8, 54),30	2806,(1, 24),45	2851,(9, 64),570	3421,(10, 94),105	3526,(12, 54),9	3985,(11, 114),186	5575,(7, 74),12	
280,(0, 3),279	877,(4, 23),3	883,(4, 53),18	919,(4, 103),15	1156,(5, 13),57	1213,(5, 43),39	1267,(5, 73),18	1453,(6, 33),39	1507,(6, 113),3	1516,(6, 93),54	2035,(2, 73),60	2095,(2, 93),6	2323,(9, 33),3	2509,(9, 83),33	2581,(8, 43),24	2617,(9, 103),15	2842,(12, 33),15	2857,(12, 53),6	2923,(12, 93),27	3238,(1, 53),3	3325,(1, 93),3	3694,(11, 43),63	3757,(11, 63),93	3853,(11, 73),3	5614,(7, 93),18	
1,(0, 2),279	880,(4, 42),3	901,(4, 72),18	1426,(3, 92),42	1492,(6, 82),15	2287,(9, 32),36	2512,(0, 12),279	2791,(8, 42),3	2794,(8, 92),60	2854,(8, 102),9	2863,(10, 52),99	3055,(10, 82),78	3331,(11, 19),303	3856,(11, 102),9	5098,(7, 62),27	5635,(7, 102),279	
2137,(2, 111),12	2149,(112, 121),3	2152,(3, 51),3	2155,(3, 91),3	2158,(4, 81),3	2161,(23, 121),3	2164,(72, 121),3	2167,(45, 121),3	2170,(55, 121),3	2173,(13, 121),3	2176,(6, 71),45	2221,(86, 121),3	2224,(116, 121),3	2227,(113, 121),3	2281,(9, 31),6	2320,(15, 121),3	2356,(104, 121),3	2362,(32, 121),3	2371,(9, 61),138	2509,(84, 121),3	2545,(109, 121),3	2548,(21, 121),3	2551,(69, 121),3	2581,(83, 121),3	2584,(96, 121),3	2593,(14, 121),3	2611,(100, 121),3	2623,(36, 121),3	2626,(75, 121),3	2629,(40, 121),3	2632,(34, 121),3	2647,(49, 121),3	2650,(59, 121),3	2653,(29, 121),3	2656,(10, 51),51	2707,(39, 121),3	2710,(50, 121),3	2713,(44, 121),3	2716,(103, 121),3	2719,(22, 121),3	2746,(60, 121),3	2788,(118, 121),3	2824,(70, 121),3	2827,(99, 121),3	2845,(16, 121),3	2872,(58, 121),3	2875,(108, 121),3	2878,(98, 121),3	2881,(20, 121),3	2884,(28, 121),3	2887,(48, 121),3	2890,(88, 121),3	2893,(25, 121),3	2896,(24, 121),3	2899,(33, 121),3	2908,(42, 121),3	2911,(92, 121),3	2923,(76, 121),3	2947,(85, 121),3	2962,(10, 61),93	3055,(52, 121),3	3172,(82, 121),3	3277,(46, 121),3	3280,(53, 121),3	3304,(68, 121),3	3316,(56, 121),3	3364,(90, 121),3	3370,(95, 121),3	3421,(119, 121),3	3424,(79, 121),3	3460,(64, 121),3	3565,(94, 121),3	3604,(54, 121),3	3673,(19, 121),3	3676,(26, 121),3	3733,(35, 121),3	3796,(43, 121),3	3889,(63, 121),3	3892,(65, 121),3	3928,(73, 121),3	4210,(114, 121),3	4231,(115, 121),3	4321,(120, 121),3	5134,(30, 121),3	5137,(38, 121),3	5164,(62, 121),3	5614,(66, 121),3	5626,(74, 121),3	5629,(78, 121),3	5632,(7, 101),3	5650,(80, 121),3	5653,(89, 121),3	5671,(93, 121),3	5965,(105, 121),3	5992,(97, 121),3	5995,(67, 121),3	5998,(77, 121),3	6001,(18, 121),3	6004,(37, 121),3	6007,(107, 121),3	6010,(47, 121),3	6013,(57, 121),3	6016,(87, 121),3	6019,(27, 121),3	6022,(117, 121),3	6031,(106, 121),3	6154,(102, 121),3	6193,(110, 121),3	
# Outgoing
2551,(10, 14),3	2554,(10, 36),3	2557,(10, 89),3	2560,(10, 95),3	2566,(10, 34),12	2578,(10, 65),24	2602,(10, 88),9	2611,(100, 121),3	2629,(40, 121),3	2656,(10, 51),51	2710,(50, 121),3	2719,(22, 121),3	2746,(60, 121),3	2824,(70, 121),3	2863,(10, 52),99	2962,(10, 61),93	3055,(10, 82),78	3364,(90, 121),3	3421,(10, 94),105	3637,(10, 106),333	4321,(120, 121),3	5134,(30, 121),3	5650,(80, 121),3	6193,(110, 121),3	
2272,(9, 15),9	2281,(9, 31),6	2287,(9, 32),36	2323,(9, 33),3	2326,(9, 47),9	2335,(9, 57),3	2338,(9, 75),15	2353,(9, 84),3	2356,(9, 20),3	2359,(9, 28),12	2371,(9, 61),138	2509,(9, 83),33	2542,(9, 96),3	2545,(109, 121),3	2548,(21, 121),3	2551,(69, 121),3	2554,(9, 60),3	2557,(9, 90),60	2617,(9, 103),15	2632,(9, 106),15	2647,(49, 121),3	2650,(59, 121),3	2653,(29, 121),3	2707,(39, 121),3	2785,(9, 120),9	2827,(99, 121),3	2851,(9, 64),570	3421,(119, 121),3	3424,(79, 121),3	5653,(89, 121),3	
2542,(8, 22),12	2554,(8, 24),9	2563,(8, 34),3	2566,(8, 39),15	2581,(8, 43),24	2605,(8, 44),18	2623,(8, 54),30	2653,(8, 70),132	2785,(8, 99),3	2788,(118, 121),3	2791,(8, 42),3	2794,(8, 92),60	2854,(8, 102),9	2863,(8, 119),9	2872,(58, 121),3	2875,(108, 121),3	2878,(98, 121),3	2881,(20, 121),3	2884,(28, 121),3	2887,(48, 121),3	2890,(88, 121),3	3304,(68, 121),3	5137,(38, 121),3	5629,(78, 121),3	
4282,(7, 30),813	5095,(7, 38),3	5098,(7, 62),27	5125,(7, 66),450	5575,(7, 74),12	5587,(7, 78),3	5590,(7, 80),21	5611,(7, 89),3	5614,(7, 93),18	5632,(7, 101),3	5635,(7, 102),279	5914,(7, 105),12	5926,(7, 106),66	5992,(97, 121),3	5995,(67, 121),3	5998,(77, 121),3	6001,(18, 121),3	6004,(37, 121),3	6007,(107, 121),3	6010,(47, 121),3	6013,(57, 121),3	6016,(87, 121),3	6019,(27, 121),3	6022,(117, 121),3	
1435,(6, 24),18	1453,(6, 33),39	1492,(6, 82),15	1507,(6, 113),3	1510,(6, 64),6	1516,(6, 93),54	1570,(6, 114),3	1816,(6, 27),12	1828,(6, 47),27	1855,(6, 107),36	2176,(6, 71),45	2221,(86, 121),3	2224,(116, 121),3	2500,(6, 39),3	2530,(6, 40),3	2533,(6, 70),9	2584,(96, 121),3	2623,(36, 121),3	2845,(16, 121),3	2923,(76, 121),3	3277,(46, 121),3	3316,(56, 121),3	3676,(26, 121),3	5614,(66, 121),3	6031,(106, 121),3	
1156,(5, 13),57	1213,(5, 43),39	1252,(5, 54),15	1267,(5, 73),18	1411,(5, 46),45	1756,(5, 18),42	1798,(5, 37),18	2167,(45, 121),3	2170,(55, 121),3	2320,(15, 121),3	2419,(5, 29),81	2500,(5, 48),81	2581,(5, 119),45	2626,(75, 121),3	2893,(25, 121),3	2947,(85, 121),3	3370,(95, 121),3	3733,(35, 121),3	3892,(65, 121),3	4231,(115, 121),3	5965,(105, 121),3	
877,(4, 23),3	880,(4, 42),3	883,(4, 53),18	901,(4, 72),18	919,(4, 103),15	1402,(4, 46),3	1405,(4, 86),3	1408,(4, 116),3	1705,(4, 57),45	1750,(4, 77),6	1963,(4, 118),3	2035,(4, 68),45	2158,(4, 81),3	2161,(4, 98),195	2356,(104, 121),3	2383,(4, 49),24	2407,(4, 59),12	2509,(84, 121),3	2512,(4, 100),18	2593,(14, 121),3	2632,(34, 121),3	2713,(44, 121),3	2896,(24, 121),3	3460,(64, 121),3	3565,(94, 121),3	3604,(54, 121),3	4210,(114, 121),3	5626,(74, 121),3	
1396,(3, 16),3	1399,(3, 26),3	1402,(3, 35),21	1423,(3, 44),3	1426,(3, 92),42	1468,(3, 104),42	1675,(3, 67),3	1678,(3, 97),27	2152,(3, 51),3	2155,(3, 91),3	2161,(23, 121),3	2173,(13, 121),3	2227,(113, 121),3	2296,(3, 21),24	2320,(3, 69),63	2581,(83, 121),3	2716,(103, 121),3	2899,(33, 121),3	3280,(53, 121),3	3796,(43, 121),3	3889,(63, 121),3	3928,(73, 121),3	5671,(93, 121),3	
1954,(2, 20),9	1963,(2, 25),6	1969,(2, 48),3	1972,(2, 56),15	1987,(2, 58),6	1993,(2, 68),42	2035,(2, 73),60	2095,(2, 93),6	2101,(2, 95),9	2110,(2, 98),3	2113,(2, 104),24	2137,(2, 111),12	2149,(112, 121),3	2164,(72, 121),3	2233,(2, 21),33	2266,(2, 59),27	2293,(2, 109),3	2362,(32, 121),3	2830,(12, 25),12	2842,(12, 33),15	2857,(12, 53),6	2863,(12, 76),21	2884,(12, 79),15	2899,(12, 85),9	2908,(42, 121),3	2911,(92, 121),3	2920,(12, 90),3	2923,(12, 93),27	2950,(12, 120),3	3055,(52, 121),3	3172,(82, 121),3	3526,(12, 54),9	3673,(19, 121),3	5164,(62, 121),3	5611,(12, 110),543	6154,(102, 121),3	
1,(0, 2),279	280,(0, 3),279	559,(0, 4),279	838,(0, 5),279	1117,(0, 6),279	1396,(0, 7),279	1675,(0, 8),279	1954,(0, 9),279	2233,(0, 10),279	2512,(0, 12),279	2791,(1, 16),15	2806,(1, 24),45	2851,(1, 30),69	2920,(1, 46),318	3238,(1, 53),3	3241,(1, 56),12	3253,(1, 68),12	3265,(1, 87),3	3268,(1, 90),57	3325,(1, 93),3	3328,(1, 95),3	3331,(11, 19),303	3634,(11, 26),3	3637,(11, 27),3	3640,(11, 35),54	3694,(11, 43),63	3757,(11, 63),93	3850,(11, 65),3	3853,(11, 73),3	3856,(11, 102),9	3865,(11, 110),120	3985,(11, 114),186	4171,(11, 115),21	4192,(11, 117),60	4252,(11, 120),30	
