122
# CPU
0,0,1	1,2,8	9,10,8	17,3,8	25,7,8	33,17,8	41,9,8	49,20,8	57,13,8	65,5,8	73,1,8	81,4,8	89,18,8	97,8,8	105,16,8	113,11,8	121,21,1	
11,12,8	19,15,8	35,14,8	87,6,8	
13,19,8	
# Incoming
19,(12, 21),14	33,(19, 21),14	47,(15, 21),14	61,(14, 21),14	95,(6, 21),14	
9,(2, 12),2	13,(2, 15),6	19,(2, 14),16	81,(1, 6),6	
11,(2, 19),2	
# Outgoing
9,(2, 12),2	11,(2, 19),2	13,(2, 15),6	19,(2, 14),16	81,(1, 6),6	
19,(12, 21),14	47,(15, 21),14	61,(14, 21),14	95,(6, 21),14	
33,(19, 21),14	
