17174
# CPU
209,5,5	273,84,5	417,10,5	489,152,5	553,145,5	625,15,5	630,39,5	635,79,5	749,54,5	757,61,5	762,74,5	833,20,5	838,185,5	873,117,5	881,188,5	2701,57,5	2797,120,5	2905,160,5	2910,42,5	2945,148,5	3181,32,5	3789,52,5	3821,170,5	3905,99,5	4073,164,5	4078,114,5	4349,182,5	4837,93,5	5345,142,5	5957,105,5	5981,198,5	6017,67,5	6033,176,5	6097,133,5	6145,97,5	6273,72,5	6633,139,5	6729,167,5	6929,59,5	6941,75,5	6957,77,5	7321,95,5	7333,101,5	7377,44,5	7401,73,5	7549,87,5	7617,91,5	7665,154,5	7721,162,5	7737,173,5	7745,195,5	7761,28,5	7785,38,5	7790,40,5	7795,76,5	7800,78,5	7805,111,5	7810,80,5	7953,126,5	7961,129,5	8109,158,5	8157,49,5	8197,71,5	8202,82,5	8213,35,5	8369,89,5	8409,107,5	8461,123,5	8585,109,5	8637,156,5	8729,179,5	8761,191,5	10913,136,5	
157,4,5	165,98,5	365,9,5	370,106,5	397,177,5	573,14,5	578,41,5	583,163,5	588,43,5	641,159,5	781,19,5	786,189,5	909,37,5	1337,62,5	1353,110,5	1417,34,5	1469,124,5	1474,140,5	1961,146,5	1981,186,5	2033,100,5	2038,115,5	2329,134,5	2569,60,5	2613,81,5	2709,180,5	2725,96,5	2741,168,5	2789,153,5	2801,70,5	2905,127,5	2933,143,5	3265,112,5	3305,45,5	3821,51,5	4061,102,5	4073,108,5	4273,118,5	4353,121,5	6021,161,5	6045,27,5	6153,157,5	6173,83,5	7429,85,5	7445,90,5	7793,92,5	7798,94,5	8069,192,5	8117,155,5	8122,165,5	8177,183,5	8209,31,5	8453,56,5	8581,88,5	8621,137,5	8713,171,5	8721,174,5	8781,196,5	9845,58,5	10029,69,5	10089,53,5	10145,130,5	10361,149,5	10485,199,5	
105,3,5	246,63,5	313,8,5	345,26,5	413,187,5	521,13,5	729,18,5	734,135,5	893,169,5	1629,197,5	2249,48,5	2661,122,5	2685,55,5	2797,24,5	2881,116,5	2901,150,5	2909,128,5	3161,172,5	3177,30,5	4297,138,5	5009,151,5	5309,66,5	6061,113,5	6165,36,5	6181,68,5	6413,194,5	7401,175,5	7721,144,5	7777,147,5	7809,119,5	8081,141,5	8113,200,5	8125,178,5	8185,190,5	8257,181,5	8597,125,5	8617,132,5	8641,166,5	8757,184,5	17173,201,1	
53,2,5	261,7,5	469,12,5	609,46,5	677,17,5	817,22,5	1081,29,5	2361,65,5	2537,47,5	3465,64,5	4101,103,5	5925,131,5	6157,33,5	7709,104,5	8189,23,5	
0,0,1	1,6,5	6,11,5	11,16,5	16,1,5	62,21,5	1149,86,5	3025,25,5	6037,193,5	7353,50,5	
# Incoming
157,(0, 5),52	209,(2, 57),16	225,(2, 61),20	245,(2, 72),12	257,(2, 84),16	273,(2, 97),24	297,(2, 164),4	301,(2, 170),60	361,(7, 176),4	365,(0, 10),52	417,(2, 152),72	489,(2, 188),32	521,(2, 198),28	549,(3, 145),4	553,(3, 154),4	557,(3, 158),4	561,(3, 162),8	569,(4, 49),4	573,(0, 15),52	625,(3, 89),80	705,(3, 179),12	717,(4, 42),28	745,(4, 54),4	749,(4, 57),4	753,(4, 61),4	757,(4, 74),4	761,(4, 76),20	781,(0, 20),52	833,(6, 28),20	853,(4, 107),16	869,(4, 117),4	873,(4, 139),4	877,(4, 188),4	881,(4, 198),4	885,(8, 40),4	889,(7, 52),8	897,(7, 80),8	905,(8, 129),4	909,(6, 40),8	917,(6, 44),1748	2665,(7, 87),20	2685,(6, 57),16	2701,(7, 101),12	2713,(7, 123),12	2725,(7, 158),16	2741,(9, 40),4	2745,(9, 91),4	2749,(6, 67),4	2753,(7, 120),44	2797,(9, 167),4	2801,(6, 71),8	2809,(6, 80),4	2813,(2, 160),92	2905,(12, 42),4	2909,(6, 148),36	2945,(12, 71),4	2949,(6, 173),44	2993,(7, 76),60	3053,(6, 179),44	3097,(6, 191),76	3173,(12, 170),4	3177,(11, 32),4	3181,(11, 38),108	3289,(3, 52),500	3789,(7, 182),12	3801,(9, 97),12	3813,(13, 142),4	3817,(13, 170),4	3821,(11, 71),16	3837,(11, 75),4	3841,(14, 105),4	3845,(11, 93),8	3853,(11, 95),4	3857,(11, 99),48	3905,(11, 101),152	4057,(14, 126),4	4061,(11, 105),4	4065,(14, 133),4	4069,(14, 164),4	4073,(11, 114),4	4077,(4, 191),124	4201,(7, 167),144	4345,(14, 182),4	4349,(17, 59),4	4353,(11, 129),4	4357,(11, 136),4	4361,(11, 142),44	4405,(8, 76),52	4457,(8, 87),120	4577,(8, 93),260	4837,(8, 105),52	4889,(8, 123),252	5141,(8, 142),204	5345,(8, 162),600	5945,(9, 105),12	5957,(9, 109),12	5969,(9, 198),12	5981,(13, 49),32	6013,(17, 67),4	6017,(17, 77),4	6021,(11, 176),12	6033,(9, 133),64	6097,(12, 97),48	6145,(13, 107),32	6177,(17, 123),4	6181,(16, 72),92	6273,(9, 77),284	6557,(12, 191),60	6617,(13, 139),16	6633,(13, 154),32	6665,(13, 167),64	6729,(14, 44),144	6873,(14, 59),56	6929,(14, 75),12	6941,(14, 77),16	6957,(14, 78),236	7193,(14, 80),20	7213,(14, 95),108	7321,(14, 101),12	7333,(17, 35),28	7361,(17, 44),16	7377,(17, 73),24	7401,(17, 87),148	7549,(17, 162),16	7565,(17, 173),36	7601,(17, 179),4	7605,(17, 195),8	7613,(18, 91),4	7617,(18, 154),48	7665,(18, 162),56	7721,(18, 173),16	7737,(18, 195),8	7745,(19, 28),16	7761,(19, 38),24	7785,(19, 40),4	7789,(19, 76),4	7793,(19, 78),4	7797,(16, 111),4	7801,(19, 80),8	7809,(16, 126),144	7953,(16, 129),8	7961,(18, 158),148	8109,(19, 49),48	8157,(19, 71),40	8197,(19, 82),4	8209,(1, 35),4	8213,(19, 89),156	8369,(19, 107),40	8409,(19, 123),52	8581,(1, 109),4	8621,(1, 156),16	8721,(1, 179),8	8757,(1, 191),4	8761,(8, 136),2152	
105,(0, 4),52	157,(2, 62),4	161,(2, 98),4	165,(2, 149),16	181,(2, 163),4	185,(2, 189),4	222,(3, 108),4	226,(3, 130),28	254,(5, 56),12	266,(5, 60),24	290,(5, 90),12	302,(5, 121),4	313,(0, 9),52	365,(2, 177),32	397,(3, 146),8	405,(3, 189),40	445,(5, 161),8	453,(8, 41),68	521,(0, 14),52	573,(2, 159),68	641,(7, 27),4	645,(7, 53),20	665,(10, 90),4	669,(10, 140),4	673,(7, 140),32	705,(7, 174),8	713,(12, 88),4	717,(8, 100),12	729,(0, 19),52	781,(13, 58),4	785,(13, 69),4	789,(13, 85),4	793,(5, 37),100	893,(13, 108),12	905,(6, 37),4	909,(3, 96),172	1081,(5, 118),188	1269,(8, 60),52	1321,(13, 62),16	1337,(13, 110),16	1353,(13, 143),52	1405,(18, 27),8	1413,(18, 34),4	1417,(18, 58),4	1421,(18, 92),4	1425,(18, 94),28	1453,(18, 108),12	1465,(18, 124),4	1469,(18, 140),4	1473,(18, 161),4	1489,(7, 60),140	1629,(13, 27),244	1873,(18, 155),20	1897,(7, 146),64	1961,(7, 186),20	1981,(12, 94),32	2013,(12, 100),20	2033,(12, 115),4	2037,(12, 127),72	2109,(12, 174),4	2113,(12, 196),4	2117,(5, 143),148	2265,(17, 31),4	2269,(17, 51),4	2273,(17, 83),16	2289,(17, 134),40	2329,(17, 168),8	2341,(10, 31),48	2389,(12, 70),140	2537,(10, 60),32	2569,(10, 70),16	2585,(10, 81),28	2613,(10, 121),24	2657,(10, 130),20	2677,(10, 155),8	2685,(10, 180),24	2709,(10, 196),12	2721,(15, 96),4	2725,(15, 168),16	2741,(20, 31),4	2753,(15, 153),36	2793,(6, 70),8	2813,(6, 83),8	2825,(6, 108),8	2837,(6, 127),68	2909,(17, 143),24	2945,(6, 165),4	2949,(17, 192),28	2993,(6, 174),60	3053,(10, 112),212	3289,(11, 45),16	3305,(11, 51),516	3841,(11, 85),4	3845,(12, 171),108	3953,(17, 85),76	4057,(11, 102),4	4065,(11, 108),8	4077,(11, 118),196	4273,(11, 121),80	4353,(18, 149),36	4389,(20, 192),16	4405,(11, 157),1528	5933,(11, 161),88	6033,(16, 27),12	6045,(16, 31),28	6073,(15, 157),80	6153,(20, 83),20	6177,(18, 69),84	6273,(16, 85),1156	7429,(16, 90),16	7445,(16, 92),348	7793,(16, 94),4	7797,(10, 192),272	8081,(16, 155),36	8117,(16, 165),4	8125,(16, 183),52	8189,(1, 31),20	8213,(1, 56),240	8453,(1, 88),128	8617,(1, 137),4	8641,(1, 171),72	8713,(1, 174),8	8761,(1, 196),20	8781,(10, 58),1064	9845,(17, 69),184	10029,(20, 53),60	10089,(20, 130),56	10145,(20, 149),216	10361,(20, 199),124	
53,(0, 3),52	105,(2, 181),16	121,(2, 194),32	230,(5, 63),16	246,(5, 135),8	261,(0, 8),52	313,(5, 26),32	345,(5, 141),40	385,(5, 147),4	389,(5, 166),4	393,(5, 187),20	422,(10, 30),20	453,(10, 184),12	465,(10, 190),4	469,(0, 13),52	521,(4, 151),48	569,(12, 125),4	573,(4, 194),16	589,(98, 201),76	665,(7, 36),8	673,(9, 147),4	677,(0, 18),52	729,(2, 150),160	889,(9, 169),4	893,(6, 36),12	905,(2, 30),344	1249,(2, 184),208	1457,(7, 55),32	1489,(9, 200),8	1497,(106, 201),76	1573,(14, 197),56	1629,(7, 68),24	1653,(7, 113),72	1725,(7, 116),100	1825,(7, 119),60	1885,(7, 138),12	1897,(9, 24),188	2085,(177, 201),76	2161,(12, 48),88	2249,(12, 68),8	2257,(12, 132),4	2261,(12, 178),4	2265,(84, 201),76	2341,(12, 144),24	2365,(14, 181),100	2465,(19, 122),4	2469,(19, 178),20	2489,(19, 194),24	2529,(12, 200),32	2561,(41, 201),76	2637,(10, 128),20	2657,(17, 122),4	2661,(17, 138),4	2665,(6, 55),20	2685,(17, 144),4	2689,(17, 194),4	2701,(6, 66),48	2749,(10, 200),4	2753,(6, 68),40	2793,(15, 24),4	2797,(15, 68),32	2829,(15, 144),4	2833,(6, 119),4	2837,(15, 116),44	2881,(15, 150),20	2905,(6, 128),4	2909,(152, 201),76	2985,(14, 172),176	3173,(11, 30),4	3177,(163, 201),76	3265,(10, 138),1032	4297,(145, 201),76	4373,(14, 190),132	4505,(43, 201),76	4581,(46, 201),76	4657,(15, 147),44	4701,(15, 151),308	5009,(15, 166),24	5033,(15, 184),28	5061,(159, 201),76	5137,(17, 36),56	5193,(19, 66),116	5309,(22, 201),76	5385,(29, 201),76	5461,(65, 201),76	5537,(47, 201),76	5613,(64, 201),76	5689,(103, 201),76	5930,(131, 201),76	6037,(20, 113),24	6061,(20, 132),12	6157,(16, 36),8	6165,(16, 68),16	6181,(15, 194),232	6413,(39, 201),76	6489,(79, 201),76	6565,(54, 201),76	6641,(61, 201),76	6717,(74, 201),76	6793,(33, 201),76	7333,(19, 175),68	7401,(189, 201),76	7477,(37, 201),76	7553,(62, 201),76	7629,(110, 201),76	7709,(20, 144),12	7721,(20, 147),56	7801,(16, 119),8	7809,(34, 201),76	7885,(124, 201),76	7961,(16, 141),120	8081,(20, 200),32	8121,(16, 178),4	8177,(16, 190),8	8185,(20, 181),72	8257,(185, 201),76	8333,(117, 201),76	8409,(188, 201),76	8485,(140, 201),76	8585,(1, 125),12	8597,(1, 132),20	8637,(1, 166),4	8641,(146, 201),76	8729,(1, 184),28	8781,(21, 201),76	8857,(86, 201),76	8933,(186, 201),76	9009,(100, 201),76	9085,(115, 201),76	9161,(134, 201),76	9237,(60, 201),76	9313,(81, 201),76	9389,(180, 201),76	9465,(96, 201),76	9541,(168, 201),76	9617,(153, 201),76	9693,(70, 201),76	9769,(127, 201),76	9845,(57, 201),76	9921,(120, 201),76	9997,(143, 201),76	10073,(25, 201),76	10149,(112, 201),76	10225,(45, 201),76	10301,(51, 201),76	10377,(102, 201),76	10485,(160, 201),76	10561,(42, 201),76	10637,(148, 201),76	10713,(32, 201),76	10789,(52, 201),76	10865,(170, 201),76	10941,(99, 201),76	11017,(108, 201),76	11093,(164, 201),76	11169,(114, 201),76	11245,(118, 201),76	11321,(182, 201),76	11397,(121, 201),76	11473,(93, 201),76	11549,(142, 201),76	11625,(105, 201),76	11701,(198, 201),76	11777,(67, 201),76	11853,(161, 201),76	11929,(176, 201),76	12005,(193, 201),76	12081,(27, 201),76	12157,(133, 201),76	12233,(97, 201),76	12309,(157, 201),76	12385,(83, 201),76	12461,(72, 201),76	12537,(139, 201),76	12613,(167, 201),76	12689,(59, 201),76	12765,(75, 201),76	12841,(77, 201),76	12917,(95, 201),76	12993,(101, 201),76	13069,(50, 201),76	13145,(44, 201),76	13221,(73, 201),76	13297,(85, 201),76	13373,(90, 201),76	13449,(87, 201),76	13525,(91, 201),76	13601,(154, 201),76	13677,(104, 201),76	13753,(162, 201),76	13829,(173, 201),76	13905,(195, 201),76	13981,(28, 201),76	14057,(38, 201),76	14133,(40, 201),76	14209,(92, 201),76	14285,(76, 201),76	14361,(94, 201),76	14437,(78, 201),76	14513,(111, 201),76	14589,(80, 201),76	14665,(126, 201),76	14741,(129, 201),76	14817,(192, 201),76	14893,(158, 201),76	14969,(155, 201),76	15045,(165, 201),76	15121,(49, 201),76	15197,(183, 201),76	15273,(23, 201),76	15349,(71, 201),76	15425,(82, 201),76	15501,(31, 201),76	15577,(35, 201),76	15653,(89, 201),76	15729,(107, 201),76	15805,(56, 201),76	15881,(123, 201),76	15957,(88, 201),76	16033,(109, 201),76	16109,(137, 201),76	16185,(156, 201),76	16261,(171, 201),76	16337,(174, 201),76	16413,(179, 201),76	16489,(191, 201),76	16565,(196, 201),76	16641,(58, 201),76	16717,(69, 201),76	16793,(53, 201),76	16869,(130, 201),76	16945,(149, 201),76	17021,(199, 201),76	17097,(136, 201),76	
1,(0, 2),52	110,(3, 23),4	114,(3, 33),72	209,(0, 7),52	261,(3, 64),4	265,(3, 131),128	417,(0, 12),52	469,(4, 22),40	509,(4, 65),4	513,(4, 103),8	521,(5, 47),72	593,(8, 29),4	597,(8, 131),8	605,(10, 46),4	609,(13, 22),4	625,(0, 17),52	677,(5, 33),116	793,(14, 23),20	813,(18, 22),4	853,(6, 33),40	893,(5, 65),132	1025,(10, 104),44	1069,(15, 29),12	1149,(19, 33),92	1269,(5, 131),848	2117,(13, 65),244	2389,(10, 47),148	2537,(13, 104),216	2821,(6, 104),4	3253,(19, 64),212	3821,(18, 103),280	5309,(19, 131),616	6073,(16, 33),84	7353,(20, 104),356	8185,(1, 23),4	
58,(2, 21),4	186,(3, 50),32	218,(3, 86),4	222,(5, 25),8	393,(8, 25),4	445,(8, 86),8	526,(13, 50),8	549,(12, 25),8	557,(12, 193),12	734,(18, 50),8	893,(14, 50),48	941,(14, 86),208	2753,(18, 25),272	5061,(15, 193),976	6793,(20, 50),560	
# Outgoing
222,(5, 25),8	230,(5, 63),16	246,(5, 135),8	254,(5, 56),12	266,(5, 60),24	290,(5, 90),12	302,(5, 121),4	313,(5, 26),32	345,(5, 141),40	385,(5, 147),4	389,(5, 166),4	393,(5, 187),20	422,(10, 30),20	445,(5, 161),8	453,(10, 184),12	465,(10, 190),4	521,(5, 47),72	605,(10, 46),4	665,(10, 90),4	669,(10, 140),4	677,(5, 33),116	793,(5, 37),100	893,(5, 65),132	1025,(10, 104),44	1069,(15, 29),12	1081,(5, 118),188	1269,(5, 131),848	2117,(5, 143),148	2265,(84, 201),76	2341,(10, 31),48	2389,(10, 47),148	2537,(10, 60),32	2569,(10, 70),16	2585,(10, 81),28	2613,(10, 121),24	2637,(10, 128),20	2657,(10, 130),20	2677,(10, 155),8	2685,(10, 180),24	2709,(10, 196),12	2721,(15, 96),4	2725,(15, 168),16	2741,(20, 31),4	2749,(10, 200),4	2753,(15, 153),36	2793,(15, 24),4	2797,(15, 68),32	2829,(15, 144),4	2837,(15, 116),44	2881,(15, 150),20	2909,(152, 201),76	3053,(10, 112),212	3265,(10, 138),1032	4297,(145, 201),76	4389,(20, 192),16	4657,(15, 147),44	4701,(15, 151),308	5009,(15, 166),24	5033,(15, 184),28	5061,(15, 193),976	6037,(20, 113),24	6061,(20, 132),12	6073,(15, 157),80	6153,(20, 83),20	6181,(15, 194),232	6413,(39, 201),76	6489,(79, 201),76	6565,(54, 201),76	6641,(61, 201),76	6717,(74, 201),76	6793,(20, 50),560	7353,(20, 104),356	7709,(20, 144),12	7721,(20, 147),56	7797,(10, 192),272	8081,(20, 200),32	8185,(20, 181),72	8257,(185, 201),76	8333,(117, 201),76	8409,(188, 201),76	8781,(10, 58),1064	9845,(57, 201),76	9921,(120, 201),76	10029,(20, 53),60	10089,(20, 130),56	10145,(20, 149),216	10361,(20, 199),124	10485,(160, 201),76	10561,(42, 201),76	10637,(148, 201),76	10713,(32, 201),76	10789,(52, 201),76	10865,(170, 201),76	10941,(99, 201),76	11093,(164, 201),76	11169,(114, 201),76	11321,(182, 201),76	11473,(93, 201),76	11549,(142, 201),76	11625,(105, 201),76	11701,(198, 201),76	11777,(67, 201),76	11929,(176, 201),76	12157,(133, 201),76	12233,(97, 201),76	12461,(72, 201),76	12537,(139, 201),76	12613,(167, 201),76	12689,(59, 201),76	12765,(75, 201),76	12841,(77, 201),76	12917,(95, 201),76	12993,(101, 201),76	13145,(44, 201),76	13221,(73, 201),76	13449,(87, 201),76	13525,(91, 201),76	13601,(154, 201),76	13753,(162, 201),76	13829,(173, 201),76	13905,(195, 201),76	13981,(28, 201),76	14057,(38, 201),76	14133,(40, 201),76	14285,(76, 201),76	14437,(78, 201),76	14513,(111, 201),76	14589,(80, 201),76	14665,(126, 201),76	14741,(129, 201),76	14893,(158, 201),76	15121,(49, 201),76	15349,(71, 201),76	15425,(82, 201),76	15577,(35, 201),76	15653,(89, 201),76	15729,(107, 201),76	15881,(123, 201),76	16033,(109, 201),76	16185,(156, 201),76	16413,(179, 201),76	16489,(191, 201),76	17097,(136, 201),76	
469,(4, 22),40	509,(4, 65),4	513,(4, 103),8	521,(4, 151),48	569,(4, 49),4	573,(4, 194),16	589,(98, 201),76	673,(9, 147),4	717,(4, 42),28	745,(4, 54),4	749,(4, 57),4	753,(4, 61),4	757,(4, 74),4	761,(4, 76),20	793,(14, 23),20	853,(4, 107),16	869,(4, 117),4	873,(4, 139),4	877,(4, 188),4	881,(4, 198),4	889,(9, 169),4	893,(14, 50),48	941,(14, 86),208	1149,(19, 33),92	1489,(9, 200),8	1497,(106, 201),76	1573,(14, 197),56	1897,(9, 24),188	2085,(177, 201),76	2365,(14, 181),100	2465,(19, 122),4	2469,(19, 178),20	2489,(19, 194),24	2561,(41, 201),76	2741,(9, 40),4	2745,(9, 91),4	2797,(9, 167),4	2985,(14, 172),176	3177,(163, 201),76	3253,(19, 64),212	3801,(9, 97),12	3841,(14, 105),4	4057,(14, 126),4	4065,(14, 133),4	4069,(14, 164),4	4077,(4, 191),124	4345,(14, 182),4	4373,(14, 190),132	4505,(43, 201),76	5061,(159, 201),76	5193,(19, 66),116	5309,(19, 131),616	5945,(9, 105),12	5957,(9, 109),12	5969,(9, 198),12	6033,(9, 133),64	6273,(9, 77),284	6729,(14, 44),144	6873,(14, 59),56	6929,(14, 75),12	6941,(14, 77),16	6957,(14, 78),236	7193,(14, 80),20	7213,(14, 95),108	7321,(14, 101),12	7333,(19, 175),68	7401,(189, 201),76	7477,(37, 201),76	7553,(62, 201),76	7629,(110, 201),76	7745,(19, 28),16	7761,(19, 38),24	7785,(19, 40),4	7789,(19, 76),4	7793,(19, 78),4	7801,(19, 80),8	7809,(34, 201),76	7885,(124, 201),76	8109,(19, 49),48	8157,(19, 71),40	8197,(19, 82),4	8213,(19, 89),156	8369,(19, 107),40	8409,(19, 123),52	8485,(140, 201),76	8641,(146, 201),76	8933,(186, 201),76	9009,(100, 201),76	9085,(115, 201),76	9161,(134, 201),76	9237,(60, 201),76	9313,(81, 201),76	9389,(180, 201),76	9465,(96, 201),76	9541,(168, 201),76	9617,(153, 201),76	9693,(70, 201),76	9769,(127, 201),76	9997,(143, 201),76	10149,(112, 201),76	10225,(45, 201),76	10301,(51, 201),76	10377,(102, 201),76	11017,(108, 201),76	11245,(118, 201),76	11397,(121, 201),76	11853,(161, 201),76	12081,(27, 201),76	12309,(157, 201),76	12385,(83, 201),76	13297,(85, 201),76	13373,(90, 201),76	14209,(92, 201),76	14361,(94, 201),76	14817,(192, 201),76	14969,(155, 201),76	15045,(165, 201),76	15197,(183, 201),76	15501,(31, 201),76	15805,(56, 201),76	15957,(88, 201),76	16109,(137, 201),76	16261,(171, 201),76	16337,(174, 201),76	16565,(196, 201),76	16641,(58, 201),76	16717,(69, 201),76	16793,(53, 201),76	16869,(130, 201),76	16945,(149, 201),76	17021,(199, 201),76	
110,(3, 23),4	114,(3, 33),72	186,(3, 50),32	218,(3, 86),4	222,(3, 108),4	226,(3, 130),28	261,(3, 64),4	265,(3, 131),128	393,(8, 25),4	397,(3, 146),8	405,(3, 189),40	445,(8, 86),8	453,(8, 41),68	526,(13, 50),8	549,(3, 145),4	553,(3, 154),4	557,(3, 158),4	561,(3, 162),8	593,(8, 29),4	597,(8, 131),8	609,(13, 22),4	625,(3, 89),80	705,(3, 179),12	717,(8, 100),12	734,(18, 50),8	781,(13, 58),4	785,(13, 69),4	789,(13, 85),4	813,(18, 22),4	885,(8, 40),4	893,(13, 108),12	905,(8, 129),4	909,(3, 96),172	1269,(8, 60),52	1321,(13, 62),16	1337,(13, 110),16	1353,(13, 143),52	1405,(18, 27),8	1413,(18, 34),4	1417,(18, 58),4	1421,(18, 92),4	1425,(18, 94),28	1453,(18, 108),12	1465,(18, 124),4	1469,(18, 140),4	1473,(18, 161),4	1629,(13, 27),244	1873,(18, 155),20	2117,(13, 65),244	2537,(13, 104),216	2753,(18, 25),272	3289,(3, 52),500	3813,(13, 142),4	3817,(13, 170),4	3821,(18, 103),280	4353,(18, 149),36	4405,(8, 76),52	4457,(8, 87),120	4577,(8, 93),260	4837,(8, 105),52	4889,(8, 123),252	5141,(8, 142),204	5345,(8, 162),600	5981,(13, 49),32	6145,(13, 107),32	6177,(18, 69),84	6617,(13, 139),16	6633,(13, 154),32	6665,(13, 167),64	7613,(18, 91),4	7617,(18, 154),48	7665,(18, 162),56	7721,(18, 173),16	7737,(18, 195),8	7961,(18, 158),148	8761,(8, 136),2152	
58,(2, 21),4	105,(2, 181),16	121,(2, 194),32	157,(2, 62),4	161,(2, 98),4	165,(2, 149),16	181,(2, 163),4	185,(2, 189),4	209,(2, 57),16	225,(2, 61),20	245,(2, 72),12	257,(2, 84),16	273,(2, 97),24	297,(2, 164),4	301,(2, 170),60	361,(7, 176),4	365,(2, 177),32	417,(2, 152),72	489,(2, 188),32	521,(2, 198),28	549,(12, 25),8	557,(12, 193),12	569,(12, 125),4	573,(2, 159),68	641,(7, 27),4	645,(7, 53),20	665,(7, 36),8	673,(7, 140),32	705,(7, 174),8	713,(12, 88),4	729,(2, 150),160	889,(7, 52),8	897,(7, 80),8	905,(2, 30),344	1249,(2, 184),208	1457,(7, 55),32	1489,(7, 60),140	1629,(7, 68),24	1653,(7, 113),72	1725,(7, 116),100	1825,(7, 119),60	1885,(7, 138),12	1897,(7, 146),64	1961,(7, 186),20	1981,(12, 94),32	2013,(12, 100),20	2033,(12, 115),4	2037,(12, 127),72	2109,(12, 174),4	2113,(12, 196),4	2161,(12, 48),88	2249,(12, 68),8	2257,(12, 132),4	2261,(12, 178),4	2265,(17, 31),4	2269,(17, 51),4	2273,(17, 83),16	2289,(17, 134),40	2329,(17, 168),8	2341,(12, 144),24	2389,(12, 70),140	2529,(12, 200),32	2657,(17, 122),4	2661,(17, 138),4	2665,(7, 87),20	2685,(17, 144),4	2689,(17, 194),4	2701,(7, 101),12	2713,(7, 123),12	2725,(7, 158),16	2753,(7, 120),44	2813,(2, 160),92	2905,(12, 42),4	2909,(17, 143),24	2945,(12, 71),4	2949,(17, 192),28	2993,(7, 76),60	3173,(12, 170),4	3789,(7, 182),12	3845,(12, 171),108	3953,(17, 85),76	4201,(7, 167),144	4349,(17, 59),4	4581,(46, 201),76	5137,(17, 36),56	5309,(22, 201),76	5385,(29, 201),76	5461,(65, 201),76	5537,(47, 201),76	5613,(64, 201),76	5689,(103, 201),76	5930,(131, 201),76	6013,(17, 67),4	6017,(17, 77),4	6097,(12, 97),48	6177,(17, 123),4	6557,(12, 191),60	6793,(33, 201),76	7333,(17, 35),28	7361,(17, 44),16	7377,(17, 73),24	7401,(17, 87),148	7549,(17, 162),16	7565,(17, 173),36	7601,(17, 179),4	7605,(17, 195),8	9845,(17, 69),184	13677,(104, 201),76	15273,(23, 201),76	
1,(0, 2),52	53,(0, 3),52	105,(0, 4),52	157,(0, 5),52	209,(0, 7),52	261,(0, 8),52	313,(0, 9),52	365,(0, 10),52	417,(0, 12),52	469,(0, 13),52	521,(0, 14),52	573,(0, 15),52	625,(0, 17),52	677,(0, 18),52	729,(0, 19),52	781,(0, 20),52	833,(6, 28),20	853,(6, 33),40	893,(6, 36),12	905,(6, 37),4	909,(6, 40),8	917,(6, 44),1748	2665,(6, 55),20	2685,(6, 57),16	2701,(6, 66),48	2749,(6, 67),4	2753,(6, 68),40	2793,(6, 70),8	2801,(6, 71),8	2809,(6, 80),4	2813,(6, 83),8	2821,(6, 104),4	2825,(6, 108),8	2833,(6, 119),4	2837,(6, 127),68	2905,(6, 128),4	2909,(6, 148),36	2945,(6, 165),4	2949,(6, 173),44	2993,(6, 174),60	3053,(6, 179),44	3097,(6, 191),76	3173,(11, 30),4	3177,(11, 32),4	3181,(11, 38),108	3289,(11, 45),16	3305,(11, 51),516	3821,(11, 71),16	3837,(11, 75),4	3841,(11, 85),4	3845,(11, 93),8	3853,(11, 95),4	3857,(11, 99),48	3905,(11, 101),152	4057,(11, 102),4	4061,(11, 105),4	4065,(11, 108),8	4073,(11, 114),4	4077,(11, 118),196	4273,(11, 121),80	4353,(11, 129),4	4357,(11, 136),4	4361,(11, 142),44	4405,(11, 157),1528	5933,(11, 161),88	6021,(11, 176),12	6033,(16, 27),12	6045,(16, 31),28	6073,(16, 33),84	6157,(16, 36),8	6165,(16, 68),16	6181,(16, 72),92	6273,(16, 85),1156	7429,(16, 90),16	7445,(16, 92),348	7793,(16, 94),4	7797,(16, 111),4	7801,(16, 119),8	7809,(16, 126),144	7953,(16, 129),8	7961,(16, 141),120	8081,(16, 155),36	8117,(16, 165),4	8121,(16, 178),4	8125,(16, 183),52	8177,(16, 190),8	8185,(1, 23),4	8189,(1, 31),20	8209,(1, 35),4	8213,(1, 56),240	8453,(1, 88),128	8581,(1, 109),4	8585,(1, 125),12	8597,(1, 132),20	8617,(1, 137),4	8621,(1, 156),16	8637,(1, 166),4	8641,(1, 171),72	8713,(1, 174),8	8721,(1, 179),8	8729,(1, 184),28	8757,(1, 191),4	8761,(1, 196),20	8781,(21, 201),76	8857,(86, 201),76	10073,(25, 201),76	12005,(193, 201),76	13069,(50, 201),76	
