264
# CPU
149,8,8	157,14,8	191,17,8	199,9,8	215,12,8	
147,7,8	155,10,8	163,13,8	171,16,8	
157,15,8	179,6,8	187,18,8	
107,2,8	115,4,8	139,5,8	201,19,8	253,20,8	
0,0,1	1,1,8	9,11,8	147,3,8	263,21,1	
# Incoming
147,(1, 8),2	151,(1, 14),2	157,(1, 17),34	191,(2, 9),6	197,(2, 12),18	
139,(1, 7),8	147,(2, 10),2	149,(1, 13),2	151,(2, 16),2	
153,(1, 15),4	157,(2, 6),22	179,(2, 18),2	
1,(0, 2),106	107,(1, 5),32	191,(1, 19),10	201,(1, 20),52	
115,(2, 3),32	149,(4, 21),2	153,(5, 21),2	155,(7, 21),2	157,(8, 21),2	163,(10, 21),2	165,(15, 21),2	167,(14, 21),2	171,(13, 21),2	179,(16, 21),2	187,(6, 21),2	195,(18, 21),2	199,(17, 21),2	207,(9, 21),2	215,(19, 21),2	223,(12, 21),2	261,(20, 21),2	
# Outgoing
157,(8, 21),2	167,(14, 21),2	199,(17, 21),2	207,(9, 21),2	223,(12, 21),2	
155,(7, 21),2	163,(10, 21),2	171,(13, 21),2	179,(16, 21),2	
165,(15, 21),2	187,(6, 21),2	195,(18, 21),2	
115,(2, 3),32	147,(2, 10),2	149,(4, 21),2	151,(2, 16),2	153,(5, 21),2	157,(2, 6),22	179,(2, 18),2	191,(2, 9),6	197,(2, 12),18	215,(19, 21),2	261,(20, 21),2	
1,(0, 2),106	107,(1, 5),32	139,(1, 7),8	147,(1, 8),2	149,(1, 13),2	151,(1, 14),2	153,(1, 15),4	157,(1, 17),34	191,(1, 19),10	201,(1, 20),52	
