70162
# CPU
1729,4,4	1733,25,4	1737,47,4	1741,53,4	1745,55,4	1973,75,4	2109,95,4	2457,101,4	2461,111,4	2493,28,4	2565,57,4	2577,65,4	2581,80,4	2661,97,4	3457,8,4	3461,33,4	3465,43,4	4261,115,4	4365,26,4	4369,67,4	4445,72,4	4449,91,4	4529,103,4	4533,40,4	4537,61,4	5185,12,4	5189,42,4	5193,69,4	5197,119,4	5201,24,4	5205,30,4	5209,39,4	5273,73,4	5313,74,4	5325,31,4	5397,59,4	5421,63,4	5469,105,4	5533,87,4	5573,35,4	5577,37,4	5661,41,4	5693,49,4	5697,51,4	5709,76,4	5713,93,4	5749,109,4	5937,117,4	6089,45,4	6241,77,4	6313,83,4	6317,99,4	6321,107,4	6341,113,4	
1153,3,4	1157,32,4	1161,86,4	2037,19,4	2145,46,4	2881,7,4	2885,110,4	2889,50,4	2893,62,4	2917,56,4	2973,102,4	3009,104,4	3033,118,4	3477,21,4	3489,54,4	3653,71,4	3701,108,4	3705,120,4	4609,11,4	4613,66,4	4617,100,4	4621,114,4	4689,60,4	4693,64,4	5197,58,4	5557,90,4	5569,106,4	5689,44,4	5701,68,4	5737,94,4	5741,96,4	5933,116,4	6025,38,4	6141,52,4	6193,70,4	6253,79,4	6281,82,4	6325,112,4	7781,23,4	7817,29,4	7897,34,4	7905,48,4	7913,92,4	7917,98,4	
577,2,4	1241,84,4	2305,6,4	2309,81,4	3129,18,4	3293,27,4	4033,10,4	4037,88,4	5525,85,4	7697,20,4	7749,22,4	7909,78,4	
0,0,1	1,9,4	5,1,4	9,5,4	1197,14,4	2033,15,4	4377,36,4	9789,16,4	25633,13,4	26321,89,4	32541,17,4	70161,121,1	
# Incoming
1153,(0, 4),576	1729,(2, 39),8	1737,(2, 40),80	1817,(2, 49),44	1861,(2, 67),20	1881,(2, 75),92	1973,(2, 83),60	2033,(2, 95),76	2109,(2, 103),232	2341,(3, 101),116	2457,(3, 111),4	2461,(6, 28),32	2493,(6, 33),64	2557,(6, 42),4	2561,(6, 57),4	2565,(6, 65),12	2577,(6, 80),4	2581,(6, 97),80	2661,(6, 115),4	2881,(0, 8),576	3457,(3, 115),804	4261,(7, 26),104	4365,(7, 67),4	4369,(7, 72),76	4445,(7, 91),4	4449,(7, 99),40	4489,(7, 103),40	4529,(10, 40),4	4533,(10, 61),4	4537,(10, 113),4	4609,(0, 12),576	5185,(9, 42),4	5189,(11, 39),4	5197,(9, 73),76	5273,(9, 74),40	5313,(11, 31),12	5325,(11, 59),72	5397,(11, 63),24	5421,(11, 105),48	5525,(9, 87),8	5569,(1, 35),4	5573,(1, 37),4	5577,(1, 41),84	5689,(1, 49),4	5693,(1, 51),4	5701,(1, 76),8	5709,(1, 93),4	5741,(1, 109),8	5933,(1, 117),4	6025,(5, 45),64	6193,(5, 77),48	6281,(5, 83),32	6313,(5, 99),4	6317,(5, 107),4	6325,(5, 113),16	
577,(0, 3),576	2033,(4, 19),4	2037,(4, 38),20	2057,(4, 44),40	2097,(4, 46),48	2145,(4, 58),4	2149,(4, 96),8	2305,(0, 7),576	2881,(2, 110),4	2885,(6, 23),28	2913,(6, 56),4	2917,(6, 102),56	2973,(6, 104),36	3009,(6, 118),24	3461,(8, 21),16	3477,(8, 54),12	3489,(8, 71),164	3653,(8, 92),32	3685,(8, 108),16	3701,(8, 120),4	4033,(0, 11),576	4609,(10, 60),80	4689,(10, 64),4	4693,(10, 98),8	5189,(9, 58),8	5533,(9, 90),24	5557,(9, 106),12	5661,(1, 44),28	5697,(1, 68),4	5713,(1, 94),24	5737,(1, 96),4	5749,(1, 116),184	5937,(5, 38),88	6089,(5, 52),52	6141,(5, 70),52	6241,(5, 79),12	6253,(5, 82),28	6321,(5, 112),4	7749,(12, 23),32	7781,(12, 29),36	7817,(12, 34),80	7897,(12, 48),8	7909,(12, 92),4	7913,(12, 98),4	
1,(0, 2),576	1197,(3, 20),20	1217,(3, 84),24	1729,(0, 6),576	3121,(7, 18),8	3129,(7, 27),164	3457,(0, 10),576	5313,(9, 85),212	7677,(8, 20),20	7697,(12, 22),52	7905,(12, 78),4	
1157,(3, 14),40	1241,(32, 121),660	1901,(4, 15),132	2341,(6, 13),4	2461,(86, 121),660	3121,(84, 121),660	3781,(4, 36),596	4377,(25, 121),660	5037,(47, 121),660	5697,(53, 121),660	6357,(55, 121),660	7017,(75, 121),660	7677,(19, 121),660	8337,(95, 121),660	8997,(46, 121),660	9657,(6, 16),132	9789,(81, 121),660	10449,(101, 121),660	11109,(111, 121),660	11769,(28, 121),660	12429,(57, 121),660	13089,(65, 121),660	13749,(80, 121),660	14409,(97, 121),660	15069,(110, 121),660	15729,(50, 121),660	16389,(62, 121),660	17049,(56, 121),660	17709,(102, 121),660	18369,(104, 121),660	19029,(118, 121),660	19689,(18, 121),660	20349,(27, 121),660	21009,(33, 121),660	21669,(43, 121),660	22329,(21, 121),660	22989,(54, 121),660	23649,(71, 121),660	24309,(108, 121),660	24969,(120, 121),660	25629,(10, 13),4	25633,(10, 89),688	26321,(88, 121),660	26981,(115, 121),660	27641,(26, 121),660	28301,(67, 121),660	28961,(72, 121),660	29621,(91, 121),660	30281,(103, 121),660	30941,(40, 121),660	31601,(61, 121),660	32261,(11, 17),280	32541,(66, 121),660	33201,(100, 121),660	33861,(114, 121),660	34521,(60, 121),660	35181,(64, 121),660	35841,(42, 121),660	36501,(69, 121),660	37161,(58, 121),660	37821,(119, 121),660	38481,(24, 121),660	39141,(30, 121),660	39801,(39, 121),660	40461,(73, 121),660	41121,(74, 121),660	41781,(31, 121),660	42441,(59, 121),660	43101,(63, 121),660	43761,(105, 121),660	44421,(85, 121),660	45081,(87, 121),660	45741,(90, 121),660	46401,(106, 121),660	47061,(35, 121),660	47721,(37, 121),660	48381,(41, 121),660	49041,(44, 121),660	49701,(49, 121),660	50361,(51, 121),660	51021,(68, 121),660	51681,(76, 121),660	52341,(93, 121),660	53001,(94, 121),660	53661,(96, 121),660	54321,(109, 121),660	54981,(116, 121),660	55641,(117, 121),660	56301,(38, 121),660	56961,(45, 121),660	57621,(52, 121),660	58281,(70, 121),660	58941,(77, 121),660	59601,(79, 121),660	60261,(82, 121),660	60921,(83, 121),660	61581,(99, 121),660	62241,(107, 121),660	62901,(112, 121),660	63561,(113, 121),660	64221,(20, 121),660	64881,(22, 121),660	65541,(23, 121),660	66201,(29, 121),660	66861,(34, 121),660	67521,(48, 121),660	68181,(78, 121),660	68841,(92, 121),660	69501,(98, 121),660	
# Outgoing
1901,(4, 15),132	2033,(4, 19),4	2037,(4, 38),20	2057,(4, 44),40	2097,(4, 46),48	2145,(4, 58),4	2149,(4, 96),8	3461,(8, 21),16	3477,(8, 54),12	3489,(8, 71),164	3653,(8, 92),32	3685,(8, 108),16	3701,(8, 120),4	3781,(4, 36),596	4377,(25, 121),660	5037,(47, 121),660	5697,(53, 121),660	6357,(55, 121),660	7017,(75, 121),660	7677,(8, 20),20	7697,(12, 22),52	7749,(12, 23),32	7781,(12, 29),36	7817,(12, 34),80	7897,(12, 48),8	7905,(12, 78),4	7909,(12, 92),4	7913,(12, 98),4	8337,(95, 121),660	10449,(101, 121),660	11109,(111, 121),660	11769,(28, 121),660	12429,(57, 121),660	13089,(65, 121),660	13749,(80, 121),660	14409,(97, 121),660	21009,(33, 121),660	21669,(43, 121),660	26981,(115, 121),660	27641,(26, 121),660	28301,(67, 121),660	28961,(72, 121),660	29621,(91, 121),660	30281,(103, 121),660	30941,(40, 121),660	31601,(61, 121),660	35841,(42, 121),660	36501,(69, 121),660	37821,(119, 121),660	38481,(24, 121),660	39141,(30, 121),660	39801,(39, 121),660	40461,(73, 121),660	41121,(74, 121),660	41781,(31, 121),660	42441,(59, 121),660	43101,(63, 121),660	43761,(105, 121),660	45081,(87, 121),660	47061,(35, 121),660	47721,(37, 121),660	48381,(41, 121),660	49701,(49, 121),660	50361,(51, 121),660	51681,(76, 121),660	52341,(93, 121),660	54321,(109, 121),660	55641,(117, 121),660	56961,(45, 121),660	58941,(77, 121),660	60921,(83, 121),660	61581,(99, 121),660	62241,(107, 121),660	63561,(113, 121),660	
1157,(3, 14),40	1197,(3, 20),20	1217,(3, 84),24	1241,(32, 121),660	2341,(3, 101),116	2457,(3, 111),4	2461,(86, 121),660	3121,(7, 18),8	3129,(7, 27),164	3457,(3, 115),804	4261,(7, 26),104	4365,(7, 67),4	4369,(7, 72),76	4445,(7, 91),4	4449,(7, 99),40	4489,(7, 103),40	5189,(11, 39),4	5313,(11, 31),12	5325,(11, 59),72	5397,(11, 63),24	5421,(11, 105),48	7677,(19, 121),660	8997,(46, 121),660	15069,(110, 121),660	15729,(50, 121),660	16389,(62, 121),660	17049,(56, 121),660	17709,(102, 121),660	18369,(104, 121),660	19029,(118, 121),660	22329,(21, 121),660	22989,(54, 121),660	23649,(71, 121),660	24309,(108, 121),660	24969,(120, 121),660	32261,(11, 17),280	32541,(66, 121),660	33201,(100, 121),660	33861,(114, 121),660	34521,(60, 121),660	35181,(64, 121),660	37161,(58, 121),660	45741,(90, 121),660	46401,(106, 121),660	49041,(44, 121),660	51021,(68, 121),660	53001,(94, 121),660	53661,(96, 121),660	54981,(116, 121),660	56301,(38, 121),660	57621,(52, 121),660	58281,(70, 121),660	59601,(79, 121),660	60261,(82, 121),660	62901,(112, 121),660	65541,(23, 121),660	66201,(29, 121),660	66861,(34, 121),660	67521,(48, 121),660	68841,(92, 121),660	69501,(98, 121),660	
1729,(2, 39),8	1737,(2, 40),80	1817,(2, 49),44	1861,(2, 67),20	1881,(2, 75),92	1973,(2, 83),60	2033,(2, 95),76	2109,(2, 103),232	2341,(6, 13),4	2461,(6, 28),32	2493,(6, 33),64	2557,(6, 42),4	2561,(6, 57),4	2565,(6, 65),12	2577,(6, 80),4	2581,(6, 97),80	2661,(6, 115),4	2881,(2, 110),4	2885,(6, 23),28	2913,(6, 56),4	2917,(6, 102),56	2973,(6, 104),36	3009,(6, 118),24	3121,(84, 121),660	4529,(10, 40),4	4533,(10, 61),4	4537,(10, 113),4	4609,(10, 60),80	4689,(10, 64),4	4693,(10, 98),8	9657,(6, 16),132	9789,(81, 121),660	19689,(18, 121),660	20349,(27, 121),660	25629,(10, 13),4	25633,(10, 89),688	26321,(88, 121),660	44421,(85, 121),660	64221,(20, 121),660	64881,(22, 121),660	68181,(78, 121),660	
1,(0, 2),576	577,(0, 3),576	1153,(0, 4),576	1729,(0, 6),576	2305,(0, 7),576	2881,(0, 8),576	3457,(0, 10),576	4033,(0, 11),576	4609,(0, 12),576	5185,(9, 42),4	5189,(9, 58),8	5197,(9, 73),76	5273,(9, 74),40	5313,(9, 85),212	5525,(9, 87),8	5533,(9, 90),24	5557,(9, 106),12	5569,(1, 35),4	5573,(1, 37),4	5577,(1, 41),84	5661,(1, 44),28	5689,(1, 49),4	5693,(1, 51),4	5697,(1, 68),4	5701,(1, 76),8	5709,(1, 93),4	5713,(1, 94),24	5737,(1, 96),4	5741,(1, 109),8	5749,(1, 116),184	5933,(1, 117),4	5937,(5, 38),88	6025,(5, 45),64	6089,(5, 52),52	6141,(5, 70),52	6193,(5, 77),48	6241,(5, 79),12	6253,(5, 82),28	6281,(5, 83),32	6313,(5, 99),4	6317,(5, 107),4	6321,(5, 112),4	6325,(5, 113),16	
