2799
# CPU
0,0,1	1,7,37	38,4,37	75,3,37	112,1,37	149,6,37	186,18,37	223,64,37	260,25,37	297,52,37	334,23,37	371,35,37	408,37,37	445,27,37	482,59,37	519,28,37	556,70,37	593,53,37	630,80,37	667,40,37	704,63,37	741,73,37	778,29,37	815,56,37	852,49,37	889,22,37	926,48,37	963,47,37	1000,67,37	1037,34,37	1074,31,37	1111,39,37	1148,13,37	1185,77,37	1222,61,37	1259,46,37	1296,9,37	1333,54,37	1370,75,37	1454,44,37	1610,55,37	1770,10,37	1930,33,37	2094,12,37	2266,79,37	2798,81,1	
29,2,37	85,51,37	122,5,37	159,65,37	196,11,37	233,26,37	270,68,37	307,16,37	344,62,37	402,72,37	446,24,37	490,32,37	718,42,37	866,69,37	946,14,37	1030,45,37	1214,66,37	1406,21,37	2038,76,37	2458,20,37	
57,8,37	94,74,37	161,50,37	198,15,37	235,57,37	272,17,37	309,71,37	374,30,37	534,58,37	586,36,37	650,78,37	786,38,37	1122,41,37	1310,43,37	1506,19,37	1762,60,37	
# Incoming
165,(5, 25),4	169,(8, 52),4	173,(2, 23),4	177,(2, 35),4	181,(5, 35),8	189,(8, 37),8	197,(8, 70),8	205,(8, 48),4	209,(8, 9),8	218,(5, 37),4	222,(2, 27),12	234,(5, 27),4	238,(5, 70),12	250,(8, 40),24	274,(8, 67),12	286,(2, 59),16	302,(5, 28),20	322,(5, 53),24	346,(5, 80),24	370,(2, 56),4	374,(8, 56),24	398,(8, 47),44	442,(8, 75),8	450,(5, 63),28	478,(5, 73),28	506,(2, 29),16	522,(5, 29),16	538,(5, 56),4	542,(5, 49),36	578,(2, 22),4	582,(5, 22),40	622,(2, 48),4	626,(5, 48),40	666,(2, 47),4	670,(2, 67),28	698,(5, 67),8	706,(2, 34),16	722,(8, 34),28	750,(5, 34),8	758,(2, 31),20	778,(8, 31),32	810,(5, 39),52	862,(2, 13),32	894,(5, 13),24	918,(2, 77),8	926,(5, 77),52	978,(8, 61),52	1030,(5, 61),12	1042,(8, 46),68	1110,(5, 46),4	1114,(2, 9),4	1118,(5, 9),60	1178,(2, 54),68	1246,(5, 54),8	1254,(2, 75),92	1346,(2, 44),104	1450,(8, 44),4	1454,(2, 55),8	1462,(8, 55),52	1514,(5, 55),96	1610,(2, 10),64	1674,(8, 10),96	1770,(8, 33),160	1930,(2, 12),108	2038,(8, 12),56	2094,(2, 79),60	2154,(8, 79),4	2158,(5, 79),108	2266,(51, 81),16	2282,(65, 81),16	2298,(11, 81),16	2314,(26, 81),16	2330,(68, 81),16	2350,(74, 81),16	2366,(50, 81),16	2382,(15, 81),16	2398,(57, 81),16	2414,(17, 81),16	2430,(16, 81),16	2446,(71, 81),16	2462,(62, 81),16	2478,(30, 81),16	2494,(72, 81),16	2510,(24, 81),16	2526,(32, 81),16	2542,(58, 81),16	2558,(36, 81),16	2574,(78, 81),16	2590,(42, 81),16	2606,(38, 81),16	2622,(69, 81),16	2638,(14, 81),16	2654,(45, 81),16	2670,(41, 81),16	2686,(66, 81),16	2702,(43, 81),16	2718,(21, 81),16	2734,(19, 81),16	2750,(60, 81),16	2766,(76, 81),16	2782,(20, 81),16	
1,(0, 2),28	57,(7, 51),24	81,(4, 51),4	93,(0, 5),28	121,(8, 26),4	125,(7, 11),4	129,(8, 24),8	137,(3, 26),4	141,(8, 66),4	145,(4, 16),4	149,(8, 69),8	161,(1, 11),4	169,(1, 26),4	173,(8, 72),16	198,(3, 68),24	222,(1, 68),8	230,(8, 32),16	250,(6, 16),32	282,(3, 72),4	290,(4, 62),16	306,(3, 62),28	334,(8, 76),8	374,(7, 72),8	382,(4, 72),16	398,(6, 72),4	402,(7, 24),28	430,(1, 24),16	446,(1, 32),40	486,(6, 32),4	490,(8, 14),152	650,(7, 42),12	662,(4, 42),56	786,(4, 69),56	842,(3, 69),20	862,(6, 69),4	866,(7, 14),4	870,(1, 14),76	946,(3, 45),4	950,(6, 45),80	1122,(7, 66),56	1178,(4, 66),12	1190,(3, 66),20	1210,(6, 66),4	1214,(8, 21),56	1310,(7, 21),8	1318,(6, 21),88	1762,(7, 76),12	1774,(1, 76),264	2038,(7, 20),32	2070,(3, 20),56	2158,(8, 20),192	2350,(1, 20),108	
29,(0, 8),28	66,(2, 50),4	70,(2, 15),4	74,(2, 57),4	85,(4, 74),8	93,(2, 30),16	109,(2, 43),12	121,(4, 50),4	129,(4, 15),4	133,(3, 15),4	141,(3, 17),4	149,(1, 50),12	161,(5, 57),4	165,(1, 15),4	173,(7, 57),12	186,(6, 15),4	190,(6, 57),8	198,(5, 17),8	206,(5, 71),12	230,(1, 17),16	246,(6, 17),4	250,(2, 71),36	286,(3, 71),4	334,(4, 30),4	338,(1, 30),12	350,(6, 30),24	374,(2, 58),20	394,(5, 36),56	490,(7, 58),40	530,(3, 58),4	534,(4, 36),48	582,(1, 36),4	586,(3, 78),4	590,(1, 78),24	614,(6, 78),36	718,(7, 38),12	730,(4, 38),4	734,(1, 38),52	978,(2, 60),48	1030,(4, 41),28	1058,(3, 41),64	1214,(3, 43),40	1254,(1, 43),12	1266,(6, 43),44	1406,(7, 19),36	1442,(3, 19),16	1458,(1, 19),20	1478,(6, 19),28	1506,(4, 60),148	1654,(3, 60),108	
# Outgoing
1,(0, 2),28	29,(0, 8),28	57,(7, 51),24	81,(4, 51),4	85,(4, 74),8	93,(0, 5),28	121,(4, 50),4	125,(7, 11),4	129,(4, 15),4	133,(3, 15),4	137,(3, 26),4	141,(3, 17),4	145,(4, 16),4	149,(1, 50),12	161,(1, 11),4	165,(1, 15),4	169,(1, 26),4	173,(7, 57),12	186,(6, 15),4	190,(6, 57),8	198,(3, 68),24	222,(1, 68),8	230,(1, 17),16	246,(6, 17),4	250,(6, 16),32	282,(3, 72),4	286,(3, 71),4	290,(4, 62),16	306,(3, 62),28	334,(4, 30),4	338,(1, 30),12	350,(6, 30),24	374,(7, 72),8	382,(4, 72),16	398,(6, 72),4	402,(7, 24),28	430,(1, 24),16	446,(1, 32),40	486,(6, 32),4	490,(7, 58),40	530,(3, 58),4	534,(4, 36),48	582,(1, 36),4	586,(3, 78),4	590,(1, 78),24	614,(6, 78),36	650,(7, 42),12	662,(4, 42),56	718,(7, 38),12	730,(4, 38),4	734,(1, 38),52	786,(4, 69),56	842,(3, 69),20	862,(6, 69),4	866,(7, 14),4	870,(1, 14),76	946,(3, 45),4	950,(6, 45),80	1030,(4, 41),28	1058,(3, 41),64	1122,(7, 66),56	1178,(4, 66),12	1190,(3, 66),20	1210,(6, 66),4	1214,(3, 43),40	1254,(1, 43),12	1266,(6, 43),44	1310,(7, 21),8	1318,(6, 21),88	1406,(7, 19),36	1442,(3, 19),16	1458,(1, 19),20	1478,(6, 19),28	1506,(4, 60),148	1654,(3, 60),108	1762,(7, 76),12	1774,(1, 76),264	2038,(7, 20),32	2070,(3, 20),56	2350,(1, 20),108	
66,(2, 50),4	70,(2, 15),4	74,(2, 57),4	93,(2, 30),16	109,(2, 43),12	161,(5, 57),4	165,(5, 25),4	173,(2, 23),4	177,(2, 35),4	181,(5, 35),8	198,(5, 17),8	206,(5, 71),12	218,(5, 37),4	222,(2, 27),12	234,(5, 27),4	238,(5, 70),12	250,(2, 71),36	286,(2, 59),16	302,(5, 28),20	322,(5, 53),24	346,(5, 80),24	370,(2, 56),4	374,(2, 58),20	394,(5, 36),56	450,(5, 63),28	478,(5, 73),28	506,(2, 29),16	522,(5, 29),16	538,(5, 56),4	542,(5, 49),36	578,(2, 22),4	582,(5, 22),40	622,(2, 48),4	626,(5, 48),40	666,(2, 47),4	670,(2, 67),28	698,(5, 67),8	706,(2, 34),16	750,(5, 34),8	758,(2, 31),20	810,(5, 39),52	862,(2, 13),32	894,(5, 13),24	918,(2, 77),8	926,(5, 77),52	978,(2, 60),48	1030,(5, 61),12	1110,(5, 46),4	1114,(2, 9),4	1118,(5, 9),60	1178,(2, 54),68	1246,(5, 54),8	1254,(2, 75),92	1346,(2, 44),104	1454,(2, 55),8	1514,(5, 55),96	1610,(2, 10),64	1930,(2, 12),108	2094,(2, 79),60	2158,(5, 79),108	2266,(51, 81),16	2282,(65, 81),16	2298,(11, 81),16	2314,(26, 81),16	2330,(68, 81),16	2430,(16, 81),16	2462,(62, 81),16	2494,(72, 81),16	2510,(24, 81),16	2526,(32, 81),16	2590,(42, 81),16	2622,(69, 81),16	2638,(14, 81),16	2654,(45, 81),16	2686,(66, 81),16	2718,(21, 81),16	2766,(76, 81),16	2782,(20, 81),16	
121,(8, 26),4	129,(8, 24),8	141,(8, 66),4	149,(8, 69),8	169,(8, 52),4	173,(8, 72),16	189,(8, 37),8	197,(8, 70),8	205,(8, 48),4	209,(8, 9),8	230,(8, 32),16	250,(8, 40),24	274,(8, 67),12	334,(8, 76),8	374,(8, 56),24	398,(8, 47),44	442,(8, 75),8	490,(8, 14),152	722,(8, 34),28	778,(8, 31),32	978,(8, 61),52	1042,(8, 46),68	1214,(8, 21),56	1450,(8, 44),4	1462,(8, 55),52	1674,(8, 10),96	1770,(8, 33),160	2038,(8, 12),56	2154,(8, 79),4	2158,(8, 20),192	2350,(74, 81),16	2366,(50, 81),16	2382,(15, 81),16	2398,(57, 81),16	2414,(17, 81),16	2446,(71, 81),16	2478,(30, 81),16	2542,(58, 81),16	2558,(36, 81),16	2574,(78, 81),16	2606,(38, 81),16	2670,(41, 81),16	2702,(43, 81),16	2734,(19, 81),16	2750,(60, 81),16	
