1409
# CPU
0,0,1	1,2,5	6,5,5	11,164,5	16,13,5	21,112,5	26,45,5	31,139,5	36,19,5	41,16,5	46,125,5	51,95,5	56,1,5	61,42,5	66,79,5	71,52,5	76,3,5	81,21,5	86,55,5	91,31,5	96,114,5	101,15,5	106,62,5	111,80,5	116,18,5	121,59,5	126,118,5	131,140,5	136,142,5	141,71,5	146,166,5	151,32,5	156,72,5	161,39,5	166,67,5	171,154,5	176,29,5	181,47,5	186,22,5	191,48,5	196,196,5	201,145,5	206,110,5	211,109,5	216,82,5	221,182,5	226,165,5	231,63,5	236,51,5	241,50,5	246,104,5	251,149,5	256,83,5	261,123,5	266,192,5	271,66,5	276,137,5	287,68,5	295,46,5	304,181,5	314,103,5	324,194,5	335,23,5	346,157,5	357,40,5	369,53,5	381,98,5	393,43,5	405,113,5	417,107,5	429,195,5	442,81,5	455,36,5	469,101,5	483,158,5	498,138,5	514,108,5	531,105,5	548,151,5	566,146,5	584,60,5	602,35,5	622,189,5	642,69,5	663,173,5	684,84,5	705,133,5	726,160,5	748,120,5	770,86,5	793,102,5	816,170,5	840,167,5	864,126,5	890,148,5	916,64,5	942,128,5	972,177,5	1002,30,5	1033,100,5	1069,172,5	1145,115,5	1403,174,5	1408,201,1	
12,17,5	17,188,5	22,183,5	27,12,5	32,171,5	37,20,5	45,6,5	50,73,5	55,168,5	60,8,5	65,57,5	70,9,5	75,54,5	80,10,5	85,200,5	90,14,5	95,161,5	100,4,5	105,122,5	110,153,5	115,7,5	120,175,5	125,11,5	130,186,5	135,96,5	140,155,5	145,124,5	150,179,5	155,144,5	160,130,5	165,44,5	170,61,5	175,198,5	180,163,5	185,111,5	190,38,5	195,184,5	200,147,5	205,121,5	210,187,5	215,90,5	220,56,5	225,156,5	230,33,5	235,143,5	240,28,5	245,91,5	250,97,5	255,94,5	260,185,5	265,119,5	270,190,5	275,25,5	280,93,5	285,129,5	290,150,5	295,136,5	300,141,5	305,88,5	310,132,5	315,76,5	320,116,5	325,169,5	330,180,5	335,197,5	340,191,5	345,99,5	350,193,5	355,162,5	360,178,5	365,77,5	370,89,5	375,26,5	380,65,5	385,78,5	390,117,5	395,159,5	400,152,5	405,135,5	410,106,5	415,70,5	420,176,5	425,134,5	430,34,5	435,87,5	440,49,5	445,127,5	450,131,5	455,41,5	460,58,5	465,199,5	470,92,5	475,75,5	480,74,5	485,24,5	490,37,5	495,27,5	500,85,5	
# Incoming
22,(188, 201),5	27,(183, 201),5	32,(12, 72),1	33,(12, 39),1	34,(12, 47),1	35,(17, 48),1	36,(17, 82),1	37,(171, 201),5	42,(12, 110),2	44,(20, 51),2	46,(20, 50),2	48,(20, 104),1	49,(17, 149),1	50,(6, 67),1	51,(6, 63),1	52,(6, 149),1	53,(17, 123),1	54,(17, 68),1	55,(73, 201),5	60,(168, 201),5	65,(8, 149),1	66,(12, 83),3	69,(8, 123),1	70,(57, 201),5	75,(9, 109),1	76,(9, 123),1	77,(8, 192),3	80,(54, 201),5	85,(9, 66),2	87,(12, 137),2	89,(10, 137),1	90,(200, 201),5	95,(14, 154),1	96,(9, 137),2	98,(17, 46),1	99,(14, 181),1	100,(161, 201),5	105,(4, 22),1	106,(4, 145),1	107,(4, 82),1	108,(4, 104),2	110,(122, 201),5	115,(153, 201),5	120,(7, 145),1	121,(7, 109),1	122,(7, 182),2	124,(7, 66),1	125,(175, 201),5	130,(11, 29),1	131,(11, 196),1	132,(7, 165),2	134,(11, 63),1	135,(186, 201),5	140,(96, 201),5	145,(155, 201),5	150,(124, 201),5	155,(179, 201),5	160,(144, 201),5	165,(130, 201),5	170,(44, 201),5	175,(61, 201),5	180,(198, 201),5	185,(163, 201),5	190,(111, 201),5	195,(38, 201),5	200,(184, 201),5	205,(147, 201),5	210,(121, 201),5	215,(187, 201),5	220,(90, 201),5	225,(56, 201),5	230,(156, 201),5	235,(33, 201),5	240,(143, 201),5	245,(28, 201),5	250,(91, 201),5	255,(97, 201),5	260,(94, 201),5	265,(185, 201),5	270,(119, 201),5	275,(190, 201),5	280,(25, 201),5	285,(7, 68),1	286,(11, 68),1	287,(93, 201),5	292,(4, 46),3	295,(129, 201),5	300,(7, 181),4	304,(150, 201),5	309,(8, 103),5	314,(136, 201),5	319,(12, 194),4	323,(14, 194),1	324,(141, 201),5	329,(12, 23),6	335,(88, 201),5	340,(7, 157),6	346,(132, 201),5	351,(20, 40),1	352,(10, 40),3	355,(11, 40),2	357,(76, 201),5	362,(17, 53),7	369,(116, 201),5	374,(9, 98),7	381,(169, 201),5	386,(9, 43),2	388,(4, 43),5	393,(180, 201),5	398,(9, 113),2	400,(14, 113),1	401,(4, 113),1	402,(11, 113),3	405,(197, 201),5	410,(6, 107),7	417,(191, 201),5	422,(17, 195),3	425,(6, 195),4	429,(99, 201),5	434,(8, 81),8	442,(193, 201),5	447,(9, 36),7	454,(4, 36),1	455,(162, 201),5	460,(12, 101),9	469,(178, 201),5	474,(6, 158),5	479,(10, 158),4	483,(77, 201),5	488,(9, 138),2	490,(4, 138),6	496,(11, 138),2	498,(89, 201),5	503,(8, 108),2	505,(14, 108),1	506,(11, 108),8	514,(26, 201),5	519,(20, 105),1	520,(8, 105),2	522,(14, 105),9	531,(65, 201),5	536,(10, 151),7	543,(7, 151),5	548,(78, 201),5	553,(12, 146),10	563,(8, 146),1	564,(7, 146),2	566,(117, 201),5	571,(9, 60),13	584,(159, 201),5	589,(7, 35),13	602,(152, 201),5	607,(20, 189),8	615,(10, 189),1	616,(7, 189),6	622,(135, 201),5	627,(17, 69),2	629,(6, 69),13	642,(106, 201),5	647,(17, 173),5	652,(12, 173),7	659,(6, 173),1	660,(4, 173),3	663,(70, 201),5	668,(17, 84),2	670,(7, 84),12	682,(11, 84),2	684,(176, 201),5	689,(20, 133),16	705,(134, 201),5	710,(9, 160),1	711,(4, 160),2	713,(7, 160),13	726,(34, 201),5	731,(12, 120),6	737,(8, 120),1	738,(14, 120),10	748,(87, 201),5	753,(12, 86),16	769,(4, 86),1	770,(49, 201),5	775,(9, 102),17	792,(11, 102),1	793,(127, 201),5	798,(6, 170),15	813,(8, 170),3	816,(131, 201),5	821,(20, 167),19	840,(41, 201),5	845,(11, 126),19	864,(58, 201),5	869,(20, 148),19	888,(11, 148),2	890,(199, 201),5	895,(20, 64),16	911,(8, 64),4	915,(10, 64),1	916,(92, 201),5	921,(6, 128),5	926,(9, 128),2	928,(11, 128),14	942,(75, 201),5	947,(20, 177),6	953,(7, 177),19	972,(74, 201),5	977,(17, 30),3	980,(20, 30),10	990,(6, 30),7	997,(14, 30),5	1002,(24, 201),5	1007,(12, 100),9	1016,(20, 100),1	1017,(8, 100),14	1031,(14, 100),2	1033,(37, 201),5	1038,(17, 172),4	1042,(8, 172),10	1052,(10, 172),6	1058,(4, 172),11	1069,(27, 201),5	1074,(8, 115),6	1080,(9, 115),65	1145,(85, 201),5	1150,(12, 174),5	1155,(7, 174),248	
1,(0, 17),11	12,(0, 12),11	23,(0, 20),11	34,(0, 6),11	45,(0, 8),11	56,(0, 9),11	67,(0, 10),11	78,(0, 14),11	89,(0, 4),11	100,(0, 7),11	111,(0, 11),11	122,(15, 97),1	123,(13, 94),1	124,(1, 185),1	125,(18, 119),1	126,(16, 190),1	127,(1, 25),1	128,(1, 93),1	129,(1, 129),1	130,(15, 150),1	131,(16, 136),1	132,(3, 141),1	133,(19, 88),1	134,(2, 132),1	135,(13, 76),1	136,(5, 116),1	137,(16, 169),1	138,(19, 180),1	139,(19, 197),2	141,(13, 191),1	142,(1, 191),1	143,(2, 99),2	145,(5, 193),2	147,(1, 162),3	150,(15, 162),1	151,(16, 178),4	155,(2, 77),2	157,(13, 77),2	159,(13, 89),1	160,(16, 89),3	163,(18, 26),4	167,(5, 65),1	168,(19, 65),1	169,(16, 65),2	171,(2, 78),4	175,(13, 78),1	176,(5, 117),5	181,(5, 159),5	186,(3, 152),5	191,(18, 135),5	196,(2, 106),6	202,(2, 70),6	208,(1, 176),6	214,(1, 134),6	220,(5, 34),1	221,(15, 34),5	226,(18, 87),8	234,(16, 49),1	235,(15, 49),8	243,(5, 127),10	253,(16, 131),1	254,(15, 131),10	264,(16, 41),12	276,(3, 58),12	288,(5, 199),12	300,(16, 92),13	313,(2, 75),1	314,(13, 75),1	315,(18, 75),11	326,(5, 74),1	327,(13, 74),13	340,(13, 24),1	341,(19, 24),1	342,(15, 24),17	359,(1, 37),10	369,(18, 37),9	378,(16, 27),1	379,(3, 27),4	383,(18, 27),21	404,(5, 85),1	405,(16, 85),27	432,(15, 85),5	
# Outgoing
1,(0, 17),11	12,(0, 12),11	23,(0, 20),11	34,(0, 6),11	45,(0, 8),11	56,(0, 9),11	67,(0, 10),11	78,(0, 14),11	89,(0, 4),11	100,(0, 7),11	111,(0, 11),11	122,(15, 97),1	123,(13, 94),1	124,(1, 185),1	125,(18, 119),1	126,(16, 190),1	127,(1, 25),1	128,(1, 93),1	129,(1, 129),1	130,(15, 150),1	131,(16, 136),1	132,(3, 141),1	133,(19, 88),1	134,(2, 132),1	135,(13, 76),1	136,(5, 116),1	137,(16, 169),1	138,(19, 180),1	139,(19, 197),2	141,(13, 191),1	142,(1, 191),1	143,(2, 99),2	145,(5, 193),2	147,(1, 162),3	150,(15, 162),1	151,(16, 178),4	155,(2, 77),2	157,(13, 77),2	159,(13, 89),1	160,(16, 89),3	163,(18, 26),4	167,(5, 65),1	168,(19, 65),1	169,(16, 65),2	171,(2, 78),4	175,(13, 78),1	176,(5, 117),5	181,(5, 159),5	186,(3, 152),5	191,(18, 135),5	196,(2, 106),6	202,(2, 70),6	208,(1, 176),6	214,(1, 134),6	220,(5, 34),1	221,(15, 34),5	226,(18, 87),8	234,(16, 49),1	235,(15, 49),8	243,(5, 127),10	253,(16, 131),1	254,(15, 131),10	264,(16, 41),12	276,(3, 58),12	288,(5, 199),12	300,(16, 92),13	313,(2, 75),1	314,(13, 75),1	315,(18, 75),11	326,(5, 74),1	327,(13, 74),13	340,(13, 24),1	341,(19, 24),1	342,(15, 24),17	359,(1, 37),10	369,(18, 37),9	378,(16, 27),1	379,(3, 27),4	383,(18, 27),21	404,(5, 85),1	405,(16, 85),27	432,(15, 85),5	
22,(188, 201),5	27,(183, 201),5	32,(12, 72),1	33,(12, 39),1	34,(12, 47),1	35,(17, 48),1	36,(17, 82),1	37,(171, 201),5	42,(12, 110),2	44,(20, 51),2	46,(20, 50),2	48,(20, 104),1	49,(17, 149),1	50,(6, 67),1	51,(6, 63),1	52,(6, 149),1	53,(17, 123),1	54,(17, 68),1	55,(73, 201),5	60,(168, 201),5	65,(8, 149),1	66,(12, 83),3	69,(8, 123),1	70,(57, 201),5	75,(9, 109),1	76,(9, 123),1	77,(8, 192),3	80,(54, 201),5	85,(9, 66),2	87,(12, 137),2	89,(10, 137),1	90,(200, 201),5	95,(14, 154),1	96,(9, 137),2	98,(17, 46),1	99,(14, 181),1	100,(161, 201),5	105,(4, 22),1	106,(4, 145),1	107,(4, 82),1	108,(4, 104),2	110,(122, 201),5	115,(153, 201),5	120,(7, 145),1	121,(7, 109),1	122,(7, 182),2	124,(7, 66),1	125,(175, 201),5	130,(11, 29),1	131,(11, 196),1	132,(7, 165),2	134,(11, 63),1	135,(186, 201),5	140,(96, 201),5	145,(155, 201),5	150,(124, 201),5	155,(179, 201),5	160,(144, 201),5	165,(130, 201),5	170,(44, 201),5	175,(61, 201),5	180,(198, 201),5	185,(163, 201),5	190,(111, 201),5	195,(38, 201),5	200,(184, 201),5	205,(147, 201),5	210,(121, 201),5	215,(187, 201),5	220,(90, 201),5	225,(56, 201),5	230,(156, 201),5	235,(33, 201),5	240,(143, 201),5	245,(28, 201),5	250,(91, 201),5	255,(97, 201),5	260,(94, 201),5	265,(185, 201),5	270,(119, 201),5	275,(190, 201),5	280,(25, 201),5	285,(7, 68),1	286,(11, 68),1	287,(93, 201),5	292,(4, 46),3	295,(129, 201),5	300,(7, 181),4	304,(150, 201),5	309,(8, 103),5	314,(136, 201),5	319,(12, 194),4	323,(14, 194),1	324,(141, 201),5	329,(12, 23),6	335,(88, 201),5	340,(7, 157),6	346,(132, 201),5	351,(20, 40),1	352,(10, 40),3	355,(11, 40),2	357,(76, 201),5	362,(17, 53),7	369,(116, 201),5	374,(9, 98),7	381,(169, 201),5	386,(9, 43),2	388,(4, 43),5	393,(180, 201),5	398,(9, 113),2	400,(14, 113),1	401,(4, 113),1	402,(11, 113),3	405,(197, 201),5	410,(6, 107),7	417,(191, 201),5	422,(17, 195),3	425,(6, 195),4	429,(99, 201),5	434,(8, 81),8	442,(193, 201),5	447,(9, 36),7	454,(4, 36),1	455,(162, 201),5	460,(12, 101),9	469,(178, 201),5	474,(6, 158),5	479,(10, 158),4	483,(77, 201),5	488,(9, 138),2	490,(4, 138),6	496,(11, 138),2	498,(89, 201),5	503,(8, 108),2	505,(14, 108),1	506,(11, 108),8	514,(26, 201),5	519,(20, 105),1	520,(8, 105),2	522,(14, 105),9	531,(65, 201),5	536,(10, 151),7	543,(7, 151),5	548,(78, 201),5	553,(12, 146),10	563,(8, 146),1	564,(7, 146),2	566,(117, 201),5	571,(9, 60),13	584,(159, 201),5	589,(7, 35),13	602,(152, 201),5	607,(20, 189),8	615,(10, 189),1	616,(7, 189),6	622,(135, 201),5	627,(17, 69),2	629,(6, 69),13	642,(106, 201),5	647,(17, 173),5	652,(12, 173),7	659,(6, 173),1	660,(4, 173),3	663,(70, 201),5	668,(17, 84),2	670,(7, 84),12	682,(11, 84),2	684,(176, 201),5	689,(20, 133),16	705,(134, 201),5	710,(9, 160),1	711,(4, 160),2	713,(7, 160),13	726,(34, 201),5	731,(12, 120),6	737,(8, 120),1	738,(14, 120),10	748,(87, 201),5	753,(12, 86),16	769,(4, 86),1	770,(49, 201),5	775,(9, 102),17	792,(11, 102),1	793,(127, 201),5	798,(6, 170),15	813,(8, 170),3	816,(131, 201),5	821,(20, 167),19	840,(41, 201),5	845,(11, 126),19	864,(58, 201),5	869,(20, 148),19	888,(11, 148),2	890,(199, 201),5	895,(20, 64),16	911,(8, 64),4	915,(10, 64),1	916,(92, 201),5	921,(6, 128),5	926,(9, 128),2	928,(11, 128),14	942,(75, 201),5	947,(20, 177),6	953,(7, 177),19	972,(74, 201),5	977,(17, 30),3	980,(20, 30),10	990,(6, 30),7	997,(14, 30),5	1002,(24, 201),5	1007,(12, 100),9	1016,(20, 100),1	1017,(8, 100),14	1031,(14, 100),2	1033,(37, 201),5	1038,(17, 172),4	1042,(8, 172),10	1052,(10, 172),6	1058,(4, 172),11	1069,(27, 201),5	1074,(8, 115),6	1080,(9, 115),65	1145,(85, 201),5	1150,(12, 174),5	1155,(7, 174),248	
