3898
# CPU
193,5,6	199,25,6	221,35,6	321,75,6	333,16,6	385,10,6	391,20,6	397,55,6	403,105,6	577,45,6	657,30,6	909,60,6	1569,95,6	1629,65,6	1693,40,6	1769,85,6	1793,100,6	1837,120,6	1945,80,6	2233,70,6	2437,90,6	2841,50,6	3053,110,6	3421,115,6	
145,4,6	151,89,6	161,54,6	185,59,6	191,104,6	203,19,6	243,74,6	337,9,6	343,39,6	833,49,6	893,109,6	925,24,6	949,79,6	955,119,6	1477,94,6	1605,99,6	1611,29,6	1685,34,6	1841,44,6	2573,114,6	2869,64,6	3025,69,6	3045,84,6	3145,15,6	
97,3,6	103,18,6	109,103,6	115,98,6	289,8,6	295,78,6	301,58,6	427,33,6	521,113,6	709,68,6	737,13,6	809,23,6	873,38,6	889,63,6	1801,73,6	1845,93,6	1889,108,6	2381,83,6	2401,88,6	2605,28,6	2737,118,6	3373,43,6	3379,48,6	3409,53,6	
49,2,6	55,97,6	61,102,6	241,7,6	265,22,6	307,112,6	433,12,6	439,42,6	445,47,6	1965,27,6	2229,62,6	2235,37,6	2377,77,6	2417,17,6	2423,72,6	2437,82,6	2477,107,6	2593,117,6	2701,87,6	2853,57,6	2897,67,6	3049,92,6	3149,32,6	3633,52,6	
0,0,1	1,11,6	7,6,6	13,1,6	19,14,6	25,101,6	31,76,6	37,81,6	317,46,6	337,71,6	441,21,6	501,116,6	521,56,6	527,86,6	821,36,6	909,111,6	937,66,6	1113,26,6	2477,51,6	2553,31,6	2581,61,6	2717,96,6	2723,106,6	3681,41,6	3705,91,6	3897,121,1	
# Incoming
145,(0, 5),48	193,(2, 25),4	197,(3, 35),24	221,(3, 95),4	299,(8, 100),4	317,(2, 75),4	329,(7, 16),4	337,(0, 10),48	449,(4, 30),108	561,(4, 45),16	577,(8, 30),80	833,(2, 60),76	1149,(2, 90),316	1477,(2, 95),92	1569,(9, 65),60	1685,(7, 40),8	1693,(7, 70),12	1713,(7, 85),56	1769,(7, 100),24	1793,(7, 120),44	1837,(9, 80),108	1945,(12, 110),4	1965,(11, 70),268	2401,(11, 90),36	2605,(6, 50),236	3049,(6, 110),4	3409,(1, 115),12	
97,(0, 4),48	145,(2, 54),16	161,(2, 59),24	185,(2, 104),4	199,(5, 19),4	203,(5, 74),40	289,(0, 9),48	337,(2, 49),496	833,(5, 109),60	893,(8, 24),32	925,(8, 79),24	949,(10, 119),4	1465,(2, 94),12	1569,(2, 99),36	1605,(7, 29),4	1609,(7, 34),76	1837,(12, 44),4	1889,(12, 114),8	2477,(11, 114),96	2853,(6, 64),16	2897,(6, 69),128	3025,(6, 84),20	3053,(1, 15),92	
49,(0, 3),48	97,(2, 18),4	101,(2, 98),12	241,(0, 8),48	289,(5, 78),4	293,(5, 108),28	391,(10, 33),36	427,(10, 83),12	509,(10, 113),12	577,(4, 68),132	733,(9, 13),4	737,(10, 23),72	821,(9, 38),52	873,(9, 63),16	937,(2, 83),212	1149,(5, 48),476	1705,(7, 83),8	1713,(9, 73),88	1841,(12, 93),4	1845,(12, 108),44	2377,(11, 83),4	2381,(11, 88),20	2593,(11, 118),8	2601,(6, 28),4	2605,(10, 118),132	3149,(1, 43),224	3373,(1, 48),4	3377,(1, 53),32	
1,(0, 2),48	193,(0, 7),48	241,(3, 37),8	249,(3, 82),12	261,(5, 22),4	265,(5, 77),4	295,(8, 52),4	303,(8, 112),4	385,(0, 12),48	433,(11, 27),1532	1965,(4, 37),4	1969,(4, 57),32	2001,(4, 62),228	2229,(9, 37),4	2233,(11, 77),144	2377,(8, 17),40	2417,(9, 72),4	2421,(9, 82),16	2437,(11, 107),40	2573,(11, 117),20	2593,(9, 87),108	2841,(6, 57),12	2869,(6, 67),28	3045,(6, 92),4	3145,(1, 32),4	3149,(3, 52),484	
197,(2, 46),120	317,(18, 121),4	321,(97, 121),4	325,(102, 121),4	329,(3, 71),8	337,(3, 86),64	401,(103, 121),4	405,(98, 121),4	409,(4, 21),32	441,(4, 26),8	449,(5, 116),52	501,(25, 121),4	505,(35, 121),4	509,(8, 51),4	513,(8, 56),8	521,(8, 86),4	525,(78, 121),4	529,(58, 121),4	533,(75, 121),4	537,(16, 121),4	541,(10, 61),4	545,(20, 121),4	549,(55, 121),4	553,(105, 121),4	557,(4, 41),4	561,(10, 26),60	621,(10, 36),36	657,(33, 121),4	661,(113, 121),4	665,(45, 121),4	669,(30, 121),4	709,(89, 121),4	713,(54, 121),4	717,(59, 121),4	721,(104, 121),4	725,(19, 121),4	729,(74, 121),4	733,(68, 121),4	737,(9, 36),84	821,(13, 121),4	825,(23, 121),4	879,(38, 121),4	889,(9, 66),4	893,(9, 106),8	901,(9, 111),8	909,(2, 66),28	937,(9, 26),176	1113,(39, 121),4	1117,(49, 121),4	1121,(63, 121),4	1125,(109, 121),4	1129,(60, 121),4	1133,(24, 121),4	1137,(79, 121),4	1141,(119, 121),4	1483,(94, 121),4	1625,(5, 51),852	2477,(7, 31),76	2553,(7, 61),28	2581,(7, 96),136	2717,(7, 106),4	2721,(22, 121),4	2725,(112, 121),4	2729,(12, 41),952	3681,(12, 91),24	3705,(42, 121),4	3709,(47, 121),4	3713,(95, 121),4	3717,(99, 121),4	3721,(29, 121),4	3725,(65, 121),4	3729,(34, 121),4	3733,(40, 121),4	3737,(85, 121),4	3741,(100, 121),4	3745,(73, 121),4	3749,(120, 121),4	3753,(44, 121),4	3757,(93, 121),4	3761,(108, 121),4	3765,(80, 121),4	3769,(27, 121),4	3773,(62, 121),4	3777,(70, 121),4	3781,(37, 121),4	3785,(77, 121),4	3789,(83, 121),4	3793,(88, 121),4	3797,(17, 121),4	3801,(72, 121),4	3805,(90, 121),4	3809,(82, 121),4	3813,(107, 121),4	3817,(114, 121),4	3821,(117, 121),4	3825,(28, 121),4	3829,(87, 121),4	3833,(118, 121),4	3837,(50, 121),4	3841,(57, 121),4	3845,(64, 121),4	3849,(67, 121),4	3853,(69, 121),4	3857,(84, 121),4	3861,(92, 121),4	3865,(110, 121),4	3869,(15, 121),4	3873,(32, 121),4	3877,(43, 121),4	3881,(48, 121),4	3885,(53, 121),4	3889,(115, 121),4	3893,(52, 121),4	
# Outgoing
199,(5, 19),4	203,(5, 74),40	261,(5, 22),4	265,(5, 77),4	289,(5, 78),4	293,(5, 108),28	391,(10, 33),36	427,(10, 83),12	449,(5, 116),52	501,(25, 121),4	505,(35, 121),4	509,(10, 113),12	533,(75, 121),4	537,(16, 121),4	541,(10, 61),4	545,(20, 121),4	549,(55, 121),4	553,(105, 121),4	561,(10, 26),60	621,(10, 36),36	665,(45, 121),4	669,(30, 121),4	737,(10, 23),72	833,(5, 109),60	949,(10, 119),4	1129,(60, 121),4	1149,(5, 48),476	1625,(5, 51),852	2605,(10, 118),132	3713,(95, 121),4	3725,(65, 121),4	3733,(40, 121),4	3737,(85, 121),4	3741,(100, 121),4	3749,(120, 121),4	3765,(80, 121),4	3777,(70, 121),4	3805,(90, 121),4	3837,(50, 121),4	3865,(110, 121),4	3889,(115, 121),4	
409,(4, 21),32	441,(4, 26),8	449,(4, 30),108	557,(4, 41),4	561,(4, 45),16	577,(4, 68),132	709,(89, 121),4	713,(54, 121),4	717,(59, 121),4	721,(104, 121),4	725,(19, 121),4	729,(74, 121),4	733,(9, 13),4	737,(9, 36),84	821,(9, 38),52	873,(9, 63),16	889,(9, 66),4	893,(9, 106),8	901,(9, 111),8	937,(9, 26),176	1113,(39, 121),4	1117,(49, 121),4	1125,(109, 121),4	1133,(24, 121),4	1137,(79, 121),4	1141,(119, 121),4	1483,(94, 121),4	1569,(9, 65),60	1713,(9, 73),88	1837,(9, 80),108	1965,(4, 37),4	1969,(4, 57),32	2001,(4, 62),228	2229,(9, 37),4	2417,(9, 72),4	2421,(9, 82),16	2593,(9, 87),108	3717,(99, 121),4	3721,(29, 121),4	3729,(34, 121),4	3753,(44, 121),4	3817,(114, 121),4	3845,(64, 121),4	3853,(69, 121),4	3857,(84, 121),4	3869,(15, 121),4	
197,(3, 35),24	221,(3, 95),4	241,(3, 37),8	249,(3, 82),12	295,(8, 52),4	299,(8, 100),4	303,(8, 112),4	317,(18, 121),4	329,(3, 71),8	337,(3, 86),64	401,(103, 121),4	405,(98, 121),4	509,(8, 51),4	513,(8, 56),8	521,(8, 86),4	525,(78, 121),4	529,(58, 121),4	577,(8, 30),80	657,(33, 121),4	661,(113, 121),4	733,(68, 121),4	821,(13, 121),4	825,(23, 121),4	879,(38, 121),4	893,(8, 24),32	925,(8, 79),24	1121,(63, 121),4	2377,(8, 17),40	3149,(3, 52),484	3745,(73, 121),4	3757,(93, 121),4	3761,(108, 121),4	3789,(83, 121),4	3793,(88, 121),4	3825,(28, 121),4	3833,(118, 121),4	3877,(43, 121),4	3881,(48, 121),4	3885,(53, 121),4	
97,(2, 18),4	101,(2, 98),12	145,(2, 54),16	161,(2, 59),24	185,(2, 104),4	193,(2, 25),4	197,(2, 46),120	317,(2, 75),4	321,(97, 121),4	325,(102, 121),4	329,(7, 16),4	337,(2, 49),496	833,(2, 60),76	909,(2, 66),28	937,(2, 83),212	1149,(2, 90),316	1465,(2, 94),12	1477,(2, 95),92	1569,(2, 99),36	1605,(7, 29),4	1609,(7, 34),76	1685,(7, 40),8	1693,(7, 70),12	1705,(7, 83),8	1713,(7, 85),56	1769,(7, 100),24	1793,(7, 120),44	1837,(12, 44),4	1841,(12, 93),4	1845,(12, 108),44	1889,(12, 114),8	1945,(12, 110),4	2477,(7, 31),76	2553,(7, 61),28	2581,(7, 96),136	2717,(7, 106),4	2721,(22, 121),4	2725,(112, 121),4	2729,(12, 41),952	3681,(12, 91),24	3705,(42, 121),4	3709,(47, 121),4	3769,(27, 121),4	3773,(62, 121),4	3781,(37, 121),4	3785,(77, 121),4	3797,(17, 121),4	3801,(72, 121),4	3809,(82, 121),4	3813,(107, 121),4	3821,(117, 121),4	3829,(87, 121),4	3841,(57, 121),4	3849,(67, 121),4	3861,(92, 121),4	3873,(32, 121),4	3893,(52, 121),4	
1,(0, 2),48	49,(0, 3),48	97,(0, 4),48	145,(0, 5),48	193,(0, 7),48	241,(0, 8),48	289,(0, 9),48	337,(0, 10),48	385,(0, 12),48	433,(11, 27),1532	1965,(11, 70),268	2233,(11, 77),144	2377,(11, 83),4	2381,(11, 88),20	2401,(11, 90),36	2437,(11, 107),40	2477,(11, 114),96	2573,(11, 117),20	2593,(11, 118),8	2601,(6, 28),4	2605,(6, 50),236	2841,(6, 57),12	2853,(6, 64),16	2869,(6, 67),28	2897,(6, 69),128	3025,(6, 84),20	3045,(6, 92),4	3049,(6, 110),4	3053,(1, 15),92	3145,(1, 32),4	3149,(1, 43),224	3373,(1, 48),4	3377,(1, 53),32	3409,(1, 115),12	
