53
# CPU
0,41,1	1,40,1	2,35,1	3,34,1	4,22,1	5,16,1	6,15,1	7,8,1	8,37,1	9,19,1	10,26,1	11,39,1	12,14,1	13,17,1	14,31,1	15,27,1	16,25,1	17,12,1	18,11,1	19,29,1	20,32,1	21,7,1	22,23,1	23,33,1	24,18,1	25,36,1	26,28,1	27,30,1	28,21,1	29,10,1	30,6,1	31,20,1	32,5,1	33,13,1	34,2,1	35,3,1	36,1,1	51,4,1	52,0,1	
9,9,1	17,24,1	
25,38,1	
# Incoming
10,(9, 2),2	12,(9, 1),3	18,(24, 3),3	21,(24, 1),6	27,(38, 4),24	
1,(41, 9),8	9,(41, 24),8	
17,(41, 38),8	
# Outgoing
1,(41, 9),8	9,(41, 24),8	17,(41, 38),8	
10,(9, 2),2	12,(9, 1),3	18,(24, 3),3	21,(24, 1),6	
27,(38, 4),24	
