122
# CPU
0,121,1	1,55,1	2,39,1	3,40,1	4,103,1	5,80,1	6,76,1	7,23,1	8,50,1	9,51,1	10,78,1	11,96,1	12,20,1	13,66,1	14,28,1	15,100,1	16,108,1	17,44,1	18,62,1	19,46,1	20,90,1	21,104,1	22,31,1	23,52,1	24,111,1	25,84,1	26,61,1	27,95,1	28,106,1	29,92,1	30,53,1	31,71,1	32,119,1	33,41,1	34,56,1	35,98,1	36,43,1	37,110,1	38,85,1	39,37,1	40,19,1	41,79,1	42,63,1	43,91,1	44,120,1	45,22,1	46,83,1	47,17,1	48,105,1	49,86,1	50,116,1	51,115,1	52,107,1	53,26,1	54,35,1	55,27,1	56,65,1	57,38,1	58,113,1	59,69,1	60,77,1	61,87,1	62,89,1	63,114,1	64,102,1	65,33,1	66,118,1	67,117,1	68,68,1	69,21,1	70,99,1	71,94,1	72,36,1	73,109,1	74,88,1	75,97,1	76,59,1	77,48,1	78,18,1	79,73,1	80,67,1	81,42,1	82,64,1	83,24,1	84,14,1	85,30,1	86,15,1	87,25,1	88,81,1	89,32,1	90,34,1	91,75,1	92,93,1	93,74,1	94,58,1	95,47,1	96,72,1	97,101,1	98,54,1	99,45,1	100,1,1	101,112,1	102,7,1	103,16,1	104,29,1	105,9,1	106,5,1	107,57,1	108,60,1	109,12,1	110,10,1	111,49,1	112,13,1	113,11,1	114,4,1	115,70,1	116,8,1	117,3,1	118,2,1	119,82,1	120,6,1	121,0,1	
# Incoming

# Outgoing

