4103
# CPU
925,14,1	1669,24,1	2005,34,1	
821,13,1	829,23,1	1997,33,1	
1577,22,1	2149,32,1	2273,12,1	
2081,11,1	2089,31,1	4097,21,1	
661,10,1	825,20,1	1769,30,1	2473,40,1	
593,9,1	625,39,1	1753,29,1	4029,19,1	
13,4,1	14,28,1	185,8,1	777,18,1	2029,38,1	
9,3,1	234,7,1	689,17,1	1717,27,1	2025,37,1	
5,2,1	6,26,1	29,6,1	637,16,1	2013,36,1	
0,0,1	1,1,1	50,5,1	681,15,1	745,35,1	1057,25,1	4102,41,1	
# Incoming
757,(1, 14),4	761,(4, 34),4	765,(3, 14),4	821,(2, 14),104	925,(2, 24),4	929,(4, 24),100	1057,(2, 34),160	1217,(3, 24),24	1497,(1, 24),172	1997,(1, 34),8	
521,(1, 13),236	757,(2, 13),64	821,(4, 23),8	1817,(1, 33),180	
241,(1, 12),280	565,(3, 22),40	649,(2, 12),28	677,(3, 12),88	765,(4, 32),8	825,(1, 22),672	1497,(2, 22),80	1577,(3, 32),108	1773,(1, 32),44	1901,(2, 32),248	2149,(4, 12),124	
1769,(1, 31),4	1773,(2, 11),56	1829,(2, 21),20	1849,(2, 31),52	1901,(3, 11),180	2081,(3, 21),4	2085,(3, 31),4	4029,(4, 21),68	
237,(1, 10),4	241,(3, 20),8	249,(3, 30),4	533,(2, 10),116	649,(4, 10),12	689,(4, 30),12	777,(1, 20),48	1753,(1, 30),16	2029,(1, 40),16	2149,(2, 40),324	
181,(1, 9),56	237,(2, 9),296	533,(3, 9),32	565,(4, 9),28	605,(3, 29),4	609,(3, 39),16	665,(4, 29),24	701,(2, 19),8	769,(3, 19),284	1717,(1, 29),36	2273,(4, 19),1756	
9,(0, 4),4	29,(1, 8),152	181,(3, 8),4	185,(3, 18),24	209,(3, 38),24	689,(2, 18),12	745,(2, 38),4	761,(1, 18),16	2025,(1, 38),4	
5,(0, 3),4	42,(2, 7),192	637,(4, 17),12	661,(4, 27),4	681,(2, 17),8	717,(4, 37),16	1217,(2, 37),220	1669,(1, 27),48	2013,(1, 37),12	
1,(0, 2),4	13,(1, 6),16	593,(4, 16),44	701,(4, 36),16	2005,(1, 36),8	
6,(2, 5),36	42,(3, 5),8	50,(3, 25),28	78,(3, 35),52	235,(7, 41),4	594,(9, 41),4	626,(39, 41),4	662,(10, 41),4	677,(2, 15),4	709,(2, 35),36	745,(28, 41),4	749,(26, 41),4	753,(6, 41),4	757,(8, 41),4	778,(18, 41),4	822,(13, 41),4	826,(20, 41),4	830,(23, 41),4	929,(2, 25),128	1057,(17, 41),4	1061,(14, 41),4	1437,(16, 41),4	1578,(22, 41),4	1670,(24, 41),4	1718,(27, 41),4	1754,(29, 41),4	1770,(30, 41),4	1998,(33, 41),4	2006,(34, 41),4	2030,(38, 41),4	2082,(11, 41),4	2089,(37, 41),4	2093,(31, 41),4	2150,(32, 41),4	2274,(12, 41),4	2473,(36, 41),4	2477,(40, 41),4	4030,(19, 41),4	4098,(21, 41),4	
# Outgoing
1061,(14, 41),4	1670,(24, 41),4	2006,(34, 41),4	
822,(13, 41),4	830,(23, 41),4	1998,(33, 41),4	
1578,(22, 41),4	2150,(32, 41),4	2274,(12, 41),4	
2082,(11, 41),4	2093,(31, 41),4	4098,(21, 41),4	
662,(10, 41),4	826,(20, 41),4	1770,(30, 41),4	2477,(40, 41),4	
594,(9, 41),4	626,(39, 41),4	1754,(29, 41),4	4030,(19, 41),4	
565,(4, 9),28	593,(4, 16),44	637,(4, 17),12	649,(4, 10),12	661,(4, 27),4	665,(4, 29),24	689,(4, 30),12	701,(4, 36),16	717,(4, 37),16	745,(28, 41),4	757,(8, 41),4	761,(4, 34),4	765,(4, 32),8	778,(18, 41),4	821,(4, 23),8	929,(4, 24),100	2030,(38, 41),4	2149,(4, 12),124	2273,(4, 19),1756	4029,(4, 21),68	
42,(3, 5),8	50,(3, 25),28	78,(3, 35),52	181,(3, 8),4	185,(3, 18),24	209,(3, 38),24	235,(7, 41),4	241,(3, 20),8	249,(3, 30),4	533,(3, 9),32	565,(3, 22),40	605,(3, 29),4	609,(3, 39),16	677,(3, 12),88	765,(3, 14),4	769,(3, 19),284	1057,(17, 41),4	1217,(3, 24),24	1577,(3, 32),108	1718,(27, 41),4	1901,(3, 11),180	2081,(3, 21),4	2085,(3, 31),4	2089,(37, 41),4	
6,(2, 5),36	42,(2, 7),192	237,(2, 9),296	533,(2, 10),116	649,(2, 12),28	677,(2, 15),4	681,(2, 17),8	689,(2, 18),12	701,(2, 19),8	709,(2, 35),36	745,(2, 38),4	749,(26, 41),4	753,(6, 41),4	757,(2, 13),64	821,(2, 14),104	925,(2, 24),4	929,(2, 25),128	1057,(2, 34),160	1217,(2, 37),220	1437,(16, 41),4	1497,(2, 22),80	1773,(2, 11),56	1829,(2, 21),20	1849,(2, 31),52	1901,(2, 32),248	2149,(2, 40),324	2473,(36, 41),4	
1,(0, 2),4	5,(0, 3),4	9,(0, 4),4	13,(1, 6),16	29,(1, 8),152	181,(1, 9),56	237,(1, 10),4	241,(1, 12),280	521,(1, 13),236	757,(1, 14),4	761,(1, 18),16	777,(1, 20),48	825,(1, 22),672	1497,(1, 24),172	1669,(1, 27),48	1717,(1, 29),36	1753,(1, 30),16	1769,(1, 31),4	1773,(1, 32),44	1817,(1, 33),180	1997,(1, 34),8	2005,(1, 36),8	2013,(1, 37),12	2025,(1, 38),4	2029,(1, 40),16	
