823
# CPU
0,0,1	1,12,1	2,174,1	3,163,1	4,11,1	5,87,1	6,84,1	7,83,1	8,8,1	9,111,1	10,81,1	11,5,1	12,191,1	13,93,1	14,70,1	15,14,1	16,36,1	17,15,1	18,171,1	19,147,1	20,128,1	21,24,1	22,149,1	23,132,1	24,92,1	25,117,1	26,119,1	27,145,1	28,29,1	29,72,1	30,200,1	31,144,1	32,196,1	35,38,1	39,107,1	46,169,1	50,113,1	56,167,1	62,48,1	67,63,1	77,75,1	89,69,1	102,114,1	110,90,1	122,95,1	154,121,1	168,40,1	182,138,1	197,27,1	211,39,1	226,165,1	242,47,1	269,179,1	287,181,1	307,88,1	335,199,1	392,51,1	657,131,1	
4,20,1	5,159,1	8,7,1	9,161,1	10,118,1	11,122,1	12,82,1	13,13,1	14,67,1	15,195,1	16,166,1	17,74,1	18,115,1	19,16,1	20,55,1	21,182,1	22,91,1	23,133,1	24,43,1	25,21,1	26,22,1	28,80,1	41,175,1	53,104,1	60,32,1	80,170,1	92,61,1	115,129,1	131,162,1	146,78,1	161,150,1	171,66,1	193,197,1	217,160,1	298,68,1	325,59,1	479,143,1	565,73,1	
3,9,1	4,148,1	6,1,1	7,184,1	8,189,1	9,97,1	10,3,1	11,64,1	12,112,1	13,10,1	14,23,1	15,85,1	16,4,1	17,137,1	18,65,1	19,124,1	20,151,1	21,125,1	22,54,1	23,30,1	25,41,1	29,178,1	33,177,1	36,176,1	40,183,1	44,96,1	49,194,1	59,116,1	68,192,1	74,57,1	84,180,1	94,173,1	104,71,1	119,158,1	139,193,1	154,101,1	186,77,1	200,154,1	220,187,1	258,164,1	379,100,1	430,134,1	822,201,1	
2,19,1	3,110,1	4,76,1	5,18,1	7,2,1	8,49,1	9,126,1	10,17,1	11,53,1	12,153,1	13,58,1	14,45,1	15,86,1	16,190,1	17,141,1	18,28,1	19,156,1	20,6,1	21,52,1	22,102,1	23,109,1	24,46,1	25,198,1	26,50,1	27,31,1	28,26,1	29,146,1	30,130,1	31,79,1	32,135,1	34,35,1	37,99,1	42,142,1	45,94,1	48,103,1	52,34,1	56,152,1	62,157,1	70,186,1	75,188,1	85,60,1	95,44,1	101,98,1	107,139,1	118,140,1	129,89,1	140,120,1	151,185,1	162,33,1	173,155,1	185,37,1	206,42,1	221,25,1	234,168,1	247,172,1	262,136,1	278,127,1	303,105,1	324,56,1	354,62,1	385,106,1	459,123,1	565,108,1	
# Incoming
8,(20, 24),1	9,(18, 117),1	10,(19, 119),1	11,(9, 29),1	12,(20, 144),1	13,(3, 144),1	14,(10, 145),1	15,(17, 144),1	16,(13, 92),1	17,(13, 29),1	18,(4, 132),1	19,(20, 196),1	20,(19, 63),1	21,(6, 149),1	22,(4, 200),1	23,(3, 196),2	25,(16, 72),3	28,(6, 200),2	30,(10, 196),1	31,(6, 38),4	35,(7, 107),3	38,(13, 107),1	39,(13, 47),1	40,(16, 47),1	41,(4, 169),3	44,(19, 169),2	46,(9, 113),1	47,(6, 113),3	50,(6, 167),6	56,(17, 48),6	62,(1, 63),2	64,(10, 63),2	66,(6, 63),1	67,(13, 75),10	77,(16, 69),5	82,(13, 181),2	85,(9, 69),4	94,(2, 114),8	102,(19, 90),7	109,(18, 90),1	115,(9, 95),5	120,(1, 95),1	121,(2, 95),1	122,(9, 121),6	128,(3, 39),1	129,(13, 199),3	133,(10, 138),3	136,(9, 47),1	137,(9, 179),1	138,(1, 181),1	146,(6, 121),8	154,(7, 40),14	168,(1, 199),3	171,(17, 138),11	182,(7, 27),15	197,(19, 39),3	200,(20, 39),10	210,(17, 39),1	211,(6, 165),15	226,(19, 47),14	240,(2, 47),2	242,(13, 179),16	258,(6, 179),11	269,(18, 181),6	275,(3, 181),4	279,(16, 181),8	287,(17, 88),20	307,(19, 199),11	318,(9, 199),16	334,(18, 199),1	335,(13, 131),4	339,(10, 131),8	354,(10, 51),38	565,(19, 131),54	619,(17, 131),30	649,(6, 131),8	
3,(0, 20),1	4,(19, 133),1	5,(19, 22),1	6,(19, 150),1	7,(0, 7),1	8,(1, 197),1	10,(12, 82),1	11,(0, 13),1	12,(2, 21),2	14,(2, 175),1	15,(3, 78),1	16,(2, 32),1	17,(4, 115),1	18,(0, 16),1	19,(4, 43),2	21,(4, 22),1	23,(6, 21),1	24,(6, 22),1	26,(12, 80),2	30,(6, 143),1	31,(3, 170),3	35,(5, 32),1	36,(18, 175),5	47,(1, 104),6	53,(3, 32),7	66,(5, 170),1	67,(14, 170),8	75,(9, 170),5	80,(8, 61),2	82,(5, 129),1	83,(14, 78),1	84,(2, 61),3	87,(17, 61),5	92,(15, 66),1	93,(15, 73),1	104,(12, 129),5	109,(4, 129),6	115,(15, 59),2	122,(18, 162),3	125,(2, 162),6	131,(5, 78),8	139,(6, 78),7	146,(9, 150),9	155,(17, 150),6	161,(6, 66),10	171,(3, 197),22	200,(19, 160),10	210,(4, 160),7	264,(3, 143),11	275,(19, 68),9	284,(1, 68),14	298,(11, 59),27	403,(18, 143),76	479,(18, 73),86	
2,(0, 9),1	3,(19, 184),1	5,(0, 1),1	6,(20, 189),1	7,(18, 189),1	8,(2, 97),1	9,(0, 3),1	10,(7, 124),1	11,(17, 112),1	12,(0, 10),1	13,(20, 151),1	14,(0, 4),1	15,(13, 65),1	16,(14, 137),1	17,(18, 125),1	18,(18, 54),2	20,(5, 125),1	21,(15, 54),1	22,(6, 30),1	23,(14, 41),1	24,(15, 41),1	25,(19, 178),1	26,(18, 178),2	28,(7, 178),1	29,(13, 177),3	32,(5, 177),1	33,(11, 176),2	35,(18, 176),1	37,(15, 183),3	40,(11, 96),1	41,(7, 96),1	42,(17, 96),2	44,(7, 194),5	49,(20, 116),4	53,(7, 180),1	54,(7, 193),1	56,(14, 116),1	57,(15, 116),2	59,(11, 192),1	60,(8, 192),3	63,(17, 192),3	67,(6, 192),1	68,(2, 57),6	74,(19, 158),1	75,(14, 180),1	76,(6, 180),8	84,(13, 173),8	92,(2, 173),2	94,(11, 71),10	104,(7, 101),3	109,(14, 193),1	110,(17, 158),9	119,(2, 77),1	120,(6, 77),1	121,(7, 187),2	123,(15, 193),1	124,(5, 154),1	125,(14, 164),1	126,(15, 134),2	131,(6, 193),8	140,(16, 101),14	154,(18, 134),1	168,(7, 77),9	177,(16, 164),4	182,(19, 77),4	186,(8, 154),14	200,(11, 187),20	221,(13, 100),2	223,(174, 201),3	226,(163, 201),3	229,(159, 201),3	232,(161, 201),3	235,(118, 201),3	238,(87, 201),3	242,(18, 164),14	256,(6, 164),2	258,(84, 201),3	261,(83, 201),3	264,(122, 201),3	267,(82, 201),3	270,(67, 201),3	273,(195, 201),3	276,(166, 201),3	284,(110, 201),3	287,(111, 201),3	290,(81, 201),3	293,(191, 201),3	318,(76, 201),3	321,(49, 201),3	324,(126, 201),3	327,(53, 201),3	330,(153, 201),3	335,(19, 100),44	379,(2, 134),24	403,(5, 134),27	430,(93, 201),3	433,(70, 201),3	436,(36, 201),3	439,(171, 201),3	442,(147, 201),3	445,(128, 201),3	448,(24, 201),3	451,(149, 201),3	454,(132, 201),3	459,(74, 201),3	462,(115, 201),3	465,(55, 201),3	468,(182, 201),3	471,(91, 201),3	474,(133, 201),3	477,(92, 201),3	480,(43, 201),3	483,(117, 201),3	486,(21, 201),3	489,(22, 201),3	492,(80, 201),3	495,(175, 201),3	498,(104, 201),3	501,(32, 201),3	504,(170, 201),3	507,(61, 201),3	510,(129, 201),3	513,(162, 201),3	516,(78, 201),3	519,(150, 201),3	522,(66, 201),3	525,(197, 201),3	528,(160, 201),3	531,(68, 201),3	534,(59, 201),3	537,(143, 201),3	565,(119, 201),3	568,(145, 201),3	571,(29, 201),3	574,(72, 201),3	577,(200, 201),3	580,(144, 201),3	583,(196, 201),3	586,(38, 201),3	589,(107, 201),3	592,(169, 201),3	595,(113, 201),3	598,(167, 201),3	601,(48, 201),3	604,(63, 201),3	607,(75, 201),3	610,(69, 201),3	613,(114, 201),3	616,(90, 201),3	619,(95, 201),3	622,(121, 201),3	625,(40, 201),3	628,(138, 201),3	631,(27, 201),3	634,(39, 201),3	637,(165, 201),3	640,(47, 201),3	643,(179, 201),3	646,(181, 201),3	649,(88, 201),3	652,(199, 201),3	657,(58, 201),3	660,(45, 201),3	663,(86, 201),3	666,(190, 201),3	669,(141, 201),3	672,(28, 201),3	675,(156, 201),3	678,(52, 201),3	681,(102, 201),3	684,(109, 201),3	687,(46, 201),3	690,(198, 201),3	693,(50, 201),3	696,(31, 201),3	699,(26, 201),3	702,(146, 201),3	705,(130, 201),3	708,(79, 201),3	711,(135, 201),3	714,(35, 201),3	717,(99, 201),3	720,(142, 201),3	723,(94, 201),3	726,(103, 201),3	729,(34, 201),3	732,(152, 201),3	735,(157, 201),3	738,(186, 201),3	741,(188, 201),3	744,(60, 201),3	747,(44, 201),3	750,(98, 201),3	753,(139, 201),3	756,(140, 201),3	759,(89, 201),3	762,(120, 201),3	765,(185, 201),3	768,(33, 201),3	771,(155, 201),3	774,(37, 201),3	777,(42, 201),3	780,(25, 201),3	783,(168, 201),3	786,(172, 201),3	789,(136, 201),3	792,(127, 201),3	795,(105, 201),3	798,(56, 201),3	801,(62, 201),3	804,(106, 201),3	807,(51, 201),3	810,(123, 201),3	813,(73, 201),3	816,(108, 201),3	819,(131, 201),3	
1,(0, 19),1	4,(0, 18),1	5,(9, 126),1	6,(0, 2),1	7,(20, 45),1	8,(0, 17),1	9,(20, 156),1	10,(9, 79),1	11,(20, 26),1	12,(9, 142),1	13,(5, 190),1	14,(13, 86),1	15,(8, 141),1	16,(1, 103),1	17,(14, 28),1	18,(13, 33),1	19,(0, 6),1	20,(16, 31),1	21,(13, 155),1	22,(14, 198),1	23,(20, 146),2	25,(5, 50),1	26,(1, 135),2	28,(12, 130),2	30,(5, 79),1	31,(15, 135),1	32,(7, 35),2	34,(1, 99),2	36,(5, 99),1	37,(10, 142),4	41,(14, 142),1	42,(15, 94),3	45,(15, 103),3	48,(14, 34),4	52,(14, 152),4	56,(13, 157),5	61,(4, 157),1	62,(16, 108),1	63,(12, 186),1	64,(5, 186),1	65,(15, 188),1	66,(10, 186),4	70,(1, 188),5	76,(14, 60),2	78,(5, 139),1	79,(15, 139),1	80,(10, 60),5	85,(11, 140),4	89,(10, 44),6	95,(9, 98),6	101,(4, 139),6	107,(20, 140),5	112,(16, 140),6	118,(11, 89),5	123,(20, 89),5	128,(5, 89),1	129,(4, 120),4	133,(16, 120),7	140,(3, 185),2	142,(4, 185),2	144,(15, 185),7	151,(12, 33),10	161,(9, 33),1	162,(15, 155),11	173,(8, 37),12	185,(12, 172),1	193,(9, 42),5	198,(10, 42),8	206,(1, 25),2	208,(10, 25),1	209,(4, 56),1	210,(20, 25),11	221,(9, 168),13	234,(5, 172),1	235,(10, 172),2	237,(14, 172),1	238,(4, 172),9	247,(11, 136),4	251,(10, 136),11	262,(3, 127),2	264,(5, 127),14	278,(12, 62),4	282,(5, 106),3	287,(20, 105),2	289,(16, 105),14	303,(20, 56),7	310,(13, 56),12	322,(16, 56),2	325,(11, 62),26	351,(1, 62),3	354,(20, 106),29	383,(16, 106),2	385,(16, 123),74	459,(12, 108),10	469,(8, 108),7	476,(3, 108),11	487,(5, 108),78	
# Outgoing
1,(0, 19),1	2,(0, 9),1	3,(0, 20),1	4,(0, 18),1	5,(0, 1),1	6,(0, 2),1	7,(0, 7),1	8,(0, 17),1	9,(0, 3),1	10,(12, 82),1	11,(0, 13),1	12,(0, 10),1	13,(5, 190),1	14,(0, 4),1	15,(8, 141),1	16,(14, 137),1	17,(14, 28),1	18,(0, 16),1	19,(0, 6),1	20,(5, 125),1	21,(15, 54),1	22,(14, 198),1	23,(14, 41),1	24,(15, 41),1	25,(5, 50),1	26,(12, 80),2	28,(12, 130),2	30,(5, 79),1	31,(15, 135),1	32,(5, 177),1	33,(11, 176),2	35,(5, 32),1	36,(5, 99),1	37,(15, 183),3	40,(11, 96),1	41,(14, 142),1	42,(15, 94),3	45,(15, 103),3	48,(14, 34),4	52,(14, 152),4	56,(14, 116),1	57,(15, 116),2	59,(11, 192),1	60,(8, 192),3	63,(12, 186),1	64,(5, 186),1	65,(15, 188),1	66,(5, 170),1	67,(14, 170),8	75,(14, 180),1	76,(14, 60),2	78,(5, 139),1	79,(15, 139),1	80,(8, 61),2	82,(5, 129),1	83,(14, 78),1	85,(11, 140),4	92,(15, 66),1	93,(15, 73),1	94,(11, 71),10	104,(12, 129),5	109,(14, 193),1	115,(15, 59),2	118,(11, 89),5	123,(15, 193),1	124,(5, 154),1	125,(14, 164),1	126,(15, 134),2	128,(5, 89),1	131,(5, 78),8	144,(15, 185),7	151,(12, 33),10	162,(15, 155),11	173,(8, 37),12	185,(12, 172),1	186,(8, 154),14	200,(11, 187),20	223,(174, 201),3	226,(163, 201),3	234,(5, 172),1	237,(14, 172),1	238,(87, 201),3	247,(11, 136),4	258,(84, 201),3	261,(83, 201),3	264,(5, 127),14	278,(12, 62),4	282,(5, 106),3	287,(111, 201),3	290,(81, 201),3	293,(191, 201),3	298,(11, 59),27	325,(11, 62),26	403,(5, 134),27	430,(93, 201),3	433,(70, 201),3	436,(36, 201),3	439,(171, 201),3	442,(147, 201),3	445,(128, 201),3	448,(24, 201),3	451,(149, 201),3	454,(132, 201),3	459,(12, 108),10	469,(8, 108),7	477,(92, 201),3	483,(117, 201),3	487,(5, 108),78	565,(119, 201),3	568,(145, 201),3	571,(29, 201),3	574,(72, 201),3	577,(200, 201),3	580,(144, 201),3	583,(196, 201),3	586,(38, 201),3	589,(107, 201),3	592,(169, 201),3	595,(113, 201),3	598,(167, 201),3	601,(48, 201),3	604,(63, 201),3	607,(75, 201),3	610,(69, 201),3	613,(114, 201),3	616,(90, 201),3	619,(95, 201),3	622,(121, 201),3	625,(40, 201),3	628,(138, 201),3	631,(27, 201),3	634,(39, 201),3	637,(165, 201),3	640,(47, 201),3	643,(179, 201),3	646,(181, 201),3	649,(88, 201),3	652,(199, 201),3	807,(51, 201),3	819,(131, 201),3	
6,(20, 189),1	7,(20, 45),1	8,(20, 24),1	9,(20, 156),1	10,(7, 124),1	11,(20, 26),1	12,(20, 144),1	13,(20, 151),1	14,(13, 86),1	15,(13, 65),1	16,(13, 92),1	17,(13, 29),1	18,(13, 33),1	19,(20, 196),1	20,(16, 31),1	21,(13, 155),1	23,(20, 146),2	25,(16, 72),3	28,(7, 178),1	29,(13, 177),3	32,(7, 35),2	35,(7, 107),3	38,(13, 107),1	39,(13, 47),1	40,(16, 47),1	41,(7, 96),1	44,(7, 194),5	49,(20, 116),4	53,(7, 180),1	54,(7, 193),1	56,(13, 157),5	62,(16, 108),1	67,(13, 75),10	77,(16, 69),5	82,(13, 181),2	84,(13, 173),8	104,(7, 101),3	107,(20, 140),5	112,(16, 140),6	121,(7, 187),2	123,(20, 89),5	129,(13, 199),3	133,(16, 120),7	140,(16, 101),14	154,(7, 40),14	168,(7, 77),9	177,(16, 164),4	182,(7, 27),15	200,(20, 39),10	210,(20, 25),11	221,(13, 100),2	229,(159, 201),3	232,(161, 201),3	235,(118, 201),3	242,(13, 179),16	264,(122, 201),3	267,(82, 201),3	270,(67, 201),3	273,(195, 201),3	276,(166, 201),3	279,(16, 181),8	287,(20, 105),2	289,(16, 105),14	303,(20, 56),7	310,(13, 56),12	322,(16, 56),2	335,(13, 131),4	354,(20, 106),29	383,(16, 106),2	385,(16, 123),74	459,(74, 201),3	462,(115, 201),3	465,(55, 201),3	468,(182, 201),3	471,(91, 201),3	474,(133, 201),3	480,(43, 201),3	486,(21, 201),3	489,(22, 201),3	492,(80, 201),3	495,(175, 201),3	498,(104, 201),3	501,(32, 201),3	504,(170, 201),3	507,(61, 201),3	510,(129, 201),3	513,(162, 201),3	516,(78, 201),3	519,(150, 201),3	522,(66, 201),3	525,(197, 201),3	528,(160, 201),3	531,(68, 201),3	534,(59, 201),3	537,(143, 201),3	813,(73, 201),3	
5,(9, 126),1	8,(1, 197),1	10,(9, 79),1	11,(9, 29),1	12,(9, 142),1	13,(3, 144),1	14,(10, 145),1	15,(3, 78),1	16,(1, 103),1	17,(4, 115),1	18,(4, 132),1	19,(4, 43),2	21,(4, 22),1	22,(4, 200),1	23,(3, 196),2	26,(1, 135),2	30,(10, 196),1	31,(3, 170),3	34,(1, 99),2	37,(10, 142),4	41,(4, 169),3	46,(9, 113),1	47,(1, 104),6	53,(3, 32),7	61,(4, 157),1	62,(1, 63),2	64,(10, 63),2	66,(10, 186),4	70,(1, 188),5	75,(9, 170),5	80,(10, 60),5	85,(9, 69),4	89,(10, 44),6	95,(9, 98),6	101,(4, 139),6	109,(4, 129),6	115,(9, 95),5	120,(1, 95),1	122,(9, 121),6	128,(3, 39),1	129,(4, 120),4	133,(10, 138),3	136,(9, 47),1	137,(9, 179),1	138,(1, 181),1	140,(3, 185),2	142,(4, 185),2	146,(9, 150),9	161,(9, 33),1	168,(1, 199),3	171,(3, 197),22	193,(9, 42),5	198,(10, 42),8	206,(1, 25),2	208,(10, 25),1	209,(4, 56),1	210,(4, 160),7	221,(9, 168),13	235,(10, 172),2	238,(4, 172),9	251,(10, 136),11	262,(3, 127),2	264,(3, 143),11	275,(3, 181),4	284,(1, 68),14	318,(9, 199),16	339,(10, 131),8	351,(1, 62),3	354,(10, 51),38	476,(3, 108),11	
3,(19, 184),1	4,(19, 133),1	5,(19, 22),1	6,(19, 150),1	7,(18, 189),1	8,(2, 97),1	9,(18, 117),1	10,(19, 119),1	11,(17, 112),1	12,(2, 21),2	14,(2, 175),1	15,(17, 144),1	16,(2, 32),1	17,(18, 125),1	18,(18, 54),2	20,(19, 63),1	21,(6, 149),1	22,(6, 30),1	23,(6, 21),1	24,(6, 22),1	25,(19, 178),1	26,(18, 178),2	28,(6, 200),2	30,(6, 143),1	31,(6, 38),4	35,(18, 176),1	36,(18, 175),5	42,(17, 96),2	44,(19, 169),2	47,(6, 113),3	50,(6, 167),6	56,(17, 48),6	63,(17, 192),3	66,(6, 63),1	67,(6, 192),1	68,(2, 57),6	74,(19, 158),1	76,(6, 180),8	84,(2, 61),3	87,(17, 61),5	92,(2, 173),2	94,(2, 114),8	102,(19, 90),7	109,(18, 90),1	110,(17, 158),9	119,(2, 77),1	120,(6, 77),1	121,(2, 95),1	122,(18, 162),3	125,(2, 162),6	131,(6, 193),8	139,(6, 78),7	146,(6, 121),8	154,(18, 134),1	155,(17, 150),6	161,(6, 66),10	171,(17, 138),11	182,(19, 77),4	197,(19, 39),3	200,(19, 160),10	210,(17, 39),1	211,(6, 165),15	226,(19, 47),14	240,(2, 47),2	242,(18, 164),14	256,(6, 164),2	258,(6, 179),11	269,(18, 181),6	275,(19, 68),9	284,(110, 201),3	287,(17, 88),20	307,(19, 199),11	318,(76, 201),3	321,(49, 201),3	324,(126, 201),3	327,(53, 201),3	330,(153, 201),3	334,(18, 199),1	335,(19, 100),44	379,(2, 134),24	403,(18, 143),76	479,(18, 73),86	565,(19, 131),54	619,(17, 131),30	649,(6, 131),8	657,(58, 201),3	660,(45, 201),3	663,(86, 201),3	666,(190, 201),3	669,(141, 201),3	672,(28, 201),3	675,(156, 201),3	678,(52, 201),3	681,(102, 201),3	684,(109, 201),3	687,(46, 201),3	690,(198, 201),3	693,(50, 201),3	696,(31, 201),3	699,(26, 201),3	702,(146, 201),3	705,(130, 201),3	708,(79, 201),3	711,(135, 201),3	714,(35, 201),3	717,(99, 201),3	720,(142, 201),3	723,(94, 201),3	726,(103, 201),3	729,(34, 201),3	732,(152, 201),3	735,(157, 201),3	738,(186, 201),3	741,(188, 201),3	744,(60, 201),3	747,(44, 201),3	750,(98, 201),3	753,(139, 201),3	756,(140, 201),3	759,(89, 201),3	762,(120, 201),3	765,(185, 201),3	768,(33, 201),3	771,(155, 201),3	774,(37, 201),3	777,(42, 201),3	780,(25, 201),3	783,(168, 201),3	786,(172, 201),3	789,(136, 201),3	792,(127, 201),3	795,(105, 201),3	798,(56, 201),3	801,(62, 201),3	804,(106, 201),3	810,(123, 201),3	816,(108, 201),3	
