9167
# CPU
85,2,1	169,4,1	253,6,1	337,8,1	421,10,1	422,100,1	423,134,1	424,180,1	505,12,1	506,114,1	507,138,1	589,14,1	590,44,1	591,132,1	592,140,1	673,16,1	674,70,1	675,182,1	676,190,1	677,196,1	678,102,1	679,104,1	680,110,1	681,156,1	757,18,1	758,106,1	759,160,1	760,166,1	841,20,1	842,42,1	843,82,1	844,124,1	845,136,1	846,164,1	1029,38,1	1257,78,1	1489,118,1	4861,46,1	4877,60,1	4965,76,1	4993,94,1	5013,128,1	5177,66,1	5389,130,1	5601,172,1	6181,28,1	6245,64,1	6265,90,1	6749,108,1	6841,178,1	6909,194,1	6925,24,1	6929,40,1	6993,50,1	6997,88,1	7033,142,1	7065,144,1	7209,154,1	7537,174,1	7573,26,1	7577,34,1	7813,116,1	7901,126,1	7957,162,1	7961,168,1	7977,198,1	8077,22,1	8085,36,1	8093,52,1	8217,54,1	8433,92,1	8437,120,1	8441,158,1	8449,170,1	8565,72,1	8601,96,1	8605,112,1	8613,122,1	8669,146,1	8673,148,1	8693,176,1	8697,186,1	8729,32,1	8789,48,1	8849,56,1	8869,58,1	8873,62,1	8953,74,1	9013,80,1	9017,84,1	9021,150,1	9041,184,1	9045,192,1	9053,200,1	9057,30,1	9061,68,1	9077,86,1	9081,98,1	9117,152,1	9153,188,1	
0,0,1	1,9,1	2,11,1	3,15,1	4,17,1	5,19,1	6,7,1	7,3,1	8,1,1	9,5,1	10,13,1	11,63,1	12,23,1	13,187,1	14,109,1	15,181,1	16,191,1	17,53,1	18,97,1	19,39,1	20,167,1	21,149,1	22,85,1	23,127,1	24,131,1	25,105,1	26,45,1	27,113,1	28,33,1	29,143,1	246,121,1	342,185,1	474,47,1	530,91,1	1158,137,1	1318,107,1	1346,135,1	1498,179,1	1502,199,1	1794,103,1	1966,139,1	1970,151,1	2190,161,1	2930,41,1	2938,49,1	3086,71,1	3150,75,1	3162,83,1	3170,87,1	3206,169,1	3306,67,1	3446,119,1	3462,123,1	3498,133,1	3502,153,1	3586,175,1	3590,177,1	3594,189,1	3682,25,1	3686,37,1	4538,89,1	4678,111,1	4690,117,1	4698,129,1	4846,155,1	4862,159,1	4914,171,1	4934,193,1	5010,197,1	5050,55,1	5114,65,1	5118,69,1	5538,95,1	5542,99,1	5546,125,1	5934,27,1	5938,43,1	5986,57,1	6046,59,1	6054,73,1	6070,93,1	6074,101,1	6298,115,1	6314,141,1	6438,147,1	6498,163,1	6574,165,1	6618,21,1	6778,29,1	6802,31,1	6878,35,1	6950,51,1	6954,61,1	6958,77,1	6962,79,1	6966,81,1	6974,145,1	7106,157,1	7110,173,1	7142,183,1	7302,195,1	9166,201,1	
# Incoming
1,(0, 2),84	85,(0, 4),84	169,(0, 6),84	253,(0, 8),84	337,(0, 10),84	421,(0, 12),84	505,(0, 14),84	589,(0, 16),84	673,(0, 18),84	757,(0, 20),84	841,(9, 34),148	989,(9, 36),4	993,(9, 38),36	1029,(9, 52),40	1069,(9, 62),16	1085,(9, 64),80	1165,(9, 72),4	1169,(9, 78),88	1257,(9, 80),12	1269,(9, 88),4	1273,(9, 116),212	1485,(9, 118),4	1489,(9, 122),4	1493,(9, 126),4	1497,(9, 128),4	1501,(9, 144),1992	3493,(9, 172),4	3497,(9, 192),20	3517,(11, 24),1228	4745,(11, 30),16	4761,(11, 46),100	4861,(11, 58),12	4873,(11, 60),4	4877,(11, 68),64	4941,(11, 76),24	4965,(11, 88),4	4969,(11, 94),24	4993,(11, 112),4	4997,(11, 126),4	5001,(11, 128),12	5013,(11, 168),12	5025,(11, 170),56	5081,(15, 22),36	5117,(15, 54),24	5141,(15, 56),4	5145,(15, 66),32	5177,(15, 126),44	5221,(15, 130),168	5389,(15, 162),184	5573,(15, 170),24	5597,(15, 172),4	5601,(15, 184),8	5609,(15, 200),568	6177,(17, 28),4	6181,(17, 32),28	6209,(17, 58),20	6229,(17, 62),4	6233,(17, 64),12	6245,(17, 84),4	6249,(17, 90),16	6265,(17, 108),484	6749,(17, 150),84	6833,(17, 162),4	6837,(17, 178),4	6841,(17, 194),68	6909,(19, 24),16	6925,(19, 40),4	6929,(19, 50),64	6993,(19, 88),4	6997,(19, 142),36	7033,(19, 144),32	7065,(19, 154),144	7209,(19, 174),328	7537,(7, 26),36	7573,(7, 34),4	7577,(7, 62),24	7601,(7, 84),8	7609,(7, 86),44	7653,(7, 92),152	7805,(7, 116),8	7813,(7, 126),88	7901,(7, 158),4	7905,(7, 162),52	7957,(7, 168),4	7961,(7, 186),4	7965,(7, 188),8	7973,(7, 198),4	7977,(7, 200),72	8049,(3, 22),28	8077,(3, 36),8	8085,(3, 52),8	8093,(3, 54),124	8217,(3, 58),16	8233,(3, 68),4	8237,(3, 80),80	8317,(3, 92),116	8433,(3, 120),4	8437,(3, 158),4	8441,(3, 170),8	8449,(3, 176),4	8453,(1, 62),16	8469,(1, 72),96	8565,(1, 96),36	8601,(1, 112),4	8605,(1, 122),8	8613,(1, 146),56	8669,(1, 148),4	8673,(1, 152),12	8685,(1, 176),8	8693,(1, 186),4	8697,(1, 192),4	8701,(5, 32),28	8729,(5, 48),60	8789,(5, 56),60	8849,(5, 58),20	8869,(5, 62),4	8873,(5, 74),80	8953,(5, 80),60	9013,(5, 84),4	9017,(5, 150),4	9021,(5, 184),20	9041,(5, 192),4	9045,(5, 200),8	9053,(13, 30),4	9057,(13, 68),4	9061,(13, 86),16	9077,(13, 98),4	9081,(13, 152),36	9117,(13, 188),36	
86,(2, 27),40	126,(2, 31),20	146,(2, 51),4	150,(2, 67),32	182,(2, 75),20	202,(2, 77),16	218,(2, 121),28	246,(2, 133),4	250,(2, 151),16	266,(2, 157),56	322,(2, 179),16	338,(2, 185),4	342,(4, 41),8	350,(4, 47),124	474,(4, 57),48	522,(4, 61),4	526,(4, 91),4	530,(4, 93),60	590,(4, 99),516	1106,(4, 133),36	1142,(4, 137),16	1158,(4, 161),4	1162,(6, 21),52	1214,(6, 49),12	1226,(6, 51),4	1230,(6, 103),28	1258,(6, 107),60	1318,(6, 135),28	1346,(6, 169),4	1350,(6, 173),64	1414,(6, 179),84	1498,(6, 199),4	1502,(8, 29),12	1514,(8, 31),4	1518,(8, 57),140	1658,(8, 71),72	1730,(8, 103),64	1794,(8, 115),12	1806,(8, 119),20	1826,(8, 125),12	1838,(8, 129),4	1842,(8, 139),124	1966,(8, 151),4	1970,(8, 161),220	2190,(10, 35),300	2490,(10, 41),440	2930,(10, 49),8	2938,(10, 69),140	3078,(10, 71),8	3086,(10, 73),8	3094,(10, 75),56	3150,(10, 83),12	3162,(10, 87),8	3170,(10, 111),16	3186,(10, 163),16	3202,(10, 169),4	3206,(100, 201),12	3218,(134, 201),12	3230,(180, 201),12	3242,(12, 21),24	3266,(12, 25),16	3282,(12, 67),24	3306,(12, 69),56	3362,(12, 95),72	3434,(12, 117),8	3442,(12, 119),4	3446,(12, 123),16	3462,(12, 133),36	3498,(12, 153),4	3502,(12, 157),32	3534,(12, 173),36	3570,(12, 175),16	3586,(12, 177),4	3590,(12, 189),4	3594,(114, 201),12	3606,(138, 201),12	3618,(14, 21),32	3650,(14, 25),32	3682,(14, 37),4	3686,(14, 43),840	4526,(14, 79),4	4530,(14, 89),8	4538,(14, 101),12	4550,(14, 111),128	4678,(14, 117),12	4690,(14, 129),8	4698,(14, 155),148	4846,(14, 159),16	4862,(14, 171),52	4914,(14, 193),20	4934,(14, 197),76	5010,(44, 201),12	5022,(132, 201),12	5034,(140, 201),12	5046,(16, 55),4	5050,(16, 65),64	5114,(16, 69),4	5118,(16, 79),380	5498,(16, 95),40	5538,(16, 99),4	5542,(16, 125),4	5546,(16, 147),64	5610,(16, 165),8	5618,(70, 201),12	5630,(182, 201),12	5642,(190, 201),12	5654,(196, 201),12	5666,(102, 201),12	5678,(104, 201),12	5690,(110, 201),12	5702,(156, 201),12	5714,(18, 27),220	5934,(18, 43),4	5938,(18, 51),44	5982,(18, 57),4	5986,(18, 59),60	6046,(18, 73),8	6054,(18, 81),12	6066,(18, 93),4	6070,(18, 101),4	6074,(18, 115),224	6298,(18, 141),16	6314,(18, 147),124	6438,(18, 163),60	6498,(18, 165),76	6574,(106, 201),12	6586,(160, 201),12	6598,(166, 201),12	6610,(20, 21),8	6618,(20, 29),160	6778,(20, 31),24	6802,(20, 35),76	6878,(20, 51),72	6950,(20, 61),4	6954,(20, 77),4	6958,(20, 79),4	6962,(20, 81),4	6966,(20, 145),8	6974,(20, 157),132	7106,(20, 173),4	7110,(20, 183),32	7142,(20, 195),160	7302,(42, 201),12	7314,(82, 201),12	7326,(124, 201),12	7338,(136, 201),12	7350,(164, 201),12	7362,(38, 201),12	7374,(78, 201),12	7386,(118, 201),12	7398,(46, 201),12	7410,(60, 201),12	7422,(76, 201),12	7434,(94, 201),12	7446,(128, 201),12	7458,(66, 201),12	7470,(130, 201),12	7482,(172, 201),12	7494,(28, 201),12	7506,(64, 201),12	7518,(90, 201),12	7530,(108, 201),12	7542,(178, 201),12	7554,(194, 201),12	7566,(24, 201),12	7578,(40, 201),12	7590,(50, 201),12	7602,(88, 201),12	7614,(142, 201),12	7626,(144, 201),12	7638,(154, 201),12	7650,(174, 201),12	7662,(26, 201),12	7674,(34, 201),12	7814,(116, 201),12	7902,(126, 201),12	7958,(162, 201),12	7970,(168, 201),12	7982,(198, 201),12	8078,(22, 201),12	8090,(36, 201),12	8102,(52, 201),12	8218,(54, 201),12	8434,(92, 201),12	8446,(120, 201),12	8458,(158, 201),12	8470,(170, 201),12	8566,(72, 201),12	8602,(96, 201),12	8614,(112, 201),12	8626,(122, 201),12	8670,(146, 201),12	8682,(148, 201),12	8694,(176, 201),12	8706,(186, 201),12	8730,(32, 201),12	8790,(48, 201),12	8850,(56, 201),12	8870,(58, 201),12	8882,(62, 201),12	8954,(74, 201),12	9014,(80, 201),12	9026,(84, 201),12	9038,(150, 201),12	9050,(184, 201),12	9062,(192, 201),12	9074,(200, 201),12	9086,(30, 201),12	9098,(68, 201),12	9110,(86, 201),12	9122,(98, 201),12	9134,(152, 201),12	9154,(188, 201),12	
# Outgoing
86,(2, 27),40	126,(2, 31),20	146,(2, 51),4	150,(2, 67),32	182,(2, 75),20	202,(2, 77),16	218,(2, 121),28	246,(2, 133),4	250,(2, 151),16	266,(2, 157),56	322,(2, 179),16	338,(2, 185),4	342,(4, 41),8	350,(4, 47),124	474,(4, 57),48	522,(4, 61),4	526,(4, 91),4	530,(4, 93),60	590,(4, 99),516	1106,(4, 133),36	1142,(4, 137),16	1158,(4, 161),4	1162,(6, 21),52	1214,(6, 49),12	1226,(6, 51),4	1230,(6, 103),28	1258,(6, 107),60	1318,(6, 135),28	1346,(6, 169),4	1350,(6, 173),64	1414,(6, 179),84	1498,(6, 199),4	1502,(8, 29),12	1514,(8, 31),4	1518,(8, 57),140	1658,(8, 71),72	1730,(8, 103),64	1794,(8, 115),12	1806,(8, 119),20	1826,(8, 125),12	1838,(8, 129),4	1842,(8, 139),124	1966,(8, 151),4	1970,(8, 161),220	2190,(10, 35),300	2490,(10, 41),440	2930,(10, 49),8	2938,(10, 69),140	3078,(10, 71),8	3086,(10, 73),8	3094,(10, 75),56	3150,(10, 83),12	3162,(10, 87),8	3170,(10, 111),16	3186,(10, 163),16	3202,(10, 169),4	3206,(100, 201),12	3218,(134, 201),12	3230,(180, 201),12	3242,(12, 21),24	3266,(12, 25),16	3282,(12, 67),24	3306,(12, 69),56	3362,(12, 95),72	3434,(12, 117),8	3442,(12, 119),4	3446,(12, 123),16	3462,(12, 133),36	3498,(12, 153),4	3502,(12, 157),32	3534,(12, 173),36	3570,(12, 175),16	3586,(12, 177),4	3590,(12, 189),4	3594,(114, 201),12	3606,(138, 201),12	3618,(14, 21),32	3650,(14, 25),32	3682,(14, 37),4	3686,(14, 43),840	4526,(14, 79),4	4530,(14, 89),8	4538,(14, 101),12	4550,(14, 111),128	4678,(14, 117),12	4690,(14, 129),8	4698,(14, 155),148	4846,(14, 159),16	4862,(14, 171),52	4914,(14, 193),20	4934,(14, 197),76	5010,(44, 201),12	5022,(132, 201),12	5034,(140, 201),12	5046,(16, 55),4	5050,(16, 65),64	5114,(16, 69),4	5118,(16, 79),380	5498,(16, 95),40	5538,(16, 99),4	5542,(16, 125),4	5546,(16, 147),64	5610,(16, 165),8	5618,(70, 201),12	5630,(182, 201),12	5642,(190, 201),12	5654,(196, 201),12	5666,(102, 201),12	5678,(104, 201),12	5690,(110, 201),12	5702,(156, 201),12	5714,(18, 27),220	5934,(18, 43),4	5938,(18, 51),44	5982,(18, 57),4	5986,(18, 59),60	6046,(18, 73),8	6054,(18, 81),12	6066,(18, 93),4	6070,(18, 101),4	6074,(18, 115),224	6298,(18, 141),16	6314,(18, 147),124	6438,(18, 163),60	6498,(18, 165),76	6574,(106, 201),12	6586,(160, 201),12	6598,(166, 201),12	6610,(20, 21),8	6618,(20, 29),160	6778,(20, 31),24	6802,(20, 35),76	6878,(20, 51),72	6950,(20, 61),4	6954,(20, 77),4	6958,(20, 79),4	6962,(20, 81),4	6966,(20, 145),8	6974,(20, 157),132	7106,(20, 173),4	7110,(20, 183),32	7142,(20, 195),160	7302,(42, 201),12	7314,(82, 201),12	7326,(124, 201),12	7338,(136, 201),12	7350,(164, 201),12	7362,(38, 201),12	7374,(78, 201),12	7386,(118, 201),12	7398,(46, 201),12	7410,(60, 201),12	7422,(76, 201),12	7434,(94, 201),12	7446,(128, 201),12	7458,(66, 201),12	7470,(130, 201),12	7482,(172, 201),12	7494,(28, 201),12	7506,(64, 201),12	7518,(90, 201),12	7530,(108, 201),12	7542,(178, 201),12	7554,(194, 201),12	7566,(24, 201),12	7578,(40, 201),12	7590,(50, 201),12	7602,(88, 201),12	7614,(142, 201),12	7626,(144, 201),12	7638,(154, 201),12	7650,(174, 201),12	7662,(26, 201),12	7674,(34, 201),12	7814,(116, 201),12	7902,(126, 201),12	7958,(162, 201),12	7970,(168, 201),12	7982,(198, 201),12	8078,(22, 201),12	8090,(36, 201),12	8102,(52, 201),12	8218,(54, 201),12	8434,(92, 201),12	8446,(120, 201),12	8458,(158, 201),12	8470,(170, 201),12	8566,(72, 201),12	8602,(96, 201),12	8614,(112, 201),12	8626,(122, 201),12	8670,(146, 201),12	8682,(148, 201),12	8694,(176, 201),12	8706,(186, 201),12	8730,(32, 201),12	8790,(48, 201),12	8850,(56, 201),12	8870,(58, 201),12	8882,(62, 201),12	8954,(74, 201),12	9014,(80, 201),12	9026,(84, 201),12	9038,(150, 201),12	9050,(184, 201),12	9062,(192, 201),12	9074,(200, 201),12	9086,(30, 201),12	9098,(68, 201),12	9110,(86, 201),12	9122,(98, 201),12	9134,(152, 201),12	9154,(188, 201),12	
1,(0, 2),84	85,(0, 4),84	169,(0, 6),84	253,(0, 8),84	337,(0, 10),84	421,(0, 12),84	505,(0, 14),84	589,(0, 16),84	673,(0, 18),84	757,(0, 20),84	841,(9, 34),148	989,(9, 36),4	993,(9, 38),36	1029,(9, 52),40	1069,(9, 62),16	1085,(9, 64),80	1165,(9, 72),4	1169,(9, 78),88	1257,(9, 80),12	1269,(9, 88),4	1273,(9, 116),212	1485,(9, 118),4	1489,(9, 122),4	1493,(9, 126),4	1497,(9, 128),4	1501,(9, 144),1992	3493,(9, 172),4	3497,(9, 192),20	3517,(11, 24),1228	4745,(11, 30),16	4761,(11, 46),100	4861,(11, 58),12	4873,(11, 60),4	4877,(11, 68),64	4941,(11, 76),24	4965,(11, 88),4	4969,(11, 94),24	4993,(11, 112),4	4997,(11, 126),4	5001,(11, 128),12	5013,(11, 168),12	5025,(11, 170),56	5081,(15, 22),36	5117,(15, 54),24	5141,(15, 56),4	5145,(15, 66),32	5177,(15, 126),44	5221,(15, 130),168	5389,(15, 162),184	5573,(15, 170),24	5597,(15, 172),4	5601,(15, 184),8	5609,(15, 200),568	6177,(17, 28),4	6181,(17, 32),28	6209,(17, 58),20	6229,(17, 62),4	6233,(17, 64),12	6245,(17, 84),4	6249,(17, 90),16	6265,(17, 108),484	6749,(17, 150),84	6833,(17, 162),4	6837,(17, 178),4	6841,(17, 194),68	6909,(19, 24),16	6925,(19, 40),4	6929,(19, 50),64	6993,(19, 88),4	6997,(19, 142),36	7033,(19, 144),32	7065,(19, 154),144	7209,(19, 174),328	7537,(7, 26),36	7573,(7, 34),4	7577,(7, 62),24	7601,(7, 84),8	7609,(7, 86),44	7653,(7, 92),152	7805,(7, 116),8	7813,(7, 126),88	7901,(7, 158),4	7905,(7, 162),52	7957,(7, 168),4	7961,(7, 186),4	7965,(7, 188),8	7973,(7, 198),4	7977,(7, 200),72	8049,(3, 22),28	8077,(3, 36),8	8085,(3, 52),8	8093,(3, 54),124	8217,(3, 58),16	8233,(3, 68),4	8237,(3, 80),80	8317,(3, 92),116	8433,(3, 120),4	8437,(3, 158),4	8441,(3, 170),8	8449,(3, 176),4	8453,(1, 62),16	8469,(1, 72),96	8565,(1, 96),36	8601,(1, 112),4	8605,(1, 122),8	8613,(1, 146),56	8669,(1, 148),4	8673,(1, 152),12	8685,(1, 176),8	8693,(1, 186),4	8697,(1, 192),4	8701,(5, 32),28	8729,(5, 48),60	8789,(5, 56),60	8849,(5, 58),20	8869,(5, 62),4	8873,(5, 74),80	8953,(5, 80),60	9013,(5, 84),4	9017,(5, 150),4	9021,(5, 184),20	9041,(5, 192),4	9045,(5, 200),8	9053,(13, 30),4	9057,(13, 68),4	9061,(13, 86),16	9077,(13, 98),4	9081,(13, 152),36	9117,(13, 188),36	
