1958
# CPU
0,0,1	1,3,18	19,120,18	37,17,18	55,1,18	73,25,18	91,18,18	109,58,18	127,88,18	145,63,18	163,46,18	181,69,18	268,19,18	346,77,18	403,82,18	532,55,18	607,30,18	1957,121,1	
13,6,18	31,112,18	49,49,18	67,2,18	85,45,18	103,31,18	121,29,18	139,97,18	157,38,18	175,22,18	193,89,18	211,47,18	229,68,18	262,78,18	370,81,18	415,42,18	508,52,18	721,40,18	1255,116,18	
19,8,18	52,39,18	76,43,18	94,92,18	112,36,18	136,110,18	160,33,18	274,56,18	319,71,18	
25,11,18	46,48,18	73,70,18	91,104,18	109,34,18	127,94,18	163,105,18	184,65,18	235,108,18	349,75,18	436,103,18	598,119,18	
55,4,18	73,91,18	91,15,18	109,113,18	142,107,18	172,57,18	247,21,18	289,27,18	376,61,18	619,26,18	916,93,18	1936,86,18	
7,10,18	61,7,18	79,54,18	97,100,18	115,37,18	133,51,18	151,85,18	169,32,18	187,118,18	214,80,18	250,20,18	310,79,18	409,44,18	514,115,18	706,66,18	862,67,18	
64,106,18	82,109,18	100,99,18	145,98,18	
43,12,18	61,101,18	79,74,18	97,96,18	115,50,18	133,114,18	223,28,18	388,62,18	451,73,18	
37,5,18	70,95,18	88,102,18	106,59,18	124,23,18	208,14,18	304,64,18	424,41,18	580,35,18	790,53,18	937,83,18	
31,9,18	49,87,18	73,90,18	91,72,18	109,84,18	202,24,18	250,76,18	343,117,18	418,16,18	481,13,18	580,111,18	1057,60,18	
# Incoming
79,(5, 18),3	82,(11, 58),3	85,(11, 88),3	88,(4, 46),3	91,(8, 58),3	94,(9, 77),3	97,(101, 121),3	100,(106, 121),3	103,(5, 77),6	109,(7, 63),6	115,(91, 121),3	118,(87, 121),3	121,(6, 88),3	124,(4, 55),6	130,(12, 46),9	139,(7, 46),6	145,(48, 121),3	148,(12, 69),12	160,(11, 19),9	169,(6, 69),6	175,(7, 69),6	181,(11, 82),18	199,(8, 30),6	205,(39, 121),3	208,(70, 121),3	211,(43, 121),3	214,(95, 121),3	217,(109, 121),3	220,(2, 19),48	268,(5, 82),24	292,(10, 77),3	295,(11, 77),51	346,(8, 82),57	403,(90, 121),3	406,(15, 121),3	409,(72, 121),3	412,(92, 121),3	415,(99, 121),3	418,(84, 121),3	421,(113, 121),3	424,(74, 121),3	427,(96, 121),3	430,(50, 121),3	433,(114, 121),3	436,(107, 121),3	439,(98, 121),3	442,(104, 121),3	445,(34, 121),3	448,(94, 121),3	451,(102, 121),3	454,(59, 121),3	457,(23, 121),3	460,(57, 121),3	463,(24, 121),3	466,(28, 121),3	469,(21, 121),3	472,(36, 121),3	475,(110, 121),3	478,(6, 30),3	481,(10, 55),3	484,(2, 55),48	532,(5, 30),75	607,(112, 121),3	610,(49, 121),3	613,(45, 121),3	616,(31, 121),3	619,(54, 121),3	622,(100, 121),3	625,(37, 121),3	628,(51, 121),3	631,(29, 121),3	634,(97, 121),3	637,(85, 121),3	640,(38, 121),3	643,(32, 121),3	646,(22, 121),3	649,(105, 121),3	652,(65, 121),3	655,(14, 121),3	658,(108, 121),3	661,(76, 121),3	664,(27, 121),3	667,(64, 121),3	670,(117, 121),3	673,(75, 121),3	676,(61, 121),3	679,(62, 121),3	682,(16, 121),3	685,(41, 121),3	688,(103, 121),3	691,(73, 121),3	694,(13, 121),3	697,(111, 121),3	700,(35, 121),3	703,(119, 121),3	706,(33, 121),3	709,(56, 121),3	712,(71, 121),3	715,(26, 121),3	775,(118, 121),3	778,(80, 121),3	781,(20, 121),3	784,(79, 121),3	787,(44, 121),3	790,(89, 121),3	793,(47, 121),3	796,(68, 121),3	799,(78, 121),3	802,(81, 121),3	805,(42, 121),3	808,(52, 121),3	811,(40, 121),3	814,(53, 121),3	934,(93, 121),3	955,(83, 121),3	976,(115, 121),3	979,(66, 121),3	982,(67, 121),3	1075,(60, 121),3	1273,(116, 121),3	1954,(86, 121),3	
7,(0, 6),6	46,(3, 49),3	49,(11, 47),6	58,(8, 31),3	61,(0, 2),6	67,(9, 31),3	70,(8, 29),9	79,(7, 31),3	82,(9, 97),3	85,(5, 97),9	94,(12, 38),3	97,(9, 89),18	115,(9, 40),3	127,(7, 38),9	136,(10, 22),3	139,(12, 22),9	148,(9, 47),24	172,(7, 22),3	175,(8, 78),3	181,(10, 89),3	184,(12, 68),18	202,(4, 42),6	208,(7, 47),3	214,(7, 68),6	223,(12, 78),24	250,(9, 78),12	262,(12, 81),48	310,(12, 42),9	319,(3, 81),27	346,(4, 81),24	370,(9, 42),18	388,(10, 42),27	418,(3, 52),33	451,(11, 52),54	505,(7, 52),3	580,(11, 40),69	649,(7, 40),72	721,(8, 116),198	919,(9, 116),153	1072,(1, 116),3	1075,(7, 116),180	
13,(0, 8),6	40,(6, 39),6	49,(9, 39),3	52,(6, 92),3	58,(9, 43),3	61,(9, 36),3	64,(6, 33),3	70,(3, 110),3	73,(1, 43),3	76,(10, 110),3	91,(2, 92),3	97,(7, 33),3	103,(2, 36),9	112,(5, 33),9	121,(7, 110),6	127,(1, 110),9	145,(3, 33),15	160,(4, 56),6	172,(9, 56),48	247,(3, 56),3	250,(10, 56),21	271,(1, 56),3	274,(3, 71),21	304,(7, 71),15	
19,(0, 11),6	31,(6, 48),9	43,(3, 48),3	64,(12, 70),9	76,(6, 105),3	82,(1, 104),9	91,(4, 34),6	97,(4, 65),3	100,(4, 103),3	103,(3, 34),6	109,(1, 94),18	127,(5, 105),18	145,(4, 105),12	160,(3, 105),3	163,(1, 65),21	190,(6, 108),15	205,(12, 108),18	223,(7, 108),12	235,(4, 75),9	247,(12, 75),15	262,(5, 119),6	295,(3, 75),24	319,(9, 75),12	331,(7, 75),18	349,(1, 103),33	388,(9, 103),12	400,(2, 103),27	427,(8, 119),45	484,(10, 119),18	502,(1, 119),78	580,(2, 119),18	
49,(0, 4),6	55,(8, 91),3	58,(6, 113),6	64,(8, 113),3	67,(8, 57),3	73,(12, 15),6	79,(9, 113),3	94,(5, 107),3	100,(2, 113),3	115,(8, 107),15	130,(6, 107),12	142,(8, 21),3	145,(10, 57),27	172,(5, 21),24	205,(6, 27),9	220,(1, 21),27	247,(11, 27),15	262,(3, 26),3	271,(10, 27),15	286,(7, 27),3	295,(7, 93),3	301,(6, 61),33	349,(10, 61),24	373,(5, 26),78	451,(1, 26),9	460,(3, 86),42	532,(2, 93),3	538,(10, 26),81	619,(8, 93),87	721,(10, 93),54	775,(1, 93),63	862,(6, 93),54	916,(6, 86),18	934,(8, 86),105	1039,(11, 86),72	1255,(7, 86),681	
1,(0, 10),6	46,(11, 85),3	55,(0, 7),6	61,(8, 85),3	64,(9, 66),3	67,(11, 32),12	79,(8, 44),3	82,(12, 85),3	88,(11, 118),21	109,(4, 118),6	118,(11, 20),6	124,(5, 67),3	130,(8, 118),12	142,(2, 85),6	148,(2, 32),21	169,(4, 80),15	184,(3, 118),3	196,(5, 20),6	202,(1, 80),12	214,(6, 20),6	220,(9, 20),30	253,(1, 79),3	262,(9, 79),48	334,(6, 44),9	346,(11, 44),63	409,(11, 115),30	439,(11, 67),3	445,(6, 115),15	460,(5, 115),42	502,(9, 67),12	580,(1, 66),12	607,(5, 66),45	652,(2, 66),54	706,(1, 67),30	736,(4, 67),81	817,(2, 67),45	
34,(10, 106),9	43,(8, 106),12	55,(6, 99),3	58,(11, 99),3	61,(12, 106),3	73,(5, 109),6	79,(4, 109),3	82,(7, 99),6	88,(7, 98),3	91,(1, 99),9	100,(5, 98),3	103,(12, 98),27	136,(3, 98),9	
37,(0, 12),6	43,(11, 74),3	46,(6, 101),6	52,(9, 101),6	61,(11, 114),6	67,(3, 74),3	70,(10, 74),3	82,(5, 96),3	85,(4, 96),3	94,(2, 96),3	97,(8, 50),18	115,(7, 114),6	121,(4, 62),3	124,(2, 114),6	130,(4, 28),15	145,(5, 62),24	175,(2, 28),15	211,(7, 28),3	214,(1, 28),6	256,(3, 62),6	262,(8, 73),45	319,(7, 73),3	331,(9, 62),33	373,(7, 62),15	415,(10, 73),36	
31,(0, 5),6	43,(10, 95),27	70,(9, 102),3	73,(6, 23),3	76,(1, 102),6	82,(8, 59),9	91,(7, 59),6	97,(2, 59),3	100,(10, 23),3	103,(4, 23),3	112,(2, 23),9	121,(9, 14),27	148,(11, 41),3	160,(12, 53),3	187,(10, 14),21	208,(4, 35),24	250,(3, 64),3	265,(1, 53),3	268,(6, 64),33	301,(7, 64),3	319,(12, 41),105	424,(9, 35),15	439,(4, 83),12	460,(2, 35),18	505,(11, 35),75	580,(9, 53),45	625,(6, 83),3	628,(2, 83),3	706,(6, 53),84	790,(10, 83),48	838,(11, 83),99	
25,(0, 9),6	31,(10, 87),3	55,(5, 90),18	73,(10, 72),3	79,(12, 72),3	82,(6, 24),3	85,(2, 72),6	94,(8, 24),3	97,(5, 111),3	100,(3, 84),3	103,(7, 84),6	109,(11, 24),9	118,(4, 24),3	124,(11, 111),18	145,(8, 76),24	169,(12, 13),9	184,(7, 24),3	187,(3, 24),6	193,(1, 24),9	202,(5, 13),12	220,(10, 76),3	235,(7, 76),15	250,(4, 16),18	268,(11, 60),15	289,(10, 117),3	292,(4, 117),51	343,(6, 16),39	382,(1, 16),36	427,(6, 13),12	439,(2, 13),6	451,(7, 13),30	481,(2, 111),3	508,(10, 111),30	538,(6, 111),42	838,(10, 60),138	976,(6, 60),81	
# Outgoing
1,(0, 10),6	7,(0, 6),6	13,(0, 8),6	19,(0, 11),6	25,(0, 9),6	31,(0, 5),6	37,(0, 12),6	43,(3, 48),3	46,(3, 49),3	49,(0, 4),6	55,(0, 7),6	61,(0, 2),6	67,(3, 74),3	70,(3, 110),3	73,(1, 43),3	76,(1, 102),6	82,(1, 104),9	91,(1, 99),9	100,(3, 84),3	103,(3, 34),6	109,(1, 94),18	127,(1, 110),9	136,(3, 98),9	145,(3, 33),15	160,(3, 105),3	163,(1, 65),21	184,(3, 118),3	187,(3, 24),6	193,(1, 24),9	202,(1, 80),12	214,(1, 28),6	220,(1, 21),27	247,(3, 56),3	250,(3, 64),3	253,(1, 79),3	256,(3, 62),6	262,(3, 26),3	265,(1, 53),3	271,(1, 56),3	274,(3, 71),21	295,(3, 75),24	319,(3, 81),27	349,(1, 103),33	382,(1, 16),36	418,(3, 52),33	451,(1, 26),9	460,(3, 86),42	502,(1, 119),78	580,(1, 66),12	706,(1, 67),30	775,(1, 93),63	1072,(1, 116),3	
31,(6, 48),9	40,(6, 39),6	46,(6, 101),6	52,(6, 92),3	55,(6, 99),3	58,(6, 113),6	64,(6, 33),3	73,(6, 23),3	76,(6, 105),3	82,(6, 24),3	85,(2, 72),6	91,(2, 92),3	94,(2, 96),3	97,(2, 59),3	100,(2, 113),3	103,(2, 36),9	112,(2, 23),9	121,(6, 88),3	124,(2, 114),6	130,(6, 107),12	142,(2, 85),6	148,(2, 32),21	169,(6, 69),6	175,(2, 28),15	190,(6, 108),15	205,(6, 27),9	214,(6, 20),6	220,(2, 19),48	268,(6, 64),33	301,(6, 61),33	334,(6, 44),9	343,(6, 16),39	400,(2, 103),27	427,(6, 13),12	439,(2, 13),6	445,(6, 115),15	460,(2, 35),18	478,(6, 30),3	481,(2, 111),3	484,(2, 55),48	532,(2, 93),3	538,(6, 111),42	580,(2, 119),18	607,(112, 121),3	610,(49, 121),3	613,(45, 121),3	616,(31, 121),3	625,(6, 83),3	628,(2, 83),3	631,(29, 121),3	634,(97, 121),3	640,(38, 121),3	646,(22, 121),3	652,(2, 66),54	706,(6, 53),84	790,(89, 121),3	793,(47, 121),3	796,(68, 121),3	799,(78, 121),3	802,(81, 121),3	805,(42, 121),3	808,(52, 121),3	811,(40, 121),3	817,(2, 67),45	862,(6, 93),54	916,(6, 86),18	976,(6, 60),81	1273,(116, 121),3	
43,(8, 106),12	55,(8, 91),3	58,(8, 31),3	61,(8, 85),3	64,(8, 113),3	67,(8, 57),3	70,(8, 29),9	79,(8, 44),3	82,(8, 59),9	91,(8, 58),3	94,(8, 24),3	97,(8, 50),18	115,(8, 107),15	130,(8, 118),12	142,(8, 21),3	145,(8, 76),24	175,(8, 78),3	199,(8, 30),6	205,(39, 121),3	211,(43, 121),3	262,(8, 73),45	346,(8, 82),57	412,(92, 121),3	427,(8, 119),45	472,(36, 121),3	475,(110, 121),3	619,(8, 93),87	706,(33, 121),3	709,(56, 121),3	712,(71, 121),3	721,(8, 116),198	934,(8, 86),105	
43,(11, 74),3	46,(11, 85),3	49,(11, 47),6	58,(11, 99),3	61,(11, 114),6	67,(11, 32),12	82,(11, 58),3	85,(11, 88),3	88,(11, 118),21	109,(11, 24),9	118,(11, 20),6	124,(11, 111),18	145,(48, 121),3	148,(11, 41),3	160,(11, 19),9	181,(11, 82),18	208,(70, 121),3	247,(11, 27),15	268,(11, 60),15	295,(11, 77),51	346,(11, 44),63	409,(11, 115),30	439,(11, 67),3	442,(104, 121),3	445,(34, 121),3	448,(94, 121),3	451,(11, 52),54	505,(11, 35),75	580,(11, 40),69	649,(105, 121),3	652,(65, 121),3	658,(108, 121),3	673,(75, 121),3	688,(103, 121),3	703,(119, 121),3	838,(11, 83),99	1039,(11, 86),72	
79,(4, 109),3	85,(4, 96),3	88,(4, 46),3	91,(4, 34),6	97,(4, 65),3	100,(4, 103),3	103,(4, 23),3	109,(4, 118),6	115,(91, 121),3	118,(4, 24),3	121,(4, 62),3	124,(4, 55),6	130,(4, 28),15	145,(4, 105),12	160,(4, 56),6	169,(4, 80),15	202,(4, 42),6	208,(4, 35),24	235,(4, 75),9	250,(4, 16),18	292,(4, 117),51	346,(4, 81),24	406,(15, 121),3	421,(113, 121),3	436,(107, 121),3	439,(4, 83),12	460,(57, 121),3	469,(21, 121),3	664,(27, 121),3	676,(61, 121),3	715,(26, 121),3	736,(4, 67),81	934,(93, 121),3	1954,(86, 121),3	
31,(10, 87),3	34,(10, 106),9	43,(10, 95),27	70,(10, 74),3	73,(10, 72),3	76,(10, 110),3	79,(7, 31),3	82,(7, 99),6	88,(7, 98),3	91,(7, 59),6	97,(7, 33),3	100,(10, 23),3	103,(7, 84),6	109,(7, 63),6	115,(7, 114),6	121,(7, 110),6	127,(7, 38),9	136,(10, 22),3	139,(7, 46),6	145,(10, 57),27	172,(7, 22),3	175,(7, 69),6	181,(10, 89),3	184,(7, 24),3	187,(10, 14),21	208,(7, 47),3	211,(7, 28),3	214,(7, 68),6	220,(10, 76),3	223,(7, 108),12	235,(7, 76),15	250,(10, 56),21	271,(10, 27),15	286,(7, 27),3	289,(10, 117),3	292,(10, 77),3	295,(7, 93),3	301,(7, 64),3	304,(7, 71),15	319,(7, 73),3	331,(7, 75),18	349,(10, 61),24	373,(7, 62),15	388,(10, 42),27	415,(10, 73),36	451,(7, 13),30	481,(10, 55),3	484,(10, 119),18	505,(7, 52),3	508,(10, 111),30	538,(10, 26),81	619,(54, 121),3	622,(100, 121),3	625,(37, 121),3	628,(51, 121),3	637,(85, 121),3	643,(32, 121),3	649,(7, 40),72	721,(10, 93),54	775,(118, 121),3	778,(80, 121),3	781,(20, 121),3	784,(79, 121),3	787,(44, 121),3	790,(10, 83),48	838,(10, 60),138	976,(115, 121),3	979,(66, 121),3	982,(67, 121),3	1075,(7, 116),180	1255,(7, 86),681	
100,(106, 121),3	217,(109, 121),3	415,(99, 121),3	439,(98, 121),3	
61,(12, 106),3	64,(12, 70),9	73,(12, 15),6	79,(12, 72),3	82,(12, 85),3	94,(12, 38),3	97,(101, 121),3	103,(12, 98),27	130,(12, 46),9	139,(12, 22),9	148,(12, 69),12	160,(12, 53),3	169,(12, 13),9	184,(12, 68),18	205,(12, 108),18	223,(12, 78),24	247,(12, 75),15	262,(12, 81),48	310,(12, 42),9	319,(12, 41),105	424,(74, 121),3	427,(96, 121),3	430,(50, 121),3	433,(114, 121),3	466,(28, 121),3	679,(62, 121),3	691,(73, 121),3	
55,(5, 90),18	73,(5, 109),6	79,(5, 18),3	82,(5, 96),3	85,(5, 97),9	94,(5, 107),3	97,(5, 111),3	100,(5, 98),3	103,(5, 77),6	112,(5, 33),9	124,(5, 67),3	127,(5, 105),18	145,(5, 62),24	172,(5, 21),24	196,(5, 20),6	202,(5, 13),12	214,(95, 121),3	262,(5, 119),6	268,(5, 82),24	373,(5, 26),78	451,(102, 121),3	454,(59, 121),3	457,(23, 121),3	460,(5, 115),42	532,(5, 30),75	607,(5, 66),45	655,(14, 121),3	667,(64, 121),3	685,(41, 121),3	700,(35, 121),3	814,(53, 121),3	955,(83, 121),3	
49,(9, 39),3	52,(9, 101),6	58,(9, 43),3	61,(9, 36),3	64,(9, 66),3	67,(9, 31),3	70,(9, 102),3	79,(9, 113),3	82,(9, 97),3	94,(9, 77),3	97,(9, 89),18	115,(9, 40),3	118,(87, 121),3	121,(9, 14),27	148,(9, 47),24	172,(9, 56),48	220,(9, 20),30	250,(9, 78),12	262,(9, 79),48	319,(9, 75),12	331,(9, 62),33	370,(9, 42),18	388,(9, 103),12	403,(90, 121),3	409,(72, 121),3	418,(84, 121),3	424,(9, 35),15	463,(24, 121),3	502,(9, 67),12	580,(9, 53),45	661,(76, 121),3	670,(117, 121),3	682,(16, 121),3	694,(13, 121),3	697,(111, 121),3	919,(9, 116),153	1075,(60, 121),3	
