2645
# CPU
2,1,5	7,2,5	12,7,5	17,10,5	22,13,5	27,14,5	32,163,5	37,15,5	42,16,5	47,19,5	52,121,5	57,37,5	62,65,5	67,171,5	72,137,5	77,48,5	82,160,5	87,108,5	92,85,5	97,159,5	102,117,5	107,148,5	112,77,5	117,30,5	122,34,5	127,24,5	132,73,5	137,50,5	142,64,5	848,129,5	858,142,5	863,147,5	956,173,5	1040,47,5	1179,116,5	1192,194,5	1197,29,5	1202,39,5	1215,66,5	1220,81,5	1227,97,5	1232,105,5	1294,169,5	1299,23,5	1367,74,5	1387,155,5	1396,189,5	1401,27,5	1409,53,5	1423,63,5	1429,113,5	1434,120,5	1480,182,5	1489,191,5	1494,35,5	1499,51,5	1521,58,5	1530,109,5	1548,158,5	1553,181,5	1558,49,5	1563,56,5	1568,68,5	1573,75,5	1578,82,5	1591,112,5	1596,146,5	1601,153,5	1606,197,5	1611,55,5	1616,70,5	1623,72,5	1628,84,5	1636,94,5	1641,98,5	1650,100,5	1663,104,5	1668,157,5	1673,188,5	1678,196,5	1683,43,5	1688,45,5	1693,46,5	1698,57,5	1703,114,5	1708,123,5	1713,139,5	1718,187,5	1723,135,5	1728,149,5	1733,154,5	1738,176,5	1743,186,5	1748,41,5	1753,52,5	1758,62,5	1763,67,5	1768,110,5	1773,144,5	1778,156,5	2644,201,1	
0,0,1	1,5,5	6,8,5	11,18,5	16,4,5	21,20,5	26,3,5	31,11,5	36,9,5	41,17,5	46,6,5	51,12,5	56,79,5	61,107,5	66,28,5	71,178,5	76,59,5	81,141,5	86,111,5	91,31,5	96,152,5	101,44,5	106,199,5	111,119,5	116,99,5	121,87,5	126,42,5	131,25,5	136,124,5	141,88,5	146,198,5	151,179,5	156,175,5	161,172,5	166,138,5	171,132,5	176,115,5	181,102,5	186,83,5	191,89,5	196,80,5	201,192,5	206,170,5	211,136,5	216,165,5	221,78,5	226,126,5	231,61,5	236,185,5	241,33,5	246,190,5	251,140,5	256,101,5	261,60,5	266,92,5	271,93,5	276,22,5	281,151,5	286,32,5	291,174,5	296,180,5	301,183,5	306,71,5	311,95,5	316,118,5	321,161,5	326,166,5	331,91,5	336,96,5	341,125,5	346,127,5	351,130,5	356,131,5	361,162,5	366,177,5	371,193,5	376,26,5	381,54,5	386,76,5	391,128,5	396,143,5	401,145,5	406,36,5	411,40,5	416,86,5	421,106,5	426,122,5	431,150,5	436,195,5	441,38,5	446,90,5	451,133,5	456,134,5	461,164,5	466,167,5	471,184,5	476,200,5	481,21,5	486,69,5	491,103,5	496,168,5	
# Incoming
1,(0, 1),1	2,(0, 2),1	3,(0, 7),1	4,(0, 10),1	5,(0, 13),1	6,(0, 14),1	7,(0, 15),1	8,(0, 16),1	9,(0, 19),1	10,(5, 43),1	11,(5, 51),1	12,(5, 55),1	13,(5, 63),60	73,(5, 64),2	75,(5, 66),1	76,(5, 67),3	79,(5, 94),759	838,(5, 104),3	841,(5, 129),7	848,(5, 142),10	858,(5, 147),1	859,(5, 156),1	860,(5, 169),77	937,(5, 173),19	956,(5, 181),57	1013,(5, 188),2	1015,(5, 191),15	1030,(5, 197),1	1031,(8, 43),4	1035,(8, 47),5	1040,(8, 56),2	1042,(8, 74),8	1050,(8, 112),15	1065,(8, 116),114	1179,(8, 155),1	1180,(8, 191),5	1185,(8, 194),7	1192,(18, 29),1	1193,(18, 35),2	1195,(18, 39),2	1197,(18, 52),2	1199,(18, 58),15	1214,(18, 66),1	1215,(18, 70),1	1216,(18, 75),1	1217,(18, 81),2	1219,(18, 82),1	1220,(18, 84),1	1221,(18, 97),6	1227,(18, 105),4	1231,(18, 112),60	1291,(18, 146),2	1293,(18, 169),1	1294,(18, 182),1	1295,(4, 23),4	1299,(4, 52),3	1302,(4, 56),1	1303,(4, 57),8	1311,(4, 63),55	1366,(4, 74),1	1367,(4, 84),4	1371,(4, 94),9	1380,(4, 98),6	1386,(4, 155),1	1387,(4, 189),9	1396,(20, 27),1	1397,(20, 35),1	1398,(20, 51),2	1400,(20, 53),9	1409,(20, 62),2	1411,(20, 63),12	1423,(20, 82),5	1428,(20, 113),1	1429,(20, 120),1	1430,(20, 144),47	1477,(20, 149),1	1478,(20, 182),2	1480,(20, 186),6	1486,(20, 188),2	1488,(20, 191),1	1489,(3, 35),1	1490,(3, 46),5	1495,(3, 51),2	1497,(3, 58),24	1521,(3, 109),9	1530,(3, 149),12	1542,(3, 156),1	1543,(3, 158),5	1548,(3, 181),1	1549,(3, 186),1	1550,(11, 49),8	1558,(11, 56),1	1559,(11, 68),2	1561,(11, 72),10	1571,(11, 75),2	1573,(11, 82),1	1574,(11, 100),4	1578,(11, 112),13	1591,(11, 135),1	1592,(11, 146),1	1593,(11, 153),7	1600,(11, 188),1	1601,(11, 197),2	1603,(9, 55),8	1611,(9, 70),1	1612,(9, 72),11	1623,(9, 84),1	1624,(9, 94),12	1636,(9, 98),3	1639,(9, 100),11	1650,(9, 104),13	1663,(9, 123),1	1664,(9, 157),1	1665,(9, 188),4	1669,(9, 196),2	1671,(17, 43),4	1675,(17, 45),5	1680,(17, 46),4	1684,(17, 57),11	1695,(17, 114),1	1696,(17, 123),9	1705,(17, 139),1	1706,(17, 187),6	1712,(6, 52),2	1714,(6, 135),4	1718,(6, 144),1	1719,(6, 149),1	1720,(6, 154),2	1722,(6, 176),1	1723,(6, 186),4	1727,(12, 41),3	1730,(12, 52),5	1735,(12, 62),3	1738,(12, 67),1	1739,(12, 110),9	1748,(12, 144),3	1751,(12, 156),3	1754,(79, 201),10	1764,(107, 201),10	1774,(28, 201),10	1784,(178, 201),10	1794,(59, 201),10	1804,(141, 201),10	1814,(111, 201),10	1824,(31, 201),10	1834,(152, 201),10	1844,(44, 201),10	1854,(199, 201),10	1864,(119, 201),10	1874,(99, 201),10	1884,(87, 201),10	1894,(42, 201),10	1904,(25, 201),10	1914,(124, 201),10	1924,(88, 201),10	1934,(198, 201),10	1944,(179, 201),10	1954,(175, 201),10	1964,(172, 201),10	1974,(138, 201),10	1984,(132, 201),10	1994,(115, 201),10	2004,(102, 201),10	2014,(83, 201),10	2024,(89, 201),10	2034,(80, 201),10	2044,(192, 201),10	2054,(170, 201),10	2064,(136, 201),10	2074,(165, 201),10	2084,(78, 201),10	2094,(126, 201),10	2104,(61, 201),10	2114,(185, 201),10	2124,(33, 201),10	2134,(190, 201),10	2144,(140, 201),10	2154,(101, 201),10	2164,(60, 201),10	2174,(92, 201),10	2184,(93, 201),10	2194,(22, 201),10	2204,(151, 201),10	2214,(32, 201),10	2224,(174, 201),10	2234,(180, 201),10	2244,(183, 201),10	2254,(71, 201),10	2264,(95, 201),10	2274,(118, 201),10	2284,(161, 201),10	2294,(166, 201),10	2304,(91, 201),10	2314,(96, 201),10	2324,(125, 201),10	2334,(127, 201),10	2344,(130, 201),10	2354,(131, 201),10	2364,(162, 201),10	2374,(177, 201),10	2384,(193, 201),10	2394,(26, 201),10	2404,(54, 201),10	2414,(76, 201),10	2424,(128, 201),10	2434,(143, 201),10	2444,(145, 201),10	2454,(36, 201),10	2464,(40, 201),10	2474,(86, 201),10	2484,(106, 201),10	2494,(122, 201),10	2504,(150, 201),10	2514,(195, 201),10	2524,(38, 201),10	2534,(90, 201),10	2544,(133, 201),10	2554,(134, 201),10	2564,(164, 201),10	2574,(167, 201),10	2584,(184, 201),10	2594,(200, 201),10	2604,(21, 201),10	2614,(69, 201),10	2624,(103, 201),10	2634,(168, 201),10	
7,(1, 33),1	8,(1, 44),1	9,(1, 60),6	15,(1, 69),5	20,(1, 124),1	21,(1, 128),1	22,(1, 141),4	26,(1, 152),2	28,(1, 164),6	34,(1, 185),2	36,(2, 36),4	40,(2, 76),9	49,(2, 103),6	55,(2, 118),11	66,(2, 131),1	67,(2, 134),1	68,(2, 151),2	70,(2, 174),9	79,(7, 21),31	110,(7, 32),1	111,(7, 38),5	116,(7, 86),1	117,(7, 133),5	122,(7, 166),7	129,(7, 174),5	134,(7, 180),13	147,(7, 183),1	148,(10, 71),3	151,(10, 95),1	152,(10, 118),1	153,(10, 161),5	158,(10, 166),9	167,(13, 21),7	174,(13, 26),10	184,(13, 91),16	200,(13, 96),8	208,(13, 125),2	210,(13, 127),1	211,(13, 130),1	212,(13, 131),4	216,(13, 134),3	219,(13, 162),5	224,(13, 164),1	225,(13, 177),1	226,(13, 184),1	227,(13, 193),1	228,(14, 26),2	230,(14, 40),1	231,(14, 54),4	235,(14, 76),3	238,(14, 86),1	239,(14, 128),1	240,(14, 143),1	241,(14, 145),1	242,(15, 36),7	249,(15, 40),1	250,(15, 86),1	251,(15, 106),14	265,(15, 122),9	274,(15, 133),4	278,(15, 150),6	284,(15, 195),7	291,(16, 38),18	309,(16, 90),4	313,(16, 133),1	314,(16, 134),3	317,(16, 164),7	324,(16, 167),6	330,(16, 184),1	331,(16, 200),2	333,(19, 21),17	350,(19, 69),1	351,(19, 103),1	352,(19, 168),3	
# Outgoing
7,(1, 33),1	8,(1, 44),1	9,(1, 60),6	15,(1, 69),5	20,(1, 124),1	21,(1, 128),1	22,(1, 141),4	26,(1, 152),2	28,(1, 164),6	34,(1, 185),2	36,(2, 36),4	40,(2, 76),9	49,(2, 103),6	55,(2, 118),11	66,(2, 131),1	67,(2, 134),1	68,(2, 151),2	70,(2, 174),9	79,(7, 21),31	110,(7, 32),1	111,(7, 38),5	116,(7, 86),1	117,(7, 133),5	122,(7, 166),7	129,(7, 174),5	134,(7, 180),13	147,(7, 183),1	148,(10, 71),3	151,(10, 95),1	152,(10, 118),1	153,(10, 161),5	158,(10, 166),9	167,(13, 21),7	174,(13, 26),10	184,(13, 91),16	200,(13, 96),8	208,(13, 125),2	210,(13, 127),1	211,(13, 130),1	212,(13, 131),4	216,(13, 134),3	219,(13, 162),5	224,(13, 164),1	225,(13, 177),1	226,(13, 184),1	227,(13, 193),1	228,(14, 26),2	230,(14, 40),1	231,(14, 54),4	235,(14, 76),3	238,(14, 86),1	239,(14, 128),1	240,(14, 143),1	241,(14, 145),1	242,(15, 36),7	249,(15, 40),1	250,(15, 86),1	251,(15, 106),14	265,(15, 122),9	274,(15, 133),4	278,(15, 150),6	284,(15, 195),7	291,(16, 38),18	309,(16, 90),4	313,(16, 133),1	314,(16, 134),3	317,(16, 164),7	324,(16, 167),6	330,(16, 184),1	331,(16, 200),2	333,(19, 21),17	350,(19, 69),1	351,(19, 103),1	352,(19, 168),3	
1,(0, 1),1	2,(0, 2),1	3,(0, 7),1	4,(0, 10),1	5,(0, 13),1	6,(0, 14),1	7,(0, 15),1	8,(0, 16),1	9,(0, 19),1	10,(5, 43),1	11,(5, 51),1	12,(5, 55),1	13,(5, 63),60	73,(5, 64),2	75,(5, 66),1	76,(5, 67),3	79,(5, 94),759	838,(5, 104),3	841,(5, 129),7	848,(5, 142),10	858,(5, 147),1	859,(5, 156),1	860,(5, 169),77	937,(5, 173),19	956,(5, 181),57	1013,(5, 188),2	1015,(5, 191),15	1030,(5, 197),1	1031,(8, 43),4	1035,(8, 47),5	1040,(8, 56),2	1042,(8, 74),8	1050,(8, 112),15	1065,(8, 116),114	1179,(8, 155),1	1180,(8, 191),5	1185,(8, 194),7	1192,(18, 29),1	1193,(18, 35),2	1195,(18, 39),2	1197,(18, 52),2	1199,(18, 58),15	1214,(18, 66),1	1215,(18, 70),1	1216,(18, 75),1	1217,(18, 81),2	1219,(18, 82),1	1220,(18, 84),1	1221,(18, 97),6	1227,(18, 105),4	1231,(18, 112),60	1291,(18, 146),2	1293,(18, 169),1	1294,(18, 182),1	1295,(4, 23),4	1299,(4, 52),3	1302,(4, 56),1	1303,(4, 57),8	1311,(4, 63),55	1366,(4, 74),1	1367,(4, 84),4	1371,(4, 94),9	1380,(4, 98),6	1386,(4, 155),1	1387,(4, 189),9	1396,(20, 27),1	1397,(20, 35),1	1398,(20, 51),2	1400,(20, 53),9	1409,(20, 62),2	1411,(20, 63),12	1423,(20, 82),5	1428,(20, 113),1	1429,(20, 120),1	1430,(20, 144),47	1477,(20, 149),1	1478,(20, 182),2	1480,(20, 186),6	1486,(20, 188),2	1488,(20, 191),1	1489,(3, 35),1	1490,(3, 46),5	1495,(3, 51),2	1497,(3, 58),24	1521,(3, 109),9	1530,(3, 149),12	1542,(3, 156),1	1543,(3, 158),5	1548,(3, 181),1	1549,(3, 186),1	1550,(11, 49),8	1558,(11, 56),1	1559,(11, 68),2	1561,(11, 72),10	1571,(11, 75),2	1573,(11, 82),1	1574,(11, 100),4	1578,(11, 112),13	1591,(11, 135),1	1592,(11, 146),1	1593,(11, 153),7	1600,(11, 188),1	1601,(11, 197),2	1603,(9, 55),8	1611,(9, 70),1	1612,(9, 72),11	1623,(9, 84),1	1624,(9, 94),12	1636,(9, 98),3	1639,(9, 100),11	1650,(9, 104),13	1663,(9, 123),1	1664,(9, 157),1	1665,(9, 188),4	1669,(9, 196),2	1671,(17, 43),4	1675,(17, 45),5	1680,(17, 46),4	1684,(17, 57),11	1695,(17, 114),1	1696,(17, 123),9	1705,(17, 139),1	1706,(17, 187),6	1712,(6, 52),2	1714,(6, 135),4	1718,(6, 144),1	1719,(6, 149),1	1720,(6, 154),2	1722,(6, 176),1	1723,(6, 186),4	1727,(12, 41),3	1730,(12, 52),5	1735,(12, 62),3	1738,(12, 67),1	1739,(12, 110),9	1748,(12, 144),3	1751,(12, 156),3	1754,(79, 201),10	1764,(107, 201),10	1774,(28, 201),10	1784,(178, 201),10	1794,(59, 201),10	1804,(141, 201),10	1814,(111, 201),10	1824,(31, 201),10	1834,(152, 201),10	1844,(44, 201),10	1854,(199, 201),10	1864,(119, 201),10	1874,(99, 201),10	1884,(87, 201),10	1894,(42, 201),10	1904,(25, 201),10	1914,(124, 201),10	1924,(88, 201),10	1934,(198, 201),10	1944,(179, 201),10	1954,(175, 201),10	1964,(172, 201),10	1974,(138, 201),10	1984,(132, 201),10	1994,(115, 201),10	2004,(102, 201),10	2014,(83, 201),10	2024,(89, 201),10	2034,(80, 201),10	2044,(192, 201),10	2054,(170, 201),10	2064,(136, 201),10	2074,(165, 201),10	2084,(78, 201),10	2094,(126, 201),10	2104,(61, 201),10	2114,(185, 201),10	2124,(33, 201),10	2134,(190, 201),10	2144,(140, 201),10	2154,(101, 201),10	2164,(60, 201),10	2174,(92, 201),10	2184,(93, 201),10	2194,(22, 201),10	2204,(151, 201),10	2214,(32, 201),10	2224,(174, 201),10	2234,(180, 201),10	2244,(183, 201),10	2254,(71, 201),10	2264,(95, 201),10	2274,(118, 201),10	2284,(161, 201),10	2294,(166, 201),10	2304,(91, 201),10	2314,(96, 201),10	2324,(125, 201),10	2334,(127, 201),10	2344,(130, 201),10	2354,(131, 201),10	2364,(162, 201),10	2374,(177, 201),10	2384,(193, 201),10	2394,(26, 201),10	2404,(54, 201),10	2414,(76, 201),10	2424,(128, 201),10	2434,(143, 201),10	2444,(145, 201),10	2454,(36, 201),10	2464,(40, 201),10	2474,(86, 201),10	2484,(106, 201),10	2494,(122, 201),10	2504,(150, 201),10	2514,(195, 201),10	2524,(38, 201),10	2534,(90, 201),10	2544,(133, 201),10	2554,(134, 201),10	2564,(164, 201),10	2574,(167, 201),10	2584,(184, 201),10	2594,(200, 201),10	2604,(21, 201),10	2614,(69, 201),10	2624,(103, 201),10	2634,(168, 201),10	
