367
# CPU
0,0,1	1,15,1	2,2,1	3,93,1	4,3,1	5,198,1	6,94,1	7,73,1	8,155,1	9,8,1	10,150,1	11,50,1	12,4,1	13,12,1	14,139,1	15,88,1	16,51,1	17,170,1	18,14,1	19,37,1	20,175,1	21,16,1	22,153,1	23,57,1	24,98,1	25,179,1	26,48,1	27,17,1	28,60,1	29,95,1	30,99,1	31,141,1	32,68,1	33,18,1	34,134,1	35,169,1	36,116,1	37,199,1	38,58,1	39,5,1	40,135,1	41,42,1	42,76,1	43,157,1	44,167,1	45,25,1	46,83,1	47,166,1	48,7,1	49,23,1	50,31,1	51,92,1	52,121,1	53,69,1	54,11,1	55,45,1	56,159,1	57,197,1	58,55,1	59,86,1	60,138,1	61,54,1	62,145,1	63,181,1	64,151,1	65,174,1	66,34,1	67,65,1	68,64,1	69,182,1	70,1,1	71,184,1	72,36,1	73,105,1	74,53,1	75,72,1	76,107,1	77,163,1	78,43,1	79,110,1	80,112,1	81,85,1	82,132,1	83,123,1	84,9,1	85,172,1	86,140,1	87,195,1	88,97,1	89,178,1	90,124,1	91,186,1	92,74,1	93,200,1	94,173,1	95,128,1	96,22,1	97,189,1	98,191,1	99,13,1	100,96,1	101,81,1	102,125,1	103,106,1	104,21,1	105,113,1	106,70,1	107,30,1	108,162,1	109,136,1	110,91,1	111,180,1	112,109,1	113,52,1	114,10,1	115,115,1	116,78,1	117,131,1	118,90,1	119,26,1	120,35,1	121,148,1	122,120,1	123,61,1	124,127,1	125,171,1	126,79,1	127,24,1	128,126,1	129,192,1	130,56,1	131,114,1	132,49,1	133,165,1	134,130,1	135,6,1	136,133,1	137,47,1	138,118,1	139,137,1	140,147,1	141,164,1	142,28,1	143,38,1	144,101,1	145,143,1	146,111,1	147,32,1	148,20,1	149,196,1	150,149,1	151,185,1	152,67,1	153,89,1	154,46,1	155,168,1	156,59,1	157,33,1	158,190,1	159,108,1	160,77,1	161,44,1	162,152,1	163,82,1	164,194,1	165,154,1	166,27,1	167,80,1	168,103,1	169,129,1	170,158,1	171,160,1	172,188,1	173,63,1	174,161,1	175,87,1	176,193,1	177,117,1	178,144,1	179,40,1	180,187,1	181,39,1	182,119,1	183,62,1	184,66,1	194,71,1	236,142,1	366,201,1	
77,19,1	79,122,1	83,100,1	91,75,1	101,104,1	111,156,1	125,177,1	139,84,1	149,146,1	153,102,1	169,41,1	187,183,1	243,176,1	347,29,1	

# Incoming
78,(19, 87),2	80,(19, 193),2	82,(19, 117),2	84,(19, 144),2	86,(19, 40),6	92,(19, 187),8	100,(19, 39),10	110,(19, 119),12	122,(19, 62),16	138,(19, 66),22	160,(19, 71),34	194,(19, 142),42	236,(122, 201),10	246,(100, 201),10	256,(75, 201),10	266,(104, 201),10	276,(156, 201),10	286,(177, 201),10	296,(84, 201),10	306,(146, 201),10	316,(102, 201),10	326,(41, 201),10	336,(183, 201),10	346,(176, 201),10	356,(29, 201),10	
1,(0, 19),76	77,(2, 122),2	79,(15, 100),2	81,(5, 100),2	83,(15, 75),2	85,(17, 75),6	91,(3, 104),2	93,(7, 104),6	99,(1, 104),2	101,(14, 156),8	109,(1, 156),2	111,(4, 84),4	115,(10, 177),10	125,(8, 84),6	131,(17, 84),6	137,(13, 84),2	139,(16, 146),2	141,(1, 146),2	143,(6, 146),6	149,(1, 102),2	151,(20, 102),2	153,(6, 41),16	169,(18, 183),16	185,(13, 183),2	187,(3, 176),12	199,(8, 176),12	211,(12, 176),12	223,(14, 176),2	225,(18, 176),6	231,(10, 176),12	243,(15, 29),2	245,(11, 29),16	261,(9, 29),86	

# Outgoing
1,(0, 19),76	77,(2, 122),2	79,(15, 100),2	81,(5, 100),2	83,(15, 75),2	85,(17, 75),6	91,(3, 104),2	93,(7, 104),6	99,(1, 104),2	101,(14, 156),8	109,(1, 156),2	111,(4, 84),4	115,(10, 177),10	125,(8, 84),6	131,(17, 84),6	137,(13, 84),2	139,(16, 146),2	141,(1, 146),2	143,(6, 146),6	149,(1, 102),2	151,(20, 102),2	153,(6, 41),16	169,(18, 183),16	185,(13, 183),2	187,(3, 176),12	199,(8, 176),12	211,(12, 176),12	223,(14, 176),2	225,(18, 176),6	231,(10, 176),12	243,(15, 29),2	245,(11, 29),16	261,(9, 29),86	
78,(19, 87),2	80,(19, 193),2	82,(19, 117),2	84,(19, 144),2	86,(19, 40),6	92,(19, 187),8	100,(19, 39),10	110,(19, 119),12	122,(19, 62),16	138,(19, 66),22	160,(19, 71),34	194,(19, 142),42	236,(122, 201),10	246,(100, 201),10	256,(75, 201),10	266,(104, 201),10	276,(156, 201),10	286,(177, 201),10	296,(84, 201),10	306,(146, 201),10	316,(102, 201),10	326,(41, 201),10	336,(183, 201),10	346,(176, 201),10	356,(29, 201),10	

