1558
# CPU
0,0,1	1,13,1	2,17,1	3,1,1	4,56,1	5,114,1	6,102,1	7,101,1	8,147,1	9,67,1	10,144,1	11,105,1	12,95,1	13,49,1	14,37,1	15,77,1	16,45,1	17,81,1	18,34,1	19,88,1	222,23,1	423,87,1	426,121,1	462,116,1	495,118,1	537,96,1	642,129,1	645,165,1	648,181,1	735,71,1	876,60,1	927,115,1	1029,125,1	1131,158,1	1143,200,1	1215,43,1	1218,59,1	1245,175,1	1398,154,1	1464,162,1	1557,201,1	
13,3,1	14,73,1	15,164,1	16,182,1	17,186,1	27,183,1	55,10,1	56,64,1	57,104,1	58,140,1	59,187,1	60,72,1	61,149,1	67,12,1	68,29,1	69,120,1	70,133,1	71,199,1	72,184,1	73,172,1	74,83,1	75,85,1	76,171,1	79,15,1	80,44,1	81,92,1	82,176,1	83,179,1	84,153,1	85,169,1	86,137,1	87,131,1	88,110,1	89,48,1	90,55,1	91,103,1	121,79,1	498,66,1	501,25,1	519,82,1	
7,2,1	8,26,1	9,58,1	10,90,1	11,107,1	12,50,1	13,124,1	14,106,1	19,4,1	20,36,1	21,163,1	22,166,1	23,185,1	24,112,1	25,130,1	26,174,1	61,11,1	62,57,1	63,63,1	64,155,1	65,84,1	66,89,1	95,194,1	103,20,1	104,74,1	105,40,1	106,51,1	107,168,1	108,156,1	109,145,1	110,146,1	111,33,1	112,134,1	113,98,1	114,196,1	115,94,1	130,122,1	153,135,1	513,30,1	522,192,1	
25,5,1	26,69,1	27,126,1	28,132,1	29,197,1	30,177,1	31,75,1	32,195,1	33,152,1	34,6,1	35,38,1	36,53,1	37,61,1	38,157,1	39,150,1	40,138,1	41,39,1	42,46,1	43,123,1	49,9,1	50,22,1	51,42,1	52,113,1	53,191,1	54,128,1	55,111,1	56,76,1	57,127,1	58,108,1	85,16,1	86,32,1	87,70,1	88,173,1	89,198,1	90,160,1	91,41,1	113,189,1	135,91,1	507,62,1	
37,7,1	38,21,1	39,139,1	40,161,1	43,8,1	44,52,1	45,86,1	46,97,1	47,54,1	48,142,1	49,188,1	73,14,1	74,31,1	75,68,1	76,117,1	77,193,1	78,180,1	79,178,1	80,167,1	81,47,1	82,65,1	83,159,1	91,18,1	92,27,1	93,99,1	94,170,1	95,151,1	96,148,1	97,28,1	98,80,1	99,100,1	100,19,1	101,24,1	102,136,1	103,190,1	104,78,1	105,119,1	107,35,1	110,109,1	115,141,1	118,143,1	141,93,1	
# Incoming
9,(26, 201),3	12,(58, 201),3	15,(90, 201),3	18,(107, 201),3	21,(50, 201),3	24,(3, 23),18	42,(3, 175),90	132,(124, 201),3	135,(73, 201),3	138,(106, 201),3	141,(164, 201),3	144,(182, 201),3	147,(186, 201),3	150,(4, 23),72	222,(4, 154),147	369,(36, 201),3	372,(163, 201),3	375,(166, 201),3	378,(185, 201),3	381,(112, 201),3	384,(130, 201),3	387,(174, 201),3	390,(69, 201),3	393,(183, 201),3	396,(126, 201),3	399,(132, 201),3	402,(197, 201),3	405,(177, 201),3	408,(75, 201),3	411,(195, 201),3	414,(152, 201),3	417,(6, 87),6	423,(6, 121),3	426,(38, 201),3	429,(53, 201),3	432,(7, 116),30	462,(7, 118),33	495,(61, 201),3	498,(157, 201),3	501,(21, 201),3	504,(150, 201),3	507,(139, 201),3	510,(138, 201),3	513,(161, 201),3	516,(39, 201),3	519,(46, 201),3	522,(8, 60),12	534,(8, 96),3	537,(8, 115),3	540,(8, 125),48	588,(123, 201),3	591,(52, 201),3	594,(86, 201),3	597,(97, 201),3	600,(54, 201),3	603,(142, 201),3	606,(9, 115),33	639,(9, 129),3	642,(9, 165),3	645,(9, 181),3	648,(188, 201),3	651,(22, 201),3	654,(42, 201),3	657,(113, 201),3	660,(191, 201),3	663,(128, 201),3	666,(111, 201),3	669,(64, 201),3	672,(76, 201),3	675,(104, 201),3	678,(127, 201),3	681,(140, 201),3	684,(108, 201),3	687,(187, 201),3	690,(72, 201),3	693,(149, 201),3	696,(57, 201),3	699,(63, 201),3	702,(155, 201),3	705,(84, 201),3	708,(89, 201),3	711,(29, 201),3	714,(120, 201),3	717,(133, 201),3	720,(199, 201),3	723,(184, 201),3	726,(14, 71),9	735,(14, 200),84	819,(172, 201),3	822,(83, 201),3	825,(31, 201),3	828,(85, 201),3	831,(68, 201),3	834,(171, 201),3	837,(117, 201),3	840,(193, 201),3	843,(180, 201),3	846,(15, 60),30	876,(15, 115),51	927,(15, 125),102	1029,(15, 158),102	1131,(15, 200),12	1143,(178, 201),3	1146,(44, 201),3	1149,(167, 201),3	1152,(92, 201),3	1155,(47, 201),3	1158,(176, 201),3	1161,(65, 201),3	1164,(179, 201),3	1167,(159, 201),3	1170,(153, 201),3	1173,(169, 201),3	1176,(137, 201),3	1179,(32, 201),3	1182,(131, 201),3	1185,(70, 201),3	1188,(110, 201),3	1191,(173, 201),3	1194,(48, 201),3	1197,(198, 201),3	1200,(55, 201),3	1203,(160, 201),3	1206,(18, 43),9	1215,(18, 59),3	1218,(18, 175),27	1245,(103, 201),3	1248,(41, 201),3	1251,(27, 201),3	1254,(99, 201),3	1257,(170, 201),3	1260,(194, 201),3	1263,(151, 201),3	1266,(148, 201),3	1269,(28, 201),3	1272,(80, 201),3	1275,(100, 201),3	1278,(19, 154),120	1398,(24, 201),3	1401,(136, 201),3	1404,(20, 162),60	1464,(190, 201),3	1467,(74, 201),3	1470,(78, 201),3	1473,(40, 201),3	1476,(119, 201),3	1479,(51, 201),3	1482,(35, 201),3	1485,(168, 201),3	1488,(156, 201),3	1491,(145, 201),3	1494,(109, 201),3	1497,(146, 201),3	1500,(33, 201),3	1503,(134, 201),3	1506,(189, 201),3	1509,(98, 201),3	1512,(196, 201),3	1515,(94, 201),3	1518,(141, 201),3	1521,(143, 201),3	1524,(79, 201),3	1527,(122, 201),3	1530,(91, 201),3	1533,(93, 201),3	1536,(135, 201),3	1539,(66, 201),3	1542,(25, 201),3	1545,(62, 201),3	1548,(30, 201),3	1551,(82, 201),3	1554,(192, 201),3	
7,(0, 3),6	24,(4, 183),3	46,(6, 29),3	49,(0, 10),6	61,(0, 12),6	73,(0, 15),6	115,(17, 79),6	495,(8, 66),3	498,(14, 25),3	516,(19, 82),3	
1,(0, 2),6	13,(0, 4),6	49,(6, 74),3	55,(0, 11),6	86,(16, 94),6	92,(16, 194),3	97,(0, 20),6	103,(13, 94),9	121,(17, 122),9	150,(15, 135),3	510,(19, 30),3	519,(19, 192),3	
19,(0, 5),6	25,(0, 6),6	43,(0, 9),6	79,(0, 16),6	110,(20, 189),3	132,(10, 91),3	504,(18, 62),3	
31,(0, 7),6	37,(0, 8),6	43,(5, 188),3	67,(0, 14),6	85,(0, 18),6	91,(0, 19),6	104,(20, 35),3	107,(20, 109),3	112,(13, 141),3	115,(20, 143),3	138,(15, 93),3	
# Outgoing
1,(0, 2),6	7,(0, 3),6	13,(0, 4),6	19,(0, 5),6	25,(0, 6),6	31,(0, 7),6	37,(0, 8),6	43,(0, 9),6	49,(0, 10),6	55,(0, 11),6	61,(0, 12),6	67,(0, 14),6	73,(0, 15),6	79,(0, 16),6	85,(0, 18),6	91,(0, 19),6	97,(0, 20),6	103,(13, 94),9	112,(13, 141),3	115,(17, 79),6	121,(17, 122),9	
24,(3, 23),18	42,(3, 175),90	132,(10, 91),3	135,(73, 201),3	138,(15, 93),3	141,(164, 201),3	144,(182, 201),3	147,(186, 201),3	150,(15, 135),3	393,(183, 201),3	669,(64, 201),3	675,(104, 201),3	681,(140, 201),3	687,(187, 201),3	690,(72, 201),3	693,(149, 201),3	711,(29, 201),3	714,(120, 201),3	717,(133, 201),3	720,(199, 201),3	723,(184, 201),3	819,(172, 201),3	822,(83, 201),3	828,(85, 201),3	834,(171, 201),3	846,(15, 60),30	876,(15, 115),51	927,(15, 125),102	1029,(15, 158),102	1131,(15, 200),12	1146,(44, 201),3	1152,(92, 201),3	1158,(176, 201),3	1164,(179, 201),3	1170,(153, 201),3	1173,(169, 201),3	1176,(137, 201),3	1182,(131, 201),3	1188,(110, 201),3	1194,(48, 201),3	1200,(55, 201),3	1245,(103, 201),3	1524,(79, 201),3	1539,(66, 201),3	1542,(25, 201),3	1551,(82, 201),3	
9,(26, 201),3	12,(58, 201),3	15,(90, 201),3	18,(107, 201),3	21,(50, 201),3	24,(4, 183),3	104,(20, 35),3	107,(20, 109),3	110,(20, 189),3	115,(20, 143),3	132,(124, 201),3	138,(106, 201),3	150,(4, 23),72	222,(4, 154),147	369,(36, 201),3	372,(163, 201),3	375,(166, 201),3	378,(185, 201),3	381,(112, 201),3	384,(130, 201),3	387,(174, 201),3	696,(57, 201),3	699,(63, 201),3	702,(155, 201),3	705,(84, 201),3	708,(89, 201),3	1260,(194, 201),3	1404,(20, 162),60	1467,(74, 201),3	1473,(40, 201),3	1479,(51, 201),3	1485,(168, 201),3	1488,(156, 201),3	1491,(145, 201),3	1497,(146, 201),3	1500,(33, 201),3	1503,(134, 201),3	1509,(98, 201),3	1512,(196, 201),3	1515,(94, 201),3	1527,(122, 201),3	1536,(135, 201),3	1548,(30, 201),3	1554,(192, 201),3	
43,(5, 188),3	46,(6, 29),3	49,(6, 74),3	86,(16, 94),6	92,(16, 194),3	390,(69, 201),3	396,(126, 201),3	399,(132, 201),3	402,(197, 201),3	405,(177, 201),3	408,(75, 201),3	411,(195, 201),3	414,(152, 201),3	417,(6, 87),6	423,(6, 121),3	426,(38, 201),3	429,(53, 201),3	495,(61, 201),3	498,(157, 201),3	504,(150, 201),3	510,(138, 201),3	516,(39, 201),3	519,(46, 201),3	588,(123, 201),3	606,(9, 115),33	639,(9, 129),3	642,(9, 165),3	645,(9, 181),3	651,(22, 201),3	654,(42, 201),3	657,(113, 201),3	660,(191, 201),3	663,(128, 201),3	666,(111, 201),3	672,(76, 201),3	678,(127, 201),3	684,(108, 201),3	1179,(32, 201),3	1185,(70, 201),3	1191,(173, 201),3	1197,(198, 201),3	1203,(160, 201),3	1248,(41, 201),3	1506,(189, 201),3	1530,(91, 201),3	1545,(62, 201),3	
432,(7, 116),30	462,(7, 118),33	495,(8, 66),3	498,(14, 25),3	501,(21, 201),3	504,(18, 62),3	507,(139, 201),3	510,(19, 30),3	513,(161, 201),3	516,(19, 82),3	519,(19, 192),3	522,(8, 60),12	534,(8, 96),3	537,(8, 115),3	540,(8, 125),48	591,(52, 201),3	594,(86, 201),3	597,(97, 201),3	600,(54, 201),3	603,(142, 201),3	648,(188, 201),3	726,(14, 71),9	735,(14, 200),84	825,(31, 201),3	831,(68, 201),3	837,(117, 201),3	840,(193, 201),3	843,(180, 201),3	1143,(178, 201),3	1149,(167, 201),3	1155,(47, 201),3	1161,(65, 201),3	1167,(159, 201),3	1206,(18, 43),9	1215,(18, 59),3	1218,(18, 175),27	1251,(27, 201),3	1254,(99, 201),3	1257,(170, 201),3	1263,(151, 201),3	1266,(148, 201),3	1269,(28, 201),3	1272,(80, 201),3	1275,(100, 201),3	1278,(19, 154),120	1398,(24, 201),3	1401,(136, 201),3	1464,(190, 201),3	1470,(78, 201),3	1476,(119, 201),3	1482,(35, 201),3	1494,(109, 201),3	1518,(141, 201),3	1521,(143, 201),3	1533,(93, 201),3	
