253
# CPU
4,2,2	6,24,2	8,26,2	10,30,2	12,4,2	14,6,2	16,14,2	18,38,2	20,32,2	22,10,2	82,20,2	121,40,2	142,8,2	145,12,2	148,16,2	157,18,2	163,22,2	184,28,2	217,34,2	220,36,2	
0,0,1	1,1,2	3,3,2	5,23,2	7,29,2	9,11,2	11,37,2	13,35,2	15,19,2	17,17,2	19,39,2	21,5,2	23,9,2	25,15,2	27,31,2	48,33,2	78,7,2	84,13,2	120,21,2	159,25,2	162,27,2	252,41,1	
# Incoming
1,(0, 2),3	4,(0, 4),3	7,(1, 8),15	22,(1, 20),60	82,(1, 22),12	94,(1, 28),21	115,(1, 40),6	121,(3, 8),21	142,(3, 12),3	145,(3, 16),3	148,(3, 18),9	157,(3, 22),6	163,(3, 28),21	184,(3, 34),33	217,(3, 36),3	
6,(2, 5),6	12,(2, 9),3	15,(2, 15),6	21,(2, 31),6	27,(2, 33),21	48,(24, 41),6	54,(26, 41),6	60,(30, 41),6	66,(4, 7),12	78,(4, 13),6	84,(4, 21),36	120,(4, 25),39	159,(4, 27),3	162,(6, 41),6	168,(14, 41),6	174,(38, 41),6	180,(32, 41),6	186,(10, 41),6	192,(20, 41),6	198,(40, 41),6	204,(8, 41),6	210,(12, 41),6	216,(16, 41),6	222,(18, 41),6	228,(22, 41),6	234,(28, 41),6	240,(34, 41),6	246,(36, 41),6	
# Outgoing
6,(2, 5),6	12,(2, 9),3	15,(2, 15),6	21,(2, 31),6	27,(2, 33),21	48,(24, 41),6	54,(26, 41),6	60,(30, 41),6	66,(4, 7),12	78,(4, 13),6	84,(4, 21),36	120,(4, 25),39	159,(4, 27),3	162,(6, 41),6	168,(14, 41),6	174,(38, 41),6	180,(32, 41),6	186,(10, 41),6	192,(20, 41),6	198,(40, 41),6	204,(8, 41),6	210,(12, 41),6	216,(16, 41),6	222,(18, 41),6	228,(22, 41),6	234,(28, 41),6	240,(34, 41),6	246,(36, 41),6	
1,(0, 2),3	4,(0, 4),3	7,(1, 8),15	22,(1, 20),60	82,(1, 22),12	94,(1, 28),21	115,(1, 40),6	121,(3, 8),21	142,(3, 12),3	145,(3, 16),3	148,(3, 18),9	157,(3, 22),6	163,(3, 28),21	184,(3, 34),33	217,(3, 36),3	
