2492
# CPU
19,3,10	29,7,10	39,14,10	83,26,10	93,38,10	247,17,10	346,20,10	700,8,10	787,11,10	797,23,10	829,32,10	871,35,10	1756,29,10	
10,2,10	20,10,10	30,28,10	40,13,10	175,16,10	250,19,10	415,22,10	448,31,10	622,34,10	691,6,10	1741,25,10	1762,40,10	2413,37,10	
0,0,1	1,4,10	11,1,10	21,21,10	31,39,10	41,9,10	280,15,10	1732,18,10	1742,5,10	1752,24,10	1762,27,10	1772,30,10	1792,36,10	1870,12,10	2065,33,10	2491,41,1	
# Incoming
10,(0, 3),9	20,(2, 7),3	23,(2, 8),57	80,(2, 26),3	83,(2, 38),3	88,(4, 11),48	136,(2, 11),15	175,(4, 17),72	250,(4, 20),96	415,(4, 29),21	448,(4, 32),54	691,(1, 8),9	700,(1, 11),87	787,(1, 23),9	802,(1, 32),27	829,(1, 35),42	1732,(2, 29),24	
1,(0, 2),9	19,(4, 6),69	136,(4, 16),39	247,(4, 19),3	346,(4, 22),69	436,(4, 31),12	502,(4, 34),120	622,(4, 37),66	688,(1, 6),3	796,(1, 25),6	1738,(3, 25),3	1747,(3, 40),15	2065,(3, 37),348	
151,(2, 12),99	250,(2, 15),30	280,(2, 18),1452	1732,(3, 5),3	1735,(3, 24),3	1741,(3, 27),3	1744,(3, 30),3	1756,(2, 33),21	1777,(2, 36),15	1792,(3, 12),78	1870,(3, 33),195	2065,(10, 41),6	2071,(28, 41),6	2077,(13, 41),6	2083,(16, 41),6	2089,(19, 41),6	2095,(22, 41),6	2101,(31, 41),6	2107,(34, 41),6	2113,(6, 41),6	2119,(25, 41),6	2125,(40, 41),6	2413,(7, 41),6	2419,(14, 41),6	2425,(26, 41),6	2431,(38, 41),6	2437,(17, 41),6	2443,(20, 41),6	2449,(8, 41),6	2455,(11, 41),6	2461,(23, 41),6	2467,(32, 41),6	2473,(35, 41),6	2479,(29, 41),6	2485,(37, 41),6	
# Outgoing
1732,(3, 5),3	1735,(3, 24),3	1738,(3, 25),3	1741,(3, 27),3	1744,(3, 30),3	1747,(3, 40),15	1792,(3, 12),78	1870,(3, 33),195	2065,(3, 37),348	2413,(7, 41),6	2419,(14, 41),6	2425,(26, 41),6	2431,(38, 41),6	2437,(17, 41),6	2443,(20, 41),6	2449,(8, 41),6	2455,(11, 41),6	2461,(23, 41),6	2467,(32, 41),6	2473,(35, 41),6	2479,(29, 41),6	
20,(2, 7),3	23,(2, 8),57	80,(2, 26),3	83,(2, 38),3	136,(2, 11),15	151,(2, 12),99	250,(2, 15),30	280,(2, 18),1452	1732,(2, 29),24	1756,(2, 33),21	1777,(2, 36),15	2065,(10, 41),6	2071,(28, 41),6	2077,(13, 41),6	2083,(16, 41),6	2089,(19, 41),6	2095,(22, 41),6	2101,(31, 41),6	2107,(34, 41),6	2113,(6, 41),6	2119,(25, 41),6	2125,(40, 41),6	2485,(37, 41),6	
1,(0, 2),9	10,(0, 3),9	19,(4, 6),69	88,(4, 11),48	136,(4, 16),39	175,(4, 17),72	247,(4, 19),3	250,(4, 20),96	346,(4, 22),69	415,(4, 29),21	436,(4, 31),12	448,(4, 32),54	502,(4, 34),120	622,(4, 37),66	688,(1, 6),3	691,(1, 8),9	700,(1, 11),87	787,(1, 23),9	796,(1, 25),6	802,(1, 32),27	829,(1, 35),42	
