2945
# CPU
9,2,223	232,3,223	455,5,223	678,20,223	901,19,223	1124,4,223	1347,17,223	1570,6,223	1793,15,223	2016,7,223	2239,13,223	2462,14,223	2685,16,223	
336,8,223	559,18,223	2944,21,1	
0,0,1	1,1,223	224,11,223	
360,12,223	583,9,223	806,10,223	
# Incoming
1,(0, 2),8	224,(1, 3),2	226,(1, 5),2	228,(1, 7),6	360,(1, 13),4	364,(1, 14),4	368,(1, 16),14	
234,(1, 8),96	330,(2, 8),6	382,(1, 18),20	447,(11, 21),36	483,(3, 21),36	583,(12, 21),36	678,(5, 21),36	806,(9, 21),36	901,(20, 21),36	1029,(10, 21),36	1124,(19, 21),36	1347,(4, 21),36	1570,(17, 21),36	1793,(6, 21),36	2016,(15, 21),36	2239,(7, 21),36	2462,(13, 21),36	2685,(14, 21),36	2908,(16, 21),36	

330,(1, 9),16	346,(1, 10),12	358,(1, 12),2	360,(2, 9),2	362,(2, 10),4	
# Outgoing
330,(2, 8),6	360,(2, 9),2	362,(2, 10),4	483,(3, 21),36	678,(5, 21),36	901,(20, 21),36	1124,(19, 21),36	1347,(4, 21),36	1570,(17, 21),36	1793,(6, 21),36	2016,(15, 21),36	2239,(7, 21),36	2462,(13, 21),36	2685,(14, 21),36	2908,(16, 21),36	

1,(0, 2),8	224,(1, 3),2	226,(1, 5),2	228,(1, 7),6	234,(1, 8),96	330,(1, 9),16	346,(1, 10),12	358,(1, 12),2	360,(1, 13),4	364,(1, 14),4	368,(1, 16),14	382,(1, 18),20	447,(11, 21),36	
583,(12, 21),36	806,(9, 21),36	1029,(10, 21),36	
