641
# CPU
22,2,10	32,46,10	43,4,10	53,14,10	63,38,10	73,40,10	83,82,10	93,102,10	103,6,10	113,8,10	123,10,10	133,28,10	143,30,10	153,118,10	163,34,10	173,100,10	183,50,10	193,88,10	203,12,10	213,86,10	223,90,10	233,84,10	243,68,10	253,76,10	263,74,10	273,24,10	283,42,10	293,108,10	303,26,10	313,64,10	323,52,10	333,54,10	343,60,10	353,32,10	363,36,10	373,44,10	383,58,10	393,72,10	403,110,10	413,112,10	423,114,10	433,120,10	443,48,10	453,106,10	463,116,10	473,16,10	485,62,10	495,70,10	505,78,10	519,92,10	538,96,10	548,20,10	558,22,10	568,80,10	578,18,10	588,56,10	598,66,10	608,94,10	618,98,10	628,104,10	
0,0,1	1,11,10	11,3,10	21,7,10	31,9,10	41,5,10	51,1,10	61,21,10	71,67,10	81,53,10	91,15,10	101,109,10	111,79,10	121,77,10	131,25,10	141,43,10	151,47,10	161,97,10	171,103,10	181,119,10	191,35,10	201,105,10	211,99,10	221,87,10	231,81,10	241,75,10	251,71,10	261,59,10	271,51,10	281,45,10	291,39,10	301,37,10	311,17,10	321,23,10	331,49,10	341,69,10	351,73,10	361,107,10	371,29,10	381,65,10	391,83,10	401,93,10	411,33,10	421,55,10	431,61,10	441,89,10	451,91,10	461,101,10	471,19,10	481,31,10	491,41,10	501,95,10	511,13,10	521,27,10	531,57,10	541,63,10	551,85,10	561,111,10	571,113,10	581,115,10	591,117,10	640,121,1	
# Incoming
1,(0, 2),21	22,(0, 4),21	43,(0, 6),21	64,(0, 8),21	85,(0, 10),21	106,(0, 12),21	127,(11, 24),18	145,(11, 42),12	157,(11, 52),68	225,(11, 54),17	242,(11, 60),13	255,(11, 72),2	257,(11, 106),2	259,(3, 22),1	260,(3, 32),2	262,(3, 36),15	277,(3, 44),1	278,(3, 58),2	280,(3, 72),1	281,(3, 110),62	343,(3, 112),11	354,(3, 114),3	357,(3, 120),4	361,(7, 48),11	372,(7, 106),1	373,(7, 116),60	433,(9, 16),38	471,(9, 62),14	485,(9, 70),1	486,(9, 78),14	500,(9, 92),19	519,(9, 96),19	538,(5, 20),1	539,(5, 22),7	546,(5, 80),12	558,(1, 18),6	564,(1, 56),2	566,(1, 66),10	576,(1, 94),2	578,(1, 98),3	581,(1, 104),1	
32,(2, 25),8	40,(2, 43),1	41,(2, 47),1	42,(2, 97),1	43,(2, 103),1	44,(2, 119),1	45,(46, 121),2	53,(4, 17),4	57,(4, 23),3	60,(4, 49),1	61,(4, 83),1	62,(4, 93),11	73,(14, 121),2	75,(38, 121),2	83,(40, 121),2	93,(82, 121),2	103,(102, 121),2	113,(6, 33),4	117,(6, 55),13	130,(6, 61),7	137,(6, 89),3	140,(6, 91),2	142,(6, 101),3	145,(8, 19),2	147,(8, 31),24	171,(8, 41),8	179,(8, 95),1	180,(10, 13),62	242,(10, 27),25	267,(10, 57),4	271,(10, 63),45	316,(10, 85),10	326,(10, 111),1	327,(10, 115),2	329,(28, 121),2	331,(30, 121),2	333,(118, 121),2	335,(34, 121),2	337,(100, 121),2	339,(50, 121),2	341,(88, 121),2	343,(12, 113),1	344,(12, 115),2	346,(12, 117),4	350,(86, 121),2	352,(90, 121),2	354,(84, 121),2	356,(68, 121),2	358,(76, 121),2	360,(74, 121),2	362,(24, 121),2	364,(42, 121),2	366,(108, 121),2	368,(26, 121),2	370,(64, 121),2	372,(52, 121),2	374,(54, 121),2	376,(60, 121),2	378,(32, 121),2	380,(36, 121),2	383,(44, 121),2	393,(58, 121),2	403,(72, 121),2	413,(110, 121),2	423,(112, 121),2	433,(114, 121),2	443,(120, 121),2	453,(48, 121),2	463,(106, 121),2	473,(116, 121),2	483,(16, 121),2	495,(62, 121),2	505,(70, 121),2	515,(78, 121),2	529,(92, 121),2	548,(96, 121),2	558,(20, 121),2	568,(22, 121),2	578,(80, 121),2	588,(18, 121),2	598,(56, 121),2	608,(66, 121),2	618,(94, 121),2	628,(98, 121),2	638,(104, 121),2	
# Outgoing
32,(2, 25),8	40,(2, 43),1	41,(2, 47),1	42,(2, 97),1	43,(2, 103),1	44,(2, 119),1	45,(46, 121),2	53,(4, 17),4	57,(4, 23),3	60,(4, 49),1	61,(4, 83),1	62,(4, 93),11	73,(14, 121),2	75,(38, 121),2	83,(40, 121),2	93,(82, 121),2	103,(102, 121),2	113,(6, 33),4	117,(6, 55),13	130,(6, 61),7	137,(6, 89),3	140,(6, 91),2	142,(6, 101),3	145,(8, 19),2	147,(8, 31),24	171,(8, 41),8	179,(8, 95),1	180,(10, 13),62	242,(10, 27),25	267,(10, 57),4	271,(10, 63),45	316,(10, 85),10	326,(10, 111),1	327,(10, 115),2	329,(28, 121),2	331,(30, 121),2	333,(118, 121),2	335,(34, 121),2	337,(100, 121),2	339,(50, 121),2	341,(88, 121),2	343,(12, 113),1	344,(12, 115),2	346,(12, 117),4	350,(86, 121),2	352,(90, 121),2	354,(84, 121),2	356,(68, 121),2	358,(76, 121),2	360,(74, 121),2	362,(24, 121),2	364,(42, 121),2	366,(108, 121),2	368,(26, 121),2	370,(64, 121),2	372,(52, 121),2	374,(54, 121),2	376,(60, 121),2	378,(32, 121),2	380,(36, 121),2	383,(44, 121),2	393,(58, 121),2	403,(72, 121),2	413,(110, 121),2	423,(112, 121),2	433,(114, 121),2	443,(120, 121),2	453,(48, 121),2	463,(106, 121),2	473,(116, 121),2	483,(16, 121),2	495,(62, 121),2	505,(70, 121),2	515,(78, 121),2	529,(92, 121),2	548,(96, 121),2	558,(20, 121),2	568,(22, 121),2	578,(80, 121),2	588,(18, 121),2	598,(56, 121),2	608,(66, 121),2	618,(94, 121),2	628,(98, 121),2	638,(104, 121),2	
1,(0, 2),21	22,(0, 4),21	43,(0, 6),21	64,(0, 8),21	85,(0, 10),21	106,(0, 12),21	127,(11, 24),18	145,(11, 42),12	157,(11, 52),68	225,(11, 54),17	242,(11, 60),13	255,(11, 72),2	257,(11, 106),2	259,(3, 22),1	260,(3, 32),2	262,(3, 36),15	277,(3, 44),1	278,(3, 58),2	280,(3, 72),1	281,(3, 110),62	343,(3, 112),11	354,(3, 114),3	357,(3, 120),4	361,(7, 48),11	372,(7, 106),1	373,(7, 116),60	433,(9, 16),38	471,(9, 62),14	485,(9, 70),1	486,(9, 78),14	500,(9, 92),19	519,(9, 96),19	538,(5, 20),1	539,(5, 22),7	546,(5, 80),12	558,(1, 18),6	564,(1, 56),2	566,(1, 66),10	576,(1, 94),2	578,(1, 98),3	581,(1, 104),1	
