198
# CPU
0,21,1	1,20,10	11,6,10	21,7,10	31,10,10	41,14,10	51,15,10	61,16,10	71,17,10	81,18,10	91,9,10	101,13,10	111,4,10	121,3,10	131,19,10	141,11,10	151,12,10	161,2,10	187,1,10	197,0,1	
75,5,10	149,8,10	
# Incoming
85,(5, 1),6	159,(8, 1),28	
1,(21, 5),74	75,(21, 8),74	
# Outgoing
1,(21, 5),74	75,(21, 8),74	
85,(5, 1),6	159,(8, 1),28	
