318
# CPU
187,12,8	
197,11,8	
299,20,8	307,10,8	
247,19,8	255,9,8	
149,8,8	191,18,8	
147,7,8	237,17,8	
169,6,8	189,16,8	
139,5,8	203,15,8	
107,2,8	115,4,8	199,14,8	
0,0,1	1,1,8	9,13,8	147,3,8	317,21,1	
# Incoming
169,(2, 12),18	
149,(1, 11),48	
247,(1, 20),52	299,(2, 10),2	
237,(1, 19),10	247,(2, 9),6	
147,(1, 8),2	189,(2, 18),2	
139,(1, 7),8	203,(1, 17),34	
147,(2, 6),22	187,(2, 16),2	
107,(1, 5),32	199,(1, 15),4	
1,(0, 2),106	197,(1, 14),2	
115,(2, 3),32	147,(5, 21),2	155,(7, 21),2	157,(8, 21),2	177,(6, 21),2	191,(4, 21),2	195,(12, 21),2	197,(16, 21),2	199,(18, 21),2	205,(11, 21),2	207,(14, 21),2	211,(15, 21),2	245,(17, 21),2	255,(19, 21),2	263,(9, 21),2	307,(20, 21),2	315,(10, 21),2	
# Outgoing
195,(12, 21),2	
205,(11, 21),2	
307,(20, 21),2	315,(10, 21),2	
255,(19, 21),2	263,(9, 21),2	
157,(8, 21),2	199,(18, 21),2	
155,(7, 21),2	245,(17, 21),2	
177,(6, 21),2	197,(16, 21),2	
147,(5, 21),2	211,(15, 21),2	
115,(2, 3),32	147,(2, 6),22	169,(2, 12),18	187,(2, 16),2	189,(2, 18),2	191,(4, 21),2	207,(14, 21),2	247,(2, 9),6	299,(2, 10),2	
1,(0, 2),106	107,(1, 5),32	139,(1, 7),8	147,(1, 8),2	149,(1, 11),48	197,(1, 14),2	199,(1, 15),4	203,(1, 17),34	237,(1, 19),10	247,(1, 20),52	
