751
# CPU



726,20,1	
165,18,1	
358,17,1	
270,11,1	354,15,1	750,21,1	
93,10,1	157,16,1	294,12,1	346,14,1	
61,2,1	62,5,1	63,13,1	65,4,1	89,7,1	
0,0,1	1,1,1	2,3,1	90,6,1	170,8,1	266,9,1	722,19,1	
# Incoming



722,(2, 20),4	
161,(1, 18),4	
157,(1, 17),4	354,(2, 17),4	
165,(3, 21),4	169,(6, 21),4	173,(10, 21),4	177,(16, 21),4	181,(18, 21),4	185,(8, 21),4	266,(2, 11),4	270,(9, 21),4	295,(12, 21),4	346,(2, 15),8	354,(14, 21),4	359,(17, 21),4	726,(5, 21),4	730,(13, 21),4	734,(4, 21),4	738,(7, 21),4	742,(19, 21),4	746,(20, 21),4	
89,(1, 10),4	93,(1, 12),8	101,(1, 16),56	270,(2, 12),24	294,(2, 14),52	
1,(0, 2),60	61,(1, 4),4	65,(1, 7),24	
62,(2, 6),28	90,(2, 8),80	170,(2, 9),96	358,(2, 19),364	
# Outgoing



746,(20, 21),4	
181,(18, 21),4	
359,(17, 21),4	

173,(10, 21),4	177,(16, 21),4	295,(12, 21),4	354,(14, 21),4	
62,(2, 6),28	90,(2, 8),80	170,(2, 9),96	266,(2, 11),4	270,(2, 12),24	294,(2, 14),52	346,(2, 15),8	354,(2, 17),4	358,(2, 19),364	722,(2, 20),4	726,(5, 21),4	730,(13, 21),4	734,(4, 21),4	738,(7, 21),4	
1,(0, 2),60	61,(1, 4),4	65,(1, 7),24	89,(1, 10),4	93,(1, 12),8	101,(1, 16),56	157,(1, 17),4	161,(1, 18),4	165,(3, 21),4	169,(6, 21),4	185,(8, 21),4	270,(9, 21),4	742,(19, 21),4	
