38774
# CPU
9,3,14	23,6,14	37,27,14	51,72,14	65,9,14	79,12,14	93,15,14	107,18,14	121,177,14	135,156,14	149,198,14	163,30,14	177,45,14	249,51,14	2009,33,14	2173,66,14	2337,144,14	2549,117,14	2563,135,14	2577,186,14	2591,108,14	2713,129,14	3237,21,14	3257,90,14	3271,150,14	3385,138,14	4117,78,14	4197,123,14	4253,102,14	4389,111,14	4465,192,14	4745,63,14	4759,114,14	4781,132,14	4833,195,14	4901,162,14	5085,36,14	5157,24,14	5197,126,14	5211,159,14	5225,60,14	5239,93,14	5541,96,14	5709,141,14	5733,180,14	5805,189,14	5849,84,14	6093,153,14	6109,165,14	6201,75,14	6221,81,14	6235,87,14	6269,105,14	6405,147,14	6485,171,14	6499,174,14	6513,183,14	6533,39,14	6547,42,14	6561,48,14	6597,54,14	6611,57,14	6641,69,14	6669,99,14	6683,120,14	6709,168,14	
5,2,14	19,5,14	33,8,14	47,11,14	61,167,14	75,14,14	89,17,14	103,50,14	117,122,14	131,20,14	145,113,14	159,185,14	173,128,14	187,155,14	201,35,14	215,191,14	229,26,14	243,29,14	257,32,14	271,41,14	361,53,14	375,161,14	389,188,14	403,173,14	589,104,14	603,194,14	653,125,14	713,176,14	789,65,14	803,98,14	817,146,14	1143,80,14	1387,71,14	1459,179,14	1817,164,14	1853,77,14	1867,89,14	1925,140,14	1941,143,14	1955,200,14	1969,47,14	1983,86,14	1997,110,14	2011,149,14	2025,23,14	2039,56,14	2053,83,14	2067,92,14	2081,182,14	2569,101,14	3613,116,14	4889,152,14	5045,134,14	5201,44,14	5609,107,14	6033,137,14	6173,59,14	6187,68,14	6313,119,14	6345,131,14	6409,158,14	6525,197,14	6633,62,14	6657,74,14	6671,95,14	6741,170,14	7309,38,14	
0,0,1	1,1,14	15,10,14	29,7,14	43,19,14	57,4,14	71,13,14	85,16,14	99,178,14	113,106,14	127,34,14	141,142,14	155,73,14	169,70,14	183,52,14	197,46,14	211,22,14	225,55,14	743,139,14	779,145,14	803,31,14	935,76,14	1163,58,14	1199,136,14	1213,148,14	1227,175,14	1295,163,14	1319,82,14	1439,130,14	1767,112,14	1783,118,14	1799,154,14	1859,100,14	1999,151,14	2029,43,14	2325,181,14	2353,25,14	2421,94,14	2441,127,14	2461,172,14	2493,37,14	2509,91,14	2523,169,14	2537,196,14	2573,85,14	2789,166,14	3285,190,14	3301,193,14	3341,28,14	3355,88,14	3437,133,14	3473,160,14	3489,187,14	3513,199,14	3533,61,14	3547,64,14	3561,79,14	3575,97,14	3593,109,14	3607,121,14	4329,67,14	4541,157,14	4717,184,14	5337,40,14	6205,49,14	6337,103,14	7153,115,14	7209,124,14	38773,201,1	
# Incoming
5,(0, 3),4	13,(0, 6),4	21,(0, 9),4	29,(0, 12),4	37,(0, 15),4	45,(0, 18),4	185,(1, 51),64	289,(1, 84),112	405,(1, 102),108	513,(1, 147),84	617,(1, 162),1076	1693,(2, 132),20	1713,(2, 138),12	1725,(2, 147),36	1761,(2, 159),208	1969,(2, 162),16	1985,(2, 195),16	2001,(10, 33),8	2009,(10, 63),36	2045,(10, 75),4	2049,(10, 78),60	2109,(5, 39),4	2113,(5, 66),60	2173,(5, 132),8	2181,(5, 144),156	2337,(5, 150),32	2369,(5, 171),16	2385,(8, 39),4	2389,(8, 57),8	2397,(8, 63),20	2417,(8, 96),12	2429,(8, 117),120	2549,(11, 135),4	2553,(11, 153),8	2561,(11, 186),4	2569,(10, 108),8	2577,(8, 129),136	3065,(14, 21),172	3249,(14, 54),4	3253,(14, 90),4	3257,(14, 99),4	3261,(14, 150),4	3265,(14, 168),8	3285,(10, 123),96	3381,(10, 138),4	3385,(10, 192),676	4061,(7, 78),56	4117,(7, 114),36	4153,(7, 123),44	4197,(14, 102),56	4253,(14, 111),136	4389,(14, 183),56	4445,(14, 192),20	4465,(17, 24),24	4489,(17, 63),256	4745,(17, 114),4	4749,(17, 120),4	4753,(17, 132),28	4781,(17, 195),52	4889,(7, 162),12	4901,(19, 36),184	5109,(20, 24),48	5157,(20, 60),32	5189,(20, 126),8	5197,(20, 159),4	5201,(19, 60),12	5213,(19, 87),4	5217,(19, 93),4	5221,(17, 75),152	5373,(17, 96),168	5609,(19, 141),100	5709,(19, 180),24	5733,(19, 189),72	5805,(4, 84),44	5849,(20, 165),24	6033,(4, 153),60	6093,(4, 165),16	6109,(13, 42),8	6181,(13, 75),20	6201,(13, 81),20	6221,(13, 87),4	6225,(13, 99),8	6233,(13, 105),36	6345,(13, 147),60	6409,(13, 171),76	6485,(13, 174),4	6489,(13, 183),16	6525,(16, 39),8	6533,(16, 42),8	6541,(16, 48),12	6553,(16, 54),44	6597,(16, 57),12	6633,(16, 69),8	6661,(16, 99),8	6669,(16, 120),4	6673,(16, 168),36	
1,(0, 2),4	9,(0, 5),4	17,(0, 8),4	25,(0, 11),4	33,(0, 14),4	41,(0, 17),4	49,(0, 20),4	53,(1, 26),100	153,(1, 47),32	185,(3, 29),8	193,(3, 32),12	205,(3, 41),4	209,(3, 86),4	213,(3, 134),20	233,(3, 143),16	249,(1, 77),40	289,(3, 53),72	361,(3, 161),4	365,(3, 188),4	369,(3, 194),4	373,(6, 38),4	377,(6, 83),4	381,(6, 173),16	397,(9, 98),4	401,(1, 101),4	405,(3, 152),52	457,(6, 104),120	577,(9, 89),8	585,(9, 104),4	589,(9, 194),4	593,(9, 200),4	597,(1, 149),20	617,(6, 125),36	653,(6, 146),28	681,(6, 176),32	713,(6, 182),36	749,(9, 65),40	789,(12, 98),4	793,(12, 146),4	1099,(9, 95),24	1123,(12, 80),20	1143,(12, 137),40	1183,(12, 152),8	1191,(12, 200),16	1299,(12, 71),88	1387,(15, 140),36	1423,(15, 179),36	1693,(1, 164),124	1817,(10, 68),16	1833,(10, 77),20	1853,(10, 89),4	1857,(10, 134),4	1861,(10, 158),4	1865,(7, 44),16	1881,(7, 68),4	1885,(7, 92),12	1897,(7, 95),12	1909,(7, 140),16	1925,(7, 143),16	1941,(7, 200),4	1945,(4, 47),20	1965,(4, 86),4	1969,(4, 110),8	1977,(4, 149),16	1993,(13, 23),4	1997,(13, 74),4	2001,(18, 56),16	2017,(18, 83),4	2021,(18, 92),4	2025,(18, 119),4	2029,(18, 182),4	2109,(10, 101),460	2577,(10, 119),708	3285,(9, 116),328	4197,(7, 131),624	4821,(7, 152),68	4889,(18, 95),52	4941,(18, 134),104	5085,(19, 44),116	5221,(19, 107),388	5849,(4, 137),184	6117,(13, 59),56	6173,(13, 68),8	6269,(13, 119),44	6313,(13, 131),32	6405,(13, 158),4	6505,(13, 197),20	6609,(16, 62),24	6641,(16, 74),16	6657,(16, 95),4	6709,(16, 170),32	6741,(18, 38),568	
19,(2, 34),52	71,(2, 52),16	87,(2, 55),32	119,(2, 88),548	667,(2, 109),24	691,(2, 118),20	711,(2, 139),32	743,(2, 145),36	779,(2, 181),8	787,(2, 184),4	791,(2, 196),4	795,(2, 199),4	799,(3, 31),4	803,(3, 43),84	887,(3, 49),44	931,(3, 76),4	935,(3, 79),4	939,(3, 91),8	947,(3, 103),12	959,(3, 127),136	1095,(3, 187),4	1099,(5, 40),60	1159,(5, 58),4	1163,(5, 61),4	1167,(5, 79),8	1175,(5, 136),24	1199,(5, 148),4	1203,(5, 175),4	1207,(6, 61),12	1219,(6, 67),8	1227,(6, 163),68	1295,(6, 169),4	1299,(8, 82),20	1319,(8, 112),76	1395,(8, 130),44	1439,(8, 157),20	1459,(27, 201),276	1735,(9, 112),32	1767,(9, 118),16	1783,(9, 154),16	1799,(12, 97),12	1811,(12, 100),48	1859,(12, 121),128	1987,(12, 151),12	2001,(11, 43),28	2029,(11, 61),4	2033,(11, 94),12	2045,(72, 201),276	2321,(12, 181),4	2325,(15, 25),28	2353,(15, 49),36	2389,(15, 85),20	2409,(15, 94),12	2421,(15, 127),20	2441,(15, 172),20	2461,(18, 37),32	2493,(18, 91),16	2509,(18, 169),8	2517,(18, 196),8	2565,(14, 40),4	2569,(14, 85),4	2573,(14, 88),4	2577,(15, 199),108	2713,(11, 166),76	2789,(167, 201),276	3237,(14, 49),12	3273,(14, 190),12	3285,(14, 193),16	3301,(17, 28),40	3341,(17, 88),8	3349,(17, 109),48	3397,(17, 133),40	3437,(17, 160),36	3473,(17, 187),16	3489,(17, 199),24	3513,(20, 61),20	3533,(20, 64),4	3537,(20, 79),4	3541,(20, 97),4	3545,(20, 109),48	3593,(20, 121),4	3613,(15, 67),716	4329,(15, 157),212	4541,(15, 184),176	4833,(50, 201),276	5109,(18, 40),228	5541,(122, 201),276	5817,(177, 201),276	6093,(20, 49),112	6205,(20, 103),132	6337,(20, 115),816	7153,(20, 124),56	7309,(156, 201),276	7585,(113, 201),276	7861,(198, 201),276	8137,(185, 201),276	8413,(30, 201),276	8689,(128, 201),276	8965,(45, 201),276	9241,(155, 201),276	9517,(35, 201),276	9793,(191, 201),276	10069,(26, 201),276	10345,(29, 201),276	10621,(51, 201),276	10897,(32, 201),276	11173,(41, 201),276	11449,(53, 201),276	11725,(161, 201),276	12001,(188, 201),276	12277,(173, 201),276	12553,(104, 201),276	12829,(194, 201),276	13105,(125, 201),276	13381,(176, 201),276	13657,(65, 201),276	13933,(98, 201),276	14209,(146, 201),276	14485,(80, 201),276	14761,(71, 201),276	15037,(179, 201),276	15313,(164, 201),276	15589,(77, 201),276	15865,(89, 201),276	16141,(140, 201),276	16417,(143, 201),276	16693,(200, 201),276	16969,(47, 201),276	17245,(86, 201),276	17521,(110, 201),276	17797,(33, 201),276	18073,(149, 201),276	18349,(23, 201),276	18625,(56, 201),276	18901,(83, 201),276	19177,(92, 201),276	19453,(182, 201),276	19729,(66, 201),276	20005,(144, 201),276	20281,(117, 201),276	20557,(135, 201),276	20833,(101, 201),276	21109,(186, 201),276	21385,(108, 201),276	21661,(129, 201),276	21937,(21, 201),276	22213,(90, 201),276	22489,(150, 201),276	22765,(138, 201),276	23041,(116, 201),276	23317,(78, 201),276	23593,(123, 201),276	23869,(102, 201),276	24145,(111, 201),276	24421,(192, 201),276	24697,(63, 201),276	24973,(114, 201),276	25249,(132, 201),276	25525,(195, 201),276	25801,(152, 201),276	26077,(162, 201),276	26353,(134, 201),276	26629,(36, 201),276	26905,(24, 201),276	27181,(126, 201),276	27457,(44, 201),276	27733,(159, 201),276	28009,(60, 201),276	28285,(93, 201),276	28561,(96, 201),276	28837,(107, 201),276	29113,(141, 201),276	29389,(180, 201),276	29665,(189, 201),276	29941,(84, 201),276	30217,(137, 201),276	30493,(153, 201),276	30769,(165, 201),276	31045,(59, 201),276	31321,(68, 201),276	31597,(75, 201),276	31873,(81, 201),276	32149,(87, 201),276	32425,(105, 201),276	32701,(119, 201),276	32977,(131, 201),276	33253,(147, 201),276	33529,(158, 201),276	33805,(171, 201),276	34081,(174, 201),276	34357,(183, 201),276	34633,(197, 201),276	34909,(39, 201),276	35185,(42, 201),276	35461,(48, 201),276	35737,(54, 201),276	36013,(57, 201),276	36289,(62, 201),276	36565,(69, 201),276	36841,(74, 201),276	37117,(99, 201),276	37393,(95, 201),276	37669,(120, 201),276	37945,(168, 201),276	38221,(170, 201),276	38497,(38, 201),276	
# Outgoing
185,(3, 29),8	193,(3, 32),12	205,(3, 41),4	209,(3, 86),4	213,(3, 134),20	233,(3, 143),16	289,(3, 53),72	361,(3, 161),4	365,(3, 188),4	369,(3, 194),4	373,(6, 38),4	377,(6, 83),4	381,(6, 173),16	397,(9, 98),4	405,(3, 152),52	457,(6, 104),120	577,(9, 89),8	585,(9, 104),4	589,(9, 194),4	593,(9, 200),4	617,(6, 125),36	653,(6, 146),28	681,(6, 176),32	713,(6, 182),36	749,(9, 65),40	789,(12, 98),4	793,(12, 146),4	799,(3, 31),4	803,(3, 43),84	887,(3, 49),44	931,(3, 76),4	935,(3, 79),4	939,(3, 91),8	947,(3, 103),12	959,(3, 127),136	1095,(3, 187),4	1099,(9, 95),24	1123,(12, 80),20	1143,(12, 137),40	1183,(12, 152),8	1191,(12, 200),16	1207,(6, 61),12	1219,(6, 67),8	1227,(6, 163),68	1295,(6, 169),4	1299,(12, 71),88	1387,(15, 140),36	1423,(15, 179),36	1459,(27, 201),276	1735,(9, 112),32	1767,(9, 118),16	1783,(9, 154),16	1799,(12, 97),12	1811,(12, 100),48	1859,(12, 121),128	1987,(12, 151),12	2001,(18, 56),16	2017,(18, 83),4	2021,(18, 92),4	2025,(18, 119),4	2029,(18, 182),4	2045,(72, 201),276	2321,(12, 181),4	2325,(15, 25),28	2353,(15, 49),36	2389,(15, 85),20	2409,(15, 94),12	2421,(15, 127),20	2441,(15, 172),20	2461,(18, 37),32	2493,(18, 91),16	2509,(18, 169),8	2517,(18, 196),8	2577,(15, 199),108	3285,(9, 116),328	3613,(15, 67),716	4329,(15, 157),212	4541,(15, 184),176	4889,(18, 95),52	4941,(18, 134),104	5109,(18, 40),228	5817,(177, 201),276	6741,(18, 38),568	7309,(156, 201),276	7861,(198, 201),276	8413,(30, 201),276	8965,(45, 201),276	10621,(51, 201),276	17797,(33, 201),276	19729,(66, 201),276	20005,(144, 201),276	20281,(117, 201),276	20557,(135, 201),276	21109,(186, 201),276	21385,(108, 201),276	21661,(129, 201),276	21937,(21, 201),276	22213,(90, 201),276	22489,(150, 201),276	22765,(138, 201),276	23317,(78, 201),276	23593,(123, 201),276	23869,(102, 201),276	24145,(111, 201),276	24421,(192, 201),276	24697,(63, 201),276	24973,(114, 201),276	25249,(132, 201),276	25525,(195, 201),276	26077,(162, 201),276	26629,(36, 201),276	26905,(24, 201),276	27181,(126, 201),276	27733,(159, 201),276	28009,(60, 201),276	28285,(93, 201),276	28561,(96, 201),276	29113,(141, 201),276	29389,(180, 201),276	29665,(189, 201),276	29941,(84, 201),276	30493,(153, 201),276	30769,(165, 201),276	31597,(75, 201),276	31873,(81, 201),276	32149,(87, 201),276	32425,(105, 201),276	33253,(147, 201),276	33805,(171, 201),276	34081,(174, 201),276	34357,(183, 201),276	34909,(39, 201),276	35185,(42, 201),276	35461,(48, 201),276	35737,(54, 201),276	36013,(57, 201),276	36565,(69, 201),276	37117,(99, 201),276	37669,(120, 201),276	37945,(168, 201),276	
19,(2, 34),52	71,(2, 52),16	87,(2, 55),32	119,(2, 88),548	667,(2, 109),24	691,(2, 118),20	711,(2, 139),32	743,(2, 145),36	779,(2, 181),8	787,(2, 184),4	791,(2, 196),4	795,(2, 199),4	1099,(5, 40),60	1159,(5, 58),4	1163,(5, 61),4	1167,(5, 79),8	1175,(5, 136),24	1199,(5, 148),4	1203,(5, 175),4	1299,(8, 82),20	1319,(8, 112),76	1395,(8, 130),44	1439,(8, 157),20	1693,(2, 132),20	1713,(2, 138),12	1725,(2, 147),36	1761,(2, 159),208	1969,(2, 162),16	1985,(2, 195),16	2001,(11, 43),28	2029,(11, 61),4	2033,(11, 94),12	2109,(5, 39),4	2113,(5, 66),60	2173,(5, 132),8	2181,(5, 144),156	2337,(5, 150),32	2369,(5, 171),16	2385,(8, 39),4	2389,(8, 57),8	2397,(8, 63),20	2417,(8, 96),12	2429,(8, 117),120	2549,(11, 135),4	2553,(11, 153),8	2561,(11, 186),4	2565,(14, 40),4	2569,(14, 85),4	2573,(14, 88),4	2577,(8, 129),136	2713,(11, 166),76	2789,(167, 201),276	3065,(14, 21),172	3237,(14, 49),12	3249,(14, 54),4	3253,(14, 90),4	3257,(14, 99),4	3261,(14, 150),4	3265,(14, 168),8	3273,(14, 190),12	3285,(14, 193),16	3301,(17, 28),40	3341,(17, 88),8	3349,(17, 109),48	3397,(17, 133),40	3437,(17, 160),36	3473,(17, 187),16	3489,(17, 199),24	3513,(20, 61),20	3533,(20, 64),4	3537,(20, 79),4	3541,(20, 97),4	3545,(20, 109),48	3593,(20, 121),4	4197,(14, 102),56	4253,(14, 111),136	4389,(14, 183),56	4445,(14, 192),20	4465,(17, 24),24	4489,(17, 63),256	4745,(17, 114),4	4749,(17, 120),4	4753,(17, 132),28	4781,(17, 195),52	4833,(50, 201),276	5109,(20, 24),48	5157,(20, 60),32	5189,(20, 126),8	5197,(20, 159),4	5221,(17, 75),152	5373,(17, 96),168	5541,(122, 201),276	5849,(20, 165),24	6093,(20, 49),112	6205,(20, 103),132	6337,(20, 115),816	7153,(20, 124),56	7585,(113, 201),276	8137,(185, 201),276	8689,(128, 201),276	9241,(155, 201),276	9517,(35, 201),276	9793,(191, 201),276	10069,(26, 201),276	10345,(29, 201),276	10897,(32, 201),276	11173,(41, 201),276	11449,(53, 201),276	11725,(161, 201),276	12001,(188, 201),276	12277,(173, 201),276	12553,(104, 201),276	12829,(194, 201),276	13105,(125, 201),276	13381,(176, 201),276	13657,(65, 201),276	13933,(98, 201),276	14209,(146, 201),276	14485,(80, 201),276	14761,(71, 201),276	15037,(179, 201),276	15313,(164, 201),276	15589,(77, 201),276	15865,(89, 201),276	16141,(140, 201),276	16417,(143, 201),276	16693,(200, 201),276	16969,(47, 201),276	17245,(86, 201),276	17521,(110, 201),276	18073,(149, 201),276	18349,(23, 201),276	18625,(56, 201),276	18901,(83, 201),276	19177,(92, 201),276	19453,(182, 201),276	20833,(101, 201),276	23041,(116, 201),276	25801,(152, 201),276	26353,(134, 201),276	27457,(44, 201),276	28837,(107, 201),276	30217,(137, 201),276	31045,(59, 201),276	31321,(68, 201),276	32701,(119, 201),276	32977,(131, 201),276	33529,(158, 201),276	34633,(197, 201),276	36289,(62, 201),276	36841,(74, 201),276	37393,(95, 201),276	38221,(170, 201),276	38497,(38, 201),276	
1,(0, 2),4	5,(0, 3),4	9,(0, 5),4	13,(0, 6),4	17,(0, 8),4	21,(0, 9),4	25,(0, 11),4	29,(0, 12),4	33,(0, 14),4	37,(0, 15),4	41,(0, 17),4	45,(0, 18),4	49,(0, 20),4	53,(1, 26),100	153,(1, 47),32	185,(1, 51),64	249,(1, 77),40	289,(1, 84),112	401,(1, 101),4	405,(1, 102),108	513,(1, 147),84	597,(1, 149),20	617,(1, 162),1076	1693,(1, 164),124	1817,(10, 68),16	1833,(10, 77),20	1853,(10, 89),4	1857,(10, 134),4	1861,(10, 158),4	1865,(7, 44),16	1881,(7, 68),4	1885,(7, 92),12	1897,(7, 95),12	1909,(7, 140),16	1925,(7, 143),16	1941,(7, 200),4	1945,(4, 47),20	1965,(4, 86),4	1969,(4, 110),8	1977,(4, 149),16	1993,(13, 23),4	1997,(13, 74),4	2001,(10, 33),8	2009,(10, 63),36	2045,(10, 75),4	2049,(10, 78),60	2109,(10, 101),460	2569,(10, 108),8	2577,(10, 119),708	3285,(10, 123),96	3381,(10, 138),4	3385,(10, 192),676	4061,(7, 78),56	4117,(7, 114),36	4153,(7, 123),44	4197,(7, 131),624	4821,(7, 152),68	4889,(7, 162),12	4901,(19, 36),184	5085,(19, 44),116	5201,(19, 60),12	5213,(19, 87),4	5217,(19, 93),4	5221,(19, 107),388	5609,(19, 141),100	5709,(19, 180),24	5733,(19, 189),72	5805,(4, 84),44	5849,(4, 137),184	6033,(4, 153),60	6093,(4, 165),16	6109,(13, 42),8	6117,(13, 59),56	6173,(13, 68),8	6181,(13, 75),20	6201,(13, 81),20	6221,(13, 87),4	6225,(13, 99),8	6233,(13, 105),36	6269,(13, 119),44	6313,(13, 131),32	6345,(13, 147),60	6405,(13, 158),4	6409,(13, 171),76	6485,(13, 174),4	6489,(13, 183),16	6505,(13, 197),20	6525,(16, 39),8	6533,(16, 42),8	6541,(16, 48),12	6553,(16, 54),44	6597,(16, 57),12	6609,(16, 62),24	6633,(16, 69),8	6641,(16, 74),16	6657,(16, 95),4	6661,(16, 99),8	6669,(16, 120),4	6673,(16, 168),36	6709,(16, 170),32	
