10967
# CPU
7,3,14	21,6,14	35,7,14	49,71,14	63,10,14	77,49,14	91,39,14	105,9,14	119,51,14	133,78,14	147,17,14	1807,37,14	1843,46,14	1894,54,14	1908,60,14	2701,44,14	2716,77,14	2980,12,14	3022,20,14	3036,22,14	3172,43,14	3286,33,14	3337,40,14	3391,58,14	3415,67,14	3451,11,14	3502,13,14	3516,21,14	3530,27,14	3544,28,14	3604,34,14	3658,36,14	3745,41,14	3759,50,14	3773,59,14	3844,61,14	3901,62,14	3915,69,14	3929,75,14	3943,80,14	10966,81,1	
0,0,1	1,4,14	15,8,14	29,1,14	43,2,14	57,5,14	71,26,14	85,48,14	99,16,14	113,73,14	127,14,14	141,23,14	155,24,14	169,65,14	183,63,14	197,32,14	211,31,14	225,25,14	239,35,14	253,57,14	267,47,14	281,79,14	295,29,14	309,18,14	323,72,14	337,66,14	351,42,14	365,53,14	379,15,14	393,30,14	407,52,14	421,56,14	435,74,14	449,19,14	463,38,14	477,45,14	491,55,14	505,64,14	519,68,14	533,70,14	547,76,14	
# Incoming
1,(0, 3),6	7,(0, 6),6	13,(0, 7),6	19,(4, 10),12	31,(4, 11),54	85,(4, 12),3	88,(4, 17),3	91,(4, 28),3	94,(4, 33),9	103,(4, 36),306	409,(4, 37),1398	1807,(4, 43),27	1834,(4, 46),9	1843,(4, 50),12	1855,(4, 54),39	1894,(4, 60),3	1897,(4, 67),36	1933,(4, 75),111	2044,(4, 77),54	2098,(8, 11),3	2101,(8, 12),69	2170,(8, 28),120	2290,(8, 34),3	2293,(8, 44),408	2701,(8, 58),3	2704,(8, 61),9	2713,(8, 77),3	2716,(8, 80),120	2836,(1, 12),144	2980,(1, 13),9	2989,(1, 20),33	3022,(1, 22),3	3025,(1, 33),18	3043,(1, 40),123	3166,(1, 41),3	3169,(1, 43),3	3172,(1, 59),3	3175,(1, 75),99	3274,(2, 33),12	3286,(2, 40),51	3337,(2, 41),45	3382,(2, 58),9	3391,(2, 59),9	3400,(2, 62),6	3406,(2, 67),9	3415,(2, 69),18	3433,(5, 11),18	3451,(5, 13),51	3502,(5, 21),9	3511,(5, 27),3	3514,(5, 28),3	3517,(5, 34),87	3604,(5, 36),54	3658,(5, 41),87	3745,(5, 50),12	3757,(5, 59),12	3769,(5, 61),75	3844,(5, 62),57	3901,(5, 69),3	3904,(5, 75),24	3928,(5, 80),3	3931,(26, 81),201	4132,(48, 81),201	4333,(16, 81),201	4534,(73, 81),201	4735,(14, 81),201	4936,(23, 81),201	5137,(24, 81),201	5338,(65, 81),201	5539,(63, 81),201	5740,(32, 81),201	5941,(31, 81),201	6142,(25, 81),201	6343,(35, 81),201	6544,(57, 81),201	6745,(47, 81),201	6946,(79, 81),201	7147,(29, 81),201	7348,(18, 81),201	7549,(72, 81),201	7750,(66, 81),201	7951,(42, 81),201	8152,(53, 81),201	8353,(15, 81),201	8554,(30, 81),201	8755,(52, 81),201	8956,(56, 81),201	9157,(74, 81),201	9358,(19, 81),201	9559,(38, 81),201	9760,(45, 81),201	9961,(55, 81),201	10162,(64, 81),201	10363,(68, 81),201	10564,(70, 81),201	10765,(76, 81),201	
21,(3, 14),3	24,(3, 25),3	27,(3, 26),3	30,(3, 31),9	39,(3, 32),24	63,(3, 42),9	72,(3, 53),3	75,(3, 68),3	78,(3, 70),3	81,(6, 15),24	105,(6, 30),3	108,(6, 38),12	120,(6, 52),6	126,(6, 56),3	129,(6, 74),3	132,(7, 19),3	135,(7, 38),3	138,(7, 45),6	144,(7, 55),6	150,(7, 64),21	171,(7, 68),9	180,(7, 70),15	195,(7, 76),12	
# Outgoing
21,(3, 14),3	24,(3, 25),3	27,(3, 26),3	30,(3, 31),9	39,(3, 32),24	63,(3, 42),9	72,(3, 53),3	75,(3, 68),3	78,(3, 70),3	81,(6, 15),24	105,(6, 30),3	108,(6, 38),12	120,(6, 52),6	126,(6, 56),3	129,(6, 74),3	132,(7, 19),3	135,(7, 38),3	138,(7, 45),6	144,(7, 55),6	150,(7, 64),21	171,(7, 68),9	180,(7, 70),15	195,(7, 76),12	
1,(0, 3),6	7,(0, 6),6	13,(0, 7),6	19,(4, 10),12	31,(4, 11),54	85,(4, 12),3	88,(4, 17),3	91,(4, 28),3	94,(4, 33),9	103,(4, 36),306	409,(4, 37),1398	1807,(4, 43),27	1834,(4, 46),9	1843,(4, 50),12	1855,(4, 54),39	1894,(4, 60),3	1897,(4, 67),36	1933,(4, 75),111	2044,(4, 77),54	2098,(8, 11),3	2101,(8, 12),69	2170,(8, 28),120	2290,(8, 34),3	2293,(8, 44),408	2701,(8, 58),3	2704,(8, 61),9	2713,(8, 77),3	2716,(8, 80),120	2836,(1, 12),144	2980,(1, 13),9	2989,(1, 20),33	3022,(1, 22),3	3025,(1, 33),18	3043,(1, 40),123	3166,(1, 41),3	3169,(1, 43),3	3172,(1, 59),3	3175,(1, 75),99	3274,(2, 33),12	3286,(2, 40),51	3337,(2, 41),45	3382,(2, 58),9	3391,(2, 59),9	3400,(2, 62),6	3406,(2, 67),9	3415,(2, 69),18	3433,(5, 11),18	3451,(5, 13),51	3502,(5, 21),9	3511,(5, 27),3	3514,(5, 28),3	3517,(5, 34),87	3604,(5, 36),54	3658,(5, 41),87	3745,(5, 50),12	3757,(5, 59),12	3769,(5, 61),75	3844,(5, 62),57	3901,(5, 69),3	3904,(5, 75),24	3928,(5, 80),3	3931,(26, 81),201	4132,(48, 81),201	4333,(16, 81),201	4534,(73, 81),201	4735,(14, 81),201	4936,(23, 81),201	5137,(24, 81),201	5338,(65, 81),201	5539,(63, 81),201	5740,(32, 81),201	5941,(31, 81),201	6142,(25, 81),201	6343,(35, 81),201	6544,(57, 81),201	6745,(47, 81),201	6946,(79, 81),201	7147,(29, 81),201	7348,(18, 81),201	7549,(72, 81),201	7750,(66, 81),201	7951,(42, 81),201	8152,(53, 81),201	8353,(15, 81),201	8554,(30, 81),201	8755,(52, 81),201	8956,(56, 81),201	9157,(74, 81),201	9358,(19, 81),201	9559,(38, 81),201	9760,(45, 81),201	9961,(55, 81),201	10162,(64, 81),201	10363,(68, 81),201	10564,(70, 81),201	10765,(76, 81),201	
