384
# CPU
0,0,1	1,1,4	5,34,4	9,26,4	13,32,4	17,20,4	21,7,4	25,30,4	29,37,4	33,10,4	43,29,4	51,14,4	61,17,4	73,40,4	87,22,4	115,13,4	153,36,4	191,31,4	239,39,4	297,6,4	379,33,4	383,41,1	
3,4,4	7,15,4	11,24,4	15,11,4	19,18,4	
5,2,4	9,8,4	13,27,4	17,5,4	21,23,4	25,38,4	29,25,4	
7,3,4	11,12,4	15,16,4	19,28,4	23,35,4	27,21,4	31,9,4	35,19,4	






# Incoming
11,(15, 41),4	15,(3, 7),4	19,(8, 41),4	23,(12, 41),4	27,(24, 41),4	31,(27, 41),4	35,(16, 41),4	39,(4, 29),4	43,(11, 41),4	47,(3, 14),4	51,(5, 41),4	55,(3, 17),6	61,(28, 41),4	65,(2, 40),8	73,(18, 41),4	77,(3, 22),10	87,(23, 41),4	91,(4, 13),24	115,(35, 41),4	119,(4, 36),34	153,(38, 41),4	157,(3, 31),34	191,(21, 41),4	195,(3, 39),44	239,(25, 41),4	243,(3, 6),54	297,(9, 41),4	301,(3, 33),78	379,(19, 41),4	
1,(0, 4),2	
3,(0, 2),2	7,(1, 25),8	
5,(0, 3),2	






# Outgoing
1,(0, 4),2	3,(0, 2),2	5,(0, 3),2	7,(1, 25),8	
11,(15, 41),4	27,(24, 41),4	39,(4, 29),4	43,(11, 41),4	73,(18, 41),4	91,(4, 13),24	119,(4, 36),34	
19,(8, 41),4	31,(27, 41),4	51,(5, 41),4	65,(2, 40),8	87,(23, 41),4	153,(38, 41),4	239,(25, 41),4	
15,(3, 7),4	23,(12, 41),4	35,(16, 41),4	47,(3, 14),4	55,(3, 17),6	61,(28, 41),4	77,(3, 22),10	115,(35, 41),4	157,(3, 31),34	191,(21, 41),4	195,(3, 39),44	243,(3, 6),54	297,(9, 41),4	301,(3, 33),78	379,(19, 41),4	






