201
# CPU
0,0,1	1,12,1	2,14,1	3,15,1	4,17,1	5,10,1	6,7,1	7,13,1	8,3,1	9,4,1	10,19,1	11,16,1	12,11,1	13,6,1	14,108,1	15,18,1	16,58,1	17,9,1	18,150,1	19,68,1	20,85,1	21,8,1	22,129,1	23,154,1	24,139,1	25,190,1	26,52,1	27,2,1	28,179,1	29,73,1	30,116,1	31,77,1	32,81,1	33,136,1	34,20,1	35,163,1	36,147,1	37,23,1	38,115,1	39,169,1	40,110,1	41,100,1	42,182,1	43,109,1	44,75,1	45,51,1	46,197,1	47,71,1	48,72,1	49,66,1	50,196,1	51,41,1	52,176,1	53,33,1	54,112,1	55,49,1	56,130,1	57,35,1	58,1,1	59,95,1	60,114,1	61,59,1	62,165,1	63,67,1	64,21,1	65,167,1	66,177,1	67,160,1	68,79,1	69,185,1	70,60,1	71,120,1	72,31,1	73,94,1	74,162,1	75,195,1	76,54,1	77,156,1	78,97,1	79,175,1	80,117,1	81,157,1	82,132,1	83,125,1	84,183,1	85,128,1	86,131,1	87,191,1	88,45,1	89,26,1	90,124,1	91,122,1	92,161,1	93,181,1	94,98,1	95,105,1	96,111,1	97,164,1	98,198,1	99,186,1	100,135,1	101,113,1	102,127,1	103,192,1	104,82,1	105,152,1	106,57,1	107,87,1	108,189,1	109,50,1	110,159,1	111,146,1	112,29,1	113,143,1	114,27,1	115,140,1	116,151,1	117,180,1	118,5,1	119,193,1	120,90,1	121,199,1	122,30,1	123,134,1	124,188,1	125,80,1	126,126,1	127,25,1	128,42,1	129,84,1	130,137,1	131,99,1	132,74,1	133,141,1	134,28,1	135,103,1	136,69,1	137,48,1	138,32,1	139,173,1	140,96,1	141,55,1	142,158,1	143,61,1	144,40,1	145,178,1	146,101,1	147,37,1	148,168,1	149,123,1	150,104,1	151,144,1	152,78,1	153,184,1	154,47,1	155,119,1	156,76,1	157,56,1	158,166,1	159,107,1	160,86,1	161,89,1	162,44,1	163,46,1	164,187,1	165,24,1	166,118,1	167,91,1	168,70,1	169,22,1	170,174,1	171,145,1	172,92,1	173,65,1	174,171,1	175,170,1	176,62,1	177,83,1	178,38,1	179,121,1	180,106,1	181,138,1	182,36,1	183,43,1	184,63,1	185,53,1	186,149,1	187,93,1	188,133,1	189,142,1	190,172,1	191,34,1	192,88,1	193,64,1	194,102,1	195,153,1	196,39,1	197,148,1	198,155,1	199,194,1	200,201,1	


121,200,1	
# Incoming
122,(200, 201),18	


3,(14, 200),36	39,(17, 200),2	41,(10, 200),6	47,(7, 200),12	59,(13, 200),4	63,(8, 200),10	73,(2, 200),2	75,(1, 200),32	119,(5, 200),2	
# Outgoing
3,(14, 200),36	39,(17, 200),2	41,(10, 200),6	47,(7, 200),12	59,(13, 200),4	63,(8, 200),10	73,(2, 200),2	75,(1, 200),32	119,(5, 200),2	


122,(200, 201),18	
