1881
# CPU
3,3,22	25,6,22	47,9,22	69,12,22	91,35,22	113,104,22	135,16,22	157,80,22	179,92,22	201,29,22	223,63,22	245,31,22	267,69,22	289,33,22	311,71,22	333,83,22	355,74,22	377,95,22	399,118,22	421,49,22	443,19,22	465,21,22	487,41,22	509,43,22	531,52,22	553,58,22	575,77,22	597,113,22	619,24,22	641,37,22	663,39,22	685,46,22	707,55,22	729,67,22	751,98,22	773,101,22	795,110,22	817,116,22	839,17,22	861,27,22	883,61,22	905,86,22	927,89,22	949,107,22	1470,65,22	1622,120,22	
2,2,22	24,5,22	46,8,22	68,11,22	90,111,22	112,44,22	134,56,22	156,96,22	178,25,22	200,34,22	222,115,22	244,64,22	266,47,22	288,70,22	310,30,22	332,38,22	354,105,22	376,119,22	398,32,22	420,78,22	442,102,22	464,87,22	486,18,22	508,20,22	530,22,22	552,108,22	574,28,22	596,42,22	618,81,22	640,117,22	662,68,22	684,72,22	706,99,22	728,15,22	750,59,22	772,62,22	794,84,22	816,40,22	838,66,22	860,90,22	882,36,22	904,50,22	926,53,22	948,75,22	970,93,22	1880,121,1	
0,0,1	1,10,22	23,4,22	45,1,22	67,7,22	89,114,22	111,109,22	133,23,22	155,100,22	177,94,22	199,14,22	221,57,22	243,48,22	265,82,22	287,54,22	309,79,22	331,88,22	353,112,22	375,13,22	397,73,22	419,97,22	441,103,22	463,106,22	485,51,22	507,45,22	687,26,22	820,85,22	1347,60,22	1490,91,22	1848,76,22	
# Incoming
2,(0, 3),1	4,(0, 6),1	6,(0, 9),1	8,(0, 12),1	24,(2, 21),3	27,(2, 35),1	28,(2, 46),1	30,(10, 19),9	39,(10, 31),9	49,(10, 43),59	108,(10, 46),6	114,(2, 24),4	118,(2, 92),6	124,(5, 29),4	128,(10, 55),12	140,(10, 58),7	147,(5, 74),1	148,(5, 77),1	149,(8, 63),2	151,(11, 24),1	152,(11, 31),1	153,(10, 69),7	160,(8, 33),5	166,(10, 71),93	259,(10, 83),6	265,(2, 74),13	278,(5, 120),10	288,(11, 95),2	290,(10, 113),2	292,(10, 118),11	303,(10, 120),1	304,(2, 49),61	365,(4, 19),4	369,(4, 21),3	372,(4, 39),3	375,(4, 41),9	384,(4, 43),15	399,(4, 52),2	401,(4, 58),1	402,(4, 77),1	403,(8, 27),10	413,(11, 17),4	418,(4, 101),36	454,(5, 27),21	475,(5, 39),38	513,(11, 107),11	530,(4, 116),22	552,(5, 113),27	579,(1, 24),3	582,(1, 37),2	584,(1, 39),40	624,(1, 46),2	626,(1, 55),4	630,(1, 65),6	636,(1, 67),5	663,(1, 98),1	672,(1, 101),1	673,(1, 110),1	674,(8, 116),49	723,(7, 17),1	724,(7, 27),1	725,(7, 61),2	727,(7, 86),1	728,(7, 89),1	729,(7, 107),1	1347,(11, 65),123	1490,(11, 120),132	
1,(0, 2),1	3,(0, 5),1	5,(0, 8),1	7,(0, 11),1	23,(10, 15),7	30,(3, 44),4	34,(3, 47),5	39,(3, 75),1	48,(10, 40),1	49,(3, 50),7	66,(3, 64),35	101,(3, 78),9	114,(10, 47),14	147,(10, 59),5	152,(10, 66),1	160,(10, 70),6	245,(6, 30),3	248,(6, 38),14	265,(10, 84),5	270,(10, 90),8	278,(10, 93),10	288,(10, 105),2	290,(6, 66),12	302,(6, 119),2	304,(4, 18),43	347,(4, 32),2	349,(4, 53),3	352,(4, 78),1	353,(4, 102),1	354,(6, 87),31	385,(9, 18),2	387,(9, 20),2	389,(9, 22),2	403,(4, 99),15	454,(4, 108),76	552,(1, 28),7	559,(1, 42),16	575,(1, 81),2	577,(1, 117),2	641,(1, 68),17	658,(1, 72),5	664,(1, 99),8	674,(7, 15),13	687,(9, 36),1	688,(9, 59),1	689,(9, 62),4	693,(9, 84),4	697,(7, 40),4	701,(7, 50),1	702,(7, 66),6	708,(114, 121),10	730,(109, 121),10	740,(23, 121),10	750,(100, 121),10	760,(94, 121),10	770,(14, 121),10	780,(57, 121),10	790,(48, 121),10	800,(82, 121),10	810,(54, 121),10	820,(9, 90),5	825,(12, 36),1	826,(12, 50),1	827,(12, 53),13	840,(12, 75),2	842,(12, 93),17	859,(35, 121),10	869,(104, 121),10	879,(16, 121),10	889,(80, 121),10	899,(92, 121),10	909,(29, 121),10	919,(63, 121),10	929,(31, 121),10	939,(69, 121),10	949,(33, 121),10	959,(79, 121),10	969,(71, 121),10	979,(88, 121),10	989,(83, 121),10	999,(112, 121),10	1009,(74, 121),10	1019,(13, 121),10	1029,(95, 121),10	1039,(73, 121),10	1049,(118, 121),10	1059,(97, 121),10	1069,(49, 121),10	1079,(103, 121),10	1089,(19, 121),10	1099,(106, 121),10	1109,(21, 121),10	1119,(51, 121),10	1129,(41, 121),10	1139,(45, 121),10	1149,(43, 121),10	1159,(52, 121),10	1169,(58, 121),10	1179,(77, 121),10	1189,(113, 121),10	1199,(24, 121),10	1209,(37, 121),10	1219,(39, 121),10	1229,(46, 121),10	1239,(26, 121),10	1249,(55, 121),10	1259,(67, 121),10	1269,(98, 121),10	1279,(101, 121),10	1289,(110, 121),10	1299,(116, 121),10	1309,(85, 121),10	1319,(17, 121),10	1329,(27, 121),10	1339,(61, 121),10	1349,(86, 121),10	1359,(89, 121),10	1369,(107, 121),10	1379,(60, 121),10	1512,(91, 121),10	1848,(65, 121),10	1858,(120, 121),10	1870,(76, 121),10	
29,(2, 100),3	32,(2, 112),8	40,(3, 45),3	46,(5, 13),1	47,(5, 54),3	50,(5, 60),3	53,(5, 79),1	56,(3, 54),10	68,(8, 82),9	77,(8, 103),4	90,(11, 79),3	93,(11, 88),14	110,(3, 97),90	200,(3, 112),29	229,(6, 13),16	245,(11, 97),5	262,(6, 45),13	275,(6, 73),1	276,(6, 97),3	279,(9, 103),1	280,(9, 106),1	281,(12, 106),2	304,(12, 51),37	365,(11, 45),21	391,(9, 26),296	697,(9, 85),123	820,(11, 60),527	1470,(11, 91),20	1490,(12, 76),358	
# Outgoing
30,(3, 44),4	34,(3, 47),5	39,(3, 75),1	40,(3, 45),3	49,(3, 50),7	56,(3, 54),10	66,(3, 64),35	101,(3, 78),9	110,(3, 97),90	200,(3, 112),29	229,(6, 13),16	245,(6, 30),3	248,(6, 38),14	262,(6, 45),13	275,(6, 73),1	276,(6, 97),3	279,(9, 103),1	280,(9, 106),1	281,(12, 106),2	290,(6, 66),12	302,(6, 119),2	304,(12, 51),37	354,(6, 87),31	385,(9, 18),2	387,(9, 20),2	389,(9, 22),2	391,(9, 26),296	687,(9, 36),1	688,(9, 59),1	689,(9, 62),4	693,(9, 84),4	697,(9, 85),123	820,(9, 90),5	825,(12, 36),1	826,(12, 50),1	827,(12, 53),13	840,(12, 75),2	842,(12, 93),17	859,(35, 121),10	869,(104, 121),10	879,(16, 121),10	889,(80, 121),10	899,(92, 121),10	909,(29, 121),10	919,(63, 121),10	929,(31, 121),10	939,(69, 121),10	949,(33, 121),10	969,(71, 121),10	989,(83, 121),10	1009,(74, 121),10	1029,(95, 121),10	1049,(118, 121),10	1069,(49, 121),10	1089,(19, 121),10	1109,(21, 121),10	1129,(41, 121),10	1149,(43, 121),10	1159,(52, 121),10	1169,(58, 121),10	1179,(77, 121),10	1189,(113, 121),10	1199,(24, 121),10	1209,(37, 121),10	1219,(39, 121),10	1229,(46, 121),10	1249,(55, 121),10	1259,(67, 121),10	1269,(98, 121),10	1279,(101, 121),10	1289,(110, 121),10	1299,(116, 121),10	1319,(17, 121),10	1329,(27, 121),10	1339,(61, 121),10	1349,(86, 121),10	1359,(89, 121),10	1369,(107, 121),10	1490,(12, 76),358	1848,(65, 121),10	1858,(120, 121),10	
24,(2, 21),3	27,(2, 35),1	28,(2, 46),1	29,(2, 100),3	32,(2, 112),8	46,(5, 13),1	47,(5, 54),3	50,(5, 60),3	53,(5, 79),1	68,(8, 82),9	77,(8, 103),4	90,(11, 79),3	93,(11, 88),14	114,(2, 24),4	118,(2, 92),6	124,(5, 29),4	147,(5, 74),1	148,(5, 77),1	149,(8, 63),2	151,(11, 24),1	152,(11, 31),1	160,(8, 33),5	245,(11, 97),5	265,(2, 74),13	278,(5, 120),10	288,(11, 95),2	304,(2, 49),61	365,(11, 45),21	403,(8, 27),10	413,(11, 17),4	454,(5, 27),21	475,(5, 39),38	513,(11, 107),11	552,(5, 113),27	674,(8, 116),49	820,(11, 60),527	1347,(11, 65),123	1470,(11, 91),20	1490,(11, 120),132	
1,(0, 2),1	2,(0, 3),1	3,(0, 5),1	4,(0, 6),1	5,(0, 8),1	6,(0, 9),1	7,(0, 11),1	8,(0, 12),1	23,(10, 15),7	30,(10, 19),9	39,(10, 31),9	48,(10, 40),1	49,(10, 43),59	108,(10, 46),6	114,(10, 47),14	128,(10, 55),12	140,(10, 58),7	147,(10, 59),5	152,(10, 66),1	153,(10, 69),7	160,(10, 70),6	166,(10, 71),93	259,(10, 83),6	265,(10, 84),5	270,(10, 90),8	278,(10, 93),10	288,(10, 105),2	290,(10, 113),2	292,(10, 118),11	303,(10, 120),1	304,(4, 18),43	347,(4, 32),2	349,(4, 53),3	352,(4, 78),1	353,(4, 102),1	365,(4, 19),4	369,(4, 21),3	372,(4, 39),3	375,(4, 41),9	384,(4, 43),15	399,(4, 52),2	401,(4, 58),1	402,(4, 77),1	403,(4, 99),15	418,(4, 101),36	454,(4, 108),76	530,(4, 116),22	552,(1, 28),7	559,(1, 42),16	575,(1, 81),2	577,(1, 117),2	579,(1, 24),3	582,(1, 37),2	584,(1, 39),40	624,(1, 46),2	626,(1, 55),4	630,(1, 65),6	636,(1, 67),5	641,(1, 68),17	658,(1, 72),5	663,(1, 98),1	664,(1, 99),8	672,(1, 101),1	673,(1, 110),1	674,(7, 15),13	697,(7, 40),4	701,(7, 50),1	702,(7, 66),6	708,(114, 121),10	723,(7, 17),1	724,(7, 27),1	725,(7, 61),2	727,(7, 86),1	728,(7, 89),1	729,(7, 107),1	730,(109, 121),10	740,(23, 121),10	750,(100, 121),10	760,(94, 121),10	770,(14, 121),10	780,(57, 121),10	790,(48, 121),10	800,(82, 121),10	810,(54, 121),10	959,(79, 121),10	979,(88, 121),10	999,(112, 121),10	1019,(13, 121),10	1039,(73, 121),10	1059,(97, 121),10	1079,(103, 121),10	1099,(106, 121),10	1119,(51, 121),10	1139,(45, 121),10	1239,(26, 121),10	1309,(85, 121),10	1379,(60, 121),10	1512,(91, 121),10	1870,(76, 121),10	
