926
# CPU
85,24,66	151,39,66	217,29,66	283,14,66	369,34,66	435,9,66	679,19,66	
7,4,66	73,23,66	139,8,66	205,13,66	271,33,66	337,18,66	403,28,66	469,38,66	
5,3,66	95,17,66	161,7,66	227,37,66	293,32,66	359,12,66	425,27,66	733,22,66	
3,2,66	69,21,66	135,26,66	201,31,66	315,6,66	381,11,66	447,16,66	749,36,66	
0,0,1	1,1,66	67,15,66	133,20,66	199,10,66	265,25,66	331,30,66	397,5,66	463,35,66	765,40,66	925,41,1	
# Incoming
67,(1, 9),2	83,(3, 24),2	89,(3, 39),2	95,(1, 29),26	121,(3, 14),16	303,(3, 34),66	369,(4, 9),2	371,(4, 19),308	
5,(0, 4),2	71,(3, 8),10	81,(3, 13),2	85,(3, 33),4	137,(2, 18),24	161,(2, 28),2	169,(2, 38),2	
3,(0, 3),2	69,(1, 12),24	93,(1, 17),2	95,(2, 7),20	123,(1, 37),8	163,(2, 32),6	341,(4, 12),4	359,(4, 27),2	679,(4, 22),54	
1,(0, 2),2	121,(1, 31),2	305,(4, 6),10	315,(4, 11),26	345,(4, 16),14	733,(4, 36),16	
115,(2, 10),22	137,(3, 25),4	141,(3, 30),162	303,(4, 5),2	305,(21, 41),16	321,(24, 41),16	337,(26, 41),16	353,(39, 41),16	369,(3, 35),12	381,(3, 40),14	395,(17, 41),16	411,(7, 41),16	427,(31, 41),16	443,(29, 41),16	459,(37, 41),16	475,(14, 41),16	491,(32, 41),16	507,(6, 41),16	523,(12, 41),16	539,(34, 41),16	555,(11, 41),16	571,(27, 41),16	587,(9, 41),16	603,(16, 41),16	749,(4, 40),16	765,(23, 41),16	781,(8, 41),16	797,(13, 41),16	813,(33, 41),16	829,(18, 41),16	845,(28, 41),16	861,(38, 41),16	877,(19, 41),16	893,(22, 41),16	909,(36, 41),16	
# Outgoing
321,(24, 41),16	353,(39, 41),16	443,(29, 41),16	475,(14, 41),16	539,(34, 41),16	587,(9, 41),16	877,(19, 41),16	
303,(4, 5),2	305,(4, 6),10	315,(4, 11),26	341,(4, 12),4	345,(4, 16),14	359,(4, 27),2	369,(4, 9),2	371,(4, 19),308	679,(4, 22),54	733,(4, 36),16	749,(4, 40),16	765,(23, 41),16	781,(8, 41),16	797,(13, 41),16	813,(33, 41),16	829,(18, 41),16	845,(28, 41),16	861,(38, 41),16	
71,(3, 8),10	81,(3, 13),2	83,(3, 24),2	85,(3, 33),4	89,(3, 39),2	121,(3, 14),16	137,(3, 25),4	141,(3, 30),162	303,(3, 34),66	369,(3, 35),12	381,(3, 40),14	395,(17, 41),16	411,(7, 41),16	459,(37, 41),16	491,(32, 41),16	523,(12, 41),16	571,(27, 41),16	893,(22, 41),16	
95,(2, 7),20	115,(2, 10),22	137,(2, 18),24	161,(2, 28),2	163,(2, 32),6	169,(2, 38),2	305,(21, 41),16	337,(26, 41),16	427,(31, 41),16	507,(6, 41),16	555,(11, 41),16	603,(16, 41),16	909,(36, 41),16	
1,(0, 2),2	3,(0, 3),2	5,(0, 4),2	67,(1, 9),2	69,(1, 12),24	93,(1, 17),2	95,(1, 29),26	121,(1, 31),2	123,(1, 37),8	
