7484
# CPU
2857,4,2	2899,36,2	2905,40,2	2939,52,2	2957,64,2	3989,24,2	3995,32,2	5713,8,2	5715,20,2	5717,80,2	5719,12,2	5721,60,2	5731,16,2	5749,28,2	5771,68,2	5773,76,2	6079,56,2	6105,72,2	6151,44,2	6333,48,2	
1905,3,2	1907,75,2	4761,7,2	5021,47,2	5041,67,2	5093,39,2	5097,59,2	5895,35,2	5907,15,2	5919,27,2	5947,43,2	5949,55,2	5951,71,2	6023,51,2	6109,11,2	6111,19,2	6113,23,2	6117,31,2	6241,79,2	6475,63,2	
953,2,2	955,38,2	1909,10,2	1961,42,2	1971,46,2	3809,6,2	3811,18,2	3821,14,2	3865,50,2	3939,54,2	4843,66,2	5721,22,2	5725,26,2	5745,62,2	5759,70,2	6115,30,2	6147,34,2	6155,58,2	6237,74,2	6239,78,2	
0,0,1	1,1,2	3,5,2	5,45,2	7,57,2	9,65,2	2955,49,2	3023,77,2	3817,13,2	3823,17,2	4145,37,2	4771,9,2	4817,21,2	4819,25,2	4821,61,2	4875,69,2	4877,73,2	5717,33,2	5719,41,2	5721,53,2	5735,29,2	7483,81,1	
# Incoming
1905,(0, 4),952	2857,(2, 20),10	2867,(2, 24),10	2877,(2, 32),16	2893,(2, 36),6	2899,(2, 40),6	2905,(2, 52),32	2937,(3, 52),2	2951,(2, 64),6	3817,(6, 16),14	3831,(6, 24),158	3989,(6, 32),6	3995,(6, 68),2	3997,(6, 80),2	4761,(0, 8),952	5713,(7, 16),18	5731,(7, 28),18	5749,(7, 68),22	5771,(7, 76),2	5895,(1, 44),120	6023,(1, 56),56	6079,(1, 72),26	6147,(5, 44),4	6151,(7, 48),182	
953,(0, 3),952	2957,(2, 71),4	3809,(0, 7),952	4761,(4, 15),6	4767,(4, 19),6	4773,(4, 35),84	4857,(4, 39),2	4859,(4, 43),2	4861,(4, 47),160	5021,(4, 63),2	5023,(4, 67),18	5041,(6, 15),20	5061,(6, 39),32	5093,(6, 59),4	5713,(1, 19),2	5721,(1, 27),142	5863,(1, 35),32	5895,(8, 15),12	5907,(8, 27),12	5919,(8, 43),28	5947,(8, 55),2	5949,(8, 71),2	6015,(1, 51),8	6105,(5, 11),4	6109,(5, 19),2	6111,(5, 23),2	6115,(5, 31),2	6239,(5, 79),2	6241,(8, 63),234	
1,(0, 2),952	1907,(3, 10),2	1909,(3, 14),20	1929,(3, 42),32	1961,(3, 46),10	2857,(0, 6),952	3809,(4, 14),12	3851,(4, 30),12	3863,(4, 50),2	3937,(4, 54),2	3939,(4, 58),4	3943,(4, 62),2	3945,(4, 74),4	4821,(7, 66),22	5715,(1, 22),6	5721,(8, 26),4	5735,(8, 34),2	5737,(8, 62),8	5745,(8, 70),14	6113,(5, 30),2	6117,(5, 34),30	6151,(5, 58),4	6155,(5, 74),82	6237,(5, 78),2	
2937,(2, 53),14	2951,(3, 21),2	2953,(3, 49),2	2961,(38, 81),48	3009,(3, 77),14	3023,(75, 81),48	3071,(10, 81),48	3119,(42, 81),48	3167,(46, 81),48	3811,(6, 13),6	3821,(4, 17),2	3823,(4, 21),6	3829,(4, 25),22	3865,(4, 53),72	3949,(36, 81),48	3997,(40, 81),48	4045,(52, 81),48	4093,(64, 81),48	4141,(6, 37),4	4145,(6, 61),2	4147,(18, 81),48	4195,(14, 81),48	4243,(50, 81),48	4291,(54, 81),48	4339,(24, 81),48	4387,(32, 81),48	4763,(7, 9),8	4771,(7, 21),46	4817,(7, 25),2	4819,(7, 61),2	4843,(7, 69),32	4875,(7, 73),2	4877,(66, 81),48	5023,(47, 81),48	5071,(67, 81),48	5119,(39, 81),48	5167,(59, 81),48	5715,(8, 33),2	5717,(8, 41),2	5719,(8, 53),2	5725,(8, 29),10	5759,(20, 81),48	5807,(80, 81),48	5855,(22, 81),48	5903,(26, 81),48	5951,(12, 81),48	5999,(60, 81),48	6047,(16, 81),48	6095,(62, 81),48	6143,(28, 81),48	6191,(70, 81),48	6239,(30, 81),48	6333,(35, 81),48	6381,(15, 81),48	6475,(68, 81),48	6523,(76, 81),48	6571,(27, 81),48	6619,(43, 81),48	6667,(55, 81),48	6715,(71, 81),48	6763,(51, 81),48	6811,(56, 81),48	6859,(72, 81),48	6907,(11, 81),48	6955,(19, 81),48	7003,(23, 81),48	7051,(31, 81),48	7099,(34, 81),48	7147,(44, 81),48	7195,(58, 81),48	7243,(74, 81),48	7291,(78, 81),48	7339,(79, 81),48	7387,(48, 81),48	7435,(63, 81),48	
# Outgoing
3809,(4, 14),12	3821,(4, 17),2	3823,(4, 21),6	3829,(4, 25),22	3851,(4, 30),12	3863,(4, 50),2	3865,(4, 53),72	3937,(4, 54),2	3939,(4, 58),4	3943,(4, 62),2	3945,(4, 74),4	3949,(36, 81),48	3997,(40, 81),48	4045,(52, 81),48	4093,(64, 81),48	4339,(24, 81),48	4387,(32, 81),48	4761,(4, 15),6	4767,(4, 19),6	4773,(4, 35),84	4857,(4, 39),2	4859,(4, 43),2	4861,(4, 47),160	5021,(4, 63),2	5023,(4, 67),18	5715,(8, 33),2	5717,(8, 41),2	5719,(8, 53),2	5721,(8, 26),4	5725,(8, 29),10	5735,(8, 34),2	5737,(8, 62),8	5745,(8, 70),14	5759,(20, 81),48	5807,(80, 81),48	5895,(8, 15),12	5907,(8, 27),12	5919,(8, 43),28	5947,(8, 55),2	5949,(8, 71),2	5951,(12, 81),48	5999,(60, 81),48	6047,(16, 81),48	6143,(28, 81),48	6241,(8, 63),234	6475,(68, 81),48	6523,(76, 81),48	6811,(56, 81),48	6859,(72, 81),48	7147,(44, 81),48	7387,(48, 81),48	
1907,(3, 10),2	1909,(3, 14),20	1929,(3, 42),32	1961,(3, 46),10	2937,(3, 52),2	2951,(3, 21),2	2953,(3, 49),2	3009,(3, 77),14	3023,(75, 81),48	4763,(7, 9),8	4771,(7, 21),46	4817,(7, 25),2	4819,(7, 61),2	4821,(7, 66),22	4843,(7, 69),32	4875,(7, 73),2	5023,(47, 81),48	5071,(67, 81),48	5119,(39, 81),48	5167,(59, 81),48	5713,(7, 16),18	5731,(7, 28),18	5749,(7, 68),22	5771,(7, 76),2	6151,(7, 48),182	6333,(35, 81),48	6381,(15, 81),48	6571,(27, 81),48	6619,(43, 81),48	6667,(55, 81),48	6715,(71, 81),48	6763,(51, 81),48	6907,(11, 81),48	6955,(19, 81),48	7003,(23, 81),48	7051,(31, 81),48	7339,(79, 81),48	7435,(63, 81),48	
2857,(2, 20),10	2867,(2, 24),10	2877,(2, 32),16	2893,(2, 36),6	2899,(2, 40),6	2905,(2, 52),32	2937,(2, 53),14	2951,(2, 64),6	2957,(2, 71),4	2961,(38, 81),48	3071,(10, 81),48	3119,(42, 81),48	3167,(46, 81),48	3811,(6, 13),6	3817,(6, 16),14	3831,(6, 24),158	3989,(6, 32),6	3995,(6, 68),2	3997,(6, 80),2	4141,(6, 37),4	4145,(6, 61),2	4147,(18, 81),48	4195,(14, 81),48	4243,(50, 81),48	4291,(54, 81),48	4877,(66, 81),48	5041,(6, 15),20	5061,(6, 39),32	5093,(6, 59),4	5855,(22, 81),48	5903,(26, 81),48	6095,(62, 81),48	6191,(70, 81),48	6239,(30, 81),48	7099,(34, 81),48	7195,(58, 81),48	7243,(74, 81),48	7291,(78, 81),48	
1,(0, 2),952	953,(0, 3),952	1905,(0, 4),952	2857,(0, 6),952	3809,(0, 7),952	4761,(0, 8),952	5713,(1, 19),2	5715,(1, 22),6	5721,(1, 27),142	5863,(1, 35),32	5895,(1, 44),120	6015,(1, 51),8	6023,(1, 56),56	6079,(1, 72),26	6105,(5, 11),4	6109,(5, 19),2	6111,(5, 23),2	6113,(5, 30),2	6115,(5, 31),2	6117,(5, 34),30	6147,(5, 44),4	6151,(5, 58),4	6155,(5, 74),82	6237,(5, 78),2	6239,(5, 79),2	
