180
# CPU
0,0,1	1,1,24	25,6,24	49,10,24	73,3,24	97,4,24	121,18,24	145,12,24	
11,2,24	35,14,24	59,7,24	83,15,24	107,9,24	131,11,24	155,17,24	179,21,1	
26,8,24	50,19,24	74,5,24	98,13,24	122,20,24	146,16,24	
# Incoming

1,(0, 2),10	32,(1, 17),2	49,(6, 21),1	50,(8, 21),1	73,(10, 21),1	74,(19, 21),1	97,(3, 21),1	98,(5, 21),1	121,(4, 21),1	122,(13, 21),1	145,(18, 21),1	146,(20, 21),1	169,(12, 21),1	170,(16, 21),1	
25,(1, 8),1	26,(1, 19),1	27,(1, 5),3	30,(1, 13),2	35,(2, 13),16	51,(1, 20),8	59,(2, 20),19	78,(1, 16),5	83,(2, 16),22	
# Outgoing
1,(0, 2),10	25,(1, 8),1	26,(1, 19),1	27,(1, 5),3	30,(1, 13),2	32,(1, 17),2	49,(6, 21),1	51,(1, 20),8	73,(10, 21),1	78,(1, 16),5	97,(3, 21),1	121,(4, 21),1	145,(18, 21),1	169,(12, 21),1	
35,(2, 13),16	59,(2, 20),19	83,(2, 16),22	
50,(8, 21),1	74,(19, 21),1	98,(5, 21),1	122,(13, 21),1	146,(20, 21),1	170,(16, 21),1	
