86
# CPU
0,0,1	1,1,4	5,4,4	9,3,4	13,9,4	17,10,4	21,12,4	25,14,4	29,6,4	33,18,4	37,11,4	41,19,4	45,5,4	49,13,4	53,8,4	81,7,4	85,21,1	
5,2,4	9,16,4	13,15,4	17,20,4	
9,17,4	
# Incoming
13,(16, 21),8	21,(17, 21),8	29,(15, 21),8	37,(20, 21),8	45,(2, 13),4	49,(2, 8),4	53,(2, 7),28	
1,(0, 2),4	
5,(1, 17),4	
# Outgoing
1,(0, 2),4	5,(1, 17),4	
13,(16, 21),8	29,(15, 21),8	37,(20, 21),8	45,(2, 13),4	49,(2, 8),4	53,(2, 7),28	
21,(17, 21),8	
