23282
# CPU
81,5,1	161,10,1	13345,65,1	13909,95,1	14285,108,1	15001,118,1	15037,38,1	16033,62,1	16717,67,1	17761,97,1	18173,88,1	18385,113,1	18541,21,1	18569,23,1	18597,44,1	18625,55,1	18645,59,1	18665,60,1	18697,69,1	18713,29,1	18761,72,1	18829,32,1	18833,34,1	18989,117,1	19037,40,1	19053,87,1	19085,93,1	19121,42,1	19125,43,1	19161,46,1	19189,47,1	19193,48,1	19209,49,1	19213,50,1	19229,51,1	19381,53,1	19521,54,1	19537,56,1	19581,58,1	19633,61,1	19841,68,1	19881,76,1	19897,79,1	19969,82,1	20001,83,1	20009,84,1	20013,85,1	20165,86,1	20309,89,1	20321,90,1	20361,94,1	20417,99,1	20425,100,1	20441,104,1	20445,106,1	20493,110,1	20581,115,1	20717,120,1	21565,52,1	21881,114,1	22417,112,1	22725,119,1	22813,70,1	22889,91,1	22929,92,1	23037,96,1	23065,98,1	23157,102,1	23281,121,1	
61,4,1	141,9,1	3953,17,1	4285,35,1	4989,80,1	13161,71,1	14149,101,1	14165,103,1	14301,109,1	14345,111,1	14749,25,1	16557,74,1	16685,78,1	16717,81,1	17801,105,1	18177,107,1	18549,22,1	18773,31,1	18877,37,1	19089,41,1	19741,64,1	19829,66,1	
41,3,1	121,8,1	13089,30,1	13253,57,1	14709,20,1	18537,16,1	18673,27,1	18709,28,1	19737,63,1	19885,77,1	
21,2,1	101,7,1	181,12,1	529,19,1	1321,24,1	16553,73,1	18533,14,1	18661,26,1	19001,39,1	
0,0,1	1,1,1	2,6,1	3,11,1	949,75,1	1017,15,1	3937,13,1	4037,18,1	4261,33,1	4569,36,1	4949,45,1	6137,116,1	
# Incoming
61,(0, 5),20	81,(4, 40),16	97,(4, 53),4	101,(3, 23),4	105,(4, 44),8	113,(4, 69),4	117,(3, 40),8	125,(3, 42),4	129,(3, 61),4	133,(3, 65),8	141,(0, 10),20	161,(4, 29),36	197,(4, 76),4	201,(3, 62),28	229,(3, 68),4	233,(3, 76),4	237,(2, 21),48	285,(2, 23),4	289,(2, 56),4	293,(4, 70),12	305,(4, 84),4	309,(3, 79),12	321,(3, 82),4	325,(2, 68),4	329,(1, 23),24	353,(4, 65),20	373,(1, 29),4	377,(2, 51),16	393,(2, 54),12	405,(2, 59),12	417,(1, 32),24	441,(1, 34),100	541,(2, 61),12	553,(2, 69),84	637,(3, 83),4	641,(3, 84),12	653,(1, 42),4	657,(1, 43),16	673,(1, 46),24	697,(1, 47),16	713,(1, 48),8	721,(1, 50),4	725,(1, 51),4	729,(1, 52),12	741,(1, 53),4	745,(1, 54),4	749,(1, 58),12	761,(1, 59),4	765,(1, 61),28	793,(1, 62),8	801,(2, 40),160	961,(2, 43),144	1105,(2, 50),128	1233,(2, 60),340	1573,(2, 76),32	1605,(2, 79),208	1813,(3, 29),60	1873,(3, 86),4	1877,(3, 88),8	1885,(3, 91),4	1889,(3, 110),4	1893,(2, 82),52	1945,(2, 89),684	2629,(2, 97),128	2757,(2, 99),4	2761,(2, 110),24	2785,(2, 112),12	2797,(2, 114),4	2801,(2, 115),24	2825,(2, 117),12	2837,(2, 119),8	2845,(2, 120),4	2849,(3, 43),96	2945,(3, 46),40	2985,(3, 49),76	3061,(3, 55),88	3149,(3, 58),176	3325,(3, 60),44	3369,(3, 70),196	3565,(3, 87),36	3601,(3, 90),168	3769,(3, 93),236	4005,(3, 95),16	4021,(3, 96),8	4029,(3, 99),24	4053,(3, 104),16	4069,(3, 106),356	4425,(3, 108),124	4549,(3, 113),4	4553,(3, 115),4	4557,(3, 119),468	5025,(4, 23),48	5073,(4, 32),40	5113,(4, 38),112	5225,(4, 43),100	5325,(4, 51),2416	7741,(4, 52),184	7925,(4, 56),32	7957,(4, 60),40	7997,(4, 62),60	8057,(4, 82),8	8065,(4, 85),24	8089,(4, 88),40	8129,(4, 89),76	8205,(4, 92),52	8257,(4, 93),64	8321,(4, 96),24	8345,(4, 97),8	8353,(4, 98),32	8385,(4, 100),20	8405,(4, 102),12	8417,(4, 104),8	8425,(4, 112),136	8561,(4, 113),96	8657,(4, 114),16	8673,(4, 117),36	8709,(4, 120),16	8725,(7, 23),4	8729,(7, 38),4	8733,(7, 40),36	8769,(7, 44),1616	10385,(7, 47),468	10853,(7, 48),4	10857,(7, 49),20	10877,(7, 51),24	10901,(7, 53),116	11017,(7, 54),4	11021,(7, 56),4	11025,(7, 58),60	11085,(7, 59),12	11097,(7, 61),36	11133,(7, 65),16	11149,(7, 67),12	11161,(7, 76),16	11177,(7, 84),4	11181,(7, 87),24	11205,(7, 91),4	11209,(7, 93),12	11221,(7, 96),4	11225,(7, 98),52	11277,(7, 99),12	11289,(7, 102),12	11301,(7, 104),44	11345,(7, 110),228	11573,(7, 112),16	11589,(7, 113),160	11749,(7, 114),16	11765,(7, 115),4	11769,(7, 118),4	11773,(8, 21),8	11781,(8, 38),40	11821,(8, 40),4	11825,(8, 43),20	11845,(8, 44),44	11889,(8, 47),368	12257,(8, 49),16	12273,(8, 50),20	12293,(8, 51),4	12297,(8, 53),20	12317,(8, 54),8	12325,(8, 55),60	12385,(8, 56),20	12405,(8, 59),68	12473,(8, 68),4	12477,(8, 69),12	12489,(8, 70),12	12501,(8, 72),4	12505,(8, 82),120	12625,(8, 85),4	12629,(8, 87),4	12633,(8, 90),16	12649,(8, 92),4	12653,(8, 93),232	12885,(8, 95),8	12893,(8, 96),4	12897,(8, 98),76	12973,(8, 99),8	12981,(8, 106),8	12989,(8, 110),4	12993,(8, 113),24	13017,(8, 115),8	13025,(1, 65),32	13057,(1, 69),64	13121,(1, 70),4	13125,(8, 112),76	13201,(8, 117),28	13229,(9, 38),32	13261,(9, 40),48	13309,(9, 42),4	13313,(9, 48),4	13317,(9, 50),4	13321,(9, 52),8	13329,(9, 54),8	13337,(9, 58),4	13341,(9, 65),4	13345,(9, 76),8	13353,(1, 79),84	13437,(1, 82),32	13469,(1, 83),28	13497,(1, 87),4	13501,(1, 88),44	13545,(1, 89),16	13561,(1, 90),32	13593,(1, 91),20	13613,(1, 92),48	13661,(1, 95),248	13909,(1, 96),36	13945,(1, 98),4	13949,(1, 99),164	14113,(1, 100),4	14117,(9, 55),20	14137,(9, 83),8	14145,(9, 86),4	14149,(1, 102),12	14161,(9, 96),4	14165,(1, 106),52	14217,(9, 98),4	14221,(1, 108),64	14285,(9, 51),60	14345,(1, 113),48	14393,(1, 114),12	14405,(1, 118),12	14417,(1, 120),16	14433,(9, 32),156	14589,(9, 59),88	14677,(9, 62),36	14713,(9, 100),4	14717,(12, 23),4	14721,(6, 23),4	14725,(9, 88),16	14741,(9, 91),24	14765,(9, 99),36	14801,(9, 102),8	14809,(9, 113),8	14817,(6, 29),32	14849,(6, 34),52	14901,(9, 94),56	14957,(9, 118),44	15001,(12, 32),4	15005,(12, 38),32	15037,(12, 42),4	15041,(6, 42),4	15045,(6, 43),268	15313,(6, 46),84	15397,(6, 47),64	15461,(6, 49),4	15465,(6, 53),4	15469,(6, 54),144	15613,(6, 56),8	15621,(6, 59),264	15885,(6, 60),8	15893,(6, 62),140	16033,(12, 40),20	16053,(12, 43),8	16061,(12, 46),4	16065,(12, 47),8	16073,(12, 53),4	16077,(12, 54),4	16081,(6, 67),40	16121,(6, 68),24	16145,(6, 69),404	16549,(12, 61),4	16553,(12, 85),4	16557,(6, 76),8	16565,(9, 44),144	16709,(12, 67),8	16717,(6, 82),20	16737,(6, 83),96	16833,(6, 86),56	16889,(6, 88),16	16905,(6, 89),104	17009,(6, 91),716	17725,(6, 97),36	17761,(6, 98),20	17781,(12, 49),16	17797,(12, 86),4	17801,(6, 106),356	18157,(12, 56),12	18169,(12, 88),4	18173,(12, 89),4	18177,(6, 112),200	18377,(6, 113),8	18385,(6, 115),140	18525,(6, 117),4	18529,(12, 104),4	18533,(12, 112),4	18537,(11, 21),4	18541,(12, 106),8	18549,(11, 23),20	18569,(12, 44),28	18597,(12, 55),28	18625,(12, 59),20	18645,(12, 60),20	18665,(12, 69),32	18697,(12, 114),4	18701,(12, 117),4	18705,(19, 121),4	18709,(11, 29),4	18713,(12, 72),48	18761,(24, 121),4	18765,(17, 121),4	18769,(35, 121),4	18773,(11, 32),56	18829,(11, 34),4	18833,(9, 117),156	18989,(80, 121),4	18993,(30, 121),4	18997,(71, 121),4	19001,(11, 40),36	19037,(12, 87),16	19053,(12, 93),32	19085,(57, 121),4	19089,(11, 42),32	19121,(11, 43),4	19125,(11, 46),36	19161,(11, 47),28	19189,(11, 48),4	19193,(11, 49),16	19209,(11, 50),4	19213,(11, 51),16	19229,(11, 52),8	19237,(11, 53),144	19381,(11, 54),140	19521,(11, 56),16	19537,(11, 58),44	19581,(11, 61),52	19633,(9, 68),172	19805,(12, 119),16	19821,(101, 121),4	19825,(103, 121),4	19829,(11, 68),12	19841,(11, 76),40	19881,(109, 121),4	19885,(11, 79),12	19897,(11, 82),72	19969,(11, 83),32	20001,(11, 84),8	20009,(11, 85),4	20013,(11, 86),152	20165,(11, 89),144	20309,(11, 90),12	20321,(11, 92),36	20357,(11, 94),4	20361,(11, 96),44	20405,(11, 99),12	20417,(11, 100),8	20425,(11, 102),4	20429,(11, 104),12	20441,(11, 106),4	20445,(11, 110),48	20493,(11, 112),16	20509,(11, 114),8	20517,(11, 115),64	20581,(11, 119),48	20629,(11, 120),88	20717,(8, 52),848	21565,(8, 114),316	21881,(9, 112),536	22417,(9, 119),308	22725,(12, 70),88	22813,(12, 91),76	22889,(12, 92),40	22929,(12, 96),108	23037,(12, 98),28	23065,(12, 102),92	23157,(75, 121),4	23161,(15, 121),4	23165,(13, 121),4	23169,(18, 121),4	23173,(33, 121),4	23177,(36, 121),4	23181,(45, 121),4	23185,(116, 121),4	23189,(111, 121),4	23193,(20, 121),4	23197,(25, 121),4	23201,(73, 121),4	23205,(74, 121),4	23209,(78, 121),4	23213,(81, 121),4	23217,(105, 121),4	23221,(107, 121),4	23225,(14, 121),4	23229,(16, 121),4	23233,(22, 121),4	23237,(26, 121),4	23241,(27, 121),4	23245,(28, 121),4	23249,(31, 121),4	23253,(37, 121),4	23257,(39, 121),4	23261,(41, 121),4	23265,(63, 121),4	23269,(64, 121),4	23273,(66, 121),4	23277,(77, 121),4	
41,(0, 4),20	61,(2, 17),20	81,(3, 17),20	105,(3, 31),8	113,(3, 37),4	121,(0, 9),20	141,(3, 22),56	197,(3, 41),4	249,(1, 17),44	293,(2, 22),24	317,(1, 22),12	329,(2, 25),4	333,(2, 31),32	365,(2, 35),4	369,(2, 64),8	405,(1, 31),12	417,(2, 37),40	457,(2, 71),76	533,(2, 80),4	537,(2, 105),4	541,(1, 35),32	573,(1, 37),12	585,(3, 78),8	593,(3, 81),24	617,(3, 101),16	633,(5, 22),4	637,(5, 81),4	641,(10, 22),4	645,(10, 41),4	649,(2, 78),80	729,(3, 25),184	913,(3, 66),248	1161,(3, 71),72	1233,(3, 103),12	1245,(3, 105),12	1257,(3, 109),20	1277,(5, 17),28	1305,(5, 78),28	1333,(5, 101),200	1533,(5, 103),44	1577,(8, 22),4	1581,(8, 25),92	1673,(8, 41),56	1729,(8, 71),4	1733,(8, 74),36	1769,(8, 101),12	1781,(8, 105),4	1785,(10, 25),8	1793,(10, 64),4	1797,(10, 80),4	1801,(10, 81),12	1813,(2, 81),80	1893,(5, 111),288	2181,(8, 80),100	2281,(8, 103),208	2489,(8, 107),44	2533,(10, 17),104	2637,(10, 31),96	2733,(10, 35),48	2849,(7, 17),16	2865,(7, 22),76	2941,(7, 25),12	2953,(7, 31),4	2957,(7, 35),4	3029,(7, 37),436	3465,(7, 66),156	3621,(7, 71),4	3625,(7, 74),4	3629,(7, 78),4	3633,(7, 80),8	3641,(7, 81),4	3645,(7, 101),24	3669,(7, 103),16	3685,(7, 105),4	3689,(7, 107),212	3901,(7, 109),28	3929,(10, 105),12	3941,(10, 107),4	3945,(10, 109),4	3949,(12, 17),4	4037,(12, 22),4	4041,(12, 31),16	4261,(12, 35),24	4569,(12, 41),52	4949,(12, 64),32	4981,(12, 78),4	4985,(12, 80),4	4989,(12, 81),112	5101,(12, 103),4	5105,(12, 105),32	5137,(12, 107),32	5169,(12, 109),16	12997,(1, 64),28	13125,(1, 71),36	13345,(1, 78),8	14117,(1, 101),32	14161,(1, 103),4	14217,(1, 107),4	14285,(1, 109),16	14301,(1, 111),44	14709,(6, 22),12	14725,(6, 25),24	16033,(6, 64),44	16077,(6, 66),4	16553,(6, 74),4	16669,(6, 78),16	16685,(6, 81),32	17781,(6, 105),20	18157,(6, 107),20	18541,(11, 22),8	18713,(11, 31),60	18833,(11, 37),44	19037,(11, 41),52	19737,(11, 64),4	19741,(11, 66),88	
21,(0, 3),20	41,(2, 28),4	66,(4, 30),4	70,(4, 63),8	101,(0, 8),20	145,(4, 77),4	149,(9, 20),8	157,(9, 57),4	217,(1, 16),32	313,(1, 20),4	361,(1, 27),12	377,(1, 30),28	405,(4, 16),160	565,(5, 16),4	569,(5, 63),28	597,(5, 77),12	609,(10, 27),4	613,(10, 63),12	717,(10, 30),56	785,(7, 20),4	789,(7, 57),12	801,(1, 63),12196	12997,(7, 27),56	13053,(7, 30),36	13089,(7, 63),4	13093,(10, 20),92	13185,(10, 57),68	13253,(10, 77),44	13297,(12, 20),8	13305,(12, 28),16	13341,(1, 77),4	13353,(9, 77),316	13669,(12, 77),240	14605,(6, 16),20	14625,(6, 20),84	16565,(6, 77),104	18533,(11, 16),4	18661,(11, 27),12	18673,(11, 28),36	19633,(11, 63),104	19881,(11, 77),4	
1,(0, 2),20	42,(3, 14),16	58,(3, 24),16	74,(3, 73),4	81,(0, 7),20	117,(4, 73),28	161,(0, 12),20	181,(1, 14),36	217,(4, 26),64	293,(1, 19),20	353,(1, 26),8	441,(8, 39),4	469,(5, 14),4	497,(5, 19),32	529,(5, 24),32	585,(1, 39),68	653,(4, 39),228	881,(5, 73),20	901,(10, 24),20	977,(9, 24),48	1277,(8, 24),44	1577,(10, 39),156	2781,(10, 73),284	13161,(1, 73),180	14433,(6, 14),172	14749,(6, 26),68	14901,(6, 39),140	16549,(6, 73),4	18529,(11, 14),4	18569,(11, 26),92	18877,(11, 39),124	
22,(2, 13),16	45,(2, 33),12	62,(4, 13),4	81,(2, 18),156	237,(3, 45),72	309,(9, 13),4	313,(9, 18),4	317,(2, 36),8	325,(3, 33),100	425,(3, 75),16	441,(5, 13),28	473,(5, 18),24	497,(8, 15),28	525,(8, 33),12	561,(10, 18),4	565,(4, 18),40	605,(4, 116),24	629,(9, 33),4	633,(9, 75),4	637,(2, 75),12	649,(5, 45),52	701,(5, 75),16	729,(2, 116),56	785,(5, 116),88	873,(10, 36),4	881,(4, 75),68	949,(9, 15),28	977,(10, 15),40	1025,(9, 36),16	1041,(9, 45),36	1077,(10, 13),108	1185,(10, 33),64	1321,(8, 45),224	1893,(8, 116),60	2181,(10, 45),132	2961,(7, 36),68	3929,(7, 116),4	3933,(12, 13),4	3953,(12, 18),84	4057,(12, 33),204	4285,(12, 36),284	4621,(12, 45),328	5185,(12, 116),952	
# Outgoing
441,(5, 13),28	469,(5, 14),4	473,(5, 18),24	497,(5, 19),32	529,(5, 24),32	561,(10, 18),4	565,(5, 16),4	569,(5, 63),28	597,(5, 77),12	609,(10, 27),4	613,(10, 63),12	633,(5, 22),4	637,(5, 81),4	641,(10, 22),4	645,(10, 41),4	649,(5, 45),52	701,(5, 75),16	717,(10, 30),56	785,(5, 116),88	873,(10, 36),4	881,(5, 73),20	901,(10, 24),20	977,(10, 15),40	1077,(10, 13),108	1185,(10, 33),64	1277,(5, 17),28	1305,(5, 78),28	1333,(5, 101),200	1533,(5, 103),44	1577,(10, 39),156	1785,(10, 25),8	1793,(10, 64),4	1797,(10, 80),4	1801,(10, 81),12	1893,(5, 111),288	2181,(10, 45),132	2533,(10, 17),104	2637,(10, 31),96	2733,(10, 35),48	2781,(10, 73),284	3929,(10, 105),12	3941,(10, 107),4	3945,(10, 109),4	13093,(10, 20),92	13185,(10, 57),68	13253,(10, 77),44	
62,(4, 13),4	66,(4, 30),4	70,(4, 63),8	81,(4, 40),16	97,(4, 53),4	105,(4, 44),8	113,(4, 69),4	117,(4, 73),28	145,(4, 77),4	149,(9, 20),8	157,(9, 57),4	161,(4, 29),36	197,(4, 76),4	217,(4, 26),64	293,(4, 70),12	305,(4, 84),4	309,(9, 13),4	313,(9, 18),4	353,(4, 65),20	405,(4, 16),160	565,(4, 18),40	605,(4, 116),24	629,(9, 33),4	633,(9, 75),4	653,(4, 39),228	881,(4, 75),68	949,(9, 15),28	977,(9, 24),48	1025,(9, 36),16	1041,(9, 45),36	5025,(4, 23),48	5073,(4, 32),40	5113,(4, 38),112	5225,(4, 43),100	5325,(4, 51),2416	7741,(4, 52),184	7925,(4, 56),32	7957,(4, 60),40	7997,(4, 62),60	8057,(4, 82),8	8065,(4, 85),24	8089,(4, 88),40	8129,(4, 89),76	8205,(4, 92),52	8257,(4, 93),64	8321,(4, 96),24	8345,(4, 97),8	8353,(4, 98),32	8385,(4, 100),20	8405,(4, 102),12	8417,(4, 104),8	8425,(4, 112),136	8561,(4, 113),96	8657,(4, 114),16	8673,(4, 117),36	8709,(4, 120),16	13229,(9, 38),32	13261,(9, 40),48	13309,(9, 42),4	13313,(9, 48),4	13317,(9, 50),4	13321,(9, 52),8	13329,(9, 54),8	13337,(9, 58),4	13341,(9, 65),4	13345,(9, 76),8	13353,(9, 77),316	14117,(9, 55),20	14137,(9, 83),8	14145,(9, 86),4	14161,(9, 96),4	14217,(9, 98),4	14285,(9, 51),60	14433,(9, 32),156	14589,(9, 59),88	14677,(9, 62),36	14713,(9, 100),4	14725,(9, 88),16	14741,(9, 91),24	14765,(9, 99),36	14801,(9, 102),8	14809,(9, 113),8	14901,(9, 94),56	14957,(9, 118),44	16565,(9, 44),144	18765,(17, 121),4	18769,(35, 121),4	18833,(9, 117),156	18989,(80, 121),4	18997,(71, 121),4	19633,(9, 68),172	19821,(101, 121),4	19825,(103, 121),4	19881,(109, 121),4	21881,(9, 112),536	22417,(9, 119),308	23189,(111, 121),4	23197,(25, 121),4	23205,(74, 121),4	23209,(78, 121),4	23213,(81, 121),4	23217,(105, 121),4	23221,(107, 121),4	23233,(22, 121),4	23249,(31, 121),4	23253,(37, 121),4	23261,(41, 121),4	23269,(64, 121),4	23273,(66, 121),4	
42,(3, 14),16	58,(3, 24),16	74,(3, 73),4	81,(3, 17),20	101,(3, 23),4	105,(3, 31),8	113,(3, 37),4	117,(3, 40),8	125,(3, 42),4	129,(3, 61),4	133,(3, 65),8	141,(3, 22),56	197,(3, 41),4	201,(3, 62),28	229,(3, 68),4	233,(3, 76),4	237,(3, 45),72	309,(3, 79),12	321,(3, 82),4	325,(3, 33),100	425,(3, 75),16	441,(8, 39),4	497,(8, 15),28	525,(8, 33),12	585,(3, 78),8	593,(3, 81),24	617,(3, 101),16	637,(3, 83),4	641,(3, 84),12	729,(3, 25),184	913,(3, 66),248	1161,(3, 71),72	1233,(3, 103),12	1245,(3, 105),12	1257,(3, 109),20	1277,(8, 24),44	1321,(8, 45),224	1577,(8, 22),4	1581,(8, 25),92	1673,(8, 41),56	1729,(8, 71),4	1733,(8, 74),36	1769,(8, 101),12	1781,(8, 105),4	1813,(3, 29),60	1873,(3, 86),4	1877,(3, 88),8	1885,(3, 91),4	1889,(3, 110),4	1893,(8, 116),60	2181,(8, 80),100	2281,(8, 103),208	2489,(8, 107),44	2849,(3, 43),96	2945,(3, 46),40	2985,(3, 49),76	3061,(3, 55),88	3149,(3, 58),176	3325,(3, 60),44	3369,(3, 70),196	3565,(3, 87),36	3601,(3, 90),168	3769,(3, 93),236	4005,(3, 95),16	4021,(3, 96),8	4029,(3, 99),24	4053,(3, 104),16	4069,(3, 106),356	4425,(3, 108),124	4549,(3, 113),4	4553,(3, 115),4	4557,(3, 119),468	11773,(8, 21),8	11781,(8, 38),40	11821,(8, 40),4	11825,(8, 43),20	11845,(8, 44),44	11889,(8, 47),368	12257,(8, 49),16	12273,(8, 50),20	12293,(8, 51),4	12297,(8, 53),20	12317,(8, 54),8	12325,(8, 55),60	12385,(8, 56),20	12405,(8, 59),68	12473,(8, 68),4	12477,(8, 69),12	12489,(8, 70),12	12501,(8, 72),4	12505,(8, 82),120	12625,(8, 85),4	12629,(8, 87),4	12633,(8, 90),16	12649,(8, 92),4	12653,(8, 93),232	12885,(8, 95),8	12893,(8, 96),4	12897,(8, 98),76	12973,(8, 99),8	12981,(8, 106),8	12989,(8, 110),4	12993,(8, 113),24	13017,(8, 115),8	13125,(8, 112),76	13201,(8, 117),28	18993,(30, 121),4	19085,(57, 121),4	20717,(8, 52),848	21565,(8, 114),316	23193,(20, 121),4	23229,(16, 121),4	23241,(27, 121),4	23245,(28, 121),4	23265,(63, 121),4	23277,(77, 121),4	
22,(2, 13),16	41,(2, 28),4	45,(2, 33),12	61,(2, 17),20	81,(2, 18),156	237,(2, 21),48	285,(2, 23),4	289,(2, 56),4	293,(2, 22),24	317,(2, 36),8	325,(2, 68),4	329,(2, 25),4	333,(2, 31),32	365,(2, 35),4	369,(2, 64),8	377,(2, 51),16	393,(2, 54),12	405,(2, 59),12	417,(2, 37),40	457,(2, 71),76	533,(2, 80),4	537,(2, 105),4	541,(2, 61),12	553,(2, 69),84	637,(2, 75),12	649,(2, 78),80	729,(2, 116),56	785,(7, 20),4	789,(7, 57),12	801,(2, 40),160	961,(2, 43),144	1105,(2, 50),128	1233,(2, 60),340	1573,(2, 76),32	1605,(2, 79),208	1813,(2, 81),80	1893,(2, 82),52	1945,(2, 89),684	2629,(2, 97),128	2757,(2, 99),4	2761,(2, 110),24	2785,(2, 112),12	2797,(2, 114),4	2801,(2, 115),24	2825,(2, 117),12	2837,(2, 119),8	2845,(2, 120),4	2849,(7, 17),16	2865,(7, 22),76	2941,(7, 25),12	2953,(7, 31),4	2957,(7, 35),4	2961,(7, 36),68	3029,(7, 37),436	3465,(7, 66),156	3621,(7, 71),4	3625,(7, 74),4	3629,(7, 78),4	3633,(7, 80),8	3641,(7, 81),4	3645,(7, 101),24	3669,(7, 103),16	3685,(7, 105),4	3689,(7, 107),212	3901,(7, 109),28	3929,(7, 116),4	3933,(12, 13),4	3949,(12, 17),4	3953,(12, 18),84	4037,(12, 22),4	4041,(12, 31),16	4057,(12, 33),204	4261,(12, 35),24	4285,(12, 36),284	4569,(12, 41),52	4621,(12, 45),328	4949,(12, 64),32	4981,(12, 78),4	4985,(12, 80),4	4989,(12, 81),112	5101,(12, 103),4	5105,(12, 105),32	5137,(12, 107),32	5169,(12, 109),16	5185,(12, 116),952	8725,(7, 23),4	8729,(7, 38),4	8733,(7, 40),36	8769,(7, 44),1616	10385,(7, 47),468	10853,(7, 48),4	10857,(7, 49),20	10877,(7, 51),24	10901,(7, 53),116	11017,(7, 54),4	11021,(7, 56),4	11025,(7, 58),60	11085,(7, 59),12	11097,(7, 61),36	11133,(7, 65),16	11149,(7, 67),12	11161,(7, 76),16	11177,(7, 84),4	11181,(7, 87),24	11205,(7, 91),4	11209,(7, 93),12	11221,(7, 96),4	11225,(7, 98),52	11277,(7, 99),12	11289,(7, 102),12	11301,(7, 104),44	11345,(7, 110),228	11573,(7, 112),16	11589,(7, 113),160	11749,(7, 114),16	11765,(7, 115),4	11769,(7, 118),4	12997,(7, 27),56	13053,(7, 30),36	13089,(7, 63),4	13297,(12, 20),8	13305,(12, 28),16	13669,(12, 77),240	14717,(12, 23),4	15001,(12, 32),4	15005,(12, 38),32	15037,(12, 42),4	16033,(12, 40),20	16053,(12, 43),8	16061,(12, 46),4	16065,(12, 47),8	16073,(12, 53),4	16077,(12, 54),4	16549,(12, 61),4	16553,(12, 85),4	16709,(12, 67),8	17781,(12, 49),16	17797,(12, 86),4	18157,(12, 56),12	18169,(12, 88),4	18173,(12, 89),4	18529,(12, 104),4	18533,(12, 112),4	18541,(12, 106),8	18569,(12, 44),28	18597,(12, 55),28	18625,(12, 59),20	18645,(12, 60),20	18665,(12, 69),32	18697,(12, 114),4	18701,(12, 117),4	18705,(19, 121),4	18713,(12, 72),48	18761,(24, 121),4	19037,(12, 87),16	19053,(12, 93),32	19805,(12, 119),16	22725,(12, 70),88	22813,(12, 91),76	22889,(12, 92),40	22929,(12, 96),108	23037,(12, 98),28	23065,(12, 102),92	23201,(73, 121),4	23225,(14, 121),4	23237,(26, 121),4	23257,(39, 121),4	
1,(0, 2),20	21,(0, 3),20	41,(0, 4),20	61,(0, 5),20	81,(0, 7),20	101,(0, 8),20	121,(0, 9),20	141,(0, 10),20	161,(0, 12),20	181,(1, 14),36	217,(1, 16),32	249,(1, 17),44	293,(1, 19),20	313,(1, 20),4	317,(1, 22),12	329,(1, 23),24	353,(1, 26),8	361,(1, 27),12	373,(1, 29),4	377,(1, 30),28	405,(1, 31),12	417,(1, 32),24	441,(1, 34),100	541,(1, 35),32	573,(1, 37),12	585,(1, 39),68	653,(1, 42),4	657,(1, 43),16	673,(1, 46),24	697,(1, 47),16	713,(1, 48),8	721,(1, 50),4	725,(1, 51),4	729,(1, 52),12	741,(1, 53),4	745,(1, 54),4	749,(1, 58),12	761,(1, 59),4	765,(1, 61),28	793,(1, 62),8	801,(1, 63),12196	12997,(1, 64),28	13025,(1, 65),32	13057,(1, 69),64	13121,(1, 70),4	13125,(1, 71),36	13161,(1, 73),180	13341,(1, 77),4	13345,(1, 78),8	13353,(1, 79),84	13437,(1, 82),32	13469,(1, 83),28	13497,(1, 87),4	13501,(1, 88),44	13545,(1, 89),16	13561,(1, 90),32	13593,(1, 91),20	13613,(1, 92),48	13661,(1, 95),248	13909,(1, 96),36	13945,(1, 98),4	13949,(1, 99),164	14113,(1, 100),4	14117,(1, 101),32	14149,(1, 102),12	14161,(1, 103),4	14165,(1, 106),52	14217,(1, 107),4	14221,(1, 108),64	14285,(1, 109),16	14301,(1, 111),44	14345,(1, 113),48	14393,(1, 114),12	14405,(1, 118),12	14417,(1, 120),16	14433,(6, 14),172	14605,(6, 16),20	14625,(6, 20),84	14709,(6, 22),12	14721,(6, 23),4	14725,(6, 25),24	14749,(6, 26),68	14817,(6, 29),32	14849,(6, 34),52	14901,(6, 39),140	15041,(6, 42),4	15045,(6, 43),268	15313,(6, 46),84	15397,(6, 47),64	15461,(6, 49),4	15465,(6, 53),4	15469,(6, 54),144	15613,(6, 56),8	15621,(6, 59),264	15885,(6, 60),8	15893,(6, 62),140	16033,(6, 64),44	16077,(6, 66),4	16081,(6, 67),40	16121,(6, 68),24	16145,(6, 69),404	16549,(6, 73),4	16553,(6, 74),4	16557,(6, 76),8	16565,(6, 77),104	16669,(6, 78),16	16685,(6, 81),32	16717,(6, 82),20	16737,(6, 83),96	16833,(6, 86),56	16889,(6, 88),16	16905,(6, 89),104	17009,(6, 91),716	17725,(6, 97),36	17761,(6, 98),20	17781,(6, 105),20	17801,(6, 106),356	18157,(6, 107),20	18177,(6, 112),200	18377,(6, 113),8	18385,(6, 115),140	18525,(6, 117),4	18529,(11, 14),4	18533,(11, 16),4	18537,(11, 21),4	18541,(11, 22),8	18549,(11, 23),20	18569,(11, 26),92	18661,(11, 27),12	18673,(11, 28),36	18709,(11, 29),4	18713,(11, 31),60	18773,(11, 32),56	18829,(11, 34),4	18833,(11, 37),44	18877,(11, 39),124	19001,(11, 40),36	19037,(11, 41),52	19089,(11, 42),32	19121,(11, 43),4	19125,(11, 46),36	19161,(11, 47),28	19189,(11, 48),4	19193,(11, 49),16	19209,(11, 50),4	19213,(11, 51),16	19229,(11, 52),8	19237,(11, 53),144	19381,(11, 54),140	19521,(11, 56),16	19537,(11, 58),44	19581,(11, 61),52	19633,(11, 63),104	19737,(11, 64),4	19741,(11, 66),88	19829,(11, 68),12	19841,(11, 76),40	19881,(11, 77),4	19885,(11, 79),12	19897,(11, 82),72	19969,(11, 83),32	20001,(11, 84),8	20009,(11, 85),4	20013,(11, 86),152	20165,(11, 89),144	20309,(11, 90),12	20321,(11, 92),36	20357,(11, 94),4	20361,(11, 96),44	20405,(11, 99),12	20417,(11, 100),8	20425,(11, 102),4	20429,(11, 104),12	20441,(11, 106),4	20445,(11, 110),48	20493,(11, 112),16	20509,(11, 114),8	20517,(11, 115),64	20581,(11, 119),48	20629,(11, 120),88	23157,(75, 121),4	23161,(15, 121),4	23165,(13, 121),4	23169,(18, 121),4	23173,(33, 121),4	23177,(36, 121),4	23181,(45, 121),4	23185,(116, 121),4	
