2088
# CPU
45,2,21	66,6,21	87,9,21	108,24,21	129,37,21	150,34,21	171,20,21	192,27,21	213,17,21	234,28,21	255,26,21	853,5,21	1005,15,21	
23,1,21	44,11,21	65,23,21	86,25,21	107,35,21	707,38,21	921,12,21	1021,19,21	
631,29,21	707,16,21	827,40,21	1003,13,21	1177,31,21	2087,41,1	
0,0,1	1,3,21	22,4,21	43,7,21	
49,8,21	641,30,21	
677,32,21	897,10,21	
133,14,21	1187,33,21	
705,36,21	1007,18,21	
555,21,21	1191,39,21	
1051,22,21	
# Incoming
23,(0, 2),22	45,(3, 5),2	47,(1, 5),2	827,(4, 5),26	1003,(4, 15),2	
1,(0, 1),22	49,(3, 12),38	87,(2, 35),2	705,(3, 38),2	897,(4, 12),24	1007,(4, 19),14	
133,(3, 16),420	553,(2, 40),2	555,(3, 29),76	631,(1, 16),76	707,(3, 40),120	827,(11, 41),32	859,(8, 41),32	921,(4, 13),82	1003,(23, 41),32	1051,(4, 31),126	1191,(7, 41),32	1223,(6, 41),32	1255,(25, 41),32	1287,(9, 41),32	1319,(35, 41),32	1351,(24, 41),32	1383,(37, 41),32	1415,(14, 41),32	1447,(34, 41),32	1479,(20, 41),32	1511,(27, 41),32	1543,(17, 41),32	1575,(28, 41),32	1607,(26, 41),32	1639,(21, 41),32	1671,(30, 41),32	1703,(32, 41),32	1735,(36, 41),32	1767,(38, 41),32	1799,(5, 41),32	1831,(10, 41),32	1863,(12, 41),32	1895,(15, 41),32	1927,(18, 41),32	1959,(19, 41),32	1991,(22, 41),32	2023,(33, 41),32	2055,(39, 41),32	

47,(3, 8),2	631,(3, 30),10	
641,(3, 32),36	853,(4, 10),44	
87,(3, 14),46	1177,(4, 33),10	
677,(3, 36),28	1005,(4, 18),2	
553,(3, 21),2	1187,(4, 39),4	
1021,(4, 22),30	
# Outgoing
87,(2, 35),2	553,(2, 40),2	1223,(6, 41),32	1287,(9, 41),32	1351,(24, 41),32	1383,(37, 41),32	1447,(34, 41),32	1479,(20, 41),32	1511,(27, 41),32	1543,(17, 41),32	1575,(28, 41),32	1607,(26, 41),32	1799,(5, 41),32	1895,(15, 41),32	
47,(1, 5),2	631,(1, 16),76	827,(11, 41),32	1003,(23, 41),32	1255,(25, 41),32	1319,(35, 41),32	1767,(38, 41),32	1863,(12, 41),32	1959,(19, 41),32	

1,(0, 1),22	23,(0, 2),22	45,(3, 5),2	47,(3, 8),2	49,(3, 12),38	87,(3, 14),46	133,(3, 16),420	553,(3, 21),2	555,(3, 29),76	631,(3, 30),10	641,(3, 32),36	677,(3, 36),28	705,(3, 38),2	707,(3, 40),120	827,(4, 5),26	853,(4, 10),44	897,(4, 12),24	921,(4, 13),82	1003,(4, 15),2	1005,(4, 18),2	1007,(4, 19),14	1021,(4, 22),30	1051,(4, 31),126	1177,(4, 33),10	1187,(4, 39),4	1191,(7, 41),32	
859,(8, 41),32	1671,(30, 41),32	
1703,(32, 41),32	1831,(10, 41),32	
1415,(14, 41),32	2023,(33, 41),32	
1735,(36, 41),32	1927,(18, 41),32	
1639,(21, 41),32	2055,(39, 41),32	
1991,(22, 41),32	
