20462
# CPU
305,3,1	306,94,1	307,198,1	389,73,1	609,6,1	610,133,1	665,93,1	913,9,1	914,195,1	1217,12,1	1218,137,1	1219,88,1	1220,139,1	1349,155,1	1521,15,1	1522,51,1	1523,170,1	1825,18,1	1826,116,1	1827,83,1	1828,111,1	1829,199,1	1830,134,1	1831,140,1	1832,169,1	2173,78,1	2221,90,1	2329,115,1	3549,192,1	3621,41,1	3813,100,1	3961,122,1	4145,76,1	4525,126,1	4573,157,1	4717,177,1	4909,36,1	5369,112,1	6085,53,1	6197,178,1	6321,30,1	6909,81,1	7065,96,1	7077,106,1	7093,125,1	7105,131,1	7173,162,1	7389,183,1	7573,167,1	7697,56,1	7701,57,1	7897,74,1	7901,87,1	8201,127,1	8245,130,1	8261,146,1	8421,153,1	8489,179,1	9245,79,1	9257,98,1	9317,135,1	9505,142,1	9509,147,1	9665,171,1	9701,189,1	9705,193,1	9733,31,1	9737,35,1	9753,39,1	9813,69,1	10085,92,1	10097,104,1	10137,107,1	10213,123,1	10225,143,1	10281,187,1	11457,50,1	11669,150,1	11741,163,1	11749,172,1	11921,173,1	11957,184,1	11961,191,1	12361,45,1	12365,47,1	12457,55,1	12473,61,1	12729,64,1	12897,65,1	12905,71,1	12913,72,1	12949,85,1	13009,86,1	13029,105,1	13505,109,1	13597,110,1	13613,124,1	13761,132,1	13837,138,1	13841,145,1	13877,148,1	13917,151,1	14113,174,1	14429,180,1	14541,181,1	14741,182,1	14745,186,1	14761,197,1	14805,26,1	15001,28,1	15013,37,1	15069,38,1	15073,43,1	15213,48,1	15233,62,1	15273,117,1	15345,121,1	15365,128,1	15569,164,1	15585,166,1	15677,175,1	15681,176,1	15837,200,1	15853,34,1	15857,42,1	15901,54,1	15905,60,1	16025,68,1	16029,70,1	16041,75,1	16065,84,1	16121,91,1	16129,95,1	16149,97,1	16157,99,1	16173,101,1	16201,113,1	16397,114,1	16445,118,1	16473,119,1	16489,120,1	16493,136,1	16537,141,1	16573,159,1	16853,165,1	16941,27,1	16945,33,1	16965,40,1	16969,44,1	17005,46,1	17065,59,1	17081,63,1	17357,66,1	17373,67,1	17377,77,1	17381,80,1	17385,82,1	17405,89,1	17409,102,1	17413,103,1	17429,108,1	17581,129,1	17749,144,1	17765,149,1	17769,152,1	17805,154,1	17973,158,1	17997,160,1	20221,168,1	20229,185,1	20269,188,1	20325,190,1	20337,194,1	20341,196,1	20461,201,1	
153,2,1	457,5,1	458,25,1	761,8,1	1065,11,1	1369,14,1	1673,17,1	1977,20,1	4977,58,1	6085,156,1	7645,49,1	8897,32,1	9713,23,1	
0,0,1	1,10,1	2,19,1	3,1,1	4,13,1	5,16,1	6,4,1	7,7,1	509,52,1	1070,21,1	4025,22,1	4029,29,1	4117,24,1	20217,161,1	
# Incoming
153,(0, 3),152	305,(2, 34),8	313,(2, 38),20	333,(2, 42),4	337,(2, 73),52	389,(2, 74),4	393,(2, 86),20	413,(2, 87),32	445,(2, 88),4	449,(2, 89),4	453,(2, 101),4	457,(0, 6),152	609,(2, 91),28	637,(2, 93),28	665,(2, 95),20	685,(2, 116),12	697,(2, 119),24	721,(2, 122),4	725,(2, 137),20	745,(2, 178),4	749,(2, 180),4	753,(2, 185),4	757,(5, 83),4	761,(0, 9),152	913,(2, 141),20	933,(2, 145),32	965,(2, 152),88	1053,(2, 193),12	1065,(0, 12),152	1217,(2, 155),132	1349,(2, 197),12	1361,(5, 63),8	1369,(0, 15),152	1521,(2, 168),40	1561,(2, 182),24	1585,(2, 200),20	1605,(5, 42),28	1633,(5, 59),16	1649,(5, 74),16	1665,(5, 85),4	1669,(5, 96),4	1673,(0, 18),152	1825,(2, 189),144	1969,(5, 100),4	1973,(5, 135),4	1977,(10, 26),24	2001,(10, 33),8	2009,(10, 35),4	2013,(10, 44),84	2097,(10, 46),4	2101,(5, 194),4	2105,(10, 56),20	2125,(10, 61),36	2161,(10, 67),4	2165,(10, 78),8	2173,(10, 79),36	2209,(10, 90),12	2221,(10, 108),76	2297,(10, 114),28	2325,(10, 115),4	2329,(10, 117),16	2345,(10, 120),36	2381,(10, 126),92	2473,(10, 127),48	2521,(10, 130),736	3257,(10, 131),8	3265,(10, 144),28	3293,(10, 148),16	3309,(10, 154),100	3409,(10, 165),4	3413,(10, 171),72	3485,(10, 176),24	3509,(10, 177),20	3529,(10, 187),4	3533,(10, 192),16	3549,(19, 39),20	3569,(19, 40),12	3581,(19, 41),40	3621,(19, 62),32	3653,(19, 66),44	3697,(19, 71),68	3765,(19, 75),28	3793,(19, 84),4	3797,(19, 87),4	3801,(19, 100),12	3813,(19, 102),100	3913,(19, 104),16	3929,(19, 117),4	3933,(19, 119),24	3957,(19, 122),4	3961,(19, 142),84	4045,(19, 144),4	4049,(19, 146),4	4053,(5, 65),32	4085,(5, 71),48	4133,(5, 76),12	4145,(5, 79),12	4157,(5, 101),36	4193,(5, 103),144	4337,(5, 107),8	4345,(5, 110),24	4369,(5, 112),108	4477,(5, 126),48	4525,(5, 131),20	4545,(5, 157),28	4573,(5, 184),8	4581,(5, 200),4	4585,(8, 36),4	4589,(19, 176),116	4705,(19, 177),12	4717,(19, 183),152	4869,(19, 187),16	4885,(19, 193),4	4889,(1, 36),20	4909,(1, 39),64	4973,(1, 43),64	5037,(8, 39),4	5041,(1, 53),36	5077,(1, 59),28	5105,(1, 72),8	5113,(1, 74),72	5185,(1, 85),4	5189,(1, 87),40	5229,(1, 101),4	5233,(1, 102),4	5237,(1, 104),4	5241,(1, 105),4	5245,(1, 107),28	5273,(1, 109),8	5281,(1, 110),24	5305,(1, 112),64	5369,(1, 123),516	5885,(1, 128),36	5921,(1, 132),112	6033,(1, 142),12	6045,(1, 146),4	6049,(1, 152),32	6081,(8, 53),4	6085,(1, 163),60	6145,(1, 164),16	6161,(1, 171),4	6165,(1, 178),32	6197,(1, 184),20	6217,(1, 194),8	6225,(1, 200),88	6313,(13, 28),4	6317,(13, 30),4	6321,(13, 56),60	6381,(13, 63),500	6881,(13, 70),24	6905,(13, 81),4	6909,(13, 84),4	6913,(13, 91),148	7061,(13, 96),4	7065,(13, 106),12	7077,(13, 109),4	7081,(13, 113),4	7085,(13, 125),8	7093,(13, 127),4	7097,(13, 131),8	7105,(13, 136),36	7141,(13, 162),32	7173,(13, 165),88	7261,(13, 180),124	7385,(13, 183),4	7389,(16, 39),8	7397,(16, 40),4	7401,(16, 44),4	7405,(16, 47),4	7409,(16, 48),16	7425,(5, 145),108	7533,(5, 167),40	7573,(5, 181),40	7613,(25, 201),20	7633,(8, 37),12	7645,(16, 55),48	7693,(16, 56),4	7697,(16, 57),4	7701,(16, 64),116	7817,(16, 66),64	7881,(16, 74),16	7897,(16, 87),4	7901,(16, 91),40	7941,(16, 98),8	7949,(16, 101),232	8181,(16, 123),4	8185,(16, 127),16	8201,(16, 130),44	8245,(16, 142),8	8253,(16, 143),4	8257,(16, 146),4	8261,(16, 151),124	8385,(16, 152),32	8417,(16, 153),4	8421,(16, 163),60	8481,(16, 179),8	8489,(16, 184),4	8493,(16, 185),16	8509,(16, 191),20	8529,(16, 193),40	8569,(16, 194),100	8669,(8, 55),4	8673,(8, 84),12	8685,(8, 99),4	8689,(4, 28),176	8865,(8, 35),28	8893,(8, 171),4	8897,(4, 34),132	9029,(4, 39),12	9041,(4, 40),20	9061,(4, 45),4	9065,(4, 55),52	9117,(4, 59),16	9133,(4, 61),4	9137,(4, 72),36	9173,(4, 79),72	9245,(4, 84),8	9253,(4, 98),4	9257,(4, 99),36	9293,(4, 135),24	9317,(4, 136),132	9449,(4, 142),56	9505,(4, 147),4	9509,(4, 148),20	9529,(4, 164),16	9545,(4, 165),60	9605,(4, 171),60	9665,(4, 174),4	9669,(4, 181),4	9673,(4, 189),28	9701,(4, 193),4	9705,(4, 196),4	9709,(8, 175),4	9713,(7, 31),20	9733,(7, 35),4	9737,(7, 39),16	9753,(7, 67),4	9757,(7, 69),56	9813,(7, 80),144	9957,(7, 82),96	10053,(7, 92),32	10085,(7, 104),12	10097,(7, 107),40	10137,(7, 117),16	10153,(7, 121),40	10193,(7, 123),20	10213,(7, 143),12	10225,(7, 164),24	10249,(7, 173),16	10265,(7, 187),16	10281,(7, 200),4	10285,(5, 132),236	10521,(5, 166),236	10757,(5, 182),392	11149,(5, 188),104	11253,(52, 201),20	11273,(8, 33),60	11333,(8, 40),68	11401,(8, 50),56	11457,(8, 103),100	11557,(8, 108),8	11565,(8, 129),96	11661,(8, 150),8	11669,(8, 151),56	11725,(8, 163),16	11741,(8, 172),8	11749,(8, 173),172	11921,(8, 176),24	11945,(8, 184),12	11957,(8, 191),4	11961,(8, 196),4	11965,(11, 34),168	12133,(11, 38),192	12325,(11, 40),32	12357,(11, 45),4	12361,(11, 47),4	12365,(11, 54),84	12449,(11, 55),8	12457,(11, 59),8	12465,(11, 61),8	12473,(11, 64),256	12729,(11, 65),168	12897,(11, 67),4	12901,(11, 71),4	12905,(11, 72),8	12913,(11, 82),32	12945,(11, 85),4	12949,(11, 86),60	13009,(11, 89),16	13025,(11, 105),4	13029,(11, 109),476	13505,(11, 110),92	13597,(11, 124),16	13613,(11, 132),148	13761,(11, 138),76	13837,(11, 145),4	13841,(11, 148),36	13877,(11, 151),40	13917,(11, 159),4	13921,(11, 160),120	14041,(11, 174),72	14113,(11, 180),316	14429,(11, 181),112	14541,(11, 182),200	14741,(11, 186),4	14745,(11, 197),16	14761,(21, 201),20	14781,(14, 26),24	14805,(14, 27),116	14921,(14, 28),80	15001,(14, 37),12	15013,(14, 38),56	15069,(14, 43),4	15073,(14, 48),140	15213,(14, 62),20	15233,(14, 117),40	15273,(14, 118),68	15341,(14, 121),4	15345,(14, 128),20	15365,(14, 129),4	15369,(14, 159),4	15373,(14, 160),192	15565,(14, 164),4	15569,(14, 166),16	15585,(14, 175),92	15677,(14, 176),4	15681,(14, 200),156	15837,(17, 34),16	15853,(17, 42),4	15857,(17, 54),44	15901,(17, 60),4	15905,(17, 68),120	16025,(17, 70),4	16029,(17, 75),12	16041,(17, 80),12	16053,(17, 84),12	16065,(17, 91),56	16121,(17, 95),8	16129,(17, 97),20	16149,(17, 99),8	16157,(17, 101),16	16173,(17, 108),4	16177,(17, 113),24	16201,(17, 114),196	16397,(17, 118),48	16445,(17, 119),28	16473,(17, 120),16	16489,(17, 136),4	16493,(17, 141),44	16537,(17, 152),20	16557,(17, 159),16	16573,(17, 165),280	16853,(17, 190),64	16917,(20, 27),24	16941,(20, 33),4	16945,(20, 40),20	16965,(20, 44),4	16969,(20, 46),36	17005,(20, 59),60	17065,(20, 63),16	17081,(20, 66),276	17357,(20, 67),16	17373,(20, 77),4	17377,(20, 80),4	17381,(20, 82),4	17385,(20, 89),20	17405,(20, 102),4	17409,(20, 103),4	17413,(20, 108),16	17429,(20, 129),152	17581,(20, 144),168	17749,(20, 149),16	17765,(20, 152),4	17769,(20, 154),36	17805,(20, 158),168	17973,(20, 160),24	17997,(22, 201),20	18017,(29, 201),20	18037,(24, 201),20	20217,(20, 168),4	20221,(20, 185),8	20229,(20, 188),40	20269,(20, 190),56	20325,(20, 194),12	20337,(20, 196),4	20341,(58, 201),20	20361,(156, 201),20	20381,(49, 201),20	20401,(32, 201),20	20421,(23, 201),20	20441,(161, 201),20	
1,(0, 2),152	305,(0, 5),152	609,(0, 8),152	913,(0, 11),152	1217,(0, 14),152	1521,(0, 17),152	1825,(0, 20),152	2101,(10, 49),4	2105,(6, 32),1372	3925,(12, 23),4	3929,(12, 32),84	4053,(19, 156),536	4589,(18, 58),388	5037,(1, 49),4	6081,(1, 156),4	7425,(16, 49),220	8669,(4, 23),20	8865,(4, 32),32	9709,(7, 23),4	
457,(2, 161),16	473,(5, 21),16	489,(5, 52),20	1066,(11, 21),4	1070,(11, 22),16	1086,(11, 29),32	3477,(9, 22),276	3753,(9, 29),172	4013,(15, 22),12	4025,(15, 29),4	4029,(18, 24),88	17997,(20, 161),2220	
# Outgoing
2105,(6, 32),1372	3477,(9, 22),276	3753,(9, 29),172	3925,(12, 23),4	3929,(12, 32),84	4013,(15, 22),12	4025,(15, 29),4	4029,(18, 24),88	4589,(18, 58),388	
305,(2, 34),8	313,(2, 38),20	333,(2, 42),4	337,(2, 73),52	389,(2, 74),4	393,(2, 86),20	413,(2, 87),32	445,(2, 88),4	449,(2, 89),4	453,(2, 101),4	457,(2, 161),16	473,(5, 21),16	489,(5, 52),20	609,(2, 91),28	637,(2, 93),28	665,(2, 95),20	685,(2, 116),12	697,(2, 119),24	721,(2, 122),4	725,(2, 137),20	745,(2, 178),4	749,(2, 180),4	753,(2, 185),4	757,(5, 83),4	913,(2, 141),20	933,(2, 145),32	965,(2, 152),88	1053,(2, 193),12	1066,(11, 21),4	1070,(11, 22),16	1086,(11, 29),32	1217,(2, 155),132	1349,(2, 197),12	1361,(5, 63),8	1521,(2, 168),40	1561,(2, 182),24	1585,(2, 200),20	1605,(5, 42),28	1633,(5, 59),16	1649,(5, 74),16	1665,(5, 85),4	1669,(5, 96),4	1825,(2, 189),144	1969,(5, 100),4	1973,(5, 135),4	2101,(5, 194),4	4053,(5, 65),32	4085,(5, 71),48	4133,(5, 76),12	4145,(5, 79),12	4157,(5, 101),36	4193,(5, 103),144	4337,(5, 107),8	4345,(5, 110),24	4369,(5, 112),108	4477,(5, 126),48	4525,(5, 131),20	4545,(5, 157),28	4573,(5, 184),8	4581,(5, 200),4	4585,(8, 36),4	5037,(8, 39),4	6081,(8, 53),4	7425,(5, 145),108	7533,(5, 167),40	7573,(5, 181),40	7613,(25, 201),20	7633,(8, 37),12	8669,(8, 55),4	8673,(8, 84),12	8685,(8, 99),4	8865,(8, 35),28	8893,(8, 171),4	9709,(8, 175),4	10285,(5, 132),236	10521,(5, 166),236	10757,(5, 182),392	11149,(5, 188),104	11273,(8, 33),60	11333,(8, 40),68	11401,(8, 50),56	11457,(8, 103),100	11557,(8, 108),8	11565,(8, 129),96	11661,(8, 150),8	11669,(8, 151),56	11725,(8, 163),16	11741,(8, 172),8	11749,(8, 173),172	11921,(8, 176),24	11945,(8, 184),12	11957,(8, 191),4	11961,(8, 196),4	11965,(11, 34),168	12133,(11, 38),192	12325,(11, 40),32	12357,(11, 45),4	12361,(11, 47),4	12365,(11, 54),84	12449,(11, 55),8	12457,(11, 59),8	12465,(11, 61),8	12473,(11, 64),256	12729,(11, 65),168	12897,(11, 67),4	12901,(11, 71),4	12905,(11, 72),8	12913,(11, 82),32	12945,(11, 85),4	12949,(11, 86),60	13009,(11, 89),16	13025,(11, 105),4	13029,(11, 109),476	13505,(11, 110),92	13597,(11, 124),16	13613,(11, 132),148	13761,(11, 138),76	13837,(11, 145),4	13841,(11, 148),36	13877,(11, 151),40	13917,(11, 159),4	13921,(11, 160),120	14041,(11, 174),72	14113,(11, 180),316	14429,(11, 181),112	14541,(11, 182),200	14741,(11, 186),4	14745,(11, 197),16	14781,(14, 26),24	14805,(14, 27),116	14921,(14, 28),80	15001,(14, 37),12	15013,(14, 38),56	15069,(14, 43),4	15073,(14, 48),140	15213,(14, 62),20	15233,(14, 117),40	15273,(14, 118),68	15341,(14, 121),4	15345,(14, 128),20	15365,(14, 129),4	15369,(14, 159),4	15373,(14, 160),192	15565,(14, 164),4	15569,(14, 166),16	15585,(14, 175),92	15677,(14, 176),4	15681,(14, 200),156	15837,(17, 34),16	15853,(17, 42),4	15857,(17, 54),44	15901,(17, 60),4	15905,(17, 68),120	16025,(17, 70),4	16029,(17, 75),12	16041,(17, 80),12	16053,(17, 84),12	16065,(17, 91),56	16121,(17, 95),8	16129,(17, 97),20	16149,(17, 99),8	16157,(17, 101),16	16173,(17, 108),4	16177,(17, 113),24	16201,(17, 114),196	16397,(17, 118),48	16445,(17, 119),28	16473,(17, 120),16	16489,(17, 136),4	16493,(17, 141),44	16537,(17, 152),20	16557,(17, 159),16	16573,(17, 165),280	16853,(17, 190),64	16917,(20, 27),24	16941,(20, 33),4	16945,(20, 40),20	16965,(20, 44),4	16969,(20, 46),36	17005,(20, 59),60	17065,(20, 63),16	17081,(20, 66),276	17357,(20, 67),16	17373,(20, 77),4	17377,(20, 80),4	17381,(20, 82),4	17385,(20, 89),20	17405,(20, 102),4	17409,(20, 103),4	17413,(20, 108),16	17429,(20, 129),152	17581,(20, 144),168	17749,(20, 149),16	17765,(20, 152),4	17769,(20, 154),36	17805,(20, 158),168	17973,(20, 160),24	17997,(20, 161),2220	20217,(20, 168),4	20221,(20, 185),8	20229,(20, 188),40	20269,(20, 190),56	20325,(20, 194),12	20337,(20, 196),4	20341,(58, 201),20	20361,(156, 201),20	20381,(49, 201),20	20401,(32, 201),20	20421,(23, 201),20	
1,(0, 2),152	153,(0, 3),152	305,(0, 5),152	457,(0, 6),152	609,(0, 8),152	761,(0, 9),152	913,(0, 11),152	1065,(0, 12),152	1217,(0, 14),152	1369,(0, 15),152	1521,(0, 17),152	1673,(0, 18),152	1825,(0, 20),152	1977,(10, 26),24	2001,(10, 33),8	2009,(10, 35),4	2013,(10, 44),84	2097,(10, 46),4	2101,(10, 49),4	2105,(10, 56),20	2125,(10, 61),36	2161,(10, 67),4	2165,(10, 78),8	2173,(10, 79),36	2209,(10, 90),12	2221,(10, 108),76	2297,(10, 114),28	2325,(10, 115),4	2329,(10, 117),16	2345,(10, 120),36	2381,(10, 126),92	2473,(10, 127),48	2521,(10, 130),736	3257,(10, 131),8	3265,(10, 144),28	3293,(10, 148),16	3309,(10, 154),100	3409,(10, 165),4	3413,(10, 171),72	3485,(10, 176),24	3509,(10, 177),20	3529,(10, 187),4	3533,(10, 192),16	3549,(19, 39),20	3569,(19, 40),12	3581,(19, 41),40	3621,(19, 62),32	3653,(19, 66),44	3697,(19, 71),68	3765,(19, 75),28	3793,(19, 84),4	3797,(19, 87),4	3801,(19, 100),12	3813,(19, 102),100	3913,(19, 104),16	3929,(19, 117),4	3933,(19, 119),24	3957,(19, 122),4	3961,(19, 142),84	4045,(19, 144),4	4049,(19, 146),4	4053,(19, 156),536	4589,(19, 176),116	4705,(19, 177),12	4717,(19, 183),152	4869,(19, 187),16	4885,(19, 193),4	4889,(1, 36),20	4909,(1, 39),64	4973,(1, 43),64	5037,(1, 49),4	5041,(1, 53),36	5077,(1, 59),28	5105,(1, 72),8	5113,(1, 74),72	5185,(1, 85),4	5189,(1, 87),40	5229,(1, 101),4	5233,(1, 102),4	5237,(1, 104),4	5241,(1, 105),4	5245,(1, 107),28	5273,(1, 109),8	5281,(1, 110),24	5305,(1, 112),64	5369,(1, 123),516	5885,(1, 128),36	5921,(1, 132),112	6033,(1, 142),12	6045,(1, 146),4	6049,(1, 152),32	6081,(1, 156),4	6085,(1, 163),60	6145,(1, 164),16	6161,(1, 171),4	6165,(1, 178),32	6197,(1, 184),20	6217,(1, 194),8	6225,(1, 200),88	6313,(13, 28),4	6317,(13, 30),4	6321,(13, 56),60	6381,(13, 63),500	6881,(13, 70),24	6905,(13, 81),4	6909,(13, 84),4	6913,(13, 91),148	7061,(13, 96),4	7065,(13, 106),12	7077,(13, 109),4	7081,(13, 113),4	7085,(13, 125),8	7093,(13, 127),4	7097,(13, 131),8	7105,(13, 136),36	7141,(13, 162),32	7173,(13, 165),88	7261,(13, 180),124	7385,(13, 183),4	7389,(16, 39),8	7397,(16, 40),4	7401,(16, 44),4	7405,(16, 47),4	7409,(16, 48),16	7425,(16, 49),220	7645,(16, 55),48	7693,(16, 56),4	7697,(16, 57),4	7701,(16, 64),116	7817,(16, 66),64	7881,(16, 74),16	7897,(16, 87),4	7901,(16, 91),40	7941,(16, 98),8	7949,(16, 101),232	8181,(16, 123),4	8185,(16, 127),16	8201,(16, 130),44	8245,(16, 142),8	8253,(16, 143),4	8257,(16, 146),4	8261,(16, 151),124	8385,(16, 152),32	8417,(16, 153),4	8421,(16, 163),60	8481,(16, 179),8	8489,(16, 184),4	8493,(16, 185),16	8509,(16, 191),20	8529,(16, 193),40	8569,(16, 194),100	8669,(4, 23),20	8689,(4, 28),176	8865,(4, 32),32	8897,(4, 34),132	9029,(4, 39),12	9041,(4, 40),20	9061,(4, 45),4	9065,(4, 55),52	9117,(4, 59),16	9133,(4, 61),4	9137,(4, 72),36	9173,(4, 79),72	9245,(4, 84),8	9253,(4, 98),4	9257,(4, 99),36	9293,(4, 135),24	9317,(4, 136),132	9449,(4, 142),56	9505,(4, 147),4	9509,(4, 148),20	9529,(4, 164),16	9545,(4, 165),60	9605,(4, 171),60	9665,(4, 174),4	9669,(4, 181),4	9673,(4, 189),28	9701,(4, 193),4	9705,(4, 196),4	9709,(7, 23),4	9713,(7, 31),20	9733,(7, 35),4	9737,(7, 39),16	9753,(7, 67),4	9757,(7, 69),56	9813,(7, 80),144	9957,(7, 82),96	10053,(7, 92),32	10085,(7, 104),12	10097,(7, 107),40	10137,(7, 117),16	10153,(7, 121),40	10193,(7, 123),20	10213,(7, 143),12	10225,(7, 164),24	10249,(7, 173),16	10265,(7, 187),16	10281,(7, 200),4	11253,(52, 201),20	14761,(21, 201),20	17997,(22, 201),20	18017,(29, 201),20	18037,(24, 201),20	20441,(161, 201),20	
