5189
# CPU
25,2,3	49,4,3	73,6,3	97,8,3	1005,34,3	1549,54,3	2329,62,3	2869,14,3	2905,16,3	2953,20,3	3481,36,3	3557,42,3	3737,60,3	3897,24,3	3929,32,3	3937,38,3	4049,40,3	4065,46,3	4329,52,3	4345,56,3	4397,64,3	4453,68,3	4457,70,3	4521,72,3	4621,10,3	4653,12,3	4865,18,3	4869,22,3	4873,26,3	4877,28,3	4881,30,3	4885,44,3	4889,48,3	4917,50,3	5041,58,3	5101,66,3	5121,74,3	5125,76,3	5129,78,3	5145,80,3	
0,0,1	1,1,3	4,5,3	7,7,3	10,3,3	13,39,3	16,55,3	19,65,3	2340,33,3	2868,15,3	2872,17,3	2876,19,3	2880,21,3	2900,23,3	2928,27,3	3328,43,3	3364,51,3	3524,59,3	3624,71,3	3656,77,3	3684,9,3	3688,11,3	3708,13,3	3712,25,3	3716,29,3	3756,31,3	3760,35,3	4136,37,3	4140,41,3	4156,45,3	4160,47,3	4200,49,3	4212,53,3	4216,57,3	4220,61,3	4228,63,3	4280,67,3	4284,69,3	4296,73,3	4596,75,3	4600,79,3	5188,81,1	
# Incoming
1,(0, 2),24	25,(0, 4),24	49,(0, 6),24	73,(0, 8),24	97,(1, 10),220	317,(1, 16),556	873,(1, 18),4	877,(1, 22),4	881,(1, 24),20	901,(1, 30),52	953,(1, 32),16	969,(1, 34),36	1005,(1, 38),4	1009,(1, 40),12	1021,(1, 42),12	1033,(1, 44),480	1513,(1, 48),8	1521,(1, 50),16	1537,(1, 54),12	1549,(1, 60),372	1921,(1, 62),408	2329,(1, 64),136	2465,(1, 68),40	2505,(1, 72),108	2613,(1, 74),32	2645,(1, 76),4	2649,(1, 78),88	2737,(5, 10),64	2801,(5, 12),52	2853,(5, 14),16	2869,(5, 16),36	2905,(5, 18),36	2941,(5, 20),12	2953,(5, 22),20	2973,(5, 24),16	2989,(5, 26),12	3001,(5, 28),8	3009,(5, 36),472	3481,(5, 38),28	3509,(5, 40),28	3537,(5, 42),20	3557,(5, 44),84	3641,(5, 48),8	3649,(5, 50),12	3661,(5, 52),24	3685,(5, 56),4	3689,(5, 58),44	3733,(5, 60),4	3737,(5, 64),8	3745,(5, 70),8	3753,(5, 74),8	3761,(5, 76),40	3801,(7, 12),16	3817,(7, 22),60	3877,(7, 24),20	3897,(7, 26),4	3901,(7, 28),24	3925,(7, 32),4	3929,(7, 38),8	3937,(7, 40),112	4049,(7, 44),4	4053,(7, 46),12	4065,(7, 48),8	4073,(7, 50),4	4077,(7, 52),252	4329,(7, 56),16	4345,(7, 64),52	4397,(7, 66),52	4449,(7, 68),4	4453,(7, 70),4	4457,(7, 72),64	4521,(7, 80),12	4533,(3, 10),88	4621,(3, 12),32	4653,(3, 18),212	4865,(3, 22),4	4869,(3, 26),4	4873,(3, 28),4	4877,(3, 30),4	4881,(3, 44),4	4885,(3, 48),4	4889,(3, 50),28	4917,(3, 58),124	5041,(3, 66),60	5101,(3, 74),20	5121,(3, 76),4	5125,(3, 78),4	5129,(3, 80),16	
28,(2, 9),64	92,(2, 11),604	696,(2, 13),24	720,(2, 17),804	1524,(2, 19),4	1528,(2, 21),40	1568,(2, 25),8	1576,(2, 27),44	1620,(2, 29),24	1644,(2, 37),148	1792,(2, 57),40	1832,(2, 61),52	1884,(2, 69),4	1888,(2, 71),56	1944,(2, 73),48	1992,(2, 75),8	2000,(2, 77),4	2004,(4, 9),164	2168,(4, 11),36	2204,(4, 13),32	2236,(4, 19),8	2244,(4, 21),48	2292,(4, 23),24	2316,(4, 27),16	2332,(4, 29),4	2336,(4, 33),4	2340,(4, 35),4	2344,(4, 37),104	2448,(4, 41),16	2464,(4, 43),28	2492,(4, 47),12	2504,(4, 53),100	2604,(4, 63),20	2624,(4, 67),12	2636,(4, 69),4	2640,(4, 71),16	2656,(4, 75),136	2792,(4, 77),48	2840,(4, 79),4	2844,(6, 9),16	2860,(6, 11),4	2864,(6, 15),4	2868,(6, 17),4	2872,(6, 19),4	2876,(6, 21),4	2880,(6, 23),20	2900,(6, 25),12	2912,(6, 27),16	2928,(6, 31),112	3040,(6, 35),268	3308,(6, 37),8	3316,(6, 43),12	3328,(6, 45),16	3344,(6, 49),16	3360,(6, 51),4	3364,(6, 57),28	3392,(6, 59),132	3524,(6, 63),4	3528,(6, 69),88	3616,(6, 71),8	3624,(6, 73),24	3648,(6, 75),4	3652,(6, 77),4	3656,(6, 79),4	3660,(8, 9),24	3684,(8, 11),4	3688,(8, 13),20	3708,(8, 25),4	3712,(8, 29),4	3716,(8, 31),40	3756,(8, 35),4	3760,(8, 37),376	4136,(8, 41),4	4140,(8, 45),16	4156,(8, 47),4	4160,(8, 49),40	4200,(8, 53),12	4212,(8, 57),4	4216,(8, 61),4	4220,(8, 63),8	4228,(8, 67),52	4280,(8, 69),4	4284,(8, 73),12	4296,(8, 75),300	4596,(8, 79),4	4600,(34, 81),16	4616,(54, 81),16	4632,(62, 81),16	4648,(14, 81),16	4664,(16, 81),16	4680,(20, 81),16	4696,(36, 81),16	4712,(42, 81),16	4728,(60, 81),16	4744,(24, 81),16	4760,(32, 81),16	4776,(38, 81),16	4792,(40, 81),16	4808,(46, 81),16	4824,(52, 81),16	4840,(56, 81),16	4856,(64, 81),16	4872,(68, 81),16	4888,(70, 81),16	4904,(72, 81),16	4920,(10, 81),16	4936,(12, 81),16	4952,(18, 81),16	4968,(22, 81),16	4984,(26, 81),16	5000,(28, 81),16	5016,(30, 81),16	5032,(44, 81),16	5048,(48, 81),16	5064,(50, 81),16	5080,(58, 81),16	5104,(66, 81),16	5124,(74, 81),16	5140,(76, 81),16	5156,(78, 81),16	5172,(80, 81),16	
# Outgoing
28,(2, 9),64	92,(2, 11),604	696,(2, 13),24	720,(2, 17),804	1524,(2, 19),4	1528,(2, 21),40	1568,(2, 25),8	1576,(2, 27),44	1620,(2, 29),24	1644,(2, 37),148	1792,(2, 57),40	1832,(2, 61),52	1884,(2, 69),4	1888,(2, 71),56	1944,(2, 73),48	1992,(2, 75),8	2000,(2, 77),4	2004,(4, 9),164	2168,(4, 11),36	2204,(4, 13),32	2236,(4, 19),8	2244,(4, 21),48	2292,(4, 23),24	2316,(4, 27),16	2332,(4, 29),4	2336,(4, 33),4	2340,(4, 35),4	2344,(4, 37),104	2448,(4, 41),16	2464,(4, 43),28	2492,(4, 47),12	2504,(4, 53),100	2604,(4, 63),20	2624,(4, 67),12	2636,(4, 69),4	2640,(4, 71),16	2656,(4, 75),136	2792,(4, 77),48	2840,(4, 79),4	2844,(6, 9),16	2860,(6, 11),4	2864,(6, 15),4	2868,(6, 17),4	2872,(6, 19),4	2876,(6, 21),4	2880,(6, 23),20	2900,(6, 25),12	2912,(6, 27),16	2928,(6, 31),112	3040,(6, 35),268	3308,(6, 37),8	3316,(6, 43),12	3328,(6, 45),16	3344,(6, 49),16	3360,(6, 51),4	3364,(6, 57),28	3392,(6, 59),132	3524,(6, 63),4	3528,(6, 69),88	3616,(6, 71),8	3624,(6, 73),24	3648,(6, 75),4	3652,(6, 77),4	3656,(6, 79),4	3660,(8, 9),24	3684,(8, 11),4	3688,(8, 13),20	3708,(8, 25),4	3712,(8, 29),4	3716,(8, 31),40	3756,(8, 35),4	3760,(8, 37),376	4136,(8, 41),4	4140,(8, 45),16	4156,(8, 47),4	4160,(8, 49),40	4200,(8, 53),12	4212,(8, 57),4	4216,(8, 61),4	4220,(8, 63),8	4228,(8, 67),52	4280,(8, 69),4	4284,(8, 73),12	4296,(8, 75),300	4596,(8, 79),4	4600,(34, 81),16	4616,(54, 81),16	4632,(62, 81),16	4648,(14, 81),16	4664,(16, 81),16	4680,(20, 81),16	4696,(36, 81),16	4712,(42, 81),16	4728,(60, 81),16	4744,(24, 81),16	4760,(32, 81),16	4776,(38, 81),16	4792,(40, 81),16	4808,(46, 81),16	4824,(52, 81),16	4840,(56, 81),16	4856,(64, 81),16	4872,(68, 81),16	4888,(70, 81),16	4904,(72, 81),16	4920,(10, 81),16	4936,(12, 81),16	4952,(18, 81),16	4968,(22, 81),16	4984,(26, 81),16	5000,(28, 81),16	5016,(30, 81),16	5032,(44, 81),16	5048,(48, 81),16	5064,(50, 81),16	5080,(58, 81),16	5104,(66, 81),16	5124,(74, 81),16	5140,(76, 81),16	5156,(78, 81),16	5172,(80, 81),16	
1,(0, 2),24	25,(0, 4),24	49,(0, 6),24	73,(0, 8),24	97,(1, 10),220	317,(1, 16),556	873,(1, 18),4	877,(1, 22),4	881,(1, 24),20	901,(1, 30),52	953,(1, 32),16	969,(1, 34),36	1005,(1, 38),4	1009,(1, 40),12	1021,(1, 42),12	1033,(1, 44),480	1513,(1, 48),8	1521,(1, 50),16	1537,(1, 54),12	1549,(1, 60),372	1921,(1, 62),408	2329,(1, 64),136	2465,(1, 68),40	2505,(1, 72),108	2613,(1, 74),32	2645,(1, 76),4	2649,(1, 78),88	2737,(5, 10),64	2801,(5, 12),52	2853,(5, 14),16	2869,(5, 16),36	2905,(5, 18),36	2941,(5, 20),12	2953,(5, 22),20	2973,(5, 24),16	2989,(5, 26),12	3001,(5, 28),8	3009,(5, 36),472	3481,(5, 38),28	3509,(5, 40),28	3537,(5, 42),20	3557,(5, 44),84	3641,(5, 48),8	3649,(5, 50),12	3661,(5, 52),24	3685,(5, 56),4	3689,(5, 58),44	3733,(5, 60),4	3737,(5, 64),8	3745,(5, 70),8	3753,(5, 74),8	3761,(5, 76),40	3801,(7, 12),16	3817,(7, 22),60	3877,(7, 24),20	3897,(7, 26),4	3901,(7, 28),24	3925,(7, 32),4	3929,(7, 38),8	3937,(7, 40),112	4049,(7, 44),4	4053,(7, 46),12	4065,(7, 48),8	4073,(7, 50),4	4077,(7, 52),252	4329,(7, 56),16	4345,(7, 64),52	4397,(7, 66),52	4449,(7, 68),4	4453,(7, 70),4	4457,(7, 72),64	4521,(7, 80),12	4533,(3, 10),88	4621,(3, 12),32	4653,(3, 18),212	4865,(3, 22),4	4869,(3, 26),4	4873,(3, 28),4	4877,(3, 30),4	4881,(3, 44),4	4885,(3, 48),4	4889,(3, 50),28	4917,(3, 58),124	5041,(3, 66),60	5101,(3, 74),20	5121,(3, 76),4	5125,(3, 78),4	5129,(3, 80),16	
