14054
# CPU
0,0,1	1,11,14	15,17,14	29,2,14	43,16,14	57,4,14	71,7,14	85,9,14	99,19,14	113,18,14	127,8,14	141,3,14	155,5,14	169,132,14	183,14,14	197,159,14	211,10,14	225,82,14	239,183,14	253,15,14	267,108,14	281,22,14	295,98,14	309,87,14	323,37,14	337,154,14	351,136,14	365,83,14	379,33,14	393,46,14	407,135,14	421,129,14	435,93,14	449,96,14	463,153,14	477,188,14	491,28,14	505,73,14	519,175,14	533,106,14	547,187,14	561,167,14	575,124,14	589,102,14	603,56,14	617,156,14	631,103,14	645,29,14	659,65,14	673,40,14	687,58,14	701,147,14	715,123,14	729,34,14	753,166,14	767,79,14	781,75,14	797,25,14	813,118,14	829,178,14	845,190,14	861,150,14	879,177,14	897,89,14	915,94,14	935,120,14	955,105,14	977,145,14	999,115,14	1023,44,14	1047,127,14	1073,158,14	1099,70,14	1125,146,14	1151,193,14	1179,32,14	1207,92,14	1235,164,14	1263,101,14	1291,77,14	1319,194,14	1349,51,14	1379,43,14	1409,174,14	1439,112,14	1469,66,14	1499,31,14	1531,24,14	1565,53,14	1599,113,14	1633,49,14	1669,38,14	1705,162,14	1741,97,14	1777,21,14	1815,80,14	1853,57,14	1893,26,14	1933,148,14	1975,27,14	2017,60,14	2059,121,14	2101,35,14	2145,99,14	2189,182,14	2235,104,14	2281,42,14	2329,155,14	2377,81,14	2427,125,14	2477,170,14	2527,119,14	2577,171,14	2629,186,14	2681,173,14	2735,23,14	2789,61,14	2843,152,14	2897,142,14	2951,157,14	3007,68,14	3065,134,14	3123,117,14	3181,36,14	3239,180,14	3299,100,14	3361,50,14	3423,168,14	3485,181,14	3547,131,14	3609,72,14	3675,184,14	3741,116,14	3809,55,14	3877,122,14	3945,74,14	4013,95,14	4083,197,14	4157,139,14	4235,109,14	4313,149,14	4393,114,14	4477,172,14	4563,199,14	4651,91,14	4745,196,14	4843,45,14	4941,130,14	5041,179,14	5145,67,14	5251,161,14	5373,111,14	5497,63,14	5621,189,14	5747,30,14	5881,192,14	6015,140,14	6149,107,14	6285,76,14	6431,78,14	6581,185,14	6737,59,14	6897,198,14	7059,195,14	7223,133,14	7401,200,14	7585,165,14	7769,169,14	7967,88,14	8183,54,14	8401,151,14	8683,110,14	8987,41,14	9297,191,14	9621,85,14	9955,62,14	10317,48,14	10687,141,14	11117,176,14	11715,52,14	12329,64,14	13027,47,14	14039,69,14	14053,201,1	
37,20,14	73,13,14	109,12,14	145,6,14	181,1,14	197,137,14	223,128,14	255,90,14	285,160,14	315,84,14	349,163,14	395,39,14	441,143,14	487,86,14	539,126,14	591,144,14	645,138,14	699,71,14	
# Incoming
51,(20, 159),4	55,(20, 83),2	57,(20, 129),4	61,(20, 153),4	65,(20, 28),2	67,(20, 56),4	71,(20, 40),10	81,(20, 58),4	85,(20, 34),2	87,(13, 159),2	89,(13, 136),2	91,(13, 83),2	93,(13, 33),2	95,(13, 96),6	101,(13, 175),2	103,(13, 106),8	111,(13, 187),6	117,(13, 167),2	119,(13, 40),2	121,(13, 58),2	123,(12, 154),2	125,(12, 46),4	129,(12, 93),6	135,(12, 28),2	137,(12, 73),4	141,(12, 175),6	147,(12, 102),2	149,(13, 56),6	155,(12, 103),2	157,(12, 123),2	159,(6, 87),2	161,(6, 33),2	163,(6, 135),4	167,(6, 129),2	169,(6, 28),2	171,(6, 73),2	173,(6, 187),2	175,(6, 102),2	177,(13, 156),8	185,(6, 103),10	195,(1, 37),2	197,(1, 153),2	199,(1, 188),6	205,(1, 73),2	207,(1, 156),2	209,(6, 65),2	211,(137, 201),34	245,(128, 201),34	279,(90, 201),34	313,(160, 201),34	347,(84, 201),34	381,(163, 201),34	415,(39, 201),34	449,(1, 167),6	455,(143, 201),34	489,(1, 124),10	499,(1, 58),2	501,(86, 201),34	535,(1, 102),6	541,(6, 29),12	553,(126, 201),34	587,(12, 65),10	597,(12, 58),4	601,(1, 147),2	603,(20, 166),2	605,(144, 201),34	639,(12, 147),10	649,(13, 166),2	651,(12, 166),8	659,(138, 201),34	693,(1, 123),12	705,(1, 34),12	717,(71, 201),34	751,(6, 166),2	753,(20, 79),4	757,(12, 79),10	767,(20, 75),6	773,(13, 75),8	781,(12, 25),14	795,(1, 25),2	797,(13, 118),6	803,(6, 118),4	807,(1, 118),6	813,(13, 178),8	821,(12, 178),2	823,(1, 178),6	829,(12, 190),10	839,(1, 190),6	845,(13, 150),6	851,(1, 150),10	861,(13, 177),12	873,(12, 177),2	875,(6, 177),4	879,(20, 89),16	895,(1, 89),2	897,(20, 94),12	909,(12, 94),2	911,(6, 94),4	915,(13, 120),10	925,(12, 120),8	933,(6, 120),2	935,(20, 105),2	937,(1, 105),18	955,(13, 145),2	957,(12, 145),8	965,(1, 145),12	977,(13, 115),2	979,(12, 115),2	981,(6, 115),18	999,(20, 44),2	1001,(13, 44),10	1011,(6, 44),12	1023,(13, 127),4	1027,(12, 127),2	1029,(1, 127),18	1047,(1, 158),26	1073,(20, 70),8	1081,(13, 70),14	1095,(6, 70),4	1099,(20, 146),20	1119,(6, 146),6	1125,(13, 193),6	1131,(1, 193),20	1151,(13, 32),8	1159,(12, 32),18	1177,(6, 32),2	1179,(13, 92),22	1201,(1, 92),6	1207,(20, 164),2	1209,(13, 164),18	1227,(6, 164),8	1235,(12, 101),14	1249,(6, 101),14	1263,(20, 77),2	1265,(13, 77),8	1273,(12, 77),2	1275,(6, 77),16	1291,(1, 194),28	1319,(20, 51),20	1339,(6, 51),10	1349,(20, 43),8	1357,(12, 43),10	1367,(6, 43),8	1375,(1, 43),4	1379,(20, 174),8	1387,(13, 174),8	1395,(1, 174),14	1409,(20, 112),2	1411,(6, 112),20	1431,(1, 112),8	1439,(20, 66),2	1441,(13, 66),8	1449,(12, 66),4	1453,(6, 66),14	1467,(1, 66),2	1469,(13, 31),4	1473,(12, 31),8	1481,(6, 31),4	1485,(1, 31),14	1499,(13, 24),10	1509,(12, 24),22	1531,(20, 53),2	1533,(13, 53),30	1563,(6, 53),2	1565,(20, 113),14	1579,(6, 113),14	1593,(1, 113),6	1599,(20, 49),24	1623,(13, 49),4	1627,(1, 49),6	1633,(20, 38),34	1667,(6, 38),2	1669,(20, 162),4	1673,(13, 162),14	1687,(12, 162),16	1703,(6, 162),2	1705,(20, 97),18	1723,(13, 97),6	1729,(6, 97),12	1741,(13, 21),36	1777,(13, 80),20	1797,(1, 80),18	1815,(20, 57),6	1821,(13, 57),32	1853,(13, 26),22	1875,(12, 26),18	1893,(6, 148),38	1931,(1, 148),2	1933,(20, 27),4	1937,(13, 27),20	1957,(12, 27),18	1975,(20, 60),6	1981,(12, 60),10	1991,(6, 60),2	1993,(1, 60),24	2017,(20, 121),42	2059,(13, 35),28	2087,(12, 35),8	2095,(6, 35),2	2097,(1, 35),4	2101,(20, 99),6	2107,(13, 99),6	2113,(12, 99),2	2115,(6, 99),10	2125,(1, 99),20	2145,(13, 182),20	2165,(12, 182),2	2167,(6, 182),4	2171,(1, 182),18	2189,(12, 104),32	2221,(6, 104),12	2233,(1, 104),2	2235,(12, 42),26	2261,(6, 42),20	2281,(13, 155),12	2293,(1, 155),36	2329,(13, 81),2	2331,(12, 81),38	2369,(6, 81),8	2377,(13, 125),10	2387,(6, 125),38	2425,(1, 125),2	2427,(13, 170),44	2471,(12, 170),4	2475,(6, 170),2	2477,(6, 119),50	2527,(20, 171),2	2529,(13, 171),44	2573,(12, 171),2	2575,(6, 171),2	2577,(20, 186),2	2579,(13, 186),6	2585,(12, 186),2	2587,(6, 186),24	2611,(1, 186),18	2629,(6, 173),52	2681,(13, 23),34	2715,(6, 23),4	2719,(1, 23),16	2735,(20, 61),54	2789,(20, 152),10	2799,(6, 152),22	2821,(1, 152),22	2843,(12, 142),28	2871,(6, 142),14	2885,(1, 142),12	2897,(13, 157),36	2933,(12, 157),6	2939,(6, 157),12	2951,(13, 68),2	2953,(12, 68),36	2989,(6, 68),4	2993,(1, 68),14	3007,(13, 134),18	3025,(12, 134),8	3033,(6, 134),26	3059,(1, 134),6	3065,(20, 117),58	3123,(13, 36),24	3147,(1, 36),34	3181,(20, 180),4	3185,(6, 180),54	3239,(20, 100),8	3247,(6, 100),34	3281,(1, 100),18	3299,(20, 50),2	3301,(13, 50),48	3349,(6, 50),12	3361,(20, 168),24	3385,(13, 168),10	3395,(12, 168),26	3421,(1, 168),2	3423,(20, 181),54	3477,(13, 181),8	3485,(20, 131),22	3507,(13, 131),12	3519,(6, 131),26	3545,(1, 131),2	3547,(20, 72),10	3557,(13, 72),50	3607,(1, 72),2	3609,(13, 184),28	3637,(12, 184),34	3671,(1, 184),4	3675,(20, 116),2	3677,(13, 116),36	3713,(6, 116),2	3715,(1, 116),26	3741,(20, 55),2	3743,(13, 55),2	3745,(12, 55),16	3761,(6, 55),2	3763,(1, 55),46	3809,(20, 122),30	3839,(12, 122),2	3841,(1, 122),36	3877,(20, 74),42	3919,(12, 74),4	3923,(6, 74),10	3933,(1, 74),12	3945,(20, 95),66	4011,(6, 95),2	4013,(6, 197),6	4019,(1, 197),64	4083,(12, 139),4	4087,(6, 139),2	4089,(1, 139),68	4157,(20, 109),8	4165,(13, 109),8	4173,(6, 109),60	4233,(1, 109),2	4235,(13, 149),30	4265,(12, 149),2	4267,(6, 149),46	4313,(13, 114),78	4391,(12, 114),2	4393,(13, 172),2	4395,(12, 172),78	4473,(1, 172),4	4477,(12, 199),82	4559,(1, 199),4	4563,(20, 91),10	4573,(13, 91),4	4577,(12, 91),58	4635,(6, 91),16	4651,(13, 196),2	4653,(6, 196),6	4659,(1, 196),86	4745,(13, 45),40	4785,(12, 45),20	4805,(6, 45),14	4819,(1, 45),24	4843,(20, 130),94	4937,(12, 130),2	4939,(6, 130),2	4941,(20, 179),94	5035,(13, 179),2	5037,(1, 179),4	5041,(12, 67),56	5097,(1, 67),48	5145,(20, 161),98	5243,(13, 161),6	5249,(6, 161),2	5251,(12, 111),114	5365,(1, 111),8	5373,(20, 63),22	5395,(13, 63),76	5471,(12, 63),26	5497,(12, 189),2	5499,(1, 189),122	5621,(20, 30),2	5623,(12, 30),28	5651,(1, 30),96	5747,(13, 192),120	5867,(12, 192),12	5879,(1, 192),2	5881,(20, 140),6	5887,(12, 140),4	5891,(6, 140),124	6015,(6, 107),76	6091,(1, 107),58	6149,(20, 76),62	6211,(13, 76),52	6263,(6, 76),2	6265,(1, 76),20	6285,(20, 78),18	6303,(13, 78),110	6413,(12, 78),18	6431,(20, 185),140	6571,(13, 185),6	6577,(1, 185),4	6581,(12, 59),62	6643,(6, 59),92	6735,(1, 59),2	6737,(13, 198),94	6831,(12, 198),36	6867,(6, 198),2	6869,(1, 198),28	6897,(20, 195),90	6987,(13, 195),50	7037,(6, 195),20	7057,(1, 195),2	7059,(20, 133),16	7075,(13, 133),16	7091,(12, 133),62	7153,(1, 133),70	7223,(20, 200),90	7313,(12, 200),2	7315,(6, 200),58	7373,(1, 200),28	7401,(20, 165),2	7403,(13, 165),14	7417,(12, 165),14	7431,(6, 165),154	7585,(20, 169),8	7593,(13, 169),4	7597,(12, 169),170	7767,(1, 169),2	7769,(20, 88),172	7941,(12, 88),26	7967,(13, 54),158	8125,(6, 54),10	8135,(1, 54),48	8183,(20, 151),50	8233,(13, 151),6	8239,(12, 151),38	8277,(1, 151),124	8401,(20, 110),32	8433,(13, 110),18	8451,(12, 110),92	8543,(6, 110),2	8545,(1, 110),138	8683,(20, 41),298	8981,(12, 41),4	8985,(6, 41),2	8987,(20, 191),38	9025,(13, 191),172	9197,(12, 191),4	9201,(6, 191),76	9277,(1, 191),20	9297,(20, 85),318	9615,(13, 85),4	9619,(6, 85),2	9621,(20, 62),58	9679,(13, 62),34	9713,(12, 62),238	9951,(1, 62),4	9955,(1, 48),362	10317,(13, 141),350	10667,(6, 141),20	10687,(12, 176),430	11117,(12, 52),588	11705,(1, 52),10	11715,(13, 64),16	11731,(6, 64),598	12329,(13, 47),8	12337,(12, 47),8	12345,(6, 47),656	13001,(1, 47),26	13027,(20, 69),4	13031,(13, 69),68	13099,(1, 69),940	
1,(0, 20),36	37,(0, 13),36	73,(0, 12),36	109,(0, 6),36	145,(0, 1),36	181,(11, 137),2	183,(2, 137),6	189,(8, 137),8	197,(17, 128),2	199,(2, 128),2	201,(4, 128),16	217,(8, 128),6	223,(2, 90),10	233,(19, 90),22	255,(11, 160),12	267,(9, 160),2	269,(19, 160),2	271,(18, 160),2	273,(8, 160),2	275,(14, 160),6	281,(15, 160),4	285,(14, 84),2	287,(15, 84),28	315,(11, 163),2	317,(2, 163),2	319,(16, 163),2	321,(19, 163),12	333,(8, 163),2	335,(3, 163),6	341,(5, 163),2	343,(14, 163),4	347,(10, 163),2	349,(11, 39),4	353,(17, 39),2	355,(2, 39),20	375,(9, 39),8	383,(3, 39),8	391,(5, 39),2	393,(14, 39),2	395,(17, 143),6	401,(2, 143),24	425,(4, 143),2	427,(8, 143),12	439,(10, 143),2	441,(17, 86),4	445,(8, 86),4	449,(3, 86),36	485,(14, 86),2	487,(4, 126),14	501,(18, 126),2	503,(8, 126),8	511,(3, 126),4	515,(14, 126),4	519,(15, 126),20	539,(11, 144),6	545,(2, 144),2	547,(16, 144),22	569,(19, 144),8	577,(18, 144),2	579,(3, 144),2	581,(15, 144),10	591,(17, 138),22	613,(16, 138),12	625,(7, 138),12	637,(3, 138),2	639,(5, 138),2	641,(10, 138),2	643,(15, 138),2	645,(16, 71),32	677,(7, 71),2	679,(18, 71),2	681,(8, 71),4	685,(5, 71),10	695,(14, 71),2	697,(10, 71),2	
# Outgoing
1,(0, 20),36	37,(0, 13),36	73,(0, 12),36	109,(0, 6),36	145,(0, 1),36	181,(11, 137),2	183,(2, 137),6	189,(8, 137),8	197,(17, 128),2	199,(2, 128),2	201,(4, 128),16	217,(8, 128),6	223,(2, 90),10	233,(19, 90),22	255,(11, 160),12	267,(9, 160),2	269,(19, 160),2	271,(18, 160),2	273,(8, 160),2	275,(14, 160),6	281,(15, 160),4	285,(14, 84),2	287,(15, 84),28	315,(11, 163),2	317,(2, 163),2	319,(16, 163),2	321,(19, 163),12	333,(8, 163),2	335,(3, 163),6	341,(5, 163),2	343,(14, 163),4	347,(10, 163),2	349,(11, 39),4	353,(17, 39),2	355,(2, 39),20	375,(9, 39),8	383,(3, 39),8	391,(5, 39),2	393,(14, 39),2	395,(17, 143),6	401,(2, 143),24	425,(4, 143),2	427,(8, 143),12	439,(10, 143),2	441,(17, 86),4	445,(8, 86),4	449,(3, 86),36	485,(14, 86),2	487,(4, 126),14	501,(18, 126),2	503,(8, 126),8	511,(3, 126),4	515,(14, 126),4	519,(15, 126),20	539,(11, 144),6	545,(2, 144),2	547,(16, 144),22	569,(19, 144),8	577,(18, 144),2	579,(3, 144),2	581,(15, 144),10	591,(17, 138),22	613,(16, 138),12	625,(7, 138),12	637,(3, 138),2	639,(5, 138),2	641,(10, 138),2	643,(15, 138),2	645,(16, 71),32	677,(7, 71),2	679,(18, 71),2	681,(8, 71),4	685,(5, 71),10	695,(14, 71),2	697,(10, 71),2	
51,(20, 159),4	55,(20, 83),2	57,(20, 129),4	61,(20, 153),4	65,(20, 28),2	67,(20, 56),4	71,(20, 40),10	81,(20, 58),4	85,(20, 34),2	87,(13, 159),2	89,(13, 136),2	91,(13, 83),2	93,(13, 33),2	95,(13, 96),6	101,(13, 175),2	103,(13, 106),8	111,(13, 187),6	117,(13, 167),2	119,(13, 40),2	121,(13, 58),2	123,(12, 154),2	125,(12, 46),4	129,(12, 93),6	135,(12, 28),2	137,(12, 73),4	141,(12, 175),6	147,(12, 102),2	149,(13, 56),6	155,(12, 103),2	157,(12, 123),2	159,(6, 87),2	161,(6, 33),2	163,(6, 135),4	167,(6, 129),2	169,(6, 28),2	171,(6, 73),2	173,(6, 187),2	175,(6, 102),2	177,(13, 156),8	185,(6, 103),10	195,(1, 37),2	197,(1, 153),2	199,(1, 188),6	205,(1, 73),2	207,(1, 156),2	209,(6, 65),2	211,(137, 201),34	245,(128, 201),34	279,(90, 201),34	313,(160, 201),34	347,(84, 201),34	381,(163, 201),34	415,(39, 201),34	449,(1, 167),6	455,(143, 201),34	489,(1, 124),10	499,(1, 58),2	501,(86, 201),34	535,(1, 102),6	541,(6, 29),12	553,(126, 201),34	587,(12, 65),10	597,(12, 58),4	601,(1, 147),2	603,(20, 166),2	605,(144, 201),34	639,(12, 147),10	649,(13, 166),2	651,(12, 166),8	659,(138, 201),34	693,(1, 123),12	705,(1, 34),12	717,(71, 201),34	751,(6, 166),2	753,(20, 79),4	757,(12, 79),10	767,(20, 75),6	773,(13, 75),8	781,(12, 25),14	795,(1, 25),2	797,(13, 118),6	803,(6, 118),4	807,(1, 118),6	813,(13, 178),8	821,(12, 178),2	823,(1, 178),6	829,(12, 190),10	839,(1, 190),6	845,(13, 150),6	851,(1, 150),10	861,(13, 177),12	873,(12, 177),2	875,(6, 177),4	879,(20, 89),16	895,(1, 89),2	897,(20, 94),12	909,(12, 94),2	911,(6, 94),4	915,(13, 120),10	925,(12, 120),8	933,(6, 120),2	935,(20, 105),2	937,(1, 105),18	955,(13, 145),2	957,(12, 145),8	965,(1, 145),12	977,(13, 115),2	979,(12, 115),2	981,(6, 115),18	999,(20, 44),2	1001,(13, 44),10	1011,(6, 44),12	1023,(13, 127),4	1027,(12, 127),2	1029,(1, 127),18	1047,(1, 158),26	1073,(20, 70),8	1081,(13, 70),14	1095,(6, 70),4	1099,(20, 146),20	1119,(6, 146),6	1125,(13, 193),6	1131,(1, 193),20	1151,(13, 32),8	1159,(12, 32),18	1177,(6, 32),2	1179,(13, 92),22	1201,(1, 92),6	1207,(20, 164),2	1209,(13, 164),18	1227,(6, 164),8	1235,(12, 101),14	1249,(6, 101),14	1263,(20, 77),2	1265,(13, 77),8	1273,(12, 77),2	1275,(6, 77),16	1291,(1, 194),28	1319,(20, 51),20	1339,(6, 51),10	1349,(20, 43),8	1357,(12, 43),10	1367,(6, 43),8	1375,(1, 43),4	1379,(20, 174),8	1387,(13, 174),8	1395,(1, 174),14	1409,(20, 112),2	1411,(6, 112),20	1431,(1, 112),8	1439,(20, 66),2	1441,(13, 66),8	1449,(12, 66),4	1453,(6, 66),14	1467,(1, 66),2	1469,(13, 31),4	1473,(12, 31),8	1481,(6, 31),4	1485,(1, 31),14	1499,(13, 24),10	1509,(12, 24),22	1531,(20, 53),2	1533,(13, 53),30	1563,(6, 53),2	1565,(20, 113),14	1579,(6, 113),14	1593,(1, 113),6	1599,(20, 49),24	1623,(13, 49),4	1627,(1, 49),6	1633,(20, 38),34	1667,(6, 38),2	1669,(20, 162),4	1673,(13, 162),14	1687,(12, 162),16	1703,(6, 162),2	1705,(20, 97),18	1723,(13, 97),6	1729,(6, 97),12	1741,(13, 21),36	1777,(13, 80),20	1797,(1, 80),18	1815,(20, 57),6	1821,(13, 57),32	1853,(13, 26),22	1875,(12, 26),18	1893,(6, 148),38	1931,(1, 148),2	1933,(20, 27),4	1937,(13, 27),20	1957,(12, 27),18	1975,(20, 60),6	1981,(12, 60),10	1991,(6, 60),2	1993,(1, 60),24	2017,(20, 121),42	2059,(13, 35),28	2087,(12, 35),8	2095,(6, 35),2	2097,(1, 35),4	2101,(20, 99),6	2107,(13, 99),6	2113,(12, 99),2	2115,(6, 99),10	2125,(1, 99),20	2145,(13, 182),20	2165,(12, 182),2	2167,(6, 182),4	2171,(1, 182),18	2189,(12, 104),32	2221,(6, 104),12	2233,(1, 104),2	2235,(12, 42),26	2261,(6, 42),20	2281,(13, 155),12	2293,(1, 155),36	2329,(13, 81),2	2331,(12, 81),38	2369,(6, 81),8	2377,(13, 125),10	2387,(6, 125),38	2425,(1, 125),2	2427,(13, 170),44	2471,(12, 170),4	2475,(6, 170),2	2477,(6, 119),50	2527,(20, 171),2	2529,(13, 171),44	2573,(12, 171),2	2575,(6, 171),2	2577,(20, 186),2	2579,(13, 186),6	2585,(12, 186),2	2587,(6, 186),24	2611,(1, 186),18	2629,(6, 173),52	2681,(13, 23),34	2715,(6, 23),4	2719,(1, 23),16	2735,(20, 61),54	2789,(20, 152),10	2799,(6, 152),22	2821,(1, 152),22	2843,(12, 142),28	2871,(6, 142),14	2885,(1, 142),12	2897,(13, 157),36	2933,(12, 157),6	2939,(6, 157),12	2951,(13, 68),2	2953,(12, 68),36	2989,(6, 68),4	2993,(1, 68),14	3007,(13, 134),18	3025,(12, 134),8	3033,(6, 134),26	3059,(1, 134),6	3065,(20, 117),58	3123,(13, 36),24	3147,(1, 36),34	3181,(20, 180),4	3185,(6, 180),54	3239,(20, 100),8	3247,(6, 100),34	3281,(1, 100),18	3299,(20, 50),2	3301,(13, 50),48	3349,(6, 50),12	3361,(20, 168),24	3385,(13, 168),10	3395,(12, 168),26	3421,(1, 168),2	3423,(20, 181),54	3477,(13, 181),8	3485,(20, 131),22	3507,(13, 131),12	3519,(6, 131),26	3545,(1, 131),2	3547,(20, 72),10	3557,(13, 72),50	3607,(1, 72),2	3609,(13, 184),28	3637,(12, 184),34	3671,(1, 184),4	3675,(20, 116),2	3677,(13, 116),36	3713,(6, 116),2	3715,(1, 116),26	3741,(20, 55),2	3743,(13, 55),2	3745,(12, 55),16	3761,(6, 55),2	3763,(1, 55),46	3809,(20, 122),30	3839,(12, 122),2	3841,(1, 122),36	3877,(20, 74),42	3919,(12, 74),4	3923,(6, 74),10	3933,(1, 74),12	3945,(20, 95),66	4011,(6, 95),2	4013,(6, 197),6	4019,(1, 197),64	4083,(12, 139),4	4087,(6, 139),2	4089,(1, 139),68	4157,(20, 109),8	4165,(13, 109),8	4173,(6, 109),60	4233,(1, 109),2	4235,(13, 149),30	4265,(12, 149),2	4267,(6, 149),46	4313,(13, 114),78	4391,(12, 114),2	4393,(13, 172),2	4395,(12, 172),78	4473,(1, 172),4	4477,(12, 199),82	4559,(1, 199),4	4563,(20, 91),10	4573,(13, 91),4	4577,(12, 91),58	4635,(6, 91),16	4651,(13, 196),2	4653,(6, 196),6	4659,(1, 196),86	4745,(13, 45),40	4785,(12, 45),20	4805,(6, 45),14	4819,(1, 45),24	4843,(20, 130),94	4937,(12, 130),2	4939,(6, 130),2	4941,(20, 179),94	5035,(13, 179),2	5037,(1, 179),4	5041,(12, 67),56	5097,(1, 67),48	5145,(20, 161),98	5243,(13, 161),6	5249,(6, 161),2	5251,(12, 111),114	5365,(1, 111),8	5373,(20, 63),22	5395,(13, 63),76	5471,(12, 63),26	5497,(12, 189),2	5499,(1, 189),122	5621,(20, 30),2	5623,(12, 30),28	5651,(1, 30),96	5747,(13, 192),120	5867,(12, 192),12	5879,(1, 192),2	5881,(20, 140),6	5887,(12, 140),4	5891,(6, 140),124	6015,(6, 107),76	6091,(1, 107),58	6149,(20, 76),62	6211,(13, 76),52	6263,(6, 76),2	6265,(1, 76),20	6285,(20, 78),18	6303,(13, 78),110	6413,(12, 78),18	6431,(20, 185),140	6571,(13, 185),6	6577,(1, 185),4	6581,(12, 59),62	6643,(6, 59),92	6735,(1, 59),2	6737,(13, 198),94	6831,(12, 198),36	6867,(6, 198),2	6869,(1, 198),28	6897,(20, 195),90	6987,(13, 195),50	7037,(6, 195),20	7057,(1, 195),2	7059,(20, 133),16	7075,(13, 133),16	7091,(12, 133),62	7153,(1, 133),70	7223,(20, 200),90	7313,(12, 200),2	7315,(6, 200),58	7373,(1, 200),28	7401,(20, 165),2	7403,(13, 165),14	7417,(12, 165),14	7431,(6, 165),154	7585,(20, 169),8	7593,(13, 169),4	7597,(12, 169),170	7767,(1, 169),2	7769,(20, 88),172	7941,(12, 88),26	7967,(13, 54),158	8125,(6, 54),10	8135,(1, 54),48	8183,(20, 151),50	8233,(13, 151),6	8239,(12, 151),38	8277,(1, 151),124	8401,(20, 110),32	8433,(13, 110),18	8451,(12, 110),92	8543,(6, 110),2	8545,(1, 110),138	8683,(20, 41),298	8981,(12, 41),4	8985,(6, 41),2	8987,(20, 191),38	9025,(13, 191),172	9197,(12, 191),4	9201,(6, 191),76	9277,(1, 191),20	9297,(20, 85),318	9615,(13, 85),4	9619,(6, 85),2	9621,(20, 62),58	9679,(13, 62),34	9713,(12, 62),238	9951,(1, 62),4	9955,(1, 48),362	10317,(13, 141),350	10667,(6, 141),20	10687,(12, 176),430	11117,(12, 52),588	11705,(1, 52),10	11715,(13, 64),16	11731,(6, 64),598	12329,(13, 47),8	12337,(12, 47),8	12345,(6, 47),656	13001,(1, 47),26	13027,(20, 69),4	13031,(13, 69),68	13099,(1, 69),940	
