100526
# CPU
9,3,13	22,6,13	35,9,13	48,12,13	61,20,13	74,45,13	87,85,13	100,91,13	113,120,13	126,25,13	139,50,13	152,64,13	165,94,13	178,99,13	191,81,13	204,29,13	217,30,13	469,62,13	813,88,13	881,89,13	1009,58,13	1069,52,13	1082,60,13	1133,16,13	1153,68,13	1166,70,13	1185,74,13	1257,21,13	1321,23,13	1385,83,13	1398,84,13	1457,96,13	1470,79,13	1483,22,13	1625,87,13	1701,31,13	1714,33,13	1761,35,13	1845,72,13	1933,37,13	2037,39,13	2085,47,13	2098,105,13	2111,54,13	2149,76,13	2169,108,13	2182,56,13	2195,90,13	2529,41,13	2581,43,13	2649,86,13	2725,114,13	3281,80,13	3853,117,13	3873,18,13	3889,19,13	3909,32,13	3953,66,13	3966,82,13	4033,92,13	4046,102,13	4059,111,13	
5,2,13	18,5,13	31,110,13	44,8,13	57,11,13	70,63,13	83,57,13	96,61,13	109,95,13	122,78,13	135,55,13	341,59,13	681,69,13	797,73,13	945,46,13	973,67,13	986,24,13	1017,116,13	1397,65,13	1577,17,13	1649,34,13	2069,40,13	2082,42,13	2101,44,13	2193,77,13	2313,75,13	2445,107,13	2458,119,13	2477,71,13	2490,113,13	2503,38,13	2533,15,13	2546,27,13	2559,36,13	2572,49,13	2585,98,13	2598,51,13	2611,53,13	2653,93,13	2666,104,13	2821,28,13	2913,101,13	
0,0,1	1,4,13	14,10,13	27,7,13	40,1,13	821,48,13	849,103,13	945,118,13	1013,112,13	1185,106,13	1361,97,13	1377,13,13	1390,109,13	1403,115,13	2125,26,13	3469,100,13	3625,14,13	100525,121,1	
# Incoming
5,(0, 3),4	13,(0, 6),4	21,(0, 9),4	29,(0, 12),4	33,(4, 29),80	113,(2, 30),24	137,(2, 31),4	141,(2, 43),8	257,(4, 54),4	261,(4, 58),8	341,(4, 62),128	681,(4, 70),96	797,(4, 88),16	813,(4, 89),68	881,(4, 92),124	1005,(5, 58),4	1009,(4, 108),4	1013,(2, 52),56	1069,(2, 60),8	1077,(2, 90),12	1089,(2, 102),40	1129,(10, 16),4	1133,(10, 21),8	1141,(10, 68),12	1153,(10, 70),4	1157,(10, 74),28	1185,(10, 84),12	1197,(10, 90),16	1213,(10, 105),28	1241,(5, 21),16	1257,(5, 22),12	1269,(5, 23),52	1321,(5, 72),40	1361,(5, 83),24	1385,(5, 84),12	1397,(5, 87),4	1401,(5, 92),4	1405,(5, 96),52	1457,(5, 108),4	1461,(8, 79),8	1469,(11, 22),4	1473,(10, 87),152	1625,(5, 114),24	1649,(7, 31),52	1701,(7, 33),4	1705,(7, 35),56	1761,(8, 18),60	1821,(8, 72),24	1845,(7, 37),88	1933,(7, 39),104	2037,(8, 47),48	2085,(8, 105),8	2093,(11, 54),8	2101,(7, 56),32	2133,(7, 66),12	2145,(7, 76),4	2149,(7, 86),12	2161,(7, 108),8	2169,(1, 32),4	2173,(1, 56),4	2177,(1, 90),4	2497,(1, 41),32	2529,(1, 43),52	2605,(1, 86),44	2665,(1, 114),60	3145,(8, 80),136	3469,(8, 102),84	3553,(8, 117),300	3853,(11, 18),20	3873,(11, 19),16	3889,(11, 32),20	3909,(11, 66),44	3953,(11, 82),8	3961,(11, 92),72	4033,(11, 102),4	4037,(11, 111),16	
1,(0, 2),4	9,(0, 5),4	17,(0, 8),4	25,(0, 11),4	113,(4, 40),140	253,(4, 44),4	269,(4, 59),72	469,(4, 69),212	777,(4, 73),20	941,(3, 46),4	969,(6, 67),4	973,(9, 24),8	981,(9, 27),4	985,(9, 51),20	1005,(4, 104),4	1013,(4, 116),4	1017,(3, 15),316	1333,(10, 15),40	1373,(10, 65),24	1397,(10, 75),76	1473,(6, 17),104	1625,(10, 119),16	1641,(7, 34),8	1761,(7, 36),84	2037,(7, 40),32	2069,(7, 42),4	2073,(7, 44),28	2125,(6, 77),68	2193,(7, 71),104	2297,(7, 75),16	2313,(7, 107),132	2445,(7, 113),4	2449,(7, 119),4	2453,(9, 71),24	2477,(9, 113),4	2481,(1, 38),16	2497,(12, 15),36	2533,(12, 27),8	2541,(12, 36),4	2545,(12, 49),24	2569,(12, 53),4	2573,(12, 98),4	2581,(1, 51),16	2597,(1, 53),8	2649,(1, 93),4	2653,(1, 104),12	2665,(12, 28),156	2821,(12, 101),92	
149,(2, 48),672	821,(2, 103),28	849,(3, 14),12	861,(3, 26),80	941,(5, 118),4	945,(3, 100),20	965,(3, 109),4	1005,(9, 112),8	1129,(11, 106),56	1333,(9, 97),28	1361,(12, 13),16	1377,(12, 109),8	1385,(12, 115),12	1577,(6, 26),548	2125,(110, 121),1020	3281,(8, 100),188	3469,(12, 14),156	3625,(20, 121),1020	4645,(63, 121),1020	5665,(45, 121),1020	6685,(57, 121),1020	7705,(85, 121),1020	8725,(61, 121),1020	9745,(91, 121),1020	10765,(95, 121),1020	11785,(120, 121),1020	12805,(78, 121),1020	13825,(25, 121),1020	14845,(55, 121),1020	15865,(50, 121),1020	16885,(64, 121),1020	17905,(94, 121),1020	18925,(99, 121),1020	19945,(81, 121),1020	20965,(29, 121),1020	21985,(30, 121),1020	23005,(59, 121),1020	24025,(62, 121),1020	25045,(69, 121),1020	26065,(73, 121),1020	27085,(88, 121),1020	28105,(89, 121),1020	29125,(46, 121),1020	30145,(67, 121),1020	31165,(24, 121),1020	32185,(58, 121),1020	33205,(116, 121),1020	34225,(52, 121),1020	35245,(60, 121),1020	36265,(16, 121),1020	37285,(68, 121),1020	38305,(70, 121),1020	39325,(74, 121),1020	40345,(21, 121),1020	41365,(23, 121),1020	42385,(83, 121),1020	43405,(65, 121),1020	44425,(84, 121),1020	45445,(96, 121),1020	46465,(79, 121),1020	47485,(22, 121),1020	48505,(17, 121),1020	49525,(87, 121),1020	50545,(34, 121),1020	51565,(31, 121),1020	52585,(33, 121),1020	53605,(35, 121),1020	54625,(72, 121),1020	55645,(37, 121),1020	56665,(39, 121),1020	57685,(40, 121),1020	58705,(42, 121),1020	59725,(47, 121),1020	60745,(105, 121),1020	61765,(44, 121),1020	62785,(54, 121),1020	63805,(76, 121),1020	64825,(108, 121),1020	65845,(56, 121),1020	66865,(77, 121),1020	67885,(90, 121),1020	68905,(75, 121),1020	69925,(107, 121),1020	70945,(119, 121),1020	71965,(71, 121),1020	72985,(113, 121),1020	74005,(38, 121),1020	75025,(41, 121),1020	76045,(15, 121),1020	77065,(27, 121),1020	78085,(36, 121),1020	79105,(49, 121),1020	80125,(43, 121),1020	81145,(98, 121),1020	82165,(51, 121),1020	83185,(53, 121),1020	84205,(86, 121),1020	85225,(93, 121),1020	86245,(104, 121),1020	87265,(114, 121),1020	88285,(28, 121),1020	89305,(101, 121),1020	90325,(80, 121),1020	91345,(117, 121),1020	92365,(18, 121),1020	93385,(19, 121),1020	94405,(32, 121),1020	95425,(66, 121),1020	96445,(82, 121),1020	97465,(92, 121),1020	98485,(102, 121),1020	99505,(111, 121),1020	
# Outgoing
849,(3, 14),12	861,(3, 26),80	941,(3, 46),4	945,(3, 100),20	965,(3, 109),4	969,(6, 67),4	973,(9, 24),8	981,(9, 27),4	985,(9, 51),20	1005,(9, 112),8	1017,(3, 15),316	1333,(9, 97),28	1361,(12, 13),16	1377,(12, 109),8	1385,(12, 115),12	1473,(6, 17),104	1577,(6, 26),548	2125,(6, 77),68	2453,(9, 71),24	2477,(9, 113),4	2497,(12, 15),36	2533,(12, 27),8	2541,(12, 36),4	2545,(12, 49),24	2569,(12, 53),4	2573,(12, 98),4	2665,(12, 28),156	2821,(12, 101),92	3469,(12, 14),156	3625,(20, 121),1020	5665,(45, 121),1020	7705,(85, 121),1020	9745,(91, 121),1020	11785,(120, 121),1020	13825,(25, 121),1020	15865,(50, 121),1020	16885,(64, 121),1020	17905,(94, 121),1020	18925,(99, 121),1020	19945,(81, 121),1020	20965,(29, 121),1020	21985,(30, 121),1020	24025,(62, 121),1020	27085,(88, 121),1020	28105,(89, 121),1020	32185,(58, 121),1020	34225,(52, 121),1020	35245,(60, 121),1020	36265,(16, 121),1020	37285,(68, 121),1020	38305,(70, 121),1020	39325,(74, 121),1020	40345,(21, 121),1020	41365,(23, 121),1020	42385,(83, 121),1020	44425,(84, 121),1020	45445,(96, 121),1020	46465,(79, 121),1020	47485,(22, 121),1020	49525,(87, 121),1020	51565,(31, 121),1020	52585,(33, 121),1020	53605,(35, 121),1020	54625,(72, 121),1020	55645,(37, 121),1020	56665,(39, 121),1020	59725,(47, 121),1020	60745,(105, 121),1020	62785,(54, 121),1020	63805,(76, 121),1020	64825,(108, 121),1020	65845,(56, 121),1020	67885,(90, 121),1020	75025,(41, 121),1020	80125,(43, 121),1020	84205,(86, 121),1020	87265,(114, 121),1020	90325,(80, 121),1020	91345,(117, 121),1020	92365,(18, 121),1020	93385,(19, 121),1020	94405,(32, 121),1020	95425,(66, 121),1020	96445,(82, 121),1020	97465,(92, 121),1020	98485,(102, 121),1020	99505,(111, 121),1020	
113,(2, 30),24	137,(2, 31),4	141,(2, 43),8	149,(2, 48),672	821,(2, 103),28	941,(5, 118),4	1005,(5, 58),4	1013,(2, 52),56	1069,(2, 60),8	1077,(2, 90),12	1089,(2, 102),40	1129,(11, 106),56	1241,(5, 21),16	1257,(5, 22),12	1269,(5, 23),52	1321,(5, 72),40	1361,(5, 83),24	1385,(5, 84),12	1397,(5, 87),4	1401,(5, 92),4	1405,(5, 96),52	1457,(5, 108),4	1461,(8, 79),8	1469,(11, 22),4	1625,(5, 114),24	1761,(8, 18),60	1821,(8, 72),24	2037,(8, 47),48	2085,(8, 105),8	2093,(11, 54),8	2125,(110, 121),1020	3145,(8, 80),136	3281,(8, 100),188	3469,(8, 102),84	3553,(8, 117),300	3853,(11, 18),20	3873,(11, 19),16	3889,(11, 32),20	3909,(11, 66),44	3953,(11, 82),8	3961,(11, 92),72	4033,(11, 102),4	4037,(11, 111),16	4645,(63, 121),1020	6685,(57, 121),1020	8725,(61, 121),1020	10765,(95, 121),1020	12805,(78, 121),1020	14845,(55, 121),1020	23005,(59, 121),1020	25045,(69, 121),1020	26065,(73, 121),1020	29125,(46, 121),1020	30145,(67, 121),1020	31165,(24, 121),1020	33205,(116, 121),1020	43405,(65, 121),1020	48505,(17, 121),1020	50545,(34, 121),1020	57685,(40, 121),1020	58705,(42, 121),1020	61765,(44, 121),1020	66865,(77, 121),1020	68905,(75, 121),1020	69925,(107, 121),1020	70945,(119, 121),1020	71965,(71, 121),1020	72985,(113, 121),1020	74005,(38, 121),1020	76045,(15, 121),1020	77065,(27, 121),1020	78085,(36, 121),1020	79105,(49, 121),1020	81145,(98, 121),1020	82165,(51, 121),1020	83185,(53, 121),1020	85225,(93, 121),1020	86245,(104, 121),1020	88285,(28, 121),1020	89305,(101, 121),1020	
1,(0, 2),4	5,(0, 3),4	9,(0, 5),4	13,(0, 6),4	17,(0, 8),4	21,(0, 9),4	25,(0, 11),4	29,(0, 12),4	33,(4, 29),80	113,(4, 40),140	253,(4, 44),4	257,(4, 54),4	261,(4, 58),8	269,(4, 59),72	341,(4, 62),128	469,(4, 69),212	681,(4, 70),96	777,(4, 73),20	797,(4, 88),16	813,(4, 89),68	881,(4, 92),124	1005,(4, 104),4	1009,(4, 108),4	1013,(4, 116),4	1129,(10, 16),4	1133,(10, 21),8	1141,(10, 68),12	1153,(10, 70),4	1157,(10, 74),28	1185,(10, 84),12	1197,(10, 90),16	1213,(10, 105),28	1333,(10, 15),40	1373,(10, 65),24	1397,(10, 75),76	1473,(10, 87),152	1625,(10, 119),16	1641,(7, 34),8	1649,(7, 31),52	1701,(7, 33),4	1705,(7, 35),56	1761,(7, 36),84	1845,(7, 37),88	1933,(7, 39),104	2037,(7, 40),32	2069,(7, 42),4	2073,(7, 44),28	2101,(7, 56),32	2133,(7, 66),12	2145,(7, 76),4	2149,(7, 86),12	2161,(7, 108),8	2169,(1, 32),4	2173,(1, 56),4	2177,(1, 90),4	2193,(7, 71),104	2297,(7, 75),16	2313,(7, 107),132	2445,(7, 113),4	2449,(7, 119),4	2481,(1, 38),16	2497,(1, 41),32	2529,(1, 43),52	2581,(1, 51),16	2597,(1, 53),8	2605,(1, 86),44	2649,(1, 93),4	2653,(1, 104),12	2665,(1, 114),60	
