5210
# CPU
13,3,3	16,21,3	19,25,3	22,36,3	106,15,3	118,16,3	121,17,3	166,18,3	184,20,3	196,22,3	202,23,3	205,28,3	211,30,3	214,34,3	220,8,3	262,27,3	277,12,3	280,19,3	316,26,3	349,40,3	400,24,3	547,38,3	
7,2,3	10,32,3	13,35,3	88,13,3	205,29,3	217,7,3	223,9,3	262,11,3	325,37,3	328,39,3	5209,41,1	
0,0,1	1,4,3	4,1,3	7,6,3	10,33,3	97,14,3	100,5,3	181,10,3	517,31,3	
# Incoming
7,(0, 3),6	88,(4, 15),18	106,(4, 16),12	118,(4, 17),3	121,(4, 18),45	166,(4, 20),18	184,(4, 22),12	196,(4, 23),6	202,(2, 28),3	205,(4, 30),6	211,(4, 34),3	217,(1, 8),3	220,(2, 27),42	262,(1, 12),15	277,(1, 19),3	280,(1, 26),36	328,(1, 40),21	349,(2, 24),51	517,(2, 38),30	
1,(0, 2),6	13,(4, 13),75	202,(4, 29),3	214,(1, 7),3	220,(1, 9),3	223,(1, 11),39	316,(1, 37),9	325,(1, 39),3	349,(6, 41),180	529,(33, 41),180	709,(21, 41),180	889,(25, 41),180	1069,(36, 41),180	1249,(14, 41),180	1429,(5, 41),180	1609,(15, 41),180	1789,(16, 41),180	1969,(17, 41),180	2149,(18, 41),180	2329,(10, 41),180	2509,(20, 41),180	2689,(22, 41),180	2869,(23, 41),180	3049,(28, 41),180	3229,(30, 41),180	3409,(34, 41),180	3589,(8, 41),180	3769,(27, 41),180	3949,(12, 41),180	4129,(19, 41),180	4309,(26, 41),180	4489,(40, 41),180	4669,(24, 41),180	4849,(31, 41),180	5029,(38, 41),180	
10,(2, 14),87	97,(3, 5),3	100,(3, 10),81	400,(2, 31),117	
# Outgoing
97,(3, 5),3	100,(3, 10),81	709,(21, 41),180	889,(25, 41),180	1069,(36, 41),180	1609,(15, 41),180	1789,(16, 41),180	1969,(17, 41),180	2149,(18, 41),180	2509,(20, 41),180	2689,(22, 41),180	2869,(23, 41),180	3049,(28, 41),180	3229,(30, 41),180	3409,(34, 41),180	3589,(8, 41),180	3769,(27, 41),180	3949,(12, 41),180	4129,(19, 41),180	4309,(26, 41),180	4489,(40, 41),180	4669,(24, 41),180	5029,(38, 41),180	
10,(2, 14),87	202,(2, 28),3	220,(2, 27),42	349,(2, 24),51	400,(2, 31),117	517,(2, 38),30	
1,(0, 2),6	7,(0, 3),6	13,(4, 13),75	88,(4, 15),18	106,(4, 16),12	118,(4, 17),3	121,(4, 18),45	166,(4, 20),18	184,(4, 22),12	196,(4, 23),6	202,(4, 29),3	205,(4, 30),6	211,(4, 34),3	214,(1, 7),3	217,(1, 8),3	220,(1, 9),3	223,(1, 11),39	262,(1, 12),15	277,(1, 19),3	280,(1, 26),36	316,(1, 37),9	325,(1, 39),3	328,(1, 40),21	349,(6, 41),180	529,(33, 41),180	1249,(14, 41),180	1429,(5, 41),180	2329,(10, 41),180	4849,(31, 41),180	
