312
# CPU
0,0,1	1,1,8	9,12,8	17,16,8	25,20,8	33,14,8	41,17,8	93,6,8	311,21,1	
4,2,8	12,8,8	20,4,8	28,15,8	36,11,8	44,19,8	52,18,8	60,5,8	68,7,8	76,10,8	300,3,8	
15,13,8	23,9,8	
# Incoming
21,(2, 14),6	27,(2, 17),9	36,(2, 6),57	93,(8, 21),3	96,(13, 21),3	99,(4, 21),3	102,(9, 21),3	105,(15, 21),3	108,(11, 21),3	111,(19, 21),3	114,(18, 21),3	117,(5, 21),3	120,(7, 21),3	123,(10, 21),3	308,(3, 21),3	
1,(0, 2),3	9,(1, 18),3	18,(1, 5),9	27,(1, 7),9	36,(1, 10),21	57,(1, 3),243	
12,(2, 13),3	15,(1, 9),3	18,(2, 9),3	
# Outgoing
1,(0, 2),3	9,(1, 18),3	15,(1, 9),3	18,(1, 5),9	27,(1, 7),9	36,(1, 10),21	57,(1, 3),243	
12,(2, 13),3	18,(2, 9),3	21,(2, 14),6	27,(2, 17),9	36,(2, 6),57	93,(8, 21),3	99,(4, 21),3	105,(15, 21),3	108,(11, 21),3	111,(19, 21),3	114,(18, 21),3	117,(5, 21),3	120,(7, 21),3	123,(10, 21),3	308,(3, 21),3	
96,(13, 21),3	102,(9, 21),3	
