1254
# CPU
0,121,1	1,40,6	7,87,6	13,103,6	19,96,6	25,63,6	31,28,6	37,82,6	43,81,6	49,93,6	55,24,6	61,114,6	67,59,6	73,77,6	79,76,6	85,49,6	91,22,6	97,109,6	103,50,6	109,113,6	115,16,6	121,36,6	127,72,6	133,94,6	139,38,6	145,13,6	151,61,6	157,70,6	163,111,6	169,104,6	175,92,6	181,88,6	187,58,6	193,57,6	199,54,6	205,39,6	211,33,6	217,15,6	223,120,6	229,85,6	235,68,6	241,47,6	247,27,6	253,75,6	259,23,6	265,98,6	271,106,6	277,115,6	283,83,6	289,95,6	295,97,6	301,55,6	307,31,6	313,86,6	319,107,6	325,53,6	331,45,6	337,20,6	343,25,6	349,116,6	355,29,6	361,110,6	367,34,6	373,21,6	379,14,6	385,99,6	391,73,6	397,62,6	403,105,6	409,32,6	415,100,6	421,80,6	427,78,6	433,119,6	439,101,6	445,43,6	451,71,6	457,108,6	463,90,6	469,19,6	475,44,6	481,84,6	487,30,6	493,67,6	499,91,6	505,52,6	511,64,6	517,117,6	523,69,6	529,89,6	535,1,6	541,118,6	547,79,6	553,37,6	559,8,6	565,102,6	571,12,6	577,42,6	583,5,6	589,9,6	595,7,6	601,11,6	607,4,6	613,10,6	619,2,6	739,3,6	1247,6,6	1253,0,1	
41,48,6	81,46,6	121,17,6	161,18,6	201,41,6	241,51,6	281,65,6	321,60,6	361,112,6	401,56,6	441,26,6	481,74,6	521,66,6	561,35,6	
# Incoming
367,(112, 12),4	371,(48, 9),4	375,(41, 7),8	383,(65, 11),20	403,(60, 4),28	431,(17, 2),4	435,(51, 2),12	447,(26, 10),60	507,(65, 2),16	523,(74, 2),72	595,(46, 3),4	599,(66, 3),140	739,(18, 6),8	747,(112, 6),36	783,(56, 6),44	827,(35, 6),420	
1,(121, 48),40	41,(121, 46),40	81,(121, 17),40	121,(121, 18),40	161,(121, 41),40	201,(121, 51),40	241,(121, 65),40	281,(121, 60),40	321,(121, 112),40	361,(121, 56),40	401,(121, 26),40	441,(121, 74),40	481,(121, 66),40	521,(121, 35),40	
# Outgoing
1,(121, 48),40	41,(121, 46),40	81,(121, 17),40	121,(121, 18),40	161,(121, 41),40	201,(121, 51),40	241,(121, 65),40	281,(121, 60),40	321,(121, 112),40	361,(121, 56),40	401,(121, 26),40	441,(121, 74),40	481,(121, 66),40	521,(121, 35),40	
367,(112, 12),4	371,(48, 9),4	375,(41, 7),8	383,(65, 11),20	403,(60, 4),28	431,(17, 2),4	435,(51, 2),12	447,(26, 10),60	507,(65, 2),16	523,(74, 2),72	595,(46, 3),4	599,(66, 3),140	739,(18, 6),8	747,(112, 6),36	783,(56, 6),44	827,(35, 6),420	
