1025
# CPU
23,2,21	44,6,21	65,9,21	86,24,21	107,37,21	128,34,21	149,20,21	170,27,21	191,17,21	212,28,21	233,26,21	407,5,21	483,15,21	
12,1,21	33,11,21	54,25,21	75,23,21	96,35,21	334,38,21	441,12,21	491,19,21	
315,29,21	394,40,21	432,16,21	482,13,21	569,31,21	590,33,21	1024,41,1	
0,0,1	1,3,21	22,4,21	43,30,21	64,36,21	85,21,21	106,7,21	
25,8,21	67,14,21	333,32,21	429,10,21	484,18,21	506,22,21	576,39,21	
# Incoming
12,(0, 2),11	23,(3, 5),1	33,(1, 5),1	394,(4, 5),13	482,(4, 15),1	
1,(0, 1),11	25,(3, 12),19	44,(2, 35),1	333,(3, 38),1	429,(4, 12),12	484,(4, 19),7	
67,(3, 16),210	277,(3, 29),38	315,(2, 40),1	316,(8, 41),16	334,(3, 40),60	394,(1, 16),38	441,(4, 13),41	482,(11, 41),16	506,(4, 31),63	569,(4, 33),5	576,(30, 41),16	592,(6, 41),16	608,(25, 41),16	624,(36, 41),16	640,(9, 41),16	656,(14, 41),16	672,(23, 41),16	688,(21, 41),16	704,(24, 41),16	720,(35, 41),16	736,(7, 41),16	752,(37, 41),16	768,(34, 41),16	784,(20, 41),16	800,(27, 41),16	816,(17, 41),16	832,(28, 41),16	848,(26, 41),16	864,(32, 41),16	880,(38, 41),16	896,(5, 41),16	912,(10, 41),16	928,(12, 41),16	944,(15, 41),16	960,(18, 41),16	976,(19, 41),16	992,(22, 41),16	1008,(39, 41),16	

24,(3, 8),1	44,(3, 14),23	315,(3, 32),18	407,(4, 10),22	483,(4, 18),1	491,(4, 22),15	574,(4, 39),2	
# Outgoing
44,(2, 35),1	315,(2, 40),1	592,(6, 41),16	640,(9, 41),16	704,(24, 41),16	752,(37, 41),16	768,(34, 41),16	784,(20, 41),16	800,(27, 41),16	816,(17, 41),16	832,(28, 41),16	848,(26, 41),16	896,(5, 41),16	944,(15, 41),16	
33,(1, 5),1	394,(1, 16),38	482,(11, 41),16	608,(25, 41),16	672,(23, 41),16	720,(35, 41),16	880,(38, 41),16	928,(12, 41),16	976,(19, 41),16	

1,(0, 1),11	12,(0, 2),11	23,(3, 5),1	24,(3, 8),1	25,(3, 12),19	44,(3, 14),23	67,(3, 16),210	277,(3, 29),38	315,(3, 32),18	333,(3, 38),1	334,(3, 40),60	394,(4, 5),13	407,(4, 10),22	429,(4, 12),12	441,(4, 13),41	482,(4, 15),1	483,(4, 18),1	484,(4, 19),7	491,(4, 22),15	506,(4, 31),63	569,(4, 33),5	574,(4, 39),2	576,(30, 41),16	624,(36, 41),16	688,(21, 41),16	736,(7, 41),16	
316,(8, 41),16	656,(14, 41),16	864,(32, 41),16	912,(10, 41),16	960,(18, 41),16	992,(22, 41),16	1008,(39, 41),16	
