523
# CPU
0,201,1	1,98,1	2,193,1	3,179,1	4,106,1	5,183,1	6,192,1	7,189,1	8,113,1	9,173,1	10,54,1	11,195,1	12,21,1	13,127,1	14,64,1	15,35,1	16,81,1	17,117,1	18,33,1	19,63,1	20,161,1	21,122,1	22,31,1	23,164,1	24,61,1	25,75,1	26,84,1	27,24,1	28,44,1	29,184,1	30,119,1	31,133,1	32,138,1	33,26,1	34,42,1	35,28,1	36,147,1	37,194,1	38,83,1	39,108,1	40,77,1	41,165,1	42,166,1	43,137,1	44,160,1	45,199,1	46,116,1	47,129,1	48,142,1	49,143,1	50,82,1	51,146,1	52,180,1	53,32,1	54,71,1	55,190,1	56,99,1	57,67,1	58,149,1	59,163,1	60,136,1	61,37,1	62,90,1	63,150,1	64,107,1	65,72,1	66,130,1	67,38,1	68,52,1	69,25,1	70,70,1	71,191,1	72,187,1	73,156,1	74,159,1	75,158,1	76,170,1	77,168,1	78,131,1	79,135,1	80,121,1	81,198,1	82,85,1	83,167,1	84,47,1	85,144,1	86,91,1	87,153,1	88,124,1	89,123,1	90,48,1	91,43,1	92,59,1	93,151,1	94,105,1	95,23,1	96,29,1	97,172,1	98,78,1	99,36,1	100,97,1	101,104,1	102,132,1	103,62,1	104,110,1	105,94,1	106,196,1	107,177,1	108,109,1	109,111,1	110,140,1	111,126,1	112,96,1	113,101,1	114,139,1	115,30,1	116,68,1	117,45,1	118,51,1	119,197,1	120,73,1	121,57,1	122,40,1	123,39,1	124,41,1	125,46,1	126,66,1	127,69,1	128,178,1	129,182,1	130,171,1	131,134,1	132,186,1	133,50,1	134,188,1	135,112,1	136,93,1	137,100,1	138,79,1	139,103,1	140,56,1	141,22,1	142,141,1	143,53,1	144,74,1	145,88,1	146,118,1	147,200,1	148,58,1	149,76,1	150,20,1	151,185,1	152,155,1	153,3,1	154,34,1	155,27,1	156,5,1	157,92,1	158,60,1	159,89,1	160,128,1	161,176,1	162,86,1	163,95,1	164,14,1	165,87,1	166,49,1	167,175,1	168,148,1	169,13,1	170,114,1	171,80,1	172,12,1	173,157,1	174,125,1	175,55,1	176,8,1	177,174,1	178,6,1	179,2,1	180,17,1	181,181,1	182,15,1	183,4,1	184,11,1	185,19,1	186,16,1	200,10,1	239,1,1	290,7,1	365,18,1	521,9,1	522,0,1	
19,169,1	37,115,1	55,120,1	91,152,1	127,102,1	163,154,1	
73,162,1	
109,145,1	
145,65,1	
# Incoming
20,(169, 15),3	38,(115, 11),3	41,(115, 19),6	56,(120, 4),9	65,(120, 11),9	74,(162, 19),15	92,(152, 18),24	128,(102, 16),33	161,(65, 16),3	164,(154, 10),36	200,(145, 1),39	239,(102, 7),51	290,(65, 18),75	365,(154, 9),156	
1,(201, 169),18	19,(201, 115),18	37,(201, 120),18	73,(201, 152),18	109,(201, 102),18	145,(201, 154),18	
55,(201, 162),18	
91,(201, 145),18	
127,(201, 65),18	
# Outgoing
1,(201, 169),18	19,(201, 115),18	37,(201, 120),18	55,(201, 162),18	73,(201, 152),18	91,(201, 145),18	109,(201, 102),18	127,(201, 65),18	145,(201, 154),18	
20,(169, 15),3	38,(115, 11),3	41,(115, 19),6	56,(120, 4),9	65,(120, 11),9	92,(152, 18),24	128,(102, 16),33	164,(154, 10),36	239,(102, 7),51	365,(154, 9),156	
74,(162, 19),15	
200,(145, 1),39	
161,(65, 16),3	290,(65, 18),75	
