1066
# CPU
193,33,10	203,36,10	487,38,10	
55,31,10	923,35,10	
463,30,10	903,34,10	
483,32,10	807,26,10	959,37,10	
185,29,10	407,18,10	803,25,10	1051,40,10	
51,16,10	571,39,10	731,19,10	771,23,10	879,27,10	1065,41,1	
13,4,10	133,15,10	241,22,10	455,21,10	
9,3,10	19,20,10	47,12,10	711,17,10	
5,2,10	15,13,10	97,11,10	395,10,10	405,9,10	667,14,10	
0,0,1	1,1,10	11,7,10	21,28,10	31,24,10	41,5,10	363,8,10	387,6,10	
# Incoming
185,(1, 33),8	193,(1, 36),4	483,(3, 38),4	
51,(2, 31),4	903,(4, 35),20	
455,(3, 30),8	879,(4, 34),24	
463,(3, 32),20	803,(4, 26),4	923,(4, 37),36	
133,(1, 29),52	395,(3, 18),12	771,(4, 25),32	959,(4, 40),92	
47,(2, 16),4	55,(13, 41),4	65,(31, 41),4	107,(11, 41),4	197,(7, 41),4	201,(28, 41),4	205,(24, 41),4	209,(5, 41),4	213,(29, 41),4	217,(33, 41),4	221,(36, 41),4	373,(8, 41),4	387,(15, 41),4	391,(22, 41),4	397,(6, 41),4	405,(10, 41),4	415,(9, 41),4	419,(18, 41),4	473,(30, 41),4	487,(3, 39),84	571,(20, 41),4	575,(12, 41),4	579,(32, 41),4	583,(38, 41),4	677,(14, 41),4	711,(4, 19),20	731,(4, 23),40	771,(17, 41),4	807,(4, 27),72	879,(25, 41),4	883,(26, 41),4	913,(34, 41),4	933,(35, 41),4	969,(37, 41),4	1051,(21, 41),4	1061,(40, 41),4	
9,(0, 4),4	97,(1, 15),36	133,(2, 22),108	407,(3, 21),48	
5,(0, 3),4	15,(2, 12),32	667,(4, 17),44	
1,(0, 2),4	13,(1, 11),84	363,(3, 10),32	395,(4, 9),4	399,(4, 14),268	
19,(3, 5),4	23,(3, 8),340	363,(4, 6),24	
# Outgoing
217,(33, 41),4	221,(36, 41),4	583,(38, 41),4	
65,(31, 41),4	933,(35, 41),4	
473,(30, 41),4	913,(34, 41),4	
579,(32, 41),4	883,(26, 41),4	969,(37, 41),4	
213,(29, 41),4	419,(18, 41),4	879,(25, 41),4	1061,(40, 41),4	

363,(4, 6),24	387,(15, 41),4	391,(22, 41),4	395,(4, 9),4	399,(4, 14),268	667,(4, 17),44	711,(4, 19),20	731,(4, 23),40	771,(4, 25),32	803,(4, 26),4	807,(4, 27),72	879,(4, 34),24	903,(4, 35),20	923,(4, 37),36	959,(4, 40),92	1051,(21, 41),4	
19,(3, 5),4	23,(3, 8),340	363,(3, 10),32	395,(3, 18),12	407,(3, 21),48	455,(3, 30),8	463,(3, 32),20	483,(3, 38),4	487,(3, 39),84	571,(20, 41),4	575,(12, 41),4	771,(17, 41),4	
15,(2, 12),32	47,(2, 16),4	51,(2, 31),4	55,(13, 41),4	107,(11, 41),4	133,(2, 22),108	405,(10, 41),4	415,(9, 41),4	677,(14, 41),4	
1,(0, 2),4	5,(0, 3),4	9,(0, 4),4	13,(1, 11),84	97,(1, 15),36	133,(1, 29),52	185,(1, 33),8	193,(1, 36),4	197,(7, 41),4	201,(28, 41),4	205,(24, 41),4	209,(5, 41),4	373,(8, 41),4	397,(6, 41),4	
