9018
# CPU
4993,62,9	5539,39,9	6009,21,9	6071,50,9	6091,59,9	6100,71,9	7091,41,9	7111,45,9	7225,53,9	7417,10,9	7459,12,9	7477,20,9	7507,23,9	7516,28,9	7539,33,9	7599,36,9	7608,47,9	7627,48,9	7649,57,9	7669,63,9	7691,65,9	7701,72,9	7771,75,9	9017,81,1	
0,0,1	1,5,9	10,3,9	19,4,9	28,1,9	37,38,9	46,13,9	55,19,9	64,42,9	73,44,9	82,54,9	91,11,9	158,31,9	296,15,9	305,37,9	314,43,9	323,55,9	7073,40,9	7463,18,9	7693,67,9	
427,7,9	436,17,9	445,76,9	454,79,9	569,8,9	578,70,9	587,73,9	596,26,9	4475,80,9	4503,27,9	4512,29,9	4559,35,9	4781,49,9	5189,69,9	5325,74,9	5393,9,9	5687,58,9	5951,16,9	6029,24,9	
143,2,9	152,14,9	161,64,9	285,6,9	294,61,9	751,32,9	4821,60,9	5183,68,9	5391,78,9	5549,46,9	5647,52,9	6011,22,9	6031,25,9	6049,34,9	6077,51,9	6095,66,9	7053,30,9	7629,56,9	7777,77,9	
# Incoming
587,(5, 12),2	589,(5, 21),8	597,(2, 21),34	631,(2, 23),16	647,(2, 28),12	659,(2, 33),2	661,(2, 39),10	671,(2, 47),2	673,(2, 50),8	681,(2, 71),8	689,(14, 81),40	729,(6, 20),10	739,(6, 23),2	741,(5, 23),6	751,(5, 33),2	767,(5, 47),290	1057,(5, 48),3166	4223,(5, 53),2	4225,(5, 57),24	4249,(5, 63),2	4251,(6, 45),16	4273,(5, 71),10	4283,(5, 75),172	4477,(3, 10),4	4507,(3, 33),42	4559,(3, 41),2	4561,(3, 47),132	4693,(64, 81),40	4733,(6, 57),30	4783,(3, 53),4	4795,(3, 59),20	4821,(3, 62),172	4993,(3, 65),140	5133,(6, 59),34	5189,(3, 71),86	5275,(3, 72),38	5325,(3, 75),20	5345,(61, 81),40	5393,(4, 10),16	5409,(4, 12),22	5431,(4, 28),2	5433,(4, 33),22	5455,(4, 36),4	5459,(4, 39),80	5539,(4, 45),6	5549,(4, 47),94	5643,(4, 48),2	5647,(4, 53),38	5687,(4, 59),70	5757,(4, 63),34	5791,(4, 65),102	5893,(4, 71),22	5915,(4, 72),26	5941,(1, 10),4	5951,(1, 20),30	5981,(1, 21),28	6011,(1, 23),10	6031,(1, 33),16	6049,(1, 41),8	6057,(1, 47),6	6063,(1, 50),8	6077,(1, 59),14	6095,(1, 71),2	6097,(38, 81),40	6137,(13, 81),40	6177,(19, 81),40	6217,(42, 81),40	6257,(44, 81),40	6297,(54, 81),40	6337,(11, 81),40	6377,(2, 53),326	6703,(31, 81),40	6743,(6, 36),62	6805,(15, 81),40	6845,(37, 81),40	6885,(43, 81),40	6925,(55, 81),40	6965,(7, 28),86	7053,(7, 36),18	7073,(7, 41),18	7091,(7, 45),20	7111,(7, 47),26	7137,(7, 53),88	7225,(7, 63),2	7233,(7, 72),48	7281,(17, 81),40	7321,(76, 81),40	7361,(79, 81),40	7401,(8, 10),16	7417,(8, 12),42	7463,(8, 20),14	7477,(8, 23),30	7507,(8, 28),2	7509,(8, 33),30	7539,(8, 36),60	7599,(8, 47),2	7601,(8, 48),26	7629,(8, 57),20	7649,(8, 63),20	7669,(8, 65),22	7693,(8, 72),8	7701,(8, 75),70	7777,(70, 81),40	7817,(73, 81),40	7857,(26, 81),40	7897,(32, 81),40	7937,(80, 81),40	7977,(27, 81),40	8017,(29, 81),40	8057,(35, 81),40	8097,(49, 81),40	8137,(60, 81),40	8177,(68, 81),40	8217,(69, 81),40	8257,(74, 81),40	8297,(78, 81),40	8337,(9, 81),40	8377,(46, 81),40	8417,(52, 81),40	8457,(58, 81),40	8497,(16, 81),40	8537,(22, 81),40	8577,(24, 81),40	8617,(25, 81),40	8657,(34, 81),40	8697,(51, 81),40	8737,(66, 81),40	8777,(30, 81),40	8817,(40, 81),40	8857,(18, 81),40	8897,(56, 81),40	8937,(67, 81),40	8977,(77, 81),40	
152,(2, 15),2	154,(2, 31),4	158,(2, 43),4	294,(6, 15),2	296,(6, 37),8	304,(6, 40),2	306,(6, 43),4	310,(6, 55),2	312,(6, 67),2	7071,(7, 40),2	7227,(7, 67),6	7459,(8, 18),4	7691,(8, 67),2	
285,(0, 7),142	427,(0, 8),142	569,(5, 9),18	587,(2, 26),2	589,(2, 49),2	591,(6, 9),4	755,(5, 35),10	4465,(5, 80),10	4475,(3, 9),2	4481,(3, 16),20	4501,(3, 27),2	4503,(3, 29),4	4551,(3, 35),8	4693,(3, 49),88	4787,(3, 58),8	5183,(3, 69),6	5313,(3, 74),12	5391,(4, 9),2	5685,(4, 58),2	5945,(1, 16),6	6021,(1, 24),8	
1,(0, 2),142	143,(0, 6),142	597,(5, 22),144	747,(5, 25),2	749,(5, 32),2	753,(5, 34),2	765,(5, 46),2	4251,(5, 66),22	4455,(5, 77),10	4549,(3, 34),2	4781,(3, 51),2	4815,(3, 60),6	5133,(3, 66),14	5147,(3, 68),36	5345,(3, 77),42	5387,(3, 78),4	5545,(4, 46),4	5645,(4, 52),2	6009,(1, 22),2	6029,(1, 25),2	6047,(1, 34),2	6071,(1, 51),6	6091,(1, 66),4	7051,(7, 30),2	7627,(8, 56),2	7771,(8, 77),6	
# Outgoing

1,(0, 2),142	143,(0, 6),142	285,(0, 7),142	427,(0, 8),142	569,(5, 9),18	587,(5, 12),2	589,(5, 21),8	597,(5, 22),144	741,(5, 23),6	747,(5, 25),2	749,(5, 32),2	751,(5, 33),2	753,(5, 34),2	755,(5, 35),10	765,(5, 46),2	767,(5, 47),290	1057,(5, 48),3166	4223,(5, 53),2	4225,(5, 57),24	4249,(5, 63),2	4251,(5, 66),22	4273,(5, 71),10	4283,(5, 75),172	4455,(5, 77),10	4465,(5, 80),10	4475,(3, 9),2	4477,(3, 10),4	4481,(3, 16),20	4501,(3, 27),2	4503,(3, 29),4	4507,(3, 33),42	4549,(3, 34),2	4551,(3, 35),8	4559,(3, 41),2	4561,(3, 47),132	4693,(3, 49),88	4781,(3, 51),2	4783,(3, 53),4	4787,(3, 58),8	4795,(3, 59),20	4815,(3, 60),6	4821,(3, 62),172	4993,(3, 65),140	5133,(3, 66),14	5147,(3, 68),36	5183,(3, 69),6	5189,(3, 71),86	5275,(3, 72),38	5313,(3, 74),12	5325,(3, 75),20	5345,(3, 77),42	5387,(3, 78),4	5391,(4, 9),2	5393,(4, 10),16	5409,(4, 12),22	5431,(4, 28),2	5433,(4, 33),22	5455,(4, 36),4	5459,(4, 39),80	5539,(4, 45),6	5545,(4, 46),4	5549,(4, 47),94	5643,(4, 48),2	5645,(4, 52),2	5647,(4, 53),38	5685,(4, 58),2	5687,(4, 59),70	5757,(4, 63),34	5791,(4, 65),102	5893,(4, 71),22	5915,(4, 72),26	5941,(1, 10),4	5945,(1, 16),6	5951,(1, 20),30	5981,(1, 21),28	6009,(1, 22),2	6011,(1, 23),10	6021,(1, 24),8	6029,(1, 25),2	6031,(1, 33),16	6047,(1, 34),2	6049,(1, 41),8	6057,(1, 47),6	6063,(1, 50),8	6071,(1, 51),6	6077,(1, 59),14	6091,(1, 66),4	6095,(1, 71),2	6097,(38, 81),40	6137,(13, 81),40	6177,(19, 81),40	6217,(42, 81),40	6257,(44, 81),40	6297,(54, 81),40	6337,(11, 81),40	6703,(31, 81),40	6805,(15, 81),40	6845,(37, 81),40	6885,(43, 81),40	6925,(55, 81),40	8817,(40, 81),40	8857,(18, 81),40	8937,(67, 81),40	
6965,(7, 28),86	7051,(7, 30),2	7053,(7, 36),18	7071,(7, 40),2	7073,(7, 41),18	7091,(7, 45),20	7111,(7, 47),26	7137,(7, 53),88	7225,(7, 63),2	7227,(7, 67),6	7233,(7, 72),48	7281,(17, 81),40	7321,(76, 81),40	7361,(79, 81),40	7401,(8, 10),16	7417,(8, 12),42	7459,(8, 18),4	7463,(8, 20),14	7477,(8, 23),30	7507,(8, 28),2	7509,(8, 33),30	7539,(8, 36),60	7599,(8, 47),2	7601,(8, 48),26	7627,(8, 56),2	7629,(8, 57),20	7649,(8, 63),20	7669,(8, 65),22	7691,(8, 67),2	7693,(8, 72),8	7701,(8, 75),70	7771,(8, 77),6	7777,(70, 81),40	7817,(73, 81),40	7857,(26, 81),40	7937,(80, 81),40	7977,(27, 81),40	8017,(29, 81),40	8057,(35, 81),40	8097,(49, 81),40	8217,(69, 81),40	8257,(74, 81),40	8337,(9, 81),40	8457,(58, 81),40	8497,(16, 81),40	8577,(24, 81),40	
152,(2, 15),2	154,(2, 31),4	158,(2, 43),4	294,(6, 15),2	296,(6, 37),8	304,(6, 40),2	306,(6, 43),4	310,(6, 55),2	312,(6, 67),2	587,(2, 26),2	589,(2, 49),2	591,(6, 9),4	597,(2, 21),34	631,(2, 23),16	647,(2, 28),12	659,(2, 33),2	661,(2, 39),10	671,(2, 47),2	673,(2, 50),8	681,(2, 71),8	689,(14, 81),40	729,(6, 20),10	739,(6, 23),2	4251,(6, 45),16	4693,(64, 81),40	4733,(6, 57),30	5133,(6, 59),34	5345,(61, 81),40	6377,(2, 53),326	6743,(6, 36),62	7897,(32, 81),40	8137,(60, 81),40	8177,(68, 81),40	8297,(78, 81),40	8377,(46, 81),40	8417,(52, 81),40	8537,(22, 81),40	8617,(25, 81),40	8657,(34, 81),40	8697,(51, 81),40	8737,(66, 81),40	8777,(30, 81),40	8897,(56, 81),40	8977,(77, 81),40	
