73
# CPU
0,21,1	1,7,7	8,5,7	15,11,7	22,4,7	29,15,7	36,10,7	43,18,7	50,19,7	57,20,7	64,2,7	72,0,1	
3,16,7	10,6,7	17,8,7	24,3,7	
2,17,7	9,12,7	16,13,7	23,14,7	30,9,7	58,1,7	
# Incoming
10,(16, 2),1	16,(12, 2),2	18,(6, 2),3	23,(13, 2),3	31,(3, 2),7	38,(9, 2),11	65,(1, 0),7	
2,(21, 16),1	4,(21, 6),1	6,(21, 8),1	8,(21, 3),1	
1,(21, 17),1	3,(21, 12),1	5,(21, 13),1	7,(21, 14),1	9,(21, 9),1	10,(7, 1),7	17,(5, 1),2	22,(11, 1),3	25,(8, 1),4	29,(4, 1),6	50,(18, 1),8	
# Outgoing
1,(21, 17),1	2,(21, 16),1	3,(21, 12),1	4,(21, 6),1	5,(21, 13),1	6,(21, 8),1	7,(21, 14),1	8,(21, 3),1	9,(21, 9),1	10,(7, 1),7	17,(5, 1),2	22,(11, 1),3	29,(4, 1),6	50,(18, 1),8	
10,(16, 2),1	18,(6, 2),3	25,(8, 1),4	31,(3, 2),7	
16,(12, 2),2	23,(13, 2),3	38,(9, 2),11	65,(1, 0),7	
