858
# CPU
0,201,1	1,183,1	2,143,1	3,139,1	4,67,1	5,59,1	6,172,1	7,191,1	8,65,1	9,135,1	10,179,1	11,30,1	12,168,1	13,122,1	14,109,1	15,90,1	16,144,1	17,156,1	18,196,1	19,32,1	20,121,1	21,186,1	22,51,1	23,39,1	24,165,1	25,97,1	26,101,1	27,120,1	28,86,1	29,107,1	30,47,1	31,117,1	32,160,1	33,138,1	34,75,1	35,125,1	36,85,1	37,129,1	38,81,1	39,182,1	40,66,1	41,54,1	42,145,1	43,29,1	44,164,1	45,21,1	46,194,1	47,134,1	48,190,1	49,181,1	50,119,1	51,22,1	52,152,1	53,151,1	54,61,1	55,52,1	56,158,1	57,57,1	58,163,1	59,137,1	60,102,1	61,103,1	62,77,1	63,72,1	64,71,1	65,177,1	66,93,1	67,128,1	68,79,1	69,63,1	70,148,1	71,162,1	72,49,1	73,193,1	74,131,1	75,38,1	76,192,1	77,56,1	78,180,1	79,55,1	80,130,1	81,45,1	82,153,1	83,150,1	84,64,1	85,146,1	86,89,1	87,198,1	88,80,1	89,185,1	90,84,1	91,176,1	92,88,1	93,113,1	94,171,1	95,33,1	96,200,1	97,154,1	98,25,1	99,108,1	100,99,1	101,68,1	102,60,1	103,41,1	104,174,1	105,141,1	106,187,1	107,31,1	108,112,1	109,96,1	110,83,1	111,127,1	112,74,1	113,157,1	114,82,1	115,147,1	116,170,1	117,42,1	118,46,1	119,188,1	120,178,1	121,116,1	122,43,1	123,44,1	124,28,1	125,105,1	126,70,1	127,34,1	128,173,1	129,91,1	130,133,1	131,58,1	132,92,1	133,36,1	134,126,1	135,197,1	136,195,1	137,98,1	138,50,1	139,23,1	140,161,1	141,94,1	142,111,1	143,110,1	144,124,1	145,136,1	146,37,1	147,62,1	148,104,1	149,26,1	150,132,1	151,53,1	152,169,1	153,40,1	154,167,1	155,118,1	156,73,1	157,166,1	158,123,1	159,199,1	160,184,1	161,48,1	162,149,1	163,7,1	164,35,1	165,78,1	166,76,1	167,2,1	168,87,1	169,106,1	170,175,1	171,140,1	172,15,1	173,20,1	174,27,1	175,17,1	176,6,1	177,142,1	178,4,1	179,95,1	180,1,1	181,115,1	182,13,1	183,24,1	184,19,1	185,69,1	186,14,1	187,18,1	188,189,1	189,9,1	190,11,1	191,12,1	192,5,1	193,10,1	196,16,1	276,3,1	856,8,1	857,0,1	
93,155,1	185,114,1	
47,159,1	139,100,1	
# Incoming
48,(159, 9),2	50,(159, 12),6	94,(155, 5),20	140,(100, 11),4	144,(100, 10),22	186,(114, 16),10	196,(100, 3),50	246,(114, 3),30	276,(114, 8),580	
47,(201, 155),46	139,(201, 114),46	
1,(201, 159),46	93,(201, 100),46	
# Outgoing
1,(201, 159),46	47,(201, 155),46	93,(201, 100),46	139,(201, 114),46	
94,(155, 5),20	186,(114, 16),10	246,(114, 3),30	276,(114, 8),580	
48,(159, 9),2	50,(159, 12),6	140,(100, 11),4	144,(100, 10),22	196,(100, 3),50	
