1278
# CPU
36,2,31	67,12,31	98,4,31	129,6,31	160,16,31	191,76,31	222,20,31	253,36,31	284,24,31	315,26,31	346,8,31	377,64,31	408,72,31	439,66,31	470,38,31	501,54,31	532,18,31	563,56,31	594,22,31	625,48,31	656,80,31	687,30,31	718,32,31	749,52,31	780,62,31	811,10,31	842,14,31	873,34,31	904,40,31	935,42,31	966,46,31	997,74,31	1028,78,31	1059,28,31	1090,44,31	1121,50,31	1152,58,31	1183,60,31	1214,68,31	1245,70,31	
0,0,1	1,7,31	32,5,31	63,1,31	94,3,31	125,59,31	156,45,31	187,19,31	218,63,31	249,75,31	280,55,31	311,17,31	342,43,31	373,37,31	404,27,31	435,39,31	466,41,31	497,23,31	528,47,31	559,53,31	590,57,31	621,61,31	652,65,31	683,73,31	714,9,31	745,11,31	776,13,31	807,15,31	838,21,31	869,29,31	900,33,31	931,67,31	962,71,31	993,77,31	1024,25,31	1055,31,31	1086,35,31	1117,49,31	1148,51,31	1179,69,31	1210,79,31	1277,81,1	
# Incoming
1,(0, 2),35	36,(0, 4),35	71,(0, 6),35	106,(0, 8),35	141,(7, 18),95	236,(7, 52),9	245,(7, 56),39	284,(7, 62),9	293,(7, 68),1	294,(5, 22),72	366,(5, 32),11	377,(5, 42),39	416,(5, 44),13	429,(5, 46),1	430,(5, 50),1	431,(5, 52),40	471,(5, 62),85	556,(1, 10),1	557,(1, 14),1	558,(1, 34),3	561,(1, 40),3	564,(1, 42),9	573,(1, 46),25	598,(1, 74),5	603,(1, 78),24	627,(3, 28),11	638,(3, 44),1	639,(3, 50),1	640,(3, 58),3	643,(3, 60),3	646,(3, 68),1	647,(3, 70),21	
67,(2, 11),6	73,(2, 15),24	97,(2, 17),1	98,(2, 33),3	101,(2, 35),12	113,(2, 39),52	165,(2, 41),3	168,(2, 47),5	173,(12, 81),1	174,(4, 23),6	180,(4, 47),5	185,(4, 53),1	186,(4, 57),2	188,(4, 61),2	190,(4, 65),1	191,(4, 71),1	192,(4, 73),6	198,(6, 9),1	199,(6, 11),1	200,(6, 13),3	203,(6, 15),33	236,(6, 21),1	237,(6, 29),3	240,(6, 33),5	245,(6, 67),2	247,(6, 71),5	252,(6, 77),19	271,(16, 81),1	272,(76, 81),1	273,(20, 81),1	284,(36, 81),1	315,(24, 81),1	346,(26, 81),1	377,(8, 25),1	378,(8, 31),40	418,(8, 35),1	419,(8, 49),3	422,(8, 51),11	433,(8, 69),7	440,(8, 79),1	441,(64, 81),1	442,(72, 81),1	470,(66, 81),1	501,(38, 81),1	532,(54, 81),1	563,(18, 81),1	594,(56, 81),1	625,(22, 81),1	656,(48, 81),1	687,(80, 81),1	718,(30, 81),1	749,(32, 81),1	780,(52, 81),1	811,(62, 81),1	842,(10, 81),1	873,(14, 81),1	904,(34, 81),1	935,(40, 81),1	966,(42, 81),1	997,(46, 81),1	1028,(74, 81),1	1059,(78, 81),1	1090,(28, 81),1	1121,(44, 81),1	1152,(50, 81),1	1183,(58, 81),1	1214,(60, 81),1	1245,(68, 81),1	1276,(70, 81),1	
# Outgoing
67,(2, 11),6	73,(2, 15),24	97,(2, 17),1	98,(2, 33),3	101,(2, 35),12	113,(2, 39),52	165,(2, 41),3	168,(2, 47),5	173,(12, 81),1	174,(4, 23),6	180,(4, 47),5	185,(4, 53),1	186,(4, 57),2	188,(4, 61),2	190,(4, 65),1	191,(4, 71),1	192,(4, 73),6	198,(6, 9),1	199,(6, 11),1	200,(6, 13),3	203,(6, 15),33	236,(6, 21),1	237,(6, 29),3	240,(6, 33),5	245,(6, 67),2	247,(6, 71),5	252,(6, 77),19	271,(16, 81),1	272,(76, 81),1	273,(20, 81),1	284,(36, 81),1	315,(24, 81),1	346,(26, 81),1	377,(8, 25),1	378,(8, 31),40	418,(8, 35),1	419,(8, 49),3	422,(8, 51),11	433,(8, 69),7	440,(8, 79),1	441,(64, 81),1	442,(72, 81),1	470,(66, 81),1	501,(38, 81),1	532,(54, 81),1	563,(18, 81),1	594,(56, 81),1	625,(22, 81),1	656,(48, 81),1	687,(80, 81),1	718,(30, 81),1	749,(32, 81),1	780,(52, 81),1	811,(62, 81),1	842,(10, 81),1	873,(14, 81),1	904,(34, 81),1	935,(40, 81),1	966,(42, 81),1	997,(46, 81),1	1028,(74, 81),1	1059,(78, 81),1	1090,(28, 81),1	1121,(44, 81),1	1152,(50, 81),1	1183,(58, 81),1	1214,(60, 81),1	1245,(68, 81),1	1276,(70, 81),1	
1,(0, 2),35	36,(0, 4),35	71,(0, 6),35	106,(0, 8),35	141,(7, 18),95	236,(7, 52),9	245,(7, 56),39	284,(7, 62),9	293,(7, 68),1	294,(5, 22),72	366,(5, 32),11	377,(5, 42),39	416,(5, 44),13	429,(5, 46),1	430,(5, 50),1	431,(5, 52),40	471,(5, 62),85	556,(1, 10),1	557,(1, 14),1	558,(1, 34),3	561,(1, 40),3	564,(1, 42),9	573,(1, 46),25	598,(1, 74),5	603,(1, 78),24	627,(3, 28),11	638,(3, 44),1	639,(3, 50),1	640,(3, 58),3	643,(3, 60),3	646,(3, 68),1	647,(3, 70),21	
