2589
# CPU


2556,20,1	
2554,19,1	
2540,17,1	
669,15,1	2588,21,1	
2538,14,1	2552,18,1	
665,12,1	794,8,1	798,9,1	
557,2,1	558,13,1	621,4,1	625,6,1	651,10,1	677,16,1	
0,0,1	1,1,1	2,3,1	646,5,1	792,7,1	2536,11,1	
# Incoming


2554,(2, 20),2	
1613,(1, 19),10	2552,(2, 19),2	
677,(1, 17),926	2538,(2, 17),2	
667,(1, 15),2	669,(12, 21),4	795,(8, 21),4	799,(9, 21),4	1623,(3, 21),4	1627,(5, 21),4	1631,(7, 21),4	2537,(11, 21),4	2541,(14, 21),4	2545,(17, 21),4	2556,(13, 21),4	2560,(4, 21),4	2564,(6, 21),4	2568,(10, 21),4	2572,(16, 21),4	2576,(18, 21),4	2580,(19, 21),4	2584,(20, 21),4	
665,(1, 14),2	1603,(1, 18),10	2536,(2, 14),2	2540,(2, 18),12	
625,(1, 8),2	651,(1, 12),14	792,(2, 8),2	794,(2, 9),4	
1,(0, 2),556	557,(1, 4),64	621,(1, 6),4	627,(1, 10),24	669,(1, 16),8	
558,(2, 5),88	646,(2, 7),146	798,(2, 11),1738	
# Outgoing


2584,(20, 21),4	
2580,(19, 21),4	
2545,(17, 21),4	

2541,(14, 21),4	2576,(18, 21),4	
669,(12, 21),4	795,(8, 21),4	799,(9, 21),4	
558,(2, 5),88	646,(2, 7),146	792,(2, 8),2	794,(2, 9),4	798,(2, 11),1738	2536,(2, 14),2	2538,(2, 17),2	2540,(2, 18),12	2552,(2, 19),2	2554,(2, 20),2	2556,(13, 21),4	2560,(4, 21),4	2564,(6, 21),4	2568,(10, 21),4	2572,(16, 21),4	
1,(0, 2),556	557,(1, 4),64	621,(1, 6),4	625,(1, 8),2	627,(1, 10),24	651,(1, 12),14	665,(1, 14),2	667,(1, 15),2	669,(1, 16),8	677,(1, 17),926	1603,(1, 18),10	1613,(1, 19),10	1623,(3, 21),4	1627,(5, 21),4	1631,(7, 21),4	2537,(11, 21),4	
