4190
# CPU
9,2,31	40,4,31	71,6,31	102,8,31	133,12,31	164,24,31	195,16,31	226,34,31	257,22,31	288,70,31	319,32,31	350,40,31	397,58,31	428,66,31	459,72,31	490,78,31	521,14,31	571,18,31	602,26,31	633,42,31	664,54,31	695,60,31	726,20,31	757,30,31	788,38,31	819,44,31	850,48,31	881,56,31	912,64,31	943,80,31	974,10,31	1005,28,31	1036,36,31	1067,46,31	1098,50,31	1129,52,31	1160,62,31	1191,68,31	1222,74,31	1253,76,31	
0,0,1	1,1,31	32,5,31	63,7,31	94,3,31	125,39,31	156,23,31	187,59,31	218,17,31	249,67,31	280,53,31	311,61,31	342,29,31	373,35,31	404,11,31	435,13,31	466,21,31	497,9,31	528,27,31	559,63,31	590,77,31	621,19,31	652,25,31	683,31,31	714,49,31	745,71,31	776,75,31	3748,15,31	3779,33,31	3810,37,31	3841,45,31	3872,57,31	3910,79,31	3941,41,31	3972,43,31	4003,47,31	4034,51,31	4065,55,31	4096,65,31	4127,69,31	4158,73,31	4189,81,1	
# Incoming
1,(0, 2),8	9,(0, 4),8	17,(0, 6),8	25,(0, 8),8	33,(1, 20),48	81,(1, 24),2	83,(1, 34),14	97,(1, 38),52	149,(1, 40),2	151,(1, 52),240	391,(1, 54),4	395,(1, 58),2	397,(1, 66),26	423,(1, 72),10	433,(1, 76),8	441,(1, 78),32	473,(5, 14),8	481,(5, 18),90	571,(5, 26),2	573,(5, 42),18	591,(5, 54),22	613,(5, 60),6	619,(7, 20),28	647,(7, 30),2	649,(7, 38),30	679,(7, 44),14	693,(7, 48),4	697,(7, 56),18	715,(7, 64),24	739,(7, 74),80	819,(7, 80),2	821,(3, 10),2	823,(3, 28),4	827,(3, 36),22	849,(3, 46),12	861,(3, 50),14	875,(3, 52),2	877,(3, 62),8	885,(3, 68),44	929,(3, 74),2	931,(3, 76),46	
40,(2, 9),88	128,(2, 27),10	138,(2, 33),28	166,(2, 63),2	168,(2, 65),64	232,(2, 77),2	234,(4, 19),14	248,(4, 25),4	252,(4, 31),2	254,(4, 47),22	276,(4, 49),34	310,(4, 71),10	320,(4, 75),26	346,(4, 79),3222	3568,(6, 15),180	3748,(6, 33),2	3750,(6, 37),2	3752,(6, 43),46	3798,(6, 45),10	3808,(6, 57),2	3810,(6, 69),2	3812,(6, 79),98	3910,(8, 41),28	3938,(8, 43),2	3940,(8, 47),4	3944,(8, 51),2	3946,(8, 55),2	3948,(8, 65),12	3960,(8, 69),18	3978,(8, 73),2	3980,(12, 81),4	3984,(24, 81),4	3988,(16, 81),4	3992,(34, 81),4	3996,(22, 81),4	4000,(70, 81),4	4004,(32, 81),4	4008,(40, 81),4	4012,(58, 81),4	4016,(66, 81),4	4020,(72, 81),4	4024,(78, 81),4	4028,(14, 81),4	4032,(18, 81),4	4036,(26, 81),4	4040,(42, 81),4	4044,(54, 81),4	4048,(60, 81),4	4052,(20, 81),4	4056,(30, 81),4	4060,(38, 81),4	4064,(44, 81),4	4068,(48, 81),4	4072,(56, 81),4	4076,(64, 81),4	4080,(80, 81),4	4084,(10, 81),4	4088,(28, 81),4	4092,(36, 81),4	4096,(46, 81),4	4100,(50, 81),4	4104,(52, 81),4	4108,(62, 81),4	4112,(68, 81),4	4116,(74, 81),4	4120,(76, 81),4	
# Outgoing
40,(2, 9),88	128,(2, 27),10	138,(2, 33),28	166,(2, 63),2	168,(2, 65),64	232,(2, 77),2	234,(4, 19),14	248,(4, 25),4	252,(4, 31),2	254,(4, 47),22	276,(4, 49),34	310,(4, 71),10	320,(4, 75),26	346,(4, 79),3222	3568,(6, 15),180	3748,(6, 33),2	3750,(6, 37),2	3752,(6, 43),46	3798,(6, 45),10	3808,(6, 57),2	3810,(6, 69),2	3812,(6, 79),98	3910,(8, 41),28	3938,(8, 43),2	3940,(8, 47),4	3944,(8, 51),2	3946,(8, 55),2	3948,(8, 65),12	3960,(8, 69),18	3978,(8, 73),2	3980,(12, 81),4	3984,(24, 81),4	3988,(16, 81),4	3992,(34, 81),4	3996,(22, 81),4	4000,(70, 81),4	4004,(32, 81),4	4008,(40, 81),4	4012,(58, 81),4	4016,(66, 81),4	4020,(72, 81),4	4024,(78, 81),4	4028,(14, 81),4	4032,(18, 81),4	4036,(26, 81),4	4040,(42, 81),4	4044,(54, 81),4	4048,(60, 81),4	4052,(20, 81),4	4056,(30, 81),4	4060,(38, 81),4	4064,(44, 81),4	4068,(48, 81),4	4072,(56, 81),4	4076,(64, 81),4	4080,(80, 81),4	4084,(10, 81),4	4088,(28, 81),4	4092,(36, 81),4	4096,(46, 81),4	4100,(50, 81),4	4104,(52, 81),4	4108,(62, 81),4	4112,(68, 81),4	4116,(74, 81),4	4120,(76, 81),4	
1,(0, 2),8	9,(0, 4),8	17,(0, 6),8	25,(0, 8),8	33,(1, 20),48	81,(1, 24),2	83,(1, 34),14	97,(1, 38),52	149,(1, 40),2	151,(1, 52),240	391,(1, 54),4	395,(1, 58),2	397,(1, 66),26	423,(1, 72),10	433,(1, 76),8	441,(1, 78),32	473,(5, 14),8	481,(5, 18),90	571,(5, 26),2	573,(5, 42),18	591,(5, 54),22	613,(5, 60),6	619,(7, 20),28	647,(7, 30),2	649,(7, 38),30	679,(7, 44),14	693,(7, 48),4	697,(7, 56),18	715,(7, 64),24	739,(7, 74),80	819,(7, 80),2	821,(3, 10),2	823,(3, 28),4	827,(3, 36),22	849,(3, 46),12	861,(3, 50),14	875,(3, 52),2	877,(3, 62),8	885,(3, 68),44	929,(3, 74),2	931,(3, 76),46	
