309
# CPU
0,0,1	1,8,10	11,31,10	21,67,10	31,23,10	41,7,10	51,11,10	61,64,10	71,48,10	81,21,10	91,60,10	101,4,10	111,74,10	121,47,10	131,39,10	141,33,10	151,34,10	161,56,10	171,26,10	181,76,10	191,37,10	201,73,10	211,32,10	221,45,10	231,57,10	241,71,10	251,20,10	261,49,10	271,70,10	298,44,10	308,81,1	
12,35,10	22,80,10	40,5,10	50,59,10	60,1,10	70,38,10	80,6,10	90,78,10	100,40,10	110,2,10	120,61,10	130,27,10	140,36,10	150,28,10	160,29,10	170,72,10	180,55,10	190,79,10	200,50,10	210,75,10	220,12,10	230,30,10	240,77,10	250,63,10	260,9,10	270,17,10	280,42,10	
13,65,10	51,62,10	61,19,10	71,41,10	84,13,10	94,18,10	104,16,10	114,51,10	124,24,10	134,15,10	144,66,10	154,14,10	164,54,10	174,46,10	184,22,10	194,3,10	204,58,10	214,53,10	224,25,10	234,43,10	244,52,10	254,10,10	264,69,10	274,68,10	
# Incoming
22,(35, 81),1	23,(65, 81),1	32,(80, 81),1	59,(5, 45),1	60,(59, 81),1	61,(62, 81),1	62,(5, 71),1	71,(19, 81),1	80,(38, 81),1	81,(41, 81),1	82,(1, 49),7	94,(13, 81),1	100,(78, 81),1	101,(6, 70),3	104,(18, 81),1	110,(40, 81),1	114,(16, 81),1	124,(51, 81),1	125,(2, 57),3	128,(2, 71),1	130,(61, 81),1	134,(24, 81),1	140,(27, 81),1	144,(15, 81),1	150,(36, 81),1	154,(66, 81),1	160,(28, 81),1	164,(14, 81),1	170,(29, 81),1	174,(54, 81),1	180,(72, 81),1	184,(46, 81),1	190,(55, 81),1	194,(22, 81),1	200,(79, 81),1	204,(3, 32),1	205,(3, 71),2	210,(50, 81),1	214,(58, 81),1	215,(3, 20),4	220,(75, 81),1	224,(53, 81),1	225,(3, 70),5	230,(12, 81),1	234,(25, 81),1	240,(30, 81),1	244,(43, 81),1	250,(77, 81),1	254,(52, 81),1	260,(63, 81),1	264,(10, 81),1	270,(9, 81),1	274,(69, 81),1	280,(17, 81),1	284,(68, 81),1	285,(1, 44),13	298,(42, 81),1	
11,(8, 35),1	13,(8, 80),9	22,(0, 5),18	40,(0, 1),18	60,(0, 6),18	84,(0, 2),18	104,(7, 17),3	207,(3, 42),3	
12,(8, 65),1	50,(5, 62),1	51,(5, 19),8	59,(7, 41),1	61,(5, 15),1	70,(1, 41),1	71,(1, 13),1	72,(1, 22),3	78,(8, 13),6	90,(6, 18),1	91,(6, 16),2	93,(6, 66),4	97,(6, 52),1	98,(6, 68),1	102,(7, 54),2	104,(6, 54),4	108,(8, 69),2	111,(4, 51),1	112,(4, 24),1	113,(4, 15),1	114,(4, 46),1	120,(2, 14),5	129,(2, 10),1	131,(1, 46),8	139,(4, 22),7	146,(0, 3),18	164,(4, 68),7	
# Outgoing
11,(8, 35),1	12,(8, 65),1	13,(8, 80),9	22,(0, 5),18	40,(0, 1),18	59,(7, 41),1	60,(0, 6),18	78,(8, 13),6	84,(0, 2),18	102,(7, 54),2	104,(7, 17),3	108,(8, 69),2	111,(4, 51),1	112,(4, 24),1	113,(4, 15),1	114,(4, 46),1	139,(4, 22),7	146,(0, 3),18	164,(4, 68),7	
22,(35, 81),1	32,(80, 81),1	50,(5, 62),1	51,(5, 19),8	59,(5, 45),1	60,(59, 81),1	61,(5, 15),1	62,(5, 71),1	70,(1, 41),1	71,(1, 13),1	72,(1, 22),3	80,(38, 81),1	82,(1, 49),7	90,(6, 18),1	91,(6, 16),2	93,(6, 66),4	97,(6, 52),1	98,(6, 68),1	100,(78, 81),1	101,(6, 70),3	104,(6, 54),4	110,(40, 81),1	120,(2, 14),5	125,(2, 57),3	128,(2, 71),1	129,(2, 10),1	130,(61, 81),1	131,(1, 46),8	140,(27, 81),1	150,(36, 81),1	160,(28, 81),1	170,(29, 81),1	180,(72, 81),1	190,(55, 81),1	200,(79, 81),1	210,(50, 81),1	220,(75, 81),1	230,(12, 81),1	240,(30, 81),1	250,(77, 81),1	260,(63, 81),1	270,(9, 81),1	280,(17, 81),1	285,(1, 44),13	298,(42, 81),1	
23,(65, 81),1	61,(62, 81),1	71,(19, 81),1	81,(41, 81),1	94,(13, 81),1	104,(18, 81),1	114,(16, 81),1	124,(51, 81),1	134,(24, 81),1	144,(15, 81),1	154,(66, 81),1	164,(14, 81),1	174,(54, 81),1	184,(46, 81),1	194,(22, 81),1	204,(3, 32),1	205,(3, 71),2	207,(3, 42),3	214,(58, 81),1	215,(3, 20),4	224,(53, 81),1	225,(3, 70),5	234,(25, 81),1	244,(43, 81),1	254,(52, 81),1	264,(10, 81),1	274,(69, 81),1	284,(68, 81),1	
