196
# CPU
0,41,1	1,18,1	2,27,1	3,26,1	4,31,1	5,39,1	6,23,1	7,9,1	8,17,1	9,5,1	10,7,1	11,19,1	12,33,1	13,20,1	14,16,1	15,13,1	16,14,1	17,21,1	18,30,1	19,6,1	20,25,1	21,15,1	22,12,1	23,11,1	24,28,1	25,40,1	26,29,1	27,10,1	28,35,1	29,34,1	30,4,1	31,2,1	48,3,1	194,1,1	195,0,1	
9,22,1	17,37,1	25,24,1	29,32,1	
21,8,1	

5,36,1	13,38,1	
# Incoming
10,(22, 2),6	16,(38, 2),12	28,(36, 3),2	30,(37, 3),16	46,(32, 3),2	48,(8, 1),26	74,(24, 1),38	112,(32, 1),82	
5,(41, 22),4	13,(41, 37),4	21,(41, 24),4	25,(41, 32),4	
17,(41, 8),4	

1,(41, 36),4	9,(41, 38),4	
# Outgoing
1,(41, 36),4	5,(41, 22),4	9,(41, 38),4	13,(41, 37),4	17,(41, 8),4	21,(41, 24),4	25,(41, 32),4	
10,(22, 2),6	30,(37, 3),16	46,(32, 3),2	74,(24, 1),38	112,(32, 1),82	
48,(8, 1),26	

16,(38, 2),12	28,(36, 3),2	
