1551
# CPU
5,3,10	15,6,10	25,9,10	35,24,10	45,105,10	55,12,10	65,18,10	75,21,10	85,15,10	95,87,10	105,78,10	115,111,10	125,69,10	135,81,10	145,27,10	155,39,10	165,57,10	175,84,10	185,45,10	195,117,10	206,108,10	229,63,10	239,96,10	255,102,10	329,114,10	364,42,10	374,66,10	581,93,10	613,54,10	636,60,10	653,75,10	663,90,10	689,30,10	699,33,10	709,36,10	719,72,10	729,99,10	739,120,10	749,51,10	1070,48,10	
3,2,10	13,5,10	23,8,10	33,71,10	43,38,10	53,11,10	63,116,10	73,62,10	83,26,10	93,44,10	103,101,10	113,113,10	123,86,10	133,41,10	143,119,10	153,56,10	163,95,10	564,92,10	581,50,10	599,107,10	622,14,10	633,17,10	643,77,10	653,68,10	663,74,10	673,110,10	683,53,10	693,89,10	703,98,10	713,20,10	723,23,10	733,59,10	743,47,10	753,80,10	763,104,10	773,83,10	783,29,10	793,35,10	803,65,10	813,32,10	
0,0,1	1,7,10	11,1,10	21,10,10	31,4,10	41,64,10	51,25,10	61,22,10	71,49,10	81,46,10	91,55,10	101,43,10	111,88,10	121,82,10	131,58,10	141,52,10	151,103,10	161,16,10	171,31,10	181,37,10	191,70,10	201,97,10	211,118,10	221,28,10	231,112,10	241,79,10	251,85,10	261,40,10	271,73,10	281,100,10	320,109,10	330,106,10	340,115,10	376,13,10	386,19,10	396,61,10	406,67,10	416,76,10	426,91,10	436,94,10	471,34,10	1550,121,1	
# Incoming
3,(0, 3),2	7,(0, 6),2	11,(0, 9),2	13,(2, 21),2	15,(0, 12),2	17,(7, 18),3	20,(7, 21),2	22,(7, 27),49	72,(7, 39),1	78,(7, 57),3	81,(7, 84),7	88,(2, 45),45	152,(2, 117),1	177,(5, 99),2	201,(5, 108),5	207,(8, 36),4	228,(8, 63),1	233,(8, 96),5	238,(8, 99),13	254,(8, 102),1	255,(8, 114),74	360,(11, 42),4	364,(11, 66),2	564,(7, 93),17	599,(1, 48),10	609,(1, 54),4	613,(1, 60),23	640,(1, 75),13	654,(1, 90),4	678,(10, 30),11	689,(10, 33),1	690,(10, 36),2	693,(10, 72),10	703,(10, 99),16	721,(10, 120),1	722,(4, 51),2	724,(11, 48),346	
1,(0, 2),2	5,(0, 5),2	9,(0, 8),2	13,(0, 11),2	71,(7, 32),1	73,(7, 56),5	86,(3, 95),1	88,(7, 92),476	564,(3, 80),13	577,(3, 107),3	580,(6, 50),1	581,(7, 104),2	583,(7, 107),16	599,(6, 14),23	622,(6, 17),11	633,(6, 104),2	635,(9, 77),1	636,(1, 68),1	637,(1, 74),3	640,(6, 23),9	649,(6, 110),2	651,(9, 53),2	653,(1, 89),1	654,(12, 98),1	658,(10, 20),8	666,(10, 23),12	678,(9, 59),12	692,(10, 47),1	693,(9, 80),20	719,(10, 104),2	721,(9, 83),8	729,(4, 29),8	737,(4, 35),2	739,(4, 65),5	744,(12, 32),25	
15,(2, 46),10	25,(2, 55),1	26,(2, 58),54	80,(3, 52),1	81,(3, 73),5	86,(5, 16),1	87,(6, 34),3	90,(6, 73),1	91,(6, 85),1	92,(6, 103),18	110,(9, 16),1	111,(9, 31),10	121,(9, 37),1	122,(9, 70),1	123,(9, 97),1	124,(9, 118),1	125,(12, 28),5	133,(2, 112),19	153,(5, 79),13	166,(5, 85),11	179,(5, 100),22	206,(8, 19),1	211,(8, 40),17	229,(8, 73),4	233,(24, 121),15	251,(8, 100),3	254,(9, 109),66	320,(12, 106),6	329,(8, 115),1	330,(71, 121),15	345,(38, 121),15	360,(105, 121),15	375,(11, 13),1	376,(11, 19),1	377,(11, 61),5	382,(11, 67),1	383,(11, 76),6	389,(11, 91),2	391,(11, 94),3	394,(12, 34),77	471,(116, 121),15	486,(18, 121),15	501,(62, 121),15	516,(21, 121),15	531,(26, 121),15	546,(15, 121),15	561,(44, 121),15	581,(87, 121),15	596,(101, 121),15	611,(113, 121),15	626,(86, 121),15	655,(78, 121),15	670,(41, 121),15	685,(119, 121),15	700,(56, 121),15	729,(111, 121),15	769,(69, 121),15	784,(81, 121),15	799,(27, 121),15	814,(39, 121),15	829,(57, 121),15	844,(84, 121),15	859,(45, 121),15	874,(117, 121),15	889,(108, 121),15	904,(63, 121),15	919,(96, 121),15	934,(102, 121),15	949,(114, 121),15	964,(42, 121),15	979,(66, 121),15	994,(93, 121),15	1009,(54, 121),15	1024,(60, 121),15	1039,(75, 121),15	1054,(90, 121),15	1070,(95, 121),15	1085,(92, 121),15	1100,(50, 121),15	1115,(107, 121),15	1130,(14, 121),15	1145,(17, 121),15	1160,(77, 121),15	1175,(68, 121),15	1190,(74, 121),15	1205,(110, 121),15	1220,(53, 121),15	1235,(30, 121),15	1250,(89, 121),15	1265,(33, 121),15	1280,(98, 121),15	1295,(36, 121),15	1310,(20, 121),15	1325,(72, 121),15	1340,(23, 121),15	1355,(99, 121),15	1370,(59, 121),15	1385,(120, 121),15	1400,(47, 121),15	1415,(51, 121),15	1430,(80, 121),15	1445,(104, 121),15	1460,(83, 121),15	1475,(29, 121),15	1490,(35, 121),15	1505,(65, 121),15	1520,(32, 121),15	1535,(48, 121),15	
# Outgoing
80,(3, 52),1	81,(3, 73),5	86,(3, 95),1	87,(6, 34),3	90,(6, 73),1	91,(6, 85),1	92,(6, 103),18	110,(9, 16),1	111,(9, 31),10	121,(9, 37),1	122,(9, 70),1	123,(9, 97),1	124,(9, 118),1	125,(12, 28),5	233,(24, 121),15	254,(9, 109),66	320,(12, 106),6	360,(105, 121),15	394,(12, 34),77	486,(18, 121),15	516,(21, 121),15	546,(15, 121),15	564,(3, 80),13	577,(3, 107),3	580,(6, 50),1	581,(87, 121),15	599,(6, 14),23	622,(6, 17),11	633,(6, 104),2	635,(9, 77),1	640,(6, 23),9	649,(6, 110),2	651,(9, 53),2	654,(12, 98),1	655,(78, 121),15	678,(9, 59),12	693,(9, 80),20	721,(9, 83),8	729,(111, 121),15	744,(12, 32),25	769,(69, 121),15	784,(81, 121),15	799,(27, 121),15	814,(39, 121),15	829,(57, 121),15	844,(84, 121),15	859,(45, 121),15	874,(117, 121),15	889,(108, 121),15	904,(63, 121),15	919,(96, 121),15	934,(102, 121),15	949,(114, 121),15	964,(42, 121),15	979,(66, 121),15	994,(93, 121),15	1009,(54, 121),15	1024,(60, 121),15	1039,(75, 121),15	1054,(90, 121),15	1235,(30, 121),15	1265,(33, 121),15	1295,(36, 121),15	1325,(72, 121),15	1355,(99, 121),15	1385,(120, 121),15	1415,(51, 121),15	1535,(48, 121),15	
13,(2, 21),2	15,(2, 46),10	25,(2, 55),1	26,(2, 58),54	86,(5, 16),1	88,(2, 45),45	133,(2, 112),19	152,(2, 117),1	153,(5, 79),13	166,(5, 85),11	177,(5, 99),2	179,(5, 100),22	201,(5, 108),5	206,(8, 19),1	207,(8, 36),4	211,(8, 40),17	228,(8, 63),1	229,(8, 73),4	233,(8, 96),5	238,(8, 99),13	251,(8, 100),3	254,(8, 102),1	255,(8, 114),74	329,(8, 115),1	330,(71, 121),15	345,(38, 121),15	360,(11, 42),4	364,(11, 66),2	375,(11, 13),1	376,(11, 19),1	377,(11, 61),5	382,(11, 67),1	383,(11, 76),6	389,(11, 91),2	391,(11, 94),3	471,(116, 121),15	501,(62, 121),15	531,(26, 121),15	561,(44, 121),15	596,(101, 121),15	611,(113, 121),15	626,(86, 121),15	670,(41, 121),15	685,(119, 121),15	700,(56, 121),15	724,(11, 48),346	1070,(95, 121),15	1085,(92, 121),15	1100,(50, 121),15	1115,(107, 121),15	1130,(14, 121),15	1145,(17, 121),15	1160,(77, 121),15	1175,(68, 121),15	1190,(74, 121),15	1205,(110, 121),15	1220,(53, 121),15	1250,(89, 121),15	1280,(98, 121),15	1310,(20, 121),15	1340,(23, 121),15	1370,(59, 121),15	1400,(47, 121),15	1430,(80, 121),15	1445,(104, 121),15	1460,(83, 121),15	1475,(29, 121),15	1490,(35, 121),15	1505,(65, 121),15	1520,(32, 121),15	
1,(0, 2),2	3,(0, 3),2	5,(0, 5),2	7,(0, 6),2	9,(0, 8),2	11,(0, 9),2	13,(0, 11),2	15,(0, 12),2	17,(7, 18),3	20,(7, 21),2	22,(7, 27),49	71,(7, 32),1	72,(7, 39),1	73,(7, 56),5	78,(7, 57),3	81,(7, 84),7	88,(7, 92),476	564,(7, 93),17	581,(7, 104),2	583,(7, 107),16	599,(1, 48),10	609,(1, 54),4	613,(1, 60),23	636,(1, 68),1	637,(1, 74),3	640,(1, 75),13	653,(1, 89),1	654,(1, 90),4	658,(10, 20),8	666,(10, 23),12	678,(10, 30),11	689,(10, 33),1	690,(10, 36),2	692,(10, 47),1	693,(10, 72),10	703,(10, 99),16	719,(10, 104),2	721,(10, 120),1	722,(4, 51),2	729,(4, 29),8	737,(4, 35),2	739,(4, 65),5	
