84
# CPU
0,0,1	1,2,2	3,9,2	5,12,2	7,20,2	9,5,2	11,13,2	13,18,2	15,19,2	17,10,2	19,6,2	21,4,2	27,7,2	83,21,1	
9,1,2	11,17,2	13,14,2	15,11,2	17,3,2	19,16,2	21,15,2	23,8,2	








# Incoming
11,(1, 6),4	15,(1, 4),4	19,(1, 7),8	27,(17, 21),8	35,(14, 21),8	43,(11, 21),8	51,(3, 21),8	59,(16, 21),8	67,(15, 21),8	75,(8, 21),8	
1,(0, 1),8	9,(2, 8),4	








# Outgoing
1,(0, 1),8	9,(2, 8),4	
11,(1, 6),4	15,(1, 4),4	19,(1, 7),8	27,(17, 21),8	35,(14, 21),8	43,(11, 21),8	51,(3, 21),8	59,(16, 21),8	67,(15, 21),8	75,(8, 21),8	








