3192
# CPU
0,0,1	1,2,5	6,5,5	11,164,5	16,17,5	21,48,5	26,188,5	31,183,5	36,12,5	41,171,5	46,83,5	51,23,5	56,20,5	61,73,5	66,16,5	71,110,5	76,125,5	81,95,5	86,101,5	91,1,5	96,42,5	101,79,5	106,52,5	111,133,5	116,8,5	121,103,5	126,57,5	131,192,5	136,92,5	141,121,5	146,3,5	151,21,5	156,55,5	161,114,5	166,31,5	171,15,5	176,47,5	181,62,5	186,80,5	191,18,5	196,59,5	201,81,5	206,118,5	211,71,5	216,167,5	221,4,5	226,122,5	231,82,5	236,97,5	241,104,5	246,179,5	251,185,5	256,136,5	261,178,5	266,46,5	271,7,5	276,145,5	281,175,5	286,157,5	291,44,5	296,61,5	301,146,5	306,111,5	311,143,5	316,177,5	321,85,5	326,11,5	331,186,5	336,96,5	341,124,5	346,68,5	351,84,5	356,184,5	361,148,5	366,196,5	371,126,5	376,28,5	381,94,5	386,123,5	391,162,5	396,117,5	401,86,5	406,174,5	411,53,5	416,197,5	421,182,5	427,181,5	432,189,5	441,187,5	446,159,5	455,64,5	460,127,5	469,49,5	474,194,5	483,34,5	488,91,5	493,138,5	498,190,5	508,66,5	513,100,5	518,27,5	523,88,5	534,137,5	540,173,5	546,113,5	552,70,5	560,78,5	568,129,5	576,33,5	584,37,5	592,195,5	602,132,5	612,26,5	622,169,5	632,50,5	646,43,5	660,89,5	674,151,5	690,106,5	706,176,5	724,158,5	742,105,5	762,120,5	782,99,5	806,56,5	830,30,5	856,60,5	882,69,5	908,74,5	938,150,5	978,24,5	1018,58,5	1060,77,5	1102,65,5	1150,131,5	1200,170,5	1260,63,5	1322,51,5	1392,32,5	1464,75,5	1540,156,5	1622,128,5	1708,172,5	1794,35,5	1884,180,5	1982,141,5	2080,40,5	2184,160,5	2290,116,5	2422,152,5	2636,199,5	2900,134,5	3186,87,5	3191,201,1	
45,19,5	50,72,5	71,6,5	76,39,5	93,193,5	102,107,5	128,149,5	133,200,5	156,163,5	208,67,5	224,140,5	274,142,5	333,29,5	349,25,5	419,108,5	441,168,5	






198,166,5	
23,13,5	28,112,5	33,139,5	47,45,5	124,9,5	129,54,5	150,10,5	155,153,5	160,38,5	174,198,5	196,14,5	201,161,5	206,144,5	211,130,5	216,154,5	228,36,5	242,93,5	256,22,5	278,155,5	283,165,5	288,109,5	298,90,5	318,98,5	335,119,5	340,102,5	365,191,5	383,147,5	399,115,5	465,135,5	489,41,5	515,76,5	
# Incoming
33,(112, 201),10	43,(139, 201),10	53,(45, 201),10	63,(72, 201),10	76,(6, 162),2	78,(6, 117),2	81,(39, 201),10	91,(13, 94),2	93,(19, 86),2	95,(13, 174),2	98,(193, 201),10	108,(107, 201),10	118,(13, 53),2	120,(19, 53),2	122,(19, 197),4	126,(19, 182),4	130,(19, 88),2	133,(149, 201),10	143,(54, 201),10	153,(200, 201),10	163,(153, 201),10	173,(163, 201),10	183,(38, 201),10	193,(198, 201),10	203,(166, 201),10	213,(161, 201),10	223,(144, 201),10	233,(67, 201),10	243,(130, 201),10	253,(154, 201),10	263,(140, 201),10	273,(36, 201),10	283,(93, 201),10	293,(22, 201),10	303,(142, 201),10	313,(155, 201),10	323,(165, 201),10	333,(109, 201),10	343,(90, 201),10	353,(98, 201),10	363,(29, 201),10	373,(119, 201),10	383,(9, 123),2	385,(102, 201),10	395,(25, 201),10	405,(191, 201),10	415,(147, 201),10	425,(14, 181),2	427,(10, 189),2	429,(115, 201),10	439,(10, 187),2	441,(10, 159),2	443,(108, 201),10	453,(10, 64),2	455,(10, 127),2	457,(168, 201),10	467,(14, 49),2	469,(14, 194),2	471,(135, 201),10	481,(14, 34),2	483,(10, 91),2	485,(9, 138),4	489,(9, 190),4	494,(41, 201),10	504,(9, 66),4	508,(14, 100),4	512,(9, 27),4	516,(9, 88),2	518,(10, 137),2	520,(76, 201),10	530,(9, 137),4	534,(19, 173),4	538,(6, 173),2	540,(9, 113),4	544,(14, 113),2	546,(6, 70),6	552,(13, 78),2	554,(10, 78),6	560,(14, 129),8	568,(14, 33),8	576,(9, 37),8	584,(6, 195),8	592,(9, 132),10	602,(6, 26),8	610,(9, 26),2	612,(9, 169),8	620,(10, 169),2	622,(13, 50),10	632,(13, 43),10	642,(9, 43),4	646,(13, 89),2	648,(6, 89),6	654,(9, 89),4	658,(10, 89),2	660,(10, 151),14	674,(9, 106),16	690,(9, 176),16	706,(6, 158),10	716,(10, 158),8	724,(14, 105),18	742,(14, 120),20	762,(9, 99),10	772,(10, 99),10	782,(6, 56),24	806,(6, 30),14	820,(14, 30),10	830,(9, 60),26	856,(6, 69),26	882,(13, 74),26	908,(6, 150),28	936,(10, 150),2	938,(13, 24),2	940,(19, 24),2	942,(10, 24),36	978,(9, 58),26	1004,(14, 58),14	1018,(13, 77),4	1022,(9, 77),10	1032,(10, 77),28	1060,(19, 65),2	1062,(6, 65),34	1096,(14, 65),6	1102,(9, 131),48	1150,(13, 170),20	1170,(6, 170),30	1200,(19, 63),58	1258,(6, 63),2	1260,(13, 51),62	1322,(13, 32),14	1336,(19, 32),56	1392,(13, 75),2	1394,(6, 75),70	1464,(6, 156),72	1536,(10, 156),4	1540,(13, 128),68	1608,(6, 128),10	1618,(9, 128),4	1622,(13, 172),74	1696,(10, 172),12	1708,(13, 35),86	1794,(19, 180),2	1796,(14, 180),88	1884,(6, 141),60	1944,(9, 141),38	1982,(13, 40),92	2074,(10, 40),6	2080,(13, 160),60	2140,(19, 160),42	2182,(9, 160),2	2184,(10, 116),106	2290,(9, 152),106	2396,(10, 152),26	2422,(9, 199),198	2620,(10, 199),16	2636,(10, 134),264	2900,(14, 87),286	
23,(0, 19),22	47,(12, 72),2	49,(0, 6),22	71,(12, 39),2	73,(16, 39),2	75,(5, 193),4	79,(20, 193),14	93,(5, 149),2	96,(1, 107),6	102,(13, 149),8	124,(17, 149),2	126,(8, 149),2	129,(9, 200),4	133,(9, 163),2	150,(8, 163),6	198,(15, 67),10	208,(18, 140),16	233,(14, 108),2	256,(18, 142),18	324,(1, 25),2	331,(11, 29),2	337,(7, 25),10	347,(11, 25),2	399,(8, 108),4	403,(11, 108),16	419,(17, 168),22	






63,(13, 166),28	196,(18, 166),2	
1,(0, 13),22	45,(5, 45),2	73,(19, 98),2	102,(0, 9),22	128,(0, 10),22	156,(20, 38),2	158,(20, 198),16	174,(0, 14),22	196,(19, 22),26	224,(1, 93),2	226,(4, 36),2	228,(4, 93),14	242,(2, 22),6	248,(3, 22),6	254,(4, 22),2	274,(17, 155),2	276,(7, 155),2	278,(7, 165),4	282,(16, 109),4	286,(7, 109),2	288,(7, 90),10	298,(2, 98),20	318,(18, 119),2	320,(15, 102),4	326,(1, 191),2	328,(1, 115),2	333,(11, 119),2	335,(11, 102),2	337,(19, 115),12	349,(20, 191),14	363,(11, 191),2	365,(11, 147),18	383,(8, 115),12	395,(18, 115),4	405,(6, 135),12	417,(6, 41),14	441,(20, 135),2	443,(18, 135),10	453,(7, 135),12	465,(16, 41),24	489,(8, 76),4	493,(4, 76),22	
# Outgoing
1,(0, 13),22	23,(0, 19),22	45,(5, 45),2	47,(12, 72),2	49,(0, 6),22	71,(12, 39),2	73,(16, 39),2	75,(5, 193),4	79,(20, 193),14	93,(5, 149),2	96,(1, 107),6	102,(0, 9),22	124,(17, 149),2	126,(8, 149),2	128,(0, 10),22	150,(8, 163),6	156,(20, 38),2	158,(20, 198),16	174,(0, 14),22	196,(18, 166),2	198,(15, 67),10	208,(18, 140),16	224,(1, 93),2	226,(4, 36),2	228,(4, 93),14	242,(2, 22),6	248,(3, 22),6	254,(4, 22),2	256,(18, 142),18	274,(17, 155),2	276,(7, 155),2	278,(7, 165),4	282,(16, 109),4	286,(7, 109),2	288,(7, 90),10	298,(2, 98),20	318,(18, 119),2	320,(15, 102),4	324,(1, 25),2	326,(1, 191),2	328,(1, 115),2	331,(11, 29),2	333,(11, 119),2	335,(11, 102),2	337,(7, 25),10	347,(11, 25),2	349,(20, 191),14	363,(11, 191),2	365,(11, 147),18	383,(8, 115),12	395,(18, 115),4	399,(8, 108),4	403,(11, 108),16	419,(17, 168),22	441,(20, 135),2	443,(18, 135),10	453,(7, 135),12	465,(16, 41),24	489,(8, 76),4	493,(4, 76),22	
63,(72, 201),10	73,(19, 98),2	76,(6, 162),2	78,(6, 117),2	81,(39, 201),10	93,(19, 86),2	98,(193, 201),10	108,(107, 201),10	120,(19, 53),2	122,(19, 197),4	126,(19, 182),4	130,(19, 88),2	133,(149, 201),10	153,(200, 201),10	173,(163, 201),10	196,(19, 22),26	233,(67, 201),10	263,(140, 201),10	303,(142, 201),10	337,(19, 115),12	363,(29, 201),10	395,(25, 201),10	405,(6, 135),12	417,(6, 41),14	443,(108, 201),10	457,(168, 201),10	534,(19, 173),4	538,(6, 173),2	546,(6, 70),6	584,(6, 195),8	602,(6, 26),8	648,(6, 89),6	706,(6, 158),10	782,(6, 56),24	806,(6, 30),14	856,(6, 69),26	908,(6, 150),28	940,(19, 24),2	1060,(19, 65),2	1062,(6, 65),34	1170,(6, 170),30	1200,(19, 63),58	1258,(6, 63),2	1336,(19, 32),56	1394,(6, 75),70	1464,(6, 156),72	1608,(6, 128),10	1794,(19, 180),2	1884,(6, 141),60	2140,(19, 160),42	






203,(166, 201),10	
33,(112, 201),10	43,(139, 201),10	53,(45, 201),10	63,(13, 166),28	91,(13, 94),2	95,(13, 174),2	102,(13, 149),8	118,(13, 53),2	129,(9, 200),4	133,(9, 163),2	143,(54, 201),10	163,(153, 201),10	183,(38, 201),10	193,(198, 201),10	213,(161, 201),10	223,(144, 201),10	233,(14, 108),2	243,(130, 201),10	253,(154, 201),10	273,(36, 201),10	283,(93, 201),10	293,(22, 201),10	313,(155, 201),10	323,(165, 201),10	333,(109, 201),10	343,(90, 201),10	353,(98, 201),10	373,(119, 201),10	383,(9, 123),2	385,(102, 201),10	405,(191, 201),10	415,(147, 201),10	425,(14, 181),2	427,(10, 189),2	429,(115, 201),10	439,(10, 187),2	441,(10, 159),2	453,(10, 64),2	455,(10, 127),2	467,(14, 49),2	469,(14, 194),2	471,(135, 201),10	481,(14, 34),2	483,(10, 91),2	485,(9, 138),4	489,(9, 190),4	494,(41, 201),10	504,(9, 66),4	508,(14, 100),4	512,(9, 27),4	516,(9, 88),2	518,(10, 137),2	520,(76, 201),10	530,(9, 137),4	540,(9, 113),4	544,(14, 113),2	552,(13, 78),2	554,(10, 78),6	560,(14, 129),8	568,(14, 33),8	576,(9, 37),8	592,(9, 132),10	610,(9, 26),2	612,(9, 169),8	620,(10, 169),2	622,(13, 50),10	632,(13, 43),10	642,(9, 43),4	646,(13, 89),2	654,(9, 89),4	658,(10, 89),2	660,(10, 151),14	674,(9, 106),16	690,(9, 176),16	716,(10, 158),8	724,(14, 105),18	742,(14, 120),20	762,(9, 99),10	772,(10, 99),10	820,(14, 30),10	830,(9, 60),26	882,(13, 74),26	936,(10, 150),2	938,(13, 24),2	942,(10, 24),36	978,(9, 58),26	1004,(14, 58),14	1018,(13, 77),4	1022,(9, 77),10	1032,(10, 77),28	1096,(14, 65),6	1102,(9, 131),48	1150,(13, 170),20	1260,(13, 51),62	1322,(13, 32),14	1392,(13, 75),2	1536,(10, 156),4	1540,(13, 128),68	1618,(9, 128),4	1622,(13, 172),74	1696,(10, 172),12	1708,(13, 35),86	1796,(14, 180),88	1944,(9, 141),38	1982,(13, 40),92	2074,(10, 40),6	2080,(13, 160),60	2182,(9, 160),2	2184,(10, 116),106	2290,(9, 152),106	2396,(10, 152),26	2422,(9, 199),198	2620,(10, 199),16	2636,(10, 134),264	2900,(14, 87),286	
