12722
# CPU
0,0,1	1,1,318	319,3,318	637,4,318	955,2,318	1273,18,318	1591,39,318	1909,13,318	2227,8,318	2545,38,318	2863,36,318	3181,6,318	3499,28,318	3817,20,318	4135,16,318	4453,11,318	4771,9,318	5089,7,318	5407,25,318	5725,21,318	6043,17,318	6361,37,318	6679,34,318	6997,31,318	7315,19,318	7633,27,318	7951,24,318	8269,23,318	8587,15,318	8905,10,318	9223,29,318	9541,12,318	9859,5,318	10177,33,318	10495,26,318	10813,30,318	11131,40,318	11449,14,318	11767,22,318	12085,35,318	12403,32,318	12721,41,1	




# Incoming





# Outgoing





