172
# CPU
5,3,1	6,21,1	7,36,1	8,24,1	9,27,1	10,33,1	11,9,1	15,15,1	16,6,1	29,30,1	40,12,1	51,39,1	60,18,1	
3,2,1	4,20,1	5,35,1	6,29,1	7,32,1	28,26,1	31,38,1	41,5,1	42,8,1	52,11,1	57,14,1	58,17,1	63,23,1	
0,0,1	1,4,1	2,1,1	3,25,1	4,34,1	5,37,1	6,16,1	7,31,1	8,28,1	20,10,1	21,22,1	26,7,1	42,13,1	75,40,1	133,19,1	171,41,1	
# Incoming
3,(0, 3),2	5,(4, 9),5	10,(4, 15),5	15,(2, 6),1	21,(2, 30),7	28,(4, 30),1	29,(2, 12),11	40,(2, 39),11	58,(1, 18),2	
1,(0, 2),2	15,(4, 26),13	29,(4, 38),2	31,(1, 5),10	41,(1, 8),1	42,(1, 11),10	52,(1, 14),5	57,(1, 17),1	60,(1, 23),3	
16,(2, 10),4	20,(2, 22),1	21,(3, 7),5	26,(3, 13),16	42,(21, 41),2	44,(36, 41),2	46,(24, 41),2	48,(27, 41),2	51,(2, 40),24	75,(20, 41),2	77,(3, 19),56	133,(35, 41),2	135,(29, 41),2	137,(32, 41),2	139,(33, 41),2	141,(9, 41),2	143,(15, 41),2	145,(6, 41),2	147,(26, 41),2	149,(30, 41),2	151,(38, 41),2	153,(12, 41),2	155,(5, 41),2	157,(8, 41),2	159,(39, 41),2	161,(11, 41),2	163,(14, 41),2	165,(17, 41),2	167,(18, 41),2	169,(23, 41),2	
# Outgoing
21,(3, 7),5	26,(3, 13),16	42,(21, 41),2	44,(36, 41),2	46,(24, 41),2	48,(27, 41),2	77,(3, 19),56	139,(33, 41),2	141,(9, 41),2	143,(15, 41),2	145,(6, 41),2	149,(30, 41),2	153,(12, 41),2	159,(39, 41),2	167,(18, 41),2	
15,(2, 6),1	16,(2, 10),4	20,(2, 22),1	21,(2, 30),7	29,(2, 12),11	40,(2, 39),11	51,(2, 40),24	75,(20, 41),2	133,(35, 41),2	135,(29, 41),2	137,(32, 41),2	147,(26, 41),2	151,(38, 41),2	155,(5, 41),2	157,(8, 41),2	161,(11, 41),2	163,(14, 41),2	165,(17, 41),2	169,(23, 41),2	
1,(0, 2),2	3,(0, 3),2	5,(4, 9),5	10,(4, 15),5	15,(4, 26),13	28,(4, 30),1	29,(4, 38),2	31,(1, 5),10	41,(1, 8),1	42,(1, 11),10	52,(1, 14),5	57,(1, 17),1	58,(1, 18),2	60,(1, 23),3	
