190
# CPU
0,0,1	1,1,18	19,10,18	37,7,18	55,5,18	73,18,18	91,8,18	161,14,18	189,21,1	
5,2,18	23,19,18	41,9,18	59,4,18	77,3,18	95,16,18	113,12,18	131,13,18	149,15,18	167,20,18	
23,6,18	
49,11,18	67,17,18	






# Incoming
41,(19, 21),4	45,(6, 21),4	59,(9, 21),4	67,(11, 21),4	77,(4, 21),4	85,(17, 21),4	95,(3, 21),4	113,(16, 21),4	117,(2, 14),44	161,(12, 21),4	165,(13, 21),4	169,(15, 21),4	185,(20, 21),4	
1,(0, 2),4	
19,(1, 6),4	
45,(2, 11),4	49,(2, 17),8	






# Outgoing
1,(0, 2),4	19,(1, 6),4	
41,(19, 21),4	45,(2, 11),4	49,(2, 17),8	59,(9, 21),4	77,(4, 21),4	95,(3, 21),4	113,(16, 21),4	117,(2, 14),44	161,(12, 21),4	165,(13, 21),4	169,(15, 21),4	185,(20, 21),4	
45,(6, 21),4	
67,(11, 21),4	85,(17, 21),4	






