27560
# CPU
289,5,20	361,145,20	425,65,20	457,85,20	577,10,20	597,40,20	617,190,20	639,125,20	729,180,20	771,90,20	791,130,20	865,15,20	885,70,20	959,155,20	983,35,20	1003,140,20	1023,195,20	1153,20,20	1173,55,20	1193,110,20	1213,30,20	1233,175,20	1253,160,20	2019,185,20	2741,115,20	2825,25,20	2845,50,20	2865,200,20	26499,135,20	26539,170,20	26623,60,20	26781,75,20	26811,100,20	26879,120,20	26899,150,20	26919,165,20	26939,45,20	27007,80,20	27027,95,20	27047,105,20	
217,4,20	237,29,20	257,69,20	277,99,20	297,89,20	317,39,20	337,174,20	505,9,20	525,179,20	649,59,20	709,129,20	793,14,20	813,134,20	909,104,20	929,184,20	949,54,20	979,189,20	999,24,20	1019,159,20	1081,19,20	1101,49,20	1121,34,20	1141,144,20	1161,199,20	1181,74,20	1201,64,20	1267,84,20	1295,94,20	1563,149,20	1859,154,20	2801,164,20	2835,139,20	26625,79,20	26659,124,20	26737,44,20	26871,114,20	26891,119,20	26911,194,20	27035,109,20	27055,169,20	
145,3,20	165,148,20	185,183,20	241,113,20	277,143,20	433,8,20	453,73,20	479,198,20	721,13,20	741,28,20	761,173,20	781,163,20	801,103,20	821,158,20	841,98,20	883,78,20	911,108,20	933,138,20	953,168,20	1009,18,20	1029,133,20	1049,48,20	1153,118,20	1173,38,20	1215,83,20	1235,193,20	1255,33,20	1299,93,20	1329,53,20	1349,58,20	1369,63,20	1437,88,20	1457,188,20	2955,68,20	26495,123,20	26525,153,20	26615,43,20	26671,128,20	26691,178,20	26731,23,20	
73,2,20	93,107,20	361,7,20	381,82,20	463,152,20	573,57,20	593,167,20	649,12,20	739,97,20	837,32,20	937,17,20	957,137,20	977,22,20	997,62,20	1017,157,20	1069,182,20	1147,37,20	1167,27,20	1187,122,20	1297,192,20	26495,102,20	26515,127,20	26535,142,20	26555,132,20	26575,92,20	26595,177,20	26615,162,20	26651,72,20	26687,197,20	26723,42,20	26743,52,20	26809,87,20	26829,112,20	26877,187,20	26941,47,20	26979,77,20	27049,172,20	27199,147,20	27391,117,20	27537,67,20	
0,0,1	1,6,20	21,1,20	41,11,20	61,16,20	81,96,20	101,36,20	121,121,20	141,141,20	161,106,20	221,51,20	241,61,20	409,91,20	441,116,20	555,161,20	607,101,20	627,171,20	665,31,20	693,21,20	713,56,20	763,151,20	783,146,20	803,196,20	823,126,20	843,131,20	863,156,20	923,71,20	1041,81,20	1061,186,20	1099,191,20	1131,46,20	1151,166,20	1207,66,20	1227,181,20	1301,41,20	1863,26,20	1925,76,20	1977,86,20	2443,111,20	2463,136,20	2483,176,20	27559,201,1	
# Incoming
217,(0, 5),72	289,(2, 30),14	303,(2, 55),10	313,(3, 70),28	341,(3, 145),20	361,(3, 165),8	369,(3, 185),2	409,(7, 65),16	453,(8, 85),4	505,(0, 10),72	577,(9, 40),2	601,(9, 125),38	669,(8, 180),60	729,(12, 50),16	761,(13, 90),10	775,(13, 130),10	785,(13, 155),4	793,(0, 15),72	865,(14, 70),16	881,(14, 200),2	949,(14, 155),10	981,(17, 35),2	983,(17, 140),4	997,(17, 195),4	1081,(0, 20),72	1153,(18, 55),16	1169,(18, 110),2	1171,(18, 160),24	1195,(18, 165),12	1207,(18, 185),10	1295,(6, 100),4	1299,(7, 185),720	2019,(13, 45),520	2539,(13, 115),202	2741,(19, 25),84	2825,(19, 50),2	2827,(19, 200),2	26497,(6, 135),2	26525,(6, 170),14	26621,(1, 60),2	26625,(1, 105),30	26741,(11, 75),40	26809,(11, 100),2	26873,(11, 120),6	26879,(11, 150),2	26881,(11, 165),10	26901,(16, 45),28	26979,(16, 80),28	27007,(16, 95),4	27011,(16, 105),14	
145,(0, 4),72	217,(2, 29),2	219,(3, 69),2	221,(3, 114),4	229,(2, 99),2	231,(2, 119),14	267,(2, 194),18	425,(7, 124),2	433,(0, 9),72	505,(8, 49),10	515,(8, 134),4	519,(8, 179),2	595,(5, 59),54	657,(5, 79),48	705,(12, 129),4	709,(12, 159),2	721,(0, 14),72	793,(5, 134),4	797,(5, 154),22	819,(8, 184),80	899,(10, 149),8	907,(13, 104),2	909,(13, 184),18	927,(15, 24),2	929,(15, 54),2	939,(12, 189),40	979,(17, 24),2	987,(17, 159),6	993,(17, 164),4	1009,(0, 19),72	1081,(13, 74),46	1155,(6, 64),2	1215,(15, 84),52	1291,(6, 94),4	1299,(15, 149),264	1565,(15, 154),294	2019,(12, 164),782	2801,(20, 139),34	26623,(1, 79),2	26655,(1, 124),4	26731,(11, 44),6	26829,(11, 114),42	26871,(11, 119),2	26891,(11, 194),10	27025,(16, 109),10	27035,(16, 169),2	
73,(0, 3),72	237,(4, 28),2	239,(4, 113),2	245,(2, 138),12	257,(4, 63),16	273,(4, 143),4	361,(0, 8),72	433,(7, 73),2	435,(7, 78),24	459,(7, 188),16	475,(7, 198),4	649,(0, 13),72	721,(12, 28),4	745,(12, 103),6	751,(5, 133),12	771,(5, 158),10	781,(12, 88),14	795,(12, 98),20	837,(14, 118),2	839,(10, 78),44	883,(14, 63),10	893,(14, 108),18	911,(14, 138),22	933,(14, 168),4	937,(0, 18),72	1009,(9, 118),144	1153,(6, 38),2	1155,(15, 83),60	1215,(17, 193),2	1217,(19, 33),4	1267,(15, 93),32	1301,(19, 53),28	1329,(19, 58),2	1331,(19, 63),16	1347,(19, 88),90	1437,(19, 188),2	1563,(15, 153),2	1863,(20, 43),2	1865,(20, 68),4	2801,(17, 68),154	26491,(6, 123),4	26501,(6, 153),24	26561,(1, 43),54	26659,(1, 128),12	26671,(1, 178),2	26687,(11, 23),44	
1,(0, 2),72	289,(0, 7),72	457,(8, 112),2	459,(8, 152),4	555,(9, 57),18	573,(9, 167),2	577,(0, 12),72	649,(5, 37),8	705,(5, 92),26	731,(5, 97),8	741,(13, 52),20	765,(5, 147),6	771,(9, 32),66	837,(10, 52),2	839,(14, 37),24	865,(0, 17),72	937,(10, 187),2	939,(13, 137),2	941,(15, 72),2	943,(14, 72),6	959,(14, 177),16	1041,(13, 182),28	1069,(15, 37),78	1147,(18, 27),2	1149,(18, 42),2	1151,(18, 122),2	1157,(6, 87),134	1291,(18, 192),6	1299,(6, 102),14	1313,(6, 117),25178	26491,(19, 52),2	26493,(19, 102),2	26495,(6, 127),2	26499,(6, 142),2	26501,(18, 132),22	26523,(20, 92),6	26529,(20, 197),8	26539,(6, 177),22	26561,(18, 162),30	26615,(1, 47),6	26621,(19, 72),30	26673,(1, 197),14	26687,(20, 42),36	26737,(11, 52),4	26781,(11, 87),28	26811,(11, 112),18	26829,(20, 187),48	26929,(16, 47),12	26941,(16, 77),38	27037,(16, 172),12	27049,(9, 147),150	27199,(15, 117),192	27391,(18, 67),146	
219,(2, 51),2	221,(2, 61),8	229,(3, 111),8	237,(148, 201),2	239,(183, 201),2	241,(4, 71),4	245,(4, 181),2	257,(2, 181),10	267,(113, 201),2	277,(29, 201),2	279,(69, 201),2	285,(107, 201),2	297,(143, 201),2	299,(99, 201),2	313,(2, 91),96	409,(4, 116),32	441,(4, 161),114	555,(5, 21),34	589,(5, 41),6	595,(89, 201),2	597,(39, 201),2	599,(174, 201),2	601,(7, 101),6	607,(7, 171),8	615,(7, 181),2	617,(82, 201),2	619,(8, 31),46	665,(8, 156),4	669,(152, 201),2	671,(9, 21),22	693,(9, 56),14	707,(9, 81),2	709,(9, 111),18	727,(9, 136),2	729,(73, 201),2	731,(198, 201),2	733,(9, 186),4	737,(179, 201),2	739,(5, 126),12	751,(57, 201),2	753,(167, 201),2	755,(12, 151),8	763,(5, 146),2	765,(12, 176),6	771,(12, 196),2	773,(13, 126),2	775,(97, 201),2	781,(145, 201),2	783,(65, 201),2	785,(85, 201),2	787,(10, 131),2	789,(40, 201),2	791,(190, 201),2	793,(13, 156),14	807,(28, 201),2	809,(173, 201),2	811,(163, 201),2	819,(10, 86),8	827,(125, 201),2	829,(12, 71),94	923,(12, 186),16	939,(59, 201),2	941,(129, 201),2	943,(13, 81),98	1041,(180, 201),2	1043,(90, 201),2	1045,(130, 201),2	1047,(32, 201),2	1049,(15, 186),8	1057,(15, 191),2	1059,(70, 201),2	1061,(17, 111),2	1063,(17, 176),6	1069,(103, 201),2	1071,(158, 201),2	1073,(98, 201),2	1075,(78, 201),2	1077,(108, 201),2	1079,(138, 201),2	1081,(17, 191),18	1099,(137, 201),2	1101,(22, 201),2	1103,(62, 201),2	1105,(157, 201),2	1107,(182, 201),2	1127,(168, 201),2	1129,(18, 46),2	1131,(18, 166),6	1137,(133, 201),2	1139,(48, 201),2	1147,(155, 201),2	1149,(35, 201),2	1151,(140, 201),2	1153,(134, 201),2	1155,(104, 201),2	1157,(184, 201),2	1159,(54, 201),2	1161,(189, 201),2	1163,(24, 201),2	1165,(159, 201),2	1167,(19, 66),40	1207,(19, 181),4	1211,(49, 201),2	1213,(34, 201),2	1215,(144, 201),2	1217,(37, 201),2	1219,(118, 201),2	1221,(19, 41),80	1301,(38, 201),2	1303,(83, 201),2	1305,(193, 201),2	1307,(33, 201),2	1319,(93, 201),2	1349,(53, 201),2	1369,(58, 201),2	1389,(63, 201),2	1439,(199, 201),2	1441,(74, 201),2	1443,(64, 201),2	1445,(84, 201),2	1447,(94, 201),2	1457,(88, 201),2	1477,(188, 201),2	1583,(149, 201),2	1859,(195, 201),2	1861,(20, 26),2	1869,(20, 76),56	1925,(20, 86),52	1977,(20, 111),466	2443,(20, 136),2	2445,(20, 176),28	2473,(55, 201),2	2475,(110, 201),2	2477,(30, 201),2	2479,(175, 201),2	2481,(160, 201),2	2483,(154, 201),2	2485,(185, 201),2	2761,(115, 201),2	2829,(164, 201),2	2845,(25, 201),2	2855,(139, 201),2	2865,(50, 201),2	2885,(200, 201),2	2955,(27, 201),2	2957,(122, 201),2	2959,(192, 201),2	2975,(68, 201),2	26515,(102, 201),2	26519,(135, 201),2	26523,(123, 201),2	26535,(127, 201),2	26545,(153, 201),2	26555,(142, 201),2	26559,(170, 201),2	26575,(132, 201),2	26595,(92, 201),2	26615,(177, 201),2	26635,(162, 201),2	26637,(43, 201),2	26643,(60, 201),2	26651,(79, 201),2	26671,(72, 201),2	26679,(124, 201),2	26691,(128, 201),2	26707,(197, 201),2	26711,(178, 201),2	26743,(42, 201),2	26751,(23, 201),2	26757,(44, 201),2	26763,(52, 201),2	26801,(75, 201),2	26829,(87, 201),2	26849,(112, 201),2	26877,(100, 201),2	26891,(114, 201),2	26897,(187, 201),2	26899,(120, 201),2	26911,(119, 201),2	26919,(150, 201),2	26931,(194, 201),2	26939,(165, 201),2	26959,(45, 201),2	26961,(47, 201),2	26999,(77, 201),2	27027,(80, 201),2	27047,(95, 201),2	27067,(105, 201),2	27069,(172, 201),2	27199,(109, 201),2	27201,(169, 201),2	27219,(147, 201),2	27411,(117, 201),2	27557,(67, 201),2	
# Outgoing
555,(5, 21),34	589,(5, 41),6	595,(5, 59),54	649,(5, 37),8	657,(5, 79),48	705,(5, 92),26	731,(5, 97),8	739,(5, 126),12	751,(5, 133),12	763,(5, 146),2	765,(5, 147),6	771,(5, 158),10	781,(145, 201),2	783,(65, 201),2	785,(85, 201),2	787,(10, 131),2	789,(40, 201),2	791,(190, 201),2	793,(5, 134),4	797,(5, 154),22	819,(10, 86),8	827,(125, 201),2	837,(10, 52),2	839,(10, 78),44	899,(10, 149),8	927,(15, 24),2	929,(15, 54),2	937,(10, 187),2	941,(15, 72),2	1041,(180, 201),2	1043,(90, 201),2	1045,(130, 201),2	1049,(15, 186),8	1057,(15, 191),2	1059,(70, 201),2	1069,(15, 37),78	1147,(155, 201),2	1149,(35, 201),2	1151,(140, 201),2	1155,(15, 83),60	1215,(15, 84),52	1267,(15, 93),32	1299,(15, 149),264	1563,(15, 153),2	1565,(15, 154),294	1859,(195, 201),2	1861,(20, 26),2	1863,(20, 43),2	1865,(20, 68),4	1869,(20, 76),56	1925,(20, 86),52	1977,(20, 111),466	2443,(20, 136),2	2445,(20, 176),28	2473,(55, 201),2	2475,(110, 201),2	2477,(30, 201),2	2479,(175, 201),2	2481,(160, 201),2	2485,(185, 201),2	2761,(115, 201),2	2801,(20, 139),34	2845,(25, 201),2	2865,(50, 201),2	2885,(200, 201),2	26519,(135, 201),2	26523,(20, 92),6	26529,(20, 197),8	26559,(170, 201),2	26643,(60, 201),2	26687,(20, 42),36	26801,(75, 201),2	26829,(20, 187),48	26877,(100, 201),2	26899,(120, 201),2	26919,(150, 201),2	26939,(165, 201),2	26959,(45, 201),2	27027,(80, 201),2	27047,(95, 201),2	27067,(105, 201),2	27199,(15, 117),192	
237,(4, 28),2	239,(4, 113),2	241,(4, 71),4	245,(4, 181),2	257,(4, 63),16	273,(4, 143),4	277,(29, 201),2	279,(69, 201),2	299,(99, 201),2	409,(4, 116),32	441,(4, 161),114	555,(9, 57),18	573,(9, 167),2	577,(9, 40),2	595,(89, 201),2	597,(39, 201),2	599,(174, 201),2	601,(9, 125),38	671,(9, 21),22	693,(9, 56),14	707,(9, 81),2	709,(9, 111),18	727,(9, 136),2	733,(9, 186),4	737,(179, 201),2	771,(9, 32),66	837,(14, 118),2	839,(14, 37),24	865,(14, 70),16	881,(14, 200),2	883,(14, 63),10	893,(14, 108),18	911,(14, 138),22	933,(14, 168),4	939,(59, 201),2	941,(129, 201),2	943,(14, 72),6	949,(14, 155),10	959,(14, 177),16	1009,(9, 118),144	1153,(134, 201),2	1155,(104, 201),2	1157,(184, 201),2	1159,(54, 201),2	1161,(189, 201),2	1163,(24, 201),2	1165,(159, 201),2	1167,(19, 66),40	1207,(19, 181),4	1211,(49, 201),2	1213,(34, 201),2	1215,(144, 201),2	1217,(19, 33),4	1221,(19, 41),80	1301,(19, 53),28	1329,(19, 58),2	1331,(19, 63),16	1347,(19, 88),90	1437,(19, 188),2	1439,(199, 201),2	1441,(74, 201),2	1443,(64, 201),2	1445,(84, 201),2	1447,(94, 201),2	1583,(149, 201),2	2483,(154, 201),2	2741,(19, 25),84	2825,(19, 50),2	2827,(19, 200),2	2829,(164, 201),2	2855,(139, 201),2	26491,(19, 52),2	26493,(19, 102),2	26621,(19, 72),30	26651,(79, 201),2	26679,(124, 201),2	26757,(44, 201),2	26891,(114, 201),2	26911,(119, 201),2	26931,(194, 201),2	27049,(9, 147),150	27199,(109, 201),2	27201,(169, 201),2	
219,(3, 69),2	221,(3, 114),4	229,(3, 111),8	237,(148, 201),2	239,(183, 201),2	267,(113, 201),2	297,(143, 201),2	313,(3, 70),28	341,(3, 145),20	361,(3, 165),8	369,(3, 185),2	453,(8, 85),4	457,(8, 112),2	459,(8, 152),4	505,(8, 49),10	515,(8, 134),4	519,(8, 179),2	619,(8, 31),46	665,(8, 156),4	669,(8, 180),60	729,(73, 201),2	731,(198, 201),2	741,(13, 52),20	761,(13, 90),10	773,(13, 126),2	775,(13, 130),10	785,(13, 155),4	793,(13, 156),14	807,(28, 201),2	809,(173, 201),2	811,(163, 201),2	819,(8, 184),80	907,(13, 104),2	909,(13, 184),18	939,(13, 137),2	943,(13, 81),98	1041,(13, 182),28	1069,(103, 201),2	1071,(158, 201),2	1073,(98, 201),2	1075,(78, 201),2	1077,(108, 201),2	1079,(138, 201),2	1081,(13, 74),46	1127,(168, 201),2	1129,(18, 46),2	1131,(18, 166),6	1137,(133, 201),2	1139,(48, 201),2	1147,(18, 27),2	1149,(18, 42),2	1151,(18, 122),2	1153,(18, 55),16	1169,(18, 110),2	1171,(18, 160),24	1195,(18, 165),12	1207,(18, 185),10	1219,(118, 201),2	1291,(18, 192),6	1301,(38, 201),2	1303,(83, 201),2	1305,(193, 201),2	1307,(33, 201),2	1319,(93, 201),2	1349,(53, 201),2	1369,(58, 201),2	1389,(63, 201),2	1457,(88, 201),2	1477,(188, 201),2	2019,(13, 45),520	2539,(13, 115),202	2975,(68, 201),2	26501,(18, 132),22	26523,(123, 201),2	26545,(153, 201),2	26561,(18, 162),30	26637,(43, 201),2	26691,(128, 201),2	26711,(178, 201),2	26751,(23, 201),2	27391,(18, 67),146	
217,(2, 29),2	219,(2, 51),2	221,(2, 61),8	229,(2, 99),2	231,(2, 119),14	245,(2, 138),12	257,(2, 181),10	267,(2, 194),18	285,(107, 201),2	289,(2, 30),14	303,(2, 55),10	313,(2, 91),96	409,(7, 65),16	425,(7, 124),2	433,(7, 73),2	435,(7, 78),24	459,(7, 188),16	475,(7, 198),4	601,(7, 101),6	607,(7, 171),8	615,(7, 181),2	617,(82, 201),2	669,(152, 201),2	705,(12, 129),4	709,(12, 159),2	721,(12, 28),4	729,(12, 50),16	745,(12, 103),6	751,(57, 201),2	753,(167, 201),2	755,(12, 151),8	765,(12, 176),6	771,(12, 196),2	775,(97, 201),2	781,(12, 88),14	795,(12, 98),20	829,(12, 71),94	923,(12, 186),16	939,(12, 189),40	979,(17, 24),2	981,(17, 35),2	983,(17, 140),4	987,(17, 159),6	993,(17, 164),4	997,(17, 195),4	1047,(32, 201),2	1061,(17, 111),2	1063,(17, 176),6	1081,(17, 191),18	1099,(137, 201),2	1101,(22, 201),2	1103,(62, 201),2	1105,(157, 201),2	1107,(182, 201),2	1215,(17, 193),2	1217,(37, 201),2	1299,(7, 185),720	2019,(12, 164),782	2801,(17, 68),154	2955,(27, 201),2	2957,(122, 201),2	2959,(192, 201),2	26515,(102, 201),2	26535,(127, 201),2	26555,(142, 201),2	26575,(132, 201),2	26595,(92, 201),2	26615,(177, 201),2	26635,(162, 201),2	26671,(72, 201),2	26707,(197, 201),2	26743,(42, 201),2	26763,(52, 201),2	26829,(87, 201),2	26849,(112, 201),2	26897,(187, 201),2	26961,(47, 201),2	26999,(77, 201),2	27069,(172, 201),2	27219,(147, 201),2	27411,(117, 201),2	27557,(67, 201),2	
1,(0, 2),72	73,(0, 3),72	145,(0, 4),72	217,(0, 5),72	289,(0, 7),72	361,(0, 8),72	433,(0, 9),72	505,(0, 10),72	577,(0, 12),72	649,(0, 13),72	721,(0, 14),72	793,(0, 15),72	865,(0, 17),72	937,(0, 18),72	1009,(0, 19),72	1081,(0, 20),72	1153,(6, 38),2	1155,(6, 64),2	1157,(6, 87),134	1291,(6, 94),4	1295,(6, 100),4	1299,(6, 102),14	1313,(6, 117),25178	26491,(6, 123),4	26495,(6, 127),2	26497,(6, 135),2	26499,(6, 142),2	26501,(6, 153),24	26525,(6, 170),14	26539,(6, 177),22	26561,(1, 43),54	26615,(1, 47),6	26621,(1, 60),2	26623,(1, 79),2	26625,(1, 105),30	26655,(1, 124),4	26659,(1, 128),12	26671,(1, 178),2	26673,(1, 197),14	26687,(11, 23),44	26731,(11, 44),6	26737,(11, 52),4	26741,(11, 75),40	26781,(11, 87),28	26809,(11, 100),2	26811,(11, 112),18	26829,(11, 114),42	26871,(11, 119),2	26873,(11, 120),6	26879,(11, 150),2	26881,(11, 165),10	26891,(11, 194),10	26901,(16, 45),28	26929,(16, 47),12	26941,(16, 77),38	26979,(16, 80),28	27007,(16, 95),4	27011,(16, 105),14	27025,(16, 109),10	27035,(16, 169),2	27037,(16, 172),12	
