741
# CPU
0,0,1	1,2,1	2,9,1	3,7,1	4,183,1	5,3,1	6,187,1	7,8,1	8,96,1	9,138,1	10,102,1	11,35,1	12,17,1	13,108,1	14,87,1	15,5,1	16,185,1	17,200,1	18,188,1	19,194,1	20,46,1	21,20,1	22,118,1	23,176,1	24,117,1	25,181,1	26,141,1	27,18,1	28,139,1	29,114,1	30,34,1	31,180,1	32,73,1	33,125,1	34,168,1	35,198,1	36,14,1	37,91,1	38,70,1	39,100,1	40,149,1	41,4,1	42,120,1	43,192,1	44,131,1	45,112,1	46,50,1	47,199,1	48,99,1	49,86,1	50,115,1	51,1,1	52,116,1	53,136,1	54,71,1	55,82,1	56,95,1	57,110,1	58,37,1	59,92,1	60,147,1	61,49,1	62,67,1	63,11,1	64,29,1	65,129,1	66,103,1	67,69,1	68,98,1	69,165,1	70,81,1	71,155,1	72,104,1	73,83,1	74,42,1	75,157,1	76,122,1	77,19,1	78,47,1	79,93,1	80,177,1	81,26,1	82,65,1	83,22,1	84,57,1	85,13,1	86,107,1	87,174,1	88,48,1	89,128,1	90,36,1	91,142,1	92,137,1	93,186,1	94,90,1	95,158,1	96,182,1	97,77,1	98,144,1	99,171,1	100,197,1	101,58,1	102,79,1	103,97,1	104,170,1	105,55,1	106,33,1	107,53,1	108,76,1	109,140,1	110,106,1	111,45,1	112,146,1	113,175,1	114,61,1	115,51,1	116,44,1	117,161,1	118,143,1	119,173,1	120,130,1	121,178,1	122,75,1	123,62,1	124,52,1	125,78,1	126,89,1	127,38,1	128,172,1	129,154,1	130,126,1	131,123,1	132,63,1	133,27,1	139,169,1	146,152,1	155,72,1	165,59,1	174,196,1	185,85,1	196,133,1	207,132,1	220,66,1	232,64,1	242,190,1	256,151,1	270,127,1	285,145,1	304,31,1	326,193,1	361,162,1	401,54,1	451,41,1	540,134,1	739,119,1	740,201,1	
20,16,1	21,163,1	22,164,1	23,184,1	26,6,1	30,94,1	36,15,1	39,111,1	43,39,1	46,56,1	50,113,1	60,68,1	65,189,1	66,101,1	67,32,1	69,167,1	74,109,1	86,105,1	87,21,1	102,166,1	109,23,1	129,80,1	139,60,1	180,43,1	213,159,1	232,74,1	265,153,1	320,84,1	347,191,1	
7,12,1	8,124,1	9,195,1	14,10,1	28,135,1	55,88,1	79,40,1	81,148,1	88,30,1	95,121,1	119,25,1	152,179,1	165,28,1	196,24,1	246,150,1	291,156,1	426,160,1	
# Incoming
9,(124, 201),1	10,(195, 201),1	11,(12, 55),1	12,(12, 53),1	13,(12, 140),1	14,(12, 44),1	15,(10, 58),1	16,(10, 79),1	17,(10, 170),1	18,(10, 106),1	19,(10, 175),1	20,(10, 161),2	22,(163, 201),1	23,(164, 201),1	24,(184, 201),1	25,(16, 61),1	26,(16, 51),1	27,(10, 130),1	28,(6, 97),1	29,(135, 201),1	30,(6, 33),1	31,(94, 201),1	32,(10, 173),2	34,(10, 75),1	35,(10, 126),1	36,(16, 172),1	37,(15, 76),1	38,(15, 45),1	39,(15, 146),1	40,(111, 201),1	41,(6, 143),2	43,(15, 130),1	44,(39, 201),1	45,(6, 178),2	47,(56, 201),1	48,(15, 75),2	50,(15, 52),1	51,(113, 201),1	52,(12, 62),3	55,(6, 152),1	56,(88, 201),1	57,(16, 52),2	59,(15, 133),1	60,(16, 127),1	61,(68, 201),1	62,(12, 78),3	65,(16, 145),1	66,(189, 201),1	67,(101, 201),1	68,(32, 201),1	70,(167, 201),1	71,(15, 89),3	75,(109, 201),1	76,(10, 38),4	80,(40, 201),1	82,(148, 201),1	83,(10, 172),3	87,(105, 201),1	88,(21, 201),1	89,(30, 201),1	90,(12, 154),4	94,(12, 132),2	96,(121, 201),1	97,(16, 126),4	101,(6, 64),2	103,(166, 201),1	104,(10, 123),6	110,(23, 201),1	111,(16, 63),6	117,(16, 190),3	120,(25, 201),1	121,(12, 27),6	127,(10, 193),2	130,(80, 201),1	131,(15, 169),8	139,(10, 152),7	146,(60, 201),1	147,(6, 72),8	155,(179, 201),1	156,(16, 59),9	165,(16, 196),4	169,(6, 196),5	174,(28, 201),1	175,(6, 85),10	185,(43, 201),1	186,(12, 133),10	196,(6, 132),11	207,(24, 201),1	208,(10, 66),5	213,(6, 66),7	220,(159, 201),1	221,(16, 64),11	232,(12, 190),10	242,(74, 201),1	243,(12, 151),13	256,(150, 201),1	257,(10, 127),8	265,(6, 127),5	270,(153, 201),1	271,(10, 145),14	285,(10, 31),19	304,(156, 201),1	305,(16, 193),5	310,(6, 193),8	318,(15, 193),8	326,(84, 201),1	327,(16, 162),10	337,(6, 162),24	361,(191, 201),1	362,(12, 54),13	375,(6, 54),26	401,(10, 41),47	448,(15, 41),3	451,(160, 201),1	452,(12, 134),76	528,(6, 134),12	540,(10, 119),88	628,(6, 119),111	
14,(0, 16),6	20,(0, 6),6	26,(10, 113),1	27,(5, 94),3	30,(0, 15),6	36,(2, 111),1	37,(9, 111),1	38,(3, 111),1	39,(9, 39),1	40,(7, 39),3	43,(4, 56),3	46,(2, 113),2	48,(17, 113),1	49,(4, 113),1	55,(4, 68),2	57,(1, 68),3	60,(4, 32),1	61,(9, 167),3	64,(11, 189),1	65,(11, 101),1	66,(11, 32),1	67,(11, 167),2	69,(17, 109),4	73,(14, 109),1	77,(4, 105),1	81,(17, 105),2	83,(5, 105),3	86,(13, 21),1	95,(1, 166),4	99,(19, 166),3	102,(5, 23),1	103,(11, 23),6	119,(14, 80),10	129,(2, 60),3	132,(20, 60),7	165,(2, 43),1	166,(3, 43),2	168,(1, 43),3	171,(19, 43),9	196,(20, 159),4	200,(18, 159),2	202,(14, 159),11	213,(8, 74),1	214,(12, 74),11	225,(1, 74),7	246,(7, 153),12	258,(19, 153),7	291,(4, 84),1	292,(1, 84),10	305,(12, 84),15	320,(10, 191),12	332,(11, 191),11	343,(13, 191),4	
1,(0, 12),6	7,(3, 195),1	8,(0, 10),6	26,(17, 135),1	27,(6, 135),1	32,(16, 40),4	50,(4, 88),5	74,(2, 148),3	78,(19, 40),1	79,(19, 148),2	87,(13, 30),1	88,(8, 121),1	89,(20, 121),1	90,(13, 121),5	109,(20, 25),10	139,(2, 179),1	140,(18, 179),2	142,(1, 179),10	152,(3, 28),1	153,(1, 28),11	164,(11, 28),1	180,(7, 24),5	185,(20, 24),1	186,(13, 24),10	214,(7, 150),4	218,(3, 150),2	220,(9, 156),2	222,(7, 160),1	223,(3, 160),1	224,(18, 160),1	232,(8, 150),14	265,(2, 156),26	302,(8, 160),6	308,(1, 160),12	401,(15, 160),25	
# Outgoing
1,(0, 12),6	7,(3, 195),1	8,(0, 10),6	14,(0, 16),6	20,(0, 6),6	26,(17, 135),1	27,(5, 94),3	30,(0, 15),6	36,(2, 111),1	37,(9, 111),1	38,(3, 111),1	39,(9, 39),1	40,(7, 39),3	43,(4, 56),3	46,(2, 113),2	48,(17, 113),1	49,(4, 113),1	50,(4, 88),5	55,(4, 68),2	57,(1, 68),3	60,(4, 32),1	61,(9, 167),3	64,(11, 189),1	65,(11, 101),1	66,(11, 32),1	67,(11, 167),2	69,(17, 109),4	73,(14, 109),1	74,(2, 148),3	77,(4, 105),1	78,(19, 40),1	79,(19, 148),2	81,(17, 105),2	83,(5, 105),3	86,(13, 21),1	87,(13, 30),1	88,(8, 121),1	89,(20, 121),1	90,(13, 121),5	95,(1, 166),4	99,(19, 166),3	102,(5, 23),1	103,(11, 23),6	109,(20, 25),10	119,(14, 80),10	129,(2, 60),3	132,(20, 60),7	139,(2, 179),1	140,(18, 179),2	142,(1, 179),10	152,(3, 28),1	153,(1, 28),11	164,(11, 28),1	165,(2, 43),1	166,(3, 43),2	168,(1, 43),3	171,(19, 43),9	180,(7, 24),5	185,(20, 24),1	186,(13, 24),10	196,(20, 159),4	200,(18, 159),2	202,(14, 159),11	213,(8, 74),1	214,(7, 150),4	218,(3, 150),2	220,(9, 156),2	222,(7, 160),1	223,(3, 160),1	224,(18, 160),1	225,(1, 74),7	232,(8, 150),14	246,(7, 153),12	258,(19, 153),7	265,(2, 156),26	291,(4, 84),1	292,(1, 84),10	302,(8, 160),6	308,(1, 160),12	332,(11, 191),11	343,(13, 191),4	
22,(163, 201),1	23,(164, 201),1	24,(184, 201),1	25,(16, 61),1	26,(16, 51),1	27,(6, 135),1	28,(6, 97),1	30,(6, 33),1	31,(94, 201),1	32,(16, 40),4	36,(16, 172),1	37,(15, 76),1	38,(15, 45),1	39,(15, 146),1	40,(111, 201),1	41,(6, 143),2	43,(15, 130),1	44,(39, 201),1	45,(6, 178),2	47,(56, 201),1	48,(15, 75),2	50,(15, 52),1	51,(113, 201),1	55,(6, 152),1	57,(16, 52),2	59,(15, 133),1	60,(16, 127),1	61,(68, 201),1	65,(16, 145),1	66,(189, 201),1	67,(101, 201),1	68,(32, 201),1	70,(167, 201),1	71,(15, 89),3	75,(109, 201),1	87,(105, 201),1	88,(21, 201),1	97,(16, 126),4	101,(6, 64),2	103,(166, 201),1	110,(23, 201),1	111,(16, 63),6	117,(16, 190),3	130,(80, 201),1	131,(15, 169),8	146,(60, 201),1	147,(6, 72),8	156,(16, 59),9	165,(16, 196),4	169,(6, 196),5	175,(6, 85),10	185,(43, 201),1	196,(6, 132),11	213,(6, 66),7	220,(159, 201),1	221,(16, 64),11	242,(74, 201),1	265,(6, 127),5	270,(153, 201),1	305,(16, 193),5	310,(6, 193),8	318,(15, 193),8	326,(84, 201),1	327,(16, 162),10	337,(6, 162),24	361,(191, 201),1	375,(6, 54),26	401,(15, 160),25	448,(15, 41),3	528,(6, 134),12	628,(6, 119),111	
9,(124, 201),1	10,(195, 201),1	11,(12, 55),1	12,(12, 53),1	13,(12, 140),1	14,(12, 44),1	15,(10, 58),1	16,(10, 79),1	17,(10, 170),1	18,(10, 106),1	19,(10, 175),1	20,(10, 161),2	26,(10, 113),1	27,(10, 130),1	29,(135, 201),1	32,(10, 173),2	34,(10, 75),1	35,(10, 126),1	52,(12, 62),3	56,(88, 201),1	62,(12, 78),3	76,(10, 38),4	80,(40, 201),1	82,(148, 201),1	83,(10, 172),3	89,(30, 201),1	90,(12, 154),4	94,(12, 132),2	96,(121, 201),1	104,(10, 123),6	120,(25, 201),1	121,(12, 27),6	127,(10, 193),2	139,(10, 152),7	155,(179, 201),1	174,(28, 201),1	186,(12, 133),10	207,(24, 201),1	208,(10, 66),5	214,(12, 74),11	232,(12, 190),10	243,(12, 151),13	256,(150, 201),1	257,(10, 127),8	271,(10, 145),14	285,(10, 31),19	304,(156, 201),1	305,(12, 84),15	320,(10, 191),12	362,(12, 54),13	401,(10, 41),47	451,(160, 201),1	452,(12, 134),76	540,(10, 119),88	
