1103
# CPU
295,33,3	1006,26,3	1028,30,3	
335,32,3	338,25,3	341,28,3	1046,40,3	
1044,37,3	1048,31,3	1051,23,3	1054,27,3	
229,21,3	621,36,3	1016,24,3	
1014,20,3	1024,22,3	
946,15,3	1102,41,1	
79,4,3	87,11,3	103,17,3	225,19,3	623,39,3	1040,29,3	
53,3,3	56,38,3	95,10,3	205,18,3	958,8,3	1004,12,3	
27,2,3	30,13,3	33,16,3	167,14,3	613,34,3	952,7,3	984,9,3	
0,0,1	1,1,3	4,35,3	936,6,3	944,5,3	
# Incoming
103,(3, 26),184	287,(3, 30),2	289,(3, 33),6	1004,(4, 26),2	1024,(4, 30),4	
325,(1, 25),4	329,(1, 32),6	335,(3, 25),2	337,(3, 28),2	1044,(2, 40),2	
1040,(2, 37),4	1044,(3, 31),4	1048,(4, 23),2	1050,(4, 27),2	
225,(1, 21),4	613,(1, 36),8	1008,(2, 24),8	
229,(1, 22),96	946,(2, 20),62	1008,(4, 20),6	1014,(4, 22),10	
623,(35, 41),4	627,(38, 41),4	631,(10, 41),4	635,(18, 41),4	639,(21, 41),4	643,(33, 41),4	647,(32, 41),4	651,(25, 41),4	655,(28, 41),4	659,(36, 41),4	936,(2, 15),10	946,(6, 41),4	950,(5, 41),4	961,(8, 41),4	1007,(12, 41),4	1011,(26, 41),4	1017,(20, 41),4	1021,(24, 41),4	1028,(11, 41),4	1032,(17, 41),4	1036,(19, 41),4	1040,(39, 41),4	1046,(13, 41),4	1050,(16, 41),4	1054,(14, 41),4	1058,(34, 41),4	1062,(7, 41),4	1066,(9, 41),4	1070,(22, 41),4	1074,(30, 41),4	1078,(29, 41),4	1082,(37, 41),4	1086,(40, 41),4	1090,(31, 41),4	1094,(23, 41),4	1098,(27, 41),4	
53,(0, 4),26	79,(3, 11),8	87,(3, 17),16	205,(1, 19),20	295,(3, 39),36	621,(1, 39),2	1016,(2, 29),24	
27,(0, 3),26	79,(1, 10),16	167,(1, 18),38	952,(4, 8),6	984,(4, 12),20	
1,(0, 2),26	95,(1, 14),72	335,(1, 34),278	944,(4, 7),8	958,(4, 9),26	
30,(2, 6),906	936,(4, 5),8	
# Outgoing
643,(33, 41),4	1011,(26, 41),4	1074,(30, 41),4	
647,(32, 41),4	651,(25, 41),4	655,(28, 41),4	1086,(40, 41),4	
1082,(37, 41),4	1090,(31, 41),4	1094,(23, 41),4	1098,(27, 41),4	
639,(21, 41),4	659,(36, 41),4	1021,(24, 41),4	
1017,(20, 41),4	1070,(22, 41),4	

936,(4, 5),8	944,(4, 7),8	952,(4, 8),6	958,(4, 9),26	984,(4, 12),20	1004,(4, 26),2	1008,(4, 20),6	1014,(4, 22),10	1024,(4, 30),4	1028,(11, 41),4	1032,(17, 41),4	1036,(19, 41),4	1040,(39, 41),4	1048,(4, 23),2	1050,(4, 27),2	1078,(29, 41),4	
79,(3, 11),8	87,(3, 17),16	103,(3, 26),184	287,(3, 30),2	289,(3, 33),6	295,(3, 39),36	335,(3, 25),2	337,(3, 28),2	627,(38, 41),4	631,(10, 41),4	635,(18, 41),4	961,(8, 41),4	1007,(12, 41),4	1044,(3, 31),4	
30,(2, 6),906	936,(2, 15),10	946,(2, 20),62	1008,(2, 24),8	1016,(2, 29),24	1040,(2, 37),4	1044,(2, 40),2	1046,(13, 41),4	1050,(16, 41),4	1054,(14, 41),4	1058,(34, 41),4	1062,(7, 41),4	1066,(9, 41),4	
1,(0, 2),26	27,(0, 3),26	53,(0, 4),26	79,(1, 10),16	95,(1, 14),72	167,(1, 18),38	205,(1, 19),20	225,(1, 21),4	229,(1, 22),96	325,(1, 25),4	329,(1, 32),6	335,(1, 34),278	613,(1, 36),8	621,(1, 39),2	623,(35, 41),4	946,(6, 41),4	950,(5, 41),4	
