244
# CPU
0,41,1	1,18,1	2,27,1	3,26,1	4,31,1	5,39,1	6,23,1	7,9,1	8,17,1	9,5,1	10,7,1	11,33,1	12,19,1	13,22,1	14,16,1	15,13,1	16,38,1	17,14,1	18,30,1	19,21,1	20,6,1	21,25,1	22,15,1	23,8,1	24,12,1	25,11,1	26,28,1	27,24,1	28,29,1	29,10,1	30,35,1	31,34,1	32,4,1	33,2,1	59,3,1	242,1,1	243,0,1	
7,36,1	19,37,1	31,32,1	


13,20,1	25,40,1	
# Incoming
26,(40, 2),3	29,(36, 3),3	32,(37, 3),24	56,(32, 3),3	59,(20, 1),9	68,(40, 1),51	119,(32, 1),123	
1,(41, 36),6	13,(41, 37),6	25,(41, 32),6	


7,(41, 20),6	19,(41, 40),6	
# Outgoing
1,(41, 36),6	7,(41, 20),6	13,(41, 37),6	19,(41, 40),6	25,(41, 32),6	
29,(36, 3),3	32,(37, 3),24	56,(32, 3),3	119,(32, 1),123	


26,(40, 2),3	59,(20, 1),9	68,(40, 1),51	
