1770
# CPU
133,7,3	136,23,3	139,78,3	142,31,3	177,10,3	180,35,3	183,99,3	186,81,3	200,56,3	234,63,3	243,68,3	1115,112,3	1164,102,3	1190,18,3	1208,38,3	1218,25,3	1254,84,3	1259,24,3	1267,97,3	1274,101,3	1277,93,3	1345,74,3	1499,83,3	1526,108,3	1541,46,3	1571,52,3	1611,107,3	1642,90,3	1718,58,3	1740,104,3	1769,121,1	
23,1,3	26,27,3	29,55,3	32,33,3	35,114,3	38,87,3	41,106,3	45,2,3	48,48,3	51,67,3	54,77,3	111,6,3	114,50,3	117,76,3	120,53,3	123,59,3	139,13,3	147,37,3	152,62,3	190,36,3	193,57,3	196,15,3	199,72,3	203,82,3	1107,110,3	1157,47,3	1211,40,3	1218,85,3	1254,119,3	1260,32,3	
67,4,3	70,26,3	73,51,3	76,91,3	79,111,3	82,49,3	85,116,3	88,103,3	91,5,3	94,16,3	97,92,3	100,64,3	103,86,3	118,30,3	155,8,3	158,44,3	161,20,3	164,22,3	167,43,3	170,79,3	173,120,3	176,61,3	179,17,3	182,73,3	185,60,3	188,95,3	1163,88,3	1193,21,3	1266,45,3	1277,113,3	
0,0,1	1,12,3	4,9,3	7,11,3	10,3,3	13,70,3	16,66,3	19,105,3	22,54,3	25,65,3	28,94,3	31,28,3	34,89,3	37,80,3	40,75,3	43,71,3	46,69,3	49,96,3	52,34,3	55,109,3	58,29,3	61,100,3	64,118,3	67,115,3	70,117,3	100,42,3	151,41,3	194,98,3	198,14,3	206,19,3	209,39,3	
# Incoming
111,(0, 7),22	133,(1, 31),6	139,(1, 58),11	150,(1, 101),4	154,(1, 102),1	155,(0, 10),22	177,(27, 121),1	178,(55, 121),1	179,(33, 121),1	180,(114, 121),1	181,(87, 121),1	182,(106, 121),1	183,(48, 121),1	184,(67, 121),1	185,(77, 121),1	186,(4, 18),1	187,(12, 56),13	200,(12, 63),34	234,(12, 68),9	243,(12, 90),137	380,(12, 93),722	1102,(12, 97),4	1106,(26, 121),1	1107,(12, 112),8	1115,(9, 25),40	1155,(2, 108),5	1160,(51, 121),1	1161,(91, 121),1	1162,(111, 121),1	1163,(9, 102),1	1164,(11, 18),26	1190,(49, 121),1	1191,(116, 121),1	1192,(103, 121),1	1193,(11, 25),12	1205,(11, 38),3	1208,(5, 104),1	1209,(16, 121),1	1210,(92, 121),1	1211,(11, 83),4	1215,(64, 121),1	1216,(86, 121),1	1217,(6, 25),1	1218,(11, 104),35	1253,(6, 84),1	1254,(3, 24),5	1259,(50, 121),1	1260,(76, 121),1	1261,(30, 121),1	1262,(53, 121),1	1263,(59, 121),1	1264,(13, 121),1	1265,(37, 121),1	1266,(3, 97),1	1267,(3, 101),7	1274,(62, 121),1	1275,(8, 93),1	1276,(44, 121),1	1277,(70, 121),1	1278,(66, 121),1	1279,(105, 121),1	1280,(54, 121),1	1281,(1, 74),64	1345,(1, 108),36	1381,(65, 121),1	1382,(94, 121),1	1383,(28, 121),1	1384,(89, 121),1	1385,(80, 121),1	1386,(75, 121),1	1387,(71, 121),1	1388,(2, 83),12	1400,(2, 107),58	1458,(69, 121),1	1459,(96, 121),1	1460,(34, 121),1	1461,(109, 121),1	1462,(29, 121),1	1463,(100, 121),1	1464,(118, 121),1	1465,(4, 52),20	1485,(4, 83),14	1499,(4, 107),16	1515,(4, 108),11	1526,(115, 121),1	1527,(117, 121),1	1528,(5, 46),13	1541,(5, 52),30	1571,(5, 58),16	1587,(5, 90),16	1603,(5, 107),8	1611,(42, 121),1	1612,(6, 90),30	1642,(41, 121),1	1643,(8, 58),75	1718,(8, 104),22	1740,(20, 121),1	1741,(22, 121),1	1742,(43, 121),1	1743,(79, 121),1	1744,(120, 121),1	1745,(61, 121),1	1746,(17, 121),1	1747,(73, 121),1	1748,(60, 121),1	1749,(95, 121),1	1750,(36, 121),1	1751,(57, 121),1	1752,(98, 121),1	1753,(15, 121),1	1754,(14, 121),1	1755,(72, 121),1	1756,(82, 121),1	1757,(19, 121),1	1758,(39, 121),1	1759,(110, 121),1	1760,(47, 121),1	1761,(88, 121),1	1762,(21, 121),1	1763,(40, 121),1	1764,(85, 121),1	1765,(119, 121),1	1766,(32, 121),1	1767,(45, 121),1	1768,(113, 121),1	
1,(0, 1),22	23,(0, 2),22	89,(0, 6),22	136,(7, 13),3	139,(7, 37),8	151,(7, 62),1	177,(12, 15),9	186,(12, 47),1	187,(4, 36),3	190,(10, 40),2	192,(10, 57),1	194,(5, 15),1	195,(5, 72),1	196,(10, 82),7	1106,(12, 110),1	1155,(9, 47),2	1208,(11, 40),3	1215,(11, 85),3	1253,(11, 119),1	1259,(3, 32),1	
45,(0, 4),22	67,(0, 5),22	89,(1, 20),3	114,(6, 30),4	133,(0, 8),22	155,(7, 44),1	180,(10, 95),1	1157,(9, 88),6	1190,(11, 21),3	1260,(3, 45),6	1274,(3, 113),3	
92,(1, 42),8	118,(6, 41),8	147,(7, 39),2	149,(7, 41),2	190,(4, 98),4	196,(8, 14),2	198,(8, 19),8	206,(8, 39),1	
# Outgoing
136,(7, 13),3	139,(7, 37),8	147,(7, 39),2	149,(7, 41),2	151,(7, 62),1	155,(7, 44),1	180,(10, 95),1	190,(10, 40),2	192,(10, 57),1	196,(10, 82),7	
89,(1, 20),3	92,(1, 42),8	114,(6, 30),4	118,(6, 41),8	133,(1, 31),6	139,(1, 58),11	150,(1, 101),4	154,(1, 102),1	177,(27, 121),1	178,(55, 121),1	179,(33, 121),1	180,(114, 121),1	181,(87, 121),1	182,(106, 121),1	183,(48, 121),1	184,(67, 121),1	185,(77, 121),1	1155,(2, 108),5	1217,(6, 25),1	1253,(6, 84),1	1259,(50, 121),1	1260,(76, 121),1	1262,(53, 121),1	1263,(59, 121),1	1264,(13, 121),1	1265,(37, 121),1	1274,(62, 121),1	1281,(1, 74),64	1345,(1, 108),36	1388,(2, 83),12	1400,(2, 107),58	1612,(6, 90),30	1750,(36, 121),1	1751,(57, 121),1	1753,(15, 121),1	1755,(72, 121),1	1756,(82, 121),1	1759,(110, 121),1	1760,(47, 121),1	1763,(40, 121),1	1764,(85, 121),1	1765,(119, 121),1	1766,(32, 121),1	
186,(4, 18),1	187,(4, 36),3	190,(4, 98),4	194,(5, 15),1	195,(5, 72),1	196,(8, 14),2	198,(8, 19),8	206,(8, 39),1	1106,(26, 121),1	1160,(51, 121),1	1161,(91, 121),1	1162,(111, 121),1	1190,(49, 121),1	1191,(116, 121),1	1192,(103, 121),1	1208,(5, 104),1	1209,(16, 121),1	1210,(92, 121),1	1215,(64, 121),1	1216,(86, 121),1	1261,(30, 121),1	1275,(8, 93),1	1276,(44, 121),1	1465,(4, 52),20	1485,(4, 83),14	1499,(4, 107),16	1515,(4, 108),11	1528,(5, 46),13	1541,(5, 52),30	1571,(5, 58),16	1587,(5, 90),16	1603,(5, 107),8	1643,(8, 58),75	1718,(8, 104),22	1740,(20, 121),1	1741,(22, 121),1	1742,(43, 121),1	1743,(79, 121),1	1744,(120, 121),1	1745,(61, 121),1	1746,(17, 121),1	1747,(73, 121),1	1748,(60, 121),1	1749,(95, 121),1	1761,(88, 121),1	1762,(21, 121),1	1767,(45, 121),1	1768,(113, 121),1	
1,(0, 1),22	23,(0, 2),22	45,(0, 4),22	67,(0, 5),22	89,(0, 6),22	111,(0, 7),22	133,(0, 8),22	155,(0, 10),22	177,(12, 15),9	186,(12, 47),1	187,(12, 56),13	200,(12, 63),34	234,(12, 68),9	243,(12, 90),137	380,(12, 93),722	1102,(12, 97),4	1106,(12, 110),1	1107,(12, 112),8	1115,(9, 25),40	1155,(9, 47),2	1157,(9, 88),6	1163,(9, 102),1	1164,(11, 18),26	1190,(11, 21),3	1193,(11, 25),12	1205,(11, 38),3	1208,(11, 40),3	1211,(11, 83),4	1215,(11, 85),3	1218,(11, 104),35	1253,(11, 119),1	1254,(3, 24),5	1259,(3, 32),1	1260,(3, 45),6	1266,(3, 97),1	1267,(3, 101),7	1274,(3, 113),3	1277,(70, 121),1	1278,(66, 121),1	1279,(105, 121),1	1280,(54, 121),1	1381,(65, 121),1	1382,(94, 121),1	1383,(28, 121),1	1384,(89, 121),1	1385,(80, 121),1	1386,(75, 121),1	1387,(71, 121),1	1458,(69, 121),1	1459,(96, 121),1	1460,(34, 121),1	1461,(109, 121),1	1462,(29, 121),1	1463,(100, 121),1	1464,(118, 121),1	1526,(115, 121),1	1527,(117, 121),1	1611,(42, 121),1	1642,(41, 121),1	1752,(98, 121),1	1754,(14, 121),1	1757,(19, 121),1	1758,(39, 121),1	
