2880
# CPU
0,201,1	1,136,5	6,137,5	11,79,5	16,169,5	21,122,5	26,124,5	31,115,5	36,165,5	41,164,5	46,145,5	51,54,5	56,98,5	61,34,5	66,32,5	71,129,5	76,195,5	81,40,5	86,125,5	91,29,5	96,108,5	101,109,5	106,176,5	111,84,5	116,45,5	121,91,5	126,57,5	131,62,5	136,110,5	141,139,5	146,102,5	151,156,5	156,61,5	161,178,5	166,80,5	171,23,5	176,196,5	181,132,5	186,128,5	191,83,5	196,28,5	201,180,5	206,106,5	211,166,5	216,144,5	221,81,5	226,82,5	231,35,5	236,90,5	241,42,5	246,200,5	251,117,5	256,140,5	261,94,5	266,177,5	271,188,5	276,39,5	281,26,5	286,148,5	291,155,5	296,153,5	301,22,5	306,107,5	311,187,5	316,179,5	321,100,5	326,99,5	331,97,5	336,67,5	341,49,5	346,154,5	351,74,5	356,114,5	361,183,5	366,105,5	371,111,5	376,59,5	381,43,5	386,130,5	391,36,5	396,147,5	401,71,5	406,31,5	411,76,5	416,119,5	421,53,5	426,170,5	431,174,5	436,133,5	441,146,5	446,175,5	451,41,5	456,185,5	461,113,5	466,127,5	471,159,5	476,120,5	481,121,5	486,163,5	491,48,5	496,161,5	501,55,5	506,160,5	511,72,5	516,37,5	521,116,5	526,181,5	531,38,5	536,33,5	541,46,5	546,66,5	551,21,5	556,141,5	561,199,5	566,191,5	571,173,5	576,88,5	581,190,5	586,189,5	591,70,5	596,60,5	601,168,5	606,126,5	611,171,5	616,143,5	621,47,5	626,87,5	631,73,5	636,101,5	641,89,5	646,158,5	651,150,5	656,96,5	661,172,5	666,69,5	671,24,5	676,186,5	681,118,5	686,142,5	691,112,5	696,64,5	701,149,5	706,194,5	711,184,5	716,78,5	721,56,5	726,27,5	731,65,5	736,123,5	741,152,5	746,93,5	751,192,5	756,25,5	761,1,5	766,77,5	771,151,5	776,30,5	781,92,5	786,104,5	791,52,5	796,51,5	801,50,5	806,20,5	811,162,5	816,86,5	821,131,5	826,19,5	831,193,5	836,138,5	841,8,5	846,85,5	851,75,5	856,157,5	861,44,5	866,11,5	871,12,5	876,9,5	881,16,5	886,5,5	891,4,5	896,2,5	901,15,5	906,17,5	911,6,5	916,13,5	950,3,5	1114,14,5	1282,7,5	1810,18,5	2874,10,5	2879,0,1	
153,63,5	229,198,5	305,134,5	457,135,5	609,167,5	761,103,5	837,58,5	
77,182,5	381,197,5	533,95,5	685,68,5	
# Incoming
538,(95, 11),4	542,(198, 9),12	554,(63, 5),16	570,(135, 5),8	578,(198, 4),4	582,(134, 4),16	598,(182, 14),4	602,(182, 7),12	614,(167, 9),4	618,(198, 2),28	646,(134, 17),40	690,(68, 12),8	698,(68, 16),16	714,(68, 15),32	766,(103, 4),8	774,(68, 6),40	814,(167, 13),64	878,(58, 13),4	882,(135, 3),68	950,(197, 14),56	1006,(95, 14),108	1114,(167, 7),144	1258,(68, 7),24	1282,(135, 18),36	1318,(68, 18),208	1526,(103, 18),280	1806,(58, 18),4	1810,(58, 10),1064	
77,(201, 63),76	153,(201, 198),76	229,(201, 134),76	381,(201, 135),76	533,(201, 167),76	685,(201, 103),76	761,(201, 58),76	
1,(201, 182),76	305,(201, 197),76	457,(201, 95),76	609,(201, 68),76	
# Outgoing
1,(201, 182),76	77,(201, 63),76	153,(201, 198),76	229,(201, 134),76	305,(201, 197),76	381,(201, 135),76	457,(201, 95),76	533,(201, 167),76	609,(201, 68),76	685,(201, 103),76	761,(201, 58),76	
542,(198, 9),12	554,(63, 5),16	570,(135, 5),8	578,(198, 4),4	582,(134, 4),16	614,(167, 9),4	618,(198, 2),28	646,(134, 17),40	766,(103, 4),8	814,(167, 13),64	878,(58, 13),4	882,(135, 3),68	1114,(167, 7),144	1282,(135, 18),36	1526,(103, 18),280	1806,(58, 18),4	1810,(58, 10),1064	
538,(95, 11),4	598,(182, 14),4	602,(182, 7),12	690,(68, 12),8	698,(68, 16),16	714,(68, 15),32	774,(68, 6),40	950,(197, 14),56	1006,(95, 14),108	1258,(68, 7),24	1318,(68, 18),208	
