20059
# CPU
4,2,183	187,4,183	370,6,183	553,8,183	736,10,183	919,12,183	1102,14,183	1285,16,183	1468,18,183	1651,20,183	1834,163,183	2017,37,183	2200,125,183	2383,23,183	2566,47,183	2749,157,183	2932,25,183	3115,137,183	3298,75,183	3481,77,183	3664,139,183	3847,169,183	4030,189,183	4213,22,183	4396,33,183	4579,55,183	4762,93,183	4945,119,183	5128,149,183	5311,35,183	5494,43,183	5677,51,183	5860,67,183	6043,129,183	6226,145,183	6409,161,183	6592,59,183	6775,61,183	6958,69,183	7141,71,183	7324,85,183	7507,95,183	7690,105,183	7873,107,183	8056,123,183	8239,143,183	8422,159,183	8605,167,183	8788,171,183	8971,173,183	9154,177,183	9337,181,183	9520,183,183	9703,199,183	9886,31,183	10069,39,183	10252,41,183	10435,53,183	10618,57,183	10801,65,183	10984,87,183	11167,97,183	11350,101,183	11533,103,183	11716,111,183	11899,121,183	12082,131,183	12265,133,183	12448,135,183	12631,141,183	12814,179,183	12997,191,183	13180,195,183	13363,197,183	13546,27,183	13729,29,183	13912,45,183	14095,49,183	14278,63,183	14461,73,183	14644,79,183	14827,81,183	15010,83,183	15193,89,183	15376,91,183	15559,99,183	15742,109,183	15925,113,183	16108,115,183	16291,117,183	16474,127,183	16657,147,183	16840,151,183	17023,153,183	17206,155,183	17389,165,183	17572,175,183	17755,185,183	17938,187,183	18121,193,183	
0,0,1	1,9,183	184,11,183	367,19,183	550,5,183	733,15,183	916,17,183	1099,3,183	1282,7,183	1465,13,183	1648,1,183	1831,80,183	2014,24,183	3130,130,183	3313,144,183	3496,66,183	3679,128,183	3862,164,183	4045,168,183	4228,198,183	4411,74,183	4594,196,183	4777,200,183	5343,42,183	5526,86,183	6150,134,183	6333,158,183	6516,174,183	6699,178,183	6882,48,183	7065,116,183	7248,132,183	7431,152,183	7614,190,183	7797,36,183	7980,38,183	8163,54,183	8346,60,183	8529,62,183	8712,68,183	8895,72,183	9078,88,183	9261,96,183	9444,112,183	9627,148,183	9810,150,183	9993,184,183	10176,28,183	10359,30,183	10542,44,183	10725,84,183	10908,92,183	11091,100,183	11274,106,183	11457,108,183	11640,118,183	11823,120,183	12006,122,183	12189,138,183	12372,140,183	12555,154,183	12738,170,183	12921,172,183	13104,176,183	13287,186,183	13470,194,183	13653,26,183	13836,40,183	14019,46,183	14202,50,183	14385,52,183	14568,56,183	14751,76,183	14934,82,183	15117,90,183	15300,94,183	15483,124,183	15666,142,183	15849,162,183	16032,166,183	16215,180,183	16398,182,183	16581,188,183	16764,21,183	16947,32,183	17130,34,183	17313,58,183	17496,64,183	17679,70,183	17862,78,183	18045,98,183	18228,102,183	18411,104,183	18594,110,183	18777,114,183	18960,126,183	19143,136,183	19326,146,183	19509,156,183	19692,160,183	19875,192,183	20058,201,1	
# Incoming
1,(0, 2),3	4,(0, 4),3	7,(0, 6),3	10,(0, 8),3	13,(0, 10),3	16,(0, 12),3	19,(0, 14),3	22,(0, 16),3	25,(0, 18),3	28,(0, 20),3	184,(9, 23),19	203,(9, 25),2	205,(9, 29),5	210,(9, 53),7	217,(9, 55),3	220,(9, 67),1	221,(9, 79),3	224,(9, 87),6	230,(9, 107),2	232,(9, 127),1	233,(9, 131),14	247,(9, 133),4	251,(9, 135),11	262,(9, 141),10	272,(9, 143),1	273,(9, 169),11	284,(9, 175),32	316,(9, 181),2	318,(9, 189),1	319,(9, 191),996	1315,(9, 195),11	1326,(9, 199),94	1420,(11, 25),1	1421,(11, 37),6	1427,(11, 43),1	1428,(11, 45),1	1429,(11, 57),5	1434,(11, 59),4	1438,(11, 69),171	1609,(11, 89),39	1648,(11, 97),16	1664,(11, 99),1	1665,(11, 103),14	1679,(11, 113),2	1681,(11, 115),1	1682,(11, 117),1	1683,(11, 119),85	1768,(11, 121),1	1769,(11, 137),138	1907,(11, 139),2	1909,(11, 141),1	1910,(11, 153),53	1963,(11, 161),6	1969,(11, 175),1	1970,(11, 177),1	1971,(11, 193),1	1972,(11, 199),1	1973,(19, 22),145	2118,(19, 23),33	2151,(19, 27),1	2152,(19, 41),30	2182,(19, 43),8	2190,(19, 47),1	2191,(19, 49),3	2194,(19, 51),7	2201,(19, 55),15	2216,(19, 59),1	2217,(19, 63),33	2250,(19, 75),3	2253,(19, 87),54	2307,(19, 95),2	2309,(19, 99),24	2333,(19, 101),4	2337,(19, 111),4	2341,(19, 119),6	2347,(19, 123),4	2351,(19, 129),9	2360,(19, 131),1	2361,(19, 133),4	2365,(19, 137),2	2367,(19, 141),2	2369,(19, 145),9	2378,(19, 153),1	2379,(19, 157),1	2380,(19, 171),6	2386,(19, 183),1	2387,(19, 187),3	2390,(19, 191),2	2392,(19, 193),5	2397,(5, 25),16	2413,(5, 31),8	2421,(5, 35),4	2425,(5, 41),4	2429,(5, 49),85	2514,(5, 59),9	2523,(5, 69),13	2536,(5, 73),22	2558,(5, 81),1	2559,(5, 85),56	2615,(5, 101),4	2619,(5, 117),1	2620,(5, 123),1	2621,(5, 129),16	2637,(5, 131),14	2651,(5, 137),27	2678,(5, 143),4	2682,(5, 147),6	2688,(5, 149),24	2712,(5, 153),3	2715,(5, 161),10	2725,(5, 173),114	2839,(5, 183),1	2840,(5, 193),2	2842,(5, 195),57	2899,(5, 199),2	2901,(15, 45),1	2902,(15, 49),4	2906,(15, 63),40	2946,(15, 65),1	2947,(15, 75),11	2958,(15, 77),1	2959,(15, 81),23	2982,(15, 91),43	3025,(15, 97),1	3026,(15, 103),2	3028,(15, 109),3	3031,(15, 111),92	3123,(15, 113),2	3125,(15, 135),29	3154,(15, 139),19	3173,(15, 147),4	3177,(15, 153),2	3179,(15, 165),1	3180,(15, 169),1	3181,(15, 171),1	3182,(15, 181),3	3185,(15, 183),32	3217,(15, 189),37	3254,(15, 199),11	3265,(17, 22),3	3268,(17, 27),11	3279,(17, 29),1	3280,(17, 33),16	3296,(17, 39),19	3315,(17, 41),3	3318,(17, 55),1	3319,(17, 59),3	3322,(17, 61),10	3332,(17, 71),1	3333,(17, 73),13	3346,(17, 79),2	3348,(17, 89),1	3349,(17, 91),3	3352,(17, 93),5	3357,(17, 103),1	3358,(17, 109),18	3376,(17, 119),2	3378,(17, 127),79	3457,(17, 129),13	3470,(17, 133),11	3481,(17, 141),6	3487,(17, 147),60	3547,(17, 149),1	3548,(17, 167),1	3549,(17, 193),1	3550,(3, 27),1	3551,(3, 35),9	3560,(3, 43),11	3571,(3, 45),11	3582,(3, 49),20	3602,(3, 51),2	3604,(3, 67),2	3606,(3, 71),17	3623,(3, 81),35	3658,(3, 83),52	3710,(3, 99),1	3711,(3, 103),33	3744,(3, 105),3	3747,(3, 123),2	3749,(3, 129),4	3753,(3, 141),57	3810,(3, 143),12	3822,(3, 145),1	3823,(3, 147),15	3838,(3, 161),1	3839,(3, 167),2	3841,(3, 175),5	3846,(3, 179),1	3847,(3, 185),10	3857,(3, 191),28	3885,(3, 195),1	3886,(7, 27),6	3892,(7, 39),2	3894,(7, 45),11	3905,(7, 53),27	3932,(7, 57),6	3938,(7, 59),5	3943,(7, 61),3	3946,(7, 69),18	3964,(7, 71),3	3967,(7, 83),4	3971,(7, 85),2	3973,(7, 91),3	3976,(7, 95),4	3980,(7, 99),13	3993,(7, 103),4	3997,(7, 105),3	4000,(7, 107),3	4003,(7, 115),3	4006,(7, 123),1	4007,(7, 135),19	4026,(7, 143),1	4027,(7, 159),1	4028,(7, 167),7	4035,(7, 171),2	4037,(7, 173),1	4038,(7, 175),45	4083,(7, 177),1	4084,(7, 181),1	4085,(7, 183),2	4087,(7, 187),44	4131,(7, 199),6	4137,(13, 31),11	4148,(13, 39),4	4152,(13, 41),16	4168,(13, 53),4	4172,(13, 57),5	4177,(13, 65),3	4180,(13, 87),1	4181,(13, 97),3	4184,(13, 101),3	4187,(13, 103),1	4188,(13, 111),1	4189,(13, 115),2	4191,(13, 121),17	4208,(13, 127),6	4214,(13, 131),1	4215,(13, 133),4	4219,(13, 135),2	4221,(13, 141),1	4222,(13, 147),1	4223,(13, 153),12	4235,(13, 155),3	4238,(13, 179),3	4241,(13, 191),18	4259,(13, 195),2	4261,(13, 197),5	4266,(1, 27),10	4276,(1, 29),4	4280,(1, 45),1	4281,(1, 49),10	4291,(1, 63),1	4292,(1, 73),8	4300,(1, 79),3	4303,(1, 81),1	4304,(1, 83),1	4305,(1, 89),1	4306,(1, 91),11	4317,(1, 99),1	4318,(1, 109),13	4331,(1, 113),1	4332,(1, 115),3	4335,(1, 117),6	4341,(1, 127),1	4342,(1, 147),2	4344,(1, 151),3	4347,(1, 153),1	4348,(1, 155),1	4349,(1, 165),1	4350,(1, 175),12	4362,(1, 185),2	4364,(1, 187),5	4369,(1, 193),1	
187,(2, 30),1	188,(2, 36),4	192,(2, 42),7	199,(2, 46),1	200,(2, 48),5	205,(2, 50),50	255,(2, 58),1	256,(2, 60),1	257,(2, 62),8	265,(2, 68),2	267,(2, 76),179	446,(2, 88),21	467,(2, 90),36	503,(2, 98),1	504,(2, 102),2609	3113,(2, 110),4	3117,(2, 114),1	3118,(2, 124),1	3119,(2, 126),9	3128,(2, 128),1	3129,(2, 130),1	3130,(2, 136),116	3246,(2, 140),7	3253,(2, 144),2	3255,(2, 166),29	3284,(2, 192),10	3294,(2, 196),1	3295,(4, 26),7	3302,(4, 28),7	3309,(4, 46),45	3354,(4, 48),12	3366,(4, 52),1	3367,(4, 56),6	3373,(4, 60),6	3379,(4, 66),14	3393,(4, 74),1	3394,(4, 90),1	3395,(4, 98),24	3419,(4, 104),1	3420,(4, 108),1	3421,(4, 112),10	3431,(4, 126),28	3459,(4, 128),2	3461,(4, 142),2	3463,(4, 146),6	3469,(4, 148),1	3470,(4, 152),10	3480,(4, 162),1	3481,(4, 164),1	3482,(4, 166),1	3483,(4, 172),1	3484,(4, 174),13	3497,(4, 178),5	3502,(4, 180),2	3504,(4, 190),13	3517,(4, 196),1	3518,(6, 34),18	3536,(6, 38),8	3544,(6, 42),11	3555,(6, 44),4	3559,(6, 62),7	3566,(6, 78),3	3569,(6, 86),1	3570,(6, 88),4	3574,(6, 102),5	3579,(6, 110),1	3580,(6, 114),1	3581,(6, 120),1	3582,(6, 124),9	3591,(6, 138),9	3600,(6, 142),1	3601,(6, 154),5	3606,(6, 166),1	3607,(6, 168),13	3620,(6, 186),2	3622,(6, 188),1	3623,(6, 198),3	3626,(8, 30),1	3627,(8, 34),23	3650,(8, 36),153	3803,(8, 42),5	3808,(8, 52),10	3818,(8, 56),231	4049,(8, 74),19	4068,(8, 86),14	4082,(8, 90),17	4099,(8, 92),31	4130,(8, 94),1	4131,(8, 98),5	4136,(8, 106),7	4143,(8, 112),35	4178,(8, 114),1	4179,(8, 140),9	4188,(8, 148),2	4190,(8, 182),16	4206,(8, 196),15	4221,(8, 200),58	4279,(10, 21),4	4283,(10, 42),1060	5343,(10, 44),12	5355,(10, 48),1	5356,(10, 60),6	5362,(10, 64),39	5401,(10, 76),1	5402,(10, 86),4	5406,(10, 90),1	5407,(10, 94),5	5412,(10, 96),2	5414,(10, 98),5	5419,(10, 104),7	5426,(10, 106),602	6028,(10, 122),1	6029,(10, 126),1	6030,(10, 134),120	6150,(10, 136),1	6151,(10, 142),9	6160,(10, 146),3	6163,(10, 158),1	6164,(10, 162),1	6165,(10, 170),6	6171,(10, 174),1	6172,(10, 178),1	6173,(10, 182),1	6174,(10, 184),21	6195,(12, 21),2	6197,(12, 46),5	6202,(12, 48),4	6206,(12, 52),7	6213,(12, 76),5	6218,(12, 78),1	6219,(12, 94),7	6226,(12, 110),2	6228,(12, 116),93	6321,(12, 120),2	6323,(12, 122),4	6327,(12, 126),166	6493,(12, 132),2	6495,(12, 136),4	6499,(12, 148),6	6505,(12, 150),1	6506,(12, 152),2	6508,(12, 172),54	6562,(12, 186),10	6572,(12, 188),1	6573,(12, 190),23	6596,(12, 194),1	6597,(14, 28),1	6598,(14, 36),4	6602,(14, 38),4	6606,(14, 54),1	6607,(14, 56),7	6614,(14, 58),1	6615,(14, 60),12	6627,(14, 62),1	6628,(14, 68),44	6672,(14, 72),1	6673,(14, 84),8	6681,(14, 88),7	6688,(14, 96),39	6727,(14, 102),1	6728,(14, 104),2	6730,(14, 112),3	6733,(14, 114),20	6753,(14, 124),141	6894,(14, 138),4	6898,(14, 142),1	6899,(14, 148),13	6912,(14, 150),33	6945,(14, 154),1	6946,(14, 160),2	6948,(14, 166),1	6949,(14, 176),50	6999,(14, 184),1	7000,(16, 26),16	7016,(16, 28),26	7042,(16, 30),8	7050,(16, 32),3	7053,(16, 34),1	7054,(16, 44),1	7055,(16, 46),11	7066,(16, 84),1	7067,(16, 92),1	7068,(16, 100),15	7083,(16, 106),1	7084,(16, 108),25	7109,(16, 114),5	7114,(16, 118),1	7115,(16, 120),31	7146,(16, 122),93	7239,(16, 124),1	7240,(16, 138),4	7244,(16, 140),1	7245,(16, 142),2	7247,(16, 154),6	7253,(16, 166),9	7262,(16, 170),7	7269,(16, 172),1	7270,(16, 176),1	7271,(16, 180),89	7360,(16, 182),1	7361,(16, 186),1	7362,(16, 194),1	7363,(18, 26),2	7365,(18, 32),45	7410,(18, 40),2	7412,(18, 46),3	7415,(18, 50),9	7424,(18, 52),3	7427,(18, 56),4	7431,(18, 64),14	7445,(18, 76),1	7446,(18, 82),1	7447,(18, 90),1	7448,(18, 94),29	7477,(18, 98),1	7478,(18, 102),2	7480,(18, 110),3	7483,(18, 124),1	7484,(18, 126),4	7488,(18, 142),1	7489,(18, 162),1	7490,(18, 166),60	7550,(18, 180),2	7552,(18, 182),6	7558,(18, 188),6	7564,(18, 192),4	7568,(20, 21),4	7572,(20, 32),4	7576,(20, 34),6	7582,(20, 58),6	7588,(20, 64),18	7606,(20, 70),20	7626,(20, 78),1	7627,(20, 98),3	7630,(20, 102),7	7637,(20, 104),6	7643,(20, 110),2	7645,(20, 114),15	7660,(20, 126),3	7663,(20, 136),11	7674,(20, 146),1	7675,(20, 156),2	7677,(20, 160),13	7690,(20, 192),1	7691,(163, 201),14	7705,(37, 201),14	7719,(125, 201),14	7733,(23, 201),14	7747,(47, 201),14	7761,(157, 201),14	7775,(25, 201),14	7789,(137, 201),14	7803,(75, 201),14	7817,(77, 201),14	7831,(139, 201),14	7845,(169, 201),14	7859,(189, 201),14	7873,(22, 201),14	7887,(33, 201),14	7901,(55, 201),14	7915,(93, 201),14	7929,(119, 201),14	7943,(149, 201),14	7957,(35, 201),14	7971,(43, 201),14	7985,(51, 201),14	7999,(67, 201),14	8013,(129, 201),14	8027,(145, 201),14	8041,(161, 201),14	8055,(59, 201),14	8069,(61, 201),14	8083,(69, 201),14	8097,(71, 201),14	8111,(85, 201),14	8125,(95, 201),14	8139,(105, 201),14	8153,(107, 201),14	8239,(123, 201),14	8422,(143, 201),14	8605,(159, 201),14	8788,(167, 201),14	8971,(171, 201),14	9154,(173, 201),14	9337,(177, 201),14	9520,(181, 201),14	9703,(183, 201),14	9886,(199, 201),14	10069,(31, 201),14	10252,(39, 201),14	10435,(41, 201),14	10618,(53, 201),14	10801,(57, 201),14	10984,(65, 201),14	11167,(87, 201),14	11350,(97, 201),14	11533,(101, 201),14	11716,(103, 201),14	11899,(111, 201),14	12082,(121, 201),14	12265,(131, 201),14	12448,(133, 201),14	12631,(135, 201),14	12814,(141, 201),14	12997,(179, 201),14	13180,(191, 201),14	13363,(195, 201),14	13546,(197, 201),14	13729,(27, 201),14	13912,(29, 201),14	14095,(45, 201),14	14278,(49, 201),14	14461,(63, 201),14	14644,(73, 201),14	14827,(79, 201),14	15010,(81, 201),14	15193,(83, 201),14	15376,(89, 201),14	15559,(91, 201),14	15742,(99, 201),14	15925,(109, 201),14	16108,(113, 201),14	16291,(115, 201),14	16474,(117, 201),14	16657,(127, 201),14	16840,(147, 201),14	17023,(151, 201),14	17206,(153, 201),14	17389,(155, 201),14	17572,(165, 201),14	17755,(175, 201),14	17938,(185, 201),14	18121,(187, 201),14	18304,(193, 201),14	
# Outgoing
187,(2, 30),1	188,(2, 36),4	192,(2, 42),7	199,(2, 46),1	200,(2, 48),5	205,(2, 50),50	255,(2, 58),1	256,(2, 60),1	257,(2, 62),8	265,(2, 68),2	267,(2, 76),179	446,(2, 88),21	467,(2, 90),36	503,(2, 98),1	504,(2, 102),2609	3113,(2, 110),4	3117,(2, 114),1	3118,(2, 124),1	3119,(2, 126),9	3128,(2, 128),1	3129,(2, 130),1	3130,(2, 136),116	3246,(2, 140),7	3253,(2, 144),2	3255,(2, 166),29	3284,(2, 192),10	3294,(2, 196),1	3295,(4, 26),7	3302,(4, 28),7	3309,(4, 46),45	3354,(4, 48),12	3366,(4, 52),1	3367,(4, 56),6	3373,(4, 60),6	3379,(4, 66),14	3393,(4, 74),1	3394,(4, 90),1	3395,(4, 98),24	3419,(4, 104),1	3420,(4, 108),1	3421,(4, 112),10	3431,(4, 126),28	3459,(4, 128),2	3461,(4, 142),2	3463,(4, 146),6	3469,(4, 148),1	3470,(4, 152),10	3480,(4, 162),1	3481,(4, 164),1	3482,(4, 166),1	3483,(4, 172),1	3484,(4, 174),13	3497,(4, 178),5	3502,(4, 180),2	3504,(4, 190),13	3517,(4, 196),1	3518,(6, 34),18	3536,(6, 38),8	3544,(6, 42),11	3555,(6, 44),4	3559,(6, 62),7	3566,(6, 78),3	3569,(6, 86),1	3570,(6, 88),4	3574,(6, 102),5	3579,(6, 110),1	3580,(6, 114),1	3581,(6, 120),1	3582,(6, 124),9	3591,(6, 138),9	3600,(6, 142),1	3601,(6, 154),5	3606,(6, 166),1	3607,(6, 168),13	3620,(6, 186),2	3622,(6, 188),1	3623,(6, 198),3	3626,(8, 30),1	3627,(8, 34),23	3650,(8, 36),153	3803,(8, 42),5	3808,(8, 52),10	3818,(8, 56),231	4049,(8, 74),19	4068,(8, 86),14	4082,(8, 90),17	4099,(8, 92),31	4130,(8, 94),1	4131,(8, 98),5	4136,(8, 106),7	4143,(8, 112),35	4178,(8, 114),1	4179,(8, 140),9	4188,(8, 148),2	4190,(8, 182),16	4206,(8, 196),15	4221,(8, 200),58	4279,(10, 21),4	4283,(10, 42),1060	5343,(10, 44),12	5355,(10, 48),1	5356,(10, 60),6	5362,(10, 64),39	5401,(10, 76),1	5402,(10, 86),4	5406,(10, 90),1	5407,(10, 94),5	5412,(10, 96),2	5414,(10, 98),5	5419,(10, 104),7	5426,(10, 106),602	6028,(10, 122),1	6029,(10, 126),1	6030,(10, 134),120	6150,(10, 136),1	6151,(10, 142),9	6160,(10, 146),3	6163,(10, 158),1	6164,(10, 162),1	6165,(10, 170),6	6171,(10, 174),1	6172,(10, 178),1	6173,(10, 182),1	6174,(10, 184),21	6195,(12, 21),2	6197,(12, 46),5	6202,(12, 48),4	6206,(12, 52),7	6213,(12, 76),5	6218,(12, 78),1	6219,(12, 94),7	6226,(12, 110),2	6228,(12, 116),93	6321,(12, 120),2	6323,(12, 122),4	6327,(12, 126),166	6493,(12, 132),2	6495,(12, 136),4	6499,(12, 148),6	6505,(12, 150),1	6506,(12, 152),2	6508,(12, 172),54	6562,(12, 186),10	6572,(12, 188),1	6573,(12, 190),23	6596,(12, 194),1	6597,(14, 28),1	6598,(14, 36),4	6602,(14, 38),4	6606,(14, 54),1	6607,(14, 56),7	6614,(14, 58),1	6615,(14, 60),12	6627,(14, 62),1	6628,(14, 68),44	6672,(14, 72),1	6673,(14, 84),8	6681,(14, 88),7	6688,(14, 96),39	6727,(14, 102),1	6728,(14, 104),2	6730,(14, 112),3	6733,(14, 114),20	6753,(14, 124),141	6894,(14, 138),4	6898,(14, 142),1	6899,(14, 148),13	6912,(14, 150),33	6945,(14, 154),1	6946,(14, 160),2	6948,(14, 166),1	6949,(14, 176),50	6999,(14, 184),1	7000,(16, 26),16	7016,(16, 28),26	7042,(16, 30),8	7050,(16, 32),3	7053,(16, 34),1	7054,(16, 44),1	7055,(16, 46),11	7066,(16, 84),1	7067,(16, 92),1	7068,(16, 100),15	7083,(16, 106),1	7084,(16, 108),25	7109,(16, 114),5	7114,(16, 118),1	7115,(16, 120),31	7146,(16, 122),93	7239,(16, 124),1	7240,(16, 138),4	7244,(16, 140),1	7245,(16, 142),2	7247,(16, 154),6	7253,(16, 166),9	7262,(16, 170),7	7269,(16, 172),1	7270,(16, 176),1	7271,(16, 180),89	7360,(16, 182),1	7361,(16, 186),1	7362,(16, 194),1	7363,(18, 26),2	7365,(18, 32),45	7410,(18, 40),2	7412,(18, 46),3	7415,(18, 50),9	7424,(18, 52),3	7427,(18, 56),4	7431,(18, 64),14	7445,(18, 76),1	7446,(18, 82),1	7447,(18, 90),1	7448,(18, 94),29	7477,(18, 98),1	7478,(18, 102),2	7480,(18, 110),3	7483,(18, 124),1	7484,(18, 126),4	7488,(18, 142),1	7489,(18, 162),1	7490,(18, 166),60	7550,(18, 180),2	7552,(18, 182),6	7558,(18, 188),6	7564,(18, 192),4	7568,(20, 21),4	7572,(20, 32),4	7576,(20, 34),6	7582,(20, 58),6	7588,(20, 64),18	7606,(20, 70),20	7626,(20, 78),1	7627,(20, 98),3	7630,(20, 102),7	7637,(20, 104),6	7643,(20, 110),2	7645,(20, 114),15	7660,(20, 126),3	7663,(20, 136),11	7674,(20, 146),1	7675,(20, 156),2	7677,(20, 160),13	7690,(20, 192),1	7691,(163, 201),14	7705,(37, 201),14	7719,(125, 201),14	7733,(23, 201),14	7747,(47, 201),14	7761,(157, 201),14	7775,(25, 201),14	7789,(137, 201),14	7803,(75, 201),14	7817,(77, 201),14	7831,(139, 201),14	7845,(169, 201),14	7859,(189, 201),14	7873,(22, 201),14	7887,(33, 201),14	7901,(55, 201),14	7915,(93, 201),14	7929,(119, 201),14	7943,(149, 201),14	7957,(35, 201),14	7971,(43, 201),14	7985,(51, 201),14	7999,(67, 201),14	8013,(129, 201),14	8027,(145, 201),14	8041,(161, 201),14	8055,(59, 201),14	8069,(61, 201),14	8083,(69, 201),14	8097,(71, 201),14	8111,(85, 201),14	8125,(95, 201),14	8139,(105, 201),14	8153,(107, 201),14	8239,(123, 201),14	8422,(143, 201),14	8605,(159, 201),14	8788,(167, 201),14	8971,(171, 201),14	9154,(173, 201),14	9337,(177, 201),14	9520,(181, 201),14	9703,(183, 201),14	9886,(199, 201),14	10069,(31, 201),14	10252,(39, 201),14	10435,(41, 201),14	10618,(53, 201),14	10801,(57, 201),14	10984,(65, 201),14	11167,(87, 201),14	11350,(97, 201),14	11533,(101, 201),14	11716,(103, 201),14	11899,(111, 201),14	12082,(121, 201),14	12265,(131, 201),14	12448,(133, 201),14	12631,(135, 201),14	12814,(141, 201),14	12997,(179, 201),14	13180,(191, 201),14	13363,(195, 201),14	13546,(197, 201),14	13729,(27, 201),14	13912,(29, 201),14	14095,(45, 201),14	14278,(49, 201),14	14461,(63, 201),14	14644,(73, 201),14	14827,(79, 201),14	15010,(81, 201),14	15193,(83, 201),14	15376,(89, 201),14	15559,(91, 201),14	15742,(99, 201),14	15925,(109, 201),14	16108,(113, 201),14	16291,(115, 201),14	16474,(117, 201),14	16657,(127, 201),14	16840,(147, 201),14	17023,(151, 201),14	17206,(153, 201),14	17389,(155, 201),14	17572,(165, 201),14	17755,(175, 201),14	17938,(185, 201),14	18121,(187, 201),14	18304,(193, 201),14	
1,(0, 2),3	4,(0, 4),3	7,(0, 6),3	10,(0, 8),3	13,(0, 10),3	16,(0, 12),3	19,(0, 14),3	22,(0, 16),3	25,(0, 18),3	28,(0, 20),3	184,(9, 23),19	203,(9, 25),2	205,(9, 29),5	210,(9, 53),7	217,(9, 55),3	220,(9, 67),1	221,(9, 79),3	224,(9, 87),6	230,(9, 107),2	232,(9, 127),1	233,(9, 131),14	247,(9, 133),4	251,(9, 135),11	262,(9, 141),10	272,(9, 143),1	273,(9, 169),11	284,(9, 175),32	316,(9, 181),2	318,(9, 189),1	319,(9, 191),996	1315,(9, 195),11	1326,(9, 199),94	1420,(11, 25),1	1421,(11, 37),6	1427,(11, 43),1	1428,(11, 45),1	1429,(11, 57),5	1434,(11, 59),4	1438,(11, 69),171	1609,(11, 89),39	1648,(11, 97),16	1664,(11, 99),1	1665,(11, 103),14	1679,(11, 113),2	1681,(11, 115),1	1682,(11, 117),1	1683,(11, 119),85	1768,(11, 121),1	1769,(11, 137),138	1907,(11, 139),2	1909,(11, 141),1	1910,(11, 153),53	1963,(11, 161),6	1969,(11, 175),1	1970,(11, 177),1	1971,(11, 193),1	1972,(11, 199),1	1973,(19, 22),145	2118,(19, 23),33	2151,(19, 27),1	2152,(19, 41),30	2182,(19, 43),8	2190,(19, 47),1	2191,(19, 49),3	2194,(19, 51),7	2201,(19, 55),15	2216,(19, 59),1	2217,(19, 63),33	2250,(19, 75),3	2253,(19, 87),54	2307,(19, 95),2	2309,(19, 99),24	2333,(19, 101),4	2337,(19, 111),4	2341,(19, 119),6	2347,(19, 123),4	2351,(19, 129),9	2360,(19, 131),1	2361,(19, 133),4	2365,(19, 137),2	2367,(19, 141),2	2369,(19, 145),9	2378,(19, 153),1	2379,(19, 157),1	2380,(19, 171),6	2386,(19, 183),1	2387,(19, 187),3	2390,(19, 191),2	2392,(19, 193),5	2397,(5, 25),16	2413,(5, 31),8	2421,(5, 35),4	2425,(5, 41),4	2429,(5, 49),85	2514,(5, 59),9	2523,(5, 69),13	2536,(5, 73),22	2558,(5, 81),1	2559,(5, 85),56	2615,(5, 101),4	2619,(5, 117),1	2620,(5, 123),1	2621,(5, 129),16	2637,(5, 131),14	2651,(5, 137),27	2678,(5, 143),4	2682,(5, 147),6	2688,(5, 149),24	2712,(5, 153),3	2715,(5, 161),10	2725,(5, 173),114	2839,(5, 183),1	2840,(5, 193),2	2842,(5, 195),57	2899,(5, 199),2	2901,(15, 45),1	2902,(15, 49),4	2906,(15, 63),40	2946,(15, 65),1	2947,(15, 75),11	2958,(15, 77),1	2959,(15, 81),23	2982,(15, 91),43	3025,(15, 97),1	3026,(15, 103),2	3028,(15, 109),3	3031,(15, 111),92	3123,(15, 113),2	3125,(15, 135),29	3154,(15, 139),19	3173,(15, 147),4	3177,(15, 153),2	3179,(15, 165),1	3180,(15, 169),1	3181,(15, 171),1	3182,(15, 181),3	3185,(15, 183),32	3217,(15, 189),37	3254,(15, 199),11	3265,(17, 22),3	3268,(17, 27),11	3279,(17, 29),1	3280,(17, 33),16	3296,(17, 39),19	3315,(17, 41),3	3318,(17, 55),1	3319,(17, 59),3	3322,(17, 61),10	3332,(17, 71),1	3333,(17, 73),13	3346,(17, 79),2	3348,(17, 89),1	3349,(17, 91),3	3352,(17, 93),5	3357,(17, 103),1	3358,(17, 109),18	3376,(17, 119),2	3378,(17, 127),79	3457,(17, 129),13	3470,(17, 133),11	3481,(17, 141),6	3487,(17, 147),60	3547,(17, 149),1	3548,(17, 167),1	3549,(17, 193),1	3550,(3, 27),1	3551,(3, 35),9	3560,(3, 43),11	3571,(3, 45),11	3582,(3, 49),20	3602,(3, 51),2	3604,(3, 67),2	3606,(3, 71),17	3623,(3, 81),35	3658,(3, 83),52	3710,(3, 99),1	3711,(3, 103),33	3744,(3, 105),3	3747,(3, 123),2	3749,(3, 129),4	3753,(3, 141),57	3810,(3, 143),12	3822,(3, 145),1	3823,(3, 147),15	3838,(3, 161),1	3839,(3, 167),2	3841,(3, 175),5	3846,(3, 179),1	3847,(3, 185),10	3857,(3, 191),28	3885,(3, 195),1	3886,(7, 27),6	3892,(7, 39),2	3894,(7, 45),11	3905,(7, 53),27	3932,(7, 57),6	3938,(7, 59),5	3943,(7, 61),3	3946,(7, 69),18	3964,(7, 71),3	3967,(7, 83),4	3971,(7, 85),2	3973,(7, 91),3	3976,(7, 95),4	3980,(7, 99),13	3993,(7, 103),4	3997,(7, 105),3	4000,(7, 107),3	4003,(7, 115),3	4006,(7, 123),1	4007,(7, 135),19	4026,(7, 143),1	4027,(7, 159),1	4028,(7, 167),7	4035,(7, 171),2	4037,(7, 173),1	4038,(7, 175),45	4083,(7, 177),1	4084,(7, 181),1	4085,(7, 183),2	4087,(7, 187),44	4131,(7, 199),6	4137,(13, 31),11	4148,(13, 39),4	4152,(13, 41),16	4168,(13, 53),4	4172,(13, 57),5	4177,(13, 65),3	4180,(13, 87),1	4181,(13, 97),3	4184,(13, 101),3	4187,(13, 103),1	4188,(13, 111),1	4189,(13, 115),2	4191,(13, 121),17	4208,(13, 127),6	4214,(13, 131),1	4215,(13, 133),4	4219,(13, 135),2	4221,(13, 141),1	4222,(13, 147),1	4223,(13, 153),12	4235,(13, 155),3	4238,(13, 179),3	4241,(13, 191),18	4259,(13, 195),2	4261,(13, 197),5	4266,(1, 27),10	4276,(1, 29),4	4280,(1, 45),1	4281,(1, 49),10	4291,(1, 63),1	4292,(1, 73),8	4300,(1, 79),3	4303,(1, 81),1	4304,(1, 83),1	4305,(1, 89),1	4306,(1, 91),11	4317,(1, 99),1	4318,(1, 109),13	4331,(1, 113),1	4332,(1, 115),3	4335,(1, 117),6	4341,(1, 127),1	4342,(1, 147),2	4344,(1, 151),3	4347,(1, 153),1	4348,(1, 155),1	4349,(1, 165),1	4350,(1, 175),12	4362,(1, 185),2	4364,(1, 187),5	4369,(1, 193),1	
