496
# CPU
0,41,1	1,28,13	14,40,13	27,23,13	40,7,13	53,36,13	66,34,13	79,15,13	92,16,13	105,19,13	118,6,13	131,20,13	144,10,13	157,27,13	170,5,13	183,32,13	196,24,13	209,39,13	222,22,13	235,18,13	248,9,13	261,21,13	274,35,13	287,11,13	300,30,13	313,17,13	326,13,13	339,4,13	352,14,13	365,8,13	378,26,13	391,37,13	404,33,13	417,1,13	430,2,13	482,3,13	495,0,1	
226,25,13	376,31,13	

76,12,13	
151,29,13	301,38,13	
# Incoming
164,(29, 2),18	182,(12, 3),3	239,(25, 2),33	314,(38, 3),45	389,(31, 3),93	
151,(41, 25),75	301,(41, 31),75	

1,(41, 12),75	
76,(41, 29),75	226,(41, 38),75	
# Outgoing
1,(41, 12),75	76,(41, 29),75	151,(41, 25),75	226,(41, 38),75	301,(41, 31),75	
239,(25, 2),33	389,(31, 3),93	

182,(12, 3),3	
164,(29, 2),18	314,(38, 3),45	
