4864
# CPU
0,0,1	1,6,6	7,7,6	13,10,6	19,1,6	25,116,6	31,9,6	37,12,6	43,20,6	49,80,6	55,120,6	61,2,6	67,93,6	73,30,6	79,43,6	85,96,6	91,37,6	97,104,6	103,68,6	109,64,6	115,38,6	121,49,6	127,102,6	133,83,6	139,81,6	151,110,6	171,59,6	191,95,6	215,33,6	239,100,6	263,111,6	287,108,6	315,87,6	347,54,6	379,98,6	415,105,6	451,21,6	487,57,6	527,63,6	567,29,6	611,26,6	659,89,6	711,44,6	763,61,6	819,52,6	875,106,6	935,73,6	995,31,6	1063,24,6	1131,117,6	1199,82,6	1271,71,6	1355,62,6	1451,45,6	1555,90,6	1659,114,6	1763,84,6	1875,15,6	1987,50,6	2107,41,6	2231,17,6	2355,79,6	2479,13,6	2607,97,6	2759,107,6	2927,92,6	3111,78,6	3315,112,6	3519,27,6	3779,70,6	4143,14,6	4863,121,1	
13,11,6	25,5,6	37,3,6	49,4,6	61,8,6	67,16,6	73,85,6	79,18,6	89,67,6	105,109,6	121,39,6	141,101,6	165,36,6	197,47,6	229,58,6	265,74,6	301,75,6	337,118,6	377,91,6	417,25,6	457,28,6	501,22,6	545,115,6	593,40,6	641,60,6	697,42,6	757,35,6	825,56,6	893,65,6	961,23,6	1037,72,6	1117,88,6	1197,51,6	1289,113,6	1381,103,6	1477,69,6	1577,53,6	1677,32,6	1785,77,6	1905,119,6	2041,99,6	2205,19,6	2369,86,6	2537,66,6	2709,94,6	2881,76,6	3105,55,6	3357,34,6	3629,48,6	3997,46,6	
# Incoming
19,(11, 43),4	23,(11, 104),4	27,(11, 64),4	31,(5, 37),4	35,(5, 38),8	43,(3, 68),8	51,(5, 110),4	55,(4, 38),4	59,(11, 102),8	67,(8, 96),4	71,(8, 104),4	75,(8, 64),4	79,(4, 49),16	95,(5, 102),8	103,(4, 83),8	111,(8, 83),8	119,(4, 81),12	131,(8, 81),4	135,(4, 110),16	151,(5, 59),8	159,(4, 59),12	171,(5, 95),4	175,(8, 95),16	191,(11, 33),16	207,(5, 33),4	211,(8, 33),4	215,(11, 100),8	223,(4, 100),4	227,(8, 100),12	239,(3, 111),4	243,(4, 111),20	263,(11, 108),4	267,(5, 108),4	271,(3, 108),4	275,(4, 108),12	287,(11, 87),4	291,(4, 87),4	295,(8, 87),20	315,(5, 54),16	331,(3, 54),4	335,(4, 54),12	347,(11, 98),24	371,(4, 98),4	375,(8, 98),4	379,(11, 105),20	399,(3, 105),16	415,(5, 21),4	419,(8, 21),32	451,(3, 57),24	475,(4, 57),12	487,(5, 63),16	503,(3, 63),8	511,(4, 63),16	527,(4, 29),36	563,(8, 29),4	567,(11, 26),8	575,(5, 26),4	579,(3, 26),12	591,(4, 26),8	599,(8, 26),12	611,(5, 89),20	631,(3, 89),20	651,(4, 89),8	659,(5, 44),28	687,(3, 44),12	699,(8, 44),12	711,(11, 61),4	715,(3, 61),28	743,(4, 61),16	759,(8, 61),4	763,(11, 52),52	815,(8, 52),4	819,(3, 106),4	823,(4, 106),52	875,(11, 73),56	931,(3, 73),4	935,(5, 31),8	943,(4, 31),52	995,(11, 24),16	1011,(5, 24),8	1019,(4, 24),44	1063,(11, 117),20	1083,(5, 117),4	1087,(3, 117),44	1131,(5, 82),20	1151,(3, 82),20	1171,(4, 82),28	1199,(11, 71),64	1263,(3, 71),4	1267,(4, 71),4	1271,(11, 62),12	1283,(5, 62),12	1295,(3, 62),56	1351,(4, 62),4	1355,(11, 45),4	1359,(4, 45),92	1451,(5, 90),52	1503,(3, 90),48	1551,(4, 90),4	1555,(11, 114),56	1611,(5, 114),20	1631,(8, 114),28	1659,(3, 84),92	1751,(8, 84),12	1763,(5, 15),108	1871,(3, 15),4	1875,(11, 50),12	1887,(5, 50),96	1983,(8, 50),4	1987,(11, 41),20	2007,(5, 41),4	2011,(3, 41),68	2079,(4, 41),28	2107,(5, 17),8	2115,(3, 17),116	2231,(11, 79),24	2255,(5, 79),40	2295,(4, 79),60	2355,(11, 13),8	2363,(5, 13),56	2419,(3, 13),36	2455,(4, 13),24	2479,(11, 97),124	2603,(3, 97),4	2607,(11, 107),28	2635,(5, 107),4	2639,(3, 107),64	2703,(8, 107),56	2759,(11, 92),124	2883,(3, 92),8	2891,(8, 92),36	2927,(11, 78),4	2931,(3, 78),36	2967,(4, 78),144	3111,(3, 112),112	3223,(4, 112),88	3311,(8, 112),4	3315,(11, 27),60	3375,(5, 27),140	3515,(4, 27),4	3519,(11, 70),12	3531,(5, 70),232	3763,(8, 70),16	3779,(5, 14),180	3959,(3, 14),172	4131,(8, 14),12	4143,(16, 121),16	4159,(85, 121),16	4175,(18, 121),16	4191,(67, 121),16	4207,(109, 121),16	4223,(39, 121),16	4239,(101, 121),16	4255,(36, 121),16	4271,(47, 121),16	4287,(58, 121),16	4303,(74, 121),16	4319,(75, 121),16	4335,(118, 121),16	4351,(91, 121),16	4367,(25, 121),16	4383,(28, 121),16	4399,(22, 121),16	4415,(115, 121),16	4431,(40, 121),16	4447,(60, 121),16	4463,(42, 121),16	4479,(35, 121),16	4495,(56, 121),16	4511,(65, 121),16	4527,(23, 121),16	4543,(72, 121),16	4559,(88, 121),16	4575,(51, 121),16	4591,(113, 121),16	4607,(103, 121),16	4623,(69, 121),16	4639,(53, 121),16	4655,(32, 121),16	4671,(77, 121),16	4687,(119, 121),16	4703,(99, 121),16	4719,(19, 121),16	4735,(86, 121),16	4751,(66, 121),16	4767,(94, 121),16	4783,(76, 121),16	4799,(55, 121),16	4815,(34, 121),16	4831,(48, 121),16	4847,(46, 121),16	
1,(0, 11),12	13,(0, 5),12	25,(0, 3),12	37,(0, 4),12	49,(0, 8),12	61,(12, 85),4	65,(9, 18),4	69,(2, 18),8	77,(6, 67),4	81,(7, 67),4	85,(12, 67),4	89,(10, 109),8	97,(1, 109),4	101,(2, 109),4	105,(6, 39),4	109,(7, 39),8	117,(10, 39),4	121,(7, 101),4	125,(10, 101),12	137,(12, 101),4	141,(10, 36),12	153,(1, 36),4	157,(12, 36),8	165,(6, 47),4	169,(9, 47),20	189,(12, 47),8	197,(10, 58),8	205,(9, 58),24	229,(6, 74),16	245,(10, 74),16	261,(12, 74),4	265,(7, 75),8	273,(1, 75),16	289,(12, 75),12	301,(1, 118),24	325,(9, 118),4	329,(12, 118),4	333,(2, 118),4	337,(6, 91),4	341,(1, 91),16	357,(9, 91),20	377,(6, 25),24	401,(1, 25),4	405,(12, 25),4	409,(2, 25),8	417,(10, 28),4	421,(12, 28),36	457,(6, 22),12	469,(10, 22),8	477,(1, 22),4	481,(2, 22),20	501,(6, 115),32	533,(7, 115),8	541,(10, 115),4	545,(10, 40),40	585,(9, 40),4	589,(12, 40),4	593,(6, 60),8	601,(7, 60),8	609,(1, 60),16	625,(12, 60),16	641,(6, 42),24	665,(7, 42),8	673,(10, 42),4	677,(1, 42),8	685,(9, 42),8	693,(2, 42),4	697,(6, 35),28	725,(7, 35),4	729,(1, 35),28	757,(6, 56),16	773,(7, 56),12	785,(10, 56),4	789,(1, 56),4	793,(9, 56),24	817,(12, 56),4	821,(2, 56),4	825,(2, 65),68	893,(6, 23),16	909,(7, 23),16	925,(1, 23),36	961,(10, 72),24	985,(1, 72),28	1013,(12, 72),8	1021,(2, 72),16	1037,(7, 88),28	1065,(10, 88),12	1077,(12, 88),40	1117,(7, 51),24	1141,(1, 51),8	1149,(9, 51),48	1197,(7, 113),8	1205,(10, 113),64	1269,(1, 113),12	1281,(9, 113),8	1289,(6, 103),28	1317,(10, 103),44	1361,(1, 103),8	1369,(12, 103),12	1381,(6, 69),84	1465,(7, 69),4	1469,(10, 69),4	1473,(9, 69),4	1477,(10, 53),24	1501,(1, 53),16	1517,(9, 53),8	1525,(12, 53),16	1541,(2, 53),36	1577,(7, 32),96	1673,(2, 32),4	1677,(9, 77),68	1745,(12, 77),20	1765,(2, 77),20	1785,(6, 119),36	1821,(10, 119),48	1869,(1, 119),8	1877,(9, 119),24	1901,(12, 119),4	1905,(7, 99),4	1909,(10, 99),68	1977,(9, 99),8	1985,(12, 99),52	2037,(2, 99),4	2041,(6, 19),12	2053,(7, 19),88	2141,(9, 19),48	2189,(12, 19),16	2205,(6, 86),136	2341,(9, 86),28	2369,(7, 66),56	2425,(1, 66),8	2433,(9, 66),4	2437,(2, 66),100	2537,(6, 94),4	2541,(1, 94),4	2545,(9, 94),160	2705,(2, 94),4	2709,(6, 76),32	2741,(7, 76),16	2757,(10, 76),40	2797,(2, 76),84	2881,(10, 55),12	2893,(1, 55),212	3105,(6, 34),24	3129,(12, 34),4	3133,(2, 34),224	3357,(6, 48),64	3421,(10, 48),4	3425,(1, 48),92	3517,(9, 48),108	3625,(12, 48),4	3629,(6, 46),68	3697,(7, 46),4	3701,(10, 46),60	3761,(1, 46),124	3885,(9, 46),68	3953,(12, 46),44	
# Outgoing
1,(0, 11),12	13,(0, 5),12	25,(0, 3),12	37,(0, 4),12	49,(0, 8),12	61,(12, 85),4	65,(9, 18),4	69,(2, 18),8	77,(6, 67),4	81,(7, 67),4	85,(12, 67),4	89,(10, 109),8	97,(1, 109),4	101,(2, 109),4	105,(6, 39),4	109,(7, 39),8	117,(10, 39),4	121,(7, 101),4	125,(10, 101),12	137,(12, 101),4	141,(10, 36),12	153,(1, 36),4	157,(12, 36),8	165,(6, 47),4	169,(9, 47),20	189,(12, 47),8	197,(10, 58),8	205,(9, 58),24	229,(6, 74),16	245,(10, 74),16	261,(12, 74),4	265,(7, 75),8	273,(1, 75),16	289,(12, 75),12	301,(1, 118),24	325,(9, 118),4	329,(12, 118),4	333,(2, 118),4	337,(6, 91),4	341,(1, 91),16	357,(9, 91),20	377,(6, 25),24	401,(1, 25),4	405,(12, 25),4	409,(2, 25),8	417,(10, 28),4	421,(12, 28),36	457,(6, 22),12	469,(10, 22),8	477,(1, 22),4	481,(2, 22),20	501,(6, 115),32	533,(7, 115),8	541,(10, 115),4	545,(10, 40),40	585,(9, 40),4	589,(12, 40),4	593,(6, 60),8	601,(7, 60),8	609,(1, 60),16	625,(12, 60),16	641,(6, 42),24	665,(7, 42),8	673,(10, 42),4	677,(1, 42),8	685,(9, 42),8	693,(2, 42),4	697,(6, 35),28	725,(7, 35),4	729,(1, 35),28	757,(6, 56),16	773,(7, 56),12	785,(10, 56),4	789,(1, 56),4	793,(9, 56),24	817,(12, 56),4	821,(2, 56),4	825,(2, 65),68	893,(6, 23),16	909,(7, 23),16	925,(1, 23),36	961,(10, 72),24	985,(1, 72),28	1013,(12, 72),8	1021,(2, 72),16	1037,(7, 88),28	1065,(10, 88),12	1077,(12, 88),40	1117,(7, 51),24	1141,(1, 51),8	1149,(9, 51),48	1197,(7, 113),8	1205,(10, 113),64	1269,(1, 113),12	1281,(9, 113),8	1289,(6, 103),28	1317,(10, 103),44	1361,(1, 103),8	1369,(12, 103),12	1381,(6, 69),84	1465,(7, 69),4	1469,(10, 69),4	1473,(9, 69),4	1477,(10, 53),24	1501,(1, 53),16	1517,(9, 53),8	1525,(12, 53),16	1541,(2, 53),36	1577,(7, 32),96	1673,(2, 32),4	1677,(9, 77),68	1745,(12, 77),20	1765,(2, 77),20	1785,(6, 119),36	1821,(10, 119),48	1869,(1, 119),8	1877,(9, 119),24	1901,(12, 119),4	1905,(7, 99),4	1909,(10, 99),68	1977,(9, 99),8	1985,(12, 99),52	2037,(2, 99),4	2041,(6, 19),12	2053,(7, 19),88	2141,(9, 19),48	2189,(12, 19),16	2205,(6, 86),136	2341,(9, 86),28	2369,(7, 66),56	2425,(1, 66),8	2433,(9, 66),4	2437,(2, 66),100	2537,(6, 94),4	2541,(1, 94),4	2545,(9, 94),160	2705,(2, 94),4	2709,(6, 76),32	2741,(7, 76),16	2757,(10, 76),40	2797,(2, 76),84	2881,(10, 55),12	2893,(1, 55),212	3105,(6, 34),24	3129,(12, 34),4	3133,(2, 34),224	3357,(6, 48),64	3421,(10, 48),4	3425,(1, 48),92	3517,(9, 48),108	3625,(12, 48),4	3629,(6, 46),68	3697,(7, 46),4	3701,(10, 46),60	3761,(1, 46),124	3885,(9, 46),68	3953,(12, 46),44	
19,(11, 43),4	23,(11, 104),4	27,(11, 64),4	31,(5, 37),4	35,(5, 38),8	43,(3, 68),8	51,(5, 110),4	55,(4, 38),4	59,(11, 102),8	67,(8, 96),4	71,(8, 104),4	75,(8, 64),4	79,(4, 49),16	95,(5, 102),8	103,(4, 83),8	111,(8, 83),8	119,(4, 81),12	131,(8, 81),4	135,(4, 110),16	151,(5, 59),8	159,(4, 59),12	171,(5, 95),4	175,(8, 95),16	191,(11, 33),16	207,(5, 33),4	211,(8, 33),4	215,(11, 100),8	223,(4, 100),4	227,(8, 100),12	239,(3, 111),4	243,(4, 111),20	263,(11, 108),4	267,(5, 108),4	271,(3, 108),4	275,(4, 108),12	287,(11, 87),4	291,(4, 87),4	295,(8, 87),20	315,(5, 54),16	331,(3, 54),4	335,(4, 54),12	347,(11, 98),24	371,(4, 98),4	375,(8, 98),4	379,(11, 105),20	399,(3, 105),16	415,(5, 21),4	419,(8, 21),32	451,(3, 57),24	475,(4, 57),12	487,(5, 63),16	503,(3, 63),8	511,(4, 63),16	527,(4, 29),36	563,(8, 29),4	567,(11, 26),8	575,(5, 26),4	579,(3, 26),12	591,(4, 26),8	599,(8, 26),12	611,(5, 89),20	631,(3, 89),20	651,(4, 89),8	659,(5, 44),28	687,(3, 44),12	699,(8, 44),12	711,(11, 61),4	715,(3, 61),28	743,(4, 61),16	759,(8, 61),4	763,(11, 52),52	815,(8, 52),4	819,(3, 106),4	823,(4, 106),52	875,(11, 73),56	931,(3, 73),4	935,(5, 31),8	943,(4, 31),52	995,(11, 24),16	1011,(5, 24),8	1019,(4, 24),44	1063,(11, 117),20	1083,(5, 117),4	1087,(3, 117),44	1131,(5, 82),20	1151,(3, 82),20	1171,(4, 82),28	1199,(11, 71),64	1263,(3, 71),4	1267,(4, 71),4	1271,(11, 62),12	1283,(5, 62),12	1295,(3, 62),56	1351,(4, 62),4	1355,(11, 45),4	1359,(4, 45),92	1451,(5, 90),52	1503,(3, 90),48	1551,(4, 90),4	1555,(11, 114),56	1611,(5, 114),20	1631,(8, 114),28	1659,(3, 84),92	1751,(8, 84),12	1763,(5, 15),108	1871,(3, 15),4	1875,(11, 50),12	1887,(5, 50),96	1983,(8, 50),4	1987,(11, 41),20	2007,(5, 41),4	2011,(3, 41),68	2079,(4, 41),28	2107,(5, 17),8	2115,(3, 17),116	2231,(11, 79),24	2255,(5, 79),40	2295,(4, 79),60	2355,(11, 13),8	2363,(5, 13),56	2419,(3, 13),36	2455,(4, 13),24	2479,(11, 97),124	2603,(3, 97),4	2607,(11, 107),28	2635,(5, 107),4	2639,(3, 107),64	2703,(8, 107),56	2759,(11, 92),124	2883,(3, 92),8	2891,(8, 92),36	2927,(11, 78),4	2931,(3, 78),36	2967,(4, 78),144	3111,(3, 112),112	3223,(4, 112),88	3311,(8, 112),4	3315,(11, 27),60	3375,(5, 27),140	3515,(4, 27),4	3519,(11, 70),12	3531,(5, 70),232	3763,(8, 70),16	3779,(5, 14),180	3959,(3, 14),172	4131,(8, 14),12	4143,(16, 121),16	4159,(85, 121),16	4175,(18, 121),16	4191,(67, 121),16	4207,(109, 121),16	4223,(39, 121),16	4239,(101, 121),16	4255,(36, 121),16	4271,(47, 121),16	4287,(58, 121),16	4303,(74, 121),16	4319,(75, 121),16	4335,(118, 121),16	4351,(91, 121),16	4367,(25, 121),16	4383,(28, 121),16	4399,(22, 121),16	4415,(115, 121),16	4431,(40, 121),16	4447,(60, 121),16	4463,(42, 121),16	4479,(35, 121),16	4495,(56, 121),16	4511,(65, 121),16	4527,(23, 121),16	4543,(72, 121),16	4559,(88, 121),16	4575,(51, 121),16	4591,(113, 121),16	4607,(103, 121),16	4623,(69, 121),16	4639,(53, 121),16	4655,(32, 121),16	4671,(77, 121),16	4687,(119, 121),16	4703,(99, 121),16	4719,(19, 121),16	4735,(86, 121),16	4751,(66, 121),16	4767,(94, 121),16	4783,(76, 121),16	4799,(55, 121),16	4815,(34, 121),16	4831,(48, 121),16	4847,(46, 121),16	
