148
# CPU
29,8,5	37,14,5	42,5,5	77,20,5	125,11,5	135,17,5	
11,2,5	16,4,5	21,7,5	26,10,5	31,13,5	43,16,5	48,19,5	
0,0,1	1,1,5	6,6,5	11,9,5	16,15,5	24,3,5	30,12,5	57,18,5	147,21,1	
# Incoming
11,(1, 8),18	29,(1, 14),8	37,(2, 5),2	45,(1, 20),32	77,(2, 11),48	125,(2, 17),10	
1,(0, 2),10	37,(1, 16),6	43,(1, 19),2	
16,(2, 3),8	24,(2, 12),6	30,(4, 21),4	34,(8, 21),4	39,(2, 18),18	57,(7, 21),4	61,(10, 21),4	65,(13, 21),4	69,(14, 21),4	73,(5, 21),4	82,(20, 21),4	130,(11, 21),4	135,(16, 21),4	139,(19, 21),4	143,(17, 21),4	
# Outgoing
34,(8, 21),4	69,(14, 21),4	73,(5, 21),4	82,(20, 21),4	130,(11, 21),4	143,(17, 21),4	
16,(2, 3),8	24,(2, 12),6	30,(4, 21),4	37,(2, 5),2	39,(2, 18),18	57,(7, 21),4	61,(10, 21),4	65,(13, 21),4	77,(2, 11),48	125,(2, 17),10	135,(16, 21),4	139,(19, 21),4	
1,(0, 2),10	11,(1, 8),18	29,(1, 14),8	37,(1, 16),6	43,(1, 19),2	45,(1, 20),32	
