7719
# CPU
4,4,1	7,8,1	10,12,1	11,163,1	12,174,1	13,16,1	16,20,1	17,55,1	18,80,1	19,159,1	49,67,1	178,74,1	241,91,1	353,166,1	681,70,1	696,93,1	809,129,1	908,177,1	1285,106,1	1299,120,1	1420,190,1	1430,45,1	1854,48,1	1859,61,1	1973,105,1	1974,112,1	2041,146,1	2069,153,1	2094,156,1	2267,157,1	2397,99,1	2404,104,1	2456,151,1	2556,173,1	2588,197,1	2592,30,1	2596,38,1	2636,50,1	2849,102,1	3370,108,1	3403,109,1	3911,123,1	4311,149,1	4346,167,1	4746,64,1	4751,79,1	4781,97,1	4796,126,1	4799,148,1	4821,168,1	5057,82,1	5068,115,1	5069,118,1	5070,122,1	5071,124,1	5072,161,1	5188,182,1	5196,194,1	5203,195,1	5211,42,1	5217,44,1	5225,65,1	5226,101,1	5252,138,1	5258,154,1	5567,40,1	5608,71,1	5609,72,1	5614,81,1	5630,83,1	5635,84,1	5640,87,1	5645,89,1	5654,96,1	5655,111,1	5659,132,1	5663,136,1	5667,140,1	5779,165,1	5801,187,1	5802,191,1	5803,192,1	5814,196,1	5870,200,1	5871,29,1	5876,78,1	5954,88,1	5955,92,1	6045,95,1	6051,107,1	6073,113,1	6084,114,1	6442,137,1	6481,144,1	6501,170,1	6502,172,1	6503,179,1	6504,180,1	6568,198,1	6569,41,1	6591,66,1	6593,69,1	6609,75,1	6731,116,1	6869,121,1	6873,128,1	6876,135,1	6877,139,1	6982,145,1	6989,147,1	7006,171,1	7009,183,1	7016,185,1	7018,193,1	7044,35,1	7169,73,1	7189,94,1	7195,98,1	7196,117,1	7197,125,1	7205,127,1	7216,130,1	7217,134,1	7241,141,1	7317,143,1	7349,155,1	7352,162,1	7366,164,1	7371,175,1	7372,176,1	7380,181,1	7381,189,1	7385,33,1	7386,37,1	7389,39,1	7393,53,1	7395,60,1	7439,62,1	7440,63,1	7449,68,1	7470,76,1	7474,77,1	7475,86,1	7482,90,1	7526,100,1	7527,103,1	7535,110,1	7536,119,1	7590,131,1	7591,133,1	7592,142,1	7593,150,1	7603,152,1	7604,158,1	7614,160,1	7616,169,1	7617,178,1	7618,184,1	7624,186,1	7635,188,1	7646,199,1	7718,201,1	
3,3,1	6,7,1	9,11,1	12,15,1	15,19,1	34,43,1	52,49,1	459,85,1	487,36,1	616,59,1	619,31,1	620,52,1	629,54,1	698,56,1	1181,26,1	1195,34,1	1230,58,1	1231,47,1	
2,2,1	5,6,1	8,10,1	11,14,1	14,18,1	388,57,1	389,24,1	1190,28,1	1431,32,1	
0,0,1	1,13,1	2,5,1	3,17,1	4,1,1	5,9,1	84,23,1	400,25,1	562,46,1	1851,21,1	1929,27,1	2399,51,1	2400,22,1	
# Incoming
3,(0, 4),1	5,(2, 77),1	6,(0, 8),1	8,(2, 95),1	9,(0, 12),1	10,(2, 97),1	11,(2, 135),1	12,(0, 16),1	13,(2, 109),2	15,(0, 20),1	16,(13, 29),1	17,(13, 33),1	18,(2, 35),9	27,(2, 37),19	46,(2, 136),1	47,(13, 65),1	48,(13, 67),1	49,(13, 68),39	88,(13, 74),90	178,(13, 75),10	188,(13, 78),11	199,(13, 86),1	200,(13, 91),41	241,(13, 92),1	242,(13, 100),2	244,(13, 104),6	250,(13, 107),1	251,(13, 129),43	294,(13, 131),4	298,(13, 150),42	340,(13, 155),1	341,(13, 157),5	346,(13, 166),7	353,(13, 173),8	361,(13, 177),3	364,(13, 179),16	380,(13, 181),2	382,(13, 195),6	388,(13, 197),228	616,(13, 199),3	619,(5, 29),1	620,(2, 45),5	625,(2, 142),1	626,(2, 175),1	627,(5, 48),6	633,(5, 50),1	634,(5, 69),22	656,(5, 70),25	681,(5, 72),3	684,(5, 78),8	692,(5, 79),1	693,(5, 89),1	694,(5, 93),2	696,(5, 99),1	697,(5, 106),3	700,(5, 108),78	778,(5, 119),2	780,(5, 121),2	782,(5, 125),1	783,(5, 127),14	797,(5, 128),11	808,(5, 129),1	809,(5, 134),27	836,(5, 139),1	837,(5, 147),4	841,(5, 154),1	842,(5, 167),26	868,(5, 169),37	905,(5, 170),1	906,(5, 172),1	907,(5, 177),1	908,(5, 179),212	1120,(5, 186),1	1121,(5, 190),1	1122,(5, 191),1	1123,(5, 196),13	1136,(2, 44),10	1146,(2, 61),3	1149,(2, 105),36	1185,(2, 106),100	1285,(2, 114),8	1293,(2, 120),6	1299,(2, 126),27	1326,(2, 130),10	1336,(2, 134),24	1360,(2, 139),15	1375,(2, 156),5	1380,(2, 162),6	1386,(2, 172),12	1398,(2, 173),2	1400,(2, 190),20	1420,(3, 30),4	1424,(17, 39),1	1425,(17, 45),5	1430,(17, 53),1	1431,(3, 39),1	1432,(3, 64),6	1438,(3, 77),186	1624,(3, 78),1	1625,(3, 101),14	1639,(3, 108),11	1650,(3, 112),1	1651,(3, 116),29	1680,(3, 124),17	1697,(3, 127),2	1699,(3, 134),35	1734,(3, 143),11	1745,(3, 144),1	1746,(3, 158),18	1764,(3, 170),3	1767,(3, 178),1	1768,(3, 180),9	1777,(3, 181),4	1781,(3, 183),15	1796,(3, 185),2	1798,(3, 187),26	1824,(3, 196),2	1826,(3, 197),22	1848,(17, 48),6	1854,(17, 61),5	1859,(17, 79),16	1875,(17, 88),20	1895,(17, 89),18	1913,(17, 96),2	1915,(17, 98),31	1946,(17, 99),9	1955,(17, 103),8	1963,(17, 105),10	1973,(17, 112),1	1974,(17, 127),13	1987,(17, 131),30	2017,(17, 136),3	2020,(17, 138),11	2031,(17, 141),1	2032,(17, 142),3	2035,(17, 144),1	2036,(17, 146),5	2041,(17, 150),6	2047,(17, 153),22	2069,(17, 156),25	2094,(17, 157),173	2267,(17, 158),9	2276,(17, 172),27	2303,(17, 192),3	2306,(1, 62),3	2309,(1, 63),2	2311,(1, 68),14	2325,(1, 71),21	2346,(1, 77),47	2393,(1, 95),1	2394,(1, 97),1	2395,(1, 99),2	2397,(1, 103),1	2398,(1, 104),6	2404,(1, 116),32	2436,(1, 135),2	2438,(1, 151),18	2456,(1, 154),92	2548,(1, 158),1	2549,(1, 173),7	2556,(1, 181),1	2557,(1, 184),2	2559,(1, 188),5	2564,(1, 189),4	2568,(1, 192),18	2586,(1, 193),1	2587,(1, 197),1	2588,(1, 199),3	2591,(6, 30),1	2592,(6, 38),4	2596,(6, 42),36	2632,(6, 50),4	2636,(6, 60),163	2799,(6, 63),1	2800,(6, 66),10	2810,(6, 77),1	2811,(6, 78),7	2818,(6, 98),18	2836,(6, 102),13	2849,(6, 108),521	3370,(6, 109),33	3403,(6, 113),3	3406,(6, 121),8	3414,(6, 123),497	3911,(6, 131),8	3919,(6, 135),8	3927,(6, 136),338	4265,(6, 140),38	4303,(6, 142),6	4309,(6, 143),1	4310,(6, 149),1	4311,(6, 155),12	4323,(6, 164),2	4325,(6, 165),15	4340,(6, 167),6	4346,(6, 168),275	4621,(6, 179),11	4632,(6, 180),8	4640,(6, 185),15	4655,(6, 192),1	4656,(6, 193),8	4664,(6, 198),2	4666,(6, 200),2	4668,(9, 29),1	4669,(9, 33),1	4670,(9, 42),5	4675,(9, 64),71	4746,(9, 69),4	4750,(9, 79),1	4751,(9, 95),5	4756,(9, 96),14	4770,(9, 97),11	4781,(9, 98),6	4787,(9, 113),1	4788,(9, 121),6	4794,(9, 124),1	4795,(9, 126),1	4796,(9, 137),1	4797,(9, 142),1	4798,(9, 148),1	4799,(9, 150),9	4808,(9, 168),13	4821,(9, 170),5	4826,(9, 179),1	4827,(9, 194),15	4842,(9, 199),16	4858,(7, 35),2	4860,(7, 40),14	4874,(7, 68),9	4883,(7, 73),160	5043,(7, 77),9	5052,(7, 82),5	5057,(7, 96),1	5058,(7, 101),3	5061,(7, 107),3	5064,(7, 115),4	5068,(7, 118),1	5069,(7, 122),1	5070,(7, 124),1	5071,(7, 161),1	5072,(7, 162),107	5179,(7, 178),1	5180,(7, 180),1	5181,(7, 182),7	5188,(7, 187),2	5190,(7, 193),1	5191,(7, 194),5	5196,(7, 195),7	5203,(10, 42),8	5211,(10, 44),6	5217,(10, 60),5	5222,(10, 63),2	5224,(10, 65),1	5225,(10, 101),1	5226,(10, 116),4	5230,(10, 131),8	5238,(10, 136),11	5249,(10, 138),3	5252,(10, 142),4	5256,(10, 145),1	5257,(10, 154),1	5258,(10, 172),2	5260,(10, 176),7	5267,(10, 178),1	5268,(10, 186),4	5272,(10, 193),293	5565,(10, 196),1	5566,(11, 40),1	5567,(11, 62),26	5593,(11, 69),5	5598,(11, 71),10	5608,(11, 72),1	5609,(11, 81),5	5614,(11, 83),16	5630,(11, 84),5	5635,(11, 87),5	5640,(11, 89),5	5645,(11, 95),8	5653,(11, 96),1	5654,(11, 111),1	5655,(11, 117),1	5656,(11, 132),3	5659,(11, 136),4	5663,(11, 140),4	5667,(11, 144),40	5707,(11, 165),72	5779,(11, 176),2	5781,(11, 187),20	5801,(11, 191),1	5802,(11, 192),1	5803,(11, 196),11	5814,(11, 199),43	5857,(11, 200),13	5870,(14, 29),1	5871,(14, 39),1	5872,(14, 41),1	5873,(14, 60),2	5875,(14, 78),1	5876,(14, 88),78	5954,(14, 92),1	5955,(14, 95),90	6045,(14, 107),6	6051,(14, 113),22	6073,(14, 114),11	6084,(14, 116),1	6085,(14, 131),356	6441,(14, 137),1	6442,(14, 142),1	6443,(14, 144),38	6481,(14, 147),7	6488,(14, 152),4	6492,(14, 164),1	6493,(14, 170),8	6501,(14, 172),1	6502,(14, 179),1	6503,(14, 180),1	6504,(14, 181),62	6566,(14, 193),1	6567,(14, 198),1	6568,(15, 41),1	6569,(15, 63),21	6590,(15, 66),1	6591,(15, 69),2	6593,(15, 73),1	6594,(15, 75),15	6609,(15, 90),114	6723,(15, 94),3	6726,(15, 103),3	6729,(15, 116),2	6731,(15, 119),80	6811,(15, 121),58	6869,(15, 128),4	6873,(15, 134),2	6875,(15, 135),1	6876,(15, 139),1	6877,(15, 145),105	6982,(15, 147),7	6989,(15, 155),11	7000,(15, 171),6	7006,(15, 183),3	7009,(15, 185),7	7016,(15, 188),1	7017,(15, 193),1	7018,(18, 33),23	7041,(18, 35),3	7044,(18, 60),39	7083,(18, 73),86	7169,(18, 90),1	7170,(18, 94),19	7189,(18, 98),6	7195,(18, 117),1	7196,(18, 125),1	7197,(18, 127),8	7205,(18, 130),11	7216,(18, 134),1	7217,(18, 141),24	7241,(18, 143),76	7317,(18, 155),32	7349,(18, 162),3	7352,(18, 164),14	7366,(18, 175),5	7371,(18, 176),1	7372,(18, 178),2	7374,(18, 181),6	7380,(18, 189),1	7381,(18, 199),1	7382,(19, 33),3	7385,(19, 37),1	7386,(19, 39),3	7389,(19, 53),4	7393,(19, 60),2	7395,(19, 62),44	7439,(19, 63),1	7440,(19, 68),9	7449,(19, 76),21	7470,(19, 77),4	7474,(19, 86),1	7475,(19, 90),7	7482,(19, 100),44	7526,(19, 103),1	7527,(19, 110),8	7535,(19, 119),1	7536,(19, 131),54	7590,(19, 133),1	7591,(19, 142),1	7592,(19, 150),1	7593,(19, 152),10	7603,(19, 158),1	7604,(19, 160),10	7614,(19, 169),2	7616,(19, 178),1	7617,(19, 184),1	7618,(19, 186),6	7624,(19, 188),11	7635,(19, 199),11	7646,(43, 201),3	7649,(49, 201),3	7652,(23, 201),3	7655,(57, 201),3	7658,(24, 201),3	7661,(25, 201),3	7664,(85, 201),3	7667,(36, 201),3	7670,(46, 201),3	7673,(59, 201),3	7676,(31, 201),3	7679,(52, 201),3	7682,(54, 201),3	7685,(56, 201),3	7688,(26, 201),3	7691,(28, 201),3	7694,(34, 201),3	7697,(58, 201),3	7700,(47, 201),3	7703,(32, 201),3	7706,(21, 201),3	7709,(27, 201),3	7712,(51, 201),3	7715,(22, 201),3	
2,(0, 3),1	5,(0, 7),1	6,(2, 47),2	8,(0, 11),1	9,(2, 52),1	10,(4, 56),1	11,(0, 15),1	12,(4, 43),2	14,(0, 19),1	16,(6, 52),1	17,(6, 56),1	18,(13, 43),16	34,(13, 47),1	35,(13, 56),12	47,(2, 49),5	52,(6, 26),9	61,(6, 31),8	123,(10, 54),5	128,(10, 85),331	459,(12, 47),9	468,(14, 34),4	472,(14, 36),15	487,(16, 31),1	488,(16, 47),1	489,(16, 56),2	491,(16, 59),125	616,(18, 31),3	619,(18, 52),1	620,(20, 26),1	621,(5, 47),6	627,(18, 54),2	629,(18, 56),25	654,(18, 58),37	691,(20, 56),7	1136,(17, 26),45	1190,(17, 34),5	1195,(17, 58),35	1230,(9, 47),1	
1,(0, 2),1	4,(0, 6),1	7,(0, 10),1	10,(0, 14),1	13,(0, 18),1	14,(4, 57),374	388,(20, 24),1	400,(20, 32),20	620,(5, 32),1	1181,(17, 28),9	1424,(3, 32),7	
3,(2, 21),2	5,(4, 22),1	12,(6, 21),1	15,(6, 22),1	69,(6, 46),5	74,(10, 23),10	84,(10, 25),1	85,(10, 51),38	389,(20, 25),11	459,(14, 51),1	487,(18, 46),75	1848,(7, 21),3	1851,(7, 22),29	1880,(7, 27),15	1895,(15, 27),34	1929,(15, 51),470	2399,(19, 22),1	
# Outgoing
5,(4, 22),1	10,(4, 56),1	12,(4, 43),2	14,(4, 57),374	388,(20, 24),1	389,(20, 25),11	400,(20, 32),20	459,(12, 47),9	487,(16, 31),1	488,(16, 47),1	489,(16, 56),2	491,(16, 59),125	620,(20, 26),1	691,(20, 56),7	
1420,(3, 30),4	1424,(3, 32),7	1431,(3, 39),1	1432,(3, 64),6	1438,(3, 77),186	1624,(3, 78),1	1625,(3, 101),14	1639,(3, 108),11	1650,(3, 112),1	1651,(3, 116),29	1680,(3, 124),17	1697,(3, 127),2	1699,(3, 134),35	1734,(3, 143),11	1745,(3, 144),1	1746,(3, 158),18	1764,(3, 170),3	1767,(3, 178),1	1768,(3, 180),9	1777,(3, 181),4	1781,(3, 183),15	1796,(3, 185),2	1798,(3, 187),26	1824,(3, 196),2	1826,(3, 197),22	1848,(7, 21),3	1851,(7, 22),29	1880,(7, 27),15	1895,(15, 27),34	1929,(15, 51),470	2399,(19, 22),1	4858,(7, 35),2	4860,(7, 40),14	4874,(7, 68),9	4883,(7, 73),160	5043,(7, 77),9	5052,(7, 82),5	5057,(7, 96),1	5058,(7, 101),3	5061,(7, 107),3	5064,(7, 115),4	5068,(7, 118),1	5069,(7, 122),1	5070,(7, 124),1	5071,(7, 161),1	5072,(7, 162),107	5179,(7, 178),1	5180,(7, 180),1	5181,(7, 182),7	5188,(7, 187),2	5190,(7, 193),1	5191,(7, 194),5	5196,(7, 195),7	5566,(11, 40),1	5567,(11, 62),26	5593,(11, 69),5	5598,(11, 71),10	5608,(11, 72),1	5609,(11, 81),5	5614,(11, 83),16	5630,(11, 84),5	5635,(11, 87),5	5640,(11, 89),5	5645,(11, 95),8	5653,(11, 96),1	5654,(11, 111),1	5655,(11, 117),1	5656,(11, 132),3	5659,(11, 136),4	5663,(11, 140),4	5667,(11, 144),40	5707,(11, 165),72	5779,(11, 176),2	5781,(11, 187),20	5801,(11, 191),1	5802,(11, 192),1	5803,(11, 196),11	5814,(11, 199),43	5857,(11, 200),13	6568,(15, 41),1	6569,(15, 63),21	6590,(15, 66),1	6591,(15, 69),2	6593,(15, 73),1	6594,(15, 75),15	6609,(15, 90),114	6723,(15, 94),3	6726,(15, 103),3	6729,(15, 116),2	6731,(15, 119),80	6811,(15, 121),58	6869,(15, 128),4	6873,(15, 134),2	6875,(15, 135),1	6876,(15, 139),1	6877,(15, 145),105	6982,(15, 147),7	6989,(15, 155),11	7000,(15, 171),6	7006,(15, 183),3	7009,(15, 185),7	7016,(15, 188),1	7017,(15, 193),1	7382,(19, 33),3	7385,(19, 37),1	7386,(19, 39),3	7389,(19, 53),4	7393,(19, 60),2	7395,(19, 62),44	7439,(19, 63),1	7440,(19, 68),9	7449,(19, 76),21	7470,(19, 77),4	7474,(19, 86),1	7475,(19, 90),7	7482,(19, 100),44	7526,(19, 103),1	7527,(19, 110),8	7535,(19, 119),1	7536,(19, 131),54	7590,(19, 133),1	7591,(19, 142),1	7592,(19, 150),1	7593,(19, 152),10	7603,(19, 158),1	7604,(19, 160),10	7614,(19, 169),2	7616,(19, 178),1	7617,(19, 184),1	7618,(19, 186),6	7624,(19, 188),11	7635,(19, 199),11	7646,(43, 201),3	7649,(49, 201),3	7664,(85, 201),3	7667,(36, 201),3	7673,(59, 201),3	7676,(31, 201),3	7679,(52, 201),3	7682,(54, 201),3	7685,(56, 201),3	7688,(26, 201),3	7694,(34, 201),3	7697,(58, 201),3	7700,(47, 201),3	
3,(2, 21),2	5,(2, 77),1	6,(2, 47),2	8,(2, 95),1	9,(2, 52),1	10,(2, 97),1	11,(2, 135),1	12,(6, 21),1	13,(2, 109),2	15,(6, 22),1	16,(6, 52),1	17,(6, 56),1	18,(2, 35),9	27,(2, 37),19	46,(2, 136),1	47,(2, 49),5	52,(6, 26),9	61,(6, 31),8	69,(6, 46),5	74,(10, 23),10	84,(10, 25),1	85,(10, 51),38	123,(10, 54),5	128,(10, 85),331	459,(14, 51),1	468,(14, 34),4	472,(14, 36),15	487,(18, 46),75	616,(18, 31),3	619,(18, 52),1	620,(2, 45),5	625,(2, 142),1	626,(2, 175),1	627,(18, 54),2	629,(18, 56),25	654,(18, 58),37	1136,(2, 44),10	1146,(2, 61),3	1149,(2, 105),36	1185,(2, 106),100	1285,(2, 114),8	1293,(2, 120),6	1299,(2, 126),27	1326,(2, 130),10	1336,(2, 134),24	1360,(2, 139),15	1375,(2, 156),5	1380,(2, 162),6	1386,(2, 172),12	1398,(2, 173),2	1400,(2, 190),20	2591,(6, 30),1	2592,(6, 38),4	2596,(6, 42),36	2632,(6, 50),4	2636,(6, 60),163	2799,(6, 63),1	2800,(6, 66),10	2810,(6, 77),1	2811,(6, 78),7	2818,(6, 98),18	2836,(6, 102),13	2849,(6, 108),521	3370,(6, 109),33	3403,(6, 113),3	3406,(6, 121),8	3414,(6, 123),497	3911,(6, 131),8	3919,(6, 135),8	3927,(6, 136),338	4265,(6, 140),38	4303,(6, 142),6	4309,(6, 143),1	4310,(6, 149),1	4311,(6, 155),12	4323,(6, 164),2	4325,(6, 165),15	4340,(6, 167),6	4346,(6, 168),275	4621,(6, 179),11	4632,(6, 180),8	4640,(6, 185),15	4655,(6, 192),1	4656,(6, 193),8	4664,(6, 198),2	4666,(6, 200),2	5203,(10, 42),8	5211,(10, 44),6	5217,(10, 60),5	5222,(10, 63),2	5224,(10, 65),1	5225,(10, 101),1	5226,(10, 116),4	5230,(10, 131),8	5238,(10, 136),11	5249,(10, 138),3	5252,(10, 142),4	5256,(10, 145),1	5257,(10, 154),1	5258,(10, 172),2	5260,(10, 176),7	5267,(10, 178),1	5268,(10, 186),4	5272,(10, 193),293	5565,(10, 196),1	5870,(14, 29),1	5871,(14, 39),1	5872,(14, 41),1	5873,(14, 60),2	5875,(14, 78),1	5876,(14, 88),78	5954,(14, 92),1	5955,(14, 95),90	6045,(14, 107),6	6051,(14, 113),22	6073,(14, 114),11	6084,(14, 116),1	6085,(14, 131),356	6441,(14, 137),1	6442,(14, 142),1	6443,(14, 144),38	6481,(14, 147),7	6488,(14, 152),4	6492,(14, 164),1	6493,(14, 170),8	6501,(14, 172),1	6502,(14, 179),1	6503,(14, 180),1	6504,(14, 181),62	6566,(14, 193),1	6567,(14, 198),1	7018,(18, 33),23	7041,(18, 35),3	7044,(18, 60),39	7083,(18, 73),86	7169,(18, 90),1	7170,(18, 94),19	7189,(18, 98),6	7195,(18, 117),1	7196,(18, 125),1	7197,(18, 127),8	7205,(18, 130),11	7216,(18, 134),1	7217,(18, 141),24	7241,(18, 143),76	7317,(18, 155),32	7349,(18, 162),3	7352,(18, 164),14	7366,(18, 175),5	7371,(18, 176),1	7372,(18, 178),2	7374,(18, 181),6	7380,(18, 189),1	7381,(18, 199),1	7655,(57, 201),3	7658,(24, 201),3	7691,(28, 201),3	7703,(32, 201),3	
1,(0, 2),1	2,(0, 3),1	3,(0, 4),1	4,(0, 6),1	5,(0, 7),1	6,(0, 8),1	7,(0, 10),1	8,(0, 11),1	9,(0, 12),1	10,(0, 14),1	11,(0, 15),1	12,(0, 16),1	13,(0, 18),1	14,(0, 19),1	15,(0, 20),1	16,(13, 29),1	17,(13, 33),1	18,(13, 43),16	34,(13, 47),1	35,(13, 56),12	47,(13, 65),1	48,(13, 67),1	49,(13, 68),39	88,(13, 74),90	178,(13, 75),10	188,(13, 78),11	199,(13, 86),1	200,(13, 91),41	241,(13, 92),1	242,(13, 100),2	244,(13, 104),6	250,(13, 107),1	251,(13, 129),43	294,(13, 131),4	298,(13, 150),42	340,(13, 155),1	341,(13, 157),5	346,(13, 166),7	353,(13, 173),8	361,(13, 177),3	364,(13, 179),16	380,(13, 181),2	382,(13, 195),6	388,(13, 197),228	616,(13, 199),3	619,(5, 29),1	620,(5, 32),1	621,(5, 47),6	627,(5, 48),6	633,(5, 50),1	634,(5, 69),22	656,(5, 70),25	681,(5, 72),3	684,(5, 78),8	692,(5, 79),1	693,(5, 89),1	694,(5, 93),2	696,(5, 99),1	697,(5, 106),3	700,(5, 108),78	778,(5, 119),2	780,(5, 121),2	782,(5, 125),1	783,(5, 127),14	797,(5, 128),11	808,(5, 129),1	809,(5, 134),27	836,(5, 139),1	837,(5, 147),4	841,(5, 154),1	842,(5, 167),26	868,(5, 169),37	905,(5, 170),1	906,(5, 172),1	907,(5, 177),1	908,(5, 179),212	1120,(5, 186),1	1121,(5, 190),1	1122,(5, 191),1	1123,(5, 196),13	1136,(17, 26),45	1181,(17, 28),9	1190,(17, 34),5	1195,(17, 58),35	1230,(9, 47),1	1424,(17, 39),1	1425,(17, 45),5	1430,(17, 53),1	1848,(17, 48),6	1854,(17, 61),5	1859,(17, 79),16	1875,(17, 88),20	1895,(17, 89),18	1913,(17, 96),2	1915,(17, 98),31	1946,(17, 99),9	1955,(17, 103),8	1963,(17, 105),10	1973,(17, 112),1	1974,(17, 127),13	1987,(17, 131),30	2017,(17, 136),3	2020,(17, 138),11	2031,(17, 141),1	2032,(17, 142),3	2035,(17, 144),1	2036,(17, 146),5	2041,(17, 150),6	2047,(17, 153),22	2069,(17, 156),25	2094,(17, 157),173	2267,(17, 158),9	2276,(17, 172),27	2303,(17, 192),3	2306,(1, 62),3	2309,(1, 63),2	2311,(1, 68),14	2325,(1, 71),21	2346,(1, 77),47	2393,(1, 95),1	2394,(1, 97),1	2395,(1, 99),2	2397,(1, 103),1	2398,(1, 104),6	2404,(1, 116),32	2436,(1, 135),2	2438,(1, 151),18	2456,(1, 154),92	2548,(1, 158),1	2549,(1, 173),7	2556,(1, 181),1	2557,(1, 184),2	2559,(1, 188),5	2564,(1, 189),4	2568,(1, 192),18	2586,(1, 193),1	2587,(1, 197),1	2588,(1, 199),3	4668,(9, 29),1	4669,(9, 33),1	4670,(9, 42),5	4675,(9, 64),71	4746,(9, 69),4	4750,(9, 79),1	4751,(9, 95),5	4756,(9, 96),14	4770,(9, 97),11	4781,(9, 98),6	4787,(9, 113),1	4788,(9, 121),6	4794,(9, 124),1	4795,(9, 126),1	4796,(9, 137),1	4797,(9, 142),1	4798,(9, 148),1	4799,(9, 150),9	4808,(9, 168),13	4821,(9, 170),5	4826,(9, 179),1	4827,(9, 194),15	4842,(9, 199),16	7652,(23, 201),3	7661,(25, 201),3	7670,(46, 201),3	7706,(21, 201),3	7709,(27, 201),3	7712,(51, 201),3	7715,(22, 201),3	
