112
# CPU
0,21,1	1,7,7	8,16,7	15,12,7	22,6,7	29,13,7	36,15,7	43,3,7	50,10,7	57,9,7	64,18,7	71,19,7	78,20,7	85,2,7	104,1,7	111,0,1	
9,5,7	17,8,7	25,14,7	
13,11,7	21,4,7	

5,17,7	
# Incoming
12,(17, 1),4	16,(5, 1),8	24,(11, 1),12	36,(8, 1),16	52,(4, 1),24	76,(14, 1),28	
5,(21, 5),4	13,(21, 8),4	21,(21, 14),4	
9,(21, 11),4	17,(21, 4),4	

1,(21, 17),4	
# Outgoing
1,(21, 17),4	5,(21, 5),4	9,(21, 11),4	13,(21, 8),4	17,(21, 4),4	21,(21, 14),4	
16,(5, 1),8	36,(8, 1),16	76,(14, 1),28	
24,(11, 1),12	52,(4, 1),24	

12,(17, 1),4	
