608
# CPU
331,34,4	405,9,4	409,14,4	539,19,4	583,39,4	587,24,4	591,29,4	
7,4,4	11,13,4	15,18,4	19,8,4	55,23,4	117,28,4	161,38,4	329,33,4	
5,3,4	9,12,4	13,17,4	17,22,4	319,7,4	325,32,4	329,27,4	345,37,4	
3,2,4	63,6,4	67,16,4	111,21,4	151,31,4	159,11,4	207,36,4	321,26,4	
0,0,1	1,1,4	5,10,4	9,30,4	13,20,4	17,5,4	119,25,4	169,40,4	173,15,4	267,35,4	607,41,1	
# Incoming
329,(1, 34),2	331,(3, 9),74	405,(3, 14),4	409,(3, 19),130	539,(3, 39),44	583,(4, 24),4	587,(4, 29),4	
5,(0, 4),2	15,(2, 8),4	19,(2, 23),36	111,(3, 28),6	119,(2, 38),42	161,(3, 33),78	325,(1, 33),4	
3,(0, 3),2	7,(1, 7),312	321,(1, 32),4	325,(2, 27),4	331,(1, 37),14	
1,(0, 2),2	9,(3, 6),54	63,(3, 16),4	67,(3, 21),44	117,(3, 31),34	151,(4, 11),8	173,(4, 36),34	319,(1, 26),2	
7,(2, 5),8	55,(2, 25),64	151,(12, 41),4	155,(17, 41),4	161,(2, 40),8	169,(4, 15),4	173,(6, 41),4	177,(16, 41),4	181,(21, 41),4	185,(31, 41),4	189,(11, 41),4	207,(13, 41),4	211,(18, 41),4	215,(8, 41),4	219,(23, 41),4	223,(28, 41),4	227,(38, 41),4	231,(36, 41),4	239,(3, 35),28	267,(22, 41),4	323,(7, 41),4	329,(26, 41),4	333,(33, 41),4	337,(34, 41),4	409,(9, 41),4	413,(14, 41),4	543,(19, 41),4	583,(32, 41),4	587,(27, 41),4	591,(37, 41),4	595,(39, 41),4	599,(24, 41),4	603,(29, 41),4	
# Outgoing
337,(34, 41),4	409,(9, 41),4	413,(14, 41),4	543,(19, 41),4	595,(39, 41),4	599,(24, 41),4	603,(29, 41),4	
151,(4, 11),8	169,(4, 15),4	173,(4, 36),34	207,(13, 41),4	211,(18, 41),4	215,(8, 41),4	219,(23, 41),4	223,(28, 41),4	227,(38, 41),4	333,(33, 41),4	583,(4, 24),4	587,(4, 29),4	
9,(3, 6),54	63,(3, 16),4	67,(3, 21),44	111,(3, 28),6	117,(3, 31),34	151,(12, 41),4	155,(17, 41),4	161,(3, 33),78	239,(3, 35),28	267,(22, 41),4	323,(7, 41),4	331,(3, 9),74	405,(3, 14),4	409,(3, 19),130	539,(3, 39),44	583,(32, 41),4	587,(27, 41),4	591,(37, 41),4	
7,(2, 5),8	15,(2, 8),4	19,(2, 23),36	55,(2, 25),64	119,(2, 38),42	161,(2, 40),8	173,(6, 41),4	177,(16, 41),4	181,(21, 41),4	185,(31, 41),4	189,(11, 41),4	231,(36, 41),4	325,(2, 27),4	329,(26, 41),4	
1,(0, 2),2	3,(0, 3),2	5,(0, 4),2	7,(1, 7),312	319,(1, 26),2	321,(1, 32),4	325,(1, 33),4	329,(1, 34),2	331,(1, 37),14	
