3200
# CPU
37,5,1	38,21,1	39,39,1	40,88,1	41,45,1	42,26,1	43,31,1	1426,56,1	1456,61,1	1486,79,1	1489,99,1	1510,120,1	1726,100,1	1738,22,1	1759,54,1	1978,112,1	2026,13,1	2122,30,1	2143,64,1	2149,48,1	2344,51,1	2347,70,1	2350,76,1	2374,81,1	2455,19,1	2494,28,1	2704,43,1	3028,118,1	3100,16,1	3145,74,1	3199,121,1	
0,0,1	1,9,1	2,6,1	3,4,1	4,1,1	5,33,1	6,72,1	7,66,1	8,63,1	9,96,1	10,116,1	11,84,1	12,34,1	13,77,1	14,73,1	15,62,1	16,107,1	17,49,1	18,20,1	19,102,1	20,71,1	21,57,1	22,113,1	23,17,1	24,36,1	25,89,1	26,93,1	2143,47,1	2347,53,1	2707,58,1	
49,7,1	50,25,1	51,83,1	52,90,1	53,108,1	54,94,1	55,44,1	56,98,1	57,92,1	61,8,1	62,15,1	63,38,1	64,46,1	65,115,1	66,97,1	67,91,1	68,82,1	69,68,1	70,32,1	71,35,1	72,59,1	73,10,1	74,111,1	75,119,1	85,11,1	86,23,1	87,37,1	97,55,1	106,110,1	1459,75,1	1717,95,1	
13,2,1	14,29,1	15,52,1	16,109,1	17,106,1	18,65,1	19,85,1	20,69,1	25,3,1	26,14,1	27,42,1	28,60,1	29,80,1	30,105,1	31,86,1	97,12,1	98,18,1	99,27,1	100,41,1	101,117,1	102,104,1	103,67,1	104,87,1	105,78,1	1369,50,1	1495,101,1	1501,103,1	1528,40,1	2491,24,1	2710,114,1	
# Incoming
25,(0, 5),12	37,(2, 30),57	97,(9, 13),348	445,(9, 28),30	475,(9, 48),891	1366,(29, 121),3	1369,(9, 56),57	1426,(9, 61),30	1456,(52, 121),3	1459,(9, 79),27	1486,(9, 99),3	1489,(109, 121),3	1492,(106, 121),3	1495,(65, 121),3	1498,(85, 121),3	1501,(9, 120),9	1510,(6, 22),15	1525,(69, 121),3	1528,(6, 64),96	1624,(6, 112),12	1636,(4, 22),15	1651,(4, 64),63	1714,(14, 121),3	1717,(4, 100),9	1726,(4, 112),6	1732,(1, 22),6	1738,(1, 54),21	1759,(1, 81),12	1771,(33, 121),3	1774,(72, 121),3	1777,(66, 121),3	1780,(63, 121),3	1783,(96, 121),3	1786,(116, 121),3	1789,(84, 121),3	1792,(34, 121),3	1795,(2, 112),183	1978,(77, 121),3	1981,(73, 121),3	1984,(62, 121),3	1987,(107, 121),3	1990,(49, 121),3	1993,(20, 121),3	1996,(102, 121),3	1999,(71, 121),3	2002,(57, 121),3	2005,(113, 121),3	2008,(17, 121),3	2011,(36, 121),3	2014,(3, 13),12	2026,(89, 121),3	2029,(93, 121),3	2032,(42, 121),3	2035,(60, 121),3	2038,(80, 121),3	2041,(105, 121),3	2044,(86, 121),3	2047,(7, 16),9	2056,(7, 19),24	2080,(7, 30),42	2122,(7, 43),18	2140,(12, 64),3	2143,(7, 48),6	2149,(7, 51),195	2344,(12, 70),3	2347,(7, 76),3	2350,(7, 81),24	2374,(7, 118),6	2380,(25, 121),3	2383,(83, 121),3	2386,(90, 121),3	2389,(108, 121),3	2392,(94, 121),3	2395,(44, 121),3	2398,(98, 121),3	2401,(92, 121),3	2404,(8, 19),51	2455,(15, 121),3	2458,(38, 121),3	2461,(46, 121),3	2464,(115, 121),3	2467,(97, 121),3	2470,(91, 121),3	2473,(82, 121),3	2476,(68, 121),3	2479,(32, 121),3	2482,(35, 121),3	2485,(59, 121),3	2488,(18, 121),3	2491,(10, 28),3	2494,(10, 43),210	2704,(27, 121),3	2707,(41, 121),3	2710,(111, 121),3	2713,(119, 121),3	2716,(11, 118),312	3028,(23, 121),3	3031,(37, 121),3	3034,(12, 16),66	3100,(12, 74),45	3145,(55, 121),3	3148,(117, 121),3	3151,(104, 121),3	3154,(67, 121),3	3157,(87, 121),3	3160,(78, 121),3	3163,(110, 121),3	3166,(50, 121),3	3169,(75, 121),3	3172,(101, 121),3	3175,(103, 121),3	3178,(40, 121),3	3181,(95, 121),3	3184,(47, 121),3	3187,(53, 121),3	3190,(24, 121),3	3193,(58, 121),3	3196,(114, 121),3	
2140,(7, 47),3	2344,(7, 53),3	2704,(10, 58),3	
37,(0, 7),12	49,(0, 8),12	61,(0, 10),12	73,(0, 11),12	94,(2, 55),3	97,(2, 75),3	100,(3, 95),3	103,(3, 110),3	1456,(9, 75),3	1714,(4, 95),3	
1,(0, 2),12	13,(0, 3),12	38,(5, 18),3	85,(0, 12),12	1366,(9, 50),3	1489,(9, 101),6	1495,(9, 103),6	1525,(6, 40),3	2488,(10, 24),3	2707,(10, 114),3	
# Outgoing
38,(5, 18),3	
1,(0, 2),12	13,(0, 3),12	25,(0, 5),12	37,(0, 7),12	49,(0, 8),12	61,(0, 10),12	73,(0, 11),12	85,(0, 12),12	97,(9, 13),348	445,(9, 28),30	475,(9, 48),891	1366,(9, 50),3	1369,(9, 56),57	1426,(9, 61),30	1456,(9, 75),3	1459,(9, 79),27	1486,(9, 99),3	1489,(9, 101),6	1495,(9, 103),6	1501,(9, 120),9	1510,(6, 22),15	1525,(6, 40),3	1528,(6, 64),96	1624,(6, 112),12	1636,(4, 22),15	1651,(4, 64),63	1714,(4, 95),3	1717,(4, 100),9	1726,(4, 112),6	1732,(1, 22),6	1738,(1, 54),21	1759,(1, 81),12	1771,(33, 121),3	1774,(72, 121),3	1777,(66, 121),3	1780,(63, 121),3	1783,(96, 121),3	1786,(116, 121),3	1789,(84, 121),3	1792,(34, 121),3	1978,(77, 121),3	1981,(73, 121),3	1984,(62, 121),3	1987,(107, 121),3	1990,(49, 121),3	1993,(20, 121),3	1996,(102, 121),3	1999,(71, 121),3	2002,(57, 121),3	2005,(113, 121),3	2008,(17, 121),3	2011,(36, 121),3	2026,(89, 121),3	2029,(93, 121),3	3184,(47, 121),3	3187,(53, 121),3	3193,(58, 121),3	
2047,(7, 16),9	2056,(7, 19),24	2080,(7, 30),42	2122,(7, 43),18	2140,(7, 47),3	2143,(7, 48),6	2149,(7, 51),195	2344,(7, 53),3	2347,(7, 76),3	2350,(7, 81),24	2374,(7, 118),6	2380,(25, 121),3	2383,(83, 121),3	2386,(90, 121),3	2389,(108, 121),3	2392,(94, 121),3	2395,(44, 121),3	2398,(98, 121),3	2401,(92, 121),3	2404,(8, 19),51	2455,(15, 121),3	2458,(38, 121),3	2461,(46, 121),3	2464,(115, 121),3	2467,(97, 121),3	2470,(91, 121),3	2473,(82, 121),3	2476,(68, 121),3	2479,(32, 121),3	2482,(35, 121),3	2485,(59, 121),3	2488,(10, 24),3	2491,(10, 28),3	2494,(10, 43),210	2704,(10, 58),3	2707,(10, 114),3	2710,(111, 121),3	2713,(119, 121),3	2716,(11, 118),312	3028,(23, 121),3	3031,(37, 121),3	3145,(55, 121),3	3163,(110, 121),3	3169,(75, 121),3	3181,(95, 121),3	
37,(2, 30),57	94,(2, 55),3	97,(2, 75),3	100,(3, 95),3	103,(3, 110),3	1366,(29, 121),3	1456,(52, 121),3	1489,(109, 121),3	1492,(106, 121),3	1495,(65, 121),3	1498,(85, 121),3	1525,(69, 121),3	1714,(14, 121),3	1795,(2, 112),183	2014,(3, 13),12	2032,(42, 121),3	2035,(60, 121),3	2038,(80, 121),3	2041,(105, 121),3	2044,(86, 121),3	2140,(12, 64),3	2344,(12, 70),3	2488,(18, 121),3	2704,(27, 121),3	2707,(41, 121),3	3034,(12, 16),66	3100,(12, 74),45	3148,(117, 121),3	3151,(104, 121),3	3154,(67, 121),3	3157,(87, 121),3	3160,(78, 121),3	3166,(50, 121),3	3172,(101, 121),3	3175,(103, 121),3	3178,(40, 121),3	3190,(24, 121),3	3196,(114, 121),3	
