122
# CPU
0,0,1	1,1,1	2,3,1	3,7,1	4,12,1	5,6,1	6,2,1	7,5,1	8,11,1	9,10,1	10,4,1	11,9,1	12,8,1	13,115,1	14,69,1	15,51,1	16,25,1	17,81,1	18,93,1	19,53,1	20,102,1	21,76,1	22,114,1	23,54,1	24,32,1	25,109,1	26,88,1	27,83,1	28,80,1	29,63,1	30,113,1	31,52,1	32,49,1	33,40,1	34,23,1	35,75,1	36,64,1	37,43,1	38,31,1	39,106,1	40,99,1	41,82,1	42,101,1	43,90,1	44,71,1	45,58,1	46,34,1	47,26,1	48,22,1	49,20,1	50,17,1	51,16,1	52,111,1	53,104,1	54,100,1	55,86,1	56,84,1	57,68,1	58,66,1	59,62,1	60,55,1	61,46,1	62,42,1	63,41,1	64,37,1	65,36,1	66,21,1	67,19,1	68,15,1	69,110,1	70,28,1	71,27,1	72,24,1	73,67,1	74,33,1	75,13,1	76,120,1	77,94,1	78,91,1	79,85,1	80,77,1	81,72,1	82,78,1	83,70,1	84,61,1	85,45,1	86,35,1	87,116,1	88,107,1	89,98,1	90,117,1	91,18,1	92,60,1	93,112,1	94,103,1	95,96,1	96,44,1	97,39,1	98,14,1	99,56,1	100,50,1	101,29,1	102,65,1	103,74,1	104,105,1	105,92,1	106,87,1	107,30,1	108,73,1	109,118,1	110,57,1	111,89,1	112,97,1	113,38,1	114,95,1	115,108,1	116,119,1	117,79,1	118,48,1	119,59,1	120,47,1	121,121,1	
# Incoming

# Outgoing

