211
# CPU
0,0,1	1,3,10	11,15,10	21,24,10	31,28,10	41,40,10	51,20,10	61,11,10	71,25,10	81,2,10	91,36,10	101,32,10	111,27,10	121,18,10	131,34,10	141,16,10	151,21,10	161,39,10	171,26,10	181,8,10	191,13,10	
2,1,10	12,33,10	22,12,10	32,23,10	42,5,10	52,4,10	62,9,10	72,22,10	82,31,10	92,35,10	102,19,10	112,6,10	122,7,10	132,29,10	142,17,10	152,37,10	162,38,10	172,14,10	182,30,10	192,10,10	210,41,1	
# Incoming
12,(1, 13),5	
1,(0, 1),1	2,(0, 4),1	21,(15, 41),9	31,(24, 41),9	41,(28, 41),9	51,(40, 41),9	61,(20, 41),9	71,(11, 41),9	81,(25, 41),9	91,(2, 30),3	94,(2, 10),11	105,(36, 41),9	114,(32, 41),9	123,(27, 41),9	132,(18, 41),9	141,(34, 41),9	151,(16, 41),9	161,(21, 41),9	171,(39, 41),9	181,(26, 41),9	191,(8, 41),9	201,(13, 41),9	
# Outgoing
1,(0, 1),1	2,(0, 4),1	21,(15, 41),9	31,(24, 41),9	41,(28, 41),9	51,(40, 41),9	61,(20, 41),9	71,(11, 41),9	81,(25, 41),9	91,(2, 30),3	94,(2, 10),11	105,(36, 41),9	114,(32, 41),9	123,(27, 41),9	132,(18, 41),9	141,(34, 41),9	151,(16, 41),9	161,(21, 41),9	171,(39, 41),9	181,(26, 41),9	191,(8, 41),9	201,(13, 41),9	
12,(1, 13),5	
