8981
# CPU
17,2,3	33,4,3	49,6,3	65,8,3	81,10,3	97,12,3	1535,50,3	1563,68,3	3125,16,3	3301,28,3	3549,108,3	3753,22,3	3783,24,3	4675,96,3	4857,46,3	4961,72,3	5131,76,3	5134,78,3	5403,104,3	5529,114,3	5965,32,3	5969,36,3	5973,40,3	5976,42,3	6009,44,3	6309,82,3	6327,86,3	6619,14,3	6627,18,3	6630,20,3	6639,26,3	6643,30,3	6657,34,3	6660,38,3	6667,48,3	6751,52,3	6761,54,3	6765,56,3	6787,58,3	6803,60,3	6811,62,3	6814,64,3	6833,66,3	6871,70,3	6941,74,3	6949,80,3	6953,84,3	6957,88,3	6960,90,3	6963,92,3	6966,94,3	6989,98,3	7005,100,3	7008,102,3	7011,106,3	7014,110,3	7041,112,3	7061,116,3	7069,118,3	7072,120,3	
0,0,1	1,7,3	4,1,3	7,5,3	10,9,3	13,3,3	16,11,3	19,53,3	1510,109,3	1570,15,3	1580,19,3	1658,33,3	4672,97,3	4742,115,3	4746,119,3	4834,29,3	4922,45,3	4926,55,3	4948,71,3	5208,77,3	5226,79,3	5492,117,3	5504,17,3	6022,25,3	6025,27,3	6052,35,3	6092,59,3	6100,67,3	6200,75,3	6206,83,3	6238,89,3	6241,93,3	6244,95,3	6328,99,3	6336,101,3	6388,107,3	6404,111,3	6426,13,3	6436,21,3	6439,23,3	6450,31,3	6453,37,3	6472,39,3	6784,41,3	6970,43,3	7006,47,3	7009,49,3	7500,51,3	7506,57,3	7542,61,3	7580,63,3	7583,65,3	7694,69,3	7702,73,3	7705,81,3	7844,85,3	7847,87,3	7870,91,3	7894,103,3	7897,105,3	7900,113,3	8980,121,1	
# Incoming
1,(0, 2),16	17,(0, 4),16	33,(0, 6),16	49,(0, 8),16	65,(0, 10),16	81,(0, 12),16	97,(7, 16),164	261,(7, 18),40	301,(7, 20),8	309,(7, 24),818	1127,(7, 26),6	1133,(7, 30),22	1155,(7, 32),14	1169,(7, 36),34	1203,(7, 38),316	1519,(7, 40),2	1521,(7, 44),10	1531,(7, 48),2	1533,(7, 50),2	1535,(7, 52),8	1543,(7, 54),8	1551,(7, 58),2	1553,(7, 60),2	1555,(7, 62),4	1559,(7, 64),2	1561,(7, 68),2	1563,(7, 70),570	2133,(7, 72),60	2193,(7, 80),2	2195,(7, 92),8	2203,(7, 96),2	2205,(7, 100),2	2207,(7, 102),6	2213,(7, 104),32	2245,(7, 106),56	2301,(7, 108),34	2335,(7, 110),2	2337,(7, 114),6	2343,(7, 118),12	2355,(7, 120),190	2545,(1, 14),2	2547,(1, 16),578	3125,(1, 18),2	3127,(1, 26),88	3215,(1, 28),86	3301,(1, 30),6	3307,(1, 36),2	3309,(1, 40),2	3311,(1, 44),22	3333,(1, 48),14	3347,(1, 54),4	3351,(1, 60),14	3365,(1, 70),2	3367,(1, 72),2	3369,(1, 74),34	3403,(1, 76),50	3453,(1, 80),2	3455,(1, 92),2	3457,(1, 96),26	3483,(1, 98),6	3489,(1, 102),10	3499,(1, 104),2	3501,(1, 108),48	3549,(1, 114),44	3593,(1, 118),40	3633,(1, 120),4	3637,(5, 18),14	3651,(5, 20),2	3653,(5, 22),100	3753,(5, 24),30	3783,(5, 26),8	3791,(5, 30),30	3821,(5, 32),44	3865,(5, 36),22	3887,(5, 38),84	3971,(5, 40),16	3987,(5, 42),4	3991,(5, 46),8	3999,(5, 48),2	4001,(5, 54),80	4081,(5, 56),6	4087,(5, 58),22	4109,(5, 60),4	4113,(5, 62),12	4125,(5, 66),34	4159,(5, 72),12	4171,(5, 80),4	4175,(5, 82),16	4191,(5, 90),24	4215,(5, 92),8	4223,(5, 94),2	4225,(5, 96),450	4675,(5, 100),2	4677,(5, 102),42	4719,(5, 104),74	4793,(5, 112),50	4843,(5, 118),6	4849,(5, 120),2	4851,(9, 42),2	4853,(9, 46),4	4857,(9, 48),2	4859,(9, 54),94	4953,(9, 64),2	4955,(9, 72),6	4961,(9, 74),8	4969,(9, 76),162	5131,(9, 78),2	5133,(9, 80),20	5153,(9, 82),66	5219,(9, 84),6	5225,(9, 88),2	5227,(9, 90),2	5229,(9, 92),44	5273,(9, 98),2	5275,(9, 100),46	5321,(9, 104),82	5403,(9, 112),74	5477,(9, 114),52	5529,(9, 116),370	5899,(9, 118),6	5905,(3, 14),48	5953,(3, 18),4	5957,(3, 20),4	5961,(3, 32),4	5965,(3, 36),4	5969,(3, 40),4	5973,(3, 42),2	5975,(3, 44),34	6009,(3, 48),14	6023,(3, 52),2	6025,(3, 54),8	6033,(3, 56),6	6039,(3, 66),2	6041,(3, 70),8	6049,(3, 80),92	6141,(3, 82),168	6309,(3, 84),10	6319,(3, 86),8	6327,(3, 90),114	6441,(3, 92),2	6443,(3, 100),86	6529,(3, 102),4	6533,(3, 106),2	6535,(3, 110),80	6615,(3, 120),2	6617,(11, 14),2	6619,(11, 18),8	6627,(11, 20),2	6629,(11, 26),10	6639,(11, 30),4	6643,(11, 34),14	6657,(11, 38),2	6659,(11, 48),8	6667,(11, 52),84	6751,(11, 54),10	6761,(11, 56),4	6765,(11, 58),22	6787,(11, 60),16	6803,(11, 62),8	6811,(11, 64),2	6813,(11, 66),20	6833,(11, 70),38	6871,(11, 74),70	6941,(11, 80),8	6949,(11, 84),4	6953,(11, 88),4	6957,(11, 90),2	6959,(11, 92),2	6961,(11, 94),2	6963,(11, 98),26	6989,(11, 100),16	7005,(11, 102),2	7007,(11, 106),2	7009,(11, 110),2	7011,(11, 112),30	7041,(11, 116),20	7061,(11, 118),8	7069,(11, 120),2	
20,(2, 17),260	280,(2, 23),14	294,(2, 27),2	296,(2, 29),4	300,(2, 33),2	302,(2, 35),110	412,(2, 37),6	418,(2, 39),6	424,(2, 43),14	438,(2, 45),2	440,(2, 47),8	448,(2, 55),16	464,(2, 57),2	466,(2, 59),2	468,(2, 61),2	470,(2, 65),2	472,(2, 67),2	474,(2, 79),14	488,(2, 81),112	600,(2, 83),6	606,(2, 87),2	608,(2, 91),162	770,(2, 97),6	776,(2, 101),4	780,(2, 103),6	786,(2, 105),2	788,(2, 109),2	790,(2, 111),4	794,(2, 113),2	796,(2, 115),54	850,(2, 117),86	936,(4, 13),58	994,(4, 21),12	1006,(4, 35),4	1010,(4, 37),2	1012,(4, 39),2	1014,(4, 41),14	1028,(4, 45),20	1048,(4, 47),6	1054,(4, 49),18	1072,(4, 51),14	1086,(4, 55),10	1096,(4, 57),2	1098,(4, 63),6	1104,(4, 65),2	1106,(4, 67),14	1120,(4, 73),82	1202,(4, 77),112	1314,(4, 79),36	1350,(4, 83),14	1364,(4, 87),34	1398,(4, 89),62	1460,(4, 91),10	1470,(4, 93),2	1472,(4, 97),28	1500,(4, 99),2	1502,(4, 103),2	1504,(4, 105),2	1506,(4, 109),4	1510,(4, 119),54	1564,(6, 15),6	1570,(6, 17),2	1572,(6, 19),8	1580,(6, 21),18	1598,(6, 23),2	1600,(6, 25),2	1602,(6, 27),34	1636,(6, 31),18	1654,(6, 33),4	1658,(6, 37),4	1662,(6, 39),38	1700,(6, 41),96	1796,(6, 43),114	1910,(6, 45),2320	4230,(6, 49),2	4232,(6, 51),6	4238,(6, 55),2	4240,(6, 59),18	4258,(6, 61),22	4280,(6, 65),24	4304,(6, 71),158	4462,(6, 83),28	4490,(6, 85),2	4492,(6, 87),14	4506,(6, 91),20	4526,(6, 93),62	4588,(6, 97),84	4672,(6, 99),32	4704,(6, 103),2	4706,(6, 107),24	4730,(6, 113),6	4736,(6, 115),6	4742,(6, 117),2	4744,(6, 119),2	4746,(8, 13),2	4748,(8, 17),74	4822,(8, 27),4	4826,(8, 29),8	4834,(8, 31),10	4844,(8, 35),2	4846,(8, 37),36	4882,(8, 39),2	4884,(8, 43),8	4892,(8, 45),30	4922,(8, 47),2	4924,(8, 55),2	4926,(8, 57),2	4928,(8, 61),14	4942,(8, 63),2	4944,(8, 67),2	4946,(8, 71),2	4948,(8, 73),180	5128,(8, 75),26	5154,(8, 77),54	5208,(8, 79),18	5226,(8, 81),6	5232,(8, 85),14	5246,(8, 87),62	5308,(8, 89),32	5340,(8, 91),4	5344,(8, 95),24	5368,(8, 99),8	5376,(8, 101),36	5412,(8, 105),2	5414,(8, 111),14	5428,(8, 113),8	5436,(8, 117),56	5492,(10, 17),12	5504,(10, 21),2	5506,(10, 23),508	6014,(10, 25),8	6022,(10, 27),2	6024,(10, 31),20	6044,(10, 35),8	6052,(10, 37),10	6062,(10, 47),6	6068,(10, 49),6	6074,(10, 51),14	6088,(10, 59),4	6092,(10, 67),8	6100,(10, 69),6	6106,(10, 73),50	6156,(10, 75),44	6200,(10, 81),4	6204,(10, 83),2	6206,(10, 89),32	6238,(10, 93),2	6240,(10, 95),2	6242,(10, 99),86	6328,(10, 101),8	6336,(10, 107),52	6388,(10, 111),16	6404,(10, 113),20	6424,(12, 13),2	6426,(12, 21),10	6436,(12, 23),2	6438,(12, 31),12	6450,(12, 37),2	6452,(12, 39),20	6472,(12, 41),312	6784,(12, 43),186	6970,(12, 47),36	7006,(12, 49),2	7008,(12, 51),492	7500,(12, 57),6	7506,(12, 61),36	7542,(12, 63),38	7580,(12, 65),2	7582,(12, 69),112	7694,(12, 73),8	7702,(12, 81),2	7704,(12, 85),140	7844,(12, 87),2	7846,(12, 91),24	7870,(12, 103),24	7894,(12, 105),2	7896,(12, 113),4	7900,(50, 121),20	7920,(68, 121),20	7940,(16, 121),20	7960,(28, 121),20	7980,(108, 121),20	8000,(22, 121),20	8020,(24, 121),20	8040,(96, 121),20	8060,(46, 121),20	8080,(72, 121),20	8100,(76, 121),20	8120,(78, 121),20	8140,(104, 121),20	8160,(114, 121),20	8180,(32, 121),20	8200,(36, 121),20	8220,(40, 121),20	8240,(42, 121),20	8260,(44, 121),20	8280,(82, 121),20	8300,(86, 121),20	8320,(14, 121),20	8340,(18, 121),20	8360,(20, 121),20	8380,(26, 121),20	8400,(30, 121),20	8420,(34, 121),20	8440,(38, 121),20	8460,(48, 121),20	8480,(52, 121),20	8500,(54, 121),20	8520,(56, 121),20	8540,(58, 121),20	8560,(60, 121),20	8580,(62, 121),20	8600,(64, 121),20	8620,(66, 121),20	8640,(70, 121),20	8660,(74, 121),20	8680,(80, 121),20	8700,(84, 121),20	8720,(88, 121),20	8740,(90, 121),20	8760,(92, 121),20	8780,(94, 121),20	8800,(98, 121),20	8820,(100, 121),20	8840,(102, 121),20	8860,(106, 121),20	8880,(110, 121),20	8900,(112, 121),20	8920,(116, 121),20	8940,(118, 121),20	8960,(120, 121),20	
# Outgoing
20,(2, 17),260	280,(2, 23),14	294,(2, 27),2	296,(2, 29),4	300,(2, 33),2	302,(2, 35),110	412,(2, 37),6	418,(2, 39),6	424,(2, 43),14	438,(2, 45),2	440,(2, 47),8	448,(2, 55),16	464,(2, 57),2	466,(2, 59),2	468,(2, 61),2	470,(2, 65),2	472,(2, 67),2	474,(2, 79),14	488,(2, 81),112	600,(2, 83),6	606,(2, 87),2	608,(2, 91),162	770,(2, 97),6	776,(2, 101),4	780,(2, 103),6	786,(2, 105),2	788,(2, 109),2	790,(2, 111),4	794,(2, 113),2	796,(2, 115),54	850,(2, 117),86	936,(4, 13),58	994,(4, 21),12	1006,(4, 35),4	1010,(4, 37),2	1012,(4, 39),2	1014,(4, 41),14	1028,(4, 45),20	1048,(4, 47),6	1054,(4, 49),18	1072,(4, 51),14	1086,(4, 55),10	1096,(4, 57),2	1098,(4, 63),6	1104,(4, 65),2	1106,(4, 67),14	1120,(4, 73),82	1202,(4, 77),112	1314,(4, 79),36	1350,(4, 83),14	1364,(4, 87),34	1398,(4, 89),62	1460,(4, 91),10	1470,(4, 93),2	1472,(4, 97),28	1500,(4, 99),2	1502,(4, 103),2	1504,(4, 105),2	1506,(4, 109),4	1510,(4, 119),54	1564,(6, 15),6	1570,(6, 17),2	1572,(6, 19),8	1580,(6, 21),18	1598,(6, 23),2	1600,(6, 25),2	1602,(6, 27),34	1636,(6, 31),18	1654,(6, 33),4	1658,(6, 37),4	1662,(6, 39),38	1700,(6, 41),96	1796,(6, 43),114	1910,(6, 45),2320	4230,(6, 49),2	4232,(6, 51),6	4238,(6, 55),2	4240,(6, 59),18	4258,(6, 61),22	4280,(6, 65),24	4304,(6, 71),158	4462,(6, 83),28	4490,(6, 85),2	4492,(6, 87),14	4506,(6, 91),20	4526,(6, 93),62	4588,(6, 97),84	4672,(6, 99),32	4704,(6, 103),2	4706,(6, 107),24	4730,(6, 113),6	4736,(6, 115),6	4742,(6, 117),2	4744,(6, 119),2	4746,(8, 13),2	4748,(8, 17),74	4822,(8, 27),4	4826,(8, 29),8	4834,(8, 31),10	4844,(8, 35),2	4846,(8, 37),36	4882,(8, 39),2	4884,(8, 43),8	4892,(8, 45),30	4922,(8, 47),2	4924,(8, 55),2	4926,(8, 57),2	4928,(8, 61),14	4942,(8, 63),2	4944,(8, 67),2	4946,(8, 71),2	4948,(8, 73),180	5128,(8, 75),26	5154,(8, 77),54	5208,(8, 79),18	5226,(8, 81),6	5232,(8, 85),14	5246,(8, 87),62	5308,(8, 89),32	5340,(8, 91),4	5344,(8, 95),24	5368,(8, 99),8	5376,(8, 101),36	5412,(8, 105),2	5414,(8, 111),14	5428,(8, 113),8	5436,(8, 117),56	5492,(10, 17),12	5504,(10, 21),2	5506,(10, 23),508	6014,(10, 25),8	6022,(10, 27),2	6024,(10, 31),20	6044,(10, 35),8	6052,(10, 37),10	6062,(10, 47),6	6068,(10, 49),6	6074,(10, 51),14	6088,(10, 59),4	6092,(10, 67),8	6100,(10, 69),6	6106,(10, 73),50	6156,(10, 75),44	6200,(10, 81),4	6204,(10, 83),2	6206,(10, 89),32	6238,(10, 93),2	6240,(10, 95),2	6242,(10, 99),86	6328,(10, 101),8	6336,(10, 107),52	6388,(10, 111),16	6404,(10, 113),20	6424,(12, 13),2	6426,(12, 21),10	6436,(12, 23),2	6438,(12, 31),12	6450,(12, 37),2	6452,(12, 39),20	6472,(12, 41),312	6784,(12, 43),186	6970,(12, 47),36	7006,(12, 49),2	7008,(12, 51),492	7500,(12, 57),6	7506,(12, 61),36	7542,(12, 63),38	7580,(12, 65),2	7582,(12, 69),112	7694,(12, 73),8	7702,(12, 81),2	7704,(12, 85),140	7844,(12, 87),2	7846,(12, 91),24	7870,(12, 103),24	7894,(12, 105),2	7896,(12, 113),4	7900,(50, 121),20	7920,(68, 121),20	7940,(16, 121),20	7960,(28, 121),20	7980,(108, 121),20	8000,(22, 121),20	8020,(24, 121),20	8040,(96, 121),20	8060,(46, 121),20	8080,(72, 121),20	8100,(76, 121),20	8120,(78, 121),20	8140,(104, 121),20	8160,(114, 121),20	8180,(32, 121),20	8200,(36, 121),20	8220,(40, 121),20	8240,(42, 121),20	8260,(44, 121),20	8280,(82, 121),20	8300,(86, 121),20	8320,(14, 121),20	8340,(18, 121),20	8360,(20, 121),20	8380,(26, 121),20	8400,(30, 121),20	8420,(34, 121),20	8440,(38, 121),20	8460,(48, 121),20	8480,(52, 121),20	8500,(54, 121),20	8520,(56, 121),20	8540,(58, 121),20	8560,(60, 121),20	8580,(62, 121),20	8600,(64, 121),20	8620,(66, 121),20	8640,(70, 121),20	8660,(74, 121),20	8680,(80, 121),20	8700,(84, 121),20	8720,(88, 121),20	8740,(90, 121),20	8760,(92, 121),20	8780,(94, 121),20	8800,(98, 121),20	8820,(100, 121),20	8840,(102, 121),20	8860,(106, 121),20	8880,(110, 121),20	8900,(112, 121),20	8920,(116, 121),20	8940,(118, 121),20	8960,(120, 121),20	
1,(0, 2),16	17,(0, 4),16	33,(0, 6),16	49,(0, 8),16	65,(0, 10),16	81,(0, 12),16	97,(7, 16),164	261,(7, 18),40	301,(7, 20),8	309,(7, 24),818	1127,(7, 26),6	1133,(7, 30),22	1155,(7, 32),14	1169,(7, 36),34	1203,(7, 38),316	1519,(7, 40),2	1521,(7, 44),10	1531,(7, 48),2	1533,(7, 50),2	1535,(7, 52),8	1543,(7, 54),8	1551,(7, 58),2	1553,(7, 60),2	1555,(7, 62),4	1559,(7, 64),2	1561,(7, 68),2	1563,(7, 70),570	2133,(7, 72),60	2193,(7, 80),2	2195,(7, 92),8	2203,(7, 96),2	2205,(7, 100),2	2207,(7, 102),6	2213,(7, 104),32	2245,(7, 106),56	2301,(7, 108),34	2335,(7, 110),2	2337,(7, 114),6	2343,(7, 118),12	2355,(7, 120),190	2545,(1, 14),2	2547,(1, 16),578	3125,(1, 18),2	3127,(1, 26),88	3215,(1, 28),86	3301,(1, 30),6	3307,(1, 36),2	3309,(1, 40),2	3311,(1, 44),22	3333,(1, 48),14	3347,(1, 54),4	3351,(1, 60),14	3365,(1, 70),2	3367,(1, 72),2	3369,(1, 74),34	3403,(1, 76),50	3453,(1, 80),2	3455,(1, 92),2	3457,(1, 96),26	3483,(1, 98),6	3489,(1, 102),10	3499,(1, 104),2	3501,(1, 108),48	3549,(1, 114),44	3593,(1, 118),40	3633,(1, 120),4	3637,(5, 18),14	3651,(5, 20),2	3653,(5, 22),100	3753,(5, 24),30	3783,(5, 26),8	3791,(5, 30),30	3821,(5, 32),44	3865,(5, 36),22	3887,(5, 38),84	3971,(5, 40),16	3987,(5, 42),4	3991,(5, 46),8	3999,(5, 48),2	4001,(5, 54),80	4081,(5, 56),6	4087,(5, 58),22	4109,(5, 60),4	4113,(5, 62),12	4125,(5, 66),34	4159,(5, 72),12	4171,(5, 80),4	4175,(5, 82),16	4191,(5, 90),24	4215,(5, 92),8	4223,(5, 94),2	4225,(5, 96),450	4675,(5, 100),2	4677,(5, 102),42	4719,(5, 104),74	4793,(5, 112),50	4843,(5, 118),6	4849,(5, 120),2	4851,(9, 42),2	4853,(9, 46),4	4857,(9, 48),2	4859,(9, 54),94	4953,(9, 64),2	4955,(9, 72),6	4961,(9, 74),8	4969,(9, 76),162	5131,(9, 78),2	5133,(9, 80),20	5153,(9, 82),66	5219,(9, 84),6	5225,(9, 88),2	5227,(9, 90),2	5229,(9, 92),44	5273,(9, 98),2	5275,(9, 100),46	5321,(9, 104),82	5403,(9, 112),74	5477,(9, 114),52	5529,(9, 116),370	5899,(9, 118),6	5905,(3, 14),48	5953,(3, 18),4	5957,(3, 20),4	5961,(3, 32),4	5965,(3, 36),4	5969,(3, 40),4	5973,(3, 42),2	5975,(3, 44),34	6009,(3, 48),14	6023,(3, 52),2	6025,(3, 54),8	6033,(3, 56),6	6039,(3, 66),2	6041,(3, 70),8	6049,(3, 80),92	6141,(3, 82),168	6309,(3, 84),10	6319,(3, 86),8	6327,(3, 90),114	6441,(3, 92),2	6443,(3, 100),86	6529,(3, 102),4	6533,(3, 106),2	6535,(3, 110),80	6615,(3, 120),2	6617,(11, 14),2	6619,(11, 18),8	6627,(11, 20),2	6629,(11, 26),10	6639,(11, 30),4	6643,(11, 34),14	6657,(11, 38),2	6659,(11, 48),8	6667,(11, 52),84	6751,(11, 54),10	6761,(11, 56),4	6765,(11, 58),22	6787,(11, 60),16	6803,(11, 62),8	6811,(11, 64),2	6813,(11, 66),20	6833,(11, 70),38	6871,(11, 74),70	6941,(11, 80),8	6949,(11, 84),4	6953,(11, 88),4	6957,(11, 90),2	6959,(11, 92),2	6961,(11, 94),2	6963,(11, 98),26	6989,(11, 100),16	7005,(11, 102),2	7007,(11, 106),2	7009,(11, 110),2	7011,(11, 112),30	7041,(11, 116),20	7061,(11, 118),8	7069,(11, 120),2	
