42
# CPU
0,0,1	1,1,1	2,3,1	3,4,1	4,2,1	5,34,1	6,36,1	7,23,1	8,10,1	9,6,1	10,29,1	11,27,1	12,24,1	13,22,1	14,21,1	15,39,1	16,20,1	17,37,1	18,17,1	19,33,1	20,32,1	21,11,1	22,31,1	23,30,1	24,35,1	25,26,1	26,38,1	27,15,1	28,13,1	29,12,1	30,7,1	31,14,1	32,19,1	33,9,1	34,5,1	35,8,1	36,40,1	37,25,1	38,16,1	39,18,1	40,28,1	41,41,1	

# Incoming


# Outgoing


