386
# CPU
0,41,1	1,39,16	17,19,16	33,33,16	49,34,16	65,7,16	81,9,16	97,15,16	113,6,16	129,8,16	145,28,16	161,27,16	177,14,16	193,25,16	209,18,16	225,5,16	241,10,16	257,12,16	273,22,16	289,16,16	305,17,16	321,21,16	337,40,16	353,2,16	369,4,16	385,0,1	
67,31,16	89,23,16	111,24,16	133,32,16	304,11,16	326,35,16	352,1,16	
23,29,16	
45,37,16	155,20,16	177,30,16	199,13,16	221,38,16	243,26,16	265,36,16	282,3,16	
# Incoming
241,(37, 2),1	242,(23, 2),1	243,(24, 4),2	245,(32, 4),2	247,(13, 4),3	281,(36, 4),10	298,(3, 0),1	320,(11, 2),1	321,(11, 4),15	368,(1, 0),1	
45,(41, 31),22	67,(41, 23),22	89,(41, 24),22	111,(41, 32),22	133,(29, 1),1	237,(38, 1),4	259,(26, 1),7	272,(33, 1),1	282,(41, 11),22	304,(41, 35),22	326,(34, 1),1	327,(14, 1),2	329,(25, 1),3	332,(10, 1),7	339,(22, 1),13	
1,(41, 29),22	
23,(41, 37),22	133,(41, 20),22	155,(41, 30),22	177,(41, 13),22	199,(41, 38),22	221,(41, 26),22	243,(41, 36),22	265,(9, 3),1	266,(6, 3),2	268,(18, 3),4	273,(12, 3),9	
# Outgoing
1,(41, 29),22	23,(41, 37),22	45,(41, 31),22	67,(41, 23),22	89,(41, 24),22	111,(41, 32),22	133,(41, 20),22	155,(41, 30),22	177,(41, 13),22	199,(41, 38),22	221,(41, 26),22	243,(41, 36),22	265,(9, 3),1	266,(6, 3),2	268,(18, 3),4	272,(33, 1),1	273,(12, 3),9	282,(41, 11),22	304,(41, 35),22	326,(34, 1),1	327,(14, 1),2	329,(25, 1),3	332,(10, 1),7	339,(22, 1),13	
242,(23, 2),1	243,(24, 4),2	245,(32, 4),2	320,(11, 2),1	321,(11, 4),15	368,(1, 0),1	
133,(29, 1),1	
237,(38, 1),4	241,(37, 2),1	247,(13, 4),3	259,(26, 1),7	281,(36, 4),10	298,(3, 0),1	
