1336
# CPU
0,0,1	1,15,4	5,120,4	9,177,4	13,17,4	17,197,4	21,51,4	25,24,4	29,37,4	33,161,4	37,94,4	41,82,4	45,60,4	49,99,4	53,66,4	57,4,4	61,89,4	65,139,4	69,136,4	73,69,4	81,92,4	89,184,4	97,50,4	105,196,4	113,85,4	121,53,4	131,150,4	141,84,4	153,134,4	167,23,4	181,193,4	195,145,4	211,108,4	227,83,4	243,73,4	261,33,4	281,189,4	301,54,4	325,77,4	349,167,4	375,172,4	403,128,4	437,41,4	473,186,4	509,153,4	547,44,4	587,68,4	629,34,4	675,160,4	725,67,4	779,26,4	843,126,4	959,88,4	1331,80,4	1335,201,1	
3,2,4	7,13,4	11,95,4	15,164,4	19,9,4	23,11,4	27,19,4	31,12,4	35,18,4	39,49,4	43,87,4	47,29,4	51,101,4	55,156,4	59,152,4	63,178,4	67,188,4	71,117,4	75,194,4	79,90,4	83,118,4	87,170,4	91,72,4	95,35,4	99,62,4	103,132,4	107,109,4	111,182,4	115,123,4	119,130,4	123,185,4	127,131,4	131,61,4	135,187,4	139,86,4	143,98,4	147,114,4	151,165,4	155,40,4	159,81,4	163,56,4	167,190,4	171,179,4	175,28,4	179,143,4	183,93,4	187,57,4	191,173,4	195,79,4	199,198,4	203,104,4	497,115,4	857,158,4	
11,14,4	15,20,4	19,38,4	23,181,4	27,74,4	31,27,4	35,105,4	39,71,4	43,195,4	47,102,4	51,146,4	55,154,4	59,175,4	63,141,4	67,46,4	71,166,4	75,59,4	79,21,4	83,174,4	87,36,4	91,121,4	95,65,4	99,55,4	303,140,4	
9,16,4	13,200,4	17,7,4	21,163,4	25,116,4	29,3,4	33,22,4	37,144,4	41,125,4	45,64,4	49,151,4	53,157,4	57,32,4	61,127,4	65,25,4	69,78,4	73,180,4	77,183,4	81,107,4	85,122,4	89,106,4	93,137,4	97,191,4	101,110,4	773,103,4	793,30,4	
5,8,4	9,147,4	13,10,4	17,45,4	21,5,4	25,6,4	29,135,4	33,1,4	37,159,4	41,138,4	45,148,4	49,52,4	53,39,4	57,97,4	61,47,4	65,76,4	69,75,4	73,96,4	77,91,4	81,70,4	85,111,4	89,162,4	93,171,4	97,112,4	101,192,4	105,169,4	109,129,4	113,124,4	117,100,4	121,155,4	125,58,4	129,63,4	133,149,4	137,119,4	141,113,4	145,142,4	149,168,4	153,133,4	157,42,4	161,199,4	165,48,4	169,31,4	495,176,4	501,43,4	
# Incoming
13,(147, 201),2	15,(95, 201),2	17,(200, 201),2	19,(164, 201),2	21,(45, 201),2	23,(38, 201),2	25,(163, 201),2	27,(181, 201),2	29,(116, 201),2	31,(74, 201),2	33,(135, 201),2	35,(27, 201),2	37,(22, 201),2	39,(105, 201),2	41,(159, 201),2	43,(144, 201),2	45,(49, 201),2	47,(71, 201),2	49,(138, 201),2	51,(125, 201),2	53,(87, 201),2	55,(195, 201),2	57,(148, 201),2	59,(64, 201),2	61,(29, 201),2	63,(102, 201),2	65,(52, 201),2	67,(151, 201),2	69,(101, 201),2	71,(146, 201),2	73,(39, 201),2	75,(157, 201),2	77,(156, 201),2	79,(14, 92),2	81,(154, 201),2	83,(97, 201),2	85,(32, 201),2	87,(9, 184),2	89,(152, 201),2	91,(175, 201),2	93,(47, 201),2	95,(16, 50),2	97,(127, 201),2	99,(178, 201),2	101,(141, 201),2	103,(19, 196),2	105,(76, 201),2	107,(25, 201),2	109,(188, 201),2	111,(10, 85),2	113,(46, 201),2	115,(75, 201),2	117,(78, 201),2	119,(6, 53),2	121,(117, 201),2	123,(166, 201),2	125,(96, 201),2	127,(9, 150),2	129,(5, 150),2	131,(180, 201),2	133,(194, 201),2	135,(59, 201),2	137,(10, 84),2	139,(11, 84),2	141,(91, 201),2	143,(183, 201),2	145,(90, 201),2	147,(3, 134),6	153,(21, 201),2	155,(70, 201),2	157,(107, 201),2	159,(7, 23),4	163,(1, 23),4	167,(118, 201),2	169,(174, 201),2	171,(111, 201),2	173,(6, 193),6	179,(18, 193),2	181,(122, 201),2	183,(170, 201),2	185,(36, 201),2	187,(1, 145),8	195,(162, 201),2	197,(106, 201),2	199,(72, 201),2	201,(20, 108),6	207,(7, 108),2	209,(6, 108),2	211,(121, 201),2	213,(171, 201),2	215,(137, 201),2	217,(16, 83),2	219,(1, 83),8	227,(35, 201),2	229,(65, 201),2	231,(112, 201),2	233,(16, 73),10	243,(191, 201),2	245,(62, 201),2	247,(55, 201),2	249,(13, 33),2	251,(20, 33),2	253,(1, 33),8	261,(192, 201),2	263,(110, 201),2	265,(132, 201),2	267,(5, 189),10	277,(11, 189),4	281,(169, 201),2	283,(109, 201),2	285,(129, 201),2	287,(11, 54),14	301,(182, 201),2	303,(124, 201),2	305,(123, 201),2	307,(8, 77),10	317,(11, 77),8	325,(100, 201),2	327,(130, 201),2	329,(155, 201),2	331,(9, 167),18	349,(185, 201),2	351,(58, 201),2	353,(131, 201),2	355,(14, 172),2	357,(10, 172),2	359,(1, 172),16	375,(63, 201),2	377,(61, 201),2	379,(149, 201),2	381,(10, 128),18	399,(9, 128),4	403,(187, 201),2	405,(119, 201),2	407,(86, 201),2	409,(16, 41),2	411,(19, 41),8	419,(18, 41),18	437,(113, 201),2	439,(98, 201),2	441,(142, 201),2	443,(16, 186),16	459,(14, 186),14	473,(114, 201),2	475,(168, 201),2	477,(165, 201),2	479,(5, 153),12	491,(19, 153),18	509,(133, 201),2	511,(40, 201),2	513,(42, 201),2	515,(9, 44),18	533,(12, 44),14	547,(81, 201),2	549,(199, 201),2	551,(56, 201),2	553,(11, 68),30	583,(6, 68),4	587,(48, 201),2	589,(190, 201),2	591,(31, 201),2	593,(13, 34),10	603,(9, 34),12	615,(6, 34),14	629,(179, 201),2	631,(28, 201),2	633,(143, 201),2	635,(2, 160),14	649,(3, 160),26	675,(93, 201),2	677,(57, 201),2	679,(173, 201),2	681,(7, 67),18	699,(3, 67),16	715,(12, 67),10	725,(79, 201),2	727,(198, 201),2	729,(104, 201),2	731,(8, 26),24	755,(10, 26),8	763,(7, 26),16	779,(140, 201),2	781,(176, 201),2	783,(115, 201),2	785,(10, 126),40	825,(9, 126),18	843,(43, 201),2	845,(103, 201),2	847,(30, 201),2	849,(19, 88),72	921,(3, 88),2	923,(1, 88),36	959,(158, 201),2	961,(19, 80),92	1053,(1, 80),278	
1,(0, 2),2	5,(0, 13),2	17,(0, 9),2	21,(0, 11),2	25,(0, 19),2	29,(0, 12),2	33,(0, 18),2	39,(17, 143),2	43,(15, 79),8	77,(4, 93),4	81,(4, 57),4	87,(7, 173),8	95,(10, 198),10	105,(15, 104),20	253,(14, 115),24	407,(6, 115),24	459,(7, 158),78	
9,(0, 14),2	13,(0, 20),2	17,(2, 36),2	23,(9, 175),2	25,(9, 166),2	27,(9, 21),2	29,(6, 59),2	31,(19, 141),2	33,(3, 121),2	35,(17, 46),2	61,(4, 174),2	75,(1, 65),8	85,(1, 55),8	201,(12, 140),22	
7,(0, 16),2	15,(0, 7),2	17,(8, 191),2	25,(5, 78),2	27,(0, 3),2	29,(11, 180),2	33,(20, 122),2	35,(12, 122),2	37,(17, 183),2	39,(18, 25),2	41,(17, 107),2	43,(1, 106),6	51,(6, 191),6	79,(9, 137),8	91,(2, 110),8	443,(6, 30),30	731,(2, 103),42	
3,(0, 8),2	11,(0, 10),2	19,(0, 5),2	23,(0, 6),2	25,(20, 176),2	31,(0, 1),2	35,(3, 142),2	41,(9, 168),4	47,(2, 133),6	53,(17, 42),8	61,(16, 31),4	65,(17, 31),12	85,(17, 176),20	111,(19, 199),10	147,(9, 48),10	229,(9, 43),16	265,(16, 176),36	301,(16, 43),42	
# Outgoing
1,(0, 2),2	3,(0, 8),2	5,(0, 13),2	7,(0, 16),2	9,(0, 14),2	11,(0, 10),2	13,(0, 20),2	15,(0, 7),2	17,(0, 9),2	19,(0, 5),2	21,(0, 11),2	23,(0, 6),2	25,(0, 19),2	27,(0, 3),2	29,(0, 12),2	31,(0, 1),2	33,(0, 18),2	35,(17, 46),2	37,(17, 183),2	39,(17, 143),2	41,(17, 107),2	43,(15, 79),8	53,(17, 42),8	61,(4, 174),2	65,(17, 31),12	77,(4, 93),4	81,(4, 57),4	85,(17, 176),20	105,(15, 104),20	
15,(95, 201),2	17,(2, 36),2	19,(164, 201),2	23,(9, 175),2	25,(9, 166),2	27,(9, 21),2	29,(11, 180),2	31,(19, 141),2	35,(12, 122),2	39,(18, 25),2	41,(9, 168),4	45,(49, 201),2	47,(2, 133),6	53,(87, 201),2	61,(29, 201),2	69,(101, 201),2	77,(156, 201),2	79,(9, 137),8	87,(9, 184),2	89,(152, 201),2	91,(2, 110),8	99,(178, 201),2	103,(19, 196),2	109,(188, 201),2	111,(19, 199),10	121,(117, 201),2	127,(9, 150),2	133,(194, 201),2	139,(11, 84),2	145,(90, 201),2	147,(9, 48),10	167,(118, 201),2	179,(18, 193),2	183,(170, 201),2	199,(72, 201),2	201,(12, 140),22	227,(35, 201),2	229,(9, 43),16	245,(62, 201),2	249,(13, 33),2	265,(132, 201),2	277,(11, 189),4	283,(109, 201),2	287,(11, 54),14	301,(182, 201),2	305,(123, 201),2	317,(11, 77),8	327,(130, 201),2	331,(9, 167),18	349,(185, 201),2	353,(131, 201),2	377,(61, 201),2	399,(9, 128),4	403,(187, 201),2	407,(86, 201),2	411,(19, 41),8	419,(18, 41),18	439,(98, 201),2	473,(114, 201),2	477,(165, 201),2	491,(19, 153),18	511,(40, 201),2	515,(9, 44),18	533,(12, 44),14	547,(81, 201),2	551,(56, 201),2	553,(11, 68),30	589,(190, 201),2	593,(13, 34),10	603,(9, 34),12	629,(179, 201),2	631,(28, 201),2	633,(143, 201),2	635,(2, 160),14	675,(93, 201),2	677,(57, 201),2	679,(173, 201),2	715,(12, 67),10	725,(79, 201),2	727,(198, 201),2	729,(104, 201),2	731,(2, 103),42	783,(115, 201),2	825,(9, 126),18	849,(19, 88),72	959,(158, 201),2	961,(19, 80),92	
23,(38, 201),2	25,(20, 176),2	27,(181, 201),2	31,(74, 201),2	33,(20, 122),2	35,(27, 201),2	39,(105, 201),2	47,(71, 201),2	55,(195, 201),2	63,(102, 201),2	71,(146, 201),2	79,(14, 92),2	81,(154, 201),2	91,(175, 201),2	101,(141, 201),2	113,(46, 201),2	123,(166, 201),2	135,(59, 201),2	153,(21, 201),2	169,(174, 201),2	185,(36, 201),2	201,(20, 108),6	211,(121, 201),2	229,(65, 201),2	247,(55, 201),2	251,(20, 33),2	253,(14, 115),24	355,(14, 172),2	459,(14, 186),14	779,(140, 201),2	
17,(200, 201),2	25,(163, 201),2	29,(116, 201),2	33,(3, 121),2	35,(3, 142),2	37,(22, 201),2	43,(144, 201),2	51,(125, 201),2	59,(64, 201),2	61,(16, 31),4	67,(151, 201),2	75,(157, 201),2	85,(32, 201),2	87,(7, 173),8	95,(16, 50),2	97,(127, 201),2	107,(25, 201),2	117,(78, 201),2	131,(180, 201),2	143,(183, 201),2	147,(3, 134),6	157,(107, 201),2	159,(7, 23),4	181,(122, 201),2	197,(106, 201),2	207,(7, 108),2	215,(137, 201),2	217,(16, 83),2	233,(16, 73),10	243,(191, 201),2	263,(110, 201),2	265,(16, 176),36	301,(16, 43),42	409,(16, 41),2	443,(16, 186),16	459,(7, 158),78	649,(3, 160),26	681,(7, 67),18	699,(3, 67),16	763,(7, 26),16	845,(103, 201),2	847,(30, 201),2	921,(3, 88),2	
13,(147, 201),2	17,(8, 191),2	21,(45, 201),2	25,(5, 78),2	29,(6, 59),2	33,(135, 201),2	41,(159, 201),2	43,(1, 106),6	49,(138, 201),2	51,(6, 191),6	57,(148, 201),2	65,(52, 201),2	73,(39, 201),2	75,(1, 65),8	83,(97, 201),2	85,(1, 55),8	93,(47, 201),2	95,(10, 198),10	105,(76, 201),2	111,(10, 85),2	115,(75, 201),2	119,(6, 53),2	125,(96, 201),2	129,(5, 150),2	137,(10, 84),2	141,(91, 201),2	155,(70, 201),2	163,(1, 23),4	171,(111, 201),2	173,(6, 193),6	187,(1, 145),8	195,(162, 201),2	209,(6, 108),2	213,(171, 201),2	219,(1, 83),8	231,(112, 201),2	253,(1, 33),8	261,(192, 201),2	267,(5, 189),10	281,(169, 201),2	285,(129, 201),2	303,(124, 201),2	307,(8, 77),10	325,(100, 201),2	329,(155, 201),2	351,(58, 201),2	357,(10, 172),2	359,(1, 172),16	375,(63, 201),2	379,(149, 201),2	381,(10, 128),18	405,(119, 201),2	407,(6, 115),24	437,(113, 201),2	441,(142, 201),2	443,(6, 30),30	475,(168, 201),2	479,(5, 153),12	509,(133, 201),2	513,(42, 201),2	549,(199, 201),2	583,(6, 68),4	587,(48, 201),2	591,(31, 201),2	615,(6, 34),14	731,(8, 26),24	755,(10, 26),8	781,(176, 201),2	785,(10, 126),40	843,(43, 201),2	923,(1, 88),36	1053,(1, 80),278	
