139
# CPU
0,0,1	1,3,15	16,22,15	31,13,15	46,35,15	61,30,15	76,11,15	111,27,15	138,41,1	
2,4,15	17,20,15	32,21,15	47,6,15	62,9,15	77,39,15	92,29,15	107,10,15	122,40,15	
3,1,15	18,26,15	33,38,15	48,16,15	63,7,15	
4,2,15	19,23,15	34,32,15	49,18,15	64,31,15	79,19,15	94,37,15	
20,28,15	44,17,15	76,33,15	
25,8,15	41,12,15	57,14,15	
39,15,15	54,36,15	
18,34,15	42,24,15	57,5,15	

40,25,15	
# Incoming
19,(2, 35),16	35,(20, 41),1	36,(26, 41),1	37,(34, 41),1	38,(23, 41),1	39,(28, 41),1	40,(8, 41),1	47,(21, 41),1	48,(38, 41),1	49,(32, 41),1	54,(15, 41),1	55,(25, 41),1	56,(12, 41),1	57,(24, 41),1	59,(17, 41),1	62,(6, 41),1	63,(16, 41),1	64,(18, 41),1	69,(36, 41),1	72,(14, 41),1	73,(5, 41),1	77,(9, 41),1	78,(7, 41),1	79,(31, 41),1	91,(33, 41),1	92,(39, 41),1	94,(19, 41),1	95,(4, 27),16	111,(29, 41),1	112,(37, 41),1	122,(10, 41),1	137,(40, 41),1	
1,(0, 4),1	57,(2, 40),5	
2,(0, 1),1	
3,(0, 2),1	
18,(3, 28),2	26,(3, 17),18	65,(2, 33),11	
20,(3, 8),5	37,(1, 12),4	50,(2, 14),7	
36,(4, 15),3	42,(2, 36),4	
16,(3, 34),2	39,(2, 24),3	48,(4, 5),9	

25,(3, 25),1	35,(2, 25),1	
# Outgoing
1,(0, 4),1	2,(0, 1),1	3,(0, 2),1	16,(3, 34),2	18,(3, 28),2	20,(3, 8),5	25,(3, 25),1	26,(3, 17),18	
35,(20, 41),1	36,(4, 15),3	47,(21, 41),1	48,(4, 5),9	62,(6, 41),1	77,(9, 41),1	92,(39, 41),1	95,(4, 27),16	111,(29, 41),1	122,(10, 41),1	137,(40, 41),1	
36,(26, 41),1	37,(1, 12),4	48,(38, 41),1	63,(16, 41),1	78,(7, 41),1	
19,(2, 35),16	35,(2, 25),1	38,(23, 41),1	39,(2, 24),3	42,(2, 36),4	49,(32, 41),1	50,(2, 14),7	57,(2, 40),5	64,(18, 41),1	65,(2, 33),11	79,(31, 41),1	94,(19, 41),1	112,(37, 41),1	
39,(28, 41),1	59,(17, 41),1	91,(33, 41),1	
40,(8, 41),1	56,(12, 41),1	72,(14, 41),1	
54,(15, 41),1	69,(36, 41),1	
37,(34, 41),1	57,(24, 41),1	73,(5, 41),1	

55,(25, 41),1	
