20780
# CPU
97,5,38	193,10,38	289,15,38	385,20,38	11861,30,38	11929,125,38	12131,70,38	12169,140,38	12207,95,38	12245,150,38	12827,35,38	13359,105,38	13505,80,38	13543,130,38	13721,155,38	13759,185,38	13797,25,38	13835,115,38	13873,120,38	13911,165,38	13949,170,38	17969,190,38	18127,40,38	18165,45,38	18203,60,38	18241,75,38	18335,100,38	18373,110,38	19337,145,38	19647,50,38	19685,55,38	19755,65,38	19793,85,38	19831,90,38	20013,135,38	20349,160,38	20445,175,38	20483,180,38	20701,195,38	20739,200,38	
73,4,38	169,9,38	265,14,38	361,19,38	1305,74,38	2115,79,38	2463,169,38	2625,129,38	3291,189,38	3329,184,38	3755,49,38	4495,109,38	10501,54,38	10601,59,38	10791,134,38	11285,24,38	11323,29,38	11361,34,38	11659,64,38	11697,84,38	11737,119,38	17851,174,38	18129,44,38	18327,99,38	18365,104,38	18429,114,38	19167,124,38	19331,144,38	19473,164,38	19617,199,38	19655,39,38	19757,69,38	19795,89,38	19955,94,38	20023,139,38	20061,149,38	20261,154,38	20337,159,38	20457,179,38	20645,194,38	
49,3,38	145,8,38	241,13,38	337,18,38	1179,43,38	1473,123,38	1703,33,38	1815,68,38	1999,118,38	2037,158,38	2105,38,38	2501,23,38	3761,103,38	6385,183,38	10461,53,38	10799,143,38	11623,58,38	11663,73,38	11701,83,38	17783,153,38	18031,198,38	18101,28,38	18285,93,38	18351,108,38	18413,113,38	19171,128,38	19209,133,38	19339,148,38	19645,48,38	19753,63,38	19791,78,38	19829,88,38	20009,98,38	20047,138,38	20355,163,38	20393,168,38	20431,173,38	20469,178,38	20599,188,38	20643,193,38	
25,2,38	121,7,38	217,12,38	313,17,38	3505,67,38	4373,102,38	5423,92,38	5461,167,38	5611,42,38	5699,137,38	5737,172,38	5775,182,38	6065,107,38	6103,197,38	6847,27,38	10631,87,38	10669,97,38	11301,52,38	11643,62,38	11681,82,38	12061,132,38	12177,147,38	17979,192,38	18099,22,38	18137,32,38	18205,72,38	18243,77,38	18359,112,38	18623,117,38	19165,122,38	19203,127,38	19495,177,38	19621,37,38	19659,47,38	19697,57,38	20041,142,38	20079,152,38	20263,157,38	20351,162,38	20597,187,38	
0,0,1	1,6,38	39,11,38	77,1,38	115,16,38	2903,86,38	2941,111,38	3377,186,38	3415,166,38	3453,91,38	3491,146,38	3553,51,38	3603,106,38	3641,136,38	3785,56,38	3989,171,38	4027,41,38	4065,46,38	4261,76,38	4339,141,38	4377,26,38	4503,176,38	4541,21,38	4579,101,38	4617,116,38	4655,31,38	4693,36,38	4731,61,38	4769,66,38	4807,71,38	4845,81,38	4883,96,38	4921,121,38	4959,131,38	4997,161,38	5751,191,38	7105,126,38	7143,151,38	7181,156,38	7219,181,38	7257,196,38	20779,201,1	
# Incoming
73,(0, 5),24	97,(2, 35),2	99,(3, 25),2	101,(3, 30),8	117,(3, 60),2	119,(3, 90),2	141,(3, 65),12	155,(3, 105),2	159,(3, 120),6	165,(3, 155),2	169,(0, 10),24	197,(3, 70),24	225,(2, 50),24	249,(4, 25),14	265,(0, 15),24	293,(3, 130),38	331,(4, 55),6	339,(3, 150),20	359,(8, 165),2	361,(0, 20),24	385,(6, 25),26	411,(4, 85),8	419,(6, 30),6	425,(4, 45),36	461,(4, 70),16	477,(4, 100),2	479,(4, 105),2	481,(4, 135),2	491,(8, 30),14	505,(6, 50),9954	10459,(2, 60),2	10461,(2, 70),28	10489,(2, 80),2	10491,(2, 105),2	10493,(2, 115),38	10531,(2, 120),2	10533,(2, 125),4	10537,(2, 130),2	10539,(2, 140),44	10583,(2, 155),2	10585,(4, 170),16	10601,(6, 70),2	10603,(4, 125),30	10633,(7, 155),2	10635,(7, 160),2	10637,(7, 185),6	10643,(8, 175),2	10645,(6, 100),124	10769,(6, 105),4	10773,(7, 50),24	10797,(9, 65),2	10799,(6, 145),378	11177,(7, 135),16	11193,(7, 190),10	11203,(8, 55),4	11207,(9, 115),4	11211,(6, 155),8	11219,(8, 60),10	11229,(6, 180),22	11251,(2, 180),54	11305,(11, 30),124	11429,(3, 160),194	11623,(7, 140),22	11645,(8, 40),16	11661,(8, 85),6	11667,(8, 90),6	11673,(8, 115),8	11681,(9, 80),6	11687,(11, 90),6	11693,(4, 200),78	11771,(8, 105),32	11803,(8, 150),14	11817,(8, 185),16	11833,(8, 195),20	11853,(9, 30),8	11861,(9, 40),26	11887,(9, 55),8	11895,(9, 85),12	11907,(9, 125),22	11929,(9, 180),2	11931,(9, 190),134	12065,(9, 200),2	12067,(12, 25),2	12069,(11, 135),40	12109,(12, 35),4	12113,(12, 45),16	12129,(12, 70),2	12131,(12, 90),8	12139,(12, 100),2	12141,(12, 140),4	12145,(12, 180),2	12147,(11, 140),2	12149,(12, 95),16	12165,(12, 130),8	12173,(12, 145),4	12177,(12, 150),6	12183,(13, 25),2	12185,(13, 55),2	12187,(11, 150),10	12197,(7, 35),630	12827,(12, 50),106	12933,(12, 195),128	13061,(13, 65),18	13079,(13, 80),32	13111,(13, 85),12	13123,(13, 105),10	13133,(13, 110),10	13143,(13, 120),2	13145,(13, 130),2	13147,(13, 155),4	13151,(13, 190),18	13169,(13, 195),2	13171,(13, 200),20	13191,(14, 60),92	13283,(14, 90),68	13351,(14, 100),6	13357,(14, 105),2	13359,(14, 130),58	13417,(14, 135),2	13419,(14, 145),2	13421,(14, 175),24	13445,(14, 180),6	13451,(14, 185),2	13453,(17, 40),2	13455,(17, 45),18	13473,(17, 55),2	13475,(17, 60),8	13483,(17, 75),20	13503,(17, 80),2	13505,(17, 85),2	13507,(17, 90),4	13511,(17, 100),6	13517,(17, 110),4	13521,(17, 115),6	13527,(17, 130),14	13541,(17, 155),8	13549,(17, 180),2	13551,(17, 185),26	13577,(17, 190),6	13583,(18, 60),6	13589,(18, 115),10	13599,(18, 135),116	13715,(18, 155),6	13721,(18, 180),10	13731,(18, 185),2	13733,(18, 200),4	13737,(19, 25),14	13751,(19, 40),4	13755,(19, 45),18	13773,(19, 55),2	13775,(19, 75),2	13777,(19, 85),16	13793,(19, 115),12	13805,(19, 120),28	13833,(19, 165),10	13843,(19, 170),4	13847,(19, 180),2	13849,(19, 195),34	17851,(11, 190),118	18125,(1, 40),2	18129,(1, 45),2	18131,(1, 50),2	18135,(1, 60),40	18205,(1, 75),28	18327,(1, 100),8	18351,(1, 110),6	19331,(1, 145),6	19575,(1, 180),8	19611,(1, 195),4	19645,(16, 50),2	19647,(16, 55),10	19753,(16, 65),2	19759,(16, 85),2	19793,(16, 90),2	20009,(16, 135),4	20337,(16, 160),12	20359,(16, 175),86	20457,(16, 180),4	20645,(16, 195),56	20701,(16, 200),12	
49,(0, 4),24	83,(2, 84),2	85,(2, 109),2	89,(2, 119),4	93,(2, 124),2	109,(3, 49),2	111,(3, 59),6	145,(0, 9),24	169,(3, 69),28	221,(3, 109),2	223,(3, 189),2	241,(0, 14),24	275,(3, 124),18	337,(0, 19),24	361,(3, 64),86	447,(5, 69),2	449,(5, 74),2	451,(5, 79),12	463,(5, 99),2	465,(6, 34),14	479,(3, 194),12	491,(5, 129),2	493,(5, 134),2	495,(5, 139),2	497,(5, 144),8	505,(10, 24),2	567,(3, 119),124	691,(5, 154),20	711,(5, 169),8	719,(5, 184),16	735,(5, 194),4	739,(10, 29),2	741,(10, 39),2	743,(10, 74),2	745,(10, 114),2	747,(10, 144),2	787,(3, 169),54	951,(5, 34),118	1069,(5, 54),154	1223,(5, 199),16	1239,(8, 59),18	1257,(8, 79),4	1261,(8, 84),6	1267,(8, 109),6	1273,(8, 124),2	1275,(8, 129),12	1287,(8, 134),6	1293,(8, 169),2	1295,(8, 184),2	1297,(13, 39),2	1299,(13, 44),4	1303,(13, 74),2	1305,(13, 119),2	1307,(2, 54),20	1331,(10, 84),12	1343,(2, 104),40	1383,(10, 164),78	1461,(10, 174),10	1471,(10, 184),2	1473,(15, 24),2	1475,(15, 49),8	1483,(15, 119),2	1485,(15, 164),2	1503,(2, 144),6	1509,(15, 29),18	1527,(15, 89),22	1579,(2, 159),2	1581,(15, 134),4	1585,(15, 159),8	1593,(2, 184),4	1597,(15, 94),56	1653,(15, 169),2	1655,(15, 174),2	1657,(20, 79),12	1669,(2, 189),8	1677,(20, 89),40	1717,(20, 104),2	1719,(20, 114),2	1721,(7, 54),86	1807,(7, 64),6	1815,(7, 79),116	2007,(7, 134),10	2027,(7, 169),40	2087,(7, 174),2	2089,(7, 184),2	2091,(7, 199),2	2107,(12, 54),2	2109,(12, 139),2	2111,(12, 179),2	2113,(17, 79),2	2405,(15, 114),46	2451,(20, 94),10	2461,(20, 169),2	2473,(7, 104),146	2619,(20, 129),6	2625,(20, 144),4	2641,(12, 59),12	2653,(12, 69),78	2731,(12, 84),8	2739,(12, 89),16	2795,(12, 164),38	2859,(12, 189),8	2867,(17, 84),16	2883,(17, 104),8	2915,(12, 119),136	3171,(17, 114),24	3195,(17, 124),2	3227,(17, 144),12	3259,(17, 159),4	3263,(13, 54),6	3269,(13, 124),12	3281,(18, 64),4	3285,(18, 69),2	3287,(18, 184),2	3289,(18, 189),2	3291,(20, 184),18	3309,(8, 164),150	3607,(13, 144),14	3621,(13, 149),22	3689,(18, 49),66	3755,(18, 114),6	3761,(17, 154),56	3817,(18, 84),62	3879,(18, 134),12	3891,(18, 164),8	3911,(17, 179),16	3927,(18, 124),56	3983,(18, 194),128	4111,(18, 199),96	4403,(20, 109),92	4495,(20, 119),32	4527,(20, 164),22	4551,(13, 159),880	5431,(15, 64),208	5639,(20, 174),44	10461,(6, 54),40	10591,(6, 59),10	10631,(6, 94),8	10773,(6, 114),12	10787,(6, 134),4	11275,(11, 24),10	11285,(11, 29),2	11287,(11, 34),8	11429,(11, 39),14	11643,(11, 64),16	11679,(11, 84),6	11685,(11, 89),2	11695,(11, 99),2	11699,(11, 119),38	12109,(11, 139),38	12177,(11, 149),10	17801,(11, 159),20	17833,(11, 174),18	18127,(1, 44),2	18175,(1, 69),8	18311,(1, 99),16	18335,(1, 104),14	18413,(1, 114),16	19165,(1, 124),2	19199,(1, 144),132	19339,(1, 149),4	19343,(1, 154),86	19435,(1, 164),38	19615,(1, 199),2	19621,(16, 39),20	19755,(16, 69),2	19767,(16, 89),26	19795,(16, 94),160	20021,(16, 139),2	20041,(16, 149),6	20061,(16, 154),200	20263,(16, 159),74	20451,(16, 179),6	20643,(16, 194),2	
25,(0, 3),24	65,(2, 33),14	79,(2, 38),2	81,(2, 73),2	121,(0, 8),24	217,(0, 13),24	243,(4, 23),2	245,(4, 53),4	263,(4, 88),2	265,(4, 98),6	271,(9, 63),4	277,(4, 73),18	295,(9, 128),2	297,(9, 138),4	301,(9, 143),2	303,(9, 163),10	313,(0, 18),24	337,(4, 38),70	407,(5, 103),2	409,(5, 138),4	413,(5, 143),2	415,(10, 43),2	417,(10, 48),2	419,(10, 58),2	421,(10, 83),2	423,(10, 103),2	425,(6, 33),40	465,(10, 118),6	471,(10, 158),2	473,(15, 43),2	479,(15, 58),2	481,(15, 168),2	483,(4, 163),24	507,(5, 33),30	537,(5, 58),38	575,(10, 128),22	597,(10, 193),20	617,(15, 28),6	623,(20, 38),2	625,(4, 198),124	749,(5, 28),202	951,(9, 68),30	981,(9, 78),42	1023,(9, 118),94	1117,(9, 148),60	1177,(14, 43),2	1179,(14, 48),2	1181,(14, 53),2	1183,(14, 63),12	1195,(14, 138),2	1197,(14, 173),2	1199,(19, 28),2	1201,(19, 48),2	1203,(19, 173),2	1239,(15, 38),8	1247,(15, 78),32	1279,(20, 48),2	1281,(20, 113),6	1287,(20, 118),2	1289,(14, 73),22	1311,(14, 78),14	1327,(2, 103),16	1343,(15, 88),18	1361,(20, 133),4	1369,(15, 118),12	1381,(20, 163),2	1383,(2, 118),16	1399,(2, 128),4	1403,(2, 133),20	1423,(14, 83),32	1455,(19, 53),12	1467,(19, 123),6	1473,(19, 138),6	1481,(2, 138),22	1503,(14, 193),44	1549,(2, 158),30	1579,(19, 158),6	1585,(2, 183),8	1593,(20, 153),4	1597,(2, 188),72	1669,(20, 198),2	1677,(7, 33),26	1703,(7, 53),18	1721,(20, 63),10	1745,(14, 58),68	1813,(7, 68),2	1815,(19, 78),36	1851,(19, 133),26	1877,(19, 153),18	1895,(19, 163),12	1931,(7, 98),62	1993,(7, 118),6	1999,(7, 128),8	2017,(7, 138),4	2021,(7, 158),6	2027,(19, 183),32	2067,(7, 173),20	2093,(12, 28),6	2099,(12, 38),6	2105,(12, 48),2	2115,(5, 193),210	2325,(10, 113),80	2405,(19, 178),58	2463,(20, 23),38	2501,(20, 78),20	2521,(20, 108),16	2537,(20, 178),28	2755,(12, 103),40	2833,(12, 178),14	2847,(12, 183),12	2891,(20, 143),144	3051,(12, 173),120	3197,(17, 133),2	3199,(17, 143),28	3239,(17, 148),20	3417,(17, 103),344	3817,(17, 178),94	4927,(14, 183),1458	10459,(6, 53),2	10563,(6, 58),28	10621,(6, 73),6	10627,(6, 78),2	10795,(6, 143),4	11177,(6, 148),10	11223,(6, 178),6	11479,(11, 48),60	11539,(11, 58),84	11659,(11, 73),4	11667,(11, 83),12	11693,(11, 98),2	12061,(11, 133),8	17781,(11, 153),2	17831,(11, 173),2	17979,(11, 193),48	18027,(11, 198),4	18099,(1, 28),2	18235,(1, 78),44	18279,(1, 88),4	18283,(1, 93),2	18285,(1, 98),26	18349,(1, 108),2	18359,(1, 113),54	19169,(1, 128),2	19171,(1, 133),10	19337,(1, 148),2	19495,(1, 178),80	19583,(1, 188),28	19643,(16, 48),2	19691,(16, 63),62	19757,(16, 78),2	19761,(16, 88),6	19955,(16, 98),54	20013,(16, 138),8	20351,(16, 163),4	20355,(16, 168),2	20357,(16, 173),2	20445,(16, 178),6	20597,(16, 188),2	20599,(16, 193),44	
1,(0, 2),24	97,(0, 7),24	121,(3, 42),12	133,(3, 52),8	153,(3, 102),2	157,(3, 117),2	193,(0, 12),24	239,(3, 87),36	275,(4, 27),2	289,(0, 17),24	313,(4, 102),2	315,(4, 117),16	331,(3, 142),8	339,(5, 22),66	405,(5, 112),2	407,(4, 152),2	409,(4, 157),2	411,(6, 27),8	419,(4, 162),6	425,(5, 27),4	429,(5, 77),18	447,(3, 177),24	471,(3, 187),4	475,(5, 97),4	479,(6, 37),26	505,(3, 97),62	567,(4, 47),32	599,(4, 62),26	625,(5, 52),22	647,(5, 92),16	663,(5, 102),16	679,(5, 122),2	681,(5, 162),2	683,(5, 167),6	689,(5, 172),2	691,(3, 132),96	787,(9, 22),20	807,(9, 27),4	811,(9, 32),16	827,(9, 77),2	829,(9, 122),6	835,(9, 187),2	837,(14, 57),2	839,(14, 132),2	841,(3, 192),364	1205,(4, 167),84	1289,(5, 177),42	1331,(9, 72),18	1349,(9, 82),16	1365,(10, 117),2	1367,(10, 137),2	1369,(3, 77),1558	2927,(4, 182),110	3037,(5, 62),130	3167,(5, 67),124	3291,(8, 52),2	3293,(8, 117),16	3309,(9, 107),18	3327,(9, 112),18	3345,(9, 117),68	3413,(9, 197),6	3419,(10, 42),8	3427,(10, 92),22	3449,(10, 142),2	3451,(10, 162),2	3453,(10, 182),4	3457,(15, 127),2	3459,(8, 177),4	3463,(8, 182),2	3465,(10, 67),40	3505,(10, 77),42	3547,(10, 87),792	4339,(10, 102),34	4373,(13, 42),28	4401,(13, 62),4	4405,(13, 97),14	4419,(13, 112),22	4441,(13, 137),16	4457,(13, 142),20	4477,(13, 147),4	4481,(13, 152),70	4551,(14, 32),206	4757,(14, 92),4	4761,(14, 97),8	4769,(14, 117),14	4783,(14, 127),52	4835,(14, 142),38	4873,(14, 147),2	4875,(14, 152),2	4877,(14, 162),16	4893,(14, 167),2	4895,(14, 177),32	4927,(15, 52),52	4979,(15, 62),30	5009,(15, 72),34	5043,(15, 92),50	5093,(15, 112),4	5097,(15, 137),2	5099,(15, 167),198	5297,(15, 192),22	5319,(20, 27),2	5321,(20, 42),88	5409,(20, 47),2	5411,(20, 72),2	5413,(20, 87),6	5419,(20, 92),4	5423,(20, 152),4	5427,(20, 192),4	5431,(13, 167),2	5433,(13, 172),22	5455,(18, 22),142	5597,(18, 42),14	5611,(18, 62),2	5613,(18, 72),24	5637,(18, 77),14	5651,(18, 82),2	5653,(18, 87),2	5655,(18, 127),2	5657,(18, 137),42	5699,(18, 152),10	5709,(18, 172),2	5711,(18, 177),16	5727,(18, 182),4	5731,(20, 122),16	5751,(18, 197),48	5799,(20, 82),206	6005,(20, 107),60	6065,(20, 197),36	6385,(14, 192),450	6835,(19, 22),10	6845,(19, 27),2	6847,(19, 32),94	6941,(19, 37),156	7097,(19, 62),2	7105,(19, 127),6	10501,(6, 57),62	10603,(6, 72),18	10629,(6, 87),2	10639,(6, 97),6	10785,(6, 122),2	10791,(6, 142),4	11187,(6, 152),24	11219,(6, 157),2	11221,(6, 177),2	11251,(11, 22),24	11295,(11, 52),6	11301,(11, 72),4	11443,(11, 47),36	11623,(11, 62),20	11663,(11, 77),2	11665,(11, 82),2	11697,(11, 117),2	11737,(11, 132),324	12149,(11, 142),22	12171,(11, 147),6	12197,(11, 152),5584	17783,(11, 157),18	17821,(11, 162),10	17969,(11, 192),10	18031,(1, 22),68	18101,(1, 32),10	18111,(1, 37),14	18133,(1, 57),2	18183,(1, 72),22	18233,(1, 77),2	18357,(1, 112),2	18429,(1, 117),194	18623,(1, 122),542	19167,(1, 127),2	19181,(1, 142),18	19429,(1, 157),6	19473,(1, 177),22	19617,(16, 37),4	19641,(16, 47),2	19657,(16, 57),34	20023,(16, 142),18	20047,(16, 152),14	20261,(16, 157),2	20349,(16, 162),2	20461,(16, 187),136	
63,(2, 26),2	87,(2, 111),2	95,(2, 146),2	99,(2, 36),126	225,(3, 56),14	239,(4, 21),4	249,(2, 51),1058	1307,(3, 46),26	1333,(3, 51),36	1369,(4, 31),8	1377,(4, 56),4	1381,(4, 66),16	1397,(4, 71),4	1401,(4, 131),18	1419,(4, 146),4	1423,(2, 136),58	1481,(4, 181),4	1485,(4, 186),2	1487,(5, 86),10	1497,(5, 101),12	1509,(2, 151),40	1549,(5, 106),2	1551,(5, 146),2	1553,(5, 156),28	1581,(2, 176),4	1585,(4, 81),46	1631,(4, 91),54	1685,(4, 151),60	1745,(5, 66),320	2065,(5, 151),44	2109,(5, 166),4	2113,(5, 181),2	2115,(7, 61),338	2453,(7, 86),2	2455,(7, 91),16	2471,(7, 101),2	2473,(9, 41),6	2479,(9, 46),2	2481,(9, 51),2	2483,(9, 61),10	2493,(9, 66),12	2505,(9, 96),2	2507,(9, 131),14	2521,(9, 136),6	2527,(9, 151),78	2605,(9, 171),2	2607,(10, 51),2	2609,(10, 56),2	2611,(10, 81),8	2619,(7, 141),2	2621,(7, 156),18	2639,(7, 176),2	2641,(9, 161),68	2709,(10, 36),36	2745,(10, 86),22	2767,(10, 101),2	2769,(10, 136),8	2777,(10, 141),110	2887,(10, 146),2	2889,(10, 171),2	2891,(12, 51),10	2901,(12, 86),2	2903,(12, 101),4	2907,(12, 106),6	2913,(12, 111),2	2915,(14, 21),10	2925,(14, 41),2	2927,(3, 121),10	2937,(3, 126),10	2947,(8, 46),222	3169,(8, 66),14	3183,(8, 71),34	3217,(8, 116),2	3219,(8, 126),2	3221,(8, 156),18	3239,(8, 176),8	3247,(8, 186),16	3263,(12, 31),42	3305,(12, 76),36	3341,(12, 121),14	3355,(12, 126),18	3373,(12, 176),2	3375,(12, 186),2	3377,(15, 26),8	3385,(15, 61),6	3391,(15, 126),14	3405,(15, 131),2	3407,(15, 166),6	3413,(15, 171),2	3415,(17, 96),2	3417,(20, 21),2	3419,(14, 46),2	3421,(14, 91),2	3423,(14, 96),8	3431,(14, 121),26	3457,(14, 146),8	3465,(8, 196),54	3519,(13, 26),6	3525,(13, 51),28	3553,(13, 61),8	3561,(13, 96),4	3565,(13, 101),14	3579,(13, 106),24	3603,(13, 121),2	3605,(13, 136),2	3607,(14, 126),36	3643,(13, 156),2	3645,(13, 176),6	3651,(13, 181),10	3661,(13, 196),28	3689,(14, 56),96	3785,(14, 76),178	3963,(14, 151),8	3971,(14, 156),4	3975,(14, 171),14	3989,(17, 41),8	3997,(17, 46),10	4007,(17, 71),8	4015,(17, 76),246	4261,(17, 101),46	4307,(17, 116),4	4311,(17, 141),28	4339,(18, 26),6	4345,(18, 31),6	4351,(18, 81),4	4355,(18, 121),2	4357,(18, 151),2	4359,(19, 31),4	4363,(19, 61),2	4365,(19, 81),8	4373,(15, 96),30	4403,(17, 161),54	4457,(17, 176),46	4503,(19, 21),18	4521,(19, 71),10	4531,(19, 96),2	4533,(19, 101),10	4543,(19, 116),6	4549,(19, 131),2	4551,(20, 31),4	4555,(20, 36),14	4569,(20, 61),18	4587,(20, 66),2	4589,(20, 71),6	4595,(20, 81),2	4597,(20, 96),20	4617,(20, 121),118	4735,(20, 131),52	4787,(20, 161),2	4789,(20, 181),2	4791,(67, 201),2	4793,(102, 201),2	5461,(92, 201),2	5499,(167, 201),2	5649,(42, 201),2	5731,(18, 191),20	5751,(137, 201),2	5775,(172, 201),2	5799,(43, 201),2	5801,(123, 201),2	5803,(33, 201),2	5805,(68, 201),2	5807,(118, 201),2	5809,(158, 201),2	5811,(38, 201),2	5813,(23, 201),2	5815,(103, 201),2	5817,(182, 201),2	6103,(107, 201),2	6141,(197, 201),2	6423,(183, 201),2	6885,(27, 201),2	7099,(19, 126),6	7111,(19, 151),10	7121,(19, 156),24	7145,(19, 181),2	7147,(19, 196),12	7159,(74, 201),2	7161,(79, 201),2	7163,(169, 201),2	7165,(129, 201),2	7167,(189, 201),2	7169,(184, 201),2	7171,(49, 201),2	7173,(109, 201),2	10499,(53, 201),2	10539,(54, 201),2	10639,(59, 201),2	10669,(87, 201),2	10707,(97, 201),2	10829,(134, 201),2	10837,(143, 201),2	11323,(24, 201),2	11339,(52, 201),2	11361,(29, 201),2	11399,(34, 201),2	11681,(58, 201),2	11683,(62, 201),2	11701,(73, 201),2	11719,(82, 201),2	11739,(83, 201),2	11771,(64, 201),2	11773,(84, 201),2	11775,(119, 201),2	11899,(30, 201),2	11967,(125, 201),2	12099,(132, 201),2	12169,(70, 201),2	12207,(140, 201),2	12245,(95, 201),2	12283,(150, 201),2	12865,(35, 201),2	13061,(147, 201),2	13397,(105, 201),2	13543,(80, 201),2	13581,(130, 201),2	13759,(155, 201),2	13797,(185, 201),2	13835,(25, 201),2	13873,(115, 201),2	13911,(120, 201),2	13949,(165, 201),2	13987,(170, 201),2	17821,(153, 201),2	17889,(174, 201),2	18007,(190, 201),2	18017,(192, 201),2	18069,(198, 201),2	18137,(22, 201),2	18139,(28, 201),2	18165,(40, 201),2	18167,(44, 201),2	18175,(32, 201),2	18203,(45, 201),2	18241,(60, 201),2	18243,(72, 201),2	18279,(75, 201),2	18281,(77, 201),2	18323,(93, 201),2	18365,(99, 201),2	18373,(100, 201),2	18389,(108, 201),2	18397,(112, 201),2	18403,(104, 201),2	18411,(110, 201),2	18451,(113, 201),2	18467,(114, 201),2	18661,(117, 201),2	19203,(122, 201),2	19205,(124, 201),2	19209,(128, 201),2	19241,(127, 201),2	19247,(133, 201),2	19369,(144, 201),2	19375,(145, 201),2	19377,(148, 201),2	19511,(164, 201),2	19533,(177, 201),2	19655,(199, 201),2	19659,(37, 201),2	19683,(48, 201),2	19685,(50, 201),2	19693,(39, 201),2	19697,(47, 201),2	19723,(55, 201),2	19735,(57, 201),2	19791,(63, 201),2	19793,(65, 201),2	19795,(69, 201),2	19829,(78, 201),2	19831,(85, 201),2	19833,(89, 201),2	19867,(88, 201),2	19869,(90, 201),2	19993,(94, 201),2	20047,(98, 201),2	20051,(135, 201),2	20061,(139, 201),2	20079,(142, 201),2	20085,(138, 201),2	20099,(149, 201),2	20117,(152, 201),2	20299,(154, 201),2	20301,(157, 201),2	20375,(159, 201),2	20387,(160, 201),2	20389,(162, 201),2	20393,(163, 201),2	20431,(168, 201),2	20469,(173, 201),2	20483,(175, 201),2	20495,(179, 201),2	20507,(178, 201),2	20521,(180, 201),2	20635,(187, 201),2	20637,(188, 201),2	20681,(193, 201),2	20683,(194, 201),2	20739,(195, 201),2	20777,(200, 201),2	
# Outgoing
339,(5, 22),66	405,(5, 112),2	407,(5, 103),2	409,(5, 138),4	413,(5, 143),2	415,(10, 43),2	417,(10, 48),2	419,(10, 58),2	421,(10, 83),2	423,(10, 103),2	425,(5, 27),4	429,(5, 77),18	447,(5, 69),2	449,(5, 74),2	451,(5, 79),12	463,(5, 99),2	465,(10, 118),6	471,(10, 158),2	473,(15, 43),2	475,(5, 97),4	479,(15, 58),2	481,(15, 168),2	491,(5, 129),2	493,(5, 134),2	495,(5, 139),2	497,(5, 144),8	505,(10, 24),2	507,(5, 33),30	537,(5, 58),38	575,(10, 128),22	597,(10, 193),20	617,(15, 28),6	623,(20, 38),2	625,(5, 52),22	647,(5, 92),16	663,(5, 102),16	679,(5, 122),2	681,(5, 162),2	683,(5, 167),6	689,(5, 172),2	691,(5, 154),20	711,(5, 169),8	719,(5, 184),16	735,(5, 194),4	739,(10, 29),2	741,(10, 39),2	743,(10, 74),2	745,(10, 114),2	747,(10, 144),2	749,(5, 28),202	951,(5, 34),118	1069,(5, 54),154	1223,(5, 199),16	1239,(15, 38),8	1247,(15, 78),32	1279,(20, 48),2	1281,(20, 113),6	1287,(20, 118),2	1289,(5, 177),42	1331,(10, 84),12	1343,(15, 88),18	1361,(20, 133),4	1365,(10, 117),2	1367,(10, 137),2	1369,(15, 118),12	1381,(20, 163),2	1383,(10, 164),78	1461,(10, 174),10	1471,(10, 184),2	1473,(15, 24),2	1475,(15, 49),8	1483,(15, 119),2	1485,(15, 164),2	1487,(5, 86),10	1497,(5, 101),12	1509,(15, 29),18	1527,(15, 89),22	1549,(5, 106),2	1551,(5, 146),2	1553,(5, 156),28	1581,(15, 134),4	1585,(15, 159),8	1593,(20, 153),4	1597,(15, 94),56	1653,(15, 169),2	1655,(15, 174),2	1657,(20, 79),12	1669,(20, 198),2	1677,(20, 89),40	1717,(20, 104),2	1719,(20, 114),2	1721,(20, 63),10	1745,(5, 66),320	2065,(5, 151),44	2109,(5, 166),4	2113,(5, 181),2	2115,(5, 193),210	2325,(10, 113),80	2405,(15, 114),46	2451,(20, 94),10	2461,(20, 169),2	2463,(20, 23),38	2501,(20, 78),20	2521,(20, 108),16	2537,(20, 178),28	2607,(10, 51),2	2609,(10, 56),2	2611,(10, 81),8	2619,(20, 129),6	2625,(20, 144),4	2709,(10, 36),36	2745,(10, 86),22	2767,(10, 101),2	2769,(10, 136),8	2777,(10, 141),110	2887,(10, 146),2	2889,(10, 171),2	2891,(20, 143),144	3037,(5, 62),130	3167,(5, 67),124	3291,(20, 184),18	3377,(15, 26),8	3385,(15, 61),6	3391,(15, 126),14	3405,(15, 131),2	3407,(15, 166),6	3413,(15, 171),2	3417,(20, 21),2	3419,(10, 42),8	3427,(10, 92),22	3449,(10, 142),2	3451,(10, 162),2	3453,(10, 182),4	3457,(15, 127),2	3465,(10, 67),40	3505,(10, 77),42	3547,(10, 87),792	4339,(10, 102),34	4373,(15, 96),30	4403,(20, 109),92	4495,(20, 119),32	4527,(20, 164),22	4551,(20, 31),4	4555,(20, 36),14	4569,(20, 61),18	4587,(20, 66),2	4589,(20, 71),6	4595,(20, 81),2	4597,(20, 96),20	4617,(20, 121),118	4735,(20, 131),52	4787,(20, 161),2	4789,(20, 181),2	4927,(15, 52),52	4979,(15, 62),30	5009,(15, 72),34	5043,(15, 92),50	5093,(15, 112),4	5097,(15, 137),2	5099,(15, 167),198	5297,(15, 192),22	5319,(20, 27),2	5321,(20, 42),88	5409,(20, 47),2	5411,(20, 72),2	5413,(20, 87),6	5419,(20, 92),4	5423,(20, 152),4	5427,(20, 192),4	5431,(15, 64),208	5639,(20, 174),44	5731,(20, 122),16	5799,(20, 82),206	6005,(20, 107),60	6065,(20, 197),36	11899,(30, 201),2	11967,(125, 201),2	12169,(70, 201),2	12207,(140, 201),2	12245,(95, 201),2	12283,(150, 201),2	12865,(35, 201),2	13397,(105, 201),2	13543,(80, 201),2	13581,(130, 201),2	13759,(155, 201),2	13797,(185, 201),2	13835,(25, 201),2	13873,(115, 201),2	13911,(120, 201),2	13949,(165, 201),2	13987,(170, 201),2	18007,(190, 201),2	18165,(40, 201),2	18203,(45, 201),2	18241,(60, 201),2	18279,(75, 201),2	18373,(100, 201),2	18411,(110, 201),2	19375,(145, 201),2	19685,(50, 201),2	19723,(55, 201),2	19793,(65, 201),2	19831,(85, 201),2	19869,(90, 201),2	20051,(135, 201),2	20387,(160, 201),2	20483,(175, 201),2	20521,(180, 201),2	20739,(195, 201),2	20777,(200, 201),2	
239,(4, 21),4	243,(4, 23),2	245,(4, 53),4	249,(4, 25),14	263,(4, 88),2	265,(4, 98),6	271,(9, 63),4	275,(4, 27),2	277,(4, 73),18	295,(9, 128),2	297,(9, 138),4	301,(9, 143),2	303,(9, 163),10	313,(4, 102),2	315,(4, 117),16	331,(4, 55),6	337,(4, 38),70	407,(4, 152),2	409,(4, 157),2	411,(4, 85),8	419,(4, 162),6	425,(4, 45),36	461,(4, 70),16	477,(4, 100),2	479,(4, 105),2	481,(4, 135),2	483,(4, 163),24	567,(4, 47),32	599,(4, 62),26	625,(4, 198),124	787,(9, 22),20	807,(9, 27),4	811,(9, 32),16	827,(9, 77),2	829,(9, 122),6	835,(9, 187),2	837,(14, 57),2	839,(14, 132),2	951,(9, 68),30	981,(9, 78),42	1023,(9, 118),94	1117,(9, 148),60	1177,(14, 43),2	1179,(14, 48),2	1181,(14, 53),2	1183,(14, 63),12	1195,(14, 138),2	1197,(14, 173),2	1199,(19, 28),2	1201,(19, 48),2	1203,(19, 173),2	1205,(4, 167),84	1289,(14, 73),22	1311,(14, 78),14	1331,(9, 72),18	1349,(9, 82),16	1369,(4, 31),8	1377,(4, 56),4	1381,(4, 66),16	1397,(4, 71),4	1401,(4, 131),18	1419,(4, 146),4	1423,(14, 83),32	1455,(19, 53),12	1467,(19, 123),6	1473,(19, 138),6	1481,(4, 181),4	1485,(4, 186),2	1503,(14, 193),44	1579,(19, 158),6	1585,(4, 81),46	1631,(4, 91),54	1685,(4, 151),60	1745,(14, 58),68	1815,(19, 78),36	1851,(19, 133),26	1877,(19, 153),18	1895,(19, 163),12	2027,(19, 183),32	2405,(19, 178),58	2473,(9, 41),6	2479,(9, 46),2	2481,(9, 51),2	2483,(9, 61),10	2493,(9, 66),12	2505,(9, 96),2	2507,(9, 131),14	2521,(9, 136),6	2527,(9, 151),78	2605,(9, 171),2	2641,(9, 161),68	2915,(14, 21),10	2925,(14, 41),2	2927,(4, 182),110	3309,(9, 107),18	3327,(9, 112),18	3345,(9, 117),68	3413,(9, 197),6	3419,(14, 46),2	3421,(14, 91),2	3423,(14, 96),8	3431,(14, 121),26	3457,(14, 146),8	3607,(14, 126),36	3689,(14, 56),96	3785,(14, 76),178	3963,(14, 151),8	3971,(14, 156),4	3975,(14, 171),14	4359,(19, 31),4	4363,(19, 61),2	4365,(19, 81),8	4503,(19, 21),18	4521,(19, 71),10	4531,(19, 96),2	4533,(19, 101),10	4543,(19, 116),6	4549,(19, 131),2	4551,(14, 32),206	4757,(14, 92),4	4761,(14, 97),8	4769,(14, 117),14	4783,(14, 127),52	4835,(14, 142),38	4873,(14, 147),2	4875,(14, 152),2	4877,(14, 162),16	4893,(14, 167),2	4895,(14, 177),32	4927,(14, 183),1458	6385,(14, 192),450	6835,(19, 22),10	6845,(19, 27),2	6847,(19, 32),94	6941,(19, 37),156	7097,(19, 62),2	7099,(19, 126),6	7105,(19, 127),6	7111,(19, 151),10	7121,(19, 156),24	7145,(19, 181),2	7147,(19, 196),12	7159,(74, 201),2	7161,(79, 201),2	7163,(169, 201),2	7165,(129, 201),2	7167,(189, 201),2	7169,(184, 201),2	7171,(49, 201),2	7173,(109, 201),2	10539,(54, 201),2	10585,(4, 170),16	10603,(4, 125),30	10639,(59, 201),2	10797,(9, 65),2	10829,(134, 201),2	11207,(9, 115),4	11323,(24, 201),2	11361,(29, 201),2	11399,(34, 201),2	11681,(9, 80),6	11693,(4, 200),78	11771,(64, 201),2	11773,(84, 201),2	11775,(119, 201),2	11853,(9, 30),8	11861,(9, 40),26	11887,(9, 55),8	11895,(9, 85),12	11907,(9, 125),22	11929,(9, 180),2	11931,(9, 190),134	12065,(9, 200),2	13191,(14, 60),92	13283,(14, 90),68	13351,(14, 100),6	13357,(14, 105),2	13359,(14, 130),58	13417,(14, 135),2	13419,(14, 145),2	13421,(14, 175),24	13445,(14, 180),6	13451,(14, 185),2	13737,(19, 25),14	13751,(19, 40),4	13755,(19, 45),18	13773,(19, 55),2	13775,(19, 75),2	13777,(19, 85),16	13793,(19, 115),12	13805,(19, 120),28	13833,(19, 165),10	13843,(19, 170),4	13847,(19, 180),2	13849,(19, 195),34	17889,(174, 201),2	18167,(44, 201),2	18365,(99, 201),2	18403,(104, 201),2	18467,(114, 201),2	19205,(124, 201),2	19369,(144, 201),2	19511,(164, 201),2	19655,(199, 201),2	19693,(39, 201),2	19795,(69, 201),2	19833,(89, 201),2	19993,(94, 201),2	20061,(139, 201),2	20099,(149, 201),2	20299,(154, 201),2	20375,(159, 201),2	20495,(179, 201),2	20683,(194, 201),2	
99,(3, 25),2	101,(3, 30),8	109,(3, 49),2	111,(3, 59),6	117,(3, 60),2	119,(3, 90),2	121,(3, 42),12	133,(3, 52),8	141,(3, 65),12	153,(3, 102),2	155,(3, 105),2	157,(3, 117),2	159,(3, 120),6	165,(3, 155),2	169,(3, 69),28	197,(3, 70),24	221,(3, 109),2	223,(3, 189),2	225,(3, 56),14	239,(3, 87),36	275,(3, 124),18	293,(3, 130),38	331,(3, 142),8	339,(3, 150),20	359,(8, 165),2	361,(3, 64),86	447,(3, 177),24	471,(3, 187),4	479,(3, 194),12	491,(8, 30),14	505,(3, 97),62	567,(3, 119),124	691,(3, 132),96	787,(3, 169),54	841,(3, 192),364	1239,(8, 59),18	1257,(8, 79),4	1261,(8, 84),6	1267,(8, 109),6	1273,(8, 124),2	1275,(8, 129),12	1287,(8, 134),6	1293,(8, 169),2	1295,(8, 184),2	1297,(13, 39),2	1299,(13, 44),4	1303,(13, 74),2	1305,(13, 119),2	1307,(3, 46),26	1333,(3, 51),36	1369,(3, 77),1558	2927,(3, 121),10	2937,(3, 126),10	2947,(8, 46),222	3169,(8, 66),14	3183,(8, 71),34	3217,(8, 116),2	3219,(8, 126),2	3221,(8, 156),18	3239,(8, 176),8	3247,(8, 186),16	3263,(13, 54),6	3269,(13, 124),12	3281,(18, 64),4	3285,(18, 69),2	3287,(18, 184),2	3289,(18, 189),2	3291,(8, 52),2	3293,(8, 117),16	3309,(8, 164),150	3459,(8, 177),4	3463,(8, 182),2	3465,(8, 196),54	3519,(13, 26),6	3525,(13, 51),28	3553,(13, 61),8	3561,(13, 96),4	3565,(13, 101),14	3579,(13, 106),24	3603,(13, 121),2	3605,(13, 136),2	3607,(13, 144),14	3621,(13, 149),22	3643,(13, 156),2	3645,(13, 176),6	3651,(13, 181),10	3661,(13, 196),28	3689,(18, 49),66	3755,(18, 114),6	3817,(18, 84),62	3879,(18, 134),12	3891,(18, 164),8	3927,(18, 124),56	3983,(18, 194),128	4111,(18, 199),96	4339,(18, 26),6	4345,(18, 31),6	4351,(18, 81),4	4355,(18, 121),2	4357,(18, 151),2	4373,(13, 42),28	4401,(13, 62),4	4405,(13, 97),14	4419,(13, 112),22	4441,(13, 137),16	4457,(13, 142),20	4477,(13, 147),4	4481,(13, 152),70	4551,(13, 159),880	5431,(13, 167),2	5433,(13, 172),22	5455,(18, 22),142	5597,(18, 42),14	5611,(18, 62),2	5613,(18, 72),24	5637,(18, 77),14	5651,(18, 82),2	5653,(18, 87),2	5655,(18, 127),2	5657,(18, 137),42	5699,(18, 152),10	5709,(18, 172),2	5711,(18, 177),16	5727,(18, 182),4	5731,(18, 191),20	5751,(18, 197),48	5799,(43, 201),2	5801,(123, 201),2	5803,(33, 201),2	5805,(68, 201),2	5807,(118, 201),2	5809,(158, 201),2	5811,(38, 201),2	5813,(23, 201),2	5815,(103, 201),2	6423,(183, 201),2	10499,(53, 201),2	10643,(8, 175),2	10837,(143, 201),2	11203,(8, 55),4	11219,(8, 60),10	11429,(3, 160),194	11645,(8, 40),16	11661,(8, 85),6	11667,(8, 90),6	11673,(8, 115),8	11681,(58, 201),2	11701,(73, 201),2	11739,(83, 201),2	11771,(8, 105),32	11803,(8, 150),14	11817,(8, 185),16	11833,(8, 195),20	12183,(13, 25),2	12185,(13, 55),2	13061,(13, 65),18	13079,(13, 80),32	13111,(13, 85),12	13123,(13, 105),10	13133,(13, 110),10	13143,(13, 120),2	13145,(13, 130),2	13147,(13, 155),4	13151,(13, 190),18	13169,(13, 195),2	13171,(13, 200),20	13583,(18, 60),6	13589,(18, 115),10	13599,(18, 135),116	13715,(18, 155),6	13721,(18, 180),10	13731,(18, 185),2	13733,(18, 200),4	17821,(153, 201),2	18069,(198, 201),2	18139,(28, 201),2	18323,(93, 201),2	18389,(108, 201),2	18451,(113, 201),2	19209,(128, 201),2	19247,(133, 201),2	19377,(148, 201),2	19683,(48, 201),2	19791,(63, 201),2	19829,(78, 201),2	19867,(88, 201),2	20047,(98, 201),2	20085,(138, 201),2	20393,(163, 201),2	20431,(168, 201),2	20469,(173, 201),2	20507,(178, 201),2	20637,(188, 201),2	20681,(193, 201),2	
63,(2, 26),2	65,(2, 33),14	79,(2, 38),2	81,(2, 73),2	83,(2, 84),2	85,(2, 109),2	87,(2, 111),2	89,(2, 119),4	93,(2, 124),2	95,(2, 146),2	97,(2, 35),2	99,(2, 36),126	225,(2, 50),24	249,(2, 51),1058	1307,(2, 54),20	1327,(2, 103),16	1343,(2, 104),40	1383,(2, 118),16	1399,(2, 128),4	1403,(2, 133),20	1423,(2, 136),58	1481,(2, 138),22	1503,(2, 144),6	1509,(2, 151),40	1549,(2, 158),30	1579,(2, 159),2	1581,(2, 176),4	1585,(2, 183),8	1593,(2, 184),4	1597,(2, 188),72	1669,(2, 189),8	1677,(7, 33),26	1703,(7, 53),18	1721,(7, 54),86	1807,(7, 64),6	1813,(7, 68),2	1815,(7, 79),116	1931,(7, 98),62	1993,(7, 118),6	1999,(7, 128),8	2007,(7, 134),10	2017,(7, 138),4	2021,(7, 158),6	2027,(7, 169),40	2067,(7, 173),20	2087,(7, 174),2	2089,(7, 184),2	2091,(7, 199),2	2093,(12, 28),6	2099,(12, 38),6	2105,(12, 48),2	2107,(12, 54),2	2109,(12, 139),2	2111,(12, 179),2	2113,(17, 79),2	2115,(7, 61),338	2453,(7, 86),2	2455,(7, 91),16	2471,(7, 101),2	2473,(7, 104),146	2619,(7, 141),2	2621,(7, 156),18	2639,(7, 176),2	2641,(12, 59),12	2653,(12, 69),78	2731,(12, 84),8	2739,(12, 89),16	2755,(12, 103),40	2795,(12, 164),38	2833,(12, 178),14	2847,(12, 183),12	2859,(12, 189),8	2867,(17, 84),16	2883,(17, 104),8	2891,(12, 51),10	2901,(12, 86),2	2903,(12, 101),4	2907,(12, 106),6	2913,(12, 111),2	2915,(12, 119),136	3051,(12, 173),120	3171,(17, 114),24	3195,(17, 124),2	3197,(17, 133),2	3199,(17, 143),28	3227,(17, 144),12	3239,(17, 148),20	3259,(17, 159),4	3263,(12, 31),42	3305,(12, 76),36	3341,(12, 121),14	3355,(12, 126),18	3373,(12, 176),2	3375,(12, 186),2	3415,(17, 96),2	3417,(17, 103),344	3761,(17, 154),56	3817,(17, 178),94	3911,(17, 179),16	3989,(17, 41),8	3997,(17, 46),10	4007,(17, 71),8	4015,(17, 76),246	4261,(17, 101),46	4307,(17, 116),4	4311,(17, 141),28	4403,(17, 161),54	4457,(17, 176),46	4791,(67, 201),2	4793,(102, 201),2	5461,(92, 201),2	5499,(167, 201),2	5649,(42, 201),2	5751,(137, 201),2	5775,(172, 201),2	5817,(182, 201),2	6103,(107, 201),2	6141,(197, 201),2	6885,(27, 201),2	10459,(2, 60),2	10461,(2, 70),28	10489,(2, 80),2	10491,(2, 105),2	10493,(2, 115),38	10531,(2, 120),2	10533,(2, 125),4	10537,(2, 130),2	10539,(2, 140),44	10583,(2, 155),2	10633,(7, 155),2	10635,(7, 160),2	10637,(7, 185),6	10669,(87, 201),2	10707,(97, 201),2	10773,(7, 50),24	11177,(7, 135),16	11193,(7, 190),10	11251,(2, 180),54	11339,(52, 201),2	11623,(7, 140),22	11683,(62, 201),2	11719,(82, 201),2	12067,(12, 25),2	12099,(132, 201),2	12109,(12, 35),4	12113,(12, 45),16	12129,(12, 70),2	12131,(12, 90),8	12139,(12, 100),2	12141,(12, 140),4	12145,(12, 180),2	12149,(12, 95),16	12165,(12, 130),8	12173,(12, 145),4	12177,(12, 150),6	12197,(7, 35),630	12827,(12, 50),106	12933,(12, 195),128	13061,(147, 201),2	13453,(17, 40),2	13455,(17, 45),18	13473,(17, 55),2	13475,(17, 60),8	13483,(17, 75),20	13503,(17, 80),2	13505,(17, 85),2	13507,(17, 90),4	13511,(17, 100),6	13517,(17, 110),4	13521,(17, 115),6	13527,(17, 130),14	13541,(17, 155),8	13549,(17, 180),2	13551,(17, 185),26	13577,(17, 190),6	18017,(192, 201),2	18137,(22, 201),2	18175,(32, 201),2	18243,(72, 201),2	18281,(77, 201),2	18397,(112, 201),2	18661,(117, 201),2	19203,(122, 201),2	19241,(127, 201),2	19533,(177, 201),2	19659,(37, 201),2	19697,(47, 201),2	19735,(57, 201),2	20079,(142, 201),2	20117,(152, 201),2	20301,(157, 201),2	20389,(162, 201),2	20635,(187, 201),2	
1,(0, 2),24	25,(0, 3),24	49,(0, 4),24	73,(0, 5),24	97,(0, 7),24	121,(0, 8),24	145,(0, 9),24	169,(0, 10),24	193,(0, 12),24	217,(0, 13),24	241,(0, 14),24	265,(0, 15),24	289,(0, 17),24	313,(0, 18),24	337,(0, 19),24	361,(0, 20),24	385,(6, 25),26	411,(6, 27),8	419,(6, 30),6	425,(6, 33),40	465,(6, 34),14	479,(6, 37),26	505,(6, 50),9954	10459,(6, 53),2	10461,(6, 54),40	10501,(6, 57),62	10563,(6, 58),28	10591,(6, 59),10	10601,(6, 70),2	10603,(6, 72),18	10621,(6, 73),6	10627,(6, 78),2	10629,(6, 87),2	10631,(6, 94),8	10639,(6, 97),6	10645,(6, 100),124	10769,(6, 105),4	10773,(6, 114),12	10785,(6, 122),2	10787,(6, 134),4	10791,(6, 142),4	10795,(6, 143),4	10799,(6, 145),378	11177,(6, 148),10	11187,(6, 152),24	11211,(6, 155),8	11219,(6, 157),2	11221,(6, 177),2	11223,(6, 178),6	11229,(6, 180),22	11251,(11, 22),24	11275,(11, 24),10	11285,(11, 29),2	11287,(11, 34),8	11295,(11, 52),6	11301,(11, 72),4	11305,(11, 30),124	11429,(11, 39),14	11443,(11, 47),36	11479,(11, 48),60	11539,(11, 58),84	11623,(11, 62),20	11643,(11, 64),16	11659,(11, 73),4	11663,(11, 77),2	11665,(11, 82),2	11667,(11, 83),12	11679,(11, 84),6	11685,(11, 89),2	11687,(11, 90),6	11693,(11, 98),2	11695,(11, 99),2	11697,(11, 117),2	11699,(11, 119),38	11737,(11, 132),324	12061,(11, 133),8	12069,(11, 135),40	12109,(11, 139),38	12147,(11, 140),2	12149,(11, 142),22	12171,(11, 147),6	12177,(11, 149),10	12187,(11, 150),10	12197,(11, 152),5584	17781,(11, 153),2	17783,(11, 157),18	17801,(11, 159),20	17821,(11, 162),10	17831,(11, 173),2	17833,(11, 174),18	17851,(11, 190),118	17969,(11, 192),10	17979,(11, 193),48	18027,(11, 198),4	18031,(1, 22),68	18099,(1, 28),2	18101,(1, 32),10	18111,(1, 37),14	18125,(1, 40),2	18127,(1, 44),2	18129,(1, 45),2	18131,(1, 50),2	18133,(1, 57),2	18135,(1, 60),40	18175,(1, 69),8	18183,(1, 72),22	18205,(1, 75),28	18233,(1, 77),2	18235,(1, 78),44	18279,(1, 88),4	18283,(1, 93),2	18285,(1, 98),26	18311,(1, 99),16	18327,(1, 100),8	18335,(1, 104),14	18349,(1, 108),2	18351,(1, 110),6	18357,(1, 112),2	18359,(1, 113),54	18413,(1, 114),16	18429,(1, 117),194	18623,(1, 122),542	19165,(1, 124),2	19167,(1, 127),2	19169,(1, 128),2	19171,(1, 133),10	19181,(1, 142),18	19199,(1, 144),132	19331,(1, 145),6	19337,(1, 148),2	19339,(1, 149),4	19343,(1, 154),86	19429,(1, 157),6	19435,(1, 164),38	19473,(1, 177),22	19495,(1, 178),80	19575,(1, 180),8	19583,(1, 188),28	19611,(1, 195),4	19615,(1, 199),2	19617,(16, 37),4	19621,(16, 39),20	19641,(16, 47),2	19643,(16, 48),2	19645,(16, 50),2	19647,(16, 55),10	19657,(16, 57),34	19691,(16, 63),62	19753,(16, 65),2	19755,(16, 69),2	19757,(16, 78),2	19759,(16, 85),2	19761,(16, 88),6	19767,(16, 89),26	19793,(16, 90),2	19795,(16, 94),160	19955,(16, 98),54	20009,(16, 135),4	20013,(16, 138),8	20021,(16, 139),2	20023,(16, 142),18	20041,(16, 149),6	20047,(16, 152),14	20061,(16, 154),200	20261,(16, 157),2	20263,(16, 159),74	20337,(16, 160),12	20349,(16, 162),2	20351,(16, 163),4	20355,(16, 168),2	20357,(16, 173),2	20359,(16, 175),86	20445,(16, 178),6	20451,(16, 179),6	20457,(16, 180),4	20461,(16, 187),136	20597,(16, 188),2	20599,(16, 193),44	20643,(16, 194),2	20645,(16, 195),56	20701,(16, 200),12	
