272
# CPU
46,11,18	121,13,18	184,17,18	
43,9,18	82,12,18	178,16,18	250,20,18	
52,6,18	76,7,18	118,18,18	154,14,18	
4,2,18	22,4,18	40,15,18	58,19,18	76,5,18	271,21,1	
0,0,1	1,1,18	19,8,18	37,10,18	55,3,18	
# Incoming
43,(2, 11),3	82,(2, 13),39	178,(2, 17),6	
40,(2, 9),3	46,(2, 12),36	154,(2, 16),24	184,(2, 20),66	
49,(1, 6),3	52,(1, 7),24	76,(1, 18),42	121,(2, 14),33	
1,(0, 2),3	19,(1, 5),30	61,(9, 21),3	64,(11, 21),3	70,(6, 21),3	94,(7, 21),3	100,(12, 21),3	118,(8, 21),3	121,(10, 21),3	124,(3, 21),3	136,(18, 21),3	139,(13, 21),3	172,(14, 21),3	196,(16, 21),3	202,(17, 21),3	268,(20, 21),3	
22,(2, 3),18	
# Outgoing
64,(11, 21),3	139,(13, 21),3	202,(17, 21),3	
61,(9, 21),3	100,(12, 21),3	196,(16, 21),3	268,(20, 21),3	
70,(6, 21),3	94,(7, 21),3	136,(18, 21),3	172,(14, 21),3	
22,(2, 3),18	40,(2, 9),3	43,(2, 11),3	46,(2, 12),36	82,(2, 13),39	121,(2, 14),33	154,(2, 16),24	178,(2, 17),6	184,(2, 20),66	
1,(0, 2),3	19,(1, 5),30	49,(1, 6),3	52,(1, 7),24	76,(1, 18),42	118,(8, 21),3	121,(10, 21),3	124,(3, 21),3	
