10158
# CPU
29,2,22	51,21,22	73,5,22	489,19,22	511,26,22	8333,28,22	9625,38,22	9647,15,22	9669,32,22	9705,33,22	9745,37,22	9767,40,22	9789,6,22	9811,7,22	9833,8,22	9855,9,22	9877,18,22	9899,22,22	9921,27,22	9943,39,22	10157,41,1	
0,0,1	1,1,22	23,3,22	45,4,22	67,30,22	89,16,22	111,36,22	133,10,22	155,13,22	177,12,22	199,24,22	221,11,22	243,23,22	265,20,22	287,34,22	309,35,22	331,14,22	353,17,22	375,25,22	397,29,22	419,31,22	
# Incoming
1,(0, 2),28	29,(1, 5),32	61,(1, 7),244	305,(1, 8),4	309,(1, 9),40	349,(1, 15),12	361,(1, 19),128	489,(1, 22),4	493,(1, 26),4	497,(1, 27),7572	8069,(1, 28),264	8333,(1, 33),844	9177,(1, 37),444	9621,(1, 38),4	9625,(3, 6),4	9629,(3, 15),4	9633,(3, 27),24	9657,(3, 32),8	9665,(3, 33),40	9705,(3, 37),40	9745,(3, 40),8	9753,(4, 6),8	9761,(4, 7),40	9801,(4, 8),28	9829,(4, 9),4	9833,(4, 18),4	9837,(4, 22),40	9877,(4, 27),4	9881,(4, 39),4	9885,(30, 41),16	9901,(16, 41),16	9917,(36, 41),16	9933,(10, 41),16	9949,(13, 41),16	9965,(12, 41),16	9981,(24, 41),16	9997,(11, 41),16	10013,(23, 41),16	10029,(20, 41),16	10045,(34, 41),16	10061,(35, 41),16	10077,(14, 41),16	10093,(17, 41),16	10109,(25, 41),16	10125,(29, 41),16	10141,(31, 41),16	
51,(2, 10),4	55,(2, 12),4	59,(2, 13),4	63,(2, 14),44	107,(2, 17),4	111,(2, 25),4	115,(2, 29),4	119,(2, 31),8	
# Outgoing
51,(2, 10),4	55,(2, 12),4	59,(2, 13),4	63,(2, 14),44	107,(2, 17),4	111,(2, 25),4	115,(2, 29),4	119,(2, 31),8	
1,(0, 2),28	29,(1, 5),32	61,(1, 7),244	305,(1, 8),4	309,(1, 9),40	349,(1, 15),12	361,(1, 19),128	489,(1, 22),4	493,(1, 26),4	497,(1, 27),7572	8069,(1, 28),264	8333,(1, 33),844	9177,(1, 37),444	9621,(1, 38),4	9625,(3, 6),4	9629,(3, 15),4	9633,(3, 27),24	9657,(3, 32),8	9665,(3, 33),40	9705,(3, 37),40	9745,(3, 40),8	9753,(4, 6),8	9761,(4, 7),40	9801,(4, 8),28	9829,(4, 9),4	9833,(4, 18),4	9837,(4, 22),40	9877,(4, 27),4	9881,(4, 39),4	9885,(30, 41),16	9901,(16, 41),16	9917,(36, 41),16	9933,(10, 41),16	9949,(13, 41),16	9965,(12, 41),16	9981,(24, 41),16	9997,(11, 41),16	10013,(23, 41),16	10029,(20, 41),16	10045,(34, 41),16	10061,(35, 41),16	10077,(14, 41),16	10093,(17, 41),16	10109,(25, 41),16	10125,(29, 41),16	10141,(31, 41),16	
