205
# CPU
0,21,1	1,7,7	8,8,7	15,11,7	22,16,7	29,4,7	36,15,7	43,19,7	50,9,7	57,10,7	64,5,7	71,18,7	78,6,7	85,13,7	92,14,7	99,12,7	106,1,7	197,2,7	204,0,1	
82,17,7	
28,3,7	55,20,7	
# Incoming
35,(3, 1),6	62,(20, 1),33	95,(17, 2),102	
55,(21, 17),27	
1,(21, 3),27	28,(21, 20),27	
# Outgoing
1,(21, 3),27	28,(21, 20),27	55,(21, 17),27	
95,(17, 2),102	
35,(3, 1),6	62,(20, 1),33	
