119
# CPU
0,41,1	1,33,3	4,5,3	7,7,3	10,8,3	13,9,3	16,34,3	19,29,3	22,28,3	25,39,3	28,17,3	31,19,3	34,21,3	37,35,3	40,30,3	43,23,3	46,37,3	49,36,3	52,22,3	55,16,3	58,12,3	61,25,3	64,15,3	67,6,3	70,40,3	73,38,3	76,26,3	79,11,3	82,1,3	85,27,3	88,18,3	91,24,3	94,32,3	97,13,3	100,10,3	103,3,3	106,14,3	109,31,3	112,2,3	115,4,3	118,0,1	




61,20,3	




# Incoming
64,(20, 4),6	




1,(41, 20),60	




# Outgoing
1,(41, 20),60	




64,(20, 4),6	




