851
# CPU
562,34,4	568,14,4	574,24,4	
613,23,4	730,33,4	766,13,4	
553,32,4	557,12,4	583,22,4	
470,21,4	530,31,4	542,11,4	
514,10,4	526,20,4	547,30,4	559,40,4	
203,9,4	404,19,4	554,29,4	838,39,4	
10,4,4	14,18,4	26,8,4	185,38,4	479,28,4	
7,3,4	11,17,4	478,7,4	484,27,4	583,37,4	
4,2,4	92,6,4	209,16,4	529,26,4	625,36,4	
0,0,1	1,1,4	20,5,4	122,25,4	548,15,4	772,35,4	850,41,1	
# Incoming
559,(1, 34),3	562,(3, 14),6	568,(4, 24),6	
553,(1, 33),6	559,(2, 23),54	613,(3, 33),117	730,(4, 13),36	
547,(1, 32),6	553,(3, 12),3	568,(3, 22),15	
404,(3, 21),66	479,(3, 31),51	530,(4, 11),12	
478,(1, 10),36	514,(1, 20),12	529,(1, 30),18	547,(2, 40),12	
92,(3, 9),111	209,(3, 19),195	548,(4, 29),6	772,(3, 39),66	
7,(0, 4),3	20,(2, 8),6	122,(2, 38),63	470,(3, 28),9	
4,(0, 3),3	10,(1, 7),468	478,(2, 27),6	562,(1, 37),21	
1,(0, 2),3	11,(3, 6),81	203,(3, 16),6	526,(1, 26),3	574,(4, 36),51	
8,(2, 5),12	26,(2, 25),96	185,(6, 41),6	207,(9, 41),6	213,(16, 41),6	408,(19, 41),6	474,(21, 41),6	518,(10, 41),6	530,(17, 41),6	536,(7, 41),6	542,(4, 15),6	548,(20, 41),6	554,(18, 41),6	560,(8, 41),6	566,(31, 41),6	572,(11, 41),6	583,(27, 41),6	589,(30, 41),6	595,(32, 41),6	601,(29, 41),6	607,(12, 41),6	613,(26, 41),6	619,(40, 41),6	625,(38, 41),6	631,(28, 41),6	637,(34, 41),6	643,(14, 41),6	649,(24, 41),6	655,(22, 41),6	661,(23, 41),6	667,(36, 41),6	730,(3, 35),42	772,(33, 41),6	778,(13, 41),6	838,(37, 41),6	844,(39, 41),6	
# Outgoing
637,(34, 41),6	643,(14, 41),6	649,(24, 41),6	
661,(23, 41),6	772,(33, 41),6	778,(13, 41),6	
595,(32, 41),6	607,(12, 41),6	655,(22, 41),6	
474,(21, 41),6	566,(31, 41),6	572,(11, 41),6	
518,(10, 41),6	548,(20, 41),6	589,(30, 41),6	619,(40, 41),6	
207,(9, 41),6	408,(19, 41),6	601,(29, 41),6	844,(39, 41),6	
530,(4, 11),12	542,(4, 15),6	548,(4, 29),6	554,(18, 41),6	560,(8, 41),6	568,(4, 24),6	574,(4, 36),51	625,(38, 41),6	631,(28, 41),6	730,(4, 13),36	
11,(3, 6),81	92,(3, 9),111	203,(3, 16),6	209,(3, 19),195	404,(3, 21),66	470,(3, 28),9	479,(3, 31),51	530,(17, 41),6	536,(7, 41),6	553,(3, 12),3	562,(3, 14),6	568,(3, 22),15	583,(27, 41),6	613,(3, 33),117	730,(3, 35),42	772,(3, 39),66	838,(37, 41),6	
8,(2, 5),12	20,(2, 8),6	26,(2, 25),96	122,(2, 38),63	185,(6, 41),6	213,(16, 41),6	478,(2, 27),6	547,(2, 40),12	559,(2, 23),54	613,(26, 41),6	667,(36, 41),6	
1,(0, 2),3	4,(0, 3),3	7,(0, 4),3	10,(1, 7),468	478,(1, 10),36	514,(1, 20),12	526,(1, 26),3	529,(1, 30),18	547,(1, 32),6	553,(1, 33),6	559,(1, 34),3	562,(1, 37),21	
