1342
# CPU
97,9,1	101,14,1	103,15,1	111,16,1	125,19,1	238,6,1	256,7,1	274,10,1	282,11,1	284,12,1	286,13,1	314,17,1	316,18,1	338,20,1	
11,2,1	12,5,1	89,8,1	1341,21,1	
0,0,1	1,1,1	2,3,1	224,4,1	
# Incoming
89,(1, 9),8	97,(1, 10),2	99,(1, 14),2	101,(1, 15),2	103,(1, 16),8	111,(1, 19),14	224,(2, 6),14	238,(2, 7),18	256,(2, 10),18	274,(2, 11),8	282,(2, 12),2	284,(2, 13),2	286,(2, 17),28	314,(2, 18),2	316,(2, 20),22	
1,(0, 2),10	11,(1, 8),78	125,(3, 21),76	201,(9, 21),76	277,(14, 21),76	353,(15, 21),76	429,(16, 21),76	505,(19, 21),76	581,(4, 21),76	657,(6, 21),76	733,(7, 21),76	809,(10, 21),76	885,(11, 21),76	961,(12, 21),76	1037,(13, 21),76	1113,(17, 21),76	1189,(18, 21),76	1265,(20, 21),76	
12,(2, 4),212	
# Outgoing
201,(9, 21),76	277,(14, 21),76	353,(15, 21),76	429,(16, 21),76	505,(19, 21),76	657,(6, 21),76	733,(7, 21),76	809,(10, 21),76	885,(11, 21),76	961,(12, 21),76	1037,(13, 21),76	1113,(17, 21),76	1189,(18, 21),76	1265,(20, 21),76	
12,(2, 4),212	224,(2, 6),14	238,(2, 7),18	256,(2, 10),18	274,(2, 11),8	282,(2, 12),2	284,(2, 13),2	286,(2, 17),28	314,(2, 18),2	316,(2, 20),22	
1,(0, 2),10	11,(1, 8),78	89,(1, 9),8	97,(1, 10),2	99,(1, 14),2	101,(1, 15),2	103,(1, 16),8	111,(1, 19),14	125,(3, 21),76	581,(4, 21),76	
