12217
# CPU
0,0,1	1,1,18	19,2,18	37,15,18	55,5,18	73,3,18	91,12,18	1388,33,18	1466,129,18	1554,90,18	1572,79,18	1595,50,18	1677,117,18	1695,71,18	1713,99,18	1731,110,18	1774,88,18	1792,89,18	1810,121,18	1828,145,18	1846,156,18	1955,113,18	1973,138,18	1991,146,18	2009,178,18	2078,26,18	2096,27,18	2114,31,18	2132,70,18	2150,77,18	2168,80,18	2186,85,18	2204,100,18	2222,126,18	2240,44,18	2258,101,18	2276,120,18	2294,143,18	2320,132,18	2341,141,18	2365,148,18	2383,151,18	2401,153,18	2419,154,18	2437,166,18	2455,170,18	2473,173,18	2491,189,18	2509,195,18	2527,198,18	2545,199,18	
2,4,18	20,7,18	38,10,18	56,19,18	74,20,18	8091,179,18	8586,43,18	8679,181,18	8710,23,18	8728,29,18	8774,61,18	8792,64,18	9313,119,18	9344,157,18	9362,161,18	9387,21,18	9426,30,18	9467,36,18	9485,59,18	9509,66,18	9527,67,18	9545,74,18	9620,116,18	9638,124,18	9656,144,18	9674,149,18	9692,171,18	9710,180,18	9773,24,18	9802,35,18	9820,37,18	9838,40,18	9856,47,18	9874,55,18	9892,68,18	9910,78,18	9928,84,18	9946,104,18	9974,53,18	9992,62,18	10010,91,18	10028,96,18	10046,98,18	10064,115,18	10082,122,18	10100,125,18	10118,134,18	10136,135,18	10154,184,18	10172,187,18	
3,6,18	21,9,18	39,11,18	57,13,18	75,18,18	1851,69,18	2003,174,18	8670,150,18	8688,182,18	8738,45,18	8756,48,18	8781,76,18	9207,97,18	9342,142,18	9360,169,18	9468,38,18	9486,39,18	9504,60,18	9522,65,18	9540,87,18	9558,93,18	9576,106,18	9594,112,18	9630,131,18	9666,155,18	9684,164,18	9707,186,18	9752,194,18	9770,22,18	9793,32,18	9817,46,18	9994,75,18	10012,92,18	10035,105,18	10053,107,18	10071,108,18	10089,109,18	10107,111,18	10125,114,18	10143,123,18	10161,128,18	10179,136,18	10197,137,18	10215,160,18	10233,167,18	10251,168,18	10269,177,18	10287,192,18	10305,193,18	10323,197,18	
5,8,18	23,14,18	41,16,18	59,17,18	10207,200,18	10247,72,18	10497,162,18	10797,57,18	10835,73,18	10882,140,18	10910,152,18	11047,158,18	11077,159,18	11120,172,18	11370,191,18	11391,51,18	11409,52,18	11427,54,18	11625,63,18	11658,94,18	11676,147,18	11694,163,18	11712,25,18	11730,28,18	11748,34,18	11766,41,18	11784,42,18	11802,49,18	11820,56,18	11838,58,18	11856,81,18	11874,82,18	11892,83,18	11910,86,18	11928,95,18	11946,102,18	11964,103,18	11982,118,18	12000,127,18	12018,130,18	12036,133,18	12054,139,18	12072,165,18	12090,175,18	12108,176,18	12126,183,18	12144,185,18	12162,188,18	12180,190,18	12198,196,18	12216,201,1	
# Incoming
20,(4, 27),22	42,(4, 31),22	64,(6, 44),2	91,(4, 44),3	109,(4, 80),11	120,(4, 85),3	124,(4, 89),1	125,(4, 90),81	206,(4, 100),1	207,(4, 101),3	210,(6, 71),1	211,(6, 77),1	212,(6, 79),8	220,(6, 85),1	221,(6, 126),1	222,(6, 146),1	223,(4, 113),14	237,(6, 120),3	240,(4, 117),5	245,(4, 121),7	252,(6, 99),4	256,(6, 143),2	258,(4, 126),6	264,(6, 173),1	265,(4, 129),5	270,(4, 132),1	271,(4, 138),6	277,(6, 189),1	278,(4, 146),2	280,(4, 154),1	281,(4, 156),1	282,(6, 80),7	289,(6, 117),6	295,(6, 148),2	297,(6, 156),2	299,(6, 195),3	302,(4, 170),1	303,(4, 173),33	336,(6, 129),8	344,(8, 27),5	349,(4, 178),25	374,(6, 101),16	390,(8, 77),10	400,(8, 101),1	401,(8, 126),1	402,(4, 195),8	410,(4, 198),9	419,(4, 199),10	429,(6, 132),13	442,(6, 138),39	481,(6, 170),15	496,(6, 198),16	512,(8, 80),15	527,(8, 85),5	532,(8, 88),4	536,(8, 90),4	540,(8, 110),4	544,(8, 113),4	548,(8, 121),2	550,(8, 129),4	554,(7, 31),7	561,(7, 33),7	568,(7, 50),1	569,(7, 70),1	570,(7, 79),1	571,(7, 85),11	582,(7, 99),2	584,(7, 101),23	607,(7, 110),3	610,(9, 26),4	614,(9, 31),7	621,(9, 33),4	625,(9, 44),1	626,(7, 120),1	627,(7, 121),20	647,(8, 146),2	649,(8, 166),17	666,(8, 170),2	668,(8, 173),12	680,(8, 178),6	686,(8, 195),8	694,(8, 199),1	695,(7, 126),19	714,(7, 129),8	722,(7, 138),2	724,(7, 145),5	729,(7, 146),3	732,(7, 148),5	737,(7, 151),7	744,(7, 154),4	748,(7, 156),1	749,(7, 166),6	755,(9, 27),25	780,(9, 50),1	781,(9, 79),8	789,(9, 85),3	792,(9, 89),5	797,(9, 99),1	798,(9, 110),4	802,(9, 120),24	826,(9, 129),5	831,(9, 141),6	837,(9, 143),5	842,(9, 148),23	865,(9, 151),1	866,(9, 156),11	877,(9, 166),6	883,(9, 189),1	884,(9, 198),1	885,(14, 26),1	886,(14, 27),1	887,(14, 31),2	889,(14, 33),14	903,(14, 50),10	913,(14, 70),1	914,(14, 71),10	924,(14, 80),1	925,(14, 88),16	941,(14, 90),1	942,(14, 99),1	943,(14, 100),1	944,(11, 26),6	950,(11, 31),1	951,(11, 33),2	953,(11, 50),5	958,(11, 70),2	960,(11, 80),1	961,(14, 110),7	968,(14, 113),18	986,(14, 120),13	999,(14, 121),12	1011,(11, 71),2	1013,(11, 99),3	1016,(14, 146),3	1019,(11, 145),1	1020,(14, 151),1	1021,(14, 156),16	1037,(14, 166),9	1046,(11, 100),12	1058,(11, 195),1	1059,(14, 178),19	1078,(14, 198),2	1080,(11, 88),17	1097,(14, 189),9	1106,(11, 90),46	1152,(11, 110),10	1162,(11, 117),8	1170,(11, 126),2	1172,(11, 146),3	1175,(11, 199),1	1176,(10, 33),3	1179,(10, 89),4	1183,(10, 90),4	1187,(10, 99),7	1194,(10, 100),27	1221,(10, 101),3	1224,(10, 110),7	1231,(10, 141),12	1243,(10, 145),2	1245,(10, 146),1	1246,(10, 170),7	1253,(10, 195),2	1255,(10, 198),1	1256,(10, 199),2	1258,(16, 26),1	1259,(16, 27),3	1262,(16, 33),1	1263,(16, 50),8	1271,(16, 79),2	1273,(16, 80),1	1274,(16, 89),1	1275,(19, 70),1	1276,(19, 77),2	1278,(19, 79),1	1279,(19, 100),1	1280,(19, 110),1	1281,(19, 126),1	1282,(11, 132),14	1296,(13, 26),1	1297,(10, 148),57	1354,(16, 85),10	1364,(16, 90),4	1368,(16, 117),2	1370,(16, 126),1	1371,(16, 129),2	1373,(16, 146),1	1374,(16, 151),6	1380,(16, 178),1	1381,(16, 195),1	1382,(17, 26),3	1385,(17, 33),3	1388,(17, 50),1	1389,(17, 71),1	1390,(17, 110),2	1392,(11, 151),12	1404,(13, 31),4	1408,(17, 27),12	1420,(17, 132),1	1421,(19, 141),3	1424,(11, 143),26	1450,(17, 77),3	1453,(17, 85),6	1459,(17, 89),5	1464,(17, 129),2	1466,(10, 189),30	1496,(11, 166),5	1501,(11, 178),18	1519,(19, 31),27	1546,(19, 90),8	1554,(13, 27),9	1563,(13, 44),3	1566,(13, 77),1	1567,(13, 79),1	1568,(19, 101),24	1592,(13, 50),3	1595,(13, 71),39	1634,(13, 101),5	1639,(13, 117),1	1640,(13, 121),7	1647,(13, 126),1	1648,(13, 146),1	1649,(19, 113),13	1662,(19, 117),15	1677,(19, 145),1	1678,(19, 173),1	1679,(19, 189),1	1680,(20, 27),6	1686,(20, 44),2	1688,(20, 71),1	1689,(20, 99),1	1690,(20, 110),1	1691,(13, 100),25	1716,(13, 148),9	1725,(13, 153),2	1727,(13, 156),1	1728,(13, 189),5	1733,(13, 195),4	1737,(19, 153),19	1756,(13, 198),3	1759,(20, 31),6	1765,(20, 80),3	1768,(20, 85),3	1771,(20, 88),3	1774,(20, 89),9	1783,(20, 101),5	1788,(20, 132),1	1789,(20, 148),1	1790,(17, 113),5	1795,(17, 121),7	1802,(17, 145),2	1804,(17, 151),1	1805,(17, 153),3	1808,(17, 154),2	1810,(17, 156),1	1811,(17, 166),1	1812,(17, 195),1	1813,(17, 198),6	1819,(17, 199),1	1823,(19, 195),42	1865,(13, 132),54	1919,(13, 141),29	1948,(20, 113),7	1955,(20, 126),3	1958,(20, 138),9	1967,(20, 146),6	1973,(20, 153),1	1974,(20, 178),1	1975,(20, 195),1	1983,(13, 166),23	2006,(13, 170),30	2036,(17, 80),41	2077,(18, 26),1	2078,(18, 27),1	2079,(18, 31),4	2083,(18, 70),5	2088,(18, 77),8	2096,(18, 80),6	2102,(18, 85),2	2104,(18, 100),1	2105,(17, 126),25	2130,(20, 151),16	2146,(20, 166),16	2162,(20, 170),12	2174,(18, 44),26	2200,(18, 101),1	2201,(18, 120),1	2202,(18, 143),1	2317,(18, 132),3	2334,(18, 141),7	2341,(18, 148),24	2365,(18, 151),1	2366,(18, 153),11	2377,(18, 154),9	2386,(18, 166),1	2387,(18, 170),2	2406,(18, 173),17	2447,(18, 189),4	2451,(18, 195),41	2492,(18, 198),1	2493,(18, 199),3	
1,(0, 4),1	3,(0, 7),1	6,(0, 10),1	13,(0, 19),1	14,(0, 20),1	19,(1, 21),2	21,(1, 23),1	22,(1, 24),1	23,(6, 21),7	30,(6, 24),8	38,(6, 30),1	39,(6, 35),1	40,(6, 37),4	44,(6, 40),5	49,(6, 47),7	56,(6, 55),5	61,(6, 59),1	62,(6, 68),1	63,(6, 91),1	66,(6, 62),46	112,(6, 64),21	133,(6, 66),11	144,(6, 84),11	155,(6, 96),1	156,(6, 122),4	160,(6, 134),3	163,(6, 135),8	171,(6, 144),13	184,(6, 149),3	187,(6, 157),6	193,(6, 171),14	207,(6, 187),1	208,(8, 23),7	215,(8, 24),3	218,(8, 40),4	222,(8, 59),1	223,(9, 29),5	228,(9, 30),1	229,(8, 47),21	250,(9, 37),1	251,(8, 53),3	254,(8, 55),5	259,(8, 61),1	260,(8, 74),1	261,(9, 40),1	262,(9, 66),1	263,(8, 98),2	265,(9, 78),1	266,(9, 84),1	267,(9, 91),1	268,(9, 98),6	274,(9, 104),2	276,(11, 35),1	277,(8, 84),6	283,(8, 115),2	285,(8, 116),7	292,(8, 122),7	299,(8, 125),1	300,(14, 23),1	301,(14, 30),1	302,(9, 36),18	320,(9, 53),13	333,(9, 134),2	335,(11, 37),1	336,(14, 24),3	339,(14, 35),1	340,(14, 40),1	341,(14, 59),1	342,(14, 61),1	343,(14, 66),1	344,(9, 115),4	348,(11, 61),1	349,(8, 124),12	361,(8, 144),23	384,(14, 43),4	388,(14, 74),1	389,(14, 116),1	390,(9, 43),24	414,(9, 122),10	424,(9, 144),3	427,(11, 47),2	469,(8, 179),9	505,(14, 91),4	509,(14, 171),2	511,(14, 181),1	512,(9, 74),26	538,(9, 125),6	544,(9, 157),9	553,(11, 64),1	554,(8, 135),93	647,(9, 180),9	656,(9, 184),8	664,(11, 21),10	674,(11, 30),18	692,(11, 55),2	694,(11, 62),9	703,(11, 66),1	704,(11, 68),13	717,(11, 84),7	724,(11, 104),9	733,(11, 124),3	736,(14, 62),42	778,(14, 67),44	827,(14, 78),16	861,(14, 96),6	877,(14, 125),4	885,(11, 116),12	897,(11, 125),3	900,(13, 21),2	902,(13, 66),2	904,(1, 29),2	906,(1, 30),1	907,(1, 37),5	912,(13, 67),1	913,(13, 84),2	915,(1, 40),10	925,(1, 43),1	926,(13, 36),5	931,(1, 47),1	932,(13, 115),1	933,(1, 53),2	935,(1, 55),1	936,(1, 61),93	1029,(1, 62),7	1036,(1, 64),13	1049,(14, 115),10	1059,(13, 68),3	1062,(13, 116),1	1063,(13, 119),1	1064,(1, 66),9	1073,(13, 125),1	1074,(13, 161),1	1075,(1, 74),5	1080,(16, 29),1	1081,(1, 78),21	1102,(13, 171),1	1103,(1, 84),9	1112,(14, 98),72	1184,(14, 124),13	1197,(14, 179),3	1200,(14, 184),14	1214,(16, 24),8	1222,(16, 40),2	1224,(16, 55),2	1226,(16, 62),1	1227,(16, 67),2	1229,(16, 68),1	1230,(16, 104),3	1233,(16, 119),1	1234,(1, 115),16	1250,(1, 116),1	1251,(1, 119),9	1260,(1, 122),1	1275,(16, 124),1	1276,(1, 124),8	1284,(16, 134),1	1286,(1, 134),1	1287,(1, 135),5	1292,(17, 23),1	1294,(1, 149),3	1297,(11, 115),75	1372,(11, 135),20	1392,(16, 61),9	1401,(16, 122),4	1405,(16, 181),2	1407,(17, 61),1	1408,(1, 157),24	1434,(17, 64),1	1435,(1, 161),1	1436,(16, 149),12	1448,(17, 53),2	1450,(11, 144),26	1476,(11, 180),7	1483,(11, 184),7	1490,(16, 21),23	1513,(16, 53),112	1625,(16, 66),26	1651,(13, 37),10	1661,(13, 91),4	1665,(13, 184),1	1666,(16, 179),7	1673,(13, 23),18	1693,(16, 184),62	1755,(16, 187),13	1768,(13, 30),17	1785,(13, 43),21	1806,(13, 53),9	1815,(13, 96),15	1830,(13, 104),3	1833,(13, 122),13	1846,(13, 124),4	1850,(13, 135),2	1852,(13, 180),8	1860,(17, 35),6	1907,(17, 40),4	1911,(17, 43),23	1934,(17, 68),9	1948,(13, 144),35	1983,(17, 66),17	2000,(17, 96),3	2003,(17, 104),8	2028,(17, 119),6	2034,(17, 122),2	2036,(18, 23),1	2037,(18, 24),11	2048,(18, 53),4	2052,(18, 55),1	2053,(18, 61),1	2054,(18, 66),6	2060,(18, 74),1	2061,(18, 84),1	2062,(18, 91),6	2068,(18, 98),1	2069,(18, 104),4	2073,(18, 125),1	2077,(17, 115),16	2093,(17, 124),7	2100,(17, 125),5	2105,(18, 67),18	2123,(18, 115),7	2130,(17, 134),10	2140,(18, 96),11	2151,(18, 122),9	2161,(17, 149),4	2165,(17, 157),1	2166,(17, 161),5	2171,(17, 171),1	2185,(17, 179),1	2186,(17, 180),1	2187,(17, 181),1	2202,(17, 187),1	2203,(18, 43),52	2255,(18, 59),27	2282,(18, 64),30	2312,(18, 124),5	2320,(18, 134),14	2389,(18, 171),17	2423,(18, 181),9	2432,(18, 187),15	7188,(1, 179),39	7227,(1, 180),2	7229,(1, 181),25	7255,(1, 184),7	7296,(2, 21),1	7303,(2, 24),15	7320,(2, 36),1	7368,(2, 53),1	7369,(2, 59),10	7380,(2, 61),7	7388,(2, 67),5	7393,(2, 74),1	7395,(2, 78),1	7399,(2, 91),1	7400,(2, 98),3	7403,(2, 104),42	7502,(2, 115),1	7503,(2, 116),1	7504,(2, 119),1	7505,(2, 122),3	7512,(2, 135),20	7540,(2, 144),5	7545,(2, 149),1	7564,(2, 157),5	7571,(2, 171),2	7575,(2, 181),1	7590,(2, 184),1	7591,(15, 35),1	7968,(2, 161),56	8066,(2, 179),25	8546,(15, 21),9	8555,(15, 24),8	8563,(15, 30),18	8581,(15, 43),5	8590,(15, 47),12	8602,(15, 64),3	8605,(15, 67),1	8619,(15, 115),1	8620,(15, 116),6	8626,(15, 119),1	8631,(15, 125),2	8643,(15, 134),15	8664,(15, 149),1	8674,(15, 161),1	8678,(15, 181),1	8685,(15, 187),3	8691,(5, 21),1	8709,(5, 23),1	8710,(5, 29),18	8728,(5, 37),1	8731,(5, 40),6	8738,(5, 47),16	8755,(5, 55),12	8767,(5, 61),7	8774,(5, 64),3	9144,(5, 62),14	9158,(5, 78),18	9176,(5, 84),15	9191,(5, 91),12	9307,(5, 115),3	9310,(5, 116),2	9312,(5, 119),1	9313,(5, 122),1	9330,(5, 125),5	9342,(5, 149),1	9343,(5, 157),1	9344,(5, 161),1	9350,(5, 180),4	9386,(3, 21),1	9409,(3, 24),4	9413,(3, 30),13	9448,(3, 35),15	9463,(3, 36),4	9469,(3, 40),2	9471,(3, 53),1	9472,(3, 59),5	9478,(3, 62),5	9484,(3, 66),25	9509,(3, 67),7	9516,(3, 74),1	9517,(3, 84),8	9570,(3, 115),8	9578,(3, 116),42	9620,(3, 124),4	9631,(3, 144),8	9639,(3, 149),1	9684,(3, 171),1	9685,(3, 180),5	9690,(3, 184),10	9707,(3, 187),1	9757,(12, 24),16	9793,(12, 35),9	9802,(12, 37),13	9815,(12, 40),1	9817,(12, 47),1	9818,(12, 55),1	9819,(12, 68),2	9821,(12, 78),1	9822,(12, 84),3	9825,(12, 104),1	9965,(12, 53),9	9974,(12, 62),10	9994,(12, 91),2	10001,(12, 96),9	10010,(12, 98),24	10045,(12, 115),11	10056,(12, 122),2	10061,(12, 125),1	10063,(12, 134),4	10067,(12, 135),9	10113,(12, 184),8	10121,(12, 187),1	
2,(0, 6),1	5,(0, 9),1	7,(0, 11),1	8,(0, 13),1	12,(0, 18),1	64,(4, 32),20	84,(4, 38),1	85,(4, 39),6	94,(4, 45),4	98,(4, 46),1	99,(4, 48),1	100,(4, 65),5	105,(4, 75),3	108,(4, 76),1	123,(4, 87),1	210,(4, 105),3	213,(4, 107),5	218,(4, 111),5	223,(8, 38),1	224,(8, 45),5	237,(4, 114),3	250,(8, 48),1	252,(4, 123),6	261,(8, 87),1	262,(8, 92),1	264,(4, 128),1	265,(8, 65),12	277,(4, 142),1	282,(4, 160),1	283,(4, 167),4	287,(4, 168),1	288,(4, 169),14	302,(8, 60),19	321,(8, 105),4	325,(8, 108),9	334,(8, 114),1	335,(8, 123),1	336,(4, 174),2	338,(4, 177),11	374,(4, 182),4	378,(4, 186),3	381,(4, 192),20	401,(4, 194),1	402,(8, 128),33	435,(8, 142),20	455,(8, 155),1	456,(8, 169),13	469,(7, 22),9	478,(8, 182),1	479,(8, 186),14	493,(8, 192),1	494,(8, 197),11	505,(7, 46),2	507,(7, 75),14	521,(7, 76),3	524,(7, 92),14	538,(7, 105),2	540,(7, 108),5	545,(7, 109),2	547,(7, 131),1	548,(7, 150),3	551,(7, 164),1	552,(7, 186),1	553,(10, 107),1	610,(7, 114),16	647,(7, 137),8	655,(7, 142),7	662,(7, 167),9	671,(7, 174),7	678,(7, 177),5	683,(7, 182),4	687,(7, 192),5	692,(7, 194),3	695,(14, 22),22	717,(14, 32),5	722,(14, 38),8	730,(14, 39),4	734,(14, 46),1	735,(14, 48),1	755,(10, 60),5	760,(10, 65),4	764,(10, 69),10	774,(10, 76),2	776,(10, 97),5	781,(10, 105),2	783,(10, 108),3	786,(10, 109),1	787,(10, 111),2	789,(10, 112),1	790,(10, 136),10	800,(10, 150),1	801,(10, 169),18	819,(10, 174),1	820,(10, 182),2	822,(14, 75),3	825,(14, 76),2	827,(10, 192),8	835,(10, 197),1	836,(19, 32),3	839,(19, 39),1	840,(19, 48),1	841,(19, 75),1	842,(19, 105),1	843,(14, 93),18	861,(19, 97),4	865,(19, 107),1	866,(19, 169),1	867,(14, 97),1	868,(14, 105),6	874,(14, 106),1	875,(14, 107),2	877,(19, 137),2	879,(19, 174),1	880,(19, 182),1	881,(14, 128),3	884,(14, 137),1	885,(19, 38),10	895,(19, 167),6	901,(19, 186),3	912,(1, 38),3	926,(1, 45),4	930,(1, 46),1	932,(20, 39),1	944,(14, 108),17	1011,(14, 136),4	1015,(14, 142),1	1019,(14, 150),1	1046,(14, 168),2	1048,(14, 197),1	1049,(1, 65),15	1073,(20, 46),1	1074,(20, 114),1	1080,(1, 76),1	1081,(14, 182),16	1097,(19, 197),5	1102,(20, 128),1	1106,(14, 192),3	1109,(16, 48),2	1111,(16, 123),1	1112,(1, 87),16	1128,(1, 92),1	1129,(1, 93),1	1130,(1, 105),52	1182,(1, 107),1	1183,(1, 108),1	1184,(1, 109),8	1192,(1, 111),12	1204,(1, 112),30	1234,(14, 193),23	1257,(16, 142),1	1258,(20, 38),3	1261,(1, 123),15	1276,(16, 32),5	1281,(16, 92),3	1284,(1, 128),1	1285,(16, 45),6	1291,(16, 150),1	1292,(1, 136),1	1293,(14, 164),34	1327,(16, 46),6	1333,(16, 69),6	1339,(16, 76),8	1347,(16, 93),6	1353,(17, 22),1	1354,(10, 164),67	1421,(16, 108),4	1425,(16, 112),3	1428,(16, 155),4	1432,(17, 32),1	1433,(17, 48),1	1434,(20, 131),1	1435,(17, 97),1	1436,(20, 60),2	1438,(1, 164),1	1439,(20, 136),1	1440,(1, 169),26	1466,(16, 128),22	1488,(17, 107),2	1496,(19, 46),10	1506,(20, 65),5	1511,(20, 76),3	1514,(20, 97),2	1516,(20, 105),2	1518,(20, 137),1	1554,(19, 92),14	1592,(19, 108),27	1619,(19, 111),15	1634,(19, 112),15	1651,(16, 164),6	1657,(16, 167),9	1673,(16, 182),20	1693,(19, 114),25	1718,(19, 128),19	1756,(20, 108),2	1758,(20, 142),1	1768,(16, 192),22	1790,(19, 164),15	1805,(19, 177),18	1823,(17, 69),28	1851,(17, 108),1	1852,(17, 142),8	1865,(20, 155),1	1866,(17, 38),41	1907,(20, 48),35	1942,(20, 168),1	1943,(17, 92),11	1954,(17, 93),14	1968,(17, 150),1	1969,(17, 155),4	1973,(17, 167),3	1976,(17, 168),2	1978,(17, 174),3	1981,(20, 87),11	1992,(20, 106),5	1997,(20, 112),5	2002,(20, 174),1	2011,(17, 105),17	2028,(20, 111),20	2048,(20, 150),44	2092,(20, 164),16	2140,(17, 137),21	2172,(17, 177),13	2188,(17, 186),14	2203,(17, 193),17	2220,(17, 197),4	7263,(1, 186),1	7273,(1, 194),10	7283,(1, 197),13	7297,(2, 22),6	7318,(2, 32),2	7321,(2, 38),1	7322,(2, 39),1	7323,(2, 45),2	7325,(2, 46),42	7367,(2, 48),1	7379,(2, 60),1	7387,(2, 65),1	7394,(2, 75),1	7396,(2, 87),3	7445,(2, 105),24	7469,(2, 106),27	7496,(2, 108),5	7501,(2, 114),1	7508,(2, 123),1	7509,(2, 128),3	7532,(2, 137),1	7533,(2, 142),7	7546,(2, 150),17	7563,(2, 155),1	7569,(2, 167),2	7573,(2, 177),2	7576,(2, 182),14	7592,(15, 45),2	7594,(15, 60),1	8519,(2, 186),6	8586,(15, 46),4	8606,(15, 93),3	8609,(15, 97),6	8615,(15, 109),3	8618,(15, 111),1	8627,(15, 123),4	8633,(15, 128),7	8640,(15, 131),3	8658,(15, 137),6	8665,(15, 150),5	8670,(15, 160),4	8675,(15, 169),3	8679,(15, 182),6	8688,(15, 192),3	8692,(5, 22),17	8729,(5, 38),2	8737,(5, 45),1	8754,(5, 48),1	8777,(5, 65),2	8779,(5, 76),2	9203,(5, 92),3	9206,(5, 97),1	9207,(5, 105),36	9243,(5, 107),6	9249,(5, 111),13	9262,(5, 114),45	9314,(5, 123),16	9335,(5, 137),1	9336,(5, 142),6	9345,(5, 164),1	9346,(5, 168),1	9347,(5, 169),3	9354,(5, 186),14	9368,(5, 192),2	9370,(5, 193),1	9371,(5, 194),15	9387,(3, 22),22	9426,(3, 32),22	9467,(3, 38),1	9468,(3, 39),1	9477,(3, 60),1	9483,(3, 65),1	9525,(3, 87),3	9528,(3, 93),2	9530,(3, 105),1	9531,(3, 106),1	9532,(3, 107),3	9535,(3, 112),27	9562,(3, 114),8	9624,(3, 128),1	9625,(3, 131),5	9630,(3, 137),1	9640,(3, 155),26	9666,(3, 160),2	9668,(3, 164),16	9700,(3, 186),7	9708,(3, 193),20	9728,(3, 194),24	9752,(3, 197),4	9756,(12, 22),1	9773,(12, 32),20	9816,(12, 46),1	9984,(12, 75),10	9996,(12, 92),5	10034,(12, 105),1	10035,(12, 107),2	10037,(12, 108),2	10039,(12, 109),1	10040,(12, 111),1	10041,(12, 114),4	10058,(12, 123),3	10062,(12, 128),1	10076,(12, 136),9	10085,(12, 137),4	10089,(12, 160),20	10109,(12, 167),2	10111,(12, 168),1	10112,(12, 177),1	10122,(12, 192),1	10123,(12, 193),1	10124,(12, 197),1	
4,(0, 8),1	9,(0, 14),1	10,(0, 16),1	11,(0, 17),1	23,(1, 28),881	904,(4, 28),6	910,(4, 41),1	911,(4, 52),2	913,(4, 72),3	916,(4, 81),15	931,(4, 133),1	932,(1, 49),1	933,(4, 58),29	962,(4, 83),58	1020,(4, 94),7	1027,(4, 95),5	1032,(4, 140),1	1033,(4, 147),10	1043,(4, 158),5	1048,(4, 162),1	1049,(4, 163),1	1050,(4, 165),12	1062,(4, 183),4	1066,(4, 188),4	1070,(4, 191),3	1073,(1, 72),2	1075,(4, 185),22	1097,(6, 41),3	1100,(6, 49),1	1101,(6, 57),1	1102,(1, 83),1	1103,(4, 103),57	1160,(4, 190),8	1168,(4, 196),8	1176,(6, 28),20	1196,(6, 56),6	1202,(6, 58),1	1203,(6, 63),1	1204,(6, 72),1	1205,(6, 73),14	1219,(6, 81),1	1220,(6, 86),1	1221,(6, 102),1	1222,(6, 127),1	1223,(6, 133),18	1241,(6, 140),10	1251,(6, 159),23	1274,(6, 165),6	1280,(6, 185),1	1281,(6, 191),1	1282,(7, 54),1	1283,(7, 56),1	1284,(7, 103),1	1285,(1, 130),1	1286,(7, 25),5	1291,(7, 102),2	1293,(1, 140),1	1294,(7, 58),3	1297,(1, 152),111	1408,(6, 200),16	1424,(7, 28),4	1428,(7, 130),4	1432,(1, 158),3	1435,(7, 139),1	1436,(1, 163),2	1438,(7, 190),1	1439,(1, 165),1	1440,(7, 41),8	1448,(7, 42),5	1453,(7, 57),5	1458,(7, 82),5	1463,(7, 152),3	1466,(1, 172),5705	7171,(1, 175),17	7188,(7, 34),30	7218,(7, 72),16	7234,(7, 133),7	7241,(7, 140),8	7249,(7, 147),4	7253,(7, 191),1	7254,(1, 183),1	7255,(7, 158),3	7258,(7, 162),2	7260,(9, 94),1	7261,(9, 95),1	7262,(1, 185),1	7263,(9, 102),1	7264,(1, 190),9	7273,(6, 147),170	7443,(6, 183),152	7595,(2, 25),6	7601,(2, 34),6	7607,(2, 41),1	7608,(2, 51),4	7612,(2, 52),2	7614,(2, 54),1	7615,(2, 73),1	7616,(2, 82),1	7617,(2, 83),2	7619,(2, 86),24	7643,(2, 103),3	7646,(2, 118),2	7648,(2, 140),1	7649,(2, 147),311	7960,(2, 152),8	7968,(7, 73),33	8001,(7, 159),6	8007,(7, 188),3	8010,(9, 51),10	8020,(9, 139),2	8022,(9, 147),1	8023,(9, 152),1	8024,(2, 162),4	8028,(2, 165),3	8031,(2, 175),35	8066,(9, 52),10	8076,(9, 63),6	8082,(9, 82),8	8090,(9, 162),1	8091,(2, 183),421	8512,(2, 185),7	8519,(9, 118),5	8524,(9, 172),1	8525,(2, 188),2	8527,(2, 196),14	8541,(2, 200),5	8546,(9, 72),14	8560,(9, 81),27	8587,(9, 127),9	8596,(9, 140),5	8601,(9, 159),13	8614,(9, 163),17	8631,(9, 165),6	8637,(9, 176),3	8640,(9, 185),140	8780,(9, 188),1	8781,(15, 28),1	8782,(15, 34),98	8880,(15, 49),6	8886,(15, 52),1	8887,(15, 54),1	8888,(15, 56),1	8889,(15, 58),124	9013,(15, 72),1	9014,(15, 73),2	9016,(15, 86),2	9018,(15, 94),3	9021,(15, 103),2	9023,(15, 118),9	9032,(15, 139),3	9035,(15, 140),9	9044,(15, 147),15	9059,(15, 159),5	9064,(15, 163),9	9073,(15, 172),27	9100,(15, 176),2	9102,(15, 183),40	9142,(15, 188),2	9144,(10, 25),53	9197,(10, 28),1	9198,(10, 34),2	9200,(10, 41),6	9206,(10, 49),1	9207,(10, 52),14	9221,(10, 56),4	9225,(10, 58),55	9280,(10, 72),1	9281,(10, 81),7	9288,(10, 82),12	9300,(10, 94),8	9308,(10, 95),4	9312,(10, 103),3	9315,(10, 118),4	9319,(10, 133),1	9320,(10, 140),1	9321,(10, 158),1	9322,(10, 162),1	9323,(10, 163),1	9324,(10, 176),3	9327,(10, 188),6	9333,(10, 190),1	9334,(10, 191),4	9338,(10, 196),1	9339,(10, 200),2	9341,(11, 34),260	9601,(11, 42),12	9613,(11, 54),20	9633,(11, 72),5	9638,(11, 73),13	9651,(11, 82),7	9658,(11, 83),24	9682,(11, 86),6	9688,(11, 103),1	9689,(11, 118),1	9690,(11, 127),48	9738,(11, 133),1	9739,(11, 147),27	9766,(11, 152),15	9781,(11, 158),18	9799,(11, 163),3	9802,(11, 165),5	9807,(11, 176),1	9808,(11, 183),10	9818,(11, 188),3	9821,(11, 196),5	9826,(5, 25),1	9827,(5, 41),2	9829,(5, 51),13	9842,(5, 54),1	9843,(5, 63),9	9852,(5, 73),1	9853,(5, 81),4	9857,(5, 83),10	9867,(5, 86),2	9869,(5, 94),1	9870,(5, 95),1	9871,(5, 102),13	9884,(5, 139),2	9886,(5, 147),4	9890,(5, 159),15	9905,(5, 165),12	9917,(5, 172),17	9934,(5, 175),1	9935,(5, 176),18	9953,(5, 185),11	9964,(5, 200),1	9965,(19, 34),2	9967,(19, 41),17	9984,(19, 42),1	9985,(19, 49),1	9986,(19, 54),6	9992,(19, 56),7	9999,(19, 57),2	10001,(19, 58),15	10016,(19, 63),1	10017,(19, 72),2	10019,(19, 81),7	10026,(19, 82),2	10028,(19, 94),1	10029,(19, 127),1	10030,(19, 133),50	10080,(19, 140),1	10081,(19, 158),8	10089,(19, 159),8	10097,(19, 162),4	10101,(19, 172),33	10134,(19, 175),2	10136,(19, 183),1	10137,(19, 185),2	10139,(19, 188),2	10141,(19, 190),1	10142,(19, 191),9	10151,(19, 200),56	10207,(13, 28),3	10210,(13, 41),1	10211,(13, 51),13	10224,(13, 52),1	10225,(13, 57),21	10246,(13, 72),1	10247,(13, 82),2	10249,(13, 86),1	10250,(13, 94),4	10254,(13, 118),8	10262,(13, 130),1	10263,(13, 133),6	10269,(13, 139),1	10270,(13, 147),1	10271,(13, 158),224	10495,(13, 159),1	10496,(13, 162),1	10497,(13, 165),4	10501,(13, 172),14	10515,(13, 183),6	10521,(3, 25),1	10522,(3, 41),10	10532,(3, 42),8	10540,(3, 49),1	10541,(3, 56),6	10547,(3, 57),30	10577,(3, 63),1	10578,(3, 81),6	10584,(3, 82),1	10585,(3, 95),1	10586,(3, 102),1	10587,(3, 103),1	10588,(3, 127),46	10634,(3, 130),1	10635,(3, 139),1	10636,(3, 158),3	10639,(3, 163),8	10647,(3, 165),2	10649,(3, 172),1	10650,(3, 176),2	10652,(3, 183),28	10680,(3, 188),11	10691,(3, 190),2	10693,(20, 25),8	10701,(20, 42),2	10703,(20, 51),2	10705,(20, 52),3	10708,(20, 54),50	10758,(20, 57),39	10797,(20, 58),8	10805,(20, 63),4	10809,(20, 73),26	10835,(20, 82),2	10837,(20, 86),3	10840,(20, 95),1	10841,(20, 102),8	10849,(20, 118),1	10850,(20, 130),20	10870,(20, 133),4	10874,(20, 139),7	10881,(20, 140),1	10882,(20, 152),28	10910,(20, 158),137	11047,(20, 159),30	11077,(20, 163),12	11089,(20, 165),4	11093,(20, 172),27	11120,(20, 183),1	11121,(20, 185),248	11369,(20, 191),1	11370,(18, 25),13	11383,(18, 34),2	11385,(18, 51),6	11391,(18, 52),4	11395,(18, 54),1	11396,(18, 56),4	11400,(18, 58),224	11624,(18, 63),1	11625,(18, 81),26	11651,(18, 82),3	11654,(18, 83),1	11655,(18, 94),3	11658,(18, 102),1	11659,(18, 103),7	11666,(18, 118),2	11668,(18, 139),4	11672,(18, 147),1	11673,(18, 163),3	11676,(18, 175),3	11679,(18, 183),6	11685,(18, 185),4	11689,(18, 188),2	11691,(18, 190),7	11698,(12, 25),9	11707,(12, 28),4	11711,(12, 34),23	11734,(12, 41),7	11741,(12, 42),4	11745,(12, 49),6	11751,(12, 56),1	11752,(12, 58),6	11758,(12, 81),1	11759,(12, 82),1	11760,(12, 83),3	11763,(12, 86),13	11776,(12, 95),14	11790,(12, 102),6	11796,(12, 103),8	11804,(12, 118),2	11806,(12, 127),39	11845,(12, 130),1	11846,(12, 133),12	11858,(12, 139),3	11861,(12, 165),1	11862,(12, 175),28	11890,(12, 176),1	11891,(12, 183),2	11893,(12, 185),17	11910,(12, 188),5	11915,(12, 190),7	11922,(12, 196),1	11923,(33, 201),2	11925,(129, 201),2	11927,(90, 201),2	11929,(79, 201),2	11931,(50, 201),2	11933,(117, 201),2	11935,(71, 201),2	11937,(99, 201),2	11939,(110, 201),2	11941,(88, 201),2	11943,(89, 201),2	11945,(121, 201),2	11947,(145, 201),2	11949,(156, 201),2	11951,(69, 201),2	11953,(113, 201),2	11955,(138, 201),2	11957,(146, 201),2	11959,(174, 201),2	11961,(178, 201),2	11963,(26, 201),2	11965,(27, 201),2	11967,(31, 201),2	11969,(70, 201),2	11971,(77, 201),2	11973,(80, 201),2	11975,(85, 201),2	11977,(100, 201),2	11979,(126, 201),2	11981,(44, 201),2	11983,(101, 201),2	11985,(120, 201),2	11987,(143, 201),2	11989,(132, 201),2	11991,(141, 201),2	11993,(148, 201),2	11995,(151, 201),2	11997,(153, 201),2	11999,(154, 201),2	12001,(166, 201),2	12003,(170, 201),2	12005,(173, 201),2	12007,(189, 201),2	12009,(195, 201),2	12011,(198, 201),2	12013,(199, 201),2	12015,(179, 201),2	12017,(43, 201),2	12019,(150, 201),2	12021,(181, 201),2	12023,(182, 201),2	12025,(23, 201),2	12027,(29, 201),2	12029,(45, 201),2	12031,(48, 201),2	12033,(61, 201),2	12035,(76, 201),2	12037,(64, 201),2	12039,(97, 201),2	12041,(119, 201),2	12043,(142, 201),2	12045,(157, 201),2	12047,(169, 201),2	12049,(161, 201),2	12051,(21, 201),2	12053,(30, 201),2	12055,(36, 201),2	12057,(38, 201),2	12059,(59, 201),2	12061,(39, 201),2	12063,(60, 201),2	12065,(66, 201),2	12067,(65, 201),2	12069,(67, 201),2	12071,(87, 201),2	12073,(74, 201),2	12075,(93, 201),2	12077,(106, 201),2	12079,(112, 201),2	12081,(116, 201),2	12083,(131, 201),2	12085,(124, 201),2	12087,(144, 201),2	12089,(155, 201),2	12091,(149, 201),2	12093,(164, 201),2	12095,(171, 201),2	12097,(186, 201),2	12099,(180, 201),2	12101,(194, 201),2	12103,(22, 201),2	12105,(24, 201),2	12107,(32, 201),2	12109,(35, 201),2	12111,(46, 201),2	12113,(37, 201),2	12115,(40, 201),2	12117,(47, 201),2	12119,(55, 201),2	12121,(68, 201),2	12123,(78, 201),2	12125,(84, 201),2	12127,(104, 201),2	12129,(53, 201),2	12131,(62, 201),2	12133,(75, 201),2	12135,(91, 201),2	12137,(92, 201),2	12139,(96, 201),2	12141,(105, 201),2	12143,(98, 201),2	12145,(107, 201),2	12147,(115, 201),2	12149,(108, 201),2	12151,(122, 201),2	12153,(109, 201),2	12155,(125, 201),2	12157,(111, 201),2	12159,(134, 201),2	12161,(114, 201),2	12163,(135, 201),2	12165,(123, 201),2	12167,(184, 201),2	12169,(128, 201),2	12171,(187, 201),2	12173,(136, 201),2	12175,(137, 201),2	12177,(160, 201),2	12179,(167, 201),2	12181,(168, 201),2	12183,(177, 201),2	12185,(192, 201),2	12187,(193, 201),2	12189,(197, 201),2	
# Outgoing
1,(0, 4),1	2,(0, 6),1	3,(0, 7),1	4,(0, 8),1	5,(0, 9),1	6,(0, 10),1	7,(0, 11),1	8,(0, 13),1	9,(0, 14),1	10,(0, 16),1	11,(0, 17),1	12,(0, 18),1	13,(0, 19),1	14,(0, 20),1	19,(1, 21),2	21,(1, 23),1	22,(1, 24),1	23,(1, 28),881	904,(1, 29),2	906,(1, 30),1	907,(1, 37),5	912,(1, 38),3	915,(1, 40),10	925,(1, 43),1	926,(1, 45),4	930,(1, 46),1	931,(1, 47),1	932,(1, 49),1	933,(1, 53),2	935,(1, 55),1	936,(1, 61),93	1029,(1, 62),7	1036,(1, 64),13	1049,(1, 65),15	1064,(1, 66),9	1073,(1, 72),2	1075,(1, 74),5	1080,(1, 76),1	1081,(1, 78),21	1102,(1, 83),1	1103,(1, 84),9	1112,(1, 87),16	1128,(1, 92),1	1129,(1, 93),1	1130,(1, 105),52	1182,(1, 107),1	1183,(1, 108),1	1184,(1, 109),8	1192,(1, 111),12	1204,(1, 112),30	1234,(1, 115),16	1250,(1, 116),1	1251,(1, 119),9	1260,(1, 122),1	1261,(1, 123),15	1276,(1, 124),8	1284,(1, 128),1	1285,(1, 130),1	1286,(1, 134),1	1287,(1, 135),5	1292,(1, 136),1	1293,(1, 140),1	1294,(1, 149),3	1297,(1, 152),111	1408,(1, 157),24	1432,(1, 158),3	1435,(1, 161),1	1436,(1, 163),2	1438,(1, 164),1	1439,(1, 165),1	1440,(1, 169),26	1466,(1, 172),5705	7171,(1, 175),17	7188,(1, 179),39	7227,(1, 180),2	7229,(1, 181),25	7254,(1, 183),1	7255,(1, 184),7	7262,(1, 185),1	7263,(1, 186),1	7264,(1, 190),9	7273,(1, 194),10	7283,(1, 197),13	7296,(2, 21),1	7297,(2, 22),6	7303,(2, 24),15	7318,(2, 32),2	7320,(2, 36),1	7321,(2, 38),1	7322,(2, 39),1	7323,(2, 45),2	7325,(2, 46),42	7367,(2, 48),1	7368,(2, 53),1	7369,(2, 59),10	7379,(2, 60),1	7380,(2, 61),7	7387,(2, 65),1	7388,(2, 67),5	7393,(2, 74),1	7394,(2, 75),1	7395,(2, 78),1	7396,(2, 87),3	7399,(2, 91),1	7400,(2, 98),3	7403,(2, 104),42	7445,(2, 105),24	7469,(2, 106),27	7496,(2, 108),5	7501,(2, 114),1	7502,(2, 115),1	7503,(2, 116),1	7504,(2, 119),1	7505,(2, 122),3	7508,(2, 123),1	7509,(2, 128),3	7512,(2, 135),20	7532,(2, 137),1	7533,(2, 142),7	7540,(2, 144),5	7545,(2, 149),1	7546,(2, 150),17	7563,(2, 155),1	7564,(2, 157),5	7569,(2, 167),2	7571,(2, 171),2	7573,(2, 177),2	7575,(2, 181),1	7576,(2, 182),14	7590,(2, 184),1	7591,(15, 35),1	7592,(15, 45),2	7594,(15, 60),1	7595,(2, 25),6	7601,(2, 34),6	7607,(2, 41),1	7608,(2, 51),4	7612,(2, 52),2	7614,(2, 54),1	7615,(2, 73),1	7616,(2, 82),1	7617,(2, 83),2	7619,(2, 86),24	7643,(2, 103),3	7646,(2, 118),2	7648,(2, 140),1	7649,(2, 147),311	7960,(2, 152),8	7968,(2, 161),56	8024,(2, 162),4	8028,(2, 165),3	8031,(2, 175),35	8066,(2, 179),25	8091,(2, 183),421	8512,(2, 185),7	8519,(2, 186),6	8525,(2, 188),2	8527,(2, 196),14	8541,(2, 200),5	8546,(15, 21),9	8555,(15, 24),8	8563,(15, 30),18	8581,(15, 43),5	8586,(15, 46),4	8590,(15, 47),12	8602,(15, 64),3	8605,(15, 67),1	8606,(15, 93),3	8609,(15, 97),6	8615,(15, 109),3	8618,(15, 111),1	8619,(15, 115),1	8620,(15, 116),6	8626,(15, 119),1	8627,(15, 123),4	8631,(15, 125),2	8633,(15, 128),7	8640,(15, 131),3	8643,(15, 134),15	8658,(15, 137),6	8664,(15, 149),1	8665,(15, 150),5	8670,(15, 160),4	8674,(15, 161),1	8675,(15, 169),3	8678,(15, 181),1	8679,(15, 182),6	8685,(15, 187),3	8688,(15, 192),3	8691,(5, 21),1	8692,(5, 22),17	8709,(5, 23),1	8710,(5, 29),18	8728,(5, 37),1	8729,(5, 38),2	8731,(5, 40),6	8737,(5, 45),1	8738,(5, 47),16	8754,(5, 48),1	8755,(5, 55),12	8767,(5, 61),7	8774,(5, 64),3	8777,(5, 65),2	8779,(5, 76),2	8781,(15, 28),1	8782,(15, 34),98	8880,(15, 49),6	8886,(15, 52),1	8887,(15, 54),1	8888,(15, 56),1	8889,(15, 58),124	9013,(15, 72),1	9014,(15, 73),2	9016,(15, 86),2	9018,(15, 94),3	9021,(15, 103),2	9023,(15, 118),9	9032,(15, 139),3	9035,(15, 140),9	9044,(15, 147),15	9059,(15, 159),5	9064,(15, 163),9	9073,(15, 172),27	9100,(15, 176),2	9102,(15, 183),40	9142,(15, 188),2	9144,(5, 62),14	9158,(5, 78),18	9176,(5, 84),15	9191,(5, 91),12	9203,(5, 92),3	9206,(5, 97),1	9207,(5, 105),36	9243,(5, 107),6	9249,(5, 111),13	9262,(5, 114),45	9307,(5, 115),3	9310,(5, 116),2	9312,(5, 119),1	9313,(5, 122),1	9314,(5, 123),16	9330,(5, 125),5	9335,(5, 137),1	9336,(5, 142),6	9342,(5, 149),1	9343,(5, 157),1	9344,(5, 161),1	9345,(5, 164),1	9346,(5, 168),1	9347,(5, 169),3	9350,(5, 180),4	9354,(5, 186),14	9368,(5, 192),2	9370,(5, 193),1	9371,(5, 194),15	9386,(3, 21),1	9387,(3, 22),22	9409,(3, 24),4	9413,(3, 30),13	9426,(3, 32),22	9448,(3, 35),15	9463,(3, 36),4	9467,(3, 38),1	9468,(3, 39),1	9469,(3, 40),2	9471,(3, 53),1	9472,(3, 59),5	9477,(3, 60),1	9478,(3, 62),5	9483,(3, 65),1	9484,(3, 66),25	9509,(3, 67),7	9516,(3, 74),1	9517,(3, 84),8	9525,(3, 87),3	9528,(3, 93),2	9530,(3, 105),1	9531,(3, 106),1	9532,(3, 107),3	9535,(3, 112),27	9562,(3, 114),8	9570,(3, 115),8	9578,(3, 116),42	9620,(3, 124),4	9624,(3, 128),1	9625,(3, 131),5	9630,(3, 137),1	9631,(3, 144),8	9639,(3, 149),1	9640,(3, 155),26	9666,(3, 160),2	9668,(3, 164),16	9684,(3, 171),1	9685,(3, 180),5	9690,(3, 184),10	9700,(3, 186),7	9707,(3, 187),1	9708,(3, 193),20	9728,(3, 194),24	9752,(3, 197),4	9756,(12, 22),1	9757,(12, 24),16	9773,(12, 32),20	9793,(12, 35),9	9802,(12, 37),13	9815,(12, 40),1	9816,(12, 46),1	9817,(12, 47),1	9818,(12, 55),1	9819,(12, 68),2	9821,(12, 78),1	9822,(12, 84),3	9825,(12, 104),1	9826,(5, 25),1	9827,(5, 41),2	9829,(5, 51),13	9842,(5, 54),1	9843,(5, 63),9	9852,(5, 73),1	9853,(5, 81),4	9857,(5, 83),10	9867,(5, 86),2	9869,(5, 94),1	9870,(5, 95),1	9871,(5, 102),13	9884,(5, 139),2	9886,(5, 147),4	9890,(5, 159),15	9905,(5, 165),12	9917,(5, 172),17	9934,(5, 175),1	9935,(5, 176),18	9953,(5, 185),11	9964,(5, 200),1	9965,(12, 53),9	9974,(12, 62),10	9984,(12, 75),10	9994,(12, 91),2	9996,(12, 92),5	10001,(12, 96),9	10010,(12, 98),24	10034,(12, 105),1	10035,(12, 107),2	10037,(12, 108),2	10039,(12, 109),1	10040,(12, 111),1	10041,(12, 114),4	10045,(12, 115),11	10056,(12, 122),2	10058,(12, 123),3	10061,(12, 125),1	10062,(12, 128),1	10063,(12, 134),4	10067,(12, 135),9	10076,(12, 136),9	10085,(12, 137),4	10089,(12, 160),20	10109,(12, 167),2	10111,(12, 168),1	10112,(12, 177),1	10113,(12, 184),8	10121,(12, 187),1	10122,(12, 192),1	10123,(12, 193),1	10124,(12, 197),1	10521,(3, 25),1	10522,(3, 41),10	10532,(3, 42),8	10540,(3, 49),1	10541,(3, 56),6	10547,(3, 57),30	10577,(3, 63),1	10578,(3, 81),6	10584,(3, 82),1	10585,(3, 95),1	10586,(3, 102),1	10587,(3, 103),1	10588,(3, 127),46	10634,(3, 130),1	10635,(3, 139),1	10636,(3, 158),3	10639,(3, 163),8	10647,(3, 165),2	10649,(3, 172),1	10650,(3, 176),2	10652,(3, 183),28	10680,(3, 188),11	10691,(3, 190),2	11698,(12, 25),9	11707,(12, 28),4	11711,(12, 34),23	11734,(12, 41),7	11741,(12, 42),4	11745,(12, 49),6	11751,(12, 56),1	11752,(12, 58),6	11758,(12, 81),1	11759,(12, 82),1	11760,(12, 83),3	11763,(12, 86),13	11776,(12, 95),14	11790,(12, 102),6	11796,(12, 103),8	11804,(12, 118),2	11806,(12, 127),39	11845,(12, 130),1	11846,(12, 133),12	11858,(12, 139),3	11861,(12, 165),1	11862,(12, 175),28	11890,(12, 176),1	11891,(12, 183),2	11893,(12, 185),17	11910,(12, 188),5	11915,(12, 190),7	11922,(12, 196),1	11923,(33, 201),2	11925,(129, 201),2	11927,(90, 201),2	11929,(79, 201),2	11931,(50, 201),2	11933,(117, 201),2	11935,(71, 201),2	11937,(99, 201),2	11939,(110, 201),2	11941,(88, 201),2	11943,(89, 201),2	11945,(121, 201),2	11947,(145, 201),2	11949,(156, 201),2	11953,(113, 201),2	11955,(138, 201),2	11957,(146, 201),2	11961,(178, 201),2	11963,(26, 201),2	11965,(27, 201),2	11967,(31, 201),2	11969,(70, 201),2	11971,(77, 201),2	11973,(80, 201),2	11975,(85, 201),2	11977,(100, 201),2	11979,(126, 201),2	11981,(44, 201),2	11983,(101, 201),2	11985,(120, 201),2	11987,(143, 201),2	11989,(132, 201),2	11991,(141, 201),2	11993,(148, 201),2	11995,(151, 201),2	11997,(153, 201),2	11999,(154, 201),2	12001,(166, 201),2	12003,(170, 201),2	12005,(173, 201),2	12007,(189, 201),2	12009,(195, 201),2	12011,(198, 201),2	12013,(199, 201),2	
20,(4, 27),22	42,(4, 31),22	64,(4, 32),20	84,(4, 38),1	85,(4, 39),6	91,(4, 44),3	94,(4, 45),4	98,(4, 46),1	99,(4, 48),1	100,(4, 65),5	105,(4, 75),3	108,(4, 76),1	109,(4, 80),11	120,(4, 85),3	123,(4, 87),1	124,(4, 89),1	125,(4, 90),81	206,(4, 100),1	207,(4, 101),3	210,(4, 105),3	213,(4, 107),5	218,(4, 111),5	223,(4, 113),14	237,(4, 114),3	240,(4, 117),5	245,(4, 121),7	252,(4, 123),6	258,(4, 126),6	264,(4, 128),1	265,(4, 129),5	270,(4, 132),1	271,(4, 138),6	277,(4, 142),1	278,(4, 146),2	280,(4, 154),1	281,(4, 156),1	282,(4, 160),1	283,(4, 167),4	287,(4, 168),1	288,(4, 169),14	302,(4, 170),1	303,(4, 173),33	336,(4, 174),2	338,(4, 177),11	349,(4, 178),25	374,(4, 182),4	378,(4, 186),3	381,(4, 192),20	401,(4, 194),1	402,(4, 195),8	410,(4, 198),9	419,(4, 199),10	469,(7, 22),9	505,(7, 46),2	507,(7, 75),14	521,(7, 76),3	524,(7, 92),14	538,(7, 105),2	540,(7, 108),5	545,(7, 109),2	547,(7, 131),1	548,(7, 150),3	551,(7, 164),1	552,(7, 186),1	553,(10, 107),1	554,(7, 31),7	561,(7, 33),7	568,(7, 50),1	569,(7, 70),1	570,(7, 79),1	571,(7, 85),11	582,(7, 99),2	584,(7, 101),23	607,(7, 110),3	610,(7, 114),16	626,(7, 120),1	627,(7, 121),20	647,(7, 137),8	655,(7, 142),7	662,(7, 167),9	671,(7, 174),7	678,(7, 177),5	683,(7, 182),4	687,(7, 192),5	692,(7, 194),3	695,(7, 126),19	714,(7, 129),8	722,(7, 138),2	724,(7, 145),5	729,(7, 146),3	732,(7, 148),5	737,(7, 151),7	744,(7, 154),4	748,(7, 156),1	749,(7, 166),6	755,(10, 60),5	760,(10, 65),4	764,(10, 69),10	774,(10, 76),2	776,(10, 97),5	781,(10, 105),2	783,(10, 108),3	786,(10, 109),1	787,(10, 111),2	789,(10, 112),1	790,(10, 136),10	800,(10, 150),1	801,(10, 169),18	819,(10, 174),1	820,(10, 182),2	827,(10, 192),8	835,(10, 197),1	836,(19, 32),3	839,(19, 39),1	840,(19, 48),1	841,(19, 75),1	842,(19, 105),1	861,(19, 97),4	865,(19, 107),1	866,(19, 169),1	877,(19, 137),2	879,(19, 174),1	880,(19, 182),1	885,(19, 38),10	895,(19, 167),6	901,(19, 186),3	904,(4, 28),6	910,(4, 41),1	911,(4, 52),2	913,(4, 72),3	916,(4, 81),15	931,(4, 133),1	932,(20, 39),1	933,(4, 58),29	962,(4, 83),58	1020,(4, 94),7	1027,(4, 95),5	1032,(4, 140),1	1033,(4, 147),10	1043,(4, 158),5	1048,(4, 162),1	1049,(4, 163),1	1050,(4, 165),12	1062,(4, 183),4	1066,(4, 188),4	1070,(4, 191),3	1073,(20, 46),1	1074,(20, 114),1	1075,(4, 185),22	1097,(19, 197),5	1102,(20, 128),1	1103,(4, 103),57	1160,(4, 190),8	1168,(4, 196),8	1176,(10, 33),3	1179,(10, 89),4	1183,(10, 90),4	1187,(10, 99),7	1194,(10, 100),27	1221,(10, 101),3	1224,(10, 110),7	1231,(10, 141),12	1243,(10, 145),2	1245,(10, 146),1	1246,(10, 170),7	1253,(10, 195),2	1255,(10, 198),1	1256,(10, 199),2	1258,(20, 38),3	1275,(19, 70),1	1276,(19, 77),2	1278,(19, 79),1	1279,(19, 100),1	1280,(19, 110),1	1281,(19, 126),1	1282,(7, 54),1	1283,(7, 56),1	1284,(7, 103),1	1286,(7, 25),5	1291,(7, 102),2	1294,(7, 58),3	1297,(10, 148),57	1354,(10, 164),67	1421,(19, 141),3	1424,(7, 28),4	1428,(7, 130),4	1434,(20, 131),1	1435,(7, 139),1	1436,(20, 60),2	1438,(7, 190),1	1439,(20, 136),1	1440,(7, 41),8	1448,(7, 42),5	1453,(7, 57),5	1458,(7, 82),5	1463,(7, 152),3	1466,(10, 189),30	1496,(19, 46),10	1506,(20, 65),5	1511,(20, 76),3	1514,(20, 97),2	1516,(20, 105),2	1518,(20, 137),1	1519,(19, 31),27	1546,(19, 90),8	1554,(19, 92),14	1568,(19, 101),24	1592,(19, 108),27	1619,(19, 111),15	1634,(19, 112),15	1649,(19, 113),13	1662,(19, 117),15	1677,(19, 145),1	1678,(19, 173),1	1679,(19, 189),1	1680,(20, 27),6	1686,(20, 44),2	1688,(20, 71),1	1689,(20, 99),1	1690,(20, 110),1	1693,(19, 114),25	1718,(19, 128),19	1737,(19, 153),19	1756,(20, 108),2	1758,(20, 142),1	1759,(20, 31),6	1765,(20, 80),3	1768,(20, 85),3	1771,(20, 88),3	1774,(20, 89),9	1783,(20, 101),5	1788,(20, 132),1	1789,(20, 148),1	1790,(19, 164),15	1805,(19, 177),18	1823,(19, 195),42	1865,(20, 155),1	1907,(20, 48),35	1942,(20, 168),1	1948,(20, 113),7	1955,(20, 126),3	1958,(20, 138),9	1967,(20, 146),6	1973,(20, 153),1	1974,(20, 178),1	1975,(20, 195),1	1981,(20, 87),11	1992,(20, 106),5	1997,(20, 112),5	2002,(20, 174),1	2028,(20, 111),20	2048,(20, 150),44	2092,(20, 164),16	2130,(20, 151),16	2146,(20, 166),16	2162,(20, 170),12	7188,(7, 34),30	7218,(7, 72),16	7234,(7, 133),7	7241,(7, 140),8	7249,(7, 147),4	7253,(7, 191),1	7255,(7, 158),3	7258,(7, 162),2	7968,(7, 73),33	8001,(7, 159),6	8007,(7, 188),3	9144,(10, 25),53	9197,(10, 28),1	9198,(10, 34),2	9200,(10, 41),6	9206,(10, 49),1	9207,(10, 52),14	9221,(10, 56),4	9225,(10, 58),55	9280,(10, 72),1	9281,(10, 81),7	9288,(10, 82),12	9300,(10, 94),8	9308,(10, 95),4	9312,(10, 103),3	9315,(10, 118),4	9319,(10, 133),1	9320,(10, 140),1	9321,(10, 158),1	9322,(10, 162),1	9323,(10, 163),1	9324,(10, 176),3	9327,(10, 188),6	9333,(10, 190),1	9334,(10, 191),4	9338,(10, 196),1	9339,(10, 200),2	9965,(19, 34),2	9967,(19, 41),17	9984,(19, 42),1	9985,(19, 49),1	9986,(19, 54),6	9992,(19, 56),7	9999,(19, 57),2	10001,(19, 58),15	10016,(19, 63),1	10017,(19, 72),2	10019,(19, 81),7	10026,(19, 82),2	10028,(19, 94),1	10029,(19, 127),1	10030,(19, 133),50	10080,(19, 140),1	10081,(19, 158),8	10089,(19, 159),8	10097,(19, 162),4	10101,(19, 172),33	10134,(19, 175),2	10136,(19, 183),1	10137,(19, 185),2	10139,(19, 188),2	10141,(19, 190),1	10142,(19, 191),9	10151,(19, 200),56	10693,(20, 25),8	10701,(20, 42),2	10703,(20, 51),2	10705,(20, 52),3	10708,(20, 54),50	10758,(20, 57),39	10797,(20, 58),8	10805,(20, 63),4	10809,(20, 73),26	10835,(20, 82),2	10837,(20, 86),3	10840,(20, 95),1	10841,(20, 102),8	10849,(20, 118),1	10850,(20, 130),20	10870,(20, 133),4	10874,(20, 139),7	10881,(20, 140),1	10882,(20, 152),28	10910,(20, 158),137	11047,(20, 159),30	11077,(20, 163),12	11089,(20, 165),4	11093,(20, 172),27	11120,(20, 183),1	11121,(20, 185),248	11369,(20, 191),1	12015,(179, 201),2	12017,(43, 201),2	12021,(181, 201),2	12025,(23, 201),2	12027,(29, 201),2	12033,(61, 201),2	12037,(64, 201),2	12041,(119, 201),2	12045,(157, 201),2	12049,(161, 201),2	12051,(21, 201),2	12053,(30, 201),2	12055,(36, 201),2	12059,(59, 201),2	12065,(66, 201),2	12069,(67, 201),2	12073,(74, 201),2	12081,(116, 201),2	12085,(124, 201),2	12087,(144, 201),2	12091,(149, 201),2	12095,(171, 201),2	12099,(180, 201),2	12105,(24, 201),2	12109,(35, 201),2	12113,(37, 201),2	12115,(40, 201),2	12117,(47, 201),2	12119,(55, 201),2	12121,(68, 201),2	12123,(78, 201),2	12125,(84, 201),2	12127,(104, 201),2	12129,(53, 201),2	12131,(62, 201),2	12135,(91, 201),2	12139,(96, 201),2	12143,(98, 201),2	12147,(115, 201),2	12151,(122, 201),2	12155,(125, 201),2	12159,(134, 201),2	12163,(135, 201),2	12167,(184, 201),2	12171,(187, 201),2	
23,(6, 21),7	30,(6, 24),8	38,(6, 30),1	39,(6, 35),1	40,(6, 37),4	44,(6, 40),5	49,(6, 47),7	56,(6, 55),5	61,(6, 59),1	62,(6, 68),1	63,(6, 91),1	64,(6, 44),2	66,(6, 62),46	112,(6, 64),21	133,(6, 66),11	144,(6, 84),11	155,(6, 96),1	156,(6, 122),4	160,(6, 134),3	163,(6, 135),8	171,(6, 144),13	184,(6, 149),3	187,(6, 157),6	193,(6, 171),14	207,(6, 187),1	210,(6, 71),1	211,(6, 77),1	212,(6, 79),8	220,(6, 85),1	221,(6, 126),1	222,(6, 146),1	223,(9, 29),5	228,(9, 30),1	237,(6, 120),3	250,(9, 37),1	252,(6, 99),4	256,(6, 143),2	261,(9, 40),1	262,(9, 66),1	264,(6, 173),1	265,(9, 78),1	266,(9, 84),1	267,(9, 91),1	268,(9, 98),6	274,(9, 104),2	276,(11, 35),1	277,(6, 189),1	282,(6, 80),7	289,(6, 117),6	295,(6, 148),2	297,(6, 156),2	299,(6, 195),3	302,(9, 36),18	320,(9, 53),13	333,(9, 134),2	335,(11, 37),1	336,(6, 129),8	344,(9, 115),4	348,(11, 61),1	374,(6, 101),16	390,(9, 43),24	414,(9, 122),10	424,(9, 144),3	427,(11, 47),2	429,(6, 132),13	442,(6, 138),39	481,(6, 170),15	496,(6, 198),16	512,(9, 74),26	538,(9, 125),6	544,(9, 157),9	553,(11, 64),1	610,(9, 26),4	614,(9, 31),7	621,(9, 33),4	625,(9, 44),1	647,(9, 180),9	656,(9, 184),8	664,(11, 21),10	674,(11, 30),18	692,(11, 55),2	694,(11, 62),9	703,(11, 66),1	704,(11, 68),13	717,(11, 84),7	724,(11, 104),9	733,(11, 124),3	755,(9, 27),25	780,(9, 50),1	781,(9, 79),8	789,(9, 85),3	792,(9, 89),5	797,(9, 99),1	798,(9, 110),4	802,(9, 120),24	826,(9, 129),5	831,(9, 141),6	837,(9, 143),5	842,(9, 148),23	865,(9, 151),1	866,(9, 156),11	877,(9, 166),6	883,(9, 189),1	884,(9, 198),1	885,(11, 116),12	897,(11, 125),3	900,(13, 21),2	902,(13, 66),2	912,(13, 67),1	913,(13, 84),2	926,(13, 36),5	932,(13, 115),1	944,(11, 26),6	950,(11, 31),1	951,(11, 33),2	953,(11, 50),5	958,(11, 70),2	960,(11, 80),1	1011,(11, 71),2	1013,(11, 99),3	1019,(11, 145),1	1046,(11, 100),12	1058,(11, 195),1	1059,(13, 68),3	1062,(13, 116),1	1063,(13, 119),1	1073,(13, 125),1	1074,(13, 161),1	1080,(11, 88),17	1097,(6, 41),3	1100,(6, 49),1	1101,(6, 57),1	1102,(13, 171),1	1106,(11, 90),46	1152,(11, 110),10	1162,(11, 117),8	1170,(11, 126),2	1172,(11, 146),3	1175,(11, 199),1	1176,(6, 28),20	1196,(6, 56),6	1202,(6, 58),1	1203,(6, 63),1	1204,(6, 72),1	1205,(6, 73),14	1219,(6, 81),1	1220,(6, 86),1	1221,(6, 102),1	1222,(6, 127),1	1223,(6, 133),18	1241,(6, 140),10	1251,(6, 159),23	1274,(6, 165),6	1280,(6, 185),1	1281,(6, 191),1	1282,(11, 132),14	1296,(13, 26),1	1297,(11, 115),75	1372,(11, 135),20	1392,(11, 151),12	1404,(13, 31),4	1408,(6, 200),16	1424,(11, 143),26	1450,(11, 144),26	1476,(11, 180),7	1483,(11, 184),7	1496,(11, 166),5	1501,(11, 178),18	1554,(13, 27),9	1563,(13, 44),3	1566,(13, 77),1	1567,(13, 79),1	1592,(13, 50),3	1595,(13, 71),39	1634,(13, 101),5	1639,(13, 117),1	1640,(13, 121),7	1647,(13, 126),1	1648,(13, 146),1	1651,(13, 37),10	1661,(13, 91),4	1665,(13, 184),1	1673,(13, 23),18	1691,(13, 100),25	1716,(13, 148),9	1725,(13, 153),2	1727,(13, 156),1	1728,(13, 189),5	1733,(13, 195),4	1756,(13, 198),3	1768,(13, 30),17	1785,(13, 43),21	1806,(13, 53),9	1815,(13, 96),15	1830,(13, 104),3	1833,(13, 122),13	1846,(13, 124),4	1850,(13, 135),2	1852,(13, 180),8	1865,(13, 132),54	1919,(13, 141),29	1948,(13, 144),35	1983,(13, 166),23	2006,(13, 170),30	2036,(18, 23),1	2037,(18, 24),11	2048,(18, 53),4	2052,(18, 55),1	2053,(18, 61),1	2054,(18, 66),6	2060,(18, 74),1	2061,(18, 84),1	2062,(18, 91),6	2068,(18, 98),1	2069,(18, 104),4	2073,(18, 125),1	2077,(18, 26),1	2078,(18, 27),1	2079,(18, 31),4	2083,(18, 70),5	2088,(18, 77),8	2096,(18, 80),6	2102,(18, 85),2	2104,(18, 100),1	2105,(18, 67),18	2123,(18, 115),7	2140,(18, 96),11	2151,(18, 122),9	2174,(18, 44),26	2200,(18, 101),1	2201,(18, 120),1	2202,(18, 143),1	2203,(18, 43),52	2255,(18, 59),27	2282,(18, 64),30	2312,(18, 124),5	2317,(18, 132),3	2320,(18, 134),14	2334,(18, 141),7	2341,(18, 148),24	2365,(18, 151),1	2366,(18, 153),11	2377,(18, 154),9	2386,(18, 166),1	2387,(18, 170),2	2389,(18, 171),17	2406,(18, 173),17	2423,(18, 181),9	2432,(18, 187),15	2447,(18, 189),4	2451,(18, 195),41	2492,(18, 198),1	2493,(18, 199),3	7260,(9, 94),1	7261,(9, 95),1	7263,(9, 102),1	7273,(6, 147),170	7443,(6, 183),152	8010,(9, 51),10	8020,(9, 139),2	8022,(9, 147),1	8023,(9, 152),1	8066,(9, 52),10	8076,(9, 63),6	8082,(9, 82),8	8090,(9, 162),1	8519,(9, 118),5	8524,(9, 172),1	8546,(9, 72),14	8560,(9, 81),27	8587,(9, 127),9	8596,(9, 140),5	8601,(9, 159),13	8614,(9, 163),17	8631,(9, 165),6	8637,(9, 176),3	8640,(9, 185),140	8780,(9, 188),1	9341,(11, 34),260	9601,(11, 42),12	9613,(11, 54),20	9633,(11, 72),5	9638,(11, 73),13	9651,(11, 82),7	9658,(11, 83),24	9682,(11, 86),6	9688,(11, 103),1	9689,(11, 118),1	9690,(11, 127),48	9738,(11, 133),1	9739,(11, 147),27	9766,(11, 152),15	9781,(11, 158),18	9799,(11, 163),3	9802,(11, 165),5	9807,(11, 176),1	9808,(11, 183),10	9818,(11, 188),3	9821,(11, 196),5	10207,(13, 28),3	10210,(13, 41),1	10211,(13, 51),13	10224,(13, 52),1	10225,(13, 57),21	10246,(13, 72),1	10247,(13, 82),2	10249,(13, 86),1	10250,(13, 94),4	10254,(13, 118),8	10262,(13, 130),1	10263,(13, 133),6	10269,(13, 139),1	10270,(13, 147),1	10271,(13, 158),224	10495,(13, 159),1	10496,(13, 162),1	10497,(13, 165),4	10501,(13, 172),14	10515,(13, 183),6	11370,(18, 25),13	11383,(18, 34),2	11385,(18, 51),6	11391,(18, 52),4	11395,(18, 54),1	11396,(18, 56),4	11400,(18, 58),224	11624,(18, 63),1	11625,(18, 81),26	11651,(18, 82),3	11654,(18, 83),1	11655,(18, 94),3	11658,(18, 102),1	11659,(18, 103),7	11666,(18, 118),2	11668,(18, 139),4	11672,(18, 147),1	11673,(18, 163),3	11676,(18, 175),3	11679,(18, 183),6	11685,(18, 185),4	11689,(18, 188),2	11691,(18, 190),7	11951,(69, 201),2	11959,(174, 201),2	12019,(150, 201),2	12023,(182, 201),2	12029,(45, 201),2	12031,(48, 201),2	12035,(76, 201),2	12039,(97, 201),2	12043,(142, 201),2	12047,(169, 201),2	12057,(38, 201),2	12061,(39, 201),2	12063,(60, 201),2	12067,(65, 201),2	12071,(87, 201),2	12075,(93, 201),2	12077,(106, 201),2	12079,(112, 201),2	12083,(131, 201),2	12089,(155, 201),2	12093,(164, 201),2	12097,(186, 201),2	12101,(194, 201),2	12103,(22, 201),2	12107,(32, 201),2	12111,(46, 201),2	12133,(75, 201),2	12137,(92, 201),2	12141,(105, 201),2	12145,(107, 201),2	12149,(108, 201),2	12153,(109, 201),2	12157,(111, 201),2	12161,(114, 201),2	12165,(123, 201),2	12169,(128, 201),2	12173,(136, 201),2	12175,(137, 201),2	12177,(160, 201),2	12179,(167, 201),2	12181,(168, 201),2	12183,(177, 201),2	12185,(192, 201),2	12187,(193, 201),2	12189,(197, 201),2	
208,(8, 23),7	215,(8, 24),3	218,(8, 40),4	222,(8, 59),1	223,(8, 38),1	224,(8, 45),5	229,(8, 47),21	250,(8, 48),1	251,(8, 53),3	254,(8, 55),5	259,(8, 61),1	260,(8, 74),1	261,(8, 87),1	262,(8, 92),1	263,(8, 98),2	265,(8, 65),12	277,(8, 84),6	283,(8, 115),2	285,(8, 116),7	292,(8, 122),7	299,(8, 125),1	300,(14, 23),1	301,(14, 30),1	302,(8, 60),19	321,(8, 105),4	325,(8, 108),9	334,(8, 114),1	335,(8, 123),1	336,(14, 24),3	339,(14, 35),1	340,(14, 40),1	341,(14, 59),1	342,(14, 61),1	343,(14, 66),1	344,(8, 27),5	349,(8, 124),12	361,(8, 144),23	384,(14, 43),4	388,(14, 74),1	389,(14, 116),1	390,(8, 77),10	400,(8, 101),1	401,(8, 126),1	402,(8, 128),33	435,(8, 142),20	455,(8, 155),1	456,(8, 169),13	469,(8, 179),9	478,(8, 182),1	479,(8, 186),14	493,(8, 192),1	494,(8, 197),11	505,(14, 91),4	509,(14, 171),2	511,(14, 181),1	512,(8, 80),15	527,(8, 85),5	532,(8, 88),4	536,(8, 90),4	540,(8, 110),4	544,(8, 113),4	548,(8, 121),2	550,(8, 129),4	554,(8, 135),93	647,(8, 146),2	649,(8, 166),17	666,(8, 170),2	668,(8, 173),12	680,(8, 178),6	686,(8, 195),8	694,(8, 199),1	695,(14, 22),22	717,(14, 32),5	722,(14, 38),8	730,(14, 39),4	734,(14, 46),1	735,(14, 48),1	736,(14, 62),42	778,(14, 67),44	822,(14, 75),3	825,(14, 76),2	827,(14, 78),16	843,(14, 93),18	861,(14, 96),6	867,(14, 97),1	868,(14, 105),6	874,(14, 106),1	875,(14, 107),2	877,(14, 125),4	881,(14, 128),3	884,(14, 137),1	885,(14, 26),1	886,(14, 27),1	887,(14, 31),2	889,(14, 33),14	903,(14, 50),10	913,(14, 70),1	914,(14, 71),10	924,(14, 80),1	925,(14, 88),16	941,(14, 90),1	942,(14, 99),1	943,(14, 100),1	944,(14, 108),17	961,(14, 110),7	968,(14, 113),18	986,(14, 120),13	999,(14, 121),12	1011,(14, 136),4	1015,(14, 142),1	1016,(14, 146),3	1019,(14, 150),1	1020,(14, 151),1	1021,(14, 156),16	1037,(14, 166),9	1046,(14, 168),2	1048,(14, 197),1	1049,(14, 115),10	1059,(14, 178),19	1078,(14, 198),2	1080,(16, 29),1	1081,(14, 182),16	1097,(14, 189),9	1106,(14, 192),3	1109,(16, 48),2	1111,(16, 123),1	1112,(14, 98),72	1184,(14, 124),13	1197,(14, 179),3	1200,(14, 184),14	1214,(16, 24),8	1222,(16, 40),2	1224,(16, 55),2	1226,(16, 62),1	1227,(16, 67),2	1229,(16, 68),1	1230,(16, 104),3	1233,(16, 119),1	1234,(14, 193),23	1257,(16, 142),1	1258,(16, 26),1	1259,(16, 27),3	1262,(16, 33),1	1263,(16, 50),8	1271,(16, 79),2	1273,(16, 80),1	1274,(16, 89),1	1275,(16, 124),1	1276,(16, 32),5	1281,(16, 92),3	1284,(16, 134),1	1285,(16, 45),6	1291,(16, 150),1	1292,(17, 23),1	1293,(14, 164),34	1327,(16, 46),6	1333,(16, 69),6	1339,(16, 76),8	1347,(16, 93),6	1353,(17, 22),1	1354,(16, 85),10	1364,(16, 90),4	1368,(16, 117),2	1370,(16, 126),1	1371,(16, 129),2	1373,(16, 146),1	1374,(16, 151),6	1380,(16, 178),1	1381,(16, 195),1	1382,(17, 26),3	1385,(17, 33),3	1388,(17, 50),1	1389,(17, 71),1	1390,(17, 110),2	1392,(16, 61),9	1401,(16, 122),4	1405,(16, 181),2	1407,(17, 61),1	1408,(17, 27),12	1420,(17, 132),1	1421,(16, 108),4	1425,(16, 112),3	1428,(16, 155),4	1432,(17, 32),1	1433,(17, 48),1	1434,(17, 64),1	1435,(17, 97),1	1436,(16, 149),12	1448,(17, 53),2	1450,(17, 77),3	1453,(17, 85),6	1459,(17, 89),5	1464,(17, 129),2	1466,(16, 128),22	1488,(17, 107),2	1490,(16, 21),23	1513,(16, 53),112	1625,(16, 66),26	1651,(16, 164),6	1657,(16, 167),9	1666,(16, 179),7	1673,(16, 182),20	1693,(16, 184),62	1755,(16, 187),13	1768,(16, 192),22	1790,(17, 113),5	1795,(17, 121),7	1802,(17, 145),2	1804,(17, 151),1	1805,(17, 153),3	1808,(17, 154),2	1810,(17, 156),1	1811,(17, 166),1	1812,(17, 195),1	1813,(17, 198),6	1819,(17, 199),1	1823,(17, 69),28	1851,(17, 108),1	1852,(17, 142),8	1860,(17, 35),6	1866,(17, 38),41	1907,(17, 40),4	1911,(17, 43),23	1934,(17, 68),9	1943,(17, 92),11	1954,(17, 93),14	1968,(17, 150),1	1969,(17, 155),4	1973,(17, 167),3	1976,(17, 168),2	1978,(17, 174),3	1983,(17, 66),17	2000,(17, 96),3	2003,(17, 104),8	2011,(17, 105),17	2028,(17, 119),6	2034,(17, 122),2	2036,(17, 80),41	2077,(17, 115),16	2093,(17, 124),7	2100,(17, 125),5	2105,(17, 126),25	2130,(17, 134),10	2140,(17, 137),21	2161,(17, 149),4	2165,(17, 157),1	2166,(17, 161),5	2171,(17, 171),1	2172,(17, 177),13	2185,(17, 179),1	2186,(17, 180),1	2187,(17, 181),1	2188,(17, 186),14	2202,(17, 187),1	2203,(17, 193),17	2220,(17, 197),4	
