240
# CPU
0,121,1	1,71,2	3,51,2	5,58,2	7,33,2	9,54,2	11,90,2	13,75,2	15,80,2	17,72,2	19,91,2	21,106,2	23,48,2	25,119,2	27,53,2	29,17,2	31,81,2	33,31,2	35,95,2	37,26,2	39,60,2	41,13,2	43,18,2	45,110,2	47,35,2	49,85,2	51,44,2	53,40,2	55,50,2	57,108,2	59,49,2	61,68,2	63,67,2	65,100,2	67,94,2	69,28,2	71,83,2	73,42,2	75,114,2	77,25,2	79,65,2	81,14,2	83,43,2	85,93,2	87,92,2	89,21,2	91,118,2	93,115,2	95,86,2	97,59,2	99,99,2	101,87,2	103,15,2	105,104,2	107,36,2	109,96,2	111,27,2	113,89,2	115,46,2	117,107,2	119,76,2	121,32,2	123,97,2	125,52,2	127,20,2	129,73,2	131,112,2	133,29,2	135,34,2	137,113,2	139,63,2	141,62,2	143,79,2	145,82,2	147,77,2	149,102,2	151,70,2	153,66,2	155,47,2	157,5,2	159,30,2	161,103,2	163,61,2	165,57,2	167,84,2	169,111,2	171,64,2	173,24,2	175,45,2	177,38,2	179,19,2	181,41,2	183,16,2	185,12,2	187,23,2	189,3,2	191,98,2	193,120,2	195,116,2	197,37,2	199,39,2	201,74,2	203,117,2	205,1,2	207,69,2	209,9,2	211,6,2	213,88,2	215,105,2	217,109,2	219,10,2	221,55,2	223,56,2	225,7,2	227,8,2	229,22,2	231,4,2	233,101,2	235,2,2	237,11,2	239,0,1	




125,78,2	




# Incoming
127,(78, 11),28	




1,(121, 78),124	




# Outgoing
1,(121, 78),124	




127,(78, 11),28	




