4421
# CPU
561,5,31	592,12,31	989,15,31	1029,50,31	1060,60,31	1091,65,31	1161,70,31	1321,20,31	1421,45,31	1452,25,31	1521,30,31	1552,35,31	3641,80,31	3713,40,31	3761,55,31	3909,75,31	
421,4,31	452,24,31	1425,79,31	1456,19,31	1521,29,31	1552,59,31	1583,69,31	2141,49,31	2717,44,31	3409,54,31	3453,64,31	3645,10,31	3676,14,31	3707,34,31	3738,39,31	3781,74,31	
281,3,31	312,43,31	343,58,31	841,8,31	872,13,31	903,48,31	934,28,31	965,23,31	996,68,31	1027,53,31	3373,38,31	3405,63,31	3521,33,31	3552,73,31	4005,78,31	4385,18,31	
141,2,31	172,17,31	701,7,31	845,11,31	876,27,31	929,37,31	985,47,31	1016,57,31	2429,22,31	2473,32,31	2997,52,31	3337,62,31	3461,67,31	3492,72,31	3561,77,31	3749,42,31	
0,0,1	1,6,31	32,1,31	857,66,31	888,9,31	937,16,31	968,36,31	1033,26,31	1065,61,31	2121,21,31	2152,41,31	2183,46,31	2237,76,31	2393,56,31	2553,31,31	2837,51,31	3345,71,31	4420,81,1	
# Incoming
421,(0, 5),140	561,(2, 12),16	577,(2, 15),96	777,(2, 35),48	825,(2, 40),4	857,(6, 15),132	989,(3, 25),4	1001,(6, 30),20	1021,(4, 65),4	1025,(3, 50),4	1029,(3, 60),12	1041,(3, 65),36	1077,(3, 70),84	1161,(4, 20),160	1321,(4, 30),56	1389,(7, 45),32	1425,(8, 25),4	1429,(8, 30),92	1521,(8, 35),4	1565,(8, 80),16	3373,(6, 40),24	3593,(6, 80),48	3701,(1, 40),12	3749,(1, 55),12	3781,(1, 75),128	
281,(0, 4),140	685,(2, 34),92	929,(3, 44),4	941,(8, 14),24	965,(8, 49),12	977,(8, 79),4	989,(6, 29),12	1001,(2, 39),208	1209,(2, 54),64	1273,(3, 79),152	1425,(7, 19),20	1445,(7, 29),76	1521,(7, 59),16	1537,(8, 69),28	2133,(5, 49),8	2473,(5, 39),36	2665,(5, 44),52	3397,(6, 54),12	3409,(6, 64),44	3641,(1, 10),4	3645,(1, 14),4	3649,(1, 34),12	3661,(1, 39),40	3761,(1, 74),20	
141,(0, 3),140	673,(2, 33),12	701,(0, 8),140	845,(6, 13),12	857,(2, 18),84	941,(4, 23),24	981,(7, 68),4	989,(4, 53),4	1021,(6, 33),20	1041,(6, 38),2332	3373,(4, 73),24	3397,(5, 33),4	3401,(5, 63),4	3405,(7, 33),116	3521,(7, 73),24	3561,(6, 78),32	3909,(1, 78),96	4005,(7, 18),380	
1,(0, 2),140	561,(0, 7),140	841,(6, 11),4	861,(3, 27),4	921,(3, 37),8	933,(3, 47),8	965,(4, 47),20	985,(4, 52),4	993,(4, 57),8	1377,(4, 62),764	2141,(5, 22),288	2429,(5, 32),44	2509,(5, 42),156	2837,(5, 52),160	2997,(5, 62),340	3453,(6, 67),8	3461,(6, 72),24	3485,(6, 77),76	3713,(1, 42),36	
829,(2, 41),12	841,(2, 66),16	857,(3, 9),4	865,(3, 31),56	921,(4, 16),16	937,(4, 36),4	941,(2, 76),36	977,(17, 81),4	981,(43, 81),4	985,(58, 81),4	989,(11, 81),4	993,(3, 41),32	1025,(4, 26),8	1033,(4, 46),24	1057,(4, 61),8	1065,(4, 71),4	1069,(24, 81),4	1161,(8, 51),44	1205,(13, 81),4	1209,(48, 81),4	1213,(28, 81),4	1217,(23, 81),4	1221,(68, 81),4	1225,(53, 81),4	1273,(2, 56),116	1389,(5, 21),732	2121,(5, 41),8	2129,(5, 46),4	2133,(27, 81),4	2137,(37, 81),4	2141,(4, 76),96	2237,(7, 56),156	2393,(8, 31),160	2553,(47, 81),4	2557,(57, 81),4	2561,(79, 81),4	2565,(19, 81),4	2569,(29, 81),4	2573,(59, 81),4	2577,(69, 81),4	2581,(49, 81),4	2585,(22, 81),4	2589,(32, 81),4	2717,(5, 51),120	2837,(44, 81),4	3028,(52, 81),4	3337,(5, 71),8	3345,(12, 81),4	3349,(15, 81),4	3353,(50, 81),4	3357,(60, 81),4	3361,(65, 81),4	3365,(70, 81),4	3369,(20, 81),4	3373,(45, 81),4	3377,(25, 81),4	3381,(30, 81),4	3385,(35, 81),4	3389,(62, 81),4	3404,(38, 81),4	3436,(63, 81),4	3440,(54, 81),4	3484,(64, 81),4	3545,(67, 81),4	3549,(72, 81),4	3553,(33, 81),4	3583,(73, 81),4	3592,(77, 81),4	3672,(80, 81),4	3676,(10, 81),4	3707,(14, 81),4	3738,(34, 81),4	3744,(40, 81),4	3769,(39, 81),4	3780,(42, 81),4	3792,(55, 81),4	3812,(74, 81),4	3940,(75, 81),4	4036,(78, 81),4	4416,(18, 81),4	
# Outgoing
1389,(5, 21),732	2121,(5, 41),8	2129,(5, 46),4	2133,(5, 49),8	2141,(5, 22),288	2429,(5, 32),44	2473,(5, 39),36	2509,(5, 42),156	2665,(5, 44),52	2717,(5, 51),120	2837,(5, 52),160	2997,(5, 62),340	3337,(5, 71),8	3345,(12, 81),4	3349,(15, 81),4	3353,(50, 81),4	3357,(60, 81),4	3361,(65, 81),4	3365,(70, 81),4	3369,(20, 81),4	3373,(45, 81),4	3377,(25, 81),4	3381,(30, 81),4	3385,(35, 81),4	3397,(5, 33),4	3401,(5, 63),4	3672,(80, 81),4	3744,(40, 81),4	3792,(55, 81),4	3940,(75, 81),4	
921,(4, 16),16	937,(4, 36),4	941,(4, 23),24	965,(4, 47),20	985,(4, 52),4	989,(4, 53),4	993,(4, 57),8	1021,(4, 65),4	1025,(4, 26),8	1033,(4, 46),24	1057,(4, 61),8	1065,(4, 71),4	1069,(24, 81),4	1161,(4, 20),160	1321,(4, 30),56	1377,(4, 62),764	2141,(4, 76),96	2561,(79, 81),4	2565,(19, 81),4	2569,(29, 81),4	2573,(59, 81),4	2577,(69, 81),4	2581,(49, 81),4	2837,(44, 81),4	3373,(4, 73),24	3440,(54, 81),4	3484,(64, 81),4	3676,(10, 81),4	3707,(14, 81),4	3738,(34, 81),4	3769,(39, 81),4	3812,(74, 81),4	
857,(3, 9),4	861,(3, 27),4	865,(3, 31),56	921,(3, 37),8	929,(3, 44),4	933,(3, 47),8	941,(8, 14),24	965,(8, 49),12	977,(8, 79),4	981,(43, 81),4	985,(58, 81),4	989,(3, 25),4	993,(3, 41),32	1025,(3, 50),4	1029,(3, 60),12	1041,(3, 65),36	1077,(3, 70),84	1161,(8, 51),44	1205,(13, 81),4	1209,(48, 81),4	1213,(28, 81),4	1217,(23, 81),4	1221,(68, 81),4	1225,(53, 81),4	1273,(3, 79),152	1425,(8, 25),4	1429,(8, 30),92	1521,(8, 35),4	1537,(8, 69),28	1565,(8, 80),16	2393,(8, 31),160	3404,(38, 81),4	3436,(63, 81),4	3553,(33, 81),4	3583,(73, 81),4	4036,(78, 81),4	4416,(18, 81),4	
561,(2, 12),16	577,(2, 15),96	673,(2, 33),12	685,(2, 34),92	777,(2, 35),48	825,(2, 40),4	829,(2, 41),12	841,(2, 66),16	857,(2, 18),84	941,(2, 76),36	977,(17, 81),4	981,(7, 68),4	989,(11, 81),4	1001,(2, 39),208	1209,(2, 54),64	1273,(2, 56),116	1389,(7, 45),32	1425,(7, 19),20	1445,(7, 29),76	1521,(7, 59),16	2133,(27, 81),4	2137,(37, 81),4	2237,(7, 56),156	2553,(47, 81),4	2557,(57, 81),4	2585,(22, 81),4	2589,(32, 81),4	3028,(52, 81),4	3389,(62, 81),4	3405,(7, 33),116	3521,(7, 73),24	3545,(67, 81),4	3549,(72, 81),4	3592,(77, 81),4	3780,(42, 81),4	4005,(7, 18),380	
1,(0, 2),140	141,(0, 3),140	281,(0, 4),140	421,(0, 5),140	561,(0, 7),140	701,(0, 8),140	841,(6, 11),4	845,(6, 13),12	857,(6, 15),132	989,(6, 29),12	1001,(6, 30),20	1021,(6, 33),20	1041,(6, 38),2332	3373,(6, 40),24	3397,(6, 54),12	3409,(6, 64),44	3453,(6, 67),8	3461,(6, 72),24	3485,(6, 77),76	3561,(6, 78),32	3593,(6, 80),48	3641,(1, 10),4	3645,(1, 14),4	3649,(1, 34),12	3661,(1, 39),40	3701,(1, 40),12	3713,(1, 42),36	3749,(1, 55),12	3761,(1, 74),20	3781,(1, 75),128	3909,(1, 78),96	
