392
# CPU
18,2,13	31,8,13	44,14,13	57,22,13	70,4,13	83,18,13	96,30,13	109,36,13	122,38,13	135,10,13	148,12,13	161,16,13	174,26,13	187,28,13	200,32,13	213,40,13	226,6,13	239,20,13	252,34,13	265,24,13	
0,0,1	1,3,13	14,1,13	27,9,13	40,37,13	53,5,13	66,35,13	79,27,13	92,25,13	105,19,13	118,13,13	131,23,13	144,29,13	157,31,13	240,39,13	264,7,13	277,11,13	290,15,13	303,17,13	316,21,13	329,33,13	391,41,1	
# Incoming
1,(0, 2),17	18,(0, 4),17	35,(3, 12),7	42,(3, 18),2	44,(3, 26),1	45,(3, 30),1	46,(3, 36),4	50,(3, 38),10	60,(1, 10),5	65,(1, 12),4	69,(1, 16),1	70,(1, 26),1	71,(1, 28),4	75,(1, 32),1	76,(1, 40),1	
31,(2, 13),8	39,(2, 23),5	44,(2, 29),1	45,(2, 31),39	84,(2, 33),155	239,(2, 39),1	240,(8, 41),6	246,(14, 41),6	252,(22, 41),6	258,(4, 7),6	264,(4, 11),1	265,(4, 15),3	268,(4, 17),1	269,(4, 21),23	292,(4, 33),9	301,(18, 41),6	307,(30, 41),6	313,(36, 41),6	319,(38, 41),6	325,(10, 41),6	331,(12, 41),6	337,(16, 41),6	343,(26, 41),6	349,(28, 41),6	355,(32, 41),6	361,(40, 41),6	367,(6, 41),6	373,(20, 41),6	379,(34, 41),6	385,(24, 41),6	
# Outgoing
31,(2, 13),8	39,(2, 23),5	44,(2, 29),1	45,(2, 31),39	84,(2, 33),155	239,(2, 39),1	240,(8, 41),6	246,(14, 41),6	252,(22, 41),6	258,(4, 7),6	264,(4, 11),1	265,(4, 15),3	268,(4, 17),1	269,(4, 21),23	292,(4, 33),9	301,(18, 41),6	307,(30, 41),6	313,(36, 41),6	319,(38, 41),6	325,(10, 41),6	331,(12, 41),6	337,(16, 41),6	343,(26, 41),6	349,(28, 41),6	355,(32, 41),6	361,(40, 41),6	367,(6, 41),6	373,(20, 41),6	379,(34, 41),6	385,(24, 41),6	
1,(0, 2),17	18,(0, 4),17	35,(3, 12),7	42,(3, 18),2	44,(3, 26),1	45,(3, 30),1	46,(3, 36),4	50,(3, 38),10	60,(1, 10),5	65,(1, 12),4	69,(1, 16),1	70,(1, 26),1	71,(1, 28),4	75,(1, 32),1	76,(1, 40),1	
