234
# CPU
0,0,1	1,6,11	12,30,11	23,66,11	34,58,11	45,79,11	56,1,11	67,77,11	78,33,11	89,29,11	100,74,11	111,25,11	122,24,11	133,59,11	144,37,11	155,13,11	166,62,11	177,64,11	188,12,11	199,28,11	210,67,11	
2,2,11	13,71,11	24,18,11	35,23,11	46,61,11	57,73,11	68,54,11	79,76,11	90,8,11	101,44,11	112,42,11	123,50,11	134,27,11	145,52,11	156,49,11	167,36,11	178,32,11	189,39,11	200,17,11	211,48,11	222,19,11	233,81,1	
3,4,11	14,51,11	25,15,11	36,63,11	47,43,11	58,5,11	69,16,11	80,69,11	91,14,11	102,21,11	113,53,11	124,72,11	135,65,11	146,11,11	157,20,11	168,56,11	179,10,11	190,22,11	201,9,11	
4,7,11	15,41,11	26,78,11	37,68,11	48,75,11	59,34,11	70,55,11	81,3,11	92,80,11	103,35,11	114,31,11	125,45,11	136,70,11	147,40,11	158,47,11	169,46,11	180,26,11	191,60,11	202,38,11	213,57,11	
# Incoming
92,(3, 74),1	93,(3, 25),1	94,(3, 59),2	96,(3, 37),1	101,(8, 24),2	104,(2, 37),1	106,(8, 13),3	110,(8, 62),5	115,(7, 28),2	118,(2, 64),6	124,(8, 64),1	125,(5, 12),9	134,(2, 28),11	163,(2, 67),15	
1,(0, 2),1	6,(0, 8),1	15,(4, 54),1	18,(4, 17),2	23,(30, 81),1	25,(51, 81),1	26,(41, 81),1	34,(66, 81),1	36,(15, 81),1	37,(78, 81),1	45,(58, 81),1	47,(63, 81),1	48,(68, 81),1	56,(79, 81),1	58,(43, 81),1	59,(75, 81),1	69,(5, 76),1	70,(1, 39),1	71,(34, 81),1	80,(16, 81),1	81,(77, 81),1	82,(55, 81),1	89,(33, 81),1	97,(69, 81),1	100,(29, 81),1	102,(14, 81),1	104,(80, 81),1	111,(74, 81),1	113,(21, 81),1	114,(35, 81),1	117,(3, 48),31	148,(3, 19),51	199,(25, 81),1	200,(53, 81),1	201,(31, 81),1	202,(24, 81),1	203,(72, 81),1	204,(45, 81),1	205,(59, 81),1	206,(65, 81),1	207,(70, 81),1	208,(37, 81),1	209,(11, 81),1	210,(40, 81),1	211,(13, 81),1	212,(20, 81),1	213,(47, 81),1	214,(62, 81),1	215,(56, 81),1	216,(46, 81),1	217,(64, 81),1	218,(10, 81),1	219,(26, 81),1	220,(12, 81),1	221,(22, 81),1	222,(60, 81),1	223,(28, 81),1	224,(9, 81),1	225,(38, 81),1	226,(67, 81),1	227,(57, 81),1	
2,(0, 4),1	4,(0, 5),1	15,(7, 43),1	68,(1, 65),1	69,(1, 10),1	97,(3, 20),1	98,(3, 22),5	103,(3, 9),1	105,(8, 11),1	109,(8, 20),1	115,(8, 56),2	125,(8, 10),3	145,(2, 9),18	
3,(0, 7),1	5,(0, 3),1	12,(6, 47),1	14,(4, 34),1	16,(4, 40),1	17,(4, 26),1	67,(1, 55),1	70,(5, 26),2	72,(1, 60),9	81,(5, 38),16	103,(2, 70),1	117,(8, 46),1	118,(1, 57),55	
# Outgoing
1,(0, 2),1	2,(0, 4),1	3,(0, 7),1	4,(0, 5),1	5,(0, 3),1	6,(0, 8),1	12,(6, 47),1	23,(30, 81),1	34,(66, 81),1	45,(58, 81),1	56,(79, 81),1	67,(1, 55),1	68,(1, 65),1	69,(1, 10),1	70,(1, 39),1	72,(1, 60),9	81,(77, 81),1	89,(33, 81),1	100,(29, 81),1	111,(74, 81),1	118,(1, 57),55	199,(25, 81),1	202,(24, 81),1	205,(59, 81),1	208,(37, 81),1	211,(13, 81),1	214,(62, 81),1	217,(64, 81),1	220,(12, 81),1	223,(28, 81),1	226,(67, 81),1	
101,(8, 24),2	103,(2, 70),1	104,(2, 37),1	105,(8, 11),1	106,(8, 13),3	109,(8, 20),1	110,(8, 62),5	115,(8, 56),2	117,(8, 46),1	118,(2, 64),6	124,(8, 64),1	125,(8, 10),3	134,(2, 28),11	145,(2, 9),18	163,(2, 67),15	
14,(4, 34),1	15,(4, 54),1	16,(4, 40),1	17,(4, 26),1	18,(4, 17),2	25,(51, 81),1	36,(15, 81),1	47,(63, 81),1	58,(43, 81),1	69,(5, 76),1	70,(5, 26),2	80,(16, 81),1	81,(5, 38),16	97,(69, 81),1	102,(14, 81),1	113,(21, 81),1	125,(5, 12),9	200,(53, 81),1	203,(72, 81),1	206,(65, 81),1	209,(11, 81),1	212,(20, 81),1	215,(56, 81),1	218,(10, 81),1	221,(22, 81),1	224,(9, 81),1	
15,(7, 43),1	26,(41, 81),1	37,(78, 81),1	48,(68, 81),1	59,(75, 81),1	71,(34, 81),1	82,(55, 81),1	92,(3, 74),1	93,(3, 25),1	94,(3, 59),2	96,(3, 37),1	97,(3, 20),1	98,(3, 22),5	103,(3, 9),1	104,(80, 81),1	114,(35, 81),1	115,(7, 28),2	117,(3, 48),31	148,(3, 19),51	201,(31, 81),1	204,(45, 81),1	207,(70, 81),1	210,(40, 81),1	213,(47, 81),1	216,(46, 81),1	219,(26, 81),1	222,(60, 81),1	225,(38, 81),1	227,(57, 81),1	
