692
# CPU
0,0,1	1,5,23	24,71,23	47,6,23	70,24,23	93,66,23	116,4,23	139,9,23	162,32,23	185,62,23	208,69,23	231,13,23	254,7,23	277,44,23	300,37,23	323,47,23	346,1,23	369,34,23	392,61,23	415,21,23	438,19,23	461,27,23	484,11,23	507,60,23	530,28,23	553,22,23	576,36,23	599,76,23	622,38,23	645,58,23	668,20,23	691,81,1	
32,79,23	74,42,23	124,2,23	147,12,23	170,52,23	193,54,23	216,30,23	239,39,23	273,8,23	296,16,23	319,25,23	342,23,23	365,41,23	388,56,23	411,50,23	434,53,23	457,40,23	480,67,23	503,18,23	526,80,23	549,10,23	572,74,23	595,49,23	618,70,23	641,45,23	664,68,23	
79,17,23	140,14,23	163,26,23	186,73,23	209,78,23	232,51,23	255,64,23	279,46,23	302,43,23	325,77,23	348,59,23	371,35,23	394,33,23	417,31,23	440,55,23	463,48,23	486,65,23	509,63,23	532,3,23	555,72,23	578,29,23	601,75,23	624,57,23	647,15,23	
# Incoming
311,(8, 22),5	316,(79, 81),2	318,(42, 81),2	333,(8, 20),103	436,(12, 81),2	438,(52, 81),2	440,(54, 81),2	442,(30, 81),2	444,(39, 81),2	446,(16, 81),2	448,(25, 81),2	450,(23, 81),2	452,(41, 81),2	454,(56, 81),2	456,(50, 81),2	458,(53, 81),2	480,(40, 81),2	503,(67, 81),2	526,(18, 81),2	549,(80, 81),2	557,(3, 36),1	566,(3, 76),1	571,(3, 38),1	572,(17, 81),2	574,(14, 81),2	576,(10, 81),2	588,(3, 58),10	598,(26, 81),2	600,(73, 81),2	602,(78, 81),2	604,(51, 81),2	606,(64, 81),2	608,(46, 81),2	610,(43, 81),2	612,(77, 81),2	614,(59, 81),2	616,(35, 81),2	618,(74, 81),2	620,(49, 81),2	623,(33, 81),2	625,(31, 81),2	627,(55, 81),2	629,(48, 81),2	631,(65, 81),2	633,(63, 81),2	635,(72, 81),2	637,(29, 81),2	639,(75, 81),2	641,(70, 81),2	647,(57, 81),2	664,(45, 81),2	670,(15, 81),2	687,(68, 81),2	
24,(5, 79),8	32,(5, 42),6	38,(5, 54),3	41,(5, 39),23	64,(5, 74),1	65,(5, 45),2	70,(6, 42),4	79,(0, 2),45	137,(6, 70),2	146,(4, 10),1	184,(6, 30),16	228,(0, 8),45	294,(7, 40),2	296,(6, 67),6	302,(4, 67),9	320,(5, 18),15	352,(4, 80),12	427,(7, 80),7	479,(7, 10),59	538,(1, 74),4	542,(1, 70),3	555,(3, 74),2	558,(3, 49),8	567,(3, 70),4	571,(7, 45),6	577,(3, 45),11	588,(5, 68),31	619,(3, 68),4	
74,(6, 17),5	124,(5, 51),13	139,(4, 14),1	140,(6, 51),5	145,(4, 43),1	147,(2, 26),1	148,(4, 73),11	159,(2, 73),5	164,(4, 78),20	184,(2, 51),6	190,(2, 64),4	194,(2, 48),4	200,(4, 64),28	228,(2, 63),15	277,(7, 46),2	279,(7, 77),6	285,(4, 35),9	296,(8, 43),1	297,(8, 59),8	305,(8, 35),6	311,(7, 55),9	320,(8, 55),8	328,(8, 65),5	335,(7, 63),17	369,(1, 33),7	376,(1, 31),16	392,(1, 48),16	408,(1, 65),19	434,(0, 3),45	545,(4, 57),6	551,(6, 15),12	563,(1, 15),4	
# Outgoing
24,(5, 79),8	32,(5, 42),6	38,(5, 54),3	41,(5, 39),23	64,(5, 74),1	65,(5, 45),2	70,(6, 42),4	74,(6, 17),5	79,(0, 2),45	124,(5, 51),13	137,(6, 70),2	139,(4, 14),1	140,(6, 51),5	145,(4, 43),1	146,(4, 10),1	148,(4, 73),11	164,(4, 78),20	184,(6, 30),16	200,(4, 64),28	228,(0, 8),45	277,(7, 46),2	279,(7, 77),6	285,(4, 35),9	294,(7, 40),2	296,(6, 67),6	302,(4, 67),9	311,(7, 55),9	320,(5, 18),15	335,(7, 63),17	352,(4, 80),12	369,(1, 33),7	376,(1, 31),16	392,(1, 48),16	408,(1, 65),19	427,(7, 80),7	434,(0, 3),45	479,(7, 10),59	538,(1, 74),4	542,(1, 70),3	545,(4, 57),6	551,(6, 15),12	563,(1, 15),4	571,(7, 45),6	588,(5, 68),31	
147,(2, 26),1	159,(2, 73),5	184,(2, 51),6	190,(2, 64),4	194,(2, 48),4	228,(2, 63),15	296,(8, 43),1	297,(8, 59),8	305,(8, 35),6	311,(8, 22),5	316,(79, 81),2	318,(42, 81),2	320,(8, 55),8	328,(8, 65),5	333,(8, 20),103	436,(12, 81),2	438,(52, 81),2	440,(54, 81),2	442,(30, 81),2	444,(39, 81),2	446,(16, 81),2	448,(25, 81),2	450,(23, 81),2	452,(41, 81),2	454,(56, 81),2	456,(50, 81),2	458,(53, 81),2	480,(40, 81),2	503,(67, 81),2	526,(18, 81),2	549,(80, 81),2	576,(10, 81),2	618,(74, 81),2	620,(49, 81),2	641,(70, 81),2	664,(45, 81),2	687,(68, 81),2	
555,(3, 74),2	557,(3, 36),1	558,(3, 49),8	566,(3, 76),1	567,(3, 70),4	571,(3, 38),1	572,(17, 81),2	574,(14, 81),2	577,(3, 45),11	588,(3, 58),10	598,(26, 81),2	600,(73, 81),2	602,(78, 81),2	604,(51, 81),2	606,(64, 81),2	608,(46, 81),2	610,(43, 81),2	612,(77, 81),2	614,(59, 81),2	616,(35, 81),2	619,(3, 68),4	623,(33, 81),2	625,(31, 81),2	627,(55, 81),2	629,(48, 81),2	631,(65, 81),2	633,(63, 81),2	635,(72, 81),2	637,(29, 81),2	639,(75, 81),2	647,(57, 81),2	670,(15, 81),2	
