6216
# CPU
11,6,2	13,7,2	15,77,2	17,23,2	19,42,2	21,75,2	23,108,2	69,24,2	2777,20,2	3983,87,2	4253,21,2	4285,35,2	4287,39,2	4367,100,2	4475,111,2	4533,31,2	4549,40,2	4597,59,2	4611,62,2	4685,117,2	4687,52,2	4703,85,2	4725,103,2	5123,37,2	5263,44,2	5301,55,2	5369,58,2	5393,63,2	5441,83,2	5495,98,2	6215,121,1	
3,2,2	5,3,2	7,61,2	9,110,2	11,74,2	13,109,2	15,81,2	17,25,2	19,113,2	21,12,2	23,27,2	25,84,2	27,101,2	29,114,2	31,118,2	35,82,2	39,91,2	61,19,2	69,41,2	83,45,2	107,119,2	123,34,2	173,60,2	207,105,2	4009,13,2	4019,16,2	4031,22,2	4045,70,2	4057,56,2	4067,76,2	
0,0,1	1,8,2	3,1,2	5,9,2	7,11,2	9,106,2	11,43,2	13,116,2	15,96,2	17,94,2	19,92,2	21,120,2	23,72,2	25,51,2	27,15,2	29,18,2	31,50,2	41,104,2	81,79,2	95,97,2	107,26,2	133,88,2	139,28,2	155,53,2	161,90,2	163,78,2	169,80,2	173,33,2	193,64,2	203,71,2	209,115,2	
7,4,2	9,5,2	11,38,2	13,48,2	15,86,2	17,89,2	19,66,2	21,99,2	23,10,2	25,49,2	27,47,2	29,57,2	31,68,2	81,29,2	85,32,2	99,36,2	169,112,2	177,69,2	205,93,2	2787,54,2	3995,95,2	3997,102,2	4005,107,2	4017,14,2	4023,17,2	4041,46,2	4043,67,2	4047,73,2	4055,30,2	4059,65,2	
# Incoming
9,(0, 6),2	11,(0, 7),2	13,(2, 55),2	15,(4, 58),2	17,(8, 20),20	37,(8, 24),32	69,(4, 103),2	73,(3, 21),4	77,(3, 35),2	81,(8, 31),2	83,(4, 35),10	95,(10, 21),2	99,(8, 37),36	135,(8, 40),28	163,(3, 40),4	167,(3, 100),10	177,(8, 83),1096	1273,(8, 87),1494	2767,(1, 20),10	2777,(1, 39),4	2781,(12, 52),2	2783,(12, 100),2	2787,(1, 62),38	2825,(10, 31),6	2831,(1, 87),1152	3983,(2, 31),42	4025,(2, 58),84	4109,(2, 111),68	4177,(2, 117),26	4203,(9, 21),50	4253,(9, 35),32	4285,(9, 39),2	4287,(9, 55),36	4323,(9, 85),24	4347,(9, 100),20	4367,(9, 103),76	4443,(9, 111),32	4475,(3, 62),26	4501,(4, 31),32	4533,(4, 40),16	4549,(4, 44),34	4583,(4, 59),14	4597,(4, 62),14	4611,(4, 85),64	4675,(4, 117),10	4685,(11, 52),2	4687,(11, 58),6	4693,(11, 85),10	4703,(11, 103),22	4725,(61, 121),12	4737,(110, 121),12	4749,(106, 121),12	4761,(74, 121),12	4773,(38, 121),12	4785,(43, 121),12	4797,(109, 121),12	4809,(48, 121),12	4821,(116, 121),12	4833,(81, 121),12	4845,(86, 121),12	4857,(96, 121),12	4869,(25, 121),12	4881,(89, 121),12	4893,(94, 121),12	4905,(113, 121),12	4917,(66, 121),12	4929,(92, 121),12	4941,(12, 37),182	5123,(12, 63),24	5147,(12, 98),30	5177,(99, 121),12	5189,(120, 121),12	5201,(10, 44),62	5263,(10, 55),38	5301,(10, 58),68	5369,(10, 63),24	5393,(10, 83),48	5441,(10, 98),54	5495,(27, 121),12	5507,(72, 121),12	5519,(49, 121),12	5531,(84, 121),12	5543,(51, 121),12	5555,(101, 121),12	5567,(47, 121),12	5579,(15, 121),12	5591,(114, 121),12	5603,(57, 121),12	5615,(18, 121),12	5627,(50, 121),12	5639,(118, 121),12	5651,(68, 121),12	5663,(82, 121),12	5675,(91, 121),12	5687,(104, 121),12	5699,(19, 121),12	5711,(41, 121),12	5723,(29, 121),12	5735,(79, 121),12	5747,(45, 121),12	5759,(32, 121),12	5771,(97, 121),12	5783,(36, 121),12	5795,(26, 121),12	5807,(119, 121),12	5819,(34, 121),12	5831,(88, 121),12	5843,(28, 121),12	5855,(53, 121),12	5867,(90, 121),12	5879,(78, 121),12	5891,(112, 121),12	5903,(80, 121),12	5915,(60, 121),12	5927,(33, 121),12	5939,(69, 121),12	5951,(64, 121),12	5963,(71, 121),12	5975,(93, 121),12	5987,(105, 121),12	5999,(115, 121),12	6011,(54, 121),12	6023,(95, 121),12	6035,(102, 121),12	6047,(107, 121),12	6059,(13, 121),12	6071,(14, 121),12	6083,(16, 121),12	6095,(17, 121),12	6107,(22, 121),12	6119,(46, 121),12	6131,(67, 121),12	6143,(70, 121),12	6155,(73, 121),12	6167,(30, 121),12	6179,(56, 121),12	6191,(65, 121),12	6203,(76, 121),12	
1,(0, 2),2	3,(0, 3),2	9,(4, 27),2	11,(4, 34),2	15,(0, 12),2	17,(4, 76),2	25,(4, 82),10	35,(4, 91),4	41,(5, 19),20	61,(5, 22),4	65,(5, 70),2	67,(10, 41),2	71,(5, 45),12	85,(8, 34),12	97,(5, 119),10	107,(6, 13),8	115,(7, 22),2	117,(7, 34),6	123,(7, 60),2	125,(7, 70),2	163,(8, 60),10	173,(7, 76),4	205,(7, 105),2	4005,(9, 13),4	4017,(9, 16),2	4023,(9, 22),8	4043,(9, 70),2	4055,(11, 56),2	4059,(11, 76),8	
5,(2, 26),2	7,(3, 78),2	13,(4, 50),2	19,(4, 80),6	39,(4, 104),2	63,(2, 97),10	79,(3, 79),2	83,(12, 71),2	93,(5, 97),2	95,(3, 26),12	107,(3, 88),8	115,(5, 64),14	129,(5, 88),4	133,(12, 28),6	139,(6, 53),16	155,(6, 90),6	161,(10, 78),2	163,(10, 80),6	169,(7, 33),4	177,(12, 64),16	193,(7, 71),10	207,(7, 115),2	
5,(0, 4),2	7,(0, 5),2	9,(2, 49),4	13,(0, 10),2	15,(2, 32),14	29,(2, 54),14	43,(2, 65),14	57,(2, 95),6	69,(8, 29),12	81,(2, 102),2	83,(8, 32),2	85,(2, 107),4	89,(2, 112),6	97,(8, 36),2	115,(3, 112),12	127,(6, 30),12	139,(12, 17),4	143,(12, 93),2	161,(6, 107),2	163,(6, 112),6	173,(8, 69),4	177,(7, 14),6	183,(7, 30),10	203,(7, 93),2	2781,(1, 54),6	2825,(1, 73),6	3983,(1, 95),12	3995,(1, 102),2	3997,(1, 107),8	4009,(9, 14),8	4019,(9, 17),4	4031,(9, 46),10	4041,(9, 67),2	4045,(9, 73),2	4047,(11, 30),8	4057,(11, 65),2	
# Outgoing
107,(6, 13),8	115,(7, 22),2	117,(7, 34),6	123,(7, 60),2	125,(7, 70),2	127,(6, 30),12	139,(6, 53),16	155,(6, 90),6	161,(6, 107),2	163,(6, 112),6	169,(7, 33),4	173,(7, 76),4	177,(7, 14),6	183,(7, 30),10	193,(7, 71),10	203,(7, 93),2	205,(7, 105),2	207,(7, 115),2	
5,(2, 26),2	7,(3, 78),2	9,(2, 49),4	13,(2, 55),2	15,(2, 32),14	29,(2, 54),14	43,(2, 65),14	57,(2, 95),6	63,(2, 97),10	73,(3, 21),4	77,(3, 35),2	79,(3, 79),2	81,(2, 102),2	83,(12, 71),2	85,(2, 107),4	89,(2, 112),6	95,(3, 26),12	107,(3, 88),8	115,(3, 112),12	133,(12, 28),6	139,(12, 17),4	143,(12, 93),2	163,(3, 40),4	167,(3, 100),10	177,(12, 64),16	2781,(12, 52),2	2783,(12, 100),2	3983,(2, 31),42	4025,(2, 58),84	4109,(2, 111),68	4177,(2, 117),26	4475,(3, 62),26	4725,(61, 121),12	4737,(110, 121),12	4761,(74, 121),12	4797,(109, 121),12	4833,(81, 121),12	4869,(25, 121),12	4905,(113, 121),12	4941,(12, 37),182	5123,(12, 63),24	5147,(12, 98),30	5495,(27, 121),12	5531,(84, 121),12	5555,(101, 121),12	5591,(114, 121),12	5639,(118, 121),12	5663,(82, 121),12	5675,(91, 121),12	5699,(19, 121),12	5711,(41, 121),12	5747,(45, 121),12	5807,(119, 121),12	5819,(34, 121),12	5915,(60, 121),12	5987,(105, 121),12	6059,(13, 121),12	6083,(16, 121),12	6107,(22, 121),12	6143,(70, 121),12	6179,(56, 121),12	6203,(76, 121),12	
1,(0, 2),2	3,(0, 3),2	5,(0, 4),2	7,(0, 5),2	9,(0, 6),2	11,(0, 7),2	13,(0, 10),2	15,(0, 12),2	17,(8, 20),20	37,(8, 24),32	69,(8, 29),12	81,(8, 31),2	83,(8, 32),2	85,(8, 34),12	97,(8, 36),2	99,(8, 37),36	135,(8, 40),28	163,(8, 60),10	173,(8, 69),4	177,(8, 83),1096	1273,(8, 87),1494	2767,(1, 20),10	2777,(1, 39),4	2781,(1, 54),6	2787,(1, 62),38	2825,(1, 73),6	2831,(1, 87),1152	3983,(1, 95),12	3995,(1, 102),2	3997,(1, 107),8	4005,(9, 13),4	4009,(9, 14),8	4017,(9, 16),2	4019,(9, 17),4	4023,(9, 22),8	4031,(9, 46),10	4041,(9, 67),2	4043,(9, 70),2	4045,(9, 73),2	4047,(11, 30),8	4055,(11, 56),2	4057,(11, 65),2	4059,(11, 76),8	4203,(9, 21),50	4253,(9, 35),32	4285,(9, 39),2	4287,(9, 55),36	4323,(9, 85),24	4347,(9, 100),20	4367,(9, 103),76	4443,(9, 111),32	4685,(11, 52),2	4687,(11, 58),6	4693,(11, 85),10	4703,(11, 103),22	4749,(106, 121),12	4785,(43, 121),12	4821,(116, 121),12	4857,(96, 121),12	4893,(94, 121),12	4929,(92, 121),12	5189,(120, 121),12	5507,(72, 121),12	5543,(51, 121),12	5579,(15, 121),12	5615,(18, 121),12	5627,(50, 121),12	5687,(104, 121),12	5735,(79, 121),12	5771,(97, 121),12	5795,(26, 121),12	5831,(88, 121),12	5843,(28, 121),12	5855,(53, 121),12	5867,(90, 121),12	5879,(78, 121),12	5903,(80, 121),12	5927,(33, 121),12	5951,(64, 121),12	5963,(71, 121),12	5999,(115, 121),12	
9,(4, 27),2	11,(4, 34),2	13,(4, 50),2	15,(4, 58),2	17,(4, 76),2	19,(4, 80),6	25,(4, 82),10	35,(4, 91),4	39,(4, 104),2	41,(5, 19),20	61,(5, 22),4	65,(5, 70),2	67,(10, 41),2	69,(4, 103),2	71,(5, 45),12	83,(4, 35),10	93,(5, 97),2	95,(10, 21),2	97,(5, 119),10	115,(5, 64),14	129,(5, 88),4	161,(10, 78),2	163,(10, 80),6	2825,(10, 31),6	4501,(4, 31),32	4533,(4, 40),16	4549,(4, 44),34	4583,(4, 59),14	4597,(4, 62),14	4611,(4, 85),64	4675,(4, 117),10	4773,(38, 121),12	4809,(48, 121),12	4845,(86, 121),12	4881,(89, 121),12	4917,(66, 121),12	5177,(99, 121),12	5201,(10, 44),62	5263,(10, 55),38	5301,(10, 58),68	5369,(10, 63),24	5393,(10, 83),48	5441,(10, 98),54	5519,(49, 121),12	5567,(47, 121),12	5603,(57, 121),12	5651,(68, 121),12	5723,(29, 121),12	5759,(32, 121),12	5783,(36, 121),12	5891,(112, 121),12	5939,(69, 121),12	5975,(93, 121),12	6011,(54, 121),12	6023,(95, 121),12	6035,(102, 121),12	6047,(107, 121),12	6071,(14, 121),12	6095,(17, 121),12	6119,(46, 121),12	6131,(67, 121),12	6155,(73, 121),12	6167,(30, 121),12	6191,(65, 121),12	
