226
# CPU
105,14,3	109,6,3	121,10,3	129,18,3	
65,5,3	69,9,3	77,13,3	129,17,3	
29,2,3	32,8,3	35,12,3	38,20,3	41,16,3	61,4,3	
0,0,1	1,1,3	4,7,3	7,15,3	10,19,3	48,3,3	60,11,3	225,21,1	
# Incoming
77,(1, 14),28	105,(2, 6),4	109,(2, 10),12	121,(2, 18),8	
61,(1, 5),4	65,(1, 9),4	69,(1, 13),8	105,(1, 17),24	
1,(0, 2),28	29,(1, 4),32	
32,(2, 3),16	48,(2, 11),12	60,(8, 21),12	72,(12, 21),12	84,(20, 21),12	96,(5, 21),12	108,(9, 21),12	129,(16, 21),12	141,(4, 21),12	153,(13, 21),12	165,(14, 21),12	177,(6, 21),12	189,(10, 21),12	201,(18, 21),12	213,(17, 21),12	
# Outgoing
165,(14, 21),12	177,(6, 21),12	189,(10, 21),12	201,(18, 21),12	
96,(5, 21),12	108,(9, 21),12	153,(13, 21),12	213,(17, 21),12	
32,(2, 3),16	48,(2, 11),12	60,(8, 21),12	72,(12, 21),12	84,(20, 21),12	105,(2, 6),4	109,(2, 10),12	121,(2, 18),8	129,(16, 21),12	141,(4, 21),12	
1,(0, 2),28	29,(1, 4),32	61,(1, 5),4	65,(1, 9),4	69,(1, 13),8	77,(1, 14),28	105,(1, 17),24	
