515
# CPU
145,24,1	163,14,1	496,34,1	
88,23,1	223,13,1	262,33,1	
136,12,1	277,22,1	280,32,1	
184,21,1	232,11,1	259,31,1	
85,20,1	319,40,1	391,10,1	412,30,1	
61,9,1	145,19,1	241,39,1	334,29,1	
10,4,1	11,18,1	58,8,1	256,28,1	352,38,1	
7,3,1	8,17,1	9,37,1	19,7,1	238,27,1	
4,2,1	5,26,1	163,36,1	220,6,1	235,16,1	
0,0,1	1,1,1	2,35,1	208,25,1	214,5,1	280,15,1	514,41,1	
# Incoming
88,(1, 24),57	145,(2, 14),18	163,(3, 34),18	412,(4, 34),84	
64,(1, 13),12	85,(1, 23),3	151,(3, 33),9	220,(4, 13),3	259,(2, 33),3	
61,(1, 12),3	94,(3, 12),42	145,(1, 32),123	268,(2, 22),9	277,(3, 32),3	
163,(2, 21),21	184,(3, 11),48	256,(2, 31),3	
76,(1, 20),9	85,(3, 10),9	148,(3, 30),3	262,(2, 40),3	268,(1, 40),51	319,(4, 10),72	391,(4, 30),21	
58,(1, 9),3	136,(3, 19),9	238,(4, 39),3	277,(2, 29),57	
7,(0, 4),3	19,(1, 8),39	145,(3, 28),3	208,(2, 28),48	334,(2, 38),18	
4,(0, 3),3	10,(1, 7),9	235,(4, 27),3	
1,(0, 2),3	160,(3, 36),3	214,(4, 6),6	223,(4, 16),12	
184,(2, 25),24	208,(4, 5),6	214,(9, 41),6	220,(20, 41),6	226,(23, 41),6	232,(17, 41),6	238,(37, 41),6	244,(4, 15),36	280,(18, 41),6	286,(7, 41),6	292,(8, 41),6	298,(12, 41),6	304,(24, 41),6	310,(19, 41),6	316,(14, 41),6	322,(21, 41),6	328,(13, 41),6	334,(11, 41),6	340,(27, 41),6	346,(39, 41),6	352,(26, 41),6	358,(36, 41),6	364,(6, 41),6	370,(16, 41),6	376,(31, 41),6	382,(33, 41),6	388,(22, 41),6	394,(32, 41),6	400,(40, 41),6	406,(29, 41),6	412,(10, 41),6	418,(30, 41),6	496,(28, 41),6	502,(38, 41),6	508,(34, 41),6	
# Outgoing
304,(24, 41),6	316,(14, 41),6	508,(34, 41),6	
226,(23, 41),6	328,(13, 41),6	382,(33, 41),6	
298,(12, 41),6	388,(22, 41),6	394,(32, 41),6	
322,(21, 41),6	334,(11, 41),6	376,(31, 41),6	
220,(20, 41),6	400,(40, 41),6	412,(10, 41),6	418,(30, 41),6	
214,(9, 41),6	310,(19, 41),6	346,(39, 41),6	406,(29, 41),6	
208,(4, 5),6	214,(4, 6),6	220,(4, 13),3	223,(4, 16),12	235,(4, 27),3	238,(4, 39),3	244,(4, 15),36	280,(18, 41),6	292,(8, 41),6	319,(4, 10),72	391,(4, 30),21	412,(4, 34),84	496,(28, 41),6	502,(38, 41),6	
85,(3, 10),9	94,(3, 12),42	136,(3, 19),9	145,(3, 28),3	148,(3, 30),3	151,(3, 33),9	160,(3, 36),3	163,(3, 34),18	184,(3, 11),48	232,(17, 41),6	238,(37, 41),6	277,(3, 32),3	286,(7, 41),6	340,(27, 41),6	
145,(2, 14),18	163,(2, 21),21	184,(2, 25),24	208,(2, 28),48	256,(2, 31),3	259,(2, 33),3	262,(2, 40),3	268,(2, 22),9	277,(2, 29),57	334,(2, 38),18	352,(26, 41),6	358,(36, 41),6	364,(6, 41),6	370,(16, 41),6	
1,(0, 2),3	4,(0, 3),3	7,(0, 4),3	10,(1, 7),9	19,(1, 8),39	58,(1, 9),3	61,(1, 12),3	64,(1, 13),12	76,(1, 20),9	85,(1, 23),3	88,(1, 24),57	145,(1, 32),123	268,(1, 40),51	
