121363
# CPU
90776,118,1	92696,177,1	98471,28,1	103706,48,1	105326,87,1	105659,100,1	105935,125,1	106121,142,1	106349,151,1	106904,172,1	107201,187,1	107363,34,1	107942,40,1	108065,47,1	108116,55,1	108506,63,1	108596,70,1	109694,128,1	109862,133,1	110267,164,1	111137,23,1	111191,32,1	111401,44,1	111455,49,1	111968,57,1	111998,59,1	112274,72,1	112391,83,1	112460,84,1	112487,85,1	112493,89,1	112733,108,1	112802,112,1	113219,123,1	113276,126,1	113567,132,1	113570,134,1	114515,150,1	114938,158,1	115007,160,1	115238,161,1	115295,171,1	115583,199,1	115586,21,1	115796,25,1	116003,26,1	116105,30,1	116108,35,1	116558,37,1	116561,43,1	116567,45,1	116570,50,1	116699,52,1	116789,61,1	117002,66,1	117053,71,1	117056,74,1	117089,77,1	117125,81,1	117206,93,1	117302,94,1	117314,96,1	117425,97,1	117458,98,1	117461,99,1	117473,103,1	117530,104,1	117533,106,1	117791,111,1	117902,120,1	117932,121,1	118058,127,1	118097,130,1	118280,139,1	118283,140,1	118301,141,1	118382,146,1	118403,147,1	118406,149,1	118472,156,1	118517,167,1	118523,170,1	118541,173,1	118547,174,1	118592,179,1	118631,180,1	118706,185,1	118721,189,1	118742,190,1	118745,192,1	118763,193,1	118910,195,1	119036,197,1	119045,198,1	119099,200,1	119102,22,1	119132,24,1	119135,27,1	119156,29,1	119231,31,1	119246,33,1	119252,36,1	119255,38,1	119264,39,1	119267,41,1	119324,42,1	119342,46,1	119357,51,1	119366,53,1	119468,54,1	119474,56,1	119537,58,1	119552,60,1	119558,62,1	119561,64,1	119567,65,1	119570,67,1	119576,68,1	119609,69,1	119618,73,1	119651,75,1	119654,76,1	119663,78,1	119702,79,1	119717,80,1	119747,82,1	119753,86,1	119798,88,1	119813,90,1	119816,91,1	119858,92,1	119861,95,1	119864,101,1	119906,102,1	119933,105,1	119954,107,1	119990,109,1	120056,110,1	120059,113,1	120080,114,1	120089,115,1	120092,116,1	120227,117,1	120245,119,1	120248,122,1	120299,124,1	120305,129,1	120317,131,1	120320,135,1	120323,136,1	120353,137,1	120386,138,1	120401,143,1	120413,144,1	120647,145,1	120659,148,1	120989,152,1	120992,153,1	121031,154,1	121034,155,1	121037,157,1	121085,159,1	121109,162,1	121121,163,1	121142,165,1	121187,166,1	121196,168,1	121202,169,1	121205,175,1	121208,176,1	121214,178,1	121226,181,1	121298,182,1	121301,183,1	121304,184,1	121310,186,1	121325,188,1	121340,191,1	121352,194,1	121361,196,1	121362,201,1	
0,0,1	1,5,1	2,1,1	3,20,1	4,2,1	5,8,1	6,9,1	7,18,1	8,6,1	9,11,1	10,16,1	11,19,1	12,4,1	13,3,1	14,13,1	15,7,1	16,10,1	17,17,1	18,15,1	19,14,1	20,12,1	
# Incoming
2,(5, 22),9	11,(5, 24),183	194,(5, 25),60	254,(5, 28),69	323,(5, 30),12	335,(5, 32),24	359,(5, 34),1317	1676,(5, 36),69	1745,(5, 37),21	1766,(5, 38),3	1769,(5, 39),90	1859,(5, 40),3	1862,(5, 42),24	1886,(5, 43),21	1907,(5, 44),18	1925,(5, 46),9	1934,(5, 47),3	1937,(5, 48),12	1949,(5, 53),3	1952,(5, 55),3	1955,(5, 56),9	1964,(5, 61),3	1967,(5, 62),3	1970,(5, 63),504	2474,(5, 64),1710	4184,(5, 65),9	4193,(5, 69),3	4196,(5, 70),33	4229,(5, 74),18	4247,(5, 76),105	4352,(5, 78),12	4364,(5, 80),24	4388,(5, 83),3	4391,(5, 84),9	4400,(5, 86),24	4424,(5, 88),18	4442,(5, 89),15	4457,(5, 90),3	4460,(5, 91),3	4463,(5, 92),63	4526,(5, 93),12	4538,(5, 96),3	4541,(5, 99),15	4556,(5, 101),18	4574,(5, 102),12	4586,(5, 103),9	4595,(5, 104),9	4604,(5, 106),318	4922,(5, 107),120	5042,(5, 118),168	5210,(5, 119),3	5213,(5, 121),33	5246,(5, 123),93	5339,(5, 126),3	5342,(5, 133),30	5372,(5, 134),9	5381,(5, 137),45	5426,(5, 138),327	5753,(5, 141),81	5834,(5, 142),3	5837,(5, 144),6	5843,(5, 145),24	5867,(5, 148),54	5921,(5, 149),18	5939,(5, 153),3	5942,(5, 155),12	5954,(5, 158),69	6023,(5, 166),6	6029,(5, 168),9	6038,(5, 170),27	6065,(5, 171),24	6089,(5, 172),27	6116,(5, 173),99	6215,(5, 174),126	6341,(5, 178),24	6365,(5, 184),75	6440,(5, 187),3	6443,(5, 188),6	6449,(5, 193),15	6464,(5, 194),3966	10430,(5, 199),3	10433,(5, 200),3	10436,(1, 21),30	10466,(1, 24),51	10517,(1, 25),6	10523,(1, 26),171	10694,(1, 27),1737	12431,(1, 28),3	12434,(1, 29),3	12437,(1, 31),72	12509,(1, 34),3	12512,(1, 36),6	12518,(1, 37),3	12521,(1, 39),3	12524,(1, 42),15	12539,(1, 44),3	12542,(1, 45),24	12566,(1, 47),36	12602,(1, 48),3	12605,(1, 50),3	12608,(1, 53),30	12638,(1, 54),30	12668,(1, 55),3	12671,(1, 57),12	12683,(1, 59),3	12686,(1, 60),3	12689,(1, 61),15	12704,(1, 62),33	12737,(1, 63),12	12749,(1, 64),18	12767,(1, 67),9	12776,(1, 76),3	12779,(1, 79),3	12782,(1, 82),36	12818,(1, 83),66	12884,(1, 86),165	13049,(1, 87),207	13256,(1, 88),69	13325,(1, 89),15	13340,(1, 91),84	13424,(1, 94),33	13457,(1, 95),3	13460,(1, 97),3	13463,(1, 98),6	13469,(1, 99),48	13517,(1, 102),3	13520,(1, 103),33	13553,(1, 104),3	13556,(1, 105),15	13571,(1, 107),9	13580,(1, 111),6	13586,(1, 113),6	13592,(1, 114),3	13595,(1, 117),3	13598,(1, 118),87	13685,(1, 119),3	13688,(1, 120),6	13694,(1, 122),9	13703,(1, 123),9	13712,(1, 124),3	13715,(1, 125),39	13754,(1, 126),6	13760,(1, 127),99	13859,(1, 128),6	13865,(1, 131),27	13892,(1, 132),39	13931,(1, 133),3	13934,(1, 134),42	13976,(1, 135),66	14042,(1, 137),3	14045,(1, 138),3	14048,(1, 140),18	14066,(1, 141),18	14084,(1, 143),3	14087,(1, 144),27	14114,(1, 145),36	14150,(1, 146),72	14222,(1, 148),21	14243,(1, 151),42	14285,(1, 152),60	14345,(1, 153),72	14417,(1, 156),9	14426,(1, 157),30	14456,(1, 158),3	14459,(1, 159),21	14480,(1, 160),21	14501,(1, 161),3	14504,(1, 162),3	14507,(1, 164),3	14510,(1, 165),3	14513,(1, 166),12	14525,(1, 167),21	14546,(1, 168),51	14597,(1, 170),3	14600,(1, 172),3	14603,(1, 173),51	14654,(1, 175),114	14768,(1, 177),30	14798,(1, 178),9	14807,(1, 180),3507	18314,(1, 181),6	18320,(1, 183),6	18326,(1, 185),72	18398,(1, 186),300	18698,(1, 187),3	18701,(1, 188),12	18713,(1, 189),6	18719,(1, 191),9	18728,(1, 192),33	18761,(1, 193),9	18770,(1, 195),9	18779,(1, 198),6	18785,(1, 200),48	18833,(20, 21),18	18851,(20, 23),27	18878,(20, 24),12	18890,(20, 29),3	18893,(20, 32),6	18899,(20, 33),528	19427,(20, 35),1194	20621,(20, 37),6	20627,(20, 38),15	20642,(20, 39),9	20651,(20, 40),96	20747,(20, 41),18	20765,(20, 42),6	20771,(20, 45),21	20792,(20, 47),84	20876,(20, 48),3	20879,(20, 49),3	20882,(20, 50),12	20894,(20, 51),72	20966,(20, 54),3	20969,(20, 55),6	20975,(20, 56),15	20990,(20, 57),207	21197,(20, 61),114	21311,(20, 62),270	21581,(20, 64),27	21608,(20, 66),3	21611,(20, 67),3	21614,(20, 70),3	21617,(20, 71),3	21620,(20, 72),3	21623,(20, 74),27	21650,(20, 75),36	21686,(20, 76),24	21710,(20, 78),21	21731,(20, 80),15	21746,(20, 84),3	21749,(20, 88),48	21797,(20, 89),27	21824,(20, 91),75	21899,(20, 93),501	22400,(20, 96),3	22403,(20, 97),51	22454,(20, 100),63	22517,(20, 102),2007	24524,(20, 103),21	24545,(20, 105),15	24560,(20, 106),12	24572,(20, 109),3	24575,(20, 110),99	24674,(20, 112),6	24680,(20, 113),54	24734,(20, 115),12	24746,(20, 118),3	24749,(20, 120),21	24770,(20, 122),27	24797,(20, 124),9	24806,(20, 128),3	24809,(20, 130),6	24815,(20, 133),33	24848,(20, 134),6	24854,(20, 138),18	24872,(20, 141),39	24911,(20, 144),9	24920,(20, 146),42	24962,(20, 147),3	24965,(20, 148),15	24980,(20, 149),297	25277,(20, 155),3369	28646,(20, 158),3	28649,(20, 159),9	28658,(20, 160),39	28697,(20, 162),12	28709,(20, 163),36	28745,(20, 164),3	28748,(20, 165),24	28772,(20, 166),3	28775,(20, 168),12	28787,(20, 169),6	28793,(20, 170),6	28799,(20, 171),78	28877,(20, 172),3	28880,(20, 173),3	28883,(20, 174),228	29111,(20, 175),3	29114,(20, 176),3	29117,(20, 177),15	29132,(20, 178),18	29150,(20, 181),3	29153,(20, 182),12	29165,(20, 187),39	29204,(20, 188),9	29213,(20, 189),6	29219,(20, 196),6	29225,(20, 197),18	29243,(20, 198),81	29324,(20, 199),6	29330,(2, 22),3	29333,(2, 23),3	29336,(2, 25),48	29384,(2, 26),21	29405,(2, 27),3	29408,(2, 30),12	29420,(2, 31),9	29429,(2, 32),102	29531,(2, 35),2763	32294,(2, 36),15	32309,(2, 37),3	32312,(2, 40),3	32315,(2, 44),6	32321,(2, 50),3	32324,(2, 53),159	32483,(2, 55),111	32594,(2, 59),3	32597,(2, 60),72	32669,(2, 62),24	32693,(2, 63),15	32708,(2, 65),78	32786,(2, 66),84	32870,(2, 69),3	32873,(2, 70),75	32948,(2, 71),3	32951,(2, 73),42	32993,(2, 74),12	33005,(2, 76),72	33077,(2, 77),6	33083,(2, 78),15	33098,(2, 79),21	33119,(2, 80),3	33122,(2, 81),42	33164,(2, 83),126	33290,(2, 84),3	33293,(2, 87),30	33323,(2, 88),87	33410,(2, 89),6	33416,(2, 90),12	33428,(2, 91),6	33434,(2, 95),15	33449,(2, 96),3	33452,(2, 97),12	33464,(2, 103),9	33473,(2, 104),9	33482,(2, 105),57	33539,(2, 107),141	33680,(2, 109),15	33695,(2, 112),3	33698,(2, 113),102	33800,(2, 114),15	33815,(2, 115),51	33866,(2, 116),3	33869,(2, 119),141	34010,(2, 120),3	34013,(2, 125),12	34025,(2, 128),3	34028,(2, 130),39	34067,(2, 131),171	34238,(2, 132),36	34274,(2, 135),3	34277,(2, 136),12	34289,(2, 140),120	34409,(2, 143),3	34412,(2, 147),57	34469,(2, 148),3	34472,(2, 149),3	34475,(2, 151),3171	37646,(2, 152),3	37649,(2, 153),9	37658,(2, 157),60	37718,(2, 159),6	37724,(2, 161),30	37754,(2, 162),39	37793,(2, 163),63	37856,(2, 164),3	37859,(2, 166),162	38021,(2, 167),45	38066,(2, 169),18	38084,(2, 170),12	38096,(2, 173),105	38201,(2, 174),3	38204,(2, 177),45	38249,(2, 178),21	38270,(2, 179),15	38285,(2, 182),111	38396,(2, 183),162	38558,(2, 185),66	38624,(2, 187),9	38633,(2, 191),24	38657,(2, 196),18	38675,(2, 197),9	38684,(2, 198),3	38687,(2, 200),3	38690,(8, 22),6	38696,(8, 24),27	38723,(8, 26),33	38756,(8, 27),51	38807,(8, 28),12	38819,(8, 31),45	38864,(8, 33),15	38879,(8, 34),3	38882,(8, 37),12	38894,(8, 40),6	38900,(8, 41),6	38906,(8, 43),84	38990,(8, 44),117	39107,(8, 45),189	39296,(8, 46),12	39308,(8, 48),48	39356,(8, 49),9	39365,(8, 50),591	39956,(8, 51),6	39962,(8, 52),3	39965,(8, 53),3	39968,(8, 57),12	39980,(8, 61),3	39983,(8, 63),105	40088,(8, 65),3	40091,(8, 66),18	40109,(8, 67),9	40118,(8, 69),3	40121,(8, 70),201	40322,(8, 72),12	40334,(8, 73),3	40337,(8, 75),117	40454,(8, 77),15	40469,(8, 78),42	40511,(8, 79),3	40514,(8, 80),3	40517,(8, 82),3	40520,(8, 86),3	40523,(8, 88),381	40904,(8, 89),168	41072,(8, 91),36	41108,(8, 92),237	41345,(8, 95),18	41363,(8, 98),6	41369,(8, 99),3	41372,(8, 100),3	41375,(8, 101),18	41393,(8, 102),15	41408,(8, 105),75	41483,(8, 107),162	41645,(8, 109),18	41663,(8, 110),3	41666,(8, 116),3	41669,(8, 119),75	41744,(8, 120),3	41747,(8, 121),3	41750,(8, 122),33	41783,(8, 124),6	41789,(8, 125),156	41945,(8, 126),18	41963,(8, 129),15	41978,(8, 131),3	41981,(8, 133),885	42866,(8, 134),3	42869,(8, 136),93	42962,(8, 137),69	43031,(8, 138),36	43067,(8, 139),3	43070,(8, 140),3	43073,(8, 141),6	43079,(8, 145),15	43094,(8, 148),3102	46196,(8, 149),69	46265,(8, 151),3	46268,(8, 152),27	46295,(8, 154),15	46310,(8, 156),27	46337,(8, 158),45	46382,(8, 161),9	46391,(8, 162),3	46394,(8, 163),24	46418,(8, 164),3	46421,(8, 165),12	46433,(8, 168),3	46436,(8, 171),240	46676,(8, 172),3	46679,(8, 173),3	46682,(8, 175),12	46694,(8, 176),84	46778,(8, 179),3	46781,(8, 180),60	46841,(8, 184),3	46844,(8, 185),66	46910,(8, 186),27	46937,(8, 187),54	46991,(8, 188),3	46994,(8, 190),102	47096,(8, 191),78	47174,(8, 192),99	47273,(8, 194),51	47324,(8, 195),6	47330,(8, 197),3	47333,(8, 199),30	47363,(8, 200),15	47378,(9, 21),9	47387,(9, 23),3	47390,(9, 24),39	47429,(9, 26),3	47432,(9, 30),9	47441,(9, 34),9	47450,(9, 36),57	47507,(9, 38),81	47588,(9, 39),2862	50450,(9, 42),3	50453,(9, 44),45	50498,(9, 45),9	50507,(9, 46),174	50681,(9, 47),3	50684,(9, 48),6	50690,(9, 49),33	50723,(9, 53),84	50807,(9, 55),3	50810,(9, 59),3	50813,(9, 60),54	50867,(9, 61),69	50936,(9, 65),6	50942,(9, 67),33	50975,(9, 68),12	50987,(9, 73),6	50993,(9, 78),84	51077,(9, 79),3	51080,(9, 81),42	51122,(9, 82),45	51167,(9, 83),120	51287,(9, 84),6	51293,(9, 85),9	51302,(9, 87),24	51326,(9, 89),3	51329,(9, 90),6	51335,(9, 97),21	51356,(9, 101),51	51407,(9, 104),27	51434,(9, 105),258	51692,(9, 109),9	51701,(9, 111),276	51977,(9, 113),27	52004,(9, 114),12	52016,(9, 119),18	52034,(9, 122),111	52145,(9, 125),27	52172,(9, 127),342	52514,(9, 130),21	52535,(9, 131),3	52538,(9, 137),12	52550,(9, 140),12	52562,(9, 142),252	52814,(9, 143),30	52844,(9, 146),3	52847,(9, 147),6	52853,(9, 150),18	52871,(9, 151),3	52874,(9, 152),3	52877,(9, 154),12	52889,(9, 155),21	52910,(9, 156),9	52919,(9, 157),42	52961,(9, 158),3	52964,(9, 160),9	52973,(9, 161),15	52988,(9, 163),15	53003,(9, 164),291	53294,(9, 167),3	53297,(9, 171),6	53303,(9, 177),3	53306,(9, 179),6	53312,(9, 180),84	53396,(9, 183),3	53399,(9, 184),12	53411,(9, 188),48	53459,(9, 189),96	53555,(9, 190),9	53564,(9, 191),69	53633,(9, 192),240	53873,(9, 197),6	53879,(9, 198),81	53960,(18, 21),3	53963,(18, 22),9	53972,(18, 26),15	53987,(18, 27),6	53993,(18, 28),3	53996,(18, 29),6	54002,(18, 31),3	54005,(18, 35),543	54548,(18, 36),69	54617,(18, 37),30	54647,(18, 40),3	54650,(18, 47),12	54662,(18, 49),6	54668,(18, 51),45	54713,(18, 53),3	54716,(18, 55),24	54740,(18, 57),27	54767,(18, 58),12	54779,(18, 60),3	54782,(18, 61),3	54785,(18, 63),21	54806,(18, 69),9	54815,(18, 70),6	54821,(18, 72),3	54824,(18, 76),153	54977,(18, 77),9	54986,(18, 78),147	55133,(18, 79),15	55148,(18, 80),18	55166,(18, 81),789	55955,(18, 86),3	55958,(18, 89),3	55961,(18, 91),12	55973,(18, 99),9	55982,(18, 101),42	56024,(18, 102),3	56027,(18, 103),6	56033,(18, 105),51	56084,(18, 107),6	56090,(18, 109),3	56093,(18, 111),45	56138,(18, 113),3	56141,(18, 114),9	56150,(18, 116),3	56153,(18, 117),6	56159,(18, 118),39	56198,(18, 120),3	56201,(18, 122),3	56204,(18, 124),93	56297,(18, 125),48	56345,(18, 126),3	56348,(18, 128),3	56351,(18, 130),1074	57425,(18, 131),3	57428,(18, 132),93	57521,(18, 136),3	57524,(18, 137),6	57530,(18, 138),3	57533,(18, 139),84	57617,(18, 140),9	57626,(18, 141),3	57629,(18, 142),3	57632,(18, 146),3	57635,(18, 148),3	57638,(18, 150),36	57674,(18, 152),3	57677,(18, 153),2430	60107,(18, 154),9	60116,(18, 162),3	60119,(18, 163),6	60125,(18, 164),12	60137,(18, 166),18	60155,(18, 168),9	60164,(18, 169),3	60167,(18, 171),78	60245,(18, 175),3	60248,(18, 176),273	60521,(18, 177),27	60548,(18, 179),6	60554,(18, 180),3	60557,(18, 182),9	60566,(18, 183),18	60584,(18, 184),3	60587,(18, 186),9	60596,(18, 187),18	60614,(18, 189),30	60644,(18, 190),33	60677,(18, 191),72	60749,(18, 196),165	60914,(18, 197),9	60923,(6, 21),6	60929,(6, 23),30	60959,(6, 25),12	60971,(6, 26),69	61040,(6, 27),15	61055,(6, 28),6	61061,(6, 29),114	61175,(6, 32),3	61178,(6, 33),24	61202,(6, 36),9	61211,(6, 38),3	61214,(6, 39),18	61232,(6, 41),396	61628,(6, 42),3	61631,(6, 43),60	61691,(6, 44),3	61694,(6, 47),87	61781,(6, 48),27	61808,(6, 49),9	61817,(6, 50),12	61829,(6, 55),27	61856,(6, 56),3	61859,(6, 57),12	61871,(6, 58),3	61874,(6, 60),48	61922,(6, 61),24	61946,(6, 65),12	61958,(6, 66),27	61985,(6, 67),6	61991,(6, 68),3	61994,(6, 69),6	62000,(6, 73),66	62066,(6, 78),18	62084,(6, 84),12	62096,(6, 87),99	62195,(6, 88),12	62207,(6, 89),12	62219,(6, 91),24	62243,(6, 93),3	62246,(6, 95),3	62249,(6, 96),78	62327,(6, 97),33	62360,(6, 105),3	62363,(6, 108),75	62438,(6, 113),3	62441,(6, 118),33	62474,(6, 119),15	62489,(6, 124),213	62702,(6, 126),6	62708,(6, 127),24	62732,(6, 130),3	62735,(6, 133),15	62750,(6, 134),6	62756,(6, 136),1812	64568,(6, 140),15	64583,(6, 143),1272	65855,(6, 146),3	65858,(6, 147),15	65873,(6, 148),3	65876,(6, 149),24	65900,(6, 154),3	65903,(6, 155),6	65909,(6, 156),6	65915,(6, 159),48	65963,(6, 161),69	66032,(6, 165),3	66035,(6, 166),33	66068,(6, 168),69	66137,(6, 173),54	66191,(6, 174),3	66194,(6, 175),21	66215,(6, 179),15	66230,(6, 180),3	66233,(6, 181),6	66239,(6, 182),93	66332,(6, 184),42	66374,(6, 185),60	66434,(6, 186),24	66458,(6, 188),6	66464,(6, 191),9	66473,(6, 192),354	66827,(6, 193),3	66830,(6, 196),135	66965,(6, 197),45	67010,(6, 198),6	67016,(11, 21),36	67052,(11, 22),57	67109,(11, 23),78	67187,(11, 24),6	67193,(11, 25),9	67202,(11, 27),3	67205,(11, 28),39	67244,(11, 30),12	67256,(11, 35),3	67259,(11, 37),12	67271,(11, 40),33	67304,(11, 41),78	67382,(11, 43),6	67388,(11, 45),3	67391,(11, 46),105	67496,(11, 47),3	67499,(11, 50),30	67529,(11, 51),3	67532,(11, 54),24	67556,(11, 55),3	67559,(11, 58),24	67583,(11, 63),9	67592,(11, 65),3	67595,(11, 67),3	67598,(11, 69),33	67631,(11, 71),75	67706,(11, 73),12	67718,(11, 74),21	67739,(11, 75),33	67772,(11, 76),9	67781,(11, 80),18	67799,(11, 81),36	67835,(11, 82),3	67838,(11, 86),6	67844,(11, 87),9	67853,(11, 93),3	67856,(11, 94),3	67859,(11, 96),108	67967,(11, 98),240	68207,(11, 99),3	68210,(11, 102),78	68288,(11, 103),87	68375,(11, 105),33	68408,(11, 106),3	68411,(11, 109),117	68528,(11, 116),15	68543,(11, 117),3	68546,(11, 118),186	68732,(11, 119),33	68765,(11, 120),6	68771,(11, 121),15	68786,(11, 122),3	68789,(11, 124),12	68801,(11, 125),36	68837,(11, 126),3	68840,(11, 127),3	68843,(11, 128),6	68849,(11, 130),3	68852,(11, 131),6	68858,(11, 132),3	68861,(11, 134),3	68864,(11, 135),69	68933,(11, 136),9	68942,(11, 138),258	69200,(11, 139),33	69233,(11, 140),1737	70970,(11, 142),3	70973,(11, 144),6	70979,(11, 145),21	71000,(11, 146),27	71027,(11, 147),51	71078,(11, 149),135	71213,(11, 150),75	71288,(11, 151),3	71291,(11, 153),66	71357,(11, 155),3	71360,(11, 157),6	71366,(11, 159),627	71993,(11, 161),33	72026,(11, 162),75	72101,(11, 165),36	72137,(11, 167),18	72155,(11, 168),120	72275,(11, 169),93	72368,(11, 171),3	72371,(11, 172),39	72410,(11, 173),30	72440,(11, 174),3	72443,(11, 175),21	72464,(11, 176),3	72467,(11, 180),33	72500,(11, 182),12	72512,(11, 183),3	72515,(11, 187),54	72569,(11, 190),9	72578,(11, 192),3	72581,(11, 193),15	72596,(11, 194),3	72599,(11, 195),12	72611,(11, 197),51	72662,(16, 22),24	72686,(16, 24),15	72701,(16, 25),54	72755,(16, 26),6	72761,(16, 29),168	72929,(16, 32),6	72935,(16, 33),162	73097,(16, 38),12	73109,(16, 40),117	73226,(16, 41),3	73229,(16, 44),24	73253,(16, 47),147	73400,(16, 52),135	73535,(16, 55),27	73562,(16, 56),9	73571,(16, 57),3	73574,(16, 60),42	73616,(16, 63),3	73619,(16, 66),150	73769,(16, 67),36	73805,(16, 70),162	73967,(16, 71),3	73970,(16, 74),3	73973,(16, 76),3	73976,(16, 78),6	73982,(16, 79),18	74000,(16, 80),6	74006,(16, 81),81	74087,(16, 82),402	74489,(16, 84),3	74492,(16, 86),45	74537,(16, 87),6	74543,(16, 88),1668	76211,(16, 89),3	76214,(16, 93),30	76244,(16, 94),39	76283,(16, 97),6	76289,(16, 99),72	76361,(16, 100),15	76376,(16, 101),27	76403,(16, 102),201	76604,(16, 104),12	76616,(16, 105),135	76751,(16, 108),21	76772,(16, 109),3	76775,(16, 110),3	76778,(16, 111),3	76781,(16, 112),3	76784,(16, 113),18	76802,(16, 114),21	76823,(16, 118),114	76937,(16, 119),6	76943,(16, 121),318	77261,(16, 123),12	77273,(16, 125),15	77288,(16, 126),6	77294,(16, 128),165	77459,(16, 131),93	77552,(16, 132),9	77561,(16, 137),3	77564,(16, 138),75	77639,(16, 141),6	77645,(16, 142),9	77654,(16, 146),3	77657,(16, 147),12	77669,(16, 148),18	77687,(16, 149),114	77801,(16, 150),54	77855,(16, 151),3	77858,(16, 156),3	77861,(16, 157),3	77864,(16, 158),33	77897,(16, 159),27	77924,(16, 160),6	77930,(16, 161),63	77993,(16, 162),21	78014,(16, 163),45	78059,(16, 167),27	78086,(16, 170),9	78095,(16, 171),27	78122,(16, 172),15	78137,(16, 173),12	78149,(16, 174),3	78152,(16, 175),3	78155,(16, 176),60	78215,(16, 177),36	78251,(16, 178),9	78260,(16, 179),27	78287,(16, 180),6	78293,(16, 182),12	78305,(16, 184),3	78308,(16, 186),6	78314,(16, 187),3	78317,(16, 189),3	78320,(16, 190),78	78398,(16, 191),12	78410,(16, 192),3	78413,(16, 193),9	78422,(16, 195),3	78425,(16, 199),3	78428,(19, 21),42	78470,(19, 22),15	78485,(19, 26),3	78488,(19, 27),3	78491,(19, 28),3	78494,(19, 31),3	78497,(19, 33),3	78500,(19, 34),9	78509,(19, 36),30	78539,(19, 37),117	78656,(19, 39),6	78662,(19, 40),15	78677,(19, 41),3	78680,(19, 42),3	78683,(19, 43),456	79139,(19, 49),969	80108,(19, 54),12	80120,(19, 55),3	80123,(19, 56),81	80204,(19, 57),102	80306,(19, 59),30	80336,(19, 60),6	80342,(19, 66),51	80393,(19, 73),90	80483,(19, 74),15	80498,(19, 77),9	80507,(19, 78),12	80519,(19, 80),3	80522,(19, 81),36	80558,(19, 82),6	80564,(19, 84),24	80588,(19, 88),3	80591,(19, 90),21	80612,(19, 91),21	80633,(19, 92),3	80636,(19, 93),855	81491,(19, 96),3	81494,(19, 97),102	81596,(19, 99),3	81599,(19, 101),3	81602,(19, 102),3	81605,(19, 103),3	81608,(19, 104),72	81680,(19, 105),3	81683,(19, 108),39	81722,(19, 109),21	81743,(19, 110),60	81803,(19, 112),12	81815,(19, 113),45	81860,(19, 114),21	81881,(19, 116),228	82109,(19, 118),3	82112,(19, 119),147	82259,(19, 121),3	82262,(19, 123),15	82277,(19, 125),21	82298,(19, 126),30	82328,(19, 128),3	82331,(19, 131),30	82361,(19, 134),30	82391,(19, 135),3	82394,(19, 140),3	82397,(19, 141),39	82436,(19, 142),3	82439,(19, 143),15	82454,(19, 145),3	82457,(19, 148),12	82469,(19, 149),12	82481,(19, 150),6	82487,(19, 156),33	82520,(19, 157),3	82523,(19, 161),24	82547,(19, 162),3	82550,(19, 163),3	82553,(19, 165),12	82565,(19, 167),36	82601,(19, 168),36	82637,(19, 170),267	82904,(19, 172),1191	84095,(19, 175),51	84146,(19, 176),9	84155,(19, 179),3	84158,(19, 180),3	84161,(19, 183),6	84167,(19, 184),147	84314,(19, 186),63	84377,(19, 187),9	84386,(19, 191),6	84392,(19, 193),6	84398,(19, 195),39	84437,(19, 196),3	84440,(4, 21),6	84446,(4, 22),150	84596,(4, 24),3	84599,(4, 25),3	84602,(4, 26),3	84605,(4, 27),9	84614,(4, 28),12	84626,(4, 29),1131	85757,(4, 32),12	85769,(4, 35),3	85772,(4, 38),18	85790,(4, 40),6	85796,(4, 41),3	85799,(4, 42),9	85808,(4, 44),12	85820,(4, 47),33	85853,(4, 48),3	85856,(4, 49),3	85859,(4, 51),9	85868,(4, 52),30	85898,(4, 53),3	85901,(4, 54),72	85973,(4, 55),6	85979,(4, 57),6	85985,(4, 58),3	85988,(4, 59),3	85991,(4, 66),12	86003,(4, 68),6	86009,(4, 69),3	86012,(4, 70),6	86018,(4, 71),6	86024,(4, 72),3	86027,(4, 73),12	86039,(4, 74),12	86051,(4, 77),3	86054,(4, 78),18	86072,(4, 79),3	86075,(4, 80),45	86120,(4, 81),132	86252,(4, 83),3	86255,(4, 84),24	86279,(4, 85),9	86288,(4, 87),93	86381,(4, 91),201	86582,(4, 92),3	86585,(4, 93),3	86588,(4, 99),6	86594,(4, 100),3	86597,(4, 103),18	86615,(4, 104),135	86750,(4, 106),6	86756,(4, 108),6	86762,(4, 112),15	86777,(4, 113),321	87098,(4, 114),6	87104,(4, 116),129	87233,(4, 119),21	87254,(4, 121),15	87269,(4, 122),225	87494,(4, 124),9	87503,(4, 125),39	87542,(4, 126),12	87554,(4, 128),6	87560,(4, 129),6	87566,(4, 131),15	87581,(4, 133),12	87593,(4, 135),9	87602,(4, 136),18	87620,(4, 137),30	87650,(4, 138),3	87653,(4, 139),12	87665,(4, 140),15	87680,(4, 141),48	87728,(4, 143),3	87731,(4, 144),6	87737,(4, 146),846	88583,(4, 147),66	88649,(4, 152),3	88652,(4, 156),33	88685,(4, 158),18	88703,(4, 162),3	88706,(4, 163),3	88709,(4, 166),48	88757,(4, 169),6	88763,(4, 170),30	88793,(4, 176),3	88796,(4, 178),117	88913,(4, 180),126	89039,(4, 181),12	89051,(4, 183),6	89057,(4, 192),3	89060,(4, 193),3	89063,(4, 194),15	89078,(4, 195),6	89084,(4, 198),93	89177,(3, 22),27	89204,(3, 24),18	89222,(3, 25),3	89225,(3, 28),87	89312,(3, 29),219	89531,(3, 35),21	89552,(3, 36),33	89585,(3, 37),12	89597,(3, 42),18	89615,(3, 44),174	89789,(3, 47),18	89807,(3, 48),66	89873,(3, 50),3	89876,(3, 52),33	89909,(3, 54),54	89963,(3, 55),3	89966,(3, 56),153	90119,(3, 57),72	90191,(3, 58),9	90200,(3, 59),3	90203,(3, 63),15	90218,(3, 65),6	90224,(3, 66),9	90233,(3, 67),9	90242,(3, 68),3	90245,(3, 70),3	90248,(3, 71),9	90257,(3, 76),6	90263,(3, 78),24	90287,(3, 81),18	90305,(3, 82),6	90311,(3, 84),3	90314,(3, 86),18	90332,(3, 89),30	90362,(3, 90),27	90389,(3, 91),39	90428,(3, 92),6	90434,(3, 93),9	90443,(3, 94),18	90461,(3, 97),21	90482,(3, 105),3	90485,(3, 106),18	90503,(3, 115),9	90512,(3, 116),9	90521,(3, 117),60	90581,(3, 118),195	90776,(3, 119),3	90779,(3, 120),3	90782,(3, 121),48	90830,(3, 122),3	90833,(3, 123),39	90872,(3, 125),3	90875,(3, 126),6	90881,(3, 129),24	90905,(3, 131),3	90908,(3, 133),129	91037,(3, 135),27	91064,(3, 136),9	91073,(3, 137),42	91115,(3, 138),3	91118,(3, 140),6	91124,(3, 142),978	92102,(3, 143),24	92126,(3, 145),36	92162,(3, 146),39	92201,(3, 147),3	92204,(3, 150),24	92228,(3, 151),69	92297,(3, 154),18	92315,(3, 155),3	92318,(3, 156),30	92348,(3, 157),147	92495,(3, 158),111	92606,(3, 159),9	92615,(3, 160),3	92618,(3, 164),12	92630,(3, 166),27	92657,(3, 170),6	92663,(3, 173),3	92666,(3, 176),3	92669,(3, 177),27	92696,(3, 179),3	92699,(3, 181),3	92702,(3, 183),3	92705,(3, 186),3	92708,(3, 190),39	92747,(3, 191),177	92924,(3, 193),9	92933,(3, 194),3	92936,(3, 196),102	93038,(3, 198),294	93332,(13, 21),9	93341,(13, 23),18	93359,(13, 24),42	93401,(13, 25),3	93404,(13, 28),3	93407,(13, 29),12	93419,(13, 30),3	93422,(13, 31),9	93431,(13, 34),3	93434,(13, 37),27	93461,(13, 38),291	93752,(13, 39),192	93944,(13, 40),6	93950,(13, 42),3	93953,(13, 44),3	93956,(13, 46),3	93959,(13, 47),93	94052,(13, 48),93	94145,(13, 49),90	94235,(13, 54),24	94259,(13, 56),3	94262,(13, 59),3	94265,(13, 63),6	94271,(13, 65),237	94508,(13, 67),3	94511,(13, 69),6	94517,(13, 71),132	94649,(13, 74),18	94667,(13, 75),15	94682,(13, 76),90	94772,(13, 78),9	94781,(13, 79),63	94844,(13, 80),18	94862,(13, 83),30	94892,(13, 84),18	94910,(13, 85),549	95459,(13, 86),6	95465,(13, 87),9	95474,(13, 91),3	95477,(13, 94),21	95498,(13, 95),3	95501,(13, 96),3	95504,(13, 97),3	95507,(13, 98),225	95732,(13, 100),63	95795,(13, 101),3	95798,(13, 103),12	95810,(13, 104),3	95813,(13, 106),42	95855,(13, 107),6	95861,(13, 108),39	95900,(13, 109),48	95948,(13, 110),27	95975,(13, 111),3	95978,(13, 112),795	96773,(13, 113),3	96776,(13, 114),18	96794,(13, 116),21	96815,(13, 120),3	96818,(13, 121),3	96821,(13, 122),156	96977,(13, 124),12	96989,(13, 126),3	96992,(13, 127),30	97022,(13, 128),24	97046,(13, 132),36	97082,(13, 133),81	97163,(13, 134),3	97166,(13, 136),9	97175,(13, 137),3	97178,(13, 138),21	97199,(13, 139),24	97223,(13, 140),18	97241,(13, 142),27	97268,(13, 143),27	97295,(13, 144),3	97298,(13, 147),42	97340,(13, 148),12	97352,(13, 153),18	97370,(13, 155),3	97373,(13, 160),12	97385,(13, 165),21	97406,(13, 168),12	97418,(13, 169),3	97421,(13, 170),3	97424,(13, 172),30	97454,(13, 174),3	97457,(13, 175),3	97460,(13, 176),21	97481,(13, 180),3	97484,(13, 181),237	97721,(13, 182),12	97733,(13, 184),12	97745,(13, 185),6	97751,(13, 186),45	97796,(13, 187),72	97868,(13, 188),3	97871,(13, 190),3	97874,(13, 191),39	97913,(13, 192),111	98024,(13, 194),354	98378,(13, 196),18	98396,(13, 198),18	98414,(13, 200),6	98420,(7, 21),3	98423,(7, 27),15	98438,(7, 28),33	98471,(7, 29),108	98579,(7, 30),15	98594,(7, 31),9	98603,(7, 32),15	98618,(7, 35),36	98654,(7, 36),6	98660,(7, 37),69	98729,(7, 39),12	98741,(7, 44),3	98744,(7, 45),21	98765,(7, 47),6	98771,(7, 48),60	98831,(7, 50),3	98834,(7, 52),33	98867,(7, 54),45	98912,(7, 59),3	98915,(7, 62),42	98957,(7, 63),15	98972,(7, 64),123	99095,(7, 65),6	99101,(7, 67),18	99119,(7, 68),99	99218,(7, 70),75	99293,(7, 71),18	99311,(7, 74),78	99389,(7, 75),9	99398,(7, 77),12	99410,(7, 78),3	99413,(7, 80),12	99425,(7, 81),9	99434,(7, 86),87	99521,(7, 87),549	100070,(7, 90),6	100076,(7, 92),120	100196,(7, 93),3	100199,(7, 97),27	100226,(7, 100),99	100325,(7, 102),12	100337,(7, 103),36	100373,(7, 110),12	100385,(7, 112),3	100388,(7, 113),3	100391,(7, 115),9	100400,(7, 117),21	100421,(7, 121),9	100430,(7, 123),3	100433,(7, 124),27	100460,(7, 126),3	100463,(7, 130),9	100472,(7, 131),6	100478,(7, 135),39	100517,(7, 136),3	100520,(7, 137),48	100568,(7, 138),108	100676,(7, 139),96	100772,(7, 140),6	100778,(7, 142),6	100784,(7, 144),6	100790,(7, 145),3	100793,(7, 146),6	100799,(7, 147),3	100802,(7, 148),30	100832,(7, 149),648	101480,(7, 150),3	101483,(7, 151),3	101486,(7, 152),9	101495,(7, 153),15	101510,(7, 156),108	101618,(7, 157),3	101621,(7, 158),21	101642,(7, 161),48	101690,(7, 163),21	101711,(7, 166),54	101765,(7, 167),30	101795,(7, 170),183	101978,(7, 176),519	102497,(7, 181),21	102518,(7, 182),21	102539,(7, 186),210	102749,(7, 191),15	102764,(7, 192),93	102857,(7, 193),3	102860,(7, 194),21	102881,(7, 196),9	102890,(7, 198),51	102941,(7, 200),18	102959,(10, 21),3	102962,(10, 23),9	102971,(10, 24),48	103019,(10, 26),6	103025,(10, 27),345	103370,(10, 29),3	103373,(10, 30),3	103376,(10, 32),57	103433,(10, 33),9	103442,(10, 34),57	103499,(10, 35),3	103502,(10, 41),6	103508,(10, 44),21	103529,(10, 46),165	103694,(10, 48),12	103706,(10, 49),24	103730,(10, 51),9	103739,(10, 53),567	104306,(10, 54),3	104309,(10, 56),3	104312,(10, 57),3	104315,(10, 59),9	104324,(10, 60),30	104354,(10, 61),30	104384,(10, 62),3	104387,(10, 63),3	104390,(10, 68),6	104396,(10, 69),93	104489,(10, 71),15	104504,(10, 72),18	104522,(10, 73),66	104588,(10, 74),42	104630,(10, 76),6	104636,(10, 77),243	104879,(10, 79),6	104885,(10, 80),48	104933,(10, 81),60	104993,(10, 83),276	105269,(10, 84),3	105272,(10, 85),12	105284,(10, 86),9	105293,(10, 87),33	105326,(10, 88),240	105566,(10, 91),15	105581,(10, 92),6	105587,(10, 93),24	105611,(10, 94),27	105638,(10, 99),18	105656,(10, 100),3	105659,(10, 101),12	105671,(10, 102),3	105674,(10, 103),3	105677,(10, 105),21	105698,(10, 106),21	105719,(10, 107),3	105722,(10, 109),9	105731,(10, 110),3	105734,(10, 111),15	105749,(10, 115),81	105830,(10, 116),9	105839,(10, 117),3	105842,(10, 120),36	105878,(10, 121),42	105920,(10, 125),15	105935,(10, 128),12	105947,(10, 129),21	105968,(10, 132),45	106013,(10, 134),3	106016,(10, 135),3	106019,(10, 137),57	106076,(10, 138),33	106109,(10, 139),3	106112,(10, 141),6	106118,(10, 142),3	106121,(10, 144),6	106127,(10, 146),9	106136,(10, 148),204	106340,(10, 150),6	106346,(10, 151),3	106349,(10, 152),51	106400,(10, 155),3	106403,(10, 158),39	106442,(10, 160),51	106493,(10, 162),99	106592,(10, 165),6	106598,(10, 167),15	106613,(10, 168),75	106688,(10, 171),123	106811,(10, 172),93	106904,(10, 174),3	106907,(10, 175),45	106952,(10, 176),36	106988,(10, 179),6	106994,(10, 181),3	106997,(10, 184),6	107003,(10, 186),21	107024,(10, 187),177	107201,(10, 190),15	107216,(10, 192),27	107243,(10, 193),18	107261,(10, 194),3	107264,(10, 200),9	107273,(17, 24),18	107291,(17, 29),3	107294,(17, 31),57	107351,(17, 32),3	107354,(17, 34),9	107363,(17, 35),510	107873,(17, 38),3	107876,(17, 39),24	107900,(17, 40),42	107942,(17, 42),66	108008,(17, 44),6	108014,(17, 45),9	108023,(17, 46),18	108041,(17, 47),24	108065,(17, 53),30	108095,(17, 54),3	108098,(17, 55),18	108116,(17, 56),3	108119,(17, 58),372	108491,(17, 59),6	108497,(17, 61),6	108503,(17, 63),3	108506,(17, 64),24	108530,(17, 66),33	108563,(17, 68),12	108575,(17, 69),12	108587,(17, 70),9	108596,(17, 73),6	108602,(17, 79),3	108605,(17, 80),3	108608,(17, 84),3	108611,(17, 85),534	109145,(17, 86),78	109223,(17, 88),9	109232,(17, 89),141	109373,(17, 91),3	109376,(17, 95),3	109379,(17, 97),3	109382,(17, 99),12	109394,(17, 101),117	109511,(17, 103),6	109517,(17, 105),12	109529,(17, 106),6	109535,(17, 107),3	109538,(17, 108),18	109556,(17, 109),12	109568,(17, 110),3	109571,(17, 111),3	109574,(17, 119),3	109577,(17, 120),36	109613,(17, 122),3	109616,(17, 124),36	109652,(17, 126),9	109661,(17, 127),3	109664,(17, 128),30	109694,(17, 129),6	109700,(17, 130),3	109703,(17, 131),3	109706,(17, 132),153	109859,(17, 133),3	109862,(17, 135),3	109865,(17, 136),15	109880,(17, 143),15	109895,(17, 144),138	110033,(17, 145),27	110060,(17, 148),12	110072,(17, 150),81	110153,(17, 153),54	110207,(17, 154),3	110210,(17, 155),3	110213,(17, 156),3	110216,(17, 158),3	110219,(17, 159),3	110222,(17, 160),21	110243,(17, 161),9	110252,(17, 164),15	110267,(17, 167),3	110270,(17, 168),54	110324,(17, 170),12	110336,(17, 171),15	110351,(17, 173),12	110363,(17, 174),15	110378,(17, 179),3	110381,(17, 180),3	110384,(17, 181),21	110405,(17, 182),84	110489,(17, 186),21	110510,(17, 189),561	111071,(17, 192),6	111077,(17, 194),3	111080,(17, 197),3	111083,(17, 198),36	111119,(17, 200),3	111122,(15, 21),9	111131,(15, 22),3	111134,(15, 23),3	111137,(15, 26),9	111146,(15, 27),27	111173,(15, 30),3	111176,(15, 32),15	111191,(15, 33),39	111230,(15, 36),21	111251,(15, 38),18	111269,(15, 41),9	111278,(15, 42),30	111308,(15, 44),93	111401,(15, 49),54	111455,(15, 51),3	111458,(15, 54),3	111461,(15, 57),507	111968,(15, 59),30	111998,(15, 60),27	112025,(15, 66),3	112028,(15, 67),9	112037,(15, 68),81	112118,(15, 69),9	112127,(15, 71),9	112136,(15, 72),138	112274,(15, 73),3	112277,(15, 75),33	112310,(15, 78),21	112331,(15, 80),9	112340,(15, 81),12	112352,(15, 82),36	112388,(15, 83),3	112391,(15, 84),69	112460,(15, 85),27	112487,(15, 86),3	112490,(15, 89),3	112493,(15, 90),6	112499,(15, 91),51	112550,(15, 92),3	112553,(15, 93),6	112559,(15, 94),9	112568,(15, 95),9	112577,(15, 96),12	112589,(15, 98),18	112607,(15, 99),9	112616,(15, 101),45	112661,(15, 103),12	112673,(15, 106),39	112712,(15, 108),21	112733,(15, 112),69	112802,(15, 113),213	113015,(15, 114),3	113018,(15, 116),3	113021,(15, 120),75	113096,(15, 122),3	113099,(15, 123),120	113219,(15, 126),57	113276,(15, 127),30	113306,(15, 130),213	113519,(15, 132),48	113567,(15, 134),3	113570,(15, 135),315	113885,(15, 136),318	114203,(15, 138),6	114209,(15, 139),93	114302,(15, 144),9	114311,(15, 145),123	114434,(15, 148),27	114461,(15, 149),12	114473,(15, 150),42	114515,(15, 152),414	114929,(15, 156),3	114932,(15, 158),6	114938,(15, 159),9	114947,(15, 160),60	115007,(15, 161),231	115238,(15, 162),3	115241,(15, 163),18	115259,(15, 167),3	115262,(15, 169),12	115274,(15, 170),15	115289,(15, 171),6	115295,(15, 173),24	115319,(15, 175),3	115322,(15, 176),12	115334,(15, 178),3	115337,(15, 179),57	115394,(15, 180),3	115397,(15, 181),15	115412,(15, 182),18	115430,(15, 184),6	115436,(15, 189),39	115475,(15, 190),18	115493,(15, 195),81	115574,(15, 196),3	115577,(15, 197),3	115580,(15, 199),3	115583,(14, 21),3	115586,(14, 22),207	115793,(14, 25),3	115796,(14, 26),207	116003,(14, 27),63	116066,(14, 29),3	116069,(14, 30),36	116105,(14, 35),3	116108,(14, 36),447	116555,(14, 37),3	116558,(14, 43),3	116561,(14, 45),6	116567,(14, 50),3	116570,(14, 51),126	116696,(14, 52),3	116699,(14, 53),36	116735,(14, 56),3	116738,(14, 61),51	116789,(14, 62),111	116900,(14, 65),54	116954,(14, 66),48	117002,(14, 67),3	117005,(14, 68),6	117011,(14, 69),30	117041,(14, 71),12	117053,(14, 74),3	117056,(14, 76),3	117059,(14, 77),30	117089,(14, 80),33	117122,(14, 81),3	117125,(14, 82),27	117152,(14, 86),15	117167,(14, 91),3	117170,(14, 92),3	117173,(14, 93),33	117206,(14, 94),96	117302,(14, 96),12	117314,(14, 97),111	117425,(14, 98),33	117458,(14, 99),3	117461,(14, 101),6	117467,(14, 103),6	117473,(14, 104),57	117530,(14, 106),3	117533,(14, 109),6	117539,(14, 110),3	117542,(14, 111),249	117791,(14, 113),33	117824,(14, 114),9	117833,(14, 115),9	117842,(14, 116),51	117893,(14, 117),3	117896,(14, 119),3	117899,(14, 120),3	117902,(14, 121),30	117932,(14, 122),9	117941,(14, 124),66	118007,(14, 127),51	118058,(14, 129),36	118094,(14, 130),3	118097,(14, 131),6	118103,(14, 135),141	118244,(14, 136),3	118247,(14, 139),33	118280,(14, 140),3	118283,(14, 141),18	118301,(14, 144),30	118331,(14, 145),48	118379,(14, 146),3	118382,(14, 147),21	118403,(14, 149),3	118406,(14, 152),12	118418,(14, 154),24	118442,(14, 156),30	118472,(14, 159),15	118487,(14, 162),15	118502,(14, 163),6	118508,(14, 165),6	118514,(14, 167),3	118517,(14, 170),6	118523,(14, 173),18	118541,(14, 174),6	118547,(14, 178),42	118589,(14, 179),3	118592,(14, 180),39	118631,(14, 181),12	118643,(14, 183),48	118691,(14, 185),15	118706,(14, 186),6	118712,(14, 188),3	118715,(14, 189),6	118721,(14, 190),21	118742,(14, 192),3	118745,(14, 193),18	118763,(14, 194),45	118808,(14, 195),102	118910,(14, 197),126	119036,(14, 198),9	119045,(14, 200),54	119099,(12, 22),3	119102,(12, 24),30	119132,(12, 27),3	119135,(12, 29),21	119156,(12, 31),75	119231,(12, 33),15	119246,(12, 36),6	119252,(12, 38),3	119255,(12, 39),9	119264,(12, 41),3	119267,(12, 42),57	119324,(12, 46),18	119342,(12, 51),15	119357,(12, 53),9	119366,(12, 54),102	119468,(12, 56),6	119474,(12, 58),63	119537,(12, 60),15	119552,(12, 62),6	119558,(12, 64),3	119561,(12, 65),6	119567,(12, 67),3	119570,(12, 68),6	119576,(12, 69),33	119609,(12, 73),9	119618,(12, 75),33	119651,(12, 76),3	119654,(12, 78),9	119663,(12, 79),39	119702,(12, 80),15	119717,(12, 82),30	119747,(12, 86),6	119753,(12, 88),45	119798,(12, 90),15	119813,(12, 91),3	119816,(12, 92),42	119858,(12, 95),3	119861,(12, 101),3	119864,(12, 102),42	119906,(12, 105),27	119933,(12, 107),21	119954,(12, 109),36	119990,(12, 110),66	120056,(12, 113),3	120059,(12, 114),21	120080,(12, 115),9	120089,(12, 116),3	120092,(12, 117),135	120227,(12, 119),18	120245,(12, 122),3	120248,(12, 124),51	120299,(12, 129),6	120305,(12, 131),12	120317,(12, 135),3	120320,(12, 136),3	120323,(12, 137),30	120353,(12, 138),33	120386,(12, 143),15	120401,(12, 144),12	120413,(12, 145),234	120647,(12, 148),12	120659,(12, 152),330	120989,(12, 153),3	120992,(12, 154),39	121031,(12, 155),3	121034,(12, 157),3	121037,(12, 159),48	121085,(12, 162),24	121109,(12, 163),12	121121,(12, 165),21	121142,(12, 166),45	121187,(12, 168),9	121196,(12, 169),6	121202,(12, 175),3	121205,(12, 176),3	121208,(12, 178),6	121214,(12, 181),12	121226,(12, 182),72	121298,(12, 183),3	121301,(12, 184),3	121304,(12, 186),6	121310,(12, 188),15	121325,(12, 191),15	121340,(12, 194),12	121352,(12, 196),9	

# Outgoing

2,(5, 22),9	11,(5, 24),183	194,(5, 25),60	254,(5, 28),69	323,(5, 30),12	335,(5, 32),24	359,(5, 34),1317	1676,(5, 36),69	1745,(5, 37),21	1766,(5, 38),3	1769,(5, 39),90	1859,(5, 40),3	1862,(5, 42),24	1886,(5, 43),21	1907,(5, 44),18	1925,(5, 46),9	1934,(5, 47),3	1937,(5, 48),12	1949,(5, 53),3	1952,(5, 55),3	1955,(5, 56),9	1964,(5, 61),3	1967,(5, 62),3	1970,(5, 63),504	2474,(5, 64),1710	4184,(5, 65),9	4193,(5, 69),3	4196,(5, 70),33	4229,(5, 74),18	4247,(5, 76),105	4352,(5, 78),12	4364,(5, 80),24	4388,(5, 83),3	4391,(5, 84),9	4400,(5, 86),24	4424,(5, 88),18	4442,(5, 89),15	4457,(5, 90),3	4460,(5, 91),3	4463,(5, 92),63	4526,(5, 93),12	4538,(5, 96),3	4541,(5, 99),15	4556,(5, 101),18	4574,(5, 102),12	4586,(5, 103),9	4595,(5, 104),9	4604,(5, 106),318	4922,(5, 107),120	5042,(5, 118),168	5210,(5, 119),3	5213,(5, 121),33	5246,(5, 123),93	5339,(5, 126),3	5342,(5, 133),30	5372,(5, 134),9	5381,(5, 137),45	5426,(5, 138),327	5753,(5, 141),81	5834,(5, 142),3	5837,(5, 144),6	5843,(5, 145),24	5867,(5, 148),54	5921,(5, 149),18	5939,(5, 153),3	5942,(5, 155),12	5954,(5, 158),69	6023,(5, 166),6	6029,(5, 168),9	6038,(5, 170),27	6065,(5, 171),24	6089,(5, 172),27	6116,(5, 173),99	6215,(5, 174),126	6341,(5, 178),24	6365,(5, 184),75	6440,(5, 187),3	6443,(5, 188),6	6449,(5, 193),15	6464,(5, 194),3966	10430,(5, 199),3	10433,(5, 200),3	10436,(1, 21),30	10466,(1, 24),51	10517,(1, 25),6	10523,(1, 26),171	10694,(1, 27),1737	12431,(1, 28),3	12434,(1, 29),3	12437,(1, 31),72	12509,(1, 34),3	12512,(1, 36),6	12518,(1, 37),3	12521,(1, 39),3	12524,(1, 42),15	12539,(1, 44),3	12542,(1, 45),24	12566,(1, 47),36	12602,(1, 48),3	12605,(1, 50),3	12608,(1, 53),30	12638,(1, 54),30	12668,(1, 55),3	12671,(1, 57),12	12683,(1, 59),3	12686,(1, 60),3	12689,(1, 61),15	12704,(1, 62),33	12737,(1, 63),12	12749,(1, 64),18	12767,(1, 67),9	12776,(1, 76),3	12779,(1, 79),3	12782,(1, 82),36	12818,(1, 83),66	12884,(1, 86),165	13049,(1, 87),207	13256,(1, 88),69	13325,(1, 89),15	13340,(1, 91),84	13424,(1, 94),33	13457,(1, 95),3	13460,(1, 97),3	13463,(1, 98),6	13469,(1, 99),48	13517,(1, 102),3	13520,(1, 103),33	13553,(1, 104),3	13556,(1, 105),15	13571,(1, 107),9	13580,(1, 111),6	13586,(1, 113),6	13592,(1, 114),3	13595,(1, 117),3	13598,(1, 118),87	13685,(1, 119),3	13688,(1, 120),6	13694,(1, 122),9	13703,(1, 123),9	13712,(1, 124),3	13715,(1, 125),39	13754,(1, 126),6	13760,(1, 127),99	13859,(1, 128),6	13865,(1, 131),27	13892,(1, 132),39	13931,(1, 133),3	13934,(1, 134),42	13976,(1, 135),66	14042,(1, 137),3	14045,(1, 138),3	14048,(1, 140),18	14066,(1, 141),18	14084,(1, 143),3	14087,(1, 144),27	14114,(1, 145),36	14150,(1, 146),72	14222,(1, 148),21	14243,(1, 151),42	14285,(1, 152),60	14345,(1, 153),72	14417,(1, 156),9	14426,(1, 157),30	14456,(1, 158),3	14459,(1, 159),21	14480,(1, 160),21	14501,(1, 161),3	14504,(1, 162),3	14507,(1, 164),3	14510,(1, 165),3	14513,(1, 166),12	14525,(1, 167),21	14546,(1, 168),51	14597,(1, 170),3	14600,(1, 172),3	14603,(1, 173),51	14654,(1, 175),114	14768,(1, 177),30	14798,(1, 178),9	14807,(1, 180),3507	18314,(1, 181),6	18320,(1, 183),6	18326,(1, 185),72	18398,(1, 186),300	18698,(1, 187),3	18701,(1, 188),12	18713,(1, 189),6	18719,(1, 191),9	18728,(1, 192),33	18761,(1, 193),9	18770,(1, 195),9	18779,(1, 198),6	18785,(1, 200),48	18833,(20, 21),18	18851,(20, 23),27	18878,(20, 24),12	18890,(20, 29),3	18893,(20, 32),6	18899,(20, 33),528	19427,(20, 35),1194	20621,(20, 37),6	20627,(20, 38),15	20642,(20, 39),9	20651,(20, 40),96	20747,(20, 41),18	20765,(20, 42),6	20771,(20, 45),21	20792,(20, 47),84	20876,(20, 48),3	20879,(20, 49),3	20882,(20, 50),12	20894,(20, 51),72	20966,(20, 54),3	20969,(20, 55),6	20975,(20, 56),15	20990,(20, 57),207	21197,(20, 61),114	21311,(20, 62),270	21581,(20, 64),27	21608,(20, 66),3	21611,(20, 67),3	21614,(20, 70),3	21617,(20, 71),3	21620,(20, 72),3	21623,(20, 74),27	21650,(20, 75),36	21686,(20, 76),24	21710,(20, 78),21	21731,(20, 80),15	21746,(20, 84),3	21749,(20, 88),48	21797,(20, 89),27	21824,(20, 91),75	21899,(20, 93),501	22400,(20, 96),3	22403,(20, 97),51	22454,(20, 100),63	22517,(20, 102),2007	24524,(20, 103),21	24545,(20, 105),15	24560,(20, 106),12	24572,(20, 109),3	24575,(20, 110),99	24674,(20, 112),6	24680,(20, 113),54	24734,(20, 115),12	24746,(20, 118),3	24749,(20, 120),21	24770,(20, 122),27	24797,(20, 124),9	24806,(20, 128),3	24809,(20, 130),6	24815,(20, 133),33	24848,(20, 134),6	24854,(20, 138),18	24872,(20, 141),39	24911,(20, 144),9	24920,(20, 146),42	24962,(20, 147),3	24965,(20, 148),15	24980,(20, 149),297	25277,(20, 155),3369	28646,(20, 158),3	28649,(20, 159),9	28658,(20, 160),39	28697,(20, 162),12	28709,(20, 163),36	28745,(20, 164),3	28748,(20, 165),24	28772,(20, 166),3	28775,(20, 168),12	28787,(20, 169),6	28793,(20, 170),6	28799,(20, 171),78	28877,(20, 172),3	28880,(20, 173),3	28883,(20, 174),228	29111,(20, 175),3	29114,(20, 176),3	29117,(20, 177),15	29132,(20, 178),18	29150,(20, 181),3	29153,(20, 182),12	29165,(20, 187),39	29204,(20, 188),9	29213,(20, 189),6	29219,(20, 196),6	29225,(20, 197),18	29243,(20, 198),81	29324,(20, 199),6	29330,(2, 22),3	29333,(2, 23),3	29336,(2, 25),48	29384,(2, 26),21	29405,(2, 27),3	29408,(2, 30),12	29420,(2, 31),9	29429,(2, 32),102	29531,(2, 35),2763	32294,(2, 36),15	32309,(2, 37),3	32312,(2, 40),3	32315,(2, 44),6	32321,(2, 50),3	32324,(2, 53),159	32483,(2, 55),111	32594,(2, 59),3	32597,(2, 60),72	32669,(2, 62),24	32693,(2, 63),15	32708,(2, 65),78	32786,(2, 66),84	32870,(2, 69),3	32873,(2, 70),75	32948,(2, 71),3	32951,(2, 73),42	32993,(2, 74),12	33005,(2, 76),72	33077,(2, 77),6	33083,(2, 78),15	33098,(2, 79),21	33119,(2, 80),3	33122,(2, 81),42	33164,(2, 83),126	33290,(2, 84),3	33293,(2, 87),30	33323,(2, 88),87	33410,(2, 89),6	33416,(2, 90),12	33428,(2, 91),6	33434,(2, 95),15	33449,(2, 96),3	33452,(2, 97),12	33464,(2, 103),9	33473,(2, 104),9	33482,(2, 105),57	33539,(2, 107),141	33680,(2, 109),15	33695,(2, 112),3	33698,(2, 113),102	33800,(2, 114),15	33815,(2, 115),51	33866,(2, 116),3	33869,(2, 119),141	34010,(2, 120),3	34013,(2, 125),12	34025,(2, 128),3	34028,(2, 130),39	34067,(2, 131),171	34238,(2, 132),36	34274,(2, 135),3	34277,(2, 136),12	34289,(2, 140),120	34409,(2, 143),3	34412,(2, 147),57	34469,(2, 148),3	34472,(2, 149),3	34475,(2, 151),3171	37646,(2, 152),3	37649,(2, 153),9	37658,(2, 157),60	37718,(2, 159),6	37724,(2, 161),30	37754,(2, 162),39	37793,(2, 163),63	37856,(2, 164),3	37859,(2, 166),162	38021,(2, 167),45	38066,(2, 169),18	38084,(2, 170),12	38096,(2, 173),105	38201,(2, 174),3	38204,(2, 177),45	38249,(2, 178),21	38270,(2, 179),15	38285,(2, 182),111	38396,(2, 183),162	38558,(2, 185),66	38624,(2, 187),9	38633,(2, 191),24	38657,(2, 196),18	38675,(2, 197),9	38684,(2, 198),3	38687,(2, 200),3	38690,(8, 22),6	38696,(8, 24),27	38723,(8, 26),33	38756,(8, 27),51	38807,(8, 28),12	38819,(8, 31),45	38864,(8, 33),15	38879,(8, 34),3	38882,(8, 37),12	38894,(8, 40),6	38900,(8, 41),6	38906,(8, 43),84	38990,(8, 44),117	39107,(8, 45),189	39296,(8, 46),12	39308,(8, 48),48	39356,(8, 49),9	39365,(8, 50),591	39956,(8, 51),6	39962,(8, 52),3	39965,(8, 53),3	39968,(8, 57),12	39980,(8, 61),3	39983,(8, 63),105	40088,(8, 65),3	40091,(8, 66),18	40109,(8, 67),9	40118,(8, 69),3	40121,(8, 70),201	40322,(8, 72),12	40334,(8, 73),3	40337,(8, 75),117	40454,(8, 77),15	40469,(8, 78),42	40511,(8, 79),3	40514,(8, 80),3	40517,(8, 82),3	40520,(8, 86),3	40523,(8, 88),381	40904,(8, 89),168	41072,(8, 91),36	41108,(8, 92),237	41345,(8, 95),18	41363,(8, 98),6	41369,(8, 99),3	41372,(8, 100),3	41375,(8, 101),18	41393,(8, 102),15	41408,(8, 105),75	41483,(8, 107),162	41645,(8, 109),18	41663,(8, 110),3	41666,(8, 116),3	41669,(8, 119),75	41744,(8, 120),3	41747,(8, 121),3	41750,(8, 122),33	41783,(8, 124),6	41789,(8, 125),156	41945,(8, 126),18	41963,(8, 129),15	41978,(8, 131),3	41981,(8, 133),885	42866,(8, 134),3	42869,(8, 136),93	42962,(8, 137),69	43031,(8, 138),36	43067,(8, 139),3	43070,(8, 140),3	43073,(8, 141),6	43079,(8, 145),15	43094,(8, 148),3102	46196,(8, 149),69	46265,(8, 151),3	46268,(8, 152),27	46295,(8, 154),15	46310,(8, 156),27	46337,(8, 158),45	46382,(8, 161),9	46391,(8, 162),3	46394,(8, 163),24	46418,(8, 164),3	46421,(8, 165),12	46433,(8, 168),3	46436,(8, 171),240	46676,(8, 172),3	46679,(8, 173),3	46682,(8, 175),12	46694,(8, 176),84	46778,(8, 179),3	46781,(8, 180),60	46841,(8, 184),3	46844,(8, 185),66	46910,(8, 186),27	46937,(8, 187),54	46991,(8, 188),3	46994,(8, 190),102	47096,(8, 191),78	47174,(8, 192),99	47273,(8, 194),51	47324,(8, 195),6	47330,(8, 197),3	47333,(8, 199),30	47363,(8, 200),15	47378,(9, 21),9	47387,(9, 23),3	47390,(9, 24),39	47429,(9, 26),3	47432,(9, 30),9	47441,(9, 34),9	47450,(9, 36),57	47507,(9, 38),81	47588,(9, 39),2862	50450,(9, 42),3	50453,(9, 44),45	50498,(9, 45),9	50507,(9, 46),174	50681,(9, 47),3	50684,(9, 48),6	50690,(9, 49),33	50723,(9, 53),84	50807,(9, 55),3	50810,(9, 59),3	50813,(9, 60),54	50867,(9, 61),69	50936,(9, 65),6	50942,(9, 67),33	50975,(9, 68),12	50987,(9, 73),6	50993,(9, 78),84	51077,(9, 79),3	51080,(9, 81),42	51122,(9, 82),45	51167,(9, 83),120	51287,(9, 84),6	51293,(9, 85),9	51302,(9, 87),24	51326,(9, 89),3	51329,(9, 90),6	51335,(9, 97),21	51356,(9, 101),51	51407,(9, 104),27	51434,(9, 105),258	51692,(9, 109),9	51701,(9, 111),276	51977,(9, 113),27	52004,(9, 114),12	52016,(9, 119),18	52034,(9, 122),111	52145,(9, 125),27	52172,(9, 127),342	52514,(9, 130),21	52535,(9, 131),3	52538,(9, 137),12	52550,(9, 140),12	52562,(9, 142),252	52814,(9, 143),30	52844,(9, 146),3	52847,(9, 147),6	52853,(9, 150),18	52871,(9, 151),3	52874,(9, 152),3	52877,(9, 154),12	52889,(9, 155),21	52910,(9, 156),9	52919,(9, 157),42	52961,(9, 158),3	52964,(9, 160),9	52973,(9, 161),15	52988,(9, 163),15	53003,(9, 164),291	53294,(9, 167),3	53297,(9, 171),6	53303,(9, 177),3	53306,(9, 179),6	53312,(9, 180),84	53396,(9, 183),3	53399,(9, 184),12	53411,(9, 188),48	53459,(9, 189),96	53555,(9, 190),9	53564,(9, 191),69	53633,(9, 192),240	53873,(9, 197),6	53879,(9, 198),81	53960,(18, 21),3	53963,(18, 22),9	53972,(18, 26),15	53987,(18, 27),6	53993,(18, 28),3	53996,(18, 29),6	54002,(18, 31),3	54005,(18, 35),543	54548,(18, 36),69	54617,(18, 37),30	54647,(18, 40),3	54650,(18, 47),12	54662,(18, 49),6	54668,(18, 51),45	54713,(18, 53),3	54716,(18, 55),24	54740,(18, 57),27	54767,(18, 58),12	54779,(18, 60),3	54782,(18, 61),3	54785,(18, 63),21	54806,(18, 69),9	54815,(18, 70),6	54821,(18, 72),3	54824,(18, 76),153	54977,(18, 77),9	54986,(18, 78),147	55133,(18, 79),15	55148,(18, 80),18	55166,(18, 81),789	55955,(18, 86),3	55958,(18, 89),3	55961,(18, 91),12	55973,(18, 99),9	55982,(18, 101),42	56024,(18, 102),3	56027,(18, 103),6	56033,(18, 105),51	56084,(18, 107),6	56090,(18, 109),3	56093,(18, 111),45	56138,(18, 113),3	56141,(18, 114),9	56150,(18, 116),3	56153,(18, 117),6	56159,(18, 118),39	56198,(18, 120),3	56201,(18, 122),3	56204,(18, 124),93	56297,(18, 125),48	56345,(18, 126),3	56348,(18, 128),3	56351,(18, 130),1074	57425,(18, 131),3	57428,(18, 132),93	57521,(18, 136),3	57524,(18, 137),6	57530,(18, 138),3	57533,(18, 139),84	57617,(18, 140),9	57626,(18, 141),3	57629,(18, 142),3	57632,(18, 146),3	57635,(18, 148),3	57638,(18, 150),36	57674,(18, 152),3	57677,(18, 153),2430	60107,(18, 154),9	60116,(18, 162),3	60119,(18, 163),6	60125,(18, 164),12	60137,(18, 166),18	60155,(18, 168),9	60164,(18, 169),3	60167,(18, 171),78	60245,(18, 175),3	60248,(18, 176),273	60521,(18, 177),27	60548,(18, 179),6	60554,(18, 180),3	60557,(18, 182),9	60566,(18, 183),18	60584,(18, 184),3	60587,(18, 186),9	60596,(18, 187),18	60614,(18, 189),30	60644,(18, 190),33	60677,(18, 191),72	60749,(18, 196),165	60914,(18, 197),9	60923,(6, 21),6	60929,(6, 23),30	60959,(6, 25),12	60971,(6, 26),69	61040,(6, 27),15	61055,(6, 28),6	61061,(6, 29),114	61175,(6, 32),3	61178,(6, 33),24	61202,(6, 36),9	61211,(6, 38),3	61214,(6, 39),18	61232,(6, 41),396	61628,(6, 42),3	61631,(6, 43),60	61691,(6, 44),3	61694,(6, 47),87	61781,(6, 48),27	61808,(6, 49),9	61817,(6, 50),12	61829,(6, 55),27	61856,(6, 56),3	61859,(6, 57),12	61871,(6, 58),3	61874,(6, 60),48	61922,(6, 61),24	61946,(6, 65),12	61958,(6, 66),27	61985,(6, 67),6	61991,(6, 68),3	61994,(6, 69),6	62000,(6, 73),66	62066,(6, 78),18	62084,(6, 84),12	62096,(6, 87),99	62195,(6, 88),12	62207,(6, 89),12	62219,(6, 91),24	62243,(6, 93),3	62246,(6, 95),3	62249,(6, 96),78	62327,(6, 97),33	62360,(6, 105),3	62363,(6, 108),75	62438,(6, 113),3	62441,(6, 118),33	62474,(6, 119),15	62489,(6, 124),213	62702,(6, 126),6	62708,(6, 127),24	62732,(6, 130),3	62735,(6, 133),15	62750,(6, 134),6	62756,(6, 136),1812	64568,(6, 140),15	64583,(6, 143),1272	65855,(6, 146),3	65858,(6, 147),15	65873,(6, 148),3	65876,(6, 149),24	65900,(6, 154),3	65903,(6, 155),6	65909,(6, 156),6	65915,(6, 159),48	65963,(6, 161),69	66032,(6, 165),3	66035,(6, 166),33	66068,(6, 168),69	66137,(6, 173),54	66191,(6, 174),3	66194,(6, 175),21	66215,(6, 179),15	66230,(6, 180),3	66233,(6, 181),6	66239,(6, 182),93	66332,(6, 184),42	66374,(6, 185),60	66434,(6, 186),24	66458,(6, 188),6	66464,(6, 191),9	66473,(6, 192),354	66827,(6, 193),3	66830,(6, 196),135	66965,(6, 197),45	67010,(6, 198),6	67016,(11, 21),36	67052,(11, 22),57	67109,(11, 23),78	67187,(11, 24),6	67193,(11, 25),9	67202,(11, 27),3	67205,(11, 28),39	67244,(11, 30),12	67256,(11, 35),3	67259,(11, 37),12	67271,(11, 40),33	67304,(11, 41),78	67382,(11, 43),6	67388,(11, 45),3	67391,(11, 46),105	67496,(11, 47),3	67499,(11, 50),30	67529,(11, 51),3	67532,(11, 54),24	67556,(11, 55),3	67559,(11, 58),24	67583,(11, 63),9	67592,(11, 65),3	67595,(11, 67),3	67598,(11, 69),33	67631,(11, 71),75	67706,(11, 73),12	67718,(11, 74),21	67739,(11, 75),33	67772,(11, 76),9	67781,(11, 80),18	67799,(11, 81),36	67835,(11, 82),3	67838,(11, 86),6	67844,(11, 87),9	67853,(11, 93),3	67856,(11, 94),3	67859,(11, 96),108	67967,(11, 98),240	68207,(11, 99),3	68210,(11, 102),78	68288,(11, 103),87	68375,(11, 105),33	68408,(11, 106),3	68411,(11, 109),117	68528,(11, 116),15	68543,(11, 117),3	68546,(11, 118),186	68732,(11, 119),33	68765,(11, 120),6	68771,(11, 121),15	68786,(11, 122),3	68789,(11, 124),12	68801,(11, 125),36	68837,(11, 126),3	68840,(11, 127),3	68843,(11, 128),6	68849,(11, 130),3	68852,(11, 131),6	68858,(11, 132),3	68861,(11, 134),3	68864,(11, 135),69	68933,(11, 136),9	68942,(11, 138),258	69200,(11, 139),33	69233,(11, 140),1737	70970,(11, 142),3	70973,(11, 144),6	70979,(11, 145),21	71000,(11, 146),27	71027,(11, 147),51	71078,(11, 149),135	71213,(11, 150),75	71288,(11, 151),3	71291,(11, 153),66	71357,(11, 155),3	71360,(11, 157),6	71366,(11, 159),627	71993,(11, 161),33	72026,(11, 162),75	72101,(11, 165),36	72137,(11, 167),18	72155,(11, 168),120	72275,(11, 169),93	72368,(11, 171),3	72371,(11, 172),39	72410,(11, 173),30	72440,(11, 174),3	72443,(11, 175),21	72464,(11, 176),3	72467,(11, 180),33	72500,(11, 182),12	72512,(11, 183),3	72515,(11, 187),54	72569,(11, 190),9	72578,(11, 192),3	72581,(11, 193),15	72596,(11, 194),3	72599,(11, 195),12	72611,(11, 197),51	72662,(16, 22),24	72686,(16, 24),15	72701,(16, 25),54	72755,(16, 26),6	72761,(16, 29),168	72929,(16, 32),6	72935,(16, 33),162	73097,(16, 38),12	73109,(16, 40),117	73226,(16, 41),3	73229,(16, 44),24	73253,(16, 47),147	73400,(16, 52),135	73535,(16, 55),27	73562,(16, 56),9	73571,(16, 57),3	73574,(16, 60),42	73616,(16, 63),3	73619,(16, 66),150	73769,(16, 67),36	73805,(16, 70),162	73967,(16, 71),3	73970,(16, 74),3	73973,(16, 76),3	73976,(16, 78),6	73982,(16, 79),18	74000,(16, 80),6	74006,(16, 81),81	74087,(16, 82),402	74489,(16, 84),3	74492,(16, 86),45	74537,(16, 87),6	74543,(16, 88),1668	76211,(16, 89),3	76214,(16, 93),30	76244,(16, 94),39	76283,(16, 97),6	76289,(16, 99),72	76361,(16, 100),15	76376,(16, 101),27	76403,(16, 102),201	76604,(16, 104),12	76616,(16, 105),135	76751,(16, 108),21	76772,(16, 109),3	76775,(16, 110),3	76778,(16, 111),3	76781,(16, 112),3	76784,(16, 113),18	76802,(16, 114),21	76823,(16, 118),114	76937,(16, 119),6	76943,(16, 121),318	77261,(16, 123),12	77273,(16, 125),15	77288,(16, 126),6	77294,(16, 128),165	77459,(16, 131),93	77552,(16, 132),9	77561,(16, 137),3	77564,(16, 138),75	77639,(16, 141),6	77645,(16, 142),9	77654,(16, 146),3	77657,(16, 147),12	77669,(16, 148),18	77687,(16, 149),114	77801,(16, 150),54	77855,(16, 151),3	77858,(16, 156),3	77861,(16, 157),3	77864,(16, 158),33	77897,(16, 159),27	77924,(16, 160),6	77930,(16, 161),63	77993,(16, 162),21	78014,(16, 163),45	78059,(16, 167),27	78086,(16, 170),9	78095,(16, 171),27	78122,(16, 172),15	78137,(16, 173),12	78149,(16, 174),3	78152,(16, 175),3	78155,(16, 176),60	78215,(16, 177),36	78251,(16, 178),9	78260,(16, 179),27	78287,(16, 180),6	78293,(16, 182),12	78305,(16, 184),3	78308,(16, 186),6	78314,(16, 187),3	78317,(16, 189),3	78320,(16, 190),78	78398,(16, 191),12	78410,(16, 192),3	78413,(16, 193),9	78422,(16, 195),3	78425,(16, 199),3	78428,(19, 21),42	78470,(19, 22),15	78485,(19, 26),3	78488,(19, 27),3	78491,(19, 28),3	78494,(19, 31),3	78497,(19, 33),3	78500,(19, 34),9	78509,(19, 36),30	78539,(19, 37),117	78656,(19, 39),6	78662,(19, 40),15	78677,(19, 41),3	78680,(19, 42),3	78683,(19, 43),456	79139,(19, 49),969	80108,(19, 54),12	80120,(19, 55),3	80123,(19, 56),81	80204,(19, 57),102	80306,(19, 59),30	80336,(19, 60),6	80342,(19, 66),51	80393,(19, 73),90	80483,(19, 74),15	80498,(19, 77),9	80507,(19, 78),12	80519,(19, 80),3	80522,(19, 81),36	80558,(19, 82),6	80564,(19, 84),24	80588,(19, 88),3	80591,(19, 90),21	80612,(19, 91),21	80633,(19, 92),3	80636,(19, 93),855	81491,(19, 96),3	81494,(19, 97),102	81596,(19, 99),3	81599,(19, 101),3	81602,(19, 102),3	81605,(19, 103),3	81608,(19, 104),72	81680,(19, 105),3	81683,(19, 108),39	81722,(19, 109),21	81743,(19, 110),60	81803,(19, 112),12	81815,(19, 113),45	81860,(19, 114),21	81881,(19, 116),228	82109,(19, 118),3	82112,(19, 119),147	82259,(19, 121),3	82262,(19, 123),15	82277,(19, 125),21	82298,(19, 126),30	82328,(19, 128),3	82331,(19, 131),30	82361,(19, 134),30	82391,(19, 135),3	82394,(19, 140),3	82397,(19, 141),39	82436,(19, 142),3	82439,(19, 143),15	82454,(19, 145),3	82457,(19, 148),12	82469,(19, 149),12	82481,(19, 150),6	82487,(19, 156),33	82520,(19, 157),3	82523,(19, 161),24	82547,(19, 162),3	82550,(19, 163),3	82553,(19, 165),12	82565,(19, 167),36	82601,(19, 168),36	82637,(19, 170),267	82904,(19, 172),1191	84095,(19, 175),51	84146,(19, 176),9	84155,(19, 179),3	84158,(19, 180),3	84161,(19, 183),6	84167,(19, 184),147	84314,(19, 186),63	84377,(19, 187),9	84386,(19, 191),6	84392,(19, 193),6	84398,(19, 195),39	84437,(19, 196),3	84440,(4, 21),6	84446,(4, 22),150	84596,(4, 24),3	84599,(4, 25),3	84602,(4, 26),3	84605,(4, 27),9	84614,(4, 28),12	84626,(4, 29),1131	85757,(4, 32),12	85769,(4, 35),3	85772,(4, 38),18	85790,(4, 40),6	85796,(4, 41),3	85799,(4, 42),9	85808,(4, 44),12	85820,(4, 47),33	85853,(4, 48),3	85856,(4, 49),3	85859,(4, 51),9	85868,(4, 52),30	85898,(4, 53),3	85901,(4, 54),72	85973,(4, 55),6	85979,(4, 57),6	85985,(4, 58),3	85988,(4, 59),3	85991,(4, 66),12	86003,(4, 68),6	86009,(4, 69),3	86012,(4, 70),6	86018,(4, 71),6	86024,(4, 72),3	86027,(4, 73),12	86039,(4, 74),12	86051,(4, 77),3	86054,(4, 78),18	86072,(4, 79),3	86075,(4, 80),45	86120,(4, 81),132	86252,(4, 83),3	86255,(4, 84),24	86279,(4, 85),9	86288,(4, 87),93	86381,(4, 91),201	86582,(4, 92),3	86585,(4, 93),3	86588,(4, 99),6	86594,(4, 100),3	86597,(4, 103),18	86615,(4, 104),135	86750,(4, 106),6	86756,(4, 108),6	86762,(4, 112),15	86777,(4, 113),321	87098,(4, 114),6	87104,(4, 116),129	87233,(4, 119),21	87254,(4, 121),15	87269,(4, 122),225	87494,(4, 124),9	87503,(4, 125),39	87542,(4, 126),12	87554,(4, 128),6	87560,(4, 129),6	87566,(4, 131),15	87581,(4, 133),12	87593,(4, 135),9	87602,(4, 136),18	87620,(4, 137),30	87650,(4, 138),3	87653,(4, 139),12	87665,(4, 140),15	87680,(4, 141),48	87728,(4, 143),3	87731,(4, 144),6	87737,(4, 146),846	88583,(4, 147),66	88649,(4, 152),3	88652,(4, 156),33	88685,(4, 158),18	88703,(4, 162),3	88706,(4, 163),3	88709,(4, 166),48	88757,(4, 169),6	88763,(4, 170),30	88793,(4, 176),3	88796,(4, 178),117	88913,(4, 180),126	89039,(4, 181),12	89051,(4, 183),6	89057,(4, 192),3	89060,(4, 193),3	89063,(4, 194),15	89078,(4, 195),6	89084,(4, 198),93	89177,(3, 22),27	89204,(3, 24),18	89222,(3, 25),3	89225,(3, 28),87	89312,(3, 29),219	89531,(3, 35),21	89552,(3, 36),33	89585,(3, 37),12	89597,(3, 42),18	89615,(3, 44),174	89789,(3, 47),18	89807,(3, 48),66	89873,(3, 50),3	89876,(3, 52),33	89909,(3, 54),54	89963,(3, 55),3	89966,(3, 56),153	90119,(3, 57),72	90191,(3, 58),9	90200,(3, 59),3	90203,(3, 63),15	90218,(3, 65),6	90224,(3, 66),9	90233,(3, 67),9	90242,(3, 68),3	90245,(3, 70),3	90248,(3, 71),9	90257,(3, 76),6	90263,(3, 78),24	90287,(3, 81),18	90305,(3, 82),6	90311,(3, 84),3	90314,(3, 86),18	90332,(3, 89),30	90362,(3, 90),27	90389,(3, 91),39	90428,(3, 92),6	90434,(3, 93),9	90443,(3, 94),18	90461,(3, 97),21	90482,(3, 105),3	90485,(3, 106),18	90503,(3, 115),9	90512,(3, 116),9	90521,(3, 117),60	90581,(3, 118),195	90776,(3, 119),3	90779,(3, 120),3	90782,(3, 121),48	90830,(3, 122),3	90833,(3, 123),39	90872,(3, 125),3	90875,(3, 126),6	90881,(3, 129),24	90905,(3, 131),3	90908,(3, 133),129	91037,(3, 135),27	91064,(3, 136),9	91073,(3, 137),42	91115,(3, 138),3	91118,(3, 140),6	91124,(3, 142),978	92102,(3, 143),24	92126,(3, 145),36	92162,(3, 146),39	92201,(3, 147),3	92204,(3, 150),24	92228,(3, 151),69	92297,(3, 154),18	92315,(3, 155),3	92318,(3, 156),30	92348,(3, 157),147	92495,(3, 158),111	92606,(3, 159),9	92615,(3, 160),3	92618,(3, 164),12	92630,(3, 166),27	92657,(3, 170),6	92663,(3, 173),3	92666,(3, 176),3	92669,(3, 177),27	92696,(3, 179),3	92699,(3, 181),3	92702,(3, 183),3	92705,(3, 186),3	92708,(3, 190),39	92747,(3, 191),177	92924,(3, 193),9	92933,(3, 194),3	92936,(3, 196),102	93038,(3, 198),294	93332,(13, 21),9	93341,(13, 23),18	93359,(13, 24),42	93401,(13, 25),3	93404,(13, 28),3	93407,(13, 29),12	93419,(13, 30),3	93422,(13, 31),9	93431,(13, 34),3	93434,(13, 37),27	93461,(13, 38),291	93752,(13, 39),192	93944,(13, 40),6	93950,(13, 42),3	93953,(13, 44),3	93956,(13, 46),3	93959,(13, 47),93	94052,(13, 48),93	94145,(13, 49),90	94235,(13, 54),24	94259,(13, 56),3	94262,(13, 59),3	94265,(13, 63),6	94271,(13, 65),237	94508,(13, 67),3	94511,(13, 69),6	94517,(13, 71),132	94649,(13, 74),18	94667,(13, 75),15	94682,(13, 76),90	94772,(13, 78),9	94781,(13, 79),63	94844,(13, 80),18	94862,(13, 83),30	94892,(13, 84),18	94910,(13, 85),549	95459,(13, 86),6	95465,(13, 87),9	95474,(13, 91),3	95477,(13, 94),21	95498,(13, 95),3	95501,(13, 96),3	95504,(13, 97),3	95507,(13, 98),225	95732,(13, 100),63	95795,(13, 101),3	95798,(13, 103),12	95810,(13, 104),3	95813,(13, 106),42	95855,(13, 107),6	95861,(13, 108),39	95900,(13, 109),48	95948,(13, 110),27	95975,(13, 111),3	95978,(13, 112),795	96773,(13, 113),3	96776,(13, 114),18	96794,(13, 116),21	96815,(13, 120),3	96818,(13, 121),3	96821,(13, 122),156	96977,(13, 124),12	96989,(13, 126),3	96992,(13, 127),30	97022,(13, 128),24	97046,(13, 132),36	97082,(13, 133),81	97163,(13, 134),3	97166,(13, 136),9	97175,(13, 137),3	97178,(13, 138),21	97199,(13, 139),24	97223,(13, 140),18	97241,(13, 142),27	97268,(13, 143),27	97295,(13, 144),3	97298,(13, 147),42	97340,(13, 148),12	97352,(13, 153),18	97370,(13, 155),3	97373,(13, 160),12	97385,(13, 165),21	97406,(13, 168),12	97418,(13, 169),3	97421,(13, 170),3	97424,(13, 172),30	97454,(13, 174),3	97457,(13, 175),3	97460,(13, 176),21	97481,(13, 180),3	97484,(13, 181),237	97721,(13, 182),12	97733,(13, 184),12	97745,(13, 185),6	97751,(13, 186),45	97796,(13, 187),72	97868,(13, 188),3	97871,(13, 190),3	97874,(13, 191),39	97913,(13, 192),111	98024,(13, 194),354	98378,(13, 196),18	98396,(13, 198),18	98414,(13, 200),6	98420,(7, 21),3	98423,(7, 27),15	98438,(7, 28),33	98471,(7, 29),108	98579,(7, 30),15	98594,(7, 31),9	98603,(7, 32),15	98618,(7, 35),36	98654,(7, 36),6	98660,(7, 37),69	98729,(7, 39),12	98741,(7, 44),3	98744,(7, 45),21	98765,(7, 47),6	98771,(7, 48),60	98831,(7, 50),3	98834,(7, 52),33	98867,(7, 54),45	98912,(7, 59),3	98915,(7, 62),42	98957,(7, 63),15	98972,(7, 64),123	99095,(7, 65),6	99101,(7, 67),18	99119,(7, 68),99	99218,(7, 70),75	99293,(7, 71),18	99311,(7, 74),78	99389,(7, 75),9	99398,(7, 77),12	99410,(7, 78),3	99413,(7, 80),12	99425,(7, 81),9	99434,(7, 86),87	99521,(7, 87),549	100070,(7, 90),6	100076,(7, 92),120	100196,(7, 93),3	100199,(7, 97),27	100226,(7, 100),99	100325,(7, 102),12	100337,(7, 103),36	100373,(7, 110),12	100385,(7, 112),3	100388,(7, 113),3	100391,(7, 115),9	100400,(7, 117),21	100421,(7, 121),9	100430,(7, 123),3	100433,(7, 124),27	100460,(7, 126),3	100463,(7, 130),9	100472,(7, 131),6	100478,(7, 135),39	100517,(7, 136),3	100520,(7, 137),48	100568,(7, 138),108	100676,(7, 139),96	100772,(7, 140),6	100778,(7, 142),6	100784,(7, 144),6	100790,(7, 145),3	100793,(7, 146),6	100799,(7, 147),3	100802,(7, 148),30	100832,(7, 149),648	101480,(7, 150),3	101483,(7, 151),3	101486,(7, 152),9	101495,(7, 153),15	101510,(7, 156),108	101618,(7, 157),3	101621,(7, 158),21	101642,(7, 161),48	101690,(7, 163),21	101711,(7, 166),54	101765,(7, 167),30	101795,(7, 170),183	101978,(7, 176),519	102497,(7, 181),21	102518,(7, 182),21	102539,(7, 186),210	102749,(7, 191),15	102764,(7, 192),93	102857,(7, 193),3	102860,(7, 194),21	102881,(7, 196),9	102890,(7, 198),51	102941,(7, 200),18	102959,(10, 21),3	102962,(10, 23),9	102971,(10, 24),48	103019,(10, 26),6	103025,(10, 27),345	103370,(10, 29),3	103373,(10, 30),3	103376,(10, 32),57	103433,(10, 33),9	103442,(10, 34),57	103499,(10, 35),3	103502,(10, 41),6	103508,(10, 44),21	103529,(10, 46),165	103694,(10, 48),12	103706,(10, 49),24	103730,(10, 51),9	103739,(10, 53),567	104306,(10, 54),3	104309,(10, 56),3	104312,(10, 57),3	104315,(10, 59),9	104324,(10, 60),30	104354,(10, 61),30	104384,(10, 62),3	104387,(10, 63),3	104390,(10, 68),6	104396,(10, 69),93	104489,(10, 71),15	104504,(10, 72),18	104522,(10, 73),66	104588,(10, 74),42	104630,(10, 76),6	104636,(10, 77),243	104879,(10, 79),6	104885,(10, 80),48	104933,(10, 81),60	104993,(10, 83),276	105269,(10, 84),3	105272,(10, 85),12	105284,(10, 86),9	105293,(10, 87),33	105326,(10, 88),240	105566,(10, 91),15	105581,(10, 92),6	105587,(10, 93),24	105611,(10, 94),27	105638,(10, 99),18	105656,(10, 100),3	105659,(10, 101),12	105671,(10, 102),3	105674,(10, 103),3	105677,(10, 105),21	105698,(10, 106),21	105719,(10, 107),3	105722,(10, 109),9	105731,(10, 110),3	105734,(10, 111),15	105749,(10, 115),81	105830,(10, 116),9	105839,(10, 117),3	105842,(10, 120),36	105878,(10, 121),42	105920,(10, 125),15	105935,(10, 128),12	105947,(10, 129),21	105968,(10, 132),45	106013,(10, 134),3	106016,(10, 135),3	106019,(10, 137),57	106076,(10, 138),33	106109,(10, 139),3	106112,(10, 141),6	106118,(10, 142),3	106121,(10, 144),6	106127,(10, 146),9	106136,(10, 148),204	106340,(10, 150),6	106346,(10, 151),3	106349,(10, 152),51	106400,(10, 155),3	106403,(10, 158),39	106442,(10, 160),51	106493,(10, 162),99	106592,(10, 165),6	106598,(10, 167),15	106613,(10, 168),75	106688,(10, 171),123	106811,(10, 172),93	106904,(10, 174),3	106907,(10, 175),45	106952,(10, 176),36	106988,(10, 179),6	106994,(10, 181),3	106997,(10, 184),6	107003,(10, 186),21	107024,(10, 187),177	107201,(10, 190),15	107216,(10, 192),27	107243,(10, 193),18	107261,(10, 194),3	107264,(10, 200),9	107273,(17, 24),18	107291,(17, 29),3	107294,(17, 31),57	107351,(17, 32),3	107354,(17, 34),9	107363,(17, 35),510	107873,(17, 38),3	107876,(17, 39),24	107900,(17, 40),42	107942,(17, 42),66	108008,(17, 44),6	108014,(17, 45),9	108023,(17, 46),18	108041,(17, 47),24	108065,(17, 53),30	108095,(17, 54),3	108098,(17, 55),18	108116,(17, 56),3	108119,(17, 58),372	108491,(17, 59),6	108497,(17, 61),6	108503,(17, 63),3	108506,(17, 64),24	108530,(17, 66),33	108563,(17, 68),12	108575,(17, 69),12	108587,(17, 70),9	108596,(17, 73),6	108602,(17, 79),3	108605,(17, 80),3	108608,(17, 84),3	108611,(17, 85),534	109145,(17, 86),78	109223,(17, 88),9	109232,(17, 89),141	109373,(17, 91),3	109376,(17, 95),3	109379,(17, 97),3	109382,(17, 99),12	109394,(17, 101),117	109511,(17, 103),6	109517,(17, 105),12	109529,(17, 106),6	109535,(17, 107),3	109538,(17, 108),18	109556,(17, 109),12	109568,(17, 110),3	109571,(17, 111),3	109574,(17, 119),3	109577,(17, 120),36	109613,(17, 122),3	109616,(17, 124),36	109652,(17, 126),9	109661,(17, 127),3	109664,(17, 128),30	109694,(17, 129),6	109700,(17, 130),3	109703,(17, 131),3	109706,(17, 132),153	109859,(17, 133),3	109862,(17, 135),3	109865,(17, 136),15	109880,(17, 143),15	109895,(17, 144),138	110033,(17, 145),27	110060,(17, 148),12	110072,(17, 150),81	110153,(17, 153),54	110207,(17, 154),3	110210,(17, 155),3	110213,(17, 156),3	110216,(17, 158),3	110219,(17, 159),3	110222,(17, 160),21	110243,(17, 161),9	110252,(17, 164),15	110267,(17, 167),3	110270,(17, 168),54	110324,(17, 170),12	110336,(17, 171),15	110351,(17, 173),12	110363,(17, 174),15	110378,(17, 179),3	110381,(17, 180),3	110384,(17, 181),21	110405,(17, 182),84	110489,(17, 186),21	110510,(17, 189),561	111071,(17, 192),6	111077,(17, 194),3	111080,(17, 197),3	111083,(17, 198),36	111119,(17, 200),3	111122,(15, 21),9	111131,(15, 22),3	111134,(15, 23),3	111137,(15, 26),9	111146,(15, 27),27	111173,(15, 30),3	111176,(15, 32),15	111191,(15, 33),39	111230,(15, 36),21	111251,(15, 38),18	111269,(15, 41),9	111278,(15, 42),30	111308,(15, 44),93	111401,(15, 49),54	111455,(15, 51),3	111458,(15, 54),3	111461,(15, 57),507	111968,(15, 59),30	111998,(15, 60),27	112025,(15, 66),3	112028,(15, 67),9	112037,(15, 68),81	112118,(15, 69),9	112127,(15, 71),9	112136,(15, 72),138	112274,(15, 73),3	112277,(15, 75),33	112310,(15, 78),21	112331,(15, 80),9	112340,(15, 81),12	112352,(15, 82),36	112388,(15, 83),3	112391,(15, 84),69	112460,(15, 85),27	112487,(15, 86),3	112490,(15, 89),3	112493,(15, 90),6	112499,(15, 91),51	112550,(15, 92),3	112553,(15, 93),6	112559,(15, 94),9	112568,(15, 95),9	112577,(15, 96),12	112589,(15, 98),18	112607,(15, 99),9	112616,(15, 101),45	112661,(15, 103),12	112673,(15, 106),39	112712,(15, 108),21	112733,(15, 112),69	112802,(15, 113),213	113015,(15, 114),3	113018,(15, 116),3	113021,(15, 120),75	113096,(15, 122),3	113099,(15, 123),120	113219,(15, 126),57	113276,(15, 127),30	113306,(15, 130),213	113519,(15, 132),48	113567,(15, 134),3	113570,(15, 135),315	113885,(15, 136),318	114203,(15, 138),6	114209,(15, 139),93	114302,(15, 144),9	114311,(15, 145),123	114434,(15, 148),27	114461,(15, 149),12	114473,(15, 150),42	114515,(15, 152),414	114929,(15, 156),3	114932,(15, 158),6	114938,(15, 159),9	114947,(15, 160),60	115007,(15, 161),231	115238,(15, 162),3	115241,(15, 163),18	115259,(15, 167),3	115262,(15, 169),12	115274,(15, 170),15	115289,(15, 171),6	115295,(15, 173),24	115319,(15, 175),3	115322,(15, 176),12	115334,(15, 178),3	115337,(15, 179),57	115394,(15, 180),3	115397,(15, 181),15	115412,(15, 182),18	115430,(15, 184),6	115436,(15, 189),39	115475,(15, 190),18	115493,(15, 195),81	115574,(15, 196),3	115577,(15, 197),3	115580,(15, 199),3	115583,(14, 21),3	115586,(14, 22),207	115793,(14, 25),3	115796,(14, 26),207	116003,(14, 27),63	116066,(14, 29),3	116069,(14, 30),36	116105,(14, 35),3	116108,(14, 36),447	116555,(14, 37),3	116558,(14, 43),3	116561,(14, 45),6	116567,(14, 50),3	116570,(14, 51),126	116696,(14, 52),3	116699,(14, 53),36	116735,(14, 56),3	116738,(14, 61),51	116789,(14, 62),111	116900,(14, 65),54	116954,(14, 66),48	117002,(14, 67),3	117005,(14, 68),6	117011,(14, 69),30	117041,(14, 71),12	117053,(14, 74),3	117056,(14, 76),3	117059,(14, 77),30	117089,(14, 80),33	117122,(14, 81),3	117125,(14, 82),27	117152,(14, 86),15	117167,(14, 91),3	117170,(14, 92),3	117173,(14, 93),33	117206,(14, 94),96	117302,(14, 96),12	117314,(14, 97),111	117425,(14, 98),33	117458,(14, 99),3	117461,(14, 101),6	117467,(14, 103),6	117473,(14, 104),57	117530,(14, 106),3	117533,(14, 109),6	117539,(14, 110),3	117542,(14, 111),249	117791,(14, 113),33	117824,(14, 114),9	117833,(14, 115),9	117842,(14, 116),51	117893,(14, 117),3	117896,(14, 119),3	117899,(14, 120),3	117902,(14, 121),30	117932,(14, 122),9	117941,(14, 124),66	118007,(14, 127),51	118058,(14, 129),36	118094,(14, 130),3	118097,(14, 131),6	118103,(14, 135),141	118244,(14, 136),3	118247,(14, 139),33	118280,(14, 140),3	118283,(14, 141),18	118301,(14, 144),30	118331,(14, 145),48	118379,(14, 146),3	118382,(14, 147),21	118403,(14, 149),3	118406,(14, 152),12	118418,(14, 154),24	118442,(14, 156),30	118472,(14, 159),15	118487,(14, 162),15	118502,(14, 163),6	118508,(14, 165),6	118514,(14, 167),3	118517,(14, 170),6	118523,(14, 173),18	118541,(14, 174),6	118547,(14, 178),42	118589,(14, 179),3	118592,(14, 180),39	118631,(14, 181),12	118643,(14, 183),48	118691,(14, 185),15	118706,(14, 186),6	118712,(14, 188),3	118715,(14, 189),6	118721,(14, 190),21	118742,(14, 192),3	118745,(14, 193),18	118763,(14, 194),45	118808,(14, 195),102	118910,(14, 197),126	119036,(14, 198),9	119045,(14, 200),54	119099,(12, 22),3	119102,(12, 24),30	119132,(12, 27),3	119135,(12, 29),21	119156,(12, 31),75	119231,(12, 33),15	119246,(12, 36),6	119252,(12, 38),3	119255,(12, 39),9	119264,(12, 41),3	119267,(12, 42),57	119324,(12, 46),18	119342,(12, 51),15	119357,(12, 53),9	119366,(12, 54),102	119468,(12, 56),6	119474,(12, 58),63	119537,(12, 60),15	119552,(12, 62),6	119558,(12, 64),3	119561,(12, 65),6	119567,(12, 67),3	119570,(12, 68),6	119576,(12, 69),33	119609,(12, 73),9	119618,(12, 75),33	119651,(12, 76),3	119654,(12, 78),9	119663,(12, 79),39	119702,(12, 80),15	119717,(12, 82),30	119747,(12, 86),6	119753,(12, 88),45	119798,(12, 90),15	119813,(12, 91),3	119816,(12, 92),42	119858,(12, 95),3	119861,(12, 101),3	119864,(12, 102),42	119906,(12, 105),27	119933,(12, 107),21	119954,(12, 109),36	119990,(12, 110),66	120056,(12, 113),3	120059,(12, 114),21	120080,(12, 115),9	120089,(12, 116),3	120092,(12, 117),135	120227,(12, 119),18	120245,(12, 122),3	120248,(12, 124),51	120299,(12, 129),6	120305,(12, 131),12	120317,(12, 135),3	120320,(12, 136),3	120323,(12, 137),30	120353,(12, 138),33	120386,(12, 143),15	120401,(12, 144),12	120413,(12, 145),234	120647,(12, 148),12	120659,(12, 152),330	120989,(12, 153),3	120992,(12, 154),39	121031,(12, 155),3	121034,(12, 157),3	121037,(12, 159),48	121085,(12, 162),24	121109,(12, 163),12	121121,(12, 165),21	121142,(12, 166),45	121187,(12, 168),9	121196,(12, 169),6	121202,(12, 175),3	121205,(12, 176),3	121208,(12, 178),6	121214,(12, 181),12	121226,(12, 182),72	121298,(12, 183),3	121301,(12, 184),3	121304,(12, 186),6	121310,(12, 188),15	121325,(12, 191),15	121340,(12, 194),12	121352,(12, 196),9	
