368
# CPU
0,0,1	1,6,2	3,73,2	5,48,2	7,8,2	9,27,2	11,63,2	13,11,2	15,7,2	17,37,2	19,60,2	21,64,2	23,59,2	25,14,2	27,68,2	29,1,2	31,26,2	33,35,2	35,55,2	37,30,2	39,50,2	41,32,2	43,9,2	45,15,2	47,44,2	49,2,2	51,67,2	53,65,2	55,34,2	57,69,2	59,70,2	61,18,2	63,53,2	65,19,2	67,41,2	69,49,2	71,13,2	73,20,2	75,5,2	77,77,2	79,56,2	81,43,2	83,62,2	85,29,2	87,71,2	89,47,2	91,4,2	93,40,2	95,12,2	97,61,2	99,36,2	101,66,2	103,76,2	105,31,2	107,39,2	109,22,2	111,72,2	113,57,2	115,10,2	117,80,2	119,16,2	121,58,2	123,78,2	125,21,2	127,38,2	129,17,2	131,52,2	133,23,2	135,54,2	367,81,1	
31,3,2	33,79,2	35,45,2	37,51,2	39,24,2	49,46,2	70,33,2	91,25,2	96,75,2	114,42,2	183,28,2	
37,74,2	

# Incoming
37,(3, 21),3	40,(3, 38),3	43,(3, 17),6	49,(3, 52),9	58,(3, 23),12	70,(3, 54),33	103,(79, 81),24	127,(45, 81),24	151,(51, 81),24	175,(74, 81),24	199,(24, 81),24	223,(46, 81),24	247,(33, 81),24	271,(25, 81),24	295,(75, 81),24	319,(42, 81),24	343,(28, 81),24	
1,(0, 3),30	34,(6, 24),3	37,(6, 46),12	49,(6, 33),21	70,(1, 25),21	93,(4, 75),3	96,(4, 42),18	114,(8, 28),69	
31,(1, 74),3	34,(3, 74),3	

# Outgoing
1,(0, 3),30	31,(1, 74),3	34,(6, 24),3	37,(6, 46),12	49,(6, 33),21	70,(1, 25),21	93,(4, 75),3	96,(4, 42),18	114,(8, 28),69	
34,(3, 74),3	37,(3, 21),3	40,(3, 38),3	43,(3, 17),6	49,(3, 52),9	58,(3, 23),12	70,(3, 54),33	103,(79, 81),24	127,(45, 81),24	151,(51, 81),24	199,(24, 81),24	223,(46, 81),24	247,(33, 81),24	271,(25, 81),24	295,(75, 81),24	319,(42, 81),24	343,(28, 81),24	
175,(74, 81),24	

