13610
# CPU
885,63,3	5053,30,3	5065,36,3	5473,98,3	7081,108,3	7397,90,3	7433,107,3	8449,113,3	8477,13,3	8593,24,3	9057,31,3	9089,37,3	9333,52,3	9409,19,3	10041,20,3	10089,45,3	10389,58,3	10425,93,3	10777,42,3	10785,47,3	10809,88,3	10913,46,3	13017,74,3	13045,82,3	13065,84,3	13105,101,3	13225,18,3	13237,21,3	13285,25,3	13297,38,3	13309,40,3	13357,41,3	13373,83,3	13385,85,3	13525,104,3	13609,121,1	
177,2,3	180,48,3	183,77,3	186,67,3	265,5,3	268,16,3	271,86,3	274,92,3	277,64,3	617,10,3	620,35,3	623,81,3	626,95,3	629,99,3	705,11,3	708,65,3	711,94,3	714,119,3	717,69,3	720,75,3	723,71,3	741,15,3	745,28,3	945,80,3	5453,97,3	5477,100,3	6481,44,3	6485,62,3	6489,39,3	
89,1,3	92,27,3	95,55,3	98,87,3	101,33,3	104,114,3	107,106,3	353,7,3	356,23,3	359,78,3	441,8,3	444,17,3	447,43,3	450,60,3	453,120,3	456,73,3	459,22,3	462,79,3	465,61,3	529,9,3	532,54,3	535,66,3	538,102,3	4401,105,3	4405,110,3	4437,112,3	8469,57,3	8473,89,3	
0,0,1	1,12,3	4,6,3	7,4,3	10,3,3	13,70,3	16,68,3	19,56,3	22,53,3	25,50,3	28,76,3	31,59,3	34,111,3	37,116,3	40,103,3	43,91,3	46,51,3	49,49,3	52,26,3	55,29,3	58,109,3	61,32,3	64,115,3	67,34,3	70,118,3	73,117,3	76,96,3	7333,72,3	7341,14,3	
# Incoming
745,(12, 47),4	749,(12, 63),136	945,(12, 90),548	1493,(12, 93),2888	4437,(6, 25),4	4441,(6, 30),16	4457,(6, 36),336	4793,(6, 37),40	4833,(6, 41),32	4873,(6, 84),4	4877,(6, 90),120	4997,(4, 18),4	5001,(4, 21),12	5013,(4, 30),40	5053,(4, 36),12	5065,(4, 52),80	5145,(4, 83),56	5201,(4, 98),16	5217,(4, 107),64	5281,(4, 108),44	5325,(3, 19),60	5385,(3, 24),20	5405,(3, 42),20	5425,(3, 45),24	5453,(3, 98),20	5477,(3, 101),28	5505,(3, 113),12	5517,(70, 121),4	5521,(68, 121),4	5525,(56, 121),4	5529,(53, 121),4	5533,(50, 121),4	5537,(76, 121),4	5541,(59, 121),4	5545,(111, 121),4	5549,(116, 121),4	5553,(103, 121),4	5557,(91, 121),4	5561,(51, 121),4	5565,(49, 121),4	5569,(26, 121),4	5573,(29, 121),4	5577,(109, 121),4	5581,(32, 121),4	5585,(115, 121),4	5589,(34, 121),4	5593,(118, 121),4	5597,(117, 121),4	5601,(96, 121),4	5605,(1, 13),204	5809,(1, 20),12	5821,(1, 31),24	5845,(1, 42),32	5877,(1, 47),28	5905,(1, 58),44	5949,(1, 74),256	6205,(1, 82),48	6253,(1, 85),32	6285,(1, 101),16	6301,(1, 108),144	6445,(27, 121),4	6449,(55, 121),4	6453,(87, 121),4	6457,(33, 121),4	6461,(114, 121),4	6465,(106, 121),4	6469,(2, 40),312	6781,(2, 83),48	6829,(2, 107),232	7061,(2, 108),20	7081,(48, 121),4	7085,(77, 121),4	7089,(67, 121),4	7093,(5, 46),52	7145,(5, 52),120	7265,(5, 58),64	7329,(7, 83),4	7333,(5, 90),64	7397,(5, 104),4	7401,(5, 107),32	7433,(5, 113),1016	8449,(16, 121),4	8453,(86, 121),4	8457,(92, 121),4	8461,(64, 121),4	8465,(7, 13),12	8477,(7, 18),40	8517,(7, 24),76	8593,(7, 31),464	9057,(7, 37),32	9089,(7, 38),12	9101,(7, 41),8	9109,(7, 52),224	9333,(7, 84),36	9369,(23, 121),4	9373,(78, 121),4	9377,(8, 19),32	9409,(8, 20),632	10041,(8, 45),48	10089,(8, 58),300	10389,(8, 88),32	10421,(8, 93),4	10425,(8, 104),88	10513,(17, 121),4	10517,(43, 121),4	10521,(60, 121),4	10525,(120, 121),4	10529,(73, 121),4	10533,(22, 121),4	10537,(79, 121),4	10541,(61, 121),4	10545,(9, 25),160	10705,(9, 42),72	10777,(9, 47),8	10785,(9, 88),24	10809,(54, 121),4	10813,(66, 121),4	10817,(102, 121),4	10821,(10, 40),8	10829,(10, 46),84	10913,(10, 74),2104	13017,(10, 82),28	13045,(10, 84),20	13065,(10, 101),40	13105,(35, 121),4	13109,(81, 121),4	13113,(95, 121),4	13117,(99, 121),4	13121,(11, 18),104	13225,(11, 21),12	13237,(11, 25),48	13285,(11, 38),12	13297,(11, 40),12	13309,(11, 41),48	13357,(11, 83),16	13373,(11, 85),12	13385,(11, 104),140	13525,(65, 121),4	13529,(94, 121),4	13533,(119, 121),4	13537,(69, 121),4	13541,(75, 121),4	13545,(71, 121),4	13549,(15, 121),4	13553,(28, 121),4	13557,(80, 121),4	13561,(105, 121),4	13565,(110, 121),4	13569,(112, 121),4	13573,(97, 121),4	13577,(100, 121),4	13581,(44, 121),4	13585,(62, 121),4	13589,(39, 121),4	13593,(72, 121),4	13597,(14, 121),4	13601,(57, 121),4	13605,(89, 121),4	
89,(0, 2),88	177,(0, 5),88	529,(0, 10),88	617,(0, 11),88	705,(12, 15),36	741,(12, 28),4	885,(12, 80),60	4381,(12, 97),16	4865,(6, 62),8	5449,(3, 97),4	5473,(3, 100),4	6469,(7, 39),8	6477,(7, 44),4	6481,(7, 62),4	6485,(8, 39),4	
1,(0, 1),88	265,(0, 7),88	353,(0, 8),88	441,(0, 9),88	4397,(12, 105),4	4401,(12, 110),4	4405,(12, 112),32	8465,(10, 57),4	8469,(11, 89),4	
7329,(5, 72),4	7333,(8, 14),8	
# Outgoing

6469,(2, 40),312	6781,(2, 83),48	6829,(2, 107),232	7061,(2, 108),20	7081,(48, 121),4	7085,(77, 121),4	7089,(67, 121),4	7093,(5, 46),52	7145,(5, 52),120	7265,(5, 58),64	7329,(5, 72),4	7333,(5, 90),64	7397,(5, 104),4	7401,(5, 107),32	7433,(5, 113),1016	8449,(16, 121),4	8453,(86, 121),4	8457,(92, 121),4	8461,(64, 121),4	8465,(10, 57),4	8469,(11, 89),4	10821,(10, 40),8	10829,(10, 46),84	10913,(10, 74),2104	13017,(10, 82),28	13045,(10, 84),20	13065,(10, 101),40	13105,(35, 121),4	13109,(81, 121),4	13113,(95, 121),4	13117,(99, 121),4	13121,(11, 18),104	13225,(11, 21),12	13237,(11, 25),48	13285,(11, 38),12	13297,(11, 40),12	13309,(11, 41),48	13357,(11, 83),16	13373,(11, 85),12	13385,(11, 104),140	13525,(65, 121),4	13529,(94, 121),4	13533,(119, 121),4	13537,(69, 121),4	13541,(75, 121),4	13545,(71, 121),4	13549,(15, 121),4	13553,(28, 121),4	13557,(80, 121),4	13573,(97, 121),4	13577,(100, 121),4	13581,(44, 121),4	13585,(62, 121),4	13589,(39, 121),4	
5605,(1, 13),204	5809,(1, 20),12	5821,(1, 31),24	5845,(1, 42),32	5877,(1, 47),28	5905,(1, 58),44	5949,(1, 74),256	6205,(1, 82),48	6253,(1, 85),32	6285,(1, 101),16	6301,(1, 108),144	6445,(27, 121),4	6449,(55, 121),4	6453,(87, 121),4	6457,(33, 121),4	6461,(114, 121),4	6465,(106, 121),4	6469,(7, 39),8	6477,(7, 44),4	6481,(7, 62),4	6485,(8, 39),4	7329,(7, 83),4	7333,(8, 14),8	8465,(7, 13),12	8477,(7, 18),40	8517,(7, 24),76	8593,(7, 31),464	9057,(7, 37),32	9089,(7, 38),12	9101,(7, 41),8	9109,(7, 52),224	9333,(7, 84),36	9369,(23, 121),4	9373,(78, 121),4	9377,(8, 19),32	9409,(8, 20),632	10041,(8, 45),48	10089,(8, 58),300	10389,(8, 88),32	10421,(8, 93),4	10425,(8, 104),88	10513,(17, 121),4	10517,(43, 121),4	10521,(60, 121),4	10525,(120, 121),4	10529,(73, 121),4	10533,(22, 121),4	10537,(79, 121),4	10541,(61, 121),4	10545,(9, 25),160	10705,(9, 42),72	10777,(9, 47),8	10785,(9, 88),24	10809,(54, 121),4	10813,(66, 121),4	10817,(102, 121),4	13561,(105, 121),4	13565,(110, 121),4	13569,(112, 121),4	13601,(57, 121),4	13605,(89, 121),4	
1,(0, 1),88	89,(0, 2),88	177,(0, 5),88	265,(0, 7),88	353,(0, 8),88	441,(0, 9),88	529,(0, 10),88	617,(0, 11),88	705,(12, 15),36	741,(12, 28),4	745,(12, 47),4	749,(12, 63),136	885,(12, 80),60	945,(12, 90),548	1493,(12, 93),2888	4381,(12, 97),16	4397,(12, 105),4	4401,(12, 110),4	4405,(12, 112),32	4437,(6, 25),4	4441,(6, 30),16	4457,(6, 36),336	4793,(6, 37),40	4833,(6, 41),32	4865,(6, 62),8	4873,(6, 84),4	4877,(6, 90),120	4997,(4, 18),4	5001,(4, 21),12	5013,(4, 30),40	5053,(4, 36),12	5065,(4, 52),80	5145,(4, 83),56	5201,(4, 98),16	5217,(4, 107),64	5281,(4, 108),44	5325,(3, 19),60	5385,(3, 24),20	5405,(3, 42),20	5425,(3, 45),24	5449,(3, 97),4	5453,(3, 98),20	5473,(3, 100),4	5477,(3, 101),28	5505,(3, 113),12	5517,(70, 121),4	5521,(68, 121),4	5525,(56, 121),4	5529,(53, 121),4	5533,(50, 121),4	5537,(76, 121),4	5541,(59, 121),4	5545,(111, 121),4	5549,(116, 121),4	5553,(103, 121),4	5557,(91, 121),4	5561,(51, 121),4	5565,(49, 121),4	5569,(26, 121),4	5573,(29, 121),4	5577,(109, 121),4	5581,(32, 121),4	5585,(115, 121),4	5589,(34, 121),4	5593,(118, 121),4	5597,(117, 121),4	5601,(96, 121),4	13593,(72, 121),4	13597,(14, 121),4	
