192
# CPU
0,0,1	1,1,10	11,28,10	21,36,10	31,33,10	41,15,10	51,29,10	61,11,10	71,7,10	81,24,10	91,30,10	117,32,10	181,40,10	191,41,1	
3,2,10	13,16,10	23,31,10	33,12,10	43,22,10	53,13,10	63,3,10	73,5,10	83,38,10	93,18,10	103,10,10	113,21,10	123,39,10	133,20,10	143,8,10	
5,4,10	15,9,10	25,26,10	35,19,10	45,35,10	55,6,10	65,34,10	75,25,10	85,37,10	95,23,10	105,17,10	115,27,10	125,14,10	
# Incoming
23,(16, 41),2	25,(9, 41),2	33,(31, 41),2	35,(26, 41),2	43,(12, 41),2	45,(19, 41),2	53,(22, 41),2	55,(35, 41),2	63,(13, 41),2	65,(6, 41),2	75,(34, 41),2	77,(3, 30),4	83,(5, 41),2	85,(25, 41),2	93,(38, 41),2	95,(37, 41),2	103,(18, 41),2	105,(23, 41),2	107,(3, 32),10	117,(10, 41),2	119,(17, 41),2	123,(21, 41),2	125,(27, 41),2	133,(39, 41),2	135,(4, 40),46	181,(14, 41),2	183,(20, 41),2	185,(8, 41),2	
1,(0, 2),2	5,(0, 3),2	
3,(0, 4),2	
# Outgoing
1,(0, 2),2	3,(0, 4),2	5,(0, 3),2	
23,(16, 41),2	33,(31, 41),2	43,(12, 41),2	53,(22, 41),2	63,(13, 41),2	77,(3, 30),4	83,(5, 41),2	93,(38, 41),2	103,(18, 41),2	107,(3, 32),10	117,(10, 41),2	123,(21, 41),2	133,(39, 41),2	183,(20, 41),2	185,(8, 41),2	
25,(9, 41),2	35,(26, 41),2	45,(19, 41),2	55,(35, 41),2	65,(6, 41),2	75,(34, 41),2	85,(25, 41),2	95,(37, 41),2	105,(23, 41),2	119,(17, 41),2	125,(27, 41),2	135,(4, 40),46	181,(14, 41),2	
