1796
# CPU
25,4,1	26,20,1	49,8,1	50,32,1	51,68,1	73,12,1	74,104,1	729,56,1	741,60,1	745,72,1	747,84,1	761,120,1	967,40,1	985,80,1	987,44,1	995,76,1	1011,88,1	1021,100,1	1025,48,1	1055,36,1	1087,52,1	1209,112,1	1273,64,1	1331,96,1	1379,116,1	1385,16,1	1387,92,1	1389,108,1	1391,24,1	1393,28,1	
17,3,1	41,7,1	42,83,1	45,71,1	55,107,1	65,11,1	66,23,1	131,63,1	139,95,1	145,35,1	155,55,1	189,111,1	195,119,1	493,15,1	527,19,1	557,59,1	693,115,1	703,27,1	707,67,1	731,75,1	749,79,1	751,99,1	761,87,1	763,103,1	767,31,1	769,39,1	775,51,1	979,91,1	1059,47,1	1533,43,1	
9,2,1	10,106,1	33,6,1	34,34,1	35,66,1	57,10,1	135,62,1	137,46,1	139,14,1	143,42,1	145,86,1	151,102,1	181,30,1	183,94,1	365,58,1	491,90,1	561,98,1	581,38,1	589,82,1	591,110,1	691,50,1	739,74,1	745,78,1	753,114,1	763,18,1	765,26,1	989,70,1	1025,22,1	1073,54,1	1281,118,1	
0,0,1	1,9,1	2,5,1	3,1,1	4,61,1	5,101,1	6,45,1	7,21,1	8,89,1	9,93,1	10,113,1	11,17,1	12,29,1	14,69,1	16,85,1	123,65,1	127,109,1	137,13,1	151,105,1	159,49,1	215,57,1	223,33,1	345,73,1	355,77,1	407,25,1	409,53,1	425,81,1	559,97,1	651,37,1	1399,41,1	1745,117,1	1795,121,1	
# Incoming
17,(0, 4),8	41,(0, 8),8	65,(0, 12),8	73,(9, 28),20	95,(9, 48),594	689,(3, 24),2	691,(9, 56),38	729,(3, 60),12	741,(6, 40),2	743,(6, 72),2	745,(6, 84),2	747,(6, 112),8	755,(9, 120),6	761,(2, 40),206	967,(3, 80),18	985,(7, 44),2	987,(7, 76),2	989,(5, 76),6	995,(5, 88),16	1011,(5, 100),10	1021,(7, 48),4	1025,(1, 36),30	1055,(2, 52),32	1087,(2, 112),122	1209,(6, 64),64	1273,(6, 96),58	1331,(6, 116),48	1379,(7, 16),6	1385,(7, 92),2	1387,(7, 108),2	1389,(10, 24),2	1391,(10, 28),2	
9,(0, 3),8	17,(2, 55),2	33,(0, 7),8	43,(4, 71),2	45,(4, 95),2	47,(4, 107),8	57,(0, 11),8	93,(9, 47),2	123,(2, 75),2	129,(6, 63),2	131,(10, 95),8	139,(8, 35),6	145,(10, 55),10	155,(10, 111),34	189,(10, 119),6	365,(8, 15),128	493,(8, 19),34	527,(8, 59),30	591,(8, 115),102	699,(12, 27),4	703,(12, 67),4	729,(9, 75),2	731,(9, 79),18	749,(9, 99),2	751,(9, 103),4	755,(12, 87),6	761,(12, 103),2	765,(5, 31),2	767,(5, 39),2	769,(5, 51),6	775,(8, 91),204	1055,(1, 47),4	1393,(10, 43),140	
1,(0, 2),8	25,(0, 6),8	33,(4, 22),10	49,(0, 10),8	57,(4, 62),78	135,(8, 46),2	137,(3, 14),2	141,(3, 42),2	143,(3, 86),2	145,(4, 102),6	151,(3, 110),2	153,(7, 30),28	181,(7, 94),2	183,(7, 118),4	215,(4, 58),150	425,(7, 90),66	491,(7, 98),70	561,(8, 38),20	581,(8, 82),8	589,(8, 110),2	689,(9, 50),2	695,(12, 18),4	707,(12, 70),2	709,(12, 74),30	739,(12, 78),6	745,(12, 114),8	761,(5, 18),2	763,(5, 26),2	775,(5, 54),60	835,(5, 70),154	1021,(1, 22),4	1059,(1, 54),14	1073,(11, 118),208	
10,(2, 29),2	12,(2, 69),2	14,(2, 85),2	19,(2, 65),104	125,(2, 109),2	127,(106, 121),2	129,(3, 13),8	137,(20, 121),2	139,(3, 41),2	141,(6, 53),2	143,(34, 121),2	145,(3, 105),6	151,(4, 49),8	159,(4, 57),56	215,(6, 33),8	223,(6, 73),122	345,(6, 77),10	355,(66, 121),2	357,(7, 25),50	407,(7, 53),2	409,(7, 81),16	425,(62, 121),2	427,(46, 121),2	429,(14, 121),2	431,(42, 121),2	433,(86, 121),2	435,(102, 121),2	437,(30, 121),2	439,(94, 121),2	441,(58, 121),2	492,(90, 121),2	557,(8, 97),2	559,(32, 121),2	561,(83, 121),2	563,(71, 121),2	565,(107, 121),2	567,(11, 37),84	651,(23, 121),2	653,(63, 121),2	655,(95, 121),2	657,(35, 121),2	659,(55, 121),2	661,(111, 121),2	663,(119, 121),2	665,(15, 121),2	667,(19, 121),2	669,(59, 121),2	671,(98, 121),2	673,(38, 121),2	675,(82, 121),2	677,(110, 121),2	693,(68, 121),2	695,(50, 121),2	697,(115, 121),2	704,(27, 121),2	708,(67, 121),2	741,(75, 121),2	750,(79, 121),2	753,(104, 121),2	755,(74, 121),2	757,(78, 121),2	759,(99, 121),2	763,(56, 121),2	765,(60, 121),2	767,(72, 121),2	769,(84, 121),2	771,(87, 121),2	773,(120, 121),2	775,(103, 121),2	777,(31, 121),2	779,(39, 121),2	781,(51, 121),2	967,(114, 121),2	969,(18, 121),2	971,(26, 121),2	979,(12, 41),420	1399,(12, 117),346	1745,(40, 121),2	1747,(91, 121),2	1749,(80, 121),2	1751,(44, 121),2	1753,(70, 121),2	1755,(76, 121),2	1757,(88, 121),2	1759,(100, 121),2	1761,(48, 121),2	1763,(22, 121),2	1765,(36, 121),2	1767,(47, 121),2	1769,(54, 121),2	1771,(52, 121),2	1773,(112, 121),2	1775,(64, 121),2	1777,(118, 121),2	1779,(96, 121),2	1781,(116, 121),2	1783,(16, 121),2	1785,(92, 121),2	1787,(108, 121),2	1789,(24, 121),2	1791,(28, 121),2	1793,(43, 121),2	
# Outgoing
33,(4, 22),10	43,(4, 71),2	45,(4, 95),2	47,(4, 107),8	57,(4, 62),78	135,(8, 46),2	137,(20, 121),2	139,(8, 35),6	145,(4, 102),6	151,(4, 49),8	159,(4, 57),56	215,(4, 58),150	365,(8, 15),128	493,(8, 19),34	527,(8, 59),30	557,(8, 97),2	559,(32, 121),2	561,(8, 38),20	581,(8, 82),8	589,(8, 110),2	591,(8, 115),102	693,(68, 121),2	695,(12, 18),4	699,(12, 27),4	703,(12, 67),4	707,(12, 70),2	709,(12, 74),30	739,(12, 78),6	745,(12, 114),8	753,(104, 121),2	755,(12, 87),6	761,(12, 103),2	763,(56, 121),2	765,(60, 121),2	767,(72, 121),2	769,(84, 121),2	773,(120, 121),2	775,(8, 91),204	979,(12, 41),420	1399,(12, 117),346	1745,(40, 121),2	1749,(80, 121),2	1751,(44, 121),2	1755,(76, 121),2	1757,(88, 121),2	1759,(100, 121),2	1761,(48, 121),2	1765,(36, 121),2	1771,(52, 121),2	1773,(112, 121),2	1775,(64, 121),2	1779,(96, 121),2	1781,(116, 121),2	1783,(16, 121),2	1785,(92, 121),2	1787,(108, 121),2	1789,(24, 121),2	1791,(28, 121),2	
129,(3, 13),8	137,(3, 14),2	139,(3, 41),2	141,(3, 42),2	143,(3, 86),2	145,(3, 105),6	151,(3, 110),2	153,(7, 30),28	181,(7, 94),2	183,(7, 118),4	357,(7, 25),50	407,(7, 53),2	409,(7, 81),16	425,(7, 90),66	491,(7, 98),70	561,(83, 121),2	563,(71, 121),2	565,(107, 121),2	567,(11, 37),84	651,(23, 121),2	653,(63, 121),2	655,(95, 121),2	657,(35, 121),2	659,(55, 121),2	661,(111, 121),2	663,(119, 121),2	665,(15, 121),2	667,(19, 121),2	669,(59, 121),2	689,(3, 24),2	697,(115, 121),2	704,(27, 121),2	708,(67, 121),2	729,(3, 60),12	741,(75, 121),2	750,(79, 121),2	759,(99, 121),2	771,(87, 121),2	775,(103, 121),2	777,(31, 121),2	779,(39, 121),2	781,(51, 121),2	967,(3, 80),18	985,(7, 44),2	987,(7, 76),2	1021,(7, 48),4	1073,(11, 118),208	1379,(7, 16),6	1385,(7, 92),2	1387,(7, 108),2	1747,(91, 121),2	1767,(47, 121),2	1793,(43, 121),2	
10,(2, 29),2	12,(2, 69),2	14,(2, 85),2	17,(2, 55),2	19,(2, 65),104	123,(2, 75),2	125,(2, 109),2	127,(106, 121),2	129,(6, 63),2	131,(10, 95),8	141,(6, 53),2	143,(34, 121),2	145,(10, 55),10	155,(10, 111),34	189,(10, 119),6	215,(6, 33),8	223,(6, 73),122	345,(6, 77),10	355,(66, 121),2	425,(62, 121),2	427,(46, 121),2	429,(14, 121),2	431,(42, 121),2	433,(86, 121),2	435,(102, 121),2	437,(30, 121),2	439,(94, 121),2	441,(58, 121),2	492,(90, 121),2	671,(98, 121),2	673,(38, 121),2	675,(82, 121),2	677,(110, 121),2	695,(50, 121),2	741,(6, 40),2	743,(6, 72),2	745,(6, 84),2	747,(6, 112),8	755,(74, 121),2	757,(78, 121),2	761,(2, 40),206	967,(114, 121),2	969,(18, 121),2	971,(26, 121),2	1055,(2, 52),32	1087,(2, 112),122	1209,(6, 64),64	1273,(6, 96),58	1331,(6, 116),48	1389,(10, 24),2	1391,(10, 28),2	1393,(10, 43),140	1753,(70, 121),2	1763,(22, 121),2	1769,(54, 121),2	1777,(118, 121),2	
1,(0, 2),8	9,(0, 3),8	17,(0, 4),8	25,(0, 6),8	33,(0, 7),8	41,(0, 8),8	49,(0, 10),8	57,(0, 11),8	65,(0, 12),8	73,(9, 28),20	93,(9, 47),2	95,(9, 48),594	689,(9, 50),2	691,(9, 56),38	729,(9, 75),2	731,(9, 79),18	749,(9, 99),2	751,(9, 103),4	755,(9, 120),6	761,(5, 18),2	763,(5, 26),2	765,(5, 31),2	767,(5, 39),2	769,(5, 51),6	775,(5, 54),60	835,(5, 70),154	989,(5, 76),6	995,(5, 88),16	1011,(5, 100),10	1021,(1, 22),4	1025,(1, 36),30	1055,(1, 47),4	1059,(1, 54),14	
