1202
# CPU
0,201,1	1,197,6	7,88,6	13,97,6	19,34,6	25,172,6	31,106,6	37,163,6	43,36,6	49,92,6	55,168,6	61,80,6	67,94,6	73,112,6	79,193,6	85,62,6	91,57,6	97,39,6	103,28,6	109,187,6	115,196,6	121,160,6	127,52,6	133,111,6	139,123,6	145,171,6	151,103,6	157,174,6	163,55,6	169,84,6	175,176,6	181,82,6	187,101,6	193,25,6	199,177,6	205,135,6	211,86,6	217,195,6	223,89,6	229,156,6	235,179,6	241,154,6	247,56,6	253,109,6	259,71,6	265,38,6	271,91,6	277,48,6	283,67,6	289,26,6	295,128,6	301,113,6	307,102,6	313,173,6	319,58,6	325,198,6	331,108,6	337,22,6	343,64,6	349,53,6	355,200,6	361,83,6	367,110,6	373,127,6	379,45,6	385,100,6	391,125,6	397,119,6	403,93,6	409,54,6	415,122,6	421,105,6	427,107,6	433,143,6	439,151,6	445,146,6	451,73,6	457,68,6	463,150,6	469,199,6	475,161,6	481,194,6	487,190,6	493,42,6	499,51,6	505,43,6	511,158,6	517,99,6	523,121,6	529,191,6	535,149,6	541,27,6	547,98,6	553,35,6	559,170,6	565,169,6	571,59,6	577,37,6	583,182,6	589,132,6	595,131,6	601,104,6	607,155,6	613,72,6	619,157,6	625,145,6	631,46,6	637,66,6	643,115,6	649,117,6	655,24,6	661,47,6	667,144,6	673,65,6	679,40,6	685,90,6	691,166,6	697,32,6	703,96,6	709,133,6	715,118,6	721,138,6	727,130,6	733,141,6	739,148,6	745,186,6	751,129,6	757,23,6	763,29,6	769,75,6	775,178,6	781,60,6	787,140,6	793,185,6	799,76,6	805,126,6	811,175,6	817,137,6	823,184,6	829,153,6	835,78,6	841,87,6	847,85,6	853,69,6	859,33,6	865,74,6	871,41,6	877,95,6	883,70,6	889,167,6	895,152,6	901,147,6	907,192,6	913,31,6	919,44,6	925,81,6	931,21,6	937,63,6	943,77,6	949,50,6	955,180,6	961,188,6	967,142,6	973,134,6	979,61,6	985,120,6	991,162,6	997,30,6	1003,116,6	1009,114,6	1015,49,6	1021,124,6	1027,79,6	1033,183,6	1039,189,6	1045,165,6	1051,159,6	1057,7,6	1063,12,6	1069,164,6	1075,14,6	1081,2,6	1087,139,6	1093,3,6	1099,4,6	1105,181,6	1111,20,6	1117,15,6	1123,10,6	1129,16,6	1135,136,6	1141,11,6	1147,18,6	1153,13,6	1159,8,6	1165,5,6	1171,19,6	1177,1,6	1183,6,6	1189,9,6	1195,17,6	1201,0,1	
# Incoming

# Outgoing

