13676
# CPU
379,10,33	6754,25,33	8116,32,33	8317,46,33	8419,55,33	9382,64,33	9748,74,33	10360,88,33	10441,95,33	10666,102,33	11116,109,33	11434,116,33	13114,81,33	13636,38,33	
337,9,33	6751,24,33	8125,33,33	8227,39,33	8338,47,33	8422,56,33	9388,66,33	9862,75,33	10327,82,33	10363,89,33	10501,96,33	10738,103,33	11152,110,33	11536,117,33	
295,8,33	6937,29,33	7987,23,33	8146,36,33	8275,43,33	8386,52,33	8755,62,33	9523,71,33	10051,78,33	10342,85,33	10429,92,33	10603,99,33	11083,106,33	11179,113,33	11626,120,33	
253,7,33	6628,22,33	8143,35,33	8269,42,33	8362,50,33	8566,61,33	9520,70,33	10033,77,33	10339,84,33	10426,91,33	10600,98,33	10762,105,33	11161,112,33	11581,119,33	
211,6,33	6625,21,33	8140,34,33	8236,40,33	8344,49,33	8560,60,33	9403,67,33	10030,76,33	10333,83,33	10384,90,33	10513,97,33	10741,104,33	11158,111,33	12301,118,33	
169,5,33	6622,20,33	6991,31,33	8197,37,33	8311,45,33	8410,54,33	8848,63,33	9544,73,33	10147,79,33	10348,86,33	10432,93,33	10609,100,33	11092,107,33	11428,114,33	
127,4,33	6562,18,33	6787,27,33	6820,28,33	8278,44,33	8392,53,33	8524,59,33	10150,80,33	10354,87,33	10435,94,33	10618,101,33	11113,108,33	11431,115,33	13675,121,1	
85,3,33	6388,17,33	6619,19,33	6985,30,33	8341,48,33	8425,57,33	8518,58,33	9517,69,33	9550,72,33	
43,2,33	421,12,33	6349,16,33	6775,26,33	8266,41,33	8383,51,33	9385,65,33	9511,68,33	
0,0,1	1,1,33	34,11,33	3076,13,33	3520,14,33	4891,15,33	
# Incoming
337,(0, 10),42	379,(3, 32),15	394,(2, 25),6	400,(4, 25),3	412,(4, 32),3	436,(2, 32),3	445,(3, 38),3	460,(6, 46),3	463,(4, 46),3	472,(4, 55),3	475,(5, 25),3	481,(4, 64),3	490,(6, 32),6	499,(3, 55),3	520,(7, 38),12	532,(1, 25),6	538,(8, 25),3	541,(8, 38),3	550,(8, 32),9	559,(8, 55),3	565,(5, 46),9	574,(6, 25),27	601,(8, 64),3	604,(6, 95),3	607,(7, 25),24	631,(7, 46),9	640,(9, 25),24	664,(4, 102),3	667,(6, 38),24	691,(8, 46),9	700,(9, 88),3	703,(7, 88),3	706,(7, 95),3	709,(9, 32),12	721,(9, 46),12	733,(9, 95),3	736,(8, 74),9	745,(9, 64),12	757,(5, 55),9	766,(5, 88),6	772,(9, 38),30	802,(9, 81),36	838,(9, 109),6	856,(5, 81),15	871,(8, 81),9	898,(4, 74),21	919,(8, 88),9	928,(8, 102),12	955,(2, 38),36	991,(5, 38),78	1069,(7, 109),3	1072,(1, 32),57	1129,(2, 46),3	1132,(3, 46),84	1216,(3, 64),15	1231,(6, 88),9	1240,(6, 102),12	1252,(6, 109),3	1255,(1, 38),24	1279,(3, 74),15	1297,(2, 55),48	1348,(7, 116),6	1354,(5, 64),27	1381,(7, 74),18	1399,(3, 88),27	1429,(2, 64),6	1435,(5, 116),3	1438,(6, 74),27	1465,(8, 95),21	1498,(7, 55),33	1531,(7, 81),12	1549,(3, 95),9	1558,(9, 102),36	1606,(3, 102),15	1645,(2, 74),3	1681,(4, 109),3	1702,(3, 109),3	1705,(5, 102),18	1744,(1, 46),3	1762,(4, 81),9	1771,(4, 88),39	1810,(5, 74),51	1891,(2, 81),6	1897,(6, 64),45	1945,(4, 95),15	1987,(5, 109),24	2041,(4, 116),3	2071,(6, 81),30	2101,(7, 102),42	2155,(1, 55),42	2197,(6, 55),192	2395,(1, 64),594	2989,(2, 95),51	3040,(2, 102),18	3058,(2, 109),3	3061,(2, 116),3	3127,(1, 74),3	3130,(2, 88),234	3364,(6, 116),81	3445,(1, 81),9	3454,(5, 32),132	3586,(7, 32),78	3664,(9, 74),63	3742,(1, 88),3	3745,(7, 64),144	3949,(1, 95),3	3952,(5, 95),93	4117,(1, 102),9	4126,(8, 109),195	4354,(1, 109),24	4441,(1, 116),1728	6169,(3, 25),387	6556,(3, 116),171	6727,(12, 25),15	6742,(12, 38),3	6745,(12, 46),6	6751,(11, 25),3	6754,(9, 55),93	6847,(12, 32),30	6877,(12, 55),21	6898,(12, 64),3	6901,(12, 74),21	6922,(12, 81),9	6931,(12, 88),21	6952,(12, 95),33	6991,(11, 32),1125	8116,(12, 109),3	8119,(12, 116),3	8197,(11, 38),18	8215,(12, 102),93	8311,(11, 46),6	8410,(11, 55),9	8419,(8, 116),294	8848,(11, 64),534	9544,(11, 74),204	9748,(9, 116),210	10150,(11, 81),36	10354,(11, 88),6	10435,(11, 95),6	10618,(11, 102),48	11113,(11, 109),3	11431,(11, 116),3	11434,(3, 81),1680	13114,(4, 38),522	
295,(0, 9),42	367,(3, 33),3	385,(2, 24),9	424,(4, 39),3	439,(2, 33),6	448,(2, 39),3	451,(3, 39),27	478,(5, 24),3	481,(6, 24),3	490,(3, 47),6	496,(6, 39),9	508,(7, 24),3	511,(7, 33),9	529,(1, 24),3	532,(4, 33),48	580,(5, 47),9	589,(5, 82),3	592,(7, 82),3	595,(3, 24),72	667,(4, 24),96	763,(10, 24),3	766,(8, 33),6	772,(5, 89),3	775,(5, 96),3	778,(8, 47),3	781,(7, 96),3	784,(8, 24),15	799,(8, 39),33	832,(8, 56),9	841,(4, 47),18	859,(8, 66),3	862,(8, 75),3	865,(10, 56),3	868,(8, 96),3	871,(5, 103),3	874,(10, 47),6	880,(8, 82),9	889,(8, 103),3	892,(10, 66),3	895,(4, 66),3	898,(10, 75),3	904,(6, 47),3	907,(10, 39),9	919,(4, 75),3	922,(7, 47),24	946,(7, 66),6	952,(7, 103),3	955,(10, 89),12	967,(7, 89),9	979,(7, 117),3	982,(6, 75),3	985,(8, 89),9	994,(8, 110),12	1006,(6, 82),3	1009,(10, 103),18	1033,(3, 56),36	1069,(6, 89),3	1078,(6, 96),3	1093,(3, 66),6	1102,(6, 117),3	1108,(4, 89),3	1111,(6, 103),9	1129,(1, 33),15	1144,(2, 47),15	1159,(6, 56),39	1210,(4, 82),15	1234,(3, 82),3	1237,(4, 56),33	1270,(3, 89),3	1273,(4, 96),3	1276,(4, 110),3	1279,(1, 39),6	1291,(4, 117),3	1294,(7, 56),39	1345,(2, 56),6	1360,(3, 75),33	1393,(8, 117),36	1435,(2, 66),3	1438,(5, 56),60	1498,(10, 110),36	1558,(3, 96),30	1588,(10, 117),54	1648,(2, 75),60	1708,(3, 103),33	1747,(1, 47),132	1897,(2, 82),27	1927,(5, 110),21	1957,(3, 110),6	1966,(2, 89),15	1981,(6, 33),90	2080,(3, 117),27	2113,(4, 103),66	2179,(5, 117),15	2197,(1, 56),6	2203,(7, 110),21	2230,(2, 96),12	2242,(7, 75),60	2302,(10, 96),63	2389,(6, 66),120	2551,(2, 103),90	2704,(10, 33),105	2857,(2, 110),6	2863,(5, 39),150	3016,(1, 66),12	3079,(12, 33),3	3112,(12, 24),18	3130,(1, 75),3	3133,(5, 33),246	3454,(1, 82),84	3538,(2, 117),114	3745,(1, 89),51	3796,(5, 66),144	3952,(1, 96),3	3955,(6, 110),111	4126,(1, 103),12	4378,(1, 110),3	4381,(5, 75),519	4900,(7, 39),321	5221,(12, 39),3	5224,(12, 47),15	5266,(12, 56),3	5269,(12, 66),3	5272,(12, 75),141	5413,(12, 89),3	5416,(12, 103),6	5422,(12, 110),30	5452,(12, 117),9	5488,(10, 82),174	6016,(12, 82),111	6169,(1, 117),150	6430,(12, 96),51	6634,(11, 24),117	8116,(11, 33),9	8215,(11, 39),12	8317,(11, 47),21	8419,(11, 56),3	9385,(11, 66),3	9748,(11, 75),114	10186,(11, 82),141	10360,(11, 89),3	10441,(11, 96),60	10666,(11, 103),72	11116,(11, 110),36	11434,(11, 117),102	
253,(0, 8),42	322,(3, 23),3	358,(3, 29),9	376,(2, 23),9	394,(4, 29),6	430,(2, 29),3	433,(3, 36),12	445,(2, 36),3	448,(3, 43),3	457,(6, 29),3	472,(5, 23),3	475,(6, 43),6	481,(5, 29),9	499,(5, 36),3	502,(7, 29),3	505,(1, 23),24	535,(7, 23),24	562,(5, 43),3	571,(7, 71),3	574,(7, 78),3	577,(7, 85),3	580,(9, 29),12	592,(4, 62),9	601,(6, 71),3	604,(9, 36),9	613,(9, 85),3	616,(9, 99),3	619,(1, 29),126	745,(5, 52),12	757,(9, 106),6	763,(4, 43),78	841,(6, 23),30	871,(6, 36),33	904,(7, 62),15	919,(7, 99),3	922,(9, 52),9	931,(9, 113),3	934,(10, 36),3	937,(10, 52),3	940,(6, 52),12	952,(3, 52),36	988,(7, 36),45	1033,(10, 62),6	1039,(10, 71),3	1042,(9, 43),24	1066,(6, 113),3	1069,(9, 120),9	1078,(10, 99),3	1081,(3, 62),12	1096,(6, 106),6	1102,(2, 43),3	1105,(5, 120),3	1108,(10, 43),12	1123,(2, 52),3	1126,(4, 52),84	1210,(10, 78),12	1225,(4, 92),3	1228,(10, 106),6	1240,(1, 36),3	1255,(3, 71),12	1270,(4, 106),3	1276,(3, 99),3	1279,(4, 85),9	1288,(4, 113),3	1291,(6, 99),18	1309,(9, 92),18	1327,(1, 43),3	1330,(6, 62),51	1393,(3, 106),3	1399,(2, 62),30	1429,(3, 78),27	1456,(9, 62),21	1477,(10, 120),15	1492,(2, 71),135	1627,(3, 92),57	1684,(4, 71),42	1729,(2, 78),15	1744,(5, 62),48	1792,(5, 106),12	1804,(7, 92),18	1837,(3, 120),15	1852,(4, 78),93	1945,(7, 120),15	1960,(2, 85),3	1963,(5, 78),24	2017,(4, 99),12	2032,(1, 52),75	2107,(5, 71),57	2164,(5, 113),15	2179,(4, 120),3	2224,(2, 92),6	2242,(2, 99),3	2245,(2, 106),3	2278,(1, 62),90	2368,(3, 85),261	2629,(4, 23),243	2872,(9, 23),42	2914,(2, 113),3	2917,(7, 52),45	2962,(7, 106),51	3013,(9, 71),39	3076,(12, 23),3	3082,(1, 71),9	3091,(6, 78),78	3184,(1, 78),42	3226,(10, 29),78	3307,(6, 92),57	3364,(2, 120),93	3457,(7, 113),84	3583,(1, 85),30	3613,(4, 36),177	3808,(1, 92),3	3811,(6, 120),69	3880,(9, 78),84	4000,(1, 99),39	4156,(1, 106),18	4174,(5, 92),150	4420,(1, 113),6	4426,(7, 43),189	4822,(3, 113),273	5095,(5, 85),579	5674,(5, 99),315	5989,(10, 85),333	6322,(12, 43),3	6325,(12, 71),12	6337,(12, 78),3	6340,(1, 120),3	6343,(10, 92),117	6460,(10, 113),54	6514,(12, 29),21	6535,(12, 36),45	6580,(12, 52),24	6604,(12, 62),18	6622,(12, 85),6	6628,(11, 23),6	6634,(12, 92),54	6688,(12, 99),3	6691,(12, 106),18	6751,(12, 113),51	6820,(11, 29),117	6937,(6, 85),564	7501,(10, 23),486	8056,(12, 120),54	8143,(11, 36),3	8269,(11, 43),6	8383,(11, 52),3	8566,(11, 62),189	9520,(11, 71),3	10033,(11, 78),18	10339,(11, 85),3	10426,(11, 92),3	10600,(11, 99),3	10762,(11, 106),321	11161,(11, 113),18	11581,(11, 120),45	
211,(0, 7),42	289,(3, 22),33	373,(2, 22),3	394,(3, 35),39	433,(4, 22),3	436,(4, 35),3	469,(4, 50),3	487,(1, 22),18	505,(6, 22),36	544,(6, 35),30	574,(8, 22),12	586,(4, 61),6	592,(5, 42),27	619,(5, 50),9	628,(9, 22),3	631,(4, 42),30	661,(6, 70),3	664,(8, 35),15	679,(8, 42),3	682,(8, 61),3	685,(8, 70),3	688,(8, 105),3	691,(2, 35),231	922,(3, 42),18	940,(3, 50),12	952,(5, 61),33	985,(5, 84),3	988,(5, 91),3	991,(6, 50),9	1000,(6, 77),6	1006,(8, 91),9	1015,(8, 98),15	1030,(8, 112),3	1033,(9, 35),9	1042,(10, 42),21	1066,(9, 91),3	1069,(2, 42),33	1102,(3, 61),9	1111,(4, 77),15	1126,(5, 98),3	1129,(3, 77),3	1132,(10, 70),3	1135,(10, 98),3	1138,(6, 91),6	1144,(6, 98),6	1150,(6, 119),3	1153,(10, 112),3	1156,(10, 119),3	1159,(2, 50),69	1228,(1, 35),12	1240,(3, 70),15	1255,(9, 61),9	1264,(9, 98),3	1267,(3, 84),3	1273,(3, 91),3	1276,(6, 112),15	1294,(1, 42),33	1327,(9, 42),42	1381,(9, 77),12	1396,(2, 61),3	1399,(9, 50),39	1438,(10, 22),27	1471,(2, 70),21	1492,(8, 77),84	1588,(3, 98),6	1594,(5, 70),30	1624,(6, 105),18	1645,(5, 105),12	1657,(4, 70),24	1681,(9, 105),15	1696,(5, 119),6	1702,(9, 70),24	1726,(2, 77),3	1741,(3, 105),15	1756,(3, 112),54	1810,(4, 84),33	1843,(4, 105),9	1852,(9, 84),21	1873,(9, 119),15	1888,(10, 35),33	1921,(1, 50),3	1924,(10, 50),33	1957,(2, 84),3	1960,(4, 91),57	2029,(4, 112),12	2044,(4, 119),6	2050,(5, 112),33	2107,(3, 119),39	2155,(10, 61),24	2179,(10, 91),15	2194,(2, 91),30	2251,(1, 61),27	2278,(5, 22),162	2461,(2, 98),66	2527,(6, 84),57	2653,(2, 105),33	2686,(5, 35),132	2896,(2, 112),18	2914,(6, 61),153	3079,(1, 70),3	3082,(2, 119),18	3172,(1, 77),12	3184,(4, 98),327	3520,(12, 35),3	3523,(12, 50),3	3553,(1, 84),30	3586,(5, 77),171	3799,(1, 91),9	3808,(8, 119),96	3973,(1, 98),27	4000,(9, 112),60	4060,(10, 77),48	4153,(1, 105),3	4156,(6, 42),201	4399,(1, 112),21	4570,(10, 84),48	4891,(12, 22),30	4921,(12, 42),27	4948,(12, 61),9	4957,(12, 70),9	4966,(12, 77),3	4969,(12, 84),12	4981,(12, 91),60	5041,(12, 98),6	5047,(12, 105),6	5053,(12, 112),3	5056,(12, 119),12	5176,(10, 105),66	5368,(8, 50),168	5536,(8, 84),261	6337,(1, 119),3	6625,(11, 22),3	8140,(11, 35),3	8266,(11, 42),3	8344,(11, 50),18	8560,(11, 61),6	9517,(11, 70),3	10030,(11, 77),3	10333,(11, 84),6	10384,(11, 91),42	10513,(11, 98),87	10741,(11, 105),21	11158,(11, 112),3	11539,(11, 119),42	
169,(0, 6),42	286,(3, 21),3	370,(2, 21),3	376,(3, 34),3	391,(4, 21),3	427,(4, 40),6	442,(5, 21),30	484,(1, 21),3	490,(5, 34),9	502,(5, 40),3	505,(7, 21),3	511,(5, 76),3	514,(2, 34),177	691,(7, 40),3	694,(9, 21),3	697,(9, 40),3	700,(7, 60),3	703,(9, 60),3	706,(9, 67),3	709,(7, 97),3	712,(5, 49),30	742,(5, 97),3	745,(8, 21),21	766,(9, 76),3	769,(9, 83),3	772,(8, 60),6	778,(3, 40),87	865,(8, 90),3	868,(9, 90),3	871,(10, 76),3	874,(3, 49),48	922,(4, 34),27	949,(4, 49),24	976,(7, 111),3	979,(9, 34),9	988,(10, 83),3	991,(2, 40),78	1069,(10, 40),6	1075,(3, 60),6	1084,(4, 60),6	1090,(4, 67),9	1099,(3, 67),3	1102,(8, 49),21	1126,(3, 76),3	1132,(2, 49),9	1141,(2, 60),3	1144,(1, 34),84	1228,(4, 83),6	1234,(4, 97),3	1237,(8, 67),27	1264,(8, 76),15	1279,(10, 90),6	1285,(1, 40),6	1291,(8, 104),30	1327,(5, 60),27	1354,(7, 67),21	1381,(5, 67),36	1417,(5, 83),15	1438,(2, 67),9	1447,(9, 104),9	1456,(3, 83),84	1540,(3, 90),9	1549,(7, 49),39	1588,(7, 76),27	1615,(7, 90),18	1633,(8, 111),12	1645,(9, 97),15	1660,(10, 34),9	1669,(10, 49),9	1684,(3, 104),18	1705,(3, 111),3	1708,(2, 76),18	1726,(4, 76),36	1762,(10, 60),27	1789,(10, 111),9	1810,(3, 118),27	1861,(5, 90),21	1882,(7, 104),36	1918,(1, 49),3	1924,(2, 83),33	1957,(10, 67),12	1981,(2, 90),213	2194,(4, 90),42	2248,(1, 60),3	2251,(4, 104),18	2269,(4, 111),15	2284,(4, 118),30	2365,(7, 118),39	2404,(10, 97),24	2428,(10, 118),15	2449,(2, 97),12	2461,(5, 104),72	2533,(5, 111),81	2614,(5, 118),15	2641,(2, 104),12	2653,(3, 97),177	2863,(2, 111),33	2896,(8, 83),42	2980,(2, 118),6	2986,(12, 34),3	3028,(1, 67),36	3064,(8, 97),57	3133,(1, 76),39	3172,(7, 34),174	3346,(8, 34),180	3526,(12, 40),3	3538,(1, 83),15	3553,(8, 40),111	3727,(9, 111),45	3796,(1, 90),3	3799,(9, 118),75	3955,(1, 97),18	4138,(1, 104),15	4153,(7, 83),210	4381,(1, 111),18	4399,(9, 49),234	4633,(10, 21),438	5071,(10, 104),105	5176,(12, 21),27	5203,(12, 60),3	5206,(12, 67),3	5209,(12, 76),3	5212,(12, 90),6	5218,(12, 104),3	5239,(12, 49),27	6127,(12, 83),69	6202,(12, 97),57	6262,(12, 111),27	6289,(12, 118),3	6319,(1, 118),18	6622,(11, 21),3	8125,(11, 34),15	8227,(11, 40),9	8341,(11, 49),3	8524,(11, 60),36	9388,(11, 67),15	9862,(11, 76),168	10327,(11, 83),6	10363,(11, 90),21	10501,(11, 97),12	10738,(11, 104),3	11152,(11, 111),6	11536,(11, 118),3	11539,(8, 118),762	
127,(0, 5),42	277,(3, 20),9	331,(2, 20),39	370,(3, 31),6	388,(4, 20),3	415,(4, 37),9	433,(2, 31),3	451,(6, 20),3	454,(1, 20),30	484,(4, 31),48	532,(7, 20),3	541,(6, 31),3	544,(8, 31),6	559,(7, 31),3	562,(8, 63),3	565,(7, 45),3	568,(7, 54),3	571,(9, 20),9	580,(4, 45),6	586,(8, 79),3	589,(8, 114),3	592,(9, 54),3	595,(9, 63),3	598,(9, 79),3	601,(4, 63),3	604,(8, 20),21	628,(8, 37),30	658,(6, 100),3	661,(4, 86),3	664,(9, 86),24	688,(7, 100),3	691,(6, 54),9	700,(6, 63),6	706,(6, 73),6	712,(7, 37),69	781,(10, 45),3	784,(6, 45),57	841,(8, 54),18	859,(4, 54),36	895,(8, 73),12	907,(8, 86),9	916,(10, 63),3	919,(10, 93),3	922,(2, 37),33	955,(7, 63),12	967,(8, 107),6	973,(10, 31),12	985,(6, 79),6	991,(9, 93),15	1006,(10, 100),3	1009,(3, 54),24	1033,(7, 86),27	1060,(1, 31),12	1072,(6, 93),6	1078,(7, 93),15	1093,(9, 107),9	1108,(2, 45),12	1120,(9, 31),48	1168,(9, 73),27	1198,(8, 45),30	1231,(3, 79),3	1237,(3, 86),3	1243,(1, 37),12	1255,(10, 54),18	1279,(2, 54),18	1297,(3, 63),63	1363,(1, 45),381	1744,(2, 63),6	1750,(2, 73),6	1756,(2, 79),111	1867,(3, 73),90	1963,(2, 86),3	1966,(3, 93),54	2020,(3, 100),9	2029,(3, 107),51	2080,(4, 79),33	2113,(1, 54),42	2155,(3, 37),180	2335,(4, 114),12	2347,(7, 107),18	2368,(1, 63),27	2404,(2, 93),42	2446,(4, 73),66	2527,(2, 100),18	2545,(4, 93),78	2623,(7, 73),39	2662,(8, 100),21	2686,(2, 107),3	2689,(6, 37),114	2803,(6, 107),66	2872,(4, 107),45	2917,(2, 114),60	2977,(3, 114),90	3067,(7, 114),27	3094,(1, 73),33	3127,(10, 73),24	3151,(10, 79),12	3166,(9, 100),48	3214,(10, 107),12	3226,(1, 79),3	3229,(6, 86),78	3307,(9, 114),36	3346,(7, 79),54	3400,(9, 37),210	3613,(1, 86),48	3661,(6, 114),102	3763,(10, 86),45	3811,(1, 93),3	3814,(10, 20),66	3880,(10, 37),90	3970,(10, 114),30	4039,(1, 100),3	4174,(1, 107),15	4426,(1, 114),6	4432,(3, 45),390	4822,(9, 45),639	5461,(12, 20),6	5467,(12, 31),3	5470,(12, 37),3	5473,(12, 54),9	5482,(12, 63),3	5485,(12, 73),3	5572,(12, 45),21	5596,(12, 79),36	5668,(12, 86),3	5674,(4, 100),711	6385,(12, 93),45	6481,(12, 100),3	6484,(12, 107),6	6490,(12, 114),6	6619,(11, 20),3	6985,(11, 31),6	6991,(8, 93),1134	8146,(11, 37),51	8278,(11, 45),33	8392,(11, 54),18	8755,(11, 63),93	9541,(11, 73),3	10051,(11, 79),96	10342,(11, 86),6	10429,(11, 93),3	10603,(11, 100),6	11083,(11, 107),9	11179,(11, 114),249	
85,(0, 4),42	196,(2, 18),114	340,(3, 27),18	400,(2, 28),30	430,(5, 18),12	445,(1, 18),6	451,(2, 27),51	502,(3, 18),93	595,(7, 28),3	598,(7, 53),3	601,(7, 59),3	604,(7, 94),3	607,(1, 27),3	610,(1, 28),9	619,(9, 27),3	622,(9, 59),3	625,(8, 27),3	628,(5, 53),3	631,(9, 44),6	637,(6, 27),9	646,(6, 44),12	658,(8, 53),3	661,(8, 80),3	664,(6, 108),3	667,(3, 28),111	778,(5, 27),30	808,(5, 44),48	856,(9, 53),9	865,(3, 44),9	874,(5, 28),66	940,(5, 87),12	952,(6, 53),18	970,(6, 59),12	982,(7, 87),6	988,(3, 53),21	1009,(6, 18),57	1066,(8, 87),3	1069,(3, 59),6	1075,(8, 101),3	1078,(9, 101),3	1081,(5, 94),3	1084,(10, 44),3	1087,(10, 53),3	1090,(6, 101),6	1096,(7, 101),9	1105,(2, 44),3	1108,(7, 18),18	1126,(7, 80),12	1138,(8, 18),60	1198,(6, 94),27	1225,(10, 87),3	1228,(2, 53),51	1279,(9, 80),12	1291,(10, 94),3	1294,(3, 80),3	1297,(9, 94),12	1309,(6, 115),12	1321,(10, 115),3	1330,(1, 44),33	1369,(2, 59),27	1396,(3, 87),3	1399,(7, 44),27	1426,(3, 94),3	1429,(7, 27),69	1498,(5, 59),81	1579,(5, 101),9	1594,(3, 101),12	1606,(9, 108),9	1621,(3, 108),6	1627,(5, 80),18	1645,(6, 28),141	1792,(7, 108),6	1798,(10, 18),15	1822,(7, 115),18	1840,(10, 27),12	1852,(10, 80),15	1867,(2, 80),24	1891,(5, 108),36	1927,(8, 44),51	1978,(8, 59),33	2011,(5, 115),27	2038,(8, 94),30	2068,(10, 28),18	2107,(1, 53),6	2113,(6, 87),75	2194,(10, 101),15	2227,(1, 59),21	2248,(2, 87),156	2446,(2, 94),3	2449,(10, 108),42	2545,(2, 101),6	2551,(8, 108),66	2617,(9, 18),48	2689,(2, 108),168	2857,(3, 115),87	2944,(9, 87),27	2977,(2, 115),3	2980,(8, 115),84	3064,(9, 28),102	3229,(1, 80),216	3445,(6, 80),180	3661,(1, 87),81	3814,(1, 94),135	4042,(1, 101),75	4189,(1, 108),165	4432,(1, 115),9	4441,(8, 28),927	5368,(10, 59),120	5488,(12, 18),3	5491,(12, 27),3	5494,(12, 28),72	5566,(12, 44),6	5593,(12, 53),3	5632,(12, 80),36	5671,(12, 94),3	5806,(12, 59),210	6196,(12, 87),6	6259,(12, 108),3	6340,(12, 115),36	6388,(11, 18),174	6628,(16, 121),6	6655,(20, 121),6	6661,(21, 121),6	6667,(22, 121),6	6727,(17, 121),6	6733,(19, 121),6	6775,(11, 27),12	6787,(11, 28),33	6820,(25, 121),6	6826,(26, 121),6	6847,(9, 115),300	7147,(24, 121),6	7153,(30, 121),6	7159,(31, 121),6	7978,(12, 101),78	8125,(29, 121),6	8131,(23, 121),6	8149,(32, 121),6	8158,(33, 121),6	8173,(34, 121),6	8179,(35, 121),6	8185,(36, 121),6	8230,(37, 121),6	8260,(39, 121),6	8269,(40, 121),6	8275,(11, 44),3	8302,(42, 121),6	8308,(41, 121),6	8314,(43, 121),6	8344,(45, 121),6	8350,(46, 121),6	8371,(47, 121),6	8377,(48, 121),6	8386,(11, 53),6	8392,(49, 121),6	8398,(50, 121),6	8416,(51, 121),6	8443,(54, 121),6	8452,(55, 121),6	8458,(56, 121),6	8464,(57, 121),6	8518,(11, 59),6	8551,(58, 121),6	8593,(60, 121),6	8599,(61, 121),6	8713,(52, 121),6	8788,(62, 121),6	8881,(63, 121),6	9415,(64, 121),6	9421,(65, 121),6	9427,(66, 121),6	9436,(67, 121),6	9544,(68, 121),6	9550,(69, 121),6	9556,(70, 121),6	9562,(71, 121),6	9577,(73, 121),6	9583,(72, 121),6	9781,(74, 121),6	9958,(75, 121),6	10063,(76, 121),6	10069,(77, 121),6	10084,(78, 121),6	10147,(11, 80),3	10180,(79, 121),6	10348,(11, 87),6	10360,(82, 121),6	10366,(83, 121),6	10372,(84, 121),6	10378,(85, 121),6	10384,(86, 121),6	10393,(88, 121),6	10399,(89, 121),6	10417,(90, 121),6	10432,(11, 94),3	10459,(91, 121),6	10465,(92, 121),6	10471,(93, 121),6	10477,(95, 121),6	10534,(96, 121),6	10546,(97, 121),6	10609,(11, 101),9	10633,(98, 121),6	10639,(99, 121),6	10645,(100, 121),6	10699,(102, 121),6	10771,(103, 121),6	10777,(104, 121),6	10795,(105, 121),6	11092,(11, 108),21	11116,(106, 121),6	11125,(107, 121),6	11149,(109, 121),6	11185,(110, 121),6	11191,(111, 121),6	11197,(112, 121),6	11212,(113, 121),6	11428,(11, 115),3	11461,(114, 121),6	11467,(116, 121),6	11569,(117, 121),6	11614,(119, 121),6	11626,(13, 121),6	11632,(14, 121),6	11638,(15, 121),6	12301,(120, 121),6	12334,(118, 121),6	13147,(81, 121),6	13669,(38, 121),6	
43,(0, 3),42	193,(2, 17),3	310,(2, 19),21	382,(4, 17),3	385,(4, 19),3	403,(4, 30),9	439,(1, 17),6	451,(1, 19),3	454,(6, 17),3	466,(4, 48),3	472,(6, 48),3	475,(4, 57),6	484,(6, 30),6	493,(7, 17),3	496,(7, 19),6	502,(2, 30),12	514,(5, 17),24	538,(5, 30),24	562,(7, 30),3	565,(8, 17),3	568,(8, 19),3	571,(8, 72),3	574,(5, 48),3	577,(5, 58),3	580,(7, 48),12	592,(8, 58),9	601,(9, 17),3	604,(4, 72),3	607,(6, 19),30	637,(9, 58),3	640,(7, 57),48	688,(10, 19),6	694,(7, 58),6	700,(8, 48),15	715,(8, 69),21	736,(10, 48),9	745,(1, 30),315	1063,(10, 69),6	1069,(5, 57),6	1075,(5, 69),6	1081,(6, 72),9	1099,(4, 69),9	1108,(5, 72),12	1120,(2, 48),3	1126,(2, 57),3	1129,(5, 19),198	1333,(7, 69),15	1351,(2, 58),18	1369,(9, 30),12	1381,(6, 69),57	1447,(2, 69),24	1471,(6, 57),150	1627,(2, 72),18	1645,(7, 72),21	1666,(8, 30),72	1738,(9, 57),45	1786,(6, 58),90	1879,(1, 48),39	1918,(9, 19),105	2023,(10, 17),30	2053,(10, 57),12	2086,(10, 30),69	2203,(1, 57),21	2224,(1, 58),3	2227,(8, 57),288	2515,(10, 72),42	2689,(9, 48),72	2761,(9, 69),24	2911,(10, 58),114	3067,(1, 69),12	3091,(1, 72),3	3100,(12, 17),12	3529,(12, 48),6	3535,(12, 57),3	3790,(4, 58),1884	5674,(12, 19),45	5719,(12, 30),87	5833,(9, 72),339	6349,(11, 17),39	6562,(11, 19),57	6937,(11, 30),48	6985,(12, 58),186	7171,(12, 69),222	7393,(12, 72),585	8338,(11, 48),3	8422,(11, 57),3	8425,(11, 58),93	9511,(11, 69),6	9523,(11, 72),18	
1,(0, 2),42	259,(3, 16),18	325,(3, 26),15	379,(0, 12),42	421,(1, 16),18	439,(4, 16),3	442,(4, 26),21	463,(6, 26),9	478,(3, 41),12	496,(3, 51),3	505,(5, 41),3	508,(5, 68),3	532,(8, 26),3	535,(8, 41),3	538,(1, 26),69	607,(4, 41),24	631,(5, 16),60	691,(5, 26),21	712,(6, 16),39	751,(6, 41),33	784,(7, 16),120	904,(9, 26),3	907,(6, 51),33	940,(8, 51),27	967,(9, 65),3	970,(9, 68),3	973,(4, 51),111	1084,(5, 65),21	1105,(6, 68),3	1111,(3, 65),15	1126,(6, 65),12	1138,(7, 26),45	1183,(7, 41),90	1273,(7, 65),18	1291,(1, 41),3	1294,(4, 65),135	1429,(4, 68),228	1657,(5, 51),39	1696,(7, 51),81	1777,(7, 68),15	1792,(8, 16),48	1840,(8, 65),42	1882,(8, 68),42	1924,(1, 51),108	2032,(9, 16),585	2617,(10, 16),42	2659,(10, 51),3	2665,(9, 41),24	2689,(10, 26),15	2809,(10, 41),102	2989,(1, 65),27	3064,(1, 68),3	3067,(3, 68),1191	4258,(10, 65),231	4489,(10, 68),81	5461,(9, 51),372	6343,(11, 16),6	6754,(11, 26),21	8236,(11, 41),30	8362,(11, 51),21	9382,(11, 65),3	9403,(11, 68),108	
76,(2, 13),18	94,(2, 14),96	190,(2, 15),3	193,(3, 13),3	196,(3, 14),45	241,(3, 15),18	259,(4, 13),3	262,(4, 14),93	355,(4, 15),27	382,(5, 13),24	406,(5, 14),18	424,(5, 15),6	430,(6, 13),3	433,(6, 14),3	436,(6, 15),15	451,(7, 13),30	481,(7, 14),3	484,(7, 15),9	493,(8, 13),15	508,(8, 14),18	526,(8, 15),6	532,(9, 13),3	535,(9, 14),33	568,(9, 15),3	571,(10, 13),9	580,(10, 14),75	655,(10, 15),6	3064,(12, 13),12	3457,(12, 14),63	3652,(12, 15),1239	
# Outgoing
571,(10, 13),9	580,(10, 14),75	655,(10, 15),6	688,(10, 19),6	736,(10, 48),9	763,(10, 24),3	781,(10, 45),3	865,(10, 56),3	871,(10, 76),3	874,(10, 47),6	892,(10, 66),3	898,(10, 75),3	907,(10, 39),9	916,(10, 63),3	919,(10, 93),3	934,(10, 36),3	937,(10, 52),3	955,(10, 89),12	973,(10, 31),12	988,(10, 83),3	1006,(10, 100),3	1009,(10, 103),18	1033,(10, 62),6	1039,(10, 71),3	1042,(10, 42),21	1063,(10, 69),6	1069,(10, 40),6	1078,(10, 99),3	1084,(10, 44),3	1087,(10, 53),3	1108,(10, 43),12	1132,(10, 70),3	1135,(10, 98),3	1153,(10, 112),3	1156,(10, 119),3	1210,(10, 78),12	1225,(10, 87),3	1228,(10, 106),6	1255,(10, 54),18	1279,(10, 90),6	1291,(10, 94),3	1321,(10, 115),3	1438,(10, 22),27	1477,(10, 120),15	1498,(10, 110),36	1588,(10, 117),54	1660,(10, 34),9	1669,(10, 49),9	1762,(10, 60),27	1789,(10, 111),9	1798,(10, 18),15	1840,(10, 27),12	1852,(10, 80),15	1888,(10, 35),33	1924,(10, 50),33	1957,(10, 67),12	2023,(10, 17),30	2053,(10, 57),12	2068,(10, 28),18	2086,(10, 30),69	2155,(10, 61),24	2179,(10, 91),15	2194,(10, 101),15	2302,(10, 96),63	2404,(10, 97),24	2428,(10, 118),15	2449,(10, 108),42	2515,(10, 72),42	2617,(10, 16),42	2659,(10, 51),3	2689,(10, 26),15	2704,(10, 33),105	2809,(10, 41),102	2911,(10, 58),114	3127,(10, 73),24	3151,(10, 79),12	3214,(10, 107),12	3226,(10, 29),78	3763,(10, 86),45	3814,(10, 20),66	3880,(10, 37),90	3970,(10, 114),30	4060,(10, 77),48	4258,(10, 65),231	4489,(10, 68),81	4570,(10, 84),48	4633,(10, 21),438	5071,(10, 104),105	5176,(10, 105),66	5368,(10, 59),120	5488,(10, 82),174	5989,(10, 85),333	6343,(10, 92),117	6460,(10, 113),54	6820,(25, 121),6	7501,(10, 23),486	8149,(32, 121),6	8350,(46, 121),6	8452,(55, 121),6	9415,(64, 121),6	9781,(74, 121),6	10393,(88, 121),6	10477,(95, 121),6	10699,(102, 121),6	11149,(109, 121),6	11467,(116, 121),6	13147,(81, 121),6	13669,(38, 121),6	
532,(9, 13),3	535,(9, 14),33	568,(9, 15),3	571,(9, 20),9	580,(9, 29),12	592,(9, 54),3	595,(9, 63),3	598,(9, 79),3	601,(9, 17),3	604,(9, 36),9	613,(9, 85),3	616,(9, 99),3	619,(9, 27),3	622,(9, 59),3	628,(9, 22),3	631,(9, 44),6	637,(9, 58),3	640,(9, 25),24	664,(9, 86),24	694,(9, 21),3	697,(9, 40),3	700,(9, 88),3	703,(9, 60),3	706,(9, 67),3	709,(9, 32),12	721,(9, 46),12	733,(9, 95),3	745,(9, 64),12	757,(9, 106),6	766,(9, 76),3	769,(9, 83),3	772,(9, 38),30	802,(9, 81),36	838,(9, 109),6	856,(9, 53),9	868,(9, 90),3	904,(9, 26),3	922,(9, 52),9	931,(9, 113),3	967,(9, 65),3	970,(9, 68),3	979,(9, 34),9	991,(9, 93),15	1033,(9, 35),9	1042,(9, 43),24	1066,(9, 91),3	1069,(9, 120),9	1078,(9, 101),3	1093,(9, 107),9	1120,(9, 31),48	1168,(9, 73),27	1255,(9, 61),9	1264,(9, 98),3	1279,(9, 80),12	1297,(9, 94),12	1309,(9, 92),18	1327,(9, 42),42	1369,(9, 30),12	1381,(9, 77),12	1399,(9, 50),39	1447,(9, 104),9	1456,(9, 62),21	1558,(9, 102),36	1606,(9, 108),9	1645,(9, 97),15	1681,(9, 105),15	1702,(9, 70),24	1738,(9, 57),45	1852,(9, 84),21	1873,(9, 119),15	1918,(9, 19),105	2032,(9, 16),585	2617,(9, 18),48	2665,(9, 41),24	2689,(9, 48),72	2761,(9, 69),24	2872,(9, 23),42	2944,(9, 87),27	3013,(9, 71),39	3064,(9, 28),102	3166,(9, 100),48	3307,(9, 114),36	3400,(9, 37),210	3664,(9, 74),63	3727,(9, 111),45	3799,(9, 118),75	3880,(9, 78),84	4000,(9, 112),60	4399,(9, 49),234	4822,(9, 45),639	5461,(9, 51),372	5833,(9, 72),339	6754,(9, 55),93	6847,(9, 115),300	7147,(24, 121),6	8158,(33, 121),6	8260,(39, 121),6	8371,(47, 121),6	8458,(56, 121),6	9427,(66, 121),6	9748,(9, 116),210	9958,(75, 121),6	10360,(82, 121),6	10399,(89, 121),6	10534,(96, 121),6	10771,(103, 121),6	11185,(110, 121),6	11569,(117, 121),6	
493,(8, 13),15	508,(8, 14),18	526,(8, 15),6	532,(8, 26),3	535,(8, 41),3	538,(8, 25),3	541,(8, 38),3	544,(8, 31),6	550,(8, 32),9	559,(8, 55),3	562,(8, 63),3	565,(8, 17),3	568,(8, 19),3	571,(8, 72),3	574,(8, 22),12	586,(8, 79),3	589,(8, 114),3	592,(8, 58),9	601,(8, 64),3	604,(8, 20),21	625,(8, 27),3	628,(8, 37),30	658,(8, 53),3	661,(8, 80),3	664,(8, 35),15	679,(8, 42),3	682,(8, 61),3	685,(8, 70),3	688,(8, 105),3	691,(8, 46),9	700,(8, 48),15	715,(8, 69),21	736,(8, 74),9	745,(8, 21),21	766,(8, 33),6	772,(8, 60),6	778,(8, 47),3	784,(8, 24),15	799,(8, 39),33	832,(8, 56),9	841,(8, 54),18	859,(8, 66),3	862,(8, 75),3	865,(8, 90),3	868,(8, 96),3	871,(8, 81),9	880,(8, 82),9	889,(8, 103),3	895,(8, 73),12	907,(8, 86),9	919,(8, 88),9	928,(8, 102),12	940,(8, 51),27	967,(8, 107),6	985,(8, 89),9	994,(8, 110),12	1006,(8, 91),9	1015,(8, 98),15	1030,(8, 112),3	1066,(8, 87),3	1075,(8, 101),3	1102,(8, 49),21	1138,(8, 18),60	1198,(8, 45),30	1237,(8, 67),27	1264,(8, 76),15	1291,(8, 104),30	1393,(8, 117),36	1465,(8, 95),21	1492,(8, 77),84	1633,(8, 111),12	1666,(8, 30),72	1792,(8, 16),48	1840,(8, 65),42	1882,(8, 68),42	1927,(8, 44),51	1978,(8, 59),33	2038,(8, 94),30	2227,(8, 57),288	2551,(8, 108),66	2662,(8, 100),21	2896,(8, 83),42	2980,(8, 115),84	3064,(8, 97),57	3346,(8, 34),180	3553,(8, 40),111	3808,(8, 119),96	4126,(8, 109),195	4441,(8, 28),927	5368,(8, 50),168	5536,(8, 84),261	6991,(8, 93),1134	8125,(29, 121),6	8131,(23, 121),6	8185,(36, 121),6	8314,(43, 121),6	8419,(8, 116),294	8713,(52, 121),6	8788,(62, 121),6	9562,(71, 121),6	10084,(78, 121),6	10378,(85, 121),6	10465,(92, 121),6	10639,(99, 121),6	11116,(106, 121),6	11212,(113, 121),6	11539,(8, 118),762	12301,(120, 121),6	
451,(7, 13),30	481,(7, 14),3	484,(7, 15),9	493,(7, 17),3	496,(7, 19),6	502,(7, 29),3	505,(7, 21),3	508,(7, 24),3	511,(7, 33),9	520,(7, 38),12	532,(7, 20),3	535,(7, 23),24	559,(7, 31),3	562,(7, 30),3	565,(7, 45),3	568,(7, 54),3	571,(7, 71),3	574,(7, 78),3	577,(7, 85),3	580,(7, 48),12	592,(7, 82),3	595,(7, 28),3	598,(7, 53),3	601,(7, 59),3	604,(7, 94),3	607,(7, 25),24	631,(7, 46),9	640,(7, 57),48	688,(7, 100),3	691,(7, 40),3	694,(7, 58),6	700,(7, 60),3	703,(7, 88),3	706,(7, 95),3	709,(7, 97),3	712,(7, 37),69	781,(7, 96),3	784,(7, 16),120	904,(7, 62),15	919,(7, 99),3	922,(7, 47),24	946,(7, 66),6	952,(7, 103),3	955,(7, 63),12	967,(7, 89),9	976,(7, 111),3	979,(7, 117),3	982,(7, 87),6	988,(7, 36),45	1033,(7, 86),27	1069,(7, 109),3	1078,(7, 93),15	1096,(7, 101),9	1108,(7, 18),18	1126,(7, 80),12	1138,(7, 26),45	1183,(7, 41),90	1273,(7, 65),18	1294,(7, 56),39	1333,(7, 69),15	1348,(7, 116),6	1354,(7, 67),21	1381,(7, 74),18	1399,(7, 44),27	1429,(7, 27),69	1498,(7, 55),33	1531,(7, 81),12	1549,(7, 49),39	1588,(7, 76),27	1615,(7, 90),18	1645,(7, 72),21	1696,(7, 51),81	1777,(7, 68),15	1792,(7, 108),6	1804,(7, 92),18	1822,(7, 115),18	1882,(7, 104),36	1945,(7, 120),15	2101,(7, 102),42	2203,(7, 110),21	2242,(7, 75),60	2347,(7, 107),18	2365,(7, 118),39	2623,(7, 73),39	2917,(7, 52),45	2962,(7, 106),51	3067,(7, 114),27	3172,(7, 34),174	3346,(7, 79),54	3457,(7, 113),84	3586,(7, 32),78	3745,(7, 64),144	4153,(7, 83),210	4426,(7, 43),189	4900,(7, 39),321	6667,(22, 121),6	8179,(35, 121),6	8302,(42, 121),6	8398,(50, 121),6	8599,(61, 121),6	9556,(70, 121),6	10069,(77, 121),6	10372,(84, 121),6	10459,(91, 121),6	10633,(98, 121),6	10795,(105, 121),6	11197,(112, 121),6	11614,(119, 121),6	
430,(6, 13),3	433,(6, 14),3	436,(6, 15),15	451,(6, 20),3	454,(6, 17),3	457,(6, 29),3	460,(6, 46),3	463,(6, 26),9	472,(6, 48),3	475,(6, 43),6	481,(6, 24),3	484,(6, 30),6	490,(6, 32),6	496,(6, 39),9	505,(6, 22),36	541,(6, 31),3	544,(6, 35),30	574,(6, 25),27	601,(6, 71),3	604,(6, 95),3	607,(6, 19),30	637,(6, 27),9	646,(6, 44),12	658,(6, 100),3	661,(6, 70),3	664,(6, 108),3	667,(6, 38),24	691,(6, 54),9	700,(6, 63),6	706,(6, 73),6	712,(6, 16),39	751,(6, 41),33	784,(6, 45),57	841,(6, 23),30	871,(6, 36),33	904,(6, 47),3	907,(6, 51),33	940,(6, 52),12	952,(6, 53),18	970,(6, 59),12	982,(6, 75),3	985,(6, 79),6	991,(6, 50),9	1000,(6, 77),6	1006,(6, 82),3	1009,(6, 18),57	1066,(6, 113),3	1069,(6, 89),3	1072,(6, 93),6	1078,(6, 96),3	1081,(6, 72),9	1090,(6, 101),6	1096,(6, 106),6	1102,(6, 117),3	1105,(6, 68),3	1111,(6, 103),9	1126,(6, 65),12	1138,(6, 91),6	1144,(6, 98),6	1150,(6, 119),3	1159,(6, 56),39	1198,(6, 94),27	1231,(6, 88),9	1240,(6, 102),12	1252,(6, 109),3	1276,(6, 112),15	1291,(6, 99),18	1309,(6, 115),12	1330,(6, 62),51	1381,(6, 69),57	1438,(6, 74),27	1471,(6, 57),150	1624,(6, 105),18	1645,(6, 28),141	1786,(6, 58),90	1897,(6, 64),45	1981,(6, 33),90	2071,(6, 81),30	2113,(6, 87),75	2197,(6, 55),192	2389,(6, 66),120	2527,(6, 84),57	2689,(6, 37),114	2803,(6, 107),66	2914,(6, 61),153	3091,(6, 78),78	3229,(6, 86),78	3307,(6, 92),57	3364,(6, 116),81	3445,(6, 80),180	3661,(6, 114),102	3811,(6, 120),69	3955,(6, 110),111	4156,(6, 42),201	6661,(21, 121),6	6937,(6, 85),564	8173,(34, 121),6	8269,(40, 121),6	8392,(49, 121),6	8593,(60, 121),6	9436,(67, 121),6	10063,(76, 121),6	10366,(83, 121),6	10417,(90, 121),6	10546,(97, 121),6	10777,(104, 121),6	11191,(111, 121),6	12334,(118, 121),6	
382,(5, 13),24	406,(5, 14),18	424,(5, 15),6	430,(5, 18),12	442,(5, 21),30	472,(5, 23),3	475,(5, 25),3	478,(5, 24),3	481,(5, 29),9	490,(5, 34),9	499,(5, 36),3	502,(5, 40),3	505,(5, 41),3	508,(5, 68),3	511,(5, 76),3	514,(5, 17),24	538,(5, 30),24	562,(5, 43),3	565,(5, 46),9	574,(5, 48),3	577,(5, 58),3	580,(5, 47),9	589,(5, 82),3	592,(5, 42),27	619,(5, 50),9	628,(5, 53),3	631,(5, 16),60	691,(5, 26),21	712,(5, 49),30	742,(5, 97),3	745,(5, 52),12	757,(5, 55),9	766,(5, 88),6	772,(5, 89),3	775,(5, 96),3	778,(5, 27),30	808,(5, 44),48	856,(5, 81),15	871,(5, 103),3	874,(5, 28),66	940,(5, 87),12	952,(5, 61),33	985,(5, 84),3	988,(5, 91),3	991,(5, 38),78	1069,(5, 57),6	1075,(5, 69),6	1081,(5, 94),3	1084,(5, 65),21	1105,(5, 120),3	1108,(5, 72),12	1126,(5, 98),3	1129,(5, 19),198	1327,(5, 60),27	1354,(5, 64),27	1381,(5, 67),36	1417,(5, 83),15	1435,(5, 116),3	1438,(5, 56),60	1498,(5, 59),81	1579,(5, 101),9	1594,(5, 70),30	1627,(5, 80),18	1645,(5, 105),12	1657,(5, 51),39	1696,(5, 119),6	1705,(5, 102),18	1744,(5, 62),48	1792,(5, 106),12	1810,(5, 74),51	1861,(5, 90),21	1891,(5, 108),36	1927,(5, 110),21	1963,(5, 78),24	1987,(5, 109),24	2011,(5, 115),27	2050,(5, 112),33	2107,(5, 71),57	2164,(5, 113),15	2179,(5, 117),15	2278,(5, 22),162	2461,(5, 104),72	2533,(5, 111),81	2614,(5, 118),15	2686,(5, 35),132	2863,(5, 39),150	3133,(5, 33),246	3454,(5, 32),132	3586,(5, 77),171	3796,(5, 66),144	3952,(5, 95),93	4174,(5, 92),150	4381,(5, 75),519	5095,(5, 85),579	5674,(5, 99),315	6655,(20, 121),6	7159,(31, 121),6	8230,(37, 121),6	8344,(45, 121),6	8443,(54, 121),6	8881,(63, 121),6	9577,(73, 121),6	10180,(79, 121),6	10384,(86, 121),6	10471,(93, 121),6	10645,(100, 121),6	11125,(107, 121),6	11461,(114, 121),6	
259,(4, 13),3	262,(4, 14),93	355,(4, 15),27	382,(4, 17),3	385,(4, 19),3	388,(4, 20),3	391,(4, 21),3	394,(4, 29),6	400,(4, 25),3	403,(4, 30),9	412,(4, 32),3	415,(4, 37),9	424,(4, 39),3	427,(4, 40),6	433,(4, 22),3	436,(4, 35),3	439,(4, 16),3	442,(4, 26),21	463,(4, 46),3	466,(4, 48),3	469,(4, 50),3	472,(4, 55),3	475,(4, 57),6	481,(4, 64),3	484,(4, 31),48	532,(4, 33),48	580,(4, 45),6	586,(4, 61),6	592,(4, 62),9	601,(4, 63),3	604,(4, 72),3	607,(4, 41),24	631,(4, 42),30	661,(4, 86),3	664,(4, 102),3	667,(4, 24),96	763,(4, 43),78	841,(4, 47),18	859,(4, 54),36	895,(4, 66),3	898,(4, 74),21	919,(4, 75),3	922,(4, 34),27	949,(4, 49),24	973,(4, 51),111	1084,(4, 60),6	1090,(4, 67),9	1099,(4, 69),9	1108,(4, 89),3	1111,(4, 77),15	1126,(4, 52),84	1210,(4, 82),15	1225,(4, 92),3	1228,(4, 83),6	1234,(4, 97),3	1237,(4, 56),33	1270,(4, 106),3	1273,(4, 96),3	1276,(4, 110),3	1279,(4, 85),9	1288,(4, 113),3	1291,(4, 117),3	1294,(4, 65),135	1429,(4, 68),228	1657,(4, 70),24	1681,(4, 109),3	1684,(4, 71),42	1726,(4, 76),36	1762,(4, 81),9	1771,(4, 88),39	1810,(4, 84),33	1843,(4, 105),9	1852,(4, 78),93	1945,(4, 95),15	1960,(4, 91),57	2017,(4, 99),12	2029,(4, 112),12	2041,(4, 116),3	2044,(4, 119),6	2080,(4, 79),33	2113,(4, 103),66	2179,(4, 120),3	2194,(4, 90),42	2251,(4, 104),18	2269,(4, 111),15	2284,(4, 118),30	2335,(4, 114),12	2446,(4, 73),66	2545,(4, 93),78	2629,(4, 23),243	2872,(4, 107),45	3184,(4, 98),327	3613,(4, 36),177	3790,(4, 58),1884	5674,(4, 100),711	13114,(4, 38),522	
193,(3, 13),3	196,(3, 14),45	241,(3, 15),18	259,(3, 16),18	277,(3, 20),9	286,(3, 21),3	289,(3, 22),33	322,(3, 23),3	325,(3, 26),15	340,(3, 27),18	358,(3, 29),9	367,(3, 33),3	370,(3, 31),6	376,(3, 34),3	379,(3, 32),15	394,(3, 35),39	433,(3, 36),12	445,(3, 38),3	448,(3, 43),3	451,(3, 39),27	478,(3, 41),12	490,(3, 47),6	496,(3, 51),3	499,(3, 55),3	502,(3, 18),93	595,(3, 24),72	667,(3, 28),111	778,(3, 40),87	865,(3, 44),9	874,(3, 49),48	922,(3, 42),18	940,(3, 50),12	952,(3, 52),36	988,(3, 53),21	1009,(3, 54),24	1033,(3, 56),36	1069,(3, 59),6	1075,(3, 60),6	1081,(3, 62),12	1093,(3, 66),6	1099,(3, 67),3	1102,(3, 61),9	1111,(3, 65),15	1126,(3, 76),3	1129,(3, 77),3	1132,(3, 46),84	1216,(3, 64),15	1231,(3, 79),3	1234,(3, 82),3	1237,(3, 86),3	1240,(3, 70),15	1255,(3, 71),12	1267,(3, 84),3	1270,(3, 89),3	1273,(3, 91),3	1276,(3, 99),3	1279,(3, 74),15	1294,(3, 80),3	1297,(3, 63),63	1360,(3, 75),33	1393,(3, 106),3	1396,(3, 87),3	1399,(3, 88),27	1426,(3, 94),3	1429,(3, 78),27	1456,(3, 83),84	1540,(3, 90),9	1549,(3, 95),9	1558,(3, 96),30	1588,(3, 98),6	1594,(3, 101),12	1606,(3, 102),15	1621,(3, 108),6	1627,(3, 92),57	1684,(3, 104),18	1702,(3, 109),3	1705,(3, 111),3	1708,(3, 103),33	1741,(3, 105),15	1756,(3, 112),54	1810,(3, 118),27	1837,(3, 120),15	1867,(3, 73),90	1957,(3, 110),6	1966,(3, 93),54	2020,(3, 100),9	2029,(3, 107),51	2080,(3, 117),27	2107,(3, 119),39	2155,(3, 37),180	2368,(3, 85),261	2653,(3, 97),177	2857,(3, 115),87	2977,(3, 114),90	3067,(3, 68),1191	4432,(3, 45),390	4822,(3, 113),273	6169,(3, 25),387	6556,(3, 116),171	6727,(17, 121),6	6733,(19, 121),6	7153,(30, 121),6	8377,(48, 121),6	8464,(57, 121),6	8551,(58, 121),6	9550,(69, 121),6	9583,(72, 121),6	11434,(3, 81),1680	
76,(2, 13),18	94,(2, 14),96	190,(2, 15),3	193,(2, 17),3	196,(2, 18),114	310,(2, 19),21	331,(2, 20),39	370,(2, 21),3	373,(2, 22),3	376,(2, 23),9	385,(2, 24),9	394,(2, 25),6	400,(2, 28),30	430,(2, 29),3	433,(2, 31),3	436,(2, 32),3	439,(2, 33),6	445,(2, 36),3	448,(2, 39),3	451,(2, 27),51	502,(2, 30),12	514,(2, 34),177	691,(2, 35),231	922,(2, 37),33	955,(2, 38),36	991,(2, 40),78	1069,(2, 42),33	1102,(2, 43),3	1105,(2, 44),3	1108,(2, 45),12	1120,(2, 48),3	1123,(2, 52),3	1126,(2, 57),3	1129,(2, 46),3	1132,(2, 49),9	1141,(2, 60),3	1144,(2, 47),15	1159,(2, 50),69	1228,(2, 53),51	1279,(2, 54),18	1297,(2, 55),48	1345,(2, 56),6	1351,(2, 58),18	1369,(2, 59),27	1396,(2, 61),3	1399,(2, 62),30	1429,(2, 64),6	1435,(2, 66),3	1438,(2, 67),9	1447,(2, 69),24	1471,(2, 70),21	1492,(2, 71),135	1627,(2, 72),18	1645,(2, 74),3	1648,(2, 75),60	1708,(2, 76),18	1726,(2, 77),3	1729,(2, 78),15	1744,(2, 63),6	1750,(2, 73),6	1756,(2, 79),111	1867,(2, 80),24	1891,(2, 81),6	1897,(2, 82),27	1924,(2, 83),33	1957,(2, 84),3	1960,(2, 85),3	1963,(2, 86),3	1966,(2, 89),15	1981,(2, 90),213	2194,(2, 91),30	2224,(2, 92),6	2230,(2, 96),12	2242,(2, 99),3	2245,(2, 106),3	2248,(2, 87),156	2404,(2, 93),42	2446,(2, 94),3	2449,(2, 97),12	2461,(2, 98),66	2527,(2, 100),18	2545,(2, 101),6	2551,(2, 103),90	2641,(2, 104),12	2653,(2, 105),33	2686,(2, 107),3	2689,(2, 108),168	2857,(2, 110),6	2863,(2, 111),33	2896,(2, 112),18	2914,(2, 113),3	2917,(2, 114),60	2977,(2, 115),3	2980,(2, 118),6	2986,(12, 34),3	2989,(2, 95),51	3040,(2, 102),18	3058,(2, 109),3	3061,(2, 116),3	3064,(12, 13),12	3076,(12, 23),3	3079,(12, 33),3	3082,(2, 119),18	3100,(12, 17),12	3112,(12, 24),18	3130,(2, 88),234	3364,(2, 120),93	3457,(12, 14),63	3520,(12, 35),3	3523,(12, 50),3	3526,(12, 40),3	3529,(12, 48),6	3535,(12, 57),3	3538,(2, 117),114	3652,(12, 15),1239	4891,(12, 22),30	4921,(12, 42),27	4948,(12, 61),9	4957,(12, 70),9	4966,(12, 77),3	4969,(12, 84),12	4981,(12, 91),60	5041,(12, 98),6	5047,(12, 105),6	5053,(12, 112),3	5056,(12, 119),12	5176,(12, 21),27	5203,(12, 60),3	5206,(12, 67),3	5209,(12, 76),3	5212,(12, 90),6	5218,(12, 104),3	5221,(12, 39),3	5224,(12, 47),15	5239,(12, 49),27	5266,(12, 56),3	5269,(12, 66),3	5272,(12, 75),141	5413,(12, 89),3	5416,(12, 103),6	5422,(12, 110),30	5452,(12, 117),9	5461,(12, 20),6	5467,(12, 31),3	5470,(12, 37),3	5473,(12, 54),9	5482,(12, 63),3	5485,(12, 73),3	5488,(12, 18),3	5491,(12, 27),3	5494,(12, 28),72	5566,(12, 44),6	5572,(12, 45),21	5593,(12, 53),3	5596,(12, 79),36	5632,(12, 80),36	5668,(12, 86),3	5671,(12, 94),3	5674,(12, 19),45	5719,(12, 30),87	5806,(12, 59),210	6016,(12, 82),111	6127,(12, 83),69	6196,(12, 87),6	6202,(12, 97),57	6259,(12, 108),3	6262,(12, 111),27	6289,(12, 118),3	6322,(12, 43),3	6325,(12, 71),12	6337,(12, 78),3	6340,(12, 115),36	6385,(12, 93),45	6430,(12, 96),51	6481,(12, 100),3	6484,(12, 107),6	6490,(12, 114),6	6514,(12, 29),21	6535,(12, 36),45	6580,(12, 52),24	6604,(12, 62),18	6622,(12, 85),6	6628,(16, 121),6	6634,(12, 92),54	6688,(12, 99),3	6691,(12, 106),18	6727,(12, 25),15	6742,(12, 38),3	6745,(12, 46),6	6751,(12, 113),51	6826,(26, 121),6	6847,(12, 32),30	6877,(12, 55),21	6898,(12, 64),3	6901,(12, 74),21	6922,(12, 81),9	6931,(12, 88),21	6952,(12, 95),33	6985,(12, 58),186	7171,(12, 69),222	7393,(12, 72),585	7978,(12, 101),78	8056,(12, 120),54	8116,(12, 109),3	8119,(12, 116),3	8215,(12, 102),93	8308,(41, 121),6	8416,(51, 121),6	9421,(65, 121),6	9544,(68, 121),6	
1,(0, 2),42	43,(0, 3),42	85,(0, 4),42	127,(0, 5),42	169,(0, 6),42	211,(0, 7),42	253,(0, 8),42	295,(0, 9),42	337,(0, 10),42	379,(0, 12),42	421,(1, 16),18	439,(1, 17),6	445,(1, 18),6	451,(1, 19),3	454,(1, 20),30	484,(1, 21),3	487,(1, 22),18	505,(1, 23),24	529,(1, 24),3	532,(1, 25),6	538,(1, 26),69	607,(1, 27),3	610,(1, 28),9	619,(1, 29),126	745,(1, 30),315	1060,(1, 31),12	1072,(1, 32),57	1129,(1, 33),15	1144,(1, 34),84	1228,(1, 35),12	1240,(1, 36),3	1243,(1, 37),12	1255,(1, 38),24	1279,(1, 39),6	1285,(1, 40),6	1291,(1, 41),3	1294,(1, 42),33	1327,(1, 43),3	1330,(1, 44),33	1363,(1, 45),381	1744,(1, 46),3	1747,(1, 47),132	1879,(1, 48),39	1918,(1, 49),3	1921,(1, 50),3	1924,(1, 51),108	2032,(1, 52),75	2107,(1, 53),6	2113,(1, 54),42	2155,(1, 55),42	2197,(1, 56),6	2203,(1, 57),21	2224,(1, 58),3	2227,(1, 59),21	2248,(1, 60),3	2251,(1, 61),27	2278,(1, 62),90	2368,(1, 63),27	2395,(1, 64),594	2989,(1, 65),27	3016,(1, 66),12	3028,(1, 67),36	3064,(1, 68),3	3067,(1, 69),12	3079,(1, 70),3	3082,(1, 71),9	3091,(1, 72),3	3094,(1, 73),33	3127,(1, 74),3	3130,(1, 75),3	3133,(1, 76),39	3172,(1, 77),12	3184,(1, 78),42	3226,(1, 79),3	3229,(1, 80),216	3445,(1, 81),9	3454,(1, 82),84	3538,(1, 83),15	3553,(1, 84),30	3583,(1, 85),30	3613,(1, 86),48	3661,(1, 87),81	3742,(1, 88),3	3745,(1, 89),51	3796,(1, 90),3	3799,(1, 91),9	3808,(1, 92),3	3811,(1, 93),3	3814,(1, 94),135	3949,(1, 95),3	3952,(1, 96),3	3955,(1, 97),18	3973,(1, 98),27	4000,(1, 99),39	4039,(1, 100),3	4042,(1, 101),75	4117,(1, 102),9	4126,(1, 103),12	4138,(1, 104),15	4153,(1, 105),3	4156,(1, 106),18	4174,(1, 107),15	4189,(1, 108),165	4354,(1, 109),24	4378,(1, 110),3	4381,(1, 111),18	4399,(1, 112),21	4420,(1, 113),6	4426,(1, 114),6	4432,(1, 115),9	4441,(1, 116),1728	6169,(1, 117),150	6319,(1, 118),18	6337,(1, 119),3	6340,(1, 120),3	6343,(11, 16),6	6349,(11, 17),39	6388,(11, 18),174	6562,(11, 19),57	6619,(11, 20),3	6622,(11, 21),3	6625,(11, 22),3	6628,(11, 23),6	6634,(11, 24),117	6751,(11, 25),3	6754,(11, 26),21	6775,(11, 27),12	6787,(11, 28),33	6820,(11, 29),117	6937,(11, 30),48	6985,(11, 31),6	6991,(11, 32),1125	8116,(11, 33),9	8125,(11, 34),15	8140,(11, 35),3	8143,(11, 36),3	8146,(11, 37),51	8197,(11, 38),18	8215,(11, 39),12	8227,(11, 40),9	8236,(11, 41),30	8266,(11, 42),3	8269,(11, 43),6	8275,(11, 44),3	8278,(11, 45),33	8311,(11, 46),6	8317,(11, 47),21	8338,(11, 48),3	8341,(11, 49),3	8344,(11, 50),18	8362,(11, 51),21	8383,(11, 52),3	8386,(11, 53),6	8392,(11, 54),18	8410,(11, 55),9	8419,(11, 56),3	8422,(11, 57),3	8425,(11, 58),93	8518,(11, 59),6	8524,(11, 60),36	8560,(11, 61),6	8566,(11, 62),189	8755,(11, 63),93	8848,(11, 64),534	9382,(11, 65),3	9385,(11, 66),3	9388,(11, 67),15	9403,(11, 68),108	9511,(11, 69),6	9517,(11, 70),3	9520,(11, 71),3	9523,(11, 72),18	9541,(11, 73),3	9544,(11, 74),204	9748,(11, 75),114	9862,(11, 76),168	10030,(11, 77),3	10033,(11, 78),18	10051,(11, 79),96	10147,(11, 80),3	10150,(11, 81),36	10186,(11, 82),141	10327,(11, 83),6	10333,(11, 84),6	10339,(11, 85),3	10342,(11, 86),6	10348,(11, 87),6	10354,(11, 88),6	10360,(11, 89),3	10363,(11, 90),21	10384,(11, 91),42	10426,(11, 92),3	10429,(11, 93),3	10432,(11, 94),3	10435,(11, 95),6	10441,(11, 96),60	10501,(11, 97),12	10513,(11, 98),87	10600,(11, 99),3	10603,(11, 100),6	10609,(11, 101),9	10618,(11, 102),48	10666,(11, 103),72	10738,(11, 104),3	10741,(11, 105),21	10762,(11, 106),321	11083,(11, 107),9	11092,(11, 108),21	11113,(11, 109),3	11116,(11, 110),36	11152,(11, 111),6	11158,(11, 112),3	11161,(11, 113),18	11179,(11, 114),249	11428,(11, 115),3	11431,(11, 116),3	11434,(11, 117),102	11536,(11, 118),3	11539,(11, 119),42	11581,(11, 120),45	11626,(13, 121),6	11632,(14, 121),6	11638,(15, 121),6	
