2923
# CPU
5,2,223	228,3,223	451,5,223	674,20,223	897,19,223	1120,4,223	1343,17,223	1566,6,223	1789,15,223	2012,7,223	2235,13,223	2458,14,223	2681,16,223	
280,8,223	503,18,223	2922,21,1	
0,0,1	1,1,223	224,11,223	
292,12,223	515,9,223	738,10,223	
# Incoming
1,(0, 2),4	224,(1, 3),1	225,(1, 5),1	226,(1, 7),3	292,(1, 13),2	294,(1, 14),2	296,(1, 16),7	
229,(1, 8),48	277,(2, 8),3	303,(1, 18),10	447,(11, 21),18	465,(3, 21),18	515,(12, 21),18	674,(5, 21),18	738,(9, 21),18	897,(20, 21),18	961,(10, 21),18	1120,(19, 21),18	1343,(4, 21),18	1566,(17, 21),18	1789,(6, 21),18	2012,(15, 21),18	2235,(7, 21),18	2458,(13, 21),18	2681,(14, 21),18	2904,(16, 21),18	

277,(1, 9),8	285,(1, 10),6	291,(1, 12),1	292,(2, 9),1	293,(2, 10),2	
# Outgoing
277,(2, 8),3	292,(2, 9),1	293,(2, 10),2	465,(3, 21),18	674,(5, 21),18	897,(20, 21),18	1120,(19, 21),18	1343,(4, 21),18	1566,(17, 21),18	1789,(6, 21),18	2012,(15, 21),18	2235,(7, 21),18	2458,(13, 21),18	2681,(14, 21),18	2904,(16, 21),18	

1,(0, 2),4	224,(1, 3),1	225,(1, 5),1	226,(1, 7),3	229,(1, 8),48	277,(1, 9),8	285,(1, 10),6	291,(1, 12),1	292,(1, 13),2	294,(1, 14),2	296,(1, 16),7	303,(1, 18),10	447,(11, 21),18	
515,(12, 21),18	738,(9, 21),18	961,(10, 21),18	
