856
# CPU
0,0,1	1,6,1	2,55,1	3,182,1	4,10,1	5,56,1	6,93,1	7,68,1	8,158,1	9,91,1	10,80,1	11,85,1	12,65,1	13,67,1	14,20,1	15,36,1	16,192,1	17,113,1	18,125,1	19,57,1	20,150,1	21,177,1	22,141,1	23,5,1	24,78,1	25,89,1	26,60,1	27,25,1	28,61,1	29,28,1	30,74,1	31,194,1	32,97,1	33,1,1	34,135,1	35,117,1	36,195,1	37,179,1	38,70,1	39,11,1	40,102,1	41,66,1	42,44,1	43,122,1	44,198,1	45,120,1	46,3,1	47,146,1	48,84,1	49,165,1	50,88,1	51,48,1	52,33,1	53,142,1	54,31,1	55,15,1	56,92,1	57,38,1	58,76,1	59,22,1	60,149,1	61,118,1	62,123,1	63,181,1	64,106,1	65,19,1	66,131,1	67,148,1	68,21,1	69,53,1	70,77,1	71,103,1	72,64,1	73,9,1	74,79,1	75,58,1	76,63,1	77,46,1	78,109,1	79,189,1	80,161,1	81,34,1	82,128,1	83,62,1	84,29,1	85,144,1	86,2,1	87,49,1	88,52,1	89,100,1	90,145,1	91,186,1	92,124,1	93,196,1	94,137,1	95,133,1	96,129,1	97,4,1	98,51,1	99,173,1	100,160,1	101,126,1	102,169,1	103,178,1	104,199,1	105,162,1	106,163,1	107,183,1	108,14,1	109,187,1	110,152,1	111,159,1	112,191,1	113,24,1	114,175,1	115,26,1	116,119,1	117,132,1	118,72,1	119,139,1	120,16,1	121,111,1	122,23,1	123,121,1	124,172,1	125,81,1	126,193,1	127,114,1	128,95,1	129,110,1	130,17,1	131,112,1	132,47,1	133,39,1	134,96,1	135,168,1	136,164,1	137,130,1	138,190,1	139,107,1	140,166,1	142,197,1	154,90,1	166,82,1	180,54,1	196,69,1	226,71,1	258,101,1	332,115,1	854,140,1	855,201,1	
100,12,1	101,35,1	102,134,1	103,73,1	104,116,1	105,185,1	106,86,1	107,105,1	108,50,1	109,171,1	110,40,1	111,174,1	
116,13,1	117,147,1	118,151,1	119,188,1	120,170,1	121,37,1	122,155,1	123,154,1	124,167,1	

17,18,1	18,41,1	19,75,1	20,83,1	21,153,1	22,27,1	23,180,1	24,99,1	25,104,1	33,7,1	34,43,1	35,200,1	36,98,1	37,143,1	38,184,1	39,32,1	40,30,1	41,59,1	49,8,1	50,108,1	51,157,1	52,136,1	53,176,1	54,87,1	55,42,1	56,127,1	57,138,1	58,94,1	70,156,1	84,45,1	
# Incoming
19,(41, 201),2	21,(75, 201),2	23,(83, 201),2	25,(153, 201),2	27,(27, 201),2	29,(180, 201),2	31,(99, 201),2	33,(104, 201),2	35,(43, 201),2	37,(200, 201),2	39,(98, 201),2	41,(143, 201),2	43,(184, 201),2	45,(32, 201),2	47,(30, 201),2	49,(59, 201),2	51,(108, 201),2	53,(157, 201),2	55,(136, 201),2	57,(176, 201),2	59,(87, 201),2	61,(42, 201),2	63,(127, 201),2	65,(138, 201),2	67,(94, 201),2	69,(7, 190),2	71,(156, 201),2	73,(18, 107),2	75,(7, 166),6	85,(45, 201),2	102,(35, 201),2	104,(134, 201),2	106,(73, 201),2	108,(116, 201),2	110,(185, 201),2	112,(86, 201),2	114,(105, 201),2	116,(50, 201),2	118,(171, 201),2	120,(40, 201),2	122,(174, 201),2	124,(147, 201),2	126,(151, 201),2	128,(188, 201),2	130,(170, 201),2	132,(37, 201),2	134,(155, 201),2	136,(154, 201),2	138,(167, 201),2	140,(13, 197),2	142,(13, 90),12	154,(13, 82),12	166,(13, 54),14	180,(12, 69),16	196,(12, 71),30	226,(18, 101),30	256,(12, 101),2	258,(8, 115),74	332,(13, 140),522	
84,(0, 12),16	100,(8, 174),2	
100,(0, 13),16	

1,(0, 18),16	17,(0, 7),16	33,(0, 8),16	49,(3, 127),2	51,(5, 138),2	56,(15, 94),2	66,(19, 156),4	70,(6, 45),14	
# Outgoing
1,(0, 18),16	17,(0, 7),16	33,(0, 8),16	49,(3, 127),2	51,(5, 138),2	56,(15, 94),2	66,(19, 156),4	70,(6, 45),14	84,(0, 12),16	100,(0, 13),16	
102,(35, 201),2	104,(134, 201),2	106,(73, 201),2	108,(116, 201),2	110,(185, 201),2	112,(86, 201),2	114,(105, 201),2	116,(50, 201),2	118,(171, 201),2	120,(40, 201),2	122,(174, 201),2	180,(12, 69),16	196,(12, 71),30	256,(12, 101),2	
124,(147, 201),2	126,(151, 201),2	128,(188, 201),2	130,(170, 201),2	132,(37, 201),2	134,(155, 201),2	136,(154, 201),2	138,(167, 201),2	140,(13, 197),2	142,(13, 90),12	154,(13, 82),12	166,(13, 54),14	332,(13, 140),522	

19,(41, 201),2	21,(75, 201),2	23,(83, 201),2	25,(153, 201),2	27,(27, 201),2	29,(180, 201),2	31,(99, 201),2	33,(104, 201),2	35,(43, 201),2	37,(200, 201),2	39,(98, 201),2	41,(143, 201),2	43,(184, 201),2	45,(32, 201),2	47,(30, 201),2	49,(59, 201),2	51,(108, 201),2	53,(157, 201),2	55,(136, 201),2	57,(176, 201),2	59,(87, 201),2	61,(42, 201),2	63,(127, 201),2	65,(138, 201),2	67,(94, 201),2	69,(7, 190),2	71,(156, 201),2	73,(18, 107),2	75,(7, 166),6	85,(45, 201),2	100,(8, 174),2	226,(18, 101),30	258,(8, 115),74	
