20678
# CPU
12571,16,3	14297,77,3	15077,17,3	15115,80,3	15483,54,3	15501,59,3	15567,82,3	15671,78,3	15699,83,3	15753,81,3	15841,97,3	16011,117,3	16033,120,3	16147,29,3	16875,76,3	16957,104,3	17091,115,3	17239,107,3	18133,70,3	18143,73,3	18173,112,3	18243,14,3	18303,24,3	18407,38,3	18427,39,3	18739,41,3	18925,43,3	18963,63,3	19075,69,3	19137,114,3	20677,121,1	
49,3,3	677,56,3	825,90,3	1705,44,3	11637,79,3	11783,100,3	11819,101,3	15107,21,3	15937,110,3	15995,113,3	
97,6,3	971,94,3	1301,30,3	1695,40,3	1857,64,3	10569,93,3	11227,45,3	11239,48,3	11337,71,3	11757,98,3	
145,11,3	148,34,3	247,53,3	11245,52,3	11539,74,3	15075,15,3	15119,25,3	15183,33,3	15475,49,3	15565,65,3	
161,12,3	11229,47,3	11335,68,3	15081,18,3	15481,51,3	15517,60,3	15539,61,3	15567,66,3	15711,85,3	15899,103,3	
81,5,3	241,46,3	1759,58,3	10727,109,3	11327,67,3	15089,19,3	15113,22,3	15179,32,3	15757,96,3	15911,106,3	
0,0,1	1,7,3	4,8,3	735,86,3	819,50,3	831,95,3	15217,37,3	15359,42,3	15725,87,3	15897,102,3	
113,9,3	11295,57,3	11345,72,3	11755,92,3	11825,105,3	11897,111,3	15153,27,3	15171,31,3	15483,55,3	16009,116,3	
17,1,3	65,4,3	1265,26,3	10723,108,3	10977,13,3	11131,20,3	11157,28,3	11729,89,3	15213,36,3	15729,88,3	16013,119,3	
33,2,3	129,10,3	11187,35,3	11565,75,3	11991,118,3	15115,23,3	15541,62,3	15709,84,3	15749,91,3	15873,99,3	
# Incoming
217,(7, 16),164	381,(1, 14),2	383,(1, 17),10	393,(2, 14),2	395,(3, 41),2	397,(2, 24),2	399,(3, 43),2	401,(3, 54),8	409,(3, 69),2	411,(3, 117),2	413,(2, 29),4	417,(1, 39),2	419,(3, 70),8	427,(3, 73),6	433,(3, 120),2	435,(5, 39),2	437,(5, 59),4	441,(7, 24),818	1259,(1, 41),12	1271,(1, 43),4	1275,(7, 29),4	1279,(1, 54),4	1283,(1, 69),10	1293,(1, 70),2	1295,(1, 76),50	1345,(1, 80),2	1347,(1, 97),2	1349,(1, 104),2	1351,(7, 38),316	1667,(7, 39),26	1693,(1, 120),4	1697,(2, 38),24	1721,(2, 39),6	1727,(2, 59),2	1729,(2, 78),6	1735,(7, 54),8	1743,(2, 43),14	1757,(2, 120),2	1759,(7, 59),86	1845,(2, 83),6	1851,(2, 97),6	1857,(4, 39),2	1859,(7, 69),220	2079,(7, 70),570	2649,(1, 114),44	2693,(2, 104),4	2697,(4, 16),8	2705,(4, 76),2	2707,(4, 112),2	2709,(7, 73),16	2725,(5, 63),4	2729,(7, 77),7574	10303,(4, 24),8	10311,(7, 80),2	10313,(7, 83),186	10499,(2, 70),26	10525,(4, 41),14	10539,(4, 63),6	10545,(4, 70),20	10565,(4, 82),6	10571,(7, 97),8	10579,(4, 80),16	10595,(5, 41),6	10601,(7, 104),32	10633,(1, 117),88	10721,(4, 83),14	10735,(4, 97),28	10763,(5, 69),2	10765,(5, 120),2	10767,(7, 114),6	10773,(4, 104),8	10781,(5, 80),4	10785,(7, 120),190	10975,(9, 43),2	10977,(8, 16),78	11055,(8, 17),74	11129,(4, 120),20	11149,(9, 59),2	11151,(9, 78),2	11153,(9, 97),2	11155,(10, 16),2	11157,(8, 29),8	11165,(5, 82),16	11181,(9, 81),6	11187,(8, 39),2	11189,(8, 43),8	11197,(3, 14),48	11245,(8, 54),46	11291,(9, 117),4	11295,(10, 14),4	11299,(10, 59),4	11303,(10, 69),6	11309,(8, 63),2	11311,(5, 24),30	11341,(10, 70),2	11343,(10, 83),2	11345,(8, 73),180	11525,(4, 114),38	11563,(11, 14),2	11565,(8, 77),54	11619,(10, 17),12	11631,(10, 81),4	11635,(11, 17),2	11637,(8, 81),6	11643,(8, 82),24	11667,(2, 81),112	11779,(5, 43),30	11809,(10, 78),8	11817,(11, 38),2	11819,(8, 104),4	11823,(2, 115),54	11877,(9, 80),20	11897,(8, 112),2	11899,(10, 112),6	11905,(11, 41),2	11907,(8, 114),18	11925,(10, 114),4	11929,(11, 59),2	11931,(11, 69),2	11933,(8, 117),56	11989,(11, 117),2	11991,(8, 120),2	11993,(1, 16),578	12571,(1, 81),332	12903,(2, 17),260	13163,(2, 80),294	13457,(2, 117),86	13543,(3, 63),86	13629,(3, 80),92	13721,(3, 82),168	13889,(3, 107),60	13949,(4, 14),154	14103,(4, 73),82	14185,(4, 77),112	14297,(4, 78),130	14427,(5, 29),52	14479,(5, 38),84	14563,(5, 54),80	14643,(5, 97),164	14807,(5, 104),74	14881,(5, 107),34	14915,(5, 112),50	14965,(6, 14),104	15069,(11, 107),4	15073,(11, 120),2	15075,(6, 17),2	15077,(9, 73),30	15107,(11, 80),8	15115,(6, 24),2	15117,(9, 54),94	15211,(12, 70),6	15217,(6, 39),38	15255,(6, 41),96	15351,(11, 115),8	15359,(6, 43),114	15473,(11, 54),10	15483,(6, 59),18	15501,(9, 82),66	15567,(6, 70),14	15581,(6, 76),34	15615,(6, 78),56	15671,(6, 83),28	15699,(9, 114),52	15751,(12, 81),2	15753,(12, 104),2	15757,(6, 97),84	15841,(10, 24),56	15899,(6, 104),10	15911,(6, 107),24	15937,(6, 112),52	15989,(12, 112),4	15995,(6, 115),6	16001,(12, 73),8	16009,(6, 117),2	16013,(6, 120),20	16033,(9, 29),114	16147,(9, 39),296	16443,(9, 41),112	16555,(9, 69),158	16713,(9, 76),162	16875,(9, 104),82	16957,(9, 112),74	17031,(9, 115),60	17091,(10, 38),46	17137,(10, 73),50	17187,(10, 107),52	17239,(11, 39),92	17331,(11, 63),764	18095,(11, 70),38	18133,(11, 73),10	18143,(11, 112),30	18173,(34, 121),20	18193,(12, 14),50	18243,(12, 24),60	18303,(12, 38),104	18407,(12, 39),20	18427,(12, 41),312	18739,(12, 43),186	18925,(12, 63),38	18963,(12, 69),112	19075,(12, 114),62	19137,(46, 121),20	19157,(53, 121),20	19177,(56, 121),20	19197,(86, 121),20	19217,(50, 121),20	19237,(90, 121),20	19257,(95, 121),20	19277,(94, 121),20	19297,(26, 121),20	19317,(30, 121),20	19337,(40, 121),20	19357,(44, 121),20	19377,(58, 121),20	19397,(64, 121),20	19417,(93, 121),20	19437,(108, 121),20	19457,(109, 121),20	19477,(13, 121),20	19497,(20, 121),20	19517,(28, 121),20	19537,(35, 121),20	19557,(45, 121),20	19577,(47, 121),20	19597,(48, 121),20	19617,(52, 121),20	19637,(57, 121),20	19657,(67, 121),20	19677,(68, 121),20	19697,(71, 121),20	19717,(72, 121),20	19737,(74, 121),20	19757,(75, 121),20	19777,(79, 121),20	19797,(89, 121),20	19817,(92, 121),20	19837,(98, 121),20	19857,(100, 121),20	19877,(101, 121),20	19897,(105, 121),20	19917,(111, 121),20	19937,(118, 121),20	19957,(15, 121),20	19977,(18, 121),20	19997,(19, 121),20	20017,(21, 121),20	20037,(22, 121),20	20057,(23, 121),20	20077,(25, 121),20	20097,(27, 121),20	20117,(31, 121),20	20137,(32, 121),20	20157,(33, 121),20	20177,(36, 121),20	20197,(37, 121),20	20217,(42, 121),20	20237,(49, 121),20	20257,(51, 121),20	20277,(55, 121),20	20297,(60, 121),20	20317,(61, 121),20	20337,(62, 121),20	20357,(65, 121),20	20377,(66, 121),20	20397,(84, 121),20	20417,(85, 121),20	20437,(87, 121),20	20457,(88, 121),20	20477,(91, 121),20	20497,(96, 121),20	20517,(99, 121),20	20537,(102, 121),20	20557,(103, 121),20	20577,(106, 121),20	20597,(110, 121),20	20617,(113, 121),20	20637,(116, 121),20	20657,(119, 121),20	
33,(0, 3),16	117,(5, 56),6	123,(9, 21),12	158,(11, 21),2	189,(9, 90),2	193,(9, 101),2	205,(9, 113),10	225,(12, 21),10	241,(12, 56),4	255,(9, 100),46	301,(11, 56),4	305,(11, 79),2	307,(11, 90),2	309,(12, 90),12	321,(12, 113),4	343,(11, 110),2	357,(5, 79),20	395,(1, 21),16	413,(5, 100),2	415,(5, 101),2	417,(5, 113),8	425,(11, 101),6	431,(7, 21),10	441,(5, 90),24	491,(2, 101),4	497,(2, 90),12	509,(1, 44),22	547,(2, 79),14	561,(11, 100),16	577,(2, 100),28	621,(1, 79),2	623,(2, 110),20	643,(2, 113),2	651,(10, 21),2	653,(11, 113),20	675,(10, 56),2	735,(4, 21),12	799,(10, 90),26	831,(10, 101),8	843,(10, 110),2	877,(4, 79),36	913,(10, 113),20	973,(4, 100),6	997,(4, 110),12	1695,(7, 44),10	10303,(7, 79),8	10593,(7, 100),2	10727,(7, 110),2	10765,(7, 113),2	11619,(8, 79),18	11765,(8, 100),18	11783,(8, 101),36	11857,(8, 110),26	11899,(8, 113),8	15089,(6, 21),18	15935,(6, 110),2	15989,(6, 113),6	
81,(0, 6),16	97,(3, 40),4	101,(3, 48),14	115,(5, 48),2	135,(9, 45),2	137,(9, 48),2	147,(5, 71),4	151,(9, 64),2	169,(9, 71),14	191,(9, 98),2	197,(11, 30),4	201,(11, 45),4	205,(11, 48),8	213,(5, 94),2	229,(5, 30),30	261,(5, 40),16	277,(12, 64),10	287,(12, 98),2	293,(11, 64),2	295,(12, 94),12	339,(11, 94),2	375,(11, 71),18	411,(1, 30),6	419,(1, 40),2	421,(2, 45),2	447,(2, 30),12	475,(2, 48),2	479,(2, 64),4	483,(12, 40),50	535,(1, 48),14	565,(2, 98),12	577,(11, 98),26	635,(1, 93),2	663,(1, 98),6	673,(10, 30),2	677,(10, 64),2	755,(4, 45),20	825,(10, 93),2	827,(10, 94),2	845,(4, 64),4	957,(4, 93),2	959,(4, 94),12	1279,(7, 30),22	1693,(7, 40),2	1705,(7, 45),2	1707,(7, 48),2	1855,(7, 64),2	10565,(7, 93),4	11197,(8, 45),30	11229,(8, 48),10	11335,(8, 71),2	11755,(8, 98),2	
129,(0, 11),16	145,(3, 52),2	147,(3, 53),2	149,(3, 65),2	151,(5, 15),50	201,(5, 25),12	213,(7, 15),4	217,(9, 25),16	233,(9, 33),12	245,(9, 53),2	247,(9, 74),8	259,(5, 33),2	261,(12, 49),2	269,(12, 65),2	305,(5, 65),6	417,(2, 33),2	419,(2, 52),2	483,(2, 65),2	531,(2, 74),16	565,(1, 65),20	587,(1, 74),34	653,(10, 25),8	691,(10, 74),2	719,(10, 49),6	725,(10, 52),6	781,(4, 49),18	849,(4, 65),2	869,(4, 74),8	1727,(7, 52),8	11239,(8, 52),6	11525,(8, 74),14	15069,(6, 15),6	15117,(6, 25),2	15179,(6, 33),4	15473,(6, 49),2	15541,(6, 65),24	
145,(0, 12),16	161,(3, 18),4	165,(11, 18),8	183,(9, 85),6	201,(3, 47),2	203,(3, 51),2	205,(3, 61),4	209,(3, 66),2	211,(3, 85),4	215,(5, 18),14	277,(5, 51),2	287,(5, 60),4	291,(5, 61),2	295,(11, 85),2	311,(5, 66),34	345,(11, 47),30	377,(5, 85),2	381,(7, 18),40	421,(1, 18),2	423,(2, 18),10	433,(11, 60),16	449,(11, 61),16	467,(2, 47),8	477,(2, 61),2	479,(11, 66),20	531,(1, 47),4	549,(1, 60),14	563,(1, 61),2	605,(2, 103),6	623,(1, 85),8	713,(10, 47),6	733,(4, 18),2	735,(10, 51),14	775,(4, 47),6	819,(4, 51),14	851,(4, 66),4	979,(4, 103),2	1709,(7, 51),18	1845,(7, 60),2	1847,(7, 61),4	1857,(7, 68),2	10499,(7, 85),58	10595,(7, 103),6	11227,(8, 47),2	11295,(8, 61),14	11311,(8, 66),14	11327,(8, 68),8	11683,(8, 85),14	15077,(6, 18),4	15475,(6, 51),6	15501,(6, 60),16	15517,(6, 61),22	15565,(6, 66),2	15709,(6, 85),2	15897,(6, 103),2	
65,(0, 5),16	81,(3, 19),8	89,(3, 32),4	93,(3, 67),2	118,(9, 19),4	123,(3, 106),2	151,(3, 109),10	161,(9, 46),4	165,(9, 67),4	173,(11, 19),24	239,(12, 46),2	245,(12, 58),2	271,(11, 58),22	319,(11, 67),12	341,(11, 106),2	363,(12, 96),18	393,(1, 19),2	421,(7, 19),2	459,(2, 32),8	485,(2, 67),2	487,(2, 96),4	613,(2, 106),2	615,(2, 109),2	637,(1, 96),26	679,(1, 109),12	747,(4, 22),2	749,(10, 58),8	757,(10, 67),8	855,(4, 67),14	983,(4, 106),10	993,(4, 109),4	1301,(7, 32),14	1757,(7, 58),2	10569,(7, 96),2	10633,(7, 106),56	10723,(7, 109),4	11131,(8, 22),18	11175,(8, 32),10	11325,(8, 67),2	11825,(8, 106),32	15081,(6, 19),8	15107,(6, 22),6	15171,(6, 32),8	15749,(6, 96),8	15909,(6, 106),2	
501,(1, 37),8	509,(2, 37),6	515,(3, 37),2	517,(3, 42),2	519,(3, 86),8	527,(3, 87),4	531,(3, 102),4	535,(5, 37),12	547,(5, 42),4	551,(5, 87),6	557,(5, 95),2	559,(9, 42),2	561,(2, 87),2	563,(5, 102),42	605,(11, 37),2	607,(11, 102),2	609,(12, 37),2	611,(12, 86),6	617,(12, 87),2	619,(12, 102),2	631,(1, 87),2	633,(12, 50),28	669,(1, 102),10	679,(10, 37),10	689,(10, 42),2	731,(10, 86),4	753,(4, 37),2	799,(4, 50),20	829,(10, 95),2	861,(10, 102),22	913,(4, 87),34	15213,(6, 37),4	15351,(6, 42),8	15711,(6, 87),14	15873,(6, 102),24	
97,(0, 9),16	115,(3, 55),2	117,(3, 92),2	119,(3, 105),4	123,(5, 27),2	160,(11, 27),4	223,(11, 31),26	249,(12, 31),12	263,(12, 57),6	269,(11, 57),2	271,(12, 105),2	279,(5, 55),8	309,(11, 92),2	345,(5, 72),12	379,(5, 92),8	393,(11, 111),2	411,(2, 27),2	423,(1, 27),24	447,(1, 31),48	495,(2, 57),2	515,(2, 55),16	537,(11, 116),20	563,(2, 92),2	585,(1, 72),2	611,(2, 105),2	617,(2, 111),4	621,(10, 27),2	633,(1, 92),2	645,(2, 116),6	691,(1, 111),2	693,(10, 31),20	833,(4, 55),10	843,(4, 57),2	845,(10, 92),16	883,(10, 111),16	899,(10, 116),2	981,(4, 105),2	1265,(7, 27),10	1743,(7, 55),2	1745,(7, 57),12	2649,(7, 72),60	10557,(7, 92),8	10729,(7, 111),36	11149,(8, 27),4	11165,(8, 31),10	11291,(8, 55),2	11293,(8, 57),2	11337,(8, 72),8	11733,(8, 92),22	11823,(8, 105),2	11883,(8, 111),14	11925,(8, 116),8	15119,(6, 27),34	15153,(6, 31),18	15481,(6, 55),2	16001,(6, 116),8	
1,(0, 1),16	49,(0, 4),16	65,(3, 13),6	71,(3, 20),4	77,(3, 36),4	84,(5, 13),6	90,(5, 20),2	94,(5, 89),2	107,(5, 26),8	116,(9, 13),2	125,(5, 36),22	148,(11, 13),8	156,(11, 20),2	159,(9, 88),2	161,(7, 13),52	213,(11, 26),10	223,(12, 13),2	237,(12, 28),2	297,(11, 88),4	311,(9, 119),8	395,(2, 20),2	399,(2, 26),12	423,(7, 20),8	433,(2, 28),14	465,(5, 119),6	499,(11, 89),38	609,(11, 119),42	661,(10, 26),6	667,(10, 28),6	765,(10, 88),2	767,(10, 89),32	839,(10, 108),4	1259,(7, 26),6	1317,(7, 36),34	10689,(7, 108),34	10975,(8, 13),2	11129,(8, 20),2	11153,(8, 28),4	11697,(8, 89),32	15183,(6, 36),30	15725,(6, 88),4	16011,(6, 119),2	
17,(0, 2),16	75,(3, 35),2	92,(5, 75),2	95,(3, 75),2	97,(5, 23),10	113,(0, 10),16	129,(3, 84),10	139,(9, 23),4	143,(9, 35),8	153,(9, 84),6	165,(3, 23),36	201,(9, 91),2	203,(9, 99),2	235,(12, 23),2	247,(12, 62),2	249,(11, 35),20	273,(12, 118),2	293,(5, 62),12	305,(9, 118),6	311,(11, 62),8	331,(11, 84),4	335,(11, 91),4	339,(12, 91),24	387,(5, 99),26	413,(11, 118),8	425,(5, 118),6	495,(1, 35),6	693,(1, 118),40	749,(4, 35),4	947,(4, 91),10	971,(4, 99),2	1009,(4, 118),8	1315,(7, 35),2	1851,(7, 62),4	2725,(7, 75),4	10579,(7, 99),14	10773,(7, 118),12	11185,(8, 35),2	11539,(8, 75),26	11667,(8, 84),16	11729,(8, 91),4	11757,(8, 99),8	11989,(8, 118),2	15113,(6, 23),2	15539,(6, 62),2	15699,(6, 84),10	15729,(6, 91),20	15841,(6, 99),32	
# Outgoing

65,(3, 13),6	71,(3, 20),4	75,(3, 35),2	77,(3, 36),4	81,(3, 19),8	89,(3, 32),4	93,(3, 67),2	95,(3, 75),2	97,(3, 40),4	101,(3, 48),14	115,(3, 55),2	117,(3, 92),2	119,(3, 105),4	123,(3, 106),2	129,(3, 84),10	145,(3, 52),2	147,(3, 53),2	149,(3, 65),2	151,(3, 109),10	161,(3, 18),4	165,(3, 23),36	201,(3, 47),2	203,(3, 51),2	205,(3, 61),4	209,(3, 66),2	211,(3, 85),4	395,(3, 41),2	399,(3, 43),2	401,(3, 54),8	409,(3, 69),2	411,(3, 117),2	419,(3, 70),8	427,(3, 73),6	433,(3, 120),2	515,(3, 37),2	517,(3, 42),2	519,(3, 86),8	527,(3, 87),4	531,(3, 102),4	11197,(3, 14),48	13543,(3, 63),86	13629,(3, 80),92	13721,(3, 82),168	13889,(3, 107),60	19177,(56, 121),20	19237,(90, 121),20	19357,(44, 121),20	19777,(79, 121),20	19857,(100, 121),20	19877,(101, 121),20	20017,(21, 121),20	20597,(110, 121),20	20617,(113, 121),20	
14965,(6, 14),104	15069,(6, 15),6	15075,(6, 17),2	15077,(6, 18),4	15081,(6, 19),8	15089,(6, 21),18	15107,(6, 22),6	15113,(6, 23),2	15115,(6, 24),2	15117,(6, 25),2	15119,(6, 27),34	15153,(6, 31),18	15171,(6, 32),8	15179,(6, 33),4	15183,(6, 36),30	15213,(6, 37),4	15217,(6, 39),38	15255,(6, 41),96	15351,(6, 42),8	15359,(6, 43),114	15473,(6, 49),2	15475,(6, 51),6	15481,(6, 55),2	15483,(6, 59),18	15501,(6, 60),16	15517,(6, 61),22	15539,(6, 62),2	15541,(6, 65),24	15565,(6, 66),2	15567,(6, 70),14	15581,(6, 76),34	15615,(6, 78),56	15671,(6, 83),28	15699,(6, 84),10	15709,(6, 85),2	15711,(6, 87),14	15725,(6, 88),4	15729,(6, 91),20	15749,(6, 96),8	15757,(6, 97),84	15841,(6, 99),32	15873,(6, 102),24	15897,(6, 103),2	15899,(6, 104),10	15909,(6, 106),2	15911,(6, 107),24	15935,(6, 110),2	15937,(6, 112),52	15989,(6, 113),6	15995,(6, 115),6	16001,(6, 116),8	16009,(6, 117),2	16011,(6, 119),2	16013,(6, 120),20	19277,(94, 121),20	19317,(30, 121),20	19337,(40, 121),20	19397,(64, 121),20	19417,(93, 121),20	19557,(45, 121),20	19597,(48, 121),20	19697,(71, 121),20	19837,(98, 121),20	
148,(11, 13),8	156,(11, 20),2	158,(11, 21),2	160,(11, 27),4	165,(11, 18),8	173,(11, 19),24	197,(11, 30),4	201,(11, 45),4	205,(11, 48),8	213,(11, 26),10	223,(11, 31),26	249,(11, 35),20	269,(11, 57),2	271,(11, 58),22	293,(11, 64),2	295,(11, 85),2	297,(11, 88),4	301,(11, 56),4	305,(11, 79),2	307,(11, 90),2	309,(11, 92),2	311,(11, 62),8	319,(11, 67),12	331,(11, 84),4	335,(11, 91),4	339,(11, 94),2	341,(11, 106),2	343,(11, 110),2	345,(11, 47),30	375,(11, 71),18	393,(11, 111),2	413,(11, 118),8	425,(11, 101),6	433,(11, 60),16	449,(11, 61),16	479,(11, 66),20	499,(11, 89),38	537,(11, 116),20	561,(11, 100),16	577,(11, 98),26	605,(11, 37),2	607,(11, 102),2	609,(11, 119),42	653,(11, 113),20	11563,(11, 14),2	11635,(11, 17),2	11817,(11, 38),2	11905,(11, 41),2	11929,(11, 59),2	11931,(11, 69),2	11989,(11, 117),2	15069,(11, 107),4	15073,(11, 120),2	15107,(11, 80),8	15351,(11, 115),8	15473,(11, 54),10	17239,(11, 39),92	17331,(11, 63),764	18095,(11, 70),38	18133,(11, 73),10	18143,(11, 112),30	18173,(34, 121),20	19157,(53, 121),20	19617,(52, 121),20	19737,(74, 121),20	19957,(15, 121),20	20077,(25, 121),20	20157,(33, 121),20	20237,(49, 121),20	20357,(65, 121),20	
223,(12, 13),2	225,(12, 21),10	235,(12, 23),2	237,(12, 28),2	239,(12, 46),2	241,(12, 56),4	245,(12, 58),2	247,(12, 62),2	249,(12, 31),12	261,(12, 49),2	263,(12, 57),6	269,(12, 65),2	271,(12, 105),2	273,(12, 118),2	277,(12, 64),10	287,(12, 98),2	295,(12, 94),12	309,(12, 90),12	321,(12, 113),4	339,(12, 91),24	363,(12, 96),18	483,(12, 40),50	609,(12, 37),2	611,(12, 86),6	617,(12, 87),2	619,(12, 102),2	633,(12, 50),28	15211,(12, 70),6	15751,(12, 81),2	15753,(12, 104),2	15989,(12, 112),4	16001,(12, 73),8	18193,(12, 14),50	18243,(12, 24),60	18303,(12, 38),104	18407,(12, 39),20	18427,(12, 41),312	18739,(12, 43),186	18925,(12, 63),38	18963,(12, 69),112	19075,(12, 114),62	19577,(47, 121),20	19677,(68, 121),20	19977,(18, 121),20	20257,(51, 121),20	20297,(60, 121),20	20317,(61, 121),20	20377,(66, 121),20	20417,(85, 121),20	20557,(103, 121),20	
84,(5, 13),6	90,(5, 20),2	92,(5, 75),2	94,(5, 89),2	97,(5, 23),10	107,(5, 26),8	115,(5, 48),2	117,(5, 56),6	123,(5, 27),2	125,(5, 36),22	147,(5, 71),4	151,(5, 15),50	201,(5, 25),12	213,(5, 94),2	215,(5, 18),14	229,(5, 30),30	259,(5, 33),2	261,(5, 40),16	277,(5, 51),2	279,(5, 55),8	287,(5, 60),4	291,(5, 61),2	293,(5, 62),12	305,(5, 65),6	311,(5, 66),34	345,(5, 72),12	357,(5, 79),20	377,(5, 85),2	379,(5, 92),8	387,(5, 99),26	413,(5, 100),2	415,(5, 101),2	417,(5, 113),8	425,(5, 118),6	435,(5, 39),2	437,(5, 59),4	441,(5, 90),24	465,(5, 119),6	535,(5, 37),12	547,(5, 42),4	551,(5, 87),6	557,(5, 95),2	563,(5, 102),42	2725,(5, 63),4	10595,(5, 41),6	10763,(5, 69),2	10765,(5, 120),2	10781,(5, 80),4	11165,(5, 82),16	11311,(5, 24),30	11779,(5, 43),30	14427,(5, 29),52	14479,(5, 38),84	14563,(5, 54),80	14643,(5, 97),164	14807,(5, 104),74	14881,(5, 107),34	14915,(5, 112),50	19137,(46, 121),20	19377,(58, 121),20	19457,(109, 121),20	19657,(67, 121),20	19997,(19, 121),20	20037,(22, 121),20	20137,(32, 121),20	20497,(96, 121),20	20577,(106, 121),20	
1,(0, 1),16	17,(0, 2),16	33,(0, 3),16	49,(0, 4),16	65,(0, 5),16	81,(0, 6),16	97,(0, 9),16	113,(0, 10),16	129,(0, 11),16	145,(0, 12),16	161,(7, 13),52	213,(7, 15),4	217,(7, 16),164	381,(7, 18),40	421,(7, 19),2	423,(7, 20),8	431,(7, 21),10	441,(7, 24),818	1259,(7, 26),6	1265,(7, 27),10	1275,(7, 29),4	1279,(7, 30),22	1301,(7, 32),14	1315,(7, 35),2	1317,(7, 36),34	1351,(7, 38),316	1667,(7, 39),26	1693,(7, 40),2	1695,(7, 44),10	1705,(7, 45),2	1707,(7, 48),2	1709,(7, 51),18	1727,(7, 52),8	1735,(7, 54),8	1743,(7, 55),2	1745,(7, 57),12	1757,(7, 58),2	1759,(7, 59),86	1845,(7, 60),2	1847,(7, 61),4	1851,(7, 62),4	1855,(7, 64),2	1857,(7, 68),2	1859,(7, 69),220	2079,(7, 70),570	2649,(7, 72),60	2709,(7, 73),16	2725,(7, 75),4	2729,(7, 77),7574	10303,(7, 79),8	10311,(7, 80),2	10313,(7, 83),186	10499,(7, 85),58	10557,(7, 92),8	10565,(7, 93),4	10569,(7, 96),2	10571,(7, 97),8	10579,(7, 99),14	10593,(7, 100),2	10595,(7, 103),6	10601,(7, 104),32	10633,(7, 106),56	10689,(7, 108),34	10723,(7, 109),4	10727,(7, 110),2	10729,(7, 111),36	10765,(7, 113),2	10767,(7, 114),6	10773,(7, 118),12	10785,(7, 120),190	10975,(8, 13),2	10977,(8, 16),78	11055,(8, 17),74	11129,(8, 20),2	11131,(8, 22),18	11149,(8, 27),4	11153,(8, 28),4	11157,(8, 29),8	11165,(8, 31),10	11175,(8, 32),10	11185,(8, 35),2	11187,(8, 39),2	11189,(8, 43),8	11197,(8, 45),30	11227,(8, 47),2	11229,(8, 48),10	11239,(8, 52),6	11245,(8, 54),46	11291,(8, 55),2	11293,(8, 57),2	11295,(8, 61),14	11309,(8, 63),2	11311,(8, 66),14	11325,(8, 67),2	11327,(8, 68),8	11335,(8, 71),2	11337,(8, 72),8	11345,(8, 73),180	11525,(8, 74),14	11539,(8, 75),26	11565,(8, 77),54	11619,(8, 79),18	11637,(8, 81),6	11643,(8, 82),24	11667,(8, 84),16	11683,(8, 85),14	11697,(8, 89),32	11729,(8, 91),4	11733,(8, 92),22	11755,(8, 98),2	11757,(8, 99),8	11765,(8, 100),18	11783,(8, 101),36	11819,(8, 104),4	11823,(8, 105),2	11825,(8, 106),32	11857,(8, 110),26	11883,(8, 111),14	11897,(8, 112),2	11899,(8, 113),8	11907,(8, 114),18	11925,(8, 116),8	11933,(8, 117),56	11989,(8, 118),2	11991,(8, 120),2	19197,(86, 121),20	19217,(50, 121),20	19257,(95, 121),20	20197,(37, 121),20	20217,(42, 121),20	20437,(87, 121),20	20537,(102, 121),20	
116,(9, 13),2	118,(9, 19),4	123,(9, 21),12	135,(9, 45),2	137,(9, 48),2	139,(9, 23),4	143,(9, 35),8	151,(9, 64),2	153,(9, 84),6	159,(9, 88),2	161,(9, 46),4	165,(9, 67),4	169,(9, 71),14	183,(9, 85),6	189,(9, 90),2	191,(9, 98),2	193,(9, 101),2	201,(9, 91),2	203,(9, 99),2	205,(9, 113),10	217,(9, 25),16	233,(9, 33),12	245,(9, 53),2	247,(9, 74),8	255,(9, 100),46	305,(9, 118),6	311,(9, 119),8	559,(9, 42),2	10975,(9, 43),2	11149,(9, 59),2	11151,(9, 78),2	11153,(9, 97),2	11181,(9, 81),6	11291,(9, 117),4	11877,(9, 80),20	15077,(9, 73),30	15117,(9, 54),94	15501,(9, 82),66	15699,(9, 114),52	16033,(9, 29),114	16147,(9, 39),296	16443,(9, 41),112	16555,(9, 69),158	16713,(9, 76),162	16875,(9, 104),82	16957,(9, 112),74	17031,(9, 115),60	19637,(57, 121),20	19717,(72, 121),20	19817,(92, 121),20	19897,(105, 121),20	19917,(111, 121),20	20097,(27, 121),20	20117,(31, 121),20	20277,(55, 121),20	20637,(116, 121),20	
381,(1, 14),2	383,(1, 17),10	393,(1, 19),2	395,(1, 21),16	411,(1, 30),6	417,(1, 39),2	419,(1, 40),2	421,(1, 18),2	423,(1, 27),24	447,(1, 31),48	495,(1, 35),6	501,(1, 37),8	509,(1, 44),22	531,(1, 47),4	535,(1, 48),14	549,(1, 60),14	563,(1, 61),2	565,(1, 65),20	585,(1, 72),2	587,(1, 74),34	621,(1, 79),2	623,(1, 85),8	631,(1, 87),2	633,(1, 92),2	635,(1, 93),2	637,(1, 96),26	663,(1, 98),6	669,(1, 102),10	679,(1, 109),12	691,(1, 111),2	693,(1, 118),40	733,(4, 18),2	735,(4, 21),12	747,(4, 22),2	749,(4, 35),4	753,(4, 37),2	755,(4, 45),20	775,(4, 47),6	781,(4, 49),18	799,(4, 50),20	819,(4, 51),14	833,(4, 55),10	843,(4, 57),2	845,(4, 64),4	849,(4, 65),2	851,(4, 66),4	855,(4, 67),14	869,(4, 74),8	877,(4, 79),36	913,(4, 87),34	947,(4, 91),10	957,(4, 93),2	959,(4, 94),12	971,(4, 99),2	973,(4, 100),6	979,(4, 103),2	981,(4, 105),2	983,(4, 106),10	993,(4, 109),4	997,(4, 110),12	1009,(4, 118),8	1259,(1, 41),12	1271,(1, 43),4	1279,(1, 54),4	1283,(1, 69),10	1293,(1, 70),2	1295,(1, 76),50	1345,(1, 80),2	1347,(1, 97),2	1349,(1, 104),2	1693,(1, 120),4	1857,(4, 39),2	2649,(1, 114),44	2697,(4, 16),8	2705,(4, 76),2	2707,(4, 112),2	10303,(4, 24),8	10525,(4, 41),14	10539,(4, 63),6	10545,(4, 70),20	10565,(4, 82),6	10579,(4, 80),16	10633,(1, 117),88	10721,(4, 83),14	10735,(4, 97),28	10773,(4, 104),8	11129,(4, 120),20	11525,(4, 114),38	11993,(1, 16),578	12571,(1, 81),332	13949,(4, 14),154	14103,(4, 73),82	14185,(4, 77),112	14297,(4, 78),130	19297,(26, 121),20	19437,(108, 121),20	19477,(13, 121),20	19497,(20, 121),20	19517,(28, 121),20	19797,(89, 121),20	20177,(36, 121),20	20457,(88, 121),20	20657,(119, 121),20	
393,(2, 14),2	395,(2, 20),2	397,(2, 24),2	399,(2, 26),12	411,(2, 27),2	413,(2, 29),4	417,(2, 33),2	419,(2, 52),2	421,(2, 45),2	423,(2, 18),10	433,(2, 28),14	447,(2, 30),12	459,(2, 32),8	467,(2, 47),8	475,(2, 48),2	477,(2, 61),2	479,(2, 64),4	483,(2, 65),2	485,(2, 67),2	487,(2, 96),4	491,(2, 101),4	495,(2, 57),2	497,(2, 90),12	509,(2, 37),6	515,(2, 55),16	531,(2, 74),16	547,(2, 79),14	561,(2, 87),2	563,(2, 92),2	565,(2, 98),12	577,(2, 100),28	605,(2, 103),6	611,(2, 105),2	613,(2, 106),2	615,(2, 109),2	617,(2, 111),4	621,(10, 27),2	623,(2, 110),20	643,(2, 113),2	645,(2, 116),6	651,(10, 21),2	653,(10, 25),8	661,(10, 26),6	667,(10, 28),6	673,(10, 30),2	675,(10, 56),2	677,(10, 64),2	679,(10, 37),10	689,(10, 42),2	691,(10, 74),2	693,(10, 31),20	713,(10, 47),6	719,(10, 49),6	725,(10, 52),6	731,(10, 86),4	735,(10, 51),14	749,(10, 58),8	757,(10, 67),8	765,(10, 88),2	767,(10, 89),32	799,(10, 90),26	825,(10, 93),2	827,(10, 94),2	829,(10, 95),2	831,(10, 101),8	839,(10, 108),4	843,(10, 110),2	845,(10, 92),16	861,(10, 102),22	883,(10, 111),16	899,(10, 116),2	913,(10, 113),20	1697,(2, 38),24	1721,(2, 39),6	1727,(2, 59),2	1729,(2, 78),6	1743,(2, 43),14	1757,(2, 120),2	1845,(2, 83),6	1851,(2, 97),6	2693,(2, 104),4	10499,(2, 70),26	11155,(10, 16),2	11295,(10, 14),4	11299,(10, 59),4	11303,(10, 69),6	11341,(10, 70),2	11343,(10, 83),2	11619,(10, 17),12	11631,(10, 81),4	11667,(2, 81),112	11809,(10, 78),8	11823,(2, 115),54	11899,(10, 112),6	11925,(10, 114),4	12903,(2, 17),260	13163,(2, 80),294	13457,(2, 117),86	15841,(10, 24),56	17091,(10, 38),46	17137,(10, 73),50	17187,(10, 107),52	19537,(35, 121),20	19757,(75, 121),20	19937,(118, 121),20	20057,(23, 121),20	20337,(62, 121),20	20397,(84, 121),20	20477,(91, 121),20	20517,(99, 121),20	
