9194
# CPU
0,0,1	1,4,183	184,16,183	367,14,183	550,12,183	733,20,183	916,9,183	1099,156,183	1282,125,183	1465,169,183	1648,163,183	1831,30,183	2014,150,183	2197,179,183	2380,155,183	2563,77,183	2746,113,183	2929,116,183	3112,65,183	3295,95,183	3478,28,183	3661,79,183	3844,93,183	4027,120,183	4210,151,183	4393,114,183	4576,172,183	4759,185,183	4942,176,183	5125,105,183	5308,121,183	5491,170,183	5674,190,183	5857,68,183	6040,43,183	6223,96,183	6406,108,183	6589,115,183	6772,98,183	6955,48,183	7138,109,183	7321,126,183	7504,124,183	7687,23,183	7870,159,183	8053,191,183	8236,103,183	8419,94,183	8602,46,183	8785,180,183	8968,32,183	
4,18,183	187,7,183	370,40,183	553,11,183	736,1,183	919,10,183	1102,67,183	1285,97,183	1468,144,183	1651,187,183	1834,117,183	2017,57,183	2200,89,183	2383,188,183	2566,82,183	2749,167,183	2932,107,183	3115,44,183	3298,161,183	3481,178,183	3664,162,183	3847,37,183	4030,197,183	4213,182,183	4396,64,183	4579,160,183	4762,140,183	4945,101,183	5128,193,183	5311,133,183	5494,153,183	5677,66,183	5860,42,183	6043,71,183	6226,145,183	6409,45,183	6592,70,183	6775,26,183	6958,51,183	7141,69,183	7324,175,183	7507,143,183	7690,27,183	7873,60,183	8056,131,183	8239,137,183	8422,119,183	8605,106,183	8788,166,183	8971,134,183	
7,17,183	190,15,183	373,19,183	556,3,183	739,47,183	922,75,183	1105,2,183	1288,130,183	1471,157,183	1654,80,183	1837,158,183	2020,192,183	2203,33,183	2386,61,183	2569,110,183	2752,50,183	2935,62,183	3118,111,183	3301,21,183	3484,29,183	3667,55,183	3850,132,183	4033,152,183	4216,189,183	4399,198,183	4582,81,183	4765,87,183	4948,102,183	5131,146,183	5314,99,183	5497,141,183	5680,139,183	5863,59,183	6046,147,183	6229,52,183	6412,84,183	6595,76,183	6778,41,183	6961,91,183	7144,83,183	7327,24,183	7510,127,183	7693,135,183	7876,63,183	8059,88,183	8242,129,183	8425,22,183	8608,122,183	8791,136,183	8974,49,183	
10,13,183	193,6,183	376,5,183	559,8,183	742,85,183	925,164,183	1108,74,183	1291,128,183	1474,25,183	1657,149,183	1840,165,183	2023,168,183	2206,194,183	2389,177,183	2572,123,183	2755,196,183	2938,34,183	3121,154,183	3304,38,183	3487,181,183	3670,78,183	3853,54,183	4036,171,183	4219,35,183	4402,86,183	4585,138,183	4768,31,183	4951,174,183	5134,112,183	5317,200,183	5500,73,183	5683,58,183	5866,142,183	6049,173,183	6232,53,183	6415,100,183	6598,39,183	6781,90,183	6964,183,183	7147,72,183	7330,118,183	7513,195,183	7696,186,183	7879,104,183	8062,36,183	8245,184,183	8428,92,183	8611,56,183	8794,148,183	8977,199,183	9193,201,1	
# Incoming
744,(6, 125),1	745,(15, 169),1	746,(11, 30),1	747,(11, 150),1	748,(3, 150),2	750,(8, 30),1	751,(3, 179),1	752,(18, 77),1	753,(15, 77),1	754,(15, 113),2	756,(11, 113),2	758,(15, 65),1	759,(13, 179),3	762,(18, 65),2	764,(13, 155),3	767,(7, 95),4	771,(19, 95),2	773,(18, 151),4	777,(13, 116),5	782,(3, 28),1	783,(17, 79),2	785,(17, 93),5	790,(13, 65),3	793,(6, 65),1	794,(17, 120),1	795,(7, 120),5	800,(6, 95),1	801,(15, 120),1	802,(3, 120),1	803,(11, 114),8	813,(8, 79),2	819,(8, 93),3	822,(7, 172),3	825,(6, 120),1	826,(3, 185),10	836,(7, 176),1	837,(7, 105),3	840,(11, 121),1	841,(11, 43),1	842,(8, 151),2	844,(11, 176),7	851,(3, 176),6	857,(3, 105),3	860,(19, 170),11	871,(6, 114),1	872,(8, 114),1	873,(7, 115),3	876,(5, 172),8	884,(17, 190),18	902,(19, 43),8	910,(19, 96),6	916,(11, 115),1	917,(13, 170),1	918,(18, 98),1	919,(1, 155),1	920,(3, 98),1	921,(1, 113),1	922,(19, 108),3	925,(3, 124),1	926,(17, 103),1	927,(1, 28),6	933,(1, 79),3	936,(13, 190),1	937,(13, 96),1	938,(13, 108),1	939,(13, 115),2	941,(19, 191),2	943,(1, 151),3	946,(13, 124),1	947,(1, 185),2	949,(8, 105),11	960,(13, 121),17	977,(19, 68),16	993,(1, 68),1	994,(3, 43),11	1005,(1, 115),3	1008,(1, 98),7	1015,(11, 48),3	1018,(18, 124),1	1019,(5, 98),3	1022,(15, 96),11	1033,(1, 108),20	1053,(19, 98),3	1056,(8, 98),5	1061,(13, 48),2	1063,(15, 48),14	1077,(1, 48),2	1079,(17, 109),18	1097,(15, 109),3	1100,(7, 159),1	1101,(8, 159),1	1102,(6, 191),1	1103,(10, 163),1	1104,(13, 103),1	1105,(10, 77),1	1106,(13, 126),4	1110,(6, 124),9	1119,(17, 94),1	1120,(10, 105),1	1121,(15, 124),27	1148,(6, 103),1	1149,(10, 170),6	1155,(13, 191),18	1173,(8, 103),1	1174,(8, 94),1	1176,(10, 48),1	1177,(13, 46),2	1182,(10, 96),2	1184,(10, 115),8	1192,(10, 98),5	1204,(15, 103),2	1206,(19, 32),4	1211,(1, 109),13	1224,(18, 126),4	1228,(7, 126),25	1253,(10, 126),1	1254,(6, 159),25	1282,(1, 124),5	1288,(7, 103),4	1292,(2, 163),1	1294,(2, 30),1	1295,(18, 180),2	1297,(2, 77),1	1305,(2, 79),1	1306,(2, 114),1	1317,(18, 46),3	1320,(2, 68),2	1327,(10, 103),5	1333,(2, 115),7	1340,(2, 98),1	1341,(10, 159),31	1372,(7, 94),4	1377,(2, 48),5	1382,(2, 126),9	1391,(2, 124),1	1392,(18, 191),12	1404,(11, 103),14	1424,(19, 23),33	1457,(2, 23),18	1475,(5, 46),13	1490,(2, 159),1	1492,(3, 191),28	1520,(18, 94),29	1549,(10, 94),5	1554,(11, 180),2	1556,(1, 180),4	1561,(3, 103),33	1594,(15, 94),8	1602,(5, 94),20	1627,(11, 46),24	1659,(19, 46),26	1685,(2, 46),1	1686,(5, 32),21	1714,(15, 180),8	1722,(19, 180),14	1736,(5, 180),39	1775,(18, 32),45	1820,(17, 32),6	
1,(0, 18),3	10,(0, 7),3	25,(0, 11),3	34,(0, 1),3	37,(0, 10),3	194,(4, 178),5	199,(4, 162),1	202,(4, 37),1	268,(4, 66),14	308,(4, 145),3	312,(4, 45),2	314,(4, 26),7	322,(4, 51),2	338,(4, 60),6	353,(4, 166),1	367,(16, 117),4	371,(16, 107),1	373,(16, 44),1	374,(15, 97),1	375,(17, 144),1	376,(16, 37),1	377,(16, 182),1	378,(16, 140),1	379,(16, 145),3	382,(16, 106),1	383,(17, 89),1	386,(17, 188),5	391,(17, 167),1	393,(17, 193),1	394,(16, 71),7	403,(15, 153),2	405,(17, 42),1	406,(17, 71),1	407,(15, 45),1	408,(17, 119),2	414,(15, 162),11	427,(17, 133),11	438,(15, 66),8	446,(16, 45),10	456,(16, 26),16	472,(16, 69),21	501,(17, 27),11	512,(16, 166),9	556,(19, 187),3	559,(19, 188),1	560,(19, 82),9	569,(14, 161),1	571,(14, 160),2	573,(19, 178),10	583,(14, 37),11	602,(14, 45),2	604,(19, 101),4	608,(19, 193),5	613,(19, 153),1	614,(14, 193),14	628,(19, 133),4	632,(19, 145),9	641,(19, 70),5	646,(14, 51),1	647,(14, 60),12	665,(19, 26),9	674,(19, 51),7	693,(14, 131),12	712,(14, 119),9	721,(14, 166),1	729,(19, 27),1	732,(19, 131),1	733,(19, 137),2	736,(12, 187),1	737,(12, 117),1	739,(12, 188),1	740,(3, 67),2	742,(12, 107),3	745,(13, 97),3	750,(3, 44),1	751,(5, 117),1	752,(3, 161),1	754,(13, 57),5	759,(12, 89),5	764,(3, 167),2	766,(3, 145),1	767,(6, 188),1	768,(3, 70),1	769,(6, 167),8	780,(3, 51),2	790,(3, 160),3	793,(3, 27),1	794,(6, 44),4	798,(5, 44),1	801,(5, 161),10	811,(8, 161),2	815,(5, 162),4	822,(8, 37),3	826,(13, 197),5	831,(6, 197),11	844,(8, 182),16	860,(12, 51),22	885,(13, 140),1	886,(8, 140),9	896,(13, 101),3	899,(5, 101),4	910,(5, 193),2	913,(13, 133),4	918,(13, 153),12	930,(5, 153),3	933,(13, 66),1	934,(13, 26),2	937,(20, 64),18	955,(20, 160),13	968,(20, 101),10	978,(6, 42),11	989,(8, 42),5	994,(20, 145),5	1005,(3, 71),17	1022,(5, 70),5	1033,(3, 45),11	1044,(20, 70),20	1064,(8, 51),1	1065,(6, 69),1	1066,(5, 69),13	1079,(6, 143),1	1080,(5, 143),4	1084,(20, 27),11	1096,(13, 131),1	1099,(9, 67),1	1100,(3, 175),5	1105,(8, 119),1	1107,(9, 107),2	1109,(9, 44),5	1114,(9, 66),1	1119,(8, 143),19	1138,(6, 166),1	1139,(13, 134),3	1144,(9, 133),4	1148,(3, 143),12	1162,(9, 143),1	1163,(19, 60),20	1184,(9, 175),32	1216,(19, 119),6	1227,(9, 60),1	1228,(9, 106),1	1231,(5, 131),14	1245,(8, 106),7	1252,(19, 166),6	1258,(9, 131),14	1272,(20, 137),13	1289,(2, 144),2	1293,(2, 187),1	1295,(2, 57),1	1299,(2, 107),5	1304,(2, 161),1	1307,(2, 140),7	1314,(2, 153),5	1322,(2, 42),7	1329,(2, 145),4	1333,(5, 137),27	1360,(12, 119),18	1378,(20, 119),12	1390,(13, 106),84	1475,(2, 27),15	1491,(2, 60),1	1492,(13, 166),48	1540,(5, 166),8	1548,(5, 134),4	1736,(2, 166),29	1826,(15, 134),104	
4,(0, 17),3	13,(0, 15),3	19,(0, 19),3	28,(0, 3),3	40,(0, 2),3	193,(4, 111),1	200,(4, 55),2	203,(4, 152),10	213,(4, 87),8	251,(4, 146),6	267,(4, 99),1	311,(4, 52),1	324,(4, 83),14	345,(4, 129),2	355,(4, 49),7	372,(7, 158),2	374,(16, 84),1	376,(18, 192),4	380,(18, 61),3	383,(7, 61),3	386,(16, 55),3	390,(18, 110),3	394,(18, 50),9	404,(18, 55),1	405,(18, 102),2	407,(7, 102),1	408,(18, 76),1	409,(18, 22),1	410,(16, 139),4	414,(16, 41),4	436,(18, 52),3	450,(7, 99),13	463,(18, 139),10	473,(7, 59),5	478,(18, 147),11	489,(7, 91),3	492,(7, 83),4	531,(7, 84),16	556,(14, 62),1	557,(14, 111),7	570,(14, 29),1	571,(7, 76),17	594,(14, 102),1	595,(14, 141),7	602,(7, 135),19	632,(14, 59),3	636,(14, 84),8	644,(18, 63),12	659,(14, 129),6	673,(14, 63),20	705,(14, 88),7	733,(12, 47),3	738,(11, 99),1	739,(11, 141),1	740,(12, 110),2	742,(8, 75),2	744,(11, 76),1	745,(12, 21),2	747,(12, 55),1	748,(6, 157),1	749,(8, 157),1	750,(12, 132),2	752,(13, 158),2	754,(12, 152),2	756,(12, 81),1	757,(12, 87),2	759,(11, 139),2	762,(8, 33),2	766,(12, 91),1	768,(6, 110),1	769,(12, 52),7	777,(11, 59),4	782,(6, 62),7	789,(5, 62),1	790,(12, 76),5	795,(12, 122),4	799,(13, 111),1	800,(12, 83),9	811,(11, 198),9	833,(12, 136),4	860,(8, 189),11	873,(6, 198),3	884,(5, 81),1	895,(13, 87),1	903,(13, 102),2	905,(6, 102),5	912,(5, 146),1	920,(20, 192),1	921,(20, 110),2	923,(1, 110),1	924,(20, 146),1	925,(20, 22),1	933,(20, 21),4	937,(1, 29),4	941,(13, 141),1	942,(13, 147),1	943,(8, 147),1	944,(13, 52),1	946,(1, 81),1	947,(6, 91),2	949,(1, 146),1	950,(1, 99),1	966,(1, 147),2	968,(1, 52),1	969,(1, 83),1	970,(1, 127),1	971,(1, 63),1	972,(1, 88),1	978,(20, 102),7	994,(5, 59),9	1003,(5, 147),6	1009,(8, 52),10	1027,(13, 41),16	1043,(5, 41),4	1047,(13, 127),6	1053,(1, 91),11	1064,(1, 122),12	1084,(13, 135),2	1086,(6, 135),2	1088,(6, 63),8	1097,(6, 88),4	1102,(9, 80),4	1106,(10, 158),1	1107,(10, 33),3	1110,(10, 61),1	1111,(10, 21),4	1115,(9, 29),5	1121,(10, 76),1	1122,(9, 55),3	1125,(9, 132),9	1134,(9, 189),1	1135,(9, 127),1	1136,(10, 81),12	1148,(9, 87),6	1154,(9, 146),7	1161,(10, 146),3	1164,(10, 99),3	1167,(9, 141),10	1177,(10, 139),5	1182,(13, 136),12	1194,(5, 136),2	1197,(10, 41),2	1199,(10, 91),11	1210,(8, 127),21	1231,(9, 135),11	1254,(1, 24),28	1287,(10, 63),1	1288,(13, 88),32	1320,(16, 22),38	1360,(5, 129),16	1376,(10, 122),1	1377,(10, 136),1	1378,(1, 49),10	1390,(20, 136),11	1418,(10, 129),45	1463,(16, 122),93	1556,(8, 49),21	1582,(10, 22),45	1651,(7, 136),86	1737,(10, 49),33	1820,(18, 49),48	1868,(5, 49),85	
7,(0, 13),3	16,(0, 6),3	22,(0, 5),3	31,(0, 8),3	184,(4, 164),1	185,(4, 74),1	186,(4, 128),2	188,(4, 177),4	192,(4, 196),1	221,(4, 31),17	238,(4, 174),13	257,(4, 112),10	282,(4, 142),2	284,(4, 173),24	321,(4, 90),1	344,(4, 104),1	347,(4, 56),6	354,(4, 148),1	362,(4, 199),2	370,(7, 85),2	372,(16, 194),1	373,(15, 164),1	374,(7, 74),2	376,(17, 149),1	377,(15, 165),1	378,(15, 168),5	383,(16, 34),1	384,(17, 194),2	386,(7, 194),3	389,(7, 177),1	390,(16, 35),1	391,(16, 118),1	392,(15, 171),1	393,(7, 123),1	394,(15, 196),2	396,(15, 34),2	398,(17, 154),4	402,(17, 112),1	403,(7, 34),1	404,(16, 154),6	410,(7, 181),1	411,(15, 181),3	414,(7, 54),8	422,(7, 171),2	424,(18, 142),1	425,(15, 54),2	427,(18, 35),2	429,(7, 86),7	436,(16, 138),4	440,(7, 174),10	450,(15, 200),22	472,(17, 73),13	485,(17, 58),9	494,(17, 142),7	501,(16, 142),2	503,(7, 173),1	504,(7, 53),27	531,(17, 100),4	535,(16, 100),15	550,(14, 165),4	554,(14, 123),2	556,(7, 39),2	558,(18, 90),1	559,(7, 90),1	560,(7, 183),2	562,(18, 195),1	563,(7, 92),1	564,(14, 154),1	565,(14, 38),4	569,(19, 123),4	573,(14, 181),1	574,(14, 54),1	575,(14, 138),4	579,(14, 31),4	583,(19, 78),13	596,(19, 54),2	598,(19, 171),6	604,(14, 35),10	614,(19, 138),6	620,(19, 100),1	621,(19, 183),1	622,(19, 72),5	627,(19, 56),1	628,(14, 112),3	631,(14, 58),1	635,(14, 142),1	636,(7, 72),8	644,(14, 72),1	645,(16, 186),1	646,(17, 39),19	665,(16, 183),8	673,(18, 56),4	681,(15, 183),32	713,(15, 72),10	723,(17, 118),6	729,(14, 184),1	730,(19, 186),2	732,(16, 92),1	735,(19, 148),1	736,(11, 25),1	737,(11, 177),1	738,(12, 194),1	739,(3, 164),1	740,(11, 200),1	741,(11, 199),1	742,(3, 123),2	744,(3, 195),1	746,(3, 196),2	748,(12, 78),1	752,(12, 31),2	759,(19, 184),3	764,(12, 173),2	767,(14, 104),2	773,(3, 38),7	781,(11, 100),10	795,(3, 100),6	803,(3, 35),9	812,(3, 86),11	823,(12, 186),10	836,(3, 112),10	846,(14, 36),4	851,(11, 36),10	861,(7, 199),6	871,(3, 58),9	880,(11, 104),21	901,(14, 56),7	908,(12, 148),6	916,(20, 149),4	920,(1, 165),1	922,(1, 58),1	923,(20, 78),1	924,(1, 196),3	927,(20, 34),6	933,(17, 186),7	941,(1, 54),2	943,(15, 92),4	951,(1, 200),2	953,(1, 73),8	961,(1, 142),5	973,(1, 36),1	974,(1, 56),2	985,(20, 58),6	991,(20, 195),1	999,(20, 39),18	1017,(20, 104),6	1023,(14, 148),13	1036,(16, 199),5	1079,(1, 72),20	1100,(9, 25),2	1102,(10, 25),1	1104,(10, 177),1	1106,(9, 168),1	1115,(10, 86),4	1119,(10, 31),1	1120,(9, 181),2	1122,(10, 181),6	1128,(10, 171),8	1136,(9, 138),8	1148,(10, 174),1	1155,(10, 73),5	1160,(10, 90),1	1161,(9, 100),1	1167,(10, 142),9	1177,(9, 53),7	1184,(19, 118),20	1210,(10, 183),1	1216,(9, 195),11	1227,(15, 186),24	1251,(9, 186),7	1258,(19, 104),15	1273,(17, 92),12	1288,(2, 128),1	1291,(2, 25),1	1296,(2, 177),1	1298,(2, 196),1	1299,(1, 118),18	1319,(2, 58),1	1320,(10, 104),7	1341,(2, 90),36	1392,(2, 195),32	1424,(9, 56),30	1463,(11, 184),38	1501,(40, 201),14	1520,(17, 36),37	1557,(2, 36),4	1561,(10, 184),21	1582,(156, 201),14	1602,(19, 92),57	1659,(125, 201),14	1686,(17, 56),28	1714,(9, 148),79	1793,(15, 199),11	1804,(9, 199),94	1898,(67, 201),14	1912,(97, 201),14	1930,(47, 201),14	1944,(75, 201),14	1958,(130, 201),14	1972,(169, 201),14	1986,(144, 201),14	2000,(157, 201),14	2014,(163, 201),14	2028,(187, 201),14	2042,(80, 201),14	2056,(30, 201),14	2070,(117, 201),14	2084,(158, 201),14	2197,(150, 201),14	2211,(57, 201),14	2225,(192, 201),14	2380,(179, 201),14	2394,(89, 201),14	2408,(33, 201),14	2563,(155, 201),14	2577,(188, 201),14	2591,(61, 201),14	2746,(77, 201),14	2760,(82, 201),14	2774,(110, 201),14	2929,(113, 201),14	2943,(167, 201),14	2957,(50, 201),14	3112,(116, 201),14	3126,(107, 201),14	3140,(62, 201),14	3295,(65, 201),14	3309,(44, 201),14	3323,(111, 201),14	3478,(95, 201),14	3492,(161, 201),14	3506,(21, 201),14	3661,(28, 201),14	3675,(178, 201),14	3689,(29, 201),14	3844,(79, 201),14	3858,(162, 201),14	3872,(55, 201),14	4027,(93, 201),14	4041,(37, 201),14	4055,(132, 201),14	4210,(120, 201),14	4224,(197, 201),14	4238,(152, 201),14	4393,(151, 201),14	4407,(182, 201),14	4421,(189, 201),14	4576,(114, 201),14	4590,(64, 201),14	4604,(198, 201),14	4759,(172, 201),14	4773,(160, 201),14	4787,(81, 201),14	4942,(185, 201),14	4956,(140, 201),14	4970,(87, 201),14	5125,(176, 201),14	5139,(101, 201),14	5153,(102, 201),14	5308,(105, 201),14	5322,(193, 201),14	5336,(146, 201),14	5491,(121, 201),14	5505,(133, 201),14	5519,(99, 201),14	5674,(170, 201),14	5688,(153, 201),14	5702,(141, 201),14	5857,(190, 201),14	5871,(66, 201),14	5885,(139, 201),14	6040,(68, 201),14	6054,(42, 201),14	6068,(59, 201),14	6223,(43, 201),14	6237,(71, 201),14	6251,(147, 201),14	6406,(96, 201),14	6420,(145, 201),14	6434,(52, 201),14	6589,(108, 201),14	6603,(45, 201),14	6617,(84, 201),14	6772,(115, 201),14	6786,(70, 201),14	6800,(76, 201),14	6955,(98, 201),14	6969,(26, 201),14	6983,(41, 201),14	7138,(48, 201),14	7152,(51, 201),14	7166,(91, 201),14	7321,(109, 201),14	7335,(69, 201),14	7349,(83, 201),14	7504,(126, 201),14	7518,(175, 201),14	7532,(24, 201),14	7687,(124, 201),14	7701,(143, 201),14	7715,(127, 201),14	7870,(23, 201),14	7884,(27, 201),14	7898,(135, 201),14	8053,(159, 201),14	8067,(60, 201),14	8081,(63, 201),14	8236,(191, 201),14	8250,(131, 201),14	8264,(88, 201),14	8419,(103, 201),14	8433,(137, 201),14	8447,(129, 201),14	8602,(94, 201),14	8616,(119, 201),14	8630,(22, 201),14	8785,(46, 201),14	8799,(106, 201),14	8813,(122, 201),14	8968,(180, 201),14	8982,(166, 201),14	8996,(136, 201),14	9151,(32, 201),14	9165,(134, 201),14	9179,(49, 201),14	
# Outgoing
1,(0, 18),3	4,(0, 17),3	7,(0, 13),3	10,(0, 7),3	13,(0, 15),3	16,(0, 6),3	19,(0, 19),3	22,(0, 5),3	25,(0, 11),3	28,(0, 3),3	31,(0, 8),3	34,(0, 1),3	37,(0, 10),3	40,(0, 2),3	184,(4, 164),1	185,(4, 74),1	186,(4, 128),2	188,(4, 177),4	192,(4, 196),1	193,(4, 111),1	194,(4, 178),5	199,(4, 162),1	200,(4, 55),2	202,(4, 37),1	203,(4, 152),10	213,(4, 87),8	221,(4, 31),17	238,(4, 174),13	251,(4, 146),6	257,(4, 112),10	267,(4, 99),1	268,(4, 66),14	282,(4, 142),2	284,(4, 173),24	308,(4, 145),3	311,(4, 52),1	312,(4, 45),2	314,(4, 26),7	321,(4, 90),1	322,(4, 51),2	324,(4, 83),14	338,(4, 60),6	344,(4, 104),1	345,(4, 129),2	347,(4, 56),6	353,(4, 166),1	354,(4, 148),1	355,(4, 49),7	362,(4, 199),2	367,(16, 117),4	371,(16, 107),1	372,(16, 194),1	373,(16, 44),1	374,(16, 84),1	376,(16, 37),1	377,(16, 182),1	378,(16, 140),1	379,(16, 145),3	382,(16, 106),1	383,(16, 34),1	386,(16, 55),3	390,(16, 35),1	391,(16, 118),1	394,(16, 71),7	404,(16, 154),6	410,(16, 139),4	414,(16, 41),4	436,(16, 138),4	446,(16, 45),10	456,(16, 26),16	472,(16, 69),21	501,(16, 142),2	512,(16, 166),9	535,(16, 100),15	550,(14, 165),4	554,(14, 123),2	556,(14, 62),1	557,(14, 111),7	564,(14, 154),1	565,(14, 38),4	569,(14, 161),1	570,(14, 29),1	571,(14, 160),2	573,(14, 181),1	574,(14, 54),1	575,(14, 138),4	579,(14, 31),4	583,(14, 37),11	594,(14, 102),1	595,(14, 141),7	602,(14, 45),2	604,(14, 35),10	614,(14, 193),14	628,(14, 112),3	631,(14, 58),1	632,(14, 59),3	635,(14, 142),1	636,(14, 84),8	644,(14, 72),1	645,(16, 186),1	646,(14, 51),1	647,(14, 60),12	659,(14, 129),6	665,(16, 183),8	673,(14, 63),20	693,(14, 131),12	705,(14, 88),7	712,(14, 119),9	721,(14, 166),1	729,(14, 184),1	732,(16, 92),1	733,(12, 47),3	736,(12, 187),1	737,(12, 117),1	738,(12, 194),1	739,(12, 188),1	740,(12, 110),2	742,(12, 107),3	745,(12, 21),2	747,(12, 55),1	748,(12, 78),1	750,(12, 132),2	752,(12, 31),2	754,(12, 152),2	756,(12, 81),1	757,(12, 87),2	759,(12, 89),5	764,(12, 173),2	766,(12, 91),1	767,(14, 104),2	769,(12, 52),7	790,(12, 76),5	795,(12, 122),4	800,(12, 83),9	823,(12, 186),10	833,(12, 136),4	846,(14, 36),4	860,(12, 51),22	901,(14, 56),7	908,(12, 148),6	916,(20, 149),4	920,(20, 192),1	921,(20, 110),2	923,(20, 78),1	924,(20, 146),1	925,(20, 22),1	927,(20, 34),6	933,(20, 21),4	937,(20, 64),18	955,(20, 160),13	968,(20, 101),10	978,(20, 102),7	985,(20, 58),6	991,(20, 195),1	994,(20, 145),5	999,(20, 39),18	1017,(20, 104),6	1023,(14, 148),13	1036,(16, 199),5	1044,(20, 70),20	1084,(20, 27),11	1099,(9, 67),1	1100,(9, 25),2	1102,(9, 80),4	1106,(9, 168),1	1107,(9, 107),2	1109,(9, 44),5	1114,(9, 66),1	1115,(9, 29),5	1120,(9, 181),2	1122,(9, 55),3	1125,(9, 132),9	1134,(9, 189),1	1135,(9, 127),1	1136,(9, 138),8	1144,(9, 133),4	1148,(9, 87),6	1154,(9, 146),7	1161,(9, 100),1	1162,(9, 143),1	1167,(9, 141),10	1177,(9, 53),7	1184,(9, 175),32	1216,(9, 195),11	1227,(9, 60),1	1228,(9, 106),1	1231,(9, 135),11	1251,(9, 186),7	1258,(9, 131),14	1272,(20, 137),13	1320,(16, 22),38	1360,(12, 119),18	1378,(20, 119),12	1390,(20, 136),11	1424,(9, 56),30	1463,(16, 122),93	1582,(156, 201),14	1659,(125, 201),14	1714,(9, 148),79	1804,(9, 199),94	1972,(169, 201),14	2014,(163, 201),14	2056,(30, 201),14	2197,(150, 201),14	2380,(179, 201),14	2563,(155, 201),14	2746,(77, 201),14	2929,(113, 201),14	3112,(116, 201),14	3295,(65, 201),14	3478,(95, 201),14	3661,(28, 201),14	3844,(79, 201),14	4027,(93, 201),14	4210,(120, 201),14	4393,(151, 201),14	4576,(114, 201),14	4759,(172, 201),14	4942,(185, 201),14	5125,(176, 201),14	5308,(105, 201),14	5491,(121, 201),14	5674,(170, 201),14	5857,(190, 201),14	6040,(68, 201),14	6223,(43, 201),14	6406,(96, 201),14	6589,(108, 201),14	6772,(115, 201),14	6955,(98, 201),14	7138,(48, 201),14	7321,(109, 201),14	7504,(126, 201),14	7687,(124, 201),14	7870,(23, 201),14	8053,(159, 201),14	8236,(191, 201),14	8419,(103, 201),14	8602,(94, 201),14	8785,(46, 201),14	8968,(180, 201),14	9151,(32, 201),14	
370,(7, 85),2	372,(7, 158),2	374,(7, 74),2	376,(18, 192),4	380,(18, 61),3	383,(7, 61),3	386,(7, 194),3	389,(7, 177),1	390,(18, 110),3	393,(7, 123),1	394,(18, 50),9	403,(7, 34),1	404,(18, 55),1	405,(18, 102),2	407,(7, 102),1	408,(18, 76),1	409,(18, 22),1	410,(7, 181),1	414,(7, 54),8	422,(7, 171),2	424,(18, 142),1	427,(18, 35),2	429,(7, 86),7	436,(18, 52),3	440,(7, 174),10	450,(7, 99),13	463,(18, 139),10	473,(7, 59),5	478,(18, 147),11	489,(7, 91),3	492,(7, 83),4	503,(7, 173),1	504,(7, 53),27	531,(7, 84),16	556,(7, 39),2	558,(18, 90),1	559,(7, 90),1	560,(7, 183),2	562,(18, 195),1	563,(7, 92),1	571,(7, 76),17	602,(7, 135),19	636,(7, 72),8	644,(18, 63),12	673,(18, 56),4	736,(11, 25),1	737,(11, 177),1	738,(11, 99),1	739,(11, 141),1	740,(11, 200),1	741,(11, 199),1	744,(11, 76),1	746,(11, 30),1	747,(11, 150),1	752,(18, 77),1	756,(11, 113),2	759,(11, 139),2	762,(18, 65),2	767,(7, 95),4	773,(18, 151),4	777,(11, 59),4	781,(11, 100),10	795,(7, 120),5	803,(11, 114),8	811,(11, 198),9	822,(7, 172),3	836,(7, 176),1	837,(7, 105),3	840,(11, 121),1	841,(11, 43),1	844,(11, 176),7	851,(11, 36),10	861,(7, 199),6	873,(7, 115),3	880,(11, 104),21	916,(11, 115),1	918,(18, 98),1	919,(1, 155),1	920,(1, 165),1	921,(1, 113),1	922,(1, 58),1	923,(1, 110),1	924,(1, 196),3	927,(1, 28),6	933,(1, 79),3	937,(1, 29),4	941,(1, 54),2	943,(1, 151),3	946,(1, 81),1	947,(1, 185),2	949,(1, 146),1	950,(1, 99),1	951,(1, 200),2	953,(1, 73),8	961,(1, 142),5	966,(1, 147),2	968,(1, 52),1	969,(1, 83),1	970,(1, 127),1	971,(1, 63),1	972,(1, 88),1	973,(1, 36),1	974,(1, 56),2	993,(1, 68),1	1005,(1, 115),3	1008,(1, 98),7	1015,(11, 48),3	1018,(18, 124),1	1033,(1, 108),20	1053,(1, 91),11	1064,(1, 122),12	1077,(1, 48),2	1079,(1, 72),20	1100,(7, 159),1	1102,(10, 25),1	1103,(10, 163),1	1104,(10, 177),1	1105,(10, 77),1	1106,(10, 158),1	1107,(10, 33),3	1110,(10, 61),1	1111,(10, 21),4	1115,(10, 86),4	1119,(10, 31),1	1120,(10, 105),1	1121,(10, 76),1	1122,(10, 181),6	1128,(10, 171),8	1136,(10, 81),12	1148,(10, 174),1	1149,(10, 170),6	1155,(10, 73),5	1160,(10, 90),1	1161,(10, 146),3	1164,(10, 99),3	1167,(10, 142),9	1176,(10, 48),1	1177,(10, 139),5	1182,(10, 96),2	1184,(10, 115),8	1192,(10, 98),5	1197,(10, 41),2	1199,(10, 91),11	1210,(10, 183),1	1211,(1, 109),13	1224,(18, 126),4	1228,(7, 126),25	1253,(10, 126),1	1254,(1, 24),28	1282,(1, 124),5	1287,(10, 63),1	1288,(7, 103),4	1295,(18, 180),2	1299,(1, 118),18	1317,(18, 46),3	1320,(10, 104),7	1327,(10, 103),5	1341,(10, 159),31	1372,(7, 94),4	1376,(10, 122),1	1377,(10, 136),1	1378,(1, 49),10	1392,(18, 191),12	1404,(11, 103),14	1418,(10, 129),45	1463,(11, 184),38	1501,(40, 201),14	1520,(18, 94),29	1549,(10, 94),5	1554,(11, 180),2	1556,(1, 180),4	1561,(10, 184),21	1582,(10, 22),45	1627,(11, 46),24	1651,(7, 136),86	1737,(10, 49),33	1775,(18, 32),45	1820,(18, 49),48	1898,(67, 201),14	1912,(97, 201),14	1986,(144, 201),14	2028,(187, 201),14	2070,(117, 201),14	2211,(57, 201),14	2394,(89, 201),14	2577,(188, 201),14	2760,(82, 201),14	2943,(167, 201),14	3126,(107, 201),14	3309,(44, 201),14	3492,(161, 201),14	3675,(178, 201),14	3858,(162, 201),14	4041,(37, 201),14	4224,(197, 201),14	4407,(182, 201),14	4590,(64, 201),14	4773,(160, 201),14	4956,(140, 201),14	5139,(101, 201),14	5322,(193, 201),14	5505,(133, 201),14	5688,(153, 201),14	5871,(66, 201),14	6054,(42, 201),14	6237,(71, 201),14	6420,(145, 201),14	6603,(45, 201),14	6786,(70, 201),14	6969,(26, 201),14	7152,(51, 201),14	7335,(69, 201),14	7518,(175, 201),14	7701,(143, 201),14	7884,(27, 201),14	8067,(60, 201),14	8250,(131, 201),14	8433,(137, 201),14	8616,(119, 201),14	8799,(106, 201),14	8982,(166, 201),14	9165,(134, 201),14	
373,(15, 164),1	374,(15, 97),1	375,(17, 144),1	376,(17, 149),1	377,(15, 165),1	378,(15, 168),5	383,(17, 89),1	384,(17, 194),2	386,(17, 188),5	391,(17, 167),1	392,(15, 171),1	393,(17, 193),1	394,(15, 196),2	396,(15, 34),2	398,(17, 154),4	402,(17, 112),1	403,(15, 153),2	405,(17, 42),1	406,(17, 71),1	407,(15, 45),1	408,(17, 119),2	411,(15, 181),3	414,(15, 162),11	425,(15, 54),2	427,(17, 133),11	438,(15, 66),8	450,(15, 200),22	472,(17, 73),13	485,(17, 58),9	494,(17, 142),7	501,(17, 27),11	531,(17, 100),4	556,(19, 187),3	559,(19, 188),1	560,(19, 82),9	569,(19, 123),4	573,(19, 178),10	583,(19, 78),13	596,(19, 54),2	598,(19, 171),6	604,(19, 101),4	608,(19, 193),5	613,(19, 153),1	614,(19, 138),6	620,(19, 100),1	621,(19, 183),1	622,(19, 72),5	627,(19, 56),1	628,(19, 133),4	632,(19, 145),9	641,(19, 70),5	646,(17, 39),19	665,(19, 26),9	674,(19, 51),7	681,(15, 183),32	713,(15, 72),10	723,(17, 118),6	729,(19, 27),1	730,(19, 186),2	732,(19, 131),1	733,(19, 137),2	735,(19, 148),1	739,(3, 164),1	740,(3, 67),2	742,(3, 123),2	744,(3, 195),1	745,(15, 169),1	746,(3, 196),2	748,(3, 150),2	750,(3, 44),1	751,(3, 179),1	752,(3, 161),1	753,(15, 77),1	754,(15, 113),2	758,(15, 65),1	759,(19, 184),3	764,(3, 167),2	766,(3, 145),1	768,(3, 70),1	771,(19, 95),2	773,(3, 38),7	780,(3, 51),2	782,(3, 28),1	783,(17, 79),2	785,(17, 93),5	790,(3, 160),3	793,(3, 27),1	794,(17, 120),1	795,(3, 100),6	801,(15, 120),1	802,(3, 120),1	803,(3, 35),9	812,(3, 86),11	826,(3, 185),10	836,(3, 112),10	851,(3, 176),6	857,(3, 105),3	860,(19, 170),11	871,(3, 58),9	884,(17, 190),18	902,(19, 43),8	910,(19, 96),6	920,(3, 98),1	922,(19, 108),3	925,(3, 124),1	926,(17, 103),1	933,(17, 186),7	941,(19, 191),2	943,(15, 92),4	977,(19, 68),16	994,(3, 43),11	1005,(3, 71),17	1022,(15, 96),11	1033,(3, 45),11	1053,(19, 98),3	1063,(15, 48),14	1079,(17, 109),18	1097,(15, 109),3	1100,(3, 175),5	1119,(17, 94),1	1121,(15, 124),27	1148,(3, 143),12	1163,(19, 60),20	1184,(19, 118),20	1204,(15, 103),2	1206,(19, 32),4	1216,(19, 119),6	1227,(15, 186),24	1252,(19, 166),6	1258,(19, 104),15	1273,(17, 92),12	1288,(2, 128),1	1289,(2, 144),2	1291,(2, 25),1	1292,(2, 163),1	1293,(2, 187),1	1294,(2, 30),1	1295,(2, 57),1	1296,(2, 177),1	1297,(2, 77),1	1298,(2, 196),1	1299,(2, 107),5	1304,(2, 161),1	1305,(2, 79),1	1306,(2, 114),1	1307,(2, 140),7	1314,(2, 153),5	1319,(2, 58),1	1320,(2, 68),2	1322,(2, 42),7	1329,(2, 145),4	1333,(2, 115),7	1340,(2, 98),1	1341,(2, 90),36	1377,(2, 48),5	1382,(2, 126),9	1391,(2, 124),1	1392,(2, 195),32	1424,(19, 23),33	1457,(2, 23),18	1475,(2, 27),15	1490,(2, 159),1	1491,(2, 60),1	1492,(3, 191),28	1520,(17, 36),37	1557,(2, 36),4	1561,(3, 103),33	1594,(15, 94),8	1602,(19, 92),57	1659,(19, 46),26	1685,(2, 46),1	1686,(17, 56),28	1714,(15, 180),8	1722,(19, 180),14	1736,(2, 166),29	1793,(15, 199),11	1820,(17, 32),6	1826,(15, 134),104	1930,(47, 201),14	1944,(75, 201),14	1958,(130, 201),14	2000,(157, 201),14	2042,(80, 201),14	2084,(158, 201),14	2225,(192, 201),14	2408,(33, 201),14	2591,(61, 201),14	2774,(110, 201),14	2957,(50, 201),14	3140,(62, 201),14	3323,(111, 201),14	3506,(21, 201),14	3689,(29, 201),14	3872,(55, 201),14	4055,(132, 201),14	4238,(152, 201),14	4421,(189, 201),14	4604,(198, 201),14	4787,(81, 201),14	4970,(87, 201),14	5153,(102, 201),14	5336,(146, 201),14	5519,(99, 201),14	5702,(141, 201),14	5885,(139, 201),14	6068,(59, 201),14	6251,(147, 201),14	6434,(52, 201),14	6617,(84, 201),14	6800,(76, 201),14	6983,(41, 201),14	7166,(91, 201),14	7349,(83, 201),14	7532,(24, 201),14	7715,(127, 201),14	7898,(135, 201),14	8081,(63, 201),14	8264,(88, 201),14	8447,(129, 201),14	8630,(22, 201),14	8813,(122, 201),14	8996,(136, 201),14	9179,(49, 201),14	
742,(8, 75),2	744,(6, 125),1	745,(13, 97),3	748,(6, 157),1	749,(8, 157),1	750,(8, 30),1	751,(5, 117),1	752,(13, 158),2	754,(13, 57),5	759,(13, 179),3	762,(8, 33),2	764,(13, 155),3	767,(6, 188),1	768,(6, 110),1	769,(6, 167),8	777,(13, 116),5	782,(6, 62),7	789,(5, 62),1	790,(13, 65),3	793,(6, 65),1	794,(6, 44),4	798,(5, 44),1	799,(13, 111),1	800,(6, 95),1	801,(5, 161),10	811,(8, 161),2	813,(8, 79),2	815,(5, 162),4	819,(8, 93),3	822,(8, 37),3	825,(6, 120),1	826,(13, 197),5	831,(6, 197),11	842,(8, 151),2	844,(8, 182),16	860,(8, 189),11	871,(6, 114),1	872,(8, 114),1	873,(6, 198),3	876,(5, 172),8	884,(5, 81),1	885,(13, 140),1	886,(8, 140),9	895,(13, 87),1	896,(13, 101),3	899,(5, 101),4	903,(13, 102),2	905,(6, 102),5	910,(5, 193),2	912,(5, 146),1	913,(13, 133),4	917,(13, 170),1	918,(13, 153),12	930,(5, 153),3	933,(13, 66),1	934,(13, 26),2	936,(13, 190),1	937,(13, 96),1	938,(13, 108),1	939,(13, 115),2	941,(13, 141),1	942,(13, 147),1	943,(8, 147),1	944,(13, 52),1	946,(13, 124),1	947,(6, 91),2	949,(8, 105),11	960,(13, 121),17	978,(6, 42),11	989,(8, 42),5	994,(5, 59),9	1003,(5, 147),6	1009,(8, 52),10	1019,(5, 98),3	1022,(5, 70),5	1027,(13, 41),16	1043,(5, 41),4	1047,(13, 127),6	1056,(8, 98),5	1061,(13, 48),2	1064,(8, 51),1	1065,(6, 69),1	1066,(5, 69),13	1079,(6, 143),1	1080,(5, 143),4	1084,(13, 135),2	1086,(6, 135),2	1088,(6, 63),8	1096,(13, 131),1	1097,(6, 88),4	1101,(8, 159),1	1102,(6, 191),1	1104,(13, 103),1	1105,(8, 119),1	1106,(13, 126),4	1110,(6, 124),9	1119,(8, 143),19	1138,(6, 166),1	1139,(13, 134),3	1148,(6, 103),1	1155,(13, 191),18	1173,(8, 103),1	1174,(8, 94),1	1177,(13, 46),2	1182,(13, 136),12	1194,(5, 136),2	1210,(8, 127),21	1231,(5, 131),14	1245,(8, 106),7	1254,(6, 159),25	1288,(13, 88),32	1333,(5, 137),27	1360,(5, 129),16	1390,(13, 106),84	1475,(5, 46),13	1492,(13, 166),48	1540,(5, 166),8	1548,(5, 134),4	1556,(8, 49),21	1602,(5, 94),20	1686,(5, 32),21	1736,(5, 180),39	1868,(5, 49),85	
