122
# CPU
0,0,1	1,1,1	2,3,1	3,7,1	4,12,1	5,6,1	6,2,1	7,5,1	8,11,1	9,10,1	10,4,1	11,9,1	12,8,1	13,33,1	14,119,1	15,29,1	16,20,1	17,18,1	18,97,1	19,85,1	20,69,1	21,49,1	22,88,1	23,43,1	24,116,1	25,38,1	26,37,1	27,36,1	28,28,1	29,19,1	30,16,1	31,14,1	32,25,1	33,108,1	34,17,1	35,15,1	36,107,1	37,83,1	38,78,1	39,72,1	40,27,1	41,104,1	42,102,1	43,113,1	44,100,1	45,95,1	46,89,1	47,74,1	48,73,1	49,70,1	50,66,1	51,62,1	52,58,1	53,30,1	54,118,1	55,112,1	56,109,1	57,92,1	58,65,1	59,56,1	60,53,1	61,51,1	62,47,1	63,31,1	64,24,1	65,23,1	66,22,1	67,21,1	68,120,1	69,26,1	70,111,1	71,93,1	72,82,1	73,81,1	74,77,1	75,32,1	76,63,1	77,84,1	78,106,1	79,114,1	80,98,1	81,68,1	82,48,1	83,57,1	84,46,1	85,39,1	86,35,1	87,55,1	88,52,1	89,54,1	90,59,1	91,117,1	92,87,1	93,96,1	94,42,1	95,75,1	96,101,1	97,60,1	98,61,1	99,50,1	100,86,1	101,13,1	102,79,1	103,99,1	104,115,1	105,80,1	106,40,1	107,64,1	108,76,1	109,105,1	110,41,1	111,91,1	112,45,1	113,90,1	114,110,1	115,103,1	116,44,1	117,34,1	118,94,1	119,71,1	120,67,1	121,121,1	




# Incoming





# Outgoing





