296
# CPU
57,35,2	115,38,2	
59,36,2	81,27,2	
177,26,2	227,32,2	233,40,2	
147,23,2	157,31,2	171,39,2	
153,30,2	157,22,2	295,41,1	
139,16,2	145,19,2	169,29,2	183,37,2	
7,4,2	23,24,2	37,33,2	47,12,2	53,18,2	89,15,2	
5,3,2	7,17,2	9,34,2	83,10,2	87,13,2	161,28,2	
3,2,2	11,6,2	21,14,2	29,9,2	79,21,2	113,25,2	
0,0,1	1,1,2	3,20,2	9,5,2	23,8,2	45,11,2	53,7,2	
# Incoming
55,(3, 35),2	113,(4, 38),2	
57,(3, 36),2	79,(4, 27),2	
171,(1, 40),4	175,(2, 26),2	177,(2, 32),4	181,(2, 40),42	223,(4, 32),4	227,(4, 40),6	
145,(1, 23),2	147,(3, 39),4	153,(2, 31),4	169,(1, 39),2	
137,(1, 22),8	145,(2, 30),8	153,(3, 22),4	157,(17, 41),4	161,(34, 41),4	165,(6, 41),4	169,(14, 41),4	175,(20, 41),4	179,(5, 41),4	183,(8, 41),4	187,(24, 41),4	191,(33, 41),4	195,(11, 41),4	199,(12, 41),4	203,(7, 41),4	207,(18, 41),4	211,(35, 41),4	215,(36, 41),4	219,(27, 41),4	223,(9, 41),4	227,(21, 41),4	231,(10, 41),4	235,(13, 41),4	239,(15, 41),4	243,(25, 41),4	247,(38, 41),4	251,(16, 41),4	255,(19, 41),4	259,(23, 41),4	263,(31, 41),4	267,(28, 41),4	271,(29, 41),4	275,(39, 41),4	279,(26, 41),4	283,(37, 41),4	287,(32, 41),4	291,(40, 41),4	
89,(1, 19),48	137,(3, 16),2	139,(3, 19),6	161,(1, 29),8	169,(3, 37),14	
5,(0, 4),2	9,(2, 15),4	13,(2, 24),10	23,(2, 33),14	45,(3, 12),2	47,(3, 18),6	81,(1, 15),8	
3,(0, 3),2	7,(1, 13),74	81,(4, 10),2	83,(4, 13),4	147,(1, 28),14	
1,(0, 2),2	9,(4, 6),2	11,(4, 14),10	23,(3, 9),6	53,(3, 25),2	55,(4, 21),24	87,(4, 25),26	
5,(2, 5),4	9,(3, 8),14	29,(3, 11),16	45,(4, 7),8	
# Outgoing
211,(35, 41),4	247,(38, 41),4	
215,(36, 41),4	219,(27, 41),4	
279,(26, 41),4	287,(32, 41),4	291,(40, 41),4	
259,(23, 41),4	263,(31, 41),4	275,(39, 41),4	

251,(16, 41),4	255,(19, 41),4	271,(29, 41),4	283,(37, 41),4	
9,(4, 6),2	11,(4, 14),10	45,(4, 7),8	55,(4, 21),24	79,(4, 27),2	81,(4, 10),2	83,(4, 13),4	87,(4, 25),26	113,(4, 38),2	187,(24, 41),4	191,(33, 41),4	199,(12, 41),4	207,(18, 41),4	223,(4, 32),4	227,(4, 40),6	239,(15, 41),4	
9,(3, 8),14	23,(3, 9),6	29,(3, 11),16	45,(3, 12),2	47,(3, 18),6	53,(3, 25),2	55,(3, 35),2	57,(3, 36),2	137,(3, 16),2	139,(3, 19),6	147,(3, 39),4	153,(3, 22),4	157,(17, 41),4	161,(34, 41),4	169,(3, 37),14	231,(10, 41),4	235,(13, 41),4	267,(28, 41),4	
5,(2, 5),4	9,(2, 15),4	13,(2, 24),10	23,(2, 33),14	145,(2, 30),8	153,(2, 31),4	165,(6, 41),4	169,(14, 41),4	175,(2, 26),2	177,(2, 32),4	181,(2, 40),42	223,(9, 41),4	227,(21, 41),4	243,(25, 41),4	
1,(0, 2),2	3,(0, 3),2	5,(0, 4),2	7,(1, 13),74	81,(1, 15),8	89,(1, 19),48	137,(1, 22),8	145,(1, 23),2	147,(1, 28),14	161,(1, 29),8	169,(1, 39),2	171,(1, 40),4	175,(20, 41),4	179,(5, 41),4	183,(8, 41),4	195,(11, 41),4	203,(7, 41),4	
