649
# CPU

516,20,1	
514,19,1	
59,16,1	67,18,1	
466,13,1	508,15,1	648,21,1	
110,11,1	494,14,1	
55,10,1	
25,8,1	106,9,1	
3,2,1	4,7,1	5,17,1	13,6,1	
0,0,1	1,1,1	2,5,1	8,3,1	74,4,1	462,12,1	
# Incoming

514,(2, 20),2	
508,(2, 19),6	
55,(1, 16),4	59,(1, 18),8	
67,(5, 21),22	89,(3, 21),22	111,(8, 21),22	133,(10, 21),22	155,(16, 21),22	177,(18, 21),22	199,(4, 21),22	221,(9, 21),22	243,(11, 21),22	462,(2, 13),4	466,(12, 21),22	494,(2, 15),14	516,(7, 21),22	538,(17, 21),22	560,(6, 21),22	582,(14, 21),22	604,(19, 21),22	626,(20, 21),22	
106,(2, 11),4	466,(2, 14),28	
25,(1, 10),30	
13,(1, 8),12	74,(2, 9),32	
1,(0, 2),2	3,(1, 6),10	
4,(2, 3),4	8,(2, 4),66	110,(2, 12),352	
# Outgoing

626,(20, 21),22	
604,(19, 21),22	
155,(16, 21),22	177,(18, 21),22	

243,(11, 21),22	582,(14, 21),22	
133,(10, 21),22	
111,(8, 21),22	221,(9, 21),22	
4,(2, 3),4	8,(2, 4),66	74,(2, 9),32	106,(2, 11),4	110,(2, 12),352	462,(2, 13),4	466,(2, 14),28	494,(2, 15),14	508,(2, 19),6	514,(2, 20),2	516,(7, 21),22	538,(17, 21),22	560,(6, 21),22	
1,(0, 2),2	3,(1, 6),10	13,(1, 8),12	25,(1, 10),30	55,(1, 16),4	59,(1, 18),8	67,(5, 21),22	89,(3, 21),22	199,(4, 21),22	466,(12, 21),22	
