82
# CPU
0,81,1	1,50,1	2,80,1	3,79,1	4,62,1	5,76,1	6,68,1	7,31,1	8,35,1	9,32,1	10,38,1	11,64,1	12,29,1	13,28,1	14,42,1	15,13,1	16,71,1	17,61,1	18,75,1	19,41,1	20,46,1	21,12,1	22,49,1	23,25,1	24,66,1	25,40,1	26,74,1	27,27,1	28,69,1	29,52,1	30,51,1	31,15,1	32,59,1	33,45,1	34,17,1	35,57,1	36,44,1	37,26,1	38,11,1	39,60,1	40,23,1	41,14,1	42,9,1	43,18,1	44,16,1	45,77,1	46,63,1	47,37,1	48,67,1	49,39,1	50,53,1	51,72,1	52,36,1	53,19,1	54,48,1	55,30,1	56,55,1	57,6,1	58,24,1	59,2,1	60,43,1	61,70,1	62,20,1	63,58,1	64,47,1	65,65,1	66,54,1	67,7,1	68,56,1	69,1,1	70,73,1	71,22,1	72,34,1	73,8,1	74,33,1	75,21,1	76,3,1	77,78,1	78,4,1	79,10,1	80,5,1	81,0,1	




# Incoming





# Outgoing





