642
# CPU
0,0,1	1,1,16	17,3,16	33,4,16	49,2,16	65,25,16	81,38,16	97,22,16	113,35,16	129,34,16	145,14,16	161,33,16	177,31,16	193,10,16	209,29,16	225,26,16	241,9,16	257,6,16	273,30,16	289,20,16	305,18,16	321,12,16	337,39,16	353,36,16	369,32,16	385,13,16	401,28,16	417,24,16	433,21,16	449,15,16	465,5,16	481,27,16	497,23,16	513,37,16	529,8,16	545,11,16	561,40,16	577,19,16	593,16,16	609,17,16	625,7,16	641,41,1	



# Incoming




# Outgoing




