217
# CPU
10,2,1	11,14,1	12,76,1	13,16,1	14,44,1	15,52,1	16,70,1	19,4,1	20,36,1	28,6,1	29,18,1	30,72,1	31,22,1	32,30,1	33,58,1	34,66,1	35,32,1	37,8,1	38,42,1	39,48,1	40,60,1	41,74,1	42,64,1	43,54,1	60,26,1	61,46,1	62,62,1	70,28,1	77,34,1	86,38,1	105,78,1	112,80,1	115,12,1	130,56,1	133,10,1	134,20,1	138,24,1	140,40,1	141,50,1	144,68,1	
0,0,1	1,3,1	2,1,1	3,5,1	4,7,1	5,71,1	6,57,1	7,37,1	8,25,1	9,15,1	10,69,1	11,77,1	12,65,1	13,67,1	14,53,1	15,33,1	16,31,1	17,19,1	18,13,1	19,9,1	20,45,1	21,47,1	22,63,1	23,39,1	24,17,1	25,23,1	26,35,1	27,43,1	73,55,1	75,79,1	95,11,1	104,21,1	114,29,1	115,51,1	117,59,1	140,27,1	141,49,1	145,75,1	153,41,1	157,61,1	194,73,1	216,81,1	
# Incoming
1,(0, 2),9	10,(0, 4),9	19,(0, 6),9	28,(0, 8),9	37,(3, 26),23	60,(3, 46),1	61,(3, 62),1	62,(1, 28),8	70,(1, 34),7	77,(1, 38),9	86,(1, 78),19	105,(1, 80),7	112,(5, 12),3	115,(5, 50),14	129,(5, 56),1	130,(7, 10),3	133,(7, 20),1	134,(7, 24),4	138,(7, 40),2	140,(7, 50),1	141,(7, 68),3	
11,(2, 35),9	20,(2, 43),1	21,(2, 55),52	73,(2, 79),2	75,(14, 81),1	76,(76, 81),1	77,(16, 81),1	78,(44, 81),1	79,(52, 81),1	80,(70, 81),1	81,(4, 11),14	95,(4, 21),9	104,(4, 29),10	114,(4, 51),1	115,(4, 59),2	117,(36, 81),1	118,(6, 27),22	140,(6, 49),1	141,(6, 75),4	145,(18, 81),1	146,(72, 81),1	147,(22, 81),1	148,(30, 81),1	149,(58, 81),1	150,(66, 81),1	151,(32, 81),1	152,(8, 41),1	153,(8, 61),4	157,(8, 73),37	194,(42, 81),1	195,(48, 81),1	196,(60, 81),1	197,(74, 81),1	198,(64, 81),1	199,(54, 81),1	200,(26, 81),1	201,(46, 81),1	202,(62, 81),1	203,(28, 81),1	204,(34, 81),1	205,(38, 81),1	206,(78, 81),1	207,(80, 81),1	208,(12, 81),1	209,(56, 81),1	210,(10, 81),1	211,(20, 81),1	212,(24, 81),1	213,(40, 81),1	214,(50, 81),1	215,(68, 81),1	
# Outgoing
11,(2, 35),9	20,(2, 43),1	21,(2, 55),52	73,(2, 79),2	75,(14, 81),1	76,(76, 81),1	77,(16, 81),1	78,(44, 81),1	79,(52, 81),1	80,(70, 81),1	81,(4, 11),14	95,(4, 21),9	104,(4, 29),10	114,(4, 51),1	115,(4, 59),2	117,(36, 81),1	118,(6, 27),22	140,(6, 49),1	141,(6, 75),4	145,(18, 81),1	146,(72, 81),1	147,(22, 81),1	148,(30, 81),1	149,(58, 81),1	150,(66, 81),1	151,(32, 81),1	152,(8, 41),1	153,(8, 61),4	157,(8, 73),37	194,(42, 81),1	195,(48, 81),1	196,(60, 81),1	197,(74, 81),1	198,(64, 81),1	199,(54, 81),1	200,(26, 81),1	201,(46, 81),1	202,(62, 81),1	203,(28, 81),1	204,(34, 81),1	205,(38, 81),1	206,(78, 81),1	207,(80, 81),1	208,(12, 81),1	209,(56, 81),1	210,(10, 81),1	211,(20, 81),1	212,(24, 81),1	213,(40, 81),1	214,(50, 81),1	215,(68, 81),1	
1,(0, 2),9	10,(0, 4),9	19,(0, 6),9	28,(0, 8),9	37,(3, 26),23	60,(3, 46),1	61,(3, 62),1	62,(1, 28),8	70,(1, 34),7	77,(1, 38),9	86,(1, 78),19	105,(1, 80),7	112,(5, 12),3	115,(5, 50),14	129,(5, 56),1	130,(7, 10),3	133,(7, 20),1	134,(7, 24),4	138,(7, 40),2	140,(7, 50),1	141,(7, 68),3	
