210
# CPU
0,41,1	1,29,2	3,22,2	5,21,2	7,27,2	9,9,2	11,37,2	13,36,2	15,33,2	17,15,2	19,7,2	21,39,2	23,30,2	25,28,2	27,23,2	29,26,2	31,12,2	33,6,2	35,17,2	37,13,2	39,14,2	41,16,2	43,24,2	45,35,2	47,32,2	49,19,2	51,34,2	53,38,2	55,5,2	57,31,2	59,11,2	61,4,2	63,2,2	103,1,2	207,3,2	209,0,1	
9,10,2	17,18,2	25,8,2	33,40,2	41,20,2	49,25,2	
# Incoming
19,(18, 2),12	31,(10, 1),4	35,(40, 1),28	63,(20, 1),40	103,(8, 3),16	119,(25, 3),88	
1,(41, 10),8	9,(41, 18),8	17,(41, 8),8	25,(41, 40),8	33,(41, 20),8	41,(41, 25),8	
# Outgoing
1,(41, 10),8	9,(41, 18),8	17,(41, 8),8	25,(41, 40),8	33,(41, 20),8	41,(41, 25),8	
19,(18, 2),12	31,(10, 1),4	35,(40, 1),28	63,(20, 1),40	103,(8, 3),16	119,(25, 3),88	
