958
# CPU
61,4,5	66,11,5	71,28,5	76,40,5	81,30,5	86,22,5	91,24,5	96,9,5	137,17,5	233,38,5	609,14,5	625,19,5	637,26,5	645,32,5	650,34,5	
41,3,5	46,15,5	51,31,5	73,10,5	81,7,5	89,12,5	109,18,5	129,29,5	145,21,5	153,23,5	161,25,5	189,27,5	229,33,5	273,39,5	341,37,5	957,41,1	
21,2,5	26,6,5	31,8,5	133,16,5	661,35,5	769,36,5	
0,0,1	1,1,5	453,20,5	517,5,5	605,13,5	
# Incoming
41,(0, 4),20	61,(1, 9),8	69,(2, 19),24	133,(1, 17),4	229,(1, 38),4	605,(3, 14),4	609,(3, 19),16	625,(3, 26),12	637,(3, 32),8	645,(3, 34),4	
21,(0, 3),20	41,(2, 15),4	45,(2, 39),4	69,(1, 10),4	73,(4, 7),8	81,(4, 12),8	89,(4, 18),20	109,(4, 29),20	137,(1, 21),8	145,(1, 23),8	153,(1, 25),8	161,(1, 27),28	189,(1, 33),40	233,(1, 39),40	273,(4, 37),68	341,(11, 41),28	369,(28, 41),28	397,(40, 41),28	425,(30, 41),28	453,(6, 41),28	481,(8, 41),28	509,(22, 41),28	537,(24, 41),28	565,(9, 41),28	593,(16, 41),28	621,(17, 41),28	649,(38, 41),28	677,(20, 41),28	705,(5, 41),28	733,(13, 41),28	761,(14, 41),28	789,(19, 41),28	817,(26, 41),28	845,(32, 41),28	873,(34, 41),28	901,(35, 41),28	929,(36, 41),28	
1,(0, 2),20	73,(1, 16),60	649,(3, 35),12	661,(3, 36),108	
93,(2, 20),360	453,(3, 5),64	517,(3, 13),88	
# Outgoing
73,(4, 7),8	81,(4, 12),8	89,(4, 18),20	109,(4, 29),20	273,(4, 37),68	341,(11, 41),28	369,(28, 41),28	397,(40, 41),28	425,(30, 41),28	509,(22, 41),28	537,(24, 41),28	565,(9, 41),28	621,(17, 41),28	649,(38, 41),28	761,(14, 41),28	789,(19, 41),28	817,(26, 41),28	845,(32, 41),28	873,(34, 41),28	
453,(3, 5),64	517,(3, 13),88	605,(3, 14),4	609,(3, 19),16	625,(3, 26),12	637,(3, 32),8	645,(3, 34),4	649,(3, 35),12	661,(3, 36),108	
41,(2, 15),4	45,(2, 39),4	69,(2, 19),24	93,(2, 20),360	453,(6, 41),28	481,(8, 41),28	593,(16, 41),28	901,(35, 41),28	929,(36, 41),28	
1,(0, 2),20	21,(0, 3),20	41,(0, 4),20	61,(1, 9),8	69,(1, 10),4	73,(1, 16),60	133,(1, 17),4	137,(1, 21),8	145,(1, 23),8	153,(1, 25),8	161,(1, 27),28	189,(1, 33),40	229,(1, 38),4	233,(1, 39),40	677,(20, 41),28	705,(5, 41),28	733,(13, 41),28	
