692
# CPU
205,18,3	217,19,3	229,12,3	
181,14,3	190,16,3	202,17,3	223,20,3	226,9,3	
148,7,3	256,13,3	
136,2,3	139,10,3	142,4,3	145,5,3	178,11,3	691,21,1	
0,0,1	1,1,3	4,6,3	145,3,3	223,8,3	367,15,3	
# Incoming
202,(1, 18),3	205,(1, 19),12	226,(2, 12),3	
178,(1, 14),3	181,(1, 16),9	190,(1, 17),12	217,(1, 20),6	223,(2, 9),3	
145,(2, 7),3	229,(2, 13),27	
1,(0, 2),135	136,(1, 4),3	139,(1, 5),6	145,(1, 11),33	178,(7, 21),36	223,(6, 21),36	259,(3, 21),36	295,(14, 21),36	331,(16, 21),36	367,(17, 21),36	403,(18, 21),36	439,(19, 21),36	475,(8, 21),36	511,(20, 21),36	547,(9, 21),36	583,(12, 21),36	619,(13, 21),36	655,(15, 21),36	
139,(2, 3),6	148,(2, 8),75	256,(2, 15),111	
# Outgoing
403,(18, 21),36	439,(19, 21),36	583,(12, 21),36	
295,(14, 21),36	331,(16, 21),36	367,(17, 21),36	511,(20, 21),36	547,(9, 21),36	
178,(7, 21),36	619,(13, 21),36	
139,(2, 3),6	145,(2, 7),3	148,(2, 8),75	223,(2, 9),3	226,(2, 12),3	229,(2, 13),27	256,(2, 15),111	
1,(0, 2),135	136,(1, 4),3	139,(1, 5),6	145,(1, 11),33	178,(1, 14),3	181,(1, 16),9	190,(1, 17),12	202,(1, 18),3	205,(1, 19),12	217,(1, 20),6	223,(6, 21),36	259,(3, 21),36	475,(8, 21),36	655,(15, 21),36	
