362
# CPU
0,0,1	1,1,18	19,2,18	37,6,18	55,10,18	73,18,18	91,5,18	109,8,18	127,7,18	145,3,18	163,16,18	181,20,18	199,13,18	217,15,18	235,11,18	253,19,18	271,14,18	289,4,18	307,17,18	325,12,18	343,9,18	361,21,1	


# Incoming



# Outgoing



