101
# CPU
0,81,1	1,64,1	2,71,1	3,80,1	4,79,1	5,42,1	6,76,1	7,68,1	8,29,1	9,62,1	10,28,1	11,61,1	12,31,1	13,13,1	14,38,1	15,35,1	16,32,1	17,75,1	18,41,1	19,12,1	20,66,1	21,49,1	22,25,1	23,46,1	24,74,1	25,27,1	26,52,1	27,51,1	28,40,1	29,15,1	30,45,1	31,59,1	32,17,1	33,57,1	34,26,1	35,44,1	36,11,1	37,60,1	38,23,1	39,14,1	40,9,1	41,18,1	42,16,1	43,77,1	44,63,1	45,37,1	46,67,1	47,39,1	48,53,1	49,36,1	50,19,1	51,48,1	52,30,1	53,55,1	54,6,1	55,24,1	56,2,1	57,43,1	58,70,1	59,20,1	60,58,1	61,47,1	62,65,1	63,54,1	64,7,1	65,56,1	66,73,1	67,22,1	68,34,1	69,8,1	70,33,1	71,21,1	72,3,1	73,78,1	74,50,1	75,4,1	76,1,1	100,0,1	
73,10,1	98,5,1	
25,69,1	49,72,1	
# Incoming
50,(72, 1),18	99,(5, 0),1	
49,(81, 10),24	73,(71, 5),1	74,(29, 5),1	75,(27, 5),3	78,(69, 5),3	81,(40, 5),3	84,(57, 5),5	89,(18, 5),9	
1,(81, 69),24	25,(81, 72),24	
# Outgoing
1,(81, 69),24	25,(81, 72),24	49,(81, 10),24	73,(71, 5),1	74,(29, 5),1	75,(27, 5),3	81,(40, 5),3	84,(57, 5),5	89,(18, 5),9	
99,(5, 0),1	
50,(72, 1),18	78,(69, 5),3	
