15578
# CPU
57,5,24	81,175,24	113,10,24	169,15,24	193,50,24	217,65,24	241,20,24	265,130,24	691,40,24	807,30,24	1003,25,24	1101,105,24	2783,85,24	2839,180,24	2887,150,24	2911,35,24	2935,45,24	2959,160,24	2983,75,24	3007,190,24	3031,110,24	3055,155,24	3117,200,24	3289,170,24	3313,120,24	3337,140,24	3377,195,24	3513,185,24	3537,55,24	3589,95,24	3719,70,24	3797,135,24	3821,60,24	3845,90,24	3869,115,24	4013,165,24	4037,80,24	4061,100,24	4085,145,24	4519,125,24	
43,4,24	99,9,24	155,14,24	179,64,24	203,154,24	227,129,24	251,19,24	275,144,24	299,69,24	2679,179,24	2703,199,24	2737,99,24	2773,119,24	2819,34,24	3007,84,24	3031,54,24	3147,194,24	3171,164,24	3237,124,24	3323,59,24	3347,174,24	3515,114,24	3571,74,24	3801,49,24	3929,184,24	3953,29,24	3977,79,24	4089,104,24	4127,109,24	4151,39,24	4175,89,24	4199,139,24	4303,149,24	4327,159,24	4351,94,24	4399,169,24	4423,189,24	12295,134,24	13051,24,24	13879,44,24	
29,3,24	85,8,24	141,13,24	197,18,24	221,23,24	245,68,24	269,193,24	667,28,24	793,163,24	2695,53,24	2775,123,24	2799,73,24	2833,178,24	2881,133,24	2909,93,24	2953,78,24	2977,128,24	3001,148,24	3025,108,24	3049,33,24	3073,38,24	3097,103,24	3121,88,24	3145,188,24	3169,158,24	3193,63,24	3217,138,24	3241,48,24	3265,113,24	3289,173,24	3313,198,24	3337,183,24	4093,168,24	4305,83,24	12429,153,24	12551,58,24	12725,143,24	13169,43,24	13915,98,24	13951,118,24	
15,2,24	71,7,24	95,87,24	127,12,24	183,17,24	757,142,24	781,157,24	1019,42,24	1203,167,24	2817,127,24	3057,57,24	3107,62,24	3131,152,24	3283,197,24	3325,187,24	3349,77,24	3947,162,24	3971,27,24	4003,32,24	4141,122,24	4313,72,24	4337,47,24	4391,82,24	4415,92,24	4439,192,24	12197,102,24	12221,117,24	12245,132,24	12437,22,24	12461,37,24	12583,67,24	12607,107,24	12641,112,24	12891,177,24	12915,182,24	13881,52,24	13905,97,24	14299,137,24	14323,147,24	14347,172,24	
0,0,1	1,11,24	25,1,24	49,6,24	73,16,24	97,136,24	121,156,24	2773,26,24	2797,56,24	2837,81,24	2863,91,24	2887,51,24	2911,146,24	2935,196,24	2969,36,24	2993,46,24	3017,126,24	3041,76,24	3093,166,24	3117,31,24	3141,141,24	3165,71,24	3189,181,24	3213,171,24	3327,151,24	3379,66,24	3909,116,24	3933,96,24	12143,186,24	12221,106,24	12245,131,24	12269,161,24	12293,176,24	12559,61,24	12611,111,24	12953,191,24	12997,21,24	13091,41,24	13897,86,24	13939,101,24	14297,121,24	15577,201,1	
# Incoming
43,(0, 5),14	99,(0, 10),14	155,(0, 15),14	211,(0, 20),14	237,(11, 30),8	667,(1, 30),4	671,(1, 40),20	699,(1, 70),12	793,(1, 165),6	799,(1, 180),2	801,(6, 30),6	829,(6, 110),6	839,(6, 135),2	841,(6, 145),44	889,(6, 170),18	991,(16, 25),12	1089,(16, 105),12	1185,(16, 155),8	1203,(16, 185),6	2779,(4, 165),2	2781,(9, 85),2	2833,(2, 180),6	2881,(14, 80),4	2885,(14, 150),2	2887,(7, 35),14	2901,(7, 45),6	2909,(12, 135),10	2919,(4, 160),16	2935,(9, 75),18	2953,(9, 190),10	2963,(14, 110),20	2983,(19, 100),2	2991,(17, 60),2	2993,(17, 155),2	3031,(14, 195),10	3041,(19, 155),8	3091,(7, 200),26	3117,(17, 55),12	3197,(3, 125),2	3199,(3, 140),14	3213,(7, 170),76	3293,(12, 120),14	3313,(17, 140),12	3335,(3, 195),42	3377,(4, 185),136	3513,(8, 55),2	3571,(8, 80),2	3573,(8, 95),16	3589,(19, 70),130	3787,(8, 135),10	3801,(13, 60),8	3809,(13, 90),26	3835,(13, 115),2	3837,(18, 145),8	3973,(12, 165),40	4013,(17, 80),24	4037,(17, 100),24	4061,(17, 145),16	4313,(19, 125),206	
29,(0, 4),14	85,(0, 9),14	141,(0, 14),14	197,(0, 19),14	245,(11, 69),32	283,(11, 114),4	293,(11, 119),2	587,(11, 169),36	639,(11, 174),16	655,(2, 49),2016	2671,(1, 79),4	2675,(1, 179),4	2679,(1, 199),2	2681,(6, 164),2	2695,(2, 74),26	2721,(6, 99),16	2737,(6, 174),30	2769,(2, 119),4	2783,(2, 134),34	2817,(3, 34),2	2819,(2, 159),8	2839,(2, 184),40	2879,(2, 194),2	2881,(1, 49),108	2989,(6, 189),16	3005,(5, 84),2	3007,(7, 29),18	3025,(7, 54),6	3051,(7, 174),6	3057,(3, 59),68	3125,(3, 74),4	3129,(7, 159),16	3145,(7, 194),2	3147,(12, 59),2	3149,(12, 164),4	3159,(17, 189),2	3161,(5, 149),2	3163,(16, 109),24	3187,(16, 124),50	3237,(10, 74),2	3239,(10, 79),2	3241,(10, 149),2	3283,(10, 174),32	3321,(20, 59),2	3327,(3, 174),6	3333,(7, 114),182	3515,(8, 44),22	3537,(8, 49),14	3551,(8, 74),20	3589,(8, 104),186	3775,(8, 134),12	3797,(13, 49),4	3813,(7, 184),116	3929,(12, 29),16	3945,(12, 79),28	3975,(13, 104),114	4089,(13, 109),38	4127,(17, 39),18	4145,(18, 89),12	4157,(18, 139),6	4163,(18, 149),140	4303,(18, 159),2	4305,(17, 94),14	4395,(18, 169),4	4405,(18, 189),2	12207,(10, 134),88	12997,(20, 24),54	13169,(20, 44),710	
15,(0, 3),14	71,(0, 8),14	127,(0, 13),14	183,(0, 18),14	225,(11, 28),12	623,(11, 173),16	655,(1, 28),12	711,(1, 88),36	747,(1, 93),6	753,(1, 123),2	779,(1, 163),14	817,(6, 73),10	837,(6, 113),2	1003,(16, 38),14	1019,(16, 48),10	1105,(16, 113),12	2671,(2, 53),24	2773,(2, 123),2	2775,(4, 73),4	2817,(2, 158),2	2827,(2, 178),6	2863,(4, 133),18	2881,(5, 78),2	2883,(5, 108),16	2899,(5, 198),6	2905,(10, 33),2	2907,(7, 93),2	2909,(4, 143),10	2919,(7, 78),34	2953,(17, 43),2	2955,(5, 128),20	2975,(5, 148),16	2991,(9, 43),4	2995,(9, 108),4	2999,(15, 33),2	3001,(9, 63),10	3011,(9, 168),4	3015,(14, 38),14	3029,(14, 168),2	3031,(7, 103),20	3051,(19, 63),2	3053,(19, 88),2	3055,(19, 188),2	3057,(12, 43),8	3065,(10, 158),18	3083,(15, 63),2	3085,(15, 138),6	3095,(15, 168),2	3097,(20, 48),2	3099,(14, 118),10	3109,(5, 143),52	3161,(7, 198),32	3193,(15, 98),30	3223,(15, 113),8	3231,(15, 173),4	3243,(14, 43),12	3289,(12, 83),4	3307,(12, 198),6	3315,(15, 183),6	4077,(17, 168),16	4145,(17, 83),160	12295,(10, 153),134	12439,(15, 58),112	12641,(15, 143),84	13091,(20, 43),78	13903,(20, 98),12	13939,(20, 118),12	
1,(0, 2),14	57,(0, 7),14	113,(0, 12),14	169,(0, 17),14	277,(11, 97),6	287,(11, 117),6	295,(11, 122),292	691,(1, 42),2	693,(1, 57),6	755,(1, 142),2	757,(1, 157),22	807,(6, 37),10	827,(6, 107),2	835,(6, 112),2	885,(6, 152),4	907,(6, 182),84	1017,(16, 42),2	1029,(16, 57),8	1037,(16, 82),24	1061,(16, 92),28	1101,(16, 107),4	1117,(16, 117),68	1193,(16, 167),10	1209,(16, 197),58	2773,(3, 27),12	2785,(4, 62),2	2787,(4, 77),2	2789,(4, 117),10	2799,(4, 132),14	2813,(4, 137),2	2815,(9, 127),2	2819,(3, 57),238	3057,(4, 92),42	3099,(5, 52),6	3105,(5, 62),2	3107,(5, 67),2	3109,(9, 152),2	3111,(14, 67),4	3129,(3, 92),68	3197,(4, 187),46	3243,(5, 187),6	3249,(5, 197),34	3283,(9, 187),42	3325,(10, 37),2	3327,(10, 77),4	3331,(10, 172),2	3333,(3, 192),2	3335,(5, 162),612	3947,(8, 47),10	3957,(13, 27),8	3965,(13, 37),10	3975,(19, 32),28	4003,(19, 52),2	4005,(19, 107),2	4007,(19, 147),24	4127,(13, 122),14	4141,(14, 72),172	4313,(18, 47),6	4319,(18, 67),58	4377,(18, 82),14	4391,(18, 92),4	4399,(18, 177),6	4407,(18, 192),2	12143,(10, 102),54	12197,(10, 117),4	12201,(10, 132),6	12429,(15, 22),8	12437,(15, 37),2	12551,(15, 67),32	12583,(15, 107),22	12611,(15, 112),30	12725,(15, 147),42	12767,(15, 177),124	12891,(15, 182),14	13879,(20, 52),2	13897,(20, 97),6	14297,(20, 137),2	14299,(20, 147),6	14305,(20, 172),30	
2721,(2, 111),48	2769,(3, 26),4	2773,(4, 56),2	2775,(2, 131),8	2783,(4, 66),2	2785,(3, 71),4	2789,(3, 86),28	2817,(4, 81),20	2837,(4, 86),2	2839,(4, 91),24	2863,(5, 51),14	2877,(5, 111),2	2879,(5, 146),2	2881,(2, 196),6	2887,(4, 126),22	2909,(5, 61),46	2955,(7, 36),14	2969,(7, 46),10	2979,(7, 86),12	2991,(5, 166),4	2995,(7, 126),4	2999,(9, 31),2	3001,(10, 76),4	3005,(12, 181),2	3007,(5, 121),58	3065,(7, 141),26	3091,(10, 166),2	3093,(15, 31),2	3115,(14, 141),2	3117,(64, 201),18	3135,(154, 201),18	3153,(17, 71),4	3157,(17, 181),2	3159,(19, 161),2	3161,(19, 171),2	3163,(175, 201),18	3181,(10, 191),10	3191,(20, 106),2	3193,(87, 201),18	3213,(3, 151),114	3327,(17, 111),6	3333,(129, 201),18	3351,(19, 21),22	3377,(8, 66),2	3379,(8, 186),2	3381,(13, 86),2	3383,(13, 106),4	3387,(13, 111),8	3395,(13, 131),106	3501,(18, 86),8	3515,(7, 116),298	3813,(14, 116),96	3909,(18, 96),22	3947,(5, 186),8196	12143,(12, 86),32	12175,(17, 61),10	12185,(17, 106),36	12221,(17, 131),8	12229,(18, 161),20	12249,(18, 176),18	12267,(23, 201),18	12285,(68, 201),18	12303,(19, 61),256	12559,(19, 191),20	12579,(193, 201),18	12605,(15, 111),6	12611,(144, 201),18	12629,(69, 201),18	12647,(28, 201),18	12665,(142, 201),18	12683,(157, 201),18	12701,(163, 201),18	12719,(42, 201),18	12737,(167, 201),18	12755,(179, 201),18	12773,(53, 201),18	12791,(199, 201),18	12809,(99, 201),18	12827,(119, 201),18	12845,(123, 201),18	12863,(73, 201),18	12881,(127, 201),18	12905,(15, 191),48	12953,(50, 201),18	12971,(65, 201),18	12989,(20, 21),8	12997,(34, 201),18	13015,(178, 201),18	13033,(133, 201),18	13051,(20, 41),40	13091,(93, 201),18	13109,(78, 201),18	13127,(128, 201),18	13145,(148, 201),18	13163,(84, 201),18	13181,(108, 201),18	13199,(54, 201),18	13217,(33, 201),18	13235,(57, 201),18	13253,(38, 201),18	13271,(103, 201),18	13289,(62, 201),18	13307,(88, 201),18	13325,(152, 201),18	13343,(188, 201),18	13361,(194, 201),18	13379,(158, 201),18	13397,(164, 201),18	13415,(63, 201),18	13433,(138, 201),18	13451,(124, 201),18	13469,(48, 201),18	13487,(113, 201),18	13505,(197, 201),18	13523,(173, 201),18	13541,(198, 201),18	13559,(59, 201),18	13577,(187, 201),18	13595,(183, 201),18	13613,(174, 201),18	13631,(77, 201),18	13649,(114, 201),18	13667,(74, 201),18	13685,(49, 201),18	13703,(184, 201),18	13721,(162, 201),18	13739,(29, 201),18	13757,(27, 201),18	13775,(79, 201),18	13793,(32, 201),18	13811,(104, 201),18	13829,(168, 201),18	13847,(109, 201),18	13881,(20, 86),16	13897,(122, 201),18	13915,(20, 101),24	13951,(20, 121),346	14297,(39, 201),18	14315,(89, 201),18	14335,(130, 201),18	14353,(40, 201),18	14371,(30, 201),18	14389,(25, 201),18	14407,(105, 201),18	14425,(85, 201),18	14443,(180, 201),18	14461,(150, 201),18	14479,(35, 201),18	14497,(45, 201),18	14515,(160, 201),18	14533,(75, 201),18	14551,(190, 201),18	14569,(110, 201),18	14587,(155, 201),18	14605,(200, 201),18	14623,(170, 201),18	14641,(120, 201),18	14659,(140, 201),18	14677,(195, 201),18	14695,(185, 201),18	14713,(55, 201),18	14731,(95, 201),18	14749,(70, 201),18	14767,(135, 201),18	14785,(60, 201),18	14803,(90, 201),18	14821,(115, 201),18	14839,(165, 201),18	14857,(80, 201),18	14875,(100, 201),18	14893,(145, 201),18	14911,(139, 201),18	14929,(149, 201),18	14947,(83, 201),18	14965,(72, 201),18	14983,(159, 201),18	15001,(47, 201),18	15019,(94, 201),18	15037,(82, 201),18	15055,(169, 201),18	15073,(92, 201),18	15091,(189, 201),18	15109,(192, 201),18	15127,(125, 201),18	15145,(102, 201),18	15163,(117, 201),18	15181,(132, 201),18	15199,(134, 201),18	15217,(153, 201),18	15235,(22, 201),18	15253,(37, 201),18	15271,(58, 201),18	15289,(67, 201),18	15307,(107, 201),18	15325,(112, 201),18	15343,(143, 201),18	15361,(177, 201),18	15379,(182, 201),18	15397,(24, 201),18	15415,(43, 201),18	15433,(44, 201),18	15451,(52, 201),18	15469,(97, 201),18	15487,(98, 201),18	15505,(118, 201),18	15523,(137, 201),18	15541,(147, 201),18	15559,(172, 201),18	
# Outgoing
2863,(5, 51),14	2877,(5, 111),2	2879,(5, 146),2	2881,(5, 78),2	2883,(5, 108),16	2899,(5, 198),6	2905,(10, 33),2	2909,(5, 61),46	2955,(5, 128),20	2975,(5, 148),16	2991,(5, 166),4	2999,(15, 33),2	3001,(10, 76),4	3005,(5, 84),2	3007,(5, 121),58	3065,(10, 158),18	3083,(15, 63),2	3085,(15, 138),6	3091,(10, 166),2	3093,(15, 31),2	3095,(15, 168),2	3097,(20, 48),2	3099,(5, 52),6	3105,(5, 62),2	3107,(5, 67),2	3109,(5, 143),52	3161,(5, 149),2	3163,(175, 201),18	3181,(10, 191),10	3191,(20, 106),2	3193,(15, 98),30	3223,(15, 113),8	3231,(15, 173),4	3237,(10, 74),2	3239,(10, 79),2	3241,(10, 149),2	3243,(5, 187),6	3249,(5, 197),34	3283,(10, 174),32	3315,(15, 183),6	3321,(20, 59),2	3325,(10, 37),2	3327,(10, 77),4	3331,(10, 172),2	3335,(5, 162),612	3947,(5, 186),8196	12143,(10, 102),54	12197,(10, 117),4	12201,(10, 132),6	12207,(10, 134),88	12295,(10, 153),134	12429,(15, 22),8	12437,(15, 37),2	12439,(15, 58),112	12551,(15, 67),32	12583,(15, 107),22	12605,(15, 111),6	12611,(15, 112),30	12641,(15, 143),84	12725,(15, 147),42	12767,(15, 177),124	12891,(15, 182),14	12905,(15, 191),48	12953,(50, 201),18	12971,(65, 201),18	12989,(20, 21),8	12997,(20, 24),54	13051,(20, 41),40	13091,(20, 43),78	13169,(20, 44),710	13879,(20, 52),2	13881,(20, 86),16	13897,(20, 97),6	13903,(20, 98),12	13915,(20, 101),24	13939,(20, 118),12	13951,(20, 121),346	14297,(20, 137),2	14299,(20, 147),6	14305,(20, 172),30	14335,(130, 201),18	14353,(40, 201),18	14371,(30, 201),18	14389,(25, 201),18	14407,(105, 201),18	14425,(85, 201),18	14443,(180, 201),18	14461,(150, 201),18	14479,(35, 201),18	14497,(45, 201),18	14515,(160, 201),18	14533,(75, 201),18	14551,(190, 201),18	14569,(110, 201),18	14587,(155, 201),18	14605,(200, 201),18	14623,(170, 201),18	14641,(120, 201),18	14659,(140, 201),18	14677,(195, 201),18	14695,(185, 201),18	14713,(55, 201),18	14731,(95, 201),18	14749,(70, 201),18	14767,(135, 201),18	14785,(60, 201),18	14803,(90, 201),18	14821,(115, 201),18	14839,(165, 201),18	14857,(80, 201),18	14875,(100, 201),18	14893,(145, 201),18	15127,(125, 201),18	
2773,(4, 56),2	2775,(4, 73),4	2779,(4, 165),2	2781,(9, 85),2	2783,(4, 66),2	2785,(4, 62),2	2787,(4, 77),2	2789,(4, 117),10	2799,(4, 132),14	2813,(4, 137),2	2815,(9, 127),2	2817,(4, 81),20	2837,(4, 86),2	2839,(4, 91),24	2863,(4, 133),18	2881,(14, 80),4	2885,(14, 150),2	2887,(4, 126),22	2909,(4, 143),10	2919,(4, 160),16	2935,(9, 75),18	2953,(9, 190),10	2963,(14, 110),20	2983,(19, 100),2	2991,(9, 43),4	2995,(9, 108),4	2999,(9, 31),2	3001,(9, 63),10	3011,(9, 168),4	3015,(14, 38),14	3029,(14, 168),2	3031,(14, 195),10	3041,(19, 155),8	3051,(19, 63),2	3053,(19, 88),2	3055,(19, 188),2	3057,(4, 92),42	3099,(14, 118),10	3109,(9, 152),2	3111,(14, 67),4	3115,(14, 141),2	3117,(64, 201),18	3135,(154, 201),18	3159,(19, 161),2	3161,(19, 171),2	3197,(4, 187),46	3243,(14, 43),12	3283,(9, 187),42	3333,(129, 201),18	3351,(19, 21),22	3377,(4, 185),136	3589,(19, 70),130	3813,(14, 116),96	3975,(19, 32),28	4003,(19, 52),2	4005,(19, 107),2	4007,(19, 147),24	4141,(14, 72),172	4313,(19, 125),206	12303,(19, 61),256	12559,(19, 191),20	12611,(144, 201),18	12629,(69, 201),18	12755,(179, 201),18	12791,(199, 201),18	12809,(99, 201),18	12827,(119, 201),18	12997,(34, 201),18	13163,(84, 201),18	13199,(54, 201),18	13361,(194, 201),18	13397,(164, 201),18	13451,(124, 201),18	13559,(59, 201),18	13613,(174, 201),18	13649,(114, 201),18	13667,(74, 201),18	13685,(49, 201),18	13703,(184, 201),18	13739,(29, 201),18	13775,(79, 201),18	13811,(104, 201),18	13847,(109, 201),18	14297,(39, 201),18	14315,(89, 201),18	14911,(139, 201),18	14929,(149, 201),18	14983,(159, 201),18	15019,(94, 201),18	15055,(169, 201),18	15091,(189, 201),18	15199,(134, 201),18	15397,(24, 201),18	15433,(44, 201),18	
2769,(3, 26),4	2773,(3, 27),12	2785,(3, 71),4	2789,(3, 86),28	2817,(3, 34),2	2819,(3, 57),238	3057,(3, 59),68	3125,(3, 74),4	3129,(3, 92),68	3197,(3, 125),2	3199,(3, 140),14	3213,(3, 151),114	3327,(3, 174),6	3333,(3, 192),2	3335,(3, 195),42	3377,(8, 66),2	3379,(8, 186),2	3381,(13, 86),2	3383,(13, 106),4	3387,(13, 111),8	3395,(13, 131),106	3501,(18, 86),8	3513,(8, 55),2	3515,(8, 44),22	3537,(8, 49),14	3551,(8, 74),20	3571,(8, 80),2	3573,(8, 95),16	3589,(8, 104),186	3775,(8, 134),12	3787,(8, 135),10	3797,(13, 49),4	3801,(13, 60),8	3809,(13, 90),26	3835,(13, 115),2	3837,(18, 145),8	3909,(18, 96),22	3947,(8, 47),10	3957,(13, 27),8	3965,(13, 37),10	3975,(13, 104),114	4089,(13, 109),38	4127,(13, 122),14	4145,(18, 89),12	4157,(18, 139),6	4163,(18, 149),140	4303,(18, 159),2	4313,(18, 47),6	4319,(18, 67),58	4377,(18, 82),14	4391,(18, 92),4	4395,(18, 169),4	4399,(18, 177),6	4405,(18, 189),2	4407,(18, 192),2	12229,(18, 161),20	12249,(18, 176),18	12267,(23, 201),18	12285,(68, 201),18	12579,(193, 201),18	12647,(28, 201),18	12701,(163, 201),18	12773,(53, 201),18	12845,(123, 201),18	12863,(73, 201),18	13015,(178, 201),18	13033,(133, 201),18	13091,(93, 201),18	13109,(78, 201),18	13127,(128, 201),18	13145,(148, 201),18	13181,(108, 201),18	13217,(33, 201),18	13253,(38, 201),18	13271,(103, 201),18	13307,(88, 201),18	13343,(188, 201),18	13379,(158, 201),18	13415,(63, 201),18	13433,(138, 201),18	13469,(48, 201),18	13487,(113, 201),18	13523,(173, 201),18	13541,(198, 201),18	13595,(183, 201),18	13829,(168, 201),18	14947,(83, 201),18	15217,(153, 201),18	15271,(58, 201),18	15343,(143, 201),18	15415,(43, 201),18	15487,(98, 201),18	15505,(118, 201),18	
655,(2, 49),2016	2671,(2, 53),24	2695,(2, 74),26	2721,(2, 111),48	2769,(2, 119),4	2773,(2, 123),2	2775,(2, 131),8	2783,(2, 134),34	2817,(2, 158),2	2819,(2, 159),8	2827,(2, 178),6	2833,(2, 180),6	2839,(2, 184),40	2879,(2, 194),2	2881,(2, 196),6	2887,(7, 35),14	2901,(7, 45),6	2907,(7, 93),2	2909,(12, 135),10	2919,(7, 78),34	2953,(17, 43),2	2955,(7, 36),14	2969,(7, 46),10	2979,(7, 86),12	2991,(17, 60),2	2993,(17, 155),2	2995,(7, 126),4	3005,(12, 181),2	3007,(7, 29),18	3025,(7, 54),6	3031,(7, 103),20	3051,(7, 174),6	3057,(12, 43),8	3065,(7, 141),26	3091,(7, 200),26	3117,(17, 55),12	3129,(7, 159),16	3145,(7, 194),2	3147,(12, 59),2	3149,(12, 164),4	3153,(17, 71),4	3157,(17, 181),2	3159,(17, 189),2	3161,(7, 198),32	3193,(87, 201),18	3213,(7, 170),76	3289,(12, 83),4	3293,(12, 120),14	3307,(12, 198),6	3313,(17, 140),12	3327,(17, 111),6	3333,(7, 114),182	3515,(7, 116),298	3813,(7, 184),116	3929,(12, 29),16	3945,(12, 79),28	3973,(12, 165),40	4013,(17, 80),24	4037,(17, 100),24	4061,(17, 145),16	4077,(17, 168),16	4127,(17, 39),18	4145,(17, 83),160	4305,(17, 94),14	12143,(12, 86),32	12175,(17, 61),10	12185,(17, 106),36	12221,(17, 131),8	12665,(142, 201),18	12683,(157, 201),18	12719,(42, 201),18	12737,(167, 201),18	12881,(127, 201),18	13235,(57, 201),18	13289,(62, 201),18	13325,(152, 201),18	13505,(197, 201),18	13577,(187, 201),18	13631,(77, 201),18	13721,(162, 201),18	13757,(27, 201),18	13793,(32, 201),18	13897,(122, 201),18	14965,(72, 201),18	15001,(47, 201),18	15037,(82, 201),18	15073,(92, 201),18	15109,(192, 201),18	15145,(102, 201),18	15163,(117, 201),18	15181,(132, 201),18	15235,(22, 201),18	15253,(37, 201),18	15289,(67, 201),18	15307,(107, 201),18	15325,(112, 201),18	15361,(177, 201),18	15379,(182, 201),18	15451,(52, 201),18	15469,(97, 201),18	15523,(137, 201),18	15541,(147, 201),18	15559,(172, 201),18	
1,(0, 2),14	15,(0, 3),14	29,(0, 4),14	43,(0, 5),14	57,(0, 7),14	71,(0, 8),14	85,(0, 9),14	99,(0, 10),14	113,(0, 12),14	127,(0, 13),14	141,(0, 14),14	155,(0, 15),14	169,(0, 17),14	183,(0, 18),14	197,(0, 19),14	211,(0, 20),14	225,(11, 28),12	237,(11, 30),8	245,(11, 69),32	277,(11, 97),6	283,(11, 114),4	287,(11, 117),6	293,(11, 119),2	295,(11, 122),292	587,(11, 169),36	623,(11, 173),16	639,(11, 174),16	655,(1, 28),12	667,(1, 30),4	671,(1, 40),20	691,(1, 42),2	693,(1, 57),6	699,(1, 70),12	711,(1, 88),36	747,(1, 93),6	753,(1, 123),2	755,(1, 142),2	757,(1, 157),22	779,(1, 163),14	793,(1, 165),6	799,(1, 180),2	801,(6, 30),6	807,(6, 37),10	817,(6, 73),10	827,(6, 107),2	829,(6, 110),6	835,(6, 112),2	837,(6, 113),2	839,(6, 135),2	841,(6, 145),44	885,(6, 152),4	889,(6, 170),18	907,(6, 182),84	991,(16, 25),12	1003,(16, 38),14	1017,(16, 42),2	1019,(16, 48),10	1029,(16, 57),8	1037,(16, 82),24	1061,(16, 92),28	1089,(16, 105),12	1101,(16, 107),4	1105,(16, 113),12	1117,(16, 117),68	1185,(16, 155),8	1193,(16, 167),10	1203,(16, 185),6	1209,(16, 197),58	2671,(1, 79),4	2675,(1, 179),4	2679,(1, 199),2	2681,(6, 164),2	2721,(6, 99),16	2737,(6, 174),30	2881,(1, 49),108	2989,(6, 189),16	3163,(16, 109),24	3187,(16, 124),50	
