608
# CPU
24,7,7	459,12,7	562,17,7	
35,6,7	42,11,7	528,16,7	
23,5,7	35,10,7	46,20,7	527,15,7	
3,2,7	10,4,7	17,14,7	24,9,7	31,19,7	
0,0,1	1,1,7	8,3,7	15,18,7	36,8,7	521,13,7	607,21,1	
# Incoming
23,(1, 7),1	37,(2, 12),422	528,(2, 17),34	
10,(2, 6),25	36,(2, 11),1	527,(2, 16),1	
10,(1, 5),13	24,(1, 10),11	35,(1, 20),11	521,(2, 15),6	
1,(0, 2),2	8,(1, 4),2	
35,(2, 8),1	36,(5, 21),9	45,(7, 21),9	54,(6, 21),9	63,(10, 21),9	72,(11, 21),9	81,(20, 21),9	459,(2, 13),62	521,(12, 21),9	534,(15, 21),9	543,(16, 21),9	562,(4, 21),9	571,(14, 21),9	580,(9, 21),9	589,(19, 21),9	598,(17, 21),9	
# Outgoing
45,(7, 21),9	521,(12, 21),9	598,(17, 21),9	
54,(6, 21),9	72,(11, 21),9	543,(16, 21),9	
36,(5, 21),9	63,(10, 21),9	81,(20, 21),9	534,(15, 21),9	
10,(2, 6),25	35,(2, 8),1	36,(2, 11),1	37,(2, 12),422	459,(2, 13),62	521,(2, 15),6	527,(2, 16),1	528,(2, 17),34	562,(4, 21),9	571,(14, 21),9	580,(9, 21),9	589,(19, 21),9	
1,(0, 2),2	8,(1, 4),2	10,(1, 5),13	23,(1, 7),1	24,(1, 10),11	35,(1, 20),11	
