50
# CPU
0,0,1	1,2,4	5,16,4	9,15,4	13,20,4	17,7,4	35,8,4	
3,1,4	7,3,4	11,10,4	15,17,4	19,6,4	23,18,4	27,11,4	31,19,4	35,5,4	39,4,4	49,21,1	
9,9,4	13,14,4	
11,12,4	15,13,4	
# Incoming
15,(1, 8),20	
1,(0, 1),2	13,(16, 21),4	17,(15, 21),4	21,(9, 21),4	25,(12, 21),4	29,(20, 21),4	33,(14, 21),4	37,(13, 21),4	41,(7, 21),4	45,(8, 21),4	
7,(1, 9),2	11,(1, 14),2	
9,(1, 12),2	11,(2, 13),2	13,(1, 13),2	
# Outgoing
1,(0, 1),2	11,(2, 13),2	13,(16, 21),4	17,(15, 21),4	29,(20, 21),4	41,(7, 21),4	45,(8, 21),4	
7,(1, 9),2	9,(1, 12),2	11,(1, 14),2	13,(1, 13),2	15,(1, 8),20	
21,(9, 21),4	33,(14, 21),4	
25,(12, 21),4	37,(13, 21),4	
