522
# CPU
0,0,1	1,1,26	27,2,26	53,7,26	79,17,26	105,3,26	131,16,26	157,8,26	183,5,26	209,15,26	235,14,26	261,13,26	287,12,26	313,20,26	339,10,26	365,18,26	391,4,26	417,6,26	443,19,26	469,11,26	495,9,26	521,21,1	




# Incoming





# Outgoing





