374
# CPU
0,0,1	1,6,3	4,5,3	7,8,3	10,4,3	13,3,3	16,25,3	19,32,3	22,31,3	25,38,3	28,19,3	31,78,3	34,75,3	37,17,3	40,80,3	43,20,3	46,43,3	
3,2,3	6,29,3	9,37,3	12,54,3	15,50,3	18,35,3	21,48,3	24,46,3	27,57,3	190,10,3	253,66,3	280,30,3	321,21,3	346,52,3	353,71,3	361,76,3	
4,7,3	7,11,3	10,13,3	13,42,3	16,14,3	19,33,3	22,65,3	25,47,3	28,60,3	78,44,3	153,61,3	197,34,3	259,72,3	262,77,3	277,22,3	349,68,3	
76,23,3	100,39,3	103,59,3	106,70,3	125,74,3	152,16,3	187,67,3	232,56,3	252,64,3	270,18,3	279,27,3	307,49,3	320,9,3	340,40,3	345,41,3	348,53,3	373,81,1	
2,1,3	5,12,3	8,28,3	11,55,3	80,26,3	115,73,3	154,63,3	196,15,3	204,45,3	236,58,3	242,62,3	261,79,3	319,51,3	325,24,3	328,36,3	351,69,3	
# Incoming

2,(0, 2),1	7,(7, 57),3	80,(6, 30),2	103,(6, 71),3	154,(5, 66),1	187,(8, 10),3	252,(8, 66),1	279,(4, 30),1	320,(3, 21),1	345,(3, 52),1	351,(3, 71),2	353,(3, 76),8	
3,(0, 7),1	4,(6, 11),3	7,(1, 22),1	8,(1, 60),1	77,(2, 44),1	152,(5, 61),1	196,(8, 34),1	253,(8, 72),6	259,(8, 77),1	270,(4, 22),7	348,(3, 68),1	
7,(6, 16),39	46,(6, 23),30	76,(2, 16),1	77,(12, 81),1	78,(29, 81),1	79,(11, 81),1	80,(28, 81),1	81,(37, 81),1	82,(6, 39),18	100,(6, 59),1	101,(6, 70),2	103,(13, 81),1	104,(55, 81),1	105,(54, 81),1	106,(42, 81),1	107,(50, 81),1	108,(14, 81),1	109,(35, 81),1	110,(33, 81),1	111,(48, 81),1	112,(65, 81),1	113,(46, 81),1	114,(47, 81),1	115,(6, 74),10	125,(5, 16),27	152,(57, 81),1	153,(60, 81),1	154,(44, 81),1	155,(5, 67),32	187,(26, 81),1	188,(73, 81),1	189,(61, 81),1	190,(63, 81),1	193,(10, 81),1	199,(15, 81),1	200,(34, 81),1	204,(8, 56),28	232,(45, 81),1	239,(58, 81),1	242,(8, 64),10	252,(62, 81),1	256,(66, 81),1	261,(4, 18),9	270,(72, 81),1	271,(79, 81),1	272,(77, 81),1	277,(4, 27),2	280,(4, 49),27	307,(22, 81),1	308,(30, 81),1	319,(3, 9),1	322,(51, 81),1	324,(21, 81),1	326,(3, 40),14	340,(3, 41),5	345,(24, 81),1	346,(3, 53),2	348,(36, 81),1	349,(52, 81),1	352,(68, 81),1	354,(69, 81),1	356,(71, 81),1	361,(25, 81),1	362,(32, 81),1	363,(31, 81),1	364,(38, 81),1	365,(19, 81),1	366,(78, 81),1	367,(75, 81),1	368,(17, 81),1	369,(80, 81),1	370,(20, 81),1	371,(43, 81),1	372,(76, 81),1	
1,(0, 1),1	76,(6, 26),4	106,(6, 73),9	153,(5, 63),1	190,(8, 15),6	197,(8, 45),7	232,(8, 58),4	236,(8, 62),6	260,(8, 79),1	307,(4, 51),12	321,(3, 24),4	325,(3, 36),1	349,(3, 69),2	
# Outgoing
1,(0, 1),1	2,(0, 2),1	3,(0, 7),1	4,(6, 11),3	7,(6, 16),39	46,(6, 23),30	76,(6, 26),4	80,(6, 30),2	82,(6, 39),18	100,(6, 59),1	101,(6, 70),2	103,(6, 71),3	106,(6, 73),9	115,(6, 74),10	125,(5, 16),27	152,(5, 61),1	153,(5, 63),1	154,(5, 66),1	155,(5, 67),32	187,(8, 10),3	190,(8, 15),6	196,(8, 34),1	197,(8, 45),7	204,(8, 56),28	232,(8, 58),4	236,(8, 62),6	242,(8, 64),10	252,(8, 66),1	253,(8, 72),6	259,(8, 77),1	260,(8, 79),1	261,(4, 18),9	270,(4, 22),7	277,(4, 27),2	279,(4, 30),1	280,(4, 49),27	307,(4, 51),12	319,(3, 9),1	320,(3, 21),1	321,(3, 24),4	325,(3, 36),1	326,(3, 40),14	340,(3, 41),5	345,(3, 52),1	346,(3, 53),2	348,(3, 68),1	349,(3, 69),2	351,(3, 71),2	353,(3, 76),8	361,(25, 81),1	362,(32, 81),1	363,(31, 81),1	364,(38, 81),1	365,(19, 81),1	366,(78, 81),1	367,(75, 81),1	368,(17, 81),1	369,(80, 81),1	370,(20, 81),1	371,(43, 81),1	
76,(2, 16),1	77,(2, 44),1	78,(29, 81),1	81,(37, 81),1	105,(54, 81),1	107,(50, 81),1	109,(35, 81),1	111,(48, 81),1	113,(46, 81),1	152,(57, 81),1	193,(10, 81),1	256,(66, 81),1	308,(30, 81),1	324,(21, 81),1	349,(52, 81),1	356,(71, 81),1	372,(76, 81),1	
7,(7, 57),3	79,(11, 81),1	103,(13, 81),1	106,(42, 81),1	108,(14, 81),1	110,(33, 81),1	112,(65, 81),1	114,(47, 81),1	153,(60, 81),1	154,(44, 81),1	189,(61, 81),1	200,(34, 81),1	270,(72, 81),1	272,(77, 81),1	307,(22, 81),1	352,(68, 81),1	

7,(1, 22),1	8,(1, 60),1	77,(12, 81),1	80,(28, 81),1	104,(55, 81),1	187,(26, 81),1	188,(73, 81),1	190,(63, 81),1	199,(15, 81),1	232,(45, 81),1	239,(58, 81),1	252,(62, 81),1	271,(79, 81),1	322,(51, 81),1	345,(24, 81),1	348,(36, 81),1	354,(69, 81),1	
