11464
# CPU
3,2,10	13,4,10	23,6,10	33,8,10	43,10,10	53,12,10	63,89,10	73,86,10	83,67,10	93,37,10	103,14,10	113,18,10	123,82,10	133,81,10	143,29,10	153,91,10	163,100,10	173,41,10	183,114,10	193,96,10	203,55,10	213,92,10	223,63,10	233,83,10	243,24,10	253,35,10	1787,95,10	1797,104,10	1807,106,10	1817,109,10	1827,113,10	1837,117,10	1847,118,10	1981,23,10	2027,49,10	2037,51,10	2047,61,10	2113,85,10	2917,25,10	3061,39,10	3083,47,10	3093,57,10	3129,59,10	3139,74,10	3349,76,10	3359,78,10	3471,111,10	3497,16,10	3527,26,10	3537,27,10	3659,65,10	3721,79,10	3731,88,10	3741,94,10	3751,97,10	3779,99,10	3811,120,10	3919,21,10	3969,43,10	4023,45,10	4069,53,10	4079,84,10	4101,98,10	4111,101,10	4153,105,10	4167,110,10	4177,115,10	4187,20,10	4205,22,10	4237,31,10	4281,33,10	4297,69,10	4337,71,10	4347,75,10	4357,77,10	4369,80,10	4447,87,10	4457,90,10	4467,93,10	4491,102,10	4501,103,10	4555,107,10	4565,108,10	4575,112,10	4585,116,10	4595,119,10	11463,121,1	
0,0,1	1,9,10	11,5,10	21,1,10	31,7,10	41,11,10	51,3,10	61,50,10	71,13,10	81,36,10	91,54,10	101,48,10	111,40,10	121,17,10	131,19,10	141,68,10	151,42,10	161,72,10	171,62,10	181,28,10	241,46,10	281,44,10	317,60,10	327,64,10	645,66,10	11163,73,10	11173,15,10	11183,30,10	11201,32,10	11211,34,10	11229,38,10	11247,52,10	11281,56,10	11329,58,10	11451,70,10	
# Incoming
1,(0, 2),2	3,(0, 4),2	5,(0, 6),2	7,(0, 8),2	9,(0, 10),2	11,(0, 12),2	13,(9, 18),18	31,(9, 25),6	37,(9, 26),2	39,(9, 31),34	73,(9, 35),2	75,(9, 39),22	97,(9, 45),1606	1703,(9, 53),6	1709,(9, 69),60	1769,(9, 74),2	1771,(9, 80),14	1785,(9, 95),2	1787,(9, 104),8	1795,(9, 105),2	1797,(9, 106),2	1799,(9, 109),6	1805,(9, 113),6	1811,(9, 117),8	1819,(9, 118),10	1829,(9, 119),2	1831,(9, 120),138	1969,(5, 23),12	1981,(5, 43),10	1991,(5, 45),2	1993,(5, 47),32	2025,(5, 49),2	2027,(5, 51),10	2037,(5, 53),2	2039,(5, 61),4	2043,(5, 69),28	2071,(5, 71),12	2083,(5, 85),30	2113,(5, 88),2	2115,(5, 98),38	2153,(5, 99),22	2175,(5, 101),636	2811,(5, 102),40	2851,(5, 108),12	2863,(1, 16),36	2899,(1, 25),18	2917,(1, 31),104	3021,(1, 33),30	3051,(1, 39),10	3061,(1, 47),22	3083,(1, 57),2	3085,(1, 59),44	3129,(1, 74),2	3131,(1, 76),218	3349,(1, 78),4	3353,(1, 80),40	3393,(1, 88),12	3405,(1, 102),8	3413,(1, 111),58	3471,(1, 115),18	3489,(7, 16),8	3497,(7, 20),20	3517,(7, 21),8	3525,(7, 26),2	3527,(7, 27),2	3529,(7, 65),130	3659,(7, 71),40	3699,(7, 79),22	3721,(7, 88),6	3727,(7, 94),2	3729,(7, 97),12	3741,(7, 99),38	3779,(7, 107),4	3783,(7, 120),28	3811,(11, 21),108	3919,(11, 43),50	3969,(11, 45),54	4023,(11, 53),46	4069,(11, 84),2	4071,(11, 87),2	4073,(11, 90),6	4079,(11, 98),22	4101,(11, 101),2	4103,(11, 105),50	4153,(11, 110),14	4167,(11, 115),2	4169,(3, 20),12	4181,(3, 22),24	4205,(3, 31),32	4237,(3, 33),44	4281,(3, 69),16	4297,(3, 71),40	4337,(3, 75),4	4341,(3, 77),8	4349,(3, 80),20	4369,(3, 87),78	4447,(3, 90),6	4453,(3, 93),2	4455,(3, 102),36	4491,(3, 103),2	4493,(3, 107),62	4555,(3, 108),2	4557,(3, 112),12	4569,(3, 116),14	4583,(3, 119),10	4593,(50, 121),2	4595,(13, 121),2	4597,(36, 121),2	4599,(54, 121),2	4601,(48, 121),2	4603,(40, 121),2	4605,(17, 121),2	4607,(19, 121),2	4609,(68, 121),2	4611,(42, 121),2	4613,(72, 121),2	4615,(62, 121),2	4617,(28, 121),2	4619,(46, 121),2	4621,(44, 121),2	4623,(60, 121),2	4625,(64, 121),2	4627,(66, 121),2	11173,(73, 121),2	11183,(15, 121),2	11193,(30, 121),2	11211,(32, 121),2	11221,(34, 121),2	11239,(38, 121),2	11257,(52, 121),2	11291,(56, 121),2	11339,(58, 121),2	11461,(70, 121),2	
13,(2, 30),8	21,(2, 42),42	63,(2, 52),8	71,(2, 72),2	73,(4, 32),6	79,(4, 44),8	87,(4, 46),2	89,(4, 62),2	91,(6, 28),2	93,(6, 70),2	95,(6, 73),100	195,(8, 30),2	197,(8, 46),44	241,(8, 58),30	271,(10, 44),10	281,(10, 60),36	317,(10, 64),2	319,(10, 66),326	645,(10, 73),10518	11163,(12, 15),2	11165,(12, 30),2	11167,(12, 32),34	11201,(12, 34),2	11203,(12, 38),26	11229,(12, 52),18	11247,(12, 56),34	11281,(12, 58),48	11329,(12, 70),122	
# Outgoing
13,(2, 30),8	21,(2, 42),42	63,(2, 52),8	71,(2, 72),2	73,(4, 32),6	79,(4, 44),8	87,(4, 46),2	89,(4, 62),2	91,(6, 28),2	93,(6, 70),2	95,(6, 73),100	195,(8, 30),2	197,(8, 46),44	241,(8, 58),30	271,(10, 44),10	281,(10, 60),36	317,(10, 64),2	319,(10, 66),326	645,(10, 73),10518	11163,(12, 15),2	11165,(12, 30),2	11167,(12, 32),34	11201,(12, 34),2	11203,(12, 38),26	11229,(12, 52),18	11247,(12, 56),34	11281,(12, 58),48	11329,(12, 70),122	
1,(0, 2),2	3,(0, 4),2	5,(0, 6),2	7,(0, 8),2	9,(0, 10),2	11,(0, 12),2	13,(9, 18),18	31,(9, 25),6	37,(9, 26),2	39,(9, 31),34	73,(9, 35),2	75,(9, 39),22	97,(9, 45),1606	1703,(9, 53),6	1709,(9, 69),60	1769,(9, 74),2	1771,(9, 80),14	1785,(9, 95),2	1787,(9, 104),8	1795,(9, 105),2	1797,(9, 106),2	1799,(9, 109),6	1805,(9, 113),6	1811,(9, 117),8	1819,(9, 118),10	1829,(9, 119),2	1831,(9, 120),138	1969,(5, 23),12	1981,(5, 43),10	1991,(5, 45),2	1993,(5, 47),32	2025,(5, 49),2	2027,(5, 51),10	2037,(5, 53),2	2039,(5, 61),4	2043,(5, 69),28	2071,(5, 71),12	2083,(5, 85),30	2113,(5, 88),2	2115,(5, 98),38	2153,(5, 99),22	2175,(5, 101),636	2811,(5, 102),40	2851,(5, 108),12	2863,(1, 16),36	2899,(1, 25),18	2917,(1, 31),104	3021,(1, 33),30	3051,(1, 39),10	3061,(1, 47),22	3083,(1, 57),2	3085,(1, 59),44	3129,(1, 74),2	3131,(1, 76),218	3349,(1, 78),4	3353,(1, 80),40	3393,(1, 88),12	3405,(1, 102),8	3413,(1, 111),58	3471,(1, 115),18	3489,(7, 16),8	3497,(7, 20),20	3517,(7, 21),8	3525,(7, 26),2	3527,(7, 27),2	3529,(7, 65),130	3659,(7, 71),40	3699,(7, 79),22	3721,(7, 88),6	3727,(7, 94),2	3729,(7, 97),12	3741,(7, 99),38	3779,(7, 107),4	3783,(7, 120),28	3811,(11, 21),108	3919,(11, 43),50	3969,(11, 45),54	4023,(11, 53),46	4069,(11, 84),2	4071,(11, 87),2	4073,(11, 90),6	4079,(11, 98),22	4101,(11, 101),2	4103,(11, 105),50	4153,(11, 110),14	4167,(11, 115),2	4169,(3, 20),12	4181,(3, 22),24	4205,(3, 31),32	4237,(3, 33),44	4281,(3, 69),16	4297,(3, 71),40	4337,(3, 75),4	4341,(3, 77),8	4349,(3, 80),20	4369,(3, 87),78	4447,(3, 90),6	4453,(3, 93),2	4455,(3, 102),36	4491,(3, 103),2	4493,(3, 107),62	4555,(3, 108),2	4557,(3, 112),12	4569,(3, 116),14	4583,(3, 119),10	4593,(50, 121),2	4595,(13, 121),2	4597,(36, 121),2	4599,(54, 121),2	4601,(48, 121),2	4603,(40, 121),2	4605,(17, 121),2	4607,(19, 121),2	4609,(68, 121),2	4611,(42, 121),2	4613,(72, 121),2	4615,(62, 121),2	4617,(28, 121),2	4619,(46, 121),2	4621,(44, 121),2	4623,(60, 121),2	4625,(64, 121),2	4627,(66, 121),2	11173,(73, 121),2	11183,(15, 121),2	11193,(30, 121),2	11211,(32, 121),2	11221,(34, 121),2	11239,(38, 121),2	11257,(52, 121),2	11291,(56, 121),2	11339,(58, 121),2	11461,(70, 121),2	
