41
# CPU
0,41,1	1,35,1	2,8,1	3,23,1	4,36,1	5,27,1	6,19,1	7,11,1	8,5,1	9,12,1	10,38,1	11,18,1	12,39,1	13,22,1	14,10,1	15,13,1	16,16,1	17,7,1	18,34,1	19,32,1	20,20,1	21,33,1	22,40,1	23,31,1	24,25,1	25,17,1	26,30,1	27,29,1	28,24,1	29,37,1	30,14,1	31,28,1	32,15,1	33,9,1	34,21,1	35,4,1	36,6,1	37,3,1	38,1,1	39,2,1	40,0,1	
20,26,1	








# Incoming
21,(26, 1),1	22,(26, 2),13	
1,(41, 26),19	








# Outgoing
1,(41, 26),19	
21,(26, 1),1	22,(26, 2),13	








