2482
# CPU
57,3,22	259,32,22	585,26,22	1309,38,22	1377,8,22	1429,11,22	1505,14,22	1527,17,22	1549,20,22	1581,23,22	1697,29,22	1733,35,22	
29,2,22	89,5,22	393,10,22	557,19,22	849,28,22	1349,7,22	1421,40,22	1443,13,22	1489,16,22	1565,22,22	1697,25,22	1719,34,22	2393,31,22	2433,37,22	
0,0,1	1,1,22	23,4,22	83,6,22	105,24,22	163,9,22	185,12,22	207,30,22	229,33,22	251,15,22	273,18,22	295,21,22	317,27,22	339,39,22	361,36,22	2481,41,1	
# Incoming
29,(0, 3),28	67,(2, 8),56	167,(2, 14),44	215,(2, 17),4	243,(2, 29),4	247,(2, 32),12	259,(2, 38),4	333,(1, 8),4	341,(1, 11),64	405,(1, 14),8	425,(1, 17),4	429,(2, 26),112	581,(1, 26),4	857,(1, 35),4	1305,(1, 38),4	1349,(4, 8),28	1377,(4, 11),52	1441,(4, 14),64	1505,(4, 17),16	1521,(4, 20),4	1565,(4, 23),16	1633,(4, 29),64	1717,(4, 35),16	
1,(0, 2),28	57,(1, 5),32	89,(1, 7),244	337,(1, 10),4	341,(3, 10),52	393,(3, 34),20	413,(1, 16),12	429,(1, 19),128	557,(1, 22),4	561,(1, 25),20	585,(1, 28),264	849,(1, 34),8	861,(1, 37),444	1309,(4, 7),40	1349,(3, 13),64	1413,(3, 40),8	1429,(4, 13),12	1441,(3, 16),48	1525,(4, 22),40	1581,(4, 25),52	1633,(3, 25),64	1697,(4, 31),16	1713,(4, 34),4	1717,(3, 31),676	2393,(3, 37),40	
51,(2, 6),16	79,(3, 6),4	83,(3, 15),4	87,(3, 24),12	99,(3, 27),24	123,(2, 9),40	163,(2, 12),4	167,(3, 30),4	171,(3, 33),40	211,(2, 15),4	219,(2, 18),16	235,(2, 21),4	239,(2, 27),4	263,(2, 39),16	279,(3, 36),32	311,(5, 41),16	413,(32, 41),16	541,(10, 41),16	579,(19, 41),16	607,(26, 41),16	871,(28, 41),16	1331,(38, 41),16	1371,(7, 41),16	1421,(8, 41),16	1443,(40, 41),16	1465,(13, 41),16	1489,(11, 41),16	1511,(16, 41),16	1527,(14, 41),16	1549,(17, 41),16	1571,(20, 41),16	1587,(22, 41),16	1603,(23, 41),16	1719,(25, 41),16	1741,(34, 41),16	2415,(31, 41),16	2433,(29, 41),16	2449,(35, 41),16	2465,(37, 41),16	
# Outgoing
79,(3, 6),4	83,(3, 15),4	87,(3, 24),12	99,(3, 27),24	167,(3, 30),4	171,(3, 33),40	279,(3, 36),32	341,(3, 10),52	393,(3, 34),20	413,(32, 41),16	607,(26, 41),16	1331,(38, 41),16	1349,(3, 13),64	1413,(3, 40),8	1421,(8, 41),16	1441,(3, 16),48	1489,(11, 41),16	1527,(14, 41),16	1549,(17, 41),16	1571,(20, 41),16	1603,(23, 41),16	1633,(3, 25),64	1717,(3, 31),676	2393,(3, 37),40	2433,(29, 41),16	2449,(35, 41),16	
51,(2, 6),16	67,(2, 8),56	123,(2, 9),40	163,(2, 12),4	167,(2, 14),44	211,(2, 15),4	215,(2, 17),4	219,(2, 18),16	235,(2, 21),4	239,(2, 27),4	243,(2, 29),4	247,(2, 32),12	259,(2, 38),4	263,(2, 39),16	311,(5, 41),16	429,(2, 26),112	541,(10, 41),16	579,(19, 41),16	871,(28, 41),16	1371,(7, 41),16	1443,(40, 41),16	1465,(13, 41),16	1511,(16, 41),16	1587,(22, 41),16	1719,(25, 41),16	1741,(34, 41),16	2415,(31, 41),16	2465,(37, 41),16	
1,(0, 2),28	29,(0, 3),28	57,(1, 5),32	89,(1, 7),244	333,(1, 8),4	337,(1, 10),4	341,(1, 11),64	405,(1, 14),8	413,(1, 16),12	425,(1, 17),4	429,(1, 19),128	557,(1, 22),4	561,(1, 25),20	581,(1, 26),4	585,(1, 28),264	849,(1, 34),8	857,(1, 35),4	861,(1, 37),444	1305,(1, 38),4	1309,(4, 7),40	1349,(4, 8),28	1377,(4, 11),52	1429,(4, 13),12	1441,(4, 14),64	1505,(4, 17),16	1521,(4, 20),4	1525,(4, 22),40	1565,(4, 23),16	1581,(4, 25),52	1633,(4, 29),64	1697,(4, 31),16	1713,(4, 34),4	1717,(4, 35),16	
