30750
# CPU
1033,3,143	1176,31,143	3284,26,143	3448,118,143	3745,113,143	4205,112,143	4348,106,143	4491,119,143	5161,12,143	5304,39,143	5447,96,143	5590,111,143	6129,81,143	6272,99,143	6415,25,143	6558,101,143	7573,21,143	7716,41,143	7859,45,143	8002,57,143	8145,65,143	8288,116,143	
517,1,143	660,95,143	2065,6,143	2208,47,143	2351,83,143	3857,38,143	4284,16,143	4427,27,143	5344,35,143	5487,82,143	5630,86,143	5773,114,143	5916,33,143	6059,37,143	6202,75,143	6345,29,143	6488,63,143	6631,67,143	6774,88,143	7565,15,143	7708,18,143	7851,89,143	
0,0,1	1,5,143	144,2,143	8709,109,143	11085,42,143	11228,69,143	11371,92,143	11917,102,143	12061,108,143	13705,34,143	13848,60,143	13991,72,143	14134,76,143	14277,78,143	14420,94,143	14563,14,143	14706,19,143	14849,32,143	14992,46,143	15135,70,143	15278,85,143	15421,107,143	15669,117,143	30749,121,1	
2581,7,143	2724,104,143	3613,9,143	3756,13,143	4129,10,143	4272,64,143	4415,71,143	5356,36,143	5499,51,143	5753,30,143	6157,100,143	6300,17,143	6443,80,143	7513,20,143	7656,43,143	7799,52,143	7942,53,143	8085,54,143	8228,56,143	8371,23,143	8514,49,143	8657,61,143	8800,62,143	8943,79,143	9086,97,143	9229,103,143	9372,115,143	
1549,4,143	3097,8,143	3240,50,143	3485,105,143	3628,58,143	4645,11,143	4788,59,143	4931,66,143	5074,74,143	5633,24,143	5776,73,143	5919,93,143	6062,120,143	6205,40,143	6348,44,143	6491,91,143	6634,68,143	6777,77,143	6920,84,143	7063,22,143	7206,28,143	7349,48,143	7492,55,143	7635,87,143	7778,90,143	7921,98,143	8064,110,143	
# Incoming
517,(0, 3),516	2141,(4, 41),4	2177,(4, 57),8	2189,(4, 81),8	2201,(4, 113),32	2589,(1, 26),36	2641,(1, 39),56	2821,(1, 111),4	2825,(1, 112),4	2829,(1, 113),36	3240,(8, 25),12	3252,(8, 26),32	3288,(8, 39),4	3320,(8, 81),4	3336,(8, 118),112	3689,(6, 101),4	3693,(6, 106),40	3733,(6, 113),12	3745,(6, 116),8	3753,(6, 119),4	3757,(7, 45),4	3825,(9, 25),16	3857,(9, 41),12	4121,(9, 112),84	4205,(9, 119),64	4284,(10, 21),4	4288,(10, 25),8	4304,(10, 57),4	4308,(10, 96),12	4320,(10, 106),4	4352,(10, 119),8	4645,(0, 12),516	5161,(5, 21),316	5633,(5, 25),20	6125,(5, 81),4	6141,(5, 99),4	6173,(5, 116),20	6225,(2, 25),20	6365,(2, 65),4	6405,(2, 101),24	7569,(11, 21),4	7601,(11, 41),4	7605,(11, 45),8	7637,(11, 57),4	7689,(11, 65),4	7717,(11, 116),40	
1,(0, 1),516	1176,(3, 15),16	1192,(3, 16),4	1196,(3, 33),4	1200,(3, 35),4	1549,(0, 6),516	2065,(4, 15),4	2069,(4, 27),40	2109,(4, 38),32	2145,(4, 47),32	2185,(4, 67),4	2197,(4, 88),4	3284,(8, 27),4	3292,(8, 67),28	3324,(8, 82),8	3332,(8, 86),4	3697,(7, 33),20	3749,(7, 63),8	3761,(7, 75),20	3781,(7, 88),4	3797,(9, 18),4	3841,(9, 33),8	3849,(9, 37),4	3853,(9, 38),4	3885,(9, 63),52	3937,(9, 67),76	4013,(9, 75),4	4093,(9, 86),4	4097,(9, 88),4	4272,(10, 16),12	4296,(10, 27),8	4324,(10, 114),28	5316,(12, 29),4	5320,(12, 35),24	5416,(12, 67),20	5452,(12, 82),4	5456,(12, 86),20	5500,(12, 114),24	5653,(5, 29),36	5753,(5, 33),4	5757,(5, 37),4	5885,(5, 75),8	6133,(5, 89),8	6193,(2, 15),16	6253,(2, 29),16	6341,(2, 63),24	6369,(2, 67),4	6381,(2, 88),4	7533,(11, 15),32	7565,(11, 18),4	7701,(11, 89),4	
2585,(1, 19),4	2589,(4, 78),4	2597,(3, 42),4	2601,(4, 94),8	2625,(3, 78),4	2629,(3, 109),4	2633,(4, 117),44	2753,(1, 85),20	2773,(1, 94),8	2793,(1, 102),28	2865,(95, 121),232	3097,(3, 102),312	3409,(31, 121),232	3641,(4, 32),212	3853,(4, 42),2712	6565,(4, 107),944	7509,(6, 14),8	7517,(6, 42),424	7941,(6, 69),24	7965,(6, 117),16	7981,(47, 121),232	8213,(83, 121),232	8445,(7, 94),220	8665,(7, 107),28	8693,(7, 109),16	8709,(104, 121),232	8941,(8, 72),4	8945,(8, 108),16	8961,(50, 121),232	9193,(26, 121),232	9425,(118, 121),232	9657,(105, 121),232	9889,(9, 32),4	9893,(9, 46),8	9901,(9, 70),12	9913,(9, 92),24	9937,(9, 102),12	9949,(9, 107),16	9965,(9, 108),4	9969,(9, 117),12	9981,(58, 121),232	10213,(113, 121),232	10445,(13, 121),232	10677,(38, 121),232	10909,(10, 14),8	10917,(10, 19),164	11081,(10, 42),4	11085,(10, 46),12	11097,(10, 69),4	11101,(10, 70),4	11105,(10, 92),4	11109,(10, 94),512	11621,(10, 102),296	11917,(10, 108),144	12061,(112, 121),232	12293,(64, 121),232	12525,(16, 121),232	12757,(106, 121),232	12989,(71, 121),232	13221,(27, 121),232	13453,(119, 121),232	13685,(11, 14),4	13689,(11, 32),12	13701,(11, 34),4	13705,(11, 46),4	13709,(11, 60),4	13713,(11, 72),4	13717,(11, 76),4	13721,(11, 78),4	13725,(11, 94),80	13805,(59, 121),232	14037,(66, 121),232	14269,(74, 121),232	14501,(12, 14),4	14505,(12, 19),20	14525,(12, 32),148	14673,(12, 46),8	14681,(12, 70),4	14685,(12, 85),56	14741,(12, 107),192	14933,(12, 117),736	15669,(39, 121),232	15901,(35, 121),232	16133,(36, 121),232	16365,(96, 121),232	16597,(82, 121),232	16829,(51, 121),232	17061,(111, 121),232	17293,(86, 121),232	17525,(24, 121),232	17757,(30, 121),232	17989,(114, 121),232	18221,(73, 121),232	18453,(33, 121),232	18685,(93, 121),232	18917,(37, 121),232	19149,(120, 121),232	19381,(81, 121),232	19613,(100, 121),232	19845,(75, 121),232	20077,(40, 121),232	20309,(99, 121),232	20541,(17, 121),232	20773,(29, 121),232	21005,(44, 121),232	21237,(25, 121),232	21469,(80, 121),232	21701,(63, 121),232	21933,(91, 121),232	22165,(101, 121),232	22397,(67, 121),232	22629,(68, 121),232	22861,(88, 121),232	23093,(77, 121),232	23325,(84, 121),232	23557,(22, 121),232	23789,(28, 121),232	24021,(48, 121),232	24253,(55, 121),232	24485,(20, 121),232	24717,(15, 121),232	24949,(21, 121),232	25181,(87, 121),232	25413,(43, 121),232	25645,(18, 121),232	25877,(41, 121),232	26109,(90, 121),232	26341,(52, 121),232	26573,(89, 121),232	26805,(45, 121),232	27037,(98, 121),232	27269,(53, 121),232	27501,(57, 121),232	27733,(110, 121),232	27965,(54, 121),232	28197,(65, 121),232	28429,(56, 121),232	28661,(116, 121),232	28893,(23, 121),232	29125,(49, 121),232	29357,(61, 121),232	29589,(62, 121),232	29821,(79, 121),232	30053,(97, 121),232	30285,(103, 121),232	30517,(115, 121),232	
2065,(0, 7),516	2581,(1, 17),4	2585,(3, 36),12	2597,(4, 52),4	2601,(3, 49),16	2617,(3, 53),4	2621,(3, 71),4	2625,(1, 36),16	2641,(3, 20),48	2689,(3, 115),4	2693,(4, 62),4	2697,(1, 43),4	2701,(1, 52),4	2705,(1, 56),8	2713,(1, 79),40	2753,(4, 43),24	2781,(1, 97),8	2789,(1, 100),4	2793,(4, 56),8	2801,(4, 103),8	2809,(4, 115),8	3097,(0, 9),516	3613,(0, 10),516	4129,(6, 20),4	4133,(6, 23),16	4149,(6, 36),8	4157,(6, 49),8	4165,(6, 52),4	4169,(6, 64),4	4173,(6, 100),104	5304,(12, 23),12	5344,(12, 36),12	5356,(12, 43),4	5376,(12, 49),28	5404,(12, 51),8	5412,(12, 52),4	5476,(12, 103),24	5689,(5, 30),64	5769,(5, 62),88	6097,(5, 79),28	6145,(5, 100),12	6169,(5, 115),4	6209,(2, 17),4	6337,(2, 62),4	6373,(2, 80),4	6429,(2, 103),4	7509,(8, 20),4	7513,(8, 43),4	7517,(8, 52),4	7521,(8, 53),4	7525,(8, 54),4	7529,(8, 56),4	7573,(11, 23),28	7613,(11, 49),24	7641,(11, 61),44	7685,(11, 62),4	7693,(11, 79),8	7705,(11, 97),4	7709,(11, 103),4	7713,(11, 115),4	
1033,(0, 4),516	1549,(3, 28),4	1553,(3, 55),36	1589,(3, 73),16	1605,(3, 84),16	1621,(3, 93),20	1641,(3, 105),76	2581,(0, 8),516	3097,(1, 59),132	3229,(1, 66),4	3233,(1, 73),4	3237,(1, 77),92	3329,(1, 87),24	3353,(1, 91),4	3357,(1, 98),4	3361,(1, 105),124	3485,(6, 22),16	3501,(6, 40),12	3513,(6, 58),4	3517,(6, 68),20	3537,(6, 74),16	3553,(6, 77),92	3645,(6, 84),8	3653,(6, 90),4	3657,(6, 91),32	3689,(7, 22),8	3717,(7, 59),32	3785,(7, 91),8	3793,(7, 110),4	3801,(9, 24),24	3869,(9, 59),16	4017,(9, 77),76	4101,(9, 90),20	4129,(0, 11),516	4645,(10, 44),12	4657,(10, 59),20	4677,(10, 66),32	4709,(10, 87),20	4729,(10, 93),20	5360,(12, 44),16	5436,(12, 68),12	5448,(12, 77),4	5477,(5, 24),156	5633,(12, 73),120	5753,(12, 93),4	5757,(12, 120),4	5761,(5, 40),4	5765,(5, 44),4	5769,(12, 91),64	5857,(5, 68),28	5893,(5, 77),204	6129,(5, 84),4	6157,(5, 110),12	6213,(2, 22),12	6245,(2, 28),8	6269,(2, 48),8	6277,(2, 55),60	6377,(2, 87),4	6385,(2, 90),4	6389,(2, 98),16	6433,(2, 110),4	
# Outgoing
1176,(3, 15),16	1192,(3, 16),4	1196,(3, 33),4	1200,(3, 35),4	1549,(3, 28),4	1553,(3, 55),36	1589,(3, 73),16	1605,(3, 84),16	1621,(3, 93),20	1641,(3, 105),76	2585,(3, 36),12	2597,(3, 42),4	2601,(3, 49),16	2617,(3, 53),4	2621,(3, 71),4	2625,(3, 78),4	2629,(3, 109),4	2641,(3, 20),48	2689,(3, 115),4	3097,(3, 102),312	3409,(31, 121),232	5304,(12, 23),12	5316,(12, 29),4	5320,(12, 35),24	5344,(12, 36),12	5356,(12, 43),4	5360,(12, 44),16	5376,(12, 49),28	5404,(12, 51),8	5412,(12, 52),4	5416,(12, 67),20	5436,(12, 68),12	5448,(12, 77),4	5452,(12, 82),4	5456,(12, 86),20	5476,(12, 103),24	5500,(12, 114),24	5633,(12, 73),120	5753,(12, 93),4	5757,(12, 120),4	5769,(12, 91),64	9193,(26, 121),232	9425,(118, 121),232	10213,(113, 121),232	12061,(112, 121),232	12757,(106, 121),232	13453,(119, 121),232	14501,(12, 14),4	14505,(12, 19),20	14525,(12, 32),148	14673,(12, 46),8	14681,(12, 70),4	14685,(12, 85),56	14741,(12, 107),192	14933,(12, 117),736	15669,(39, 121),232	16365,(96, 121),232	17061,(111, 121),232	19381,(81, 121),232	20309,(99, 121),232	21237,(25, 121),232	22165,(101, 121),232	24949,(21, 121),232	25877,(41, 121),232	26805,(45, 121),232	27501,(57, 121),232	28197,(65, 121),232	28661,(116, 121),232	
2581,(1, 17),4	2585,(1, 19),4	2589,(1, 26),36	2625,(1, 36),16	2641,(1, 39),56	2697,(1, 43),4	2701,(1, 52),4	2705,(1, 56),8	2713,(1, 79),40	2753,(1, 85),20	2773,(1, 94),8	2781,(1, 97),8	2789,(1, 100),4	2793,(1, 102),28	2821,(1, 111),4	2825,(1, 112),4	2829,(1, 113),36	2865,(95, 121),232	3097,(1, 59),132	3229,(1, 66),4	3233,(1, 73),4	3237,(1, 77),92	3329,(1, 87),24	3353,(1, 91),4	3357,(1, 98),4	3361,(1, 105),124	3485,(6, 22),16	3501,(6, 40),12	3513,(6, 58),4	3517,(6, 68),20	3537,(6, 74),16	3553,(6, 77),92	3645,(6, 84),8	3653,(6, 90),4	3657,(6, 91),32	3689,(6, 101),4	3693,(6, 106),40	3733,(6, 113),12	3745,(6, 116),8	3753,(6, 119),4	4129,(6, 20),4	4133,(6, 23),16	4149,(6, 36),8	4157,(6, 49),8	4165,(6, 52),4	4169,(6, 64),4	4173,(6, 100),104	7509,(6, 14),8	7517,(6, 42),424	7941,(6, 69),24	7965,(6, 117),16	7981,(47, 121),232	8213,(83, 121),232	10677,(38, 121),232	12525,(16, 121),232	13221,(27, 121),232	15901,(35, 121),232	16597,(82, 121),232	17293,(86, 121),232	17989,(114, 121),232	18453,(33, 121),232	18917,(37, 121),232	19845,(75, 121),232	20773,(29, 121),232	21701,(63, 121),232	22397,(67, 121),232	22861,(88, 121),232	24717,(15, 121),232	25645,(18, 121),232	26573,(89, 121),232	
1,(0, 1),516	517,(0, 3),516	1033,(0, 4),516	1549,(0, 6),516	2065,(0, 7),516	2581,(0, 8),516	3097,(0, 9),516	3613,(0, 10),516	4129,(0, 11),516	4645,(0, 12),516	5161,(5, 21),316	5477,(5, 24),156	5633,(5, 25),20	5653,(5, 29),36	5689,(5, 30),64	5753,(5, 33),4	5757,(5, 37),4	5761,(5, 40),4	5765,(5, 44),4	5769,(5, 62),88	5857,(5, 68),28	5885,(5, 75),8	5893,(5, 77),204	6097,(5, 79),28	6125,(5, 81),4	6129,(5, 84),4	6133,(5, 89),8	6141,(5, 99),4	6145,(5, 100),12	6157,(5, 110),12	6169,(5, 115),4	6173,(5, 116),20	6193,(2, 15),16	6209,(2, 17),4	6213,(2, 22),12	6225,(2, 25),20	6245,(2, 28),8	6253,(2, 29),16	6269,(2, 48),8	6277,(2, 55),60	6337,(2, 62),4	6341,(2, 63),24	6365,(2, 65),4	6369,(2, 67),4	6373,(2, 80),4	6377,(2, 87),4	6381,(2, 88),4	6385,(2, 90),4	6389,(2, 98),16	6405,(2, 101),24	6429,(2, 103),4	6433,(2, 110),4	
3689,(7, 22),8	3697,(7, 33),20	3717,(7, 59),32	3749,(7, 63),8	3757,(7, 45),4	3761,(7, 75),20	3781,(7, 88),4	3785,(7, 91),8	3793,(7, 110),4	3797,(9, 18),4	3801,(9, 24),24	3825,(9, 25),16	3841,(9, 33),8	3849,(9, 37),4	3853,(9, 38),4	3857,(9, 41),12	3869,(9, 59),16	3885,(9, 63),52	3937,(9, 67),76	4013,(9, 75),4	4017,(9, 77),76	4093,(9, 86),4	4097,(9, 88),4	4101,(9, 90),20	4121,(9, 112),84	4205,(9, 119),64	4272,(10, 16),12	4284,(10, 21),4	4288,(10, 25),8	4296,(10, 27),8	4304,(10, 57),4	4308,(10, 96),12	4320,(10, 106),4	4324,(10, 114),28	4352,(10, 119),8	4645,(10, 44),12	4657,(10, 59),20	4677,(10, 66),32	4709,(10, 87),20	4729,(10, 93),20	8445,(7, 94),220	8665,(7, 107),28	8693,(7, 109),16	8709,(104, 121),232	9889,(9, 32),4	9893,(9, 46),8	9901,(9, 70),12	9913,(9, 92),24	9937,(9, 102),12	9949,(9, 107),16	9965,(9, 108),4	9969,(9, 117),12	10445,(13, 121),232	10909,(10, 14),8	10917,(10, 19),164	11081,(10, 42),4	11085,(10, 46),12	11097,(10, 69),4	11101,(10, 70),4	11105,(10, 92),4	11109,(10, 94),512	11621,(10, 102),296	11917,(10, 108),144	12293,(64, 121),232	12989,(71, 121),232	16133,(36, 121),232	16829,(51, 121),232	17757,(30, 121),232	19613,(100, 121),232	20541,(17, 121),232	21469,(80, 121),232	24485,(20, 121),232	25413,(43, 121),232	26341,(52, 121),232	27269,(53, 121),232	27965,(54, 121),232	28429,(56, 121),232	28893,(23, 121),232	29125,(49, 121),232	29357,(61, 121),232	29589,(62, 121),232	29821,(79, 121),232	30053,(97, 121),232	30285,(103, 121),232	30517,(115, 121),232	
2065,(4, 15),4	2069,(4, 27),40	2109,(4, 38),32	2141,(4, 41),4	2145,(4, 47),32	2177,(4, 57),8	2185,(4, 67),4	2189,(4, 81),8	2197,(4, 88),4	2201,(4, 113),32	2589,(4, 78),4	2597,(4, 52),4	2601,(4, 94),8	2633,(4, 117),44	2693,(4, 62),4	2753,(4, 43),24	2793,(4, 56),8	2801,(4, 103),8	2809,(4, 115),8	3240,(8, 25),12	3252,(8, 26),32	3284,(8, 27),4	3288,(8, 39),4	3292,(8, 67),28	3320,(8, 81),4	3324,(8, 82),8	3332,(8, 86),4	3336,(8, 118),112	3641,(4, 32),212	3853,(4, 42),2712	6565,(4, 107),944	7509,(8, 20),4	7513,(8, 43),4	7517,(8, 52),4	7521,(8, 53),4	7525,(8, 54),4	7529,(8, 56),4	7533,(11, 15),32	7565,(11, 18),4	7569,(11, 21),4	7573,(11, 23),28	7601,(11, 41),4	7605,(11, 45),8	7613,(11, 49),24	7637,(11, 57),4	7641,(11, 61),44	7685,(11, 62),4	7689,(11, 65),4	7693,(11, 79),8	7701,(11, 89),4	7705,(11, 97),4	7709,(11, 103),4	7713,(11, 115),4	7717,(11, 116),40	8941,(8, 72),4	8945,(8, 108),16	8961,(50, 121),232	9657,(105, 121),232	9981,(58, 121),232	13685,(11, 14),4	13689,(11, 32),12	13701,(11, 34),4	13705,(11, 46),4	13709,(11, 60),4	13713,(11, 72),4	13717,(11, 76),4	13721,(11, 78),4	13725,(11, 94),80	13805,(59, 121),232	14037,(66, 121),232	14269,(74, 121),232	17525,(24, 121),232	18221,(73, 121),232	18685,(93, 121),232	19149,(120, 121),232	20077,(40, 121),232	21005,(44, 121),232	21933,(91, 121),232	22629,(68, 121),232	23093,(77, 121),232	23325,(84, 121),232	23557,(22, 121),232	23789,(28, 121),232	24021,(48, 121),232	24253,(55, 121),232	25181,(87, 121),232	26109,(90, 121),232	27037,(98, 121),232	27733,(110, 121),232	
