312
# CPU
0,41,1	1,40,13	14,39,13	27,5,13	40,24,13	53,30,13	66,16,13	79,18,13	92,27,13	105,14,13	118,22,13	131,28,13	144,8,13	157,23,13	170,13,13	183,34,13	196,25,13	209,31,13	222,33,13	235,2,13	248,1,13	311,0,1	
25,17,13	49,32,13	73,20,13	97,11,13	121,36,13	145,10,13	169,12,13	193,38,13	217,35,13	230,3,13	
13,26,13	37,37,13	61,9,13	85,19,13	109,15,13	133,29,13	157,7,13	181,6,13	205,21,13	259,4,13	
# Incoming
146,(29, 2),2	148,(26, 1),2	150,(32, 1),2	152,(19, 1),4	156,(11, 1),6	162,(29, 1),8	170,(10, 1),10	182,(12, 1),8	243,(3, 0),34	277,(4, 0),34	
13,(41, 17),12	26,(26, 3),2	37,(41, 32),12	50,(37, 3),2	61,(41, 20),12	74,(9, 3),2	85,(41, 11),12	109,(41, 36),12	133,(41, 10),12	157,(41, 12),12	181,(41, 38),12	205,(41, 35),12	217,(5, 3),2	219,(30, 3),2	221,(18, 3),4	225,(27, 3),4	
1,(41, 26),12	25,(41, 37),12	49,(41, 9),12	73,(41, 19),12	97,(41, 15),12	121,(41, 29),12	145,(41, 7),12	162,(17, 4),2	164,(20, 4),2	166,(11, 4),2	169,(41, 6),12	193,(41, 21),12	229,(24, 4),2	231,(34, 4),10	241,(33, 4),18	
# Outgoing
1,(41, 26),12	13,(41, 17),12	25,(41, 37),12	37,(41, 32),12	49,(41, 9),12	61,(41, 20),12	73,(41, 19),12	85,(41, 11),12	97,(41, 15),12	109,(41, 36),12	121,(41, 29),12	133,(41, 10),12	145,(41, 7),12	157,(41, 12),12	169,(41, 6),12	181,(41, 38),12	193,(41, 21),12	205,(41, 35),12	217,(5, 3),2	219,(30, 3),2	221,(18, 3),4	225,(27, 3),4	229,(24, 4),2	231,(34, 4),10	241,(33, 4),18	
150,(32, 1),2	156,(11, 1),6	162,(17, 4),2	164,(20, 4),2	166,(11, 4),2	170,(10, 1),10	182,(12, 1),8	243,(3, 0),34	
26,(26, 3),2	50,(37, 3),2	74,(9, 3),2	146,(29, 2),2	148,(26, 1),2	152,(19, 1),4	162,(29, 1),8	277,(4, 0),34	
