6382
# CPU
397,10,5	793,20,5	1177,90,5	1257,130,5	1393,120,5	1489,70,5	2025,200,5	2033,30,5	2053,110,5	3501,190,5	3597,150,5	3713,60,5	3793,100,5	3825,140,5	4033,40,5	4329,180,5	4893,50,5	5129,80,5	5381,170,5	5521,160,5	
353,9,5	749,19,5	797,39,5	825,179,5	1021,29,5	1157,109,5	1169,149,5	1733,89,5	1813,119,5	3661,59,5	3721,79,5	3753,189,5	4093,169,5	4269,99,5	4453,199,5	4533,129,5	4649,139,5	4781,49,5	4993,69,5	5809,159,5	
309,8,5	705,18,5	757,48,5	1017,28,5	1369,78,5	1609,58,5	1629,68,5	1634,98,5	1801,38,5	1965,138,5	1997,118,5	2233,128,5	2289,158,5	2817,178,5	2849,198,5	3089,108,5	3737,88,5	3825,148,5	4325,168,5	6041,188,5	
265,7,5	661,17,5	1013,57,5	1105,47,5	1213,67,5	1218,97,5	1309,117,5	1377,137,5	1429,187,5	1481,157,5	1593,77,5	1677,27,5	2001,147,5	2573,87,5	2637,127,5	3445,167,5	3549,37,5	3781,107,5	4073,177,5	4105,197,5	
221,6,5	617,16,5	1137,56,5	1145,46,5	1253,36,5	1449,76,5	1761,96,5	1801,146,5	1821,86,5	1901,126,5	1973,66,5	2057,156,5	2289,166,5	3445,186,5	3849,26,5	3997,116,5	4169,106,5	4265,136,5	4405,196,5	5717,176,5	
177,5,5	197,55,5	529,45,5	573,15,5	578,145,5	2797,35,5	3041,95,5	3053,125,5	3349,85,5	3357,135,5	3509,25,5	3517,165,5	3529,175,5	3705,65,5	3713,75,5	3769,105,5	3785,115,5	3790,155,5	4077,185,5	4357,195,5	
133,4,5	353,44,5	437,54,5	529,14,5	753,114,5	761,164,5	1017,144,5	1569,34,5	1665,24,5	1769,94,5	1774,104,5	1825,124,5	2405,74,5	2429,154,5	2533,64,5	3441,184,5	3745,84,5	3817,134,5	4401,194,5	5393,174,5	
89,3,5	485,13,5	625,153,5	685,103,5	825,23,5	1017,163,5	1029,83,5	1201,53,5	1485,33,5	1661,123,5	1781,73,5	1809,113,5	2557,193,5	2741,63,5	3505,143,5	3597,43,5	3749,93,5	3793,133,5	4345,173,5	5949,183,5	
45,2,5	161,122,5	441,12,5	501,112,5	713,192,5	753,82,5	861,72,5	977,22,5	1137,132,5	1581,62,5	1633,92,5	1977,152,5	2097,102,5	2133,142,5	2169,182,5	2577,172,5	3253,32,5	3553,42,5	3645,52,5	3845,162,5	
0,0,1	1,11,5	6,1,5	137,21,5	161,31,5	405,61,5	577,161,5	781,181,5	1069,171,5	1257,151,5	1613,131,5	1725,41,5	1773,101,5	2025,71,5	2037,81,5	3005,91,5	3141,51,5	3217,121,5	3245,191,5	3781,111,5	4281,141,5	6381,201,1	
# Incoming
353,(0, 10),44	397,(2, 40),16	413,(3, 100),4	417,(3, 120),60	477,(4, 150),4	481,(5, 30),20	501,(2, 70),24	525,(9, 160),4	529,(6, 70),12	541,(4, 160),8	549,(6, 30),28	577,(2, 160),12	589,(5, 40),88	677,(7, 90),20	697,(7, 160),52	749,(0, 20),44	793,(8, 100),56	849,(8, 120),4	853,(8, 170),12	865,(9, 60),52	917,(19, 180),4	921,(6, 150),56	977,(13, 50),20	997,(14, 30),20	1021,(11, 40),8	1029,(6, 170),60	1089,(9, 90),88	1177,(12, 100),36	1213,(12, 110),8	1221,(12, 190),8	1229,(14, 100),8	1237,(14, 130),20	1257,(15, 60),4	1261,(17, 30),12	1277,(14, 120),40	1369,(12, 120),24	1393,(15, 150),4	1401,(11, 70),88	1489,(3, 30),520	2009,(9, 190),8	2017,(9, 200),8	2025,(16, 30),8	2033,(16, 60),4	2037,(16, 100),12	2049,(16, 110),4	2053,(16, 190),4	2057,(11, 180),1320	3377,(13, 170),40	3417,(19, 140),12	3445,(11, 190),56	3501,(8, 150),96	3597,(1, 50),44	3645,(1, 60),68	3713,(18, 100),80	3793,(18, 140),32	3825,(1, 160),8	3845,(1, 170),4	3849,(13, 40),184	4033,(13, 160),120	4153,(14, 180),176	4329,(15, 50),564	4893,(19, 160),84	4993,(15, 80),136	5129,(15, 170),252	5381,(16, 160),140	
309,(0, 9),44	353,(4, 49),4	357,(7, 109),4	389,(2, 99),8	449,(6, 89),12	461,(4, 129),16	477,(6, 69),52	541,(6, 149),4	561,(14, 49),4	569,(12, 39),4	577,(13, 89),4	589,(8, 149),4	593,(13, 149),16	633,(7, 189),24	657,(8, 159),44	705,(0, 19),44	749,(18, 69),4	753,(5, 149),4	757,(18, 119),4	793,(16, 39),4	797,(16, 49),4	805,(4, 179),20	837,(5, 159),20	857,(14, 119),48	953,(14, 129),16	1017,(11, 29),4	1029,(11, 49),20	1049,(5, 199),48	1105,(15, 49),32	1137,(16, 89),12	1149,(16, 109),8	1157,(17, 69),8	1165,(17, 149),4	1173,(16, 169),4	1193,(10, 89),4	1197,(10, 99),20	1257,(10, 159),4	1261,(15, 59),84	1397,(10, 169),4	1429,(10, 189),4	1481,(18, 59),20	1601,(11, 89),132	1733,(10, 199),32	1809,(11, 119),4	1813,(2, 59),1848	3661,(16, 189),40	3713,(1, 79),8	3721,(20, 189),32	3785,(1, 129),4	3789,(7, 169),304	4093,(8, 99),176	4269,(8, 199),184	4453,(12, 129),80	4533,(13, 139),116	4649,(20, 49),132	4893,(15, 69),100	5717,(17, 159),92	
265,(0, 8),44	309,(6, 128),20	333,(2, 78),16	349,(2, 98),40	405,(7, 68),4	413,(2, 48),88	501,(9, 88),4	505,(9, 128),8	513,(13, 78),4	525,(2, 118),4	529,(3, 58),48	577,(4, 138),24	601,(7, 28),32	633,(9, 98),28	661,(0, 18),44	705,(9, 138),8	713,(5, 138),4	717,(9, 38),32	749,(9, 198),4	753,(17, 48),4	757,(17, 68),4	761,(19, 88),4	773,(6, 158),20	797,(11, 28),220	1017,(4, 88),132	1149,(4, 178),48	1197,(6, 168),12	1209,(9, 58),52	1261,(10, 38),56	1317,(10, 78),12	1329,(12, 78),40	1369,(14, 108),4	1381,(10, 158),16	1397,(11, 68),4	1401,(12, 58),116	1517,(12, 88),64	1581,(14, 58),28	1609,(15, 68),20	1629,(19, 98),4	1633,(16, 148),4	1661,(15, 148),76	1765,(11, 108),32	1797,(20, 38),4	1901,(11, 128),56	1957,(11, 138),8	1977,(16, 118),20	2001,(11, 148),8	2009,(16, 178),16	2097,(13, 128),136	2233,(16, 158),56	2453,(20, 148),76	2713,(20, 178),104	2817,(20, 198),32	2933,(19, 108),156	3721,(17, 88),16	3817,(1, 148),8	4281,(17, 168),44	5949,(17, 188),92	
221,(0, 7),44	265,(2, 47),60	325,(2, 77),8	333,(3, 27),16	349,(3, 47),8	357,(4, 27),20	377,(8, 57),28	421,(4, 97),8	429,(8, 87),4	433,(8, 97),12	445,(6, 67),4	449,(9, 27),8	457,(4, 117),4	461,(6, 117),4	465,(8, 27),72	541,(2, 137),28	569,(9, 37),16	585,(9, 77),20	605,(9, 137),8	617,(0, 17),44	661,(13, 77),8	693,(5, 117),20	717,(5, 177),4	721,(6, 107),28	765,(5, 127),40	905,(18, 37),36	941,(18, 87),32	977,(12, 47),4	981,(12, 57),32	1017,(9, 147),72	1089,(16, 27),4	1097,(15, 47),8	1137,(10, 77),56	1193,(15, 67),20	1213,(15, 97),4	1221,(10, 127),4	1225,(10, 137),4	1229,(12, 87),32	1261,(12, 117),48	1309,(12, 137),8	1345,(15, 137),32	1425,(10, 187),4	1469,(16, 157),12	1489,(11, 77),104	1593,(18, 27),84	1677,(19, 197),8	1801,(20, 177),24	1965,(11, 147),36	2001,(14, 87),572	2573,(20, 127),64	2637,(20, 167),76	2741,(19, 107),192	2933,(20, 37),200	3245,(20, 197),24	3337,(18, 167),108	3509,(1, 37),40	3769,(1, 107),12	3877,(1, 177),196	4073,(12, 197),32	
177,(0, 6),44	221,(4, 26),16	237,(4, 36),4	241,(2, 106),24	265,(4, 46),12	277,(4, 56),12	289,(4, 86),4	293,(3, 196),40	333,(8, 26),12	353,(7, 66),4	357,(8, 76),8	365,(8, 116),4	369,(7, 146),8	377,(4, 76),44	421,(9, 26),4	425,(8, 146),4	429,(4, 116),28	457,(9, 36),28	485,(9, 66),8	493,(13, 76),4	513,(4, 136),28	573,(0, 16),44	617,(4, 156),144	761,(5, 116),4	765,(9, 106),32	801,(19, 86),4	805,(5, 146),32	857,(5, 196),144	1001,(8, 56),136	1137,(12, 96),4	1141,(17, 46),4	1177,(9, 176),32	1209,(13, 36),44	1261,(9, 76),188	1449,(10, 116),212	1661,(10, 156),8	1669,(12, 86),64	1733,(18, 26),16	1749,(18, 166),4	1753,(11, 96),8	1761,(12, 146),40	1801,(18, 86),20	1825,(11, 126),76	1901,(18, 66),72	2009,(11, 156),48	2233,(13, 166),56	2353,(20, 106),36	3441,(11, 186),4	3501,(11, 196),4	3661,(12, 26),188	3853,(1, 176),24	3877,(12, 116),120	4093,(17, 106),76	4169,(17, 136),96	4401,(1, 196),4	5393,(7, 176),324	
133,(0, 5),44	177,(2, 55),4	181,(3, 55),16	197,(4, 75),4	201,(4, 85),12	213,(4, 145),4	225,(2, 75),4	229,(2, 95),12	241,(6, 25),56	297,(7, 25),20	329,(6, 195),16	345,(8, 75),4	365,(7, 145),4	369,(8, 105),8	377,(6, 65),68	445,(7, 35),52	497,(7, 135),24	521,(7, 155),4	525,(13, 45),4	529,(0, 15),44	573,(2, 145),4	577,(6, 75),140	717,(8, 115),24	741,(13, 75),4	749,(6, 135),24	773,(18, 35),12	785,(18, 115),8	793,(11, 25),4	797,(19, 65),4	825,(4, 185),24	849,(13, 165),56	905,(14, 65),12	917,(14, 105),36	969,(14, 155),12	1013,(12, 65),4	1017,(16, 35),8	1053,(11, 65),344	1397,(7, 85),668	2065,(9, 115),260	2325,(9, 135),300	2625,(13, 35),172	2797,(13, 115),112	2909,(16, 65),8	2917,(16, 85),108	3025,(16, 95),16	3041,(16, 125),12	3089,(19, 115),24	3141,(18, 75),44	3185,(18, 105),132	3317,(18, 135),20	3337,(20, 85),12	3349,(20, 105),4	3353,(20, 135),4	3505,(1, 25),4	3509,(7, 165),8	3517,(7, 175),12	3529,(17, 65),176	3705,(17, 75),8	3749,(1, 105),20	3781,(1, 115),4	3785,(17, 155),4	4073,(1, 185),4	4345,(17, 195),12	
89,(0, 4),44	173,(2, 194),4	197,(3, 114),28	273,(3, 174),20	333,(7, 44),20	361,(7, 124),4	405,(8, 64),16	433,(9, 54),4	441,(7, 184),4	485,(0, 14),44	529,(5, 34),4	533,(7, 84),48	581,(13, 24),4	585,(13, 94),4	589,(2, 164),8	597,(2, 174),148	745,(5, 74),4	749,(5, 114),4	753,(13, 174),4	757,(5, 164),4	761,(7, 74),216	977,(8, 124),16	997,(9, 144),20	1017,(10, 24),72	1089,(12, 24),44	1133,(10, 64),4	1137,(8, 74),344	1481,(15, 24),68	1549,(15, 34),20	1569,(15, 104),8	1593,(11, 84),8	1609,(12, 174),20	1629,(12, 194),16	1645,(16, 104),16	1661,(19, 24),4	1669,(20, 64),64	1733,(11, 94),20	1765,(20, 94),4	1769,(20, 104),4	1813,(11, 124),12	1825,(10, 134),528	2353,(13, 74),52	2405,(13, 154),24	2429,(15, 64),104	2533,(16, 84),48	3005,(7, 134),320	3377,(11, 184),64	3713,(17, 84),8	3721,(1, 84),24	3793,(1, 134),24	3849,(1, 174),4	4077,(1, 194),324	4401,(7, 174),992	
45,(0, 3),44	89,(2, 23),8	125,(2, 53),28	153,(2, 83),20	173,(4, 113),4	181,(2, 63),44	241,(4, 43),20	297,(6, 63),4	305,(6, 173),4	317,(7, 33),16	421,(8, 123),4	425,(9, 43),8	437,(9, 123),4	441,(0, 13),44	485,(4, 93),28	513,(9, 113),8	521,(9, 163),4	525,(5, 133),4	529,(2, 133),12	549,(4, 173),12	565,(14, 113),4	569,(8, 103),20	613,(9, 153),12	637,(8, 163),12	666,(17, 123),4	677,(5, 103),8	685,(5, 113),8	717,(16, 123),4	721,(5, 193),8	754,(19, 53),4	801,(12, 23),24	825,(12, 33),152	977,(6, 163),40	1017,(12, 83),12	1049,(11, 63),4	1093,(16, 63),44	1157,(16, 133),16	1173,(17, 53),28	1209,(6, 193),260	1469,(14, 33),16	1485,(14, 93),76	1581,(12, 173),28	1613,(19, 173),8	1629,(15, 123),32	1677,(18, 113),52	1737,(15, 173),40	1777,(20, 73),4	1797,(11, 113),12	2389,(20, 133),64	2529,(20, 193),28	2625,(19, 63),116	3325,(7, 143),180	3553,(1, 43),44	3745,(1, 93),4	3789,(1, 133),4	4325,(17, 173),20	5809,(17, 183),140	
1,(0, 2),44	137,(3, 22),12	149,(4, 22),4	153,(4, 82),4	157,(4, 122),4	161,(4, 162),4	225,(3, 152),20	245,(3, 172),28	301,(6, 162),4	349,(8, 92),8	397,(0, 12),44	497,(13, 112),4	501,(5, 32),16	517,(5, 82),8	525,(7, 182),8	533,(5, 52),56	593,(8, 162),44	661,(9, 132),20	701,(8, 192),12	713,(13, 32),28	741,(15, 62),4	749,(17, 82),4	761,(4, 172),44	805,(19, 22),52	857,(19, 72),4	865,(8, 172),40	905,(13, 22),72	977,(7, 132),160	1137,(15, 32),16	1153,(15, 102),8	1161,(15, 162),4	1201,(17, 92),36	1237,(17, 172),16	1329,(10, 152),52	1401,(10, 172),24	1449,(9, 102),68	1517,(16, 62),64	1581,(16, 92),52	1633,(19, 142),8	1641,(19, 182),8	1761,(11, 102),4	1765,(9, 152),212	2009,(13, 102),88	2097,(18, 142),36	2133,(18, 182),36	2429,(13, 172),148	2577,(18, 32),564	3141,(19, 32),112	3549,(1, 42),4	3641,(1, 52),4	3833,(1, 162),12	
97,(2, 31),28	125,(3, 21),12	149,(3, 31),12	161,(3, 51),16	177,(3, 141),4	181,(4, 111),4	185,(4, 141),4	293,(4, 91),56	349,(6, 41),28	377,(7, 61),28	409,(7, 111),12	421,(7, 151),20	445,(8, 121),20	501,(13, 191),4	537,(8, 81),32	569,(14, 161),8	581,(7, 181),16	601,(14, 181),4	630,(153, 201),20	690,(103, 201),20	745,(2, 181),36	781,(122, 201),20	801,(6, 141),120	921,(9, 141),76	1001,(55, 201),20	1025,(16, 131),4	1029,(12, 101),36	1065,(12, 171),4	1069,(112, 201),20	1089,(10, 41),44	1141,(12, 121),28	1169,(45, 201),20	1197,(44, 201),20	1217,(10, 91),4	1229,(10, 151),28	1257,(54, 201),20	1277,(13, 51),124	1401,(14, 41),40	1441,(15, 131),40	1481,(16, 71),32	1517,(9, 131),96	1613,(14, 191),64	1677,(16, 41),48	1725,(16, 101),48	1777,(145, 201),20	1797,(16, 51),180	1977,(18, 71),48	2025,(18, 81),12	2037,(48, 201),20	2065,(7, 91),940	3005,(114, 201),20	3025,(164, 201),20	3045,(23, 201),20	3065,(163, 201),20	3085,(144, 201),20	3113,(39, 201),20	3133,(20, 51),8	3141,(20, 121),76	3217,(20, 191),28	3253,(179, 201),20	3273,(29, 201),20	3293,(83, 201),20	3313,(56, 201),20	3333,(46, 201),20	3353,(109, 201),20	3373,(149, 201),20	3393,(90, 201),20	3417,(53, 201),20	3445,(28, 201),20	3465,(36, 201),20	3485,(130, 201),20	3505,(120, 201),20	3525,(76, 201),20	3545,(33, 201),20	3565,(70, 201),20	3597,(78, 201),20	3617,(34, 201),20	3637,(58, 201),20	3657,(68, 201),20	3677,(98, 201),20	3697,(123, 201),20	3717,(24, 201),20	3737,(17, 111),44	3781,(89, 201),20	3801,(96, 201),20	3821,(94, 201),20	3849,(192, 201),20	3869,(104, 201),20	3889,(38, 201),20	3909,(146, 201),20	3929,(119, 201),20	3949,(86, 201),20	3969,(124, 201),20	3997,(82, 201),20	4017,(72, 201),20	4037,(22, 201),20	4057,(126, 201),20	4077,(66, 201),20	4105,(132, 201),20	4125,(62, 201),20	4145,(92, 201),20	4165,(73, 201),20	4185,(113, 201),20	4205,(152, 201),20	4225,(200, 201),20	4245,(30, 201),20	4265,(17, 141),16	4281,(110, 201),20	4301,(156, 201),20	4321,(102, 201),20	4357,(57, 201),20	4377,(47, 201),20	4397,(142, 201),20	4417,(182, 201),20	4453,(138, 201),20	4473,(118, 201),20	4493,(128, 201),20	4513,(158, 201),20	4533,(166, 201),20	4553,(74, 201),20	4573,(154, 201),20	4593,(64, 201),20	4613,(172, 201),20	4649,(193, 201),20	4669,(63, 201),20	4689,(178, 201),20	4709,(198, 201),20	4729,(108, 201),20	4749,(32, 201),20	4769,(184, 201),20	4789,(186, 201),20	4809,(190, 201),20	4829,(143, 201),20	4849,(42, 201),20	4869,(150, 201),20	4889,(43, 201),20	4909,(52, 201),20	4929,(60, 201),20	4949,(88, 201),20	4977,(59, 201),20	4997,(79, 201),20	5017,(84, 201),20	5037,(93, 201),20	5057,(189, 201),20	5077,(100, 201),20	5097,(133, 201),20	5117,(134, 201),20	5137,(148, 201),20	5157,(140, 201),20	5177,(162, 201),20	5197,(26, 201),20	5217,(116, 201),20	5237,(40, 201),20	5257,(169, 201),20	5277,(106, 201),20	5297,(136, 201),20	5317,(99, 201),20	5337,(168, 201),20	5357,(180, 201),20	5381,(35, 201),20	5401,(95, 201),20	5421,(125, 201),20	5441,(85, 201),20	5461,(135, 201),20	5481,(25, 201),20	5501,(165, 201),20	5521,(175, 201),20	5541,(65, 201),20	5561,(75, 201),20	5581,(105, 201),20	5601,(115, 201),20	5621,(155, 201),20	5641,(185, 201),20	5661,(173, 201),20	5681,(195, 201),20	5701,(194, 201),20	5721,(196, 201),20	5741,(199, 201),20	5761,(129, 201),20	5781,(139, 201),20	5801,(49, 201),20	5821,(50, 201),20	5841,(69, 201),20	5861,(80, 201),20	5881,(170, 201),20	5901,(174, 201),20	5921,(160, 201),20	5941,(176, 201),20	5961,(159, 201),20	5981,(183, 201),20	6041,(67, 201),20	6061,(97, 201),20	6081,(117, 201),20	6101,(137, 201),20	6121,(187, 201),20	6141,(157, 201),20	6161,(77, 201),20	6181,(27, 201),20	6201,(147, 201),20	6221,(87, 201),20	6241,(127, 201),20	6261,(167, 201),20	6281,(37, 201),20	6301,(107, 201),20	6321,(177, 201),20	6341,(197, 201),20	6361,(188, 201),20	
# Outgoing
1017,(10, 24),72	1089,(10, 41),44	1133,(10, 64),4	1137,(10, 77),56	1193,(10, 89),4	1197,(10, 99),20	1217,(10, 91),4	1221,(10, 127),4	1225,(10, 137),4	1229,(10, 151),28	1257,(10, 159),4	1261,(10, 38),56	1317,(10, 78),12	1329,(10, 152),52	1381,(10, 158),16	1397,(10, 169),4	1401,(10, 172),24	1425,(10, 187),4	1429,(10, 189),4	1449,(10, 116),212	1661,(10, 156),8	1669,(20, 64),64	1733,(10, 199),32	1765,(20, 94),4	1769,(20, 104),4	1777,(20, 73),4	1797,(20, 38),4	1801,(20, 177),24	1825,(10, 134),528	2353,(20, 106),36	2389,(20, 133),64	2453,(20, 148),76	2529,(20, 193),28	2573,(20, 127),64	2637,(20, 167),76	2713,(20, 178),104	2817,(20, 198),32	2933,(20, 37),200	3133,(20, 51),8	3141,(20, 121),76	3217,(20, 191),28	3245,(20, 197),24	3337,(20, 85),12	3349,(20, 105),4	3353,(20, 135),4	3393,(90, 201),20	3485,(130, 201),20	3505,(120, 201),20	3565,(70, 201),20	3721,(20, 189),32	4225,(200, 201),20	4245,(30, 201),20	4281,(110, 201),20	4649,(20, 49),132	4809,(190, 201),20	4869,(150, 201),20	4929,(60, 201),20	5077,(100, 201),20	5157,(140, 201),20	5237,(40, 201),20	5357,(180, 201),20	5821,(50, 201),20	5861,(80, 201),20	5881,(170, 201),20	5921,(160, 201),20	
421,(9, 26),4	425,(9, 43),8	433,(9, 54),4	437,(9, 123),4	449,(9, 27),8	457,(9, 36),28	485,(9, 66),8	501,(9, 88),4	505,(9, 128),8	513,(9, 113),8	521,(9, 163),4	525,(9, 160),4	569,(9, 37),16	585,(9, 77),20	605,(9, 137),8	613,(9, 153),12	633,(9, 98),28	661,(9, 132),20	705,(9, 138),8	717,(9, 38),32	749,(9, 198),4	754,(19, 53),4	761,(19, 88),4	765,(9, 106),32	797,(19, 65),4	801,(19, 86),4	805,(19, 22),52	857,(19, 72),4	865,(9, 60),52	917,(19, 180),4	921,(9, 141),76	997,(9, 144),20	1017,(9, 147),72	1089,(9, 90),88	1177,(9, 176),32	1209,(9, 58),52	1261,(9, 76),188	1449,(9, 102),68	1517,(9, 131),96	1613,(19, 173),8	1629,(19, 98),4	1633,(19, 142),8	1641,(19, 182),8	1661,(19, 24),4	1677,(19, 197),8	1765,(9, 152),212	2009,(9, 190),8	2017,(9, 200),8	2065,(9, 115),260	2325,(9, 135),300	2625,(19, 63),116	2741,(19, 107),192	2933,(19, 108),156	3089,(19, 115),24	3113,(39, 201),20	3141,(19, 32),112	3253,(179, 201),20	3273,(29, 201),20	3353,(109, 201),20	3373,(149, 201),20	3417,(19, 140),12	3781,(89, 201),20	3929,(119, 201),20	4893,(19, 160),84	4977,(59, 201),20	4997,(79, 201),20	5057,(189, 201),20	5257,(169, 201),20	5317,(99, 201),20	5741,(199, 201),20	5761,(129, 201),20	5781,(139, 201),20	5801,(49, 201),20	5841,(69, 201),20	5961,(159, 201),20	
333,(8, 26),12	345,(8, 75),4	349,(8, 92),8	357,(8, 76),8	365,(8, 116),4	369,(8, 105),8	377,(8, 57),28	405,(8, 64),16	421,(8, 123),4	425,(8, 146),4	429,(8, 87),4	433,(8, 97),12	445,(8, 121),20	465,(8, 27),72	537,(8, 81),32	569,(8, 103),20	589,(8, 149),4	593,(8, 162),44	637,(8, 163),12	657,(8, 159),44	701,(8, 192),12	717,(8, 115),24	749,(18, 69),4	757,(18, 119),4	773,(18, 35),12	785,(18, 115),8	793,(8, 100),56	849,(8, 120),4	853,(8, 170),12	865,(8, 172),40	905,(18, 37),36	941,(18, 87),32	977,(8, 124),16	1001,(8, 56),136	1137,(8, 74),344	1481,(18, 59),20	1593,(18, 27),84	1677,(18, 113),52	1733,(18, 26),16	1749,(18, 166),4	1801,(18, 86),20	1901,(18, 66),72	1977,(18, 71),48	2025,(18, 81),12	2037,(48, 201),20	2097,(18, 142),36	2133,(18, 182),36	2577,(18, 32),564	3141,(18, 75),44	3185,(18, 105),132	3317,(18, 135),20	3337,(18, 167),108	3445,(28, 201),20	3501,(8, 150),96	3597,(78, 201),20	3637,(58, 201),20	3657,(68, 201),20	3677,(98, 201),20	3713,(18, 100),80	3793,(18, 140),32	3889,(38, 201),20	4093,(8, 99),176	4269,(8, 199),184	4453,(138, 201),20	4473,(118, 201),20	4493,(128, 201),20	4513,(158, 201),20	4689,(178, 201),20	4709,(198, 201),20	4729,(108, 201),20	4949,(88, 201),20	5137,(148, 201),20	5337,(168, 201),20	6361,(188, 201),20	
297,(7, 25),20	317,(7, 33),16	333,(7, 44),20	353,(7, 66),4	357,(7, 109),4	361,(7, 124),4	365,(7, 145),4	369,(7, 146),8	377,(7, 61),28	405,(7, 68),4	409,(7, 111),12	421,(7, 151),20	441,(7, 184),4	445,(7, 35),52	497,(7, 135),24	521,(7, 155),4	525,(7, 182),8	533,(7, 84),48	581,(7, 181),16	601,(7, 28),32	633,(7, 189),24	666,(17, 123),4	677,(7, 90),20	697,(7, 160),52	749,(17, 82),4	753,(17, 48),4	757,(17, 68),4	761,(7, 74),216	977,(7, 132),160	1141,(17, 46),4	1157,(17, 69),8	1165,(17, 149),4	1173,(17, 53),28	1201,(17, 92),36	1237,(17, 172),16	1261,(17, 30),12	1397,(7, 85),668	2065,(7, 91),940	3005,(7, 134),320	3325,(7, 143),180	3509,(7, 165),8	3517,(7, 175),12	3529,(17, 65),176	3705,(17, 75),8	3713,(17, 84),8	3721,(17, 88),16	3737,(17, 111),44	3785,(17, 155),4	3789,(7, 169),304	4093,(17, 106),76	4169,(17, 136),96	4265,(17, 141),16	4281,(17, 168),44	4325,(17, 173),20	4345,(17, 195),12	4357,(57, 201),20	4377,(47, 201),20	4401,(7, 174),992	5393,(7, 176),324	5717,(17, 159),92	5809,(17, 183),140	5949,(17, 188),92	6041,(67, 201),20	6061,(97, 201),20	6081,(117, 201),20	6101,(137, 201),20	6121,(187, 201),20	6141,(157, 201),20	6161,(77, 201),20	6181,(27, 201),20	6201,(147, 201),20	6221,(87, 201),20	6241,(127, 201),20	6261,(167, 201),20	6281,(37, 201),20	6301,(107, 201),20	6321,(177, 201),20	6341,(197, 201),20	
241,(6, 25),56	297,(6, 63),4	301,(6, 162),4	305,(6, 173),4	309,(6, 128),20	329,(6, 195),16	349,(6, 41),28	377,(6, 65),68	445,(6, 67),4	449,(6, 89),12	461,(6, 117),4	477,(6, 69),52	529,(6, 70),12	541,(6, 149),4	549,(6, 30),28	577,(6, 75),140	717,(16, 123),4	721,(6, 107),28	749,(6, 135),24	773,(6, 158),20	793,(16, 39),4	797,(16, 49),4	801,(6, 141),120	921,(6, 150),56	977,(6, 163),40	1017,(16, 35),8	1025,(16, 131),4	1029,(6, 170),60	1089,(16, 27),4	1093,(16, 63),44	1137,(16, 89),12	1149,(16, 109),8	1157,(16, 133),16	1173,(16, 169),4	1197,(6, 168),12	1209,(6, 193),260	1469,(16, 157),12	1481,(16, 71),32	1517,(16, 62),64	1581,(16, 92),52	1633,(16, 148),4	1645,(16, 104),16	1677,(16, 41),48	1725,(16, 101),48	1797,(16, 51),180	1977,(16, 118),20	2009,(16, 178),16	2025,(16, 30),8	2033,(16, 60),4	2037,(16, 100),12	2049,(16, 110),4	2053,(16, 190),4	2233,(16, 158),56	2533,(16, 84),48	2909,(16, 65),8	2917,(16, 85),108	3025,(16, 95),16	3041,(16, 125),12	3313,(56, 201),20	3333,(46, 201),20	3465,(36, 201),20	3525,(76, 201),20	3661,(16, 189),40	3801,(96, 201),20	3909,(146, 201),20	3949,(86, 201),20	4057,(126, 201),20	4077,(66, 201),20	4301,(156, 201),20	4533,(166, 201),20	4789,(186, 201),20	5197,(26, 201),20	5217,(116, 201),20	5277,(106, 201),20	5297,(136, 201),20	5381,(16, 160),140	5721,(196, 201),20	5941,(176, 201),20	
481,(5, 30),20	501,(5, 32),16	517,(5, 82),8	525,(5, 133),4	529,(5, 34),4	533,(5, 52),56	589,(5, 40),88	677,(5, 103),8	685,(5, 113),8	693,(5, 117),20	713,(5, 138),4	717,(5, 177),4	721,(5, 193),8	741,(15, 62),4	745,(5, 74),4	749,(5, 114),4	753,(5, 149),4	757,(5, 164),4	761,(5, 116),4	765,(5, 127),40	805,(5, 146),32	837,(5, 159),20	857,(5, 196),144	1001,(55, 201),20	1049,(5, 199),48	1097,(15, 47),8	1105,(15, 49),32	1137,(15, 32),16	1153,(15, 102),8	1161,(15, 162),4	1169,(45, 201),20	1193,(15, 67),20	1213,(15, 97),4	1257,(15, 60),4	1261,(15, 59),84	1345,(15, 137),32	1393,(15, 150),4	1441,(15, 131),40	1481,(15, 24),68	1549,(15, 34),20	1569,(15, 104),8	1609,(15, 68),20	1629,(15, 123),32	1661,(15, 148),76	1737,(15, 173),40	1777,(145, 201),20	2429,(15, 64),104	4329,(15, 50),564	4893,(15, 69),100	4993,(15, 80),136	5129,(15, 170),252	5381,(35, 201),20	5401,(95, 201),20	5421,(125, 201),20	5441,(85, 201),20	5461,(135, 201),20	5481,(25, 201),20	5501,(165, 201),20	5521,(175, 201),20	5541,(65, 201),20	5561,(75, 201),20	5581,(105, 201),20	5601,(115, 201),20	5621,(155, 201),20	5641,(185, 201),20	5681,(195, 201),20	
149,(4, 22),4	153,(4, 82),4	157,(4, 122),4	161,(4, 162),4	173,(4, 113),4	181,(4, 111),4	185,(4, 141),4	197,(4, 75),4	201,(4, 85),12	213,(4, 145),4	221,(4, 26),16	237,(4, 36),4	241,(4, 43),20	265,(4, 46),12	277,(4, 56),12	289,(4, 86),4	293,(4, 91),56	353,(4, 49),4	357,(4, 27),20	377,(4, 76),44	421,(4, 97),8	429,(4, 116),28	457,(4, 117),4	461,(4, 129),16	477,(4, 150),4	485,(4, 93),28	513,(4, 136),28	541,(4, 160),8	549,(4, 173),12	561,(14, 49),4	565,(14, 113),4	569,(14, 161),8	577,(4, 138),24	601,(14, 181),4	617,(4, 156),144	761,(4, 172),44	805,(4, 179),20	825,(4, 185),24	857,(14, 119),48	905,(14, 65),12	917,(14, 105),36	953,(14, 129),16	969,(14, 155),12	997,(14, 30),20	1017,(4, 88),132	1149,(4, 178),48	1197,(44, 201),20	1229,(14, 100),8	1237,(14, 130),20	1257,(54, 201),20	1277,(14, 120),40	1369,(14, 108),4	1401,(14, 41),40	1469,(14, 33),16	1485,(14, 93),76	1581,(14, 58),28	1613,(14, 191),64	2001,(14, 87),572	3005,(114, 201),20	3025,(164, 201),20	3085,(144, 201),20	3617,(34, 201),20	3717,(24, 201),20	3821,(94, 201),20	3869,(104, 201),20	3969,(124, 201),20	4153,(14, 180),176	4553,(74, 201),20	4573,(154, 201),20	4593,(64, 201),20	4769,(184, 201),20	5017,(84, 201),20	5117,(134, 201),20	5701,(194, 201),20	5901,(174, 201),20	
125,(3, 21),12	137,(3, 22),12	149,(3, 31),12	161,(3, 51),16	177,(3, 141),4	181,(3, 55),16	197,(3, 114),28	225,(3, 152),20	245,(3, 172),28	273,(3, 174),20	293,(3, 196),40	333,(3, 27),16	349,(3, 47),8	413,(3, 100),4	417,(3, 120),60	493,(13, 76),4	497,(13, 112),4	501,(13, 191),4	513,(13, 78),4	525,(13, 45),4	529,(3, 58),48	577,(13, 89),4	581,(13, 24),4	585,(13, 94),4	593,(13, 149),16	630,(153, 201),20	661,(13, 77),8	690,(103, 201),20	713,(13, 32),28	741,(13, 75),4	753,(13, 174),4	849,(13, 165),56	905,(13, 22),72	977,(13, 50),20	1209,(13, 36),44	1277,(13, 51),124	1489,(3, 30),520	2009,(13, 102),88	2097,(13, 128),136	2233,(13, 166),56	2353,(13, 74),52	2405,(13, 154),24	2429,(13, 172),148	2625,(13, 35),172	2797,(13, 115),112	3045,(23, 201),20	3065,(163, 201),20	3293,(83, 201),20	3377,(13, 170),40	3417,(53, 201),20	3545,(33, 201),20	3697,(123, 201),20	3849,(13, 40),184	4033,(13, 160),120	4165,(73, 201),20	4185,(113, 201),20	4533,(13, 139),116	4649,(193, 201),20	4669,(63, 201),20	4829,(143, 201),20	4889,(43, 201),20	5037,(93, 201),20	5097,(133, 201),20	5661,(173, 201),20	5981,(183, 201),20	
89,(2, 23),8	97,(2, 31),28	125,(2, 53),28	153,(2, 83),20	173,(2, 194),4	177,(2, 55),4	181,(2, 63),44	225,(2, 75),4	229,(2, 95),12	241,(2, 106),24	265,(2, 47),60	325,(2, 77),8	333,(2, 78),16	349,(2, 98),40	389,(2, 99),8	397,(2, 40),16	413,(2, 48),88	501,(2, 70),24	525,(2, 118),4	529,(2, 133),12	541,(2, 137),28	569,(12, 39),4	573,(2, 145),4	577,(2, 160),12	589,(2, 164),8	597,(2, 174),148	745,(2, 181),36	781,(122, 201),20	801,(12, 23),24	825,(12, 33),152	977,(12, 47),4	981,(12, 57),32	1013,(12, 65),4	1017,(12, 83),12	1029,(12, 101),36	1065,(12, 171),4	1069,(112, 201),20	1089,(12, 24),44	1137,(12, 96),4	1141,(12, 121),28	1177,(12, 100),36	1213,(12, 110),8	1221,(12, 190),8	1229,(12, 87),32	1261,(12, 117),48	1309,(12, 137),8	1329,(12, 78),40	1369,(12, 120),24	1401,(12, 58),116	1517,(12, 88),64	1581,(12, 173),28	1609,(12, 174),20	1629,(12, 194),16	1669,(12, 86),64	1761,(12, 146),40	1813,(2, 59),1848	3661,(12, 26),188	3849,(192, 201),20	3877,(12, 116),120	3997,(82, 201),20	4017,(72, 201),20	4037,(22, 201),20	4073,(12, 197),32	4105,(132, 201),20	4125,(62, 201),20	4145,(92, 201),20	4205,(152, 201),20	4321,(102, 201),20	4397,(142, 201),20	4417,(182, 201),20	4453,(12, 129),80	4613,(172, 201),20	4749,(32, 201),20	4849,(42, 201),20	4909,(52, 201),20	5177,(162, 201),20	
1,(0, 2),44	45,(0, 3),44	89,(0, 4),44	133,(0, 5),44	177,(0, 6),44	221,(0, 7),44	265,(0, 8),44	309,(0, 9),44	353,(0, 10),44	397,(0, 12),44	441,(0, 13),44	485,(0, 14),44	529,(0, 15),44	573,(0, 16),44	617,(0, 17),44	661,(0, 18),44	705,(0, 19),44	749,(0, 20),44	793,(11, 25),4	797,(11, 28),220	1017,(11, 29),4	1021,(11, 40),8	1029,(11, 49),20	1049,(11, 63),4	1053,(11, 65),344	1397,(11, 68),4	1401,(11, 70),88	1489,(11, 77),104	1593,(11, 84),8	1601,(11, 89),132	1733,(11, 94),20	1753,(11, 96),8	1761,(11, 102),4	1765,(11, 108),32	1797,(11, 113),12	1809,(11, 119),4	1813,(11, 124),12	1825,(11, 126),76	1901,(11, 128),56	1957,(11, 138),8	1965,(11, 147),36	2001,(11, 148),8	2009,(11, 156),48	2057,(11, 180),1320	3377,(11, 184),64	3441,(11, 186),4	3445,(11, 190),56	3501,(11, 196),4	3505,(1, 25),4	3509,(1, 37),40	3549,(1, 42),4	3553,(1, 43),44	3597,(1, 50),44	3641,(1, 52),4	3645,(1, 60),68	3713,(1, 79),8	3721,(1, 84),24	3745,(1, 93),4	3749,(1, 105),20	3769,(1, 107),12	3781,(1, 115),4	3785,(1, 129),4	3789,(1, 133),4	3793,(1, 134),24	3817,(1, 148),8	3825,(1, 160),8	3833,(1, 162),12	3845,(1, 170),4	3849,(1, 174),4	3853,(1, 176),24	3877,(1, 177),196	4073,(1, 185),4	4077,(1, 194),324	4401,(1, 196),4	
