56
# CPU
0,21,1	1,20,3	4,7,3	7,19,3	10,8,3	13,16,3	16,13,3	19,4,3	22,14,3	25,15,3	28,9,3	31,6,3	34,17,3	37,18,3	40,1,3	52,2,3	55,0,1	
5,11,3	9,12,3	
3,3,3	7,10,3	11,5,3	


# Incoming
6,(3, 2),2	8,(11, 2),2	10,(10, 2),4	14,(12, 2),8	22,(5, 2),30	
3,(21, 11),2	7,(21, 12),2	
1,(21, 3),2	5,(21, 10),2	9,(21, 5),2	


# Outgoing
1,(21, 3),2	3,(21, 11),2	5,(21, 10),2	7,(21, 12),2	9,(21, 5),2	
8,(11, 2),2	14,(12, 2),8	
6,(3, 2),2	10,(10, 2),4	22,(5, 2),30	


