4377
# CPU
439,21,9	2346,35,9	2564,62,9	2662,69,9	2855,59,9	2872,63,9	3283,47,9	3327,53,9	3351,72,9	3512,12,9	3527,33,9	3557,36,9	3570,48,9	3581,65,9	3616,75,9	4376,81,1	
0,0,1	1,5,9	10,3,9	19,4,9	28,38,9	37,19,9	46,13,9	55,42,9	155,31,9	164,39,9	173,71,9	306,15,9	318,43,9	359,40,9	373,10,9	382,18,9	391,67,9	
285,7,9	294,24,9	303,17,9	312,79,9	321,76,9	386,70,9	2305,80,9	2317,16,9	2326,29,9	2347,41,9	2458,49,9	2659,68,9	2720,78,9	2729,9,9	2738,28,9	2749,45,9	
214,6,9	223,61,9	356,8,9	365,30,9	374,73,9	383,26,9	392,56,9	442,22,9	451,23,9	460,25,9	469,32,9	2197,57,9	2318,27,9	2342,34,9	2687,74,9	2751,46,9	2820,58,9	
72,1,9	81,54,9	143,2,9	152,14,9	161,64,9	170,50,9	328,55,9	382,20,9	455,37,9	2307,11,9	2348,44,9	2459,51,9	2478,60,9	2641,66,9	2718,77,9	2800,52,9	
# Incoming
365,(5, 12),1	366,(5, 21),4	370,(1, 21),14	384,(1, 33),8	392,(1, 47),3	395,(1, 59),7	402,(54, 81),20	422,(2, 21),17	439,(2, 33),1	440,(2, 47),1	441,(7, 63),1	442,(8, 47),1	443,(8, 72),4	447,(5, 33),1	449,(5, 35),5	456,(5, 47),145	601,(5, 48),1583	2184,(5, 53),1	2185,(7, 36),9	2197,(5, 63),1	2198,(8, 63),10	2209,(5, 75),86	2295,(14, 81),20	2320,(3, 33),21	2342,(3, 35),4	2348,(3, 47),66	2414,(64, 81),20	2434,(50, 81),20	2459,(3, 53),2	2465,(3, 59),10	2478,(3, 62),86	2564,(3, 65),70	2634,(6, 59),17	2659,(3, 69),3	2662,(3, 72),19	2687,(3, 75),10	2697,(61, 81),20	2721,(4, 12),11	2733,(4, 33),11	2744,(4, 36),2	2751,(4, 47),47	2798,(4, 48),1	2800,(4, 53),19	2820,(4, 59),35	2855,(4, 63),17	2872,(4, 65),51	2923,(4, 72),13	2936,(38, 81),20	2956,(19, 81),20	2976,(13, 81),20	2996,(42, 81),20	3016,(2, 53),163	3179,(31, 81),20	3199,(39, 81),20	3219,(71, 81),20	3239,(6, 36),31	3270,(7, 47),13	3283,(7, 53),44	3327,(7, 72),24	3351,(24, 81),20	3371,(17, 81),20	3391,(15, 81),20	3411,(79, 81),20	3431,(43, 81),20	3451,(76, 81),20	3471,(55, 81),20	3491,(8, 12),21	3512,(8, 33),15	3527,(8, 36),30	3557,(8, 48),13	3570,(8, 65),11	3581,(8, 75),35	3616,(40, 81),20	3636,(30, 81),20	3656,(10, 81),20	3676,(73, 81),20	3696,(20, 81),20	3716,(18, 81),20	3736,(26, 81),20	3756,(70, 81),20	3776,(67, 81),20	3796,(56, 81),20	3816,(22, 81),20	3836,(23, 81),20	3856,(37, 81),20	3876,(25, 81),20	3896,(32, 81),20	3916,(57, 81),20	3936,(80, 81),20	3956,(11, 81),20	3976,(16, 81),20	3996,(27, 81),20	4016,(29, 81),20	4036,(34, 81),20	4056,(41, 81),20	4076,(44, 81),20	4096,(49, 81),20	4116,(51, 81),20	4136,(60, 81),20	4156,(66, 81),20	4176,(68, 81),20	4196,(74, 81),20	4216,(77, 81),20	4236,(78, 81),20	4256,(9, 81),20	4276,(28, 81),20	4296,(45, 81),20	4316,(46, 81),20	4336,(52, 81),20	4356,(58, 81),20	
81,(1, 10),2	83,(1, 71),1	152,(2, 15),1	153,(2, 31),2	155,(2, 39),5	160,(2, 43),2	162,(2, 71),4	305,(6, 15),1	315,(6, 40),1	316,(6, 43),2	328,(6, 67),1	358,(7, 40),1	359,(7, 67),3	365,(8, 10),8	373,(8, 18),2	383,(8, 67),1	
214,(0, 7),71	285,(1, 16),3	288,(1, 24),4	292,(1, 41),4	296,(2, 28),6	302,(2, 49),1	303,(6, 9),2	318,(6, 45),8	356,(5, 9),9	382,(8, 28),1	384,(8, 70),2	2300,(5, 80),5	2305,(3, 9),1	2307,(3, 16),10	2318,(3, 29),2	2346,(3, 41),1	2414,(3, 49),44	2641,(3, 68),18	2718,(3, 78),2	2720,(4, 9),1	2732,(4, 28),1	2746,(4, 45),3	
143,(0, 6),71	214,(1, 22),1	215,(1, 23),5	220,(1, 25),1	221,(1, 34),1	222,(2, 23),8	230,(2, 26),1	231,(2, 32),1	285,(0, 8),71	356,(7, 26),1	357,(7, 30),1	362,(7, 73),3	370,(5, 22),72	442,(5, 23),3	445,(5, 25),1	446,(5, 32),1	448,(5, 34),1	455,(5, 46),1	2185,(5, 57),12	2317,(3, 27),1	2341,(3, 34),1	2461,(3, 58),4	2681,(3, 74),6	2749,(4, 46),2	2819,(4, 58),1	
1,(0, 1),71	72,(0, 2),71	306,(6, 20),5	311,(6, 37),4	326,(6, 51),1	327,(6, 55),1	375,(8, 20),7	386,(8, 77),3	454,(5, 37),1	2198,(5, 66),11	2295,(5, 77),5	2306,(3, 11),1	2347,(3, 44),1	2458,(3, 51),1	2475,(3, 60),3	2634,(3, 66),7	2697,(3, 77),21	2799,(4, 52),1	
# Outgoing

1,(0, 1),71	72,(0, 2),71	143,(0, 6),71	214,(0, 7),71	285,(0, 8),71	356,(5, 9),9	365,(5, 12),1	366,(5, 21),4	370,(5, 22),72	442,(5, 23),3	445,(5, 25),1	446,(5, 32),1	447,(5, 33),1	448,(5, 34),1	449,(5, 35),5	454,(5, 37),1	455,(5, 46),1	456,(5, 47),145	601,(5, 48),1583	2184,(5, 53),1	2185,(5, 57),12	2197,(5, 63),1	2198,(5, 66),11	2209,(5, 75),86	2295,(5, 77),5	2300,(5, 80),5	2305,(3, 9),1	2306,(3, 11),1	2307,(3, 16),10	2317,(3, 27),1	2318,(3, 29),2	2320,(3, 33),21	2341,(3, 34),1	2342,(3, 35),4	2346,(3, 41),1	2347,(3, 44),1	2348,(3, 47),66	2414,(3, 49),44	2458,(3, 51),1	2459,(3, 53),2	2461,(3, 58),4	2465,(3, 59),10	2475,(3, 60),3	2478,(3, 62),86	2564,(3, 65),70	2634,(3, 66),7	2641,(3, 68),18	2659,(3, 69),3	2662,(3, 72),19	2681,(3, 74),6	2687,(3, 75),10	2697,(3, 77),21	2718,(3, 78),2	2720,(4, 9),1	2721,(4, 12),11	2732,(4, 28),1	2733,(4, 33),11	2744,(4, 36),2	2746,(4, 45),3	2749,(4, 46),2	2751,(4, 47),47	2798,(4, 48),1	2799,(4, 52),1	2800,(4, 53),19	2819,(4, 58),1	2820,(4, 59),35	2855,(4, 63),17	2872,(4, 65),51	2923,(4, 72),13	2936,(38, 81),20	2956,(19, 81),20	2976,(13, 81),20	2996,(42, 81),20	3179,(31, 81),20	3199,(39, 81),20	3219,(71, 81),20	3391,(15, 81),20	3431,(43, 81),20	3616,(40, 81),20	3656,(10, 81),20	3716,(18, 81),20	3776,(67, 81),20	
356,(7, 26),1	357,(7, 30),1	358,(7, 40),1	359,(7, 67),3	362,(7, 73),3	441,(7, 63),1	2185,(7, 36),9	3270,(7, 47),13	3283,(7, 53),44	3327,(7, 72),24	3351,(24, 81),20	3371,(17, 81),20	3411,(79, 81),20	3451,(76, 81),20	3756,(70, 81),20	3936,(80, 81),20	3976,(16, 81),20	4016,(29, 81),20	4056,(41, 81),20	4096,(49, 81),20	4176,(68, 81),20	4236,(78, 81),20	4256,(9, 81),20	4276,(28, 81),20	4296,(45, 81),20	
303,(6, 9),2	305,(6, 15),1	306,(6, 20),5	311,(6, 37),4	315,(6, 40),1	316,(6, 43),2	318,(6, 45),8	326,(6, 51),1	327,(6, 55),1	328,(6, 67),1	365,(8, 10),8	373,(8, 18),2	375,(8, 20),7	382,(8, 28),1	383,(8, 67),1	384,(8, 70),2	386,(8, 77),3	442,(8, 47),1	443,(8, 72),4	2198,(8, 63),10	2634,(6, 59),17	2697,(61, 81),20	3239,(6, 36),31	3491,(8, 12),21	3512,(8, 33),15	3527,(8, 36),30	3557,(8, 48),13	3570,(8, 65),11	3581,(8, 75),35	3636,(30, 81),20	3676,(73, 81),20	3736,(26, 81),20	3796,(56, 81),20	3816,(22, 81),20	3836,(23, 81),20	3876,(25, 81),20	3896,(32, 81),20	3916,(57, 81),20	3996,(27, 81),20	4036,(34, 81),20	4196,(74, 81),20	4316,(46, 81),20	4356,(58, 81),20	
81,(1, 10),2	83,(1, 71),1	152,(2, 15),1	153,(2, 31),2	155,(2, 39),5	160,(2, 43),2	162,(2, 71),4	214,(1, 22),1	215,(1, 23),5	220,(1, 25),1	221,(1, 34),1	222,(2, 23),8	230,(2, 26),1	231,(2, 32),1	285,(1, 16),3	288,(1, 24),4	292,(1, 41),4	296,(2, 28),6	302,(2, 49),1	370,(1, 21),14	384,(1, 33),8	392,(1, 47),3	395,(1, 59),7	402,(54, 81),20	422,(2, 21),17	439,(2, 33),1	440,(2, 47),1	2295,(14, 81),20	2414,(64, 81),20	2434,(50, 81),20	3016,(2, 53),163	3471,(55, 81),20	3696,(20, 81),20	3856,(37, 81),20	3956,(11, 81),20	4076,(44, 81),20	4116,(51, 81),20	4136,(60, 81),20	4156,(66, 81),20	4216,(77, 81),20	4336,(52, 81),20	
