4303
# CPU
7,2,1	8,8,1	9,13,1	10,18,1	11,20,1	12,4,1	13,6,1	14,7,1	23,10,1	25,11,1	57,12,1	81,14,1	117,15,1	131,16,1	275,17,1	287,19,1	
0,0,1	1,1,1	2,5,1	10,3,1	402,9,1	4302,21,1	
# Incoming
1,(0, 2),6	7,(1, 4),2	9,(1, 6),2	11,(1, 7),2	13,(1, 10),10	23,(1, 11),2	25,(1, 12),32	57,(1, 14),24	81,(1, 15),36	117,(1, 16),14	131,(1, 17),144	275,(1, 19),12	
8,(2, 3),2	10,(2, 9),392	402,(8, 21),260	662,(13, 21),260	922,(18, 21),260	1182,(20, 21),260	1442,(4, 21),260	1702,(6, 21),260	1962,(7, 21),260	2222,(10, 21),260	2482,(11, 21),260	2742,(12, 21),260	3002,(14, 21),260	3262,(15, 21),260	3522,(16, 21),260	3782,(17, 21),260	4042,(19, 21),260	
# Outgoing
8,(2, 3),2	10,(2, 9),392	402,(8, 21),260	662,(13, 21),260	922,(18, 21),260	1182,(20, 21),260	1442,(4, 21),260	1702,(6, 21),260	1962,(7, 21),260	2222,(10, 21),260	2482,(11, 21),260	2742,(12, 21),260	3002,(14, 21),260	3262,(15, 21),260	3522,(16, 21),260	3782,(17, 21),260	4042,(19, 21),260	
1,(0, 2),6	7,(1, 4),2	9,(1, 6),2	11,(1, 7),2	13,(1, 10),10	23,(1, 11),2	25,(1, 12),32	57,(1, 14),24	81,(1, 15),36	117,(1, 16),14	131,(1, 17),144	275,(1, 19),12	
