1536
# CPU
0,121,1	1,67,13	14,76,13	27,98,13	40,42,13	53,113,13	66,81,13	79,93,13	92,33,13	105,46,13	118,118,13	131,116,13	144,99,13	157,20,13	170,61,13	183,53,13	196,54,13	209,109,13	222,79,13	235,58,13	248,24,13	261,108,13	274,112,13	287,27,13	300,104,13	313,84,13	326,68,13	339,64,13	352,13,13	365,119,13	378,88,13	391,16,13	404,45,13	417,55,13	430,90,13	443,38,13	456,19,13	469,21,13	482,73,13	495,34,13	508,51,13	521,32,13	534,49,13	547,65,13	560,30,13	573,83,13	586,74,13	599,85,13	612,22,13	625,97,13	638,44,13	651,105,13	664,56,13	677,94,13	690,25,13	703,91,13	716,41,13	729,72,13	742,115,13	755,86,13	768,47,13	781,110,13	794,96,13	807,23,13	820,31,13	833,43,13	846,106,13	859,35,13	872,52,13	885,114,13	898,18,13	911,89,13	924,77,13	937,60,13	950,59,13	963,75,13	976,63,13	989,57,13	1002,120,13	1015,29,13	1028,102,13	1041,111,13	1054,36,13	1067,37,13	1080,101,13	1093,95,13	1106,70,13	1119,17,13	1132,39,13	1145,71,13	1158,92,13	1171,62,13	1184,107,13	1197,80,13	1210,40,13	1223,103,13	1236,87,13	1249,5,13	1262,14,13	1275,28,13	1288,82,13	1301,100,13	1314,50,13	1327,9,13	1340,69,13	1353,4,13	1366,117,13	1379,15,13	1392,10,13	1405,26,13	1418,3,13	1431,6,13	1444,78,13	1457,8,13	1470,48,13	1483,1,13	1496,2,13	1509,12,13	1522,11,13	1535,0,1	

766,66,13	1475,7,13	
# Incoming
779,(66, 12),27	806,(66, 11),33	1488,(7, 0),3	

1,(121, 66),765	766,(76, 7),3	769,(42, 7),3	772,(113, 7),3	775,(33, 7),3	778,(108, 7),6	784,(13, 7),9	793,(119, 7),3	796,(34, 7),6	802,(44, 7),21	823,(56, 7),24	847,(86, 7),9	856,(31, 7),39	895,(35, 7),42	976,(75, 7),12	1067,(36, 7),63	1130,(37, 7),66	1196,(39, 7),78	1274,(71, 7),78	1352,(107, 7),99	1451,(40, 7),24	
# Outgoing
1,(121, 66),765	766,(76, 7),3	769,(42, 7),3	772,(113, 7),3	775,(33, 7),3	778,(108, 7),6	784,(13, 7),9	793,(119, 7),3	796,(34, 7),6	802,(44, 7),21	823,(56, 7),24	847,(86, 7),9	856,(31, 7),39	895,(35, 7),42	976,(75, 7),12	1067,(36, 7),63	1130,(37, 7),66	1196,(39, 7),78	1274,(71, 7),78	1352,(107, 7),99	1451,(40, 7),24	

779,(66, 12),27	806,(66, 11),33	1488,(7, 0),3	
