120
# CPU
43,6,4	63,14,4	67,18,4	107,10,4	
59,13,4	63,17,4	81,5,4	85,9,4	
41,2,4	45,4,4	49,8,4	53,20,4	57,12,4	61,16,4	
0,0,1	1,1,4	5,7,4	9,15,4	13,11,4	17,19,4	61,3,4	119,21,1	
# Incoming
41,(1, 6),2	61,(2, 14),2	63,(1, 18),2	83,(2, 10),24	
57,(1, 13),2	61,(1, 17),2	63,(2, 5),18	81,(2, 9),2	
1,(0, 2),40	43,(1, 12),14	59,(1, 16),2	
45,(2, 3),16	61,(6, 21),2	63,(13, 21),2	67,(14, 21),2	69,(17, 21),2	71,(18, 21),2	85,(5, 21),2	89,(9, 21),2	107,(4, 21),2	109,(8, 21),2	111,(20, 21),2	113,(12, 21),2	115,(16, 21),2	117,(10, 21),2	
# Outgoing
61,(6, 21),2	67,(14, 21),2	71,(18, 21),2	117,(10, 21),2	
63,(13, 21),2	69,(17, 21),2	85,(5, 21),2	89,(9, 21),2	
45,(2, 3),16	61,(2, 14),2	63,(2, 5),18	81,(2, 9),2	83,(2, 10),24	107,(4, 21),2	109,(8, 21),2	111,(20, 21),2	113,(12, 21),2	115,(16, 21),2	
1,(0, 2),40	41,(1, 6),2	43,(1, 12),14	57,(1, 13),2	59,(1, 16),2	61,(1, 17),2	63,(1, 18),2	
