652
# CPU
15,1,7	22,4,7	29,8,7	36,14,7	43,17,7	50,5,7	57,11,7	397,13,7	
409,15,7	471,19,7	595,20,7	611,7,7	618,9,7	629,18,7	651,21,1	
0,0,1	1,2,7	8,3,7	15,10,7	22,16,7	29,6,7	36,12,7	
# Incoming
1,(0, 1),14	391,(2, 13),6	
15,(2, 7),354	369,(2, 9),22	397,(2, 15),12	409,(2, 18),24	433,(2, 19),38	471,(2, 20),124	595,(3, 21),2	597,(1, 7),14	611,(1, 9),2	613,(1, 18),16	629,(10, 21),2	631,(4, 21),2	633,(16, 21),2	635,(8, 21),2	637,(6, 21),2	639,(14, 21),2	641,(12, 21),2	643,(17, 21),2	645,(5, 21),2	647,(11, 21),2	649,(13, 21),2	

# Outgoing
597,(1, 7),14	611,(1, 9),2	613,(1, 18),16	631,(4, 21),2	635,(8, 21),2	639,(14, 21),2	643,(17, 21),2	645,(5, 21),2	647,(11, 21),2	649,(13, 21),2	

1,(0, 1),14	15,(2, 7),354	369,(2, 9),22	391,(2, 13),6	397,(2, 15),12	409,(2, 18),24	433,(2, 19),38	471,(2, 20),124	595,(3, 21),2	629,(10, 21),2	633,(16, 21),2	637,(6, 21),2	641,(12, 21),2	
