5606
# CPU
0,121,1	1,48,8	9,58,8	17,68,8	25,37,8	33,115,8	41,120,8	49,114,8	57,61,8	65,52,8	73,31,8	81,29,8	89,74,8	97,41,8	105,93,8	113,75,8	121,106,8	129,86,8	137,56,8	145,54,8	153,69,8	161,95,8	169,49,8	177,105,8	185,117,8	193,116,8	201,26,8	209,118,8	217,110,8	225,63,8	233,25,8	241,47,8	249,36,8	257,62,8	265,17,8	273,57,8	281,82,8	289,38,8	297,92,8	305,46,8	313,101,8	321,33,8	329,119,8	337,24,8	345,85,8	353,27,8	361,23,8	369,77,8	377,60,8	385,32,8	393,45,8	401,70,8	409,44,8	417,87,8	425,112,8	433,40,8	441,97,8	449,113,8	457,14,8	465,20,8	473,55,8	481,22,8	489,67,8	497,104,8	505,83,8	513,98,8	521,107,8	529,84,8	537,34,8	545,89,8	553,21,8	561,109,8	569,18,8	577,35,8	585,51,8	593,39,8	601,76,8	609,50,8	617,64,8	625,103,8	633,66,8	641,8,8	649,102,8	657,2,8	665,6,8	717,4,8	861,12,8	1033,7,8	1209,10,8	1469,3,8	1881,11,8	2377,5,8	5597,9,8	5605,0,1	
49,111,8	73,100,8	121,88,8	169,91,8	265,28,8	433,42,8	457,96,8	481,53,8	505,90,8	577,94,8	649,99,8	
313,13,8	529,15,8	

241,65,8	
289,78,8	
25,30,8	337,73,8	


97,19,8	145,72,8	193,80,8	217,108,8	361,59,8	385,16,8	409,79,8	553,43,8	601,81,8	625,71,8	1113,1,8	
# Incoming
345,(73, 8),4	349,(88, 2),4	353,(100, 6),8	361,(91, 6),4	365,(65, 6),28	393,(78, 6),16	409,(111, 4),4	413,(30, 10),4	417,(79, 2),24	441,(13, 6),44	485,(96, 6),4	489,(91, 12),16	505,(108, 12),12	517,(13, 12),4	521,(16, 12),4	525,(72, 10),4	529,(19, 3),8	537,(15, 6),4	541,(15, 4),4	545,(15, 7),4	549,(88, 3),12	561,(43, 2),12	573,(43, 7),12	585,(94, 2),4	589,(94, 4),128	717,(59, 12),56	773,(79, 12),48	821,(81, 12),4	825,(71, 12),36	861,(108, 7),20	881,(59, 7),32	913,(90, 7),116	1029,(99, 7),4	1033,(15, 10),176	1209,(1, 0),4	1213,(91, 3),4	1217,(28, 3),28	1245,(78, 3),4	1249,(16, 3),60	1309,(79, 3),68	1377,(53, 3),92	1469,(80, 11),16	1485,(65, 11),8	1493,(78, 11),40	1533,(73, 11),52	1585,(42, 11),68	1653,(96, 11),80	1733,(53, 11),4	1737,(15, 11),8	1745,(94, 11),136	1881,(72, 5),12	1893,(42, 5),4	1897,(43, 5),188	2085,(94, 5),244	2329,(71, 5),16	2345,(99, 5),32	2377,(72, 9),4	2381,(91, 9),4	2385,(90, 9),52	2437,(71, 9),676	3113,(99, 9),2484	
25,(121, 111),24	49,(121, 100),24	97,(121, 88),24	145,(121, 91),24	241,(121, 28),24	409,(121, 42),24	433,(121, 96),24	457,(121, 53),24	481,(121, 90),24	553,(121, 94),24	625,(121, 99),24	
289,(121, 13),24	505,(121, 15),24	

217,(121, 65),24	
265,(121, 78),24	
1,(121, 30),24	313,(121, 73),24	


73,(121, 19),24	121,(121, 72),24	169,(121, 80),24	193,(121, 108),24	337,(121, 59),24	361,(121, 16),24	385,(121, 79),24	413,(111, 1),4	417,(100, 1),4	513,(90, 1),12	529,(121, 43),24	577,(121, 81),24	601,(121, 71),24	649,(31, 1),4	653,(54, 1),12	665,(69, 1),4	669,(105, 1),16	685,(116, 1),16	701,(82, 1),36	737,(24, 1),12	749,(23, 1),56	805,(87, 1),20	825,(113, 1),12	837,(84, 1),140	977,(35, 1),4	981,(39, 1),24	1033,(53, 1),80	
# Outgoing
1,(121, 30),24	25,(121, 111),24	49,(121, 100),24	73,(121, 19),24	97,(121, 88),24	121,(121, 72),24	145,(121, 91),24	169,(121, 80),24	193,(121, 108),24	217,(121, 65),24	241,(121, 28),24	265,(121, 78),24	289,(121, 13),24	313,(121, 73),24	337,(121, 59),24	361,(121, 16),24	385,(121, 79),24	409,(121, 42),24	433,(121, 96),24	457,(121, 53),24	481,(121, 90),24	505,(121, 15),24	529,(121, 43),24	553,(121, 94),24	577,(121, 81),24	601,(121, 71),24	625,(121, 99),24	649,(31, 1),4	653,(54, 1),12	665,(69, 1),4	669,(105, 1),16	685,(116, 1),16	701,(82, 1),36	737,(24, 1),12	749,(23, 1),56	805,(87, 1),20	825,(113, 1),12	837,(84, 1),140	977,(35, 1),4	981,(39, 1),24	
349,(88, 2),4	353,(100, 6),8	361,(91, 6),4	409,(111, 4),4	413,(111, 1),4	417,(100, 1),4	485,(96, 6),4	489,(91, 12),16	513,(90, 1),12	549,(88, 3),12	585,(94, 2),4	589,(94, 4),128	913,(90, 7),116	1029,(99, 7),4	1033,(53, 1),80	1213,(91, 3),4	1217,(28, 3),28	1377,(53, 3),92	1585,(42, 11),68	1653,(96, 11),80	1733,(53, 11),4	1745,(94, 11),136	1893,(42, 5),4	2085,(94, 5),244	2345,(99, 5),32	2381,(91, 9),4	2385,(90, 9),52	3113,(99, 9),2484	
441,(13, 6),44	517,(13, 12),4	537,(15, 6),4	541,(15, 4),4	545,(15, 7),4	1033,(15, 10),176	1737,(15, 11),8	

365,(65, 6),28	1485,(65, 11),8	
393,(78, 6),16	1245,(78, 3),4	1493,(78, 11),40	
345,(73, 8),4	413,(30, 10),4	1533,(73, 11),52	


417,(79, 2),24	505,(108, 12),12	521,(16, 12),4	525,(72, 10),4	529,(19, 3),8	561,(43, 2),12	573,(43, 7),12	717,(59, 12),56	773,(79, 12),48	821,(81, 12),4	825,(71, 12),36	861,(108, 7),20	881,(59, 7),32	1209,(1, 0),4	1249,(16, 3),60	1309,(79, 3),68	1469,(80, 11),16	1881,(72, 5),12	1897,(43, 5),188	2329,(71, 5),16	2377,(72, 9),4	2437,(71, 9),676	
