9803
# CPU
7,2,1	13,4,1	19,6,1	25,8,1	26,37,1	27,78,1	31,10,1	32,80,1	37,12,1	38,40,1	39,42,1	40,48,1	1267,39,1	1564,60,1	1585,68,1	1738,92,1	1771,95,1	4045,30,1	4117,52,1	4855,97,1	5188,15,1	5194,19,1	5197,22,1	5326,34,1	5446,66,1	5491,71,1	5494,73,1	5788,74,1	5839,75,1	5887,76,1	5893,84,1	5941,90,1	6292,98,1	6334,100,1	6370,113,1	6709,17,1	6763,23,1	6850,26,1	6865,28,1	6886,29,1	6889,31,1	6934,33,1	6952,36,1	6970,38,1	6976,41,1	7159,58,1	7333,69,1	7396,77,1	7405,86,1	7753,104,1	7783,109,1	7786,110,1	7837,119,1	7840,120,1	7843,18,1	7855,35,1	7873,50,1	8125,62,1	8131,64,1	8290,82,1	8362,83,1	8368,85,1	8575,89,1	8578,93,1	8659,94,1	8764,115,1	8767,117,1	8770,118,1	8773,14,1	8851,24,1	8854,25,1	8857,27,1	9016,32,1	9022,43,1	9031,44,1	9052,46,1	9058,54,1	9064,56,1	9184,70,1	9196,72,1	9199,79,1	9202,81,1	9253,87,1	9352,88,1	9391,91,1	9403,96,1	9418,99,1	9421,101,1	9442,102,1	9448,103,1	9472,105,1	9499,106,1	9502,107,1	9532,108,1	9586,111,1	9589,112,1	9697,114,1	9706,116,1	9802,121,1	
0,0,1	1,7,1	2,3,1	3,9,1	4,11,1	5,1,1	6,5,1	239,13,1	290,16,1	350,57,1	2219,67,1	2288,20,1	2303,21,1	2348,45,1	2360,47,1	2366,55,1	2372,49,1	2381,51,1	2411,53,1	2462,59,1	2465,61,1	2468,63,1	2483,65,1	
# Incoming
1,(0, 2),6	7,(0, 4),6	13,(0, 6),6	19,(0, 8),6	25,(0, 10),6	31,(0, 12),6	37,(7, 15),180	217,(7, 17),3	220,(7, 24),3	223,(7, 25),6	229,(7, 28),6	235,(7, 29),24	259,(7, 36),39	298,(7, 38),42	340,(7, 39),927	1267,(7, 43),270	1537,(7, 52),15	1552,(7, 60),12	1564,(7, 64),3	1567,(7, 68),18	1585,(7, 70),3	1588,(7, 74),57	1645,(7, 75),21	1666,(7, 77),9	1675,(7, 83),3	1678,(7, 85),39	1717,(7, 87),9	1726,(7, 88),6	1732,(7, 90),3	1735,(7, 92),3	1738,(7, 93),3	1741,(7, 95),30	1771,(7, 96),84	1855,(7, 97),3	1858,(7, 98),1017	2875,(7, 103),3	2878,(7, 112),906	3784,(7, 114),105	3889,(7, 115),6	3895,(7, 118),21	3916,(7, 120),9	3925,(3, 14),33	3958,(3, 25),36	3994,(3, 26),3	3997,(3, 30),48	4045,(3, 31),3	4048,(3, 32),3	4051,(3, 34),12	4063,(3, 43),15	4078,(3, 44),3	4081,(3, 46),33	4114,(3, 52),3	4117,(3, 72),3	4120,(3, 73),51	4171,(3, 75),36	4207,(3, 79),3	4210,(3, 82),9	4219,(3, 85),75	4294,(3, 88),3	4297,(3, 89),414	4711,(3, 91),27	4738,(3, 93),48	4786,(3, 96),30	4816,(3, 97),39	4855,(3, 100),6	4861,(3, 105),9	4870,(3, 107),39	4909,(3, 111),12	4921,(3, 115),174	5095,(3, 118),21	5116,(3, 119),24	5140,(3, 120),24	5164,(9, 15),24	5188,(9, 19),6	5194,(9, 22),3	5197,(9, 25),6	5203,(9, 26),3	5206,(9, 28),21	5227,(9, 29),3	5230,(9, 32),84	5314,(9, 34),12	5326,(9, 41),57	5383,(9, 44),15	5398,(9, 50),9	5407,(9, 54),15	5422,(9, 56),3	5425,(9, 62),18	5443,(9, 66),3	5446,(9, 71),45	5491,(9, 73),3	5494,(9, 74),294	5788,(9, 75),51	5839,(9, 76),48	5887,(9, 81),3	5890,(9, 84),3	5893,(9, 87),3	5896,(9, 89),42	5938,(9, 90),3	5941,(9, 91),3	5944,(9, 98),348	6292,(9, 99),39	6331,(9, 100),3	6334,(9, 104),24	6358,(9, 107),3	6361,(9, 113),9	6370,(9, 115),135	6505,(9, 116),177	6682,(9, 120),6	6688,(11, 17),21	6709,(11, 23),54	6763,(11, 24),24	6787,(11, 26),63	6850,(11, 27),12	6862,(11, 28),3	6865,(11, 29),21	6886,(11, 31),3	6889,(11, 32),3	6892,(11, 33),42	6934,(11, 35),6	6940,(11, 36),12	6952,(11, 38),18	6970,(11, 41),6	6976,(11, 44),165	7141,(11, 58),18	7159,(11, 62),21	7180,(11, 69),153	7333,(11, 72),6	7339,(11, 77),57	7396,(11, 86),9	7405,(11, 87),12	7417,(11, 96),9	7426,(11, 102),30	7456,(11, 104),297	7753,(11, 105),27	7780,(11, 109),3	7783,(11, 110),3	7786,(11, 119),51	7837,(11, 120),3	7840,(1, 18),3	7843,(1, 35),12	7855,(1, 44),15	7870,(1, 50),3	7873,(1, 56),21	7894,(1, 62),231	8125,(1, 64),6	8131,(1, 82),159	8290,(1, 83),72	8362,(1, 85),6	8368,(1, 89),207	8575,(1, 93),3	8578,(1, 94),81	8659,(1, 101),15	8674,(1, 103),9	8683,(1, 111),3	8686,(1, 114),72	8758,(1, 115),6	8764,(1, 117),3	8767,(1, 118),3	8770,(5, 14),3	8773,(5, 24),78	8851,(5, 25),3	8854,(5, 27),3	8857,(5, 32),159	9016,(5, 43),6	9022,(5, 44),9	9031,(5, 46),21	9052,(5, 54),6	9058,(5, 56),6	9064,(5, 70),120	9184,(5, 72),12	9196,(5, 79),3	9199,(5, 81),3	9202,(5, 87),51	9253,(5, 88),99	9352,(5, 91),39	9391,(5, 96),12	9403,(5, 99),15	9418,(5, 101),3	9421,(5, 102),21	9442,(5, 103),6	9448,(5, 105),24	9472,(5, 106),27	9499,(5, 107),3	9502,(5, 108),30	9532,(5, 111),54	9586,(5, 112),3	9589,(5, 114),108	9697,(5, 116),9	9706,(13, 121),6	9712,(16, 121),6	9718,(57, 121),6	9724,(67, 121),6	9730,(20, 121),6	9736,(21, 121),6	9742,(45, 121),6	9748,(47, 121),6	9754,(55, 121),6	9760,(49, 121),6	9766,(51, 121),6	9772,(53, 121),6	9778,(59, 121),6	9784,(61, 121),6	9790,(63, 121),6	9796,(65, 121),6	
8,(2, 51),24	32,(2, 53),165	197,(2, 61),3	200,(4, 13),39	239,(4, 16),9	248,(4, 21),9	257,(4, 59),27	284,(4, 61),3	287,(6, 16),3	290,(6, 45),33	323,(6, 49),3	326,(6, 51),18	344,(6, 55),3	347,(6, 57),3	350,(6, 67),84	434,(8, 21),18	452,(8, 47),348	800,(8, 49),6	806,(8, 51),3	809,(8, 59),3	812,(8, 63),3	815,(8, 67),1404	2219,(10, 20),69	2288,(10, 21),15	2303,(10, 45),45	2348,(10, 47),12	2360,(10, 55),6	2366,(10, 63),3	2369,(12, 49),3	2372,(12, 51),9	2381,(12, 53),30	2411,(12, 59),51	2462,(12, 61),3	2465,(12, 63),3	2468,(12, 65),15	
# Outgoing
8,(2, 51),24	32,(2, 53),165	197,(2, 61),3	200,(4, 13),39	239,(4, 16),9	248,(4, 21),9	257,(4, 59),27	284,(4, 61),3	287,(6, 16),3	290,(6, 45),33	323,(6, 49),3	326,(6, 51),18	344,(6, 55),3	347,(6, 57),3	350,(6, 67),84	434,(8, 21),18	452,(8, 47),348	800,(8, 49),6	806,(8, 51),3	809,(8, 59),3	812,(8, 63),3	815,(8, 67),1404	2219,(10, 20),69	2288,(10, 21),15	2303,(10, 45),45	2348,(10, 47),12	2360,(10, 55),6	2366,(10, 63),3	2369,(12, 49),3	2372,(12, 51),9	2381,(12, 53),30	2411,(12, 59),51	2462,(12, 61),3	2465,(12, 63),3	2468,(12, 65),15	
1,(0, 2),6	7,(0, 4),6	13,(0, 6),6	19,(0, 8),6	25,(0, 10),6	31,(0, 12),6	37,(7, 15),180	217,(7, 17),3	220,(7, 24),3	223,(7, 25),6	229,(7, 28),6	235,(7, 29),24	259,(7, 36),39	298,(7, 38),42	340,(7, 39),927	1267,(7, 43),270	1537,(7, 52),15	1552,(7, 60),12	1564,(7, 64),3	1567,(7, 68),18	1585,(7, 70),3	1588,(7, 74),57	1645,(7, 75),21	1666,(7, 77),9	1675,(7, 83),3	1678,(7, 85),39	1717,(7, 87),9	1726,(7, 88),6	1732,(7, 90),3	1735,(7, 92),3	1738,(7, 93),3	1741,(7, 95),30	1771,(7, 96),84	1855,(7, 97),3	1858,(7, 98),1017	2875,(7, 103),3	2878,(7, 112),906	3784,(7, 114),105	3889,(7, 115),6	3895,(7, 118),21	3916,(7, 120),9	3925,(3, 14),33	3958,(3, 25),36	3994,(3, 26),3	3997,(3, 30),48	4045,(3, 31),3	4048,(3, 32),3	4051,(3, 34),12	4063,(3, 43),15	4078,(3, 44),3	4081,(3, 46),33	4114,(3, 52),3	4117,(3, 72),3	4120,(3, 73),51	4171,(3, 75),36	4207,(3, 79),3	4210,(3, 82),9	4219,(3, 85),75	4294,(3, 88),3	4297,(3, 89),414	4711,(3, 91),27	4738,(3, 93),48	4786,(3, 96),30	4816,(3, 97),39	4855,(3, 100),6	4861,(3, 105),9	4870,(3, 107),39	4909,(3, 111),12	4921,(3, 115),174	5095,(3, 118),21	5116,(3, 119),24	5140,(3, 120),24	5164,(9, 15),24	5188,(9, 19),6	5194,(9, 22),3	5197,(9, 25),6	5203,(9, 26),3	5206,(9, 28),21	5227,(9, 29),3	5230,(9, 32),84	5314,(9, 34),12	5326,(9, 41),57	5383,(9, 44),15	5398,(9, 50),9	5407,(9, 54),15	5422,(9, 56),3	5425,(9, 62),18	5443,(9, 66),3	5446,(9, 71),45	5491,(9, 73),3	5494,(9, 74),294	5788,(9, 75),51	5839,(9, 76),48	5887,(9, 81),3	5890,(9, 84),3	5893,(9, 87),3	5896,(9, 89),42	5938,(9, 90),3	5941,(9, 91),3	5944,(9, 98),348	6292,(9, 99),39	6331,(9, 100),3	6334,(9, 104),24	6358,(9, 107),3	6361,(9, 113),9	6370,(9, 115),135	6505,(9, 116),177	6682,(9, 120),6	6688,(11, 17),21	6709,(11, 23),54	6763,(11, 24),24	6787,(11, 26),63	6850,(11, 27),12	6862,(11, 28),3	6865,(11, 29),21	6886,(11, 31),3	6889,(11, 32),3	6892,(11, 33),42	6934,(11, 35),6	6940,(11, 36),12	6952,(11, 38),18	6970,(11, 41),6	6976,(11, 44),165	7141,(11, 58),18	7159,(11, 62),21	7180,(11, 69),153	7333,(11, 72),6	7339,(11, 77),57	7396,(11, 86),9	7405,(11, 87),12	7417,(11, 96),9	7426,(11, 102),30	7456,(11, 104),297	7753,(11, 105),27	7780,(11, 109),3	7783,(11, 110),3	7786,(11, 119),51	7837,(11, 120),3	7840,(1, 18),3	7843,(1, 35),12	7855,(1, 44),15	7870,(1, 50),3	7873,(1, 56),21	7894,(1, 62),231	8125,(1, 64),6	8131,(1, 82),159	8290,(1, 83),72	8362,(1, 85),6	8368,(1, 89),207	8575,(1, 93),3	8578,(1, 94),81	8659,(1, 101),15	8674,(1, 103),9	8683,(1, 111),3	8686,(1, 114),72	8758,(1, 115),6	8764,(1, 117),3	8767,(1, 118),3	8770,(5, 14),3	8773,(5, 24),78	8851,(5, 25),3	8854,(5, 27),3	8857,(5, 32),159	9016,(5, 43),6	9022,(5, 44),9	9031,(5, 46),21	9052,(5, 54),6	9058,(5, 56),6	9064,(5, 70),120	9184,(5, 72),12	9196,(5, 79),3	9199,(5, 81),3	9202,(5, 87),51	9253,(5, 88),99	9352,(5, 91),39	9391,(5, 96),12	9403,(5, 99),15	9418,(5, 101),3	9421,(5, 102),21	9442,(5, 103),6	9448,(5, 105),24	9472,(5, 106),27	9499,(5, 107),3	9502,(5, 108),30	9532,(5, 111),54	9586,(5, 112),3	9589,(5, 114),108	9697,(5, 116),9	9706,(13, 121),6	9712,(16, 121),6	9718,(57, 121),6	9724,(67, 121),6	9730,(20, 121),6	9736,(21, 121),6	9742,(45, 121),6	9748,(47, 121),6	9754,(55, 121),6	9760,(49, 121),6	9766,(51, 121),6	9772,(53, 121),6	9778,(59, 121),6	9784,(61, 121),6	9790,(63, 121),6	9796,(65, 121),6	
