549
# CPU
0,0,1	1,13,1	2,143,1	3,45,1	4,2,1	5,98,1	6,1,1	7,149,1	8,6,1	9,199,1	10,135,1	11,107,1	12,8,1	13,139,1	14,18,1	15,146,1	16,27,1	17,7,1	18,186,1	19,105,1	20,39,1	21,151,1	22,59,1	23,5,1	24,33,1	25,48,1	26,74,1	27,85,1	28,3,1	29,176,1	30,92,1	31,16,1	32,70,1	33,102,1	34,125,1	35,104,1	36,152,1	37,65,1	38,182,1	39,165,1	40,110,1	41,19,1	42,97,1	43,10,1	44,120,1	45,73,1	46,87,1	47,198,1	48,75,1	49,134,1	50,17,1	51,84,1	52,83,1	53,53,1	54,150,1	55,90,1	56,108,1	57,15,1	58,181,1	59,191,1	60,113,1	61,131,1	62,184,1	63,185,1	64,49,1	65,130,1	66,162,1	67,200,1	68,20,1	69,178,1	70,82,1	71,77,1	72,42,1	73,164,1	74,145,1	75,31,1	76,183,1	77,188,1	78,142,1	79,81,1	80,124,1	81,51,1	82,154,1	83,195,1	84,29,1	85,35,1	86,174,1	87,11,1	88,112,1	89,168,1	90,55,1	91,30,1	92,94,1	93,109,1	94,58,1	95,167,1	96,163,1	97,103,1	98,179,1	99,169,1	100,147,1	101,170,1	102,68,1	103,121,1	104,9,1	105,63,1	106,23,1	107,128,1	108,192,1	109,62,1	110,187,1	111,71,1	112,80,1	113,126,1	114,122,1	115,34,1	116,116,1	117,115,1	118,141,1	119,118,1	120,127,1	121,72,1	122,144,1	123,12,1	124,156,1	125,138,1	126,106,1	127,175,1	128,153,1	129,123,1	130,119,1	131,177,1	132,67,1	133,66,1	134,36,1	135,38,1	136,52,1	137,190,1	138,189,1	139,32,1	140,173,1	141,64,1	142,157,1	143,56,1	144,50,1	145,28,1	146,95,1	147,69,1	148,114,1	149,4,1	150,91,1	151,61,1	152,137,1	153,172,1	154,166,1	155,133,1	156,196,1	157,93,1	158,86,1	159,194,1	160,100,1	161,57,1	162,161,1	163,78,1	164,76,1	165,47,1	166,180,1	167,41,1	168,99,1	169,26,1	170,24,1	171,88,1	172,160,1	173,40,1	174,96,1	175,46,1	176,54,1	177,79,1	178,22,1	179,117,1	180,101,1	181,159,1	182,21,1	183,148,1	218,171,1	329,155,1	548,201,1	
64,14,1	65,89,1	66,44,1	67,140,1	68,129,1	73,193,1	82,136,1	91,60,1	97,158,1	106,132,1	121,37,1	136,111,1	160,25,1	247,197,1	538,43,1	

# Incoming
65,(14, 40),3	68,(14, 96),3	71,(14, 46),3	74,(14, 54),3	77,(14, 79),3	80,(14, 22),9	89,(14, 117),9	98,(14, 101),9	107,(14, 159),12	119,(14, 21),24	143,(14, 148),36	179,(14, 171),39	218,(14, 155),111	329,(89, 201),9	338,(44, 201),9	347,(140, 201),9	356,(129, 201),9	365,(193, 201),9	374,(136, 201),9	383,(60, 201),9	392,(158, 201),9	401,(132, 201),9	410,(37, 201),9	419,(111, 201),9	428,(25, 201),9	437,(197, 201),9	539,(43, 201),9	
1,(0, 14),63	64,(8, 129),3	67,(13, 193),3	70,(15, 193),3	73,(16, 136),3	76,(20, 136),6	82,(6, 158),6	88,(11, 60),3	91,(7, 158),3	94,(3, 158),3	97,(6, 132),9	106,(17, 37),15	121,(10, 111),12	133,(15, 111),3	136,(19, 25),9	145,(15, 25),3	148,(12, 25),12	160,(1, 197),87	247,(18, 43),3	250,(7, 43),18	268,(17, 43),3	271,(9, 43),267	

# Outgoing
1,(0, 14),63	64,(8, 129),3	67,(13, 193),3	70,(15, 193),3	73,(16, 136),3	76,(20, 136),6	82,(6, 158),6	88,(11, 60),3	91,(7, 158),3	94,(3, 158),3	97,(6, 132),9	106,(17, 37),15	121,(10, 111),12	133,(15, 111),3	136,(19, 25),9	145,(15, 25),3	148,(12, 25),12	160,(1, 197),87	247,(18, 43),3	250,(7, 43),18	268,(17, 43),3	271,(9, 43),267	
65,(14, 40),3	68,(14, 96),3	71,(14, 46),3	74,(14, 54),3	77,(14, 79),3	80,(14, 22),9	89,(14, 117),9	98,(14, 101),9	107,(14, 159),12	119,(14, 21),24	143,(14, 148),36	179,(14, 171),39	218,(14, 155),111	329,(89, 201),9	338,(44, 201),9	347,(140, 201),9	356,(129, 201),9	365,(193, 201),9	374,(136, 201),9	383,(60, 201),9	392,(158, 201),9	401,(132, 201),9	410,(37, 201),9	419,(111, 201),9	428,(25, 201),9	437,(197, 201),9	539,(43, 201),9	

