4508
# CPU
43,3,2	45,25,2	47,29,2	49,31,2	51,113,2	53,70,2	55,81,2	57,51,2	59,85,2	61,110,2	85,6,2	87,32,2	89,50,2	91,66,2	93,80,2	95,93,2	127,9,2	129,53,2	131,54,2	133,69,2	135,79,2	137,95,2	139,96,2	141,99,2	143,117,2	145,92,2	147,26,2	169,12,2	171,44,2	173,45,2	175,48,2	177,84,2	179,108,2	181,76,2	184,36,2	259,41,2	262,58,2	307,61,2	310,73,2	337,77,2	346,94,2	496,105,2	499,106,2	757,109,2	796,30,2	835,27,2	841,83,2	895,64,2	898,75,2	916,97,2	919,112,2	925,18,2	937,21,2	1000,57,2	1012,59,2	1015,71,2	1123,74,2	1150,87,2	1183,102,2	1228,103,2	1282,111,2	1366,120,2	1369,33,2	1471,37,2	1489,52,2	1492,90,2	1507,104,2	1750,24,2	1774,34,2	1801,62,2	1828,63,2	1855,82,2	3322,42,2	3355,47,2	3364,100,2	3376,114,2	3388,115,2	3400,118,2	3403,119,2	3415,28,2	3421,35,2	3427,40,2	3436,49,2	3439,60,2	3451,65,2	3457,86,2	3472,89,2	3475,91,2	3556,98,2	3574,107,2	3667,116,2	3673,20,2	3736,38,2	3748,43,2	3763,46,2	3772,67,2	3781,68,2	3784,72,2	3805,78,2	3943,88,2	3949,101,2	4507,121,1	
22,2,2	24,17,2	26,55,2	64,5,2	106,8,2	148,11,2	226,23,2	298,19,2	400,39,2	841,56,2	
0,0,1	1,10,2	3,7,2	5,1,2	7,4,2	9,13,2	11,22,2	36,14,2	415,15,2	490,16,2	
# Incoming
22,(0, 3),21	45,(2, 51),3	48,(2, 85),6	54,(2, 110),6	64,(0, 6),21	85,(2, 20),21	106,(0, 9),21	127,(2, 92),12	139,(5, 26),3	142,(5, 52),3	145,(5, 90),3	148,(0, 12),21	169,(10, 36),15	184,(10, 41),75	259,(10, 58),3	262,(10, 61),45	307,(10, 73),3	310,(10, 77),27	337,(10, 94),9	346,(10, 105),150	496,(10, 106),3	499,(10, 109),258	757,(7, 30),39	796,(7, 37),24	820,(5, 27),15	835,(5, 83),6	841,(7, 64),54	895,(7, 75),3	898,(7, 97),18	916,(7, 112),3	919,(1, 18),6	925,(1, 21),12	937,(1, 47),18	955,(1, 57),45	1000,(1, 59),12	1012,(1, 71),3	1015,(1, 74),108	1123,(1, 86),12	1135,(1, 87),15	1150,(1, 89),3	1153,(1, 102),30	1183,(1, 103),45	1228,(1, 111),54	1282,(1, 120),84	1366,(4, 33),3	1369,(4, 37),102	1471,(4, 52),18	1489,(4, 90),3	1492,(4, 104),15	1507,(13, 121),93	1600,(22, 121),93	1693,(2, 24),57	1750,(2, 34),24	1774,(2, 62),27	1801,(2, 63),27	1828,(2, 82),27	1855,(2, 101),1176	3031,(17, 121),93	3124,(55, 121),93	3217,(14, 121),93	3310,(5, 42),12	3322,(5, 47),33	3355,(5, 100),9	3364,(5, 114),12	3376,(5, 115),12	3388,(5, 118),12	3400,(5, 119),3	3403,(8, 28),12	3415,(8, 35),6	3421,(8, 40),6	3427,(8, 49),9	3436,(8, 60),3	3439,(8, 65),12	3451,(8, 86),6	3457,(8, 89),15	3472,(8, 91),3	3475,(8, 98),81	3556,(8, 107),18	3574,(8, 116),93	3667,(11, 20),6	3673,(11, 38),63	3736,(11, 43),12	3748,(11, 46),15	3763,(11, 67),9	3772,(11, 68),9	3781,(11, 72),3	3784,(11, 78),21	3805,(11, 88),138	3943,(11, 101),6	3949,(23, 121),93	4042,(19, 121),93	4135,(39, 121),93	4228,(15, 121),93	4321,(16, 121),93	4414,(56, 121),93	
1,(0, 2),21	43,(0, 5),21	85,(0, 8),21	127,(0, 11),21	148,(3, 23),78	226,(9, 19),72	298,(9, 39),102	820,(7, 56),21	
24,(2, 14),12	36,(2, 15),9	400,(12, 15),15	415,(12, 16),75	
# Outgoing
148,(3, 23),78	226,(9, 19),72	298,(9, 39),102	400,(12, 15),15	415,(12, 16),75	
24,(2, 14),12	36,(2, 15),9	45,(2, 51),3	48,(2, 85),6	54,(2, 110),6	85,(2, 20),21	127,(2, 92),12	139,(5, 26),3	142,(5, 52),3	145,(5, 90),3	820,(5, 27),15	835,(5, 83),6	1693,(2, 24),57	1750,(2, 34),24	1774,(2, 62),27	1801,(2, 63),27	1828,(2, 82),27	1855,(2, 101),1176	3031,(17, 121),93	3124,(55, 121),93	3310,(5, 42),12	3322,(5, 47),33	3355,(5, 100),9	3364,(5, 114),12	3376,(5, 115),12	3388,(5, 118),12	3400,(5, 119),3	3403,(8, 28),12	3415,(8, 35),6	3421,(8, 40),6	3427,(8, 49),9	3436,(8, 60),3	3439,(8, 65),12	3451,(8, 86),6	3457,(8, 89),15	3472,(8, 91),3	3475,(8, 98),81	3556,(8, 107),18	3574,(8, 116),93	3667,(11, 20),6	3673,(11, 38),63	3736,(11, 43),12	3748,(11, 46),15	3763,(11, 67),9	3772,(11, 68),9	3781,(11, 72),3	3784,(11, 78),21	3805,(11, 88),138	3943,(11, 101),6	3949,(23, 121),93	4042,(19, 121),93	4135,(39, 121),93	4414,(56, 121),93	
1,(0, 2),21	22,(0, 3),21	43,(0, 5),21	64,(0, 6),21	85,(0, 8),21	106,(0, 9),21	127,(0, 11),21	148,(0, 12),21	169,(10, 36),15	184,(10, 41),75	259,(10, 58),3	262,(10, 61),45	307,(10, 73),3	310,(10, 77),27	337,(10, 94),9	346,(10, 105),150	496,(10, 106),3	499,(10, 109),258	757,(7, 30),39	796,(7, 37),24	820,(7, 56),21	841,(7, 64),54	895,(7, 75),3	898,(7, 97),18	916,(7, 112),3	919,(1, 18),6	925,(1, 21),12	937,(1, 47),18	955,(1, 57),45	1000,(1, 59),12	1012,(1, 71),3	1015,(1, 74),108	1123,(1, 86),12	1135,(1, 87),15	1150,(1, 89),3	1153,(1, 102),30	1183,(1, 103),45	1228,(1, 111),54	1282,(1, 120),84	1366,(4, 33),3	1369,(4, 37),102	1471,(4, 52),18	1489,(4, 90),3	1492,(4, 104),15	1507,(13, 121),93	1600,(22, 121),93	3217,(14, 121),93	4228,(15, 121),93	4321,(16, 121),93	
