318
# CPU
71,11,1	79,23,1	91,14,1	115,37,1	133,27,1	135,19,1	169,29,1	173,30,1	187,33,1	189,38,1	263,32,1	273,35,1	301,39,1	307,40,1	317,41,1	
37,4,1	38,17,1	39,25,1	49,22,1	53,12,1	67,10,1	89,24,1	271,34,1	299,36,1	
25,3,1	53,7,1	67,21,1	103,31,1	111,20,1	
13,2,1	14,9,1	43,6,1	83,18,1	103,15,1	167,28,1	
0,0,1	1,1,1	2,13,1	22,5,1	54,8,1	133,16,1	253,26,1	
# Incoming
67,(1, 11),4	71,(2, 23),8	79,(2, 38),8	87,(9, 41),2	89,(3, 14),2	91,(6, 41),2	93,(18, 41),2	104,(15, 41),2	107,(1, 37),8	115,(1, 39),12	127,(13, 41),2	129,(5, 41),2	131,(4, 27),2	133,(3, 19),2	135,(8, 41),2	137,(16, 41),2	167,(4, 29),2	169,(4, 30),4	173,(4, 33),14	187,(4, 38),2	189,(17, 41),2	191,(25, 41),2	193,(22, 41),2	195,(12, 41),2	197,(10, 41),2	199,(24, 41),2	201,(28, 41),2	253,(3, 32),10	263,(26, 41),2	271,(3, 35),2	273,(34, 41),2	299,(3, 39),2	301,(3, 40),6	307,(7, 41),2	309,(21, 41),2	311,(31, 41),2	313,(20, 41),2	315,(36, 41),2	
25,(0, 4),12	37,(2, 10),4	41,(2, 22),8	49,(3, 12),4	53,(1, 10),14	83,(3, 24),6	103,(1, 36),4	263,(3, 34),8	273,(3, 36),26	
13,(0, 3),12	25,(2, 20),2	43,(1, 7),10	53,(2, 21),14	71,(1, 31),32	103,(4, 20),8	
1,(0, 2),12	37,(1, 6),6	53,(3, 18),30	83,(4, 15),20	133,(4, 28),34	
14,(2, 5),8	38,(4, 8),16	91,(3, 16),42	135,(3, 26),118	
# Outgoing

38,(4, 8),16	83,(4, 15),20	103,(4, 20),8	131,(4, 27),2	133,(4, 28),34	167,(4, 29),2	169,(4, 30),4	173,(4, 33),14	187,(4, 38),2	189,(17, 41),2	191,(25, 41),2	193,(22, 41),2	195,(12, 41),2	197,(10, 41),2	199,(24, 41),2	273,(34, 41),2	315,(36, 41),2	
49,(3, 12),4	53,(3, 18),30	83,(3, 24),6	89,(3, 14),2	91,(3, 16),42	133,(3, 19),2	135,(3, 26),118	253,(3, 32),10	263,(3, 34),8	271,(3, 35),2	273,(3, 36),26	299,(3, 39),2	301,(3, 40),6	307,(7, 41),2	309,(21, 41),2	311,(31, 41),2	313,(20, 41),2	
14,(2, 5),8	25,(2, 20),2	37,(2, 10),4	41,(2, 22),8	53,(2, 21),14	71,(2, 23),8	79,(2, 38),8	87,(9, 41),2	91,(6, 41),2	93,(18, 41),2	104,(15, 41),2	201,(28, 41),2	
1,(0, 2),12	13,(0, 3),12	25,(0, 4),12	37,(1, 6),6	43,(1, 7),10	53,(1, 10),14	67,(1, 11),4	71,(1, 31),32	103,(1, 36),4	107,(1, 37),8	115,(1, 39),12	127,(13, 41),2	129,(5, 41),2	135,(8, 41),2	137,(16, 41),2	263,(26, 41),2	
