6044
# CPU
97,3,1	98,63,1	129,19,1	137,32,1	193,6,1	194,18,1	209,33,1	225,34,1	239,45,1	4551,17,1	4573,30,1	4745,58,1	4775,75,1	4777,79,1	4781,13,1	4947,62,1	4951,64,1	4973,29,1	4975,37,1	4989,39,1	5031,44,1	5035,52,1	5109,57,1	5263,65,1	5267,16,1	5289,31,1	5299,43,1	5303,53,1	5305,22,1	5315,23,1	5317,24,1	5327,25,1	5331,27,1	5405,76,1	5411,49,1	5413,54,1	5415,55,1	5417,59,1	5425,61,1	5435,69,1	5441,36,1	5443,40,1	5455,41,1	5463,42,1	5491,47,1	5623,48,1	5675,60,1	5689,66,1	5695,70,1	5705,80,1	5741,38,1	5803,46,1	5831,50,1	5921,51,1	5947,56,1	5951,67,1	5977,68,1	5995,71,1	5997,72,1	5999,73,1	6001,74,1	6005,77,1	6023,78,1	6043,81,1	
49,2,1	145,5,1	241,8,1	242,14,1	243,21,1	244,12,1	481,26,1	661,28,1	5275,11,1	5299,15,1	5303,20,1	5435,35,1	
0,0,1	1,1,1	2,7,1	3,4,1	4,9,1	773,10,1	
# Incoming
49,(0, 3),48	97,(2, 17),2	99,(2, 19),30	129,(2, 30),6	135,(2, 32),2	137,(2, 39),2	139,(2, 42),6	145,(0, 6),48	193,(2, 33),16	209,(2, 34),16	225,(2, 43),12	237,(2, 45),2	239,(2, 56),2	241,(2, 59),2	243,(1, 16),12	255,(1, 27),6	261,(1, 39),24	285,(1, 41),4	289,(1, 46),2	291,(1, 47),2	293,(1, 49),208	501,(1, 51),28	529,(1, 53),22	551,(1, 57),6	557,(1, 59),12	569,(1, 60),104	673,(1, 61),28	701,(1, 65),24	725,(1, 67),2	727,(1, 68),10	737,(1, 71),344	1081,(1, 75),56	1137,(1, 76),3378	4515,(1, 77),28	4543,(1, 79),2	4545,(2, 62),2	4547,(7, 17),4	4551,(2, 73),2	4553,(7, 23),14	4567,(7, 25),4	4571,(7, 30),2	4573,(7, 31),2	4575,(2, 25),86	4661,(2, 37),30	4691,(2, 48),16	4707,(2, 49),18	4725,(2, 58),20	4745,(2, 65),16	4761,(2, 66),4	4765,(2, 75),10	4775,(2, 79),2	4777,(5, 13),4	4781,(5, 22),10	4791,(5, 37),14	4805,(5, 39),40	4845,(5, 40),16	4861,(5, 42),44	4905,(5, 43),2	4907,(5, 46),2	4909,(5, 51),2	4911,(5, 52),22	4933,(5, 53),2	4935,(5, 60),6	4941,(5, 62),6	4947,(5, 64),4	4951,(5, 66),6	4957,(5, 72),2	4959,(5, 77),12	4971,(8, 29),2	4973,(7, 37),2	4975,(7, 38),6	4981,(7, 39),8	4989,(7, 44),42	5031,(7, 50),2	5033,(7, 52),2	5035,(7, 53),2	5037,(7, 56),14	5051,(7, 57),58	5109,(7, 60),10	5119,(7, 69),46	5165,(7, 72),46	5211,(7, 77),14	5225,(5, 65),38	5263,(8, 16),4	5267,(8, 27),16	5283,(8, 31),6	5289,(8, 36),2	5291,(8, 40),6	5297,(8, 43),2	5299,(8, 48),2	5301,(8, 53),2	5303,(4, 22),2	5305,(4, 23),10	5315,(4, 24),2	5317,(4, 25),10	5327,(4, 27),4	5331,(5, 76),74	5405,(8, 49),6	5411,(8, 54),2	5413,(8, 55),2	5415,(8, 59),2	5417,(8, 60),6	5423,(8, 61),2	5425,(8, 66),8	5433,(8, 69),2	5435,(4, 36),6	5441,(4, 40),2	5443,(4, 41),12	5455,(4, 42),8	5463,(4, 47),28	5491,(4, 48),132	5623,(4, 51),38	5661,(4, 60),14	5675,(4, 66),14	5689,(4, 70),6	5695,(4, 72),2	5697,(4, 73),4	5701,(4, 80),4	5705,(9, 81),2	5707,(8, 38),34	5741,(8, 46),62	5803,(8, 50),28	5831,(8, 51),90	5921,(8, 56),26	5947,(8, 67),4	5951,(8, 68),26	5977,(8, 71),18	5995,(8, 72),2	5997,(8, 73),2	5999,(8, 74),2	6001,(8, 77),4	6005,(8, 78),18	6023,(14, 81),2	6025,(21, 81),2	6027,(12, 81),2	6029,(26, 81),2	6031,(28, 81),2	6033,(10, 81),2	6035,(11, 81),2	6037,(15, 81),2	6039,(20, 81),2	6041,(35, 81),2	
1,(0, 2),48	97,(0, 5),48	158,(3, 11),18	176,(3, 12),2	178,(3, 20),10	188,(3, 26),2	193,(0, 8),48	241,(1, 12),2	243,(3, 15),142	385,(3, 35),4	389,(6, 11),2	391,(6, 26),90	481,(6, 28),180	4545,(7, 15),2	4551,(7, 20),2	4575,(7, 35),398	5225,(4, 11),50	5275,(4, 15),24	5299,(4, 20),4	5331,(4, 35),104	
98,(3, 10),60	194,(6, 10),20	243,(8, 10),530	
# Outgoing
98,(3, 10),60	158,(3, 11),18	176,(3, 12),2	178,(3, 20),10	188,(3, 26),2	194,(6, 10),20	243,(3, 15),142	385,(3, 35),4	389,(6, 11),2	391,(6, 26),90	481,(6, 28),180	
97,(2, 17),2	99,(2, 19),30	129,(2, 30),6	135,(2, 32),2	137,(2, 39),2	139,(2, 42),6	193,(2, 33),16	209,(2, 34),16	225,(2, 43),12	237,(2, 45),2	239,(2, 56),2	241,(2, 59),2	243,(8, 10),530	4545,(2, 62),2	4551,(2, 73),2	4575,(2, 25),86	4661,(2, 37),30	4691,(2, 48),16	4707,(2, 49),18	4725,(2, 58),20	4745,(2, 65),16	4761,(2, 66),4	4765,(2, 75),10	4775,(2, 79),2	4777,(5, 13),4	4781,(5, 22),10	4791,(5, 37),14	4805,(5, 39),40	4845,(5, 40),16	4861,(5, 42),44	4905,(5, 43),2	4907,(5, 46),2	4909,(5, 51),2	4911,(5, 52),22	4933,(5, 53),2	4935,(5, 60),6	4941,(5, 62),6	4947,(5, 64),4	4951,(5, 66),6	4957,(5, 72),2	4959,(5, 77),12	4971,(8, 29),2	5225,(5, 65),38	5263,(8, 16),4	5267,(8, 27),16	5283,(8, 31),6	5289,(8, 36),2	5291,(8, 40),6	5297,(8, 43),2	5299,(8, 48),2	5301,(8, 53),2	5331,(5, 76),74	5405,(8, 49),6	5411,(8, 54),2	5413,(8, 55),2	5415,(8, 59),2	5417,(8, 60),6	5423,(8, 61),2	5425,(8, 66),8	5433,(8, 69),2	5707,(8, 38),34	5741,(8, 46),62	5803,(8, 50),28	5831,(8, 51),90	5921,(8, 56),26	5947,(8, 67),4	5951,(8, 68),26	5977,(8, 71),18	5995,(8, 72),2	5997,(8, 73),2	5999,(8, 74),2	6001,(8, 77),4	6005,(8, 78),18	6023,(14, 81),2	6025,(21, 81),2	6027,(12, 81),2	6029,(26, 81),2	6031,(28, 81),2	6035,(11, 81),2	6037,(15, 81),2	6039,(20, 81),2	6041,(35, 81),2	
1,(0, 2),48	49,(0, 3),48	97,(0, 5),48	145,(0, 6),48	193,(0, 8),48	241,(1, 12),2	243,(1, 16),12	255,(1, 27),6	261,(1, 39),24	285,(1, 41),4	289,(1, 46),2	291,(1, 47),2	293,(1, 49),208	501,(1, 51),28	529,(1, 53),22	551,(1, 57),6	557,(1, 59),12	569,(1, 60),104	673,(1, 61),28	701,(1, 65),24	725,(1, 67),2	727,(1, 68),10	737,(1, 71),344	1081,(1, 75),56	1137,(1, 76),3378	4515,(1, 77),28	4543,(1, 79),2	4545,(7, 15),2	4547,(7, 17),4	4551,(7, 20),2	4553,(7, 23),14	4567,(7, 25),4	4571,(7, 30),2	4573,(7, 31),2	4575,(7, 35),398	4973,(7, 37),2	4975,(7, 38),6	4981,(7, 39),8	4989,(7, 44),42	5031,(7, 50),2	5033,(7, 52),2	5035,(7, 53),2	5037,(7, 56),14	5051,(7, 57),58	5109,(7, 60),10	5119,(7, 69),46	5165,(7, 72),46	5211,(7, 77),14	5225,(4, 11),50	5275,(4, 15),24	5299,(4, 20),4	5303,(4, 22),2	5305,(4, 23),10	5315,(4, 24),2	5317,(4, 25),10	5327,(4, 27),4	5331,(4, 35),104	5435,(4, 36),6	5441,(4, 40),2	5443,(4, 41),12	5455,(4, 42),8	5463,(4, 47),28	5491,(4, 48),132	5623,(4, 51),38	5661,(4, 60),14	5675,(4, 66),14	5689,(4, 70),6	5695,(4, 72),2	5697,(4, 73),4	5701,(4, 80),4	5705,(9, 81),2	6033,(10, 81),2	
