1898
# CPU
13,7,13	26,41,13	39,62,13	52,99,13	65,103,13	78,110,13	91,45,13	104,82,13	117,87,13	130,101,13	143,69,13	156,88,13	1441,96,13	1454,102,13	
15,8,13	28,25,13	41,13,13	54,37,13	67,51,13	80,35,13	93,19,13	106,23,13	119,91,13	132,105,13	145,118,13	158,66,13	171,104,13	1297,67,13	
11,5,13	24,15,13	37,55,13	50,98,13	63,71,13	76,20,13	89,56,13	102,83,13	115,119,13	128,53,13	1433,85,13	1457,33,13	1470,58,13	
7,3,13	20,14,13	33,16,13	46,57,13	59,31,13	72,50,13	85,61,13	98,106,13	111,116,13	125,92,13	138,38,13	
3,1,13	16,60,13	29,84,13	42,21,13	58,59,13	71,47,13	84,93,13	97,108,13	110,54,13	1293,64,13	1463,48,13	
5,2,13	18,18,13	58,100,13	74,22,13	87,109,13	100,28,13	1279,52,13	1292,63,13	1451,107,13	1464,117,13	1477,90,13	
9,4,13	22,32,13	35,76,13	48,65,13	61,80,13	74,26,13	87,70,13	117,30,13	135,94,13	1431,81,13	1444,86,13	
0,0,1	1,9,13	14,6,13	27,17,13	40,27,13	53,89,13	66,68,13	79,36,13	92,39,13	105,114,13	118,79,13	131,115,13	
19,11,13	32,12,13	45,46,13	58,24,13	71,78,13	84,44,13	97,97,13	110,75,13	123,113,13	1417,77,13	1481,95,13	1494,120,13	
17,10,13	30,40,13	43,43,13	107,29,13	131,34,13	144,112,13	1389,74,13	1537,72,13	1550,111,13	1623,42,13	1683,73,13	1753,49,13	1897,121,1	
# Incoming
11,(0, 7),2	20,(2, 45),4	28,(3, 45),2	30,(4, 82),6	36,(4, 87),2	38,(1, 88),2	40,(1, 96),2	42,(1, 101),2	46,(10, 88),2	52,(4, 69),16	68,(10, 96),4	72,(12, 88),2	1439,(9, 96),2	1441,(9, 102),8	
13,(0, 8),2	18,(2, 13),2	20,(3, 25),6	43,(9, 23),6	49,(1, 104),2	51,(1, 105),4	60,(11, 91),2	62,(11, 105),2	76,(12, 118),2	125,(12, 66),6	135,(12, 104),6	1293,(9, 67),4	
9,(0, 5),2	21,(9, 15),2	23,(4, 20),6	34,(8, 56),2	40,(8, 83),10	50,(11, 33),6	61,(1, 119),18	79,(11, 53),10	1279,(9, 58),2	1431,(9, 85),2	1455,(6, 33),2	1463,(6, 58),2	
5,(0, 3),2	16,(1, 50),6	36,(10, 92),2	48,(11, 61),2	58,(10, 106),8	66,(11, 116),2	107,(11, 92),18	131,(9, 38),2	
1,(0, 1),2	23,(9, 21),4	30,(3, 48),16	46,(4, 54),6	52,(5, 59),6	58,(11, 48),2	68,(12, 47),2	70,(12, 93),2	72,(5, 108),2	89,(11, 54),18	1229,(9, 48),38	1283,(9, 64),10	1457,(6, 48),6	
3,(0, 2),2	27,(9, 22),16	44,(5, 28),2	46,(3, 100),12	58,(5, 107),14	72,(7, 22),2	74,(11, 52),2	78,(7, 109),2	80,(8, 63),6	86,(10, 28),6	116,(10, 117),14	1267,(9, 52),12	1281,(9, 63),2	1449,(9, 107),2	1451,(9, 117),4	1465,(6, 90),2	
7,(0, 4),2	26,(3, 30),2	28,(8, 26),2	30,(8, 30),4	34,(10, 26),2	36,(8, 81),4	40,(11, 30),8	56,(11, 86),2	64,(12, 26),2	74,(7, 70),2	76,(7, 94),2	107,(9, 30),10	133,(12, 94),2	1417,(9, 81),14	1433,(9, 86),6	
44,(1, 115),4	48,(10, 79),10	68,(4, 79),8	76,(4, 115),4	80,(5, 115),6	
17,(0, 11),2	19,(0, 12),2	24,(2, 95),10	36,(1, 78),2	38,(5, 24),6	44,(10, 75),2	46,(5, 75),4	55,(1, 113),6	61,(8, 77),8	80,(7, 113),16	96,(10, 95),20	1389,(9, 77),28	1467,(6, 95),14	1481,(6, 120),2	
15,(0, 10),2	22,(1, 72),14	36,(18, 121),2	38,(32, 121),2	49,(9, 29),58	107,(60, 121),2	109,(14, 121),2	111,(15, 121),2	113,(41, 121),2	115,(25, 121),2	117,(9, 34),14	131,(11, 112),2	133,(9, 42),1096	1229,(2, 73),14	1243,(3, 42),20	1263,(84, 121),2	1265,(16, 121),2	1267,(76, 121),2	1269,(55, 121),2	1271,(62, 121),2	1273,(13, 121),2	1275,(21, 121),2	1277,(46, 121),2	1279,(57, 121),2	1281,(65, 121),2	1283,(98, 121),2	1285,(99, 121),2	1287,(37, 121),2	1289,(100, 121),2	1291,(59, 121),2	1293,(24, 121),2	1295,(31, 121),2	1297,(9, 74),92	1389,(5, 73),42	1431,(7, 73),104	1535,(6, 72),2	1537,(6, 111),8	1545,(11, 42),78	1623,(11, 73),60	1683,(17, 121),2	1685,(12, 49),68	1753,(27, 121),2	1755,(89, 121),2	1757,(80, 121),2	1759,(71, 121),2	1761,(103, 121),2	1763,(68, 121),2	1765,(51, 121),2	1767,(47, 121),2	1769,(78, 121),2	1771,(50, 121),2	1773,(22, 121),2	1775,(26, 121),2	1777,(20, 121),2	1779,(110, 121),2	1781,(36, 121),2	1783,(35, 121),2	1785,(93, 121),2	1787,(44, 121),2	1789,(61, 121),2	1791,(109, 121),2	1793,(70, 121),2	1795,(56, 121),2	1797,(45, 121),2	1799,(39, 121),2	1801,(19, 121),2	1803,(108, 121),2	1805,(97, 121),2	1807,(106, 121),2	1809,(28, 121),2	1811,(83, 121),2	1813,(82, 121),2	1815,(114, 121),2	1817,(23, 121),2	1819,(54, 121),2	1821,(75, 121),2	1823,(116, 121),2	1825,(119, 121),2	1827,(30, 121),2	1829,(87, 121),2	1831,(79, 121),2	1833,(91, 121),2	1835,(113, 121),2	1837,(92, 121),2	1839,(53, 121),2	1841,(101, 121),2	1843,(115, 121),2	1845,(105, 121),2	1847,(94, 121),2	1849,(38, 121),2	1851,(69, 121),2	1853,(118, 121),2	1855,(88, 121),2	1857,(66, 121),2	1859,(104, 121),2	1861,(52, 121),2	1863,(63, 121),2	1865,(64, 121),2	1867,(67, 121),2	1869,(77, 121),2	1871,(81, 121),2	1873,(85, 121),2	1875,(96, 121),2	1877,(86, 121),2	1879,(107, 121),2	1881,(102, 121),2	1883,(33, 121),2	1885,(48, 121),2	1887,(117, 121),2	1889,(58, 121),2	1891,(90, 121),2	1893,(95, 121),2	1895,(120, 121),2	
# Outgoing
72,(7, 22),2	74,(7, 70),2	76,(7, 94),2	78,(7, 109),2	80,(7, 113),16	113,(41, 121),2	1271,(62, 121),2	1285,(99, 121),2	1431,(7, 73),104	1761,(103, 121),2	1779,(110, 121),2	1797,(45, 121),2	1813,(82, 121),2	1829,(87, 121),2	1841,(101, 121),2	1851,(69, 121),2	1855,(88, 121),2	1875,(96, 121),2	1881,(102, 121),2	
28,(8, 26),2	30,(8, 30),4	34,(8, 56),2	36,(8, 81),4	40,(8, 83),10	61,(8, 77),8	80,(8, 63),6	115,(25, 121),2	1273,(13, 121),2	1287,(37, 121),2	1765,(51, 121),2	1783,(35, 121),2	1801,(19, 121),2	1817,(23, 121),2	1833,(91, 121),2	1845,(105, 121),2	1853,(118, 121),2	1857,(66, 121),2	1859,(104, 121),2	1867,(67, 121),2	
38,(5, 24),6	44,(5, 28),2	46,(5, 75),4	52,(5, 59),6	58,(5, 107),14	72,(5, 108),2	80,(5, 115),6	111,(15, 121),2	1269,(55, 121),2	1283,(98, 121),2	1389,(5, 73),42	1759,(71, 121),2	1777,(20, 121),2	1795,(56, 121),2	1811,(83, 121),2	1825,(119, 121),2	1839,(53, 121),2	1873,(85, 121),2	1883,(33, 121),2	1889,(58, 121),2	
20,(3, 25),6	26,(3, 30),2	28,(3, 45),2	30,(3, 48),16	46,(3, 100),12	109,(14, 121),2	1243,(3, 42),20	1265,(16, 121),2	1279,(57, 121),2	1295,(31, 121),2	1771,(50, 121),2	1789,(61, 121),2	1807,(106, 121),2	1823,(116, 121),2	1837,(92, 121),2	1849,(38, 121),2	
16,(1, 50),6	22,(1, 72),14	36,(1, 78),2	38,(1, 88),2	40,(1, 96),2	42,(1, 101),2	44,(1, 115),4	49,(1, 104),2	51,(1, 105),4	55,(1, 113),6	61,(1, 119),18	107,(60, 121),2	1263,(84, 121),2	1275,(21, 121),2	1291,(59, 121),2	1767,(47, 121),2	1785,(93, 121),2	1803,(108, 121),2	1819,(54, 121),2	1865,(64, 121),2	1885,(48, 121),2	
18,(2, 13),2	20,(2, 45),4	24,(2, 95),10	36,(18, 121),2	1229,(2, 73),14	1289,(100, 121),2	1773,(22, 121),2	1791,(109, 121),2	1809,(28, 121),2	1861,(52, 121),2	1863,(63, 121),2	1879,(107, 121),2	1887,(117, 121),2	1891,(90, 121),2	
23,(4, 20),6	30,(4, 82),6	36,(4, 87),2	38,(32, 121),2	46,(4, 54),6	52,(4, 69),16	68,(4, 79),8	76,(4, 115),4	1267,(76, 121),2	1281,(65, 121),2	1757,(80, 121),2	1775,(26, 121),2	1793,(70, 121),2	1827,(30, 121),2	1847,(94, 121),2	1871,(81, 121),2	1877,(86, 121),2	
1,(0, 1),2	3,(0, 2),2	5,(0, 3),2	7,(0, 4),2	9,(0, 5),2	11,(0, 7),2	13,(0, 8),2	15,(0, 10),2	17,(0, 11),2	19,(0, 12),2	21,(9, 15),2	23,(9, 21),4	27,(9, 22),16	43,(9, 23),6	49,(9, 29),58	107,(9, 30),10	117,(9, 34),14	131,(9, 38),2	133,(9, 42),1096	1229,(9, 48),38	1267,(9, 52),12	1279,(9, 58),2	1281,(9, 63),2	1283,(9, 64),10	1293,(9, 67),4	1297,(9, 74),92	1389,(9, 77),28	1417,(9, 81),14	1431,(9, 85),2	1433,(9, 86),6	1439,(9, 96),2	1441,(9, 102),8	1449,(9, 107),2	1451,(9, 117),4	1455,(6, 33),2	1457,(6, 48),6	1463,(6, 58),2	1465,(6, 90),2	1467,(6, 95),14	1481,(6, 120),2	1535,(6, 72),2	1537,(6, 111),8	1683,(17, 121),2	1753,(27, 121),2	1755,(89, 121),2	1763,(68, 121),2	1781,(36, 121),2	1799,(39, 121),2	1815,(114, 121),2	1831,(79, 121),2	1843,(115, 121),2	
40,(11, 30),8	48,(11, 61),2	50,(11, 33),6	56,(11, 86),2	58,(11, 48),2	60,(11, 91),2	62,(11, 105),2	64,(12, 26),2	66,(11, 116),2	68,(12, 47),2	70,(12, 93),2	72,(12, 88),2	74,(11, 52),2	76,(12, 118),2	79,(11, 53),10	89,(11, 54),18	107,(11, 92),18	125,(12, 66),6	131,(11, 112),2	133,(12, 94),2	135,(12, 104),6	1277,(46, 121),2	1293,(24, 121),2	1545,(11, 42),78	1623,(11, 73),60	1685,(12, 49),68	1769,(78, 121),2	1787,(44, 121),2	1805,(97, 121),2	1821,(75, 121),2	1835,(113, 121),2	1869,(77, 121),2	1893,(95, 121),2	1895,(120, 121),2	
34,(10, 26),2	36,(10, 92),2	44,(10, 75),2	46,(10, 88),2	48,(10, 79),10	58,(10, 106),8	68,(10, 96),4	86,(10, 28),6	96,(10, 95),20	116,(10, 117),14	
