425
# CPU
69,3,13	82,5,13	95,18,13	108,36,13	121,38,13	134,35,13	147,37,13	160,30,13	173,9,13	186,27,13	
35,1,13	48,10,13	61,16,13	74,28,13	87,40,13	100,19,13	113,25,13	126,32,13	139,22,13	152,29,13	
103,4,13	116,6,13	129,7,13	142,21,13	155,20,13	168,15,13	181,17,13	194,24,13	207,23,13	220,34,13	
0,0,1	1,2,13	14,8,13	27,14,13	40,39,13	53,13,13	66,31,13	102,12,13	115,26,13	166,11,13	184,33,13	424,41,1	
# Incoming
35,(0, 3),34	
1,(0, 1),34	103,(2, 22),6	119,(2, 29),2	
69,(0, 4),34	109,(2, 23),10	121,(2, 34),16	
48,(1, 11),6	54,(1, 12),8	62,(1, 26),2	64,(10, 41),12	76,(16, 41),12	88,(3, 12),14	102,(3, 26),2	104,(28, 41),12	116,(5, 41),12	128,(40, 41),12	140,(18, 41),12	152,(19, 41),12	164,(4, 11),2	166,(4, 33),18	184,(36, 41),12	196,(25, 41),12	208,(6, 41),12	220,(38, 41),12	232,(32, 41),12	244,(7, 41),12	256,(35, 41),12	268,(22, 41),12	280,(21, 41),12	292,(37, 41),12	304,(29, 41),12	316,(20, 41),12	328,(30, 41),12	340,(15, 41),12	352,(9, 41),12	364,(17, 41),12	376,(27, 41),12	388,(24, 41),12	400,(23, 41),12	412,(34, 41),12	
# Outgoing
88,(3, 12),14	102,(3, 26),2	116,(5, 41),12	140,(18, 41),12	184,(36, 41),12	220,(38, 41),12	256,(35, 41),12	292,(37, 41),12	328,(30, 41),12	352,(9, 41),12	376,(27, 41),12	
48,(1, 11),6	54,(1, 12),8	62,(1, 26),2	64,(10, 41),12	76,(16, 41),12	104,(28, 41),12	128,(40, 41),12	152,(19, 41),12	196,(25, 41),12	232,(32, 41),12	268,(22, 41),12	304,(29, 41),12	
164,(4, 11),2	166,(4, 33),18	208,(6, 41),12	244,(7, 41),12	280,(21, 41),12	316,(20, 41),12	340,(15, 41),12	364,(17, 41),12	388,(24, 41),12	400,(23, 41),12	412,(34, 41),12	
1,(0, 1),34	35,(0, 3),34	69,(0, 4),34	103,(2, 22),6	109,(2, 23),10	119,(2, 29),2	121,(2, 34),16	
