220
# CPU
0,121,1	1,115,1	2,32,1	3,117,1	4,87,1	5,30,1	6,114,1	7,57,1	8,24,1	9,47,1	10,41,1	11,96,1	12,28,1	13,70,1	14,54,1	15,72,1	16,56,1	17,67,1	18,99,1	19,15,1	20,35,1	21,34,1	22,107,1	23,104,1	24,61,1	25,103,1	26,75,1	27,23,1	28,26,1	29,113,1	30,97,1	31,66,1	32,42,1	33,93,1	34,38,1	35,92,1	36,14,1	37,102,1	38,58,1	39,80,1	40,36,1	41,16,1	42,55,1	43,69,1	44,21,1	45,25,1	46,22,1	47,86,1	48,81,1	49,73,1	50,63,1	51,18,1	52,33,1	53,88,1	54,20,1	55,65,1	56,53,1	57,68,1	58,90,1	59,77,1	60,51,1	61,94,1	62,84,1	63,82,1	64,13,1	65,49,1	66,116,1	67,111,1	68,44,1	69,60,1	70,50,1	71,105,1	72,95,1	73,119,1	74,43,1	75,27,1	76,112,1	77,71,1	78,120,1	79,85,1	80,110,1	81,79,1	82,64,1	83,106,1	84,62,1	85,83,1	86,76,1	87,108,1	88,59,1	89,9,1	90,29,1	91,46,1	92,78,1	93,3,1	94,100,1	95,40,1	96,89,1	97,45,1	98,11,1	99,39,1	100,37,1	101,1,1	102,118,1	103,12,1	104,101,1	105,31,1	106,52,1	107,48,1	108,7,1	109,74,1	110,8,1	111,109,1	112,5,1	113,91,1	114,4,1	115,98,1	116,2,1	117,6,1	218,10,1	219,0,1	

103,17,1	

52,19,1	
# Incoming
53,(19, 6),18	104,(17, 10),114	

52,(121, 17),51	

1,(121, 19),51	
# Outgoing
1,(121, 19),51	52,(121, 17),51	

104,(17, 10),114	

53,(19, 6),18	
