31680
# CPU
421,9,9	593,14,9	1533,19,9	1611,39,9	31213,24,9	31283,29,9	31409,34,9	
403,4,9	457,8,9	466,13,9	1311,38,9	31169,18,9	31189,23,9	31281,28,9	31399,33,9	
269,3,9	449,32,9	531,12,9	31167,17,9	31177,22,9	31219,27,9	31291,37,9	31649,7,9	
135,2,9	525,6,9	561,11,9	669,16,9	31171,21,9	31217,26,9	31285,31,9	31451,36,9	
0,0,1	1,1,9	415,5,9	424,35,9	451,20,9	460,25,9	469,10,9	479,15,9	491,30,9	1311,40,9	31679,41,1	
# Incoming
405,(1, 9),2	413,(3, 9),8	421,(4, 14),2	423,(4, 19),2	449,(4, 34),2	453,(3, 29),4	459,(2, 14),8	467,(3, 34),4	485,(2, 19),28	517,(2, 24),52	569,(3, 14),24	597,(2, 29),360	957,(2, 34),350	1311,(2, 39),202	1513,(3, 19),20	1533,(3, 39),26	1559,(4, 39),52	31189,(1, 24),24	31281,(1, 29),2	31399,(1, 34),10	
269,(0, 4),134	403,(2, 8),54	457,(2, 13),2	459,(3, 28),2	467,(2, 18),18	485,(3, 33),10	513,(2, 23),4	569,(2, 28),28	625,(3, 18),632	1307,(2, 38),4	31167,(1, 18),2	31177,(1, 23),12	31219,(1, 28),62	31285,(1, 33),114	
135,(0, 3),134	269,(2, 7),12	389,(2, 12),2	397,(2, 17),4	425,(4, 22),20	445,(4, 32),4	511,(1, 12),20	537,(1, 17),30630	31171,(1, 22),6	31217,(1, 27),2	31219,(2, 37),72	31291,(4, 7),358	
1,(0, 2),134	403,(1, 6),2	407,(1, 11),104	511,(3, 6),14	525,(3, 21),2	527,(3, 26),2	529,(4, 31),2	531,(1, 16),6	537,(3, 11),24	561,(3, 31),8	569,(4, 26),8	593,(3, 16),32	625,(4, 16),44	31169,(1, 21),2	31213,(1, 26),4	31283,(1, 31),2	31409,(1, 36),42	
281,(2, 10),108	391,(2, 15),6	401,(2, 25),2	403,(3, 5),10	413,(4, 5),2	415,(4, 20),2	417,(4, 25),2	419,(4, 35),2	421,(3, 10),24	445,(3, 15),4	449,(3, 20),2	451,(3, 25),2	453,(4, 10),10	463,(4, 15),16	479,(4, 30),12	491,(4, 40),36	527,(9, 41),10	537,(8, 41),10	547,(13, 41),10	602,(14, 41),10	1257,(3, 40),54	1311,(32, 41),10	1321,(12, 41),10	1331,(38, 41),10	1513,(6, 41),10	1523,(11, 41),10	1533,(16, 41),10	1543,(19, 41),10	1620,(39, 41),10	31176,(17, 41),10	31186,(18, 41),10	31196,(21, 41),10	31206,(22, 41),10	31216,(23, 41),10	31226,(24, 41),10	31236,(27, 41),10	31291,(26, 41),10	31301,(29, 41),10	31311,(31, 41),10	31321,(37, 41),10	31418,(34, 41),10	31460,(36, 41),10	31649,(28, 41),10	31659,(33, 41),10	31669,(7, 41),10	
# Outgoing
527,(9, 41),10	602,(14, 41),10	1543,(19, 41),10	1620,(39, 41),10	31226,(24, 41),10	31301,(29, 41),10	31418,(34, 41),10	
413,(4, 5),2	415,(4, 20),2	417,(4, 25),2	419,(4, 35),2	421,(4, 14),2	423,(4, 19),2	425,(4, 22),20	445,(4, 32),4	449,(4, 34),2	453,(4, 10),10	463,(4, 15),16	479,(4, 30),12	491,(4, 40),36	529,(4, 31),2	537,(8, 41),10	547,(13, 41),10	569,(4, 26),8	625,(4, 16),44	1331,(38, 41),10	1559,(4, 39),52	31186,(18, 41),10	31216,(23, 41),10	31291,(4, 7),358	31649,(28, 41),10	31659,(33, 41),10	
403,(3, 5),10	413,(3, 9),8	421,(3, 10),24	445,(3, 15),4	449,(3, 20),2	451,(3, 25),2	453,(3, 29),4	459,(3, 28),2	467,(3, 34),4	485,(3, 33),10	511,(3, 6),14	525,(3, 21),2	527,(3, 26),2	537,(3, 11),24	561,(3, 31),8	569,(3, 14),24	593,(3, 16),32	625,(3, 18),632	1257,(3, 40),54	1311,(32, 41),10	1321,(12, 41),10	1513,(3, 19),20	1533,(3, 39),26	31176,(17, 41),10	31206,(22, 41),10	31236,(27, 41),10	31321,(37, 41),10	31669,(7, 41),10	
269,(2, 7),12	281,(2, 10),108	389,(2, 12),2	391,(2, 15),6	397,(2, 17),4	401,(2, 25),2	403,(2, 8),54	457,(2, 13),2	459,(2, 14),8	467,(2, 18),18	485,(2, 19),28	513,(2, 23),4	517,(2, 24),52	569,(2, 28),28	597,(2, 29),360	957,(2, 34),350	1307,(2, 38),4	1311,(2, 39),202	1513,(6, 41),10	1523,(11, 41),10	1533,(16, 41),10	31196,(21, 41),10	31219,(2, 37),72	31291,(26, 41),10	31311,(31, 41),10	31460,(36, 41),10	
1,(0, 2),134	135,(0, 3),134	269,(0, 4),134	403,(1, 6),2	405,(1, 9),2	407,(1, 11),104	511,(1, 12),20	531,(1, 16),6	537,(1, 17),30630	31167,(1, 18),2	31169,(1, 21),2	31171,(1, 22),6	31177,(1, 23),12	31189,(1, 24),24	31213,(1, 26),4	31217,(1, 27),2	31219,(1, 28),62	31281,(1, 29),2	31283,(1, 31),2	31285,(1, 33),114	31399,(1, 34),10	31409,(1, 36),42	
