547
# CPU
363,12,8	
232,11,8	
360,10,8	399,20,8	
201,9,8	393,19,8	
181,8,8	256,18,8	
195,7,8	390,17,8	
175,6,8	253,16,8	
192,5,8	387,15,8	
163,2,8	171,4,8	179,14,8	
0,0,1	1,1,8	174,3,8	378,13,8	546,21,1	
# Incoming
360,(2, 12),3	
181,(1, 11),51	
201,(2, 10),159	393,(2, 20),6	
195,(2, 9),6	390,(2, 19),3	
175,(1, 8),6	253,(1, 18),3	
192,(2, 7),3	387,(2, 17),3	
166,(1, 6),9	232,(1, 16),21	
174,(2, 5),18	378,(2, 15),9	
1,(0, 2),162	163,(1, 4),3	
171,(2, 3),3	183,(6, 21),21	204,(8, 21),21	225,(5, 21),21	246,(7, 21),21	267,(9, 21),21	288,(11, 21),21	309,(16, 21),21	330,(18, 21),21	363,(2, 13),15	378,(10, 21),21	399,(4, 21),21	420,(14, 21),21	441,(12, 21),21	462,(15, 21),21	483,(17, 21),21	504,(19, 21),21	525,(20, 21),21	
# Outgoing
441,(12, 21),21	
288,(11, 21),21	
378,(10, 21),21	525,(20, 21),21	
267,(9, 21),21	504,(19, 21),21	
204,(8, 21),21	330,(18, 21),21	
246,(7, 21),21	483,(17, 21),21	
183,(6, 21),21	309,(16, 21),21	
225,(5, 21),21	462,(15, 21),21	
171,(2, 3),3	174,(2, 5),18	192,(2, 7),3	195,(2, 9),6	201,(2, 10),159	360,(2, 12),3	363,(2, 13),15	378,(2, 15),9	387,(2, 17),3	390,(2, 19),3	393,(2, 20),6	399,(4, 21),21	420,(14, 21),21	
1,(0, 2),162	163,(1, 4),3	166,(1, 6),9	175,(1, 8),6	181,(1, 11),51	232,(1, 16),21	253,(1, 18),3	
