1200
# CPU
0,121,1	1,92,10	11,67,10	21,70,10	31,39,10	41,89,10	51,97,10	61,13,10	71,105,10	81,25,10	91,52,10	101,120,10	111,81,10	121,55,10	131,86,10	141,118,10	151,68,10	161,50,10	171,102,10	181,87,10	191,77,10	201,117,10	211,62,10	221,16,10	231,110,10	241,53,10	251,91,10	261,104,10	271,22,10	281,57,10	291,74,10	301,98,10	311,18,10	321,54,10	331,36,10	341,42,10	351,24,10	361,88,10	371,37,10	381,28,10	391,56,10	401,61,10	411,65,10	421,64,10	431,43,10	441,51,10	451,76,10	461,108,10	471,84,10	481,83,10	491,15,10	501,20,10	511,29,10	521,72,10	531,31,10	541,41,10	551,17,10	561,59,10	571,47,10	581,78,10	591,75,10	601,49,10	611,107,10	621,99,10	631,101,10	641,93,10	651,44,10	661,66,10	671,112,10	681,80,10	691,100,10	701,60,10	711,32,10	721,69,10	731,33,10	741,119,10	751,45,10	761,27,10	771,7,10	781,58,10	791,114,10	801,34,10	811,48,10	821,1,10	831,12,10	841,4,10	851,10,10	861,5,10	871,8,10	949,11,10	1081,9,10	1189,2,10	1199,0,1	
121,38,10	241,35,10	301,94,10	331,90,10	451,111,10	481,82,10	511,46,10	571,79,10	601,95,10	631,40,10	721,113,10	811,30,10	961,3,10	
421,106,10	691,14,10	751,23,10	867,6,10	
61,63,10	151,115,10	
31,71,10	91,116,10	181,26,10	211,19,10	271,21,10	361,96,10	391,73,10	541,85,10	661,103,10	781,109,10	
# Incoming
281,(21, 7),4	285,(116, 5),2	287,(26, 5),2	289,(63, 8),2	291,(115, 8),2	293,(19, 8),2	295,(19, 11),2	297,(71, 2),2	299,(21, 2),4	341,(90, 1),8	349,(35, 4),4	353,(94, 11),6	359,(38, 2),2	371,(96, 8),10	401,(73, 8),8	431,(106, 1),4	435,(106, 12),12	461,(111, 9),12	491,(82, 4),16	521,(46, 2),20	551,(85, 5),22	581,(79, 5),26	611,(95, 2),30	641,(40, 4),4	645,(40, 8),34	761,(23, 10),24	821,(30, 10),22	877,(6, 0),4	881,(113, 11),68	949,(109, 9),132	1081,(3, 0),4	1085,(23, 2),104	
91,(121, 38),30	211,(121, 35),30	271,(121, 94),30	301,(121, 90),30	409,(73, 3),10	421,(121, 111),30	451,(121, 82),30	481,(121, 46),30	541,(121, 79),30	571,(121, 95),30	601,(121, 40),30	691,(121, 113),30	781,(121, 30),30	867,(105, 3),2	869,(52, 3),2	871,(24, 3),8	879,(108, 3),14	893,(107, 3),6	899,(66, 3),36	935,(80, 3),26	
391,(121, 106),30	421,(90, 6),2	423,(73, 6),2	573,(85, 6),2	661,(121, 14),30	721,(121, 23),30	751,(103, 6),36	811,(50, 6),2	813,(87, 6),2	815,(110, 6),4	819,(104, 6),4	823,(15, 6),16	839,(17, 6),22	861,(34, 6),6	
31,(121, 63),30	121,(121, 115),30	
1,(121, 71),30	61,(121, 116),30	151,(121, 26),30	181,(121, 19),30	241,(121, 21),30	331,(121, 96),30	361,(121, 73),30	511,(121, 85),30	631,(121, 103),30	751,(121, 109),30	
# Outgoing
1,(121, 71),30	31,(121, 63),30	61,(121, 116),30	91,(121, 38),30	121,(121, 115),30	151,(121, 26),30	181,(121, 19),30	211,(121, 35),30	241,(121, 21),30	271,(121, 94),30	301,(121, 90),30	331,(121, 96),30	361,(121, 73),30	391,(121, 106),30	421,(121, 111),30	451,(121, 82),30	481,(121, 46),30	511,(121, 85),30	541,(121, 79),30	571,(121, 95),30	601,(121, 40),30	631,(121, 103),30	661,(121, 14),30	691,(121, 113),30	721,(121, 23),30	751,(121, 109),30	781,(121, 30),30	811,(50, 6),2	813,(87, 6),2	815,(110, 6),4	819,(104, 6),4	823,(15, 6),16	839,(17, 6),22	861,(34, 6),6	867,(105, 3),2	869,(52, 3),2	871,(24, 3),8	879,(108, 3),14	893,(107, 3),6	899,(66, 3),36	935,(80, 3),26	
341,(90, 1),8	349,(35, 4),4	353,(94, 11),6	359,(38, 2),2	421,(90, 6),2	461,(111, 9),12	491,(82, 4),16	521,(46, 2),20	581,(79, 5),26	611,(95, 2),30	641,(40, 4),4	645,(40, 8),34	821,(30, 10),22	881,(113, 11),68	1081,(3, 0),4	
431,(106, 1),4	435,(106, 12),12	761,(23, 10),24	877,(6, 0),4	1085,(23, 2),104	
289,(63, 8),2	291,(115, 8),2	
281,(21, 7),4	285,(116, 5),2	287,(26, 5),2	293,(19, 8),2	295,(19, 11),2	297,(71, 2),2	299,(21, 2),4	371,(96, 8),10	401,(73, 8),8	409,(73, 3),10	423,(73, 6),2	551,(85, 5),22	573,(85, 6),2	751,(103, 6),36	949,(109, 9),132	
