1974
# CPU
0,201,1	1,136,5	6,137,5	11,79,5	16,169,5	21,122,5	26,124,5	31,145,5	36,115,5	41,165,5	46,54,5	51,98,5	56,32,5	61,129,5	66,195,5	71,125,5	76,109,5	81,29,5	86,182,5	91,176,5	96,84,5	101,57,5	106,62,5	111,63,5	116,91,5	121,110,5	126,102,5	131,156,5	136,178,5	141,61,5	146,23,5	151,196,5	156,132,5	161,28,5	166,128,5	171,180,5	176,166,5	181,144,5	186,81,5	191,90,5	196,42,5	201,82,5	206,198,5	211,200,5	216,140,5	221,94,5	226,177,5	231,39,5	236,26,5	241,148,5	246,155,5	251,22,5	256,107,5	261,134,5	266,187,5	271,100,5	276,99,5	281,97,5	286,67,5	291,49,5	296,74,5	301,114,5	306,183,5	311,105,5	316,59,5	321,130,5	326,197,5	331,36,5	336,147,5	341,71,5	346,76,5	351,31,5	356,119,5	361,53,5	366,133,5	371,146,5	376,175,5	381,185,5	386,41,5	391,113,5	396,127,5	401,120,5	406,121,5	411,163,5	416,48,5	421,161,5	426,160,5	431,72,5	436,37,5	441,181,5	446,38,5	451,95,5	456,33,5	461,66,5	466,21,5	471,141,5	476,191,5	481,173,5	486,88,5	491,190,5	496,189,5	501,60,5	506,70,5	511,126,5	516,171,5	521,143,5	526,47,5	531,87,5	536,101,5	541,89,5	546,158,5	551,150,5	556,172,5	561,69,5	566,24,5	571,186,5	576,142,5	581,68,5	586,112,5	591,149,5	596,194,5	601,184,5	606,78,5	611,27,5	616,65,5	621,123,5	626,152,5	631,93,5	636,192,5	641,103,5	646,77,5	651,151,5	656,30,5	661,104,5	666,52,5	671,50,5	676,162,5	681,86,5	686,131,5	691,138,5	696,8,5	701,58,5	706,75,5	711,157,5	716,44,5	721,9,5	726,4,5	731,12,5	736,10,5	741,6,5	746,17,5	751,2,5	756,20,5	761,13,5	801,14,5	854,19,5	918,1,5	965,3,5	1028,7,5	1077,5,5	1158,18,5	1337,11,5	1592,15,5	1968,16,5	1973,0,1	
39,34,5	229,188,5	248,153,5	305,111,5	457,46,5	514,167,5	590,64,5	
153,83,5	267,179,5	286,154,5	324,43,5	362,174,5	533,73,5	628,25,5	666,51,5	


96,45,5	343,170,5	381,135,5	438,116,5	


77,108,5	115,139,5	172,106,5	419,55,5	
20,164,5	58,40,5	134,80,5	191,35,5	210,117,5	400,159,5	476,199,5	495,168,5	552,96,5	571,118,5	609,56,5	647,92,5	685,193,5	704,85,5	
# Incoming
63,(40, 8),1	64,(40, 9),1	65,(40, 6),2	67,(164, 2),1	68,(164, 14),1	69,(40, 19),1	139,(80, 6),1	140,(80, 14),5	145,(80, 19),2	147,(80, 7),2	149,(80, 15),1	177,(106, 9),6	183,(139, 4),1	184,(108, 6),2	186,(108, 13),3	189,(139, 13),4	193,(108, 3),1	194,(108, 11),2	196,(35, 17),7	203,(35, 1),1	204,(108, 18),3	215,(117, 4),1	216,(117, 20),8	348,(170, 12),1	349,(170, 2),15	364,(170, 13),1	365,(170, 5),13	378,(45, 11),4	386,(135, 3),17	403,(135, 5),2	405,(159, 4),18	424,(55, 6),5	429,(159, 2),17	446,(55, 13),22	468,(55, 7),8	481,(199, 4),1	482,(135, 18),9	500,(168, 4),1	501,(168, 17),2	503,(116, 15),11	514,(168, 15),4	519,(167, 9),1	520,(188, 4),1	521,(46, 12),29	550,(46, 10),1	551,(188, 2),8	559,(199, 20),31	590,(167, 13),16	606,(64, 3),1	607,(34, 18),1	608,(96, 15),1	609,(111, 16),1	614,(56, 4),1	615,(56, 19),1	616,(111, 5),13	629,(56, 5),3	633,(25, 8),1	634,(174, 12),1	635,(25, 12),2	637,(83, 6),2	639,(179, 6),11	650,(179, 17),1	651,(25, 1),1	652,(92, 9),1	653,(73, 10),37	690,(193, 12),3	693,(174, 6),15	708,(83, 17),4	712,(73, 17),6	718,(51, 17),1	719,(85, 17),19	738,(83, 20),5	743,(154, 13),8	751,(85, 13),1	752,(43, 14),14	766,(168, 14),35	801,(64, 19),53	854,(179, 1),2	856,(174, 1),2	858,(56, 1),60	918,(179, 3),3	921,(154, 3),1	922,(96, 3),43	965,(174, 7),2	967,(116, 7),25	992,(167, 7),36	1028,(118, 5),47	1075,(25, 5),2	1077,(154, 18),12	1089,(25, 18),68	1157,(92, 18),1	1158,(118, 11),49	1207,(51, 11),129	1336,(85, 11),1	1337,(153, 15),9	1346,(179, 15),2	1348,(193, 15),244	1592,(92, 16),87	1679,(85, 16),289	
20,(201, 34),19	210,(201, 188),19	229,(201, 153),19	286,(201, 111),19	438,(201, 46),19	495,(201, 167),19	571,(201, 64),19	
134,(201, 83),19	248,(201, 179),19	267,(201, 154),19	305,(201, 43),19	343,(201, 174),19	514,(201, 73),19	609,(201, 25),19	647,(201, 51),19	


77,(201, 45),19	324,(201, 170),19	362,(201, 135),19	419,(201, 116),19	


58,(201, 108),19	96,(201, 139),19	153,(201, 106),19	400,(201, 55),19	
1,(201, 164),19	39,(201, 40),19	115,(201, 80),19	172,(201, 35),19	191,(201, 117),19	381,(201, 159),19	457,(201, 199),19	476,(201, 168),19	533,(201, 96),19	552,(201, 118),19	590,(201, 56),19	628,(201, 92),19	666,(201, 193),19	685,(201, 85),19	
# Outgoing
1,(201, 164),19	20,(201, 34),19	39,(201, 40),19	58,(201, 108),19	77,(201, 45),19	96,(201, 139),19	115,(201, 80),19	134,(201, 83),19	153,(201, 106),19	172,(201, 35),19	191,(201, 117),19	210,(201, 188),19	229,(201, 153),19	248,(201, 179),19	267,(201, 154),19	286,(201, 111),19	305,(201, 43),19	324,(201, 170),19	343,(201, 174),19	362,(201, 135),19	381,(201, 159),19	400,(201, 55),19	419,(201, 116),19	438,(201, 46),19	457,(201, 199),19	476,(201, 168),19	495,(201, 167),19	514,(201, 73),19	533,(201, 96),19	552,(201, 118),19	571,(201, 64),19	590,(201, 56),19	609,(201, 25),19	628,(201, 92),19	647,(201, 51),19	666,(201, 193),19	685,(201, 85),19	
519,(167, 9),1	520,(188, 4),1	521,(46, 12),29	550,(46, 10),1	551,(188, 2),8	590,(167, 13),16	606,(64, 3),1	607,(34, 18),1	609,(111, 16),1	616,(111, 5),13	801,(64, 19),53	992,(167, 7),36	1337,(153, 15),9	
633,(25, 8),1	634,(174, 12),1	635,(25, 12),2	637,(83, 6),2	639,(179, 6),11	650,(179, 17),1	651,(25, 1),1	653,(73, 10),37	693,(174, 6),15	708,(83, 17),4	712,(73, 17),6	718,(51, 17),1	738,(83, 20),5	743,(154, 13),8	752,(43, 14),14	854,(179, 1),2	856,(174, 1),2	918,(179, 3),3	921,(154, 3),1	965,(174, 7),2	1075,(25, 5),2	1077,(154, 18),12	1089,(25, 18),68	1207,(51, 11),129	1346,(179, 15),2	


348,(170, 12),1	349,(170, 2),15	364,(170, 13),1	365,(170, 5),13	378,(45, 11),4	386,(135, 3),17	403,(135, 5),2	482,(135, 18),9	503,(116, 15),11	967,(116, 7),25	


177,(106, 9),6	183,(139, 4),1	184,(108, 6),2	186,(108, 13),3	189,(139, 13),4	193,(108, 3),1	194,(108, 11),2	204,(108, 18),3	424,(55, 6),5	446,(55, 13),22	468,(55, 7),8	
63,(40, 8),1	64,(40, 9),1	65,(40, 6),2	67,(164, 2),1	68,(164, 14),1	69,(40, 19),1	139,(80, 6),1	140,(80, 14),5	145,(80, 19),2	147,(80, 7),2	149,(80, 15),1	196,(35, 17),7	203,(35, 1),1	215,(117, 4),1	216,(117, 20),8	405,(159, 4),18	429,(159, 2),17	481,(199, 4),1	500,(168, 4),1	501,(168, 17),2	514,(168, 15),4	559,(199, 20),31	608,(96, 15),1	614,(56, 4),1	615,(56, 19),1	629,(56, 5),3	652,(92, 9),1	690,(193, 12),3	719,(85, 17),19	751,(85, 13),1	766,(168, 14),35	858,(56, 1),60	922,(96, 3),43	1028,(118, 5),47	1157,(92, 18),1	1158,(118, 11),49	1336,(85, 11),1	1348,(193, 15),244	1592,(92, 16),87	1679,(85, 16),289	
