128
# CPU
0,21,1	1,12,7	8,16,7	15,7,7	22,8,7	29,11,7	36,4,7	43,15,7	50,19,7	57,9,7	64,20,7	71,5,7	78,18,7	85,6,7	92,17,7	99,13,7	106,14,7	113,2,7	120,1,7	127,0,1	
28,3,7	55,10,7	
# Incoming
35,(3, 1),6	62,(10, 1),33	
1,(21, 3),27	28,(21, 10),27	
# Outgoing
1,(21, 3),27	28,(21, 10),27	
35,(3, 1),6	62,(10, 1),33	
