42
# CPU
0,0,1	1,2,2	3,13,2	5,6,2	7,16,2	9,17,2	11,10,2	13,20,2	15,19,2	17,7,2	19,1,2	21,5,2	23,4,2	25,9,2	27,18,2	29,14,2	31,15,2	33,8,2	35,11,2	37,12,2	39,3,2	41,21,1	


# Incoming



# Outgoing



