3984
# CPU
85,5,4	89,64,4	93,144,4	97,114,4	109,130,4	121,146,4	125,31,4	139,40,4	143,116,4	147,74,4	169,10,4	173,38,4	177,111,4	181,124,4	185,129,4	189,72,4	193,149,4	214,177,4	218,42,4	222,60,4	229,113,4	253,15,4	257,33,4	261,55,4	265,192,4	269,70,4	273,128,4	277,174,4	281,189,4	285,136,4	289,112,4	293,127,4	297,119,4	301,134,4	305,183,4	310,195,4	316,106,4	337,20,4	341,44,4	345,132,4	349,142,4	373,66,4	382,80,4	394,125,4	406,155,4	430,78,4	436,126,4	463,59,4	499,82,4	556,51,4	595,47,4	599,90,4	604,121,4	608,122,4	625,93,4	685,101,4	718,123,4	985,165,4	1033,54,4	1037,95,4	1087,108,4	1102,161,4	1117,97,4	1121,120,4	1138,104,4	1195,180,4	1390,87,4	1402,62,4	1444,68,4	1459,103,4	1477,117,4	1603,198,4	1729,105,4	1741,49,4	1747,76,4	1756,110,4	1792,85,4	1855,99,4	1859,152,4	1863,158,4	1867,186,4	1906,46,4	1939,107,4	1960,109,4	1972,118,4	2011,138,4	2152,171,4	2212,56,4	2239,115,4	2302,140,4	2320,168,4	
64,4,4	68,41,4	72,133,4	76,48,4	127,77,4	148,9,4	152,61,4	156,164,4	160,84,4	164,91,4	168,139,4	172,141,4	176,30,4	184,79,4	203,170,4	232,14,4	236,100,4	247,179,4	259,185,4	274,32,4	289,154,4	293,188,4	316,19,4	320,75,4	324,81,4	526,167,4	541,50,4	545,96,4	549,88,4	553,71,4	557,135,4	616,67,4	628,69,4	718,173,4	1051,151,4	1066,52,4	1096,182,4	1198,131,4	1285,176,4	1297,94,4	1399,58,4	1432,86,4	1474,200,4	1480,191,4	1495,157,4	1525,194,4	1546,197,4	1567,63,4	1600,143,4	1606,65,4	1612,98,4	1678,43,4	1687,148,4	1711,160,4	1732,137,4	1756,73,4	2047,102,4	2197,145,4	2599,53,4	
43,3,4	47,24,4	51,175,4	127,8,4	131,156,4	135,196,4	154,169,4	211,13,4	215,199,4	241,166,4	295,18,4	299,57,4	391,39,4	421,187,4	496,150,4	583,37,4	601,190,4	748,35,4	778,181,4	977,159,4	1069,172,4	1297,45,4	1480,153,4	1498,193,4	1672,27,4	1693,184,4	1741,162,4	1897,147,4	2194,178,4	2512,92,4	2536,34,4	3983,201,1	
22,2,4	106,7,4	190,12,4	274,17,4	278,29,4	282,89,4	286,83,4	541,28,4	1129,23,4	1135,22,4	
0,0,1	1,1,4	5,6,4	9,16,4	13,11,4	965,36,4	1082,25,4	1118,21,4	1645,26,4	3976,163,4	
# Incoming
64,(0, 5),21	85,(2, 114),6	91,(2, 130),18	109,(2, 146),12	121,(3, 31),3	124,(3, 40),15	139,(3, 116),3	142,(8, 74),3	148,(0, 10),21	169,(3, 72),12	181,(3, 149),9	190,(3, 177),24	214,(7, 42),3	217,(7, 60),3	220,(7, 113),9	232,(0, 15),21	253,(7, 119),24	277,(7, 134),24	301,(7, 183),3	304,(7, 195),6	310,(8, 106),6	316,(0, 20),21	337,(8, 66),36	373,(8, 80),9	382,(8, 125),12	394,(8, 155),12	406,(13, 78),24	430,(13, 126),6	436,(18, 59),27	463,(18, 82),36	541,(1, 51),15	583,(12, 47),12	595,(12, 90),3	598,(12, 121),6	604,(12, 122),3	607,(17, 93),18	628,(1, 101),57	685,(1, 123),33	718,(2, 165),267	985,(4, 54),48	1033,(4, 95),3	1036,(4, 108),51	1087,(4, 161),15	1108,(9, 97),9	1117,(9, 120),3	1120,(17, 104),18	1138,(17, 180),57	1285,(17, 87),105	1399,(6, 62),3	1402,(6, 68),42	1444,(6, 103),15	1459,(6, 117),18	1498,(6, 198),105	1612,(16, 105),117	1729,(14, 49),12	1741,(14, 76),6	1747,(14, 110),9	1756,(11, 85),36	1792,(11, 99),63	1855,(11, 152),3	1858,(11, 158),3	1861,(11, 186),3	1864,(14, 46),42	1906,(14, 107),33	1939,(14, 109),21	1960,(14, 118),12	1972,(14, 138),39	2011,(14, 171),141	2194,(19, 56),18	2212,(19, 115),27	2239,(19, 140),63	2302,(19, 168),18	
43,(0, 4),21	64,(2, 41),3	67,(2, 48),6	121,(7, 77),6	127,(0, 9),21	148,(3, 84),6	154,(3, 91),3	157,(3, 139),3	160,(3, 141),3	163,(7, 30),9	172,(7, 79),12	194,(12, 170),9	211,(0, 14),21	232,(3, 179),15	247,(8, 185),12	259,(13, 32),15	274,(13, 154),15	289,(13, 188),3	295,(0, 19),21	316,(2, 167),210	526,(10, 50),15	541,(10, 96),3	544,(15, 88),3	547,(18, 71),6	553,(20, 135),3	556,(1, 67),60	616,(1, 69),12	628,(5, 173),90	718,(1, 151),333	1051,(17, 52),15	1069,(1, 182),27	1096,(5, 131),102	1198,(7, 176),87	1285,(18, 94),12	1297,(6, 58),102	1399,(12, 86),33	1432,(13, 200),42	1474,(17, 191),6	1480,(6, 157),15	1495,(15, 194),30	1525,(15, 197),21	1546,(18, 63),21	1567,(18, 143),33	1603,(16, 65),3	1606,(16, 98),6	1612,(17, 43),66	1678,(18, 148),9	1687,(18, 160),24	1729,(16, 137),3	1741,(11, 73),15	1756,(8, 102),291	2047,(18, 145),150	2512,(20, 53),87	
22,(0, 3),21	106,(0, 8),21	127,(2, 169),27	190,(0, 13),21	229,(7, 166),12	274,(0, 18),21	295,(5, 39),96	391,(64, 201),3	394,(144, 201),3	397,(114, 201),3	400,(130, 201),3	403,(146, 201),3	406,(31, 201),3	409,(40, 201),3	412,(116, 201),3	415,(74, 201),3	418,(10, 187),3	421,(38, 201),3	424,(111, 201),3	427,(124, 201),3	430,(129, 201),3	433,(72, 201),3	436,(149, 201),3	439,(177, 201),3	442,(42, 201),3	445,(60, 201),3	448,(113, 201),3	451,(15, 150),45	496,(33, 201),3	499,(55, 201),3	502,(192, 201),3	505,(70, 201),3	508,(128, 201),3	511,(174, 201),3	514,(189, 201),3	517,(136, 201),3	520,(112, 201),3	523,(127, 201),3	526,(12, 37),57	583,(119, 201),3	586,(134, 201),3	589,(183, 201),3	592,(195, 201),3	595,(106, 201),3	598,(20, 190),3	601,(44, 201),3	604,(132, 201),3	607,(142, 201),3	610,(66, 201),3	613,(80, 201),3	616,(125, 201),3	619,(155, 201),3	622,(78, 201),3	625,(29, 201),3	628,(89, 201),3	631,(83, 201),3	634,(28, 201),3	718,(20, 35),30	748,(20, 181),30	778,(126, 201),3	781,(59, 201),3	784,(82, 201),3	787,(51, 201),3	790,(47, 201),3	793,(90, 201),3	796,(121, 201),3	799,(122, 201),3	802,(93, 201),3	805,(101, 201),3	808,(123, 201),3	965,(4, 159),12	977,(41, 201),3	980,(133, 201),3	1051,(1, 172),18	1082,(165, 201),3	1085,(54, 201),3	1088,(95, 201),3	1091,(108, 201),3	1102,(48, 201),3	1105,(77, 201),3	1120,(61, 201),3	1123,(164, 201),3	1126,(84, 201),3	1129,(6, 45),168	1297,(161, 201),3	1300,(97, 201),3	1303,(120, 201),3	1306,(104, 201),3	1309,(180, 201),3	1390,(23, 201),3	1393,(22, 201),3	1396,(87, 201),3	1406,(62, 201),3	1448,(68, 201),3	1463,(103, 201),3	1477,(6, 153),3	1481,(117, 201),3	1495,(6, 193),3	1607,(198, 201),3	1645,(9, 27),27	1672,(91, 201),3	1675,(139, 201),3	1678,(141, 201),3	1681,(30, 201),3	1684,(79, 201),3	1687,(170, 201),3	1690,(14, 184),3	1693,(100, 201),3	1696,(179, 201),3	1699,(185, 201),3	1702,(32, 201),3	1705,(154, 201),3	1708,(188, 201),3	1711,(75, 201),3	1714,(81, 201),3	1717,(167, 201),3	1720,(50, 201),3	1723,(96, 201),3	1726,(88, 201),3	1732,(16, 162),9	1741,(12, 147),156	1897,(36, 201),3	1900,(25, 201),3	1903,(21, 201),3	1906,(26, 201),3	1909,(105, 201),3	1912,(49, 201),3	1915,(76, 201),3	1918,(110, 201),3	1921,(85, 201),3	1924,(99, 201),3	1927,(152, 201),3	1930,(158, 201),3	1933,(186, 201),3	1936,(46, 201),3	1943,(107, 201),3	1964,(109, 201),3	1976,(118, 201),3	2015,(138, 201),3	2152,(14, 178),42	2194,(15, 92),318	2512,(19, 34),24	2536,(71, 201),3	2539,(135, 201),3	2542,(67, 201),3	2545,(69, 201),3	2548,(173, 201),3	2551,(151, 201),3	2554,(52, 201),3	2557,(182, 201),3	2560,(131, 201),3	2563,(176, 201),3	2566,(94, 201),3	2569,(58, 201),3	2572,(86, 201),3	2575,(200, 201),3	2578,(191, 201),3	2581,(157, 201),3	2584,(194, 201),3	2587,(197, 201),3	2590,(63, 201),3	2593,(143, 201),3	2596,(65, 201),3	2599,(98, 201),3	2602,(43, 201),3	2605,(148, 201),3	2608,(160, 201),3	2611,(137, 201),3	2614,(73, 201),3	2617,(102, 201),3	2620,(171, 201),3	2623,(145, 201),3	2626,(56, 201),3	2629,(115, 201),3	2632,(140, 201),3	2635,(168, 201),3	2638,(53, 201),3	3980,(163, 201),3	
1,(0, 2),21	85,(0, 7),21	169,(0, 12),21	253,(0, 17),21	337,(1, 28),204	1096,(6, 23),33	1129,(9, 22),6	
68,(4, 36),897	965,(10, 25),117	1082,(13, 21),36	1135,(9, 26),510	1897,(17, 163),2079	
# Outgoing
295,(5, 39),96	391,(64, 201),3	394,(144, 201),3	397,(114, 201),3	400,(130, 201),3	403,(146, 201),3	406,(31, 201),3	409,(40, 201),3	412,(116, 201),3	415,(74, 201),3	418,(10, 187),3	421,(38, 201),3	424,(111, 201),3	427,(124, 201),3	430,(129, 201),3	433,(72, 201),3	436,(149, 201),3	439,(177, 201),3	442,(42, 201),3	445,(60, 201),3	448,(113, 201),3	451,(15, 150),45	496,(33, 201),3	499,(55, 201),3	502,(192, 201),3	505,(70, 201),3	508,(128, 201),3	511,(174, 201),3	514,(189, 201),3	517,(136, 201),3	520,(112, 201),3	523,(127, 201),3	526,(10, 50),15	541,(10, 96),3	544,(15, 88),3	553,(20, 135),3	583,(119, 201),3	586,(134, 201),3	589,(183, 201),3	592,(195, 201),3	595,(106, 201),3	598,(20, 190),3	601,(44, 201),3	604,(132, 201),3	607,(142, 201),3	610,(66, 201),3	613,(80, 201),3	616,(125, 201),3	619,(155, 201),3	622,(78, 201),3	628,(5, 173),90	718,(20, 35),30	748,(20, 181),30	778,(126, 201),3	781,(59, 201),3	784,(82, 201),3	787,(51, 201),3	790,(47, 201),3	793,(90, 201),3	796,(121, 201),3	799,(122, 201),3	802,(93, 201),3	805,(101, 201),3	808,(123, 201),3	965,(10, 25),117	1082,(165, 201),3	1085,(54, 201),3	1088,(95, 201),3	1091,(108, 201),3	1096,(5, 131),102	1297,(161, 201),3	1300,(97, 201),3	1303,(120, 201),3	1306,(104, 201),3	1309,(180, 201),3	1396,(87, 201),3	1406,(62, 201),3	1448,(68, 201),3	1463,(103, 201),3	1481,(117, 201),3	1495,(15, 194),30	1525,(15, 197),21	1607,(198, 201),3	1909,(105, 201),3	1912,(49, 201),3	1915,(76, 201),3	1918,(110, 201),3	1921,(85, 201),3	1924,(99, 201),3	1927,(152, 201),3	1930,(158, 201),3	1933,(186, 201),3	1936,(46, 201),3	1943,(107, 201),3	1964,(109, 201),3	1976,(118, 201),3	2015,(138, 201),3	2194,(15, 92),318	2512,(20, 53),87	2620,(171, 201),3	2626,(56, 201),3	2629,(115, 201),3	2632,(140, 201),3	2635,(168, 201),3	
68,(4, 36),897	965,(4, 159),12	977,(41, 201),3	980,(133, 201),3	985,(4, 54),48	1033,(4, 95),3	1036,(4, 108),51	1087,(4, 161),15	1102,(48, 201),3	1105,(77, 201),3	1108,(9, 97),9	1117,(9, 120),3	1120,(61, 201),3	1123,(164, 201),3	1126,(84, 201),3	1129,(9, 22),6	1135,(9, 26),510	1645,(9, 27),27	1672,(91, 201),3	1675,(139, 201),3	1678,(141, 201),3	1681,(30, 201),3	1684,(79, 201),3	1687,(170, 201),3	1690,(14, 184),3	1693,(100, 201),3	1696,(179, 201),3	1699,(185, 201),3	1702,(32, 201),3	1705,(154, 201),3	1708,(188, 201),3	1711,(75, 201),3	1714,(81, 201),3	1717,(167, 201),3	1720,(50, 201),3	1723,(96, 201),3	1726,(88, 201),3	1729,(14, 49),12	1741,(14, 76),6	1747,(14, 110),9	1864,(14, 46),42	1906,(14, 107),33	1939,(14, 109),21	1960,(14, 118),12	1972,(14, 138),39	2011,(14, 171),141	2152,(14, 178),42	2194,(19, 56),18	2212,(19, 115),27	2239,(19, 140),63	2302,(19, 168),18	2512,(19, 34),24	2536,(71, 201),3	2539,(135, 201),3	2542,(67, 201),3	2545,(69, 201),3	2548,(173, 201),3	2551,(151, 201),3	2554,(52, 201),3	2557,(182, 201),3	2560,(131, 201),3	2563,(176, 201),3	2566,(94, 201),3	2569,(58, 201),3	2572,(86, 201),3	2575,(200, 201),3	2578,(191, 201),3	2581,(157, 201),3	2584,(194, 201),3	2587,(197, 201),3	2590,(63, 201),3	2593,(143, 201),3	2596,(65, 201),3	2599,(98, 201),3	2602,(43, 201),3	2605,(148, 201),3	2608,(160, 201),3	2611,(137, 201),3	2614,(73, 201),3	2617,(102, 201),3	2623,(145, 201),3	2638,(53, 201),3	
121,(3, 31),3	124,(3, 40),15	139,(3, 116),3	142,(8, 74),3	148,(3, 84),6	154,(3, 91),3	157,(3, 139),3	160,(3, 141),3	169,(3, 72),12	181,(3, 149),9	190,(3, 177),24	232,(3, 179),15	247,(8, 185),12	259,(13, 32),15	274,(13, 154),15	289,(13, 188),3	310,(8, 106),6	337,(8, 66),36	373,(8, 80),9	382,(8, 125),12	394,(8, 155),12	406,(13, 78),24	430,(13, 126),6	436,(18, 59),27	463,(18, 82),36	547,(18, 71),6	1082,(13, 21),36	1285,(18, 94),12	1432,(13, 200),42	1546,(18, 63),21	1567,(18, 143),33	1678,(18, 148),9	1687,(18, 160),24	1756,(8, 102),291	2047,(18, 145),150	
64,(2, 41),3	67,(2, 48),6	85,(2, 114),6	91,(2, 130),18	109,(2, 146),12	121,(7, 77),6	127,(2, 169),27	163,(7, 30),9	172,(7, 79),12	194,(12, 170),9	214,(7, 42),3	217,(7, 60),3	220,(7, 113),9	229,(7, 166),12	253,(7, 119),24	277,(7, 134),24	301,(7, 183),3	304,(7, 195),6	316,(2, 167),210	526,(12, 37),57	583,(12, 47),12	595,(12, 90),3	598,(12, 121),6	604,(12, 122),3	607,(17, 93),18	625,(29, 201),3	628,(89, 201),3	631,(83, 201),3	634,(28, 201),3	718,(2, 165),267	1051,(17, 52),15	1120,(17, 104),18	1138,(17, 180),57	1198,(7, 176),87	1285,(17, 87),105	1390,(23, 201),3	1393,(22, 201),3	1399,(12, 86),33	1474,(17, 191),6	1612,(17, 43),66	1741,(12, 147),156	1897,(17, 163),2079	
1,(0, 2),21	22,(0, 3),21	43,(0, 4),21	64,(0, 5),21	85,(0, 7),21	106,(0, 8),21	127,(0, 9),21	148,(0, 10),21	169,(0, 12),21	190,(0, 13),21	211,(0, 14),21	232,(0, 15),21	253,(0, 17),21	274,(0, 18),21	295,(0, 19),21	316,(0, 20),21	337,(1, 28),204	541,(1, 51),15	556,(1, 67),60	616,(1, 69),12	628,(1, 101),57	685,(1, 123),33	718,(1, 151),333	1051,(1, 172),18	1069,(1, 182),27	1096,(6, 23),33	1129,(6, 45),168	1297,(6, 58),102	1399,(6, 62),3	1402,(6, 68),42	1444,(6, 103),15	1459,(6, 117),18	1477,(6, 153),3	1480,(6, 157),15	1495,(6, 193),3	1498,(6, 198),105	1603,(16, 65),3	1606,(16, 98),6	1612,(16, 105),117	1729,(16, 137),3	1732,(16, 162),9	1741,(11, 73),15	1756,(11, 85),36	1792,(11, 99),63	1855,(11, 152),3	1858,(11, 158),3	1861,(11, 186),3	1897,(36, 201),3	1900,(25, 201),3	1903,(21, 201),3	1906,(26, 201),3	3980,(163, 201),3	
