1026
# CPU
19,2,1	20,52,1	21,68,1	37,4,1	38,10,1	39,44,1	40,18,1	41,32,1	42,40,1	55,6,1	56,20,1	57,80,1	58,28,1	59,34,1	60,42,1	61,76,1	73,8,1	74,26,1	75,38,1	76,48,1	77,72,1	78,74,1	79,56,1	81,14,1	96,24,1	140,30,1	141,46,1	148,70,1	149,78,1	150,12,1	179,54,1	219,62,1	223,64,1	227,66,1	231,16,1	238,50,1	248,58,1	273,60,1	279,22,1	280,36,1	
0,0,1	1,1,1	2,3,1	3,7,1	4,5,1	5,29,1	6,63,1	7,37,1	8,47,1	9,23,1	10,11,1	11,43,1	12,39,1	13,31,1	14,25,1	15,51,1	16,73,1	17,69,1	18,75,1	19,77,1	20,35,1	22,9,1	23,19,1	24,27,1	25,41,1	42,49,1	45,67,1	84,65,1	85,71,1	117,79,1	288,15,1	294,55,1	302,57,1	316,61,1	504,13,1	558,17,1	559,21,1	560,33,1	586,45,1	587,53,1	588,59,1	1025,81,1	
# Incoming
1,(0, 2),18	19,(0, 4),18	37,(0, 6),18	55,(0, 8),18	73,(1, 14),8	81,(1, 24),15	96,(1, 30),44	140,(1, 46),1	141,(1, 70),7	148,(1, 78),1	149,(3, 12),1	150,(3, 54),29	179,(3, 62),40	219,(3, 64),4	223,(3, 66),4	227,(7, 16),4	231,(7, 50),7	238,(7, 58),10	248,(7, 60),25	273,(5, 22),6	279,(5, 36),1	
20,(2, 9),2	22,(2, 19),1	23,(2, 27),1	24,(2, 41),1	25,(2, 49),17	42,(2, 67),3	45,(52, 81),19	64,(68, 81),19	83,(4, 65),1	84,(4, 71),1	85,(4, 79),32	117,(10, 81),19	136,(44, 81),19	155,(18, 81),19	174,(32, 81),19	193,(40, 81),19	212,(6, 15),76	288,(6, 55),6	294,(6, 57),8	302,(6, 61),14	316,(20, 81),19	335,(80, 81),19	354,(28, 81),19	373,(34, 81),19	392,(42, 81),19	411,(76, 81),19	430,(8, 13),74	504,(8, 17),54	558,(8, 21),1	559,(8, 33),1	560,(8, 45),26	586,(8, 53),1	587,(8, 59),1	588,(26, 81),19	607,(38, 81),19	626,(48, 81),19	645,(72, 81),19	664,(74, 81),19	683,(56, 81),19	702,(14, 81),19	721,(24, 81),19	740,(30, 81),19	759,(46, 81),19	778,(70, 81),19	797,(78, 81),19	816,(12, 81),19	835,(54, 81),19	854,(62, 81),19	873,(64, 81),19	892,(66, 81),19	911,(16, 81),19	930,(50, 81),19	949,(58, 81),19	968,(60, 81),19	987,(22, 81),19	1006,(36, 81),19	
# Outgoing
20,(2, 9),2	22,(2, 19),1	23,(2, 27),1	24,(2, 41),1	25,(2, 49),17	42,(2, 67),3	45,(52, 81),19	64,(68, 81),19	83,(4, 65),1	84,(4, 71),1	85,(4, 79),32	117,(10, 81),19	136,(44, 81),19	155,(18, 81),19	174,(32, 81),19	193,(40, 81),19	212,(6, 15),76	288,(6, 55),6	294,(6, 57),8	302,(6, 61),14	316,(20, 81),19	335,(80, 81),19	354,(28, 81),19	373,(34, 81),19	392,(42, 81),19	411,(76, 81),19	430,(8, 13),74	504,(8, 17),54	558,(8, 21),1	559,(8, 33),1	560,(8, 45),26	586,(8, 53),1	587,(8, 59),1	588,(26, 81),19	607,(38, 81),19	626,(48, 81),19	645,(72, 81),19	664,(74, 81),19	683,(56, 81),19	702,(14, 81),19	721,(24, 81),19	740,(30, 81),19	759,(46, 81),19	778,(70, 81),19	797,(78, 81),19	816,(12, 81),19	835,(54, 81),19	854,(62, 81),19	873,(64, 81),19	892,(66, 81),19	911,(16, 81),19	930,(50, 81),19	949,(58, 81),19	968,(60, 81),19	987,(22, 81),19	1006,(36, 81),19	
1,(0, 2),18	19,(0, 4),18	37,(0, 6),18	55,(0, 8),18	73,(1, 14),8	81,(1, 24),15	96,(1, 30),44	140,(1, 46),1	141,(1, 70),7	148,(1, 78),1	149,(3, 12),1	150,(3, 54),29	179,(3, 62),40	219,(3, 64),4	223,(3, 66),4	227,(7, 16),4	231,(7, 50),7	238,(7, 58),10	248,(7, 60),25	273,(5, 22),6	279,(5, 36),1	
