850
# CPU
0,0,1	1,2,2	3,112,2	5,118,2	7,11,2	9,33,2	11,90,2	13,59,2	15,3,2	17,69,2	19,95,2	21,18,2	23,31,2	25,4,2	27,110,2	29,32,2	31,64,2	33,12,2	35,67,2	37,34,2	39,74,2	41,38,2	43,62,2	45,7,2	47,14,2	49,107,2	51,82,2	53,42,2	55,92,2	57,23,2	59,68,2	61,76,2	63,9,2	65,108,2	67,91,2	69,66,2	71,113,2	73,60,2	75,36,2	77,19,2	79,71,2	81,115,2	83,87,2	85,81,2	87,16,2	89,5,2	91,65,2	93,26,2	95,40,2	97,58,2	99,75,2	101,99,2	103,51,2	105,80,2	107,83,2	109,46,2	111,8,2	113,28,2	115,20,2	117,47,2	119,101,2	121,27,2	123,35,2	125,49,2	127,43,2	129,57,2	131,41,2	133,98,2	135,116,2	137,10,2	139,13,2	141,54,2	143,24,2	145,100,2	147,70,2	149,79,2	151,30,2	153,56,2	155,77,2	157,119,2	159,94,2	161,53,2	163,111,2	165,45,2	167,48,2	169,104,2	171,15,2	173,63,2	175,120,2	177,109,2	179,103,2	181,17,2	183,44,2	185,96,2	189,61,2	209,25,2	241,22,2	337,73,2	633,52,2	849,121,1	

29,1,2	31,93,2	33,37,2	35,117,2	55,88,2	71,114,2	99,6,2	101,50,2	103,55,2	105,106,2	107,72,2	109,78,2	111,21,2	113,89,2	123,85,2	135,105,2	143,39,2	151,84,2	163,97,2	183,86,2	227,102,2	343,29,2	







# Incoming
31,(1, 94),4	35,(1, 53),4	39,(1, 111),4	43,(1, 45),4	47,(1, 48),4	51,(1, 63),8	59,(1, 44),12	71,(93, 121),12	83,(37, 121),12	101,(6, 104),4	105,(6, 15),4	109,(6, 120),12	121,(6, 109),12	133,(6, 103),12	145,(6, 17),12	157,(6, 96),12	169,(6, 61),20	189,(6, 25),20	209,(1, 22),32	241,(1, 73),96	337,(6, 52),296	633,(117, 121),12	645,(88, 121),12	657,(114, 121),12	669,(50, 121),12	681,(55, 121),12	693,(106, 121),12	705,(72, 121),12	717,(78, 121),12	729,(21, 121),12	741,(89, 121),12	753,(85, 121),12	765,(105, 121),12	777,(39, 121),12	789,(84, 121),12	801,(97, 121),12	813,(86, 121),12	825,(102, 121),12	837,(29, 121),12	

1,(0, 1),28	29,(3, 117),4	33,(4, 114),12	47,(7, 88),8	55,(12, 114),16	71,(0, 6),28	99,(4, 21),4	103,(4, 89),4	107,(7, 89),4	111,(4, 85),4	115,(8, 85),8	123,(5, 105),12	135,(8, 84),4	139,(10, 39),4	143,(10, 84),8	151,(8, 97),12	163,(12, 86),4	167,(5, 86),16	183,(7, 102),44	227,(12, 29),68	295,(8, 29),48	







# Outgoing
1,(0, 1),28	29,(3, 117),4	33,(4, 114),12	47,(7, 88),8	55,(12, 114),16	71,(0, 6),28	99,(4, 21),4	103,(4, 89),4	107,(7, 89),4	111,(4, 85),4	115,(8, 85),8	123,(5, 105),12	135,(8, 84),4	139,(10, 39),4	143,(10, 84),8	151,(8, 97),12	163,(12, 86),4	167,(5, 86),16	183,(7, 102),44	227,(12, 29),68	295,(8, 29),48	

31,(1, 94),4	35,(1, 53),4	39,(1, 111),4	43,(1, 45),4	47,(1, 48),4	51,(1, 63),8	59,(1, 44),12	71,(93, 121),12	83,(37, 121),12	101,(6, 104),4	105,(6, 15),4	109,(6, 120),12	121,(6, 109),12	133,(6, 103),12	145,(6, 17),12	157,(6, 96),12	169,(6, 61),20	189,(6, 25),20	209,(1, 22),32	241,(1, 73),96	337,(6, 52),296	633,(117, 121),12	645,(88, 121),12	657,(114, 121),12	669,(50, 121),12	681,(55, 121),12	693,(106, 121),12	705,(72, 121),12	717,(78, 121),12	729,(21, 121),12	741,(89, 121),12	753,(85, 121),12	765,(105, 121),12	777,(39, 121),12	789,(84, 121),12	801,(97, 121),12	813,(86, 121),12	825,(102, 121),12	837,(29, 121),12	







