319
# CPU
28,2,11	39,8,11	50,14,11	61,12,11	72,20,11	83,10,11	94,4,11	105,16,11	116,6,11	127,18,11	
0,0,1	1,1,11	12,3,11	23,9,11	34,17,11	45,11,11	56,7,11	69,5,11	171,13,11	182,15,11	237,19,11	318,21,1	
# Incoming
1,(0, 2),27	28,(1, 8),3	31,(1, 14),3	34,(1, 18),60	
39,(2, 5),30	69,(2, 13),102	171,(2, 15),6	177,(2, 19),60	237,(8, 21),9	246,(14, 21),9	255,(12, 21),9	264,(20, 21),9	273,(10, 21),9	282,(4, 21),9	291,(16, 21),9	300,(6, 21),9	309,(18, 21),9	
# Outgoing
39,(2, 5),30	69,(2, 13),102	171,(2, 15),6	177,(2, 19),60	237,(8, 21),9	246,(14, 21),9	255,(12, 21),9	264,(20, 21),9	273,(10, 21),9	282,(4, 21),9	291,(16, 21),9	300,(6, 21),9	309,(18, 21),9	
1,(0, 2),27	28,(1, 8),3	31,(1, 14),3	34,(1, 18),60	
