26827
# CPU
55,2,14	109,4,14	163,6,14	217,8,14	271,10,14	325,12,14	379,14,14	433,16,14	487,18,14	541,20,14	15772,42,14	17128,30,14	18244,112,14	19132,28,14	19216,38,14	19399,60,14	19726,88,14	19909,108,14	20143,130,14	20320,142,14	20461,148,14	20980,154,14	21034,160,14	21070,180,14	21286,22,14	22321,102,14	22335,104,14	22501,140,14	22516,158,14	22624,190,14	22638,194,14	22744,32,14	22798,44,14	23107,54,14	23121,56,14	23135,58,14	23170,62,14	23194,64,14	23208,66,14	23222,68,14	23383,76,14	23548,78,14	23584,84,14	23599,90,14	23632,92,14	23646,96,14	23797,114,14	23851,116,14	23887,126,14	23917,136,14	23932,144,14	23946,150,14	23960,156,14	24001,164,14	24015,166,14	24112,178,14	24142,182,14	24373,192,14	24538,24,14	24562,26,14	24592,34,14	24631,36,14	24645,40,14	24850,46,14	24976,48,14	24990,50,14	25030,52,14	25044,70,14	25058,72,14	25072,74,14	25086,80,14	25100,82,14	25114,86,14	25128,94,14	25142,98,14	25225,100,14	25282,106,14	25360,110,14	25374,118,14	25393,120,14	25507,122,14	25534,124,14	25548,128,14	25609,132,14	25627,134,14	25660,138,14	25702,146,14	25798,152,14	25876,162,14	25891,168,14	25954,170,14	25968,172,14	25982,174,14	25996,176,14	26010,184,14	26024,186,14	26038,188,14	26052,196,14	26066,198,14	26137,200,14	
0,0,1	1,15,14	15,11,14	29,5,14	43,3,14	57,19,14	71,1,14	85,9,14	99,7,14	113,13,14	127,17,14	9705,143,14	9900,173,14	10251,59,14	11025,137,14	11061,149,14	12393,33,14	12570,47,14	12837,73,14	13413,125,14	13818,187,14	13857,23,14	13871,37,14	13890,45,14	14040,65,14	14115,67,14	14262,87,14	14604,93,14	14640,101,14	14664,107,14	14700,111,14	15261,119,14	15672,139,14	15966,163,14	16377,177,14	16476,183,14	16887,21,14	16901,25,14	16915,29,14	17127,31,14	17141,35,14	17607,81,14	17922,103,14	18570,115,14	18639,123,14	18653,127,14	18667,135,14	18681,141,14	18695,145,14	19008,147,14	19041,155,14	19055,157,14	19200,167,14	19269,175,14	19283,189,14	19308,193,14	19322,197,14	19336,199,14	19350,27,14	19364,39,14	19779,41,14	19793,43,14	19827,49,14	19857,51,14	19871,53,14	19885,55,14	19899,57,14	19953,61,14	19986,63,14	20000,69,14	20157,71,14	20171,75,14	20185,77,14	20199,79,14	20213,83,14	20655,85,14	20679,89,14	20694,91,14	20793,95,14	20820,97,14	20834,99,14	20848,105,14	20862,109,14	20876,113,14	20952,117,14	21015,121,14	21029,129,14	21054,131,14	21078,133,14	21153,151,14	21167,153,14	21181,159,14	21312,161,14	21326,165,14	21340,169,14	21354,171,14	21471,179,14	21552,181,14	21762,185,14	21819,191,14	21954,195,14	26826,201,1	
# Incoming
1,(0, 2),54	55,(0, 4),54	109,(0, 6),54	163,(0, 8),54	217,(0, 10),54	271,(0, 12),54	325,(0, 14),54	379,(0, 16),54	433,(0, 18),54	487,(0, 20),54	541,(15, 22),141	682,(15, 24),3	685,(15, 28),3	688,(15, 42),48	736,(15, 44),3	739,(15, 46),3	742,(15, 48),45	787,(15, 50),33	820,(15, 54),54	874,(15, 62),156	1030,(15, 68),33	1063,(15, 70),3	1066,(15, 72),12	1078,(15, 76),30	1108,(15, 80),45	1153,(15, 84),42	1195,(15, 92),15	1210,(15, 94),3	1213,(15, 96),21	1234,(15, 98),6	1240,(15, 100),2379	3619,(15, 104),60	3679,(15, 106),3	3682,(15, 108),39	3721,(15, 110),3	3724,(15, 120),30	3754,(15, 126),30	3784,(15, 138),3	3787,(15, 140),3	3790,(15, 142),3	3793,(15, 144),15	3808,(15, 158),12	3820,(15, 160),6	3826,(15, 170),12	3838,(15, 172),51	3889,(15, 174),33	3922,(15, 176),30	3952,(15, 180),18	3970,(15, 188),6	3976,(15, 192),75	4051,(15, 194),6	4057,(15, 196),3	4060,(15, 198),9	4069,(11, 28),3	4072,(11, 36),9	4081,(11, 38),3	4084,(11, 40),3	4087,(11, 44),36	4123,(11, 46),66	4189,(11, 48),66	4255,(11, 52),21	4276,(11, 54),9	4285,(11, 58),42	4327,(11, 62),111	4438,(11, 66),3	4441,(11, 68),48	4489,(11, 78),6	4495,(11, 80),6	4501,(11, 82),102	4603,(11, 98),630	5233,(11, 100),78	5311,(11, 114),294	5605,(11, 122),3	5608,(11, 124),42	5650,(11, 130),72	5722,(11, 132),9	5731,(11, 136),27	5758,(11, 144),9	5767,(11, 148),258	6025,(11, 152),6	6031,(11, 154),126	6157,(11, 156),1833	7990,(11, 158),33	8023,(11, 160),18	8041,(11, 162),93	8134,(11, 164),3	8137,(11, 166),117	8254,(11, 168),6	8260,(11, 176),3	8263,(11, 184),36	8299,(11, 186),6	8305,(11, 192),18	8323,(11, 198),9	8332,(11, 200),105	8437,(5, 26),3	8440,(5, 28),138	8578,(5, 30),9	8587,(5, 32),24	8611,(5, 40),57	8668,(5, 42),63	8731,(5, 44),126	8857,(5, 48),3	8860,(5, 54),24	8884,(5, 56),33	8917,(5, 58),36	8953,(5, 62),3	8956,(5, 64),36	8992,(5, 68),6	8998,(5, 70),30	9028,(5, 74),81	9109,(5, 76),9	9118,(5, 80),12	9130,(5, 88),3	9133,(5, 94),6	9139,(5, 98),24	9163,(5, 100),3	9166,(5, 102),9	9175,(5, 104),15	9190,(5, 106),18	9208,(5, 114),24	9232,(5, 118),111	9343,(5, 132),9	9352,(5, 134),60	9412,(5, 136),15	9427,(5, 138),3	9430,(5, 140),12	9442,(5, 148),12	9454,(5, 150),93	9547,(5, 152),3	9550,(5, 154),12	9562,(5, 156),18	9580,(5, 158),144	9724,(5, 162),15	9739,(5, 164),30	9769,(5, 168),42	9811,(5, 174),9	9820,(5, 176),3	9823,(5, 180),654	10477,(5, 182),36	10513,(5, 186),6	10519,(5, 192),21	10540,(5, 194),1065	11605,(5, 196),24	11629,(5, 198),168	11797,(3, 22),27	11824,(3, 24),105	11929,(3, 26),9	11938,(3, 28),12	11950,(3, 34),105	12055,(3, 36),210	12265,(3, 38),21	12286,(3, 42),3	12289,(3, 46),6	12295,(3, 48),6	12301,(3, 50),84	12385,(3, 54),33	12418,(3, 56),3	12421,(3, 58),219	12640,(3, 60),57	12697,(3, 64),3	12700,(3, 66),3	12703,(3, 68),36	12739,(3, 70),39	12778,(3, 72),6	12784,(3, 76),3	12787,(3, 78),18	12805,(3, 80),9	12814,(3, 86),54	12868,(3, 102),3	12871,(3, 106),6	12877,(3, 110),84	12961,(3, 118),3	12964,(3, 120),3	12967,(3, 122),12	12979,(3, 126),6	12985,(3, 130),3	12988,(3, 136),306	13294,(3, 138),3	13297,(3, 144),3	13300,(3, 150),3	13303,(3, 154),3	13306,(3, 164),12	13318,(3, 166),966	14284,(3, 170),3	14287,(3, 172),3	14290,(3, 182),375	14665,(3, 188),24	14689,(3, 196),39	14728,(3, 198),6	14734,(3, 200),3	14737,(19, 24),60	14797,(19, 26),12	14809,(19, 28),66	14875,(19, 30),3	14878,(19, 36),42	14920,(19, 38),75	14995,(19, 40),6	15001,(19, 42),771	15772,(19, 48),39	15811,(19, 50),75	15886,(19, 56),66	15952,(19, 58),6	15958,(19, 60),9	15967,(19, 62),15	15982,(19, 68),3	15985,(19, 70),132	16117,(19, 88),3	16120,(19, 90),33	16153,(19, 92),15	16168,(19, 94),45	16213,(19, 96),18	16231,(19, 102),138	16369,(19, 114),15	16384,(19, 122),72	16456,(19, 124),15	16471,(19, 134),3	16474,(19, 136),3	16477,(19, 144),12	16489,(19, 148),3	16492,(19, 154),6	16498,(19, 160),3	16501,(19, 162),105	16606,(19, 164),126	16732,(19, 168),21	16753,(19, 172),12	16765,(19, 176),3	16768,(19, 186),63	16831,(19, 188),21	16852,(19, 190),6	16858,(19, 192),126	16984,(1, 30),144	17128,(1, 34),18	17146,(1, 36),51	17197,(1, 48),543	17740,(1, 52),15	17755,(1, 54),72	17827,(1, 58),3	17830,(1, 60),36	17866,(1, 62),6	17872,(1, 66),3	17875,(1, 68),21	17896,(1, 72),3	17899,(1, 74),18	17917,(1, 76),30	17947,(1, 80),27	17974,(1, 90),3	17977,(1, 92),9	17986,(1, 100),27	18013,(1, 102),9	18022,(1, 104),3	18025,(1, 110),207	18232,(1, 112),12	18244,(1, 116),39	18283,(1, 118),9	18292,(1, 122),54	18346,(1, 124),15	18361,(1, 126),33	18394,(1, 134),9	18403,(1, 138),21	18424,(1, 142),18	18442,(1, 144),27	18469,(1, 148),3	18472,(1, 150),15	18487,(1, 152),33	18520,(1, 156),3	18523,(1, 158),39	18562,(1, 168),3	18565,(1, 172),6	18571,(1, 174),21	18592,(1, 178),9	18601,(1, 182),27	18628,(1, 184),6	18634,(1, 186),27	18661,(1, 188),9	18670,(1, 190),9	18679,(1, 192),3	18682,(1, 194),42	18724,(1, 196),129	18853,(1, 198),42	18895,(1, 200),42	18937,(9, 24),84	19021,(9, 26),15	19036,(9, 28),96	19132,(9, 34),15	19147,(9, 36),66	19213,(9, 38),3	19216,(9, 40),3	19219,(9, 46),12	19231,(9, 48),3	19234,(9, 50),6	19240,(9, 54),12	19252,(9, 56),141	19393,(9, 58),3	19396,(9, 60),3	19399,(9, 64),3	19402,(9, 66),24	19426,(9, 68),15	19441,(9, 70),249	19690,(9, 72),6	19696,(9, 74),9	19705,(9, 76),6	19711,(9, 78),3	19714,(9, 88),12	19726,(9, 94),9	19735,(9, 96),36	19771,(9, 100),3	19774,(9, 102),6	19780,(9, 104),12	19792,(9, 106),93	19885,(9, 108),24	19909,(9, 110),6	19915,(9, 114),24	19939,(9, 116),3	19942,(9, 118),3	19945,(9, 122),6	19951,(9, 124),42	19993,(9, 130),150	20143,(9, 132),24	20167,(9, 142),153	20320,(9, 146),27	20347,(9, 148),114	20461,(9, 150),504	20965,(9, 152),3	20968,(9, 154),12	20980,(9, 158),51	21031,(9, 160),3	21034,(9, 174),3	21037,(9, 176),3	21040,(9, 178),27	21067,(9, 180),3	21070,(9, 186),81	21151,(9, 188),21	21172,(9, 192),21	21193,(7, 22),93	21286,(7, 24),63	21349,(7, 40),6	21355,(7, 52),90	21445,(7, 56),24	21469,(7, 64),69	21538,(7, 66),450	21988,(7, 68),42	22030,(7, 70),207	22237,(7, 72),3	22240,(7, 74),3	22243,(7, 78),6	22249,(7, 82),3	22252,(7, 92),3	22255,(7, 94),15	22270,(7, 102),51	22321,(7, 104),6	22327,(7, 110),9	22336,(7, 114),42	22378,(7, 116),9	22387,(7, 120),45	22432,(7, 122),15	22447,(7, 132),3	22450,(7, 134),3	22453,(7, 136),3	22456,(7, 138),18	22474,(7, 140),27	22501,(7, 146),3	22504,(7, 152),6	22510,(7, 156),3	22513,(7, 158),3	22516,(7, 162),3	22519,(7, 164),12	22531,(7, 166),30	22561,(7, 168),3	22564,(7, 184),36	22600,(7, 186),12	22612,(7, 188),9	22621,(7, 190),3	22624,(7, 194),3	22627,(7, 196),12	22639,(7, 198),18	22657,(7, 200),27	22684,(13, 24),15	22699,(13, 26),33	22732,(13, 32),12	22744,(13, 36),36	22780,(13, 40),3	22783,(13, 44),15	22798,(13, 50),72	22870,(13, 54),237	23107,(13, 56),9	23116,(13, 58),3	23119,(13, 62),51	23170,(13, 64),24	23194,(13, 66),12	23206,(13, 68),3	23209,(13, 70),21	23230,(13, 72),75	23305,(13, 76),78	23383,(13, 78),165	23548,(13, 80),30	23578,(13, 84),6	23584,(13, 86),3	23587,(13, 90),12	23599,(13, 92),33	23632,(13, 96),9	23641,(13, 106),12	23653,(13, 110),27	23680,(13, 114),117	23797,(13, 116),54	23851,(13, 118),9	23860,(13, 120),15	23875,(13, 126),12	23887,(13, 134),27	23914,(13, 136),3	23917,(13, 144),15	23932,(13, 150),9	23941,(13, 156),12	23953,(13, 162),21	23974,(13, 164),27	24001,(13, 166),3	24004,(13, 168),15	24019,(13, 170),66	24085,(13, 172),3	24088,(13, 174),12	24100,(13, 178),12	24112,(13, 182),30	24142,(13, 184),42	24184,(13, 186),9	24193,(13, 192),180	24373,(13, 196),3	24376,(13, 198),141	24517,(17, 24),21	24538,(17, 26),24	24562,(17, 34),30	24592,(17, 36),39	24631,(17, 40),3	24634,(17, 46),216	24850,(17, 48),126	24976,(17, 50),3	24979,(17, 52),51	25030,(17, 70),9	25039,(17, 72),18	25057,(17, 74),3	25060,(17, 80),9	25069,(17, 82),21	25090,(17, 86),6	25096,(17, 94),6	25102,(17, 98),3	25105,(17, 100),120	25225,(17, 106),57	25282,(17, 110),78	25360,(17, 118),6	25366,(17, 120),27	25393,(17, 122),114	25507,(17, 124),27	25534,(17, 128),3	25537,(17, 132),72	25609,(17, 134),18	25627,(17, 138),33	25660,(17, 146),42	25702,(17, 152),96	25798,(17, 162),78	25876,(17, 168),15	25891,(17, 170),63	25954,(17, 172),3	25957,(17, 174),3	25960,(17, 176),3	25963,(17, 184),3	25966,(17, 186),3	25969,(17, 188),3	25972,(17, 196),36	26008,(17, 198),21	26029,(17, 200),108	
69,(2, 21),15	84,(2, 25),9	93,(2, 27),12	105,(2, 31),30	135,(2, 33),15	150,(2, 39),30	180,(2, 41),18	198,(2, 43),3	201,(2, 45),3	204,(2, 53),111	315,(2, 55),111	426,(2, 57),6	432,(2, 61),6	438,(2, 63),27	465,(2, 65),3	468,(2, 67),6	474,(2, 75),3	477,(2, 79),3	480,(2, 81),36	516,(2, 85),3	519,(2, 89),3	522,(2, 93),72	594,(2, 95),3	597,(2, 103),3	600,(2, 105),3	603,(2, 109),3	606,(2, 129),12	618,(2, 131),27	645,(2, 133),6	651,(2, 135),9	660,(2, 137),9	669,(2, 139),129	798,(2, 141),435	1233,(2, 143),36	1269,(2, 145),39	1308,(2, 147),36	1344,(2, 149),12	1356,(2, 155),3	1359,(2, 163),3	1362,(2, 169),240	1602,(2, 171),3	1605,(2, 175),24	1629,(2, 177),15	1644,(2, 181),9	1653,(2, 185),12	1665,(2, 187),15	1680,(2, 189),15	1695,(2, 191),30	1725,(2, 195),3	1728,(2, 197),9	1737,(4, 21),414	2151,(4, 25),3	2154,(4, 27),30	2184,(4, 29),33	2217,(4, 31),15	2232,(4, 33),3	2235,(4, 35),3	2238,(4, 37),3	2241,(4, 41),3	2244,(4, 43),6	2250,(4, 45),126	2376,(4, 49),36	2412,(4, 51),45	2457,(4, 53),48	2505,(4, 55),6	2511,(4, 57),3	2514,(4, 59),3	2517,(4, 63),27	2544,(4, 65),15	2559,(4, 69),3	2562,(4, 73),6	2568,(4, 77),36	2604,(4, 83),33	2637,(4, 85),9	2646,(4, 89),21	2667,(4, 97),15	2682,(4, 99),33	2715,(4, 101),3	2718,(4, 103),36	2754,(4, 105),18	2772,(4, 107),18	2790,(4, 109),33	2823,(4, 113),6	2829,(4, 115),18	2847,(4, 119),9	2856,(4, 123),54	2910,(4, 127),15	2925,(4, 129),3	2928,(4, 133),3	2931,(4, 143),3	2934,(4, 145),27	2961,(4, 147),3	2964,(4, 149),3	2967,(4, 151),3	2970,(4, 153),6	2976,(4, 155),3	2979,(4, 159),30	3009,(4, 161),12	3021,(4, 173),3	3024,(4, 175),54	3078,(4, 179),15	3093,(4, 181),6	3099,(4, 187),6	3105,(4, 189),3	3108,(4, 191),21	3129,(4, 193),9	3138,(4, 195),36	3174,(4, 199),102	3276,(6, 23),6	3282,(6, 29),18	3300,(6, 31),6	3306,(6, 33),3	3309,(6, 35),3	3312,(6, 41),3	3315,(6, 43),12	3327,(6, 45),21	3348,(6, 47),984	4332,(6, 51),15	4347,(6, 53),3	4350,(6, 55),3	4353,(6, 59),138	4491,(6, 65),3	4494,(6, 71),48	4542,(6, 73),3	4545,(6, 77),24	4569,(6, 81),12	4581,(6, 85),3	4584,(6, 87),3	4587,(6, 91),24	4611,(6, 95),3	4614,(6, 97),18	4632,(6, 99),15	4647,(6, 101),21	4668,(6, 103),15	4683,(6, 107),114	4797,(6, 109),90	4887,(6, 113),21	4908,(6, 115),27	4935,(6, 119),75	5010,(6, 125),57	5067,(6, 129),3	5070,(6, 131),39	5109,(6, 135),6	5115,(6, 137),3	5118,(6, 139),3	5121,(6, 141),30	5151,(6, 149),69	5220,(6, 157),18	5238,(6, 161),3	5241,(6, 163),15	5256,(6, 165),231	5487,(6, 171),3	5490,(6, 173),78	5568,(6, 177),6	5574,(6, 187),3	5577,(6, 191),114	5691,(6, 195),30	5721,(6, 197),9	5730,(8, 21),3	5733,(8, 25),48	5781,(8, 27),9	5790,(8, 29),3	5793,(8, 31),9	5802,(8, 35),285	6087,(8, 43),30	6117,(8, 45),3	6120,(8, 47),6	6126,(8, 49),135	6261,(8, 59),24	6285,(8, 61),93	6378,(8, 63),84	6462,(8, 65),6	6468,(8, 69),15	6483,(8, 71),6	6489,(8, 75),3	6492,(8, 77),3	6495,(8, 85),24	6519,(8, 89),39	6558,(8, 93),3	6561,(8, 117),12	6573,(8, 119),102	6675,(8, 121),60	6735,(8, 127),27	6762,(8, 135),60	6822,(8, 137),12	6834,(8, 141),939	7773,(8, 143),18	7791,(8, 151),153	7944,(8, 153),108	8052,(8, 155),57	8109,(8, 157),12	8121,(8, 161),27	8148,(8, 163),3	8151,(8, 167),597	8748,(8, 171),39	8787,(8, 173),3	8790,(8, 175),3	8793,(8, 177),3	8796,(8, 193),6	8802,(8, 199),3	8805,(10, 21),3	8808,(10, 25),3	8811,(10, 27),3	8814,(10, 31),54	8868,(10, 45),18	8886,(10, 51),3	8889,(10, 57),111	9000,(10, 67),3	9003,(10, 69),24	9027,(10, 71),3	9030,(10, 75),12	9042,(10, 77),24	9066,(10, 91),3	9069,(10, 95),9	9078,(10, 97),15	9093,(10, 99),3	9096,(10, 101),210	9306,(10, 103),3	9309,(10, 105),3	9312,(10, 109),3	9315,(10, 111),21	9336,(10, 115),12	9348,(10, 121),6	9354,(10, 123),36	9390,(10, 125),3	9393,(10, 131),12	9405,(10, 133),36	9441,(10, 135),240	9681,(10, 141),21	9702,(10, 143),3	9705,(10, 145),12	9717,(10, 149),15	9732,(10, 151),6	9738,(10, 153),84	9822,(10, 163),3	9825,(10, 165),9	9834,(10, 167),12	9846,(10, 171),48	9894,(10, 173),6	9900,(10, 175),42	9942,(10, 179),6	9948,(10, 181),3	9951,(10, 183),6	9957,(10, 185),9	9966,(10, 187),15	9981,(10, 189),3	9984,(10, 195),15	9999,(12, 25),21	10020,(12, 27),27	10047,(12, 31),12	10059,(12, 35),12	10071,(12, 41),6	10077,(12, 43),15	10092,(12, 45),30	10122,(12, 47),12	10134,(12, 55),24	10158,(12, 59),93	10251,(12, 63),39	10290,(12, 65),15	10305,(12, 67),84	10389,(12, 71),30	10419,(12, 73),6	10425,(12, 77),3	10428,(12, 79),15	10443,(12, 81),57	10500,(12, 91),87	10587,(12, 93),9	10596,(12, 99),3	10599,(12, 101),21	10620,(12, 103),3	10623,(12, 111),171	10794,(12, 115),3	10797,(12, 123),3	10800,(12, 127),3	10803,(12, 133),93	10896,(12, 137),129	11025,(12, 139),6	11031,(12, 145),12	11043,(12, 147),15	11058,(12, 149),3	11061,(12, 151),57	11118,(12, 157),9	11127,(12, 163),18	11145,(12, 165),21	11166,(12, 169),255	11421,(12, 171),3	11424,(12, 175),9	11433,(12, 177),3	11436,(12, 189),3	11439,(12, 191),6	11445,(12, 199),123	11568,(14, 21),3	11571,(14, 25),15	11586,(14, 27),15	11601,(14, 31),789	12390,(14, 33),3	12393,(14, 35),54	12447,(14, 37),81	12528,(14, 39),3	12531,(14, 45),21	12552,(14, 47),18	12570,(14, 49),3	12573,(14, 51),3	12576,(14, 57),3	12579,(14, 61),3	12582,(14, 63),12	12594,(14, 65),69	12663,(14, 67),162	12825,(14, 71),3	12828,(14, 73),9	12837,(14, 75),3	12840,(14, 77),75	12915,(14, 79),3	12918,(14, 87),27	12945,(14, 89),3	12948,(14, 93),54	13002,(14, 95),6	13008,(14, 99),27	13035,(14, 101),27	13062,(14, 105),9	13071,(14, 109),96	13167,(14, 111),12	13179,(14, 113),135	13314,(14, 115),3	13317,(14, 117),48	13365,(14, 119),9	13374,(14, 123),24	13398,(14, 125),15	13413,(14, 131),3	13416,(14, 133),3	13419,(14, 139),6	13425,(14, 141),6	13431,(14, 145),18	13449,(14, 147),9	13458,(14, 151),12	13470,(14, 155),69	13539,(14, 159),24	13563,(14, 161),27	13590,(14, 163),6	13596,(14, 169),21	13617,(14, 171),111	13728,(14, 175),51	13779,(14, 177),12	13791,(14, 183),3	13794,(14, 185),3	13797,(14, 187),21	13818,(14, 191),18	13836,(14, 193),3	13839,(14, 197),12	13851,(14, 199),3	13854,(16, 23),3	13857,(16, 31),9	13866,(16, 37),3	13869,(16, 41),15	13884,(16, 45),6	13890,(16, 49),3	13893,(16, 55),132	14025,(16, 61),9	14034,(16, 63),3	14037,(16, 65),3	14040,(16, 67),75	14115,(16, 69),15	14130,(16, 71),48	14178,(16, 75),3	14181,(16, 81),30	14211,(16, 87),51	14262,(16, 89),306	14568,(16, 93),36	14604,(16, 97),6	14610,(16, 99),3	14613,(16, 101),27	14640,(16, 107),24	14664,(16, 109),9	14673,(16, 111),27	14700,(16, 113),9	14709,(16, 115),60	14769,(16, 119),492	15261,(16, 121),75	15336,(16, 123),39	15375,(16, 127),216	15591,(16, 133),39	15630,(16, 139),42	15672,(16, 141),6	15678,(16, 145),39	15717,(16, 147),24	15741,(16, 151),207	15948,(16, 155),15	15963,(16, 163),3	15966,(16, 165),72	16038,(16, 167),270	16308,(16, 175),57	16365,(16, 177),12	16377,(16, 179),93	16470,(16, 181),3	16473,(16, 183),3	16476,(16, 191),6	16482,(16, 193),6	16488,(16, 197),327	16815,(16, 199),69	16884,(18, 21),3	16887,(18, 25),6	16893,(18, 29),9	16902,(18, 31),225	17127,(18, 35),12	17139,(18, 49),408	17547,(18, 51),15	17562,(18, 55),3	17565,(18, 57),3	17568,(18, 69),6	17574,(18, 71),3	17577,(18, 77),6	17583,(18, 79),9	17592,(18, 81),15	17607,(18, 83),3	17610,(18, 89),12	17622,(18, 91),255	17877,(18, 103),45	17922,(18, 105),507	18429,(18, 109),15	18444,(18, 113),123	18567,(18, 115),3	18570,(18, 121),6	18576,(18, 123),63	18639,(18, 127),3	18642,(18, 135),3	18645,(18, 141),15	18660,(18, 145),27	18687,(18, 147),321	19008,(18, 151),9	19017,(18, 153),9	19026,(18, 155),15	19041,(18, 157),6	19047,(18, 159),30	19077,(18, 161),42	19119,(18, 165),48	19167,(18, 167),33	19200,(18, 171),63	19263,(18, 175),6	19269,(18, 189),9	19278,(18, 193),30	19308,(18, 197),3	19311,(18, 199),12	19323,(20, 27),6	19329,(20, 39),3	19332,(20, 41),447	19779,(20, 43),12	19791,(20, 49),36	19827,(20, 51),30	19857,(20, 53),3	19860,(20, 55),3	19863,(20, 57),9	19872,(20, 61),81	19953,(20, 63),33	19986,(20, 69),6	19992,(20, 71),165	20157,(20, 75),9	20166,(20, 77),3	20169,(20, 79),6	20175,(20, 83),3	20178,(20, 85),477	20655,(20, 89),24	20679,(20, 91),15	20694,(20, 95),99	20793,(20, 97),27	20820,(20, 99),9	20829,(20, 105),3	20832,(20, 109),12	20844,(20, 113),21	20865,(20, 117),87	20952,(20, 121),63	21015,(20, 129),6	21021,(20, 131),33	21054,(20, 133),24	21078,(20, 151),75	21153,(20, 153),6	21159,(20, 159),6	21165,(20, 161),147	21312,(20, 165),3	21315,(20, 169),12	21327,(20, 171),3	21330,(20, 179),141	21471,(20, 181),81	21552,(20, 185),210	21762,(20, 191),57	21819,(20, 195),135	21954,(42, 201),51	22005,(30, 201),51	22056,(112, 201),51	22107,(28, 201),51	22158,(38, 201),51	22209,(60, 201),51	22260,(88, 201),51	22311,(108, 201),51	22362,(130, 201),51	22413,(142, 201),51	22464,(148, 201),51	22515,(154, 201),51	22566,(160, 201),51	22617,(180, 201),51	22668,(22, 201),51	22719,(102, 201),51	22770,(104, 201),51	22821,(140, 201),51	22872,(158, 201),51	22923,(190, 201),51	22974,(194, 201),51	23025,(32, 201),51	23076,(44, 201),51	23127,(54, 201),51	23178,(56, 201),51	23229,(58, 201),51	23280,(62, 201),51	23331,(64, 201),51	23382,(66, 201),51	23433,(68, 201),51	23484,(76, 201),51	23562,(78, 201),51	23613,(84, 201),51	23664,(90, 201),51	23715,(92, 201),51	23766,(96, 201),51	23817,(114, 201),51	23868,(116, 201),51	23919,(126, 201),51	23970,(136, 201),51	24021,(144, 201),51	24072,(150, 201),51	24123,(156, 201),51	24174,(164, 201),51	24225,(166, 201),51	24276,(178, 201),51	24327,(182, 201),51	24387,(192, 201),51	24552,(24, 201),51	24603,(26, 201),51	24654,(34, 201),51	24705,(36, 201),51	24756,(40, 201),51	24864,(46, 201),51	24990,(48, 201),51	25041,(50, 201),51	25092,(52, 201),51	25143,(70, 201),51	25194,(72, 201),51	25245,(74, 201),51	25296,(80, 201),51	25347,(82, 201),51	25398,(86, 201),51	25449,(94, 201),51	25500,(98, 201),51	25551,(100, 201),51	25602,(106, 201),51	25653,(110, 201),51	25704,(118, 201),51	25755,(120, 201),51	25806,(122, 201),51	25857,(124, 201),51	25908,(128, 201),51	25959,(132, 201),51	26010,(134, 201),51	26061,(138, 201),51	26112,(146, 201),51	26163,(152, 201),51	26214,(162, 201),51	26265,(168, 201),51	26316,(170, 201),51	26367,(172, 201),51	26418,(174, 201),51	26469,(176, 201),51	26520,(184, 201),51	26571,(186, 201),51	26622,(188, 201),51	26673,(196, 201),51	26724,(198, 201),51	26775,(200, 201),51	
# Outgoing
69,(2, 21),15	84,(2, 25),9	93,(2, 27),12	105,(2, 31),30	135,(2, 33),15	150,(2, 39),30	180,(2, 41),18	198,(2, 43),3	201,(2, 45),3	204,(2, 53),111	315,(2, 55),111	426,(2, 57),6	432,(2, 61),6	438,(2, 63),27	465,(2, 65),3	468,(2, 67),6	474,(2, 75),3	477,(2, 79),3	480,(2, 81),36	516,(2, 85),3	519,(2, 89),3	522,(2, 93),72	594,(2, 95),3	597,(2, 103),3	600,(2, 105),3	603,(2, 109),3	606,(2, 129),12	618,(2, 131),27	645,(2, 133),6	651,(2, 135),9	660,(2, 137),9	669,(2, 139),129	798,(2, 141),435	1233,(2, 143),36	1269,(2, 145),39	1308,(2, 147),36	1344,(2, 149),12	1356,(2, 155),3	1359,(2, 163),3	1362,(2, 169),240	1602,(2, 171),3	1605,(2, 175),24	1629,(2, 177),15	1644,(2, 181),9	1653,(2, 185),12	1665,(2, 187),15	1680,(2, 189),15	1695,(2, 191),30	1725,(2, 195),3	1728,(2, 197),9	1737,(4, 21),414	2151,(4, 25),3	2154,(4, 27),30	2184,(4, 29),33	2217,(4, 31),15	2232,(4, 33),3	2235,(4, 35),3	2238,(4, 37),3	2241,(4, 41),3	2244,(4, 43),6	2250,(4, 45),126	2376,(4, 49),36	2412,(4, 51),45	2457,(4, 53),48	2505,(4, 55),6	2511,(4, 57),3	2514,(4, 59),3	2517,(4, 63),27	2544,(4, 65),15	2559,(4, 69),3	2562,(4, 73),6	2568,(4, 77),36	2604,(4, 83),33	2637,(4, 85),9	2646,(4, 89),21	2667,(4, 97),15	2682,(4, 99),33	2715,(4, 101),3	2718,(4, 103),36	2754,(4, 105),18	2772,(4, 107),18	2790,(4, 109),33	2823,(4, 113),6	2829,(4, 115),18	2847,(4, 119),9	2856,(4, 123),54	2910,(4, 127),15	2925,(4, 129),3	2928,(4, 133),3	2931,(4, 143),3	2934,(4, 145),27	2961,(4, 147),3	2964,(4, 149),3	2967,(4, 151),3	2970,(4, 153),6	2976,(4, 155),3	2979,(4, 159),30	3009,(4, 161),12	3021,(4, 173),3	3024,(4, 175),54	3078,(4, 179),15	3093,(4, 181),6	3099,(4, 187),6	3105,(4, 189),3	3108,(4, 191),21	3129,(4, 193),9	3138,(4, 195),36	3174,(4, 199),102	3276,(6, 23),6	3282,(6, 29),18	3300,(6, 31),6	3306,(6, 33),3	3309,(6, 35),3	3312,(6, 41),3	3315,(6, 43),12	3327,(6, 45),21	3348,(6, 47),984	4332,(6, 51),15	4347,(6, 53),3	4350,(6, 55),3	4353,(6, 59),138	4491,(6, 65),3	4494,(6, 71),48	4542,(6, 73),3	4545,(6, 77),24	4569,(6, 81),12	4581,(6, 85),3	4584,(6, 87),3	4587,(6, 91),24	4611,(6, 95),3	4614,(6, 97),18	4632,(6, 99),15	4647,(6, 101),21	4668,(6, 103),15	4683,(6, 107),114	4797,(6, 109),90	4887,(6, 113),21	4908,(6, 115),27	4935,(6, 119),75	5010,(6, 125),57	5067,(6, 129),3	5070,(6, 131),39	5109,(6, 135),6	5115,(6, 137),3	5118,(6, 139),3	5121,(6, 141),30	5151,(6, 149),69	5220,(6, 157),18	5238,(6, 161),3	5241,(6, 163),15	5256,(6, 165),231	5487,(6, 171),3	5490,(6, 173),78	5568,(6, 177),6	5574,(6, 187),3	5577,(6, 191),114	5691,(6, 195),30	5721,(6, 197),9	5730,(8, 21),3	5733,(8, 25),48	5781,(8, 27),9	5790,(8, 29),3	5793,(8, 31),9	5802,(8, 35),285	6087,(8, 43),30	6117,(8, 45),3	6120,(8, 47),6	6126,(8, 49),135	6261,(8, 59),24	6285,(8, 61),93	6378,(8, 63),84	6462,(8, 65),6	6468,(8, 69),15	6483,(8, 71),6	6489,(8, 75),3	6492,(8, 77),3	6495,(8, 85),24	6519,(8, 89),39	6558,(8, 93),3	6561,(8, 117),12	6573,(8, 119),102	6675,(8, 121),60	6735,(8, 127),27	6762,(8, 135),60	6822,(8, 137),12	6834,(8, 141),939	7773,(8, 143),18	7791,(8, 151),153	7944,(8, 153),108	8052,(8, 155),57	8109,(8, 157),12	8121,(8, 161),27	8148,(8, 163),3	8151,(8, 167),597	8748,(8, 171),39	8787,(8, 173),3	8790,(8, 175),3	8793,(8, 177),3	8796,(8, 193),6	8802,(8, 199),3	8805,(10, 21),3	8808,(10, 25),3	8811,(10, 27),3	8814,(10, 31),54	8868,(10, 45),18	8886,(10, 51),3	8889,(10, 57),111	9000,(10, 67),3	9003,(10, 69),24	9027,(10, 71),3	9030,(10, 75),12	9042,(10, 77),24	9066,(10, 91),3	9069,(10, 95),9	9078,(10, 97),15	9093,(10, 99),3	9096,(10, 101),210	9306,(10, 103),3	9309,(10, 105),3	9312,(10, 109),3	9315,(10, 111),21	9336,(10, 115),12	9348,(10, 121),6	9354,(10, 123),36	9390,(10, 125),3	9393,(10, 131),12	9405,(10, 133),36	9441,(10, 135),240	9681,(10, 141),21	9702,(10, 143),3	9705,(10, 145),12	9717,(10, 149),15	9732,(10, 151),6	9738,(10, 153),84	9822,(10, 163),3	9825,(10, 165),9	9834,(10, 167),12	9846,(10, 171),48	9894,(10, 173),6	9900,(10, 175),42	9942,(10, 179),6	9948,(10, 181),3	9951,(10, 183),6	9957,(10, 185),9	9966,(10, 187),15	9981,(10, 189),3	9984,(10, 195),15	9999,(12, 25),21	10020,(12, 27),27	10047,(12, 31),12	10059,(12, 35),12	10071,(12, 41),6	10077,(12, 43),15	10092,(12, 45),30	10122,(12, 47),12	10134,(12, 55),24	10158,(12, 59),93	10251,(12, 63),39	10290,(12, 65),15	10305,(12, 67),84	10389,(12, 71),30	10419,(12, 73),6	10425,(12, 77),3	10428,(12, 79),15	10443,(12, 81),57	10500,(12, 91),87	10587,(12, 93),9	10596,(12, 99),3	10599,(12, 101),21	10620,(12, 103),3	10623,(12, 111),171	10794,(12, 115),3	10797,(12, 123),3	10800,(12, 127),3	10803,(12, 133),93	10896,(12, 137),129	11025,(12, 139),6	11031,(12, 145),12	11043,(12, 147),15	11058,(12, 149),3	11061,(12, 151),57	11118,(12, 157),9	11127,(12, 163),18	11145,(12, 165),21	11166,(12, 169),255	11421,(12, 171),3	11424,(12, 175),9	11433,(12, 177),3	11436,(12, 189),3	11439,(12, 191),6	11445,(12, 199),123	11568,(14, 21),3	11571,(14, 25),15	11586,(14, 27),15	11601,(14, 31),789	12390,(14, 33),3	12393,(14, 35),54	12447,(14, 37),81	12528,(14, 39),3	12531,(14, 45),21	12552,(14, 47),18	12570,(14, 49),3	12573,(14, 51),3	12576,(14, 57),3	12579,(14, 61),3	12582,(14, 63),12	12594,(14, 65),69	12663,(14, 67),162	12825,(14, 71),3	12828,(14, 73),9	12837,(14, 75),3	12840,(14, 77),75	12915,(14, 79),3	12918,(14, 87),27	12945,(14, 89),3	12948,(14, 93),54	13002,(14, 95),6	13008,(14, 99),27	13035,(14, 101),27	13062,(14, 105),9	13071,(14, 109),96	13167,(14, 111),12	13179,(14, 113),135	13314,(14, 115),3	13317,(14, 117),48	13365,(14, 119),9	13374,(14, 123),24	13398,(14, 125),15	13413,(14, 131),3	13416,(14, 133),3	13419,(14, 139),6	13425,(14, 141),6	13431,(14, 145),18	13449,(14, 147),9	13458,(14, 151),12	13470,(14, 155),69	13539,(14, 159),24	13563,(14, 161),27	13590,(14, 163),6	13596,(14, 169),21	13617,(14, 171),111	13728,(14, 175),51	13779,(14, 177),12	13791,(14, 183),3	13794,(14, 185),3	13797,(14, 187),21	13818,(14, 191),18	13836,(14, 193),3	13839,(14, 197),12	13851,(14, 199),3	13854,(16, 23),3	13857,(16, 31),9	13866,(16, 37),3	13869,(16, 41),15	13884,(16, 45),6	13890,(16, 49),3	13893,(16, 55),132	14025,(16, 61),9	14034,(16, 63),3	14037,(16, 65),3	14040,(16, 67),75	14115,(16, 69),15	14130,(16, 71),48	14178,(16, 75),3	14181,(16, 81),30	14211,(16, 87),51	14262,(16, 89),306	14568,(16, 93),36	14604,(16, 97),6	14610,(16, 99),3	14613,(16, 101),27	14640,(16, 107),24	14664,(16, 109),9	14673,(16, 111),27	14700,(16, 113),9	14709,(16, 115),60	14769,(16, 119),492	15261,(16, 121),75	15336,(16, 123),39	15375,(16, 127),216	15591,(16, 133),39	15630,(16, 139),42	15672,(16, 141),6	15678,(16, 145),39	15717,(16, 147),24	15741,(16, 151),207	15948,(16, 155),15	15963,(16, 163),3	15966,(16, 165),72	16038,(16, 167),270	16308,(16, 175),57	16365,(16, 177),12	16377,(16, 179),93	16470,(16, 181),3	16473,(16, 183),3	16476,(16, 191),6	16482,(16, 193),6	16488,(16, 197),327	16815,(16, 199),69	16884,(18, 21),3	16887,(18, 25),6	16893,(18, 29),9	16902,(18, 31),225	17127,(18, 35),12	17139,(18, 49),408	17547,(18, 51),15	17562,(18, 55),3	17565,(18, 57),3	17568,(18, 69),6	17574,(18, 71),3	17577,(18, 77),6	17583,(18, 79),9	17592,(18, 81),15	17607,(18, 83),3	17610,(18, 89),12	17622,(18, 91),255	17877,(18, 103),45	17922,(18, 105),507	18429,(18, 109),15	18444,(18, 113),123	18567,(18, 115),3	18570,(18, 121),6	18576,(18, 123),63	18639,(18, 127),3	18642,(18, 135),3	18645,(18, 141),15	18660,(18, 145),27	18687,(18, 147),321	19008,(18, 151),9	19017,(18, 153),9	19026,(18, 155),15	19041,(18, 157),6	19047,(18, 159),30	19077,(18, 161),42	19119,(18, 165),48	19167,(18, 167),33	19200,(18, 171),63	19263,(18, 175),6	19269,(18, 189),9	19278,(18, 193),30	19308,(18, 197),3	19311,(18, 199),12	19323,(20, 27),6	19329,(20, 39),3	19332,(20, 41),447	19779,(20, 43),12	19791,(20, 49),36	19827,(20, 51),30	19857,(20, 53),3	19860,(20, 55),3	19863,(20, 57),9	19872,(20, 61),81	19953,(20, 63),33	19986,(20, 69),6	19992,(20, 71),165	20157,(20, 75),9	20166,(20, 77),3	20169,(20, 79),6	20175,(20, 83),3	20178,(20, 85),477	20655,(20, 89),24	20679,(20, 91),15	20694,(20, 95),99	20793,(20, 97),27	20820,(20, 99),9	20829,(20, 105),3	20832,(20, 109),12	20844,(20, 113),21	20865,(20, 117),87	20952,(20, 121),63	21015,(20, 129),6	21021,(20, 131),33	21054,(20, 133),24	21078,(20, 151),75	21153,(20, 153),6	21159,(20, 159),6	21165,(20, 161),147	21312,(20, 165),3	21315,(20, 169),12	21327,(20, 171),3	21330,(20, 179),141	21471,(20, 181),81	21552,(20, 185),210	21762,(20, 191),57	21819,(20, 195),135	21954,(42, 201),51	22005,(30, 201),51	22056,(112, 201),51	22107,(28, 201),51	22158,(38, 201),51	22209,(60, 201),51	22260,(88, 201),51	22311,(108, 201),51	22362,(130, 201),51	22413,(142, 201),51	22464,(148, 201),51	22515,(154, 201),51	22566,(160, 201),51	22617,(180, 201),51	22668,(22, 201),51	22719,(102, 201),51	22770,(104, 201),51	22821,(140, 201),51	22872,(158, 201),51	22923,(190, 201),51	22974,(194, 201),51	23025,(32, 201),51	23076,(44, 201),51	23127,(54, 201),51	23178,(56, 201),51	23229,(58, 201),51	23280,(62, 201),51	23331,(64, 201),51	23382,(66, 201),51	23433,(68, 201),51	23484,(76, 201),51	23562,(78, 201),51	23613,(84, 201),51	23664,(90, 201),51	23715,(92, 201),51	23766,(96, 201),51	23817,(114, 201),51	23868,(116, 201),51	23919,(126, 201),51	23970,(136, 201),51	24021,(144, 201),51	24072,(150, 201),51	24123,(156, 201),51	24174,(164, 201),51	24225,(166, 201),51	24276,(178, 201),51	24327,(182, 201),51	24387,(192, 201),51	24552,(24, 201),51	24603,(26, 201),51	24654,(34, 201),51	24705,(36, 201),51	24756,(40, 201),51	24864,(46, 201),51	24990,(48, 201),51	25041,(50, 201),51	25092,(52, 201),51	25143,(70, 201),51	25194,(72, 201),51	25245,(74, 201),51	25296,(80, 201),51	25347,(82, 201),51	25398,(86, 201),51	25449,(94, 201),51	25500,(98, 201),51	25551,(100, 201),51	25602,(106, 201),51	25653,(110, 201),51	25704,(118, 201),51	25755,(120, 201),51	25806,(122, 201),51	25857,(124, 201),51	25908,(128, 201),51	25959,(132, 201),51	26010,(134, 201),51	26061,(138, 201),51	26112,(146, 201),51	26163,(152, 201),51	26214,(162, 201),51	26265,(168, 201),51	26316,(170, 201),51	26367,(172, 201),51	26418,(174, 201),51	26469,(176, 201),51	26520,(184, 201),51	26571,(186, 201),51	26622,(188, 201),51	26673,(196, 201),51	26724,(198, 201),51	26775,(200, 201),51	
1,(0, 2),54	55,(0, 4),54	109,(0, 6),54	163,(0, 8),54	217,(0, 10),54	271,(0, 12),54	325,(0, 14),54	379,(0, 16),54	433,(0, 18),54	487,(0, 20),54	541,(15, 22),141	682,(15, 24),3	685,(15, 28),3	688,(15, 42),48	736,(15, 44),3	739,(15, 46),3	742,(15, 48),45	787,(15, 50),33	820,(15, 54),54	874,(15, 62),156	1030,(15, 68),33	1063,(15, 70),3	1066,(15, 72),12	1078,(15, 76),30	1108,(15, 80),45	1153,(15, 84),42	1195,(15, 92),15	1210,(15, 94),3	1213,(15, 96),21	1234,(15, 98),6	1240,(15, 100),2379	3619,(15, 104),60	3679,(15, 106),3	3682,(15, 108),39	3721,(15, 110),3	3724,(15, 120),30	3754,(15, 126),30	3784,(15, 138),3	3787,(15, 140),3	3790,(15, 142),3	3793,(15, 144),15	3808,(15, 158),12	3820,(15, 160),6	3826,(15, 170),12	3838,(15, 172),51	3889,(15, 174),33	3922,(15, 176),30	3952,(15, 180),18	3970,(15, 188),6	3976,(15, 192),75	4051,(15, 194),6	4057,(15, 196),3	4060,(15, 198),9	4069,(11, 28),3	4072,(11, 36),9	4081,(11, 38),3	4084,(11, 40),3	4087,(11, 44),36	4123,(11, 46),66	4189,(11, 48),66	4255,(11, 52),21	4276,(11, 54),9	4285,(11, 58),42	4327,(11, 62),111	4438,(11, 66),3	4441,(11, 68),48	4489,(11, 78),6	4495,(11, 80),6	4501,(11, 82),102	4603,(11, 98),630	5233,(11, 100),78	5311,(11, 114),294	5605,(11, 122),3	5608,(11, 124),42	5650,(11, 130),72	5722,(11, 132),9	5731,(11, 136),27	5758,(11, 144),9	5767,(11, 148),258	6025,(11, 152),6	6031,(11, 154),126	6157,(11, 156),1833	7990,(11, 158),33	8023,(11, 160),18	8041,(11, 162),93	8134,(11, 164),3	8137,(11, 166),117	8254,(11, 168),6	8260,(11, 176),3	8263,(11, 184),36	8299,(11, 186),6	8305,(11, 192),18	8323,(11, 198),9	8332,(11, 200),105	8437,(5, 26),3	8440,(5, 28),138	8578,(5, 30),9	8587,(5, 32),24	8611,(5, 40),57	8668,(5, 42),63	8731,(5, 44),126	8857,(5, 48),3	8860,(5, 54),24	8884,(5, 56),33	8917,(5, 58),36	8953,(5, 62),3	8956,(5, 64),36	8992,(5, 68),6	8998,(5, 70),30	9028,(5, 74),81	9109,(5, 76),9	9118,(5, 80),12	9130,(5, 88),3	9133,(5, 94),6	9139,(5, 98),24	9163,(5, 100),3	9166,(5, 102),9	9175,(5, 104),15	9190,(5, 106),18	9208,(5, 114),24	9232,(5, 118),111	9343,(5, 132),9	9352,(5, 134),60	9412,(5, 136),15	9427,(5, 138),3	9430,(5, 140),12	9442,(5, 148),12	9454,(5, 150),93	9547,(5, 152),3	9550,(5, 154),12	9562,(5, 156),18	9580,(5, 158),144	9724,(5, 162),15	9739,(5, 164),30	9769,(5, 168),42	9811,(5, 174),9	9820,(5, 176),3	9823,(5, 180),654	10477,(5, 182),36	10513,(5, 186),6	10519,(5, 192),21	10540,(5, 194),1065	11605,(5, 196),24	11629,(5, 198),168	11797,(3, 22),27	11824,(3, 24),105	11929,(3, 26),9	11938,(3, 28),12	11950,(3, 34),105	12055,(3, 36),210	12265,(3, 38),21	12286,(3, 42),3	12289,(3, 46),6	12295,(3, 48),6	12301,(3, 50),84	12385,(3, 54),33	12418,(3, 56),3	12421,(3, 58),219	12640,(3, 60),57	12697,(3, 64),3	12700,(3, 66),3	12703,(3, 68),36	12739,(3, 70),39	12778,(3, 72),6	12784,(3, 76),3	12787,(3, 78),18	12805,(3, 80),9	12814,(3, 86),54	12868,(3, 102),3	12871,(3, 106),6	12877,(3, 110),84	12961,(3, 118),3	12964,(3, 120),3	12967,(3, 122),12	12979,(3, 126),6	12985,(3, 130),3	12988,(3, 136),306	13294,(3, 138),3	13297,(3, 144),3	13300,(3, 150),3	13303,(3, 154),3	13306,(3, 164),12	13318,(3, 166),966	14284,(3, 170),3	14287,(3, 172),3	14290,(3, 182),375	14665,(3, 188),24	14689,(3, 196),39	14728,(3, 198),6	14734,(3, 200),3	14737,(19, 24),60	14797,(19, 26),12	14809,(19, 28),66	14875,(19, 30),3	14878,(19, 36),42	14920,(19, 38),75	14995,(19, 40),6	15001,(19, 42),771	15772,(19, 48),39	15811,(19, 50),75	15886,(19, 56),66	15952,(19, 58),6	15958,(19, 60),9	15967,(19, 62),15	15982,(19, 68),3	15985,(19, 70),132	16117,(19, 88),3	16120,(19, 90),33	16153,(19, 92),15	16168,(19, 94),45	16213,(19, 96),18	16231,(19, 102),138	16369,(19, 114),15	16384,(19, 122),72	16456,(19, 124),15	16471,(19, 134),3	16474,(19, 136),3	16477,(19, 144),12	16489,(19, 148),3	16492,(19, 154),6	16498,(19, 160),3	16501,(19, 162),105	16606,(19, 164),126	16732,(19, 168),21	16753,(19, 172),12	16765,(19, 176),3	16768,(19, 186),63	16831,(19, 188),21	16852,(19, 190),6	16858,(19, 192),126	16984,(1, 30),144	17128,(1, 34),18	17146,(1, 36),51	17197,(1, 48),543	17740,(1, 52),15	17755,(1, 54),72	17827,(1, 58),3	17830,(1, 60),36	17866,(1, 62),6	17872,(1, 66),3	17875,(1, 68),21	17896,(1, 72),3	17899,(1, 74),18	17917,(1, 76),30	17947,(1, 80),27	17974,(1, 90),3	17977,(1, 92),9	17986,(1, 100),27	18013,(1, 102),9	18022,(1, 104),3	18025,(1, 110),207	18232,(1, 112),12	18244,(1, 116),39	18283,(1, 118),9	18292,(1, 122),54	18346,(1, 124),15	18361,(1, 126),33	18394,(1, 134),9	18403,(1, 138),21	18424,(1, 142),18	18442,(1, 144),27	18469,(1, 148),3	18472,(1, 150),15	18487,(1, 152),33	18520,(1, 156),3	18523,(1, 158),39	18562,(1, 168),3	18565,(1, 172),6	18571,(1, 174),21	18592,(1, 178),9	18601,(1, 182),27	18628,(1, 184),6	18634,(1, 186),27	18661,(1, 188),9	18670,(1, 190),9	18679,(1, 192),3	18682,(1, 194),42	18724,(1, 196),129	18853,(1, 198),42	18895,(1, 200),42	18937,(9, 24),84	19021,(9, 26),15	19036,(9, 28),96	19132,(9, 34),15	19147,(9, 36),66	19213,(9, 38),3	19216,(9, 40),3	19219,(9, 46),12	19231,(9, 48),3	19234,(9, 50),6	19240,(9, 54),12	19252,(9, 56),141	19393,(9, 58),3	19396,(9, 60),3	19399,(9, 64),3	19402,(9, 66),24	19426,(9, 68),15	19441,(9, 70),249	19690,(9, 72),6	19696,(9, 74),9	19705,(9, 76),6	19711,(9, 78),3	19714,(9, 88),12	19726,(9, 94),9	19735,(9, 96),36	19771,(9, 100),3	19774,(9, 102),6	19780,(9, 104),12	19792,(9, 106),93	19885,(9, 108),24	19909,(9, 110),6	19915,(9, 114),24	19939,(9, 116),3	19942,(9, 118),3	19945,(9, 122),6	19951,(9, 124),42	19993,(9, 130),150	20143,(9, 132),24	20167,(9, 142),153	20320,(9, 146),27	20347,(9, 148),114	20461,(9, 150),504	20965,(9, 152),3	20968,(9, 154),12	20980,(9, 158),51	21031,(9, 160),3	21034,(9, 174),3	21037,(9, 176),3	21040,(9, 178),27	21067,(9, 180),3	21070,(9, 186),81	21151,(9, 188),21	21172,(9, 192),21	21193,(7, 22),93	21286,(7, 24),63	21349,(7, 40),6	21355,(7, 52),90	21445,(7, 56),24	21469,(7, 64),69	21538,(7, 66),450	21988,(7, 68),42	22030,(7, 70),207	22237,(7, 72),3	22240,(7, 74),3	22243,(7, 78),6	22249,(7, 82),3	22252,(7, 92),3	22255,(7, 94),15	22270,(7, 102),51	22321,(7, 104),6	22327,(7, 110),9	22336,(7, 114),42	22378,(7, 116),9	22387,(7, 120),45	22432,(7, 122),15	22447,(7, 132),3	22450,(7, 134),3	22453,(7, 136),3	22456,(7, 138),18	22474,(7, 140),27	22501,(7, 146),3	22504,(7, 152),6	22510,(7, 156),3	22513,(7, 158),3	22516,(7, 162),3	22519,(7, 164),12	22531,(7, 166),30	22561,(7, 168),3	22564,(7, 184),36	22600,(7, 186),12	22612,(7, 188),9	22621,(7, 190),3	22624,(7, 194),3	22627,(7, 196),12	22639,(7, 198),18	22657,(7, 200),27	22684,(13, 24),15	22699,(13, 26),33	22732,(13, 32),12	22744,(13, 36),36	22780,(13, 40),3	22783,(13, 44),15	22798,(13, 50),72	22870,(13, 54),237	23107,(13, 56),9	23116,(13, 58),3	23119,(13, 62),51	23170,(13, 64),24	23194,(13, 66),12	23206,(13, 68),3	23209,(13, 70),21	23230,(13, 72),75	23305,(13, 76),78	23383,(13, 78),165	23548,(13, 80),30	23578,(13, 84),6	23584,(13, 86),3	23587,(13, 90),12	23599,(13, 92),33	23632,(13, 96),9	23641,(13, 106),12	23653,(13, 110),27	23680,(13, 114),117	23797,(13, 116),54	23851,(13, 118),9	23860,(13, 120),15	23875,(13, 126),12	23887,(13, 134),27	23914,(13, 136),3	23917,(13, 144),15	23932,(13, 150),9	23941,(13, 156),12	23953,(13, 162),21	23974,(13, 164),27	24001,(13, 166),3	24004,(13, 168),15	24019,(13, 170),66	24085,(13, 172),3	24088,(13, 174),12	24100,(13, 178),12	24112,(13, 182),30	24142,(13, 184),42	24184,(13, 186),9	24193,(13, 192),180	24373,(13, 196),3	24376,(13, 198),141	24517,(17, 24),21	24538,(17, 26),24	24562,(17, 34),30	24592,(17, 36),39	24631,(17, 40),3	24634,(17, 46),216	24850,(17, 48),126	24976,(17, 50),3	24979,(17, 52),51	25030,(17, 70),9	25039,(17, 72),18	25057,(17, 74),3	25060,(17, 80),9	25069,(17, 82),21	25090,(17, 86),6	25096,(17, 94),6	25102,(17, 98),3	25105,(17, 100),120	25225,(17, 106),57	25282,(17, 110),78	25360,(17, 118),6	25366,(17, 120),27	25393,(17, 122),114	25507,(17, 124),27	25534,(17, 128),3	25537,(17, 132),72	25609,(17, 134),18	25627,(17, 138),33	25660,(17, 146),42	25702,(17, 152),96	25798,(17, 162),78	25876,(17, 168),15	25891,(17, 170),63	25954,(17, 172),3	25957,(17, 174),3	25960,(17, 176),3	25963,(17, 184),3	25966,(17, 186),3	25969,(17, 188),3	25972,(17, 196),36	26008,(17, 198),21	26029,(17, 200),108	
