7595
# CPU
109,10,1	189,94,1	217,20,1	547,88,1	553,112,1	1345,101,1	1483,129,1	1517,103,1	1615,46,1	1617,96,1	1677,58,1	1913,138,1	1947,102,1	1991,78,1	1993,71,1	2021,75,1	2023,111,1	2027,189,1	2029,172,1	2065,92,1	2101,98,1	2145,104,1	2187,132,1	2603,154,1	2843,186,1	5307,119,1	5365,87,1	5463,182,1	6809,82,1	7087,169,1	7103,193,1	7147,86,1	7173,105,1	7185,107,1	7189,108,1	7197,109,1	7225,110,1	7227,115,1	7229,135,1	7231,146,1	7233,152,1	7271,155,1	7285,157,1	7291,95,1	7383,160,1	7385,165,1	7389,179,1	7391,47,1	7395,65,1	7397,90,1	7403,93,1	7419,97,1	7455,126,1	7457,143,1	7461,148,1	7463,151,1	7477,153,1	7499,162,1	7583,175,1	7591,197,1	
97,9,1	205,19,1	1621,167,1	1625,185,1	1747,85,1	1979,188,1	2015,200,1	2089,145,1	2135,150,1	2141,44,1	2143,53,1	2155,195,1	2167,123,1	2179,128,1	2183,174,1	2185,70,1	2553,72,1	2577,147,1	2615,156,1	2773,177,1	2787,79,1	2819,137,1	2857,100,1	2883,131,1	2887,149,1	3287,164,1	3391,64,1	3413,91,1	3447,161,1	3449,114,1	4507,171,1	4517,192,1	4749,77,1	4767,134,1	4777,118,1	4783,142,1	4791,159,1	4839,181,1	
85,8,1	193,18,1	194,139,1	195,163,1	251,183,1	413,187,1	659,180,1	671,113,1	749,194,1	807,199,1	1187,121,1	1195,62,1	1273,40,1	1299,54,1	1427,127,1	1497,133,1	1569,140,1	1571,173,1	1601,176,1	1619,170,1	1685,191,1	1927,49,1	2007,74,1	2031,84,1	2113,130,1	2155,116,1	2553,136,1	2771,166,1	
73,7,1	181,17,1	387,120,1	659,34,1	749,60,1	879,106,1	935,125,1	993,168,1	1181,59,1	1189,69,1	1239,198,1	1273,81,1	1479,122,1	1775,48,1	1985,52,1	7594,201,1	
61,6,1	169,16,1	427,38,1	533,56,1	571,80,1	613,76,1	719,117,1	923,30,1	995,124,1	1141,51,1	1187,63,1	1765,37,1	
49,5,1	157,15,1	219,29,1	319,55,1	489,99,1	555,50,1	617,61,1	847,73,1	1221,190,1	1323,83,1	1755,36,1	
37,4,1	145,14,1	519,39,1	581,45,1	583,26,1	1143,158,1	1749,31,1	1771,43,1	1991,68,1	
25,3,1	133,13,1	243,33,1	647,24,1	787,66,1	1059,42,1	1723,27,1	1865,141,1	3349,196,1	
13,2,1	121,12,1	261,35,1	545,25,1	917,41,1	1511,89,1	1691,22,1	1987,184,1	
0,0,1	1,11,1	2,1,1	207,21,1	295,23,1	505,32,1	903,28,1	1095,57,1	2049,67,1	3449,144,1	4699,178,1	
# Incoming
97,(0, 10),12	109,(3, 71),6	115,(3, 103),10	125,(3, 104),40	165,(2, 93),2	167,(3, 111),2	169,(5, 46),2	171,(6, 94),2	173,(2, 111),2	175,(2, 112),2	177,(5, 75),6	183,(5, 94),6	189,(5, 105),6	195,(6, 97),2	197,(6, 101),6	203,(6, 111),2	205,(0, 20),12	217,(2, 46),150	367,(2, 90),52	419,(3, 107),56	475,(3, 112),32	507,(3, 115),2	509,(3, 126),12	521,(3, 160),2	523,(3, 165),2	525,(4, 78),2	527,(4, 86),10	537,(4, 88),10	547,(4, 105),2	549,(4, 112),4	553,(4, 119),14	567,(4, 126),24	591,(4, 132),12	603,(4, 152),2	605,(4, 154),10	615,(4, 165),2	617,(4, 182),2	619,(6, 135),2	621,(6, 143),4	625,(6, 152),2	627,(2, 148),6	633,(2, 172),44	677,(4, 193),10	687,(6, 109),16	703,(6, 132),22	725,(7, 58),8	733,(2, 179),2	735,(3, 154),128	863,(4, 115),318	1181,(6, 193),16	1197,(11, 78),72	1269,(6, 153),52	1321,(7, 90),6	1327,(11, 98),16	1343,(11, 101),2	1345,(11, 103),2	1347,(11, 104),2	1349,(11, 107),10	1359,(5, 78),72	1431,(6, 162),48	1479,(11, 129),4	1483,(7, 46),26	1509,(7, 92),6	1515,(7, 103),2	1517,(7, 160),2	1519,(7, 165),2	1521,(11, 151),48	1569,(11, 155),2	1571,(11, 157),10	1581,(11, 165),26	1607,(7, 108),6	1613,(8, 46),2	1615,(8, 96),2	1617,(9, 111),2	1619,(11, 172),6	1625,(7, 75),16	1641,(7, 157),8	1649,(8, 65),6	1655,(8, 146),6	1661,(11, 189),2	1663,(8, 58),14	1677,(9, 126),2	1679,(9, 143),2	1681,(9, 162),2	1683,(13, 78),2	1685,(11, 193),2	1687,(4, 146),76	1763,(5, 152),80	1843,(8, 75),14	1857,(8, 98),22	1879,(8, 102),12	1891,(8, 110),10	1901,(8, 138),12	1913,(8, 160),12	1925,(9, 102),22	1947,(7, 153),24	1971,(9, 107),10	1981,(9, 186),4	1985,(12, 78),6	1991,(1, 71),2	1993,(12, 132),4	1997,(12, 154),8	2005,(13, 90),2	2007,(1, 82),4	2011,(13, 107),4	2015,(13, 186),2	2017,(15, 75),4	2021,(15, 111),2	2023,(15, 146),2	2025,(15, 189),2	2027,(16, 172),2	2029,(17, 87),2	2031,(1, 92),34	2065,(1, 95),12	2077,(1, 98),24	2101,(1, 104),44	2145,(1, 110),8	2153,(14, 109),2	2155,(14, 155),2	2157,(14, 197),2	2159,(16, 126),8	2167,(1, 132),20	2187,(5, 182),176	2363,(8, 86),118	2481,(8, 169),40	2521,(9, 65),56	2577,(1, 154),26	2603,(1, 157),96	2699,(1, 160),24	2723,(1, 162),40	2763,(16, 193),10	2773,(1, 179),20	2793,(1, 186),50	2843,(1, 193),504	3347,(18, 119),2	3349,(1, 197),14	3363,(2, 107),1722	5085,(6, 119),222	5307,(9, 87),58	5365,(12, 151),26	5391,(12, 160),22	5413,(12, 179),32	5445,(13, 182),18	5463,(13, 197),1328	6791,(14, 82),18	6809,(14, 146),18	6827,(15, 105),58	6885,(15, 109),136	7021,(15, 160),50	7071,(15, 169),16	7087,(15, 193),16	7103,(16, 153),20	7123,(16, 162),20	7143,(17, 86),4	7147,(17, 95),22	7169,(17, 105),4	7173,(17, 107),12	7185,(17, 108),4	7189,(17, 109),8	7197,(17, 110),28	7225,(17, 115),2	7227,(17, 135),2	7229,(17, 146),2	7231,(17, 152),2	7233,(17, 155),38	7271,(17, 157),14	7285,(18, 95),6	7291,(18, 143),34	7325,(18, 151),56	7381,(18, 160),2	7383,(18, 165),2	7385,(18, 179),4	7389,(19, 47),2	7391,(19, 65),4	7395,(19, 90),2	7397,(19, 93),6	7403,(19, 97),16	7419,(19, 126),36	7455,(19, 143),2	7457,(19, 148),4	7461,(19, 151),2	7463,(19, 153),14	7477,(19, 162),22	7499,(19, 175),84	7583,(19, 197),8	
85,(0, 9),12	97,(3, 44),2	99,(3, 118),2	101,(3, 147),6	107,(3, 195),2	109,(5, 53),2	121,(7, 70),2	123,(7, 91),4	127,(7, 118),2	129,(2, 53),36	165,(5, 131),2	167,(6, 64),4	171,(5, 171),4	175,(6, 72),16	191,(16, 145),2	193,(0, 19),12	207,(2, 131),2	209,(2, 181),2	211,(5, 91),16	227,(7, 150),8	235,(7, 177),2	237,(4, 192),14	251,(11, 44),872	1123,(2, 70),28	1151,(2, 142),24	1175,(2, 192),14	1189,(11, 77),8	1197,(2, 156),52	1249,(3, 85),18	1267,(3, 145),42	1309,(3, 150),4	1313,(3, 174),4	1317,(3, 181),10	1327,(3, 188),6	1333,(4, 72),184	1517,(4, 128),20	1537,(4, 131),28	1565,(4, 171),30	1595,(5, 185),4	1599,(5, 188),6	1605,(7, 181),2	1607,(11, 167),4	1611,(6, 167),10	1621,(8, 147),2	1623,(8, 185),2	1625,(11, 177),36	1661,(5, 85),50	1711,(5, 200),16	1727,(6, 85),20	1747,(6, 134),24	1771,(7, 77),64	1835,(7, 123),18	1853,(7, 147),94	1947,(8, 72),18	1965,(8, 114),6	1971,(7, 188),8	1979,(7, 192),20	1999,(7, 200),16	2015,(8, 149),4	2019,(8, 150),28	2047,(10, 79),2	2049,(10, 123),12	2061,(10, 145),28	2089,(10, 150),46	2135,(10, 161),4	2139,(12, 44),2	2141,(12, 53),2	2143,(12, 156),2	2145,(12, 195),10	2155,(1, 123),12	2167,(13, 77),8	2175,(13, 128),4	2179,(13, 142),2	2181,(13, 174),2	2183,(14, 70),2	2185,(18, 64),2	2187,(1, 134),360	2547,(14, 72),6	2553,(1, 147),24	2577,(10, 156),38	2615,(12, 134),152	2767,(14, 137),4	2771,(1, 177),2	2773,(13, 79),14	2787,(13, 137),32	2819,(14, 91),8	2827,(14, 100),30	2857,(14, 131),26	2883,(14, 149),4	2887,(14, 159),22	2909,(14, 171),6	2915,(15, 159),312	3227,(16, 64),22	3249,(16, 164),38	3287,(17, 64),104	3391,(17, 91),22	3413,(17, 161),34	3447,(18, 114),2	3449,(13, 171),1058	4507,(17, 192),10	4517,(18, 77),232	4749,(18, 134),18	4767,(18, 142),4	4771,(18, 159),4	4775,(20, 118),2	4777,(20, 142),6	4783,(20, 159),8	4791,(20, 181),48	
73,(0, 8),12	85,(3, 54),2	87,(5, 54),8	99,(5, 139),4	111,(4, 84),2	113,(6, 54),52	167,(15, 130),2	169,(7, 176),4	173,(16, 127),2	175,(15, 133),2	177,(2, 113),4	181,(0, 18),12	193,(16, 163),2	197,(4, 62),22	219,(4, 113),2	221,(6, 127),10	237,(7, 183),14	251,(4, 199),44	295,(5, 194),14	309,(17, 113),2	311,(17, 180),2	317,(3, 187),38	355,(3, 194),38	393,(16, 40),8	401,(16, 113),8	411,(9, 187),2	413,(19, 40),2	415,(19, 54),4	419,(2, 130),208	627,(5, 180),32	659,(9, 140),10	669,(10, 113),2	671,(10, 121),2	673,(10, 130),2	675,(10, 170),2	677,(2, 173),56	733,(20, 49),2	735,(2, 194),14	749,(2, 199),58	807,(5, 133),90	897,(6, 74),30	927,(6, 84),128	1055,(6, 191),52	1107,(10, 127),16	1123,(10, 173),4	1127,(20, 116),2	1129,(20, 121),2	1131,(11, 54),22	1153,(10, 191),24	1177,(13, 121),10	1187,(20, 127),2	1189,(12, 62),6	1195,(12, 140),2	1197,(13, 133),20	1217,(13, 191),8	1225,(17, 176),8	1233,(19, 130),8	1241,(19, 166),6	1247,(20, 136),2	1249,(12, 40),24	1273,(12, 54),26	1299,(12, 74),22	1321,(12, 84),30	1351,(12, 133),20	1371,(16, 166),30	1401,(17, 127),26	1483,(11, 133),14	1497,(11, 140),24	1521,(20, 140),48	1569,(20, 173),2	1571,(20, 176),30	1611,(11, 170),8	1663,(11, 191),22	1775,(1, 49),152	1993,(1, 74),14	2011,(1, 84),20	2049,(14, 130),64	2153,(1, 116),2	2547,(1, 136),6	2763,(1, 166),8	
61,(0, 7),12	73,(4, 48),8	81,(4, 52),10	95,(5, 125),4	107,(2, 52),22	139,(5, 81),16	160,(15, 52),2	169,(0, 17),12	181,(2, 60),6	187,(2, 125),20	207,(16, 52),4	211,(2, 198),2	213,(16, 60),8	221,(4, 120),16	237,(6, 60),132	369,(8, 59),12	381,(9, 34),2	383,(8, 69),2	385,(14, 120),2	393,(13, 48),12	405,(33, 201),2	447,(14, 106),50	497,(16, 59),18	515,(38, 201),2	521,(10, 106),2	523,(94, 201),2	525,(3, 198),118	643,(18, 34),10	653,(139, 201),2	655,(163, 201),2	657,(20, 34),2	659,(29, 201),2	661,(183, 201),2	663,(55, 201),2	665,(187, 201),2	667,(99, 201),2	669,(39, 201),2	671,(56, 201),2	673,(50, 201),2	675,(80, 201),2	677,(76, 201),2	679,(61, 201),2	687,(14, 122),38	725,(88, 201),2	727,(112, 201),2	729,(45, 201),2	731,(26, 201),2	733,(24, 201),2	735,(20, 60),14	749,(117, 201),2	775,(18, 69),24	847,(18, 106),32	879,(18, 125),56	935,(18, 168),58	993,(180, 201),2	995,(113, 201),2	997,(194, 201),2	999,(199, 201),2	1013,(73, 201),2	1015,(35, 201),2	1017,(25, 201),2	1019,(41, 201),2	1059,(20, 81),30	1107,(30, 201),2	1109,(124, 201),2	1123,(11, 52),8	1141,(66, 201),2	1143,(42, 201),2	1145,(51, 201),2	1153,(11, 59),28	1181,(158, 201),2	1187,(11, 69),2	1189,(18, 198),50	1239,(63, 201),2	1241,(121, 201),2	1243,(62, 201),2	1245,(190, 201),2	1269,(11, 81),4	1274,(40, 201),2	1300,(54, 201),2	1324,(83, 201),2	1359,(11, 122),120	1479,(127, 201),2	1498,(133, 201),2	1511,(101, 201),2	1513,(129, 201),2	1515,(89, 201),2	1518,(103, 201),2	1570,(140, 201),2	1572,(173, 201),2	1602,(176, 201),2	1616,(46, 201),2	1618,(96, 201),2	1622,(167, 201),2	1625,(170, 201),2	1627,(185, 201),2	1678,(58, 201),2	1686,(191, 201),2	1692,(22, 201),2	1724,(27, 201),2	1748,(85, 201),2	1756,(36, 201),2	1771,(1, 48),4	1866,(141, 201),2	1914,(138, 201),2	1927,(1, 52),58	1985,(49, 201),2	1987,(37, 201),2	1989,(102, 201),2	1991,(188, 201),2	1993,(78, 201),2	1995,(71, 201),2	2005,(184, 201),2	2008,(74, 201),2	2016,(200, 201),2	2022,(75, 201),2	2024,(111, 201),2	2028,(189, 201),2	2030,(172, 201),2	2047,(84, 201),2	2090,(145, 201),2	2113,(31, 201),2	2115,(43, 201),2	2117,(68, 201),2	2119,(130, 201),2	2136,(150, 201),2	2139,(92, 201),2	2141,(98, 201),2	2143,(44, 201),2	2145,(53, 201),2	2147,(104, 201),2	2156,(195, 201),2	2158,(116, 201),2	2168,(123, 201),2	2180,(128, 201),2	2184,(174, 201),2	2186,(70, 201),2	2188,(132, 201),2	2554,(136, 201),2	2577,(72, 201),2	2579,(147, 201),2	2615,(154, 201),2	2617,(156, 201),2	2772,(166, 201),2	2774,(177, 201),2	2788,(79, 201),2	2820,(137, 201),2	2844,(186, 201),2	2858,(100, 201),2	2884,(131, 201),2	2888,(149, 201),2	3288,(164, 201),2	3363,(21, 201),2	3365,(23, 201),2	3367,(32, 201),2	3369,(28, 201),2	3371,(57, 201),2	3373,(67, 201),2	3392,(64, 201),2	3414,(91, 201),2	3450,(144, 201),2	4507,(196, 201),2	4699,(161, 201),2	4701,(114, 201),2	4703,(171, 201),2	4705,(192, 201),2	4707,(178, 201),2	4750,(77, 201),2	4768,(134, 201),2	4778,(118, 201),2	4784,(142, 201),2	4792,(159, 201),2	4840,(181, 201),2	5308,(119, 201),2	5366,(87, 201),2	5464,(182, 201),2	6810,(82, 201),2	7088,(169, 201),2	7104,(193, 201),2	7148,(86, 201),2	7174,(105, 201),2	7186,(107, 201),2	7190,(108, 201),2	7198,(109, 201),2	7226,(110, 201),2	7228,(115, 201),2	7230,(135, 201),2	7232,(146, 201),2	7234,(152, 201),2	7272,(155, 201),2	7286,(157, 201),2	7292,(95, 201),2	7384,(160, 201),2	7386,(165, 201),2	7390,(179, 201),2	7392,(47, 201),2	7396,(65, 201),2	7398,(90, 201),2	7404,(93, 201),2	7420,(97, 201),2	7456,(126, 201),2	7458,(143, 201),2	7462,(148, 201),2	7464,(151, 201),2	7478,(153, 201),2	7500,(162, 201),2	7584,(175, 201),2	7592,(197, 201),2	
49,(0, 6),12	61,(4, 56),6	91,(2, 37),2	93,(7, 117),4	103,(4, 63),8	111,(5, 37),28	157,(0, 16),12	169,(3, 51),104	273,(3, 76),44	317,(5, 51),28	345,(7, 63),26	371,(17, 37),4	375,(17, 76),2	381,(8, 63),2	383,(9, 38),28	411,(13, 30),2	419,(10, 38),8	427,(14, 80),20	447,(17, 63),26	495,(19, 51),8	519,(15, 56),14	533,(15, 76),2	535,(15, 80),36	581,(19, 76),32	677,(20, 117),42	903,(12, 30),20	923,(12, 124),72	995,(13, 51),146	1181,(11, 63),6	1755,(1, 37),10	
37,(0, 5),12	49,(3, 36),20	81,(2, 29),2	83,(2, 36),8	91,(4, 50),6	97,(4, 61),6	113,(4, 99),8	145,(0, 15),12	167,(2, 99),6	173,(7, 50),40	213,(12, 55),2	217,(11, 29),2	231,(16, 61),2	285,(8, 50),4	295,(18, 50),2	297,(18, 55),18	317,(9, 55),2	319,(18, 190),8	369,(16, 190),6	385,(8, 99),104	545,(20, 50),10	583,(20, 61),34	643,(13, 36),8	799,(18, 73),48	995,(12, 190),20	1095,(19, 190),126	1273,(11, 83),50	1749,(1, 36),6	
25,(0, 4),12	37,(2, 26),44	81,(3, 43),4	87,(3, 158),4	93,(2, 43),2	95,(2, 45),12	107,(6, 43),4	111,(7, 39),6	117,(7, 45),4	133,(0, 14),12	158,(15, 45),2	219,(11, 31),10	315,(9, 39),2	331,(9, 158),38	381,(10, 31),38	419,(16, 43),46	465,(19, 26),12	477,(19, 43),18	505,(15, 39),14	519,(19, 45),62	581,(20, 26),2	671,(13, 158),30	897,(15, 68),116	1013,(18, 158),130	1723,(1, 31),26	1765,(1, 43),6	1985,(1, 68),6	
13,(0, 3),12	40,(4, 33),8	52,(5, 33),12	64,(5, 66),4	70,(6, 33),2	72,(6, 66),14	90,(6, 196),10	100,(7, 24),10	121,(0, 13),12	133,(7, 33),36	213,(17, 33),14	229,(11, 33),14	243,(11, 42),8	289,(8, 196),6	299,(9, 27),16	315,(10, 24),66	381,(16, 196),8	489,(8, 141),146	635,(10, 66),10	645,(20, 24),2	669,(19, 66),118	807,(12, 27),12	819,(17, 196),164	983,(20, 42),76	1687,(11, 196),2	1691,(1, 27),32	1723,(20, 141),142	3347,(1, 196),2	
1,(0, 2),12	28,(3, 35),2	48,(4, 89),2	74,(7, 22),14	88,(7, 41),2	109,(0, 12),12	121,(4, 41),76	197,(8, 35),64	261,(8, 41),24	285,(9, 22),14	309,(15, 41),6	369,(19, 22),6	427,(10, 41),94	525,(20, 25),20	571,(15, 89),6	651,(13, 89),20	671,(18, 22),104	775,(20, 41),142	1323,(11, 89),4	1327,(20, 89),184	1689,(1, 22),2	1771,(16, 184),216	
26,(3, 28),2	38,(4, 32),2	50,(5, 23),2	62,(6, 23),8	86,(6, 178),4	165,(13, 21),2	195,(15, 21),12	227,(5, 178),32	259,(15, 23),36	319,(9, 144),12	331,(18, 57),12	345,(15, 32),160	819,(12, 28),84	903,(19, 57),192	1763,(14, 67),286	2819,(13, 144),630	3449,(19, 178),1250	
# Outgoing
315,(10, 24),66	381,(10, 31),38	419,(10, 38),8	427,(10, 41),94	521,(10, 106),2	523,(94, 201),2	525,(20, 25),20	545,(20, 50),10	581,(20, 26),2	583,(20, 61),34	635,(10, 66),10	645,(20, 24),2	657,(20, 34),2	669,(10, 113),2	671,(10, 121),2	673,(10, 130),2	675,(10, 170),2	677,(20, 117),42	725,(88, 201),2	727,(112, 201),2	733,(20, 49),2	735,(20, 60),14	775,(20, 41),142	983,(20, 42),76	1059,(20, 81),30	1107,(10, 127),16	1123,(10, 173),4	1127,(20, 116),2	1129,(20, 121),2	1153,(10, 191),24	1187,(20, 127),2	1247,(20, 136),2	1327,(20, 89),184	1511,(101, 201),2	1513,(129, 201),2	1518,(103, 201),2	1521,(20, 140),48	1569,(20, 173),2	1571,(20, 176),30	1616,(46, 201),2	1618,(96, 201),2	1678,(58, 201),2	1723,(20, 141),142	1914,(138, 201),2	1989,(102, 201),2	1993,(78, 201),2	1995,(71, 201),2	2022,(75, 201),2	2024,(111, 201),2	2028,(189, 201),2	2030,(172, 201),2	2047,(10, 79),2	2049,(10, 123),12	2061,(10, 145),28	2089,(10, 150),46	2135,(10, 161),4	2139,(92, 201),2	2141,(98, 201),2	2147,(104, 201),2	2188,(132, 201),2	2577,(10, 156),38	2615,(154, 201),2	2844,(186, 201),2	4775,(20, 118),2	4777,(20, 142),6	4783,(20, 159),8	4791,(20, 181),48	5308,(119, 201),2	5366,(87, 201),2	5464,(182, 201),2	6810,(82, 201),2	7088,(169, 201),2	7104,(193, 201),2	7148,(86, 201),2	7174,(105, 201),2	7186,(107, 201),2	7190,(108, 201),2	7198,(109, 201),2	7226,(110, 201),2	7228,(115, 201),2	7230,(135, 201),2	7232,(146, 201),2	7234,(152, 201),2	7272,(155, 201),2	7286,(157, 201),2	7292,(95, 201),2	7384,(160, 201),2	7386,(165, 201),2	7390,(179, 201),2	7392,(47, 201),2	7396,(65, 201),2	7398,(90, 201),2	7404,(93, 201),2	7420,(97, 201),2	7456,(126, 201),2	7458,(143, 201),2	7462,(148, 201),2	7464,(151, 201),2	7478,(153, 201),2	7500,(162, 201),2	7584,(175, 201),2	7592,(197, 201),2	
285,(9, 22),14	299,(9, 27),16	315,(9, 39),2	317,(9, 55),2	319,(9, 144),12	331,(9, 158),38	369,(19, 22),6	381,(9, 34),2	383,(9, 38),28	411,(9, 187),2	413,(19, 40),2	415,(19, 54),4	465,(19, 26),12	477,(19, 43),18	495,(19, 51),8	519,(19, 45),62	581,(19, 76),32	659,(9, 140),10	669,(19, 66),118	903,(19, 57),192	1095,(19, 190),126	1233,(19, 130),8	1241,(19, 166),6	1617,(9, 111),2	1622,(167, 201),2	1627,(185, 201),2	1677,(9, 126),2	1679,(9, 143),2	1681,(9, 162),2	1748,(85, 201),2	1925,(9, 102),22	1971,(9, 107),10	1981,(9, 186),4	1991,(188, 201),2	2016,(200, 201),2	2090,(145, 201),2	2136,(150, 201),2	2143,(44, 201),2	2145,(53, 201),2	2156,(195, 201),2	2168,(123, 201),2	2180,(128, 201),2	2184,(174, 201),2	2186,(70, 201),2	2521,(9, 65),56	2577,(72, 201),2	2579,(147, 201),2	2617,(156, 201),2	2774,(177, 201),2	2788,(79, 201),2	2820,(137, 201),2	2858,(100, 201),2	2884,(131, 201),2	2888,(149, 201),2	3288,(164, 201),2	3392,(64, 201),2	3414,(91, 201),2	3449,(19, 178),1250	4699,(161, 201),2	4701,(114, 201),2	4703,(171, 201),2	4705,(192, 201),2	4750,(77, 201),2	4768,(134, 201),2	4778,(118, 201),2	4784,(142, 201),2	4792,(159, 201),2	4840,(181, 201),2	5307,(9, 87),58	7389,(19, 47),2	7391,(19, 65),4	7395,(19, 90),2	7397,(19, 93),6	7403,(19, 97),16	7419,(19, 126),36	7455,(19, 143),2	7457,(19, 148),4	7461,(19, 151),2	7463,(19, 153),14	7477,(19, 162),22	7499,(19, 175),84	7583,(19, 197),8	
197,(8, 35),64	261,(8, 41),24	285,(8, 50),4	289,(8, 196),6	295,(18, 50),2	297,(18, 55),18	319,(18, 190),8	331,(18, 57),12	369,(8, 59),12	381,(8, 63),2	383,(8, 69),2	385,(8, 99),104	489,(8, 141),146	643,(18, 34),10	653,(139, 201),2	655,(163, 201),2	661,(183, 201),2	665,(187, 201),2	671,(18, 22),104	775,(18, 69),24	799,(18, 73),48	847,(18, 106),32	879,(18, 125),56	935,(18, 168),58	993,(180, 201),2	995,(113, 201),2	997,(194, 201),2	999,(199, 201),2	1013,(18, 158),130	1189,(18, 198),50	1241,(121, 201),2	1243,(62, 201),2	1274,(40, 201),2	1300,(54, 201),2	1479,(127, 201),2	1498,(133, 201),2	1570,(140, 201),2	1572,(173, 201),2	1602,(176, 201),2	1613,(8, 46),2	1615,(8, 96),2	1621,(8, 147),2	1623,(8, 185),2	1625,(170, 201),2	1649,(8, 65),6	1655,(8, 146),6	1663,(8, 58),14	1686,(191, 201),2	1843,(8, 75),14	1857,(8, 98),22	1879,(8, 102),12	1891,(8, 110),10	1901,(8, 138),12	1913,(8, 160),12	1947,(8, 72),18	1965,(8, 114),6	1985,(49, 201),2	2008,(74, 201),2	2015,(8, 149),4	2019,(8, 150),28	2047,(84, 201),2	2119,(130, 201),2	2158,(116, 201),2	2185,(18, 64),2	2363,(8, 86),118	2481,(8, 169),40	2554,(136, 201),2	2772,(166, 201),2	3347,(18, 119),2	3447,(18, 114),2	4517,(18, 77),232	4749,(18, 134),18	4767,(18, 142),4	4771,(18, 159),4	7285,(18, 95),6	7291,(18, 143),34	7325,(18, 151),56	7381,(18, 160),2	7383,(18, 165),2	7385,(18, 179),4	
74,(7, 22),14	88,(7, 41),2	93,(7, 117),4	100,(7, 24),10	111,(7, 39),6	117,(7, 45),4	121,(7, 70),2	123,(7, 91),4	127,(7, 118),2	133,(7, 33),36	169,(7, 176),4	173,(7, 50),40	213,(17, 33),14	227,(7, 150),8	235,(7, 177),2	237,(7, 183),14	309,(17, 113),2	311,(17, 180),2	345,(7, 63),26	371,(17, 37),4	375,(17, 76),2	447,(17, 63),26	725,(7, 58),8	819,(17, 196),164	1225,(17, 176),8	1321,(7, 90),6	1401,(17, 127),26	1483,(7, 46),26	1509,(7, 92),6	1515,(7, 103),2	1517,(7, 160),2	1519,(7, 165),2	1605,(7, 181),2	1607,(7, 108),6	1625,(7, 75),16	1641,(7, 157),8	1771,(7, 77),64	1835,(7, 123),18	1853,(7, 147),94	1947,(7, 153),24	1971,(7, 188),8	1979,(7, 192),20	1999,(7, 200),16	2029,(17, 87),2	3287,(17, 64),104	3391,(17, 91),22	3413,(17, 161),34	4507,(17, 192),10	7143,(17, 86),4	7147,(17, 95),22	7169,(17, 105),4	7173,(17, 107),12	7185,(17, 108),4	7189,(17, 109),8	7197,(17, 110),28	7225,(17, 115),2	7227,(17, 135),2	7229,(17, 146),2	7231,(17, 152),2	7233,(17, 155),38	7271,(17, 157),14	
62,(6, 23),8	70,(6, 33),2	72,(6, 66),14	86,(6, 178),4	90,(6, 196),10	107,(6, 43),4	113,(6, 54),52	167,(6, 64),4	171,(6, 94),2	173,(16, 127),2	175,(6, 72),16	191,(16, 145),2	193,(16, 163),2	195,(6, 97),2	197,(6, 101),6	203,(6, 111),2	207,(16, 52),4	213,(16, 60),8	221,(6, 127),10	231,(16, 61),2	237,(6, 60),132	369,(16, 190),6	381,(16, 196),8	393,(16, 40),8	401,(16, 113),8	419,(16, 43),46	497,(16, 59),18	515,(38, 201),2	619,(6, 135),2	621,(6, 143),4	625,(6, 152),2	671,(56, 201),2	675,(80, 201),2	677,(76, 201),2	687,(6, 109),16	703,(6, 132),22	749,(117, 201),2	897,(6, 74),30	927,(6, 84),128	1055,(6, 191),52	1107,(30, 201),2	1109,(124, 201),2	1145,(51, 201),2	1181,(6, 193),16	1239,(63, 201),2	1269,(6, 153),52	1371,(16, 166),30	1431,(6, 162),48	1611,(6, 167),10	1727,(6, 85),20	1747,(6, 134),24	1771,(16, 184),216	1987,(37, 201),2	2027,(16, 172),2	2159,(16, 126),8	2763,(16, 193),10	3227,(16, 64),22	3249,(16, 164),38	5085,(6, 119),222	7103,(16, 153),20	7123,(16, 162),20	
50,(5, 23),2	52,(5, 33),12	64,(5, 66),4	87,(5, 54),8	95,(5, 125),4	99,(5, 139),4	109,(5, 53),2	111,(5, 37),28	139,(5, 81),16	158,(15, 45),2	160,(15, 52),2	165,(5, 131),2	167,(15, 130),2	169,(5, 46),2	171,(5, 171),4	175,(15, 133),2	177,(5, 75),6	183,(5, 94),6	189,(5, 105),6	195,(15, 21),12	211,(5, 91),16	227,(5, 178),32	259,(15, 23),36	295,(5, 194),14	309,(15, 41),6	317,(5, 51),28	345,(15, 32),160	505,(15, 39),14	519,(15, 56),14	533,(15, 76),2	535,(15, 80),36	571,(15, 89),6	627,(5, 180),32	659,(29, 201),2	663,(55, 201),2	667,(99, 201),2	673,(50, 201),2	679,(61, 201),2	807,(5, 133),90	897,(15, 68),116	1013,(73, 201),2	1245,(190, 201),2	1324,(83, 201),2	1359,(5, 78),72	1595,(5, 185),4	1599,(5, 188),6	1661,(5, 85),50	1711,(5, 200),16	1756,(36, 201),2	1763,(5, 152),80	2017,(15, 75),4	2021,(15, 111),2	2023,(15, 146),2	2025,(15, 189),2	2187,(5, 182),176	2915,(15, 159),312	6827,(15, 105),58	6885,(15, 109),136	7021,(15, 160),50	7071,(15, 169),16	7087,(15, 193),16	
38,(4, 32),2	40,(4, 33),8	48,(4, 89),2	61,(4, 56),6	73,(4, 48),8	81,(4, 52),10	91,(4, 50),6	97,(4, 61),6	103,(4, 63),8	111,(4, 84),2	113,(4, 99),8	121,(4, 41),76	197,(4, 62),22	219,(4, 113),2	221,(4, 120),16	237,(4, 192),14	251,(4, 199),44	385,(14, 120),2	427,(14, 80),20	447,(14, 106),50	525,(4, 78),2	527,(4, 86),10	537,(4, 88),10	547,(4, 105),2	549,(4, 112),4	553,(4, 119),14	567,(4, 126),24	591,(4, 132),12	603,(4, 152),2	605,(4, 154),10	615,(4, 165),2	617,(4, 182),2	669,(39, 201),2	677,(4, 193),10	687,(14, 122),38	729,(45, 201),2	731,(26, 201),2	863,(4, 115),318	1181,(158, 201),2	1333,(4, 72),184	1517,(4, 128),20	1537,(4, 131),28	1565,(4, 171),30	1687,(4, 146),76	1763,(14, 67),286	2049,(14, 130),64	2113,(31, 201),2	2115,(43, 201),2	2117,(68, 201),2	2153,(14, 109),2	2155,(14, 155),2	2157,(14, 197),2	2183,(14, 70),2	2547,(14, 72),6	2767,(14, 137),4	2819,(14, 91),8	2827,(14, 100),30	2857,(14, 131),26	2883,(14, 149),4	2887,(14, 159),22	2909,(14, 171),6	6791,(14, 82),18	6809,(14, 146),18	
26,(3, 28),2	28,(3, 35),2	49,(3, 36),20	81,(3, 43),4	85,(3, 54),2	87,(3, 158),4	97,(3, 44),2	99,(3, 118),2	101,(3, 147),6	107,(3, 195),2	109,(3, 71),6	115,(3, 103),10	125,(3, 104),40	165,(13, 21),2	167,(3, 111),2	169,(3, 51),104	273,(3, 76),44	317,(3, 187),38	355,(3, 194),38	393,(13, 48),12	405,(33, 201),2	411,(13, 30),2	419,(3, 107),56	475,(3, 112),32	507,(3, 115),2	509,(3, 126),12	521,(3, 160),2	523,(3, 165),2	525,(3, 198),118	643,(13, 36),8	651,(13, 89),20	671,(13, 158),30	733,(24, 201),2	735,(3, 154),128	995,(13, 51),146	1141,(66, 201),2	1143,(42, 201),2	1177,(13, 121),10	1197,(13, 133),20	1217,(13, 191),8	1249,(3, 85),18	1267,(3, 145),42	1309,(3, 150),4	1313,(3, 174),4	1317,(3, 181),10	1327,(3, 188),6	1683,(13, 78),2	1724,(27, 201),2	1866,(141, 201),2	2005,(13, 90),2	2011,(13, 107),4	2015,(13, 186),2	2167,(13, 77),8	2175,(13, 128),4	2179,(13, 142),2	2181,(13, 174),2	2773,(13, 79),14	2787,(13, 137),32	2819,(13, 144),630	3449,(13, 171),1058	4507,(196, 201),2	5445,(13, 182),18	5463,(13, 197),1328	
37,(2, 26),44	81,(2, 29),2	83,(2, 36),8	91,(2, 37),2	93,(2, 43),2	95,(2, 45),12	107,(2, 52),22	129,(2, 53),36	165,(2, 93),2	167,(2, 99),6	173,(2, 111),2	175,(2, 112),2	177,(2, 113),4	181,(2, 60),6	187,(2, 125),20	207,(2, 131),2	209,(2, 181),2	211,(2, 198),2	213,(12, 55),2	217,(2, 46),150	367,(2, 90),52	419,(2, 130),208	627,(2, 148),6	633,(2, 172),44	677,(2, 173),56	733,(2, 179),2	735,(2, 194),14	749,(2, 199),58	807,(12, 27),12	819,(12, 28),84	903,(12, 30),20	923,(12, 124),72	995,(12, 190),20	1015,(35, 201),2	1017,(25, 201),2	1019,(41, 201),2	1123,(2, 70),28	1151,(2, 142),24	1175,(2, 192),14	1189,(12, 62),6	1195,(12, 140),2	1197,(2, 156),52	1249,(12, 40),24	1273,(12, 54),26	1299,(12, 74),22	1321,(12, 84),30	1351,(12, 133),20	1515,(89, 201),2	1692,(22, 201),2	1985,(12, 78),6	1993,(12, 132),4	1997,(12, 154),8	2005,(184, 201),2	2139,(12, 44),2	2141,(12, 53),2	2143,(12, 156),2	2145,(12, 195),10	2615,(12, 134),152	3363,(2, 107),1722	5365,(12, 151),26	5391,(12, 160),22	5413,(12, 179),32	
1,(0, 2),12	13,(0, 3),12	25,(0, 4),12	37,(0, 5),12	49,(0, 6),12	61,(0, 7),12	73,(0, 8),12	85,(0, 9),12	97,(0, 10),12	109,(0, 12),12	121,(0, 13),12	133,(0, 14),12	145,(0, 15),12	157,(0, 16),12	169,(0, 17),12	181,(0, 18),12	193,(0, 19),12	205,(0, 20),12	217,(11, 29),2	219,(11, 31),10	229,(11, 33),14	243,(11, 42),8	251,(11, 44),872	1123,(11, 52),8	1131,(11, 54),22	1153,(11, 59),28	1181,(11, 63),6	1187,(11, 69),2	1189,(11, 77),8	1197,(11, 78),72	1269,(11, 81),4	1273,(11, 83),50	1323,(11, 89),4	1327,(11, 98),16	1343,(11, 101),2	1345,(11, 103),2	1347,(11, 104),2	1349,(11, 107),10	1359,(11, 122),120	1479,(11, 129),4	1483,(11, 133),14	1497,(11, 140),24	1521,(11, 151),48	1569,(11, 155),2	1571,(11, 157),10	1581,(11, 165),26	1607,(11, 167),4	1611,(11, 170),8	1619,(11, 172),6	1625,(11, 177),36	1661,(11, 189),2	1663,(11, 191),22	1685,(11, 193),2	1687,(11, 196),2	1689,(1, 22),2	1691,(1, 27),32	1723,(1, 31),26	1749,(1, 36),6	1755,(1, 37),10	1765,(1, 43),6	1771,(1, 48),4	1775,(1, 49),152	1927,(1, 52),58	1985,(1, 68),6	1991,(1, 71),2	1993,(1, 74),14	2007,(1, 82),4	2011,(1, 84),20	2031,(1, 92),34	2065,(1, 95),12	2077,(1, 98),24	2101,(1, 104),44	2145,(1, 110),8	2153,(1, 116),2	2155,(1, 123),12	2167,(1, 132),20	2187,(1, 134),360	2547,(1, 136),6	2553,(1, 147),24	2577,(1, 154),26	2603,(1, 157),96	2699,(1, 160),24	2723,(1, 162),40	2763,(1, 166),8	2771,(1, 177),2	2773,(1, 179),20	2793,(1, 186),50	2843,(1, 193),504	3347,(1, 196),2	3349,(1, 197),14	3363,(21, 201),2	3365,(23, 201),2	3367,(32, 201),2	3369,(28, 201),2	3371,(57, 201),2	3373,(67, 201),2	3450,(144, 201),2	4707,(178, 201),2	
