1187
# CPU
52,3,13	65,5,13	78,18,13	91,27,13	104,38,13	117,37,13	130,35,13	143,9,13	156,36,13	169,30,13	182,8,13	195,14,13	208,23,13	
0,0,1	1,2,13	14,1,13	27,22,13	40,39,13	53,13,13	66,25,13	79,40,13	92,29,13	105,19,13	118,28,13	131,32,13	144,16,13	157,10,13	
103,4,13	116,6,13	129,15,13	142,7,13	155,21,13	168,24,13	181,17,13	194,20,13	259,31,13	724,33,13	748,34,13	761,11,13	774,12,13	787,26,13	1186,41,1	
# Incoming
1,(0, 3),51	103,(2, 8),15	118,(2, 14),9	127,(2, 23),15	

52,(0, 4),51	103,(3, 12),21	124,(3, 26),3	142,(2, 31),117	259,(2, 33),465	724,(2, 34),24	748,(1, 11),9	757,(1, 12),12	769,(1, 26),3	772,(22, 41),18	790,(39, 41),18	808,(13, 41),18	826,(5, 41),18	844,(25, 41),18	862,(18, 41),18	880,(40, 41),18	898,(27, 41),18	916,(29, 41),18	934,(38, 41),18	952,(19, 41),18	970,(37, 41),18	988,(28, 41),18	1006,(35, 41),18	1024,(32, 41),18	1042,(9, 41),18	1060,(16, 41),18	1078,(36, 41),18	1096,(10, 41),18	1114,(30, 41),18	1132,(8, 41),18	1150,(14, 41),18	1168,(23, 41),18	
# Outgoing
103,(3, 12),21	124,(3, 26),3	826,(5, 41),18	862,(18, 41),18	898,(27, 41),18	934,(38, 41),18	970,(37, 41),18	1006,(35, 41),18	1042,(9, 41),18	1078,(36, 41),18	1114,(30, 41),18	1132,(8, 41),18	1150,(14, 41),18	1168,(23, 41),18	
1,(0, 3),51	52,(0, 4),51	103,(2, 8),15	118,(2, 14),9	127,(2, 23),15	142,(2, 31),117	259,(2, 33),465	724,(2, 34),24	748,(1, 11),9	757,(1, 12),12	769,(1, 26),3	772,(22, 41),18	790,(39, 41),18	808,(13, 41),18	844,(25, 41),18	880,(40, 41),18	916,(29, 41),18	952,(19, 41),18	988,(28, 41),18	1024,(32, 41),18	1060,(16, 41),18	1096,(10, 41),18	

