3212
# CPU
49,2,6	55,74,6	61,82,6	67,98,6	97,4,6	103,60,6	109,110,6	145,6,6	151,18,6	157,50,6	163,56,6	169,62,6	193,8,6	199,88,6	241,10,6	247,26,6	253,68,6	259,70,6	265,78,6	271,120,6	289,12,6	295,36,6	301,40,6	307,90,6	313,106,6	319,112,6	328,32,6	757,92,6	763,22,6	769,46,6	775,54,6	874,66,6	880,94,6	928,108,6	955,116,6	1066,118,6	1099,14,6	1156,30,6	1162,38,6	1168,42,6	1174,48,6	1270,64,6	1285,102,6	1291,114,6	1297,24,6	1360,52,6	1366,72,6	1372,76,6	1390,86,6	1411,16,6	1438,20,6	1444,28,6	1456,34,6	1510,44,6	1516,58,6	1555,80,6	1609,84,6	1615,96,6	1621,100,6	1627,104,6	
0,0,1	1,5,6	7,3,6	13,9,6	19,7,6	25,11,6	31,1,6	37,57,6	43,39,6	49,25,6	55,43,6	61,113,6	67,55,6	73,91,6	79,41,6	85,103,6	91,33,6	97,13,6	103,47,6	109,49,6	115,29,6	121,105,6	127,21,6	133,107,6	139,97,6	145,63,6	151,45,6	157,17,6	163,27,6	169,51,6	175,65,6	181,77,6	187,95,6	193,115,6	262,15,6	268,19,6	328,67,6	472,79,6	478,81,6	484,87,6	550,23,6	565,31,6	880,35,6	988,69,6	1108,89,6	1114,93,6	1153,101,6	1159,109,6	1492,37,6	1513,53,6	1519,59,6	1525,61,6	1534,75,6	1618,111,6	1720,117,6	1762,119,6	1957,71,6	1990,73,6	2005,83,6	2011,85,6	2041,99,6	3211,121,1	
# Incoming
1,(0, 2),48	49,(0, 4),48	97,(0, 6),48	145,(0, 8),48	193,(0, 10),48	241,(0, 12),48	289,(5, 32),39	328,(5, 42),423	751,(5, 92),6	757,(3, 22),3	760,(3, 46),3	763,(3, 54),6	769,(3, 66),105	874,(3, 94),3	877,(3, 108),51	928,(3, 116),27	955,(3, 118),111	1066,(9, 14),33	1099,(9, 30),57	1156,(9, 38),3	1159,(9, 42),6	1165,(9, 48),3	1168,(9, 64),102	1270,(9, 102),15	1285,(9, 114),3	1288,(7, 24),3	1291,(7, 52),69	1360,(7, 72),3	1363,(7, 76),3	1366,(7, 84),6	1372,(7, 86),18	1390,(7, 100),18	1408,(11, 16),3	1411,(11, 20),27	1438,(11, 28),3	1441,(11, 34),15	1456,(11, 44),54	1510,(11, 58),6	1516,(11, 80),39	1555,(11, 84),54	1609,(1, 96),3	1612,(1, 100),3	1615,(1, 104),6	
55,(2, 17),3	58,(2, 27),9	67,(2, 51),9	76,(2, 65),12	88,(2, 77),3	91,(2, 95),15	106,(2, 115),12	118,(2, 117),45	163,(74, 121),30	193,(82, 121),30	223,(98, 121),30	253,(4, 15),9	262,(4, 19),3	265,(4, 67),63	328,(4, 79),144	472,(4, 81),3	475,(4, 87),3	478,(60, 121),30	508,(110, 121),30	538,(6, 23),12	550,(6, 31),15	565,(6, 35),315	880,(6, 69),108	988,(6, 85),9	997,(6, 89),111	1108,(6, 93),3	1111,(6, 101),42	1153,(6, 109),3	1156,(18, 121),30	1186,(50, 121),30	1216,(56, 121),30	1246,(62, 121),30	1276,(8, 37),216	1492,(8, 53),21	1513,(8, 59),3	1516,(8, 61),6	1522,(8, 75),12	1534,(88, 121),30	1564,(10, 71),48	1612,(10, 111),6	1618,(10, 117),102	1720,(10, 119),42	1762,(26, 121),30	1792,(68, 121),30	1822,(70, 121),30	1852,(78, 121),30	1882,(120, 121),30	1912,(12, 71),45	1957,(12, 73),33	1990,(12, 83),15	2005,(12, 85),3	2008,(12, 99),33	2041,(36, 121),30	2071,(40, 121),30	2101,(90, 121),30	2131,(106, 121),30	2161,(112, 121),30	2191,(32, 121),30	2221,(92, 121),30	2251,(22, 121),30	2281,(46, 121),30	2311,(54, 121),30	2341,(66, 121),30	2371,(94, 121),30	2401,(108, 121),30	2431,(116, 121),30	2461,(118, 121),30	2491,(14, 121),30	2521,(30, 121),30	2551,(38, 121),30	2581,(42, 121),30	2611,(48, 121),30	2641,(64, 121),30	2671,(102, 121),30	2701,(114, 121),30	2731,(24, 121),30	2761,(52, 121),30	2791,(72, 121),30	2821,(76, 121),30	2851,(86, 121),30	2881,(16, 121),30	2911,(20, 121),30	2941,(28, 121),30	2971,(34, 121),30	3001,(44, 121),30	3031,(58, 121),30	3061,(80, 121),30	3091,(84, 121),30	3121,(96, 121),30	3151,(100, 121),30	3181,(104, 121),30	
# Outgoing
55,(2, 17),3	58,(2, 27),9	67,(2, 51),9	76,(2, 65),12	88,(2, 77),3	91,(2, 95),15	106,(2, 115),12	118,(2, 117),45	163,(74, 121),30	193,(82, 121),30	223,(98, 121),30	253,(4, 15),9	262,(4, 19),3	265,(4, 67),63	328,(4, 79),144	472,(4, 81),3	475,(4, 87),3	478,(60, 121),30	508,(110, 121),30	538,(6, 23),12	550,(6, 31),15	565,(6, 35),315	880,(6, 69),108	988,(6, 85),9	997,(6, 89),111	1108,(6, 93),3	1111,(6, 101),42	1153,(6, 109),3	1156,(18, 121),30	1186,(50, 121),30	1216,(56, 121),30	1246,(62, 121),30	1276,(8, 37),216	1492,(8, 53),21	1513,(8, 59),3	1516,(8, 61),6	1522,(8, 75),12	1534,(88, 121),30	1564,(10, 71),48	1612,(10, 111),6	1618,(10, 117),102	1720,(10, 119),42	1762,(26, 121),30	1792,(68, 121),30	1822,(70, 121),30	1852,(78, 121),30	1882,(120, 121),30	1912,(12, 71),45	1957,(12, 73),33	1990,(12, 83),15	2005,(12, 85),3	2008,(12, 99),33	2041,(36, 121),30	2071,(40, 121),30	2101,(90, 121),30	2131,(106, 121),30	2161,(112, 121),30	2191,(32, 121),30	2221,(92, 121),30	2251,(22, 121),30	2281,(46, 121),30	2311,(54, 121),30	2341,(66, 121),30	2371,(94, 121),30	2401,(108, 121),30	2431,(116, 121),30	2461,(118, 121),30	2491,(14, 121),30	2521,(30, 121),30	2551,(38, 121),30	2581,(42, 121),30	2611,(48, 121),30	2641,(64, 121),30	2671,(102, 121),30	2701,(114, 121),30	2731,(24, 121),30	2761,(52, 121),30	2791,(72, 121),30	2821,(76, 121),30	2851,(86, 121),30	2881,(16, 121),30	2911,(20, 121),30	2941,(28, 121),30	2971,(34, 121),30	3001,(44, 121),30	3031,(58, 121),30	3061,(80, 121),30	3091,(84, 121),30	3121,(96, 121),30	3151,(100, 121),30	3181,(104, 121),30	
1,(0, 2),48	49,(0, 4),48	97,(0, 6),48	145,(0, 8),48	193,(0, 10),48	241,(0, 12),48	289,(5, 32),39	328,(5, 42),423	751,(5, 92),6	757,(3, 22),3	760,(3, 46),3	763,(3, 54),6	769,(3, 66),105	874,(3, 94),3	877,(3, 108),51	928,(3, 116),27	955,(3, 118),111	1066,(9, 14),33	1099,(9, 30),57	1156,(9, 38),3	1159,(9, 42),6	1165,(9, 48),3	1168,(9, 64),102	1270,(9, 102),15	1285,(9, 114),3	1288,(7, 24),3	1291,(7, 52),69	1360,(7, 72),3	1363,(7, 76),3	1366,(7, 84),6	1372,(7, 86),18	1390,(7, 100),18	1408,(11, 16),3	1411,(11, 20),27	1438,(11, 28),3	1441,(11, 34),15	1456,(11, 44),54	1510,(11, 58),6	1516,(11, 80),39	1555,(11, 84),54	1609,(1, 96),3	1612,(1, 100),3	1615,(1, 104),6	
