922
# CPU
241,14,3	253,16,3	269,17,3	273,18,3	289,19,3	297,20,3	301,9,3	
196,7,3	305,12,3	341,13,3	
181,2,3	184,10,3	187,4,3	193,5,3	237,11,3	921,21,1	
0,0,1	1,1,3	4,6,3	192,3,3	296,8,3	489,15,3	
# Incoming
237,(1, 14),4	241,(1, 16),12	253,(1, 17),16	269,(1, 18),4	273,(1, 19),16	289,(1, 20),8	297,(2, 9),4	
192,(2, 7),4	301,(2, 12),4	305,(2, 13),36	
1,(0, 2),180	181,(1, 4),4	185,(1, 5),8	193,(1, 11),44	237,(7, 21),48	297,(6, 21),48	345,(3, 21),48	393,(14, 21),48	441,(16, 21),48	489,(17, 21),48	537,(18, 21),48	585,(19, 21),48	633,(8, 21),48	681,(20, 21),48	729,(9, 21),48	777,(12, 21),48	825,(13, 21),48	873,(15, 21),48	
184,(2, 3),8	196,(2, 8),100	341,(2, 15),148	
# Outgoing
393,(14, 21),48	441,(16, 21),48	489,(17, 21),48	537,(18, 21),48	585,(19, 21),48	681,(20, 21),48	729,(9, 21),48	
237,(7, 21),48	777,(12, 21),48	825,(13, 21),48	
184,(2, 3),8	192,(2, 7),4	196,(2, 8),100	297,(2, 9),4	301,(2, 12),4	305,(2, 13),36	341,(2, 15),148	
1,(0, 2),180	181,(1, 4),4	185,(1, 5),8	193,(1, 11),44	237,(1, 14),4	241,(1, 16),12	253,(1, 17),16	269,(1, 18),4	273,(1, 19),16	289,(1, 20),8	297,(6, 21),48	345,(3, 21),48	633,(8, 21),48	873,(15, 21),48	
