49
# CPU
0,0,1	1,3,1	2,26,1	3,14,1	4,19,1	5,12,1	6,24,1	7,40,1	8,34,1	9,32,1	10,18,1	11,1,1	12,11,1	13,6,1	14,37,1	15,7,1	16,39,1	17,36,1	18,31,1	19,13,1	20,16,1	23,10,1	28,38,1	36,33,1	47,15,1	48,41,1	
3,35,1	9,2,1	10,5,1	11,22,1	12,23,1	13,21,1	14,9,1	15,4,1	16,27,1	17,29,1	18,17,1	19,30,1	20,20,1	21,25,1	22,8,1	23,28,1	



# Incoming
4,(35, 41),1	11,(5, 41),1	12,(22, 41),1	13,(23, 41),1	14,(21, 41),1	15,(9, 41),1	16,(4, 38),1	17,(27, 41),1	18,(29, 41),1	19,(17, 41),1	20,(30, 41),1	21,(2, 10),2	23,(20, 41),1	24,(2, 38),4	28,(25, 41),1	29,(4, 33),7	36,(8, 41),1	37,(4, 15),10	47,(28, 41),1	
2,(3, 35),1	3,(0, 2),6	9,(0, 4),6	



# Outgoing
2,(3, 35),1	3,(0, 2),6	9,(0, 4),6	
4,(35, 41),1	11,(5, 41),1	12,(22, 41),1	13,(23, 41),1	14,(21, 41),1	15,(9, 41),1	16,(4, 38),1	17,(27, 41),1	18,(29, 41),1	19,(17, 41),1	20,(30, 41),1	21,(2, 10),2	23,(20, 41),1	24,(2, 38),4	28,(25, 41),1	29,(4, 33),7	36,(8, 41),1	37,(4, 15),10	47,(28, 41),1	



