8358
# CPU
7927,28,9	7941,35,9	8309,22,9	
7919,21,9	7928,36,9	7937,30,9	
7911,17,9	8319,27,9	8335,34,9	8344,39,9	
7917,26,9	7926,16,9	7945,33,9	7969,40,9	
7899,13,9	7923,32,9	7939,25,9	7953,38,9	
7925,23,9	7934,12,9	7943,31,9	7952,37,9	
7897,4,9	7915,9,9	8005,29,9	8357,41,1	
5265,3,9	5274,24,9	7908,7,9	7953,15,9	
2633,2,9	2642,11,9	5278,6,9	5654,19,9	7997,18,9	
0,0,1	1,1,9	10,5,9	5296,8,9	5406,10,9	5554,14,9	8303,20,9	
# Incoming
7921,(2, 28),2	7923,(3, 28),4	7939,(3, 35),2	8303,(4, 22),6	
7909,(1, 21),10	7923,(4, 36),2	7931,(1, 30),4	
7901,(1, 17),8	7909,(4, 17),2	7917,(2, 27),4	7945,(2, 39),2	8309,(4, 27),10	8319,(4, 34),16	8335,(4, 39),2	
7905,(2, 26),12	7917,(3, 16),2	7923,(2, 33),22	7947,(2, 40),22	
7897,(1, 13),2	7911,(4, 25),10	7921,(4, 32),2	7925,(1, 25),6	7931,(3, 25),8	7941,(3, 38),12	
7919,(1, 23),6	7925,(4, 12),2	7927,(3, 31),4	7935,(1, 37),6	
5265,(0, 4),2632	7897,(2, 9),8	7905,(3, 9),10	7915,(13, 41),4	7919,(24, 41),4	7923,(17, 41),4	7927,(26, 41),4	7931,(21, 41),4	7935,(32, 41),4	7941,(5, 41),4	7945,(8, 41),4	7949,(10, 41),4	7953,(14, 41),4	7957,(7, 41),4	7961,(23, 41),4	7965,(16, 41),4	7969,(11, 41),4	7973,(3, 29),32	8005,(6, 41),4	8009,(19, 41),4	8013,(28, 41),4	8017,(36, 41),4	8021,(12, 41),4	8025,(30, 41),4	8029,(25, 41),4	8033,(35, 41),4	8037,(31, 41),4	8041,(33, 41),4	8045,(37, 41),4	8049,(15, 41),4	8053,(38, 41),4	8057,(40, 41),4	8061,(18, 41),4	8312,(20, 41),4	8318,(22, 41),4	8328,(27, 41),4	8344,(34, 41),4	8353,(39, 41),4	
2633,(0, 3),2632	7899,(1, 15),2	7906,(4, 7),2	7927,(4, 15),26	
1,(0, 2),2632	5274,(3, 6),4	5554,(3, 19),100	7953,(4, 18),44	
5278,(3, 8),18	5296,(3, 10),110	5406,(3, 14),148	7997,(4, 20),306	
# Outgoing
8013,(28, 41),4	8033,(35, 41),4	8318,(22, 41),4	
7931,(21, 41),4	8017,(36, 41),4	8025,(30, 41),4	
7923,(17, 41),4	8328,(27, 41),4	8344,(34, 41),4	8353,(39, 41),4	
7927,(26, 41),4	7965,(16, 41),4	8041,(33, 41),4	8057,(40, 41),4	
7915,(13, 41),4	7935,(32, 41),4	8029,(25, 41),4	8053,(38, 41),4	
7961,(23, 41),4	8021,(12, 41),4	8037,(31, 41),4	8045,(37, 41),4	
7906,(4, 7),2	7909,(4, 17),2	7911,(4, 25),10	7921,(4, 32),2	7923,(4, 36),2	7925,(4, 12),2	7927,(4, 15),26	7953,(4, 18),44	7997,(4, 20),306	8303,(4, 22),6	8309,(4, 27),10	8319,(4, 34),16	8335,(4, 39),2	
5274,(3, 6),4	5278,(3, 8),18	5296,(3, 10),110	5406,(3, 14),148	5554,(3, 19),100	7905,(3, 9),10	7917,(3, 16),2	7919,(24, 41),4	7923,(3, 28),4	7927,(3, 31),4	7931,(3, 25),8	7939,(3, 35),2	7941,(3, 38),12	7957,(7, 41),4	7973,(3, 29),32	8049,(15, 41),4	
7897,(2, 9),8	7905,(2, 26),12	7917,(2, 27),4	7921,(2, 28),2	7923,(2, 33),22	7945,(2, 39),2	7947,(2, 40),22	7969,(11, 41),4	8005,(6, 41),4	8009,(19, 41),4	8061,(18, 41),4	
1,(0, 2),2632	2633,(0, 3),2632	5265,(0, 4),2632	7897,(1, 13),2	7899,(1, 15),2	7901,(1, 17),8	7909,(1, 21),10	7919,(1, 23),6	7925,(1, 25),6	7931,(1, 30),4	7935,(1, 37),6	7941,(5, 41),4	7945,(8, 41),4	7949,(10, 41),4	7953,(14, 41),4	8312,(20, 41),4	
