410
# CPU
0,0,1	1,11,6	7,27,6	13,117,6	19,14,6	25,101,6	31,7,6	37,29,6	43,120,6	49,85,6	55,34,6	61,31,6	67,96,6	73,9,6	79,72,6	85,111,6	91,63,6	97,39,6	103,73,6	109,87,6	115,80,6	121,4,6	127,45,6	133,21,6	139,89,6	145,68,6	151,62,6	157,70,6	163,2,6	169,104,6	175,75,6	181,98,6	187,54,6	193,59,6	199,97,6	205,99,6	211,107,6	217,46,6	223,90,6	229,49,6	235,6,6	241,92,6	247,28,6	253,64,6	259,67,6	265,69,6	271,76,6	277,5,6	283,78,6	289,22,6	295,74,6	301,116,6	307,65,6	313,109,6	319,77,6	325,50,6	331,95,6	337,48,6	343,51,6	349,60,6	355,114,6	361,83,6	367,36,6	373,26,6	403,30,6	409,121,1	
25,10,6	31,20,6	37,105,6	43,119,6	49,33,6	55,55,6	61,23,6	67,118,6	81,13,6	109,1,6	115,32,6	121,115,6	127,53,6	133,15,6	139,43,6	151,37,6	173,18,6	181,94,6	195,66,6	219,8,6	225,58,6	231,56,6	237,79,6	243,24,6	249,17,6	255,100,6	261,57,6	281,12,6	287,44,6	293,42,6	299,91,6	305,47,6	311,41,6	317,108,6	325,38,6	
39,16,6	45,40,6	61,61,6	85,106,6	117,81,6	141,3,6	147,71,6	153,103,6	159,35,6	165,113,6	171,102,6	177,25,6	183,82,6	227,112,6	233,86,6	239,52,6	245,88,6	251,84,6	285,19,6	291,93,6	297,110,6	
# Incoming
37,(20, 121),2	43,(105, 121),2	45,(16, 121),2	49,(119, 121),2	51,(40, 121),2	55,(33, 121),2	57,(10, 60),4	61,(55, 121),2	67,(23, 121),2	69,(61, 121),2	73,(118, 121),2	81,(10, 83),6	87,(13, 121),2	91,(106, 121),2	93,(10, 36),18	117,(1, 48),2	121,(32, 121),2	123,(81, 121),2	127,(115, 121),2	133,(53, 121),2	139,(15, 121),2	145,(43, 121),2	151,(3, 95),2	153,(71, 121),2	157,(37, 121),2	159,(103, 121),2	165,(35, 121),2	171,(113, 121),2	177,(102, 121),2	179,(18, 121),2	183,(25, 121),2	187,(94, 121),2	189,(82, 121),2	201,(66, 121),2	231,(58, 121),2	233,(112, 121),2	235,(8, 51),2	237,(56, 121),2	239,(86, 121),2	243,(79, 121),2	245,(52, 121),2	249,(24, 121),2	251,(88, 121),2	255,(17, 121),2	257,(84, 121),2	261,(100, 121),2	267,(57, 121),2	291,(19, 121),2	293,(44, 121),2	297,(93, 121),2	299,(42, 121),2	303,(110, 121),2	305,(91, 121),2	307,(12, 114),4	311,(47, 121),2	317,(41, 121),2	323,(108, 121),2	331,(38, 121),2	333,(10, 26),30	363,(8, 30),40	
1,(0, 10),24	25,(11, 118),4	79,(9, 13),2	85,(0, 1),24	109,(9, 37),2	111,(9, 66),2	141,(4, 37),2	147,(3, 37),4	151,(7, 100),12	163,(4, 41),2	171,(2, 18),2	175,(2, 94),6	181,(2, 66),14	195,(0, 8),24	219,(4, 57),16	251,(6, 57),6	257,(0, 12),24	285,(5, 108),14	299,(9, 38),26	
37,(7, 16),2	39,(10, 40),2	41,(7, 40),4	45,(10, 61),2	47,(7, 61),14	61,(7, 106),2	63,(11, 88),10	75,(10, 113),6	81,(9, 106),4	115,(1, 81),2	117,(0, 3),24	143,(9, 82),8	169,(2, 102),2	173,(2, 25),2	225,(8, 112),2	227,(8, 86),2	229,(8, 52),2	233,(8, 88),2	241,(6, 84),10	281,(6, 110),2	283,(5, 19),2	287,(12, 93),2	289,(12, 110),2	
# Outgoing
1,(0, 10),24	25,(11, 118),4	37,(7, 16),2	41,(7, 40),4	47,(7, 61),14	61,(7, 106),2	63,(11, 88),10	79,(9, 13),2	81,(9, 106),4	85,(0, 1),24	109,(9, 37),2	111,(9, 66),2	117,(0, 3),24	141,(4, 37),2	143,(9, 82),8	151,(7, 100),12	163,(4, 41),2	169,(2, 102),2	171,(2, 18),2	173,(2, 25),2	175,(2, 94),6	181,(2, 66),14	195,(0, 8),24	219,(4, 57),16	241,(6, 84),10	251,(6, 57),6	257,(0, 12),24	281,(6, 110),2	283,(5, 19),2	285,(5, 108),14	299,(9, 38),26	
37,(20, 121),2	39,(10, 40),2	43,(105, 121),2	45,(10, 61),2	49,(119, 121),2	55,(33, 121),2	57,(10, 60),4	61,(55, 121),2	67,(23, 121),2	73,(118, 121),2	75,(10, 113),6	81,(10, 83),6	87,(13, 121),2	93,(10, 36),18	115,(1, 81),2	117,(1, 48),2	121,(32, 121),2	127,(115, 121),2	133,(53, 121),2	139,(15, 121),2	145,(43, 121),2	157,(37, 121),2	179,(18, 121),2	187,(94, 121),2	201,(66, 121),2	225,(8, 112),2	227,(8, 86),2	229,(8, 52),2	231,(58, 121),2	233,(8, 88),2	235,(8, 51),2	237,(56, 121),2	243,(79, 121),2	249,(24, 121),2	255,(17, 121),2	261,(100, 121),2	267,(57, 121),2	287,(12, 93),2	289,(12, 110),2	293,(44, 121),2	299,(42, 121),2	305,(91, 121),2	307,(12, 114),4	311,(47, 121),2	317,(41, 121),2	323,(108, 121),2	331,(38, 121),2	333,(10, 26),30	363,(8, 30),40	
45,(16, 121),2	51,(40, 121),2	69,(61, 121),2	91,(106, 121),2	123,(81, 121),2	147,(3, 37),4	151,(3, 95),2	153,(71, 121),2	159,(103, 121),2	165,(35, 121),2	171,(113, 121),2	177,(102, 121),2	183,(25, 121),2	189,(82, 121),2	233,(112, 121),2	239,(86, 121),2	245,(52, 121),2	251,(88, 121),2	257,(84, 121),2	291,(19, 121),2	297,(93, 121),2	303,(110, 121),2	
