2922
# CPU
10,10,3	19,20,3	22,42,3	31,86,3	67,189,3	76,109,3	79,53,3	91,159,3	107,66,3	126,165,3	145,101,3	153,117,3	161,140,3	178,173,3	186,125,3	257,73,3	260,60,3	270,132,3	273,153,3	291,32,3	303,93,3	313,196,3	332,79,3	643,146,3	673,182,3	
9,9,3	12,64,3	15,90,3	18,49,3	21,178,3	24,19,3	27,162,3	30,37,3	33,70,3	36,31,3	55,185,3	78,149,3	81,122,3	84,143,3	93,199,3	105,98,3	117,106,3	120,129,3	129,58,3	132,77,3	135,83,3	155,169,3	177,136,3	194,156,3	271,192,3	306,113,3	
8,8,3	11,138,3	14,145,3	17,18,3	20,131,3	23,40,3	28,100,3	31,164,3	37,65,3	50,85,3	56,51,3	76,152,3	91,124,3	108,108,3	126,188,3	144,195,3	147,30,3	150,116,3	156,92,3	167,158,3	187,59,3	207,172,3	217,78,3	254,181,3	299,71,3	
7,7,3	10,148,3	13,155,3	16,161,3	19,135,3	22,29,3	25,17,3	28,36,3	31,89,3	34,112,3	37,69,3	40,184,3	43,97,3	46,191,3	53,48,3	58,142,3	61,105,3	64,128,3	84,198,3	178,76,3	181,121,3	209,55,3	246,177,3	253,168,3	260,63,3	263,82,3	
6,6,3	9,35,3	12,75,3	15,28,3	18,16,3	21,157,3	24,163,3	27,84,3	44,123,3	54,130,3	85,194,3	131,67,3	137,99,3	162,61,3	179,91,3	188,151,3	197,54,3	211,144,3	247,171,3	250,115,3	351,45,3	356,107,3	361,180,3	400,137,3	403,187,3	
5,5,3	8,38,3	11,160,3	14,15,3	17,80,3	30,119,3	42,133,3	45,50,3	60,147,3	71,102,3	76,27,3	89,175,3	99,197,3	102,190,3	106,166,3	117,126,3	132,94,3	152,52,3	179,110,3	182,141,3	245,74,3	258,183,3	263,154,3	387,87,3	
4,4,3	7,47,3	10,104,3	13,14,3	16,111,3	19,88,3	22,170,3	25,120,3	38,186,3	59,57,3	62,134,3	65,200,3	92,81,3	101,95,3	141,179,3	169,26,3	207,44,3	312,193,3	396,127,3	806,139,3	
3,3,3	9,25,3	12,13,3	15,72,3	18,174,3	35,43,3	55,46,3	63,34,3	126,56,3	172,167,3	243,68,3	605,176,3	
2,2,3	11,12,3	14,39,3	22,24,3	40,22,3	248,103,3	425,41,3	505,118,3	751,62,3	2921,201,1	
0,0,1	1,11,3	4,1,3	94,96,3	161,33,3	523,150,3	529,21,3	622,114,3	633,23,3	
# Incoming
9,(0, 10),1	10,(2, 53),3	13,(4, 146),5	18,(0, 20),1	19,(5, 60),1	20,(14, 73),1	21,(15, 86),1	29,(11, 86),2	38,(11, 189),29	67,(6, 117),1	68,(1, 109),8	76,(16, 53),1	77,(1, 159),14	91,(5, 66),16	107,(5, 165),19	126,(9, 101),19	152,(16, 117),1	153,(19, 140),8	168,(16, 93),6	174,(16, 146),1	176,(18, 32),1	177,(18, 173),1	178,(16, 125),8	188,(8, 196),16	204,(12, 73),53	258,(13, 60),1	259,(16, 132),11	270,(16, 153),3	278,(13, 32),13	299,(13, 93),4	312,(13, 196),1	313,(15, 79),19	635,(19, 146),8	665,(19, 182),8	
8,(0, 9),1	9,(5, 64),2	11,(5, 90),1	14,(2, 178),1	17,(0, 19),1	18,(15, 162),1	21,(11, 37),3	24,(5, 169),3	27,(11, 70),2	29,(5, 156),6	35,(6, 31),1	54,(20, 185),1	59,(5, 149),19	78,(6, 122),2	80,(14, 143),3	91,(6, 199),2	101,(17, 98),4	108,(16, 106),9	117,(16, 129),2	126,(12, 58),3	129,(12, 77),3	132,(12, 83),1	133,(12, 136),7	145,(12, 169),10	155,(20, 136),22	177,(20, 156),17	263,(15, 192),8	303,(13, 113),3	
7,(0, 8),1	8,(4, 51),1	9,(4, 108),1	11,(4, 145),1	16,(0, 18),1	17,(9, 71),3	20,(15, 40),1	21,(14, 181),1	23,(15, 85),1	24,(11, 59),3	27,(15, 100),1	28,(15, 164),1	31,(11, 116),5	36,(6, 65),1	37,(6, 85),13	53,(20, 51),1	55,(7, 51),1	60,(9, 152),16	80,(6, 124),11	94,(2, 108),14	117,(2, 188),9	126,(10, 195),18	144,(12, 30),1	145,(20, 116),5	153,(17, 92),3	156,(17, 158),11	177,(15, 59),10	187,(16, 181),13	200,(20, 172),7	209,(15, 78),8	253,(3, 181),1	291,(13, 71),8	
6,(0, 7),1	10,(4, 135),1	14,(9, 29),1	15,(0, 17),1	16,(9, 36),1	17,(15, 89),1	18,(14, 112),1	35,(15, 184),1	37,(14, 97),3	42,(9, 191),2	44,(10, 48),9	55,(14, 142),3	59,(6, 105),2	61,(6, 128),1	67,(11, 198),1	76,(1, 121),1	77,(20, 198),7	126,(5, 177),51	177,(12, 76),1	178,(12, 121),3	197,(15, 55),12	219,(15, 177),27	249,(3, 168),4	259,(13, 63),1	260,(13, 82),2	
5,(0, 6),1	6,(2, 35),3	12,(9, 28),2	14,(0, 16),1	15,(2, 84),7	22,(15, 61),1	36,(11, 144),1	40,(10, 45),2	43,(10, 123),1	44,(19, 130),10	56,(7, 151),22	78,(5, 194),7	85,(10, 54),11	96,(14, 171),12	123,(17, 67),8	131,(17, 91),5	136,(17, 99),1	161,(3, 61),1	169,(8, 137),2	178,(3, 91),1	180,(8, 151),8	188,(15, 54),9	197,(17, 144),14	217,(15, 137),2	245,(18, 171),2	248,(3, 115),1	249,(8, 45),102	351,(13, 107),5	356,(13, 180),5	396,(18, 137),4	400,(18, 187),2	
4,(0, 5),1	7,(4, 38),1	13,(0, 15),1	15,(9, 80),1	20,(9, 119),10	30,(9, 133),12	42,(10, 50),1	50,(6, 87),9	59,(10, 147),1	62,(10, 102),9	71,(14, 197),4	75,(16, 27),1	78,(7, 175),11	91,(7, 197),8	99,(19, 190),1	105,(17, 166),1	108,(2, 126),9	117,(14, 94),15	138,(16, 52),14	162,(3, 74),16	178,(8, 110),1	179,(8, 141),1	180,(17, 183),8	243,(18, 74),2	254,(3, 183),4	262,(13, 154),1	381,(18, 87),6	
3,(0, 4),1	12,(0, 14),1	13,(2, 81),1	14,(5, 111),1	15,(5, 120),2	19,(11, 26),2	37,(11, 186),1	38,(5, 57),21	59,(9, 134),1	60,(10, 81),1	61,(10, 95),1	63,(16, 200),1	91,(19, 81),1	99,(17, 95),2	140,(12, 179),1	165,(8, 26),4	204,(18, 44),3	306,(13, 193),6	387,(18, 127),9	751,(19, 139),55	
2,(0, 3),1	8,(5, 25),1	9,(2, 68),1	11,(0, 13),1	22,(6, 43),13	35,(7, 46),20	62,(16, 34),1	89,(7, 176),2	96,(20, 56),30	171,(8, 167),1	172,(8, 176),4	207,(18, 68),36	523,(9, 176),82	
1,(0, 2),1	10,(0, 12),1	11,(6, 24),11	22,(47, 201),15	37,(10, 22),3	40,(104, 201),15	76,(64, 201),15	93,(35, 201),15	108,(148, 201),15	123,(75, 201),15	138,(155, 201),15	153,(28, 201),15	168,(17, 62),5	179,(3, 103),69	248,(38, 201),15	263,(25, 201),15	278,(160, 201),15	293,(111, 201),15	313,(72, 201),15	328,(161, 201),15	351,(138, 201),15	366,(145, 201),15	381,(80, 201),15	396,(16, 41),29	425,(16, 118),80	505,(174, 201),15	520,(135, 201),15	535,(131, 201),15	550,(157, 201),15	565,(29, 201),15	580,(42, 201),15	605,(90, 201),15	620,(49, 201),15	635,(88, 201),15	650,(178, 201),15	665,(170, 201),15	680,(40, 201),15	695,(19, 62),56	751,(163, 201),15	766,(120, 201),15	781,(84, 201),15	806,(162, 201),15	821,(100, 201),15	836,(36, 201),15	851,(119, 201),15	866,(37, 201),15	881,(86, 201),15	896,(164, 201),15	911,(89, 201),15	926,(70, 201),15	941,(112, 201),15	956,(43, 201),15	971,(31, 201),15	986,(65, 201),15	1001,(69, 201),15	1016,(186, 201),15	1031,(184, 201),15	1046,(133, 201),15	1061,(97, 201),15	1076,(123, 201),15	1091,(50, 201),15	1106,(191, 201),15	1121,(85, 201),15	1136,(48, 201),15	1151,(130, 201),15	1166,(46, 201),15	1181,(185, 201),15	1196,(51, 201),15	1211,(142, 201),15	1226,(57, 201),15	1241,(147, 201),15	1256,(105, 201),15	1271,(134, 201),15	1286,(34, 201),15	1301,(128, 201),15	1316,(200, 201),15	1331,(189, 201),15	1346,(102, 201),15	1361,(152, 201),15	1376,(109, 201),15	1391,(27, 201),15	1406,(149, 201),15	1421,(53, 201),15	1436,(122, 201),15	1451,(198, 201),15	1466,(143, 201),15	1481,(194, 201),15	1496,(175, 201),15	1511,(159, 201),15	1526,(124, 201),15	1541,(81, 201),15	1556,(199, 201),15	1571,(96, 201),15	1586,(197, 201),15	1601,(95, 201),15	1616,(190, 201),15	1631,(98, 201),15	1646,(166, 201),15	1661,(66, 201),15	1676,(108, 201),15	1691,(106, 201),15	1706,(126, 201),15	1721,(129, 201),15	1736,(56, 201),15	1751,(165, 201),15	1766,(188, 201),15	1781,(58, 201),15	1796,(67, 201),15	1811,(94, 201),15	1826,(77, 201),15	1841,(83, 201),15	1856,(99, 201),15	1871,(179, 201),15	1886,(195, 201),15	1901,(101, 201),15	1916,(30, 201),15	1931,(116, 201),15	1946,(52, 201),15	1961,(117, 201),15	1976,(169, 201),15	1991,(92, 201),15	2006,(33, 201),15	2021,(140, 201),15	2036,(61, 201),15	2051,(158, 201),15	2066,(26, 201),15	2081,(167, 201),15	2096,(136, 201),15	2111,(173, 201),15	2126,(76, 201),15	2141,(91, 201),15	2156,(110, 201),15	2171,(121, 201),15	2186,(141, 201),15	2201,(125, 201),15	2216,(59, 201),15	2231,(151, 201),15	2246,(156, 201),15	2261,(54, 201),15	2276,(172, 201),15	2291,(44, 201),15	2306,(55, 201),15	2321,(144, 201),15	2336,(78, 201),15	2351,(68, 201),15	2366,(74, 201),15	2381,(177, 201),15	2396,(171, 201),15	2411,(115, 201),15	2426,(168, 201),15	2441,(181, 201),15	2456,(73, 201),15	2471,(183, 201),15	2486,(60, 201),15	2501,(63, 201),15	2516,(82, 201),15	2531,(154, 201),15	2546,(132, 201),15	2561,(192, 201),15	2576,(153, 201),15	2591,(32, 201),15	2606,(71, 201),15	2621,(93, 201),15	2636,(113, 201),15	2651,(193, 201),15	2666,(196, 201),15	2681,(79, 201),15	2696,(45, 201),15	2711,(107, 201),15	2726,(180, 201),15	2741,(87, 201),15	2756,(127, 201),15	2771,(137, 201),15	2786,(187, 201),15	2801,(150, 201),15	2816,(21, 201),15	2831,(176, 201),15	2846,(114, 201),15	2861,(23, 201),15	2876,(146, 201),15	2891,(182, 201),15	2906,(139, 201),15	
22,(2, 96),72	94,(3, 33),67	161,(8, 21),4	165,(9, 150),358	523,(13, 21),6	529,(14, 114),93	622,(15, 23),11	
# Outgoing
37,(10, 22),3	40,(10, 45),2	42,(10, 50),1	43,(10, 123),1	44,(10, 48),9	53,(20, 51),1	54,(20, 185),1	59,(10, 147),1	60,(10, 81),1	61,(10, 95),1	62,(10, 102),9	77,(20, 198),7	85,(10, 54),11	96,(20, 56),30	126,(10, 195),18	145,(20, 116),5	155,(20, 136),22	177,(20, 156),17	200,(20, 172),7	580,(42, 201),15	881,(86, 201),15	1331,(189, 201),15	1376,(109, 201),15	1421,(53, 201),15	1511,(159, 201),15	1661,(66, 201),15	1751,(165, 201),15	1901,(101, 201),15	1961,(117, 201),15	2021,(140, 201),15	2111,(173, 201),15	2201,(125, 201),15	2456,(73, 201),15	2486,(60, 201),15	2546,(132, 201),15	2576,(153, 201),15	2591,(32, 201),15	2621,(93, 201),15	2666,(196, 201),15	2681,(79, 201),15	2876,(146, 201),15	2891,(182, 201),15	
12,(9, 28),2	14,(9, 29),1	15,(9, 80),1	16,(9, 36),1	17,(9, 71),3	20,(9, 119),10	30,(9, 133),12	42,(9, 191),2	44,(19, 130),10	59,(9, 134),1	60,(9, 152),16	76,(64, 201),15	91,(19, 81),1	99,(19, 190),1	126,(9, 101),19	153,(19, 140),8	165,(9, 150),358	523,(9, 176),82	605,(90, 201),15	620,(49, 201),15	635,(19, 146),8	650,(178, 201),15	665,(19, 182),8	695,(19, 62),56	751,(19, 139),55	806,(162, 201),15	866,(37, 201),15	926,(70, 201),15	971,(31, 201),15	1181,(185, 201),15	1406,(149, 201),15	1436,(122, 201),15	1466,(143, 201),15	1556,(199, 201),15	1631,(98, 201),15	1691,(106, 201),15	1721,(129, 201),15	1781,(58, 201),15	1826,(77, 201),15	1841,(83, 201),15	1976,(169, 201),15	2096,(136, 201),15	2246,(156, 201),15	2561,(192, 201),15	2636,(113, 201),15	
161,(8, 21),4	165,(8, 26),4	169,(8, 137),2	171,(8, 167),1	172,(8, 176),4	176,(18, 32),1	177,(18, 173),1	178,(8, 110),1	179,(8, 141),1	180,(8, 151),8	188,(8, 196),16	204,(18, 44),3	207,(18, 68),36	243,(18, 74),2	245,(18, 171),2	249,(8, 45),102	351,(138, 201),15	366,(145, 201),15	381,(18, 87),6	387,(18, 127),9	396,(18, 137),4	400,(18, 187),2	535,(131, 201),15	680,(40, 201),15	821,(100, 201),15	896,(164, 201),15	986,(65, 201),15	1121,(85, 201),15	1196,(51, 201),15	1361,(152, 201),15	1526,(124, 201),15	1676,(108, 201),15	1766,(188, 201),15	1886,(195, 201),15	1916,(30, 201),15	1931,(116, 201),15	1991,(92, 201),15	2051,(158, 201),15	2216,(59, 201),15	2276,(172, 201),15	2336,(78, 201),15	2441,(181, 201),15	2606,(71, 201),15	
35,(7, 46),20	55,(7, 51),1	56,(7, 151),22	78,(7, 175),11	89,(7, 176),2	91,(7, 197),8	99,(17, 95),2	101,(17, 98),4	105,(17, 166),1	108,(148, 201),15	123,(17, 67),8	131,(17, 91),5	136,(17, 99),1	138,(155, 201),15	153,(17, 92),3	156,(17, 158),11	168,(17, 62),5	180,(17, 183),8	197,(17, 144),14	328,(161, 201),15	520,(135, 201),15	565,(29, 201),15	836,(36, 201),15	911,(89, 201),15	941,(112, 201),15	1001,(69, 201),15	1031,(184, 201),15	1061,(97, 201),15	1106,(191, 201),15	1136,(48, 201),15	1211,(142, 201),15	1256,(105, 201),15	1301,(128, 201),15	1451,(198, 201),15	2126,(76, 201),15	2171,(121, 201),15	2306,(55, 201),15	2381,(177, 201),15	2426,(168, 201),15	2501,(63, 201),15	2516,(82, 201),15	
11,(6, 24),11	22,(6, 43),13	35,(6, 31),1	36,(6, 65),1	37,(6, 85),13	50,(6, 87),9	59,(6, 105),2	61,(6, 128),1	62,(16, 34),1	63,(16, 200),1	67,(6, 117),1	75,(16, 27),1	76,(16, 53),1	78,(6, 122),2	80,(6, 124),11	91,(6, 199),2	93,(35, 201),15	108,(16, 106),9	117,(16, 129),2	123,(75, 201),15	138,(16, 52),14	152,(16, 117),1	153,(28, 201),15	168,(16, 93),6	174,(16, 146),1	178,(16, 125),8	187,(16, 181),13	259,(16, 132),11	270,(16, 153),3	396,(16, 41),29	425,(16, 118),80	550,(157, 201),15	751,(163, 201),15	781,(84, 201),15	1076,(123, 201),15	1151,(130, 201),15	1481,(194, 201),15	1796,(67, 201),15	1856,(99, 201),15	2036,(61, 201),15	2141,(91, 201),15	2231,(151, 201),15	2261,(54, 201),15	2321,(144, 201),15	2396,(171, 201),15	2411,(115, 201),15	2696,(45, 201),15	2711,(107, 201),15	2726,(180, 201),15	2771,(137, 201),15	2786,(187, 201),15	
8,(5, 25),1	9,(5, 64),2	11,(5, 90),1	14,(5, 111),1	15,(5, 120),2	17,(15, 89),1	18,(15, 162),1	19,(5, 60),1	20,(15, 40),1	21,(15, 86),1	22,(15, 61),1	23,(15, 85),1	24,(5, 169),3	27,(15, 100),1	28,(15, 164),1	29,(5, 156),6	35,(15, 184),1	38,(5, 57),21	59,(5, 149),19	78,(5, 194),7	91,(5, 66),16	107,(5, 165),19	126,(5, 177),51	177,(15, 59),10	188,(15, 54),9	197,(15, 55),12	209,(15, 78),8	217,(15, 137),2	219,(15, 177),27	248,(38, 201),15	263,(15, 192),8	278,(160, 201),15	313,(15, 79),19	381,(80, 201),15	622,(15, 23),11	851,(119, 201),15	1046,(133, 201),15	1091,(50, 201),15	1241,(147, 201),15	1346,(102, 201),15	1391,(27, 201),15	1496,(175, 201),15	1586,(197, 201),15	1616,(190, 201),15	1646,(166, 201),15	1706,(126, 201),15	1811,(94, 201),15	1946,(52, 201),15	2156,(110, 201),15	2186,(141, 201),15	2366,(74, 201),15	2471,(183, 201),15	2531,(154, 201),15	2741,(87, 201),15	
7,(4, 38),1	8,(4, 51),1	9,(4, 108),1	10,(4, 135),1	11,(4, 145),1	13,(4, 146),5	18,(14, 112),1	20,(14, 73),1	21,(14, 181),1	22,(47, 201),15	37,(14, 97),3	40,(104, 201),15	55,(14, 142),3	71,(14, 197),4	80,(14, 143),3	96,(14, 171),12	117,(14, 94),15	293,(111, 201),15	529,(14, 114),93	635,(88, 201),15	665,(170, 201),15	766,(120, 201),15	1016,(186, 201),15	1226,(57, 201),15	1271,(134, 201),15	1316,(200, 201),15	1541,(81, 201),15	1601,(95, 201),15	1871,(179, 201),15	2066,(26, 201),15	2291,(44, 201),15	2651,(193, 201),15	2756,(127, 201),15	2906,(139, 201),15	
94,(3, 33),67	161,(3, 61),1	162,(3, 74),16	178,(3, 91),1	179,(3, 103),69	248,(3, 115),1	249,(3, 168),4	253,(3, 181),1	254,(3, 183),4	258,(13, 60),1	259,(13, 63),1	260,(13, 82),2	262,(13, 154),1	263,(25, 201),15	278,(13, 32),13	291,(13, 71),8	299,(13, 93),4	303,(13, 113),3	306,(13, 193),6	312,(13, 196),1	313,(72, 201),15	351,(13, 107),5	356,(13, 180),5	505,(174, 201),15	523,(13, 21),6	956,(43, 201),15	1166,(46, 201),15	1286,(34, 201),15	1736,(56, 201),15	2081,(167, 201),15	2351,(68, 201),15	2831,(176, 201),15	
6,(2, 35),3	9,(2, 68),1	10,(2, 53),3	13,(2, 81),1	14,(2, 178),1	15,(2, 84),7	22,(2, 96),72	94,(2, 108),14	108,(2, 126),9	117,(2, 188),9	126,(12, 58),3	129,(12, 77),3	132,(12, 83),1	133,(12, 136),7	140,(12, 179),1	144,(12, 30),1	145,(12, 169),10	177,(12, 76),1	178,(12, 121),3	204,(12, 73),53	
1,(0, 2),1	2,(0, 3),1	3,(0, 4),1	4,(0, 5),1	5,(0, 6),1	6,(0, 7),1	7,(0, 8),1	8,(0, 9),1	9,(0, 10),1	10,(0, 12),1	11,(0, 13),1	12,(0, 14),1	13,(0, 15),1	14,(0, 16),1	15,(0, 17),1	16,(0, 18),1	17,(0, 19),1	18,(0, 20),1	19,(11, 26),2	21,(11, 37),3	24,(11, 59),3	27,(11, 70),2	29,(11, 86),2	31,(11, 116),5	36,(11, 144),1	37,(11, 186),1	38,(11, 189),29	67,(11, 198),1	68,(1, 109),8	76,(1, 121),1	77,(1, 159),14	1571,(96, 201),15	2006,(33, 201),15	2801,(150, 201),15	2816,(21, 201),15	2846,(114, 201),15	2861,(23, 201),15	
