402
# CPU
0,41,1	1,6,10	11,40,10	21,14,10	31,39,10	41,26,10	51,27,10	61,22,10	71,11,10	81,13,10	91,17,10	101,30,10	111,37,10	121,8,10	131,33,10	141,31,10	151,29,10	161,12,10	171,21,10	181,23,10	191,10,10	201,19,10	211,34,10	221,38,10	231,7,10	241,15,10	251,35,10	261,5,10	271,36,10	281,3,10	291,16,10	301,18,10	311,32,10	321,24,10	331,20,10	341,9,10	351,28,10	361,25,10	371,2,10	381,4,10	391,1,10	401,0,1	









# Incoming










# Outgoing










