1085
# CPU
7,3,9	16,6,9	25,13,9	34,19,9	43,61,9	52,24,9	61,29,9	70,43,9	142,31,9	160,49,9	274,64,9	310,22,9	319,23,9	334,12,9	343,34,9	370,52,9	466,79,9	529,17,9	571,21,9	628,46,9	694,70,9	703,11,9	712,18,9	745,27,9	754,40,9	766,58,9	784,67,9	886,73,9	901,20,9	946,37,9	976,55,9	1018,76,9	
4,2,9	13,5,9	22,30,9	31,8,9	40,72,9	49,75,9	58,63,9	67,28,9	76,45,9	145,33,9	163,51,9	172,57,9	277,66,9	292,16,9	301,42,9	313,48,9	343,60,9	367,69,9	391,78,9	466,26,9	508,10,9	517,14,9	580,36,9	601,39,9	676,54,9	
0,0,1	1,4,9	10,1,9	19,7,9	28,15,9	37,68,9	46,53,9	55,35,9	64,74,9	73,25,9	82,59,9	367,50,9	376,41,9	385,71,9	442,77,9	451,44,9	460,32,9	565,80,9	700,9,9	781,65,9	958,38,9	967,47,9	985,56,9	1015,62,9	1084,81,1	
# Incoming
4,(0, 3),3	10,(0, 6),3	16,(4, 31),126	145,(4, 49),15	172,(4, 64),102	274,(2, 22),36	310,(2, 23),3	313,(2, 46),3	316,(1, 12),18	334,(1, 34),3	367,(2, 52),3	370,(1, 17),48	442,(2, 79),24	466,(1, 70),36	514,(7, 17),15	529,(7, 21),42	601,(7, 40),9	610,(7, 46),18	676,(7, 70),18	700,(5, 11),3	703,(5, 18),3	706,(5, 27),39	745,(5, 40),3	748,(5, 58),18	766,(5, 67),18	784,(5, 73),102	889,(8, 20),12	901,(8, 37),45	961,(8, 55),15	1015,(8, 76),3	
1,(0, 2),3	7,(0, 5),3	13,(0, 8),3	142,(4, 33),3	160,(4, 51),3	163,(4, 57),9	274,(4, 66),3	277,(1, 16),15	292,(1, 42),3	295,(1, 48),18	337,(1, 60),6	343,(1, 69),24	370,(3, 78),21	391,(6, 10),12	418,(1, 26),48	502,(7, 10),6	508,(7, 14),6	571,(7, 36),9	580,(7, 39),21	628,(7, 54),48	
316,(2, 50),51	367,(3, 41),3	370,(2, 71),3	373,(2, 77),69	442,(3, 44),6	448,(6, 32),9	457,(13, 81),3	460,(19, 81),3	463,(61, 81),3	466,(2, 80),99	565,(5, 9),135	700,(6, 56),69	769,(6, 65),12	781,(24, 81),3	784,(29, 81),3	787,(43, 81),3	790,(31, 81),3	793,(49, 81),3	796,(64, 81),3	799,(22, 81),3	802,(23, 81),3	805,(12, 81),3	808,(34, 81),3	811,(52, 81),3	814,(79, 81),3	817,(17, 81),3	820,(21, 81),3	823,(46, 81),3	826,(70, 81),3	829,(11, 81),3	832,(18, 81),3	835,(27, 81),3	838,(40, 81),3	841,(58, 81),3	844,(67, 81),3	886,(30, 81),3	895,(73, 81),3	910,(20, 81),3	946,(8, 38),12	958,(8, 47),3	961,(37, 81),3	976,(8, 56),9	985,(8, 62),30	1015,(55, 81),3	1018,(72, 81),3	1021,(75, 81),3	1024,(63, 81),3	1027,(28, 81),3	1030,(45, 81),3	1033,(33, 81),3	1036,(51, 81),3	1039,(57, 81),3	1042,(66, 81),3	1045,(16, 81),3	1048,(42, 81),3	1051,(48, 81),3	1054,(60, 81),3	1057,(69, 81),3	1060,(78, 81),3	1063,(26, 81),3	1066,(10, 81),3	1069,(14, 81),3	1072,(36, 81),3	1075,(39, 81),3	1078,(54, 81),3	1081,(76, 81),3	
# Outgoing
367,(3, 41),3	370,(3, 78),21	391,(6, 10),12	442,(3, 44),6	448,(6, 32),9	457,(13, 81),3	460,(19, 81),3	463,(61, 81),3	700,(6, 56),69	769,(6, 65),12	781,(24, 81),3	784,(29, 81),3	787,(43, 81),3	790,(31, 81),3	793,(49, 81),3	796,(64, 81),3	799,(22, 81),3	802,(23, 81),3	805,(12, 81),3	808,(34, 81),3	811,(52, 81),3	814,(79, 81),3	817,(17, 81),3	820,(21, 81),3	823,(46, 81),3	826,(70, 81),3	829,(11, 81),3	832,(18, 81),3	835,(27, 81),3	838,(40, 81),3	841,(58, 81),3	844,(67, 81),3	895,(73, 81),3	910,(20, 81),3	961,(37, 81),3	1015,(55, 81),3	1081,(76, 81),3	
274,(2, 22),36	310,(2, 23),3	313,(2, 46),3	316,(2, 50),51	367,(2, 52),3	370,(2, 71),3	373,(2, 77),69	442,(2, 79),24	466,(2, 80),99	565,(5, 9),135	700,(5, 11),3	703,(5, 18),3	706,(5, 27),39	745,(5, 40),3	748,(5, 58),18	766,(5, 67),18	784,(5, 73),102	886,(30, 81),3	889,(8, 20),12	901,(8, 37),45	946,(8, 38),12	958,(8, 47),3	961,(8, 55),15	976,(8, 56),9	985,(8, 62),30	1015,(8, 76),3	1018,(72, 81),3	1021,(75, 81),3	1024,(63, 81),3	1027,(28, 81),3	1030,(45, 81),3	1033,(33, 81),3	1036,(51, 81),3	1039,(57, 81),3	1042,(66, 81),3	1045,(16, 81),3	1048,(42, 81),3	1051,(48, 81),3	1054,(60, 81),3	1057,(69, 81),3	1060,(78, 81),3	1063,(26, 81),3	1066,(10, 81),3	1069,(14, 81),3	1072,(36, 81),3	1075,(39, 81),3	1078,(54, 81),3	
1,(0, 2),3	4,(0, 3),3	7,(0, 5),3	10,(0, 6),3	13,(0, 8),3	16,(4, 31),126	142,(4, 33),3	145,(4, 49),15	160,(4, 51),3	163,(4, 57),9	172,(4, 64),102	274,(4, 66),3	277,(1, 16),15	292,(1, 42),3	295,(1, 48),18	316,(1, 12),18	334,(1, 34),3	337,(1, 60),6	343,(1, 69),24	370,(1, 17),48	418,(1, 26),48	466,(1, 70),36	502,(7, 10),6	508,(7, 14),6	514,(7, 17),15	529,(7, 21),42	571,(7, 36),9	580,(7, 39),21	601,(7, 40),9	610,(7, 46),18	628,(7, 54),48	676,(7, 70),18	
