8227
# CPU
105,3,5	110,34,5	115,43,5	120,109,5	125,110,5	130,47,5	135,49,5	140,74,5	145,89,5	153,32,5	209,6,5	214,36,5	219,37,5	224,39,5	229,46,5	234,64,5	239,93,5	244,38,5	249,60,5	254,65,5	259,86,5	264,102,5	269,45,5	313,9,5	318,104,5	323,25,5	328,42,5	333,90,5	338,108,5	343,112,5	348,51,5	417,12,5	422,21,5	427,67,5	432,75,5	437,107,5	442,83,5	447,101,5	452,41,5	457,66,5	545,58,5	729,44,5	769,62,5	793,71,5	805,96,5	810,79,5	815,100,5	825,118,5	837,73,5	842,81,5	941,97,5	946,106,5	997,31,5	1002,15,5	1007,18,5	1013,23,5	1018,70,5	1057,76,5	1213,87,5	1245,99,5	1313,40,5	1325,30,5	1397,24,5	1433,35,5	1581,54,5	1586,72,5	1591,105,5	1625,114,5	1630,26,5	1635,56,5	1640,68,5	1717,91,5	1729,92,5	1753,94,5	1805,103,5	1813,116,5	2101,98,5	7913,95,5	7949,111,5	7993,27,5	8009,33,5	8105,77,5	8125,88,5	8201,120,5	
53,2,5	58,20,5	63,82,5	157,5,5	261,8,5	266,48,5	271,84,5	365,11,5	370,14,5	375,117,5	385,50,5	409,55,5	414,113,5	421,53,5	825,63,5	1001,115,5	1017,59,5	1197,80,5	1241,17,5	1246,78,5	1257,119,5	1333,22,5	1781,85,5	1813,57,5	2201,29,5	2321,61,5	8226,121,1	
0,0,1	1,10,5	6,7,5	11,1,5	16,4,5	21,16,5	322,28,5	430,19,5	545,13,5	1161,52,5	7853,69,5	
# Incoming
53,(0, 3),52	105,(2, 32),48	157,(0, 6),52	209,(2, 60),8	217,(2, 65),24	241,(2, 86),8	249,(2, 102),8	257,(5, 45),4	261,(0, 9),52	313,(5, 104),4	317,(8, 51),4	365,(0, 12),52	421,(10, 58),124	545,(2, 44),184	729,(5, 62),40	769,(5, 71),24	793,(5, 96),12	805,(8, 79),4	809,(8, 100),4	813,(8, 118),12	825,(10, 73),12	837,(10, 81),4	841,(10, 97),100	941,(10, 106),4	945,(8, 31),52	997,(11, 15),4	1001,(7, 18),4	1005,(11, 23),8	1013,(11, 70),4	1017,(7, 76),40	1057,(7, 87),156	1213,(7, 99),32	1245,(8, 40),68	1313,(11, 30),12	1333,(1, 24),64	1397,(1, 35),36	1433,(1, 54),148	1581,(1, 72),4	1585,(1, 105),4	1589,(1, 114),36	1625,(4, 26),4	1629,(4, 56),4	1633,(4, 68),4	1637,(4, 91),80	1717,(4, 92),12	1729,(4, 94),24	1753,(4, 103),52	1805,(4, 116),8	1813,(2, 98),288	7853,(8, 95),60	7913,(8, 111),36	7949,(11, 27),44	7993,(11, 33),16	8009,(11, 77),96	8105,(11, 88),20	8125,(11, 120),76	
1,(0, 2),52	105,(0, 5),52	209,(0, 8),52	313,(0, 11),52	365,(3, 50),20	385,(34, 121),20	405,(6, 55),4	409,(9, 113),4	417,(10, 53),4	421,(43, 121),20	441,(109, 121),20	461,(110, 121),20	481,(47, 121),20	501,(49, 121),20	521,(74, 121),20	545,(10, 63),280	825,(89, 121),20	845,(32, 121),20	945,(10, 115),56	1005,(7, 59),12	1161,(6, 80),36	1197,(36, 121),20	1217,(37, 121),20	1237,(12, 17),4	1241,(12, 78),4	1245,(7, 119),12	1257,(1, 22),76	1333,(3, 85),448	1781,(39, 121),20	1801,(9, 57),12	1813,(16, 121),20	1833,(46, 121),20	1853,(64, 121),20	1873,(93, 121),20	1893,(38, 121),20	1913,(60, 121),20	1933,(65, 121),20	1953,(86, 121),20	1973,(102, 121),20	1993,(45, 121),20	2013,(9, 29),188	2201,(9, 61),120	2321,(104, 121),20	2341,(28, 121),20	2361,(25, 121),20	2381,(42, 121),20	2401,(90, 121),20	2421,(108, 121),20	2441,(112, 121),20	2461,(51, 121),20	2481,(21, 121),20	2501,(67, 121),20	2521,(19, 121),20	2541,(75, 121),20	2561,(107, 121),20	2581,(83, 121),20	2601,(101, 121),20	2621,(41, 121),20	2641,(66, 121),20	2661,(58, 121),20	2681,(13, 121),20	2701,(44, 121),20	2721,(62, 121),20	2741,(71, 121),20	2761,(96, 121),20	2781,(79, 121),20	2801,(100, 121),20	2821,(118, 121),20	2841,(73, 121),20	2861,(81, 121),20	2881,(97, 121),20	2901,(106, 121),20	2921,(31, 121),20	2941,(15, 121),20	2961,(18, 121),20	2981,(23, 121),20	3001,(70, 121),20	3021,(76, 121),20	3041,(52, 121),20	3061,(87, 121),20	3081,(99, 121),20	3101,(40, 121),20	3121,(30, 121),20	3141,(24, 121),20	3161,(35, 121),20	3181,(54, 121),20	3201,(72, 121),20	3221,(105, 121),20	3241,(114, 121),20	3261,(26, 121),20	3281,(56, 121),20	3301,(68, 121),20	3321,(91, 121),20	3341,(92, 121),20	3361,(94, 121),20	3381,(103, 121),20	3401,(116, 121),20	3421,(98, 121),20	7858,(69, 121),20	7918,(95, 121),20	7954,(111, 121),20	7998,(27, 121),20	8018,(33, 121),20	8110,(77, 121),20	8130,(88, 121),20	8206,(120, 121),20	
110,(3, 28),212	322,(5, 19),108	541,(6, 13),4	865,(6, 52),296	2101,(8, 69),5752	
# Outgoing
110,(3, 28),212	365,(3, 50),20	385,(34, 121),20	405,(6, 55),4	409,(9, 113),4	421,(43, 121),20	441,(109, 121),20	461,(110, 121),20	481,(47, 121),20	501,(49, 121),20	521,(74, 121),20	541,(6, 13),4	825,(89, 121),20	845,(32, 121),20	865,(6, 52),296	1161,(6, 80),36	1197,(36, 121),20	1217,(37, 121),20	1237,(12, 17),4	1241,(12, 78),4	1333,(3, 85),448	1781,(39, 121),20	1801,(9, 57),12	1833,(46, 121),20	1853,(64, 121),20	1873,(93, 121),20	1893,(38, 121),20	1913,(60, 121),20	1933,(65, 121),20	1953,(86, 121),20	1973,(102, 121),20	1993,(45, 121),20	2013,(9, 29),188	2201,(9, 61),120	2321,(104, 121),20	2361,(25, 121),20	2381,(42, 121),20	2401,(90, 121),20	2421,(108, 121),20	2441,(112, 121),20	2461,(51, 121),20	2481,(21, 121),20	2501,(67, 121),20	2541,(75, 121),20	2561,(107, 121),20	2581,(83, 121),20	2601,(101, 121),20	2621,(41, 121),20	2641,(66, 121),20	2661,(58, 121),20	2701,(44, 121),20	2721,(62, 121),20	2741,(71, 121),20	2761,(96, 121),20	2781,(79, 121),20	2801,(100, 121),20	2821,(118, 121),20	2841,(73, 121),20	2861,(81, 121),20	2881,(97, 121),20	2901,(106, 121),20	2921,(31, 121),20	2941,(15, 121),20	2961,(18, 121),20	2981,(23, 121),20	3001,(70, 121),20	3021,(76, 121),20	3061,(87, 121),20	3081,(99, 121),20	3101,(40, 121),20	3121,(30, 121),20	3141,(24, 121),20	3161,(35, 121),20	3181,(54, 121),20	3201,(72, 121),20	3221,(105, 121),20	3241,(114, 121),20	3261,(26, 121),20	3281,(56, 121),20	3301,(68, 121),20	3321,(91, 121),20	3341,(92, 121),20	3361,(94, 121),20	3381,(103, 121),20	3401,(116, 121),20	3421,(98, 121),20	7918,(95, 121),20	7954,(111, 121),20	7998,(27, 121),20	8018,(33, 121),20	8110,(77, 121),20	8130,(88, 121),20	8206,(120, 121),20	
105,(2, 32),48	209,(2, 60),8	217,(2, 65),24	241,(2, 86),8	249,(2, 102),8	257,(5, 45),4	313,(5, 104),4	317,(8, 51),4	322,(5, 19),108	545,(2, 44),184	729,(5, 62),40	769,(5, 71),24	793,(5, 96),12	805,(8, 79),4	809,(8, 100),4	813,(8, 118),12	945,(8, 31),52	997,(11, 15),4	1005,(11, 23),8	1013,(11, 70),4	1245,(8, 40),68	1313,(11, 30),12	1813,(2, 98),288	2101,(8, 69),5752	7853,(8, 95),60	7913,(8, 111),36	7949,(11, 27),44	7993,(11, 33),16	8009,(11, 77),96	8105,(11, 88),20	8125,(11, 120),76	
1,(0, 2),52	53,(0, 3),52	105,(0, 5),52	157,(0, 6),52	209,(0, 8),52	261,(0, 9),52	313,(0, 11),52	365,(0, 12),52	417,(10, 53),4	421,(10, 58),124	545,(10, 63),280	825,(10, 73),12	837,(10, 81),4	841,(10, 97),100	941,(10, 106),4	945,(10, 115),56	1001,(7, 18),4	1005,(7, 59),12	1017,(7, 76),40	1057,(7, 87),156	1213,(7, 99),32	1245,(7, 119),12	1257,(1, 22),76	1333,(1, 24),64	1397,(1, 35),36	1433,(1, 54),148	1581,(1, 72),4	1585,(1, 105),4	1589,(1, 114),36	1625,(4, 26),4	1629,(4, 56),4	1633,(4, 68),4	1637,(4, 91),80	1717,(4, 92),12	1729,(4, 94),24	1753,(4, 103),52	1805,(4, 116),8	1813,(16, 121),20	2341,(28, 121),20	2521,(19, 121),20	2681,(13, 121),20	3041,(52, 121),20	7858,(69, 121),20	
