122
# CPU
0,81,1	1,69,1	2,10,1	3,24,1	4,67,1	5,47,1	6,71,1	7,37,1	8,9,1	9,12,1	10,72,1	11,22,1	12,64,1	13,78,1	14,79,1	15,57,1	16,32,1	17,18,1	18,76,1	19,17,1	20,36,1	21,28,1	22,75,1	23,65,1	24,68,1	25,59,1	26,16,1	27,38,1	28,51,1	29,49,1	30,63,1	31,23,1	32,34,1	33,62,1	34,27,1	35,52,1	36,53,1	37,66,1	38,33,1	39,70,1	40,50,1	41,35,1	42,58,1	43,46,1	44,39,1	45,15,1	46,20,1	47,77,1	48,14,1	49,60,1	50,1,1	51,74,1	52,26,1	53,44,1	54,21,1	55,5,1	56,40,1	57,30,1	58,80,1	59,29,1	60,41,1	61,43,1	62,48,1	63,8,1	64,13,1	65,56,1	66,55,1	67,45,1	68,6,1	69,31,1	70,54,1	71,11,1	72,61,1	73,3,1	74,7,1	75,4,1	120,2,1	121,0,1	
17,25,1	49,19,1	65,42,1	
33,73,1	
# Incoming
18,(25, 3),2	34,(73, 7),8	50,(19, 4),22	72,(42, 2),48	
1,(81, 25),16	33,(81, 19),16	49,(81, 42),16	
17,(81, 73),16	
# Outgoing
1,(81, 25),16	17,(81, 73),16	33,(81, 19),16	49,(81, 42),16	
18,(25, 3),2	50,(19, 4),22	72,(42, 2),48	
34,(73, 7),8	
