1147
# CPU
154,2,2	156,6,2	158,10,2	160,16,2	162,20,2	164,4,2	232,8,2	367,12,2	376,14,2	382,18,2	
0,0,1	1,1,2	3,5,2	5,11,2	7,15,2	411,3,2	471,7,2	477,9,2	1044,13,2	1050,17,2	1092,19,2	1146,21,1	
# Incoming
1,(0, 2),153	154,(1, 4),6	160,(1, 8),72	232,(1, 12),135	367,(1, 14),9	376,(1, 18),6	
156,(2, 3),255	411,(2, 7),60	471,(2, 9),6	477,(2, 13),567	1044,(2, 17),6	1050,(2, 19),42	1092,(6, 21),6	1098,(10, 21),6	1104,(16, 21),6	1110,(20, 21),6	1116,(4, 21),6	1122,(8, 21),6	1128,(12, 21),6	1134,(14, 21),6	1140,(18, 21),6	
# Outgoing
156,(2, 3),255	411,(2, 7),60	471,(2, 9),6	477,(2, 13),567	1044,(2, 17),6	1050,(2, 19),42	1092,(6, 21),6	1098,(10, 21),6	1104,(16, 21),6	1110,(20, 21),6	1116,(4, 21),6	1122,(8, 21),6	1128,(12, 21),6	1134,(14, 21),6	1140,(18, 21),6	
1,(0, 2),153	154,(1, 4),6	160,(1, 8),72	232,(1, 12),135	367,(1, 14),9	376,(1, 18),6	
