2963
# CPU
6,5,18	24,23,18	42,50,18	60,47,18	78,115,18	96,179,18	114,116,18	132,149,18	252,171,18	1091,144,18	1109,119,18	1127,93,18	1145,189,18	1200,90,18	1219,42,18	1278,107,18	1296,163,18	1357,79,18	1375,55,18	1393,173,18	1411,176,18	2962,201,1	
4,3,18	22,13,18	40,136,18	58,99,18	76,159,18	94,137,18	112,37,18	130,33,18	148,26,18	166,104,18	184,68,18	202,158,18	220,168,18	238,139,18	256,129,18	274,53,18	742,124,18	776,195,18	794,64,18	812,191,18	
2,1,18	20,8,18	38,100,18	56,89,18	74,164,18	92,69,18	110,61,18	128,67,18	146,94,18	164,199,18	182,82,18	200,140,18	218,134,18	236,148,18	254,193,18	272,198,18	290,131,18	308,190,18	326,175,18	709,98,18	
3,2,18	21,6,18	39,48,18	57,200,18	75,112,18	93,38,18	111,109,18	129,85,18	147,95,18	165,132,18	183,25,18	201,157,18	219,65,18	237,54,18	255,141,18	273,170,18	291,118,18	309,36,18	327,138,18	345,161,18	
0,0,1	1,19,18	19,18,18	37,15,18	55,59,18	73,111,18	91,151,18	109,52,18	127,62,18	145,35,18	163,184,18	181,81,18	199,114,18	217,46,18	235,123,18	253,22,18	271,143,18	289,57,18	307,84,18	325,120,18	343,40,18	
10,9,18	28,16,18	46,45,18	64,34,18	82,188,18	100,122,18	118,126,18	136,75,18	154,74,18	172,121,18	190,78,18	208,174,18	226,56,18	244,71,18	262,180,18	707,49,18	729,102,18	747,105,18	765,127,18	783,162,18	
5,4,18	23,12,18	41,73,18	59,153,18	77,31,18	95,125,18	113,108,18	131,165,18	149,197,18	167,178,18	185,58,18	203,88,18	221,145,18	239,70,18	257,152,18	275,187,18	293,146,18	311,182,18	784,77,18	802,169,18	
11,10,18	29,20,18	47,63,18	65,155,18	83,147,18	101,43,18	119,183,18	137,30,18	155,160,18	173,106,18	191,117,18	209,154,18	227,96,18	245,72,18	263,51,18	281,194,18	299,156,18	317,177,18	702,32,18	781,44,18	
12,11,18	30,14,18	48,76,18	66,167,18	84,150,18	102,135,18	120,97,18	138,60,18	156,130,18	174,128,18	192,142,18	210,83,18	228,66,18	246,186,18	264,196,18	282,101,18	300,103,18	765,192,18	783,21,18	801,29,18	
8,7,18	26,17,18	44,28,18	62,39,18	80,185,18	98,110,18	116,86,18	134,91,18	152,92,18	170,27,18	188,24,18	206,181,18	224,87,18	242,172,18	260,80,18	278,41,18	741,113,18	759,166,18	785,133,18	
# Incoming
5,(0, 5),1	33,(9, 93),2	36,(19, 79),1	37,(1, 116),3	40,(4, 55),2	43,(4, 176),1	45,(19, 149),1	50,(19, 173),198	248,(4, 171),4	252,(19, 176),1	253,(19, 189),448	701,(2, 79),157	858,(2, 90),16	874,(4, 107),88	962,(9, 90),77	1039,(9, 173),30	1069,(10, 144),22	1091,(11, 119),1	1092,(11, 163),7	1099,(11, 189),1	1100,(18, 93),9	1109,(8, 189),10	1119,(6, 90),81	1200,(13, 42),19	1219,(13, 107),59	1278,(12, 79),4	1282,(12, 163),3	1285,(17, 79),72	1357,(20, 55),1	1358,(14, 173),3	1361,(14, 176),1	1362,(100, 201),10	1372,(48, 201),10	1382,(136, 201),10	1392,(73, 201),10	1402,(28, 201),10	1412,(45, 201),10	1422,(63, 201),10	1432,(76, 201),10	1442,(59, 201),10	1452,(89, 201),10	1462,(200, 201),10	1472,(99, 201),10	1482,(153, 201),10	1492,(39, 201),10	1502,(34, 201),10	1512,(155, 201),10	1522,(167, 201),10	1532,(111, 201),10	1542,(164, 201),10	1552,(112, 201),10	1562,(159, 201),10	1572,(31, 201),10	1582,(185, 201),10	1592,(188, 201),10	1602,(147, 201),10	1612,(150, 201),10	1622,(151, 201),10	1632,(69, 201),10	1642,(38, 201),10	1652,(137, 201),10	1662,(125, 201),10	1672,(110, 201),10	1682,(122, 201),10	1692,(43, 201),10	1702,(135, 201),10	1712,(52, 201),10	1722,(61, 201),10	1732,(109, 201),10	1742,(37, 201),10	1752,(108, 201),10	1762,(86, 201),10	1772,(126, 201),10	1782,(183, 201),10	1792,(97, 201),10	1802,(62, 201),10	1812,(67, 201),10	1822,(85, 201),10	1832,(33, 201),10	1842,(165, 201),10	1852,(91, 201),10	1862,(75, 201),10	1872,(30, 201),10	1882,(60, 201),10	1892,(35, 201),10	1902,(94, 201),10	1912,(95, 201),10	1922,(26, 201),10	1932,(197, 201),10	1942,(92, 201),10	1952,(74, 201),10	1962,(160, 201),10	1972,(130, 201),10	1982,(184, 201),10	1992,(199, 201),10	2002,(132, 201),10	2012,(104, 201),10	2022,(178, 201),10	2032,(27, 201),10	2042,(121, 201),10	2052,(106, 201),10	2062,(128, 201),10	2072,(81, 201),10	2082,(82, 201),10	2092,(25, 201),10	2102,(68, 201),10	2112,(58, 201),10	2122,(24, 201),10	2132,(78, 201),10	2142,(117, 201),10	2152,(142, 201),10	2162,(114, 201),10	2172,(140, 201),10	2182,(157, 201),10	2192,(158, 201),10	2202,(88, 201),10	2212,(181, 201),10	2222,(174, 201),10	2232,(154, 201),10	2242,(83, 201),10	2252,(46, 201),10	2262,(134, 201),10	2272,(65, 201),10	2282,(168, 201),10	2292,(145, 201),10	2302,(87, 201),10	2312,(56, 201),10	2322,(96, 201),10	2332,(66, 201),10	2342,(123, 201),10	2352,(148, 201),10	2362,(54, 201),10	2372,(139, 201),10	2382,(70, 201),10	2392,(172, 201),10	2402,(71, 201),10	2412,(72, 201),10	2422,(186, 201),10	2432,(22, 201),10	2442,(193, 201),10	2452,(141, 201),10	2462,(129, 201),10	2472,(152, 201),10	2482,(80, 201),10	2492,(180, 201),10	2502,(51, 201),10	2512,(196, 201),10	2522,(143, 201),10	2532,(198, 201),10	2542,(170, 201),10	2552,(53, 201),10	2562,(187, 201),10	2572,(41, 201),10	2582,(194, 201),10	2592,(101, 201),10	2602,(57, 201),10	2612,(131, 201),10	2622,(118, 201),10	2632,(146, 201),10	2642,(156, 201),10	2652,(103, 201),10	2662,(84, 201),10	2672,(190, 201),10	2682,(36, 201),10	2692,(182, 201),10	2702,(177, 201),10	2712,(120, 201),10	2722,(175, 201),10	2732,(138, 201),10	2742,(40, 201),10	2752,(161, 201),10	2762,(32, 201),10	2772,(49, 201),10	2782,(98, 201),10	2792,(102, 201),10	2802,(113, 201),10	2812,(124, 201),10	2822,(105, 201),10	2832,(166, 201),10	2842,(192, 201),10	2852,(127, 201),10	2862,(195, 201),10	2872,(44, 201),10	2882,(21, 201),10	2892,(162, 201),10	2902,(77, 201),10	2912,(133, 201),10	2922,(64, 201),10	2932,(29, 201),10	2942,(169, 201),10	2952,(191, 201),10	
3,(0, 3),1	13,(0, 13),1	26,(7, 37),5	31,(10, 33),2	38,(4, 64),2	43,(8, 158),1	54,(20, 53),1	56,(2, 168),1	57,(17, 139),1	64,(11, 129),4	73,(14, 191),2	87,(6, 129),22	112,(16, 53),1	741,(18, 124),1	765,(18, 195),11	781,(15, 64),2	789,(15, 191),1	
1,(0, 1),1	8,(0, 8),1	29,(19, 69),7	36,(4, 61),2	38,(9, 94),1	42,(4, 140),1	45,(2, 131),11	56,(20, 94),1	57,(2, 190),3	61,(2, 199),1	62,(3, 98),11	73,(4, 134),10	83,(10, 148),3	86,(6, 82),1	87,(13, 98),12	99,(13, 140),7	106,(12, 148),1	107,(17, 134),1	108,(17, 148),1	109,(14, 175),1	115,(20, 193),5	120,(20, 198),3	129,(14, 131),11	140,(14, 190),9	248,(19, 175),4	707,(18, 98),2	
2,(0, 2),1	6,(0, 6),1	21,(19, 36),8	29,(3, 95),1	30,(3, 141),4	34,(4, 54),1	35,(7, 65),4	39,(7, 157),1	40,(9, 65),1	41,(10, 54),2	44,(13, 141),1	46,(5, 138),1	47,(13, 170),1	49,(7, 138),7	58,(13, 118),3	62,(20, 36),3	94,(16, 36),1	96,(16, 138),3	113,(16, 161),2	
20,(1, 40),13	33,(2, 40),5	38,(2, 52),1	39,(3, 52),1	40,(3, 151),4	44,(4, 114),1	45,(5, 35),1	46,(1, 114),9	55,(5, 143),4	59,(7, 184),1	60,(10, 84),1	61,(10, 123),1	62,(11, 35),2	64,(8, 22),4	68,(6, 22),2	70,(4, 184),3	73,(5, 81),26	99,(9, 114),13	112,(11, 46),9	121,(8, 40),3	124,(8, 123),9	133,(6, 143),1	134,(13, 22),8	142,(17, 40),6	148,(17, 84),4	152,(16, 120),2	154,(16, 143),3	157,(20, 57),4	171,(13, 84),2	173,(13, 120),22	195,(16, 40),33	
9,(0, 9),1	15,(0, 16),1	31,(7, 74),1	32,(7, 75),1	33,(1, 71),2	35,(4, 126),1	36,(10, 126),1	37,(19, 126),8	45,(1, 102),1	46,(10, 174),2	48,(10, 180),1	49,(20, 49),5	56,(17, 105),1	57,(4, 180),13	70,(11, 105),3	73,(6, 102),1	74,(20, 56),2	76,(20, 71),3	195,(13, 180),18	702,(18, 49),5	709,(18, 102),20	729,(18, 105),2	742,(18, 127),13	755,(18, 162),1	
4,(0, 4),1	12,(0, 12),1	33,(10, 70),1	34,(7, 165),1	40,(7, 169),1	42,(1, 146),1	43,(7, 70),6	49,(13, 88),1	50,(13, 145),1	60,(7, 187),5	65,(6, 70),2	68,(11, 146),1	69,(8, 152),8	77,(8, 187),1	79,(20, 146),4	95,(16, 77),1	126,(16, 182),10	783,(15, 77),1	785,(15, 169),4	
10,(0, 10),1	17,(0, 20),1	22,(3, 32),1	29,(9, 44),3	33,(7, 155),1	45,(13, 147),1	46,(19, 154),1	47,(19, 156),3	55,(8, 177),5	69,(14, 51),1	74,(6, 177),4	78,(14, 194),3	87,(12, 156),1	115,(16, 177),11	701,(18, 32),1	779,(15, 44),2	
11,(0, 11),1	14,(0, 14),1	23,(3, 66),2	28,(9, 21),1	35,(1, 83),1	36,(1, 97),1	37,(9, 150),1	40,(1, 135),2	43,(2, 103),2	45,(4, 142),12	57,(13, 83),1	58,(17, 66),1	59,(5, 186),1	60,(2, 196),1	61,(8, 192),1	62,(6, 21),2	64,(6, 196),1	65,(17, 29),2	73,(13, 21),10	83,(12, 101),1	84,(12, 103),3	213,(13, 192),28	241,(16, 192),49	757,(18, 192),8	776,(15, 21),2	778,(15, 29),1	
7,(0, 7),1	16,(0, 17),1	19,(19, 28),2	32,(9, 86),1	39,(2, 91),4	43,(9, 133),8	51,(9, 166),43	94,(10, 41),9	103,(10, 80),12	115,(8, 87),1	116,(13, 172),1	121,(11, 80),8	142,(13, 41),29	731,(18, 113),10	756,(18, 166),1	784,(15, 133),1	
# Outgoing
45,(5, 35),1	46,(5, 138),1	55,(5, 143),4	59,(5, 186),1	73,(5, 81),26	
22,(3, 32),1	23,(3, 66),2	29,(3, 95),1	30,(3, 141),4	39,(3, 52),1	40,(3, 151),4	44,(13, 141),1	45,(13, 147),1	47,(13, 170),1	49,(13, 88),1	50,(13, 145),1	57,(13, 83),1	58,(13, 118),3	62,(3, 98),11	73,(13, 21),10	87,(13, 98),12	99,(13, 140),7	116,(13, 172),1	134,(13, 22),8	142,(13, 41),29	171,(13, 84),2	173,(13, 120),22	195,(13, 180),18	213,(13, 192),28	1200,(13, 42),19	1219,(13, 107),59	1382,(136, 201),10	1472,(99, 201),10	1562,(159, 201),10	1652,(137, 201),10	1742,(37, 201),10	1832,(33, 201),10	1922,(26, 201),10	2012,(104, 201),10	2102,(68, 201),10	2192,(158, 201),10	2282,(168, 201),10	2372,(139, 201),10	2462,(129, 201),10	2552,(53, 201),10	2812,(124, 201),10	2862,(195, 201),10	2922,(64, 201),10	2952,(191, 201),10	
20,(1, 40),13	33,(1, 71),2	35,(1, 83),1	36,(1, 97),1	37,(1, 116),3	40,(1, 135),2	42,(1, 146),1	43,(8, 158),1	45,(1, 102),1	46,(1, 114),9	55,(8, 177),5	61,(8, 192),1	64,(8, 22),4	69,(8, 152),8	77,(8, 187),1	115,(8, 87),1	121,(8, 40),3	124,(8, 123),9	1109,(8, 189),10	1362,(100, 201),10	1452,(89, 201),10	1542,(164, 201),10	1632,(69, 201),10	1722,(61, 201),10	1812,(67, 201),10	1902,(94, 201),10	1992,(199, 201),10	2082,(82, 201),10	2172,(140, 201),10	2262,(134, 201),10	2352,(148, 201),10	2442,(193, 201),10	2532,(198, 201),10	2612,(131, 201),10	2672,(190, 201),10	2722,(175, 201),10	2782,(98, 201),10	
33,(2, 40),5	38,(2, 52),1	39,(2, 91),4	43,(2, 103),2	45,(2, 131),11	56,(2, 168),1	57,(2, 190),3	60,(2, 196),1	61,(2, 199),1	62,(6, 21),2	64,(6, 196),1	65,(6, 70),2	68,(6, 22),2	73,(6, 102),1	74,(6, 177),4	86,(6, 82),1	87,(6, 129),22	133,(6, 143),1	701,(2, 79),157	858,(2, 90),16	1119,(6, 90),81	1372,(48, 201),10	1462,(200, 201),10	1552,(112, 201),10	1642,(38, 201),10	1732,(109, 201),10	1822,(85, 201),10	1912,(95, 201),10	2002,(132, 201),10	2092,(25, 201),10	2182,(157, 201),10	2272,(65, 201),10	2362,(54, 201),10	2452,(141, 201),10	2542,(170, 201),10	2622,(118, 201),10	2682,(36, 201),10	2732,(138, 201),10	2752,(161, 201),10	
1,(0, 1),1	2,(0, 2),1	3,(0, 3),1	4,(0, 4),1	5,(0, 5),1	6,(0, 6),1	7,(0, 7),1	8,(0, 8),1	9,(0, 9),1	10,(0, 10),1	11,(0, 11),1	12,(0, 12),1	13,(0, 13),1	14,(0, 14),1	15,(0, 16),1	16,(0, 17),1	17,(0, 20),1	19,(19, 28),2	21,(19, 36),8	29,(19, 69),7	36,(19, 79),1	37,(19, 126),8	45,(19, 149),1	46,(19, 154),1	47,(19, 156),3	50,(19, 173),198	248,(19, 175),4	252,(19, 176),1	253,(19, 189),448	701,(18, 32),1	702,(18, 49),5	707,(18, 98),2	709,(18, 102),20	729,(18, 105),2	731,(18, 113),10	741,(18, 124),1	742,(18, 127),13	755,(18, 162),1	756,(18, 166),1	757,(18, 192),8	765,(18, 195),11	776,(15, 21),2	778,(15, 29),1	779,(15, 44),2	781,(15, 64),2	783,(15, 77),1	784,(15, 133),1	785,(15, 169),4	789,(15, 191),1	1100,(18, 93),9	1442,(59, 201),10	1532,(111, 201),10	1622,(151, 201),10	1712,(52, 201),10	1802,(62, 201),10	1892,(35, 201),10	1982,(184, 201),10	2072,(81, 201),10	2162,(114, 201),10	2252,(46, 201),10	2342,(123, 201),10	2432,(22, 201),10	2522,(143, 201),10	2602,(57, 201),10	2662,(84, 201),10	2712,(120, 201),10	2742,(40, 201),10	
28,(9, 21),1	29,(9, 44),3	32,(9, 86),1	33,(9, 93),2	37,(9, 150),1	38,(9, 94),1	40,(9, 65),1	43,(9, 133),8	51,(9, 166),43	94,(16, 36),1	95,(16, 77),1	96,(16, 138),3	99,(9, 114),13	112,(16, 53),1	113,(16, 161),2	115,(16, 177),11	126,(16, 182),10	152,(16, 120),2	154,(16, 143),3	195,(16, 40),33	241,(16, 192),49	962,(9, 90),77	1039,(9, 173),30	1412,(45, 201),10	1502,(34, 201),10	1592,(188, 201),10	1682,(122, 201),10	1772,(126, 201),10	1862,(75, 201),10	1952,(74, 201),10	2042,(121, 201),10	2132,(78, 201),10	2222,(174, 201),10	2312,(56, 201),10	2402,(71, 201),10	2492,(180, 201),10	2772,(49, 201),10	2792,(102, 201),10	2822,(105, 201),10	2852,(127, 201),10	2892,(162, 201),10	
34,(4, 54),1	35,(4, 126),1	36,(4, 61),2	38,(4, 64),2	40,(4, 55),2	42,(4, 140),1	43,(4, 176),1	44,(4, 114),1	45,(4, 142),12	57,(4, 180),13	70,(4, 184),3	73,(4, 134),10	83,(12, 101),1	84,(12, 103),3	87,(12, 156),1	106,(12, 148),1	248,(4, 171),4	874,(4, 107),88	1278,(12, 79),4	1282,(12, 163),3	1392,(73, 201),10	1482,(153, 201),10	1572,(31, 201),10	1662,(125, 201),10	1752,(108, 201),10	1842,(165, 201),10	1932,(197, 201),10	2022,(178, 201),10	2112,(58, 201),10	2202,(88, 201),10	2292,(145, 201),10	2382,(70, 201),10	2472,(152, 201),10	2562,(187, 201),10	2632,(146, 201),10	2692,(182, 201),10	2902,(77, 201),10	2942,(169, 201),10	
31,(10, 33),2	33,(10, 70),1	36,(10, 126),1	41,(10, 54),2	46,(10, 174),2	48,(10, 180),1	49,(20, 49),5	54,(20, 53),1	56,(20, 94),1	60,(10, 84),1	61,(10, 123),1	62,(20, 36),3	74,(20, 56),2	76,(20, 71),3	79,(20, 146),4	83,(10, 148),3	94,(10, 41),9	103,(10, 80),12	115,(20, 193),5	120,(20, 198),3	157,(20, 57),4	1069,(10, 144),22	1357,(20, 55),1	1422,(63, 201),10	1512,(155, 201),10	1602,(147, 201),10	1692,(43, 201),10	1782,(183, 201),10	1872,(30, 201),10	1962,(160, 201),10	2052,(106, 201),10	2142,(117, 201),10	2232,(154, 201),10	2322,(96, 201),10	2412,(72, 201),10	2502,(51, 201),10	2582,(194, 201),10	2642,(156, 201),10	2702,(177, 201),10	2762,(32, 201),10	2872,(44, 201),10	
62,(11, 35),2	64,(11, 129),4	68,(11, 146),1	69,(14, 51),1	70,(11, 105),3	73,(14, 191),2	78,(14, 194),3	109,(14, 175),1	112,(11, 46),9	121,(11, 80),8	129,(14, 131),11	140,(14, 190),9	1091,(11, 119),1	1092,(11, 163),7	1099,(11, 189),1	1358,(14, 173),3	1361,(14, 176),1	1432,(76, 201),10	1522,(167, 201),10	1612,(150, 201),10	1702,(135, 201),10	1792,(97, 201),10	1882,(60, 201),10	1972,(130, 201),10	2062,(128, 201),10	2152,(142, 201),10	2242,(83, 201),10	2332,(66, 201),10	2422,(186, 201),10	2512,(196, 201),10	2592,(101, 201),10	2652,(103, 201),10	2842,(192, 201),10	2882,(21, 201),10	2932,(29, 201),10	
26,(7, 37),5	31,(7, 74),1	32,(7, 75),1	33,(7, 155),1	34,(7, 165),1	35,(7, 65),4	39,(7, 157),1	40,(7, 169),1	43,(7, 70),6	49,(7, 138),7	56,(17, 105),1	57,(17, 139),1	58,(17, 66),1	59,(7, 184),1	60,(7, 187),5	65,(17, 29),2	107,(17, 134),1	108,(17, 148),1	142,(17, 40),6	148,(17, 84),4	1285,(17, 79),72	1402,(28, 201),10	1492,(39, 201),10	1582,(185, 201),10	1672,(110, 201),10	1762,(86, 201),10	1852,(91, 201),10	1942,(92, 201),10	2032,(27, 201),10	2122,(24, 201),10	2212,(181, 201),10	2302,(87, 201),10	2392,(172, 201),10	2482,(80, 201),10	2572,(41, 201),10	2802,(113, 201),10	2832,(166, 201),10	2912,(133, 201),10	
