2585
# CPU




115,17,1	118,15,1	124,16,1	
127,18,1	136,11,1	
58,10,1	64,9,1	76,14,1	196,20,1	
37,7,1	49,8,1	172,19,1	
13,2,1	14,5,1	34,6,1	85,12,1	106,13,1	
0,0,1	1,1,1	2,4,1	38,3,1	2584,21,1	
# Incoming




106,(1, 17),9	115,(2, 15),3	118,(2, 16),6	
115,(1, 18),12	127,(2, 11),9	
49,(1, 10),9	58,(2, 9),6	64,(2, 14),12	172,(1, 20),24	
34,(1, 7),3	37,(1, 8),12	127,(1, 19),45	
1,(0, 2),12	13,(1, 6),21	58,(1, 12),27	85,(1, 13),21	
14,(2, 3),24	136,(5, 21),153	289,(6, 21),153	442,(7, 21),153	595,(8, 21),153	748,(10, 21),153	901,(9, 21),153	1054,(14, 21),153	1207,(12, 21),153	1360,(13, 21),153	1513,(17, 21),153	1666,(15, 21),153	1819,(16, 21),153	1972,(18, 21),153	2125,(11, 21),153	2278,(19, 21),153	2431,(20, 21),153	
# Outgoing




1513,(17, 21),153	1666,(15, 21),153	1819,(16, 21),153	
1972,(18, 21),153	2125,(11, 21),153	
748,(10, 21),153	901,(9, 21),153	1054,(14, 21),153	2431,(20, 21),153	
442,(7, 21),153	595,(8, 21),153	2278,(19, 21),153	
14,(2, 3),24	58,(2, 9),6	64,(2, 14),12	115,(2, 15),3	118,(2, 16),6	127,(2, 11),9	136,(5, 21),153	289,(6, 21),153	1207,(12, 21),153	1360,(13, 21),153	
1,(0, 2),12	13,(1, 6),21	34,(1, 7),3	37,(1, 8),12	49,(1, 10),9	58,(1, 12),27	85,(1, 13),21	106,(1, 17),9	115,(1, 18),12	127,(1, 19),45	172,(1, 20),24	
