991
# CPU
0,0,1	1,5,23	24,71,23	47,6,23	70,24,23	93,66,23	116,4,23	139,9,23	162,62,23	185,69,23	208,13,23	231,2,23	254,12,23	277,52,23	300,73,23	323,51,23	346,39,23	369,7,23	392,44,23	415,37,23	438,63,23	461,80,23	484,8,23	507,16,23	530,25,23	553,59,23	576,35,23	599,55,23	622,50,23	645,53,23	668,67,23	691,18,23	714,10,23	737,20,23	760,3,23	783,72,23	806,29,23	829,57,23	852,45,23	875,76,23	898,58,23	921,68,23	944,38,23	967,15,23	990,81,1	
40,79,23	78,42,23	141,14,23	193,78,23	256,26,23	279,30,23	304,54,23	394,47,23	417,77,23	504,1,23	527,34,23	550,61,23	573,31,23	596,28,23	619,48,23	642,65,23	665,60,23	688,22,23	711,27,23	779,11,23	803,74,23	827,49,23	855,36,23	889,75,23	
88,17,23	153,32,23	264,64,23	398,46,23	421,40,23	509,43,23	532,23,23	555,33,23	578,41,23	601,56,23	624,21,23	655,19,23	791,70,23	
# Incoming
541,(1, 15),8	549,(79, 81),4	553,(42, 81),4	557,(17, 81),4	561,(14, 81),4	565,(32, 81),4	569,(78, 81),4	573,(26, 81),4	577,(64, 81),4	581,(30, 81),4	585,(54, 81),4	589,(46, 81),4	593,(40, 81),4	599,(47, 81),4	603,(77, 81),4	607,(43, 81),4	611,(34, 81),4	615,(23, 81),4	619,(61, 81),4	623,(33, 81),4	627,(31, 81),4	631,(41, 81),4	635,(28, 81),4	639,(56, 81),4	643,(48, 81),4	647,(21, 81),4	665,(65, 81),4	678,(19, 81),4	688,(60, 81),4	711,(22, 81),4	734,(27, 81),4	802,(11, 81),4	814,(70, 81),4	826,(74, 81),4	850,(49, 81),4	878,(36, 81),4	912,(75, 81),4	
24,(5, 79),16	40,(5, 42),12	52,(5, 54),6	58,(5, 22),2	60,(5, 74),2	70,(6, 42),8	88,(6, 30),32	120,(6, 47),8	139,(4, 14),2	153,(4, 78),40	254,(2, 26),2	264,(2, 30),10	274,(2, 54),30	304,(4, 47),12	384,(2, 48),8	392,(7, 47),2	398,(7, 77),12	414,(0, 1),90	504,(7, 11),2	523,(8, 65),10	533,(4, 11),4	589,(7, 60),10	653,(8, 22),10	663,(6, 27),32	695,(6, 11),84	791,(2, 74),8	799,(3, 74),4	803,(2, 49),8	811,(3, 49),16	827,(7, 36),26	853,(3, 36),2	855,(3, 75),34	
78,(6, 17),10	128,(6, 70),4	141,(4, 32),12	193,(4, 64),56	249,(4, 43),2	256,(2, 64),8	316,(2, 40),38	354,(2, 56),30	394,(7, 46),4	410,(7, 40),4	507,(8, 43),2	509,(8, 23),12	521,(8, 56),2	527,(1, 33),14	541,(8, 41),22	563,(5, 21),26	589,(1, 21),10	599,(6, 19),54	653,(1, 19),2	655,(1, 70),6	783,(3, 70),8	
# Outgoing
24,(5, 79),16	40,(5, 42),12	52,(5, 54),6	58,(5, 22),2	60,(5, 74),2	70,(6, 42),8	78,(6, 17),10	88,(6, 30),32	120,(6, 47),8	128,(6, 70),4	139,(4, 14),2	141,(4, 32),12	153,(4, 78),40	193,(4, 64),56	249,(4, 43),2	254,(2, 26),2	256,(2, 64),8	264,(2, 30),10	274,(2, 54),30	304,(4, 47),12	316,(2, 40),38	354,(2, 56),30	384,(2, 48),8	392,(7, 47),2	394,(7, 46),4	398,(7, 77),12	410,(7, 40),4	414,(0, 1),90	504,(7, 11),2	507,(8, 43),2	509,(8, 23),12	521,(8, 56),2	523,(8, 65),10	533,(4, 11),4	541,(8, 41),22	563,(5, 21),26	589,(7, 60),10	599,(6, 19),54	653,(8, 22),10	663,(6, 27),32	695,(6, 11),84	783,(3, 70),8	791,(2, 74),8	799,(3, 74),4	803,(2, 49),8	811,(3, 49),16	827,(7, 36),26	853,(3, 36),2	855,(3, 75),34	
527,(1, 33),14	541,(1, 15),8	549,(79, 81),4	553,(42, 81),4	561,(14, 81),4	569,(78, 81),4	573,(26, 81),4	581,(30, 81),4	585,(54, 81),4	589,(1, 21),10	599,(47, 81),4	603,(77, 81),4	611,(34, 81),4	619,(61, 81),4	627,(31, 81),4	635,(28, 81),4	643,(48, 81),4	653,(1, 19),2	655,(1, 70),6	665,(65, 81),4	688,(60, 81),4	711,(22, 81),4	734,(27, 81),4	802,(11, 81),4	826,(74, 81),4	850,(49, 81),4	878,(36, 81),4	912,(75, 81),4	
557,(17, 81),4	565,(32, 81),4	577,(64, 81),4	589,(46, 81),4	593,(40, 81),4	607,(43, 81),4	615,(23, 81),4	623,(33, 81),4	631,(41, 81),4	639,(56, 81),4	647,(21, 81),4	678,(19, 81),4	814,(70, 81),4	
