7739
# CPU
16,10,3	19,11,3	22,22,3	25,48,3	28,147,3	31,195,3	34,50,3	37,102,3	40,123,3	43,70,3	46,37,3	49,186,3	52,17,3	55,183,3	58,91,3	61,99,3	64,144,3	67,158,3	70,166,3	73,67,3	76,69,3	79,95,3	82,98,3	85,92,3	358,45,3	364,86,3	382,138,3	412,167,3	478,28,3	481,29,3	502,49,3	505,80,3	562,101,3	592,119,3	628,133,3	679,152,3	925,176,3	1096,62,3	1135,146,3	1285,196,3	1909,151,3	2827,93,3	3064,197,3	3181,54,3	3262,177,3	3367,116,3	3433,136,3	3484,156,3	3490,189,3	3868,87,3	7738,201,1	
7,4,3	10,38,3	13,47,3	16,135,3	19,145,3	22,104,3	25,7,3	28,12,3	31,46,3	34,148,3	37,155,3	40,175,3	43,161,3	46,16,3	49,77,3	52,83,3	55,76,3	58,39,3	61,30,3	64,179,3	67,18,3	70,34,3	73,41,3	76,27,3	79,200,3	82,163,3	85,153,3	88,157,3	91,132,3	94,129,3	97,118,3	100,125,3	103,52,3	106,106,3	109,169,3	112,73,3	115,181,3	118,40,3	121,173,3	124,131,3	127,127,3	130,187,3	133,44,3	136,51,3	364,137,3	484,36,3	631,134,3	928,58,3	1126,121,3	1132,68,3	
4,3,3	7,33,3	10,103,3	13,168,3	16,5,3	19,25,3	22,57,3	25,160,3	28,165,3	31,120,3	34,149,3	37,64,3	40,90,3	43,111,3	46,66,3	49,194,3	52,14,3	55,15,3	58,20,3	61,26,3	64,88,3	67,170,3	70,142,3	73,143,3	76,112,3	79,114,3	82,94,3	85,97,3	88,23,3	91,184,3	94,164,3	97,192,3	100,162,3	103,100,3	106,89,3	109,79,3	112,78,3	115,61,3	118,59,3	121,198,3	124,172,3	127,42,3	130,56,3	133,185,3	136,55,3	139,74,3	142,171,3	385,141,3	1123,60,3	1129,115,3	
0,0,1	1,8,3	4,9,3	7,19,3	10,13,3	13,1,3	16,6,3	19,2,3	22,110,3	25,150,3	28,191,3	31,182,3	34,190,3	37,140,3	40,139,3	43,130,3	46,72,3	49,71,3	52,63,3	55,21,3	58,180,3	61,174,3	64,154,3	67,193,3	70,113,3	73,107,3	76,82,3	79,109,3	82,159,3	85,128,3	88,199,3	91,124,3	94,122,3	97,75,3	100,65,3	103,43,3	106,24,3	109,31,3	112,105,3	115,81,3	118,108,3	121,126,3	124,188,3	127,35,3	130,96,3	133,84,3	136,178,3	139,53,3	142,117,3	145,85,3	148,32,3	
# Incoming
13,(0, 10),3	16,(0, 11),3	19,(3, 91),3	31,(0, 17),3	34,(3, 183),12	46,(7, 176),6	52,(8, 45),306	358,(16, 146),3	361,(15, 86),3	364,(8, 138),18	385,(8, 151),24	409,(8, 167),3	412,(8, 176),12	424,(8, 196),48	472,(9, 28),6	478,(9, 29),3	484,(9, 49),18	502,(9, 80),3	505,(9, 101),57	562,(9, 119),30	592,(9, 133),36	631,(9, 152),48	679,(9, 176),246	928,(19, 62),168	1096,(19, 146),24	1120,(4, 146),15	1135,(33, 201),45	1180,(38, 201),45	1225,(103, 201),45	1270,(13, 93),12	1282,(13, 196),3	1285,(47, 201),45	1330,(168, 201),45	1375,(5, 156),18	1393,(5, 177),153	1546,(135, 201),45	1591,(6, 87),27	1618,(145, 201),45	1663,(25, 201),45	1708,(104, 201),45	1753,(57, 201),45	1798,(110, 201),45	1843,(7, 151),66	1909,(7, 197),24	1933,(160, 201),45	1978,(150, 201),45	2023,(12, 136),21	2044,(165, 201),45	2089,(191, 201),45	2134,(46, 201),45	2179,(120, 201),45	2224,(182, 201),45	2269,(148, 201),45	2314,(149, 201),45	2359,(190, 201),45	2404,(155, 201),45	2449,(64, 201),45	2494,(140, 201),45	2539,(175, 201),45	2584,(90, 201),45	2629,(139, 201),45	2674,(161, 201),45	2719,(111, 201),45	2764,(130, 201),45	2809,(16, 93),18	2827,(66, 201),45	2872,(72, 201),45	2917,(77, 201),45	2962,(194, 201),45	3007,(71, 201),45	3052,(14, 197),12	3064,(83, 201),45	3109,(63, 201),45	3154,(15, 54),27	3181,(15, 177),81	3262,(76, 201),45	3307,(21, 201),45	3352,(20, 116),15	3367,(20, 136),66	3433,(20, 156),51	3484,(20, 189),6	3490,(39, 201),45	3535,(180, 201),45	3580,(26, 201),45	3625,(30, 201),45	3670,(174, 201),45	3715,(179, 201),45	3760,(88, 201),45	3805,(154, 201),45	3850,(18, 87),18	3868,(170, 201),45	3913,(193, 201),45	3958,(34, 201),45	4003,(142, 201),45	4048,(113, 201),45	4093,(41, 201),45	4138,(143, 201),45	4183,(107, 201),45	4228,(27, 201),45	4273,(112, 201),45	4318,(82, 201),45	4363,(200, 201),45	4408,(114, 201),45	4453,(109, 201),45	4498,(163, 201),45	4543,(94, 201),45	4588,(159, 201),45	4633,(153, 201),45	4678,(97, 201),45	4723,(128, 201),45	4768,(157, 201),45	4813,(23, 201),45	4858,(199, 201),45	4903,(132, 201),45	4948,(184, 201),45	4993,(124, 201),45	5038,(129, 201),45	5083,(164, 201),45	5128,(122, 201),45	5173,(118, 201),45	5218,(192, 201),45	5263,(75, 201),45	5308,(125, 201),45	5353,(162, 201),45	5398,(65, 201),45	5443,(52, 201),45	5488,(100, 201),45	5533,(43, 201),45	5578,(106, 201),45	5623,(89, 201),45	5668,(24, 201),45	5713,(169, 201),45	5758,(79, 201),45	5803,(31, 201),45	5848,(73, 201),45	5893,(78, 201),45	5938,(105, 201),45	5983,(181, 201),45	6028,(81, 201),45	6073,(61, 201),45	6118,(59, 201),45	6163,(40, 201),45	6208,(108, 201),45	6253,(198, 201),45	6298,(173, 201),45	6343,(126, 201),45	6388,(131, 201),45	6433,(172, 201),45	6478,(188, 201),45	6523,(127, 201),45	6568,(42, 201),45	6613,(35, 201),45	6658,(187, 201),45	6703,(56, 201),45	6748,(96, 201),45	6793,(44, 201),45	6838,(185, 201),45	6883,(84, 201),45	6928,(55, 201),45	6973,(51, 201),45	7018,(178, 201),45	7063,(74, 201),45	7108,(53, 201),45	7153,(171, 201),45	7198,(117, 201),45	7243,(85, 201),45	7288,(32, 201),45	7333,(137, 201),45	7378,(141, 201),45	7423,(36, 201),45	7468,(134, 201),45	7513,(58, 201),45	7558,(60, 201),45	7603,(121, 201),45	7648,(115, 201),45	7693,(68, 201),45	
4,(0, 4),3	10,(0, 7),3	19,(0, 12),3	22,(3, 181),3	28,(0, 16),3	34,(0, 18),3	46,(5, 169),9	55,(14, 73),3	58,(14, 181),3	61,(15, 40),3	67,(15, 137),6	73,(20, 51),3	358,(8, 137),6	481,(9, 36),3	628,(9, 134),3	925,(19, 58),3	1123,(1, 121),3	1129,(2, 68),3	
1,(0, 3),3	7,(0, 5),3	22,(0, 14),3	25,(0, 15),3	28,(11, 26),6	34,(11, 198),3	37,(0, 20),3	40,(8, 26),12	52,(11, 59),9	61,(17, 55),9	73,(18, 74),6	79,(18, 171),6	382,(8, 141),3	1120,(13, 60),3	1126,(6, 115),3	
10,(4, 108),3	19,(10, 81),3	52,(16, 53),3	55,(16, 117),3	64,(15, 85),3	70,(18, 32),3	
# Outgoing
19,(10, 81),3	28,(11, 26),6	34,(11, 198),3	52,(11, 59),9	61,(17, 55),9	
10,(4, 108),3	46,(7, 176),6	52,(16, 53),3	55,(16, 117),3	70,(18, 32),3	73,(18, 74),6	79,(18, 171),6	358,(16, 146),3	1120,(4, 146),15	1180,(38, 201),45	1285,(47, 201),45	1546,(135, 201),45	1618,(145, 201),45	1708,(104, 201),45	1843,(7, 151),66	1909,(7, 197),24	2023,(12, 136),21	2134,(46, 201),45	2269,(148, 201),45	2404,(155, 201),45	2539,(175, 201),45	2674,(161, 201),45	2809,(16, 93),18	2917,(77, 201),45	3064,(83, 201),45	3262,(76, 201),45	3490,(39, 201),45	3625,(30, 201),45	3715,(179, 201),45	3850,(18, 87),18	3958,(34, 201),45	4093,(41, 201),45	4228,(27, 201),45	4363,(200, 201),45	4498,(163, 201),45	4633,(153, 201),45	4768,(157, 201),45	4903,(132, 201),45	5038,(129, 201),45	5173,(118, 201),45	5308,(125, 201),45	5443,(52, 201),45	5578,(106, 201),45	5713,(169, 201),45	5848,(73, 201),45	5983,(181, 201),45	6163,(40, 201),45	6298,(173, 201),45	6388,(131, 201),45	6523,(127, 201),45	6658,(187, 201),45	6793,(44, 201),45	6973,(51, 201),45	7333,(137, 201),45	7423,(36, 201),45	7468,(134, 201),45	7513,(58, 201),45	7603,(121, 201),45	7693,(68, 201),45	
19,(3, 91),3	22,(3, 181),3	34,(3, 183),12	46,(5, 169),9	55,(14, 73),3	58,(14, 181),3	61,(15, 40),3	64,(15, 85),3	67,(15, 137),6	73,(20, 51),3	361,(15, 86),3	1135,(33, 201),45	1225,(103, 201),45	1330,(168, 201),45	1375,(5, 156),18	1393,(5, 177),153	1663,(25, 201),45	1753,(57, 201),45	1933,(160, 201),45	2044,(165, 201),45	2179,(120, 201),45	2314,(149, 201),45	2449,(64, 201),45	2584,(90, 201),45	2719,(111, 201),45	2827,(66, 201),45	2962,(194, 201),45	3052,(14, 197),12	3154,(15, 54),27	3181,(15, 177),81	3352,(20, 116),15	3367,(20, 136),66	3433,(20, 156),51	3484,(20, 189),6	3580,(26, 201),45	3760,(88, 201),45	3868,(170, 201),45	4003,(142, 201),45	4138,(143, 201),45	4273,(112, 201),45	4408,(114, 201),45	4543,(94, 201),45	4678,(97, 201),45	4813,(23, 201),45	4948,(184, 201),45	5083,(164, 201),45	5218,(192, 201),45	5353,(162, 201),45	5488,(100, 201),45	5623,(89, 201),45	5758,(79, 201),45	5893,(78, 201),45	6073,(61, 201),45	6118,(59, 201),45	6253,(198, 201),45	6433,(172, 201),45	6568,(42, 201),45	6703,(56, 201),45	6838,(185, 201),45	6928,(55, 201),45	7063,(74, 201),45	7153,(171, 201),45	7378,(141, 201),45	7558,(60, 201),45	7648,(115, 201),45	
1,(0, 3),3	4,(0, 4),3	7,(0, 5),3	10,(0, 7),3	13,(0, 10),3	16,(0, 11),3	19,(0, 12),3	22,(0, 14),3	25,(0, 15),3	28,(0, 16),3	31,(0, 17),3	34,(0, 18),3	37,(0, 20),3	40,(8, 26),12	52,(8, 45),306	358,(8, 137),6	364,(8, 138),18	382,(8, 141),3	385,(8, 151),24	409,(8, 167),3	412,(8, 176),12	424,(8, 196),48	472,(9, 28),6	478,(9, 29),3	481,(9, 36),3	484,(9, 49),18	502,(9, 80),3	505,(9, 101),57	562,(9, 119),30	592,(9, 133),36	628,(9, 134),3	631,(9, 152),48	679,(9, 176),246	925,(19, 58),3	928,(19, 62),168	1096,(19, 146),24	1120,(13, 60),3	1123,(1, 121),3	1126,(6, 115),3	1129,(2, 68),3	1270,(13, 93),12	1282,(13, 196),3	1591,(6, 87),27	1798,(110, 201),45	1978,(150, 201),45	2089,(191, 201),45	2224,(182, 201),45	2359,(190, 201),45	2494,(140, 201),45	2629,(139, 201),45	2764,(130, 201),45	2872,(72, 201),45	3007,(71, 201),45	3109,(63, 201),45	3307,(21, 201),45	3535,(180, 201),45	3670,(174, 201),45	3805,(154, 201),45	3913,(193, 201),45	4048,(113, 201),45	4183,(107, 201),45	4318,(82, 201),45	4453,(109, 201),45	4588,(159, 201),45	4723,(128, 201),45	4858,(199, 201),45	4993,(124, 201),45	5128,(122, 201),45	5263,(75, 201),45	5398,(65, 201),45	5533,(43, 201),45	5668,(24, 201),45	5803,(31, 201),45	5938,(105, 201),45	6028,(81, 201),45	6208,(108, 201),45	6343,(126, 201),45	6478,(188, 201),45	6613,(35, 201),45	6748,(96, 201),45	6883,(84, 201),45	7018,(178, 201),45	7108,(53, 201),45	7198,(117, 201),45	7243,(85, 201),45	7288,(32, 201),45	
