344
# CPU
0,0,1	1,1,9	10,27,9	19,36,9	28,4,9	37,35,9	46,30,9	55,22,9	64,3,9	73,9,9	82,26,9	91,5,9	100,32,9	109,16,9	118,40,9	127,11,9	136,33,9	145,20,9	154,2,9	163,17,9	172,13,9	181,23,9	190,15,9	199,12,9	208,14,9	217,19,9	226,6,9	235,24,9	244,8,9	253,28,9	262,37,9	271,21,9	280,10,9	289,39,9	298,34,9	307,7,9	316,29,9	325,18,9	334,31,9	343,41,1	
167,25,9	176,38,9	
# Incoming
176,(25, 41),20	196,(38, 41),20	
10,(1, 25),24	37,(4, 25),4	73,(3, 25),4	77,(4, 38),72	163,(2, 25),4	167,(2, 38),8	
# Outgoing
10,(1, 25),24	37,(4, 25),4	73,(3, 25),4	77,(4, 38),72	163,(2, 25),4	167,(2, 38),8	
176,(25, 41),20	196,(38, 41),20	
