127
# CPU
66,17,3	69,7,3	72,12,3	
32,6,3	35,11,3	54,16,3	
52,15,3	67,5,3	119,20,3	122,10,3	
16,2,3	20,4,3	40,9,3	45,14,3	67,19,3	
0,0,1	1,1,3	4,8,3	7,13,3	10,18,3	20,3,3	126,21,1	
# Incoming
54,(1, 17),12	67,(2, 7),1	68,(2, 12),4	
20,(1, 6),12	32,(2, 11),1	52,(1, 16),2	
45,(1, 15),7	52,(2, 5),15	67,(1, 20),52	119,(2, 10),2	
1,(0, 2),15	16,(1, 4),4	32,(1, 9),8	40,(1, 14),5	66,(1, 19),1	
19,(2, 3),1	23,(4, 21),1	35,(6, 21),1	38,(11, 21),1	43,(9, 21),1	48,(14, 21),1	55,(15, 21),1	57,(16, 21),1	69,(17, 21),1	70,(5, 21),1	72,(19, 21),1	73,(7, 21),1	75,(12, 21),1	122,(20, 21),1	125,(10, 21),1	
# Outgoing
69,(17, 21),1	73,(7, 21),1	75,(12, 21),1	
35,(6, 21),1	38,(11, 21),1	57,(16, 21),1	
55,(15, 21),1	70,(5, 21),1	122,(20, 21),1	125,(10, 21),1	
19,(2, 3),1	23,(4, 21),1	32,(2, 11),1	43,(9, 21),1	48,(14, 21),1	52,(2, 5),15	67,(2, 7),1	68,(2, 12),4	72,(19, 21),1	119,(2, 10),2	
1,(0, 2),15	16,(1, 4),4	20,(1, 6),12	32,(1, 9),8	40,(1, 14),5	45,(1, 15),7	52,(1, 16),2	54,(1, 17),12	66,(1, 19),1	67,(1, 20),52	
