846
# CPU
3,2,10	13,4,10	23,7,10	33,9,10	43,20,10	53,11,10	63,5,10	73,13,10	83,14,10	93,16,10	103,18,10	
0,0,1	1,1,10	11,3,10	21,15,10	31,8,10	41,17,10	51,6,10	61,10,10	87,12,10	105,19,10	845,21,1	
# Incoming
1,(0, 2),2	11,(1, 5),6	17,(1, 13),10	27,(1, 14),2	29,(1, 16),2	31,(1, 18),6	
13,(2, 6),2	15,(2, 10),2	17,(2, 12),70	87,(2, 19),18	105,(4, 21),74	179,(7, 21),74	253,(9, 21),74	327,(20, 21),74	401,(11, 21),74	475,(5, 21),74	549,(13, 21),74	623,(14, 21),74	697,(16, 21),74	771,(18, 21),74	
# Outgoing
13,(2, 6),2	15,(2, 10),2	17,(2, 12),70	87,(2, 19),18	105,(4, 21),74	179,(7, 21),74	253,(9, 21),74	327,(20, 21),74	401,(11, 21),74	475,(5, 21),74	549,(13, 21),74	623,(14, 21),74	697,(16, 21),74	771,(18, 21),74	
1,(0, 2),2	11,(1, 5),6	17,(1, 13),10	27,(1, 14),2	29,(1, 16),2	31,(1, 18),6	
