986
# CPU
7,2,15	22,14,15	37,19,15	52,31,15	67,37,15	82,36,15	97,33,15	112,32,15	127,18,15	142,23,15	157,24,15	241,25,15	
10,4,15	25,5,15	40,9,15	55,21,15	70,20,15	85,39,15	100,29,15	115,27,15	130,6,15	145,10,15	160,15,15	910,40,15	
4,1,15	19,7,15	34,16,15	49,38,15	64,12,15	79,26,15	
184,11,15	238,17,15	253,28,15	403,30,15	895,35,15	985,41,1	
0,0,1	1,3,15	16,8,15	31,22,15	46,13,15	61,34,15	
# Incoming
4,(0, 2),3	238,(3, 25),3	
7,(0, 4),3	895,(2, 40),15	
1,(0, 1),3	
16,(3, 11),168	184,(3, 17),54	238,(7, 41),3	241,(3, 28),6	247,(3, 30),156	403,(3, 35),444	847,(2, 35),48	895,(8, 41),3	898,(5, 41),3	901,(22, 41),3	904,(16, 41),3	907,(9, 41),3	910,(14, 41),3	913,(19, 41),3	916,(13, 41),3	919,(38, 41),3	922,(31, 41),3	925,(21, 41),3	928,(34, 41),3	931,(12, 41),3	934,(37, 41),3	937,(20, 41),3	940,(26, 41),3	943,(36, 41),3	946,(39, 41),3	949,(33, 41),3	952,(29, 41),3	955,(32, 41),3	958,(27, 41),3	961,(18, 41),3	964,(6, 41),3	967,(23, 41),3	970,(10, 41),3	973,(24, 41),3	976,(15, 41),3	979,(25, 41),3	982,(40, 41),3	

# Outgoing
847,(2, 35),48	895,(2, 40),15	910,(14, 41),3	913,(19, 41),3	922,(31, 41),3	934,(37, 41),3	943,(36, 41),3	949,(33, 41),3	955,(32, 41),3	961,(18, 41),3	967,(23, 41),3	973,(24, 41),3	979,(25, 41),3	
898,(5, 41),3	907,(9, 41),3	925,(21, 41),3	937,(20, 41),3	946,(39, 41),3	952,(29, 41),3	958,(27, 41),3	964,(6, 41),3	970,(10, 41),3	976,(15, 41),3	982,(40, 41),3	
238,(7, 41),3	904,(16, 41),3	919,(38, 41),3	931,(12, 41),3	940,(26, 41),3	

1,(0, 1),3	4,(0, 2),3	7,(0, 4),3	16,(3, 11),168	184,(3, 17),54	238,(3, 25),3	241,(3, 28),6	247,(3, 30),156	403,(3, 35),444	895,(8, 41),3	901,(22, 41),3	916,(13, 41),3	928,(34, 41),3	
