1187
# CPU
982,18,48	1030,27,48	1078,33,48	1126,40,48	
280,24,48	586,17,48	634,31,48	682,38,48	
547,23,48	595,30,48	943,16,48	1039,36,48	
937,14,48	985,29,48	1033,35,48	1081,22,48	
649,34,48	697,20,48	745,28,48	931,12,48	
550,26,48	598,39,48	646,11,48	844,32,48	
10,4,48	58,8,48	106,19,48	154,25,48	733,37,48	
7,3,48	55,7,48	274,21,48	1186,41,1	
4,2,48	52,13,48	202,10,48	544,15,48	592,6,48	
0,0,1	1,1,48	76,5,48	928,9,48	
# Incoming
943,(3, 18),39	982,(4, 27),12	1033,(3, 33),3	1039,(3, 40),15	
76,(2, 17),39	274,(2, 24),6	574,(4, 17),12	586,(4, 31),3	589,(4, 38),51	
544,(1, 23),3	550,(1, 30),6	937,(3, 16),6	1036,(3, 36),3	
931,(3, 14),6	937,(4, 29),36	973,(4, 35),3	982,(3, 22),51	
556,(1, 34),93	649,(4, 20),3	652,(4, 28),60	928,(3, 12),3	
547,(1, 26),3	550,(2, 39),6	556,(4, 11),18	712,(4, 32),132	
7,(0, 4),3	649,(1, 37),84	
4,(0, 3),3	115,(2, 21),159	280,(13, 41),12	292,(10, 41),12	328,(24, 41),12	592,(15, 41),12	604,(23, 41),12	616,(26, 41),12	634,(17, 41),12	646,(6, 41),12	658,(30, 41),12	670,(39, 41),12	682,(31, 41),12	694,(11, 41),12	706,(34, 41),12	733,(5, 41),12	745,(38, 41),12	757,(20, 41),12	793,(28, 41),12	844,(8, 41),12	856,(19, 41),12	868,(25, 41),12	880,(37, 41),12	892,(32, 41),12	976,(9, 41),12	988,(12, 41),12	1000,(14, 41),12	1012,(16, 41),12	1030,(18, 41),12	1042,(29, 41),12	1078,(27, 41),12	1090,(35, 41),12	1102,(36, 41),12	1126,(33, 41),12	1138,(22, 41),12	1174,(40, 41),12	
1,(0, 2),3	49,(1, 10),153	202,(1, 15),342	544,(3, 6),3	
52,(2, 5),24	547,(3, 9),381	
# Outgoing
1030,(18, 41),12	1078,(27, 41),12	1126,(33, 41),12	1174,(40, 41),12	
328,(24, 41),12	634,(17, 41),12	682,(31, 41),12	745,(38, 41),12	
604,(23, 41),12	658,(30, 41),12	1012,(16, 41),12	1102,(36, 41),12	
1000,(14, 41),12	1042,(29, 41),12	1090,(35, 41),12	1138,(22, 41),12	
706,(34, 41),12	757,(20, 41),12	793,(28, 41),12	988,(12, 41),12	
616,(26, 41),12	670,(39, 41),12	694,(11, 41),12	892,(32, 41),12	
556,(4, 11),18	574,(4, 17),12	586,(4, 31),3	589,(4, 38),51	649,(4, 20),3	652,(4, 28),60	712,(4, 32),132	844,(8, 41),12	856,(19, 41),12	868,(25, 41),12	880,(37, 41),12	937,(4, 29),36	973,(4, 35),3	982,(4, 27),12	
544,(3, 6),3	547,(3, 9),381	928,(3, 12),3	931,(3, 14),6	937,(3, 16),6	943,(3, 18),39	982,(3, 22),51	1033,(3, 33),3	1036,(3, 36),3	1039,(3, 40),15	
52,(2, 5),24	76,(2, 17),39	115,(2, 21),159	274,(2, 24),6	280,(13, 41),12	292,(10, 41),12	550,(2, 39),6	592,(15, 41),12	646,(6, 41),12	
1,(0, 2),3	4,(0, 3),3	7,(0, 4),3	49,(1, 10),153	202,(1, 15),342	544,(1, 23),3	547,(1, 26),3	550,(1, 30),6	556,(1, 34),93	649,(1, 37),84	733,(5, 41),12	976,(9, 41),12	
