1950
# CPU
1125,11,8	1181,15,8	1805,3,8	1817,5,8	1877,6,8	1889,7,8	1917,10,8	1925,18,8	1949,21,1	
5,1,8	13,12,8	21,20,8	29,16,8	997,9,8	1137,14,8	1193,17,8	
0,0,1	1,2,8	9,19,8	
681,4,8	1129,13,8	
993,8,8	
# Incoming
9,(2, 3),640	681,(2, 5),100	781,(2, 6),76	857,(2, 7),132	989,(4, 21),4	997,(2, 10),64	1061,(2, 11),64	1125,(8, 21),4	1137,(2, 15),44	1181,(13, 21),4	1193,(2, 18),288	1481,(1, 3),324	1805,(1, 5),12	1817,(1, 6),60	1877,(1, 7),12	1889,(1, 10),28	1917,(1, 18),4	1921,(19, 21),4	1925,(12, 21),4	1929,(20, 21),4	1933,(16, 21),4	1937,(9, 21),4	1941,(14, 21),4	1945,(17, 21),4	
1,(0, 1),4	993,(2, 9),4	1129,(2, 14),8	1181,(2, 17),12	

649,(2, 4),32	1125,(2, 13),4	
989,(2, 8),4	
# Outgoing

1481,(1, 3),324	1805,(1, 5),12	1817,(1, 6),60	1877,(1, 7),12	1889,(1, 10),28	1917,(1, 18),4	1925,(12, 21),4	1929,(20, 21),4	1933,(16, 21),4	1937,(9, 21),4	1941,(14, 21),4	1945,(17, 21),4	
1,(0, 1),4	9,(2, 3),640	649,(2, 4),32	681,(2, 5),100	781,(2, 6),76	857,(2, 7),132	989,(2, 8),4	993,(2, 9),4	997,(2, 10),64	1061,(2, 11),64	1125,(2, 13),4	1129,(2, 14),8	1137,(2, 15),44	1181,(2, 17),12	1193,(2, 18),288	1921,(19, 21),4	
989,(4, 21),4	1181,(13, 21),4	
1125,(8, 21),4	
