707
# CPU
5,3,4	9,6,4	13,57,4	17,75,4	21,39,4	25,78,4	67,18,4	71,48,4	102,9,4	108,12,4	112,72,4	116,54,4	164,66,4	171,42,4	175,21,4	179,27,4	183,36,4	187,45,4	191,60,4	234,63,4	238,30,4	242,15,4	246,24,4	289,33,4	307,51,4	311,69,4	
3,2,4	7,5,4	11,17,4	15,38,4	19,35,4	23,20,4	27,26,4	31,8,4	35,80,4	39,47,4	43,29,4	47,23,4	51,32,4	55,77,4	135,50,4	154,53,4	158,14,4	162,62,4	331,41,4	337,56,4	348,59,4	363,65,4	367,68,4	371,11,4	412,44,4	472,71,4	476,74,4	
0,0,1	1,7,4	5,1,4	9,4,4	13,22,4	17,49,4	21,37,4	25,25,4	29,55,4	33,31,4	37,40,4	171,76,4	326,10,4	335,19,4	341,58,4	345,34,4	362,73,4	383,13,4	403,16,4	411,28,4	424,64,4	428,67,4	465,70,4	507,79,4	529,43,4	533,46,4	548,52,4	589,61,4	706,81,1	
# Incoming
3,(0, 3),2	7,(0, 6),2	11,(7, 12),4	15,(7, 15),8	23,(7, 18),44	67,(7, 27),1	68,(7, 48),1	69,(7, 60),9	78,(7, 66),6	84,(2, 9),18	102,(2, 12),6	109,(7, 72),1	112,(2, 45),1	113,(2, 54),1	114,(2, 66),50	164,(1, 42),7	171,(5, 21),3	174,(5, 27),3	177,(5, 36),2	179,(5, 45),1	180,(5, 60),2	182,(5, 63),52	234,(4, 30),1	235,(8, 15),3	238,(8, 24),1	239,(8, 33),50	289,(8, 51),18	307,(8, 69),2	
1,(0, 2),2	5,(0, 5),2	9,(0, 8),2	84,(7, 68),20	104,(7, 71),5	110,(7, 74),3	113,(1, 11),5	118,(1, 14),2	120,(1, 50),15	135,(1, 53),19	154,(1, 56),1	155,(4, 14),1	156,(4, 56),1	157,(4, 62),1	171,(1, 65),39	326,(3, 41),5	331,(3, 56),6	341,(3, 59),7	348,(3, 65),15	363,(3, 68),1	364,(6, 11),6	411,(6, 44),1	465,(6, 71),7	472,(6, 74),1	
108,(2, 16),4	164,(2, 76),7	171,(3, 10),155	326,(5, 16),3	329,(5, 19),6	335,(5, 28),2	337,(3, 58),4	341,(5, 34),2	343,(5, 73),19	362,(17, 81),3	365,(38, 81),3	370,(6, 13),13	383,(6, 16),20	403,(6, 28),8	412,(6, 64),12	424,(6, 67),1	425,(6, 70),40	465,(35, 81),3	468,(20, 81),3	473,(6, 79),34	507,(57, 81),3	510,(75, 81),3	513,(39, 81),3	516,(78, 81),3	519,(26, 81),3	522,(8, 43),7	529,(8, 46),3	532,(8, 52),16	548,(8, 61),41	589,(80, 81),3	592,(47, 81),3	595,(29, 81),3	598,(23, 81),3	601,(32, 81),3	604,(77, 81),3	607,(18, 81),3	610,(48, 81),3	613,(9, 81),3	616,(12, 81),3	619,(72, 81),3	622,(54, 81),3	625,(50, 81),3	628,(53, 81),3	631,(14, 81),3	634,(62, 81),3	637,(66, 81),3	640,(42, 81),3	643,(21, 81),3	646,(27, 81),3	649,(36, 81),3	652,(45, 81),3	655,(60, 81),3	658,(63, 81),3	661,(30, 81),3	664,(15, 81),3	667,(24, 81),3	670,(33, 81),3	673,(51, 81),3	676,(69, 81),3	679,(41, 81),3	682,(56, 81),3	685,(59, 81),3	688,(65, 81),3	691,(68, 81),3	694,(11, 81),3	697,(44, 81),3	700,(71, 81),3	703,(74, 81),3	
# Outgoing
171,(3, 10),155	326,(3, 41),5	331,(3, 56),6	337,(3, 58),4	341,(3, 59),7	348,(3, 65),15	363,(3, 68),1	364,(6, 11),6	370,(6, 13),13	383,(6, 16),20	403,(6, 28),8	411,(6, 44),1	412,(6, 64),12	424,(6, 67),1	425,(6, 70),40	465,(6, 71),7	472,(6, 74),1	473,(6, 79),34	507,(57, 81),3	510,(75, 81),3	513,(39, 81),3	516,(78, 81),3	607,(18, 81),3	610,(48, 81),3	613,(9, 81),3	616,(12, 81),3	619,(72, 81),3	622,(54, 81),3	637,(66, 81),3	640,(42, 81),3	643,(21, 81),3	646,(27, 81),3	649,(36, 81),3	652,(45, 81),3	655,(60, 81),3	658,(63, 81),3	661,(30, 81),3	664,(15, 81),3	667,(24, 81),3	670,(33, 81),3	673,(51, 81),3	676,(69, 81),3	
84,(2, 9),18	102,(2, 12),6	108,(2, 16),4	112,(2, 45),1	113,(2, 54),1	114,(2, 66),50	164,(2, 76),7	171,(5, 21),3	174,(5, 27),3	177,(5, 36),2	179,(5, 45),1	180,(5, 60),2	182,(5, 63),52	235,(8, 15),3	238,(8, 24),1	239,(8, 33),50	289,(8, 51),18	307,(8, 69),2	326,(5, 16),3	329,(5, 19),6	335,(5, 28),2	341,(5, 34),2	343,(5, 73),19	362,(17, 81),3	365,(38, 81),3	465,(35, 81),3	468,(20, 81),3	519,(26, 81),3	522,(8, 43),7	529,(8, 46),3	532,(8, 52),16	548,(8, 61),41	589,(80, 81),3	592,(47, 81),3	595,(29, 81),3	598,(23, 81),3	601,(32, 81),3	604,(77, 81),3	625,(50, 81),3	628,(53, 81),3	631,(14, 81),3	634,(62, 81),3	679,(41, 81),3	682,(56, 81),3	685,(59, 81),3	688,(65, 81),3	691,(68, 81),3	694,(11, 81),3	697,(44, 81),3	700,(71, 81),3	703,(74, 81),3	
1,(0, 2),2	3,(0, 3),2	5,(0, 5),2	7,(0, 6),2	9,(0, 8),2	11,(7, 12),4	15,(7, 15),8	23,(7, 18),44	67,(7, 27),1	68,(7, 48),1	69,(7, 60),9	78,(7, 66),6	84,(7, 68),20	104,(7, 71),5	109,(7, 72),1	110,(7, 74),3	113,(1, 11),5	118,(1, 14),2	120,(1, 50),15	135,(1, 53),19	154,(1, 56),1	155,(4, 14),1	156,(4, 56),1	157,(4, 62),1	164,(1, 42),7	171,(1, 65),39	234,(4, 30),1	
