1529
# CPU
0,0,1	1,3,9	10,38,9	19,29,9	28,78,9	37,69,9	46,68,9	55,8,9	64,74,9	73,27,9	82,7,9	91,17,9	100,76,9	109,70,9	118,73,9	127,79,9	136,1,9	145,11,9	154,54,9	163,41,9	172,16,9	181,24,9	190,44,9	199,4,9	208,42,9	217,10,9	226,13,9	235,19,9	244,58,9	253,72,9	262,65,9	271,6,9	280,30,9	289,56,9	298,61,9	307,45,9	316,20,9	325,36,9	334,59,9	343,55,9	352,62,9	361,5,9	370,80,9	379,35,9	388,9,9	397,25,9	406,40,9	415,37,9	424,57,9	433,63,9	442,12,9	451,67,9	460,18,9	469,46,9	478,22,9	487,75,9	496,34,9	505,48,9	514,32,9	523,26,9	532,60,9	541,15,9	550,33,9	567,49,9	576,47,9	585,31,9	594,43,9	603,50,9	619,51,9	635,71,9	655,39,9	679,28,9	711,66,9	743,23,9	799,77,9	867,21,9	1519,53,9	1528,81,1	
285,2,9	294,64,9	303,14,9	312,52,9	
# Incoming
303,(64, 81),80	383,(14, 81),80	463,(2, 32),4	467,(2, 26),4	471,(2, 60),4	475,(2, 15),4	479,(2, 33),4	483,(52, 81),80	563,(2, 49),4	567,(2, 47),4	571,(2, 31),8	579,(2, 43),8	587,(2, 50),16	603,(2, 51),16	619,(2, 71),16	635,(2, 39),20	655,(2, 28),24	679,(2, 66),32	711,(2, 23),32	743,(2, 77),56	799,(2, 21),68	867,(2, 53),652	
1,(0, 2),284	285,(4, 52),4	
# Outgoing
1,(0, 2),284	285,(4, 52),4	
303,(64, 81),80	383,(14, 81),80	463,(2, 32),4	467,(2, 26),4	471,(2, 60),4	475,(2, 15),4	479,(2, 33),4	483,(52, 81),80	563,(2, 49),4	567,(2, 47),4	571,(2, 31),8	579,(2, 43),8	587,(2, 50),16	603,(2, 51),16	619,(2, 71),16	635,(2, 39),20	655,(2, 28),24	679,(2, 66),32	711,(2, 23),32	743,(2, 77),56	799,(2, 21),68	867,(2, 53),652	
