59360
# CPU
46972,23,9	47569,24,9	56941,5,9	56962,6,9	57058,14,9	57196,17,9	58144,18,9	58174,19,9	58183,20,9	58192,21,9	58201,28,9	58210,29,9	58264,37,9	58921,7,9	58936,10,9	58960,15,9	59026,16,9	59056,22,9	59065,25,9	59074,26,9	59083,31,9	59092,32,9	59101,34,9	59137,38,9	59215,39,9	59269,40,9	59359,41,1	
202,2,9	211,8,9	220,13,9	805,12,9	
403,3,9	610,9,9	775,11,9	47302,33,9	
604,4,9	613,30,9	622,35,9	
0,0,1	1,1,9	10,27,9	19,36,9	
# Incoming
604,(1, 6),3	610,(1, 10),9	619,(2, 6),45	664,(2, 7),18	682,(2, 14),12	694,(2, 15),9	703,(2, 17),6	709,(2, 18),27	736,(2, 19),42	778,(2, 23),6	784,(2, 25),3	787,(2, 38),6	793,(4, 5),3	796,(4, 14),3	799,(4, 19),3	802,(4, 20),3	805,(1, 16),9	814,(1, 17),45945	46759,(1, 18),3	46762,(1, 20),180	46942,(1, 21),3	46945,(1, 22),9	46954,(1, 23),18	46972,(1, 24),36	47008,(1, 25),18	47026,(1, 26),6	47032,(1, 28),93	47125,(1, 29),3	47128,(1, 31),3	47131,(2, 10),162	47293,(4, 18),9	47302,(1, 34),15	47317,(1, 40),27	47344,(27, 41),15	47359,(36, 41),15	47374,(2, 21),117	47491,(2, 24),78	47569,(2, 28),42	47611,(2, 29),540	48151,(2, 31),7809	55960,(2, 34),525	56485,(2, 37),108	56593,(2, 39),303	56896,(8, 41),15	56911,(13, 41),15	56926,(3, 5),15	56941,(3, 6),21	56962,(3, 7),24	56986,(3, 10),36	57022,(3, 14),36	57058,(3, 15),6	57064,(3, 16),48	57112,(3, 17),84	57196,(3, 18),948	58144,(3, 19),30	58174,(3, 20),3	58177,(3, 21),3	58180,(3, 25),3	58183,(3, 26),3	58186,(3, 28),3	58189,(3, 29),6	58195,(3, 31),12	58207,(3, 32),39	58246,(3, 34),6	58252,(3, 37),12	58264,(3, 39),39	58303,(3, 40),81	58384,(4, 7),537	58921,(4, 10),15	58936,(4, 15),24	58960,(4, 16),66	59026,(4, 22),30	59056,(4, 25),3	59059,(4, 26),12	59071,(4, 31),3	59074,(4, 32),6	59080,(4, 34),3	59083,(4, 38),54	59137,(4, 39),78	59215,(4, 40),54	59269,(9, 41),15	59284,(30, 41),15	59299,(35, 41),15	59314,(11, 41),15	59329,(12, 41),15	59344,(33, 41),15	
1,(0, 2),201	775,(1, 12),30	
202,(0, 3),201	607,(1, 9),3	619,(1, 11),156	47131,(1, 33),171	
403,(0, 4),201	

# Outgoing

619,(2, 6),45	664,(2, 7),18	682,(2, 14),12	694,(2, 15),9	703,(2, 17),6	709,(2, 18),27	736,(2, 19),42	778,(2, 23),6	784,(2, 25),3	787,(2, 38),6	47131,(2, 10),162	47374,(2, 21),117	47491,(2, 24),78	47569,(2, 28),42	47611,(2, 29),540	48151,(2, 31),7809	55960,(2, 34),525	56485,(2, 37),108	56593,(2, 39),303	56896,(8, 41),15	56911,(13, 41),15	59329,(12, 41),15	
56926,(3, 5),15	56941,(3, 6),21	56962,(3, 7),24	56986,(3, 10),36	57022,(3, 14),36	57058,(3, 15),6	57064,(3, 16),48	57112,(3, 17),84	57196,(3, 18),948	58144,(3, 19),30	58174,(3, 20),3	58177,(3, 21),3	58180,(3, 25),3	58183,(3, 26),3	58186,(3, 28),3	58189,(3, 29),6	58195,(3, 31),12	58207,(3, 32),39	58246,(3, 34),6	58252,(3, 37),12	58264,(3, 39),39	58303,(3, 40),81	59269,(9, 41),15	59314,(11, 41),15	59344,(33, 41),15	
793,(4, 5),3	796,(4, 14),3	799,(4, 19),3	802,(4, 20),3	47293,(4, 18),9	58384,(4, 7),537	58921,(4, 10),15	58936,(4, 15),24	58960,(4, 16),66	59026,(4, 22),30	59056,(4, 25),3	59059,(4, 26),12	59071,(4, 31),3	59074,(4, 32),6	59080,(4, 34),3	59083,(4, 38),54	59137,(4, 39),78	59215,(4, 40),54	59284,(30, 41),15	59299,(35, 41),15	
1,(0, 2),201	202,(0, 3),201	403,(0, 4),201	604,(1, 6),3	607,(1, 9),3	610,(1, 10),9	619,(1, 11),156	775,(1, 12),30	805,(1, 16),9	814,(1, 17),45945	46759,(1, 18),3	46762,(1, 20),180	46942,(1, 21),3	46945,(1, 22),9	46954,(1, 23),18	46972,(1, 24),36	47008,(1, 25),18	47026,(1, 26),6	47032,(1, 28),93	47125,(1, 29),3	47128,(1, 31),3	47131,(1, 33),171	47302,(1, 34),15	47317,(1, 40),27	47344,(27, 41),15	47359,(36, 41),15	
