4308
# CPU
0,0,1	1,5,1	2,10,1	3,2,1	4,15,1	5,8,1	6,4,1	7,66,1	8,14,1	9,16,1	10,147,1	11,111,1	12,18,1	13,43,1	14,59,1	15,3,1	16,157,1	17,17,1	18,1,1	19,99,1	20,79,1	21,104,1	22,13,1	23,100,1	24,61,1	25,120,1	26,86,1	27,195,1	28,74,1	29,88,1	30,87,1	31,143,1	32,20,1	33,119,1	34,131,1	35,140,1	36,76,1	37,112,1	38,146,1	39,19,1	40,54,1	41,24,1	42,167,1	43,45,1	44,150,1	45,125,1	46,160,1	47,6,1	48,28,1	49,103,1	50,29,1	51,83,1	52,40,1	53,110,1	54,121,1	55,155,1	56,47,1	57,198,1	58,127,1	59,189,1	60,42,1	61,124,1	62,149,1	63,7,1	64,178,1	65,108,1	66,154,1	67,156,1	68,144,1	69,89,1	70,65,1	71,55,1	72,95,1	73,41,1	74,142,1	75,31,1	76,168,1	77,169,1	78,128,1	79,114,1	80,70,1	81,122,1	82,93,1	83,58,1	84,166,1	85,187,1	86,158,1	87,194,1	88,184,1	89,105,1	90,81,1	91,91,1	92,48,1	93,115,1	94,200,1	95,37,1	96,188,1	97,78,1	98,137,1	99,69,1	100,199,1	101,139,1	102,64,1	103,57,1	104,153,1	105,23,1	106,72,1	110,182,1	116,151,1	122,177,1	128,50,1	134,170,1	140,159,1	146,130,1	152,101,1	158,51,1	167,171,1	176,82,1	185,134,1	194,38,1	203,21,1	212,53,1	221,32,1	230,162,1	242,174,1	254,193,1	266,175,1	278,148,1	290,96,1	302,123,1	314,56,1	326,35,1	341,179,1	356,138,1	371,36,1	386,27,1	401,90,1	416,183,1	431,186,1	446,165,1	464,113,1	482,180,1	500,190,1	521,34,1	542,73,1	566,85,1	593,39,1	620,107,1	650,68,1	680,80,1	716,152,1	752,60,1	788,25,1	833,46,1	878,71,1	926,92,1	974,117,1	1025,26,1	1076,129,1	1130,196,1	1187,84,1	1247,135,1	1310,98,1	1373,52,1	1469,97,1	1601,133,1	1736,63,1	1886,44,1	2042,49,1	2249,163,1	2462,118,1	4307,201,1	
16,12,1	109,161,1	166,94,1	205,106,1	247,145,1	289,164,1	397,116,1	451,30,1	925,185,1	1045,126,1	1165,77,1	1285,33,1	1417,102,1	1672,22,1	2014,67,1	2368,62,1	







31,11,1	46,181,1	61,9,1	67,192,1	85,109,1	133,197,1	343,173,1	508,132,1	574,191,1	649,176,1	739,172,1	832,141,1	3118,75,1	4303,136,1	
# Incoming
32,(11, 58),3	35,(11, 166),3	38,(12, 187),3	41,(11, 158),3	44,(11, 194),3	47,(12, 184),3	50,(11, 81),3	53,(12, 91),3	56,(11, 48),3	59,(11, 115),3	62,(9, 105),3	65,(12, 200),3	68,(9, 37),3	71,(11, 188),3	74,(12, 78),3	77,(9, 137),3	80,(12, 69),3	83,(9, 199),3	86,(11, 139),3	89,(11, 64),3	92,(11, 57),3	95,(9, 153),3	98,(11, 23),3	101,(11, 72),3	104,(12, 182),6	110,(12, 151),6	116,(12, 177),6	122,(9, 50),6	128,(9, 170),6	134,(12, 159),3	137,(11, 159),3	140,(11, 130),6	146,(12, 101),3	149,(11, 101),3	152,(12, 51),6	158,(12, 171),3	161,(9, 171),6	167,(12, 82),6	173,(11, 82),3	176,(9, 134),9	185,(12, 38),9	194,(9, 21),9	203,(11, 53),9	212,(12, 32),9	221,(9, 162),9	230,(12, 174),12	242,(12, 193),3	245,(11, 193),9	254,(11, 175),12	266,(12, 148),12	278,(12, 96),12	290,(12, 123),9	299,(11, 123),3	302,(12, 56),12	314,(11, 35),12	326,(11, 179),15	341,(9, 138),15	356,(12, 36),3	359,(11, 36),12	371,(9, 27),15	386,(11, 90),15	401,(11, 183),15	416,(12, 186),15	431,(12, 165),12	443,(9, 165),3	446,(9, 113),18	464,(9, 180),18	482,(12, 190),18	500,(12, 34),21	521,(12, 73),12	533,(11, 73),9	542,(12, 85),24	566,(12, 39),27	593,(12, 107),21	614,(11, 107),6	620,(9, 68),30	650,(11, 80),12	662,(9, 80),18	680,(9, 152),36	716,(11, 60),24	740,(9, 60),12	752,(12, 25),36	788,(12, 46),45	833,(9, 71),45	878,(12, 92),48	926,(12, 117),48	974,(9, 26),51	1025,(12, 129),51	1076,(12, 196),24	1100,(9, 196),30	1130,(12, 84),57	1187,(9, 135),60	1247,(12, 98),57	1304,(11, 98),6	1310,(11, 52),60	1370,(9, 52),3	1373,(9, 97),96	1469,(11, 133),114	1583,(9, 133),18	1601,(12, 63),12	1613,(9, 63),123	1736,(11, 44),150	1886,(12, 49),33	1919,(11, 49),117	2036,(9, 49),6	2042,(12, 163),6	2048,(9, 163),201	2249,(12, 118),135	2384,(11, 118),72	2456,(9, 118),6	2462,(181, 201),3	2465,(192, 201),3	2468,(109, 201),3	2471,(161, 201),3	2474,(197, 201),3	2477,(94, 201),3	2480,(106, 201),3	2483,(145, 201),3	2486,(164, 201),3	2489,(173, 201),3	2492,(116, 201),3	2495,(30, 201),3	2498,(132, 201),3	2501,(191, 201),3	2504,(176, 201),3	2507,(172, 201),3	2510,(141, 201),3	2513,(185, 201),3	2516,(126, 201),3	2519,(77, 201),3	2522,(33, 201),3	2525,(102, 201),3	2528,(22, 201),3	2531,(67, 201),3	2534,(62, 201),3	3119,(75, 201),3	4304,(136, 201),3	
1,(0, 12),15	65,(9, 33),3	85,(5, 161),6	91,(10, 161),3	94,(8, 161),3	97,(20, 161),9	106,(7, 161),3	109,(11, 164),9	133,(8, 94),24	157,(4, 94),9	166,(15, 106),15	181,(18, 106),12	193,(17, 106),9	202,(20, 106),3	205,(1, 145),21	226,(7, 145),21	247,(10, 164),3	250,(8, 164),3	253,(16, 164),27	280,(19, 164),9	289,(11, 30),6	302,(9, 62),6	343,(2, 116),3	346,(4, 116),3	349,(14, 116),3	352,(1, 116),3	355,(20, 116),21	376,(19, 116),6	382,(6, 116),15	397,(5, 30),3	400,(10, 30),39	439,(16, 30),3	442,(17, 30),3	445,(19, 30),6	482,(9, 185),21	503,(9, 126),18	542,(9, 77),30	572,(11, 33),27	832,(10, 185),21	853,(8, 185),39	892,(4, 185),6	898,(18, 185),12	910,(20, 185),3	913,(7, 185),12	925,(2, 126),12	937,(4, 126),27	964,(17, 126),3	967,(1, 126),21	988,(20, 126),36	1024,(19, 126),3	1027,(6, 126),18	1045,(5, 77),3	1048,(10, 77),6	1054,(2, 77),60	1114,(1, 77),3	1117,(7, 77),48	1165,(10, 33),99	1264,(16, 33),6	1270,(13, 33),15	1285,(10, 102),6	1291,(2, 102),3	1294,(15, 102),6	1300,(18, 102),24	1324,(3, 102),30	1354,(13, 102),3	1357,(20, 102),60	1417,(10, 22),3	1420,(8, 22),15	1435,(18, 22),3	1438,(17, 22),228	1666,(13, 22),3	1669,(19, 22),3	1672,(5, 67),114	1786,(10, 67),75	1861,(2, 67),3	1864,(16, 67),63	1927,(18, 67),21	1948,(3, 67),15	1963,(20, 67),45	2008,(19, 67),6	2014,(4, 62),87	2101,(16, 62),54	2155,(18, 62),18	2173,(17, 62),195	







16,(0, 11),15	31,(16, 181),12	43,(18, 181),3	46,(0, 9),15	61,(15, 192),3	64,(8, 192),3	67,(4, 109),12	79,(19, 109),6	85,(12, 176),3	109,(13, 197),24	289,(16, 173),3	292,(17, 173),51	451,(10, 132),48	499,(8, 132),3	502,(1, 132),3	505,(6, 132),3	508,(5, 191),6	514,(8, 191),36	550,(6, 191),24	574,(10, 176),30	604,(2, 176),9	613,(15, 176),9	622,(14, 176),3	625,(16, 176),6	631,(1, 176),18	649,(14, 172),6	655,(16, 172),12	667,(20, 172),72	739,(4, 141),3	742,(18, 141),33	775,(19, 141),57	2368,(2, 75),3	2371,(15, 75),18	2389,(18, 75),471	2860,(3, 75),36	2896,(17, 75),3	2899,(1, 75),96	2995,(20, 75),102	3097,(6, 75),21	3118,(2, 136),81	3199,(4, 136),192	3391,(12, 136),702	4093,(17, 136),15	4108,(6, 136),30	4138,(7, 136),165	
# Outgoing
1,(0, 12),15	16,(0, 11),15	31,(16, 181),12	43,(18, 181),3	46,(0, 9),15	61,(15, 192),3	64,(8, 192),3	67,(4, 109),12	79,(19, 109),6	85,(5, 161),6	91,(10, 161),3	94,(8, 161),3	97,(20, 161),9	106,(7, 161),3	109,(13, 197),24	133,(8, 94),24	157,(4, 94),9	166,(15, 106),15	181,(18, 106),12	193,(17, 106),9	202,(20, 106),3	205,(1, 145),21	226,(7, 145),21	247,(10, 164),3	250,(8, 164),3	253,(16, 164),27	280,(19, 164),9	289,(16, 173),3	292,(17, 173),51	343,(2, 116),3	346,(4, 116),3	349,(14, 116),3	352,(1, 116),3	355,(20, 116),21	376,(19, 116),6	382,(6, 116),15	397,(5, 30),3	400,(10, 30),39	439,(16, 30),3	442,(17, 30),3	445,(19, 30),6	451,(10, 132),48	499,(8, 132),3	502,(1, 132),3	505,(6, 132),3	508,(5, 191),6	514,(8, 191),36	550,(6, 191),24	574,(10, 176),30	604,(2, 176),9	613,(15, 176),9	622,(14, 176),3	625,(16, 176),6	631,(1, 176),18	649,(14, 172),6	655,(16, 172),12	667,(20, 172),72	739,(4, 141),3	742,(18, 141),33	775,(19, 141),57	832,(10, 185),21	853,(8, 185),39	892,(4, 185),6	898,(18, 185),12	910,(20, 185),3	913,(7, 185),12	925,(2, 126),12	937,(4, 126),27	964,(17, 126),3	967,(1, 126),21	988,(20, 126),36	1024,(19, 126),3	1027,(6, 126),18	1045,(5, 77),3	1048,(10, 77),6	1054,(2, 77),60	1114,(1, 77),3	1117,(7, 77),48	1165,(10, 33),99	1264,(16, 33),6	1270,(13, 33),15	1285,(10, 102),6	1291,(2, 102),3	1294,(15, 102),6	1300,(18, 102),24	1324,(3, 102),30	1354,(13, 102),3	1357,(20, 102),60	1417,(10, 22),3	1420,(8, 22),15	1435,(18, 22),3	1438,(17, 22),228	1666,(13, 22),3	1669,(19, 22),3	1672,(5, 67),114	1786,(10, 67),75	1861,(2, 67),3	1864,(16, 67),63	1927,(18, 67),21	1948,(3, 67),15	1963,(20, 67),45	2008,(19, 67),6	2014,(4, 62),87	2101,(16, 62),54	2155,(18, 62),18	2173,(17, 62),195	2368,(2, 75),3	2371,(15, 75),18	2389,(18, 75),471	2860,(3, 75),36	2896,(17, 75),3	2899,(1, 75),96	2995,(20, 75),102	3097,(6, 75),21	3118,(2, 136),81	3199,(4, 136),192	4093,(17, 136),15	4108,(6, 136),30	4138,(7, 136),165	
38,(12, 187),3	47,(12, 184),3	53,(12, 91),3	65,(12, 200),3	74,(12, 78),3	80,(12, 69),3	85,(12, 176),3	104,(12, 182),6	110,(12, 151),6	116,(12, 177),6	134,(12, 159),3	146,(12, 101),3	152,(12, 51),6	158,(12, 171),3	167,(12, 82),6	185,(12, 38),9	212,(12, 32),9	230,(12, 174),12	242,(12, 193),3	266,(12, 148),12	278,(12, 96),12	290,(12, 123),9	302,(12, 56),12	356,(12, 36),3	416,(12, 186),15	431,(12, 165),12	482,(12, 190),18	500,(12, 34),21	521,(12, 73),12	542,(12, 85),24	566,(12, 39),27	593,(12, 107),21	752,(12, 25),36	788,(12, 46),45	878,(12, 92),48	926,(12, 117),48	1025,(12, 129),51	1076,(12, 196),24	1130,(12, 84),57	1247,(12, 98),57	1601,(12, 63),12	1886,(12, 49),33	2042,(12, 163),6	2249,(12, 118),135	2471,(161, 201),3	2477,(94, 201),3	2480,(106, 201),3	2483,(145, 201),3	2486,(164, 201),3	2492,(116, 201),3	2495,(30, 201),3	2513,(185, 201),3	2516,(126, 201),3	2519,(77, 201),3	2522,(33, 201),3	2525,(102, 201),3	2528,(22, 201),3	2531,(67, 201),3	2534,(62, 201),3	3391,(12, 136),702	







32,(11, 58),3	35,(11, 166),3	41,(11, 158),3	44,(11, 194),3	50,(11, 81),3	56,(11, 48),3	59,(11, 115),3	62,(9, 105),3	65,(9, 33),3	68,(9, 37),3	71,(11, 188),3	77,(9, 137),3	83,(9, 199),3	86,(11, 139),3	89,(11, 64),3	92,(11, 57),3	95,(9, 153),3	98,(11, 23),3	101,(11, 72),3	109,(11, 164),9	122,(9, 50),6	128,(9, 170),6	137,(11, 159),3	140,(11, 130),6	149,(11, 101),3	161,(9, 171),6	173,(11, 82),3	176,(9, 134),9	194,(9, 21),9	203,(11, 53),9	221,(9, 162),9	245,(11, 193),9	254,(11, 175),12	289,(11, 30),6	299,(11, 123),3	302,(9, 62),6	314,(11, 35),12	326,(11, 179),15	341,(9, 138),15	359,(11, 36),12	371,(9, 27),15	386,(11, 90),15	401,(11, 183),15	443,(9, 165),3	446,(9, 113),18	464,(9, 180),18	482,(9, 185),21	503,(9, 126),18	533,(11, 73),9	542,(9, 77),30	572,(11, 33),27	614,(11, 107),6	620,(9, 68),30	650,(11, 80),12	662,(9, 80),18	680,(9, 152),36	716,(11, 60),24	740,(9, 60),12	833,(9, 71),45	974,(9, 26),51	1100,(9, 196),30	1187,(9, 135),60	1304,(11, 98),6	1310,(11, 52),60	1370,(9, 52),3	1373,(9, 97),96	1469,(11, 133),114	1583,(9, 133),18	1613,(9, 63),123	1736,(11, 44),150	1919,(11, 49),117	2036,(9, 49),6	2048,(9, 163),201	2384,(11, 118),72	2456,(9, 118),6	2462,(181, 201),3	2465,(192, 201),3	2468,(109, 201),3	2474,(197, 201),3	2489,(173, 201),3	2498,(132, 201),3	2501,(191, 201),3	2504,(176, 201),3	2507,(172, 201),3	2510,(141, 201),3	3119,(75, 201),3	4304,(136, 201),3	
