2224
# CPU
109,4,10	119,24,10	129,33,10	139,74,10	149,76,10	159,73,10	169,26,10	179,47,10	189,51,10	199,39,10	1621,34,10	1645,56,10	1709,60,10	1739,22,10	1765,15,10	1775,45,10	2099,9,10	2109,68,10	2139,32,10	2157,37,10	2199,49,10	2223,81,1	
145,6,10	155,16,10	165,18,10	175,40,10	185,79,10	195,78,10	205,77,10	215,75,10	225,27,10	235,28,10	245,66,10	255,7,10	265,11,10	275,54,10	285,21,10	295,48,10	305,64,10	1763,55,10	1921,57,10	1945,20,10	
37,2,10	47,12,10	57,14,10	67,30,10	77,36,10	87,63,10	97,61,10	107,3,10	117,10,10	127,43,10	137,53,10	147,25,10	157,58,10	183,31,10	1711,65,10	1721,69,10	1733,80,10	1919,71,10	2101,52,10	2111,70,10	
0,0,1	1,8,10	11,1,10	21,5,10	31,23,10	41,35,10	51,67,10	61,38,10	71,44,10	81,13,10	91,19,10	101,62,10	111,72,10	121,29,10	131,59,10	141,50,10	1917,46,10	1953,42,10	2135,17,10	2159,41,10	
# Incoming
73,(0, 4),36	183,(8, 32),1432	1615,(8, 34),6	1621,(8, 49),4	1625,(8, 56),20	1645,(8, 60),64	1733,(1, 22),6	1739,(1, 49),14	1763,(5, 15),2	1765,(5, 45),2	1769,(23, 81),2	1771,(2, 9),142	1913,(35, 81),2	1915,(67, 81),2	1917,(38, 81),2	1919,(44, 81),2	1921,(12, 81),2	1923,(14, 81),2	1925,(30, 81),2	1927,(36, 81),2	1929,(13, 81),2	1931,(63, 81),2	1933,(19, 81),2	1935,(61, 81),2	1937,(62, 81),2	1939,(72, 81),2	1941,(29, 81),2	1943,(59, 81),2	1945,(3, 32),2	1947,(50, 81),2	1949,(46, 81),2	1953,(3, 68),20	1973,(10, 81),2	1975,(43, 81),2	1977,(53, 81),2	1979,(6, 9),120	2099,(25, 81),2	2101,(6, 68),2	2103,(58, 81),2	2105,(31, 81),2	2107,(65, 81),2	2109,(16, 81),2	2111,(18, 81),2	2113,(40, 81),2	2115,(79, 81),2	2117,(78, 81),2	2119,(77, 81),2	2121,(75, 81),2	2123,(27, 81),2	2125,(28, 81),2	2127,(66, 81),2	2129,(69, 81),2	2131,(80, 81),2	2133,(71, 81),2	2135,(7, 32),4	2139,(7, 37),18	2157,(42, 81),2	2159,(7, 49),40	2199,(11, 81),2	2201,(54, 81),2	2203,(21, 81),2	2205,(48, 81),2	2207,(64, 81),2	2209,(55, 81),2	2211,(57, 81),2	2213,(20, 81),2	2215,(52, 81),2	2217,(70, 81),2	2219,(17, 81),2	2221,(41, 81),2	
109,(0, 6),36	145,(0, 7),36	1753,(1, 55),10	1915,(2, 57),6	1937,(3, 20),8	
1,(0, 2),36	37,(0, 3),36	181,(8, 31),2	1709,(8, 65),2	1711,(8, 69),4	1715,(8, 80),18	1767,(5, 71),2	1917,(4, 71),2	2099,(6, 52),2	2103,(6, 70),6	
1913,(2, 42),2	1915,(4, 46),2	1947,(3, 42),6	2129,(7, 17),6	2157,(7, 41),2	
# Outgoing
1915,(4, 46),2	1917,(4, 71),2	
1979,(6, 9),120	2099,(6, 52),2	2101,(6, 68),2	2103,(6, 70),6	2109,(16, 81),2	2111,(18, 81),2	2113,(40, 81),2	2115,(79, 81),2	2117,(78, 81),2	2119,(77, 81),2	2121,(75, 81),2	2123,(27, 81),2	2125,(28, 81),2	2127,(66, 81),2	2129,(7, 17),6	2135,(7, 32),4	2139,(7, 37),18	2157,(7, 41),2	2159,(7, 49),40	2199,(11, 81),2	2201,(54, 81),2	2203,(21, 81),2	2205,(48, 81),2	2207,(64, 81),2	2209,(55, 81),2	2211,(57, 81),2	2213,(20, 81),2	
1771,(2, 9),142	1913,(2, 42),2	1915,(2, 57),6	1921,(12, 81),2	1923,(14, 81),2	1925,(30, 81),2	1927,(36, 81),2	1931,(63, 81),2	1935,(61, 81),2	1937,(3, 20),8	1945,(3, 32),2	1947,(3, 42),6	1953,(3, 68),20	1973,(10, 81),2	1975,(43, 81),2	1977,(53, 81),2	2099,(25, 81),2	2103,(58, 81),2	2105,(31, 81),2	2107,(65, 81),2	2129,(69, 81),2	2131,(80, 81),2	2133,(71, 81),2	2215,(52, 81),2	2217,(70, 81),2	
1,(0, 2),36	37,(0, 3),36	73,(0, 4),36	109,(0, 6),36	145,(0, 7),36	181,(8, 31),2	183,(8, 32),1432	1615,(8, 34),6	1621,(8, 49),4	1625,(8, 56),20	1645,(8, 60),64	1709,(8, 65),2	1711,(8, 69),4	1715,(8, 80),18	1733,(1, 22),6	1739,(1, 49),14	1753,(1, 55),10	1763,(5, 15),2	1765,(5, 45),2	1767,(5, 71),2	1769,(23, 81),2	1913,(35, 81),2	1915,(67, 81),2	1917,(38, 81),2	1919,(44, 81),2	1929,(13, 81),2	1933,(19, 81),2	1937,(62, 81),2	1939,(72, 81),2	1941,(29, 81),2	1943,(59, 81),2	1947,(50, 81),2	1949,(46, 81),2	2157,(42, 81),2	2219,(17, 81),2	2221,(41, 81),2	
