221
# CPU
0,0,1	1,8,3	4,5,3	7,44,3	10,1,3	13,4,3	16,2,3	19,9,3	22,48,3	25,35,3	28,39,3	31,17,3	34,3,3	37,28,3	40,10,3	43,22,3	46,29,3	49,68,3	52,7,3	55,75,3	58,43,3	61,23,3	64,34,3	67,38,3	70,11,3	73,25,3	76,55,3	79,72,3	82,65,3	85,60,3	88,69,3	91,6,3	94,12,3	97,59,3	100,80,3	103,62,3	106,67,3	109,64,3	112,53,3	115,37,3	118,71,3	121,15,3	124,63,3	127,31,3	130,20,3	133,18,3	136,24,3	139,42,3	142,70,3	145,14,3	148,50,3	151,77,3	154,19,3	157,58,3	160,45,3	163,79,3	166,74,3	169,21,3	172,26,3	175,56,3	178,49,3	181,54,3	184,27,3	187,78,3	190,41,3	193,16,3	196,57,3	199,13,3	202,33,3	205,51,3	208,40,3	211,36,3	214,52,3	217,32,3	220,81,1	
38,30,3	56,47,3	95,46,3	112,73,3	140,66,3	
57,76,3	96,61,3	

# Incoming
41,(30, 81),2	59,(47, 81),2	61,(76, 81),2	98,(46, 81),2	100,(61, 81),2	115,(73, 81),2	143,(66, 81),2	
4,(8, 30),7	11,(5, 46),1	13,(1, 30),16	29,(4, 30),1	30,(8, 47),5	35,(2, 47),1	36,(1, 46),1	37,(3, 30),1	51,(2, 46),3	55,(7, 47),1	57,(3, 46),13	91,(5, 73),2	94,(6, 46),1	96,(1, 73),14	110,(6, 73),2	112,(6, 66),28	
38,(1, 76),9	47,(4, 76),1	48,(2, 76),3	54,(1, 61),1	56,(7, 76),1	70,(8, 61),2	72,(5, 61),4	76,(4, 61),14	90,(2, 61),1	95,(6, 61),1	

# Outgoing
4,(8, 30),7	11,(5, 46),1	13,(1, 30),16	29,(4, 30),1	30,(8, 47),5	35,(2, 47),1	36,(1, 46),1	37,(3, 30),1	38,(1, 76),9	47,(4, 76),1	48,(2, 76),3	51,(2, 46),3	54,(1, 61),1	55,(7, 47),1	56,(7, 76),1	57,(3, 46),13	70,(8, 61),2	72,(5, 61),4	76,(4, 61),14	90,(2, 61),1	91,(5, 73),2	94,(6, 46),1	95,(6, 61),1	96,(1, 73),14	110,(6, 73),2	112,(6, 66),28	
41,(30, 81),2	59,(47, 81),2	98,(46, 81),2	115,(73, 81),2	143,(66, 81),2	
61,(76, 81),2	100,(61, 81),2	

