13058
# CPU
13,4,5	25,8,5	37,12,5	49,16,5	54,34,5	59,77,5	64,32,5	69,20,5	74,31,5	79,92,5	84,111,5	685,183,5	1509,200,5	1537,36,5	1697,56,5	1933,158,5	1965,64,5	2089,49,5	2385,73,5	2557,116,5	3069,140,5	3145,27,5	3181,108,5	3217,40,5	3365,54,5	3373,86,5	3461,143,5	3473,28,5	3489,66,5	3494,75,5	3505,146,5	3585,95,5	3717,167,5	4001,105,5	4009,161,5	4101,173,5	4137,118,5	4373,181,5	4461,191,5	4585,26,5	4609,29,5	4669,30,5	5057,47,5	5113,130,5	5209,137,5	5293,155,5	5613,193,5	5669,149,5	6157,52,5	6309,33,5	6421,198,5	6573,60,5	6581,62,5	6989,124,5	6994,128,5	7081,152,5	7513,189,5	7793,69,5	7869,71,5	8269,80,5	8297,83,5	8313,89,5	8437,98,5	8469,102,5	8541,122,5	8669,132,5	8697,164,5	8933,179,5	8957,195,5	11925,58,5	11941,43,5	11961,45,5	11966,114,5	11993,126,5	12045,134,5	12073,170,5	12189,177,5	12194,185,5	12217,187,5	12857,120,5	
9,3,5	14,87,5	21,7,5	26,121,5	33,11,5	45,15,5	57,19,5	62,24,5	67,153,5	2849,59,5	3349,190,5	3385,23,5	3461,99,5	3505,129,5	3593,65,5	3598,171,5	3637,48,5	3653,199,5	3789,106,5	4105,178,5	4561,93,5	4745,68,5	4781,81,5	4805,156,5	4810,168,5	5053,117,5	5097,159,5	5129,131,5	5249,197,5	5265,90,5	5289,125,5	5321,51,5	5469,119,5	5609,113,5	6189,162,5	6305,53,5	6489,35,5	6497,39,5	6529,41,5	6541,96,5	6549,44,5	6601,103,5	6637,74,5	6645,182,5	6981,109,5	7073,147,5	7517,194,5	7549,55,5	7633,25,5	7681,63,5	7761,141,5	7785,186,5	7797,70,5	7913,72,5	8145,76,5	8301,84,5	8489,144,5	8525,115,5	8633,127,5	8685,138,5	8917,175,5	8937,180,5	8953,188,5	8981,46,5	9025,57,5	9053,61,5	9081,78,5	9117,123,5	9122,133,5	9127,136,5	9133,150,5	9145,165,5	9173,184,5	9185,192,5	13057,201,1	
5,2,5	17,6,5	29,10,5	34,37,5	41,14,5	53,18,5	58,79,5	63,107,5	68,85,5	73,176,5	113,42,5	325,101,5	3529,145,5	3557,88,5	3597,142,5	3717,148,5	4025,169,5	4537,22,5	4705,151,5	4873,82,5	5073,97,5	5189,160,5	5605,38,5	5641,154,5	6425,110,5	6541,50,5	6585,166,5	6785,67,5	7317,163,5	7573,112,5	8377,91,5	8425,94,5	8521,104,5	8689,157,5	8913,172,5	8965,196,5	9129,139,5	
0,0,1	1,5,5	6,13,5	11,1,5	16,9,5	21,17,5	2941,174,5	3057,135,5	3349,100,5	3897,21,5	
# Incoming
9,(0, 4),4	14,(3, 32),4	21,(0, 8),4	25,(3, 161),8	33,(0, 12),4	37,(3, 164),4	41,(3, 181),4	45,(0, 16),4	49,(3, 200),4	53,(7, 32),4	57,(0, 20),4	61,(7, 86),4	65,(5, 31),4	69,(5, 43),4	73,(3, 36),28	113,(3, 58),96	209,(3, 60),12	221,(3, 71),44	265,(3, 86),32	321,(5, 64),8	329,(5, 66),4	333,(7, 183),4	337,(11, 40),4	341,(11, 56),4	345,(5, 86),4	349,(3, 149),48	397,(3, 152),44	441,(3, 158),20	461,(3, 198),24	485,(7, 45),44	529,(7, 64),24	553,(7, 75),16	569,(11, 49),32	601,(11, 69),28	629,(11, 75),8	637,(11, 124),20	657,(11, 130),4	661,(11, 140),8	669,(11, 146),4	673,(11, 183),12	685,(15, 27),4	689,(2, 36),16	705,(11, 198),16	721,(2, 43),164	885,(2, 45),36	921,(3, 167),240	1161,(7, 49),260	1421,(11, 200),88	1509,(15, 36),28	1537,(15, 40),4	1541,(15, 45),92	1633,(15, 56),64	1697,(15, 62),16	1713,(15, 86),4	1717,(15, 108),4	1721,(15, 122),36	1757,(15, 146),8	1765,(15, 158),168	1933,(19, 69),4	1941,(2, 64),24	1965,(15, 187),40	2005,(15, 191),24	2029,(15, 195),28	2057,(19, 49),32	2089,(19, 66),64	2153,(19, 105),24	2177,(19, 120),56	2237,(2, 118),44	2285,(2, 134),4	2289,(19, 73),96	2385,(19, 116),172	2557,(19, 149),108	2697,(2, 173),40	2773,(2, 181),24	2797,(6, 26),124	2921,(6, 33),12	2933,(6, 52),8	2941,(6, 54),24	2965,(6, 60),72	3037,(6, 130),4	3057,(6, 140),12	3069,(6, 149),4	3073,(6, 164),28	3101,(6, 185),4	3105,(10, 27),40	3145,(10, 71),12	3157,(10, 95),4	3161,(10, 108),20	3181,(10, 118),4	3185,(10, 161),20	3205,(14, 26),8	3213,(14, 40),4	3349,(14, 54),16	3365,(14, 75),4	3369,(14, 86),4	3373,(14, 114),4	3377,(14, 128),4	3385,(10, 146),72	3457,(14, 143),4	3461,(14, 187),4	3465,(18, 28),8	3473,(18, 29),4	3477,(18, 52),8	3485,(18, 66),4	3489,(18, 75),4	3493,(18, 134),4	3497,(18, 146),8	3505,(5, 130),4	3509,(14, 43),52	3561,(18, 95),24	3601,(5, 152),60	3713,(5, 167),4	3985,(18, 105),16	4001,(18, 161),8	4025,(5, 173),76	4101,(18, 118),36	4145,(5, 181),228	4373,(5, 185),20	4401,(5, 191),60	4461,(5, 195),80	4545,(13, 26),40	4585,(13, 29),24	4609,(13, 30),60	4669,(10, 187),144	4813,(14, 47),244	5109,(13, 130),4	5129,(13, 134),12	5141,(13, 137),68	5241,(13, 155),52	5313,(13, 164),4	5317,(13, 177),4	5325,(13, 187),36	5361,(13, 189),248	5609,(13, 193),4	5613,(14, 149),56	6077,(14, 52),80	6157,(18, 58),60	6217,(18, 122),84	6305,(1, 33),4	6309,(18, 198),112	6529,(1, 43),16	6549,(1, 60),24	6573,(1, 62),8	6581,(1, 69),20	6985,(1, 124),4	6989,(1, 128),4	7073,(1, 152),8	7317,(1, 164),24	7341,(1, 185),8	7349,(1, 189),164	7549,(9, 69),244	7797,(9, 71),72	8145,(9, 80),124	8269,(9, 83),28	8301,(9, 89),12	8425,(9, 98),12	8437,(9, 102),32	8525,(9, 122),16	8633,(9, 132),36	8689,(9, 164),8	8917,(9, 179),16	8953,(9, 195),4	8957,(7, 58),2968	11925,(17, 43),16	11941,(17, 45),20	11961,(17, 114),4	11965,(17, 126),28	11993,(17, 134),52	12045,(17, 170),28	12073,(17, 177),116	12189,(17, 185),4	12193,(17, 187),24	12217,(10, 120),640	
5,(0, 3),4	17,(0, 7),4	29,(0, 11),4	41,(0, 15),4	53,(0, 19),4	73,(5, 51),4	77,(5, 55),4	81,(5, 63),240	321,(2, 23),368	705,(2, 41),16	921,(2, 51),888	1809,(2, 63),132	1965,(2, 72),188	2153,(2, 76),36	2189,(2, 84),24	2213,(2, 103),24	2281,(2, 131),4	2289,(2, 144),408	2797,(4, 23),16	2813,(4, 57),32	2845,(4, 59),4	2849,(4, 61),4	2853,(4, 63),220	3073,(4, 74),4	3077,(4, 84),16	3093,(4, 96),12	3105,(4, 99),4	3109,(4, 136),28	3137,(4, 141),40	3177,(4, 178),32	3209,(4, 180),4	3213,(4, 192),4	3217,(6, 90),16	3233,(6, 93),32	3265,(6, 125),60	3325,(6, 144),4	3329,(6, 186),16	3345,(6, 190),4	3349,(8, 74),32	3381,(10, 23),4	3385,(5, 96),48	3433,(5, 99),28	3461,(8, 136),12	3473,(5, 127),4	3477,(5, 129),28	3505,(10, 51),4	3509,(5, 133),40	3549,(5, 141),8	3557,(8, 93),16	3573,(8, 141),8	3581,(8, 165),8	3589,(10, 65),4	3593,(10, 171),4	3597,(5, 147),4	3601,(10, 72),8	3609,(14, 48),28	3637,(14, 51),4	3641,(8, 199),12	3653,(18, 35),8	3661,(5, 156),4	3665,(6, 106),124	3789,(6, 131),88	3877,(6, 168),108	3985,(8, 127),28	4013,(10, 55),68	4081,(14, 76),12	4093,(18, 39),8	4101,(5, 178),4	4105,(5, 180),40	4145,(10, 113),132	4277,(10, 147),60	4337,(10, 188),52	4389,(18, 70),4	4393,(5, 188),8	4401,(18, 84),4	4405,(8, 194),28	4433,(37, 201),40	4473,(14, 63),44	4517,(18, 81),8	4525,(18, 119),4	4529,(18, 138),4	4533,(18, 182),4	4537,(12, 90),4	4541,(5, 197),4	4545,(12, 41),12	4557,(12, 93),4	4561,(14, 81),28	4589,(18, 165),8	4597,(12, 131),64	4669,(13, 57),44	4713,(13, 68),32	4745,(13, 81),36	4781,(12, 144),12	4793,(12, 156),12	4805,(12, 168),4	4809,(16, 46),4	4813,(16, 57),40	4853,(13, 96),32	4885,(8, 96),164	5049,(16, 117),4	5053,(16, 133),4	5057,(14, 186),36	5093,(16, 159),4	5097,(13, 125),8	5105,(13, 127),4	5109,(16, 184),4	5113,(13, 131),16	5129,(12, 150),84	5213,(20, 35),4	5217,(13, 147),4	5221,(14, 197),28	5249,(16, 90),16	5265,(18, 125),24	5289,(20, 78),4	5293,(13, 162),20	5313,(20, 51),8	5321,(13, 184),4	5325,(8, 119),144	5469,(10, 194),132	5605,(20, 113),4	5609,(20, 165),4	5613,(13, 194),64	5677,(10, 53),400	6077,(12, 162),112	6189,(34, 201),40	6229,(77, 201),40	6269,(20, 53),36	6309,(1, 35),180	6489,(1, 39),8	6497,(1, 41),32	6529,(20, 96),12	6545,(1, 44),4	6549,(79, 201),40	6589,(20, 103),12	6601,(1, 74),36	6637,(20, 182),8	6645,(1, 109),336	6981,(20, 188),8	6993,(1, 141),16	7009,(1, 147),64	7073,(12, 180),220	7293,(16, 70),124	7417,(107, 201),40	7457,(32, 201),40	7513,(1, 194),4	7517,(9, 55),32	7549,(85, 201),40	7589,(20, 25),44	7633,(20, 63),48	7681,(20, 136),20	7701,(20, 141),60	7761,(20, 186),24	7793,(9, 70),4	7797,(176, 201),40	7869,(9, 72),44	7913,(9, 76),232	8145,(31, 201),40	8185,(92, 201),40	8225,(111, 201),40	8297,(9, 84),4	8301,(20, 144),188	8521,(9, 115),4	8541,(9, 123),4	8545,(9, 127),88	8669,(9, 133),4	8673,(9, 138),12	8685,(42, 201),40	8725,(101, 201),40	8765,(183, 201),40	8805,(200, 201),40	8845,(36, 201),40	8913,(9, 175),4	8933,(9, 180),4	8937,(9, 188),16	8965,(17, 46),16	8981,(17, 57),44	9025,(17, 61),28	9053,(17, 78),28	9081,(17, 123),36	9117,(17, 133),4	9121,(17, 136),4	9129,(17, 150),4	9133,(17, 165),12	9145,(17, 184),28	9173,(17, 192),12	9185,(56, 201),40	9225,(158, 201),40	9265,(64, 201),40	9305,(49, 201),40	9345,(73, 201),40	9385,(116, 201),40	9425,(174, 201),40	9465,(135, 201),40	9505,(140, 201),40	9545,(27, 201),40	9585,(108, 201),40	9625,(40, 201),40	9665,(100, 201),40	9705,(54, 201),40	9745,(86, 201),40	9785,(143, 201),40	9825,(28, 201),40	9865,(66, 201),40	9905,(75, 201),40	9945,(146, 201),40	9985,(145, 201),40	10025,(88, 201),40	10065,(95, 201),40	10105,(142, 201),40	10145,(167, 201),40	10185,(148, 201),40	10225,(21, 201),40	10265,(105, 201),40	10305,(161, 201),40	10345,(169, 201),40	10385,(173, 201),40	10425,(118, 201),40	10465,(181, 201),40	10505,(191, 201),40	10545,(22, 201),40	10585,(26, 201),40	10625,(29, 201),40	10665,(30, 201),40	10705,(151, 201),40	10745,(82, 201),40	10785,(47, 201),40	10825,(97, 201),40	10865,(130, 201),40	10905,(160, 201),40	10945,(137, 201),40	10985,(155, 201),40	11025,(38, 201),40	11065,(193, 201),40	11105,(154, 201),40	11145,(149, 201),40	11185,(52, 201),40	11225,(33, 201),40	11265,(198, 201),40	11305,(110, 201),40	11345,(50, 201),40	11385,(60, 201),40	11425,(62, 201),40	11465,(166, 201),40	11505,(67, 201),40	11545,(124, 201),40	11585,(128, 201),40	11625,(152, 201),40	11665,(163, 201),40	11705,(189, 201),40	11745,(112, 201),40	11785,(69, 201),40	11825,(71, 201),40	11865,(80, 201),40	11905,(83, 201),40	11945,(89, 201),40	11985,(91, 201),40	12025,(94, 201),40	12065,(98, 201),40	12105,(102, 201),40	12145,(104, 201),40	12185,(122, 201),40	12225,(132, 201),40	12265,(164, 201),40	12305,(179, 201),40	12345,(195, 201),40	12385,(58, 201),40	12425,(43, 201),40	12465,(45, 201),40	12505,(114, 201),40	12545,(126, 201),40	12585,(134, 201),40	12625,(170, 201),40	12665,(177, 201),40	12705,(185, 201),40	12745,(187, 201),40	12857,(157, 201),40	12897,(172, 201),40	12937,(196, 201),40	12977,(139, 201),40	13017,(120, 201),40	
1,(0, 2),4	13,(0, 6),4	18,(3, 91),4	25,(0, 10),4	37,(0, 14),4	45,(11, 82),4	49,(0, 18),4	57,(15, 85),4	61,(5, 22),4	65,(7, 176),8	101,(3, 42),12	297,(3, 101),28	325,(15, 142),4	329,(19, 82),4	333,(5, 67),12	349,(5, 94),3036	3385,(4, 88),28	3413,(4, 94),36	3449,(7, 142),12	3461,(5, 104),12	3473,(7, 38),20	3493,(7, 166),28	3521,(8, 145),8	3529,(11, 88),28	3557,(5, 142),40	3597,(8, 22),44	3641,(11, 166),12	3653,(12, 38),8	3661,(12, 67),4	3665,(5, 166),48	3713,(16, 148),4	3717,(5, 169),308	4025,(4, 38),100	4125,(4, 166),220	4345,(8, 112),60	4405,(11, 112),52	4457,(12, 22),80	4537,(15, 94),12	4561,(12, 110),36	4597,(15, 104),60	4661,(12, 151),44	4705,(15, 139),16	4721,(16, 97),60	4781,(13, 91),64	4845,(13, 94),8	4853,(20, 82),20	4885,(13, 97),188	5073,(13, 112),24	5097,(15, 160),92	5209,(13, 139),8	5221,(13, 154),20	5241,(15, 67),292	5533,(16, 38),72	5605,(19, 154),36	5677,(13, 196),628	6305,(16, 110),120	6425,(19, 50),116	6541,(20, 166),44	6637,(1, 94),8	6645,(19, 67),140	6981,(1, 112),4	7081,(1, 157),4	7085,(1, 163),232	7317,(19, 112),256	8313,(9, 91),64	8377,(9, 94),48	8469,(9, 104),52	8685,(9, 157),4	8697,(9, 172),216	8957,(9, 196),8	9125,(17, 139),4	
2737,(2, 174),36	2773,(4, 21),24	2797,(7, 21),124	2921,(7, 174),20	2941,(11, 100),16	2957,(11, 135),4	2961,(19, 21),68	3041,(6, 135),16	3057,(15, 100),292	3717,(20, 21),180	
# Outgoing
2773,(4, 21),24	2797,(4, 23),16	2813,(4, 57),32	2845,(4, 59),4	2849,(4, 61),4	2853,(4, 63),220	3073,(4, 74),4	3077,(4, 84),16	3093,(4, 96),12	3105,(4, 99),4	3109,(4, 136),28	3137,(4, 141),40	3177,(4, 178),32	3209,(4, 180),4	3213,(4, 192),4	3349,(8, 74),32	3385,(4, 88),28	3413,(4, 94),36	3461,(8, 136),12	3521,(8, 145),8	3557,(8, 93),16	3573,(8, 141),8	3581,(8, 165),8	3597,(8, 22),44	3641,(8, 199),12	3653,(12, 38),8	3661,(12, 67),4	3713,(16, 148),4	3717,(20, 21),180	3985,(8, 127),28	4025,(4, 38),100	4125,(4, 166),220	4345,(8, 112),60	4405,(8, 194),28	4457,(12, 22),80	4537,(12, 90),4	4545,(12, 41),12	4557,(12, 93),4	4561,(12, 110),36	4597,(12, 131),64	4661,(12, 151),44	4721,(16, 97),60	4781,(12, 144),12	4793,(12, 156),12	4805,(12, 168),4	4809,(16, 46),4	4813,(16, 57),40	4853,(20, 82),20	4885,(8, 96),164	5049,(16, 117),4	5053,(16, 133),4	5093,(16, 159),4	5109,(16, 184),4	5129,(12, 150),84	5213,(20, 35),4	5249,(16, 90),16	5289,(20, 78),4	5313,(20, 51),8	5325,(8, 119),144	5533,(16, 38),72	5605,(20, 113),4	5609,(20, 165),4	6077,(12, 162),112	6189,(34, 201),40	6229,(77, 201),40	6269,(20, 53),36	6305,(16, 110),120	6529,(20, 96),12	6541,(20, 166),44	6589,(20, 103),12	6637,(20, 182),8	6981,(20, 188),8	7073,(12, 180),220	7293,(16, 70),124	7457,(32, 201),40	7589,(20, 25),44	7633,(20, 63),48	7681,(20, 136),20	7701,(20, 141),60	7761,(20, 186),24	8145,(31, 201),40	8185,(92, 201),40	8225,(111, 201),40	8301,(20, 144),188	8765,(183, 201),40	8805,(200, 201),40	8845,(36, 201),40	9185,(56, 201),40	9225,(158, 201),40	9265,(64, 201),40	9305,(49, 201),40	9345,(73, 201),40	9385,(116, 201),40	9505,(140, 201),40	9545,(27, 201),40	9585,(108, 201),40	9625,(40, 201),40	9705,(54, 201),40	9745,(86, 201),40	9785,(143, 201),40	9825,(28, 201),40	9865,(66, 201),40	9905,(75, 201),40	9945,(146, 201),40	10065,(95, 201),40	10145,(167, 201),40	10265,(105, 201),40	10305,(161, 201),40	10385,(173, 201),40	10425,(118, 201),40	10465,(181, 201),40	10505,(191, 201),40	10585,(26, 201),40	10625,(29, 201),40	10665,(30, 201),40	10785,(47, 201),40	10865,(130, 201),40	10945,(137, 201),40	10985,(155, 201),40	11065,(193, 201),40	11145,(149, 201),40	11185,(52, 201),40	11225,(33, 201),40	11265,(198, 201),40	11385,(60, 201),40	11425,(62, 201),40	11545,(124, 201),40	11585,(128, 201),40	11625,(152, 201),40	11705,(189, 201),40	11785,(69, 201),40	11825,(71, 201),40	11865,(80, 201),40	11905,(83, 201),40	11945,(89, 201),40	12065,(98, 201),40	12105,(102, 201),40	12185,(122, 201),40	12225,(132, 201),40	12265,(164, 201),40	12305,(179, 201),40	12345,(195, 201),40	12385,(58, 201),40	12425,(43, 201),40	12465,(45, 201),40	12505,(114, 201),40	12545,(126, 201),40	12585,(134, 201),40	12625,(170, 201),40	12665,(177, 201),40	12705,(185, 201),40	12745,(187, 201),40	13017,(120, 201),40	
14,(3, 32),4	18,(3, 91),4	25,(3, 161),8	37,(3, 164),4	41,(3, 181),4	45,(11, 82),4	49,(3, 200),4	53,(7, 32),4	57,(15, 85),4	61,(7, 86),4	65,(7, 176),8	73,(3, 36),28	101,(3, 42),12	113,(3, 58),96	209,(3, 60),12	221,(3, 71),44	265,(3, 86),32	297,(3, 101),28	325,(15, 142),4	329,(19, 82),4	333,(7, 183),4	337,(11, 40),4	341,(11, 56),4	349,(3, 149),48	397,(3, 152),44	441,(3, 158),20	461,(3, 198),24	485,(7, 45),44	529,(7, 64),24	553,(7, 75),16	569,(11, 49),32	601,(11, 69),28	629,(11, 75),8	637,(11, 124),20	657,(11, 130),4	661,(11, 140),8	669,(11, 146),4	673,(11, 183),12	685,(15, 27),4	705,(11, 198),16	921,(3, 167),240	1161,(7, 49),260	1421,(11, 200),88	1509,(15, 36),28	1537,(15, 40),4	1541,(15, 45),92	1633,(15, 56),64	1697,(15, 62),16	1713,(15, 86),4	1717,(15, 108),4	1721,(15, 122),36	1757,(15, 146),8	1765,(15, 158),168	1933,(19, 69),4	1965,(15, 187),40	2005,(15, 191),24	2029,(15, 195),28	2057,(19, 49),32	2089,(19, 66),64	2153,(19, 105),24	2177,(19, 120),56	2289,(19, 73),96	2385,(19, 116),172	2557,(19, 149),108	2797,(7, 21),124	2921,(7, 174),20	2941,(11, 100),16	2957,(11, 135),4	2961,(19, 21),68	3057,(15, 100),292	3449,(7, 142),12	3473,(7, 38),20	3493,(7, 166),28	3529,(11, 88),28	3641,(11, 166),12	4405,(11, 112),52	4537,(15, 94),12	4597,(15, 104),60	4705,(15, 139),16	5097,(15, 160),92	5241,(15, 67),292	5605,(19, 154),36	6425,(19, 50),116	6645,(19, 67),140	7317,(19, 112),256	8957,(7, 58),2968	
321,(2, 23),368	689,(2, 36),16	705,(2, 41),16	721,(2, 43),164	885,(2, 45),36	921,(2, 51),888	1809,(2, 63),132	1941,(2, 64),24	1965,(2, 72),188	2153,(2, 76),36	2189,(2, 84),24	2213,(2, 103),24	2237,(2, 118),44	2281,(2, 131),4	2285,(2, 134),4	2289,(2, 144),408	2697,(2, 173),40	2737,(2, 174),36	2773,(2, 181),24	2797,(6, 26),124	2921,(6, 33),12	2933,(6, 52),8	2941,(6, 54),24	2965,(6, 60),72	3037,(6, 130),4	3041,(6, 135),16	3057,(6, 140),12	3069,(6, 149),4	3073,(6, 164),28	3101,(6, 185),4	3105,(10, 27),40	3145,(10, 71),12	3157,(10, 95),4	3161,(10, 108),20	3181,(10, 118),4	3185,(10, 161),20	3205,(14, 26),8	3213,(14, 40),4	3217,(6, 90),16	3233,(6, 93),32	3265,(6, 125),60	3325,(6, 144),4	3329,(6, 186),16	3345,(6, 190),4	3349,(14, 54),16	3365,(14, 75),4	3369,(14, 86),4	3373,(14, 114),4	3377,(14, 128),4	3381,(10, 23),4	3385,(10, 146),72	3457,(14, 143),4	3461,(14, 187),4	3465,(18, 28),8	3473,(18, 29),4	3477,(18, 52),8	3485,(18, 66),4	3489,(18, 75),4	3493,(18, 134),4	3497,(18, 146),8	3505,(10, 51),4	3509,(14, 43),52	3561,(18, 95),24	3589,(10, 65),4	3593,(10, 171),4	3601,(10, 72),8	3609,(14, 48),28	3637,(14, 51),4	3653,(18, 35),8	3665,(6, 106),124	3789,(6, 131),88	3877,(6, 168),108	3985,(18, 105),16	4001,(18, 161),8	4013,(10, 55),68	4081,(14, 76),12	4093,(18, 39),8	4101,(18, 118),36	4145,(10, 113),132	4277,(10, 147),60	4337,(10, 188),52	4389,(18, 70),4	4401,(18, 84),4	4433,(37, 201),40	4473,(14, 63),44	4517,(18, 81),8	4525,(18, 119),4	4529,(18, 138),4	4533,(18, 182),4	4561,(14, 81),28	4589,(18, 165),8	4669,(10, 187),144	4813,(14, 47),244	5057,(14, 186),36	5221,(14, 197),28	5265,(18, 125),24	5469,(10, 194),132	5613,(14, 149),56	5677,(10, 53),400	6077,(14, 52),80	6157,(18, 58),60	6217,(18, 122),84	6309,(18, 198),112	6549,(79, 201),40	7417,(107, 201),40	7549,(85, 201),40	7797,(176, 201),40	8685,(42, 201),40	8725,(101, 201),40	9985,(145, 201),40	10025,(88, 201),40	10105,(142, 201),40	10185,(148, 201),40	10345,(169, 201),40	10545,(22, 201),40	10705,(151, 201),40	10745,(82, 201),40	10825,(97, 201),40	10905,(160, 201),40	11025,(38, 201),40	11105,(154, 201),40	11305,(110, 201),40	11345,(50, 201),40	11465,(166, 201),40	11505,(67, 201),40	11665,(163, 201),40	11745,(112, 201),40	11985,(91, 201),40	12025,(94, 201),40	12145,(104, 201),40	12217,(10, 120),640	12857,(157, 201),40	12897,(172, 201),40	12937,(196, 201),40	12977,(139, 201),40	
1,(0, 2),4	5,(0, 3),4	9,(0, 4),4	13,(0, 6),4	17,(0, 7),4	21,(0, 8),4	25,(0, 10),4	29,(0, 11),4	33,(0, 12),4	37,(0, 14),4	41,(0, 15),4	45,(0, 16),4	49,(0, 18),4	53,(0, 19),4	57,(0, 20),4	61,(5, 22),4	65,(5, 31),4	69,(5, 43),4	73,(5, 51),4	77,(5, 55),4	81,(5, 63),240	321,(5, 64),8	329,(5, 66),4	333,(5, 67),12	345,(5, 86),4	349,(5, 94),3036	3385,(5, 96),48	3433,(5, 99),28	3461,(5, 104),12	3473,(5, 127),4	3477,(5, 129),28	3505,(5, 130),4	3509,(5, 133),40	3549,(5, 141),8	3557,(5, 142),40	3597,(5, 147),4	3601,(5, 152),60	3661,(5, 156),4	3665,(5, 166),48	3713,(5, 167),4	3717,(5, 169),308	4025,(5, 173),76	4101,(5, 178),4	4105,(5, 180),40	4145,(5, 181),228	4373,(5, 185),20	4393,(5, 188),8	4401,(5, 191),60	4461,(5, 195),80	4541,(5, 197),4	4545,(13, 26),40	4585,(13, 29),24	4609,(13, 30),60	4669,(13, 57),44	4713,(13, 68),32	4745,(13, 81),36	4781,(13, 91),64	4845,(13, 94),8	4853,(13, 96),32	4885,(13, 97),188	5073,(13, 112),24	5097,(13, 125),8	5105,(13, 127),4	5109,(13, 130),4	5113,(13, 131),16	5129,(13, 134),12	5141,(13, 137),68	5209,(13, 139),8	5217,(13, 147),4	5221,(13, 154),20	5241,(13, 155),52	5293,(13, 162),20	5313,(13, 164),4	5317,(13, 177),4	5321,(13, 184),4	5325,(13, 187),36	5361,(13, 189),248	5609,(13, 193),4	5613,(13, 194),64	5677,(13, 196),628	6305,(1, 33),4	6309,(1, 35),180	6489,(1, 39),8	6497,(1, 41),32	6529,(1, 43),16	6545,(1, 44),4	6549,(1, 60),24	6573,(1, 62),8	6581,(1, 69),20	6601,(1, 74),36	6637,(1, 94),8	6645,(1, 109),336	6981,(1, 112),4	6985,(1, 124),4	6989,(1, 128),4	6993,(1, 141),16	7009,(1, 147),64	7073,(1, 152),8	7081,(1, 157),4	7085,(1, 163),232	7317,(1, 164),24	7341,(1, 185),8	7349,(1, 189),164	7513,(1, 194),4	7517,(9, 55),32	7549,(9, 69),244	7793,(9, 70),4	7797,(9, 71),72	7869,(9, 72),44	7913,(9, 76),232	8145,(9, 80),124	8269,(9, 83),28	8297,(9, 84),4	8301,(9, 89),12	8313,(9, 91),64	8377,(9, 94),48	8425,(9, 98),12	8437,(9, 102),32	8469,(9, 104),52	8521,(9, 115),4	8525,(9, 122),16	8541,(9, 123),4	8545,(9, 127),88	8633,(9, 132),36	8669,(9, 133),4	8673,(9, 138),12	8685,(9, 157),4	8689,(9, 164),8	8697,(9, 172),216	8913,(9, 175),4	8917,(9, 179),16	8933,(9, 180),4	8937,(9, 188),16	8953,(9, 195),4	8957,(9, 196),8	8965,(17, 46),16	8981,(17, 57),44	9025,(17, 61),28	9053,(17, 78),28	9081,(17, 123),36	9117,(17, 133),4	9121,(17, 136),4	9125,(17, 139),4	9129,(17, 150),4	9133,(17, 165),12	9145,(17, 184),28	9173,(17, 192),12	9425,(174, 201),40	9465,(135, 201),40	9665,(100, 201),40	10225,(21, 201),40	11925,(17, 43),16	11941,(17, 45),20	11961,(17, 114),4	11965,(17, 126),28	11993,(17, 134),52	12045,(17, 170),28	12073,(17, 177),116	12189,(17, 185),4	12193,(17, 187),24	
