942
# CPU
189,12,1	
173,11,1	
69,10,1	87,20,1	
63,9,1	85,19,1	
103,8,1	165,18,1	
47,7,1	205,17,1	
211,6,1	213,16,1	
39,5,1	73,15,1	
25,2,1	26,14,1	27,4,1	
0,0,1	1,1,1	2,3,1	71,13,1	941,21,1	
# Incoming
173,(1, 12),8	181,(2, 12),8	
101,(1, 11),72	
63,(2, 10),6	85,(2, 20),2	
39,(2, 9),24	73,(2, 19),12	
47,(1, 8),54	101,(2, 8),2	103,(2, 18),62	
31,(1, 7),16	203,(1, 17),2	
181,(1, 16),22	203,(2, 6),8	211,(2, 16),2	
27,(1, 5),4	31,(2, 5),8	71,(2, 15),2	
1,(0, 2),24	25,(1, 4),2	
69,(2, 13),2	71,(5, 21),52	123,(7, 21),52	213,(14, 21),52	265,(4, 21),52	317,(9, 21),52	369,(10, 21),52	421,(15, 21),52	473,(19, 21),52	525,(20, 21),52	577,(8, 21),52	629,(18, 21),52	681,(11, 21),52	733,(12, 21),52	785,(17, 21),52	837,(6, 21),52	889,(16, 21),52	
# Outgoing
733,(12, 21),52	
681,(11, 21),52	
369,(10, 21),52	525,(20, 21),52	
317,(9, 21),52	473,(19, 21),52	
577,(8, 21),52	629,(18, 21),52	
123,(7, 21),52	785,(17, 21),52	
837,(6, 21),52	889,(16, 21),52	
71,(5, 21),52	421,(15, 21),52	
31,(2, 5),8	39,(2, 9),24	63,(2, 10),6	69,(2, 13),2	71,(2, 15),2	73,(2, 19),12	85,(2, 20),2	101,(2, 8),2	103,(2, 18),62	181,(2, 12),8	203,(2, 6),8	211,(2, 16),2	213,(14, 21),52	265,(4, 21),52	
1,(0, 2),24	25,(1, 4),2	27,(1, 5),4	31,(1, 7),16	47,(1, 8),54	101,(1, 11),72	173,(1, 12),8	181,(1, 16),22	203,(1, 17),2	
