3402
# CPU
19,4,1	37,8,1	47,96,1	55,12,1	56,116,1	57,36,1	58,84,1	111,108,1	175,24,1	215,44,1	227,56,1	255,80,1	267,52,1	469,64,1	477,72,1	479,76,1	555,120,1	595,48,1	615,16,1	619,20,1	623,28,1	627,32,1	663,68,1	713,88,1	731,40,1	775,92,1	779,100,1	807,104,1	1015,112,1	1875,60,1	
13,3,1	31,7,1	32,79,1	33,107,1	34,91,1	49,11,1	359,15,1	363,43,1	373,103,1	483,35,1	497,23,1	593,39,1	611,63,1	663,67,1	669,71,1	729,19,1	735,51,1	777,99,1	833,115,1	1103,31,1	1105,55,1	1113,59,1	1137,95,1	1145,111,1	1151,119,1	1179,27,1	1275,83,1	1433,47,1	1879,87,1	1989,75,1	
7,2,1	25,6,1	26,82,1	43,10,1	44,90,1	163,42,1	383,94,1	419,114,1	561,30,1	591,38,1	601,46,1	741,66,1	745,78,1	769,86,1	943,54,1	951,22,1	1051,58,1	1091,98,1	1179,74,1	1221,18,1	1247,26,1	1257,70,1	1267,110,1	1269,50,1	1273,62,1	1285,106,1	1429,102,1	1541,14,1	1591,34,1	1901,118,1	
0,0,1	1,9,1	2,5,1	3,1,1	4,97,1	5,29,1	6,77,1	95,69,1	123,113,1	1087,53,1	1089,101,1	1219,109,1	1303,37,1	1331,45,1	1335,13,1	1379,41,1	1381,73,1	1395,81,1	1429,33,1	1465,117,1	1515,21,1	1547,17,1	1559,25,1	1833,57,1	1847,85,1	1885,61,1	1909,65,1	1915,93,1	1997,89,1	2021,105,1	2491,49,1	3401,121,1	
# Incoming
13,(0, 4),6	21,(2, 64),2	23,(2, 88),6	29,(6, 116),2	31,(0, 8),6	43,(2, 96),4	49,(0, 12),6	55,(2, 48),24	95,(2, 92),10	105,(2, 108),6	129,(6, 72),4	133,(9, 20),2	135,(9, 24),40	175,(9, 32),34	209,(3, 44),6	215,(3, 56),12	227,(3, 64),10	237,(3, 68),16	253,(3, 80),2	255,(7, 32),4	259,(7, 52),8	267,(7, 64),2	269,(9, 72),110	379,(2, 112),36	415,(6, 64),54	469,(7, 72),8	477,(7, 76),2	479,(7, 120),2	481,(9, 120),14	495,(7, 112),4	499,(11, 32),6	505,(11, 112),6	533,(6, 120),22	555,(7, 48),40	595,(10, 16),20	615,(10, 20),4	619,(10, 28),4	623,(10, 32),4	627,(11, 68),36	675,(5, 88),38	729,(1, 40),2	769,(1, 92),6	777,(1, 100),2	799,(1, 104),8	807,(6, 112),208	1433,(10, 60),442	
7,(0, 3),6	13,(2, 19),2	17,(2, 27),4	25,(0, 7),6	31,(2, 43),12	43,(0, 11),6	49,(2, 87),4	53,(2, 95),2	55,(9, 15),64	119,(9, 19),14	133,(2, 59),40	209,(9, 35),28	237,(9, 63),20	257,(9, 71),12	337,(2, 119),12	349,(6, 15),10	359,(6, 27),2	361,(6, 43),2	363,(6, 63),8	371,(6, 103),2	373,(6, 115),2	375,(10, 19),2	377,(10, 31),2	419,(9, 115),26	469,(10, 35),14	483,(10, 67),6	495,(5, 23),2	497,(6, 99),36	591,(5, 39),2	601,(5, 51),4	605,(5, 63),6	611,(5, 67),52	663,(5, 71),6	717,(1, 19),12	731,(1, 51),4	775,(1, 99),2	807,(1, 111),2	809,(1, 115),24	1073,(4, 83),2	1075,(4, 95),10	1095,(8, 31),8	1103,(8, 55),2	1105,(8, 59),8	1113,(8, 83),22	1135,(8, 95),2	1137,(8, 111),8	1145,(8, 119),6	1151,(12, 27),28	1273,(12, 83),2	1331,(10, 47),102	1847,(12, 87),32	1909,(10, 75),80	
1,(0, 2),6	19,(0, 6),6	37,(0, 10),6	45,(3, 34),58	111,(3, 42),52	171,(3, 70),6	177,(3, 98),6	183,(7, 18),2	185,(7, 22),2	187,(7, 98),12	199,(11, 30),2	201,(11, 62),6	269,(7, 94),36	305,(11, 102),22	379,(9, 74),2	381,(9, 94),2	383,(9, 106),2	385,(9, 114),34	445,(9, 118),36	497,(5, 26),2	499,(5, 30),62	561,(5, 34),2	563,(5, 38),28	593,(5, 46),8	669,(5, 86),6	713,(5, 102),2	715,(5, 110),2	735,(1, 58),2	737,(1, 66),4	741,(1, 78),4	745,(1, 86),24	779,(1, 102),20	799,(3, 54),144	949,(4, 22),2	951,(7, 58),100	1071,(4, 74),2	1085,(4, 98),6	1091,(7, 74),88	1179,(8, 18),42	1221,(8, 26),26	1247,(8, 70),10	1257,(8, 110),10	1267,(12, 50),2	1269,(12, 62),4	1275,(12, 106),10	1289,(8, 34),78	1395,(8, 102),34	1479,(12, 14),62	1559,(12, 34),32	1879,(12, 118),22	
15,(2, 21),2	17,(3, 13),2	19,(3, 21),2	21,(3, 25),8	29,(3, 33),16	47,(6, 49),2	79,(2, 69),16	103,(3, 41),8	111,(2, 113),12	123,(2, 117),6	163,(3, 49),4	167,(3, 65),4	173,(2, 93),88	261,(2, 101),76	337,(3, 53),10	347,(3, 85),10	357,(3, 101),2	359,(3, 109),16	375,(4, 13),574	949,(11, 61),2	951,(4, 25),64	1015,(4, 33),4	1019,(4, 73),52	1071,(82, 121),14	1085,(10, 53),2	1087,(10, 101),2	1089,(10, 117),2	1091,(4, 105),2	1093,(4, 109),2	1095,(6, 93),86	1181,(6, 109),38	1219,(7, 17),24	1243,(79, 121),14	1257,(107, 121),14	1271,(91, 121),14	1285,(8, 13),4	1289,(10, 37),14	1303,(10, 45),28	1331,(11, 13),4	1335,(11, 65),28	1363,(11, 117),2	1367,(8, 41),12	1379,(8, 73),2	1381,(8, 81),14	1395,(11, 33),34	1429,(8, 117),36	1465,(96, 121),14	1479,(11, 21),36	1515,(15, 121),14	1541,(12, 17),6	1547,(12, 25),12	1559,(43, 121),14	1573,(103, 121),14	1591,(12, 57),242	1833,(12, 85),14	1847,(35, 121),14	1861,(23, 121),14	1875,(10, 61),10	1885,(10, 65),24	1909,(12, 93),6	1915,(116, 121),14	1929,(36, 121),14	1943,(84, 121),14	1957,(108, 121),14	1971,(24, 121),14	1989,(10, 89),8	1997,(10, 105),24	2021,(90, 121),14	2035,(11, 49),456	2491,(42, 121),14	2505,(44, 121),14	2519,(56, 121),14	2533,(80, 121),14	2547,(52, 121),14	2561,(94, 121),14	2575,(114, 121),14	2589,(64, 121),14	2603,(72, 121),14	2617,(76, 121),14	2631,(120, 121),14	2645,(30, 121),14	2659,(38, 121),14	2673,(39, 121),14	2687,(48, 121),14	2701,(46, 121),14	2715,(63, 121),14	2729,(16, 121),14	2743,(20, 121),14	2757,(28, 121),14	2771,(32, 121),14	2785,(67, 121),14	2799,(68, 121),14	2813,(71, 121),14	2827,(88, 121),14	2841,(19, 121),14	2855,(40, 121),14	2869,(51, 121),14	2883,(66, 121),14	2897,(78, 121),14	2911,(86, 121),14	2925,(92, 121),14	2939,(99, 121),14	2953,(100, 121),14	2967,(104, 121),14	2981,(115, 121),14	2995,(54, 121),14	3009,(22, 121),14	3023,(112, 121),14	3037,(58, 121),14	3051,(98, 121),14	3065,(31, 121),14	3079,(55, 121),14	3093,(59, 121),14	3107,(95, 121),14	3121,(111, 121),14	3135,(119, 121),14	3149,(74, 121),14	3163,(27, 121),14	3177,(18, 121),14	3191,(26, 121),14	3205,(70, 121),14	3219,(110, 121),14	3233,(50, 121),14	3247,(62, 121),14	3261,(83, 121),14	3275,(106, 121),14	3289,(102, 121),14	3303,(47, 121),14	3317,(14, 121),14	3331,(34, 121),14	3345,(60, 121),14	3359,(87, 121),14	3373,(118, 121),14	3387,(75, 121),14	
# Outgoing
375,(4, 13),574	949,(4, 22),2	951,(4, 25),64	1015,(4, 33),4	1019,(4, 73),52	1071,(4, 74),2	1073,(4, 83),2	1075,(4, 95),10	1085,(4, 98),6	1091,(4, 105),2	1093,(4, 109),2	1095,(8, 31),8	1103,(8, 55),2	1105,(8, 59),8	1113,(8, 83),22	1135,(8, 95),2	1137,(8, 111),8	1145,(8, 119),6	1151,(12, 27),28	1179,(8, 18),42	1221,(8, 26),26	1247,(8, 70),10	1257,(8, 110),10	1267,(12, 50),2	1269,(12, 62),4	1273,(12, 83),2	1275,(12, 106),10	1285,(8, 13),4	1289,(8, 34),78	1367,(8, 41),12	1379,(8, 73),2	1381,(8, 81),14	1395,(8, 102),34	1429,(8, 117),36	1465,(96, 121),14	1479,(12, 14),62	1541,(12, 17),6	1547,(12, 25),12	1559,(12, 34),32	1591,(12, 57),242	1833,(12, 85),14	1847,(12, 87),32	1879,(12, 118),22	1909,(12, 93),6	1915,(116, 121),14	1929,(36, 121),14	1943,(84, 121),14	1957,(108, 121),14	1971,(24, 121),14	2505,(44, 121),14	2519,(56, 121),14	2533,(80, 121),14	2547,(52, 121),14	2589,(64, 121),14	2603,(72, 121),14	2617,(76, 121),14	2631,(120, 121),14	2687,(48, 121),14	2729,(16, 121),14	2743,(20, 121),14	2757,(28, 121),14	2771,(32, 121),14	2799,(68, 121),14	2827,(88, 121),14	2855,(40, 121),14	2925,(92, 121),14	2953,(100, 121),14	2967,(104, 121),14	3023,(112, 121),14	3345,(60, 121),14	
17,(3, 13),2	19,(3, 21),2	21,(3, 25),8	29,(3, 33),16	45,(3, 34),58	103,(3, 41),8	111,(3, 42),52	163,(3, 49),4	167,(3, 65),4	171,(3, 70),6	177,(3, 98),6	183,(7, 18),2	185,(7, 22),2	187,(7, 98),12	199,(11, 30),2	201,(11, 62),6	209,(3, 44),6	215,(3, 56),12	227,(3, 64),10	237,(3, 68),16	253,(3, 80),2	255,(7, 32),4	259,(7, 52),8	267,(7, 64),2	269,(7, 94),36	305,(11, 102),22	337,(3, 53),10	347,(3, 85),10	357,(3, 101),2	359,(3, 109),16	469,(7, 72),8	477,(7, 76),2	479,(7, 120),2	495,(7, 112),4	499,(11, 32),6	505,(11, 112),6	555,(7, 48),40	627,(11, 68),36	799,(3, 54),144	949,(11, 61),2	951,(7, 58),100	1091,(7, 74),88	1219,(7, 17),24	1243,(79, 121),14	1257,(107, 121),14	1271,(91, 121),14	1331,(11, 13),4	1335,(11, 65),28	1363,(11, 117),2	1395,(11, 33),34	1479,(11, 21),36	1515,(15, 121),14	1559,(43, 121),14	1573,(103, 121),14	1847,(35, 121),14	1861,(23, 121),14	2035,(11, 49),456	2673,(39, 121),14	2715,(63, 121),14	2785,(67, 121),14	2813,(71, 121),14	2841,(19, 121),14	2869,(51, 121),14	2939,(99, 121),14	2981,(115, 121),14	3065,(31, 121),14	3079,(55, 121),14	3093,(59, 121),14	3107,(95, 121),14	3121,(111, 121),14	3135,(119, 121),14	3163,(27, 121),14	3261,(83, 121),14	3303,(47, 121),14	3359,(87, 121),14	3387,(75, 121),14	
13,(2, 19),2	15,(2, 21),2	17,(2, 27),4	21,(2, 64),2	23,(2, 88),6	29,(6, 116),2	31,(2, 43),12	43,(2, 96),4	47,(6, 49),2	49,(2, 87),4	53,(2, 95),2	55,(2, 48),24	79,(2, 69),16	95,(2, 92),10	105,(2, 108),6	111,(2, 113),12	123,(2, 117),6	129,(6, 72),4	133,(2, 59),40	173,(2, 93),88	261,(2, 101),76	337,(2, 119),12	349,(6, 15),10	359,(6, 27),2	361,(6, 43),2	363,(6, 63),8	371,(6, 103),2	373,(6, 115),2	375,(10, 19),2	377,(10, 31),2	379,(2, 112),36	415,(6, 64),54	469,(10, 35),14	483,(10, 67),6	497,(6, 99),36	533,(6, 120),22	595,(10, 16),20	615,(10, 20),4	619,(10, 28),4	623,(10, 32),4	807,(6, 112),208	1071,(82, 121),14	1085,(10, 53),2	1087,(10, 101),2	1089,(10, 117),2	1095,(6, 93),86	1181,(6, 109),38	1289,(10, 37),14	1303,(10, 45),28	1331,(10, 47),102	1433,(10, 60),442	1875,(10, 61),10	1885,(10, 65),24	1909,(10, 75),80	1989,(10, 89),8	1997,(10, 105),24	2021,(90, 121),14	2491,(42, 121),14	2561,(94, 121),14	2575,(114, 121),14	2645,(30, 121),14	2659,(38, 121),14	2701,(46, 121),14	2883,(66, 121),14	2897,(78, 121),14	2911,(86, 121),14	2995,(54, 121),14	3009,(22, 121),14	3037,(58, 121),14	3051,(98, 121),14	3149,(74, 121),14	3177,(18, 121),14	3191,(26, 121),14	3205,(70, 121),14	3219,(110, 121),14	3233,(50, 121),14	3247,(62, 121),14	3275,(106, 121),14	3289,(102, 121),14	3317,(14, 121),14	3331,(34, 121),14	3373,(118, 121),14	
1,(0, 2),6	7,(0, 3),6	13,(0, 4),6	19,(0, 6),6	25,(0, 7),6	31,(0, 8),6	37,(0, 10),6	43,(0, 11),6	49,(0, 12),6	55,(9, 15),64	119,(9, 19),14	133,(9, 20),2	135,(9, 24),40	175,(9, 32),34	209,(9, 35),28	237,(9, 63),20	257,(9, 71),12	269,(9, 72),110	379,(9, 74),2	381,(9, 94),2	383,(9, 106),2	385,(9, 114),34	419,(9, 115),26	445,(9, 118),36	481,(9, 120),14	495,(5, 23),2	497,(5, 26),2	499,(5, 30),62	561,(5, 34),2	563,(5, 38),28	591,(5, 39),2	593,(5, 46),8	601,(5, 51),4	605,(5, 63),6	611,(5, 67),52	663,(5, 71),6	669,(5, 86),6	675,(5, 88),38	713,(5, 102),2	715,(5, 110),2	717,(1, 19),12	729,(1, 40),2	731,(1, 51),4	735,(1, 58),2	737,(1, 66),4	741,(1, 78),4	745,(1, 86),24	769,(1, 92),6	775,(1, 99),2	777,(1, 100),2	779,(1, 102),20	799,(1, 104),8	807,(1, 111),2	809,(1, 115),24	
