80
# CPU
0,0,1	1,4,1	2,19,1	3,33,1	4,31,1	5,16,1	6,12,1	7,8,1	8,14,1	9,37,1	10,58,1	11,23,1	12,38,1	13,57,1	14,34,1	15,27,1	16,75,1	17,6,1	18,18,1	19,29,1	20,55,1	21,72,1	22,77,1	23,78,1	24,3,1	25,49,1	26,42,1	27,64,1	28,32,1	29,46,1	30,45,1	31,70,1	32,1,1	33,39,1	34,40,1	35,73,1	36,10,1	37,20,1	38,24,1	39,22,1	40,52,1	41,47,1	42,56,1	43,51,1	44,74,1	45,2,1	46,44,1	47,41,1	48,65,1	49,59,1	50,30,1	51,66,1	52,76,1	53,67,1	54,7,1	55,9,1	56,43,1	57,53,1	58,28,1	59,50,1	60,17,1	61,63,1	62,11,1	63,15,1	64,26,1	65,36,1	66,71,1	67,60,1	68,13,1	69,5,1	70,21,1	71,35,1	72,61,1	73,80,1	74,25,1	75,68,1	76,48,1	77,54,1	78,69,1	79,81,1	
20,62,1	35,79,1	



# Incoming
21,(62, 81),12	36,(79, 81),12	
18,(6, 62),2	33,(1, 79),2	



# Outgoing
18,(6, 62),2	33,(1, 79),2	
21,(62, 81),12	36,(79, 81),12	



