154
# CPU
0,0,1	1,2,11	12,4,11	23,14,11	34,9,11	45,18,11	
13,1,11	24,11,11	35,19,11	46,7,11	57,3,11	68,20,11	79,10,11	90,12,11	101,17,11	153,21,1	
17,8,11	28,15,11	44,6,11	
21,13,11	32,16,11	
33,5,11	
# Incoming

1,(0, 1),12	33,(4, 21),12	45,(8, 21),12	57,(13, 21),12	69,(14, 21),12	81,(15, 21),12	93,(16, 21),12	105,(5, 21),12	117,(9, 21),12	129,(6, 21),12	141,(18, 21),12	
13,(2, 8),4	24,(1, 15),4	32,(1, 6),12	
17,(2, 13),4	28,(1, 16),4	
21,(2, 5),12	
# Outgoing
1,(0, 1),12	13,(2, 8),4	17,(2, 13),4	21,(2, 5),12	33,(4, 21),12	69,(14, 21),12	117,(9, 21),12	141,(18, 21),12	
24,(1, 15),4	28,(1, 16),4	32,(1, 6),12	
45,(8, 21),12	81,(15, 21),12	129,(6, 21),12	
57,(13, 21),12	93,(16, 21),12	
105,(5, 21),12	
