258
# CPU
37,7,11	48,15,11	59,19,11	85,20,11	109,5,11	133,9,11	144,13,11	257,21,1	
13,2,11	24,4,11	35,14,11	46,18,11	57,8,11	68,6,11	79,11,11	90,16,11	
0,0,1	1,1,11	12,3,11	23,12,11	34,10,11	45,17,11	
# Incoming
25,(1, 7),12	41,(1, 15),4	49,(1, 19),4	53,(1, 20),32	85,(3, 21),12	97,(2, 5),12	109,(2, 9),24	133,(2, 13),4	137,(12, 21),12	149,(4, 21),12	161,(10, 21),12	173,(14, 21),12	185,(17, 21),12	197,(18, 21),12	209,(8, 21),12	221,(6, 21),12	233,(11, 21),12	245,(16, 21),12	
1,(0, 2),12	13,(1, 6),12	37,(1, 11),4	45,(1, 16),4	

# Outgoing

97,(2, 5),12	109,(2, 9),24	133,(2, 13),4	149,(4, 21),12	173,(14, 21),12	197,(18, 21),12	209,(8, 21),12	221,(6, 21),12	233,(11, 21),12	245,(16, 21),12	
1,(0, 2),12	13,(1, 6),12	25,(1, 7),12	37,(1, 11),4	41,(1, 15),4	45,(1, 16),4	49,(1, 19),4	53,(1, 20),32	85,(3, 21),12	137,(12, 21),12	161,(10, 21),12	185,(17, 21),12	
