284
# CPU
0,41,1	1,8,10	11,32,10	21,22,10	31,33,10	41,40,10	51,36,10	61,35,10	71,31,10	81,9,10	91,12,10	101,20,10	111,30,10	121,11,10	131,13,10	141,7,10	151,17,10	161,37,10	171,34,10	181,25,10	191,14,10	201,16,10	211,21,10	221,10,10	231,39,10	241,26,10	251,2,10	261,3,10	271,4,10	283,0,1	
91,18,10	109,19,10	145,29,10	199,5,10	271,1,10	
55,15,10	


19,28,10	37,24,10	



73,27,10	127,6,10	163,38,10	181,23,10	
# Incoming
83,(27, 2),2	85,(28, 3),2	87,(24, 3),2	89,(15, 3),2	101,(18, 2),4	105,(18, 3),4	119,(19, 4),4	137,(6, 4),12	155,(29, 4),16	173,(38, 4),34	281,(1, 0),2	
73,(41, 18),18	91,(41, 19),18	127,(41, 29),18	181,(41, 5),18	199,(33, 1),2	201,(12, 1),4	205,(30, 1),6	211,(13, 1),10	221,(7, 1),14	235,(23, 1),36	
37,(41, 15),18	


1,(41, 28),18	19,(41, 24),18	



55,(41, 27),18	109,(41, 6),18	145,(41, 38),18	163,(41, 23),18	
# Outgoing
1,(41, 28),18	19,(41, 24),18	37,(41, 15),18	55,(41, 27),18	73,(41, 18),18	91,(41, 19),18	109,(41, 6),18	127,(41, 29),18	145,(41, 38),18	163,(41, 23),18	181,(41, 5),18	199,(33, 1),2	201,(12, 1),4	205,(30, 1),6	211,(13, 1),10	221,(7, 1),14	
101,(18, 2),4	105,(18, 3),4	119,(19, 4),4	155,(29, 4),16	281,(1, 0),2	
89,(15, 3),2	


85,(28, 3),2	87,(24, 3),2	



83,(27, 2),2	137,(6, 4),12	173,(38, 4),34	235,(23, 1),36	
