478
# CPU
0,121,1	1,57,4	5,56,4	9,78,4	13,51,4	17,80,4	21,13,4	25,91,4	29,62,4	33,93,4	37,114,4	41,25,4	45,37,4	49,68,4	53,120,4	57,43,4	61,69,4	65,61,4	69,112,4	73,66,4	77,117,4	81,42,4	85,19,4	89,111,4	93,107,4	97,35,4	101,32,4	105,110,4	109,24,4	113,76,4	117,96,4	121,53,4	125,48,4	129,55,4	133,58,4	137,87,4	141,98,4	145,18,4	149,109,4	153,65,4	157,106,4	161,79,4	165,54,4	169,31,4	173,39,4	177,30,4	181,50,4	185,113,4	189,21,4	193,108,4	197,20,4	201,118,4	205,81,4	209,94,4	213,84,4	217,63,4	221,90,4	225,82,4	229,119,4	233,64,4	237,47,4	241,92,4	245,23,4	249,100,4	253,28,4	257,104,4	261,29,4	265,14,4	269,74,4	273,44,4	277,99,4	281,49,4	285,105,4	289,77,4	293,46,4	297,70,4	301,52,4	305,22,4	309,102,4	313,83,4	317,33,4	321,86,4	325,45,4	329,67,4	333,95,4	337,72,4	341,73,4	345,97,4	349,60,4	353,34,4	357,40,4	361,41,4	365,38,4	369,75,4	373,26,4	377,101,4	381,15,4	385,16,4	389,27,4	393,71,4	397,8,4	401,116,4	405,1,4	409,85,4	413,9,4	417,103,4	421,7,4	425,2,4	429,88,4	433,17,4	437,5,4	441,36,4	445,4,4	449,89,4	453,10,4	457,115,4	461,6,4	465,3,4	469,12,4	473,11,4	477,0,1	








331,59,4	
# Incoming
335,(59, 12),8	343,(59, 11),36	








1,(121, 59),330	
# Outgoing
1,(121, 59),330	








335,(59, 12),8	343,(59, 11),36	
