8950
# CPU
0,0,1	1,4,24	25,5,24	49,1,24	73,12,24	97,3,24	121,7,24	145,2,24	169,6,24	193,11,24	217,70,24	241,115,24	265,25,24	289,23,24	313,93,24	337,44,24	361,99,24	385,33,24	409,17,24	433,95,24	457,74,24	481,76,24	505,118,24	529,30,24	553,108,24	577,81,24	601,78,24	625,22,24	653,80,24	701,21,24	749,51,24	797,26,24	849,100,24	901,41,24	953,82,24	1009,117,24	1065,113,24	1125,53,24	1185,56,24	1265,55,24	1333,107,24	1401,85,24	1469,61,24	1537,46,24	1605,66,24	1677,106,24	1749,105,24	1825,59,24	1905,89,24	1985,87,24	2065,36,24	2145,110,24	2229,62,24	2313,92,24	2397,90,24	2481,104,24	2565,42,24	2649,63,24	2737,20,24	2825,60,24	2913,14,24	3009,15,24	3105,102,24	3205,101,24	3305,31,24	3409,68,24	3517,39,24	3637,37,24	3749,65,24	3861,43,24	3981,19,24	4105,16,24	4233,72,24	4369,98,24	4525,116,24	4693,45,24	4857,28,24	5057,77,24	5257,57,24	5481,96,24	5709,119,24	5969,88,24	6241,13,24	6521,29,24	6813,52,24	7305,67,24	7813,40,24	8361,112,24	8949,121,1	
113,10,24	169,9,24	285,18,24	401,97,24	545,84,24	697,103,24	1045,83,24	1381,50,24	1605,79,24	1829,58,24	2273,34,24	2517,35,24	2761,75,24	3017,120,24	3277,32,24	3537,48,24	3945,91,24	4285,86,24	4865,73,24	5621,24,24	6305,69,24	6713,109,24	7233,38,24	8909,111,24	
57,8,24	869,94,24	1249,49,24	2041,27,24	3681,114,24	4637,47,24	5229,64,24	6017,71,24	7789,54,24	
# Incoming
81,(8, 70),4	85,(8, 115),4	89,(8, 25),4	93,(8, 23),8	101,(8, 93),12	113,(8, 44),8	121,(8, 99),8	129,(8, 33),4	133,(8, 95),4	137,(10, 70),4	141,(10, 115),4	145,(10, 25),4	149,(10, 23),8	157,(10, 93),4	161,(10, 44),12	173,(10, 99),12	185,(10, 33),4	189,(10, 76),4	193,(9, 70),4	197,(9, 115),8	205,(9, 25),8	213,(9, 23),4	217,(9, 93),4	221,(9, 44),4	225,(9, 99),4	229,(9, 33),16	245,(8, 17),8	253,(10, 17),8	261,(9, 17),12	273,(10, 95),8	281,(9, 95),16	297,(8, 74),20	317,(10, 74),8	325,(9, 74),4	329,(8, 76),28	357,(9, 76),4	361,(8, 118),4	365,(10, 118),16	381,(9, 118),16	397,(8, 30),12	409,(10, 30),4	413,(9, 30),20	433,(8, 108),8	441,(10, 108),4	445,(9, 108),28	473,(8, 81),36	509,(10, 81),4	513,(9, 81),4	517,(8, 78),4	521,(10, 78),16	537,(9, 78),24	561,(8, 22),4	565,(10, 22),36	601,(9, 22),4	605,(8, 80),40	645,(10, 80),4	649,(9, 80),4	653,(8, 21),16	669,(10, 21),28	697,(9, 21),4	701,(8, 51),4	705,(10, 51),4	709,(9, 51),40	749,(8, 26),4	753,(10, 26),40	793,(9, 26),4	797,(8, 100),16	813,(10, 100),4	817,(9, 100),32	849,(8, 41),8	857,(10, 41),4	861,(9, 41),40	901,(8, 82),8	909,(10, 82),40	949,(9, 82),4	953,(8, 117),44	997,(10, 117),8	1005,(9, 117),4	1009,(8, 113),40	1049,(10, 113),12	1061,(9, 113),4	1065,(8, 53),28	1093,(10, 53),20	1113,(9, 53),12	1125,(8, 56),12	1137,(10, 56),24	1161,(9, 56),24	1185,(8, 55),60	1245,(8, 105),4	1249,(10, 55),12	1261,(9, 55),4	1265,(8, 107),28	1293,(10, 107),36	1329,(9, 107),4	1333,(8, 85),48	1381,(10, 85),4	1385,(9, 85),16	1401,(8, 61),36	1437,(10, 61),20	1457,(9, 61),12	1469,(8, 46),8	1477,(10, 46),28	1505,(9, 46),32	1537,(8, 66),44	1581,(10, 66),20	1601,(9, 66),4	1605,(8, 106),32	1637,(10, 106),16	1653,(9, 106),24	1677,(10, 105),32	1709,(9, 105),40	1749,(8, 59),44	1793,(10, 59),4	1797,(9, 59),28	1825,(8, 89),12	1837,(10, 89),40	1877,(9, 89),28	1905,(8, 87),52	1957,(10, 87),8	1965,(9, 87),20	1985,(8, 36),28	2013,(10, 36),16	2029,(9, 36),36	2065,(8, 110),16	2081,(10, 110),60	2141,(9, 110),4	2145,(8, 62),48	2193,(10, 62),24	2217,(9, 62),12	2229,(8, 92),4	2233,(10, 92),36	2269,(9, 92),44	2313,(8, 90),64	2377,(10, 90),12	2389,(9, 90),8	2397,(8, 104),64	2461,(10, 104),16	2477,(9, 104),4	2481,(8, 42),40	2521,(10, 42),4	2525,(9, 42),40	2565,(8, 63),36	2601,(10, 63),32	2633,(9, 63),16	2649,(8, 20),16	2665,(10, 20),56	2721,(9, 20),16	2737,(8, 60),60	2797,(10, 60),8	2805,(9, 60),20	2825,(8, 14),76	2901,(10, 14),8	2909,(9, 14),4	2913,(8, 15),20	2933,(10, 15),16	2949,(9, 15),60	3009,(8, 102),16	3025,(10, 102),68	3093,(9, 102),12	3105,(8, 101),28	3133,(10, 101),28	3161,(9, 101),44	3205,(8, 31),4	3209,(10, 31),92	3301,(9, 31),4	3305,(8, 68),92	3397,(10, 68),8	3405,(9, 68),4	3409,(8, 39),4	3413,(10, 39),84	3497,(9, 39),20	3517,(9, 37),20	3537,(8, 37),4	3541,(10, 37),96	3637,(8, 65),52	3689,(10, 65),56	3745,(9, 65),4	3749,(8, 43),8	3757,(10, 43),36	3793,(9, 43),68	3861,(8, 19),88	3949,(10, 19),16	3965,(9, 19),16	3981,(8, 16),12	3993,(10, 16),4	3997,(9, 16),108	4105,(8, 72),68	4173,(10, 72),16	4189,(9, 72),44	4233,(8, 98),64	4297,(10, 98),24	4321,(9, 98),48	4369,(8, 116),4	4373,(10, 116),92	4465,(9, 116),60	4525,(8, 45),148	4673,(10, 45),8	4681,(9, 45),12	4693,(8, 28),76	4769,(10, 28),8	4777,(9, 28),80	4857,(8, 77),64	4921,(10, 77),36	4957,(9, 77),100	5057,(8, 57),48	5105,(10, 57),8	5113,(9, 57),144	5257,(8, 96),4	5261,(10, 96),20	5281,(9, 96),200	5481,(8, 119),76	5557,(10, 119),132	5689,(9, 119),20	5709,(8, 88),32	5741,(10, 88),76	5817,(9, 88),152	5969,(8, 13),4	5973,(10, 13),264	6237,(9, 13),4	6241,(8, 29),20	6261,(10, 29),76	6337,(9, 29),184	6521,(8, 52),12	6533,(10, 52),20	6553,(9, 52),260	6813,(8, 67),4	6817,(10, 67),276	7093,(9, 67),212	7305,(8, 40),24	7329,(10, 40),4	7333,(9, 40),480	7813,(8, 112),84	7897,(10, 112),4	7901,(9, 112),460	8361,(18, 121),16	8377,(97, 121),16	8393,(84, 121),16	8409,(103, 121),16	8425,(94, 121),16	8441,(83, 121),16	8457,(49, 121),16	8473,(50, 121),16	8489,(79, 121),16	8505,(58, 121),16	8521,(27, 121),16	8537,(34, 121),16	8553,(35, 121),16	8569,(75, 121),16	8585,(120, 121),16	8601,(32, 121),16	8617,(48, 121),16	8633,(114, 121),16	8649,(91, 121),16	8665,(86, 121),16	8681,(47, 121),16	8697,(73, 121),16	8713,(64, 121),16	8729,(24, 121),16	8745,(71, 121),16	8761,(69, 121),16	8777,(109, 121),16	8793,(38, 121),16	8809,(54, 121),16	8933,(111, 121),16	
57,(0, 10),56	113,(0, 9),56	169,(4, 18),24	193,(5, 18),8	201,(1, 18),8	209,(8, 18),4	213,(12, 18),40	253,(3, 18),4	257,(7, 18),4	261,(2, 18),4	265,(6, 18),4	269,(11, 18),16	285,(4, 97),8	293,(5, 97),4	297,(1, 97),20	317,(8, 97),4	321,(12, 97),4	325,(3, 97),40	365,(7, 97),4	369,(2, 97),8	377,(6, 97),20	397,(11, 97),4	401,(4, 84),4	405,(5, 84),4	409,(1, 84),16	425,(8, 84),4	429,(12, 84),4	433,(3, 84),4	437,(7, 84),92	529,(2, 84),8	537,(6, 84),4	541,(11, 84),4	545,(4, 103),8	553,(5, 103),4	557,(1, 103),20	577,(8, 103),20	597,(12, 103),16	613,(3, 103),4	617,(7, 103),8	625,(2, 103),56	681,(6, 103),12	693,(11, 103),4	697,(8, 83),4	705,(8, 50),20	725,(8, 79),12	737,(8, 34),8	745,(8, 32),4	753,(8, 35),8	761,(8, 75),8	769,(8, 120),12	781,(8, 86),16	813,(8, 91),20	833,(8, 38),4	837,(8, 111),8	869,(4, 83),8	877,(5, 83),16	893,(1, 83),4	897,(12, 83),20	917,(3, 83),4	921,(7, 83),64	985,(2, 83),20	1005,(6, 83),4	1009,(11, 83),36	1093,(8, 24),24	1137,(8, 109),36	1173,(4, 50),40	1213,(5, 50),8	1221,(1, 50),4	1225,(12, 50),4	1229,(3, 50),20	1249,(7, 50),68	1317,(2, 50),4	1321,(6, 50),56	1377,(11, 50),4	1381,(4, 79),4	1385,(5, 79),4	1389,(1, 79),8	1397,(12, 79),12	1409,(3, 79),36	1445,(7, 79),132	1577,(2, 79),4	1581,(6, 79),20	1601,(11, 79),4	1605,(4, 58),4	1609,(5, 58),32	1641,(1, 58),4	1645,(8, 58),48	1693,(12, 58),4	1697,(3, 58),36	1733,(7, 58),8	1741,(2, 58),32	1773,(6, 58),4	1777,(11, 58),52	2041,(4, 34),16	2057,(5, 34),12	2069,(1, 34),28	2097,(12, 34),12	2109,(3, 34),4	2113,(7, 34),4	2117,(2, 34),24	2141,(6, 34),40	2181,(11, 34),92	2273,(4, 35),4	2277,(5, 35),64	2341,(1, 35),4	2345,(12, 35),8	2353,(3, 35),56	2409,(7, 35),16	2425,(2, 35),84	2509,(6, 35),4	2513,(11, 35),4	2517,(4, 75),52	2569,(5, 75),4	2573,(1, 75),8	2581,(12, 75),8	2589,(3, 75),8	2597,(7, 75),24	2621,(2, 75),4	2625,(6, 75),68	2693,(11, 75),68	2761,(4, 120),88	2849,(5, 120),40	2889,(1, 120),4	2893,(12, 120),4	2897,(3, 120),4	2901,(7, 120),12	2913,(2, 120),12	2925,(6, 120),68	2993,(11, 120),24	3017,(4, 32),108	3125,(5, 32),28	3153,(1, 32),44	3197,(12, 32),8	3205,(3, 32),16	3221,(7, 32),4	3225,(2, 32),16	3241,(6, 32),20	3261,(11, 32),16	3277,(4, 48),4	3281,(5, 48),4	3285,(1, 48),4	3289,(12, 48),4	3293,(3, 48),4	3297,(7, 48),4	3301,(2, 48),32	3333,(6, 48),8	3341,(11, 48),72	3413,(8, 48),124	3681,(4, 91),20	3701,(5, 91),24	3725,(1, 91),120	3845,(12, 91),12	3857,(3, 91),4	3861,(7, 91),44	3905,(2, 91),8	3913,(6, 91),28	3941,(11, 91),4	3945,(4, 86),4	3949,(5, 86),4	3953,(1, 86),216	4169,(12, 86),12	4181,(3, 86),12	4193,(7, 86),48	4241,(2, 86),12	4253,(6, 86),28	4281,(11, 86),4	4373,(8, 73),100	4509,(4, 73),4	4513,(5, 73),112	4625,(1, 73),12	4637,(12, 73),36	4673,(3, 73),28	4701,(7, 73),24	4725,(2, 73),80	4805,(6, 73),16	4821,(11, 73),44	5229,(4, 24),48	5277,(5, 24),160	5437,(1, 24),12	5449,(12, 24),8	5457,(3, 24),48	5505,(7, 24),4	5509,(2, 24),100	5609,(6, 24),4	5613,(11, 24),8	5741,(8, 69),140	6017,(4, 69),8	6025,(5, 69),4	6029,(1, 69),16	6045,(12, 69),120	6165,(3, 69),16	6181,(7, 69),32	6213,(2, 69),12	6225,(6, 69),4	6229,(11, 69),76	6305,(4, 109),32	6337,(5, 109),24	6361,(1, 109),4	6365,(12, 109),24	6389,(3, 109),60	6449,(7, 109),112	6561,(2, 109),16	6577,(6, 109),132	6709,(11, 109),4	6713,(4, 38),20	6733,(5, 38),160	6893,(1, 38),4	6897,(12, 38),24	6921,(3, 38),88	7009,(7, 38),176	7185,(2, 38),24	7209,(6, 38),4	7213,(11, 38),20	7789,(4, 111),16	7805,(5, 111),4	7809,(1, 111),48	7857,(12, 111),4	7861,(3, 111),916	8777,(7, 111),28	8805,(2, 111),8	8813,(6, 111),8	8821,(11, 111),88	
1,(0, 8),56	209,(12, 94),4	245,(10, 94),8	297,(9, 94),16	313,(9, 49),4	317,(12, 49),4	329,(10, 27),12	341,(10, 64),8	349,(9, 64),4	353,(9, 54),4	425,(7, 49),4	473,(10, 114),32	577,(4, 94),8	585,(3, 94),8	593,(11, 49),4	605,(9, 114),28	697,(5, 94),20	717,(1, 94),24	741,(7, 94),8	749,(2, 94),16	765,(6, 94),48	813,(11, 94),56	953,(10, 47),20	1045,(4, 49),24	1069,(5, 49),8	1077,(1, 49),52	1129,(3, 49),16	1145,(2, 49),12	1157,(6, 49),16	1185,(10, 49),64	1333,(9, 27),48	1537,(10, 71),44	1645,(4, 27),28	1673,(5, 27),4	1677,(12, 27),4	1681,(3, 27),12	1829,(1, 27),24	1853,(7, 27),16	1869,(2, 27),48	1917,(6, 27),68	1985,(11, 27),56	2313,(9, 71),64	2825,(10, 54),72	3413,(4, 114),4	3417,(5, 114),32	3449,(1, 114),24	3473,(12, 114),108	3581,(3, 114),4	3585,(7, 114),8	3593,(2, 114),24	3617,(6, 114),44	3661,(11, 114),20	4285,(4, 47),28	4313,(5, 47),24	4337,(1, 47),28	4365,(12, 47),12	4377,(3, 47),44	4421,(7, 47),12	4433,(2, 47),52	4485,(6, 47),20	4505,(11, 47),4	4525,(9, 47),112	4865,(4, 64),84	4949,(5, 64),56	5005,(1, 64),8	5013,(12, 64),104	5117,(3, 64),12	5129,(7, 64),8	5137,(2, 64),32	5169,(6, 64),44	5213,(11, 64),16	5621,(4, 71),28	5649,(5, 71),4	5653,(1, 71),12	5665,(12, 71),12	5677,(3, 71),4	5681,(7, 71),140	5821,(2, 71),4	5825,(6, 71),172	5997,(11, 71),20	7233,(4, 54),56	7289,(5, 54),4	7293,(1, 54),28	7321,(12, 54),4	7325,(3, 54),288	7613,(7, 54),88	7701,(2, 54),32	7733,(6, 54),16	7749,(11, 54),40	
# Outgoing
1,(0, 8),56	57,(0, 10),56	113,(0, 9),56	169,(4, 18),24	193,(5, 18),8	201,(1, 18),8	209,(12, 94),4	213,(12, 18),40	253,(3, 18),4	257,(7, 18),4	261,(2, 18),4	265,(6, 18),4	269,(11, 18),16	285,(4, 97),8	293,(5, 97),4	297,(1, 97),20	317,(12, 49),4	321,(12, 97),4	325,(3, 97),40	365,(7, 97),4	369,(2, 97),8	377,(6, 97),20	397,(11, 97),4	401,(4, 84),4	405,(5, 84),4	409,(1, 84),16	425,(7, 49),4	429,(12, 84),4	433,(3, 84),4	437,(7, 84),92	529,(2, 84),8	537,(6, 84),4	541,(11, 84),4	545,(4, 103),8	553,(5, 103),4	557,(1, 103),20	577,(4, 94),8	585,(3, 94),8	593,(11, 49),4	597,(12, 103),16	613,(3, 103),4	617,(7, 103),8	625,(2, 103),56	681,(6, 103),12	693,(11, 103),4	697,(5, 94),20	717,(1, 94),24	741,(7, 94),8	749,(2, 94),16	765,(6, 94),48	813,(11, 94),56	869,(4, 83),8	877,(5, 83),16	893,(1, 83),4	897,(12, 83),20	917,(3, 83),4	921,(7, 83),64	985,(2, 83),20	1005,(6, 83),4	1009,(11, 83),36	1045,(4, 49),24	1069,(5, 49),8	1077,(1, 49),52	1129,(3, 49),16	1145,(2, 49),12	1157,(6, 49),16	1173,(4, 50),40	1213,(5, 50),8	1221,(1, 50),4	1225,(12, 50),4	1229,(3, 50),20	1249,(7, 50),68	1317,(2, 50),4	1321,(6, 50),56	1377,(11, 50),4	1381,(4, 79),4	1385,(5, 79),4	1389,(1, 79),8	1397,(12, 79),12	1409,(3, 79),36	1445,(7, 79),132	1577,(2, 79),4	1581,(6, 79),20	1601,(11, 79),4	1605,(4, 58),4	1609,(5, 58),32	1641,(1, 58),4	1645,(4, 27),28	1673,(5, 27),4	1677,(12, 27),4	1681,(3, 27),12	1693,(12, 58),4	1697,(3, 58),36	1733,(7, 58),8	1741,(2, 58),32	1773,(6, 58),4	1777,(11, 58),52	1829,(1, 27),24	1853,(7, 27),16	1869,(2, 27),48	1917,(6, 27),68	1985,(11, 27),56	2041,(4, 34),16	2057,(5, 34),12	2069,(1, 34),28	2097,(12, 34),12	2109,(3, 34),4	2113,(7, 34),4	2117,(2, 34),24	2141,(6, 34),40	2181,(11, 34),92	2273,(4, 35),4	2277,(5, 35),64	2341,(1, 35),4	2345,(12, 35),8	2353,(3, 35),56	2409,(7, 35),16	2425,(2, 35),84	2509,(6, 35),4	2513,(11, 35),4	2517,(4, 75),52	2569,(5, 75),4	2573,(1, 75),8	2581,(12, 75),8	2589,(3, 75),8	2597,(7, 75),24	2621,(2, 75),4	2625,(6, 75),68	2693,(11, 75),68	2761,(4, 120),88	2849,(5, 120),40	2889,(1, 120),4	2893,(12, 120),4	2897,(3, 120),4	2901,(7, 120),12	2913,(2, 120),12	2925,(6, 120),68	2993,(11, 120),24	3017,(4, 32),108	3125,(5, 32),28	3153,(1, 32),44	3197,(12, 32),8	3205,(3, 32),16	3221,(7, 32),4	3225,(2, 32),16	3241,(6, 32),20	3261,(11, 32),16	3277,(4, 48),4	3281,(5, 48),4	3285,(1, 48),4	3289,(12, 48),4	3293,(3, 48),4	3297,(7, 48),4	3301,(2, 48),32	3333,(6, 48),8	3341,(11, 48),72	3413,(4, 114),4	3417,(5, 114),32	3449,(1, 114),24	3473,(12, 114),108	3581,(3, 114),4	3585,(7, 114),8	3593,(2, 114),24	3617,(6, 114),44	3661,(11, 114),20	3681,(4, 91),20	3701,(5, 91),24	3725,(1, 91),120	3845,(12, 91),12	3857,(3, 91),4	3861,(7, 91),44	3905,(2, 91),8	3913,(6, 91),28	3941,(11, 91),4	3945,(4, 86),4	3949,(5, 86),4	3953,(1, 86),216	4169,(12, 86),12	4181,(3, 86),12	4193,(7, 86),48	4241,(2, 86),12	4253,(6, 86),28	4281,(11, 86),4	4285,(4, 47),28	4313,(5, 47),24	4337,(1, 47),28	4365,(12, 47),12	4377,(3, 47),44	4421,(7, 47),12	4433,(2, 47),52	4485,(6, 47),20	4505,(11, 47),4	4509,(4, 73),4	4513,(5, 73),112	4625,(1, 73),12	4637,(12, 73),36	4673,(3, 73),28	4701,(7, 73),24	4725,(2, 73),80	4805,(6, 73),16	4821,(11, 73),44	4865,(4, 64),84	4949,(5, 64),56	5005,(1, 64),8	5013,(12, 64),104	5117,(3, 64),12	5129,(7, 64),8	5137,(2, 64),32	5169,(6, 64),44	5213,(11, 64),16	5229,(4, 24),48	5277,(5, 24),160	5437,(1, 24),12	5449,(12, 24),8	5457,(3, 24),48	5505,(7, 24),4	5509,(2, 24),100	5609,(6, 24),4	5613,(11, 24),8	5621,(4, 71),28	5649,(5, 71),4	5653,(1, 71),12	5665,(12, 71),12	5677,(3, 71),4	5681,(7, 71),140	5821,(2, 71),4	5825,(6, 71),172	5997,(11, 71),20	6017,(4, 69),8	6025,(5, 69),4	6029,(1, 69),16	6045,(12, 69),120	6165,(3, 69),16	6181,(7, 69),32	6213,(2, 69),12	6225,(6, 69),4	6229,(11, 69),76	6305,(4, 109),32	6337,(5, 109),24	6361,(1, 109),4	6365,(12, 109),24	6389,(3, 109),60	6449,(7, 109),112	6561,(2, 109),16	6577,(6, 109),132	6709,(11, 109),4	6713,(4, 38),20	6733,(5, 38),160	6893,(1, 38),4	6897,(12, 38),24	6921,(3, 38),88	7009,(7, 38),176	7185,(2, 38),24	7209,(6, 38),4	7213,(11, 38),20	7233,(4, 54),56	7289,(5, 54),4	7293,(1, 54),28	7321,(12, 54),4	7325,(3, 54),288	7613,(7, 54),88	7701,(2, 54),32	7733,(6, 54),16	7749,(11, 54),40	7789,(4, 111),16	7805,(5, 111),4	7809,(1, 111),48	7857,(12, 111),4	7861,(3, 111),916	8777,(7, 111),28	8805,(2, 111),8	8813,(6, 111),8	8821,(11, 111),88	
137,(10, 70),4	141,(10, 115),4	145,(10, 25),4	149,(10, 23),8	157,(10, 93),4	161,(10, 44),12	173,(10, 99),12	185,(10, 33),4	189,(10, 76),4	193,(9, 70),4	197,(9, 115),8	205,(9, 25),8	213,(9, 23),4	217,(9, 93),4	221,(9, 44),4	225,(9, 99),4	229,(9, 33),16	245,(10, 94),8	253,(10, 17),8	261,(9, 17),12	273,(10, 95),8	281,(9, 95),16	297,(9, 94),16	313,(9, 49),4	317,(10, 74),8	325,(9, 74),4	329,(10, 27),12	341,(10, 64),8	349,(9, 64),4	353,(9, 54),4	357,(9, 76),4	365,(10, 118),16	381,(9, 118),16	409,(10, 30),4	413,(9, 30),20	441,(10, 108),4	445,(9, 108),28	473,(10, 114),32	509,(10, 81),4	513,(9, 81),4	521,(10, 78),16	537,(9, 78),24	565,(10, 22),36	601,(9, 22),4	605,(9, 114),28	645,(10, 80),4	649,(9, 80),4	669,(10, 21),28	697,(9, 21),4	705,(10, 51),4	709,(9, 51),40	753,(10, 26),40	793,(9, 26),4	813,(10, 100),4	817,(9, 100),32	857,(10, 41),4	861,(9, 41),40	909,(10, 82),40	949,(9, 82),4	953,(10, 47),20	997,(10, 117),8	1005,(9, 117),4	1049,(10, 113),12	1061,(9, 113),4	1093,(10, 53),20	1113,(9, 53),12	1137,(10, 56),24	1161,(9, 56),24	1185,(10, 49),64	1249,(10, 55),12	1261,(9, 55),4	1293,(10, 107),36	1329,(9, 107),4	1333,(9, 27),48	1381,(10, 85),4	1385,(9, 85),16	1437,(10, 61),20	1457,(9, 61),12	1477,(10, 46),28	1505,(9, 46),32	1537,(10, 71),44	1581,(10, 66),20	1601,(9, 66),4	1637,(10, 106),16	1653,(9, 106),24	1677,(10, 105),32	1709,(9, 105),40	1793,(10, 59),4	1797,(9, 59),28	1837,(10, 89),40	1877,(9, 89),28	1957,(10, 87),8	1965,(9, 87),20	2013,(10, 36),16	2029,(9, 36),36	2081,(10, 110),60	2141,(9, 110),4	2193,(10, 62),24	2217,(9, 62),12	2233,(10, 92),36	2269,(9, 92),44	2313,(9, 71),64	2377,(10, 90),12	2389,(9, 90),8	2461,(10, 104),16	2477,(9, 104),4	2521,(10, 42),4	2525,(9, 42),40	2601,(10, 63),32	2633,(9, 63),16	2665,(10, 20),56	2721,(9, 20),16	2797,(10, 60),8	2805,(9, 60),20	2825,(10, 54),72	2901,(10, 14),8	2909,(9, 14),4	2933,(10, 15),16	2949,(9, 15),60	3025,(10, 102),68	3093,(9, 102),12	3133,(10, 101),28	3161,(9, 101),44	3209,(10, 31),92	3301,(9, 31),4	3397,(10, 68),8	3405,(9, 68),4	3413,(10, 39),84	3497,(9, 39),20	3517,(9, 37),20	3541,(10, 37),96	3689,(10, 65),56	3745,(9, 65),4	3757,(10, 43),36	3793,(9, 43),68	3949,(10, 19),16	3965,(9, 19),16	3993,(10, 16),4	3997,(9, 16),108	4173,(10, 72),16	4189,(9, 72),44	4297,(10, 98),24	4321,(9, 98),48	4373,(10, 116),92	4465,(9, 116),60	4525,(9, 47),112	4673,(10, 45),8	4681,(9, 45),12	4769,(10, 28),8	4777,(9, 28),80	4921,(10, 77),36	4957,(9, 77),100	5105,(10, 57),8	5113,(9, 57),144	5261,(10, 96),20	5281,(9, 96),200	5557,(10, 119),132	5689,(9, 119),20	5741,(10, 88),76	5817,(9, 88),152	5973,(10, 13),264	6237,(9, 13),4	6261,(10, 29),76	6337,(9, 29),184	6533,(10, 52),20	6553,(9, 52),260	6817,(10, 67),276	7093,(9, 67),212	7329,(10, 40),4	7333,(9, 40),480	7897,(10, 112),4	7901,(9, 112),460	8361,(18, 121),16	8377,(97, 121),16	8393,(84, 121),16	8409,(103, 121),16	8441,(83, 121),16	8473,(50, 121),16	8489,(79, 121),16	8505,(58, 121),16	8537,(34, 121),16	8553,(35, 121),16	8569,(75, 121),16	8585,(120, 121),16	8601,(32, 121),16	8617,(48, 121),16	8649,(91, 121),16	8665,(86, 121),16	8697,(73, 121),16	8729,(24, 121),16	8761,(69, 121),16	8777,(109, 121),16	8793,(38, 121),16	8933,(111, 121),16	
81,(8, 70),4	85,(8, 115),4	89,(8, 25),4	93,(8, 23),8	101,(8, 93),12	113,(8, 44),8	121,(8, 99),8	129,(8, 33),4	133,(8, 95),4	209,(8, 18),4	245,(8, 17),8	297,(8, 74),20	317,(8, 97),4	329,(8, 76),28	361,(8, 118),4	397,(8, 30),12	425,(8, 84),4	433,(8, 108),8	473,(8, 81),36	517,(8, 78),4	561,(8, 22),4	577,(8, 103),20	605,(8, 80),40	653,(8, 21),16	697,(8, 83),4	701,(8, 51),4	705,(8, 50),20	725,(8, 79),12	737,(8, 34),8	745,(8, 32),4	749,(8, 26),4	753,(8, 35),8	761,(8, 75),8	769,(8, 120),12	781,(8, 86),16	797,(8, 100),16	813,(8, 91),20	833,(8, 38),4	837,(8, 111),8	849,(8, 41),8	901,(8, 82),8	953,(8, 117),44	1009,(8, 113),40	1065,(8, 53),28	1093,(8, 24),24	1125,(8, 56),12	1137,(8, 109),36	1185,(8, 55),60	1245,(8, 105),4	1265,(8, 107),28	1333,(8, 85),48	1401,(8, 61),36	1469,(8, 46),8	1537,(8, 66),44	1605,(8, 106),32	1645,(8, 58),48	1749,(8, 59),44	1825,(8, 89),12	1905,(8, 87),52	1985,(8, 36),28	2065,(8, 110),16	2145,(8, 62),48	2229,(8, 92),4	2313,(8, 90),64	2397,(8, 104),64	2481,(8, 42),40	2565,(8, 63),36	2649,(8, 20),16	2737,(8, 60),60	2825,(8, 14),76	2913,(8, 15),20	3009,(8, 102),16	3105,(8, 101),28	3205,(8, 31),4	3305,(8, 68),92	3409,(8, 39),4	3413,(8, 48),124	3537,(8, 37),4	3637,(8, 65),52	3749,(8, 43),8	3861,(8, 19),88	3981,(8, 16),12	4105,(8, 72),68	4233,(8, 98),64	4369,(8, 116),4	4373,(8, 73),100	4525,(8, 45),148	4693,(8, 28),76	4857,(8, 77),64	5057,(8, 57),48	5257,(8, 96),4	5481,(8, 119),76	5709,(8, 88),32	5741,(8, 69),140	5969,(8, 13),4	6241,(8, 29),20	6521,(8, 52),12	6813,(8, 67),4	7305,(8, 40),24	7813,(8, 112),84	8425,(94, 121),16	8457,(49, 121),16	8521,(27, 121),16	8633,(114, 121),16	8681,(47, 121),16	8713,(64, 121),16	8745,(71, 121),16	8809,(54, 121),16	
