175
# CPU
0,81,1	1,10,1	2,11,1	3,21,1	4,20,1	5,22,1	6,19,1	7,34,1	8,52,1	9,53,1	10,54,1	11,56,1	12,58,1	13,42,1	14,39,1	15,30,1	16,29,1	17,25,1	18,73,1	19,16,1	20,15,1	21,9,1	22,36,1	23,31,1	24,51,1	25,67,1	26,17,1	27,69,1	28,77,1	29,75,1	30,28,1	31,32,1	32,37,1	33,40,1	34,38,1	35,62,1	36,72,1	37,65,1	38,26,1	39,71,1	40,41,1	41,80,1	42,12,1	43,66,1	44,43,1	45,64,1	46,49,1	47,78,1	48,55,1	49,74,1	50,13,1	51,48,1	52,79,1	53,60,1	54,24,1	55,47,1	56,59,1	57,27,1	58,35,1	59,18,1	60,45,1	61,46,1	62,61,1	63,50,1	64,70,1	65,23,1	66,76,1	67,4,1	68,33,1	69,8,1	70,44,1	71,2,1	72,63,1	73,3,1	74,68,1	75,5,1	76,7,1	77,1,1	173,6,1	174,0,1	
34,14,1	67,57,1	
# Incoming
35,(14, 6),15	68,(57, 6),105	
1,(81, 14),33	34,(81, 57),33	
# Outgoing
1,(81, 14),33	34,(81, 57),33	
35,(14, 6),15	68,(57, 6),105	
