1674
# CPU
25,4,1	26,20,1	27,49,1	28,62,1	29,102,1	30,71,1	31,57,1	32,29,1	33,69,1	35,85,1	39,42,1	49,8,1	50,32,1	51,46,1	52,59,1	53,68,1	54,35,1	55,38,1	61,60,1	73,12,1	74,27,1	75,67,1	76,74,1	77,78,1	78,87,1	79,104,1	80,18,1	81,21,1	82,26,1	83,31,1	84,39,1	153,52,1	199,106,1	203,34,1	419,70,1	439,63,1	441,66,1	451,100,1	475,50,1	513,56,1	533,61,1	553,79,1	561,33,1	563,72,1	569,120,1	581,17,1	585,22,1	615,36,1	633,54,1	671,89,1	877,40,1	981,65,1	1121,80,1	1187,64,1	1309,73,1	1319,77,1	1377,96,1	1385,112,1	1433,116,1	1451,19,1	1479,30,1	1481,44,1	1483,47,1	1485,53,1	1487,76,1	1503,81,1	1507,83,1	1509,92,1	1511,94,1	1581,98,1	1583,108,1	1599,24,1	1601,28,1	1611,55,1	1613,58,1	1617,110,1	1619,114,1	1625,119,1	1629,23,1	1633,75,1	1673,121,1	
17,3,1	18,86,1	19,105,1	41,7,1	42,25,1	43,90,1	44,109,1	51,107,1	53,84,1	55,97,1	65,11,1	66,37,1	67,118,1	73,82,1	81,95,1	199,45,1	205,51,1	239,111,1	441,88,1	543,115,1	555,99,1	559,101,1	563,103,1	607,16,1	679,93,1	683,113,1	
9,2,1	33,6,1	35,14,1	57,10,1	77,43,1	205,15,1	409,91,1	1373,117,1	
0,0,1	1,5,1	2,9,1	3,1,1	26,13,1	46,48,1	1027,41,1	
# Incoming
17,(0, 4),8	25,(2, 29),2	27,(2, 55),2	29,(2, 69),2	31,(2, 75),2	33,(2, 85),2	35,(3, 24),2	37,(3, 42),2	39,(3, 110),2	41,(0, 8),8	49,(3, 60),12	61,(86, 121),2	63,(105, 121),2	65,(0, 12),8	73,(5, 18),2	75,(5, 21),2	77,(5, 26),2	79,(5, 31),2	81,(5, 39),2	83,(2, 30),38	121,(2, 52),32	153,(2, 106),46	199,(6, 34),4	203,(6, 40),2	205,(5, 54),60	265,(5, 70),154	419,(5, 76),6	425,(6, 22),10	435,(6, 53),2	437,(6, 63),2	439,(6, 66),2	441,(5, 100),10	451,(9, 28),20	471,(9, 47),2	473,(9, 50),2	475,(9, 56),38	513,(9, 61),20	533,(9, 75),2	535,(9, 79),18	553,(6, 33),8	561,(6, 72),2	563,(9, 120),6	569,(1, 17),12	581,(1, 22),4	585,(1, 36),30	615,(1, 47),4	619,(1, 54),14	633,(1, 81),8	641,(1, 89),30	671,(2, 40),206	877,(2, 65),104	981,(2, 112),122	1103,(3, 80),18	1121,(13, 121),2	1123,(6, 64),64	1187,(6, 73),122	1309,(6, 77),10	1319,(6, 96),58	1377,(6, 112),8	1385,(6, 116),48	1433,(14, 121),2	1435,(7, 19),16	1451,(7, 30),28	1479,(7, 44),2	1481,(7, 47),2	1483,(7, 53),2	1485,(7, 76),2	1487,(7, 81),16	1503,(7, 83),4	1507,(7, 92),2	1509,(7, 94),2	1511,(7, 98),70	1581,(7, 108),2	1583,(25, 121),2	1585,(90, 121),2	1587,(109, 121),2	1589,(48, 121),2	1591,(107, 121),2	1593,(84, 121),2	1595,(97, 121),2	1597,(10, 24),2	1599,(10, 28),2	1601,(10, 55),10	1611,(10, 58),2	1613,(10, 110),4	1617,(10, 114),2	1619,(10, 119),6	1625,(11, 23),4	1629,(11, 75),4	1633,(37, 121),2	1635,(118, 121),2	1637,(82, 121),2	1639,(43, 121),2	1641,(95, 121),2	1643,(45, 121),2	1645,(15, 121),2	1647,(51, 121),2	1649,(111, 121),2	1651,(91, 121),2	1653,(88, 121),2	1655,(115, 121),2	1657,(99, 121),2	1659,(101, 121),2	1661,(103, 121),2	1663,(16, 121),2	1665,(93, 121),2	1667,(113, 121),2	1669,(41, 121),2	1671,(117, 121),2	
9,(0, 3),8	26,(4, 95),2	33,(0, 7),8	41,(2, 109),2	43,(4, 107),8	51,(6, 84),2	53,(8, 97),2	57,(0, 11),8	65,(8, 82),8	73,(10, 95),8	83,(5, 45),116	199,(5, 51),6	205,(10, 111),34	409,(12, 103),2	425,(5, 88),16	441,(8, 115),102	553,(9, 99),2	555,(9, 101),4	559,(9, 103),4	563,(12, 16),44	671,(1, 93),8	679,(1, 113),4	
1,(0, 2),8	25,(0, 6),8	33,(3, 14),2	49,(0, 10),8	65,(7, 43),12	77,(8, 15),128	205,(8, 91),204	1027,(12, 117),346	
18,(3, 13),8	26,(3, 41),2	42,(7, 48),4	607,(12, 41),420	
# Outgoing
26,(4, 95),2	43,(4, 107),8	53,(8, 97),2	65,(8, 82),8	77,(8, 15),128	205,(8, 91),204	409,(12, 103),2	441,(8, 115),102	563,(12, 16),44	607,(12, 41),420	1027,(12, 117),346	
18,(3, 13),8	26,(3, 41),2	33,(3, 14),2	35,(3, 24),2	37,(3, 42),2	39,(3, 110),2	42,(7, 48),4	49,(3, 60),12	61,(86, 121),2	63,(105, 121),2	65,(7, 43),12	1103,(3, 80),18	1435,(7, 19),16	1451,(7, 30),28	1479,(7, 44),2	1481,(7, 47),2	1483,(7, 53),2	1485,(7, 76),2	1487,(7, 81),16	1503,(7, 83),4	1507,(7, 92),2	1509,(7, 94),2	1511,(7, 98),70	1581,(7, 108),2	1583,(25, 121),2	1585,(90, 121),2	1587,(109, 121),2	1591,(107, 121),2	1593,(84, 121),2	1595,(97, 121),2	1625,(11, 23),4	1629,(11, 75),4	1633,(37, 121),2	1635,(118, 121),2	1637,(82, 121),2	1641,(95, 121),2	1643,(45, 121),2	1647,(51, 121),2	1649,(111, 121),2	1653,(88, 121),2	1655,(115, 121),2	1657,(99, 121),2	1659,(101, 121),2	1661,(103, 121),2	1663,(16, 121),2	1665,(93, 121),2	1667,(113, 121),2	
25,(2, 29),2	27,(2, 55),2	29,(2, 69),2	31,(2, 75),2	33,(2, 85),2	41,(2, 109),2	51,(6, 84),2	73,(10, 95),8	83,(2, 30),38	121,(2, 52),32	153,(2, 106),46	199,(6, 34),4	203,(6, 40),2	205,(10, 111),34	425,(6, 22),10	435,(6, 53),2	437,(6, 63),2	439,(6, 66),2	553,(6, 33),8	561,(6, 72),2	671,(2, 40),206	877,(2, 65),104	981,(2, 112),122	1123,(6, 64),64	1187,(6, 73),122	1309,(6, 77),10	1319,(6, 96),58	1377,(6, 112),8	1385,(6, 116),48	1433,(14, 121),2	1597,(10, 24),2	1599,(10, 28),2	1601,(10, 55),10	1611,(10, 58),2	1613,(10, 110),4	1617,(10, 114),2	1619,(10, 119),6	1639,(43, 121),2	1645,(15, 121),2	1651,(91, 121),2	1671,(117, 121),2	
1,(0, 2),8	9,(0, 3),8	17,(0, 4),8	25,(0, 6),8	33,(0, 7),8	41,(0, 8),8	49,(0, 10),8	57,(0, 11),8	65,(0, 12),8	73,(5, 18),2	75,(5, 21),2	77,(5, 26),2	79,(5, 31),2	81,(5, 39),2	83,(5, 45),116	199,(5, 51),6	205,(5, 54),60	265,(5, 70),154	419,(5, 76),6	425,(5, 88),16	441,(5, 100),10	451,(9, 28),20	471,(9, 47),2	473,(9, 50),2	475,(9, 56),38	513,(9, 61),20	533,(9, 75),2	535,(9, 79),18	553,(9, 99),2	555,(9, 101),4	559,(9, 103),4	563,(9, 120),6	569,(1, 17),12	581,(1, 22),4	585,(1, 36),30	615,(1, 47),4	619,(1, 54),14	633,(1, 81),8	641,(1, 89),30	671,(1, 93),8	679,(1, 113),4	1121,(13, 121),2	1589,(48, 121),2	1669,(41, 121),2	
