1452
# CPU
0,0,1	1,4,25	26,28,25	51,73,25	76,2,25	101,77,25	126,34,25	151,51,25	176,20,25	201,6,25	226,23,25	251,75,25	276,21,25	301,65,25	326,46,25	351,40,25	376,3,25	401,45,25	426,57,25	451,15,25	476,5,25	501,74,25	526,70,25	551,9,25	576,71,25	601,7,25	626,25,25	651,50,25	676,33,25	701,44,25	726,80,25	751,52,25	776,68,25	801,8,25	826,14,25	851,79,25	876,18,25	901,35,25	926,22,25	951,37,25	976,27,25	1001,59,25	1026,39,25	1051,10,25	1076,69,25	1101,1,25	1126,12,25	1151,60,25	1176,76,25	1201,38,25	1226,42,25	1251,11,25	1276,48,25	1301,67,25	1326,47,25	1351,26,25	1376,64,25	1401,16,25	1426,72,25	1451,81,1	
230,61,25	274,19,25	405,78,25	505,63,25	642,54,25	834,41,25	914,49,25	1014,36,25	1130,62,25	1158,17,25	1198,32,25	
238,53,25	509,24,25	838,66,25	1134,29,25	
250,56,25	525,58,25	830,43,25	855,55,25	1142,13,25	
842,31,25	1150,30,25	
# Incoming
255,(61, 81),4	263,(53, 81),4	275,(56, 81),4	299,(19, 81),4	430,(78, 81),4	530,(63, 81),4	534,(24, 81),4	550,(58, 81),4	667,(54, 81),4	855,(43, 81),4	859,(41, 81),4	863,(66, 81),4	867,(31, 81),4	880,(55, 81),4	939,(49, 81),4	1039,(36, 81),4	1155,(62, 81),4	1159,(29, 81),4	1167,(13, 81),4	1175,(30, 81),4	1183,(17, 81),4	1223,(32, 81),4	
226,(6, 61),4	250,(4, 19),4	254,(6, 19),20	274,(4, 78),76	350,(2, 63),8	401,(3, 78),4	413,(2, 54),68	481,(3, 49),4	485,(3, 36),4	489,(3, 32),8	501,(5, 63),4	525,(5, 54),80	626,(7, 54),16	830,(8, 41),4	846,(8, 49),68	914,(8, 36),100	1082,(7, 17),24	1106,(7, 32),8	1126,(1, 62),4	1150,(1, 17),8	1158,(1, 32),40	
230,(6, 53),8	358,(4, 24),4	370,(2, 29),24	405,(3, 24),8	505,(5, 24),4	609,(5, 29),8	834,(8, 66),4	1014,(6, 29),60	1074,(8, 29),4	1130,(1, 29),4	
238,(6, 56),12	362,(6, 58),8	509,(5, 58),16	605,(5, 55),4	646,(6, 55),156	802,(7, 55),4	826,(8, 43),4	842,(8, 55),4	1134,(1, 13),8	
642,(7, 31),4	806,(4, 30),16	822,(6, 30),4	838,(8, 31),4	1078,(7, 30),4	1142,(1, 30),8	
# Outgoing
226,(6, 61),4	230,(6, 53),8	238,(6, 56),12	250,(4, 19),4	254,(6, 19),20	274,(4, 78),76	350,(2, 63),8	358,(4, 24),4	362,(6, 58),8	370,(2, 29),24	401,(3, 78),4	405,(3, 24),8	413,(2, 54),68	481,(3, 49),4	485,(3, 36),4	489,(3, 32),8	501,(5, 63),4	505,(5, 24),4	509,(5, 58),16	525,(5, 54),80	605,(5, 55),4	609,(5, 29),8	626,(7, 54),16	642,(7, 31),4	646,(6, 55),156	802,(7, 55),4	806,(4, 30),16	822,(6, 30),4	826,(8, 43),4	830,(8, 41),4	834,(8, 66),4	838,(8, 31),4	842,(8, 55),4	846,(8, 49),68	914,(8, 36),100	1014,(6, 29),60	1074,(8, 29),4	1078,(7, 30),4	1082,(7, 17),24	1106,(7, 32),8	1126,(1, 62),4	1130,(1, 29),4	1134,(1, 13),8	1142,(1, 30),8	1150,(1, 17),8	1158,(1, 32),40	
255,(61, 81),4	299,(19, 81),4	430,(78, 81),4	530,(63, 81),4	667,(54, 81),4	859,(41, 81),4	939,(49, 81),4	1039,(36, 81),4	1155,(62, 81),4	1183,(17, 81),4	1223,(32, 81),4	
263,(53, 81),4	534,(24, 81),4	863,(66, 81),4	1159,(29, 81),4	
275,(56, 81),4	550,(58, 81),4	855,(43, 81),4	880,(55, 81),4	1167,(13, 81),4	
867,(31, 81),4	1175,(30, 81),4	
