90
# CPU
0,21,1	1,4,1	2,5,1	3,3,1	4,7,1	5,9,1	6,14,1	7,16,1	8,20,1	9,6,1	10,8,1	11,10,1	12,13,1	13,18,1	14,15,1	15,17,1	16,12,1	17,11,1	18,1,1	
17,19,1	83,2,1	89,0,1	


# Incoming

1,(21, 19),16	17,(7, 2),2	19,(20, 2),2	21,(10, 2),12	33,(13, 2),12	45,(18, 2),18	63,(15, 2),20	83,(1, 0),6	


# Outgoing
1,(21, 19),16	17,(7, 2),2	19,(20, 2),2	21,(10, 2),12	33,(13, 2),12	45,(18, 2),18	63,(15, 2),20	83,(1, 0),6	



