2040
# CPU
0,81,1	1,22,23	24,33,23	47,38,23	70,55,23	93,60,23	116,15,23	139,9,23	162,35,23	185,76,23	208,54,23	231,13,23	254,42,23	277,26,23	300,72,23	323,80,23	346,37,23	369,40,23	392,58,23	415,78,23	438,73,23	461,20,23	484,10,23	507,71,23	530,32,23	553,59,23	576,69,23	599,61,23	622,16,23	645,31,23	668,65,23	691,68,23	714,34,23	737,39,23	760,79,23	783,70,23	806,23,23	829,12,23	852,52,23	875,67,23	898,77,23	921,63,23	944,45,23	967,56,23	990,41,23	1013,53,23	1036,44,23	1059,46,23	1082,28,23	1105,51,23	1128,29,23	1151,75,23	1174,11,23	1197,43,23	1220,24,23	1243,14,23	1266,74,23	1289,47,23	1312,36,23	1335,30,23	1358,48,23	1381,62,23	1404,57,23	1427,18,23	1450,2,23	1473,5,23	1496,3,23	1519,7,23	1542,6,23	1565,4,23	1588,1,23	2016,8,23	2039,0,1	
151,66,23	301,64,23	451,19,23	601,50,23	751,27,23	901,21,23	1051,17,23	1201,49,23	1351,25,23	
# Incoming
324,(64, 2),3	327,(64, 3),12	339,(64, 6),3	342,(66, 4),6	348,(64, 4),3	351,(66, 1),3	474,(19, 5),3	477,(19, 4),9	486,(19, 8),15	624,(50, 5),3	627,(50, 4),9	636,(50, 1),24	660,(50, 8),15	774,(27, 1),39	813,(27, 8),6	924,(21, 6),6	930,(21, 1),3	933,(21, 8),66	1074,(17, 2),3	1077,(17, 7),27	1104,(17, 4),99	1224,(49, 2),12	1236,(49, 6),66	1302,(17, 1),54	1374,(25, 4),18	1392,(49, 1),150	1542,(25, 1),42	1584,(17, 8),120	1704,(25, 8),312	
1,(81, 66),150	151,(81, 64),150	301,(81, 19),150	451,(81, 50),150	601,(81, 27),150	751,(81, 21),150	901,(81, 17),150	1051,(81, 49),150	1201,(81, 25),150	
# Outgoing
1,(81, 66),150	151,(81, 64),150	301,(81, 19),150	451,(81, 50),150	601,(81, 27),150	751,(81, 21),150	901,(81, 17),150	1051,(81, 49),150	1201,(81, 25),150	
324,(64, 2),3	327,(64, 3),12	339,(64, 6),3	342,(66, 4),6	348,(64, 4),3	351,(66, 1),3	474,(19, 5),3	477,(19, 4),9	486,(19, 8),15	624,(50, 5),3	627,(50, 4),9	636,(50, 1),24	660,(50, 8),15	774,(27, 1),39	813,(27, 8),6	924,(21, 6),6	930,(21, 1),3	933,(21, 8),66	1074,(17, 2),3	1077,(17, 7),27	1104,(17, 4),99	1224,(49, 2),12	1236,(49, 6),66	1302,(17, 1),54	1374,(25, 4),18	1392,(49, 1),150	1542,(25, 1),42	1584,(17, 8),120	1704,(25, 8),312	
