2405
# CPU
34,4,5	39,122,5	67,8,5	72,31,5	100,12,5	133,16,5	138,110,5	166,20,5	171,178,5	185,54,5	340,90,5	388,70,5	397,186,5	452,38,5	475,158,5	480,33,5	485,62,5	490,150,5	495,198,5	559,126,5	573,190,5	578,98,5	586,25,5	591,42,5	650,58,5	677,130,5	682,162,5	703,66,5	708,86,5	716,118,5	814,194,5	865,35,5	874,142,5	964,51,5	982,78,5	987,94,5	1006,102,5	1015,182,5	1073,154,5	1101,166,5	1118,48,5	1193,106,5	1359,40,5	1364,45,5	1376,74,5	1381,82,5	1386,114,5	1401,138,5	1409,146,5	1541,134,5	1913,174,5	1976,170,5	
23,3,5	56,7,5	61,61,5	89,11,5	106,44,5	122,15,5	143,145,5	155,19,5	263,97,5	289,47,5	297,57,5	310,39,5	353,109,5	412,125,5	436,137,5	441,161,5	474,157,5	479,153,5	484,169,5	598,73,5	643,41,5	666,129,5	671,181,5	681,81,5	732,185,5	751,93,5	784,105,5	800,101,5	815,24,5	876,36,5	933,50,5	981,77,5	986,89,5	1002,121,5	1026,189,5	1039,197,5	1087,165,5	1125,53,5	1171,69,5	1238,141,5	1268,173,5	1332,30,5	1375,65,5	1380,85,5	1385,113,5	1390,117,5	1400,133,5	1410,149,5	1416,177,5	1421,193,5	1597,34,5	
12,2,5	45,6,5	52,55,5	78,10,5	83,179,5	98,175,5	111,14,5	144,18,5	166,119,5	228,59,5	233,67,5	457,83,5	475,147,5	480,171,5	485,163,5	604,23,5	609,95,5	614,131,5	619,79,5	631,87,5	677,151,5	722,143,5	730,71,5	735,135,5	777,99,5	915,26,5	927,43,5	960,49,5	1034,115,5	1063,139,5	1082,167,5	1113,191,5	1136,29,5	1173,75,5	1204,111,5	1209,123,5	1240,155,5	1303,183,5	1324,187,5	1336,32,5	1374,52,5	1381,103,5	1399,127,5	1415,159,5	1430,199,5	1665,91,5	1729,46,5	2047,195,5	2076,63,5	2124,107,5	
0,0,1	1,9,5	6,1,5	11,13,5	16,17,5	21,5,5	26,200,5	31,112,5	36,188,5	41,164,5	46,21,5	260,168,5	305,132,5	355,76,5	361,196,5	478,176,5	512,56,5	543,192,5	623,172,5	639,124,5	653,128,5	667,156,5	702,96,5	721,144,5	777,28,5	1123,184,5	1153,116,5	1183,152,5	1198,120,5	1255,84,5	1268,92,5	1273,136,5	1278,60,5	1305,68,5	1339,80,5	1422,22,5	1427,72,5	1432,88,5	1437,180,5	1562,27,5	1599,140,5	1649,37,5	1665,64,5	1730,100,5	1735,104,5	1750,148,5	2163,108,5	2184,160,5	2404,201,1	
# Incoming
23,(0, 4),11	34,(2, 31),7	41,(2, 40),4	45,(2, 70),6	51,(2, 78),4	55,(2, 118),1	56,(0, 8),11	67,(3, 31),3	71,(2, 98),10	81,(2, 106),6	87,(2, 194),1	88,(6, 162),1	89,(0, 12),11	100,(2, 48),22	122,(0, 16),11	133,(3, 51),4	137,(3, 58),12	149,(3, 174),5	154,(7, 66),1	155,(0, 20),11	166,(3, 114),7	173,(10, 150),1	174,(9, 38),8	182,(7, 146),2	184,(9, 54),1	185,(9, 58),13	198,(9, 66),2	200,(6, 70),3	203,(7, 33),4	207,(9, 90),22	229,(9, 98),7	236,(6, 158),5	241,(9, 102),17	258,(9, 106),8	266,(2, 174),37	303,(6, 25),14	317,(7, 25),5	322,(7, 35),13	335,(7, 90),5	347,(6, 150),14	361,(7, 182),2	363,(11, 25),1	364,(11, 40),2	366,(11, 70),22	388,(11, 94),5	393,(11, 102),1	394,(11, 138),2	396,(11, 186),1	397,(6, 170),15	430,(10, 40),3	433,(10, 78),3	436,(9, 138),2	438,(10, 38),14	452,(10, 130),2	454,(14, 154),1	455,(14, 194),1	456,(18, 166),1	471,(10, 158),4	475,(14, 33),4	479,(15, 62),1	480,(15, 102),2	482,(15, 150),1	483,(9, 190),2	485,(9, 198),1	486,(7, 74),54	540,(11, 126),19	559,(11, 190),14	573,(15, 162),1	574,(19, 86),1	575,(19, 98),1	576,(19, 142),2	578,(19, 182),2	585,(1, 25),1	586,(1, 42),1	609,(1, 51),1	625,(1, 134),6	643,(14, 58),7	672,(14, 130),5	677,(1, 162),3	680,(1, 170),1	681,(1, 174),1	682,(18, 35),3	685,(18, 66),18	703,(18, 86),5	708,(18, 118),8	721,(18, 138),7	733,(1, 194),81	822,(13, 35),43	865,(18, 142),9	876,(13, 40),46	927,(13, 45),1	933,(13, 51),31	965,(13, 74),13	981,(13, 78),1	983,(13, 94),1	984,(13, 102),22	1006,(18, 182),9	1067,(13, 154),6	1087,(13, 166),14	1101,(13, 170),10	1111,(13, 174),1	1117,(17, 48),1	1173,(17, 82),1	1174,(17, 106),19	1193,(7, 134),80	1337,(5, 40),22	1359,(5, 45),1	1375,(5, 74),1	1376,(5, 82),2	1383,(5, 114),1	1400,(5, 138),1	1401,(5, 146),8	1409,(10, 134),132	1665,(7, 174),248	1913,(15, 170),63	
12,(0, 3),11	23,(2, 53),7	30,(2, 77),2	32,(2, 145),1	45,(0, 7),11	56,(2, 47),15	71,(4, 36),1	72,(4, 85),3	75,(4, 97),2	77,(4, 113),1	78,(0, 11),11	89,(2, 133),3	92,(2, 137),7	99,(4, 44),7	106,(4, 117),1	107,(4, 129),4	111,(0, 15),11	125,(2, 181),9	134,(4, 93),7	141,(4, 141),1	142,(4, 145),1	143,(8, 149),1	144,(0, 19),11	155,(6, 30),7	162,(6, 89),3	165,(6, 117),1	166,(6, 149),1	167,(9, 36),7	174,(6, 41),7	181,(6, 65),17	198,(6, 173),1	199,(10, 89),1	200,(9, 77),5	205,(9, 89),2	207,(6, 69),13	220,(10, 41),11	231,(4, 173),3	234,(4, 185),6	241,(10, 137),1	242,(10, 169),1	243,(10, 189),1	244,(14, 34),1	245,(8, 57),7	252,(8, 81),8	260,(8, 97),3	265,(14, 113),1	266,(9, 109),1	267,(9, 113),2	269,(8, 105),2	271,(8, 121),5	276,(12, 24),11	287,(12, 39),1	288,(12, 47),1	289,(12, 57),8	297,(12, 65),1	298,(12, 101),9	307,(12, 137),2	309,(16, 39),1	317,(6, 141),30	347,(16, 30),2	349,(16, 65),2	351,(16, 109),2	360,(12, 117),12	372,(12, 121),7	379,(12, 129),20	399,(12, 173),7	406,(16, 89),3	409,(16, 125),3	412,(10, 24),18	430,(16, 133),4	434,(9, 137),2	436,(14, 161),2	438,(9, 141),19	457,(10, 77),14	471,(16, 157),3	474,(16, 169),1	475,(9, 153),3	479,(9, 169),4	483,(6, 193),65	548,(12, 197),8	556,(16, 41),12	568,(16, 85),27	595,(20, 50),2	597,(20, 73),1	598,(1, 50),11	609,(20, 85),3	612,(20, 105),1	613,(1, 93),1	614,(1, 105),5	623,(1, 129),1	624,(1, 133),1	628,(14, 30),5	633,(14, 41),10	643,(20, 177),6	650,(14, 65),3	653,(14, 105),9	662,(14, 129),4	666,(14, 181),1	677,(18, 69),1	678,(18, 81),3	682,(1, 177),49	731,(1, 185),1	732,(14, 93),19	751,(18, 105),33	788,(16, 101),12	800,(16, 189),10	814,(13, 24),1	815,(18, 113),13	865,(13, 36),11	915,(20, 30),10	928,(13, 50),5	964,(13, 53),1	979,(13, 77),2	982,(13, 89),1	983,(20, 121),19	1002,(20, 133),16	1018,(20, 189),8	1026,(20, 193),7	1033,(20, 197),6	1063,(13, 149),4	1073,(13, 165),14	1113,(17, 30),3	1118,(17, 53),7	1125,(17, 65),44	1169,(17, 69),2	1234,(17, 141),4	1238,(17, 149),1	1263,(17, 173),5	1327,(5, 30),5	1336,(5, 34),1	1374,(5, 65),1	1378,(5, 85),1	1381,(5, 113),2	1384,(5, 117),5	1399,(5, 133),1	1409,(5, 149),1	1415,(5, 177),1	1416,(5, 193),2	1418,(4, 34),179	
1,(0, 2),11	34,(0, 6),11	45,(3, 43),3	48,(3, 55),4	52,(4, 26),4	56,(4, 43),5	61,(4, 46),3	64,(4, 49),1	65,(4, 75),1	66,(4, 111),1	67,(0, 10),11	78,(4, 179),5	83,(8, 26),3	86,(8, 75),1	87,(7, 87),4	91,(7, 111),3	94,(7, 155),1	95,(7, 175),3	98,(8, 87),1	100,(0, 14),11	111,(4, 91),14	125,(7, 135),6	131,(11, 29),1	132,(11, 63),1	133,(0, 18),11	155,(7, 151),5	160,(11, 49),5	165,(11, 119),1	166,(9, 26),1	173,(11, 131),4	177,(11, 191),1	178,(15, 32),4	182,(9, 43),2	184,(11, 147),9	193,(15, 49),8	207,(15, 59),21	228,(15, 67),5	236,(9, 99),5	241,(15, 123),8	249,(15, 131),10	263,(8, 103),5	268,(8, 123),1	269,(9, 115),65	334,(9, 123),1	335,(9, 131),24	359,(9, 135),75	434,(8, 115),6	440,(8, 159),11	451,(8, 163),3	454,(12, 83),3	457,(9, 147),18	475,(12, 171),1	476,(16, 49),1	477,(16, 123),1	478,(9, 163),1	486,(9, 199),99	587,(1, 43),11	598,(12, 23),6	604,(16, 95),4	608,(16, 131),1	610,(1, 52),1	611,(1, 79),2	613,(19, 115),6	619,(1, 107),3	622,(1, 115),1	623,(12, 87),8	631,(1, 151),46	677,(7, 143),45	722,(16, 71),8	730,(20, 135),1	732,(1, 191),1	733,(8, 99),44	777,(16, 63),11	815,(13, 32),7	822,(8, 199),46	868,(12, 26),47	922,(13, 43),5	927,(20, 49),33	960,(20, 127),16	978,(13, 75),1	1006,(13, 115),28	1034,(13, 139),29	1063,(20, 167),19	1082,(20, 191),7	1112,(13, 191),1	1116,(17, 46),1	1123,(19, 29),13	1136,(19, 32),28	1171,(17, 75),2	1193,(17, 111),11	1204,(17, 123),1	1205,(17, 127),29	1239,(17, 155),1	1240,(17, 159),23	1268,(17, 183),35	1303,(17, 187),21	1324,(17, 195),3	1332,(5, 32),4	1360,(5, 52),14	1379,(5, 103),2	1389,(5, 127),10	1410,(5, 159),5	1418,(5, 199),12	1430,(7, 91),235	1665,(16, 46),64	1976,(15, 195),71	2047,(19, 63),29	2076,(19, 107),48	
17,(2, 22),3	20,(2, 132),1	21,(2, 164),2	28,(3, 21),3	31,(3, 22),3	34,(3, 27),4	38,(3, 100),1	39,(3, 152),5	44,(4, 22),1	45,(4, 27),5	50,(4, 104),2	52,(3, 120),15	67,(4, 56),3	70,(3, 172),7	77,(3, 196),10	87,(4, 76),11	98,(7, 28),8	106,(7, 68),1	107,(7, 84),12	119,(7, 124),1	120,(7, 184),1	121,(11, 68),1	122,(2, 160),3	125,(4, 116),7	132,(4, 160),2	134,(2, 192),10	144,(4, 88),33	177,(4, 136),7	184,(4, 156),36	220,(4, 172),11	231,(6, 128),5	236,(11, 84),2	238,(11, 96),2	240,(122, 201),5	245,(6, 56),12	257,(6, 168),3	260,(55, 201),5	265,(7, 132),40	305,(61, 201),5	310,(8, 27),18	328,(8, 28),7	335,(8, 64),4	339,(8, 116),1	340,(7, 160),13	353,(8, 76),2	355,(8, 92),2	357,(8, 108),2	359,(8, 120),1	360,(11, 196),1	361,(6, 156),36	397,(7, 176),81	478,(8, 56),34	512,(8, 100),14	526,(8, 124),4	530,(8, 172),10	540,(8, 192),3	543,(31, 201),5	548,(10, 64),1	549,(10, 116),53	602,(10, 152),13	615,(10, 156),2	617,(10, 172),6	623,(179, 201),5	628,(11, 108),8	636,(11, 124),3	639,(11, 128),14	653,(11, 148),2	655,(11, 156),12	667,(175, 201),5	672,(12, 72),1	673,(12, 88),16	689,(12, 92),12	701,(12, 96),1	702,(12, 100),9	711,(12, 120),6	717,(14, 100),2	719,(14, 108),1	720,(14, 144),1	721,(16, 27),1	722,(11, 28),55	777,(11, 180),330	1107,(11, 184),16	1123,(12, 116),30	1153,(12, 152),30	1183,(44, 201),5	1188,(14, 120),10	1198,(14, 180),44	1242,(16, 60),1	1243,(16, 84),12	1255,(16, 92),13	1268,(16, 100),3	1271,(16, 136),1	1272,(16, 148),1	1273,(15, 60),1	1274,(15, 64),26	1300,(15, 68),5	1305,(15, 80),34	1339,(15, 104),2	1341,(15, 148),19	1360,(16, 104),4	1364,(16, 160),35	1399,(110, 201),5	1404,(145, 201),5	1409,(19, 22),13	1422,(19, 72),1	1423,(19, 88),1	1424,(19, 140),3	1427,(19, 180),1	1541,(18, 27),21	1562,(18, 37),9	1571,(18, 100),20	1591,(18, 140),8	1599,(20, 37),50	1649,(20, 64),16	1665,(119, 201),5	1670,(59, 201),5	1675,(67, 201),5	1680,(83, 201),5	1685,(147, 201),5	1690,(171, 201),5	1695,(163, 201),5	1700,(23, 201),5	1705,(95, 201),5	1710,(131, 201),5	1715,(79, 201),5	1720,(87, 201),5	1729,(20, 100),1	1730,(20, 104),1	1731,(20, 148),19	1750,(178, 201),5	1755,(54, 201),5	1760,(90, 201),5	1765,(70, 201),5	1770,(186, 201),5	1775,(38, 201),5	1780,(158, 201),5	1785,(33, 201),5	1790,(62, 201),5	1795,(150, 201),5	1800,(198, 201),5	1805,(126, 201),5	1810,(190, 201),5	1815,(98, 201),5	1820,(25, 201),5	1825,(42, 201),5	1830,(58, 201),5	1835,(151, 201),5	1840,(130, 201),5	1845,(162, 201),5	1850,(66, 201),5	1855,(86, 201),5	1860,(118, 201),5	1865,(143, 201),5	1870,(71, 201),5	1875,(135, 201),5	1880,(99, 201),5	1885,(194, 201),5	1890,(35, 201),5	1895,(142, 201),5	1900,(26, 201),5	1905,(43, 201),5	1910,(49, 201),5	1915,(51, 201),5	1920,(78, 201),5	1925,(94, 201),5	1930,(102, 201),5	1935,(182, 201),5	1940,(115, 201),5	1945,(139, 201),5	1950,(154, 201),5	1955,(167, 201),5	1960,(166, 201),5	1965,(191, 201),5	1970,(48, 201),5	1975,(29, 201),5	1980,(75, 201),5	1985,(106, 201),5	1990,(111, 201),5	1995,(123, 201),5	2000,(155, 201),5	2005,(183, 201),5	2010,(187, 201),5	2015,(32, 201),5	2020,(40, 201),5	2025,(45, 201),5	2030,(52, 201),5	2035,(74, 201),5	2040,(103, 201),5	2045,(82, 201),5	2050,(114, 201),5	2055,(127, 201),5	2060,(138, 201),5	2065,(146, 201),5	2070,(159, 201),5	2075,(199, 201),5	2080,(134, 201),5	2085,(91, 201),5	2090,(46, 201),5	2095,(174, 201),5	2100,(170, 201),5	2105,(195, 201),5	2110,(63, 201),5	2124,(19, 108),39	2163,(19, 160),21	2184,(97, 201),5	2189,(47, 201),5	2194,(57, 201),5	2199,(39, 201),5	2204,(109, 201),5	2209,(125, 201),5	2214,(137, 201),5	2219,(161, 201),5	2224,(157, 201),5	2229,(153, 201),5	2234,(169, 201),5	2239,(73, 201),5	2244,(41, 201),5	2249,(129, 201),5	2254,(181, 201),5	2259,(81, 201),5	2264,(185, 201),5	2269,(93, 201),5	2274,(105, 201),5	2279,(101, 201),5	2284,(24, 201),5	2289,(36, 201),5	2294,(50, 201),5	2299,(77, 201),5	2304,(89, 201),5	2309,(121, 201),5	2314,(189, 201),5	2319,(197, 201),5	2324,(165, 201),5	2329,(53, 201),5	2334,(69, 201),5	2339,(141, 201),5	2344,(173, 201),5	2349,(30, 201),5	2354,(65, 201),5	2359,(85, 201),5	2364,(113, 201),5	2369,(117, 201),5	2374,(133, 201),5	2379,(149, 201),5	2384,(177, 201),5	2389,(193, 201),5	2394,(34, 201),5	2399,(107, 201),5	
# Outgoing
44,(4, 22),1	45,(4, 27),5	50,(4, 104),2	52,(4, 26),4	56,(4, 43),5	61,(4, 46),3	64,(4, 49),1	65,(4, 75),1	66,(4, 111),1	67,(4, 56),3	71,(4, 36),1	72,(4, 85),3	75,(4, 97),2	77,(4, 113),1	78,(4, 179),5	83,(8, 26),3	86,(8, 75),1	87,(4, 76),11	98,(8, 87),1	99,(4, 44),7	106,(4, 117),1	107,(4, 129),4	111,(4, 91),14	125,(4, 116),7	132,(4, 160),2	134,(4, 93),7	141,(4, 141),1	142,(4, 145),1	143,(8, 149),1	144,(4, 88),33	177,(4, 136),7	184,(4, 156),36	220,(4, 172),11	231,(4, 173),3	234,(4, 185),6	240,(122, 201),5	245,(8, 57),7	252,(8, 81),8	260,(8, 97),3	263,(8, 103),5	268,(8, 123),1	269,(8, 105),2	271,(8, 121),5	276,(12, 24),11	287,(12, 39),1	288,(12, 47),1	289,(12, 57),8	297,(12, 65),1	298,(12, 101),9	307,(12, 137),2	309,(16, 39),1	310,(8, 27),18	328,(8, 28),7	335,(8, 64),4	339,(8, 116),1	347,(16, 30),2	349,(16, 65),2	351,(16, 109),2	353,(8, 76),2	355,(8, 92),2	357,(8, 108),2	359,(8, 120),1	360,(12, 117),12	372,(12, 121),7	379,(12, 129),20	399,(12, 173),7	406,(16, 89),3	409,(16, 125),3	430,(16, 133),4	434,(8, 115),6	440,(8, 159),11	451,(8, 163),3	454,(12, 83),3	471,(16, 157),3	474,(16, 169),1	475,(12, 171),1	476,(16, 49),1	477,(16, 123),1	478,(8, 56),34	512,(8, 100),14	526,(8, 124),4	530,(8, 172),10	540,(8, 192),3	543,(31, 201),5	548,(12, 197),8	556,(16, 41),12	568,(16, 85),27	595,(20, 50),2	597,(20, 73),1	598,(12, 23),6	604,(16, 95),4	608,(16, 131),1	609,(20, 85),3	612,(20, 105),1	623,(12, 87),8	643,(20, 177),6	672,(12, 72),1	673,(12, 88),16	689,(12, 92),12	701,(12, 96),1	702,(12, 100),9	711,(12, 120),6	721,(16, 27),1	722,(16, 71),8	730,(20, 135),1	733,(8, 99),44	777,(16, 63),11	788,(16, 101),12	800,(16, 189),10	822,(8, 199),46	868,(12, 26),47	915,(20, 30),10	927,(20, 49),33	960,(20, 127),16	983,(20, 121),19	1002,(20, 133),16	1018,(20, 189),8	1026,(20, 193),7	1033,(20, 197),6	1063,(20, 167),19	1082,(20, 191),7	1123,(12, 116),30	1153,(12, 152),30	1242,(16, 60),1	1243,(16, 84),12	1255,(16, 92),13	1268,(16, 100),3	1271,(16, 136),1	1272,(16, 148),1	1360,(16, 104),4	1364,(16, 160),35	1399,(110, 201),5	1418,(4, 34),179	1599,(20, 37),50	1649,(20, 64),16	1665,(16, 46),64	1729,(20, 100),1	1730,(20, 104),1	1731,(20, 148),19	1750,(178, 201),5	1755,(54, 201),5	1760,(90, 201),5	1765,(70, 201),5	1770,(186, 201),5	1775,(38, 201),5	1780,(158, 201),5	1785,(33, 201),5	1790,(62, 201),5	1795,(150, 201),5	1800,(198, 201),5	1805,(126, 201),5	1810,(190, 201),5	1815,(98, 201),5	1820,(25, 201),5	1825,(42, 201),5	1830,(58, 201),5	1840,(130, 201),5	1845,(162, 201),5	1850,(66, 201),5	1855,(86, 201),5	1860,(118, 201),5	1885,(194, 201),5	1890,(35, 201),5	1895,(142, 201),5	1915,(51, 201),5	1920,(78, 201),5	1925,(94, 201),5	1930,(102, 201),5	1935,(182, 201),5	1950,(154, 201),5	1960,(166, 201),5	1970,(48, 201),5	1985,(106, 201),5	2020,(40, 201),5	2025,(45, 201),5	2035,(74, 201),5	2045,(82, 201),5	2050,(114, 201),5	2060,(138, 201),5	2065,(146, 201),5	2080,(134, 201),5	2095,(174, 201),5	2100,(170, 201),5	
28,(3, 21),3	31,(3, 22),3	34,(3, 27),4	38,(3, 100),1	39,(3, 152),5	45,(3, 43),3	48,(3, 55),4	52,(3, 120),15	67,(3, 31),3	70,(3, 172),7	77,(3, 196),10	87,(7, 87),4	91,(7, 111),3	94,(7, 155),1	95,(7, 175),3	98,(7, 28),8	106,(7, 68),1	107,(7, 84),12	119,(7, 124),1	120,(7, 184),1	121,(11, 68),1	125,(7, 135),6	131,(11, 29),1	132,(11, 63),1	133,(3, 51),4	137,(3, 58),12	149,(3, 174),5	154,(7, 66),1	155,(7, 151),5	160,(11, 49),5	165,(11, 119),1	166,(3, 114),7	173,(11, 131),4	177,(11, 191),1	178,(15, 32),4	182,(7, 146),2	184,(11, 147),9	193,(15, 49),8	203,(7, 33),4	207,(15, 59),21	228,(15, 67),5	236,(11, 84),2	238,(11, 96),2	241,(15, 123),8	249,(15, 131),10	265,(7, 132),40	305,(61, 201),5	317,(7, 25),5	322,(7, 35),13	335,(7, 90),5	340,(7, 160),13	360,(11, 196),1	361,(7, 182),2	363,(11, 25),1	364,(11, 40),2	366,(11, 70),22	388,(11, 94),5	393,(11, 102),1	394,(11, 138),2	396,(11, 186),1	397,(7, 176),81	479,(15, 62),1	480,(15, 102),2	482,(15, 150),1	486,(7, 74),54	540,(11, 126),19	559,(11, 190),14	573,(15, 162),1	574,(19, 86),1	575,(19, 98),1	576,(19, 142),2	578,(19, 182),2	613,(19, 115),6	628,(11, 108),8	636,(11, 124),3	639,(11, 128),14	653,(11, 148),2	655,(11, 156),12	677,(7, 143),45	722,(11, 28),55	777,(11, 180),330	1107,(11, 184),16	1123,(19, 29),13	1136,(19, 32),28	1183,(44, 201),5	1193,(7, 134),80	1273,(15, 60),1	1274,(15, 64),26	1300,(15, 68),5	1305,(15, 80),34	1339,(15, 104),2	1341,(15, 148),19	1404,(145, 201),5	1409,(19, 22),13	1422,(19, 72),1	1423,(19, 88),1	1424,(19, 140),3	1427,(19, 180),1	1430,(7, 91),235	1665,(7, 174),248	1913,(15, 170),63	1976,(15, 195),71	2047,(19, 63),29	2076,(19, 107),48	2124,(19, 108),39	2163,(19, 160),21	2184,(97, 201),5	2189,(47, 201),5	2194,(57, 201),5	2199,(39, 201),5	2204,(109, 201),5	2209,(125, 201),5	2214,(137, 201),5	2219,(161, 201),5	2224,(157, 201),5	2229,(153, 201),5	2234,(169, 201),5	2239,(73, 201),5	2244,(41, 201),5	2249,(129, 201),5	2254,(181, 201),5	2259,(81, 201),5	2264,(185, 201),5	2269,(93, 201),5	2274,(105, 201),5	2279,(101, 201),5	2284,(24, 201),5	2289,(36, 201),5	2294,(50, 201),5	2299,(77, 201),5	2304,(89, 201),5	2309,(121, 201),5	2314,(189, 201),5	2319,(197, 201),5	2324,(165, 201),5	2329,(53, 201),5	2334,(69, 201),5	2339,(141, 201),5	2344,(173, 201),5	2349,(30, 201),5	2354,(65, 201),5	2359,(85, 201),5	2364,(113, 201),5	2369,(117, 201),5	2374,(133, 201),5	2379,(149, 201),5	2384,(177, 201),5	2389,(193, 201),5	2394,(34, 201),5	
17,(2, 22),3	20,(2, 132),1	21,(2, 164),2	23,(2, 53),7	30,(2, 77),2	32,(2, 145),1	34,(2, 31),7	41,(2, 40),4	45,(2, 70),6	51,(2, 78),4	55,(2, 118),1	56,(2, 47),15	71,(2, 98),10	81,(2, 106),6	87,(2, 194),1	88,(6, 162),1	89,(2, 133),3	92,(2, 137),7	100,(2, 48),22	122,(2, 160),3	125,(2, 181),9	134,(2, 192),10	155,(6, 30),7	162,(6, 89),3	165,(6, 117),1	166,(6, 149),1	173,(10, 150),1	174,(6, 41),7	181,(6, 65),17	198,(6, 173),1	199,(10, 89),1	200,(6, 70),3	207,(6, 69),13	220,(10, 41),11	231,(6, 128),5	236,(6, 158),5	241,(10, 137),1	242,(10, 169),1	243,(10, 189),1	244,(14, 34),1	245,(6, 56),12	257,(6, 168),3	260,(55, 201),5	265,(14, 113),1	266,(2, 174),37	303,(6, 25),14	317,(6, 141),30	347,(6, 150),14	361,(6, 156),36	397,(6, 170),15	412,(10, 24),18	430,(10, 40),3	433,(10, 78),3	436,(14, 161),2	438,(10, 38),14	452,(10, 130),2	454,(14, 154),1	455,(14, 194),1	456,(18, 166),1	457,(10, 77),14	471,(10, 158),4	475,(14, 33),4	483,(6, 193),65	548,(10, 64),1	549,(10, 116),53	602,(10, 152),13	615,(10, 156),2	617,(10, 172),6	623,(179, 201),5	628,(14, 30),5	633,(14, 41),10	643,(14, 58),7	650,(14, 65),3	653,(14, 105),9	662,(14, 129),4	666,(14, 181),1	667,(175, 201),5	672,(14, 130),5	677,(18, 69),1	678,(18, 81),3	682,(18, 35),3	685,(18, 66),18	703,(18, 86),5	708,(18, 118),8	717,(14, 100),2	719,(14, 108),1	720,(14, 144),1	721,(18, 138),7	732,(14, 93),19	751,(18, 105),33	815,(18, 113),13	865,(18, 142),9	1006,(18, 182),9	1188,(14, 120),10	1198,(14, 180),44	1409,(10, 134),132	1541,(18, 27),21	1562,(18, 37),9	1571,(18, 100),20	1591,(18, 140),8	1665,(119, 201),5	1670,(59, 201),5	1675,(67, 201),5	1680,(83, 201),5	1685,(147, 201),5	1690,(171, 201),5	1695,(163, 201),5	1700,(23, 201),5	1705,(95, 201),5	1710,(131, 201),5	1715,(79, 201),5	1720,(87, 201),5	1835,(151, 201),5	1865,(143, 201),5	1870,(71, 201),5	1875,(135, 201),5	1880,(99, 201),5	1900,(26, 201),5	1905,(43, 201),5	1910,(49, 201),5	1940,(115, 201),5	1945,(139, 201),5	1955,(167, 201),5	1965,(191, 201),5	1975,(29, 201),5	1980,(75, 201),5	1990,(111, 201),5	1995,(123, 201),5	2000,(155, 201),5	2005,(183, 201),5	2010,(187, 201),5	2015,(32, 201),5	2030,(52, 201),5	2040,(103, 201),5	2055,(127, 201),5	2070,(159, 201),5	2075,(199, 201),5	2085,(91, 201),5	2090,(46, 201),5	2105,(195, 201),5	2110,(63, 201),5	2399,(107, 201),5	
1,(0, 2),11	12,(0, 3),11	23,(0, 4),11	34,(0, 6),11	45,(0, 7),11	56,(0, 8),11	67,(0, 10),11	78,(0, 11),11	89,(0, 12),11	100,(0, 14),11	111,(0, 15),11	122,(0, 16),11	133,(0, 18),11	144,(0, 19),11	155,(0, 20),11	166,(9, 26),1	167,(9, 36),7	174,(9, 38),8	182,(9, 43),2	184,(9, 54),1	185,(9, 58),13	198,(9, 66),2	200,(9, 77),5	205,(9, 89),2	207,(9, 90),22	229,(9, 98),7	236,(9, 99),5	241,(9, 102),17	258,(9, 106),8	266,(9, 109),1	267,(9, 113),2	269,(9, 115),65	334,(9, 123),1	335,(9, 131),24	359,(9, 135),75	434,(9, 137),2	436,(9, 138),2	438,(9, 141),19	457,(9, 147),18	475,(9, 153),3	478,(9, 163),1	479,(9, 169),4	483,(9, 190),2	485,(9, 198),1	486,(9, 199),99	585,(1, 25),1	586,(1, 42),1	587,(1, 43),11	598,(1, 50),11	609,(1, 51),1	610,(1, 52),1	611,(1, 79),2	613,(1, 93),1	614,(1, 105),5	619,(1, 107),3	622,(1, 115),1	623,(1, 129),1	624,(1, 133),1	625,(1, 134),6	631,(1, 151),46	677,(1, 162),3	680,(1, 170),1	681,(1, 174),1	682,(1, 177),49	731,(1, 185),1	732,(1, 191),1	733,(1, 194),81	814,(13, 24),1	815,(13, 32),7	822,(13, 35),43	865,(13, 36),11	876,(13, 40),46	922,(13, 43),5	927,(13, 45),1	928,(13, 50),5	933,(13, 51),31	964,(13, 53),1	965,(13, 74),13	978,(13, 75),1	979,(13, 77),2	981,(13, 78),1	982,(13, 89),1	983,(13, 94),1	984,(13, 102),22	1006,(13, 115),28	1034,(13, 139),29	1063,(13, 149),4	1067,(13, 154),6	1073,(13, 165),14	1087,(13, 166),14	1101,(13, 170),10	1111,(13, 174),1	1112,(13, 191),1	1113,(17, 30),3	1116,(17, 46),1	1117,(17, 48),1	1118,(17, 53),7	1125,(17, 65),44	1169,(17, 69),2	1171,(17, 75),2	1173,(17, 82),1	1174,(17, 106),19	1193,(17, 111),11	1204,(17, 123),1	1205,(17, 127),29	1234,(17, 141),4	1238,(17, 149),1	1239,(17, 155),1	1240,(17, 159),23	1263,(17, 173),5	1268,(17, 183),35	1303,(17, 187),21	1324,(17, 195),3	1327,(5, 30),5	1332,(5, 32),4	1336,(5, 34),1	1337,(5, 40),22	1359,(5, 45),1	1360,(5, 52),14	1374,(5, 65),1	1375,(5, 74),1	1376,(5, 82),2	1378,(5, 85),1	1379,(5, 103),2	1381,(5, 113),2	1383,(5, 114),1	1384,(5, 117),5	1389,(5, 127),10	1399,(5, 133),1	1400,(5, 138),1	1401,(5, 146),8	1409,(5, 149),1	1410,(5, 159),5	1415,(5, 177),1	1416,(5, 193),2	1418,(5, 199),12	
