6610
# CPU
0,0,1	1,3,318	319,9,318	637,17,318	955,7,318	1273,21,318	1591,16,318	1909,25,318	2227,4,318	2545,10,318	2863,15,318	3181,19,318	3499,27,318	3817,31,318	4135,34,318	4453,24,318	4771,37,318	5089,29,318	5407,11,318	5725,30,318	6043,26,318	6609,41,1	
5,1,318	323,8,318	641,13,318	959,39,318	1277,20,318	1595,28,318	1913,18,318	2231,36,318	2549,6,318	2867,38,318	3185,23,318	3503,2,318	3821,33,318	4139,12,318	4457,5,318	4775,14,318	5093,40,318	5411,32,318	5729,35,318	6047,22,318	
# Incoming
641,(8, 41),244	959,(13, 41),244	1277,(39, 41),244	1595,(20, 41),244	1913,(28, 41),244	2231,(18, 41),244	2549,(36, 41),244	2867,(6, 41),244	3185,(38, 41),244	3503,(23, 41),244	3821,(2, 30),92	3913,(2, 26),108	4139,(33, 41),244	4457,(12, 41),244	4775,(5, 41),244	5093,(14, 41),244	5411,(40, 41),244	5729,(32, 41),244	6047,(35, 41),244	6365,(22, 41),244	
1,(0, 1),4	5,(0, 2),4	2545,(4, 23),4	
# Outgoing
1,(0, 1),4	5,(0, 2),4	2545,(4, 23),4	
641,(8, 41),244	959,(13, 41),244	1277,(39, 41),244	1595,(20, 41),244	1913,(28, 41),244	2231,(18, 41),244	2549,(36, 41),244	2867,(6, 41),244	3185,(38, 41),244	3503,(23, 41),244	3821,(2, 30),92	3913,(2, 26),108	4139,(33, 41),244	4457,(12, 41),244	4775,(5, 41),244	5093,(14, 41),244	5411,(40, 41),244	5729,(32, 41),244	6047,(35, 41),244	6365,(22, 41),244	
