21446
# CPU
49,3,3	97,6,3	145,9,3	193,12,3	4861,15,3	5161,33,3	15934,42,3	16198,75,3	16252,84,3	16345,90,3	16912,27,3	16921,30,3	17014,48,3	17020,54,3	17041,60,3	17086,69,3	17089,72,3	17641,81,3	17689,96,3	17713,102,3	17788,108,3	17791,111,3	17989,117,3	18250,18,3	18418,21,3	18430,24,3	18559,36,3	18562,39,3	18613,45,3	18673,51,3	18676,57,3	18685,63,3	18694,66,3	19069,78,3	19165,87,3	19261,93,3	19264,99,3	19279,105,3	19354,114,3	19465,120,3	
25,2,3	73,5,3	121,8,3	169,11,3	1570,53,3	1597,32,3	14500,68,3	14905,71,3	15751,23,3	15967,56,3	15973,59,3	16120,62,3	16258,86,3	16375,95,3	16627,107,3	16690,113,3	16717,17,3	16876,26,3	16987,44,3	17446,29,3	17647,92,3	17698,98,3	17872,38,3	18247,14,3	18400,20,3	18436,35,3	18622,47,3	18652,50,3	18688,65,3	18706,74,3	18874,77,3	19093,80,3	19114,83,3	19258,89,3	19276,104,3	19297,110,3	19435,119,3	20332,101,3	20887,116,3	21355,41,3	
0,0,1	1,7,3	4,10,3	7,1,3	10,4,3	3682,76,3	3799,97,3	4024,109,3	7837,16,3	7864,22,3	7870,28,3	7963,55,3	8320,82,3	8539,13,3	8575,19,3	8680,25,3	8740,34,3	9307,52,3	9385,67,3	9460,79,3	9469,88,3	9502,100,3	9505,106,3	9562,115,3	9592,31,3	9595,37,3	9670,40,3	9949,43,3	9952,46,3	9955,49,3	9958,58,3	10012,61,3	10027,64,3	10036,70,3	10048,73,3	10258,85,3	10294,91,3	10312,94,3	10348,103,3	10354,112,3	10357,118,3	21445,121,1	
# Incoming
25,(0, 3),24	49,(2, 18),15	64,(2, 24),3	67,(2, 27),3	73,(0, 6),24	97,(2, 30),18	115,(2, 33),3	121,(0, 9),24	145,(2, 39),9	169,(0, 12),24	193,(7, 15),6	199,(7, 18),60	259,(2, 45),3	262,(2, 48),3	265,(2, 57),3	268,(2, 87),3	271,(7, 21),15	286,(7, 24),1227	1513,(2, 78),9	1522,(7, 27),15	1537,(2, 96),6	1543,(7, 30),33	1576,(2, 90),18	1594,(2, 105),3	1597,(2, 120),3	1600,(7, 36),51	1651,(2, 81),168	1819,(2, 84),60	1879,(2, 111),6	1885,(2, 117),129	2014,(5, 15),75	2089,(5, 18),21	2125,(7, 39),39	2179,(7, 45),3	2182,(7, 48),3	2188,(7, 51),27	2215,(7, 54),12	2227,(7, 57),18	2374,(7, 60),3	2386,(7, 69),330	2716,(7, 72),90	2806,(7, 75),6	2812,(5, 24),45	2857,(5, 27),3	2860,(5, 30),45	2905,(5, 33),3	2908,(5, 36),33	2941,(5, 39),3	2944,(5, 42),6	2950,(5, 48),3	2953,(5, 51),3	2956,(5, 54),120	3076,(5, 60),6	3082,(5, 63),6	3088,(5, 66),51	3139,(5, 69),3	3142,(5, 72),18	3160,(5, 75),3	3163,(5, 87),9	3172,(5, 90),36	3208,(5, 96),675	3883,(5, 99),39	3922,(5, 102),63	4099,(5, 120),3	4102,(8, 27),6	4108,(8, 39),3	4111,(8, 42),63	4174,(8, 45),45	4219,(8, 48),15	4234,(8, 54),69	4303,(8, 57),3	4306,(8, 63),3	4309,(8, 66),21	4330,(8, 72),12	4342,(8, 75),39	4381,(8, 81),9	4390,(8, 84),24	4414,(8, 87),93	4507,(8, 99),12	4519,(8, 102),99	4618,(8, 105),3	4621,(8, 111),21	4642,(8, 114),27	4669,(8, 117),84	4753,(8, 120),3	4756,(11, 15),105	4861,(11, 18),12	4873,(11, 21),3	4876,(11, 27),6	4882,(11, 30),6	4888,(11, 33),273	5161,(11, 39),138	5299,(11, 45),6	5305,(11, 48),12	5317,(11, 54),15	5332,(11, 57),3	5335,(11, 60),24	5359,(11, 63),1146	6505,(11, 66),30	6535,(11, 69),3	6538,(11, 84),6	6544,(11, 90),3	6547,(11, 102),3	6550,(11, 111),3	6553,(11, 117),3	6556,(11, 120),3	14467,(7, 93),6	14476,(7, 96),3	14479,(7, 99),21	14500,(7, 102),9	14557,(7, 108),51	14611,(7, 111),54	14668,(7, 114),9	14677,(7, 120),285	14986,(10, 21),3	15751,(10, 24),84	15844,(10, 27),3	15847,(10, 30),3	15931,(10, 42),3	15943,(10, 51),21	16120,(10, 69),9	16132,(10, 75),66	16198,(10, 78),12	16210,(10, 81),6	16219,(10, 84),33	16306,(10, 90),39	16369,(10, 93),3	16375,(10, 99),129	16516,(10, 102),33	16627,(10, 108),6	16636,(10, 111),24	16690,(10, 114),6	16717,(1, 18),3	16720,(1, 21),24	16876,(1, 27),36	16912,(1, 30),9	16930,(1, 36),3	16933,(1, 39),3	16993,(1, 48),21	17014,(1, 54),6	17020,(1, 60),21	17071,(1, 69),15	17086,(1, 72),3	17143,(1, 81),498	17641,(1, 87),3	17647,(1, 93),3	17650,(1, 96),39	17698,(1, 102),15	17716,(1, 108),72	17788,(1, 111),3	17791,(1, 114),66	17857,(1, 117),132	18010,(1, 120),6	18247,(4, 18),3	18400,(4, 21),18	18418,(4, 24),12	18436,(4, 36),123	18559,(4, 39),3	18583,(4, 45),30	18652,(4, 51),21	18673,(4, 57),3	18676,(4, 63),9	18688,(4, 66),6	18874,(4, 78),195	19114,(4, 87),51	19258,(4, 93),3	19261,(4, 99),3	19276,(4, 105),3	19297,(4, 114),57	19435,(4, 120),30	
1,(0, 2),24	49,(0, 5),24	97,(0, 8),24	121,(3, 20),6	127,(3, 32),6	133,(3, 35),3	136,(3, 41),3	139,(3, 47),3	142,(3, 53),3	145,(0, 11),24	169,(3, 14),72	241,(3, 56),9	250,(3, 65),3	253,(3, 92),3	256,(6, 17),3	259,(7, 20),12	271,(3, 23),54	325,(3, 44),51	376,(3, 80),138	514,(3, 86),12	526,(3, 107),90	616,(6, 23),3	619,(6, 32),12	631,(6, 59),27	658,(6, 62),3	661,(6, 65),36	697,(6, 104),15	712,(6, 110),3	715,(6, 113),9	1210,(3, 110),120	1330,(3, 113),138	1468,(6, 83),42	1513,(7, 26),9	1522,(6, 119),3	1525,(9, 23),6	1537,(7, 29),6	1543,(6, 116),12	1555,(9, 35),12	1567,(9, 53),3	1570,(9, 59),3	1573,(9, 98),3	1576,(7, 32),21	1597,(7, 35),3	1600,(9, 71),21	1621,(9, 101),3	1624,(12, 23),3	1627,(12, 62),3	1651,(7, 38),474	2125,(6, 107),36	2161,(12, 65),3	2164,(7, 44),15	2179,(12, 56),6	2185,(7, 50),3	2188,(9, 74),12	2200,(9, 80),30	2230,(9, 113),15	2245,(7, 59),129	2374,(12, 98),3	2377,(7, 62),6	2383,(7, 68),3	2386,(6, 14),156	2542,(6, 41),144	2686,(9, 92),66	2752,(9, 119),12	2764,(12, 50),42	2806,(12, 104),3	2812,(7, 77),11361	14173,(7, 80),3	14176,(7, 83),279	14455,(7, 92),12	14467,(12, 113),6	14473,(7, 95),3	14476,(12, 68),24	14500,(12, 86),9	14509,(7, 104),48	14608,(7, 110),3	14611,(12, 47),54	14665,(7, 113),3	14668,(6, 71),237	14962,(10, 14),6	14968,(10, 17),18	14989,(10, 23),762	15751,(12, 14),75	15835,(10, 26),9	15850,(10, 35),12	15862,(10, 38),69	15934,(10, 47),9	15964,(10, 56),3	15967,(10, 59),6	15973,(10, 62),147	16129,(10, 74),3	16216,(10, 83),3	16252,(10, 86),6	16258,(10, 89),48	16345,(10, 92),24	16372,(10, 95),3	16375,(9, 104),123	16504,(10, 101),12	16549,(10, 107),78	16633,(10, 110),3	16660,(10, 113),30	16696,(10, 116),3	16699,(1, 14),3	16702,(1, 17),15	16744,(1, 26),132	16921,(1, 35),9	16936,(1, 41),18	16954,(1, 44),33	16987,(1, 47),6	17041,(1, 65),30	17089,(1, 74),51	17140,(1, 80),3	17143,(6, 98),132	17275,(9, 29),171	17446,(9, 41),168	17644,(1, 92),3	17689,(1, 98),9	17713,(1, 104),3	17716,(12, 38),156	17989,(1, 119),21	18016,(4, 14),231	18250,(4, 20),150	18430,(4, 35),6	18562,(4, 41),21	18613,(4, 47),9	18622,(4, 50),30	18685,(4, 65),3	18694,(4, 74),12	18706,(4, 77),168	19069,(4, 80),24	19093,(4, 83),21	19165,(4, 89),93	19264,(4, 104),12	19279,(4, 110),18	19354,(4, 119),81	19435,(3, 101),897	20332,(9, 116),555	20887,(12, 41),468	
70,(2, 28),21	91,(2, 52),3	94,(2, 61),3	97,(3, 13),9	106,(3, 19),12	118,(2, 37),9	127,(2, 64),6	133,(2, 67),3	136,(2, 97),9	145,(3, 37),3	148,(3, 40),6	154,(2, 43),21	175,(2, 55),24	199,(2, 70),39	238,(2, 79),21	259,(3, 43),3	262,(3, 52),3	265,(3, 55),3	268,(3, 67),3	271,(2, 91),243	514,(2, 100),42	556,(2, 103),9	565,(2, 106),3	568,(2, 109),3	571,(2, 115),81	652,(2, 118),72	724,(3, 61),6	730,(3, 70),12	742,(3, 73),9	751,(3, 79),54	805,(3, 82),252	1057,(3, 85),6	1063,(3, 100),129	1192,(3, 106),3	1195,(3, 109),15	1210,(5, 13),9	1219,(5, 22),150	1369,(5, 25),18	1387,(5, 37),18	1405,(5, 40),24	1429,(5, 43),45	1474,(5, 46),12	1486,(5, 55),12	1498,(5, 61),3	1501,(5, 85),3	1504,(5, 94),3	1507,(5, 100),3	1510,(6, 19),12	1522,(5, 118),9	1531,(6, 22),9	1540,(6, 25),3	1543,(5, 58),33	1576,(6, 37),6	1582,(6, 49),3	1585,(6, 55),3	1588,(6, 85),3	1591,(6, 88),6	1597,(6, 103),3	1600,(5, 79),30	1630,(6, 31),27	1657,(6, 40),96	1753,(6, 43),171	1924,(6, 61),33	1957,(6, 64),24	1981,(6, 70),21	2002,(6, 76),51	2053,(6, 91),30	2083,(6, 106),3	2086,(6, 115),9	2095,(9, 13),3	2098,(9, 19),6	2104,(9, 43),3	2107,(9, 64),3	2110,(5, 19),360	2470,(5, 67),72	2542,(5, 82),24	2566,(5, 97),246	2812,(6, 97),126	2938,(6, 112),78	3016,(9, 25),24	3040,(9, 31),303	3343,(9, 46),6	3349,(9, 55),39	3388,(9, 67),6	3394,(9, 73),45	3439,(9, 76),243	3682,(9, 82),99	3781,(9, 85),9	3790,(9, 88),3	3793,(9, 91),3	3796,(9, 97),3	3799,(9, 100),69	3868,(9, 112),111	3979,(12, 13),3	3982,(12, 28),3	3985,(5, 109),39	4024,(5, 112),75	4099,(6, 94),3618	7717,(8, 13),3	7720,(8, 16),117	7837,(8, 22),27	7864,(8, 28),6	7870,(8, 31),15	7885,(8, 37),54	7939,(8, 43),12	7951,(8, 52),9	7960,(8, 55),3	7963,(8, 61),21	7984,(8, 67),3	7987,(8, 73),270	8257,(8, 79),27	8284,(8, 82),36	8320,(8, 85),21	8341,(8, 91),6	8347,(8, 100),27	8374,(8, 106),48	8422,(8, 112),3	8425,(8, 118),3	8428,(9, 115),90	8518,(9, 118),9	8527,(11, 13),12	8539,(11, 19),36	8575,(11, 25),105	8680,(11, 31),39	8719,(11, 34),21	8740,(11, 37),3	8743,(11, 49),438	9181,(11, 52),126	9307,(11, 58),33	9340,(11, 61),24	9364,(11, 64),3	9367,(11, 67),18	9385,(11, 70),57	9442,(11, 73),15	9457,(11, 79),3	9460,(11, 85),3	9463,(11, 88),6	9469,(11, 91),6	9475,(11, 94),3	9478,(11, 100),24	9502,(11, 106),3	9505,(11, 112),45	9550,(11, 115),12	9562,(11, 118),12	9574,(12, 31),18	9592,(12, 37),3	9595,(12, 40),75	9670,(12, 43),279	9949,(12, 46),3	9952,(12, 49),3	9955,(12, 58),3	9958,(12, 61),54	10012,(12, 64),15	10027,(12, 70),9	10036,(12, 73),12	10048,(12, 85),210	10258,(12, 91),36	10294,(12, 94),18	10312,(12, 103),36	10348,(12, 112),6	10354,(12, 118),3	10357,(53, 121),30	10387,(32, 121),30	10417,(15, 121),30	10447,(33, 121),30	14503,(68, 121),30	14908,(71, 121),30	15754,(23, 121),30	15937,(42, 121),30	15970,(56, 121),30	16000,(59, 121),30	16123,(62, 121),30	16201,(75, 121),30	16255,(84, 121),30	16285,(86, 121),30	16378,(95, 121),30	16498,(90, 121),30	16630,(107, 121),30	16693,(113, 121),30	16723,(17, 121),30	16879,(26, 121),30	16915,(27, 121),30	16945,(30, 121),30	16990,(44, 121),30	17020,(48, 121),30	17050,(54, 121),30	17080,(60, 121),30	17110,(69, 121),30	17449,(29, 121),30	17614,(72, 121),30	17644,(81, 121),30	17674,(92, 121),30	17704,(98, 121),30	17872,(96, 121),30	17902,(102, 121),30	17932,(108, 121),30	17962,(111, 121),30	17992,(38, 121),30	18022,(117, 121),30	18250,(14, 121),30	18280,(18, 121),30	18403,(20, 121),30	18433,(21, 121),30	18463,(24, 121),30	18493,(35, 121),30	18562,(36, 121),30	18592,(39, 121),30	18622,(45, 121),30	18652,(47, 121),30	18682,(50, 121),30	18712,(51, 121),30	18742,(57, 121),30	18772,(63, 121),30	18802,(65, 121),30	18832,(66, 121),30	18862,(74, 121),30	18892,(77, 121),30	19072,(78, 121),30	19102,(80, 121),30	19132,(83, 121),30	19168,(87, 121),30	19261,(89, 121),30	19291,(93, 121),30	19321,(99, 121),30	19351,(104, 121),30	19381,(105, 121),30	19411,(110, 121),30	19441,(119, 121),30	20335,(101, 121),30	20890,(116, 121),30	21355,(114, 121),30	21385,(120, 121),30	21415,(41, 121),30	
# Outgoing
97,(3, 13),9	106,(3, 19),12	121,(3, 20),6	127,(3, 32),6	133,(3, 35),3	136,(3, 41),3	139,(3, 47),3	142,(3, 53),3	145,(3, 37),3	148,(3, 40),6	169,(3, 14),72	241,(3, 56),9	250,(3, 65),3	253,(3, 92),3	256,(6, 17),3	259,(3, 43),3	262,(3, 52),3	265,(3, 55),3	268,(3, 67),3	271,(3, 23),54	325,(3, 44),51	376,(3, 80),138	514,(3, 86),12	526,(3, 107),90	616,(6, 23),3	619,(6, 32),12	631,(6, 59),27	658,(6, 62),3	661,(6, 65),36	697,(6, 104),15	712,(6, 110),3	715,(6, 113),9	724,(3, 61),6	730,(3, 70),12	742,(3, 73),9	751,(3, 79),54	805,(3, 82),252	1057,(3, 85),6	1063,(3, 100),129	1192,(3, 106),3	1195,(3, 109),15	1210,(3, 110),120	1330,(3, 113),138	1468,(6, 83),42	1510,(6, 19),12	1522,(6, 119),3	1525,(9, 23),6	1531,(6, 22),9	1540,(6, 25),3	1543,(6, 116),12	1555,(9, 35),12	1567,(9, 53),3	1570,(9, 59),3	1573,(9, 98),3	1576,(6, 37),6	1582,(6, 49),3	1585,(6, 55),3	1588,(6, 85),3	1591,(6, 88),6	1597,(6, 103),3	1600,(9, 71),21	1621,(9, 101),3	1624,(12, 23),3	1627,(12, 62),3	1630,(6, 31),27	1657,(6, 40),96	1753,(6, 43),171	1924,(6, 61),33	1957,(6, 64),24	1981,(6, 70),21	2002,(6, 76),51	2053,(6, 91),30	2083,(6, 106),3	2086,(6, 115),9	2095,(9, 13),3	2098,(9, 19),6	2104,(9, 43),3	2107,(9, 64),3	2125,(6, 107),36	2161,(12, 65),3	2179,(12, 56),6	2188,(9, 74),12	2200,(9, 80),30	2230,(9, 113),15	2374,(12, 98),3	2386,(6, 14),156	2542,(6, 41),144	2686,(9, 92),66	2752,(9, 119),12	2764,(12, 50),42	2806,(12, 104),3	2812,(6, 97),126	2938,(6, 112),78	3016,(9, 25),24	3040,(9, 31),303	3343,(9, 46),6	3349,(9, 55),39	3388,(9, 67),6	3394,(9, 73),45	3439,(9, 76),243	3682,(9, 82),99	3781,(9, 85),9	3790,(9, 88),3	3793,(9, 91),3	3796,(9, 97),3	3799,(9, 100),69	3868,(9, 112),111	3979,(12, 13),3	3982,(12, 28),3	4099,(6, 94),3618	8428,(9, 115),90	8518,(9, 118),9	9574,(12, 31),18	9592,(12, 37),3	9595,(12, 40),75	9670,(12, 43),279	9949,(12, 46),3	9952,(12, 49),3	9955,(12, 58),3	9958,(12, 61),54	10012,(12, 64),15	10027,(12, 70),9	10036,(12, 73),12	10048,(12, 85),210	10258,(12, 91),36	10294,(12, 94),18	10312,(12, 103),36	10348,(12, 112),6	10354,(12, 118),3	10417,(15, 121),30	10447,(33, 121),30	14467,(12, 113),6	14476,(12, 68),24	14500,(12, 86),9	14611,(12, 47),54	14668,(6, 71),237	15751,(12, 14),75	15937,(42, 121),30	16201,(75, 121),30	16255,(84, 121),30	16375,(9, 104),123	16498,(90, 121),30	16915,(27, 121),30	16945,(30, 121),30	17020,(48, 121),30	17050,(54, 121),30	17080,(60, 121),30	17110,(69, 121),30	17143,(6, 98),132	17275,(9, 29),171	17446,(9, 41),168	17614,(72, 121),30	17644,(81, 121),30	17716,(12, 38),156	17872,(96, 121),30	17902,(102, 121),30	17932,(108, 121),30	17962,(111, 121),30	18022,(117, 121),30	18280,(18, 121),30	18433,(21, 121),30	18463,(24, 121),30	18562,(36, 121),30	18592,(39, 121),30	18622,(45, 121),30	18712,(51, 121),30	18742,(57, 121),30	18772,(63, 121),30	18832,(66, 121),30	19072,(78, 121),30	19168,(87, 121),30	19291,(93, 121),30	19321,(99, 121),30	19381,(105, 121),30	19435,(3, 101),897	20332,(9, 116),555	20887,(12, 41),468	21355,(114, 121),30	21385,(120, 121),30	
49,(2, 18),15	64,(2, 24),3	67,(2, 27),3	70,(2, 28),21	91,(2, 52),3	94,(2, 61),3	97,(2, 30),18	115,(2, 33),3	118,(2, 37),9	127,(2, 64),6	133,(2, 67),3	136,(2, 97),9	145,(2, 39),9	154,(2, 43),21	175,(2, 55),24	199,(2, 70),39	238,(2, 79),21	259,(2, 45),3	262,(2, 48),3	265,(2, 57),3	268,(2, 87),3	271,(2, 91),243	514,(2, 100),42	556,(2, 103),9	565,(2, 106),3	568,(2, 109),3	571,(2, 115),81	652,(2, 118),72	1210,(5, 13),9	1219,(5, 22),150	1369,(5, 25),18	1387,(5, 37),18	1405,(5, 40),24	1429,(5, 43),45	1474,(5, 46),12	1486,(5, 55),12	1498,(5, 61),3	1501,(5, 85),3	1504,(5, 94),3	1507,(5, 100),3	1513,(2, 78),9	1522,(5, 118),9	1537,(2, 96),6	1543,(5, 58),33	1576,(2, 90),18	1594,(2, 105),3	1597,(2, 120),3	1600,(5, 79),30	1651,(2, 81),168	1819,(2, 84),60	1879,(2, 111),6	1885,(2, 117),129	2014,(5, 15),75	2089,(5, 18),21	2110,(5, 19),360	2470,(5, 67),72	2542,(5, 82),24	2566,(5, 97),246	2812,(5, 24),45	2857,(5, 27),3	2860,(5, 30),45	2905,(5, 33),3	2908,(5, 36),33	2941,(5, 39),3	2944,(5, 42),6	2950,(5, 48),3	2953,(5, 51),3	2956,(5, 54),120	3076,(5, 60),6	3082,(5, 63),6	3088,(5, 66),51	3139,(5, 69),3	3142,(5, 72),18	3160,(5, 75),3	3163,(5, 87),9	3172,(5, 90),36	3208,(5, 96),675	3883,(5, 99),39	3922,(5, 102),63	3985,(5, 109),39	4024,(5, 112),75	4099,(5, 120),3	4102,(8, 27),6	4108,(8, 39),3	4111,(8, 42),63	4174,(8, 45),45	4219,(8, 48),15	4234,(8, 54),69	4303,(8, 57),3	4306,(8, 63),3	4309,(8, 66),21	4330,(8, 72),12	4342,(8, 75),39	4381,(8, 81),9	4390,(8, 84),24	4414,(8, 87),93	4507,(8, 99),12	4519,(8, 102),99	4618,(8, 105),3	4621,(8, 111),21	4642,(8, 114),27	4669,(8, 117),84	4753,(8, 120),3	4756,(11, 15),105	4861,(11, 18),12	4873,(11, 21),3	4876,(11, 27),6	4882,(11, 30),6	4888,(11, 33),273	5161,(11, 39),138	5299,(11, 45),6	5305,(11, 48),12	5317,(11, 54),15	5332,(11, 57),3	5335,(11, 60),24	5359,(11, 63),1146	6505,(11, 66),30	6535,(11, 69),3	6538,(11, 84),6	6544,(11, 90),3	6547,(11, 102),3	6550,(11, 111),3	6553,(11, 117),3	6556,(11, 120),3	7717,(8, 13),3	7720,(8, 16),117	7837,(8, 22),27	7864,(8, 28),6	7870,(8, 31),15	7885,(8, 37),54	7939,(8, 43),12	7951,(8, 52),9	7960,(8, 55),3	7963,(8, 61),21	7984,(8, 67),3	7987,(8, 73),270	8257,(8, 79),27	8284,(8, 82),36	8320,(8, 85),21	8341,(8, 91),6	8347,(8, 100),27	8374,(8, 106),48	8422,(8, 112),3	8425,(8, 118),3	8527,(11, 13),12	8539,(11, 19),36	8575,(11, 25),105	8680,(11, 31),39	8719,(11, 34),21	8740,(11, 37),3	8743,(11, 49),438	9181,(11, 52),126	9307,(11, 58),33	9340,(11, 61),24	9364,(11, 64),3	9367,(11, 67),18	9385,(11, 70),57	9442,(11, 73),15	9457,(11, 79),3	9460,(11, 85),3	9463,(11, 88),6	9469,(11, 91),6	9475,(11, 94),3	9478,(11, 100),24	9502,(11, 106),3	9505,(11, 112),45	9550,(11, 115),12	9562,(11, 118),12	10357,(53, 121),30	10387,(32, 121),30	14503,(68, 121),30	14908,(71, 121),30	15754,(23, 121),30	15970,(56, 121),30	16000,(59, 121),30	16123,(62, 121),30	16285,(86, 121),30	16378,(95, 121),30	16630,(107, 121),30	16693,(113, 121),30	16723,(17, 121),30	16879,(26, 121),30	16990,(44, 121),30	17449,(29, 121),30	17674,(92, 121),30	17704,(98, 121),30	17992,(38, 121),30	18250,(14, 121),30	18403,(20, 121),30	18493,(35, 121),30	18652,(47, 121),30	18682,(50, 121),30	18802,(65, 121),30	18862,(74, 121),30	18892,(77, 121),30	19102,(80, 121),30	19132,(83, 121),30	19261,(89, 121),30	19351,(104, 121),30	19411,(110, 121),30	19441,(119, 121),30	20335,(101, 121),30	20890,(116, 121),30	21415,(41, 121),30	
1,(0, 2),24	25,(0, 3),24	49,(0, 5),24	73,(0, 6),24	97,(0, 8),24	121,(0, 9),24	145,(0, 11),24	169,(0, 12),24	193,(7, 15),6	199,(7, 18),60	259,(7, 20),12	271,(7, 21),15	286,(7, 24),1227	1513,(7, 26),9	1522,(7, 27),15	1537,(7, 29),6	1543,(7, 30),33	1576,(7, 32),21	1597,(7, 35),3	1600,(7, 36),51	1651,(7, 38),474	2125,(7, 39),39	2164,(7, 44),15	2179,(7, 45),3	2182,(7, 48),3	2185,(7, 50),3	2188,(7, 51),27	2215,(7, 54),12	2227,(7, 57),18	2245,(7, 59),129	2374,(7, 60),3	2377,(7, 62),6	2383,(7, 68),3	2386,(7, 69),330	2716,(7, 72),90	2806,(7, 75),6	2812,(7, 77),11361	14173,(7, 80),3	14176,(7, 83),279	14455,(7, 92),12	14467,(7, 93),6	14473,(7, 95),3	14476,(7, 96),3	14479,(7, 99),21	14500,(7, 102),9	14509,(7, 104),48	14557,(7, 108),51	14608,(7, 110),3	14611,(7, 111),54	14665,(7, 113),3	14668,(7, 114),9	14677,(7, 120),285	14962,(10, 14),6	14968,(10, 17),18	14986,(10, 21),3	14989,(10, 23),762	15751,(10, 24),84	15835,(10, 26),9	15844,(10, 27),3	15847,(10, 30),3	15850,(10, 35),12	15862,(10, 38),69	15931,(10, 42),3	15934,(10, 47),9	15943,(10, 51),21	15964,(10, 56),3	15967,(10, 59),6	15973,(10, 62),147	16120,(10, 69),9	16129,(10, 74),3	16132,(10, 75),66	16198,(10, 78),12	16210,(10, 81),6	16216,(10, 83),3	16219,(10, 84),33	16252,(10, 86),6	16258,(10, 89),48	16306,(10, 90),39	16345,(10, 92),24	16369,(10, 93),3	16372,(10, 95),3	16375,(10, 99),129	16504,(10, 101),12	16516,(10, 102),33	16549,(10, 107),78	16627,(10, 108),6	16633,(10, 110),3	16636,(10, 111),24	16660,(10, 113),30	16690,(10, 114),6	16696,(10, 116),3	16699,(1, 14),3	16702,(1, 17),15	16717,(1, 18),3	16720,(1, 21),24	16744,(1, 26),132	16876,(1, 27),36	16912,(1, 30),9	16921,(1, 35),9	16930,(1, 36),3	16933,(1, 39),3	16936,(1, 41),18	16954,(1, 44),33	16987,(1, 47),6	16993,(1, 48),21	17014,(1, 54),6	17020,(1, 60),21	17041,(1, 65),30	17071,(1, 69),15	17086,(1, 72),3	17089,(1, 74),51	17140,(1, 80),3	17143,(1, 81),498	17641,(1, 87),3	17644,(1, 92),3	17647,(1, 93),3	17650,(1, 96),39	17689,(1, 98),9	17698,(1, 102),15	17713,(1, 104),3	17716,(1, 108),72	17788,(1, 111),3	17791,(1, 114),66	17857,(1, 117),132	17989,(1, 119),21	18010,(1, 120),6	18016,(4, 14),231	18247,(4, 18),3	18250,(4, 20),150	18400,(4, 21),18	18418,(4, 24),12	18430,(4, 35),6	18436,(4, 36),123	18559,(4, 39),3	18562,(4, 41),21	18583,(4, 45),30	18613,(4, 47),9	18622,(4, 50),30	18652,(4, 51),21	18673,(4, 57),3	18676,(4, 63),9	18685,(4, 65),3	18688,(4, 66),6	18694,(4, 74),12	18706,(4, 77),168	18874,(4, 78),195	19069,(4, 80),24	19093,(4, 83),21	19114,(4, 87),51	19165,(4, 89),93	19258,(4, 93),3	19261,(4, 99),3	19264,(4, 104),12	19276,(4, 105),3	19279,(4, 110),18	19297,(4, 114),57	19354,(4, 119),81	19435,(4, 120),30	
