2802
# CPU
0,0,1	1,1,14	15,3,14	29,7,14	43,15,14	57,20,14	71,19,14	85,18,14	99,17,14	113,14,14	127,16,14	141,13,14	155,12,14	169,11,14	183,10,14	197,9,14	211,6,14	225,8,14	239,2,14	253,5,14	267,4,14	281,183,14	295,84,14	309,23,14	323,120,14	337,87,14	351,157,14	365,112,14	379,108,14	393,86,14	407,47,14	421,160,14	435,34,14	449,169,14	463,144,14	477,22,14	491,142,14	505,137,14	519,135,14	533,131,14	547,124,14	561,116,14	575,96,14	589,197,14	603,95,14	617,93,14	631,90,14	645,79,14	659,67,14	673,61,14	687,60,14	701,178,14	715,163,14	729,198,14	743,162,14	757,158,14	771,154,14	785,152,14	799,150,14	813,148,14	827,141,14	841,139,14	855,138,14	869,134,14	883,125,14	897,121,14	911,117,14	925,111,14	939,102,14	953,100,14	967,98,14	981,91,14	995,88,14	1009,81,14	1023,75,14	1037,71,14	1051,64,14	1065,56,14	1079,48,14	1093,44,14	1107,42,14	1121,39,14	1135,192,14	1149,186,14	1163,30,14	1177,185,14	1191,182,14	1205,26,14	1219,177,14	1233,171,14	1247,167,14	1261,165,14	1275,107,14	1289,187,14	1303,172,14	1317,146,14	1331,190,14	1345,76,14	1359,176,14	1373,73,14	1387,155,14	1401,70,14	1415,132,14	1429,68,14	1443,123,14	1457,65,14	1471,174,14	1485,62,14	1499,126,14	1513,58,14	1527,127,14	1541,55,14	1555,156,14	1569,53,14	1583,170,14	1597,51,14	1611,118,14	1625,49,14	1639,189,14	1653,45,14	1667,109,14	1681,41,14	1695,166,14	1709,38,14	1723,110,14	1737,36,14	1751,113,14	1765,33,14	1779,78,14	1793,31,14	1807,159,14	1821,28,14	1835,179,14	1849,25,14	1863,106,14	1877,21,14	1891,143,14	1905,130,14	1919,97,14	1933,149,14	1947,82,14	1961,92,14	1975,140,14	1989,105,14	2003,85,14	2017,195,14	2031,99,14	2045,145,14	2059,89,14	2073,181,14	2087,80,14	2101,129,14	2115,74,14	2129,194,14	2143,69,14	2157,128,14	2171,63,14	2185,175,14	2199,57,14	2213,119,14	2227,52,14	2241,188,14	2255,46,14	2269,161,14	2283,40,14	2297,196,14	2311,35,14	2325,104,14	2339,29,14	2353,151,14	2367,24,14	2381,136,14	2395,101,14	2409,180,14	2423,103,14	2437,114,14	2451,184,14	2465,83,14	2479,173,14	2493,72,14	2507,199,14	2521,59,14	2535,115,14	2549,50,14	2563,193,14	2577,37,14	2591,153,14	2605,27,14	2619,147,14	2633,94,14	2647,122,14	2661,200,14	2675,66,14	2689,164,14	2703,43,14	2717,168,14	2731,77,14	2745,133,14	2759,191,14	2773,54,14	2787,32,14	2801,201,1	
# Incoming

# Outgoing

