138
# CPU
0,0,1	1,2,12	13,20,12	25,15,12	37,5,12	49,11,12	61,8,12	73,13,12	85,18,12	125,6,12	137,21,1	
15,7,12	53,1,12	65,9,12	77,3,12	89,19,12	101,14,12	
17,10,12	67,12,12	
19,17,12	87,4,12	
23,16,12	
# Incoming
27,(7, 21),2	29,(10, 21),2	31,(17, 21),2	35,(16, 21),2	67,(1, 13),2	69,(1, 18),4	77,(9, 21),2	79,(12, 21),2	89,(3, 21),2	99,(4, 21),2	101,(19, 21),2	103,(1, 6),22	125,(14, 21),2	
13,(2, 7),2	23,(0, 1),30	
15,(2, 10),2	65,(1, 12),2	
17,(2, 17),2	53,(2, 4),20	79,(1, 4),8	
19,(2, 16),4	
# Outgoing
13,(2, 7),2	15,(2, 10),2	17,(2, 17),2	19,(2, 16),4	23,(0, 1),30	53,(2, 4),20	
27,(7, 21),2	65,(1, 12),2	67,(1, 13),2	69,(1, 18),4	77,(9, 21),2	79,(1, 4),8	89,(3, 21),2	101,(19, 21),2	103,(1, 6),22	125,(14, 21),2	
29,(10, 21),2	79,(12, 21),2	
31,(17, 21),2	99,(4, 21),2	
35,(16, 21),2	
