2216
# CPU
121,5,2	241,10,2	243,108,2	263,93,2	267,53,2	279,18,2	591,73,2	611,83,2	669,88,2	693,103,2	711,118,2	757,17,2	767,43,2	841,58,2	1019,23,2	1155,33,2	1227,78,2	1271,113,2	1309,98,2	1441,48,2	1455,28,2	1467,38,2	1515,63,2	1549,68,2	
91,4,2	175,52,2	211,9,2	213,32,2	309,87,2	381,102,2	393,57,2	395,112,2	439,67,2	487,47,2	571,72,2	575,92,2	635,37,2	647,82,2	727,77,2	891,22,2	909,117,2	1069,62,2	1105,16,2	1191,42,2	1307,97,2	1429,107,2	1453,27,2	
61,3,2	103,36,2	181,8,2	277,15,2	281,26,2	411,41,2	423,56,2	441,21,2	559,31,2	567,66,2	687,46,2	699,51,2	1201,71,2	1237,81,2	1321,106,2	1479,61,2	1553,76,2	1651,86,2	1675,91,2	1695,96,2	1697,101,2	1705,111,2	1719,116,2	
31,2,2	151,7,2	153,40,2	199,115,2	227,30,2	271,12,2	273,70,2	357,25,2	359,45,2	405,20,2	463,14,2	465,55,2	479,105,2	489,50,2	529,120,2	843,100,2	1169,35,2	1235,80,2	1299,95,2	1431,110,2	1469,60,2	1539,65,2	1551,75,2	1649,85,2	1653,90,2	
0,0,1	1,11,2	3,1,2	5,6,2	7,13,2	9,19,2	11,64,2	121,59,2	123,24,2	143,119,2	209,79,2	227,69,2	259,54,2	279,109,2	347,39,2	355,84,2	379,44,2	381,49,2	449,29,2	525,89,2	573,99,2	597,114,2	703,74,2	711,104,2	883,94,2	1191,34,2	2215,121,1	
# Incoming
91,(0, 5),30	121,(2, 33),12	133,(2, 38),20	153,(3, 17),6	159,(4, 23),2	175,(3, 58),2	179,(3, 68),4	183,(3, 113),2	199,(8, 17),2	201,(8, 38),2	211,(0, 10),30	241,(2, 93),22	263,(9, 17),2	265,(9, 53),2	267,(9, 118),2	275,(7, 73),2	277,(11, 18),2	283,(11, 38),126	413,(11, 43),44	457,(2, 83),76	533,(3, 118),42	575,(4, 73),16	591,(4, 83),20	611,(4, 88),58	669,(4, 103),24	693,(4, 118),18	711,(7, 17),46	757,(7, 43),10	767,(7, 58),74	841,(7, 98),16	857,(8, 23),18	875,(9, 63),40	915,(12, 23),18	933,(12, 28),18	957,(1, 23),62	1019,(1, 33),136	1169,(1, 38),18	1201,(1, 78),26	1227,(9, 113),44	1271,(12, 48),16	1307,(1, 98),2	1309,(9, 48),132	1453,(6, 28),2	1455,(6, 38),12	1479,(6, 63),36	1539,(6, 68),10	
61,(0, 4),30	91,(2, 22),4	167,(3, 52),8	177,(3, 62),2	181,(0, 9),30	215,(2, 82),2	227,(3, 72),2	229,(3, 82),48	277,(7, 117),2	279,(8, 102),2	281,(11, 37),2	283,(3, 87),26	309,(3, 102),72	381,(5, 37),10	391,(5, 57),2	393,(10, 112),2	395,(12, 22),2	397,(12, 42),2	405,(8, 37),4	411,(11, 42),2	413,(8, 92),10	435,(12, 67),4	441,(12, 27),10	451,(12, 77),4	457,(11, 47),30	491,(11, 62),72	563,(12, 72),8	571,(12, 92),4	575,(8, 22),42	617,(12, 37),18	635,(12, 82),12	653,(11, 77),74	727,(5, 22),164	895,(11, 107),2	897,(11, 117),12	909,(1, 16),48	957,(7, 62),112	1069,(12, 16),36	1187,(1, 42),4	1299,(1, 97),8	1321,(1, 107),108	1431,(6, 27),22	
31,(0, 3),30	93,(4, 15),2	95,(2, 36),8	103,(4, 31),2	105,(4, 46),10	115,(4, 51),4	151,(0, 8),30	181,(4, 116),16	209,(2, 81),6	217,(2, 86),2	219,(7, 51),6	225,(7, 86),2	227,(7, 96),8	235,(7, 116),2	271,(11, 15),6	279,(11, 26),2	281,(4, 86),126	407,(10, 66),2	409,(11, 41),2	411,(5, 56),12	423,(5, 61),12	435,(5, 81),4	439,(12, 21),2	449,(10, 46),10	459,(10, 61),6	465,(10, 106),6	533,(7, 91),22	555,(12, 31),4	559,(12, 66),2	563,(11, 66),4	567,(11, 71),84	651,(7, 46),36	687,(12, 51),12	735,(11, 101),160	895,(12, 71),14	1191,(1, 71),10	1235,(1, 81),2	1237,(1, 86),60	1309,(1, 106),12	1469,(6, 61),10	1551,(6, 76),2	1649,(6, 86),2	1653,(6, 91),22	1675,(6, 96),20	1695,(6, 101),2	1697,(6, 111),8	1705,(6, 116),14	
1,(0, 2),30	95,(4, 20),6	121,(0, 7),30	151,(4, 110),6	159,(3, 45),8	185,(3, 115),14	199,(4, 30),28	241,(0, 12),30	271,(5, 14),84	355,(5, 25),2	357,(5, 45),2	359,(10, 50),4	363,(10, 75),2	365,(10, 105),6	399,(8, 20),6	407,(4, 95),44	451,(8, 14),12	463,(8, 55),2	465,(8, 90),2	467,(8, 105),12	487,(11, 50),2	489,(11, 60),2	507,(9, 80),2	525,(9, 120),4	651,(11, 75),2	727,(11, 95),8	735,(9, 100),108	1155,(1, 35),14	1227,(1, 80),8	1297,(1, 95),2	1429,(1, 110),2	1467,(6, 60),2	1515,(6, 65),24	1549,(6, 75),2	1553,(6, 85),96	1651,(6, 90),2	
103,(2, 59),18	121,(4, 24),2	123,(4, 69),4	127,(4, 79),2	129,(4, 94),2	131,(4, 109),10	141,(4, 119),2	153,(2, 74),2	155,(2, 79),54	209,(3, 49),16	225,(3, 69),2	227,(4, 54),32	259,(9, 84),2	263,(7, 29),12	277,(3, 109),2	279,(7, 34),56	335,(7, 39),12	347,(7, 49),6	353,(7, 84),2	355,(40, 121),18	373,(10, 44),6	379,(10, 49),2	381,(36, 121),18	399,(115, 121),18	417,(30, 121),18	439,(10, 29),10	451,(4, 114),38	489,(52, 121),18	509,(9, 89),16	529,(32, 121),18	547,(10, 99),26	573,(10, 114),24	597,(108, 121),18	615,(93, 121),18	633,(53, 121),18	651,(15, 121),18	669,(18, 121),18	699,(12, 74),4	703,(12, 104),8	711,(26, 121),18	729,(41, 121),18	747,(56, 121),18	765,(21, 121),18	783,(31, 121),18	801,(66, 121),18	819,(46, 121),18	837,(51, 121),18	857,(12, 94),26	891,(73, 121),18	915,(87, 121),18	933,(102, 121),18	951,(57, 121),18	969,(112, 121),18	987,(67, 121),18	1005,(47, 121),18	1023,(72, 121),18	1041,(92, 121),18	1059,(83, 121),18	1077,(37, 121),18	1105,(12, 34),86	1191,(70, 121),18	1209,(25, 121),18	1227,(45, 121),18	1245,(20, 121),18	1263,(88, 121),18	1287,(14, 121),18	1305,(55, 121),18	1323,(105, 121),18	1341,(50, 121),18	1359,(120, 121),18	1377,(103, 121),18	1395,(118, 121),18	1413,(17, 121),18	1441,(82, 121),18	1459,(77, 121),18	1477,(43, 121),18	1495,(58, 121),18	1513,(100, 121),18	1531,(22, 121),18	1549,(117, 121),18	1567,(23, 121),18	1585,(62, 121),18	1603,(16, 121),18	1621,(33, 121),18	1639,(35, 121),18	1657,(42, 121),18	1675,(71, 121),18	1693,(78, 121),18	1711,(80, 121),18	1729,(81, 121),18	1747,(113, 121),18	1765,(95, 121),18	1783,(97, 121),18	1801,(98, 121),18	1819,(106, 121),18	1837,(107, 121),18	1855,(110, 121),18	1873,(48, 121),18	1891,(27, 121),18	1909,(28, 121),18	1927,(38, 121),18	1945,(60, 121),18	1963,(61, 121),18	1981,(63, 121),18	1999,(65, 121),18	2017,(68, 121),18	2035,(75, 121),18	2053,(76, 121),18	2071,(85, 121),18	2089,(86, 121),18	2107,(90, 121),18	2125,(91, 121),18	2143,(96, 121),18	2161,(101, 121),18	2179,(111, 121),18	2197,(116, 121),18	
# Outgoing
271,(5, 14),84	355,(5, 25),2	357,(5, 45),2	359,(10, 50),4	363,(10, 75),2	365,(10, 105),6	373,(10, 44),6	379,(10, 49),2	381,(5, 37),10	391,(5, 57),2	393,(10, 112),2	407,(10, 66),2	411,(5, 56),12	423,(5, 61),12	435,(5, 81),4	439,(10, 29),10	449,(10, 46),10	459,(10, 61),6	465,(10, 106),6	547,(10, 99),26	573,(10, 114),24	597,(108, 121),18	615,(93, 121),18	633,(53, 121),18	669,(18, 121),18	727,(5, 22),164	891,(73, 121),18	1059,(83, 121),18	1263,(88, 121),18	1377,(103, 121),18	1395,(118, 121),18	1413,(17, 121),18	1477,(43, 121),18	1495,(58, 121),18	1567,(23, 121),18	1621,(33, 121),18	1693,(78, 121),18	1747,(113, 121),18	1801,(98, 121),18	1873,(48, 121),18	1909,(28, 121),18	1927,(38, 121),18	1981,(63, 121),18	2017,(68, 121),18	
93,(4, 15),2	95,(4, 20),6	103,(4, 31),2	105,(4, 46),10	115,(4, 51),4	121,(4, 24),2	123,(4, 69),4	127,(4, 79),2	129,(4, 94),2	131,(4, 109),10	141,(4, 119),2	151,(4, 110),6	159,(4, 23),2	181,(4, 116),16	199,(4, 30),28	227,(4, 54),32	259,(9, 84),2	263,(9, 17),2	265,(9, 53),2	267,(9, 118),2	281,(4, 86),126	407,(4, 95),44	451,(4, 114),38	489,(52, 121),18	507,(9, 80),2	509,(9, 89),16	525,(9, 120),4	529,(32, 121),18	575,(4, 73),16	591,(4, 83),20	611,(4, 88),58	669,(4, 103),24	693,(4, 118),18	735,(9, 100),108	875,(9, 63),40	915,(87, 121),18	933,(102, 121),18	951,(57, 121),18	969,(112, 121),18	987,(67, 121),18	1005,(47, 121),18	1023,(72, 121),18	1041,(92, 121),18	1077,(37, 121),18	1227,(9, 113),44	1309,(9, 48),132	1441,(82, 121),18	1459,(77, 121),18	1531,(22, 121),18	1549,(117, 121),18	1585,(62, 121),18	1603,(16, 121),18	1657,(42, 121),18	1783,(97, 121),18	1837,(107, 121),18	1891,(27, 121),18	
153,(3, 17),6	159,(3, 45),8	167,(3, 52),8	175,(3, 58),2	177,(3, 62),2	179,(3, 68),4	183,(3, 113),2	185,(3, 115),14	199,(8, 17),2	201,(8, 38),2	209,(3, 49),16	225,(3, 69),2	227,(3, 72),2	229,(3, 82),48	277,(3, 109),2	279,(8, 102),2	283,(3, 87),26	309,(3, 102),72	381,(36, 121),18	399,(8, 20),6	405,(8, 37),4	413,(8, 92),10	451,(8, 14),12	463,(8, 55),2	465,(8, 90),2	467,(8, 105),12	533,(3, 118),42	575,(8, 22),42	651,(15, 121),18	711,(26, 121),18	729,(41, 121),18	747,(56, 121),18	765,(21, 121),18	783,(31, 121),18	801,(66, 121),18	819,(46, 121),18	837,(51, 121),18	857,(8, 23),18	1675,(71, 121),18	1729,(81, 121),18	1819,(106, 121),18	1963,(61, 121),18	2053,(76, 121),18	2089,(86, 121),18	2125,(91, 121),18	2143,(96, 121),18	2161,(101, 121),18	2179,(111, 121),18	2197,(116, 121),18	
91,(2, 22),4	95,(2, 36),8	103,(2, 59),18	121,(2, 33),12	133,(2, 38),20	153,(2, 74),2	155,(2, 79),54	209,(2, 81),6	215,(2, 82),2	217,(2, 86),2	219,(7, 51),6	225,(7, 86),2	227,(7, 96),8	235,(7, 116),2	241,(2, 93),22	263,(7, 29),12	275,(7, 73),2	277,(7, 117),2	279,(7, 34),56	335,(7, 39),12	347,(7, 49),6	353,(7, 84),2	355,(40, 121),18	395,(12, 22),2	397,(12, 42),2	399,(115, 121),18	417,(30, 121),18	435,(12, 67),4	439,(12, 21),2	441,(12, 27),10	451,(12, 77),4	457,(2, 83),76	533,(7, 91),22	555,(12, 31),4	559,(12, 66),2	563,(12, 72),8	571,(12, 92),4	617,(12, 37),18	635,(12, 82),12	651,(7, 46),36	687,(12, 51),12	699,(12, 74),4	703,(12, 104),8	711,(7, 17),46	757,(7, 43),10	767,(7, 58),74	841,(7, 98),16	857,(12, 94),26	895,(12, 71),14	915,(12, 23),18	933,(12, 28),18	957,(7, 62),112	1069,(12, 16),36	1105,(12, 34),86	1191,(70, 121),18	1209,(25, 121),18	1227,(45, 121),18	1245,(20, 121),18	1271,(12, 48),16	1287,(14, 121),18	1305,(55, 121),18	1323,(105, 121),18	1341,(50, 121),18	1359,(120, 121),18	1513,(100, 121),18	1639,(35, 121),18	1711,(80, 121),18	1765,(95, 121),18	1855,(110, 121),18	1945,(60, 121),18	1999,(65, 121),18	2035,(75, 121),18	2071,(85, 121),18	2107,(90, 121),18	
1,(0, 2),30	31,(0, 3),30	61,(0, 4),30	91,(0, 5),30	121,(0, 7),30	151,(0, 8),30	181,(0, 9),30	211,(0, 10),30	241,(0, 12),30	271,(11, 15),6	277,(11, 18),2	279,(11, 26),2	281,(11, 37),2	283,(11, 38),126	409,(11, 41),2	411,(11, 42),2	413,(11, 43),44	457,(11, 47),30	487,(11, 50),2	489,(11, 60),2	491,(11, 62),72	563,(11, 66),4	567,(11, 71),84	651,(11, 75),2	653,(11, 77),74	727,(11, 95),8	735,(11, 101),160	895,(11, 107),2	897,(11, 117),12	909,(1, 16),48	957,(1, 23),62	1019,(1, 33),136	1155,(1, 35),14	1169,(1, 38),18	1187,(1, 42),4	1191,(1, 71),10	1201,(1, 78),26	1227,(1, 80),8	1235,(1, 81),2	1237,(1, 86),60	1297,(1, 95),2	1299,(1, 97),8	1307,(1, 98),2	1309,(1, 106),12	1321,(1, 107),108	1429,(1, 110),2	1431,(6, 27),22	1453,(6, 28),2	1455,(6, 38),12	1467,(6, 60),2	1469,(6, 61),10	1479,(6, 63),36	1515,(6, 65),24	1539,(6, 68),10	1549,(6, 75),2	1551,(6, 76),2	1553,(6, 85),96	1649,(6, 86),2	1651,(6, 90),2	1653,(6, 91),22	1675,(6, 96),20	1695,(6, 101),2	1697,(6, 111),8	1705,(6, 116),14	
