930
# CPU
7,2,70	77,18,70	147,24,70	217,82,70	287,76,70	357,119,70	427,117,70	497,111,70	567,97,70	637,20,70	707,31,70	777,56,70	847,60,70	
10,3,70	80,13,70	150,34,70	220,86,70	290,115,70	360,108,70	430,106,70	500,101,70	570,55,70	640,87,70	710,42,70	780,21,70	850,35,70	
4,1,70	74,44,70	144,59,70	214,107,70	284,102,70	354,71,70	424,91,70	494,109,70	564,53,70	634,15,70	704,105,70	774,46,70	
19,7,70	89,29,70	159,32,70	229,64,70	299,104,70	369,63,70	439,90,70	509,45,70	579,52,70	649,84,70	719,39,70	789,103,70	
25,9,70	95,16,70	165,17,70	235,75,70	305,120,70	375,112,70	445,95,70	515,61,70	585,27,70	655,83,70	725,48,70	795,26,70	
13,4,70	83,19,70	153,25,70	223,28,70	293,22,70	363,88,70	433,81,70	503,65,70	573,23,70	643,37,70	713,72,70	783,100,70	
31,12,70	101,66,70	171,78,70	241,79,70	311,98,70	381,67,70	451,118,70	521,92,70	591,30,70	661,54,70	731,89,70	
22,8,70	92,14,70	162,50,70	232,94,70	302,36,70	372,116,70	442,41,70	512,49,70	582,57,70	652,96,70	722,33,70	929,121,1	
0,0,1	1,6,70	71,11,70	141,47,70	211,93,70	281,38,70	351,69,70	421,68,70	491,43,70	561,40,70	631,74,70	701,80,70	
16,5,70	86,10,70	156,77,70	226,114,70	296,51,70	366,110,70	436,85,70	506,58,70	576,113,70	646,73,70	716,62,70	786,70,70	856,99,70	
# Incoming
4,(0, 2),3	98,(5, 60),3	
7,(0, 3),3	
1,(0, 1),3	77,(2, 53),3	89,(7, 15),3	92,(7, 105),3	152,(6, 46),3	
16,(0, 7),3	149,(6, 39),3	629,(6, 103),3	
22,(0, 9),3	140,(6, 26),6	
10,(0, 4),3	71,(6, 22),3	74,(6, 23),66	140,(8, 37),15	257,(6, 72),24	620,(6, 100),9	
28,(0, 12),3	146,(6, 30),3	161,(6, 54),18	281,(6, 89),6	
19,(0, 8),3	80,(2, 57),9	89,(5, 41),9	98,(7, 96),12	110,(9, 41),6	144,(44, 121),3	147,(18, 121),3	150,(13, 121),3	155,(6, 49),6	161,(19, 121),3	164,(29, 121),3	167,(16, 121),3	171,(66, 121),3	179,(6, 57),78	257,(59, 121),3	260,(24, 121),3	263,(34, 121),3	266,(25, 121),3	269,(77, 121),3	272,(32, 121),3	275,(17, 121),3	278,(78, 121),3	284,(107, 121),3	287,(6, 96),333	620,(82, 121),3	623,(86, 121),3	626,(28, 121),3	629,(114, 121),3	632,(11, 33),3	635,(47, 121),3	638,(93, 121),3	641,(64, 121),3	644,(75, 121),3	647,(79, 121),3	650,(38, 121),3	653,(102, 121),3	656,(76, 121),3	659,(115, 121),3	662,(22, 121),3	665,(51, 121),3	668,(104, 121),3	671,(120, 121),3	674,(98, 121),3	677,(69, 121),3	680,(71, 121),3	683,(119, 121),3	686,(108, 121),3	689,(88, 121),3	692,(110, 121),3	695,(63, 121),3	698,(112, 121),3	701,(67, 121),3	704,(68, 121),3	707,(91, 121),3	710,(117, 121),3	713,(106, 121),3	716,(81, 121),3	719,(85, 121),3	722,(90, 121),3	725,(95, 121),3	728,(118, 121),3	731,(43, 121),3	734,(109, 121),3	737,(111, 121),3	740,(101, 121),3	743,(65, 121),3	746,(58, 121),3	749,(45, 121),3	752,(61, 121),3	755,(92, 121),3	758,(40, 121),3	761,(53, 121),3	764,(97, 121),3	767,(55, 121),3	770,(23, 121),3	773,(113, 121),3	776,(52, 121),3	779,(27, 121),3	782,(30, 121),3	785,(74, 121),3	788,(15, 121),3	791,(20, 121),3	794,(87, 121),3	797,(37, 121),3	800,(73, 121),3	803,(84, 121),3	806,(83, 121),3	809,(54, 121),3	812,(80, 121),3	815,(105, 121),3	818,(31, 121),3	821,(42, 121),3	824,(72, 121),3	827,(62, 121),3	830,(39, 121),3	833,(48, 121),3	836,(89, 121),3	844,(46, 121),3	847,(56, 121),3	850,(21, 121),3	853,(100, 121),3	856,(70, 121),3	859,(103, 121),3	865,(26, 121),3	917,(60, 121),3	920,(35, 121),3	926,(99, 121),3	
83,(4, 47),6	101,(12, 93),3	155,(8, 80),3	
13,(0, 5),3	25,(0, 10),3	89,(2, 58),15	158,(8, 99),3	
# Outgoing
77,(2, 53),3	80,(2, 57),9	89,(2, 58),15	147,(18, 121),3	260,(24, 121),3	620,(82, 121),3	656,(76, 121),3	683,(119, 121),3	710,(117, 121),3	737,(111, 121),3	764,(97, 121),3	791,(20, 121),3	818,(31, 121),3	847,(56, 121),3	917,(60, 121),3	
150,(13, 121),3	263,(34, 121),3	623,(86, 121),3	659,(115, 121),3	686,(108, 121),3	713,(106, 121),3	740,(101, 121),3	767,(55, 121),3	794,(87, 121),3	821,(42, 121),3	850,(21, 121),3	920,(35, 121),3	
144,(44, 121),3	257,(59, 121),3	284,(107, 121),3	653,(102, 121),3	680,(71, 121),3	707,(91, 121),3	734,(109, 121),3	761,(53, 121),3	788,(15, 121),3	815,(105, 121),3	844,(46, 121),3	
89,(7, 15),3	92,(7, 105),3	98,(7, 96),12	164,(29, 121),3	272,(32, 121),3	641,(64, 121),3	668,(104, 121),3	695,(63, 121),3	722,(90, 121),3	749,(45, 121),3	776,(52, 121),3	803,(84, 121),3	830,(39, 121),3	859,(103, 121),3	
110,(9, 41),6	167,(16, 121),3	275,(17, 121),3	644,(75, 121),3	671,(120, 121),3	698,(112, 121),3	725,(95, 121),3	752,(61, 121),3	779,(27, 121),3	806,(83, 121),3	833,(48, 121),3	865,(26, 121),3	
83,(4, 47),6	161,(19, 121),3	266,(25, 121),3	626,(28, 121),3	662,(22, 121),3	689,(88, 121),3	716,(81, 121),3	743,(65, 121),3	770,(23, 121),3	797,(37, 121),3	824,(72, 121),3	853,(100, 121),3	
101,(12, 93),3	171,(66, 121),3	278,(78, 121),3	647,(79, 121),3	674,(98, 121),3	701,(67, 121),3	728,(118, 121),3	755,(92, 121),3	782,(30, 121),3	809,(54, 121),3	836,(89, 121),3	
140,(8, 37),15	155,(8, 80),3	158,(8, 99),3	
1,(0, 1),3	4,(0, 2),3	7,(0, 3),3	10,(0, 4),3	13,(0, 5),3	16,(0, 7),3	19,(0, 8),3	22,(0, 9),3	25,(0, 10),3	28,(0, 12),3	71,(6, 22),3	74,(6, 23),66	140,(6, 26),6	146,(6, 30),3	149,(6, 39),3	152,(6, 46),3	155,(6, 49),6	161,(6, 54),18	179,(6, 57),78	257,(6, 72),24	281,(6, 89),6	287,(6, 96),333	620,(6, 100),9	629,(6, 103),3	632,(11, 33),3	635,(47, 121),3	638,(93, 121),3	650,(38, 121),3	677,(69, 121),3	704,(68, 121),3	731,(43, 121),3	758,(40, 121),3	785,(74, 121),3	812,(80, 121),3	
89,(5, 41),9	98,(5, 60),3	269,(77, 121),3	629,(114, 121),3	665,(51, 121),3	692,(110, 121),3	719,(85, 121),3	746,(58, 121),3	773,(113, 121),3	800,(73, 121),3	827,(62, 121),3	856,(70, 121),3	926,(99, 121),3	
