200
# CPU
0,0,1	1,2,18	19,12,18	37,19,18	55,4,18	73,9,18	91,7,18	109,1,18	127,8,18	145,13,18	163,6,18	181,16,18	199,21,1	
21,3,18	39,17,18	65,14,18	97,20,18	129,11,18	169,5,18	
23,10,18	43,15,18	131,18,18	
# Incoming
39,(3, 21),4	43,(10, 21),4	57,(17, 21),4	61,(15, 21),4	83,(14, 21),4	115,(20, 21),4	147,(11, 21),4	151,(18, 21),4	187,(5, 21),4	
19,(2, 3),2	23,(2, 17),8	43,(2, 14),22	65,(2, 20),32	127,(1, 11),2	131,(1, 5),38	
21,(2, 10),2	31,(2, 15),12	129,(1, 18),2	
# Outgoing
19,(2, 3),2	21,(2, 10),2	23,(2, 17),8	31,(2, 15),12	43,(2, 14),22	65,(2, 20),32	127,(1, 11),2	129,(1, 18),2	131,(1, 5),38	
39,(3, 21),4	57,(17, 21),4	83,(14, 21),4	115,(20, 21),4	147,(11, 21),4	187,(5, 21),4	
43,(10, 21),4	61,(15, 21),4	151,(18, 21),4	
