252
# CPU
0,0,1	1,4,2	3,9,2	5,36,2	7,7,2	9,28,2	11,12,2	13,13,2	15,32,2	17,3,2	19,22,2	21,29,2	23,33,2	25,30,2	27,39,2	29,8,2	31,23,2	33,16,2	35,25,2	37,34,2	39,38,2	41,5,2	43,11,2	47,27,2	59,26,2	71,24,2	89,14,2	109,20,2	135,35,2	167,19,2	249,31,2	251,41,1	
7,1,2	9,10,2	11,21,2	13,2,2	15,37,2	17,15,2	19,18,2	21,40,2	23,6,2	25,17,2	
# Incoming
11,(10, 41),4	15,(21, 41),4	19,(2, 29),2	21,(37, 41),4	25,(15, 41),4	29,(18, 41),4	33,(40, 41),4	37,(6, 41),4	41,(17, 41),4	45,(1, 27),2	47,(2, 26),12	59,(1, 24),2	61,(2, 24),10	71,(1, 14),18	89,(1, 20),20	109,(1, 35),26	135,(1, 19),32	167,(2, 31),82	
1,(0, 1),6	7,(0, 2),6	
# Outgoing
1,(0, 1),6	7,(0, 2),6	
11,(10, 41),4	15,(21, 41),4	19,(2, 29),2	21,(37, 41),4	25,(15, 41),4	29,(18, 41),4	33,(40, 41),4	37,(6, 41),4	41,(17, 41),4	45,(1, 27),2	47,(2, 26),12	59,(1, 24),2	61,(2, 24),10	71,(1, 14),18	89,(1, 20),20	109,(1, 35),26	135,(1, 19),32	167,(2, 31),82	
