1696
# CPU
0,0,1	1,5,24	25,146,24	49,51,24	73,17,24	97,39,24	121,16,24	145,167,24	169,186,24	193,25,24	217,105,24	241,124,24	265,197,24	289,136,24	313,162,24	358,62,24	404,42,24	450,48,24	496,55,24	542,127,24	588,100,24	635,71,24	682,108,24	729,31,24	776,83,24	824,80,24	872,106,24	921,60,24	970,168,24	1020,46,24	1071,148,24	1123,82,24	1175,140,24	1230,117,24	1290,21,24	1379,187,24	1476,143,24	1671,104,24	1695,201,1	
15,9,24	43,15,24	67,50,24	91,138,24	115,22,24	139,58,24	163,65,24	187,183,24	211,63,24	235,129,24	259,112,24	283,177,24	307,166,24	331,98,24	355,113,24	379,191,24	403,103,24	427,147,24	
26,84,24	58,4,24	86,3,24	114,13,24	138,115,24	162,26,24	186,160,24	210,133,24	234,81,24	258,91,24	282,90,24	306,151,24	330,126,24	354,59,24	378,185,24	402,195,24	426,57,24	450,128,24	
44,190,24	68,142,24	93,19,24	117,171,24	141,144,24	165,32,24	189,125,24	213,66,24	237,164,24	261,139,24	285,77,24	309,155,24	333,94,24	357,70,24	381,47,24	405,74,24	429,61,24	
36,1,24	65,18,24	89,23,24	113,193,24	137,176,24	161,40,24	185,157,24	209,96,24	233,68,24	257,93,24	281,89,24	305,163,24	329,156,24	353,161,24	377,88,24	401,149,24	425,67,24	449,92,24	
45,85,24	69,199,24	93,179,24	121,20,24	145,130,24	169,101,24	193,24,24	217,137,24	241,172,24	265,97,24	289,118,24	313,52,24	337,132,24	361,43,24	385,79,24	409,41,24	433,121,24	457,44,24	
48,152,24	72,14,24	96,154,24	128,2,24	152,196,24	176,178,24	200,64,24	224,53,24	248,72,24	272,180,24	296,110,24	320,38,24	344,159,24	368,27,24	392,111,24	416,107,24	440,131,24	1557,49,24	
29,175,24	55,75,24	79,33,24	103,11,24	127,69,24	151,56,24	175,194,24	199,192,24	223,181,24	247,119,24	271,173,24	295,30,24	319,28,24	343,122,24	367,169,24	391,198,24	415,109,24	439,86,24	
22,6,24	51,10,24	75,76,24	99,102,24	123,153,24	147,150,24	171,158,24	195,34,24	219,123,24	243,73,24	267,189,24	291,45,24	315,37,24	339,182,24	363,145,24	387,174,24	411,134,24	435,170,24	
8,12,24	32,120,24	56,99,24	80,8,24	107,7,24	131,87,24	155,54,24	179,35,24	203,36,24	227,95,24	251,29,24	275,135,24	299,188,24	323,200,24	347,78,24	371,141,24	395,165,24	419,114,24	443,184,24	467,116,24	
# Incoming
50,(84, 201),9	59,(175, 201),9	68,(120, 201),9	77,(190, 201),9	86,(85, 201),9	95,(152, 201),9	104,(75, 201),9	113,(99, 201),9	122,(50, 201),9	131,(142, 201),9	140,(199, 201),9	149,(76, 201),9	158,(33, 201),9	167,(8, 186),1	168,(23, 201),9	177,(138, 201),9	186,(179, 201),9	195,(154, 201),9	204,(102, 201),9	213,(193, 201),9	222,(22, 201),9	231,(171, 201),9	240,(153, 201),9	249,(69, 201),9	258,(87, 201),9	267,(176, 201),9	276,(115, 201),9	285,(58, 201),9	294,(144, 201),9	303,(130, 201),9	312,(150, 201),9	321,(56, 201),9	330,(196, 201),9	339,(54, 201),9	348,(40, 201),9	357,(4, 62),1	358,(26, 201),9	367,(65, 201),9	376,(32, 201),9	385,(101, 201),9	394,(158, 201),9	403,(1, 42),1	404,(194, 201),9	413,(178, 201),9	422,(35, 201),9	431,(157, 201),9	440,(160, 201),9	449,(20, 48),1	450,(183, 201),9	459,(125, 201),9	468,(24, 201),9	477,(34, 201),9	486,(192, 201),9	495,(8, 55),1	496,(64, 201),9	505,(36, 201),9	514,(96, 201),9	523,(133, 201),9	532,(63, 201),9	541,(9, 127),1	542,(66, 201),9	551,(137, 201),9	560,(123, 201),9	569,(181, 201),9	578,(53, 201),9	587,(19, 100),1	588,(95, 201),9	597,(68, 201),9	606,(81, 201),9	615,(129, 201),9	624,(164, 201),9	633,(3, 71),2	635,(172, 201),9	644,(73, 201),9	653,(119, 201),9	662,(72, 201),9	671,(29, 201),9	680,(9, 108),2	682,(93, 201),9	691,(91, 201),9	700,(112, 201),9	709,(139, 201),9	718,(97, 201),9	727,(9, 31),1	728,(15, 31),1	729,(189, 201),9	738,(173, 201),9	747,(180, 201),9	756,(135, 201),9	765,(89, 201),9	774,(12, 83),2	776,(90, 201),9	785,(177, 201),9	794,(77, 201),9	803,(118, 201),9	812,(45, 201),9	821,(14, 80),2	823,(8, 80),1	824,(30, 201),9	833,(110, 201),9	842,(188, 201),9	851,(163, 201),9	860,(151, 201),9	869,(13, 106),2	871,(20, 106),1	872,(166, 201),9	881,(155, 201),9	890,(52, 201),9	899,(37, 201),9	908,(28, 201),9	917,(13, 60),4	921,(38, 201),9	930,(200, 201),9	939,(156, 201),9	948,(126, 201),9	957,(98, 201),9	966,(9, 168),2	968,(15, 168),1	969,(14, 168),1	970,(94, 201),9	979,(132, 201),9	988,(182, 201),9	997,(122, 201),9	1006,(159, 201),9	1015,(7, 46),5	1020,(78, 201),9	1029,(161, 201),9	1038,(59, 201),9	1047,(113, 201),9	1056,(70, 201),9	1065,(8, 148),6	1071,(43, 201),9	1080,(145, 201),9	1089,(169, 201),9	1098,(27, 201),9	1107,(141, 201),9	1116,(18, 82),7	1123,(88, 201),9	1132,(185, 201),9	1141,(191, 201),9	1150,(47, 201),9	1159,(79, 201),9	1168,(3, 140),7	1175,(174, 201),9	1184,(198, 201),9	1193,(111, 201),9	1202,(165, 201),9	1211,(149, 201),9	1220,(10, 117),2	1222,(4, 117),5	1227,(11, 117),3	1230,(195, 201),9	1239,(103, 201),9	1248,(74, 201),9	1257,(41, 201),9	1266,(134, 201),9	1275,(19, 21),11	1286,(20, 21),4	1290,(109, 201),9	1299,(107, 201),9	1308,(114, 201),9	1317,(67, 201),9	1326,(57, 201),9	1335,(9, 187),21	1356,(4, 187),23	1379,(147, 201),9	1388,(61, 201),9	1397,(121, 201),9	1406,(170, 201),9	1415,(86, 201),9	1424,(15, 143),42	1466,(4, 143),5	1471,(8, 143),5	1476,(131, 201),9	1485,(184, 201),9	1494,(92, 201),9	1503,(128, 201),9	1512,(44, 201),9	1521,(8, 104),93	1614,(13, 104),57	1671,(116, 201),9	1680,(49, 201),9	
8,(0, 9),7	36,(0, 15),7	57,(6, 112),1	65,(6, 113),1	68,(1, 166),3	77,(10, 166),1	89,(18, 183),1	90,(10, 191),5	96,(18, 177),3	105,(8, 113),1	106,(14, 129),1	117,(19, 63),1	128,(5, 65),1	131,(5, 166),2	133,(11, 191),1	149,(20, 98),6	156,(20, 147),3	164,(16, 113),6	170,(19, 191),10	180,(3, 103),14	194,(19, 147),12	207,(7, 103),10	221,(2, 147),9	
25,(5, 84),1	51,(0, 4),7	67,(1, 151),1	75,(1, 57),3	79,(0, 3),7	86,(12, 59),1	107,(0, 13),7	114,(14, 195),5	141,(7, 126),2	155,(20, 59),1	178,(16, 185),3	187,(16, 57),4	293,(5, 128),10	
39,(9, 190),5	56,(6, 164),1	60,(1, 142),1	78,(12, 164),2	80,(10, 77),2	82,(15, 70),1	83,(4, 66),1	84,(10, 74),1	86,(0, 19),7	93,(18, 139),3	96,(4, 77),1	104,(8, 66),1	106,(18, 47),3	110,(3, 125),1	111,(1, 70),6	122,(8, 47),5	127,(3, 74),2	133,(7, 77),2	135,(17, 155),1	145,(16, 155),4	157,(17, 94),7	168,(7, 47),9	177,(2, 74),13	191,(17, 61),5	217,(8, 74),10	227,(5, 61),23	
29,(0, 1),7	58,(0, 18),7	82,(10, 149),1	107,(14, 89),1	119,(19, 161),1	120,(19, 88),1	122,(14, 67),2	132,(7, 93),1	138,(13, 163),1	143,(5, 149),1	144,(5, 67),1	156,(16, 156),1	157,(15, 67),16	186,(17, 67),1	194,(4, 92),21	279,(16, 92),14	367,(3, 92),34	
43,(5, 85),1	44,(9, 85),1	55,(9, 199),1	56,(9, 43),2	61,(1, 199),1	62,(1, 179),2	73,(1, 79),2	76,(10, 172),1	78,(10, 79),1	80,(12, 43),4	84,(4, 137),1	85,(10, 132),3	88,(4, 132),7	99,(18, 43),1	104,(9, 44),4	108,(14, 118),5	114,(0, 20),7	121,(19, 52),1	127,(11, 97),3	134,(17, 43),1	136,(5, 52),3	139,(7, 52),2	141,(14, 43),6	177,(12, 79),14	213,(6, 41),26	250,(5, 121),29	311,(8, 44),11	322,(19, 44),34	
45,(9, 152),1	46,(6, 152),2	62,(6, 110),3	65,(0, 14),7	72,(1, 180),1	73,(6, 107),1	83,(15, 111),3	92,(18, 159),1	93,(15, 107),11	113,(3, 27),6	121,(0, 2),7	128,(19, 107),1	138,(7, 27),1	142,(5, 111),1	149,(16, 38),7	156,(7, 159),8	164,(13, 27),4	168,(13, 111),4	172,(13, 49),2	181,(17, 111),3	184,(16, 107),2	197,(17, 131),4	285,(13, 131),53	348,(8, 49),7	440,(1, 49),54	
26,(5, 175),3	46,(9, 75),9	59,(6, 30),3	62,(9, 169),3	65,(1, 30),2	67,(15, 33),1	68,(15, 173),2	75,(10, 33),1	77,(12, 181),1	82,(4, 56),1	83,(1, 28),6	90,(18, 192),1	93,(0, 11),7	100,(4, 169),3	103,(4, 86),1	104,(18, 169),2	106,(12, 198),3	112,(3, 192),1	117,(18, 86),4	129,(17, 181),1	131,(7, 194),1	139,(5, 198),3	144,(13, 122),7	151,(13, 86),1	153,(2, 194),1	155,(2, 119),2	159,(20, 86),8	191,(7, 198),16	207,(16, 109),12	219,(13, 109),19	238,(12, 86),16	254,(3, 86),14	305,(7, 86),6	
15,(0, 6),7	44,(0, 10),7	64,(1, 123),1	70,(15, 45),2	72,(15, 37),1	73,(15, 182),7	80,(15, 170),2	85,(4, 73),2	91,(18, 189),1	100,(18, 145),4	104,(14, 150),1	105,(14, 34),1	111,(3, 34),1	119,(4, 174),5	124,(3, 174),3	130,(17, 189),1	135,(7, 45),3	139,(13, 37),5	144,(11, 174),8	152,(2, 158),1	154,(2, 123),1	164,(7, 174),3	170,(17, 145),8	196,(5, 170),1	204,(2, 134),17	227,(8, 134),6	267,(7, 170),38	
1,(0, 12),7	48,(6, 99),8	58,(6, 135),1	72,(0, 8),7	79,(10, 200),1	80,(1, 165),3	87,(4, 165),1	100,(0, 7),7	113,(14, 141),1	118,(19, 188),1	119,(14, 114),3	130,(11, 141),1	131,(11, 114),2	133,(5, 78),1	134,(11, 116),2	157,(2, 184),20	230,(14, 116),48	
# Outgoing
1,(0, 12),7	8,(0, 9),7	15,(0, 6),7	25,(5, 84),1	26,(5, 175),3	29,(0, 1),7	36,(0, 15),7	43,(5, 85),1	44,(0, 10),7	51,(0, 4),7	58,(0, 18),7	65,(0, 14),7	72,(0, 8),7	79,(0, 3),7	86,(0, 19),7	93,(0, 11),7	100,(0, 7),7	107,(0, 13),7	114,(0, 20),7	121,(0, 2),7	128,(5, 65),1	129,(17, 181),1	130,(17, 189),1	131,(5, 166),2	133,(5, 78),1	134,(17, 43),1	135,(17, 155),1	136,(5, 52),3	139,(5, 198),3	142,(5, 111),1	143,(5, 149),1	144,(5, 67),1	145,(16, 155),4	149,(16, 38),7	156,(16, 156),1	157,(17, 94),7	164,(16, 113),6	170,(17, 145),8	178,(16, 185),3	181,(17, 111),3	184,(16, 107),2	186,(17, 67),1	187,(16, 57),4	191,(17, 61),5	196,(5, 170),1	197,(17, 131),4	207,(16, 109),12	227,(5, 61),23	250,(5, 121),29	279,(16, 92),14	293,(5, 128),10	
39,(9, 190),5	44,(9, 85),1	45,(9, 152),1	46,(9, 75),9	55,(9, 199),1	56,(9, 43),2	62,(9, 169),3	67,(15, 33),1	68,(15, 173),2	70,(15, 45),2	72,(15, 37),1	73,(15, 182),7	80,(15, 170),2	82,(15, 70),1	83,(15, 111),3	93,(15, 107),11	104,(9, 44),4	122,(50, 201),9	157,(15, 67),16	177,(138, 201),9	222,(22, 201),9	285,(58, 201),9	367,(65, 201),9	450,(183, 201),9	532,(63, 201),9	541,(9, 127),1	615,(129, 201),9	680,(9, 108),2	700,(112, 201),9	727,(9, 31),1	728,(15, 31),1	785,(177, 201),9	872,(166, 201),9	957,(98, 201),9	966,(9, 168),2	968,(15, 168),1	1047,(113, 201),9	1141,(191, 201),9	1239,(103, 201),9	1335,(9, 187),21	1379,(147, 201),9	1424,(15, 143),42	
50,(84, 201),9	82,(4, 56),1	83,(4, 66),1	84,(4, 137),1	85,(4, 73),2	87,(4, 165),1	88,(4, 132),7	96,(4, 77),1	100,(4, 169),3	103,(4, 86),1	110,(3, 125),1	111,(3, 34),1	112,(3, 192),1	113,(3, 27),6	119,(4, 174),5	124,(3, 174),3	127,(3, 74),2	138,(13, 163),1	139,(13, 37),5	144,(13, 122),7	151,(13, 86),1	164,(13, 27),4	168,(13, 111),4	172,(13, 49),2	180,(3, 103),14	194,(4, 92),21	219,(13, 109),19	254,(3, 86),14	276,(115, 201),9	285,(13, 131),53	357,(4, 62),1	358,(26, 201),9	367,(3, 92),34	440,(160, 201),9	523,(133, 201),9	606,(81, 201),9	633,(3, 71),2	691,(91, 201),9	776,(90, 201),9	860,(151, 201),9	869,(13, 106),2	917,(13, 60),4	948,(126, 201),9	1038,(59, 201),9	1132,(185, 201),9	1168,(3, 140),7	1222,(4, 117),5	1230,(195, 201),9	1326,(57, 201),9	1356,(4, 187),23	1466,(4, 143),5	1503,(128, 201),9	1614,(13, 104),57	
77,(190, 201),9	117,(19, 63),1	118,(19, 188),1	119,(19, 161),1	120,(19, 88),1	121,(19, 52),1	128,(19, 107),1	131,(142, 201),9	170,(19, 191),10	194,(19, 147),12	231,(171, 201),9	294,(144, 201),9	322,(19, 44),34	376,(32, 201),9	459,(125, 201),9	542,(66, 201),9	587,(19, 100),1	624,(164, 201),9	709,(139, 201),9	794,(77, 201),9	881,(155, 201),9	970,(94, 201),9	1056,(70, 201),9	1150,(47, 201),9	1248,(74, 201),9	1275,(19, 21),11	1388,(61, 201),9	
60,(1, 142),1	61,(1, 199),1	62,(1, 179),2	64,(1, 123),1	65,(1, 30),2	67,(1, 151),1	68,(1, 166),3	72,(1, 180),1	73,(1, 79),2	75,(1, 57),3	80,(1, 165),3	83,(1, 28),6	89,(18, 183),1	90,(18, 192),1	91,(18, 189),1	92,(18, 159),1	93,(18, 139),3	96,(18, 177),3	99,(18, 43),1	100,(18, 145),4	104,(18, 169),2	106,(18, 47),3	111,(1, 70),6	117,(18, 86),4	168,(23, 201),9	213,(193, 201),9	267,(176, 201),9	348,(40, 201),9	403,(1, 42),1	431,(157, 201),9	440,(1, 49),54	514,(96, 201),9	597,(68, 201),9	682,(93, 201),9	765,(89, 201),9	851,(163, 201),9	939,(156, 201),9	1029,(161, 201),9	1116,(18, 82),7	1123,(88, 201),9	1211,(149, 201),9	1317,(67, 201),9	1494,(92, 201),9	
86,(85, 201),9	140,(199, 201),9	149,(20, 98),6	155,(20, 59),1	156,(20, 147),3	159,(20, 86),8	186,(179, 201),9	303,(130, 201),9	385,(101, 201),9	449,(20, 48),1	468,(24, 201),9	551,(137, 201),9	635,(172, 201),9	718,(97, 201),9	803,(118, 201),9	871,(20, 106),1	890,(52, 201),9	979,(132, 201),9	1071,(43, 201),9	1159,(79, 201),9	1257,(41, 201),9	1286,(20, 21),4	1397,(121, 201),9	1512,(44, 201),9	
95,(152, 201),9	104,(14, 150),1	105,(14, 34),1	106,(14, 129),1	107,(14, 89),1	108,(14, 118),5	113,(14, 141),1	114,(14, 195),5	119,(14, 114),3	122,(14, 67),2	141,(14, 43),6	152,(2, 158),1	153,(2, 194),1	154,(2, 123),1	155,(2, 119),2	157,(2, 184),20	177,(2, 74),13	195,(154, 201),9	204,(2, 134),17	221,(2, 147),9	230,(14, 116),48	330,(196, 201),9	413,(178, 201),9	496,(64, 201),9	578,(53, 201),9	662,(72, 201),9	747,(180, 201),9	821,(14, 80),2	833,(110, 201),9	921,(38, 201),9	969,(14, 168),1	1006,(159, 201),9	1098,(27, 201),9	1193,(111, 201),9	1299,(107, 201),9	1476,(131, 201),9	1680,(49, 201),9	
59,(175, 201),9	104,(75, 201),9	127,(11, 97),3	130,(11, 141),1	131,(11, 114),2	133,(11, 191),1	134,(11, 116),2	144,(11, 174),8	158,(33, 201),9	249,(69, 201),9	321,(56, 201),9	404,(194, 201),9	486,(192, 201),9	569,(181, 201),9	653,(119, 201),9	738,(173, 201),9	824,(30, 201),9	908,(28, 201),9	997,(122, 201),9	1089,(169, 201),9	1184,(198, 201),9	1227,(11, 117),3	1290,(109, 201),9	1415,(86, 201),9	
46,(6, 152),2	48,(6, 99),8	56,(6, 164),1	57,(6, 112),1	58,(6, 135),1	59,(6, 30),3	62,(6, 110),3	65,(6, 113),1	73,(6, 107),1	75,(10, 33),1	76,(10, 172),1	77,(10, 166),1	78,(10, 79),1	79,(10, 200),1	80,(10, 77),2	82,(10, 149),1	84,(10, 74),1	85,(10, 132),3	90,(10, 191),5	149,(76, 201),9	204,(102, 201),9	213,(6, 41),26	240,(153, 201),9	312,(150, 201),9	394,(158, 201),9	477,(34, 201),9	560,(123, 201),9	644,(73, 201),9	729,(189, 201),9	812,(45, 201),9	899,(37, 201),9	988,(182, 201),9	1080,(145, 201),9	1175,(174, 201),9	1220,(10, 117),2	1266,(134, 201),9	1406,(170, 201),9	
68,(120, 201),9	77,(12, 181),1	78,(12, 164),2	80,(12, 43),4	86,(12, 59),1	104,(8, 66),1	105,(8, 113),1	106,(12, 198),3	113,(99, 201),9	122,(8, 47),5	131,(7, 194),1	132,(7, 93),1	133,(7, 77),2	135,(7, 45),3	138,(7, 27),1	139,(7, 52),2	141,(7, 126),2	156,(7, 159),8	164,(7, 174),3	167,(8, 186),1	168,(7, 47),9	177,(12, 79),14	191,(7, 198),16	207,(7, 103),10	217,(8, 74),10	227,(8, 134),6	238,(12, 86),16	258,(87, 201),9	267,(7, 170),38	305,(7, 86),6	311,(8, 44),11	339,(54, 201),9	348,(8, 49),7	422,(35, 201),9	495,(8, 55),1	505,(36, 201),9	588,(95, 201),9	671,(29, 201),9	756,(135, 201),9	774,(12, 83),2	823,(8, 80),1	842,(188, 201),9	930,(200, 201),9	1015,(7, 46),5	1020,(78, 201),9	1065,(8, 148),6	1107,(141, 201),9	1202,(165, 201),9	1308,(114, 201),9	1471,(8, 143),5	1485,(184, 201),9	1521,(8, 104),93	1671,(116, 201),9	
