4015
# CPU
3,1,5	8,2,5	13,3,5	18,163,5	23,4,5	28,9,5	33,10,5	38,11,5	43,12,5	48,44,5	53,87,5	58,15,5	63,17,5	68,59,5	73,179,5	78,102,5	83,172,5	88,175,5	93,157,5	98,89,5	103,83,5	108,80,5	113,71,5	118,171,5	123,55,5	128,65,5	133,37,5	138,23,5	143,88,5	148,115,5	153,72,5	158,151,5	163,41,5	168,99,5	173,104,5	178,85,5	183,36,5	188,158,5	193,160,5	198,108,5	203,192,5	208,170,5	213,150,5	218,61,5	223,173,5	228,178,5	233,32,5	271,45,5	283,64,5	291,142,5	329,174,5	355,180,5	393,38,5	419,167,5	473,91,5	478,100,5	487,139,5	492,147,5	499,162,5	504,177,5	509,184,5	555,69,5	603,123,5	611,40,5	645,76,5	650,128,5	655,187,5	683,84,5	688,134,5	693,138,5	698,146,5	703,161,5	708,27,5	713,35,5	718,51,5	725,53,5	730,62,5	735,78,5	741,82,5	746,92,5	751,103,5	756,111,5	761,113,5	766,120,5	771,124,5	776,132,5	799,166,5	804,183,5	809,188,5	814,200,5	833,22,5	841,43,5	846,56,5	861,74,5	866,86,5	877,127,5	883,136,5	888,165,5	897,191,5	911,194,5	
0,0,1	1,5,5	6,7,5	11,16,5	16,13,5	21,19,5	26,14,5	31,18,5	36,20,5	41,8,5	46,6,5	51,129,5	56,121,5	61,159,5	66,148,5	71,117,5	76,77,5	81,34,5	86,137,5	91,30,5	96,73,5	101,50,5	106,24,5	111,48,5	116,39,5	121,81,5	126,97,5	131,79,5	136,66,5	141,28,5	146,29,5	151,169,5	156,105,5	161,107,5	166,182,5	171,193,5	176,143,5	181,145,5	186,116,5	191,31,5	196,47,5	201,33,5	206,54,5	211,190,5	216,176,5	221,154,5	936,25,5	942,42,5	1000,58,5	1022,101,5	1090,119,5	1114,149,5	1136,152,5	1142,181,5	1147,186,5	1158,199,5	1190,21,5	1268,26,5	1400,63,5	1424,96,5	1456,141,5	1461,155,5	1476,189,5	1481,70,5	1508,98,5	1522,164,5	1528,196,5	1533,95,5	1538,118,5	1548,49,5	1553,68,5	1558,75,5	1592,112,5	1602,125,5	1607,130,5	1612,135,5	1617,140,5	1624,153,5	1629,197,5	1636,198,5	1646,52,5	1651,60,5	1656,90,5	1661,93,5	1672,110,5	1704,131,5	1710,144,5	1716,156,5	1721,168,5	1904,67,5	1910,94,5	1938,106,5	2184,109,5	2202,122,5	2224,195,5	2232,46,5	2254,57,5	2259,114,5	2270,126,5	2275,133,5	2280,185,5	4014,201,1	
# Incoming
1,(0, 1),2	3,(0, 2),2	5,(0, 3),2	7,(0, 4),2	9,(0, 9),2	11,(0, 10),2	13,(0, 11),2	15,(0, 12),2	17,(0, 15),2	19,(0, 17),2	21,(5, 22),2	23,(5, 43),2	25,(5, 51),2	27,(5, 55),2	29,(5, 64),4	33,(5, 86),2	35,(5, 99),14	49,(5, 104),6	55,(5, 127),2	57,(5, 142),20	77,(5, 147),2	79,(5, 166),24	103,(5, 167),2	105,(5, 173),38	143,(5, 178),2	145,(5, 180),20	165,(5, 188),4	169,(5, 191),30	199,(7, 32),2	201,(7, 35),38	239,(7, 38),10	249,(7, 45),22	271,(7, 64),12	283,(7, 86),2	285,(7, 142),6	291,(7, 147),14	305,(7, 166),14	319,(7, 174),10	329,(7, 180),26	355,(7, 183),2	357,(16, 38),36	393,(16, 120),8	401,(16, 134),6	407,(16, 167),12	419,(16, 184),2	421,(16, 191),16	437,(16, 200),4	441,(13, 91),32	473,(13, 100),2	475,(13, 127),2	477,(13, 134),6	483,(13, 139),4	487,(13, 147),2	489,(13, 162),10	499,(13, 177),2	501,(13, 184),2	503,(13, 187),18	521,(13, 194),32	553,(19, 69),2	555,(19, 82),2	557,(19, 103),2	559,(19, 120),28	587,(19, 123),16	603,(19, 188),6	609,(14, 40),2	611,(14, 43),26	637,(14, 51),2	639,(14, 76),6	645,(14, 86),2	647,(14, 128),2	649,(14, 187),2	651,(18, 22),24	675,(18, 35),4	679,(18, 82),2	681,(18, 84),2	683,(18, 134),2	685,(18, 138),2	687,(18, 146),4	691,(18, 161),4	695,(18, 165),4	699,(20, 27),2	701,(20, 35),2	703,(20, 51),4	707,(20, 53),18	725,(20, 62),4	729,(20, 78),2	731,(20, 82),10	741,(20, 92),2	743,(20, 103),6	749,(20, 111),2	751,(20, 113),2	753,(20, 120),2	755,(20, 124),6	761,(20, 132),4	765,(20, 136),10	775,(20, 165),2	777,(20, 166),22	799,(20, 183),4	803,(20, 188),4	807,(20, 191),2	809,(20, 200),2	811,(8, 22),22	833,(8, 43),8	841,(8, 56),4	845,(8, 74),16	861,(8, 86),2	863,(8, 127),14	877,(8, 136),6	883,(8, 165),4	887,(8, 191),10	897,(8, 194),14	
8,(1, 33),2	10,(1, 39),4	14,(1, 60),12	26,(1, 94),4	30,(1, 109),168	198,(1, 112),2	200,(1, 135),6	206,(1, 141),8	214,(1, 152),4	218,(1, 164),12	230,(1, 185),4	234,(1, 189),82	316,(2, 63),66	382,(2, 67),220	602,(2, 94),60	662,(2, 110),14	676,(2, 118),22	698,(2, 131),2	700,(2, 144),204	904,(2, 181),12	916,(3, 25),20	936,(3, 42),6	942,(3, 46),10	952,(3, 58),48	1000,(3, 60),6	1006,(3, 90),2	1008,(3, 101),14	1022,(3, 106),34	1056,(3, 109),18	1074,(3, 119),16	1090,(3, 149),24	1114,(3, 152),22	1136,(3, 156),2	1138,(3, 164),2	1140,(3, 181),2	1142,(3, 186),2	1144,(3, 198),12	1156,(3, 199),2	1158,(163, 201),20	1178,(4, 21),12	1190,(4, 26),78	1268,(4, 52),6	1274,(4, 57),16	1290,(4, 63),110	1400,(4, 94),18	1418,(4, 96),6	1424,(4, 98),12	1436,(4, 141),20	1456,(4, 155),2	1458,(4, 189),18	1476,(9, 70),2	1478,(9, 94),24	1502,(9, 98),6	1508,(9, 122),8	1516,(9, 133),2	1518,(9, 164),4	1522,(9, 195),2	1524,(9, 196),4	1528,(10, 95),2	1530,(10, 118),2	1532,(11, 49),16	1548,(11, 68),4	1552,(11, 75),4	1556,(11, 93),10	1566,(11, 112),26	1592,(11, 125),10	1602,(11, 130),2	1604,(11, 135),2	1606,(11, 140),4	1610,(11, 153),14	1624,(11, 197),4	1628,(11, 198),8	1636,(12, 52),10	1646,(12, 60),2	1648,(12, 67),2	1650,(12, 90),2	1652,(12, 93),2	1654,(12, 110),18	1672,(12, 131),32	1704,(12, 144),6	1710,(12, 156),6	1716,(12, 168),2	1718,(44, 201),20	1738,(87, 201),20	1758,(15, 67),146	1904,(15, 94),6	1910,(15, 106),28	1938,(15, 109),246	2184,(15, 122),18	2202,(15, 133),8	2210,(15, 195),14	2224,(17, 46),8	2232,(17, 57),22	2254,(17, 114),2	2256,(17, 126),14	2270,(17, 133),2	2272,(17, 185),2	2274,(59, 201),20	2294,(179, 201),20	2314,(102, 201),20	2334,(172, 201),20	2354,(175, 201),20	2374,(157, 201),20	2394,(89, 201),20	2414,(83, 201),20	2434,(80, 201),20	2454,(71, 201),20	2474,(171, 201),20	2494,(55, 201),20	2514,(65, 201),20	2534,(37, 201),20	2554,(23, 201),20	2574,(88, 201),20	2594,(115, 201),20	2614,(72, 201),20	2634,(151, 201),20	2654,(41, 201),20	2674,(99, 201),20	2694,(104, 201),20	2714,(85, 201),20	2734,(36, 201),20	2754,(158, 201),20	2774,(160, 201),20	2794,(108, 201),20	2814,(192, 201),20	2834,(170, 201),20	2854,(150, 201),20	2874,(61, 201),20	2894,(173, 201),20	2914,(178, 201),20	2934,(32, 201),20	2954,(45, 201),20	2974,(64, 201),20	2994,(142, 201),20	3014,(174, 201),20	3034,(180, 201),20	3054,(38, 201),20	3074,(167, 201),20	3094,(91, 201),20	3114,(100, 201),20	3134,(139, 201),20	3154,(147, 201),20	3174,(162, 201),20	3194,(177, 201),20	3214,(184, 201),20	3234,(69, 201),20	3254,(123, 201),20	3274,(40, 201),20	3294,(76, 201),20	3314,(128, 201),20	3334,(187, 201),20	3354,(84, 201),20	3374,(134, 201),20	3394,(138, 201),20	3414,(146, 201),20	3434,(161, 201),20	3454,(27, 201),20	3474,(35, 201),20	3494,(51, 201),20	3514,(53, 201),20	3534,(62, 201),20	3554,(78, 201),20	3574,(82, 201),20	3594,(92, 201),20	3614,(103, 201),20	3634,(111, 201),20	3654,(113, 201),20	3674,(120, 201),20	3694,(124, 201),20	3714,(132, 201),20	3734,(166, 201),20	3754,(183, 201),20	3774,(188, 201),20	3794,(200, 201),20	3814,(22, 201),20	3834,(43, 201),20	3854,(56, 201),20	3874,(74, 201),20	3894,(86, 201),20	3914,(127, 201),20	3934,(136, 201),20	3954,(165, 201),20	3974,(191, 201),20	3994,(194, 201),20	
# Outgoing
8,(1, 33),2	10,(1, 39),4	14,(1, 60),12	26,(1, 94),4	30,(1, 109),168	198,(1, 112),2	200,(1, 135),6	206,(1, 141),8	214,(1, 152),4	218,(1, 164),12	230,(1, 185),4	234,(1, 189),82	316,(2, 63),66	382,(2, 67),220	602,(2, 94),60	662,(2, 110),14	676,(2, 118),22	698,(2, 131),2	700,(2, 144),204	904,(2, 181),12	916,(3, 25),20	936,(3, 42),6	942,(3, 46),10	952,(3, 58),48	1000,(3, 60),6	1006,(3, 90),2	1008,(3, 101),14	1022,(3, 106),34	1056,(3, 109),18	1074,(3, 119),16	1090,(3, 149),24	1114,(3, 152),22	1136,(3, 156),2	1138,(3, 164),2	1140,(3, 181),2	1142,(3, 186),2	1144,(3, 198),12	1156,(3, 199),2	1158,(163, 201),20	1178,(4, 21),12	1190,(4, 26),78	1268,(4, 52),6	1274,(4, 57),16	1290,(4, 63),110	1400,(4, 94),18	1418,(4, 96),6	1424,(4, 98),12	1436,(4, 141),20	1456,(4, 155),2	1458,(4, 189),18	1476,(9, 70),2	1478,(9, 94),24	1502,(9, 98),6	1508,(9, 122),8	1516,(9, 133),2	1518,(9, 164),4	1522,(9, 195),2	1524,(9, 196),4	1528,(10, 95),2	1530,(10, 118),2	1532,(11, 49),16	1548,(11, 68),4	1552,(11, 75),4	1556,(11, 93),10	1566,(11, 112),26	1592,(11, 125),10	1602,(11, 130),2	1604,(11, 135),2	1606,(11, 140),4	1610,(11, 153),14	1624,(11, 197),4	1628,(11, 198),8	1636,(12, 52),10	1646,(12, 60),2	1648,(12, 67),2	1650,(12, 90),2	1652,(12, 93),2	1654,(12, 110),18	1672,(12, 131),32	1704,(12, 144),6	1710,(12, 156),6	1716,(12, 168),2	1718,(44, 201),20	1738,(87, 201),20	1758,(15, 67),146	1904,(15, 94),6	1910,(15, 106),28	1938,(15, 109),246	2184,(15, 122),18	2202,(15, 133),8	2210,(15, 195),14	2224,(17, 46),8	2232,(17, 57),22	2254,(17, 114),2	2256,(17, 126),14	2270,(17, 133),2	2272,(17, 185),2	2274,(59, 201),20	2294,(179, 201),20	2314,(102, 201),20	2334,(172, 201),20	2354,(175, 201),20	2374,(157, 201),20	2394,(89, 201),20	2414,(83, 201),20	2434,(80, 201),20	2454,(71, 201),20	2474,(171, 201),20	2494,(55, 201),20	2514,(65, 201),20	2534,(37, 201),20	2554,(23, 201),20	2574,(88, 201),20	2594,(115, 201),20	2614,(72, 201),20	2634,(151, 201),20	2654,(41, 201),20	2674,(99, 201),20	2694,(104, 201),20	2714,(85, 201),20	2734,(36, 201),20	2754,(158, 201),20	2774,(160, 201),20	2794,(108, 201),20	2814,(192, 201),20	2834,(170, 201),20	2854,(150, 201),20	2874,(61, 201),20	2894,(173, 201),20	2914,(178, 201),20	2934,(32, 201),20	2954,(45, 201),20	2974,(64, 201),20	2994,(142, 201),20	3014,(174, 201),20	3034,(180, 201),20	3054,(38, 201),20	3074,(167, 201),20	3094,(91, 201),20	3114,(100, 201),20	3134,(139, 201),20	3154,(147, 201),20	3174,(162, 201),20	3194,(177, 201),20	3214,(184, 201),20	3234,(69, 201),20	3254,(123, 201),20	3274,(40, 201),20	3294,(76, 201),20	3314,(128, 201),20	3334,(187, 201),20	3354,(84, 201),20	3374,(134, 201),20	3394,(138, 201),20	3414,(146, 201),20	3434,(161, 201),20	3454,(27, 201),20	3474,(35, 201),20	3494,(51, 201),20	3514,(53, 201),20	3534,(62, 201),20	3554,(78, 201),20	3574,(82, 201),20	3594,(92, 201),20	3614,(103, 201),20	3634,(111, 201),20	3654,(113, 201),20	3674,(120, 201),20	3694,(124, 201),20	3714,(132, 201),20	3734,(166, 201),20	3754,(183, 201),20	3774,(188, 201),20	3794,(200, 201),20	3814,(22, 201),20	3834,(43, 201),20	3854,(56, 201),20	3874,(74, 201),20	3894,(86, 201),20	3914,(127, 201),20	3934,(136, 201),20	3954,(165, 201),20	3974,(191, 201),20	3994,(194, 201),20	
1,(0, 1),2	3,(0, 2),2	5,(0, 3),2	7,(0, 4),2	9,(0, 9),2	11,(0, 10),2	13,(0, 11),2	15,(0, 12),2	17,(0, 15),2	19,(0, 17),2	21,(5, 22),2	23,(5, 43),2	25,(5, 51),2	27,(5, 55),2	29,(5, 64),4	33,(5, 86),2	35,(5, 99),14	49,(5, 104),6	55,(5, 127),2	57,(5, 142),20	77,(5, 147),2	79,(5, 166),24	103,(5, 167),2	105,(5, 173),38	143,(5, 178),2	145,(5, 180),20	165,(5, 188),4	169,(5, 191),30	199,(7, 32),2	201,(7, 35),38	239,(7, 38),10	249,(7, 45),22	271,(7, 64),12	283,(7, 86),2	285,(7, 142),6	291,(7, 147),14	305,(7, 166),14	319,(7, 174),10	329,(7, 180),26	355,(7, 183),2	357,(16, 38),36	393,(16, 120),8	401,(16, 134),6	407,(16, 167),12	419,(16, 184),2	421,(16, 191),16	437,(16, 200),4	441,(13, 91),32	473,(13, 100),2	475,(13, 127),2	477,(13, 134),6	483,(13, 139),4	487,(13, 147),2	489,(13, 162),10	499,(13, 177),2	501,(13, 184),2	503,(13, 187),18	521,(13, 194),32	553,(19, 69),2	555,(19, 82),2	557,(19, 103),2	559,(19, 120),28	587,(19, 123),16	603,(19, 188),6	609,(14, 40),2	611,(14, 43),26	637,(14, 51),2	639,(14, 76),6	645,(14, 86),2	647,(14, 128),2	649,(14, 187),2	651,(18, 22),24	675,(18, 35),4	679,(18, 82),2	681,(18, 84),2	683,(18, 134),2	685,(18, 138),2	687,(18, 146),4	691,(18, 161),4	695,(18, 165),4	699,(20, 27),2	701,(20, 35),2	703,(20, 51),4	707,(20, 53),18	725,(20, 62),4	729,(20, 78),2	731,(20, 82),10	741,(20, 92),2	743,(20, 103),6	749,(20, 111),2	751,(20, 113),2	753,(20, 120),2	755,(20, 124),6	761,(20, 132),4	765,(20, 136),10	775,(20, 165),2	777,(20, 166),22	799,(20, 183),4	803,(20, 188),4	807,(20, 191),2	809,(20, 200),2	811,(8, 22),22	833,(8, 43),8	841,(8, 56),4	845,(8, 74),16	861,(8, 86),2	863,(8, 127),14	877,(8, 136),6	883,(8, 165),4	887,(8, 191),10	897,(8, 194),14	
