1161
# CPU
19,2,1	20,19,1	21,27,1	22,52,1	23,68,1	37,4,1	38,18,1	39,32,1	40,40,1	41,44,1	55,6,1	56,20,1	57,28,1	58,42,1	59,80,1	60,76,1	61,34,1	73,8,1	74,17,1	75,21,1	76,38,1	77,56,1	78,72,1	79,48,1	80,26,1	81,33,1	82,74,1	83,14,1	96,24,1	97,29,1	141,30,1	142,46,1	149,70,1	150,78,1	151,12,1	158,23,1	162,37,1	191,54,1	231,62,1	235,64,1	239,66,1	243,16,1	264,25,1	266,31,1	273,50,1	283,58,1	308,60,1	314,22,1	315,35,1	316,36,1	
0,0,1	1,1,1	2,3,1	3,7,1	4,5,1	5,63,1	6,47,1	7,43,1	8,11,1	9,39,1	10,51,1	11,77,1	12,69,1	13,75,1	14,73,1	22,9,1	23,41,1	40,49,1	43,67,1	122,10,1	123,65,1	124,71,1	156,79,1	308,15,1	314,55,1	322,57,1	336,61,1	524,13,1	550,45,1	551,53,1	552,59,1	1160,81,1	
# Incoming
1,(0, 2),18	19,(0, 4),18	37,(0, 6),18	55,(0, 8),18	73,(1, 14),8	81,(1, 24),15	96,(1, 29),1	97,(1, 30),44	141,(1, 46),1	142,(1, 70),7	149,(1, 78),1	150,(3, 12),1	151,(3, 23),7	158,(3, 37),4	162,(3, 54),29	191,(3, 62),40	231,(3, 64),4	235,(3, 66),4	239,(7, 16),4	243,(7, 25),21	264,(7, 31),2	266,(7, 50),7	273,(7, 58),10	283,(7, 60),25	308,(5, 22),6	314,(5, 35),1	315,(5, 36),1	
20,(2, 9),2	22,(2, 41),1	23,(2, 49),17	40,(2, 67),3	43,(19, 81),19	62,(27, 81),19	81,(52, 81),19	100,(68, 81),19	119,(4, 10),3	122,(4, 65),1	123,(4, 71),1	124,(4, 79),32	156,(18, 81),19	175,(32, 81),19	194,(40, 81),19	213,(44, 81),19	232,(6, 15),76	308,(6, 55),6	314,(6, 57),8	322,(6, 61),14	336,(20, 81),19	355,(28, 81),19	374,(42, 81),19	393,(80, 81),19	412,(76, 81),19	431,(34, 81),19	450,(8, 13),74	524,(8, 45),26	550,(8, 53),1	551,(8, 59),1	552,(17, 81),19	571,(21, 81),19	590,(38, 81),19	609,(56, 81),19	628,(72, 81),19	647,(48, 81),19	666,(26, 81),19	685,(33, 81),19	704,(74, 81),19	723,(14, 81),19	742,(24, 81),19	761,(29, 81),19	780,(30, 81),19	799,(46, 81),19	818,(70, 81),19	837,(78, 81),19	856,(12, 81),19	875,(23, 81),19	894,(37, 81),19	913,(54, 81),19	932,(62, 81),19	951,(64, 81),19	970,(66, 81),19	989,(16, 81),19	1008,(25, 81),19	1027,(31, 81),19	1046,(50, 81),19	1065,(58, 81),19	1084,(60, 81),19	1103,(22, 81),19	1122,(35, 81),19	1141,(36, 81),19	
# Outgoing
20,(2, 9),2	22,(2, 41),1	23,(2, 49),17	40,(2, 67),3	43,(19, 81),19	62,(27, 81),19	81,(52, 81),19	100,(68, 81),19	119,(4, 10),3	122,(4, 65),1	123,(4, 71),1	124,(4, 79),32	156,(18, 81),19	175,(32, 81),19	194,(40, 81),19	213,(44, 81),19	232,(6, 15),76	308,(6, 55),6	314,(6, 57),8	322,(6, 61),14	336,(20, 81),19	355,(28, 81),19	374,(42, 81),19	393,(80, 81),19	412,(76, 81),19	431,(34, 81),19	450,(8, 13),74	524,(8, 45),26	550,(8, 53),1	551,(8, 59),1	552,(17, 81),19	571,(21, 81),19	590,(38, 81),19	609,(56, 81),19	628,(72, 81),19	647,(48, 81),19	666,(26, 81),19	685,(33, 81),19	704,(74, 81),19	723,(14, 81),19	742,(24, 81),19	761,(29, 81),19	780,(30, 81),19	799,(46, 81),19	818,(70, 81),19	837,(78, 81),19	856,(12, 81),19	875,(23, 81),19	894,(37, 81),19	913,(54, 81),19	932,(62, 81),19	951,(64, 81),19	970,(66, 81),19	989,(16, 81),19	1008,(25, 81),19	1027,(31, 81),19	1046,(50, 81),19	1065,(58, 81),19	1084,(60, 81),19	1103,(22, 81),19	1122,(35, 81),19	1141,(36, 81),19	
1,(0, 2),18	19,(0, 4),18	37,(0, 6),18	55,(0, 8),18	73,(1, 14),8	81,(1, 24),15	96,(1, 29),1	97,(1, 30),44	141,(1, 46),1	142,(1, 70),7	149,(1, 78),1	150,(3, 12),1	151,(3, 23),7	158,(3, 37),4	162,(3, 54),29	191,(3, 62),40	231,(3, 64),4	235,(3, 66),4	239,(7, 16),4	243,(7, 25),21	264,(7, 31),2	266,(7, 50),7	273,(7, 58),10	283,(7, 60),25	308,(5, 22),6	314,(5, 35),1	315,(5, 36),1	
