2884
# CPU
3,3,2	5,5,2	7,25,2	9,81,2	11,113,2	13,19,2	15,119,2	17,99,2	23,56,2	31,22,2	42,45,2	44,105,2	46,32,2	48,36,2	50,41,2	52,112,2	66,13,2	71,70,2	77,84,2	83,60,2	1389,17,2	1419,66,2	1421,76,2	1428,82,2	
7,9,2	9,11,2	11,92,2	13,96,2	15,18,2	17,15,2	36,33,2	42,29,2	50,53,2	57,115,2	62,90,2	78,43,2	81,28,2	86,69,2	102,71,2	1386,72,2	1388,116,2	1411,50,2	1423,80,2	1431,103,2	2055,35,2	2057,40,2	2071,78,2	2093,64,2	
5,6,2	7,23,2	9,77,2	11,42,2	13,12,2	15,101,2	36,24,2	63,37,2	85,52,2	1464,39,2	2040,87,2	2046,16,2	2055,27,2	2086,118,2	2134,21,2	2162,100,2	2178,111,2	2255,20,2	2316,31,2	2347,44,2	2366,55,2	2400,58,2	2424,83,2	2451,98,2	2883,121,1	
2,2,2	4,61,2	6,110,2	8,74,2	10,109,2	12,7,2	14,10,2	16,75,2	18,108,2	20,57,2	22,49,2	24,47,2	26,68,2	36,46,2	38,67,2	40,114,2	64,65,2	93,63,2	1384,54,2	1387,102,2	1397,30,2	1418,59,2	1430,91,2	1436,117,2	
0,0,1	1,8,2	3,1,2	5,4,2	7,106,2	9,38,2	11,89,2	13,86,2	15,48,2	17,104,2	19,95,2	30,14,2	33,34,2	35,107,2	40,73,2	53,94,2	55,120,2	57,51,2	71,85,2	78,93,2	2054,26,2	2070,62,2	2072,79,2	2095,88,2	2097,97,2	
# Incoming
2,(0, 3),1	3,(0, 5),1	4,(2, 19),1	6,(2, 32),7	13,(6, 13),4	17,(9, 13),2	19,(9, 17),2	21,(9, 70),1	22,(11, 56),1	23,(2, 112),3	26,(7, 22),1	27,(9, 22),4	33,(7, 60),1	35,(6, 112),3	38,(7, 70),1	39,(7, 76),2	41,(12, 45),1	42,(7, 105),1	43,(8, 32),1	44,(8, 36),1	45,(10, 41),1	46,(10, 112),1	55,(11, 76),4	62,(12, 13),4	66,(12, 17),2	68,(12, 70),3	71,(12, 84),6	78,(8, 60),5	1388,(4, 17),1	1418,(4, 66),1	1419,(4, 76),1	1423,(4, 82),5	
6,(0, 9),1	8,(0, 11),1	23,(6, 35),11	34,(7, 33),2	36,(8, 29),6	42,(6, 53),8	50,(7, 71),5	55,(7, 103),1	56,(7, 115),1	57,(10, 78),1	59,(6, 90),3	63,(8, 40),14	77,(8, 43),1	78,(12, 28),3	83,(8, 64),1	84,(8, 69),2	86,(10, 80),3	93,(12, 64),8	101,(12, 71),1	1384,(1, 72),2	1387,(1, 116),1	1397,(4, 35),5	1402,(4, 40),8	1410,(4, 50),1	1420,(4, 80),3	1430,(4, 103),1	2054,(3, 35),1	2055,(3, 40),2	2070,(3, 78),1	2086,(5, 64),7	
4,(0, 6),1	9,(0, 12),1	10,(8, 20),10	20,(8, 24),16	36,(2, 55),1	37,(9, 16),1	38,(9, 39),1	41,(7, 100),1	42,(8, 31),1	43,(10, 21),1	45,(8, 37),18	63,(2, 31),21	84,(11, 52),1	86,(8, 83),548	634,(8, 87),747	1381,(2, 58),42	1423,(2, 111),34	1457,(1, 20),5	1462,(1, 39),2	1464,(1, 87),576	2040,(3, 16),6	2046,(3, 21),2	2048,(61, 121),6	2054,(4, 27),1	2055,(4, 31),16	2071,(4, 58),1	2072,(11, 58),3	2076,(3, 100),5	2081,(3, 118),5	2086,(4, 44),17	2103,(110, 121),6	2109,(9, 21),25	2134,(9, 55),18	2152,(9, 100),10	2162,(9, 111),16	2178,(25, 121),6	2184,(106, 121),6	2190,(74, 121),6	2196,(81, 121),6	2202,(38, 121),6	2208,(109, 121),6	2214,(113, 121),6	2220,(92, 121),6	2226,(89, 121),6	2232,(7, 20),23	2255,(7, 98),40	2295,(19, 121),6	2301,(96, 121),6	2307,(86, 121),6	2313,(10, 31),3	2316,(10, 44),31	2347,(10, 55),19	2366,(10, 58),34	2400,(10, 83),24	2424,(10, 98),27	2451,(119, 121),6	2457,(18, 121),6	2463,(48, 121),6	2469,(75, 121),6	2475,(99, 121),6	2481,(15, 121),6	2487,(104, 121),6	2493,(108, 121),6	2499,(95, 121),6	2505,(57, 121),6	2511,(49, 121),6	2517,(56, 121),6	2523,(47, 121),6	2529,(68, 121),6	2535,(14, 121),6	2541,(22, 121),6	2547,(34, 121),6	2553,(107, 121),6	2559,(46, 121),6	2565,(33, 121),6	2571,(67, 121),6	2577,(114, 121),6	2583,(73, 121),6	2589,(29, 121),6	2595,(45, 121),6	2601,(105, 121),6	2607,(32, 121),6	2613,(36, 121),6	2619,(53, 121),6	2625,(41, 121),6	2631,(112, 121),6	2637,(94, 121),6	2643,(120, 121),6	2649,(115, 121),6	2655,(51, 121),6	2661,(90, 121),6	2667,(65, 121),6	2673,(13, 121),6	2679,(85, 121),6	2685,(70, 121),6	2691,(84, 121),6	2697,(93, 121),6	2703,(43, 121),6	2709,(28, 121),6	2715,(60, 121),6	2721,(69, 121),6	2727,(63, 121),6	2733,(71, 121),6	2739,(54, 121),6	2745,(72, 121),6	2751,(102, 121),6	2757,(116, 121),6	2763,(17, 121),6	2769,(30, 121),6	2775,(50, 121),6	2781,(59, 121),6	2787,(66, 121),6	2793,(76, 121),6	2799,(80, 121),6	2805,(82, 121),6	2811,(91, 121),6	2817,(103, 121),6	2823,(117, 121),6	2829,(26, 121),6	2835,(35, 121),6	2841,(40, 121),6	2847,(62, 121),6	2853,(78, 121),6	2859,(79, 121),6	2865,(64, 121),6	2871,(88, 121),6	2877,(97, 121),6	
1,(0, 2),1	5,(0, 7),1	7,(0, 10),1	17,(6, 30),6	31,(9, 46),5	36,(9, 67),1	38,(6, 117),1	39,(12, 114),1	50,(6, 59),9	59,(11, 30),4	63,(11, 65),1	81,(12, 63),12	1381,(1, 54),3	1386,(1, 102),1	1389,(4, 30),8	1411,(4, 59),7	1428,(4, 91),2	1431,(4, 117),5	
5,(2, 26),1	13,(2, 95),3	16,(2, 97),5	21,(2, 107),2	23,(9, 14),4	27,(7, 14),3	30,(7, 34),3	34,(6, 107),1	37,(7, 93),1	39,(9, 73),1	40,(9, 85),12	52,(9, 94),1	53,(9, 120),1	54,(11, 51),1	64,(11, 79),2	66,(11, 85),5	77,(12, 93),1	2048,(3, 26),6	2057,(3, 62),13	2071,(3, 79),1	2072,(3, 88),4	2093,(5, 88),2	2095,(5, 97),1	
# Outgoing
2040,(3, 16),6	2046,(3, 21),2	2048,(3, 26),6	2054,(3, 35),1	2055,(3, 40),2	2057,(3, 62),13	2070,(3, 78),1	2071,(3, 79),1	2072,(3, 88),4	2076,(3, 100),5	2081,(3, 118),5	2086,(5, 64),7	2093,(5, 88),2	2095,(5, 97),1	2178,(25, 121),6	2196,(81, 121),6	2214,(113, 121),6	2295,(19, 121),6	2451,(119, 121),6	2475,(99, 121),6	2517,(56, 121),6	2541,(22, 121),6	2595,(45, 121),6	2601,(105, 121),6	2607,(32, 121),6	2613,(36, 121),6	2625,(41, 121),6	2631,(112, 121),6	2673,(13, 121),6	2685,(70, 121),6	2691,(84, 121),6	2715,(60, 121),6	2763,(17, 121),6	2787,(66, 121),6	2793,(76, 121),6	2805,(82, 121),6	
17,(9, 13),2	19,(9, 17),2	21,(9, 70),1	22,(11, 56),1	23,(9, 14),4	27,(9, 22),4	31,(9, 46),5	36,(9, 67),1	37,(9, 16),1	38,(9, 39),1	39,(9, 73),1	40,(9, 85),12	52,(9, 94),1	53,(9, 120),1	54,(11, 51),1	55,(11, 76),4	59,(11, 30),4	63,(11, 65),1	64,(11, 79),2	66,(11, 85),5	84,(11, 52),1	2072,(11, 58),3	2109,(9, 21),25	2134,(9, 55),18	2152,(9, 100),10	2162,(9, 111),16	2220,(92, 121),6	2301,(96, 121),6	2457,(18, 121),6	2481,(15, 121),6	2565,(33, 121),6	2589,(29, 121),6	2619,(53, 121),6	2649,(115, 121),6	2661,(90, 121),6	2703,(43, 121),6	2709,(28, 121),6	2721,(69, 121),6	2733,(71, 121),6	2745,(72, 121),6	2757,(116, 121),6	2775,(50, 121),6	2799,(80, 121),6	2817,(103, 121),6	2835,(35, 121),6	2841,(40, 121),6	2853,(78, 121),6	2865,(64, 121),6	
13,(6, 13),4	17,(6, 30),6	23,(6, 35),11	34,(6, 107),1	35,(6, 112),3	38,(6, 117),1	39,(12, 114),1	41,(12, 45),1	42,(6, 53),8	50,(6, 59),9	59,(6, 90),3	62,(12, 13),4	66,(12, 17),2	68,(12, 70),3	71,(12, 84),6	77,(12, 93),1	78,(12, 28),3	81,(12, 63),12	93,(12, 64),8	101,(12, 71),1	
4,(2, 19),1	5,(2, 26),1	6,(2, 32),7	13,(2, 95),3	16,(2, 97),5	21,(2, 107),2	23,(2, 112),3	26,(7, 22),1	27,(7, 14),3	30,(7, 34),3	33,(7, 60),1	34,(7, 33),2	36,(2, 55),1	37,(7, 93),1	38,(7, 70),1	39,(7, 76),2	41,(7, 100),1	42,(7, 105),1	43,(10, 21),1	45,(10, 41),1	46,(10, 112),1	50,(7, 71),5	55,(7, 103),1	56,(7, 115),1	57,(10, 78),1	63,(2, 31),21	86,(10, 80),3	1381,(2, 58),42	1423,(2, 111),34	2048,(61, 121),6	2103,(110, 121),6	2190,(74, 121),6	2208,(109, 121),6	2232,(7, 20),23	2255,(7, 98),40	2313,(10, 31),3	2316,(10, 44),31	2347,(10, 55),19	2366,(10, 58),34	2400,(10, 83),24	2424,(10, 98),27	2469,(75, 121),6	2493,(108, 121),6	2505,(57, 121),6	2511,(49, 121),6	2523,(47, 121),6	2529,(68, 121),6	2559,(46, 121),6	2571,(67, 121),6	2577,(114, 121),6	2667,(65, 121),6	2727,(63, 121),6	2739,(54, 121),6	2751,(102, 121),6	2769,(30, 121),6	2781,(59, 121),6	2811,(91, 121),6	2823,(117, 121),6	
1,(0, 2),1	2,(0, 3),1	3,(0, 5),1	4,(0, 6),1	5,(0, 7),1	6,(0, 9),1	7,(0, 10),1	8,(0, 11),1	9,(0, 12),1	10,(8, 20),10	20,(8, 24),16	36,(8, 29),6	42,(8, 31),1	43,(8, 32),1	44,(8, 36),1	45,(8, 37),18	63,(8, 40),14	77,(8, 43),1	78,(8, 60),5	83,(8, 64),1	84,(8, 69),2	86,(8, 83),548	634,(8, 87),747	1381,(1, 54),3	1384,(1, 72),2	1386,(1, 102),1	1387,(1, 116),1	1388,(4, 17),1	1389,(4, 30),8	1397,(4, 35),5	1402,(4, 40),8	1410,(4, 50),1	1411,(4, 59),7	1418,(4, 66),1	1419,(4, 76),1	1420,(4, 80),3	1423,(4, 82),5	1428,(4, 91),2	1430,(4, 103),1	1431,(4, 117),5	1457,(1, 20),5	1462,(1, 39),2	1464,(1, 87),576	2054,(4, 27),1	2055,(4, 31),16	2071,(4, 58),1	2086,(4, 44),17	2184,(106, 121),6	2202,(38, 121),6	2226,(89, 121),6	2307,(86, 121),6	2463,(48, 121),6	2487,(104, 121),6	2499,(95, 121),6	2535,(14, 121),6	2547,(34, 121),6	2553,(107, 121),6	2583,(73, 121),6	2637,(94, 121),6	2643,(120, 121),6	2655,(51, 121),6	2679,(85, 121),6	2697,(93, 121),6	2829,(26, 121),6	2847,(62, 121),6	2859,(79, 121),6	2871,(88, 121),6	2877,(97, 121),6	
