628
# CPU
0,0,1	1,9,1	2,7,1	3,183,1	4,3,1	5,187,1	6,8,1	7,96,1	8,138,1	9,102,1	10,35,1	11,17,1	12,108,1	13,87,1	14,5,1	15,185,1	16,200,1	17,188,1	18,20,1	19,118,1	20,176,1	21,117,1	22,141,1	23,6,1	24,94,1	25,85,1	26,18,1	27,139,1	28,114,1	29,34,1	30,180,1	31,73,1	32,168,1	33,15,1	34,39,1	35,169,1	36,4,1	37,56,1	38,50,1	39,105,1	40,86,1	41,115,1	42,11,1	43,189,1	44,129,1	45,101,1	46,167,1	47,103,1	48,69,1	49,165,1	50,81,1	51,33,1	52,23,1	53,83,1	54,42,1	55,32,1	56,19,1	57,47,1	58,97,1	59,143,1	60,76,1	61,65,1	62,57,1	63,178,1	64,13,1	65,174,1	66,21,1	67,128,1	68,182,1	69,89,1	70,77,1	71,144,1	72,2,1	73,29,1	74,111,1	75,192,1	76,142,1	77,112,1	78,194,1	79,26,1	80,181,1	81,90,1	82,125,1	83,199,1	84,45,1	85,99,1	86,198,1	87,46,1	88,107,1	89,58,1	90,79,1	91,75,1	92,120,1	93,170,1	94,55,1	95,70,1	96,177,1	97,53,1	98,155,1	99,140,1	100,175,1	101,22,1	102,158,1	103,61,1	104,109,1	105,51,1	106,44,1	107,48,1	108,137,1	109,161,1	110,173,1	111,149,1	112,36,1	113,62,1	114,78,1	115,68,1	116,72,1	117,171,1	118,91,1	119,110,1	120,38,1	121,172,1	123,60,1	128,126,1	133,37,1	138,66,1	143,196,1	149,63,1	156,152,1	164,197,1	173,59,1	182,127,1	191,146,1	201,80,1	211,153,1	221,133,1	232,64,1	243,159,1	255,98,1	267,191,1	279,147,1	292,54,1	305,151,1	318,190,1	335,154,1	354,122,1	379,84,1	409,162,1	441,31,1	474,130,1	521,41,1	627,201,1	
61,166,1	74,93,1	
37,1,1	38,116,1	39,136,1	42,92,1	49,49,1	67,186,1	93,27,1	129,95,1	207,157,1	240,132,1	302,104,1	323,52,1	432,193,1	618,134,1	





80,179,1	
7,12,1	8,124,1	9,195,1	14,10,1	20,16,1	21,163,1	22,164,1	23,184,1	25,135,1	31,14,1	32,100,1	39,71,1	41,67,1	46,82,1	54,88,1	58,40,1	66,30,1	72,121,1	77,113,1	85,148,1	102,123,1	112,25,1	125,28,1	143,43,1	159,131,1	175,106,1	191,24,1	223,74,1	260,150,1	281,145,1	351,156,1	385,160,1	555,119,1	
# Incoming
52,(10, 58),1	53,(10, 79),1	54,(10, 75),1	55,(14, 120),1	56,(10, 170),1	62,(1, 177),1	63,(12, 55),1	64,(14, 70),1	65,(12, 53),1	66,(14, 155),1	67,(12, 140),1	68,(10, 175),1	69,(1, 22),1	70,(14, 158),1	71,(16, 61),1	72,(14, 109),1	73,(16, 51),1	74,(12, 44),1	75,(1, 48),2	77,(14, 137),2	79,(10, 161),2	81,(10, 173),2	83,(14, 149),2	85,(12, 62),3	88,(12, 78),3	91,(1, 36),3	94,(1, 68),3	97,(14, 72),3	100,(14, 171),3	103,(14, 91),4	107,(1, 110),4	111,(10, 38),4	115,(10, 172),3	118,(16, 172),1	119,(16, 60),4	123,(10, 126),1	124,(16, 126),4	128,(1, 37),5	133,(10, 66),5	138,(16, 196),4	142,(1, 196),1	143,(16, 63),6	149,(10, 152),7	156,(14, 197),1	157,(1, 197),7	164,(16, 59),9	173,(10, 127),8	181,(16, 127),1	182,(14, 146),9	191,(14, 80),10	201,(16, 153),10	211,(12, 133),10	221,(16, 64),11	232,(14, 159),11	243,(1, 98),12	255,(10, 191),12	267,(1, 147),12	279,(12, 54),13	292,(12, 151),13	305,(12, 190),10	315,(16, 190),3	318,(12, 154),4	322,(1, 154),13	335,(14, 122),19	354,(12, 84),15	369,(1, 84),10	379,(16, 162),10	389,(1, 162),20	409,(10, 31),19	428,(1, 31),13	441,(10, 130),1	442,(14, 130),32	474,(10, 41),47	521,(116, 201),1	522,(136, 201),1	523,(92, 201),1	524,(49, 201),1	525,(166, 201),1	526,(186, 201),1	527,(93, 201),1	528,(179, 201),1	529,(27, 201),1	530,(95, 201),1	531,(157, 201),1	532,(132, 201),1	533,(104, 201),1	534,(52, 201),1	535,(193, 201),1	597,(124, 201),1	598,(195, 201),1	599,(163, 201),1	600,(164, 201),1	601,(184, 201),1	602,(135, 201),1	603,(100, 201),1	604,(71, 201),1	605,(67, 201),1	606,(82, 201),1	607,(88, 201),1	608,(40, 201),1	609,(30, 201),1	610,(121, 201),1	611,(113, 201),1	612,(148, 201),1	613,(123, 201),1	614,(25, 201),1	615,(28, 201),1	616,(43, 201),1	617,(131, 201),1	618,(106, 201),1	619,(24, 201),1	620,(74, 201),1	621,(150, 201),1	622,(145, 201),1	623,(156, 201),1	624,(160, 201),1	625,(119, 201),1	626,(134, 201),1	
21,(16, 166),15	46,(1, 166),4	58,(19, 166),3	62,(19, 93),3	73,(2, 93),1	
31,(0, 1),6	37,(20, 116),1	38,(20, 136),1	39,(7, 92),3	44,(8, 49),4	48,(20, 49),1	54,(9, 186),2	57,(12, 27),6	66,(13, 186),1	75,(12, 132),2	85,(9, 27),8	93,(16, 52),2	95,(10, 193),2	113,(17, 95),11	125,(20, 95),1	126,(18, 95),3	157,(16, 193),5	191,(7, 157),4	195,(17, 157),7	202,(11, 157),5	223,(6, 132),11	234,(4, 132),6	281,(3, 104),20	301,(11, 104),1	302,(15, 52),1	303,(4, 52),5	308,(11, 52),4	312,(2, 52),11	385,(20, 193),25	410,(6, 193),8	418,(15, 193),8	426,(4, 193),5	431,(11, 193),1	521,(12, 134),76	597,(6, 134),12	609,(18, 134),9	





36,(12, 179),16	52,(1, 179),10	77,(18, 179),2	79,(2, 179),1	
1,(0, 12),6	7,(3, 195),1	8,(0, 10),6	14,(0, 16),6	20,(17, 135),1	21,(3, 71),3	24,(6, 135),1	25,(0, 14),6	38,(1, 71),1	39,(1, 67),2	42,(20, 82),2	44,(1, 82),2	49,(4, 88),5	56,(8, 121),1	57,(19, 40),1	61,(20, 121),1	65,(13, 30),1	67,(13, 121),5	72,(17, 113),1	74,(4, 113),1	75,(2, 113),2	77,(1, 43),3	80,(19, 148),2	82,(2, 148),3	85,(1, 123),6	93,(7, 123),9	102,(20, 25),10	112,(3, 28),1	113,(1, 28),11	124,(11, 28),1	129,(3, 43),2	131,(6, 43),2	133,(19, 43),9	142,(2, 43),1	143,(5, 131),1	144,(4, 131),14	158,(2, 131),1	159,(18, 106),16	175,(7, 24),5	180,(20, 24),1	181,(13, 24),10	191,(1, 74),7	207,(8, 74),1	208,(6, 74),15	223,(1, 160),12	240,(7, 150),4	244,(3, 150),2	246,(8, 150),14	260,(3, 145),21	323,(9, 156),2	325,(2, 156),26	351,(7, 160),1	352,(3, 160),1	353,(8, 160),6	359,(18, 160),1	360,(15, 160),25	432,(20, 119),4	436,(6, 119),111	547,(18, 119),1	548,(4, 119),7	
# Outgoing
1,(0, 12),6	7,(3, 195),1	8,(0, 10),6	14,(0, 16),6	20,(17, 135),1	21,(3, 71),3	24,(6, 135),1	25,(0, 14),6	31,(0, 1),6	37,(20, 116),1	38,(20, 136),1	39,(7, 92),3	42,(20, 82),2	44,(8, 49),4	48,(20, 49),1	49,(4, 88),5	54,(9, 186),2	56,(8, 121),1	57,(19, 40),1	58,(19, 166),3	61,(20, 121),1	62,(19, 93),3	65,(13, 30),1	66,(13, 186),1	67,(13, 121),5	72,(17, 113),1	73,(2, 93),1	74,(4, 113),1	75,(2, 113),2	77,(18, 179),2	79,(2, 179),1	80,(19, 148),2	82,(2, 148),3	85,(9, 27),8	93,(7, 123),9	102,(20, 25),10	112,(3, 28),1	113,(17, 95),11	124,(11, 28),1	125,(20, 95),1	126,(18, 95),3	129,(3, 43),2	131,(6, 43),2	133,(19, 43),9	142,(2, 43),1	143,(5, 131),1	144,(4, 131),14	158,(2, 131),1	159,(18, 106),16	175,(7, 24),5	180,(20, 24),1	181,(13, 24),10	191,(7, 157),4	195,(17, 157),7	202,(11, 157),5	207,(8, 74),1	208,(6, 74),15	223,(6, 132),11	234,(4, 132),6	240,(7, 150),4	244,(3, 150),2	246,(8, 150),14	260,(3, 145),21	281,(3, 104),20	301,(11, 104),1	302,(15, 52),1	303,(4, 52),5	308,(11, 52),4	312,(2, 52),11	323,(9, 156),2	325,(2, 156),26	351,(7, 160),1	352,(3, 160),1	353,(8, 160),6	359,(18, 160),1	360,(15, 160),25	385,(20, 193),25	410,(6, 193),8	418,(15, 193),8	426,(4, 193),5	431,(11, 193),1	432,(20, 119),4	436,(6, 119),111	547,(18, 119),1	548,(4, 119),7	597,(6, 134),12	609,(18, 134),9	
525,(166, 201),1	527,(93, 201),1	
38,(1, 71),1	39,(1, 67),2	44,(1, 82),2	46,(1, 166),4	52,(1, 179),10	62,(1, 177),1	69,(1, 22),1	75,(1, 48),2	77,(1, 43),3	85,(1, 123),6	91,(1, 36),3	94,(1, 68),3	107,(1, 110),4	113,(1, 28),11	128,(1, 37),5	142,(1, 196),1	157,(1, 197),7	191,(1, 74),7	223,(1, 160),12	243,(1, 98),12	267,(1, 147),12	322,(1, 154),13	369,(1, 84),10	389,(1, 162),20	428,(1, 31),13	521,(116, 201),1	522,(136, 201),1	523,(92, 201),1	524,(49, 201),1	526,(186, 201),1	529,(27, 201),1	530,(95, 201),1	531,(157, 201),1	532,(132, 201),1	533,(104, 201),1	534,(52, 201),1	535,(193, 201),1	626,(134, 201),1	





528,(179, 201),1	
21,(16, 166),15	36,(12, 179),16	52,(10, 58),1	53,(10, 79),1	54,(10, 75),1	55,(14, 120),1	56,(10, 170),1	57,(12, 27),6	63,(12, 55),1	64,(14, 70),1	65,(12, 53),1	66,(14, 155),1	67,(12, 140),1	68,(10, 175),1	70,(14, 158),1	71,(16, 61),1	72,(14, 109),1	73,(16, 51),1	74,(12, 44),1	75,(12, 132),2	77,(14, 137),2	79,(10, 161),2	81,(10, 173),2	83,(14, 149),2	85,(12, 62),3	88,(12, 78),3	93,(16, 52),2	95,(10, 193),2	97,(14, 72),3	100,(14, 171),3	103,(14, 91),4	111,(10, 38),4	115,(10, 172),3	118,(16, 172),1	119,(16, 60),4	123,(10, 126),1	124,(16, 126),4	133,(10, 66),5	138,(16, 196),4	143,(16, 63),6	149,(10, 152),7	156,(14, 197),1	157,(16, 193),5	164,(16, 59),9	173,(10, 127),8	181,(16, 127),1	182,(14, 146),9	191,(14, 80),10	201,(16, 153),10	211,(12, 133),10	221,(16, 64),11	232,(14, 159),11	255,(10, 191),12	279,(12, 54),13	292,(12, 151),13	305,(12, 190),10	315,(16, 190),3	318,(12, 154),4	335,(14, 122),19	354,(12, 84),15	379,(16, 162),10	409,(10, 31),19	441,(10, 130),1	442,(14, 130),32	474,(10, 41),47	521,(12, 134),76	597,(124, 201),1	598,(195, 201),1	599,(163, 201),1	600,(164, 201),1	601,(184, 201),1	602,(135, 201),1	603,(100, 201),1	604,(71, 201),1	605,(67, 201),1	606,(82, 201),1	607,(88, 201),1	608,(40, 201),1	609,(30, 201),1	610,(121, 201),1	611,(113, 201),1	612,(148, 201),1	613,(123, 201),1	614,(25, 201),1	615,(28, 201),1	616,(43, 201),1	617,(131, 201),1	618,(106, 201),1	619,(24, 201),1	620,(74, 201),1	621,(150, 201),1	622,(145, 201),1	623,(156, 201),1	624,(160, 201),1	625,(119, 201),1	
