10516
# CPU
199,2,23	222,80,23	397,4,23	420,78,23	595,6,23	793,8,23	816,34,23	839,70,23	1036,30,23	1114,46,23	1186,56,23	1228,62,23	1390,18,23	1413,26,23	1436,28,23	1459,32,23	1513,38,23	1537,44,23	1606,14,23	1629,16,23	1652,20,23	1675,22,23	1698,24,23	1721,40,23	1744,52,23	1767,54,23	1790,58,23	1813,60,23	1836,64,23	1859,68,23	1882,74,23	1905,76,23	1928,10,23	1951,12,23	1974,36,23	1997,42,23	2020,48,23	2043,50,23	2066,66,23	2089,72,23	
0,0,1	1,7,23	24,5,23	47,3,23	70,1,23	93,43,23	116,9,23	417,39,23	486,45,23	597,53,23	620,55,23	643,59,23	666,61,23	999,15,23	1173,73,23	1335,11,23	1358,13,23	1434,47,23	1500,49,23	4575,57,23	4608,65,23	4635,69,23	4658,75,23	4681,79,23	4767,17,23	4790,19,23	4848,21,23	4871,23,23	5175,25,23	5198,27,23	5256,29,23	5279,31,23	5302,33,23	5325,35,23	5348,37,23	5371,41,23	5394,51,23	5417,63,23	5440,67,23	5463,71,23	5486,77,23	10515,81,1	
# Incoming
1,(0, 2),198	199,(0, 4),198	397,(0, 6),198	595,(0, 8),198	793,(7, 12),3	796,(7, 14),165	961,(7, 26),3	964,(7, 30),72	1036,(7, 44),12	1048,(7, 46),66	1114,(7, 56),72	1186,(7, 62),42	1228,(7, 72),9	1237,(5, 16),3	1240,(5, 18),150	1390,(5, 26),9	1399,(5, 28),3	1402,(5, 32),6	1408,(5, 36),102	1510,(5, 38),3	1513,(5, 44),24	1537,(5, 50),3	1540,(5, 52),3	1543,(5, 58),3	1546,(5, 68),3	1549,(3, 12),54	1603,(3, 14),3	1606,(3, 16),12	1618,(3, 20),3	1621,(3, 22),42	1663,(3, 24),3	1666,(3, 40),12	1678,(3, 48),3	1681,(3, 52),6	1687,(3, 54),6	1693,(3, 58),3	1696,(3, 60),3	1699,(3, 64),12	1711,(3, 68),12	1723,(3, 74),3	1726,(3, 76),6	1732,(1, 10),15	1747,(1, 12),42	1789,(1, 36),36	1825,(1, 42),9	1834,(1, 48),6	1840,(1, 50),24	1864,(1, 66),3	1867,(1, 72),3	
222,(2, 17),3	225,(2, 23),48	273,(2, 29),105	378,(2, 31),3	381,(2, 39),36	417,(2, 45),69	486,(2, 49),12	498,(2, 51),15	513,(2, 53),84	597,(2, 55),3	600,(2, 57),33	633,(2, 59),9	642,(2, 61),24	666,(2, 71),18	684,(2, 75),69	753,(2, 77),66	819,(80, 81),150	969,(4, 11),27	996,(4, 15),3	999,(4, 17),99	1098,(4, 19),9	1107,(4, 23),3	1110,(4, 25),18	1128,(4, 35),6	1134,(4, 41),24	1158,(4, 73),15	1173,(78, 81),150	1323,(6, 11),12	1335,(6, 13),9	1344,(6, 21),6	1350,(6, 23),45	1395,(6, 33),3	1398,(6, 35),3	1401,(6, 47),33	1434,(6, 49),66	1500,(6, 57),3075	4575,(6, 65),33	4608,(6, 67),9	4617,(6, 69),18	4635,(6, 75),3	4638,(6, 77),3	4641,(6, 79),6	4647,(8, 17),120	4767,(8, 19),15	4782,(8, 21),66	4848,(8, 23),15	4863,(8, 25),312	5175,(8, 27),6	5181,(8, 29),75	5256,(8, 31),18	5274,(8, 33),3	5277,(8, 35),3	5280,(8, 37),12	5292,(8, 41),39	5331,(8, 51),3	5334,(8, 63),6	5340,(8, 67),60	5400,(8, 71),12	5412,(8, 77),3	5415,(34, 81),150	5565,(70, 81),150	5715,(30, 81),150	5865,(46, 81),150	6015,(56, 81),150	6165,(62, 81),150	6315,(18, 81),150	6465,(26, 81),150	6615,(28, 81),150	6765,(32, 81),150	6915,(38, 81),150	7065,(44, 81),150	7215,(14, 81),150	7365,(16, 81),150	7515,(20, 81),150	7665,(22, 81),150	7815,(24, 81),150	7965,(40, 81),150	8115,(52, 81),150	8265,(54, 81),150	8415,(58, 81),150	8565,(60, 81),150	8715,(64, 81),150	8865,(68, 81),150	9015,(74, 81),150	9165,(76, 81),150	9315,(10, 81),150	9465,(12, 81),150	9615,(36, 81),150	9765,(42, 81),150	9915,(48, 81),150	10065,(50, 81),150	10215,(66, 81),150	10365,(72, 81),150	
# Outgoing
222,(2, 17),3	225,(2, 23),48	273,(2, 29),105	378,(2, 31),3	381,(2, 39),36	417,(2, 45),69	486,(2, 49),12	498,(2, 51),15	513,(2, 53),84	597,(2, 55),3	600,(2, 57),33	633,(2, 59),9	642,(2, 61),24	666,(2, 71),18	684,(2, 75),69	753,(2, 77),66	819,(80, 81),150	969,(4, 11),27	996,(4, 15),3	999,(4, 17),99	1098,(4, 19),9	1107,(4, 23),3	1110,(4, 25),18	1128,(4, 35),6	1134,(4, 41),24	1158,(4, 73),15	1173,(78, 81),150	1323,(6, 11),12	1335,(6, 13),9	1344,(6, 21),6	1350,(6, 23),45	1395,(6, 33),3	1398,(6, 35),3	1401,(6, 47),33	1434,(6, 49),66	1500,(6, 57),3075	4575,(6, 65),33	4608,(6, 67),9	4617,(6, 69),18	4635,(6, 75),3	4638,(6, 77),3	4641,(6, 79),6	4647,(8, 17),120	4767,(8, 19),15	4782,(8, 21),66	4848,(8, 23),15	4863,(8, 25),312	5175,(8, 27),6	5181,(8, 29),75	5256,(8, 31),18	5274,(8, 33),3	5277,(8, 35),3	5280,(8, 37),12	5292,(8, 41),39	5331,(8, 51),3	5334,(8, 63),6	5340,(8, 67),60	5400,(8, 71),12	5412,(8, 77),3	5415,(34, 81),150	5565,(70, 81),150	5715,(30, 81),150	5865,(46, 81),150	6015,(56, 81),150	6165,(62, 81),150	6315,(18, 81),150	6465,(26, 81),150	6615,(28, 81),150	6765,(32, 81),150	6915,(38, 81),150	7065,(44, 81),150	7215,(14, 81),150	7365,(16, 81),150	7515,(20, 81),150	7665,(22, 81),150	7815,(24, 81),150	7965,(40, 81),150	8115,(52, 81),150	8265,(54, 81),150	8415,(58, 81),150	8565,(60, 81),150	8715,(64, 81),150	8865,(68, 81),150	9015,(74, 81),150	9165,(76, 81),150	9315,(10, 81),150	9465,(12, 81),150	9615,(36, 81),150	9765,(42, 81),150	9915,(48, 81),150	10065,(50, 81),150	10215,(66, 81),150	10365,(72, 81),150	
1,(0, 2),198	199,(0, 4),198	397,(0, 6),198	595,(0, 8),198	793,(7, 12),3	796,(7, 14),165	961,(7, 26),3	964,(7, 30),72	1036,(7, 44),12	1048,(7, 46),66	1114,(7, 56),72	1186,(7, 62),42	1228,(7, 72),9	1237,(5, 16),3	1240,(5, 18),150	1390,(5, 26),9	1399,(5, 28),3	1402,(5, 32),6	1408,(5, 36),102	1510,(5, 38),3	1513,(5, 44),24	1537,(5, 50),3	1540,(5, 52),3	1543,(5, 58),3	1546,(5, 68),3	1549,(3, 12),54	1603,(3, 14),3	1606,(3, 16),12	1618,(3, 20),3	1621,(3, 22),42	1663,(3, 24),3	1666,(3, 40),12	1678,(3, 48),3	1681,(3, 52),6	1687,(3, 54),6	1693,(3, 58),3	1696,(3, 60),3	1699,(3, 64),12	1711,(3, 68),12	1723,(3, 74),3	1726,(3, 76),6	1732,(1, 10),15	1747,(1, 12),42	1789,(1, 36),36	1825,(1, 42),9	1834,(1, 48),6	1840,(1, 50),24	1864,(1, 66),3	1867,(1, 72),3	
