542
# CPU
0,121,1	1,87,2	3,120,2	5,99,2	7,36,2	9,48,2	11,105,2	13,47,2	15,108,2	17,15,2	19,110,2	21,81,2	23,86,2	25,113,2	27,69,2	29,25,2	31,51,2	33,23,2	35,57,2	37,61,2	39,90,2	41,38,2	43,49,2	45,97,2	47,68,2	49,101,2	51,60,2	53,79,2	55,115,2	57,88,2	59,78,2	61,28,2	63,34,2	65,76,2	67,116,2	69,29,2	71,75,2	73,118,2	75,16,2	77,106,2	79,33,2	81,107,2	83,43,2	85,74,2	87,19,2	89,104,2	91,100,2	93,80,2	95,56,2	97,50,2	99,63,2	101,73,2	103,13,2	105,40,2	107,72,2	109,35,2	111,24,2	113,32,2	115,14,2	117,55,2	119,62,2	121,92,2	123,31,2	125,17,2	127,59,2	129,114,2	131,18,2	133,44,2	135,102,2	137,111,2	139,103,2	141,65,2	143,58,2	145,91,2	147,96,2	149,64,2	151,70,2	153,20,2	155,119,2	157,37,2	159,71,2	161,21,2	163,83,2	165,8,2	167,11,2	169,1,2	176,2,2	200,5,2	227,9,2	266,12,2	346,4,2	433,6,2	539,3,2	541,0,1	
13,77,2	25,93,2	43,66,2	49,89,2	67,82,2	79,84,2	85,53,2	91,39,2	97,54,2	103,22,2	133,85,2	145,42,2	157,30,2	450,10,2	
7,109,2	31,52,2	73,46,2	
61,41,2	
19,94,2	37,67,2	55,26,2	109,27,2	115,112,2	121,95,2	127,117,2	139,98,2	151,45,2	244,7,2	
# Incoming
33,(52, 11),1	34,(94, 1),1	35,(109, 2),1	36,(94, 9),1	37,(52, 12),1	39,(67, 9),1	40,(52, 6),3	57,(26, 1),6	63,(26, 2),1	64,(26, 3),6	75,(46, 9),5	80,(41, 3),6	111,(27, 4),1	117,(112, 2),3	120,(112, 6),3	123,(95, 1),6	129,(95, 2),3	132,(117, 6),1	135,(85, 11),5	140,(39, 1),2	142,(54, 1),3	145,(54, 2),7	152,(66, 5),5	157,(22, 5),2	159,(30, 11),4	163,(117, 2),13	176,(112, 5),18	194,(45, 5),6	200,(53, 9),10	210,(39, 9),1	211,(22, 9),4	215,(85, 9),12	227,(93, 12),1	228,(84, 12),6	234,(27, 12),16	250,(98, 12),15	265,(45, 12),1	266,(7, 0),1	267,(93, 4),2	269,(66, 4),1	270,(89, 4),5	275,(82, 4),5	280,(95, 4),21	301,(117, 4),5	306,(85, 4),32	338,(30, 4),8	346,(77, 6),1	347,(53, 6),8	355,(39, 6),11	366,(42, 6),61	427,(30, 6),6	433,(82, 3),6	439,(84, 3),9	448,(22, 3),14	462,(112, 3),6	468,(45, 3),71	539,(10, 0),1	
7,(121, 77),6	19,(121, 93),6	37,(121, 66),6	43,(121, 89),6	49,(67, 10),3	61,(121, 82),6	73,(121, 84),6	79,(121, 53),6	85,(121, 39),6	91,(121, 54),6	97,(121, 22),6	103,(41, 10),1	104,(46, 10),8	127,(121, 85),6	133,(112, 10),1	139,(121, 42),6	151,(121, 30),6	163,(47, 10),1	177,(78, 10),1	200,(98, 10),27	232,(57, 10),3	235,(49, 10),4	244,(68, 10),5	249,(80, 10),3	252,(63, 10),12	264,(55, 10),19	283,(31, 10),3	286,(44, 10),31	317,(102, 10),33	350,(65, 10),41	391,(58, 10),34	425,(21, 10),1	426,(83, 10),24	
1,(121, 109),6	25,(121, 52),6	67,(121, 46),6	
55,(121, 41),6	
13,(121, 94),6	31,(121, 67),6	49,(121, 26),6	103,(121, 27),6	109,(121, 112),6	115,(121, 95),6	121,(121, 117),6	133,(121, 98),6	145,(121, 45),6	157,(105, 7),1	158,(108, 7),1	159,(60, 7),1	160,(115, 7),1	161,(76, 7),2	163,(93, 7),1	164,(34, 7),3	167,(75, 7),7	174,(33, 7),2	176,(100, 7),1	177,(22, 7),1	178,(14, 7),3	181,(59, 7),26	207,(103, 7),1	208,(70, 7),1	209,(20, 7),23	234,(30, 7),5	239,(71, 7),5	
# Outgoing
1,(121, 109),6	7,(121, 77),6	13,(121, 94),6	19,(121, 93),6	25,(121, 52),6	31,(121, 67),6	37,(121, 66),6	43,(121, 89),6	49,(121, 26),6	55,(121, 41),6	61,(121, 82),6	67,(121, 46),6	73,(121, 84),6	79,(121, 53),6	85,(121, 39),6	91,(121, 54),6	97,(121, 22),6	103,(121, 27),6	109,(121, 112),6	115,(121, 95),6	121,(121, 117),6	127,(121, 85),6	133,(121, 98),6	139,(121, 42),6	145,(121, 45),6	151,(121, 30),6	157,(105, 7),1	158,(108, 7),1	159,(60, 7),1	160,(115, 7),1	161,(76, 7),2	163,(47, 10),1	164,(34, 7),3	167,(75, 7),7	174,(33, 7),2	176,(100, 7),1	177,(78, 10),1	178,(14, 7),3	181,(59, 7),26	207,(103, 7),1	208,(70, 7),1	209,(20, 7),23	232,(57, 10),3	235,(49, 10),4	239,(71, 7),5	244,(68, 10),5	249,(80, 10),3	252,(63, 10),12	264,(55, 10),19	283,(31, 10),3	286,(44, 10),31	317,(102, 10),33	350,(65, 10),41	391,(58, 10),34	425,(21, 10),1	426,(83, 10),24	
135,(85, 11),5	140,(39, 1),2	142,(54, 1),3	145,(54, 2),7	152,(66, 5),5	157,(22, 5),2	159,(30, 11),4	163,(93, 7),1	177,(22, 7),1	200,(53, 9),10	210,(39, 9),1	211,(22, 9),4	215,(85, 9),12	227,(93, 12),1	228,(84, 12),6	234,(30, 7),5	267,(93, 4),2	269,(66, 4),1	270,(89, 4),5	275,(82, 4),5	306,(85, 4),32	338,(30, 4),8	346,(77, 6),1	347,(53, 6),8	355,(39, 6),11	366,(42, 6),61	427,(30, 6),6	433,(82, 3),6	439,(84, 3),9	448,(22, 3),14	539,(10, 0),1	
33,(52, 11),1	35,(109, 2),1	37,(52, 12),1	40,(52, 6),3	75,(46, 9),5	104,(46, 10),8	
80,(41, 3),6	103,(41, 10),1	
34,(94, 1),1	36,(94, 9),1	39,(67, 9),1	49,(67, 10),3	57,(26, 1),6	63,(26, 2),1	64,(26, 3),6	111,(27, 4),1	117,(112, 2),3	120,(112, 6),3	123,(95, 1),6	129,(95, 2),3	132,(117, 6),1	133,(112, 10),1	163,(117, 2),13	176,(112, 5),18	194,(45, 5),6	200,(98, 10),27	234,(27, 12),16	250,(98, 12),15	265,(45, 12),1	266,(7, 0),1	280,(95, 4),21	301,(117, 4),5	462,(112, 3),6	468,(45, 3),71	
