167
# CPU
0,0,1	1,1,11	12,7,11	23,3,11	34,11,11	45,9,11	56,18,11	67,2,11	78,6,11	89,15,11	100,5,11	111,4,11	122,19,11	133,16,11	144,13,11	155,10,11	166,21,1	
16,8,11	32,17,11	82,12,11	
20,14,11	90,20,11	

# Incoming
27,(8, 21),12	39,(14, 21),12	51,(17, 21),12	93,(12, 21),12	105,(20, 21),12	
12,(1, 8),4	20,(1, 17),12	78,(2, 12),4	
16,(1, 14),4	82,(2, 20),8	

# Outgoing
12,(1, 8),4	16,(1, 14),4	20,(1, 17),12	78,(2, 12),4	82,(2, 20),8	
27,(8, 21),12	51,(17, 21),12	93,(12, 21),12	
39,(14, 21),12	105,(20, 21),12	

