5285
# CPU
13,4,151	164,8,151	315,45,151	466,61,151	617,12,151	768,23,151	919,41,151	1070,26,151	1221,57,151	1372,49,151	1523,65,151	1674,29,151	1825,37,151	1976,53,151	2127,77,151	2278,69,151	2429,17,151	2580,20,151	2731,33,151	2882,73,151	
9,3,151	160,7,151	311,76,151	462,19,151	613,11,151	764,36,151	915,16,151	1066,22,151	1217,44,151	1368,48,151	1519,25,151	1670,32,151	1821,52,151	1972,56,151	2123,68,151	2274,60,151	2425,72,151	2576,64,151	2727,28,151	2878,40,151	3029,80,151	
5,2,151	156,6,151	307,21,151	458,10,151	609,43,151	760,67,151	911,51,151	1062,27,151	1213,39,151	1364,79,151	1515,35,151	1666,47,151	1817,59,151	1968,63,151	2119,71,151	2270,24,151	2421,31,151	2572,75,151	2723,18,151	2874,14,151	3025,55,151	
0,0,1	1,1,151	152,5,151	303,38,151	454,34,151	605,66,151	756,58,151	907,78,151	1058,13,151	1209,42,151	1360,9,151	1511,54,151	1662,70,151	1813,30,151	1964,50,151	2115,15,151	2266,46,151	2417,62,151	2568,74,151	5284,81,1	
# Incoming
9,(0, 4),4	21,(0, 8),4	228,(1, 26),4	232,(1, 29),124	356,(2, 49),48	428,(1, 37),140	568,(2, 65),56	624,(3, 29),80	732,(3, 37),240	976,(3, 53),52	1028,(3, 77),24	1052,(5, 69),40	1092,(6, 17),172	1808,(7, 20),24	1832,(7, 33),160	2016,(7, 73),16	
5,(0, 3),4	17,(0, 7),4	152,(1, 19),76	228,(2, 11),8	236,(2, 36),48	348,(6, 64),4	352,(4, 25),4	356,(1, 32),72	428,(4, 52),52	480,(8, 56),12	496,(6, 68),68	592,(1, 60),4	596,(4, 72),20	620,(1, 64),8	652,(5, 28),16	672,(5, 40),4	676,(6, 80),12	
1,(0, 2),4	13,(0, 6),4	356,(4, 39),52	408,(4, 79),4	412,(8, 35),8	420,(8, 47),4	568,(1, 59),24	596,(1, 63),24	628,(1, 71),4	632,(5, 24),20	668,(5, 31),4	676,(5, 75),92	768,(8, 18),20	1052,(7, 14),40	2000,(7, 55),12	
284,(2, 42),64	348,(4, 9),4	404,(2, 54),92	496,(4, 70),80	624,(6, 30),20	704,(3, 30),28	732,(21, 81),64	796,(45, 81),64	860,(10, 81),64	972,(3, 50),4	976,(61, 81),64	1092,(7, 15),716	1808,(43, 81),64	1872,(12, 81),64	1992,(7, 46),8	2012,(7, 62),4	2032,(7, 74),52	2084,(76, 81),64	2148,(19, 81),64	2212,(11, 81),64	2276,(67, 81),64	2340,(36, 81),64	2404,(23, 81),64	2468,(51, 81),64	2532,(16, 81),64	2596,(41, 81),64	2660,(27, 81),64	2724,(22, 81),64	2788,(26, 81),64	2852,(39, 81),64	2916,(44, 81),64	2980,(57, 81),64	3044,(79, 81),64	3108,(48, 81),64	3172,(49, 81),64	3236,(35, 81),64	3300,(25, 81),64	3364,(65, 81),64	3428,(47, 81),64	3492,(32, 81),64	3556,(29, 81),64	3620,(59, 81),64	3684,(52, 81),64	3748,(37, 81),64	3812,(63, 81),64	3876,(56, 81),64	3940,(53, 81),64	4004,(71, 81),64	4068,(68, 81),64	4132,(77, 81),64	4196,(24, 81),64	4260,(60, 81),64	4324,(69, 81),64	4388,(31, 81),64	4452,(72, 81),64	4516,(17, 81),64	4580,(75, 81),64	4644,(64, 81),64	4708,(20, 81),64	4772,(18, 81),64	4836,(28, 81),64	4900,(33, 81),64	4964,(14, 81),64	5028,(40, 81),64	5092,(73, 81),64	5156,(55, 81),64	5220,(80, 81),64	
# Outgoing
348,(4, 9),4	352,(4, 25),4	356,(4, 39),52	408,(4, 79),4	412,(8, 35),8	420,(8, 47),4	428,(4, 52),52	480,(8, 56),12	496,(4, 70),80	596,(4, 72),20	768,(8, 18),20	796,(45, 81),64	976,(61, 81),64	1872,(12, 81),64	2404,(23, 81),64	2596,(41, 81),64	2788,(26, 81),64	2980,(57, 81),64	3172,(49, 81),64	3364,(65, 81),64	3556,(29, 81),64	3748,(37, 81),64	3940,(53, 81),64	4132,(77, 81),64	4324,(69, 81),64	4516,(17, 81),64	4708,(20, 81),64	4900,(33, 81),64	5092,(73, 81),64	
624,(3, 29),80	704,(3, 30),28	732,(3, 37),240	972,(3, 50),4	976,(3, 53),52	1028,(3, 77),24	1052,(7, 14),40	1092,(7, 15),716	1808,(7, 20),24	1832,(7, 33),160	1992,(7, 46),8	2000,(7, 55),12	2012,(7, 62),4	2016,(7, 73),16	2032,(7, 74),52	2084,(76, 81),64	2148,(19, 81),64	2212,(11, 81),64	2340,(36, 81),64	2532,(16, 81),64	2724,(22, 81),64	2916,(44, 81),64	3108,(48, 81),64	3300,(25, 81),64	3492,(32, 81),64	3684,(52, 81),64	3876,(56, 81),64	4068,(68, 81),64	4260,(60, 81),64	4452,(72, 81),64	4644,(64, 81),64	4836,(28, 81),64	5028,(40, 81),64	5220,(80, 81),64	
228,(2, 11),8	236,(2, 36),48	284,(2, 42),64	348,(6, 64),4	356,(2, 49),48	404,(2, 54),92	496,(6, 68),68	568,(2, 65),56	624,(6, 30),20	676,(6, 80),12	732,(21, 81),64	860,(10, 81),64	1092,(6, 17),172	1808,(43, 81),64	2276,(67, 81),64	2468,(51, 81),64	2660,(27, 81),64	2852,(39, 81),64	3044,(79, 81),64	3236,(35, 81),64	3428,(47, 81),64	3620,(59, 81),64	3812,(63, 81),64	4004,(71, 81),64	4196,(24, 81),64	4388,(31, 81),64	4580,(75, 81),64	4772,(18, 81),64	4964,(14, 81),64	5156,(55, 81),64	
1,(0, 2),4	5,(0, 3),4	9,(0, 4),4	13,(0, 6),4	17,(0, 7),4	21,(0, 8),4	152,(1, 19),76	228,(1, 26),4	232,(1, 29),124	356,(1, 32),72	428,(1, 37),140	568,(1, 59),24	592,(1, 60),4	596,(1, 63),24	620,(1, 64),8	628,(1, 71),4	632,(5, 24),20	652,(5, 28),16	668,(5, 31),4	672,(5, 40),4	676,(5, 75),92	1052,(5, 69),40	
