10847
# CPU
37,10,1	57,50,1	165,30,1	193,120,1	273,90,1	397,21,1	661,60,1	753,100,1	1313,80,1	2533,110,1	3225,70,1	10841,40,1	
33,9,1	34,79,1	245,39,1	585,99,1	605,109,1	705,49,1	733,69,1	849,20,1	1241,59,1	1281,119,1	1901,29,1	2165,89,1	
29,8,1	30,58,1	1417,78,1	1421,19,1	1553,28,1	1569,68,1	1585,38,1	1745,118,1	1933,48,1	2017,98,1	2401,88,1	3225,108,1	
25,7,1	129,18,1	189,37,1	513,77,1	669,97,1	697,27,1	909,47,1	1057,87,1	1225,57,1	1385,67,1	2505,107,1	2709,117,1	
21,6,1	113,96,1	125,17,1	189,46,1	269,76,1	669,26,1	837,36,1	1213,56,1	1257,66,1	1545,86,1	2549,116,1	2857,106,1	
17,5,1	57,16,1	93,65,1	137,25,1	477,55,1	521,85,1	777,115,1	969,35,1	973,45,1	1593,75,1	2013,95,1	2233,105,1	
13,4,1	201,24,1	269,74,1	321,54,1	393,14,1	601,104,1	1129,34,1	1209,44,1	1249,64,1	1509,84,1	1737,94,1	1945,114,1	
9,3,1	229,53,1	461,43,1	677,73,1	717,63,1	745,93,1	845,13,1	1057,33,1	1109,23,1	1801,83,1	1861,103,1	1893,113,1	
5,2,1	41,12,1	53,22,1	309,112,1	709,52,1	853,32,1	957,102,1	1013,62,1	1169,42,1	1405,72,1	1977,82,1	2813,92,1	
0,0,1	1,11,1	2,1,1	3,71,1	649,111,1	657,31,1	753,41,1	837,101,1	865,61,1	889,15,1	1197,81,1	1201,91,1	1477,51,1	10846,121,1	
# Incoming
33,(0, 10),4	41,(11, 30),12	53,(9, 50),4	77,(6, 30),20	141,(3, 30),24	165,(6, 120),28	221,(8, 60),20	257,(3, 90),16	273,(6, 110),44	317,(9, 21),56	373,(8, 110),4	393,(7, 21),4	401,(7, 110),36	605,(2, 110),40	657,(12, 60),4	741,(4, 100),12	901,(6, 80),412	1313,(9, 40),616	2505,(1, 110),28	2533,(9, 70),692	3225,(12, 40),7616	
29,(0, 9),4	57,(3, 20),40	97,(6, 20),4	129,(6, 119),4	137,(3, 29),4	141,(6, 109),20	189,(2, 39),56	245,(3, 59),12	469,(2, 69),36	553,(2, 99),32	601,(2, 109),4	701,(4, 49),4	717,(4, 69),16	733,(4, 89),8	845,(1, 20),4	889,(10, 29),4	1225,(1, 59),16	1241,(5, 119),40	1421,(4, 29),480	1901,(6, 89),264	
25,(0, 8),4	53,(11, 38),80	133,(2, 28),12	165,(11, 78),628	793,(2, 48),612	1405,(2, 68),4	1409,(2, 78),8	1417,(4, 19),4	1421,(5, 28),8	1429,(5, 48),12	1441,(6, 68),76	1517,(7, 28),36	1553,(7, 68),16	1569,(12, 38),16	1737,(12, 118),8	1901,(4, 48),32	1933,(4, 88),4	1937,(4, 108),4	2013,(1, 98),4	2017,(12, 88),384	2813,(7, 108),412	
21,(0, 7),4	25,(6, 18),36	61,(9, 47),24	125,(2, 18),4	129,(2, 27),4	133,(8, 37),16	149,(11, 67),4	153,(11, 77),12	173,(2, 37),16	201,(8, 57),20	245,(2, 47),64	317,(5, 117),4	461,(9, 87),36	505,(2, 77),8	665,(12, 97),4	669,(4, 27),28	801,(11, 117),36	893,(10, 47),16	909,(10, 57),4	925,(10, 117),20	1013,(10, 87),44	1213,(1, 57),12	1257,(1, 67),128	2017,(1, 107),488	2549,(1, 117),160	
17,(0, 6),4	34,(9, 17),4	93,(9, 96),20	121,(2, 17),4	149,(8, 76),8	161,(2, 36),12	173,(3, 36),4	177,(3, 46),12	189,(3, 76),36	229,(9, 76),40	313,(5, 86),4	317,(8, 86),48	445,(5, 106),60	661,(12, 66),4	665,(4, 26),4	669,(9, 36),168	1209,(1, 56),4	1249,(1, 66),8	1509,(12, 86),36	2533,(1, 116),16	2549,(12, 106),308	
13,(0, 5),4	17,(3, 16),40	61,(6, 25),16	85,(9, 65),8	97,(3, 25),40	137,(9, 95),20	157,(8, 115),4	241,(8, 85),72	321,(2, 55),148	469,(7, 55),8	517,(2, 85),4	521,(2, 95),32	649,(2, 115),4	653,(12, 35),4	697,(4, 35),4	753,(4, 115),24	777,(6, 45),124	901,(7, 75),64	965,(10, 35),4	969,(10, 45),4	1405,(1, 75),188	1593,(6, 95),156	1977,(1, 95),36	2013,(10, 105),220	
9,(0, 4),4	13,(2, 14),108	121,(8, 34),4	133,(11, 44),16	149,(5, 14),16	165,(3, 84),4	169,(5, 24),32	201,(6, 44),16	217,(9, 44),12	229,(5, 74),8	237,(6, 74),32	273,(3, 104),20	293,(9, 114),12	309,(2, 54),12	321,(5, 94),52	373,(7, 14),20	513,(2, 84),4	585,(2, 104),16	601,(5, 34),528	1129,(10, 64),12	1169,(1, 44),40	1241,(1, 64),8	1477,(12, 84),32	1585,(12, 94),152	1893,(10, 114),52	
5,(0, 3),4	109,(6, 73),8	125,(8, 103),4	145,(2, 33),16	161,(8, 43),40	201,(5, 53),28	237,(5, 83),76	397,(7, 93),4	401,(9, 43),60	505,(5, 113),36	541,(7, 73),136	677,(12, 63),16	713,(4, 63),4	717,(12, 93),28	797,(11, 103),4	837,(1, 13),8	853,(1, 33),204	1057,(10, 23),52	1141,(10, 83),660	1801,(10, 103),60	1861,(10, 113),32	
1,(0, 2),4	37,(0, 12),4	41,(9, 22),12	57,(9, 52),4	101,(6, 52),8	117,(6, 82),8	125,(6, 112),4	129,(8, 62),4	165,(5, 82),4	225,(3, 82),12	293,(3, 112),16	365,(8, 102),8	373,(5, 102),72	705,(4, 52),4	709,(4, 62),4	793,(11, 82),4	849,(1, 32),4	853,(4, 102),104	973,(10, 62),40	1057,(1, 42),112	1385,(1, 72),20	1593,(1, 82),384	1977,(7, 92),836	
645,(2, 111),4	649,(3, 31),8	657,(4, 15),8	665,(6, 41),88	753,(6, 81),20	773,(6, 91),4	777,(7, 81),52	829,(7, 101),4	833,(8, 101),4	837,(58, 121),4	841,(9, 61),24	865,(79, 121),4	869,(10, 15),20	889,(18, 121),4	893,(37, 121),4	897,(53, 121),4	901,(39, 121),4	905,(43, 121),4	909,(99, 121),4	913,(10, 81),12	925,(109, 121),4	929,(73, 121),4	933,(49, 121),4	937,(63, 121),4	941,(69, 121),4	945,(50, 121),4	949,(30, 121),4	953,(120, 121),4	957,(24, 121),4	961,(74, 121),4	965,(54, 121),4	969,(14, 121),4	973,(77, 121),4	977,(104, 121),4	981,(97, 121),4	985,(27, 121),4	989,(93, 121),4	993,(13, 121),4	997,(20, 121),4	1001,(47, 121),4	1058,(33, 121),4	1062,(87, 121),4	1109,(90, 121),4	1113,(21, 121),4	1117,(60, 121),4	1121,(100, 121),4	1125,(23, 121),4	1129,(5, 81),68	1197,(5, 91),4	1201,(16, 121),4	1205,(65, 121),4	1209,(25, 121),4	1213,(55, 121),4	1217,(85, 121),4	1221,(115, 121),4	1225,(35, 121),4	1229,(45, 121),4	1233,(34, 121),4	1237,(44, 121),4	1241,(57, 121),4	1245,(59, 121),4	1250,(64, 121),4	1282,(119, 121),4	1313,(96, 121),4	1317,(17, 121),4	1321,(46, 121),4	1325,(76, 121),4	1329,(26, 121),4	1333,(36, 121),4	1337,(56, 121),4	1341,(66, 121),4	1386,(67, 121),4	1417,(12, 51),60	1477,(78, 121),4	1481,(19, 121),4	1545,(22, 121),4	1549,(112, 121),4	1553,(52, 121),4	1557,(32, 121),4	1561,(102, 121),4	1565,(62, 121),4	1569,(86, 121),4	1573,(28, 121),4	1577,(68, 121),4	1586,(38, 121),4	1594,(75, 121),4	1745,(42, 121),4	1749,(72, 121),4	1753,(118, 121),4	1802,(83, 121),4	1862,(103, 121),4	1894,(113, 121),4	1929,(29, 121),4	1934,(48, 121),4	1941,(84, 121),4	1945,(80, 121),4	1949,(94, 121),4	1953,(114, 121),4	1978,(82, 121),4	2014,(95, 121),4	2018,(98, 121),4	2166,(89, 121),4	2234,(105, 121),4	2402,(88, 121),4	2534,(110, 121),4	2550,(116, 121),4	2857,(92, 121),4	2861,(106, 121),4	3225,(107, 121),4	3229,(117, 121),4	3233,(70, 121),4	3237,(108, 121),4	10842,(40, 121),4	
# Outgoing
869,(10, 15),20	889,(10, 29),4	893,(10, 47),16	909,(10, 57),4	913,(10, 81),12	925,(10, 117),20	945,(50, 121),4	949,(30, 121),4	953,(120, 121),4	965,(10, 35),4	969,(10, 45),4	973,(10, 62),40	1013,(10, 87),44	1057,(10, 23),52	1109,(90, 121),4	1113,(21, 121),4	1117,(60, 121),4	1121,(100, 121),4	1129,(10, 64),12	1141,(10, 83),660	1801,(10, 103),60	1861,(10, 113),32	1893,(10, 114),52	1945,(80, 121),4	2013,(10, 105),220	2534,(110, 121),4	3233,(70, 121),4	10842,(40, 121),4	
34,(9, 17),4	41,(9, 22),12	53,(9, 50),4	57,(9, 52),4	61,(9, 47),24	85,(9, 65),8	93,(9, 96),20	137,(9, 95),20	217,(9, 44),12	229,(9, 76),40	293,(9, 114),12	317,(9, 21),56	401,(9, 43),60	461,(9, 87),36	669,(9, 36),168	841,(9, 61),24	865,(79, 121),4	901,(39, 121),4	909,(99, 121),4	925,(109, 121),4	933,(49, 121),4	941,(69, 121),4	997,(20, 121),4	1245,(59, 121),4	1282,(119, 121),4	1313,(9, 40),616	1929,(29, 121),4	2166,(89, 121),4	2533,(9, 70),692	
121,(8, 34),4	125,(8, 103),4	129,(8, 62),4	133,(8, 37),16	149,(8, 76),8	157,(8, 115),4	161,(8, 43),40	201,(8, 57),20	221,(8, 60),20	241,(8, 85),72	317,(8, 86),48	365,(8, 102),8	373,(8, 110),4	833,(8, 101),4	837,(58, 121),4	1477,(78, 121),4	1481,(19, 121),4	1573,(28, 121),4	1577,(68, 121),4	1586,(38, 121),4	1753,(118, 121),4	1934,(48, 121),4	2018,(98, 121),4	2402,(88, 121),4	3237,(108, 121),4	
373,(7, 14),20	393,(7, 21),4	397,(7, 93),4	401,(7, 110),36	469,(7, 55),8	541,(7, 73),136	777,(7, 81),52	829,(7, 101),4	889,(18, 121),4	893,(37, 121),4	901,(7, 75),64	973,(77, 121),4	981,(97, 121),4	985,(27, 121),4	1001,(47, 121),4	1062,(87, 121),4	1241,(57, 121),4	1386,(67, 121),4	1517,(7, 28),36	1553,(7, 68),16	1977,(7, 92),836	2813,(7, 108),412	3225,(107, 121),4	3229,(117, 121),4	
25,(6, 18),36	61,(6, 25),16	77,(6, 30),20	97,(6, 20),4	101,(6, 52),8	109,(6, 73),8	117,(6, 82),8	125,(6, 112),4	129,(6, 119),4	141,(6, 109),20	165,(6, 120),28	201,(6, 44),16	237,(6, 74),32	273,(6, 110),44	665,(6, 41),88	753,(6, 81),20	773,(6, 91),4	777,(6, 45),124	901,(6, 80),412	1313,(96, 121),4	1317,(17, 121),4	1321,(46, 121),4	1325,(76, 121),4	1329,(26, 121),4	1333,(36, 121),4	1337,(56, 121),4	1341,(66, 121),4	1441,(6, 68),76	1569,(86, 121),4	1593,(6, 95),156	1901,(6, 89),264	2550,(116, 121),4	2861,(106, 121),4	
149,(5, 14),16	165,(5, 82),4	169,(5, 24),32	201,(5, 53),28	229,(5, 74),8	237,(5, 83),76	313,(5, 86),4	317,(5, 117),4	321,(5, 94),52	373,(5, 102),72	445,(5, 106),60	505,(5, 113),36	601,(5, 34),528	1129,(5, 81),68	1197,(5, 91),4	1201,(16, 121),4	1205,(65, 121),4	1209,(25, 121),4	1213,(55, 121),4	1217,(85, 121),4	1221,(115, 121),4	1225,(35, 121),4	1229,(45, 121),4	1241,(5, 119),40	1421,(5, 28),8	1429,(5, 48),12	1594,(75, 121),4	2014,(95, 121),4	2234,(105, 121),4	
657,(4, 15),8	665,(4, 26),4	669,(4, 27),28	697,(4, 35),4	701,(4, 49),4	705,(4, 52),4	709,(4, 62),4	713,(4, 63),4	717,(4, 69),16	733,(4, 89),8	741,(4, 100),12	753,(4, 115),24	853,(4, 102),104	957,(24, 121),4	961,(74, 121),4	965,(54, 121),4	969,(14, 121),4	977,(104, 121),4	1233,(34, 121),4	1237,(44, 121),4	1250,(64, 121),4	1417,(4, 19),4	1421,(4, 29),480	1901,(4, 48),32	1933,(4, 88),4	1937,(4, 108),4	1941,(84, 121),4	1949,(94, 121),4	1953,(114, 121),4	
17,(3, 16),40	57,(3, 20),40	97,(3, 25),40	137,(3, 29),4	141,(3, 30),24	165,(3, 84),4	173,(3, 36),4	177,(3, 46),12	189,(3, 76),36	225,(3, 82),12	245,(3, 59),12	257,(3, 90),16	273,(3, 104),20	293,(3, 112),16	649,(3, 31),8	897,(53, 121),4	905,(43, 121),4	929,(73, 121),4	937,(63, 121),4	989,(93, 121),4	993,(13, 121),4	1058,(33, 121),4	1125,(23, 121),4	1802,(83, 121),4	1862,(103, 121),4	1894,(113, 121),4	
13,(2, 14),108	121,(2, 17),4	125,(2, 18),4	129,(2, 27),4	133,(2, 28),12	145,(2, 33),16	161,(2, 36),12	173,(2, 37),16	189,(2, 39),56	245,(2, 47),64	309,(2, 54),12	321,(2, 55),148	469,(2, 69),36	505,(2, 77),8	513,(2, 84),4	517,(2, 85),4	521,(2, 95),32	553,(2, 99),32	585,(2, 104),16	601,(2, 109),4	605,(2, 110),40	645,(2, 111),4	649,(2, 115),4	653,(12, 35),4	657,(12, 60),4	661,(12, 66),4	665,(12, 97),4	677,(12, 63),16	717,(12, 93),28	793,(2, 48),612	1405,(2, 68),4	1409,(2, 78),8	1417,(12, 51),60	1477,(12, 84),32	1509,(12, 86),36	1545,(22, 121),4	1549,(112, 121),4	1553,(52, 121),4	1557,(32, 121),4	1561,(102, 121),4	1565,(62, 121),4	1569,(12, 38),16	1585,(12, 94),152	1737,(12, 118),8	1745,(42, 121),4	1749,(72, 121),4	1978,(82, 121),4	2017,(12, 88),384	2549,(12, 106),308	2857,(92, 121),4	3225,(12, 40),7616	
1,(0, 2),4	5,(0, 3),4	9,(0, 4),4	13,(0, 5),4	17,(0, 6),4	21,(0, 7),4	25,(0, 8),4	29,(0, 9),4	33,(0, 10),4	37,(0, 12),4	41,(11, 30),12	53,(11, 38),80	133,(11, 44),16	149,(11, 67),4	153,(11, 77),12	165,(11, 78),628	793,(11, 82),4	797,(11, 103),4	801,(11, 117),36	837,(1, 13),8	845,(1, 20),4	849,(1, 32),4	853,(1, 33),204	1057,(1, 42),112	1169,(1, 44),40	1209,(1, 56),4	1213,(1, 57),12	1225,(1, 59),16	1241,(1, 64),8	1249,(1, 66),8	1257,(1, 67),128	1385,(1, 72),20	1405,(1, 75),188	1593,(1, 82),384	1977,(1, 95),36	2013,(1, 98),4	2017,(1, 107),488	2505,(1, 110),28	2533,(1, 116),16	2549,(1, 117),160	
