1350
# CPU
4,2,10	14,4,10	24,7,10	34,11,10	44,19,10	54,9,10	64,5,10	74,13,10	84,14,10	94,15,10	104,16,10	114,17,10	
0,0,1	1,1,10	11,3,10	21,18,10	31,8,10	41,6,10	51,10,10	125,12,10	135,20,10	1349,21,1	
# Incoming
1,(0, 2),3	11,(1, 5),9	20,(1, 13),15	35,(1, 14),3	38,(1, 15),3	41,(1, 16),3	44,(1, 17),3	
14,(2, 6),3	17,(2, 10),3	20,(2, 12),105	125,(2, 20),3	128,(4, 21),111	239,(7, 21),111	350,(11, 21),111	461,(19, 21),111	572,(9, 21),111	683,(5, 21),111	794,(13, 21),111	905,(14, 21),111	1016,(15, 21),111	1127,(16, 21),111	1238,(17, 21),111	
# Outgoing
14,(2, 6),3	17,(2, 10),3	20,(2, 12),105	125,(2, 20),3	128,(4, 21),111	239,(7, 21),111	350,(11, 21),111	461,(19, 21),111	572,(9, 21),111	683,(5, 21),111	794,(13, 21),111	905,(14, 21),111	1016,(15, 21),111	1127,(16, 21),111	1238,(17, 21),111	
1,(0, 2),3	11,(1, 5),9	20,(1, 13),15	35,(1, 14),3	38,(1, 15),3	41,(1, 16),3	44,(1, 17),3	
