3612
# CPU
0,0,1	1,8,1	2,5,1	3,4,1	4,37,1	5,13,1	6,12,1	7,42,1	8,1,1	9,18,1	10,101,1	11,6,1	12,49,1	13,117,1	14,94,1	15,9,1	16,22,1	17,16,1	18,54,1	19,99,1	20,76,1	21,81,1	22,113,1	23,50,1	24,3,1	25,67,1	26,79,1	27,65,1	28,73,1	29,59,1	30,111,1	31,89,1	32,2,1	33,61,1	34,78,1	35,100,1	36,84,1	37,51,1	38,30,1	39,19,1	40,14,1	41,46,1	42,48,1	43,66,1	44,82,1	45,116,1	46,7,1	47,118,1	48,103,1	49,25,1	50,97,1	51,90,1	52,75,1	53,92,1	54,15,1	55,64,1	56,95,1	57,43,1	58,112,1	59,39,1	60,98,1	61,34,1	62,110,1	66,91,1	70,106,1	74,114,1	78,70,1	82,120,1	86,53,1	94,52,1	102,41,1	110,83,1	122,35,1	134,86,1	146,60,1	158,85,1	174,27,1	190,55,1	206,87,1	222,32,1	238,115,1	254,47,1	274,57,1	298,38,1	322,71,1	350,17,1	378,29,1	406,62,1	434,74,1	466,24,1	498,36,1	534,96,1	574,102,1	618,108,1	670,105,1	726,93,1	786,107,1	846,33,1	914,72,1	986,23,1	1058,119,1	1134,77,1	1218,45,1	1302,26,1	1390,68,1	1482,20,1	1582,88,1	1706,63,1	1834,21,1	2038,69,1	2258,44,1	2490,56,1	2886,104,1	3610,28,1	3611,121,1	
17,10,1	21,80,1	25,109,1	29,40,1	


9,11,1	10,58,1	49,31,1	
# Incoming
11,(58, 121),8	22,(80, 121),8	30,(109, 121),8	38,(40, 121),8	46,(10, 34),4	50,(31, 121),8	58,(11, 110),4	62,(10, 91),4	66,(10, 106),4	70,(10, 114),4	74,(10, 70),4	78,(11, 120),4	82,(11, 53),4	86,(10, 52),8	94,(11, 41),8	102,(10, 83),8	110,(11, 35),8	118,(10, 35),4	122,(11, 86),12	134,(10, 60),12	146,(10, 85),12	158,(11, 27),16	174,(11, 55),8	182,(10, 55),8	190,(11, 87),16	206,(11, 32),4	210,(10, 32),12	222,(10, 115),16	238,(10, 47),16	254,(11, 57),20	274,(11, 38),24	298,(10, 71),24	322,(11, 17),28	350,(11, 29),28	378,(11, 62),28	406,(10, 74),28	434,(11, 24),32	466,(11, 36),16	482,(10, 36),16	498,(11, 96),12	510,(10, 96),24	534,(11, 102),40	574,(10, 108),44	618,(11, 105),36	654,(10, 105),16	670,(10, 93),56	726,(10, 107),60	786,(11, 33),56	842,(10, 33),4	846,(11, 72),8	854,(10, 72),60	914,(11, 23),72	986,(11, 119),68	1054,(10, 119),4	1058,(11, 77),76	1134,(11, 45),24	1158,(10, 45),60	1218,(11, 26),84	1302,(10, 68),88	1390,(10, 20),92	1482,(10, 88),100	1582,(11, 63),120	1702,(10, 63),4	1706,(11, 21),108	1814,(10, 21),20	1834,(11, 69),204	2038,(11, 44),220	2258,(10, 56),232	2490,(11, 104),396	2886,(11, 28),4	2890,(10, 28),720	
9,(0, 10),8	17,(4, 80),4	21,(11, 109),4	25,(12, 40),4	


1,(0, 11),8	29,(4, 31),16	45,(3, 31),4	
# Outgoing
1,(0, 11),8	9,(0, 10),8	17,(4, 80),4	25,(12, 40),4	29,(4, 31),16	45,(3, 31),4	
22,(80, 121),8	30,(109, 121),8	38,(40, 121),8	46,(10, 34),4	62,(10, 91),4	66,(10, 106),4	70,(10, 114),4	74,(10, 70),4	86,(10, 52),8	102,(10, 83),8	118,(10, 35),4	134,(10, 60),12	146,(10, 85),12	182,(10, 55),8	210,(10, 32),12	222,(10, 115),16	238,(10, 47),16	298,(10, 71),24	406,(10, 74),28	482,(10, 36),16	510,(10, 96),24	574,(10, 108),44	654,(10, 105),16	670,(10, 93),56	726,(10, 107),60	842,(10, 33),4	854,(10, 72),60	1054,(10, 119),4	1158,(10, 45),60	1302,(10, 68),88	1390,(10, 20),92	1482,(10, 88),100	1702,(10, 63),4	1814,(10, 21),20	2258,(10, 56),232	2890,(10, 28),720	


11,(58, 121),8	21,(11, 109),4	50,(31, 121),8	58,(11, 110),4	78,(11, 120),4	82,(11, 53),4	94,(11, 41),8	110,(11, 35),8	122,(11, 86),12	158,(11, 27),16	174,(11, 55),8	190,(11, 87),16	206,(11, 32),4	254,(11, 57),20	274,(11, 38),24	322,(11, 17),28	350,(11, 29),28	378,(11, 62),28	434,(11, 24),32	466,(11, 36),16	498,(11, 96),12	534,(11, 102),40	618,(11, 105),36	786,(11, 33),56	846,(11, 72),8	914,(11, 23),72	986,(11, 119),68	1058,(11, 77),76	1134,(11, 45),24	1218,(11, 26),84	1582,(11, 63),120	1706,(11, 21),108	1834,(11, 69),204	2038,(11, 44),220	2490,(11, 104),396	2886,(11, 28),4	
