3272
# CPU
28,4,7	35,51,7	42,76,7	49,39,7	56,66,7	63,8,7	70,45,7	79,21,7	91,37,7	98,63,7	105,30,7	127,57,7	169,48,7	184,42,7	193,69,7	325,13,7	424,22,7	436,24,7	502,27,7	766,54,7	904,80,7	1396,17,7	1414,33,7	1477,60,7	1486,72,7	1493,78,7	
19,3,7	26,44,7	33,62,7	40,65,7	47,7,7	54,32,7	61,19,7	68,53,7	75,14,7	82,74,7	89,29,7	96,26,7	151,47,7	158,12,7	292,77,7	373,20,7	433,79,7	541,56,7	550,59,7	557,68,7	862,23,7	928,50,7	961,71,7	1426,36,7	1456,38,7	1474,41,7	3271,81,1	
10,2,7	17,10,7	24,58,7	37,6,7	44,73,7	58,11,7	65,18,7	94,25,7	101,28,7	108,34,7	277,67,7	379,35,7	386,40,7	430,43,7	529,49,7	565,61,7	572,64,7	579,75,7	586,55,7	593,70,7	652,31,7	661,52,7	841,15,7	868,46,7	
0,0,1	1,1,7	8,5,7	15,9,7	1324,16,7	
# Incoming
19,(0, 4),9	31,(2, 51),3	37,(2, 66),3	46,(0, 8),9	55,(2, 21),24	79,(3, 30),6	85,(3, 37),6	91,(7, 63),3	94,(1, 30),3	97,(3, 27),24	121,(3, 57),6	127,(7, 17),12	142,(2, 48),27	169,(7, 42),15	184,(7, 69),9	277,(1, 72),9	313,(5, 13),12	373,(5, 22),51	424,(5, 24),12	436,(5, 27),66	586,(5, 72),12	661,(7, 54),105	766,(7, 80),138	1324,(6, 17),72	1396,(6, 33),18	1474,(6, 60),3	1477,(6, 72),9	1486,(6, 78),3	
10,(0, 3),9	19,(2, 12),9	28,(2, 32),3	34,(2, 65),3	37,(0, 7),9	46,(4, 19),3	49,(6, 32),3	55,(1, 12),3	58,(4, 29),18	76,(8, 26),3	79,(2, 47),63	142,(4, 47),9	151,(8, 12),6	169,(10, 81),54	223,(58, 81),54	286,(1, 77),6	292,(1, 79),21	325,(5, 20),48	373,(4, 79),60	433,(51, 81),54	502,(5, 56),39	541,(5, 59),9	550,(5, 68),6	556,(5, 71),30	598,(9, 81),54	652,(76, 81),54	706,(39, 81),54	760,(66, 81),54	841,(8, 23),21	868,(8, 50),60	928,(8, 71),33	961,(45, 81),54	1015,(21, 81),54	1069,(37, 81),54	1123,(63, 81),54	1177,(30, 81),54	1231,(57, 81),54	1285,(48, 81),54	1339,(42, 81),54	1414,(6, 36),12	1426,(6, 38),30	1456,(6, 41),18	1489,(73, 81),54	1543,(11, 81),54	1597,(18, 81),54	1651,(25, 81),54	1705,(28, 81),54	1759,(34, 81),54	1813,(69, 81),54	1867,(67, 81),54	1921,(13, 81),54	1975,(35, 81),54	2029,(40, 81),54	2083,(22, 81),54	2137,(43, 81),54	2191,(24, 81),54	2245,(27, 81),54	2299,(49, 81),54	2353,(61, 81),54	2407,(64, 81),54	2461,(75, 81),54	2515,(55, 81),54	2569,(70, 81),54	2623,(31, 81),54	2677,(52, 81),54	2731,(54, 81),54	2785,(15, 81),54	2839,(46, 81),54	2893,(80, 81),54	2947,(16, 81),54	3001,(17, 81),54	3055,(33, 81),54	3109,(60, 81),54	3163,(72, 81),54	3217,(78, 81),54	
1,(0, 2),9	28,(0, 6),9	37,(3, 11),21	58,(1, 18),3	61,(1, 25),33	94,(3, 28),3	97,(1, 34),9	106,(1, 43),144	250,(1, 49),12	262,(1, 67),15	277,(3, 31),6	283,(3, 35),96	379,(3, 40),3	382,(3, 43),48	430,(3, 49),99	529,(3, 61),36	565,(3, 64),3	568,(3, 70),6	574,(3, 75),3	577,(4, 55),3	580,(4, 70),3	583,(7, 31),69	652,(7, 46),3	655,(7, 52),6	814,(8, 15),27	862,(8, 46),6	
277,(6, 16),1047	
# Outgoing
46,(4, 19),3	58,(4, 29),18	76,(8, 26),3	142,(4, 47),9	151,(8, 12),6	373,(4, 79),60	433,(51, 81),54	577,(4, 55),3	580,(4, 70),3	652,(76, 81),54	706,(39, 81),54	760,(66, 81),54	814,(8, 15),27	841,(8, 23),21	862,(8, 46),6	868,(8, 50),60	928,(8, 71),33	961,(45, 81),54	1015,(21, 81),54	1069,(37, 81),54	1123,(63, 81),54	1177,(30, 81),54	1231,(57, 81),54	1285,(48, 81),54	1339,(42, 81),54	1813,(69, 81),54	1921,(13, 81),54	2083,(22, 81),54	2191,(24, 81),54	2245,(27, 81),54	2731,(54, 81),54	2893,(80, 81),54	3001,(17, 81),54	3055,(33, 81),54	3109,(60, 81),54	3163,(72, 81),54	3217,(78, 81),54	
37,(3, 11),21	79,(3, 30),6	85,(3, 37),6	91,(7, 63),3	94,(3, 28),3	97,(3, 27),24	121,(3, 57),6	127,(7, 17),12	169,(7, 42),15	184,(7, 69),9	277,(3, 31),6	283,(3, 35),96	379,(3, 40),3	382,(3, 43),48	430,(3, 49),99	529,(3, 61),36	565,(3, 64),3	568,(3, 70),6	574,(3, 75),3	583,(7, 31),69	652,(7, 46),3	655,(7, 52),6	661,(7, 54),105	766,(7, 80),138	
19,(2, 12),9	28,(2, 32),3	31,(2, 51),3	34,(2, 65),3	37,(2, 66),3	49,(6, 32),3	55,(2, 21),24	79,(2, 47),63	142,(2, 48),27	169,(10, 81),54	223,(58, 81),54	277,(6, 16),1047	1324,(6, 17),72	1396,(6, 33),18	1414,(6, 36),12	1426,(6, 38),30	1456,(6, 41),18	1474,(6, 60),3	1477,(6, 72),9	1486,(6, 78),3	1489,(73, 81),54	1543,(11, 81),54	1597,(18, 81),54	1651,(25, 81),54	1705,(28, 81),54	1759,(34, 81),54	1867,(67, 81),54	1975,(35, 81),54	2029,(40, 81),54	2137,(43, 81),54	2299,(49, 81),54	2353,(61, 81),54	2407,(64, 81),54	2461,(75, 81),54	2515,(55, 81),54	2569,(70, 81),54	2623,(31, 81),54	2677,(52, 81),54	2785,(15, 81),54	2839,(46, 81),54	
1,(0, 2),9	10,(0, 3),9	19,(0, 4),9	28,(0, 6),9	37,(0, 7),9	46,(0, 8),9	55,(1, 12),3	58,(1, 18),3	61,(1, 25),33	94,(1, 30),3	97,(1, 34),9	106,(1, 43),144	250,(1, 49),12	262,(1, 67),15	277,(1, 72),9	286,(1, 77),6	292,(1, 79),21	313,(5, 13),12	325,(5, 20),48	373,(5, 22),51	424,(5, 24),12	436,(5, 27),66	502,(5, 56),39	541,(5, 59),9	550,(5, 68),6	556,(5, 71),30	586,(5, 72),12	598,(9, 81),54	2947,(16, 81),54	
