12361
# CPU
5,3,1	9,6,1	10,30,1	11,102,1	13,9,1	14,64,1	15,148,1	16,168,1	17,12,1	18,163,1	21,15,1	22,171,1	23,183,1	25,18,1	26,52,1	27,94,1	29,31,1	1583,123,1	1781,109,1	1843,49,1	2203,126,1	2223,130,1	2453,70,1	2499,121,1	2715,120,1	2719,125,1	2749,139,1	3107,38,1	3147,128,1	3201,134,1	3207,185,1	3225,42,1	3237,44,1	3247,54,1	3925,85,1	3989,145,1	4017,149,1	4607,72,1	4643,43,1	4671,65,1	4673,67,1	4951,75,1	5057,91,1	5257,155,1	5281,166,1	5303,177,1	5865,167,1	5869,111,1	5875,35,1	6241,73,1	6269,82,1	6277,101,1	6291,115,1	6293,118,1	6297,124,1	6299,161,1	6513,162,1	6529,191,1	6561,195,1	6739,97,1	6757,104,1	6825,135,1	7061,173,1	7073,69,1	7107,93,1	7121,41,1	7125,197,1	7287,108,1	7791,33,1	7793,37,1	7827,47,1	7939,68,1	7981,76,1	7989,77,1	7991,86,1	8005,90,1	8093,100,1	8111,110,1	8113,119,1	8223,133,1	8273,169,1	8419,29,1	8669,40,1	8707,63,1	8759,81,1	8811,117,1	8985,154,1	9039,59,1	9091,62,1	9111,71,1	9143,83,1	9153,84,1	9163,87,1	9195,132,1	9435,165,1	9475,187,1	9561,199,1	9599,36,1	9603,60,1	9605,78,1	9763,92,1	9943,95,1	9955,107,1	9999,113,1	10021,114,1	10737,137,1	10829,147,1	10837,152,1	10839,164,1	10841,179,1	10965,181,1	10967,193,1	10977,34,1	11001,48,1	11071,58,1	11081,61,1	11113,79,1	11153,88,1	11193,96,1	11255,98,1	11273,99,1	11289,103,1	11311,112,1	11337,127,1	11397,131,1	11403,136,1	11425,138,1	11427,141,1	11433,142,1	11457,150,1	11501,153,1	11897,157,1	11915,158,1	11917,24,1	11937,39,1	11939,45,1	11953,56,1	11999,66,1	12003,74,1	12005,80,1	12015,89,1	12019,105,1	12077,106,1	12085,116,1	12119,122,1	12131,129,1	12141,140,1	12289,143,1	12291,144,1	12295,146,1	12297,151,1	12299,156,1	12301,159,1	12321,160,1	12347,175,1	12349,189,1	
3,2,1	7,5,1	8,190,1	11,8,1	15,11,1	19,14,1	23,17,1	24,28,1	27,20,1	45,55,1	59,32,1	111,26,1	129,50,1	151,198,1	177,170,1	229,174,1	2543,57,1	3209,200,1	3995,172,1	4009,176,1	4607,196,1	6517,180,1	6531,182,1	6547,194,1	7121,192,1	7133,22,1	7141,53,1	7143,178,1	7145,184,1	7157,186,1	7179,188,1	12360,201,1	
0,0,1	1,16,1	2,4,1	3,10,1	4,13,1	5,7,1	6,1,1	7,19,1	8,23,1	91,21,1	305,27,1	1245,51,1	1369,25,1	1519,46,1	
# Incoming
3,(0, 3),2	7,(0, 6),2	9,(2, 52),2	11,(0, 9),2	13,(2, 77),2	15,(0, 12),2	17,(2, 95),2	19,(0, 15),2	21,(2, 97),2	23,(0, 18),2	25,(2, 135),2	27,(16, 31),2	29,(16, 47),2	31,(2, 45),10	41,(2, 47),4	45,(16, 56),4	49,(16, 59),250	299,(16, 61),1002	1301,(16, 69),10	1311,(16, 72),6	1317,(16, 80),40	1357,(16, 91),2	1359,(16, 101),28	1387,(16, 105),28	1415,(16, 106),4	1419,(16, 108),2	1421,(16, 120),14	1435,(16, 123),148	1583,(16, 133),120	1703,(16, 140),12	1715,(16, 164),8	1723,(16, 181),16	1739,(2, 35),18	1757,(2, 44),20	1777,(2, 109),4	1781,(4, 41),8	1789,(4, 43),4	1793,(4, 56),2	1795,(2, 37),38	1833,(2, 49),10	1843,(2, 61),6	1849,(2, 105),72	1921,(2, 106),200	2121,(2, 114),16	2137,(2, 120),12	2149,(2, 126),54	2203,(2, 130),20	2223,(2, 134),48	2271,(2, 136),2	2273,(2, 139),30	2303,(2, 142),2	2305,(2, 156),10	2315,(2, 162),12	2327,(2, 173),4	2331,(2, 175),2	2333,(5, 29),2	2335,(5, 47),12	2347,(5, 48),12	2359,(5, 69),44	2403,(5, 70),50	2453,(5, 72),6	2459,(5, 78),16	2475,(5, 79),2	2477,(5, 89),2	2479,(5, 93),4	2483,(5, 99),2	2485,(5, 106),6	2491,(5, 119),4	2495,(5, 121),4	2499,(5, 125),2	2501,(5, 127),28	2529,(5, 129),2	2531,(5, 139),2	2533,(5, 147),8	2541,(5, 154),2	2543,(4, 65),6	2549,(4, 71),38	2587,(4, 100),118	2705,(4, 115),2	2707,(4, 120),8	2715,(4, 124),2	2717,(4, 125),2	2719,(4, 129),12	2731,(4, 132),2	2733,(4, 137),4	2737,(4, 139),12	2749,(4, 151),12	2761,(4, 157),2	2763,(4, 160),14	2777,(4, 164),312	3089,(4, 169),6	3095,(5, 177),2	3097,(5, 191),2	3099,(8, 38),8	3107,(8, 61),4	3111,(8, 107),2	3113,(4, 177),12	3125,(5, 128),22	3147,(5, 134),54	3201,(8, 111),2	3203,(4, 185),4	3207,(8, 141),2	3209,(10, 42),16	3225,(10, 44),12	3237,(10, 54),10	3247,(10, 60),10	3257,(10, 63),4	3261,(10, 65),2	3263,(10, 85),662	3925,(10, 101),2	3927,(10, 116),8	3935,(10, 131),16	3951,(10, 136),22	3973,(10, 138),6	3979,(10, 142),8	3987,(10, 145),2	3989,(10, 154),2	3991,(8, 37),24	4015,(8, 149),2	4017,(11, 40),2	4019,(10, 193),586	4605,(11, 72),2	4607,(13, 29),2	4609,(13, 33),2	4611,(13, 43),32	4643,(13, 47),2	4645,(13, 56),24	4669,(13, 65),2	4671,(13, 67),2	4673,(13, 68),78	4751,(13, 74),180	4931,(13, 75),20	4951,(13, 78),22	4973,(13, 86),2	4975,(13, 91),82	5057,(13, 92),2	5059,(13, 100),4	5063,(13, 104),12	5075,(13, 107),2	5077,(13, 129),86	5163,(13, 131),8	5171,(13, 150),84	5255,(13, 155),2	5257,(13, 157),10	5267,(13, 166),14	5281,(13, 173),16	5297,(13, 177),6	5303,(13, 179),32	5335,(13, 181),4	5339,(13, 195),12	5351,(13, 197),456	5807,(13, 199),6	5813,(5, 167),52	5865,(11, 96),2	5867,(11, 111),2	5869,(11, 117),2	5871,(7, 35),4	5875,(7, 40),28	5903,(7, 68),18	5921,(7, 73),320	6241,(7, 77),18	6259,(7, 82),10	6269,(7, 96),2	6271,(7, 101),6	6277,(7, 107),6	6283,(7, 115),8	6291,(7, 118),2	6293,(7, 122),2	6295,(7, 124),2	6297,(7, 161),2	6299,(7, 162),214	6513,(8, 108),14	6527,(11, 191),2	6529,(14, 29),2	6531,(7, 187),4	6535,(7, 193),2	6537,(11, 36),10	6547,(7, 195),14	6561,(1, 62),6	6567,(1, 63),4	6571,(1, 68),28	6599,(1, 71),42	6641,(1, 77),94	6735,(1, 95),2	6737,(1, 97),2	6739,(1, 99),4	6743,(1, 103),2	6745,(1, 104),12	6757,(1, 116),64	6821,(1, 135),4	6825,(1, 151),36	6861,(1, 154),184	7045,(1, 158),2	7047,(1, 173),14	7061,(1, 181),2	7063,(11, 69),10	7073,(14, 24),4	7077,(1, 189),8	7085,(8, 93),22	7107,(11, 81),10	7117,(14, 39),2	7119,(14, 41),2	7121,(1, 193),2	7123,(1, 197),2	7125,(1, 199),6	7131,(5, 108),156	7287,(5, 169),74	7361,(5, 179),424	7785,(19, 33),6	7791,(19, 37),2	7793,(19, 39),6	7799,(19, 47),28	7827,(19, 60),4	7831,(19, 62),88	7919,(19, 63),2	7921,(19, 68),18	7939,(19, 76),42	7981,(19, 77),8	7989,(19, 86),2	7991,(19, 90),14	8005,(19, 100),88	8093,(19, 103),2	8095,(19, 110),16	8111,(19, 119),2	8113,(19, 131),108	8221,(19, 133),2	8223,(19, 142),2	8225,(19, 150),2	8227,(19, 152),20	8247,(19, 158),2	8249,(19, 160),20	8269,(19, 169),4	8273,(19, 199),22	8295,(8, 29),124	8419,(8, 40),250	8669,(8, 63),38	8707,(8, 81),52	8759,(8, 117),52	8811,(8, 138),146	8957,(8, 154),28	8985,(11, 59),54	9039,(11, 62),52	9091,(11, 71),20	9111,(11, 83),32	9143,(11, 84),10	9153,(11, 87),10	9163,(11, 89),10	9173,(11, 95),16	9189,(11, 132),6	9195,(11, 136),8	9203,(11, 140),8	9211,(11, 144),80	9291,(11, 165),144	9435,(11, 187),40	9475,(11, 199),86	9561,(14, 34),8	9569,(14, 36),30	9599,(14, 60),4	9603,(14, 78),2	9605,(14, 88),156	9761,(14, 92),2	9763,(14, 95),180	9943,(14, 107),12	9955,(14, 113),44	9999,(14, 114),22	10021,(14, 116),2	10023,(14, 131),712	10735,(14, 137),2	10737,(14, 142),2	10739,(14, 144),76	10815,(14, 147),14	10829,(14, 152),8	10837,(14, 164),2	10839,(14, 179),2	10841,(14, 181),124	10965,(14, 193),2	10967,(17, 34),10	10977,(17, 39),2	10979,(17, 45),10	10989,(17, 48),12	11001,(17, 58),70	11071,(17, 61),10	11081,(17, 79),32	11113,(17, 88),40	11153,(17, 89),36	11189,(17, 96),4	11193,(17, 98),62	11255,(17, 99),18	11273,(17, 103),16	11289,(17, 105),20	11309,(17, 112),2	11311,(17, 127),26	11337,(17, 131),60	11397,(17, 136),6	11403,(17, 138),22	11425,(17, 141),2	11427,(17, 142),6	11433,(17, 144),2	11435,(17, 146),10	11445,(17, 150),12	11457,(17, 153),44	11501,(17, 156),50	11551,(17, 157),346	11897,(17, 158),18	11915,(20, 24),2	11917,(20, 39),20	11937,(20, 45),2	11939,(20, 56),14	11953,(20, 66),46	11999,(20, 74),4	12003,(20, 80),2	12005,(20, 89),10	12015,(20, 105),4	12019,(20, 106),58	12077,(20, 116),8	12085,(20, 122),34	12119,(20, 129),12	12131,(20, 140),10	12141,(20, 143),148	12289,(20, 144),2	12291,(20, 146),4	12295,(20, 151),2	12297,(20, 156),2	12299,(20, 159),2	12301,(20, 160),20	12321,(20, 175),26	12347,(20, 189),2	
1,(0, 2),2	5,(0, 5),2	9,(0, 8),2	13,(0, 11),2	17,(0, 14),2	21,(0, 17),2	25,(0, 20),2	31,(16, 55),14	45,(3, 32),14	59,(3, 170),6	65,(3, 178),2	67,(3, 180),18	85,(3, 196),4	91,(6, 22),2	93,(6, 26),18	121,(6, 50),8	129,(6, 180),16	145,(6, 192),2	147,(6, 198),4	151,(6, 200),4	155,(30, 201),6	161,(102, 201),6	167,(9, 170),10	177,(9, 194),30	207,(64, 201),6	213,(148, 201),6	219,(168, 201),6	225,(12, 172),2	227,(12, 174),2	229,(12, 186),2	231,(163, 201),6	1245,(15, 188),2	1247,(171, 201),6	1253,(183, 201),6	1259,(18, 176),2	1261,(18, 178),4	1265,(52, 201),6	1271,(94, 201),6	1277,(31, 201),6	1584,(123, 201),6	1739,(16, 182),40	1779,(4, 22),2	1782,(109, 201),6	1795,(4, 57),748	2543,(49, 201),6	2549,(126, 201),6	2555,(130, 201),6	2561,(70, 201),6	2567,(121, 201),6	2716,(120, 201),6	2722,(125, 201),6	2750,(139, 201),6	3095,(4, 172),18	3113,(38, 201),6	3125,(4, 178),78	3207,(4, 200),2	3209,(128, 201),6	3215,(134, 201),6	3221,(185, 201),6	3227,(42, 201),6	3238,(44, 201),6	3248,(54, 201),6	3926,(85, 201),6	3991,(10, 172),4	3995,(10, 176),14	4009,(10, 178),2	4011,(10, 186),8	4019,(145, 201),6	4025,(149, 201),6	4605,(10, 196),2	4608,(72, 201),6	4644,(43, 201),6	4672,(65, 201),6	4678,(67, 201),6	4952,(75, 201),6	5058,(91, 201),6	5258,(155, 201),6	5282,(166, 201),6	5304,(177, 201),6	5813,(7, 22),58	5871,(167, 201),6	5877,(111, 201),6	5883,(35, 201),6	6242,(73, 201),6	6270,(82, 201),6	6278,(101, 201),6	6292,(115, 201),6	6298,(118, 201),6	6304,(124, 201),6	6310,(161, 201),6	6513,(7, 178),2	6515,(7, 180),2	6517,(7, 182),14	6531,(162, 201),6	6537,(7, 194),10	6547,(191, 201),6	6562,(195, 201),6	6740,(97, 201),6	6758,(104, 201),6	6826,(135, 201),6	7063,(1, 184),4	7067,(1, 188),10	7077,(173, 201),6	7085,(1, 192),36	7121,(69, 201),6	7131,(19, 22),2	7133,(19, 53),8	7141,(19, 178),2	7143,(19, 184),2	7145,(19, 186),12	7157,(19, 188),22	7179,(23, 201),6	7185,(21, 201),6	7191,(27, 201),6	7197,(51, 201),6	7203,(25, 201),6	7209,(46, 201),6	7215,(93, 201),6	7221,(41, 201),6	7227,(197, 201),6	7288,(108, 201),6	7792,(33, 201),6	7798,(37, 201),6	7828,(47, 201),6	7940,(68, 201),6	7982,(76, 201),6	7990,(77, 201),6	7996,(86, 201),6	8006,(90, 201),6	8094,(100, 201),6	8112,(110, 201),6	8118,(119, 201),6	8224,(133, 201),6	8274,(169, 201),6	8420,(29, 201),6	8670,(40, 201),6	8708,(63, 201),6	8760,(81, 201),6	8812,(117, 201),6	8986,(154, 201),6	9040,(59, 201),6	9092,(62, 201),6	9112,(71, 201),6	9144,(83, 201),6	9154,(84, 201),6	9164,(87, 201),6	9196,(132, 201),6	9436,(165, 201),6	9476,(187, 201),6	9562,(199, 201),6	9600,(36, 201),6	9606,(60, 201),6	9612,(78, 201),6	9764,(92, 201),6	9944,(95, 201),6	9956,(107, 201),6	10000,(113, 201),6	10022,(114, 201),6	10738,(137, 201),6	10830,(147, 201),6	10838,(152, 201),6	10844,(164, 201),6	10850,(179, 201),6	10966,(181, 201),6	10972,(193, 201),6	10978,(34, 201),6	11002,(48, 201),6	11072,(58, 201),6	11082,(61, 201),6	11114,(79, 201),6	11154,(88, 201),6	11194,(96, 201),6	11256,(98, 201),6	11274,(99, 201),6	11290,(103, 201),6	11312,(112, 201),6	11338,(127, 201),6	11398,(131, 201),6	11404,(136, 201),6	11426,(138, 201),6	11432,(141, 201),6	11438,(142, 201),6	11458,(150, 201),6	11502,(153, 201),6	11898,(157, 201),6	11916,(158, 201),6	11922,(24, 201),6	11938,(39, 201),6	11944,(45, 201),6	11954,(56, 201),6	12000,(66, 201),6	12006,(74, 201),6	12012,(80, 201),6	12018,(89, 201),6	12024,(105, 201),6	12078,(106, 201),6	12086,(116, 201),6	12120,(122, 201),6	12132,(129, 201),6	12142,(140, 201),6	12290,(143, 201),6	12296,(144, 201),6	12302,(146, 201),6	12308,(151, 201),6	12314,(156, 201),6	12320,(159, 201),6	12326,(160, 201),6	12348,(175, 201),6	12354,(189, 201),6	
4,(2, 21),4	23,(14, 51),2	45,(20, 25),22	89,(6, 21),2	111,(6, 46),10	237,(15, 27),68	305,(15, 51),940	1245,(17, 25),124	1369,(18, 46),150	
# Outgoing
45,(3, 32),14	59,(3, 170),6	65,(3, 178),2	67,(3, 180),18	85,(3, 196),4	89,(6, 21),2	91,(6, 22),2	93,(6, 26),18	111,(6, 46),10	121,(6, 50),8	129,(6, 180),16	145,(6, 192),2	147,(6, 198),4	151,(6, 200),4	155,(30, 201),6	161,(102, 201),6	167,(9, 170),10	177,(9, 194),30	207,(64, 201),6	213,(148, 201),6	219,(168, 201),6	225,(12, 172),2	227,(12, 174),2	229,(12, 186),2	231,(163, 201),6	237,(15, 27),68	305,(15, 51),940	1245,(15, 188),2	1247,(171, 201),6	1253,(183, 201),6	1259,(18, 176),2	1261,(18, 178),4	1265,(52, 201),6	1271,(94, 201),6	1277,(31, 201),6	1369,(18, 46),150	1584,(123, 201),6	1782,(109, 201),6	2543,(49, 201),6	2549,(126, 201),6	2555,(130, 201),6	2561,(70, 201),6	2567,(121, 201),6	2716,(120, 201),6	2722,(125, 201),6	2750,(139, 201),6	3113,(38, 201),6	3209,(128, 201),6	3215,(134, 201),6	3221,(185, 201),6	3227,(42, 201),6	3238,(44, 201),6	3248,(54, 201),6	3926,(85, 201),6	4019,(145, 201),6	4025,(149, 201),6	4608,(72, 201),6	4644,(43, 201),6	4672,(65, 201),6	4678,(67, 201),6	4952,(75, 201),6	5058,(91, 201),6	5258,(155, 201),6	5282,(166, 201),6	5304,(177, 201),6	5871,(167, 201),6	5877,(111, 201),6	5883,(35, 201),6	6242,(73, 201),6	6270,(82, 201),6	6278,(101, 201),6	6292,(115, 201),6	6298,(118, 201),6	6304,(124, 201),6	6310,(161, 201),6	6531,(162, 201),6	6547,(191, 201),6	6562,(195, 201),6	6740,(97, 201),6	6758,(104, 201),6	6826,(135, 201),6	7077,(173, 201),6	7121,(69, 201),6	7215,(93, 201),6	7221,(41, 201),6	7227,(197, 201),6	7288,(108, 201),6	7792,(33, 201),6	7798,(37, 201),6	7828,(47, 201),6	7940,(68, 201),6	7982,(76, 201),6	7990,(77, 201),6	7996,(86, 201),6	8006,(90, 201),6	8094,(100, 201),6	8112,(110, 201),6	8118,(119, 201),6	8224,(133, 201),6	8274,(169, 201),6	8420,(29, 201),6	8670,(40, 201),6	8708,(63, 201),6	8760,(81, 201),6	8812,(117, 201),6	8986,(154, 201),6	9040,(59, 201),6	9092,(62, 201),6	9112,(71, 201),6	9144,(83, 201),6	9154,(84, 201),6	9164,(87, 201),6	9196,(132, 201),6	9436,(165, 201),6	9476,(187, 201),6	9562,(199, 201),6	9600,(36, 201),6	9606,(60, 201),6	9612,(78, 201),6	9764,(92, 201),6	9944,(95, 201),6	9956,(107, 201),6	10000,(113, 201),6	10022,(114, 201),6	10738,(137, 201),6	10830,(147, 201),6	10838,(152, 201),6	10844,(164, 201),6	10850,(179, 201),6	10966,(181, 201),6	10972,(193, 201),6	10978,(34, 201),6	11002,(48, 201),6	11072,(58, 201),6	11082,(61, 201),6	11114,(79, 201),6	11154,(88, 201),6	11194,(96, 201),6	11256,(98, 201),6	11274,(99, 201),6	11290,(103, 201),6	11312,(112, 201),6	11338,(127, 201),6	11398,(131, 201),6	11404,(136, 201),6	11426,(138, 201),6	11432,(141, 201),6	11438,(142, 201),6	11458,(150, 201),6	11502,(153, 201),6	11898,(157, 201),6	11916,(158, 201),6	11922,(24, 201),6	11938,(39, 201),6	11944,(45, 201),6	11954,(56, 201),6	12000,(66, 201),6	12006,(74, 201),6	12012,(80, 201),6	12018,(89, 201),6	12024,(105, 201),6	12078,(106, 201),6	12086,(116, 201),6	12120,(122, 201),6	12132,(129, 201),6	12142,(140, 201),6	12290,(143, 201),6	12296,(144, 201),6	12302,(146, 201),6	12308,(151, 201),6	12314,(156, 201),6	12320,(159, 201),6	12326,(160, 201),6	12348,(175, 201),6	12354,(189, 201),6	
4,(2, 21),4	9,(2, 52),2	13,(2, 77),2	17,(2, 95),2	21,(2, 97),2	23,(14, 51),2	25,(2, 135),2	31,(2, 45),10	41,(2, 47),4	45,(20, 25),22	1245,(17, 25),124	1739,(2, 35),18	1757,(2, 44),20	1777,(2, 109),4	1795,(2, 37),38	1833,(2, 49),10	1843,(2, 61),6	1849,(2, 105),72	1921,(2, 106),200	2121,(2, 114),16	2137,(2, 120),12	2149,(2, 126),54	2203,(2, 130),20	2223,(2, 134),48	2271,(2, 136),2	2273,(2, 139),30	2303,(2, 142),2	2305,(2, 156),10	2315,(2, 162),12	2327,(2, 173),4	2331,(2, 175),2	2333,(5, 29),2	2335,(5, 47),12	2347,(5, 48),12	2359,(5, 69),44	2403,(5, 70),50	2453,(5, 72),6	2459,(5, 78),16	2475,(5, 79),2	2477,(5, 89),2	2479,(5, 93),4	2483,(5, 99),2	2485,(5, 106),6	2491,(5, 119),4	2495,(5, 121),4	2499,(5, 125),2	2501,(5, 127),28	2529,(5, 129),2	2531,(5, 139),2	2533,(5, 147),8	2541,(5, 154),2	3095,(5, 177),2	3097,(5, 191),2	3099,(8, 38),8	3107,(8, 61),4	3111,(8, 107),2	3125,(5, 128),22	3147,(5, 134),54	3201,(8, 111),2	3207,(8, 141),2	3991,(8, 37),24	4015,(8, 149),2	4017,(11, 40),2	4605,(11, 72),2	5813,(5, 167),52	5865,(11, 96),2	5867,(11, 111),2	5869,(11, 117),2	6513,(8, 108),14	6527,(11, 191),2	6529,(14, 29),2	6537,(11, 36),10	7063,(11, 69),10	7073,(14, 24),4	7085,(8, 93),22	7107,(11, 81),10	7117,(14, 39),2	7119,(14, 41),2	7131,(5, 108),156	7287,(5, 169),74	7361,(5, 179),424	8295,(8, 29),124	8419,(8, 40),250	8669,(8, 63),38	8707,(8, 81),52	8759,(8, 117),52	8811,(8, 138),146	8957,(8, 154),28	8985,(11, 59),54	9039,(11, 62),52	9091,(11, 71),20	9111,(11, 83),32	9143,(11, 84),10	9153,(11, 87),10	9163,(11, 89),10	9173,(11, 95),16	9189,(11, 132),6	9195,(11, 136),8	9203,(11, 140),8	9211,(11, 144),80	9291,(11, 165),144	9435,(11, 187),40	9475,(11, 199),86	9561,(14, 34),8	9569,(14, 36),30	9599,(14, 60),4	9603,(14, 78),2	9605,(14, 88),156	9761,(14, 92),2	9763,(14, 95),180	9943,(14, 107),12	9955,(14, 113),44	9999,(14, 114),22	10021,(14, 116),2	10023,(14, 131),712	10735,(14, 137),2	10737,(14, 142),2	10739,(14, 144),76	10815,(14, 147),14	10829,(14, 152),8	10837,(14, 164),2	10839,(14, 179),2	10841,(14, 181),124	10965,(14, 193),2	10967,(17, 34),10	10977,(17, 39),2	10979,(17, 45),10	10989,(17, 48),12	11001,(17, 58),70	11071,(17, 61),10	11081,(17, 79),32	11113,(17, 88),40	11153,(17, 89),36	11189,(17, 96),4	11193,(17, 98),62	11255,(17, 99),18	11273,(17, 103),16	11289,(17, 105),20	11309,(17, 112),2	11311,(17, 127),26	11337,(17, 131),60	11397,(17, 136),6	11403,(17, 138),22	11425,(17, 141),2	11427,(17, 142),6	11433,(17, 144),2	11435,(17, 146),10	11445,(17, 150),12	11457,(17, 153),44	11501,(17, 156),50	11551,(17, 157),346	11897,(17, 158),18	11915,(20, 24),2	11917,(20, 39),20	11937,(20, 45),2	11939,(20, 56),14	11953,(20, 66),46	11999,(20, 74),4	12003,(20, 80),2	12005,(20, 89),10	12015,(20, 105),4	12019,(20, 106),58	12077,(20, 116),8	12085,(20, 122),34	12119,(20, 129),12	12131,(20, 140),10	12141,(20, 143),148	12289,(20, 144),2	12291,(20, 146),4	12295,(20, 151),2	12297,(20, 156),2	12299,(20, 159),2	12301,(20, 160),20	12321,(20, 175),26	12347,(20, 189),2	
1,(0, 2),2	3,(0, 3),2	5,(0, 5),2	7,(0, 6),2	9,(0, 8),2	11,(0, 9),2	13,(0, 11),2	15,(0, 12),2	17,(0, 14),2	19,(0, 15),2	21,(0, 17),2	23,(0, 18),2	25,(0, 20),2	27,(16, 31),2	29,(16, 47),2	31,(16, 55),14	45,(16, 56),4	49,(16, 59),250	299,(16, 61),1002	1301,(16, 69),10	1311,(16, 72),6	1317,(16, 80),40	1357,(16, 91),2	1359,(16, 101),28	1387,(16, 105),28	1415,(16, 106),4	1419,(16, 108),2	1421,(16, 120),14	1435,(16, 123),148	1583,(16, 133),120	1703,(16, 140),12	1715,(16, 164),8	1723,(16, 181),16	1739,(16, 182),40	1779,(4, 22),2	1781,(4, 41),8	1789,(4, 43),4	1793,(4, 56),2	1795,(4, 57),748	2543,(4, 65),6	2549,(4, 71),38	2587,(4, 100),118	2705,(4, 115),2	2707,(4, 120),8	2715,(4, 124),2	2717,(4, 125),2	2719,(4, 129),12	2731,(4, 132),2	2733,(4, 137),4	2737,(4, 139),12	2749,(4, 151),12	2761,(4, 157),2	2763,(4, 160),14	2777,(4, 164),312	3089,(4, 169),6	3095,(4, 172),18	3113,(4, 177),12	3125,(4, 178),78	3203,(4, 185),4	3207,(4, 200),2	3209,(10, 42),16	3225,(10, 44),12	3237,(10, 54),10	3247,(10, 60),10	3257,(10, 63),4	3261,(10, 65),2	3263,(10, 85),662	3925,(10, 101),2	3927,(10, 116),8	3935,(10, 131),16	3951,(10, 136),22	3973,(10, 138),6	3979,(10, 142),8	3987,(10, 145),2	3989,(10, 154),2	3991,(10, 172),4	3995,(10, 176),14	4009,(10, 178),2	4011,(10, 186),8	4019,(10, 193),586	4605,(10, 196),2	4607,(13, 29),2	4609,(13, 33),2	4611,(13, 43),32	4643,(13, 47),2	4645,(13, 56),24	4669,(13, 65),2	4671,(13, 67),2	4673,(13, 68),78	4751,(13, 74),180	4931,(13, 75),20	4951,(13, 78),22	4973,(13, 86),2	4975,(13, 91),82	5057,(13, 92),2	5059,(13, 100),4	5063,(13, 104),12	5075,(13, 107),2	5077,(13, 129),86	5163,(13, 131),8	5171,(13, 150),84	5255,(13, 155),2	5257,(13, 157),10	5267,(13, 166),14	5281,(13, 173),16	5297,(13, 177),6	5303,(13, 179),32	5335,(13, 181),4	5339,(13, 195),12	5351,(13, 197),456	5807,(13, 199),6	5813,(7, 22),58	5871,(7, 35),4	5875,(7, 40),28	5903,(7, 68),18	5921,(7, 73),320	6241,(7, 77),18	6259,(7, 82),10	6269,(7, 96),2	6271,(7, 101),6	6277,(7, 107),6	6283,(7, 115),8	6291,(7, 118),2	6293,(7, 122),2	6295,(7, 124),2	6297,(7, 161),2	6299,(7, 162),214	6513,(7, 178),2	6515,(7, 180),2	6517,(7, 182),14	6531,(7, 187),4	6535,(7, 193),2	6537,(7, 194),10	6547,(7, 195),14	6561,(1, 62),6	6567,(1, 63),4	6571,(1, 68),28	6599,(1, 71),42	6641,(1, 77),94	6735,(1, 95),2	6737,(1, 97),2	6739,(1, 99),4	6743,(1, 103),2	6745,(1, 104),12	6757,(1, 116),64	6821,(1, 135),4	6825,(1, 151),36	6861,(1, 154),184	7045,(1, 158),2	7047,(1, 173),14	7061,(1, 181),2	7063,(1, 184),4	7067,(1, 188),10	7077,(1, 189),8	7085,(1, 192),36	7121,(1, 193),2	7123,(1, 197),2	7125,(1, 199),6	7131,(19, 22),2	7133,(19, 53),8	7141,(19, 178),2	7143,(19, 184),2	7145,(19, 186),12	7157,(19, 188),22	7179,(23, 201),6	7185,(21, 201),6	7191,(27, 201),6	7197,(51, 201),6	7203,(25, 201),6	7209,(46, 201),6	7785,(19, 33),6	7791,(19, 37),2	7793,(19, 39),6	7799,(19, 47),28	7827,(19, 60),4	7831,(19, 62),88	7919,(19, 63),2	7921,(19, 68),18	7939,(19, 76),42	7981,(19, 77),8	7989,(19, 86),2	7991,(19, 90),14	8005,(19, 100),88	8093,(19, 103),2	8095,(19, 110),16	8111,(19, 119),2	8113,(19, 131),108	8221,(19, 133),2	8223,(19, 142),2	8225,(19, 150),2	8227,(19, 152),20	8247,(19, 158),2	8249,(19, 160),20	8269,(19, 169),4	8273,(19, 199),22	
