4922
# CPU
0,121,1	1,50,41	42,47,41	83,39,41	124,92,41	165,120,41	206,119,41	247,75,41	288,112,41	329,110,41	370,56,41	411,44,41	452,78,41	493,59,41	534,63,41	575,71,41	616,82,41	657,90,41	698,87,41	739,16,41	780,17,41	821,103,41	862,104,41	903,30,41	944,107,41	985,19,41	1026,117,41	1067,118,41	1108,36,41	1149,85,41	1190,109,41	1231,115,41	1272,52,41	1313,18,41	1354,64,41	1395,89,41	1436,74,41	1477,60,41	1518,49,41	1559,54,41	1600,106,41	1641,51,41	1682,55,41	1723,25,41	1764,27,41	1805,62,41	1846,28,41	1887,41,41	1928,80,41	1969,15,41	2010,22,41	2051,83,41	2092,66,41	2133,97,41	2174,101,41	2215,45,41	2256,29,41	2297,67,41	2338,86,41	2379,68,41	2420,20,41	2461,96,41	2502,91,41	2543,42,41	2584,65,41	2625,111,41	2666,23,41	2707,32,41	2748,94,41	2789,84,41	2830,76,41	2871,53,41	2912,14,41	2953,21,41	2994,70,41	3035,73,41	3076,79,41	3117,81,41	3158,37,41	3199,33,41	3240,72,41	3281,95,41	3322,113,41	3363,48,41	3404,58,41	3445,114,41	3486,43,41	3527,31,41	3568,26,41	3609,40,41	3650,7,41	3691,116,41	3732,4,41	3773,108,41	3814,35,41	3855,61,41	3896,88,41	3937,34,41	3978,100,41	4019,69,41	4060,46,41	4101,10,41	4142,99,41	4183,57,41	4224,2,41	4265,24,41	4306,38,41	4347,6,41	4388,11,41	4429,77,41	4470,9,41	4511,102,41	4552,93,41	4593,5,41	4634,1,41	4675,13,41	4716,3,41	4757,98,41	4798,12,41	4839,105,41	4880,8,41	4921,0,1	
# Incoming

# Outgoing

