319
# CPU
2,2,15	17,4,15	32,19,15	47,23,15	62,37,15	77,31,15	92,33,15	107,8,15	122,15,15	137,10,15	152,9,15	167,6,15	182,39,15	197,21,15	212,29,15	227,27,15	242,11,15	257,13,15	272,17,15	287,25,15	302,35,15	
0,0,1	1,3,15	16,1,15	31,28,15	46,22,15	61,34,15	76,30,15	91,14,15	106,18,15	121,24,15	136,38,15	151,26,15	166,16,15	181,12,15	196,7,15	211,32,15	226,36,15	241,5,15	256,20,15	271,40,15	318,41,1	
# Incoming
1,(0, 2),1	2,(0, 4),1	16,(3, 8),5	21,(3, 11),56	77,(3, 13),8	85,(3, 17),18	103,(3, 25),1	104,(3, 35),148	
17,(2, 14),7	24,(2, 18),4	28,(2, 24),3	31,(2, 32),2	33,(2, 36),4	37,(2, 40),5	42,(4, 5),9	51,(4, 20),1	52,(4, 40),21	73,(19, 41),1	74,(23, 41),1	77,(37, 41),1	92,(31, 41),1	107,(33, 41),1	122,(8, 41),1	137,(15, 41),1	152,(10, 41),1	167,(9, 41),1	182,(6, 41),1	197,(39, 41),1	212,(21, 41),1	227,(29, 41),1	242,(27, 41),1	257,(11, 41),1	272,(13, 41),1	287,(17, 41),1	302,(25, 41),1	317,(35, 41),1	
# Outgoing
17,(2, 14),7	24,(2, 18),4	28,(2, 24),3	31,(2, 32),2	33,(2, 36),4	37,(2, 40),5	42,(4, 5),9	51,(4, 20),1	52,(4, 40),21	73,(19, 41),1	74,(23, 41),1	77,(37, 41),1	92,(31, 41),1	107,(33, 41),1	122,(8, 41),1	137,(15, 41),1	152,(10, 41),1	167,(9, 41),1	182,(6, 41),1	197,(39, 41),1	212,(21, 41),1	227,(29, 41),1	242,(27, 41),1	257,(11, 41),1	272,(13, 41),1	287,(17, 41),1	302,(25, 41),1	317,(35, 41),1	
1,(0, 2),1	2,(0, 4),1	16,(3, 8),5	21,(3, 11),56	77,(3, 13),8	85,(3, 17),18	103,(3, 25),1	104,(3, 35),148	
