1352
# CPU
0,0,1	1,1,25	26,12,25	51,4,25	76,28,25	101,73,25	126,2,25	151,77,25	176,34,25	201,51,25	226,20,25	251,48,25	276,6,25	301,23,25	326,56,25	351,21,25	376,46,25	401,40,25	426,3,25	451,45,25	476,57,25	501,15,25	526,47,25	551,5,25	576,74,25	601,58,25	626,70,25	651,9,25	676,71,25	701,26,25	726,7,25	751,30,25	776,17,25	801,25,25	826,54,25	851,11,25	876,33,25	901,44,25	926,80,25	951,52,25	976,68,25	1001,8,25	1026,72,25	1051,79,25	1076,18,25	1101,35,25	1126,37,25	1151,49,25	1176,59,25	1201,39,25	1226,55,25	1251,10,25	1276,69,25	1301,64,25	1326,16,25	1351,81,1	
30,62,25	155,38,25	305,61,25	345,19,25	455,78,25	487,42,25	580,63,25	608,76,25	775,67,25	815,50,25	1034,66,25	1066,27,25	1190,36,25	
38,13,25	325,75,25	369,65,25	584,24,25	767,32,25	1046,31,25	1090,22,25	
313,53,25	1038,14,25	
1050,29,25	

1030,43,25	


759,60,25	1042,41,25	
# Incoming
55,(62, 81),4	63,(13, 81),4	180,(38, 81),4	330,(61, 81),4	338,(53, 81),4	350,(75, 81),4	370,(19, 81),4	394,(65, 81),4	480,(78, 81),4	512,(42, 81),4	605,(63, 81),4	609,(24, 81),4	633,(76, 81),4	784,(60, 81),4	792,(32, 81),4	800,(67, 81),4	840,(50, 81),4	1055,(43, 81),4	1059,(66, 81),4	1063,(14, 81),4	1067,(41, 81),4	1071,(31, 81),4	1075,(29, 81),4	1091,(27, 81),4	1115,(22, 81),4	1215,(36, 81),4	
26,(1, 62),4	38,(1, 38),56	94,(4, 19),4	151,(2, 38),4	155,(4, 78),76	231,(1, 42),68	301,(6, 61),4	325,(6, 19),20	369,(2, 63),8	377,(1, 76),12	389,(4, 76),4	451,(3, 78),4	455,(3, 42),32	495,(3, 76),4	507,(1, 67),4	511,(6, 67),36	576,(5, 63),4	584,(5, 76),24	608,(2, 67),132	767,(7, 67),8	775,(7, 50),40	879,(2, 27),64	943,(5, 27),4	1007,(3, 36),4	1030,(8, 66),4	1050,(8, 27),16	1090,(8, 36),100	
30,(1, 13),8	98,(4, 65),48	146,(4, 24),4	313,(6, 75),12	345,(6, 65),24	409,(1, 32),40	487,(3, 24),8	499,(3, 32),8	580,(5, 24),4	759,(7, 32),8	815,(7, 31),4	947,(2, 22),60	1042,(8, 31),4	1066,(8, 22),24	
305,(6, 53),8	1034,(8, 14),4	
547,(1, 29),4	551,(2, 29),24	740,(5, 29),8	819,(6, 29),60	1046,(8, 29),4	

1026,(8, 43),4	


393,(1, 60),16	751,(7, 60),8	1038,(8, 41),4	
# Outgoing
26,(1, 62),4	30,(1, 13),8	38,(1, 38),56	94,(4, 19),4	98,(4, 65),48	146,(4, 24),4	151,(2, 38),4	155,(4, 78),76	231,(1, 42),68	301,(6, 61),4	305,(6, 53),8	313,(6, 75),12	325,(6, 19),20	345,(6, 65),24	369,(2, 63),8	377,(1, 76),12	389,(4, 76),4	393,(1, 60),16	409,(1, 32),40	451,(3, 78),4	455,(3, 42),32	487,(3, 24),8	495,(3, 76),4	499,(3, 32),8	507,(1, 67),4	511,(6, 67),36	547,(1, 29),4	551,(2, 29),24	576,(5, 63),4	580,(5, 24),4	584,(5, 76),24	608,(2, 67),132	740,(5, 29),8	751,(7, 60),8	759,(7, 32),8	767,(7, 67),8	775,(7, 50),40	815,(7, 31),4	819,(6, 29),60	879,(2, 27),64	943,(5, 27),4	947,(2, 22),60	1007,(3, 36),4	1026,(8, 43),4	1030,(8, 66),4	1034,(8, 14),4	1038,(8, 41),4	1042,(8, 31),4	1046,(8, 29),4	1050,(8, 27),16	1066,(8, 22),24	1090,(8, 36),100	
55,(62, 81),4	180,(38, 81),4	330,(61, 81),4	370,(19, 81),4	480,(78, 81),4	512,(42, 81),4	605,(63, 81),4	633,(76, 81),4	800,(67, 81),4	840,(50, 81),4	1059,(66, 81),4	1091,(27, 81),4	1215,(36, 81),4	
63,(13, 81),4	350,(75, 81),4	394,(65, 81),4	609,(24, 81),4	792,(32, 81),4	1071,(31, 81),4	1115,(22, 81),4	
338,(53, 81),4	1063,(14, 81),4	
1075,(29, 81),4	

1055,(43, 81),4	


784,(60, 81),4	1067,(41, 81),4	
