4739
# CPU
82,10,2	85,53,2	94,69,2	124,87,2	163,20,2	226,189,2	316,96,2	454,92,2	469,122,2	685,127,2	1015,170,2	1099,195,2	1105,48,2	1138,72,2	1156,46,2	1312,63,2	1315,144,2	1912,107,2	1924,58,2	1948,165,2	2203,198,2	2347,71,2	2380,156,2	2458,74,2	2461,174,2	2467,176,2	2473,116,2	2482,119,2	2521,152,2	2530,160,2	2611,192,2	2941,182,2	3172,81,2	3316,60,2	3682,103,2	3925,185,2	3955,137,2	4492,113,2	4510,132,2	4522,148,2	4636,178,2	
73,9,2	154,19,2	499,115,2	1303,184,2	1318,154,2	1348,146,2	1615,94,2	1789,158,2	1885,59,2	2071,129,2	2722,44,2	2893,162,2	2938,61,2	2941,181,2	2956,66,2	2980,68,2	2983,124,2	2989,45,2	2995,78,2	2998,134,2	3007,177,2	3013,188,2	3052,112,2	3136,51,2	3151,83,2	3154,105,2	3157,118,2	3160,121,2	3163,194,2	3184,99,2	3778,169,2	3835,172,2	3841,89,2	3892,150,2	3931,191,2	3976,197,2	4048,200,2	4624,56,2	4657,139,2	4678,175,2	
64,8,2	66,40,2	68,65,2	145,18,2	151,123,2	196,167,2	298,157,2	862,41,2	883,120,2	955,196,2	1066,111,2	1108,67,2	1141,97,2	1156,93,2	1159,138,2	1162,88,2	1333,128,2	1336,145,2	1339,190,2	1345,117,2	1426,76,2	1438,149,2	1453,183,2	1513,114,2	1525,153,2	1774,193,2	2017,133,2	2221,171,2	2548,49,2	3739,82,2	3790,161,2	3856,104,2	3868,179,2	3883,186,2	3892,199,2	4738,201,1	
55,7,2	136,17,2	138,106,2	157,80,2	658,55,2	676,159,2	685,95,2	748,147,2	931,168,2	958,102,2	1084,126,2	1099,42,2	1192,90,2	1312,131,2	1315,136,2	1897,84,2	1945,155,2	1966,164,2	2560,142,2	2677,37,2	3052,39,2	3388,47,2	3478,187,2	3928,110,2	4633,151,2	
46,6,2	127,16,2	295,34,2	514,85,2	676,125,2	733,141,2	997,38,2	1057,54,2	1708,79,2	1774,130,2	1873,143,2	1960,173,2	2011,135,2	3793,86,2	
37,5,2	118,15,2	409,52,2	472,36,2	520,75,2	595,166,2	1120,35,2	1492,30,2	1894,109,2	
28,4,2	109,14,2	304,27,2	862,29,2	1015,31,2	1018,32,2	1066,57,2	1462,98,2	1720,50,2	1843,101,2	3634,70,2	3883,108,2	
19,3,2	100,13,2	118,25,2	286,26,2	517,100,2	874,43,2	955,28,2	1051,91,2	1231,77,2	3052,180,2	
10,2,2	91,12,2	1123,62,2	1348,24,2	1813,64,2	2785,163,2	3748,140,2	4486,73,2	
0,0,1	1,11,2	3,1,2	265,21,2	676,22,2	826,23,2	4159,33,2	
# Incoming
73,(0, 10),9	82,(3, 53),3	85,(3, 96),3	88,(4, 46),3	91,(4, 69),3	94,(4, 74),18	112,(9, 119),3	115,(9, 152),3	118,(7, 46),3	121,(2, 87),3	124,(4, 107),27	151,(4, 132),3	154,(0, 20),9	163,(5, 60),15	178,(5, 122),3	181,(5, 192),6	187,(2, 137),3	190,(9, 178),3	195,(8, 127),3	198,(15, 63),3	202,(4, 122),12	214,(8, 185),3	217,(4, 189),3	220,(14, 74),3	223,(2, 189),3	226,(11, 46),3	229,(11, 48),3	232,(17, 119),3	235,(17, 122),3	238,(11, 58),27	265,(8, 113),9	274,(8, 195),12	286,(9, 116),9	295,(12, 72),3	298,(11, 81),3	301,(5, 96),15	316,(13, 63),12	328,(11, 103),69	397,(2, 170),30	427,(5, 119),18	445,(7, 92),9	454,(7, 156),9	463,(12, 122),6	469,(11, 119),63	532,(3, 60),48	580,(3, 144),42	622,(5, 152),21	643,(8, 165),21	664,(12, 48),9	673,(12, 144),3	676,(11, 127),9	685,(3, 46),150	835,(4, 71),51	886,(6, 71),3	889,(6, 107),12	901,(13, 113),3	904,(5, 137),69	973,(6, 137),30	1003,(6, 170),12	1015,(15, 160),3	1018,(1, 48),21	1039,(18, 116),3	1042,(4, 174),48	1090,(6, 195),9	1099,(16, 48),6	1105,(1, 72),33	1138,(9, 46),18	1156,(16, 81),3	1159,(16, 156),3	1162,(1, 103),3	1165,(6, 160),33	1198,(6, 182),90	1288,(12, 63),24	1312,(17, 144),3	1315,(1, 137),3	1318,(9, 182),30	1348,(13, 176),6	1354,(1, 178),90	1444,(1, 182),6	1450,(3, 119),384	1834,(8, 58),39	1873,(9, 107),39	1912,(14, 58),12	1924,(14, 60),21	1945,(16, 165),3	1948,(7, 113),147	2095,(9, 198),108	2203,(12, 103),123	2326,(13, 71),21	2347,(13, 148),12	2359,(13, 156),21	2380,(14, 137),72	2452,(15, 74),6	2458,(15, 174),3	2461,(15, 176),6	2467,(16, 116),6	2473,(16, 119),9	2482,(16, 148),6	2488,(16, 152),33	2521,(16, 160),9	2560,(12, 192),51	2665,(8, 182),276	2941,(15, 81),231	3172,(16, 60),144	3316,(16, 113),96	3661,(18, 103),21	3793,(17, 132),15	3892,(17, 185),33	3928,(18, 137),27	3955,(18, 148),60	4486,(19, 113),6	4492,(19, 132),18	4510,(19, 148),12	4633,(19, 178),3	
64,(0, 9),9	73,(2, 45),3	76,(3, 78),3	79,(3, 89),3	82,(7, 115),3	85,(2, 56),3	88,(2, 61),33	121,(3, 121),18	139,(5, 129),3	142,(15, 68),3	145,(0, 19),9	154,(4, 129),12	166,(7, 129),3	169,(4, 134),3	172,(10, 68),6	178,(11, 44),48	226,(2, 115),36	262,(2, 146),27	289,(3, 150),3	292,(12, 94),3	295,(8, 59),3	298,(8, 89),3	301,(11, 83),6	307,(2, 134),51	358,(3, 158),24	382,(8, 139),9	391,(10, 118),3	394,(10, 134),3	397,(11, 105),15	412,(3, 115),87	499,(3, 191),21	520,(7, 51),9	529,(10, 188),3	532,(11, 121),141	673,(10, 66),9	682,(10, 191),3	685,(6, 129),3	688,(10, 197),3	691,(4, 61),93	784,(4, 112),33	817,(4, 194),12	829,(5, 61),75	904,(6, 191),18	922,(10, 154),6	928,(13, 44),3	931,(11, 169),3	934,(11, 177),21	955,(13, 89),6	961,(11, 200),3	964,(4, 150),78	1042,(8, 66),24	1066,(1, 61),6	1072,(3, 139),135	1207,(4, 175),33	1240,(4, 177),27	1267,(5, 89),30	1297,(13, 139),3	1300,(13, 184),3	1303,(1, 121),3	1306,(13, 188),3	1309,(15, 51),6	1315,(15, 154),3	1318,(1, 146),30	1348,(5, 66),144	1492,(5, 94),123	1615,(5, 169),39	1654,(6, 124),78	1732,(6, 158),57	1789,(6, 172),42	1831,(6, 188),30	1861,(7, 59),24	1885,(7, 112),63	1948,(8, 68),21	1969,(8, 134),39	2008,(8, 162),18	2026,(10, 56),27	2053,(10, 129),18	2071,(12, 61),12	2083,(12, 194),6	2089,(14, 124),3	2092,(14, 162),3	2095,(7, 181),93	2188,(8, 99),147	2335,(8, 150),330	2665,(12, 44),57	2722,(12, 139),63	2785,(13, 105),72	2857,(13, 134),21	2878,(13, 162),15	2893,(13, 172),33	2926,(15, 61),12	2938,(15, 181),3	2941,(16, 66),15	2956,(16, 68),24	2980,(16, 124),3	2983,(18, 45),6	2989,(18, 78),6	2995,(18, 134),3	2998,(14, 169),6	3004,(14, 177),3	3007,(14, 188),6	3013,(16, 112),39	3052,(16, 197),81	3133,(20, 51),3	3136,(20, 56),12	3148,(20, 83),3	3151,(20, 105),3	3154,(20, 118),3	3157,(20, 121),3	3160,(20, 194),3	3172,(15, 99),12	3634,(18, 89),27	3739,(17, 56),3	3748,(15, 169),30	3778,(15, 172),57	3835,(15, 200),3	3838,(17, 89),3	3841,(17, 139),12	3856,(15, 175),15	3871,(17, 150),21	3925,(17, 191),6	3931,(17, 197),45	3976,(17, 200),72	4048,(18, 56),576	4624,(18, 139),33	4657,(18, 175),21	
55,(0, 8),9	85,(4, 88),3	88,(3, 120),27	115,(4, 120),9	124,(5, 104),9	133,(5, 183),3	136,(0, 18),9	145,(15, 82),3	148,(15, 123),3	151,(3, 149),3	154,(2, 93),12	166,(4, 128),3	169,(7, 145),3	172,(11, 41),6	178,(7, 199),3	181,(2, 128),6	187,(9, 41),3	190,(10, 41),3	193,(15, 167),3	196,(19, 104),3	201,(15, 88),6	208,(2, 161),12	220,(2, 179),3	223,(4, 67),33	256,(4, 153),3	259,(53, 201),3	262,(69, 201),3	265,(11, 67),15	280,(11, 76),15	295,(3, 157),3	298,(15, 196),3	301,(12, 41),6	307,(11, 97),21	328,(4, 97),105	433,(7, 133),6	439,(12, 117),9	448,(12, 120),3	451,(12, 149),3	454,(11, 114),3	457,(11, 117),12	469,(4, 49),222	691,(5, 67),24	715,(6, 145),30	745,(87, 201),3	748,(11, 153),3	751,(12, 88),18	769,(12, 196),15	784,(6, 183),3	787,(9, 49),33	820,(9, 190),36	856,(13, 41),6	862,(13, 179),3	865,(25, 201),3	868,(16, 49),3	871,(16, 104),6	877,(16, 120),6	883,(20, 76),3	886,(4, 133),36	922,(16, 67),24	946,(19, 114),3	949,(19, 117),3	952,(19, 196),3	955,(11, 179),6	961,(10, 114),78	1039,(13, 111),27	1066,(26, 201),3	1069,(100, 201),3	1072,(1, 67),33	1105,(14, 67),3	1108,(14, 114),9	1117,(14, 117),3	1120,(7, 97),21	1141,(14, 93),15	1156,(14, 138),3	1159,(1, 88),3	1162,(34, 201),3	1165,(1, 104),93	1258,(13, 114),30	1288,(14, 82),33	1321,(14, 128),12	1333,(14, 145),3	1336,(14, 190),3	1339,(17, 117),6	1345,(106, 201),3	1348,(1, 149),3	1351,(1, 153),3	1354,(14, 153),30	1384,(14, 199),12	1396,(17, 76),30	1426,(17, 133),6	1432,(17, 149),6	1438,(19, 183),15	1453,(80, 201),3	1456,(21, 201),3	1459,(27, 201),3	1462,(16, 114),51	1513,(16, 153),12	1525,(17, 193),39	1564,(115, 201),3	1567,(85, 201),3	1570,(55, 201),3	1573,(22, 201),3	1576,(125, 201),3	1579,(159, 201),3	1582,(95, 201),3	1585,(141, 201),3	1588,(147, 201),3	1591,(23, 201),3	1594,(29, 201),3	1597,(168, 201),3	1600,(102, 201),3	1603,(38, 201),3	1606,(31, 201),3	1609,(32, 201),3	1612,(54, 201),3	1615,(57, 201),3	1618,(126, 201),3	1621,(42, 201),3	1624,(90, 201),3	1627,(184, 201),3	1630,(131, 201),3	1633,(136, 201),3	1636,(154, 201),3	1639,(146, 201),3	1642,(98, 201),3	1645,(94, 201),3	1654,(5, 193),120	1774,(20, 82),15	1791,(158, 201),3	1834,(3, 133),183	2017,(3, 171),204	2221,(7, 49),327	2548,(7, 82),1191	3739,(12, 161),51	3790,(12, 179),48	3838,(15, 104),18	3856,(20, 179),12	3868,(20, 186),15	3883,(20, 199),9	3892,(189, 201),3	3895,(96, 201),3	3898,(52, 201),3	3901,(92, 201),3	3904,(122, 201),3	3907,(36, 201),3	3910,(75, 201),3	3913,(166, 201),3	3916,(127, 201),3	3919,(43, 201),3	3922,(28, 201),3	3925,(170, 201),3	3928,(91, 201),3	3931,(195, 201),3	3934,(48, 201),3	3937,(35, 201),3	3940,(62, 201),3	3943,(72, 201),3	3946,(46, 201),3	3949,(77, 201),3	3952,(63, 201),3	3955,(144, 201),3	3958,(24, 201),3	3961,(30, 201),3	3964,(79, 201),3	3967,(50, 201),3	3970,(130, 201),3	3973,(64, 201),3	3976,(101, 201),3	3979,(143, 201),3	3982,(109, 201),3	3985,(107, 201),3	3988,(58, 201),3	3991,(165, 201),3	3994,(173, 201),3	3997,(135, 201),3	4000,(198, 201),3	4003,(71, 201),3	4006,(156, 201),3	4009,(74, 201),3	4012,(174, 201),3	4015,(176, 201),3	4018,(116, 201),3	4021,(119, 201),3	4024,(152, 201),3	4027,(160, 201),3	4030,(192, 201),3	4033,(163, 201),3	4036,(182, 201),3	4039,(180, 201),3	4042,(81, 201),3	4045,(60, 201),3	4048,(84, 201),3	4051,(155, 201),3	4054,(164, 201),3	4057,(142, 201),3	4060,(37, 201),3	4063,(39, 201),3	4066,(47, 201),3	4069,(187, 201),3	4072,(70, 201),3	4075,(103, 201),3	4078,(140, 201),3	4081,(86, 201),3	4084,(108, 201),3	4087,(185, 201),3	4090,(110, 201),3	4093,(137, 201),3	4161,(33, 201),3	4488,(73, 201),3	4494,(113, 201),3	4512,(132, 201),3	4524,(148, 201),3	4636,(59, 201),3	4639,(129, 201),3	4642,(44, 201),3	4645,(162, 201),3	4648,(61, 201),3	4651,(181, 201),3	4654,(66, 201),3	4657,(68, 201),3	4660,(124, 201),3	4663,(45, 201),3	4666,(78, 201),3	4669,(134, 201),3	4672,(177, 201),3	4675,(188, 201),3	4678,(112, 201),3	4681,(51, 201),3	4684,(83, 201),3	4687,(105, 201),3	4690,(118, 201),3	4693,(121, 201),3	4696,(194, 201),3	4699,(99, 201),3	4702,(169, 201),3	4705,(172, 201),3	4708,(89, 201),3	4711,(150, 201),3	4714,(191, 201),3	4717,(197, 201),3	4720,(200, 201),3	4723,(56, 201),3	4726,(151, 201),3	4729,(178, 201),3	4732,(139, 201),3	4735,(175, 201),3	
46,(0, 7),9	76,(2, 47),9	99,(9, 187),6	112,(4, 106),3	115,(3, 131),3	118,(3, 136),3	127,(0, 17),9	139,(3, 142),12	151,(5, 80),6	157,(15, 47),3	162,(8, 37),6	168,(19, 39),6	174,(19, 84),6	180,(19, 131),3	183,(19, 164),3	186,(20, 151),3	190,(2, 151),6	196,(2, 155),12	214,(4, 147),3	217,(5, 95),72	289,(18, 37),3	292,(4, 168),27	319,(8, 42),24	343,(8, 110),30	373,(12, 42),6	379,(12, 155),9	388,(20, 155),3	391,(8, 142),15	412,(11, 110),42	454,(5, 55),96	550,(5, 164),54	604,(6, 55),27	631,(10, 55),27	658,(13, 142),6	664,(18, 159),12	676,(6, 95),9	688,(6, 164),3	691,(6, 187),21	712,(10, 187),21	733,(11, 147),15	748,(8, 168),99	847,(11, 168),84	931,(10, 102),27	958,(12, 126),39	997,(13, 131),39	1036,(16, 39),3	1039,(16, 47),21	1060,(16, 126),24	1084,(16, 155),6	1090,(14, 42),9	1099,(14, 164),3	1102,(14, 187),3	1105,(16, 136),21	1138,(1, 84),21	1159,(14, 90),33	1192,(19, 47),15	1207,(19, 142),24	1306,(1, 131),6	1312,(1, 136),3	1315,(12, 47),525	1861,(16, 84),36	1897,(16, 187),15	1912,(18, 155),33	1945,(20, 164),21	2026,(8, 187),150	2326,(12, 142),234	2560,(13, 37),117	2677,(14, 151),321	2998,(18, 39),54	3052,(18, 47),336	3388,(20, 187),90	3883,(18, 110),45	4522,(19, 151),111	
37,(0, 6),9	46,(3, 34),21	70,(3, 125),6	76,(4, 34),6	82,(4, 85),3	85,(5, 54),30	118,(0, 16),9	127,(2, 79),27	154,(3, 79),96	250,(3, 130),12	262,(3, 143),21	283,(4, 86),9	292,(8, 34),3	298,(3, 173),12	310,(18, 125),3	313,(18, 130),3	316,(7, 38),81	397,(7, 130),6	406,(8, 173),69	475,(10, 85),39	514,(20, 141),3	517,(9, 173),33	550,(18, 38),15	565,(18, 79),30	628,(19, 125),15	673,(11, 125),3	730,(11, 141),3	748,(20, 86),45	862,(18, 173),111	973,(15, 38),24	997,(15, 130),18	1039,(1, 54),18	1057,(10, 143),636	1693,(14, 79),15	1708,(14, 130),66	1774,(14, 143),99	1891,(15, 173),69	1960,(19, 135),51	3742,(17, 86),51	
28,(0, 5),9	67,(3, 75),3	96,(9, 30),3	109,(0, 15),9	163,(11, 35),9	172,(4, 109),30	202,(8, 35),3	217,(18, 30),6	223,(17, 30),3	232,(11, 52),6	238,(7, 36),78	316,(10, 75),54	382,(13, 52),27	433,(14, 36),15	457,(20, 36),15	475,(18, 75),45	529,(17, 109),36	592,(6, 166),3	595,(7, 35),525	1120,(8, 30),372	1789,(20, 109),105	
19,(0, 4),9	75,(9, 27),21	100,(0, 14),9	115,(5, 57),9	124,(7, 31),21	145,(9, 29),9	154,(10, 29),12	166,(2, 98),15	181,(7, 50),42	223,(9, 70),48	271,(10, 32),27	298,(12, 29),3	301,(20, 27),3	310,(13, 101),3	316,(5, 108),87	403,(6, 31),186	589,(12, 108),18	607,(15, 50),15	631,(6, 57),24	655,(6, 70),21	676,(9, 32),102	787,(16, 29),12	847,(18, 29),15	862,(19, 70),48	964,(1, 31),51	1015,(1, 32),3	1018,(15, 57),30	1057,(1, 57),9	1066,(19, 98),54	1141,(17, 108),42	1258,(1, 108),45	1348,(16, 98),114	1693,(20, 50),27	1774,(15, 101),69	1843,(15, 108),48	3388,(18, 70),246	3682,(18, 108),201	
10,(0, 3),9	91,(0, 13),9	100,(7, 25),18	124,(2, 100),3	136,(15, 26),3	145,(7, 91),18	163,(19, 180),3	168,(8, 43),27	195,(10, 26),6	201,(10, 91),21	223,(18, 43),9	232,(20, 26),6	271,(19, 26),15	289,(12, 91),3	295,(11, 77),3	298,(9, 100),219	550,(19, 28),33	583,(19, 43),45	745,(6, 180),39	799,(16, 180),15	814,(20, 43),60	922,(14, 28),33	955,(19, 91),96	1168,(15, 77),63	2785,(20, 180),267	
1,(0, 2),9	82,(0, 12),9	91,(7, 62),6	97,(7, 64),3	138,(8, 24),24	198,(8, 140),3	283,(13, 73),3	589,(6, 163),3	685,(11, 140),45	751,(11, 163),96	1048,(15, 62),75	1123,(15, 73),45	1288,(16, 24),60	1492,(8, 64),321	2071,(20, 163),714	3184,(15, 140),564	4159,(19, 73),327	
57,(7, 21),24	81,(8, 21),6	87,(8, 22),51	138,(10, 21),12	205,(18, 23),9	259,(14, 21),6	397,(20, 23),60	463,(17, 23),36	643,(15, 22),33	715,(15, 23),111	826,(16, 33),12	2203,(19, 33),1956	
# Outgoing
138,(10, 21),12	154,(10, 29),12	172,(10, 68),6	186,(20, 151),3	190,(10, 41),3	195,(10, 26),6	201,(10, 91),21	232,(20, 26),6	259,(53, 201),3	262,(69, 201),3	271,(10, 32),27	301,(20, 27),3	316,(10, 75),54	388,(20, 155),3	391,(10, 118),3	394,(10, 134),3	397,(20, 23),60	457,(20, 36),15	475,(10, 85),39	514,(20, 141),3	529,(10, 188),3	631,(10, 55),27	673,(10, 66),9	682,(10, 191),3	688,(10, 197),3	712,(10, 187),21	745,(87, 201),3	748,(20, 86),45	814,(20, 43),60	883,(20, 76),3	922,(10, 154),6	931,(10, 102),27	961,(10, 114),78	1057,(10, 143),636	1693,(20, 50),27	1774,(20, 82),15	1789,(20, 109),105	1945,(20, 164),21	2026,(10, 56),27	2053,(10, 129),18	2071,(20, 163),714	2785,(20, 180),267	3133,(20, 51),3	3136,(20, 56),12	3148,(20, 83),3	3151,(20, 105),3	3154,(20, 118),3	3157,(20, 121),3	3160,(20, 194),3	3388,(20, 187),90	3856,(20, 179),12	3868,(20, 186),15	3883,(20, 199),9	3892,(189, 201),3	3895,(96, 201),3	3901,(92, 201),3	3904,(122, 201),3	3916,(127, 201),3	3925,(170, 201),3	3931,(195, 201),3	3934,(48, 201),3	3943,(72, 201),3	3946,(46, 201),3	3952,(63, 201),3	3955,(144, 201),3	3985,(107, 201),3	3988,(58, 201),3	3991,(165, 201),3	4000,(198, 201),3	4003,(71, 201),3	4006,(156, 201),3	4009,(74, 201),3	4012,(174, 201),3	4015,(176, 201),3	4018,(116, 201),3	4021,(119, 201),3	4024,(152, 201),3	4027,(160, 201),3	4030,(192, 201),3	4036,(182, 201),3	4042,(81, 201),3	4045,(60, 201),3	4075,(103, 201),3	4087,(185, 201),3	4093,(137, 201),3	4494,(113, 201),3	4512,(132, 201),3	4524,(148, 201),3	4729,(178, 201),3	
75,(9, 27),21	96,(9, 30),3	99,(9, 187),6	112,(9, 119),3	115,(9, 152),3	145,(9, 29),9	163,(19, 180),3	168,(19, 39),6	174,(19, 84),6	180,(19, 131),3	183,(19, 164),3	187,(9, 41),3	190,(9, 178),3	196,(19, 104),3	223,(9, 70),48	271,(19, 26),15	286,(9, 116),9	298,(9, 100),219	517,(9, 173),33	550,(19, 28),33	583,(19, 43),45	628,(19, 125),15	676,(9, 32),102	787,(9, 49),33	820,(9, 190),36	862,(19, 70),48	946,(19, 114),3	949,(19, 117),3	952,(19, 196),3	955,(19, 91),96	1066,(19, 98),54	1138,(9, 46),18	1192,(19, 47),15	1207,(19, 142),24	1318,(9, 182),30	1438,(19, 183),15	1564,(115, 201),3	1627,(184, 201),3	1636,(154, 201),3	1639,(146, 201),3	1645,(94, 201),3	1791,(158, 201),3	1873,(9, 107),39	1960,(19, 135),51	2095,(9, 198),108	2203,(19, 33),1956	4159,(19, 73),327	4486,(19, 113),6	4492,(19, 132),18	4510,(19, 148),12	4522,(19, 151),111	4633,(19, 178),3	4636,(59, 201),3	4639,(129, 201),3	4642,(44, 201),3	4645,(162, 201),3	4648,(61, 201),3	4651,(181, 201),3	4654,(66, 201),3	4657,(68, 201),3	4660,(124, 201),3	4663,(45, 201),3	4666,(78, 201),3	4669,(134, 201),3	4672,(177, 201),3	4675,(188, 201),3	4678,(112, 201),3	4681,(51, 201),3	4684,(83, 201),3	4687,(105, 201),3	4690,(118, 201),3	4693,(121, 201),3	4696,(194, 201),3	4699,(99, 201),3	4702,(169, 201),3	4705,(172, 201),3	4708,(89, 201),3	4711,(150, 201),3	4714,(191, 201),3	4717,(197, 201),3	4720,(200, 201),3	4723,(56, 201),3	4732,(139, 201),3	4735,(175, 201),3	
81,(8, 21),6	87,(8, 22),51	138,(8, 24),24	162,(8, 37),6	168,(8, 43),27	195,(8, 127),3	198,(8, 140),3	202,(8, 35),3	205,(18, 23),9	214,(8, 185),3	217,(18, 30),6	223,(18, 43),9	265,(8, 113),9	274,(8, 195),12	289,(18, 37),3	292,(8, 34),3	295,(8, 59),3	298,(8, 89),3	310,(18, 125),3	313,(18, 130),3	319,(8, 42),24	343,(8, 110),30	382,(8, 139),9	391,(8, 142),15	406,(8, 173),69	475,(18, 75),45	550,(18, 38),15	565,(18, 79),30	643,(8, 165),21	664,(18, 159),12	748,(8, 168),99	847,(18, 29),15	862,(18, 173),111	1039,(18, 116),3	1042,(8, 66),24	1120,(8, 30),372	1492,(8, 64),321	1834,(8, 58),39	1912,(18, 155),33	1948,(8, 68),21	1969,(8, 134),39	2008,(8, 162),18	2026,(8, 187),150	2188,(8, 99),147	2335,(8, 150),330	2665,(8, 182),276	2983,(18, 45),6	2989,(18, 78),6	2995,(18, 134),3	2998,(18, 39),54	3052,(18, 47),336	3388,(18, 70),246	3634,(18, 89),27	3661,(18, 103),21	3682,(18, 108),201	3883,(18, 110),45	3928,(18, 137),27	3955,(18, 148),60	4048,(18, 56),576	4624,(18, 139),33	4657,(18, 175),21	
57,(7, 21),24	82,(7, 115),3	91,(7, 62),6	97,(7, 64),3	100,(7, 25),18	118,(7, 46),3	124,(7, 31),21	145,(7, 91),18	166,(7, 129),3	169,(7, 145),3	178,(7, 199),3	181,(7, 50),42	223,(17, 30),3	232,(17, 119),3	235,(17, 122),3	238,(7, 36),78	316,(7, 38),81	397,(7, 130),6	433,(7, 133),6	445,(7, 92),9	454,(7, 156),9	463,(17, 23),36	520,(7, 51),9	529,(17, 109),36	595,(7, 35),525	1120,(7, 97),21	1141,(17, 108),42	1312,(17, 144),3	1339,(17, 117),6	1345,(106, 201),3	1396,(17, 76),30	1426,(17, 133),6	1432,(17, 149),6	1453,(80, 201),3	1525,(17, 193),39	1570,(55, 201),3	1579,(159, 201),3	1582,(95, 201),3	1588,(147, 201),3	1597,(168, 201),3	1600,(102, 201),3	1618,(126, 201),3	1621,(42, 201),3	1624,(90, 201),3	1630,(131, 201),3	1633,(136, 201),3	1861,(7, 59),24	1885,(7, 112),63	1948,(7, 113),147	2095,(7, 181),93	2221,(7, 49),327	2548,(7, 82),1191	3739,(17, 56),3	3742,(17, 86),51	3793,(17, 132),15	3838,(17, 89),3	3841,(17, 139),12	3871,(17, 150),21	3892,(17, 185),33	3925,(17, 191),6	3931,(17, 197),45	3976,(17, 200),72	4048,(84, 201),3	4051,(155, 201),3	4054,(164, 201),3	4057,(142, 201),3	4060,(37, 201),3	4063,(39, 201),3	4066,(47, 201),3	4069,(187, 201),3	4090,(110, 201),3	4726,(151, 201),3	
403,(6, 31),186	589,(6, 163),3	592,(6, 166),3	604,(6, 55),27	631,(6, 57),24	655,(6, 70),21	676,(6, 95),9	685,(6, 129),3	688,(6, 164),3	691,(6, 187),21	715,(6, 145),30	745,(6, 180),39	784,(6, 183),3	787,(16, 29),12	799,(16, 180),15	826,(16, 33),12	868,(16, 49),3	871,(16, 104),6	877,(16, 120),6	886,(6, 71),3	889,(6, 107),12	904,(6, 191),18	922,(16, 67),24	973,(6, 137),30	1003,(6, 170),12	1036,(16, 39),3	1039,(16, 47),21	1060,(16, 126),24	1084,(16, 155),6	1090,(6, 195),9	1099,(16, 48),6	1105,(16, 136),21	1156,(16, 81),3	1159,(16, 156),3	1162,(34, 201),3	1165,(6, 160),33	1198,(6, 182),90	1288,(16, 24),60	1348,(16, 98),114	1462,(16, 114),51	1513,(16, 153),12	1567,(85, 201),3	1576,(125, 201),3	1585,(141, 201),3	1603,(38, 201),3	1612,(54, 201),3	1654,(6, 124),78	1732,(6, 158),57	1789,(6, 172),42	1831,(6, 188),30	1861,(16, 84),36	1897,(16, 187),15	1945,(16, 165),3	2467,(16, 116),6	2473,(16, 119),9	2482,(16, 148),6	2488,(16, 152),33	2521,(16, 160),9	2941,(16, 66),15	2956,(16, 68),24	2980,(16, 124),3	3013,(16, 112),39	3052,(16, 197),81	3172,(16, 60),144	3316,(16, 113),96	3964,(79, 201),3	3970,(130, 201),3	3979,(143, 201),3	3994,(173, 201),3	3997,(135, 201),3	4081,(86, 201),3	
85,(5, 54),30	115,(5, 57),9	124,(5, 104),9	133,(5, 183),3	136,(15, 26),3	139,(5, 129),3	142,(15, 68),3	145,(15, 82),3	148,(15, 123),3	151,(5, 80),6	157,(15, 47),3	163,(5, 60),15	178,(5, 122),3	181,(5, 192),6	193,(15, 167),3	198,(15, 63),3	201,(15, 88),6	217,(5, 95),72	298,(15, 196),3	301,(5, 96),15	316,(5, 108),87	427,(5, 119),18	454,(5, 55),96	550,(5, 164),54	607,(15, 50),15	622,(5, 152),21	643,(15, 22),33	691,(5, 67),24	715,(15, 23),111	829,(5, 61),75	904,(5, 137),69	973,(15, 38),24	997,(15, 130),18	1015,(15, 160),3	1018,(15, 57),30	1048,(15, 62),75	1123,(15, 73),45	1168,(15, 77),63	1267,(5, 89),30	1309,(15, 51),6	1315,(15, 154),3	1348,(5, 66),144	1492,(5, 94),123	1615,(5, 169),39	1654,(5, 193),120	1774,(15, 101),69	1843,(15, 108),48	1891,(15, 173),69	2452,(15, 74),6	2458,(15, 174),3	2461,(15, 176),6	2926,(15, 61),12	2938,(15, 181),3	2941,(15, 81),231	3172,(15, 99),12	3184,(15, 140),564	3748,(15, 169),30	3778,(15, 172),57	3835,(15, 200),3	3838,(15, 104),18	3856,(15, 175),15	3898,(52, 201),3	3907,(36, 201),3	3910,(75, 201),3	3913,(166, 201),3	3937,(35, 201),3	3961,(30, 201),3	3982,(109, 201),3	
76,(4, 34),6	82,(4, 85),3	85,(4, 88),3	88,(4, 46),3	91,(4, 69),3	94,(4, 74),18	112,(4, 106),3	115,(4, 120),9	124,(4, 107),27	151,(4, 132),3	154,(4, 129),12	166,(4, 128),3	169,(4, 134),3	172,(4, 109),30	202,(4, 122),12	214,(4, 147),3	217,(4, 189),3	220,(14, 74),3	223,(4, 67),33	256,(4, 153),3	259,(14, 21),6	283,(4, 86),9	292,(4, 168),27	328,(4, 97),105	433,(14, 36),15	469,(4, 49),222	691,(4, 61),93	784,(4, 112),33	817,(4, 194),12	835,(4, 71),51	886,(4, 133),36	922,(14, 28),33	964,(4, 150),78	1042,(4, 174),48	1090,(14, 42),9	1099,(14, 164),3	1102,(14, 187),3	1105,(14, 67),3	1108,(14, 114),9	1117,(14, 117),3	1141,(14, 93),15	1156,(14, 138),3	1159,(14, 90),33	1207,(4, 175),33	1240,(4, 177),27	1288,(14, 82),33	1321,(14, 128),12	1333,(14, 145),3	1336,(14, 190),3	1354,(14, 153),30	1384,(14, 199),12	1459,(27, 201),3	1594,(29, 201),3	1606,(31, 201),3	1609,(32, 201),3	1615,(57, 201),3	1642,(98, 201),3	1693,(14, 79),15	1708,(14, 130),66	1774,(14, 143),99	1912,(14, 58),12	1924,(14, 60),21	2089,(14, 124),3	2092,(14, 162),3	2380,(14, 137),72	2677,(14, 151),321	2998,(14, 169),6	3004,(14, 177),3	3007,(14, 188),6	3967,(50, 201),3	3976,(101, 201),3	4072,(70, 201),3	4084,(108, 201),3	
46,(3, 34),21	67,(3, 75),3	70,(3, 125),6	76,(3, 78),3	79,(3, 89),3	82,(3, 53),3	85,(3, 96),3	88,(3, 120),27	115,(3, 131),3	118,(3, 136),3	121,(3, 121),18	139,(3, 142),12	151,(3, 149),3	154,(3, 79),96	250,(3, 130),12	262,(3, 143),21	283,(13, 73),3	289,(3, 150),3	295,(3, 157),3	298,(3, 173),12	310,(13, 101),3	316,(13, 63),12	358,(3, 158),24	382,(13, 52),27	412,(3, 115),87	499,(3, 191),21	532,(3, 60),48	580,(3, 144),42	658,(13, 142),6	685,(3, 46),150	856,(13, 41),6	862,(13, 179),3	865,(25, 201),3	901,(13, 113),3	928,(13, 44),3	955,(13, 89),6	997,(13, 131),39	1039,(13, 111),27	1066,(26, 201),3	1069,(100, 201),3	1072,(3, 139),135	1258,(13, 114),30	1297,(13, 139),3	1300,(13, 184),3	1306,(13, 188),3	1348,(13, 176),6	1450,(3, 119),384	1834,(3, 133),183	2017,(3, 171),204	2326,(13, 71),21	2347,(13, 148),12	2359,(13, 156),21	2560,(13, 37),117	2785,(13, 105),72	2857,(13, 134),21	2878,(13, 162),15	2893,(13, 172),33	3919,(43, 201),3	3922,(28, 201),3	3928,(91, 201),3	3949,(77, 201),3	4039,(180, 201),3	
73,(2, 45),3	76,(2, 47),9	85,(2, 56),3	88,(2, 61),33	121,(2, 87),3	124,(2, 100),3	127,(2, 79),27	154,(2, 93),12	166,(2, 98),15	181,(2, 128),6	187,(2, 137),3	190,(2, 151),6	196,(2, 155),12	208,(2, 161),12	220,(2, 179),3	223,(2, 189),3	226,(2, 115),36	262,(2, 146),27	289,(12, 91),3	292,(12, 94),3	295,(12, 72),3	298,(12, 29),3	301,(12, 41),6	307,(2, 134),51	373,(12, 42),6	379,(12, 155),9	397,(2, 170),30	439,(12, 117),9	448,(12, 120),3	451,(12, 149),3	463,(12, 122),6	589,(12, 108),18	664,(12, 48),9	673,(12, 144),3	751,(12, 88),18	769,(12, 196),15	958,(12, 126),39	1288,(12, 63),24	1315,(12, 47),525	2071,(12, 61),12	2083,(12, 194),6	2203,(12, 103),123	2326,(12, 142),234	2560,(12, 192),51	2665,(12, 44),57	2722,(12, 139),63	3739,(12, 161),51	3790,(12, 179),48	3940,(62, 201),3	3958,(24, 201),3	3973,(64, 201),3	4033,(163, 201),3	4078,(140, 201),3	4488,(73, 201),3	
1,(0, 2),9	10,(0, 3),9	19,(0, 4),9	28,(0, 5),9	37,(0, 6),9	46,(0, 7),9	55,(0, 8),9	64,(0, 9),9	73,(0, 10),9	82,(0, 12),9	91,(0, 13),9	100,(0, 14),9	109,(0, 15),9	118,(0, 16),9	127,(0, 17),9	136,(0, 18),9	145,(0, 19),9	154,(0, 20),9	163,(11, 35),9	172,(11, 41),6	178,(11, 44),48	226,(11, 46),3	229,(11, 48),3	232,(11, 52),6	238,(11, 58),27	265,(11, 67),15	280,(11, 76),15	295,(11, 77),3	298,(11, 81),3	301,(11, 83),6	307,(11, 97),21	328,(11, 103),69	397,(11, 105),15	412,(11, 110),42	454,(11, 114),3	457,(11, 117),12	469,(11, 119),63	532,(11, 121),141	673,(11, 125),3	676,(11, 127),9	685,(11, 140),45	730,(11, 141),3	733,(11, 147),15	748,(11, 153),3	751,(11, 163),96	847,(11, 168),84	931,(11, 169),3	934,(11, 177),21	955,(11, 179),6	961,(11, 200),3	964,(1, 31),51	1015,(1, 32),3	1018,(1, 48),21	1039,(1, 54),18	1057,(1, 57),9	1066,(1, 61),6	1072,(1, 67),33	1105,(1, 72),33	1138,(1, 84),21	1159,(1, 88),3	1162,(1, 103),3	1165,(1, 104),93	1258,(1, 108),45	1303,(1, 121),3	1306,(1, 131),6	1312,(1, 136),3	1315,(1, 137),3	1318,(1, 146),30	1348,(1, 149),3	1351,(1, 153),3	1354,(1, 178),90	1444,(1, 182),6	1456,(21, 201),3	1573,(22, 201),3	1591,(23, 201),3	4161,(33, 201),3	
