402
# CPU
0,201,1	1,82,2	3,29,2	5,80,2	7,197,2	9,192,2	11,38,2	13,161,2	15,136,2	17,116,2	19,58,2	21,186,2	23,55,2	25,57,2	27,65,2	29,198,2	31,121,2	33,130,2	35,56,2	37,149,2	39,24,2	41,165,2	43,52,2	45,54,2	47,115,2	49,166,2	51,23,2	53,123,2	55,125,2	57,35,2	59,143,2	61,60,2	63,142,2	65,99,2	67,49,2	69,89,2	71,62,2	73,75,2	75,179,2	77,34,2	79,96,2	81,53,2	83,98,2	85,27,2	87,51,2	89,141,2	91,41,2	93,131,2	95,193,2	97,71,2	99,43,2	101,164,2	103,112,2	105,113,2	107,97,2	109,59,2	111,66,2	113,118,2	115,127,2	117,158,2	119,69,2	121,45,2	123,178,2	125,74,2	127,72,2	129,184,2	131,103,2	133,107,2	135,132,2	137,172,2	139,39,2	141,22,2	143,114,2	145,30,2	147,157,2	149,86,2	151,163,2	153,162,2	155,33,2	157,170,2	159,21,2	161,177,2	163,94,2	165,111,2	167,160,2	169,187,2	171,129,2	173,31,2	175,84,2	177,83,2	179,168,2	181,139,2	183,156,2	185,176,2	187,48,2	189,40,2	191,185,2	193,124,2	195,128,2	197,28,2	199,174,2	201,138,2	203,150,2	205,81,2	207,50,2	209,133,2	211,200,2	213,140,2	215,108,2	217,152,2	219,87,2	221,73,2	223,148,2	225,61,2	227,175,2	229,32,2	231,182,2	233,88,2	235,77,2	237,171,2	239,195,2	241,154,2	243,194,2	245,90,2	247,42,2	249,137,2	251,36,2	253,109,2	255,135,2	257,68,2	259,122,2	261,167,2	263,91,2	265,79,2	267,188,2	269,134,2	271,183,2	273,173,2	275,78,2	277,106,2	279,196,2	281,117,2	283,44,2	285,155,2	287,100,2	289,76,2	291,147,2	293,190,2	295,126,2	297,189,2	299,63,2	301,47,2	303,37,2	305,110,2	307,95,2	309,104,2	311,159,2	313,145,2	315,144,2	317,70,2	319,181,2	321,26,2	323,199,2	325,102,2	327,169,2	329,92,2	331,85,2	333,93,2	335,101,2	337,46,2	339,119,2	341,25,2	343,120,2	345,6,2	347,180,2	349,7,2	351,153,2	353,5,2	355,105,2	357,3,2	359,8,2	361,11,2	363,67,2	365,17,2	367,13,2	369,151,2	371,4,2	373,191,2	375,10,2	377,9,2	379,16,2	381,64,2	383,12,2	385,20,2	387,146,2	389,1,2	391,14,2	393,18,2	395,19,2	397,15,2	399,2,2	401,0,1	









# Incoming










# Outgoing










