1916
# CPU
157,47,3	175,40,3	178,41,3	190,54,3	193,76,3	292,62,3	337,73,3	526,58,3	538,66,3	550,79,3	574,70,3	
121,45,3	124,69,3	160,64,3	208,78,3	211,50,3	232,37,3	469,56,3	472,75,3	508,61,3	514,72,3	
22,8,3	34,55,3	46,60,3	49,74,3	124,68,3	154,80,3	157,63,3	208,77,3	337,43,3	412,34,3	490,48,3	511,71,3	
19,7,3	37,31,3	88,44,3	103,32,3	208,52,3	331,67,3	373,59,3	
16,6,3	85,28,3	94,30,3	109,38,3	112,57,3	466,39,3	526,46,3	610,53,3	667,65,3	1915,81,1	
13,5,3	61,23,3	70,24,3	136,49,3	211,51,3	247,35,3	
10,4,3	25,15,3	82,25,3	307,42,3	406,33,3	484,36,3	493,21,3	
7,3,3	76,26,3	172,29,3	346,13,3	355,16,3	388,19,3	445,22,3	
4,2,3	7,18,3	10,20,3	19,12,3	34,11,3	178,27,3	355,17,3	
0,0,1	1,1,3	31,9,3	322,14,3	343,10,3	
# Incoming
118,(1, 58),36	154,(2, 47),3	157,(4, 70),3	160,(1, 70),9	172,(6, 40),3	175,(6, 41),3	178,(5, 54),12	190,(5, 76),3	193,(6, 62),3	196,(6, 73),3	208,(2, 70),12	226,(3, 58),15	283,(3, 62),9	292,(3, 66),3	295,(3, 73),42	337,(6, 70),180	517,(7, 58),9	526,(8, 66),12	538,(8, 79),12	571,(7, 70),3	
112,(1, 50),6	118,(2, 45),3	121,(2, 69),3	124,(2, 72),3	127,(2, 75),3	130,(4, 61),3	157,(1, 64),3	172,(1, 72),21	193,(1, 75),12	205,(5, 78),3	208,(6, 50),3	211,(3, 56),15	226,(6, 37),6	466,(8, 56),3	469,(8, 75),3	490,(7, 61),18	511,(7, 72),3	
19,(0, 8),3	25,(6, 34),3	28,(6, 63),3	31,(3, 55),3	37,(5, 60),9	46,(5, 74),3	55,(2, 48),51	115,(4, 68),9	133,(4, 80),21	154,(1, 63),3	169,(1, 71),3	205,(1, 77),3	307,(6, 43),30	406,(7, 34),6	484,(7, 48),6	508,(7, 71),3	
16,(0, 7),3	28,(3, 31),3	34,(5, 31),3	37,(6, 52),21	76,(4, 44),12	94,(1, 32),9	103,(4, 52),12	157,(2, 52),51	241,(3, 59),42	283,(4, 67),48	331,(5, 59),42	
13,(0, 6),3	22,(2, 38),33	55,(3, 53),3	58,(5, 65),9	82,(1, 28),3	85,(1, 30),9	103,(1, 38),6	109,(2, 57),3	130,(18, 81),24	160,(15, 81),24	184,(25, 81),24	220,(20, 81),24	244,(12, 81),24	268,(9, 81),24	292,(11, 81),24	337,(26, 81),24	373,(23, 81),24	397,(24, 81),24	421,(45, 81),24	445,(8, 39),21	466,(69, 81),24	493,(8, 46),33	526,(7, 65),45	571,(8, 53),39	610,(8, 65),57	667,(55, 81),24	691,(31, 81),24	715,(60, 81),24	739,(74, 81),24	763,(44, 81),24	787,(32, 81),24	811,(68, 81),24	835,(49, 81),24	859,(80, 81),24	883,(47, 81),24	907,(63, 81),24	931,(64, 81),24	955,(29, 81),24	979,(40, 81),24	1003,(27, 81),24	1027,(41, 81),24	1051,(54, 81),24	1075,(76, 81),24	1099,(52, 81),24	1123,(78, 81),24	1147,(77, 81),24	1171,(51, 81),24	1195,(50, 81),24	1219,(37, 81),24	1243,(35, 81),24	1267,(62, 81),24	1291,(42, 81),24	1315,(14, 81),24	1339,(67, 81),24	1363,(73, 81),24	1387,(43, 81),24	1411,(10, 81),24	1435,(13, 81),24	1459,(17, 81),24	1483,(16, 81),24	1507,(59, 81),24	1531,(19, 81),24	1555,(33, 81),24	1579,(34, 81),24	1603,(22, 81),24	1627,(56, 81),24	1651,(75, 81),24	1675,(36, 81),24	1699,(48, 81),24	1723,(21, 81),24	1747,(61, 81),24	1771,(71, 81),24	1795,(72, 81),24	1819,(58, 81),24	1843,(66, 81),24	1867,(79, 81),24	1891,(70, 81),24	
10,(0, 5),3	13,(2, 24),9	22,(3, 23),6	31,(1, 23),30	61,(3, 24),9	70,(3, 49),66	136,(3, 51),75	211,(4, 35),36	
7,(0, 4),3	10,(2, 33),3	22,(1, 15),3	25,(1, 21),6	31,(6, 36),3	61,(1, 25),21	109,(1, 42),3	232,(6, 42),75	355,(7, 33),51	412,(7, 36),72	484,(8, 21),9	
4,(0, 3),3	7,(2, 19),3	13,(4, 13),3	16,(4, 26),60	76,(5, 16),21	97,(6, 29),75	343,(8, 13),3	346,(8, 16),9	355,(8, 19),33	388,(8, 22),57	
1,(0, 2),3	10,(3, 12),9	19,(3, 17),3	22,(6, 11),3	31,(5, 11),3	97,(5, 27),81	322,(7, 17),33	
16,(5, 9),15	31,(7, 14),291	322,(8, 10),21	
# Outgoing
883,(47, 81),24	979,(40, 81),24	1027,(41, 81),24	1051,(54, 81),24	1075,(76, 81),24	1267,(62, 81),24	1363,(73, 81),24	1819,(58, 81),24	1843,(66, 81),24	1867,(79, 81),24	1891,(70, 81),24	
421,(45, 81),24	466,(69, 81),24	931,(64, 81),24	1123,(78, 81),24	1195,(50, 81),24	1219,(37, 81),24	1627,(56, 81),24	1651,(75, 81),24	1747,(61, 81),24	1795,(72, 81),24	
322,(8, 10),21	343,(8, 13),3	346,(8, 16),9	355,(8, 19),33	388,(8, 22),57	445,(8, 39),21	466,(8, 56),3	469,(8, 75),3	484,(8, 21),9	493,(8, 46),33	526,(8, 66),12	538,(8, 79),12	571,(8, 53),39	610,(8, 65),57	667,(55, 81),24	715,(60, 81),24	739,(74, 81),24	811,(68, 81),24	859,(80, 81),24	907,(63, 81),24	1147,(77, 81),24	1387,(43, 81),24	1579,(34, 81),24	1699,(48, 81),24	1771,(71, 81),24	
31,(7, 14),291	322,(7, 17),33	355,(7, 33),51	406,(7, 34),6	412,(7, 36),72	484,(7, 48),6	490,(7, 61),18	508,(7, 71),3	511,(7, 72),3	517,(7, 58),9	526,(7, 65),45	571,(7, 70),3	691,(31, 81),24	763,(44, 81),24	787,(32, 81),24	1099,(52, 81),24	1339,(67, 81),24	1507,(59, 81),24	
22,(6, 11),3	25,(6, 34),3	28,(6, 63),3	31,(6, 36),3	37,(6, 52),21	97,(6, 29),75	172,(6, 40),3	175,(6, 41),3	193,(6, 62),3	196,(6, 73),3	208,(6, 50),3	226,(6, 37),6	232,(6, 42),75	307,(6, 43),30	337,(6, 70),180	
16,(5, 9),15	31,(5, 11),3	34,(5, 31),3	37,(5, 60),9	46,(5, 74),3	58,(5, 65),9	76,(5, 16),21	97,(5, 27),81	178,(5, 54),12	190,(5, 76),3	205,(5, 78),3	331,(5, 59),42	373,(23, 81),24	397,(24, 81),24	835,(49, 81),24	1171,(51, 81),24	1243,(35, 81),24	
13,(4, 13),3	16,(4, 26),60	76,(4, 44),12	103,(4, 52),12	115,(4, 68),9	130,(4, 61),3	133,(4, 80),21	157,(4, 70),3	160,(15, 81),24	184,(25, 81),24	211,(4, 35),36	283,(4, 67),48	1291,(42, 81),24	1555,(33, 81),24	1675,(36, 81),24	1723,(21, 81),24	
10,(3, 12),9	19,(3, 17),3	22,(3, 23),6	28,(3, 31),3	31,(3, 55),3	55,(3, 53),3	61,(3, 24),9	70,(3, 49),66	136,(3, 51),75	211,(3, 56),15	226,(3, 58),15	241,(3, 59),42	283,(3, 62),9	292,(3, 66),3	295,(3, 73),42	337,(26, 81),24	955,(29, 81),24	1435,(13, 81),24	1483,(16, 81),24	1531,(19, 81),24	1603,(22, 81),24	
7,(2, 19),3	10,(2, 33),3	13,(2, 24),9	22,(2, 38),33	55,(2, 48),51	109,(2, 57),3	118,(2, 45),3	121,(2, 69),3	124,(2, 72),3	127,(2, 75),3	130,(18, 81),24	154,(2, 47),3	157,(2, 52),51	208,(2, 70),12	220,(20, 81),24	244,(12, 81),24	292,(11, 81),24	1003,(27, 81),24	1459,(17, 81),24	
1,(0, 2),3	4,(0, 3),3	7,(0, 4),3	10,(0, 5),3	13,(0, 6),3	16,(0, 7),3	19,(0, 8),3	22,(1, 15),3	25,(1, 21),6	31,(1, 23),30	61,(1, 25),21	82,(1, 28),3	85,(1, 30),9	94,(1, 32),9	103,(1, 38),6	109,(1, 42),3	112,(1, 50),6	118,(1, 58),36	154,(1, 63),3	157,(1, 64),3	160,(1, 70),9	169,(1, 71),3	172,(1, 72),21	193,(1, 75),12	205,(1, 77),3	268,(9, 81),24	1315,(14, 81),24	1411,(10, 81),24	
