1586
# CPU
0,81,1	1,41,22	23,45,22	45,46,22	67,80,22	89,43,22	111,9,22	133,12,22	155,29,22	177,51,22	199,19,22	221,64,22	243,38,22	265,22,22	287,36,22	309,70,22	331,63,22	353,16,22	375,55,22	397,66,22	419,23,22	441,67,22	463,75,22	485,57,22	507,59,22	529,25,22	551,26,22	573,69,22	595,40,22	617,27,22	639,71,22	661,79,22	683,56,22	705,42,22	727,65,22	749,32,22	771,18,22	793,53,22	815,21,22	837,37,22	859,62,22	881,17,22	903,20,22	925,72,22	947,52,22	969,33,22	991,39,22	1013,11,22	1035,14,22	1057,74,22	1079,24,22	1101,58,22	1123,49,22	1145,73,22	1167,35,22	1189,50,22	1211,54,22	1233,10,22	1255,78,22	1277,76,22	1299,77,22	1321,68,22	1343,48,22	1365,31,22	1387,4,22	1409,28,22	1431,7,22	1453,30,22	1475,3,22	1497,6,22	1519,5,22	1541,2,22	1563,8,22	1585,0,1	
187,61,22	373,13,22	559,15,22	745,34,22	931,47,22	1117,44,22	1303,60,22	1390,1,22	
# Incoming
1412,(1, 0),16	1428,(13, 3),3	1431,(15, 6),6	1437,(60, 6),1	1438,(34, 5),8	1446,(61, 2),1	1447,(13, 2),1	1448,(44, 2),23	1471,(47, 8),11	1482,(60, 8),52	
1,(81, 61),186	187,(81, 13),186	373,(81, 15),186	559,(81, 34),186	745,(81, 47),186	931,(81, 44),186	1117,(81, 60),186	1303,(38, 1),1	1304,(16, 1),2	1306,(75, 1),4	1310,(71, 1),2	1312,(79, 1),7	1319,(53, 1),9	1328,(20, 1),1	1329,(24, 1),23	1352,(54, 1),2	1354,(10, 1),36	
# Outgoing
1,(81, 61),186	187,(81, 13),186	373,(81, 15),186	559,(81, 34),186	745,(81, 47),186	931,(81, 44),186	1117,(81, 60),186	1303,(38, 1),1	1304,(16, 1),2	1306,(75, 1),4	1310,(71, 1),2	1312,(79, 1),7	1319,(53, 1),9	1328,(20, 1),1	1329,(24, 1),23	1352,(54, 1),2	1354,(10, 1),36	
1412,(1, 0),16	1428,(13, 3),3	1431,(15, 6),6	1437,(60, 6),1	1438,(34, 5),8	1446,(61, 2),1	1447,(13, 2),1	1448,(44, 2),23	1471,(47, 8),11	1482,(60, 8),52	
