1217
# CPU
7,3,35	42,11,35	77,30,35	132,8,35	167,10,35	202,12,35	237,13,35	272,14,35	307,17,35	512,27,35	632,37,35	
5,2,35	64,6,35	108,7,35	156,40,35	346,20,35	508,26,35	543,32,35	578,33,35	662,39,35	
3,1,35	38,21,35	73,31,35	108,15,35	143,16,35	178,9,35	213,23,35	536,29,35	
472,19,35	572,22,35	688,36,35	1216,41,1	
0,0,1	1,4,35	
64,5,35	572,34,35	
126,18,35	582,35,35	
486,24,35	656,38,35	
490,25,35	
520,28,35	
# Incoming
5,(0, 3),2	58,(4, 8),22	80,(4, 10),16	96,(4, 13),8	104,(1, 8),2	106,(1, 10),4	110,(1, 17),18	128,(1, 27),2	130,(2, 8),2	132,(2, 10),20	152,(2, 12),2	154,(2, 13),8	162,(2, 14),12	174,(2, 17),2	508,(4, 27),4	584,(4, 37),48	
3,(0, 2),2	56,(4, 6),2	62,(1, 6),2	64,(1, 7),8	72,(1, 20),2	74,(1, 32),6	80,(1, 33),8	88,(1, 39),2	90,(3, 7),18	108,(3, 33),2	120,(3, 39),2	126,(3, 40),30	344,(4, 20),2	484,(4, 26),24	536,(4, 32),2	538,(4, 33),2	656,(4, 39),6	
1,(0, 1),2	64,(2, 15),2	66,(2, 29),2	104,(4, 16),6	110,(3, 9),8	118,(3, 23),2	520,(4, 29),16	
122,(4, 19),222	346,(4, 22),98	444,(1, 19),24	468,(2, 19),4	480,(1, 36),54	534,(3, 22),38	582,(4, 36),2	584,(3, 36),104	688,(21, 41),16	704,(11, 41),16	720,(5, 41),16	736,(6, 41),16	752,(31, 41),16	768,(30, 41),16	784,(7, 41),16	800,(15, 41),16	816,(18, 41),16	832,(8, 41),16	848,(16, 41),16	864,(40, 41),16	880,(10, 41),16	896,(9, 41),16	912,(12, 41),16	928,(23, 41),16	944,(13, 41),16	960,(14, 41),16	976,(17, 41),16	992,(20, 41),16	1008,(24, 41),16	1024,(25, 41),16	1040,(26, 41),16	1056,(27, 41),16	1072,(28, 41),16	1088,(29, 41),16	1104,(32, 41),16	1120,(34, 41),16	1136,(33, 41),16	1152,(35, 41),16	1168,(37, 41),16	1184,(38, 41),16	1200,(39, 41),16	

36,(4, 5),20	56,(1, 5),6	62,(2, 5),2	130,(1, 34),26	156,(3, 34),16	540,(4, 34),32	
110,(4, 18),12	122,(2, 35),2	124,(3, 18),2	572,(4, 35),10	
444,(4, 24),32	476,(1, 24),4	480,(2, 24),2	482,(2, 38),2	484,(3, 24),2	490,(3, 38),14	632,(4, 38),24	
476,(4, 25),8	486,(3, 25),4	
512,(4, 28),8	
# Outgoing
90,(3, 7),18	108,(3, 33),2	110,(3, 9),8	118,(3, 23),2	120,(3, 39),2	124,(3, 18),2	126,(3, 40),30	156,(3, 34),16	484,(3, 24),2	486,(3, 25),4	490,(3, 38),14	534,(3, 22),38	584,(3, 36),104	704,(11, 41),16	768,(30, 41),16	832,(8, 41),16	880,(10, 41),16	912,(12, 41),16	944,(13, 41),16	960,(14, 41),16	976,(17, 41),16	1056,(27, 41),16	1168,(37, 41),16	
62,(2, 5),2	64,(2, 15),2	66,(2, 29),2	122,(2, 35),2	130,(2, 8),2	132,(2, 10),20	152,(2, 12),2	154,(2, 13),8	162,(2, 14),12	174,(2, 17),2	468,(2, 19),4	480,(2, 24),2	482,(2, 38),2	736,(6, 41),16	784,(7, 41),16	864,(40, 41),16	992,(20, 41),16	1040,(26, 41),16	1104,(32, 41),16	1136,(33, 41),16	1200,(39, 41),16	
56,(1, 5),6	62,(1, 6),2	64,(1, 7),8	72,(1, 20),2	74,(1, 32),6	80,(1, 33),8	88,(1, 39),2	104,(1, 8),2	106,(1, 10),4	110,(1, 17),18	128,(1, 27),2	130,(1, 34),26	444,(1, 19),24	476,(1, 24),4	480,(1, 36),54	688,(21, 41),16	752,(31, 41),16	800,(15, 41),16	848,(16, 41),16	896,(9, 41),16	928,(23, 41),16	1088,(29, 41),16	

1,(0, 1),2	3,(0, 2),2	5,(0, 3),2	36,(4, 5),20	56,(4, 6),2	58,(4, 8),22	80,(4, 10),16	96,(4, 13),8	104,(4, 16),6	110,(4, 18),12	122,(4, 19),222	344,(4, 20),2	346,(4, 22),98	444,(4, 24),32	476,(4, 25),8	484,(4, 26),24	508,(4, 27),4	512,(4, 28),8	520,(4, 29),16	536,(4, 32),2	538,(4, 33),2	540,(4, 34),32	572,(4, 35),10	582,(4, 36),2	584,(4, 37),48	632,(4, 38),24	656,(4, 39),6	
720,(5, 41),16	1120,(34, 41),16	
816,(18, 41),16	1152,(35, 41),16	
1008,(24, 41),16	1184,(38, 41),16	
1024,(25, 41),16	
1072,(28, 41),16	
