715
# CPU
0,0,1	1,8,23	24,1,23	47,3,23	70,4,23	93,25,23	116,53,23	139,33,23	162,28,23	185,65,23	208,14,23	231,78,23	254,13,23	277,62,23	300,57,23	323,43,23	346,35,23	369,32,23	392,64,23	415,73,23	438,22,23	461,9,23	484,15,23	507,69,23	530,20,23	553,47,23	576,60,23	714,81,1	
46,2,23	69,12,23	92,26,23	115,52,23	138,6,23	161,54,23	184,66,23	207,17,23	230,24,23	253,30,23	276,40,23	299,23,23	322,41,23	345,50,23	368,56,23	391,19,23	414,27,23	437,31,23	460,48,23	483,61,23	506,49,23	529,70,23	552,74,23	575,75,23	598,11,23	621,67,23	644,80,23	
91,5,23	114,39,23	137,71,23	160,79,23	183,7,23	206,16,23	229,63,23	252,37,23	275,46,23	298,77,23	321,18,23	344,42,23	367,51,23	390,55,23	413,59,23	436,21,23	459,34,23	482,29,23	505,36,23	528,38,23	551,45,23	574,58,23	597,68,23	620,72,23	643,76,23	666,10,23	689,44,23	
# Incoming
131,(2, 64),4	135,(2, 73),5	140,(12, 81),2	142,(5, 22),1	143,(26, 81),2	145,(52, 81),2	151,(5, 69),2	154,(39, 81),2	160,(71, 81),2	162,(6, 9),1	163,(6, 15),12	175,(6, 47),4	179,(6, 69),1	183,(79, 81),2	185,(54, 81),2	207,(7, 20),20	227,(66, 81),2	229,(7, 47),1	230,(7, 60),5	235,(17, 81),2	242,(16, 81),2	252,(63, 81),2	254,(24, 81),2	275,(37, 81),2	277,(30, 81),2	298,(46, 81),2	300,(40, 81),2	321,(77, 81),2	323,(23, 81),2	344,(18, 81),2	346,(41, 81),2	367,(42, 81),2	369,(50, 81),2	390,(51, 81),2	392,(56, 81),2	413,(55, 81),2	415,(19, 81),2	436,(59, 81),2	438,(27, 81),2	459,(21, 81),2	461,(31, 81),2	482,(34, 81),2	484,(48, 81),2	505,(29, 81),2	507,(61, 81),2	528,(36, 81),2	530,(49, 81),2	551,(38, 81),2	553,(70, 81),2	574,(45, 81),2	576,(74, 81),2	597,(58, 81),2	599,(75, 81),2	620,(68, 81),2	622,(11, 81),2	643,(72, 81),2	645,(67, 81),2	666,(76, 81),2	668,(80, 81),2	689,(10, 81),2	712,(44, 81),2	
1,(0, 2),45	91,(0, 6),45	143,(5, 54),3	146,(5, 66),5	153,(5, 74),1	206,(7, 11),1	227,(7, 40),2	235,(7, 80),7	243,(8, 23),6	249,(8, 41),11	260,(8, 50),13	281,(8, 56),1	290,(8, 67),18	318,(1, 11),11	329,(1, 19),1	335,(1, 27),30	365,(1, 31),16	383,(1, 48),16	399,(1, 61),4	403,(1, 70),3	406,(1, 74),4	431,(3, 49),8	453,(3, 70),4	458,(3, 74),2	460,(3, 75),17	479,(4, 11),2	482,(4, 67),9	491,(4, 80),12	
46,(0, 5),45	91,(2, 18),14	105,(2, 39),5	110,(2, 51),6	116,(2, 63),15	136,(0, 7),45	181,(8, 10),5	186,(8, 16),1	187,(8, 18),56	243,(6, 42),4	247,(6, 51),5	273,(8, 55),8	282,(8, 59),8	308,(8, 68),10	330,(1, 21),5	381,(1, 34),2	410,(3, 29),8	418,(3, 36),1	419,(3, 38),1	420,(3, 45),11	439,(3, 58),10	449,(3, 68),4	457,(3, 72),1	477,(3, 76),1	478,(4, 10),1	481,(4, 44),1	
# Outgoing
1,(0, 2),45	46,(0, 5),45	91,(0, 6),45	136,(0, 7),45	181,(8, 10),5	186,(8, 16),1	187,(8, 18),56	243,(8, 23),6	249,(8, 41),11	260,(8, 50),13	273,(8, 55),8	281,(8, 56),1	282,(8, 59),8	290,(8, 67),18	308,(8, 68),10	318,(1, 11),11	329,(1, 19),1	330,(1, 21),5	335,(1, 27),30	365,(1, 31),16	381,(1, 34),2	383,(1, 48),16	399,(1, 61),4	403,(1, 70),3	406,(1, 74),4	410,(3, 29),8	418,(3, 36),1	419,(3, 38),1	420,(3, 45),11	431,(3, 49),8	439,(3, 58),10	449,(3, 68),4	453,(3, 70),4	457,(3, 72),1	458,(3, 74),2	460,(3, 75),17	477,(3, 76),1	478,(4, 10),1	479,(4, 11),2	481,(4, 44),1	482,(4, 67),9	491,(4, 80),12	
91,(2, 18),14	105,(2, 39),5	110,(2, 51),6	116,(2, 63),15	131,(2, 64),4	135,(2, 73),5	140,(12, 81),2	143,(26, 81),2	145,(52, 81),2	162,(6, 9),1	163,(6, 15),12	175,(6, 47),4	179,(6, 69),1	185,(54, 81),2	227,(66, 81),2	235,(17, 81),2	243,(6, 42),4	247,(6, 51),5	254,(24, 81),2	277,(30, 81),2	300,(40, 81),2	323,(23, 81),2	346,(41, 81),2	369,(50, 81),2	392,(56, 81),2	415,(19, 81),2	438,(27, 81),2	461,(31, 81),2	484,(48, 81),2	507,(61, 81),2	530,(49, 81),2	553,(70, 81),2	576,(74, 81),2	599,(75, 81),2	622,(11, 81),2	645,(67, 81),2	668,(80, 81),2	
142,(5, 22),1	143,(5, 54),3	146,(5, 66),5	151,(5, 69),2	153,(5, 74),1	154,(39, 81),2	160,(71, 81),2	183,(79, 81),2	206,(7, 11),1	207,(7, 20),20	227,(7, 40),2	229,(7, 47),1	230,(7, 60),5	235,(7, 80),7	242,(16, 81),2	252,(63, 81),2	275,(37, 81),2	298,(46, 81),2	321,(77, 81),2	344,(18, 81),2	367,(42, 81),2	390,(51, 81),2	413,(55, 81),2	436,(59, 81),2	459,(21, 81),2	482,(34, 81),2	505,(29, 81),2	528,(36, 81),2	551,(38, 81),2	574,(45, 81),2	597,(58, 81),2	620,(68, 81),2	643,(72, 81),2	666,(76, 81),2	689,(10, 81),2	712,(44, 81),2	
