1338
# CPU
37,4,10	47,16,10	57,20,10	67,17,10	77,21,10	87,22,10	97,15,10	107,19,10	117,6,10	127,29,10	149,38,10	285,32,10	295,39,10	309,30,10	
0,0,1	1,2,10	11,7,10	21,13,10	31,36,10	41,10,10	51,28,10	97,8,10	245,18,10	261,31,10	369,11,10	529,34,10	721,12,10	1185,37,10	1337,41,1	
13,1,10	23,9,10	33,35,10	43,3,10	53,5,10	63,23,10	73,14,10	83,25,10	93,24,10	103,27,10	113,26,10	145,33,10	155,40,10	
# Incoming
25,(0, 4),12	37,(2, 15),40	77,(2, 19),4	81,(1, 6),4	85,(2, 29),32	145,(2, 38),4	245,(1, 30),4	249,(1, 32),36	285,(1, 39),4	305,(3, 30),4	
85,(1, 8),12	97,(1, 11),116	213,(1, 12),4	217,(1, 18),28	245,(4, 31),16	261,(16, 41),8	269,(20, 41),8	277,(17, 41),8	289,(9, 41),8	297,(35, 41),8	305,(4, 11),64	369,(4, 34),160	529,(4, 37),88	617,(3, 12),104	721,(3, 37),464	1185,(5, 41),8	1193,(23, 41),8	1201,(14, 41),8	1209,(21, 41),8	1217,(25, 41),8	1225,(22, 41),8	1233,(24, 41),8	1241,(15, 41),8	1249,(27, 41),8	1257,(19, 41),8	1265,(26, 41),8	1273,(6, 41),8	1281,(29, 41),8	1289,(33, 41),8	1297,(38, 41),8	1305,(40, 41),8	1313,(32, 41),8	1321,(39, 41),8	1329,(30, 41),8	
1,(0, 1),12	13,(0, 3),12	47,(4, 5),4	51,(4, 27),4	81,(2, 26),4	117,(2, 33),28	149,(2, 40),4	
# Outgoing
47,(4, 5),4	51,(4, 27),4	245,(4, 31),16	261,(16, 41),8	269,(20, 41),8	277,(17, 41),8	305,(4, 11),64	369,(4, 34),160	529,(4, 37),88	1209,(21, 41),8	1225,(22, 41),8	1241,(15, 41),8	1257,(19, 41),8	1273,(6, 41),8	1281,(29, 41),8	1297,(38, 41),8	1313,(32, 41),8	1321,(39, 41),8	1329,(30, 41),8	
1,(0, 1),12	13,(0, 3),12	25,(0, 4),12	37,(2, 15),40	77,(2, 19),4	81,(2, 26),4	85,(2, 29),32	117,(2, 33),28	145,(2, 38),4	149,(2, 40),4	
81,(1, 6),4	85,(1, 8),12	97,(1, 11),116	213,(1, 12),4	217,(1, 18),28	245,(1, 30),4	249,(1, 32),36	285,(1, 39),4	289,(9, 41),8	297,(35, 41),8	305,(3, 30),4	617,(3, 12),104	721,(3, 37),464	1185,(5, 41),8	1193,(23, 41),8	1201,(14, 41),8	1217,(25, 41),8	1233,(24, 41),8	1249,(27, 41),8	1265,(26, 41),8	1289,(33, 41),8	1305,(40, 41),8	
