2429
# CPU
0,201,1	1,98,41	42,90,41	83,40,41	124,113,41	165,34,41	206,70,41	247,72,41	288,144,41	329,194,41	370,165,41	411,38,41	452,21,41	493,153,41	534,197,41	575,62,41	616,85,41	657,110,41	698,94,41	739,109,41	780,139,41	821,192,41	862,106,41	903,50,41	944,93,41	985,107,41	1026,123,41	1067,114,41	1108,57,41	1149,199,41	1190,187,41	1231,150,41	1272,54,41	1313,76,41	1354,188,41	1395,200,41	1436,29,41	1477,25,41	1518,198,41	1559,177,41	1600,191,41	1641,125,41	1682,171,41	1723,102,41	1764,24,41	1805,118,41	1846,51,41	1887,175,41	1928,11,41	1969,18,41	2010,4,41	2051,5,41	2130,14,41	
15,134,41	155,154,41	295,61,41	365,63,41	407,31,41	645,182,41	855,68,41	925,60,41	967,131,41	1079,161,41	1121,73,41	1163,166,41	1219,112,41	1261,169,41	1303,74,41	1345,160,41	1387,124,41	1485,105,41	1527,87,41	1569,55,41	1614,43,41	1670,53,41	1740,8,41	1787,130,41	1855,185,41	1906,15,41	2428,0,1	
57,47,41	127,115,41	239,148,41	421,170,41	491,196,41	659,81,41	715,35,41	813,168,41	953,66,41	995,143,41	1191,97,41	1275,189,41	1471,89,41	1513,138,41	1555,164,41	1596,10,41	1642,65,41	1813,147,41	1883,59,41	1924,13,41	2080,6,41	2180,9,41	
85,163,41	197,132,41	281,178,41	323,33,41	393,37,41	757,100,41	883,69,41	939,116,41	1093,45,41	1149,23,41	1289,190,41	1401,22,41	1600,146,41	
435,46,41	561,95,41	673,152,41	785,91,41	841,158,41	981,133,41	1457,71,41	1977,16,41	
29,48,41	169,103,41	225,145,41	337,179,41	505,128,41	603,75,41	687,184,41	743,104,41	897,67,41	1009,126,41	1205,167,41	1443,181,41	1759,142,41	1800,12,41	2016,2,41	
43,156,41	463,77,41	617,174,41	701,78,41	1233,58,41	1373,27,41	1745,183,41	2032,1,41	
211,141,41	253,36,41	449,80,41	533,83,41	631,41,41	869,120,41	1051,137,41	1177,180,41	1317,172,41	1429,86,41	1712,44,41	1755,20,41	
71,162,41	113,159,41	309,108,41	379,32,41	547,186,41	589,92,41	799,149,41	911,173,41	1037,127,41	1135,56,41	1247,119,41	1359,99,41	1656,193,41	1698,122,41	1739,7,41	1841,88,41	1935,19,41	
99,42,41	141,121,41	183,84,41	267,111,41	351,82,41	477,101,41	519,135,41	575,28,41	729,30,41	771,52,41	827,117,41	1023,39,41	1065,26,41	1107,79,41	1331,136,41	1415,157,41	1499,176,41	1541,64,41	1583,195,41	1628,129,41	1684,49,41	1726,155,41	1773,151,41	1827,96,41	1869,140,41	1913,3,41	1954,17,41	
# Incoming
490,(80, 11),1	550,(170, 4),2	552,(148, 14),1	700,(81, 14),3	717,(95, 4),3	854,(168, 11),1	975,(154, 14),1	995,(66, 11),6	1036,(143, 11),7	1043,(143, 5),6	1064,(103, 18),1	1092,(137, 5),7	1118,(82, 4),1	1131,(30, 4),4	1142,(117, 5),5	1148,(79, 4),8	1262,(112, 5),10	1287,(174, 4),3	1290,(58, 4),11	1313,(169, 4),1	1372,(136, 14),13	1414,(27, 4),15	1429,(124, 4),15	1475,(163, 18),1	1476,(86, 18),16	1492,(69, 4),6	1512,(89, 18),18	1530,(190, 5),12	1542,(71, 5),18	1560,(116, 14),6	1568,(87, 4),2	1604,(176, 5),18	1624,(195, 5),24	1648,(195, 14),1	1655,(43, 11),25	1680,(55, 14),23	1757,(127, 11),4	1761,(44, 11),13	1774,(108, 18),1	1775,(186, 18),2	1777,(56, 18),9	1786,(162, 4),1	1787,(119, 4),11	1798,(49, 14),1	1800,(142, 5),1	1824,(151, 5),79	1910,(140, 18),10	1987,(185, 14),143	
1,(201, 134),14	141,(201, 154),14	281,(201, 61),14	351,(201, 63),14	393,(201, 31),14	631,(201, 182),14	714,(152, 15),1	841,(201, 68),14	911,(201, 60),14	925,(120, 15),5	953,(201, 131),14	1065,(201, 161),14	1079,(184, 15),4	1107,(201, 73),14	1121,(42, 8),1	1122,(121, 8),1	1130,(30, 15),1	1149,(201, 166),14	1205,(201, 112),14	1247,(201, 169),14	1274,(58, 8),6	1289,(201, 74),14	1331,(201, 160),14	1373,(201, 124),14	1442,(22, 8),16	1466,(33, 15),1	1471,(201, 105),14	1485,(181, 8),18	1503,(23, 15),9	1513,(201, 87),14	1555,(201, 55),14	1600,(201, 43),14	1656,(201, 53),14	1683,(65, 8),4	1715,(65, 15),3	1739,(122, 8),1	1740,(10, 0),31	1773,(201, 130),14	1796,(20, 0),31	1841,(201, 185),14	1883,(144, 15),1	1884,(38, 15),2	1886,(199, 15),9	1895,(150, 15),11	1906,(7, 0),31	1937,(12, 0),31	1990,(3, 0),31	2021,(13, 0),31	2052,(19, 0),31	2083,(17, 0),31	2114,(16, 0),31	2145,(2, 0),31	2180,(11, 0),31	2211,(18, 0),31	2242,(4, 0),31	2273,(1, 0),31	2304,(5, 0),31	2335,(6, 0),31	2366,(14, 0),31	2397,(9, 0),31	
43,(201, 47),14	113,(201, 115),14	225,(201, 148),14	294,(36, 10),1	407,(201, 170),14	477,(201, 196),14	574,(83, 6),2	645,(201, 81),14	701,(201, 35),14	799,(201, 168),14	939,(201, 66),14	966,(60, 10),2	981,(201, 143),14	1011,(131, 6),7	1050,(126, 10),7	1066,(179, 6),1	1067,(67, 9),6	1099,(137, 9),1	1106,(26, 10),7	1119,(101, 6),2	1177,(201, 97),14	1204,(166, 10),9	1246,(167, 13),10	1261,(201, 189),14	1344,(74, 10),12	1358,(172, 13),9	1457,(201, 89),14	1477,(116, 6),1	1499,(201, 138),14	1541,(201, 164),14	1583,(70, 10),1	1584,(197, 10),2	1628,(201, 65),14	1642,(146, 6),25	1669,(129, 6),27	1756,(32, 13),1	1764,(127, 9),7	1799,(201, 147),14	1813,(193, 9),33	1869,(201, 59),14	1913,(192, 13),5	1920,(155, 6),70	2019,(98, 6),1	2020,(34, 6),1	2021,(139, 6),4	2025,(188, 6),15	2040,(200, 6),16	2056,(191, 6),24	2080,(118, 9),100	
71,(201, 163),14	183,(201, 132),14	267,(201, 178),14	309,(201, 33),14	379,(201, 37),14	743,(201, 100),14	869,(201, 69),14	925,(201, 116),14	1079,(201, 45),14	1135,(201, 23),14	1275,(201, 190),14	1387,(201, 22),14	1586,(201, 146),14	
421,(201, 46),14	547,(201, 95),14	659,(201, 152),14	756,(35, 16),4	771,(201, 91),14	827,(201, 158),14	967,(201, 133),14	981,(134, 16),1	982,(68, 16),5	1116,(135, 16),2	1443,(201, 71),14	1476,(100, 16),1	1725,(49, 16),41	1938,(72, 16),1	1939,(123, 16),7	1946,(187, 16),10	1956,(198, 16),21	
15,(201, 48),14	155,(201, 103),14	211,(201, 145),14	323,(201, 179),14	491,(201, 128),14	505,(80, 12),2	549,(115, 12),1	589,(201, 75),14	673,(201, 184),14	729,(201, 104),14	855,(168, 2),5	883,(201, 67),14	969,(182, 12),3	972,(63, 2),1	973,(31, 2),2	995,(201, 126),14	1123,(39, 12),7	1130,(161, 2),8	1171,(73, 2),7	1191,(201, 167),14	1429,(201, 181),14	1458,(45, 12),8	1541,(176, 2),4	1610,(55, 12),3	1687,(65, 12),28	1745,(201, 142),14	1761,(92, 2),3	1787,(109, 12),4	1791,(57, 12),8	1799,(49, 2),25	1977,(171, 2),39	
29,(201, 156),14	449,(201, 77),14	603,(201, 174),14	687,(201, 78),14	720,(152, 1),4	826,(91, 1),5	1008,(131, 1),3	1135,(28, 1),3	1138,(39, 1),4	1219,(201, 58),14	1359,(201, 27),14	1373,(172, 1),13	1731,(201, 183),14	1882,(88, 1),1	1935,(185, 1),52	2016,(62, 1),3	
197,(201, 141),14	239,(201, 36),14	435,(201, 80),14	519,(201, 83),14	617,(201, 41),14	855,(201, 120),14	994,(66, 20),1	1037,(201, 137),14	1058,(128, 20),1	1059,(75, 20),3	1114,(84, 20),1	1115,(30, 20),1	1163,(201, 180),14	1280,(156, 20),1	1303,(201, 172),14	1415,(201, 86),14	1698,(201, 44),14	1740,(99, 20),15	
57,(201, 162),14	99,(201, 159),14	295,(201, 108),14	309,(141, 7),1	365,(201, 32),14	533,(201, 186),14	547,(196, 7),2	575,(201, 92),14	715,(46, 19),2	785,(201, 149),14	897,(201, 173),14	968,(61, 7),1	1023,(201, 127),14	1057,(48, 7),1	1062,(128, 19),2	1113,(111, 7),1	1121,(201, 56),14	1233,(201, 119),14	1247,(97, 7),10	1257,(167, 19),7	1281,(78, 19),4	1316,(189, 7),11	1345,(201, 99),14	1359,(74, 7),12	1473,(132, 19),1	1540,(176, 7),1	1554,(138, 19),18	1582,(64, 19),22	1642,(201, 193),14	1684,(201, 122),14	1726,(165, 7),1	1727,(153, 7),2	1729,(106, 7),2	1827,(201, 88),14	1841,(130, 19),94	
85,(201, 42),14	127,(201, 121),14	169,(201, 84),14	253,(201, 111),14	337,(201, 82),14	463,(201, 101),14	505,(201, 135),14	561,(201, 28),14	715,(201, 30),14	757,(201, 52),14	813,(201, 117),14	1009,(201, 39),14	1051,(201, 26),14	1065,(179, 17),1	1093,(201, 79),14	1162,(73, 17),9	1218,(180, 17),10	1260,(112, 17),2	1285,(77, 17),2	1302,(169, 3),11	1317,(201, 136),14	1401,(201, 157),14	1467,(37, 3),2	1469,(100, 3),4	1474,(178, 17),1	1485,(201, 176),14	1527,(201, 64),14	1569,(201, 195),14	1583,(87, 3),22	1614,(201, 129),14	1670,(201, 49),14	1712,(201, 155),14	1755,(159, 3),1	1759,(201, 151),14	1773,(53, 3),33	1806,(149, 17),5	1813,(201, 96),14	1855,(201, 140),14	1906,(90, 3),1	1907,(50, 3),6	1918,(194, 17),1	1919,(197, 17),1	1920,(25, 17),18	
# Outgoing
1,(201, 134),14	15,(201, 48),14	29,(201, 156),14	43,(201, 47),14	57,(201, 162),14	71,(201, 163),14	85,(201, 42),14	99,(201, 159),14	113,(201, 115),14	127,(201, 121),14	141,(201, 154),14	155,(201, 103),14	169,(201, 84),14	183,(201, 132),14	197,(201, 141),14	211,(201, 145),14	225,(201, 148),14	239,(201, 36),14	253,(201, 111),14	267,(201, 178),14	281,(201, 61),14	295,(201, 108),14	309,(201, 33),14	323,(201, 179),14	337,(201, 82),14	351,(201, 63),14	365,(201, 32),14	379,(201, 37),14	393,(201, 31),14	407,(201, 170),14	421,(201, 46),14	435,(201, 80),14	449,(201, 77),14	463,(201, 101),14	477,(201, 196),14	491,(201, 128),14	505,(201, 135),14	519,(201, 83),14	533,(201, 186),14	547,(201, 95),14	561,(201, 28),14	575,(201, 92),14	589,(201, 75),14	603,(201, 174),14	617,(201, 41),14	631,(201, 182),14	645,(201, 81),14	659,(201, 152),14	673,(201, 184),14	687,(201, 78),14	701,(201, 35),14	715,(201, 30),14	729,(201, 104),14	743,(201, 100),14	757,(201, 52),14	771,(201, 91),14	785,(201, 149),14	799,(201, 168),14	813,(201, 117),14	827,(201, 158),14	841,(201, 68),14	855,(201, 120),14	869,(201, 69),14	883,(201, 67),14	897,(201, 173),14	911,(201, 60),14	925,(201, 116),14	939,(201, 66),14	953,(201, 131),14	967,(201, 133),14	981,(201, 143),14	995,(201, 126),14	1009,(201, 39),14	1023,(201, 127),14	1037,(201, 137),14	1051,(201, 26),14	1065,(201, 161),14	1079,(201, 45),14	1093,(201, 79),14	1107,(201, 73),14	1121,(201, 56),14	1135,(201, 23),14	1149,(201, 166),14	1163,(201, 180),14	1177,(201, 97),14	1191,(201, 167),14	1205,(201, 112),14	1219,(201, 58),14	1233,(201, 119),14	1247,(201, 169),14	1261,(201, 189),14	1275,(201, 190),14	1289,(201, 74),14	1303,(201, 172),14	1317,(201, 136),14	1331,(201, 160),14	1345,(201, 99),14	1359,(201, 27),14	1373,(201, 124),14	1387,(201, 22),14	1401,(201, 157),14	1415,(201, 86),14	1429,(201, 181),14	1443,(201, 71),14	1457,(201, 89),14	1471,(201, 105),14	1485,(201, 176),14	1499,(201, 138),14	1513,(201, 87),14	1527,(201, 64),14	1541,(201, 164),14	1555,(201, 55),14	1569,(201, 195),14	1583,(70, 10),1	1584,(197, 10),2	1586,(201, 146),14	1600,(201, 43),14	1614,(201, 129),14	1628,(201, 65),14	1642,(201, 193),14	1656,(201, 53),14	1670,(201, 49),14	1684,(201, 122),14	1698,(201, 44),14	1712,(201, 155),14	1726,(165, 7),1	1727,(153, 7),2	1729,(106, 7),2	1731,(201, 183),14	1745,(201, 142),14	1759,(201, 151),14	1773,(201, 130),14	1787,(109, 12),4	1791,(57, 12),8	1799,(201, 147),14	1813,(201, 96),14	1827,(201, 88),14	1841,(201, 185),14	1855,(201, 140),14	1869,(201, 59),14	1883,(144, 15),1	1884,(38, 15),2	1886,(199, 15),9	1895,(150, 15),11	1906,(90, 3),1	1907,(50, 3),6	1913,(192, 13),5	1918,(194, 17),1	1919,(197, 17),1	1920,(25, 17),18	1938,(72, 16),1	1939,(123, 16),7	1946,(187, 16),10	1956,(198, 16),21	1977,(171, 2),39	2016,(62, 1),3	2019,(98, 6),1	2020,(34, 6),1	2021,(139, 6),4	2025,(188, 6),15	2040,(200, 6),16	2056,(191, 6),24	2080,(118, 9),100	2180,(11, 0),31	2211,(18, 0),31	2242,(4, 0),31	2304,(5, 0),31	2366,(14, 0),31	
966,(60, 10),2	968,(61, 7),1	969,(182, 12),3	972,(63, 2),1	973,(31, 2),2	975,(154, 14),1	981,(134, 16),1	982,(68, 16),5	1008,(131, 1),3	1011,(131, 6),7	1130,(161, 2),8	1162,(73, 17),9	1171,(73, 2),7	1204,(166, 10),9	1260,(112, 17),2	1262,(112, 5),10	1302,(169, 3),11	1313,(169, 4),1	1344,(74, 10),12	1359,(74, 7),12	1429,(124, 4),15	1568,(87, 4),2	1583,(87, 3),22	1610,(55, 12),3	1655,(43, 11),25	1680,(55, 14),23	1773,(53, 3),33	1841,(130, 19),94	1935,(185, 1),52	1987,(185, 14),143	
547,(196, 7),2	549,(115, 12),1	550,(170, 4),2	552,(148, 14),1	700,(81, 14),3	756,(35, 16),4	854,(168, 11),1	855,(168, 2),5	994,(66, 20),1	995,(66, 11),6	1036,(143, 11),7	1043,(143, 5),6	1247,(97, 7),10	1316,(189, 7),11	1512,(89, 18),18	1554,(138, 19),18	1683,(65, 8),4	1687,(65, 12),28	1715,(65, 15),3	1740,(10, 0),31	2021,(13, 0),31	2335,(6, 0),31	2397,(9, 0),31	
1442,(22, 8),16	1458,(45, 12),8	1466,(33, 15),1	1467,(37, 3),2	1469,(100, 3),4	1473,(132, 19),1	1474,(178, 17),1	1475,(163, 18),1	1476,(100, 16),1	1477,(116, 6),1	1492,(69, 4),6	1503,(23, 15),9	1530,(190, 5),12	1560,(116, 14),6	1642,(146, 6),25	
714,(152, 15),1	715,(46, 19),2	717,(95, 4),3	720,(152, 1),4	826,(91, 1),5	1542,(71, 5),18	2114,(16, 0),31	
1050,(126, 10),7	1057,(48, 7),1	1058,(128, 20),1	1059,(75, 20),3	1062,(128, 19),2	1064,(103, 18),1	1065,(179, 17),1	1066,(179, 6),1	1067,(67, 9),6	1079,(184, 15),4	1246,(167, 13),10	1257,(167, 19),7	1485,(181, 8),18	1800,(142, 5),1	1937,(12, 0),31	2145,(2, 0),31	
1274,(58, 8),6	1280,(156, 20),1	1281,(78, 19),4	1285,(77, 17),2	1287,(174, 4),3	1290,(58, 4),11	1414,(27, 4),15	2273,(1, 0),31	
294,(36, 10),1	309,(141, 7),1	490,(80, 11),1	505,(80, 12),2	574,(83, 6),2	925,(120, 15),5	1092,(137, 5),7	1099,(137, 9),1	1218,(180, 17),10	1358,(172, 13),9	1373,(172, 1),13	1476,(86, 18),16	1761,(44, 11),13	1796,(20, 0),31	
1739,(122, 8),1	1740,(99, 20),15	1755,(159, 3),1	1756,(32, 13),1	1757,(127, 11),4	1761,(92, 2),3	1764,(127, 9),7	1774,(108, 18),1	1775,(186, 18),2	1777,(56, 18),9	1786,(162, 4),1	1787,(119, 4),11	1806,(149, 17),5	1813,(193, 9),33	1882,(88, 1),1	1906,(7, 0),31	2052,(19, 0),31	
1106,(26, 10),7	1113,(111, 7),1	1114,(84, 20),1	1115,(30, 20),1	1116,(135, 16),2	1118,(82, 4),1	1119,(101, 6),2	1121,(42, 8),1	1122,(121, 8),1	1123,(39, 12),7	1130,(30, 15),1	1131,(30, 4),4	1135,(28, 1),3	1138,(39, 1),4	1142,(117, 5),5	1148,(79, 4),8	1372,(136, 14),13	1540,(176, 7),1	1541,(176, 2),4	1582,(64, 19),22	1604,(176, 5),18	1624,(195, 5),24	1648,(195, 14),1	1669,(129, 6),27	1725,(49, 16),41	1798,(49, 14),1	1799,(49, 2),25	1824,(151, 5),79	1910,(140, 18),10	1920,(155, 6),70	1990,(3, 0),31	2083,(17, 0),31	
