407
# CPU
0,0,1	1,4,5	6,78,5	11,18,5	16,13,5	21,6,5	26,55,5	31,52,5	36,23,5	41,19,5	46,12,5	51,60,5	56,41,5	61,2,5	66,76,5	71,31,5	76,5,5	81,63,5	86,73,5	91,9,5	96,20,5	101,33,5	106,51,5	111,37,5	116,57,5	121,62,5	126,15,5	131,3,5	136,75,5	141,65,5	146,77,5	151,66,5	156,16,5	161,48,5	166,49,5	171,28,5	176,42,5	181,58,5	186,47,5	191,64,5	196,69,5	201,44,5	206,71,5	211,17,5	216,72,5	221,27,5	226,68,5	231,34,5	249,53,5	269,36,5	297,46,5	329,80,5	401,79,5	406,81,1	
29,1,5	34,67,5	39,59,5	45,40,5	73,7,5	78,26,5	83,39,5	88,56,5	93,32,5	98,25,5	103,10,5	108,24,5	133,8,5	138,61,5	144,11,5	149,43,5	154,74,5	159,45,5	172,50,5	188,30,5	208,29,5	228,14,5	252,54,5	276,22,5	300,35,5	328,21,5	
82,38,5	140,70,5	


# Incoming
39,(67, 81),4	44,(59, 81),4	50,(40, 81),4	54,(1, 69),4	58,(1, 44),4	62,(1, 17),8	70,(1, 72),8	83,(26, 81),4	87,(38, 81),4	91,(39, 81),4	95,(56, 81),4	99,(32, 81),4	103,(25, 81),4	108,(10, 81),4	113,(24, 81),4	143,(61, 81),4	147,(70, 81),4	151,(11, 81),4	155,(43, 81),4	159,(74, 81),4	164,(45, 81),4	168,(8, 71),8	177,(50, 81),4	181,(7, 27),12	193,(30, 81),4	197,(8, 68),12	213,(29, 81),4	217,(7, 34),12	233,(14, 81),4	237,(7, 53),12	249,(7, 36),20	269,(54, 81),4	273,(8, 46),24	297,(22, 81),4	301,(7, 80),28	329,(35, 81),4	333,(21, 81),4	337,(1, 79),64	
1,(0, 1),28	29,(6, 40),16	45,(0, 7),28	73,(2, 10),8	81,(5, 25),4	85,(2, 24),20	105,(0, 8),28	140,(6, 11),4	144,(5, 43),4	148,(5, 74),4	152,(5, 45),4	156,(2, 50),4	160,(5, 50),12	172,(2, 30),16	188,(3, 29),20	208,(2, 14),20	228,(3, 54),24	252,(6, 22),24	276,(5, 35),20	296,(3, 35),4	300,(6, 21),24	324,(3, 21),4	
78,(7, 38),4	117,(1, 70),16	136,(3, 70),4	


# Outgoing
1,(0, 1),28	29,(6, 40),16	45,(0, 7),28	73,(2, 10),8	81,(5, 25),4	85,(2, 24),20	105,(0, 8),28	136,(3, 70),4	140,(6, 11),4	144,(5, 43),4	148,(5, 74),4	152,(5, 45),4	156,(2, 50),4	160,(5, 50),12	172,(2, 30),16	188,(3, 29),20	208,(2, 14),20	228,(3, 54),24	252,(6, 22),24	276,(5, 35),20	296,(3, 35),4	300,(6, 21),24	324,(3, 21),4	
39,(67, 81),4	44,(59, 81),4	50,(40, 81),4	54,(1, 69),4	58,(1, 44),4	62,(1, 17),8	70,(1, 72),8	78,(7, 38),4	83,(26, 81),4	91,(39, 81),4	95,(56, 81),4	99,(32, 81),4	103,(25, 81),4	108,(10, 81),4	113,(24, 81),4	117,(1, 70),16	143,(61, 81),4	151,(11, 81),4	155,(43, 81),4	159,(74, 81),4	164,(45, 81),4	168,(8, 71),8	177,(50, 81),4	181,(7, 27),12	193,(30, 81),4	197,(8, 68),12	213,(29, 81),4	217,(7, 34),12	233,(14, 81),4	237,(7, 53),12	249,(7, 36),20	269,(54, 81),4	273,(8, 46),24	297,(22, 81),4	301,(7, 80),28	329,(35, 81),4	333,(21, 81),4	337,(1, 79),64	
87,(38, 81),4	147,(70, 81),4	


