443
# CPU
0,0,1	1,7,1	2,161,1	3,139,1	4,21,1	5,12,1	6,199,1	7,133,1	8,85,1	9,184,1	10,120,1	11,171,1	12,172,1	13,5,1	14,197,1	15,132,1	16,75,1	17,126,1	18,195,1	19,177,1	20,152,1	21,69,1	22,2,1	23,107,1	24,90,1	25,50,1	26,58,1	27,26,1	28,124,1	29,106,1	30,14,1	31,193,1	32,65,1	33,47,1	34,117,1	35,159,1	36,31,1	37,180,1	38,178,1	39,167,1	40,20,1	41,33,1	42,40,1	43,189,1	44,146,1	45,196,1	46,134,1	47,156,1	48,168,1	49,51,1	50,145,1	51,98,1	52,10,1	53,64,1	54,140,1	55,72,1	56,104,1	57,83,1	58,25,1	59,187,1	60,6,1	61,157,1	62,38,1	63,53,1	64,46,1	65,150,1	66,123,1	67,138,1	68,29,1	69,61,1	70,39,1	71,13,1	72,101,1	73,147,1	74,114,1	75,56,1	76,141,1	77,67,1	78,144,1	79,18,1	80,170,1	81,148,1	82,27,1	83,80,1	84,151,1	85,35,1	86,100,1	87,62,1	88,28,1	89,99,1	90,143,1	91,102,1	92,9,1	93,42,1	94,22,1	95,128,1	96,111,1	97,108,1	98,191,1	99,113,1	100,127,1	101,76,1	102,16,1	103,198,1	104,173,1	105,70,1	106,32,1	107,91,1	108,194,1	109,41,1	110,160,1	111,17,1	112,79,1	113,59,1	114,37,1	115,129,1	116,43,1	117,162,1	118,105,1	119,181,1	120,118,1	121,95,1	122,49,1	123,71,1	124,96,1	125,135,1	126,93,1	127,192,1	128,149,1	129,122,1	130,200,1	146,116,1	214,115,1	442,201,1	
9,3,1	10,186,1	11,73,1	12,164,1	13,182,1	17,15,1	18,110,1	19,44,1	20,103,1	21,169,1	22,153,1	23,176,1	24,92,1	25,137,1	26,179,1	27,55,1	28,131,1	29,48,1	30,19,1	31,24,1	32,190,1	33,78,1	34,119,1	35,136,1	36,4,1	37,36,1	38,183,1	39,130,1	40,166,1	41,163,1	42,174,1	43,23,1	44,112,1	45,154,1	46,185,1	47,8,1	48,142,1	49,54,1	50,66,1	51,86,1	52,60,1	53,97,1	54,52,1	55,125,1	56,109,1	57,68,1	58,188,1	61,82,1	69,1,1	70,77,1	71,34,1	72,88,1	73,81,1	74,121,1	81,87,1	89,45,1	97,165,1	105,11,1	106,84,1	107,63,1	108,89,1	109,155,1	110,57,1	111,74,1	121,30,1	141,94,1	177,175,1	233,158,1	
# Incoming
48,(8, 96),4	52,(15, 135),4	56,(15, 93),4	60,(19, 192),4	64,(3, 149),4	68,(15, 200),16	84,(8, 115),4	88,(186, 201),4	92,(73, 201),4	96,(164, 201),4	100,(182, 201),4	106,(11, 122),8	114,(1, 116),32	146,(15, 115),68	214,(110, 201),4	218,(44, 201),4	222,(103, 201),4	226,(169, 201),4	230,(153, 201),4	234,(176, 201),4	238,(92, 201),4	242,(137, 201),4	246,(179, 201),4	250,(55, 201),4	254,(131, 201),4	258,(48, 201),4	262,(24, 201),4	266,(190, 201),4	270,(78, 201),4	274,(119, 201),4	278,(136, 201),4	282,(36, 201),4	286,(183, 201),4	290,(130, 201),4	294,(166, 201),4	298,(163, 201),4	302,(174, 201),4	306,(23, 201),4	310,(112, 201),4	314,(154, 201),4	318,(185, 201),4	322,(142, 201),4	326,(54, 201),4	330,(66, 201),4	334,(86, 201),4	338,(60, 201),4	342,(97, 201),4	346,(52, 201),4	350,(125, 201),4	354,(109, 201),4	358,(68, 201),4	362,(188, 201),4	366,(82, 201),4	370,(77, 201),4	374,(34, 201),4	378,(88, 201),4	382,(81, 201),4	386,(121, 201),4	390,(87, 201),4	394,(45, 201),4	398,(165, 201),4	402,(84, 201),4	406,(63, 201),4	410,(89, 201),4	414,(155, 201),4	418,(57, 201),4	422,(74, 201),4	426,(30, 201),4	430,(94, 201),4	434,(175, 201),4	438,(158, 201),4	
1,(0, 3),8	9,(0, 15),8	17,(0, 19),8	25,(0, 4),8	33,(0, 8),8	41,(20, 109),4	45,(14, 68),4	49,(5, 188),4	53,(10, 82),8	61,(0, 1),8	69,(6, 121),4	73,(6, 87),8	81,(13, 45),8	89,(20, 74),4	93,(9, 165),4	97,(0, 11),8	105,(6, 74),4	109,(2, 30),12	121,(13, 94),12	133,(16, 94),8	141,(18, 175),36	177,(17, 158),56	
# Outgoing
1,(0, 3),8	9,(0, 15),8	17,(0, 19),8	25,(0, 4),8	33,(0, 8),8	41,(20, 109),4	45,(14, 68),4	49,(5, 188),4	53,(10, 82),8	61,(0, 1),8	69,(6, 121),4	73,(6, 87),8	81,(13, 45),8	89,(20, 74),4	93,(9, 165),4	97,(0, 11),8	105,(6, 74),4	109,(2, 30),12	121,(13, 94),12	133,(16, 94),8	141,(18, 175),36	177,(17, 158),56	
48,(8, 96),4	52,(15, 135),4	56,(15, 93),4	60,(19, 192),4	64,(3, 149),4	68,(15, 200),16	84,(8, 115),4	88,(186, 201),4	92,(73, 201),4	96,(164, 201),4	100,(182, 201),4	106,(11, 122),8	114,(1, 116),32	146,(15, 115),68	214,(110, 201),4	218,(44, 201),4	222,(103, 201),4	226,(169, 201),4	230,(153, 201),4	234,(176, 201),4	238,(92, 201),4	242,(137, 201),4	246,(179, 201),4	250,(55, 201),4	254,(131, 201),4	258,(48, 201),4	262,(24, 201),4	266,(190, 201),4	270,(78, 201),4	274,(119, 201),4	278,(136, 201),4	282,(36, 201),4	286,(183, 201),4	290,(130, 201),4	294,(166, 201),4	298,(163, 201),4	302,(174, 201),4	306,(23, 201),4	310,(112, 201),4	314,(154, 201),4	318,(185, 201),4	322,(142, 201),4	326,(54, 201),4	330,(66, 201),4	334,(86, 201),4	338,(60, 201),4	342,(97, 201),4	346,(52, 201),4	350,(125, 201),4	354,(109, 201),4	358,(68, 201),4	362,(188, 201),4	366,(82, 201),4	370,(77, 201),4	374,(34, 201),4	378,(88, 201),4	382,(81, 201),4	386,(121, 201),4	390,(87, 201),4	394,(45, 201),4	398,(165, 201),4	402,(84, 201),4	406,(63, 201),4	410,(89, 201),4	414,(155, 201),4	418,(57, 201),4	422,(74, 201),4	426,(30, 201),4	430,(94, 201),4	434,(175, 201),4	438,(158, 201),4	
