2857
# CPU
0,0,1	1,16,1	2,61,1	3,39,1	4,23,1	5,195,1	6,95,1	7,98,1	8,9,1	9,47,1	10,38,1	11,139,1	12,10,1	13,105,1	14,22,1	15,191,1	16,163,1	17,2,1	18,24,1	19,115,1	20,157,1	21,113,1	22,17,1	23,198,1	24,137,1	25,188,1	26,6,1	27,75,1	28,172,1	29,102,1	30,90,1	31,56,1	32,93,1	33,174,1	34,25,1	35,1,1	36,168,1	37,21,1	38,134,1	39,28,1	40,52,1	41,116,1	42,171,1	43,67,1	44,193,1	45,41,1	46,7,1	47,71,1	48,103,1	49,60,1	50,185,1	51,178,1	52,170,1	53,196,1	54,192,1	55,44,1	56,125,1	57,110,1	58,85,1	59,106,1	60,5,1	61,147,1	62,53,1	63,189,1	64,100,1	65,141,1	66,164,1	67,18,1	68,135,1	69,184,1	70,179,1	71,86,1	72,122,1	73,104,1	74,194,1	75,143,1	76,107,1	77,43,1	78,13,1	79,69,1	80,83,1	81,120,1	82,132,1	83,46,1	84,4,1	85,199,1	86,131,1	87,92,1	88,74,1	89,33,1	90,140,1	91,136,1	92,151,1	93,133,1	94,154,1	95,27,1	96,165,1	97,182,1	98,183,1	99,12,1	100,180,1	101,48,1	102,31,1	103,173,1	104,117,1	105,161,1	106,35,1	107,29,1	108,152,1	109,175,1	110,30,1	111,129,1	112,45,1	113,8,1	114,88,1	115,124,1	116,111,1	117,148,1	118,49,1	119,200,1	120,99,1	121,97,1	122,34,1	123,76,1	124,42,1	125,101,1	126,177,1	127,73,1	128,14,1	129,145,1	130,37,1	131,84,1	132,144,1	133,64,1	134,82,1	135,197,1	139,156,1	143,159,1	147,190,1	151,80,1	159,153,1	167,186,1	179,108,1	191,55,1	203,181,1	219,65,1	235,58,1	251,91,1	271,123,1	291,77,1	311,26,1	331,158,1	351,142,1	375,54,1	403,57,1	431,138,1	459,62,1	491,176,1	531,63,1	575,114,1	623,146,1	671,36,1	735,81,1	823,70,1	1039,187,1	1671,78,1	2855,66,1	2856,201,1	
17,20,1	18,127,1	19,87,1	20,96,1	21,162,1	33,19,1	34,166,1	35,50,1	36,119,1	37,72,1	38,128,1	41,126,1	57,3,1	58,51,1	59,68,1	60,94,1	61,130,1	62,169,1	63,150,1	64,160,1	73,11,1	74,112,1	75,118,1	76,155,1	77,40,1	78,79,1	81,121,1	85,89,1	89,167,1	93,32,1	109,15,1	110,149,1	111,109,1	112,59,1	
# Incoming
19,(127, 201),4	23,(87, 201),4	27,(96, 201),4	31,(162, 201),4	35,(166, 201),4	39,(50, 201),4	43,(119, 201),4	47,(72, 201),4	51,(128, 201),4	55,(126, 201),4	59,(51, 201),4	63,(68, 201),4	67,(94, 201),4	71,(130, 201),4	75,(169, 201),4	79,(150, 201),4	83,(160, 201),4	87,(112, 201),4	91,(118, 201),4	95,(155, 201),4	99,(40, 201),4	103,(79, 201),4	107,(121, 201),4	111,(89, 201),4	115,(167, 201),4	119,(32, 201),4	123,(149, 201),4	127,(109, 201),4	131,(59, 201),4	135,(11, 156),4	139,(11, 159),4	143,(3, 190),4	147,(11, 80),4	151,(15, 153),8	159,(11, 186),8	167,(11, 108),12	179,(20, 55),12	191,(19, 181),4	195,(3, 181),8	203,(19, 65),16	219,(15, 58),16	235,(15, 91),16	251,(11, 123),20	271,(15, 77),20	291,(15, 26),20	311,(11, 158),20	331,(11, 142),20	351,(15, 54),24	375,(19, 57),28	403,(3, 138),28	431,(15, 62),28	459,(20, 176),28	487,(19, 176),4	491,(20, 63),40	531,(15, 114),44	575,(19, 146),48	623,(3, 36),48	671,(19, 81),64	735,(15, 70),88	823,(11, 187),204	1027,(15, 187),12	1039,(11, 78),632	1671,(15, 66),1184	
1,(0, 20),16	17,(0, 19),16	33,(6, 128),4	37,(16, 126),4	41,(0, 3),16	57,(0, 11),16	73,(6, 79),4	77,(18, 121),4	81,(6, 89),4	85,(16, 167),4	89,(17, 32),4	93,(0, 15),16	
# Outgoing
1,(0, 20),16	17,(0, 19),16	33,(6, 128),4	37,(16, 126),4	41,(0, 3),16	57,(0, 11),16	73,(6, 79),4	77,(18, 121),4	81,(6, 89),4	85,(16, 167),4	89,(17, 32),4	93,(0, 15),16	
19,(127, 201),4	23,(87, 201),4	27,(96, 201),4	31,(162, 201),4	35,(166, 201),4	39,(50, 201),4	43,(119, 201),4	47,(72, 201),4	51,(128, 201),4	55,(126, 201),4	59,(51, 201),4	63,(68, 201),4	67,(94, 201),4	71,(130, 201),4	75,(169, 201),4	79,(150, 201),4	83,(160, 201),4	87,(112, 201),4	91,(118, 201),4	95,(155, 201),4	99,(40, 201),4	103,(79, 201),4	107,(121, 201),4	111,(89, 201),4	115,(167, 201),4	119,(32, 201),4	123,(149, 201),4	127,(109, 201),4	131,(59, 201),4	135,(11, 156),4	139,(11, 159),4	143,(3, 190),4	147,(11, 80),4	151,(15, 153),8	159,(11, 186),8	167,(11, 108),12	179,(20, 55),12	191,(19, 181),4	195,(3, 181),8	203,(19, 65),16	219,(15, 58),16	235,(15, 91),16	251,(11, 123),20	271,(15, 77),20	291,(15, 26),20	311,(11, 158),20	331,(11, 142),20	351,(15, 54),24	375,(19, 57),28	403,(3, 138),28	431,(15, 62),28	459,(20, 176),28	487,(19, 176),4	491,(20, 63),40	531,(15, 114),44	575,(19, 146),48	623,(3, 36),48	671,(19, 81),64	735,(15, 70),88	823,(11, 187),204	1027,(15, 187),12	1039,(11, 78),632	1671,(15, 66),1184	
