3260
# CPU
433,25,21	470,34,21	1442,30,21	1498,36,21	
497,24,21	841,35,21	2906,33,21	2927,39,21	
429,23,21	1270,21,21	1502,38,21	
242,20,21	314,32,21	
2798,18,21	2826,19,21	2886,22,21	
202,17,21	446,28,21	1021,37,21	1742,40,21	2794,15,21	
133,4,21	154,11,21	175,31,21	350,27,21	426,12,21	1422,29,21	3259,41,1	
89,3,21	110,8,21	131,14,21	152,9,21	837,26,21	
45,2,21	66,6,21	1266,16,21	2626,10,21	2790,13,21	
0,0,1	1,1,21	206,5,21	2538,7,21	
# Incoming
429,(1, 25),4	446,(2, 34),24	1422,(3, 30),20	1442,(3, 36),56	
433,(1, 35),56	489,(2, 24),8	837,(2, 35),4	2886,(4, 33),20	2906,(4, 39),8	
381,(1, 23),48	489,(1, 38),152	1266,(3, 21),4	1498,(3, 38),4	
202,(2, 20),40	242,(3, 32),72	
377,(1, 19),4	2794,(4, 18),4	2798,(4, 19),28	2826,(4, 22),60	
134,(2, 15),24	158,(2, 17),44	350,(2, 28),96	470,(2, 40),4	841,(2, 37),180	1502,(3, 40),240	2790,(4, 15),4	
89,(0, 4),44	133,(1, 11),20	153,(1, 12),72	242,(2, 27),108	350,(3, 12),76	426,(17, 41),64	490,(20, 41),64	554,(32, 41),64	641,(5, 41),64	705,(23, 41),64	769,(25, 41),64	833,(28, 41),64	897,(34, 41),64	1021,(6, 41),64	1085,(24, 41),64	1149,(35, 41),64	1270,(3, 29),152	1422,(37, 41),64	1486,(16, 41),64	1550,(21, 41),64	1614,(30, 41),64	1678,(36, 41),64	1742,(8, 41),64	1806,(14, 41),64	1870,(9, 41),64	1934,(26, 41),64	1998,(38, 41),64	2062,(40, 41),64	2559,(7, 41),64	2647,(10, 41),64	2811,(13, 41),64	2875,(15, 41),64	2939,(18, 41),64	3003,(19, 41),64	3067,(22, 41),64	3131,(33, 41),64	3195,(39, 41),64	
45,(0, 3),44	102,(2, 9),32	497,(2, 26),340	
1,(0, 2),44	225,(1, 16),152	426,(3, 16),840	2538,(4, 10),88	2626,(4, 13),164	
66,(2, 5),36	110,(3, 5),4	154,(4, 5),52	206,(4, 7),2332	
# Outgoing
769,(25, 41),64	897,(34, 41),64	1614,(30, 41),64	1678,(36, 41),64	
1085,(24, 41),64	1149,(35, 41),64	3131,(33, 41),64	3195,(39, 41),64	
705,(23, 41),64	1550,(21, 41),64	1998,(38, 41),64	
490,(20, 41),64	554,(32, 41),64	
2939,(18, 41),64	3003,(19, 41),64	3067,(22, 41),64	
426,(17, 41),64	833,(28, 41),64	1422,(37, 41),64	2062,(40, 41),64	2875,(15, 41),64	
154,(4, 5),52	206,(4, 7),2332	2538,(4, 10),88	2626,(4, 13),164	2790,(4, 15),4	2794,(4, 18),4	2798,(4, 19),28	2826,(4, 22),60	2886,(4, 33),20	2906,(4, 39),8	
110,(3, 5),4	242,(3, 32),72	350,(3, 12),76	426,(3, 16),840	1266,(3, 21),4	1270,(3, 29),152	1422,(3, 30),20	1442,(3, 36),56	1498,(3, 38),4	1502,(3, 40),240	1742,(8, 41),64	1806,(14, 41),64	1870,(9, 41),64	1934,(26, 41),64	
66,(2, 5),36	102,(2, 9),32	134,(2, 15),24	158,(2, 17),44	202,(2, 20),40	242,(2, 27),108	350,(2, 28),96	446,(2, 34),24	470,(2, 40),4	489,(2, 24),8	497,(2, 26),340	837,(2, 35),4	841,(2, 37),180	1021,(6, 41),64	1486,(16, 41),64	2647,(10, 41),64	2811,(13, 41),64	
1,(0, 2),44	45,(0, 3),44	89,(0, 4),44	133,(1, 11),20	153,(1, 12),72	225,(1, 16),152	377,(1, 19),4	381,(1, 23),48	429,(1, 25),4	433,(1, 35),56	489,(1, 38),152	641,(5, 41),64	2559,(7, 41),64	
