4380
# CPU
5,3,22	27,6,22	49,9,22	71,12,22	93,30,22	115,38,22	137,87,22	159,119,22	181,16,22	203,36,22	225,80,22	247,23,22	269,44,22	291,62,22	313,111,22	335,74,22	357,59,22	427,70,22	449,103,22	471,25,22	515,34,22	559,64,22	581,79,22	603,95,22	625,83,22	647,97,22	669,93,22	691,105,22	719,109,22	761,19,22	783,21,22	805,32,22	827,52,22	849,77,22	871,78,22	895,28,22	927,42,22	949,46,22	971,48,22	993,55,22	1015,57,22	1037,72,22	1059,81,22	1081,85,22	1103,101,22	1125,117,22	1147,17,22	1169,115,22	1385,68,22	1407,99,22	1429,40,22	1451,50,22	1473,66,22	1495,89,22	1517,91,22	1539,107,22	
3,2,22	25,5,22	47,8,22	69,11,22	91,100,22	113,92,22	135,35,22	157,29,22	179,56,22	201,96,22	223,88,22	245,73,22	273,31,22	295,20,22	317,47,22	339,22,22	361,33,22	383,63,22	405,69,22	427,75,22	593,84,22	615,90,22	695,106,22	751,118,22	773,120,22	987,112,22	1073,18,22	1097,41,22	1135,58,22	1157,82,22	1179,94,22	1201,102,22	1307,108,22	1351,116,22	1377,45,22	1439,71,22	1493,104,22	1515,24,22	1537,37,22	1583,39,22	1605,65,22	1627,67,22	1649,98,22	1671,110,22	1693,15,22	1715,27,22	1737,61,22	1759,86,22	2401,43,22	2523,49,22	2597,51,22	2623,53,22	3339,76,22	4379,121,1	
0,0,1	1,10,22	23,4,22	45,1,22	67,7,22	89,114,22	111,14,22	133,54,22	155,13,22	363,113,22	2085,26,22	3139,60,22	
# Incoming
3,(0, 3),2	7,(0, 6),2	11,(0, 9),2	15,(0, 12),2	25,(2, 21),6	31,(2, 30),6	37,(10, 19),18	55,(10, 23),72	127,(2, 25),16	143,(2, 46),2	145,(10, 40),2	147,(2, 44),16	163,(2, 62),22	185,(2, 64),28	213,(2, 74),26	239,(2, 111),2	241,(5, 32),2	243,(5, 42),14	257,(5, 72),4	261,(5, 74),2	263,(5, 77),2	265,(10, 46),12	277,(5, 64),30	307,(5, 79),2	309,(10, 55),24	347,(10, 59),10	357,(10, 66),2	363,(8, 72),2	365,(8, 99),8	373,(10, 70),12	385,(5, 70),42	427,(8, 103),8	435,(11, 17),8	443,(11, 25),6	449,(11, 28),4	453,(11, 34),62	515,(11, 42),2	517,(11, 64),42	559,(11, 79),6	565,(11, 95),4	571,(10, 83),12	583,(11, 78),16	599,(11, 97),10	609,(10, 93),20	629,(10, 105),4	633,(11, 91),40	673,(11, 105),4	677,(11, 117),6	695,(10, 109),24	719,(11, 107),22	753,(4, 19),8	761,(4, 21),6	767,(4, 32),4	771,(4, 52),4	775,(4, 77),2	777,(4, 78),2	779,(4, 99),30	809,(4, 101),72	881,(1, 28),14	895,(1, 42),32	927,(1, 46),4	931,(1, 48),18	949,(1, 55),8	957,(1, 57),6	963,(1, 72),10	973,(1, 81),4	977,(1, 85),2	979,(1, 101),2	981,(1, 117),4	985,(7, 17),2	987,(11, 115),36	1351,(1, 68),34	1385,(1, 99),16	1401,(7, 40),8	1409,(7, 50),2	1411,(7, 66),12	1423,(7, 89),2	1425,(7, 91),2	1427,(7, 107),2	
1,(0, 2),2	5,(0, 5),2	9,(0, 8),2	13,(0, 11),2	23,(10, 15),14	37,(3, 24),18	55,(3, 37),8	63,(3, 43),2	65,(3, 45),6	71,(3, 47),10	101,(3, 61),4	105,(3, 75),2	107,(3, 118),2	109,(6, 73),2	111,(9, 18),4	127,(10, 31),18	147,(10, 43),118	265,(6, 31),8	273,(9, 20),4	277,(10, 47),28	305,(10, 51),4	309,(9, 22),4	313,(9, 69),4	317,(9, 84),8	325,(9, 106),2	327,(12, 33),2	329,(12, 41),2	331,(12, 43),2	333,(10, 58),14	347,(9, 90),10	357,(12, 63),2	359,(10, 69),14	373,(12, 75),4	377,(12, 86),2	379,(12, 106),4	385,(10, 71),186	583,(10, 84),10	593,(10, 90),16	609,(30, 121),20	633,(10, 106),62	695,(38, 121),20	719,(10, 112),10	729,(10, 118),22	751,(10, 120),2	753,(3, 41),144	897,(3, 104),32	929,(3, 112),58	987,(4, 18),86	1073,(4, 39),6	1079,(4, 41),18	1097,(4, 43),30	1127,(4, 53),6	1133,(4, 58),2	1135,(4, 82),4	1139,(4, 94),14	1153,(4, 102),2	1155,(4, 108),152	1307,(4, 116),44	1351,(6, 45),26	1377,(6, 71),62	1439,(6, 104),54	1493,(1, 24),6	1499,(1, 37),4	1503,(1, 39),80	1583,(1, 65),12	1595,(1, 67),10	1605,(1, 98),2	1607,(1, 110),2	1609,(7, 15),26	1635,(7, 27),2	1637,(7, 61),4	1641,(7, 86),2	1643,(114, 121),20	1663,(14, 121),20	1683,(54, 121),20	1703,(13, 121),20	1723,(113, 121),20	2085,(9, 43),316	2401,(12, 49),122	2523,(12, 51),74	2597,(12, 53),26	2623,(12, 76),716	3339,(87, 121),20	3359,(119, 121),20	3379,(16, 121),20	3399,(36, 121),20	3419,(80, 121),20	3439,(23, 121),20	3459,(44, 121),20	3479,(62, 121),20	3499,(111, 121),20	3519,(74, 121),20	3539,(59, 121),20	3559,(70, 121),20	3579,(103, 121),20	3599,(25, 121),20	3619,(34, 121),20	3639,(64, 121),20	3659,(79, 121),20	3679,(95, 121),20	3699,(83, 121),20	3719,(97, 121),20	3739,(93, 121),20	3759,(105, 121),20	3779,(109, 121),20	3799,(19, 121),20	3819,(21, 121),20	3839,(32, 121),20	3859,(52, 121),20	3879,(77, 121),20	3899,(78, 121),20	3919,(28, 121),20	3939,(42, 121),20	3959,(46, 121),20	3979,(48, 121),20	3999,(55, 121),20	4019,(57, 121),20	4039,(72, 121),20	4059,(81, 121),20	4079,(85, 121),20	4099,(101, 121),20	4119,(117, 121),20	4139,(17, 121),20	4159,(115, 121),20	4179,(68, 121),20	4199,(99, 121),20	4219,(40, 121),20	4239,(50, 121),20	4259,(66, 121),20	4279,(89, 121),20	4299,(91, 121),20	4319,(107, 121),20	4339,(26, 121),20	4359,(60, 121),20	
81,(3, 54),20	101,(5, 13),2	103,(5, 54),6	109,(5, 60),6	115,(6, 13),32	147,(12, 113),8	309,(5, 113),54	1493,(9, 26),592	2085,(11, 60),1054	
# Outgoing
37,(3, 24),18	55,(3, 37),8	63,(3, 43),2	65,(3, 45),6	71,(3, 47),10	81,(3, 54),20	101,(3, 61),4	105,(3, 75),2	107,(3, 118),2	109,(6, 73),2	111,(9, 18),4	115,(6, 13),32	147,(12, 113),8	265,(6, 31),8	273,(9, 20),4	309,(9, 22),4	313,(9, 69),4	317,(9, 84),8	325,(9, 106),2	327,(12, 33),2	329,(12, 41),2	331,(12, 43),2	347,(9, 90),10	357,(12, 63),2	373,(12, 75),4	377,(12, 86),2	379,(12, 106),4	609,(30, 121),20	695,(38, 121),20	753,(3, 41),144	897,(3, 104),32	929,(3, 112),58	1351,(6, 45),26	1377,(6, 71),62	1439,(6, 104),54	1493,(9, 26),592	2085,(9, 43),316	2401,(12, 49),122	2523,(12, 51),74	2597,(12, 53),26	2623,(12, 76),716	3339,(87, 121),20	3359,(119, 121),20	3379,(16, 121),20	3399,(36, 121),20	3419,(80, 121),20	3439,(23, 121),20	3459,(44, 121),20	3479,(62, 121),20	3499,(111, 121),20	3519,(74, 121),20	3539,(59, 121),20	3559,(70, 121),20	3579,(103, 121),20	3599,(25, 121),20	3619,(34, 121),20	3639,(64, 121),20	3659,(79, 121),20	3679,(95, 121),20	3699,(83, 121),20	3719,(97, 121),20	3739,(93, 121),20	3759,(105, 121),20	3779,(109, 121),20	3799,(19, 121),20	3819,(21, 121),20	3839,(32, 121),20	3859,(52, 121),20	3879,(77, 121),20	3899,(78, 121),20	3919,(28, 121),20	3939,(42, 121),20	3959,(46, 121),20	3979,(48, 121),20	3999,(55, 121),20	4019,(57, 121),20	4039,(72, 121),20	4059,(81, 121),20	4079,(85, 121),20	4099,(101, 121),20	4119,(117, 121),20	4139,(17, 121),20	4159,(115, 121),20	4179,(68, 121),20	4199,(99, 121),20	4219,(40, 121),20	4239,(50, 121),20	4259,(66, 121),20	4279,(89, 121),20	4299,(91, 121),20	4319,(107, 121),20	
25,(2, 21),6	31,(2, 30),6	101,(5, 13),2	103,(5, 54),6	109,(5, 60),6	127,(2, 25),16	143,(2, 46),2	147,(2, 44),16	163,(2, 62),22	185,(2, 64),28	213,(2, 74),26	239,(2, 111),2	241,(5, 32),2	243,(5, 42),14	257,(5, 72),4	261,(5, 74),2	263,(5, 77),2	277,(5, 64),30	307,(5, 79),2	309,(5, 113),54	363,(8, 72),2	365,(8, 99),8	385,(5, 70),42	427,(8, 103),8	435,(11, 17),8	443,(11, 25),6	449,(11, 28),4	453,(11, 34),62	515,(11, 42),2	517,(11, 64),42	559,(11, 79),6	565,(11, 95),4	583,(11, 78),16	599,(11, 97),10	633,(11, 91),40	673,(11, 105),4	677,(11, 117),6	719,(11, 107),22	987,(11, 115),36	2085,(11, 60),1054	
1,(0, 2),2	3,(0, 3),2	5,(0, 5),2	7,(0, 6),2	9,(0, 8),2	11,(0, 9),2	13,(0, 11),2	15,(0, 12),2	23,(10, 15),14	37,(10, 19),18	55,(10, 23),72	127,(10, 31),18	145,(10, 40),2	147,(10, 43),118	265,(10, 46),12	277,(10, 47),28	305,(10, 51),4	309,(10, 55),24	333,(10, 58),14	347,(10, 59),10	357,(10, 66),2	359,(10, 69),14	373,(10, 70),12	385,(10, 71),186	571,(10, 83),12	583,(10, 84),10	593,(10, 90),16	609,(10, 93),20	629,(10, 105),4	633,(10, 106),62	695,(10, 109),24	719,(10, 112),10	729,(10, 118),22	751,(10, 120),2	753,(4, 19),8	761,(4, 21),6	767,(4, 32),4	771,(4, 52),4	775,(4, 77),2	777,(4, 78),2	779,(4, 99),30	809,(4, 101),72	881,(1, 28),14	895,(1, 42),32	927,(1, 46),4	931,(1, 48),18	949,(1, 55),8	957,(1, 57),6	963,(1, 72),10	973,(1, 81),4	977,(1, 85),2	979,(1, 101),2	981,(1, 117),4	985,(7, 17),2	987,(4, 18),86	1073,(4, 39),6	1079,(4, 41),18	1097,(4, 43),30	1127,(4, 53),6	1133,(4, 58),2	1135,(4, 82),4	1139,(4, 94),14	1153,(4, 102),2	1155,(4, 108),152	1307,(4, 116),44	1351,(1, 68),34	1385,(1, 99),16	1401,(7, 40),8	1409,(7, 50),2	1411,(7, 66),12	1423,(7, 89),2	1425,(7, 91),2	1427,(7, 107),2	1493,(1, 24),6	1499,(1, 37),4	1503,(1, 39),80	1583,(1, 65),12	1595,(1, 67),10	1605,(1, 98),2	1607,(1, 110),2	1609,(7, 15),26	1635,(7, 27),2	1637,(7, 61),4	1641,(7, 86),2	1643,(114, 121),20	1663,(14, 121),20	1683,(54, 121),20	1703,(13, 121),20	1723,(113, 121),20	4339,(26, 121),20	4359,(60, 121),20	
