1204
# CPU
0,0,1	1,12,8	9,20,8	17,137,8	25,4,8	33,197,8	41,134,8	49,83,8	57,195,8	65,60,8	73,10,8	81,165,8	89,194,8	97,46,8	105,130,8	113,91,8	129,144,8	145,30,8	163,42,8	183,157,8	203,80,8	223,112,8	243,50,8	263,176,8	283,148,8	311,75,8	343,114,8	383,164,8	421,153,8	457,163,8	507,99,8	553,111,8	611,186,8	685,100,8	927,70,8	1195,88,8	1203,201,1	
3,13,8	11,124,8	19,123,8	27,1,8	35,149,8	43,68,8	51,57,8	59,37,8	67,160,8	75,64,8	83,159,8	91,81,8	99,35,8	107,102,8	115,200,8	131,95,8	225,145,8	233,25,8	243,69,8	251,94,8	327,121,8	445,63,8	
5,2,8	13,74,8	21,185,8	29,184,8	37,34,8	45,126,8	53,92,8	61,84,8	69,79,8	77,118,8	85,78,8	177,170,8	187,122,8	319,117,8	469,103,8	
9,18,8	17,120,8	25,36,8	33,7,8	41,93,8	49,89,8	57,143,8	65,113,8	73,26,8	81,109,8	89,23,8	97,146,8	163,171,8	175,107,8	205,174,8	217,140,8	275,105,8	371,98,8	965,138,8	
11,6,8	19,5,8	27,175,8	35,41,8	43,28,8	51,101,8	59,77,8	67,147,8	75,168,8	83,154,8	91,33,8	101,49,8	217,62,8	323,191,8	333,198,8	365,181,8	447,183,8	569,155,8	
13,3,8	23,15,8	31,8,8	39,178,8	47,182,8	55,132,8	63,133,8	71,180,8	79,119,8	87,129,8	95,196,8	103,110,8	111,22,8	119,86,8	151,190,8	201,108,8	211,90,8	261,82,8	277,87,8	287,161,8	309,169,8	351,85,8	389,199,8	597,158,8	681,55,8	
21,19,8	29,21,8	37,135,8	45,187,8	53,72,8	61,167,8	69,47,8	77,131,8	117,166,8	191,128,8	529,44,8	603,97,8	
17,16,8	25,192,8	35,11,8	43,150,8	51,43,8	59,173,8	67,162,8	75,38,8	83,39,8	91,27,8	99,67,8	107,96,8	115,52,8	123,139,8	131,51,8	139,56,8	147,54,8	155,125,8	239,106,8	267,156,8	349,151,8	433,142,8	
17,66,8	25,17,8	33,53,8	41,127,8	49,59,8	57,115,8	65,73,8	73,189,8	81,152,8	89,32,8	141,172,8	215,48,8	297,29,8	429,104,8	521,193,8	667,31,8	
7,14,8	15,9,8	23,116,8	31,188,8	39,58,8	47,177,8	55,179,8	63,65,8	71,136,8	79,40,8	95,71,8	181,61,8	189,24,8	203,76,8	331,45,8	371,141,8	
# Incoming
17,(18, 165),2	19,(124, 201),2	21,(74, 201),2	23,(13, 91),2	25,(120, 201),2	27,(66, 201),2	29,(123, 201),2	31,(185, 201),2	33,(116, 201),2	35,(36, 201),2	37,(192, 201),2	39,(175, 201),2	41,(21, 201),2	43,(184, 201),2	45,(188, 201),2	47,(53, 201),2	49,(149, 201),2	51,(41, 201),2	53,(11, 165),2	55,(135, 201),2	57,(34, 201),2	59,(178, 201),2	61,(58, 201),2	63,(93, 201),2	65,(127, 201),2	67,(150, 201),2	69,(68, 201),2	71,(28, 201),2	73,(187, 201),2	75,(126, 201),2	77,(182, 201),2	79,(177, 201),2	81,(89, 201),2	83,(59, 201),2	85,(43, 201),2	87,(57, 201),2	89,(101, 201),2	91,(72, 201),2	93,(92, 201),2	95,(132, 201),2	97,(179, 201),2	99,(143, 201),2	101,(115, 201),2	103,(173, 201),2	105,(37, 201),2	107,(77, 201),2	109,(167, 201),2	111,(84, 201),2	113,(133, 201),2	115,(65, 201),2	117,(113, 201),2	119,(73, 201),2	121,(162, 201),2	123,(160, 201),2	125,(147, 201),2	127,(1, 144),2	129,(47, 201),2	131,(79, 201),2	133,(180, 201),2	135,(136, 201),2	137,(26, 201),2	139,(189, 201),2	141,(38, 201),2	143,(16, 30),2	145,(64, 201),2	147,(168, 201),2	149,(131, 201),2	151,(118, 201),2	153,(119, 201),2	155,(40, 201),2	157,(109, 201),2	159,(14, 42),4	163,(152, 201),2	165,(159, 201),2	167,(39, 201),2	169,(154, 201),2	171,(78, 201),2	173,(129, 201),2	175,(32, 201),2	177,(16, 157),6	183,(23, 201),2	185,(27, 201),2	187,(81, 201),2	189,(33, 201),2	191,(196, 201),2	193,(71, 201),2	195,(146, 201),2	197,(1, 80),6	203,(67, 201),2	205,(35, 201),2	207,(49, 201),2	209,(110, 201),2	211,(96, 201),2	213,(102, 201),2	215,(22, 201),2	217,(11, 112),6	223,(52, 201),2	225,(200, 201),2	227,(166, 201),2	229,(86, 201),2	231,(139, 201),2	233,(95, 201),2	235,(51, 201),2	237,(5, 50),6	243,(56, 201),2	245,(172, 201),2	247,(54, 201),2	249,(190, 201),2	251,(125, 201),2	253,(171, 201),2	255,(107, 201),2	257,(7, 176),6	263,(170, 201),2	265,(61, 201),2	267,(122, 201),2	269,(24, 201),2	271,(128, 201),2	273,(108, 201),2	275,(76, 201),2	277,(2, 148),6	283,(174, 201),2	285,(90, 201),2	287,(48, 201),2	289,(140, 201),2	291,(62, 201),2	293,(145, 201),2	295,(25, 201),2	297,(3, 75),14	311,(106, 201),2	313,(69, 201),2	315,(94, 201),2	317,(82, 201),2	319,(156, 201),2	321,(105, 201),2	323,(87, 201),2	325,(2, 114),2	327,(3, 114),2	329,(16, 114),14	343,(161, 201),2	345,(29, 201),2	347,(169, 201),2	349,(117, 201),2	351,(191, 201),2	353,(121, 201),2	355,(45, 201),2	357,(6, 164),8	365,(1, 164),6	371,(11, 164),12	383,(198, 201),2	385,(151, 201),2	387,(85, 201),2	389,(181, 201),2	391,(98, 201),2	393,(141, 201),2	395,(18, 153),12	407,(9, 153),10	417,(17, 153),4	421,(199, 201),2	423,(2, 163),2	425,(9, 163),2	427,(5, 163),30	457,(104, 201),2	459,(142, 201),2	461,(63, 201),2	463,(183, 201),2	465,(17, 99),32	497,(8, 99),2	499,(7, 99),8	507,(103, 201),2	509,(17, 111),44	553,(193, 201),2	555,(44, 201),2	557,(2, 186),18	575,(17, 186),32	607,(11, 186),4	611,(155, 201),2	613,(158, 201),2	615,(97, 201),2	617,(18, 100),50	667,(6, 100),16	683,(11, 100),2	685,(31, 201),2	689,(55, 201),2	691,(3, 70),64	755,(9, 70),98	853,(17, 70),74	927,(9, 88),40	967,(16, 88),228	1195,(138, 201),2	
1,(0, 13),2	21,(14, 37),2	25,(0, 1),2	27,(14, 81),2	29,(9, 35),2	33,(3, 81),2	43,(7, 160),2	45,(12, 64),4	49,(17, 35),2	57,(8, 159),2	61,(5, 159),2	65,(18, 63),2	67,(15, 35),2	87,(3, 102),4	91,(11, 102),8	99,(9, 200),14	113,(7, 95),4	117,(6, 69),6	123,(4, 95),8	153,(16, 25),8	161,(5, 94),8	187,(16, 94),12	209,(20, 145),16	225,(20, 25),2	227,(12, 69),16	251,(15, 121),16	319,(10, 121),4	349,(19, 63),40	407,(7, 63),38	
3,(0, 2),2	19,(18, 185),2	21,(3, 184),2	23,(18, 92),2	27,(18, 34),4	33,(17, 34),2	35,(3, 79),2	37,(18, 122),2	41,(7, 126),2	43,(8, 92),2	45,(13, 84),4	49,(4, 84),2	51,(1, 78),2	55,(12, 79),2	59,(16, 79),6	65,(14, 118),12	81,(10, 78),4	85,(17, 122),6	97,(8, 170),8	107,(1, 170),14	135,(11, 103),6	151,(19, 170),26	181,(12, 122),6	191,(6, 117),12	235,(13, 103),12	297,(12, 117),22	347,(17, 103),40	423,(15, 103),32	455,(10, 103),14	
7,(0, 18),2	25,(3, 113),2	27,(3, 23),4	31,(0, 7),2	35,(9, 23),2	39,(8, 93),2	41,(6, 89),2	43,(5, 143),2	45,(19, 23),2	47,(9, 26),6	63,(1, 109),6	69,(8, 146),6	75,(15, 98),2	79,(12, 23),2	81,(9, 146),12	99,(1, 107),2	101,(1, 174),2	105,(11, 140),4	123,(16, 140),12	135,(19, 138),8	151,(12, 171),12	163,(12, 107),12	175,(15, 174),12	193,(15, 140),16	253,(11, 105),22	275,(13, 138),14	333,(9, 138),14	349,(3, 98),22	683,(5, 138),282	
9,(0, 6),2	17,(0, 5),2	25,(14, 33),2	33,(2, 62),2	37,(2, 181),2	39,(20, 77),2	41,(1, 101),2	43,(12, 183),2	45,(15, 33),2	47,(3, 49),2	49,(7, 33),6	55,(11, 147),4	65,(4, 168),4	71,(1, 154),6	77,(13, 33),8	85,(18, 49),10	95,(12, 49),6	101,(2, 198),8	139,(18, 62),14	153,(1, 62),10	203,(10, 62),6	215,(18, 191),32	247,(13, 181),26	287,(9, 198),46	333,(7, 181),12	351,(4, 181),14	365,(14, 183),12	389,(8, 183),24	455,(3, 155),38	529,(10, 155),40	
11,(0, 3),2	19,(14, 132),2	21,(0, 15),2	23,(9, 133),2	29,(0, 8),2	35,(2, 82),2	39,(17, 129),2	41,(12, 133),2	43,(17, 180),4	47,(7, 119),2	49,(5, 119),2	51,(17, 169),2	53,(14, 196),6	59,(7, 22),2	61,(17, 158),4	67,(6, 129),4	71,(7, 110),6	87,(5, 190),2	91,(5, 169),2	93,(19, 190),12	107,(20, 22),4	111,(16, 86),6	117,(16, 169),4	141,(4, 190),10	159,(18, 90),14	177,(17, 108),24	201,(17, 87),28	243,(12, 82),18	261,(12, 161),2	267,(12, 87),10	277,(14, 161),10	297,(13, 169),12	331,(4, 85),20	365,(4, 199),24	463,(1, 158),84	569,(12, 158),28	607,(17, 55),58	667,(20, 55),14	
19,(0, 19),2	21,(13, 47),2	23,(2, 72),2	31,(18, 47),2	35,(1, 135),2	37,(17, 72),2	39,(16, 187),2	41,(8, 167),2	43,(1, 47),2	49,(11, 167),2	51,(16, 128),2	53,(5, 131),8	61,(2, 166),10	77,(7, 166),4	81,(11, 128),2	83,(11, 44),2	93,(5, 44),2	101,(5, 97),2	111,(12, 166),6	117,(9, 128),10	127,(6, 128),14	141,(9, 97),4	147,(1, 128),6	163,(14, 128),20	187,(20, 128),4	217,(8, 44),8	239,(14, 44),10	263,(18, 44),12	317,(1, 44),28	433,(12, 97),12	469,(10, 44),60	529,(15, 97),24	553,(7, 97),50	
15,(0, 16),2	25,(2, 67),4	31,(9, 52),2	33,(0, 11),2	37,(15, 39),2	39,(18, 106),2	41,(17, 67),2	43,(19, 162),2	45,(5, 38),2	53,(1, 56),2	55,(7, 51),4	61,(3, 56),2	63,(5, 39),2	65,(19, 54),8	73,(6, 27),4	77,(6, 51),10	89,(13, 52),8	97,(13, 54),2	99,(5, 151),2	101,(10, 96),6	107,(7, 125),2	109,(5, 54),8	117,(20, 139),6	123,(8, 56),10	133,(13, 125),8	141,(3, 125),6	147,(15, 125),6	169,(8, 142),2	173,(7, 106),8	195,(9, 106),44	243,(6, 156),22	265,(4, 156),2	273,(19, 151),76	349,(7, 142),16	389,(4, 142),44	
15,(14, 66),2	17,(14, 127),2	21,(18, 115),2	23,(0, 17),2	27,(13, 193),2	29,(2, 172),2	33,(18, 172),2	35,(12, 127),2	37,(20, 127),2	39,(1, 59),2	41,(9, 31),2	43,(11, 59),2	45,(7, 115),2	47,(5, 73),2	49,(19, 73),2	51,(4, 73),4	55,(13, 189),8	63,(15, 189),4	69,(11, 152),12	85,(10, 32),4	93,(14, 193),4	115,(15, 193),4	131,(12, 172),10	149,(5, 193),8	167,(13, 29),6	173,(13, 31),8	197,(7, 48),18	263,(20, 193),2	277,(4, 29),20	371,(13, 104),58	465,(6, 193),56	597,(10, 31),70	
5,(0, 14),2	13,(0, 9),2	23,(3, 177),2	25,(13, 71),2	27,(20, 188),2	31,(15, 179),2	35,(17, 179),2	37,(1, 58),2	45,(11, 179),4	49,(8, 65),8	57,(12, 136),8	65,(6, 136),2	67,(7, 71),2	69,(20, 40),10	79,(8, 71),8	89,(4, 71),6	95,(6, 24),2	97,(6, 45),2	99,(11, 45),4	105,(3, 45),6	111,(19, 24),6	119,(18, 61),18	145,(16, 76),8	155,(15, 24),14	175,(10, 61),6	191,(12, 76),12	203,(2, 141),12	247,(17, 45),36	283,(11, 141),28	323,(12, 45),8	
# Outgoing
1,(0, 13),2	3,(0, 2),2	5,(0, 14),2	7,(0, 18),2	9,(0, 6),2	11,(0, 3),2	13,(0, 9),2	15,(0, 16),2	17,(0, 5),2	19,(0, 19),2	21,(0, 15),2	23,(0, 17),2	25,(0, 1),2	27,(20, 188),2	29,(0, 8),2	31,(0, 7),2	33,(0, 11),2	35,(12, 127),2	37,(20, 127),2	39,(20, 77),2	41,(12, 133),2	43,(12, 183),2	45,(12, 64),4	49,(4, 84),2	51,(4, 73),4	55,(12, 79),2	57,(12, 136),8	65,(4, 168),4	69,(20, 40),10	79,(12, 23),2	81,(10, 78),4	85,(10, 32),4	89,(4, 71),6	95,(12, 49),6	101,(10, 96),6	107,(20, 22),4	111,(12, 166),6	117,(20, 139),6	123,(4, 95),8	131,(12, 172),10	141,(4, 190),10	151,(12, 171),12	163,(12, 107),12	175,(10, 61),6	181,(12, 122),6	187,(20, 128),4	191,(12, 76),12	203,(10, 62),6	209,(20, 145),16	225,(20, 25),2	227,(12, 69),16	243,(12, 82),18	261,(12, 161),2	263,(20, 193),2	265,(4, 156),2	267,(12, 87),10	277,(4, 29),20	297,(12, 117),22	319,(10, 121),4	323,(12, 45),8	331,(4, 85),20	351,(4, 181),14	365,(4, 199),24	389,(4, 142),44	433,(12, 97),12	455,(10, 103),14	469,(10, 44),60	529,(10, 155),40	569,(12, 158),28	597,(10, 31),70	667,(20, 55),14	
19,(124, 201),2	21,(13, 47),2	23,(13, 91),2	25,(13, 71),2	27,(13, 193),2	29,(123, 201),2	35,(1, 135),2	37,(1, 58),2	39,(1, 59),2	41,(1, 101),2	43,(1, 47),2	45,(13, 84),4	49,(149, 201),2	51,(1, 78),2	53,(1, 56),2	55,(13, 189),8	63,(1, 109),6	69,(68, 201),2	71,(1, 154),6	77,(13, 33),8	87,(57, 201),2	89,(13, 52),8	97,(13, 54),2	99,(1, 107),2	101,(1, 174),2	105,(37, 201),2	107,(1, 170),14	123,(160, 201),2	127,(1, 144),2	133,(13, 125),8	145,(64, 201),2	147,(1, 128),6	153,(1, 62),10	165,(159, 201),2	167,(13, 29),6	173,(13, 31),8	187,(81, 201),2	197,(1, 80),6	205,(35, 201),2	213,(102, 201),2	225,(200, 201),2	233,(95, 201),2	235,(13, 103),12	247,(13, 181),26	275,(13, 138),14	293,(145, 201),2	295,(25, 201),2	297,(13, 169),12	313,(69, 201),2	315,(94, 201),2	317,(1, 44),28	353,(121, 201),2	365,(1, 164),6	371,(13, 104),58	461,(63, 201),2	463,(1, 158),84	
21,(74, 201),2	23,(2, 72),2	25,(2, 67),4	29,(2, 172),2	31,(185, 201),2	33,(2, 62),2	35,(2, 82),2	37,(2, 181),2	43,(184, 201),2	57,(34, 201),2	61,(2, 166),10	75,(126, 201),2	93,(92, 201),2	101,(2, 198),8	111,(84, 201),2	131,(79, 201),2	151,(118, 201),2	171,(78, 201),2	203,(2, 141),12	263,(170, 201),2	267,(122, 201),2	277,(2, 148),6	325,(2, 114),2	349,(117, 201),2	423,(2, 163),2	507,(103, 201),2	557,(2, 186),18	
17,(18, 165),2	19,(18, 185),2	21,(18, 115),2	23,(18, 92),2	25,(120, 201),2	27,(18, 34),4	31,(18, 47),2	33,(18, 172),2	35,(36, 201),2	37,(18, 122),2	39,(18, 106),2	41,(7, 126),2	43,(7, 160),2	45,(7, 115),2	47,(7, 119),2	49,(7, 33),6	55,(7, 51),4	59,(7, 22),2	63,(93, 201),2	65,(18, 63),2	67,(7, 71),2	71,(7, 110),6	77,(7, 166),4	81,(89, 201),2	85,(18, 49),10	99,(143, 201),2	107,(7, 125),2	113,(7, 95),4	117,(113, 201),2	119,(18, 61),18	137,(26, 201),2	139,(18, 62),14	157,(109, 201),2	159,(18, 90),14	173,(7, 106),8	183,(23, 201),2	195,(146, 201),2	197,(7, 48),18	215,(18, 191),32	253,(171, 201),2	255,(107, 201),2	257,(7, 176),6	263,(18, 44),12	283,(174, 201),2	289,(140, 201),2	321,(105, 201),2	333,(7, 181),12	349,(7, 142),16	391,(98, 201),2	395,(18, 153),12	407,(7, 63),38	499,(7, 99),8	553,(7, 97),50	617,(18, 100),50	1195,(138, 201),2	
39,(175, 201),2	41,(6, 89),2	43,(5, 143),2	45,(5, 38),2	47,(5, 73),2	49,(5, 119),2	51,(41, 201),2	53,(5, 131),8	61,(5, 159),2	63,(5, 39),2	65,(6, 136),2	67,(6, 129),4	71,(28, 201),2	73,(6, 27),4	77,(6, 51),10	87,(5, 190),2	89,(101, 201),2	91,(5, 169),2	93,(5, 44),2	95,(6, 24),2	97,(6, 45),2	99,(5, 151),2	101,(5, 97),2	107,(77, 201),2	109,(5, 54),8	117,(6, 69),6	125,(147, 201),2	127,(6, 128),14	147,(168, 201),2	149,(5, 193),8	161,(5, 94),8	169,(154, 201),2	189,(33, 201),2	191,(6, 117),12	207,(49, 201),2	237,(5, 50),6	243,(6, 156),22	291,(62, 201),2	351,(191, 201),2	357,(6, 164),8	383,(198, 201),2	389,(181, 201),2	427,(5, 163),30	463,(183, 201),2	465,(6, 193),56	611,(155, 201),2	667,(6, 100),16	683,(5, 138),282	
21,(3, 184),2	23,(3, 177),2	25,(3, 113),2	27,(3, 23),4	31,(15, 179),2	33,(3, 81),2	35,(3, 79),2	37,(15, 39),2	39,(8, 93),2	41,(8, 167),2	43,(8, 92),2	45,(15, 33),2	47,(3, 49),2	49,(8, 65),8	57,(8, 159),2	59,(178, 201),2	61,(3, 56),2	63,(15, 189),4	67,(15, 35),2	69,(8, 146),6	75,(15, 98),2	77,(182, 201),2	79,(8, 71),8	87,(3, 102),4	95,(132, 201),2	97,(8, 170),8	105,(3, 45),6	113,(133, 201),2	115,(15, 193),4	123,(8, 56),10	133,(180, 201),2	141,(3, 125),6	147,(15, 125),6	153,(119, 201),2	155,(15, 24),14	169,(8, 142),2	173,(129, 201),2	175,(15, 174),12	191,(196, 201),2	193,(15, 140),16	209,(110, 201),2	215,(22, 201),2	217,(8, 44),8	229,(86, 201),2	249,(190, 201),2	251,(15, 121),16	273,(108, 201),2	285,(90, 201),2	297,(3, 75),14	317,(82, 201),2	323,(87, 201),2	327,(3, 114),2	343,(161, 201),2	347,(169, 201),2	349,(3, 98),22	387,(85, 201),2	389,(8, 183),24	421,(199, 201),2	423,(15, 103),32	455,(3, 155),38	497,(8, 99),2	529,(15, 97),24	613,(158, 201),2	689,(55, 201),2	691,(3, 70),64	
41,(21, 201),2	43,(19, 162),2	45,(19, 23),2	49,(19, 73),2	55,(135, 201),2	65,(19, 54),8	73,(187, 201),2	91,(72, 201),2	93,(19, 190),12	109,(167, 201),2	111,(19, 24),6	129,(47, 201),2	135,(19, 138),8	149,(131, 201),2	151,(19, 170),26	227,(166, 201),2	271,(128, 201),2	273,(19, 151),76	349,(19, 63),40	555,(44, 201),2	615,(97, 201),2	
37,(192, 201),2	39,(16, 187),2	43,(11, 59),2	45,(11, 179),4	49,(11, 167),2	51,(16, 128),2	53,(11, 165),2	55,(11, 147),4	59,(16, 79),6	67,(150, 201),2	69,(11, 152),12	81,(11, 128),2	83,(11, 44),2	85,(43, 201),2	91,(11, 102),8	99,(11, 45),4	103,(173, 201),2	105,(11, 140),4	111,(16, 86),6	117,(16, 169),4	121,(162, 201),2	123,(16, 140),12	135,(11, 103),6	141,(38, 201),2	143,(16, 30),2	145,(16, 76),8	153,(16, 25),8	167,(39, 201),2	177,(16, 157),6	185,(27, 201),2	187,(16, 94),12	203,(67, 201),2	211,(96, 201),2	217,(11, 112),6	223,(52, 201),2	231,(139, 201),2	235,(51, 201),2	243,(56, 201),2	247,(54, 201),2	251,(125, 201),2	253,(11, 105),22	283,(11, 141),28	311,(106, 201),2	319,(156, 201),2	329,(16, 114),14	371,(11, 164),12	385,(151, 201),2	459,(142, 201),2	607,(11, 186),4	683,(11, 100),2	967,(16, 88),228	
27,(66, 201),2	33,(17, 34),2	35,(17, 179),2	37,(17, 72),2	39,(17, 129),2	41,(17, 67),2	43,(17, 180),4	47,(53, 201),2	49,(17, 35),2	51,(17, 169),2	61,(17, 158),4	65,(127, 201),2	83,(59, 201),2	85,(17, 122),6	101,(115, 201),2	119,(73, 201),2	139,(189, 201),2	163,(152, 201),2	175,(32, 201),2	177,(17, 108),24	201,(17, 87),28	245,(172, 201),2	247,(17, 45),36	287,(48, 201),2	345,(29, 201),2	347,(17, 103),40	417,(17, 153),4	457,(104, 201),2	465,(17, 99),32	509,(17, 111),44	553,(193, 201),2	575,(17, 186),32	607,(17, 55),58	685,(31, 201),2	853,(17, 70),74	
15,(14, 66),2	17,(14, 127),2	19,(14, 132),2	21,(14, 37),2	23,(9, 133),2	25,(14, 33),2	27,(14, 81),2	29,(9, 35),2	31,(9, 52),2	33,(116, 201),2	35,(9, 23),2	41,(9, 31),2	45,(188, 201),2	47,(9, 26),6	53,(14, 196),6	61,(58, 201),2	65,(14, 118),12	79,(177, 201),2	81,(9, 146),12	93,(14, 193),4	97,(179, 201),2	99,(9, 200),14	115,(65, 201),2	117,(9, 128),10	135,(136, 201),2	141,(9, 97),4	155,(40, 201),2	159,(14, 42),4	163,(14, 128),20	193,(71, 201),2	195,(9, 106),44	239,(14, 44),10	265,(61, 201),2	269,(24, 201),2	275,(76, 201),2	277,(14, 161),10	287,(9, 198),46	333,(9, 138),14	355,(45, 201),2	365,(14, 183),12	393,(141, 201),2	407,(9, 153),10	425,(9, 163),2	755,(9, 70),98	927,(9, 88),40	
