440
# CPU
193,12,4	235,15,4	277,18,4	349,20,4	
121,8,4	133,10,4	137,14,4	141,17,4	322,19,4	
91,7,4	100,9,4	178,11,4	439,21,1	
16,2,4	20,5,4	67,6,4	232,13,4	
0,0,1	1,1,4	5,3,4	71,4,4	259,16,4	
# Incoming
142,(1, 12),36	178,(2, 12),15	193,(2, 15),3	232,(1, 15),3	259,(2, 18),18	322,(2, 20),27	
88,(1, 10),30	118,(2, 8),3	121,(2, 10),12	133,(2, 14),3	136,(2, 17),3	235,(1, 19),51	286,(2, 19),36	
67,(1, 7),9	76,(1, 9),12	88,(2, 7),3	91,(2, 9),9	100,(5, 21),18	118,(1, 11),24	142,(2, 11),36	178,(8, 21),18	196,(10, 21),18	214,(14, 21),18	232,(17, 21),18	250,(12, 21),18	268,(15, 21),18	286,(3, 21),18	304,(4, 21),18	322,(16, 21),18	349,(6, 21),18	367,(13, 21),18	385,(18, 21),18	403,(19, 21),18	421,(20, 21),18	
1,(0, 2),15	16,(1, 5),3	19,(1, 6),48	178,(1, 13),54	
20,(2, 4),51	196,(2, 16),63	
# Outgoing
250,(12, 21),18	268,(15, 21),18	385,(18, 21),18	421,(20, 21),18	
178,(8, 21),18	196,(10, 21),18	214,(14, 21),18	232,(17, 21),18	403,(19, 21),18	

20,(2, 4),51	88,(2, 7),3	91,(2, 9),9	100,(5, 21),18	118,(2, 8),3	121,(2, 10),12	133,(2, 14),3	136,(2, 17),3	142,(2, 11),36	178,(2, 12),15	193,(2, 15),3	196,(2, 16),63	259,(2, 18),18	286,(2, 19),36	322,(2, 20),27	349,(6, 21),18	367,(13, 21),18	
1,(0, 2),15	16,(1, 5),3	19,(1, 6),48	67,(1, 7),9	76,(1, 9),12	88,(1, 10),30	118,(1, 11),24	142,(1, 12),36	178,(1, 13),54	232,(1, 15),3	235,(1, 19),51	286,(3, 21),18	304,(4, 21),18	322,(16, 21),18	
