1064
# CPU
15,16,12	41,18,12	53,14,12	65,27,12	77,21,12	123,38,12	155,24,12	167,30,12	319,35,12	
7,4,12	19,12,12	31,17,12	43,34,12	55,29,12	67,37,12	79,20,12	97,23,12	109,40,12	121,26,12	133,13,12	
5,3,12	17,22,12	41,11,12	53,19,12	65,7,12	85,33,12	107,25,12	125,39,12	157,28,12	169,36,12	1063,41,1	
3,2,12	15,32,12	27,6,12	73,10,12	151,15,12	
0,0,1	1,1,12	13,8,12	25,5,12	315,31,12	391,9,12	
# Incoming
13,(1, 16),2	15,(1, 18),26	41,(2, 14),12	53,(2, 27),2	55,(2, 30),4	59,(3, 21),14	85,(2, 35),4	109,(1, 38),14	151,(4, 24),4	157,(4, 30),10	315,(3, 35),4	
5,(0, 4),2	21,(3, 29),4	25,(3, 37),2	51,(1, 20),14	65,(1, 23),32	97,(2, 40),2	107,(1, 26),2	109,(2, 13),14	
3,(0, 3),2	15,(2, 11),26	41,(1, 19),10	51,(4, 7),2	59,(2, 33),26	97,(1, 25),10	123,(1, 39),2	155,(4, 28),2	167,(4, 36),2	169,(8, 41),32	201,(16, 41),32	233,(32, 41),32	265,(12, 41),32	297,(5, 41),32	329,(6, 41),32	391,(17, 41),32	423,(18, 41),32	455,(34, 41),32	487,(14, 41),32	519,(29, 41),32	551,(27, 41),32	583,(37, 41),32	615,(10, 41),32	647,(21, 41),32	679,(20, 41),32	711,(23, 41),32	743,(40, 41),32	775,(26, 41),32	807,(38, 41),32	839,(13, 41),32	871,(15, 41),32	903,(24, 41),32	935,(30, 41),32	967,(31, 41),32	999,(35, 41),32	1031,(9, 41),32	
1,(0, 2),2	19,(3, 6),2	53,(4, 10),20	73,(4, 15),78	
17,(3, 5),2	73,(3, 31),242	315,(4, 9),76	
# Outgoing
201,(16, 41),32	423,(18, 41),32	487,(14, 41),32	551,(27, 41),32	647,(21, 41),32	807,(38, 41),32	903,(24, 41),32	935,(30, 41),32	999,(35, 41),32	
51,(4, 7),2	53,(4, 10),20	73,(4, 15),78	151,(4, 24),4	155,(4, 28),2	157,(4, 30),10	167,(4, 36),2	265,(12, 41),32	315,(4, 9),76	391,(17, 41),32	455,(34, 41),32	519,(29, 41),32	583,(37, 41),32	679,(20, 41),32	711,(23, 41),32	743,(40, 41),32	775,(26, 41),32	839,(13, 41),32	
17,(3, 5),2	19,(3, 6),2	21,(3, 29),4	25,(3, 37),2	59,(3, 21),14	73,(3, 31),242	315,(3, 35),4	
15,(2, 11),26	41,(2, 14),12	53,(2, 27),2	55,(2, 30),4	59,(2, 33),26	85,(2, 35),4	97,(2, 40),2	109,(2, 13),14	233,(32, 41),32	329,(6, 41),32	615,(10, 41),32	871,(15, 41),32	
1,(0, 2),2	3,(0, 3),2	5,(0, 4),2	13,(1, 16),2	15,(1, 18),26	41,(1, 19),10	51,(1, 20),14	65,(1, 23),32	97,(1, 25),10	107,(1, 26),2	109,(1, 38),14	123,(1, 39),2	169,(8, 41),32	297,(5, 41),32	967,(31, 41),32	1031,(9, 41),32	
