115
# CPU
0,21,1	1,4,1	2,11,1	3,16,1	4,6,1	5,19,1	6,17,1	7,18,1	8,3,1	9,9,1	10,12,1	11,13,1	12,15,1	13,5,1	14,8,1	15,20,1	16,1,1	113,2,1	114,0,1	
4,7,1	7,14,1	10,10,1	


# Incoming
5,(7, 2),9	14,(14, 2),24	38,(10, 2),75	
1,(21, 7),3	4,(21, 14),3	7,(21, 10),3	


# Outgoing
1,(21, 7),3	4,(21, 14),3	7,(21, 10),3	
5,(7, 2),9	14,(14, 2),24	38,(10, 2),75	


