71
# CPU
0,21,1	1,4,3	4,18,3	7,7,3	10,9,3	13,12,3	16,14,3	19,5,3	22,20,3	25,16,3	28,10,3	31,17,3	34,19,3	37,6,3	40,11,3	43,3,3	46,1,3	49,8,3	52,15,3	67,2,3	70,0,1	



37,13,3	
# Incoming
40,(13, 2),27	



1,(21, 13),36	
# Outgoing
1,(21, 13),36	



40,(13, 2),27	
