327
# CPU
7,2,1	8,18,1	9,20,1	10,4,1	21,6,1	33,8,1	43,10,1	75,12,1	77,14,1	79,16,1	
0,0,1	1,1,1	2,3,1	3,9,1	4,17,1	5,5,1	6,11,1	10,7,1	22,13,1	42,15,1	182,19,1	326,21,1	
# Incoming
1,(0, 2),6	7,(1, 4),2	9,(1, 6),12	21,(1, 8),12	33,(1, 10),10	43,(1, 12),32	75,(1, 14),2	77,(1, 16),2	
8,(2, 7),2	10,(2, 13),12	22,(2, 15),20	42,(2, 19),140	182,(18, 21),16	198,(20, 21),16	214,(4, 21),16	230,(6, 21),16	246,(8, 21),16	262,(10, 21),16	278,(12, 21),16	294,(14, 21),16	310,(16, 21),16	
# Outgoing
8,(2, 7),2	10,(2, 13),12	22,(2, 15),20	42,(2, 19),140	182,(18, 21),16	198,(20, 21),16	214,(4, 21),16	230,(6, 21),16	246,(8, 21),16	262,(10, 21),16	278,(12, 21),16	294,(14, 21),16	310,(16, 21),16	
1,(0, 2),6	7,(1, 4),2	9,(1, 6),12	21,(1, 8),12	33,(1, 10),10	43,(1, 12),32	75,(1, 14),2	77,(1, 16),2	
