196
# CPU
0,121,1	1,32,1	2,117,1	3,87,1	4,30,1	5,114,1	6,57,1	7,24,1	8,47,1	9,96,1	10,28,1	11,70,1	12,56,1	13,26,1	14,107,1	15,67,1	16,15,1	17,75,1	18,72,1	19,23,1	20,99,1	21,61,1	22,54,1	23,104,1	24,41,1	25,103,1	26,35,1	27,34,1	28,113,1	29,97,1	30,66,1	31,93,1	32,42,1	33,92,1	34,38,1	35,102,1	36,36,1	37,14,1	38,58,1	39,16,1	40,55,1	41,69,1	42,21,1	43,25,1	44,81,1	45,22,1	46,73,1	47,86,1	48,63,1	49,18,1	50,19,1	51,20,1	52,65,1	53,33,1	54,53,1	55,88,1	56,90,1	57,94,1	58,68,1	59,77,1	60,84,1	61,51,1	62,82,1	63,13,1	64,49,1	65,116,1	66,111,1	67,44,1	68,60,1	69,50,1	70,95,1	71,119,1	72,43,1	73,27,1	74,112,1	75,71,1	76,120,1	77,85,1	78,110,1	79,106,1	80,79,1	81,64,1	82,62,1	83,83,1	84,76,1	85,108,1	86,9,1	87,59,1	88,29,1	89,46,1	90,78,1	91,3,1	92,100,1	93,40,1	94,89,1	95,45,1	96,11,1	97,39,1	98,37,1	99,1,1	100,118,1	101,12,1	102,17,1	103,101,1	104,10,1	105,52,1	106,48,1	107,74,1	108,109,1	109,91,1	110,4,1	111,98,1	112,2,1	113,115,1	114,7,1	115,5,1	116,6,1	194,8,1	195,0,1	

103,31,1	

35,80,1	




69,105,1	
# Incoming
36,(80, 5),6	70,(105, 6),20	104,(31, 8),90	

69,(121, 31),34	

1,(121, 80),34	




35,(121, 105),34	
# Outgoing
1,(121, 80),34	35,(121, 105),34	69,(121, 31),34	

104,(31, 8),90	

36,(80, 5),6	




70,(105, 6),20	
