252
# CPU
0,0,1	1,3,2	3,12,2	5,36,2	7,35,2	9,16,2	11,18,2	13,17,2	15,37,2	17,11,2	19,34,2	21,39,2	27,9,2	59,8,2	251,41,1	
5,4,2	7,6,2	9,38,2	11,27,2	13,7,2	15,21,2	19,25,2	43,14,2	
9,2,2	11,26,2	13,5,2	15,31,2	17,30,2	19,24,2	21,33,2	23,32,2	39,40,2	
11,10,2	15,1,2	17,23,2	19,29,2	21,20,2	23,15,2	31,22,2	39,13,2	51,19,2	79,28,2	
# Incoming
17,(1, 39),4	23,(2, 9),4	39,(1, 8),20	59,(6, 41),8	67,(38, 41),8	75,(27, 41),8	83,(26, 41),8	91,(10, 41),8	99,(5, 41),8	107,(7, 41),8	115,(31, 41),8	123,(21, 41),8	131,(23, 41),8	139,(30, 41),8	147,(29, 41),8	155,(24, 41),8	163,(25, 41),8	171,(33, 41),8	179,(20, 41),8	187,(32, 41),8	195,(15, 41),8	203,(22, 41),8	211,(13, 41),8	219,(40, 41),8	227,(14, 41),8	235,(19, 41),8	243,(28, 41),8	
1,(0, 4),4	15,(3, 25),4	27,(2, 14),16	
5,(0, 2),4	11,(4, 32),8	19,(4, 40),12	31,(1, 40),8	
7,(4, 10),4	11,(0, 1),4	15,(2, 15),8	23,(3, 22),8	31,(4, 13),8	39,(3, 19),12	51,(3, 28),28	
# Outgoing
1,(0, 4),4	5,(0, 2),4	11,(0, 1),4	15,(3, 25),4	23,(3, 22),8	39,(3, 19),12	51,(3, 28),28	
7,(4, 10),4	11,(4, 32),8	19,(4, 40),12	31,(4, 13),8	59,(6, 41),8	67,(38, 41),8	75,(27, 41),8	107,(7, 41),8	123,(21, 41),8	163,(25, 41),8	227,(14, 41),8	
15,(2, 15),8	23,(2, 9),4	27,(2, 14),16	83,(26, 41),8	99,(5, 41),8	115,(31, 41),8	139,(30, 41),8	155,(24, 41),8	171,(33, 41),8	187,(32, 41),8	219,(40, 41),8	
17,(1, 39),4	31,(1, 40),8	39,(1, 8),20	91,(10, 41),8	131,(23, 41),8	147,(29, 41),8	179,(20, 41),8	195,(15, 41),8	203,(22, 41),8	211,(13, 41),8	235,(19, 41),8	243,(28, 41),8	
