1544
# CPU
41,3,1	42,32,1	43,42,1	44,46,1	45,64,1	46,70,1	54,30,1	55,44,1	58,59,1	60,65,1	81,6,1	82,18,1	83,55,1	84,62,1	85,72,1	86,77,1	87,78,1	101,66,1	102,21,1	103,14,1	104,58,1	107,20,1	121,22,1	125,24,1	127,40,1	178,76,1	187,61,1	190,80,1	199,38,1	214,52,1	252,56,1	253,73,1	316,74,1	317,79,1	333,17,1	347,26,1	350,28,1	366,36,1	370,50,1	371,53,1	408,60,1	412,63,1	429,71,1	438,57,1	444,16,1	445,19,1	540,67,1	559,48,1	574,68,1	1443,34,1	1459,75,1	1543,81,1	
21,2,1	22,41,1	61,5,1	62,25,1	63,35,1	64,54,1	71,45,1	75,49,1	101,8,1	102,23,1	103,27,1	104,37,1	105,10,1	106,29,1	126,39,1	147,47,1	199,51,1	329,15,1	367,43,1	438,12,1	447,31,1	448,33,1	
0,0,1	1,1,1	2,7,1	3,4,1	4,11,1	5,9,1	6,13,1	1432,69,1	
# Incoming
21,(0, 3),20	41,(2, 30),13	54,(2, 44),1	55,(2, 59),3	58,(2, 65),2	61,(0, 6),20	81,(2, 66),20	101,(5, 21),1	102,(8, 14),1	103,(8, 58),1	104,(1, 20),3	107,(1, 22),14	121,(1, 24),4	126,(1, 40),1	127,(2, 76),51	178,(41, 81),6	184,(5, 61),3	187,(5, 80),3	190,(25, 81),6	196,(8, 38),3	199,(1, 52),15	214,(1, 56),38	252,(1, 73),1	253,(1, 74),63	316,(1, 79),1	317,(35, 81),6	323,(54, 81),6	329,(7, 17),4	333,(7, 26),14	347,(7, 28),3	350,(7, 36),16	367,(7, 50),3	370,(7, 53),1	371,(7, 60),37	408,(7, 63),4	412,(7, 71),17	429,(45, 81),6	435,(8, 57),3	438,(4, 16),6	444,(4, 19),1	448,(11, 81),6	454,(9, 81),6	460,(13, 81),6	466,(2, 67),74	540,(5, 48),19	559,(5, 68),15	1432,(49, 81),6	1438,(8, 34),5	1443,(8, 75),16	1459,(23, 81),6	1465,(27, 81),6	1471,(37, 81),6	1477,(10, 81),6	1483,(29, 81),6	1489,(39, 81),6	1495,(47, 81),6	1501,(51, 81),6	1507,(15, 81),6	1513,(43, 81),6	1519,(12, 81),6	1525,(31, 81),6	1531,(33, 81),6	1537,(69, 81),6	
1,(0, 2),20	41,(0, 5),20	61,(3, 45),10	71,(3, 49),4	81,(0, 8),20	101,(1, 10),3	104,(6, 29),1	125,(1, 39),1	127,(1, 47),20	147,(1, 51),52	317,(7, 15),12	366,(7, 43),1	429,(4, 12),9	445,(4, 31),2	447,(4, 33),1	
574,(5, 69),858	
# Outgoing
61,(3, 45),10	71,(3, 49),4	104,(6, 29),1	
41,(2, 30),13	54,(2, 44),1	55,(2, 59),3	58,(2, 65),2	81,(2, 66),20	101,(5, 21),1	102,(8, 14),1	103,(8, 58),1	127,(2, 76),51	178,(41, 81),6	184,(5, 61),3	187,(5, 80),3	190,(25, 81),6	196,(8, 38),3	317,(35, 81),6	323,(54, 81),6	429,(45, 81),6	435,(8, 57),3	466,(2, 67),74	540,(5, 48),19	559,(5, 68),15	574,(5, 69),858	1432,(49, 81),6	1438,(8, 34),5	1443,(8, 75),16	1459,(23, 81),6	1465,(27, 81),6	1471,(37, 81),6	1477,(10, 81),6	1483,(29, 81),6	1489,(39, 81),6	1495,(47, 81),6	1501,(51, 81),6	1507,(15, 81),6	1513,(43, 81),6	1519,(12, 81),6	1525,(31, 81),6	1531,(33, 81),6	
1,(0, 2),20	21,(0, 3),20	41,(0, 5),20	61,(0, 6),20	81,(0, 8),20	101,(1, 10),3	104,(1, 20),3	107,(1, 22),14	121,(1, 24),4	125,(1, 39),1	126,(1, 40),1	127,(1, 47),20	147,(1, 51),52	199,(1, 52),15	214,(1, 56),38	252,(1, 73),1	253,(1, 74),63	316,(1, 79),1	317,(7, 15),12	329,(7, 17),4	333,(7, 26),14	347,(7, 28),3	350,(7, 36),16	366,(7, 43),1	367,(7, 50),3	370,(7, 53),1	371,(7, 60),37	408,(7, 63),4	412,(7, 71),17	429,(4, 12),9	438,(4, 16),6	444,(4, 19),1	445,(4, 31),2	447,(4, 33),1	448,(11, 81),6	454,(9, 81),6	460,(13, 81),6	1537,(69, 81),6	
