4542
# CPU
113,10,1	114,111,1	115,119,1	593,13,1	633,28,1	1901,56,1	1941,61,1	1981,79,1	2333,74,1	2349,114,1	2529,55,1	2865,22,1	3165,58,1	3249,64,1	3253,95,1	3273,112,1	3305,18,1	3437,54,1	3469,100,1	3505,16,1	3593,30,1	3617,43,1	3625,48,1	3885,51,1	3889,53,1	3893,76,1	3925,81,1	4033,19,1	4037,110,1	4501,118,1	4541,121,1	
33,3,1	34,14,1	35,42,1	36,105,1	37,60,1	38,86,1	39,80,1	65,5,1	66,21,1	67,26,1	68,31,1	69,39,1	70,88,1	71,45,1	97,8,1	98,15,1	99,32,1	100,35,1	101,97,1	102,115,1	103,91,1	104,82,1	105,68,1	106,38,1	107,59,1	108,46,1	118,24,1	1825,50,1	1985,99,1	1997,120,1	2273,70,1	
0,0,1	1,9,1	2,6,1	3,12,1	4,1,1	5,101,1	6,66,1	7,116,1	8,63,1	9,96,1	10,34,1	11,84,1	12,77,1	13,33,1	14,73,1	15,72,1	16,78,1	17,67,1	18,27,1	19,117,1	20,104,1	21,103,1	22,87,1	23,89,1	24,93,1	25,36,1	26,17,1	27,113,1	133,41,1	2777,47,1	
17,2,1	18,29,1	19,52,1	20,65,1	21,109,1	22,69,1	23,106,1	24,85,1	49,4,1	50,20,1	51,57,1	52,62,1	53,102,1	54,49,1	55,107,1	56,71,1	81,7,1	82,25,1	83,90,1	84,92,1	85,108,1	86,98,1	87,44,1	88,83,1	89,94,1	129,11,1	130,23,1	131,37,1	1945,75,1	2021,40,1	
# Incoming
97,(0, 10),16	113,(3, 13),16	129,(9, 13),464	593,(9, 28),40	633,(9, 48),1188	1821,(3, 95),4	1825,(9, 56),76	1901,(9, 61),40	1941,(3, 110),4	1945,(9, 79),36	1981,(14, 121),4	1985,(42, 121),4	1989,(105, 121),4	1993,(60, 121),4	1997,(6, 22),20	2017,(86, 121),4	2021,(6, 53),4	2025,(6, 64),128	2153,(6, 112),16	2169,(12, 16),88	2257,(12, 18),8	2265,(12, 64),4	2269,(80, 121),4	2273,(12, 74),60	2333,(12, 114),16	2349,(1, 22),8	2357,(1, 54),28	2385,(1, 81),16	2401,(101, 121),4	2405,(66, 121),4	2409,(116, 121),4	2413,(63, 121),4	2417,(96, 121),4	2421,(34, 121),4	2425,(84, 121),4	2429,(77, 121),4	2433,(33, 121),4	2437,(73, 121),4	2441,(72, 121),4	2445,(78, 121),4	2449,(2, 30),76	2525,(2, 55),4	2529,(2, 112),244	2773,(67, 121),4	2777,(29, 121),4	2781,(27, 121),4	2785,(52, 121),4	2789,(117, 121),4	2793,(65, 121),4	2797,(104, 121),4	2801,(109, 121),4	2805,(103, 121),4	2809,(69, 121),4	2813,(87, 121),4	2817,(106, 121),4	2821,(89, 121),4	2825,(85, 121),4	2829,(93, 121),4	2833,(36, 121),4	2837,(17, 121),4	2841,(113, 121),4	2845,(4, 22),20	2865,(4, 58),300	3165,(4, 64),84	3249,(4, 95),4	3253,(4, 100),12	3265,(4, 112),8	3273,(20, 121),4	3277,(57, 121),4	3281,(62, 121),4	3285,(102, 121),4	3289,(49, 121),4	3293,(107, 121),4	3297,(71, 121),4	3301,(5, 18),4	3305,(5, 51),12	3317,(5, 54),120	3437,(5, 76),12	3449,(5, 100),20	3469,(21, 121),4	3473,(26, 121),4	3477,(31, 121),4	3481,(39, 121),4	3485,(88, 121),4	3489,(45, 121),4	3493,(7, 16),12	3505,(7, 19),32	3537,(7, 30),56	3593,(7, 43),24	3617,(7, 48),8	3625,(7, 51),260	3885,(7, 53),4	3889,(7, 76),4	3893,(7, 81),32	3925,(7, 118),8	3933,(25, 121),4	3937,(90, 121),4	3941,(92, 121),4	3945,(108, 121),4	3949,(98, 121),4	3953,(44, 121),4	3957,(83, 121),4	3961,(94, 121),4	3965,(8, 19),68	4033,(8, 110),4	4037,(15, 121),4	4041,(32, 121),4	4045,(35, 121),4	4049,(97, 121),4	4053,(115, 121),4	4057,(91, 121),4	4061,(82, 121),4	4065,(68, 121),4	4069,(38, 121),4	4073,(59, 121),4	4077,(46, 121),4	4081,(24, 121),4	4085,(11, 118),416	4501,(23, 121),4	4505,(37, 121),4	4509,(41, 121),4	4513,(50, 121),4	4517,(75, 121),4	4521,(99, 121),4	4525,(120, 121),4	4529,(40, 121),4	4533,(70, 121),4	4537,(47, 121),4	
17,(0, 3),16	49,(0, 5),16	81,(0, 8),16	114,(10, 24),4	1821,(9, 50),4	1981,(9, 99),4	1985,(9, 120),12	2269,(12, 70),4	
129,(3, 41),4	2773,(7, 47),4	
1,(0, 2),16	33,(0, 4),16	65,(0, 7),16	113,(0, 11),16	1941,(9, 75),4	2017,(6, 40),4	
# Outgoing
114,(10, 24),4	
113,(3, 13),16	129,(3, 41),4	1821,(3, 95),4	1941,(3, 110),4	1981,(14, 121),4	1985,(42, 121),4	1989,(105, 121),4	1993,(60, 121),4	2017,(86, 121),4	2269,(80, 121),4	3301,(5, 18),4	3305,(5, 51),12	3317,(5, 54),120	3437,(5, 76),12	3449,(5, 100),20	3469,(21, 121),4	3473,(26, 121),4	3477,(31, 121),4	3481,(39, 121),4	3485,(88, 121),4	3489,(45, 121),4	3965,(8, 19),68	4033,(8, 110),4	4037,(15, 121),4	4041,(32, 121),4	4045,(35, 121),4	4049,(97, 121),4	4053,(115, 121),4	4057,(91, 121),4	4061,(82, 121),4	4065,(68, 121),4	4069,(38, 121),4	4073,(59, 121),4	4077,(46, 121),4	4081,(24, 121),4	4513,(50, 121),4	4521,(99, 121),4	4525,(120, 121),4	4533,(70, 121),4	
1,(0, 2),16	17,(0, 3),16	33,(0, 4),16	49,(0, 5),16	65,(0, 7),16	81,(0, 8),16	97,(0, 10),16	113,(0, 11),16	129,(9, 13),464	593,(9, 28),40	633,(9, 48),1188	1821,(9, 50),4	1825,(9, 56),76	1901,(9, 61),40	1941,(9, 75),4	1945,(9, 79),36	1981,(9, 99),4	1985,(9, 120),12	1997,(6, 22),20	2017,(6, 40),4	2021,(6, 53),4	2025,(6, 64),128	2153,(6, 112),16	2169,(12, 16),88	2257,(12, 18),8	2265,(12, 64),4	2269,(12, 70),4	2273,(12, 74),60	2333,(12, 114),16	2349,(1, 22),8	2357,(1, 54),28	2385,(1, 81),16	2401,(101, 121),4	2405,(66, 121),4	2409,(116, 121),4	2413,(63, 121),4	2417,(96, 121),4	2421,(34, 121),4	2425,(84, 121),4	2429,(77, 121),4	2433,(33, 121),4	2437,(73, 121),4	2441,(72, 121),4	2445,(78, 121),4	2773,(67, 121),4	2781,(27, 121),4	2789,(117, 121),4	2797,(104, 121),4	2805,(103, 121),4	2813,(87, 121),4	2821,(89, 121),4	2829,(93, 121),4	2833,(36, 121),4	2837,(17, 121),4	2841,(113, 121),4	4509,(41, 121),4	4537,(47, 121),4	
2449,(2, 30),76	2525,(2, 55),4	2529,(2, 112),244	2773,(7, 47),4	2777,(29, 121),4	2785,(52, 121),4	2793,(65, 121),4	2801,(109, 121),4	2809,(69, 121),4	2817,(106, 121),4	2825,(85, 121),4	2845,(4, 22),20	2865,(4, 58),300	3165,(4, 64),84	3249,(4, 95),4	3253,(4, 100),12	3265,(4, 112),8	3273,(20, 121),4	3277,(57, 121),4	3281,(62, 121),4	3285,(102, 121),4	3289,(49, 121),4	3293,(107, 121),4	3297,(71, 121),4	3493,(7, 16),12	3505,(7, 19),32	3537,(7, 30),56	3593,(7, 43),24	3617,(7, 48),8	3625,(7, 51),260	3885,(7, 53),4	3889,(7, 76),4	3893,(7, 81),32	3925,(7, 118),8	3933,(25, 121),4	3937,(90, 121),4	3941,(92, 121),4	3945,(108, 121),4	3949,(98, 121),4	3953,(44, 121),4	3957,(83, 121),4	3961,(94, 121),4	4085,(11, 118),416	4501,(23, 121),4	4505,(37, 121),4	4517,(75, 121),4	4529,(40, 121),4	
