5120
# CPU
166,2,41	207,15,41	248,26,41	289,42,41	330,50,41	371,35,41	412,55,41	453,89,41	494,108,41	535,57,41	576,86,41	617,88,41	1951,48,41	1993,91,41	2034,101,41	2470,24,41	2941,19,41	3322,38,41	3541,69,41	3886,99,41	4090,29,41	4131,36,41	4172,58,41	4792,65,41	4873,77,41	4914,80,41	4955,107,41	4996,117,41	5037,93,41	5078,102,41	5119,121,1	
661,7,41	702,41,41	743,44,41	784,85,41	825,87,41	866,114,41	907,10,41	948,14,41	989,78,41	1030,25,41	1071,46,41	1112,51,41	1153,92,41	1194,110,41	1235,113,41	1276,83,41	1317,95,41	1358,64,41	1399,81,41	1440,68,41	1481,104,41	1522,111,41	1885,27,41	1960,54,41	2001,60,41	2524,33,41	3580,70,41	3658,94,41	4549,84,41	4768,40,41	
0,0,1	1,1,41	42,3,41	83,9,41	124,11,41	165,12,41	206,8,41	247,5,41	288,20,41	329,76,41	370,43,41	411,67,41	452,103,41	493,37,41	534,32,41	575,13,41	616,59,41	657,109,41	698,71,41	739,98,41	780,53,41	821,105,41	862,82,41	903,73,41	944,120,41	985,75,41	1026,22,41	1067,30,41	1108,39,41	1149,52,41	1190,72,41	
331,4,41	372,21,41	413,49,41	454,116,41	495,96,41	536,6,41	577,17,41	618,118,41	659,18,41	700,62,41	741,66,41	782,31,41	883,45,41	924,63,41	1486,106,41	1963,56,41	2464,23,41	2938,16,41	3325,47,41	3366,61,41	3622,79,41	3663,90,41	4072,100,41	4552,97,41	4593,115,41	4634,28,41	4744,34,41	4801,74,41	4894,112,41	4935,119,41	
# Incoming
1,(0, 2),165	413,(21, 121),3	454,(49, 121),3	495,(116, 121),3	536,(96, 121),3	577,(6, 38),3	618,(17, 121),3	659,(118, 121),3	700,(18, 121),3	741,(62, 121),3	744,(41, 121),3	782,(66, 121),3	785,(44, 121),3	823,(31, 121),3	826,(85, 121),3	866,(87, 121),3	883,(1, 58),33	916,(114, 121),3	924,(45, 121),3	949,(1, 93),525	1474,(63, 121),3	1477,(14, 121),3	1480,(78, 121),3	1483,(25, 121),3	1486,(46, 121),3	1489,(51, 121),3	1492,(92, 121),3	1495,(110, 121),3	1498,(113, 121),3	1501,(83, 121),3	1504,(95, 121),3	1507,(64, 121),3	1510,(81, 121),3	1513,(3, 24),360	1873,(68, 121),3	1876,(104, 121),3	1879,(106, 121),3	1882,(111, 121),3	1885,(3, 48),66	1951,(27, 121),3	1972,(3, 91),21	1993,(3, 101),18	2011,(3, 102),444	2455,(54, 121),3	2458,(56, 121),3	2461,(60, 121),3	2464,(9, 24),6	2505,(23, 121),3	2524,(9, 77),411	2935,(33, 121),3	2938,(11, 19),3	2941,(11, 38),381	3322,(16, 121),3	3328,(11, 69),213	3541,(47, 121),3	3544,(61, 121),3	3621,(70, 121),3	3658,(11, 99),228	3886,(79, 121),3	3889,(94, 121),3	3892,(90, 121),3	4072,(12, 29),18	4090,(12, 36),6	4096,(12, 58),72	4168,(12, 77),348	4516,(100, 121),3	4590,(84, 121),3	4593,(97, 121),3	4634,(115, 121),3	4675,(28, 121),3	4768,(8, 65),24	4792,(34, 121),3	4801,(8, 77),72	4873,(8, 80),15	4888,(8, 107),3	4891,(40, 121),3	4894,(8, 117),3	4897,(74, 121),3	4900,(5, 93),3	4903,(5, 102),3	4906,(20, 121),3	4909,(76, 121),3	4912,(43, 121),3	4915,(67, 121),3	4918,(103, 121),3	4921,(37, 121),3	4924,(32, 121),3	4927,(13, 121),3	4930,(59, 121),3	4933,(109, 121),3	4936,(71, 121),3	4939,(98, 121),3	4942,(53, 121),3	4945,(105, 121),3	4948,(82, 121),3	4951,(73, 121),3	4954,(120, 121),3	4957,(75, 121),3	4960,(22, 121),3	4963,(30, 121),3	4966,(39, 121),3	4969,(52, 121),3	4972,(72, 121),3	4975,(112, 121),3	4978,(119, 121),3	
496,(0, 7),165	661,(0, 10),165	826,(1, 14),39	919,(1, 68),18	937,(1, 78),3	940,(1, 84),9	1474,(1, 104),3	1486,(1, 111),27	1873,(3, 27),12	1951,(3, 54),9	1963,(3, 60),9	2470,(9, 33),54	3541,(11, 70),39	3625,(11, 94),33	4516,(12, 84),33	4744,(8, 40),24	
580,(6, 72),21	
166,(0, 4),165	331,(0, 6),165	865,(1, 45),18	916,(1, 63),3	1477,(1, 106),9	1960,(3, 56),3	2455,(9, 23),9	2935,(11, 16),3	3322,(11, 47),3	3325,(11, 61),3	3580,(11, 79),42	3622,(11, 90),3	3886,(11, 100),186	4549,(12, 97),3	4552,(12, 115),9	4561,(8, 28),15	4576,(8, 34),168	4792,(8, 74),9	4891,(8, 112),3	4897,(8, 119),3	
# Outgoing

744,(41, 121),3	785,(44, 121),3	826,(85, 121),3	866,(87, 121),3	916,(114, 121),3	1477,(14, 121),3	1480,(78, 121),3	1483,(25, 121),3	1486,(46, 121),3	1489,(51, 121),3	1492,(92, 121),3	1495,(110, 121),3	1498,(113, 121),3	1501,(83, 121),3	1504,(95, 121),3	1507,(64, 121),3	1510,(81, 121),3	1873,(68, 121),3	1876,(104, 121),3	1882,(111, 121),3	1951,(27, 121),3	2455,(54, 121),3	2461,(60, 121),3	2935,(33, 121),3	3621,(70, 121),3	3889,(94, 121),3	4590,(84, 121),3	4891,(40, 121),3	
1,(0, 2),165	166,(0, 4),165	331,(0, 6),165	496,(0, 7),165	661,(0, 10),165	826,(1, 14),39	865,(1, 45),18	883,(1, 58),33	916,(1, 63),3	919,(1, 68),18	937,(1, 78),3	940,(1, 84),9	949,(1, 93),525	1474,(1, 104),3	1477,(1, 106),9	1486,(1, 111),27	1513,(3, 24),360	1873,(3, 27),12	1885,(3, 48),66	1951,(3, 54),9	1960,(3, 56),3	1963,(3, 60),9	1972,(3, 91),21	1993,(3, 101),18	2011,(3, 102),444	2455,(9, 23),9	2464,(9, 24),6	2470,(9, 33),54	2524,(9, 77),411	2935,(11, 16),3	2938,(11, 19),3	2941,(11, 38),381	3322,(11, 47),3	3325,(11, 61),3	3328,(11, 69),213	3541,(11, 70),39	3580,(11, 79),42	3622,(11, 90),3	3625,(11, 94),33	3658,(11, 99),228	3886,(11, 100),186	4072,(12, 29),18	4090,(12, 36),6	4096,(12, 58),72	4168,(12, 77),348	4516,(12, 84),33	4549,(12, 97),3	4552,(12, 115),9	4561,(8, 28),15	4576,(8, 34),168	4744,(8, 40),24	4768,(8, 65),24	4792,(8, 74),9	4801,(8, 77),72	4873,(8, 80),15	4888,(8, 107),3	4891,(8, 112),3	4894,(8, 117),3	4897,(8, 119),3	4900,(5, 93),3	4903,(5, 102),3	4906,(20, 121),3	4909,(76, 121),3	4912,(43, 121),3	4915,(67, 121),3	4918,(103, 121),3	4921,(37, 121),3	4924,(32, 121),3	4927,(13, 121),3	4930,(59, 121),3	4933,(109, 121),3	4936,(71, 121),3	4939,(98, 121),3	4942,(53, 121),3	4945,(105, 121),3	4948,(82, 121),3	4951,(73, 121),3	4954,(120, 121),3	4957,(75, 121),3	4960,(22, 121),3	4963,(30, 121),3	4966,(39, 121),3	4969,(52, 121),3	4972,(72, 121),3	
413,(21, 121),3	454,(49, 121),3	495,(116, 121),3	536,(96, 121),3	577,(6, 38),3	580,(6, 72),21	618,(17, 121),3	659,(118, 121),3	700,(18, 121),3	741,(62, 121),3	782,(66, 121),3	823,(31, 121),3	924,(45, 121),3	1474,(63, 121),3	1879,(106, 121),3	2458,(56, 121),3	2505,(23, 121),3	3322,(16, 121),3	3541,(47, 121),3	3544,(61, 121),3	3886,(79, 121),3	3892,(90, 121),3	4516,(100, 121),3	4593,(97, 121),3	4634,(115, 121),3	4675,(28, 121),3	4792,(34, 121),3	4897,(74, 121),3	4975,(112, 121),3	4978,(119, 121),3	
