3746
# CPU
25,3,16	41,18,16	57,24,16	73,26,16	89,22,16	105,6,16	121,14,16	137,19,16	153,20,16	169,21,16	185,34,16	201,36,16	217,28,16	340,40,16	356,9,16	372,11,16	484,30,16	568,32,16	601,38,16	
13,2,16	29,5,16	45,23,16	61,13,16	77,10,16	151,25,16	167,27,16	310,16,16	326,35,16	342,39,16	469,17,16	523,31,16	943,8,16	1072,29,16	1090,33,16	1106,37,16	
0,0,1	1,1,16	17,4,16	33,7,16	49,15,16	988,12,16	3745,41,1	
# Incoming
13,(0, 3),12	28,(1, 9),6	40,(1, 22),27	67,(2, 6),9	79,(2, 14),3	82,(2, 19),9	91,(2, 20),48	139,(2, 21),9	148,(2, 34),12	160,(2, 36),3	166,(1, 28),3	169,(1, 32),135	304,(2, 40),36	340,(4, 9),12	352,(4, 11),6	469,(4, 30),15	523,(4, 32),45	568,(4, 38),33	
1,(0, 2),12	25,(1, 5),3	34,(1, 10),6	67,(1, 25),84	151,(1, 27),15	304,(4, 8),3	307,(4, 16),3	310,(4, 33),3	313,(4, 35),9	322,(4, 39),3	358,(4, 17),111	484,(4, 31),39	523,(3, 8),420	988,(3, 29),84	1072,(3, 33),18	1090,(3, 37),3	
76,(2, 12),3	163,(5, 41),102	340,(23, 41),102	442,(13, 41),102	544,(10, 41),102	646,(25, 41),102	748,(27, 41),102	943,(3, 12),45	988,(16, 41),102	1093,(18, 41),102	1195,(24, 41),102	1297,(26, 41),102	1399,(22, 41),102	1501,(6, 41),102	1603,(14, 41),102	1705,(19, 41),102	1807,(20, 41),102	1909,(21, 41),102	2011,(34, 41),102	2113,(36, 41),102	2215,(28, 41),102	2317,(35, 41),102	2419,(40, 41),102	2521,(39, 41),102	2623,(9, 41),102	2725,(11, 41),102	2827,(17, 41),102	2929,(30, 41),102	3031,(31, 41),102	3133,(32, 41),102	3235,(38, 41),102	3337,(8, 41),102	3439,(29, 41),102	3541,(33, 41),102	3643,(37, 41),102	
# Outgoing
523,(3, 8),420	943,(3, 12),45	988,(3, 29),84	1072,(3, 33),18	1090,(3, 37),3	1093,(18, 41),102	1195,(24, 41),102	1297,(26, 41),102	1399,(22, 41),102	1501,(6, 41),102	1603,(14, 41),102	1705,(19, 41),102	1807,(20, 41),102	1909,(21, 41),102	2011,(34, 41),102	2113,(36, 41),102	2215,(28, 41),102	2419,(40, 41),102	2623,(9, 41),102	2725,(11, 41),102	2929,(30, 41),102	3133,(32, 41),102	3235,(38, 41),102	
67,(2, 6),9	76,(2, 12),3	79,(2, 14),3	82,(2, 19),9	91,(2, 20),48	139,(2, 21),9	148,(2, 34),12	160,(2, 36),3	163,(5, 41),102	304,(2, 40),36	340,(23, 41),102	442,(13, 41),102	544,(10, 41),102	646,(25, 41),102	748,(27, 41),102	988,(16, 41),102	2317,(35, 41),102	2521,(39, 41),102	2827,(17, 41),102	3031,(31, 41),102	3337,(8, 41),102	3439,(29, 41),102	3541,(33, 41),102	3643,(37, 41),102	
1,(0, 2),12	13,(0, 3),12	25,(1, 5),3	28,(1, 9),6	34,(1, 10),6	40,(1, 22),27	67,(1, 25),84	151,(1, 27),15	166,(1, 28),3	169,(1, 32),135	304,(4, 8),3	307,(4, 16),3	310,(4, 33),3	313,(4, 35),9	322,(4, 39),3	340,(4, 9),12	352,(4, 11),6	358,(4, 17),111	469,(4, 30),15	484,(4, 31),39	523,(4, 32),45	568,(4, 38),33	
