6696
# CPU
127,10,2	129,51,2	147,113,2	155,119,2	157,60,2	167,80,2	175,93,2	193,75,2	205,97,2	211,67,2	233,78,2	245,107,2	273,53,2	283,83,2	329,76,2	393,71,2	485,89,2	505,102,2	539,52,2	
113,9,2	115,79,2	117,96,2	137,118,2	143,50,2	147,106,2	165,82,2	173,92,2	181,65,2	199,77,2	207,112,2	217,68,2	219,72,2	317,73,2	391,59,2	483,87,2	1267,101,2	
99,8,2	101,49,2	103,91,2	109,81,2	111,100,2	119,115,2	125,110,2	147,63,2	167,70,2	169,58,2	285,95,2	303,48,2	473,86,2	551,104,2	
85,7,2	117,62,2	121,85,2	123,114,2	127,40,2	165,66,2	175,94,2	275,54,2	295,99,2	301,44,2	367,108,2	459,33,2	535,103,2	541,90,2	
71,6,2	79,42,2	85,31,2	113,35,2	195,43,2	205,46,2	235,61,2	361,84,2	571,111,2	
57,5,2	59,26,2	109,28,2	139,36,2	191,64,2	353,47,2	383,57,2	527,37,2	627,120,2	
43,4,2	99,34,2	107,25,2	109,24,2	121,32,2	867,98,2	929,116,2	1377,69,2	1449,117,2	2293,45,2	6695,121,1	
29,3,2	31,29,2	69,27,2	113,30,2	145,20,2	187,38,2	325,88,2	341,21,2	391,41,2	465,74,2	565,105,2	737,109,2	
15,2,2	17,17,2	19,55,2	83,23,2	141,12,2	203,19,2	271,39,2	333,18,2	617,56,2	
0,0,1	1,11,2	3,1,2	5,13,2	25,14,2	457,22,2	467,15,2	1379,16,2	
# Incoming
113,(0, 10),14	127,(2, 51),2	129,(3, 113),18	147,(5, 52),2	149,(5, 83),4	153,(5, 119),2	155,(8, 60),2	165,(6, 80),2	167,(6, 93),8	181,(8, 89),10	191,(7, 75),2	193,(7, 97),12	205,(11, 67),6	219,(11, 78),14	233,(8, 107),12	271,(9, 53),2	275,(9, 83),8	317,(12, 76),12	391,(1, 71),2	483,(1, 89),2	485,(1, 102),20	527,(4, 52),12	
99,(0, 9),14	113,(3, 65),2	115,(3, 112),14	129,(5, 118),8	137,(6, 50),6	143,(10, 73),2	145,(10, 106),2	147,(2, 82),18	165,(2, 92),8	173,(8, 65),8	181,(10, 77),18	205,(7, 112),2	211,(11, 68),6	217,(11, 72),2	303,(12, 73),14	325,(11, 101),4	383,(1, 59),8	473,(1, 87),10	483,(2, 101),784	
85,(0, 8),14	99,(5, 100),6	107,(3, 81),2	109,(3, 100),2	111,(5, 115),8	121,(2, 110),4	129,(2, 63),18	147,(3, 70),20	167,(10, 58),2	283,(9, 95),2	301,(12, 48),2	465,(1, 86),8	541,(4, 104),10	
71,(0, 7),14	85,(5, 90),2	87,(5, 114),8	99,(2, 62),18	117,(2, 85),4	121,(6, 114),2	123,(8, 40),4	143,(6, 66),22	169,(10, 94),6	273,(9, 54),2	285,(9, 99),10	297,(12, 44),4	361,(12, 108),6	457,(4, 33),2	505,(1, 103),30	539,(4, 90),2	
57,(0, 6),14	71,(5, 42),8	83,(3, 31),2	109,(8, 35),4	187,(11, 43),8	195,(11, 46),10	205,(10, 61),30	329,(12, 84),32	535,(1, 111),36	
43,(0, 5),14	101,(8, 28),8	113,(7, 37),16	129,(10, 36),10	155,(7, 64),36	341,(1, 47),12	353,(1, 57),30	459,(4, 37),68	571,(1, 120),56	
29,(0, 4),14	45,(2, 24),38	83,(2, 34),16	99,(3, 25),8	107,(6, 24),2	109,(6, 32),12	173,(17, 121),62	235,(55, 121),62	297,(29, 121),62	359,(26, 121),62	421,(27, 121),62	483,(6, 69),78	561,(42, 121),62	627,(13, 121),62	689,(14, 121),62	751,(31, 121),62	813,(8, 98),54	867,(8, 116),62	929,(49, 121),62	991,(91, 121),62	1053,(28, 121),62	1115,(81, 121),62	1177,(100, 121),62	1267,(23, 121),62	1329,(9, 69),48	1377,(9, 117),72	1449,(30, 121),62	1511,(35, 121),62	1573,(79, 121),62	1635,(62, 121),62	1697,(96, 121),62	1759,(115, 121),62	1821,(85, 121),62	1883,(114, 121),62	1945,(110, 121),62	2007,(40, 121),62	2069,(51, 121),62	2131,(118, 121),62	2193,(36, 121),62	2255,(12, 45),38	2293,(50, 121),62	2355,(20, 121),62	2417,(113, 121),62	2479,(63, 121),62	2541,(106, 121),62	2603,(119, 121),62	2665,(60, 121),62	2727,(66, 121),62	2789,(82, 121),62	2851,(70, 121),62	2913,(80, 121),62	2975,(58, 121),62	3037,(92, 121),62	3099,(93, 121),62	3161,(94, 121),62	3223,(65, 121),62	3285,(38, 121),62	3347,(64, 121),62	3409,(75, 121),62	3471,(43, 121),62	3533,(77, 121),62	3595,(19, 121),62	3657,(97, 121),62	3719,(46, 121),62	3781,(112, 121),62	3843,(67, 121),62	3905,(68, 121),62	3967,(72, 121),62	4029,(78, 121),62	4091,(61, 121),62	4153,(107, 121),62	4215,(39, 121),62	4277,(53, 121),62	4339,(54, 121),62	4401,(83, 121),62	4463,(95, 121),62	4525,(99, 121),62	4587,(44, 121),62	4649,(48, 121),62	4711,(73, 121),62	4773,(88, 121),62	4835,(76, 121),62	4897,(18, 121),62	4959,(21, 121),62	5021,(47, 121),62	5083,(84, 121),62	5145,(108, 121),62	5207,(57, 121),62	5269,(41, 121),62	5331,(59, 121),62	5393,(71, 121),62	5455,(22, 121),62	5517,(33, 121),62	5579,(74, 121),62	5641,(15, 121),62	5703,(86, 121),62	5765,(87, 121),62	5827,(89, 121),62	5889,(102, 121),62	5951,(37, 121),62	6013,(103, 121),62	6075,(52, 121),62	6137,(90, 121),62	6199,(104, 121),62	6261,(105, 121),62	6323,(111, 121),62	6385,(56, 121),62	6447,(120, 121),62	6509,(109, 121),62	6571,(101, 121),62	6633,(16, 121),62	
15,(0, 3),14	31,(2, 20),14	59,(5, 27),10	87,(7, 30),26	141,(11, 20),4	145,(11, 38),42	233,(11, 88),92	333,(1, 21),8	341,(10, 41),50	393,(1, 74),72	465,(10, 105),100	565,(10, 109),172	
1,(0, 2),14	31,(3, 23),52	127,(0, 12),14	141,(7, 56),14	155,(9, 19),48	203,(9, 39),68	329,(1, 18),4	333,(8, 56),284	
17,(2, 14),8	25,(2, 15),6	45,(4, 22),412	457,(12, 15),10	1329,(12, 16),50	
# Outgoing
129,(10, 36),10	143,(10, 73),2	145,(10, 106),2	167,(10, 58),2	169,(10, 94),6	181,(10, 77),18	205,(10, 61),30	341,(10, 41),50	465,(10, 105),100	565,(10, 109),172	2069,(51, 121),62	2417,(113, 121),62	2603,(119, 121),62	2665,(60, 121),62	2913,(80, 121),62	3099,(93, 121),62	3409,(75, 121),62	3657,(97, 121),62	3843,(67, 121),62	4029,(78, 121),62	4153,(107, 121),62	4277,(53, 121),62	4401,(83, 121),62	4835,(76, 121),62	5393,(71, 121),62	5827,(89, 121),62	5889,(102, 121),62	6075,(52, 121),62	
155,(9, 19),48	203,(9, 39),68	271,(9, 53),2	273,(9, 54),2	275,(9, 83),8	283,(9, 95),2	285,(9, 99),10	1329,(9, 69),48	1377,(9, 117),72	1573,(79, 121),62	1697,(96, 121),62	2131,(118, 121),62	2293,(50, 121),62	2541,(106, 121),62	2789,(82, 121),62	3037,(92, 121),62	3223,(65, 121),62	3533,(77, 121),62	3781,(112, 121),62	3905,(68, 121),62	3967,(72, 121),62	4711,(73, 121),62	5331,(59, 121),62	5765,(87, 121),62	6571,(101, 121),62	
101,(8, 28),8	109,(8, 35),4	123,(8, 40),4	155,(8, 60),2	173,(8, 65),8	181,(8, 89),10	233,(8, 107),12	333,(8, 56),284	813,(8, 98),54	867,(8, 116),62	929,(49, 121),62	991,(91, 121),62	1115,(81, 121),62	1177,(100, 121),62	1759,(115, 121),62	1945,(110, 121),62	2479,(63, 121),62	2851,(70, 121),62	2975,(58, 121),62	4463,(95, 121),62	4649,(48, 121),62	5703,(86, 121),62	6199,(104, 121),62	
87,(7, 30),26	113,(7, 37),16	141,(7, 56),14	155,(7, 64),36	191,(7, 75),2	193,(7, 97),12	205,(7, 112),2	1635,(62, 121),62	1821,(85, 121),62	1883,(114, 121),62	2007,(40, 121),62	2727,(66, 121),62	3161,(94, 121),62	4339,(54, 121),62	4525,(99, 121),62	4587,(44, 121),62	5145,(108, 121),62	5517,(33, 121),62	6013,(103, 121),62	6137,(90, 121),62	
107,(6, 24),2	109,(6, 32),12	121,(6, 114),2	137,(6, 50),6	143,(6, 66),22	165,(6, 80),2	167,(6, 93),8	483,(6, 69),78	561,(42, 121),62	751,(31, 121),62	1511,(35, 121),62	3471,(43, 121),62	3719,(46, 121),62	4091,(61, 121),62	5083,(84, 121),62	6323,(111, 121),62	
59,(5, 27),10	71,(5, 42),8	85,(5, 90),2	87,(5, 114),8	99,(5, 100),6	111,(5, 115),8	129,(5, 118),8	147,(5, 52),2	149,(5, 83),4	153,(5, 119),2	359,(26, 121),62	1053,(28, 121),62	2193,(36, 121),62	3347,(64, 121),62	5021,(47, 121),62	5207,(57, 121),62	5951,(37, 121),62	6447,(120, 121),62	
45,(4, 22),412	457,(4, 33),2	459,(4, 37),68	527,(4, 52),12	539,(4, 90),2	541,(4, 104),10	
31,(3, 23),52	83,(3, 31),2	99,(3, 25),8	107,(3, 81),2	109,(3, 100),2	113,(3, 65),2	115,(3, 112),14	129,(3, 113),18	147,(3, 70),20	297,(29, 121),62	421,(27, 121),62	1449,(30, 121),62	2355,(20, 121),62	3285,(38, 121),62	4773,(88, 121),62	4959,(21, 121),62	5269,(41, 121),62	5579,(74, 121),62	6261,(105, 121),62	6509,(109, 121),62	
17,(2, 14),8	25,(2, 15),6	31,(2, 20),14	45,(2, 24),38	83,(2, 34),16	99,(2, 62),18	117,(2, 85),4	121,(2, 110),4	127,(2, 51),2	129,(2, 63),18	147,(2, 82),18	165,(2, 92),8	173,(17, 121),62	235,(55, 121),62	297,(12, 44),4	301,(12, 48),2	303,(12, 73),14	317,(12, 76),12	329,(12, 84),32	361,(12, 108),6	457,(12, 15),10	483,(2, 101),784	1267,(23, 121),62	1329,(12, 16),50	2255,(12, 45),38	3595,(19, 121),62	4215,(39, 121),62	4897,(18, 121),62	6385,(56, 121),62	
1,(0, 2),14	15,(0, 3),14	29,(0, 4),14	43,(0, 5),14	57,(0, 6),14	71,(0, 7),14	85,(0, 8),14	99,(0, 9),14	113,(0, 10),14	127,(0, 12),14	141,(11, 20),4	145,(11, 38),42	187,(11, 43),8	195,(11, 46),10	205,(11, 67),6	211,(11, 68),6	217,(11, 72),2	219,(11, 78),14	233,(11, 88),92	325,(11, 101),4	329,(1, 18),4	333,(1, 21),8	341,(1, 47),12	353,(1, 57),30	383,(1, 59),8	391,(1, 71),2	393,(1, 74),72	465,(1, 86),8	473,(1, 87),10	483,(1, 89),2	485,(1, 102),20	505,(1, 103),30	535,(1, 111),36	571,(1, 120),56	627,(13, 121),62	689,(14, 121),62	5455,(22, 121),62	5641,(15, 121),62	6633,(16, 121),62	
