842
# CPU
0,121,1	1,120,2	3,99,2	5,36,2	7,94,2	9,108,2	11,105,2	13,47,2	15,109,2	17,15,2	19,77,2	21,48,2	23,81,2	25,69,2	27,86,2	29,113,2	31,25,2	33,51,2	35,23,2	37,52,2	39,57,2	41,67,2	43,49,2	45,90,2	47,38,2	49,101,2	51,89,2	53,60,2	55,66,2	57,97,2	59,79,2	61,116,2	63,41,2	65,88,2	67,115,2	69,76,2	71,82,2	73,28,2	75,78,2	77,29,2	79,75,2	81,118,2	83,106,2	85,46,2	87,33,2	89,84,2	91,43,2	93,107,2	95,53,2	97,19,2	99,104,2	101,100,2	103,39,2	105,63,2	107,56,2	109,50,2	111,80,2	113,73,2	115,13,2	117,22,2	119,40,2	121,27,2	123,35,2	125,24,2	127,32,2	129,14,2	131,112,2	133,55,2	135,92,2	137,31,2	139,95,2	141,17,2	143,117,2	145,59,2	147,18,2	149,44,2	151,85,2	153,102,2	155,111,2	157,103,2	159,65,2	161,58,2	163,91,2	165,42,2	167,96,2	169,64,2	171,45,2	173,20,2	175,119,2	177,37,2	179,30,2	181,71,2	183,83,2	185,87,2	187,5,2	189,8,2	205,4,2	237,11,2	293,12,2	349,9,2	409,1,2	499,10,2	597,2,2	787,3,2	841,0,1	
13,110,2	121,72,2	
181,21,2	837,6,2	
61,34,2	133,62,2	

49,68,2	
109,54,2	
25,93,2	

37,61,2	73,26,2	85,16,2	97,74,2	145,114,2	157,98,2	169,70,2	401,7,2	
# Incoming
171,(70, 5),2	173,(34, 8),12	185,(93, 4),4	189,(34, 4),2	191,(62, 4),14	205,(72, 11),32	237,(93, 12),2	239,(16, 12),16	255,(114, 12),2	257,(98, 12),30	287,(70, 12),6	293,(16, 9),2	295,(72, 9),2	297,(70, 9),2	299,(21, 9),50	349,(26, 1),12	361,(54, 1),6	367,(72, 1),4	371,(62, 1),38	409,(68, 10),10	419,(54, 10),24	443,(98, 10),54	497,(21, 10),2	499,(110, 2),2	501,(61, 2),6	507,(26, 2),2	509,(74, 2),20	529,(54, 2),14	543,(114, 2),54	597,(26, 3),12	609,(16, 3),12	621,(62, 3),26	647,(70, 3),136	783,(21, 3),4	787,(7, 0),2	839,(6, 0),2	
1,(121, 110),12	109,(121, 72),12	
169,(121, 21),12	189,(77, 6),2	205,(23, 6),6	401,(52, 6),6	407,(90, 6),6	413,(107, 6),2	415,(53, 6),16	431,(100, 6),22	453,(39, 6),22	475,(13, 6),8	483,(35, 6),22	505,(112, 6),6	511,(55, 6),8	519,(117, 6),2	521,(59, 6),18	539,(42, 6),122	661,(20, 6),164	825,(30, 6),12	
49,(121, 34),12	121,(121, 62),12	

37,(121, 68),12	
97,(121, 54),12	
13,(121, 93),12	

25,(121, 61),12	61,(121, 26),12	73,(121, 16),12	85,(121, 74),12	133,(121, 114),12	145,(121, 98),12	157,(121, 70),12	181,(108, 7),2	183,(105, 7),2	185,(60, 7),2	187,(115, 7),2	189,(93, 7),2	191,(76, 7),4	195,(33, 7),4	199,(100, 7),2	201,(22, 7),2	203,(103, 7),2	205,(34, 7),6	211,(75, 7),14	225,(14, 7),6	231,(117, 7),52	283,(59, 7),52	335,(20, 7),46	381,(30, 7),10	391,(71, 7),10	
# Outgoing
1,(121, 110),12	13,(121, 93),12	25,(121, 61),12	37,(121, 68),12	49,(121, 34),12	61,(121, 26),12	73,(121, 16),12	85,(121, 74),12	97,(121, 54),12	109,(121, 72),12	121,(121, 62),12	133,(121, 114),12	145,(121, 98),12	157,(121, 70),12	169,(121, 21),12	181,(108, 7),2	183,(105, 7),2	185,(60, 7),2	187,(115, 7),2	189,(77, 6),2	191,(76, 7),4	195,(33, 7),4	199,(100, 7),2	201,(22, 7),2	203,(103, 7),2	205,(23, 6),6	211,(75, 7),14	225,(14, 7),6	231,(117, 7),52	283,(59, 7),52	335,(20, 7),46	381,(30, 7),10	391,(71, 7),10	401,(52, 6),6	407,(90, 6),6	413,(107, 6),2	415,(53, 6),16	431,(100, 6),22	453,(39, 6),22	475,(13, 6),8	483,(35, 6),22	505,(112, 6),6	511,(55, 6),8	519,(117, 6),2	521,(59, 6),18	539,(42, 6),122	661,(20, 6),164	825,(30, 6),12	
205,(72, 11),32	295,(72, 9),2	367,(72, 1),4	499,(110, 2),2	
299,(21, 9),50	497,(21, 10),2	783,(21, 3),4	839,(6, 0),2	
173,(34, 8),12	189,(34, 4),2	191,(62, 4),14	205,(34, 7),6	371,(62, 1),38	621,(62, 3),26	

409,(68, 10),10	
361,(54, 1),6	419,(54, 10),24	529,(54, 2),14	
185,(93, 4),4	189,(93, 7),2	237,(93, 12),2	

171,(70, 5),2	239,(16, 12),16	255,(114, 12),2	257,(98, 12),30	287,(70, 12),6	293,(16, 9),2	297,(70, 9),2	349,(26, 1),12	443,(98, 10),54	501,(61, 2),6	507,(26, 2),2	509,(74, 2),20	543,(114, 2),54	597,(26, 3),12	609,(16, 3),12	647,(70, 3),136	787,(7, 0),2	
