9090
# CPU
33,5,18	65,10,18	83,95,18	1261,18,18	2001,109,18	2313,91,18	2331,36,18	2369,43,18	2741,22,18	2759,38,18	2777,106,18	3033,56,18	3173,76,18	3237,79,18	3255,47,18	3405,65,18	3493,117,18	3521,82,18	4041,103,18	4373,20,18	4391,27,18	4409,31,18	4757,52,18	4925,88,18	4943,99,18	6533,113,18	7069,60,18	7941,85,18	8865,69,18	9037,73,18	
25,4,18	57,9,18	193,17,18	285,90,18	325,87,18	353,45,18	749,120,18	985,37,18	1105,51,18	1123,54,18	1141,84,18	1159,72,18	2373,63,18	2509,78,18	2765,102,18	5477,19,18	5505,32,18	5523,58,18	5609,75,18	6013,24,18	6045,29,18	6063,39,18	6081,81,18	6129,93,18	6169,97,18	6187,105,18	6205,108,18	6223,112,18	6241,116,18	6709,67,18	
17,3,18	49,8,18	1297,21,18	1315,25,18	2461,100,18	2729,15,18	3001,57,18	3161,35,18	3317,66,18	3425,70,18	3497,77,18	4057,104,18	4365,119,18	6433,30,18	6451,33,18	6469,48,18	6573,53,18	6617,61,18	6635,83,18	6817,89,18	6835,92,18	6853,107,18	6893,111,18	6913,115,18	7057,44,18	7193,80,18	8849,86,18	9049,74,18	9067,96,18	
9,2,18	41,7,18	73,12,18	297,46,18	465,55,18	485,98,18	869,50,18	887,59,18	1313,71,18	1331,28,18	1357,14,18	2833,110,18	3061,34,18	3845,94,18	4089,114,18	4157,118,18	4377,23,18	4421,42,18	4909,64,18	4927,68,18	4945,101,18	9089,121,1	
0,0,1	1,1,18	19,11,18	37,6,18	353,49,18	733,16,18	877,13,18	1033,40,18	2001,26,18	2389,41,18	6305,62,18	
# Incoming
25,(0, 5),8	35,(2, 31),8	43,(2, 36),12	57,(0, 10),8	73,(1, 18),1188	1261,(2, 22),44	1305,(2, 38),96	1401,(2, 47),156	1557,(2, 85),8	1565,(2, 103),36	1601,(2, 113),4	1605,(3, 52),44	1649,(3, 56),4	1653,(3, 69),36	1689,(4, 27),108	1797,(4, 56),8	1805,(4, 65),4	1809,(4, 91),184	1993,(4, 103),4	1997,(4, 109),4	2001,(4, 117),68	2069,(7, 22),4	2073,(7, 27),4	2077,(7, 31),4	2081,(7, 38),12	2093,(7, 47),4	2097,(7, 52),4	2101,(7, 69),8	2109,(7, 73),4	2113,(7, 76),20	2133,(7, 79),108	2241,(7, 99),8	2249,(8, 31),4	2253,(8, 36),32	2285,(8, 56),20	2305,(8, 85),4	2309,(8, 91),4	2313,(8, 113),4	2317,(9, 31),4	2321,(1, 43),4	2325,(9, 36),4	2329,(1, 56),4	2333,(8, 76),32	2365,(9, 43),4	2369,(9, 113),4	2373,(1, 65),28	2401,(8, 106),16	2417,(9, 20),40	2457,(1, 79),4	2461,(9, 103),16	2477,(1, 82),136	2613,(1, 88),24	2637,(8, 73),60	2697,(9, 47),32	2729,(12, 22),12	2741,(12, 38),4	2745,(1, 99),12	2757,(12, 85),4	2761,(12, 106),4	2765,(1, 103),44	2809,(8, 82),76	2941,(11, 20),8	2949,(11, 27),20	2969,(9, 56),64	3033,(9, 76),140	3173,(9, 79),64	3245,(11, 47),8	3253,(11, 52),72	3325,(11, 60),20	3345,(11, 65),60	3405,(9, 117),88	3497,(11, 82),24	3653,(11, 85),4	3753,(11, 88),4	3845,(11, 99),4	3849,(11, 103),192	4365,(6, 20),8	4377,(6, 27),12	4389,(6, 31),8	4421,(6, 52),336	4757,(6, 60),108	4913,(6, 69),8	4921,(6, 88),4	4925,(6, 99),4	4937,(6, 113),8	5625,(4, 113),908	6533,(9, 60),536	7193,(7, 85),748	8849,(12, 69),16	8865,(12, 73),172	
17,(0, 4),8	49,(0, 9),8	57,(2, 19),64	121,(2, 29),24	145,(2, 32),28	173,(3, 17),20	193,(3, 19),56	249,(3, 24),8	257,(5, 67),4	261,(5, 90),24	285,(10, 32),4	289,(3, 58),16	305,(5, 97),12	317,(10, 72),4	321,(10, 87),4	337,(3, 84),4	341,(3, 105),4	345,(2, 45),8	425,(2, 67),60	485,(2, 72),8	493,(2, 78),64	557,(2, 81),188	745,(3, 120),4	749,(8, 24),4	753,(2, 93),4	757,(8, 58),4	761,(2, 97),16	777,(3, 75),32	809,(3, 81),36	845,(5, 102),44	889,(5, 105),24	913,(7, 24),4	917,(7, 37),20	937,(8, 29),12	949,(10, 37),36	1033,(7, 51),72	1105,(7, 54),8	1113,(7, 63),8	1121,(7, 84),8	1129,(7, 93),4	1133,(12, 72),4	1221,(7, 75),24	1245,(7, 108),16	1297,(1, 24),12	1313,(8, 78),4	1317,(8, 93),116	1605,(7, 116),240	1845,(8, 116),264	2109,(10, 93),72	2333,(1, 63),40	2417,(1, 67),40	2457,(12, 75),20	2477,(12, 78),32	2509,(12, 81),64	2573,(12, 108),24	2637,(1, 93),84	2757,(1, 102),8	2833,(1, 116),4	2837,(2, 116),2628	5465,(11, 19),12	5477,(11, 24),12	5489,(11, 32),16	5505,(11, 58),4	5509,(11, 67),4	5513,(11, 75),96	5609,(11, 105),36	5645,(11, 108),364	6009,(6, 24),4	6013,(6, 29),32	6045,(6, 39),8	6053,(6, 81),4	6057,(6, 93),72	6129,(6, 97),40	6169,(6, 105),4	6173,(6, 108),20	6193,(6, 112),4	6197,(6, 116),32	6429,(10, 67),280	
9,(0, 3),8	41,(0, 8),8	49,(4, 15),40	89,(5, 21),32	121,(5, 33),12	153,(5, 77),8	173,(2, 35),24	197,(4, 21),64	261,(4, 35),32	293,(5, 96),4	297,(5, 107),4	301,(5, 111),4	305,(4, 57),48	353,(2, 66),72	425,(4, 61),108	533,(4, 80),20	553,(4, 83),16	569,(4, 96),4	573,(5, 119),8	737,(9, 66),4	741,(9, 77),4	745,(2, 83),4	749,(2, 92),4	757,(2, 96),4	773,(10, 44),4	777,(2, 111),4	781,(2, 119),24	805,(4, 107),232	1037,(5, 30),100	1137,(7, 33),4	1141,(7, 66),80	1221,(9, 35),20	1261,(1, 21),36	1309,(1, 25),4	1321,(1, 30),1000	2321,(10, 74),4	2325,(1, 53),4	2329,(5, 66),60	2389,(10, 77),4	2393,(10, 89),4	2397,(12, 53),4	2401,(1, 66),16	2417,(7, 100),32	2449,(10, 100),12	2461,(1, 80),16	2477,(5, 35),156	2633,(5, 115),56	2689,(7, 115),32	2721,(12, 15),8	2729,(9, 53),60	2789,(10, 115),20	2809,(1, 104),12	2821,(12, 70),12	2837,(1, 119),104	2941,(9, 89),24	2965,(10, 57),36	3001,(10, 61),32	3033,(10, 119),24	3061,(11, 35),100	3161,(11, 44),84	3245,(9, 111),36	3281,(10, 66),36	3317,(10, 83),64	3405,(11, 70),20	3425,(11, 74),4	3429,(11, 77),68	3521,(11, 83),132	3657,(11, 86),96	3753,(10, 111),40	4041,(11, 104),16	4057,(11, 111),24	4089,(11, 115),40	4157,(11, 119),208	4365,(4, 86),1260	5625,(5, 53),512	6137,(5, 83),292	6429,(6, 30),4	6433,(6, 33),4	6437,(6, 44),12	6449,(6, 48),12	6461,(6, 53),112	6573,(6, 61),44	6617,(6, 83),4	6621,(6, 86),24	6645,(6, 89),172	6817,(6, 92),4	6821,(6, 107),16	6837,(6, 111),56	6893,(6, 115),20	6913,(7, 44),144	7057,(7, 80),136	7941,(7, 86),908	9037,(12, 74),12	9049,(12, 96),8	
1,(0, 2),8	33,(0, 7),8	65,(0, 12),8	73,(5, 98),4	83,(10, 23),4	113,(4, 23),4	133,(5, 59),20	161,(4, 28),20	181,(4, 34),8	189,(4, 42),8	197,(5, 14),48	245,(10, 55),4	249,(10, 110),4	253,(95, 121),4	257,(3, 34),8	265,(3, 46),24	293,(4, 46),4	297,(4, 55),8	305,(3, 64),4	309,(3, 71),28	353,(3, 55),112	473,(3, 98),12	485,(3, 110),4	489,(3, 118),4	493,(5, 64),76	573,(4, 118),8	581,(5, 23),192	773,(9, 42),24	797,(9, 101),8	805,(10, 14),28	845,(8, 50),24	869,(8, 59),12	881,(8, 110),12	893,(8, 118),16	913,(10, 42),36	949,(8, 71),364	1313,(1, 28),8	1321,(9, 14),36	1357,(17, 121),4	1361,(90, 121),4	1365,(87, 121),4	1369,(45, 121),4	1373,(120, 121),4	1377,(37, 121),4	1381,(51, 121),4	1385,(54, 121),4	1389,(84, 121),4	1393,(72, 121),4	1433,(21, 121),4	1437,(25, 121),4	2001,(18, 121),4	2019,(109, 121),4	2391,(63, 121),4	2397,(91, 121),4	2401,(36, 121),4	2405,(43, 121),4	2479,(100, 121),4	2527,(78, 121),4	2721,(1, 94),24	2747,(15, 121),4	2759,(22, 121),4	2777,(38, 121),4	2789,(102, 121),4	2809,(106, 121),4	2821,(1, 110),12	2969,(11, 34),92	3061,(57, 121),4	3065,(56, 121),4	3179,(35, 121),4	3191,(76, 121),4	3255,(79, 121),4	3273,(47, 121),4	3335,(66, 121),4	3423,(65, 121),4	3443,(70, 121),4	3511,(117, 121),4	3515,(77, 121),4	3539,(82, 121),4	3757,(11, 94),88	4059,(103, 121),4	4075,(104, 121),4	4081,(11, 114),8	4129,(11, 118),28	4373,(6, 23),4	4383,(119, 121),4	4391,(20, 121),4	4397,(6, 42),24	4421,(27, 121),4	4427,(31, 121),4	4775,(52, 121),4	4865,(6, 64),44	4909,(6, 68),4	4929,(6, 101),8	4945,(49, 121),4	4949,(16, 121),4	4953,(13, 121),4	4957,(40, 121),4	4961,(26, 121),4	4965,(41, 121),4	4969,(88, 121),4	4973,(99, 121),4	6323,(62, 121),4	6451,(30, 121),4	6469,(33, 121),4	6487,(48, 121),4	6591,(53, 121),4	6635,(61, 121),4	6653,(83, 121),4	6709,(113, 121),4	6835,(89, 121),4	6853,(92, 121),4	6871,(107, 121),4	6911,(111, 121),4	6931,(115, 121),4	7069,(19, 121),4	7073,(32, 121),4	7077,(58, 121),4	7081,(75, 121),4	7085,(24, 121),4	7089,(29, 121),4	7093,(39, 121),4	7097,(81, 121),4	7101,(93, 121),4	7105,(97, 121),4	7109,(105, 121),4	7113,(108, 121),4	7117,(112, 121),4	7121,(116, 121),4	7125,(67, 121),4	7129,(44, 121),4	7133,(60, 121),4	7211,(80, 121),4	7959,(85, 121),4	8867,(86, 121),4	8883,(69, 121),4	9055,(73, 121),4	9067,(74, 121),4	9085,(96, 121),4	
27,(2, 13),8	51,(5, 13),16	89,(4, 16),24	117,(4, 26),44	161,(5, 62),32	197,(2, 40),148	345,(3, 26),4	349,(3, 49),4	353,(4, 62),4	357,(5, 26),104	465,(3, 62),8	581,(9, 13),88	669,(9, 16),64	733,(9, 40),4	805,(7, 13),40	845,(7, 62),20	865,(12, 13),12	937,(7, 40),96	1037,(9, 62),44	1137,(5, 41),756	1893,(10, 26),108	2249,(12, 41),140	5465,(12, 62),840	
# Outgoing
51,(5, 13),16	73,(5, 98),4	83,(10, 23),4	89,(5, 21),32	121,(5, 33),12	133,(5, 59),20	153,(5, 77),8	161,(5, 62),32	197,(5, 14),48	245,(10, 55),4	249,(10, 110),4	253,(95, 121),4	257,(5, 67),4	261,(5, 90),24	285,(10, 32),4	293,(5, 96),4	297,(5, 107),4	301,(5, 111),4	305,(5, 97),12	317,(10, 72),4	321,(10, 87),4	357,(5, 26),104	493,(5, 64),76	573,(5, 119),8	581,(5, 23),192	773,(10, 44),4	805,(10, 14),28	845,(5, 102),44	889,(5, 105),24	913,(10, 42),36	949,(10, 37),36	1037,(5, 30),100	1137,(5, 41),756	1893,(10, 26),108	2001,(18, 121),4	2019,(109, 121),4	2109,(10, 93),72	2321,(10, 74),4	2329,(5, 66),60	2389,(10, 77),4	2393,(10, 89),4	2397,(91, 121),4	2401,(36, 121),4	2405,(43, 121),4	2449,(10, 100),12	2477,(5, 35),156	2633,(5, 115),56	2759,(22, 121),4	2777,(38, 121),4	2789,(10, 115),20	2809,(106, 121),4	2965,(10, 57),36	3001,(10, 61),32	3033,(10, 119),24	3065,(56, 121),4	3191,(76, 121),4	3255,(79, 121),4	3273,(47, 121),4	3281,(10, 66),36	3317,(10, 83),64	3423,(65, 121),4	3511,(117, 121),4	3539,(82, 121),4	3753,(10, 111),40	4059,(103, 121),4	4391,(20, 121),4	4421,(27, 121),4	4427,(31, 121),4	4775,(52, 121),4	4969,(88, 121),4	4973,(99, 121),4	5625,(5, 53),512	6137,(5, 83),292	6429,(10, 67),280	6709,(113, 121),4	7133,(60, 121),4	7959,(85, 121),4	8883,(69, 121),4	9055,(73, 121),4	
49,(4, 15),40	89,(4, 16),24	113,(4, 23),4	117,(4, 26),44	161,(4, 28),20	181,(4, 34),8	189,(4, 42),8	197,(4, 21),64	261,(4, 35),32	293,(4, 46),4	297,(4, 55),8	305,(4, 57),48	353,(4, 62),4	425,(4, 61),108	533,(4, 80),20	553,(4, 83),16	569,(4, 96),4	573,(4, 118),8	581,(9, 13),88	669,(9, 16),64	733,(9, 40),4	737,(9, 66),4	741,(9, 77),4	773,(9, 42),24	797,(9, 101),8	805,(4, 107),232	1037,(9, 62),44	1221,(9, 35),20	1321,(9, 14),36	1357,(17, 121),4	1361,(90, 121),4	1365,(87, 121),4	1369,(45, 121),4	1373,(120, 121),4	1377,(37, 121),4	1381,(51, 121),4	1385,(54, 121),4	1389,(84, 121),4	1393,(72, 121),4	1689,(4, 27),108	1797,(4, 56),8	1805,(4, 65),4	1809,(4, 91),184	1993,(4, 103),4	1997,(4, 109),4	2001,(4, 117),68	2317,(9, 31),4	2325,(9, 36),4	2365,(9, 43),4	2369,(9, 113),4	2391,(63, 121),4	2417,(9, 20),40	2461,(9, 103),16	2527,(78, 121),4	2697,(9, 47),32	2729,(9, 53),60	2789,(102, 121),4	2941,(9, 89),24	2969,(9, 56),64	3033,(9, 76),140	3173,(9, 79),64	3245,(9, 111),36	3405,(9, 117),88	4365,(4, 86),1260	5625,(4, 113),908	6533,(9, 60),536	7069,(19, 121),4	7073,(32, 121),4	7077,(58, 121),4	7081,(75, 121),4	7085,(24, 121),4	7089,(29, 121),4	7093,(39, 121),4	7097,(81, 121),4	7101,(93, 121),4	7105,(97, 121),4	7109,(105, 121),4	7113,(108, 121),4	7117,(112, 121),4	7121,(116, 121),4	7125,(67, 121),4	
173,(3, 17),20	193,(3, 19),56	249,(3, 24),8	257,(3, 34),8	265,(3, 46),24	289,(3, 58),16	305,(3, 64),4	309,(3, 71),28	337,(3, 84),4	341,(3, 105),4	345,(3, 26),4	349,(3, 49),4	353,(3, 55),112	465,(3, 62),8	473,(3, 98),12	485,(3, 110),4	489,(3, 118),4	745,(3, 120),4	749,(8, 24),4	757,(8, 58),4	777,(3, 75),32	809,(3, 81),36	845,(8, 50),24	869,(8, 59),12	881,(8, 110),12	893,(8, 118),16	937,(8, 29),12	949,(8, 71),364	1313,(8, 78),4	1317,(8, 93),116	1433,(21, 121),4	1437,(25, 121),4	1605,(3, 52),44	1649,(3, 56),4	1653,(3, 69),36	1845,(8, 116),264	2249,(8, 31),4	2253,(8, 36),32	2285,(8, 56),20	2305,(8, 85),4	2309,(8, 91),4	2313,(8, 113),4	2333,(8, 76),32	2401,(8, 106),16	2479,(100, 121),4	2637,(8, 73),60	2747,(15, 121),4	2809,(8, 82),76	3061,(57, 121),4	3179,(35, 121),4	3335,(66, 121),4	3443,(70, 121),4	3515,(77, 121),4	4075,(104, 121),4	4383,(119, 121),4	6451,(30, 121),4	6469,(33, 121),4	6487,(48, 121),4	6591,(53, 121),4	6635,(61, 121),4	6653,(83, 121),4	6835,(89, 121),4	6853,(92, 121),4	6871,(107, 121),4	6911,(111, 121),4	6931,(115, 121),4	7129,(44, 121),4	7211,(80, 121),4	8867,(86, 121),4	9067,(74, 121),4	9085,(96, 121),4	
27,(2, 13),8	35,(2, 31),8	43,(2, 36),12	57,(2, 19),64	121,(2, 29),24	145,(2, 32),28	173,(2, 35),24	197,(2, 40),148	345,(2, 45),8	353,(2, 66),72	425,(2, 67),60	485,(2, 72),8	493,(2, 78),64	557,(2, 81),188	745,(2, 83),4	749,(2, 92),4	753,(2, 93),4	757,(2, 96),4	761,(2, 97),16	777,(2, 111),4	781,(2, 119),24	805,(7, 13),40	845,(7, 62),20	865,(12, 13),12	913,(7, 24),4	917,(7, 37),20	937,(7, 40),96	1033,(7, 51),72	1105,(7, 54),8	1113,(7, 63),8	1121,(7, 84),8	1129,(7, 93),4	1133,(12, 72),4	1137,(7, 33),4	1141,(7, 66),80	1221,(7, 75),24	1245,(7, 108),16	1261,(2, 22),44	1305,(2, 38),96	1401,(2, 47),156	1557,(2, 85),8	1565,(2, 103),36	1601,(2, 113),4	1605,(7, 116),240	2069,(7, 22),4	2073,(7, 27),4	2077,(7, 31),4	2081,(7, 38),12	2093,(7, 47),4	2097,(7, 52),4	2101,(7, 69),8	2109,(7, 73),4	2113,(7, 76),20	2133,(7, 79),108	2241,(7, 99),8	2249,(12, 41),140	2397,(12, 53),4	2417,(7, 100),32	2457,(12, 75),20	2477,(12, 78),32	2509,(12, 81),64	2573,(12, 108),24	2689,(7, 115),32	2721,(12, 15),8	2729,(12, 22),12	2741,(12, 38),4	2757,(12, 85),4	2761,(12, 106),4	2821,(12, 70),12	2837,(2, 116),2628	5465,(12, 62),840	6913,(7, 44),144	7057,(7, 80),136	7193,(7, 85),748	7941,(7, 86),908	8849,(12, 69),16	8865,(12, 73),172	9037,(12, 74),12	9049,(12, 96),8	
1,(0, 2),8	9,(0, 3),8	17,(0, 4),8	25,(0, 5),8	33,(0, 7),8	41,(0, 8),8	49,(0, 9),8	57,(0, 10),8	65,(0, 12),8	73,(1, 18),1188	1261,(1, 21),36	1297,(1, 24),12	1309,(1, 25),4	1313,(1, 28),8	1321,(1, 30),1000	2321,(1, 43),4	2325,(1, 53),4	2329,(1, 56),4	2333,(1, 63),40	2373,(1, 65),28	2401,(1, 66),16	2417,(1, 67),40	2457,(1, 79),4	2461,(1, 80),16	2477,(1, 82),136	2613,(1, 88),24	2637,(1, 93),84	2721,(1, 94),24	2745,(1, 99),12	2757,(1, 102),8	2765,(1, 103),44	2809,(1, 104),12	2821,(1, 110),12	2833,(1, 116),4	2837,(1, 119),104	2941,(11, 20),8	2949,(11, 27),20	2969,(11, 34),92	3061,(11, 35),100	3161,(11, 44),84	3245,(11, 47),8	3253,(11, 52),72	3325,(11, 60),20	3345,(11, 65),60	3405,(11, 70),20	3425,(11, 74),4	3429,(11, 77),68	3497,(11, 82),24	3521,(11, 83),132	3653,(11, 85),4	3657,(11, 86),96	3753,(11, 88),4	3757,(11, 94),88	3845,(11, 99),4	3849,(11, 103),192	4041,(11, 104),16	4057,(11, 111),24	4081,(11, 114),8	4089,(11, 115),40	4129,(11, 118),28	4157,(11, 119),208	4365,(6, 20),8	4373,(6, 23),4	4377,(6, 27),12	4389,(6, 31),8	4397,(6, 42),24	4421,(6, 52),336	4757,(6, 60),108	4865,(6, 64),44	4909,(6, 68),4	4913,(6, 69),8	4921,(6, 88),4	4925,(6, 99),4	4929,(6, 101),8	4937,(6, 113),8	4945,(49, 121),4	4949,(16, 121),4	4953,(13, 121),4	4957,(40, 121),4	4961,(26, 121),4	4965,(41, 121),4	5465,(11, 19),12	5477,(11, 24),12	5489,(11, 32),16	5505,(11, 58),4	5509,(11, 67),4	5513,(11, 75),96	5609,(11, 105),36	5645,(11, 108),364	6009,(6, 24),4	6013,(6, 29),32	6045,(6, 39),8	6053,(6, 81),4	6057,(6, 93),72	6129,(6, 97),40	6169,(6, 105),4	6173,(6, 108),20	6193,(6, 112),4	6197,(6, 116),32	6323,(62, 121),4	6429,(6, 30),4	6433,(6, 33),4	6437,(6, 44),12	6449,(6, 48),12	6461,(6, 53),112	6573,(6, 61),44	6617,(6, 83),4	6621,(6, 86),24	6645,(6, 89),172	6817,(6, 92),4	6821,(6, 107),16	6837,(6, 111),56	6893,(6, 115),20	
