128
# CPU
0,0,1	1,2,18	19,9,18	37,4,18	55,16,18	73,12,18	91,15,18	109,20,18	127,21,1	
3,1,18	21,6,18	39,7,18	57,5,18	75,8,18	93,10,18	
21,11,18	39,17,18	57,18,18	87,13,18	
23,19,18	41,3,18	61,14,18	
# Incoming
55,(6, 21),2	57,(11, 21),2	59,(19, 21),2	61,(7, 21),2	63,(17, 21),2	65,(3, 21),2	75,(5, 21),2	77,(18, 21),2	79,(14, 21),2	93,(8, 21),2	105,(13, 21),2	111,(10, 21),2	
1,(0, 1),2	
19,(2, 11),2	23,(2, 17),4	27,(1, 18),28	61,(2, 13),26	
21,(2, 19),2	27,(2, 3),12	39,(2, 14),22	
# Outgoing
1,(0, 1),2	19,(2, 11),2	21,(2, 19),2	23,(2, 17),4	27,(2, 3),12	39,(2, 14),22	61,(2, 13),26	
27,(1, 18),28	55,(6, 21),2	61,(7, 21),2	75,(5, 21),2	93,(8, 21),2	111,(10, 21),2	
57,(11, 21),2	63,(17, 21),2	77,(18, 21),2	105,(13, 21),2	
59,(19, 21),2	65,(3, 21),2	79,(14, 21),2	
