4188
# CPU
0,81,1	1,38,9	10,17,9	19,42,9	28,30,9	37,29,9	46,11,9	55,32,9	64,76,9	73,69,9	82,60,9	91,26,9	100,70,9	109,56,9	118,52,9	127,51,9	136,80,9	145,35,9	154,64,9	163,61,9	172,10,9	181,13,9	190,41,9	199,9,9	208,14,9	217,15,9	226,16,9	235,25,9	244,74,9	253,66,9	262,73,9	271,37,9	280,19,9	289,24,9	298,58,9	307,20,9	316,23,9	325,21,9	334,63,9	343,68,9	352,12,9	361,33,9	370,77,9	379,67,9	388,72,9	397,27,9	406,36,9	415,59,9	424,44,9	433,39,9	442,71,9	451,49,9	460,55,9	469,46,9	478,65,9	487,34,9	496,62,9	505,75,9	514,47,9	523,53,9	532,3,9	541,1,9	550,2,9	559,8,9	602,4,9	690,6,9	830,7,9	4178,5,9	4187,0,1	
201,45,9	321,57,9	521,48,9	
361,18,9	481,22,9	



121,50,9	
161,54,9	

41,78,9	81,31,9	241,40,9	281,43,9	401,79,9	441,28,9	
# Incoming
50,(78, 3),4	90,(31, 2),4	94,(31, 4),6	100,(31, 5),2	130,(50, 1),8	138,(50, 2),8	170,(54, 1),14	250,(40, 4),22	272,(40, 6),2	274,(40, 7),2	276,(40, 5),2	290,(43, 2),4	294,(43, 4),28	322,(43, 6),4	326,(43, 5),2	330,(57, 8),20	350,(45, 4),6	356,(45, 6),16	372,(57, 6),30	402,(45, 7),20	422,(57, 5),24	450,(28, 2),12	462,(28, 8),2	464,(28, 4),2	490,(22, 1),2	492,(18, 8),4	530,(48, 8),26	556,(18, 4),44	600,(48, 4),2	602,(22, 6),88	690,(79, 7),54	744,(28, 7),86	830,(18, 5),38	868,(22, 5),144	1012,(48, 5),3166	
161,(81, 45),40	281,(81, 57),40	481,(81, 48),40	
321,(81, 18),40	441,(81, 22),40	



81,(81, 50),40	
121,(81, 54),40	

1,(81, 78),40	41,(81, 31),40	201,(81, 40),40	241,(81, 43),40	361,(81, 79),40	401,(81, 28),40	
# Outgoing
1,(81, 78),40	41,(81, 31),40	81,(81, 50),40	121,(81, 54),40	161,(81, 45),40	201,(81, 40),40	241,(81, 43),40	281,(81, 57),40	321,(81, 18),40	361,(81, 79),40	401,(81, 28),40	441,(81, 22),40	481,(81, 48),40	
330,(57, 8),20	350,(45, 4),6	356,(45, 6),16	372,(57, 6),30	402,(45, 7),20	422,(57, 5),24	530,(48, 8),26	600,(48, 4),2	1012,(48, 5),3166	
490,(22, 1),2	492,(18, 8),4	556,(18, 4),44	602,(22, 6),88	830,(18, 5),38	868,(22, 5),144	



130,(50, 1),8	138,(50, 2),8	
170,(54, 1),14	

50,(78, 3),4	90,(31, 2),4	94,(31, 4),6	100,(31, 5),2	250,(40, 4),22	272,(40, 6),2	274,(40, 7),2	276,(40, 5),2	290,(43, 2),4	294,(43, 4),28	322,(43, 6),4	326,(43, 5),2	450,(28, 2),12	462,(28, 8),2	464,(28, 4),2	690,(79, 7),54	744,(28, 7),86	
