157
# CPU
0,81,1	1,68,1	2,10,1	3,11,1	4,21,1	5,20,1	6,22,1	7,19,1	8,34,1	9,52,1	10,53,1	11,54,1	12,56,1	13,58,1	14,42,1	15,39,1	16,30,1	17,29,1	18,25,1	19,73,1	20,16,1	21,15,1	22,9,1	23,36,1	24,31,1	25,51,1	26,40,1	27,67,1	28,17,1	29,69,1	30,77,1	31,75,1	32,28,1	33,32,1	34,37,1	35,65,1	36,14,1	37,72,1	38,62,1	39,71,1	40,26,1	41,41,1	42,80,1	43,12,1	44,66,1	45,64,1	46,49,1	47,43,1	48,78,1	49,55,1	50,74,1	51,13,1	52,48,1	53,79,1	54,60,1	55,24,1	56,47,1	57,59,1	58,5,1	59,27,1	60,35,1	61,18,1	62,45,1	63,46,1	64,1,1	65,61,1	66,50,1	67,70,1	68,76,1	69,4,1	70,57,1	71,7,1	72,33,1	73,8,1	74,44,1	75,63,1	76,3,1	77,2,1	155,6,1	156,0,1	

67,23,1	

34,38,1	
# Incoming
35,(38, 2),12	68,(23, 6),87	

34,(81, 23),33	

1,(81, 38),33	
# Outgoing
1,(81, 38),33	34,(81, 23),33	

68,(23, 6),87	

35,(38, 2),12	
