522
# CPU
0,81,1	1,55,7	8,40,7	15,76,7	22,26,7	29,64,7	36,32,7	43,78,7	50,28,7	57,73,7	64,53,7	71,14,7	78,63,7	85,60,7	92,19,7	99,52,7	106,10,7	113,77,7	120,37,7	127,30,7	134,46,7	141,57,7	148,74,7	155,12,7	162,69,7	169,59,7	176,44,7	183,13,7	190,72,7	197,36,7	204,62,7	211,24,7	218,67,7	225,41,7	232,33,7	239,11,7	246,29,7	253,23,7	260,15,7	267,66,7	274,48,7	281,25,7	288,71,7	295,39,7	302,20,7	309,9,7	316,22,7	323,18,7	330,79,7	337,47,7	344,27,7	351,31,7	358,17,7	365,35,7	372,58,7	379,49,7	386,54,7	393,80,7	400,38,7	407,75,7	414,45,7	421,16,7	428,6,7	435,4,7	442,7,7	449,2,7	456,5,7	463,8,7	514,3,7	521,0,1	
145,68,7	253,21,7	325,50,7	361,56,7	
73,65,7	



217,42,7	
37,51,7	
109,70,7	
181,34,7	289,61,7	397,43,7	499,1,7	
# Incoming
116,(70, 4),2	118,(51, 2),2	120,(65, 2),2	122,(70, 3),4	224,(42, 7),10	260,(21, 2),16	276,(68, 5),4	296,(61, 3),24	368,(56, 5),26	394,(50, 8),40	434,(56, 3),48	482,(43, 3),32	514,(1, 0),6	
109,(81, 68),36	217,(81, 21),36	289,(81, 50),36	325,(81, 56),36	
37,(81, 65),36	



181,(81, 42),36	
1,(81, 51),36	
73,(81, 70),36	
145,(81, 34),36	253,(81, 61),36	361,(81, 43),36	397,(77, 1),4	401,(30, 1),2	403,(12, 1),2	405,(72, 1),6	411,(67, 1),10	421,(25, 1),22	443,(9, 1),32	475,(18, 1),2	477,(79, 1),14	491,(49, 1),8	
# Outgoing
1,(81, 51),36	37,(81, 65),36	73,(81, 70),36	109,(81, 68),36	145,(81, 34),36	181,(81, 42),36	217,(81, 21),36	253,(81, 61),36	289,(81, 50),36	325,(81, 56),36	361,(81, 43),36	397,(77, 1),4	401,(30, 1),2	403,(12, 1),2	405,(72, 1),6	411,(67, 1),10	421,(25, 1),22	443,(9, 1),32	475,(18, 1),2	477,(79, 1),14	491,(49, 1),8	
260,(21, 2),16	276,(68, 5),4	368,(56, 5),26	394,(50, 8),40	434,(56, 3),48	
120,(65, 2),2	



224,(42, 7),10	
118,(51, 2),2	
116,(70, 4),2	122,(70, 3),4	
296,(61, 3),24	482,(43, 3),32	514,(1, 0),6	
