5964
# CPU
28,10,1	55,20,1	3294,125,1	3365,89,1	3464,183,1	3475,48,1	3518,95,1	3600,118,1	3729,83,1	3875,105,1	3906,60,1	3920,99,1	3921,103,1	3934,128,1	3935,132,1	3971,72,1	3976,75,1	3980,80,1	3981,85,1	4025,92,1	4026,108,1	4037,110,1	4038,113,1	4041,121,1	4044,141,1	4046,152,1	4048,156,1	4051,178,1	4052,188,1	4242,137,1	4288,148,1	4321,162,1	4397,167,1	4474,172,1	4750,195,1	5551,69,1	
25,9,1	52,19,1	3170,176,1	3176,55,1	3194,74,1	3206,87,1	3595,102,1	3601,120,1	3607,160,1	3623,124,1	3626,39,1	3627,67,1	3628,70,1	3699,104,1	3700,79,1	3703,82,1	3705,84,1	3706,135,1	4267,97,1	4268,91,1	4287,112,1	4288,140,1	4290,151,1	4300,155,1	4324,106,1	4394,94,1	4400,109,1	4407,117,1	4410,127,1	4415,130,1	4418,147,1	4419,166,1	4422,182,1	4426,200,1	4470,171,1	4538,187,1	4739,194,1	
22,8,1	49,18,1	1521,65,1	2287,119,1	2487,61,1	2650,139,1	2738,165,1	2744,198,1	2878,100,1	2879,101,1	2882,126,1	2971,35,1	2972,53,1	2978,71,1	2986,73,1	2989,86,1	2991,96,1	2993,111,1	3143,181,1	3279,90,1	3340,93,1	3570,107,1	3599,116,1	3607,122,1	3628,129,1	3705,134,1	4268,145,1	4289,150,1	4291,154,1	4308,159,1	4499,175,1	4537,186,1	4736,193,1	5957,170,1	
19,7,1	46,17,1	1089,58,1	1702,115,1	1807,153,1	2049,88,1	2056,192,1	2367,149,1	2723,33,1	2839,180,1	2915,47,1	2924,49,1	3196,63,1	4261,143,1	4303,158,1	4345,164,1	4446,169,1	4489,174,1	4519,185,1	4755,197,1	
16,6,1	43,16,1	937,46,1	1171,173,1	1624,184,1	1786,144,1	1822,68,1	1823,157,1	2296,163,1	2553,190,1	2599,28,1	3133,52,1	3143,59,1	3198,66,1	3209,78,1	4260,142,1	4398,168,1	4518,179,1	4754,196,1	5963,201,1	
13,5,1	40,15,1	694,81,1	812,54,1	1654,32,1	1678,77,1	1693,146,1	1786,64,1	2110,26,1	2513,189,1	2837,38,1	2859,40,1	3141,56,1	4763,199,1	
10,4,1	37,14,1	2132,24,1	2223,133,1	2603,62,1	2604,31,1	2886,42,1	2890,43,1	2941,51,1	3203,76,1	4508,177,1	
7,3,1	34,13,1	1144,41,1	2099,23,1	2587,27,1	2603,30,1	2899,45,1	3339,44,1	3462,191,1	3608,123,1	3638,131,1	4309,161,1	
4,2,1	31,12,1	703,36,1	942,22,1	1183,34,1	2108,25,1	3142,57,1	3519,98,1	3598,114,1	4241,136,1	4254,138,1	
0,0,1	1,11,1	2,1,1	850,21,1	1028,29,1	1732,37,1	2960,50,1	
# Incoming
25,(0, 10),3	37,(2, 60),1	40,(4, 48),1	41,(9, 95),1	42,(6, 83),1	43,(9, 85),2	47,(9, 108),1	48,(9, 132),1	52,(0, 20),3	55,(5, 60),1	66,(4, 69),1	67,(5, 69),2	71,(6, 121),1	72,(9, 121),2	83,(9, 137),1	84,(4, 103),3	88,(9, 148),1	89,(2, 69),5	94,(9, 60),6	100,(9, 172),1	102,(8, 60),1	104,(6, 148),1	108,(2, 75),19	127,(2, 80),12	139,(8, 48),6	145,(2, 92),5	150,(8, 69),1	151,(8, 80),1	152,(8, 95),6	158,(8, 103),3	161,(19, 60),1	162,(6, 118),2	164,(9, 178),3	169,(2, 89),6	175,(6, 92),13	188,(6, 103),26	214,(9, 188),2	216,(19, 69),1	217,(5, 89),2	219,(5, 110),1	220,(6, 108),5	225,(6, 128),6	234,(2, 95),18	252,(8, 113),5	257,(6, 132),7	264,(6, 152),3	267,(16, 60),1	268,(7, 80),1	269,(4, 141),1	270,(16, 75),1	271,(4, 183),1	272,(2, 99),2	274,(2, 103),7	281,(2, 105),24	305,(2, 108),1	306,(2, 113),3	309,(18, 48),1	310,(5, 108),2	312,(11, 69),9	321,(2, 125),1	322,(2, 152),1	323,(3, 75),1	324,(11, 75),9	333,(3, 60),8	341,(3, 83),1	342,(3, 92),2	344,(3, 121),1	345,(11, 80),1	346,(3, 95),7	353,(3, 113),4	357,(5, 125),4	361,(5, 148),1	362,(11, 83),1	363,(3, 80),19	382,(4, 108),6	388,(16, 99),1	389,(2, 128),2	391,(6, 162),4	395,(2, 132),10	405,(2, 148),24	429,(4, 110),6	435,(11, 95),4	439,(6, 137),7	446,(15, 80),1	447,(11, 99),119	566,(4, 148),5	571,(4, 156),3	574,(4, 188),3	577,(7, 69),2	579,(3, 125),7	586,(7, 48),4	590,(11, 103),1	591,(7, 83),1	592,(11, 105),157	749,(3, 148),2	751,(3, 152),1	752,(3, 178),2	754,(7, 108),1	755,(7, 113),1	756,(7, 156),1	757,(2, 172),1	758,(3, 110),15	773,(4, 195),5	778,(13, 69),1	779,(2, 188),1	780,(3, 69),71	851,(3, 72),68	919,(3, 141),13	932,(8, 172),2	934,(9, 118),4	938,(11, 121),6	944,(11, 125),1	945,(14, 75),1	946,(14, 83),1	947,(17, 48),1	948,(11, 132),2	950,(3, 118),59	1009,(4, 85),42	1051,(4, 118),59	1110,(12, 95),1	1111,(3, 132),20	1131,(3, 162),25	1156,(4, 125),22	1178,(4, 162),7	1185,(7, 85),4	1189,(3, 183),14	1203,(4, 172),87	1290,(6, 105),23	1313,(12, 69),2	1315,(12, 118),1	1316,(4, 178),229	1545,(5, 99),36	1581,(6, 156),12	1593,(6, 167),8	1601,(6, 172),8	1609,(7, 72),22	1631,(12, 99),2	1633,(5, 118),20	1653,(5, 156),27	1680,(5, 178),15	1695,(5, 195),8	1703,(7, 92),4	1707,(11, 148),22	1729,(12, 156),1	1730,(12, 172),1	1731,(11, 152),75	1806,(7, 125),5	1811,(13, 83),1	1812,(5, 183),47	1859,(7, 105),36	1895,(13, 89),1	1896,(13, 118),1	1897,(11, 178),35	1932,(7, 121),22	1954,(7, 141),5	1959,(15, 83),1	1960,(15, 95),1	1961,(11, 183),1	1962,(7, 178),35	1997,(7, 183),6	2003,(7, 195),8	2011,(8, 128),12	2023,(8, 141),14	2037,(15, 99),1	2038,(11, 188),11	2049,(8, 183),6	2055,(13, 92),2	2057,(11, 195),2	2059,(6, 89),93	2152,(9, 75),13	2165,(12, 132),4	2169,(13, 137),1	2170,(13, 162),1	2171,(8, 92),33	2204,(8, 99),32	2236,(9, 83),10	2246,(9, 99),13	2259,(9, 110),10	2269,(9, 195),13	2282,(12, 72),35	2317,(12, 75),9	2326,(12, 125),9	2335,(12, 141),3	2338,(13, 85),3	2341,(13, 99),7	2348,(13, 108),5	2353,(13, 141),2	2355,(14, 80),2	2357,(14, 89),1	2358,(14, 99),1	2359,(8, 152),54	2413,(8, 156),34	2447,(8, 195),13	2460,(9, 69),170	2630,(9, 162),158	2788,(12, 89),35	2823,(12, 108),41	2864,(12, 188),6	2870,(13, 48),39	2909,(13, 195),1	2910,(14, 95),2	2912,(14, 121),2	2914,(14, 172),1	2915,(1, 48),1	2916,(12, 105),171	3087,(13, 125),7	3094,(13, 128),8	3102,(13, 132),18	3120,(13, 156),19	3139,(14, 132),2	3141,(14, 137),2	3143,(1, 60),1	3144,(13, 148),25	3169,(13, 167),7	3176,(14, 48),22	3198,(14, 85),13	3211,(16, 132),1	3212,(1, 85),61	3273,(1, 89),5	3278,(14, 103),10	3288,(14, 125),6	3294,(14, 156),8	3302,(1, 92),1	3303,(14, 118),17	3320,(14, 128),13	3333,(14, 167),5	3338,(14, 195),4	3342,(15, 60),3	3345,(15, 75),4	3349,(15, 85),11	3360,(15, 89),5	3365,(15, 92),10	3375,(15, 103),13	3388,(15, 105),5	3393,(15, 108),1	3394,(15, 113),2	3396,(15, 118),4	3400,(15, 121),1	3401,(15, 152),1	3402,(15, 156),1	3403,(15, 162),1	3404,(15, 167),13	3417,(15, 178),17	3434,(15, 183),30	3464,(15, 188),5	3469,(16, 48),6	3475,(16, 69),16	3491,(16, 83),20	3511,(16, 105),3	3514,(17, 75),1	3515,(1, 95),1	3516,(17, 85),1	3517,(17, 95),1	3518,(17, 99),1	3519,(1, 99),2	3521,(1, 103),12	3533,(16, 85),5	3538,(17, 108),2	3540,(17, 148),1	3541,(17, 188),1	3542,(1, 105),2	3544,(16, 103),6	3550,(16, 108),8	3558,(16, 141),7	3565,(16, 152),5	3570,(1, 108),7	3577,(16, 128),21	3598,(17, 195),1	3599,(1, 118),1	3600,(16, 121),27	3627,(16, 148),11	3638,(1, 132),42	3680,(16, 156),8	3688,(16, 195),15	3703,(17, 60),19	3722,(17, 83),7	3729,(17, 92),5	3734,(17, 105),141	3875,(17, 110),6	3881,(17, 137),8	3889,(17, 172),10	3899,(17, 178),4	3903,(18, 60),3	3906,(18, 72),1	3907,(18, 75),1	3908,(18, 85),2	3910,(18, 92),1	3911,(18, 99),9	3920,(18, 103),1	3921,(18, 108),3	3924,(18, 128),10	3934,(18, 132),1	3935,(18, 137),11	3946,(18, 156),5	3951,(18, 167),16	3967,(19, 72),4	3971,(19, 75),5	3976,(19, 80),4	3980,(19, 85),1	3981,(19, 92),44	4025,(19, 108),1	4026,(19, 110),11	4037,(19, 113),1	4038,(19, 121),3	4041,(19, 137),1	4042,(19, 141),2	4044,(19, 152),2	4046,(19, 156),2	4048,(19, 162),1	4049,(19, 178),2	4051,(19, 188),1	4241,(1, 137),1	4285,(1, 148),3	4309,(1, 162),12	4345,(1, 167),52	4470,(1, 172),4	4739,(1, 195),11	4750,(14, 69),801	
22,(0, 9),3	40,(6, 67),1	41,(4, 55),1	43,(6, 91),2	45,(6, 94),1	49,(0, 19),3	54,(5, 70),1	56,(5, 67),6	62,(5, 104),1	67,(4, 79),2	69,(6, 102),2	82,(4, 91),1	83,(4, 94),1	94,(2, 70),3	101,(6, 104),2	103,(5, 87),3	107,(2, 74),1	115,(8, 67),12	133,(8, 79),3	138,(8, 106),1	139,(2, 87),5	145,(8, 109),1	146,(8, 112),1	148,(6, 97),4	152,(2, 82),17	169,(6, 112),2	171,(6, 117),2	173,(5, 127),2	198,(8, 84),4	202,(8, 117),1	203,(4, 70),7	211,(8, 140),3	214,(6, 130),1	217,(6, 147),1	219,(6, 171),1	228,(4, 104),2	230,(4, 112),1	231,(2, 94),3	237,(6, 166),2	239,(8, 147),6	245,(8, 166),1	246,(8, 182),2	248,(4, 117),4	252,(2, 97),20	272,(4, 102),10	282,(4, 124),1	283,(4, 135),1	284,(4, 171),3	287,(4, 176),1	288,(5, 94),5	293,(5, 117),5	298,(5, 160),1	299,(11, 67),13	312,(2, 106),4	316,(2, 109),2	318,(5, 176),1	319,(2, 127),1	320,(5, 166),2	322,(6, 176),1	323,(11, 74),1	324,(3, 67),1	325,(3, 70),1	326,(3, 74),2	328,(3, 97),4	332,(5, 130),6	338,(5, 171),4	342,(6, 124),7	349,(7, 70),1	350,(7, 74),2	352,(7, 91),1	353,(5, 182),2	355,(5, 194),1	359,(7, 94),1	360,(3, 140),1	361,(11, 82),1	362,(18, 82),1	363,(11, 84),6	369,(7, 104),1	370,(11, 91),4	374,(11, 94),61	435,(2, 117),11	446,(4, 74),37	483,(5, 187),25	508,(6, 127),9	517,(6, 194),2	519,(4, 127),12	531,(6, 160),4	535,(8, 176),3	538,(10, 39),2	540,(10, 55),1	541,(10, 109),1	542,(3, 91),33	575,(3, 117),4	579,(4, 151),6	585,(7, 155),1	586,(11, 102),4	590,(7, 176),1	591,(11, 104),1	592,(3, 94),18	610,(4, 182),5	615,(4, 194),7	622,(7, 102),2	624,(7, 109),5	629,(7, 194),1	630,(7, 200),1	631,(15, 74),1	632,(2, 140),35	667,(3, 160),11	678,(3, 166),1	679,(10, 200),1	680,(7, 127),4	684,(10, 67),2	686,(10, 117),2	688,(3, 182),9	697,(3, 194),1	698,(7, 130),7	705,(2, 151),40	745,(14, 39),1	746,(14, 55),1	747,(14, 70),1	748,(13, 82),1	749,(11, 109),1	750,(11, 112),1	751,(2, 160),1	752,(6, 155),17	769,(7, 147),5	774,(13, 39),3	777,(13, 97),1	778,(2, 182),1	779,(4, 87),123	902,(7, 106),26	928,(11, 117),1	929,(11, 120),9	938,(10, 87),4	942,(10, 160),2	944,(14, 91),1	945,(11, 127),2	947,(4, 160),51	998,(8, 130),11	1009,(3, 127),102	1111,(6, 140),32	1143,(6, 187),11	1154,(10, 166),2	1156,(3, 171),33	1189,(7, 187),7	1196,(10, 91),3	1199,(10, 106),4	1203,(3, 187),9	1212,(5, 39),325	1537,(6, 182),21	1558,(7, 112),18	1576,(10, 147),5	1581,(5, 102),52	1633,(7, 67),31	1664,(7, 97),29	1693,(11, 147),14	1707,(7, 39),85	1792,(10, 70),12	1804,(10, 176),3	1807,(11, 155),15	1822,(12, 70),3	1825,(12, 87),1	1826,(12, 94),1	1827,(11, 160),6	1833,(7, 120),16	1849,(10, 102),33	1882,(10, 135),13	1895,(11, 176),2	1897,(10, 124),26	1923,(10, 140),14	1937,(12, 55),10	1947,(12, 79),11	1958,(12, 97),1	1959,(11, 182),2	1961,(8, 94),21	1982,(8, 135),16	1998,(15, 112),1	1999,(11, 187),39	2038,(12, 67),16	2054,(12, 102),1	2055,(12, 112),1	2056,(11, 194),1	2057,(12, 84),6	2063,(12, 124),1	2064,(12, 127),4	2068,(12, 130),1	2069,(12, 140),12	2081,(12, 155),1	2082,(12, 160),1	2083,(12, 176),2	2085,(12, 182),1	2086,(13, 106),1	2087,(11, 200),1	2088,(8, 74),83	2171,(12, 117),58	2229,(12, 187),6	2235,(13, 124),1	2236,(8, 102),74	2310,(8, 127),49	2359,(10, 104),215	2574,(12, 166),13	2587,(13, 67),2	2589,(13, 74),7	2596,(13, 84),2	2598,(13, 87),6	2604,(13, 91),2	2606,(13, 102),7	2613,(13, 109),27	2640,(13, 112),4	2644,(13, 120),9	2653,(13, 127),2	2655,(13, 147),12	2667,(14, 97),3	2670,(14, 102),19	2689,(14, 104),8	2697,(14, 109),19	2716,(14, 120),1	2717,(14, 130),2	2719,(14, 140),1	2720,(14, 155),26	2746,(14, 160),9	2755,(14, 187),38	2793,(15, 55),8	2801,(15, 67),4	2805,(15, 70),6	2811,(15, 84),3	2814,(15, 87),8	2822,(15, 102),4	2826,(15, 109),8	2834,(15, 124),1	2835,(15, 130),2	2837,(1, 39),17	2854,(15, 127),7	2861,(15, 147),5	2866,(15, 155),1	2867,(15, 171),1	2868,(15, 194),8	2876,(15, 200),6	2882,(16, 55),1	2883,(16, 67),22	2905,(16, 117),5	2910,(13, 200),20	2930,(14, 194),65	2995,(15, 39),65	3060,(16, 79),20	3080,(16, 82),6	3086,(16, 102),8	3094,(16, 120),9	3103,(16, 127),3	3106,(16, 135),9	3115,(16, 140),1	3116,(16, 151),7	3123,(16, 155),6	3129,(16, 166),2	3131,(16, 194),2	3133,(1, 55),4	3137,(16, 160),13	3150,(16, 171),13	3163,(16, 176),7	3170,(16, 182),5	3175,(17, 55),1	3176,(17, 67),15	3191,(17, 70),2	3193,(17, 74),1	3194,(17, 79),8	3202,(17, 87),4	3206,(17, 94),1	3207,(17, 97),1	3208,(17, 106),1	3209,(1, 79),2	3211,(1, 82),1	3212,(17, 91),5	3217,(17, 102),10	3227,(17, 117),8	3235,(17, 124),1	3236,(17, 127),2	3238,(17, 130),5	3243,(17, 135),7	3250,(17, 151),6	3256,(17, 166),12	3268,(17, 171),1	3269,(18, 70),8	3277,(18, 130),1	3278,(18, 155),1	3279,(1, 91),23	3302,(17, 200),15	3317,(18, 39),23	3340,(1, 94),175	3515,(18, 171),1	3516,(1, 97),2	3518,(18, 84),3	3521,(18, 94),12	3533,(1, 104),9	3542,(18, 91),44	3586,(18, 102),9	3595,(18, 120),5	3600,(1, 120),1	3601,(18, 160),6	3607,(18, 187),1	3608,(1, 124),15	3623,(18, 194),2	3625,(20, 39),1	3626,(20, 67),1	3627,(20, 70),1	3628,(1, 130),6	3634,(15, 104),65	3699,(20, 79),1	3700,(20, 82),3	3703,(20, 84),2	3705,(1, 135),1	3706,(15, 166),300	4006,(16, 187),85	4091,(18, 97),176	4267,(20, 91),1	4268,(1, 147),17	4285,(20, 106),1	4286,(20, 112),1	4287,(20, 140),1	4288,(20, 151),1	4289,(1, 151),1	4290,(20, 155),1	4291,(1, 155),9	4300,(18, 106),24	4324,(18, 147),11	4335,(18, 166),8	4343,(18, 200),44	4387,(20, 94),7	4394,(20, 109),6	4400,(20, 117),7	4407,(20, 127),3	4410,(20, 130),5	4415,(20, 147),3	4418,(20, 166),1	4419,(20, 171),2	4421,(20, 182),1	4422,(20, 194),3	4425,(20, 200),1	4446,(1, 171),24	4537,(1, 187),1	4736,(1, 194),3	
19,(0, 8),3	22,(4, 35),6	28,(6, 65),3	38,(2, 61),2	40,(9, 53),1	41,(6, 71),1	42,(2, 65),2	45,(2, 71),1	46,(0, 18),3	49,(9, 86),1	50,(9, 129),1	53,(5, 61),1	55,(9, 61),3	58,(4, 53),5	63,(5, 65),3	66,(5, 93),1	69,(5, 73),3	72,(6, 35),8	80,(9, 90),3	84,(6, 90),2	86,(6, 93),1	87,(9, 145),1	88,(5, 96),1	89,(9, 93),2	91,(9, 101),3	97,(2, 73),10	107,(9, 100),11	118,(9, 107),2	120,(9, 111),6	126,(9, 181),1	129,(6, 73),19	148,(5, 53),17	165,(6, 96),1	166,(6, 129),3	173,(6, 139),1	174,(6, 198),1	175,(2, 93),56	231,(4, 61),17	249,(9, 198),1	251,(11, 53),1	252,(4, 73),6	258,(4, 96),11	269,(7, 93),1	270,(11, 61),19	289,(4, 101),4	293,(4, 150),1	294,(16, 35),1	295,(11, 65),3	298,(3, 65),1	299,(5, 71),7	306,(5, 90),4	311,(2, 119),1	312,(5, 107),5	317,(5, 129),1	318,(2, 122),1	319,(5, 139),1	320,(2, 139),1	321,(11, 71),2	323,(2, 107),14	337,(2, 111),24	361,(2, 116),7	368,(2, 126),21	389,(3, 53),3	392,(4, 93),36	428,(5, 154),1	429,(2, 150),5	434,(5, 122),5	439,(11, 96),1	440,(5, 145),2	442,(4, 134),2	444,(4, 139),2	446,(2, 129),64	510,(5, 181),1	511,(7, 139),1	512,(4, 119),7	519,(6, 186),2	521,(3, 71),18	539,(3, 73),3	542,(4, 126),12	554,(4, 154),4	558,(6, 159),5	563,(4, 198),3	566,(11, 100),17	583,(11, 101),3	586,(3, 93),5	591,(3, 107),1	592,(5, 150),10	602,(6, 193),2	604,(7, 73),5	609,(7, 175),1	610,(3, 119),2	612,(3, 134),39	651,(15, 73),1	652,(3, 145),1	653,(7, 107),3	656,(15, 86),1	657,(3, 159),8	665,(7, 61),7	672,(7, 101),8	680,(10, 159),1	681,(3, 175),6	687,(3, 181),1	688,(7, 100),10	698,(3, 198),2	700,(4, 100),43	743,(7, 129),6	749,(2, 159),2	751,(14, 35),1	752,(14, 65),1	753,(2, 170),4	757,(13, 65),1	758,(11, 116),170	928,(2, 175),2	930,(2, 186),2	932,(7, 65),12	944,(10, 53),3	947,(11, 129),1	948,(7, 53),36	984,(7, 71),33	1017,(7, 96),49	1066,(7, 116),39	1105,(10, 100),4	1109,(12, 35),1	1110,(4, 170),39	1149,(5, 100),37	1186,(6, 122),35	1221,(6, 150),43	1264,(7, 134),9	1273,(9, 119),7	1280,(9, 134),7	1287,(12, 65),1	1288,(12, 93),2	1290,(4, 175),26	1316,(6, 154),27	1343,(6, 170),29	1372,(6, 175),36	1408,(9, 65),35	1443,(9, 139),15	1458,(9, 150),14	1472,(9, 159),43	1515,(10, 65),6	1521,(10, 101),11	1532,(10, 122),3	1535,(10, 145),18	1553,(10, 170),2	1555,(12, 71),3	1558,(12, 73),17	1575,(12, 96),1	1576,(12, 126),5	1581,(10, 175),35	1616,(12, 86),12	1628,(12, 145),1	1629,(12, 154),2	1631,(13, 86),1	1632,(13, 96),1	1633,(12, 175),1	1634,(11, 139),2	1636,(12, 101),6	1642,(12, 129),10	1652,(16, 53),1	1653,(11, 145),39	1692,(12, 134),9	1701,(12, 139),17	1718,(12, 165),2	1720,(12, 181),3	1723,(12, 198),2	1725,(14, 71),5	1730,(11, 150),1	1731,(5, 111),81	1812,(13, 35),11	1823,(13, 101),2	1825,(11, 159),2	1827,(13, 107),3	1830,(13, 116),3	1833,(14, 116),1	1834,(11, 165),2	1836,(13, 90),12	1848,(13, 93),18	1866,(13, 139),7	1873,(13, 159),4	1877,(13, 165),5	1882,(14, 134),1	1883,(11, 175),12	1895,(5, 186),37	1932,(13, 170),9	1941,(13, 181),4	1945,(13, 193),3	1948,(15, 126),1	1949,(11, 181),10	1959,(13, 73),52	2011,(13, 119),44	2055,(15, 119),2	2057,(15, 186),1	2058,(13, 186),6	2064,(13, 198),2	2066,(15, 134),2	2068,(11, 198),2	2070,(19, 35),7	2077,(19, 61),1	2078,(19, 73),3	2081,(19, 96),2	2083,(19, 126),1	2084,(19, 139),3	2087,(13, 129),30	2117,(13, 154),25	2142,(14, 73),7	2149,(14, 86),35	2184,(14, 90),4	2188,(14, 93),66	2254,(14, 107),6	2260,(14, 119),27	2287,(14, 122),25	2312,(14, 129),4	2316,(14, 139),1	2317,(14, 145),4	2321,(14, 150),9	2330,(14, 165),2	2332,(14, 170),4	2336,(14, 175),3	2339,(14, 186),16	2355,(15, 122),4	2359,(14, 181),75	2434,(15, 53),22	2456,(15, 61),31	2487,(15, 71),29	2516,(15, 93),29	2545,(15, 96),5	2550,(15, 154),3	2553,(14, 193),1	2554,(15, 101),44	2598,(15, 111),8	2606,(16, 71),3	2609,(16, 86),13	2622,(16, 93),3	2625,(16, 96),8	2633,(16, 100),1	2634,(16, 101),8	2642,(16, 111),2	2644,(16, 116),1	2645,(16, 129),1	2646,(16, 139),4	2650,(16, 145),8	2658,(16, 150),9	2667,(16, 154),11	2678,(16, 170),9	2687,(16, 181),2	2689,(16, 193),3	2692,(16, 198),5	2697,(17, 35),5	2702,(17, 53),5	2707,(17, 71),1	2708,(17, 73),12	2720,(17, 93),2	2722,(17, 96),1	2723,(15, 150),5	2728,(15, 165),10	2738,(15, 198),6	2744,(17, 86),121	2865,(17, 90),11	2876,(17, 100),2	2878,(17, 101),1	2879,(17, 126),3	2882,(17, 150),1	2883,(17, 154),22	2905,(17, 159),14	2919,(17, 181),1	2920,(19, 90),9	2929,(19, 107),16	2945,(19, 111),14	2959,(19, 134),11	2970,(20, 35),1	2971,(20, 53),1	2972,(20, 71),6	2978,(20, 73),8	2986,(20, 86),3	2989,(20, 96),2	2991,(20, 111),2	2993,(20, 116),14	3007,(20, 122),2	3009,(20, 134),4	3013,(20, 154),3	3016,(20, 159),1	3017,(20, 186),1	3114,(19, 150),1	3115,(19, 154),2	3117,(19, 159),8	3125,(19, 170),6	3131,(19, 175),1	3132,(19, 181),11	3143,(19, 193),5	3278,(1, 90),1	3303,(1, 93),37	3544,(1, 107),26	3598,(1, 116),1	3601,(1, 122),6	3623,(1, 129),5	3680,(1, 134),25	4261,(1, 145),7	4288,(1, 150),1	4290,(1, 154),1	4303,(1, 159),5	4489,(1, 175),10	4519,(1, 186),18	4538,(1, 193),198	4736,(5, 170),1221	
16,(0, 7),3	26,(6, 47),1	28,(5, 33),3	31,(6, 33),7	38,(6, 58),1	39,(6, 63),1	42,(9, 180),1	43,(0, 17),3	46,(2, 47),12	58,(2, 49),11	69,(4, 49),13	83,(5, 47),2	85,(5, 49),2	87,(6, 49),9	101,(8, 58),1	103,(6, 115),1	104,(9, 158),3	109,(8, 63),6	127,(9, 197),1	128,(3, 33),4	136,(8, 88),2	144,(2, 88),1	147,(8, 115),1	160,(19, 115),1	161,(8, 174),1	164,(6, 164),1	165,(5, 63),8	177,(9, 174),9	208,(19, 153),3	214,(8, 143),8	222,(9, 143),13	237,(8, 185),1	238,(8, 197),1	240,(11, 47),1	241,(11, 49),9	250,(18, 58),1	251,(18, 115),1	252,(11, 58),18	270,(4, 158),1	271,(8, 164),3	274,(19, 192),1	275,(5, 153),1	276,(16, 115),1	277,(16, 149),2	279,(16, 197),1	281,(5, 180),1	282,(5, 192),1	283,(3, 47),5	289,(18, 158),1	290,(11, 63),5	295,(6, 174),6	301,(19, 58),5	306,(18, 174),1	309,(2, 115),2	311,(8, 180),7	318,(18, 164),4	322,(5, 169),10	332,(16, 49),9	341,(19, 63),5	349,(6, 158),16	369,(11, 88),1	380,(5, 197),2	382,(3, 115),7	389,(5, 185),3	392,(8, 149),62	454,(3, 63),67	521,(15, 49),1	522,(15, 158),2	524,(10, 33),3	527,(15, 192),1	528,(10, 58),1	529,(10, 174),2	531,(15, 58),3	534,(15, 180),5	539,(16, 63),11	558,(4, 192),5	563,(16, 158),9	576,(15, 149),10	599,(10, 143),4	603,(19, 143),6	612,(18, 33),18	646,(19, 158),7	653,(3, 149),1	656,(3, 158),1	657,(10, 149),5	664,(20, 33),1	665,(20, 174),1	666,(3, 174),1	667,(10, 158),9	676,(20, 47),2	678,(20, 180),1	679,(3, 169),2	681,(19, 169),7	688,(10, 192),6	694,(19, 197),8	704,(13, 174),1	705,(16, 153),15	720,(18, 88),12	734,(3, 192),11	745,(2, 158),4	751,(11, 115),7	758,(2, 164),1	759,(2, 169),8	767,(14, 197),5	773,(13, 192),1	781,(2, 192),20	801,(5, 58),288	1089,(8, 47),83	1172,(9, 169),97	1269,(10, 115),29	1298,(10, 164),30	1328,(12, 63),1	1329,(12, 115),1	1330,(12, 153),26	1356,(12, 169),1	1357,(12, 185),1	1358,(12, 192),2	1360,(13, 33),10	1370,(18, 169),20	1390,(19, 47),15	1418,(13, 88),19	1437,(13, 149),5	1442,(13, 153),5	1447,(13, 164),7	1454,(20, 63),9	1470,(12, 197),3	1481,(20, 158),4	1485,(20, 185),8	1545,(14, 63),9	1554,(14, 153),11	1565,(14, 158),24	1639,(11, 143),4	1678,(20, 115),24	1702,(14, 164),9	1729,(11, 149),1	1787,(14, 174),19	1806,(11, 153),1	1823,(11, 158),2	1833,(11, 164),1	1850,(11, 169),33	1883,(14, 180),58	1943,(11, 180),6	1962,(11, 185),37	1999,(15, 143),32	2031,(19, 88),18	2055,(11, 192),1	2059,(11, 197),9	2068,(5, 149),283	2351,(19, 149),16	2367,(19, 180),25	2458,(13, 185),63	2604,(1, 33),6	2610,(15, 33),113	2723,(16, 180),116	2899,(1, 47),16	2916,(1, 49),8	3144,(1, 63),52	4260,(1, 143),1	4300,(1, 158),3	4321,(1, 164),24	4398,(1, 169),48	4474,(1, 174),15	4518,(1, 185),1	4754,(1, 197),1	
13,(0, 6),3	21,(4, 157),1	32,(2, 46),2	36,(9, 52),1	40,(0, 16),3	44,(2, 68),1	45,(9, 59),2	51,(4, 46),7	58,(9, 28),8	66,(9, 66),5	71,(9, 142),1	84,(9, 157),1	85,(9, 190),1	86,(9, 196),1	87,(11, 28),6	96,(8, 46),5	101,(9, 163),3	106,(8, 59),3	127,(5, 46),21	148,(8, 142),2	150,(19, 28),2	162,(19, 142),1	163,(19, 168),1	175,(4, 52),13	188,(9, 68),20	210,(4, 78),7	218,(19, 173),3	221,(19, 179),1	229,(8, 157),8	239,(11, 46),1	248,(18, 59),1	250,(11, 52),1	264,(7, 28),1	265,(8, 163),6	274,(5, 144),1	281,(3, 46),2	283,(5, 179),1	284,(18, 68),2	287,(18, 144),2	294,(18, 157),2	296,(18, 196),2	298,(11, 66),1	299,(3, 52),21	322,(3, 66),1	333,(11, 78),12	345,(7, 168),4	349,(8, 168),11	361,(3, 142),2	363,(5, 66),17	384,(15, 66),1	385,(18, 142),7	392,(5, 190),11	403,(5, 196),19	427,(15, 142),1	428,(19, 78),12	442,(15, 163),2	447,(15, 168),4	451,(15, 173),5	456,(10, 28),8	464,(15, 184),6	476,(7, 78),18	494,(7, 173),1	501,(7, 184),8	509,(8, 184),23	532,(10, 68),4	536,(20, 28),1	537,(20, 173),1	539,(14, 28),3	542,(7, 190),15	557,(8, 190),55	612,(9, 144),34	646,(17, 28),1	647,(17, 46),4	651,(3, 144),1	652,(17, 163),1	654,(3, 157),2	656,(17, 184),1	665,(3, 163),1	666,(20, 179),1	667,(2, 144),38	705,(3, 173),6	711,(3, 179),1	712,(3, 184),1	713,(9, 179),32	745,(3, 196),3	748,(14, 52),1	749,(14, 59),1	750,(14, 142),1	752,(2, 163),1	753,(14, 157),1	754,(14, 173),1	755,(14, 179),1	756,(14, 184),4	760,(17, 52),5	767,(2, 173),10	777,(2, 179),1	779,(13, 163),1	780,(81, 201),3	801,(2, 196),21	822,(9, 173),39	861,(12, 28),1	862,(17, 66),5	867,(17, 68),7	874,(17, 78),5	879,(18, 190),11	915,(12, 66),6	921,(12, 68),2	923,(12, 144),2	925,(12, 168),1	926,(12, 184),1	928,(10, 46),9	947,(10, 59),24	971,(10, 179),33	1004,(10, 190),59	1063,(10, 196),17	1080,(12, 163),4	1084,(12, 190),4	1089,(15, 144),22	1111,(17, 168),8	1119,(17, 173),52	1171,(58, 201),3	1174,(12, 179),33	1207,(17, 190),15	1222,(18, 168),38	1260,(20, 52),5	1265,(20, 190),1	1266,(36, 201),3	1269,(22, 201),3	1272,(34, 201),3	1287,(19, 144),27	1329,(13, 28),6	1347,(13, 59),4	1351,(13, 78),9	1360,(12, 196),110	1470,(13, 52),32	1502,(20, 59),9	1522,(65, 201),3	1537,(54, 201),3	1555,(20, 66),13	1595,(13, 68),15	1610,(13, 142),10	1620,(13, 184),4	1624,(13, 190),1	1625,(41, 201),3	1636,(11, 142),3	1643,(11, 144),10	1653,(13, 66),107	1760,(13, 144),26	1786,(13, 157),12	1798,(115, 201),3	1807,(20, 68),15	1822,(11, 157),1	1823,(20, 142),12	1836,(11, 168),14	1850,(153, 201),3	1859,(32, 201),3	1862,(77, 201),3	1865,(146, 201),3	1868,(64, 201),3	1932,(11, 179),11	1943,(4, 179),184	2127,(20, 78),24	2151,(88, 201),3	2154,(192, 201),3	2157,(23, 201),3	2160,(25, 201),3	2275,(20, 163),21	2296,(20, 168),13	2351,(26, 201),3	2355,(13, 168),103	2458,(149, 201),3	2513,(14, 190),40	2554,(24, 201),3	2557,(133, 201),3	2587,(1, 28),12	2606,(189, 201),3	2609,(62, 201),3	2612,(31, 201),3	2667,(13, 179),185	2852,(27, 201),3	2855,(30, 201),3	2882,(38, 201),3	2885,(40, 201),3	2888,(42, 201),3	2891,(43, 201),3	2920,(33, 201),3	2923,(180, 201),3	2926,(47, 201),3	2930,(45, 201),3	2933,(49, 201),3	2941,(1, 52),192	3133,(119, 201),3	3136,(61, 201),3	3139,(139, 201),3	3142,(1, 59),1	3143,(165, 201),3	3146,(198, 201),3	3149,(100, 201),3	3152,(101, 201),3	3155,(126, 201),3	3158,(51, 201),3	3161,(35, 201),3	3164,(53, 201),3	3167,(71, 201),3	3170,(73, 201),3	3173,(86, 201),3	3176,(96, 201),3	3179,(111, 201),3	3182,(57, 201),3	3185,(181, 201),3	3188,(176, 201),3	3191,(55, 201),3	3196,(1, 66),2	3198,(74, 201),3	3203,(1, 78),6	3209,(63, 201),3	3212,(76, 201),3	3215,(87, 201),3	3280,(90, 201),3	3295,(125, 201),3	3339,(56, 201),3	3342,(44, 201),3	3345,(93, 201),3	3366,(89, 201),3	3463,(191, 201),3	3466,(183, 201),3	3476,(48, 201),3	3519,(95, 201),3	3522,(98, 201),3	3596,(102, 201),3	3599,(114, 201),3	3602,(118, 201),3	3605,(120, 201),3	3608,(107, 201),3	3611,(116, 201),3	3614,(160, 201),3	3617,(122, 201),3	3620,(123, 201),3	3624,(124, 201),3	3627,(39, 201),3	3630,(67, 201),3	3633,(129, 201),3	3636,(70, 201),3	3639,(131, 201),3	3700,(104, 201),3	3703,(79, 201),3	3706,(82, 201),3	3709,(134, 201),3	3712,(84, 201),3	3715,(135, 201),3	3730,(83, 201),3	3876,(105, 201),3	3907,(60, 201),3	3921,(99, 201),3	3924,(103, 201),3	3935,(128, 201),3	3938,(132, 201),3	3972,(72, 201),3	3977,(75, 201),3	3981,(80, 201),3	3984,(85, 201),3	4026,(92, 201),3	4029,(108, 201),3	4038,(110, 201),3	4041,(113, 201),3	4044,(121, 201),3	4047,(141, 201),3	4050,(152, 201),3	4053,(156, 201),3	4056,(178, 201),3	4059,(188, 201),3	4242,(136, 201),3	4245,(137, 201),3	4254,(1, 142),6	4260,(138, 201),3	4263,(143, 201),3	4268,(97, 201),3	4271,(91, 201),3	4274,(145, 201),3	4288,(112, 201),3	4291,(140, 201),3	4294,(148, 201),3	4297,(150, 201),3	4300,(151, 201),3	4303,(155, 201),3	4306,(158, 201),3	4310,(161, 201),3	4322,(162, 201),3	4325,(106, 201),3	4346,(164, 201),3	4387,(154, 201),3	4390,(159, 201),3	4397,(1, 168),1	4398,(94, 201),3	4401,(109, 201),3	4408,(117, 201),3	4411,(127, 201),3	4416,(130, 201),3	4419,(147, 201),3	4422,(166, 201),3	4426,(167, 201),3	4429,(182, 201),3	4432,(200, 201),3	4447,(169, 201),3	4471,(171, 201),3	4475,(172, 201),3	4490,(174, 201),3	4500,(175, 201),3	4508,(1, 179),10	4518,(177, 201),3	4521,(185, 201),3	4538,(186, 201),3	4541,(187, 201),3	4737,(193, 201),3	4740,(194, 201),3	4750,(1, 196),4	4754,(195, 201),3	4757,(197, 201),3	4763,(21, 201),3	4766,(29, 201),3	4769,(37, 201),3	4772,(50, 201),3	5552,(69, 201),3	5957,(199, 201),3	5960,(170, 201),3	
10,(0, 5),3	13,(2, 26),1	14,(4, 26),2	22,(6, 32),1	23,(6, 40),2	27,(6, 56),1	28,(4, 38),9	37,(0, 15),3	40,(2, 56),2	42,(4, 40),9	51,(9, 26),1	52,(9, 38),2	54,(9, 40),1	63,(4, 56),3	68,(11, 26),6	74,(9, 56),5	79,(9, 81),1	80,(6, 54),3	83,(6, 77),1	89,(3, 26),15	104,(8, 38),1	105,(8, 56),1	106,(11, 38),12	118,(11, 40),32	150,(2, 81),2	152,(9, 64),7	159,(19, 26),1	167,(8, 40),18	185,(8, 81),13	215,(6, 146),2	222,(8, 146),7	235,(9, 189),14	249,(18, 189),1	250,(19, 40),5	255,(19, 56),10	265,(19, 189),2	267,(7, 64),1	268,(16, 26),1	269,(16, 40),1	271,(16, 77),2	280,(3, 40),1	286,(7, 32),31	317,(7, 81),3	320,(3, 64),2	322,(7, 40),6	328,(18, 77),4	346,(11, 81),15	366,(7, 199),3	369,(18, 199),8	379,(17, 32),1	380,(4, 189),2	389,(14, 26),1	392,(3, 54),62	454,(8, 189),23	483,(4, 81),29	512,(7, 38),30	542,(9, 146),45	587,(10, 32),10	597,(10, 56),2	601,(17, 56),2	603,(10, 146),3	607,(14, 40),2	609,(14, 146),1	610,(16, 146),35	645,(16, 189),16	662,(20, 32),2	664,(17, 64),1	675,(14, 81),19	702,(13, 26),1	703,(13, 64),1	713,(3, 189),21	734,(17, 26),9	749,(17, 38),3	753,(18, 64),19	774,(17, 77),5	803,(17, 54),9	822,(2, 199),15	837,(6, 26),262	1099,(12, 32),8	1107,(12, 146),1	1109,(10, 199),19	1128,(12, 40),30	1158,(12, 64),13	1171,(12, 77),3	1174,(17, 189),9	1212,(3, 199),24	1273,(17, 199),53	1326,(19, 32),35	1370,(13, 40),48	1463,(20, 64),18	1502,(13, 56),93	1595,(14, 32),59	1654,(20, 77),24	1692,(11, 146),1	1732,(19, 64),54	1897,(13, 199),25	2049,(11, 189),2	2070,(11, 199),17	2108,(1, 26),2	2165,(19, 199),68	2309,(20, 189),39	2434,(14, 189),79	2610,(1, 38),227	2854,(1, 40),5	3137,(1, 56),4	4755,(1, 199),8	
7,(0, 4),3	14,(2, 42),16	30,(2, 43),2	34,(0, 14),3	37,(9, 51),1	38,(5, 24),6	44,(5, 31),3	47,(6, 31),5	52,(6, 42),4	56,(6, 43),1	57,(6, 51),7	64,(6, 62),5	69,(2, 62),20	89,(5, 62),14	103,(8, 51),1	105,(3, 31),23	128,(9, 31),9	137,(9, 42),5	142,(9, 43),4	146,(9, 62),3	149,(19, 76),1	150,(11, 42),17	167,(11, 43),53	220,(5, 51),50	270,(7, 24),14	284,(7, 31),2	286,(18, 31),1	289,(11, 62),1	290,(8, 133),4	295,(3, 62),3	298,(8, 76),8	306,(9, 76),20	326,(19, 31),5	332,(3, 133),1	342,(5, 177),11	353,(7, 76),6	364,(7, 133),2	366,(9, 177),21	387,(15, 42),1	388,(15, 62),1	389,(19, 43),10	402,(7, 42),74	476,(10, 24),7	483,(10, 31),3	495,(7, 177),6	510,(2, 133),122	632,(8, 42),72	704,(10, 43),224	932,(12, 31),5	937,(10, 133),1	942,(13, 24),1	943,(13, 31),1	944,(13, 42),2	946,(13, 43),1	947,(13, 51),2	949,(13, 62),1	950,(11, 133),630	1580,(8, 62),370	1950,(10, 51),48	1998,(12, 51),7	2005,(12, 62),3	2008,(12, 133),28	2036,(20, 24),2	2038,(15, 133),7	2045,(15, 177),3	2048,(17, 62),5	2057,(13, 133),1	2058,(17, 24),74	2132,(17, 76),7	2139,(19, 62),12	2152,(16, 31),23	2175,(16, 133),48	2223,(16, 177),10	2233,(17, 43),88	2321,(19, 51),15	2338,(12, 177),165	2503,(17, 177),55	2574,(20, 42),6	2580,(20, 62),23	2603,(1, 31),1	2604,(20, 76),28	2752,(20, 177),98	2859,(1, 42),27	2886,(1, 43),4	2924,(1, 51),17	3198,(1, 76),5	4499,(1, 177),9	
4,(0, 3),3	7,(2, 23),4	11,(2, 27),1	12,(2, 44),1	16,(4, 27),4	20,(6, 23),1	21,(6, 27),1	25,(6, 41),1	31,(0, 13),3	34,(9, 41),1	35,(9, 45),1	37,(4, 45),3	47,(5, 41),6	61,(11, 23),4	74,(11, 27),13	87,(4, 44),88	175,(5, 30),21	196,(5, 44),21	217,(9, 191),1	218,(6, 161),1	220,(11, 44),19	239,(6, 30),14	253,(6, 123),4	257,(8, 45),4	261,(18, 23),4	265,(7, 44),1	266,(7, 45),1	267,(9, 131),7	274,(16, 23),1	276,(5, 161),5	281,(18, 41),1	282,(19, 23),2	284,(5, 191),2	288,(4, 191),1	289,(19, 44),7	296,(19, 123),4	301,(6, 191),18	321,(7, 131),1	328,(7, 41),15	343,(7, 161),2	356,(15, 23),1	362,(15, 27),1	365,(16, 123),8	373,(16, 161),4	382,(15, 30),1	383,(15, 41),1	386,(15, 123),1	388,(14, 23),1	390,(14, 30),1	391,(2, 131),4	428,(14, 45),1	434,(2, 161),1	435,(4, 131),7	473,(10, 41),3	476,(16, 45),28	509,(17, 44),1	542,(10, 123),39	585,(4, 161),22	607,(10, 44),50	657,(17, 27),7	670,(14, 41),5	675,(15, 191),16	694,(14, 123),3	697,(14, 161),1	760,(14, 191),3	780,(2, 191),1	781,(17, 30),7	788,(18, 131),18	812,(17, 123),31	843,(17, 131),5	850,(12, 44),2	852,(12, 191),4	856,(18, 191),21	937,(12, 45),15	1080,(20, 27),7	1087,(20, 30),8	1128,(20, 41),16	1222,(17, 191),12	1234,(20, 44),20	1328,(10, 191),71	1702,(20, 123),74	1909,(19, 131),86	2051,(11, 191),4	2088,(1, 23),11	2110,(1, 27),477	2599,(1, 30),4	2632,(20, 161),120	2890,(1, 44),3	2893,(1, 45),6	3060,(15, 44),279	3339,(19, 191),123	3607,(1, 123),1	3634,(1, 131),4	4308,(1, 161),1	
1,(0, 2),3	12,(4, 22),2	28,(0, 12),3	31,(5, 22),7	38,(9, 22),1	39,(9, 25),1	46,(6, 98),1	55,(11, 22),6	65,(11, 25),3	72,(3, 22),2	74,(3, 25),15	93,(11, 34),1	94,(11, 36),12	106,(5, 36),21	127,(8, 25),1	128,(8, 36),1	132,(3, 36),20	152,(6, 34),10	162,(8, 34),5	167,(9, 57),8	175,(9, 138),2	186,(19, 57),1	187,(19, 136),1	188,(4, 57),15	203,(8, 57),4	207,(8, 98),4	211,(19, 34),3	217,(4, 98),11	231,(6, 138),6	237,(7, 22),27	270,(5, 136),1	271,(5, 138),3	274,(18, 22),5	279,(18, 25),1	280,(18, 57),1	282,(18, 114),1	283,(18, 138),1	284,(16, 98),8	294,(3, 57),1	320,(7, 114),1	323,(16, 138),6	332,(18, 98),12	345,(3, 138),1	357,(3, 114),3	360,(7, 98),4	370,(7, 136),8	378,(17, 25),1	385,(15, 114),1	391,(14, 34),1	395,(16, 22),24	422,(15, 57),5	429,(15, 136),4	440,(11, 98),7	447,(9, 36),74	521,(10, 22),2	523,(10, 25),1	527,(10, 34),1	531,(4, 138),8	539,(15, 34),16	557,(17, 22),16	573,(17, 34),1	581,(10, 136),6	587,(19, 25),12	602,(15, 138),8	642,(14, 22),9	651,(14, 25),19	670,(16, 36),33	754,(13, 34),3	879,(17, 138),21	902,(14, 136),22	932,(13, 22),10	1028,(19, 98),82	1156,(20, 34),27	1236,(13, 25),93	1341,(13, 57),6	1399,(20, 57),53	1580,(11, 136),27	1607,(11, 138),27	1654,(14, 114),48	1730,(14, 138),57	1787,(19, 114),122	2099,(1, 25),9	2151,(20, 136),124	2970,(19, 138),144	3141,(1, 57),1	3518,(1, 98),1	3577,(1, 114),21	3706,(1, 136),535	4242,(1, 138),12	
5,(2, 21),1	6,(2, 37),1	11,(4, 21),1	20,(4, 29),1	21,(5, 21),7	28,(9, 21),6	34,(2, 50),3	37,(3, 21),35	72,(5, 29),10	82,(5, 37),1	87,(5, 50),1	88,(8, 21),8	96,(6, 50),5	104,(3, 29),1	105,(6, 37),24	129,(8, 50),4	152,(3, 37),128	280,(16, 21),1	281,(16, 37),3	286,(15, 21),2	288,(3, 50),6	294,(4, 37),72	366,(4, 50),14	380,(7, 29),8	388,(7, 37),14	402,(9, 37),24	426,(10, 21),30	464,(10, 29),7	471,(10, 37),2	473,(15, 29),9	482,(18, 37),3	486,(10, 50),29	538,(18, 29),6	555,(15, 50),21	577,(14, 37),2	579,(17, 37),5	592,(17, 21),9	622,(14, 21),20	700,(13, 21),2	705,(17, 29),29	734,(18, 21),19	788,(17, 50),15	837,(12, 21),13	862,(12, 29),22	884,(12, 37),31	952,(12, 50),15	967,(19, 29),61	1335,(13, 50),6	1515,(19, 37),217	2460,(18, 50),500	
# Outgoing
426,(10, 21),30	456,(10, 28),8	464,(10, 29),7	471,(10, 37),2	473,(10, 41),3	476,(10, 24),7	483,(10, 31),3	486,(10, 50),29	521,(10, 22),2	523,(10, 25),1	524,(10, 33),3	527,(10, 34),1	528,(10, 58),1	529,(10, 174),2	532,(10, 68),4	536,(20, 28),1	537,(20, 173),1	538,(10, 39),2	540,(10, 55),1	541,(10, 109),1	542,(10, 123),39	581,(10, 136),6	587,(10, 32),10	597,(10, 56),2	599,(10, 143),4	603,(10, 146),3	607,(10, 44),50	657,(10, 149),5	662,(20, 32),2	664,(20, 33),1	665,(20, 174),1	666,(20, 179),1	667,(10, 158),9	676,(20, 47),2	678,(20, 180),1	679,(10, 200),1	680,(10, 159),1	684,(10, 67),2	686,(10, 117),2	688,(10, 192),6	704,(10, 43),224	928,(10, 46),9	937,(10, 133),1	938,(10, 87),4	942,(10, 160),2	944,(10, 53),3	947,(10, 59),24	971,(10, 179),33	1004,(10, 190),59	1063,(10, 196),17	1080,(20, 27),7	1087,(20, 30),8	1105,(10, 100),4	1109,(10, 199),19	1128,(20, 41),16	1154,(10, 166),2	1156,(20, 34),27	1196,(10, 91),3	1199,(10, 106),4	1234,(20, 44),20	1260,(20, 52),5	1265,(20, 190),1	1269,(10, 115),29	1298,(10, 164),30	1328,(10, 191),71	1399,(20, 57),53	1454,(20, 63),9	1463,(20, 64),18	1481,(20, 158),4	1485,(20, 185),8	1502,(20, 59),9	1515,(10, 65),6	1521,(10, 101),11	1532,(10, 122),3	1535,(10, 145),18	1553,(10, 170),2	1555,(20, 66),13	1576,(10, 147),5	1581,(10, 175),35	1654,(20, 77),24	1678,(20, 115),24	1702,(20, 123),74	1792,(10, 70),12	1804,(10, 176),3	1807,(20, 68),15	1823,(20, 142),12	1849,(10, 102),33	1882,(10, 135),13	1897,(10, 124),26	1923,(10, 140),14	1950,(10, 51),48	2036,(20, 24),2	2127,(20, 78),24	2151,(20, 136),124	2275,(20, 163),21	2296,(20, 168),13	2309,(20, 189),39	2359,(10, 104),215	2574,(20, 42),6	2580,(20, 62),23	2604,(20, 76),28	2632,(20, 161),120	2752,(20, 177),98	2970,(20, 35),1	2971,(20, 53),1	2972,(20, 71),6	2978,(20, 73),8	2986,(20, 86),3	2989,(20, 96),2	2991,(20, 111),2	2993,(20, 116),14	3007,(20, 122),2	3009,(20, 134),4	3013,(20, 154),3	3016,(20, 159),1	3017,(20, 186),1	3295,(125, 201),3	3366,(89, 201),3	3466,(183, 201),3	3476,(48, 201),3	3519,(95, 201),3	3602,(118, 201),3	3625,(20, 39),1	3626,(20, 67),1	3627,(20, 70),1	3699,(20, 79),1	3700,(20, 82),3	3703,(20, 84),2	3730,(83, 201),3	3876,(105, 201),3	3907,(60, 201),3	3921,(99, 201),3	3924,(103, 201),3	3935,(128, 201),3	3938,(132, 201),3	3972,(72, 201),3	3977,(75, 201),3	3981,(80, 201),3	3984,(85, 201),3	4026,(92, 201),3	4029,(108, 201),3	4038,(110, 201),3	4041,(113, 201),3	4044,(121, 201),3	4047,(141, 201),3	4050,(152, 201),3	4053,(156, 201),3	4056,(178, 201),3	4059,(188, 201),3	4245,(137, 201),3	4267,(20, 91),1	4285,(20, 106),1	4286,(20, 112),1	4287,(20, 140),1	4288,(20, 151),1	4290,(20, 155),1	4294,(148, 201),3	4322,(162, 201),3	4387,(20, 94),7	4394,(20, 109),6	4400,(20, 117),7	4407,(20, 127),3	4410,(20, 130),5	4415,(20, 147),3	4418,(20, 166),1	4419,(20, 171),2	4421,(20, 182),1	4422,(20, 194),3	4425,(20, 200),1	4426,(167, 201),3	4475,(172, 201),3	4754,(195, 201),3	5552,(69, 201),3	
28,(9, 21),6	34,(9, 41),1	35,(9, 45),1	36,(9, 52),1	37,(9, 51),1	38,(9, 22),1	39,(9, 25),1	40,(9, 53),1	41,(9, 95),1	42,(9, 180),1	43,(9, 85),2	45,(9, 59),2	47,(9, 108),1	48,(9, 132),1	49,(9, 86),1	50,(9, 129),1	51,(9, 26),1	52,(9, 38),2	54,(9, 40),1	55,(9, 61),3	58,(9, 28),8	66,(9, 66),5	71,(9, 142),1	72,(9, 121),2	74,(9, 56),5	79,(9, 81),1	80,(9, 90),3	83,(9, 137),1	84,(9, 157),1	85,(9, 190),1	86,(9, 196),1	87,(9, 145),1	88,(9, 148),1	89,(9, 93),2	91,(9, 101),3	94,(9, 60),6	100,(9, 172),1	101,(9, 163),3	104,(9, 158),3	107,(9, 100),11	118,(9, 107),2	120,(9, 111),6	126,(9, 181),1	127,(9, 197),1	128,(9, 31),9	137,(9, 42),5	142,(9, 43),4	146,(9, 62),3	149,(19, 76),1	150,(19, 28),2	152,(9, 64),7	159,(19, 26),1	160,(19, 115),1	161,(19, 60),1	162,(19, 142),1	163,(19, 168),1	164,(9, 178),3	167,(9, 57),8	175,(9, 138),2	177,(9, 174),9	186,(19, 57),1	187,(19, 136),1	188,(9, 68),20	208,(19, 153),3	211,(19, 34),3	214,(9, 188),2	216,(19, 69),1	217,(9, 191),1	218,(19, 173),3	221,(19, 179),1	222,(9, 143),13	235,(9, 189),14	249,(9, 198),1	250,(19, 40),5	255,(19, 56),10	265,(19, 189),2	267,(9, 131),7	274,(19, 192),1	282,(19, 23),2	289,(19, 44),7	296,(19, 123),4	301,(19, 58),5	306,(9, 76),20	326,(19, 31),5	341,(19, 63),5	366,(9, 177),21	389,(19, 43),10	402,(9, 37),24	428,(19, 78),12	447,(9, 36),74	542,(9, 146),45	587,(19, 25),12	603,(19, 143),6	612,(9, 144),34	646,(19, 158),7	681,(19, 169),7	694,(19, 197),8	713,(9, 179),32	822,(9, 173),39	934,(9, 118),4	967,(19, 29),61	1028,(19, 98),82	1172,(9, 169),97	1273,(9, 119),7	1280,(9, 134),7	1287,(19, 144),27	1326,(19, 32),35	1390,(19, 47),15	1408,(9, 65),35	1443,(9, 139),15	1458,(9, 150),14	1472,(9, 159),43	1515,(19, 37),217	1732,(19, 64),54	1787,(19, 114),122	1909,(19, 131),86	2031,(19, 88),18	2070,(19, 35),7	2077,(19, 61),1	2078,(19, 73),3	2081,(19, 96),2	2083,(19, 126),1	2084,(19, 139),3	2139,(19, 62),12	2152,(9, 75),13	2165,(19, 199),68	2236,(9, 83),10	2246,(9, 99),13	2259,(9, 110),10	2269,(9, 195),13	2321,(19, 51),15	2351,(19, 149),16	2367,(19, 180),25	2460,(9, 69),170	2630,(9, 162),158	2920,(19, 90),9	2929,(19, 107),16	2945,(19, 111),14	2959,(19, 134),11	2970,(19, 138),144	3114,(19, 150),1	3115,(19, 154),2	3117,(19, 159),8	3125,(19, 170),6	3131,(19, 175),1	3132,(19, 181),11	3143,(19, 193),5	3188,(176, 201),3	3191,(55, 201),3	3198,(74, 201),3	3215,(87, 201),3	3339,(19, 191),123	3596,(102, 201),3	3605,(120, 201),3	3614,(160, 201),3	3624,(124, 201),3	3627,(39, 201),3	3630,(67, 201),3	3636,(70, 201),3	3700,(104, 201),3	3703,(79, 201),3	3706,(82, 201),3	3712,(84, 201),3	3715,(135, 201),3	3967,(19, 72),4	3971,(19, 75),5	3976,(19, 80),4	3980,(19, 85),1	3981,(19, 92),44	4025,(19, 108),1	4026,(19, 110),11	4037,(19, 113),1	4038,(19, 121),3	4041,(19, 137),1	4042,(19, 141),2	4044,(19, 152),2	4046,(19, 156),2	4048,(19, 162),1	4049,(19, 178),2	4051,(19, 188),1	4268,(97, 201),3	4271,(91, 201),3	4288,(112, 201),3	4291,(140, 201),3	4300,(151, 201),3	4303,(155, 201),3	4325,(106, 201),3	4398,(94, 201),3	4401,(109, 201),3	4408,(117, 201),3	4411,(127, 201),3	4416,(130, 201),3	4419,(147, 201),3	4422,(166, 201),3	4429,(182, 201),3	4432,(200, 201),3	4471,(171, 201),3	4541,(187, 201),3	4740,(194, 201),3	
88,(8, 21),8	96,(8, 46),5	101,(8, 58),1	102,(8, 60),1	103,(8, 51),1	104,(8, 38),1	105,(8, 56),1	106,(8, 59),3	109,(8, 63),6	115,(8, 67),12	127,(8, 25),1	128,(8, 36),1	129,(8, 50),4	133,(8, 79),3	136,(8, 88),2	138,(8, 106),1	139,(8, 48),6	145,(8, 109),1	146,(8, 112),1	147,(8, 115),1	148,(8, 142),2	150,(8, 69),1	151,(8, 80),1	152,(8, 95),6	158,(8, 103),3	161,(8, 174),1	162,(8, 34),5	167,(8, 40),18	185,(8, 81),13	198,(8, 84),4	202,(8, 117),1	203,(8, 57),4	207,(8, 98),4	211,(8, 140),3	214,(8, 143),8	222,(8, 146),7	229,(8, 157),8	237,(8, 185),1	238,(8, 197),1	239,(8, 147),6	245,(8, 166),1	246,(8, 182),2	248,(18, 59),1	249,(18, 189),1	250,(18, 58),1	251,(18, 115),1	252,(8, 113),5	257,(8, 45),4	261,(18, 23),4	265,(8, 163),6	271,(8, 164),3	274,(18, 22),5	279,(18, 25),1	280,(18, 57),1	281,(18, 41),1	282,(18, 114),1	283,(18, 138),1	284,(18, 68),2	286,(18, 31),1	287,(18, 144),2	289,(18, 158),1	290,(8, 133),4	294,(18, 157),2	296,(18, 196),2	298,(8, 76),8	306,(18, 174),1	309,(18, 48),1	311,(8, 180),7	318,(18, 164),4	328,(18, 77),4	332,(18, 98),12	349,(8, 168),11	362,(18, 82),1	369,(18, 199),8	385,(18, 142),7	392,(8, 149),62	454,(8, 189),23	482,(18, 37),3	509,(8, 184),23	535,(8, 176),3	538,(18, 29),6	557,(8, 190),55	612,(18, 33),18	632,(8, 42),72	720,(18, 88),12	734,(18, 21),19	753,(18, 64),19	788,(18, 131),18	856,(18, 191),21	879,(18, 190),11	932,(8, 172),2	998,(8, 130),11	1089,(8, 47),83	1222,(18, 168),38	1370,(18, 169),20	1522,(65, 201),3	1580,(8, 62),370	1961,(8, 94),21	1982,(8, 135),16	2011,(8, 128),12	2023,(8, 141),14	2049,(8, 183),6	2088,(8, 74),83	2171,(8, 92),33	2204,(8, 99),32	2236,(8, 102),74	2310,(8, 127),49	2359,(8, 152),54	2413,(8, 156),34	2447,(8, 195),13	2460,(18, 50),500	3133,(119, 201),3	3136,(61, 201),3	3139,(139, 201),3	3143,(165, 201),3	3146,(198, 201),3	3149,(100, 201),3	3152,(101, 201),3	3155,(126, 201),3	3161,(35, 201),3	3164,(53, 201),3	3167,(71, 201),3	3170,(73, 201),3	3173,(86, 201),3	3176,(96, 201),3	3179,(111, 201),3	3185,(181, 201),3	3269,(18, 70),8	3277,(18, 130),1	3278,(18, 155),1	3280,(90, 201),3	3317,(18, 39),23	3345,(93, 201),3	3515,(18, 171),1	3518,(18, 84),3	3521,(18, 94),12	3542,(18, 91),44	3586,(18, 102),9	3595,(18, 120),5	3601,(18, 160),6	3607,(18, 187),1	3608,(107, 201),3	3611,(116, 201),3	3617,(122, 201),3	3623,(18, 194),2	3633,(129, 201),3	3709,(134, 201),3	3903,(18, 60),3	3906,(18, 72),1	3907,(18, 75),1	3908,(18, 85),2	3910,(18, 92),1	3911,(18, 99),9	3920,(18, 103),1	3921,(18, 108),3	3924,(18, 128),10	3934,(18, 132),1	3935,(18, 137),11	3946,(18, 156),5	3951,(18, 167),16	4091,(18, 97),176	4274,(145, 201),3	4297,(150, 201),3	4300,(18, 106),24	4324,(18, 147),11	4335,(18, 166),8	4343,(18, 200),44	4387,(154, 201),3	4390,(159, 201),3	4500,(175, 201),3	4538,(186, 201),3	4737,(193, 201),3	5960,(170, 201),3	
237,(7, 22),27	264,(7, 28),1	265,(7, 44),1	266,(7, 45),1	267,(7, 64),1	268,(7, 80),1	269,(7, 93),1	270,(7, 24),14	284,(7, 31),2	286,(7, 32),31	317,(7, 81),3	320,(7, 114),1	321,(7, 131),1	322,(7, 40),6	328,(7, 41),15	343,(7, 161),2	345,(7, 168),4	349,(7, 70),1	350,(7, 74),2	352,(7, 91),1	353,(7, 76),6	359,(7, 94),1	360,(7, 98),4	364,(7, 133),2	366,(7, 199),3	369,(7, 104),1	370,(7, 136),8	378,(17, 25),1	379,(17, 32),1	380,(7, 29),8	388,(7, 37),14	402,(7, 42),74	476,(7, 78),18	494,(7, 173),1	495,(7, 177),6	501,(7, 184),8	509,(17, 44),1	511,(7, 139),1	512,(7, 38),30	542,(7, 190),15	557,(17, 22),16	573,(17, 34),1	577,(7, 69),2	579,(17, 37),5	585,(7, 155),1	586,(7, 48),4	590,(7, 176),1	591,(7, 83),1	592,(17, 21),9	601,(17, 56),2	604,(7, 73),5	609,(7, 175),1	622,(7, 102),2	624,(7, 109),5	629,(7, 194),1	630,(7, 200),1	646,(17, 28),1	647,(17, 46),4	652,(17, 163),1	653,(7, 107),3	656,(17, 184),1	657,(17, 27),7	664,(17, 64),1	665,(7, 61),7	672,(7, 101),8	680,(7, 127),4	688,(7, 100),10	698,(7, 130),7	705,(17, 29),29	734,(17, 26),9	743,(7, 129),6	749,(17, 38),3	754,(7, 108),1	755,(7, 113),1	756,(7, 156),1	760,(17, 52),5	769,(7, 147),5	774,(17, 77),5	781,(17, 30),7	788,(17, 50),15	803,(17, 54),9	812,(17, 123),31	843,(17, 131),5	862,(17, 66),5	867,(17, 68),7	874,(17, 78),5	879,(17, 138),21	902,(7, 106),26	932,(7, 65),12	947,(17, 48),1	948,(7, 53),36	984,(7, 71),33	1017,(7, 96),49	1066,(7, 116),39	1111,(17, 168),8	1119,(17, 173),52	1171,(58, 201),3	1174,(17, 189),9	1185,(7, 85),4	1189,(7, 187),7	1207,(17, 190),15	1222,(17, 191),12	1264,(7, 134),9	1273,(17, 199),53	1558,(7, 112),18	1609,(7, 72),22	1633,(7, 67),31	1664,(7, 97),29	1703,(7, 92),4	1707,(7, 39),85	1798,(115, 201),3	1806,(7, 125),5	1833,(7, 120),16	1850,(153, 201),3	1859,(7, 105),36	1932,(7, 121),22	1954,(7, 141),5	1962,(7, 178),35	1997,(7, 183),6	2003,(7, 195),8	2048,(17, 62),5	2058,(17, 24),74	2132,(17, 76),7	2151,(88, 201),3	2154,(192, 201),3	2233,(17, 43),88	2458,(149, 201),3	2503,(17, 177),55	2697,(17, 35),5	2702,(17, 53),5	2707,(17, 71),1	2708,(17, 73),12	2720,(17, 93),2	2722,(17, 96),1	2744,(17, 86),121	2865,(17, 90),11	2876,(17, 100),2	2878,(17, 101),1	2879,(17, 126),3	2882,(17, 150),1	2883,(17, 154),22	2905,(17, 159),14	2919,(17, 181),1	2920,(33, 201),3	2923,(180, 201),3	2926,(47, 201),3	2933,(49, 201),3	3175,(17, 55),1	3176,(17, 67),15	3191,(17, 70),2	3193,(17, 74),1	3194,(17, 79),8	3202,(17, 87),4	3206,(17, 94),1	3207,(17, 97),1	3208,(17, 106),1	3209,(63, 201),3	3212,(17, 91),5	3217,(17, 102),10	3227,(17, 117),8	3235,(17, 124),1	3236,(17, 127),2	3238,(17, 130),5	3243,(17, 135),7	3250,(17, 151),6	3256,(17, 166),12	3268,(17, 171),1	3302,(17, 200),15	3514,(17, 75),1	3516,(17, 85),1	3517,(17, 95),1	3518,(17, 99),1	3538,(17, 108),2	3540,(17, 148),1	3541,(17, 188),1	3598,(17, 195),1	3703,(17, 60),19	3722,(17, 83),7	3729,(17, 92),5	3734,(17, 105),141	3875,(17, 110),6	3881,(17, 137),8	3889,(17, 172),10	3899,(17, 178),4	4263,(143, 201),3	4306,(158, 201),3	4346,(164, 201),3	4447,(169, 201),3	4490,(174, 201),3	4521,(185, 201),3	4757,(197, 201),3	
20,(6, 23),1	21,(6, 27),1	22,(6, 32),1	23,(6, 40),2	25,(6, 41),1	26,(6, 47),1	27,(6, 56),1	28,(6, 65),3	31,(6, 33),7	38,(6, 58),1	39,(6, 63),1	40,(6, 67),1	41,(6, 71),1	42,(6, 83),1	43,(6, 91),2	45,(6, 94),1	46,(6, 98),1	47,(6, 31),5	52,(6, 42),4	56,(6, 43),1	57,(6, 51),7	64,(6, 62),5	69,(6, 102),2	71,(6, 121),1	72,(6, 35),8	80,(6, 54),3	83,(6, 77),1	84,(6, 90),2	86,(6, 93),1	87,(6, 49),9	96,(6, 50),5	101,(6, 104),2	103,(6, 115),1	104,(6, 148),1	105,(6, 37),24	129,(6, 73),19	148,(6, 97),4	152,(6, 34),10	162,(6, 118),2	164,(6, 164),1	165,(6, 96),1	166,(6, 129),3	169,(6, 112),2	171,(6, 117),2	173,(6, 139),1	174,(6, 198),1	175,(6, 92),13	188,(6, 103),26	214,(6, 130),1	215,(6, 146),2	217,(6, 147),1	218,(6, 161),1	219,(6, 171),1	220,(6, 108),5	225,(6, 128),6	231,(6, 138),6	237,(6, 166),2	239,(6, 30),14	253,(6, 123),4	257,(6, 132),7	264,(6, 152),3	267,(16, 60),1	268,(16, 26),1	269,(16, 40),1	270,(16, 75),1	271,(16, 77),2	274,(16, 23),1	276,(16, 115),1	277,(16, 149),2	279,(16, 197),1	280,(16, 21),1	281,(16, 37),3	284,(16, 98),8	294,(16, 35),1	295,(6, 174),6	301,(6, 191),18	322,(6, 176),1	323,(16, 138),6	332,(16, 49),9	342,(6, 124),7	349,(6, 158),16	365,(16, 123),8	373,(16, 161),4	388,(16, 99),1	391,(6, 162),4	395,(16, 22),24	439,(6, 137),7	476,(16, 45),28	508,(6, 127),9	517,(6, 194),2	519,(6, 186),2	531,(6, 160),4	539,(16, 63),11	558,(6, 159),5	563,(16, 158),9	602,(6, 193),2	610,(16, 146),35	645,(16, 189),16	670,(16, 36),33	705,(16, 153),15	752,(6, 155),17	837,(6, 26),262	1111,(6, 140),32	1143,(6, 187),11	1186,(6, 122),35	1221,(6, 150),43	1290,(6, 105),23	1316,(6, 154),27	1343,(6, 170),29	1372,(6, 175),36	1537,(6, 182),21	1581,(6, 156),12	1593,(6, 167),8	1601,(6, 172),8	1652,(16, 53),1	2059,(6, 89),93	2152,(16, 31),23	2175,(16, 133),48	2223,(16, 177),10	2606,(16, 71),3	2609,(16, 86),13	2622,(16, 93),3	2625,(16, 96),8	2633,(16, 100),1	2634,(16, 101),8	2642,(16, 111),2	2644,(16, 116),1	2645,(16, 129),1	2646,(16, 139),4	2650,(16, 145),8	2658,(16, 150),9	2667,(16, 154),11	2678,(16, 170),9	2687,(16, 181),2	2689,(16, 193),3	2692,(16, 198),5	2723,(16, 180),116	2882,(16, 55),1	2883,(16, 67),22	2905,(16, 117),5	3060,(16, 79),20	3080,(16, 82),6	3086,(16, 102),8	3094,(16, 120),9	3103,(16, 127),3	3106,(16, 135),9	3115,(16, 140),1	3116,(16, 151),7	3123,(16, 155),6	3129,(16, 166),2	3131,(16, 194),2	3137,(16, 160),13	3150,(16, 171),13	3163,(16, 176),7	3170,(16, 182),5	3211,(16, 132),1	3469,(16, 48),6	3475,(16, 69),16	3491,(16, 83),20	3511,(16, 105),3	3533,(16, 85),5	3544,(16, 103),6	3550,(16, 108),8	3558,(16, 141),7	3565,(16, 152),5	3577,(16, 128),21	3600,(16, 121),27	3627,(16, 148),11	3680,(16, 156),8	3688,(16, 195),15	4006,(16, 187),85	
21,(5, 21),7	28,(5, 33),3	31,(5, 22),7	38,(5, 24),6	44,(5, 31),3	47,(5, 41),6	53,(5, 61),1	54,(5, 70),1	55,(5, 60),1	56,(5, 67),6	62,(5, 104),1	63,(5, 65),3	66,(5, 93),1	67,(5, 69),2	69,(5, 73),3	72,(5, 29),10	82,(5, 37),1	83,(5, 47),2	85,(5, 49),2	87,(5, 50),1	88,(5, 96),1	89,(5, 62),14	103,(5, 87),3	106,(5, 36),21	127,(5, 46),21	148,(5, 53),17	165,(5, 63),8	173,(5, 127),2	175,(5, 30),21	196,(5, 44),21	217,(5, 89),2	219,(5, 110),1	220,(5, 51),50	270,(5, 136),1	271,(5, 138),3	274,(5, 144),1	275,(5, 153),1	276,(5, 161),5	281,(5, 180),1	282,(5, 192),1	283,(5, 179),1	284,(5, 191),2	286,(15, 21),2	288,(5, 94),5	293,(5, 117),5	298,(5, 160),1	299,(5, 71),7	306,(5, 90),4	310,(5, 108),2	312,(5, 107),5	317,(5, 129),1	318,(5, 176),1	319,(5, 139),1	320,(5, 166),2	322,(5, 169),10	332,(5, 130),6	338,(5, 171),4	342,(5, 177),11	353,(5, 182),2	355,(5, 194),1	356,(15, 23),1	357,(5, 125),4	361,(5, 148),1	362,(15, 27),1	363,(5, 66),17	380,(5, 197),2	382,(15, 30),1	383,(15, 41),1	384,(15, 66),1	385,(15, 114),1	386,(15, 123),1	387,(15, 42),1	388,(15, 62),1	389,(5, 185),3	392,(5, 190),11	403,(5, 196),19	422,(15, 57),5	427,(15, 142),1	428,(5, 154),1	429,(15, 136),4	434,(5, 122),5	440,(5, 145),2	442,(15, 163),2	446,(15, 80),1	447,(15, 168),4	451,(15, 173),5	464,(15, 184),6	473,(15, 29),9	483,(5, 187),25	510,(5, 181),1	521,(15, 49),1	522,(15, 158),2	527,(15, 192),1	531,(15, 58),3	534,(15, 180),5	539,(15, 34),16	555,(15, 50),21	576,(15, 149),10	592,(5, 150),10	602,(15, 138),8	631,(15, 74),1	651,(15, 73),1	656,(15, 86),1	675,(15, 191),16	780,(81, 201),3	801,(5, 58),288	1089,(15, 144),22	1149,(5, 100),37	1212,(5, 39),325	1537,(54, 201),3	1545,(5, 99),36	1581,(5, 102),52	1633,(5, 118),20	1653,(5, 156),27	1680,(5, 178),15	1695,(5, 195),8	1731,(5, 111),81	1812,(5, 183),47	1859,(32, 201),3	1862,(77, 201),3	1865,(146, 201),3	1868,(64, 201),3	1895,(5, 186),37	1948,(15, 126),1	1959,(15, 83),1	1960,(15, 95),1	1998,(15, 112),1	1999,(15, 143),32	2037,(15, 99),1	2038,(15, 133),7	2045,(15, 177),3	2055,(15, 119),2	2057,(15, 186),1	2066,(15, 134),2	2068,(5, 149),283	2351,(26, 201),3	2355,(15, 122),4	2434,(15, 53),22	2456,(15, 61),31	2487,(15, 71),29	2516,(15, 93),29	2545,(15, 96),5	2550,(15, 154),3	2554,(15, 101),44	2598,(15, 111),8	2606,(189, 201),3	2610,(15, 33),113	2723,(15, 150),5	2728,(15, 165),10	2738,(15, 198),6	2793,(15, 55),8	2801,(15, 67),4	2805,(15, 70),6	2811,(15, 84),3	2814,(15, 87),8	2822,(15, 102),4	2826,(15, 109),8	2834,(15, 124),1	2835,(15, 130),2	2854,(15, 127),7	2861,(15, 147),5	2866,(15, 155),1	2867,(15, 171),1	2868,(15, 194),8	2876,(15, 200),6	2882,(38, 201),3	2885,(40, 201),3	2995,(15, 39),65	3060,(15, 44),279	3339,(56, 201),3	3342,(15, 60),3	3345,(15, 75),4	3349,(15, 85),11	3360,(15, 89),5	3365,(15, 92),10	3375,(15, 103),13	3388,(15, 105),5	3393,(15, 108),1	3394,(15, 113),2	3396,(15, 118),4	3400,(15, 121),1	3401,(15, 152),1	3402,(15, 156),1	3403,(15, 162),1	3404,(15, 167),13	3417,(15, 178),17	3434,(15, 183),30	3464,(15, 188),5	3634,(15, 104),65	3706,(15, 166),300	4736,(5, 170),1221	5957,(199, 201),3	
11,(4, 21),1	12,(4, 22),2	14,(4, 26),2	16,(4, 27),4	20,(4, 29),1	21,(4, 157),1	22,(4, 35),6	28,(4, 38),9	37,(4, 45),3	40,(4, 48),1	41,(4, 55),1	42,(4, 40),9	51,(4, 46),7	58,(4, 53),5	63,(4, 56),3	66,(4, 69),1	67,(4, 79),2	69,(4, 49),13	82,(4, 91),1	83,(4, 94),1	84,(4, 103),3	87,(4, 44),88	175,(4, 52),13	188,(4, 57),15	203,(4, 70),7	210,(4, 78),7	217,(4, 98),11	228,(4, 104),2	230,(4, 112),1	231,(4, 61),17	248,(4, 117),4	252,(4, 73),6	258,(4, 96),11	269,(4, 141),1	270,(4, 158),1	271,(4, 183),1	272,(4, 102),10	282,(4, 124),1	283,(4, 135),1	284,(4, 171),3	287,(4, 176),1	288,(4, 191),1	289,(4, 101),4	293,(4, 150),1	294,(4, 37),72	366,(4, 50),14	380,(4, 189),2	382,(4, 108),6	388,(14, 23),1	389,(14, 26),1	390,(14, 30),1	391,(14, 34),1	392,(4, 93),36	428,(14, 45),1	429,(4, 110),6	435,(4, 131),7	442,(4, 134),2	444,(4, 139),2	446,(4, 74),37	483,(4, 81),29	512,(4, 119),7	519,(4, 127),12	531,(4, 138),8	539,(14, 28),3	542,(4, 126),12	554,(4, 154),4	558,(4, 192),5	563,(4, 198),3	566,(4, 148),5	571,(4, 156),3	574,(4, 188),3	577,(14, 37),2	579,(4, 151),6	585,(4, 161),22	607,(14, 40),2	609,(14, 146),1	610,(4, 182),5	615,(4, 194),7	622,(14, 21),20	642,(14, 22),9	651,(14, 25),19	670,(14, 41),5	675,(14, 81),19	694,(14, 123),3	697,(14, 161),1	700,(4, 100),43	745,(14, 39),1	746,(14, 55),1	747,(14, 70),1	748,(14, 52),1	749,(14, 59),1	750,(14, 142),1	751,(14, 35),1	752,(14, 65),1	753,(14, 157),1	754,(14, 173),1	755,(14, 179),1	756,(14, 184),4	760,(14, 191),3	767,(14, 197),5	773,(4, 195),5	779,(4, 87),123	902,(14, 136),22	944,(14, 91),1	945,(14, 75),1	946,(14, 83),1	947,(4, 160),51	1009,(4, 85),42	1051,(4, 118),59	1110,(4, 170),39	1156,(4, 125),22	1178,(4, 162),7	1203,(4, 172),87	1290,(4, 175),26	1316,(4, 178),229	1545,(14, 63),9	1554,(14, 153),11	1565,(14, 158),24	1595,(14, 32),59	1654,(14, 114),48	1702,(14, 164),9	1725,(14, 71),5	1730,(14, 138),57	1787,(14, 174),19	1833,(14, 116),1	1882,(14, 134),1	1883,(14, 180),58	1943,(4, 179),184	2142,(14, 73),7	2149,(14, 86),35	2184,(14, 90),4	2188,(14, 93),66	2254,(14, 107),6	2260,(14, 119),27	2287,(14, 122),25	2312,(14, 129),4	2316,(14, 139),1	2317,(14, 145),4	2321,(14, 150),9	2330,(14, 165),2	2332,(14, 170),4	2336,(14, 175),3	2339,(14, 186),16	2355,(14, 80),2	2357,(14, 89),1	2358,(14, 99),1	2359,(14, 181),75	2434,(14, 189),79	2513,(14, 190),40	2553,(14, 193),1	2554,(24, 201),3	2557,(133, 201),3	2609,(62, 201),3	2612,(31, 201),3	2667,(14, 97),3	2670,(14, 102),19	2689,(14, 104),8	2697,(14, 109),19	2716,(14, 120),1	2717,(14, 130),2	2719,(14, 140),1	2720,(14, 155),26	2746,(14, 160),9	2755,(14, 187),38	2888,(42, 201),3	2891,(43, 201),3	2910,(14, 95),2	2912,(14, 121),2	2914,(14, 172),1	2930,(14, 194),65	3139,(14, 132),2	3141,(14, 137),2	3158,(51, 201),3	3176,(14, 48),22	3198,(14, 85),13	3212,(76, 201),3	3278,(14, 103),10	3288,(14, 125),6	3294,(14, 156),8	3303,(14, 118),17	3320,(14, 128),13	3333,(14, 167),5	3338,(14, 195),4	4518,(177, 201),3	4750,(14, 69),801	
37,(3, 21),35	72,(3, 22),2	74,(3, 25),15	89,(3, 26),15	104,(3, 29),1	105,(3, 31),23	128,(3, 33),4	132,(3, 36),20	152,(3, 37),128	280,(3, 40),1	281,(3, 46),2	283,(3, 47),5	288,(3, 50),6	294,(3, 57),1	295,(3, 62),3	298,(3, 65),1	299,(3, 52),21	320,(3, 64),2	322,(3, 66),1	323,(3, 75),1	324,(3, 67),1	325,(3, 70),1	326,(3, 74),2	328,(3, 97),4	332,(3, 133),1	333,(3, 60),8	341,(3, 83),1	342,(3, 92),2	344,(3, 121),1	345,(3, 138),1	346,(3, 95),7	353,(3, 113),4	357,(3, 114),3	360,(3, 140),1	361,(3, 142),2	363,(3, 80),19	382,(3, 115),7	389,(3, 53),3	392,(3, 54),62	454,(3, 63),67	521,(3, 71),18	539,(3, 73),3	542,(3, 91),33	575,(3, 117),4	579,(3, 125),7	586,(3, 93),5	591,(3, 107),1	592,(3, 94),18	610,(3, 119),2	612,(3, 134),39	651,(3, 144),1	652,(3, 145),1	653,(3, 149),1	654,(3, 157),2	656,(3, 158),1	657,(3, 159),8	665,(3, 163),1	666,(3, 174),1	667,(3, 160),11	678,(3, 166),1	679,(3, 169),2	681,(3, 175),6	687,(3, 181),1	688,(3, 182),9	697,(3, 194),1	698,(3, 198),2	700,(13, 21),2	702,(13, 26),1	703,(13, 64),1	704,(13, 174),1	705,(3, 173),6	711,(3, 179),1	712,(3, 184),1	713,(3, 189),21	734,(3, 192),11	745,(3, 196),3	748,(13, 82),1	749,(3, 148),2	751,(3, 152),1	752,(3, 178),2	754,(13, 34),3	757,(13, 65),1	758,(3, 110),15	773,(13, 192),1	774,(13, 39),3	777,(13, 97),1	778,(13, 69),1	779,(13, 163),1	780,(3, 69),71	851,(3, 72),68	919,(3, 141),13	932,(13, 22),10	942,(13, 24),1	943,(13, 31),1	944,(13, 42),2	946,(13, 43),1	947,(13, 51),2	949,(13, 62),1	950,(3, 118),59	1009,(3, 127),102	1111,(3, 132),20	1131,(3, 162),25	1156,(3, 171),33	1189,(3, 183),14	1203,(3, 187),9	1212,(3, 199),24	1236,(13, 25),93	1329,(13, 28),6	1335,(13, 50),6	1341,(13, 57),6	1347,(13, 59),4	1351,(13, 78),9	1360,(13, 33),10	1370,(13, 40),48	1418,(13, 88),19	1437,(13, 149),5	1442,(13, 153),5	1447,(13, 164),7	1470,(13, 52),32	1502,(13, 56),93	1595,(13, 68),15	1610,(13, 142),10	1620,(13, 184),4	1624,(13, 190),1	1625,(41, 201),3	1631,(13, 86),1	1632,(13, 96),1	1653,(13, 66),107	1760,(13, 144),26	1786,(13, 157),12	1811,(13, 83),1	1812,(13, 35),11	1823,(13, 101),2	1827,(13, 107),3	1830,(13, 116),3	1836,(13, 90),12	1848,(13, 93),18	1866,(13, 139),7	1873,(13, 159),4	1877,(13, 165),5	1895,(13, 89),1	1896,(13, 118),1	1897,(13, 199),25	1932,(13, 170),9	1941,(13, 181),4	1945,(13, 193),3	1959,(13, 73),52	2011,(13, 119),44	2055,(13, 92),2	2057,(13, 133),1	2058,(13, 186),6	2064,(13, 198),2	2086,(13, 106),1	2087,(13, 129),30	2117,(13, 154),25	2157,(23, 201),3	2169,(13, 137),1	2170,(13, 162),1	2235,(13, 124),1	2338,(13, 85),3	2341,(13, 99),7	2348,(13, 108),5	2353,(13, 141),2	2355,(13, 168),103	2458,(13, 185),63	2587,(13, 67),2	2589,(13, 74),7	2596,(13, 84),2	2598,(13, 87),6	2604,(13, 91),2	2606,(13, 102),7	2613,(13, 109),27	2640,(13, 112),4	2644,(13, 120),9	2653,(13, 127),2	2655,(13, 147),12	2667,(13, 179),185	2852,(27, 201),3	2855,(30, 201),3	2870,(13, 48),39	2909,(13, 195),1	2910,(13, 200),20	2930,(45, 201),3	3087,(13, 125),7	3094,(13, 128),8	3102,(13, 132),18	3120,(13, 156),19	3144,(13, 148),25	3169,(13, 167),7	3342,(44, 201),3	3463,(191, 201),3	3620,(123, 201),3	3639,(131, 201),3	4310,(161, 201),3	
5,(2, 21),1	6,(2, 37),1	7,(2, 23),4	11,(2, 27),1	12,(2, 44),1	13,(2, 26),1	14,(2, 42),16	30,(2, 43),2	32,(2, 46),2	34,(2, 50),3	37,(2, 60),1	38,(2, 61),2	40,(2, 56),2	42,(2, 65),2	44,(2, 68),1	45,(2, 71),1	46,(2, 47),12	58,(2, 49),11	69,(2, 62),20	89,(2, 69),5	94,(2, 70),3	97,(2, 73),10	107,(2, 74),1	108,(2, 75),19	127,(2, 80),12	139,(2, 87),5	144,(2, 88),1	145,(2, 92),5	150,(2, 81),2	152,(2, 82),17	169,(2, 89),6	175,(2, 93),56	231,(2, 94),3	234,(2, 95),18	252,(2, 97),20	272,(2, 99),2	274,(2, 103),7	281,(2, 105),24	305,(2, 108),1	306,(2, 113),3	309,(2, 115),2	311,(2, 119),1	312,(2, 106),4	316,(2, 109),2	318,(2, 122),1	319,(2, 127),1	320,(2, 139),1	321,(2, 125),1	322,(2, 152),1	323,(2, 107),14	337,(2, 111),24	361,(2, 116),7	368,(2, 126),21	389,(2, 128),2	391,(2, 131),4	395,(2, 132),10	405,(2, 148),24	429,(2, 150),5	434,(2, 161),1	435,(2, 117),11	446,(2, 129),64	510,(2, 133),122	632,(2, 140),35	667,(2, 144),38	705,(2, 151),40	745,(2, 158),4	749,(2, 159),2	751,(2, 160),1	752,(2, 163),1	753,(2, 170),4	757,(2, 172),1	758,(2, 164),1	759,(2, 169),8	767,(2, 173),10	777,(2, 179),1	778,(2, 182),1	779,(2, 188),1	780,(2, 191),1	781,(2, 192),20	801,(2, 196),21	822,(2, 199),15	837,(12, 21),13	850,(12, 44),2	852,(12, 191),4	861,(12, 28),1	862,(12, 29),22	884,(12, 37),31	915,(12, 66),6	921,(12, 68),2	923,(12, 144),2	925,(12, 168),1	926,(12, 184),1	928,(2, 175),2	930,(2, 186),2	932,(12, 31),5	937,(12, 45),15	952,(12, 50),15	1080,(12, 163),4	1084,(12, 190),4	1099,(12, 32),8	1107,(12, 146),1	1109,(12, 35),1	1110,(12, 95),1	1128,(12, 40),30	1158,(12, 64),13	1171,(12, 77),3	1174,(12, 179),33	1266,(36, 201),3	1269,(22, 201),3	1272,(34, 201),3	1287,(12, 65),1	1288,(12, 93),2	1313,(12, 69),2	1315,(12, 118),1	1328,(12, 63),1	1329,(12, 115),1	1330,(12, 153),26	1356,(12, 169),1	1357,(12, 185),1	1358,(12, 192),2	1360,(12, 196),110	1470,(12, 197),3	1555,(12, 71),3	1558,(12, 73),17	1575,(12, 96),1	1576,(12, 126),5	1616,(12, 86),12	1628,(12, 145),1	1629,(12, 154),2	1631,(12, 99),2	1633,(12, 175),1	1636,(12, 101),6	1642,(12, 129),10	1692,(12, 134),9	1701,(12, 139),17	1718,(12, 165),2	1720,(12, 181),3	1723,(12, 198),2	1729,(12, 156),1	1730,(12, 172),1	1822,(12, 70),3	1825,(12, 87),1	1826,(12, 94),1	1937,(12, 55),10	1947,(12, 79),11	1958,(12, 97),1	1998,(12, 51),7	2005,(12, 62),3	2008,(12, 133),28	2038,(12, 67),16	2054,(12, 102),1	2055,(12, 112),1	2057,(12, 84),6	2063,(12, 124),1	2064,(12, 127),4	2068,(12, 130),1	2069,(12, 140),12	2081,(12, 155),1	2082,(12, 160),1	2083,(12, 176),2	2085,(12, 182),1	2160,(25, 201),3	2165,(12, 132),4	2171,(12, 117),58	2229,(12, 187),6	2282,(12, 72),35	2317,(12, 75),9	2326,(12, 125),9	2335,(12, 141),3	2338,(12, 177),165	2574,(12, 166),13	2788,(12, 89),35	2823,(12, 108),41	2864,(12, 188),6	2916,(12, 105),171	3182,(57, 201),3	3522,(98, 201),3	3599,(114, 201),3	4242,(136, 201),3	4260,(138, 201),3	
1,(0, 2),3	4,(0, 3),3	7,(0, 4),3	10,(0, 5),3	13,(0, 6),3	16,(0, 7),3	19,(0, 8),3	22,(0, 9),3	25,(0, 10),3	28,(0, 12),3	31,(0, 13),3	34,(0, 14),3	37,(0, 15),3	40,(0, 16),3	43,(0, 17),3	46,(0, 18),3	49,(0, 19),3	52,(0, 20),3	55,(11, 22),6	61,(11, 23),4	65,(11, 25),3	68,(11, 26),6	74,(11, 27),13	87,(11, 28),6	93,(11, 34),1	94,(11, 36),12	106,(11, 38),12	118,(11, 40),32	150,(11, 42),17	167,(11, 43),53	220,(11, 44),19	239,(11, 46),1	240,(11, 47),1	241,(11, 49),9	250,(11, 52),1	251,(11, 53),1	252,(11, 58),18	270,(11, 61),19	289,(11, 62),1	290,(11, 63),5	295,(11, 65),3	298,(11, 66),1	299,(11, 67),13	312,(11, 69),9	321,(11, 71),2	323,(11, 74),1	324,(11, 75),9	333,(11, 78),12	345,(11, 80),1	346,(11, 81),15	361,(11, 82),1	362,(11, 83),1	363,(11, 84),6	369,(11, 88),1	370,(11, 91),4	374,(11, 94),61	435,(11, 95),4	439,(11, 96),1	440,(11, 98),7	447,(11, 99),119	566,(11, 100),17	583,(11, 101),3	586,(11, 102),4	590,(11, 103),1	591,(11, 104),1	592,(11, 105),157	749,(11, 109),1	750,(11, 112),1	751,(11, 115),7	758,(11, 116),170	928,(11, 117),1	929,(11, 120),9	938,(11, 121),6	944,(11, 125),1	945,(11, 127),2	947,(11, 129),1	948,(11, 132),2	950,(11, 133),630	1580,(11, 136),27	1607,(11, 138),27	1634,(11, 139),2	1636,(11, 142),3	1639,(11, 143),4	1643,(11, 144),10	1653,(11, 145),39	1692,(11, 146),1	1693,(11, 147),14	1707,(11, 148),22	1729,(11, 149),1	1730,(11, 150),1	1731,(11, 152),75	1806,(11, 153),1	1807,(11, 155),15	1822,(11, 157),1	1823,(11, 158),2	1825,(11, 159),2	1827,(11, 160),6	1833,(11, 164),1	1834,(11, 165),2	1836,(11, 168),14	1850,(11, 169),33	1883,(11, 175),12	1895,(11, 176),2	1897,(11, 178),35	1932,(11, 179),11	1943,(11, 180),6	1949,(11, 181),10	1959,(11, 182),2	1961,(11, 183),1	1962,(11, 185),37	1999,(11, 187),39	2038,(11, 188),11	2049,(11, 189),2	2051,(11, 191),4	2055,(11, 192),1	2056,(11, 194),1	2057,(11, 195),2	2059,(11, 197),9	2068,(11, 198),2	2070,(11, 199),17	2087,(11, 200),1	2088,(1, 23),11	2099,(1, 25),9	2108,(1, 26),2	2110,(1, 27),477	2587,(1, 28),12	2599,(1, 30),4	2603,(1, 31),1	2604,(1, 33),6	2610,(1, 38),227	2837,(1, 39),17	2854,(1, 40),5	2859,(1, 42),27	2886,(1, 43),4	2890,(1, 44),3	2893,(1, 45),6	2899,(1, 47),16	2915,(1, 48),1	2916,(1, 49),8	2924,(1, 51),17	2941,(1, 52),192	3133,(1, 55),4	3137,(1, 56),4	3141,(1, 57),1	3142,(1, 59),1	3143,(1, 60),1	3144,(1, 63),52	3196,(1, 66),2	3198,(1, 76),5	3203,(1, 78),6	3209,(1, 79),2	3211,(1, 82),1	3212,(1, 85),61	3273,(1, 89),5	3278,(1, 90),1	3279,(1, 91),23	3302,(1, 92),1	3303,(1, 93),37	3340,(1, 94),175	3515,(1, 95),1	3516,(1, 97),2	3518,(1, 98),1	3519,(1, 99),2	3521,(1, 103),12	3533,(1, 104),9	3542,(1, 105),2	3544,(1, 107),26	3570,(1, 108),7	3577,(1, 114),21	3598,(1, 116),1	3599,(1, 118),1	3600,(1, 120),1	3601,(1, 122),6	3607,(1, 123),1	3608,(1, 124),15	3623,(1, 129),5	3628,(1, 130),6	3634,(1, 131),4	3638,(1, 132),42	3680,(1, 134),25	3705,(1, 135),1	3706,(1, 136),535	4241,(1, 137),1	4242,(1, 138),12	4254,(1, 142),6	4260,(1, 143),1	4261,(1, 145),7	4268,(1, 147),17	4285,(1, 148),3	4288,(1, 150),1	4289,(1, 151),1	4290,(1, 154),1	4291,(1, 155),9	4300,(1, 158),3	4303,(1, 159),5	4308,(1, 161),1	4309,(1, 162),12	4321,(1, 164),24	4345,(1, 167),52	4397,(1, 168),1	4398,(1, 169),48	4446,(1, 171),24	4470,(1, 172),4	4474,(1, 174),15	4489,(1, 175),10	4499,(1, 177),9	4508,(1, 179),10	4518,(1, 185),1	4519,(1, 186),18	4537,(1, 187),1	4538,(1, 193),198	4736,(1, 194),3	4739,(1, 195),11	4750,(1, 196),4	4754,(1, 197),1	4755,(1, 199),8	4763,(21, 201),3	4766,(29, 201),3	4769,(37, 201),3	4772,(50, 201),3	
