791
# CPU
0,201,1	1,150,3	4,90,3	7,99,3	10,89,3	13,88,3	16,100,3	19,63,3	22,131,3	25,65,3	28,135,3	31,141,3	34,154,3	37,147,3	40,145,3	43,160,3	46,166,3	49,110,3	52,134,3	55,123,3	58,117,3	61,128,3	64,51,3	67,115,3	70,50,3	73,163,3	76,162,3	79,164,3	82,36,3	85,184,3	88,185,3	91,112,3	94,186,3	97,200,3	100,173,3	103,167,3	106,179,3	109,76,3	112,31,3	115,80,3	118,30,3	121,34,3	124,111,3	127,60,3	130,61,3	133,190,3	136,38,3	139,81,3	142,25,3	145,42,3	148,29,3	151,199,3	154,86,3	157,82,3	160,95,3	163,105,3	166,191,3	169,70,3	172,187,3	175,64,3	178,129,3	181,120,3	184,28,3	187,142,3	190,143,3	193,22,3	196,44,3	199,58,3	202,92,3	205,113,3	208,77,3	211,97,3	214,35,3	217,37,3	220,153,3	223,53,3	226,40,3	229,137,3	232,26,3	235,168,3	238,157,3	241,98,3	244,180,3	247,107,3	250,116,3	253,91,3	256,21,3	259,93,3	262,69,3	265,138,3	268,49,3	271,193,3	274,84,3	277,194,3	280,172,3	283,197,3	286,109,3	289,78,3	292,148,3	295,146,3	298,71,3	301,125,3	304,122,3	307,67,3	310,192,3	313,183,3	316,140,3	319,48,3	322,102,3	325,106,3	328,188,3	331,87,3	334,126,3	337,127,3	340,119,3	343,130,3	346,59,3	349,169,3	352,24,3	355,124,3	358,132,3	361,23,3	364,158,3	367,175,3	370,171,3	373,161,3	376,39,3	379,133,3	382,55,3	385,32,3	388,43,3	391,181,3	394,85,3	397,108,3	400,144,3	403,52,3	406,159,3	409,47,3	412,196,3	415,74,3	418,152,3	421,66,3	424,156,3	427,195,3	430,149,3	433,165,3	436,101,3	439,79,3	442,46,3	445,57,3	448,104,3	451,4,3	454,75,3	457,6,3	460,151,3	463,170,3	466,41,3	469,189,3	472,56,3	475,68,3	478,18,3	481,177,3	484,5,3	487,73,3	490,72,3	493,139,3	496,62,3	499,17,3	502,103,3	505,96,3	508,174,3	511,13,3	514,118,3	517,176,3	520,9,3	523,114,3	526,45,3	529,8,3	532,1,3	535,11,3	538,2,3	541,16,3	544,7,3	547,19,3	550,15,3	553,10,3	556,12,3	559,14,3	586,20,3	787,3,3	790,0,1	
136,27,3	181,121,3	316,182,3	361,54,3	406,94,3	451,136,3	496,33,3	
46,83,3	91,178,3	226,155,3	271,198,3	
# Incoming
184,(121, 1),3	187,(27, 16),3	190,(121, 12),9	274,(198, 11),3	277,(178, 2),3	280,(155, 7),12	292,(83, 12),3	295,(198, 20),21	319,(182, 19),24	364,(54, 15),27	391,(54, 10),33	454,(136, 12),21	475,(94, 14),45	520,(136, 20),66	586,(33, 3),201	
91,(201, 27),45	136,(201, 121),45	271,(201, 182),45	316,(201, 54),45	361,(201, 94),45	406,(201, 136),45	451,(201, 33),45	
1,(201, 83),45	46,(201, 178),45	181,(201, 155),45	226,(201, 198),45	
# Outgoing
1,(201, 83),45	46,(201, 178),45	91,(201, 27),45	136,(201, 121),45	181,(201, 155),45	226,(201, 198),45	271,(201, 182),45	316,(201, 54),45	361,(201, 94),45	406,(201, 136),45	451,(201, 33),45	
184,(121, 1),3	187,(27, 16),3	190,(121, 12),9	319,(182, 19),24	364,(54, 15),27	391,(54, 10),33	454,(136, 12),21	475,(94, 14),45	520,(136, 20),66	586,(33, 3),201	
274,(198, 11),3	277,(178, 2),3	280,(155, 7),12	292,(83, 12),3	295,(198, 20),21	
