828
# CPU
3,2,12	15,4,12	27,6,12	39,14,12	51,32,12	63,12,12	75,28,12	87,30,12	99,24,12	111,10,12	123,34,12	135,40,12	147,36,12	159,22,12	171,8,12	183,16,12	195,18,12	207,20,12	219,26,12	231,38,12	
0,0,1	1,3,12	13,1,12	25,21,12	37,37,12	49,5,12	61,31,12	73,29,12	85,39,12	97,23,12	109,25,12	121,19,12	133,11,12	145,13,12	157,27,12	169,33,12	181,35,12	193,7,12	205,9,12	243,15,12	255,17,12	827,41,1	
# Incoming
1,(0, 2),2	3,(0, 4),2	13,(3, 6),2	15,(3, 22),28	43,(1, 8),20	63,(1, 16),2	65,(1, 18),26	91,(1, 20),14	105,(1, 26),2	107,(1, 38),14	
15,(2, 11),26	41,(2, 13),14	55,(2, 27),2	57,(2, 33),26	83,(2, 35),4	87,(4, 7),2	89,(4, 9),76	165,(4, 15),78	243,(4, 17),8	251,(6, 41),32	283,(14, 41),32	315,(32, 41),32	347,(12, 41),32	379,(28, 41),32	411,(30, 41),32	443,(24, 41),32	475,(10, 41),32	507,(34, 41),32	539,(40, 41),32	571,(36, 41),32	603,(22, 41),32	635,(8, 41),32	667,(16, 41),32	699,(18, 41),32	731,(20, 41),32	763,(26, 41),32	795,(38, 41),32	
# Outgoing
15,(2, 11),26	41,(2, 13),14	55,(2, 27),2	57,(2, 33),26	83,(2, 35),4	87,(4, 7),2	89,(4, 9),76	165,(4, 15),78	243,(4, 17),8	251,(6, 41),32	283,(14, 41),32	315,(32, 41),32	347,(12, 41),32	379,(28, 41),32	411,(30, 41),32	443,(24, 41),32	475,(10, 41),32	507,(34, 41),32	539,(40, 41),32	571,(36, 41),32	603,(22, 41),32	635,(8, 41),32	667,(16, 41),32	699,(18, 41),32	731,(20, 41),32	763,(26, 41),32	795,(38, 41),32	
1,(0, 2),2	3,(0, 4),2	13,(3, 6),2	15,(3, 22),28	43,(1, 8),20	63,(1, 16),2	65,(1, 18),26	91,(1, 20),14	105,(1, 26),2	107,(1, 38),14	
