1718
# CPU
0,81,1	1,41,22	23,45,22	45,46,22	67,80,22	89,43,22	111,9,22	133,12,22	155,29,22	177,51,22	199,38,22	221,64,22	243,61,22	265,22,22	287,19,22	309,36,22	331,70,22	353,63,22	375,16,22	397,55,22	419,13,22	441,66,22	463,23,22	485,67,22	507,75,22	529,57,22	551,59,22	573,26,22	595,69,22	617,15,22	639,40,22	661,27,22	683,71,22	705,79,22	727,56,22	749,42,22	771,65,22	793,34,22	815,32,22	837,18,22	859,53,22	881,21,22	903,37,22	925,62,22	947,17,22	969,20,22	991,72,22	1013,47,22	1035,52,22	1057,33,22	1079,39,22	1101,11,22	1123,74,22	1145,24,22	1167,58,22	1189,44,22	1211,49,22	1233,73,22	1255,35,22	1277,50,22	1299,54,22	1321,10,22	1343,78,22	1365,76,22	1387,77,22	1409,60,22	1431,1,22	1453,68,22	1475,48,22	1497,6,22	1519,31,22	1541,4,22	1563,28,22	1585,7,22	1607,8,22	1629,30,22	1651,3,22	1673,2,22	1695,5,22	1717,0,1	
559,25,22	1117,14,22	


# Incoming
581,(25, 2),3	584,(25, 5),12	1139,(14, 5),66	
1,(81, 25),558	559,(81, 14),558	


# Outgoing
1,(81, 25),558	559,(81, 14),558	
581,(25, 2),3	584,(25, 5),12	1139,(14, 5),66	


