6492
# CPU
8,2,24	32,4,24	56,6,24	80,8,24	104,178,24	128,196,24	152,10,24	176,12,24	200,14,24	224,160,24	248,16,24	272,18,24	296,20,24	320,62,24	344,84,24	368,66,24	392,146,24	416,148,24	440,132,24	464,158,24	488,134,24	512,76,24	536,102,24	560,120,24	584,64,24	608,110,24	632,72,24	656,150,24	680,154,24	704,136,24	728,25,24	752,124,24	776,96,24	800,82,24	824,68,24	848,23,24	872,130,24	896,172,24	920,118,24	944,48,24	968,41,24	4573,186,24	4603,90,24	4660,104,24	4819,128,24	4843,29,24	4867,35,24	4891,46,24	4915,47,24	4939,54,24	4963,78,24	5123,126,24	5222,184,24	5246,194,24	5270,198,24	5294,200,24	5318,56,24	5342,114,24	5366,116,24	5411,122,24	5435,52,24	5498,144,24	5522,164,24	5546,188,24	5570,22,24	5594,33,24	5618,37,24	5642,45,24	5666,50,24	5690,58,24	5714,98,24	5738,112,24	5762,138,24	5786,170,24	5810,182,24	5834,27,24	5858,74,24	5882,86,24	5906,92,24	5930,174,24	5954,192,24	5978,39,24	6002,60,24	6026,80,24	6050,94,24	6074,100,24	6098,106,24	6122,140,24	6146,162,24	6170,70,24	6194,88,24	6218,142,24	6242,156,24	6266,166,24	6290,176,24	6314,180,24	6338,31,24	6362,43,24	6386,108,24	6410,152,24	6434,168,24	6458,190,24	
0,0,1	1,5,24	25,13,24	49,7,24	73,11,24	97,19,24	121,15,24	145,3,24	169,17,24	193,1,24	217,9,24	241,175,24	265,51,24	289,115,24	313,36,24	337,87,24	361,69,24	385,171,24	409,32,24	433,173,24	457,65,24	481,103,24	505,125,24	529,26,24	553,71,24	577,61,24	601,179,24	625,163,24	649,157,24	673,151,24	697,93,24	721,40,24	745,28,24	769,127,24	793,199,24	817,75,24	841,85,24	865,63,24	1052,53,24	1243,111,24	1267,119,24	1291,123,24	1315,131,24	1339,81,24	1363,91,24	1387,133,24	1411,187,24	1435,30,24	1459,73,24	1483,99,24	1507,49,24	1531,55,24	1555,95,24	1579,143,24	1603,77,24	1627,153,24	1651,191,24	1675,79,24	1699,83,24	1723,135,24	1747,165,24	1771,181,24	1795,34,24	1819,129,24	1843,141,24	1867,195,24	1891,38,24	1915,42,24	1939,57,24	1963,105,24	1987,107,24	2011,109,24	2035,113,24	2059,117,24	2083,155,24	2107,167,24	2131,185,24	2155,197,24	2179,67,24	2203,89,24	2227,139,24	2251,145,24	2275,149,24	2299,159,24	2323,161,24	2347,169,24	2371,177,24	2395,183,24	2419,189,24	2443,193,24	2467,21,24	2491,24,24	2515,44,24	2539,59,24	2563,97,24	2587,101,24	2611,121,24	2635,137,24	2659,147,24	6491,201,1	
# Incoming
1,(0, 2),7	8,(0, 4),7	15,(0, 6),7	22,(0, 8),7	29,(0, 10),7	36,(0, 12),7	43,(0, 14),7	50,(0, 16),7	57,(0, 18),7	64,(0, 20),7	71,(5, 52),3	74,(5, 60),3	77,(5, 62),1	78,(5, 78),1	79,(5, 84),1	80,(5, 100),23	103,(5, 108),8	111,(5, 128),10	121,(5, 140),36	157,(5, 146),1	158,(5, 148),8	166,(5, 162),306	472,(5, 166),2	474,(5, 170),1	475,(5, 186),4098	4573,(5, 198),3	4576,(13, 27),4	4580,(13, 37),5	4585,(13, 60),4	4589,(13, 86),1	4590,(13, 90),13	4603,(13, 104),57	4660,(13, 106),2	4662,(13, 122),7	4669,(13, 128),150	4819,(7, 27),1	4820,(7, 29),9	4829,(7, 35),7	4836,(7, 45),3	4839,(7, 46),5	4844,(7, 47),9	4853,(7, 52),2	4855,(7, 54),3	4858,(7, 78),17	4875,(7, 86),6	4881,(7, 114),91	4972,(7, 116),149	5121,(7, 126),2	5123,(7, 170),38	5161,(7, 174),3	5164,(7, 184),58	5222,(7, 194),1	5223,(7, 198),16	5239,(7, 200),13	5252,(11, 56),9	5261,(11, 114),2	5263,(11, 116),2	5265,(11, 122),146	5411,(11, 174),8	5419,(19, 52),1	5420,(19, 70),65	5485,(19, 88),1	5486,(19, 94),8	5494,(19, 100),1	5495,(19, 144),3	5498,(19, 164),1	5499,(19, 188),1	5500,(15, 22),4	5504,(15, 31),1	5505,(15, 33),1	5506,(15, 37),1	5507,(15, 45),2	5509,(15, 50),3	5512,(15, 58),56	5568,(15, 70),1	5569,(15, 98),15	5584,(15, 112),15	5599,(15, 138),3	5602,(15, 168),1	5603,(15, 170),2	5605,(15, 182),7	5612,(3, 27),6	5618,(3, 74),2	5620,(3, 86),14	5634,(3, 92),34	5668,(3, 140),7	5675,(3, 174),3	5678,(3, 192),1	5679,(17, 39),9	5688,(17, 43),1	5689,(17, 60),1	5690,(17, 80),12	5702,(17, 94),7	5709,(17, 100),12	5721,(17, 106),18	5739,(17, 140),6	5745,(17, 162),4	5749,(17, 168),8	5757,(1, 70),6	5763,(1, 88),18	5781,(1, 142),1	5782,(1, 156),8	5790,(1, 166),3	5793,(1, 176),1	5794,(1, 180),1	5795,(9, 31),1	5796,(9, 43),2	5798,(9, 108),2	5800,(9, 152),1	5801,(9, 168),2	5803,(9, 190),5	
32,(2, 49),1008	1040,(2, 53),12	1052,(2, 107),167	1219,(2, 111),24	1243,(2, 119),2	1245,(2, 123),1	1246,(2, 131),4	1250,(2, 147),9	1259,(2, 159),4	1263,(4, 73),2	1265,(4, 77),1	1266,(4, 81),10	1276,(4, 91),12	1288,(4, 117),5	1293,(4, 133),9	1302,(4, 137),1	1303,(4, 143),5	1308,(4, 165),1	1309,(4, 169),3	1312,(4, 185),68	1380,(4, 187),23	1403,(6, 30),3	1406,(6, 73),5	1411,(6, 99),8	1419,(6, 107),1	1420,(6, 113),1	1421,(6, 135),1	1422,(6, 145),22	1444,(6, 189),8	1452,(8, 44),11	1463,(8, 49),7	1470,(8, 55),1	1471,(8, 95),8	1479,(8, 113),1	1480,(8, 135),5	1485,(8, 143),5	1490,(178, 201),9	1499,(196, 201),9	1508,(10, 77),2	1510,(10, 79),1	1511,(10, 117),2	1513,(10, 149),1	1514,(10, 153),67	1581,(10, 191),5	1586,(12, 59),1	1587,(12, 79),14	1601,(12, 83),2	1603,(12, 135),5	1608,(12, 165),20	1628,(12, 181),1	1629,(14, 34),1	1630,(14, 38),7	1637,(14, 67),2	1639,(14, 89),1	1640,(14, 129),1	1641,(14, 141),1	1642,(14, 195),5	1647,(160, 201),9	1656,(16, 21),53	1709,(16, 38),7	1716,(16, 42),1	1717,(16, 57),4	1721,(16, 105),6	1727,(16, 107),2	1729,(16, 109),12	1741,(16, 113),6	1747,(16, 117),34	1781,(16, 155),4	1785,(16, 167),5	1790,(16, 185),3	1793,(16, 197),29	1822,(18, 67),29	1851,(18, 89),6	1857,(18, 139),3	1860,(18, 145),4	1864,(18, 149),70	1934,(18, 159),1	1935,(18, 161),10	1945,(18, 169),2	1947,(18, 177),3	1950,(18, 183),1	1951,(18, 189),1	1952,(18, 193),3	1955,(20, 21),4	1959,(20, 24),27	1986,(20, 44),355	2341,(20, 59),1	2342,(20, 97),3	2345,(20, 101),12	2357,(20, 121),173	2530,(20, 137),1	2531,(20, 147),3	2534,(62, 201),9	2543,(84, 201),9	2552,(66, 201),9	2561,(146, 201),9	2570,(148, 201),9	2579,(132, 201),9	2588,(158, 201),9	2597,(134, 201),9	2606,(76, 201),9	2615,(102, 201),9	2624,(120, 201),9	2633,(64, 201),9	2642,(110, 201),9	2651,(72, 201),9	2660,(150, 201),9	2669,(154, 201),9	2678,(136, 201),9	2687,(25, 201),9	2696,(124, 201),9	2705,(96, 201),9	2714,(82, 201),9	2723,(68, 201),9	2732,(23, 201),9	2741,(130, 201),9	2750,(172, 201),9	2759,(118, 201),9	2768,(48, 201),9	2777,(41, 201),9	4597,(186, 201),9	4627,(90, 201),9	4684,(104, 201),9	4843,(128, 201),9	4867,(29, 201),9	4891,(35, 201),9	4915,(46, 201),9	4939,(47, 201),9	4963,(54, 201),9	4987,(78, 201),9	5147,(126, 201),9	5246,(184, 201),9	5270,(194, 201),9	5294,(198, 201),9	5318,(200, 201),9	5342,(56, 201),9	5366,(114, 201),9	5390,(116, 201),9	5435,(122, 201),9	5459,(52, 201),9	5522,(144, 201),9	5546,(164, 201),9	5570,(188, 201),9	5594,(22, 201),9	5618,(33, 201),9	5642,(37, 201),9	5666,(45, 201),9	5690,(50, 201),9	5714,(58, 201),9	5738,(98, 201),9	5762,(112, 201),9	5786,(138, 201),9	5810,(170, 201),9	5834,(182, 201),9	5858,(27, 201),9	5882,(74, 201),9	5906,(86, 201),9	5930,(92, 201),9	5954,(174, 201),9	5978,(192, 201),9	6002,(39, 201),9	6026,(60, 201),9	6050,(80, 201),9	6074,(94, 201),9	6098,(100, 201),9	6122,(106, 201),9	6146,(140, 201),9	6170,(162, 201),9	6194,(70, 201),9	6218,(88, 201),9	6242,(142, 201),9	6266,(156, 201),9	6290,(166, 201),9	6314,(176, 201),9	6338,(180, 201),9	6362,(31, 201),9	6386,(43, 201),9	6410,(108, 201),9	6434,(152, 201),9	6458,(168, 201),9	6482,(190, 201),9	
# Outgoing
32,(2, 49),1008	1040,(2, 53),12	1052,(2, 107),167	1219,(2, 111),24	1243,(2, 119),2	1245,(2, 123),1	1246,(2, 131),4	1250,(2, 147),9	1259,(2, 159),4	1263,(4, 73),2	1265,(4, 77),1	1266,(4, 81),10	1276,(4, 91),12	1288,(4, 117),5	1293,(4, 133),9	1302,(4, 137),1	1303,(4, 143),5	1308,(4, 165),1	1309,(4, 169),3	1312,(4, 185),68	1380,(4, 187),23	1403,(6, 30),3	1406,(6, 73),5	1411,(6, 99),8	1419,(6, 107),1	1420,(6, 113),1	1421,(6, 135),1	1422,(6, 145),22	1444,(6, 189),8	1452,(8, 44),11	1463,(8, 49),7	1470,(8, 55),1	1471,(8, 95),8	1479,(8, 113),1	1480,(8, 135),5	1485,(8, 143),5	1490,(178, 201),9	1499,(196, 201),9	1508,(10, 77),2	1510,(10, 79),1	1511,(10, 117),2	1513,(10, 149),1	1514,(10, 153),67	1581,(10, 191),5	1586,(12, 59),1	1587,(12, 79),14	1601,(12, 83),2	1603,(12, 135),5	1608,(12, 165),20	1628,(12, 181),1	1629,(14, 34),1	1630,(14, 38),7	1637,(14, 67),2	1639,(14, 89),1	1640,(14, 129),1	1641,(14, 141),1	1642,(14, 195),5	1647,(160, 201),9	1656,(16, 21),53	1709,(16, 38),7	1716,(16, 42),1	1717,(16, 57),4	1721,(16, 105),6	1727,(16, 107),2	1729,(16, 109),12	1741,(16, 113),6	1747,(16, 117),34	1781,(16, 155),4	1785,(16, 167),5	1790,(16, 185),3	1793,(16, 197),29	1822,(18, 67),29	1851,(18, 89),6	1857,(18, 139),3	1860,(18, 145),4	1864,(18, 149),70	1934,(18, 159),1	1935,(18, 161),10	1945,(18, 169),2	1947,(18, 177),3	1950,(18, 183),1	1951,(18, 189),1	1952,(18, 193),3	1955,(20, 21),4	1959,(20, 24),27	1986,(20, 44),355	2341,(20, 59),1	2342,(20, 97),3	2345,(20, 101),12	2357,(20, 121),173	2530,(20, 137),1	2531,(20, 147),3	2534,(62, 201),9	2543,(84, 201),9	2552,(66, 201),9	2561,(146, 201),9	2570,(148, 201),9	2579,(132, 201),9	2588,(158, 201),9	2597,(134, 201),9	2606,(76, 201),9	2615,(102, 201),9	2624,(120, 201),9	2633,(64, 201),9	2642,(110, 201),9	2651,(72, 201),9	2660,(150, 201),9	2669,(154, 201),9	2678,(136, 201),9	2687,(25, 201),9	2696,(124, 201),9	2705,(96, 201),9	2714,(82, 201),9	2723,(68, 201),9	2732,(23, 201),9	2741,(130, 201),9	2750,(172, 201),9	2759,(118, 201),9	2768,(48, 201),9	2777,(41, 201),9	4597,(186, 201),9	4627,(90, 201),9	4684,(104, 201),9	4843,(128, 201),9	4867,(29, 201),9	4891,(35, 201),9	4915,(46, 201),9	4939,(47, 201),9	4963,(54, 201),9	4987,(78, 201),9	5147,(126, 201),9	5246,(184, 201),9	5270,(194, 201),9	5294,(198, 201),9	5318,(200, 201),9	5342,(56, 201),9	5366,(114, 201),9	5390,(116, 201),9	5435,(122, 201),9	5459,(52, 201),9	5522,(144, 201),9	5546,(164, 201),9	5570,(188, 201),9	5594,(22, 201),9	5618,(33, 201),9	5642,(37, 201),9	5666,(45, 201),9	5690,(50, 201),9	5714,(58, 201),9	5738,(98, 201),9	5762,(112, 201),9	5786,(138, 201),9	5810,(170, 201),9	5834,(182, 201),9	5858,(27, 201),9	5882,(74, 201),9	5906,(86, 201),9	5930,(92, 201),9	5954,(174, 201),9	5978,(192, 201),9	6002,(39, 201),9	6026,(60, 201),9	6050,(80, 201),9	6074,(94, 201),9	6098,(100, 201),9	6122,(106, 201),9	6146,(140, 201),9	6170,(162, 201),9	6194,(70, 201),9	6218,(88, 201),9	6242,(142, 201),9	6266,(156, 201),9	6290,(166, 201),9	6314,(176, 201),9	6338,(180, 201),9	6362,(31, 201),9	6386,(43, 201),9	6410,(108, 201),9	6434,(152, 201),9	6458,(168, 201),9	6482,(190, 201),9	
1,(0, 2),7	8,(0, 4),7	15,(0, 6),7	22,(0, 8),7	29,(0, 10),7	36,(0, 12),7	43,(0, 14),7	50,(0, 16),7	57,(0, 18),7	64,(0, 20),7	71,(5, 52),3	74,(5, 60),3	77,(5, 62),1	78,(5, 78),1	79,(5, 84),1	80,(5, 100),23	103,(5, 108),8	111,(5, 128),10	121,(5, 140),36	157,(5, 146),1	158,(5, 148),8	166,(5, 162),306	472,(5, 166),2	474,(5, 170),1	475,(5, 186),4098	4573,(5, 198),3	4576,(13, 27),4	4580,(13, 37),5	4585,(13, 60),4	4589,(13, 86),1	4590,(13, 90),13	4603,(13, 104),57	4660,(13, 106),2	4662,(13, 122),7	4669,(13, 128),150	4819,(7, 27),1	4820,(7, 29),9	4829,(7, 35),7	4836,(7, 45),3	4839,(7, 46),5	4844,(7, 47),9	4853,(7, 52),2	4855,(7, 54),3	4858,(7, 78),17	4875,(7, 86),6	4881,(7, 114),91	4972,(7, 116),149	5121,(7, 126),2	5123,(7, 170),38	5161,(7, 174),3	5164,(7, 184),58	5222,(7, 194),1	5223,(7, 198),16	5239,(7, 200),13	5252,(11, 56),9	5261,(11, 114),2	5263,(11, 116),2	5265,(11, 122),146	5411,(11, 174),8	5419,(19, 52),1	5420,(19, 70),65	5485,(19, 88),1	5486,(19, 94),8	5494,(19, 100),1	5495,(19, 144),3	5498,(19, 164),1	5499,(19, 188),1	5500,(15, 22),4	5504,(15, 31),1	5505,(15, 33),1	5506,(15, 37),1	5507,(15, 45),2	5509,(15, 50),3	5512,(15, 58),56	5568,(15, 70),1	5569,(15, 98),15	5584,(15, 112),15	5599,(15, 138),3	5602,(15, 168),1	5603,(15, 170),2	5605,(15, 182),7	5612,(3, 27),6	5618,(3, 74),2	5620,(3, 86),14	5634,(3, 92),34	5668,(3, 140),7	5675,(3, 174),3	5678,(3, 192),1	5679,(17, 39),9	5688,(17, 43),1	5689,(17, 60),1	5690,(17, 80),12	5702,(17, 94),7	5709,(17, 100),12	5721,(17, 106),18	5739,(17, 140),6	5745,(17, 162),4	5749,(17, 168),8	5757,(1, 70),6	5763,(1, 88),18	5781,(1, 142),1	5782,(1, 156),8	5790,(1, 166),3	5793,(1, 176),1	5794,(1, 180),1	5795,(9, 31),1	5796,(9, 43),2	5798,(9, 108),2	5800,(9, 152),1	5801,(9, 168),2	5803,(9, 190),5	
