457
# CPU
220,7,8	247,12,8	352,17,8	
292,11,8	325,6,8	333,16,8	
208,5,8	219,10,8	301,15,8	445,20,8	
160,2,8	168,4,8	176,9,8	295,14,8	367,19,8	
0,0,1	1,1,8	9,8,8	17,13,8	216,3,8	250,18,8	456,21,1	
# Incoming
208,(1, 7),12	220,(2, 12),27	301,(1, 17),51	
220,(1, 11),72	292,(2, 6),33	325,(2, 16),3	
160,(1, 5),48	216,(2, 10),3	295,(1, 15),6	367,(1, 20),78	
1,(0, 2),159	292,(1, 14),3	352,(1, 19),15	
168,(2, 3),48	216,(5, 21),3	227,(10, 21),3	230,(7, 21),3	247,(2, 18),3	250,(4, 21),3	253,(9, 21),3	256,(12, 21),3	300,(11, 21),3	309,(15, 21),3	328,(14, 21),3	333,(6, 21),3	341,(16, 21),3	360,(17, 21),3	375,(19, 21),3	453,(20, 21),3	
# Outgoing
230,(7, 21),3	256,(12, 21),3	360,(17, 21),3	
300,(11, 21),3	333,(6, 21),3	341,(16, 21),3	
216,(5, 21),3	227,(10, 21),3	309,(15, 21),3	453,(20, 21),3	
168,(2, 3),48	216,(2, 10),3	220,(2, 12),27	247,(2, 18),3	250,(4, 21),3	253,(9, 21),3	292,(2, 6),33	325,(2, 16),3	328,(14, 21),3	375,(19, 21),3	
1,(0, 2),159	160,(1, 5),48	208,(1, 7),12	220,(1, 11),72	292,(1, 14),3	295,(1, 15),6	301,(1, 17),51	352,(1, 19),15	367,(1, 20),78	
