221
# CPU
43,8,5	55,14,5	60,5,5	115,20,5	187,11,5	202,17,5	
16,2,5	21,4,5	26,7,5	31,10,5	36,13,5	64,16,5	69,19,5	
0,0,1	1,1,5	6,6,5	11,9,5	16,15,5	33,3,5	42,12,5	85,18,5	220,21,1	
# Incoming
16,(1, 8),27	43,(1, 14),12	55,(2, 5),3	67,(1, 20),48	115,(2, 11),72	187,(2, 17),15	
1,(0, 2),15	55,(1, 16),9	64,(1, 19),3	
21,(2, 3),12	33,(2, 12),9	42,(4, 21),6	48,(7, 21),6	58,(2, 18),27	85,(10, 21),6	91,(13, 21),6	97,(8, 21),6	103,(14, 21),6	109,(5, 21),6	120,(20, 21),6	192,(11, 21),6	202,(16, 21),6	208,(19, 21),6	214,(17, 21),6	
# Outgoing
97,(8, 21),6	103,(14, 21),6	109,(5, 21),6	120,(20, 21),6	192,(11, 21),6	214,(17, 21),6	
21,(2, 3),12	33,(2, 12),9	42,(4, 21),6	48,(7, 21),6	55,(2, 5),3	58,(2, 18),27	85,(10, 21),6	91,(13, 21),6	115,(2, 11),72	187,(2, 17),15	202,(16, 21),6	208,(19, 21),6	
1,(0, 2),15	16,(1, 8),27	43,(1, 14),12	55,(1, 16),9	64,(1, 19),3	67,(1, 20),48	
