881
# CPU
0,0,1	1,1,66	67,17,66	133,37,66	199,15,66	265,26,66	
7,2,66	73,38,66	139,32,66	205,10,66	271,21,66	337,11,66	
10,4,66	76,27,66	142,16,66	208,22,66	274,23,66	340,19,66	880,41,1	
70,20,66	136,9,66	202,7,66	
73,31,66	139,8,66	205,33,66	
73,13,66	139,6,66	205,18,66	
76,24,66	142,35,66	208,29,66	
76,28,66	142,14,66	208,12,66	
79,5,66	145,36,66	211,40,66	
4,3,66	70,39,66	136,25,66	202,34,66	268,30,66	
# Incoming
148,(2, 26),54	
4,(0, 2),3	190,(4, 11),39	
7,(0, 4),3	136,(20, 41),24	160,(39, 41),24	184,(17, 41),24	208,(38, 41),24	232,(31, 41),24	256,(13, 41),24	280,(24, 41),24	304,(28, 41),24	328,(5, 41),24	352,(37, 41),24	376,(25, 41),24	400,(9, 41),24	424,(32, 41),24	448,(8, 41),24	472,(6, 41),24	496,(35, 41),24	520,(14, 41),24	544,(36, 41),24	568,(15, 41),24	592,(34, 41),24	616,(7, 41),24	640,(10, 41),24	664,(33, 41),24	688,(18, 41),24	712,(29, 41),24	736,(12, 41),24	760,(40, 41),24	784,(26, 41),24	808,(30, 41),24	832,(21, 41),24	856,(11, 41),24	
67,(1, 20),3	73,(1, 9),3	79,(4, 9),3	82,(2, 7),30	
70,(1, 31),3	76,(3, 8),15	133,(3, 33),6	139,(4, 33),27	
70,(3, 13),3	82,(4, 6),15	112,(2, 18),36	
73,(3, 24),3	91,(3, 35),18	109,(1, 29),39	
73,(2, 28),3	109,(3, 14),24	133,(4, 12),6	148,(1, 12),36	
76,(4, 5),3	79,(1, 40),6	97,(4, 36),24	139,(3, 40),21	166,(4, 40),24	
1,(0, 3),3	
# Outgoing
1,(0, 3),3	4,(0, 2),3	7,(0, 4),3	67,(1, 20),3	70,(1, 31),3	73,(1, 9),3	79,(1, 40),6	109,(1, 29),39	148,(1, 12),36	184,(17, 41),24	352,(37, 41),24	568,(15, 41),24	784,(26, 41),24	
73,(2, 28),3	82,(2, 7),30	112,(2, 18),36	148,(2, 26),54	208,(38, 41),24	424,(32, 41),24	640,(10, 41),24	832,(21, 41),24	856,(11, 41),24	
76,(4, 5),3	79,(4, 9),3	82,(4, 6),15	97,(4, 36),24	133,(4, 12),6	139,(4, 33),27	166,(4, 40),24	190,(4, 11),39	
136,(20, 41),24	400,(9, 41),24	616,(7, 41),24	
232,(31, 41),24	448,(8, 41),24	664,(33, 41),24	
256,(13, 41),24	472,(6, 41),24	688,(18, 41),24	
280,(24, 41),24	496,(35, 41),24	712,(29, 41),24	
304,(28, 41),24	520,(14, 41),24	736,(12, 41),24	
328,(5, 41),24	544,(36, 41),24	760,(40, 41),24	
70,(3, 13),3	73,(3, 24),3	76,(3, 8),15	91,(3, 35),18	109,(3, 14),24	133,(3, 33),6	139,(3, 40),21	160,(39, 41),24	376,(25, 41),24	592,(34, 41),24	808,(30, 41),24	
