719
# CPU
142,14,15	169,17,15	472,5,15	487,8,15	511,11,15	655,20,15	
4,2,15	19,4,15	34,10,15	79,7,15	121,13,15	151,16,15	178,19,15	
0,0,1	1,1,15	16,18,15	223,3,15	475,6,15	499,9,15	550,12,15	565,15,15	718,21,1	
# Incoming
16,(1, 5),24	79,(1, 8),12	91,(1, 11),24	121,(1, 14),21	151,(1, 17),18	178,(1, 20),3	223,(2, 5),249	475,(2, 8),9	499,(2, 11),12	556,(2, 20),99	
1,(0, 2),3	40,(1, 7),39	115,(1, 13),6	142,(1, 16),9	169,(1, 19),9	
19,(2, 3),204	223,(14, 21),9	232,(17, 21),9	472,(2, 6),3	484,(2, 9),15	499,(5, 21),9	511,(2, 12),39	550,(2, 15),6	556,(8, 21),9	565,(11, 21),9	655,(4, 21),9	664,(10, 21),9	673,(7, 21),9	682,(13, 21),9	691,(16, 21),9	700,(19, 21),9	709,(20, 21),9	
# Outgoing
223,(14, 21),9	232,(17, 21),9	499,(5, 21),9	556,(8, 21),9	565,(11, 21),9	709,(20, 21),9	
19,(2, 3),204	223,(2, 5),249	472,(2, 6),3	475,(2, 8),9	484,(2, 9),15	499,(2, 11),12	511,(2, 12),39	550,(2, 15),6	556,(2, 20),99	655,(4, 21),9	664,(10, 21),9	673,(7, 21),9	682,(13, 21),9	691,(16, 21),9	700,(19, 21),9	
1,(0, 2),3	16,(1, 5),24	40,(1, 7),39	79,(1, 8),12	91,(1, 11),24	115,(1, 13),6	121,(1, 14),21	142,(1, 16),9	151,(1, 17),18	169,(1, 19),9	178,(1, 20),3	
