593
# CPU
0,201,1	1,90,3	4,99,3	7,89,3	10,88,3	13,65,3	16,63,3	19,179,3	22,128,3	25,61,3	28,131,3	31,38,3	34,83,3	37,134,3	40,123,3	43,135,3	46,111,3	49,36,3	52,141,3	55,154,3	58,162,3	61,145,3	64,184,3	67,164,3	70,200,3	73,173,3	76,80,3	79,42,3	82,34,3	85,178,3	88,185,3	91,50,3	94,186,3	97,31,3	100,167,3	103,30,3	106,27,3	109,147,3	112,76,3	115,51,3	118,100,3	121,166,3	124,110,3	127,25,3	130,29,3	133,199,3	136,187,3	139,120,3	142,86,3	145,95,3	148,70,3	151,64,3	154,191,3	157,129,3	160,28,3	163,22,3	166,44,3	169,77,3	172,58,3	175,113,3	178,121,3	181,53,3	184,142,3	187,143,3	190,92,3	193,35,3	196,153,3	199,168,3	202,26,3	205,40,3	208,98,3	211,157,3	214,180,3	217,116,3	220,107,3	223,91,3	226,193,3	229,21,3	232,69,3	235,49,3	238,93,3	241,172,3	244,84,3	247,194,3	250,197,3	253,109,3	256,125,3	259,146,3	262,122,3	265,71,3	268,67,3	271,183,3	274,182,3	277,192,3	280,78,3	283,102,3	286,48,3	289,188,3	292,106,3	295,126,3	298,127,3	301,130,3	304,59,3	307,169,3	310,24,3	313,23,3	316,124,3	319,175,3	322,132,3	325,158,3	328,39,3	331,133,3	334,171,3	337,161,3	340,32,3	343,43,3	346,85,3	349,159,3	352,1,3	355,108,3	358,144,3	361,52,3	364,47,3	367,196,3	370,152,3	373,74,3	376,66,3	379,195,3	382,165,3	385,149,3	388,101,3	391,79,3	394,104,3	397,4,3	400,57,3	403,151,3	406,136,3	409,170,3	412,41,3	415,189,3	418,56,3	421,68,3	424,73,3	427,12,3	430,72,3	433,139,3	436,62,3	439,103,3	442,96,3	445,174,3	448,118,3	451,176,3	454,45,3	457,150,3	460,2,3	463,17,3	466,13,3	469,11,3	472,8,3	475,18,3	478,19,3	481,9,3	484,10,3	487,16,3	490,20,3	493,7,3	496,6,3	499,15,3	522,5,3	589,3,3	592,0,1	
106,190,3	166,37,3	196,137,3	211,155,3	226,138,3	256,148,3	271,140,3	286,87,3	301,119,3	391,46,3	451,114,3	502,14,3	
16,60,3	31,163,3	46,160,3	61,81,3	76,117,3	91,115,3	121,112,3	136,82,3	151,105,3	181,97,3	241,198,3	316,54,3	331,55,3	346,181,3	361,94,3	376,156,3	406,75,3	421,177,3	436,33,3	
# Incoming
64,(81, 2),1	65,(60, 13),1	66,(81, 19),1	67,(81, 10),1	68,(163, 16),1	69,(60, 5),1	70,(160, 5),1	79,(117, 16),1	80,(117, 6),1	94,(115, 6),1	95,(115, 3),1	139,(82, 13),2	154,(105, 6),2	169,(37, 11),3	172,(190, 19),1	199,(137, 8),2	201,(137, 18),4	205,(137, 15),2	214,(155, 7),4	229,(138, 8),6	244,(198, 11),1	245,(198, 20),7	259,(148, 7),8	274,(140, 19),8	289,(87, 18),6	295,(87, 6),9	304,(119, 9),10	319,(54, 10),11	334,(55, 17),3	337,(54, 15),9	349,(181, 16),13	362,(55, 15),12	375,(181, 3),1	379,(156, 20),17	396,(46, 7),20	416,(75, 6),22	438,(177, 15),27	465,(156, 5),6	471,(177, 5),51	522,(33, 3),67	589,(14, 0),1	
91,(201, 190),15	124,(112, 14),1	151,(201, 37),15	181,(201, 137),15	196,(201, 155),15	211,(201, 138),15	226,(97, 14),3	241,(201, 148),15	256,(201, 140),15	271,(201, 87),15	286,(201, 119),15	374,(181, 14),1	376,(201, 46),15	396,(94, 14),15	436,(201, 114),15	451,(88, 14),1	452,(142, 14),3	455,(143, 14),3	458,(197, 14),4	462,(171, 14),12	474,(170, 14),27	501,(73, 14),1	
1,(201, 60),15	16,(201, 163),15	31,(201, 160),15	46,(201, 81),15	61,(201, 117),15	76,(201, 115),15	106,(201, 112),15	121,(201, 82),15	136,(201, 105),15	166,(201, 97),15	226,(201, 198),15	301,(201, 54),15	316,(201, 55),15	331,(201, 181),15	346,(201, 94),15	361,(201, 156),15	391,(201, 75),15	406,(201, 177),15	421,(201, 33),15	
# Outgoing
1,(201, 60),15	16,(201, 163),15	31,(201, 160),15	46,(201, 81),15	61,(201, 117),15	76,(201, 115),15	91,(201, 190),15	106,(201, 112),15	121,(201, 82),15	136,(201, 105),15	151,(201, 37),15	166,(201, 97),15	181,(201, 137),15	196,(201, 155),15	211,(201, 138),15	226,(201, 198),15	241,(201, 148),15	256,(201, 140),15	271,(201, 87),15	286,(201, 119),15	301,(201, 54),15	316,(201, 55),15	331,(201, 181),15	346,(201, 94),15	361,(201, 156),15	376,(201, 46),15	391,(201, 75),15	406,(201, 177),15	421,(201, 33),15	436,(201, 114),15	451,(88, 14),1	452,(142, 14),3	455,(143, 14),3	458,(197, 14),4	462,(171, 14),12	474,(170, 14),27	501,(73, 14),1	
169,(37, 11),3	172,(190, 19),1	199,(137, 8),2	201,(137, 18),4	205,(137, 15),2	214,(155, 7),4	229,(138, 8),6	259,(148, 7),8	274,(140, 19),8	289,(87, 18),6	295,(87, 6),9	304,(119, 9),10	396,(46, 7),20	589,(14, 0),1	
64,(81, 2),1	65,(60, 13),1	66,(81, 19),1	67,(81, 10),1	68,(163, 16),1	69,(60, 5),1	70,(160, 5),1	79,(117, 16),1	80,(117, 6),1	94,(115, 6),1	95,(115, 3),1	124,(112, 14),1	139,(82, 13),2	154,(105, 6),2	226,(97, 14),3	244,(198, 11),1	245,(198, 20),7	319,(54, 10),11	334,(55, 17),3	337,(54, 15),9	349,(181, 16),13	362,(55, 15),12	374,(181, 14),1	375,(181, 3),1	379,(156, 20),17	396,(94, 14),15	416,(75, 6),22	438,(177, 15),27	465,(156, 5),6	471,(177, 5),51	522,(33, 3),67	
