266
# CPU
0,201,1	1,126,1	2,76,1	3,142,1	4,144,1	5,133,1	6,72,1	7,122,1	8,123,1	9,68,1	10,121,1	11,131,1	12,132,1	13,135,1	14,136,1	15,119,1	16,137,1	17,62,1	18,140,1	19,117,1	20,152,1	21,156,1	22,158,1	23,165,1	24,112,1	25,174,1	26,179,1	27,109,1	28,50,1	29,21,1	30,88,1	31,89,1	32,41,1	33,40,1	34,172,1	35,39,1	36,98,1	37,83,1	38,182,1	39,48,1	40,96,1	41,36,1	42,97,1	43,30,1	44,178,1	45,190,1	46,24,1	47,189,1	48,173,1	49,44,1	50,34,1	51,26,1	52,27,1	53,67,1	54,25,1	55,71,1	56,141,1	57,153,1	58,77,1	59,198,1	60,37,1	61,162,1	62,166,1	63,200,1	64,155,1	65,22,1	66,28,1	67,148,1	68,31,1	69,146,1	70,35,1	71,187,1	72,94,1	73,183,1	74,124,1	75,45,1	76,55,1	77,120,1	78,29,1	79,85,1	80,114,1	81,102,1	82,116,1	83,197,1	84,75,1	85,161,1	86,154,1	87,69,1	88,169,1	89,167,1	90,111,1	91,56,1	92,95,1	93,185,1	94,104,1	95,65,1	96,160,1	97,191,1	98,63,1	99,73,1	100,177,1	101,115,1	102,128,1	103,139,1	104,149,1	105,74,1	106,108,1	107,90,1	108,57,1	109,157,1	110,23,1	111,192,1	112,151,1	113,130,1	114,91,1	115,51,1	116,194,1	117,107,1	118,100,1	119,84,1	120,196,1	121,66,1	122,175,1	123,168,1	124,127,1	125,64,1	126,188,1	127,186,1	128,138,1	129,103,1	130,53,1	131,113,1	132,181,1	133,38,1	134,59,1	135,106,1	136,43,1	137,164,1	138,11,1	139,86,1	140,150,1	141,118,1	142,101,1	143,93,1	144,170,1	145,52,1	146,1,1	147,32,1	148,42,1	149,171,1	150,125,1	151,159,1	152,8,1	153,180,1	154,143,1	155,99,1	156,17,1	157,82,1	158,92,1	159,7,1	160,61,1	161,80,1	162,129,1	163,14,1	164,33,1	165,163,1	166,47,1	167,20,1	168,184,1	169,199,1	170,60,1	171,110,1	172,16,1	173,105,1	174,46,1	175,6,1	176,79,1	177,4,1	178,145,1	179,5,1	180,147,1	181,70,1	182,2,1	183,134,1	184,87,1	185,12,1	186,58,1	187,19,1	188,10,1	189,13,1	190,18,1	191,3,1	192,9,1	264,15,1	265,0,1	
25,176,1	97,81,1	169,49,1	
73,54,1	
49,78,1	121,193,1	145,195,1	
# Incoming
26,(176, 10),2	50,(78, 13),2	74,(54, 18),6	98,(81, 3),10	122,(193, 3),16	146,(195, 9),38	184,(49, 15),80	
1,(201, 176),24	73,(201, 81),24	145,(201, 49),24	
49,(201, 54),24	
25,(201, 78),24	97,(201, 193),24	121,(201, 195),24	
# Outgoing
1,(201, 176),24	25,(201, 78),24	49,(201, 54),24	73,(201, 81),24	97,(201, 193),24	121,(201, 195),24	145,(201, 49),24	
26,(176, 10),2	98,(81, 3),10	184,(49, 15),80	
74,(54, 18),6	
50,(78, 13),2	122,(193, 3),16	146,(195, 9),38	
