13605
# CPU
10,4,25	35,8,25	266,28,25	323,42,25	1124,13,25	1157,26,25	1247,30,25	1328,49,25	1532,32,25	1601,46,25	1649,52,25	2675,55,25	7529,73,25	7586,76,25	7616,79,25	7994,16,25	11189,22,25	11214,24,25	11249,34,25	11274,36,25	11363,38,25	11411,40,25	11450,44,25	12029,58,25	12054,61,25	12079,64,25	12140,67,25	12236,70,25	
7,3,25	32,7,25	2750,50,25	2879,29,25	2978,37,25	3003,15,25	4520,65,25	5369,23,25	5394,25,25	5419,31,25	7658,80,25	7808,11,25	7997,20,25	11231,27,25	11256,33,25	11281,35,25	11366,39,25	11414,41,25	11439,43,25	11464,45,25	11489,47,25	11975,53,25	12026,56,25	12051,59,25	12076,62,25	12164,68,25	12296,71,25	12338,74,25	12363,77,25	
4,2,25	29,6,25	413,18,25	1199,10,25	1865,66,25	2903,57,25	2972,60,25	5360,21,25	7565,75,25	7925,14,25	11789,48,25	11972,51,25	11997,54,25	12068,63,25	12212,69,25	12311,72,25	12380,78,25	13604,81,1	
0,0,1	1,1,25	26,5,25	464,9,25	878,17,25	1250,12,25	5000,19,25	
# Incoming
7,(0, 4),3	16,(0, 8),3	29,(1, 13),21	50,(2, 16),3	53,(1, 16),6	59,(2, 24),3	62,(3, 13),18	80,(3, 16),3	83,(3, 24),9	92,(3, 36),3	95,(1, 22),66	161,(2, 26),69	230,(2, 28),36	266,(2, 32),12	278,(2, 34),3	281,(2, 36),3	284,(2, 38),33	317,(2, 79),3	320,(3, 42),3	323,(3, 44),3	326,(1, 26),156	482,(2, 40),54	536,(2, 46),12	548,(2, 64),18	566,(2, 70),15	581,(2, 73),63	644,(2, 76),87	731,(3, 22),21	752,(3, 34),9	761,(3, 46),45	806,(3, 52),3	809,(3, 55),3	812,(3, 58),3	815,(3, 70),33	848,(3, 73),36	884,(6, 16),3	887,(6, 26),3	890,(6, 40),3	893,(6, 44),27	920,(6, 46),15	935,(6, 49),51	986,(6, 58),3	989,(6, 61),6	995,(6, 67),69	1064,(6, 70),6	1070,(6, 73),12	1082,(6, 76),6	1088,(6, 79),33	1121,(7, 13),3	1124,(7, 24),21	1145,(7, 26),12	1157,(7, 30),90	1247,(7, 32),3	1250,(7, 36),42	1292,(7, 40),3	1295,(7, 44),21	1316,(7, 46),3	1319,(7, 49),9	1328,(7, 52),117	1481,(7, 58),3	1484,(7, 76),6	1511,(1, 32),21	1532,(1, 34),21	1553,(1, 38),3	1556,(7, 64),42	1598,(1, 46),3	1646,(1, 52),3	1649,(7, 55),87	1865,(7, 70),156	2660,(1, 55),15	2972,(1, 61),12	2990,(1, 64),3	3050,(1, 73),4479	7565,(1, 76),21	7598,(1, 79),18	7925,(5, 16),69	7997,(5, 22),3192	11189,(5, 24),6	11246,(5, 34),3	11252,(5, 36),9	11261,(5, 38),102	11366,(5, 40),45	11417,(5, 44),33	12026,(5, 58),3	12035,(5, 61),3	12068,(5, 64),6	12074,(5, 67),66	12212,(5, 70),24	
4,(0, 3),3	13,(0, 7),3	26,(1, 11),3	29,(2, 11),3	32,(2, 15),3	44,(2, 35),3	47,(2, 59),3	50,(1, 15),3	53,(2, 65),6	59,(1, 20),3	62,(2, 29),81	143,(2, 56),9	152,(2, 68),6	158,(2, 80),3	161,(1, 23),165	326,(2, 37),72	398,(2, 50),51	449,(2, 62),12	461,(4, 11),12	473,(4, 15),3	476,(4, 37),6	482,(1, 27),3	485,(1, 29),1026	1511,(4, 20),36	1547,(4, 47),9	1556,(1, 39),36	1592,(1, 43),3	1595,(1, 45),3	1598,(4, 77),3	1601,(1, 47),30	1631,(1, 50),15	1646,(6, 11),3	1649,(1, 53),315	1964,(2, 43),87	2051,(2, 45),117	2168,(2, 53),138	2306,(2, 77),273	2579,(4, 23),45	2624,(4, 27),15	2639,(4, 39),15	2654,(4, 41),45	2699,(4, 50),51	2750,(4, 53),57	2807,(4, 59),42	2849,(6, 23),6	2855,(6, 25),3	2858,(6, 27),3	2861,(6, 29),18	2879,(6, 31),21	2900,(6, 45),3	2903,(1, 59),60	2963,(6, 37),15	2978,(6, 56),3	2981,(6, 68),3	2984,(1, 62),3	2987,(6, 71),3	2990,(8, 15),3	2993,(1, 65),3	2996,(1, 68),39	3035,(1, 71),9	3044,(4, 68),78	3122,(4, 71),567	3689,(4, 80),114	3803,(6, 20),585	4388,(6, 33),27	4415,(6, 39),15	4430,(6, 41),54	4484,(6, 43),24	4508,(6, 65),12	5360,(8, 23),9	5369,(8, 25),3	5372,(8, 31),3	5375,(8, 35),9	5384,(8, 41),6	5390,(8, 45),96	5486,(8, 53),129	5615,(8, 56),12	5627,(8, 62),3	5630,(8, 68),21	5651,(8, 74),6	5657,(8, 77),3	7529,(1, 74),18	7586,(1, 77),12	7616,(1, 80),42	7658,(5, 11),150	7994,(5, 20),3	11195,(5, 27),36	11231,(5, 33),15	11249,(5, 35),3	11363,(5, 39),3	11411,(5, 41),3	11414,(5, 43),3	11450,(5, 45),3	11453,(5, 47),18	11972,(5, 53),3	11993,(5, 56),33	12029,(5, 59),6	12038,(5, 62),9	12140,(5, 68),24	12236,(5, 71),60	12311,(5, 74),27	12338,(5, 77),18	
1,(0, 2),3	10,(0, 6),3	62,(1, 21),33	95,(3, 18),3	98,(3, 21),42	140,(3, 48),3	143,(3, 54),3	146,(3, 57),15	161,(3, 60),84	245,(3, 69),18	263,(3, 72),24	287,(4, 10),30	317,(7, 63),3	326,(7, 10),12	338,(7, 14),21	359,(7, 18),18	377,(7, 21),9	386,(7, 51),12	398,(7, 60),6	404,(7, 72),3	410,(4, 18),3	419,(4, 21),12	431,(4, 48),9	440,(4, 66),6	446,(4, 69),15	482,(4, 51),99	581,(4, 57),450	1031,(4, 63),156	1187,(4, 72),3	1190,(4, 75),6	1196,(8, 10),3	1250,(8, 14),12	1262,(8, 54),3	1265,(8, 60),45	1310,(8, 69),3	1313,(8, 72),3	1316,(8, 75),27	1343,(8, 78),81	1445,(7, 57),36	1601,(28, 81),51	1652,(42, 81),51	1736,(7, 66),129	1865,(13, 81),51	1964,(1, 54),696	2675,(1, 57),228	2903,(26, 81),51	2963,(1, 60),9	2987,(1, 63),3	2993,(30, 81),51	3044,(1, 72),6	3050,(7, 69),285	3335,(50, 81),51	3386,(29, 81),51	3437,(37, 81),51	3488,(15, 81),51	4545,(65, 81),51	5000,(8, 21),360	5394,(23, 81),51	5445,(25, 81),51	5496,(31, 81),51	5660,(49, 81),51	5711,(32, 81),51	5762,(46, 81),51	5813,(52, 81),51	5864,(55, 81),51	7547,(1, 75),18	7565,(73, 81),51	7616,(76, 81),51	7667,(79, 81),51	7718,(80, 81),51	7808,(5, 14),117	7925,(11, 81),51	8019,(16, 81),51	8070,(20, 81),51	11214,(22, 81),51	11265,(24, 81),51	11316,(27, 81),51	11367,(34, 81),51	11418,(33, 81),51	11471,(5, 48),318	11789,(5, 51),183	11975,(5, 54),18	11993,(36, 81),51	12047,(5, 63),21	12068,(35, 81),51	12164,(5, 69),48	12212,(38, 81),51	12296,(5, 72),15	12356,(5, 78),24	12380,(9, 81),51	12431,(17, 81),51	12482,(12, 81),51	12533,(19, 81),51	12584,(39, 81),51	12635,(40, 81),51	12686,(41, 81),51	12737,(43, 81),51	12788,(44, 81),51	12839,(45, 81),51	12890,(47, 81),51	12941,(53, 81),51	12992,(56, 81),51	13043,(58, 81),51	13094,(59, 81),51	13145,(61, 81),51	13196,(62, 81),51	13247,(64, 81),51	13298,(67, 81),51	13349,(68, 81),51	13400,(70, 81),51	13451,(71, 81),51	13502,(74, 81),51	13553,(77, 81),51	
35,(2, 17),9	287,(7, 9),9	296,(7, 12),9	317,(4, 12),93	413,(4, 19),6	419,(7, 19),18	461,(6, 9),3	731,(6, 17),147	1199,(8, 12),51	3803,(8, 19),1197	
# Outgoing
287,(4, 10),30	317,(4, 12),93	410,(4, 18),3	413,(4, 19),6	419,(4, 21),12	431,(4, 48),9	440,(4, 66),6	446,(4, 69),15	461,(4, 11),12	473,(4, 15),3	476,(4, 37),6	482,(4, 51),99	581,(4, 57),450	1031,(4, 63),156	1187,(4, 72),3	1190,(4, 75),6	1196,(8, 10),3	1199,(8, 12),51	1250,(8, 14),12	1262,(8, 54),3	1265,(8, 60),45	1310,(8, 69),3	1313,(8, 72),3	1316,(8, 75),27	1343,(8, 78),81	1511,(4, 20),36	1547,(4, 47),9	1598,(4, 77),3	1601,(28, 81),51	1652,(42, 81),51	1865,(13, 81),51	2579,(4, 23),45	2624,(4, 27),15	2639,(4, 39),15	2654,(4, 41),45	2699,(4, 50),51	2750,(4, 53),57	2807,(4, 59),42	2903,(26, 81),51	2990,(8, 15),3	2993,(30, 81),51	3044,(4, 68),78	3122,(4, 71),567	3689,(4, 80),114	3803,(8, 19),1197	5000,(8, 21),360	5360,(8, 23),9	5369,(8, 25),3	5372,(8, 31),3	5375,(8, 35),9	5384,(8, 41),6	5390,(8, 45),96	5486,(8, 53),129	5615,(8, 56),12	5627,(8, 62),3	5630,(8, 68),21	5651,(8, 74),6	5657,(8, 77),3	5660,(49, 81),51	5711,(32, 81),51	5762,(46, 81),51	5813,(52, 81),51	5864,(55, 81),51	7565,(73, 81),51	7616,(76, 81),51	7667,(79, 81),51	8019,(16, 81),51	11214,(22, 81),51	11265,(24, 81),51	11367,(34, 81),51	11993,(36, 81),51	12212,(38, 81),51	12635,(40, 81),51	12788,(44, 81),51	13043,(58, 81),51	13145,(61, 81),51	13247,(64, 81),51	13298,(67, 81),51	13400,(70, 81),51	
62,(3, 13),18	80,(3, 16),3	83,(3, 24),9	92,(3, 36),3	95,(3, 18),3	98,(3, 21),42	140,(3, 48),3	143,(3, 54),3	146,(3, 57),15	161,(3, 60),84	245,(3, 69),18	263,(3, 72),24	287,(7, 9),9	296,(7, 12),9	317,(7, 63),3	320,(3, 42),3	323,(3, 44),3	326,(7, 10),12	338,(7, 14),21	359,(7, 18),18	377,(7, 21),9	386,(7, 51),12	398,(7, 60),6	404,(7, 72),3	419,(7, 19),18	731,(3, 22),21	752,(3, 34),9	761,(3, 46),45	806,(3, 52),3	809,(3, 55),3	812,(3, 58),3	815,(3, 70),33	848,(3, 73),36	1121,(7, 13),3	1124,(7, 24),21	1145,(7, 26),12	1157,(7, 30),90	1247,(7, 32),3	1250,(7, 36),42	1292,(7, 40),3	1295,(7, 44),21	1316,(7, 46),3	1319,(7, 49),9	1328,(7, 52),117	1445,(7, 57),36	1481,(7, 58),3	1484,(7, 76),6	1556,(7, 64),42	1649,(7, 55),87	1736,(7, 66),129	1865,(7, 70),156	3050,(7, 69),285	3335,(50, 81),51	3386,(29, 81),51	3437,(37, 81),51	3488,(15, 81),51	4545,(65, 81),51	5394,(23, 81),51	5445,(25, 81),51	5496,(31, 81),51	7718,(80, 81),51	7925,(11, 81),51	8070,(20, 81),51	11316,(27, 81),51	11418,(33, 81),51	12068,(35, 81),51	12584,(39, 81),51	12686,(41, 81),51	12737,(43, 81),51	12839,(45, 81),51	12890,(47, 81),51	12941,(53, 81),51	12992,(56, 81),51	13094,(59, 81),51	13196,(62, 81),51	13349,(68, 81),51	13451,(71, 81),51	13502,(74, 81),51	13553,(77, 81),51	
29,(2, 11),3	32,(2, 15),3	35,(2, 17),9	44,(2, 35),3	47,(2, 59),3	50,(2, 16),3	53,(2, 65),6	59,(2, 24),3	62,(2, 29),81	143,(2, 56),9	152,(2, 68),6	158,(2, 80),3	161,(2, 26),69	230,(2, 28),36	266,(2, 32),12	278,(2, 34),3	281,(2, 36),3	284,(2, 38),33	317,(2, 79),3	326,(2, 37),72	398,(2, 50),51	449,(2, 62),12	461,(6, 9),3	482,(2, 40),54	536,(2, 46),12	548,(2, 64),18	566,(2, 70),15	581,(2, 73),63	644,(2, 76),87	731,(6, 17),147	884,(6, 16),3	887,(6, 26),3	890,(6, 40),3	893,(6, 44),27	920,(6, 46),15	935,(6, 49),51	986,(6, 58),3	989,(6, 61),6	995,(6, 67),69	1064,(6, 70),6	1070,(6, 73),12	1082,(6, 76),6	1088,(6, 79),33	1646,(6, 11),3	1964,(2, 43),87	2051,(2, 45),117	2168,(2, 53),138	2306,(2, 77),273	2849,(6, 23),6	2855,(6, 25),3	2858,(6, 27),3	2861,(6, 29),18	2879,(6, 31),21	2900,(6, 45),3	2963,(6, 37),15	2978,(6, 56),3	2981,(6, 68),3	2987,(6, 71),3	3803,(6, 20),585	4388,(6, 33),27	4415,(6, 39),15	4430,(6, 41),54	4484,(6, 43),24	4508,(6, 65),12	
1,(0, 2),3	4,(0, 3),3	7,(0, 4),3	10,(0, 6),3	13,(0, 7),3	16,(0, 8),3	26,(1, 11),3	29,(1, 13),21	50,(1, 15),3	53,(1, 16),6	59,(1, 20),3	62,(1, 21),33	95,(1, 22),66	161,(1, 23),165	326,(1, 26),156	482,(1, 27),3	485,(1, 29),1026	1511,(1, 32),21	1532,(1, 34),21	1553,(1, 38),3	1556,(1, 39),36	1592,(1, 43),3	1595,(1, 45),3	1598,(1, 46),3	1601,(1, 47),30	1631,(1, 50),15	1646,(1, 52),3	1649,(1, 53),315	1964,(1, 54),696	2660,(1, 55),15	2675,(1, 57),228	2903,(1, 59),60	2963,(1, 60),9	2972,(1, 61),12	2984,(1, 62),3	2987,(1, 63),3	2990,(1, 64),3	2993,(1, 65),3	2996,(1, 68),39	3035,(1, 71),9	3044,(1, 72),6	3050,(1, 73),4479	7529,(1, 74),18	7547,(1, 75),18	7565,(1, 76),21	7586,(1, 77),12	7598,(1, 79),18	7616,(1, 80),42	7658,(5, 11),150	7808,(5, 14),117	7925,(5, 16),69	7994,(5, 20),3	7997,(5, 22),3192	11189,(5, 24),6	11195,(5, 27),36	11231,(5, 33),15	11246,(5, 34),3	11249,(5, 35),3	11252,(5, 36),9	11261,(5, 38),102	11363,(5, 39),3	11366,(5, 40),45	11411,(5, 41),3	11414,(5, 43),3	11417,(5, 44),33	11450,(5, 45),3	11453,(5, 47),18	11471,(5, 48),318	11789,(5, 51),183	11972,(5, 53),3	11975,(5, 54),18	11993,(5, 56),33	12026,(5, 58),3	12029,(5, 59),6	12035,(5, 61),3	12038,(5, 62),9	12047,(5, 63),21	12068,(5, 64),6	12074,(5, 67),66	12140,(5, 68),24	12164,(5, 69),48	12212,(5, 70),24	12236,(5, 71),60	12296,(5, 72),15	12311,(5, 74),27	12338,(5, 77),18	12356,(5, 78),24	12380,(9, 81),51	12431,(17, 81),51	12482,(12, 81),51	12533,(19, 81),51	
