480
# CPU
0,81,1	1,35,2	3,30,2	5,23,2	7,78,2	9,75,2	11,33,2	13,74,2	15,37,2	17,13,2	19,72,2	21,68,2	23,15,2	25,46,2	27,25,2	29,22,2	31,10,2	33,43,2	35,66,2	37,76,2	39,53,2	41,45,2	43,24,2	45,71,2	47,70,2	49,9,2	51,41,2	53,77,2	55,50,2	57,73,2	59,51,2	61,19,2	63,26,2	65,28,2	67,31,2	69,59,2	71,79,2	73,42,2	75,29,2	77,20,2	79,17,2	81,11,2	83,44,2	85,62,2	87,39,2	89,61,2	91,54,2	93,58,2	95,55,2	97,48,2	99,47,2	101,52,2	103,65,2	105,18,2	107,80,2	109,14,2	111,49,2	113,69,2	115,34,2	117,60,2	119,57,2	121,56,2	123,32,2	125,64,2	127,12,2	129,21,2	131,16,2	133,6,2	135,67,2	137,2,2	139,40,2	141,7,2	143,5,2	159,4,2	181,3,2	237,1,2	477,8,2	479,0,1	
35,63,2	69,36,2	103,27,2	137,38,2	
# Incoming
139,(38, 5),2	141,(36, 4),18	159,(63, 3),10	169,(36, 3),12	181,(27, 1),56	237,(38, 8),240	
1,(81, 63),34	35,(81, 36),34	69,(81, 27),34	103,(81, 38),34	
# Outgoing
1,(81, 63),34	35,(81, 36),34	69,(81, 27),34	103,(81, 38),34	
139,(38, 5),2	141,(36, 4),18	159,(63, 3),10	169,(36, 3),12	181,(27, 1),56	237,(38, 8),240	
