744
# CPU
0,0,1	1,8,9	10,7,9	19,17,9	28,70,9	37,73,9	46,79,9	55,1,9	64,54,9	73,4,9	82,13,9	91,19,9	100,6,9	109,30,9	118,61,9	127,45,9	136,20,9	145,36,9	154,55,9	163,2,9	172,26,9	181,50,9	190,64,9	199,14,9	208,39,9	217,28,9	226,5,9	235,32,9	244,80,9	253,43,9	262,23,9	271,57,9	280,21,9	289,63,9	298,12,9	307,18,9	316,46,9	325,22,9	334,48,9	343,3,9	352,78,9	361,29,9	370,60,9	379,10,9	388,9,9	397,16,9	406,74,9	415,66,9	424,58,9	433,33,9	442,77,9	451,72,9	460,27,9	469,59,9	478,44,9	487,71,9	496,49,9	505,65,9	514,34,9	523,62,9	532,75,9	541,47,9	550,53,9	559,38,9	743,81,1	
25,76,9	72,24,9	117,56,9	174,15,9	243,37,9	303,67,9	354,11,9	374,35,9	410,68,9	
182,52,9	358,51,9	
241,40,9	


360,41,9	

239,25,9	
237,31,9	356,42,9	366,69,9	
# Incoming
34,(76, 81),40	81,(24, 81),40	126,(56, 81),40	183,(15, 81),40	223,(52, 81),40	263,(31, 81),40	303,(25, 81),40	343,(40, 81),40	383,(37, 81),40	423,(67, 81),40	463,(11, 81),40	503,(42, 81),40	543,(51, 81),40	583,(41, 81),40	623,(69, 81),40	663,(35, 81),40	703,(68, 81),40	
19,(7, 76),6	25,(7, 24),28	53,(8, 56),2	57,(8, 67),2	64,(1, 24),8	74,(7, 67),6	82,(4, 15),20	104,(1, 11),4	109,(6, 56),8	117,(6, 15),2	169,(6, 67),2	172,(2, 15),2	186,(1, 37),26	212,(6, 37),8	241,(5, 37),2	243,(4, 67),16	259,(5, 67),44	337,(5, 35),10	352,(3, 11),2	366,(3, 35),8	374,(3, 68),36	
102,(4, 52),2	174,(2, 52),8	224,(1, 51),6	230,(6, 51),2	303,(2, 51),8	356,(3, 51),2	
55,(7, 40),2	145,(4, 40),22	167,(6, 40),2	239,(5, 40),2	


311,(7, 41),18	329,(1, 41),8	358,(3, 41),2	

72,(1, 25),2	125,(6, 25),20	237,(5, 25),2	
119,(4, 31),6	182,(2, 31),4	220,(4, 42),4	235,(5, 31),2	354,(3, 42),2	360,(3, 69),6	
# Outgoing
19,(7, 76),6	25,(7, 24),28	53,(8, 56),2	55,(7, 40),2	57,(8, 67),2	64,(1, 24),8	72,(1, 25),2	74,(7, 67),6	82,(4, 15),20	102,(4, 52),2	104,(1, 11),4	109,(6, 56),8	117,(6, 15),2	119,(4, 31),6	125,(6, 25),20	145,(4, 40),22	167,(6, 40),2	169,(6, 67),2	172,(2, 15),2	174,(2, 52),8	182,(2, 31),4	186,(1, 37),26	212,(6, 37),8	220,(4, 42),4	224,(1, 51),6	230,(6, 51),2	235,(5, 31),2	237,(5, 25),2	239,(5, 40),2	241,(5, 37),2	243,(4, 67),16	259,(5, 67),44	303,(2, 51),8	311,(7, 41),18	329,(1, 41),8	337,(5, 35),10	352,(3, 11),2	354,(3, 42),2	356,(3, 51),2	358,(3, 41),2	360,(3, 69),6	366,(3, 35),8	374,(3, 68),36	
34,(76, 81),40	81,(24, 81),40	126,(56, 81),40	183,(15, 81),40	383,(37, 81),40	423,(67, 81),40	463,(11, 81),40	663,(35, 81),40	703,(68, 81),40	
223,(52, 81),40	543,(51, 81),40	
343,(40, 81),40	


583,(41, 81),40	

303,(25, 81),40	
263,(31, 81),40	503,(42, 81),40	623,(69, 81),40	
