1526
# CPU
91,10,28	183,26,28	216,90,28	304,110,28	516,120,28	679,100,28	811,30,28	839,40,28	867,50,28	895,70,28	1175,60,28	1213,80,28	
81,9,28	323,24,28	351,49,28	379,59,28	407,79,28	439,69,28	757,109,28	801,29,28	829,39,28	857,89,28	1227,99,28	1486,119,28	
71,8,28	128,21,28	156,28,28	454,108,28	615,38,28	643,48,28	744,78,28	772,88,28	800,98,28	830,58,28	858,68,28	1482,118,28	
61,7,28	89,37,28	125,20,28	358,67,28	389,57,28	747,87,28	778,117,28	831,77,28	859,47,28	1041,27,28	1224,97,28	1439,107,28	
51,6,28	79,36,28	152,46,28	180,56,28	208,66,28	236,86,28	264,18,28	720,76,28	751,96,28	779,106,28	807,116,28	835,25,28	
41,5,28	148,17,28	176,55,28	444,45,28	633,75,28	661,35,28	713,65,28	865,23,28	1214,85,28	1242,95,28	1437,105,28	1476,115,28	
31,4,28	114,16,28	176,44,28	262,94,28	372,104,28	481,114,28	610,34,28	638,84,28	687,64,28	792,22,28	847,54,28	875,74,28	
21,3,28	108,14,28	136,53,28	164,33,28	226,83,28	372,63,28	461,113,28	616,43,28	672,93,28	788,19,28	851,73,28	1436,103,28	
11,2,28	101,12,28	129,15,28	157,52,28	185,72,28	213,42,28	241,62,28	441,102,28	529,32,28	746,82,28	774,92,28	802,112,28	
0,0,1	1,1,28	29,11,28	57,81,28	242,31,28	305,91,28	448,71,28	781,13,28	828,51,28	856,61,28	884,111,28	1131,41,28	1431,101,28	1525,121,1	
# Incoming
81,(0, 10),10	91,(2, 30),2	93,(2, 40),43	136,(2, 50),2	138,(3, 120),1	139,(4, 30),1	140,(4, 100),1	141,(1, 40),5	146,(3, 26),6	152,(4, 40),5	157,(4, 70),14	171,(5, 90),11	182,(7, 26),1	183,(7, 80),3	186,(7, 110),2	188,(7, 120),1	189,(8, 90),1	190,(8, 110),1	191,(9, 40),1	192,(5, 110),1	193,(7, 50),13	206,(2, 60),4	210,(9, 50),2	212,(9, 80),1	213,(9, 90),3	216,(9, 100),1	219,(6, 120),17	246,(8, 50),7	253,(8, 60),5	258,(9, 110),46	310,(7, 40),19	373,(8, 100),14	403,(1, 80),13	416,(8, 120),100	527,(11, 30),1	643,(11, 60),22	676,(2, 100),3	687,(11, 70),8	744,(11, 80),1	801,(12, 30),10	816,(12, 40),1	817,(12, 50),1	849,(12, 70),1	1131,(12, 60),44	1175,(12, 80),38	
71,(0, 9),10	81,(2, 29),5	86,(5, 24),4	90,(2, 119),1	91,(4, 24),7	98,(5, 29),2	100,(6, 109),2	102,(7, 29),2	104,(3, 39),1	105,(3, 49),7	112,(3, 79),1	113,(5, 69),1	114,(5, 109),1	115,(8, 89),1	118,(7, 109),1	119,(4, 69),14	133,(4, 109),2	135,(10, 89),1	136,(7, 89),3	139,(10, 29),2	141,(4, 119),1	142,(5, 59),10	152,(1, 49),12	164,(8, 24),5	169,(8, 69),9	178,(10, 69),4	182,(5, 99),10	193,(2, 59),13	206,(6, 79),13	219,(7, 24),26	245,(7, 39),65	310,(10, 24),13	323,(10, 49),20	343,(10, 59),6	372,(7, 99),9	396,(8, 119),3	402,(1, 79),1	420,(2, 69),19	454,(1, 109),1	637,(2, 89),24	695,(2, 109),62	764,(11, 119),5	800,(12, 29),1	811,(12, 39),5	855,(12, 89),1	1224,(12, 99),3	1482,(12, 119),4	
61,(0, 8),10	71,(3, 28),1	72,(3, 68),8	80,(2, 68),1	81,(3, 21),23	104,(4, 21),6	110,(5, 28),1	111,(6, 28),3	114,(3, 108),1	115,(5, 38),7	122,(6, 48),1	123,(6, 88),1	124,(1, 28),1	125,(7, 21),3	128,(9, 48),1	134,(9, 68),1	136,(4, 118),3	139,(7, 28),8	147,(10, 58),3	167,(6, 58),4	197,(10, 118),6	369,(1, 78),33	436,(1, 98),1	441,(1, 108),13	496,(1, 118),23	610,(11, 38),5	616,(11, 48),8	624,(11, 58),4	628,(11, 68),4	672,(2, 98),4	720,(11, 78),24	747,(11, 88),1	752,(11, 98),1	828,(12, 58),2	847,(12, 68),2	1476,(12, 118),6	
51,(0, 7),10	61,(2, 20),10	82,(5, 20),3	90,(4, 57),1	91,(6, 57),4	100,(5, 47),6	106,(6, 117),1	111,(5, 67),1	112,(8, 47),1	114,(8, 87),1	116,(8, 97),1	117,(8, 107),1	119,(1, 20),5	124,(10, 20),1	127,(9, 97),1	137,(9, 107),1	141,(10, 47),6	152,(3, 87),28	188,(1, 67),170	358,(5, 97),7	365,(6, 97),9	374,(10, 57),15	407,(10, 97),4	411,(10, 117),8	746,(11, 87),1	751,(11, 97),1	760,(2, 117),18	778,(11, 77),53	831,(12, 47),3	865,(12, 27),176	1215,(12, 97),9	1437,(12, 107),2	
41,(0, 6),10	69,(3, 76),2	72,(2, 46),2	79,(2, 56),1	80,(3, 86),1	85,(5, 56),1	86,(2, 66),3	91,(7, 18),2	93,(5, 46),3	98,(4, 56),3	101,(7, 25),1	102,(8, 46),2	110,(1, 18),1	113,(8, 56),1	114,(9, 18),6	121,(9, 25),1	124,(5, 116),1	125,(10, 46),1	129,(9, 56),5	135,(4, 116),1	151,(1, 46),1	164,(1, 56),1	168,(7, 66),11	186,(1, 66),2	206,(7, 86),7	213,(8, 18),33	246,(10, 96),20	358,(1, 76),11	421,(1, 96),15	481,(1, 116),15	522,(11, 25),5	716,(11, 76),4	749,(11, 96),2	757,(2, 116),3	760,(11, 106),1	763,(11, 116),1	792,(12, 25),8	
31,(0, 5),10	62,(3, 35),4	67,(3, 65),1	68,(4, 17),6	74,(4, 35),10	84,(4, 45),6	95,(6, 75),4	100,(8, 45),1	102,(4, 105),2	107,(7, 65),1	108,(1, 17),2	114,(6, 65),8	126,(9, 75),1	128,(7, 23),8	138,(1, 35),3	141,(8, 17),7	148,(1, 45),3	156,(7, 35),5	161,(7, 55),7	171,(10, 95),5	176,(2, 45),17	193,(8, 85),7	200,(9, 35),9	210,(2, 65),210	420,(4, 75),14	434,(10, 45),10	448,(2, 75),185	633,(11, 35),10	643,(9, 85),17	679,(2, 105),16	695,(11, 65),18	762,(11, 115),1	763,(4, 23),94	857,(12, 23),8	1213,(12, 85),1	1214,(12, 95),1	1436,(12, 105),1	1439,(12, 115),37	
21,(0, 4),10	49,(3, 16),5	55,(3, 34),7	66,(3, 44),1	74,(2, 54),5	95,(7, 22),6	106,(5, 54),3	109,(5, 64),1	110,(7, 74),2	112,(7, 94),1	113,(9, 16),1	115,(3, 114),3	125,(8, 114),3	128,(10, 22),5	133,(10, 34),1	135,(9, 84),2	137,(1, 34),1	138,(2, 44),38	178,(1, 64),8	186,(3, 84),49	235,(5, 74),7	242,(5, 94),20	262,(6, 54),33	295,(6, 64),36	331,(7, 54),13	344,(9, 54),9	353,(9, 74),9	362,(9, 104),10	389,(10, 74),18	416,(1, 84),1	461,(1, 114),20	529,(11, 34),81	632,(11, 74),1	633,(2, 84),4	665,(11, 64),22	788,(12, 22),4	834,(12, 54),13	851,(12, 74),4	
11,(0, 3),10	41,(2, 14),4	45,(2, 33),16	71,(2, 43),1	86,(6, 53),2	89,(6, 103),1	90,(5, 43),3	93,(7, 19),2	96,(5, 53),2	99,(6, 113),1	101,(1, 14),7	108,(7, 53),1	111,(1, 19),8	119,(8, 63),1	120,(9, 19),1	122,(9, 53),4	126,(1, 33),11	137,(10, 33),1	146,(1, 43),2	148,(7, 33),8	156,(8, 19),8	165,(10, 83),2	167,(10, 93),4	171,(6, 63),4	176,(1, 63),2	178,(8, 103),3	182,(10, 73),12	213,(4, 83),13	226,(4, 103),17	243,(4, 113),15	344,(7, 63),28	417,(1, 93),4	455,(1, 113),6	519,(11, 19),3	615,(11, 43),1	661,(2, 93),11	713,(11, 73),3	753,(11, 103),7	781,(12, 19),7	850,(12, 73),1	1431,(12, 103),5	
1,(0, 2),10	59,(4, 15),4	63,(4, 42),3	79,(5, 15),3	82,(6, 15),2	84,(6, 42),2	88,(6, 102),1	91,(0, 12),10	101,(4, 92),1	102,(6, 112),2	104,(8, 15),6	110,(8, 32),2	112,(5, 92),1	113,(3, 102),1	114,(7, 62),4	120,(8, 82),5	125,(1, 32),1	126,(5, 62),11	137,(8, 102),3	140,(9, 42),13	153,(9, 82),1	154,(10, 42),2	156,(10, 62),9	165,(1, 62),11	194,(10, 82),3	305,(8, 92),68	437,(1, 102),4	528,(11, 32),1	745,(11, 82),1	748,(11, 92),1	761,(11, 112),1	
39,(2, 13),2	54,(3, 31),1	66,(4, 91),2	68,(3, 71),1	69,(5, 13),10	89,(2, 111),1	90,(7, 13),1	99,(8, 13),1	104,(7, 31),2	106,(7, 41),1	107,(36, 121),3	110,(4, 61),9	119,(7, 101),2	122,(5, 111),2	124,(6, 41),43	167,(9, 91),1	171,(4, 71),42	213,(7, 61),6	219,(9, 51),5	224,(9, 101),11	235,(10, 31),7	242,(14, 121),3	245,(53, 121),3	248,(46, 121),3	251,(33, 121),3	254,(56, 121),3	258,(8, 91),47	305,(16, 121),3	308,(17, 121),3	311,(44, 121),3	314,(55, 121),3	317,(83, 121),3	320,(94, 121),3	331,(66, 121),3	334,(86, 121),3	337,(18, 121),3	349,(26, 121),3	352,(90, 121),3	355,(110, 121),3	372,(24, 121),3	381,(37, 121),3	384,(20, 121),3	387,(8, 101),9	396,(49, 121),3	399,(21, 121),3	402,(28, 121),3	405,(67, 121),3	408,(63, 121),3	411,(104, 121),3	414,(59, 121),3	417,(57, 121),3	435,(79, 121),3	439,(2, 71),9	448,(10, 41),75	523,(69, 121),3	526,(45, 121),3	529,(108, 121),3	532,(113, 121),3	535,(114, 121),3	544,(120, 121),3	638,(34, 121),3	643,(38, 121),3	646,(43, 121),3	661,(75, 121),3	666,(84, 121),3	671,(48, 121),3	689,(35, 121),3	700,(93, 121),3	707,(100, 121),3	715,(64, 121),3	741,(65, 121),3	748,(76, 121),3	772,(78, 121),3	775,(87, 121),3	778,(12, 13),3	781,(96, 121),3	785,(109, 121),3	800,(88, 121),3	806,(117, 121),3	809,(106, 121),3	818,(12, 51),10	830,(12, 61),1	831,(19, 121),3	834,(98, 121),3	837,(29, 121),3	840,(116, 121),3	843,(30, 121),3	856,(12, 111),1	857,(22, 121),3	860,(39, 121),3	863,(58, 121),3	866,(77, 121),3	869,(25, 121),3	872,(40, 121),3	875,(54, 121),3	879,(73, 121),3	885,(89, 121),3	888,(68, 121),3	891,(47, 121),3	894,(23, 121),3	897,(50, 121),3	903,(74, 121),3	923,(70, 121),3	1041,(12, 41),90	1131,(27, 121),3	1203,(60, 121),3	1227,(12, 101),204	1431,(80, 121),3	1434,(85, 121),3	1437,(97, 121),3	1440,(99, 121),3	1443,(95, 121),3	1464,(103, 121),3	1467,(105, 121),3	1470,(107, 121),3	1486,(15, 121),3	1489,(52, 121),3	1492,(72, 121),3	1495,(42, 121),3	1498,(62, 121),3	1501,(102, 121),3	1504,(32, 121),3	1507,(82, 121),3	1510,(92, 121),3	1513,(112, 121),3	1516,(115, 121),3	1519,(118, 121),3	1522,(119, 121),3	
# Outgoing
124,(10, 20),1	125,(10, 46),1	128,(10, 22),5	133,(10, 34),1	135,(10, 89),1	137,(10, 33),1	139,(10, 29),2	141,(10, 47),6	147,(10, 58),3	154,(10, 42),2	156,(10, 62),9	165,(10, 83),2	167,(10, 93),4	171,(10, 95),5	178,(10, 69),4	182,(10, 73),12	194,(10, 82),3	197,(10, 118),6	235,(10, 31),7	246,(10, 96),20	310,(10, 24),13	323,(10, 49),20	343,(10, 59),6	349,(26, 121),3	352,(90, 121),3	355,(110, 121),3	374,(10, 57),15	389,(10, 74),18	407,(10, 97),4	411,(10, 117),8	434,(10, 45),10	448,(10, 41),75	544,(120, 121),3	707,(100, 121),3	843,(30, 121),3	872,(40, 121),3	897,(50, 121),3	923,(70, 121),3	1203,(60, 121),3	1431,(80, 121),3	
113,(9, 16),1	114,(9, 18),6	120,(9, 19),1	121,(9, 25),1	122,(9, 53),4	126,(9, 75),1	127,(9, 97),1	128,(9, 48),1	129,(9, 56),5	134,(9, 68),1	135,(9, 84),2	137,(9, 107),1	140,(9, 42),13	153,(9, 82),1	167,(9, 91),1	191,(9, 40),1	200,(9, 35),9	210,(9, 50),2	212,(9, 80),1	213,(9, 90),3	216,(9, 100),1	219,(9, 51),5	224,(9, 101),11	258,(9, 110),46	344,(9, 54),9	353,(9, 74),9	362,(9, 104),10	372,(24, 121),3	396,(49, 121),3	414,(59, 121),3	435,(79, 121),3	523,(69, 121),3	643,(9, 85),17	785,(109, 121),3	837,(29, 121),3	860,(39, 121),3	885,(89, 121),3	1440,(99, 121),3	1522,(119, 121),3	
99,(8, 13),1	100,(8, 45),1	102,(8, 46),2	104,(8, 15),6	110,(8, 32),2	112,(8, 47),1	113,(8, 56),1	114,(8, 87),1	115,(8, 89),1	116,(8, 97),1	117,(8, 107),1	119,(8, 63),1	120,(8, 82),5	125,(8, 114),3	137,(8, 102),3	141,(8, 17),7	156,(8, 19),8	164,(8, 24),5	169,(8, 69),9	178,(8, 103),3	189,(8, 90),1	190,(8, 110),1	193,(8, 85),7	213,(8, 18),33	246,(8, 50),7	253,(8, 60),5	258,(8, 91),47	305,(8, 92),68	373,(8, 100),14	387,(8, 101),9	396,(8, 119),3	399,(21, 121),3	402,(28, 121),3	416,(8, 120),100	529,(108, 121),3	643,(38, 121),3	671,(48, 121),3	772,(78, 121),3	800,(88, 121),3	834,(98, 121),3	863,(58, 121),3	888,(68, 121),3	1519,(118, 121),3	
90,(7, 13),1	91,(7, 18),2	93,(7, 19),2	95,(7, 22),6	101,(7, 25),1	102,(7, 29),2	104,(7, 31),2	106,(7, 41),1	107,(7, 65),1	108,(7, 53),1	110,(7, 74),2	112,(7, 94),1	114,(7, 62),4	118,(7, 109),1	119,(7, 101),2	125,(7, 21),3	128,(7, 23),8	136,(7, 89),3	139,(7, 28),8	148,(7, 33),8	156,(7, 35),5	161,(7, 55),7	168,(7, 66),11	182,(7, 26),1	183,(7, 80),3	186,(7, 110),2	188,(7, 120),1	193,(7, 50),13	206,(7, 86),7	213,(7, 61),6	219,(7, 24),26	245,(7, 39),65	310,(7, 40),19	331,(7, 54),13	344,(7, 63),28	372,(7, 99),9	381,(37, 121),3	384,(20, 121),3	405,(67, 121),3	417,(57, 121),3	775,(87, 121),3	806,(117, 121),3	866,(77, 121),3	891,(47, 121),3	1131,(27, 121),3	1437,(97, 121),3	1470,(107, 121),3	
82,(6, 15),2	84,(6, 42),2	86,(6, 53),2	88,(6, 102),1	89,(6, 103),1	91,(6, 57),4	95,(6, 75),4	99,(6, 113),1	100,(6, 109),2	102,(6, 112),2	106,(6, 117),1	107,(36, 121),3	111,(6, 28),3	114,(6, 65),8	122,(6, 48),1	123,(6, 88),1	124,(6, 41),43	167,(6, 58),4	171,(6, 63),4	206,(6, 79),13	219,(6, 120),17	248,(46, 121),3	254,(56, 121),3	262,(6, 54),33	295,(6, 64),36	331,(66, 121),3	334,(86, 121),3	337,(18, 121),3	365,(6, 97),9	748,(76, 121),3	781,(96, 121),3	809,(106, 121),3	840,(116, 121),3	869,(25, 121),3	
69,(5, 13),10	79,(5, 15),3	82,(5, 20),3	85,(5, 56),1	86,(5, 24),4	90,(5, 43),3	93,(5, 46),3	96,(5, 53),2	98,(5, 29),2	100,(5, 47),6	106,(5, 54),3	109,(5, 64),1	110,(5, 28),1	111,(5, 67),1	112,(5, 92),1	113,(5, 69),1	114,(5, 109),1	115,(5, 38),7	122,(5, 111),2	124,(5, 116),1	126,(5, 62),11	142,(5, 59),10	171,(5, 90),11	182,(5, 99),10	192,(5, 110),1	235,(5, 74),7	242,(5, 94),20	308,(17, 121),3	314,(55, 121),3	358,(5, 97),7	526,(45, 121),3	661,(75, 121),3	689,(35, 121),3	741,(65, 121),3	894,(23, 121),3	1434,(85, 121),3	1443,(95, 121),3	1467,(105, 121),3	1516,(115, 121),3	
59,(4, 15),4	63,(4, 42),3	66,(4, 91),2	68,(4, 17),6	74,(4, 35),10	84,(4, 45),6	90,(4, 57),1	91,(4, 24),7	98,(4, 56),3	101,(4, 92),1	102,(4, 105),2	104,(4, 21),6	110,(4, 61),9	119,(4, 69),14	133,(4, 109),2	135,(4, 116),1	136,(4, 118),3	139,(4, 30),1	140,(4, 100),1	141,(4, 119),1	152,(4, 40),5	157,(4, 70),14	171,(4, 71),42	213,(4, 83),13	226,(4, 103),17	243,(4, 113),15	305,(16, 121),3	311,(44, 121),3	320,(94, 121),3	411,(104, 121),3	420,(4, 75),14	535,(114, 121),3	638,(34, 121),3	666,(84, 121),3	715,(64, 121),3	763,(4, 23),94	857,(22, 121),3	875,(54, 121),3	903,(74, 121),3	
49,(3, 16),5	54,(3, 31),1	55,(3, 34),7	62,(3, 35),4	66,(3, 44),1	67,(3, 65),1	68,(3, 71),1	69,(3, 76),2	71,(3, 28),1	72,(3, 68),8	80,(3, 86),1	81,(3, 21),23	104,(3, 39),1	105,(3, 49),7	112,(3, 79),1	113,(3, 102),1	114,(3, 108),1	115,(3, 114),3	138,(3, 120),1	146,(3, 26),6	152,(3, 87),28	186,(3, 84),49	242,(14, 121),3	245,(53, 121),3	251,(33, 121),3	317,(83, 121),3	408,(63, 121),3	532,(113, 121),3	646,(43, 121),3	700,(93, 121),3	831,(19, 121),3	879,(73, 121),3	1464,(103, 121),3	
39,(2, 13),2	41,(2, 14),4	45,(2, 33),16	61,(2, 20),10	71,(2, 43),1	72,(2, 46),2	74,(2, 54),5	79,(2, 56),1	80,(2, 68),1	81,(2, 29),5	86,(2, 66),3	89,(2, 111),1	90,(2, 119),1	91,(2, 30),2	93,(2, 40),43	136,(2, 50),2	138,(2, 44),38	176,(2, 45),17	193,(2, 59),13	206,(2, 60),4	210,(2, 65),210	420,(2, 69),19	439,(2, 71),9	448,(2, 75),185	633,(2, 84),4	637,(2, 89),24	661,(2, 93),11	672,(2, 98),4	676,(2, 100),3	679,(2, 105),16	695,(2, 109),62	757,(2, 116),3	760,(2, 117),18	778,(12, 13),3	781,(12, 19),7	788,(12, 22),4	792,(12, 25),8	800,(12, 29),1	801,(12, 30),10	811,(12, 39),5	816,(12, 40),1	817,(12, 50),1	818,(12, 51),10	828,(12, 58),2	830,(12, 61),1	831,(12, 47),3	834,(12, 54),13	847,(12, 68),2	849,(12, 70),1	850,(12, 73),1	851,(12, 74),4	855,(12, 89),1	856,(12, 111),1	857,(12, 23),8	865,(12, 27),176	1041,(12, 41),90	1131,(12, 60),44	1175,(12, 80),38	1213,(12, 85),1	1214,(12, 95),1	1215,(12, 97),9	1224,(12, 99),3	1227,(12, 101),204	1431,(12, 103),5	1436,(12, 105),1	1437,(12, 107),2	1439,(12, 115),37	1476,(12, 118),6	1482,(12, 119),4	1486,(15, 121),3	1489,(52, 121),3	1492,(72, 121),3	1495,(42, 121),3	1498,(62, 121),3	1501,(102, 121),3	1504,(32, 121),3	1507,(82, 121),3	1510,(92, 121),3	1513,(112, 121),3	
1,(0, 2),10	11,(0, 3),10	21,(0, 4),10	31,(0, 5),10	41,(0, 6),10	51,(0, 7),10	61,(0, 8),10	71,(0, 9),10	81,(0, 10),10	91,(0, 12),10	101,(1, 14),7	108,(1, 17),2	110,(1, 18),1	111,(1, 19),8	119,(1, 20),5	124,(1, 28),1	125,(1, 32),1	126,(1, 33),11	137,(1, 34),1	138,(1, 35),3	141,(1, 40),5	146,(1, 43),2	148,(1, 45),3	151,(1, 46),1	152,(1, 49),12	164,(1, 56),1	165,(1, 62),11	176,(1, 63),2	178,(1, 64),8	186,(1, 66),2	188,(1, 67),170	358,(1, 76),11	369,(1, 78),33	402,(1, 79),1	403,(1, 80),13	416,(1, 84),1	417,(1, 93),4	421,(1, 96),15	436,(1, 98),1	437,(1, 102),4	441,(1, 108),13	454,(1, 109),1	455,(1, 113),6	461,(1, 114),20	481,(1, 116),15	496,(1, 118),23	519,(11, 19),3	522,(11, 25),5	527,(11, 30),1	528,(11, 32),1	529,(11, 34),81	610,(11, 38),5	615,(11, 43),1	616,(11, 48),8	624,(11, 58),4	628,(11, 68),4	632,(11, 74),1	633,(11, 35),10	643,(11, 60),22	665,(11, 64),22	687,(11, 70),8	695,(11, 65),18	713,(11, 73),3	716,(11, 76),4	720,(11, 78),24	744,(11, 80),1	745,(11, 82),1	746,(11, 87),1	747,(11, 88),1	748,(11, 92),1	749,(11, 96),2	751,(11, 97),1	752,(11, 98),1	753,(11, 103),7	760,(11, 106),1	761,(11, 112),1	762,(11, 115),1	763,(11, 116),1	764,(11, 119),5	778,(11, 77),53	
