1165
# CPU
62,38,24	86,18,24	110,78,24	134,48,24	158,28,24	687,58,24	723,68,24	
327,37,24	351,17,24	375,67,24	399,27,24	423,77,24	671,47,24	695,57,24	
50,8,24	74,36,24	98,66,24	122,26,24	146,46,24	170,16,24	194,56,24	218,76,24	
43,7,24	67,35,24	91,15,24	115,55,24	139,65,24	163,45,24	187,75,24	544,25,24	
36,6,24	60,14,24	84,34,24	108,44,24	132,64,24	330,24,24	727,74,24	827,54,24	
29,5,24	53,23,24	92,53,24	150,63,24	322,13,24	346,33,24	670,43,24	726,73,24	
22,4,24	46,12,24	70,72,24	94,32,24	118,22,24	142,42,24	166,62,24	681,52,24	
15,3,24	39,11,24	63,31,24	87,21,24	111,61,24	135,51,24	794,41,24	831,71,24	
8,2,24	61,10,24	85,70,24	109,60,24	133,40,24	160,50,24	792,20,24	816,30,24	840,80,24	
0,0,1	1,1,24	25,9,24	49,69,24	699,59,24	730,39,24	754,79,24	778,29,24	802,49,24	826,19,24	1164,81,1	
# Incoming
61,(1, 38),1	62,(2, 18),9	71,(4, 78),3	77,(2, 48),1	78,(4, 28),9	682,(3, 58),5	699,(3, 68),24	
322,(3, 17),1	323,(5, 37),4	327,(6, 17),2	329,(6, 27),6	335,(6, 67),1	336,(6, 77),46	382,(7, 27),7	389,(7, 57),6	395,(7, 77),1	670,(3, 47),1	681,(3, 57),1	
43,(0, 8),7	54,(5, 36),3	69,(5, 66),2	71,(2, 26),2	76,(2, 46),1	77,(7, 16),5	96,(7, 56),3	104,(1, 76),12	128,(6, 76),25	
36,(0, 7),7	53,(5, 15),1	58,(1, 35),3	61,(5, 55),7	68,(5, 65),1	69,(6, 45),7	76,(6, 75),5	330,(3, 25),214	
29,(0, 6),7	50,(1, 14),6	57,(1, 34),1	62,(1, 44),1	64,(4, 74),5	95,(1, 64),8	323,(3, 24),7	726,(3, 74),1	794,(8, 54),33	
22,(0, 5),7	63,(1, 53),27	90,(6, 53),2	92,(2, 63),58	150,(3, 13),172	322,(7, 33),3	544,(3, 43),126	723,(3, 73),3	
15,(0, 4),7	56,(1, 32),1	57,(5, 22),3	67,(6, 62),1	73,(2, 42),3	78,(2, 62),14	671,(3, 52),10	
8,(0, 3),7	46,(4, 21),18	66,(6, 61),1	82,(7, 51),14	103,(1, 71),1	104,(7, 71),6	793,(8, 41),1	827,(8, 71),4	
1,(0, 2),7	60,(6, 10),1	61,(6, 20),5	71,(5, 70),4	90,(1, 60),5	95,(6, 40),33	128,(7, 50),32	791,(8, 20),1	792,(8, 30),1	831,(8, 80),3	
687,(3, 59),12	699,(4, 39),31	730,(4, 79),11	741,(6, 29),1	742,(6, 49),13	755,(11, 81),6	761,(12, 81),6	767,(8, 19),24	791,(23, 81),6	797,(14, 81),6	803,(10, 81),6	809,(38, 81),6	815,(31, 81),6	821,(35, 81),6	827,(72, 81),6	834,(36, 81),6	840,(34, 81),6	846,(70, 81),6	852,(18, 81),6	858,(21, 81),6	864,(15, 81),6	870,(53, 81),6	876,(32, 81),6	882,(66, 81),6	888,(44, 81),6	894,(60, 81),6	900,(78, 81),6	906,(61, 81),6	912,(55, 81),6	918,(22, 81),6	924,(26, 81),6	930,(64, 81),6	936,(40, 81),6	942,(48, 81),6	948,(51, 81),6	954,(65, 81),6	960,(42, 81),6	966,(46, 81),6	972,(63, 81),6	978,(28, 81),6	984,(50, 81),6	990,(45, 81),6	996,(62, 81),6	1002,(16, 81),6	1008,(75, 81),6	1014,(56, 81),6	1020,(76, 81),6	1026,(13, 81),6	1032,(37, 81),6	1038,(24, 81),6	1044,(33, 81),6	1050,(17, 81),6	1056,(67, 81),6	1062,(27, 81),6	1068,(77, 81),6	1074,(25, 81),6	1080,(43, 81),6	1086,(47, 81),6	1092,(52, 81),6	1098,(58, 81),6	1104,(57, 81),6	1110,(68, 81),6	1116,(73, 81),6	1122,(74, 81),6	1128,(20, 81),6	1134,(41, 81),6	1140,(30, 81),6	1146,(54, 81),6	1152,(71, 81),6	1158,(80, 81),6	
# Outgoing
809,(38, 81),6	852,(18, 81),6	900,(78, 81),6	942,(48, 81),6	978,(28, 81),6	1098,(58, 81),6	1110,(68, 81),6	
1032,(37, 81),6	1050,(17, 81),6	1056,(67, 81),6	1062,(27, 81),6	1068,(77, 81),6	1086,(47, 81),6	1104,(57, 81),6	
767,(8, 19),24	791,(8, 20),1	792,(8, 30),1	793,(8, 41),1	794,(8, 54),33	827,(8, 71),4	831,(8, 80),3	834,(36, 81),6	882,(66, 81),6	924,(26, 81),6	966,(46, 81),6	1002,(16, 81),6	1014,(56, 81),6	1020,(76, 81),6	
77,(7, 16),5	82,(7, 51),14	96,(7, 56),3	104,(7, 71),6	128,(7, 50),32	322,(7, 33),3	382,(7, 27),7	389,(7, 57),6	395,(7, 77),1	821,(35, 81),6	864,(15, 81),6	912,(55, 81),6	954,(65, 81),6	990,(45, 81),6	1008,(75, 81),6	1074,(25, 81),6	
60,(6, 10),1	61,(6, 20),5	66,(6, 61),1	67,(6, 62),1	69,(6, 45),7	76,(6, 75),5	90,(6, 53),2	95,(6, 40),33	128,(6, 76),25	327,(6, 17),2	329,(6, 27),6	335,(6, 67),1	336,(6, 77),46	741,(6, 29),1	742,(6, 49),13	797,(14, 81),6	840,(34, 81),6	888,(44, 81),6	930,(64, 81),6	1038,(24, 81),6	1122,(74, 81),6	1146,(54, 81),6	
53,(5, 15),1	54,(5, 36),3	57,(5, 22),3	61,(5, 55),7	68,(5, 65),1	69,(5, 66),2	71,(5, 70),4	323,(5, 37),4	791,(23, 81),6	870,(53, 81),6	972,(63, 81),6	1026,(13, 81),6	1044,(33, 81),6	1080,(43, 81),6	1116,(73, 81),6	
46,(4, 21),18	64,(4, 74),5	71,(4, 78),3	78,(4, 28),9	699,(4, 39),31	730,(4, 79),11	761,(12, 81),6	827,(72, 81),6	876,(32, 81),6	918,(22, 81),6	960,(42, 81),6	996,(62, 81),6	1092,(52, 81),6	
150,(3, 13),172	322,(3, 17),1	323,(3, 24),7	330,(3, 25),214	544,(3, 43),126	670,(3, 47),1	671,(3, 52),10	681,(3, 57),1	682,(3, 58),5	687,(3, 59),12	699,(3, 68),24	723,(3, 73),3	726,(3, 74),1	755,(11, 81),6	815,(31, 81),6	858,(21, 81),6	906,(61, 81),6	948,(51, 81),6	1134,(41, 81),6	1152,(71, 81),6	
62,(2, 18),9	71,(2, 26),2	73,(2, 42),3	76,(2, 46),1	77,(2, 48),1	78,(2, 62),14	92,(2, 63),58	803,(10, 81),6	846,(70, 81),6	894,(60, 81),6	936,(40, 81),6	984,(50, 81),6	1128,(20, 81),6	1140,(30, 81),6	1158,(80, 81),6	
1,(0, 2),7	8,(0, 3),7	15,(0, 4),7	22,(0, 5),7	29,(0, 6),7	36,(0, 7),7	43,(0, 8),7	50,(1, 14),6	56,(1, 32),1	57,(1, 34),1	58,(1, 35),3	61,(1, 38),1	62,(1, 44),1	63,(1, 53),27	90,(1, 60),5	95,(1, 64),8	103,(1, 71),1	104,(1, 76),12	
