387
# CPU
101,12,1	
93,11,1	
102,10,1	374,20,1	
73,9,1	206,19,1	
86,8,1	194,18,1	
69,7,1	205,17,1	
45,6,1	185,16,1	
41,5,1	190,15,1	
9,2,1	13,4,1	105,14,1	
0,0,1	1,1,1	22,3,1	138,13,1	386,21,1	
# Incoming
93,(1, 12),8	
73,(1, 11),20	
86,(2, 10),16	206,(2, 20),168	
69,(1, 9),4	194,(2, 19),12	
22,(2, 8),64	190,(2, 18),4	
45,(1, 7),24	185,(1, 17),20	
41,(1, 6),4	105,(1, 16),80	
13,(1, 5),28	138,(2, 15),52	
1,(0, 2),8	9,(1, 4),4	101,(1, 14),4	
10,(2, 3),12	42,(5, 21),4	46,(6, 21),4	70,(7, 21),4	74,(9, 21),4	87,(8, 21),4	94,(11, 21),4	102,(2, 13),36	138,(12, 21),4	142,(10, 21),4	186,(16, 21),4	191,(15, 21),4	195,(18, 21),4	206,(17, 21),4	210,(19, 21),4	374,(4, 21),4	378,(14, 21),4	382,(20, 21),4	
# Outgoing
138,(12, 21),4	
94,(11, 21),4	
142,(10, 21),4	382,(20, 21),4	
74,(9, 21),4	210,(19, 21),4	
87,(8, 21),4	195,(18, 21),4	
70,(7, 21),4	206,(17, 21),4	
46,(6, 21),4	186,(16, 21),4	
42,(5, 21),4	191,(15, 21),4	
10,(2, 3),12	22,(2, 8),64	86,(2, 10),16	102,(2, 13),36	138,(2, 15),52	190,(2, 18),4	194,(2, 19),12	206,(2, 20),168	374,(4, 21),4	378,(14, 21),4	
1,(0, 2),8	9,(1, 4),4	13,(1, 5),28	41,(1, 6),4	45,(1, 7),24	69,(1, 9),4	73,(1, 11),20	93,(1, 12),8	101,(1, 14),4	105,(1, 16),80	185,(1, 17),20	
