7680
# CPU
77,2,1	78,93,1	153,4,1	229,6,1	230,133,1	305,8,1	306,50,1	381,10,1	382,78,1	457,12,1	458,32,1	459,115,1	460,137,1	461,139,1	533,14,1	534,37,1	535,175,1	609,16,1	610,98,1	611,130,1	612,153,1	613,179,1	685,18,1	686,58,1	687,134,1	688,169,1	689,199,1	761,20,1	762,27,1	763,33,1	764,46,1	765,129,1	766,185,1	767,196,1	768,149,1	769,158,1	770,168,1	773,26,1	871,77,1	1013,140,1	1019,154,1	1025,172,1	1623,191,1	1631,195,1	1685,41,1	1723,66,1	1855,122,1	1899,144,1	2233,177,1	2319,193,1	2329,36,1	2413,53,1	2489,87,1	2493,102,1	2835,128,1	2899,146,1	2917,156,1	2947,163,1	2957,171,1	2973,178,1	3033,28,1	3035,30,1	3065,56,1	3329,81,1	3421,125,1	3423,127,1	3569,183,1	3749,38,1	3767,45,1	3817,55,1	3825,61,1	3953,64,1	4093,86,1	4101,89,1	4103,105,1	4341,109,1	4395,124,1	4547,151,1	4803,180,1	4961,186,1	5007,25,1	5039,49,1	5047,59,1	5051,63,1	5067,65,1	5091,71,1	5105,76,1	5117,96,1	5225,110,1	5279,112,1	5303,126,1	5313,131,1	5433,135,1	5487,145,1	5501,157,1	5639,167,1	5659,181,1	5855,182,1	5859,184,1	5911,188,1	5913,194,1	5923,34,1	5925,42,1	5947,54,1	5949,60,1	6011,70,1	6029,84,1	6057,91,1	6061,95,1	6071,97,1	6075,99,1	6083,101,1	6097,113,1	6219,118,1	6233,119,1	6241,120,1	6243,136,1	6275,152,1	6283,159,1	6423,165,1	6455,190,1	6473,44,1	6475,47,1	6491,72,1	6493,73,1	6511,83,1	6587,85,1	6595,88,1	6597,90,1	6609,94,1	6627,138,1	6715,142,1	6787,147,1	6789,148,1	6791,155,1	6849,162,1	6859,166,1	6925,174,1	6937,176,1	6943,189,1	6949,198,1	6951,23,1	6961,31,1	6963,35,1	6971,39,1	6973,67,1	7001,69,1	7073,80,1	7121,82,1	7137,92,1	7143,104,1	7163,107,1	7171,117,1	7191,121,1	7201,123,1	7219,164,1	7227,173,1	7235,187,1	7237,200,1	7239,40,1	7251,43,1	7257,48,1	7259,51,1	7261,57,1	7273,62,1	7291,68,1	7297,74,1	7299,75,1	7323,79,1	7325,100,1	7339,103,1	7343,106,1	7345,108,1	7389,111,1	7391,114,1	7423,116,1	7465,132,1	7475,141,1	7509,143,1	7531,150,1	7533,160,1	7535,170,1	7601,192,1	7619,197,1	7679,201,1	
0,0,1	1,9,1	2,19,1	3,1,1	4,13,1	5,11,1	6,5,1	7,17,1	8,3,1	9,7,1	10,15,1	11,21,1	12,52,1	13,29,1	14,22,1	730,24,1	1872,161,1	
# Incoming
1,(0, 2),76	77,(0, 4),76	153,(0, 6),76	229,(0, 8),76	305,(0, 10),76	381,(0, 12),76	457,(0, 14),76	533,(0, 16),76	609,(0, 18),76	685,(0, 20),76	761,(9, 26),12	773,(9, 30),42	815,(9, 70),10	825,(9, 74),6	831,(9, 77),40	871,(9, 91),8	879,(9, 97),8	887,(9, 113),2	889,(9, 124),16	905,(9, 128),102	1007,(9, 140),6	1013,(9, 154),6	1019,(9, 171),4	1023,(9, 172),2	1025,(9, 173),2	1027,(9, 178),6	1033,(9, 186),20	1053,(9, 188),106	1159,(9, 189),156	1315,(9, 191),308	1623,(9, 195),8	1631,(9, 200),18	1649,(19, 39),10	1659,(19, 40),6	1665,(19, 41),20	1685,(19, 62),16	1701,(19, 66),22	1723,(19, 71),34	1757,(19, 75),14	1771,(19, 84),2	1773,(19, 87),2	1775,(19, 100),6	1781,(19, 102),50	1831,(19, 104),8	1839,(19, 117),2	1841,(19, 119),12	1853,(19, 122),2	1855,(19, 142),42	1897,(19, 144),2	1899,(19, 146),2	1901,(19, 156),268	2169,(19, 176),58	2227,(19, 177),6	2233,(19, 183),76	2309,(19, 187),8	2317,(19, 193),2	2319,(1, 36),10	2329,(1, 39),32	2361,(1, 43),32	2393,(1, 49),2	2395,(1, 53),18	2413,(1, 59),14	2427,(1, 72),4	2431,(1, 74),36	2467,(1, 85),2	2469,(1, 87),20	2489,(1, 101),2	2491,(1, 102),2	2493,(1, 104),2	2495,(1, 105),2	2497,(1, 107),14	2511,(1, 109),4	2515,(1, 110),12	2527,(1, 112),32	2559,(1, 123),258	2817,(1, 128),18	2835,(1, 132),56	2891,(1, 142),6	2897,(1, 146),2	2899,(1, 152),16	2915,(1, 156),2	2917,(1, 163),30	2947,(1, 164),8	2955,(1, 171),2	2957,(1, 178),16	2973,(1, 184),10	2983,(1, 194),4	2987,(1, 200),44	3031,(13, 28),2	3033,(13, 30),2	3035,(13, 56),30	3065,(13, 63),250	3315,(13, 70),12	3327,(13, 81),2	3329,(13, 84),2	3331,(13, 91),74	3405,(13, 96),2	3407,(13, 106),6	3413,(13, 109),2	3415,(13, 113),2	3417,(13, 125),4	3421,(13, 127),2	3423,(13, 131),4	3427,(13, 136),18	3445,(13, 162),16	3461,(13, 165),44	3505,(13, 180),62	3567,(13, 183),2	3569,(11, 34),84	3653,(11, 38),96	3749,(11, 40),16	3765,(11, 45),2	3767,(11, 47),2	3769,(11, 49),2	3771,(11, 54),42	3813,(11, 55),4	3817,(11, 59),4	3821,(11, 61),4	3825,(11, 64),128	3953,(11, 65),84	4037,(11, 67),2	4039,(11, 71),2	4041,(11, 72),4	4045,(11, 82),16	4061,(11, 85),2	4063,(11, 86),30	4093,(11, 89),8	4101,(11, 105),2	4103,(11, 109),238	4341,(11, 110),46	4387,(11, 124),8	4395,(11, 132),74	4469,(11, 138),38	4507,(11, 145),2	4509,(11, 148),18	4527,(11, 151),20	4547,(11, 159),2	4549,(11, 160),60	4609,(11, 174),36	4645,(11, 180),158	4803,(11, 181),56	4859,(11, 182),100	4959,(11, 186),2	4961,(11, 197),8	4969,(5, 25),38	5007,(5, 42),14	5021,(5, 49),18	5039,(5, 59),8	5047,(5, 63),4	5051,(5, 65),16	5067,(5, 71),24	5091,(5, 74),8	5099,(5, 76),6	5105,(5, 79),6	5111,(5, 83),2	5113,(5, 85),2	5115,(5, 96),2	5117,(5, 100),2	5119,(5, 101),18	5137,(5, 103),72	5209,(5, 107),4	5213,(5, 110),12	5225,(5, 112),54	5279,(5, 126),24	5303,(5, 131),10	5313,(5, 132),118	5431,(5, 135),2	5433,(5, 145),54	5487,(5, 157),14	5501,(5, 166),118	5619,(5, 167),20	5639,(5, 181),20	5659,(5, 182),196	5855,(5, 184),4	5859,(5, 188),52	5911,(5, 194),2	5913,(5, 200),2	5915,(17, 34),8	5923,(17, 42),2	5925,(17, 54),22	5947,(17, 60),2	5949,(17, 68),60	6009,(17, 70),2	6011,(17, 75),6	6017,(17, 80),6	6023,(17, 84),6	6029,(17, 91),28	6057,(17, 95),4	6061,(17, 97),10	6071,(17, 99),4	6075,(17, 101),8	6083,(17, 108),2	6085,(17, 113),12	6097,(17, 114),98	6195,(17, 118),24	6219,(17, 119),14	6233,(17, 120),8	6241,(17, 136),2	6243,(17, 141),22	6265,(17, 152),10	6275,(17, 159),8	6283,(17, 165),140	6423,(17, 190),32	6455,(3, 35),2	6457,(3, 40),4	6461,(3, 44),12	6473,(3, 47),2	6475,(3, 51),8	6483,(3, 69),6	6489,(3, 72),2	6491,(3, 73),2	6493,(3, 74),10	6503,(3, 83),8	6511,(3, 85),76	6587,(3, 88),8	6595,(3, 90),2	6597,(3, 94),12	6609,(3, 104),2	6611,(3, 138),16	6627,(3, 141),10	6637,(3, 142),78	6715,(3, 143),16	6731,(3, 147),56	6787,(3, 148),2	6789,(3, 155),2	6791,(3, 162),58	6849,(3, 166),10	6859,(3, 174),66	6925,(3, 176),12	6937,(3, 189),6	6943,(3, 198),6	6949,(7, 23),2	6951,(7, 31),10	6961,(7, 35),2	6963,(7, 39),8	6971,(7, 67),2	6973,(7, 69),28	7001,(7, 80),72	7073,(7, 82),48	7121,(7, 92),16	7137,(7, 104),6	7143,(7, 107),20	7163,(7, 117),8	7171,(7, 121),20	7191,(7, 123),10	7201,(7, 143),6	7207,(7, 164),12	7219,(7, 173),8	7227,(7, 187),8	7235,(7, 200),2	7237,(15, 40),2	7239,(15, 43),12	7251,(15, 48),6	7257,(15, 51),2	7259,(15, 57),2	7261,(15, 62),12	7273,(15, 68),18	7291,(15, 74),6	7297,(15, 75),2	7299,(15, 79),24	7323,(15, 100),2	7325,(15, 103),14	7339,(15, 106),4	7343,(15, 108),2	7345,(15, 111),44	7389,(15, 114),2	7391,(15, 116),32	7423,(15, 132),42	7465,(15, 141),10	7475,(15, 143),34	7509,(15, 150),22	7531,(15, 160),2	7533,(15, 170),2	7535,(15, 192),66	7601,(15, 197),18	7619,(21, 201),10	7629,(52, 201),10	7639,(29, 201),10	7649,(22, 201),10	7659,(24, 201),10	7669,(161, 201),10	
78,(2, 161),8	382,(10, 24),14	396,(10, 161),2	686,(18, 24),44	762,(20, 161),1110	
# Outgoing
78,(2, 161),8	382,(10, 24),14	396,(10, 161),2	686,(18, 24),44	762,(20, 161),1110	
1,(0, 2),76	77,(0, 4),76	153,(0, 6),76	229,(0, 8),76	305,(0, 10),76	381,(0, 12),76	457,(0, 14),76	533,(0, 16),76	609,(0, 18),76	685,(0, 20),76	761,(9, 26),12	773,(9, 30),42	815,(9, 70),10	825,(9, 74),6	831,(9, 77),40	871,(9, 91),8	879,(9, 97),8	887,(9, 113),2	889,(9, 124),16	905,(9, 128),102	1007,(9, 140),6	1013,(9, 154),6	1019,(9, 171),4	1023,(9, 172),2	1025,(9, 173),2	1027,(9, 178),6	1033,(9, 186),20	1053,(9, 188),106	1159,(9, 189),156	1315,(9, 191),308	1623,(9, 195),8	1631,(9, 200),18	1649,(19, 39),10	1659,(19, 40),6	1665,(19, 41),20	1685,(19, 62),16	1701,(19, 66),22	1723,(19, 71),34	1757,(19, 75),14	1771,(19, 84),2	1773,(19, 87),2	1775,(19, 100),6	1781,(19, 102),50	1831,(19, 104),8	1839,(19, 117),2	1841,(19, 119),12	1853,(19, 122),2	1855,(19, 142),42	1897,(19, 144),2	1899,(19, 146),2	1901,(19, 156),268	2169,(19, 176),58	2227,(19, 177),6	2233,(19, 183),76	2309,(19, 187),8	2317,(19, 193),2	2319,(1, 36),10	2329,(1, 39),32	2361,(1, 43),32	2393,(1, 49),2	2395,(1, 53),18	2413,(1, 59),14	2427,(1, 72),4	2431,(1, 74),36	2467,(1, 85),2	2469,(1, 87),20	2489,(1, 101),2	2491,(1, 102),2	2493,(1, 104),2	2495,(1, 105),2	2497,(1, 107),14	2511,(1, 109),4	2515,(1, 110),12	2527,(1, 112),32	2559,(1, 123),258	2817,(1, 128),18	2835,(1, 132),56	2891,(1, 142),6	2897,(1, 146),2	2899,(1, 152),16	2915,(1, 156),2	2917,(1, 163),30	2947,(1, 164),8	2955,(1, 171),2	2957,(1, 178),16	2973,(1, 184),10	2983,(1, 194),4	2987,(1, 200),44	3031,(13, 28),2	3033,(13, 30),2	3035,(13, 56),30	3065,(13, 63),250	3315,(13, 70),12	3327,(13, 81),2	3329,(13, 84),2	3331,(13, 91),74	3405,(13, 96),2	3407,(13, 106),6	3413,(13, 109),2	3415,(13, 113),2	3417,(13, 125),4	3421,(13, 127),2	3423,(13, 131),4	3427,(13, 136),18	3445,(13, 162),16	3461,(13, 165),44	3505,(13, 180),62	3567,(13, 183),2	3569,(11, 34),84	3653,(11, 38),96	3749,(11, 40),16	3765,(11, 45),2	3767,(11, 47),2	3769,(11, 49),2	3771,(11, 54),42	3813,(11, 55),4	3817,(11, 59),4	3821,(11, 61),4	3825,(11, 64),128	3953,(11, 65),84	4037,(11, 67),2	4039,(11, 71),2	4041,(11, 72),4	4045,(11, 82),16	4061,(11, 85),2	4063,(11, 86),30	4093,(11, 89),8	4101,(11, 105),2	4103,(11, 109),238	4341,(11, 110),46	4387,(11, 124),8	4395,(11, 132),74	4469,(11, 138),38	4507,(11, 145),2	4509,(11, 148),18	4527,(11, 151),20	4547,(11, 159),2	4549,(11, 160),60	4609,(11, 174),36	4645,(11, 180),158	4803,(11, 181),56	4859,(11, 182),100	4959,(11, 186),2	4961,(11, 197),8	4969,(5, 25),38	5007,(5, 42),14	5021,(5, 49),18	5039,(5, 59),8	5047,(5, 63),4	5051,(5, 65),16	5067,(5, 71),24	5091,(5, 74),8	5099,(5, 76),6	5105,(5, 79),6	5111,(5, 83),2	5113,(5, 85),2	5115,(5, 96),2	5117,(5, 100),2	5119,(5, 101),18	5137,(5, 103),72	5209,(5, 107),4	5213,(5, 110),12	5225,(5, 112),54	5279,(5, 126),24	5303,(5, 131),10	5313,(5, 132),118	5431,(5, 135),2	5433,(5, 145),54	5487,(5, 157),14	5501,(5, 166),118	5619,(5, 167),20	5639,(5, 181),20	5659,(5, 182),196	5855,(5, 184),4	5859,(5, 188),52	5911,(5, 194),2	5913,(5, 200),2	5915,(17, 34),8	5923,(17, 42),2	5925,(17, 54),22	5947,(17, 60),2	5949,(17, 68),60	6009,(17, 70),2	6011,(17, 75),6	6017,(17, 80),6	6023,(17, 84),6	6029,(17, 91),28	6057,(17, 95),4	6061,(17, 97),10	6071,(17, 99),4	6075,(17, 101),8	6083,(17, 108),2	6085,(17, 113),12	6097,(17, 114),98	6195,(17, 118),24	6219,(17, 119),14	6233,(17, 120),8	6241,(17, 136),2	6243,(17, 141),22	6265,(17, 152),10	6275,(17, 159),8	6283,(17, 165),140	6423,(17, 190),32	6455,(3, 35),2	6457,(3, 40),4	6461,(3, 44),12	6473,(3, 47),2	6475,(3, 51),8	6483,(3, 69),6	6489,(3, 72),2	6491,(3, 73),2	6493,(3, 74),10	6503,(3, 83),8	6511,(3, 85),76	6587,(3, 88),8	6595,(3, 90),2	6597,(3, 94),12	6609,(3, 104),2	6611,(3, 138),16	6627,(3, 141),10	6637,(3, 142),78	6715,(3, 143),16	6731,(3, 147),56	6787,(3, 148),2	6789,(3, 155),2	6791,(3, 162),58	6849,(3, 166),10	6859,(3, 174),66	6925,(3, 176),12	6937,(3, 189),6	6943,(3, 198),6	6949,(7, 23),2	6951,(7, 31),10	6961,(7, 35),2	6963,(7, 39),8	6971,(7, 67),2	6973,(7, 69),28	7001,(7, 80),72	7073,(7, 82),48	7121,(7, 92),16	7137,(7, 104),6	7143,(7, 107),20	7163,(7, 117),8	7171,(7, 121),20	7191,(7, 123),10	7201,(7, 143),6	7207,(7, 164),12	7219,(7, 173),8	7227,(7, 187),8	7235,(7, 200),2	7237,(15, 40),2	7239,(15, 43),12	7251,(15, 48),6	7257,(15, 51),2	7259,(15, 57),2	7261,(15, 62),12	7273,(15, 68),18	7291,(15, 74),6	7297,(15, 75),2	7299,(15, 79),24	7323,(15, 100),2	7325,(15, 103),14	7339,(15, 106),4	7343,(15, 108),2	7345,(15, 111),44	7389,(15, 114),2	7391,(15, 116),32	7423,(15, 132),42	7465,(15, 141),10	7475,(15, 143),34	7509,(15, 150),22	7531,(15, 160),2	7533,(15, 170),2	7535,(15, 192),66	7601,(15, 197),18	7619,(21, 201),10	7629,(52, 201),10	7639,(29, 201),10	7649,(22, 201),10	7659,(24, 201),10	7669,(161, 201),10	
