4752
# CPU
0,0,1	1,1,1	2,5,1	3,11,1	4,3,1	5,9,1	6,2,1	7,8,1	8,12,1	9,19,1	10,28,1	11,55,1	12,119,1	13,7,1	14,71,1	15,58,1	16,103,1	17,37,1	18,6,1	19,42,1	20,34,1	21,54,1	22,14,1	23,66,1	24,59,1	25,49,1	26,106,1	27,91,1	28,10,1	29,48,1	30,63,1	31,105,1	32,87,1	33,67,1	34,118,1	35,21,1	36,24,1	37,27,1	38,94,1	39,41,1	40,57,1	41,22,1	42,46,1	43,20,1	44,83,1	45,31,1	46,17,1	47,61,1	48,108,1	49,50,1	50,115,1	51,86,1	52,99,1	53,90,1	54,68,1	55,25,1	56,33,1	57,107,1	58,72,1	59,110,1	60,95,1	61,35,1	62,45,1	63,47,1	64,36,1	65,79,1	66,15,1	67,76,1	68,30,1	69,78,1	70,13,1	71,81,1	72,53,1	73,101,1	74,77,1	75,69,1	82,109,1	90,82,1	98,97,1	106,104,1	114,44,1	126,74,1	138,102,1	150,70,1	166,120,1	182,40,1	198,114,1	218,65,1	238,100,1	262,96,1	286,116,1	314,73,1	346,56,1	378,98,1	414,117,1	450,29,1	490,88,1	530,18,1	570,32,1	610,60,1	654,64,1	702,23,1	754,92,1	814,62,1	878,26,1	942,80,1	1006,93,1	1074,75,1	1150,89,1	1246,113,1	1346,43,1	1458,38,1	1594,112,1	1754,16,1	1922,111,1	2106,52,1	2334,39,1	4750,51,1	4751,121,1	
21,4,1	33,85,1	57,84,1	
# Incoming
22,(4, 63),8	30,(4, 76),4	34,(85, 121),4	38,(4, 30),4	42,(4, 78),4	46,(4, 13),4	50,(4, 81),4	54,(4, 53),4	58,(84, 121),4	62,(4, 101),4	66,(4, 77),4	70,(4, 69),4	74,(4, 109),8	82,(4, 82),8	90,(4, 97),8	98,(4, 104),8	106,(4, 44),8	114,(4, 74),12	126,(4, 102),12	138,(4, 70),12	150,(4, 120),16	166,(4, 40),16	182,(4, 114),16	198,(4, 65),20	218,(4, 100),20	238,(4, 96),24	262,(4, 116),24	286,(4, 73),28	314,(4, 56),32	346,(4, 98),32	378,(4, 117),36	414,(4, 29),36	450,(4, 88),40	490,(4, 18),40	530,(4, 32),40	570,(4, 60),40	610,(4, 64),44	654,(4, 23),48	702,(4, 92),52	754,(4, 62),60	814,(4, 26),64	878,(4, 80),64	942,(4, 93),64	1006,(4, 75),68	1074,(4, 89),76	1150,(4, 113),96	1246,(4, 43),100	1346,(4, 38),112	1458,(4, 112),136	1594,(4, 16),160	1754,(4, 111),168	1922,(4, 52),184	2106,(4, 39),228	2334,(4, 51),2416	
1,(0, 4),20	21,(11, 85),4	25,(8, 85),4	29,(12, 85),4	33,(11, 84),8	41,(3, 84),12	53,(7, 84),4	
# Outgoing
1,(0, 4),20	21,(11, 85),4	25,(8, 85),4	29,(12, 85),4	33,(11, 84),8	41,(3, 84),12	53,(7, 84),4	
22,(4, 63),8	30,(4, 76),4	34,(85, 121),4	38,(4, 30),4	42,(4, 78),4	46,(4, 13),4	50,(4, 81),4	54,(4, 53),4	58,(84, 121),4	62,(4, 101),4	66,(4, 77),4	70,(4, 69),4	74,(4, 109),8	82,(4, 82),8	90,(4, 97),8	98,(4, 104),8	106,(4, 44),8	114,(4, 74),12	126,(4, 102),12	138,(4, 70),12	150,(4, 120),16	166,(4, 40),16	182,(4, 114),16	198,(4, 65),20	218,(4, 100),20	238,(4, 96),24	262,(4, 116),24	286,(4, 73),28	314,(4, 56),32	346,(4, 98),32	378,(4, 117),36	414,(4, 29),36	450,(4, 88),40	490,(4, 18),40	530,(4, 32),40	570,(4, 60),40	610,(4, 64),44	654,(4, 23),48	702,(4, 92),52	754,(4, 62),60	814,(4, 26),64	878,(4, 80),64	942,(4, 93),64	1006,(4, 75),68	1074,(4, 89),76	1150,(4, 113),96	1246,(4, 43),100	1346,(4, 38),112	1458,(4, 112),136	1594,(4, 16),160	1754,(4, 111),168	1922,(4, 52),184	2106,(4, 39),228	2334,(4, 51),2416	
