9181
# CPU
49,4,31	80,28,31	111,8,31	213,80,31	244,12,31	275,24,31	306,32,31	337,36,31	368,48,31	399,40,31	637,44,31	668,68,31	881,16,31	1041,20,31	1077,56,31	1565,52,31	1613,64,31	1649,72,31	1680,76,31	2693,60,31	
33,3,31	64,11,31	95,7,31	126,19,31	157,67,31	188,59,31	219,31,31	250,47,31	281,55,31	312,35,31	343,27,31	374,63,31	1085,51,31	1445,15,31	1537,43,31	1653,75,31	1953,23,31	2601,39,31	2697,71,31	9141,79,31	
17,2,31	65,6,31	96,10,31	127,46,31	158,50,31	189,62,31	220,30,31	251,34,31	505,22,31	589,38,31	620,70,31	1237,74,31	1577,58,31	1629,66,31	1733,78,31	1764,14,31	1929,18,31	1960,26,31	2637,42,31	2681,54,31	
0,0,1	1,1,31	32,5,31	224,9,31	255,13,31	286,29,31	317,53,31	348,61,31	379,25,31	429,49,31	460,17,31	653,73,31	684,77,31	715,33,31	746,37,31	777,45,31	808,57,31	839,65,31	870,21,31	901,41,31	932,69,31	9180,81,1	
# Incoming
33,(0, 4),16	69,(3, 28),8	81,(0, 8),16	97,(1, 20),96	193,(1, 24),4	197,(3, 52),4	201,(7, 48),8	209,(7, 80),4	224,(2, 12),16	240,(2, 24),8	269,(2, 32),4	273,(3, 36),44	329,(2, 48),24	353,(1, 40),4	357,(2, 52),164	521,(3, 68),88	609,(7, 44),28	649,(2, 68),12	661,(3, 76),92	753,(6, 16),128	881,(6, 64),104	985,(7, 20),56	1041,(7, 56),36	1085,(1, 52),480	1565,(7, 64),48	1629,(1, 72),20	1653,(1, 76),16	2681,(5, 60),12	
17,(0, 3),16	65,(0, 7),16	81,(4, 19),28	109,(4, 31),4	113,(4, 71),20	142,(8, 43),4	153,(4, 47),44	197,(1, 27),16	213,(1, 31),4	217,(8, 47),8	225,(8, 51),4	229,(8, 55),4	245,(1, 35),4	249,(2, 27),20	269,(4, 75),52	353,(2, 63),4	357,(1, 51),728	1085,(6, 15),360	1445,(6, 43),92	1649,(1, 75),4	1653,(6, 79),196	1929,(5, 23),24	1957,(5, 39),644	2693,(5, 71),4	2697,(4, 79),6444	
1,(0, 2),16	49,(0, 6),16	65,(3, 10),4	77,(3, 46),24	101,(3, 50),28	129,(3, 62),16	145,(3, 74),4	149,(4, 30),4	153,(7, 30),4	197,(8, 34),4	217,(1, 34),28	249,(1, 38),104	353,(7, 38),60	445,(8, 22),60	505,(8, 38),84	589,(8, 70),28	1077,(7, 74),160	1565,(1, 54),8	1573,(1, 58),4	1577,(1, 66),52	1669,(1, 78),64	1733,(5, 14),16	1749,(5, 18),180	1953,(5, 26),4	2601,(5, 42),36	2637,(5, 54),44	
48,(2, 9),176	224,(3, 13),12	236,(3, 21),20	256,(3, 29),12	268,(3, 53),4	273,(2, 33),56	329,(3, 61),12	341,(3, 69),12	353,(4, 25),8	361,(4, 49),68	429,(11, 81),8	437,(28, 81),8	445,(7, 17),12	457,(7, 57),8	465,(19, 81),8	473,(67, 81),8	481,(59, 81),8	489,(31, 81),8	497,(47, 81),8	505,(55, 81),8	513,(35, 81),8	521,(2, 65),128	649,(8, 73),4	653,(80, 81),8	661,(2, 77),4	665,(6, 33),4	669,(6, 37),4	673,(6, 45),20	693,(6, 57),4	697,(6, 69),4	701,(10, 81),8	709,(8, 65),24	733,(46, 81),8	741,(50, 81),8	753,(7, 21),84	837,(8, 41),56	893,(8, 69),36	929,(12, 81),8	937,(24, 81),8	945,(32, 81),8	953,(36, 81),8	961,(27, 81),8	969,(48, 81),8	977,(63, 81),8	985,(62, 81),8	993,(30, 81),8	1001,(34, 81),8	1009,(40, 81),8	1017,(22, 81),8	1025,(38, 81),8	1033,(70, 81),8	1041,(44, 81),8	1049,(68, 81),8	1057,(16, 81),8	1072,(20, 81),8	1108,(56, 81),8	1237,(51, 81),8	1476,(15, 81),8	1537,(74, 81),8	1596,(52, 81),8	1613,(43, 81),8	1621,(58, 81),8	1644,(64, 81),8	1680,(72, 81),8	1688,(75, 81),8	1711,(76, 81),8	1849,(66, 81),8	1857,(78, 81),8	1865,(14, 81),8	1960,(18, 81),8	1984,(23, 81),8	1992,(26, 81),8	2632,(39, 81),8	2668,(42, 81),8	2712,(54, 81),8	2728,(71, 81),8	9141,(60, 81),8	9172,(79, 81),8	
# Outgoing
81,(4, 19),28	109,(4, 31),4	113,(4, 71),20	142,(8, 43),4	149,(4, 30),4	153,(4, 47),44	197,(8, 34),4	217,(8, 47),8	225,(8, 51),4	229,(8, 55),4	269,(4, 75),52	353,(4, 25),8	361,(4, 49),68	437,(28, 81),8	445,(8, 22),60	505,(8, 38),84	589,(8, 70),28	649,(8, 73),4	653,(80, 81),8	709,(8, 65),24	837,(8, 41),56	893,(8, 69),36	929,(12, 81),8	937,(24, 81),8	945,(32, 81),8	953,(36, 81),8	969,(48, 81),8	1009,(40, 81),8	1041,(44, 81),8	1049,(68, 81),8	1057,(16, 81),8	1072,(20, 81),8	1108,(56, 81),8	1596,(52, 81),8	1644,(64, 81),8	1680,(72, 81),8	1711,(76, 81),8	2697,(4, 79),6444	9141,(60, 81),8	
65,(3, 10),4	69,(3, 28),8	77,(3, 46),24	101,(3, 50),28	129,(3, 62),16	145,(3, 74),4	153,(7, 30),4	197,(3, 52),4	201,(7, 48),8	209,(7, 80),4	224,(3, 13),12	236,(3, 21),20	256,(3, 29),12	268,(3, 53),4	273,(3, 36),44	329,(3, 61),12	341,(3, 69),12	353,(7, 38),60	429,(11, 81),8	445,(7, 17),12	457,(7, 57),8	465,(19, 81),8	473,(67, 81),8	481,(59, 81),8	489,(31, 81),8	497,(47, 81),8	505,(55, 81),8	513,(35, 81),8	521,(3, 68),88	609,(7, 44),28	661,(3, 76),92	753,(7, 21),84	961,(27, 81),8	977,(63, 81),8	985,(7, 20),56	1041,(7, 56),36	1077,(7, 74),160	1237,(51, 81),8	1476,(15, 81),8	1565,(7, 64),48	1613,(43, 81),8	1688,(75, 81),8	1984,(23, 81),8	2632,(39, 81),8	2728,(71, 81),8	9172,(79, 81),8	
48,(2, 9),176	224,(2, 12),16	240,(2, 24),8	249,(2, 27),20	269,(2, 32),4	273,(2, 33),56	329,(2, 48),24	353,(2, 63),4	357,(2, 52),164	521,(2, 65),128	649,(2, 68),12	661,(2, 77),4	665,(6, 33),4	669,(6, 37),4	673,(6, 45),20	693,(6, 57),4	697,(6, 69),4	701,(10, 81),8	733,(46, 81),8	741,(50, 81),8	753,(6, 16),128	881,(6, 64),104	985,(62, 81),8	993,(30, 81),8	1001,(34, 81),8	1017,(22, 81),8	1025,(38, 81),8	1033,(70, 81),8	1085,(6, 15),360	1445,(6, 43),92	1537,(74, 81),8	1621,(58, 81),8	1653,(6, 79),196	1849,(66, 81),8	1857,(78, 81),8	1865,(14, 81),8	1960,(18, 81),8	1992,(26, 81),8	2668,(42, 81),8	2712,(54, 81),8	
1,(0, 2),16	17,(0, 3),16	33,(0, 4),16	49,(0, 6),16	65,(0, 7),16	81,(0, 8),16	97,(1, 20),96	193,(1, 24),4	197,(1, 27),16	213,(1, 31),4	217,(1, 34),28	245,(1, 35),4	249,(1, 38),104	353,(1, 40),4	357,(1, 51),728	1085,(1, 52),480	1565,(1, 54),8	1573,(1, 58),4	1577,(1, 66),52	1629,(1, 72),20	1649,(1, 75),4	1653,(1, 76),16	1669,(1, 78),64	1733,(5, 14),16	1749,(5, 18),180	1929,(5, 23),24	1953,(5, 26),4	1957,(5, 39),644	2601,(5, 42),36	2637,(5, 54),44	2681,(5, 60),12	2693,(5, 71),4	
