13654
# CPU
1113,63,3	6065,113,3	7593,98,3	7865,107,3	7909,108,3	7941,30,3	8277,36,3	8353,93,3	8481,90,3	8509,13,3	8625,24,3	9089,31,3	9121,37,3	9377,52,3	9461,19,3	10093,20,3	10141,45,3	10441,58,3	10809,42,3	10817,47,3	10841,88,3	10941,46,3	13045,74,3	13073,82,3	13093,84,3	13133,101,3	13249,18,3	13261,21,3	13309,25,3	13321,38,3	13333,40,3	13381,41,3	13397,83,3	13409,85,3	13553,104,3	13653,121,1	
881,11,3	884,65,3	887,75,3	890,69,3	893,71,3	896,94,3	921,28,3	1213,80,3	1217,100,3	9141,39,3	
89,1,3	92,27,3	95,55,3	98,114,3	101,33,3	104,87,3	107,106,3	4673,110,3	7577,57,3	
265,3,3	268,29,3	271,96,3	274,117,3	277,118,3	280,115,3	283,34,3	286,109,3	628,14,3	
617,8,3	620,17,3	623,43,3	626,79,3	629,73,3	632,120,3	635,61,3	638,22,3	641,60,3	
353,4,3	356,26,3	359,49,3	362,111,3	365,103,3	368,51,3	371,116,3	374,91,3	1149,68,3	
177,2,3	180,48,3	183,67,3	186,77,3	793,10,3	796,35,3	799,99,3	802,81,3	4665,97,3	4709,15,3	9381,62,3	13557,119,3	
0,0,1	1,12,3	4,5,3	7,16,3	10,86,3	13,64,3	16,92,3	9153,44,3	9157,95,3	
441,6,3	444,50,3	447,59,3	450,53,3	453,76,3	977,56,3	1153,70,3	1197,32,3	4949,72,3	
529,7,3	532,23,3	535,78,3	705,9,3	708,54,3	711,66,3	4669,105,3	4705,112,3	6781,102,3	13413,89,3	
# Incoming
921,(12, 47),4	925,(4, 18),4	929,(4, 21),12	941,(4, 36),12	953,(4, 98),16	969,(26, 121),4	973,(49, 121),4	977,(12, 63),136	1113,(3, 19),60	1173,(3, 24),20	1193,(111, 121),4	1197,(103, 121),4	1201,(3, 113),12	1213,(12, 90),548	1761,(12, 93),2888	4649,(3, 42),20	4669,(3, 45),24	4693,(29, 121),4	4697,(96, 121),4	4701,(117, 121),4	4705,(118, 121),4	4709,(5, 46),52	4761,(5, 52),120	4881,(5, 58),64	4945,(115, 121),4	4949,(5, 90),64	5013,(5, 104),4	5017,(5, 107),32	5049,(5, 113),1016	6065,(16, 121),4	6069,(86, 121),4	6073,(64, 121),4	6077,(92, 121),4	6081,(1, 13),204	6285,(1, 20),12	6297,(1, 31),24	6321,(1, 42),32	6353,(1, 47),28	6381,(1, 58),44	6425,(1, 74),256	6681,(1, 82),48	6729,(1, 85),32	6761,(1, 101),16	6777,(34, 121),4	6781,(1, 108),144	6925,(27, 121),4	6929,(55, 121),4	6933,(114, 121),4	6937,(33, 121),4	6941,(87, 121),4	6945,(106, 121),4	6949,(2, 40),312	7261,(2, 83),48	7309,(2, 107),232	7541,(2, 108),20	7561,(48, 121),4	7565,(67, 121),4	7569,(77, 121),4	7573,(3, 98),20	7593,(3, 101),28	7621,(109, 121),4	7625,(4, 30),40	7665,(4, 52),80	7745,(4, 83),56	7801,(4, 107),64	7865,(4, 108),44	7909,(51, 121),4	7913,(116, 121),4	7917,(91, 121),4	7921,(6, 25),4	7925,(6, 30),16	7941,(6, 36),336	8277,(6, 37),40	8317,(6, 41),32	8349,(8, 93),4	8353,(17, 121),4	8357,(6, 84),4	8361,(6, 90),120	8481,(50, 121),4	8485,(59, 121),4	8489,(53, 121),4	8493,(76, 121),4	8497,(7, 13),12	8509,(7, 18),40	8549,(7, 24),76	8625,(7, 31),464	9089,(7, 37),32	9121,(7, 38),12	9133,(43, 121),4	9137,(79, 121),4	9141,(7, 41),8	9149,(14, 121),4	9153,(7, 52),224	9377,(73, 121),4	9381,(7, 83),4	9385,(7, 84),36	9421,(23, 121),4	9425,(78, 121),4	9429,(8, 19),32	9461,(8, 20),632	10093,(8, 45),48	10141,(8, 58),300	10441,(8, 88),32	10473,(8, 104),88	10561,(120, 121),4	10565,(61, 121),4	10569,(22, 121),4	10573,(60, 121),4	10577,(9, 25),160	10737,(9, 42),72	10809,(9, 47),8	10817,(9, 88),24	10841,(54, 121),4	10845,(66, 121),4	10849,(10, 40),8	10857,(10, 46),84	10941,(10, 74),2104	13045,(10, 82),28	13073,(10, 84),20	13093,(10, 101),40	13133,(35, 121),4	13137,(99, 121),4	13141,(81, 121),4	13145,(11, 18),104	13249,(11, 21),12	13261,(11, 25),48	13309,(11, 38),12	13321,(11, 40),12	13333,(11, 41),48	13381,(11, 83),16	13397,(11, 85),12	13409,(56, 121),4	13413,(11, 104),140	13553,(68, 121),4	13557,(65, 121),4	13561,(75, 121),4	13565,(69, 121),4	13569,(71, 121),4	13573,(94, 121),4	13577,(28, 121),4	13581,(70, 121),4	13585,(32, 121),4	13589,(80, 121),4	13593,(100, 121),4	13597,(97, 121),4	13601,(105, 121),4	13605,(110, 121),4	13609,(112, 121),4	13613,(15, 121),4	13617,(72, 121),4	13621,(102, 121),4	13625,(57, 121),4	13629,(39, 121),4	13633,(44, 121),4	13637,(95, 121),4	13641,(62, 121),4	13645,(89, 121),4	13649,(119, 121),4	
793,(0, 11),88	881,(8, 39),4	917,(12, 28),4	1153,(12, 80),60	1213,(3, 100),4	9133,(7, 39),8	
1,(0, 1),88	4669,(12, 110),4	7573,(10, 57),4	
177,(0, 3),88	620,(8, 14),8	
529,(0, 8),88	
265,(0, 4),88	1113,(12, 68),36	
89,(0, 2),88	705,(0, 10),88	881,(12, 15),36	1197,(3, 97),4	4649,(12, 97),16	4705,(5, 15),4	8349,(6, 62),8	9377,(7, 62),4	13553,(11, 119),4	
9149,(7, 44),4	9153,(10, 95),4	
353,(0, 6),88	925,(12, 56),52	1149,(12, 70),4	1193,(3, 32),4	4945,(5, 72),4	
441,(0, 7),88	617,(0, 9),88	4665,(12, 105),4	4673,(12, 112),32	6777,(1, 102),4	13409,(11, 89),4	
# Outgoing

13145,(11, 18),104	13249,(11, 21),12	13261,(11, 25),48	13309,(11, 38),12	13321,(11, 40),12	13333,(11, 41),48	13381,(11, 83),16	13397,(11, 85),12	13409,(11, 89),4	13413,(11, 104),140	13553,(11, 119),4	13557,(65, 121),4	13561,(75, 121),4	13565,(69, 121),4	13569,(71, 121),4	13573,(94, 121),4	13577,(28, 121),4	13589,(80, 121),4	13593,(100, 121),4	13629,(39, 121),4	
6081,(1, 13),204	6285,(1, 20),12	6297,(1, 31),24	6321,(1, 42),32	6353,(1, 47),28	6381,(1, 58),44	6425,(1, 74),256	6681,(1, 82),48	6729,(1, 85),32	6761,(1, 101),16	6777,(1, 102),4	6781,(1, 108),144	6925,(27, 121),4	6929,(55, 121),4	6933,(114, 121),4	6937,(33, 121),4	6941,(87, 121),4	6945,(106, 121),4	13605,(110, 121),4	13625,(57, 121),4	
1113,(3, 19),60	1173,(3, 24),20	1193,(3, 32),4	1197,(3, 97),4	1201,(3, 113),12	1213,(3, 100),4	4649,(3, 42),20	4669,(3, 45),24	4693,(29, 121),4	4697,(96, 121),4	4701,(117, 121),4	4705,(118, 121),4	4945,(115, 121),4	6777,(34, 121),4	7573,(3, 98),20	7593,(3, 101),28	7621,(109, 121),4	9149,(14, 121),4	
620,(8, 14),8	881,(8, 39),4	8349,(8, 93),4	8353,(17, 121),4	9133,(43, 121),4	9137,(79, 121),4	9377,(73, 121),4	9429,(8, 19),32	9461,(8, 20),632	10093,(8, 45),48	10141,(8, 58),300	10441,(8, 88),32	10473,(8, 104),88	10561,(120, 121),4	10565,(61, 121),4	10569,(22, 121),4	10573,(60, 121),4	
925,(4, 18),4	929,(4, 21),12	941,(4, 36),12	953,(4, 98),16	969,(26, 121),4	973,(49, 121),4	1193,(111, 121),4	1197,(103, 121),4	7625,(4, 30),40	7665,(4, 52),80	7745,(4, 83),56	7801,(4, 107),64	7865,(4, 108),44	7909,(51, 121),4	7913,(116, 121),4	7917,(91, 121),4	13553,(68, 121),4	
6949,(2, 40),312	7261,(2, 83),48	7309,(2, 107),232	7541,(2, 108),20	7561,(48, 121),4	7565,(67, 121),4	7569,(77, 121),4	7573,(10, 57),4	9153,(10, 95),4	10849,(10, 40),8	10857,(10, 46),84	10941,(10, 74),2104	13045,(10, 82),28	13073,(10, 84),20	13093,(10, 101),40	13133,(35, 121),4	13137,(99, 121),4	13141,(81, 121),4	13597,(97, 121),4	13613,(15, 121),4	13641,(62, 121),4	13649,(119, 121),4	
1,(0, 1),88	89,(0, 2),88	177,(0, 3),88	265,(0, 4),88	353,(0, 6),88	441,(0, 7),88	529,(0, 8),88	617,(0, 9),88	705,(0, 10),88	793,(0, 11),88	881,(12, 15),36	917,(12, 28),4	921,(12, 47),4	925,(12, 56),52	977,(12, 63),136	1113,(12, 68),36	1149,(12, 70),4	1153,(12, 80),60	1213,(12, 90),548	1761,(12, 93),2888	4649,(12, 97),16	4665,(12, 105),4	4669,(12, 110),4	4673,(12, 112),32	4705,(5, 15),4	4709,(5, 46),52	4761,(5, 52),120	4881,(5, 58),64	4945,(5, 72),4	4949,(5, 90),64	5013,(5, 104),4	5017,(5, 107),32	5049,(5, 113),1016	6065,(16, 121),4	6069,(86, 121),4	6073,(64, 121),4	6077,(92, 121),4	13633,(44, 121),4	13637,(95, 121),4	
7921,(6, 25),4	7925,(6, 30),16	7941,(6, 36),336	8277,(6, 37),40	8317,(6, 41),32	8349,(6, 62),8	8357,(6, 84),4	8361,(6, 90),120	8481,(50, 121),4	8485,(59, 121),4	8489,(53, 121),4	8493,(76, 121),4	13409,(56, 121),4	13581,(70, 121),4	13585,(32, 121),4	13617,(72, 121),4	
8497,(7, 13),12	8509,(7, 18),40	8549,(7, 24),76	8625,(7, 31),464	9089,(7, 37),32	9121,(7, 38),12	9133,(7, 39),8	9141,(7, 41),8	9149,(7, 44),4	9153,(7, 52),224	9377,(7, 62),4	9381,(7, 83),4	9385,(7, 84),36	9421,(23, 121),4	9425,(78, 121),4	10577,(9, 25),160	10737,(9, 42),72	10809,(9, 47),8	10817,(9, 88),24	10841,(54, 121),4	10845,(66, 121),4	13601,(105, 121),4	13609,(112, 121),4	13621,(102, 121),4	13645,(89, 121),4	
