6704
# CPU
13,3,18	31,6,18	49,120,18	67,9,18	85,12,18	103,48,18	121,39,18	139,15,18	259,45,18	730,81,18	1042,90,18	1219,36,18	1237,78,18	1588,96,18	1606,105,18	3397,18,18	3424,21,18	4192,30,18	4351,102,18	4453,24,18	4471,33,18	4633,51,18	4651,54,18	4669,63,18	4738,69,18	4771,75,18	4879,84,18	5572,99,18	5590,108,18	5608,114,18	5920,27,18	5950,42,18	6001,57,18	6139,60,18	6166,66,18	6184,72,18	6226,87,18	6283,93,18	6343,111,18	6361,117,18	
7,2,18	25,5,18	43,8,18	61,11,18	79,17,18	247,92,18	307,29,18	364,35,18	1774,107,18	3025,113,18	3286,41,18	3397,50,18	4195,53,18	4249,65,18	4360,104,18	4468,38,18	4579,47,18	4645,59,18	4663,62,18	4732,68,18	4753,71,18	4873,80,18	5560,86,18	5578,98,18	5776,116,18	5797,14,18	5821,20,18	5839,23,18	5905,26,18	5923,32,18	5953,44,18	5974,56,18	6172,74,18	6190,77,18	6223,83,18	6241,89,18	6310,95,18	6328,110,18	6364,119,18	6682,101,18	
0,0,1	1,4,18	19,1,18	37,7,18	55,10,18	73,37,18	91,100,18	136,25,18	547,55,18	652,61,18	721,112,18	853,43,18	889,13,18	952,64,18	970,22,18	988,46,18	1054,97,18	1102,16,18	1120,109,18	1306,49,18	1324,31,18	1363,91,18	1381,19,18	1753,79,18	1804,106,18	1885,34,18	1954,40,18	2008,52,18	2026,58,18	2044,67,18	2062,70,18	2080,28,18	2119,82,18	2137,85,18	2155,88,18	2191,94,18	2335,103,18	2365,115,18	2386,118,18	3004,76,18	4201,73,18	6703,121,1	
# Incoming
7,(0, 3),6	19,(0, 6),6	31,(0, 9),6	43,(0, 12),6	49,(4, 15),30	79,(4, 21),48	130,(4, 24),3	133,(2, 36),9	166,(4, 27),81	253,(2, 45),6	271,(4, 42),6	283,(4, 57),36	325,(4, 75),9	349,(4, 81),24	373,(2, 42),108	481,(2, 66),54	535,(2, 72),6	541,(2, 78),48	589,(2, 81),141	730,(2, 93),3	733,(2, 96),3	763,(2, 111),3	766,(2, 114),6	784,(5, 18),3	787,(5, 21),24	811,(5, 30),75	886,(5, 33),9	952,(5, 66),45	1024,(5, 90),18	1042,(5, 96),3	1054,(5, 102),33	1087,(5, 105),18	1111,(5, 111),3	1156,(8, 21),3	1159,(8, 24),3	1162,(8, 30),6	1168,(8, 33),27	1195,(8, 36),24	1219,(8, 57),3	1222,(8, 78),3	1225,(11, 24),9	1234,(11, 27),15	1249,(11, 60),15	1264,(11, 99),3	1267,(11, 105),27	1294,(11, 114),6	1330,(4, 93),255	1585,(4, 96),3	1588,(4, 105),12	1600,(11, 111),18	1705,(8, 93),87	2029,(11, 75),72	2455,(4, 117),51	2506,(1, 18),891	3397,(1, 21),27	3424,(1, 24),9	3442,(1, 30),750	4198,(1, 63),30	4249,(1, 66),12	4273,(1, 93),63	4336,(1, 99),9	4345,(1, 102),6	4450,(7, 24),3	4453,(7, 27),3	4456,(7, 33),3	4579,(7, 51),54	4633,(7, 54),6	4660,(7, 63),6	4666,(7, 66),60	4732,(7, 69),6	4753,(7, 75),18	4873,(7, 84),6	4879,(11, 108),273	5560,(7, 93),3	5566,(7, 99),6	5572,(7, 108),12	5590,(7, 114),6	5905,(10, 27),15	5923,(10, 42),27	5974,(10, 57),27	6001,(10, 60),138	6139,(10, 66),27	6166,(10, 72),3	6223,(10, 87),3	6229,(10, 93),54	6313,(10, 111),30	6343,(10, 117),3	
1,(0, 2),6	13,(0, 5),6	25,(0, 8),6	37,(0, 11),6	43,(3, 17),15	58,(3, 26),3	61,(3, 56),3	64,(3, 62),6	70,(3, 71),21	91,(3, 74),3	94,(3, 98),9	103,(3, 110),3	106,(6, 20),6	112,(6, 23),3	115,(6, 44),9	124,(6, 68),3	127,(4, 23),3	130,(6, 83),3	133,(4, 26),33	166,(3, 77),60	226,(6, 86),18	244,(6, 92),3	247,(4, 35),24	271,(6, 101),6	277,(4, 56),6	283,(6, 29),24	307,(6, 107),12	319,(4, 62),3	322,(4, 65),3	325,(6, 113),6	331,(9, 77),3	334,(4, 80),15	349,(9, 35),15	364,(9, 101),6	373,(4, 83),12	385,(4, 86),945	1330,(3, 86),42	1600,(4, 107),174	1774,(4, 113),681	2455,(6, 53),84	2539,(6, 89),129	2668,(6, 116),24	2692,(9, 14),27	2719,(9, 20),30	2749,(9, 47),24	2773,(9, 53),45	2818,(9, 56),48	2866,(9, 62),33	3004,(9, 89),18	3022,(9, 113),3	3025,(9, 116),153	3178,(12, 38),3	3181,(12, 41),105	3286,(12, 50),111	3397,(12, 53),3	3400,(12, 68),18	3418,(12, 74),9	3433,(1, 26),9	3442,(12, 62),630	4192,(1, 53),3	4195,(1, 56),3	4201,(12, 98),27	4228,(1, 65),21	4261,(1, 80),12	4351,(1, 104),9	4360,(1, 110),9	4369,(1, 116),3	4372,(1, 119),78	4459,(7, 38),9	4468,(7, 44),108	4576,(7, 47),3	4639,(7, 59),6	4645,(7, 62),15	4726,(7, 68),6	4738,(7, 71),15	4771,(7, 80),102	4879,(7, 86),681	5563,(7, 98),3	5584,(7, 110),6	5596,(7, 116),180	5776,(10, 14),21	5797,(10, 20),24	5821,(10, 23),3	5824,(10, 26),81	5920,(10, 32),3	5950,(10, 44),3	5953,(10, 56),21	6169,(10, 74),3	6172,(10, 77),3	6175,(10, 83),48	6226,(10, 89),3	6283,(10, 95),27	6310,(10, 110),3	6346,(10, 119),18	6364,(12, 101),318	
25,(2, 13),6	31,(2, 19),48	79,(2, 22),33	112,(2, 28),15	127,(2, 31),6	133,(3, 25),3	136,(3, 34),6	142,(2, 40),111	253,(3, 49),3	256,(3, 64),3	259,(2, 55),48	307,(2, 67),45	352,(2, 85),6	358,(2, 97),12	370,(3, 19),42	412,(3, 46),18	430,(3, 52),33	463,(3, 55),84	547,(3, 58),12	559,(3, 118),3	562,(6, 13),12	574,(6, 16),39	613,(6, 31),6	619,(6, 61),33	652,(6, 64),33	685,(6, 88),3	688,(6, 97),30	718,(6, 112),3	721,(6, 115),15	736,(2, 103),27	763,(120, 121),3	766,(9, 31),3	769,(9, 40),3	772,(5, 13),12	784,(9, 13),66	850,(9, 43),3	853,(9, 67),12	865,(9, 97),3	868,(9, 103),12	880,(12, 13),9	889,(12, 85),3	892,(12, 106),3	895,(5, 64),57	952,(12, 22),9	961,(12, 46),9	970,(12, 70),9	979,(48, 121),3	982,(39, 121),3	985,(15, 121),3	988,(45, 121),3	991,(81, 121),3	997,(5, 67),3	1000,(5, 82),24	1045,(5, 97),9	1054,(9, 16),48	1102,(90, 121),3	1105,(5, 109),6	1114,(5, 115),42	1156,(6, 49),150	1306,(8, 31),3	1309,(8, 58),3	1312,(8, 73),45	1357,(8, 85),3	1360,(8, 91),3	1363,(11, 19),9	1372,(6, 52),252	1624,(8, 76),24	1648,(8, 82),57	1705,(9, 79),48	1753,(36, 121),3	1756,(78, 121),3	1759,(96, 121),3	1762,(105, 121),3	1792,(8, 106),12	1804,(8, 118),12	1816,(11, 34),69	1885,(11, 40),69	1954,(11, 52),54	2008,(11, 58),3	2011,(11, 67),3	2014,(11, 70),15	2029,(12, 28),48	2101,(11, 82),18	2119,(11, 85),3	2122,(11, 88),3	2125,(11, 94),66	2191,(11, 103),144	2335,(11, 115),30	2365,(11, 118),21	2386,(17, 121),3	2389,(92, 121),3	2392,(29, 121),3	2395,(35, 121),3	2398,(107, 121),3	2899,(9, 76),105	3043,(113, 121),3	3304,(41, 121),3	3415,(50, 121),3	3427,(18, 121),3	4072,(12, 73),129	4213,(53, 121),3	4228,(21, 121),3	4231,(30, 121),3	4267,(65, 121),3	4369,(102, 121),3	4378,(104, 121),3	4471,(24, 121),3	4486,(38, 121),3	4489,(33, 121),3	4597,(47, 121),3	4651,(51, 121),3	4663,(59, 121),3	4669,(54, 121),3	4681,(62, 121),3	4687,(63, 121),3	4750,(68, 121),3	4756,(69, 121),3	4771,(71, 121),3	4789,(75, 121),3	4897,(84, 121),3	5152,(80, 121),3	5578,(86, 121),3	5590,(99, 121),3	5596,(98, 121),3	5608,(108, 121),3	5626,(114, 121),3	5794,(116, 121),3	5815,(14, 121),3	5839,(20, 121),3	5857,(23, 121),3	5923,(26, 121),3	5938,(27, 121),3	5941,(32, 121),3	5968,(42, 121),3	5971,(44, 121),3	5992,(56, 121),3	6019,(57, 121),3	6157,(60, 121),3	6184,(66, 121),3	6190,(74, 121),3	6202,(72, 121),3	6208,(77, 121),3	6241,(83, 121),3	6244,(87, 121),3	6259,(89, 121),3	6301,(93, 121),3	6328,(95, 121),3	6346,(110, 121),3	6361,(111, 121),3	6382,(119, 121),3	6682,(117, 121),3	6700,(101, 121),3	
# Outgoing
43,(3, 17),15	58,(3, 26),3	61,(3, 56),3	64,(3, 62),6	70,(3, 71),21	91,(3, 74),3	94,(3, 98),9	103,(3, 110),3	106,(6, 20),6	112,(6, 23),3	115,(6, 44),9	124,(6, 68),3	130,(6, 83),3	133,(3, 25),3	136,(3, 34),6	166,(3, 77),60	226,(6, 86),18	244,(6, 92),3	253,(3, 49),3	256,(3, 64),3	271,(6, 101),6	283,(6, 29),24	307,(6, 107),12	325,(6, 113),6	331,(9, 77),3	349,(9, 35),15	364,(9, 101),6	370,(3, 19),42	412,(3, 46),18	430,(3, 52),33	463,(3, 55),84	547,(3, 58),12	559,(3, 118),3	562,(6, 13),12	574,(6, 16),39	613,(6, 31),6	619,(6, 61),33	652,(6, 64),33	685,(6, 88),3	688,(6, 97),30	718,(6, 112),3	721,(6, 115),15	763,(120, 121),3	766,(9, 31),3	769,(9, 40),3	784,(9, 13),66	850,(9, 43),3	853,(9, 67),12	865,(9, 97),3	868,(9, 103),12	880,(12, 13),9	889,(12, 85),3	892,(12, 106),3	952,(12, 22),9	961,(12, 46),9	970,(12, 70),9	979,(48, 121),3	982,(39, 121),3	985,(15, 121),3	988,(45, 121),3	991,(81, 121),3	1054,(9, 16),48	1102,(90, 121),3	1156,(6, 49),150	1330,(3, 86),42	1372,(6, 52),252	1705,(9, 79),48	1753,(36, 121),3	1756,(78, 121),3	1759,(96, 121),3	1762,(105, 121),3	2029,(12, 28),48	2455,(6, 53),84	2539,(6, 89),129	2668,(6, 116),24	2692,(9, 14),27	2719,(9, 20),30	2749,(9, 47),24	2773,(9, 53),45	2818,(9, 56),48	2866,(9, 62),33	2899,(9, 76),105	3004,(9, 89),18	3022,(9, 113),3	3025,(9, 116),153	3178,(12, 38),3	3181,(12, 41),105	3286,(12, 50),111	3397,(12, 53),3	3400,(12, 68),18	3418,(12, 74),9	3427,(18, 121),3	3442,(12, 62),630	4072,(12, 73),129	4201,(12, 98),27	4228,(21, 121),3	4231,(30, 121),3	4369,(102, 121),3	4471,(24, 121),3	4489,(33, 121),3	4651,(51, 121),3	4669,(54, 121),3	4687,(63, 121),3	4756,(69, 121),3	4789,(75, 121),3	4897,(84, 121),3	5590,(99, 121),3	5608,(108, 121),3	5626,(114, 121),3	5938,(27, 121),3	5968,(42, 121),3	6019,(57, 121),3	6157,(60, 121),3	6184,(66, 121),3	6202,(72, 121),3	6244,(87, 121),3	6301,(93, 121),3	6361,(111, 121),3	6364,(12, 101),318	6682,(117, 121),3	
25,(2, 13),6	31,(2, 19),48	79,(2, 22),33	112,(2, 28),15	127,(2, 31),6	133,(2, 36),9	142,(2, 40),111	253,(2, 45),6	259,(2, 55),48	307,(2, 67),45	352,(2, 85),6	358,(2, 97),12	373,(2, 42),108	481,(2, 66),54	535,(2, 72),6	541,(2, 78),48	589,(2, 81),141	730,(2, 93),3	733,(2, 96),3	736,(2, 103),27	763,(2, 111),3	766,(2, 114),6	772,(5, 13),12	784,(5, 18),3	787,(5, 21),24	811,(5, 30),75	886,(5, 33),9	895,(5, 64),57	952,(5, 66),45	997,(5, 67),3	1000,(5, 82),24	1024,(5, 90),18	1042,(5, 96),3	1045,(5, 97),9	1054,(5, 102),33	1087,(5, 105),18	1105,(5, 109),6	1111,(5, 111),3	1114,(5, 115),42	1156,(8, 21),3	1159,(8, 24),3	1162,(8, 30),6	1168,(8, 33),27	1195,(8, 36),24	1219,(8, 57),3	1222,(8, 78),3	1225,(11, 24),9	1234,(11, 27),15	1249,(11, 60),15	1264,(11, 99),3	1267,(11, 105),27	1294,(11, 114),6	1306,(8, 31),3	1309,(8, 58),3	1312,(8, 73),45	1357,(8, 85),3	1360,(8, 91),3	1363,(11, 19),9	1600,(11, 111),18	1624,(8, 76),24	1648,(8, 82),57	1705,(8, 93),87	1792,(8, 106),12	1804,(8, 118),12	1816,(11, 34),69	1885,(11, 40),69	1954,(11, 52),54	2008,(11, 58),3	2011,(11, 67),3	2014,(11, 70),15	2029,(11, 75),72	2101,(11, 82),18	2119,(11, 85),3	2122,(11, 88),3	2125,(11, 94),66	2191,(11, 103),144	2335,(11, 115),30	2365,(11, 118),21	2386,(17, 121),3	2389,(92, 121),3	2392,(29, 121),3	2395,(35, 121),3	2398,(107, 121),3	3043,(113, 121),3	3304,(41, 121),3	3415,(50, 121),3	4213,(53, 121),3	4267,(65, 121),3	4378,(104, 121),3	4486,(38, 121),3	4597,(47, 121),3	4663,(59, 121),3	4681,(62, 121),3	4750,(68, 121),3	4771,(71, 121),3	4879,(11, 108),273	5152,(80, 121),3	5578,(86, 121),3	5596,(98, 121),3	5794,(116, 121),3	5815,(14, 121),3	5839,(20, 121),3	5857,(23, 121),3	5923,(26, 121),3	5941,(32, 121),3	5971,(44, 121),3	5992,(56, 121),3	6190,(74, 121),3	6208,(77, 121),3	6241,(83, 121),3	6259,(89, 121),3	6328,(95, 121),3	6346,(110, 121),3	6382,(119, 121),3	6700,(101, 121),3	
1,(0, 2),6	7,(0, 3),6	13,(0, 5),6	19,(0, 6),6	25,(0, 8),6	31,(0, 9),6	37,(0, 11),6	43,(0, 12),6	49,(4, 15),30	79,(4, 21),48	127,(4, 23),3	130,(4, 24),3	133,(4, 26),33	166,(4, 27),81	247,(4, 35),24	271,(4, 42),6	277,(4, 56),6	283,(4, 57),36	319,(4, 62),3	322,(4, 65),3	325,(4, 75),9	334,(4, 80),15	349,(4, 81),24	373,(4, 83),12	385,(4, 86),945	1330,(4, 93),255	1585,(4, 96),3	1588,(4, 105),12	1600,(4, 107),174	1774,(4, 113),681	2455,(4, 117),51	2506,(1, 18),891	3397,(1, 21),27	3424,(1, 24),9	3433,(1, 26),9	3442,(1, 30),750	4192,(1, 53),3	4195,(1, 56),3	4198,(1, 63),30	4228,(1, 65),21	4249,(1, 66),12	4261,(1, 80),12	4273,(1, 93),63	4336,(1, 99),9	4345,(1, 102),6	4351,(1, 104),9	4360,(1, 110),9	4369,(1, 116),3	4372,(1, 119),78	4450,(7, 24),3	4453,(7, 27),3	4456,(7, 33),3	4459,(7, 38),9	4468,(7, 44),108	4576,(7, 47),3	4579,(7, 51),54	4633,(7, 54),6	4639,(7, 59),6	4645,(7, 62),15	4660,(7, 63),6	4666,(7, 66),60	4726,(7, 68),6	4732,(7, 69),6	4738,(7, 71),15	4753,(7, 75),18	4771,(7, 80),102	4873,(7, 84),6	4879,(7, 86),681	5560,(7, 93),3	5563,(7, 98),3	5566,(7, 99),6	5572,(7, 108),12	5584,(7, 110),6	5590,(7, 114),6	5596,(7, 116),180	5776,(10, 14),21	5797,(10, 20),24	5821,(10, 23),3	5824,(10, 26),81	5905,(10, 27),15	5920,(10, 32),3	5923,(10, 42),27	5950,(10, 44),3	5953,(10, 56),21	5974,(10, 57),27	6001,(10, 60),138	6139,(10, 66),27	6166,(10, 72),3	6169,(10, 74),3	6172,(10, 77),3	6175,(10, 83),48	6223,(10, 87),3	6226,(10, 89),3	6229,(10, 93),54	6283,(10, 95),27	6310,(10, 110),3	6313,(10, 111),30	6343,(10, 117),3	6346,(10, 119),18	
