2041
# CPU
144,19,74	218,29,74	292,9,74	366,39,74	690,34,74	903,24,74	1005,14,74	
10,4,74	84,13,74	158,18,74	232,23,74	306,8,74	504,28,74	717,38,74	1881,33,74	
7,3,74	81,12,74	155,22,74	229,7,74	303,32,74	1008,17,74	1082,27,74	1905,37,74	
4,2,74	78,6,74	152,11,74	226,16,74	300,21,74	374,26,74	448,36,74	534,31,74	
0,0,1	1,1,74	156,5,74	645,15,74	873,20,74	947,35,74	1021,10,74	1095,25,74	1169,30,74	1243,40,74	2040,41,1	
# Incoming
126,(1, 19),18	150,(1, 24),27	177,(1, 29),9	186,(2, 9),6	213,(1, 39),87	534,(3, 34),156	873,(2, 24),30	966,(4, 14),39	
7,(0, 4),3	81,(3, 8),72	162,(2, 8),6	204,(3, 28),300	690,(3, 38),27	903,(2, 33),978	
4,(0, 3),3	75,(1, 7),33	156,(2, 7),6	186,(1, 32),21	1005,(4, 17),3	1011,(4, 27),6	1881,(2, 37),24	
1,(0, 2),3	108,(1, 16),18	144,(1, 21),6	153,(3, 16),12	174,(3, 21),3	177,(3, 26),27	207,(1, 36),6	504,(3, 31),30	
78,(2, 5),78	165,(3, 20),9	192,(2, 10),36	228,(2, 15),417	645,(2, 20),228	873,(3, 35),12	885,(4, 10),81	966,(12, 41),15	981,(19, 41),15	1008,(4, 25),3	1017,(4, 30),6	1023,(4, 40),27	1050,(13, 41),15	1065,(22, 41),15	1080,(18, 41),15	1095,(29, 41),15	1110,(7, 41),15	1125,(23, 41),15	1140,(9, 41),15	1155,(32, 41),15	1170,(8, 41),15	1185,(39, 41),15	1200,(28, 41),15	1215,(34, 41),15	1230,(38, 41),15	1245,(24, 41),15	1260,(14, 41),15	1275,(17, 41),15	1290,(27, 41),15	1905,(6, 41),15	1920,(11, 41),15	1935,(16, 41),15	1950,(21, 41),15	1965,(26, 41),15	1980,(36, 41),15	1995,(31, 41),15	2010,(33, 41),15	2025,(37, 41),15	
# Outgoing
981,(19, 41),15	1095,(29, 41),15	1140,(9, 41),15	1185,(39, 41),15	1215,(34, 41),15	1245,(24, 41),15	1260,(14, 41),15	
885,(4, 10),81	966,(4, 14),39	1005,(4, 17),3	1008,(4, 25),3	1011,(4, 27),6	1017,(4, 30),6	1023,(4, 40),27	1050,(13, 41),15	1080,(18, 41),15	1125,(23, 41),15	1170,(8, 41),15	1200,(28, 41),15	1230,(38, 41),15	2010,(33, 41),15	
81,(3, 8),72	153,(3, 16),12	165,(3, 20),9	174,(3, 21),3	177,(3, 26),27	204,(3, 28),300	504,(3, 31),30	534,(3, 34),156	690,(3, 38),27	873,(3, 35),12	966,(12, 41),15	1065,(22, 41),15	1110,(7, 41),15	1155,(32, 41),15	1275,(17, 41),15	1290,(27, 41),15	2025,(37, 41),15	
78,(2, 5),78	156,(2, 7),6	162,(2, 8),6	186,(2, 9),6	192,(2, 10),36	228,(2, 15),417	645,(2, 20),228	873,(2, 24),30	903,(2, 33),978	1881,(2, 37),24	1905,(6, 41),15	1920,(11, 41),15	1935,(16, 41),15	1950,(21, 41),15	1965,(26, 41),15	1980,(36, 41),15	1995,(31, 41),15	
1,(0, 2),3	4,(0, 3),3	7,(0, 4),3	75,(1, 7),33	108,(1, 16),18	126,(1, 19),18	144,(1, 21),6	150,(1, 24),27	177,(1, 29),9	186,(1, 32),21	207,(1, 36),6	213,(1, 39),87	
