122
# CPU
0,0,1	1,1,10	11,15,10	21,4,10	31,8,10	41,20,10	51,17,10	61,7,10	71,2,10	81,5,10	91,6,10	101,3,10	111,12,10	121,21,1	
12,11,10	22,13,10	70,9,10	82,14,10	92,10,10	
14,16,10	31,18,10	83,19,10	
# Incoming
22,(11, 21),2	24,(16, 21),2	32,(13, 21),2	41,(18, 21),2	80,(9, 21),2	92,(14, 21),2	94,(19, 21),2	102,(10, 21),2	
11,(1, 11),1	14,(1, 13),5	31,(1, 9),39	70,(1, 10),3	81,(2, 14),1	83,(2, 10),3	
12,(1, 16),2	19,(1, 18),12	82,(2, 19),1	
# Outgoing
11,(1, 11),1	12,(1, 16),2	14,(1, 13),5	19,(1, 18),12	31,(1, 9),39	70,(1, 10),3	81,(2, 14),1	82,(2, 19),1	83,(2, 10),3	
22,(11, 21),2	32,(13, 21),2	80,(9, 21),2	92,(14, 21),2	102,(10, 21),2	
24,(16, 21),2	41,(18, 21),2	94,(19, 21),2	
