53
# CPU
0,21,1	1,7,3	4,5,3	7,6,3	10,8,3	13,9,3	16,13,3	19,16,3	22,15,3	25,10,3	28,19,3	31,12,3	34,17,3	37,20,3	40,14,3	43,4,3	46,1,3	49,2,3	52,0,1	
28,3,3	


10,18,3	19,11,3	
# Incoming
13,(18, 2),6	22,(11, 2),9	31,(3, 2),12	
19,(21, 3),9	


1,(21, 18),9	10,(21, 11),9	
# Outgoing
1,(21, 18),9	10,(21, 11),9	19,(21, 3),9	
31,(3, 2),12	


13,(18, 2),6	22,(11, 2),9	
