974
# CPU
0,81,1	1,37,14	15,9,14	29,30,14	43,14,14	57,26,14	71,63,14	85,51,14	99,22,14	113,45,14	127,17,14	141,47,14	155,35,14	169,29,14	183,70,14	197,24,14	211,23,14	225,48,14	239,72,14	253,33,14	267,55,14	281,66,14	295,25,14	309,10,14	323,43,14	337,15,14	351,31,14	365,46,14	379,16,14	393,64,14	407,78,14	421,54,14	435,65,14	449,11,14	463,77,14	477,62,14	491,42,14	505,39,14	519,19,14	533,61,14	547,50,14	561,20,14	575,38,14	589,34,14	603,41,14	617,67,14	631,18,14	645,75,14	659,28,14	673,52,14	687,40,14	701,21,14	715,13,14	729,71,14	743,49,14	757,56,14	771,59,14	785,36,14	799,76,14	813,44,14	827,4,14	841,53,14	855,2,14	869,7,14	883,6,14	897,3,14	911,1,14	925,8,14	959,5,14	973,0,1	
202,74,14	269,58,14	336,69,14	470,27,14	537,32,14	604,73,14	
738,12,14	


135,68,14	

403,79,14	

68,60,14	671,80,14	805,57,14	
# Incoming
82,(60, 4),1	149,(68, 2),4	153,(68, 7),3	156,(68, 3),1	157,(68, 1),5	283,(58, 2),3	286,(74, 6),1	287,(58, 6),8	295,(74, 8),6	301,(58, 8),1	350,(69, 2),6	356,(69, 3),9	365,(69, 5),1	417,(79, 1),1	418,(79, 5),11	484,(27, 7),3	487,(27, 3),19	506,(27, 5),1	551,(32, 3),8	559,(32, 8),25	618,(73, 1),30	685,(80, 7),17	702,(80, 6),1	703,(80, 8),40	743,(80, 5),1	752,(12, 4),1	753,(12, 6),16	769,(12, 1),48	819,(57, 4),1	820,(57, 2),2	822,(57, 1),5	827,(12, 8),23	850,(57, 5),109	
135,(81, 74),67	202,(81, 58),67	269,(81, 69),67	403,(81, 27),67	470,(81, 32),67	537,(81, 73),67	
671,(81, 12),67	


68,(81, 68),67	

336,(81, 79),67	

1,(81, 60),67	604,(81, 80),67	738,(81, 57),67	
# Outgoing
1,(81, 60),67	68,(81, 68),67	135,(81, 74),67	202,(81, 58),67	269,(81, 69),67	336,(81, 79),67	403,(81, 27),67	470,(81, 32),67	537,(81, 73),67	604,(81, 80),67	671,(81, 12),67	738,(81, 57),67	
283,(58, 2),3	286,(74, 6),1	287,(58, 6),8	295,(74, 8),6	301,(58, 8),1	350,(69, 2),6	356,(69, 3),9	365,(69, 5),1	484,(27, 7),3	487,(27, 3),19	506,(27, 5),1	551,(32, 3),8	559,(32, 8),25	618,(73, 1),30	
752,(12, 4),1	753,(12, 6),16	769,(12, 1),48	827,(12, 8),23	


149,(68, 2),4	153,(68, 7),3	156,(68, 3),1	157,(68, 1),5	

417,(79, 1),1	418,(79, 5),11	

82,(60, 4),1	685,(80, 7),17	702,(80, 6),1	703,(80, 8),40	743,(80, 5),1	819,(57, 4),1	820,(57, 2),2	822,(57, 1),5	850,(57, 5),109	
