439
# CPU
0,0,1	1,10,2	3,44,2	5,99,2	7,3,2	9,52,2	11,6,2	13,64,2	15,111,2	17,65,2	19,85,2	21,8,2	23,90,2	25,76,2	27,102,2	29,7,2	31,29,2	33,39,2	35,115,2	37,49,2	39,40,2	41,96,2	43,91,2	45,58,2	47,1,2	49,97,2	51,106,2	53,35,2	55,98,2	57,19,2	59,78,2	61,11,2	63,18,2	65,75,2	67,50,2	69,47,2	71,13,2	73,43,2	75,41,2	77,26,2	79,107,2	81,101,2	83,5,2	85,25,2	87,57,2	89,45,2	91,61,2	93,56,2	95,68,2	97,108,2	99,12,2	101,21,2	103,67,2	105,66,2	107,72,2	109,92,2	111,28,2	113,37,2	115,27,2	117,104,2	119,16,2	121,77,2	123,14,2	125,60,2	127,71,2	129,34,2	131,70,2	133,4,2	135,119,2	137,24,2	139,110,2	141,31,2	143,51,2	145,116,2	147,73,2	149,109,2	151,103,2	153,94,2	155,30,2	157,20,2	159,69,2	161,54,2	163,46,2	165,114,2	167,95,2	169,88,2	171,23,2	173,117,2	175,62,2	177,87,2	179,2,2	181,74,2	183,81,2	185,36,2	187,105,2	189,59,2	191,93,2	193,82,2	195,79,2	197,83,2	199,38,2	201,86,2	203,33,2	205,22,2	207,55,2	209,118,2	211,17,2	213,63,2	438,121,1	
104,42,2	141,15,2	


46,9,2	48,53,2	50,120,2	52,32,2	54,89,2	56,113,2	61,80,2	85,84,2	122,100,2	138,112,2	165,48,2	
# Incoming
48,(9, 118),3	51,(9, 17),3	54,(9, 63),60	114,(53, 121),27	141,(120, 121),27	168,(32, 121),27	195,(89, 121),27	222,(113, 121),27	249,(80, 121),27	276,(84, 121),27	303,(42, 121),27	330,(100, 121),27	357,(112, 121),27	384,(15, 121),27	411,(48, 121),27	
85,(1, 42),6	91,(11, 42),3	101,(12, 42),3	122,(11, 15),9	138,(4, 15),3	


1,(0, 9),45	46,(3, 113),3	49,(1, 80),12	61,(7, 84),3	64,(1, 84),21	94,(10, 112),3	104,(7, 100),15	119,(12, 100),3	135,(4, 112),3	141,(12, 48),24	
# Outgoing
1,(0, 9),45	46,(3, 113),3	49,(1, 80),12	61,(7, 84),3	64,(1, 84),21	85,(1, 42),6	91,(11, 42),3	94,(10, 112),3	101,(12, 42),3	104,(7, 100),15	119,(12, 100),3	122,(11, 15),9	135,(4, 112),3	138,(4, 15),3	141,(12, 48),24	
303,(42, 121),27	384,(15, 121),27	


48,(9, 118),3	51,(9, 17),3	54,(9, 63),60	114,(53, 121),27	141,(120, 121),27	168,(32, 121),27	195,(89, 121),27	222,(113, 121),27	249,(80, 121),27	276,(84, 121),27	330,(100, 121),27	357,(112, 121),27	411,(48, 121),27	
