4186
# CPU
399,36,10	409,58,10	419,51,10	677,45,10	687,27,10	697,40,10	753,72,10	769,66,10	1097,34,10	4161,80,10	
525,38,10	535,24,10	557,33,10	567,41,10	665,61,10	677,47,10	997,53,10	1037,68,10	1121,76,10	1131,31,10	
505,8,10	515,35,10	525,65,10	581,39,10	615,18,10	631,28,10	705,44,10	845,49,10	1009,56,10	1065,71,10	1189,79,10	
433,7,10	443,48,10	453,64,10	463,25,10	517,17,10	653,42,10	669,78,10	785,55,10	973,37,10	1057,70,10	
361,6,10	371,16,10	395,52,10	405,74,10	521,22,10	589,29,10	673,59,10	737,46,10	1101,67,10	4185,81,1	
289,5,10	299,62,10	325,15,10	381,26,10	471,21,10	647,54,10	913,75,10	1141,77,10	4125,69,10	
217,4,10	227,73,10	387,14,10	549,19,10	669,50,10	765,57,10	1085,23,10	4117,60,10	
145,3,10	447,11,10	657,30,10	929,63,10	993,20,10	1017,13,10	
73,2,10	83,12,10	183,10,10	993,43,10	
0,0,1	1,1,10	611,9,10	3989,32,10	
# Incoming
387,(2, 36),12	399,(3, 58),4	403,(4, 51),4	447,(4, 34),36	581,(4, 45),92	673,(5, 45),4	677,(6, 27),8	685,(6, 40),4	709,(5, 72),44	753,(6, 66),16	1085,(8, 34),12	4125,(8, 80),36	
521,(1, 38),4	525,(1, 41),4	529,(4, 24),4	533,(4, 33),24	557,(7, 41),4	647,(6, 68),4	657,(2, 61),8	673,(4, 47),4	677,(4, 68),28	993,(3, 53),4	997,(3, 68),40	1037,(4, 76),84	1121,(8, 31),4	
433,(0, 8),72	505,(2, 71),4	509,(4, 71),4	557,(4, 39),24	611,(6, 18),4	615,(6, 28),16	653,(1, 44),52	705,(5, 71),4	737,(1, 49),28	765,(7, 49),80	973,(4, 56),36	1057,(3, 71),8	1141,(6, 79),48	
361,(0, 7),72	433,(2, 42),4	437,(3, 25),24	461,(3, 42),12	473,(5, 17),44	529,(1, 42),124	653,(6, 70),12	665,(6, 78),4	689,(6, 55),44	765,(1, 55),20	785,(4, 37),188	1037,(3, 70),20	
289,(0, 6),72	371,(3, 52),24	395,(4, 46),4	399,(4, 74),4	407,(73, 81),4	411,(12, 81),4	415,(10, 81),4	419,(4, 22),28	447,(36, 81),4	451,(58, 81),4	455,(51, 81),4	479,(48, 81),4	483,(14, 81),4	487,(64, 81),4	491,(25, 81),4	509,(1, 22),12	527,(17, 81),4	535,(38, 81),4	545,(24, 81),4	549,(5, 29),40	589,(33, 81),4	593,(41, 81),4	663,(42, 81),4	669,(5, 59),4	677,(62, 81),4	681,(15, 81),4	685,(26, 81),4	689,(21, 81),4	693,(54, 81),4	697,(61, 81),4	701,(45, 81),4	705,(1, 46),32	737,(19, 81),4	741,(50, 81),4	745,(47, 81),4	749,(27, 81),4	753,(40, 81),4	763,(72, 81),4	775,(57, 81),4	779,(66, 81),4	785,(9, 81),4	845,(78, 81),4	849,(55, 81),4	923,(75, 81),4	993,(37, 81),4	1003,(43, 81),4	1007,(53, 81),4	1047,(68, 81),4	1065,(11, 81),4	1069,(30, 81),4	1073,(63, 81),4	1077,(20, 81),4	1081,(13, 81),4	1085,(70, 81),4	1097,(8, 67),4	1101,(35, 81),4	1105,(65, 81),4	1109,(39, 81),4	1113,(18, 81),4	1117,(28, 81),4	1121,(23, 81),4	1125,(34, 81),4	1131,(76, 81),4	1141,(31, 81),4	1151,(77, 81),4	3999,(32, 81),4	4127,(60, 81),4	4135,(69, 81),4	4161,(44, 81),4	4165,(49, 81),4	4169,(56, 81),4	4173,(71, 81),4	4177,(79, 81),4	4181,(80, 81),4	
217,(0, 5),72	289,(3, 69),32	321,(4, 15),4	325,(4, 26),56	447,(7, 21),24	471,(7, 54),8	631,(6, 54),16	769,(6, 75),144	913,(6, 77),228	4117,(8, 69),8	
145,(0, 4),72	367,(2, 14),20	399,(2, 57),12	517,(5, 19),32	589,(5, 50),80	669,(7, 57),96	1017,(8, 23),68	3989,(8, 60),128	
73,(0, 3),72	443,(7, 11),4	505,(1, 13),4	509,(2, 30),148	665,(2, 63),264	929,(7, 20),64	993,(8, 13),24	
1,(0, 2),72	155,(3, 10),28	473,(3, 43),520	
83,(2, 9),284	367,(3, 32),4	371,(6, 9),240	611,(7, 32),8	1125,(8, 32),2864	
# Outgoing
447,(36, 81),4	451,(58, 81),4	455,(51, 81),4	701,(45, 81),4	749,(27, 81),4	753,(40, 81),4	763,(72, 81),4	779,(66, 81),4	1125,(34, 81),4	4181,(80, 81),4	
535,(38, 81),4	545,(24, 81),4	589,(33, 81),4	593,(41, 81),4	697,(61, 81),4	745,(47, 81),4	1007,(53, 81),4	1047,(68, 81),4	1131,(76, 81),4	1141,(31, 81),4	
993,(8, 13),24	1017,(8, 23),68	1085,(8, 34),12	1097,(8, 67),4	1101,(35, 81),4	1105,(65, 81),4	1109,(39, 81),4	1113,(18, 81),4	1117,(28, 81),4	1121,(8, 31),4	1125,(8, 32),2864	3989,(8, 60),128	4117,(8, 69),8	4125,(8, 80),36	4161,(44, 81),4	4165,(49, 81),4	4169,(56, 81),4	4173,(71, 81),4	4177,(79, 81),4	
443,(7, 11),4	447,(7, 21),24	471,(7, 54),8	479,(48, 81),4	487,(64, 81),4	491,(25, 81),4	527,(17, 81),4	557,(7, 41),4	611,(7, 32),8	663,(42, 81),4	669,(7, 57),96	765,(7, 49),80	845,(78, 81),4	849,(55, 81),4	929,(7, 20),64	993,(37, 81),4	1085,(70, 81),4	
371,(6, 9),240	611,(6, 18),4	615,(6, 28),16	631,(6, 54),16	647,(6, 68),4	653,(6, 70),12	665,(6, 78),4	677,(6, 27),8	685,(6, 40),4	689,(6, 55),44	753,(6, 66),16	769,(6, 75),144	913,(6, 77),228	1141,(6, 79),48	
473,(5, 17),44	517,(5, 19),32	549,(5, 29),40	589,(5, 50),80	669,(5, 59),4	673,(5, 45),4	677,(62, 81),4	681,(15, 81),4	685,(26, 81),4	689,(21, 81),4	693,(54, 81),4	705,(5, 71),4	709,(5, 72),44	923,(75, 81),4	1151,(77, 81),4	4135,(69, 81),4	
321,(4, 15),4	325,(4, 26),56	395,(4, 46),4	399,(4, 74),4	403,(4, 51),4	407,(73, 81),4	419,(4, 22),28	447,(4, 34),36	483,(14, 81),4	509,(4, 71),4	529,(4, 24),4	533,(4, 33),24	557,(4, 39),24	581,(4, 45),92	673,(4, 47),4	677,(4, 68),28	737,(19, 81),4	741,(50, 81),4	775,(57, 81),4	785,(4, 37),188	973,(4, 56),36	1037,(4, 76),84	1121,(23, 81),4	4127,(60, 81),4	
155,(3, 10),28	289,(3, 69),32	367,(3, 32),4	371,(3, 52),24	399,(3, 58),4	437,(3, 25),24	461,(3, 42),12	473,(3, 43),520	993,(3, 53),4	997,(3, 68),40	1037,(3, 70),20	1057,(3, 71),8	1065,(11, 81),4	1069,(30, 81),4	1073,(63, 81),4	1077,(20, 81),4	1081,(13, 81),4	
83,(2, 9),284	367,(2, 14),20	387,(2, 36),12	399,(2, 57),12	411,(12, 81),4	415,(10, 81),4	433,(2, 42),4	505,(2, 71),4	509,(2, 30),148	657,(2, 61),8	665,(2, 63),264	1003,(43, 81),4	
1,(0, 2),72	73,(0, 3),72	145,(0, 4),72	217,(0, 5),72	289,(0, 6),72	361,(0, 7),72	433,(0, 8),72	505,(1, 13),4	509,(1, 22),12	521,(1, 38),4	525,(1, 41),4	529,(1, 42),124	653,(1, 44),52	705,(1, 46),32	737,(1, 49),28	765,(1, 55),20	785,(9, 81),4	3999,(32, 81),4	
