1671
# CPU
0,0,1	1,5,5	6,17,5	11,188,5	16,183,5	21,13,5	26,112,5	31,45,5	36,139,5	41,19,5	46,16,5	51,125,5	56,6,5	61,168,5	66,1,5	71,42,5	76,52,5	81,107,5	86,8,5	91,149,5	96,103,5	101,3,5	106,21,5	111,114,5	116,10,5	121,158,5	126,187,5	131,159,5	136,15,5	141,67,5	146,62,5	151,80,5	156,170,5	161,195,5	166,14,5	171,161,5	176,130,5	181,154,5	186,41,5	191,4,5	196,122,5	201,97,5	206,179,5	211,162,5	216,93,5	221,136,5	226,150,5	231,56,5	236,172,5	241,46,5	246,34,5	251,7,5	256,175,5	261,155,5	266,157,5	271,61,5	276,44,5	281,111,5	286,165,5	291,143,5	296,151,5	301,74,5	306,134,5	311,91,5	316,11,5	321,186,5	326,124,5	331,68,5	336,84,5	341,29,5	346,25,5	351,184,5	356,196,5	361,156,5	366,108,5	371,126,5	376,28,5	381,180,5	386,2,5	391,145,5	396,164,5	401,95,5	406,31,5	411,53,5	416,181,5	421,192,5	426,22,5	431,70,5	436,48,5	441,63,5	446,123,5	451,163,5	456,119,5	461,166,5	466,47,5	471,69,5	476,160,5	481,40,5	486,65,5	491,43,5	496,89,5	501,128,5	506,51,5	511,50,5	516,35,5	521,85,5	526,137,5	531,169,5	536,194,5	541,77,5	546,132,5	551,99,5	556,174,5	561,59,5	566,120,5	571,177,5	576,173,5	581,191,5	586,193,5	591,189,5	596,176,5	601,38,5	606,30,5	611,24,5	616,75,5	621,92,5	626,190,5	631,60,5	636,64,5	641,127,5	646,87,5	651,106,5	656,102,5	678,88,5	716,148,5	754,141,5	796,86,5	842,27,5	902,116,5	1100,199,5	1670,201,1	
23,12,5	28,171,5	45,20,5	50,73,5	55,72,5	60,110,5	65,197,5	70,39,5	75,79,5	97,9,5	102,54,5	107,200,5	112,153,5	117,198,5	122,121,5	127,57,5	143,18,5	148,167,5	153,142,5	158,140,5	165,81,5	173,144,5	189,71,5	198,82,5	210,185,5	222,117,5	234,104,5	250,129,5	258,66,5	263,109,5	268,182,5	278,90,5	294,33,5	314,37,5	325,96,5	331,113,5	343,94,5	361,138,5	379,147,5	393,55,5	398,23,5	407,83,5	419,118,5	433,78,5	451,133,5	473,146,5	495,98,5	517,26,5	541,36,5	565,101,5	589,135,5	617,76,5	647,131,5	679,178,5	711,105,5	743,49,5	779,152,5	817,58,5	857,100,5	939,115,5	1025,32,5	
# Incoming
102,(9, 123),2	104,(9, 163),2	106,(12, 47),2	108,(9, 160),2	110,(20, 40),2	112,(12, 65),2	114,(9, 43),4	118,(9, 89),4	122,(9, 128),4	126,(20, 51),4	130,(20, 50),4	134,(20, 85),6	140,(12, 137),4	144,(9, 137),4	148,(18, 119),2	150,(18, 166),2	152,(18, 69),2	154,(18, 35),6	160,(9, 169),8	168,(12, 194),8	176,(9, 77),10	186,(9, 132),10	196,(9, 99),10	206,(12, 174),10	216,(18, 59),10	226,(12, 120),12	238,(20, 177),12	250,(12, 173),14	264,(20, 191),14	278,(20, 193),14	292,(20, 189),16	308,(9, 176),16	324,(20, 38),2	326,(9, 38),16	342,(20, 30),20	362,(12, 24),22	384,(18, 75),22	406,(12, 92),24	430,(12, 190),4	434,(20, 190),16	450,(9, 190),4	454,(9, 60),26	480,(20, 64),32	512,(20, 127),32	544,(12, 87),16	560,(18, 87),16	576,(20, 106),18	594,(9, 106),16	610,(9, 102),34	644,(12, 88),32	676,(9, 88),2	678,(20, 148),38	716,(9, 141),38	754,(12, 86),32	786,(18, 86),10	796,(9, 27),4	800,(18, 27),42	842,(12, 116),60	902,(9, 199),198	1100,(171, 201),10	1110,(73, 201),10	1120,(72, 201),10	1130,(110, 201),10	1140,(197, 201),10	1150,(39, 201),10	1160,(79, 201),10	1170,(54, 201),10	1180,(200, 201),10	1190,(153, 201),10	1200,(198, 201),10	1210,(121, 201),10	1220,(57, 201),10	1230,(167, 201),10	1240,(142, 201),10	1250,(140, 201),10	1260,(81, 201),10	1270,(144, 201),10	1280,(71, 201),10	1290,(82, 201),10	1300,(185, 201),10	1310,(117, 201),10	1320,(104, 201),10	1330,(129, 201),10	1340,(66, 201),10	1350,(109, 201),10	1360,(182, 201),10	1370,(90, 201),10	1380,(33, 201),10	1390,(37, 201),10	1400,(96, 201),10	1410,(113, 201),10	1420,(94, 201),10	1430,(138, 201),10	1440,(147, 201),10	1450,(55, 201),10	1460,(23, 201),10	1470,(83, 201),10	1480,(118, 201),10	1490,(78, 201),10	1500,(133, 201),10	1510,(146, 201),10	1520,(98, 201),10	1530,(26, 201),10	1540,(36, 201),10	1550,(101, 201),10	1560,(135, 201),10	1570,(76, 201),10	1580,(131, 201),10	1590,(178, 201),10	1600,(105, 201),10	1610,(49, 201),10	1620,(152, 201),10	1630,(58, 201),10	1640,(100, 201),10	1650,(115, 201),10	1660,(32, 201),10	
1,(0, 12),22	23,(0, 20),22	46,(19, 72),2	48,(17, 82),2	51,(16, 110),2	53,(19, 197),4	57,(19, 39),4	61,(16, 39),2	63,(19, 142),4	67,(5, 82),4	71,(1, 79),4	75,(0, 9),22	97,(8, 121),10	107,(8, 57),14	121,(0, 18),22	143,(19, 140),6	149,(8, 81),16	165,(1, 185),2	167,(6, 117),2	169,(1, 129),2	171,(14, 144),2	173,(16, 71),16	189,(15, 104),4	193,(16, 66),2	196,(4, 82),2	198,(4, 185),12	210,(5, 117),10	220,(4, 117),2	222,(16, 104),8	230,(4, 104),4	234,(14, 129),8	242,(4, 129),8	250,(16, 109),4	254,(14, 113),2	256,(7, 66),2	258,(7, 109),2	260,(19, 182),4	264,(7, 182),4	268,(7, 90),10	278,(14, 33),8	286,(7, 33),8	294,(1, 37),20	314,(5, 113),4	318,(4, 113),2	321,(11, 96),4	325,(11, 113),6	331,(13, 94),2	333,(11, 94),10	343,(5, 138),2	345,(4, 138),12	357,(11, 138),4	361,(11, 147),18	379,(3, 55),8	387,(13, 78),2	389,(8, 78),2	391,(2, 55),2	393,(2, 23),4	397,(2, 83),10	407,(16, 118),10	417,(2, 118),2	419,(10, 78),6	425,(2, 78),8	433,(5, 133),2	435,(16, 133),8	443,(1, 133),2	445,(2, 133),6	451,(5, 146),16	467,(8, 146),2	469,(7, 146),4	473,(19, 98),2	475,(2, 98),20	495,(6, 26),8	503,(8, 26),6	509,(4, 26),8	517,(13, 36),22	539,(4, 36),2	541,(16, 101),24	565,(6, 135),12	577,(7, 135),12	589,(13, 76),2	591,(8, 76),4	595,(4, 76),22	617,(16, 131),2	619,(15, 131),20	639,(11, 131),8	647,(16, 178),8	655,(4, 178),24	679,(1, 105),10	689,(8, 105),4	693,(14, 105),18	711,(16, 49),2	713,(15, 49),16	729,(14, 49),2	731,(4, 49),2	733,(11, 49),10	743,(3, 152),10	753,(10, 152),26	779,(3, 58),24	803,(14, 58),14	817,(16, 100),6	823,(8, 100),28	851,(3, 100),2	853,(14, 100),4	857,(13, 115),56	913,(19, 115),12	925,(1, 115),2	927,(8, 115),12	939,(5, 32),8	947,(13, 32),14	961,(19, 32),56	1017,(15, 32),8	
# Outgoing
1,(0, 12),22	23,(0, 20),22	46,(19, 72),2	48,(17, 82),2	51,(16, 110),2	53,(19, 197),4	57,(19, 39),4	61,(16, 39),2	63,(19, 142),4	67,(5, 82),4	71,(1, 79),4	75,(0, 9),22	97,(8, 121),10	107,(8, 57),14	121,(0, 18),22	143,(19, 140),6	149,(8, 81),16	165,(1, 185),2	167,(6, 117),2	169,(1, 129),2	171,(14, 144),2	173,(16, 71),16	189,(15, 104),4	193,(16, 66),2	196,(4, 82),2	198,(4, 185),12	210,(5, 117),10	220,(4, 117),2	222,(16, 104),8	230,(4, 104),4	234,(14, 129),8	242,(4, 129),8	250,(16, 109),4	254,(14, 113),2	256,(7, 66),2	258,(7, 109),2	260,(19, 182),4	264,(7, 182),4	268,(7, 90),10	278,(14, 33),8	286,(7, 33),8	294,(1, 37),20	314,(5, 113),4	318,(4, 113),2	321,(11, 96),4	325,(11, 113),6	331,(13, 94),2	333,(11, 94),10	343,(5, 138),2	345,(4, 138),12	357,(11, 138),4	361,(11, 147),18	379,(3, 55),8	387,(13, 78),2	389,(8, 78),2	391,(2, 55),2	393,(2, 23),4	397,(2, 83),10	407,(16, 118),10	417,(2, 118),2	419,(10, 78),6	425,(2, 78),8	433,(5, 133),2	435,(16, 133),8	443,(1, 133),2	445,(2, 133),6	451,(5, 146),16	467,(8, 146),2	469,(7, 146),4	473,(19, 98),2	475,(2, 98),20	495,(6, 26),8	503,(8, 26),6	509,(4, 26),8	517,(13, 36),22	539,(4, 36),2	541,(16, 101),24	565,(6, 135),12	577,(7, 135),12	589,(13, 76),2	591,(8, 76),4	595,(4, 76),22	617,(16, 131),2	619,(15, 131),20	639,(11, 131),8	647,(16, 178),8	655,(4, 178),24	679,(1, 105),10	689,(8, 105),4	693,(14, 105),18	711,(16, 49),2	713,(15, 49),16	729,(14, 49),2	731,(4, 49),2	733,(11, 49),10	743,(3, 152),10	753,(10, 152),26	779,(3, 58),24	803,(14, 58),14	817,(16, 100),6	823,(8, 100),28	851,(3, 100),2	853,(14, 100),4	857,(13, 115),56	913,(19, 115),12	925,(1, 115),2	927,(8, 115),12	939,(5, 32),8	947,(13, 32),14	961,(19, 32),56	1017,(15, 32),8	
102,(9, 123),2	104,(9, 163),2	106,(12, 47),2	108,(9, 160),2	110,(20, 40),2	112,(12, 65),2	114,(9, 43),4	118,(9, 89),4	122,(9, 128),4	126,(20, 51),4	130,(20, 50),4	134,(20, 85),6	140,(12, 137),4	144,(9, 137),4	148,(18, 119),2	150,(18, 166),2	152,(18, 69),2	154,(18, 35),6	160,(9, 169),8	168,(12, 194),8	176,(9, 77),10	186,(9, 132),10	196,(9, 99),10	206,(12, 174),10	216,(18, 59),10	226,(12, 120),12	238,(20, 177),12	250,(12, 173),14	264,(20, 191),14	278,(20, 193),14	292,(20, 189),16	308,(9, 176),16	324,(20, 38),2	326,(9, 38),16	342,(20, 30),20	362,(12, 24),22	384,(18, 75),22	406,(12, 92),24	430,(12, 190),4	434,(20, 190),16	450,(9, 190),4	454,(9, 60),26	480,(20, 64),32	512,(20, 127),32	544,(12, 87),16	560,(18, 87),16	576,(20, 106),18	594,(9, 106),16	610,(9, 102),34	644,(12, 88),32	676,(9, 88),2	678,(20, 148),38	716,(9, 141),38	754,(12, 86),32	786,(18, 86),10	796,(9, 27),4	800,(18, 27),42	842,(12, 116),60	902,(9, 199),198	1100,(171, 201),10	1110,(73, 201),10	1120,(72, 201),10	1130,(110, 201),10	1140,(197, 201),10	1150,(39, 201),10	1160,(79, 201),10	1170,(54, 201),10	1180,(200, 201),10	1190,(153, 201),10	1200,(198, 201),10	1210,(121, 201),10	1220,(57, 201),10	1230,(167, 201),10	1240,(142, 201),10	1250,(140, 201),10	1260,(81, 201),10	1270,(144, 201),10	1280,(71, 201),10	1290,(82, 201),10	1300,(185, 201),10	1310,(117, 201),10	1320,(104, 201),10	1330,(129, 201),10	1340,(66, 201),10	1350,(109, 201),10	1360,(182, 201),10	1370,(90, 201),10	1380,(33, 201),10	1390,(37, 201),10	1400,(96, 201),10	1410,(113, 201),10	1420,(94, 201),10	1430,(138, 201),10	1440,(147, 201),10	1450,(55, 201),10	1460,(23, 201),10	1470,(83, 201),10	1480,(118, 201),10	1490,(78, 201),10	1500,(133, 201),10	1510,(146, 201),10	1520,(98, 201),10	1530,(26, 201),10	1540,(36, 201),10	1550,(101, 201),10	1560,(135, 201),10	1570,(76, 201),10	1580,(131, 201),10	1590,(178, 201),10	1600,(105, 201),10	1610,(49, 201),10	1620,(152, 201),10	1630,(58, 201),10	1640,(100, 201),10	1650,(115, 201),10	1660,(32, 201),10	
