391
# CPU
0,0,1	1,4,5	6,3,5	11,8,5	16,18,5	21,78,5	26,64,5	31,77,5	36,48,5	41,47,5	46,28,5	51,66,5	56,65,5	61,29,5	66,46,5	71,71,5	76,14,5	81,45,5	86,74,5	91,16,5	96,30,5	101,35,5	106,49,5	111,69,5	116,22,5	121,36,5	126,54,5	131,80,5	
29,6,5	34,23,5	39,52,5	44,60,5	49,7,5	54,44,5	59,12,5	64,56,5	69,10,5	74,26,5	79,32,5	84,38,5	89,39,5	94,19,5	99,41,5	104,55,5	109,20,5	114,25,5	119,37,5	259,42,5	264,58,5	274,75,5	279,11,5	284,61,5	344,15,5	368,34,5	390,81,1	
8,1,5	13,59,5	18,67,5	23,2,5	28,5,5	33,17,5	38,31,5	43,51,5	48,62,5	53,63,5	58,33,5	63,72,5	68,73,5	73,9,5	78,13,5	83,40,5	88,24,5	93,27,5	98,53,5	115,57,5	245,76,5	252,79,5	257,21,5	265,70,5	276,43,5	281,50,5	287,68,5	
# Incoming
13,(1, 29),2	15,(1, 69),1	28,(2, 14),5	33,(5, 45),1	34,(5, 74),1	35,(6, 16),1	39,(2, 30),4	43,(6, 22),6	52,(5, 35),5	57,(5, 49),4	62,(6, 69),7	69,(7, 22),1	74,(7, 36),5	82,(7, 54),6	88,(7, 80),7	
22,(0, 6),7	29,(0, 7),7	36,(1, 44),1	37,(59, 81),1	38,(67, 81),1	40,(4, 12),3	43,(1, 56),7	50,(2, 10),2	52,(4, 15),1	53,(4, 19),7	60,(4, 41),25	85,(4, 42),11	96,(4, 55),1	97,(2, 75),5	102,(5, 20),2	104,(5, 25),1	105,(5, 37),2	107,(17, 81),1	108,(31, 81),1	109,(51, 81),1	110,(62, 81),1	111,(63, 81),1	112,(33, 81),1	113,(72, 81),1	114,(73, 81),1	115,(4, 58),20	135,(9, 81),1	136,(13, 81),1	137,(40, 81),1	138,(24, 81),1	139,(27, 81),1	140,(53, 81),1	141,(57, 81),1	145,(4, 75),99	250,(76, 81),1	253,(3, 34),3	256,(3, 42),3	259,(3, 58),5	264,(79, 81),1	265,(3, 75),9	274,(8, 11),1	275,(21, 81),1	276,(70, 81),1	277,(8, 61),7	284,(43, 81),1	286,(50, 81),1	287,(18, 81),1	288,(78, 81),1	289,(64, 81),1	290,(5, 15),54	344,(5, 34),24	368,(77, 81),1	369,(48, 81),1	370,(47, 81),1	371,(28, 81),1	372,(66, 81),1	373,(65, 81),1	374,(29, 81),1	375,(46, 81),1	376,(71, 81),1	377,(14, 81),1	378,(45, 81),1	379,(74, 81),1	380,(16, 81),1	381,(30, 81),1	382,(35, 81),1	383,(49, 81),1	384,(69, 81),1	385,(22, 81),1	386,(36, 81),1	387,(54, 81),1	388,(80, 81),1	389,(68, 81),1	
1,(0, 1),7	8,(0, 2),7	15,(0, 5),7	36,(4, 9),4	43,(4, 13),9	52,(6, 21),6	58,(6, 40),4	70,(7, 24),1	71,(7, 27),3	79,(7, 53),3	97,(4, 57),18	135,(4, 68),10	244,(4, 76),1	245,(4, 79),7	252,(3, 21),1	264,(3, 70),1	275,(8, 43),1	276,(8, 50),1	284,(8, 68),3	
# Outgoing
1,(0, 1),7	8,(0, 2),7	15,(0, 5),7	22,(0, 6),7	29,(0, 7),7	36,(4, 9),4	40,(4, 12),3	43,(4, 13),9	52,(4, 15),1	53,(4, 19),7	60,(4, 41),25	85,(4, 42),11	96,(4, 55),1	97,(4, 57),18	115,(4, 58),20	135,(4, 68),10	145,(4, 75),99	244,(4, 76),1	245,(4, 79),7	252,(3, 21),1	253,(3, 34),3	256,(3, 42),3	259,(3, 58),5	264,(3, 70),1	265,(3, 75),9	274,(8, 11),1	275,(8, 43),1	276,(8, 50),1	277,(8, 61),7	284,(8, 68),3	287,(18, 81),1	288,(78, 81),1	289,(64, 81),1	368,(77, 81),1	369,(48, 81),1	370,(47, 81),1	371,(28, 81),1	372,(66, 81),1	373,(65, 81),1	374,(29, 81),1	375,(46, 81),1	376,(71, 81),1	377,(14, 81),1	378,(45, 81),1	379,(74, 81),1	380,(16, 81),1	381,(30, 81),1	382,(35, 81),1	383,(49, 81),1	384,(69, 81),1	385,(22, 81),1	386,(36, 81),1	387,(54, 81),1	388,(80, 81),1	
35,(6, 16),1	43,(6, 22),6	52,(6, 21),6	58,(6, 40),4	62,(6, 69),7	69,(7, 22),1	70,(7, 24),1	71,(7, 27),3	74,(7, 36),5	79,(7, 53),3	82,(7, 54),6	88,(7, 80),7	
13,(1, 29),2	15,(1, 69),1	28,(2, 14),5	33,(5, 45),1	34,(5, 74),1	36,(1, 44),1	37,(59, 81),1	38,(67, 81),1	39,(2, 30),4	43,(1, 56),7	50,(2, 10),2	52,(5, 35),5	57,(5, 49),4	97,(2, 75),5	102,(5, 20),2	104,(5, 25),1	105,(5, 37),2	107,(17, 81),1	108,(31, 81),1	109,(51, 81),1	110,(62, 81),1	111,(63, 81),1	112,(33, 81),1	113,(72, 81),1	114,(73, 81),1	135,(9, 81),1	136,(13, 81),1	137,(40, 81),1	138,(24, 81),1	139,(27, 81),1	140,(53, 81),1	141,(57, 81),1	250,(76, 81),1	264,(79, 81),1	275,(21, 81),1	276,(70, 81),1	284,(43, 81),1	286,(50, 81),1	290,(5, 15),54	344,(5, 34),24	389,(68, 81),1	
