22
# CPU
0,21,1	1,4,1	2,3,1	3,12,1	4,13,1	5,14,1	6,15,1	7,18,1	8,9,1	9,11,1	10,16,1	11,6,1	12,19,1	13,7,1	14,10,1	15,20,1	16,5,1	17,17,1	18,2,1	19,8,1	20,1,1	21,0,1	









# Incoming










# Outgoing










