608
# CPU
173,5,18	191,8,18	209,11,18	447,14,18	487,17,18	551,20,18	
97,2,18	115,4,18	133,19,18	151,7,18	169,10,18	189,13,18	345,16,18	
0,0,1	1,1,18	19,6,18	37,18,18	119,3,18	167,9,18	403,12,18	471,15,18	607,21,1	
# Incoming
97,(1, 5),76	173,(1, 8),4	177,(1, 11),4	403,(2, 14),44	471,(2, 17),16	487,(2, 20),64	
1,(0, 2),96	181,(1, 13),8	189,(1, 16),156	
115,(2, 3),4	119,(2, 9),48	167,(2, 12),236	403,(5, 21),8	411,(8, 21),8	419,(11, 21),8	447,(2, 15),24	471,(14, 21),8	505,(17, 21),8	551,(4, 21),8	559,(19, 21),8	567,(7, 21),8	575,(10, 21),8	583,(13, 21),8	591,(16, 21),8	599,(20, 21),8	
# Outgoing
403,(5, 21),8	411,(8, 21),8	419,(11, 21),8	471,(14, 21),8	505,(17, 21),8	599,(20, 21),8	
115,(2, 3),4	119,(2, 9),48	167,(2, 12),236	403,(2, 14),44	447,(2, 15),24	471,(2, 17),16	487,(2, 20),64	551,(4, 21),8	559,(19, 21),8	567,(7, 21),8	575,(10, 21),8	583,(13, 21),8	591,(16, 21),8	
1,(0, 2),96	97,(1, 5),76	173,(1, 8),4	177,(1, 11),4	181,(1, 13),8	189,(1, 16),156	
