17338
# CPU
121,7,38	169,9,38	207,68,38	245,13,38	283,14,38	10699,73,38	14441,99,38	14873,74,38	14969,128,38	15007,146,38	15529,98,38	15567,24,38	15605,56,38	15643,83,38	15681,149,38	15719,162,38	15887,50,38	15925,59,38	15963,106,38	16001,145,38	16039,189,38	16077,60,38	16273,76,38	16311,80,38	16349,100,38	16387,110,38	16425,130,38	16463,142,38	16501,148,38	16539,172,38	16577,179,38	16615,190,38	16653,32,38	16691,40,38	16729,53,38	16767,126,38	16805,127,38	16843,151,38	16881,159,38	16919,183,38	16957,35,38	16995,61,38	17033,79,38	17071,90,38	17109,104,38	17147,118,38	17185,129,38	17223,161,38	17261,184,38	17299,192,38	17337,201,1	
0,0,1	1,6,38	39,1,38	77,10,38	115,16,38	153,15,38	191,18,38	229,93,38	267,168,38	305,49,38	343,191,38	381,88,38	545,166,38	605,29,38	925,26,38	1033,52,38	1127,187,38	1165,55,38	1321,86,38	1359,124,38	1397,135,38	1435,75,38	1473,194,38	1511,137,38	1549,141,38	1587,154,38	1625,22,38	1663,39,38	1701,64,38	1739,116,38	1777,165,38	1815,72,38	1853,84,38	1891,117,38	1929,120,38	1967,63,38	2005,167,38	2043,171,38	2081,114,38	2119,175,38	2157,78,38	2195,87,38	2233,92,38	2271,94,38	2309,96,38	2347,113,38	2385,122,38	2423,181,38	2461,199,38	2499,144,38	2537,197,38	
25,2,38	97,5,38	193,11,38	289,17,38	327,19,38	417,33,38	581,34,38	1031,30,38	1305,111,38	1343,140,38	1407,27,38	1801,132,38	1839,147,38	10453,54,38	12393,156,38	12497,66,38	12549,133,38	12803,36,38	12859,67,38	12897,70,38	12935,101,38	12973,102,38	13011,103,38	13049,158,38	13139,21,38	13177,37,38	13215,41,38	13253,47,38	13291,48,38	13329,51,38	13367,85,38	13405,136,38	13443,138,38	13481,139,38	13519,157,38	13557,176,38	13595,178,38	13633,188,38	13671,193,38	13709,58,38	13747,65,38	13785,28,38	13823,62,38	13861,115,38	13899,152,38	13937,155,38	13975,177,38	14013,180,38	14051,182,38	14089,185,38	
49,3,38	87,4,38	145,8,38	217,12,38	255,186,38	337,20,38	483,109,38	549,125,38	587,23,38	625,150,38	791,107,38	1033,153,38	10571,97,38	12489,44,38	12527,45,38	12565,71,38	12603,108,38	12765,196,38	12803,25,38	12921,95,38	12965,105,38	13149,46,38	13229,57,38	13277,91,38	13317,160,38	13355,163,38	13393,173,38	13437,195,38	13475,38,38	13513,43,38	13551,89,38	13589,112,38	13627,119,38	13665,131,38	13703,169,38	13741,170,38	13779,174,38	13817,31,38	13855,42,38	13893,69,38	13931,77,38	13969,81,38	14007,82,38	14045,121,38	14083,123,38	14121,134,38	14159,143,38	14197,164,38	14235,198,38	14273,200,38	
# Incoming
97,(0, 7),24	121,(2, 35),2	123,(2, 60),2	125,(2, 73),2	127,(2, 80),2	129,(2, 118),16	145,(0, 9),24	169,(2, 50),24	193,(2, 128),4	197,(2, 130),2	199,(2, 146),2	201,(2, 159),2	203,(2, 183),8	211,(2, 184),4	215,(3, 53),2	217,(0, 13),24	241,(0, 14),24	265,(2, 104),40	305,(2, 151),40	345,(2, 189),8	353,(3, 56),14	367,(3, 59),6	373,(3, 60),2	375,(3, 90),2	377,(3, 118),52	429,(5, 35),4	433,(5, 74),2	435,(5, 79),12	447,(3, 126),10	457,(6, 50),9954	10411,(6, 53),2	10413,(3, 130),38	10451,(3, 148),2	10453,(6, 56),2	10455,(3, 142),8	10463,(3, 189),2	10465,(4, 53),4	10469,(4, 56),4	10473,(4, 73),18	10491,(4, 79),2	10493,(4, 98),6	10499,(4, 99),6	10505,(4, 100),2	10507,(4, 129),2	10509,(4, 146),4	10513,(4, 159),4	10517,(4, 162),6	10523,(5, 99),2	10525,(5, 106),2	10527,(5, 129),2	10529,(5, 145),10	10539,(5, 146),2	10541,(5, 162),2	10543,(5, 172),2	10545,(6, 59),10	10555,(8, 126),2	10557,(6, 73),6	10563,(8, 79),4	10567,(8, 184),2	10569,(11, 98),2	10571,(6, 100),124	10695,(11, 73),4	10699,(6, 106),38	10737,(11, 99),2	10739,(12, 32),2	10741,(6, 142),4	10745,(11, 106),4	10749,(6, 145),378	11127,(6, 148),10	11137,(6, 151),1222	12359,(5, 100),32	12391,(12, 35),4	12395,(6, 161),2	12397,(2, 192),1948	14345,(1, 32),10	14355,(1, 40),2	14357,(1, 50),2	14359,(1, 60),40	14399,(1, 98),26	14425,(1, 99),16	14441,(1, 100),8	14449,(1, 104),14	14463,(1, 110),6	14469,(1, 127),2	14471,(1, 128),2	14473,(1, 142),18	14491,(1, 145),6	14497,(1, 148),2	14499,(1, 149),4	14503,(3, 192),364	14867,(10, 24),2	14869,(10, 56),2	14871,(10, 74),2	14873,(10, 80),6	14879,(10, 83),2	14881,(10, 100),60	14941,(10, 118),6	14947,(10, 128),22	14969,(10, 130),4	14973,(10, 142),2	14975,(10, 146),2	14977,(10, 162),2	14979,(10, 184),2	14981,(4, 151),60	15041,(5, 151),44	15085,(5, 184),16	15101,(16, 50),2	15103,(16, 90),2	15105,(16, 98),54	15159,(16, 126),8	15167,(16, 142),18	15185,(16, 149),6	15191,(16, 159),74	15265,(16, 161),4	15269,(16, 162),2	15271,(16, 179),6	15277,(8, 40),16	15293,(8, 53),10	15303,(8, 59),18	15321,(8, 60),10	15331,(8, 83),18	15349,(8, 90),6	15355,(8, 129),12	15367,(8, 148),8	15375,(15, 24),2	15377,(15, 40),8	15385,(15, 60),22	15407,(15, 61),6	15413,(15, 80),2	15415,(15, 100),48	15463,(15, 118),12	15475,(15, 126),14	15489,(15, 127),2	15491,(15, 159),8	15499,(15, 192),22	15521,(18, 60),6	15527,(18, 98),2	15529,(18, 127),2	15531,(18, 148),10	15541,(18, 151),2	15543,(18, 172),2	15545,(18, 184),2	15547,(18, 189),2	15549,(11, 24),10	15559,(11, 56),14	15573,(11, 83),12	15585,(11, 90),6	15591,(11, 142),22	15613,(11, 149),10	15623,(11, 159),20	15643,(11, 162),10	15653,(11, 190),118	15771,(11, 192),10	15781,(12, 50),106	15887,(12, 59),12	15899,(12, 76),36	15935,(12, 90),8	15943,(12, 100),2	15945,(12, 106),6	15951,(12, 126),18	15969,(12, 130),8	15977,(12, 145),4	15981,(12, 172),6	15987,(12, 179),2	15989,(12, 183),12	16001,(12, 189),8	16009,(12, 192),2	16011,(93, 201),2	16013,(186, 201),2	16015,(168, 201),2	16017,(17, 40),2	16019,(17, 60),8	16027,(17, 76),246	16273,(17, 79),2	16275,(17, 80),2	16277,(17, 90),4	16281,(17, 100),6	16287,(17, 104),8	16295,(17, 110),4	16299,(17, 127),38	16337,(17, 130),14	16351,(17, 142),12	16363,(17, 148),20	16383,(17, 159),4	16387,(17, 161),54	16441,(17, 172),8	16449,(17, 179),16	16465,(17, 190),6	16471,(49, 201),2	16473,(19, 32),94	16567,(19, 40),4	16571,(19, 53),12	16583,(19, 61),2	16585,(19, 126),6	16591,(19, 127),6	16597,(19, 151),10	16607,(19, 159),4	16611,(19, 183),32	16643,(20, 35),8	16651,(20, 61),18	16669,(20, 79),12	16681,(20, 90),2	16683,(20, 104),2	16685,(20, 118),2	16687,(20, 129),6	16693,(20, 161),2	16695,(20, 184),18	16713,(20, 192),4	16717,(191, 201),2	16719,(88, 201),2	16721,(33, 201),2	16723,(109, 201),2	16725,(166, 201),2	16727,(125, 201),2	16729,(34, 201),2	16731,(23, 201),2	16733,(29, 201),2	16735,(150, 201),2	16737,(107, 201),2	16739,(26, 201),2	16741,(30, 201),2	16743,(52, 201),2	16745,(153, 201),2	16747,(187, 201),2	16749,(55, 201),2	16751,(111, 201),2	16753,(86, 201),2	16755,(140, 201),2	16757,(124, 201),2	16759,(135, 201),2	16761,(27, 201),2	16763,(75, 201),2	16765,(194, 201),2	16767,(137, 201),2	16769,(141, 201),2	16771,(154, 201),2	16773,(22, 201),2	16775,(39, 201),2	16777,(64, 201),2	16779,(116, 201),2	16781,(165, 201),2	16783,(132, 201),2	16785,(72, 201),2	16787,(147, 201),2	16789,(84, 201),2	16791,(117, 201),2	16793,(120, 201),2	16795,(63, 201),2	16797,(167, 201),2	16799,(171, 201),2	16801,(114, 201),2	16803,(175, 201),2	16805,(78, 201),2	16807,(87, 201),2	16809,(92, 201),2	16811,(94, 201),2	16813,(96, 201),2	16815,(113, 201),2	16817,(122, 201),2	16819,(181, 201),2	16821,(199, 201),2	16823,(144, 201),2	16825,(197, 201),2	16827,(54, 201),2	16829,(97, 201),2	16831,(156, 201),2	16833,(44, 201),2	16835,(66, 201),2	16837,(45, 201),2	16839,(133, 201),2	16841,(71, 201),2	16843,(108, 201),2	16845,(196, 201),2	16847,(36, 201),2	16849,(25, 201),2	16851,(67, 201),2	16853,(70, 201),2	16855,(95, 201),2	16857,(101, 201),2	16859,(105, 201),2	16861,(102, 201),2	16863,(103, 201),2	16865,(158, 201),2	16867,(21, 201),2	16869,(46, 201),2	16871,(37, 201),2	16873,(41, 201),2	16875,(57, 201),2	16877,(47, 201),2	16879,(91, 201),2	16881,(48, 201),2	16883,(160, 201),2	16885,(51, 201),2	16887,(163, 201),2	16889,(85, 201),2	16891,(173, 201),2	16893,(136, 201),2	16895,(195, 201),2	16897,(138, 201),2	16899,(38, 201),2	16901,(139, 201),2	16903,(43, 201),2	16905,(157, 201),2	16907,(89, 201),2	16909,(176, 201),2	16911,(112, 201),2	16913,(178, 201),2	16915,(119, 201),2	16917,(188, 201),2	16919,(131, 201),2	16921,(193, 201),2	16923,(169, 201),2	16925,(58, 201),2	16927,(170, 201),2	16929,(65, 201),2	16931,(174, 201),2	16933,(28, 201),2	16935,(31, 201),2	16937,(62, 201),2	16939,(42, 201),2	16941,(115, 201),2	16943,(69, 201),2	16945,(152, 201),2	16947,(77, 201),2	16949,(155, 201),2	16951,(81, 201),2	16953,(177, 201),2	16955,(82, 201),2	16957,(180, 201),2	16959,(121, 201),2	16961,(182, 201),2	16963,(123, 201),2	16965,(185, 201),2	16967,(134, 201),2	16969,(143, 201),2	16971,(164, 201),2	16973,(198, 201),2	16975,(200, 201),2	
63,(2, 26),2	65,(2, 52),4	69,(2, 84),2	71,(2, 120),2	91,(2, 117),24	115,(3, 49),2	119,(2, 124),2	145,(2, 122),10	159,(2, 144),6	165,(3, 52),8	173,(3, 87),36	209,(3, 117),2	211,(3, 187),4	215,(5, 122),2	217,(3, 64),86	303,(3, 120),6	309,(4, 88),2	311,(4, 114),2	313,(7, 64),6	319,(7, 86),2	321,(7, 117),2	323,(7, 137),4	327,(7, 141),2	329,(7, 199),2	331,(9, 63),4	335,(9, 84),2	337,(3, 194),12	349,(9, 94),2	351,(9, 96),2	353,(5, 22),66	419,(5, 86),10	429,(3, 124),18	447,(5, 52),22	469,(5, 92),16	485,(9, 55),8	493,(5, 144),8	501,(5, 154),20	521,(9, 122),6	527,(5, 165),14	541,(5, 166),4	545,(5, 167),6	551,(9, 144),2	553,(9, 171),2	555,(9, 187),2	557,(13, 39),2	559,(5, 181),2	561,(5, 194),4	565,(5, 199),16	581,(7, 135),16	597,(9, 197),6	603,(11, 29),2	605,(11, 52),6	611,(11, 117),2	613,(4, 55),6	619,(7, 197),44	663,(9, 22),20	683,(11, 72),4	687,(4, 117),16	703,(4, 135),2	705,(9, 72),18	723,(4, 144),2	725,(13, 55),2	727,(13, 113),2	729,(4, 167),84	813,(4, 181),4	817,(11, 22),24	841,(11, 39),14	855,(11, 64),16	871,(11, 84),6	877,(9, 78),42	919,(13, 26),6	925,(13, 120),2	927,(4, 194),56	983,(4, 199),34	1017,(13, 63),10	1027,(13, 96),4	1031,(8, 52),2	1033,(8, 55),4	1037,(9, 117),68	1105,(13, 167),2	1107,(17, 22),2	1109,(17, 55),2	1111,(8, 84),6	1117,(17, 96),2	1119,(17, 116),4	1123,(17, 124),2	1125,(17, 187),2	1127,(19, 55),2	1129,(19, 75),2	1131,(8, 116),2	1133,(8, 117),16	1149,(8, 124),2	1151,(17, 84),16	1167,(19, 96),2	1169,(8, 165),2	1171,(8, 175),2	1173,(9, 154),92	1265,(11, 135),40	1305,(12, 22),2	1307,(12, 72),4	1311,(12, 84),8	1319,(12, 86),2	1321,(12, 137),4	1325,(13, 124),12	1337,(13, 181),10	1347,(14, 135),2	1349,(17, 75),20	1369,(17, 87),30	1399,(19, 181),2	1401,(19, 194),2	1403,(13, 137),16	1419,(13, 144),14	1433,(17, 114),24	1457,(17, 141),28	1485,(17, 144),12	1497,(17, 154),56	1553,(19, 22),10	1563,(19, 39),6	1569,(19, 64),72	1641,(19, 78),36	1677,(19, 116),6	1683,(19, 144),6	1689,(19, 165),10	1699,(20, 72),2	1701,(14, 63),12	1713,(14, 78),14	1727,(14, 84),14	1741,(14, 92),4	1745,(14, 96),8	1753,(14, 114),6	1759,(14, 117),14	1773,(19, 120),28	1801,(20, 63),10	1811,(14, 167),2	1813,(14, 171),14	1827,(20, 114),2	1829,(14, 175),24	1853,(20, 78),20	1873,(20, 87),6	1879,(20, 92),4	1883,(20, 94),10	1893,(20, 96),20	1913,(20, 113),6	1919,(20, 122),16	1935,(20, 181),2	1937,(14, 199),4	1941,(20, 144),4	1945,(20, 197),36	
1,(0, 2),24	73,(0, 5),24	97,(3, 30),8	105,(3, 102),2	107,(3, 138),2	109,(3, 155),2	117,(3, 51),36	153,(3, 65),12	169,(0, 11),24	193,(7, 33),26	219,(7, 62),2	221,(7, 101),2	223,(7, 132),10	233,(7, 138),4	237,(7, 140),22	259,(7, 147),2	261,(7, 155),2	263,(7, 176),2	265,(0, 17),24	289,(0, 19),24	313,(3, 70),24	337,(7, 158),6	343,(7, 185),6	349,(4, 21),4	353,(9, 27),4	357,(9, 34),4	361,(9, 51),2	363,(6, 27),8	371,(6, 30),6	377,(6, 33),40	417,(6, 34),14	431,(6, 37),26	457,(3, 132),96	553,(3, 177),24	577,(4, 27),2	579,(4, 34),2	581,(4, 47),32	613,(9, 41),6	619,(4, 62),26	645,(4, 66),16	661,(4, 70),16	677,(4, 85),8	685,(4, 102),2	687,(7, 156),18	705,(4, 139),18	723,(9, 65),2	725,(4, 152),2	727,(4, 157),2	729,(7, 54),86	817,(4, 182),110	927,(9, 30),8	935,(9, 66),12	947,(9, 85),12	959,(9, 115),4	1015,(9, 180),2	1017,(8, 30),14	1031,(9, 136),6	1037,(8, 58),60	1097,(8, 66),14	1111,(9, 138),4	1117,(8, 85),6	1123,(8, 115),8	1143,(13, 54),6	1151,(8, 156),18	1169,(13, 62),4	1173,(8, 176),8	1181,(8, 177),4	1185,(8, 182),2	1187,(8, 185),16	1203,(12, 27),4	1207,(12, 28),6	1213,(12, 37),2	1215,(12, 47),28	1243,(12, 48),2	1245,(12, 51),10	1255,(12, 54),2	1257,(12, 70),2	1259,(12, 101),4	1263,(12, 103),40	1303,(12, 111),2	1305,(13, 65),18	1323,(13, 136),2	1325,(12, 139),2	1327,(12, 140),4	1331,(12, 176),2	1333,(12, 178),14	1347,(12, 180),2	1349,(13, 51),28	1377,(13, 85),12	1389,(13, 101),14	1403,(20, 21),2	1405,(20, 27),2	1407,(20, 36),14	1421,(20, 47),2	1423,(20, 48),2	1425,(20, 65),2	1427,(20, 66),2	1429,(20, 133),4	1433,(13, 147),4	1437,(13, 152),70	1507,(13, 155),4	1511,(13, 156),2	1513,(13, 176),6	1519,(13, 178),26	1545,(20, 115),6	1551,(20, 152),4	1555,(20, 155),2	1557,(20, 178),28	1585,(20, 180),10	1595,(20, 185),12	1619,(14, 21),10	1629,(14, 41),2	1631,(14, 48),2	1633,(14, 58),68	1799,(14, 132),2	1801,(14, 138),2	1803,(14, 147),2	1805,(14, 152),2	1807,(14, 156),4	1853,(14, 177),32	1885,(14, 180),6	1891,(14, 185),2	1893,(14, 193),44	10413,(6, 54),40	10517,(6, 58),28	10555,(6, 70),2	12359,(6, 152),24	12383,(6, 155),8	12391,(6, 156),2	12393,(6, 157),2	12397,(6, 177),2	12399,(6, 178),6	12405,(6, 180),22	12427,(1, 28),2	12467,(1, 37),14	12481,(1, 41),6	12493,(1, 66),4	12539,(1, 133),10	12549,(1, 157),6	12593,(1, 177),22	12615,(1, 178),80	12695,(1, 180),8	12703,(1, 188),28	12767,(10, 36),36	12813,(10, 48),2	12815,(10, 51),2	12817,(10, 58),2	12819,(10, 67),40	12859,(10, 70),10	12921,(10, 101),2	12923,(10, 102),34	12957,(10, 103),2	12965,(10, 115),4	12969,(10, 136),8	12977,(10, 158),2	13067,(10, 182),4	13071,(10, 193),20	13129,(16, 21),10	13139,(16, 37),4	13143,(16, 41),2	13149,(16, 47),2	13151,(16, 48),2	13153,(16, 51),42	13229,(16, 65),2	13245,(16, 85),2	13277,(16, 136),2	13279,(16, 138),8	13287,(16, 139),2	13289,(16, 152),14	13303,(16, 157),2	13323,(16, 176),2	13325,(16, 178),6	13331,(16, 180),4	13335,(16, 188),2	13337,(16, 193),44	13449,(15, 28),6	13465,(15, 58),2	13467,(15, 62),30	13497,(15, 65),4	13527,(15, 115),2	13557,(15, 185),6	13563,(18, 28),10	13593,(18, 62),2	13617,(18, 115),10	13665,(18, 152),10	13675,(18, 155),6	13689,(18, 177),16	13705,(18, 180),10	13715,(18, 182),4	13719,(18, 185),2	
25,(0, 3),24	49,(0, 4),24	73,(2, 38),2	75,(2, 77),12	87,(2, 105),2	89,(2, 109),2	115,(2, 119),4	121,(0, 8),24	155,(2, 125),4	165,(5, 69),2	167,(5, 112),2	193,(0, 12),24	217,(5, 77),18	235,(5, 97),4	239,(5, 105),20	259,(5, 134),2	261,(5, 143),2	263,(5, 195),2	265,(7, 42),28	293,(7, 91),16	309,(7, 160),2	311,(7, 174),2	313,(0, 20),24	337,(6, 25),26	363,(7, 112),10	373,(7, 134),10	383,(7, 169),40	423,(7, 173),20	443,(9, 46),2	445,(9, 77),2	447,(9, 82),16	463,(9, 107),18	481,(9, 109),2	483,(9, 143),2	485,(5, 125),8	493,(9, 112),18	511,(9, 163),10	521,(5, 160),6	527,(9, 125),22	549,(9, 200),2	551,(5, 169),8	559,(9, 131),14	573,(13, 23),2	575,(13, 25),2	577,(13, 44),4	581,(5, 200),2	583,(11, 77),2	585,(11, 82),2	587,(11, 89),2	589,(11, 150),10	599,(11, 153),2	601,(11, 173),2	603,(13, 105),10	613,(11, 119),38	651,(11, 174),18	669,(11, 198),4	673,(17, 46),10	683,(13, 119),2	685,(13, 121),2	687,(17, 42),58	745,(17, 45),18	763,(17, 71),8	771,(17, 82),4	775,(17, 107),16	791,(19, 25),14	805,(19, 31),4	809,(19, 69),2	811,(19, 119),4	815,(9, 69),62	877,(17, 143),28	905,(19, 45),18	923,(19, 71),10	933,(19, 81),8	941,(19, 123),6	947,(19, 131),2	949,(19, 163),12	961,(19, 173),2	963,(9, 119),26	989,(9, 134),26	1015,(19, 153),18	1033,(19, 170),4	1037,(19, 195),34	1071,(19, 196),12	1107,(13, 195),2	1109,(14, 43),2	1115,(13, 42),28	1149,(13, 97),14	1163,(14, 44),2	1165,(14, 46),2	1167,(14, 57),2	1265,(13, 112),22	1287,(14, 91),2	1289,(14, 97),8	1297,(14, 105),2	1299,(14, 134),6	1545,(13, 196),28	1573,(13, 198),26	1599,(13, 200),20	1773,(14, 121),26	1827,(14, 173),2	10455,(6, 57),62	10563,(6, 91),2	10565,(6, 97),6	10695,(6, 105),4	10737,(6, 134),4	10745,(6, 143),4	12429,(1, 31),38	12487,(1, 44),2	12489,(1, 45),2	12491,(1, 57),2	12497,(1, 69),8	12505,(1, 71),26	12531,(1, 77),2	12533,(1, 108),2	12535,(1, 112),2	12537,(1, 121),2	12555,(1, 164),38	12731,(1, 195),4	12735,(1, 196),30	12765,(10, 25),2	12803,(10, 42),8	12811,(10, 43),2	12869,(10, 77),42	12911,(10, 81),8	12919,(10, 95),2	12959,(10, 105),6	12979,(10, 164),78	13057,(10, 174),10	13091,(10, 200),38	13145,(16, 46),4	13195,(16, 57),34	13231,(16, 69),2	13233,(16, 81),12	13247,(16, 89),26	13273,(16, 91),4	13305,(16, 160),12	13317,(16, 163),4	13321,(16, 173),2	13381,(16, 195),56	13437,(16, 200),12	13455,(15, 38),8	13463,(15, 43),2	13501,(15, 89),22	13523,(15, 112),4	13529,(15, 119),2	13531,(15, 131),2	13533,(15, 134),4	13537,(15, 164),2	13539,(15, 169),2	13541,(15, 170),14	13555,(15, 174),2	13573,(18, 31),6	13579,(18, 42),14	13595,(18, 69),2	13597,(18, 77),14	13611,(18, 81),4	13615,(18, 82),2	13627,(18, 121),2	13629,(18, 123),22	13651,(18, 134),12	13663,(18, 143),2	13681,(18, 164),8	13721,(18, 198),14	13735,(18, 200),4	
# Outgoing
193,(7, 33),26	219,(7, 62),2	221,(7, 101),2	223,(7, 132),10	233,(7, 138),4	237,(7, 140),22	259,(7, 147),2	261,(7, 155),2	263,(7, 176),2	265,(7, 42),28	293,(7, 91),16	309,(7, 160),2	311,(7, 174),2	313,(7, 64),6	319,(7, 86),2	321,(7, 117),2	323,(7, 137),4	327,(7, 141),2	329,(7, 199),2	331,(9, 63),4	335,(9, 84),2	337,(7, 158),6	343,(7, 185),6	349,(9, 94),2	351,(9, 96),2	353,(9, 27),4	357,(9, 34),4	361,(9, 51),2	363,(7, 112),10	373,(7, 134),10	383,(7, 169),40	423,(7, 173),20	443,(9, 46),2	445,(9, 77),2	447,(9, 82),16	463,(9, 107),18	481,(9, 109),2	483,(9, 143),2	485,(9, 55),8	493,(9, 112),18	511,(9, 163),10	521,(9, 122),6	527,(9, 125),22	549,(9, 200),2	551,(9, 144),2	553,(9, 171),2	555,(9, 187),2	557,(13, 39),2	559,(9, 131),14	573,(13, 23),2	575,(13, 25),2	577,(13, 44),4	581,(7, 135),16	597,(9, 197),6	603,(13, 105),10	613,(9, 41),6	619,(7, 197),44	663,(9, 22),20	683,(13, 119),2	685,(13, 121),2	687,(7, 156),18	705,(9, 72),18	723,(9, 65),2	725,(13, 55),2	727,(13, 113),2	729,(7, 54),86	815,(9, 69),62	877,(9, 78),42	919,(13, 26),6	925,(13, 120),2	927,(9, 30),8	935,(9, 66),12	947,(9, 85),12	959,(9, 115),4	963,(9, 119),26	989,(9, 134),26	1015,(9, 180),2	1017,(13, 63),10	1027,(13, 96),4	1031,(9, 136),6	1037,(9, 117),68	1105,(13, 167),2	1107,(13, 195),2	1109,(14, 43),2	1111,(9, 138),4	1115,(13, 42),28	1143,(13, 54),6	1149,(13, 97),14	1163,(14, 44),2	1165,(14, 46),2	1167,(14, 57),2	1169,(13, 62),4	1173,(9, 154),92	1265,(13, 112),22	1287,(14, 91),2	1289,(14, 97),8	1297,(14, 105),2	1299,(14, 134),6	1305,(13, 65),18	1323,(13, 136),2	1325,(13, 124),12	1337,(13, 181),10	1347,(14, 135),2	1349,(13, 51),28	1377,(13, 85),12	1389,(13, 101),14	1403,(13, 137),16	1419,(13, 144),14	1433,(13, 147),4	1437,(13, 152),70	1507,(13, 155),4	1511,(13, 156),2	1513,(13, 176),6	1519,(13, 178),26	1545,(13, 196),28	1573,(13, 198),26	1599,(13, 200),20	1619,(14, 21),10	1629,(14, 41),2	1631,(14, 48),2	1633,(14, 58),68	1701,(14, 63),12	1713,(14, 78),14	1727,(14, 84),14	1741,(14, 92),4	1745,(14, 96),8	1753,(14, 114),6	1759,(14, 117),14	1773,(14, 121),26	1799,(14, 132),2	1801,(14, 138),2	1803,(14, 147),2	1805,(14, 152),2	1807,(14, 156),4	1811,(14, 167),2	1813,(14, 171),14	1827,(14, 173),2	1829,(14, 175),24	1853,(14, 177),32	1885,(14, 180),6	1891,(14, 185),2	1893,(14, 193),44	1937,(14, 199),4	
1,(0, 2),24	25,(0, 3),24	49,(0, 4),24	73,(0, 5),24	97,(0, 7),24	121,(0, 8),24	145,(0, 9),24	169,(0, 11),24	193,(0, 12),24	217,(0, 13),24	241,(0, 14),24	265,(0, 17),24	289,(0, 19),24	313,(0, 20),24	337,(6, 25),26	363,(6, 27),8	371,(6, 30),6	377,(6, 33),40	417,(6, 34),14	431,(6, 37),26	457,(6, 50),9954	10411,(6, 53),2	10413,(6, 54),40	10453,(6, 56),2	10455,(6, 57),62	10517,(6, 58),28	10545,(6, 59),10	10555,(6, 70),2	10557,(6, 73),6	10563,(6, 91),2	10565,(6, 97),6	10571,(6, 100),124	10695,(6, 105),4	10699,(6, 106),38	10737,(6, 134),4	10741,(6, 142),4	10745,(6, 143),4	10749,(6, 145),378	11127,(6, 148),10	11137,(6, 151),1222	12359,(6, 152),24	12383,(6, 155),8	12391,(6, 156),2	12393,(6, 157),2	12395,(6, 161),2	12397,(6, 177),2	12399,(6, 178),6	12405,(6, 180),22	12427,(1, 28),2	12429,(1, 31),38	12467,(1, 37),14	12481,(1, 41),6	12487,(1, 44),2	12489,(1, 45),2	12491,(1, 57),2	12493,(1, 66),4	12497,(1, 69),8	12505,(1, 71),26	12531,(1, 77),2	12533,(1, 108),2	12535,(1, 112),2	12537,(1, 121),2	12539,(1, 133),10	12549,(1, 157),6	12555,(1, 164),38	12593,(1, 177),22	12615,(1, 178),80	12695,(1, 180),8	12703,(1, 188),28	12731,(1, 195),4	12735,(1, 196),30	12765,(10, 25),2	12767,(10, 36),36	12803,(10, 42),8	12811,(10, 43),2	12813,(10, 48),2	12815,(10, 51),2	12817,(10, 58),2	12819,(10, 67),40	12859,(10, 70),10	12869,(10, 77),42	12911,(10, 81),8	12919,(10, 95),2	12921,(10, 101),2	12923,(10, 102),34	12957,(10, 103),2	12959,(10, 105),6	12965,(10, 115),4	12969,(10, 136),8	12977,(10, 158),2	12979,(10, 164),78	13057,(10, 174),10	13067,(10, 182),4	13071,(10, 193),20	13091,(10, 200),38	13129,(16, 21),10	13139,(16, 37),4	13143,(16, 41),2	13145,(16, 46),4	13149,(16, 47),2	13151,(16, 48),2	13153,(16, 51),42	13195,(16, 57),34	13229,(16, 65),2	13231,(16, 69),2	13233,(16, 81),12	13245,(16, 85),2	13247,(16, 89),26	13273,(16, 91),4	13277,(16, 136),2	13279,(16, 138),8	13287,(16, 139),2	13289,(16, 152),14	13303,(16, 157),2	13305,(16, 160),12	13317,(16, 163),4	13321,(16, 173),2	13323,(16, 176),2	13325,(16, 178),6	13331,(16, 180),4	13335,(16, 188),2	13337,(16, 193),44	13381,(16, 195),56	13437,(16, 200),12	13449,(15, 28),6	13455,(15, 38),8	13463,(15, 43),2	13465,(15, 58),2	13467,(15, 62),30	13497,(15, 65),4	13501,(15, 89),22	13523,(15, 112),4	13527,(15, 115),2	13529,(15, 119),2	13531,(15, 131),2	13533,(15, 134),4	13537,(15, 164),2	13539,(15, 169),2	13541,(15, 170),14	13555,(15, 174),2	13557,(15, 185),6	13563,(18, 28),10	13573,(18, 31),6	13579,(18, 42),14	13593,(18, 62),2	13595,(18, 69),2	13597,(18, 77),14	13611,(18, 81),4	13615,(18, 82),2	13617,(18, 115),10	13627,(18, 121),2	13629,(18, 123),22	13651,(18, 134),12	13663,(18, 143),2	13665,(18, 152),10	13675,(18, 155),6	13681,(18, 164),8	13689,(18, 177),16	13705,(18, 180),10	13715,(18, 182),4	13719,(18, 185),2	13721,(18, 198),14	13735,(18, 200),4	14345,(1, 32),10	14355,(1, 40),2	14357,(1, 50),2	14359,(1, 60),40	14399,(1, 98),26	14425,(1, 99),16	14441,(1, 100),8	14449,(1, 104),14	14463,(1, 110),6	14469,(1, 127),2	14471,(1, 128),2	14473,(1, 142),18	14491,(1, 145),6	14497,(1, 148),2	14499,(1, 149),4	14867,(10, 24),2	14869,(10, 56),2	14871,(10, 74),2	14873,(10, 80),6	14879,(10, 83),2	14881,(10, 100),60	14941,(10, 118),6	14947,(10, 128),22	14969,(10, 130),4	14973,(10, 142),2	14975,(10, 146),2	14977,(10, 162),2	14979,(10, 184),2	15101,(16, 50),2	15103,(16, 90),2	15105,(16, 98),54	15159,(16, 126),8	15167,(16, 142),18	15185,(16, 149),6	15191,(16, 159),74	15265,(16, 161),4	15269,(16, 162),2	15271,(16, 179),6	15375,(15, 24),2	15377,(15, 40),8	15385,(15, 60),22	15407,(15, 61),6	15413,(15, 80),2	15415,(15, 100),48	15463,(15, 118),12	15475,(15, 126),14	15489,(15, 127),2	15491,(15, 159),8	15499,(15, 192),22	15521,(18, 60),6	15527,(18, 98),2	15529,(18, 127),2	15531,(18, 148),10	15541,(18, 151),2	15543,(18, 172),2	15545,(18, 184),2	15547,(18, 189),2	16011,(93, 201),2	16015,(168, 201),2	16471,(49, 201),2	16717,(191, 201),2	16719,(88, 201),2	16725,(166, 201),2	16733,(29, 201),2	16739,(26, 201),2	16743,(52, 201),2	16747,(187, 201),2	16749,(55, 201),2	16753,(86, 201),2	16757,(124, 201),2	16759,(135, 201),2	16763,(75, 201),2	16765,(194, 201),2	16767,(137, 201),2	16769,(141, 201),2	16771,(154, 201),2	16773,(22, 201),2	16775,(39, 201),2	16777,(64, 201),2	16779,(116, 201),2	16781,(165, 201),2	16785,(72, 201),2	16789,(84, 201),2	16791,(117, 201),2	16793,(120, 201),2	16795,(63, 201),2	16797,(167, 201),2	16799,(171, 201),2	16801,(114, 201),2	16803,(175, 201),2	16805,(78, 201),2	16807,(87, 201),2	16809,(92, 201),2	16811,(94, 201),2	16813,(96, 201),2	16815,(113, 201),2	16817,(122, 201),2	16819,(181, 201),2	16821,(199, 201),2	16823,(144, 201),2	16825,(197, 201),2	
63,(2, 26),2	65,(2, 52),4	69,(2, 84),2	71,(2, 120),2	73,(2, 38),2	75,(2, 77),12	87,(2, 105),2	89,(2, 109),2	91,(2, 117),24	115,(2, 119),4	119,(2, 124),2	121,(2, 35),2	123,(2, 60),2	125,(2, 73),2	127,(2, 80),2	129,(2, 118),16	145,(2, 122),10	155,(2, 125),4	159,(2, 144),6	165,(5, 69),2	167,(5, 112),2	169,(2, 50),24	193,(2, 128),4	197,(2, 130),2	199,(2, 146),2	201,(2, 159),2	203,(2, 183),8	211,(2, 184),4	215,(5, 122),2	217,(5, 77),18	235,(5, 97),4	239,(5, 105),20	259,(5, 134),2	261,(5, 143),2	263,(5, 195),2	265,(2, 104),40	305,(2, 151),40	345,(2, 189),8	353,(5, 22),66	419,(5, 86),10	429,(5, 35),4	433,(5, 74),2	435,(5, 79),12	447,(5, 52),22	469,(5, 92),16	485,(5, 125),8	493,(5, 144),8	501,(5, 154),20	521,(5, 160),6	527,(5, 165),14	541,(5, 166),4	545,(5, 167),6	551,(5, 169),8	559,(5, 181),2	561,(5, 194),4	565,(5, 199),16	581,(5, 200),2	583,(11, 77),2	585,(11, 82),2	587,(11, 89),2	589,(11, 150),10	599,(11, 153),2	601,(11, 173),2	603,(11, 29),2	605,(11, 52),6	611,(11, 117),2	613,(11, 119),38	651,(11, 174),18	669,(11, 198),4	673,(17, 46),10	683,(11, 72),4	687,(17, 42),58	745,(17, 45),18	763,(17, 71),8	771,(17, 82),4	775,(17, 107),16	791,(19, 25),14	805,(19, 31),4	809,(19, 69),2	811,(19, 119),4	817,(11, 22),24	841,(11, 39),14	855,(11, 64),16	871,(11, 84),6	877,(17, 143),28	905,(19, 45),18	923,(19, 71),10	933,(19, 81),8	941,(19, 123),6	947,(19, 131),2	949,(19, 163),12	961,(19, 173),2	1015,(19, 153),18	1033,(19, 170),4	1037,(19, 195),34	1071,(19, 196),12	1107,(17, 22),2	1109,(17, 55),2	1117,(17, 96),2	1119,(17, 116),4	1123,(17, 124),2	1125,(17, 187),2	1127,(19, 55),2	1129,(19, 75),2	1151,(17, 84),16	1167,(19, 96),2	1265,(11, 135),40	1349,(17, 75),20	1369,(17, 87),30	1399,(19, 181),2	1401,(19, 194),2	1433,(17, 114),24	1457,(17, 141),28	1485,(17, 144),12	1497,(17, 154),56	1553,(19, 22),10	1563,(19, 39),6	1569,(19, 64),72	1641,(19, 78),36	1677,(19, 116),6	1683,(19, 144),6	1689,(19, 165),10	1773,(19, 120),28	10523,(5, 99),2	10525,(5, 106),2	10527,(5, 129),2	10529,(5, 145),10	10539,(5, 146),2	10541,(5, 162),2	10543,(5, 172),2	10569,(11, 98),2	10695,(11, 73),4	10737,(11, 99),2	10745,(11, 106),4	12359,(5, 100),32	12397,(2, 192),1948	15041,(5, 151),44	15085,(5, 184),16	15549,(11, 24),10	15559,(11, 56),14	15573,(11, 83),12	15585,(11, 90),6	15591,(11, 142),22	15613,(11, 149),10	15623,(11, 159),20	15643,(11, 162),10	15653,(11, 190),118	15771,(11, 192),10	16017,(17, 40),2	16019,(17, 60),8	16027,(17, 76),246	16273,(17, 79),2	16275,(17, 80),2	16277,(17, 90),4	16281,(17, 100),6	16287,(17, 104),8	16295,(17, 110),4	16299,(17, 127),38	16337,(17, 130),14	16351,(17, 142),12	16363,(17, 148),20	16383,(17, 159),4	16387,(17, 161),54	16441,(17, 172),8	16449,(17, 179),16	16465,(17, 190),6	16473,(19, 32),94	16567,(19, 40),4	16571,(19, 53),12	16583,(19, 61),2	16585,(19, 126),6	16591,(19, 127),6	16597,(19, 151),10	16607,(19, 159),4	16611,(19, 183),32	16721,(33, 201),2	16729,(34, 201),2	16741,(30, 201),2	16751,(111, 201),2	16755,(140, 201),2	16761,(27, 201),2	16783,(132, 201),2	16787,(147, 201),2	16827,(54, 201),2	16831,(156, 201),2	16835,(66, 201),2	16839,(133, 201),2	16847,(36, 201),2	16851,(67, 201),2	16853,(70, 201),2	16857,(101, 201),2	16861,(102, 201),2	16863,(103, 201),2	16865,(158, 201),2	16867,(21, 201),2	16871,(37, 201),2	16873,(41, 201),2	16877,(47, 201),2	16881,(48, 201),2	16885,(51, 201),2	16889,(85, 201),2	16893,(136, 201),2	16897,(138, 201),2	16901,(139, 201),2	16905,(157, 201),2	16909,(176, 201),2	16913,(178, 201),2	16917,(188, 201),2	16921,(193, 201),2	16925,(58, 201),2	16929,(65, 201),2	16933,(28, 201),2	16937,(62, 201),2	16941,(115, 201),2	16945,(152, 201),2	16949,(155, 201),2	16953,(177, 201),2	16957,(180, 201),2	16961,(182, 201),2	16965,(185, 201),2	
97,(3, 30),8	105,(3, 102),2	107,(3, 138),2	109,(3, 155),2	115,(3, 49),2	117,(3, 51),36	153,(3, 65),12	165,(3, 52),8	173,(3, 87),36	209,(3, 117),2	211,(3, 187),4	215,(3, 53),2	217,(3, 64),86	303,(3, 120),6	309,(4, 88),2	311,(4, 114),2	313,(3, 70),24	337,(3, 194),12	349,(4, 21),4	353,(3, 56),14	367,(3, 59),6	373,(3, 60),2	375,(3, 90),2	377,(3, 118),52	429,(3, 124),18	447,(3, 126),10	457,(3, 132),96	553,(3, 177),24	577,(4, 27),2	579,(4, 34),2	581,(4, 47),32	613,(4, 55),6	619,(4, 62),26	645,(4, 66),16	661,(4, 70),16	677,(4, 85),8	685,(4, 102),2	687,(4, 117),16	703,(4, 135),2	705,(4, 139),18	723,(4, 144),2	725,(4, 152),2	727,(4, 157),2	729,(4, 167),84	813,(4, 181),4	817,(4, 182),110	927,(4, 194),56	983,(4, 199),34	1017,(8, 30),14	1031,(8, 52),2	1033,(8, 55),4	1037,(8, 58),60	1097,(8, 66),14	1111,(8, 84),6	1117,(8, 85),6	1123,(8, 115),8	1131,(8, 116),2	1133,(8, 117),16	1149,(8, 124),2	1151,(8, 156),18	1169,(8, 165),2	1171,(8, 175),2	1173,(8, 176),8	1181,(8, 177),4	1185,(8, 182),2	1187,(8, 185),16	1203,(12, 27),4	1207,(12, 28),6	1213,(12, 37),2	1215,(12, 47),28	1243,(12, 48),2	1245,(12, 51),10	1255,(12, 54),2	1257,(12, 70),2	1259,(12, 101),4	1263,(12, 103),40	1303,(12, 111),2	1305,(12, 22),2	1307,(12, 72),4	1311,(12, 84),8	1319,(12, 86),2	1321,(12, 137),4	1325,(12, 139),2	1327,(12, 140),4	1331,(12, 176),2	1333,(12, 178),14	1347,(12, 180),2	1403,(20, 21),2	1405,(20, 27),2	1407,(20, 36),14	1421,(20, 47),2	1423,(20, 48),2	1425,(20, 65),2	1427,(20, 66),2	1429,(20, 133),4	1545,(20, 115),6	1551,(20, 152),4	1555,(20, 155),2	1557,(20, 178),28	1585,(20, 180),10	1595,(20, 185),12	1699,(20, 72),2	1801,(20, 63),10	1827,(20, 114),2	1853,(20, 78),20	1873,(20, 87),6	1879,(20, 92),4	1883,(20, 94),10	1893,(20, 96),20	1913,(20, 113),6	1919,(20, 122),16	1935,(20, 181),2	1941,(20, 144),4	1945,(20, 197),36	10413,(3, 130),38	10451,(3, 148),2	10455,(3, 142),8	10463,(3, 189),2	10465,(4, 53),4	10469,(4, 56),4	10473,(4, 73),18	10491,(4, 79),2	10493,(4, 98),6	10499,(4, 99),6	10505,(4, 100),2	10507,(4, 129),2	10509,(4, 146),4	10513,(4, 159),4	10517,(4, 162),6	10555,(8, 126),2	10563,(8, 79),4	10567,(8, 184),2	10739,(12, 32),2	12391,(12, 35),4	14503,(3, 192),364	14981,(4, 151),60	15277,(8, 40),16	15293,(8, 53),10	15303,(8, 59),18	15321,(8, 60),10	15331,(8, 83),18	15349,(8, 90),6	15355,(8, 129),12	15367,(8, 148),8	15781,(12, 50),106	15887,(12, 59),12	15899,(12, 76),36	15935,(12, 90),8	15943,(12, 100),2	15945,(12, 106),6	15951,(12, 126),18	15969,(12, 130),8	15977,(12, 145),4	15981,(12, 172),6	15987,(12, 179),2	15989,(12, 183),12	16001,(12, 189),8	16009,(12, 192),2	16013,(186, 201),2	16643,(20, 35),8	16651,(20, 61),18	16669,(20, 79),12	16681,(20, 90),2	16683,(20, 104),2	16685,(20, 118),2	16687,(20, 129),6	16693,(20, 161),2	16695,(20, 184),18	16713,(20, 192),4	16723,(109, 201),2	16727,(125, 201),2	16731,(23, 201),2	16735,(150, 201),2	16737,(107, 201),2	16745,(153, 201),2	16829,(97, 201),2	16833,(44, 201),2	16837,(45, 201),2	16841,(71, 201),2	16843,(108, 201),2	16845,(196, 201),2	16849,(25, 201),2	16855,(95, 201),2	16859,(105, 201),2	16869,(46, 201),2	16875,(57, 201),2	16879,(91, 201),2	16883,(160, 201),2	16887,(163, 201),2	16891,(173, 201),2	16895,(195, 201),2	16899,(38, 201),2	16903,(43, 201),2	16907,(89, 201),2	16911,(112, 201),2	16915,(119, 201),2	16919,(131, 201),2	16923,(169, 201),2	16927,(170, 201),2	16931,(174, 201),2	16935,(31, 201),2	16939,(42, 201),2	16943,(69, 201),2	16947,(77, 201),2	16951,(81, 201),2	16955,(82, 201),2	16959,(121, 201),2	16963,(123, 201),2	16967,(134, 201),2	16969,(143, 201),2	16971,(164, 201),2	16973,(198, 201),2	16975,(200, 201),2	
