4430
# CPU
241,5,2	481,10,2	483,108,2	525,93,2	533,53,2	557,18,2	1181,73,2	1221,83,2	1337,88,2	1385,103,2	1421,118,2	1513,17,2	1533,43,2	1681,58,2	2037,23,2	2309,33,2	2453,78,2	2541,113,2	2617,98,2	2881,48,2	2909,28,2	2933,38,2	3029,63,2	3097,68,2	
181,4,2	349,52,2	421,9,2	423,32,2	617,87,2	761,102,2	785,57,2	789,112,2	877,67,2	973,47,2	1141,72,2	1149,92,2	1269,37,2	1293,82,2	1453,77,2	1781,22,2	1817,117,2	2137,62,2	2209,16,2	2381,42,2	2613,97,2	2857,107,2	2905,27,2	
121,3,2	205,36,2	361,8,2	553,15,2	561,26,2	821,41,2	845,56,2	881,21,2	1117,31,2	1133,66,2	1373,46,2	1397,51,2	2401,71,2	2473,81,2	2641,106,2	2957,61,2	3105,76,2	3301,86,2	3349,91,2	3389,96,2	3393,101,2	3409,111,2	3437,116,2	
61,2,2	301,7,2	303,40,2	397,115,2	453,30,2	541,12,2	543,70,2	713,25,2	717,45,2	809,20,2	925,14,2	929,55,2	957,105,2	977,50,2	1057,120,2	1685,100,2	2337,35,2	2469,80,2	2597,95,2	2861,110,2	2937,60,2	3077,65,2	3101,75,2	3297,85,2	3305,90,2	
0,0,1	1,11,2	3,1,2	5,6,2	7,13,2	9,19,2	11,64,2	241,59,2	245,24,2	285,119,2	417,79,2	453,69,2	517,54,2	557,109,2	693,39,2	709,84,2	757,44,2	761,49,2	897,29,2	1049,89,2	1145,99,2	1193,114,2	1405,74,2	1421,104,2	1765,94,2	2381,34,2	4429,121,1	
# Incoming
181,(0, 5),60	241,(2, 33),24	265,(2, 38),40	305,(3, 17),12	317,(4, 23),4	349,(3, 58),4	357,(3, 68),8	365,(3, 113),4	397,(8, 17),4	401,(8, 38),4	421,(0, 10),60	481,(2, 93),44	525,(9, 17),4	529,(9, 53),4	533,(9, 118),4	549,(7, 73),4	553,(11, 18),4	565,(11, 38),252	825,(11, 43),88	913,(2, 83),152	1065,(3, 118),84	1149,(4, 73),32	1181,(4, 83),40	1221,(4, 88),116	1337,(4, 103),48	1385,(4, 118),36	1421,(7, 17),92	1513,(7, 43),20	1533,(7, 58),148	1681,(7, 98),32	1713,(8, 23),36	1749,(9, 63),80	1829,(12, 23),36	1865,(12, 28),36	1913,(1, 23),124	2037,(1, 33),272	2337,(1, 38),36	2401,(1, 78),52	2453,(9, 113),88	2541,(12, 48),32	2613,(1, 98),4	2617,(9, 48),264	2905,(6, 28),4	2909,(6, 38),24	2957,(6, 63),72	3077,(6, 68),20	
121,(0, 4),60	181,(2, 22),8	333,(3, 52),16	353,(3, 62),4	361,(0, 9),60	429,(2, 82),4	453,(3, 72),4	457,(3, 82),96	553,(7, 117),4	557,(8, 102),4	561,(11, 37),4	565,(3, 87),52	617,(3, 102),144	761,(5, 37),20	781,(5, 57),4	785,(10, 112),4	789,(12, 22),4	793,(12, 42),4	809,(8, 37),8	821,(11, 42),4	825,(8, 92),20	869,(12, 67),8	881,(12, 27),20	901,(12, 77),8	913,(11, 47),60	981,(11, 62),144	1125,(12, 72),16	1141,(12, 92),8	1149,(8, 22),84	1233,(12, 37),36	1269,(12, 82),24	1305,(11, 77),148	1453,(5, 22),328	1789,(11, 107),4	1793,(11, 117),24	1817,(1, 16),96	1913,(7, 62),224	2137,(12, 16),72	2373,(1, 42),8	2597,(1, 97),16	2641,(1, 107),216	2861,(6, 27),44	
61,(0, 3),60	183,(4, 15),4	189,(2, 36),16	205,(4, 31),4	209,(4, 46),20	229,(4, 51),8	301,(0, 8),60	361,(4, 116),32	417,(2, 81),12	433,(2, 86),4	437,(7, 51),12	449,(7, 86),4	453,(7, 96),16	469,(7, 116),4	541,(11, 15),12	557,(11, 26),4	561,(4, 86),252	813,(10, 66),4	817,(11, 41),4	821,(5, 56),24	845,(5, 61),24	869,(5, 81),8	877,(12, 21),4	897,(10, 46),20	917,(10, 61),12	929,(10, 106),12	1065,(7, 91),44	1109,(12, 31),8	1117,(12, 66),4	1125,(11, 66),8	1133,(11, 71),168	1301,(7, 46),72	1373,(12, 51),24	1469,(11, 101),320	1789,(12, 71),28	2381,(1, 71),20	2469,(1, 81),4	2473,(1, 86),120	2617,(1, 106),24	2937,(6, 61),20	3101,(6, 76),4	3297,(6, 86),4	3305,(6, 91),44	3349,(6, 96),40	3389,(6, 101),4	3393,(6, 111),16	3409,(6, 116),28	
1,(0, 2),60	187,(4, 20),12	241,(0, 7),60	301,(4, 110),12	317,(3, 45),16	369,(3, 115),28	397,(4, 30),56	481,(0, 12),60	541,(5, 14),168	709,(5, 25),4	713,(5, 45),4	717,(10, 50),8	725,(10, 75),4	729,(10, 105),12	797,(8, 20),12	813,(4, 95),88	901,(8, 14),24	925,(8, 55),4	929,(8, 90),4	933,(8, 105),24	973,(11, 50),4	977,(11, 60),4	1013,(9, 80),4	1049,(9, 120),8	1301,(11, 75),4	1453,(11, 95),16	1469,(9, 100),216	2309,(1, 35),28	2453,(1, 80),16	2593,(1, 95),4	2857,(1, 110),4	2933,(6, 60),4	3029,(6, 65),48	3097,(6, 75),4	3105,(6, 85),192	3301,(6, 90),4	
205,(2, 59),36	241,(4, 24),4	245,(4, 69),8	253,(4, 79),4	257,(4, 94),4	261,(4, 109),20	281,(4, 119),4	305,(2, 74),4	309,(2, 79),108	417,(3, 49),32	449,(3, 69),4	453,(4, 54),64	517,(9, 84),4	525,(7, 29),24	553,(3, 109),4	557,(7, 34),112	669,(7, 39),24	693,(7, 49),12	705,(7, 84),4	709,(40, 121),36	745,(10, 44),12	757,(10, 49),4	761,(36, 121),36	797,(115, 121),36	833,(30, 121),36	877,(10, 29),20	901,(4, 114),76	977,(52, 121),36	1017,(9, 89),32	1057,(32, 121),36	1093,(10, 99),52	1145,(10, 114),48	1193,(108, 121),36	1229,(93, 121),36	1265,(53, 121),36	1301,(15, 121),36	1337,(18, 121),36	1397,(12, 74),8	1405,(12, 104),16	1421,(26, 121),36	1457,(41, 121),36	1493,(56, 121),36	1529,(21, 121),36	1565,(31, 121),36	1601,(66, 121),36	1637,(46, 121),36	1673,(51, 121),36	1713,(12, 94),52	1781,(73, 121),36	1829,(87, 121),36	1865,(102, 121),36	1901,(57, 121),36	1937,(112, 121),36	1973,(67, 121),36	2009,(47, 121),36	2045,(72, 121),36	2081,(92, 121),36	2117,(83, 121),36	2153,(37, 121),36	2209,(12, 34),172	2381,(70, 121),36	2417,(25, 121),36	2453,(45, 121),36	2489,(20, 121),36	2525,(88, 121),36	2573,(14, 121),36	2609,(55, 121),36	2645,(105, 121),36	2681,(50, 121),36	2717,(120, 121),36	2753,(103, 121),36	2789,(118, 121),36	2825,(17, 121),36	2881,(82, 121),36	2917,(77, 121),36	2953,(43, 121),36	2989,(58, 121),36	3025,(100, 121),36	3061,(22, 121),36	3097,(117, 121),36	3133,(23, 121),36	3169,(62, 121),36	3205,(16, 121),36	3241,(33, 121),36	3277,(35, 121),36	3313,(42, 121),36	3349,(71, 121),36	3385,(78, 121),36	3421,(80, 121),36	3457,(81, 121),36	3493,(113, 121),36	3529,(95, 121),36	3565,(97, 121),36	3601,(98, 121),36	3637,(106, 121),36	3673,(107, 121),36	3709,(110, 121),36	3745,(48, 121),36	3781,(27, 121),36	3817,(28, 121),36	3853,(38, 121),36	3889,(60, 121),36	3925,(61, 121),36	3961,(63, 121),36	3997,(65, 121),36	4033,(68, 121),36	4069,(75, 121),36	4105,(76, 121),36	4141,(85, 121),36	4177,(86, 121),36	4213,(90, 121),36	4249,(91, 121),36	4285,(96, 121),36	4321,(101, 121),36	4357,(111, 121),36	4393,(116, 121),36	
# Outgoing
541,(5, 14),168	709,(5, 25),4	713,(5, 45),4	717,(10, 50),8	725,(10, 75),4	729,(10, 105),12	745,(10, 44),12	757,(10, 49),4	761,(5, 37),20	781,(5, 57),4	785,(10, 112),4	813,(10, 66),4	821,(5, 56),24	845,(5, 61),24	869,(5, 81),8	877,(10, 29),20	897,(10, 46),20	917,(10, 61),12	929,(10, 106),12	1093,(10, 99),52	1145,(10, 114),48	1193,(108, 121),36	1229,(93, 121),36	1265,(53, 121),36	1337,(18, 121),36	1453,(5, 22),328	1781,(73, 121),36	2117,(83, 121),36	2525,(88, 121),36	2753,(103, 121),36	2789,(118, 121),36	2825,(17, 121),36	2953,(43, 121),36	2989,(58, 121),36	3133,(23, 121),36	3241,(33, 121),36	3385,(78, 121),36	3493,(113, 121),36	3601,(98, 121),36	3745,(48, 121),36	3817,(28, 121),36	3853,(38, 121),36	3961,(63, 121),36	4033,(68, 121),36	
183,(4, 15),4	187,(4, 20),12	205,(4, 31),4	209,(4, 46),20	229,(4, 51),8	241,(4, 24),4	245,(4, 69),8	253,(4, 79),4	257,(4, 94),4	261,(4, 109),20	281,(4, 119),4	301,(4, 110),12	317,(4, 23),4	361,(4, 116),32	397,(4, 30),56	453,(4, 54),64	517,(9, 84),4	525,(9, 17),4	529,(9, 53),4	533,(9, 118),4	561,(4, 86),252	813,(4, 95),88	901,(4, 114),76	977,(52, 121),36	1013,(9, 80),4	1017,(9, 89),32	1049,(9, 120),8	1057,(32, 121),36	1149,(4, 73),32	1181,(4, 83),40	1221,(4, 88),116	1337,(4, 103),48	1385,(4, 118),36	1469,(9, 100),216	1749,(9, 63),80	1829,(87, 121),36	1865,(102, 121),36	1901,(57, 121),36	1937,(112, 121),36	1973,(67, 121),36	2009,(47, 121),36	2045,(72, 121),36	2081,(92, 121),36	2153,(37, 121),36	2453,(9, 113),88	2617,(9, 48),264	2881,(82, 121),36	2917,(77, 121),36	3061,(22, 121),36	3097,(117, 121),36	3169,(62, 121),36	3205,(16, 121),36	3313,(42, 121),36	3565,(97, 121),36	3673,(107, 121),36	3781,(27, 121),36	
305,(3, 17),12	317,(3, 45),16	333,(3, 52),16	349,(3, 58),4	353,(3, 62),4	357,(3, 68),8	365,(3, 113),4	369,(3, 115),28	397,(8, 17),4	401,(8, 38),4	417,(3, 49),32	449,(3, 69),4	453,(3, 72),4	457,(3, 82),96	553,(3, 109),4	557,(8, 102),4	565,(3, 87),52	617,(3, 102),144	761,(36, 121),36	797,(8, 20),12	809,(8, 37),8	825,(8, 92),20	901,(8, 14),24	925,(8, 55),4	929,(8, 90),4	933,(8, 105),24	1065,(3, 118),84	1149,(8, 22),84	1301,(15, 121),36	1421,(26, 121),36	1457,(41, 121),36	1493,(56, 121),36	1529,(21, 121),36	1565,(31, 121),36	1601,(66, 121),36	1637,(46, 121),36	1673,(51, 121),36	1713,(8, 23),36	3349,(71, 121),36	3457,(81, 121),36	3637,(106, 121),36	3925,(61, 121),36	4105,(76, 121),36	4177,(86, 121),36	4249,(91, 121),36	4285,(96, 121),36	4321,(101, 121),36	4357,(111, 121),36	4393,(116, 121),36	
181,(2, 22),8	189,(2, 36),16	205,(2, 59),36	241,(2, 33),24	265,(2, 38),40	305,(2, 74),4	309,(2, 79),108	417,(2, 81),12	429,(2, 82),4	433,(2, 86),4	437,(7, 51),12	449,(7, 86),4	453,(7, 96),16	469,(7, 116),4	481,(2, 93),44	525,(7, 29),24	549,(7, 73),4	553,(7, 117),4	557,(7, 34),112	669,(7, 39),24	693,(7, 49),12	705,(7, 84),4	709,(40, 121),36	789,(12, 22),4	793,(12, 42),4	797,(115, 121),36	833,(30, 121),36	869,(12, 67),8	877,(12, 21),4	881,(12, 27),20	901,(12, 77),8	913,(2, 83),152	1065,(7, 91),44	1109,(12, 31),8	1117,(12, 66),4	1125,(12, 72),16	1141,(12, 92),8	1233,(12, 37),36	1269,(12, 82),24	1301,(7, 46),72	1373,(12, 51),24	1397,(12, 74),8	1405,(12, 104),16	1421,(7, 17),92	1513,(7, 43),20	1533,(7, 58),148	1681,(7, 98),32	1713,(12, 94),52	1789,(12, 71),28	1829,(12, 23),36	1865,(12, 28),36	1913,(7, 62),224	2137,(12, 16),72	2209,(12, 34),172	2381,(70, 121),36	2417,(25, 121),36	2453,(45, 121),36	2489,(20, 121),36	2541,(12, 48),32	2573,(14, 121),36	2609,(55, 121),36	2645,(105, 121),36	2681,(50, 121),36	2717,(120, 121),36	3025,(100, 121),36	3277,(35, 121),36	3421,(80, 121),36	3529,(95, 121),36	3709,(110, 121),36	3889,(60, 121),36	3997,(65, 121),36	4069,(75, 121),36	4141,(85, 121),36	4213,(90, 121),36	
1,(0, 2),60	61,(0, 3),60	121,(0, 4),60	181,(0, 5),60	241,(0, 7),60	301,(0, 8),60	361,(0, 9),60	421,(0, 10),60	481,(0, 12),60	541,(11, 15),12	553,(11, 18),4	557,(11, 26),4	561,(11, 37),4	565,(11, 38),252	817,(11, 41),4	821,(11, 42),4	825,(11, 43),88	913,(11, 47),60	973,(11, 50),4	977,(11, 60),4	981,(11, 62),144	1125,(11, 66),8	1133,(11, 71),168	1301,(11, 75),4	1305,(11, 77),148	1453,(11, 95),16	1469,(11, 101),320	1789,(11, 107),4	1793,(11, 117),24	1817,(1, 16),96	1913,(1, 23),124	2037,(1, 33),272	2309,(1, 35),28	2337,(1, 38),36	2373,(1, 42),8	2381,(1, 71),20	2401,(1, 78),52	2453,(1, 80),16	2469,(1, 81),4	2473,(1, 86),120	2593,(1, 95),4	2597,(1, 97),16	2613,(1, 98),4	2617,(1, 106),24	2641,(1, 107),216	2857,(1, 110),4	2861,(6, 27),44	2905,(6, 28),4	2909,(6, 38),24	2933,(6, 60),4	2937,(6, 61),20	2957,(6, 63),72	3029,(6, 65),48	3077,(6, 68),20	3097,(6, 75),4	3101,(6, 76),4	3105,(6, 85),192	3297,(6, 86),4	3301,(6, 90),4	3305,(6, 91),44	3349,(6, 96),40	3389,(6, 101),4	3393,(6, 111),16	3409,(6, 116),28	
