2798
# CPU
0,0,1	1,12,6	7,4,6	13,8,6	1564,25,6	2154,55,6	2176,68,6	2183,72,6	2189,74,6	2244,109,6	2256,119,6	2273,35,6	2279,39,6	2285,51,6	2291,69,6	2309,75,6	2315,76,6	2322,13,6	2328,24,6	2341,27,6	2347,34,6	2441,36,6	2447,42,6	2453,47,6	2459,67,6	2465,70,6	2471,78,6	2477,79,6	2483,94,6	2489,98,6	2797,121,1	
4,1,6	10,2,6	22,9,6	63,20,6	167,80,6	308,45,6	399,38,6	405,54,6	411,59,6	417,63,6	424,110,6	473,30,6	481,93,6	487,116,6	493,29,6	499,33,6	505,44,6	511,50,6	517,64,6	523,83,6	529,96,6	540,89,6	574,91,6	1053,14,6	1090,82,6	1150,62,6	1164,65,6	1178,73,6	1221,92,6	1227,102,6	1233,104,6	
10,3,6	25,10,6	31,11,6	392,18,6	508,16,6	519,22,6	525,28,6	531,40,6	539,85,6	581,52,6	611,84,6	655,17,6	662,21,6	690,48,6	696,53,6	703,58,6	721,77,6	728,86,6	734,97,6	740,37,6	746,41,6	752,49,6	758,57,6	764,71,6	770,99,6	776,66,6	782,95,6	788,101,6	794,106,6	800,117,6	
13,5,6	19,6,6	25,7,6	31,15,6	269,32,6	324,31,6	343,60,6	429,111,6	462,118,6	469,23,6	995,90,6	1039,112,6	1077,81,6	1116,103,6	1137,120,6	1143,19,6	1149,26,6	1155,43,6	1161,46,6	1167,56,6	1173,61,6	1179,87,6	1190,88,6	1223,100,6	1231,105,6	1238,107,6	1244,108,6	1250,113,6	1262,114,6	1268,115,6	
# Incoming
11,(1, 24),4	15,(1, 25),1	16,(1, 36),1	17,(1, 42),2	19,(3, 13),9	29,(1, 35),7	36,(1, 51),2	38,(3, 25),2	42,(3, 68),2	44,(1, 70),1	46,(1, 94),1	52,(3, 74),1	53,(1, 98),2	55,(1, 109),1	56,(3, 75),1	60,(1, 72),7	67,(1, 75),4	71,(3, 47),10	81,(3, 51),7	88,(3, 69),16	108,(1, 119),2	110,(3, 42),55	165,(3, 78),9	176,(3, 119),1	179,(2, 24),3	182,(2, 25),2	184,(2, 27),1	185,(2, 42),1	195,(2, 72),4	199,(2, 79),1	200,(2, 94),1	201,(2, 109),1	202,(5, 13),14	216,(5, 24),2	218,(5, 34),1	219,(5, 35),3	222,(5, 55),1	223,(5, 72),3	226,(5, 109),1	227,(1, 55),53	280,(5, 27),35	315,(5, 74),5	320,(2, 78),6	326,(5, 39),8	334,(5, 75),2	336,(5, 76),14	350,(6, 24),1	351,(6, 39),1	352,(6, 47),1	353,(9, 24),7	360,(9, 42),2	362,(9, 69),1	364,(3, 34),546	910,(3, 55),73	983,(2, 34),56	1039,(2, 76),21	1060,(2, 98),95	1155,(5, 36),152	1307,(5, 42),174	1481,(5, 70),58	1539,(5, 79),10	1549,(5, 94),9	1558,(6, 25),6	1564,(6, 34),6	1570,(6, 35),7	1577,(6, 42),6	1583,(6, 67),1	1584,(6, 68),2	1586,(6, 69),21	1607,(6, 70),14	1621,(6, 74),4	1625,(6, 76),8	1633,(6, 78),8	1641,(6, 94),1	1642,(6, 98),45	1687,(6, 119),9	1696,(9, 47),5	1701,(9, 51),12	1713,(9, 70),201	1914,(9, 78),16	1930,(9, 94),40	1970,(9, 98),97	2067,(9, 119),6	2073,(10, 13),5	2078,(10, 24),4	2082,(10, 27),64	2146,(10, 36),3	2149,(10, 39),1	2150,(10, 42),1	2151,(10, 55),3	2154,(10, 68),22	2176,(10, 69),1	2177,(10, 72),6	2183,(10, 74),4	2187,(10, 76),10	2197,(10, 78),29	2226,(10, 79),16	2242,(10, 109),2	2244,(10, 119),12	2256,(7, 13),15	2271,(7, 24),1	2272,(7, 35),1	2273,(7, 39),2	2275,(7, 42),2	2277,(7, 51),6	2283,(7, 67),1	2284,(7, 69),1	2285,(7, 70),22	2307,(7, 75),2	2309,(7, 76),4	2313,(7, 78),1	2314,(7, 98),6	2320,(11, 13),2	2322,(11, 24),4	2326,(11, 27),15	2341,(11, 34),5	2346,(11, 36),95	2441,(11, 42),3	2444,(11, 47),4	2448,(11, 67),2	2450,(11, 70),3	2453,(11, 78),1	2454,(11, 79),6	2460,(11, 94),3	2463,(11, 98),6	2469,(15, 121),4	2473,(20, 121),4	2477,(80, 121),4	2481,(32, 121),4	2485,(45, 121),4	2489,(31, 121),4	2493,(60, 121),4	2497,(18, 121),4	2501,(38, 121),4	2505,(54, 121),4	2509,(59, 121),4	2513,(63, 121),4	2517,(110, 121),4	2521,(111, 121),4	2525,(118, 121),4	2529,(23, 121),4	2533,(30, 121),4	2537,(93, 121),4	2541,(116, 121),4	2545,(29, 121),4	2549,(33, 121),4	2553,(44, 121),4	2557,(16, 121),4	2561,(50, 121),4	2565,(64, 121),4	2569,(22, 121),4	2573,(83, 121),4	2577,(28, 121),4	2581,(96, 121),4	2585,(40, 121),4	2589,(85, 121),4	2593,(89, 121),4	2597,(91, 121),4	2601,(52, 121),4	2605,(84, 121),4	2609,(17, 121),4	2613,(21, 121),4	2617,(48, 121),4	2621,(53, 121),4	2625,(58, 121),4	2629,(77, 121),4	2633,(86, 121),4	2637,(97, 121),4	2641,(37, 121),4	2645,(41, 121),4	2649,(49, 121),4	2653,(57, 121),4	2657,(71, 121),4	2661,(99, 121),4	2665,(66, 121),4	2669,(95, 121),4	2673,(101, 121),4	2677,(106, 121),4	2681,(117, 121),4	2685,(90, 121),4	2689,(112, 121),4	2693,(14, 121),4	2697,(81, 121),4	2701,(82, 121),4	2705,(103, 121),4	2709,(120, 121),4	2713,(19, 121),4	2717,(26, 121),4	2721,(62, 121),4	2725,(43, 121),4	2729,(46, 121),4	2733,(65, 121),4	2737,(56, 121),4	2741,(61, 121),4	2745,(73, 121),4	2749,(87, 121),4	2753,(88, 121),4	2757,(92, 121),4	2761,(100, 121),4	2765,(102, 121),4	2769,(105, 121),4	2773,(104, 121),4	2777,(107, 121),4	2781,(108, 121),4	2785,(113, 121),4	2789,(114, 121),4	2793,(115, 121),4	
1,(0, 1),3	4,(0, 2),3	19,(0, 9),3	28,(3, 54),1	35,(3, 44),3	40,(3, 63),2	45,(3, 73),1	47,(3, 65),5	52,(12, 20),1	53,(3, 91),3	57,(3, 82),5	62,(10, 20),1	72,(12, 29),3	75,(12, 30),1	76,(12, 33),4	94,(12, 45),7	104,(3, 89),5	109,(10, 30),1	114,(12, 50),13	153,(12, 73),6	164,(12, 80),3	167,(12, 82),3	170,(12, 83),3	174,(3, 92),2	177,(10, 29),3	180,(10, 44),1	181,(10, 50),3	184,(12, 89),2	186,(3, 14),43	229,(3, 62),14	243,(5, 33),1	244,(5, 38),2	246,(5, 44),7	253,(5, 54),4	257,(10, 96),1	258,(10, 102),1	259,(4, 29),9	268,(5, 65),1	269,(4, 38),1	270,(5, 59),2	272,(5, 62),3	275,(5, 63),4	279,(5, 110),1	280,(10, 59),3	283,(11, 45),1	284,(11, 64),1	285,(4, 45),23	308,(4, 54),3	311,(10, 62),3	314,(10, 92),5	319,(11, 91),1	320,(5, 82),5	325,(6, 30),1	337,(4, 59),3	340,(11, 33),4	344,(11, 50),3	347,(4, 62),1	348,(4, 63),4	352,(4, 65),4	356,(5, 50),24	380,(5, 102),2	382,(6, 44),1	383,(4, 82),7	390,(4, 83),2	392,(5, 89),5	397,(6, 38),2	399,(4, 89),2	401,(6, 54),1	402,(6, 59),2	404,(6, 62),1	405,(6, 63),1	406,(6, 89),2	408,(6, 91),1	409,(6, 92),1	410,(6, 93),7	417,(6, 104),1	418,(6, 116),2	420,(4, 110),4	424,(5, 14),45	469,(8, 14),3	472,(7, 30),1	473,(7, 44),2	475,(7, 73),1	476,(7, 92),1	477,(7, 93),4	481,(7, 102),1	482,(7, 104),1	483,(7, 116),3	486,(8, 29),1	487,(8, 33),1	488,(8, 44),3	496,(8, 50),1	498,(8, 64),1	500,(8, 83),2	502,(8, 96),1	506,(6, 102),16	522,(7, 89),18	569,(8, 91),5	574,(8, 92),9	607,(8, 104),1	1039,(10, 14),14	1077,(10, 82),13	1147,(11, 62),3	1150,(11, 65),14	1164,(11, 73),14	1190,(11, 92),31	1223,(11, 102),2	1225,(11, 104),1	
7,(0, 3),3	10,(1, 22),1	22,(0, 10),3	25,(0, 11),3	28,(12, 17),20	48,(1, 37),3	51,(1, 66),2	53,(12, 21),3	56,(1, 41),4	63,(12, 28),9	72,(1, 49),5	80,(12, 37),11	91,(12, 40),1	92,(1, 53),4	96,(1, 57),9	105,(1, 106),1	106,(1, 117),2	110,(2, 18),2	112,(12, 48),1	113,(12, 49),1	114,(1, 97),13	127,(12, 52),6	133,(12, 53),4	137,(2, 21),1	138,(2, 49),4	142,(12, 71),11	159,(12, 77),5	173,(12, 85),1	174,(2, 22),5	186,(2, 52),1	187,(2, 71),2	189,(12, 99),13	202,(2, 99),1	203,(12, 101),1	204,(1, 48),23	227,(5, 17),2	229,(5, 21),1	230,(5, 22),1	231,(5, 28),1	232,(5, 37),1	233,(5, 40),1	234,(5, 41),1	235,(5, 48),6	241,(5, 77),1	242,(5, 95),1	256,(4, 18),1	257,(5, 53),4	261,(5, 85),3	264,(5, 101),3	267,(5, 117),1	269,(7, 17),1	270,(4, 40),8	278,(4, 41),7	311,(2, 37),9	324,(4, 49),4	328,(4, 53),6	334,(4, 57),3	337,(2, 53),9	346,(2, 77),5	351,(2, 95),2	353,(6, 22),3	356,(4, 66),21	377,(4, 71),1	378,(4, 77),2	380,(2, 84),7	387,(6, 37),2	389,(6, 41),2	391,(9, 18),1	392,(4, 85),1	393,(2, 106),8	401,(9, 37),1	402,(9, 40),1	403,(4, 101),1	404,(4, 106),13	417,(2, 17),25	442,(2, 66),25	467,(2, 97),24	491,(5, 66),15	506,(8, 16),2	508,(8, 21),8	516,(8, 22),3	519,(8, 28),6	525,(8, 40),4	529,(8, 48),3	532,(8, 52),1	533,(8, 77),1	534,(8, 84),3	537,(8, 85),2	539,(8, 86),6	545,(6, 48),16	561,(6, 49),11	572,(6, 52),9	581,(6, 117),2	583,(8, 95),4	587,(8, 99),7	594,(6, 71),6	600,(6, 84),11	611,(6, 86),34	645,(6, 95),5	650,(9, 17),5	655,(9, 21),7	662,(9, 41),1	663,(9, 48),27	690,(9, 49),1	691,(9, 53),2	693,(9, 57),4	697,(9, 58),6	703,(9, 66),1	704,(9, 77),17	721,(9, 86),7	728,(9, 97),1	729,(9, 99),2	731,(9, 106),1	732,(7, 37),3	735,(7, 41),9	744,(7, 49),7	751,(7, 57),1	752,(7, 71),2	754,(7, 99),1	755,(9, 117),5	760,(7, 66),14	774,(7, 95),4	778,(7, 101),1	779,(7, 106),6	785,(7, 117),1	
10,(0, 5),3	13,(0, 6),3	16,(0, 7),3	19,(1, 23),9	28,(1, 31),1	29,(3, 15),1	30,(3, 23),1	31,(3, 26),3	34,(3, 32),1	38,(1, 56),1	39,(1, 60),4	43,(1, 61),1	44,(3, 56),1	45,(1, 87),1	46,(3, 60),1	47,(1, 108),1	48,(12, 19),4	56,(12, 26),7	63,(3, 61),7	70,(3, 108),1	71,(1, 112),1	77,(1, 81),4	81,(1, 90),10	91,(2, 31),1	92,(12, 43),2	101,(12, 46),11	112,(1, 103),2	127,(1, 113),3	130,(1, 114),2	132,(2, 32),1	133,(2, 56),1	134,(2, 87),1	135,(2, 100),1	136,(2, 105),1	137,(12, 56),1	138,(12, 60),4	142,(1, 46),31	173,(2, 114),1	174,(12, 88),10	184,(3, 111),1	185,(10, 56),1	186,(12, 90),3	189,(1, 118),6	202,(12, 100),1	203,(2, 118),1	204,(12, 103),3	207,(12, 107),2	209,(12, 111),2	211,(12, 112),29	240,(12, 114),12	252,(12, 118),1	253,(12, 120),3	256,(10, 105),1	257,(4, 26),2	259,(3, 88),6	265,(3, 113),3	268,(4, 32),1	269,(3, 105),4	273,(3, 115),4	277,(10, 61),2	279,(10, 108),1	280,(1, 107),16	296,(1, 111),15	311,(4, 31),13	324,(3, 46),14	338,(10, 112),1	339,(10, 114),1	340,(4, 60),3	343,(4, 61),4	347,(3, 19),17	364,(2, 81),16	380,(4, 81),3	387,(2, 111),4	392,(9, 108),1	393,(4, 87),1	394,(4, 88),5	401,(4, 90),1	402,(4, 100),1	403,(2, 108),8	411,(9, 26),2	413,(9, 81),3	416,(9, 118),1	417,(4, 108),3	424,(4, 111),5	429,(4, 112),22	451,(4, 113),3	454,(4, 118),8	462,(8, 23),7	472,(8, 19),11	483,(8, 26),3	491,(8, 46),5	497,(8, 61),1	499,(8, 81),1	500,(9, 87),2	503,(8, 100),3	506,(9, 19),12	518,(9, 46),17	535,(9, 56),6	541,(9, 90),3	545,(8, 87),5	550,(8, 88),19	569,(9, 61),23	592,(9, 113),2	594,(8, 103),13	608,(8, 107),14	622,(8, 112),1	623,(8, 113),1	624,(8, 114),7	631,(9, 105),6	637,(9, 107),7	644,(9, 114),2	646,(9, 120),4	732,(9, 112),23	983,(3, 90),12	995,(3, 107),16	1011,(3, 112),28	1053,(10, 46),15	1068,(10, 81),9	1090,(10, 87),4	1094,(10, 88),3	1097,(10, 100),8	1105,(10, 103),11	1116,(10, 113),16	1132,(10, 115),1	1133,(10, 120),4	1137,(11, 19),3	1140,(11, 26),2	1142,(11, 43),1	1143,(11, 46),1	1144,(11, 56),2	1146,(11, 61),1	1178,(11, 87),1	1179,(11, 88),11	1221,(11, 100),2	1226,(11, 105),5	1231,(11, 107),7	1238,(11, 108),1	1239,(11, 113),9	1248,(11, 114),14	1262,(11, 115),4	
# Outgoing
1,(0, 1),3	4,(0, 2),3	7,(0, 3),3	10,(0, 5),3	13,(0, 6),3	16,(0, 7),3	19,(0, 9),3	22,(0, 10),3	25,(0, 11),3	28,(12, 17),20	48,(12, 19),4	52,(12, 20),1	53,(12, 21),3	56,(12, 26),7	63,(12, 28),9	72,(12, 29),3	75,(12, 30),1	76,(12, 33),4	80,(12, 37),11	91,(12, 40),1	92,(12, 43),2	94,(12, 45),7	101,(12, 46),11	112,(12, 48),1	113,(12, 49),1	114,(12, 50),13	127,(12, 52),6	133,(12, 53),4	137,(12, 56),1	138,(12, 60),4	142,(12, 71),11	153,(12, 73),6	159,(12, 77),5	164,(12, 80),3	167,(12, 82),3	170,(12, 83),3	173,(12, 85),1	174,(12, 88),10	184,(12, 89),2	186,(12, 90),3	189,(12, 99),13	202,(12, 100),1	203,(12, 101),1	204,(12, 103),3	207,(12, 107),2	209,(12, 111),2	211,(12, 112),29	240,(12, 114),12	252,(12, 118),1	253,(12, 120),3	256,(4, 18),1	257,(4, 26),2	259,(4, 29),9	268,(4, 32),1	269,(4, 38),1	270,(4, 40),8	278,(4, 41),7	285,(4, 45),23	308,(4, 54),3	311,(4, 31),13	324,(4, 49),4	328,(4, 53),6	334,(4, 57),3	337,(4, 59),3	340,(4, 60),3	343,(4, 61),4	347,(4, 62),1	348,(4, 63),4	352,(4, 65),4	356,(4, 66),21	377,(4, 71),1	378,(4, 77),2	380,(4, 81),3	383,(4, 82),7	390,(4, 83),2	392,(4, 85),1	393,(4, 87),1	394,(4, 88),5	399,(4, 89),2	401,(4, 90),1	402,(4, 100),1	403,(4, 101),1	404,(4, 106),13	417,(4, 108),3	420,(4, 110),4	424,(4, 111),5	429,(4, 112),22	451,(4, 113),3	454,(4, 118),8	462,(8, 23),7	469,(8, 14),3	472,(8, 19),11	483,(8, 26),3	486,(8, 29),1	487,(8, 33),1	488,(8, 44),3	491,(8, 46),5	496,(8, 50),1	497,(8, 61),1	498,(8, 64),1	499,(8, 81),1	500,(8, 83),2	502,(8, 96),1	503,(8, 100),3	506,(8, 16),2	508,(8, 21),8	516,(8, 22),3	519,(8, 28),6	525,(8, 40),4	529,(8, 48),3	532,(8, 52),1	533,(8, 77),1	534,(8, 84),3	537,(8, 85),2	539,(8, 86),6	545,(8, 87),5	550,(8, 88),19	569,(8, 91),5	574,(8, 92),9	583,(8, 95),4	587,(8, 99),7	594,(8, 103),13	607,(8, 104),1	608,(8, 107),14	622,(8, 112),1	623,(8, 113),1	624,(8, 114),7	
10,(1, 22),1	11,(1, 24),4	15,(1, 25),1	16,(1, 36),1	17,(1, 42),2	19,(1, 23),9	28,(1, 31),1	29,(1, 35),7	36,(1, 51),2	38,(1, 56),1	39,(1, 60),4	43,(1, 61),1	44,(1, 70),1	45,(1, 87),1	46,(1, 94),1	47,(1, 108),1	48,(1, 37),3	51,(1, 66),2	53,(1, 98),2	55,(1, 109),1	56,(1, 41),4	60,(1, 72),7	67,(1, 75),4	71,(1, 112),1	72,(1, 49),5	77,(1, 81),4	81,(1, 90),10	91,(2, 31),1	92,(1, 53),4	96,(1, 57),9	105,(1, 106),1	106,(1, 117),2	108,(1, 119),2	110,(2, 18),2	112,(1, 103),2	114,(1, 97),13	127,(1, 113),3	130,(1, 114),2	132,(2, 32),1	133,(2, 56),1	134,(2, 87),1	135,(2, 100),1	136,(2, 105),1	137,(2, 21),1	138,(2, 49),4	142,(1, 46),31	173,(2, 114),1	174,(2, 22),5	179,(2, 24),3	182,(2, 25),2	184,(2, 27),1	185,(2, 42),1	186,(2, 52),1	187,(2, 71),2	189,(1, 118),6	195,(2, 72),4	199,(2, 79),1	200,(2, 94),1	201,(2, 109),1	202,(2, 99),1	203,(2, 118),1	204,(1, 48),23	227,(1, 55),53	280,(1, 107),16	296,(1, 111),15	311,(2, 37),9	320,(2, 78),6	337,(2, 53),9	346,(2, 77),5	351,(2, 95),2	353,(9, 24),7	360,(9, 42),2	362,(9, 69),1	364,(2, 81),16	380,(2, 84),7	387,(2, 111),4	391,(9, 18),1	392,(9, 108),1	393,(2, 106),8	401,(9, 37),1	402,(9, 40),1	403,(2, 108),8	411,(9, 26),2	413,(9, 81),3	416,(9, 118),1	417,(2, 17),25	442,(2, 66),25	467,(2, 97),24	500,(9, 87),2	506,(9, 19),12	518,(9, 46),17	535,(9, 56),6	541,(9, 90),3	569,(9, 61),23	592,(9, 113),2	631,(9, 105),6	637,(9, 107),7	644,(9, 114),2	646,(9, 120),4	650,(9, 17),5	655,(9, 21),7	662,(9, 41),1	663,(9, 48),27	690,(9, 49),1	691,(9, 53),2	693,(9, 57),4	697,(9, 58),6	703,(9, 66),1	704,(9, 77),17	721,(9, 86),7	728,(9, 97),1	729,(9, 99),2	731,(9, 106),1	732,(9, 112),23	755,(9, 117),5	983,(2, 34),56	1039,(2, 76),21	1060,(2, 98),95	1696,(9, 47),5	1701,(9, 51),12	1713,(9, 70),201	1914,(9, 78),16	1930,(9, 94),40	1970,(9, 98),97	2067,(9, 119),6	2473,(20, 121),4	2477,(80, 121),4	2485,(45, 121),4	2501,(38, 121),4	2505,(54, 121),4	2509,(59, 121),4	2513,(63, 121),4	2517,(110, 121),4	2533,(30, 121),4	2537,(93, 121),4	2541,(116, 121),4	2545,(29, 121),4	2549,(33, 121),4	2553,(44, 121),4	2561,(50, 121),4	2565,(64, 121),4	2573,(83, 121),4	2581,(96, 121),4	2593,(89, 121),4	2597,(91, 121),4	2693,(14, 121),4	2701,(82, 121),4	2721,(62, 121),4	2733,(65, 121),4	2745,(73, 121),4	2757,(92, 121),4	2765,(102, 121),4	2773,(104, 121),4	
19,(3, 13),9	28,(3, 54),1	29,(3, 15),1	30,(3, 23),1	31,(3, 26),3	34,(3, 32),1	35,(3, 44),3	38,(3, 25),2	40,(3, 63),2	42,(3, 68),2	44,(3, 56),1	45,(3, 73),1	46,(3, 60),1	47,(3, 65),5	52,(3, 74),1	53,(3, 91),3	56,(3, 75),1	57,(3, 82),5	62,(10, 20),1	63,(3, 61),7	70,(3, 108),1	71,(3, 47),10	81,(3, 51),7	88,(3, 69),16	104,(3, 89),5	109,(10, 30),1	110,(3, 42),55	165,(3, 78),9	174,(3, 92),2	176,(3, 119),1	177,(10, 29),3	180,(10, 44),1	181,(10, 50),3	184,(3, 111),1	185,(10, 56),1	186,(3, 14),43	229,(3, 62),14	256,(10, 105),1	257,(10, 96),1	258,(10, 102),1	259,(3, 88),6	265,(3, 113),3	269,(3, 105),4	273,(3, 115),4	277,(10, 61),2	279,(10, 108),1	280,(10, 59),3	283,(11, 45),1	284,(11, 64),1	311,(10, 62),3	314,(10, 92),5	319,(11, 91),1	324,(3, 46),14	338,(10, 112),1	339,(10, 114),1	340,(11, 33),4	344,(11, 50),3	347,(3, 19),17	364,(3, 34),546	910,(3, 55),73	983,(3, 90),12	995,(3, 107),16	1011,(3, 112),28	1039,(10, 14),14	1053,(10, 46),15	1068,(10, 81),9	1077,(10, 82),13	1090,(10, 87),4	1094,(10, 88),3	1097,(10, 100),8	1105,(10, 103),11	1116,(10, 113),16	1132,(10, 115),1	1133,(10, 120),4	1137,(11, 19),3	1140,(11, 26),2	1142,(11, 43),1	1143,(11, 46),1	1144,(11, 56),2	1146,(11, 61),1	1147,(11, 62),3	1150,(11, 65),14	1164,(11, 73),14	1178,(11, 87),1	1179,(11, 88),11	1190,(11, 92),31	1221,(11, 100),2	1223,(11, 102),2	1225,(11, 104),1	1226,(11, 105),5	1231,(11, 107),7	1238,(11, 108),1	1239,(11, 113),9	1248,(11, 114),14	1262,(11, 115),4	2073,(10, 13),5	2078,(10, 24),4	2082,(10, 27),64	2146,(10, 36),3	2149,(10, 39),1	2150,(10, 42),1	2151,(10, 55),3	2154,(10, 68),22	2176,(10, 69),1	2177,(10, 72),6	2183,(10, 74),4	2187,(10, 76),10	2197,(10, 78),29	2226,(10, 79),16	2242,(10, 109),2	2244,(10, 119),12	2320,(11, 13),2	2322,(11, 24),4	2326,(11, 27),15	2341,(11, 34),5	2346,(11, 36),95	2441,(11, 42),3	2444,(11, 47),4	2448,(11, 67),2	2450,(11, 70),3	2453,(11, 78),1	2454,(11, 79),6	2460,(11, 94),3	2463,(11, 98),6	2497,(18, 121),4	2557,(16, 121),4	2569,(22, 121),4	2577,(28, 121),4	2585,(40, 121),4	2589,(85, 121),4	2601,(52, 121),4	2605,(84, 121),4	2609,(17, 121),4	2613,(21, 121),4	2617,(48, 121),4	2621,(53, 121),4	2625,(58, 121),4	2629,(77, 121),4	2633,(86, 121),4	2637,(97, 121),4	2641,(37, 121),4	2645,(41, 121),4	2649,(49, 121),4	2653,(57, 121),4	2657,(71, 121),4	2661,(99, 121),4	2665,(66, 121),4	2669,(95, 121),4	2673,(101, 121),4	2677,(106, 121),4	2681,(117, 121),4	
202,(5, 13),14	216,(5, 24),2	218,(5, 34),1	219,(5, 35),3	222,(5, 55),1	223,(5, 72),3	226,(5, 109),1	227,(5, 17),2	229,(5, 21),1	230,(5, 22),1	231,(5, 28),1	232,(5, 37),1	233,(5, 40),1	234,(5, 41),1	235,(5, 48),6	241,(5, 77),1	242,(5, 95),1	243,(5, 33),1	244,(5, 38),2	246,(5, 44),7	253,(5, 54),4	257,(5, 53),4	261,(5, 85),3	264,(5, 101),3	267,(5, 117),1	268,(5, 65),1	269,(7, 17),1	270,(5, 59),2	272,(5, 62),3	275,(5, 63),4	279,(5, 110),1	280,(5, 27),35	315,(5, 74),5	320,(5, 82),5	325,(6, 30),1	326,(5, 39),8	334,(5, 75),2	336,(5, 76),14	350,(6, 24),1	351,(6, 39),1	352,(6, 47),1	353,(6, 22),3	356,(5, 50),24	380,(5, 102),2	382,(6, 44),1	387,(6, 37),2	389,(6, 41),2	392,(5, 89),5	397,(6, 38),2	401,(6, 54),1	402,(6, 59),2	404,(6, 62),1	405,(6, 63),1	406,(6, 89),2	408,(6, 91),1	409,(6, 92),1	410,(6, 93),7	417,(6, 104),1	418,(6, 116),2	424,(5, 14),45	472,(7, 30),1	473,(7, 44),2	475,(7, 73),1	476,(7, 92),1	477,(7, 93),4	481,(7, 102),1	482,(7, 104),1	483,(7, 116),3	491,(5, 66),15	506,(6, 102),16	522,(7, 89),18	545,(6, 48),16	561,(6, 49),11	572,(6, 52),9	581,(6, 117),2	594,(6, 71),6	600,(6, 84),11	611,(6, 86),34	645,(6, 95),5	732,(7, 37),3	735,(7, 41),9	744,(7, 49),7	751,(7, 57),1	752,(7, 71),2	754,(7, 99),1	760,(7, 66),14	774,(7, 95),4	778,(7, 101),1	779,(7, 106),6	785,(7, 117),1	1155,(5, 36),152	1307,(5, 42),174	1481,(5, 70),58	1539,(5, 79),10	1549,(5, 94),9	1558,(6, 25),6	1564,(6, 34),6	1570,(6, 35),7	1577,(6, 42),6	1583,(6, 67),1	1584,(6, 68),2	1586,(6, 69),21	1607,(6, 70),14	1621,(6, 74),4	1625,(6, 76),8	1633,(6, 78),8	1641,(6, 94),1	1642,(6, 98),45	1687,(6, 119),9	2256,(7, 13),15	2271,(7, 24),1	2272,(7, 35),1	2273,(7, 39),2	2275,(7, 42),2	2277,(7, 51),6	2283,(7, 67),1	2284,(7, 69),1	2285,(7, 70),22	2307,(7, 75),2	2309,(7, 76),4	2313,(7, 78),1	2314,(7, 98),6	2469,(15, 121),4	2481,(32, 121),4	2489,(31, 121),4	2493,(60, 121),4	2521,(111, 121),4	2525,(118, 121),4	2529,(23, 121),4	2685,(90, 121),4	2689,(112, 121),4	2697,(81, 121),4	2705,(103, 121),4	2709,(120, 121),4	2713,(19, 121),4	2717,(26, 121),4	2725,(43, 121),4	2729,(46, 121),4	2737,(56, 121),4	2741,(61, 121),4	2749,(87, 121),4	2753,(88, 121),4	2761,(100, 121),4	2769,(105, 121),4	2777,(107, 121),4	2781,(108, 121),4	2785,(113, 121),4	2789,(114, 121),4	2793,(115, 121),4	
