45606
# CPU
17,5,14	31,175,14	45,10,14	59,15,14	73,20,14	87,25,14	101,30,14	115,35,14	129,115,14	143,165,14	165,65,14	213,55,14	281,145,14	333,90,14	347,150,14	361,50,14	375,70,14	389,85,14	403,45,14	425,110,14	1045,130,14	1081,105,14	1277,190,14	1353,140,14	1713,80,14	1765,100,14	1793,200,14	1807,60,14	1921,180,14	2305,75,14	2325,125,14	2339,135,14	2353,155,14	2367,95,14	2381,160,14	2395,185,14	2441,195,14	2961,120,14	2993,170,14	3221,40,14	
13,4,14	29,9,14	45,14,14	61,19,14	75,189,14	113,34,14	337,84,14	393,139,14	409,29,14	545,194,14	569,149,14	1001,129,14	1333,59,14	1561,174,14	1769,164,14	2113,104,14	2127,114,14	2225,169,14	2753,144,14	2837,89,14	2925,54,14	2939,69,14	2953,74,14	2967,99,14	3413,134,14	3429,94,14	3443,44,14	3457,64,14	5013,119,14	5145,154,14	5865,39,14	7021,179,14	7197,184,14	7345,199,14	7613,24,14	7725,49,14	7789,79,14	7973,109,14	8033,124,14	8047,159,14	
9,3,14	23,53,14	37,8,14	51,13,14	65,18,14	209,193,14	223,73,14	237,118,14	1281,58,14	1469,143,14	1689,178,14	1717,98,14	1797,38,14	2109,88,14	2221,163,14	2269,43,14	2293,83,14	2337,153,14	3405,148,14	3419,173,14	3585,188,14	3599,48,14	3633,168,14	3689,183,14	3837,78,14	3877,28,14	4133,63,14	4237,128,14	4277,133,14	4305,108,14	4697,113,14	5109,123,14	5123,138,14	5149,158,14	5829,33,14	6729,93,14	7237,198,14	7565,23,14	7785,68,14	7925,103,14	
5,2,14	21,7,14	37,12,14	51,177,14	65,17,14	273,27,14	287,32,14	309,72,14	457,47,14	1645,162,14	1757,152,14	2345,142,14	2437,82,14	2451,122,14	2465,132,14	2489,87,14	2673,112,14	2749,137,14	2763,92,14	2777,167,14	2833,77,14	2873,182,14	2993,117,14	3085,22,14	3099,42,14	3113,57,14	3357,102,14	3377,197,14	3405,52,14	3419,187,14	3561,147,14	3593,37,14	4077,107,14	5825,192,14	6665,67,14	6749,127,14	6965,157,14	6985,172,14	7769,62,14	7793,97,14	
0,0,1	1,1,14	15,6,14	29,11,14	43,16,14	57,51,14	71,26,14	85,186,14	297,176,14	317,41,14	341,161,14	377,86,14	391,166,14	445,31,14	461,106,14	569,141,14	1237,56,14	1353,196,14	1373,116,14	2461,146,14	2475,181,14	2489,136,14	2577,71,14	3725,151,14	3789,46,14	3837,91,14	4297,101,14	4469,21,14	4605,111,14	5213,76,14	5289,171,14	5749,36,14	5821,131,14	5897,81,14	5949,66,14	6117,96,14	6753,156,14	7745,61,14	7977,121,14	8041,126,14	8069,191,14	45605,201,1	
# Incoming
13,(0, 5),4	29,(0, 10),4	33,(4, 25),12	45,(0, 15),4	49,(4, 110),8	61,(0, 20),4	93,(4, 160),16	109,(4, 165),16	125,(9, 65),40	181,(2, 55),32	213,(9, 95),24	237,(9, 200),4	241,(14, 40),4	245,(2, 145),36	305,(14, 85),4	309,(2, 195),16	325,(3, 180),4	329,(14, 90),4	333,(14, 150),4	341,(8, 50),16	357,(13, 70),4	361,(13, 75),20	381,(13, 85),4	385,(14, 190),12	397,(18, 45),4	401,(14, 110),24	425,(19, 60),12	437,(19, 100),4	445,(7, 95),12	457,(3, 105),84	569,(19, 180),24	1001,(8, 130),44	1045,(13, 105),36	1081,(18, 95),52	1273,(7, 190),4	1277,(7, 200),4	1337,(7, 140),16	1689,(12, 75),4	1693,(12, 80),20	1717,(12, 100),48	1777,(12, 200),16	1797,(6, 60),8	1805,(6, 75),16	1885,(12, 180),36	1921,(18, 195),124	2109,(17, 120),4	2117,(6, 125),36	2153,(17, 75),152	2305,(11, 125),20	2325,(11, 135),4	2329,(17, 155),4	2337,(11, 185),4	2341,(16, 95),4	2345,(17, 160),36	2381,(17, 185),8	2389,(17, 195),52	2957,(16, 120),4	2961,(16, 170),32	2993,(18, 40),228	
9,(0, 4),4	25,(0, 9),4	41,(0, 14),4	57,(0, 19),4	61,(2, 34),52	165,(2, 44),16	225,(1, 84),112	337,(2, 109),24	361,(2, 139),32	393,(2, 184),4	397,(2, 199),4	401,(3, 29),8	409,(3, 49),44	453,(3, 79),4	541,(3, 194),4	545,(8, 39),4	549,(1, 149),20	569,(3, 134),20	865,(8, 129),136	1013,(2, 159),208	1221,(7, 44),16	1237,(13, 74),4	1241,(13, 99),8	1249,(13, 174),4	1253,(13, 199),20	1273,(5, 39),4	1277,(13, 59),56	1333,(18, 119),4	1337,(18, 169),8	1345,(5, 79),8	1353,(7, 109),20	1373,(7, 114),36	1409,(13, 119),44	1453,(18, 134),104	1557,(18, 174),4	1645,(1, 164),124	1777,(1, 199),16	1793,(12, 54),60	1853,(12, 114),16	1869,(12, 144),16	1921,(17, 24),24	1945,(17, 109),48	1993,(6, 104),120	2113,(17, 114),4	2117,(17, 199),24	2221,(6, 169),4	2293,(11, 94),12	2597,(5, 144),156	2833,(10, 89),4	2873,(16, 39),8	2881,(16, 54),44	2925,(16, 69),8	2933,(16, 74),16	2949,(16, 99),8	3161,(16, 184),32	3409,(10, 134),4	3417,(15, 94),12	3429,(20, 44),4	3433,(20, 64),4	3437,(17, 179),200	4305,(10, 119),708	5113,(10, 154),32	5829,(15, 39),36	5865,(15, 49),36	6985,(15, 179),36	7021,(15, 184),176	7237,(15, 199),108	7565,(20, 24),48	7613,(20, 49),112	7785,(20, 79),4	7925,(20, 109),48	7977,(20, 124),56	8041,(20, 159),4	
5,(0, 3),4	21,(0, 8),4	37,(0, 13),4	45,(9, 98),4	53,(0, 18),4	57,(4, 28),36	113,(2, 38),52	165,(9, 118),16	181,(14, 88),4	185,(14, 168),8	193,(14, 193),16	209,(19, 73),4	213,(2, 118),20	233,(2, 138),12	245,(4, 153),60	329,(7, 68),4	333,(7, 148),4	337,(19, 93),4	445,(1, 133),20	465,(2, 88),548	1013,(5, 38),260	1277,(5, 58),4	1281,(7, 78),56	1337,(14, 128),32	1409,(7, 123),44	1453,(7, 143),16	1469,(7, 178),220	1713,(12, 98),4	1765,(12, 183),12	1793,(6, 38),4	1821,(6, 78),160	1981,(6, 83),4	1985,(6, 93),8	1993,(12, 108),108	2101,(17, 88),8	2113,(6, 123),4	2153,(6, 163),68	2225,(6, 173),16	2241,(11, 43),28	2269,(11, 83),24	2329,(11, 153),8	2353,(6, 108),484	2837,(5, 113),564	3401,(5, 148),4	3405,(5, 173),4	3409,(11, 188),176	3585,(16, 48),12	3597,(16, 168),36	3633,(14, 183),56	3713,(10, 28),4	3717,(10, 33),8	3725,(10, 63),36	3761,(10, 68),16	3777,(10, 78),60	3837,(17, 28),40	3877,(17, 63),256	4133,(17, 128),104	4237,(17, 133),40	4297,(10, 108),8	4305,(17, 113),392	5013,(10, 123),96	5109,(10, 138),4	5145,(10, 158),4	5825,(15, 33),4	6665,(15, 93),64	7197,(15, 198),40	7345,(20, 23),220	7769,(20, 68),16	7793,(20, 103),132	
1,(0, 2),4	17,(0, 7),4	33,(0, 12),4	49,(0, 17),4	65,(1, 37),88	153,(1, 47),32	185,(1, 77),40	225,(3, 27),48	273,(3, 32),12	285,(3, 72),24	309,(4, 47),20	337,(1, 102),108	445,(14, 47),12	457,(19, 87),4	465,(1, 147),84	549,(3, 117),20	569,(1, 162),1076	1645,(3, 87),60	1705,(3, 152),52	1757,(3, 187),4	1761,(8, 57),8	1769,(1, 187),8	1777,(3, 127),136	1913,(4, 112),44	1957,(4, 137),184	2141,(4, 142),204	2345,(6, 67),8	2353,(9, 112),32	2385,(8, 62),16	2401,(8, 77),16	2417,(8, 82),20	2437,(8, 122),8	2445,(14, 107),12	2457,(5, 132),8	2465,(8, 157),20	2485,(13, 87),4	2489,(5, 137),108	2597,(8, 112),76	2673,(8, 137),76	2749,(18, 92),4	2753,(5, 167),16	2769,(14, 182),32	2801,(13, 42),8	2809,(18, 182),4	2813,(10, 77),20	2837,(6, 182),36	2873,(8, 117),120	2993,(16, 22),92	3085,(16, 42),8	3093,(16, 57),12	3105,(16, 62),24	3129,(16, 172),32	3161,(14, 192),20	3193,(16, 187),108	3301,(14, 102),56	3357,(13, 197),20	3377,(19, 52),28	3413,(10, 187),4	3417,(13, 97),84	3501,(13, 147),60	3561,(18, 37),32	3689,(19, 107),388	5149,(10, 192),676	5949,(15, 67),716	6729,(15, 127),20	6753,(15, 157),212	6965,(15, 172),20	7745,(20, 62),24	7789,(20, 97),4	
281,(2, 176),16	297,(2, 181),8	305,(2, 191),4	309,(3, 31),4	313,(3, 41),4	317,(3, 76),4	321,(3, 86),4	325,(2, 196),4	329,(3, 91),8	337,(3, 161),4	341,(4, 31),32	373,(4, 86),4	377,(4, 151),4	381,(4, 166),4	385,(8, 96),12	397,(14, 71),4	401,(7, 31),44	457,(7, 106),4	461,(12, 111),4	465,(14, 146),4	469,(19, 141),100	589,(53, 201),276	865,(9, 116),328	1193,(13, 81),20	1213,(13, 181),8	1221,(18, 56),16	1237,(7, 61),36	1281,(5, 61),4	1285,(5, 66),60	1345,(18, 196),8	1353,(5, 116),20	1373,(5, 131),1084	2457,(12, 146),4	2461,(12, 181),4	2465,(5, 136),24	2489,(12, 71),88	2577,(12, 121),128	2705,(12, 126),56	2761,(12, 156),8	2769,(5, 171),16	2785,(5, 191),28	2813,(7, 131),624	3437,(175, 201),276	3713,(12, 151),12	3725,(13, 46),64	3789,(13, 131),32	3821,(18, 91),16	3837,(10, 101),460	4297,(14, 21),172	4469,(14, 111),136	4605,(13, 76),608	5213,(13, 171),76	5289,(177, 201),276	5565,(19, 36),184	5749,(17, 131),72	5821,(18, 81),76	5901,(15, 66),48	5949,(17, 96),168	6117,(189, 201),276	6393,(34, 201),276	6749,(15, 156),4	6753,(193, 201),276	7029,(73, 201),276	7305,(118, 201),276	7725,(20, 61),20	7973,(20, 121),4	8033,(20, 126),8	8045,(20, 191),24	8069,(25, 201),276	8345,(30, 201),276	8621,(35, 201),276	8897,(115, 201),276	9173,(165, 201),276	9449,(65, 201),276	9725,(55, 201),276	10001,(27, 201),276	10277,(145, 201),276	10553,(32, 201),276	10829,(72, 201),276	11105,(90, 201),276	11381,(84, 201),276	11657,(150, 201),276	11933,(50, 201),276	12209,(70, 201),276	12485,(85, 201),276	12761,(139, 201),276	13037,(45, 201),276	13313,(29, 201),276	13589,(110, 201),276	13865,(47, 201),276	14141,(194, 201),276	14417,(149, 201),276	14693,(129, 201),276	14969,(130, 201),276	15245,(105, 201),276	15521,(190, 201),276	15797,(58, 201),276	16073,(59, 201),276	16349,(140, 201),276	16625,(143, 201),276	16901,(174, 201),276	17177,(162, 201),276	17453,(178, 201),276	17729,(80, 201),276	18005,(98, 201),276	18281,(152, 201),276	18557,(100, 201),276	18833,(164, 201),276	19109,(200, 201),276	19385,(38, 201),276	19661,(60, 201),276	19937,(180, 201),276	20213,(88, 201),276	20489,(104, 201),276	20765,(114, 201),276	21041,(163, 201),276	21317,(169, 201),276	21593,(43, 201),276	21869,(83, 201),276	22145,(75, 201),276	22421,(125, 201),276	22697,(153, 201),276	22973,(135, 201),276	23249,(142, 201),276	23525,(155, 201),276	23801,(95, 201),276	24077,(160, 201),276	24353,(185, 201),276	24629,(82, 201),276	24905,(195, 201),276	25181,(122, 201),276	25457,(132, 201),276	25733,(87, 201),276	26009,(112, 201),276	26285,(137, 201),276	26561,(144, 201),276	26837,(92, 201),276	27113,(167, 201),276	27389,(77, 201),276	27665,(89, 201),276	27941,(182, 201),276	28217,(54, 201),276	28493,(69, 201),276	28769,(74, 201),276	29045,(120, 201),276	29321,(99, 201),276	29597,(117, 201),276	29873,(170, 201),276	30149,(22, 201),276	30425,(42, 201),276	30701,(57, 201),276	30977,(40, 201),276	31253,(102, 201),276	31529,(197, 201),276	31805,(52, 201),276	32081,(148, 201),276	32357,(134, 201),276	32633,(187, 201),276	32909,(173, 201),276	33185,(94, 201),276	33461,(44, 201),276	33737,(64, 201),276	34013,(147, 201),276	34289,(188, 201),276	34565,(37, 201),276	34841,(48, 201),276	35117,(168, 201),276	35393,(183, 201),276	35669,(78, 201),276	35945,(28, 201),276	36221,(107, 201),276	36497,(63, 201),276	36773,(128, 201),276	37049,(133, 201),276	37325,(108, 201),276	37601,(113, 201),276	37877,(119, 201),276	38153,(123, 201),276	38429,(138, 201),276	38705,(154, 201),276	38981,(158, 201),276	39257,(192, 201),276	39533,(33, 201),276	39809,(39, 201),276	40085,(67, 201),276	40361,(93, 201),276	40637,(127, 201),276	40913,(157, 201),276	41189,(172, 201),276	41465,(179, 201),276	41741,(184, 201),276	42017,(198, 201),276	42293,(199, 201),276	42569,(23, 201),276	42845,(24, 201),276	43121,(49, 201),276	43397,(62, 201),276	43673,(68, 201),276	43949,(79, 201),276	44225,(97, 201),276	44501,(103, 201),276	44777,(109, 201),276	45053,(124, 201),276	45329,(159, 201),276	
# Outgoing
1013,(5, 38),260	1273,(5, 39),4	1277,(5, 58),4	1281,(5, 61),4	1285,(5, 66),60	1345,(5, 79),8	1353,(5, 116),20	1373,(5, 131),1084	2457,(5, 132),8	2465,(5, 136),24	2489,(5, 137),108	2597,(5, 144),156	2753,(5, 167),16	2769,(5, 171),16	2785,(5, 191),28	2813,(10, 77),20	2833,(10, 89),4	2837,(5, 113),564	3401,(5, 148),4	3405,(5, 173),4	3409,(10, 134),4	3413,(10, 187),4	3417,(15, 94),12	3429,(20, 44),4	3433,(20, 64),4	3437,(175, 201),276	3713,(10, 28),4	3717,(10, 33),8	3725,(10, 63),36	3761,(10, 68),16	3777,(10, 78),60	3837,(10, 101),460	4297,(10, 108),8	4305,(10, 119),708	5013,(10, 123),96	5109,(10, 138),4	5113,(10, 154),32	5145,(10, 158),4	5149,(10, 192),676	5825,(15, 33),4	5829,(15, 39),36	5865,(15, 49),36	5901,(15, 66),48	5949,(15, 67),716	6665,(15, 93),64	6729,(15, 127),20	6749,(15, 156),4	6753,(15, 157),212	6965,(15, 172),20	6985,(15, 179),36	7021,(15, 184),176	7197,(15, 198),40	7237,(15, 199),108	7345,(20, 23),220	7565,(20, 24),48	7613,(20, 49),112	7725,(20, 61),20	7745,(20, 62),24	7769,(20, 68),16	7785,(20, 79),4	7789,(20, 97),4	7793,(20, 103),132	7925,(20, 109),48	7973,(20, 121),4	7977,(20, 124),56	8033,(20, 126),8	8041,(20, 159),4	8045,(20, 191),24	8069,(25, 201),276	8345,(30, 201),276	8621,(35, 201),276	8897,(115, 201),276	9173,(165, 201),276	9449,(65, 201),276	9725,(55, 201),276	10277,(145, 201),276	11105,(90, 201),276	11657,(150, 201),276	11933,(50, 201),276	12209,(70, 201),276	12485,(85, 201),276	13037,(45, 201),276	13589,(110, 201),276	14969,(130, 201),276	15245,(105, 201),276	15521,(190, 201),276	16349,(140, 201),276	17729,(80, 201),276	18557,(100, 201),276	19109,(200, 201),276	19661,(60, 201),276	19937,(180, 201),276	22145,(75, 201),276	22421,(125, 201),276	22973,(135, 201),276	23525,(155, 201),276	23801,(95, 201),276	24077,(160, 201),276	24353,(185, 201),276	24905,(195, 201),276	29045,(120, 201),276	29873,(170, 201),276	30977,(40, 201),276	
33,(4, 25),12	45,(9, 98),4	49,(4, 110),8	57,(4, 28),36	93,(4, 160),16	109,(4, 165),16	125,(9, 65),40	165,(9, 118),16	181,(14, 88),4	185,(14, 168),8	193,(14, 193),16	209,(19, 73),4	213,(9, 95),24	237,(9, 200),4	241,(14, 40),4	245,(4, 153),60	305,(14, 85),4	309,(4, 47),20	329,(14, 90),4	333,(14, 150),4	337,(19, 93),4	341,(4, 31),32	373,(4, 86),4	377,(4, 151),4	381,(4, 166),4	385,(14, 190),12	397,(14, 71),4	401,(14, 110),24	425,(19, 60),12	437,(19, 100),4	445,(14, 47),12	457,(19, 87),4	465,(14, 146),4	469,(19, 141),100	569,(19, 180),24	865,(9, 116),328	1337,(14, 128),32	1913,(4, 112),44	1957,(4, 137),184	2141,(4, 142),204	2353,(9, 112),32	2445,(14, 107),12	2769,(14, 182),32	3161,(14, 192),20	3301,(14, 102),56	3377,(19, 52),28	3633,(14, 183),56	3689,(19, 107),388	4297,(14, 21),172	4469,(14, 111),136	5565,(19, 36),184	6117,(189, 201),276	6393,(34, 201),276	11381,(84, 201),276	12761,(139, 201),276	13313,(29, 201),276	14141,(194, 201),276	14417,(149, 201),276	14693,(129, 201),276	16073,(59, 201),276	16901,(174, 201),276	18833,(164, 201),276	20489,(104, 201),276	20765,(114, 201),276	21317,(169, 201),276	26561,(144, 201),276	27665,(89, 201),276	28217,(54, 201),276	28493,(69, 201),276	28769,(74, 201),276	29321,(99, 201),276	32357,(134, 201),276	33185,(94, 201),276	33461,(44, 201),276	33737,(64, 201),276	37877,(119, 201),276	38705,(154, 201),276	39809,(39, 201),276	41465,(179, 201),276	41741,(184, 201),276	42293,(199, 201),276	42845,(24, 201),276	43121,(49, 201),276	43949,(79, 201),276	44777,(109, 201),276	45053,(124, 201),276	45329,(159, 201),276	
225,(3, 27),48	273,(3, 32),12	285,(3, 72),24	309,(3, 31),4	313,(3, 41),4	317,(3, 76),4	321,(3, 86),4	325,(3, 180),4	329,(3, 91),8	337,(3, 161),4	341,(8, 50),16	357,(13, 70),4	361,(13, 75),20	381,(13, 85),4	385,(8, 96),12	397,(18, 45),4	401,(3, 29),8	409,(3, 49),44	453,(3, 79),4	457,(3, 105),84	541,(3, 194),4	545,(8, 39),4	549,(3, 117),20	569,(3, 134),20	589,(53, 201),276	865,(8, 129),136	1001,(8, 130),44	1045,(13, 105),36	1081,(18, 95),52	1193,(13, 81),20	1213,(13, 181),8	1221,(18, 56),16	1237,(13, 74),4	1241,(13, 99),8	1249,(13, 174),4	1253,(13, 199),20	1277,(13, 59),56	1333,(18, 119),4	1337,(18, 169),8	1345,(18, 196),8	1409,(13, 119),44	1453,(18, 134),104	1557,(18, 174),4	1645,(3, 87),60	1705,(3, 152),52	1757,(3, 187),4	1761,(8, 57),8	1777,(3, 127),136	1921,(18, 195),124	2385,(8, 62),16	2401,(8, 77),16	2417,(8, 82),20	2437,(8, 122),8	2465,(8, 157),20	2485,(13, 87),4	2597,(8, 112),76	2673,(8, 137),76	2749,(18, 92),4	2801,(13, 42),8	2809,(18, 182),4	2873,(8, 117),120	2993,(18, 40),228	3357,(13, 197),20	3417,(13, 97),84	3501,(13, 147),60	3561,(18, 37),32	3725,(13, 46),64	3789,(13, 131),32	3821,(18, 91),16	4605,(13, 76),608	5213,(13, 171),76	5821,(18, 81),76	6753,(193, 201),276	7029,(73, 201),276	7305,(118, 201),276	15797,(58, 201),276	16625,(143, 201),276	17453,(178, 201),276	18005,(98, 201),276	19385,(38, 201),276	20213,(88, 201),276	21041,(163, 201),276	21593,(43, 201),276	21869,(83, 201),276	22697,(153, 201),276	32081,(148, 201),276	32909,(173, 201),276	34289,(188, 201),276	34841,(48, 201),276	35117,(168, 201),276	35393,(183, 201),276	35669,(78, 201),276	35945,(28, 201),276	36497,(63, 201),276	36773,(128, 201),276	37049,(133, 201),276	37325,(108, 201),276	37601,(113, 201),276	38153,(123, 201),276	38429,(138, 201),276	38981,(158, 201),276	39533,(33, 201),276	40361,(93, 201),276	42017,(198, 201),276	42569,(23, 201),276	43673,(68, 201),276	44501,(103, 201),276	
61,(2, 34),52	113,(2, 38),52	165,(2, 44),16	181,(2, 55),32	213,(2, 118),20	233,(2, 138),12	245,(2, 145),36	281,(2, 176),16	297,(2, 181),8	305,(2, 191),4	309,(2, 195),16	325,(2, 196),4	329,(7, 68),4	333,(7, 148),4	337,(2, 109),24	361,(2, 139),32	393,(2, 184),4	397,(2, 199),4	401,(7, 31),44	445,(7, 95),12	457,(7, 106),4	461,(12, 111),4	465,(2, 88),548	1013,(2, 159),208	1221,(7, 44),16	1237,(7, 61),36	1273,(7, 190),4	1277,(7, 200),4	1281,(7, 78),56	1337,(7, 140),16	1353,(7, 109),20	1373,(7, 114),36	1409,(7, 123),44	1453,(7, 143),16	1469,(7, 178),220	1689,(12, 75),4	1693,(12, 80),20	1713,(12, 98),4	1717,(12, 100),48	1765,(12, 183),12	1777,(12, 200),16	1793,(12, 54),60	1853,(12, 114),16	1869,(12, 144),16	1885,(12, 180),36	1921,(17, 24),24	1945,(17, 109),48	1993,(12, 108),108	2101,(17, 88),8	2109,(17, 120),4	2113,(17, 114),4	2117,(17, 199),24	2153,(17, 75),152	2329,(17, 155),4	2345,(17, 160),36	2381,(17, 185),8	2389,(17, 195),52	2457,(12, 146),4	2461,(12, 181),4	2489,(12, 71),88	2577,(12, 121),128	2705,(12, 126),56	2761,(12, 156),8	2813,(7, 131),624	3437,(17, 179),200	3713,(12, 151),12	3837,(17, 28),40	3877,(17, 63),256	4133,(17, 128),104	4237,(17, 133),40	4305,(17, 113),392	5289,(177, 201),276	5749,(17, 131),72	5949,(17, 96),168	10001,(27, 201),276	10553,(32, 201),276	10829,(72, 201),276	13865,(47, 201),276	17177,(162, 201),276	18281,(152, 201),276	23249,(142, 201),276	24629,(82, 201),276	25181,(122, 201),276	25457,(132, 201),276	25733,(87, 201),276	26009,(112, 201),276	26285,(137, 201),276	26837,(92, 201),276	27113,(167, 201),276	27389,(77, 201),276	27941,(182, 201),276	29597,(117, 201),276	30149,(22, 201),276	30425,(42, 201),276	30701,(57, 201),276	31253,(102, 201),276	31529,(197, 201),276	31805,(52, 201),276	32633,(187, 201),276	34013,(147, 201),276	34565,(37, 201),276	36221,(107, 201),276	39257,(192, 201),276	40085,(67, 201),276	40637,(127, 201),276	40913,(157, 201),276	41189,(172, 201),276	43397,(62, 201),276	44225,(97, 201),276	
1,(0, 2),4	5,(0, 3),4	9,(0, 4),4	13,(0, 5),4	17,(0, 7),4	21,(0, 8),4	25,(0, 9),4	29,(0, 10),4	33,(0, 12),4	37,(0, 13),4	41,(0, 14),4	45,(0, 15),4	49,(0, 17),4	53,(0, 18),4	57,(0, 19),4	61,(0, 20),4	65,(1, 37),88	153,(1, 47),32	185,(1, 77),40	225,(1, 84),112	337,(1, 102),108	445,(1, 133),20	465,(1, 147),84	549,(1, 149),20	569,(1, 162),1076	1645,(1, 164),124	1769,(1, 187),8	1777,(1, 199),16	1793,(6, 38),4	1797,(6, 60),8	1805,(6, 75),16	1821,(6, 78),160	1981,(6, 83),4	1985,(6, 93),8	1993,(6, 104),120	2113,(6, 123),4	2117,(6, 125),36	2153,(6, 163),68	2221,(6, 169),4	2225,(6, 173),16	2241,(11, 43),28	2269,(11, 83),24	2293,(11, 94),12	2305,(11, 125),20	2325,(11, 135),4	2329,(11, 153),8	2337,(11, 185),4	2341,(16, 95),4	2345,(6, 67),8	2353,(6, 108),484	2837,(6, 182),36	2873,(16, 39),8	2881,(16, 54),44	2925,(16, 69),8	2933,(16, 74),16	2949,(16, 99),8	2957,(16, 120),4	2961,(16, 170),32	2993,(16, 22),92	3085,(16, 42),8	3093,(16, 57),12	3105,(16, 62),24	3129,(16, 172),32	3161,(16, 184),32	3193,(16, 187),108	3409,(11, 188),176	3585,(16, 48),12	3597,(16, 168),36	
