42
# CPU
0,0,1	1,1,2	3,5,2	5,4,2	7,18,2	9,14,2	11,15,2	13,8,2	15,11,2	17,12,2	19,2,2	21,6,2	23,16,2	25,9,2	27,17,2	29,10,2	31,20,2	33,19,2	35,7,2	37,3,2	39,13,2	41,21,1	



# Incoming




# Outgoing




