365
# CPU
0,81,1	1,14,3	4,64,3	7,28,3	10,63,3	13,45,3	16,55,3	19,47,3	22,31,3	25,41,3	28,40,3	31,69,3	34,71,3	37,11,3	40,13,3	43,15,3	46,78,3	49,77,3	52,76,3	55,37,3	58,34,3	61,50,3	64,32,3	67,30,3	70,68,3	73,62,3	76,60,3	79,24,3	82,79,3	85,75,3	88,66,3	91,54,3	94,44,3	97,9,3	100,61,3	103,39,3	106,16,3	109,10,3	112,80,3	115,25,3	118,72,3	121,21,3	124,23,3	127,43,3	130,17,3	133,46,3	136,38,3	139,35,3	142,58,3	145,53,3	148,73,3	151,59,3	154,67,3	157,33,3	160,48,3	163,57,3	166,22,3	169,65,3	172,26,3	175,18,3	178,49,3	181,36,3	184,20,3	187,29,3	190,42,3	193,51,3	196,70,3	199,7,3	202,1,3	205,4,3	208,6,3	240,3,3	288,8,3	360,2,3	364,0,1	
33,74,3	65,12,3	97,56,3	129,19,3	161,52,3	193,27,3	353,5,3	
# Incoming
164,(52, 4),16	180,(52, 6),28	208,(12, 3),12	220,(56, 3),20	240,(56, 8),4	244,(19, 8),44	288,(19, 2),4	292,(52, 2),68	360,(5, 0),4	
1,(81, 74),32	33,(81, 12),32	65,(81, 56),32	97,(81, 19),32	129,(81, 52),32	161,(81, 27),32	193,(31, 5),4	197,(11, 5),4	201,(78, 5),4	205,(76, 5),4	209,(60, 5),12	221,(54, 5),16	237,(9, 5),20	257,(16, 5),28	285,(59, 5),56	341,(65, 5),12	
# Outgoing
1,(81, 74),32	33,(81, 12),32	65,(81, 56),32	97,(81, 19),32	129,(81, 52),32	161,(81, 27),32	193,(31, 5),4	197,(11, 5),4	201,(78, 5),4	205,(76, 5),4	209,(60, 5),12	221,(54, 5),16	237,(9, 5),20	257,(16, 5),28	285,(59, 5),56	341,(65, 5),12	
164,(52, 4),16	180,(52, 6),28	208,(12, 3),12	220,(56, 3),20	240,(56, 8),4	244,(19, 8),44	288,(19, 2),4	292,(52, 2),68	360,(5, 0),4	
