562
# CPU
0,0,1	1,1,14	15,3,14	29,4,14	43,2,14	57,22,14	71,37,14	85,16,14	99,11,14	113,6,14	127,34,14	141,25,14	155,33,14	169,32,14	183,28,14	197,17,14	211,38,14	225,14,14	239,5,14	253,40,14	267,27,14	281,23,14	295,21,14	309,19,14	323,18,14	337,15,14	351,9,14	365,8,14	379,29,14	393,7,14	407,20,14	421,39,14	435,10,14	449,26,14	463,12,14	477,31,14	491,13,14	505,35,14	519,24,14	533,36,14	547,30,14	561,41,1	



# Incoming




# Outgoing




