3102
# CPU
113,5,1	114,58,1	115,62,1	116,67,1	121,31,1	125,21,1	129,42,1	209,71,1	213,73,1	369,19,1	449,40,1	453,48,1	457,53,1	517,60,1	529,51,1	533,52,1	537,54,1	573,64,1	973,30,1	1073,49,1	1117,55,1	1121,56,1	1141,65,1	1145,75,1	1713,29,1	1801,39,1	1993,25,1	2005,32,1	2013,36,1	2173,78,1	2201,80,1	
85,4,1	86,72,1	89,15,1	93,22,1	118,20,1	137,38,1	141,41,1	153,28,1	157,34,1	265,74,1	433,59,1	753,79,1	913,66,1	925,77,1	1037,47,1	1709,16,1	1797,37,1	1953,69,1	3101,81,1	
57,3,1	58,61,1	59,70,1	169,8,1	170,11,1	181,17,1	205,26,1	289,43,1	449,46,1	2133,76,1	
29,2,1	30,50,1	141,7,1	253,27,1	369,45,1	373,10,1	437,24,1	1685,68,1	1705,14,1	1785,35,1	1941,57,1	
0,0,1	1,1,1	2,6,1	3,23,1	110,18,1	881,44,1	1957,63,1	1989,12,1	1997,9,1	2049,13,1	2573,33,1	
# Incoming
85,(0, 5),28	113,(2, 31),8	121,(3, 21),4	125,(3, 42),4	129,(3, 48),56	185,(3, 71),24	209,(3, 73),4	265,(3, 75),12	365,(8, 19),4	437,(8, 40),12	449,(1, 48),4	453,(1, 53),4	457,(1, 56),4	461,(1, 60),56	517,(8, 51),12	529,(8, 52),4	533,(8, 54),4	537,(8, 64),36	969,(7, 30),4	1037,(7, 49),36	1073,(7, 55),44	1117,(7, 56),4	1121,(7, 65),20	1141,(7, 75),4	1709,(6, 29),4	1797,(6, 39),4	1989,(4, 25),4	1993,(4, 32),12	2005,(4, 36),8	2133,(4, 78),40	2173,(4, 80),28	
57,(0, 4),28	85,(3, 15),4	89,(3, 22),4	93,(3, 47),4	114,(5, 20),4	121,(2, 38),16	137,(2, 41),4	141,(5, 28),12	153,(5, 34),4	213,(3, 74),52	277,(61, 81),44	321,(70, 81),44	365,(5, 59),68	433,(58, 81),44	477,(62, 81),44	521,(67, 81),44	565,(31, 81),44	609,(21, 81),44	653,(42, 81),44	697,(8, 79),56	753,(11, 81),44	797,(17, 81),44	881,(2, 66),32	913,(2, 77),12	925,(50, 81),44	973,(7, 47),64	1037,(71, 81),44	1081,(73, 81),44	1145,(27, 81),44	1189,(45, 81),44	1233,(19, 81),44	1277,(10, 81),44	1321,(24, 81),44	1365,(40, 81),44	1409,(48, 81),44	1453,(53, 81),44	1497,(60, 81),44	1541,(51, 81),44	1585,(52, 81),44	1629,(54, 81),44	1705,(6, 16),4	1709,(64, 81),44	1785,(6, 37),12	1797,(30, 81),44	1841,(49, 81),44	1885,(55, 81),44	1941,(6, 69),12	1953,(23, 81),44	1997,(18, 81),44	2041,(44, 81),44	2085,(56, 81),44	2129,(65, 81),44	2173,(75, 81),44	2217,(68, 81),44	2261,(14, 81),44	2305,(29, 81),44	2349,(35, 81),44	2393,(39, 81),44	2437,(57, 81),44	2481,(63, 81),44	2525,(12, 81),44	2573,(26, 81),44	2617,(43, 81),44	2661,(46, 81),44	2705,(25, 81),44	2749,(9, 81),44	2793,(32, 81),44	2837,(36, 81),44	2881,(13, 81),44	2925,(76, 81),44	2969,(78, 81),44	3013,(80, 81),44	3057,(33, 81),44	
29,(0, 3),28	141,(0, 8),28	169,(1, 17),12	181,(5, 26),24	253,(1, 43),36	369,(1, 46),80	2013,(4, 76),120	
1,(0, 2),28	113,(0, 7),28	157,(5, 68),12	181,(1, 27),72	289,(1, 45),80	369,(8, 10),4	373,(8, 24),64	517,(1, 68),1168	1685,(6, 14),20	1713,(6, 35),72	1801,(6, 57),140	
30,(2, 18),80	141,(2, 44),740	881,(3, 63),1076	1957,(4, 12),32	1989,(7, 9),8	1997,(8, 13),52	2049,(8, 33),524	
# Outgoing
114,(5, 20),4	141,(5, 28),12	153,(5, 34),4	157,(5, 68),12	181,(5, 26),24	365,(5, 59),68	433,(58, 81),44	477,(62, 81),44	521,(67, 81),44	565,(31, 81),44	609,(21, 81),44	653,(42, 81),44	1037,(71, 81),44	1081,(73, 81),44	1233,(19, 81),44	1365,(40, 81),44	1409,(48, 81),44	1453,(53, 81),44	1497,(60, 81),44	1541,(51, 81),44	1585,(52, 81),44	1629,(54, 81),44	1709,(64, 81),44	1797,(30, 81),44	1841,(49, 81),44	1885,(55, 81),44	2085,(56, 81),44	2129,(65, 81),44	2173,(75, 81),44	2305,(29, 81),44	2393,(39, 81),44	2705,(25, 81),44	2793,(32, 81),44	2837,(36, 81),44	2969,(78, 81),44	3013,(80, 81),44	
1957,(4, 12),32	1989,(4, 25),4	1993,(4, 32),12	2005,(4, 36),8	2013,(4, 76),120	2133,(4, 78),40	2173,(4, 80),28	
85,(3, 15),4	89,(3, 22),4	93,(3, 47),4	121,(3, 21),4	125,(3, 42),4	129,(3, 48),56	185,(3, 71),24	209,(3, 73),4	213,(3, 74),52	265,(3, 75),12	277,(61, 81),44	321,(70, 81),44	365,(8, 19),4	369,(8, 10),4	373,(8, 24),64	437,(8, 40),12	517,(8, 51),12	529,(8, 52),4	533,(8, 54),4	537,(8, 64),36	697,(8, 79),56	753,(11, 81),44	797,(17, 81),44	881,(3, 63),1076	1997,(8, 13),52	2049,(8, 33),524	2573,(26, 81),44	2617,(43, 81),44	2661,(46, 81),44	2925,(76, 81),44	
30,(2, 18),80	113,(2, 31),8	121,(2, 38),16	137,(2, 41),4	141,(2, 44),740	881,(2, 66),32	913,(2, 77),12	925,(50, 81),44	969,(7, 30),4	973,(7, 47),64	1037,(7, 49),36	1073,(7, 55),44	1117,(7, 56),4	1121,(7, 65),20	1141,(7, 75),4	1145,(27, 81),44	1189,(45, 81),44	1277,(10, 81),44	1321,(24, 81),44	1989,(7, 9),8	2217,(68, 81),44	2261,(14, 81),44	2349,(35, 81),44	2437,(57, 81),44	
1,(0, 2),28	29,(0, 3),28	57,(0, 4),28	85,(0, 5),28	113,(0, 7),28	141,(0, 8),28	169,(1, 17),12	181,(1, 27),72	253,(1, 43),36	289,(1, 45),80	369,(1, 46),80	449,(1, 48),4	453,(1, 53),4	457,(1, 56),4	461,(1, 60),56	517,(1, 68),1168	1685,(6, 14),20	1705,(6, 16),4	1709,(6, 29),4	1713,(6, 35),72	1785,(6, 37),12	1797,(6, 39),4	1801,(6, 57),140	1941,(6, 69),12	1953,(23, 81),44	1997,(18, 81),44	2041,(44, 81),44	2481,(63, 81),44	2525,(12, 81),44	2749,(9, 81),44	2881,(13, 81),44	3057,(33, 81),44	
