1471
# CPU
0,121,1	1,67,13	14,76,13	27,98,13	40,42,13	53,113,13	66,81,13	79,93,13	92,33,13	105,46,13	118,118,13	131,116,13	144,99,13	157,20,13	170,61,13	183,53,13	196,54,13	209,109,13	222,79,13	235,58,13	248,24,13	261,108,13	274,112,13	287,104,13	300,84,13	313,68,13	326,64,13	339,13,13	352,119,13	365,88,13	378,16,13	391,45,13	404,55,13	417,90,13	430,38,13	443,19,13	456,21,13	469,73,13	482,34,13	495,51,13	508,32,13	521,65,13	534,30,13	547,83,13	560,74,13	573,85,13	586,22,13	599,97,13	612,44,13	625,105,13	638,56,13	651,94,13	664,25,13	677,91,13	690,41,13	703,72,13	716,115,13	729,86,13	742,66,13	755,47,13	768,43,13	781,110,13	794,23,13	807,31,13	820,106,13	833,35,13	846,52,13	859,114,13	872,18,13	885,89,13	898,77,13	911,60,13	924,59,13	937,75,13	950,63,13	963,57,13	976,120,13	989,29,13	1002,102,13	1015,111,13	1028,37,13	1041,101,13	1054,95,13	1067,70,13	1080,17,13	1093,39,13	1106,71,13	1119,92,13	1132,62,13	1145,107,13	1158,80,13	1171,40,13	1184,103,13	1197,87,13	1210,14,13	1223,28,13	1236,82,13	1249,100,13	1262,50,13	1275,69,13	1288,4,13	1301,117,13	1314,15,13	1327,10,13	1340,26,13	1353,3,13	1366,6,13	1379,78,13	1392,8,13	1405,11,13	1418,48,13	1431,1,13	1444,2,13	1457,12,13	1470,0,1	
256,27,13	511,49,13	1424,9,13	


766,96,13	1021,36,13	1200,7,13	1290,5,13	
# Incoming
269,(27, 12),2	524,(49, 12),6	1034,(36, 12),1	1213,(7, 0),1	1303,(5, 0),1	1437,(9, 0),1	
1,(121, 27),255	256,(121, 49),255	1290,(113, 9),1	1291,(24, 9),2	1293,(112, 9),2	1295,(84, 9),3	1298,(45, 9),4	1302,(51, 9),5	1307,(85, 9),7	1314,(97, 9),7	1321,(91, 9),9	1330,(41, 9),10	1340,(60, 9),18	1358,(102, 9),9	1367,(71, 9),6	1373,(50, 9),51	


511,(121, 96),255	766,(121, 36),255	1021,(76, 7),1	1022,(42, 7),1	1023,(113, 7),1	1024,(33, 7),1	1025,(108, 7),2	1027,(13, 7),3	1030,(119, 7),1	1031,(34, 7),2	1033,(44, 7),7	1040,(56, 7),8	1048,(86, 7),3	1051,(66, 7),3	1054,(31, 7),13	1067,(35, 7),14	1081,(75, 7),4	1085,(37, 7),22	1107,(39, 7),26	1133,(71, 7),26	1159,(107, 7),33	1192,(40, 7),8	1200,(118, 5),1	1201,(61, 5),1	1202,(58, 5),1	1203,(108, 5),1	1204,(84, 5),3	1207,(21, 5),4	1211,(73, 5),1	1212,(83, 5),6	1218,(22, 5),3	1221,(72, 5),10	1231,(23, 5),13	1244,(114, 5),6	1250,(63, 5),19	1269,(57, 5),19	1288,(92, 5),1	1289,(87, 5),1	
# Outgoing
1,(121, 27),255	256,(121, 49),255	511,(121, 96),255	766,(121, 36),255	1021,(76, 7),1	1022,(42, 7),1	1023,(113, 7),1	1024,(33, 7),1	1025,(108, 7),2	1027,(13, 7),3	1030,(119, 7),1	1031,(34, 7),2	1033,(44, 7),7	1040,(56, 7),8	1048,(86, 7),3	1051,(66, 7),3	1054,(31, 7),13	1067,(35, 7),14	1081,(75, 7),4	1085,(37, 7),22	1107,(39, 7),26	1133,(71, 7),26	1159,(107, 7),33	1192,(40, 7),8	1200,(118, 5),1	1201,(61, 5),1	1202,(58, 5),1	1203,(108, 5),1	1204,(84, 5),3	1207,(21, 5),4	1211,(73, 5),1	1212,(83, 5),6	1218,(22, 5),3	1221,(72, 5),10	1231,(23, 5),13	1244,(114, 5),6	1250,(63, 5),19	1269,(57, 5),19	1288,(92, 5),1	1289,(87, 5),1	1290,(113, 9),1	1291,(24, 9),2	1293,(112, 9),2	1295,(84, 9),3	1298,(45, 9),4	1302,(51, 9),5	1307,(85, 9),7	1314,(97, 9),7	1321,(91, 9),9	1330,(41, 9),10	1340,(60, 9),18	1358,(102, 9),9	1367,(71, 9),6	1373,(50, 9),51	
269,(27, 12),2	524,(49, 12),6	1437,(9, 0),1	


1034,(36, 12),1	1213,(7, 0),1	1303,(5, 0),1	
