2513
# CPU
0,121,1	1,48,8	9,58,8	17,68,8	25,52,8	33,120,8	41,61,8	49,31,8	57,115,8	65,114,8	73,100,8	81,93,8	89,19,8	97,29,8	105,75,8	113,86,8	121,106,8	129,95,8	137,72,8	145,88,8	153,105,8	161,117,8	169,49,8	177,116,8	185,118,8	193,110,8	201,26,8	209,25,8	217,63,8	225,36,8	233,17,8	241,65,8	249,62,8	257,82,8	265,38,8	273,78,8	281,92,8	289,13,8	297,33,8	305,119,8	313,85,8	321,27,8	329,24,8	337,23,8	345,60,8	353,16,8	361,32,8	369,87,8	377,70,8	385,42,8	393,40,8	401,79,8	409,113,8	417,97,8	425,96,8	433,20,8	441,55,8	449,104,8	457,67,8	465,83,8	473,98,8	481,107,8	489,15,8	497,34,8	505,89,8	513,43,8	521,109,8	529,35,8	537,51,8	545,39,8	553,76,8	561,50,8	569,64,8	577,103,8	585,66,8	593,8,8	601,99,8	609,6,8	617,2,8	625,10,8	687,7,8	843,3,8	1040,4,8	1469,5,8	1955,1,8	2504,9,8	2512,0,1	
37,30,8	91,74,8	127,54,8	181,80,8	235,28,8	271,46,8	289,101,8	325,77,8	343,59,8	379,44,8	397,112,8	451,53,8	469,90,8	487,84,8	505,21,8	577,71,8	595,102,8	843,12,8	1559,11,8	
199,108,8	415,14,8	523,18,8	
73,41,8	163,91,8	307,73,8	
19,111,8	55,37,8	109,56,8	145,69,8	217,47,8	253,57,8	361,45,8	433,22,8	541,94,8	559,81,8	
# Incoming
153,(69, 8),3	156,(69, 2),3	159,(69, 7),3	162,(111, 4),3	165,(37, 4),3	168,(56, 4),3	171,(69, 4),9	180,(111, 1),3	183,(69, 1),3	225,(47, 4),18	261,(57, 9),3	315,(73, 8),3	318,(91, 6),3	321,(91, 3),3	324,(41, 4),6	330,(41, 5),3	333,(77, 6),3	336,(30, 10),3	339,(77, 10),42	381,(80, 1),3	384,(91, 9),3	387,(44, 6),3	390,(54, 1),9	399,(41, 9),6	405,(112, 6),3	408,(74, 9),6	423,(14, 2),60	483,(22, 10),9	495,(84, 6),12	507,(108, 7),15	522,(59, 7),24	546,(21, 3),3	549,(94, 2),3	552,(44, 10),48	600,(90, 7),87	687,(28, 3),21	708,(22, 3),66	774,(53, 3),69	851,(12, 0),3	854,(101, 4),33	887,(44, 4),27	914,(94, 4),96	1010,(102, 4),30	1040,(46, 5),30	1070,(45, 5),48	1118,(18, 5),156	1274,(94, 5),183	1457,(71, 5),12	1469,(53, 1),60	1529,(90, 1),9	1538,(84, 1),105	1643,(81, 1),312	1955,(11, 0),3	1958,(90, 9),39	1997,(71, 9),507	
19,(121, 30),18	73,(121, 74),18	109,(121, 54),18	163,(121, 80),18	186,(56, 11),9	217,(121, 28),18	253,(121, 46),18	271,(121, 101),18	307,(121, 77),18	325,(121, 59),18	343,(91, 12),12	361,(121, 44),18	379,(121, 112),18	397,(57, 11),24	433,(121, 53),18	451,(121, 90),18	469,(121, 84),18	487,(121, 21),18	522,(108, 12),9	559,(121, 71),18	577,(121, 102),18	595,(95, 12),9	604,(26, 12),3	607,(38, 12),27	634,(13, 12),3	637,(85, 12),3	640,(16, 12),3	643,(87, 12),36	679,(70, 12),21	700,(79, 12),36	736,(64, 12),30	766,(103, 12),3	769,(58, 11),3	774,(81, 12),3	777,(50, 12),66	843,(29, 11),6	849,(86, 11),9	858,(106, 11),6	864,(26, 11),6	870,(17, 11),3	873,(65, 11),6	879,(78, 11),30	909,(119, 11),39	948,(73, 11),39	987,(42, 11),51	1038,(96, 11),60	1098,(104, 11),3	1101,(67, 11),69	1170,(107, 11),99	1269,(15, 11),6	1275,(34, 11),132	1407,(35, 11),24	1431,(66, 11),3	1457,(94, 11),102	
181,(121, 108),18	397,(121, 14),18	505,(121, 18),18	
55,(121, 41),18	145,(121, 91),18	289,(121, 73),18	
1,(121, 111),18	37,(121, 37),18	91,(121, 56),18	127,(121, 69),18	199,(121, 47),18	235,(121, 57),18	343,(121, 45),18	415,(121, 22),18	523,(121, 94),18	541,(121, 81),18	
# Outgoing
1,(121, 111),18	19,(121, 30),18	37,(121, 37),18	55,(121, 41),18	73,(121, 74),18	91,(121, 56),18	109,(121, 54),18	127,(121, 69),18	145,(121, 91),18	163,(121, 80),18	181,(121, 108),18	199,(121, 47),18	217,(121, 28),18	235,(121, 57),18	253,(121, 46),18	271,(121, 101),18	289,(121, 73),18	307,(121, 77),18	325,(121, 59),18	343,(121, 45),18	361,(121, 44),18	379,(121, 112),18	397,(121, 14),18	415,(121, 22),18	433,(121, 53),18	451,(121, 90),18	469,(121, 84),18	487,(121, 21),18	505,(121, 18),18	523,(121, 94),18	541,(121, 81),18	559,(121, 71),18	577,(121, 102),18	595,(95, 12),9	604,(26, 12),3	607,(38, 12),27	634,(13, 12),3	637,(85, 12),3	640,(16, 12),3	643,(87, 12),36	679,(70, 12),21	700,(79, 12),36	736,(64, 12),30	766,(103, 12),3	769,(58, 11),3	777,(50, 12),66	843,(29, 11),6	849,(86, 11),9	858,(106, 11),6	864,(26, 11),6	870,(17, 11),3	873,(65, 11),6	879,(78, 11),30	909,(119, 11),39	987,(42, 11),51	1038,(96, 11),60	1098,(104, 11),3	1101,(67, 11),69	1170,(107, 11),99	1269,(15, 11),6	1275,(34, 11),132	1407,(35, 11),24	1431,(66, 11),3	
333,(77, 6),3	336,(30, 10),3	339,(77, 10),42	381,(80, 1),3	387,(44, 6),3	390,(54, 1),9	405,(112, 6),3	408,(74, 9),6	495,(84, 6),12	522,(59, 7),24	546,(21, 3),3	552,(44, 10),48	600,(90, 7),87	687,(28, 3),21	774,(53, 3),69	851,(12, 0),3	854,(101, 4),33	887,(44, 4),27	1010,(102, 4),30	1040,(46, 5),30	1457,(71, 5),12	1469,(53, 1),60	1529,(90, 1),9	1538,(84, 1),105	1955,(11, 0),3	1958,(90, 9),39	1997,(71, 9),507	
423,(14, 2),60	507,(108, 7),15	522,(108, 12),9	1118,(18, 5),156	
315,(73, 8),3	318,(91, 6),3	321,(91, 3),3	324,(41, 4),6	330,(41, 5),3	343,(91, 12),12	384,(91, 9),3	399,(41, 9),6	948,(73, 11),39	
153,(69, 8),3	156,(69, 2),3	159,(69, 7),3	162,(111, 4),3	165,(37, 4),3	168,(56, 4),3	171,(69, 4),9	180,(111, 1),3	183,(69, 1),3	186,(56, 11),9	225,(47, 4),18	261,(57, 9),3	397,(57, 11),24	483,(22, 10),9	549,(94, 2),3	708,(22, 3),66	774,(81, 12),3	914,(94, 4),96	1070,(45, 5),48	1274,(94, 5),183	1457,(94, 11),102	1643,(81, 1),312	
