6692
# CPU
325,5,1	326,70,1	327,90,1	328,110,1	329,20,1	337,35,1	433,100,1	556,15,1	649,10,1	650,55,1	651,80,1	652,95,1	653,115,1	654,50,1	724,60,1	733,105,1	736,45,1	766,65,1	778,30,1	820,85,1	1087,120,1	1432,40,1	1444,75,1	3019,25,1	
244,4,1	245,44,1	246,54,1	400,94,1	403,99,1	424,39,1	463,64,1	568,9,1	569,29,1	598,104,1	619,14,1	665,49,1	728,119,1	733,19,1	817,69,1	862,79,1	865,84,1	1120,109,1	1399,34,1	1444,74,1	1489,89,1	1549,59,1	1873,114,1	2077,24,1	
163,3,1	164,18,1	165,93,1	166,118,1	248,13,1	385,38,1	397,73,1	487,8,1	488,23,1	489,43,1	490,78,1	575,108,1	622,63,1	662,33,1	686,83,1	689,98,1	725,103,1	739,48,1	1117,88,1	1174,28,1	1315,58,1	1327,53,1	1552,113,1	2128,68,1	
82,2,1	83,62,1	84,102,1	296,32,1	406,7,1	407,77,1	529,17,1	571,37,1	589,67,1	592,22,1	625,97,1	730,12,1	731,57,1	742,52,1	763,42,1	1006,92,1	1057,47,1	1063,82,1	1096,107,1	1441,72,1	1483,87,1	1492,112,1	1516,117,1	1666,27,1	
0,0,1	1,1,1	2,11,1	3,6,1	4,86,1	5,36,1	6,106,1	7,81,1	8,116,1	394,46,1	400,61,1	403,16,1	460,101,1	607,91,1	817,71,1	868,76,1	1078,66,1	1081,41,1	1087,56,1	1723,26,1	2134,51,1	2161,96,1	2521,21,1	2938,111,1	3034,31,1	6691,121,1	
# Incoming
244,(0, 5),81	325,(2, 20),3	328,(2, 35),9	403,(2, 100),30	433,(3, 15),123	568,(0, 10),81	649,(3, 50),3	652,(3, 60),72	724,(7, 105),9	733,(1, 45),3	736,(3, 65),30	766,(9, 30),12	817,(1, 85),3	1006,(3, 120),81	1399,(8, 40),33	1432,(8, 75),12	2521,(9, 25),498	
163,(0, 4),81	397,(2, 94),3	400,(2, 99),3	403,(5, 39),21	424,(5, 64),39	487,(0, 9),81	589,(8, 104),9	598,(7, 14),21	662,(10, 49),3	725,(10, 119),3	730,(1, 19),3	736,(1, 69),81	817,(12, 79),45	862,(12, 84),3	1117,(1, 109),3	1363,(8, 34),36	1441,(11, 74),3	1483,(11, 89),6	1516,(6, 59),33	1549,(5, 114),324	1873,(8, 24),204	
82,(0, 3),81	245,(4, 13),3	337,(2, 38),48	394,(2, 73),3	406,(0, 8),81	569,(9, 108),6	619,(7, 63),3	650,(10, 33),12	665,(10, 83),21	686,(10, 98),3	689,(10, 103),36	733,(12, 48),6	820,(1, 88),297	1120,(11, 28),54	1174,(11, 58),141	1315,(12, 53),12	1549,(6, 113),3	2011,(10, 68),117	
1,(0, 2),81	248,(4, 32),48	325,(0, 7),81	406,(4, 17),123	556,(3, 37),15	571,(3, 67),18	589,(9, 22),3	607,(3, 97),18	649,(0, 12),81	730,(10, 52),12	745,(9, 42),18	766,(3, 92),240	1006,(5, 47),51	1057,(10, 82),6	1078,(9, 107),18	1315,(11, 72),126	1444,(11, 87),39	1489,(11, 112),3	1492,(11, 117),24	1639,(8, 27),27	
385,(2, 46),9	394,(4, 61),6	400,(5, 16),3	433,(2, 101),27	460,(62, 121),69	529,(102, 121),69	598,(3, 91),9	607,(44, 121),69	676,(54, 121),69	745,(32, 121),69	814,(5, 71),3	817,(5, 76),51	868,(70, 121),69	937,(90, 121),69	1006,(94, 121),69	1075,(9, 66),3	1078,(10, 41),3	1081,(10, 56),6	1087,(18, 121),69	1156,(93, 121),69	1225,(118, 121),69	1294,(13, 121),69	1363,(110, 121),69	1432,(20, 121),69	1501,(38, 121),69	1570,(73, 121),69	1639,(99, 121),69	1708,(7, 26),15	1723,(77, 121),69	1792,(39, 121),69	1873,(35, 121),69	1942,(100, 121),69	2011,(64, 121),69	2080,(8, 51),54	2134,(8, 96),27	2161,(23, 121),69	2230,(43, 121),69	2299,(78, 121),69	2368,(17, 121),69	2437,(15, 121),69	2506,(9, 21),15	2521,(37, 121),69	2590,(108, 121),69	2659,(67, 121),69	2728,(22, 121),69	2797,(63, 121),69	2866,(97, 121),69	2935,(10, 111),3	2938,(55, 121),69	3019,(9, 31),15	3034,(29, 121),69	3103,(104, 121),69	3172,(14, 121),69	3241,(80, 121),69	3310,(95, 121),69	3379,(115, 121),69	3448,(50, 121),69	3517,(33, 121),69	3586,(49, 121),69	3655,(83, 121),69	3724,(98, 121),69	3793,(60, 121),69	3862,(103, 121),69	3931,(119, 121),69	4000,(57, 121),69	4069,(105, 121),69	4138,(19, 121),69	4207,(45, 121),69	4276,(48, 121),69	4345,(52, 121),69	4414,(42, 121),69	4483,(65, 121),69	4552,(30, 121),69	4621,(69, 121),69	4690,(85, 121),69	4759,(79, 121),69	4828,(84, 121),69	4897,(92, 121),69	4966,(47, 121),69	5035,(82, 121),69	5104,(120, 121),69	5173,(107, 121),69	5242,(88, 121),69	5311,(109, 121),69	5380,(28, 121),69	5449,(58, 121),69	5518,(53, 121),69	5587,(34, 121),69	5656,(40, 121),69	5725,(72, 121),69	5794,(75, 121),69	5863,(74, 121),69	5932,(87, 121),69	6001,(89, 121),69	6070,(112, 121),69	6139,(117, 121),69	6208,(59, 121),69	6277,(113, 121),69	6346,(27, 121),69	6415,(114, 121),69	6484,(24, 121),69	6553,(68, 121),69	6622,(25, 121),69	
# Outgoing
400,(5, 16),3	403,(5, 39),21	424,(5, 64),39	650,(10, 33),12	662,(10, 49),3	665,(10, 83),21	686,(10, 98),3	689,(10, 103),36	725,(10, 119),3	730,(10, 52),12	814,(5, 71),3	817,(5, 76),51	868,(70, 121),69	937,(90, 121),69	1006,(5, 47),51	1057,(10, 82),6	1078,(10, 41),3	1081,(10, 56),6	1363,(110, 121),69	1432,(20, 121),69	1549,(5, 114),324	1873,(35, 121),69	1942,(100, 121),69	2011,(10, 68),117	2437,(15, 121),69	2935,(10, 111),3	2938,(55, 121),69	3241,(80, 121),69	3310,(95, 121),69	3379,(115, 121),69	3448,(50, 121),69	3793,(60, 121),69	4069,(105, 121),69	4207,(45, 121),69	4483,(65, 121),69	4552,(30, 121),69	4690,(85, 121),69	5104,(120, 121),69	5656,(40, 121),69	5794,(75, 121),69	6622,(25, 121),69	
245,(4, 13),3	248,(4, 32),48	394,(4, 61),6	406,(4, 17),123	569,(9, 108),6	589,(9, 22),3	607,(44, 121),69	676,(54, 121),69	745,(9, 42),18	766,(9, 30),12	1006,(94, 121),69	1075,(9, 66),3	1078,(9, 107),18	1639,(99, 121),69	1792,(39, 121),69	2011,(64, 121),69	2506,(9, 21),15	2521,(9, 25),498	3019,(9, 31),15	3034,(29, 121),69	3103,(104, 121),69	3172,(14, 121),69	3586,(49, 121),69	3931,(119, 121),69	4138,(19, 121),69	4621,(69, 121),69	4759,(79, 121),69	4828,(84, 121),69	5311,(109, 121),69	5587,(34, 121),69	5863,(74, 121),69	6001,(89, 121),69	6208,(59, 121),69	6415,(114, 121),69	6484,(24, 121),69	
433,(3, 15),123	556,(3, 37),15	571,(3, 67),18	589,(8, 104),9	598,(3, 91),9	607,(3, 97),18	649,(3, 50),3	652,(3, 60),72	736,(3, 65),30	766,(3, 92),240	1006,(3, 120),81	1087,(18, 121),69	1156,(93, 121),69	1225,(118, 121),69	1294,(13, 121),69	1363,(8, 34),36	1399,(8, 40),33	1432,(8, 75),12	1501,(38, 121),69	1570,(73, 121),69	1639,(8, 27),27	1873,(8, 24),204	2080,(8, 51),54	2134,(8, 96),27	2161,(23, 121),69	2230,(43, 121),69	2299,(78, 121),69	2590,(108, 121),69	2797,(63, 121),69	3517,(33, 121),69	3655,(83, 121),69	3724,(98, 121),69	3862,(103, 121),69	4276,(48, 121),69	5242,(88, 121),69	5380,(28, 121),69	5449,(58, 121),69	5518,(53, 121),69	6277,(113, 121),69	6553,(68, 121),69	
325,(2, 20),3	328,(2, 35),9	337,(2, 38),48	385,(2, 46),9	394,(2, 73),3	397,(2, 94),3	400,(2, 99),3	403,(2, 100),30	433,(2, 101),27	460,(62, 121),69	529,(102, 121),69	598,(7, 14),21	619,(7, 63),3	724,(7, 105),9	733,(12, 48),6	745,(32, 121),69	817,(12, 79),45	862,(12, 84),3	1315,(12, 53),12	1708,(7, 26),15	1723,(77, 121),69	2368,(17, 121),69	2521,(37, 121),69	2659,(67, 121),69	2728,(22, 121),69	2866,(97, 121),69	4000,(57, 121),69	4345,(52, 121),69	4414,(42, 121),69	4897,(92, 121),69	4966,(47, 121),69	5035,(82, 121),69	5173,(107, 121),69	5725,(72, 121),69	5932,(87, 121),69	6070,(112, 121),69	6139,(117, 121),69	6346,(27, 121),69	
1,(0, 2),81	82,(0, 3),81	163,(0, 4),81	244,(0, 5),81	325,(0, 7),81	406,(0, 8),81	487,(0, 9),81	568,(0, 10),81	649,(0, 12),81	730,(1, 19),3	733,(1, 45),3	736,(1, 69),81	817,(1, 85),3	820,(1, 88),297	1117,(1, 109),3	1120,(11, 28),54	1174,(11, 58),141	1315,(11, 72),126	1441,(11, 74),3	1444,(11, 87),39	1483,(11, 89),6	1489,(11, 112),3	1492,(11, 117),24	1516,(6, 59),33	1549,(6, 113),3	
