3042
# CPU
33,3,31	64,28,31	95,6,31	126,37,31	233,35,31	341,40,31	545,12,31	576,24,31	613,33,31	673,46,31	704,50,31	869,63,31	917,9,31	948,26,31	1549,52,31	1613,66,31	1701,78,31	1732,17,31	1769,20,31	1853,21,31	1884,60,31	1915,42,31	1961,44,31	1992,48,31	2023,69,31	2054,57,31	2085,54,31	2117,22,31	2329,19,31	2360,30,31	2529,75,31	2669,72,31	
17,2,31	48,77,31	79,5,31	110,8,31	141,14,31	172,18,31	203,23,31	234,65,31	265,41,31	296,34,31	1137,11,31	1168,29,31	1199,36,31	1230,51,31	1261,62,31	1305,68,31	1437,16,31	1529,43,31	1560,45,31	1591,53,31	1869,27,31	1933,38,31	2005,56,31	2121,59,31	2297,74,31	2328,80,31	2359,25,31	2390,31,31	2421,47,31	2457,49,31	2488,71,31	
0,0,1	1,1,31	32,7,31	63,4,31	533,10,31	564,13,31	595,67,31	681,76,31	733,58,31	837,64,31	1565,39,31	1596,61,31	1929,15,31	2125,79,31	2605,32,31	2636,55,31	2667,70,31	2698,73,31	3041,81,1	
# Incoming
17,(0, 3),16	49,(0, 6),16	81,(1, 20),96	177,(1, 24),4	229,(1, 35),4	337,(1, 40),4	341,(2, 9),176	529,(2, 12),16	545,(2, 24),8	557,(2, 33),56	613,(2, 46),60	673,(2, 48),24	697,(2, 50),4	701,(2, 52),164	865,(2, 63),4	905,(5, 9),12	917,(5, 26),4	1069,(1, 52),480	1553,(1, 54),8	1561,(1, 66),52	1613,(1, 72),20	1633,(1, 75),4	1637,(1, 78),64	1701,(7, 17),12	1713,(7, 20),56	1769,(7, 21),84	1853,(5, 60),12	1869,(7, 30),4	1873,(5, 42),36	1933,(7, 44),28	1961,(7, 48),8	1969,(8, 69),36	2005,(7, 57),8	2013,(5, 54),44	2057,(8, 22),60	2301,(4, 19),28	2337,(4, 30),4	2477,(4, 75),52	2637,(8, 72),32	
1,(0, 2),16	33,(0, 5),16	65,(0, 8),16	181,(1, 27),16	197,(1, 31),4	201,(1, 34),28	233,(1, 38),104	341,(1, 51),728	1069,(3, 11),68	1137,(3, 29),12	1149,(3, 36),44	1193,(3, 51),4	1197,(3, 53),4	1201,(3, 62),16	1217,(3, 68),88	1305,(3, 74),4	1309,(6, 16),128	1437,(6, 43),92	1529,(6, 45),20	1549,(1, 53),4	1853,(7, 27),16	1873,(7, 38),60	1969,(7, 56),36	2013,(7, 59),108	2121,(7, 71),16	2137,(7, 74),160	2297,(7, 80),4	2329,(4, 25),8	2341,(4, 31),4	2345,(4, 47),44	2389,(4, 49),68	2457,(4, 71),20	
517,(2, 10),12	529,(3, 10),4	533,(3, 13),12	545,(3, 15),4	549,(3, 67),4	553,(2, 32),4	557,(3, 55),20	577,(3, 61),12	589,(3, 76),92	681,(28, 81),8	689,(6, 58),44	733,(6, 64),104	837,(37, 81),8	845,(35, 81),8	853,(40, 81),8	861,(12, 81),8	869,(2, 70),28	897,(77, 81),8	905,(24, 81),8	913,(33, 81),8	921,(5, 39),644	1565,(5, 61),4	1569,(6, 15),360	1929,(6, 79),196	2125,(8, 32),480	2605,(8, 55),4	2609,(8, 70),28	2637,(46, 81),8	2645,(50, 81),8	2653,(63, 81),8	2661,(9, 81),8	2669,(8, 73),4	2673,(14, 81),8	2681,(18, 81),8	2689,(23, 81),8	2697,(65, 81),8	2705,(41, 81),8	2713,(34, 81),8	2721,(26, 81),8	2729,(11, 81),8	2737,(29, 81),8	2745,(36, 81),8	2753,(51, 81),8	2761,(62, 81),8	2769,(68, 81),8	2777,(16, 81),8	2785,(43, 81),8	2793,(52, 81),8	2801,(45, 81),8	2809,(53, 81),8	2817,(66, 81),8	2825,(78, 81),8	2833,(17, 81),8	2841,(20, 81),8	2849,(21, 81),8	2857,(27, 81),8	2865,(60, 81),8	2873,(42, 81),8	2881,(38, 81),8	2889,(44, 81),8	2897,(48, 81),8	2905,(56, 81),8	2913,(69, 81),8	2921,(57, 81),8	2929,(54, 81),8	2937,(22, 81),8	2945,(59, 81),8	2953,(74, 81),8	2961,(80, 81),8	2969,(19, 81),8	2977,(25, 81),8	2985,(30, 81),8	2993,(31, 81),8	3001,(47, 81),8	3009,(49, 81),8	3017,(71, 81),8	3025,(75, 81),8	3033,(72, 81),8	
# Outgoing
529,(3, 10),4	533,(3, 13),12	545,(3, 15),4	549,(3, 67),4	557,(3, 55),20	577,(3, 61),12	589,(3, 76),92	681,(28, 81),8	689,(6, 58),44	733,(6, 64),104	837,(37, 81),8	845,(35, 81),8	853,(40, 81),8	861,(12, 81),8	905,(24, 81),8	913,(33, 81),8	1069,(3, 11),68	1137,(3, 29),12	1149,(3, 36),44	1193,(3, 51),4	1197,(3, 53),4	1201,(3, 62),16	1217,(3, 68),88	1305,(3, 74),4	1309,(6, 16),128	1437,(6, 43),92	1529,(6, 45),20	1569,(6, 15),360	1929,(6, 79),196	2637,(46, 81),8	2645,(50, 81),8	2653,(63, 81),8	2661,(9, 81),8	2721,(26, 81),8	2793,(52, 81),8	2817,(66, 81),8	2825,(78, 81),8	2833,(17, 81),8	2841,(20, 81),8	2849,(21, 81),8	2865,(60, 81),8	2873,(42, 81),8	2889,(44, 81),8	2897,(48, 81),8	2913,(69, 81),8	2921,(57, 81),8	2929,(54, 81),8	2937,(22, 81),8	2969,(19, 81),8	2985,(30, 81),8	3025,(75, 81),8	3033,(72, 81),8	
341,(2, 9),176	517,(2, 10),12	529,(2, 12),16	545,(2, 24),8	553,(2, 32),4	557,(2, 33),56	613,(2, 46),60	673,(2, 48),24	697,(2, 50),4	701,(2, 52),164	865,(2, 63),4	869,(2, 70),28	897,(77, 81),8	905,(5, 9),12	917,(5, 26),4	921,(5, 39),644	1565,(5, 61),4	1853,(5, 60),12	1873,(5, 42),36	1969,(8, 69),36	2013,(5, 54),44	2057,(8, 22),60	2125,(8, 32),480	2605,(8, 55),4	2609,(8, 70),28	2637,(8, 72),32	2669,(8, 73),4	2673,(14, 81),8	2681,(18, 81),8	2689,(23, 81),8	2697,(65, 81),8	2705,(41, 81),8	2713,(34, 81),8	2729,(11, 81),8	2737,(29, 81),8	2745,(36, 81),8	2753,(51, 81),8	2761,(62, 81),8	2769,(68, 81),8	2777,(16, 81),8	2785,(43, 81),8	2801,(45, 81),8	2809,(53, 81),8	2857,(27, 81),8	2881,(38, 81),8	2905,(56, 81),8	2945,(59, 81),8	2953,(74, 81),8	2961,(80, 81),8	2977,(25, 81),8	2993,(31, 81),8	3001,(47, 81),8	3009,(49, 81),8	3017,(71, 81),8	
1,(0, 2),16	17,(0, 3),16	33,(0, 5),16	49,(0, 6),16	65,(0, 8),16	81,(1, 20),96	177,(1, 24),4	181,(1, 27),16	197,(1, 31),4	201,(1, 34),28	229,(1, 35),4	233,(1, 38),104	337,(1, 40),4	341,(1, 51),728	1069,(1, 52),480	1549,(1, 53),4	1553,(1, 54),8	1561,(1, 66),52	1613,(1, 72),20	1633,(1, 75),4	1637,(1, 78),64	1701,(7, 17),12	1713,(7, 20),56	1769,(7, 21),84	1853,(7, 27),16	1869,(7, 30),4	1873,(7, 38),60	1933,(7, 44),28	1961,(7, 48),8	1969,(7, 56),36	2005,(7, 57),8	2013,(7, 59),108	2121,(7, 71),16	2137,(7, 74),160	2297,(7, 80),4	2301,(4, 19),28	2329,(4, 25),8	2337,(4, 30),4	2341,(4, 31),4	2345,(4, 47),44	2389,(4, 49),68	2457,(4, 71),20	2477,(4, 75),52	
