848
# CPU
5,2,11	16,4,11	27,11,11	38,15,11	49,31,11	60,13,11	71,9,11	82,34,11	93,39,11	104,40,11	115,38,11	126,26,11	137,30,11	148,36,11	159,14,11	170,10,11	181,12,11	192,33,11	203,17,11	214,35,11	225,32,11	236,6,11	247,7,11	260,8,11	312,18,11	488,19,11	499,24,11	592,25,11	603,27,11	614,28,11	625,16,11	648,20,11	668,21,11	696,22,11	724,23,11	796,29,11	836,37,11	847,41,1	
0,0,1	1,3,11	12,1,11	643,5,11	
# Incoming
1,(0, 2),4	5,(0, 4),4	12,(3, 6),124	136,(3, 7),20	156,(3, 8),104	260,(3, 18),52	312,(3, 19),176	488,(3, 24),4	492,(3, 25),100	592,(3, 27),4	596,(3, 28),4	600,(1, 16),16	616,(1, 20),32	648,(1, 21),20	668,(1, 22),28	696,(1, 23),28	724,(1, 29),72	796,(1, 37),40	836,(5, 41),4	
27,(4, 5),616	
# Outgoing
27,(4, 5),616	
1,(0, 2),4	5,(0, 4),4	12,(3, 6),124	136,(3, 7),20	156,(3, 8),104	260,(3, 18),52	312,(3, 19),176	488,(3, 24),4	492,(3, 25),100	592,(3, 27),4	596,(3, 28),4	600,(1, 16),16	616,(1, 20),32	648,(1, 21),20	668,(1, 22),28	696,(1, 23),28	724,(1, 29),72	796,(1, 37),40	836,(5, 41),4	
