2674
# CPU
10,2,2	19,4,2	21,14,2	23,62,2	25,78,2	28,6,2	30,10,2	32,42,2	34,60,2	36,24,2	38,26,2	40,8,2	42,30,2	44,76,2	178,32,2	181,38,2	781,48,2	787,74,2	970,12,2	1063,18,2	1099,44,2	1162,56,2	1177,68,2	1186,72,2	1195,22,2	1219,28,2	1231,34,2	1249,36,2	1336,58,2	1435,80,2	1492,16,2	1501,20,2	1525,40,2	1528,46,2	1531,50,2	1606,52,2	1621,54,2	1654,64,2	1669,66,2	1675,70,2	
0,0,1	1,5,2	3,1,2	5,3,2	7,7,2	9,35,2	11,27,2	13,63,2	15,57,2	17,55,2	19,75,2	21,23,2	23,73,2	25,79,2	27,49,2	29,21,2	31,15,2	33,9,2	72,13,2	81,17,2	90,25,2	231,65,2	384,67,2	402,77,2	435,47,2	447,71,2	603,11,2	660,31,2	666,37,2	669,39,2	687,41,2	702,53,2	960,19,2	993,29,2	999,33,2	1011,43,2	1020,45,2	1041,51,2	1068,59,2	1134,61,2	1245,69,2	2673,81,1	
# Incoming
1,(0, 2),9	10,(0, 4),9	19,(0, 6),9	28,(0, 8),9	37,(5, 32),141	178,(5, 38),3	181,(5, 40),528	709,(5, 48),72	781,(5, 74),6	787,(1, 12),183	970,(1, 16),6	976,(1, 18),87	1063,(1, 34),33	1096,(1, 44),3	1099,(1, 46),3	1102,(1, 56),60	1162,(1, 66),6	1168,(1, 68),9	1177,(1, 72),9	1186,(3, 22),9	1195,(3, 28),24	1219,(3, 34),12	1231,(3, 36),18	1249,(3, 50),18	1267,(3, 58),69	1336,(3, 80),99	1435,(7, 16),57	1492,(7, 20),9	1501,(7, 40),24	1525,(7, 46),3	1528,(7, 50),3	1531,(7, 52),75	1606,(7, 54),15	1621,(7, 64),33	1654,(7, 66),15	1669,(7, 70),6	
12,(2, 9),6	18,(2, 11),51	69,(2, 13),3	72,(2, 17),9	81,(2, 25),9	90,(2, 39),54	144,(2, 61),3	147,(2, 65),84	231,(2, 67),153	384,(2, 77),18	402,(4, 29),3	405,(4, 31),9	414,(4, 37),6	420,(4, 47),15	435,(4, 71),12	447,(14, 81),51	498,(62, 81),51	549,(78, 81),51	600,(6, 11),3	603,(6, 29),33	636,(6, 31),24	660,(6, 37),6	666,(6, 39),3	669,(6, 41),18	687,(6, 53),15	702,(10, 81),51	753,(42, 81),51	804,(60, 81),51	855,(24, 81),51	906,(26, 81),51	957,(8, 19),3	960,(8, 29),33	993,(8, 33),6	999,(8, 43),12	1011,(8, 45),9	1020,(8, 51),21	1041,(8, 59),27	1068,(8, 61),66	1134,(8, 69),111	1245,(30, 81),51	1296,(76, 81),51	1347,(32, 81),51	1398,(38, 81),51	1449,(48, 81),51	1500,(74, 81),51	1551,(12, 81),51	1602,(18, 81),51	1653,(44, 81),51	1704,(56, 81),51	1755,(68, 81),51	1806,(72, 81),51	1857,(22, 81),51	1908,(28, 81),51	1959,(34, 81),51	2010,(36, 81),51	2061,(58, 81),51	2112,(80, 81),51	2163,(16, 81),51	2214,(20, 81),51	2265,(40, 81),51	2316,(46, 81),51	2367,(50, 81),51	2418,(52, 81),51	2469,(54, 81),51	2520,(64, 81),51	2571,(66, 81),51	2622,(70, 81),51	
# Outgoing
12,(2, 9),6	18,(2, 11),51	69,(2, 13),3	72,(2, 17),9	81,(2, 25),9	90,(2, 39),54	144,(2, 61),3	147,(2, 65),84	231,(2, 67),153	384,(2, 77),18	402,(4, 29),3	405,(4, 31),9	414,(4, 37),6	420,(4, 47),15	435,(4, 71),12	447,(14, 81),51	498,(62, 81),51	549,(78, 81),51	600,(6, 11),3	603,(6, 29),33	636,(6, 31),24	660,(6, 37),6	666,(6, 39),3	669,(6, 41),18	687,(6, 53),15	702,(10, 81),51	753,(42, 81),51	804,(60, 81),51	855,(24, 81),51	906,(26, 81),51	957,(8, 19),3	960,(8, 29),33	993,(8, 33),6	999,(8, 43),12	1011,(8, 45),9	1020,(8, 51),21	1041,(8, 59),27	1068,(8, 61),66	1134,(8, 69),111	1245,(30, 81),51	1296,(76, 81),51	1347,(32, 81),51	1398,(38, 81),51	1449,(48, 81),51	1500,(74, 81),51	1551,(12, 81),51	1602,(18, 81),51	1653,(44, 81),51	1704,(56, 81),51	1755,(68, 81),51	1806,(72, 81),51	1857,(22, 81),51	1908,(28, 81),51	1959,(34, 81),51	2010,(36, 81),51	2061,(58, 81),51	2112,(80, 81),51	2163,(16, 81),51	2214,(20, 81),51	2265,(40, 81),51	2316,(46, 81),51	2367,(50, 81),51	2418,(52, 81),51	2469,(54, 81),51	2520,(64, 81),51	2571,(66, 81),51	2622,(70, 81),51	
1,(0, 2),9	10,(0, 4),9	19,(0, 6),9	28,(0, 8),9	37,(5, 32),141	178,(5, 38),3	181,(5, 40),528	709,(5, 48),72	781,(5, 74),6	787,(1, 12),183	970,(1, 16),6	976,(1, 18),87	1063,(1, 34),33	1096,(1, 44),3	1099,(1, 46),3	1102,(1, 56),60	1162,(1, 66),6	1168,(1, 68),9	1177,(1, 72),9	1186,(3, 22),9	1195,(3, 28),24	1219,(3, 34),12	1231,(3, 36),18	1249,(3, 50),18	1267,(3, 58),69	1336,(3, 80),99	1435,(7, 16),57	1492,(7, 20),9	1501,(7, 40),24	1525,(7, 46),3	1528,(7, 50),3	1531,(7, 52),75	1606,(7, 54),15	1621,(7, 64),33	1654,(7, 66),15	1669,(7, 70),6	
