3729
# CPU
821,3,25	846,45,25	913,51,25	1641,6,25	1666,58,25	1691,23,25	1716,53,25	1741,61,25	1766,21,25	1903,70,25	2097,12,25	2122,13,25	2178,14,25	2339,47,25	2690,27,25	2715,29,25	2740,35,25	2790,41,25	2815,43,25	2840,49,25	2865,64,25	2965,17,25	2990,25,25	3015,31,25	3047,33,25	3077,37,25	3431,55,25	3456,67,25	3481,79,25	3506,19,25	3531,39,25	3556,73,25	3581,76,25	
411,2,25	436,20,25	1231,5,25	1256,63,25	2051,8,25	2076,18,25	2101,36,25	2126,66,25	2151,69,25	2176,22,25	2201,75,25	2249,26,25	2303,38,25	2337,42,25	2362,48,25	2937,72,25	2962,11,25	2987,32,25	3059,40,25	3115,50,25	3421,52,25	3446,54,25	3471,60,25	3496,15,25	3521,24,25	3546,28,25	3571,30,25	3596,34,25	3621,78,25	3646,44,25	3675,46,25	3701,57,25	
0,0,1	1,1,25	26,7,25	51,4,25	76,62,25	101,80,25	126,68,25	1001,77,25	1258,74,25	1419,9,25	1515,71,25	1672,56,25	1697,65,25	2176,10,25	2682,16,25	2840,59,25	3728,81,1	
# Incoming
411,(0, 3),410	821,(2, 23),2	823,(2, 27),32	855,(2, 29),12	867,(2, 51),46	923,(2, 67),66	1231,(0, 6),410	1641,(5, 27),2	1643,(5, 29),4	1647,(5, 33),2	1649,(5, 55),2	1651,(5, 58),8	1659,(5, 64),210	1869,(5, 70),34	1903,(5, 76),12	2095,(1, 12),2	2097,(1, 13),4	2101,(1, 17),4	2176,(8, 14),2	2249,(1, 29),2	2337,(1, 47),2	2363,(1, 64),14	2377,(1, 67),2	2682,(8, 27),8	2690,(8, 29),2	2692,(8, 31),2	2694,(8, 35),26	2720,(8, 37),26	2746,(8, 39),42	2788,(8, 41),2	2790,(8, 43),2	2792,(8, 49),34	2826,(8, 55),2	2840,(8, 64),22	2862,(8, 79),6	2937,(1, 76),6	2953,(7, 17),12	2965,(7, 25),12	2979,(7, 31),2	2985,(7, 33),62	3047,(7, 37),30	3429,(7, 55),2	3435,(7, 67),4	3439,(7, 79),2	3445,(4, 19),2	3463,(4, 39),20	3489,(4, 73),14	3503,(4, 76),2	
1,(0, 2),410	821,(0, 5),410	1231,(3, 15),32	1263,(3, 18),8	1271,(3, 24),4	1275,(3, 32),4	1279,(3, 36),2	1281,(3, 42),16	1297,(3, 57),20	1317,(3, 78),2	1641,(0, 8),410	2051,(1, 11),44	2095,(6, 30),2	2097,(6, 75),6	2105,(1, 26),144	2251,(1, 30),4	2255,(1, 32),20	2275,(1, 38),28	2303,(1, 42),34	2339,(1, 48),16	2355,(1, 60),8	2379,(1, 72),558	2943,(7, 11),10	2977,(7, 30),2	2981,(7, 32),4	2985,(6, 40),74	3077,(7, 44),18	3095,(7, 50),20	3115,(7, 52),306	3421,(7, 54),8	3431,(7, 60),4	3441,(4, 15),4	3447,(4, 24),2	3449,(4, 28),2	3451,(4, 30),8	3459,(4, 34),4	3483,(4, 46),6	3505,(4, 78),38	3543,(6, 44),64	3607,(6, 46),68	3675,(6, 57),26	
913,(2, 59),10	989,(2, 77),12	1001,(20, 81),2	1256,(5, 74),2	1281,(63, 81),2	1319,(45, 81),2	1321,(51, 81),2	1323,(5, 9),96	1419,(5, 71),96	1666,(6, 56),6	1672,(6, 65),12	1691,(58, 81),2	1716,(23, 81),2	1741,(53, 81),2	1766,(61, 81),2	1791,(21, 81),2	1928,(70, 81),2	2076,(8, 10),100	2176,(12, 81),2	2178,(8, 16),504	2682,(13, 81),2	2684,(14, 81),2	2686,(47, 81),2	2715,(27, 81),2	2740,(29, 81),2	2765,(35, 81),2	2815,(41, 81),2	2828,(8, 59),12	2840,(43, 81),2	2865,(49, 81),2	2868,(18, 81),2	2870,(36, 81),2	2872,(66, 81),2	2874,(69, 81),2	2876,(22, 81),2	2878,(75, 81),2	2880,(26, 81),2	2882,(38, 81),2	2884,(42, 81),2	2886,(48, 81),2	2890,(64, 81),2	2962,(72, 81),2	2987,(11, 81),2	3012,(32, 81),2	3059,(17, 81),2	3061,(25, 81),2	3063,(31, 81),2	3072,(33, 81),2	3084,(40, 81),2	3102,(37, 81),2	3140,(50, 81),2	3446,(52, 81),2	3456,(55, 81),2	3471,(54, 81),2	3481,(67, 81),2	3496,(60, 81),2	3506,(79, 81),2	3521,(15, 81),2	3531,(19, 81),2	3546,(24, 81),2	3571,(28, 81),2	3596,(30, 81),2	3621,(34, 81),2	3646,(78, 81),2	3671,(44, 81),2	3701,(39, 81),2	3703,(73, 81),2	3705,(76, 81),2	3707,(46, 81),2	3726,(57, 81),2	
# Outgoing
1231,(3, 15),32	1263,(3, 18),8	1271,(3, 24),4	1275,(3, 32),4	1279,(3, 36),2	1281,(3, 42),16	1297,(3, 57),20	1317,(3, 78),2	1319,(45, 81),2	1321,(51, 81),2	1666,(6, 56),6	1672,(6, 65),12	1691,(58, 81),2	1716,(23, 81),2	1741,(53, 81),2	1766,(61, 81),2	1791,(21, 81),2	1928,(70, 81),2	2095,(6, 30),2	2097,(6, 75),6	2176,(12, 81),2	2682,(13, 81),2	2684,(14, 81),2	2686,(47, 81),2	2715,(27, 81),2	2740,(29, 81),2	2765,(35, 81),2	2815,(41, 81),2	2840,(43, 81),2	2865,(49, 81),2	2890,(64, 81),2	2985,(6, 40),74	3059,(17, 81),2	3061,(25, 81),2	3063,(31, 81),2	3072,(33, 81),2	3102,(37, 81),2	3456,(55, 81),2	3481,(67, 81),2	3506,(79, 81),2	3531,(19, 81),2	3543,(6, 44),64	3607,(6, 46),68	3675,(6, 57),26	3701,(39, 81),2	3703,(73, 81),2	3705,(76, 81),2	
821,(2, 23),2	823,(2, 27),32	855,(2, 29),12	867,(2, 51),46	913,(2, 59),10	923,(2, 67),66	989,(2, 77),12	1001,(20, 81),2	1256,(5, 74),2	1281,(63, 81),2	1323,(5, 9),96	1419,(5, 71),96	1641,(5, 27),2	1643,(5, 29),4	1647,(5, 33),2	1649,(5, 55),2	1651,(5, 58),8	1659,(5, 64),210	1869,(5, 70),34	1903,(5, 76),12	2076,(8, 10),100	2176,(8, 14),2	2178,(8, 16),504	2682,(8, 27),8	2690,(8, 29),2	2692,(8, 31),2	2694,(8, 35),26	2720,(8, 37),26	2746,(8, 39),42	2788,(8, 41),2	2790,(8, 43),2	2792,(8, 49),34	2826,(8, 55),2	2828,(8, 59),12	2840,(8, 64),22	2862,(8, 79),6	2868,(18, 81),2	2870,(36, 81),2	2872,(66, 81),2	2874,(69, 81),2	2876,(22, 81),2	2878,(75, 81),2	2880,(26, 81),2	2882,(38, 81),2	2884,(42, 81),2	2886,(48, 81),2	2962,(72, 81),2	2987,(11, 81),2	3012,(32, 81),2	3084,(40, 81),2	3140,(50, 81),2	3446,(52, 81),2	3471,(54, 81),2	3496,(60, 81),2	3521,(15, 81),2	3546,(24, 81),2	3571,(28, 81),2	3596,(30, 81),2	3621,(34, 81),2	3646,(78, 81),2	3671,(44, 81),2	3707,(46, 81),2	3726,(57, 81),2	
1,(0, 2),410	411,(0, 3),410	821,(0, 5),410	1231,(0, 6),410	1641,(0, 8),410	2051,(1, 11),44	2095,(1, 12),2	2097,(1, 13),4	2101,(1, 17),4	2105,(1, 26),144	2249,(1, 29),2	2251,(1, 30),4	2255,(1, 32),20	2275,(1, 38),28	2303,(1, 42),34	2337,(1, 47),2	2339,(1, 48),16	2355,(1, 60),8	2363,(1, 64),14	2377,(1, 67),2	2379,(1, 72),558	2937,(1, 76),6	2943,(7, 11),10	2953,(7, 17),12	2965,(7, 25),12	2977,(7, 30),2	2979,(7, 31),2	2981,(7, 32),4	2985,(7, 33),62	3047,(7, 37),30	3077,(7, 44),18	3095,(7, 50),20	3115,(7, 52),306	3421,(7, 54),8	3429,(7, 55),2	3431,(7, 60),4	3435,(7, 67),4	3439,(7, 79),2	3441,(4, 15),4	3445,(4, 19),2	3447,(4, 24),2	3449,(4, 28),2	3451,(4, 30),8	3459,(4, 34),4	3463,(4, 39),20	3483,(4, 46),6	3489,(4, 73),14	3503,(4, 76),2	3505,(4, 78),38	
