27130
# CPU
121,3,12	241,6,12	361,9,12	481,12,12	23333,15,12	23389,18,12	23413,21,12	23605,24,12	23625,27,12	23681,30,12	24189,33,12	24217,36,12	24421,39,12	24669,42,12	24745,45,12	24805,48,12	24825,51,12	24857,54,12	24869,57,12	25157,60,12	25173,63,12	25185,66,12	25365,69,12	25397,72,12	25477,75,12	25505,78,12	25625,81,12	25773,84,12	25889,87,12	26017,93,12	26069,96,12	26117,99,12	26205,102,12	26221,105,12	26449,108,12	26521,111,12	26589,114,12	26625,117,12	26637,120,12	27113,90,12	
61,2,12	181,5,12	301,8,12	421,11,12	23325,14,12	23361,17,12	23409,20,12	23581,23,12	23609,26,12	23645,29,12	24065,32,12	24197,35,12	24221,38,12	24425,41,12	24701,44,12	24801,47,12	24821,50,12	24845,53,12	24861,56,12	24905,59,12	25169,62,12	25181,65,12	25209,68,12	25377,71,12	25457,74,12	25501,77,12	25617,80,12	25709,83,12	25853,86,12	25901,89,12	25949,92,12	26029,95,12	26073,98,12	26137,101,12	26217,104,12	26429,107,12	26465,110,12	26585,113,12	26621,116,12	26633,119,12	
0,0,1	1,7,12	13,10,12	25,1,12	37,4,12	9885,19,12	9909,25,12	9929,31,12	10201,58,12	10397,13,12	10425,76,12	10437,79,12	10449,82,12	10461,88,12	10477,91,12	10781,37,12	11045,16,12	11061,43,12	12229,100,12	12277,106,12	12437,61,12	12457,109,12	12665,22,12	12737,34,12	12765,52,12	12825,64,12	12857,67,12	12869,85,12	12941,73,12	12973,94,12	13297,28,12	13409,40,12	13469,46,12	13633,49,12	13829,55,12	13933,70,12	13969,97,12	14161,103,12	14181,112,12	14333,115,12	14381,118,12	27129,121,1	
# Incoming
61,(0, 3),60	121,(2, 15),4	125,(2, 21),40	165,(2, 24),12	181,(0, 6),60	241,(2, 18),60	301,(0, 9),60	421,(0, 12),60	497,(7, 15),4	525,(7, 18),24	617,(2, 39),4	621,(7, 21),16	637,(2, 27),16	657,(7, 24),4	673,(7, 27),100	777,(7, 30),32	813,(7, 33),116	953,(7, 36),68	1021,(2, 42),4	1029,(7, 39),24	1057,(7, 42),8	1065,(2, 63),4	1069,(7, 45),8	1077,(2, 33),16	1093,(2, 45),12	1113,(7, 48),84	1197,(2, 69),4	1201,(7, 51),4	1213,(7, 54),16	1229,(2, 78),4	1233,(7, 57),4	1237,(2, 36),32	1269,(7, 60),24	1349,(7, 63),24	1381,(7, 66),56	1437,(2, 51),16	1453,(2, 57),28	1481,(2, 84),4	1485,(7, 69),4	1489,(2, 30),88	1577,(2, 60),24	1613,(7, 72),4	1633,(7, 75),176	1817,(7, 78),24	1841,(2, 96),12	1853,(7, 81),12	1865,(2, 87),16	1881,(2, 90),36	1917,(7, 84),16	1937,(7, 87),4	1949,(7, 90),4	1957,(7, 93),44	2001,(2, 93),20	2029,(7, 96),8	2037,(2, 48),116	2153,(2, 111),12	2165,(7, 99),72	2237,(2, 99),20	2257,(2, 105),16	2273,(7, 102),8	2281,(2, 108),16	2297,(7, 105),4	2301,(2, 114),12	2313,(5, 18),4	2317,(5, 33),4	2321,(7, 108),28	2349,(2, 54),64	2417,(7, 111),44	2461,(2, 66),56	2545,(7, 114),84	2637,(7, 117),4	2645,(7, 120),5768	8413,(5, 39),4	8417,(10, 15),4	8421,(2, 75),56	8477,(2, 120),12	8489,(5, 15),48	8537,(5, 21),16	8553,(5, 45),4	8557,(10, 18),4	8561,(5, 30),16	8577,(10, 21),4	8581,(5, 54),4	8585,(5, 66),4	8589,(5, 69),4	8593,(10, 24),4	8597,(5, 78),4	8601,(10, 27),12	8613,(5, 84),4	8617,(10, 30),12	8629,(5, 27),52	8681,(5, 60),16	8697,(5, 90),4	8701,(5, 93),4	8705,(5, 99),4	8709,(8, 21),4	8713,(10, 33),36	8749,(5, 42),72	8821,(8, 24),4	8825,(10, 36),40	8865,(5, 63),24	8889,(8, 30),4	8893,(10, 39),4	8897,(5, 75),28	8925,(8, 33),4	8929,(10, 42),8	8937,(2, 72),500	9437,(2, 81),132	9569,(2, 102),228	9797,(2, 117),268	10065,(5, 51),84	10149,(5, 57),92	10241,(5, 72),48	10289,(5, 81),44	10333,(5, 105),8	10341,(5, 108),16	10357,(5, 111),8	10365,(5, 114),8	10373,(10, 45),32	10405,(5, 120),32	10437,(10, 48),4	10441,(5, 87),48	10489,(8, 15),20	10525,(10, 51),8	10545,(10, 54),516	11061,(5, 24),664	11725,(5, 36),492	12217,(8, 45),4	12221,(8, 60),4	12225,(10, 57),4	12229,(8, 36),24	12253,(8, 39),16	12269,(8, 63),4	12273,(10, 60),4	12277,(8, 57),16	12293,(8, 66),4	12297,(10, 63),4	12301,(5, 117),124	12425,(10, 66),16	12441,(8, 69),4	12445,(8, 72),4	12449,(10, 69),8	12457,(8, 18),48	12505,(8, 27),56	12561,(8, 48),40	12601,(8, 78),4	12605,(8, 87),4	12609,(10, 72),56	12665,(8, 75),20	12685,(8, 84),16	12701,(8, 93),4	12705,(10, 75),4	12709,(8, 105),4	12713,(10, 78),56	12769,(8, 90),24	12793,(8, 96),12	12805,(8, 99),8	12813,(10, 81),56	12869,(8, 111),4	12873,(8, 114),4	12877,(8, 117),4	12881,(8, 120),4	12885,(11, 18),4	12889,(10, 84),8	12897,(11, 15),20	12917,(11, 24),4	12921,(10, 87),20	12941,(11, 51),16	12957,(11, 69),4	12961,(10, 90),16	12977,(5, 96),184	13161,(8, 108),56	13221,(10, 93),4	13305,(10, 96),3004	16309,(11, 75),4	16313,(11, 78),4	16317,(11, 84),4	16321,(10, 99),4	16325,(11, 96),4	16329,(10, 102),16	16345,(11, 36),24	16369,(10, 105),12	16381,(5, 48),440	16821,(5, 102),356	17177,(8, 42),120	17297,(8, 51),104	17401,(8, 54),112	17513,(8, 81),380	17893,(8, 102),116	18009,(11, 21),224	18233,(11, 27),104	18337,(11, 30),148	18485,(11, 33),28	18513,(11, 39),72	18585,(11, 42),24	18609,(11, 45),36	18645,(11, 48),36	18681,(11, 54),284	18965,(11, 57),28	18993,(11, 60),24	19017,(11, 63),28	19045,(11, 66),40	19085,(11, 72),24	19109,(11, 81),20	19129,(11, 87),28	19157,(11, 93),36	19193,(11, 99),4	19197,(11, 102),4	19201,(11, 108),4	19205,(11, 111),4	19209,(11, 114),4	19237,(10, 108),24	19265,(10, 111),72	19345,(10, 114),632	20001,(10, 117),100	20137,(10, 120),4	20149,(1, 15),60	20213,(1, 18),16	20233,(1, 21),84	20325,(1, 24),16	20341,(11, 120),48	20453,(1, 27),4	20529,(1, 30),20	20557,(1, 33),4	20669,(1, 36),16	20733,(1, 39),4	20753,(1, 42),92	20849,(1, 45),124	20993,(1, 48),56	21105,(1, 51),16	21153,(1, 54),68	21245,(1, 57),36	21317,(1, 60),24	21445,(1, 63),8	21481,(1, 66),12	21497,(1, 69),12	21513,(1, 72),4	21605,(1, 75),4	21637,(1, 78),4	21697,(1, 81),24	21837,(1, 84),300	22149,(1, 87),4	22157,(1, 90),88	22253,(1, 93),4	22261,(1, 96),32	22393,(1, 99),28	22449,(1, 102),8	22457,(11, 105),128	22585,(11, 117),148	22861,(1, 105),36	22909,(1, 108),4	22965,(1, 111),12	22981,(1, 114),4	23265,(1, 117),20	23317,(1, 120),4	23325,(4, 15),8	23361,(4, 18),28	23409,(4, 21),4	23581,(4, 24),24	23609,(4, 27),16	23645,(4, 30),36	24065,(4, 33),124	24197,(4, 36),20	24221,(4, 39),200	24425,(4, 42),244	24701,(4, 45),44	24801,(4, 48),4	24821,(4, 51),4	24845,(4, 54),12	24861,(4, 57),4	24905,(4, 60),252	25169,(4, 63),4	25177,(4, 66),4	25209,(4, 69),156	25377,(4, 72),20	25457,(4, 75),20	25501,(4, 78),4	25617,(4, 81),8	25709,(4, 84),64	25853,(4, 87),36	25901,(4, 90),44	25949,(4, 93),68	26029,(4, 96),40	26073,(4, 99),44	26137,(4, 102),68	26217,(4, 105),4	26429,(4, 108),20	26465,(4, 111),56	26585,(4, 114),4	26621,(4, 117),4	26629,(4, 120),4	26633,(11, 90),480	
1,(0, 2),60	121,(0, 5),60	181,(3, 20),20	201,(3, 23),4	205,(3, 26),4	209,(3, 29),12	221,(3, 35),8	229,(3, 44),8	237,(3, 47),4	241,(0, 8),60	301,(3, 56),4	305,(3, 59),12	317,(3, 65),4	321,(3, 68),4	325,(3, 74),4	329,(3, 77),8	337,(3, 80),20	357,(3, 92),4	361,(0, 11),60	421,(3, 83),48	469,(3, 86),12	481,(7, 14),16	497,(3, 95),4	501,(7, 17),24	525,(3, 89),8	533,(3, 98),4	537,(3, 104),4	541,(3, 107),4	545,(3, 110),4	549,(7, 20),72	621,(3, 113),4	625,(3, 116),4	629,(3, 119),4	633,(6, 14),4	637,(7, 23),20	657,(6, 20),4	661,(7, 26),12	673,(3, 14),100	773,(7, 29),4	777,(6, 17),12	789,(6, 23),4	793,(6, 29),4	797,(6, 41),4	801,(6, 59),4	805,(6, 71),4	809,(7, 32),4	813,(3, 17),84	897,(6, 32),24	921,(6, 62),8	929,(7, 35),24	953,(3, 101),56	1009,(6, 65),12	1021,(7, 38),8	1029,(6, 38),20	1049,(6, 74),4	1053,(7, 41),4	1057,(6, 77),4	1061,(6, 89),4	1065,(7, 44),4	1069,(6, 86),8	1077,(7, 47),36	1113,(3, 50),72	1185,(6, 101),4	1189,(6, 104),4	1193,(6, 113),4	1197,(7, 50),4	1201,(6, 116),4	1205,(7, 53),8	1213,(6, 83),16	1229,(7, 56),4	1233,(6, 119),4	1237,(7, 59),32	1269,(6, 95),16	1285,(6, 110),8	1293,(7, 62),56	1349,(9, 14),4	1353,(9, 17),4	1357,(9, 20),12	1369,(9, 29),4	1373,(7, 65),8	1381,(6, 26),44	1425,(9, 32),4	1437,(7, 68),48	1489,(7, 71),124	1613,(9, 62),4	1617,(7, 74),16	1633,(3, 32),88	1721,(3, 71),80	1801,(9, 26),8	1809,(7, 77),8	1817,(9, 35),20	1837,(9, 68),4	1841,(7, 80),12	1853,(9, 38),12	1865,(7, 83),52	1917,(9, 59),16	1933,(7, 86),4	1937,(9, 80),4	1941,(7, 89),8	1949,(9, 89),4	1953,(7, 92),4	1957,(6, 35),28	1985,(9, 92),4	2001,(7, 95),28	2029,(9, 65),8	2037,(7, 98),128	2165,(9, 74),16	2181,(9, 86),8	2237,(7, 101),36	2281,(7, 104),16	2301,(7, 107),20	2333,(9, 101),8	2341,(9, 104),4	2345,(9, 113),4	2349,(7, 110),68	2417,(6, 53),36	2453,(12, 20),4	2457,(12, 26),4	2461,(7, 113),84	2545,(6, 47),68	2613,(9, 119),12	2625,(12, 41),4	2629,(7, 116),8	2637,(12, 62),4	2641,(7, 119),4	2645,(3, 38),192	2837,(3, 41),124	2961,(3, 53),936	3897,(3, 62),932	6497,(6, 44),232	6745,(6, 50),228	7005,(6, 56),36	7245,(6, 68),40	7633,(6, 80),72	7757,(6, 92),84	7877,(6, 98),44	8149,(6, 107),52	8285,(9, 23),28	8313,(9, 41),36	8349,(9, 44),32	8413,(10, 14),4	8421,(10, 17),136	8561,(10, 20),16	8581,(10, 23),12	8597,(10, 26),4	8613,(10, 29),4	8629,(10, 32),84	8713,(9, 77),32	8745,(12, 68),4	8749,(10, 35),76	8865,(10, 38),28	8897,(10, 41),32	8937,(10, 44),1436	10373,(9, 110),32	10405,(10, 47),32	10437,(12, 71),4	10441,(10, 50),84	10525,(12, 32),8	10533,(10, 53),12	10545,(9, 47),64	10609,(9, 50),48	10657,(9, 56),60	10717,(9, 71),100	10817,(9, 83),80	10897,(9, 95),44	10941,(9, 107),64	11005,(12, 14),12	11017,(12, 17),24	11041,(12, 44),8	11049,(12, 65),8	11057,(12, 77),4	11061,(10, 56),1164	12225,(12, 86),4	12229,(10, 59),44	12277,(10, 62),20	12301,(10, 65),124	12425,(12, 80),8	12433,(12, 110),8	12441,(10, 68),8	12457,(10, 71),152	12609,(12, 35),48	12665,(10, 74),40	12709,(10, 77),4	12713,(12, 38),28	12741,(12, 50),24	12769,(10, 80),44	12813,(12, 56),24	12837,(12, 83),16	12853,(12, 89),12	12869,(10, 83),20	12897,(10, 86),24	12921,(12, 113),12	12941,(10, 89),20	12977,(10, 92),244	13225,(10, 95),80	13305,(9, 53),768	14073,(9, 98),196	14269,(9, 116),292	14561,(12, 23),108	14669,(12, 29),88	14757,(12, 47),1488	16245,(12, 59),52	16309,(10, 98),12	16325,(10, 101),4	16345,(10, 104),24	16381,(10, 107),2856	19261,(10, 110),4	19265,(12, 74),52	19337,(10, 113),8	19345,(12, 53),144	19489,(12, 92),272	19761,(12, 95),52	19813,(12, 98),44	19857,(12, 101),100	19977,(10, 116),24	20001,(12, 104),40	20041,(12, 116),32	20101,(10, 119),36	20141,(1, 14),8	20209,(1, 17),4	20229,(1, 20),4	20233,(12, 107),68	20317,(1, 23),8	20341,(1, 26),112	20457,(1, 29),72	20549,(1, 32),8	20561,(1, 35),108	20685,(1, 38),48	20737,(1, 41),16	20845,(1, 44),4	20973,(1, 47),20	21049,(1, 50),56	21121,(1, 53),32	21221,(1, 56),24	21281,(1, 59),36	21341,(1, 62),104	21453,(1, 65),28	21493,(1, 68),4	21509,(1, 71),4	21517,(1, 74),88	21609,(1, 77),28	21641,(1, 80),56	21721,(1, 83),116	21837,(12, 119),144	22137,(1, 86),12	22153,(1, 89),4	22245,(1, 92),8	22257,(1, 95),4	22293,(1, 98),100	22421,(1, 101),28	22457,(1, 104),404	22897,(1, 107),12	22913,(1, 110),52	22977,(1, 113),4	22985,(1, 116),280	23285,(1, 119),32	23321,(4, 14),4	23333,(4, 17),28	23389,(4, 20),20	23413,(4, 23),168	23605,(4, 26),4	23625,(4, 29),20	23681,(4, 32),384	24189,(4, 35),8	24217,(4, 38),4	24421,(4, 41),4	24669,(4, 44),32	24745,(4, 47),56	24805,(4, 50),16	24825,(4, 53),20	24857,(4, 56),4	24865,(4, 59),40	25157,(4, 62),12	25173,(4, 65),4	25181,(4, 68),28	25365,(4, 71),12	25397,(4, 74),60	25477,(4, 77),24	25505,(4, 80),112	25625,(4, 83),84	25773,(4, 86),80	25889,(4, 89),12	25945,(4, 92),4	26017,(4, 95),12	26069,(4, 98),4	26117,(4, 101),20	26205,(4, 104),12	26221,(4, 107),208	26449,(4, 110),16	26521,(4, 113),64	26589,(4, 116),32	26625,(4, 119),4	
73,(2, 13),4	77,(2, 16),4	81,(2, 19),20	101,(2, 22),4	105,(2, 28),8	113,(2, 34),4	117,(2, 61),4	133,(3, 13),16	149,(3, 16),4	153,(3, 22),4	157,(3, 28),4	161,(3, 31),4	165,(3, 37),8	173,(3, 40),4	177,(2, 37),20	197,(2, 40),16	213,(2, 43),24	237,(2, 73),4	241,(3, 19),32	273,(3, 34),16	289,(3, 46),4	293,(3, 49),4	297,(3, 76),4	301,(2, 25),316	617,(3, 82),4	621,(2, 46),16	637,(3, 52),12	649,(3, 85),4	653,(2, 31),368	1021,(3, 100),4	1025,(2, 52),8	1033,(2, 55),24	1057,(2, 88),8	1065,(3, 115),4	1069,(2, 97),4	1073,(2, 100),4	1077,(3, 43),20	1097,(3, 97),8	1105,(2, 58),28	1133,(2, 64),36	1169,(2, 67),28	1197,(3, 118),4	1201,(2, 70),28	1229,(6, 37),4	1233,(2, 109),4	1237,(3, 58),28	1265,(6, 40),4	1269,(2, 49),144	1413,(2, 76),16	1429,(3, 25),104	1533,(3, 55),36	1569,(3, 61),20	1589,(3, 88),12	1601,(2, 79),144	1745,(2, 82),36	1781,(2, 85),28	1809,(2, 94),32	1841,(3, 106),8	1849,(6, 43),4	1853,(2, 103),12	1865,(3, 64),32	1897,(3, 67),20	1917,(2, 106),56	1973,(2, 112),16	1989,(3, 70),28	2017,(6, 55),4	2021,(2, 115),16	2037,(3, 73),48	2085,(3, 79),16	2101,(3, 91),28	2129,(3, 94),32	2161,(6, 58),4	2165,(2, 118),24	2189,(3, 103),68	2257,(3, 109),8	2265,(3, 112),68	2333,(5, 19),4	2337,(5, 22),4	2341,(5, 25),8	2349,(6, 13),8	2357,(6, 16),12	2369,(6, 19),32	2401,(6, 73),4	2405,(6, 76),8	2413,(5, 16),36	2449,(5, 28),4	2453,(5, 31),8	2461,(6, 28),20	2481,(6, 46),36	2517,(2, 91),240	2757,(5, 13),224	2981,(5, 34),20	3001,(5, 37),160	3161,(5, 40),160	3321,(5, 43),116	3437,(5, 46),56	3493,(5, 49),4	3497,(5, 52),28	3525,(5, 55),4	3529,(5, 58),172	3701,(5, 61),12	3713,(5, 64),8	3721,(5, 67),20	3741,(5, 70),16	3757,(5, 73),4	3761,(5, 76),32	3793,(5, 79),4	3797,(5, 82),20	3817,(5, 85),4	3821,(5, 88),28	3849,(5, 91),4	3853,(5, 94),60	3913,(5, 97),28	3941,(5, 100),28	3969,(5, 103),4	3973,(5, 106),96	4069,(5, 109),28	4097,(5, 112),452	4549,(5, 115),44	4593,(5, 118),8	4601,(8, 13),116	4717,(8, 16),12	4729,(8, 22),8	4737,(8, 25),12	4749,(8, 28),8	4757,(8, 31),16	4773,(8, 34),48	4821,(8, 46),4	4825,(8, 64),4	4829,(6, 22),84	4913,(6, 25),1168	6081,(6, 31),92	6173,(6, 34),324	6497,(8, 19),120	6617,(8, 40),16	6633,(8, 43),16	6649,(8, 52),24	6673,(8, 58),56	6729,(6, 49),16	6745,(8, 49),192	6937,(8, 73),16	6953,(8, 76),20	6973,(6, 52),32	7005,(8, 79),16	7021,(8, 82),8	7029,(8, 88),4	7033,(8, 91),8	7041,(6, 61),144	7185,(6, 64),32	7217,(6, 67),28	7245,(8, 85),24	7269,(8, 103),4	7273,(8, 109),4	7277,(8, 112),4	7281,(11, 25),4	7285,(6, 70),280	7565,(6, 79),68	7633,(8, 61),48	7681,(8, 94),20	7701,(11, 31),4	7705,(6, 82),8	7713,(6, 85),20	7733,(6, 88),20	7753,(6, 91),4	7757,(8, 70),64	7821,(8, 115),16	7837,(11, 58),4	7841,(6, 94),4	7845,(6, 97),32	7877,(8, 97),24	7901,(11, 19),8	7909,(11, 37),8	7917,(11, 76),4	7921,(6, 100),4	7925,(6, 103),196	8121,(6, 106),28	8149,(8, 106),44	8193,(11, 79),4	8197,(11, 88),4	8201,(6, 109),44	8245,(6, 112),8	8253,(6, 115),28	8281,(6, 118),4	8285,(8, 55),96	8381,(9, 13),36	8417,(9, 16),92	8509,(9, 19),4	8513,(9, 22),4	8517,(9, 25),24	8541,(9, 28),4	8545,(9, 31),92	8637,(9, 34),4	8641,(9, 37),52	8693,(9, 40),8	8701,(9, 43),4	8705,(9, 49),4	8709,(9, 52),4	8713,(8, 118),36	8749,(9, 46),24	8773,(9, 55),4	8777,(9, 58),8	8785,(9, 61),24	8809,(9, 64),8	8817,(9, 67),132	8949,(9, 70),4	8953,(9, 73),40	8993,(9, 76),24	9017,(9, 79),36	9053,(9, 82),16	9069,(9, 85),16	9085,(9, 88),352	9437,(9, 91),28	9465,(9, 94),4	9469,(9, 97),4	9473,(9, 100),56	9529,(9, 103),16	9545,(9, 106),16	9561,(9, 109),4	9565,(9, 112),72	9637,(9, 115),20	9657,(9, 118),24	9681,(12, 13),196	9877,(12, 16),4	9881,(12, 19),4	9885,(12, 22),4	9889,(12, 25),20	9909,(12, 28),4	9913,(12, 31),16	9929,(12, 34),8	9937,(12, 37),28	9965,(12, 40),4	9969,(12, 43),28	9997,(12, 46),4	10001,(12, 49),4	10005,(12, 52),24	10029,(12, 55),4	10033,(12, 58),168	10201,(12, 61),32	10233,(12, 64),104	10337,(12, 67),32	10369,(12, 73),4	10373,(11, 13),24	10397,(11, 82),8	10405,(12, 76),20	10425,(12, 79),8	10433,(12, 82),4	10437,(11, 91),4	10441,(12, 85),4	10445,(12, 88),4	10449,(12, 91),28	10477,(12, 100),4	10481,(12, 103),4	10485,(12, 109),8	10493,(12, 115),4	10497,(12, 118),4	10509,(8, 37),272	10781,(8, 67),164	10945,(8, 100),60	11005,(11, 16),40	11045,(11, 43),16	11061,(12, 70),488	11549,(12, 94),80	11629,(12, 97),72	11701,(12, 106),324	12025,(12, 112),176	12225,(11, 100),4	12273,(11, 106),4	12425,(11, 61),12	12449,(11, 109),8	12609,(11, 22),56	12713,(11, 34),24	12737,(11, 52),28	12813,(11, 64),12	12825,(11, 67),32	12857,(11, 85),12	12921,(11, 73),20	12961,(11, 94),12	13217,(11, 28),80	13297,(11, 40),112	13409,(11, 46),60	13469,(11, 49),164	13633,(11, 55),196	13829,(11, 70),104	13933,(11, 97),36	13969,(11, 103),192	14161,(11, 112),20	14181,(11, 115),152	14333,(11, 118),48	23337,(14, 121),4	23345,(15, 121),4	23373,(17, 121),4	23401,(18, 121),4	23421,(20, 121),4	23425,(21, 121),4	23593,(23, 121),4	23617,(24, 121),4	23621,(26, 121),4	23637,(27, 121),4	23657,(29, 121),4	23693,(30, 121),4	24077,(32, 121),4	24201,(33, 121),4	24209,(35, 121),4	24229,(36, 121),4	24233,(38, 121),4	24433,(39, 121),4	24437,(41, 121),4	24681,(42, 121),4	24713,(44, 121),4	24757,(45, 121),4	24813,(47, 121),4	24817,(48, 121),4	24833,(50, 121),4	24837,(51, 121),4	24857,(53, 121),4	24869,(54, 121),4	24873,(56, 121),4	24881,(57, 121),4	24917,(59, 121),4	25169,(60, 121),4	25181,(62, 121),4	25185,(63, 121),4	25193,(65, 121),4	25197,(66, 121),4	25221,(68, 121),4	25377,(69, 121),4	25389,(71, 121),4	25409,(72, 121),4	25469,(74, 121),4	25489,(75, 121),4	25513,(77, 121),4	25517,(78, 121),4	25629,(80, 121),4	25637,(81, 121),4	25721,(83, 121),4	25785,(84, 121),4	25865,(86, 121),4	25901,(87, 121),4	25913,(89, 121),4	25961,(92, 121),4	26029,(93, 121),4	26041,(95, 121),4	26081,(96, 121),4	26085,(98, 121),4	26129,(99, 121),4	26149,(101, 121),4	26217,(102, 121),4	26229,(104, 121),4	26233,(105, 121),4	26441,(107, 121),4	26461,(108, 121),4	26477,(110, 121),4	26533,(111, 121),4	26597,(113, 121),4	26601,(114, 121),4	26637,(117, 121),4	26649,(120, 121),4	27113,(116, 121),4	27117,(119, 121),4	27125,(90, 121),4	
# Outgoing
133,(3, 13),16	149,(3, 16),4	153,(3, 22),4	157,(3, 28),4	161,(3, 31),4	165,(3, 37),8	173,(3, 40),4	181,(3, 20),20	201,(3, 23),4	205,(3, 26),4	209,(3, 29),12	221,(3, 35),8	229,(3, 44),8	237,(3, 47),4	241,(3, 19),32	273,(3, 34),16	289,(3, 46),4	293,(3, 49),4	297,(3, 76),4	301,(3, 56),4	305,(3, 59),12	317,(3, 65),4	321,(3, 68),4	325,(3, 74),4	329,(3, 77),8	337,(3, 80),20	357,(3, 92),4	421,(3, 83),48	469,(3, 86),12	497,(3, 95),4	525,(3, 89),8	533,(3, 98),4	537,(3, 104),4	541,(3, 107),4	545,(3, 110),4	617,(3, 82),4	621,(3, 113),4	625,(3, 116),4	629,(3, 119),4	633,(6, 14),4	637,(3, 52),12	649,(3, 85),4	657,(6, 20),4	673,(3, 14),100	777,(6, 17),12	789,(6, 23),4	793,(6, 29),4	797,(6, 41),4	801,(6, 59),4	805,(6, 71),4	813,(3, 17),84	897,(6, 32),24	921,(6, 62),8	953,(3, 101),56	1009,(6, 65),12	1021,(3, 100),4	1029,(6, 38),20	1049,(6, 74),4	1057,(6, 77),4	1061,(6, 89),4	1065,(3, 115),4	1069,(6, 86),8	1077,(3, 43),20	1097,(3, 97),8	1113,(3, 50),72	1185,(6, 101),4	1189,(6, 104),4	1193,(6, 113),4	1197,(3, 118),4	1201,(6, 116),4	1213,(6, 83),16	1229,(6, 37),4	1233,(6, 119),4	1237,(3, 58),28	1265,(6, 40),4	1269,(6, 95),16	1285,(6, 110),8	1349,(9, 14),4	1353,(9, 17),4	1357,(9, 20),12	1369,(9, 29),4	1381,(6, 26),44	1425,(9, 32),4	1429,(3, 25),104	1533,(3, 55),36	1569,(3, 61),20	1589,(3, 88),12	1613,(9, 62),4	1633,(3, 32),88	1721,(3, 71),80	1801,(9, 26),8	1817,(9, 35),20	1837,(9, 68),4	1841,(3, 106),8	1849,(6, 43),4	1853,(9, 38),12	1865,(3, 64),32	1897,(3, 67),20	1917,(9, 59),16	1937,(9, 80),4	1949,(9, 89),4	1957,(6, 35),28	1985,(9, 92),4	1989,(3, 70),28	2017,(6, 55),4	2029,(9, 65),8	2037,(3, 73),48	2085,(3, 79),16	2101,(3, 91),28	2129,(3, 94),32	2161,(6, 58),4	2165,(9, 74),16	2181,(9, 86),8	2189,(3, 103),68	2257,(3, 109),8	2265,(3, 112),68	2333,(9, 101),8	2341,(9, 104),4	2345,(9, 113),4	2349,(6, 13),8	2357,(6, 16),12	2369,(6, 19),32	2401,(6, 73),4	2405,(6, 76),8	2417,(6, 53),36	2453,(12, 20),4	2457,(12, 26),4	2461,(6, 28),20	2481,(6, 46),36	2545,(6, 47),68	2613,(9, 119),12	2625,(12, 41),4	2637,(12, 62),4	2645,(3, 38),192	2837,(3, 41),124	2961,(3, 53),936	3897,(3, 62),932	4829,(6, 22),84	4913,(6, 25),1168	6081,(6, 31),92	6173,(6, 34),324	6497,(6, 44),232	6729,(6, 49),16	6745,(6, 50),228	6973,(6, 52),32	7005,(6, 56),36	7041,(6, 61),144	7185,(6, 64),32	7217,(6, 67),28	7245,(6, 68),40	7285,(6, 70),280	7565,(6, 79),68	7633,(6, 80),72	7705,(6, 82),8	7713,(6, 85),20	7733,(6, 88),20	7753,(6, 91),4	7757,(6, 92),84	7841,(6, 94),4	7845,(6, 97),32	7877,(6, 98),44	7921,(6, 100),4	7925,(6, 103),196	8121,(6, 106),28	8149,(6, 107),52	8201,(6, 109),44	8245,(6, 112),8	8253,(6, 115),28	8281,(6, 118),4	8285,(9, 23),28	8313,(9, 41),36	8349,(9, 44),32	8381,(9, 13),36	8417,(9, 16),92	8509,(9, 19),4	8513,(9, 22),4	8517,(9, 25),24	8541,(9, 28),4	8545,(9, 31),92	8637,(9, 34),4	8641,(9, 37),52	8693,(9, 40),8	8701,(9, 43),4	8705,(9, 49),4	8709,(9, 52),4	8713,(9, 77),32	8745,(12, 68),4	8749,(9, 46),24	8773,(9, 55),4	8777,(9, 58),8	8785,(9, 61),24	8809,(9, 64),8	8817,(9, 67),132	8949,(9, 70),4	8953,(9, 73),40	8993,(9, 76),24	9017,(9, 79),36	9053,(9, 82),16	9069,(9, 85),16	9085,(9, 88),352	9437,(9, 91),28	9465,(9, 94),4	9469,(9, 97),4	9473,(9, 100),56	9529,(9, 103),16	9545,(9, 106),16	9561,(9, 109),4	9565,(9, 112),72	9637,(9, 115),20	9657,(9, 118),24	9681,(12, 13),196	9877,(12, 16),4	9881,(12, 19),4	9885,(12, 22),4	9889,(12, 25),20	9909,(12, 28),4	9913,(12, 31),16	9929,(12, 34),8	9937,(12, 37),28	9965,(12, 40),4	9969,(12, 43),28	9997,(12, 46),4	10001,(12, 49),4	10005,(12, 52),24	10029,(12, 55),4	10033,(12, 58),168	10201,(12, 61),32	10233,(12, 64),104	10337,(12, 67),32	10369,(12, 73),4	10373,(9, 110),32	10405,(12, 76),20	10425,(12, 79),8	10433,(12, 82),4	10437,(12, 71),4	10441,(12, 85),4	10445,(12, 88),4	10449,(12, 91),28	10477,(12, 100),4	10481,(12, 103),4	10485,(12, 109),8	10493,(12, 115),4	10497,(12, 118),4	10525,(12, 32),8	10545,(9, 47),64	10609,(9, 50),48	10657,(9, 56),60	10717,(9, 71),100	10817,(9, 83),80	10897,(9, 95),44	10941,(9, 107),64	11005,(12, 14),12	11017,(12, 17),24	11041,(12, 44),8	11049,(12, 65),8	11057,(12, 77),4	11061,(12, 70),488	11549,(12, 94),80	11629,(12, 97),72	11701,(12, 106),324	12025,(12, 112),176	12225,(12, 86),4	12425,(12, 80),8	12433,(12, 110),8	12609,(12, 35),48	12713,(12, 38),28	12741,(12, 50),24	12813,(12, 56),24	12837,(12, 83),16	12853,(12, 89),12	12921,(12, 113),12	13305,(9, 53),768	14073,(9, 98),196	14269,(9, 116),292	14561,(12, 23),108	14669,(12, 29),88	14757,(12, 47),1488	16245,(12, 59),52	19265,(12, 74),52	19345,(12, 53),144	19489,(12, 92),272	19761,(12, 95),52	19813,(12, 98),44	19857,(12, 101),100	20001,(12, 104),40	20041,(12, 116),32	20233,(12, 107),68	21837,(12, 119),144	23345,(15, 121),4	23401,(18, 121),4	23425,(21, 121),4	23617,(24, 121),4	23637,(27, 121),4	23693,(30, 121),4	24201,(33, 121),4	24229,(36, 121),4	24433,(39, 121),4	24681,(42, 121),4	24757,(45, 121),4	24817,(48, 121),4	24837,(51, 121),4	24869,(54, 121),4	24881,(57, 121),4	25169,(60, 121),4	25185,(63, 121),4	25197,(66, 121),4	25377,(69, 121),4	25409,(72, 121),4	25489,(75, 121),4	25517,(78, 121),4	25637,(81, 121),4	25785,(84, 121),4	25901,(87, 121),4	26029,(93, 121),4	26081,(96, 121),4	26129,(99, 121),4	26217,(102, 121),4	26233,(105, 121),4	26461,(108, 121),4	26533,(111, 121),4	26601,(114, 121),4	26637,(117, 121),4	26649,(120, 121),4	27125,(90, 121),4	
73,(2, 13),4	77,(2, 16),4	81,(2, 19),20	101,(2, 22),4	105,(2, 28),8	113,(2, 34),4	117,(2, 61),4	121,(2, 15),4	125,(2, 21),40	165,(2, 24),12	177,(2, 37),20	197,(2, 40),16	213,(2, 43),24	237,(2, 73),4	241,(2, 18),60	301,(2, 25),316	617,(2, 39),4	621,(2, 46),16	637,(2, 27),16	653,(2, 31),368	1021,(2, 42),4	1025,(2, 52),8	1033,(2, 55),24	1057,(2, 88),8	1065,(2, 63),4	1069,(2, 97),4	1073,(2, 100),4	1077,(2, 33),16	1093,(2, 45),12	1105,(2, 58),28	1133,(2, 64),36	1169,(2, 67),28	1197,(2, 69),4	1201,(2, 70),28	1229,(2, 78),4	1233,(2, 109),4	1237,(2, 36),32	1269,(2, 49),144	1413,(2, 76),16	1437,(2, 51),16	1453,(2, 57),28	1481,(2, 84),4	1489,(2, 30),88	1577,(2, 60),24	1601,(2, 79),144	1745,(2, 82),36	1781,(2, 85),28	1809,(2, 94),32	1841,(2, 96),12	1853,(2, 103),12	1865,(2, 87),16	1881,(2, 90),36	1917,(2, 106),56	1973,(2, 112),16	2001,(2, 93),20	2021,(2, 115),16	2037,(2, 48),116	2153,(2, 111),12	2165,(2, 118),24	2237,(2, 99),20	2257,(2, 105),16	2281,(2, 108),16	2301,(2, 114),12	2313,(5, 18),4	2317,(5, 33),4	2333,(5, 19),4	2337,(5, 22),4	2341,(5, 25),8	2349,(2, 54),64	2413,(5, 16),36	2449,(5, 28),4	2453,(5, 31),8	2461,(2, 66),56	2517,(2, 91),240	2757,(5, 13),224	2981,(5, 34),20	3001,(5, 37),160	3161,(5, 40),160	3321,(5, 43),116	3437,(5, 46),56	3493,(5, 49),4	3497,(5, 52),28	3525,(5, 55),4	3529,(5, 58),172	3701,(5, 61),12	3713,(5, 64),8	3721,(5, 67),20	3741,(5, 70),16	3757,(5, 73),4	3761,(5, 76),32	3793,(5, 79),4	3797,(5, 82),20	3817,(5, 85),4	3821,(5, 88),28	3849,(5, 91),4	3853,(5, 94),60	3913,(5, 97),28	3941,(5, 100),28	3969,(5, 103),4	3973,(5, 106),96	4069,(5, 109),28	4097,(5, 112),452	4549,(5, 115),44	4593,(5, 118),8	4601,(8, 13),116	4717,(8, 16),12	4729,(8, 22),8	4737,(8, 25),12	4749,(8, 28),8	4757,(8, 31),16	4773,(8, 34),48	4821,(8, 46),4	4825,(8, 64),4	6497,(8, 19),120	6617,(8, 40),16	6633,(8, 43),16	6649,(8, 52),24	6673,(8, 58),56	6745,(8, 49),192	6937,(8, 73),16	6953,(8, 76),20	7005,(8, 79),16	7021,(8, 82),8	7029,(8, 88),4	7033,(8, 91),8	7245,(8, 85),24	7269,(8, 103),4	7273,(8, 109),4	7277,(8, 112),4	7281,(11, 25),4	7633,(8, 61),48	7681,(8, 94),20	7701,(11, 31),4	7757,(8, 70),64	7821,(8, 115),16	7837,(11, 58),4	7877,(8, 97),24	7901,(11, 19),8	7909,(11, 37),8	7917,(11, 76),4	8149,(8, 106),44	8193,(11, 79),4	8197,(11, 88),4	8285,(8, 55),96	8413,(5, 39),4	8421,(2, 75),56	8477,(2, 120),12	8489,(5, 15),48	8537,(5, 21),16	8553,(5, 45),4	8561,(5, 30),16	8581,(5, 54),4	8585,(5, 66),4	8589,(5, 69),4	8597,(5, 78),4	8613,(5, 84),4	8629,(5, 27),52	8681,(5, 60),16	8697,(5, 90),4	8701,(5, 93),4	8705,(5, 99),4	8709,(8, 21),4	8713,(8, 118),36	8749,(5, 42),72	8821,(8, 24),4	8865,(5, 63),24	8889,(8, 30),4	8897,(5, 75),28	8925,(8, 33),4	8937,(2, 72),500	9437,(2, 81),132	9569,(2, 102),228	9797,(2, 117),268	10065,(5, 51),84	10149,(5, 57),92	10241,(5, 72),48	10289,(5, 81),44	10333,(5, 105),8	10341,(5, 108),16	10357,(5, 111),8	10365,(5, 114),8	10373,(11, 13),24	10397,(11, 82),8	10405,(5, 120),32	10437,(11, 91),4	10441,(5, 87),48	10489,(8, 15),20	10509,(8, 37),272	10781,(8, 67),164	10945,(8, 100),60	11005,(11, 16),40	11045,(11, 43),16	11061,(5, 24),664	11725,(5, 36),492	12217,(8, 45),4	12221,(8, 60),4	12225,(11, 100),4	12229,(8, 36),24	12253,(8, 39),16	12269,(8, 63),4	12273,(11, 106),4	12277,(8, 57),16	12293,(8, 66),4	12301,(5, 117),124	12425,(11, 61),12	12441,(8, 69),4	12445,(8, 72),4	12449,(11, 109),8	12457,(8, 18),48	12505,(8, 27),56	12561,(8, 48),40	12601,(8, 78),4	12605,(8, 87),4	12609,(11, 22),56	12665,(8, 75),20	12685,(8, 84),16	12701,(8, 93),4	12709,(8, 105),4	12713,(11, 34),24	12737,(11, 52),28	12769,(8, 90),24	12793,(8, 96),12	12805,(8, 99),8	12813,(11, 64),12	12825,(11, 67),32	12857,(11, 85),12	12869,(8, 111),4	12873,(8, 114),4	12877,(8, 117),4	12881,(8, 120),4	12885,(11, 18),4	12897,(11, 15),20	12917,(11, 24),4	12921,(11, 73),20	12941,(11, 51),16	12957,(11, 69),4	12961,(11, 94),12	12977,(5, 96),184	13161,(8, 108),56	13217,(11, 28),80	13297,(11, 40),112	13409,(11, 46),60	13469,(11, 49),164	13633,(11, 55),196	13829,(11, 70),104	13933,(11, 97),36	13969,(11, 103),192	14161,(11, 112),20	14181,(11, 115),152	14333,(11, 118),48	16309,(11, 75),4	16313,(11, 78),4	16317,(11, 84),4	16325,(11, 96),4	16345,(11, 36),24	16381,(5, 48),440	16821,(5, 102),356	17177,(8, 42),120	17297,(8, 51),104	17401,(8, 54),112	17513,(8, 81),380	17893,(8, 102),116	18009,(11, 21),224	18233,(11, 27),104	18337,(11, 30),148	18485,(11, 33),28	18513,(11, 39),72	18585,(11, 42),24	18609,(11, 45),36	18645,(11, 48),36	18681,(11, 54),284	18965,(11, 57),28	18993,(11, 60),24	19017,(11, 63),28	19045,(11, 66),40	19085,(11, 72),24	19109,(11, 81),20	19129,(11, 87),28	19157,(11, 93),36	19193,(11, 99),4	19197,(11, 102),4	19201,(11, 108),4	19205,(11, 111),4	19209,(11, 114),4	20341,(11, 120),48	22457,(11, 105),128	22585,(11, 117),148	23337,(14, 121),4	23373,(17, 121),4	23421,(20, 121),4	23593,(23, 121),4	23621,(26, 121),4	23657,(29, 121),4	24077,(32, 121),4	24209,(35, 121),4	24233,(38, 121),4	24437,(41, 121),4	24713,(44, 121),4	24813,(47, 121),4	24833,(50, 121),4	24857,(53, 121),4	24873,(56, 121),4	24917,(59, 121),4	25181,(62, 121),4	25193,(65, 121),4	25221,(68, 121),4	25389,(71, 121),4	25469,(74, 121),4	25513,(77, 121),4	25629,(80, 121),4	25721,(83, 121),4	25865,(86, 121),4	25913,(89, 121),4	25961,(92, 121),4	26041,(95, 121),4	26085,(98, 121),4	26149,(101, 121),4	26229,(104, 121),4	26441,(107, 121),4	26477,(110, 121),4	26597,(113, 121),4	26633,(11, 90),480	27113,(116, 121),4	27117,(119, 121),4	
1,(0, 2),60	61,(0, 3),60	121,(0, 5),60	181,(0, 6),60	241,(0, 8),60	301,(0, 9),60	361,(0, 11),60	421,(0, 12),60	481,(7, 14),16	497,(7, 15),4	501,(7, 17),24	525,(7, 18),24	549,(7, 20),72	621,(7, 21),16	637,(7, 23),20	657,(7, 24),4	661,(7, 26),12	673,(7, 27),100	773,(7, 29),4	777,(7, 30),32	809,(7, 32),4	813,(7, 33),116	929,(7, 35),24	953,(7, 36),68	1021,(7, 38),8	1029,(7, 39),24	1053,(7, 41),4	1057,(7, 42),8	1065,(7, 44),4	1069,(7, 45),8	1077,(7, 47),36	1113,(7, 48),84	1197,(7, 50),4	1201,(7, 51),4	1205,(7, 53),8	1213,(7, 54),16	1229,(7, 56),4	1233,(7, 57),4	1237,(7, 59),32	1269,(7, 60),24	1293,(7, 62),56	1349,(7, 63),24	1373,(7, 65),8	1381,(7, 66),56	1437,(7, 68),48	1485,(7, 69),4	1489,(7, 71),124	1613,(7, 72),4	1617,(7, 74),16	1633,(7, 75),176	1809,(7, 77),8	1817,(7, 78),24	1841,(7, 80),12	1853,(7, 81),12	1865,(7, 83),52	1917,(7, 84),16	1933,(7, 86),4	1937,(7, 87),4	1941,(7, 89),8	1949,(7, 90),4	1953,(7, 92),4	1957,(7, 93),44	2001,(7, 95),28	2029,(7, 96),8	2037,(7, 98),128	2165,(7, 99),72	2237,(7, 101),36	2273,(7, 102),8	2281,(7, 104),16	2297,(7, 105),4	2301,(7, 107),20	2321,(7, 108),28	2349,(7, 110),68	2417,(7, 111),44	2461,(7, 113),84	2545,(7, 114),84	2629,(7, 116),8	2637,(7, 117),4	2641,(7, 119),4	2645,(7, 120),5768	8413,(10, 14),4	8417,(10, 15),4	8421,(10, 17),136	8557,(10, 18),4	8561,(10, 20),16	8577,(10, 21),4	8581,(10, 23),12	8593,(10, 24),4	8597,(10, 26),4	8601,(10, 27),12	8613,(10, 29),4	8617,(10, 30),12	8629,(10, 32),84	8713,(10, 33),36	8749,(10, 35),76	8825,(10, 36),40	8865,(10, 38),28	8893,(10, 39),4	8897,(10, 41),32	8929,(10, 42),8	8937,(10, 44),1436	10373,(10, 45),32	10405,(10, 47),32	10437,(10, 48),4	10441,(10, 50),84	10525,(10, 51),8	10533,(10, 53),12	10545,(10, 54),516	11061,(10, 56),1164	12225,(10, 57),4	12229,(10, 59),44	12273,(10, 60),4	12277,(10, 62),20	12297,(10, 63),4	12301,(10, 65),124	12425,(10, 66),16	12441,(10, 68),8	12449,(10, 69),8	12457,(10, 71),152	12609,(10, 72),56	12665,(10, 74),40	12705,(10, 75),4	12709,(10, 77),4	12713,(10, 78),56	12769,(10, 80),44	12813,(10, 81),56	12869,(10, 83),20	12889,(10, 84),8	12897,(10, 86),24	12921,(10, 87),20	12941,(10, 89),20	12961,(10, 90),16	12977,(10, 92),244	13221,(10, 93),4	13225,(10, 95),80	13305,(10, 96),3004	16309,(10, 98),12	16321,(10, 99),4	16325,(10, 101),4	16329,(10, 102),16	16345,(10, 104),24	16369,(10, 105),12	16381,(10, 107),2856	19237,(10, 108),24	19261,(10, 110),4	19265,(10, 111),72	19337,(10, 113),8	19345,(10, 114),632	19977,(10, 116),24	20001,(10, 117),100	20101,(10, 119),36	20137,(10, 120),4	20141,(1, 14),8	20149,(1, 15),60	20209,(1, 17),4	20213,(1, 18),16	20229,(1, 20),4	20233,(1, 21),84	20317,(1, 23),8	20325,(1, 24),16	20341,(1, 26),112	20453,(1, 27),4	20457,(1, 29),72	20529,(1, 30),20	20549,(1, 32),8	20557,(1, 33),4	20561,(1, 35),108	20669,(1, 36),16	20685,(1, 38),48	20733,(1, 39),4	20737,(1, 41),16	20753,(1, 42),92	20845,(1, 44),4	20849,(1, 45),124	20973,(1, 47),20	20993,(1, 48),56	21049,(1, 50),56	21105,(1, 51),16	21121,(1, 53),32	21153,(1, 54),68	21221,(1, 56),24	21245,(1, 57),36	21281,(1, 59),36	21317,(1, 60),24	21341,(1, 62),104	21445,(1, 63),8	21453,(1, 65),28	21481,(1, 66),12	21493,(1, 68),4	21497,(1, 69),12	21509,(1, 71),4	21513,(1, 72),4	21517,(1, 74),88	21605,(1, 75),4	21609,(1, 77),28	21637,(1, 78),4	21641,(1, 80),56	21697,(1, 81),24	21721,(1, 83),116	21837,(1, 84),300	22137,(1, 86),12	22149,(1, 87),4	22153,(1, 89),4	22157,(1, 90),88	22245,(1, 92),8	22253,(1, 93),4	22257,(1, 95),4	22261,(1, 96),32	22293,(1, 98),100	22393,(1, 99),28	22421,(1, 101),28	22449,(1, 102),8	22457,(1, 104),404	22861,(1, 105),36	22897,(1, 107),12	22909,(1, 108),4	22913,(1, 110),52	22965,(1, 111),12	22977,(1, 113),4	22981,(1, 114),4	22985,(1, 116),280	23265,(1, 117),20	23285,(1, 119),32	23317,(1, 120),4	23321,(4, 14),4	23325,(4, 15),8	23333,(4, 17),28	23361,(4, 18),28	23389,(4, 20),20	23409,(4, 21),4	23413,(4, 23),168	23581,(4, 24),24	23605,(4, 26),4	23609,(4, 27),16	23625,(4, 29),20	23645,(4, 30),36	23681,(4, 32),384	24065,(4, 33),124	24189,(4, 35),8	24197,(4, 36),20	24217,(4, 38),4	24221,(4, 39),200	24421,(4, 41),4	24425,(4, 42),244	24669,(4, 44),32	24701,(4, 45),44	24745,(4, 47),56	24801,(4, 48),4	24805,(4, 50),16	24821,(4, 51),4	24825,(4, 53),20	24845,(4, 54),12	24857,(4, 56),4	24861,(4, 57),4	24865,(4, 59),40	24905,(4, 60),252	25157,(4, 62),12	25169,(4, 63),4	25173,(4, 65),4	25177,(4, 66),4	25181,(4, 68),28	25209,(4, 69),156	25365,(4, 71),12	25377,(4, 72),20	25397,(4, 74),60	25457,(4, 75),20	25477,(4, 77),24	25501,(4, 78),4	25505,(4, 80),112	25617,(4, 81),8	25625,(4, 83),84	25709,(4, 84),64	25773,(4, 86),80	25853,(4, 87),36	25889,(4, 89),12	25901,(4, 90),44	25945,(4, 92),4	25949,(4, 93),68	26017,(4, 95),12	26029,(4, 96),40	26069,(4, 98),4	26073,(4, 99),44	26117,(4, 101),20	26137,(4, 102),68	26205,(4, 104),12	26217,(4, 105),4	26221,(4, 107),208	26429,(4, 108),20	26449,(4, 110),16	26465,(4, 111),56	26521,(4, 113),64	26585,(4, 114),4	26589,(4, 116),32	26621,(4, 117),4	26625,(4, 119),4	26629,(4, 120),4	
