602
# CPU
0,41,1	1,33,8	9,36,8	17,12,8	25,24,8	33,11,8	41,6,8	49,38,8	57,34,8	65,27,8	73,9,8	81,14,8	89,10,8	97,20,8	105,26,8	113,29,8	121,25,8	129,21,8	137,16,8	145,28,8	153,40,8	161,18,8	169,31,8	177,30,8	185,32,8	193,7,8	201,13,8	209,39,8	217,15,8	225,17,8	233,5,8	241,23,8	249,35,8	257,22,8	265,8,8	273,1,8	281,19,8	289,4,8	297,3,8	593,2,8	601,0,1	
217,37,8	



# Incoming
225,(37, 1),4	229,(37, 4),24	253,(37, 3),28	281,(37, 2),312	
1,(41, 37),216	



# Outgoing
1,(41, 37),216	
225,(37, 1),4	229,(37, 4),24	253,(37, 3),28	281,(37, 2),312	



