2722
# CPU
13,2,2	15,38,2	17,156,2	19,82,2	21,122,2	23,150,2	25,4,2	27,64,2	29,132,2	31,138,2	33,170,2	37,6,2	39,56,2	41,86,2	43,126,2	45,140,2	47,194,2	49,8,2	51,46,2	53,70,2	55,160,2	61,10,2	63,164,2	65,182,2	67,200,2	73,12,2	75,50,2	77,54,2	79,168,2	85,14,2	87,172,2	97,16,2	99,24,2	101,60,2	103,112,2	105,108,2	109,18,2	111,28,2	113,40,2	115,180,2	117,190,2	119,44,2	121,68,2	123,20,2	125,62,2	127,74,2	129,196,2	131,142,2	133,174,2	135,176,2	2019,32,2	2023,48,2	2025,102,2	2051,128,2	2073,134,2	2087,78,2	2161,106,2	2169,120,2	2223,136,2	2245,144,2	2249,162,2	2251,186,2	2253,52,2	2285,84,2	2291,104,2	2301,118,2	2367,184,2	2369,22,2	2377,36,2	2385,88,2	2387,92,2	2433,114,2	2435,166,2	2453,72,2	2471,80,2	2473,90,2	2501,192,2	2507,66,2	2511,94,2	2529,130,2	2555,148,2	2573,178,2	2575,188,2	2583,198,2	2587,30,2	2611,34,2	2613,58,2	2615,76,2	2617,98,2	2629,100,2	2631,146,2	2649,154,2	2653,26,2	2655,42,2	2663,96,2	2681,116,2	2687,124,2	2693,110,2	2707,152,2	2709,158,2	
0,0,1	1,1,2	3,15,2	5,9,2	7,11,2	9,5,2	11,13,2	13,7,2	15,17,2	17,3,2	19,19,2	21,123,2	23,79,2	25,189,2	27,51,2	29,141,2	31,87,2	33,63,2	35,153,2	37,177,2	39,165,2	41,151,2	43,135,2	45,119,2	47,35,2	49,29,2	51,131,2	53,89,2	55,33,2	57,93,2	59,193,2	61,139,2	63,121,2	65,105,2	67,27,2	69,21,2	71,175,2	73,169,2	75,143,2	77,133,2	79,111,2	81,197,2	83,183,2	85,181,2	87,83,2	89,77,2	91,47,2	93,161,2	95,109,2	97,67,2	99,115,2	101,137,2	103,71,2	105,53,2	107,101,2	141,107,2	143,179,2	187,25,2	195,41,2	259,75,2	365,81,2	391,99,2	407,147,2	411,149,2	425,167,2	463,171,2	505,57,2	541,145,2	547,173,2	799,199,2	827,31,2	875,39,2	879,43,2	905,45,2	907,49,2	921,65,2	939,91,2	953,117,2	979,127,2	981,157,2	993,195,2	1015,69,2	1047,85,2	1063,97,2	1071,155,2	1081,187,2	1101,37,2	1329,61,2	1407,95,2	1431,125,2	1433,159,2	1439,191,2	1453,55,2	1457,103,2	1463,129,2	1491,23,2	1495,59,2	1525,73,2	1543,113,2	1549,163,2	1551,185,2	2721,201,1	
# Incoming
1,(0, 2),12	13,(0, 4),12	25,(0, 6),12	37,(0, 8),12	49,(0, 10),12	61,(0, 12),12	73,(0, 14),12	85,(0, 16),12	97,(0, 18),12	109,(0, 20),12	121,(1, 32),1898	2019,(1, 48),4	2023,(1, 102),2	2025,(1, 128),26	2051,(1, 134),22	2073,(15, 78),14	2087,(15, 106),74	2161,(15, 120),8	2169,(15, 136),54	2223,(15, 144),22	2245,(15, 162),4	2249,(15, 186),2	2251,(9, 52),2	2253,(9, 84),32	2285,(9, 104),6	2291,(9, 118),10	2301,(9, 184),66	2367,(11, 22),2	2369,(11, 36),8	2377,(11, 88),8	2385,(11, 92),2	2387,(11, 114),46	2433,(11, 166),2	2435,(5, 72),18	2453,(5, 80),18	2471,(5, 90),2	2473,(5, 192),28	2501,(13, 66),6	2507,(13, 94),4	2511,(13, 130),18	2529,(13, 148),26	2555,(13, 178),18	2573,(13, 188),2	2575,(13, 198),8	2583,(7, 30),4	2587,(7, 34),24	2611,(7, 58),2	2613,(17, 76),2	2615,(17, 98),2	2617,(17, 100),12	2629,(17, 146),2	2631,(17, 154),18	2649,(3, 26),4	2653,(3, 42),2	2655,(3, 96),8	2663,(3, 116),18	2681,(3, 124),6	2687,(19, 110),6	2693,(19, 152),14	2707,(19, 158),2	
15,(2, 47),4	19,(2, 53),16	35,(2, 101),6	41,(2, 107),100	141,(2, 179),2	143,(38, 201),6	149,(156, 201),6	155,(82, 201),6	161,(122, 201),6	167,(150, 201),6	173,(4, 25),14	187,(4, 41),8	195,(4, 75),64	259,(4, 81),106	365,(4, 99),26	391,(4, 147),16	407,(4, 149),4	411,(4, 167),14	425,(4, 171),38	463,(64, 201),6	469,(132, 201),6	475,(138, 201),6	481,(170, 201),6	487,(6, 57),18	505,(56, 201),6	511,(86, 201),6	517,(126, 201),6	523,(140, 201),6	529,(194, 201),6	535,(8, 145),6	541,(8, 173),6	547,(8, 199),252	799,(46, 201),6	805,(70, 201),6	811,(160, 201),6	817,(10, 31),10	827,(10, 39),48	875,(10, 43),4	879,(10, 45),26	905,(10, 49),2	907,(10, 65),14	921,(10, 91),18	939,(10, 117),14	953,(10, 127),26	979,(10, 157),2	981,(10, 195),12	993,(164, 201),6	999,(182, 201),6	1005,(200, 201),6	1011,(12, 69),4	1015,(12, 85),32	1047,(12, 97),16	1063,(12, 155),8	1071,(12, 187),10	1081,(50, 201),6	1087,(54, 201),6	1093,(168, 201),6	1099,(14, 37),2	1101,(14, 61),228	1329,(14, 95),78	1407,(14, 125),24	1431,(14, 159),2	1433,(14, 191),6	1439,(172, 201),6	1445,(16, 55),8	1453,(16, 103),4	1457,(16, 129),6	1463,(24, 201),6	1469,(60, 201),6	1475,(112, 201),6	1481,(108, 201),6	1487,(18, 23),4	1491,(18, 59),4	1495,(18, 73),30	1525,(18, 113),18	1543,(18, 163),6	1549,(18, 185),2	1551,(28, 201),6	1557,(40, 201),6	1563,(180, 201),6	1569,(190, 201),6	1575,(44, 201),6	1581,(68, 201),6	1587,(62, 201),6	1593,(74, 201),6	1599,(196, 201),6	1605,(142, 201),6	1611,(174, 201),6	1617,(176, 201),6	2021,(32, 201),6	2027,(48, 201),6	2033,(102, 201),6	2053,(128, 201),6	2075,(134, 201),6	2089,(78, 201),6	2163,(106, 201),6	2171,(120, 201),6	2225,(136, 201),6	2247,(144, 201),6	2253,(162, 201),6	2259,(186, 201),6	2265,(52, 201),6	2287,(84, 201),6	2293,(104, 201),6	2303,(118, 201),6	2369,(184, 201),6	2375,(22, 201),6	2381,(36, 201),6	2387,(88, 201),6	2393,(92, 201),6	2435,(114, 201),6	2441,(166, 201),6	2455,(72, 201),6	2473,(80, 201),6	2479,(90, 201),6	2503,(192, 201),6	2509,(66, 201),6	2515,(94, 201),6	2531,(130, 201),6	2557,(148, 201),6	2575,(178, 201),6	2581,(188, 201),6	2587,(198, 201),6	2593,(30, 201),6	2613,(34, 201),6	2619,(58, 201),6	2625,(76, 201),6	2631,(98, 201),6	2637,(100, 201),6	2643,(146, 201),6	2651,(154, 201),6	2657,(26, 201),6	2663,(42, 201),6	2669,(96, 201),6	2683,(116, 201),6	2689,(124, 201),6	2695,(110, 201),6	2709,(152, 201),6	2715,(158, 201),6	
# Outgoing
15,(2, 47),4	19,(2, 53),16	35,(2, 101),6	41,(2, 107),100	141,(2, 179),2	143,(38, 201),6	149,(156, 201),6	155,(82, 201),6	161,(122, 201),6	167,(150, 201),6	173,(4, 25),14	187,(4, 41),8	195,(4, 75),64	259,(4, 81),106	365,(4, 99),26	391,(4, 147),16	407,(4, 149),4	411,(4, 167),14	425,(4, 171),38	463,(64, 201),6	469,(132, 201),6	475,(138, 201),6	481,(170, 201),6	487,(6, 57),18	505,(56, 201),6	511,(86, 201),6	517,(126, 201),6	523,(140, 201),6	529,(194, 201),6	535,(8, 145),6	541,(8, 173),6	547,(8, 199),252	799,(46, 201),6	805,(70, 201),6	811,(160, 201),6	817,(10, 31),10	827,(10, 39),48	875,(10, 43),4	879,(10, 45),26	905,(10, 49),2	907,(10, 65),14	921,(10, 91),18	939,(10, 117),14	953,(10, 127),26	979,(10, 157),2	981,(10, 195),12	993,(164, 201),6	999,(182, 201),6	1005,(200, 201),6	1011,(12, 69),4	1015,(12, 85),32	1047,(12, 97),16	1063,(12, 155),8	1071,(12, 187),10	1081,(50, 201),6	1087,(54, 201),6	1093,(168, 201),6	1099,(14, 37),2	1101,(14, 61),228	1329,(14, 95),78	1407,(14, 125),24	1431,(14, 159),2	1433,(14, 191),6	1439,(172, 201),6	1445,(16, 55),8	1453,(16, 103),4	1457,(16, 129),6	1463,(24, 201),6	1469,(60, 201),6	1475,(112, 201),6	1481,(108, 201),6	1487,(18, 23),4	1491,(18, 59),4	1495,(18, 73),30	1525,(18, 113),18	1543,(18, 163),6	1549,(18, 185),2	1551,(28, 201),6	1557,(40, 201),6	1563,(180, 201),6	1569,(190, 201),6	1575,(44, 201),6	1581,(68, 201),6	1587,(62, 201),6	1593,(74, 201),6	1599,(196, 201),6	1605,(142, 201),6	1611,(174, 201),6	1617,(176, 201),6	2021,(32, 201),6	2027,(48, 201),6	2033,(102, 201),6	2053,(128, 201),6	2075,(134, 201),6	2089,(78, 201),6	2163,(106, 201),6	2171,(120, 201),6	2225,(136, 201),6	2247,(144, 201),6	2253,(162, 201),6	2259,(186, 201),6	2265,(52, 201),6	2287,(84, 201),6	2293,(104, 201),6	2303,(118, 201),6	2369,(184, 201),6	2375,(22, 201),6	2381,(36, 201),6	2387,(88, 201),6	2393,(92, 201),6	2435,(114, 201),6	2441,(166, 201),6	2455,(72, 201),6	2473,(80, 201),6	2479,(90, 201),6	2503,(192, 201),6	2509,(66, 201),6	2515,(94, 201),6	2531,(130, 201),6	2557,(148, 201),6	2575,(178, 201),6	2581,(188, 201),6	2587,(198, 201),6	2593,(30, 201),6	2613,(34, 201),6	2619,(58, 201),6	2625,(76, 201),6	2631,(98, 201),6	2637,(100, 201),6	2643,(146, 201),6	2651,(154, 201),6	2657,(26, 201),6	2663,(42, 201),6	2669,(96, 201),6	2683,(116, 201),6	2689,(124, 201),6	2695,(110, 201),6	2709,(152, 201),6	2715,(158, 201),6	
1,(0, 2),12	13,(0, 4),12	25,(0, 6),12	37,(0, 8),12	49,(0, 10),12	61,(0, 12),12	73,(0, 14),12	85,(0, 16),12	97,(0, 18),12	109,(0, 20),12	121,(1, 32),1898	2019,(1, 48),4	2023,(1, 102),2	2025,(1, 128),26	2051,(1, 134),22	2073,(15, 78),14	2087,(15, 106),74	2161,(15, 120),8	2169,(15, 136),54	2223,(15, 144),22	2245,(15, 162),4	2249,(15, 186),2	2251,(9, 52),2	2253,(9, 84),32	2285,(9, 104),6	2291,(9, 118),10	2301,(9, 184),66	2367,(11, 22),2	2369,(11, 36),8	2377,(11, 88),8	2385,(11, 92),2	2387,(11, 114),46	2433,(11, 166),2	2435,(5, 72),18	2453,(5, 80),18	2471,(5, 90),2	2473,(5, 192),28	2501,(13, 66),6	2507,(13, 94),4	2511,(13, 130),18	2529,(13, 148),26	2555,(13, 178),18	2573,(13, 188),2	2575,(13, 198),8	2583,(7, 30),4	2587,(7, 34),24	2611,(7, 58),2	2613,(17, 76),2	2615,(17, 98),2	2617,(17, 100),12	2629,(17, 146),2	2631,(17, 154),18	2649,(3, 26),4	2653,(3, 42),2	2655,(3, 96),8	2663,(3, 116),18	2681,(3, 124),6	2687,(19, 110),6	2693,(19, 152),14	2707,(19, 158),2	
