20825
# CPU
109,4,38	217,8,38	325,12,38	433,16,38	541,20,38	1978,73,38	2593,57,38	2683,93,38	4285,39,38	4323,157,38	6952,141,38	7378,28,38	7423,33,38	8437,89,38	8497,25,38	8535,173,38	8573,97,38	8611,53,38	8649,105,38	8687,145,38	8725,45,38	8785,101,38	8823,169,38	8863,181,38	9208,42,38	9328,61,38	9366,65,38	9442,69,38	9760,85,38	9798,109,38	9868,117,38	10051,125,38	10089,129,38	10127,149,38	10252,133,38	10366,161,38	10404,153,38	10442,165,38	11521,35,38	15073,193,38	15187,49,38	15225,77,38	15263,81,38	15301,113,38	15339,121,38	15511,137,38	15550,177,38	15588,185,38	15626,189,38	15664,197,38	
73,3,38	181,7,38	289,11,38	397,15,38	505,19,38	652,111,38	4504,38,38	4603,75,38	5734,47,38	5860,71,38	7648,29,38	7717,95,38	7755,103,38	7798,44,38	7836,91,38	7874,147,38	8503,67,38	8629,139,38	8764,83,38	8881,59,38	9178,167,38	9216,195,38	11071,24,38	11109,34,38	11147,41,38	11185,51,38	11223,55,38	11261,63,38	11299,79,38	11337,107,38	11375,119,38	11413,131,38	11451,163,38	11489,179,38	11527,187,38	12622,99,38	12763,159,38	12801,171,38	12839,175,38	15007,183,38	15088,26,38	15217,87,38	15255,115,38	15293,123,38	15331,127,38	15448,135,38	15517,151,38	15555,155,38	15593,191,38	15802,199,38	16018,143,38	
37,2,38	145,6,38	253,10,38	361,14,38	469,18,38	2266,70,38	2587,186,38	2767,50,38	3082,43,38	3130,150,38	4984,98,38	5022,90,38	5128,174,38	5173,198,38	5211,110,38	5332,130,38	5370,142,38	5884,182,38	6409,54,38	6466,58,38	6697,86,38	6735,106,38	6773,62,38	6871,31,38	7252,114,38	7462,126,38	7500,158,38	7538,170,38	7576,178,38	8581,102,38	8650,146,38	8749,162,38	8787,166,38	9184,194,38	9241,22,38	9279,27,38	9317,32,38	9355,40,38	9393,46,38	9431,66,38	9652,74,38	9718,78,38	9763,94,38	10009,118,38	10047,122,38	10117,134,38	10155,138,38	10264,154,38	10567,190,38	10876,82,38	
0,0,1	1,13,38	39,1,38	77,17,38	115,5,38	153,9,38	352,68,38	3310,140,38	3463,160,38	3501,188,38	3556,23,38	3622,104,38	3660,108,38	3949,30,38	6901,176,38	7099,80,38	7486,128,38	7524,136,38	7900,36,38	8392,112,38	8430,168,38	8468,48,38	8566,56,38	8713,132,38	8758,116,38	8863,52,38	9148,76,38	9577,88,38	9652,92,38	9697,96,38	9769,100,38	9829,21,38	10063,37,38	10213,120,38	10261,144,38	10299,156,38	10337,196,38	11110,60,38	11148,64,38	11186,72,38	11245,84,38	11329,124,38	11367,148,38	11405,164,38	11443,172,38	11481,180,38	11519,184,38	11557,200,38	19897,152,38	20572,192,38	20824,201,1	
# Incoming
73,(0, 4),36	109,(2, 33),21	130,(2, 35),3	133,(3, 25),3	136,(3, 42),18	181,(0, 8),36	217,(3, 49),3	220,(3, 53),3	223,(3, 65),18	241,(3, 69),42	289,(0, 12),36	325,(3, 105),3	328,(3, 109),3	331,(2, 73),3	334,(2, 77),18	352,(3, 117),3	355,(3, 189),3	358,(2, 105),3	361,(2, 109),3	370,(2, 125),6	376,(3, 121),15	391,(7, 101),3	394,(7, 117),3	397,(0, 16),36	433,(3, 177),36	505,(0, 20),36	541,(13, 25),3	553,(13, 39),3	556,(13, 42),42	598,(2, 117),36	634,(2, 177),3	637,(7, 137),6	643,(2, 189),12	655,(6, 53),3	658,(13, 61),12	670,(6, 73),9	679,(6, 97),9	688,(6, 157),3	691,(13, 65),27	721,(13, 85),18	739,(13, 97),21	760,(13, 101),21	781,(13, 105),15	796,(2, 133),30	826,(7, 141),3	829,(7, 185),9	838,(11, 73),6	844,(11, 77),3	847,(13, 113),3	853,(13, 121),3	856,(11, 89),3	859,(13, 137),24	883,(7, 53),27	910,(11, 117),3	913,(11, 153),3	916,(11, 173),3	919,(13, 149),33	952,(3, 97),93	1081,(6, 25),39	1120,(6, 33),60	1180,(6, 105),6	1186,(6, 161),3	1189,(6, 177),3	1192,(10, 25),3	1195,(10, 39),3	1198,(10, 42),12	1210,(10, 81),12	1222,(10, 101),3	1225,(10, 105),9	1234,(10, 117),3	1237,(10, 137),3	1240,(14, 53),3	1243,(14, 57),3	1246,(3, 153),102	1348,(6, 57),93	1441,(10, 77),63	1504,(10, 113),120	1624,(14, 97),12	1636,(14, 105),3	1639,(3, 169),81	1720,(10, 141),165	1885,(10, 165),30	1915,(10, 193),30	1945,(14, 73),33	1978,(14, 117),21	1999,(14, 121),39	2038,(14, 129),27	2065,(14, 145),3	2068,(14, 173),3	2071,(14, 177),48	2119,(14, 185),3	2122,(14, 189),129	2251,(18, 28),15	2266,(7, 33),39	2305,(11, 133),12	2317,(15, 137),3	2320,(13, 181),15	2335,(7, 42),42	2377,(15, 65),6	2506,(1, 28),3	2584,(1, 45),3	2590,(1, 57),3	2599,(1, 69),12	2611,(1, 77),3	2680,(1, 93),3	2689,(7, 173),30	2719,(15, 28),9	2728,(15, 169),3	2731,(1, 113),81	2812,(11, 39),21	2833,(19, 28),3	2836,(1, 117),291	3127,(1, 121),3	3130,(7, 61),507	3637,(7, 169),60	3697,(7, 197),66	3943,(1, 145),9	4111,(1, 133),15	4126,(11, 149),15	4141,(15, 49),12	4153,(1, 149),6	4159,(11, 157),27	4186,(11, 193),72	4258,(15, 61),9	4267,(15, 185),9	4276,(19, 39),9	4285,(19, 61),3	4288,(1, 157),9	4351,(1, 177),33	4384,(3, 77),2337	6721,(17, 42),87	6808,(17, 45),27	6835,(17, 85),3	6838,(17, 101),69	6907,(17, 133),3	6910,(17, 141),42	6952,(17, 161),81	7033,(17, 177),3	7036,(17, 185),39	7075,(5, 28),303	7378,(5, 33),45	7423,(5, 35),6	7429,(5, 65),408	7837,(6, 145),567	8404,(15, 89),33	8437,(15, 165),39	8476,(19, 25),21	8497,(19, 69),3	8500,(19, 173),3	8503,(5, 69),3	8506,(5, 77),27	8533,(5, 97),6	8539,(5, 101),18	8557,(19, 53),18	8575,(19, 181),3	8581,(5, 105),30	8611,(5, 125),12	8623,(5, 129),3	8632,(5, 145),15	8647,(19, 45),27	8674,(19, 81),12	8686,(19, 85),24	8749,(5, 165),21	8770,(19, 101),15	8785,(5, 169),12	8797,(5, 177),63	8860,(5, 181),3	8863,(5, 193),315	9187,(18, 42),21	9208,(18, 69),3	9313,(9, 61),15	9328,(9, 65),3	9349,(9, 69),93	9652,(9, 77),3	9742,(9, 85),18	9763,(9, 109),3	9766,(9, 117),102	10018,(9, 125),33	10051,(9, 129),27	10123,(9, 149),3	10213,(19, 133),39	10264,(9, 161),102	10366,(19, 153),27	10393,(19, 165),15	10567,(9, 197),9	10576,(7, 35),945	15007,(14, 193),66	15088,(18, 49),99	15187,(18, 77),21	15208,(18, 81),6	15217,(18, 113),3	15235,(18, 121),3	15448,(18, 137),63	15526,(18, 177),24	15550,(18, 185),3	15553,(18, 189),3	15586,(18, 197),72	
37,(0, 3),36	75,(2, 26),3	78,(2, 38),3	81,(2, 47),9	90,(2, 111),3	93,(2, 119),6	99,(2, 147),3	102,(2, 155),3	105,(2, 159),3	145,(0, 7),36	253,(0, 11),36	361,(0, 15),36	397,(2, 103),24	421,(4, 34),3	424,(4, 44),12	436,(4, 55),9	445,(4, 71),6	451,(4, 79),3	454,(4, 99),9	463,(4, 135),3	466,(8, 175),3	469,(0, 19),36	505,(4, 131),27	532,(4, 159),6	538,(8, 55),6	544,(13, 26),9	553,(4, 139),27	580,(8, 79),6	586,(12, 38),9	595,(6, 87),3	598,(13, 44),6	604,(13, 51),42	646,(12, 107),3	649,(12, 111),3	652,(12, 139),3	655,(13, 55),3	658,(2, 183),12	670,(12, 179),3	673,(16, 41),3	676,(13, 63),15	691,(2, 115),57	748,(4, 47),48	796,(16, 47),3	808,(4, 163),36	844,(16, 91),6	850,(13, 119),3	853,(4, 199),51	904,(16, 135),6	910,(16, 139),3	913,(13, 147),6	952,(13, 155),6	958,(13, 159),1320	2278,(13, 167),3	2281,(2, 151),60	2341,(6, 26),12	2353,(6, 91),3	2356,(6, 143),6	2362,(13, 195),3	2365,(2, 51),1587	3952,(1, 26),39	3991,(1, 41),9	4000,(1, 44),3	4003,(1, 71),39	4042,(1, 75),42	4084,(1, 99),24	4108,(1, 127),3	4111,(4, 38),105	4216,(4, 91),81	4297,(1, 171),54	4351,(4, 151),90	4441,(8, 59),27	4468,(8, 83),27	4495,(16, 163),6	4501,(20, 38),3	4504,(1, 191),12	4516,(1, 195),6	4522,(1, 199),3	4525,(20, 47),3	4528,(20, 155),3	4531,(17, 41),12	4543,(8, 115),12	4555,(20, 163),3	4558,(17, 55),3	4561,(17, 71),12	4573,(17, 75),30	4603,(17, 79),3	4612,(17, 87),45	4663,(17, 103),516	5179,(17, 107),24	5203,(8, 163),42	5245,(17, 115),9	5254,(17, 127),57	5311,(8, 195),30	5341,(16, 179),9	5350,(17, 143),42	5392,(17, 147),33	5425,(8, 71),51	5476,(12, 51),15	5491,(12, 59),18	5509,(17, 155),12	5521,(17, 159),6	5527,(4, 167),126	5653,(16, 55),15	5668,(17, 179),24	5692,(12, 47),42	5734,(12, 95),24	5758,(12, 103),60	5818,(12, 183),18	5836,(20, 63),15	5851,(20, 71),9	5860,(20, 79),18	5884,(17, 187),3	5887,(16, 51),63	5950,(20, 87),9	5959,(20, 95),36	6001,(5, 34),177	6178,(12, 119),204	6382,(12, 195),192	6574,(16, 195),84	6664,(5, 79),18	6682,(20, 115),9	6697,(5, 99),3	6700,(5, 103),3	6706,(5, 115),3	6709,(16, 63),93	6802,(20, 119),48	6874,(6, 34),21	6895,(6, 59),15	6910,(16, 159),111	7096,(6, 155),12	7108,(8, 123),534	7642,(10, 24),3	7645,(10, 29),3	7648,(10, 51),3	7651,(10, 67),60	7711,(10, 83),3	7714,(10, 95),3	7717,(10, 103),3	7720,(10, 115),6	7726,(10, 171),3	7786,(14, 24),6	7792,(14, 41),3	7795,(14, 44),3	7798,(14, 63),18	7816,(14, 91),3	7819,(14, 135),3	7822,(14, 147),3	7825,(14, 151),12	7837,(16, 175),129	7966,(16, 187),204	8170,(20, 107),90	8317,(5, 67),186	8503,(20, 131),78	8626,(5, 139),3	8629,(5, 143),3	8650,(5, 151),66	8716,(14, 83),48	8776,(5, 167),9	8785,(14, 59),96	9175,(14, 167),3	9184,(5, 195),3	9187,(5, 199),24	9211,(6, 151),1833	11044,(9, 24),27	11071,(9, 34),6	11077,(9, 41),9	11086,(9, 51),3	11089,(9, 55),12	11101,(9, 63),6	11107,(9, 79),3	11110,(9, 107),27	11137,(9, 115),6	11143,(9, 119),39	11182,(9, 131),21	11203,(9, 143),3	11206,(9, 151),117	11323,(9, 159),15	11338,(9, 163),15	11353,(9, 171),3	11356,(9, 179),45	11401,(9, 187),3	11404,(10, 87),1188	12592,(14, 99),30	12622,(14, 127),78	12700,(14, 159),63	12763,(14, 171),21	12784,(14, 175),36	12820,(14, 183),2187	15073,(14, 199),6	15079,(18, 26),9	15214,(18, 87),3	15220,(18, 115),15	15238,(18, 123),33	15271,(18, 127),3	15274,(18, 135),174	15511,(18, 143),3	15514,(18, 151),3	15517,(18, 155),9	15556,(18, 191),30	15658,(18, 199),144	15802,(20, 143),216	
1,(0, 2),36	109,(0, 6),36	154,(3, 46),39	193,(3, 90),3	196,(3, 102),3	199,(3, 126),15	214,(3, 138),3	217,(0, 10),36	283,(3, 70),36	319,(7, 62),3	322,(7, 86),3	325,(0, 14),36	361,(3, 142),12	373,(4, 27),3	376,(4, 31),12	388,(4, 66),24	412,(4, 102),3	415,(4, 114),3	418,(7, 118),9	427,(7, 138),6	433,(0, 18),36	469,(3, 118),78	547,(3, 150),30	577,(3, 194),18	595,(4, 98),9	604,(4, 146),6	610,(4, 186),3	613,(8, 126),3	616,(7, 174),3	619,(11, 82),3	622,(4, 70),24	646,(13, 54),9	655,(4, 162),9	664,(8, 43),6	670,(13, 62),6	676,(4, 62),39	715,(8, 182),3	718,(13, 74),3	721,(4, 170),24	745,(12, 22),3	796,(13, 106),36	832,(13, 110),15	847,(7, 158),9	856,(13, 130),3	859,(7, 134),15	874,(11, 90),9	883,(13, 142),30	913,(4, 134),93	1006,(8, 40),24	1030,(8, 90),9	1039,(12, 27),6	1045,(3, 130),57	1102,(4, 182),165	1267,(4, 194),84	1351,(4, 198),186	1537,(8, 46),333	1870,(8, 58),90	1960,(8, 66),21	1981,(8, 134),9	1990,(8, 150),21	2011,(8, 186),24	2035,(12, 31),63	2098,(12, 32),3	2101,(12, 50),159	2260,(12, 54),3	2263,(12, 70),3	2281,(13, 178),39	2320,(7, 190),15	2335,(13, 190),27	2365,(13, 198),39	2404,(1, 22),102	2506,(12, 86),3	2509,(1, 31),57	2566,(1, 32),15	2581,(1, 40),3	2584,(12, 186),3	2587,(1, 50),3	2590,(16, 50),3	2593,(1, 66),6	2599,(12, 90),12	2611,(16, 78),3	2614,(1, 78),66	2680,(16, 90),3	2683,(1, 98),39	2722,(1, 110),9	2731,(7, 50),36	2767,(11, 22),36	2803,(11, 98),3	2806,(11, 106),6	2812,(1, 114),24	2836,(7, 54),129	2965,(7, 98),93	3058,(11, 150),15	3073,(11, 198),6	3079,(15, 43),3	3082,(12, 82),18	3100,(12, 106),9	3109,(12, 130),12	3121,(12, 150),9	3130,(1, 122),813	3943,(16, 46),6	3949,(11, 58),126	4075,(11, 62),30	4105,(11, 162),15	4120,(15, 58),3	4123,(15, 174),3	4126,(1, 142),27	4153,(15, 134),6	4159,(1, 154),129	4288,(11, 142),33	4321,(11, 174),27	4348,(15, 40),12	4360,(15, 118),18	4378,(19, 27),3	4381,(19, 62),3	4384,(1, 178),120	4504,(12, 178),21	4525,(17, 22),3	4528,(17, 40),3	4531,(16, 126),12	4543,(17, 46),15	4558,(12, 126),27	4585,(16, 138),12	4597,(16, 162),3	4600,(16, 194),3	4603,(20, 27),3	4606,(17, 82),6	4612,(16, 142),27	4639,(16, 178),9	4648,(20, 31),6	4654,(20, 66),3	4657,(17, 90),6	4663,(16, 94),240	4903,(16, 98),81	4984,(20, 78),30	5014,(20, 90),3	5017,(20, 94),15	5032,(20, 114),3	5035,(20, 118),3	5038,(20, 122),24	5062,(20, 174),66	5128,(20, 178),42	5170,(20, 198),3	5203,(17, 110),6	5209,(17, 114),36	5311,(17, 130),21	5332,(17, 142),18	5425,(17, 154),84	5527,(17, 178),141	5692,(17, 182),192	5887,(17, 190),9	5896,(5, 22),99	5995,(5, 27),6	6178,(5, 54),231	6409,(5, 58),57	6466,(5, 62),195	6661,(5, 74),3	6682,(5, 86),15	6703,(5, 106),3	6709,(5, 122),3	6712,(5, 134),3	6715,(5, 138),6	6721,(15, 62),45	6766,(15, 78),48	6814,(15, 126),21	6835,(15, 166),9	6844,(15, 170),21	6865,(19, 31),6	6871,(19, 194),3	6901,(11, 190),177	7078,(19, 22),15	7099,(15, 94),84	7183,(15, 114),69	7252,(19, 32),141	7393,(19, 40),6	7399,(19, 78),54	7453,(19, 126),9	7462,(19, 138),9	7471,(19, 158),9	7480,(19, 170),6	7486,(19, 178),87	7837,(5, 66),480	8557,(5, 102),24	8647,(5, 146),3	8716,(5, 154),30	8746,(5, 162),3	8770,(5, 166),6	8776,(16, 154),300	9178,(5, 194),6	9211,(9, 22),30	9241,(9, 27),6	9247,(9, 32),24	9271,(9, 40),39	9310,(9, 46),3	9331,(9, 66),18	9442,(9, 74),210	9655,(9, 78),63	9718,(9, 82),24	9760,(9, 94),3	9868,(9, 118),141	10009,(9, 122),9	10078,(9, 134),39	10117,(9, 138),6	10126,(9, 154),138	10366,(9, 190),201	10567,(20, 82),309	
133,(2, 36),189	322,(2, 52),6	328,(2, 60),3	331,(3, 30),12	343,(3, 60),3	346,(3, 148),3	349,(7, 68),3	352,(2, 80),3	355,(2, 84),3	358,(4, 21),6	364,(2, 120),3	367,(2, 124),3	370,(4, 23),3	373,(7, 160),3	376,(2, 128),6	382,(2, 144),9	391,(2, 176),6	397,(3, 52),12	409,(3, 120),9	418,(4, 88),3	421,(2, 104),60	481,(2, 132),27	508,(2, 136),87	595,(3, 56),21	616,(4, 56),6	622,(7, 64),9	631,(7, 176),3	634,(7, 184),3	637,(2, 184),6	643,(3, 64),129	772,(3, 124),27	799,(4, 100),3	802,(4, 144),3	805,(4, 152),3	808,(7, 112),15	823,(11, 136),3	826,(2, 140),66	892,(2, 180),81	973,(2, 188),108	1081,(8, 30),21	1102,(3, 132),144	1246,(6, 30),9	1255,(6, 37),39	1294,(6, 56),3	1297,(6, 72),27	1324,(6, 116),3	1327,(6, 148),15	1342,(6, 156),3	1345,(10, 48),3	1348,(3, 160),291	1639,(6, 152),36	1675,(6, 180),33	1708,(10, 56),3	1711,(10, 80),9	1720,(3, 192),546	2266,(4, 200),117	2383,(7, 104),219	2602,(7, 128),12	2614,(7, 132),15	2629,(7, 140),33	2662,(7, 156),27	2689,(8, 52),3	2692,(8, 60),15	2707,(8, 84),9	2716,(8, 116),3	2719,(8, 124),3	2722,(8, 148),12	2734,(8, 156),27	2761,(8, 164),225	2986,(8, 176),12	2998,(8, 184),3	3001,(8, 196),81	3082,(11, 52),9	3091,(11, 56),21	3112,(11, 72),6	3118,(11, 84),9	3127,(11, 140),3	3130,(12, 37),3	3133,(12, 48),3	3136,(12, 72),6	3142,(12, 76),54	3196,(12, 84),12	3208,(12, 100),3	3211,(12, 112),93	3304,(12, 140),6	3310,(12, 164),57	3367,(12, 172),9	3376,(12, 176),3	3379,(12, 180),3	3382,(12, 192),3	3385,(16, 21),15	3400,(16, 37),6	3406,(16, 48),3	3409,(16, 88),9	3418,(16, 96),3	3421,(16, 136),3	3424,(16, 152),21	3445,(16, 160),18	3463,(16, 168),3	3466,(16, 176),3	3469,(16, 180),6	3475,(16, 188),3	3478,(16, 200),18	3496,(20, 21),3	3499,(20, 23),57	3556,(20, 36),21	3577,(20, 48),3	3580,(20, 72),3	3583,(20, 92),6	3589,(20, 96),30	3619,(20, 104),3	3622,(20, 108),24	3646,(20, 144),6	3652,(20, 152),6	3658,(20, 164),33	3691,(20, 180),15	3706,(20, 184),27	3733,(20, 192),6	3739,(73, 201),3	3742,(57, 201),3	3745,(93, 201),3	3763,(11, 30),186	3952,(2, 192),2922	6874,(11, 64),24	6898,(11, 176),3	6901,(39, 201),3	6904,(157, 201),3	6910,(6, 100),186	7096,(15, 80),3	7099,(141, 201),3	7108,(10, 36),54	7162,(10, 84),18	7180,(10, 92),33	7213,(10, 100),90	7303,(10, 120),150	7453,(10, 128),33	7486,(10, 136),12	7498,(10, 144),3	7501,(10, 164),117	7618,(10, 184),3	7621,(11, 48),90	7711,(11, 192),15	7726,(15, 164),3	7729,(10, 200),57	7786,(11, 36),114	7900,(11, 132),486	8386,(15, 112),6	8392,(15, 168),3	8395,(19, 48),3	8398,(19, 96),3	8401,(19, 180),3	8404,(14, 21),15	8419,(14, 48),3	8422,(14, 56),144	8566,(14, 60),138	8704,(14, 92),6	8710,(14, 132),3	8713,(14, 152),3	8716,(15, 60),33	8749,(19, 116),9	8758,(111, 201),3	8761,(38, 201),3	8764,(14, 84),21	8785,(15, 52),78	8863,(15, 120),18	8881,(14, 76),267	9148,(14, 96),12	9160,(14, 100),9	9169,(14, 156),6	9175,(75, 201),3	9178,(14, 180),9	9187,(15, 64),312	9499,(15, 72),51	9550,(15, 88),27	9577,(15, 92),75	9652,(15, 96),45	9697,(15, 100),72	9769,(15, 192),33	9802,(19, 21),27	9829,(19, 37),234	10063,(19, 64),108	10171,(19, 120),42	10213,(28, 201),3	10216,(33, 201),3	10219,(89, 201),3	10222,(25, 201),3	10225,(173, 201),3	10228,(97, 201),3	10231,(53, 201),3	10234,(105, 201),3	10237,(145, 201),3	10240,(45, 201),3	10243,(101, 201),3	10246,(169, 201),3	10249,(181, 201),3	10252,(19, 144),9	10261,(19, 156),36	10297,(19, 196),18	10315,(47, 201),3	10318,(71, 201),3	10321,(29, 201),3	10324,(95, 201),3	10327,(103, 201),3	10330,(44, 201),3	10333,(91, 201),3	10336,(147, 201),3	10339,(67, 201),3	10342,(139, 201),3	10345,(83, 201),3	10348,(59, 201),3	10351,(167, 201),3	10354,(42, 201),3	10357,(195, 201),3	10360,(61, 201),3	10363,(65, 201),3	10366,(69, 201),3	10369,(85, 201),3	10372,(109, 201),3	10375,(117, 201),3	10378,(125, 201),3	10381,(129, 201),3	10384,(149, 201),3	10387,(133, 201),3	10404,(161, 201),3	10442,(153, 201),3	10480,(165, 201),3	11044,(14, 184),57	11101,(18, 60),9	11110,(18, 64),6	11116,(18, 72),36	11152,(18, 84),93	11245,(18, 124),84	11329,(18, 148),15	11344,(18, 152),15	11359,(18, 164),12	11371,(18, 172),3	11374,(18, 180),15	11389,(18, 184),3	11392,(18, 200),6	11398,(70, 201),3	11401,(186, 201),3	11521,(11, 152),8376	19897,(14, 192),675	20572,(50, 201),3	20575,(43, 201),3	20578,(150, 201),3	20581,(98, 201),3	20584,(90, 201),3	20587,(174, 201),3	20590,(198, 201),3	20593,(110, 201),3	20596,(130, 201),3	20599,(142, 201),3	20602,(182, 201),3	20605,(54, 201),3	20608,(58, 201),3	20611,(86, 201),3	20614,(106, 201),3	20617,(62, 201),3	20620,(31, 201),3	20623,(114, 201),3	20626,(126, 201),3	20629,(158, 201),3	20632,(170, 201),3	20635,(178, 201),3	20638,(102, 201),3	20641,(146, 201),3	20644,(162, 201),3	20647,(166, 201),3	20650,(194, 201),3	20653,(22, 201),3	20656,(27, 201),3	20659,(32, 201),3	20662,(40, 201),3	20665,(46, 201),3	20668,(66, 201),3	20671,(74, 201),3	20674,(78, 201),3	20677,(94, 201),3	20680,(118, 201),3	20683,(122, 201),3	20686,(134, 201),3	20689,(138, 201),3	20692,(154, 201),3	20695,(190, 201),3	20698,(82, 201),3	20701,(24, 201),3	20704,(34, 201),3	20707,(41, 201),3	20710,(51, 201),3	20713,(55, 201),3	20716,(63, 201),3	20719,(79, 201),3	20722,(107, 201),3	20725,(119, 201),3	20728,(131, 201),3	20731,(163, 201),3	20734,(179, 201),3	20737,(35, 201),3	20740,(187, 201),3	20743,(99, 201),3	20746,(159, 201),3	20749,(171, 201),3	20752,(175, 201),3	20755,(183, 201),3	20758,(193, 201),3	20761,(26, 201),3	20764,(49, 201),3	20767,(87, 201),3	20770,(77, 201),3	20773,(115, 201),3	20776,(81, 201),3	20779,(123, 201),3	20782,(113, 201),3	20785,(127, 201),3	20788,(121, 201),3	20791,(135, 201),3	20794,(137, 201),3	20797,(151, 201),3	20800,(177, 201),3	20803,(155, 201),3	20806,(185, 201),3	20809,(191, 201),3	20812,(189, 201),3	20815,(197, 201),3	20818,(199, 201),3	20821,(143, 201),3	
# Outgoing
358,(4, 21),6	370,(4, 23),3	373,(4, 27),3	376,(4, 31),12	388,(4, 66),24	412,(4, 102),3	415,(4, 114),3	418,(4, 88),3	421,(4, 34),3	424,(4, 44),12	436,(4, 55),9	445,(4, 71),6	451,(4, 79),3	454,(4, 99),9	463,(4, 135),3	466,(8, 175),3	505,(4, 131),27	532,(4, 159),6	538,(8, 55),6	553,(4, 139),27	580,(8, 79),6	586,(12, 38),9	595,(4, 98),9	604,(4, 146),6	610,(4, 186),3	613,(8, 126),3	616,(4, 56),6	622,(4, 70),24	646,(12, 107),3	649,(12, 111),3	652,(12, 139),3	655,(4, 162),9	664,(8, 43),6	670,(12, 179),3	673,(16, 41),3	676,(4, 62),39	715,(8, 182),3	721,(4, 170),24	745,(12, 22),3	748,(4, 47),48	796,(16, 47),3	799,(4, 100),3	802,(4, 144),3	805,(4, 152),3	808,(4, 163),36	844,(16, 91),6	853,(4, 199),51	904,(16, 135),6	910,(16, 139),3	913,(4, 134),93	1006,(8, 40),24	1030,(8, 90),9	1039,(12, 27),6	1081,(8, 30),21	1102,(4, 182),165	1267,(4, 194),84	1351,(4, 198),186	1537,(8, 46),333	1870,(8, 58),90	1960,(8, 66),21	1981,(8, 134),9	1990,(8, 150),21	2011,(8, 186),24	2035,(12, 31),63	2098,(12, 32),3	2101,(12, 50),159	2260,(12, 54),3	2263,(12, 70),3	2266,(4, 200),117	2506,(12, 86),3	2584,(12, 186),3	2590,(16, 50),3	2599,(12, 90),12	2611,(16, 78),3	2680,(16, 90),3	2689,(8, 52),3	2692,(8, 60),15	2707,(8, 84),9	2716,(8, 116),3	2719,(8, 124),3	2722,(8, 148),12	2734,(8, 156),27	2761,(8, 164),225	2986,(8, 176),12	2998,(8, 184),3	3001,(8, 196),81	3082,(12, 82),18	3100,(12, 106),9	3109,(12, 130),12	3121,(12, 150),9	3130,(12, 37),3	3133,(12, 48),3	3136,(12, 72),6	3142,(12, 76),54	3196,(12, 84),12	3208,(12, 100),3	3211,(12, 112),93	3304,(12, 140),6	3310,(12, 164),57	3367,(12, 172),9	3376,(12, 176),3	3379,(12, 180),3	3382,(12, 192),3	3385,(16, 21),15	3400,(16, 37),6	3406,(16, 48),3	3409,(16, 88),9	3418,(16, 96),3	3421,(16, 136),3	3424,(16, 152),21	3445,(16, 160),18	3463,(16, 168),3	3466,(16, 176),3	3469,(16, 180),6	3475,(16, 188),3	3478,(16, 200),18	3496,(20, 21),3	3499,(20, 23),57	3556,(20, 36),21	3577,(20, 48),3	3580,(20, 72),3	3583,(20, 92),6	3589,(20, 96),30	3619,(20, 104),3	3622,(20, 108),24	3646,(20, 144),6	3652,(20, 152),6	3658,(20, 164),33	3691,(20, 180),15	3706,(20, 184),27	3733,(20, 192),6	3739,(73, 201),3	3742,(57, 201),3	3745,(93, 201),3	3943,(16, 46),6	4111,(4, 38),105	4216,(4, 91),81	4351,(4, 151),90	4441,(8, 59),27	4468,(8, 83),27	4495,(16, 163),6	4501,(20, 38),3	4504,(12, 178),21	4525,(20, 47),3	4528,(20, 155),3	4531,(16, 126),12	4543,(8, 115),12	4555,(20, 163),3	4558,(12, 126),27	4585,(16, 138),12	4597,(16, 162),3	4600,(16, 194),3	4603,(20, 27),3	4612,(16, 142),27	4639,(16, 178),9	4648,(20, 31),6	4654,(20, 66),3	4663,(16, 94),240	4903,(16, 98),81	4984,(20, 78),30	5014,(20, 90),3	5017,(20, 94),15	5032,(20, 114),3	5035,(20, 118),3	5038,(20, 122),24	5062,(20, 174),66	5128,(20, 178),42	5170,(20, 198),3	5203,(8, 163),42	5311,(8, 195),30	5341,(16, 179),9	5425,(8, 71),51	5476,(12, 51),15	5491,(12, 59),18	5527,(4, 167),126	5653,(16, 55),15	5692,(12, 47),42	5734,(12, 95),24	5758,(12, 103),60	5818,(12, 183),18	5836,(20, 63),15	5851,(20, 71),9	5860,(20, 79),18	5887,(16, 51),63	5950,(20, 87),9	5959,(20, 95),36	6178,(12, 119),204	6382,(12, 195),192	6574,(16, 195),84	6682,(20, 115),9	6709,(16, 63),93	6802,(20, 119),48	6901,(39, 201),3	6904,(157, 201),3	6910,(16, 159),111	7099,(141, 201),3	7108,(8, 123),534	7837,(16, 175),129	7966,(16, 187),204	8170,(20, 107),90	8503,(20, 131),78	8776,(16, 154),300	10213,(28, 201),3	10216,(33, 201),3	10219,(89, 201),3	10222,(25, 201),3	10225,(173, 201),3	10228,(97, 201),3	10231,(53, 201),3	10234,(105, 201),3	10237,(145, 201),3	10240,(45, 201),3	10243,(101, 201),3	10246,(169, 201),3	10249,(181, 201),3	10354,(42, 201),3	10360,(61, 201),3	10363,(65, 201),3	10366,(69, 201),3	10369,(85, 201),3	10372,(109, 201),3	10375,(117, 201),3	10378,(125, 201),3	10381,(129, 201),3	10384,(149, 201),3	10387,(133, 201),3	10404,(161, 201),3	10442,(153, 201),3	10480,(165, 201),3	10567,(20, 82),309	15802,(20, 143),216	20737,(35, 201),3	20758,(193, 201),3	20764,(49, 201),3	20770,(77, 201),3	20776,(81, 201),3	20782,(113, 201),3	20788,(121, 201),3	20794,(137, 201),3	20800,(177, 201),3	20806,(185, 201),3	20812,(189, 201),3	20815,(197, 201),3	
133,(3, 25),3	136,(3, 42),18	154,(3, 46),39	193,(3, 90),3	196,(3, 102),3	199,(3, 126),15	214,(3, 138),3	217,(3, 49),3	220,(3, 53),3	223,(3, 65),18	241,(3, 69),42	283,(3, 70),36	319,(7, 62),3	322,(7, 86),3	325,(3, 105),3	328,(3, 109),3	331,(3, 30),12	343,(3, 60),3	346,(3, 148),3	349,(7, 68),3	352,(3, 117),3	355,(3, 189),3	361,(3, 142),12	373,(7, 160),3	376,(3, 121),15	391,(7, 101),3	394,(7, 117),3	397,(3, 52),12	409,(3, 120),9	418,(7, 118),9	427,(7, 138),6	433,(3, 177),36	469,(3, 118),78	547,(3, 150),30	577,(3, 194),18	595,(3, 56),21	616,(7, 174),3	619,(11, 82),3	622,(7, 64),9	631,(7, 176),3	634,(7, 184),3	637,(7, 137),6	643,(3, 64),129	772,(3, 124),27	808,(7, 112),15	823,(11, 136),3	826,(7, 141),3	829,(7, 185),9	838,(11, 73),6	844,(11, 77),3	847,(7, 158),9	856,(11, 89),3	859,(7, 134),15	874,(11, 90),9	883,(7, 53),27	910,(11, 117),3	913,(11, 153),3	916,(11, 173),3	952,(3, 97),93	1045,(3, 130),57	1102,(3, 132),144	1246,(3, 153),102	1348,(3, 160),291	1639,(3, 169),81	1720,(3, 192),546	2266,(7, 33),39	2305,(11, 133),12	2317,(15, 137),3	2320,(7, 190),15	2335,(7, 42),42	2377,(15, 65),6	2383,(7, 104),219	2602,(7, 128),12	2614,(7, 132),15	2629,(7, 140),33	2662,(7, 156),27	2689,(7, 173),30	2719,(15, 28),9	2728,(15, 169),3	2731,(7, 50),36	2767,(11, 22),36	2803,(11, 98),3	2806,(11, 106),6	2812,(11, 39),21	2833,(19, 28),3	2836,(7, 54),129	2965,(7, 98),93	3058,(11, 150),15	3073,(11, 198),6	3079,(15, 43),3	3082,(11, 52),9	3091,(11, 56),21	3112,(11, 72),6	3118,(11, 84),9	3127,(11, 140),3	3130,(7, 61),507	3637,(7, 169),60	3697,(7, 197),66	3763,(11, 30),186	3949,(11, 58),126	4075,(11, 62),30	4105,(11, 162),15	4120,(15, 58),3	4123,(15, 174),3	4126,(11, 149),15	4141,(15, 49),12	4153,(15, 134),6	4159,(11, 157),27	4186,(11, 193),72	4258,(15, 61),9	4267,(15, 185),9	4276,(19, 39),9	4285,(19, 61),3	4288,(11, 142),33	4321,(11, 174),27	4348,(15, 40),12	4360,(15, 118),18	4378,(19, 27),3	4381,(19, 62),3	4384,(3, 77),2337	6721,(15, 62),45	6766,(15, 78),48	6814,(15, 126),21	6835,(15, 166),9	6844,(15, 170),21	6865,(19, 31),6	6871,(19, 194),3	6874,(11, 64),24	6898,(11, 176),3	6901,(11, 190),177	7078,(19, 22),15	7096,(15, 80),3	7099,(15, 94),84	7183,(15, 114),69	7252,(19, 32),141	7393,(19, 40),6	7399,(19, 78),54	7453,(19, 126),9	7462,(19, 138),9	7471,(19, 158),9	7480,(19, 170),6	7486,(19, 178),87	7621,(11, 48),90	7711,(11, 192),15	7726,(15, 164),3	7786,(11, 36),114	7900,(11, 132),486	8386,(15, 112),6	8392,(15, 168),3	8395,(19, 48),3	8398,(19, 96),3	8401,(19, 180),3	8404,(15, 89),33	8437,(15, 165),39	8476,(19, 25),21	8497,(19, 69),3	8500,(19, 173),3	8557,(19, 53),18	8575,(19, 181),3	8647,(19, 45),27	8674,(19, 81),12	8686,(19, 85),24	8716,(15, 60),33	8749,(19, 116),9	8758,(111, 201),3	8761,(38, 201),3	8770,(19, 101),15	8785,(15, 52),78	8863,(15, 120),18	9175,(75, 201),3	9187,(15, 64),312	9499,(15, 72),51	9550,(15, 88),27	9577,(15, 92),75	9652,(15, 96),45	9697,(15, 100),72	9769,(15, 192),33	9802,(19, 21),27	9829,(19, 37),234	10063,(19, 64),108	10171,(19, 120),42	10213,(19, 133),39	10252,(19, 144),9	10261,(19, 156),36	10297,(19, 196),18	10315,(47, 201),3	10318,(71, 201),3	10321,(29, 201),3	10324,(95, 201),3	10327,(103, 201),3	10330,(44, 201),3	10333,(91, 201),3	10336,(147, 201),3	10339,(67, 201),3	10342,(139, 201),3	10345,(83, 201),3	10348,(59, 201),3	10351,(167, 201),3	10357,(195, 201),3	10366,(19, 153),27	10393,(19, 165),15	10576,(7, 35),945	11521,(11, 152),8376	20701,(24, 201),3	20704,(34, 201),3	20707,(41, 201),3	20710,(51, 201),3	20713,(55, 201),3	20716,(63, 201),3	20719,(79, 201),3	20722,(107, 201),3	20725,(119, 201),3	20728,(131, 201),3	20731,(163, 201),3	20734,(179, 201),3	20740,(187, 201),3	20743,(99, 201),3	20746,(159, 201),3	20749,(171, 201),3	20752,(175, 201),3	20755,(183, 201),3	20761,(26, 201),3	20767,(87, 201),3	20773,(115, 201),3	20779,(123, 201),3	20785,(127, 201),3	20791,(135, 201),3	20797,(151, 201),3	20803,(155, 201),3	20809,(191, 201),3	20818,(199, 201),3	20821,(143, 201),3	
75,(2, 26),3	78,(2, 38),3	81,(2, 47),9	90,(2, 111),3	93,(2, 119),6	99,(2, 147),3	102,(2, 155),3	105,(2, 159),3	109,(2, 33),21	130,(2, 35),3	133,(2, 36),189	322,(2, 52),6	328,(2, 60),3	331,(2, 73),3	334,(2, 77),18	352,(2, 80),3	355,(2, 84),3	358,(2, 105),3	361,(2, 109),3	364,(2, 120),3	367,(2, 124),3	370,(2, 125),6	376,(2, 128),6	382,(2, 144),9	391,(2, 176),6	397,(2, 103),24	421,(2, 104),60	481,(2, 132),27	508,(2, 136),87	595,(6, 87),3	598,(2, 117),36	634,(2, 177),3	637,(2, 184),6	643,(2, 189),12	655,(6, 53),3	658,(2, 183),12	670,(6, 73),9	679,(6, 97),9	688,(6, 157),3	691,(2, 115),57	796,(2, 133),30	826,(2, 140),66	892,(2, 180),81	973,(2, 188),108	1081,(6, 25),39	1120,(6, 33),60	1180,(6, 105),6	1186,(6, 161),3	1189,(6, 177),3	1192,(10, 25),3	1195,(10, 39),3	1198,(10, 42),12	1210,(10, 81),12	1222,(10, 101),3	1225,(10, 105),9	1234,(10, 117),3	1237,(10, 137),3	1240,(14, 53),3	1243,(14, 57),3	1246,(6, 30),9	1255,(6, 37),39	1294,(6, 56),3	1297,(6, 72),27	1324,(6, 116),3	1327,(6, 148),15	1342,(6, 156),3	1345,(10, 48),3	1348,(6, 57),93	1441,(10, 77),63	1504,(10, 113),120	1624,(14, 97),12	1636,(14, 105),3	1639,(6, 152),36	1675,(6, 180),33	1708,(10, 56),3	1711,(10, 80),9	1720,(10, 141),165	1885,(10, 165),30	1915,(10, 193),30	1945,(14, 73),33	1978,(14, 117),21	1999,(14, 121),39	2038,(14, 129),27	2065,(14, 145),3	2068,(14, 173),3	2071,(14, 177),48	2119,(14, 185),3	2122,(14, 189),129	2251,(18, 28),15	2281,(2, 151),60	2341,(6, 26),12	2353,(6, 91),3	2356,(6, 143),6	2365,(2, 51),1587	3952,(2, 192),2922	6874,(6, 34),21	6895,(6, 59),15	6910,(6, 100),186	7096,(6, 155),12	7108,(10, 36),54	7162,(10, 84),18	7180,(10, 92),33	7213,(10, 100),90	7303,(10, 120),150	7453,(10, 128),33	7486,(10, 136),12	7498,(10, 144),3	7501,(10, 164),117	7618,(10, 184),3	7642,(10, 24),3	7645,(10, 29),3	7648,(10, 51),3	7651,(10, 67),60	7711,(10, 83),3	7714,(10, 95),3	7717,(10, 103),3	7720,(10, 115),6	7726,(10, 171),3	7729,(10, 200),57	7786,(14, 24),6	7792,(14, 41),3	7795,(14, 44),3	7798,(14, 63),18	7816,(14, 91),3	7819,(14, 135),3	7822,(14, 147),3	7825,(14, 151),12	7837,(6, 145),567	8404,(14, 21),15	8419,(14, 48),3	8422,(14, 56),144	8566,(14, 60),138	8704,(14, 92),6	8710,(14, 132),3	8713,(14, 152),3	8716,(14, 83),48	8764,(14, 84),21	8785,(14, 59),96	8881,(14, 76),267	9148,(14, 96),12	9160,(14, 100),9	9169,(14, 156),6	9175,(14, 167),3	9178,(14, 180),9	9187,(18, 42),21	9208,(18, 69),3	9211,(6, 151),1833	11044,(14, 184),57	11101,(18, 60),9	11110,(18, 64),6	11116,(18, 72),36	11152,(18, 84),93	11245,(18, 124),84	11329,(18, 148),15	11344,(18, 152),15	11359,(18, 164),12	11371,(18, 172),3	11374,(18, 180),15	11389,(18, 184),3	11392,(18, 200),6	11398,(70, 201),3	11401,(186, 201),3	11404,(10, 87),1188	12592,(14, 99),30	12622,(14, 127),78	12700,(14, 159),63	12763,(14, 171),21	12784,(14, 175),36	12820,(14, 183),2187	15007,(14, 193),66	15073,(14, 199),6	15079,(18, 26),9	15088,(18, 49),99	15187,(18, 77),21	15208,(18, 81),6	15214,(18, 87),3	15217,(18, 113),3	15220,(18, 115),15	15235,(18, 121),3	15238,(18, 123),33	15271,(18, 127),3	15274,(18, 135),174	15448,(18, 137),63	15511,(18, 143),3	15514,(18, 151),3	15517,(18, 155),9	15526,(18, 177),24	15550,(18, 185),3	15553,(18, 189),3	15556,(18, 191),30	15586,(18, 197),72	15658,(18, 199),144	19897,(14, 192),675	20572,(50, 201),3	20575,(43, 201),3	20578,(150, 201),3	20581,(98, 201),3	20584,(90, 201),3	20587,(174, 201),3	20590,(198, 201),3	20593,(110, 201),3	20596,(130, 201),3	20599,(142, 201),3	20602,(182, 201),3	20605,(54, 201),3	20608,(58, 201),3	20611,(86, 201),3	20614,(106, 201),3	20617,(62, 201),3	20620,(31, 201),3	20623,(114, 201),3	20626,(126, 201),3	20629,(158, 201),3	20632,(170, 201),3	20635,(178, 201),3	20638,(102, 201),3	20641,(146, 201),3	20644,(162, 201),3	20647,(166, 201),3	20650,(194, 201),3	20653,(22, 201),3	20656,(27, 201),3	20659,(32, 201),3	20662,(40, 201),3	20665,(46, 201),3	20668,(66, 201),3	20671,(74, 201),3	20674,(78, 201),3	20677,(94, 201),3	20680,(118, 201),3	20683,(122, 201),3	20686,(134, 201),3	20689,(138, 201),3	20692,(154, 201),3	20695,(190, 201),3	20698,(82, 201),3	
1,(0, 2),36	37,(0, 3),36	73,(0, 4),36	109,(0, 6),36	145,(0, 7),36	181,(0, 8),36	217,(0, 10),36	253,(0, 11),36	289,(0, 12),36	325,(0, 14),36	361,(0, 15),36	397,(0, 16),36	433,(0, 18),36	469,(0, 19),36	505,(0, 20),36	541,(13, 25),3	544,(13, 26),9	553,(13, 39),3	556,(13, 42),42	598,(13, 44),6	604,(13, 51),42	646,(13, 54),9	655,(13, 55),3	658,(13, 61),12	670,(13, 62),6	676,(13, 63),15	691,(13, 65),27	718,(13, 74),3	721,(13, 85),18	739,(13, 97),21	760,(13, 101),21	781,(13, 105),15	796,(13, 106),36	832,(13, 110),15	847,(13, 113),3	850,(13, 119),3	853,(13, 121),3	856,(13, 130),3	859,(13, 137),24	883,(13, 142),30	913,(13, 147),6	919,(13, 149),33	952,(13, 155),6	958,(13, 159),1320	2278,(13, 167),3	2281,(13, 178),39	2320,(13, 181),15	2335,(13, 190),27	2362,(13, 195),3	2365,(13, 198),39	2404,(1, 22),102	2506,(1, 28),3	2509,(1, 31),57	2566,(1, 32),15	2581,(1, 40),3	2584,(1, 45),3	2587,(1, 50),3	2590,(1, 57),3	2593,(1, 66),6	2599,(1, 69),12	2611,(1, 77),3	2614,(1, 78),66	2680,(1, 93),3	2683,(1, 98),39	2722,(1, 110),9	2731,(1, 113),81	2812,(1, 114),24	2836,(1, 117),291	3127,(1, 121),3	3130,(1, 122),813	3943,(1, 145),9	3952,(1, 26),39	3991,(1, 41),9	4000,(1, 44),3	4003,(1, 71),39	4042,(1, 75),42	4084,(1, 99),24	4108,(1, 127),3	4111,(1, 133),15	4126,(1, 142),27	4153,(1, 149),6	4159,(1, 154),129	4288,(1, 157),9	4297,(1, 171),54	4351,(1, 177),33	4384,(1, 178),120	4504,(1, 191),12	4516,(1, 195),6	4522,(1, 199),3	4525,(17, 22),3	4528,(17, 40),3	4531,(17, 41),12	4543,(17, 46),15	4558,(17, 55),3	4561,(17, 71),12	4573,(17, 75),30	4603,(17, 79),3	4606,(17, 82),6	4612,(17, 87),45	4657,(17, 90),6	4663,(17, 103),516	5179,(17, 107),24	5203,(17, 110),6	5209,(17, 114),36	5245,(17, 115),9	5254,(17, 127),57	5311,(17, 130),21	5332,(17, 142),18	5350,(17, 143),42	5392,(17, 147),33	5425,(17, 154),84	5509,(17, 155),12	5521,(17, 159),6	5527,(17, 178),141	5668,(17, 179),24	5692,(17, 182),192	5884,(17, 187),3	5887,(17, 190),9	5896,(5, 22),99	5995,(5, 27),6	6001,(5, 34),177	6178,(5, 54),231	6409,(5, 58),57	6466,(5, 62),195	6661,(5, 74),3	6664,(5, 79),18	6682,(5, 86),15	6697,(5, 99),3	6700,(5, 103),3	6703,(5, 106),3	6706,(5, 115),3	6709,(5, 122),3	6712,(5, 134),3	6715,(5, 138),6	6721,(17, 42),87	6808,(17, 45),27	6835,(17, 85),3	6838,(17, 101),69	6907,(17, 133),3	6910,(17, 141),42	6952,(17, 161),81	7033,(17, 177),3	7036,(17, 185),39	7075,(5, 28),303	7378,(5, 33),45	7423,(5, 35),6	7429,(5, 65),408	7837,(5, 66),480	8317,(5, 67),186	8503,(5, 69),3	8506,(5, 77),27	8533,(5, 97),6	8539,(5, 101),18	8557,(5, 102),24	8581,(5, 105),30	8611,(5, 125),12	8623,(5, 129),3	8626,(5, 139),3	8629,(5, 143),3	8632,(5, 145),15	8647,(5, 146),3	8650,(5, 151),66	8716,(5, 154),30	8746,(5, 162),3	8749,(5, 165),21	8770,(5, 166),6	8776,(5, 167),9	8785,(5, 169),12	8797,(5, 177),63	8860,(5, 181),3	8863,(5, 193),315	9178,(5, 194),6	9184,(5, 195),3	9187,(5, 199),24	9211,(9, 22),30	9241,(9, 27),6	9247,(9, 32),24	9271,(9, 40),39	9310,(9, 46),3	9313,(9, 61),15	9328,(9, 65),3	9331,(9, 66),18	9349,(9, 69),93	9442,(9, 74),210	9652,(9, 77),3	9655,(9, 78),63	9718,(9, 82),24	9742,(9, 85),18	9760,(9, 94),3	9763,(9, 109),3	9766,(9, 117),102	9868,(9, 118),141	10009,(9, 122),9	10018,(9, 125),33	10051,(9, 129),27	10078,(9, 134),39	10117,(9, 138),6	10123,(9, 149),3	10126,(9, 154),138	10264,(9, 161),102	10366,(9, 190),201	10567,(9, 197),9	11044,(9, 24),27	11071,(9, 34),6	11077,(9, 41),9	11086,(9, 51),3	11089,(9, 55),12	11101,(9, 63),6	11107,(9, 79),3	11110,(9, 107),27	11137,(9, 115),6	11143,(9, 119),39	11182,(9, 131),21	11203,(9, 143),3	11206,(9, 151),117	11323,(9, 159),15	11338,(9, 163),15	11353,(9, 171),3	11356,(9, 179),45	11401,(9, 187),3	
