2213
# CPU
0,0,1	1,5,18	19,10,18	37,8,18	55,19,18	73,20,18	91,50,18	109,47,18	127,23,18	145,179,18	163,115,18	181,116,18	199,144,18	217,63,18	235,171,18	253,67,18	271,154,18	289,149,18	307,69,18	325,55,18	343,96,18	361,117,18	379,160,18	397,106,18	415,72,18	433,30,18	451,43,18	469,183,18	487,119,18	505,189,18	523,147,18	541,199,18	559,32,18	577,90,18	595,155,18	613,163,18	631,44,18	649,177,18	667,42,18	714,107,18	751,93,18	769,98,18	787,192,18	833,79,18	851,51,18	869,131,18	887,173,18	905,175,18	923,176,18	941,190,18	959,194,18	2212,201,1	
6,6,18	24,11,18	42,12,18	60,13,18	78,14,18	96,132,18	114,25,18	132,76,18	150,167,18	168,54,18	186,197,18	204,178,18	222,58,18	240,142,18	258,150,18	276,33,18	294,170,18	312,129,18	330,145,18	348,104,18	366,118,18	384,68,18	402,26,18	420,64,18	438,135,18	456,21,18	474,191,18	492,97,18	510,83,18	528,130,18	546,186,18	564,128,18	582,101,18	600,60,18	618,124,18	636,146,18	654,195,18	672,103,18	690,168,18	708,196,18	726,165,18	744,169,18	762,187,18	780,36,18	798,53,18	816,77,18	834,138,18	852,29,18	870,66,18	888,139,18	
2,1,18	20,4,18	38,9,18	56,15,18	74,18,18	92,164,18	110,100,18	128,89,18	146,153,18	164,125,18	182,108,18	200,73,18	218,61,18	236,31,18	254,34,18	272,45,18	290,188,18	308,122,18	326,82,18	344,81,18	362,114,18	380,62,18	398,46,18	416,35,18	434,111,18	452,162,18	470,127,18	488,59,18	506,174,18	524,22,18	542,123,18	560,152,18	578,88,18	596,126,18	614,57,18	632,94,18	650,193,18	668,198,18	686,140,18	704,52,18	722,151,18	740,70,18	758,184,18	776,120,18	794,143,18	812,182,18	830,40,18	848,84,18	866,134,18	884,148,18	
3,2,18	21,3,18	39,7,18	57,16,18	75,17,18	93,85,18	111,200,18	129,48,18	147,38,18	165,112,18	183,109,18	201,137,18	219,136,18	237,99,18	255,95,18	273,159,18	291,39,18	309,37,18	327,185,18	345,157,18	363,110,18	381,91,18	399,87,18	417,161,18	435,121,18	453,78,18	471,75,18	489,74,18	507,92,18	525,181,18	543,27,18	561,24,18	579,80,18	597,65,18	615,86,18	633,28,18	651,133,18	669,41,18	687,56,18	705,141,18	723,158,18	741,172,18	759,180,18	777,71,18	795,156,18	813,49,18	831,105,18	849,166,18	867,102,18	885,113,18	
# Incoming
25,(1, 116),3	39,(4, 55),2	43,(4, 171),4	47,(4, 176),1	58,(2, 79),157	215,(2, 90),16	231,(11, 119),1	232,(11, 189),1	233,(2, 131),11	244,(13, 147),1	245,(2, 190),3	248,(18, 32),1	249,(2, 199),1	250,(6, 90),81	331,(6, 177),4	335,(4, 107),88	423,(3, 32),1	424,(3, 98),11	435,(11, 163),7	442,(9, 44),3	445,(9, 90),77	522,(9, 93),2	524,(9, 173),30	554,(7, 155),1	555,(12, 79),4	559,(12, 163),3	562,(15, 44),2	564,(16, 177),11	575,(16, 192),49	624,(13, 42),19	643,(13, 98),12	655,(13, 107),59	714,(13, 192),28	742,(18, 93),9	751,(18, 98),2	753,(18, 192),8	761,(17, 79),72	833,(14, 51),1	834,(14, 131),11	845,(14, 173),3	848,(14, 175),1	849,(14, 176),1	850,(14, 190),9	859,(14, 194),3	862,(164, 201),10	872,(85, 201),10	882,(132, 201),10	892,(100, 201),10	902,(200, 201),10	912,(25, 201),10	922,(89, 201),10	932,(48, 201),10	942,(76, 201),10	952,(153, 201),10	962,(38, 201),10	972,(167, 201),10	982,(125, 201),10	992,(112, 201),10	1002,(54, 201),10	1012,(108, 201),10	1022,(109, 201),10	1032,(197, 201),10	1042,(73, 201),10	1052,(137, 201),10	1062,(178, 201),10	1072,(61, 201),10	1082,(136, 201),10	1092,(58, 201),10	1102,(31, 201),10	1112,(99, 201),10	1122,(142, 201),10	1132,(34, 201),10	1142,(95, 201),10	1152,(150, 201),10	1162,(45, 201),10	1172,(159, 201),10	1182,(33, 201),10	1192,(188, 201),10	1202,(39, 201),10	1212,(170, 201),10	1222,(122, 201),10	1232,(37, 201),10	1242,(129, 201),10	1252,(82, 201),10	1262,(185, 201),10	1272,(145, 201),10	1282,(81, 201),10	1292,(157, 201),10	1302,(104, 201),10	1312,(114, 201),10	1322,(110, 201),10	1332,(118, 201),10	1342,(62, 201),10	1352,(91, 201),10	1362,(68, 201),10	1372,(46, 201),10	1382,(87, 201),10	1392,(26, 201),10	1402,(35, 201),10	1412,(161, 201),10	1422,(64, 201),10	1432,(111, 201),10	1442,(121, 201),10	1452,(135, 201),10	1462,(162, 201),10	1472,(78, 201),10	1482,(21, 201),10	1492,(127, 201),10	1502,(75, 201),10	1512,(191, 201),10	1522,(59, 201),10	1532,(74, 201),10	1542,(97, 201),10	1552,(174, 201),10	1562,(92, 201),10	1572,(83, 201),10	1582,(22, 201),10	1592,(181, 201),10	1602,(130, 201),10	1612,(123, 201),10	1622,(27, 201),10	1632,(186, 201),10	1642,(152, 201),10	1652,(24, 201),10	1662,(128, 201),10	1672,(88, 201),10	1682,(80, 201),10	1692,(101, 201),10	1702,(126, 201),10	1712,(65, 201),10	1722,(60, 201),10	1732,(57, 201),10	1742,(86, 201),10	1752,(124, 201),10	1762,(94, 201),10	1772,(28, 201),10	1782,(146, 201),10	1792,(193, 201),10	1802,(133, 201),10	1812,(195, 201),10	1822,(198, 201),10	1832,(41, 201),10	1842,(103, 201),10	1852,(140, 201),10	1862,(56, 201),10	1872,(168, 201),10	1882,(52, 201),10	1892,(141, 201),10	1902,(196, 201),10	1912,(151, 201),10	1922,(158, 201),10	1932,(165, 201),10	1942,(70, 201),10	1952,(172, 201),10	1962,(169, 201),10	1972,(184, 201),10	1982,(180, 201),10	1992,(187, 201),10	2002,(120, 201),10	2012,(71, 201),10	2022,(36, 201),10	2032,(143, 201),10	2042,(156, 201),10	2052,(53, 201),10	2062,(182, 201),10	2072,(49, 201),10	2082,(77, 201),10	2092,(40, 201),10	2102,(105, 201),10	2112,(138, 201),10	2122,(84, 201),10	2132,(166, 201),10	2142,(29, 201),10	2152,(134, 201),10	2162,(102, 201),10	2172,(66, 201),10	2182,(148, 201),10	2192,(113, 201),10	2202,(139, 201),10	
5,(0, 6),1	8,(0, 11),1	9,(0, 12),1	10,(0, 13),1	11,(0, 14),1	22,(1, 83),1	23,(1, 97),1	28,(1, 135),2	30,(1, 146),1	38,(4, 54),1	41,(4, 64),2	46,(5, 138),1	51,(5, 186),1	52,(10, 33),2	54,(10, 54),2	56,(9, 21),1	57,(2, 54),1	58,(4, 142),12	70,(9, 150),1	74,(15, 21),2	76,(15, 29),1	77,(15, 64),2	79,(15, 77),1	80,(15, 169),4	84,(15, 191),1	99,(18, 124),1	117,(8, 187),1	121,(19, 36),8	137,(20, 36),3	140,(20, 53),1	141,(20, 146),4	170,(18, 195),11	231,(2, 103),2	244,(2, 168),1	248,(2, 196),1	251,(3, 66),2	263,(7, 138),7	270,(7, 165),1	271,(7, 169),1	273,(7, 187),5	278,(16, 36),1	312,(16, 53),1	313,(16, 77),1	316,(16, 138),3	332,(17, 29),2	340,(17, 66),1	346,(17, 139),1	
1,(0, 1),1	4,(0, 4),1	7,(0, 9),1	12,(0, 15),1	15,(0, 18),1	19,(5, 35),1	20,(5, 81),26	47,(5, 143),4	51,(2, 40),5	56,(2, 52),1	57,(6, 22),2	59,(6, 70),2	61,(6, 82),1	62,(10, 70),1	63,(6, 143),1	64,(10, 84),1	65,(11, 35),2	67,(11, 46),9	76,(12, 148),1	78,(13, 22),8	86,(10, 123),1	87,(10, 126),1	88,(10, 148),3	91,(10, 174),2	93,(8, 22),4	97,(8, 40),3	100,(8, 123),9	109,(8, 152),8	117,(13, 88),1	118,(8, 198),3	121,(13, 84),2	129,(19, 126),8	137,(13, 120),22	159,(20, 57),4	163,(20, 94),1	169,(20, 193),5	174,(20, 198),3	199,(13, 140),7	250,(3, 52),1	253,(3, 151),4	257,(7, 70),6	272,(7, 184),1	279,(16, 40),33	314,(16, 120),2	319,(16, 143),3	322,(16, 182),10	334,(17, 40),6	341,(17, 84),4	345,(17, 134),1	347,(17, 148),1	
2,(0, 2),1	3,(0, 3),1	6,(0, 7),1	13,(0, 16),1	14,(0, 17),1	20,(1, 71),2	24,(1, 102),1	56,(10, 180),1	57,(8, 87),1	58,(8, 158),1	62,(6, 102),1	64,(6, 161),1	65,(10, 41),9	74,(10, 80),12	86,(4, 180),13	99,(11, 80),8	107,(11, 105),3	110,(9, 65),1	111,(9, 86),1	112,(9, 133),8	120,(9, 166),43	163,(12, 156),1	164,(19, 28),2	166,(19, 156),3	169,(15, 133),1	170,(13, 41),29	199,(20, 49),5	204,(20, 56),2	206,(13, 141),1	207,(13, 158),1	208,(13, 172),1	209,(13, 180),18	227,(20, 71),3	230,(20, 156),2	232,(18, 49),5	237,(18, 105),2	239,(18, 166),1	249,(18, 102),20	269,(18, 113),10	
# Outgoing
1,(0, 1),1	2,(0, 2),1	3,(0, 3),1	4,(0, 4),1	5,(0, 6),1	6,(0, 7),1	7,(0, 9),1	8,(0, 11),1	9,(0, 12),1	10,(0, 13),1	11,(0, 14),1	12,(0, 15),1	13,(0, 16),1	14,(0, 17),1	15,(0, 18),1	19,(5, 35),1	20,(5, 81),26	46,(5, 138),1	47,(5, 143),4	51,(5, 186),1	52,(10, 33),2	54,(10, 54),2	56,(10, 180),1	57,(8, 87),1	58,(8, 158),1	62,(10, 70),1	64,(10, 84),1	65,(10, 41),9	74,(10, 80),12	86,(10, 123),1	87,(10, 126),1	88,(10, 148),3	91,(10, 174),2	93,(8, 22),4	97,(8, 40),3	100,(8, 123),9	109,(8, 152),8	117,(8, 187),1	118,(8, 198),3	121,(19, 36),8	129,(19, 126),8	137,(20, 36),3	140,(20, 53),1	141,(20, 146),4	159,(20, 57),4	163,(20, 94),1	164,(19, 28),2	166,(19, 156),3	169,(20, 193),5	174,(20, 198),3	199,(20, 49),5	204,(20, 56),2	227,(20, 71),3	230,(20, 156),2	
57,(6, 22),2	59,(6, 70),2	61,(6, 82),1	62,(6, 102),1	63,(6, 143),1	64,(6, 161),1	65,(11, 35),2	67,(11, 46),9	76,(12, 148),1	78,(13, 22),8	99,(11, 80),8	107,(11, 105),3	117,(13, 88),1	121,(13, 84),2	137,(13, 120),22	163,(12, 156),1	170,(13, 41),29	199,(13, 140),7	206,(13, 141),1	207,(13, 158),1	208,(13, 172),1	209,(13, 180),18	231,(11, 119),1	232,(11, 189),1	244,(13, 147),1	250,(6, 90),81	331,(6, 177),4	435,(11, 163),7	555,(12, 79),4	559,(12, 163),3	624,(13, 42),19	643,(13, 98),12	655,(13, 107),59	714,(13, 192),28	833,(14, 51),1	834,(14, 131),11	845,(14, 173),3	848,(14, 175),1	849,(14, 176),1	850,(14, 190),9	859,(14, 194),3	882,(132, 201),10	912,(25, 201),10	942,(76, 201),10	972,(167, 201),10	1002,(54, 201),10	1032,(197, 201),10	1062,(178, 201),10	1092,(58, 201),10	1122,(142, 201),10	1152,(150, 201),10	1182,(33, 201),10	1212,(170, 201),10	1242,(129, 201),10	1272,(145, 201),10	1302,(104, 201),10	1332,(118, 201),10	1362,(68, 201),10	1392,(26, 201),10	1422,(64, 201),10	1452,(135, 201),10	1482,(21, 201),10	1512,(191, 201),10	1542,(97, 201),10	1572,(83, 201),10	1602,(130, 201),10	1632,(186, 201),10	1662,(128, 201),10	1692,(101, 201),10	1722,(60, 201),10	1752,(124, 201),10	1782,(146, 201),10	1812,(195, 201),10	1842,(103, 201),10	1872,(168, 201),10	1902,(196, 201),10	1932,(165, 201),10	1962,(169, 201),10	1992,(187, 201),10	2022,(36, 201),10	2052,(53, 201),10	2082,(77, 201),10	2112,(138, 201),10	2142,(29, 201),10	2172,(66, 201),10	2202,(139, 201),10	
20,(1, 71),2	22,(1, 83),1	23,(1, 97),1	24,(1, 102),1	25,(1, 116),3	28,(1, 135),2	30,(1, 146),1	38,(4, 54),1	39,(4, 55),2	41,(4, 64),2	43,(4, 171),4	47,(4, 176),1	56,(9, 21),1	58,(4, 142),12	70,(9, 150),1	74,(15, 21),2	76,(15, 29),1	77,(15, 64),2	79,(15, 77),1	80,(15, 169),4	84,(15, 191),1	86,(4, 180),13	99,(18, 124),1	110,(9, 65),1	111,(9, 86),1	112,(9, 133),8	120,(9, 166),43	169,(15, 133),1	170,(18, 195),11	232,(18, 49),5	237,(18, 105),2	239,(18, 166),1	248,(18, 32),1	249,(18, 102),20	269,(18, 113),10	335,(4, 107),88	442,(9, 44),3	445,(9, 90),77	522,(9, 93),2	524,(9, 173),30	562,(15, 44),2	742,(18, 93),9	751,(18, 98),2	753,(18, 192),8	862,(164, 201),10	892,(100, 201),10	922,(89, 201),10	952,(153, 201),10	982,(125, 201),10	1012,(108, 201),10	1042,(73, 201),10	1072,(61, 201),10	1102,(31, 201),10	1132,(34, 201),10	1162,(45, 201),10	1192,(188, 201),10	1222,(122, 201),10	1252,(82, 201),10	1282,(81, 201),10	1312,(114, 201),10	1342,(62, 201),10	1372,(46, 201),10	1402,(35, 201),10	1432,(111, 201),10	1462,(162, 201),10	1492,(127, 201),10	1522,(59, 201),10	1552,(174, 201),10	1582,(22, 201),10	1612,(123, 201),10	1642,(152, 201),10	1672,(88, 201),10	1702,(126, 201),10	1732,(57, 201),10	1762,(94, 201),10	1792,(193, 201),10	1822,(198, 201),10	1852,(140, 201),10	1882,(52, 201),10	1912,(151, 201),10	1942,(70, 201),10	1972,(184, 201),10	2002,(120, 201),10	2032,(143, 201),10	2062,(182, 201),10	2092,(40, 201),10	2122,(84, 201),10	2152,(134, 201),10	2182,(148, 201),10	
51,(2, 40),5	56,(2, 52),1	57,(2, 54),1	58,(2, 79),157	215,(2, 90),16	231,(2, 103),2	233,(2, 131),11	244,(2, 168),1	245,(2, 190),3	248,(2, 196),1	249,(2, 199),1	250,(3, 52),1	251,(3, 66),2	253,(3, 151),4	257,(7, 70),6	263,(7, 138),7	270,(7, 165),1	271,(7, 169),1	272,(7, 184),1	273,(7, 187),5	278,(16, 36),1	279,(16, 40),33	312,(16, 53),1	313,(16, 77),1	314,(16, 120),2	316,(16, 138),3	319,(16, 143),3	322,(16, 182),10	332,(17, 29),2	334,(17, 40),6	340,(17, 66),1	341,(17, 84),4	345,(17, 134),1	346,(17, 139),1	347,(17, 148),1	423,(3, 32),1	424,(3, 98),11	554,(7, 155),1	564,(16, 177),11	575,(16, 192),49	761,(17, 79),72	872,(85, 201),10	902,(200, 201),10	932,(48, 201),10	962,(38, 201),10	992,(112, 201),10	1022,(109, 201),10	1052,(137, 201),10	1082,(136, 201),10	1112,(99, 201),10	1142,(95, 201),10	1172,(159, 201),10	1202,(39, 201),10	1232,(37, 201),10	1262,(185, 201),10	1292,(157, 201),10	1322,(110, 201),10	1352,(91, 201),10	1382,(87, 201),10	1412,(161, 201),10	1442,(121, 201),10	1472,(78, 201),10	1502,(75, 201),10	1532,(74, 201),10	1562,(92, 201),10	1592,(181, 201),10	1622,(27, 201),10	1652,(24, 201),10	1682,(80, 201),10	1712,(65, 201),10	1742,(86, 201),10	1772,(28, 201),10	1802,(133, 201),10	1832,(41, 201),10	1862,(56, 201),10	1892,(141, 201),10	1922,(158, 201),10	1952,(172, 201),10	1982,(180, 201),10	2012,(71, 201),10	2042,(156, 201),10	2072,(49, 201),10	2102,(105, 201),10	2132,(166, 201),10	2162,(102, 201),10	2192,(113, 201),10	
