1316
# CPU
0,0,1	1,4,41	42,2,41	83,6,41	124,13,41	165,105,41	206,99,41	247,112,41	288,26,41	329,31,41	370,114,41	411,100,41	452,97,41	493,96,41	534,29,41	575,15,41	616,38,41	657,24,41	698,37,41	739,104,41	780,117,41	821,51,41	862,101,41	903,48,41	944,42,41	985,78,41	1026,14,41	1067,33,41	1108,62,41	1149,91,41	1190,95,41	1315,121,1	
49,5,41	90,7,41	131,61,41	172,81,41	213,27,41	254,52,41	295,120,41	336,83,41	377,108,41	418,9,41	459,87,41	500,67,41	541,55,41	582,109,41	623,40,41	664,53,41	705,80,41	746,17,41	787,116,41	828,69,41	869,84,41	910,57,41	951,63,41	992,56,41	1033,49,41	1074,92,41	1115,94,41	1156,85,41	1197,64,41	1238,79,41	
81,8,41	122,10,41	163,19,41	204,65,41	245,54,41	286,115,41	327,71,41	368,89,41	409,12,41	450,59,41	491,58,41	532,93,41	573,20,41	614,119,41	655,32,41	696,39,41	737,16,41	778,34,41	819,43,41	860,23,41	901,107,41	942,72,41	983,77,41	1024,21,41	1065,25,41	1106,66,41	1147,46,41	1188,47,41	1229,76,41	1270,113,41	
17,1,41	58,3,41	99,30,41	140,102,41	181,88,41	222,36,41	263,110,41	304,111,41	345,45,41	386,70,41	427,11,41	468,73,41	509,60,41	550,90,41	591,68,41	632,82,41	673,98,41	714,22,41	755,28,41	796,35,41	837,106,41	878,44,41	919,50,41	960,18,41	1001,41,41	1042,103,41	1083,74,41	1124,75,41	1165,86,41	1206,118,41	
# Incoming
67,(1, 33),1	68,(1, 51),1	69,(1, 62),75	144,(5, 24),2	146,(5, 33),9	155,(5, 48),33	188,(3, 37),1	189,(3, 48),2	191,(3, 51),1	192,(3, 104),2	194,(8, 48),2	196,(8, 117),5	201,(7, 51),3	204,(30, 121),4	208,(10, 42),49	257,(10, 91),1	258,(10, 101),1	259,(19, 121),4	263,(65, 121),4	277,(102, 121),4	283,(61, 121),4	287,(81, 121),4	291,(88, 121),4	295,(27, 121),4	299,(36, 121),4	303,(52, 121),4	307,(110, 121),4	314,(54, 121),4	327,(115, 121),4	336,(120, 121),4	345,(111, 121),4	368,(71, 121),4	377,(83, 121),4	386,(45, 121),4	409,(89, 121),4	418,(108, 121),4	427,(70, 121),4	454,(12, 48),55	509,(12, 62),104	613,(9, 42),1	614,(9, 78),1	615,(9, 91),8	623,(11, 14),3	626,(11, 33),1	627,(11, 62),1	628,(11, 91),1	629,(11, 95),1	630,(87, 121),4	634,(73, 121),4	638,(67, 121),4	642,(60, 121),4	646,(55, 121),4	651,(59, 121),4	655,(58, 121),4	659,(93, 121),4	663,(90, 121),4	667,(20, 121),4	671,(109, 121),4	675,(68, 121),4	679,(119, 121),4	683,(40, 121),4	687,(82, 121),4	696,(32, 121),4	705,(53, 121),4	714,(98, 121),4	737,(39, 121),4	746,(80, 121),4	755,(22, 121),4	778,(16, 121),4	787,(17, 121),4	796,(28, 121),4	819,(34, 121),4	828,(116, 121),4	837,(35, 121),4	860,(43, 121),4	869,(69, 121),4	878,(106, 121),4	901,(23, 121),4	910,(84, 121),4	919,(44, 121),4	942,(107, 121),4	951,(57, 121),4	960,(50, 121),4	983,(72, 121),4	992,(63, 121),4	1001,(18, 121),4	1024,(77, 121),4	1033,(56, 121),4	1042,(41, 121),4	1065,(21, 121),4	1074,(49, 121),4	1083,(103, 121),4	1106,(25, 121),4	1115,(92, 121),4	1124,(74, 121),4	1147,(66, 121),4	1156,(94, 121),4	1165,(75, 121),4	1188,(46, 121),4	1197,(85, 121),4	1206,(86, 121),4	1229,(47, 121),4	1238,(64, 121),4	1247,(118, 121),4	1270,(76, 121),4	1279,(79, 121),4	1311,(113, 121),4	
33,(0, 5),16	49,(0, 7),16	65,(1, 17),2	81,(0, 9),16	144,(3, 116),5	149,(4, 55),4	153,(8, 64),2	155,(8, 69),4	159,(8, 109),5	167,(4, 79),2	169,(8, 116),6	175,(10, 85),3	214,(2, 40),1	215,(2, 53),9	224,(2, 57),8	232,(2, 79),1	236,(2, 94),14	250,(3, 79),27	277,(6, 80),4	281,(10, 17),33	469,(11, 79),4	473,(11, 85),2	613,(12, 64),2	630,(12, 79),1	
65,(0, 8),16	97,(0, 10),16	113,(5, 23),2	115,(5, 58),1	129,(0, 12),16	145,(4, 23),4	149,(1, 107),1	153,(4, 59),3	163,(4, 76),4	167,(1, 119),8	188,(7, 43),2	193,(4, 119),6	199,(2, 16),3	211,(2, 32),2	213,(2, 39),1	214,(5, 34),22	251,(6, 16),1	253,(6, 25),5	260,(6, 46),1	261,(7, 34),22	468,(11, 76),1	471,(9, 25),29	500,(11, 66),4	511,(9, 46),1	512,(9, 47),1	513,(9, 76),2	523,(9, 113),7	
1,(0, 1),16	17,(0, 3),16	90,(5, 22),16	106,(5, 70),4	113,(0, 11),16	129,(5, 73),11	140,(5, 75),4	144,(8, 41),5	149,(8, 86),1	156,(4, 60),1	157,(4, 68),6	164,(10, 74),3	167,(10, 90),1	169,(4, 106),24	193,(7, 68),1	202,(2, 28),9	233,(2, 82),3	236,(5, 98),10	250,(2, 98),1	252,(6, 22),1	258,(6, 28),1	259,(6, 35),1	450,(12, 41),4	459,(9, 18),12	500,(9, 41),11	515,(9, 86),2	517,(9, 103),6	615,(12, 74),1	616,(12, 75),14	631,(12, 86),4	635,(12, 118),16	
# Outgoing
1,(0, 1),16	17,(0, 3),16	33,(0, 5),16	49,(0, 7),16	65,(0, 8),16	81,(0, 9),16	97,(0, 10),16	113,(0, 11),16	129,(0, 12),16	145,(4, 23),4	149,(4, 55),4	153,(4, 59),3	156,(4, 60),1	157,(4, 68),6	163,(4, 76),4	167,(4, 79),2	169,(4, 106),24	193,(4, 119),6	199,(2, 16),3	202,(2, 28),9	211,(2, 32),2	213,(2, 39),1	214,(2, 40),1	215,(2, 53),9	224,(2, 57),8	232,(2, 79),1	233,(2, 82),3	236,(2, 94),14	250,(2, 98),1	251,(6, 16),1	252,(6, 22),1	253,(6, 25),5	258,(6, 28),1	259,(6, 35),1	260,(6, 46),1	277,(6, 80),4	
90,(5, 22),16	106,(5, 70),4	113,(5, 23),2	115,(5, 58),1	129,(5, 73),11	140,(5, 75),4	144,(5, 24),2	146,(5, 33),9	155,(5, 48),33	188,(7, 43),2	193,(7, 68),1	201,(7, 51),3	214,(5, 34),22	236,(5, 98),10	261,(7, 34),22	283,(61, 121),4	287,(81, 121),4	295,(27, 121),4	303,(52, 121),4	336,(120, 121),4	377,(83, 121),4	418,(108, 121),4	459,(9, 18),12	471,(9, 25),29	500,(9, 41),11	511,(9, 46),1	512,(9, 47),1	513,(9, 76),2	515,(9, 86),2	517,(9, 103),6	523,(9, 113),7	613,(9, 42),1	614,(9, 78),1	615,(9, 91),8	630,(87, 121),4	638,(67, 121),4	646,(55, 121),4	671,(109, 121),4	683,(40, 121),4	705,(53, 121),4	746,(80, 121),4	787,(17, 121),4	828,(116, 121),4	869,(69, 121),4	910,(84, 121),4	951,(57, 121),4	992,(63, 121),4	1033,(56, 121),4	1074,(49, 121),4	1115,(92, 121),4	1156,(94, 121),4	1197,(85, 121),4	1238,(64, 121),4	1279,(79, 121),4	
144,(8, 41),5	149,(8, 86),1	153,(8, 64),2	155,(8, 69),4	159,(8, 109),5	164,(10, 74),3	167,(10, 90),1	169,(8, 116),6	175,(10, 85),3	194,(8, 48),2	196,(8, 117),5	208,(10, 42),49	257,(10, 91),1	258,(10, 101),1	259,(19, 121),4	263,(65, 121),4	281,(10, 17),33	314,(54, 121),4	327,(115, 121),4	368,(71, 121),4	409,(89, 121),4	450,(12, 41),4	454,(12, 48),55	509,(12, 62),104	613,(12, 64),2	615,(12, 74),1	616,(12, 75),14	630,(12, 79),1	631,(12, 86),4	635,(12, 118),16	651,(59, 121),4	655,(58, 121),4	659,(93, 121),4	667,(20, 121),4	679,(119, 121),4	696,(32, 121),4	737,(39, 121),4	778,(16, 121),4	819,(34, 121),4	860,(43, 121),4	901,(23, 121),4	942,(107, 121),4	983,(72, 121),4	1024,(77, 121),4	1065,(21, 121),4	1106,(25, 121),4	1147,(66, 121),4	1188,(46, 121),4	1229,(47, 121),4	1270,(76, 121),4	1311,(113, 121),4	
65,(1, 17),2	67,(1, 33),1	68,(1, 51),1	69,(1, 62),75	144,(3, 116),5	149,(1, 107),1	167,(1, 119),8	188,(3, 37),1	189,(3, 48),2	191,(3, 51),1	192,(3, 104),2	204,(30, 121),4	250,(3, 79),27	277,(102, 121),4	291,(88, 121),4	299,(36, 121),4	307,(110, 121),4	345,(111, 121),4	386,(45, 121),4	427,(70, 121),4	468,(11, 76),1	469,(11, 79),4	473,(11, 85),2	500,(11, 66),4	623,(11, 14),3	626,(11, 33),1	627,(11, 62),1	628,(11, 91),1	629,(11, 95),1	634,(73, 121),4	642,(60, 121),4	663,(90, 121),4	675,(68, 121),4	687,(82, 121),4	714,(98, 121),4	755,(22, 121),4	796,(28, 121),4	837,(35, 121),4	878,(106, 121),4	919,(44, 121),4	960,(50, 121),4	1001,(18, 121),4	1042,(41, 121),4	1083,(103, 121),4	1124,(74, 121),4	1165,(75, 121),4	1206,(86, 121),4	1247,(118, 121),4	
