4107
# CPU
89,3,3	92,68,3	177,6,3	946,23,3	1013,19,3	1017,22,3	1021,28,3	1157,33,3	1224,45,3	1246,25,3	1254,47,3	1257,49,3	1295,62,3	1331,79,3	1336,12,3	1346,15,3	1354,17,3	1358,18,3	1374,20,3	1377,21,3	1380,24,3	1383,26,3	1437,27,3	1440,29,3	1454,30,3	1457,31,3	1468,32,3	1485,35,3	1494,37,3	1509,41,3	1513,43,3	1530,53,3	1558,57,3	1578,39,3	1590,51,3	1594,59,3	1611,55,3	1625,65,3	1641,71,3	1672,77,3	1698,74,3	
45,2,3	133,5,3	221,8,3	224,44,3	944,11,3	954,14,3	957,16,3	1214,38,3	1251,50,3	1333,80,3	1361,66,3	1476,34,3	1491,36,3	1507,40,3	1512,42,3	1515,46,3	1518,48,3	1531,54,3	1551,56,3	1591,58,3	1603,60,3	1618,63,3	1627,69,3	1642,72,3	1651,76,3	1673,78,3	2114,52,3	4106,81,1	
0,0,1	1,7,3	4,4,3	7,1,3	148,10,3	185,64,3	210,70,3	213,73,3	266,67,3	269,9,3	272,61,3	940,13,3	4101,75,3	
# Incoming
45,(0, 3),44	104,(2, 15),5	109,(2, 18),9	118,(2, 20),2	120,(2, 22),1	121,(2, 24),7	128,(2, 26),3	131,(2, 47),1	132,(2, 55),1	133,(0, 6),44	177,(2, 17),61	238,(2, 29),20	258,(5, 12),2	260,(5, 23),1	261,(7, 18),19	280,(7, 19),11	291,(7, 23),4	295,(7, 25),3	298,(7, 32),1	299,(2, 21),51	350,(2, 31),8	358,(2, 35),11	369,(2, 37),4	373,(2, 39),26	399,(2, 49),54	453,(2, 51),126	579,(2, 59),4	583,(2, 65),31	614,(2, 71),5	619,(2, 79),20	639,(5, 15),15	654,(5, 20),5	659,(5, 24),19	678,(5, 25),9	687,(5, 27),2	689,(5, 32),1	690,(7, 37),1	691,(5, 26),5	696,(5, 28),2	698,(5, 37),2	700,(5, 43),2	702,(5, 57),7	709,(5, 74),1	710,(7, 43),4	714,(7, 45),1	715,(7, 47),1	716,(5, 62),2	718,(5, 79),2	720,(8, 12),1	721,(8, 18),1	722,(8, 19),1	723,(8, 21),1	724,(8, 43),2	726,(7, 51),5	731,(8, 53),1	732,(7, 53),1	733,(8, 77),1	734,(7, 55),15	749,(7, 57),27	776,(7, 59),1	777,(5, 77),11	788,(7, 65),1	789,(5, 31),15	804,(5, 41),13	817,(5, 51),13	907,(7, 79),35	942,(8, 23),4	946,(8, 27),3	949,(8, 30),7	956,(4, 17),26	982,(4, 19),31	1013,(4, 20),2	1015,(4, 22),2	1017,(4, 26),1	1018,(4, 28),3	1021,(4, 30),1	1022,(4, 31),1	1023,(4, 32),20	1043,(4, 33),114	1157,(8, 59),2	1159,(4, 35),16	1175,(8, 26),12	1187,(8, 32),4	1192,(4, 37),12	1204,(8, 29),10	1214,(4, 41),5	1220,(4, 45),4	1225,(4, 49),3	1228,(8, 25),18	1246,(8, 35),3	1249,(8, 47),5	1254,(8, 49),3	1257,(8, 65),11	1268,(4, 53),1	1270,(4, 55),4	1277,(4, 57),16	1294,(4, 62),1	1295,(8, 79),4	1299,(4, 65),4	1304,(4, 77),23	1327,(4, 79),4	1333,(1, 12),3	1336,(1, 15),10	1346,(1, 17),8	1354,(1, 18),4	1358,(1, 20),16	1374,(1, 21),3	1377,(1, 24),1	1378,(1, 26),1	1379,(1, 27),58	1437,(1, 29),1	1438,(1, 30),16	1454,(1, 31),1	1455,(1, 32),13	1476,(1, 35),9	1491,(1, 37),3	1494,(1, 39),5	1507,(1, 41),2	1512,(1, 43),1	1517,(1, 53),13	1531,(1, 55),18	1551,(1, 57),7	1558,(8, 39),20	1578,(8, 51),12	1591,(1, 59),3	1594,(8, 55),17	1618,(1, 65),7	1627,(1, 71),14	1651,(1, 77),21	1672,(8, 74),26	
1,(0, 2),44	89,(0, 5),44	133,(3, 11),1	134,(3, 14),1	135,(3, 16),1	136,(3, 36),9	145,(3, 42),20	165,(3, 52),7	172,(3, 54),2	174,(3, 58),1	175,(68, 81),2	177,(0, 8),44	221,(7, 11),16	237,(7, 14),24	261,(3, 46),13	274,(3, 60),5	279,(3, 63),3	282,(6, 14),11	293,(6, 36),2	295,(6, 40),1	296,(6, 46),1	297,(6, 58),1	298,(6, 63),1	299,(7, 34),5	304,(7, 36),386	691,(7, 38),1	692,(7, 40),18	710,(6, 42),4	716,(7, 50),10	726,(6, 80),5	731,(7, 52),1	733,(7, 54),1	734,(3, 72),18	752,(6, 16),22	777,(7, 60),6	783,(7, 63),5	789,(7, 69),112	901,(7, 72),2	903,(7, 76),1	904,(7, 78),3	907,(6, 50),24	931,(6, 78),8	942,(7, 80),1	943,(4, 11),1	944,(4, 14),10	954,(4, 16),2	956,(3, 40),196	1152,(23, 81),2	1154,(19, 81),2	1157,(4, 34),2	1159,(6, 54),14	1173,(22, 81),2	1175,(4, 36),17	1192,(28, 81),2	1194,(33, 81),2	1204,(4, 38),10	1219,(4, 42),1	1224,(4, 48),1	1228,(4, 50),23	1251,(4, 52),17	1269,(4, 54),1	1270,(45, 81),2	1272,(25, 81),2	1274,(4, 56),3	1277,(47, 81),2	1279,(49, 81),2	1293,(4, 60),1	1295,(4, 63),4	1299,(62, 81),2	1303,(4, 76),1	1304,(6, 56),27	1331,(4, 80),2	1333,(6, 66),28	1361,(79, 81),2	1363,(12, 81),2	1365,(15, 81),2	1367,(17, 81),2	1369,(18, 81),2	1377,(20, 81),2	1380,(21, 81),2	1383,(24, 81),2	1386,(26, 81),2	1440,(27, 81),2	1443,(29, 81),2	1457,(30, 81),2	1460,(31, 81),2	1468,(1, 34),8	1476,(32, 81),2	1485,(1, 36),6	1491,(35, 81),2	1497,(37, 81),2	1499,(1, 40),8	1509,(1, 42),3	1513,(1, 46),1	1514,(1, 48),3	1517,(41, 81),2	1519,(43, 81),2	1530,(1, 54),1	1533,(53, 81),2	1549,(1, 56),2	1558,(1, 58),33	1591,(57, 81),2	1594,(1, 60),9	1603,(1, 63),15	1618,(39, 81),2	1620,(51, 81),2	1622,(59, 81),2	1625,(1, 69),2	1627,(55, 81),2	1629,(65, 81),2	1641,(1, 72),1	1642,(1, 76),9	1651,(71, 81),2	1672,(1, 78),1	1673,(10, 81),2	1675,(6, 52),439	2114,(64, 81),2	2116,(70, 81),2	2118,(73, 81),2	2120,(67, 81),2	2122,(9, 81),2	2124,(61, 81),2	2126,(13, 81),2	2128,(77, 81),2	2130,(74, 81),2	4104,(75, 81),2	
48,(2, 9),2	50,(2, 13),54	104,(3, 10),1	105,(3, 64),1	106,(3, 67),4	110,(3, 75),13	133,(2, 61),1	134,(2, 64),1	135,(2, 67),2	137,(5, 10),11	148,(5, 13),15	163,(5, 61),4	167,(5, 64),8	175,(5, 73),2	180,(6, 13),1	181,(6, 61),1	182,(6, 64),3	185,(6, 67),4	189,(6, 70),21	210,(6, 73),2	261,(5, 67),5	266,(8, 9),1	267,(8, 61),2	830,(8, 13),110	1698,(8, 75),2403	
# Outgoing
104,(3, 10),1	105,(3, 64),1	106,(3, 67),4	110,(3, 75),13	133,(3, 11),1	134,(3, 14),1	135,(3, 16),1	136,(3, 36),9	145,(3, 42),20	165,(3, 52),7	172,(3, 54),2	174,(3, 58),1	175,(68, 81),2	180,(6, 13),1	181,(6, 61),1	182,(6, 64),3	185,(6, 67),4	189,(6, 70),21	210,(6, 73),2	261,(3, 46),13	274,(3, 60),5	279,(3, 63),3	282,(6, 14),11	293,(6, 36),2	295,(6, 40),1	296,(6, 46),1	297,(6, 58),1	298,(6, 63),1	710,(6, 42),4	726,(6, 80),5	734,(3, 72),18	752,(6, 16),22	907,(6, 50),24	931,(6, 78),8	956,(3, 40),196	1152,(23, 81),2	1154,(19, 81),2	1159,(6, 54),14	1173,(22, 81),2	1192,(28, 81),2	1194,(33, 81),2	1270,(45, 81),2	1272,(25, 81),2	1277,(47, 81),2	1279,(49, 81),2	1299,(62, 81),2	1304,(6, 56),27	1333,(6, 66),28	1361,(79, 81),2	1363,(12, 81),2	1365,(15, 81),2	1367,(17, 81),2	1369,(18, 81),2	1377,(20, 81),2	1380,(21, 81),2	1383,(24, 81),2	1386,(26, 81),2	1440,(27, 81),2	1443,(29, 81),2	1457,(30, 81),2	1460,(31, 81),2	1476,(32, 81),2	1491,(35, 81),2	1497,(37, 81),2	1517,(41, 81),2	1519,(43, 81),2	1533,(53, 81),2	1591,(57, 81),2	1618,(39, 81),2	1620,(51, 81),2	1622,(59, 81),2	1627,(55, 81),2	1629,(65, 81),2	1651,(71, 81),2	1675,(6, 52),439	2128,(77, 81),2	2130,(74, 81),2	
48,(2, 9),2	50,(2, 13),54	104,(2, 15),5	109,(2, 18),9	118,(2, 20),2	120,(2, 22),1	121,(2, 24),7	128,(2, 26),3	131,(2, 47),1	132,(2, 55),1	133,(2, 61),1	134,(2, 64),1	135,(2, 67),2	137,(5, 10),11	148,(5, 13),15	163,(5, 61),4	167,(5, 64),8	175,(5, 73),2	177,(2, 17),61	238,(2, 29),20	258,(5, 12),2	260,(5, 23),1	261,(5, 67),5	266,(8, 9),1	267,(8, 61),2	299,(2, 21),51	350,(2, 31),8	358,(2, 35),11	369,(2, 37),4	373,(2, 39),26	399,(2, 49),54	453,(2, 51),126	579,(2, 59),4	583,(2, 65),31	614,(2, 71),5	619,(2, 79),20	639,(5, 15),15	654,(5, 20),5	659,(5, 24),19	678,(5, 25),9	687,(5, 27),2	689,(5, 32),1	691,(5, 26),5	696,(5, 28),2	698,(5, 37),2	700,(5, 43),2	702,(5, 57),7	709,(5, 74),1	716,(5, 62),2	718,(5, 79),2	720,(8, 12),1	721,(8, 18),1	722,(8, 19),1	723,(8, 21),1	724,(8, 43),2	731,(8, 53),1	733,(8, 77),1	777,(5, 77),11	789,(5, 31),15	804,(5, 41),13	817,(5, 51),13	830,(8, 13),110	942,(8, 23),4	946,(8, 27),3	949,(8, 30),7	1157,(8, 59),2	1175,(8, 26),12	1187,(8, 32),4	1204,(8, 29),10	1228,(8, 25),18	1246,(8, 35),3	1249,(8, 47),5	1254,(8, 49),3	1257,(8, 65),11	1295,(8, 79),4	1558,(8, 39),20	1578,(8, 51),12	1594,(8, 55),17	1672,(8, 74),26	1698,(8, 75),2403	
1,(0, 2),44	45,(0, 3),44	89,(0, 5),44	133,(0, 6),44	177,(0, 8),44	221,(7, 11),16	237,(7, 14),24	261,(7, 18),19	280,(7, 19),11	291,(7, 23),4	295,(7, 25),3	298,(7, 32),1	299,(7, 34),5	304,(7, 36),386	690,(7, 37),1	691,(7, 38),1	692,(7, 40),18	710,(7, 43),4	714,(7, 45),1	715,(7, 47),1	716,(7, 50),10	726,(7, 51),5	731,(7, 52),1	732,(7, 53),1	733,(7, 54),1	734,(7, 55),15	749,(7, 57),27	776,(7, 59),1	777,(7, 60),6	783,(7, 63),5	788,(7, 65),1	789,(7, 69),112	901,(7, 72),2	903,(7, 76),1	904,(7, 78),3	907,(7, 79),35	942,(7, 80),1	943,(4, 11),1	944,(4, 14),10	954,(4, 16),2	956,(4, 17),26	982,(4, 19),31	1013,(4, 20),2	1015,(4, 22),2	1017,(4, 26),1	1018,(4, 28),3	1021,(4, 30),1	1022,(4, 31),1	1023,(4, 32),20	1043,(4, 33),114	1157,(4, 34),2	1159,(4, 35),16	1175,(4, 36),17	1192,(4, 37),12	1204,(4, 38),10	1214,(4, 41),5	1219,(4, 42),1	1220,(4, 45),4	1224,(4, 48),1	1225,(4, 49),3	1228,(4, 50),23	1251,(4, 52),17	1268,(4, 53),1	1269,(4, 54),1	1270,(4, 55),4	1274,(4, 56),3	1277,(4, 57),16	1293,(4, 60),1	1294,(4, 62),1	1295,(4, 63),4	1299,(4, 65),4	1303,(4, 76),1	1304,(4, 77),23	1327,(4, 79),4	1331,(4, 80),2	1333,(1, 12),3	1336,(1, 15),10	1346,(1, 17),8	1354,(1, 18),4	1358,(1, 20),16	1374,(1, 21),3	1377,(1, 24),1	1378,(1, 26),1	1379,(1, 27),58	1437,(1, 29),1	1438,(1, 30),16	1454,(1, 31),1	1455,(1, 32),13	1468,(1, 34),8	1476,(1, 35),9	1485,(1, 36),6	1491,(1, 37),3	1494,(1, 39),5	1499,(1, 40),8	1507,(1, 41),2	1509,(1, 42),3	1512,(1, 43),1	1513,(1, 46),1	1514,(1, 48),3	1517,(1, 53),13	1530,(1, 54),1	1531,(1, 55),18	1549,(1, 56),2	1551,(1, 57),7	1558,(1, 58),33	1591,(1, 59),3	1594,(1, 60),9	1603,(1, 63),15	1618,(1, 65),7	1625,(1, 69),2	1627,(1, 71),14	1641,(1, 72),1	1642,(1, 76),9	1651,(1, 77),21	1672,(1, 78),1	1673,(10, 81),2	2114,(64, 81),2	2116,(70, 81),2	2118,(73, 81),2	2120,(67, 81),2	2122,(9, 81),2	2124,(61, 81),2	2126,(13, 81),2	4104,(75, 81),2	
