2580
# CPU
7,3,16	23,18,16	39,30,16	55,10,16	71,7,16	87,22,16	103,8,16	119,26,16	135,34,16	151,13,16	167,15,16	183,24,16	199,37,16	215,28,16	231,32,16	247,39,16	
4,2,16	20,16,16	36,19,16	52,23,16	68,6,16	84,9,16	100,14,16	116,12,16	132,25,16	148,29,16	164,31,16	180,33,16	196,38,16	212,27,16	228,36,16	
0,0,1	1,1,16	17,4,16	33,35,16	49,21,16	65,5,16	81,11,16	97,20,16	158,17,16	665,40,16	2579,41,1	
# Incoming
4,(0, 3),3	17,(1, 10),21	38,(2, 7),3	44,(1, 22),39	83,(2, 8),6	92,(1, 26),21	122,(1, 34),3	137,(4, 13),9	146,(4, 15),3	149,(4, 24),6	158,(2, 37),3	161,(4, 28),6	167,(4, 32),6	203,(4, 39),3	
1,(0, 2),3	23,(3, 6),6	29,(3, 9),3	38,(1, 14),6	44,(3, 12),27	83,(1, 25),9	113,(1, 29),3	116,(1, 31),3	119,(1, 33),3	125,(1, 38),12	155,(4, 27),6	173,(4, 36),30	
41,(2, 11),3	71,(3, 20),6	89,(2, 17),69	161,(2, 40),504	665,(16, 41),66	731,(18, 41),66	797,(19, 41),66	863,(30, 41),66	929,(23, 41),66	995,(10, 41),66	1061,(6, 41),66	1127,(7, 41),66	1193,(9, 41),66	1259,(22, 41),66	1325,(14, 41),66	1391,(8, 41),66	1457,(12, 41),66	1523,(26, 41),66	1589,(25, 41),66	1655,(34, 41),66	1721,(29, 41),66	1787,(13, 41),66	1853,(31, 41),66	1919,(15, 41),66	1985,(33, 41),66	2051,(24, 41),66	2117,(38, 41),66	2183,(37, 41),66	2249,(27, 41),66	2315,(28, 41),66	2381,(36, 41),66	2447,(32, 41),66	2513,(39, 41),66	
# Outgoing
23,(3, 6),6	29,(3, 9),3	44,(3, 12),27	71,(3, 20),6	731,(18, 41),66	863,(30, 41),66	995,(10, 41),66	1127,(7, 41),66	1259,(22, 41),66	1391,(8, 41),66	1523,(26, 41),66	1655,(34, 41),66	1787,(13, 41),66	1919,(15, 41),66	2051,(24, 41),66	2183,(37, 41),66	2315,(28, 41),66	2447,(32, 41),66	2513,(39, 41),66	
38,(2, 7),3	41,(2, 11),3	83,(2, 8),6	89,(2, 17),69	158,(2, 37),3	161,(2, 40),504	665,(16, 41),66	797,(19, 41),66	929,(23, 41),66	1061,(6, 41),66	1193,(9, 41),66	1325,(14, 41),66	1457,(12, 41),66	1589,(25, 41),66	1721,(29, 41),66	1853,(31, 41),66	1985,(33, 41),66	2117,(38, 41),66	2249,(27, 41),66	2381,(36, 41),66	
1,(0, 2),3	4,(0, 3),3	17,(1, 10),21	38,(1, 14),6	44,(1, 22),39	83,(1, 25),9	92,(1, 26),21	113,(1, 29),3	116,(1, 31),3	119,(1, 33),3	122,(1, 34),3	125,(1, 38),12	137,(4, 13),9	146,(4, 15),3	149,(4, 24),6	155,(4, 27),6	161,(4, 28),6	167,(4, 32),6	173,(4, 36),30	203,(4, 39),3	
