335
# CPU
0,0,1	1,1,9	10,27,9	19,36,9	28,4,9	37,35,9	46,30,9	55,22,9	64,3,9	73,9,9	82,26,9	91,5,9	100,32,9	109,16,9	118,40,9	127,11,9	136,33,9	145,20,9	154,2,9	163,17,9	172,13,9	181,23,9	190,15,9	199,14,9	208,19,9	217,6,9	226,24,9	235,8,9	244,28,9	253,37,9	262,21,9	271,10,9	280,39,9	289,34,9	298,7,9	307,29,9	316,18,9	325,31,9	334,41,1	
166,25,9	175,38,9	
169,12,9	







# Incoming
175,(25, 41),15	190,(12, 41),15	205,(38, 41),15	
10,(1, 25),18	37,(4, 25),3	73,(3, 25),3	76,(4, 38),54	163,(2, 25),3	169,(2, 38),6	
40,(1, 12),30	166,(2, 12),3	







# Outgoing
10,(1, 25),18	37,(4, 25),3	40,(1, 12),30	73,(3, 25),3	76,(4, 38),54	163,(2, 25),3	166,(2, 12),3	169,(2, 38),6	
175,(25, 41),15	205,(38, 41),15	
190,(12, 41),15	







