874
# CPU
0,0,1	1,4,5	6,34,5	11,84,5	16,98,5	21,1,5	26,28,5	31,110,5	36,73,5	41,67,5	46,8,5	51,74,5	56,6,5	61,38,5	66,37,5	71,71,5	76,118,5	81,107,5	86,115,5	91,51,5	96,117,5	107,120,5	117,82,5	127,109,5	137,86,5	147,89,5	161,119,5	171,99,5	183,46,5	202,76,5	218,77,5	238,22,5	260,21,5	288,15,5	366,13,5	868,55,5	873,121,1	
3,7,5	8,29,5	13,2,5	18,58,5	23,114,5	28,79,5	33,48,5	38,61,5	43,63,5	48,17,5	53,104,5	65,78,5	83,111,5	105,47,5	110,62,5	115,80,5	133,105,5	183,72,5	205,116,5	243,30,5	277,24,5	
9,5,5	14,49,5	29,56,5	41,43,5	71,95,5	208,97,5	298,66,5	
11,10,5	16,36,5	21,92,5	28,59,5	55,87,5	89,45,5	107,75,5	129,85,5	
15,12,5	20,68,5	25,94,5	30,81,5	35,64,5	40,101,5	59,52,5	119,27,5	
17,11,5	22,31,5	27,96,5	32,16,5	37,40,5	42,50,5	47,25,5	52,23,5	113,60,5	157,100,5	199,19,5	344,35,5	
30,90,5	

7,9,5	12,26,5	17,44,5	22,57,5	27,14,5	32,113,5	37,39,5	42,83,5	47,65,5	52,20,5	77,103,5	95,53,5	111,88,5	141,106,5	272,108,5	
5,3,5	10,32,5	15,42,5	20,102,5	25,54,5	30,70,5	35,33,5	40,41,5	45,69,5	50,91,5	63,112,5	68,93,5	135,18,5	
# Incoming
13,(29, 121),2	15,(32, 121),2	17,(26, 121),2	19,(49, 121),2	21,(42, 121),2	23,(36, 121),2	25,(44, 121),2	27,(58, 121),2	29,(68, 121),2	31,(102, 121),2	33,(92, 121),2	35,(57, 121),2	37,(31, 121),2	39,(114, 121),2	41,(94, 121),2	43,(54, 121),2	45,(14, 121),2	47,(96, 121),2	49,(79, 121),2	51,(59, 121),2	53,(56, 121),2	55,(70, 121),2	57,(81, 121),2	59,(90, 121),2	61,(113, 121),2	63,(16, 121),2	65,(48, 121),2	67,(64, 121),2	69,(33, 121),2	71,(39, 121),2	73,(40, 121),2	75,(61, 121),2	77,(41, 121),2	79,(101, 121),2	81,(43, 121),2	83,(83, 121),2	85,(50, 121),2	87,(63, 121),2	89,(69, 121),2	91,(25, 121),2	93,(65, 121),2	95,(17, 121),2	97,(91, 121),2	99,(23, 121),2	101,(20, 121),2	103,(104, 121),2	105,(9, 120),2	107,(87, 121),2	109,(52, 121),2	111,(112, 121),2	113,(78, 121),2	115,(7, 82),2	117,(93, 121),2	119,(95, 121),2	121,(103, 121),2	123,(111, 121),2	125,(11, 109),2	127,(45, 121),2	129,(53, 121),2	131,(47, 121),2	133,(75, 121),2	135,(11, 86),2	137,(62, 121),2	139,(88, 121),2	141,(60, 121),2	143,(80, 121),2	145,(12, 89),2	147,(27, 121),2	149,(85, 121),2	151,(105, 121),2	153,(18, 121),2	155,(7, 119),6	161,(106, 121),2	163,(100, 121),2	165,(3, 99),2	167,(2, 99),4	171,(3, 46),12	183,(11, 76),2	188,(72, 121),2	190,(5, 76),12	202,(3, 77),2	204,(19, 121),2	206,(9, 77),12	218,(116, 121),2	220,(97, 121),2	222,(3, 22),2	224,(2, 22),14	238,(7, 21),4	242,(12, 21),18	260,(30, 121),2	262,(11, 15),26	288,(108, 121),2	290,(24, 121),2	292,(7, 13),26	318,(3, 13),2	320,(9, 13),46	366,(66, 121),2	368,(35, 121),2	370,(10, 55),186	556,(2, 55),12	568,(12, 55),294	862,(11, 55),6	
1,(0, 7),2	11,(0, 2),2	21,(4, 63),2	23,(9, 62),2	27,(9, 80),2	29,(10, 30),2	33,(3, 17),8	41,(5, 104),12	53,(11, 62),8	63,(6, 78),2	71,(3, 47),6	77,(6, 111),6	83,(12, 47),14	101,(11, 80),8	119,(3, 105),14	133,(12, 72),10	157,(1, 72),16	173,(6, 72),10	183,(9, 116),22	205,(12, 30),14	219,(8, 30),24	243,(9, 24),32	275,(1, 24),2	
7,(0, 5),2	19,(4, 56),2	23,(3, 56),6	35,(2, 66),2	39,(11, 43),2	57,(3, 95),6	67,(6, 95),4	107,(9, 66),14	190,(2, 97),18	208,(10, 66),50	272,(3, 66),24	
9,(0, 10),2	17,(4, 92),2	26,(1, 59),2	39,(4, 45),12	51,(8, 87),4	59,(12, 45),8	67,(5, 75),12	95,(4, 75),12	111,(12, 85),18	
13,(0, 12),2	17,(3, 64),2	23,(5, 101),12	35,(1, 52),4	45,(3, 52),8	55,(8, 52),4	83,(5, 27),12	107,(1, 27),12	
15,(0, 11),2	21,(5, 16),2	23,(7, 50),2	31,(12, 40),2	35,(5, 25),2	41,(2, 23),6	51,(7, 60),8	63,(3, 100),4	73,(9, 19),10	141,(4, 100),16	183,(3, 19),16	222,(5, 35),122	
15,(7, 90),2	18,(2, 90),4	28,(1, 90),2	

5,(0, 9),2	23,(4, 65),2	25,(10, 20),4	29,(2, 20),6	35,(10, 88),10	59,(4, 106),2	71,(6, 103),6	83,(6, 53),12	99,(3, 88),12	121,(5, 106),12	135,(8, 106),6	224,(3, 108),48	
3,(0, 3),2	19,(9, 41),2	25,(2, 69),2	30,(1, 33),2	33,(12, 91),2	41,(11, 91),2	61,(6, 112),2	65,(6, 93),2	119,(6, 18),16	
# Outgoing
1,(0, 7),2	3,(0, 3),2	5,(0, 9),2	7,(0, 5),2	9,(0, 10),2	11,(0, 2),2	13,(0, 12),2	15,(0, 11),2	17,(4, 92),2	19,(4, 56),2	21,(4, 63),2	23,(4, 65),2	26,(1, 59),2	28,(1, 90),2	30,(1, 33),2	35,(1, 52),4	39,(4, 45),12	51,(8, 87),4	55,(8, 52),4	59,(4, 106),2	61,(6, 112),2	63,(6, 78),2	65,(6, 93),2	67,(6, 95),4	71,(6, 103),6	77,(6, 111),6	83,(6, 53),12	95,(4, 75),12	107,(1, 27),12	119,(6, 18),16	135,(8, 106),6	141,(4, 100),16	157,(1, 72),16	173,(6, 72),10	219,(8, 30),24	275,(1, 24),2	
13,(29, 121),2	15,(7, 90),2	18,(2, 90),4	23,(7, 50),2	25,(2, 69),2	27,(58, 121),2	29,(2, 20),6	35,(2, 66),2	39,(114, 121),2	41,(2, 23),6	49,(79, 121),2	51,(7, 60),8	65,(48, 121),2	75,(61, 121),2	87,(63, 121),2	95,(17, 121),2	103,(104, 121),2	113,(78, 121),2	115,(7, 82),2	123,(111, 121),2	131,(47, 121),2	137,(62, 121),2	143,(80, 121),2	151,(105, 121),2	155,(7, 119),6	167,(2, 99),4	188,(72, 121),2	190,(2, 97),18	218,(116, 121),2	224,(2, 22),14	238,(7, 21),4	260,(30, 121),2	290,(24, 121),2	292,(7, 13),26	556,(2, 55),12	
19,(49, 121),2	21,(5, 16),2	23,(5, 101),12	35,(5, 25),2	41,(5, 104),12	53,(56, 121),2	67,(5, 75),12	81,(43, 121),2	83,(5, 27),12	119,(95, 121),2	121,(5, 106),12	190,(5, 76),12	220,(97, 121),2	222,(5, 35),122	366,(66, 121),2	
23,(36, 121),2	25,(10, 20),4	29,(10, 30),2	33,(92, 121),2	35,(10, 88),10	51,(59, 121),2	107,(87, 121),2	127,(45, 121),2	133,(75, 121),2	149,(85, 121),2	208,(10, 66),50	370,(10, 55),186	
29,(68, 121),2	31,(12, 40),2	33,(12, 91),2	41,(94, 121),2	57,(81, 121),2	59,(12, 45),8	67,(64, 121),2	79,(101, 121),2	83,(12, 47),14	109,(52, 121),2	111,(12, 85),18	133,(12, 72),10	145,(12, 89),2	147,(27, 121),2	205,(12, 30),14	242,(12, 21),18	568,(12, 55),294	
37,(31, 121),2	39,(11, 43),2	41,(11, 91),2	47,(96, 121),2	53,(11, 62),8	63,(16, 121),2	73,(40, 121),2	85,(50, 121),2	91,(25, 121),2	99,(23, 121),2	101,(11, 80),8	125,(11, 109),2	135,(11, 86),2	141,(60, 121),2	163,(100, 121),2	183,(11, 76),2	204,(19, 121),2	262,(11, 15),26	368,(35, 121),2	862,(11, 55),6	
59,(90, 121),2	

17,(26, 121),2	19,(9, 41),2	23,(9, 62),2	25,(44, 121),2	27,(9, 80),2	35,(57, 121),2	45,(14, 121),2	61,(113, 121),2	71,(39, 121),2	73,(9, 19),10	83,(83, 121),2	93,(65, 121),2	101,(20, 121),2	105,(9, 120),2	107,(9, 66),14	121,(103, 121),2	129,(53, 121),2	139,(88, 121),2	161,(106, 121),2	183,(9, 116),22	206,(9, 77),12	243,(9, 24),32	288,(108, 121),2	320,(9, 13),46	
15,(32, 121),2	17,(3, 64),2	21,(42, 121),2	23,(3, 56),6	31,(102, 121),2	33,(3, 17),8	43,(54, 121),2	45,(3, 52),8	55,(70, 121),2	57,(3, 95),6	63,(3, 100),4	69,(33, 121),2	71,(3, 47),6	77,(41, 121),2	89,(69, 121),2	97,(91, 121),2	99,(3, 88),12	111,(112, 121),2	117,(93, 121),2	119,(3, 105),14	153,(18, 121),2	165,(3, 99),2	171,(3, 46),12	183,(3, 19),16	202,(3, 77),2	222,(3, 22),2	224,(3, 108),48	272,(3, 66),24	318,(3, 13),2	
