3779
# CPU
57,5,37	615,18,37	652,28,37	887,53,37	2419,58,37	2721,13,37	2791,23,37	2869,33,37	2985,38,37	3022,43,37	3069,48,37	3115,63,37	3573,68,37	3610,73,37	3733,78,37	
43,4,37	699,22,37	761,42,37	807,62,37	1057,52,37	1099,77,37	2435,57,37	2587,72,37	2637,12,37	2731,17,37	2815,27,37	2852,32,37	2959,37,37	3065,47,37	3569,67,37	
29,3,37	85,8,37	471,41,37	553,21,37	590,51,37	627,16,37	664,46,37	701,71,37	2501,66,37	2631,11,37	2793,26,37	2830,31,37	2871,36,37	3077,56,37	3114,61,37	3721,76,37	
15,2,37	71,7,37	793,25,37	830,35,37	961,40,37	1023,45,37	1060,65,37	1843,10,37	2367,55,37	2629,80,37	2723,15,37	2785,20,37	2822,30,37	2923,60,37	3075,50,37	3575,70,37	3612,75,37	
0,0,1	1,6,37	38,1,37	323,44,37	793,59,37	853,24,37	890,34,37	953,9,37	990,74,37	1027,39,37	1064,49,37	1101,54,37	1138,69,37	1183,29,37	1265,64,37	1729,79,37	1919,14,37	1981,19,37	3778,81,1	
# Incoming
43,(0, 5),14	99,(6, 13),64	163,(2, 13),16	179,(2, 23),2	181,(4, 38),2	183,(6, 18),142	325,(2, 43),6	331,(2, 48),2	333,(3, 28),50	383,(3, 43),20	403,(3, 53),2	405,(3, 58),2	407,(3, 63),10	417,(3, 78),2	425,(2, 58),10	435,(3, 33),178	613,(7, 18),2	615,(7, 28),8	623,(7, 33),4	627,(7, 63),4	631,(6, 23),150	781,(4, 13),24	807,(3, 68),12	819,(4, 53),56	875,(7, 38),6	881,(7, 53),6	887,(7, 73),10	897,(8, 43),34	931,(8, 48),2	933,(8, 78),14	961,(6, 43),22	983,(7, 58),20	1033,(6, 48),6	1039,(7, 48),56	1113,(3, 73),234	2099,(8, 33),80	2179,(8, 38),140	2367,(8, 58),52	2439,(6, 63),12	2597,(6, 78),18	2637,(1, 13),84	2785,(1, 23),6	2843,(1, 33),26	2959,(1, 38),26	2985,(1, 43),6	3065,(1, 48),4	3083,(1, 63),32	3569,(1, 68),4	3575,(1, 73),8	3721,(1, 78),12	
29,(0, 4),14	54,(2, 12),54	108,(3, 17),2	138,(3, 27),2	156,(3, 72),2	158,(2, 22),2	160,(2, 47),2	162,(8, 52),2	181,(6, 17),2	189,(2, 27),6	221,(2, 42),22	243,(3, 37),52	297,(2, 57),2	299,(8, 32),8	307,(2, 62),2	311,(2, 67),14	325,(8, 37),4	367,(7, 12),2	369,(6, 22),262	631,(2, 72),14	645,(2, 77),4	649,(5, 17),4	653,(5, 22),20	675,(3, 52),20	695,(7, 22),4	699,(7, 42),6	705,(7, 57),6	713,(5, 27),2	715,(7, 72),4	719,(7, 77),16	743,(5, 37),2	745,(5, 42),16	761,(5, 57),2	763,(5, 62),2	765,(5, 67),4	793,(3, 62),14	807,(6, 32),2	819,(3, 77),40	859,(5, 32),118	977,(8, 12),28	1005,(8, 17),18	1023,(6, 47),10	1033,(8, 67),6	1039,(6, 52),18	1073,(5, 77),26	1099,(7, 27),56	1161,(5, 72),514	1675,(7, 37),66	2319,(8, 47),22	2419,(8, 72),8	2431,(6, 57),4	2453,(6, 67),10	2585,(6, 72),2	2631,(1, 12),6	2723,(1, 17),8	2793,(1, 27),22	2823,(1, 32),20	2871,(1, 37),88	2991,(1, 47),74	3115,(1, 67),454	
15,(0, 3),14	71,(0, 8),14	122,(2, 21),36	158,(4, 16),2	165,(6, 16),16	181,(2, 26),8	189,(4, 31),6	195,(4, 51),2	197,(4, 66),6	203,(2, 31),10	213,(4, 36),24	295,(2, 56),2	309,(2, 66),2	325,(6, 21),44	369,(2, 51),56	435,(2, 71),18	453,(2, 76),4	457,(4, 41),14	471,(4, 46),50	521,(5, 11),26	547,(7, 11),2	549,(7, 21),4	553,(7, 31),4	557,(7, 51),12	569,(7, 61),14	583,(7, 76),6	601,(5, 16),4	613,(5, 46),2	615,(5, 56),2	617,(5, 61),6	623,(5, 71),6	639,(4, 61),34	673,(5, 26),40	715,(5, 36),28	743,(7, 66),28	805,(6, 31),2	1059,(6, 56),1372	2435,(6, 61),4	2451,(6, 66),2	2453,(5, 66),48	2629,(1, 11),2	2791,(1, 26),2	2821,(1, 31),2	2869,(1, 36),2	3075,(1, 56),2	3077,(1, 61),6	3083,(5, 76),318	3589,(1, 76),132	
1,(0, 2),14	57,(0, 7),14	71,(3, 10),2	73,(3, 15),2	85,(6, 10),14	103,(3, 45),2	110,(3, 20),28	138,(4, 15),2	140,(4, 25),8	148,(4, 30),2	150,(4, 50),2	152,(4, 80),2	158,(8, 15),2	163,(6, 15),2	165,(3, 35),66	231,(3, 70),8	239,(4, 10),84	323,(4, 40),18	341,(4, 70),16	419,(8, 40),12	431,(8, 70),4	517,(5, 25),2	521,(4, 55),44	565,(4, 60),74	639,(5, 35),4	643,(5, 70),6	769,(5, 80),12	781,(6, 25),12	793,(6, 30),12	809,(6, 35),12	821,(6, 40),140	963,(8, 75),4	983,(6, 45),40	1025,(5, 65),20	1057,(6, 55),2	1059,(3, 60),54	1113,(5, 55),48	1347,(3, 75),448	1795,(8, 10),48	1981,(8, 20),96	2077,(8, 30),22	2341,(8, 55),26	2463,(6, 70),122	2587,(6, 75),10	2615,(6, 80),14	2721,(1, 15),2	2731,(1, 20),54	2815,(1, 30),6	2821,(8, 60),102	3069,(1, 50),6	3573,(1, 70),2	3583,(1, 75),6	
52,(2, 9),2	75,(3, 19),8	83,(3, 29),6	89,(3, 34),14	105,(3, 54),2	108,(2, 14),14	122,(4, 9),14	136,(4, 29),2	140,(3, 44),6	146,(3, 69),10	160,(4, 39),12	172,(4, 44),6	183,(4, 54),6	195,(2, 29),8	203,(4, 64),6	209,(4, 74),4	213,(2, 34),8	239,(8, 9),4	243,(2, 44),52	295,(8, 24),4	299,(2, 59),8	307,(8, 34),14	321,(8, 44),2	323,(8, 79),2	329,(8, 69),4	333,(2, 54),34	367,(4, 34),50	417,(4, 49),28	445,(4, 79),8	457,(2, 79),30	487,(5, 9),30	517,(7, 14),2	519,(7, 19),18	537,(7, 34),6	547,(5, 14),54	605,(5, 29),8	613,(3, 39),62	675,(7, 24),14	689,(7, 39),6	695,(3, 59),98	793,(5, 24),60	853,(5, 34),4	857,(7, 49),10	867,(7, 54),6	875,(4, 69),28	903,(7, 9),50	953,(8, 74),10	967,(41, 81),8	977,(5, 39),26	1003,(5, 49),18	1021,(5, 54),4	1025,(21, 81),8	1033,(22, 81),8	1045,(5, 69),28	1073,(42, 81),8	1081,(62, 81),8	1099,(18, 81),8	1107,(52, 81),8	1136,(77, 81),8	1155,(7, 29),28	1183,(7, 64),82	1265,(25, 81),8	1273,(35, 81),8	1281,(40, 81),8	1289,(45, 81),8	1297,(65, 81),8	1675,(5, 79),54	1729,(28, 81),8	1737,(53, 81),8	1843,(8, 14),76	1919,(8, 19),62	1981,(10, 81),8	2404,(55, 81),8	2427,(51, 81),8	2435,(16, 81),8	2443,(46, 81),8	2451,(71, 81),8	2472,(57, 81),8	2501,(58, 81),8	2538,(66, 81),8	2624,(72, 81),8	2666,(80, 81),8	2674,(11, 81),8	2682,(12, 81),8	2758,(13, 81),8	2766,(15, 81),8	2774,(17, 81),8	2822,(20, 81),8	2830,(23, 81),8	2852,(27, 81),8	2860,(30, 81),8	2889,(32, 81),8	2906,(33, 81),8	2923,(26, 81),8	2931,(31, 81),8	2939,(36, 81),8	2960,(60, 81),8	2996,(37, 81),8	3022,(38, 81),8	3059,(43, 81),8	3102,(47, 81),8	3112,(50, 81),8	3120,(56, 81),8	3151,(61, 81),8	3401,(48, 81),8	3409,(63, 81),8	3606,(67, 81),8	3614,(68, 81),8	3622,(70, 81),8	3647,(73, 81),8	3655,(75, 81),8	3758,(76, 81),8	3770,(78, 81),8	
# Outgoing
487,(5, 9),30	517,(5, 25),2	521,(5, 11),26	547,(5, 14),54	601,(5, 16),4	605,(5, 29),8	613,(5, 46),2	615,(5, 56),2	617,(5, 61),6	623,(5, 71),6	639,(5, 35),4	643,(5, 70),6	649,(5, 17),4	653,(5, 22),20	673,(5, 26),40	713,(5, 27),2	715,(5, 36),28	743,(5, 37),2	745,(5, 42),16	761,(5, 57),2	763,(5, 62),2	765,(5, 67),4	769,(5, 80),12	793,(5, 24),60	853,(5, 34),4	859,(5, 32),118	977,(5, 39),26	1003,(5, 49),18	1021,(5, 54),4	1025,(5, 65),20	1045,(5, 69),28	1073,(5, 77),26	1099,(18, 81),8	1113,(5, 55),48	1161,(5, 72),514	1675,(5, 79),54	1729,(28, 81),8	1737,(53, 81),8	2453,(5, 66),48	2501,(58, 81),8	2758,(13, 81),8	2830,(23, 81),8	2906,(33, 81),8	3022,(38, 81),8	3059,(43, 81),8	3083,(5, 76),318	3401,(48, 81),8	3409,(63, 81),8	3614,(68, 81),8	3647,(73, 81),8	3770,(78, 81),8	
122,(4, 9),14	136,(4, 29),2	138,(4, 15),2	140,(4, 25),8	148,(4, 30),2	150,(4, 50),2	152,(4, 80),2	158,(4, 16),2	160,(4, 39),12	172,(4, 44),6	181,(4, 38),2	183,(4, 54),6	189,(4, 31),6	195,(4, 51),2	197,(4, 66),6	203,(4, 64),6	209,(4, 74),4	213,(4, 36),24	239,(4, 10),84	323,(4, 40),18	341,(4, 70),16	367,(4, 34),50	417,(4, 49),28	445,(4, 79),8	457,(4, 41),14	471,(4, 46),50	521,(4, 55),44	565,(4, 60),74	639,(4, 61),34	781,(4, 13),24	819,(4, 53),56	875,(4, 69),28	1033,(22, 81),8	1073,(42, 81),8	1081,(62, 81),8	1107,(52, 81),8	1136,(77, 81),8	2472,(57, 81),8	2624,(72, 81),8	2682,(12, 81),8	2774,(17, 81),8	2852,(27, 81),8	2889,(32, 81),8	2996,(37, 81),8	3102,(47, 81),8	3606,(67, 81),8	
71,(3, 10),2	73,(3, 15),2	75,(3, 19),8	83,(3, 29),6	89,(3, 34),14	103,(3, 45),2	105,(3, 54),2	108,(3, 17),2	110,(3, 20),28	138,(3, 27),2	140,(3, 44),6	146,(3, 69),10	156,(3, 72),2	158,(8, 15),2	162,(8, 52),2	165,(3, 35),66	231,(3, 70),8	239,(8, 9),4	243,(3, 37),52	295,(8, 24),4	299,(8, 32),8	307,(8, 34),14	321,(8, 44),2	323,(8, 79),2	325,(8, 37),4	329,(8, 69),4	333,(3, 28),50	383,(3, 43),20	403,(3, 53),2	405,(3, 58),2	407,(3, 63),10	417,(3, 78),2	419,(8, 40),12	431,(8, 70),4	435,(3, 33),178	613,(3, 39),62	675,(3, 52),20	695,(3, 59),98	793,(3, 62),14	807,(3, 68),12	819,(3, 77),40	897,(8, 43),34	931,(8, 48),2	933,(8, 78),14	953,(8, 74),10	963,(8, 75),4	967,(41, 81),8	977,(8, 12),28	1005,(8, 17),18	1025,(21, 81),8	1033,(8, 67),6	1059,(3, 60),54	1113,(3, 73),234	1347,(3, 75),448	1795,(8, 10),48	1843,(8, 14),76	1919,(8, 19),62	1981,(8, 20),96	2077,(8, 30),22	2099,(8, 33),80	2179,(8, 38),140	2319,(8, 47),22	2341,(8, 55),26	2367,(8, 58),52	2419,(8, 72),8	2427,(51, 81),8	2435,(16, 81),8	2443,(46, 81),8	2451,(71, 81),8	2538,(66, 81),8	2674,(11, 81),8	2821,(8, 60),102	2923,(26, 81),8	2931,(31, 81),8	2939,(36, 81),8	3120,(56, 81),8	3151,(61, 81),8	3758,(76, 81),8	
52,(2, 9),2	54,(2, 12),54	108,(2, 14),14	122,(2, 21),36	158,(2, 22),2	160,(2, 47),2	163,(2, 13),16	179,(2, 23),2	181,(2, 26),8	189,(2, 27),6	195,(2, 29),8	203,(2, 31),10	213,(2, 34),8	221,(2, 42),22	243,(2, 44),52	295,(2, 56),2	297,(2, 57),2	299,(2, 59),8	307,(2, 62),2	309,(2, 66),2	311,(2, 67),14	325,(2, 43),6	331,(2, 48),2	333,(2, 54),34	367,(7, 12),2	369,(2, 51),56	425,(2, 58),10	435,(2, 71),18	453,(2, 76),4	457,(2, 79),30	517,(7, 14),2	519,(7, 19),18	537,(7, 34),6	547,(7, 11),2	549,(7, 21),4	553,(7, 31),4	557,(7, 51),12	569,(7, 61),14	583,(7, 76),6	613,(7, 18),2	615,(7, 28),8	623,(7, 33),4	627,(7, 63),4	631,(2, 72),14	645,(2, 77),4	675,(7, 24),14	689,(7, 39),6	695,(7, 22),4	699,(7, 42),6	705,(7, 57),6	715,(7, 72),4	719,(7, 77),16	743,(7, 66),28	857,(7, 49),10	867,(7, 54),6	875,(7, 38),6	881,(7, 53),6	887,(7, 73),10	903,(7, 9),50	983,(7, 58),20	1039,(7, 48),56	1099,(7, 27),56	1155,(7, 29),28	1183,(7, 64),82	1265,(25, 81),8	1273,(35, 81),8	1281,(40, 81),8	1289,(45, 81),8	1297,(65, 81),8	1675,(7, 37),66	1981,(10, 81),8	2404,(55, 81),8	2666,(80, 81),8	2766,(15, 81),8	2822,(20, 81),8	2860,(30, 81),8	2960,(60, 81),8	3112,(50, 81),8	3622,(70, 81),8	3655,(75, 81),8	
1,(0, 2),14	15,(0, 3),14	29,(0, 4),14	43,(0, 5),14	57,(0, 7),14	71,(0, 8),14	85,(6, 10),14	99,(6, 13),64	163,(6, 15),2	165,(6, 16),16	181,(6, 17),2	183,(6, 18),142	325,(6, 21),44	369,(6, 22),262	631,(6, 23),150	781,(6, 25),12	793,(6, 30),12	805,(6, 31),2	807,(6, 32),2	809,(6, 35),12	821,(6, 40),140	961,(6, 43),22	983,(6, 45),40	1023,(6, 47),10	1033,(6, 48),6	1039,(6, 52),18	1057,(6, 55),2	1059,(6, 56),1372	2431,(6, 57),4	2435,(6, 61),4	2439,(6, 63),12	2451,(6, 66),2	2453,(6, 67),10	2463,(6, 70),122	2585,(6, 72),2	2587,(6, 75),10	2597,(6, 78),18	2615,(6, 80),14	2629,(1, 11),2	2631,(1, 12),6	2637,(1, 13),84	2721,(1, 15),2	2723,(1, 17),8	2731,(1, 20),54	2785,(1, 23),6	2791,(1, 26),2	2793,(1, 27),22	2815,(1, 30),6	2821,(1, 31),2	2823,(1, 32),20	2843,(1, 33),26	2869,(1, 36),2	2871,(1, 37),88	2959,(1, 38),26	2985,(1, 43),6	2991,(1, 47),74	3065,(1, 48),4	3069,(1, 50),6	3075,(1, 56),2	3077,(1, 61),6	3083,(1, 63),32	3115,(1, 67),454	3569,(1, 68),4	3573,(1, 70),2	3575,(1, 73),8	3583,(1, 75),6	3589,(1, 76),132	3721,(1, 78),12	
