1200
# CPU
0,201,1	1,32,2	3,93,2	5,174,2	7,158,2	9,123,2	11,122,2	13,77,2	15,179,2	17,92,2	19,40,2	21,58,2	23,21,2	25,161,2	27,193,2	29,151,2	31,90,2	33,105,2	35,37,2	37,186,2	39,22,2	41,24,2	43,166,2	45,76,2	47,188,2	49,183,2	51,79,2	53,121,2	55,60,2	57,185,2	59,98,2	61,102,2	63,42,2	65,82,2	67,103,2	69,23,2	71,149,2	73,141,2	75,69,2	77,26,2	79,29,2	81,189,2	83,27,2	85,164,2	87,180,2	89,30,2	91,48,2	93,94,2	95,131,2	97,89,2	99,197,2	101,163,2	103,110,2	105,145,2	107,129,2	109,191,2	111,194,2	113,104,2	115,51,2	117,173,2	119,124,2	121,33,2	123,88,2	125,70,2	127,143,2	129,120,2	131,155,2	133,36,2	135,71,2	137,133,2	139,96,2	141,187,2	143,31,2	145,169,2	147,119,2	149,86,2	151,118,2	153,64,2	155,100,2	157,140,2	159,112,2	161,195,2	163,115,2	165,25,2	167,78,2	169,153,2	171,65,2	173,172,2	175,152,2	177,176,2	179,97,2	181,147,2	183,53,2	185,57,2	187,91,2	189,142,2	191,178,2	193,113,2	195,154,2	197,80,2	199,72,2	201,132,2	203,134,2	205,74,2	207,144,2	209,34,2	211,28,2	213,67,2	215,139,2	217,182,2	219,148,2	221,45,2	223,99,2	225,128,2	227,1,2	229,192,2	231,5,2	233,44,2	235,181,2	237,84,2	239,150,2	241,171,2	243,114,2	245,11,2	247,109,2	249,63,2	251,56,2	253,108,2	255,136,2	257,138,2	259,75,2	261,50,2	263,184,2	265,106,2	267,95,2	269,168,2	271,107,2	273,81,2	275,87,2	277,19,2	279,6,2	281,7,2	283,15,2	285,16,2	287,20,2	289,17,2	291,3,2	293,4,2	295,13,2	297,12,2	333,18,2	391,2,2	491,9,2	599,10,2	851,14,2	1197,8,2	1199,0,1	
121,101,2	163,117,2	181,83,2	193,130,2	211,125,2	223,127,2	271,199,2	
79,68,2	151,177,2	157,196,2	175,165,2	229,73,2	241,38,2	247,39,2	265,61,2	
49,157,2	85,162,2	91,59,2	
7,111,2	43,49,2	109,35,2	115,66,2	169,167,2	
19,170,2	
25,137,2	37,159,2	61,175,2	133,55,2	217,46,2	235,85,2	
187,116,2	
31,52,2	97,62,2	127,41,2	145,156,2	
13,126,2	55,146,2	67,43,2	73,47,2	103,54,2	139,198,2	199,200,2	205,190,2	253,160,2	259,135,2	
# Incoming
27,(137, 19),2	29,(126, 6),2	31,(111, 7),2	33,(170, 4),2	39,(159, 14),2	45,(49, 10),2	57,(146, 17),2	63,(175, 7),2	69,(43, 10),4	75,(47, 2),4	87,(162, 15),4	91,(157, 10),2	93,(59, 18),4	99,(62, 20),6	105,(54, 12),6	111,(52, 9),2	117,(66, 13),6	123,(35, 9),6	135,(55, 16),8	143,(41, 4),8	151,(198, 13),8	159,(196, 20),12	171,(68, 18),4	183,(83, 17),16	199,(116, 3),18	217,(167, 4),14	231,(130, 13),18	249,(85, 12),32	281,(190, 18),22	303,(73, 18),30	333,(101, 2),6	339,(156, 2),10	349,(38, 2),42	391,(177, 9),12	403,(165, 9),16	419,(135, 9),72	491,(117, 10),14	505,(200, 10),20	525,(127, 10),26	551,(39, 10),48	599,(125, 14),24	623,(61, 14),228	851,(46, 8),26	877,(160, 8),68	945,(199, 8),252	
115,(201, 101),6	157,(201, 117),6	175,(201, 83),6	187,(201, 130),6	205,(201, 125),6	217,(201, 127),6	265,(201, 199),6	
73,(201, 68),6	145,(201, 177),6	151,(201, 196),6	169,(201, 165),6	223,(201, 73),6	235,(201, 38),6	241,(201, 39),6	259,(201, 61),6	
43,(201, 157),6	79,(201, 162),6	85,(201, 59),6	
1,(201, 111),6	37,(201, 49),6	103,(201, 35),6	109,(201, 66),6	163,(201, 167),6	
13,(201, 170),6	
19,(201, 137),6	31,(201, 159),6	55,(201, 175),6	127,(201, 55),6	211,(201, 46),6	229,(201, 85),6	
181,(201, 116),6	
25,(201, 52),6	91,(201, 62),6	121,(201, 41),6	139,(201, 156),6	
7,(201, 126),6	49,(201, 146),6	61,(201, 43),6	67,(201, 47),6	97,(201, 54),6	133,(201, 198),6	193,(201, 200),6	199,(201, 190),6	247,(201, 160),6	253,(201, 135),6	
# Outgoing
1,(201, 111),6	7,(201, 126),6	13,(201, 170),6	19,(201, 137),6	25,(201, 52),6	31,(201, 159),6	37,(201, 49),6	43,(201, 157),6	49,(201, 146),6	55,(201, 175),6	61,(201, 43),6	67,(201, 47),6	73,(201, 68),6	79,(201, 162),6	85,(201, 59),6	91,(201, 62),6	97,(201, 54),6	103,(201, 35),6	109,(201, 66),6	115,(201, 101),6	121,(201, 41),6	127,(201, 55),6	133,(201, 198),6	139,(201, 156),6	145,(201, 177),6	151,(201, 196),6	157,(201, 117),6	163,(201, 167),6	169,(201, 165),6	175,(201, 83),6	181,(201, 116),6	187,(201, 130),6	193,(201, 200),6	199,(201, 190),6	205,(201, 125),6	211,(201, 46),6	217,(201, 127),6	223,(201, 73),6	229,(201, 85),6	235,(201, 38),6	241,(201, 39),6	247,(201, 160),6	253,(201, 135),6	259,(201, 61),6	265,(201, 199),6	
183,(83, 17),16	231,(130, 13),18	333,(101, 2),6	491,(117, 10),14	525,(127, 10),26	599,(125, 14),24	945,(199, 8),252	
159,(196, 20),12	171,(68, 18),4	303,(73, 18),30	349,(38, 2),42	391,(177, 9),12	403,(165, 9),16	551,(39, 10),48	623,(61, 14),228	
87,(162, 15),4	91,(157, 10),2	93,(59, 18),4	
31,(111, 7),2	45,(49, 10),2	117,(66, 13),6	123,(35, 9),6	217,(167, 4),14	
33,(170, 4),2	
27,(137, 19),2	39,(159, 14),2	63,(175, 7),2	135,(55, 16),8	249,(85, 12),32	851,(46, 8),26	
199,(116, 3),18	
99,(62, 20),6	111,(52, 9),2	143,(41, 4),8	339,(156, 2),10	
29,(126, 6),2	57,(146, 17),2	69,(43, 10),4	75,(47, 2),4	105,(54, 12),6	151,(198, 13),8	281,(190, 18),22	419,(135, 9),72	505,(200, 10),20	877,(160, 8),68	
