15248
# CPU
205,33,1	283,45,1	4891,68,1	4933,81,1	5029,95,1	5434,65,1	8101,111,1	8290,116,1	8524,52,1	8683,112,1	9424,25,1	10438,79,1	10954,15,1	10999,20,1	11236,36,1	11293,92,1	11296,94,1	11386,108,1	11554,23,1	11557,24,1	11629,31,1	11767,91,1	11833,99,1	11839,106,1	11860,115,1	12139,19,1	12214,38,1	12217,56,1	12256,70,1	12286,76,1	12322,93,1	12337,100,1	12430,109,1	12895,118,1	12907,120,1	12991,21,1	13012,30,1	13024,41,1	13036,47,1	13039,48,1	13084,60,1	13087,62,1	13366,63,1	13375,74,1	13381,83,1	13456,86,1	13684,89,1	13711,110,1	13744,119,1	13885,34,1	13888,35,1	14002,37,1	14005,39,1	14008,55,1	14044,66,1	14089,67,1	14122,78,1	14131,80,1	14152,102,1	14161,113,1	14182,114,1	14551,13,1	14557,16,1	14623,22,1	14626,26,1	14632,27,1	14677,29,1	14683,46,1	14698,49,1	14713,51,1	14725,53,1	14785,57,1	14788,69,1	14794,72,1	14800,75,1	14803,82,1	14824,85,1	14860,90,1	14899,97,1	14902,105,1	15247,121,1	
55,11,1	56,44,1	57,73,1	58,103,1	59,71,1	60,87,1	
25,4,1	26,43,1	27,58,1	28,54,1	29,98,1	
37,8,1	38,14,1	39,101,1	40,84,1	41,117,1	
61,12,1	62,50,1	63,88,1	64,61,1	65,107,1	
7,1,1	8,32,1	9,64,1	43,9,1	44,104,1	
19,3,1	20,59,1	21,96,1	130,28,1	
49,10,1	50,40,1	51,42,1	
0,0,1	1,6,1	2,5,1	3,18,1	
13,2,1	14,17,1	31,7,1	32,77,1	
# Incoming
61,(6, 20),39	100,(6, 25),18	118,(6, 26),9	127,(1, 13),3	130,(6, 29),3	133,(6, 33),72	205,(6, 35),15	220,(6, 41),3	223,(6, 45),60	283,(6, 47),39	322,(6, 56),4503	4825,(6, 65),21	4846,(6, 66),21	4867,(6, 68),24	4891,(6, 72),3	4894,(6, 74),6	4900,(6, 81),33	4933,(6, 95),96	5029,(5, 13),3	5032,(5, 15),3	5035,(5, 31),3	5038,(5, 34),6	5044,(5, 46),18	5062,(5, 56),12	5074,(5, 65),360	5434,(5, 76),3	5437,(5, 78),3	5440,(5, 80),24	5464,(5, 94),45	5509,(5, 102),21	5530,(5, 105),3	5533,(5, 111),12	5545,(5, 112),12	5557,(5, 118),3	5560,(5, 119),9	5569,(18, 121),69	5638,(1, 15),18	5656,(1, 27),51	5707,(1, 30),21	5728,(1, 38),33	5761,(1, 41),30	5791,(1, 47),15	5806,(1, 49),9	5815,(1, 51),15	5830,(1, 52),15	5845,(1, 55),528	6373,(1, 62),6	6379,(1, 66),108	6487,(1, 70),9	6496,(1, 75),15	6511,(1, 78),3	6514,(1, 92),15	6529,(1, 114),99	6628,(1, 116),12	6640,(32, 121),69	6709,(64, 121),69	6778,(2, 22),6	6784,(2, 25),30	6814,(2, 29),12	6826,(2, 36),3	6829,(2, 39),15	6844,(2, 53),3	6847,(2, 57),3	6850,(2, 60),606	7456,(2, 62),84	7540,(2, 67),396	7936,(2, 74),15	7951,(2, 85),24	7975,(2, 102),12	7987,(2, 110),24	8011,(2, 111),90	8101,(2, 113),183	8284,(2, 114),3	8287,(2, 116),3	8290,(2, 120),60	8350,(17, 121),69	8419,(3, 52),105	8524,(3, 79),3	8527,(3, 86),6	8533,(3, 90),33	8566,(3, 91),21	8587,(3, 93),57	8644,(3, 99),3	8647,(3, 108),3	8650,(3, 112),33	8683,(3, 113),12	8695,(3, 115),3	8698,(59, 121),69	8767,(96, 121),69	8836,(4, 16),195	9031,(4, 19),96	9127,(4, 22),60	9187,(4, 25),237	9424,(4, 29),360	9784,(4, 30),6	9790,(4, 36),39	9829,(4, 38),510	10339,(4, 39),6	10345,(4, 53),18	10363,(4, 63),63	10426,(4, 70),6	10432,(4, 79),6	10438,(4, 83),3	10441,(4, 86),18	10459,(4, 89),15	10474,(4, 91),12	10486,(4, 99),6	10492,(4, 110),9	10501,(43, 121),69	10570,(58, 121),69	10639,(54, 121),69	10708,(98, 121),69	10777,(7, 13),90	10867,(7, 15),87	10954,(7, 20),45	10999,(7, 22),129	11128,(7, 23),18	11146,(7, 24),60	11206,(7, 27),3	11209,(7, 29),3	11212,(7, 36),24	11236,(7, 51),27	11263,(7, 57),24	11287,(7, 63),3	11290,(7, 92),3	11293,(7, 94),3	11296,(7, 102),3	11299,(7, 105),3	11302,(7, 106),18	11320,(7, 108),66	11386,(7, 109),24	11410,(7, 114),15	11425,(7, 119),42	11467,(77, 121),69	11536,(8, 21),3	11539,(8, 23),15	11554,(8, 24),3	11557,(8, 30),30	11587,(8, 31),42	11629,(8, 34),21	11650,(8, 35),3	11653,(8, 37),9	11662,(8, 38),3	11665,(8, 46),6	11671,(8, 48),60	11731,(8, 78),3	11734,(8, 91),33	11767,(8, 99),66	11833,(8, 100),3	11836,(8, 106),3	11839,(8, 113),12	11851,(8, 114),3	11854,(8, 115),6	11860,(14, 121),69	11929,(101, 121),69	11998,(84, 121),69	12067,(117, 121),69	12136,(9, 19),3	12139,(9, 21),36	12175,(9, 38),39	12214,(9, 56),3	12217,(9, 70),39	12256,(9, 76),30	12286,(9, 90),30	12316,(9, 93),6	12322,(9, 97),12	12334,(9, 100),3	12337,(9, 109),93	12430,(9, 118),465	12895,(9, 120),12	12907,(104, 121),69	12976,(10, 21),15	12991,(10, 30),21	13012,(10, 37),3	13015,(10, 41),9	13024,(10, 47),12	13036,(10, 48),3	13039,(10, 51),6	13045,(10, 60),39	13084,(10, 62),3	13087,(10, 63),279	13366,(10, 67),6	13372,(10, 74),3	13375,(10, 83),6	13381,(10, 86),75	13456,(10, 89),228	13684,(10, 110),27	13711,(10, 113),24	13735,(10, 119),9	13744,(40, 121),69	13813,(42, 121),69	13882,(11, 34),3	13885,(11, 35),3	13888,(11, 37),114	14002,(11, 39),3	14005,(11, 55),3	14008,(11, 66),36	14044,(11, 67),45	14089,(11, 69),3	14092,(11, 72),3	14095,(11, 75),6	14101,(11, 78),21	14122,(11, 80),9	14131,(11, 82),3	14134,(11, 97),3	14137,(11, 102),15	14152,(11, 113),9	14161,(11, 114),21	14182,(44, 121),69	14251,(73, 121),69	14320,(103, 121),69	14389,(71, 121),69	14458,(87, 121),69	14527,(12, 13),24	14551,(12, 16),6	14557,(12, 22),66	14623,(12, 26),3	14626,(12, 27),6	14632,(12, 29),45	14677,(12, 46),6	14683,(12, 49),15	14698,(12, 51),15	14713,(12, 53),12	14725,(12, 57),60	14785,(12, 69),3	14788,(12, 72),6	14794,(12, 75),6	14800,(12, 82),3	14803,(12, 85),21	14824,(12, 90),36	14860,(12, 97),39	14899,(12, 105),3	14902,(50, 121),69	14971,(88, 121),69	15040,(61, 121),69	15109,(107, 121),69	15178,(28, 121),69	
49,(0, 11),6	
19,(0, 4),6	
31,(0, 8),6	
55,(0, 12),6	
1,(0, 1),6	37,(0, 9),6	
13,(0, 3),6	127,(6, 28),3	
43,(0, 10),6	

7,(0, 2),6	25,(0, 7),6	
# Outgoing

13882,(11, 34),3	13885,(11, 35),3	13888,(11, 37),114	14002,(11, 39),3	14005,(11, 55),3	14008,(11, 66),36	14044,(11, 67),45	14089,(11, 69),3	14092,(11, 72),3	14095,(11, 75),6	14101,(11, 78),21	14122,(11, 80),9	14131,(11, 82),3	14134,(11, 97),3	14137,(11, 102),15	14152,(11, 113),9	14161,(11, 114),21	14182,(44, 121),69	14251,(73, 121),69	14320,(103, 121),69	14389,(71, 121),69	14458,(87, 121),69	
8836,(4, 16),195	9031,(4, 19),96	9127,(4, 22),60	9187,(4, 25),237	9424,(4, 29),360	9784,(4, 30),6	9790,(4, 36),39	9829,(4, 38),510	10339,(4, 39),6	10345,(4, 53),18	10363,(4, 63),63	10426,(4, 70),6	10432,(4, 79),6	10438,(4, 83),3	10441,(4, 86),18	10459,(4, 89),15	10474,(4, 91),12	10486,(4, 99),6	10492,(4, 110),9	10501,(43, 121),69	10570,(58, 121),69	10639,(54, 121),69	10708,(98, 121),69	
11536,(8, 21),3	11539,(8, 23),15	11554,(8, 24),3	11557,(8, 30),30	11587,(8, 31),42	11629,(8, 34),21	11650,(8, 35),3	11653,(8, 37),9	11662,(8, 38),3	11665,(8, 46),6	11671,(8, 48),60	11731,(8, 78),3	11734,(8, 91),33	11767,(8, 99),66	11833,(8, 100),3	11836,(8, 106),3	11839,(8, 113),12	11851,(8, 114),3	11854,(8, 115),6	11860,(14, 121),69	11929,(101, 121),69	11998,(84, 121),69	12067,(117, 121),69	
14527,(12, 13),24	14551,(12, 16),6	14557,(12, 22),66	14623,(12, 26),3	14626,(12, 27),6	14632,(12, 29),45	14677,(12, 46),6	14683,(12, 49),15	14698,(12, 51),15	14713,(12, 53),12	14725,(12, 57),60	14785,(12, 69),3	14788,(12, 72),6	14794,(12, 75),6	14800,(12, 82),3	14803,(12, 85),21	14824,(12, 90),36	14860,(12, 97),39	14899,(12, 105),3	14902,(50, 121),69	14971,(88, 121),69	15040,(61, 121),69	15109,(107, 121),69	
127,(1, 13),3	5638,(1, 15),18	5656,(1, 27),51	5707,(1, 30),21	5728,(1, 38),33	5761,(1, 41),30	5791,(1, 47),15	5806,(1, 49),9	5815,(1, 51),15	5830,(1, 52),15	5845,(1, 55),528	6373,(1, 62),6	6379,(1, 66),108	6487,(1, 70),9	6496,(1, 75),15	6511,(1, 78),3	6514,(1, 92),15	6529,(1, 114),99	6628,(1, 116),12	6640,(32, 121),69	6709,(64, 121),69	12136,(9, 19),3	12139,(9, 21),36	12175,(9, 38),39	12214,(9, 56),3	12217,(9, 70),39	12256,(9, 76),30	12286,(9, 90),30	12316,(9, 93),6	12322,(9, 97),12	12334,(9, 100),3	12337,(9, 109),93	12430,(9, 118),465	12895,(9, 120),12	12907,(104, 121),69	
8419,(3, 52),105	8524,(3, 79),3	8527,(3, 86),6	8533,(3, 90),33	8566,(3, 91),21	8587,(3, 93),57	8644,(3, 99),3	8647,(3, 108),3	8650,(3, 112),33	8683,(3, 113),12	8695,(3, 115),3	8698,(59, 121),69	8767,(96, 121),69	15178,(28, 121),69	
12976,(10, 21),15	12991,(10, 30),21	13012,(10, 37),3	13015,(10, 41),9	13024,(10, 47),12	13036,(10, 48),3	13039,(10, 51),6	13045,(10, 60),39	13084,(10, 62),3	13087,(10, 63),279	13366,(10, 67),6	13372,(10, 74),3	13375,(10, 83),6	13381,(10, 86),75	13456,(10, 89),228	13684,(10, 110),27	13711,(10, 113),24	13735,(10, 119),9	13744,(40, 121),69	13813,(42, 121),69	
1,(0, 1),6	7,(0, 2),6	13,(0, 3),6	19,(0, 4),6	25,(0, 7),6	31,(0, 8),6	37,(0, 9),6	43,(0, 10),6	49,(0, 11),6	55,(0, 12),6	61,(6, 20),39	100,(6, 25),18	118,(6, 26),9	127,(6, 28),3	130,(6, 29),3	133,(6, 33),72	205,(6, 35),15	220,(6, 41),3	223,(6, 45),60	283,(6, 47),39	322,(6, 56),4503	4825,(6, 65),21	4846,(6, 66),21	4867,(6, 68),24	4891,(6, 72),3	4894,(6, 74),6	4900,(6, 81),33	4933,(6, 95),96	5029,(5, 13),3	5032,(5, 15),3	5035,(5, 31),3	5038,(5, 34),6	5044,(5, 46),18	5062,(5, 56),12	5074,(5, 65),360	5434,(5, 76),3	5437,(5, 78),3	5440,(5, 80),24	5464,(5, 94),45	5509,(5, 102),21	5530,(5, 105),3	5533,(5, 111),12	5545,(5, 112),12	5557,(5, 118),3	5560,(5, 119),9	5569,(18, 121),69	
6778,(2, 22),6	6784,(2, 25),30	6814,(2, 29),12	6826,(2, 36),3	6829,(2, 39),15	6844,(2, 53),3	6847,(2, 57),3	6850,(2, 60),606	7456,(2, 62),84	7540,(2, 67),396	7936,(2, 74),15	7951,(2, 85),24	7975,(2, 102),12	7987,(2, 110),24	8011,(2, 111),90	8101,(2, 113),183	8284,(2, 114),3	8287,(2, 116),3	8290,(2, 120),60	8350,(17, 121),69	10777,(7, 13),90	10867,(7, 15),87	10954,(7, 20),45	10999,(7, 22),129	11128,(7, 23),18	11146,(7, 24),60	11206,(7, 27),3	11209,(7, 29),3	11212,(7, 36),24	11236,(7, 51),27	11263,(7, 57),24	11287,(7, 63),3	11290,(7, 92),3	11293,(7, 94),3	11296,(7, 102),3	11299,(7, 105),3	11302,(7, 106),18	11320,(7, 108),66	11386,(7, 109),24	11410,(7, 114),15	11425,(7, 119),42	11467,(77, 121),69	
