230
# CPU
0,0,1	1,3,1	2,86,1	3,14,1	4,42,1	5,105,1	6,60,1	7,80,1	8,1,1	9,113,1	10,93,1	11,17,1	12,36,1	13,89,1	14,7,1	15,108,1	16,94,1	17,92,1	18,44,1	19,83,1	20,81,1	21,25,1	22,90,1	23,98,1	24,10,1	25,24,1	26,119,1	27,111,1	28,43,1	29,4,1	30,71,1	31,102,1	32,49,1	33,95,1	34,107,1	35,20,1	36,57,1	37,62,1	38,58,1	39,8,1	40,97,1	41,46,1	42,32,1	43,110,1	44,35,1	45,82,1	46,38,1	47,68,1	48,59,1	49,19,1	50,115,1	51,15,1	52,91,1	53,2,1	54,109,1	55,85,1	56,69,1	57,29,1	58,55,1	59,52,1	60,30,1	61,106,1	62,65,1	63,12,1	64,104,1	65,27,1	66,67,1	67,78,1	68,87,1	69,114,1	70,74,1	71,16,1	72,117,1	73,41,1	74,9,1	75,99,1	76,50,1	77,47,1	78,101,1	79,103,1	80,120,1	81,79,1	82,28,1	83,61,1	84,56,1	85,13,1	86,48,1	87,40,1	88,51,1	89,112,1	90,22,1	151,64,1	229,121,1	
13,6,1	14,63,1	15,84,1	16,66,1	17,72,1	18,34,1	19,33,1	20,77,1	21,116,1	22,96,1	23,73,1	24,53,1	30,5,1	31,39,1	32,31,1	33,21,1	34,26,1	35,88,1	36,45,1	37,76,1	42,100,1	54,11,1	55,23,1	56,37,1	60,118,1	67,70,1	73,18,1	78,75,1	99,54,1	
# Incoming
14,(6, 40),3	17,(6, 112),12	31,(5, 51),9	40,(6, 22),15	55,(6, 64),96	151,(63, 121),3	154,(84, 121),3	157,(66, 121),3	160,(72, 121),3	163,(34, 121),3	166,(33, 121),3	169,(77, 121),3	172,(116, 121),3	175,(96, 121),3	178,(73, 121),3	181,(53, 121),3	184,(39, 121),3	187,(31, 121),3	190,(21, 121),3	193,(26, 121),3	196,(88, 121),3	199,(45, 121),3	202,(76, 121),3	205,(100, 121),3	208,(23, 121),3	211,(37, 121),3	214,(118, 121),3	217,(70, 121),3	220,(18, 121),3	223,(75, 121),3	226,(54, 121),3	
1,(0, 6),12	15,(7, 53),3	18,(0, 5),12	30,(7, 76),3	33,(4, 100),9	42,(0, 11),12	54,(7, 118),6	60,(2, 75),3	64,(12, 70),3	67,(12, 18),6	75,(9, 75),3	78,(1, 54),21	
# Outgoing
1,(0, 6),12	15,(7, 53),3	18,(0, 5),12	30,(7, 76),3	33,(4, 100),9	42,(0, 11),12	54,(7, 118),6	60,(2, 75),3	64,(12, 70),3	67,(12, 18),6	75,(9, 75),3	78,(1, 54),21	
14,(6, 40),3	17,(6, 112),12	31,(5, 51),9	40,(6, 22),15	55,(6, 64),96	151,(63, 121),3	154,(84, 121),3	157,(66, 121),3	160,(72, 121),3	163,(34, 121),3	166,(33, 121),3	169,(77, 121),3	172,(116, 121),3	175,(96, 121),3	178,(73, 121),3	181,(53, 121),3	184,(39, 121),3	187,(31, 121),3	190,(21, 121),3	193,(26, 121),3	196,(88, 121),3	199,(45, 121),3	202,(76, 121),3	205,(100, 121),3	208,(23, 121),3	211,(37, 121),3	214,(118, 121),3	217,(70, 121),3	220,(18, 121),3	223,(75, 121),3	226,(54, 121),3	
