142
# CPU
0,0,1	1,1,10	11,15,10	21,16,10	31,13,10	41,8,10	51,20,10	61,17,10	71,7,10	81,2,10	91,5,10	101,14,10	111,3,10	121,12,10	131,9,10	141,21,1	
13,11,10	43,18,10	93,19,10	105,10,10	
19,4,10	99,6,10	







# Incoming
23,(11, 21),4	29,(4, 21),4	53,(18, 21),4	103,(19, 21),4	109,(6, 21),4	115,(10, 21),4	
11,(1, 11),2	19,(1, 18),24	43,(1, 10),6	91,(2, 19),2	99,(2, 10),6	
13,(1, 4),6	93,(2, 6),6	







# Outgoing
11,(1, 11),2	13,(1, 4),6	19,(1, 18),24	43,(1, 10),6	91,(2, 19),2	93,(2, 6),6	99,(2, 10),6	
23,(11, 21),4	53,(18, 21),4	103,(19, 21),4	115,(10, 21),4	
29,(4, 21),4	109,(6, 21),4	







