1841
# CPU
0,0,1	1,4,21	22,7,21	43,18,21	64,39,21	85,33,21	106,22,21	127,10,21	148,13,21	169,31,21	190,3,21	211,21,21	232,8,21	253,30,21	274,36,21	295,32,21	316,14,21	337,29,21	358,19,21	379,40,21	451,9,21	487,6,21	527,20,21	567,5,21	611,17,21	659,23,21	719,35,21	791,12,21	887,28,21	995,27,21	1147,38,21	1299,16,21	1479,37,21	1819,26,21	1840,41,1	
45,1,21	89,2,21	110,24,21	131,34,21	
70,25,21	134,15,21	
90,11,21	
# Incoming
91,(25, 41),64	155,(11, 41),64	219,(24, 41),64	283,(34, 41),64	347,(1, 19),4	351,(2, 40),4	355,(15, 41),64	419,(2, 9),32	451,(2, 6),36	487,(2, 20),40	527,(1, 5),4	531,(2, 5),36	567,(2, 17),44	611,(1, 23),48	659,(1, 35),56	715,(2, 35),4	719,(1, 12),72	791,(2, 28),96	887,(2, 27),108	995,(1, 38),152	1147,(1, 16),152	1299,(2, 37),180	1479,(2, 26),340	
1,(0, 1),44	45,(0, 2),44	
66,(1, 25),4	89,(4, 15),4	110,(2, 15),24	
70,(1, 11),20	
# Outgoing
1,(0, 1),44	45,(0, 2),44	89,(4, 15),4	
66,(1, 25),4	70,(1, 11),20	110,(2, 15),24	219,(24, 41),64	283,(34, 41),64	347,(1, 19),4	351,(2, 40),4	419,(2, 9),32	451,(2, 6),36	487,(2, 20),40	527,(1, 5),4	531,(2, 5),36	567,(2, 17),44	611,(1, 23),48	659,(1, 35),56	715,(2, 35),4	719,(1, 12),72	791,(2, 28),96	887,(2, 27),108	995,(1, 38),152	1147,(1, 16),152	1299,(2, 37),180	1479,(2, 26),340	
91,(25, 41),64	355,(15, 41),64	
155,(11, 41),64	
