1416
# CPU
0,0,1	1,20,14	15,150,14	29,5,14	43,43,14	57,4,14	71,60,14	85,14,14	99,96,14	113,1,14	127,188,14	141,85,14	155,145,14	169,8,14	183,21,14	197,68,14	211,15,14	225,182,14	239,9,14	253,113,14	267,97,14	281,7,14	295,129,14	309,136,14	323,16,14	337,154,14	351,25,14	365,51,14	379,87,14	393,32,14	407,153,14	421,12,14	435,115,14	449,141,14	463,148,14	477,2,14	491,39,14	505,110,14	519,93,14	533,178,14	547,101,14	561,131,14	575,11,14	589,173,14	603,143,14	617,63,14	631,111,14	645,19,14	659,165,14	673,134,14	687,183,14	701,167,14	715,120,14	729,124,14	743,69,14	757,166,14	771,6,14	785,162,14	799,117,14	813,161,14	827,78,14	841,185,14	855,181,14	869,195,14	883,17,14	897,199,14	911,24,14	925,42,14	939,91,14	953,72,14	967,155,14	981,171,14	995,189,14	1009,18,14	1023,52,14	1037,191,14	1051,54,14	1065,133,14	1079,48,14	1093,77,14	1107,169,14	1121,10,14	1135,106,14	1149,121,14	1163,58,14	1177,92,14	1191,132,14	1205,55,14	1219,38,14	1233,197,14	1247,75,14	1261,3,14	1275,35,14	1289,128,14	1303,62,14	1317,102,14	1331,71,14	1345,74,14	1359,80,14	1373,37,14	1387,122,14	1401,198,14	1415,201,1	
40,146,14	104,144,14	128,70,14	186,90,14	226,28,14	278,104,14	296,67,14	338,47,14	353,172,14	436,105,14	450,156,14	492,94,14	506,57,14	528,79,14	590,159,14	604,83,14	627,114,14	660,33,14	674,41,14	693,152,14	719,180,14	786,56,14	800,26,14	814,86,14	832,31,14	898,30,14	912,142,14	1025,13,14	1039,22,14	1053,175,14	1067,163,14	1092,40,14	1137,103,14	1151,193,14	1165,194,14	1187,130,14	1278,151,14	1292,59,14	1306,107,14	
46,29,14	130,176,14	190,34,14	227,139,14	302,44,14	339,95,14	437,147,14	459,82,14	494,66,14	508,53,14	591,158,14	661,137,14	678,109,14	787,127,14	801,64,14	899,187,14	913,118,14	1031,27,14	1045,164,14	1062,190,14	1138,89,14	1152,170,14	1279,36,14	1293,135,14	1312,98,14	
132,196,14	229,174,14	309,23,14	341,61,14	438,119,14	496,49,14	594,50,14	664,100,14	788,125,14	802,138,14	900,46,14	918,81,14	1040,45,14	1054,126,14	1139,108,14	1276,73,14	1290,88,14	1304,84,14	
135,112,14	231,99,14	344,123,14	440,168,14	493,192,14	507,140,14	598,76,14	668,116,14	789,149,14	803,65,14	902,160,14	1048,184,14	1136,177,14	1150,179,14	1277,157,14	1291,186,14	1305,200,14	
# Incoming
54,(146, 201),2	60,(29, 201),2	118,(144, 201),2	142,(70, 201),2	144,(176, 201),2	146,(196, 201),2	149,(112, 201),2	200,(90, 201),2	204,(34, 201),2	240,(28, 201),2	242,(139, 201),2	244,(174, 201),2	246,(99, 201),2	292,(104, 201),2	310,(67, 201),2	316,(44, 201),2	323,(23, 201),2	352,(47, 201),2	354,(95, 201),2	356,(61, 201),2	358,(123, 201),2	367,(172, 201),2	450,(105, 201),2	452,(147, 201),2	454,(119, 201),2	456,(168, 201),2	464,(156, 201),2	473,(82, 201),2	506,(94, 201),2	508,(192, 201),2	510,(66, 201),2	512,(49, 201),2	520,(57, 201),2	522,(140, 201),2	524,(53, 201),2	542,(79, 201),2	604,(159, 201),2	606,(158, 201),2	608,(50, 201),2	612,(76, 201),2	618,(83, 201),2	641,(114, 201),2	674,(33, 201),2	676,(137, 201),2	678,(100, 201),2	682,(116, 201),2	688,(41, 201),2	692,(109, 201),2	707,(152, 201),2	733,(180, 201),2	800,(56, 201),2	802,(127, 201),2	804,(125, 201),2	806,(149, 201),2	814,(26, 201),2	816,(64, 201),2	818,(138, 201),2	820,(65, 201),2	828,(86, 201),2	846,(31, 201),2	912,(30, 201),2	914,(187, 201),2	916,(46, 201),2	918,(160, 201),2	926,(142, 201),2	928,(118, 201),2	932,(81, 201),2	1045,(27, 201),2	1047,(13, 198),1	1053,(22, 201),2	1055,(45, 201),2	1059,(164, 201),2	1062,(184, 201),2	1067,(175, 201),2	1069,(126, 201),2	1076,(190, 201),2	1081,(163, 201),2	1106,(40, 201),2	1150,(177, 201),2	1152,(103, 201),2	1154,(89, 201),2	1156,(108, 201),2	1164,(179, 201),2	1166,(193, 201),2	1168,(170, 201),2	1179,(194, 201),2	1201,(130, 201),2	1290,(73, 201),2	1292,(157, 201),2	1294,(151, 201),2	1296,(36, 201),2	1304,(88, 201),2	1306,(186, 201),2	1308,(59, 201),2	1310,(135, 201),2	1318,(84, 201),2	1320,(200, 201),2	1322,(107, 201),2	1326,(98, 201),2	
15,(20, 146),25	40,(20, 152),2	61,(20, 104),6	67,(5, 104),1	79,(5, 156),4	91,(4, 175),1	92,(4, 40),2	97,(4, 59),2	99,(14, 144),5	122,(14, 193),5	127,(1, 70),1	170,(1, 67),5	182,(1, 41),1	183,(8, 90),3	192,(8, 156),23	217,(14, 31),7	225,(15, 28),1	249,(15, 180),2	251,(15, 26),1	253,(9, 104),25	291,(15, 163),1	295,(7, 67),1	317,(7, 57),1	336,(7, 30),1	337,(16, 47),1	344,(16, 172),9	435,(12, 105),1	440,(12, 156),5	472,(16, 159),2	474,(12, 159),9	483,(15, 83),7	490,(16, 163),1	491,(2, 94),1	496,(2, 57),8	508,(2, 79),20	528,(8, 83),38	566,(7, 114),11	577,(2, 114),1	578,(16, 152),3	581,(12, 180),4	589,(11, 159),1	598,(11, 83),4	602,(11, 114),25	655,(2, 86),3	659,(19, 33),1	668,(19, 41),5	678,(19, 152),15	693,(19, 180),26	780,(19, 86),1	785,(6, 56),1	789,(6, 26),3	801,(6, 86),8	809,(6, 31),23	895,(2, 40),2	897,(17, 30),1	902,(17, 142),4	918,(0, 13),107	1062,(1, 40),30	1093,(7, 103),2	1104,(17, 193),6	1124,(12, 194),2	1126,(2, 194),1	1127,(7, 130),1	1128,(6, 151),1	1132,(1, 59),3	1136,(10, 103),1	1143,(10, 193),3	1152,(10, 194),13	1165,(20, 130),21	1186,(10, 130),1	1225,(20, 107),15	1240,(16, 107),1	1241,(12, 107),18	1277,(3, 151),1	1286,(3, 59),1	1294,(3, 107),3	
43,(5, 29),3	83,(4, 82),3	86,(20, 109),1	87,(20, 127),3	90,(20, 164),1	104,(14, 44),17	121,(14, 64),1	128,(1, 176),2	176,(1, 158),1	186,(8, 34),4	191,(8, 147),1	215,(8, 82),2	224,(8, 118),1	226,(15, 139),1	231,(15, 147),2	278,(9, 44),1	279,(8, 158),10	292,(8, 89),2	294,(9, 170),1	296,(7, 44),6	338,(16, 95),1	353,(7, 66),57	410,(1, 53),25	436,(12, 147),1	445,(12, 82),14	459,(12, 66),13	493,(2, 66),1	506,(2, 53),2	590,(11, 158),1	627,(14, 137),17	660,(19, 137),1	673,(19, 109),5	719,(19, 127),1	781,(2, 187),3	786,(6, 127),1	792,(6, 64),5	879,(20, 27),13	892,(7, 27),3	898,(17, 187),1	906,(17, 118),5	1025,(18, 27),6	1040,(13, 164),4	1045,(13, 190),1	1046,(13, 89),1	1052,(11, 190),4	1056,(6, 190),6	1095,(9, 89),2	1097,(17, 89),1	1110,(19, 170),5	1115,(18, 170),9	1129,(15, 36),2	1131,(2, 36),1	1137,(10, 89),1	1146,(10, 170),6	1187,(17, 135),6	1259,(12, 98),4	1278,(3, 36),1	1287,(3, 135),2	1297,(3, 98),15	
46,(5, 196),4	68,(5, 23),11	94,(5, 88),2	130,(1, 196),2	177,(1, 50),5	190,(8, 174),1	227,(15, 174),2	252,(8, 81),1	289,(9, 138),1	302,(7, 23),7	310,(7, 119),7	339,(16, 61),2	437,(12, 119),1	494,(2, 49),2	585,(7, 125),3	588,(2, 46),1	591,(11, 50),3	644,(11, 125),3	647,(7, 138),8	661,(19, 100),3	784,(11, 126),1	787,(6, 125),1	797,(6, 138),2	832,(20, 46),14	846,(14, 46),12	858,(8, 46),21	899,(17, 46),1	911,(17, 81),7	1039,(13, 45),1	1044,(13, 126),1	1048,(18, 126),4	1098,(16, 108),6	1138,(10, 108),1	1193,(7, 84),8	1275,(3, 73),1	1279,(3, 88),3	1289,(3, 84),2	
50,(20, 112),6	56,(20, 99),5	96,(5, 186),1	132,(1, 112),3	135,(1, 99),35	175,(1, 192),1	229,(15, 99),2	233,(15, 192),14	247,(15, 140),2	290,(9, 184),1	309,(7, 123),1	318,(7, 140),18	341,(16, 123),3	438,(12, 168),2	492,(2, 192),1	504,(2, 140),2	594,(11, 76),4	658,(2, 160),1	664,(19, 116),4	720,(2, 149),40	760,(15, 65),9	769,(2, 65),11	788,(6, 149),1	799,(6, 65),2	900,(17, 160),2	1031,(18, 184),17	1092,(12, 177),1	1135,(10, 177),1	1139,(10, 179),4	1201,(9, 200),12	1213,(16, 200),12	1276,(3, 157),1	1282,(3, 186),4	1291,(3, 200),3	
# Outgoing
15,(20, 146),25	40,(20, 152),2	43,(5, 29),3	46,(5, 196),4	50,(20, 112),6	56,(20, 99),5	61,(20, 104),6	67,(5, 104),1	68,(5, 23),11	79,(5, 156),4	83,(4, 82),3	86,(20, 109),1	87,(20, 127),3	90,(20, 164),1	91,(4, 175),1	92,(4, 40),2	94,(5, 88),2	96,(5, 186),1	97,(4, 59),2	99,(14, 144),5	104,(14, 44),17	121,(14, 64),1	122,(14, 193),5	127,(1, 70),1	128,(1, 176),2	130,(1, 196),2	132,(1, 112),3	135,(1, 99),35	170,(1, 67),5	175,(1, 192),1	176,(1, 158),1	177,(1, 50),5	182,(1, 41),1	183,(8, 90),3	186,(8, 34),4	190,(8, 174),1	191,(8, 147),1	192,(8, 156),23	215,(8, 82),2	217,(14, 31),7	224,(8, 118),1	225,(15, 28),1	226,(15, 139),1	227,(15, 174),2	229,(15, 99),2	231,(15, 147),2	233,(15, 192),14	247,(15, 140),2	249,(15, 180),2	251,(15, 26),1	252,(8, 81),1	253,(9, 104),25	278,(9, 44),1	279,(8, 158),10	289,(9, 138),1	290,(9, 184),1	291,(15, 163),1	292,(8, 89),2	294,(9, 170),1	295,(7, 67),1	296,(7, 44),6	302,(7, 23),7	309,(7, 123),1	310,(7, 119),7	317,(7, 57),1	318,(7, 140),18	336,(7, 30),1	337,(16, 47),1	338,(16, 95),1	339,(16, 61),2	341,(16, 123),3	344,(16, 172),9	353,(7, 66),57	410,(1, 53),25	435,(12, 105),1	436,(12, 147),1	437,(12, 119),1	438,(12, 168),2	440,(12, 156),5	445,(12, 82),14	459,(12, 66),13	472,(16, 159),2	474,(12, 159),9	483,(15, 83),7	490,(16, 163),1	491,(2, 94),1	492,(2, 192),1	493,(2, 66),1	494,(2, 49),2	496,(2, 57),8	504,(2, 140),2	506,(2, 53),2	508,(2, 79),20	528,(8, 83),38	566,(7, 114),11	577,(2, 114),1	578,(16, 152),3	581,(12, 180),4	585,(7, 125),3	588,(2, 46),1	589,(11, 159),1	590,(11, 158),1	591,(11, 50),3	594,(11, 76),4	598,(11, 83),4	602,(11, 114),25	627,(14, 137),17	644,(11, 125),3	647,(7, 138),8	655,(2, 86),3	658,(2, 160),1	659,(19, 33),1	660,(19, 137),1	661,(19, 100),3	664,(19, 116),4	668,(19, 41),5	673,(19, 109),5	678,(19, 152),15	693,(19, 180),26	719,(19, 127),1	720,(2, 149),40	760,(15, 65),9	769,(2, 65),11	780,(19, 86),1	781,(2, 187),3	784,(11, 126),1	785,(6, 56),1	786,(6, 127),1	787,(6, 125),1	788,(6, 149),1	789,(6, 26),3	792,(6, 64),5	797,(6, 138),2	799,(6, 65),2	801,(6, 86),8	809,(6, 31),23	832,(20, 46),14	846,(14, 46),12	858,(8, 46),21	879,(20, 27),13	892,(7, 27),3	895,(2, 40),2	897,(17, 30),1	898,(17, 187),1	899,(17, 46),1	900,(17, 160),2	902,(17, 142),4	906,(17, 118),5	911,(17, 81),7	918,(0, 13),107	1025,(18, 27),6	1031,(18, 184),17	1048,(18, 126),4	1052,(11, 190),4	1056,(6, 190),6	1062,(1, 40),30	1092,(12, 177),1	1093,(7, 103),2	1095,(9, 89),2	1097,(17, 89),1	1098,(16, 108),6	1104,(17, 193),6	1110,(19, 170),5	1115,(18, 170),9	1124,(12, 194),2	1126,(2, 194),1	1127,(7, 130),1	1128,(6, 151),1	1129,(15, 36),2	1131,(2, 36),1	1132,(1, 59),3	1135,(10, 177),1	1136,(10, 103),1	1137,(10, 89),1	1138,(10, 108),1	1139,(10, 179),4	1143,(10, 193),3	1146,(10, 170),6	1152,(10, 194),13	1165,(20, 130),21	1186,(10, 130),1	1187,(17, 135),6	1193,(7, 84),8	1201,(9, 200),12	1213,(16, 200),12	1225,(20, 107),15	1240,(16, 107),1	1241,(12, 107),18	1259,(12, 98),4	1275,(3, 73),1	1276,(3, 157),1	1277,(3, 151),1	1278,(3, 36),1	1279,(3, 88),3	1282,(3, 186),4	1286,(3, 59),1	1287,(3, 135),2	1289,(3, 84),2	1291,(3, 200),3	1294,(3, 107),3	1297,(3, 98),15	
54,(146, 201),2	118,(144, 201),2	142,(70, 201),2	200,(90, 201),2	240,(28, 201),2	292,(104, 201),2	310,(67, 201),2	352,(47, 201),2	367,(172, 201),2	450,(105, 201),2	464,(156, 201),2	506,(94, 201),2	520,(57, 201),2	542,(79, 201),2	604,(159, 201),2	618,(83, 201),2	641,(114, 201),2	674,(33, 201),2	688,(41, 201),2	707,(152, 201),2	733,(180, 201),2	800,(56, 201),2	814,(26, 201),2	828,(86, 201),2	846,(31, 201),2	912,(30, 201),2	926,(142, 201),2	1039,(13, 45),1	1040,(13, 164),4	1044,(13, 126),1	1045,(13, 190),1	1046,(13, 89),1	1047,(13, 198),1	1053,(22, 201),2	1067,(175, 201),2	1081,(163, 201),2	1106,(40, 201),2	1152,(103, 201),2	1166,(193, 201),2	1179,(194, 201),2	1201,(130, 201),2	1294,(151, 201),2	1308,(59, 201),2	1322,(107, 201),2	
60,(29, 201),2	144,(176, 201),2	204,(34, 201),2	242,(139, 201),2	316,(44, 201),2	354,(95, 201),2	452,(147, 201),2	473,(82, 201),2	510,(66, 201),2	524,(53, 201),2	606,(158, 201),2	676,(137, 201),2	692,(109, 201),2	802,(127, 201),2	816,(64, 201),2	914,(187, 201),2	928,(118, 201),2	1045,(27, 201),2	1059,(164, 201),2	1076,(190, 201),2	1154,(89, 201),2	1168,(170, 201),2	1296,(36, 201),2	1310,(135, 201),2	1326,(98, 201),2	
146,(196, 201),2	244,(174, 201),2	323,(23, 201),2	356,(61, 201),2	454,(119, 201),2	512,(49, 201),2	608,(50, 201),2	678,(100, 201),2	804,(125, 201),2	818,(138, 201),2	916,(46, 201),2	932,(81, 201),2	1055,(45, 201),2	1069,(126, 201),2	1156,(108, 201),2	1290,(73, 201),2	1304,(88, 201),2	1318,(84, 201),2	
149,(112, 201),2	246,(99, 201),2	358,(123, 201),2	456,(168, 201),2	508,(192, 201),2	522,(140, 201),2	612,(76, 201),2	682,(116, 201),2	806,(149, 201),2	820,(65, 201),2	918,(160, 201),2	1062,(184, 201),2	1150,(177, 201),2	1164,(179, 201),2	1292,(157, 201),2	1306,(186, 201),2	1320,(200, 201),2	
