202
# CPU
0,41,1	1,6,5	6,38,5	11,34,5	16,28,5	21,24,5	26,22,5	31,10,5	36,11,5	41,17,5	46,15,5	51,14,5	56,7,5	61,9,5	66,12,5	71,32,5	76,23,5	81,21,5	86,35,5	91,31,5	96,26,5	101,18,5	106,29,5	111,40,5	116,19,5	121,25,5	126,27,5	131,30,5	136,33,5	141,39,5	146,8,5	151,16,5	156,1,5	161,5,5	166,37,5	171,4,5	176,13,5	181,36,5	186,3,5	191,20,5	196,2,5	201,0,1	
# Incoming

# Outgoing

