260
# CPU
86,14,15	
79,13,15	208,16,15	
205,12,15	
96,18,15	192,11,15	
188,10,15	
99,19,15	177,9,15	
95,17,15	172,8,15	
169,6,15	207,15,15	241,20,15	
2,2,15	17,4,15	64,7,15	259,21,1	
0,0,1	1,1,15	85,3,15	168,5,15	
# Incoming
79,(1, 14),7	
77,(1, 13),2	86,(1, 16),3	207,(2, 16),1	
76,(1, 12),1	192,(2, 12),13	
68,(1, 11),8	95,(1, 18),1	188,(2, 11),4	
177,(2, 10),11	
96,(1, 19),3	172,(2, 9),5	
64,(1, 8),4	89,(1, 17),6	169,(2, 8),3	
16,(1, 6),35	99,(1, 20),1	168,(2, 6),1	205,(2, 15),2	208,(2, 20),33	
1,(0, 2),1	51,(1, 7),13	94,(13, 21),3	100,(3, 21),3	103,(14, 21),3	110,(17, 21),3	113,(18, 21),3	116,(19, 21),3	183,(5, 21),3	186,(6, 21),3	189,(8, 21),3	192,(9, 21),3	203,(10, 21),3	207,(11, 21),3	220,(12, 21),3	223,(15, 21),3	226,(16, 21),3	256,(20, 21),3	
17,(2, 3),68	85,(2, 5),83	
# Outgoing
103,(14, 21),3	
94,(13, 21),3	226,(16, 21),3	
220,(12, 21),3	
113,(18, 21),3	207,(11, 21),3	
203,(10, 21),3	
116,(19, 21),3	192,(9, 21),3	
110,(17, 21),3	189,(8, 21),3	
186,(6, 21),3	223,(15, 21),3	256,(20, 21),3	
17,(2, 3),68	85,(2, 5),83	168,(2, 6),1	169,(2, 8),3	172,(2, 9),5	177,(2, 10),11	188,(2, 11),4	192,(2, 12),13	205,(2, 15),2	207,(2, 16),1	208,(2, 20),33	
1,(0, 2),1	16,(1, 6),35	51,(1, 7),13	64,(1, 8),4	68,(1, 11),8	76,(1, 12),1	77,(1, 13),2	79,(1, 14),7	86,(1, 16),3	89,(1, 17),6	95,(1, 18),1	96,(1, 19),3	99,(1, 20),1	100,(3, 21),3	183,(5, 21),3	
