244
# CPU
0,201,1	1,98,1	2,47,1	3,108,1	4,172,1	5,140,1	6,171,1	7,93,1	8,74,1	9,120,1	10,190,1	11,54,1	12,57,1	13,121,1	14,91,1	15,66,1	16,78,1	17,76,1	18,24,1	19,109,1	20,186,1	21,177,1	22,71,1	23,173,1	24,123,1	25,128,1	26,60,1	27,90,1	28,185,1	29,27,1	30,107,1	31,113,1	32,132,1	33,150,1	34,191,1	35,50,1	36,64,1	37,65,1	38,142,1	39,94,1	40,155,1	41,110,1	42,135,1	43,67,1	44,28,1	45,122,1	46,144,1	47,70,1	48,39,1	49,129,1	50,124,1	51,116,1	52,117,1	53,176,1	54,198,1	55,164,1	56,200,1	57,193,1	58,147,1	59,43,1	60,169,1	61,136,1	62,166,1	63,161,1	64,42,1	65,133,1	66,61,1	67,141,1	68,59,1	69,23,1	70,127,1	71,131,1	72,145,1	73,68,1	74,45,1	75,92,1	76,88,1	77,51,1	78,87,1	79,46,1	80,184,1	81,53,1	82,134,1	83,156,1	84,96,1	85,37,1	86,26,1	87,114,1	88,97,1	89,41,1	90,143,1	91,36,1	92,149,1	93,111,1	94,106,1	95,170,1	96,118,1	97,55,1	98,105,1	99,197,1	100,44,1	101,181,1	102,52,1	103,63,1	104,103,1	105,152,1	106,188,1	107,48,1	108,187,1	109,148,1	110,25,1	111,183,1	112,73,1	113,38,1	114,84,1	115,153,1	116,34,1	117,192,1	118,125,1	119,112,1	120,167,1	121,69,1	122,21,1	123,175,1	124,157,1	125,102,1	126,31,1	127,56,1	128,95,1	129,115,1	130,196,1	131,33,1	132,179,1	133,22,1	134,130,1	135,29,1	136,101,1	137,139,1	138,100,1	139,83,1	140,79,1	141,174,1	142,58,1	143,189,1	144,154,1	145,32,1	146,168,1	147,162,1	148,119,1	149,35,1	150,199,1	151,99,1	152,159,1	153,75,1	154,160,1	155,72,1	156,81,1	157,80,1	158,9,1	159,137,1	160,151,1	161,165,1	162,104,1	163,195,1	164,82,1	165,163,1	166,7,1	167,178,1	168,86,1	169,49,1	170,6,1	171,77,1	172,3,1	173,85,1	174,13,1	175,30,1	176,14,1	177,19,1	178,158,1	179,146,1	180,194,1	181,1,1	182,62,1	183,5,1	184,4,1	185,182,1	186,8,1	187,2,1	188,17,1	189,10,1	190,20,1	191,12,1	192,15,1	193,18,1	194,16,1	242,11,1	243,0,1	
67,126,1	100,40,1	
34,89,1	133,138,1	166,180,1	
# Incoming
35,(89, 17),1	36,(89, 20),3	39,(89, 12),4	101,(40, 10),1	102,(126, 18),8	110,(40, 18),2	112,(40, 11),13	134,(138, 15),4	138,(138, 16),26	167,(180, 11),75	
34,(201, 126),33	67,(201, 40),33	
1,(201, 89),33	100,(201, 138),33	133,(201, 180),33	
# Outgoing
1,(201, 89),33	34,(201, 126),33	67,(201, 40),33	100,(201, 138),33	133,(201, 180),33	
101,(40, 10),1	102,(126, 18),8	110,(40, 18),2	112,(40, 11),13	
35,(89, 17),1	36,(89, 20),3	39,(89, 12),4	134,(138, 15),4	138,(138, 16),26	167,(180, 11),75	
