267
# CPU
0,201,1	1,47,1	2,74,1	3,108,1	4,140,1	5,78,1	6,120,1	7,121,1	8,172,1	9,190,1	10,66,1	11,54,1	12,57,1	13,171,1	14,91,1	15,93,1	16,109,1	17,24,1	18,186,1	19,177,1	20,76,1	21,71,1	22,128,1	23,60,1	24,90,1	25,123,1	26,185,1	27,132,1	28,107,1	29,27,1	30,113,1	31,150,1	32,173,1	33,65,1	34,191,1	35,50,1	36,89,1	37,135,1	38,94,1	39,70,1	40,39,1	41,155,1	42,28,1	43,122,1	44,142,1	45,110,1	46,144,1	47,67,1	48,129,1	49,198,1	50,124,1	51,117,1	52,116,1	53,176,1	54,164,1	55,200,1	56,147,1	57,169,1	58,43,1	59,133,1	60,61,1	61,42,1	62,136,1	63,166,1	64,161,1	65,193,1	66,126,1	67,45,1	68,23,1	69,131,1	70,145,1	71,59,1	72,141,1	73,68,1	74,51,1	75,92,1	76,87,1	77,88,1	78,46,1	79,184,1	80,156,1	81,96,1	82,134,1	83,53,1	84,37,1	85,114,1	86,143,1	87,26,1	88,97,1	89,41,1	90,36,1	91,111,1	92,106,1	93,170,1	94,149,1	95,118,1	96,55,1	97,197,1	98,105,1	99,181,1	100,40,1	101,52,1	102,63,1	103,103,1	104,152,1	105,188,1	106,48,1	107,187,1	108,148,1	109,25,1	110,183,1	111,73,1	112,38,1	113,84,1	114,153,1	115,34,1	116,192,1	117,125,1	118,112,1	119,69,1	120,167,1	121,21,1	122,175,1	123,157,1	124,31,1	125,102,1	126,56,1	127,115,1	128,95,1	129,196,1	130,33,1	131,179,1	132,22,1	133,130,1	134,29,1	135,101,1	136,139,1	137,100,1	138,83,1	139,79,1	140,174,1	141,58,1	142,189,1	143,154,1	144,32,1	145,168,1	146,162,1	147,119,1	148,35,1	149,199,1	150,99,1	151,159,1	152,75,1	153,160,1	154,72,1	155,81,1	156,80,1	157,9,1	158,137,1	159,151,1	160,165,1	161,104,1	162,195,1	163,82,1	164,163,1	165,180,1	166,178,1	167,49,1	168,6,1	169,77,1	170,3,1	171,12,1	172,85,1	173,30,1	174,158,1	175,18,1	176,146,1	177,194,1	178,20,1	179,62,1	180,5,1	181,10,1	182,182,1	183,2,1	184,98,1	185,17,1	186,7,1	187,4,1	188,19,1	189,8,1	190,15,1	191,13,1	192,1,1	193,14,1	194,16,1	265,11,1	266,0,1	
67,127,1	100,44,1	

34,64,1	133,138,1	166,86,1	
# Incoming
68,(127, 4),3	71,(64, 19),4	75,(64, 15),1	76,(64, 1),3	79,(127, 1),8	87,(127, 14),1	101,(44, 8),4	105,(44, 14),13	134,(138, 15),4	138,(138, 16),26	167,(86, 13),7	174,(86, 14),1	175,(86, 16),1	176,(86, 11),89	
34,(201, 127),33	67,(201, 44),33	

1,(201, 64),33	100,(201, 138),33	133,(201, 86),33	
# Outgoing
1,(201, 64),33	34,(201, 127),33	67,(201, 44),33	100,(201, 138),33	133,(201, 86),33	
68,(127, 4),3	79,(127, 1),8	87,(127, 14),1	101,(44, 8),4	105,(44, 14),13	

71,(64, 19),4	75,(64, 15),1	76,(64, 1),3	134,(138, 15),4	138,(138, 16),26	167,(86, 13),7	174,(86, 14),1	175,(86, 16),1	176,(86, 11),89	
