538
# CPU
0,41,1	1,15,10	11,32,10	21,31,10	31,22,10	41,40,10	51,35,10	61,36,10	71,33,10	81,24,10	91,9,10	101,20,10	111,19,10	121,12,10	131,30,10	141,11,10	151,6,10	161,7,10	171,29,10	181,17,10	191,38,10	201,34,10	211,23,10	221,14,10	231,5,10	241,16,10	251,21,10	261,39,10	271,26,10	281,8,10	291,1,10	301,3,10	343,2,10	527,4,10	537,0,1	
37,27,10	73,28,10	109,18,10	253,10,10	
145,13,10	181,37,10	217,25,10	
# Incoming
155,(13, 1),20	175,(28, 3),4	179,(18, 3),8	187,(27, 2),4	191,(18, 2),8	199,(13, 2),20	227,(25, 3),72	299,(10, 2),44	343,(37, 4),64	407,(10, 4),120	
1,(41, 27),36	37,(41, 28),36	73,(41, 18),36	217,(41, 10),36	
109,(41, 13),36	145,(41, 37),36	181,(41, 25),36	
# Outgoing
1,(41, 27),36	37,(41, 28),36	73,(41, 18),36	109,(41, 13),36	145,(41, 37),36	181,(41, 25),36	217,(41, 10),36	
175,(28, 3),4	179,(18, 3),8	187,(27, 2),4	191,(18, 2),8	299,(10, 2),44	407,(10, 4),120	
155,(13, 1),20	199,(13, 2),20	227,(25, 3),72	343,(37, 4),64	
