313
# CPU
122,6,1	147,10,1	155,14,1	160,18,1	
120,5,1	180,9,1	225,13,1	231,17,1	
4,2,1	87,4,1	167,8,1	201,12,1	226,16,1	310,20,1	
0,0,1	1,1,1	2,11,1	3,19,1	14,3,1	17,7,1	49,15,1	312,21,1	
# Incoming
120,(1, 6),2	122,(2, 10),25	147,(2, 14),8	155,(2, 18),5	
87,(1, 5),33	167,(1, 9),13	201,(1, 13),24	226,(1, 17),5	
1,(0, 2),3	4,(1, 4),83	122,(1, 8),45	180,(1, 12),21	225,(1, 16),1	231,(1, 20),79	
5,(2, 3),9	14,(2, 7),3	17,(2, 15),32	88,(4, 21),1	121,(5, 21),1	123,(6, 21),1	148,(10, 21),1	156,(14, 21),1	161,(18, 21),1	168,(8, 21),1	181,(9, 21),1	202,(12, 21),1	226,(13, 21),1	227,(16, 21),1	232,(17, 21),1	311,(20, 21),1	
# Outgoing
123,(6, 21),1	148,(10, 21),1	156,(14, 21),1	161,(18, 21),1	
121,(5, 21),1	181,(9, 21),1	226,(13, 21),1	232,(17, 21),1	
5,(2, 3),9	14,(2, 7),3	17,(2, 15),32	88,(4, 21),1	122,(2, 10),25	147,(2, 14),8	155,(2, 18),5	168,(8, 21),1	202,(12, 21),1	227,(16, 21),1	311,(20, 21),1	
1,(0, 2),3	4,(1, 4),83	87,(1, 5),33	120,(1, 6),2	122,(1, 8),45	167,(1, 9),13	180,(1, 12),21	201,(1, 13),24	225,(1, 16),1	226,(1, 17),5	231,(1, 20),79	
