56
# CPU
0,0,1	1,1,4	5,4,4	9,3,4	13,9,4	17,10,4	21,14,4	25,17,4	29,6,4	33,18,4	37,11,4	41,19,4	45,5,4	51,8,4	55,21,1	
4,2,4	8,16,4	12,15,4	16,20,4	20,7,4	24,13,4	
8,12,4	
# Incoming
12,(16, 21),6	18,(12, 21),6	24,(15, 21),6	30,(20, 21),6	36,(7, 21),6	42,(13, 21),6	48,(2, 8),3	
1,(0, 2),3	8,(1, 13),3	
5,(1, 12),3	
# Outgoing
1,(0, 2),3	5,(1, 12),3	8,(1, 13),3	
12,(16, 21),6	24,(15, 21),6	30,(20, 21),6	36,(7, 21),6	42,(13, 21),6	48,(2, 8),3	
18,(12, 21),6	
