60875
# CPU
121,3,4	241,6,4	361,9,4	481,12,4	8320,49,4	8776,89,4	8800,94,4	9208,116,4	33076,73,4	33172,83,4	34966,64,4	35590,95,4	35851,108,4	36295,21,4	36304,22,4	36325,25,4	36436,37,4	36550,41,4	36673,58,4	36688,61,4	37099,70,4	37210,82,4	37219,85,4	37321,92,4	37327,98,4	37336,99,4	37354,103,4	37363,105,4	37720,109,4	37936,112,4	37960,114,4	38125,120,4	38134,15,4	38138,17,4	38146,20,4	38167,24,4	38176,26,4	38203,27,4	38215,29,4	38311,31,4	38315,33,4	38371,35,4	38377,40,4	38383,43,4	38387,46,4	38404,52,4	38413,55,4	38881,67,4	38953,76,4	38962,78,4	39034,80,4	39073,84,4	39082,86,4	39106,87,4	39136,88,4	39140,90,4	39151,91,4	39211,93,4	39226,96,4	39382,97,4	39673,100,4	39679,101,4	39757,102,4	40042,104,4	40198,106,4	40202,107,4	40237,110,4	40258,111,4	40345,118,4	
61,2,4	181,5,4	301,8,4	421,11,4	31909,39,4	36328,30,4	36334,32,4	36400,34,4	36535,38,4	36622,47,4	36664,53,4	36901,56,4	37096,36,4	37186,77,4	37648,81,4	37723,44,4	37756,50,4	37795,59,4	37942,113,4	37963,117,4	38131,14,4	38143,19,4	38164,23,4	38416,62,4	38488,65,4	38917,68,4	38932,71,4	38936,75,4	39028,79,4	40342,115,4	40354,119,4	60874,121,1	
0,0,1	1,1,4	5,4,4	9,7,4	13,10,4	985,45,4	1279,28,4	2167,42,4	3895,13,4	5758,51,4	5815,60,4	5938,66,4	5944,69,4	6046,74,4	8209,16,4	8218,18,4	8314,48,4	8374,54,4	8378,57,4	8494,63,4	8638,72,4	
# Incoming
61,(0, 3),60	121,(2, 20),6	127,(2, 21),3	130,(2, 22),6	136,(2, 25),42	178,(2, 35),3	181,(0, 6),60	241,(2, 29),24	265,(2, 33),15	280,(2, 37),18	298,(2, 40),3	301,(0, 9),60	361,(2, 41),6	367,(2, 43),6	373,(2, 46),12	421,(0, 12),60	802,(2, 67),27	829,(2, 78),3	832,(2, 82),42	874,(2, 83),30	904,(2, 84),24	928,(2, 85),126	1054,(2, 86),3	1057,(2, 88),3	1060,(2, 89),12	1072,(2, 91),48	1120,(2, 95),3	1123,(2, 96),111	1234,(2, 99),9	1243,(2, 100),27	1270,(2, 103),12	1282,(2, 105),3	1285,(2, 107),33	1318,(2, 108),30	1348,(2, 109),18	1366,(2, 111),48	1414,(2, 112),6	1420,(2, 116),48	1468,(2, 118),33	1777,(5, 17),3	1780,(5, 22),60	1840,(5, 24),3	1843,(5, 27),162	2005,(5, 33),72	2077,(5, 37),21	2098,(5, 40),3	2101,(5, 41),3	2167,(5, 46),6	2173,(5, 49),33	2206,(5, 52),15	2221,(5, 55),9	2230,(5, 58),12	2617,(5, 64),15	2632,(5, 67),9	2641,(5, 70),3	2665,(5, 76),93	2758,(5, 80),30	2788,(5, 82),699	3487,(5, 83),24	3511,(5, 84),3	3514,(5, 86),3	3517,(5, 91),36	3553,(5, 92),57	3610,(5, 93),21	3631,(5, 95),3	3634,(5, 98),6	3640,(5, 103),3	3643,(5, 104),3	3646,(5, 106),84	3730,(5, 107),12	3742,(5, 109),57	3799,(5, 110),51	3850,(5, 111),30	3880,(5, 118),12	3895,(8, 15),93	4075,(8, 17),36	4111,(8, 20),96	4207,(8, 21),105	4312,(8, 22),81	4393,(8, 25),12	4405,(8, 26),12	4417,(8, 27),6	4423,(8, 31),1188	5611,(8, 35),6	5617,(8, 37),3	5620,(8, 40),24	5644,(8, 43),15	5758,(8, 52),51	5815,(8, 61),12	5827,(8, 64),3	5938,(8, 67),3	6046,(8, 76),18	6064,(8, 86),45	6109,(8, 87),3	6112,(8, 89),24	6136,(8, 91),3	6139,(8, 98),30	6169,(8, 99),1950	8119,(8, 102),9	8128,(8, 103),33	8161,(8, 105),3	8164,(8, 107),9	8173,(8, 109),3	8176,(8, 111),6	8182,(8, 112),3	8185,(8, 116),9	8194,(8, 120),3	8209,(11, 17),3	8218,(11, 20),3	8221,(11, 21),3	8224,(11, 24),6	8230,(11, 25),36	8266,(11, 29),3	8269,(11, 31),3	8272,(11, 37),12	8284,(11, 41),6	8290,(11, 43),15	8305,(11, 46),3	8314,(11, 49),6	8320,(11, 52),12	8377,(11, 58),48	8425,(11, 61),30	8494,(11, 64),93	8587,(11, 70),24	8638,(11, 76),3	8641,(11, 78),3	8644,(11, 82),9	8653,(11, 83),33	8686,(11, 84),60	8746,(11, 85),24	8770,(11, 88),3	8773,(11, 89),3	8776,(11, 92),3	8779,(11, 94),21	8800,(11, 95),156	8956,(11, 96),57	9013,(11, 99),21	9034,(11, 100),15	9049,(11, 102),42	9091,(11, 104),3	9094,(11, 105),45	9139,(11, 106),3	9142,(11, 109),18	9160,(11, 111),18	9178,(11, 112),27	9205,(11, 116),3	9208,(11, 118),3	31900,(1, 20),3	31903,(1, 22),6	31927,(1, 24),9	31936,(1, 25),3	31942,(1, 31),27	32005,(1, 37),12	32017,(1, 41),12	32029,(1, 43),144	32485,(1, 46),21	32542,(1, 52),48	32647,(1, 55),15	32761,(1, 70),291	33067,(1, 73),9	33076,(1, 76),3	33115,(1, 83),57	33172,(1, 85),3	33175,(1, 88),90	33265,(1, 90),27	33292,(1, 93),54	33346,(1, 95),21	33367,(1, 98),27	33394,(1, 99),12	33406,(1, 100),18	33424,(1, 101),6	33430,(1, 102),45	33475,(1, 103),3	33478,(1, 105),15	33493,(1, 106),60	33553,(1, 107),51	33604,(1, 108),3	33607,(1, 109),3	33610,(1, 111),9	33619,(1, 112),3	33784,(1, 114),6	33793,(1, 118),9	34519,(1, 120),3	34522,(4, 15),3	34528,(4, 20),3	34531,(4, 21),6	34537,(4, 22),18	34558,(4, 25),3	34561,(4, 27),3	34564,(4, 29),9	34582,(4, 31),3	34585,(4, 33),3	34597,(4, 37),3	34606,(4, 41),87	34711,(4, 55),141	34951,(4, 58),3	34954,(4, 61),3	34957,(4, 64),9	34966,(4, 67),57	35059,(4, 80),402	35461,(4, 82),15	35476,(4, 84),3	35479,(4, 87),6	35485,(4, 88),3	35488,(4, 90),99	35587,(4, 95),3	35590,(4, 96),9	35599,(4, 97),6	35605,(4, 99),9	35614,(4, 100),3	35617,(4, 101),3	35620,(4, 103),6	35626,(4, 104),12	35638,(4, 105),9	35647,(4, 106),3	35650,(4, 108),201	35851,(4, 110),3	35854,(4, 112),3	36013,(4, 114),6	36022,(4, 118),33	36085,(7, 15),9	36094,(7, 17),3	36277,(7, 20),15	36292,(7, 21),3	36295,(7, 22),9	36313,(7, 25),12	36328,(7, 31),3	36334,(7, 33),60	36433,(7, 37),3	36535,(7, 40),6	36541,(7, 41),9	36562,(7, 46),57	36664,(7, 55),3	36670,(7, 58),3	36673,(7, 61),15	36697,(7, 67),6	36703,(7, 70),396	37201,(7, 82),9	37210,(7, 85),9	37219,(7, 87),21	37240,(7, 92),81	37321,(7, 96),3	37324,(7, 98),3	37327,(7, 99),9	37336,(7, 103),18	37354,(7, 104),3	37357,(7, 105),6	37363,(7, 107),30	37393,(7, 109),327	37720,(7, 110),114	37834,(7, 111),99	37933,(7, 112),3	37942,(7, 114),18	37963,(7, 120),162	38131,(10, 15),3	38134,(10, 17),3	38143,(10, 20),3	38164,(10, 24),3	38167,(10, 26),9	38176,(10, 27),27	38203,(10, 29),12	38215,(10, 31),96	38311,(10, 33),3	38314,(10, 35),57	38371,(10, 40),6	38377,(10, 43),6	38383,(10, 46),3	38386,(10, 52),18	38404,(10, 55),9	38488,(10, 67),393	38935,(10, 76),18	38953,(10, 78),9	39028,(10, 80),6	39034,(10, 84),39	39073,(10, 86),9	39082,(10, 87),24	39106,(10, 88),30	39136,(10, 90),3	39139,(10, 91),12	39151,(10, 93),60	39211,(10, 96),15	39226,(10, 97),156	39382,(10, 100),291	39673,(10, 101),6	39679,(10, 102),78	39757,(10, 104),285	40042,(10, 106),156	40198,(10, 107),3	40201,(10, 110),36	40237,(10, 111),21	40342,(10, 118),3	
1,(0, 2),60	121,(0, 5),60	181,(3, 30),15	196,(3, 32),6	202,(3, 39),9	211,(3, 53),3	229,(3, 65),6	241,(0, 8),60	301,(3, 44),57	358,(6, 32),3	361,(0, 11),60	421,(3, 71),6	427,(3, 79),12	439,(3, 113),12	451,(3, 115),15	466,(3, 117),9	475,(6, 77),3	478,(9, 14),3	481,(1, 14),27	508,(1, 19),31392	31900,(6, 39),9	31909,(1, 23),18	31927,(6, 53),9	31936,(9, 38),3	31939,(1, 30),3	31942,(6, 34),27	31969,(1, 32),27	31996,(1, 34),6	32002,(1, 36),3	32005,(3, 38),78	32083,(3, 50),63	32146,(6, 50),15	32161,(6, 59),12	32173,(1, 44),312	32485,(6, 65),9	32494,(6, 117),9	32503,(9, 47),3	32506,(1, 47),27	32533,(1, 50),9	32542,(6, 36),30	32572,(9, 19),12	32584,(9, 23),6	32590,(1, 53),57	32647,(9, 36),12	32659,(9, 53),3	32662,(1, 56),21	32683,(1, 59),63	32746,(1, 62),3	32749,(1, 68),12	32761,(3, 36),276	33037,(9, 119),3	33040,(12, 62),6	33046,(12, 65),3	33049,(12, 117),3	33052,(1, 71),15	33079,(1, 81),36	33115,(3, 56),252	33367,(3, 68),183	33550,(6, 44),45	33595,(6, 115),21	33622,(1, 113),162	33790,(1, 117),3	33802,(1, 119),717	34525,(4, 19),3	34528,(9, 44),18	34555,(4, 23),3	34558,(12, 77),15	34573,(4, 30),9	34588,(4, 34),3	34591,(4, 36),6	34600,(4, 38),6	34606,(3, 77),78	34693,(4, 47),9	34702,(4, 50),3	34705,(4, 53),6	34711,(6, 14),78	34789,(9, 32),60	34852,(4, 56),99	34951,(9, 34),63	35023,(4, 77),36	35059,(3, 75),177	35236,(6, 30),108	35344,(6, 38),84	35428,(6, 68),102	35530,(9, 30),294	35824,(12, 19),27	35857,(4, 113),156	36019,(4, 115),3	36022,(12, 34),21	36055,(4, 119),3	36058,(7, 14),27	36097,(7, 19),180	36277,(12, 79),15	36304,(7, 23),9	36325,(7, 30),3	36331,(7, 32),3	36334,(9, 71),45	36394,(7, 34),6	36400,(7, 36),33	36436,(7, 38),99	36550,(7, 44),12	36562,(12, 23),48	36619,(7, 47),3	36622,(7, 53),42	36667,(7, 56),3	36688,(7, 62),9	36697,(9, 50),105	36802,(9, 56),99	36901,(9, 62),153	37054,(12, 36),42	37099,(7, 71),36	37135,(7, 77),51	37186,(7, 79),15	37201,(9, 81),447	37648,(12, 44),75	37723,(12, 50),33	37756,(12, 59),39	37795,(12, 75),33	37828,(12, 113),48	37936,(7, 113),6	37960,(7, 117),3	38125,(10, 14),6	38137,(10, 19),6	38146,(10, 23),18	38413,(10, 62),3	38416,(10, 65),72	38488,(49, 121),270	38881,(10, 68),36	38917,(10, 71),15	38932,(10, 75),3	38962,(10, 79),66	39028,(89, 121),270	39298,(94, 121),270	39568,(116, 121),270	39838,(73, 121),270	40258,(10, 115),84	40345,(10, 119),9	40354,(45, 121),270	40624,(28, 121),270	40894,(42, 121),270	41164,(13, 121),270	41434,(51, 121),270	41704,(60, 121),270	41974,(66, 121),270	42244,(69, 121),270	42514,(74, 121),270	42784,(16, 121),270	43054,(18, 121),270	43324,(48, 121),270	43594,(54, 121),270	43864,(57, 121),270	44134,(63, 121),270	44404,(72, 121),270	44674,(83, 121),270	44944,(64, 121),270	45214,(95, 121),270	45484,(108, 121),270	45754,(21, 121),270	46024,(22, 121),270	46294,(25, 121),270	46564,(37, 121),270	46834,(41, 121),270	47104,(58, 121),270	47374,(61, 121),270	47644,(70, 121),270	47914,(82, 121),270	48184,(85, 121),270	48454,(92, 121),270	48724,(98, 121),270	48994,(99, 121),270	49264,(103, 121),270	49534,(105, 121),270	49804,(109, 121),270	50074,(112, 121),270	50344,(114, 121),270	50614,(120, 121),270	50884,(15, 121),270	51154,(17, 121),270	51424,(20, 121),270	51694,(24, 121),270	51964,(26, 121),270	52234,(27, 121),270	52504,(29, 121),270	52774,(31, 121),270	53044,(33, 121),270	53314,(35, 121),270	53584,(40, 121),270	53854,(43, 121),270	54124,(46, 121),270	54394,(52, 121),270	54664,(55, 121),270	54934,(67, 121),270	55204,(76, 121),270	55474,(78, 121),270	55744,(80, 121),270	56014,(84, 121),270	56284,(86, 121),270	56554,(87, 121),270	56824,(88, 121),270	57094,(90, 121),270	57364,(91, 121),270	57634,(93, 121),270	57904,(96, 121),270	58174,(97, 121),270	58444,(100, 121),270	58714,(101, 121),270	58984,(102, 121),270	59254,(104, 121),270	59524,(106, 121),270	59794,(107, 121),270	60064,(110, 121),270	60334,(111, 121),270	60604,(118, 121),270	
65,(2, 16),27	92,(2, 18),3	95,(2, 45),6	101,(2, 54),9	110,(2, 69),9	125,(3, 13),12	137,(3, 28),3	140,(3, 42),27	167,(3, 45),6	185,(5, 66),12	214,(3, 57),15	235,(3, 69),39	274,(6, 51),3	277,(6, 57),3	280,(6, 66),12	301,(5, 51),30	331,(5, 69),30	365,(9, 42),3	368,(9, 48),3	371,(9, 54),6	377,(9, 72),3	385,(2, 66),417	802,(3, 72),42	844,(6, 16),39	883,(6, 45),102	985,(6, 63),30	1015,(6, 72),54	1069,(6, 74),36	1105,(9, 57),15	1120,(9, 60),36	1156,(12, 13),3	1159,(12, 18),48	1207,(12, 28),72	1279,(12, 42),6	1285,(12, 48),12	1297,(12, 54),9	1306,(12, 57),21	1327,(12, 69),18	1501,(5, 16),276	2104,(5, 42),63	2242,(5, 60),51	2293,(5, 63),324	2644,(5, 72),21	3892,(8, 13),3	3988,(8, 16),87	5659,(8, 48),57	5716,(8, 51),42	5809,(8, 54),3	5812,(8, 60),3	5830,(8, 66),108	5941,(8, 69),3	5944,(8, 72),99	6043,(8, 74),3	8197,(11, 16),12	8212,(11, 18),6	8308,(11, 48),6	8332,(11, 54),42	8374,(11, 57),3	8455,(11, 63),39	8611,(11, 72),27	
# Outgoing
125,(3, 13),12	137,(3, 28),3	140,(3, 42),27	167,(3, 45),6	181,(3, 30),15	196,(3, 32),6	202,(3, 39),9	211,(3, 53),3	214,(3, 57),15	229,(3, 65),6	235,(3, 69),39	274,(6, 51),3	277,(6, 57),3	280,(6, 66),12	301,(3, 44),57	358,(6, 32),3	365,(9, 42),3	368,(9, 48),3	371,(9, 54),6	377,(9, 72),3	421,(3, 71),6	427,(3, 79),12	439,(3, 113),12	451,(3, 115),15	466,(3, 117),9	475,(6, 77),3	478,(9, 14),3	802,(3, 72),42	844,(6, 16),39	883,(6, 45),102	985,(6, 63),30	1015,(6, 72),54	1069,(6, 74),36	1105,(9, 57),15	1120,(9, 60),36	1156,(12, 13),3	1159,(12, 18),48	1207,(12, 28),72	1279,(12, 42),6	1285,(12, 48),12	1297,(12, 54),9	1306,(12, 57),21	1327,(12, 69),18	31900,(6, 39),9	31927,(6, 53),9	31936,(9, 38),3	31942,(6, 34),27	32005,(3, 38),78	32083,(3, 50),63	32146,(6, 50),15	32161,(6, 59),12	32485,(6, 65),9	32494,(6, 117),9	32503,(9, 47),3	32542,(6, 36),30	32572,(9, 19),12	32584,(9, 23),6	32647,(9, 36),12	32659,(9, 53),3	32761,(3, 36),276	33037,(9, 119),3	33040,(12, 62),6	33046,(12, 65),3	33049,(12, 117),3	33115,(3, 56),252	33367,(3, 68),183	33550,(6, 44),45	33595,(6, 115),21	34528,(9, 44),18	34558,(12, 77),15	34606,(3, 77),78	34711,(6, 14),78	34789,(9, 32),60	34951,(9, 34),63	35059,(3, 75),177	35236,(6, 30),108	35344,(6, 38),84	35428,(6, 68),102	35530,(9, 30),294	35824,(12, 19),27	36022,(12, 34),21	36277,(12, 79),15	36334,(9, 71),45	36562,(12, 23),48	36697,(9, 50),105	36802,(9, 56),99	36901,(9, 62),153	37054,(12, 36),42	37201,(9, 81),447	37648,(12, 44),75	37723,(12, 50),33	37756,(12, 59),39	37795,(12, 75),33	37828,(12, 113),48	38488,(49, 121),270	39028,(89, 121),270	39298,(94, 121),270	39568,(116, 121),270	39838,(73, 121),270	44674,(83, 121),270	44944,(64, 121),270	45214,(95, 121),270	45484,(108, 121),270	45754,(21, 121),270	46024,(22, 121),270	46294,(25, 121),270	46564,(37, 121),270	46834,(41, 121),270	47104,(58, 121),270	47374,(61, 121),270	47644,(70, 121),270	47914,(82, 121),270	48184,(85, 121),270	48454,(92, 121),270	48724,(98, 121),270	48994,(99, 121),270	49264,(103, 121),270	49534,(105, 121),270	49804,(109, 121),270	50074,(112, 121),270	50344,(114, 121),270	50614,(120, 121),270	50884,(15, 121),270	51154,(17, 121),270	51424,(20, 121),270	51694,(24, 121),270	51964,(26, 121),270	52234,(27, 121),270	52504,(29, 121),270	52774,(31, 121),270	53044,(33, 121),270	53314,(35, 121),270	53584,(40, 121),270	53854,(43, 121),270	54124,(46, 121),270	54394,(52, 121),270	54664,(55, 121),270	54934,(67, 121),270	55204,(76, 121),270	55474,(78, 121),270	55744,(80, 121),270	56014,(84, 121),270	56284,(86, 121),270	56554,(87, 121),270	56824,(88, 121),270	57094,(90, 121),270	57364,(91, 121),270	57634,(93, 121),270	57904,(96, 121),270	58174,(97, 121),270	58444,(100, 121),270	58714,(101, 121),270	58984,(102, 121),270	59254,(104, 121),270	59524,(106, 121),270	59794,(107, 121),270	60064,(110, 121),270	60334,(111, 121),270	60604,(118, 121),270	
65,(2, 16),27	92,(2, 18),3	95,(2, 45),6	101,(2, 54),9	110,(2, 69),9	121,(2, 20),6	127,(2, 21),3	130,(2, 22),6	136,(2, 25),42	178,(2, 35),3	185,(5, 66),12	241,(2, 29),24	265,(2, 33),15	280,(2, 37),18	298,(2, 40),3	301,(5, 51),30	331,(5, 69),30	361,(2, 41),6	367,(2, 43),6	373,(2, 46),12	385,(2, 66),417	802,(2, 67),27	829,(2, 78),3	832,(2, 82),42	874,(2, 83),30	904,(2, 84),24	928,(2, 85),126	1054,(2, 86),3	1057,(2, 88),3	1060,(2, 89),12	1072,(2, 91),48	1120,(2, 95),3	1123,(2, 96),111	1234,(2, 99),9	1243,(2, 100),27	1270,(2, 103),12	1282,(2, 105),3	1285,(2, 107),33	1318,(2, 108),30	1348,(2, 109),18	1366,(2, 111),48	1414,(2, 112),6	1420,(2, 116),48	1468,(2, 118),33	1501,(5, 16),276	1777,(5, 17),3	1780,(5, 22),60	1840,(5, 24),3	1843,(5, 27),162	2005,(5, 33),72	2077,(5, 37),21	2098,(5, 40),3	2101,(5, 41),3	2104,(5, 42),63	2167,(5, 46),6	2173,(5, 49),33	2206,(5, 52),15	2221,(5, 55),9	2230,(5, 58),12	2242,(5, 60),51	2293,(5, 63),324	2617,(5, 64),15	2632,(5, 67),9	2641,(5, 70),3	2644,(5, 72),21	2665,(5, 76),93	2758,(5, 80),30	2788,(5, 82),699	3487,(5, 83),24	3511,(5, 84),3	3514,(5, 86),3	3517,(5, 91),36	3553,(5, 92),57	3610,(5, 93),21	3631,(5, 95),3	3634,(5, 98),6	3640,(5, 103),3	3643,(5, 104),3	3646,(5, 106),84	3730,(5, 107),12	3742,(5, 109),57	3799,(5, 110),51	3850,(5, 111),30	3880,(5, 118),12	3892,(8, 13),3	3895,(8, 15),93	3988,(8, 16),87	4075,(8, 17),36	4111,(8, 20),96	4207,(8, 21),105	4312,(8, 22),81	4393,(8, 25),12	4405,(8, 26),12	4417,(8, 27),6	4423,(8, 31),1188	5611,(8, 35),6	5617,(8, 37),3	5620,(8, 40),24	5644,(8, 43),15	5659,(8, 48),57	5716,(8, 51),42	5758,(8, 52),51	5809,(8, 54),3	5812,(8, 60),3	5815,(8, 61),12	5827,(8, 64),3	5830,(8, 66),108	5938,(8, 67),3	5941,(8, 69),3	5944,(8, 72),99	6043,(8, 74),3	6046,(8, 76),18	6064,(8, 86),45	6109,(8, 87),3	6112,(8, 89),24	6136,(8, 91),3	6139,(8, 98),30	6169,(8, 99),1950	8119,(8, 102),9	8128,(8, 103),33	8161,(8, 105),3	8164,(8, 107),9	8173,(8, 109),3	8176,(8, 111),6	8182,(8, 112),3	8185,(8, 116),9	8194,(8, 120),3	8197,(11, 16),12	8209,(11, 17),3	8212,(11, 18),6	8218,(11, 20),3	8221,(11, 21),3	8224,(11, 24),6	8230,(11, 25),36	8266,(11, 29),3	8269,(11, 31),3	8272,(11, 37),12	8284,(11, 41),6	8290,(11, 43),15	8305,(11, 46),3	8308,(11, 48),6	8314,(11, 49),6	8320,(11, 52),12	8332,(11, 54),42	8374,(11, 57),3	8377,(11, 58),48	8425,(11, 61),30	8455,(11, 63),39	8494,(11, 64),93	8587,(11, 70),24	8611,(11, 72),27	8638,(11, 76),3	8641,(11, 78),3	8644,(11, 82),9	8653,(11, 83),33	8686,(11, 84),60	8746,(11, 85),24	8770,(11, 88),3	8773,(11, 89),3	8776,(11, 92),3	8779,(11, 94),21	8800,(11, 95),156	8956,(11, 96),57	9013,(11, 99),21	9034,(11, 100),15	9049,(11, 102),42	9091,(11, 104),3	9094,(11, 105),45	9139,(11, 106),3	9142,(11, 109),18	9160,(11, 111),18	9178,(11, 112),27	9205,(11, 116),3	9208,(11, 118),3	
1,(0, 2),60	61,(0, 3),60	121,(0, 5),60	181,(0, 6),60	241,(0, 8),60	301,(0, 9),60	361,(0, 11),60	421,(0, 12),60	481,(1, 14),27	508,(1, 19),31392	31900,(1, 20),3	31903,(1, 22),6	31909,(1, 23),18	31927,(1, 24),9	31936,(1, 25),3	31939,(1, 30),3	31942,(1, 31),27	31969,(1, 32),27	31996,(1, 34),6	32002,(1, 36),3	32005,(1, 37),12	32017,(1, 41),12	32029,(1, 43),144	32173,(1, 44),312	32485,(1, 46),21	32506,(1, 47),27	32533,(1, 50),9	32542,(1, 52),48	32590,(1, 53),57	32647,(1, 55),15	32662,(1, 56),21	32683,(1, 59),63	32746,(1, 62),3	32749,(1, 68),12	32761,(1, 70),291	33052,(1, 71),15	33067,(1, 73),9	33076,(1, 76),3	33079,(1, 81),36	33115,(1, 83),57	33172,(1, 85),3	33175,(1, 88),90	33265,(1, 90),27	33292,(1, 93),54	33346,(1, 95),21	33367,(1, 98),27	33394,(1, 99),12	33406,(1, 100),18	33424,(1, 101),6	33430,(1, 102),45	33475,(1, 103),3	33478,(1, 105),15	33493,(1, 106),60	33553,(1, 107),51	33604,(1, 108),3	33607,(1, 109),3	33610,(1, 111),9	33619,(1, 112),3	33622,(1, 113),162	33784,(1, 114),6	33790,(1, 117),3	33793,(1, 118),9	33802,(1, 119),717	34519,(1, 120),3	34522,(4, 15),3	34525,(4, 19),3	34528,(4, 20),3	34531,(4, 21),6	34537,(4, 22),18	34555,(4, 23),3	34558,(4, 25),3	34561,(4, 27),3	34564,(4, 29),9	34573,(4, 30),9	34582,(4, 31),3	34585,(4, 33),3	34588,(4, 34),3	34591,(4, 36),6	34597,(4, 37),3	34600,(4, 38),6	34606,(4, 41),87	34693,(4, 47),9	34702,(4, 50),3	34705,(4, 53),6	34711,(4, 55),141	34852,(4, 56),99	34951,(4, 58),3	34954,(4, 61),3	34957,(4, 64),9	34966,(4, 67),57	35023,(4, 77),36	35059,(4, 80),402	35461,(4, 82),15	35476,(4, 84),3	35479,(4, 87),6	35485,(4, 88),3	35488,(4, 90),99	35587,(4, 95),3	35590,(4, 96),9	35599,(4, 97),6	35605,(4, 99),9	35614,(4, 100),3	35617,(4, 101),3	35620,(4, 103),6	35626,(4, 104),12	35638,(4, 105),9	35647,(4, 106),3	35650,(4, 108),201	35851,(4, 110),3	35854,(4, 112),3	35857,(4, 113),156	36013,(4, 114),6	36019,(4, 115),3	36022,(4, 118),33	36055,(4, 119),3	36058,(7, 14),27	36085,(7, 15),9	36094,(7, 17),3	36097,(7, 19),180	36277,(7, 20),15	36292,(7, 21),3	36295,(7, 22),9	36304,(7, 23),9	36313,(7, 25),12	36325,(7, 30),3	36328,(7, 31),3	36331,(7, 32),3	36334,(7, 33),60	36394,(7, 34),6	36400,(7, 36),33	36433,(7, 37),3	36436,(7, 38),99	36535,(7, 40),6	36541,(7, 41),9	36550,(7, 44),12	36562,(7, 46),57	36619,(7, 47),3	36622,(7, 53),42	36664,(7, 55),3	36667,(7, 56),3	36670,(7, 58),3	36673,(7, 61),15	36688,(7, 62),9	36697,(7, 67),6	36703,(7, 70),396	37099,(7, 71),36	37135,(7, 77),51	37186,(7, 79),15	37201,(7, 82),9	37210,(7, 85),9	37219,(7, 87),21	37240,(7, 92),81	37321,(7, 96),3	37324,(7, 98),3	37327,(7, 99),9	37336,(7, 103),18	37354,(7, 104),3	37357,(7, 105),6	37363,(7, 107),30	37393,(7, 109),327	37720,(7, 110),114	37834,(7, 111),99	37933,(7, 112),3	37936,(7, 113),6	37942,(7, 114),18	37960,(7, 117),3	37963,(7, 120),162	38125,(10, 14),6	38131,(10, 15),3	38134,(10, 17),3	38137,(10, 19),6	38143,(10, 20),3	38146,(10, 23),18	38164,(10, 24),3	38167,(10, 26),9	38176,(10, 27),27	38203,(10, 29),12	38215,(10, 31),96	38311,(10, 33),3	38314,(10, 35),57	38371,(10, 40),6	38377,(10, 43),6	38383,(10, 46),3	38386,(10, 52),18	38404,(10, 55),9	38413,(10, 62),3	38416,(10, 65),72	38488,(10, 67),393	38881,(10, 68),36	38917,(10, 71),15	38932,(10, 75),3	38935,(10, 76),18	38953,(10, 78),9	38962,(10, 79),66	39028,(10, 80),6	39034,(10, 84),39	39073,(10, 86),9	39082,(10, 87),24	39106,(10, 88),30	39136,(10, 90),3	39139,(10, 91),12	39151,(10, 93),60	39211,(10, 96),15	39226,(10, 97),156	39382,(10, 100),291	39673,(10, 101),6	39679,(10, 102),78	39757,(10, 104),285	40042,(10, 106),156	40198,(10, 107),3	40201,(10, 110),36	40237,(10, 111),21	40258,(10, 115),84	40342,(10, 118),3	40345,(10, 119),9	40354,(45, 121),270	40624,(28, 121),270	40894,(42, 121),270	41164,(13, 121),270	41434,(51, 121),270	41704,(60, 121),270	41974,(66, 121),270	42244,(69, 121),270	42514,(74, 121),270	42784,(16, 121),270	43054,(18, 121),270	43324,(48, 121),270	43594,(54, 121),270	43864,(57, 121),270	44134,(63, 121),270	44404,(72, 121),270	
