3101
# CPU
745,5,39	784,45,39	829,21,39	871,69,39	910,49,39	1059,98,39	1098,118,39	1137,37,39	1280,108,39	1489,10,39	1528,15,39	1567,28,39	1606,57,39	1645,88,39	1684,61,39	1723,103,39	1762,78,39	1801,83,39	1939,53,39	2021,41,39	2127,65,39	2166,73,39	2339,24,39	2378,33,39	2481,93,39	2520,113,39	
559,4,39	598,23,39	637,72,39	676,77,39	715,112,39	754,97,39	930,48,39	1303,9,39	1342,44,39	1381,20,39	1420,60,39	1459,32,39	1498,92,39	1537,14,39	1576,36,39	1883,52,39	1947,56,39	1986,68,39	2025,87,39	2163,102,39	2327,117,39	2366,27,39	2405,40,39	2444,64,39	2483,82,39	2522,107,39	
373,3,39	610,59,39	649,81,39	688,86,39	727,116,39	766,111,39	822,13,39	861,18,39	1117,8,39	1156,22,39	1195,55,39	1346,31,39	1385,96,39	1604,51,39	1643,101,39	1901,76,39	1971,26,39	2010,35,39	2063,43,39	2125,63,39	2164,91,39	2375,39,39	2414,47,39	2453,71,39	2837,67,39	3059,106,39	
187,2,39	226,58,39	265,109,39	721,104,39	931,7,39	970,38,39	1009,66,39	1048,74,39	1087,29,39	1166,42,39	1286,119,39	1354,84,39	1393,99,39	1675,12,39	1714,34,39	1753,54,39	1792,79,39	1831,25,39	1870,62,39	1909,50,39	1948,46,39	1987,89,39	2026,17,39	2065,94,39	2405,70,39	2509,114,39	
0,0,1	1,1,39	40,11,39	79,6,39	118,19,39	157,115,39	631,16,39	670,100,39	992,105,39	1615,30,39	1654,75,39	1693,95,39	1745,80,39	1907,85,39	1946,90,39	2289,110,39	2328,120,39	3100,121,1	
# Incoming
559,(0, 5),186	745,(2, 21),22	767,(2, 73),40	807,(2, 93),4	811,(2, 98),2	813,(3, 21),16	829,(3, 69),42	871,(4, 49),16	887,(4, 53),12	899,(4, 57),30	929,(4, 98),130	1059,(4, 103),10	1069,(4, 118),2	1071,(7, 37),2	1156,(8, 24),6	1274,(8, 78),2	1278,(8, 108),2	1303,(0, 10),186	1489,(9, 15),6	1495,(9, 28),8	1503,(9, 33),2	1505,(9, 57),2	1507,(9, 61),92	1599,(9, 103),10	1615,(7, 78),2	1617,(7, 93),12	1637,(9, 83),22	1695,(1, 24),30	1873,(12, 33),10	1883,(12, 53),4	1909,(12, 93),18	1937,(1, 53),2	1957,(1, 93),2	2009,(11, 41),12	2125,(11, 65),2	2127,(11, 73),2	2327,(6, 24),12	2347,(6, 33),26	2445,(6, 93),36	2505,(6, 113),2	
373,(0, 4),186	559,(2, 20),6	565,(2, 48),2	567,(2, 56),10	595,(2, 68),28	631,(3, 44),2	637,(2, 112),10	647,(3, 92),28	675,(3, 97),18	876,(5, 48),54	992,(7, 117),24	1117,(0, 9),186	1303,(8, 44),12	1315,(8, 92),40	1355,(8, 102),6	1528,(10, 14),2	1530,(10, 36),2	1532,(10, 40),38	1631,(7, 102),186	1817,(10, 52),66	1883,(10, 82),52	1939,(1, 56),8	1947,(1, 68),8	1955,(1, 87),2	1971,(11, 27),2	2157,(11, 102),6	2287,(11, 117),40	2339,(6, 27),8	2375,(6, 40),2	2395,(6, 64),4	2435,(6, 82),10	2481,(6, 107),24	
187,(0, 3),186	577,(2, 59),18	602,(4, 59),8	610,(4, 81),2	614,(4, 86),2	618,(4, 116),2	629,(2, 111),8	784,(5, 13),38	822,(5, 18),28	850,(5, 43),26	931,(0, 8),186	1117,(5, 55),52	1342,(9, 31),4	1346,(9, 47),6	1354,(9, 96),2	1378,(9, 106),10	1570,(10, 51),34	1629,(7, 101),2	1817,(7, 106),44	1887,(12, 76),14	1969,(11, 26),2	1973,(11, 35),36	2021,(11, 43),42	2063,(11, 63),62	2129,(11, 91),28	2373,(6, 39),2	2377,(6, 47),18	2405,(6, 71),30	2435,(7, 67),402	2837,(10, 106),222	
1,(0, 2),186	598,(4, 42),2	600,(4, 46),2	612,(4, 84),2	616,(4, 114),2	693,(3, 104),28	745,(0, 7),186	931,(5, 29),54	985,(5, 46),30	1015,(5, 54),10	1025,(5, 119),30	1162,(8, 34),2	1164,(8, 42),2	1166,(8, 54),20	1186,(8, 70),88	1276,(8, 99),2	1280,(8, 119),6	1352,(9, 84),2	1356,(9, 99),22	1489,(0, 12),186	1675,(1, 17),20	1695,(10, 34),8	1703,(10, 50),18	1725,(1, 46),212	1937,(10, 89),2	1959,(11, 17),10	1969,(10, 94),70	2163,(11, 114),124	2399,(6, 70),6	2507,(6, 114),2	
623,(2, 95),6	629,(3, 16),2	631,(4, 100),12	643,(23, 121),2	647,(58, 121),2	649,(109, 121),2	676,(72, 121),2	715,(77, 121),2	721,(59, 121),2	723,(81, 121),2	727,(86, 121),2	754,(112, 121),2	766,(116, 121),2	793,(97, 121),2	805,(111, 121),2	813,(104, 121),2	871,(13, 121),2	900,(18, 121),2	970,(7, 80),14	984,(7, 105),8	1016,(38, 121),2	1048,(66, 121),2	1055,(45, 121),2	1057,(21, 121),2	1059,(69, 121),2	1061,(49, 121),2	1071,(48, 121),2	1073,(7, 30),542	1615,(98, 121),2	1617,(118, 121),2	1619,(37, 121),2	1621,(22, 121),2	1623,(55, 121),2	1625,(108, 121),2	1627,(9, 75),10	1637,(31, 121),2	1639,(96, 121),2	1641,(10, 95),2	1643,(10, 120),2	1645,(15, 121),2	1647,(28, 121),2	1649,(51, 121),2	1651,(57, 121),2	1659,(9, 90),40	1699,(9, 120),6	1705,(44, 121),2	1707,(20, 121),2	1709,(60, 121),2	1711,(32, 121),2	1713,(92, 121),2	1715,(14, 121),2	1717,(36, 121),2	1719,(101, 121),2	1721,(10, 80),24	1745,(88, 121),2	1747,(61, 121),2	1762,(103, 121),2	1801,(78, 121),2	1861,(74, 121),2	1863,(29, 121),2	1865,(42, 121),2	1867,(119, 121),2	1869,(84, 121),2	1871,(99, 121),2	1901,(12, 85),6	1907,(12, 90),2	1922,(52, 121),2	1927,(12, 110),362	2289,(12, 120),2	2291,(34, 121),2	2293,(54, 121),2	2295,(79, 121),2	2297,(83, 121),2	2299,(25, 121),2	2301,(62, 121),2	2303,(76, 121),2	2305,(50, 121),2	2307,(53, 121),2	2309,(56, 121),2	2311,(46, 121),2	2313,(26, 121),2	2315,(68, 121),2	2317,(89, 121),2	2319,(35, 121),2	2321,(41, 121),2	2323,(87, 121),2	2325,(17, 121),2	2327,(43, 121),2	2329,(94, 121),2	2331,(63, 121),2	2333,(65, 121),2	2335,(102, 121),2	2337,(91, 121),2	2339,(73, 121),2	2366,(117, 121),2	2378,(24, 121),2	2405,(27, 121),2	2414,(39, 121),2	2417,(33, 121),2	2444,(40, 121),2	2453,(47, 121),2	2483,(64, 121),2	2492,(71, 121),2	2520,(93, 121),2	2522,(82, 121),2	2559,(113, 121),2	2561,(107, 121),2	2837,(70, 121),2	2839,(114, 121),2	2876,(67, 121),2	3098,(106, 121),2	
# Outgoing
784,(5, 13),38	822,(5, 18),28	850,(5, 43),26	876,(5, 48),54	931,(5, 29),54	985,(5, 46),30	1015,(5, 54),10	1025,(5, 119),30	1055,(45, 121),2	1057,(21, 121),2	1059,(69, 121),2	1061,(49, 121),2	1117,(5, 55),52	1528,(10, 14),2	1530,(10, 36),2	1532,(10, 40),38	1570,(10, 51),34	1615,(98, 121),2	1617,(118, 121),2	1619,(37, 121),2	1625,(108, 121),2	1641,(10, 95),2	1643,(10, 120),2	1645,(15, 121),2	1647,(28, 121),2	1651,(57, 121),2	1695,(10, 34),8	1703,(10, 50),18	1721,(10, 80),24	1745,(88, 121),2	1747,(61, 121),2	1762,(103, 121),2	1801,(78, 121),2	1817,(10, 52),66	1883,(10, 82),52	1937,(10, 89),2	1969,(10, 94),70	2297,(83, 121),2	2307,(53, 121),2	2321,(41, 121),2	2333,(65, 121),2	2339,(73, 121),2	2378,(24, 121),2	2417,(33, 121),2	2520,(93, 121),2	2559,(113, 121),2	2837,(10, 106),222	
598,(4, 42),2	600,(4, 46),2	602,(4, 59),8	610,(4, 81),2	612,(4, 84),2	614,(4, 86),2	616,(4, 114),2	618,(4, 116),2	631,(4, 100),12	643,(23, 121),2	676,(72, 121),2	715,(77, 121),2	754,(112, 121),2	793,(97, 121),2	871,(4, 49),16	887,(4, 53),12	899,(4, 57),30	929,(4, 98),130	1059,(4, 103),10	1069,(4, 118),2	1071,(48, 121),2	1342,(9, 31),4	1346,(9, 47),6	1352,(9, 84),2	1354,(9, 96),2	1356,(9, 99),22	1378,(9, 106),10	1489,(9, 15),6	1495,(9, 28),8	1503,(9, 33),2	1505,(9, 57),2	1507,(9, 61),92	1599,(9, 103),10	1627,(9, 75),10	1637,(9, 83),22	1659,(9, 90),40	1699,(9, 120),6	1705,(44, 121),2	1707,(20, 121),2	1709,(60, 121),2	1711,(32, 121),2	1713,(92, 121),2	1715,(14, 121),2	1717,(36, 121),2	1922,(52, 121),2	2309,(56, 121),2	2315,(68, 121),2	2323,(87, 121),2	2335,(102, 121),2	2366,(117, 121),2	2405,(27, 121),2	2444,(40, 121),2	2483,(64, 121),2	2522,(82, 121),2	2561,(107, 121),2	
629,(3, 16),2	631,(3, 44),2	647,(3, 92),28	675,(3, 97),18	693,(3, 104),28	721,(59, 121),2	723,(81, 121),2	727,(86, 121),2	766,(116, 121),2	805,(111, 121),2	813,(3, 21),16	829,(3, 69),42	871,(13, 121),2	900,(18, 121),2	1156,(8, 24),6	1162,(8, 34),2	1164,(8, 42),2	1166,(8, 54),20	1186,(8, 70),88	1274,(8, 78),2	1276,(8, 99),2	1278,(8, 108),2	1280,(8, 119),6	1303,(8, 44),12	1315,(8, 92),40	1355,(8, 102),6	1621,(22, 121),2	1623,(55, 121),2	1637,(31, 121),2	1639,(96, 121),2	1649,(51, 121),2	1719,(101, 121),2	2303,(76, 121),2	2313,(26, 121),2	2319,(35, 121),2	2327,(43, 121),2	2331,(63, 121),2	2337,(91, 121),2	2414,(39, 121),2	2453,(47, 121),2	2492,(71, 121),2	2876,(67, 121),2	3098,(106, 121),2	
559,(2, 20),6	565,(2, 48),2	567,(2, 56),10	577,(2, 59),18	595,(2, 68),28	623,(2, 95),6	629,(2, 111),8	637,(2, 112),10	647,(58, 121),2	649,(109, 121),2	745,(2, 21),22	767,(2, 73),40	807,(2, 93),4	811,(2, 98),2	813,(104, 121),2	970,(7, 80),14	984,(7, 105),8	992,(7, 117),24	1016,(38, 121),2	1048,(66, 121),2	1071,(7, 37),2	1073,(7, 30),542	1615,(7, 78),2	1617,(7, 93),12	1629,(7, 101),2	1631,(7, 102),186	1817,(7, 106),44	1861,(74, 121),2	1863,(29, 121),2	1865,(42, 121),2	1867,(119, 121),2	1869,(84, 121),2	1871,(99, 121),2	1873,(12, 33),10	1883,(12, 53),4	1887,(12, 76),14	1901,(12, 85),6	1907,(12, 90),2	1909,(12, 93),18	1927,(12, 110),362	2289,(12, 120),2	2291,(34, 121),2	2293,(54, 121),2	2295,(79, 121),2	2299,(25, 121),2	2301,(62, 121),2	2305,(50, 121),2	2311,(46, 121),2	2317,(89, 121),2	2325,(17, 121),2	2329,(94, 121),2	2435,(7, 67),402	2837,(70, 121),2	2839,(114, 121),2	
1,(0, 2),186	187,(0, 3),186	373,(0, 4),186	559,(0, 5),186	745,(0, 7),186	931,(0, 8),186	1117,(0, 9),186	1303,(0, 10),186	1489,(0, 12),186	1675,(1, 17),20	1695,(1, 24),30	1725,(1, 46),212	1937,(1, 53),2	1939,(1, 56),8	1947,(1, 68),8	1955,(1, 87),2	1957,(1, 93),2	1959,(11, 17),10	1969,(11, 26),2	1971,(11, 27),2	1973,(11, 35),36	2009,(11, 41),12	2021,(11, 43),42	2063,(11, 63),62	2125,(11, 65),2	2127,(11, 73),2	2129,(11, 91),28	2157,(11, 102),6	2163,(11, 114),124	2287,(11, 117),40	2327,(6, 24),12	2339,(6, 27),8	2347,(6, 33),26	2373,(6, 39),2	2375,(6, 40),2	2377,(6, 47),18	2395,(6, 64),4	2399,(6, 70),6	2405,(6, 71),30	2435,(6, 82),10	2445,(6, 93),36	2481,(6, 107),24	2505,(6, 113),2	2507,(6, 114),2	
