4913
# CPU
1738,4,51	1789,16,51	1840,75,51	1891,78,51	1942,60,51	1993,69,51	2044,24,51	2095,48,51	2383,12,51	3475,8,51	3526,27,51	3577,33,51	3628,57,51	3679,66,51	3730,42,51	3781,45,51	3832,30,51	3883,72,51	4114,20,51	4207,36,51	4258,39,51	4309,51,51	4360,54,51	4411,63,51	
1159,3,51	1210,43,51	1261,46,51	1312,58,51	1363,34,51	1414,76,51	2896,7,51	2947,61,51	2998,64,51	3049,15,51	3100,67,51	3151,73,51	3481,11,51	3532,25,51	3583,37,51	3634,49,51	3685,52,51	3736,31,51	3787,18,51	3838,40,51	3889,70,51	3994,79,51	4123,22,51	4174,28,51	4300,55,51	
580,2,51	2317,6,51	2368,38,51	2419,53,51	2470,56,51	2707,23,51	2758,32,51	2809,62,51	3415,35,51	3529,10,51	3634,29,51	3685,44,51	3736,68,51	3787,59,51	3838,80,51	3979,65,51	4057,14,51	4108,19,51	4159,26,51	4225,41,51	4276,47,51	4327,50,51	4378,71,51	4429,74,51	4861,77,51	4912,81,1	
0,0,1	1,1,51	52,5,51	103,9,51	154,21,51	1915,17,51	3538,13,51	
# Incoming
1159,(0, 4),579	1738,(2, 24),21	1759,(2, 45),3	1762,(2, 48),24	1786,(2, 66),6	1792,(2, 69),21	1813,(3, 12),87	1915,(3, 24),39	1954,(3, 42),3	1957,(3, 48),9	1966,(3, 54),21	2368,(6, 12),15	2383,(6, 20),15	2398,(6, 72),45	2896,(0, 8),579	3475,(7, 27),18	3493,(7, 33),3	3496,(7, 57),3	3499,(7, 66),6	3505,(7, 72),36	3643,(1, 51),3	3646,(1, 54),3	3763,(1, 63),27	4090,(5, 20),24	4144,(5, 36),63	4207,(5, 39),3	4267,(5, 51),3	4270,(5, 54),27	4300,(5, 63),21	
580,(0, 3),579	1159,(2, 22),42	1201,(2, 43),3	1204,(2, 52),9	1213,(2, 67),3	1216,(2, 79),21	1789,(4, 15),18	1807,(4, 28),3	1810,(4, 37),6	1816,(4, 40),54	1870,(4, 61),39	1909,(4, 70),15	2317,(0, 7),579	2896,(6, 22),15	2911,(6, 55),24	2935,(6, 61),3	2938,(6, 64),3	2941,(6, 67),6	2947,(6, 73),9	2956,(6, 79),3	3475,(1, 11),6	3481,(1, 25),51	3538,(8, 37),6	3544,(8, 49),3	3547,(8, 52),6	3559,(1, 31),69	3628,(1, 40),15	3643,(8, 18),30	3673,(8, 40),42	3715,(8, 70),15	3796,(1, 79),198	3994,(8, 55),99	4114,(5, 22),9	4138,(5, 28),6	4297,(5, 55),3	
1,(0, 2),579	1738,(0, 6),579	2317,(3, 29),6	2323,(3, 65),3	2326,(3, 68),60	2386,(43, 81),3	2389,(46, 81),3	2392,(58, 81),3	2395,(34, 81),3	2398,(76, 81),3	2401,(4, 19),288	2689,(4, 23),18	2707,(4, 29),9	2716,(4, 32),3	2719,(4, 62),3	2722,(4, 68),663	3385,(4, 74),3	3388,(16, 81),3	3391,(75, 81),3	3394,(78, 81),3	3397,(60, 81),3	3400,(69, 81),3	3403,(24, 81),3	3406,(48, 81),3	3409,(12, 81),3	3412,(7, 35),3	3415,(61, 81),3	3418,(64, 81),3	3421,(15, 81),3	3424,(67, 81),3	3427,(73, 81),3	3526,(8, 10),3	3532,(1, 26),27	3559,(7, 29),75	3634,(8, 44),3	3637,(8, 68),3	3640,(11, 81),3	3643,(25, 81),3	3646,(37, 81),3	3649,(1, 59),114	3763,(8, 80),12	3775,(27, 81),3	3778,(33, 81),3	3781,(57, 81),3	3784,(49, 81),3	3787,(66, 81),3	3790,(1, 71),6	3796,(8, 65),183	3979,(52, 81),3	3982,(42, 81),3	3985,(31, 81),3	3988,(45, 81),3	3991,(18, 81),3	3994,(5, 14),63	4057,(5, 19),33	4090,(40, 81),3	4093,(30, 81),3	4096,(72, 81),3	4099,(70, 81),3	4102,(79, 81),3	4123,(5, 26),15	4165,(20, 81),3	4174,(22, 81),3	4210,(5, 41),15	4225,(5, 47),33	4258,(5, 50),9	4267,(28, 81),3	4270,(36, 81),3	4309,(39, 81),3	4321,(5, 71),9	4330,(5, 74),3	4333,(9, 81),3	4336,(21, 81),3	4339,(17, 81),3	4342,(7, 77),519	4861,(13, 81),3	4864,(55, 81),3	4867,(51, 81),3	4870,(54, 81),3	4873,(63, 81),3	
1900,(3, 17),15	3529,(8, 13),9	
# Outgoing
1789,(4, 15),18	1807,(4, 28),3	1810,(4, 37),6	1816,(4, 40),54	1870,(4, 61),39	1909,(4, 70),15	2401,(4, 19),288	2689,(4, 23),18	2707,(4, 29),9	2716,(4, 32),3	2719,(4, 62),3	2722,(4, 68),663	3385,(4, 74),3	3388,(16, 81),3	3391,(75, 81),3	3394,(78, 81),3	3397,(60, 81),3	3400,(69, 81),3	3403,(24, 81),3	3406,(48, 81),3	3409,(12, 81),3	3526,(8, 10),3	3529,(8, 13),9	3538,(8, 37),6	3544,(8, 49),3	3547,(8, 52),6	3634,(8, 44),3	3637,(8, 68),3	3643,(8, 18),30	3673,(8, 40),42	3715,(8, 70),15	3763,(8, 80),12	3775,(27, 81),3	3778,(33, 81),3	3781,(57, 81),3	3787,(66, 81),3	3796,(8, 65),183	3982,(42, 81),3	3988,(45, 81),3	3994,(8, 55),99	4093,(30, 81),3	4096,(72, 81),3	4165,(20, 81),3	4270,(36, 81),3	4309,(39, 81),3	4867,(51, 81),3	4870,(54, 81),3	4873,(63, 81),3	
1813,(3, 12),87	1900,(3, 17),15	1915,(3, 24),39	1954,(3, 42),3	1957,(3, 48),9	1966,(3, 54),21	2317,(3, 29),6	2323,(3, 65),3	2326,(3, 68),60	2386,(43, 81),3	2389,(46, 81),3	2392,(58, 81),3	2395,(34, 81),3	2398,(76, 81),3	3412,(7, 35),3	3415,(61, 81),3	3418,(64, 81),3	3421,(15, 81),3	3424,(67, 81),3	3427,(73, 81),3	3475,(7, 27),18	3493,(7, 33),3	3496,(7, 57),3	3499,(7, 66),6	3505,(7, 72),36	3559,(7, 29),75	3640,(11, 81),3	3643,(25, 81),3	3646,(37, 81),3	3784,(49, 81),3	3979,(52, 81),3	3985,(31, 81),3	3991,(18, 81),3	4090,(40, 81),3	4099,(70, 81),3	4102,(79, 81),3	4174,(22, 81),3	4267,(28, 81),3	4342,(7, 77),519	4864,(55, 81),3	
1159,(2, 22),42	1201,(2, 43),3	1204,(2, 52),9	1213,(2, 67),3	1216,(2, 79),21	1738,(2, 24),21	1759,(2, 45),3	1762,(2, 48),24	1786,(2, 66),6	1792,(2, 69),21	2368,(6, 12),15	2383,(6, 20),15	2398,(6, 72),45	2896,(6, 22),15	2911,(6, 55),24	2935,(6, 61),3	2938,(6, 64),3	2941,(6, 67),6	2947,(6, 73),9	2956,(6, 79),3	
1,(0, 2),579	580,(0, 3),579	1159,(0, 4),579	1738,(0, 6),579	2317,(0, 7),579	2896,(0, 8),579	3475,(1, 11),6	3481,(1, 25),51	3532,(1, 26),27	3559,(1, 31),69	3628,(1, 40),15	3643,(1, 51),3	3646,(1, 54),3	3649,(1, 59),114	3763,(1, 63),27	3790,(1, 71),6	3796,(1, 79),198	3994,(5, 14),63	4057,(5, 19),33	4090,(5, 20),24	4114,(5, 22),9	4123,(5, 26),15	4138,(5, 28),6	4144,(5, 36),63	4207,(5, 39),3	4210,(5, 41),15	4225,(5, 47),33	4258,(5, 50),9	4267,(5, 51),3	4270,(5, 54),27	4297,(5, 55),3	4300,(5, 63),21	4321,(5, 71),9	4330,(5, 74),3	4333,(9, 81),3	4336,(21, 81),3	4339,(17, 81),3	4861,(13, 81),3	
