314
# CPU
0,41,1	1,36,8	9,12,8	17,24,8	25,11,8	33,6,8	41,38,8	49,34,8	57,27,8	65,9,8	73,14,8	81,10,8	89,20,8	97,26,8	105,29,8	113,25,8	121,21,8	129,16,8	137,28,8	145,40,8	153,31,8	161,18,8	169,32,8	177,7,8	185,13,8	193,39,8	201,15,8	209,17,8	217,5,8	225,23,8	233,35,8	241,37,8	249,22,8	257,8,8	265,19,8	273,2,8	281,4,8	289,33,8	297,1,8	305,3,8	313,0,1	
163,30,8	



# Incoming
171,(30, 1),45	216,(30, 3),63	
1,(41, 30),162	



# Outgoing
1,(41, 30),162	
171,(30, 1),45	216,(30, 3),63	



