76
# CPU
0,41,1	1,27,1	2,6,1	3,33,1	4,21,1	5,22,1	6,36,1	7,35,1	8,34,1	9,24,1	10,38,1	11,28,1	12,23,1	13,20,1	14,15,1	15,37,1	16,7,1	17,14,1	18,30,1	19,29,1	20,11,1	21,12,1	22,26,1	23,13,1	24,40,1	25,19,1	26,3,1	30,1,1	41,2,1	74,4,1	75,0,1	
3,8,1	5,16,1	7,17,1	9,32,1	11,18,1	13,10,1	15,9,1	17,25,1	19,5,1	21,39,1	23,31,1	
# Incoming
4,(8, 1),1	6,(16, 4),1	8,(17, 1),1	10,(32, 2),1	12,(18, 1),2	14,(10, 2),4	20,(5, 1),10	30,(39, 2),11	41,(9, 4),5	46,(25, 4),7	53,(31, 4),21	
1,(41, 8),2	3,(41, 16),2	5,(41, 17),2	7,(41, 32),2	9,(41, 18),2	11,(41, 10),2	13,(41, 9),2	15,(41, 25),2	17,(41, 5),2	19,(41, 39),2	21,(41, 31),2	
# Outgoing
1,(41, 8),2	3,(41, 16),2	5,(41, 17),2	7,(41, 32),2	9,(41, 18),2	11,(41, 10),2	13,(41, 9),2	15,(41, 25),2	17,(41, 5),2	19,(41, 39),2	21,(41, 31),2	
4,(8, 1),1	6,(16, 4),1	8,(17, 1),1	10,(32, 2),1	12,(18, 1),2	14,(10, 2),4	20,(5, 1),10	30,(39, 2),11	41,(9, 4),5	46,(25, 4),7	53,(31, 4),21	
