24914
# CPU
17,5,10	33,10,10	43,92,10	53,75,10	1897,85,10	2285,37,10	2295,100,10	2305,27,10	2315,94,10	4381,50,10	4469,59,10	4493,72,10	4593,67,10	4641,77,10	4953,41,10	4973,44,10	5053,71,10	5077,97,10	5089,25,10	5105,90,10	5173,31,10	5185,53,10	5309,74,10	5337,80,10	5347,106,10	5357,109,10	5367,113,10	5377,119,10	5401,23,10	5411,30,10	5473,32,10	5483,34,10	5501,47,10	5569,56,10	5625,63,10	5645,69,10	5661,83,10	5865,87,10	5885,103,10	5901,116,10	
13,4,10	23,86,10	33,9,10	289,35,10	469,93,10	697,68,10	789,26,10	1041,29,10	1057,91,10	1073,118,10	1085,64,10	1125,20,10	1153,51,10	1409,24,10	1897,82,10	1917,96,10	2129,99,10	2139,108,10	2457,38,10	2561,42,10	2581,48,10	2693,54,10	2703,57,10	2713,60,10	2945,70,10	3145,78,10	3169,88,10	3185,102,10	3301,111,10	3681,28,10	3691,84,10	3701,115,10	3957,45,10	5205,105,10	
9,3,10	25,8,10	141,46,10	225,61,10	461,49,10	489,55,10	505,104,10	1069,22,10	1121,18,10	1181,36,10	1321,107,10	1549,79,10	1873,81,10	1909,52,10	1919,117,10	2017,95,10	2293,114,10	2373,16,10	2445,33,10	2477,39,10	3849,43,10	3981,58,10	4025,98,10	4035,101,10	4057,110,10	4317,65,10	4933,120,10	24913,121,1	
5,2,10	15,89,10	25,7,10	37,12,10	329,40,10	445,17,10	3137,76,10	3417,15,10	3633,21,10	5089,62,10	7465,112,10	
0,0,1	1,6,10	11,1,10	21,11,10	41,19,10	133,14,10	549,13,10	1877,66,10	24785,73,10	
# Incoming
13,(0, 5),4	19,(2, 72),4	29,(0, 10),4	33,(2, 23),12	45,(3, 75),8	53,(2, 25),188	241,(2, 27),36	277,(2, 30),16	293,(4, 32),12	305,(9, 44),4	309,(2, 106),12	321,(6, 69),1088	1409,(2, 69),32	1441,(2, 94),104	1545,(2, 97),148	1693,(2, 109),8	1701,(2, 113),52	1753,(2, 119),8	1761,(3, 31),64	1825,(3, 69),32	1857,(3, 77),16	1873,(3, 90),12	1885,(3, 103),4	1889,(4, 85),8	1897,(6, 87),20	1917,(6, 90),40	1957,(6, 94),28	1985,(3, 116),28	2013,(8, 30),4	2017,(6, 97),52	2069,(3, 71),80	2149,(4, 44),16	2165,(6, 113),20	2185,(3, 80),40	2225,(3, 119),20	2245,(4, 37),40	2285,(8, 100),4	2289,(7, 27),4	2293,(7, 94),4	2297,(6, 116),4	2301,(3, 34),1052	3353,(3, 44),548	3901,(3, 87),156	4057,(1, 25),36	4093,(1, 31),208	4301,(1, 47),44	4345,(1, 50),36	4381,(1, 59),88	4469,(1, 72),24	4493,(1, 74),4	4497,(1, 80),80	4577,(4, 67),16	4593,(4, 77),48	4641,(4, 87),16	4657,(11, 34),8	4665,(11, 53),92	4757,(11, 56),4	4761,(8, 23),96	4857,(8, 31),32	4889,(8, 41),64	4953,(7, 44),20	4973,(7, 71),80	5053,(7, 97),24	5077,(9, 25),12	5089,(11, 87),4	5093,(11, 90),12	5105,(9, 31),68	5173,(9, 53),12	5185,(9, 69),120	5305,(9, 74),4	5309,(9, 80),28	5337,(9, 106),4	5341,(9, 109),12	5353,(9, 113),12	5365,(9, 119),4	5369,(12, 23),32	5401,(12, 30),4	5405,(12, 32),68	5473,(12, 34),4	5477,(12, 47),24	5501,(12, 56),68	5569,(12, 63),56	5625,(12, 69),20	5645,(12, 83),16	5661,(12, 87),204	5865,(12, 103),20	5885,(12, 116),16	
9,(0, 4),4	25,(0, 9),4	41,(3, 60),4	45,(2, 24),8	53,(3, 20),24	129,(6, 24),96	225,(6, 28),4	229,(6, 35),60	289,(6, 57),32	321,(2, 42),84	405,(3, 48),44	449,(3, 54),16	465,(3, 93),4	469,(3, 108),4	473,(5, 45),4	477,(5, 60),8	485,(5, 88),4	489,(2, 78),24	513,(3, 68),184	697,(5, 51),20	717,(5, 99),44	761,(5, 108),24	785,(7, 26),4	789,(3, 102),72	861,(5, 102),80	941,(8, 29),100	1041,(8, 91),16	1057,(8, 118),16	1073,(10, 24),4	1077,(10, 57),4	1081,(10, 64),4	1085,(7, 20),40	1125,(10, 51),28	1153,(10, 60),72	1225,(7, 88),12	1237,(7, 99),76	1377,(12, 24),32	1409,(6, 70),4	1413,(6, 78),132	1761,(12, 38),52	1813,(12, 99),4	1873,(6, 82),24	1897,(10, 96),20	1917,(10, 102),4	2069,(6, 99),60	2129,(6, 108),4	2133,(6, 111),32	2293,(6, 115),4	2373,(1, 28),12	2445,(1, 38),12	2477,(1, 42),84	2561,(1, 48),20	2581,(1, 54),112	2693,(1, 57),4	2697,(1, 60),4	2701,(12, 70),244	3137,(1, 78),8	3145,(1, 88),24	3169,(1, 102),16	3185,(1, 111),116	3301,(1, 115),36	3633,(11, 28),48	3681,(11, 84),4	3685,(11, 115),4	3849,(11, 45),108	5105,(11, 105),100	
5,(0, 3),4	15,(2, 18),4	21,(0, 8),4	25,(89, 121),4	37,(6, 22),92	133,(4, 33),4	137,(4, 46),4	141,(4, 49),4	145,(4, 61),44	189,(5, 36),4	193,(5, 43),20	213,(5, 49),4	217,(5, 61),8	225,(86, 121),4	229,(10, 39),4	233,(10, 55),8	241,(10, 95),4	245,(10, 104),20	265,(92, 121),4	269,(75, 121),4	285,(9, 95),4	293,(2, 52),16	309,(5, 98),76	385,(35, 121),4	405,(2, 49),56	461,(2, 55),28	489,(9, 104),16	505,(93, 121),4	513,(2, 107),24	537,(4, 22),532	1069,(7, 16),16	1085,(9, 18),36	1121,(68, 121),4	1125,(7, 36),56	1181,(7, 79),44	1225,(9, 39),44	1269,(9, 117),16	1285,(26, 121),4	1289,(29, 121),4	1293,(91, 121),4	1297,(118, 121),4	1301,(64, 121),4	1305,(20, 121),4	1309,(51, 121),4	1313,(7, 107),8	1321,(7, 120),56	1419,(24, 121),4	1545,(6, 79),4	1549,(6, 81),324	1873,(12, 52),36	1909,(12, 117),4	1913,(40, 121),4	1917,(17, 121),4	1921,(10, 114),56	1977,(82, 121),4	1981,(85, 121),4	1985,(6, 95),32	2017,(12, 58),96	2113,(96, 121),4	2139,(99, 121),4	2165,(108, 121),4	2185,(6, 114),108	2295,(37, 121),4	2301,(1, 16),72	2373,(100, 121),4	2377,(27, 121),4	2381,(94, 121),4	2385,(1, 33),60	2457,(1, 39),20	2477,(5, 101),1272	3749,(11, 43),100	3849,(38, 121),4	3853,(42, 121),4	3857,(48, 121),4	3861,(54, 121),4	3865,(57, 121),4	3869,(60, 121),4	3873,(70, 121),4	3877,(76, 121),4	3881,(78, 121),4	3885,(88, 121),4	3889,(102, 121),4	3893,(111, 121),4	3897,(15, 121),4	3901,(21, 121),4	3905,(28, 121),4	3909,(84, 121),4	3913,(115, 121),4	3957,(11, 58),24	3981,(11, 98),44	4025,(11, 101),4	4029,(11, 110),28	4057,(7, 65),260	4317,(45, 121),4	4577,(19, 121),4	4581,(14, 121),4	4585,(13, 121),4	4589,(66, 121),4	4657,(9, 120),276	5099,(62, 121),4	5369,(105, 121),4	7475,(112, 121),4	24785,(50, 121),4	24789,(59, 121),4	24793,(72, 121),4	24797,(67, 121),4	24801,(77, 121),4	24805,(41, 121),4	24809,(44, 121),4	24813,(71, 121),4	24817,(97, 121),4	24821,(25, 121),4	24825,(90, 121),4	24829,(31, 121),4	24833,(53, 121),4	24837,(74, 121),4	24841,(80, 121),4	24845,(106, 121),4	24849,(109, 121),4	24853,(113, 121),4	24857,(119, 121),4	24861,(23, 121),4	24865,(30, 121),4	24869,(32, 121),4	24873,(34, 121),4	24877,(47, 121),4	24881,(56, 121),4	24885,(63, 121),4	24889,(69, 121),4	24893,(83, 121),4	24897,(87, 121),4	24901,(103, 121),4	24905,(116, 121),4	24909,(73, 121),4	
1,(0, 2),4	17,(0, 7),4	21,(3, 17),4	33,(0, 12),4	77,(3, 40),252	329,(3, 62),20	349,(3, 112),24	373,(4, 62),4	377,(4, 112),8	385,(5, 62),8	393,(9, 17),52	2701,(1, 76),436	3337,(11, 15),80	3417,(11, 21),216	4761,(11, 62),328	5089,(8, 112),2376	
25,(3, 19),16	41,(4, 14),92	133,(5, 13),12	229,(9, 73),56	537,(7, 13),12	697,(3, 73),92	1225,(10, 66),652	3749,(10, 73),21036	
# Outgoing
133,(5, 13),12	189,(5, 36),4	193,(5, 43),20	213,(5, 49),4	217,(5, 61),8	229,(10, 39),4	233,(10, 55),8	241,(10, 95),4	245,(10, 104),20	265,(92, 121),4	269,(75, 121),4	309,(5, 98),76	385,(5, 62),8	473,(5, 45),4	477,(5, 60),8	485,(5, 88),4	697,(5, 51),20	717,(5, 99),44	761,(5, 108),24	861,(5, 102),80	1073,(10, 24),4	1077,(10, 57),4	1081,(10, 64),4	1125,(10, 51),28	1153,(10, 60),72	1225,(10, 66),652	1897,(10, 96),20	1917,(10, 102),4	1921,(10, 114),56	1981,(85, 121),4	2295,(37, 121),4	2373,(100, 121),4	2377,(27, 121),4	2381,(94, 121),4	2477,(5, 101),1272	3749,(10, 73),21036	24785,(50, 121),4	24789,(59, 121),4	24793,(72, 121),4	24797,(67, 121),4	24801,(77, 121),4	24805,(41, 121),4	24809,(44, 121),4	24813,(71, 121),4	24817,(97, 121),4	24821,(25, 121),4	24825,(90, 121),4	24829,(31, 121),4	24833,(53, 121),4	24837,(74, 121),4	24841,(80, 121),4	24845,(106, 121),4	24849,(109, 121),4	24853,(113, 121),4	24857,(119, 121),4	24861,(23, 121),4	24865,(30, 121),4	24869,(32, 121),4	24873,(34, 121),4	24877,(47, 121),4	24881,(56, 121),4	24885,(63, 121),4	24889,(69, 121),4	24893,(83, 121),4	24897,(87, 121),4	24901,(103, 121),4	24905,(116, 121),4	
41,(4, 14),92	133,(4, 33),4	137,(4, 46),4	141,(4, 49),4	145,(4, 61),44	225,(86, 121),4	229,(9, 73),56	285,(9, 95),4	293,(4, 32),12	305,(9, 44),4	373,(4, 62),4	377,(4, 112),8	385,(35, 121),4	393,(9, 17),52	489,(9, 104),16	505,(93, 121),4	537,(4, 22),532	1085,(9, 18),36	1121,(68, 121),4	1225,(9, 39),44	1269,(9, 117),16	1285,(26, 121),4	1289,(29, 121),4	1293,(91, 121),4	1297,(118, 121),4	1301,(64, 121),4	1305,(20, 121),4	1309,(51, 121),4	1419,(24, 121),4	1889,(4, 85),8	1977,(82, 121),4	2113,(96, 121),4	2139,(99, 121),4	2149,(4, 44),16	2165,(108, 121),4	2245,(4, 37),40	3849,(38, 121),4	3853,(42, 121),4	3857,(48, 121),4	3861,(54, 121),4	3865,(57, 121),4	3869,(60, 121),4	3873,(70, 121),4	3881,(78, 121),4	3885,(88, 121),4	3889,(102, 121),4	3893,(111, 121),4	3905,(28, 121),4	3909,(84, 121),4	3913,(115, 121),4	4317,(45, 121),4	4577,(4, 67),16	4593,(4, 77),48	4641,(4, 87),16	4657,(9, 120),276	5077,(9, 25),12	5105,(9, 31),68	5173,(9, 53),12	5185,(9, 69),120	5305,(9, 74),4	5309,(9, 80),28	5337,(9, 106),4	5341,(9, 109),12	5353,(9, 113),12	5365,(9, 119),4	5369,(105, 121),4	
21,(3, 17),4	25,(3, 19),16	41,(3, 60),4	45,(3, 75),8	53,(3, 20),24	77,(3, 40),252	329,(3, 62),20	349,(3, 112),24	405,(3, 48),44	449,(3, 54),16	465,(3, 93),4	469,(3, 108),4	513,(3, 68),184	697,(3, 73),92	789,(3, 102),72	941,(8, 29),100	1041,(8, 91),16	1057,(8, 118),16	1761,(3, 31),64	1825,(3, 69),32	1857,(3, 77),16	1873,(3, 90),12	1885,(3, 103),4	1985,(3, 116),28	2013,(8, 30),4	2069,(3, 71),80	2185,(3, 80),40	2225,(3, 119),20	2285,(8, 100),4	2301,(3, 34),1052	3353,(3, 44),548	3901,(3, 87),156	4761,(8, 23),96	4857,(8, 31),32	4889,(8, 41),64	5089,(8, 112),2376	
15,(2, 18),4	19,(2, 72),4	25,(89, 121),4	33,(2, 23),12	45,(2, 24),8	53,(2, 25),188	241,(2, 27),36	277,(2, 30),16	293,(2, 52),16	309,(2, 106),12	321,(2, 42),84	405,(2, 49),56	461,(2, 55),28	489,(2, 78),24	513,(2, 107),24	537,(7, 13),12	785,(7, 26),4	1069,(7, 16),16	1085,(7, 20),40	1125,(7, 36),56	1181,(7, 79),44	1225,(7, 88),12	1237,(7, 99),76	1313,(7, 107),8	1321,(7, 120),56	1377,(12, 24),32	1409,(2, 69),32	1441,(2, 94),104	1545,(2, 97),148	1693,(2, 109),8	1701,(2, 113),52	1753,(2, 119),8	1761,(12, 38),52	1813,(12, 99),4	1873,(12, 52),36	1909,(12, 117),4	1913,(40, 121),4	1917,(17, 121),4	2017,(12, 58),96	2289,(7, 27),4	2293,(7, 94),4	2701,(12, 70),244	3877,(76, 121),4	3897,(15, 121),4	3901,(21, 121),4	4057,(7, 65),260	4953,(7, 44),20	4973,(7, 71),80	5053,(7, 97),24	5099,(62, 121),4	5369,(12, 23),32	5401,(12, 30),4	5405,(12, 32),68	5473,(12, 34),4	5477,(12, 47),24	5501,(12, 56),68	5569,(12, 63),56	5625,(12, 69),20	5645,(12, 83),16	5661,(12, 87),204	5865,(12, 103),20	5885,(12, 116),16	7475,(112, 121),4	
1,(0, 2),4	5,(0, 3),4	9,(0, 4),4	13,(0, 5),4	17,(0, 7),4	21,(0, 8),4	25,(0, 9),4	29,(0, 10),4	33,(0, 12),4	37,(6, 22),92	129,(6, 24),96	225,(6, 28),4	229,(6, 35),60	289,(6, 57),32	321,(6, 69),1088	1409,(6, 70),4	1413,(6, 78),132	1545,(6, 79),4	1549,(6, 81),324	1873,(6, 82),24	1897,(6, 87),20	1917,(6, 90),40	1957,(6, 94),28	1985,(6, 95),32	2017,(6, 97),52	2069,(6, 99),60	2129,(6, 108),4	2133,(6, 111),32	2165,(6, 113),20	2185,(6, 114),108	2293,(6, 115),4	2297,(6, 116),4	2301,(1, 16),72	2373,(1, 28),12	2385,(1, 33),60	2445,(1, 38),12	2457,(1, 39),20	2477,(1, 42),84	2561,(1, 48),20	2581,(1, 54),112	2693,(1, 57),4	2697,(1, 60),4	2701,(1, 76),436	3137,(1, 78),8	3145,(1, 88),24	3169,(1, 102),16	3185,(1, 111),116	3301,(1, 115),36	3337,(11, 15),80	3417,(11, 21),216	3633,(11, 28),48	3681,(11, 84),4	3685,(11, 115),4	3749,(11, 43),100	3849,(11, 45),108	3957,(11, 58),24	3981,(11, 98),44	4025,(11, 101),4	4029,(11, 110),28	4057,(1, 25),36	4093,(1, 31),208	4301,(1, 47),44	4345,(1, 50),36	4381,(1, 59),88	4469,(1, 72),24	4493,(1, 74),4	4497,(1, 80),80	4577,(19, 121),4	4581,(14, 121),4	4585,(13, 121),4	4589,(66, 121),4	4657,(11, 34),8	4665,(11, 53),92	4757,(11, 56),4	4761,(11, 62),328	5089,(11, 87),4	5093,(11, 90),12	5105,(11, 105),100	24909,(73, 121),4	
