51570
# CPU
703,4,1	1405,8,1	2107,12,1	2809,16,1	3511,20,1	29291,133,1	32483,64,1	35447,48,1	36721,100,1	37907,46,1	38143,87,1	40381,151,1	41459,50,1	41639,65,1	42209,115,1	42377,129,1	42583,147,1	42679,174,1	42785,185,1	42791,188,1	42811,192,1	42853,194,1	43011,198,1	43047,200,1	43073,30,1	43083,32,1	43165,44,1	43251,67,1	43305,68,1	43317,71,1	43433,75,1	43487,83,1	43583,94,1	43589,95,1	43609,98,1	43679,106,1	44075,127,1	44745,144,1	45163,158,1	45169,159,1	45209,160,1	45417,173,1	45429,178,1	45479,181,1	45593,199,1	45613,29,1	45669,51,1	45671,53,1	45695,58,1	45699,61,1	45713,63,1	45719,69,1	45723,70,1	45725,72,1	45827,76,1	45941,79,1	46481,86,1	46483,89,1	46567,107,1	46599,111,1	46613,117,1	46641,120,1	46643,122,1	46705,124,1	47457,130,1	47521,132,1	47523,136,1	47527,137,1	47529,138,1	47585,139,1	47597,146,1	47625,152,1	47631,154,1	47645,164,1	47657,166,1	47665,169,1	47717,171,1	47919,177,1	47931,182,1	47983,189,1	48005,190,1	48169,197,1	48171,26,1	48173,27,1	48175,28,1	48177,31,1	48255,37,1	48259,39,1	48261,42,1	48907,49,1	48915,54,1	48917,55,1	48971,56,1	48991,59,1	48995,60,1	49029,66,1	49089,73,1	49099,74,1	49105,77,1	49113,78,1	49115,80,1	49139,81,1	49143,82,1	49159,84,1	49161,88,1	49175,90,1	49189,91,1	49191,92,1	49193,96,1	49261,97,1	49263,99,1	49265,101,1	49267,103,1	49315,104,1	49317,105,1	49343,108,1	49357,109,1	49397,110,1	49405,112,1	49435,113,1	49449,114,1	49601,116,1	49603,118,1	49701,119,1	49703,121,1	49713,123,1	49727,125,1	49747,126,1	49749,128,1	49769,131,1	49789,134,1	49791,135,1	49793,140,1	49819,141,1	49821,142,1	49831,143,1	49833,145,1	49841,148,1	49849,149,1	49853,150,1	49875,156,1	49877,157,1	49893,161,1	49895,162,1	49897,163,1	49905,165,1	49929,167,1	49953,168,1	50131,170,1	50925,172,1	50959,175,1	50965,176,1	50967,179,1	50969,180,1	50973,183,1	51071,184,1	51113,186,1	51119,187,1	51123,191,1	51127,193,1	51153,195,1	51155,196,1	51569,201,1	
469,3,1	1171,7,1	1873,11,1	2575,15,1	3277,19,1	4739,52,1	5047,41,1	6829,93,1	11883,57,1	11919,62,1	23669,24,1	23717,34,1	23719,38,1	23817,45,1	23845,47,1	
235,2,1	937,6,1	1639,10,1	2341,14,1	3043,18,1	3517,22,1	4741,43,1	16011,36,1	23763,40,1	24565,85,1	
0,0,1	1,5,1	2,1,1	3,9,1	4,13,1	5,17,1	3351,25,1	3524,21,1	3542,23,1	3999,33,1	6205,35,1	8115,153,1	9453,102,1	11699,155,1	
# Incoming
469,(0, 4),234	703,(2, 26),14	717,(2, 27),2	719,(2, 30),8	727,(2, 31),6	733,(2, 32),68	801,(3, 28),58	859,(3, 29),146	1005,(3, 37),8	1013,(3, 42),12	1025,(3, 44),116	1141,(3, 50),2	1143,(3, 55),2	1145,(3, 58),6	1151,(3, 59),2	1153,(3, 63),10	1163,(3, 65),4	1167,(3, 68),2	1169,(3, 70),2	1171,(0, 8),234	1405,(3, 48),44	1449,(3, 54),36	1485,(3, 56),102	1587,(3, 66),6	1593,(3, 67),6	1599,(3, 71),6	1605,(3, 76),4	1609,(3, 78),16	1625,(3, 81),12	1637,(3, 82),4	1641,(3, 84),2	1643,(3, 86),12	1655,(3, 89),20	1675,(3, 90),18	1693,(3, 91),26	1719,(3, 92),4	1723,(3, 94),12	1735,(3, 97),14	1749,(3, 105),2	1751,(3, 106),12	1763,(3, 115),6	1769,(3, 116),6	1775,(3, 117),40	1815,(3, 119),2	1817,(3, 120),2	1819,(3, 121),32	1851,(3, 122),2	1853,(3, 125),2	1855,(3, 126),4	1859,(3, 131),2	1861,(3, 136),6	1867,(3, 138),2	1869,(3, 140),4	1873,(0, 12),234	2107,(3, 118),130	2237,(3, 123),26	2263,(3, 129),16	2279,(3, 133),86	2365,(3, 135),18	2383,(3, 137),28	2411,(3, 143),16	2427,(3, 145),24	2451,(3, 146),26	2477,(3, 147),2	2479,(3, 150),16	2495,(3, 151),46	2541,(3, 154),12	2553,(3, 156),20	2573,(3, 160),2	2575,(0, 16),234	2809,(2, 37),2	2811,(2, 44),4	2815,(2, 50),2	2817,(2, 53),106	2923,(2, 55),74	2997,(2, 59),2	2999,(2, 60),48	3047,(2, 63),10	3057,(2, 65),52	3109,(2, 66),56	3165,(2, 69),2	3167,(2, 70),50	3217,(2, 71),2	3219,(2, 73),28	3247,(2, 74),8	3255,(2, 77),4	3259,(2, 78),10	3269,(2, 80),2	3271,(2, 84),2	3273,(2, 89),4	3277,(0, 20),234	3511,(2, 76),48	3559,(2, 79),14	3573,(2, 81),28	3601,(2, 87),20	3621,(2, 90),8	3629,(2, 91),4	3633,(2, 96),2	3635,(2, 112),2	3637,(2, 116),2	3639,(5, 28),46	3685,(5, 30),8	3693,(5, 32),16	3709,(2, 83),84	3793,(2, 88),58	3851,(2, 95),10	3861,(2, 97),8	3869,(2, 103),6	3875,(2, 104),6	3881,(2, 105),38	3919,(2, 107),94	4013,(2, 109),10	4023,(2, 113),68	4091,(2, 114),10	4101,(2, 115),34	4135,(2, 119),94	4229,(2, 120),2	4231,(2, 125),8	4239,(2, 128),2	4241,(2, 130),26	4267,(2, 131),114	4381,(2, 132),24	4405,(2, 135),2	4407,(2, 136),8	4415,(2, 140),80	4495,(2, 143),2	4497,(2, 147),38	4535,(2, 148),2	4537,(2, 149),2	4539,(2, 152),2	4541,(2, 157),40	4581,(2, 159),4	4585,(2, 161),20	4605,(2, 162),26	4631,(2, 164),2	4633,(5, 37),14	4647,(2, 174),2	4649,(5, 39),60	4709,(2, 198),2	4711,(5, 42),16	4727,(2, 169),12	4739,(2, 200),2	4741,(5, 44),12	4753,(5, 46),6	4759,(3, 173),2	4761,(5, 48),8	4769,(5, 53),2	4771,(5, 55),2	4773,(5, 56),6	4779,(5, 61),2	4781,(3, 176),2	4783,(5, 63),336	5119,(5, 64),1140	6259,(5, 65),6	6265,(5, 69),2	6267,(5, 70),22	6289,(5, 74),12	6301,(5, 76),70	6371,(5, 78),8	6379,(5, 80),16	6395,(5, 83),2	6397,(5, 84),6	6403,(5, 86),16	6419,(5, 88),12	6431,(5, 89),10	6441,(5, 90),2	6443,(5, 91),2	6445,(5, 92),42	6487,(2, 170),8	6495,(5, 96),2	6497,(5, 99),10	6507,(5, 101),12	6519,(5, 103),6	6525,(5, 104),6	6531,(5, 106),212	6743,(5, 107),80	6823,(5, 118),112	6935,(5, 119),2	6937,(5, 121),22	6959,(5, 123),62	7021,(5, 126),2	7023,(5, 133),20	7043,(5, 134),6	7049,(5, 137),30	7079,(5, 138),218	7297,(5, 141),54	7351,(5, 142),2	7353,(5, 144),4	7357,(5, 145),16	7373,(5, 148),36	7409,(5, 149),12	7421,(5, 158),46	7467,(5, 166),4	7471,(5, 168),6	7477,(5, 170),18	7495,(5, 171),16	7511,(5, 172),18	7529,(5, 173),66	7595,(5, 174),84	7679,(5, 178),16	7695,(5, 184),50	7745,(5, 187),2	7747,(5, 188),4	7751,(5, 193),10	7761,(5, 194),2644	10405,(5, 199),2	10407,(5, 200),2	10409,(2, 167),30	10439,(3, 170),4	10443,(1, 26),114	10557,(1, 27),1158	11715,(1, 28),2	11717,(1, 29),2	11719,(1, 31),48	11767,(2, 187),6	11773,(1, 37),2	11775,(1, 39),2	11777,(1, 42),10	11787,(1, 44),2	11789,(2, 177),30	11819,(2, 179),10	11829,(1, 48),2	11831,(1, 50),2	11833,(1, 53),20	11853,(1, 54),20	11873,(1, 55),2	11875,(2, 197),6	11881,(3, 179),2	11883,(1, 59),2	11885,(1, 60),2	11887,(1, 61),10	11897,(2, 178),14	11911,(3, 159),6	11917,(3, 181),2	11919,(1, 63),8	11927,(1, 64),12	11939,(1, 67),6	11945,(1, 76),2	11947,(1, 79),2	11949,(1, 82),24	11973,(1, 83),44	12017,(1, 86),110	12127,(1, 87),138	12265,(1, 88),46	12311,(1, 89),10	12321,(1, 91),56	12377,(1, 94),22	12399,(1, 95),2	12401,(1, 97),2	12403,(1, 98),4	12407,(1, 99),32	12439,(1, 103),22	12461,(1, 104),2	12463,(1, 105),10	12473,(1, 107),6	12479,(1, 111),4	12483,(1, 113),4	12487,(1, 114),2	12489,(1, 117),2	12491,(1, 118),58	12549,(1, 119),2	12551,(1, 120),4	12555,(1, 122),6	12561,(1, 123),6	12567,(1, 124),2	12569,(1, 125),26	12595,(1, 126),4	12599,(1, 127),66	12665,(1, 128),4	12669,(1, 131),18	12687,(1, 132),26	12713,(1, 133),2	12715,(1, 134),28	12743,(1, 135),44	12787,(1, 137),2	12789,(1, 138),2	12791,(1, 140),12	12803,(1, 141),12	12815,(1, 143),2	12817,(1, 144),18	12835,(1, 145),24	12859,(1, 146),48	12907,(1, 148),14	12921,(1, 151),28	12949,(1, 152),40	12989,(1, 156),6	12995,(1, 157),20	13015,(1, 158),2	13017,(1, 159),14	13031,(1, 160),14	13045,(1, 161),2	13047,(1, 162),2	13049,(1, 164),2	13051,(1, 165),2	13053,(1, 166),8	13061,(1, 167),14	13075,(1, 168),34	13109,(1, 170),2	13111,(1, 172),2	13113,(1, 173),34	13147,(1, 175),76	13223,(1, 177),20	13243,(1, 178),6	13249,(1, 180),2338	15587,(1, 181),4	15591,(1, 183),4	15595,(1, 185),48	15643,(1, 186),200	15843,(1, 187),2	15845,(1, 188),8	15853,(1, 189),4	15857,(1, 191),6	15863,(1, 192),22	15885,(1, 193),6	15891,(1, 195),6	15897,(1, 198),4	15901,(1, 200),32	15933,(2, 191),16	15949,(3, 164),8	15957,(3, 183),2	15959,(9, 26),2	15961,(9, 30),6	15967,(2, 163),42	16009,(2, 185),44	16053,(2, 196),12	16065,(9, 39),1908	17973,(9, 42),2	17975,(9, 44),30	18005,(3, 186),2	18007,(3, 194),2	18009,(6, 32),2	18011,(9, 46),116	18127,(6, 42),2	18129,(9, 48),4	18133,(9, 49),22	18155,(9, 53),56	18211,(9, 55),2	18213,(9, 59),2	18215,(9, 60),36	18251,(9, 61),46	18297,(9, 65),4	18301,(9, 67),22	18323,(9, 68),8	18331,(9, 73),4	18335,(9, 78),56	18391,(9, 79),2	18393,(9, 81),28	18421,(9, 82),30	18451,(9, 83),80	18531,(9, 84),4	18535,(3, 193),6	18541,(9, 87),16	18557,(9, 89),2	18559,(9, 90),4	18563,(9, 97),14	18577,(9, 101),34	18611,(9, 104),18	18629,(9, 105),172	18801,(9, 109),6	18807,(9, 111),184	18991,(9, 113),18	19009,(9, 114),8	19017,(9, 119),12	19029,(9, 122),74	19103,(9, 125),18	19121,(9, 127),228	19349,(9, 130),14	19363,(9, 131),2	19365,(9, 137),8	19373,(9, 140),8	19381,(9, 142),168	19549,(9, 143),20	19569,(9, 146),2	19571,(9, 147),4	19575,(9, 150),12	19587,(9, 151),2	19589,(9, 152),2	19591,(9, 154),8	19599,(9, 156),6	19605,(9, 157),28	19633,(9, 158),2	19635,(9, 160),6	19641,(9, 161),10	19651,(9, 163),10	19661,(9, 164),194	19855,(9, 167),2	19857,(9, 171),4	19861,(9, 177),2	19863,(9, 179),4	19867,(9, 180),56	19923,(9, 183),2	19925,(9, 184),8	19933,(9, 188),32	19965,(9, 189),64	20029,(9, 190),6	20035,(9, 191),46	20081,(9, 192),160	20241,(9, 197),4	20245,(9, 198),54	20299,(3, 166),18	20317,(6, 27),10	20327,(13, 28),2	20329,(13, 29),8	20337,(13, 30),2	20339,(13, 31),6	20345,(6, 44),2	20347,(13, 37),18	20365,(2, 166),108	20473,(2, 173),70	20543,(6, 28),4	20547,(6, 39),12	20559,(13, 39),128	20687,(6, 56),2	20689,(6, 58),2	20691,(13, 42),2	20693,(13, 44),2	20695,(13, 46),2	20697,(3, 177),18	20715,(3, 190),26	20741,(6, 48),18	20759,(13, 48),62	20821,(13, 49),60	20881,(13, 54),16	20897,(13, 56),2	20899,(13, 59),2	20901,(13, 63),4	20905,(13, 65),158	21063,(13, 67),2	21065,(13, 69),4	21069,(13, 71),88	21157,(13, 74),12	21169,(13, 75),10	21179,(13, 76),60	21239,(13, 78),6	21245,(13, 79),42	21287,(13, 80),12	21299,(13, 83),20	21319,(13, 84),12	21331,(2, 182),74	21405,(2, 183),108	21513,(3, 157),98	21611,(3, 158),74	21685,(6, 49),6	21691,(6, 67),4	21695,(6, 68),2	21697,(13, 86),4	21701,(13, 87),6	21707,(13, 91),2	21709,(13, 94),14	21723,(13, 95),2	21725,(13, 96),2	21727,(13, 97),2	21729,(13, 98),150	21879,(13, 100),42	21921,(13, 101),2	21923,(13, 103),8	21931,(13, 104),2	21933,(13, 106),28	21961,(13, 107),4	21965,(13, 108),26	21991,(13, 109),32	22023,(13, 110),18	22041,(13, 111),2	22043,(13, 112),530	22573,(13, 113),2	22575,(13, 114),12	22587,(13, 116),14	22601,(13, 120),2	22603,(13, 121),2	22605,(13, 122),104	22709,(13, 124),8	22717,(13, 126),2	22719,(13, 127),20	22739,(13, 128),16	22755,(13, 132),24	22779,(13, 133),54	22833,(13, 134),2	22835,(13, 136),6	22841,(13, 137),2	22843,(13, 138),14	22857,(13, 139),16	22873,(13, 140),12	22885,(13, 142),18	22903,(13, 143),18	22921,(13, 144),2	22923,(13, 147),28	22951,(13, 148),8	22959,(13, 160),8	22967,(13, 165),14	22981,(13, 168),8	22989,(13, 169),2	22991,(13, 170),2	22993,(13, 172),20	23013,(13, 174),2	23015,(13, 175),2	23017,(13, 176),14	23031,(13, 180),2	23033,(13, 181),158	23191,(13, 182),8	23199,(13, 184),8	23207,(13, 185),4	23211,(13, 186),30	23241,(13, 187),48	23289,(13, 188),2	23291,(13, 190),2	23293,(13, 191),26	23319,(13, 192),74	23393,(13, 194),236	23629,(13, 196),12	23641,(13, 198),12	23653,(13, 200),4	23657,(6, 50),8	23665,(6, 69),4	23669,(17, 29),2	23671,(17, 31),38	23709,(17, 32),2	23711,(6, 65),8	23719,(17, 39),16	23735,(6, 55),18	23753,(6, 84),8	23761,(6, 95),2	23763,(17, 42),44	23807,(17, 44),4	23811,(6, 105),2	23813,(6, 113),2	23815,(6, 130),2	23817,(17, 46),12	23829,(6, 61),16	23845,(17, 53),20	23865,(17, 54),2	23867,(17, 55),12	23879,(17, 56),2	23881,(17, 58),248	24129,(17, 59),4	24133,(17, 61),4	24137,(17, 63),2	24139,(17, 64),16	24155,(17, 66),22	24177,(17, 68),8	24185,(17, 69),8	24193,(17, 70),6	24199,(17, 73),4	24203,(17, 79),2	24205,(17, 80),2	24207,(17, 84),2	24209,(3, 191),118	24327,(3, 196),68	24395,(6, 26),46	24441,(6, 29),76	24517,(6, 60),32	24549,(6, 78),12	24561,(6, 126),4	24565,(17, 86),52	24617,(17, 88),6	24623,(17, 89),94	24717,(17, 91),2	24719,(17, 95),2	24721,(17, 97),2	24723,(17, 99),8	24731,(17, 101),78	24809,(17, 103),4	24813,(17, 105),8	24821,(17, 106),4	24825,(17, 107),2	24827,(17, 108),12	24839,(17, 109),8	24847,(17, 110),2	24849,(17, 111),2	24851,(17, 119),2	24853,(17, 120),24	24877,(17, 122),2	24879,(17, 124),24	24903,(17, 126),6	24909,(17, 127),2	24911,(17, 128),20	24931,(17, 129),4	24935,(17, 130),2	24937,(17, 131),2	24939,(17, 132),102	25041,(17, 133),2	25043,(17, 135),2	25045,(17, 136),10	25055,(17, 143),10	25065,(17, 144),92	25157,(17, 145),18	25175,(17, 148),8	25183,(17, 150),54	25237,(17, 154),2	25239,(17, 156),2	25241,(17, 158),2	25243,(17, 159),2	25245,(17, 160),14	25259,(17, 161),6	25265,(17, 164),10	25275,(17, 167),2	25277,(17, 168),36	25313,(17, 170),8	25321,(17, 171),10	25331,(17, 173),8	25339,(17, 174),10	25349,(17, 179),2	25351,(17, 180),2	25353,(17, 181),14	25367,(17, 182),56	25423,(17, 186),14	25437,(17, 189),374	25811,(17, 192),4	25815,(17, 194),2	25817,(17, 197),2	25819,(17, 198),24	25843,(17, 200),2	25845,(2, 151),2114	27959,(3, 142),652	28611,(3, 198),196	28807,(6, 66),18	28825,(6, 73),44	28869,(6, 87),66	28935,(6, 88),8	28943,(6, 89),8	28951,(6, 91),16	28967,(6, 96),52	29019,(6, 97),22	29041,(6, 108),50	29091,(6, 118),22	29113,(6, 119),10	29123,(6, 124),142	29265,(6, 127),16	29281,(6, 133),10	29291,(6, 134),4	29295,(6, 136),1208	30503,(6, 140),10	30513,(6, 143),848	31361,(6, 146),2	31363,(6, 147),10	31373,(6, 148),2	31375,(6, 149),16	31391,(6, 154),2	31393,(6, 156),4	31397,(6, 159),32	31429,(6, 161),46	31475,(6, 165),2	31477,(6, 166),22	31499,(6, 168),46	31545,(6, 173),36	31581,(6, 174),2	31583,(6, 175),14	31597,(6, 179),10	31607,(6, 180),2	31609,(6, 181),4	31613,(6, 182),62	31675,(6, 184),28	31703,(6, 185),40	31743,(6, 186),16	31759,(6, 188),4	31763,(6, 191),6	31769,(6, 192),236	32005,(6, 193),2	32007,(6, 196),90	32097,(6, 197),30	32127,(6, 198),4	32131,(7, 27),10	32141,(7, 28),22	32163,(7, 29),72	32235,(7, 30),10	32245,(7, 31),6	32251,(7, 32),10	32261,(7, 37),46	32307,(7, 39),8	32315,(7, 44),2	32317,(7, 48),40	32357,(7, 50),2	32359,(7, 54),30	32389,(7, 59),2	32391,(7, 63),10	32401,(7, 64),82	32483,(7, 65),4	32487,(7, 67),12	32499,(7, 68),66	32565,(7, 70),50	32615,(7, 71),12	32627,(7, 74),52	32679,(7, 75),6	32685,(7, 77),8	32693,(7, 78),2	32695,(7, 80),8	32703,(7, 81),6	32709,(7, 86),58	32767,(7, 87),366	33133,(7, 90),4	33137,(7, 92),80	33217,(7, 97),18	33235,(7, 100),66	33301,(7, 103),24	33325,(7, 110),8	33333,(7, 112),2	33335,(7, 113),2	33337,(7, 115),6	33343,(7, 117),14	33357,(7, 121),6	33363,(7, 123),2	33365,(7, 124),18	33383,(7, 126),2	33385,(7, 130),6	33391,(7, 131),4	33395,(7, 135),26	33421,(7, 136),2	33423,(7, 137),32	33455,(7, 138),72	33527,(7, 139),64	33591,(7, 140),4	33595,(7, 142),4	33599,(7, 144),4	33603,(7, 145),2	33605,(7, 146),4	33609,(7, 147),2	33611,(7, 148),20	33631,(7, 149),432	34063,(7, 150),2	34065,(7, 151),2	34067,(7, 152),6	34073,(7, 156),72	34145,(7, 157),2	34147,(7, 158),14	34161,(7, 161),32	34193,(7, 163),14	34207,(7, 166),36	34243,(7, 167),20	34263,(7, 170),122	34385,(7, 176),346	34731,(7, 181),14	34745,(7, 182),14	34759,(7, 186),140	34899,(7, 191),10	34909,(7, 192),62	34971,(7, 193),2	34973,(7, 194),14	34987,(7, 196),6	34993,(7, 198),34	35027,(7, 200),12	35039,(10, 26),4	35043,(10, 27),230	35273,(10, 29),2	35275,(10, 30),2	35277,(10, 32),38	35315,(10, 44),14	35329,(10, 46),110	35439,(10, 48),8	35447,(10, 49),16	35463,(10, 51),6	35469,(10, 53),378	35847,(10, 54),2	35849,(10, 56),2	35851,(10, 59),6	35857,(10, 60),20	35877,(10, 61),20	35897,(10, 63),2	35899,(10, 68),4	35903,(10, 69),62	35965,(10, 71),10	35975,(10, 72),12	35987,(10, 73),44	36031,(10, 74),28	36059,(10, 76),4	36063,(10, 77),162	36225,(10, 79),4	36229,(10, 80),32	36261,(10, 81),40	36301,(10, 83),184	36485,(10, 84),2	36487,(10, 86),6	36493,(10, 87),22	36515,(10, 88),160	36675,(10, 91),10	36685,(10, 92),4	36689,(10, 94),18	36707,(10, 99),12	36719,(10, 100),2	36721,(10, 101),8	36729,(10, 103),2	36731,(10, 105),14	36745,(10, 106),14	36759,(10, 107),2	36761,(10, 109),6	36767,(10, 110),2	36769,(10, 111),10	36779,(10, 115),54	36833,(10, 116),6	36839,(10, 117),2	36841,(10, 120),24	36865,(10, 121),28	36893,(10, 125),10	36903,(10, 128),8	36911,(10, 129),14	36925,(10, 132),30	36955,(10, 134),2	36957,(10, 135),2	36959,(10, 137),38	36997,(10, 138),22	37019,(10, 139),2	37021,(10, 141),4	37025,(10, 142),2	37027,(10, 144),4	37031,(10, 146),6	37037,(10, 148),136	37173,(10, 150),4	37177,(10, 151),2	37179,(10, 152),34	37213,(10, 158),26	37239,(10, 160),34	37273,(10, 162),66	37339,(10, 165),4	37343,(10, 167),10	37353,(10, 168),50	37403,(10, 171),82	37485,(10, 172),62	37547,(10, 174),2	37549,(10, 175),30	37579,(10, 176),24	37603,(10, 179),4	37607,(10, 181),2	37609,(10, 184),4	37613,(10, 186),14	37627,(10, 187),118	37745,(10, 190),10	37755,(10, 192),18	37773,(10, 193),12	37785,(10, 194),2	37787,(10, 200),6	37793,(11, 27),2	37795,(11, 28),26	37821,(11, 30),8	37829,(11, 37),8	37837,(11, 46),70	37907,(11, 50),20	37927,(11, 51),2	37929,(11, 54),16	37945,(11, 55),2	37947,(11, 58),16	37963,(11, 63),6	37969,(11, 65),2	37971,(11, 67),2	37973,(11, 69),22	37995,(11, 71),50	38045,(11, 73),8	38053,(11, 74),14	38067,(11, 75),22	38089,(11, 76),6	38095,(11, 80),12	38107,(11, 81),24	38131,(11, 82),2	38133,(11, 86),4	38137,(11, 87),6	38143,(11, 94),2	38145,(11, 96),72	38217,(11, 98),160	38377,(11, 99),2	38379,(11, 103),58	38437,(11, 105),22	38459,(11, 106),2	38461,(11, 109),78	38539,(11, 116),10	38549,(11, 117),2	38551,(11, 118),124	38675,(11, 119),22	38697,(11, 120),4	38701,(11, 121),10	38711,(11, 122),2	38713,(11, 124),8	38721,(11, 125),24	38745,(11, 126),2	38747,(11, 127),2	38749,(11, 128),4	38753,(11, 130),2	38755,(11, 131),4	38759,(11, 132),2	38761,(11, 134),2	38763,(11, 135),46	38809,(11, 136),6	38815,(11, 138),172	38987,(11, 139),22	39009,(11, 140),1158	40167,(11, 142),2	40169,(11, 144),4	40173,(11, 145),14	40187,(11, 146),18	40205,(11, 147),34	40239,(11, 149),90	40329,(11, 150),50	40379,(11, 151),2	40381,(11, 157),4	40385,(11, 159),418	40803,(11, 161),22	40825,(11, 162),50	40875,(11, 165),24	40899,(11, 167),12	40911,(11, 168),80	40991,(11, 169),62	41053,(11, 171),2	41055,(11, 172),26	41081,(11, 173),20	41101,(11, 174),2	41103,(11, 175),14	41117,(11, 176),2	41119,(11, 180),22	41141,(11, 182),8	41149,(11, 183),2	41151,(11, 187),36	41187,(11, 190),6	41193,(11, 192),2	41195,(11, 193),10	41205,(11, 194),2	41207,(11, 195),8	41215,(11, 197),34	41249,(14, 26),138	41387,(14, 27),42	41429,(14, 29),2	41431,(14, 30),24	41455,(14, 37),2	41457,(14, 50),2	41459,(14, 51),84	41543,(14, 53),24	41567,(14, 56),2	41569,(14, 61),34	41603,(14, 65),36	41639,(14, 66),32	41671,(14, 67),2	41673,(14, 68),4	41677,(14, 69),20	41697,(14, 71),8	41705,(14, 74),2	41707,(14, 76),2	41709,(14, 77),20	41729,(14, 80),22	41751,(14, 81),2	41753,(14, 82),18	41771,(14, 86),10	41781,(14, 91),2	41783,(14, 92),2	41785,(14, 94),64	41849,(14, 96),8	41857,(14, 97),74	41931,(14, 98),22	41953,(14, 99),2	41955,(14, 101),4	41959,(14, 103),4	41963,(14, 104),38	42001,(14, 106),2	42003,(14, 109),4	42007,(14, 110),2	42009,(14, 111),166	42175,(14, 113),22	42197,(14, 114),6	42203,(14, 115),6	42209,(14, 116),34	42243,(14, 117),2	42245,(14, 119),2	42247,(14, 120),2	42249,(14, 121),20	42269,(14, 122),6	42275,(14, 124),44	42319,(14, 127),34	42353,(14, 129),24	42377,(14, 130),2	42379,(14, 131),4	42383,(14, 135),94	42477,(14, 136),2	42479,(14, 139),22	42501,(14, 140),2	42503,(14, 141),12	42515,(14, 144),20	42535,(14, 145),32	42567,(14, 146),2	42569,(14, 147),14	42583,(14, 149),2	42585,(14, 152),8	42593,(14, 154),16	42609,(14, 156),20	42629,(14, 159),10	42639,(14, 162),10	42649,(14, 163),4	42653,(14, 165),4	42657,(14, 167),2	42659,(14, 170),4	42663,(14, 173),12	42675,(14, 174),4	42679,(14, 178),28	42707,(14, 179),2	42709,(14, 180),26	42735,(14, 181),8	42743,(14, 183),32	42775,(14, 185),10	42785,(14, 186),4	42789,(14, 188),2	42791,(14, 189),4	42795,(14, 190),14	42809,(14, 192),2	42811,(14, 193),12	42823,(14, 194),30	42853,(14, 195),68	42921,(14, 197),84	43005,(14, 198),6	43011,(14, 200),36	43047,(15, 26),6	43053,(15, 27),18	43071,(15, 30),2	43073,(15, 32),10	43083,(15, 42),20	43103,(15, 44),62	43165,(15, 49),36	43201,(15, 51),2	43203,(15, 54),2	43205,(15, 59),20	43225,(15, 60),18	43243,(15, 66),2	43245,(15, 67),6	43251,(15, 68),54	43305,(15, 69),6	43311,(15, 71),6	43317,(15, 72),92	43409,(15, 73),2	43411,(15, 75),22	43433,(15, 78),14	43447,(15, 80),6	43453,(15, 81),8	43461,(15, 82),24	43485,(15, 83),2	43487,(15, 84),46	43533,(15, 86),2	43535,(15, 89),2	43537,(15, 90),4	43541,(15, 91),34	43575,(15, 92),2	43577,(15, 94),6	43583,(15, 95),6	43589,(15, 96),8	43597,(15, 98),12	43609,(15, 99),6	43615,(15, 101),30	43645,(15, 103),8	43653,(15, 106),26	43679,(15, 108),14	43693,(15, 112),46	43739,(15, 113),142	43881,(15, 114),2	43883,(15, 116),2	43885,(15, 120),50	43935,(15, 122),2	43937,(15, 123),80	44017,(15, 126),38	44055,(15, 127),20	44075,(15, 130),142	44217,(15, 132),32	44249,(15, 134),2	44251,(15, 135),210	44461,(15, 136),212	44673,(15, 138),4	44677,(15, 139),62	44739,(15, 144),6	44745,(15, 145),82	44827,(15, 148),18	44845,(15, 149),8	44853,(15, 150),28	44881,(15, 152),276	45157,(15, 156),2	45159,(15, 158),4	45163,(15, 159),6	45169,(15, 160),40	45209,(15, 161),154	45363,(15, 162),2	45365,(15, 163),12	45377,(15, 167),2	45379,(15, 169),8	45387,(15, 170),10	45397,(15, 171),4	45401,(15, 173),16	45417,(15, 175),2	45419,(15, 176),8	45427,(15, 178),2	45429,(15, 179),38	45467,(15, 180),2	45469,(15, 181),10	45479,(15, 182),12	45491,(15, 184),4	45495,(15, 189),26	45521,(15, 190),12	45533,(15, 195),54	45587,(15, 196),2	45589,(15, 197),2	45591,(15, 199),2	45593,(18, 26),10	45603,(18, 27),4	45607,(18, 28),2	45609,(18, 29),4	45613,(18, 31),2	45615,(18, 37),20	45635,(18, 49),4	45639,(18, 51),30	45669,(18, 53),2	45671,(18, 55),16	45687,(18, 58),8	45695,(18, 60),2	45697,(18, 61),2	45699,(18, 63),14	45713,(18, 69),6	45719,(18, 70),4	45723,(18, 72),2	45725,(18, 76),102	45827,(18, 77),6	45833,(18, 78),98	45931,(18, 79),10	45941,(18, 80),12	45953,(18, 81),526	46479,(18, 86),2	46481,(18, 89),2	46483,(18, 91),8	46491,(18, 99),6	46497,(18, 101),28	46525,(18, 103),4	46529,(18, 105),34	46563,(18, 107),4	46567,(18, 109),2	46569,(18, 111),30	46599,(18, 113),2	46601,(18, 114),6	46607,(18, 116),2	46609,(18, 117),4	46613,(18, 118),26	46639,(18, 120),2	46641,(18, 122),2	46643,(18, 124),62	46705,(18, 125),32	46737,(18, 126),2	46739,(18, 128),2	46741,(18, 130),716	47457,(18, 131),2	47459,(18, 132),62	47521,(18, 136),2	47523,(18, 137),4	47527,(18, 138),2	47529,(18, 139),56	47585,(18, 140),6	47591,(18, 141),2	47593,(18, 142),2	47595,(18, 146),2	47597,(18, 148),2	47599,(18, 150),24	47623,(18, 152),2	47625,(18, 154),6	47631,(18, 162),2	47633,(18, 163),4	47637,(18, 164),8	47645,(18, 166),12	47657,(18, 168),6	47663,(18, 169),2	47665,(18, 171),52	47717,(18, 175),2	47719,(18, 176),182	47901,(18, 177),18	47919,(18, 179),4	47923,(18, 180),2	47925,(18, 182),6	47931,(18, 183),12	47943,(18, 184),2	47945,(18, 186),6	47951,(18, 187),12	47963,(18, 189),20	47983,(18, 190),22	48005,(18, 191),48	48053,(18, 196),110	48163,(18, 197),6	48169,(19, 26),2	48171,(19, 27),2	48173,(19, 28),2	48175,(19, 31),2	48177,(19, 37),78	48255,(19, 39),4	48259,(19, 42),2	48261,(19, 49),646	48907,(19, 54),8	48915,(19, 55),2	48917,(19, 56),54	48971,(19, 59),20	48991,(19, 60),4	48995,(19, 66),34	49029,(19, 73),60	49089,(19, 74),10	49099,(19, 77),6	49105,(19, 78),8	49113,(19, 80),2	49115,(19, 81),24	49139,(19, 82),4	49143,(19, 84),16	49159,(19, 88),2	49161,(19, 90),14	49175,(19, 91),14	49189,(19, 92),2	49191,(19, 96),2	49193,(19, 97),68	49261,(19, 99),2	49263,(19, 101),2	49265,(19, 103),2	49267,(19, 104),48	49315,(19, 105),2	49317,(19, 108),26	49343,(19, 109),14	49357,(19, 110),40	49397,(19, 112),8	49405,(19, 113),30	49435,(19, 114),14	49449,(19, 116),152	49601,(19, 118),2	49603,(19, 119),98	49701,(19, 121),2	49703,(19, 123),10	49713,(19, 125),14	49727,(19, 126),20	49747,(19, 128),2	49749,(19, 131),20	49769,(19, 134),20	49789,(19, 135),2	49791,(19, 140),2	49793,(19, 141),26	49819,(19, 142),2	49821,(19, 143),10	49831,(19, 145),2	49833,(19, 148),8	49841,(19, 149),8	49849,(19, 150),4	49853,(19, 156),22	49875,(19, 157),2	49877,(19, 161),16	49893,(19, 162),2	49895,(19, 163),2	49897,(19, 165),8	49905,(19, 167),24	49929,(19, 168),24	49953,(19, 170),178	50131,(19, 172),794	50925,(19, 175),34	50959,(19, 176),6	50965,(19, 179),2	50967,(19, 180),2	50969,(19, 183),4	50973,(19, 184),98	51071,(19, 186),42	51113,(19, 187),6	51119,(19, 191),4	51123,(19, 193),4	51127,(19, 195),26	51153,(19, 196),2	51155,(25, 201),18	51173,(22, 201),18	51191,(21, 201),18	51209,(23, 201),18	51227,(33, 201),18	51245,(52, 201),18	51263,(43, 201),18	51281,(41, 201),18	51299,(35, 201),18	51317,(93, 201),18	51335,(153, 201),18	51353,(102, 201),18	51371,(155, 201),18	51389,(57, 201),18	51407,(62, 201),18	51425,(36, 201),18	51443,(24, 201),18	51461,(34, 201),18	51479,(38, 201),18	51497,(40, 201),18	51515,(45, 201),18	51533,(47, 201),18	51551,(85, 201),18	
235,(0, 3),234	469,(2, 62),16	708,(4, 24),2	714,(4, 38),12	726,(4, 41),2	728,(4, 47),22	750,(4, 52),20	770,(4, 57),4	774,(4, 93),2	937,(0, 7),234	1406,(8, 24),18	1424,(8, 34),2	1426,(8, 41),4	1430,(8, 45),126	1556,(8, 52),2	1558,(8, 57),8	1639,(0, 11),234	2108,(12, 24),20	2128,(12, 38),2	2130,(12, 41),2	2132,(12, 62),4	2341,(0, 15),234	2691,(6, 38),2	2693,(6, 47),58	2751,(6, 57),8	2759,(6, 93),2	2773,(10, 24),32	2807,(10, 57),2	2810,(16, 24),10	2820,(16, 38),8	2828,(16, 41),2	2830,(16, 47),98	2928,(16, 57),2	2930,(16, 93),20	3043,(0, 19),234	3283,(10, 34),38	3321,(10, 41),4	3325,(10, 62),2	3327,(10, 93),16	3353,(14, 45),4	3357,(14, 52),2	3359,(14, 62),74	3433,(14, 93),22	3455,(18, 47),8	3463,(18, 57),18	3517,(5, 24),122	3639,(20, 24),8	3709,(5, 34),878	4587,(20, 38),10	4597,(20, 41),12	4609,(20, 45),14	4647,(5, 38),2	4649,(16, 52),90	4759,(5, 47),2	4781,(5, 62),2	4783,(6, 41),264	5047,(20, 47),56	5103,(20, 57),138	6205,(20, 62),180	6487,(5, 93),8	6495,(20, 93),334	10409,(1, 24),34	11767,(1, 34),2	11789,(1, 45),16	11805,(1, 47),24	11875,(1, 57),8	11897,(1, 62),22	15933,(9, 24),26	15967,(9, 34),6	16011,(9, 38),54	18005,(9, 45),6	18127,(9, 47),2	20299,(13, 24),28	20345,(13, 34),2	20365,(13, 38),194	20697,(13, 47),62	23657,(17, 24),12	23711,(17, 34),6	23717,(17, 38),2	23811,(17, 45),6	23829,(17, 47),16	
1,(0, 2),234	470,(3, 22),18	504,(3, 36),22	703,(0, 6),234	937,(4, 22),100	1037,(4, 40),4	1041,(4, 85),6	1172,(7, 36),4	1405,(0, 10),234	1639,(8, 22),4	1643,(8, 40),4	1647,(8, 43),56	1874,(11, 22),38	1912,(11, 40),22	1934,(11, 43),4	2107,(0, 14),234	2341,(12, 22),2	2343,(12, 36),4	2576,(15, 22),2	2578,(15, 36),14	2592,(15, 85),18	2809,(0, 18),234	3043,(16, 22),16	3203,(16, 40),78	3311,(19, 22),10	3323,(19, 36),20	3343,(19, 40),10	3511,(5, 22),6	3517,(19, 43),304	3999,(20, 40),64	4587,(5, 36),46	4709,(5, 40),2	4727,(5, 43),14	11769,(1, 36),4	15973,(9, 36),38	18535,(9, 85),6	20687,(13, 40),4	21331,(13, 85),366	23735,(17, 40),28	24209,(17, 85),356	
236,(2, 23),2	238,(2, 25),32	270,(2, 153),6	488,(3, 25),2	490,(3, 35),14	526,(3, 155),2	704,(4, 21),4	710,(4, 25),2	712,(4, 35),2	801,(2, 35),1842	2643,(6, 21),4	2647,(6, 23),20	2667,(6, 25),8	2675,(6, 33),16	2691,(7, 21),2	2693,(7, 35),24	2717,(7, 102),8	2725,(7, 153),10	2735,(8, 33),10	2745,(8, 102),10	2755,(11, 25),6	2761,(6, 155),4	2765,(10, 21),2	2767,(10, 23),6	2773,(11, 21),24	2797,(11, 35),2	2799,(11, 155),2	2801,(12, 153),2	2803,(12, 155),2	2805,(10, 35),2	2807,(11, 23),52	2859,(11, 102),52	2911,(11, 153),44	2955,(12, 33),10	2965,(12, 102),28	2993,(15, 21),6	2999,(15, 23),2	3001,(15, 33),26	3059,(16, 25),36	3095,(16, 33),108	3277,(10, 33),6	3283,(19, 21),28	3321,(19, 33),2	3343,(10, 102),2	3345,(10, 155),2	3347,(14, 21),2	3349,(14, 25),2	3351,(14, 35),2	3353,(16, 102),134	3487,(18, 21),2	3489,(18, 102),2	3491,(19, 102),2	3512,(20, 21),12	3524,(20, 23),18	3647,(20, 33),352	5047,(18, 35),362	5409,(20, 35),796	6495,(18, 153),1620	8115,(20, 102),1338	9453,(20, 155),2246	
# Outgoing
704,(4, 21),4	708,(4, 24),2	710,(4, 25),2	712,(4, 35),2	714,(4, 38),12	726,(4, 41),2	728,(4, 47),22	750,(4, 52),20	770,(4, 57),4	774,(4, 93),2	937,(4, 22),100	1037,(4, 40),4	1041,(4, 85),6	1406,(8, 24),18	1424,(8, 34),2	1426,(8, 41),4	1430,(8, 45),126	1556,(8, 52),2	1558,(8, 57),8	1639,(8, 22),4	1643,(8, 40),4	1647,(8, 43),56	2108,(12, 24),20	2128,(12, 38),2	2130,(12, 41),2	2132,(12, 62),4	2341,(12, 22),2	2343,(12, 36),4	2735,(8, 33),10	2745,(8, 102),10	2801,(12, 153),2	2803,(12, 155),2	2810,(16, 24),10	2820,(16, 38),8	2828,(16, 41),2	2830,(16, 47),98	2928,(16, 57),2	2930,(16, 93),20	2955,(12, 33),10	2965,(12, 102),28	3043,(16, 22),16	3059,(16, 25),36	3095,(16, 33),108	3203,(16, 40),78	3353,(16, 102),134	3512,(20, 21),12	3524,(20, 23),18	3639,(20, 24),8	3647,(20, 33),352	3999,(20, 40),64	4587,(20, 38),10	4597,(20, 41),12	4609,(20, 45),14	4649,(16, 52),90	5047,(20, 47),56	5103,(20, 57),138	5409,(20, 35),796	6205,(20, 62),180	6495,(20, 93),334	8115,(20, 102),1338	9453,(20, 155),2246	
470,(3, 22),18	488,(3, 25),2	490,(3, 35),14	504,(3, 36),22	526,(3, 155),2	801,(3, 28),58	859,(3, 29),146	1005,(3, 37),8	1013,(3, 42),12	1025,(3, 44),116	1141,(3, 50),2	1143,(3, 55),2	1145,(3, 58),6	1151,(3, 59),2	1153,(3, 63),10	1163,(3, 65),4	1167,(3, 68),2	1169,(3, 70),2	1172,(7, 36),4	1405,(3, 48),44	1449,(3, 54),36	1485,(3, 56),102	1587,(3, 66),6	1593,(3, 67),6	1599,(3, 71),6	1605,(3, 76),4	1609,(3, 78),16	1625,(3, 81),12	1637,(3, 82),4	1641,(3, 84),2	1643,(3, 86),12	1655,(3, 89),20	1675,(3, 90),18	1693,(3, 91),26	1719,(3, 92),4	1723,(3, 94),12	1735,(3, 97),14	1749,(3, 105),2	1751,(3, 106),12	1763,(3, 115),6	1769,(3, 116),6	1775,(3, 117),40	1815,(3, 119),2	1817,(3, 120),2	1819,(3, 121),32	1851,(3, 122),2	1853,(3, 125),2	1855,(3, 126),4	1859,(3, 131),2	1861,(3, 136),6	1867,(3, 138),2	1869,(3, 140),4	1874,(11, 22),38	1912,(11, 40),22	1934,(11, 43),4	2107,(3, 118),130	2237,(3, 123),26	2263,(3, 129),16	2279,(3, 133),86	2365,(3, 135),18	2383,(3, 137),28	2411,(3, 143),16	2427,(3, 145),24	2451,(3, 146),26	2477,(3, 147),2	2479,(3, 150),16	2495,(3, 151),46	2541,(3, 154),12	2553,(3, 156),20	2573,(3, 160),2	2576,(15, 22),2	2578,(15, 36),14	2592,(15, 85),18	2691,(7, 21),2	2693,(7, 35),24	2717,(7, 102),8	2725,(7, 153),10	2755,(11, 25),6	2773,(11, 21),24	2797,(11, 35),2	2799,(11, 155),2	2807,(11, 23),52	2859,(11, 102),52	2911,(11, 153),44	2993,(15, 21),6	2999,(15, 23),2	3001,(15, 33),26	3283,(19, 21),28	3311,(19, 22),10	3321,(19, 33),2	3323,(19, 36),20	3343,(19, 40),10	3491,(19, 102),2	3517,(19, 43),304	4759,(3, 173),2	4781,(3, 176),2	10439,(3, 170),4	11881,(3, 179),2	11911,(3, 159),6	11917,(3, 181),2	15949,(3, 164),8	15957,(3, 183),2	18005,(3, 186),2	18007,(3, 194),2	18535,(3, 193),6	20299,(3, 166),18	20697,(3, 177),18	20715,(3, 190),26	21513,(3, 157),98	21611,(3, 158),74	24209,(3, 191),118	24327,(3, 196),68	27959,(3, 142),652	28611,(3, 198),196	32131,(7, 27),10	32141,(7, 28),22	32163,(7, 29),72	32235,(7, 30),10	32245,(7, 31),6	32251,(7, 32),10	32261,(7, 37),46	32307,(7, 39),8	32315,(7, 44),2	32317,(7, 48),40	32357,(7, 50),2	32359,(7, 54),30	32389,(7, 59),2	32391,(7, 63),10	32401,(7, 64),82	32483,(7, 65),4	32487,(7, 67),12	32499,(7, 68),66	32565,(7, 70),50	32615,(7, 71),12	32627,(7, 74),52	32679,(7, 75),6	32685,(7, 77),8	32693,(7, 78),2	32695,(7, 80),8	32703,(7, 81),6	32709,(7, 86),58	32767,(7, 87),366	33133,(7, 90),4	33137,(7, 92),80	33217,(7, 97),18	33235,(7, 100),66	33301,(7, 103),24	33325,(7, 110),8	33333,(7, 112),2	33335,(7, 113),2	33337,(7, 115),6	33343,(7, 117),14	33357,(7, 121),6	33363,(7, 123),2	33365,(7, 124),18	33383,(7, 126),2	33385,(7, 130),6	33391,(7, 131),4	33395,(7, 135),26	33421,(7, 136),2	33423,(7, 137),32	33455,(7, 138),72	33527,(7, 139),64	33591,(7, 140),4	33595,(7, 142),4	33599,(7, 144),4	33603,(7, 145),2	33605,(7, 146),4	33609,(7, 147),2	33611,(7, 148),20	33631,(7, 149),432	34063,(7, 150),2	34065,(7, 151),2	34067,(7, 152),6	34073,(7, 156),72	34145,(7, 157),2	34147,(7, 158),14	34161,(7, 161),32	34193,(7, 163),14	34207,(7, 166),36	34243,(7, 167),20	34263,(7, 170),122	34385,(7, 176),346	34731,(7, 181),14	34745,(7, 182),14	34759,(7, 186),140	34899,(7, 191),10	34909,(7, 192),62	34971,(7, 193),2	34973,(7, 194),14	34987,(7, 196),6	34993,(7, 198),34	35027,(7, 200),12	37793,(11, 27),2	37795,(11, 28),26	37821,(11, 30),8	37829,(11, 37),8	37837,(11, 46),70	37907,(11, 50),20	37927,(11, 51),2	37929,(11, 54),16	37945,(11, 55),2	37947,(11, 58),16	37963,(11, 63),6	37969,(11, 65),2	37971,(11, 67),2	37973,(11, 69),22	37995,(11, 71),50	38045,(11, 73),8	38053,(11, 74),14	38067,(11, 75),22	38089,(11, 76),6	38095,(11, 80),12	38107,(11, 81),24	38131,(11, 82),2	38133,(11, 86),4	38137,(11, 87),6	38143,(11, 94),2	38145,(11, 96),72	38217,(11, 98),160	38377,(11, 99),2	38379,(11, 103),58	38437,(11, 105),22	38459,(11, 106),2	38461,(11, 109),78	38539,(11, 116),10	38549,(11, 117),2	38551,(11, 118),124	38675,(11, 119),22	38697,(11, 120),4	38701,(11, 121),10	38711,(11, 122),2	38713,(11, 124),8	38721,(11, 125),24	38745,(11, 126),2	38747,(11, 127),2	38749,(11, 128),4	38753,(11, 130),2	38755,(11, 131),4	38759,(11, 132),2	38761,(11, 134),2	38763,(11, 135),46	38809,(11, 136),6	38815,(11, 138),172	38987,(11, 139),22	39009,(11, 140),1158	40167,(11, 142),2	40169,(11, 144),4	40173,(11, 145),14	40187,(11, 146),18	40205,(11, 147),34	40239,(11, 149),90	40329,(11, 150),50	40379,(11, 151),2	40381,(11, 157),4	40385,(11, 159),418	40803,(11, 161),22	40825,(11, 162),50	40875,(11, 165),24	40899,(11, 167),12	40911,(11, 168),80	40991,(11, 169),62	41053,(11, 171),2	41055,(11, 172),26	41081,(11, 173),20	41101,(11, 174),2	41103,(11, 175),14	41117,(11, 176),2	41119,(11, 180),22	41141,(11, 182),8	41149,(11, 183),2	41151,(11, 187),36	41187,(11, 190),6	41193,(11, 192),2	41195,(11, 193),10	41205,(11, 194),2	41207,(11, 195),8	41215,(11, 197),34	43047,(15, 26),6	43053,(15, 27),18	43071,(15, 30),2	43073,(15, 32),10	43083,(15, 42),20	43103,(15, 44),62	43165,(15, 49),36	43201,(15, 51),2	43203,(15, 54),2	43205,(15, 59),20	43225,(15, 60),18	43243,(15, 66),2	43245,(15, 67),6	43251,(15, 68),54	43305,(15, 69),6	43311,(15, 71),6	43317,(15, 72),92	43409,(15, 73),2	43411,(15, 75),22	43433,(15, 78),14	43447,(15, 80),6	43453,(15, 81),8	43461,(15, 82),24	43485,(15, 83),2	43487,(15, 84),46	43533,(15, 86),2	43535,(15, 89),2	43537,(15, 90),4	43541,(15, 91),34	43575,(15, 92),2	43577,(15, 94),6	43583,(15, 95),6	43589,(15, 96),8	43597,(15, 98),12	43609,(15, 99),6	43615,(15, 101),30	43645,(15, 103),8	43653,(15, 106),26	43679,(15, 108),14	43693,(15, 112),46	43739,(15, 113),142	43881,(15, 114),2	43883,(15, 116),2	43885,(15, 120),50	43935,(15, 122),2	43937,(15, 123),80	44017,(15, 126),38	44055,(15, 127),20	44075,(15, 130),142	44217,(15, 132),32	44249,(15, 134),2	44251,(15, 135),210	44461,(15, 136),212	44673,(15, 138),4	44677,(15, 139),62	44739,(15, 144),6	44745,(15, 145),82	44827,(15, 148),18	44845,(15, 149),8	44853,(15, 150),28	44881,(15, 152),276	45157,(15, 156),2	45159,(15, 158),4	45163,(15, 159),6	45169,(15, 160),40	45209,(15, 161),154	45363,(15, 162),2	45365,(15, 163),12	45377,(15, 167),2	45379,(15, 169),8	45387,(15, 170),10	45397,(15, 171),4	45401,(15, 173),16	45417,(15, 175),2	45419,(15, 176),8	45427,(15, 178),2	45429,(15, 179),38	45467,(15, 180),2	45469,(15, 181),10	45479,(15, 182),12	45491,(15, 184),4	45495,(15, 189),26	45521,(15, 190),12	45533,(15, 195),54	45587,(15, 196),2	45589,(15, 197),2	45591,(15, 199),2	48169,(19, 26),2	48171,(19, 27),2	48173,(19, 28),2	48175,(19, 31),2	48177,(19, 37),78	48255,(19, 39),4	48259,(19, 42),2	48261,(19, 49),646	48907,(19, 54),8	48915,(19, 55),2	48917,(19, 56),54	48971,(19, 59),20	48991,(19, 60),4	48995,(19, 66),34	49029,(19, 73),60	49089,(19, 74),10	49099,(19, 77),6	49105,(19, 78),8	49113,(19, 80),2	49115,(19, 81),24	49139,(19, 82),4	49143,(19, 84),16	49159,(19, 88),2	49161,(19, 90),14	49175,(19, 91),14	49189,(19, 92),2	49191,(19, 96),2	49193,(19, 97),68	49261,(19, 99),2	49263,(19, 101),2	49265,(19, 103),2	49267,(19, 104),48	49315,(19, 105),2	49317,(19, 108),26	49343,(19, 109),14	49357,(19, 110),40	49397,(19, 112),8	49405,(19, 113),30	49435,(19, 114),14	49449,(19, 116),152	49601,(19, 118),2	49603,(19, 119),98	49701,(19, 121),2	49703,(19, 123),10	49713,(19, 125),14	49727,(19, 126),20	49747,(19, 128),2	49749,(19, 131),20	49769,(19, 134),20	49789,(19, 135),2	49791,(19, 140),2	49793,(19, 141),26	49819,(19, 142),2	49821,(19, 143),10	49831,(19, 145),2	49833,(19, 148),8	49841,(19, 149),8	49849,(19, 150),4	49853,(19, 156),22	49875,(19, 157),2	49877,(19, 161),16	49893,(19, 162),2	49895,(19, 163),2	49897,(19, 165),8	49905,(19, 167),24	49929,(19, 168),24	49953,(19, 170),178	50131,(19, 172),794	50925,(19, 175),34	50959,(19, 176),6	50965,(19, 179),2	50967,(19, 180),2	50969,(19, 183),4	50973,(19, 184),98	51071,(19, 186),42	51113,(19, 187),6	51119,(19, 191),4	51123,(19, 193),4	51127,(19, 195),26	51153,(19, 196),2	51245,(52, 201),18	51281,(41, 201),18	51317,(93, 201),18	51389,(57, 201),18	51407,(62, 201),18	51443,(24, 201),18	51461,(34, 201),18	51479,(38, 201),18	51515,(45, 201),18	51533,(47, 201),18	
236,(2, 23),2	238,(2, 25),32	270,(2, 153),6	469,(2, 62),16	703,(2, 26),14	717,(2, 27),2	719,(2, 30),8	727,(2, 31),6	733,(2, 32),68	801,(2, 35),1842	2643,(6, 21),4	2647,(6, 23),20	2667,(6, 25),8	2675,(6, 33),16	2691,(6, 38),2	2693,(6, 47),58	2751,(6, 57),8	2759,(6, 93),2	2761,(6, 155),4	2765,(10, 21),2	2767,(10, 23),6	2773,(10, 24),32	2805,(10, 35),2	2807,(10, 57),2	2809,(2, 37),2	2811,(2, 44),4	2815,(2, 50),2	2817,(2, 53),106	2923,(2, 55),74	2997,(2, 59),2	2999,(2, 60),48	3047,(2, 63),10	3057,(2, 65),52	3109,(2, 66),56	3165,(2, 69),2	3167,(2, 70),50	3217,(2, 71),2	3219,(2, 73),28	3247,(2, 74),8	3255,(2, 77),4	3259,(2, 78),10	3269,(2, 80),2	3271,(2, 84),2	3273,(2, 89),4	3277,(10, 33),6	3283,(10, 34),38	3321,(10, 41),4	3325,(10, 62),2	3327,(10, 93),16	3343,(10, 102),2	3345,(10, 155),2	3347,(14, 21),2	3349,(14, 25),2	3351,(14, 35),2	3353,(14, 45),4	3357,(14, 52),2	3359,(14, 62),74	3433,(14, 93),22	3455,(18, 47),8	3463,(18, 57),18	3487,(18, 21),2	3489,(18, 102),2	3511,(2, 76),48	3559,(2, 79),14	3573,(2, 81),28	3601,(2, 87),20	3621,(2, 90),8	3629,(2, 91),4	3633,(2, 96),2	3635,(2, 112),2	3637,(2, 116),2	3709,(2, 83),84	3793,(2, 88),58	3851,(2, 95),10	3861,(2, 97),8	3869,(2, 103),6	3875,(2, 104),6	3881,(2, 105),38	3919,(2, 107),94	4013,(2, 109),10	4023,(2, 113),68	4091,(2, 114),10	4101,(2, 115),34	4135,(2, 119),94	4229,(2, 120),2	4231,(2, 125),8	4239,(2, 128),2	4241,(2, 130),26	4267,(2, 131),114	4381,(2, 132),24	4405,(2, 135),2	4407,(2, 136),8	4415,(2, 140),80	4495,(2, 143),2	4497,(2, 147),38	4535,(2, 148),2	4537,(2, 149),2	4539,(2, 152),2	4541,(2, 157),40	4581,(2, 159),4	4585,(2, 161),20	4605,(2, 162),26	4631,(2, 164),2	4647,(2, 174),2	4709,(2, 198),2	4727,(2, 169),12	4739,(2, 200),2	4783,(6, 41),264	5047,(18, 35),362	6487,(2, 170),8	6495,(18, 153),1620	10409,(2, 167),30	11767,(2, 187),6	11789,(2, 177),30	11819,(2, 179),10	11875,(2, 197),6	11897,(2, 178),14	15933,(2, 191),16	15967,(2, 163),42	16009,(2, 185),44	16053,(2, 196),12	18009,(6, 32),2	18127,(6, 42),2	20317,(6, 27),10	20345,(6, 44),2	20365,(2, 166),108	20473,(2, 173),70	20543,(6, 28),4	20547,(6, 39),12	20687,(6, 56),2	20689,(6, 58),2	20741,(6, 48),18	21331,(2, 182),74	21405,(2, 183),108	21685,(6, 49),6	21691,(6, 67),4	21695,(6, 68),2	23657,(6, 50),8	23665,(6, 69),4	23711,(6, 65),8	23735,(6, 55),18	23753,(6, 84),8	23761,(6, 95),2	23811,(6, 105),2	23813,(6, 113),2	23815,(6, 130),2	23829,(6, 61),16	24395,(6, 26),46	24441,(6, 29),76	24517,(6, 60),32	24549,(6, 78),12	24561,(6, 126),4	25845,(2, 151),2114	28807,(6, 66),18	28825,(6, 73),44	28869,(6, 87),66	28935,(6, 88),8	28943,(6, 89),8	28951,(6, 91),16	28967,(6, 96),52	29019,(6, 97),22	29041,(6, 108),50	29091,(6, 118),22	29113,(6, 119),10	29123,(6, 124),142	29265,(6, 127),16	29281,(6, 133),10	29291,(6, 134),4	29295,(6, 136),1208	30503,(6, 140),10	30513,(6, 143),848	31361,(6, 146),2	31363,(6, 147),10	31373,(6, 148),2	31375,(6, 149),16	31391,(6, 154),2	31393,(6, 156),4	31397,(6, 159),32	31429,(6, 161),46	31475,(6, 165),2	31477,(6, 166),22	31499,(6, 168),46	31545,(6, 173),36	31581,(6, 174),2	31583,(6, 175),14	31597,(6, 179),10	31607,(6, 180),2	31609,(6, 181),4	31613,(6, 182),62	31675,(6, 184),28	31703,(6, 185),40	31743,(6, 186),16	31759,(6, 188),4	31763,(6, 191),6	31769,(6, 192),236	32005,(6, 193),2	32007,(6, 196),90	32097,(6, 197),30	32127,(6, 198),4	35039,(10, 26),4	35043,(10, 27),230	35273,(10, 29),2	35275,(10, 30),2	35277,(10, 32),38	35315,(10, 44),14	35329,(10, 46),110	35439,(10, 48),8	35447,(10, 49),16	35463,(10, 51),6	35469,(10, 53),378	35847,(10, 54),2	35849,(10, 56),2	35851,(10, 59),6	35857,(10, 60),20	35877,(10, 61),20	35897,(10, 63),2	35899,(10, 68),4	35903,(10, 69),62	35965,(10, 71),10	35975,(10, 72),12	35987,(10, 73),44	36031,(10, 74),28	36059,(10, 76),4	36063,(10, 77),162	36225,(10, 79),4	36229,(10, 80),32	36261,(10, 81),40	36301,(10, 83),184	36485,(10, 84),2	36487,(10, 86),6	36493,(10, 87),22	36515,(10, 88),160	36675,(10, 91),10	36685,(10, 92),4	36689,(10, 94),18	36707,(10, 99),12	36719,(10, 100),2	36721,(10, 101),8	36729,(10, 103),2	36731,(10, 105),14	36745,(10, 106),14	36759,(10, 107),2	36761,(10, 109),6	36767,(10, 110),2	36769,(10, 111),10	36779,(10, 115),54	36833,(10, 116),6	36839,(10, 117),2	36841,(10, 120),24	36865,(10, 121),28	36893,(10, 125),10	36903,(10, 128),8	36911,(10, 129),14	36925,(10, 132),30	36955,(10, 134),2	36957,(10, 135),2	36959,(10, 137),38	36997,(10, 138),22	37019,(10, 139),2	37021,(10, 141),4	37025,(10, 142),2	37027,(10, 144),4	37031,(10, 146),6	37037,(10, 148),136	37173,(10, 150),4	37177,(10, 151),2	37179,(10, 152),34	37213,(10, 158),26	37239,(10, 160),34	37273,(10, 162),66	37339,(10, 165),4	37343,(10, 167),10	37353,(10, 168),50	37403,(10, 171),82	37485,(10, 172),62	37547,(10, 174),2	37549,(10, 175),30	37579,(10, 176),24	37603,(10, 179),4	37607,(10, 181),2	37609,(10, 184),4	37613,(10, 186),14	37627,(10, 187),118	37745,(10, 190),10	37755,(10, 192),18	37773,(10, 193),12	37785,(10, 194),2	37787,(10, 200),6	41249,(14, 26),138	41387,(14, 27),42	41429,(14, 29),2	41431,(14, 30),24	41455,(14, 37),2	41457,(14, 50),2	41459,(14, 51),84	41543,(14, 53),24	41567,(14, 56),2	41569,(14, 61),34	41603,(14, 65),36	41639,(14, 66),32	41671,(14, 67),2	41673,(14, 68),4	41677,(14, 69),20	41697,(14, 71),8	41705,(14, 74),2	41707,(14, 76),2	41709,(14, 77),20	41729,(14, 80),22	41751,(14, 81),2	41753,(14, 82),18	41771,(14, 86),10	41781,(14, 91),2	41783,(14, 92),2	41785,(14, 94),64	41849,(14, 96),8	41857,(14, 97),74	41931,(14, 98),22	41953,(14, 99),2	41955,(14, 101),4	41959,(14, 103),4	41963,(14, 104),38	42001,(14, 106),2	42003,(14, 109),4	42007,(14, 110),2	42009,(14, 111),166	42175,(14, 113),22	42197,(14, 114),6	42203,(14, 115),6	42209,(14, 116),34	42243,(14, 117),2	42245,(14, 119),2	42247,(14, 120),2	42249,(14, 121),20	42269,(14, 122),6	42275,(14, 124),44	42319,(14, 127),34	42353,(14, 129),24	42377,(14, 130),2	42379,(14, 131),4	42383,(14, 135),94	42477,(14, 136),2	42479,(14, 139),22	42501,(14, 140),2	42503,(14, 141),12	42515,(14, 144),20	42535,(14, 145),32	42567,(14, 146),2	42569,(14, 147),14	42583,(14, 149),2	42585,(14, 152),8	42593,(14, 154),16	42609,(14, 156),20	42629,(14, 159),10	42639,(14, 162),10	42649,(14, 163),4	42653,(14, 165),4	42657,(14, 167),2	42659,(14, 170),4	42663,(14, 173),12	42675,(14, 174),4	42679,(14, 178),28	42707,(14, 179),2	42709,(14, 180),26	42735,(14, 181),8	42743,(14, 183),32	42775,(14, 185),10	42785,(14, 186),4	42789,(14, 188),2	42791,(14, 189),4	42795,(14, 190),14	42809,(14, 192),2	42811,(14, 193),12	42823,(14, 194),30	42853,(14, 195),68	42921,(14, 197),84	43005,(14, 198),6	43011,(14, 200),36	45593,(18, 26),10	45603,(18, 27),4	45607,(18, 28),2	45609,(18, 29),4	45613,(18, 31),2	45615,(18, 37),20	45635,(18, 49),4	45639,(18, 51),30	45669,(18, 53),2	45671,(18, 55),16	45687,(18, 58),8	45695,(18, 60),2	45697,(18, 61),2	45699,(18, 63),14	45713,(18, 69),6	45719,(18, 70),4	45723,(18, 72),2	45725,(18, 76),102	45827,(18, 77),6	45833,(18, 78),98	45931,(18, 79),10	45941,(18, 80),12	45953,(18, 81),526	46479,(18, 86),2	46481,(18, 89),2	46483,(18, 91),8	46491,(18, 99),6	46497,(18, 101),28	46525,(18, 103),4	46529,(18, 105),34	46563,(18, 107),4	46567,(18, 109),2	46569,(18, 111),30	46599,(18, 113),2	46601,(18, 114),6	46607,(18, 116),2	46609,(18, 117),4	46613,(18, 118),26	46639,(18, 120),2	46641,(18, 122),2	46643,(18, 124),62	46705,(18, 125),32	46737,(18, 126),2	46739,(18, 128),2	46741,(18, 130),716	47457,(18, 131),2	47459,(18, 132),62	47521,(18, 136),2	47523,(18, 137),4	47527,(18, 138),2	47529,(18, 139),56	47585,(18, 140),6	47591,(18, 141),2	47593,(18, 142),2	47595,(18, 146),2	47597,(18, 148),2	47599,(18, 150),24	47623,(18, 152),2	47625,(18, 154),6	47631,(18, 162),2	47633,(18, 163),4	47637,(18, 164),8	47645,(18, 166),12	47657,(18, 168),6	47663,(18, 169),2	47665,(18, 171),52	47717,(18, 175),2	47719,(18, 176),182	47901,(18, 177),18	47919,(18, 179),4	47923,(18, 180),2	47925,(18, 182),6	47931,(18, 183),12	47943,(18, 184),2	47945,(18, 186),6	47951,(18, 187),12	47963,(18, 189),20	47983,(18, 190),22	48005,(18, 191),48	48053,(18, 196),110	48163,(18, 197),6	51173,(22, 201),18	51263,(43, 201),18	51425,(36, 201),18	51497,(40, 201),18	51551,(85, 201),18	
1,(0, 2),234	235,(0, 3),234	469,(0, 4),234	703,(0, 6),234	937,(0, 7),234	1171,(0, 8),234	1405,(0, 10),234	1639,(0, 11),234	1873,(0, 12),234	2107,(0, 14),234	2341,(0, 15),234	2575,(0, 16),234	2809,(0, 18),234	3043,(0, 19),234	3277,(0, 20),234	3511,(5, 22),6	3517,(5, 24),122	3639,(5, 28),46	3685,(5, 30),8	3693,(5, 32),16	3709,(5, 34),878	4587,(5, 36),46	4633,(5, 37),14	4647,(5, 38),2	4649,(5, 39),60	4709,(5, 40),2	4711,(5, 42),16	4727,(5, 43),14	4741,(5, 44),12	4753,(5, 46),6	4759,(5, 47),2	4761,(5, 48),8	4769,(5, 53),2	4771,(5, 55),2	4773,(5, 56),6	4779,(5, 61),2	4781,(5, 62),2	4783,(5, 63),336	5119,(5, 64),1140	6259,(5, 65),6	6265,(5, 69),2	6267,(5, 70),22	6289,(5, 74),12	6301,(5, 76),70	6371,(5, 78),8	6379,(5, 80),16	6395,(5, 83),2	6397,(5, 84),6	6403,(5, 86),16	6419,(5, 88),12	6431,(5, 89),10	6441,(5, 90),2	6443,(5, 91),2	6445,(5, 92),42	6487,(5, 93),8	6495,(5, 96),2	6497,(5, 99),10	6507,(5, 101),12	6519,(5, 103),6	6525,(5, 104),6	6531,(5, 106),212	6743,(5, 107),80	6823,(5, 118),112	6935,(5, 119),2	6937,(5, 121),22	6959,(5, 123),62	7021,(5, 126),2	7023,(5, 133),20	7043,(5, 134),6	7049,(5, 137),30	7079,(5, 138),218	7297,(5, 141),54	7351,(5, 142),2	7353,(5, 144),4	7357,(5, 145),16	7373,(5, 148),36	7409,(5, 149),12	7421,(5, 158),46	7467,(5, 166),4	7471,(5, 168),6	7477,(5, 170),18	7495,(5, 171),16	7511,(5, 172),18	7529,(5, 173),66	7595,(5, 174),84	7679,(5, 178),16	7695,(5, 184),50	7745,(5, 187),2	7747,(5, 188),4	7751,(5, 193),10	7761,(5, 194),2644	10405,(5, 199),2	10407,(5, 200),2	10409,(1, 24),34	10443,(1, 26),114	10557,(1, 27),1158	11715,(1, 28),2	11717,(1, 29),2	11719,(1, 31),48	11767,(1, 34),2	11769,(1, 36),4	11773,(1, 37),2	11775,(1, 39),2	11777,(1, 42),10	11787,(1, 44),2	11789,(1, 45),16	11805,(1, 47),24	11829,(1, 48),2	11831,(1, 50),2	11833,(1, 53),20	11853,(1, 54),20	11873,(1, 55),2	11875,(1, 57),8	11883,(1, 59),2	11885,(1, 60),2	11887,(1, 61),10	11897,(1, 62),22	11919,(1, 63),8	11927,(1, 64),12	11939,(1, 67),6	11945,(1, 76),2	11947,(1, 79),2	11949,(1, 82),24	11973,(1, 83),44	12017,(1, 86),110	12127,(1, 87),138	12265,(1, 88),46	12311,(1, 89),10	12321,(1, 91),56	12377,(1, 94),22	12399,(1, 95),2	12401,(1, 97),2	12403,(1, 98),4	12407,(1, 99),32	12439,(1, 103),22	12461,(1, 104),2	12463,(1, 105),10	12473,(1, 107),6	12479,(1, 111),4	12483,(1, 113),4	12487,(1, 114),2	12489,(1, 117),2	12491,(1, 118),58	12549,(1, 119),2	12551,(1, 120),4	12555,(1, 122),6	12561,(1, 123),6	12567,(1, 124),2	12569,(1, 125),26	12595,(1, 126),4	12599,(1, 127),66	12665,(1, 128),4	12669,(1, 131),18	12687,(1, 132),26	12713,(1, 133),2	12715,(1, 134),28	12743,(1, 135),44	12787,(1, 137),2	12789,(1, 138),2	12791,(1, 140),12	12803,(1, 141),12	12815,(1, 143),2	12817,(1, 144),18	12835,(1, 145),24	12859,(1, 146),48	12907,(1, 148),14	12921,(1, 151),28	12949,(1, 152),40	12989,(1, 156),6	12995,(1, 157),20	13015,(1, 158),2	13017,(1, 159),14	13031,(1, 160),14	13045,(1, 161),2	13047,(1, 162),2	13049,(1, 164),2	13051,(1, 165),2	13053,(1, 166),8	13061,(1, 167),14	13075,(1, 168),34	13109,(1, 170),2	13111,(1, 172),2	13113,(1, 173),34	13147,(1, 175),76	13223,(1, 177),20	13243,(1, 178),6	13249,(1, 180),2338	15587,(1, 181),4	15591,(1, 183),4	15595,(1, 185),48	15643,(1, 186),200	15843,(1, 187),2	15845,(1, 188),8	15853,(1, 189),4	15857,(1, 191),6	15863,(1, 192),22	15885,(1, 193),6	15891,(1, 195),6	15897,(1, 198),4	15901,(1, 200),32	15933,(9, 24),26	15959,(9, 26),2	15961,(9, 30),6	15967,(9, 34),6	15973,(9, 36),38	16011,(9, 38),54	16065,(9, 39),1908	17973,(9, 42),2	17975,(9, 44),30	18005,(9, 45),6	18011,(9, 46),116	18127,(9, 47),2	18129,(9, 48),4	18133,(9, 49),22	18155,(9, 53),56	18211,(9, 55),2	18213,(9, 59),2	18215,(9, 60),36	18251,(9, 61),46	18297,(9, 65),4	18301,(9, 67),22	18323,(9, 68),8	18331,(9, 73),4	18335,(9, 78),56	18391,(9, 79),2	18393,(9, 81),28	18421,(9, 82),30	18451,(9, 83),80	18531,(9, 84),4	18535,(9, 85),6	18541,(9, 87),16	18557,(9, 89),2	18559,(9, 90),4	18563,(9, 97),14	18577,(9, 101),34	18611,(9, 104),18	18629,(9, 105),172	18801,(9, 109),6	18807,(9, 111),184	18991,(9, 113),18	19009,(9, 114),8	19017,(9, 119),12	19029,(9, 122),74	19103,(9, 125),18	19121,(9, 127),228	19349,(9, 130),14	19363,(9, 131),2	19365,(9, 137),8	19373,(9, 140),8	19381,(9, 142),168	19549,(9, 143),20	19569,(9, 146),2	19571,(9, 147),4	19575,(9, 150),12	19587,(9, 151),2	19589,(9, 152),2	19591,(9, 154),8	19599,(9, 156),6	19605,(9, 157),28	19633,(9, 158),2	19635,(9, 160),6	19641,(9, 161),10	19651,(9, 163),10	19661,(9, 164),194	19855,(9, 167),2	19857,(9, 171),4	19861,(9, 177),2	19863,(9, 179),4	19867,(9, 180),56	19923,(9, 183),2	19925,(9, 184),8	19933,(9, 188),32	19965,(9, 189),64	20029,(9, 190),6	20035,(9, 191),46	20081,(9, 192),160	20241,(9, 197),4	20245,(9, 198),54	20299,(13, 24),28	20327,(13, 28),2	20329,(13, 29),8	20337,(13, 30),2	20339,(13, 31),6	20345,(13, 34),2	20347,(13, 37),18	20365,(13, 38),194	20559,(13, 39),128	20687,(13, 40),4	20691,(13, 42),2	20693,(13, 44),2	20695,(13, 46),2	20697,(13, 47),62	20759,(13, 48),62	20821,(13, 49),60	20881,(13, 54),16	20897,(13, 56),2	20899,(13, 59),2	20901,(13, 63),4	20905,(13, 65),158	21063,(13, 67),2	21065,(13, 69),4	21069,(13, 71),88	21157,(13, 74),12	21169,(13, 75),10	21179,(13, 76),60	21239,(13, 78),6	21245,(13, 79),42	21287,(13, 80),12	21299,(13, 83),20	21319,(13, 84),12	21331,(13, 85),366	21697,(13, 86),4	21701,(13, 87),6	21707,(13, 91),2	21709,(13, 94),14	21723,(13, 95),2	21725,(13, 96),2	21727,(13, 97),2	21729,(13, 98),150	21879,(13, 100),42	21921,(13, 101),2	21923,(13, 103),8	21931,(13, 104),2	21933,(13, 106),28	21961,(13, 107),4	21965,(13, 108),26	21991,(13, 109),32	22023,(13, 110),18	22041,(13, 111),2	22043,(13, 112),530	22573,(13, 113),2	22575,(13, 114),12	22587,(13, 116),14	22601,(13, 120),2	22603,(13, 121),2	22605,(13, 122),104	22709,(13, 124),8	22717,(13, 126),2	22719,(13, 127),20	22739,(13, 128),16	22755,(13, 132),24	22779,(13, 133),54	22833,(13, 134),2	22835,(13, 136),6	22841,(13, 137),2	22843,(13, 138),14	22857,(13, 139),16	22873,(13, 140),12	22885,(13, 142),18	22903,(13, 143),18	22921,(13, 144),2	22923,(13, 147),28	22951,(13, 148),8	22959,(13, 160),8	22967,(13, 165),14	22981,(13, 168),8	22989,(13, 169),2	22991,(13, 170),2	22993,(13, 172),20	23013,(13, 174),2	23015,(13, 175),2	23017,(13, 176),14	23031,(13, 180),2	23033,(13, 181),158	23191,(13, 182),8	23199,(13, 184),8	23207,(13, 185),4	23211,(13, 186),30	23241,(13, 187),48	23289,(13, 188),2	23291,(13, 190),2	23293,(13, 191),26	23319,(13, 192),74	23393,(13, 194),236	23629,(13, 196),12	23641,(13, 198),12	23653,(13, 200),4	23657,(17, 24),12	23669,(17, 29),2	23671,(17, 31),38	23709,(17, 32),2	23711,(17, 34),6	23717,(17, 38),2	23719,(17, 39),16	23735,(17, 40),28	23763,(17, 42),44	23807,(17, 44),4	23811,(17, 45),6	23817,(17, 46),12	23829,(17, 47),16	23845,(17, 53),20	23865,(17, 54),2	23867,(17, 55),12	23879,(17, 56),2	23881,(17, 58),248	24129,(17, 59),4	24133,(17, 61),4	24137,(17, 63),2	24139,(17, 64),16	24155,(17, 66),22	24177,(17, 68),8	24185,(17, 69),8	24193,(17, 70),6	24199,(17, 73),4	24203,(17, 79),2	24205,(17, 80),2	24207,(17, 84),2	24209,(17, 85),356	24565,(17, 86),52	24617,(17, 88),6	24623,(17, 89),94	24717,(17, 91),2	24719,(17, 95),2	24721,(17, 97),2	24723,(17, 99),8	24731,(17, 101),78	24809,(17, 103),4	24813,(17, 105),8	24821,(17, 106),4	24825,(17, 107),2	24827,(17, 108),12	24839,(17, 109),8	24847,(17, 110),2	24849,(17, 111),2	24851,(17, 119),2	24853,(17, 120),24	24877,(17, 122),2	24879,(17, 124),24	24903,(17, 126),6	24909,(17, 127),2	24911,(17, 128),20	24931,(17, 129),4	24935,(17, 130),2	24937,(17, 131),2	24939,(17, 132),102	25041,(17, 133),2	25043,(17, 135),2	25045,(17, 136),10	25055,(17, 143),10	25065,(17, 144),92	25157,(17, 145),18	25175,(17, 148),8	25183,(17, 150),54	25237,(17, 154),2	25239,(17, 156),2	25241,(17, 158),2	25243,(17, 159),2	25245,(17, 160),14	25259,(17, 161),6	25265,(17, 164),10	25275,(17, 167),2	25277,(17, 168),36	25313,(17, 170),8	25321,(17, 171),10	25331,(17, 173),8	25339,(17, 174),10	25349,(17, 179),2	25351,(17, 180),2	25353,(17, 181),14	25367,(17, 182),56	25423,(17, 186),14	25437,(17, 189),374	25811,(17, 192),4	25815,(17, 194),2	25817,(17, 197),2	25819,(17, 198),24	25843,(17, 200),2	51155,(25, 201),18	51191,(21, 201),18	51209,(23, 201),18	51227,(33, 201),18	51299,(35, 201),18	51335,(153, 201),18	51353,(102, 201),18	51371,(155, 201),18	
