227
# CPU
0,81,1	1,56,1	2,59,1	3,53,1	4,65,1	5,19,1	6,18,1	7,36,1	8,71,1	9,33,1	10,35,1	11,29,1	12,80,1	13,41,1	14,46,1	15,12,1	16,78,1	17,74,1	18,27,1	19,77,1	20,26,1	21,21,1	22,38,1	23,9,1	24,31,1	25,52,1	26,47,1	27,10,1	28,67,1	29,75,1	30,48,1	31,66,1	32,64,1	33,68,1	34,44,1	35,16,1	36,37,1	37,34,1	38,28,1	39,11,1	40,69,1	41,55,1	42,22,1	43,50,1	44,23,1	45,70,1	46,39,1	47,14,1	48,76,1	49,73,1	50,5,1	51,40,1	52,57,1	53,63,1	54,58,1	55,20,1	56,51,1	57,61,1	58,72,1	59,24,1	60,49,1	61,2,1	62,25,1	63,60,1	64,7,1	65,45,1	66,54,1	67,32,1	68,79,1	69,4,1	70,62,1	71,30,1	72,1,1	73,43,1	74,3,1	75,17,1	76,13,1	77,8,1	226,0,1	
39,42,1	77,15,1	189,6,1	
# Incoming
190,(6, 0),36	
1,(81, 42),38	39,(81, 15),38	77,(80, 6),2	79,(34, 6),8	87,(28, 6),8	95,(55, 6),12	107,(76, 6),16	123,(57, 6),16	139,(20, 6),22	161,(61, 6),28	
# Outgoing
1,(81, 42),38	39,(81, 15),38	77,(80, 6),2	79,(34, 6),8	87,(28, 6),8	95,(55, 6),12	107,(76, 6),16	123,(57, 6),16	139,(20, 6),22	161,(61, 6),28	
190,(6, 0),36	
