248
# CPU
8,2,7	15,4,7	22,12,7	29,16,7	36,6,7	43,10,7	50,20,7	57,8,7	64,14,7	71,18,7	
0,0,1	1,1,7	8,5,7	15,17,7	22,11,7	29,3,7	199,7,7	210,9,7	217,13,7	224,15,7	238,19,7	247,21,1	
# Incoming
1,(0, 2),7	8,(1, 4),6	14,(1, 8),4	18,(1, 14),7	25,(1, 18),8	
15,(2, 3),7	22,(2, 7),177	199,(2, 9),11	210,(2, 13),3	213,(2, 15),6	219,(2, 19),19	238,(4, 21),1	239,(12, 21),1	240,(16, 21),1	241,(6, 21),1	242,(10, 21),1	243,(20, 21),1	244,(8, 21),1	245,(14, 21),1	246,(18, 21),1	
# Outgoing
15,(2, 3),7	22,(2, 7),177	199,(2, 9),11	210,(2, 13),3	213,(2, 15),6	219,(2, 19),19	238,(4, 21),1	239,(12, 21),1	240,(16, 21),1	241,(6, 21),1	242,(10, 21),1	243,(20, 21),1	244,(8, 21),1	245,(14, 21),1	246,(18, 21),1	
1,(0, 2),7	8,(1, 4),6	14,(1, 8),4	18,(1, 14),7	25,(1, 18),8	
