448
# CPU
0,0,1	1,8,11	12,42,11	23,44,11	34,24,11	45,27,11	56,52,11	67,36,11	78,3,11	89,19,11	100,80,11	111,45,11	122,46,11	145,40,11	167,47,11	181,39,11	192,48,11	217,17,11	263,60,11	436,38,11	447,81,1	
4,6,11	15,30,11	26,66,11	37,58,11	48,79,11	59,50,11	73,13,11	92,25,11	103,33,11	114,37,11	125,20,11	
7,2,11	18,71,11	29,18,11	40,23,11	51,61,11	62,73,11	73,54,11	84,76,11	95,74,11	106,70,11	117,64,11	128,28,11	139,49,11	150,9,11	161,32,11	221,67,11	
10,4,11	21,1,11	32,5,11	43,16,11	54,77,11	65,51,11	76,69,11	87,65,11	98,21,11	109,14,11	120,29,11	131,15,11	142,63,11	153,53,11	164,72,11	175,43,11	186,11,11	197,56,11	208,10,11	219,22,11	230,62,11	263,12,11	395,57,11	
13,7,11	24,41,11	35,78,11	46,68,11	57,75,11	68,55,11	79,34,11	90,26,11	101,35,11	112,31,11	123,59,11	
# Incoming
26,(30, 81),3	29,(71, 81),3	35,(41, 81),3	38,(66, 81),3	41,(18, 81),3	46,(78, 81),3	49,(58, 81),3	52,(23, 81),3	55,(16, 81),3	58,(68, 81),3	61,(79, 81),3	64,(61, 81),3	67,(77, 81),3	70,(75, 81),3	73,(50, 81),3	76,(73, 81),3	79,(51, 81),3	82,(55, 81),3	85,(54, 81),3	88,(13, 81),3	91,(69, 81),3	94,(34, 81),3	97,(76, 81),3	100,(65, 81),3	103,(26, 81),3	106,(25, 81),3	109,(74, 81),3	112,(21, 81),3	115,(35, 81),3	118,(33, 81),3	121,(70, 81),3	124,(14, 81),3	127,(31, 81),3	130,(37, 81),3	133,(64, 81),3	136,(29, 81),3	139,(59, 81),3	142,(4, 40),3	145,(20, 81),3	148,(28, 81),3	151,(15, 81),3	154,(49, 81),3	157,(63, 81),3	161,(9, 81),3	164,(6, 47),3	167,(53, 81),3	172,(32, 81),3	175,(72, 81),3	178,(1, 39),3	181,(2, 48),3	186,(43, 81),3	189,(2, 17),6	197,(11, 81),3	200,(4, 17),6	208,(56, 81),3	219,(10, 81),3	230,(22, 81),3	233,(67, 81),3	236,(1, 60),27	263,(62, 81),3	274,(12, 81),3	277,(7, 38),111	388,(5, 38),48	436,(57, 81),3	
1,(0, 6),3	19,(8, 50),15	34,(2, 50),3	37,(8, 13),9	46,(2, 37),3	49,(8, 20),3	64,(1, 13),3	89,(3, 25),3	94,(1, 33),6	103,(4, 20),6	110,(3, 37),3	119,(3, 20),3	
4,(0, 2),3	29,(6, 64),3	34,(8, 64),3	38,(7, 28),6	52,(8, 49),6	61,(4, 54),3	73,(5, 76),3	92,(3, 74),3	98,(3, 70),6	115,(4, 9),6	122,(3, 9),3	125,(8, 32),36	167,(6, 67),54	
7,(0, 4),3	13,(0, 1),3	16,(0, 5),3	46,(8, 11),3	49,(7, 43),3	58,(8, 56),6	64,(8, 10),9	73,(8, 62),15	106,(7, 57),9	161,(3, 22),15	221,(6, 12),42	263,(3, 57),132	
10,(0, 7),3	32,(6, 59),3	58,(1, 55),3	70,(4, 34),3	76,(4, 26),3	82,(5, 26),6	95,(3, 35),3	104,(3, 31),6	113,(3, 59),6	
# Outgoing
1,(0, 6),3	4,(0, 2),3	7,(0, 4),3	10,(0, 7),3	13,(0, 1),3	16,(0, 5),3	19,(8, 50),15	34,(8, 64),3	37,(8, 13),9	46,(8, 11),3	49,(8, 20),3	52,(8, 49),6	58,(8, 56),6	64,(8, 10),9	73,(8, 62),15	89,(3, 25),3	92,(3, 74),3	95,(3, 35),3	98,(3, 70),6	104,(3, 31),6	110,(3, 37),3	113,(3, 59),6	119,(3, 20),3	122,(3, 9),3	125,(8, 32),36	161,(3, 22),15	263,(3, 57),132	
26,(30, 81),3	29,(6, 64),3	32,(6, 59),3	38,(66, 81),3	49,(58, 81),3	61,(79, 81),3	73,(50, 81),3	88,(13, 81),3	106,(25, 81),3	118,(33, 81),3	130,(37, 81),3	145,(20, 81),3	164,(6, 47),3	167,(6, 67),54	221,(6, 12),42	
29,(71, 81),3	34,(2, 50),3	41,(18, 81),3	46,(2, 37),3	52,(23, 81),3	64,(61, 81),3	76,(73, 81),3	85,(54, 81),3	97,(76, 81),3	109,(74, 81),3	121,(70, 81),3	133,(64, 81),3	148,(28, 81),3	154,(49, 81),3	161,(9, 81),3	172,(32, 81),3	181,(2, 48),3	189,(2, 17),6	233,(67, 81),3	
55,(16, 81),3	58,(1, 55),3	61,(4, 54),3	64,(1, 13),3	67,(77, 81),3	70,(4, 34),3	73,(5, 76),3	76,(4, 26),3	79,(51, 81),3	82,(5, 26),6	91,(69, 81),3	94,(1, 33),6	100,(65, 81),3	103,(4, 20),6	112,(21, 81),3	115,(4, 9),6	124,(14, 81),3	136,(29, 81),3	142,(4, 40),3	151,(15, 81),3	157,(63, 81),3	167,(53, 81),3	175,(72, 81),3	178,(1, 39),3	186,(43, 81),3	197,(11, 81),3	200,(4, 17),6	208,(56, 81),3	219,(10, 81),3	230,(22, 81),3	236,(1, 60),27	263,(62, 81),3	274,(12, 81),3	388,(5, 38),48	436,(57, 81),3	
35,(41, 81),3	38,(7, 28),6	46,(78, 81),3	49,(7, 43),3	58,(68, 81),3	70,(75, 81),3	82,(55, 81),3	94,(34, 81),3	103,(26, 81),3	106,(7, 57),9	115,(35, 81),3	127,(31, 81),3	139,(59, 81),3	277,(7, 38),111	
