30166
# CPU
677,52,1	5005,91,1	5545,171,1	6365,120,1	6417,186,1	7237,177,1	7317,47,1	7577,108,1	7709,145,1	7985,193,1	8405,78,1	8637,95,1	8813,198,1	9857,35,1	9969,53,1	10285,84,1	10297,90,1	10317,142,1	11709,185,1	12405,190,1	12849,68,1	13065,88,1	13269,127,1	13525,192,1	13549,196,1	14009,57,1	14277,104,1	14325,106,1	14373,123,1	14677,163,1	14717,24,1	14721,27,1	15581,44,1	15781,82,1	16049,119,1	16289,137,1	16313,141,1	16377,160,1	16381,164,1	16661,169,1	16689,179,1	16741,181,1	16865,29,1	16901,42,1	16921,49,1	17049,59,1	18217,62,1	18373,79,1	18529,101,1	18765,139,1	18829,150,1	19657,159,1	19685,161,1	19689,172,1	20865,48,1	20873,50,1	20933,65,1	20937,66,1	20941,70,1	21413,109,1	21421,116,1	21429,124,1	21445,130,1	21489,132,1	21561,147,1	21681,162,1	21829,168,1	21957,174,1	22257,180,1	22337,182,1	22421,200,1	22457,51,1	22485,69,1	22553,73,1	23169,77,1	23209,81,1	23225,89,1	23249,99,1	23309,103,1	23313,110,1	23345,118,1	23369,188,1	23609,23,1	23705,31,1	23717,41,1	23721,45,1	23789,61,1	24045,74,1	24053,76,1	24137,97,1	24189,105,1	24193,111,1	24197,121,1	24225,149,1	24233,152,1	24317,157,1	24321,165,1	24369,170,1	24381,173,1	24661,195,1	24713,197,1	24745,34,1	24749,54,1	25057,94,1	25105,129,1	25113,134,1	26045,146,1	26305,191,1	26309,194,1	26313,21,1	26341,46,1	26357,60,1	26413,63,1	26429,75,1	26473,86,1	26477,87,1	26513,92,1	26517,93,1	26521,96,1	26557,107,1	26661,117,1	26681,131,1	26785,138,1	26809,143,1	26829,144,1	26941,151,1	26945,155,1	26953,166,1	27001,167,1	27013,176,1	27277,189,1	27281,199,1	27325,26,1	27329,28,1	27541,38,1	27565,40,1	27593,43,1	27597,67,1	27601,72,1	27721,83,1	28369,85,1	28385,114,1	28389,122,1	28421,126,1	28425,135,1	28453,136,1	28457,148,1	28461,153,1	28465,156,1	28493,158,1	28553,183,1	28657,22,1	28721,25,1	28961,30,1	29005,32,1	29105,33,1	29149,36,1	29153,37,1	29157,39,1	29181,55,1	29205,56,1	29217,58,1	29233,64,1	29237,71,1	29465,80,1	29481,98,1	29493,100,1	29497,102,1	29537,112,1	29549,113,1	29645,115,1	29729,125,1	29733,140,1	29865,154,1	29869,175,1	30013,178,1	30025,184,1	30033,187,1	30165,201,1	
45,2,1	46,133,1	89,3,1	177,6,1	265,10,1	309,11,1	441,15,1	529,18,1	
0,0,1	1,7,1	2,20,1	3,1,1	4,9,1	5,5,1	6,14,1	7,17,1	
133,4,1	221,8,1	353,12,1	397,13,1	485,16,1	573,19,1	4357,128,1	
# Incoming
573,(7, 23),32	605,(7, 28),4	609,(7, 50),16	625,(7, 52),52	677,(7, 55),4	681,(7, 81),20	701,(7, 96),4	705,(7, 97),4	709,(7, 98),3444	4153,(7, 101),4	4157,(7, 106),4	4161,(7, 110),20	4181,(7, 114),44	4225,(7, 119),116	4341,(7, 120),4	4357,(7, 131),4	4361,(7, 154),88	4449,(7, 163),300	4749,(7, 179),100	4849,(7, 183),4	4853,(7, 184),4	4857,(7, 197),12	4869,(20, 25),8	4877,(20, 55),4	4881,(20, 57),4	4885,(20, 61),20	4905,(20, 73),8	4913,(20, 79),76	4989,(20, 89),12	5001,(20, 91),4	5005,(20, 92),32	5037,(20, 95),80	5117,(20, 96),4	5121,(20, 102),96	5217,(20, 105),4	5221,(20, 115),8	5229,(20, 119),96	5325,(20, 124),24	5349,(20, 134),4	5353,(20, 142),16	5369,(20, 143),12	5381,(20, 157),60	5441,(20, 158),8	5449,(20, 159),24	5473,(20, 160),68	5541,(20, 171),4	5545,(20, 178),336	5881,(20, 179),4	5885,(20, 183),68	5953,(20, 194),4	5957,(20, 200),28	5985,(1, 30),68	6053,(1, 31),28	6081,(1, 50),4	6085,(1, 64),12	6097,(1, 65),8	6105,(1, 79),4	6109,(1, 81),220	6329,(1, 88),4	6333,(1, 94),20	6353,(1, 104),4	6357,(1, 116),4	6361,(1, 120),4	6365,(1, 127),32	6397,(1, 139),4	6401,(1, 149),4	6405,(1, 151),4	6409,(1, 186),8	6417,(1, 194),84	6501,(1, 197),4	6505,(9, 27),12	6517,(9, 35),28	6545,(9, 37),40	6585,(9, 38),16	6601,(9, 41),44	6645,(9, 43),4	6649,(9, 70),20	6669,(9, 80),60	6729,(9, 83),12	6741,(9, 90),12	6753,(9, 96),8	6761,(9, 97),44	6805,(9, 103),40	6845,(9, 109),4	6849,(9, 119),152	7001,(9, 134),4	7005,(9, 145),32	7037,(9, 148),12	7049,(9, 159),176	7225,(9, 168),4	7229,(9, 177),8	7237,(9, 198),16	7253,(5, 26),4	7257,(5, 41),24	7281,(5, 45),32	7313,(5, 47),4	7317,(5, 56),16	7333,(5, 62),4	7337,(5, 82),4	7341,(5, 84),72	7413,(5, 87),36	7449,(5, 88),4	7453,(5, 100),120	7573,(5, 108),4	7577,(5, 111),48	7625,(5, 116),4	7629,(5, 123),12	7641,(5, 136),4	7645,(5, 141),32	7677,(5, 144),12	7689,(5, 145),20	7709,(5, 152),12	7721,(5, 162),148	7869,(5, 164),24	7893,(5, 168),12	7905,(5, 174),44	7949,(5, 176),4	7953,(5, 185),4	7957,(5, 193),28	7985,(5, 198),4	7989,(14, 29),44	8033,(14, 30),12	8045,(14, 43),8	8053,(14, 44),52	8105,(14, 56),96	8201,(14, 58),128	8329,(14, 59),32	8361,(14, 65),8	8369,(14, 68),32	8401,(14, 78),4	8405,(14, 79),124	8529,(14, 81),8	8537,(14, 86),4	8541,(14, 95),96	8637,(14, 127),4	8641,(14, 143),16	8657,(14, 144),12	8669,(14, 155),20	8689,(14, 169),8	8697,(14, 175),92	8789,(14, 198),24	8813,(17, 21),64	8877,(17, 23),24	8901,(17, 29),36	8937,(17, 35),4	8941,(17, 43),8	8949,(17, 66),4	8953,(17, 75),72	9025,(17, 83),32	9057,(17, 89),4	9061,(17, 96),40	9101,(17, 98),36	9137,(17, 115),4	9141,(17, 116),24	9165,(17, 117),4	9169,(17, 118),48	9217,(17, 129),24	9241,(17, 131),16	9257,(17, 156),40	9297,(17, 176),24	9321,(17, 179),44	9365,(17, 192),48	9413,(17, 195),44	9457,(2, 21),92	9549,(2, 29),108	9657,(2, 30),24	9681,(2, 34),20	9701,(2, 35),156	9857,(2, 46),24	9881,(2, 48),40	9921,(2, 50),4	9925,(2, 51),4	9929,(2, 53),40	9969,(2, 71),4	9973,(2, 79),36	10009,(2, 82),264	10273,(2, 84),12	10285,(2, 90),12	10297,(2, 142),20	10317,(2, 144),4	10321,(2, 147),4	10325,(2, 149),48	10373,(2, 151),68	10441,(2, 182),1256	11697,(2, 185),12	11709,(2, 194),80	11789,(2, 196),100	11889,(133, 201),132	12021,(3, 28),20	12041,(3, 36),4	12045,(3, 61),28	12073,(3, 72),4	12077,(3, 76),4	12081,(3, 77),16	12097,(3, 83),4	12101,(3, 94),16	12117,(3, 100),8	12125,(3, 107),4	12129,(3, 130),4	12133,(3, 139),4	12137,(3, 144),4	12141,(3, 149),12	12153,(3, 152),60	12213,(3, 160),188	12401,(3, 190),4	12405,(3, 192),4	12409,(4, 33),68	12477,(4, 60),4	12481,(4, 62),340	12821,(4, 65),4	12825,(4, 67),20	12845,(4, 68),4	12849,(4, 75),180	13029,(4, 88),36	13065,(4, 99),156	13221,(4, 125),36	13257,(4, 127),12	13269,(4, 150),12	13281,(4, 153),8	13289,(4, 160),44	13333,(4, 162),12	13345,(4, 167),88	13433,(4, 175),12	13445,(4, 192),80	13525,(4, 196),24	13549,(6, 24),4	13553,(6, 28),4	13557,(6, 36),4	13561,(6, 46),36	13597,(6, 49),408	14005,(6, 57),4	14009,(6, 67),16	14025,(6, 104),252	14277,(6, 106),48	14325,(6, 111),36	14361,(6, 112),4	14365,(6, 118),4	14369,(6, 123),4	14373,(6, 130),104	14477,(6, 134),40	14517,(6, 135),16	14533,(6, 137),36	14569,(6, 154),16	14585,(6, 160),44	14629,(6, 163),48	14677,(6, 166),28	14705,(6, 199),4	14709,(8, 24),8	14717,(8, 27),4	14721,(8, 30),720	15441,(8, 34),76	15517,(8, 39),20	15537,(8, 42),28	15565,(8, 44),16	15581,(8, 70),4	15585,(8, 82),196	15781,(8, 85),112	15893,(8, 92),28	15921,(8, 103),8	15929,(8, 112),64	15993,(8, 114),40	16033,(8, 119),16	16049,(8, 130),4	16053,(8, 131),4	16057,(8, 137),232	16289,(8, 141),24	16313,(8, 146),4	16317,(8, 147),28	16345,(8, 151),28	16373,(8, 160),4	16377,(8, 164),4	16381,(8, 165),248	16629,(8, 168),4	16633,(8, 169),28	16661,(8, 174),24	16685,(8, 179),4	16689,(8, 181),52	16741,(8, 182),104	16845,(8, 199),4	16849,(10, 23),4	16853,(10, 25),4	16857,(10, 29),8	16865,(10, 33),28	16893,(10, 40),4	16897,(10, 42),4	16901,(10, 46),16	16917,(10, 49),4	16921,(10, 58),124	17045,(10, 59),4	17049,(10, 62),1168	18217,(10, 69),88	18305,(10, 71),12	18317,(10, 75),28	18345,(10, 79),28	18373,(10, 81),40	18413,(10, 101),116	18529,(10, 102),52	18581,(10, 118),40	18621,(10, 122),20	18641,(10, 131),4	18645,(10, 139),120	18765,(10, 148),60	18825,(10, 150),4	18829,(10, 157),92	18921,(10, 158),732	19653,(10, 159),4	19657,(10, 161),28	19685,(10, 172),4	19689,(10, 183),16	19705,(10, 187),60	19765,(10, 194),976	20741,(11, 37),12	20753,(11, 40),52	20805,(11, 48),60	20865,(11, 50),8	20873,(11, 51),20	20893,(11, 54),4	20897,(11, 58),8	20905,(11, 60),12	20917,(11, 65),16	20933,(11, 66),4	20937,(11, 70),4	20941,(11, 72),44	20985,(11, 73),60	21045,(11, 86),356	21401,(11, 96),4	21405,(11, 109),8	21413,(11, 115),4	21417,(11, 116),4	21421,(11, 124),8	21429,(11, 130),16	21445,(11, 131),32	21477,(11, 132),12	21489,(11, 135),20	21509,(11, 143),44	21553,(11, 146),4	21557,(11, 147),4	21561,(11, 152),60	21621,(11, 162),60	21681,(11, 168),148	21829,(11, 174),128	21957,(11, 180),300	22257,(11, 182),80	22337,(11, 188),60	22397,(11, 191),8	22405,(11, 200),16	22421,(12, 51),36	22457,(12, 63),4	22461,(12, 69),24	22485,(12, 73),68	22553,(12, 77),616	23169,(12, 80),32	23201,(12, 81),8	23209,(12, 89),16	23225,(12, 96),8	23233,(12, 97),4	23237,(12, 99),12	23249,(12, 103),60	23309,(12, 110),4	23313,(12, 117),24	23337,(12, 118),8	23345,(12, 136),4	23349,(12, 156),12	23361,(12, 188),8	23369,(12, 195),56	23425,(12, 199),156	23581,(13, 22),12	23593,(13, 23),16	23609,(13, 31),96	23705,(13, 41),12	23717,(13, 45),4	23721,(13, 58),56	23777,(13, 61),12	23789,(13, 63),44	23833,(13, 72),208	24041,(13, 74),4	24045,(13, 76),8	24053,(13, 85),44	24097,(13, 86),28	24125,(13, 97),12	24137,(13, 105),52	24189,(13, 111),4	24193,(13, 121),4	24197,(13, 125),24	24221,(13, 149),4	24225,(13, 152),8	24233,(13, 153),72	24305,(13, 155),8	24313,(13, 157),4	24317,(13, 165),4	24321,(13, 170),48	24369,(13, 173),12	24381,(13, 178),24	24405,(13, 195),256	24661,(13, 197),52	24713,(15, 30),4	24717,(15, 33),4	24721,(15, 34),24	24745,(15, 54),4	24749,(15, 55),48	24797,(15, 60),8	24805,(15, 64),4	24809,(15, 67),8	24817,(15, 83),56	24873,(15, 85),172	25045,(15, 93),4	25049,(15, 94),8	25057,(15, 102),16	25073,(15, 122),16	25089,(15, 129),16	25105,(15, 134),8	25113,(15, 138),16	25129,(15, 146),916	26045,(15, 151),244	26289,(15, 191),16	26305,(15, 194),4	26309,(16, 21),4	26313,(16, 32),24	26337,(16, 46),4	26341,(16, 55),8	26349,(16, 60),8	26357,(16, 63),56	26413,(16, 75),16	26429,(16, 85),40	26469,(16, 86),4	26473,(16, 87),4	26477,(16, 92),36	26513,(16, 93),4	26517,(16, 96),4	26521,(16, 102),24	26545,(16, 107),12	26557,(16, 112),88	26645,(16, 117),16	26661,(16, 122),16	26677,(16, 131),4	26681,(16, 138),104	26785,(16, 140),4	26789,(16, 143),20	26809,(16, 144),20	26829,(16, 151),112	26941,(16, 155),4	26945,(16, 158),4	26949,(16, 166),4	26953,(16, 167),48	27001,(16, 176),12	27013,(16, 178),96	27109,(16, 184),36	27145,(16, 189),132	27277,(16, 199),4	27281,(18, 26),44	27325,(18, 28),4	27329,(18, 30),4	27333,(18, 32),140	27473,(18, 38),68	27541,(18, 39),16	27557,(18, 40),8	27565,(18, 43),28	27593,(18, 67),4	27597,(18, 72),4	27601,(18, 83),120	27721,(18, 85),648	28369,(18, 114),16	28385,(18, 122),4	28389,(18, 126),32	28421,(18, 135),4	28425,(18, 136),28	28453,(18, 148),4	28457,(18, 153),4	28461,(18, 156),4	28465,(18, 158),28	28493,(18, 183),60	28553,(19, 22),104	28657,(19, 25),64	28721,(19, 30),240	28961,(19, 32),44	29005,(19, 33),100	29105,(19, 36),44	29149,(19, 37),4	29153,(19, 39),4	29157,(19, 55),24	29181,(19, 56),24	29205,(19, 58),12	29217,(19, 64),16	29233,(19, 71),4	29237,(19, 80),228	29465,(19, 98),16	29481,(19, 100),12	29493,(19, 102),4	29497,(19, 112),40	29537,(19, 113),12	29549,(19, 115),96	29645,(19, 125),84	29729,(19, 140),4	29733,(19, 154),132	29865,(19, 175),4	29869,(19, 178),144	30013,(19, 184),12	30025,(19, 187),8	30033,(128, 201),132	
1,(0, 2),44	45,(0, 3),44	133,(0, 6),44	221,(0, 10),44	265,(0, 11),44	397,(0, 15),44	485,(0, 18),44	

89,(0, 4),44	177,(0, 8),44	309,(0, 12),44	353,(0, 13),44	441,(0, 16),44	529,(0, 19),44	4345,(7, 128),12	
# Outgoing

9457,(2, 21),92	9549,(2, 29),108	9657,(2, 30),24	9681,(2, 34),20	9701,(2, 35),156	9857,(2, 46),24	9881,(2, 48),40	9921,(2, 50),4	9925,(2, 51),4	9929,(2, 53),40	9969,(2, 71),4	9973,(2, 79),36	10009,(2, 82),264	10273,(2, 84),12	10285,(2, 90),12	10297,(2, 142),20	10317,(2, 144),4	10321,(2, 147),4	10325,(2, 149),48	10373,(2, 151),68	10441,(2, 182),1256	11697,(2, 185),12	11709,(2, 194),80	11789,(2, 196),100	11889,(133, 201),132	12021,(3, 28),20	12041,(3, 36),4	12045,(3, 61),28	12073,(3, 72),4	12077,(3, 76),4	12081,(3, 77),16	12097,(3, 83),4	12101,(3, 94),16	12117,(3, 100),8	12125,(3, 107),4	12129,(3, 130),4	12133,(3, 139),4	12137,(3, 144),4	12141,(3, 149),12	12153,(3, 152),60	12213,(3, 160),188	12401,(3, 190),4	12405,(3, 192),4	13549,(6, 24),4	13553,(6, 28),4	13557,(6, 36),4	13561,(6, 46),36	13597,(6, 49),408	14005,(6, 57),4	14009,(6, 67),16	14025,(6, 104),252	14277,(6, 106),48	14325,(6, 111),36	14361,(6, 112),4	14365,(6, 118),4	14369,(6, 123),4	14373,(6, 130),104	14477,(6, 134),40	14517,(6, 135),16	14533,(6, 137),36	14569,(6, 154),16	14585,(6, 160),44	14629,(6, 163),48	14677,(6, 166),28	14705,(6, 199),4	16849,(10, 23),4	16853,(10, 25),4	16857,(10, 29),8	16865,(10, 33),28	16893,(10, 40),4	16897,(10, 42),4	16901,(10, 46),16	16917,(10, 49),4	16921,(10, 58),124	17045,(10, 59),4	17049,(10, 62),1168	18217,(10, 69),88	18305,(10, 71),12	18317,(10, 75),28	18345,(10, 79),28	18373,(10, 81),40	18413,(10, 101),116	18529,(10, 102),52	18581,(10, 118),40	18621,(10, 122),20	18641,(10, 131),4	18645,(10, 139),120	18765,(10, 148),60	18825,(10, 150),4	18829,(10, 157),92	18921,(10, 158),732	19653,(10, 159),4	19657,(10, 161),28	19685,(10, 172),4	19689,(10, 183),16	19705,(10, 187),60	19765,(10, 194),976	20741,(11, 37),12	20753,(11, 40),52	20805,(11, 48),60	20865,(11, 50),8	20873,(11, 51),20	20893,(11, 54),4	20897,(11, 58),8	20905,(11, 60),12	20917,(11, 65),16	20933,(11, 66),4	20937,(11, 70),4	20941,(11, 72),44	20985,(11, 73),60	21045,(11, 86),356	21401,(11, 96),4	21405,(11, 109),8	21413,(11, 115),4	21417,(11, 116),4	21421,(11, 124),8	21429,(11, 130),16	21445,(11, 131),32	21477,(11, 132),12	21489,(11, 135),20	21509,(11, 143),44	21553,(11, 146),4	21557,(11, 147),4	21561,(11, 152),60	21621,(11, 162),60	21681,(11, 168),148	21829,(11, 174),128	21957,(11, 180),300	22257,(11, 182),80	22337,(11, 188),60	22397,(11, 191),8	22405,(11, 200),16	24713,(15, 30),4	24717,(15, 33),4	24721,(15, 34),24	24745,(15, 54),4	24749,(15, 55),48	24797,(15, 60),8	24805,(15, 64),4	24809,(15, 67),8	24817,(15, 83),56	24873,(15, 85),172	25045,(15, 93),4	25049,(15, 94),8	25057,(15, 102),16	25073,(15, 122),16	25089,(15, 129),16	25105,(15, 134),8	25113,(15, 138),16	25129,(15, 146),916	26045,(15, 151),244	26289,(15, 191),16	26305,(15, 194),4	27281,(18, 26),44	27325,(18, 28),4	27329,(18, 30),4	27333,(18, 32),140	27473,(18, 38),68	27541,(18, 39),16	27557,(18, 40),8	27565,(18, 43),28	27593,(18, 67),4	27597,(18, 72),4	27601,(18, 83),120	27721,(18, 85),648	28369,(18, 114),16	28385,(18, 122),4	28389,(18, 126),32	28421,(18, 135),4	28425,(18, 136),28	28453,(18, 148),4	28457,(18, 153),4	28461,(18, 156),4	28465,(18, 158),28	28493,(18, 183),60	
1,(0, 2),44	45,(0, 3),44	89,(0, 4),44	133,(0, 6),44	177,(0, 8),44	221,(0, 10),44	265,(0, 11),44	309,(0, 12),44	353,(0, 13),44	397,(0, 15),44	441,(0, 16),44	485,(0, 18),44	529,(0, 19),44	573,(7, 23),32	605,(7, 28),4	609,(7, 50),16	625,(7, 52),52	677,(7, 55),4	681,(7, 81),20	701,(7, 96),4	705,(7, 97),4	709,(7, 98),3444	4153,(7, 101),4	4157,(7, 106),4	4161,(7, 110),20	4181,(7, 114),44	4225,(7, 119),116	4341,(7, 120),4	4345,(7, 128),12	4357,(7, 131),4	4361,(7, 154),88	4449,(7, 163),300	4749,(7, 179),100	4849,(7, 183),4	4853,(7, 184),4	4857,(7, 197),12	4869,(20, 25),8	4877,(20, 55),4	4881,(20, 57),4	4885,(20, 61),20	4905,(20, 73),8	4913,(20, 79),76	4989,(20, 89),12	5001,(20, 91),4	5005,(20, 92),32	5037,(20, 95),80	5117,(20, 96),4	5121,(20, 102),96	5217,(20, 105),4	5221,(20, 115),8	5229,(20, 119),96	5325,(20, 124),24	5349,(20, 134),4	5353,(20, 142),16	5369,(20, 143),12	5381,(20, 157),60	5441,(20, 158),8	5449,(20, 159),24	5473,(20, 160),68	5541,(20, 171),4	5545,(20, 178),336	5881,(20, 179),4	5885,(20, 183),68	5953,(20, 194),4	5957,(20, 200),28	5985,(1, 30),68	6053,(1, 31),28	6081,(1, 50),4	6085,(1, 64),12	6097,(1, 65),8	6105,(1, 79),4	6109,(1, 81),220	6329,(1, 88),4	6333,(1, 94),20	6353,(1, 104),4	6357,(1, 116),4	6361,(1, 120),4	6365,(1, 127),32	6397,(1, 139),4	6401,(1, 149),4	6405,(1, 151),4	6409,(1, 186),8	6417,(1, 194),84	6501,(1, 197),4	6505,(9, 27),12	6517,(9, 35),28	6545,(9, 37),40	6585,(9, 38),16	6601,(9, 41),44	6645,(9, 43),4	6649,(9, 70),20	6669,(9, 80),60	6729,(9, 83),12	6741,(9, 90),12	6753,(9, 96),8	6761,(9, 97),44	6805,(9, 103),40	6845,(9, 109),4	6849,(9, 119),152	7001,(9, 134),4	7005,(9, 145),32	7037,(9, 148),12	7049,(9, 159),176	7225,(9, 168),4	7229,(9, 177),8	7237,(9, 198),16	7253,(5, 26),4	7257,(5, 41),24	7281,(5, 45),32	7313,(5, 47),4	7317,(5, 56),16	7333,(5, 62),4	7337,(5, 82),4	7341,(5, 84),72	7413,(5, 87),36	7449,(5, 88),4	7453,(5, 100),120	7573,(5, 108),4	7577,(5, 111),48	7625,(5, 116),4	7629,(5, 123),12	7641,(5, 136),4	7645,(5, 141),32	7677,(5, 144),12	7689,(5, 145),20	7709,(5, 152),12	7721,(5, 162),148	7869,(5, 164),24	7893,(5, 168),12	7905,(5, 174),44	7949,(5, 176),4	7953,(5, 185),4	7957,(5, 193),28	7985,(5, 198),4	7989,(14, 29),44	8033,(14, 30),12	8045,(14, 43),8	8053,(14, 44),52	8105,(14, 56),96	8201,(14, 58),128	8329,(14, 59),32	8361,(14, 65),8	8369,(14, 68),32	8401,(14, 78),4	8405,(14, 79),124	8529,(14, 81),8	8537,(14, 86),4	8541,(14, 95),96	8637,(14, 127),4	8641,(14, 143),16	8657,(14, 144),12	8669,(14, 155),20	8689,(14, 169),8	8697,(14, 175),92	8789,(14, 198),24	8813,(17, 21),64	8877,(17, 23),24	8901,(17, 29),36	8937,(17, 35),4	8941,(17, 43),8	8949,(17, 66),4	8953,(17, 75),72	9025,(17, 83),32	9057,(17, 89),4	9061,(17, 96),40	9101,(17, 98),36	9137,(17, 115),4	9141,(17, 116),24	9165,(17, 117),4	9169,(17, 118),48	9217,(17, 129),24	9241,(17, 131),16	9257,(17, 156),40	9297,(17, 176),24	9321,(17, 179),44	9365,(17, 192),48	9413,(17, 195),44	
12409,(4, 33),68	12477,(4, 60),4	12481,(4, 62),340	12821,(4, 65),4	12825,(4, 67),20	12845,(4, 68),4	12849,(4, 75),180	13029,(4, 88),36	13065,(4, 99),156	13221,(4, 125),36	13257,(4, 127),12	13269,(4, 150),12	13281,(4, 153),8	13289,(4, 160),44	13333,(4, 162),12	13345,(4, 167),88	13433,(4, 175),12	13445,(4, 192),80	13525,(4, 196),24	14709,(8, 24),8	14717,(8, 27),4	14721,(8, 30),720	15441,(8, 34),76	15517,(8, 39),20	15537,(8, 42),28	15565,(8, 44),16	15581,(8, 70),4	15585,(8, 82),196	15781,(8, 85),112	15893,(8, 92),28	15921,(8, 103),8	15929,(8, 112),64	15993,(8, 114),40	16033,(8, 119),16	16049,(8, 130),4	16053,(8, 131),4	16057,(8, 137),232	16289,(8, 141),24	16313,(8, 146),4	16317,(8, 147),28	16345,(8, 151),28	16373,(8, 160),4	16377,(8, 164),4	16381,(8, 165),248	16629,(8, 168),4	16633,(8, 169),28	16661,(8, 174),24	16685,(8, 179),4	16689,(8, 181),52	16741,(8, 182),104	16845,(8, 199),4	22421,(12, 51),36	22457,(12, 63),4	22461,(12, 69),24	22485,(12, 73),68	22553,(12, 77),616	23169,(12, 80),32	23201,(12, 81),8	23209,(12, 89),16	23225,(12, 96),8	23233,(12, 97),4	23237,(12, 99),12	23249,(12, 103),60	23309,(12, 110),4	23313,(12, 117),24	23337,(12, 118),8	23345,(12, 136),4	23349,(12, 156),12	23361,(12, 188),8	23369,(12, 195),56	23425,(12, 199),156	23581,(13, 22),12	23593,(13, 23),16	23609,(13, 31),96	23705,(13, 41),12	23717,(13, 45),4	23721,(13, 58),56	23777,(13, 61),12	23789,(13, 63),44	23833,(13, 72),208	24041,(13, 74),4	24045,(13, 76),8	24053,(13, 85),44	24097,(13, 86),28	24125,(13, 97),12	24137,(13, 105),52	24189,(13, 111),4	24193,(13, 121),4	24197,(13, 125),24	24221,(13, 149),4	24225,(13, 152),8	24233,(13, 153),72	24305,(13, 155),8	24313,(13, 157),4	24317,(13, 165),4	24321,(13, 170),48	24369,(13, 173),12	24381,(13, 178),24	24405,(13, 195),256	24661,(13, 197),52	26309,(16, 21),4	26313,(16, 32),24	26337,(16, 46),4	26341,(16, 55),8	26349,(16, 60),8	26357,(16, 63),56	26413,(16, 75),16	26429,(16, 85),40	26469,(16, 86),4	26473,(16, 87),4	26477,(16, 92),36	26513,(16, 93),4	26517,(16, 96),4	26521,(16, 102),24	26545,(16, 107),12	26557,(16, 112),88	26645,(16, 117),16	26661,(16, 122),16	26677,(16, 131),4	26681,(16, 138),104	26785,(16, 140),4	26789,(16, 143),20	26809,(16, 144),20	26829,(16, 151),112	26941,(16, 155),4	26945,(16, 158),4	26949,(16, 166),4	26953,(16, 167),48	27001,(16, 176),12	27013,(16, 178),96	27109,(16, 184),36	27145,(16, 189),132	27277,(16, 199),4	28553,(19, 22),104	28657,(19, 25),64	28721,(19, 30),240	28961,(19, 32),44	29005,(19, 33),100	29105,(19, 36),44	29149,(19, 37),4	29153,(19, 39),4	29157,(19, 55),24	29181,(19, 56),24	29205,(19, 58),12	29217,(19, 64),16	29233,(19, 71),4	29237,(19, 80),228	29465,(19, 98),16	29481,(19, 100),12	29493,(19, 102),4	29497,(19, 112),40	29537,(19, 113),12	29549,(19, 115),96	29645,(19, 125),84	29729,(19, 140),4	29733,(19, 154),132	29865,(19, 175),4	29869,(19, 178),144	30013,(19, 184),12	30025,(19, 187),8	30033,(128, 201),132	
