5288
# CPU
9,5,3	12,25,3	15,90,3	18,120,3	21,160,3	24,165,3	27,35,3	30,10,3	33,135,3	36,145,3	39,15,3	42,110,3	45,20,3	48,195,3	51,50,3	54,30,3	57,60,3	60,100,3	63,185,3	66,40,3	69,80,3	72,190,3	93,180,3	131,130,3	147,140,3	221,155,3	257,125,3	291,175,3	301,200,3	317,70,3	419,170,3	429,65,3	473,75,3	499,85,3	505,55,3	509,95,3	521,105,3	524,115,3	1293,150,3	1497,45,3	
7,4,3	10,104,3	15,9,3	18,29,3	21,49,3	24,119,3	27,134,3	30,14,3	33,179,3	36,19,3	39,114,3	42,94,3	45,154,3	48,34,3	51,139,3	54,84,3	99,44,3	103,74,3	157,64,3	195,149,3	215,194,3	218,89,3	221,164,3	224,184,3	241,169,3	261,129,3	299,99,3	377,189,3	401,24,3	473,39,3	485,69,3	529,59,3	551,124,3	557,199,3	573,109,3	601,159,3	629,54,3	687,144,3	821,79,3	1161,174,3	
5,3,3	8,33,3	11,168,3	14,103,3	17,8,3	20,38,3	23,138,3	26,13,3	29,18,3	32,63,3	35,113,3	38,193,3	41,178,3	44,68,3	47,173,3	50,83,3	53,28,3	56,88,3	61,143,3	67,53,3	79,93,3	241,118,3	269,108,3	289,153,3	292,123,3	297,58,3	300,163,3	317,188,3	343,133,3	377,148,3	427,43,3	445,48,3	479,198,3	493,98,3	531,158,3	547,183,3	553,128,3	659,73,3	723,23,3	739,78,3	
3,2,3	11,7,3	19,12,3	22,77,3	27,17,3	30,67,3	33,92,3	36,27,3	39,167,3	65,52,3	71,97,3	74,112,3	79,142,3	111,47,3	153,57,3	185,152,3	213,32,3	221,197,3	227,22,3	230,147,3	235,162,3	238,42,3	247,82,3	257,107,3	261,187,3	283,132,3	297,157,3	307,37,3	439,127,3	447,137,3	465,102,3	497,182,3	517,87,3	525,117,3	529,122,3	545,192,3	559,172,3	1009,72,3	1153,177,3	1745,62,3	
0,0,1	1,16,3	4,11,3	7,6,3	10,1,3	13,106,3	16,41,3	19,186,3	22,31,3	39,141,3	43,36,3	195,96,3	213,126,3	275,66,3	278,111,3	359,46,3	365,191,3	375,131,3	445,161,3	577,101,3	615,26,3	631,151,3	671,196,3	703,76,3	709,121,3	885,21,3	901,71,3	911,91,3	914,166,3	1097,61,3	1100,86,3	1155,51,3	1457,176,3	1601,171,3	1604,181,3	1703,116,3	1737,156,3	1747,81,3	1763,146,3	1883,56,3	1927,136,3	5287,201,1	
# Incoming
7,(0, 5),2	9,(2, 35),6	15,(0, 10),2	19,(4, 135),2	21,(4, 145),2	23,(0, 15),2	25,(3, 115),2	27,(8, 110),2	31,(0, 20),2	33,(12, 30),2	39,(13, 60),2	41,(18, 40),8	49,(9, 80),2	63,(19, 190),2	83,(13, 180),10	111,(19, 130),20	131,(19, 140),16	213,(7, 155),8	241,(16, 125),16	269,(7, 175),22	299,(16, 200),2	313,(11, 70),4	365,(14, 170),54	427,(6, 65),2	429,(6, 75),44	473,(6, 85),26	499,(17, 55),6	505,(17, 95),4	517,(6, 105),4	521,(6, 115),2	577,(9, 150),716	1293,(8, 45),204	
5,(0, 4),2	13,(0, 9),2	21,(0, 14),2	27,(12, 179),2	29,(0, 19),2	33,(13, 154),2	35,(16, 34),2	37,(2, 84),14	51,(3, 74),32	93,(18, 44),6	99,(18, 74),4	153,(5, 64),4	157,(5, 149),38	195,(5, 169),6	201,(5, 194),14	215,(15, 89),2	217,(15, 164),2	219,(15, 184),2	221,(12, 169),20	257,(16, 129),4	291,(20, 189),4	297,(17, 99),2	307,(11, 59),6	317,(11, 144),2	319,(11, 189),58	379,(6, 24),22	409,(15, 54),18	449,(12, 39),24	473,(17, 69),12	509,(15, 59),20	529,(6, 124),22	553,(6, 199),4	557,(1, 109),16	573,(1, 159),28	607,(10, 54),22	659,(17, 144),28	783,(15, 79),38	1009,(13, 174),152	
3,(0, 3),2	11,(0, 8),2	13,(4, 38),2	15,(2, 68),2	17,(4, 108),2	19,(0, 13),2	21,(2, 53),6	27,(0, 18),2	29,(2, 178),2	31,(12, 83),2	37,(9, 28),4	51,(14, 73),2	53,(14, 88),2	55,(14, 143),6	61,(19, 58),2	65,(16, 53),2	67,(16, 93),12	81,(16, 118),160	241,(2, 108),28	283,(16, 153),6	289,(10, 123),2	291,(12, 58),6	297,(16, 163),2	299,(2, 188),18	319,(9, 133),24	361,(7, 148),16	377,(11, 198),2	401,(6, 43),26	427,(10, 48),18	465,(20, 198),14	485,(17, 98),8	509,(17, 158),22	531,(17, 183),16	551,(6, 128),2	553,(12, 73),106	701,(15, 23),22	723,(15, 78),16	
1,(0, 2),2	9,(0, 7),2	17,(0, 12),2	25,(0, 17),2	29,(8, 137),4	33,(16, 27),2	35,(8, 167),2	37,(16, 52),28	65,(14, 97),6	71,(14, 112),2	73,(14, 142),6	79,(16, 117),2	81,(4, 47),30	111,(5, 57),42	153,(9, 152),32	185,(13, 32),26	211,(18, 32),2	213,(14, 197),8	221,(10, 22),6	227,(10, 147),2	229,(15, 137),4	233,(15, 162),2	235,(20, 42),2	243,(13, 82),4	247,(13, 107),10	257,(18, 187),4	261,(16, 132),22	289,(16, 157),8	301,(11, 37),6	307,(5, 177),102	409,(18, 87),12	421,(18, 127),18	439,(18, 137),8	447,(10, 102),18	465,(19, 122),16	481,(19, 182),16	499,(6, 87),18	523,(6, 117),2	525,(6, 122),4	529,(15, 192),16	545,(20, 172),14	901,(13, 72),108	1099,(15, 177),54	1633,(19, 62),112	
17,(2, 81),2	19,(3, 61),2	21,(3, 91),2	23,(3, 181),2	25,(4, 51),2	27,(4, 146),10	37,(8, 141),2	41,(9, 36),2	43,(9, 71),6	49,(13, 196),2	51,(2, 96),144	195,(2, 126),18	213,(33, 201),30	243,(5, 66),32	275,(5, 111),2	277,(5, 156),12	289,(104, 201),30	319,(7, 46),40	359,(7, 51),2	361,(9, 191),4	365,(8, 21),8	373,(18, 131),2	377,(7, 151),44	421,(7, 161),24	445,(7, 176),4	449,(168, 201),30	479,(25, 201),30	509,(103, 201),30	539,(9, 101),38	577,(90, 201),30	607,(8, 26),8	615,(8, 151),16	631,(8, 176),8	639,(8, 196),32	671,(120, 201),30	701,(12, 76),2	703,(12, 121),6	709,(12, 136),14	723,(38, 201),30	753,(160, 201),30	783,(77, 201),30	813,(138, 201),30	843,(165, 201),30	873,(13, 21),12	885,(13, 71),16	901,(17, 91),10	911,(17, 166),2	913,(35, 201),30	943,(10, 81),2	945,(67, 201),30	975,(135, 201),30	1005,(92, 201),30	1035,(145, 201),30	1065,(27, 201),30	1095,(15, 61),2	1097,(15, 86),2	1099,(167, 201),30	1153,(20, 51),2	1161,(18, 171),4	1165,(63, 201),30	1195,(113, 201),30	1225,(193, 201),30	1255,(178, 201),30	1293,(9, 176),164	1457,(29, 201),30	1487,(49, 201),30	1517,(119, 201),30	1547,(134, 201),30	1577,(14, 171),24	1601,(14, 181),2	1603,(179, 201),30	1633,(110, 201),30	1663,(68, 201),30	1693,(20, 116),10	1703,(20, 156),34	1745,(19, 81),2	1747,(19, 146),16	1763,(114, 201),30	1793,(94, 201),30	1823,(20, 56),60	1883,(20, 136),44	1927,(154, 201),30	1957,(173, 201),30	1987,(195, 201),30	2017,(34, 201),30	2047,(83, 201),30	2077,(50, 201),30	2107,(139, 201),30	2137,(28, 201),30	2167,(84, 201),30	2197,(30, 201),30	2227,(88, 201),30	2257,(60, 201),30	2287,(100, 201),30	2317,(143, 201),30	2347,(185, 201),30	2377,(52, 201),30	2407,(40, 201),30	2437,(53, 201),30	2467,(80, 201),30	2497,(97, 201),30	2527,(190, 201),30	2557,(112, 201),30	2587,(93, 201),30	2617,(142, 201),30	2647,(180, 201),30	2677,(44, 201),30	2707,(74, 201),30	2737,(47, 201),30	2767,(130, 201),30	2797,(140, 201),30	2827,(57, 201),30	2857,(64, 201),30	2887,(152, 201),30	2917,(149, 201),30	2947,(32, 201),30	2977,(194, 201),30	3007,(89, 201),30	3037,(155, 201),30	3067,(197, 201),30	3097,(164, 201),30	3127,(184, 201),30	3157,(22, 201),30	3187,(147, 201),30	3217,(162, 201),30	3247,(42, 201),30	3277,(118, 201),30	3307,(169, 201),30	3337,(82, 201),30	3367,(125, 201),30	3397,(107, 201),30	3427,(187, 201),30	3457,(129, 201),30	3487,(108, 201),30	3517,(132, 201),30	3547,(153, 201),30	3577,(175, 201),30	3607,(123, 201),30	3637,(58, 201),30	3667,(157, 201),30	3697,(99, 201),30	3727,(163, 201),30	3757,(200, 201),30	3787,(37, 201),30	3817,(188, 201),30	3847,(70, 201),30	3877,(133, 201),30	3907,(189, 201),30	3937,(148, 201),30	3967,(24, 201),30	3997,(170, 201),30	4027,(43, 201),30	4057,(65, 201),30	4087,(127, 201),30	4117,(48, 201),30	4147,(137, 201),30	4177,(102, 201),30	4207,(75, 201),30	4237,(39, 201),30	4267,(198, 201),30	4297,(69, 201),30	4327,(98, 201),30	4357,(182, 201),30	4387,(85, 201),30	4417,(55, 201),30	4447,(95, 201),30	4477,(87, 201),30	4507,(105, 201),30	4537,(115, 201),30	4567,(117, 201),30	4597,(59, 201),30	4627,(122, 201),30	4657,(158, 201),30	4687,(192, 201),30	4717,(183, 201),30	4747,(124, 201),30	4777,(128, 201),30	4807,(199, 201),30	4837,(172, 201),30	4867,(109, 201),30	4897,(159, 201),30	4927,(54, 201),30	4957,(73, 201),30	4987,(144, 201),30	5017,(23, 201),30	5047,(78, 201),30	5077,(79, 201),30	5107,(72, 201),30	5137,(177, 201),30	5167,(174, 201),30	5197,(150, 201),30	5227,(45, 201),30	5257,(62, 201),30	
# Outgoing
111,(5, 57),42	153,(5, 64),4	157,(5, 149),38	195,(5, 169),6	201,(5, 194),14	215,(15, 89),2	217,(15, 164),2	219,(15, 184),2	221,(10, 22),6	227,(10, 147),2	229,(15, 137),4	233,(15, 162),2	235,(20, 42),2	243,(5, 66),32	275,(5, 111),2	277,(5, 156),12	289,(10, 123),2	291,(20, 189),4	307,(5, 177),102	409,(15, 54),18	427,(10, 48),18	447,(10, 102),18	465,(20, 198),14	479,(25, 201),30	509,(15, 59),20	529,(15, 192),16	545,(20, 172),14	577,(90, 201),30	607,(10, 54),22	671,(120, 201),30	701,(15, 23),22	723,(15, 78),16	753,(160, 201),30	783,(15, 79),38	843,(165, 201),30	913,(35, 201),30	943,(10, 81),2	975,(135, 201),30	1035,(145, 201),30	1095,(15, 61),2	1097,(15, 86),2	1099,(15, 177),54	1153,(20, 51),2	1633,(110, 201),30	1693,(20, 116),10	1703,(20, 156),34	1823,(20, 56),60	1883,(20, 136),44	1987,(195, 201),30	2077,(50, 201),30	2197,(30, 201),30	2257,(60, 201),30	2287,(100, 201),30	2347,(185, 201),30	2407,(40, 201),30	2467,(80, 201),30	2527,(190, 201),30	2647,(180, 201),30	2767,(130, 201),30	2797,(140, 201),30	3037,(155, 201),30	3367,(125, 201),30	3577,(175, 201),30	3757,(200, 201),30	3847,(70, 201),30	3997,(170, 201),30	4057,(65, 201),30	4207,(75, 201),30	4387,(85, 201),30	4417,(55, 201),30	4447,(95, 201),30	4507,(105, 201),30	4537,(115, 201),30	5197,(150, 201),30	5227,(45, 201),30	
13,(4, 38),2	17,(4, 108),2	19,(4, 135),2	21,(4, 145),2	25,(4, 51),2	27,(4, 146),10	37,(9, 28),4	41,(9, 36),2	43,(9, 71),6	49,(9, 80),2	51,(14, 73),2	53,(14, 88),2	55,(14, 143),6	61,(19, 58),2	63,(19, 190),2	65,(14, 97),6	71,(14, 112),2	73,(14, 142),6	81,(4, 47),30	111,(19, 130),20	131,(19, 140),16	153,(9, 152),32	213,(14, 197),8	289,(104, 201),30	319,(9, 133),24	361,(9, 191),4	365,(14, 170),54	465,(19, 122),16	481,(19, 182),16	539,(9, 101),38	577,(9, 150),716	1293,(9, 176),164	1457,(29, 201),30	1487,(49, 201),30	1517,(119, 201),30	1547,(134, 201),30	1577,(14, 171),24	1601,(14, 181),2	1603,(179, 201),30	1633,(19, 62),112	1745,(19, 81),2	1747,(19, 146),16	1763,(114, 201),30	1793,(94, 201),30	1927,(154, 201),30	2017,(34, 201),30	2107,(139, 201),30	2167,(84, 201),30	2677,(44, 201),30	2707,(74, 201),30	2857,(64, 201),30	2917,(149, 201),30	2977,(194, 201),30	3007,(89, 201),30	3097,(164, 201),30	3127,(184, 201),30	3307,(169, 201),30	3457,(129, 201),30	3697,(99, 201),30	3907,(189, 201),30	3967,(24, 201),30	4237,(39, 201),30	4297,(69, 201),30	4597,(59, 201),30	4747,(124, 201),30	4807,(199, 201),30	4867,(109, 201),30	4897,(159, 201),30	4927,(54, 201),30	4987,(144, 201),30	5077,(79, 201),30	5167,(174, 201),30	
19,(3, 61),2	21,(3, 91),2	23,(3, 181),2	25,(3, 115),2	27,(8, 110),2	29,(8, 137),4	33,(13, 154),2	35,(8, 167),2	37,(8, 141),2	39,(13, 60),2	41,(18, 40),8	49,(13, 196),2	51,(3, 74),32	83,(13, 180),10	93,(18, 44),6	99,(18, 74),4	185,(13, 32),26	211,(18, 32),2	213,(33, 201),30	243,(13, 82),4	247,(13, 107),10	257,(18, 187),4	365,(8, 21),8	373,(18, 131),2	409,(18, 87),12	421,(18, 127),18	439,(18, 137),8	449,(168, 201),30	509,(103, 201),30	607,(8, 26),8	615,(8, 151),16	631,(8, 176),8	639,(8, 196),32	723,(38, 201),30	813,(138, 201),30	873,(13, 21),12	885,(13, 71),16	901,(13, 72),108	1009,(13, 174),152	1161,(18, 171),4	1165,(63, 201),30	1195,(113, 201),30	1225,(193, 201),30	1255,(178, 201),30	1293,(8, 45),204	1663,(68, 201),30	1957,(173, 201),30	2047,(83, 201),30	2137,(28, 201),30	2227,(88, 201),30	2317,(143, 201),30	2437,(53, 201),30	2587,(93, 201),30	3277,(118, 201),30	3487,(108, 201),30	3547,(153, 201),30	3607,(123, 201),30	3637,(58, 201),30	3727,(163, 201),30	3817,(188, 201),30	3877,(133, 201),30	3937,(148, 201),30	4027,(43, 201),30	4117,(48, 201),30	4267,(198, 201),30	4327,(98, 201),30	4657,(158, 201),30	4717,(183, 201),30	4777,(128, 201),30	4957,(73, 201),30	5017,(23, 201),30	5047,(78, 201),30	
9,(2, 35),6	15,(2, 68),2	17,(2, 81),2	21,(2, 53),6	27,(12, 179),2	29,(2, 178),2	31,(12, 83),2	33,(12, 30),2	37,(2, 84),14	51,(2, 96),144	195,(2, 126),18	213,(7, 155),8	221,(12, 169),20	241,(2, 108),28	269,(7, 175),22	291,(12, 58),6	297,(17, 99),2	299,(2, 188),18	319,(7, 46),40	359,(7, 51),2	361,(7, 148),16	377,(7, 151),44	421,(7, 161),24	445,(7, 176),4	449,(12, 39),24	473,(17, 69),12	485,(17, 98),8	499,(17, 55),6	505,(17, 95),4	509,(17, 158),22	531,(17, 183),16	553,(12, 73),106	659,(17, 144),28	701,(12, 76),2	703,(12, 121),6	709,(12, 136),14	783,(77, 201),30	901,(17, 91),10	911,(17, 166),2	945,(67, 201),30	1005,(92, 201),30	1065,(27, 201),30	1099,(167, 201),30	2377,(52, 201),30	2497,(97, 201),30	2557,(112, 201),30	2617,(142, 201),30	2737,(47, 201),30	2827,(57, 201),30	2887,(152, 201),30	2947,(32, 201),30	3067,(197, 201),30	3157,(22, 201),30	3187,(147, 201),30	3217,(162, 201),30	3247,(42, 201),30	3337,(82, 201),30	3397,(107, 201),30	3427,(187, 201),30	3517,(132, 201),30	3667,(157, 201),30	3787,(37, 201),30	4087,(127, 201),30	4147,(137, 201),30	4177,(102, 201),30	4357,(182, 201),30	4477,(87, 201),30	4567,(117, 201),30	4627,(122, 201),30	4687,(192, 201),30	4837,(172, 201),30	5107,(72, 201),30	5137,(177, 201),30	5257,(62, 201),30	
1,(0, 2),2	3,(0, 3),2	5,(0, 4),2	7,(0, 5),2	9,(0, 7),2	11,(0, 8),2	13,(0, 9),2	15,(0, 10),2	17,(0, 12),2	19,(0, 13),2	21,(0, 14),2	23,(0, 15),2	25,(0, 17),2	27,(0, 18),2	29,(0, 19),2	31,(0, 20),2	33,(16, 27),2	35,(16, 34),2	37,(16, 52),28	65,(16, 53),2	67,(16, 93),12	79,(16, 117),2	81,(16, 118),160	241,(16, 125),16	257,(16, 129),4	261,(16, 132),22	283,(16, 153),6	289,(16, 157),8	297,(16, 163),2	299,(16, 200),2	301,(11, 37),6	307,(11, 59),6	313,(11, 70),4	317,(11, 144),2	319,(11, 189),58	377,(11, 198),2	379,(6, 24),22	401,(6, 43),26	427,(6, 65),2	429,(6, 75),44	473,(6, 85),26	499,(6, 87),18	517,(6, 105),4	521,(6, 115),2	523,(6, 117),2	525,(6, 122),4	529,(6, 124),22	551,(6, 128),2	553,(6, 199),4	557,(1, 109),16	573,(1, 159),28	
