382
# CPU
85,14,1	161,24,1	186,34,1	
155,23,1	185,33,1	341,13,1	
174,22,1	180,12,1	202,32,1	
79,11,1	113,21,1	128,31,1	
80,10,1	141,20,1	142,40,1	201,30,1	
43,19,1	110,9,1	123,29,1	132,39,1	
28,4,1	29,38,1	108,8,1	125,18,1	157,28,1	
19,3,1	20,27,1	21,37,1	40,7,1	86,17,1	
10,2,1	73,6,1	77,26,1	85,16,1	208,36,1	
0,0,1	1,1,1	106,5,1	107,15,1	108,35,1	130,25,1	381,41,1	
# Incoming
80,(1, 14),4	84,(4, 14),1	113,(3, 24),3	155,(1, 24),6	185,(1, 34),1	
141,(1, 23),14	157,(3, 33),5	171,(1, 33),14	185,(4, 13),156	
162,(1, 32),9	171,(3, 12),2	173,(3, 22),1	174,(4, 12),6	201,(3, 32),1	
73,(3, 11),6	81,(3, 21),32	123,(3, 31),5	
31,(1, 10),49	80,(3, 20),1	86,(1, 20),55	141,(2, 40),1	161,(1, 30),1	174,(3, 30),27	
28,(1, 9),3	40,(4, 19),3	108,(2, 9),2	116,(3, 29),7	128,(3, 39),4	
19,(0, 4),9	106,(2, 8),2	110,(2, 18),15	130,(2, 28),2	132,(3, 28),25	
10,(0, 3),9	29,(4, 7),11	85,(1, 17),1	
1,(0, 2),9	20,(3, 6),53	73,(4, 26),4	84,(1, 16),1	186,(1, 36),22	
11,(2, 5),95	106,(4, 15),1	107,(4, 35),1	108,(38, 41),8	116,(19, 41),8	125,(2, 25),5	132,(6, 41),8	142,(26, 41),8	150,(11, 41),8	162,(27, 41),8	170,(10, 41),8	178,(14, 41),8	186,(16, 41),8	194,(9, 41),8	202,(37, 41),8	210,(7, 41),8	218,(17, 41),8	226,(21, 41),8	234,(29, 41),8	242,(31, 41),8	250,(39, 41),8	258,(20, 41),8	266,(40, 41),8	274,(23, 41),8	282,(24, 41),8	290,(22, 41),8	298,(12, 41),8	306,(33, 41),8	314,(34, 41),8	322,(30, 41),8	330,(32, 41),8	341,(8, 41),8	349,(18, 41),8	357,(28, 41),8	365,(36, 41),8	373,(13, 41),8	
# Outgoing
178,(14, 41),8	282,(24, 41),8	314,(34, 41),8	
274,(23, 41),8	306,(33, 41),8	373,(13, 41),8	
290,(22, 41),8	298,(12, 41),8	330,(32, 41),8	
150,(11, 41),8	226,(21, 41),8	242,(31, 41),8	
170,(10, 41),8	258,(20, 41),8	266,(40, 41),8	322,(30, 41),8	
116,(19, 41),8	194,(9, 41),8	234,(29, 41),8	250,(39, 41),8	
29,(4, 7),11	40,(4, 19),3	73,(4, 26),4	84,(4, 14),1	106,(4, 15),1	107,(4, 35),1	108,(38, 41),8	174,(4, 12),6	185,(4, 13),156	341,(8, 41),8	349,(18, 41),8	357,(28, 41),8	
20,(3, 6),53	73,(3, 11),6	80,(3, 20),1	81,(3, 21),32	113,(3, 24),3	116,(3, 29),7	123,(3, 31),5	128,(3, 39),4	132,(3, 28),25	157,(3, 33),5	162,(27, 41),8	171,(3, 12),2	173,(3, 22),1	174,(3, 30),27	201,(3, 32),1	202,(37, 41),8	210,(7, 41),8	218,(17, 41),8	
11,(2, 5),95	106,(2, 8),2	108,(2, 9),2	110,(2, 18),15	125,(2, 25),5	130,(2, 28),2	132,(6, 41),8	141,(2, 40),1	142,(26, 41),8	186,(16, 41),8	365,(36, 41),8	
1,(0, 2),9	10,(0, 3),9	19,(0, 4),9	28,(1, 9),3	31,(1, 10),49	80,(1, 14),4	84,(1, 16),1	85,(1, 17),1	86,(1, 20),55	141,(1, 23),14	155,(1, 24),6	161,(1, 30),1	162,(1, 32),9	171,(1, 33),14	185,(1, 34),1	186,(1, 36),22	
