6445
# CPU
9,5,1	17,10,1	18,105,1	45,16,1	111,90,1	249,100,1	327,50,1	329,115,1	335,55,1	403,85,1	407,65,1	417,35,1	419,60,1	789,75,1	1359,20,1	1367,25,1	1377,30,1	1447,45,1	1715,80,1	1929,95,1	1961,110,1	1979,120,1	2633,70,1	6441,40,1	
7,4,1	8,49,1	15,9,1	16,79,1	39,24,1	129,29,1	133,19,1	161,39,1	167,54,1	259,69,1	295,99,1	303,104,1	569,34,1	617,59,1	621,64,1	667,114,1	843,14,1	889,84,1	1385,44,1	1461,94,1	1509,74,1	1851,89,1	1939,109,1	1965,119,1	
5,3,1	13,8,1	14,58,1	421,13,1	425,78,1	527,33,1	849,48,1	867,53,1	941,28,1	981,43,1	997,113,1	1001,98,1	1275,108,1	1301,23,1	1331,103,1	1339,38,1	1357,18,1	1365,63,1	1379,93,1	1383,118,1	1489,68,1	1493,73,1	1823,83,1	2015,88,1	
3,2,1	11,7,1	12,92,1	19,12,1	20,97,1	81,77,1	183,27,1	247,37,1	261,102,1	263,17,1	269,22,1	291,62,1	311,47,1	425,32,1	583,42,1	609,57,1	685,67,1	695,72,1	717,87,1	1245,107,1	1339,117,1	1451,52,1	1719,82,1	1963,112,1	
0,0,1	1,11,1	2,1,1	3,6,1	4,71,1	5,116,1	6,56,1	7,41,1	137,31,1	145,46,1	169,26,1	207,91,1	323,61,1	327,111,1	331,21,1	351,76,1	393,81,1	395,101,1	501,36,1	503,66,1	521,96,1	579,15,1	873,51,1	907,86,1	1615,106,1	6444,121,1	
# Incoming
7,(0, 5),2	15,(0, 10),2	19,(11, 30),6	25,(3, 16),20	45,(3, 20),20	65,(3, 25),20	85,(3, 30),12	103,(3, 90),8	119,(8, 110),2	121,(8, 115),2	167,(2, 55),74	241,(4, 35),2	243,(4, 100),6	249,(4, 115),12	261,(2, 85),2	263,(2, 95),16	279,(8, 60),10	305,(2, 110),20	325,(9, 50),2	327,(2, 115),2	331,(7, 55),4	335,(7, 75),32	367,(8, 85),36	403,(9, 65),4	415,(12, 35),2	417,(12, 60),2	421,(1, 20),2	425,(7, 110),18	501,(9, 95),10	695,(1, 75),94	981,(1, 95),18	1245,(1, 110),14	1357,(6, 20),2	1359,(6, 25),8	1367,(6, 30),10	1385,(6, 45),62	1509,(6, 80),206	1851,(6, 95),78	1939,(6, 110),22	1965,(6, 120),14	1979,(9, 40),308	2287,(9, 70),346	2633,(12, 40),3808	
5,(0, 4),2	13,(0, 9),2	15,(5, 14),8	23,(5, 24),16	39,(5, 74),4	47,(10, 29),2	59,(10, 64),6	65,(11, 44),8	73,(2, 14),54	127,(3, 29),2	129,(3, 84),2	131,(8, 19),2	133,(2, 39),28	161,(2, 54),6	167,(3, 59),6	173,(3, 104),10	183,(8, 34),2	207,(5, 94),26	241,(2, 69),18	259,(2, 84),2	279,(2, 99),16	295,(2, 104),8	303,(2, 109),2	305,(5, 34),264	583,(1, 44),20	609,(1, 59),8	617,(1, 64),4	621,(5, 119),20	641,(10, 114),26	833,(7, 14),10	873,(12, 84),16	1377,(6, 44),8	1385,(12, 94),76	1493,(6, 74),16	1719,(6, 89),132	1929,(6, 109),10	1963,(6, 119),2	
3,(0, 3),2	11,(0, 8),2	25,(11, 38),40	65,(5, 28),4	69,(5, 48),6	81,(11, 78),314	395,(2, 18),2	397,(11, 103),2	399,(2, 28),6	405,(2, 33),8	413,(2, 68),2	415,(4, 63),2	417,(1, 13),4	421,(2, 78),4	425,(1, 33),102	527,(2, 48),306	833,(4, 48),16	849,(4, 88),2	851,(4, 108),2	853,(5, 53),14	867,(5, 83),38	905,(5, 113),18	923,(7, 28),18	941,(7, 68),8	949,(7, 93),2	951,(9, 43),30	981,(10, 113),16	999,(1, 98),2	1001,(7, 73),68	1069,(7, 108),206	1275,(10, 23),26	1301,(10, 103),30	1331,(12, 38),8	1339,(6, 18),18	1357,(12, 63),8	1365,(12, 93),14	1379,(12, 118),4	1451,(6, 68),38	1489,(6, 73),4	1493,(10, 83),330	1823,(12, 88),192	
1,(0, 2),2	9,(0, 7),2	17,(0, 12),2	43,(5, 82),2	45,(5, 117),2	49,(10, 47),8	57,(10, 57),2	73,(11, 67),2	75,(11, 77),6	81,(10, 117),10	97,(3, 82),6	111,(3, 112),8	119,(5, 102),36	163,(8, 62),2	169,(4, 27),14	183,(4, 52),2	185,(4, 62),2	187,(4, 102),52	239,(8, 37),8	247,(8, 57),10	257,(8, 102),4	261,(9, 17),2	263,(9, 22),6	269,(9, 52),2	271,(10, 62),20	299,(9, 47),12	351,(9, 87),18	395,(11, 82),2	399,(11, 117),18	423,(1, 32),2	527,(1, 42),56	603,(1, 57),6	621,(1, 67),64	685,(1, 72),10	695,(10, 87),22	789,(1, 82),192	1001,(1, 107),244	1259,(1, 117),80	1447,(6, 52),4	1715,(6, 82),4	1961,(6, 112),2	
127,(2, 36),6	133,(3, 31),4	137,(3, 36),2	139,(3, 46),6	145,(3, 76),18	163,(4, 15),4	167,(4, 26),2	169,(5, 81),34	203,(5, 86),2	205,(5, 91),2	207,(8, 76),4	211,(8, 86),24	235,(8, 101),2	237,(58, 121),2	239,(49, 121),2	241,(5, 106),30	271,(9, 21),28	299,(10, 81),6	311,(9, 61),12	323,(79, 121),2	325,(2, 111),2	327,(24, 121),2	329,(7, 21),2	331,(9, 76),20	367,(7, 81),26	393,(7, 101),2	395,(29, 121),2	397,(92, 121),2	399,(19, 121),2	401,(39, 121),2	407,(54, 121),2	409,(69, 121),2	411,(99, 121),2	413,(104, 121),2	417,(9, 36),84	501,(12, 66),2	503,(97, 121),2	505,(77, 121),2	507,(27, 121),2	509,(37, 121),2	511,(9, 96),10	521,(102, 121),2	523,(17, 121),2	525,(22, 121),2	527,(13, 121),2	529,(78, 121),2	531,(33, 121),2	569,(10, 15),10	579,(105, 121),2	581,(16, 121),2	583,(90, 121),2	585,(100, 121),2	587,(50, 121),2	589,(115, 121),2	591,(55, 121),2	593,(85, 121),2	595,(65, 121),2	597,(35, 121),2	599,(60, 121),2	601,(34, 121),2	618,(59, 121),2	622,(64, 121),2	668,(114, 121),2	790,(75, 121),2	843,(12, 51),30	873,(14, 121),2	875,(48, 121),2	877,(53, 121),2	889,(12, 86),18	907,(62, 121),2	909,(47, 121),2	911,(32, 121),2	913,(42, 121),2	915,(57, 121),2	917,(67, 121),2	919,(72, 121),2	921,(87, 121),2	923,(84, 121),2	942,(28, 121),2	982,(43, 121),2	998,(113, 121),2	1002,(98, 121),2	1275,(107, 121),2	1277,(108, 121),2	1302,(23, 121),2	1332,(103, 121),2	1340,(117, 121),2	1342,(38, 121),2	1358,(18, 121),2	1360,(20, 121),2	1366,(63, 121),2	1368,(25, 121),2	1378,(30, 121),2	1380,(93, 121),2	1384,(118, 121),2	1386,(44, 121),2	1448,(45, 121),2	1461,(12, 106),154	1615,(52, 121),2	1617,(94, 121),2	1619,(68, 121),2	1621,(73, 121),2	1623,(74, 121),2	1720,(82, 121),2	1823,(80, 121),2	1825,(83, 121),2	1852,(89, 121),2	1930,(95, 121),2	1940,(109, 121),2	1962,(110, 121),2	1966,(119, 121),2	1980,(120, 121),2	2015,(112, 121),2	2017,(88, 121),2	2634,(70, 121),2	6442,(40, 121),2	
# Outgoing
15,(5, 14),8	23,(5, 24),16	39,(5, 74),4	43,(5, 82),2	45,(5, 117),2	47,(10, 29),2	49,(10, 47),8	57,(10, 57),2	59,(10, 64),6	65,(5, 28),4	69,(5, 48),6	81,(10, 117),10	119,(5, 102),36	169,(5, 81),34	203,(5, 86),2	205,(5, 91),2	207,(5, 94),26	241,(5, 106),30	271,(10, 62),20	299,(10, 81),6	305,(5, 34),264	569,(10, 15),10	579,(105, 121),2	581,(16, 121),2	583,(90, 121),2	585,(100, 121),2	587,(50, 121),2	589,(115, 121),2	591,(55, 121),2	593,(85, 121),2	595,(65, 121),2	597,(35, 121),2	599,(60, 121),2	621,(5, 119),20	641,(10, 114),26	695,(10, 87),22	790,(75, 121),2	853,(5, 53),14	867,(5, 83),38	905,(5, 113),18	981,(10, 113),16	1275,(10, 23),26	1301,(10, 103),30	1360,(20, 121),2	1368,(25, 121),2	1378,(30, 121),2	1448,(45, 121),2	1493,(10, 83),330	1823,(80, 121),2	1930,(95, 121),2	1962,(110, 121),2	1980,(120, 121),2	2634,(70, 121),2	6442,(40, 121),2	
163,(4, 15),4	167,(4, 26),2	169,(4, 27),14	183,(4, 52),2	185,(4, 62),2	187,(4, 102),52	239,(49, 121),2	241,(4, 35),2	243,(4, 100),6	249,(4, 115),12	261,(9, 17),2	263,(9, 22),6	269,(9, 52),2	271,(9, 21),28	299,(9, 47),12	311,(9, 61),12	323,(79, 121),2	325,(9, 50),2	327,(24, 121),2	331,(9, 76),20	351,(9, 87),18	395,(29, 121),2	399,(19, 121),2	401,(39, 121),2	403,(9, 65),4	407,(54, 121),2	409,(69, 121),2	411,(99, 121),2	413,(104, 121),2	415,(4, 63),2	417,(9, 36),84	501,(9, 95),10	511,(9, 96),10	601,(34, 121),2	618,(59, 121),2	622,(64, 121),2	668,(114, 121),2	833,(4, 48),16	849,(4, 88),2	851,(4, 108),2	873,(14, 121),2	923,(84, 121),2	951,(9, 43),30	1386,(44, 121),2	1617,(94, 121),2	1623,(74, 121),2	1852,(89, 121),2	1940,(109, 121),2	1966,(119, 121),2	1979,(9, 40),308	2287,(9, 70),346	
25,(3, 16),20	45,(3, 20),20	65,(3, 25),20	85,(3, 30),12	97,(3, 82),6	103,(3, 90),8	111,(3, 112),8	119,(8, 110),2	121,(8, 115),2	127,(3, 29),2	129,(3, 84),2	131,(8, 19),2	133,(3, 31),4	137,(3, 36),2	139,(3, 46),6	145,(3, 76),18	163,(8, 62),2	167,(3, 59),6	173,(3, 104),10	183,(8, 34),2	207,(8, 76),4	211,(8, 86),24	235,(8, 101),2	237,(58, 121),2	239,(8, 37),8	247,(8, 57),10	257,(8, 102),4	279,(8, 60),10	367,(8, 85),36	527,(13, 121),2	529,(78, 121),2	531,(33, 121),2	875,(48, 121),2	877,(53, 121),2	942,(28, 121),2	982,(43, 121),2	998,(113, 121),2	1002,(98, 121),2	1277,(108, 121),2	1302,(23, 121),2	1332,(103, 121),2	1342,(38, 121),2	1358,(18, 121),2	1366,(63, 121),2	1380,(93, 121),2	1384,(118, 121),2	1619,(68, 121),2	1621,(73, 121),2	1825,(83, 121),2	2017,(88, 121),2	
73,(2, 14),54	127,(2, 36),6	133,(2, 39),28	161,(2, 54),6	167,(2, 55),74	241,(2, 69),18	259,(2, 84),2	261,(2, 85),2	263,(2, 95),16	279,(2, 99),16	295,(2, 104),8	303,(2, 109),2	305,(2, 110),20	325,(2, 111),2	327,(2, 115),2	329,(7, 21),2	331,(7, 55),4	335,(7, 75),32	367,(7, 81),26	393,(7, 101),2	395,(2, 18),2	397,(92, 121),2	399,(2, 28),6	405,(2, 33),8	413,(2, 68),2	415,(12, 35),2	417,(12, 60),2	421,(2, 78),4	425,(7, 110),18	501,(12, 66),2	503,(97, 121),2	505,(77, 121),2	507,(27, 121),2	509,(37, 121),2	521,(102, 121),2	523,(17, 121),2	525,(22, 121),2	527,(2, 48),306	833,(7, 14),10	843,(12, 51),30	873,(12, 84),16	889,(12, 86),18	907,(62, 121),2	909,(47, 121),2	911,(32, 121),2	913,(42, 121),2	915,(57, 121),2	917,(67, 121),2	919,(72, 121),2	921,(87, 121),2	923,(7, 28),18	941,(7, 68),8	949,(7, 93),2	1001,(7, 73),68	1069,(7, 108),206	1275,(107, 121),2	1331,(12, 38),8	1340,(117, 121),2	1357,(12, 63),8	1365,(12, 93),14	1379,(12, 118),4	1385,(12, 94),76	1461,(12, 106),154	1615,(52, 121),2	1720,(82, 121),2	1823,(12, 88),192	2015,(112, 121),2	2633,(12, 40),3808	
1,(0, 2),2	3,(0, 3),2	5,(0, 4),2	7,(0, 5),2	9,(0, 7),2	11,(0, 8),2	13,(0, 9),2	15,(0, 10),2	17,(0, 12),2	19,(11, 30),6	25,(11, 38),40	65,(11, 44),8	73,(11, 67),2	75,(11, 77),6	81,(11, 78),314	395,(11, 82),2	397,(11, 103),2	399,(11, 117),18	417,(1, 13),4	421,(1, 20),2	423,(1, 32),2	425,(1, 33),102	527,(1, 42),56	583,(1, 44),20	603,(1, 57),6	609,(1, 59),8	617,(1, 64),4	621,(1, 67),64	685,(1, 72),10	695,(1, 75),94	789,(1, 82),192	981,(1, 95),18	999,(1, 98),2	1001,(1, 107),244	1245,(1, 110),14	1259,(1, 117),80	1339,(6, 18),18	1357,(6, 20),2	1359,(6, 25),8	1367,(6, 30),10	1377,(6, 44),8	1385,(6, 45),62	1447,(6, 52),4	1451,(6, 68),38	1489,(6, 73),4	1493,(6, 74),16	1509,(6, 80),206	1715,(6, 82),4	1719,(6, 89),132	1851,(6, 95),78	1929,(6, 109),10	1939,(6, 110),22	1961,(6, 112),2	1963,(6, 119),2	1965,(6, 120),14	
