44626
# CPU
193,4,22	215,19,22	237,22,22	259,70,22	281,52,22	303,55,22	325,61,22	347,13,22	369,15,22	391,17,22	413,36,22	435,8,22	457,40,22	479,47,22	577,43,22	599,64,22	633,34,22	693,67,22	715,26,22	777,45,22	799,58,22	821,76,22	843,32,22	901,49,22	923,38,22	1021,79,22	1341,73,22	
129,3,22	151,56,22	321,7,22	343,39,22	413,44,22	465,37,22	487,12,22	529,33,22	569,23,22	633,74,22	741,35,22	813,80,22	835,16,22	921,48,22	977,71,22	1245,68,22	1837,46,22	1859,53,22	2025,62,22	2057,65,22	2257,77,22	2441,18,22	2481,20,22	2541,27,22	2563,42,22	2673,50,22	2695,59,22	
65,2,22	257,6,22	279,51,22	369,63,22	557,14,22	753,28,22	797,72,22	917,24,22	993,75,22	1985,54,22	2081,69,22	13573,11,22	13877,31,22	13899,57,22	14101,60,22	14123,66,22	14145,78,22	44625,81,1	
0,0,1	1,5,22	23,1,22	213,25,22	235,30,22	357,9,22	493,10,22	1833,41,22	2517,21,22	2545,29,22	
# Incoming
129,(0, 4),64	193,(2, 13),4	197,(2, 19),4	201,(2, 22),4	213,(2, 26),20	233,(2, 32),12	245,(2, 40),24	269,(2, 61),4	273,(3, 13),12	285,(6, 15),24	309,(6, 17),4	313,(6, 36),8	321,(0, 8),64	385,(3, 38),4	389,(3, 49),92	481,(3, 58),92	573,(6, 43),4	577,(6, 58),8	585,(6, 64),4	597,(5, 26),4	601,(5, 34),32	641,(3, 73),36	677,(6, 67),16	693,(7, 26),16	773,(5, 45),4	781,(5, 58),12	797,(5, 76),12	809,(7, 32),32	841,(7, 49),60	917,(1, 38),4	993,(1, 79),28	1245,(6, 73),96	
65,(0, 3),64	205,(2, 23),4	257,(0, 7),64	321,(2, 44),92	413,(2, 46),4	417,(2, 48),8	425,(4, 37),40	465,(5, 12),4	469,(4, 33),60	529,(6, 53),4	533,(6, 59),16	557,(5, 23),12	589,(6, 71),24	613,(6, 74),20	633,(5, 35),108	741,(5, 42),32	809,(5, 80),4	813,(1, 16),8	821,(1, 20),4	825,(6, 48),96	921,(1, 53),36	969,(1, 71),8	977,(2, 68),268	1833,(4, 46),4	1837,(4, 53),8	1985,(4, 62),40	2025,(4, 65),32	2081,(4, 77),176	2405,(8, 18),36	2441,(8, 20),40	2517,(8, 27),24	2545,(8, 42),12	2557,(8, 50),116	2673,(8, 59),4	
1,(0, 2),64	193,(0, 6),64	257,(3, 63),8	265,(3, 69),4	269,(4, 31),4	273,(4, 51),4	285,(3, 31),68	353,(4, 66),12	365,(7, 63),4	385,(5, 11),80	465,(8, 28),4	469,(5, 14),88	569,(5, 24),28	597,(3, 72),44	709,(7, 28),44	777,(5, 57),4	793,(5, 72),4	825,(1, 24),92	917,(7, 54),40	957,(1, 54),8	965,(1, 60),4	977,(1, 75),16	993,(56, 81),744	1845,(4, 54),140	2057,(4, 69),24	2257,(4, 78),148	2405,(25, 81),744	3149,(19, 81),744	3893,(30, 81),744	4637,(22, 81),744	5381,(70, 81),744	6125,(52, 81),744	6869,(55, 81),744	7613,(61, 81),744	8357,(39, 81),744	9101,(13, 81),744	9845,(9, 81),744	10589,(15, 81),744	11333,(17, 81),744	12077,(44, 81),744	12821,(36, 81),744	13565,(8, 11),8	13573,(8, 31),304	13877,(8, 57),16	13893,(8, 60),208	14101,(8, 66),4	14105,(8, 78),16	14121,(40, 81),744	14865,(37, 81),744	15609,(47, 81),744	16353,(12, 81),744	17097,(10, 81),744	17841,(33, 81),744	18585,(23, 81),744	19329,(43, 81),744	20073,(64, 81),744	20817,(74, 81),744	21561,(34, 81),744	22305,(67, 81),744	23049,(26, 81),744	23793,(35, 81),744	24537,(45, 81),744	25281,(58, 81),744	26025,(80, 81),744	26769,(76, 81),744	27513,(16, 81),744	28257,(32, 81),744	29001,(49, 81),744	29745,(48, 81),744	30489,(38, 81),744	31233,(71, 81),744	31977,(79, 81),744	32721,(68, 81),744	33465,(73, 81),744	34209,(41, 81),744	34953,(46, 81),744	35697,(53, 81),744	36441,(62, 81),744	37185,(65, 81),744	37929,(77, 81),744	38673,(18, 81),744	39417,(20, 81),744	40161,(21, 81),744	40905,(27, 81),744	41649,(29, 81),744	42393,(42, 81),744	43137,(50, 81),744	43881,(59, 81),744	
209,(2, 25),4	213,(3, 10),4	217,(3, 30),4	353,(7, 9),4	425,(6, 10),68	529,(4, 41),1304	2481,(8, 21),36	2541,(8, 29),4	
# Outgoing
269,(4, 31),4	273,(4, 51),4	353,(4, 66),12	425,(4, 37),40	465,(8, 28),4	469,(4, 33),60	529,(4, 41),1304	1833,(4, 46),4	1837,(4, 53),8	1845,(4, 54),140	1985,(4, 62),40	2025,(4, 65),32	2057,(4, 69),24	2081,(4, 77),176	2257,(4, 78),148	2405,(8, 18),36	2441,(8, 20),40	2481,(8, 21),36	2517,(8, 27),24	2541,(8, 29),4	2545,(8, 42),12	2557,(8, 50),116	2673,(8, 59),4	3149,(19, 81),744	4637,(22, 81),744	5381,(70, 81),744	6125,(52, 81),744	6869,(55, 81),744	7613,(61, 81),744	9101,(13, 81),744	10589,(15, 81),744	11333,(17, 81),744	12821,(36, 81),744	13565,(8, 11),8	13573,(8, 31),304	13877,(8, 57),16	13893,(8, 60),208	14101,(8, 66),4	14105,(8, 78),16	14121,(40, 81),744	15609,(47, 81),744	19329,(43, 81),744	20073,(64, 81),744	21561,(34, 81),744	22305,(67, 81),744	23049,(26, 81),744	24537,(45, 81),744	25281,(58, 81),744	26769,(76, 81),744	28257,(32, 81),744	29001,(49, 81),744	30489,(38, 81),744	31977,(79, 81),744	33465,(73, 81),744	
213,(3, 10),4	217,(3, 30),4	257,(3, 63),8	265,(3, 69),4	273,(3, 13),12	285,(3, 31),68	353,(7, 9),4	365,(7, 63),4	385,(3, 38),4	389,(3, 49),92	481,(3, 58),92	597,(3, 72),44	641,(3, 73),36	693,(7, 26),16	709,(7, 28),44	809,(7, 32),32	841,(7, 49),60	917,(7, 54),40	993,(56, 81),744	8357,(39, 81),744	12077,(44, 81),744	14865,(37, 81),744	16353,(12, 81),744	17841,(33, 81),744	18585,(23, 81),744	20817,(74, 81),744	23793,(35, 81),744	26025,(80, 81),744	27513,(16, 81),744	29745,(48, 81),744	31233,(71, 81),744	32721,(68, 81),744	34953,(46, 81),744	35697,(53, 81),744	36441,(62, 81),744	37185,(65, 81),744	37929,(77, 81),744	38673,(18, 81),744	39417,(20, 81),744	40905,(27, 81),744	42393,(42, 81),744	43137,(50, 81),744	43881,(59, 81),744	
193,(2, 13),4	197,(2, 19),4	201,(2, 22),4	205,(2, 23),4	209,(2, 25),4	213,(2, 26),20	233,(2, 32),12	245,(2, 40),24	269,(2, 61),4	285,(6, 15),24	309,(6, 17),4	313,(6, 36),8	321,(2, 44),92	413,(2, 46),4	417,(2, 48),8	425,(6, 10),68	529,(6, 53),4	533,(6, 59),16	573,(6, 43),4	577,(6, 58),8	585,(6, 64),4	589,(6, 71),24	613,(6, 74),20	677,(6, 67),16	825,(6, 48),96	977,(2, 68),268	1245,(6, 73),96	
1,(0, 2),64	65,(0, 3),64	129,(0, 4),64	193,(0, 6),64	257,(0, 7),64	321,(0, 8),64	385,(5, 11),80	465,(5, 12),4	469,(5, 14),88	557,(5, 23),12	569,(5, 24),28	597,(5, 26),4	601,(5, 34),32	633,(5, 35),108	741,(5, 42),32	773,(5, 45),4	777,(5, 57),4	781,(5, 58),12	793,(5, 72),4	797,(5, 76),12	809,(5, 80),4	813,(1, 16),8	821,(1, 20),4	825,(1, 24),92	917,(1, 38),4	921,(1, 53),36	957,(1, 54),8	965,(1, 60),4	969,(1, 71),8	977,(1, 75),16	993,(1, 79),28	2405,(25, 81),744	3893,(30, 81),744	9845,(9, 81),744	17097,(10, 81),744	34209,(41, 81),744	40161,(21, 81),744	41649,(29, 81),744	
