427
# CPU
0,0,1	1,3,4	5,91,4	9,116,4	13,141,4	17,84,4	21,175,4	25,72,4	29,179,4	33,40,4	37,177,4	41,24,4	45,19,4	49,81,4	53,168,4	57,56,4	61,34,4	65,115,4	69,75,4	73,140,4	77,7,4	81,183,4	85,60,4	89,195,4	93,113,4	97,30,4	101,166,4	105,134,4	109,119,4	113,176,4	117,5,4	121,64,4	125,173,4	129,144,4	133,39,4	137,131,4	141,16,4	145,137,4	149,65,4	153,162,4	157,105,4	161,12,4	165,122,4	169,121,4	173,170,4	177,47,4	181,86,4	185,37,4	189,147,4	193,18,4	197,71,4	201,148,4	205,94,4	209,63,4	213,160,4	217,59,4	221,143,4	225,82,4	229,145,4	233,57,4	237,15,4	241,189,4	245,55,4	249,136,4	253,33,4	257,128,4	261,197,4	265,70,4	269,194,4	273,150,4	277,174,4	281,112,4	285,192,4	289,92,4	293,9,4	297,61,4	301,120,4	305,97,4	309,164,4	313,27,4	317,26,4	321,17,4	325,191,4	329,52,4	333,93,4	337,104,4	341,180,4	345,43,4	349,87,4	353,29,4	357,83,4	361,89,4	365,163,4	426,201,1	
8,31,4	20,149,4	51,199,4	69,152,4	90,135,4	125,10,4	129,187,4	133,96,4	137,129,4	141,111,4	145,50,4	149,124,4	153,25,4	162,49,4	168,90,4	189,6,4	193,153,4	197,193,4	201,103,4	205,157,4	209,117,4	213,23,4	217,68,4	221,58,4	225,198,4	229,45,4	244,88,4	256,127,4	277,1,4	281,69,4	285,51,4	289,172,4	293,182,4	297,123,4	301,101,4	305,67,4	309,28,4	313,151,4	
11,139,4	62,11,4	66,186,4	70,158,4	74,73,4	78,85,4	82,99,4	92,77,4	132,38,4	152,98,4	196,62,4	220,114,4	247,125,4	298,4,4	302,95,4	306,159,4	310,133,4	314,161,4	318,54,4	322,108,4	326,36,4	
86,42,4	104,79,4	146,14,4	150,184,4	154,76,4	158,110,4	162,118,4	166,109,4	170,107,4	174,138,4	178,46,4	182,178,4	186,100,4	190,171,4	210,2,4	214,41,4	218,48,4	222,146,4	226,130,4	230,169,4	234,167,4	238,165,4	304,22,4	
41,13,4	45,188,4	49,126,4	53,32,4	57,154,4	61,78,4	65,21,4	69,200,4	83,20,4	87,190,4	91,142,4	95,132,4	99,181,4	103,35,4	107,44,4	111,53,4	231,8,4	235,74,4	239,106,4	243,80,4	247,185,4	251,155,4	255,156,4	259,66,4	263,196,4	267,102,4	
# Incoming
132,(31, 201),3	135,(139, 201),3	138,(149, 201),3	141,(188, 201),3	144,(126, 201),3	147,(199, 201),3	150,(32, 201),3	153,(154, 201),3	156,(78, 201),3	159,(21, 201),3	162,(186, 201),3	165,(200, 201),3	168,(152, 201),3	171,(158, 201),3	174,(73, 201),3	177,(85, 201),3	180,(99, 201),3	183,(42, 201),3	186,(190, 201),3	189,(135, 201),3	192,(142, 201),3	195,(77, 201),3	198,(132, 201),3	201,(181, 201),3	204,(35, 201),3	207,(79, 201),3	210,(44, 201),3	213,(53, 201),3	216,(187, 201),3	219,(38, 201),3	222,(96, 201),3	225,(129, 201),3	228,(111, 201),3	231,(50, 201),3	234,(124, 201),3	237,(184, 201),3	240,(98, 201),3	243,(25, 201),3	246,(76, 201),3	249,(110, 201),3	252,(118, 201),3	255,(49, 201),3	258,(109, 201),3	261,(90, 201),3	264,(107, 201),3	267,(138, 201),3	270,(46, 201),3	273,(178, 201),3	276,(100, 201),3	279,(171, 201),3	282,(153, 201),3	285,(62, 201),3	288,(193, 201),3	291,(103, 201),3	294,(157, 201),3	297,(117, 201),3	300,(23, 201),3	303,(41, 201),3	306,(68, 201),3	309,(48, 201),3	312,(114, 201),3	315,(58, 201),3	318,(146, 201),3	321,(198, 201),3	324,(130, 201),3	327,(45, 201),3	330,(169, 201),3	333,(167, 201),3	336,(74, 201),3	339,(165, 201),3	342,(106, 201),3	345,(80, 201),3	348,(88, 201),3	351,(185, 201),3	354,(125, 201),3	357,(155, 201),3	360,(156, 201),3	363,(127, 201),3	366,(66, 201),3	369,(196, 201),3	372,(102, 201),3	375,(69, 201),3	378,(51, 201),3	381,(172, 201),3	384,(182, 201),3	387,(123, 201),3	390,(101, 201),3	393,(95, 201),3	396,(22, 201),3	399,(67, 201),3	402,(159, 201),3	405,(28, 201),3	408,(133, 201),3	411,(151, 201),3	414,(161, 201),3	417,(54, 201),3	420,(108, 201),3	423,(36, 201),3	
5,(3, 31),3	11,(3, 149),9	45,(13, 199),6	66,(11, 152),3	87,(20, 135),3	104,(0, 10),21	150,(14, 49),12	165,(12, 90),3	168,(0, 6),21	241,(15, 88),3	244,(15, 127),12	256,(0, 1),21	
8,(3, 139),3	41,(0, 11),21	86,(7, 77),6	129,(10, 38),3	146,(16, 98),6	193,(6, 62),3	214,(2, 114),6	235,(8, 125),12	277,(0, 4),21	
83,(7, 42),3	92,(7, 79),12	125,(0, 14),21	189,(0, 2),21	298,(9, 22),6	
20,(0, 13),21	62,(0, 20),21	210,(0, 8),21	
# Outgoing
5,(3, 31),3	8,(3, 139),3	11,(3, 149),9	20,(0, 13),21	41,(0, 11),21	62,(0, 20),21	83,(7, 42),3	86,(7, 77),6	92,(7, 79),12	104,(0, 10),21	125,(0, 14),21	146,(16, 98),6	165,(12, 90),3	168,(0, 6),21	189,(0, 2),21	210,(0, 8),21	241,(15, 88),3	244,(15, 127),12	256,(0, 1),21	277,(0, 4),21	298,(9, 22),6	
129,(10, 38),3	132,(31, 201),3	138,(149, 201),3	147,(199, 201),3	168,(152, 201),3	189,(135, 201),3	193,(6, 62),3	216,(187, 201),3	222,(96, 201),3	225,(129, 201),3	228,(111, 201),3	231,(50, 201),3	234,(124, 201),3	243,(25, 201),3	255,(49, 201),3	261,(90, 201),3	282,(153, 201),3	288,(193, 201),3	291,(103, 201),3	294,(157, 201),3	297,(117, 201),3	300,(23, 201),3	306,(68, 201),3	315,(58, 201),3	321,(198, 201),3	327,(45, 201),3	348,(88, 201),3	363,(127, 201),3	375,(69, 201),3	378,(51, 201),3	381,(172, 201),3	384,(182, 201),3	387,(123, 201),3	390,(101, 201),3	399,(67, 201),3	405,(28, 201),3	411,(151, 201),3	
66,(11, 152),3	135,(139, 201),3	162,(186, 201),3	171,(158, 201),3	174,(73, 201),3	177,(85, 201),3	180,(99, 201),3	195,(77, 201),3	219,(38, 201),3	240,(98, 201),3	285,(62, 201),3	312,(114, 201),3	354,(125, 201),3	393,(95, 201),3	402,(159, 201),3	408,(133, 201),3	414,(161, 201),3	417,(54, 201),3	420,(108, 201),3	423,(36, 201),3	
150,(14, 49),12	183,(42, 201),3	207,(79, 201),3	214,(2, 114),6	237,(184, 201),3	246,(76, 201),3	249,(110, 201),3	252,(118, 201),3	258,(109, 201),3	264,(107, 201),3	267,(138, 201),3	270,(46, 201),3	273,(178, 201),3	276,(100, 201),3	279,(171, 201),3	303,(41, 201),3	309,(48, 201),3	318,(146, 201),3	324,(130, 201),3	330,(169, 201),3	333,(167, 201),3	339,(165, 201),3	396,(22, 201),3	
45,(13, 199),6	87,(20, 135),3	141,(188, 201),3	144,(126, 201),3	150,(32, 201),3	153,(154, 201),3	156,(78, 201),3	159,(21, 201),3	165,(200, 201),3	186,(190, 201),3	192,(142, 201),3	198,(132, 201),3	201,(181, 201),3	204,(35, 201),3	210,(44, 201),3	213,(53, 201),3	235,(8, 125),12	336,(74, 201),3	342,(106, 201),3	345,(80, 201),3	351,(185, 201),3	357,(155, 201),3	360,(156, 201),3	366,(66, 201),3	369,(196, 201),3	372,(102, 201),3	
