24112
# CPU
5,5,13	18,10,13	31,19,13	44,87,13	198,54,13	211,58,13	224,33,13	253,20,13	266,67,13	279,77,13	293,37,13	307,24,13	320,29,13	341,62,13	354,72,13	403,107,13	449,92,13	462,41,13	475,45,13	488,112,13	584,117,13	635,50,13	648,97,13	661,102,13	694,82,13	
4,4,13	17,9,13	30,59,13	43,88,13	56,55,13	69,73,13	227,63,13	240,83,13	253,118,13	266,42,13	279,108,13	292,21,13	305,68,13	318,38,13	331,93,13	344,113,13	357,25,13	370,30,13	383,98,13	396,46,13	409,18,13	422,34,13	435,51,13	448,78,13	461,103,13	
3,3,13	16,8,13	62,23,13	82,61,13	95,96,13	112,16,13	196,57,13	209,76,13	222,116,13	235,91,13	248,106,13	261,111,13	274,32,13	287,40,13	313,17,13	334,36,13	347,44,13	367,71,13	383,86,13	442,28,13	455,49,13	468,53,13	481,66,13	494,81,13	507,101,13	
2,2,13	15,7,13	28,12,13	41,52,13	54,39,13	67,35,13	80,31,13	93,64,13	106,99,13	119,94,13	281,15,13	294,22,13	307,89,13	320,27,13	333,74,13	346,56,13	359,104,13	372,109,13	385,43,13	398,69,13	411,47,13	424,79,13	437,119,13	450,114,13	481,60,13	494,84,13	
0,0,1	1,11,13	14,6,13	27,1,13	195,48,13	208,65,13	221,110,13	234,85,13	247,90,13	274,75,13	308,26,13	321,13,13	390,80,13	403,105,13	418,70,13	441,95,13	488,100,13	527,14,13	540,115,13	553,120,13	24111,121,1	
# Incoming
4,(0, 5),1	8,(0, 10),1	19,(11, 19),4	32,(11, 54),2	197,(4, 54),1	198,(4, 58),2	200,(7, 33),1	201,(11, 82),2	203,(11, 92),18	221,(11, 102),1	222,(2, 102),10	232,(4, 29),20	252,(6, 20),1	253,(6, 67),1	254,(6, 77),17	271,(7, 37),22	293,(12, 50),1	305,(9, 24),2	308,(3, 29),1	309,(4, 62),32	346,(8, 72),6	352,(1, 41),8	370,(7, 107),33	418,(4, 92),31	449,(9, 41),10	459,(9, 45),4	484,(9, 112),2	488,(8, 102),21	509,(8, 117),75	584,(9, 50),51	635,(9, 97),7	642,(9, 102),9	651,(12, 82),43	
3,(0, 4),1	7,(0, 9),1	14,(11, 18),5	19,(2, 30),6	25,(2, 34),2	29,(11, 38),3	34,(11, 55),4	38,(5, 21),4	45,(5, 73),1	49,(11, 78),152	201,(2, 103),7	208,(5, 63),19	227,(5, 83),6	233,(5, 108),1	234,(5, 118),1	235,(7, 34),2	237,(7, 42),1	238,(7, 108),2	240,(10, 21),2	242,(10, 68),3	245,(1, 38),4	249,(1, 93),1	255,(7, 113),1	256,(12, 25),9	265,(12, 30),4	269,(12, 98),1	271,(1, 51),4	275,(1, 103),7	309,(3, 46),1	325,(8, 18),15	340,(8, 34),5	345,(8, 51),1	352,(8, 78),4	356,(10, 103),37	
2,(0, 3),1	6,(0, 8),1	24,(11, 32),5	38,(11, 66),11	49,(5, 23),13	62,(5, 57),19	81,(5, 61),1	82,(5, 96),13	111,(10, 16),1	195,(2, 57),1	196,(4, 44),1	199,(7, 76),1	201,(4, 116),1	202,(9, 71),6	208,(9, 91),9	221,(12, 36),1	222,(11, 106),14	236,(11, 111),4	240,(7, 40),8	248,(7, 66),3	251,(1, 32),1	252,(4, 40),35	287,(6, 17),26	313,(7, 36),21	334,(7, 44),7	341,(7, 71),26	367,(7, 86),3	370,(1, 53),2	372,(1, 86),11	403,(12, 28),39	442,(12, 49),6	448,(12, 53),1	449,(12, 66),9	458,(12, 81),1	459,(12, 101),23	
1,(0, 2),1	5,(0, 7),1	9,(0, 12),1	23,(11, 22),1	42,(5, 22),3	46,(5, 84),3	95,(5, 114),6	101,(10, 15),10	112,(10, 74),7	119,(10, 84),3	122,(10, 119),4	200,(4, 104),1	202,(3, 15),79	281,(3, 22),7	288,(4, 89),17	307,(9, 27),1	310,(3, 60),5	315,(3, 74),4	319,(1, 56),1	320,(1, 104),3	324,(3, 109),1	325,(1, 43),13	341,(4, 69),53	394,(8, 47),12	406,(8, 79),2	408,(8, 119),2	410,(1, 114),15	463,(9, 60),18	481,(9, 84),3	
27,(2, 48),168	195,(4, 13),1	196,(2, 90),3	199,(3, 14),3	202,(10, 65),6	208,(2, 110),13	221,(9, 85),7	232,(7, 13),3	235,(10, 70),1	236,(10, 90),4	251,(7, 75),4	255,(10, 75),19	274,(10, 105),7	288,(3, 26),20	308,(12, 13),4	319,(3, 100),5	356,(8, 80),34	390,(8, 105),2	394,(4, 70),24	418,(8, 95),23	441,(8, 100),47	488,(12, 14),39	527,(12, 115),3	530,(12, 120),20	651,(59, 121),255	906,(19, 121),255	1161,(52, 121),255	1416,(88, 121),255	1671,(87, 121),255	1926,(39, 121),255	2181,(55, 121),255	2436,(23, 121),255	2691,(35, 121),255	2946,(73, 121),255	3201,(31, 121),255	3456,(61, 121),255	3711,(64, 121),255	3966,(96, 121),255	4221,(99, 121),255	4476,(16, 121),255	4731,(94, 121),255	4986,(57, 121),255	5241,(54, 121),255	5496,(76, 121),255	5751,(58, 121),255	6006,(116, 121),255	6261,(33, 121),255	6516,(63, 121),255	6771,(91, 121),255	7026,(83, 121),255	7281,(106, 121),255	7536,(118, 121),255	7791,(20, 121),255	8046,(111, 121),255	8301,(42, 121),255	8556,(67, 121),255	8811,(32, 121),255	9066,(77, 121),255	9321,(108, 121),255	9576,(15, 121),255	9831,(40, 121),255	10086,(21, 121),255	10341,(37, 121),255	10596,(22, 121),255	10851,(68, 121),255	11106,(89, 121),255	11361,(24, 121),255	11616,(17, 121),255	11871,(38, 121),255	12126,(29, 121),255	12381,(27, 121),255	12636,(93, 121),255	12891,(74, 121),255	13146,(36, 121),255	13401,(62, 121),255	13656,(113, 121),255	13911,(56, 121),255	14166,(44, 121),255	14421,(72, 121),255	14676,(25, 121),255	14931,(104, 121),255	15186,(71, 121),255	15441,(30, 121),255	15696,(109, 121),255	15951,(86, 121),255	16206,(98, 121),255	16461,(43, 121),255	16716,(46, 121),255	16971,(69, 121),255	17226,(107, 121),255	17481,(18, 121),255	17736,(47, 121),255	17991,(34, 121),255	18246,(79, 121),255	18501,(51, 121),255	18756,(119, 121),255	19011,(28, 121),255	19266,(78, 121),255	19521,(92, 121),255	19776,(114, 121),255	20031,(49, 121),255	20286,(103, 121),255	20541,(41, 121),255	20796,(53, 121),255	21051,(45, 121),255	21306,(60, 121),255	21561,(66, 121),255	21816,(112, 121),255	22071,(84, 121),255	22326,(81, 121),255	22581,(101, 121),255	22836,(117, 121),255	23091,(50, 121),255	23346,(97, 121),255	23601,(102, 121),255	23856,(82, 121),255	
# Outgoing
38,(5, 21),4	42,(5, 22),3	45,(5, 73),1	46,(5, 84),3	49,(5, 23),13	62,(5, 57),19	81,(5, 61),1	82,(5, 96),13	95,(5, 114),6	101,(10, 15),10	111,(10, 16),1	112,(10, 74),7	119,(10, 84),3	122,(10, 119),4	202,(10, 65),6	208,(5, 63),19	227,(5, 83),6	233,(5, 108),1	234,(5, 118),1	235,(10, 70),1	236,(10, 90),4	240,(10, 21),2	242,(10, 68),3	255,(10, 75),19	274,(10, 105),7	356,(10, 103),37	906,(19, 121),255	1671,(87, 121),255	5241,(54, 121),255	5751,(58, 121),255	6261,(33, 121),255	7791,(20, 121),255	8556,(67, 121),255	9066,(77, 121),255	10341,(37, 121),255	11361,(24, 121),255	12126,(29, 121),255	13401,(62, 121),255	14421,(72, 121),255	17226,(107, 121),255	19521,(92, 121),255	20541,(41, 121),255	21051,(45, 121),255	21816,(112, 121),255	22836,(117, 121),255	23091,(50, 121),255	23346,(97, 121),255	23601,(102, 121),255	23856,(82, 121),255	
195,(4, 13),1	196,(4, 44),1	197,(4, 54),1	198,(4, 58),2	200,(4, 104),1	201,(4, 116),1	202,(9, 71),6	208,(9, 91),9	221,(9, 85),7	232,(4, 29),20	252,(4, 40),35	288,(4, 89),17	305,(9, 24),2	307,(9, 27),1	309,(4, 62),32	341,(4, 69),53	394,(4, 70),24	418,(4, 92),31	449,(9, 41),10	459,(9, 45),4	463,(9, 60),18	481,(9, 84),3	484,(9, 112),2	584,(9, 50),51	635,(9, 97),7	642,(9, 102),9	651,(59, 121),255	1416,(88, 121),255	2181,(55, 121),255	2946,(73, 121),255	6516,(63, 121),255	7026,(83, 121),255	7536,(118, 121),255	8301,(42, 121),255	9321,(108, 121),255	10086,(21, 121),255	10851,(68, 121),255	11871,(38, 121),255	12636,(93, 121),255	13656,(113, 121),255	14676,(25, 121),255	15441,(30, 121),255	16206,(98, 121),255	16716,(46, 121),255	17481,(18, 121),255	17991,(34, 121),255	18501,(51, 121),255	19266,(78, 121),255	20286,(103, 121),255	
199,(3, 14),3	202,(3, 15),79	281,(3, 22),7	288,(3, 26),20	308,(3, 29),1	309,(3, 46),1	310,(3, 60),5	315,(3, 74),4	319,(3, 100),5	324,(3, 109),1	325,(8, 18),15	340,(8, 34),5	345,(8, 51),1	346,(8, 72),6	352,(8, 78),4	356,(8, 80),34	390,(8, 105),2	394,(8, 47),12	406,(8, 79),2	408,(8, 119),2	418,(8, 95),23	441,(8, 100),47	488,(8, 102),21	509,(8, 117),75	2436,(23, 121),255	3456,(61, 121),255	3966,(96, 121),255	4476,(16, 121),255	4986,(57, 121),255	5496,(76, 121),255	6006,(116, 121),255	6771,(91, 121),255	7281,(106, 121),255	8046,(111, 121),255	8811,(32, 121),255	9831,(40, 121),255	11616,(17, 121),255	13146,(36, 121),255	14166,(44, 121),255	15186,(71, 121),255	15951,(86, 121),255	19011,(28, 121),255	20031,(49, 121),255	20796,(53, 121),255	21561,(66, 121),255	22326,(81, 121),255	22581,(101, 121),255	
19,(2, 30),6	25,(2, 34),2	27,(2, 48),168	195,(2, 57),1	196,(2, 90),3	199,(7, 76),1	200,(7, 33),1	201,(2, 103),7	208,(2, 110),13	221,(12, 36),1	222,(2, 102),10	232,(7, 13),3	235,(7, 34),2	237,(7, 42),1	238,(7, 108),2	240,(7, 40),8	248,(7, 66),3	251,(7, 75),4	255,(7, 113),1	256,(12, 25),9	265,(12, 30),4	269,(12, 98),1	271,(7, 37),22	293,(12, 50),1	308,(12, 13),4	313,(7, 36),21	334,(7, 44),7	341,(7, 71),26	367,(7, 86),3	370,(7, 107),33	403,(12, 28),39	442,(12, 49),6	448,(12, 53),1	449,(12, 66),9	458,(12, 81),1	459,(12, 101),23	488,(12, 14),39	527,(12, 115),3	530,(12, 120),20	651,(12, 82),43	1161,(52, 121),255	1926,(39, 121),255	2691,(35, 121),255	3201,(31, 121),255	3711,(64, 121),255	4221,(99, 121),255	4731,(94, 121),255	9576,(15, 121),255	10596,(22, 121),255	11106,(89, 121),255	12381,(27, 121),255	12891,(74, 121),255	13911,(56, 121),255	14931,(104, 121),255	15696,(109, 121),255	16461,(43, 121),255	16971,(69, 121),255	17736,(47, 121),255	18246,(79, 121),255	18756,(119, 121),255	19776,(114, 121),255	21306,(60, 121),255	22071,(84, 121),255	
1,(0, 2),1	2,(0, 3),1	3,(0, 4),1	4,(0, 5),1	5,(0, 7),1	6,(0, 8),1	7,(0, 9),1	8,(0, 10),1	9,(0, 12),1	14,(11, 18),5	19,(11, 19),4	23,(11, 22),1	24,(11, 32),5	29,(11, 38),3	32,(11, 54),2	34,(11, 55),4	38,(11, 66),11	49,(11, 78),152	201,(11, 82),2	203,(11, 92),18	221,(11, 102),1	222,(11, 106),14	236,(11, 111),4	245,(1, 38),4	249,(1, 93),1	251,(1, 32),1	252,(6, 20),1	253,(6, 67),1	254,(6, 77),17	271,(1, 51),4	275,(1, 103),7	287,(6, 17),26	319,(1, 56),1	320,(1, 104),3	325,(1, 43),13	352,(1, 41),8	370,(1, 53),2	372,(1, 86),11	410,(1, 114),15	
