3752
# CPU
105,5,5	110,20,5	115,45,5	120,60,5	125,65,5	133,50,5	167,110,5	172,18,5	209,10,5	214,115,5	433,85,5	438,90,5	443,100,5	448,55,5	457,25,5	462,75,5	479,80,5	515,40,5	569,95,5	609,35,5	687,105,5	739,30,5	749,70,5	875,120,5	
79,4,5	84,34,5	89,94,5	94,49,5	103,74,5	108,89,5	155,109,5	183,9,5	188,29,5	275,44,5	297,39,5	351,19,5	371,104,5	435,59,5	440,79,5	461,64,5	477,99,5	483,119,5	521,16,5	539,84,5	591,24,5	683,54,5	705,114,5	3581,69,5	
53,3,5	58,28,5	63,43,5	157,8,5	162,48,5	167,118,5	172,68,5	233,113,5	238,13,5	263,103,5	285,38,5	429,98,5	434,53,5	439,73,5	457,17,5	462,78,5	517,93,5	579,58,5	653,83,5	711,23,5	747,33,5	807,88,5	1017,108,5	1157,63,5	
27,2,5	32,32,5	37,82,5	42,102,5	89,47,5	131,7,5	136,87,5	169,92,5	235,12,5	240,42,5	245,67,5	250,107,5	277,37,5	283,57,5	445,52,5	465,62,5	477,112,5	559,22,5	629,97,5	685,72,5	707,15,5	733,27,5	797,77,5	837,117,5	
0,0,1	1,6,5	6,1,5	11,11,5	16,46,5	21,36,5	26,14,5	127,86,5	159,26,5	164,56,5	227,91,5	232,116,5	363,71,5	369,96,5	435,51,5	455,76,5	481,31,5	486,81,5	515,106,5	521,21,5	557,41,5	562,66,5	587,111,5	677,61,5	715,101,5	3751,121,1	
# Incoming
79,(0, 5),26	105,(2, 20),2	107,(2, 60),4	111,(2, 65),12	123,(3, 50),10	155,(3, 110),12	167,(7, 18),2	183,(0, 10),26	209,(3, 85),224	433,(9, 90),4	437,(8, 100),2	445,(6, 55),2	447,(9, 25),10	457,(12, 75),2	461,(6, 80),18	481,(8, 40),34	539,(8, 95),30	591,(1, 35),18	685,(1, 105),2	733,(11, 30),6	747,(11, 70),2	837,(11, 120),38	
53,(0, 4),26	79,(3, 34),2	89,(3, 49),2	91,(3, 74),12	103,(3, 89),2	133,(3, 109),22	157,(0, 9),26	183,(2, 44),92	285,(6, 39),12	297,(5, 19),54	369,(5, 104),2	429,(7, 59),6	435,(8, 79),2	447,(6, 64),14	461,(7, 99),16	477,(7, 119),6	517,(1, 16),4	521,(8, 84),18	559,(1, 24),32	609,(1, 54),74	687,(1, 114),18	705,(8, 69),2876	
27,(0, 3),26	131,(0, 8),26	161,(4, 68),2	231,(9, 113),2	235,(6, 13),2	237,(4, 103),26	277,(6, 38),8	285,(2, 98),144	431,(10, 53),2	433,(10, 73),6	455,(12, 17),2	459,(12, 78),2	479,(6, 93),38	517,(10, 58),62	579,(12, 83),74	707,(11, 23),4	739,(11, 33),8	797,(11, 88),10	807,(9, 108),210	1017,(10, 63),140	
1,(0, 2),26	81,(3, 47),8	105,(0, 7),26	163,(4, 92),6	209,(0, 12),26	235,(9, 42),2	237,(6, 37),40	277,(9, 57),6	297,(6, 52),148	445,(5, 62),20	465,(9, 112),12	521,(1, 22),38	579,(10, 97),50	683,(1, 72),2	705,(11, 15),2	711,(11, 27),22	749,(11, 77),48	807,(11, 117),30	
123,(2, 86),4	127,(32, 121),10	137,(82, 121),10	147,(102, 121),10	157,(4, 26),2	159,(4, 56),2	167,(28, 121),10	177,(43, 121),10	187,(4, 91),40	227,(4, 116),4	263,(34, 121),10	275,(47, 121),10	285,(94, 121),10	295,(49, 121),10	305,(74, 121),10	315,(89, 121),10	325,(109, 121),10	335,(29, 121),10	351,(5, 71),12	363,(5, 96),6	371,(20, 121),10	381,(45, 121),10	391,(60, 121),10	401,(65, 121),10	411,(50, 121),10	421,(110, 121),10	433,(8, 51),2	435,(7, 76),20	455,(8, 31),26	481,(10, 81),2	483,(87, 121),10	493,(92, 121),10	503,(18, 121),10	513,(10, 106),2	515,(12, 21),6	521,(12, 41),36	557,(12, 66),2	559,(42, 121),10	569,(8, 111),18	587,(48, 121),10	597,(118, 121),10	607,(68, 121),10	617,(9, 61),60	677,(115, 121),10	687,(113, 121),10	697,(12, 101),18	715,(67, 121),10	725,(107, 121),10	735,(44, 121),10	745,(37, 121),10	755,(57, 121),10	765,(39, 121),10	775,(19, 121),10	785,(104, 121),10	795,(85, 121),10	805,(90, 121),10	815,(100, 121),10	825,(52, 121),10	835,(55, 121),10	845,(25, 121),10	855,(75, 121),10	865,(62, 121),10	875,(112, 121),10	885,(80, 121),10	895,(40, 121),10	905,(22, 121),10	915,(95, 121),10	925,(35, 121),10	935,(97, 121),10	945,(72, 121),10	955,(105, 121),10	965,(15, 121),10	975,(27, 121),10	985,(30, 121),10	995,(70, 121),10	1005,(77, 121),10	1017,(59, 121),10	1027,(79, 121),10	1037,(64, 121),10	1047,(99, 121),10	1057,(119, 121),10	1067,(16, 121),10	1077,(84, 121),10	1087,(24, 121),10	1097,(54, 121),10	1107,(114, 121),10	1117,(117, 121),10	1157,(120, 121),10	3581,(13, 121),10	3591,(103, 121),10	3601,(38, 121),10	3611,(98, 121),10	3621,(53, 121),10	3631,(73, 121),10	3641,(17, 121),10	3651,(78, 121),10	3661,(93, 121),10	3671,(58, 121),10	3681,(83, 121),10	3691,(23, 121),10	3701,(33, 121),10	3711,(88, 121),10	3721,(108, 121),10	3731,(63, 121),10	3741,(69, 121),10	
# Outgoing
297,(5, 19),54	351,(5, 71),12	363,(5, 96),6	369,(5, 104),2	371,(20, 121),10	381,(45, 121),10	391,(60, 121),10	401,(65, 121),10	411,(50, 121),10	421,(110, 121),10	431,(10, 53),2	433,(10, 73),6	445,(5, 62),20	481,(10, 81),2	503,(18, 121),10	513,(10, 106),2	517,(10, 58),62	579,(10, 97),50	677,(115, 121),10	795,(85, 121),10	805,(90, 121),10	815,(100, 121),10	835,(55, 121),10	845,(25, 121),10	855,(75, 121),10	885,(80, 121),10	895,(40, 121),10	915,(95, 121),10	925,(35, 121),10	955,(105, 121),10	985,(30, 121),10	995,(70, 121),10	1017,(10, 63),140	1157,(120, 121),10	
157,(4, 26),2	159,(4, 56),2	161,(4, 68),2	163,(4, 92),6	187,(4, 91),40	227,(4, 116),4	231,(9, 113),2	235,(9, 42),2	237,(4, 103),26	263,(34, 121),10	277,(9, 57),6	285,(94, 121),10	295,(49, 121),10	305,(74, 121),10	315,(89, 121),10	325,(109, 121),10	335,(29, 121),10	433,(9, 90),4	447,(9, 25),10	465,(9, 112),12	617,(9, 61),60	735,(44, 121),10	765,(39, 121),10	775,(19, 121),10	785,(104, 121),10	807,(9, 108),210	1017,(59, 121),10	1027,(79, 121),10	1037,(64, 121),10	1047,(99, 121),10	1057,(119, 121),10	1067,(16, 121),10	1077,(84, 121),10	1087,(24, 121),10	1097,(54, 121),10	1107,(114, 121),10	3741,(69, 121),10	
79,(3, 34),2	81,(3, 47),8	89,(3, 49),2	91,(3, 74),12	103,(3, 89),2	123,(3, 50),10	133,(3, 109),22	155,(3, 110),12	167,(28, 121),10	177,(43, 121),10	209,(3, 85),224	433,(8, 51),2	435,(8, 79),2	437,(8, 100),2	455,(8, 31),26	481,(8, 40),34	521,(8, 84),18	539,(8, 95),30	569,(8, 111),18	587,(48, 121),10	597,(118, 121),10	607,(68, 121),10	687,(113, 121),10	705,(8, 69),2876	3581,(13, 121),10	3591,(103, 121),10	3601,(38, 121),10	3611,(98, 121),10	3621,(53, 121),10	3631,(73, 121),10	3641,(17, 121),10	3651,(78, 121),10	3661,(93, 121),10	3671,(58, 121),10	3681,(83, 121),10	3691,(23, 121),10	3701,(33, 121),10	3711,(88, 121),10	3721,(108, 121),10	3731,(63, 121),10	
105,(2, 20),2	107,(2, 60),4	111,(2, 65),12	123,(2, 86),4	127,(32, 121),10	137,(82, 121),10	147,(102, 121),10	167,(7, 18),2	183,(2, 44),92	275,(47, 121),10	285,(2, 98),144	429,(7, 59),6	435,(7, 76),20	455,(12, 17),2	457,(12, 75),2	459,(12, 78),2	461,(7, 99),16	477,(7, 119),6	483,(87, 121),10	493,(92, 121),10	515,(12, 21),6	521,(12, 41),36	557,(12, 66),2	559,(42, 121),10	579,(12, 83),74	697,(12, 101),18	715,(67, 121),10	725,(107, 121),10	745,(37, 121),10	755,(57, 121),10	825,(52, 121),10	865,(62, 121),10	875,(112, 121),10	905,(22, 121),10	935,(97, 121),10	945,(72, 121),10	965,(15, 121),10	975,(27, 121),10	1005,(77, 121),10	1117,(117, 121),10	
1,(0, 2),26	27,(0, 3),26	53,(0, 4),26	79,(0, 5),26	105,(0, 7),26	131,(0, 8),26	157,(0, 9),26	183,(0, 10),26	209,(0, 12),26	235,(6, 13),2	237,(6, 37),40	277,(6, 38),8	285,(6, 39),12	297,(6, 52),148	445,(6, 55),2	447,(6, 64),14	461,(6, 80),18	479,(6, 93),38	517,(1, 16),4	521,(1, 22),38	559,(1, 24),32	591,(1, 35),18	609,(1, 54),74	683,(1, 72),2	685,(1, 105),2	687,(1, 114),18	705,(11, 15),2	707,(11, 23),4	711,(11, 27),22	733,(11, 30),6	739,(11, 33),8	747,(11, 70),2	749,(11, 77),48	797,(11, 88),10	807,(11, 117),30	837,(11, 120),38	
