3739
# CPU
0,0,1	1,3,25	26,6,25	51,1,25	76,61,25	101,17,25	126,31,25	151,65,25	176,39,25	201,54,25	226,72,25	251,47,25	276,49,25	306,59,25	342,74,25	378,15,25	432,41,25	486,23,25	537,60,25	603,46,25	675,20,25	786,29,25	867,67,25	975,26,25	1179,73,25	1311,66,25	
4,2,25	29,8,25	54,25,25	79,35,25	104,62,25	129,37,25	154,75,25	180,77,25	234,43,25	300,40,25	420,34,25	447,19,25	510,45,25	627,44,25	720,21,25	852,78,25	1404,53,25	
7,7,25	32,5,25	57,58,25	82,36,25	107,27,25	132,55,25	157,48,25	182,56,25	210,16,25	237,14,25	264,69,25	291,33,25	321,9,25	351,11,25	408,64,25	462,38,25	549,70,25	687,52,25	768,30,25	867,51,25	981,22,25	3738,81,1	
10,4,25	35,42,25	60,18,25	85,10,25	114,28,25	165,24,25	201,32,25	246,63,25	315,12,25	399,13,25	489,80,25	600,79,25	744,71,25	786,68,25	894,50,25	1089,76,25	1647,57,25	
# Incoming
57,(5, 61),3	63,(5, 39),3	66,(2, 17),9	75,(8, 31),3	78,(4, 72),3	90,(4, 15),3	93,(7, 31),12	105,(7, 65),9	117,(2, 65),6	123,(4, 39),15	141,(8, 54),3	147,(2, 72),3	150,(8, 72),3	153,(4, 47),9	162,(4, 66),6	168,(5, 54),18	186,(7, 72),3	189,(5, 72),15	204,(4, 49),21	225,(5, 47),18	243,(7, 49),9	252,(2, 59),3	255,(4, 59),42	300,(5, 59),6	306,(8, 74),6	312,(2, 15),3	315,(5, 74),27	342,(7, 15),33	375,(8, 15),3	378,(4, 41),45	423,(8, 41),6	429,(5, 41),3	432,(4, 23),45	477,(8, 23),9	486,(7, 60),6	492,(8, 60),45	537,(2, 46),12	549,(7, 46),3	552,(4, 46),48	600,(8, 46),3	603,(7, 20),33	636,(4, 20),36	672,(5, 20),3	675,(4, 67),9	684,(2, 29),81	765,(7, 29),21	786,(8, 67),15	801,(5, 67),66	867,(2, 26),69	936,(7, 26),12	948,(8, 26),27	1062,(2, 73),63	1125,(8, 73),54	1179,(2, 66),3	1182,(7, 66),129	
1,(0, 2),3	10,(0, 8),3	38,(3, 44),3	44,(4, 37),6	51,(6, 25),3	54,(4, 75),6	60,(5, 35),3	63,(6, 40),3	66,(3, 34),9	75,(4, 77),3	78,(7, 62),6	84,(5, 62),9	93,(1, 62),3	96,(6, 37),15	114,(1, 43),3	117,(4, 19),6	123,(5, 43),3	132,(1, 75),18	150,(5, 77),18	168,(1, 77),12	180,(4, 21),12	210,(6, 43),24	252,(7, 40),3	255,(5, 40),45	300,(4, 34),72	375,(6, 45),3	378,(5, 34),3	381,(7, 19),18	399,(1, 34),21	420,(1, 19),27	447,(7, 45),36	483,(5, 45),3	489,(3, 45),18	507,(1, 45),3	510,(7, 44),21	531,(7, 21),9	540,(5, 53),3	552,(5, 44),33	600,(6, 44),27	630,(3, 21),42	687,(1, 21),33	735,(5, 78),24	786,(6, 78),66	867,(4, 53),57	1089,(1, 53),315	
4,(0, 7),3	13,(0, 5),3	29,(3, 58),3	32,(2, 36),3	35,(3, 36),3	38,(4, 36),6	44,(3, 55),3	47,(3, 48),3	50,(2, 48),3	54,(6, 58),3	57,(8, 36),3	60,(4, 27),15	75,(6, 27),3	78,(1, 27),3	81,(4, 48),9	90,(6, 56),3	93,(4, 16),3	96,(4, 69),15	111,(3, 16),3	114,(8, 55),3	117,(1, 55),15	132,(2, 56),9	144,(2, 16),3	150,(6, 48),6	156,(8, 56),12	168,(4, 11),12	180,(8, 16),6	186,(8, 14),12	198,(8, 69),3	201,(6, 16),3	204,(1, 16),6	210,(2, 14),21	231,(2, 11),3	234,(6, 14),3	237,(8, 22),3	246,(3, 69),18	264,(6, 33),27	291,(6, 9),3	294,(1, 9),27	321,(3, 11),24	345,(6, 11),3	348,(1, 11),3	351,(2, 64),18	369,(1, 64),3	372,(1, 38),3	378,(8, 64),30	408,(2, 70),15	429,(2, 38),33	510,(3, 70),33	543,(6, 70),6	549,(8, 30),24	627,(3, 52),3	630,(8, 52),54	684,(1, 52),3	687,(4, 30),81	768,(4, 51),99	894,(3, 22),21	915,(1, 22),66	981,(42, 81),51	1032,(18, 81),51	1083,(10, 81),51	1134,(28, 81),51	1221,(25, 81),51	1272,(35, 81),51	1323,(62, 81),51	1374,(37, 81),51	1425,(75, 81),51	1476,(24, 81),51	1527,(77, 81),51	1578,(32, 81),51	1647,(61, 81),51	1698,(17, 81),51	1749,(31, 81),51	1800,(65, 81),51	1851,(39, 81),51	1902,(54, 81),51	1953,(72, 81),51	2004,(43, 81),51	2055,(63, 81),51	2106,(47, 81),51	2157,(49, 81),51	2208,(40, 81),51	2259,(59, 81),51	2310,(12, 81),51	2361,(74, 81),51	2412,(15, 81),51	2463,(13, 81),51	2514,(34, 81),51	2565,(41, 81),51	2616,(19, 81),51	2667,(23, 81),51	2718,(80, 81),51	2769,(45, 81),51	2820,(60, 81),51	2871,(79, 81),51	2922,(46, 81),51	2973,(44, 81),51	3024,(20, 81),51	3075,(21, 81),51	3126,(71, 81),51	3177,(29, 81),51	3228,(68, 81),51	3279,(78, 81),51	3330,(67, 81),51	3381,(50, 81),51	3432,(26, 81),51	3483,(76, 81),51	3534,(73, 81),51	3585,(66, 81),51	3636,(53, 81),51	3687,(57, 81),51	
7,(0, 4),3	26,(3, 42),3	32,(3, 18),3	35,(7, 18),18	54,(8, 10),3	57,(3, 80),3	60,(2, 10),6	66,(7, 10),12	78,(2, 28),36	114,(5, 24),6	120,(7, 32),3	123,(2, 24),3	126,(7, 24),21	147,(7, 63),3	153,(2, 63),3	156,(3, 24),9	165,(1, 63),3	168,(2, 32),12	180,(1, 32),21	201,(2, 80),3	204,(5, 63),21	234,(2, 79),3	237,(6, 63),9	246,(8, 79),6	255,(8, 12),51	306,(7, 12),9	315,(8, 13),18	333,(2, 68),6	339,(8, 76),12	351,(3, 13),18	375,(7, 13),3	378,(1, 13),21	399,(7, 80),18	417,(7, 71),3	420,(7, 76),6	447,(1, 80),42	492,(7, 68),18	549,(6, 79),33	582,(1, 79),18	603,(8, 68),21	636,(5, 68),24	672,(6, 71),3	675,(5, 71),60	735,(1, 71),9	744,(6, 68),3	747,(1, 68),39	801,(2, 50),51	852,(3, 50),27	879,(1, 50),15	894,(7, 57),36	975,(2, 76),87	1062,(6, 76),6	1068,(1, 76),21	1182,(2, 57),39	1404,(3, 57),15	1419,(1, 57),228	
# Outgoing
1,(0, 2),3	4,(0, 7),3	7,(0, 4),3	10,(0, 8),3	13,(0, 5),3	26,(3, 42),3	29,(3, 58),3	32,(3, 18),3	35,(3, 36),3	38,(3, 44),3	44,(3, 55),3	47,(3, 48),3	51,(6, 25),3	54,(6, 58),3	57,(3, 80),3	63,(6, 40),3	66,(3, 34),9	75,(6, 27),3	78,(1, 27),3	90,(6, 56),3	93,(1, 62),3	96,(6, 37),15	111,(3, 16),3	114,(1, 43),3	117,(1, 55),15	132,(1, 75),18	150,(6, 48),6	156,(3, 24),9	165,(1, 63),3	168,(1, 77),12	180,(1, 32),21	201,(6, 16),3	204,(1, 16),6	210,(6, 43),24	234,(6, 14),3	237,(6, 63),9	246,(3, 69),18	264,(6, 33),27	291,(6, 9),3	294,(1, 9),27	321,(3, 11),24	345,(6, 11),3	348,(1, 11),3	351,(3, 13),18	369,(1, 64),3	372,(1, 38),3	375,(6, 45),3	378,(1, 13),21	399,(1, 34),21	420,(1, 19),27	447,(1, 80),42	489,(3, 45),18	507,(1, 45),3	510,(3, 70),33	543,(6, 70),6	549,(6, 79),33	582,(1, 79),18	600,(6, 44),27	627,(3, 52),3	630,(3, 21),42	672,(6, 71),3	684,(1, 52),3	687,(1, 21),33	735,(1, 71),9	744,(6, 68),3	747,(1, 68),39	786,(6, 78),66	852,(3, 50),27	879,(1, 50),15	894,(3, 22),21	915,(1, 22),66	1062,(6, 76),6	1068,(1, 76),21	1089,(1, 53),315	1404,(3, 57),15	1419,(1, 57),228	1647,(61, 81),51	1698,(17, 81),51	1749,(31, 81),51	1800,(65, 81),51	1851,(39, 81),51	1902,(54, 81),51	1953,(72, 81),51	2106,(47, 81),51	2157,(49, 81),51	2259,(59, 81),51	2361,(74, 81),51	2412,(15, 81),51	2565,(41, 81),51	2667,(23, 81),51	2820,(60, 81),51	2922,(46, 81),51	3024,(20, 81),51	3177,(29, 81),51	3330,(67, 81),51	3432,(26, 81),51	3534,(73, 81),51	3585,(66, 81),51	
32,(2, 36),3	50,(2, 48),3	54,(8, 10),3	57,(8, 36),3	60,(2, 10),6	66,(2, 17),9	75,(8, 31),3	78,(2, 28),36	114,(8, 55),3	117,(2, 65),6	123,(2, 24),3	132,(2, 56),9	141,(8, 54),3	144,(2, 16),3	147,(2, 72),3	150,(8, 72),3	153,(2, 63),3	156,(8, 56),12	168,(2, 32),12	180,(8, 16),6	186,(8, 14),12	198,(8, 69),3	201,(2, 80),3	210,(2, 14),21	231,(2, 11),3	234,(2, 79),3	237,(8, 22),3	246,(8, 79),6	252,(2, 59),3	255,(8, 12),51	306,(8, 74),6	312,(2, 15),3	315,(8, 13),18	333,(2, 68),6	339,(8, 76),12	351,(2, 64),18	375,(8, 15),3	378,(8, 64),30	408,(2, 70),15	423,(8, 41),6	429,(2, 38),33	477,(8, 23),9	492,(8, 60),45	537,(2, 46),12	549,(8, 30),24	600,(8, 46),3	603,(8, 68),21	630,(8, 52),54	684,(2, 29),81	786,(8, 67),15	801,(2, 50),51	867,(2, 26),69	948,(8, 26),27	975,(2, 76),87	1062,(2, 73),63	1125,(8, 73),54	1179,(2, 66),3	1182,(2, 57),39	1221,(25, 81),51	1272,(35, 81),51	1323,(62, 81),51	1374,(37, 81),51	1425,(75, 81),51	1527,(77, 81),51	2004,(43, 81),51	2208,(40, 81),51	2514,(34, 81),51	2616,(19, 81),51	2769,(45, 81),51	2973,(44, 81),51	3075,(21, 81),51	3279,(78, 81),51	3636,(53, 81),51	
35,(7, 18),18	57,(5, 61),3	60,(5, 35),3	63,(5, 39),3	66,(7, 10),12	78,(7, 62),6	84,(5, 62),9	93,(7, 31),12	105,(7, 65),9	114,(5, 24),6	120,(7, 32),3	123,(5, 43),3	126,(7, 24),21	147,(7, 63),3	150,(5, 77),18	168,(5, 54),18	186,(7, 72),3	189,(5, 72),15	204,(5, 63),21	225,(5, 47),18	243,(7, 49),9	252,(7, 40),3	255,(5, 40),45	300,(5, 59),6	306,(7, 12),9	315,(5, 74),27	342,(7, 15),33	375,(7, 13),3	378,(5, 34),3	381,(7, 19),18	399,(7, 80),18	417,(7, 71),3	420,(7, 76),6	429,(5, 41),3	447,(7, 45),36	483,(5, 45),3	486,(7, 60),6	492,(7, 68),18	510,(7, 44),21	531,(7, 21),9	540,(5, 53),3	549,(7, 46),3	552,(5, 44),33	603,(7, 20),33	636,(5, 68),24	672,(5, 20),3	675,(5, 71),60	735,(5, 78),24	765,(7, 29),21	801,(5, 67),66	894,(7, 57),36	936,(7, 26),12	1182,(7, 66),129	
38,(4, 36),6	44,(4, 37),6	54,(4, 75),6	60,(4, 27),15	75,(4, 77),3	78,(4, 72),3	81,(4, 48),9	90,(4, 15),3	93,(4, 16),3	96,(4, 69),15	117,(4, 19),6	123,(4, 39),15	153,(4, 47),9	162,(4, 66),6	168,(4, 11),12	180,(4, 21),12	204,(4, 49),21	255,(4, 59),42	300,(4, 34),72	378,(4, 41),45	432,(4, 23),45	552,(4, 46),48	636,(4, 20),36	675,(4, 67),9	687,(4, 30),81	768,(4, 51),99	867,(4, 53),57	981,(42, 81),51	1032,(18, 81),51	1083,(10, 81),51	1134,(28, 81),51	1476,(24, 81),51	1578,(32, 81),51	2055,(63, 81),51	2310,(12, 81),51	2463,(13, 81),51	2718,(80, 81),51	2871,(79, 81),51	3126,(71, 81),51	3228,(68, 81),51	3381,(50, 81),51	3483,(76, 81),51	3687,(57, 81),51	
