840
# CPU
77,2,76	153,10,76	229,18,76	305,4,76	381,14,76	457,12,76	533,16,76	609,20,76	685,8,76	761,6,76	
0,0,1	1,1,76	77,3,76	153,7,76	229,5,76	305,13,76	381,9,76	457,11,76	533,15,76	609,17,76	685,19,76	839,21,1	
# Incoming
1,(0, 2),76	77,(1, 10),2	79,(1, 18),2	
153,(2, 11),6	159,(2, 15),4	163,(2, 17),18	181,(2, 19),34	229,(10, 21),2	305,(18, 21),2	381,(4, 21),2	457,(14, 21),2	533,(12, 21),2	609,(16, 21),2	685,(20, 21),2	761,(8, 21),2	837,(6, 21),2	
# Outgoing
153,(2, 11),6	159,(2, 15),4	163,(2, 17),18	181,(2, 19),34	229,(10, 21),2	305,(18, 21),2	381,(4, 21),2	457,(14, 21),2	533,(12, 21),2	609,(16, 21),2	685,(20, 21),2	761,(8, 21),2	837,(6, 21),2	
1,(0, 2),76	77,(1, 10),2	79,(1, 18),2	
