13135
# CPU
133,4,5	265,8,5	277,31,5	397,12,5	402,83,5	407,57,5	529,16,5	541,95,5	661,20,5	666,73,5	671,178,5	709,55,5	745,145,5	753,54,5	1025,56,5	1317,44,5	2169,61,5	2225,157,5	2289,175,5	2361,38,5	2393,99,5	2425,163,5	2893,25,5	2937,42,5	2981,33,5	3109,79,5	3341,151,5	3653,169,5	3853,184,5	3909,190,5	3917,181,5	3953,58,5	4173,36,5	4377,67,5	4525,51,5	4577,119,5	4597,77,5	5065,139,5	5077,35,5	5105,154,5	5265,131,5	5277,81,5	5337,166,5	5549,46,5	5554,48,5	5581,53,5	5769,69,5	5805,88,5	5881,148,5	5917,142,5	5961,111,5	5966,123,5	6177,136,5	6225,71,5	6269,75,5	6293,115,5	6353,172,5	6469,63,5	6597,187,5	6681,160,5	6741,34,5	6829,40,5	6889,52,5	6917,103,5	6965,127,5	7041,193,5	7185,196,5	7233,199,5	9081,59,5	9749,85,5	10689,91,5	11033,65,5	12917,50,5	13109,107,5	
89,3,5	221,7,5	226,143,5	353,11,5	485,15,5	490,80,5	553,179,5	617,19,5	733,70,5	1177,124,5	1221,47,5	1226,72,5	1231,96,5	1241,39,5	1689,108,5	1709,132,5	2017,137,5	2185,161,5	2889,200,5	3101,60,5	3361,104,5	3393,176,5	3513,152,5	3569,26,5	3593,185,5	3921,194,5	3929,24,5	3953,197,5	3993,120,5	4105,41,5	4169,62,5	4325,158,5	4357,140,5	4377,43,5	4453,66,5	4489,182,5	4589,76,5	4601,78,5	4606,89,5	4685,100,5	4701,112,5	4949,128,5	5013,64,5	5261,86,5	5337,167,5	5377,170,5	5509,49,5	5533,191,5	5761,68,5	5789,84,5	5841,92,5	6201,155,5	6373,173,5	6689,188,5	6721,30,5	6833,45,5	6897,74,5	6905,82,5	6925,116,5	7001,146,5	7006,149,5	7029,164,5	
45,2,5	177,6,5	233,122,5	309,10,5	441,14,5	446,130,5	529,186,5	573,18,5	605,192,5	610,171,5	1037,23,5	1042,110,5	1173,90,5	1353,87,5	1433,118,5	1693,150,5	1701,98,5	2009,135,5	2121,144,5	2193,147,5	2353,156,5	2417,153,5	2821,29,5	3209,126,5	3361,162,5	3789,37,5	3821,189,5	3853,198,5	4609,94,5	4697,102,5	5281,165,5	5917,106,5	6193,141,5	6337,168,5	6513,183,5	6701,195,5	6737,32,5	6921,114,5	6969,138,5	7025,159,5	7033,177,5	8245,174,5	12353,180,5	13134,201,1	
0,0,1	1,9,5	6,1,5	11,13,5	16,17,5	21,5,5	106,21,5	533,97,5	585,109,5	705,125,5	801,22,5	881,93,5	1541,28,5	1677,27,5	2185,117,5	2265,129,5	2313,101,5	2393,133,5	2921,134,5	3033,113,5	3285,121,5	3477,105,5	
# Incoming
89,(0, 4),44	133,(2, 31),28	161,(2, 40),16	177,(2, 53),28	205,(2, 55),4	209,(2, 75),4	213,(2, 77),8	221,(0, 8),44	265,(3, 31),12	281,(2, 63),44	325,(2, 83),20	345,(2, 99),8	353,(0, 12),44	397,(2, 48),88	485,(0, 16),44	529,(2, 95),12	541,(2, 145),4	545,(2, 160),12	557,(2, 181),36	593,(3, 51),16	609,(6, 63),4	613,(6, 67),4	617,(0, 20),44	661,(7, 77),4	665,(9, 36),28	693,(3, 55),16	709,(9, 38),32	741,(7, 145),4	745,(7, 184),4	749,(9, 54),4	753,(9, 58),52	805,(3, 58),48	853,(3, 172),28	881,(3, 196),40	921,(6, 25),56	977,(6, 56),48	1025,(6, 107),28	1053,(9, 77),20	1073,(9, 88),4	1077,(6, 65),68	1145,(6, 69),52	1201,(9, 99),20	1221,(6, 163),40	1261,(7, 25),20	1281,(7, 33),16	1297,(7, 44),20	1317,(11, 25),4	1321,(9, 115),260	1581,(9, 123),4	1585,(10, 91),4	1589,(10, 127),4	1593,(9, 131),96	1689,(6, 75),140	1829,(6, 193),260	2089,(7, 35),52	2141,(7, 61),28	2169,(7, 111),12	2181,(7, 151),20	2201,(7, 157),24	2225,(7, 160),52	2277,(7, 175),12	2289,(7, 181),16	2305,(10, 38),56	2361,(10, 40),12	2373,(10, 99),20	2393,(11, 40),8	2401,(11, 63),4	2405,(11, 119),4	2409,(11, 148),8	2417,(9, 160),4	2421,(9, 163),4	2425,(9, 169),16	2441,(11, 131),16	2457,(11, 196),4	2461,(19, 53),4	2465,(19, 65),4	2469,(19, 88),4	2473,(9, 190),8	2485,(9, 199),396	2881,(19, 142),8	2889,(1, 25),4	2893,(15, 34),20	2921,(10, 169),4	2925,(10, 187),4	2929,(14, 34),4	2933,(1, 42),4	2937,(10, 151),28	2965,(14, 33),16	2981,(1, 50),44	3025,(1, 51),4	3029,(1, 52),4	3033,(10, 77),56	3089,(14, 65),12	3101,(1, 79),8	3109,(10, 172),24	3133,(1, 107),12	3145,(1, 115),4	3149,(1, 148),8	3157,(1, 151),184	3341,(1, 160),8	3349,(7, 169),304	3653,(10, 199),32	3685,(11, 77),104	3789,(11, 184),64	3853,(11, 190),56	3909,(14, 154),4	3913,(14, 181),4	3917,(18, 69),4	3921,(1, 196),4	3925,(14, 58),28	3957,(13, 35),172	4129,(13, 36),44	4173,(13, 40),184	4357,(15, 67),20	4377,(18, 119),4	4381,(13, 50),20	4401,(13, 51),124	4525,(13, 53),4	4529,(14, 119),48	4577,(18, 166),4	4581,(13, 75),4	4589,(13, 77),8	4597,(15, 59),84	4681,(15, 85),20	4701,(13, 115),112	4813,(15, 69),100	4913,(15, 123),32	4949,(13, 139),116	5065,(18, 35),12	5081,(13, 154),24	5105,(13, 160),120	5225,(15, 131),40	5265,(18, 81),12	5281,(13, 166),56	5337,(18, 59),20	5357,(18, 115),8	5377,(13, 172),148	5545,(17, 46),4	5549,(17, 48),4	5553,(17, 53),28	5581,(17, 65),176	5761,(17, 69),8	5769,(17, 75),8	5789,(17, 88),16	5805,(15, 148),76	5881,(18, 142),36	5917,(17, 111),44	5961,(17, 123),4	5965,(17, 127),116	6081,(17, 136),96	6177,(18, 71),48	6225,(18, 75),44	6269,(19, 115),24	6337,(17, 172),16	6353,(19, 63),116	6513,(17, 187),84	6597,(19, 160),84	6737,(5, 34),4	6741,(5, 40),88	6833,(5, 52),56	6889,(5, 65),4	6905,(5, 85),4	6909,(5, 103),8	6925,(5, 127),40	7033,(5, 193),8	7041,(5, 196),144	7185,(5, 199),48	7233,(2, 59),1848	9081,(7, 85),668	9749,(7, 91),940	10689,(11, 65),344	12353,(15, 50),564	12917,(19, 107),192	
45,(0, 3),44	89,(2, 70),24	113,(2, 78),16	129,(2, 132),4	142,(4, 26),16	177,(0, 7),44	221,(2, 47),60	281,(4, 43),20	301,(4, 49),4	305,(4, 82),4	309,(0, 11),44	353,(2, 137),28	381,(2, 164),8	389,(2, 194),4	393,(4, 76),44	437,(4, 86),4	441,(0, 15),44	485,(4, 104),8	493,(4, 116),28	521,(4, 173),12	533,(4, 179),20	553,(8, 26),12	565,(8, 76),8	573,(0, 19),44	617,(4, 185),24	641,(6, 26),16	657,(6, 149),4	661,(9, 26),4	665,(6, 30),28	693,(6, 41),28	721,(6, 70),12	733,(6, 173),4	737,(10, 64),4	741,(9, 43),8	749,(6, 89),12	761,(6, 128),20	781,(6, 158),20	801,(10, 89),4	805,(9, 60),52	857,(9, 66),8	865,(9, 76),188	1053,(8, 64),16	1069,(8, 78),4	1073,(8, 116),4	1077,(9, 89),8	1085,(8, 92),8	1093,(8, 100),56	1149,(8, 108),8	1157,(8, 120),4	1161,(8, 124),16	1177,(8, 146),4	1181,(8, 149),4	1185,(8, 170),12	1197,(10, 78),12	1209,(10, 137),4	1213,(12, 39),4	1217,(12, 47),4	1221,(12, 72),4	1225,(12, 96),4	1229,(12, 137),8	1237,(16, 39),4	1261,(6, 170),60	1321,(10, 24),72	1393,(10, 41),44	1437,(10, 152),52	1489,(10, 158),16	1505,(12, 24),44	1549,(12, 100),36	1585,(9, 128),8	1593,(12, 78),40	1633,(12, 92),48	1681,(14, 49),4	1685,(14, 108),4	1689,(9, 132),20	1709,(12, 26),188	1897,(12, 86),64	1997,(16, 30),8	2005,(16, 49),4	2009,(9, 137),8	2017,(12, 116),120	2137,(14, 30),20	2157,(14, 100),8	2165,(14, 155),12	2177,(14, 161),8	2185,(14, 194),4	2193,(9, 152),212	2405,(12, 120),24	2429,(16, 60),4	2433,(16, 66),4	2437,(20, 100),4	2441,(9, 176),32	2473,(8, 74),344	2817,(12, 146),40	2857,(12, 194),16	2873,(20, 104),4	2881,(9, 200),8	2889,(12, 173),28	2917,(16, 89),12	2937,(1, 43),44	2981,(12, 197),32	3013,(16, 100),12	3033,(1, 60),68	3109,(1, 84),24	3133,(10, 116),212	3345,(16, 104),16	3361,(1, 170),4	3369,(1, 176),24	3393,(12, 152),120	3513,(14, 41),40	3553,(18, 26),16	3569,(18, 86),20	3589,(1, 185),4	3593,(1, 191),4	3597,(1, 194),324	3925,(13, 24),4	3929,(20, 197),24	3953,(14, 120),40	3993,(14, 191),64	4057,(16, 41),48	4105,(16, 62),64	4169,(16, 84),48	4217,(16, 92),52	4269,(16, 158),56	4325,(18, 140),32	4357,(13, 43),20	4377,(13, 45),4	4381,(18, 66),72	4453,(18, 182),36	4489,(20, 30),40	4529,(13, 74),52	4585,(13, 76),4	4597,(13, 78),4	4601,(13, 89),4	4605,(18, 100),80	4697,(13, 112),4	4701,(18, 167),108	4813,(13, 128),136	4949,(20, 64),64	5013,(20, 191),28	5065,(13, 149),16	5081,(16, 86),180	5261,(20, 167),76	5337,(13, 170),40	5377,(20, 49),132	5529,(13, 191),4	5533,(17, 30),12	5757,(17, 68),4	5777,(17, 82),4	5781,(17, 84),8	5805,(17, 92),36	6193,(17, 149),4	6197,(17, 155),4	6353,(17, 173),20	6597,(17, 188),92	6701,(5, 30),20	6829,(5, 45),4	6893,(5, 74),4	6897,(5, 82),8	6921,(5, 116),4	6969,(5, 146),32	7001,(5, 149),4	7025,(5, 164),4	
1,(0, 2),44	133,(0, 6),44	177,(3, 114),28	205,(3, 141),4	209,(3, 174),20	229,(4, 122),4	233,(7, 87),16	249,(4, 141),4	253,(4, 150),4	257,(4, 162),4	265,(0, 10),44	309,(4, 138),24	333,(7, 90),20	353,(7, 135),24	377,(7, 165),8	385,(8, 87),4	389,(11, 29),4	393,(11, 102),4	397,(0, 14),44	441,(7, 177),76	517,(11, 138),8	525,(11, 186),4	529,(0, 18),44	573,(143, 201),20	593,(8, 192),12	605,(12, 171),4	609,(7, 189),24	633,(15, 102),8	641,(8, 159),44	685,(12, 110),8	693,(9, 37),16	709,(4, 156),144	853,(8, 150),96	949,(8, 162),44	993,(31, 201),20	1013,(12, 23),24	1037,(16, 110),4	1041,(20, 94),4	1045,(20, 135),4	1085,(9, 90),88	1173,(9, 98),28	1221,(9, 102),68	1289,(9, 106),32	1321,(12, 87),32	1353,(12, 174),20	1373,(83, 201),20	1393,(57, 201),20	1413,(16, 118),20	1433,(16, 189),40	1473,(95, 201),20	1541,(11, 94),20	1561,(11, 126),76	1637,(11, 147),36	1673,(15, 32),16	1689,(15, 150),4	1693,(15, 162),4	1697,(19, 98),4	1701,(19, 180),4	1709,(9, 135),300	2017,(9, 138),8	2025,(9, 141),76	2101,(9, 144),20	2121,(9, 147),72	2305,(11, 156),48	2353,(80, 201),20	2373,(179, 201),20	2405,(9, 153),12	2417,(70, 201),20	2441,(20, 177),24	2481,(9, 198),4	2485,(15, 195),284	2769,(19, 29),52	2821,(124, 201),20	2841,(47, 201),20	2861,(72, 201),20	2893,(1, 37),40	2933,(20, 106),36	2969,(96, 201),20	2989,(39, 201),20	3025,(16, 126),184	3209,(19, 32),112	3321,(73, 201),20	3349,(1, 162),12	3365,(1, 174),4	3369,(178, 201),20	3393,(1, 177),196	3589,(20, 37),200	3789,(20, 189),32	3821,(20, 198),32	3853,(55, 201),20	3873,(145, 201),20	3893,(54, 201),20	3929,(13, 32),28	3957,(56, 201),20	3977,(44, 201),20	3997,(108, 201),20	4017,(132, 201),20	4037,(137, 201),20	4057,(161, 201),20	4077,(200, 201),20	4097,(60, 201),20	4117,(104, 201),20	4137,(176, 201),20	4157,(152, 201),20	4177,(26, 201),20	4197,(185, 201),20	4217,(194, 201),20	4237,(24, 201),20	4257,(197, 201),20	4277,(120, 201),20	4297,(41, 201),20	4325,(61, 201),20	4345,(157, 201),20	4365,(175, 201),20	4385,(38, 201),20	4405,(99, 201),20	4425,(163, 201),20	4445,(25, 201),20	4465,(42, 201),20	4485,(62, 201),20	4505,(158, 201),20	4529,(33, 201),20	4549,(79, 201),20	4569,(151, 201),20	4605,(13, 94),4	4609,(13, 102),88	4697,(169, 201),20	4717,(184, 201),20	4737,(190, 201),20	4757,(181, 201),20	4777,(58, 201),20	4797,(36, 201),20	4817,(67, 201),20	4837,(51, 201),20	4857,(119, 201),20	4877,(77, 201),20	4945,(140, 201),20	4965,(43, 201),20	4985,(66, 201),20	5005,(182, 201),20	5025,(76, 201),20	5045,(78, 201),20	5065,(89, 201),20	5085,(100, 201),20	5105,(112, 201),20	5125,(128, 201),20	5145,(64, 201),20	5225,(13, 165),56	5281,(86, 201),20	5337,(139, 201),20	5357,(35, 201),20	5377,(167, 201),20	5397,(170, 201),20	5525,(13, 174),4	5529,(154, 201),20	5549,(131, 201),20	5569,(81, 201),20	5589,(166, 201),20	5609,(49, 201),20	5629,(191, 201),20	5649,(46, 201),20	5669,(48, 201),20	5689,(53, 201),20	5766,(68, 201),20	5786,(69, 201),20	5810,(88, 201),20	5841,(17, 106),76	5917,(84, 201),20	5937,(92, 201),20	5957,(148, 201),20	5977,(142, 201),20	5997,(111, 201),20	6017,(123, 201),20	6177,(17, 141),16	6201,(17, 159),92	6293,(17, 168),44	6337,(136, 201),20	6373,(17, 183),140	6513,(155, 201),20	6533,(71, 201),20	6553,(75, 201),20	6573,(115, 201),20	6593,(172, 201),20	6613,(63, 201),20	6633,(187, 201),20	6689,(17, 195),12	6701,(173, 201),20	6721,(5, 32),16	6737,(160, 201),20	6757,(188, 201),20	6777,(30, 201),20	6797,(34, 201),20	6834,(40, 201),20	6854,(45, 201),20	6894,(52, 201),20	6917,(5, 114),4	6921,(74, 201),20	6941,(82, 201),20	6965,(5, 138),4	6969,(103, 201),20	7005,(5, 159),20	7029,(5, 177),4	7033,(116, 201),20	7053,(127, 201),20	7073,(146, 201),20	7093,(149, 201),20	7113,(164, 201),20	7133,(193, 201),20	7190,(196, 201),20	7233,(21, 201),20	7253,(7, 174),992	8245,(97, 201),20	8265,(109, 201),20	8285,(125, 201),20	8305,(22, 201),20	8325,(93, 201),20	8345,(28, 201),20	8365,(27, 201),20	8385,(117, 201),20	8405,(129, 201),20	8425,(101, 201),20	8445,(133, 201),20	8465,(134, 201),20	8485,(113, 201),20	8505,(121, 201),20	8525,(105, 201),20	8545,(199, 201),20	9086,(59, 201),20	9754,(85, 201),20	10694,(91, 201),20	11033,(11, 180),1320	12353,(65, 201),20	12922,(50, 201),20	13114,(107, 201),20	
50,(2, 22),12	62,(2, 133),12	94,(3, 21),12	106,(3, 22),12	118,(3, 27),16	138,(4, 22),4	158,(4, 27),20	178,(4, 93),28	206,(4, 97),8	214,(4, 113),4	218,(4, 117),4	229,(7, 109),4	233,(4, 129),16	277,(7, 28),32	333,(8, 28),28	361,(8, 97),12	373,(8, 105),8	393,(6, 117),4	397,(11, 113),12	441,(8, 121),20	485,(14, 105),36	521,(14, 113),4	529,(15, 97),4	573,(16, 27),4	577,(16, 109),8	593,(14, 129),16	693,(16, 125),12	705,(20, 105),4	749,(19, 22),52	805,(14, 93),76	921,(7, 134),320	1241,(8, 27),72	1321,(11, 28),220	1593,(18, 27),84	1681,(12, 121),28	1961,(12, 101),36	2137,(12, 117),48	2185,(12, 129),80	2265,(16, 101),48	2313,(16, 133),16	2329,(20, 133),64	2393,(10, 134),528	2981,(18, 113),52	3209,(20, 121),76	3345,(18, 105),132	
# Outgoing
138,(4, 22),4	142,(4, 26),16	158,(4, 27),20	178,(4, 93),28	206,(4, 97),8	214,(4, 113),4	218,(4, 117),4	229,(4, 122),4	233,(4, 129),16	249,(4, 141),4	253,(4, 150),4	257,(4, 162),4	281,(4, 43),20	301,(4, 49),4	305,(4, 82),4	309,(4, 138),24	333,(8, 28),28	361,(8, 97),12	373,(8, 105),8	385,(8, 87),4	393,(4, 76),44	437,(4, 86),4	441,(8, 121),20	485,(4, 104),8	493,(4, 116),28	521,(4, 173),12	533,(4, 179),20	553,(8, 26),12	565,(8, 76),8	573,(16, 27),4	577,(16, 109),8	593,(8, 192),12	605,(12, 171),4	617,(4, 185),24	641,(8, 159),44	685,(12, 110),8	693,(16, 125),12	705,(20, 105),4	709,(4, 156),144	853,(8, 150),96	949,(8, 162),44	993,(31, 201),20	1013,(12, 23),24	1037,(16, 110),4	1041,(20, 94),4	1045,(20, 135),4	1053,(8, 64),16	1069,(8, 78),4	1073,(8, 116),4	1085,(8, 92),8	1093,(8, 100),56	1149,(8, 108),8	1157,(8, 120),4	1161,(8, 124),16	1177,(8, 146),4	1181,(8, 149),4	1185,(8, 170),12	1213,(12, 39),4	1217,(12, 47),4	1221,(12, 72),4	1225,(12, 96),4	1229,(12, 137),8	1237,(16, 39),4	1241,(8, 27),72	1321,(12, 87),32	1353,(12, 174),20	1373,(83, 201),20	1393,(57, 201),20	1413,(16, 118),20	1433,(16, 189),40	1473,(95, 201),20	1505,(12, 24),44	1549,(12, 100),36	1593,(12, 78),40	1633,(12, 92),48	1681,(12, 121),28	1709,(12, 26),188	1897,(12, 86),64	1961,(12, 101),36	1997,(16, 30),8	2005,(16, 49),4	2017,(12, 116),120	2137,(12, 117),48	2185,(12, 129),80	2265,(16, 101),48	2313,(16, 133),16	2329,(20, 133),64	2405,(12, 120),24	2429,(16, 60),4	2433,(16, 66),4	2437,(20, 100),4	2441,(20, 177),24	2473,(8, 74),344	2817,(12, 146),40	2857,(12, 194),16	2873,(20, 104),4	2889,(12, 173),28	2917,(16, 89),12	2933,(20, 106),36	2981,(12, 197),32	3013,(16, 100),12	3025,(16, 126),184	3209,(20, 121),76	3321,(73, 201),20	3345,(16, 104),16	3369,(178, 201),20	3393,(12, 152),120	3589,(20, 37),200	3789,(20, 189),32	3821,(20, 198),32	3853,(55, 201),20	3873,(145, 201),20	3893,(54, 201),20	3929,(20, 197),24	3957,(56, 201),20	3977,(44, 201),20	4057,(16, 41),48	4105,(16, 62),64	4169,(16, 84),48	4217,(16, 92),52	4269,(16, 158),56	4325,(61, 201),20	4345,(157, 201),20	4365,(175, 201),20	4385,(38, 201),20	4405,(99, 201),20	4425,(163, 201),20	4445,(25, 201),20	4465,(42, 201),20	4489,(20, 30),40	4529,(33, 201),20	4549,(79, 201),20	4569,(151, 201),20	4697,(169, 201),20	4717,(184, 201),20	4737,(190, 201),20	4757,(181, 201),20	4777,(58, 201),20	4797,(36, 201),20	4817,(67, 201),20	4837,(51, 201),20	4857,(119, 201),20	4877,(77, 201),20	4949,(20, 64),64	5013,(20, 191),28	5081,(16, 86),180	5261,(20, 167),76	5337,(139, 201),20	5357,(35, 201),20	5377,(20, 49),132	5529,(154, 201),20	5549,(131, 201),20	5569,(81, 201),20	5589,(166, 201),20	5649,(46, 201),20	5669,(48, 201),20	5689,(53, 201),20	5786,(69, 201),20	5810,(88, 201),20	5957,(148, 201),20	5977,(142, 201),20	5997,(111, 201),20	6017,(123, 201),20	6337,(136, 201),20	6533,(71, 201),20	6553,(75, 201),20	6573,(115, 201),20	6593,(172, 201),20	6613,(63, 201),20	6633,(187, 201),20	6737,(160, 201),20	6797,(34, 201),20	6834,(40, 201),20	6894,(52, 201),20	6969,(103, 201),20	7053,(127, 201),20	7133,(193, 201),20	7190,(196, 201),20	8545,(199, 201),20	9086,(59, 201),20	9754,(85, 201),20	10694,(91, 201),20	12353,(65, 201),20	12922,(50, 201),20	13114,(107, 201),20	
94,(3, 21),12	106,(3, 22),12	118,(3, 27),16	177,(3, 114),28	205,(3, 141),4	209,(3, 174),20	229,(7, 109),4	233,(7, 87),16	265,(3, 31),12	277,(7, 28),32	333,(7, 90),20	353,(7, 135),24	377,(7, 165),8	389,(11, 29),4	393,(11, 102),4	397,(11, 113),12	441,(7, 177),76	517,(11, 138),8	525,(11, 186),4	529,(15, 97),4	573,(143, 201),20	593,(3, 51),16	609,(7, 189),24	633,(15, 102),8	661,(7, 77),4	693,(3, 55),16	741,(7, 145),4	745,(7, 184),4	749,(19, 22),52	805,(3, 58),48	853,(3, 172),28	881,(3, 196),40	921,(7, 134),320	1261,(7, 25),20	1281,(7, 33),16	1297,(7, 44),20	1317,(11, 25),4	1321,(11, 28),220	1541,(11, 94),20	1561,(11, 126),76	1637,(11, 147),36	1673,(15, 32),16	1689,(15, 150),4	1693,(15, 162),4	1697,(19, 98),4	1701,(19, 180),4	2089,(7, 35),52	2141,(7, 61),28	2169,(7, 111),12	2181,(7, 151),20	2201,(7, 157),24	2225,(7, 160),52	2277,(7, 175),12	2289,(7, 181),16	2305,(11, 156),48	2353,(80, 201),20	2373,(179, 201),20	2393,(11, 40),8	2401,(11, 63),4	2405,(11, 119),4	2409,(11, 148),8	2417,(70, 201),20	2441,(11, 131),16	2457,(11, 196),4	2461,(19, 53),4	2465,(19, 65),4	2469,(19, 88),4	2485,(15, 195),284	2769,(19, 29),52	2821,(124, 201),20	2841,(47, 201),20	2861,(72, 201),20	2881,(19, 142),8	2893,(15, 34),20	2969,(96, 201),20	2989,(39, 201),20	3209,(19, 32),112	3349,(7, 169),304	3685,(11, 77),104	3789,(11, 184),64	3853,(11, 190),56	3997,(108, 201),20	4017,(132, 201),20	4037,(137, 201),20	4057,(161, 201),20	4077,(200, 201),20	4097,(60, 201),20	4117,(104, 201),20	4137,(176, 201),20	4157,(152, 201),20	4177,(26, 201),20	4197,(185, 201),20	4217,(194, 201),20	4237,(24, 201),20	4257,(197, 201),20	4277,(120, 201),20	4297,(41, 201),20	4357,(15, 67),20	4485,(62, 201),20	4505,(158, 201),20	4597,(15, 59),84	4681,(15, 85),20	4813,(15, 69),100	4913,(15, 123),32	4945,(140, 201),20	4965,(43, 201),20	4985,(66, 201),20	5005,(182, 201),20	5025,(76, 201),20	5045,(78, 201),20	5065,(89, 201),20	5085,(100, 201),20	5105,(112, 201),20	5125,(128, 201),20	5145,(64, 201),20	5225,(15, 131),40	5281,(86, 201),20	5377,(167, 201),20	5397,(170, 201),20	5609,(49, 201),20	5629,(191, 201),20	5766,(68, 201),20	5805,(15, 148),76	5917,(84, 201),20	5937,(92, 201),20	6269,(19, 115),24	6353,(19, 63),116	6513,(155, 201),20	6597,(19, 160),84	6701,(173, 201),20	6757,(188, 201),20	6777,(30, 201),20	6854,(45, 201),20	6921,(74, 201),20	6941,(82, 201),20	7033,(116, 201),20	7073,(146, 201),20	7093,(149, 201),20	7113,(164, 201),20	7253,(7, 174),992	9081,(7, 85),668	9749,(7, 91),940	10689,(11, 65),344	11033,(11, 180),1320	12353,(15, 50),564	12917,(19, 107),192	
50,(2, 22),12	62,(2, 133),12	89,(2, 70),24	113,(2, 78),16	129,(2, 132),4	133,(2, 31),28	161,(2, 40),16	177,(2, 53),28	205,(2, 55),4	209,(2, 75),4	213,(2, 77),8	221,(2, 47),60	281,(2, 63),44	325,(2, 83),20	345,(2, 99),8	353,(2, 137),28	381,(2, 164),8	389,(2, 194),4	393,(6, 117),4	397,(2, 48),88	485,(14, 105),36	521,(14, 113),4	529,(2, 95),12	541,(2, 145),4	545,(2, 160),12	557,(2, 181),36	593,(14, 129),16	609,(6, 63),4	613,(6, 67),4	641,(6, 26),16	657,(6, 149),4	665,(6, 30),28	693,(6, 41),28	721,(6, 70),12	733,(6, 173),4	737,(10, 64),4	749,(6, 89),12	761,(6, 128),20	781,(6, 158),20	801,(10, 89),4	805,(14, 93),76	921,(6, 25),56	977,(6, 56),48	1025,(6, 107),28	1077,(6, 65),68	1145,(6, 69),52	1197,(10, 78),12	1209,(10, 137),4	1221,(6, 163),40	1261,(6, 170),60	1321,(10, 24),72	1393,(10, 41),44	1437,(10, 152),52	1489,(10, 158),16	1585,(10, 91),4	1589,(10, 127),4	1593,(18, 27),84	1681,(14, 49),4	1685,(14, 108),4	1689,(6, 75),140	1829,(6, 193),260	2137,(14, 30),20	2157,(14, 100),8	2165,(14, 155),12	2177,(14, 161),8	2185,(14, 194),4	2305,(10, 38),56	2361,(10, 40),12	2373,(10, 99),20	2393,(10, 134),528	2921,(10, 169),4	2925,(10, 187),4	2929,(14, 34),4	2937,(10, 151),28	2965,(14, 33),16	2981,(18, 113),52	3033,(10, 77),56	3089,(14, 65),12	3109,(10, 172),24	3133,(10, 116),212	3345,(18, 105),132	3513,(14, 41),40	3553,(18, 26),16	3569,(18, 86),20	3653,(10, 199),32	3909,(14, 154),4	3913,(14, 181),4	3917,(18, 69),4	3925,(14, 58),28	3953,(14, 120),40	3993,(14, 191),64	4325,(18, 140),32	4377,(18, 119),4	4381,(18, 66),72	4453,(18, 182),36	4529,(14, 119),48	4577,(18, 166),4	4605,(18, 100),80	4701,(18, 167),108	5065,(18, 35),12	5265,(18, 81),12	5337,(18, 59),20	5357,(18, 115),8	5881,(18, 142),36	6177,(18, 71),48	6225,(18, 75),44	7233,(2, 59),1848	
1,(0, 2),44	45,(0, 3),44	89,(0, 4),44	133,(0, 6),44	177,(0, 7),44	221,(0, 8),44	265,(0, 10),44	309,(0, 11),44	353,(0, 12),44	397,(0, 14),44	441,(0, 15),44	485,(0, 16),44	529,(0, 18),44	573,(0, 19),44	617,(0, 20),44	661,(9, 26),4	665,(9, 36),28	693,(9, 37),16	709,(9, 38),32	741,(9, 43),8	749,(9, 54),4	753,(9, 58),52	805,(9, 60),52	857,(9, 66),8	865,(9, 76),188	1053,(9, 77),20	1073,(9, 88),4	1077,(9, 89),8	1085,(9, 90),88	1173,(9, 98),28	1201,(9, 99),20	1221,(9, 102),68	1289,(9, 106),32	1321,(9, 115),260	1581,(9, 123),4	1585,(9, 128),8	1593,(9, 131),96	1689,(9, 132),20	1709,(9, 135),300	2009,(9, 137),8	2017,(9, 138),8	2025,(9, 141),76	2101,(9, 144),20	2121,(9, 147),72	2193,(9, 152),212	2405,(9, 153),12	2417,(9, 160),4	2421,(9, 163),4	2425,(9, 169),16	2441,(9, 176),32	2473,(9, 190),8	2481,(9, 198),4	2485,(9, 199),396	2881,(9, 200),8	2889,(1, 25),4	2893,(1, 37),40	2933,(1, 42),4	2937,(1, 43),44	2981,(1, 50),44	3025,(1, 51),4	3029,(1, 52),4	3033,(1, 60),68	3101,(1, 79),8	3109,(1, 84),24	3133,(1, 107),12	3145,(1, 115),4	3149,(1, 148),8	3157,(1, 151),184	3341,(1, 160),8	3349,(1, 162),12	3361,(1, 170),4	3365,(1, 174),4	3369,(1, 176),24	3393,(1, 177),196	3589,(1, 185),4	3593,(1, 191),4	3597,(1, 194),324	3921,(1, 196),4	3925,(13, 24),4	3929,(13, 32),28	3957,(13, 35),172	4129,(13, 36),44	4173,(13, 40),184	4357,(13, 43),20	4377,(13, 45),4	4381,(13, 50),20	4401,(13, 51),124	4525,(13, 53),4	4529,(13, 74),52	4581,(13, 75),4	4585,(13, 76),4	4589,(13, 77),8	4597,(13, 78),4	4601,(13, 89),4	4605,(13, 94),4	4609,(13, 102),88	4697,(13, 112),4	4701,(13, 115),112	4813,(13, 128),136	4949,(13, 139),116	5065,(13, 149),16	5081,(13, 154),24	5105,(13, 160),120	5225,(13, 165),56	5281,(13, 166),56	5337,(13, 170),40	5377,(13, 172),148	5525,(13, 174),4	5529,(13, 191),4	5533,(17, 30),12	5545,(17, 46),4	5549,(17, 48),4	5553,(17, 53),28	5581,(17, 65),176	5757,(17, 68),4	5761,(17, 69),8	5769,(17, 75),8	5777,(17, 82),4	5781,(17, 84),8	5789,(17, 88),16	5805,(17, 92),36	5841,(17, 106),76	5917,(17, 111),44	5961,(17, 123),4	5965,(17, 127),116	6081,(17, 136),96	6177,(17, 141),16	6193,(17, 149),4	6197,(17, 155),4	6201,(17, 159),92	6293,(17, 168),44	6337,(17, 172),16	6353,(17, 173),20	6373,(17, 183),140	6513,(17, 187),84	6597,(17, 188),92	6689,(17, 195),12	6701,(5, 30),20	6721,(5, 32),16	6737,(5, 34),4	6741,(5, 40),88	6829,(5, 45),4	6833,(5, 52),56	6889,(5, 65),4	6893,(5, 74),4	6897,(5, 82),8	6905,(5, 85),4	6909,(5, 103),8	6917,(5, 114),4	6921,(5, 116),4	6925,(5, 127),40	6965,(5, 138),4	6969,(5, 146),32	7001,(5, 149),4	7005,(5, 159),20	7025,(5, 164),4	7029,(5, 177),4	7033,(5, 193),8	7041,(5, 196),144	7185,(5, 199),48	7233,(21, 201),20	8245,(97, 201),20	8265,(109, 201),20	8285,(125, 201),20	8305,(22, 201),20	8325,(93, 201),20	8345,(28, 201),20	8365,(27, 201),20	8385,(117, 201),20	8405,(129, 201),20	8425,(101, 201),20	8445,(133, 201),20	8465,(134, 201),20	8485,(113, 201),20	8505,(121, 201),20	8525,(105, 201),20	
