13802
# CPU
379,10,33	6520,22,33	8002,32,33	8146,42,33	8257,52,33	8620,62,33	9313,72,33	10096,82,33	10192,92,33	10426,102,33	10849,112,33	
337,9,33	6517,21,33	6877,31,33	8143,41,33	8254,51,33	8431,61,33	9295,71,33	10189,91,33	10378,101,33	10846,111,33	12526,81,33	
295,8,33	6514,20,33	6871,30,33	8113,40,33	8233,50,33	8425,60,33	9292,70,33	9919,80,33	10147,90,33	10369,100,33	10840,110,33	11296,120,33	
253,7,33	6511,19,33	6823,29,33	8104,39,33	8215,49,33	8389,59,33	9289,69,33	9916,79,33	10126,89,33	10363,99,33	10804,109,33	11251,119,33	
211,6,33	6454,18,33	7633,28,33	8092,38,33	8212,48,33	9820,78,33	10123,88,33	10360,98,33	10801,108,33	11209,118,33	13093,58,33	13762,68,33	
169,5,33	6280,17,33	6673,27,33	8074,37,33	8209,47,33	8290,57,33	9175,67,33	9802,77,33	10117,87,33	10273,97,33	10780,107,33	11206,117,33	
127,4,33	6661,26,33	7246,16,33	8023,36,33	8188,46,33	8287,56,33	9160,66,33	9799,76,33	10111,86,33	10261,96,33	10771,106,33	11104,116,33	
85,3,33	6640,25,33	8020,35,33	8182,45,33	8284,55,33	9157,65,33	9631,75,33	10105,85,33	10201,95,33	10450,105,33	11101,115,33	12340,15,33	
43,2,33	421,12,33	6214,14,33	6637,24,33	8017,34,33	8149,44,33	8275,54,33	9154,64,33	9517,74,33	10102,84,33	10195,94,33	10429,104,33	11098,114,33	
0,0,1	1,1,33	34,11,33	3667,13,33	3700,43,33	3733,53,33	4186,63,33	4219,73,33	4252,103,33	6280,23,33	6385,33,33	6454,83,33	6685,93,33	6907,113,33	13801,121,1	
# Incoming
337,(0, 10),42	379,(4, 22),3	382,(4, 32),3	385,(7, 82),3	388,(2, 22),3	391,(7, 22),6	397,(9, 22),3	400,(9, 52),9	409,(4, 62),9	421,(3, 22),33	454,(6, 32),6	460,(3, 32),15	475,(8, 22),12	487,(4, 72),3	490,(2, 32),3	493,(1, 22),18	511,(5, 52),12	523,(5, 82),3	526,(8, 32),9	535,(9, 32),12	550,(5, 42),27	577,(6, 22),36	613,(8, 42),3	616,(8, 52),3	619,(8, 62),3	622,(8, 72),3	625,(8, 82),9	634,(8, 92),3	637,(8, 112),3	670,(6, 72),9	679,(8, 102),12	691,(6, 52),12	709,(6, 82),3	712,(7, 32),78	790,(9, 62),21	847,(7, 62),15	862,(9, 82),15	892,(3, 42),18	937,(2, 42),33	982,(7, 92),18	1000,(2, 52),3	1018,(4, 42),30	1048,(4, 92),3	1054,(1, 32),57	1111,(3, 52),36	1153,(6, 62),51	1204,(4, 82),15	1219,(3, 82),3	1222,(6, 102),12	1234,(7, 72),21	1258,(4, 102),3	1261,(1, 42),33	1294,(3, 62),12	1306,(5, 72),12	1318,(2, 62),30	1384,(7, 42),72	1468,(3, 72),12	1480,(4, 52),84	1570,(6, 112),15	1618,(2, 72),18	1636,(5, 62),48	1684,(7, 112),18	1702,(9, 42),42	1753,(3, 92),57	1825,(9, 92),18	1843,(9, 102),36	1879,(2, 82),27	1906,(3, 102),15	1921,(7, 52),45	1966,(5, 102),18	1996,(1, 52),75	2077,(7, 102),42	2140,(2, 92),6	2146,(3, 112),54	2209,(4, 112),12	2236,(1, 62),90	2326,(5, 22),162	2488,(5, 32),132	2650,(6, 92),57	2749,(9, 112),60	2809,(2, 102),18	2926,(2, 112),18	2944,(5, 112),33	3022,(1, 72),3	3025,(5, 92),150	3352,(1, 82),84	3436,(6, 42),201	3691,(1, 92),3	3694,(12, 22),30	3832,(12, 32),30	3907,(12, 42),27	3934,(12, 52),24	3997,(1, 102),9	4078,(12, 62),18	4243,(12, 112),3	4267,(1, 112),21	4774,(9, 72),339	5236,(12, 72),585	5857,(12, 82),111	6028,(12, 92),54	6517,(11, 22),3	6763,(12, 102),93	6877,(11, 32),1125	8143,(11, 42),3	8254,(11, 52),3	8431,(11, 62),189	9295,(11, 72),18	9955,(11, 82),141	10189,(11, 92),3	10378,(11, 102),48	10846,(11, 112),3	
295,(0, 9),42	337,(4, 21),3	340,(4, 41),24	364,(5, 41),3	367,(4, 61),6	373,(6, 21),6	379,(6, 31),3	382,(7, 21),3	385,(2, 21),3	388,(7, 31),3	397,(7, 61),3	412,(7, 71),3	418,(3, 21),3	424,(8, 41),3	433,(5, 31),21	454,(3, 31),6	460,(8, 31),6	466,(8, 61),3	475,(3, 41),12	487,(2, 31),3	490,(1, 21),3	496,(6, 71),3	499,(8, 101),3	502,(3, 51),3	505,(8, 21),21	526,(10, 51),3	529,(10, 71),3	532,(2, 41),45	577,(5, 21),30	607,(5, 51),39	646,(8, 51),27	673,(5, 61),33	706,(7, 91),6	712,(10, 31),12	724,(5, 91),3	727,(10, 61),24	757,(6, 41),33	790,(6, 51),33	823,(8, 71),21	844,(10, 81),9	853,(10, 91),15	868,(10, 101),15	883,(10, 111),9	907,(6, 91),6	913,(6, 101),6	925,(8, 81),9	937,(7, 81),12	955,(6, 81),30	985,(2, 51),15	1000,(7, 101),9	1012,(7, 111),3	1021,(2, 61),3	1024,(8, 91),9	1042,(1, 31),12	1054,(4, 31),48	1183,(3, 61),9	1195,(4, 81),9	1207,(8, 111),12	1255,(4, 101),3	1258,(1, 41),3	1261,(4, 71),42	1306,(3, 71),12	1318,(4, 51),111	1483,(2, 71),135	1630,(3, 91),3	1633,(6, 111),21	1699,(2, 81),6	1705,(7, 41),90	1795,(7, 51),81	1888,(1, 51),108	1996,(3, 101),12	2008,(3, 111),3	2011,(5, 71),57	2068,(5, 81),15	2098,(5, 101),9	2110,(2, 91),30	2173,(2, 101),6	2209,(1, 61),27	2236,(4, 91),57	2338,(4, 111),15	2497,(6, 61),153	2650,(10, 41),102	2980,(2, 111),33	3013,(1, 71),9	3109,(12, 31),3	3343,(1, 81),9	3466,(5, 111),81	3547,(12, 21),27	3595,(12, 61),9	3682,(1, 91),9	3922,(1, 101),75	4105,(12, 71),12	4153,(12, 81),9	4249,(1, 111),18	4267,(10, 21),438	4705,(12, 41),195	4900,(12, 51),336	5968,(12, 91),60	6337,(12, 111),27	6514,(11, 21),3	6685,(12, 101),78	6871,(11, 31),6	8113,(11, 41),30	8233,(11, 51),21	8425,(11, 61),6	9292,(11, 71),3	9919,(11, 81),36	10147,(11, 91),42	10369,(11, 101),9	10840,(11, 111),6	10846,(3, 81),1680	
253,(0, 8),42	295,(3, 20),9	304,(3, 30),6	310,(4, 20),3	313,(4, 30),9	322,(4, 40),6	328,(4, 50),3	331,(4, 60),6	337,(6, 20),3	343,(5, 40),3	346,(2, 20),39	385,(5, 20),21	406,(5, 50),9	415,(7, 20),3	418,(7, 30),3	421,(6, 30),6	427,(7, 40),3	430,(7, 60),3	433,(9, 40),3	436,(6, 40),9	445,(2, 30),12	457,(9, 60),3	460,(1, 20),30	490,(3, 50),12	502,(4, 70),24	526,(5, 30),24	550,(9, 20),9	559,(10, 70),3	562,(6, 50),9	571,(6, 70),3	574,(4, 80),12	586,(9, 90),3	589,(3, 60),6	595,(7, 100),3	598,(9, 120),9	607,(10, 40),6	613,(10, 50),33	646,(5, 60),27	673,(7, 50),15	688,(9, 30),12	700,(10, 90),6	706,(10, 100),3	709,(9, 80),12	721,(6, 90),3	727,(1, 30),315	1042,(2, 40),78	1120,(2, 50),69	1192,(3, 80),3	1204,(6, 100),3	1207,(5, 120),3	1210,(7, 80),12	1222,(10, 60),27	1252,(1, 40),6	1258,(9, 110),12	1279,(3, 70),15	1315,(2, 60),3	1318,(3, 40),87	1405,(5, 70),30	1435,(9, 70),24	1462,(2, 70),21	1483,(9, 50),39	1522,(10, 80),15	1537,(10, 120),15	1564,(4, 110),3	1570,(7, 90),18	1588,(7, 110),21	1621,(3, 90),9	1654,(7, 120),15	1675,(2, 80),24	1702,(4, 90),42	1744,(6, 60),120	1885,(1, 50),3	1897,(3, 100),9	1906,(5, 80),18	1924,(5, 90),21	1945,(5, 100),21	1966,(4, 120),3	1984,(3, 110),6	1990,(9, 100),48	2077,(3, 120),15	2092,(10, 20),66	2185,(5, 110),21	2206,(1, 60),3	2209,(7, 70),138	2347,(10, 30),69	2419,(2, 90),213	2752,(10, 110),36	2791,(2, 100),18	2809,(6, 110),111	2920,(2, 110),6	3010,(1, 70),3	3103,(12, 20),6	3115,(12, 40),3	3118,(12, 50),3	3121,(12, 60),3	3127,(1, 80),216	3406,(2, 120),93	3544,(12, 100),3	3679,(1, 90),3	3682,(6, 80),180	3919,(1, 100),3	3922,(6, 120),69	3991,(12, 30),87	4096,(12, 70),9	4117,(12, 80),36	4171,(12, 90),6	4246,(1, 110),3	4249,(4, 100),711	6202,(1, 120),3	6226,(12, 110),30	6511,(11, 20),3	6823,(11, 30),48	6907,(12, 120),54	8104,(11, 40),9	8215,(11, 50),18	8389,(11, 60),36	9289,(11, 70),3	9916,(11, 80),3	10126,(11, 90),21	10363,(11, 100),6	10804,(11, 110),36	11251,(11, 120),45	
211,(0, 7),42	253,(3, 19),3	256,(3, 29),9	265,(3, 39),27	292,(4, 19),3	295,(4, 29),6	301,(4, 39),3	319,(6, 29),3	325,(2, 19),21	346,(5, 29),9	364,(4, 59),3	367,(6, 49),3	385,(4, 49),24	409,(8, 19),3	412,(8, 29),3	415,(5, 69),6	421,(9, 59),3	427,(6, 39),9	436,(9, 79),3	439,(9, 99),3	442,(2, 29),3	445,(9, 29),12	457,(1, 19),3	460,(9, 89),9	469,(9, 109),6	478,(4, 69),9	487,(8, 79),3	490,(10, 19),6	496,(10, 99),3	499,(6, 89),3	502,(10, 119),3	505,(3, 59),6	511,(10, 39),9	520,(10, 69),6	526,(4, 89),3	529,(2, 39),3	532,(6, 19),30	562,(10, 49),9	574,(6, 109),3	580,(2, 49),9	598,(3, 79),3	601,(1, 29),126	727,(5, 19),198	925,(6, 59),12	937,(10, 79),12	949,(6, 79),6	955,(10, 89),12	967,(8, 49),21	991,(5, 49),30	1021,(6, 99),18	1039,(5, 89),3	1042,(8, 89),9	1060,(3, 49),48	1108,(8, 39),33	1141,(8, 59),33	1174,(8, 69),21	1201,(8, 99),6	1219,(6, 119),3	1222,(9, 69),24	1246,(1, 39),6	1270,(9, 119),15	1288,(2, 59),27	1321,(5, 119),6	1327,(9, 19),105	1438,(2, 69),24	1462,(4, 99),12	1474,(4, 109),3	1477,(10, 109),39	1516,(5, 59),81	1618,(3, 89),3	1636,(4, 79),33	1669,(6, 69),57	1762,(4, 119),6	1768,(2, 79),111	1882,(1, 49),3	1894,(3, 99),3	1981,(3, 109),3	2038,(3, 119),39	2095,(2, 89),15	2158,(2, 99),3	2185,(1, 59),21	2206,(3, 69),309	2515,(10, 29),78	2620,(5, 39),150	2809,(8, 119),96	2917,(2, 109),3	2920,(5, 109),24	2998,(1, 69),12	3025,(2, 119),18	3058,(12, 19),45	3112,(12, 39),3	3124,(1, 79),3	3127,(8, 109),195	3322,(9, 39),237	3574,(12, 29),21	3604,(12, 89),3	3628,(1, 89),51	3679,(5, 79),174	3880,(1, 99),39	3952,(9, 49),234	4186,(12, 49),27	4216,(12, 99),3	4222,(1, 109),24	4246,(12, 59),210	4456,(12, 69),222	4693,(12, 109),3	4849,(10, 59),120	5401,(5, 99),315	5821,(12, 79),36	6181,(12, 119),12	6199,(1, 119),3	6454,(11, 19),57	6706,(11, 29),117	8092,(11, 39),12	8212,(11, 49),3	8383,(11, 59),6	9283,(11, 69),6	9820,(11, 79),96	10123,(11, 89),3	10360,(11, 99),3	10801,(11, 109),3	11209,(11, 119),42	
169,(0, 6),42	211,(2, 18),114	325,(3, 18),93	418,(4, 18),3	421,(5, 18),12	433,(7, 18),18	451,(1, 18),6	457,(2, 28),30	487,(3, 38),3	490,(4, 48),3	493,(2, 38),36	529,(4, 28),45	574,(9, 58),3	577,(2, 48),3	580,(7, 28),3	583,(7, 78),3	586,(3, 58),3	589,(7, 88),3	592,(1, 28),9	601,(3, 28),111	712,(5, 48),3	715,(5, 58),3	718,(5, 68),3	721,(8, 38),3	724,(8, 48),15	739,(9, 68),3	742,(9, 88),3	745,(9, 98),3	748,(9, 108),9	757,(10, 18),15	772,(10, 28),18	790,(7, 38),12	802,(10, 48),9	811,(10, 98),3	814,(8, 58),9	829,(7, 48),12	841,(7, 58),6	847,(8, 18),60	916,(8, 78),9	925,(5, 28),66	991,(8, 88),9	1003,(2, 58),18	1021,(3, 48),39	1060,(9, 18),48	1108,(9, 38),30	1138,(10, 88),9	1147,(7, 68),15	1162,(10, 78),12	1186,(7, 108),6	1195,(5, 88),6	1204,(5, 98),3	1207,(10, 118),15	1222,(1, 38),24	1246,(8, 98),15	1261,(10, 38),42	1315,(4, 108),3	1348,(2, 68),90	1438,(5, 38),78	1516,(8, 68),42	1585,(3, 78),27	1636,(3, 98),6	1660,(2, 78),15	1684,(5, 78),24	1726,(3, 88),27	1768,(8, 108),66	1843,(1, 48),39	1903,(4, 88),39	1975,(3, 108),6	2011,(3, 118),27	2038,(4, 78),93	2131,(7, 98),30	2182,(1, 58),3	2185,(2, 88),234	2419,(4, 68),228	2647,(4, 118),30	2725,(2, 98),66	2791,(7, 118),39	2863,(5, 108),36	2899,(5, 118),15	2914,(9, 48),72	2995,(1, 68),3	3019,(2, 118),6	3055,(12, 18),3	3082,(1, 78),42	3124,(2, 108),168	3292,(4, 98),327	3625,(1, 88),3	3628,(9, 28),102	3730,(10, 58),114	3853,(1, 98),27	3880,(10, 68),81	3961,(10, 108),42	4057,(1, 108),165	4222,(3, 68),1191	5413,(4, 38),522	5935,(9, 78),84	6019,(9, 118),75	6094,(12, 28),72	6166,(12, 38),3	6169,(12, 48),6	6175,(12, 78),3	6178,(12, 108),3	6181,(1, 118),18	6199,(12, 88),21	6220,(12, 98),6	6256,(12, 118),3	6280,(11, 18),174	6454,(12, 58),186	6673,(11, 28),33	6706,(8, 28),927	8074,(11, 38),18	8209,(11, 48),3	8290,(11, 58),93	8383,(8, 118),762	9175,(11, 68),108	9802,(11, 78),18	10117,(11, 88),6	10273,(11, 98),87	10780,(11, 108),21	11206,(11, 118),3	11209,(4, 58),1884	13093,(12, 68),669	
127,(0, 5),42	169,(2, 17),3	172,(2, 37),33	205,(2, 57),3	208,(2, 77),3	211,(3, 17),3	214,(3, 27),18	232,(4, 17),3	235,(4, 27),15	250,(4, 37),9	259,(4, 47),18	277,(6, 17),3	280,(6, 27),9	292,(3, 67),3	304,(4, 57),6	319,(3, 47),6	334,(6, 47),3	352,(7, 17),3	370,(6, 67),3	379,(9, 17),3	385,(9, 27),3	391,(2, 27),51	442,(9, 67),3	445,(1, 17),6	451,(8, 17),3	454,(8, 27),3	457,(8, 47),3	469,(4, 67),9	478,(9, 47),12	493,(8, 87),3	496,(9, 107),9	505,(10, 87),3	508,(7, 47),24	532,(10, 27),12	544,(10, 47),6	550,(8, 107),6	559,(9, 77),12	589,(1, 27),3	592,(7, 97),3	595,(3, 77),3	598,(7, 27),69	667,(7, 87),6	673,(9, 97),15	688,(10, 57),12	703,(6, 77),6	712,(3, 37),180	892,(10, 67),12	907,(7, 67),21	928,(7, 77),9	937,(8, 37),30	970,(2, 47),15	991,(6, 117),3	994,(10, 107),12	1015,(7, 117),3	1030,(2, 67),9	1039,(6, 37),114	1162,(7, 107),18	1180,(4, 77),15	1210,(1, 37),12	1222,(3, 57),42	1264,(8, 67),27	1312,(4, 97),3	1315,(7, 37),69	1384,(8, 97),57	1450,(4, 87),12	1462,(7, 57),48	1522,(9, 57),45	1567,(4, 117),3	1570,(10, 17),30	1615,(3, 87),3	1618,(8, 77),84	1711,(1, 47),132	1864,(6, 87),75	1939,(2, 87),156	2095,(3, 107),51	2146,(2, 97),12	2161,(1, 57),21	2182,(2, 107),3	2185,(9, 87),27	2212,(10, 77),48	2269,(9, 117),24	2293,(4, 107),45	2347,(6, 57),150	2515,(3, 97),177	2707,(6, 107),66	2773,(8, 117),36	2809,(10, 97),24	2863,(3, 117),27	2896,(10, 117),54	2959,(1, 67),36	3043,(12, 17),12	3070,(1, 77),12	3082,(9, 37),210	3292,(2, 117),114	3406,(10, 37),90	3514,(12, 27),3	3520,(12, 37),3	3544,(1, 87),81	3676,(12, 47),15	3835,(1, 97),18	3979,(12, 57),3	3985,(12, 67),3	4042,(1, 107),15	4057,(6, 97),315	4372,(8, 57),288	4678,(12, 77),3	4681,(12, 87),6	4687,(12, 107),6	4696,(12, 117),9	6031,(1, 117),150	6241,(11, 17),39	6280,(12, 97),57	6661,(11, 27),12	8023,(11, 37),51	8188,(11, 47),21	8287,(11, 57),3	9160,(11, 67),15	9799,(11, 77),3	10111,(11, 87),6	10261,(11, 97),12	10771,(11, 107),9	11104,(11, 117),102	
85,(0, 4),42	127,(2, 16),15	142,(2, 36),3	157,(2, 46),3	160,(2, 56),6	166,(2, 66),3	175,(3, 16),18	196,(3, 26),15	238,(3, 36),12	250,(6, 46),3	256,(5, 16),60	319,(5, 26),21	340,(5, 36),3	373,(5, 46),9	382,(6, 16),39	421,(8, 26),3	424,(9, 26),3	427,(1, 16),18	445,(6, 26),9	454,(7, 26),45	499,(7, 46),9	508,(10, 36),3	511,(3, 76),3	514,(9, 56),3	517,(9, 76),3	520,(1, 26),69	589,(2, 26),117	706,(5, 76),3	709,(8, 46),9	718,(8, 66),3	721,(5, 86),3	724,(6, 36),33	757,(8, 16),48	805,(8, 56),9	814,(9, 36),9	823,(6, 56),39	862,(7, 36),45	907,(10, 46),3	910,(3, 46),84	994,(6, 76),12	1006,(6, 96),3	1009,(6, 106),6	1015,(3, 66),6	1021,(7, 16),120	1141,(7, 66),6	1147,(3, 56),36	1183,(7, 96),3	1186,(9, 106),6	1192,(7, 116),6	1198,(8, 96),3	1201,(5, 96),3	1204,(10, 56),3	1207,(1, 36),3	1210,(5, 56),60	1270,(7, 56),39	1309,(8, 86),9	1318,(5, 116),3	1321,(8, 36),63	1384,(10, 66),3	1387,(10, 76),3	1390,(10, 106),6	1396,(6, 66),120	1516,(7, 76),27	1543,(7, 86),27	1570,(8, 76),15	1585,(9, 46),12	1597,(9, 66),9	1606,(10, 116),3	1612,(3, 86),3	1615,(9, 86),24	1642,(2, 76),18	1660,(10, 16),42	1705,(2, 86),3	1708,(1, 46),3	1711,(5, 66),144	1864,(3, 96),30	1894,(10, 26),15	1909,(10, 86),45	1972,(3, 106),3	1996,(5, 106),12	2008,(6, 86),78	2155,(1, 56),6	2161,(2, 96),12	2179,(2, 106),3	2182,(8, 106),150	2332,(9, 116),210	2551,(7, 106),51	2692,(3, 116),171	2947,(1, 66),12	3016,(2, 116),3	3031,(1, 76),39	3070,(6, 116),81	3496,(1, 86),48	3544,(10, 96),63	3607,(12, 16),39	3646,(12, 46),6	3652,(12, 56),3	3724,(12, 26),108	3832,(1, 96),3	3862,(12, 36),45	3982,(12, 66),3	3988,(12, 76),3	4024,(1, 106),18	4168,(12, 86),3	4225,(12, 106),18	4303,(1, 116),1728	6082,(12, 116),3	6235,(11, 16),6	6241,(8, 116),294	6640,(11, 26),21	6661,(9, 16),585	7246,(12, 96),51	8020,(11, 36),3	8182,(11, 46),6	8284,(11, 56),3	8287,(9, 96),231	9157,(11, 66),3	9631,(11, 76),168	10105,(11, 86),6	10201,(11, 96),60	10450,(11, 106),321	11101,(11, 116),3	
43,(0, 3),42	94,(2, 15),3	106,(2, 25),6	145,(2, 45),12	163,(4, 15),27	190,(4, 25),3	220,(4, 35),3	226,(4, 45),6	232,(5, 15),6	247,(6, 75),3	253,(6, 95),3	259,(6, 15),15	289,(4, 55),3	316,(5, 25),3	340,(6, 25),27	367,(7, 45),3	370,(5, 45),3	373,(7, 15),9	382,(9, 15),3	388,(9, 35),9	400,(8, 15),6	406,(8, 25),3	409,(9, 65),3	415,(9, 85),3	418,(9, 95),3	421,(7, 85),3	424,(1, 15),3	445,(8, 55),3	460,(6, 35),30	490,(8, 75),3	493,(4, 75),3	496,(8, 105),3	499,(10, 45),3	502,(5, 55),9	514,(1, 25),6	520,(9, 105),15	535,(8, 35),15	550,(10, 15),6	556,(7, 25),24	580,(10, 55),3	583,(10, 75),3	586,(7, 95),3	589,(10, 115),3	613,(6, 45),57	688,(7, 65),18	706,(2, 35),231	937,(6, 65),12	949,(7, 55),33	982,(9, 25),24	1009,(7, 105),3	1024,(2, 65),6	1039,(2, 85),3	1042,(5, 35),132	1174,(5, 65),21	1195,(1, 35),12	1207,(6, 115),12	1219,(8, 95),21	1240,(2, 55),48	1303,(4, 85),9	1327,(1, 45),381	1708,(2, 75),60	1768,(4, 65),135	1903,(7, 115),18	1942,(4, 95),15	1957,(4, 105),9	1984,(5, 105),12	1996,(8, 45),30	2026,(8, 65),42	2086,(6, 105),18	2113,(1, 55),42	2155,(6, 55),192	2353,(4, 115),27	2380,(7, 35),111	2491,(7, 75),60	2551,(8, 85),33	2584,(8, 115),84	2674,(2, 95),51	2725,(9, 75),24	2770,(5, 95),93	2863,(10, 35),33	2920,(1, 65),27	2947,(2, 105),33	2980,(5, 115),27	3013,(2, 115),3	3028,(1, 75),3	3031,(10, 25),78	3109,(10, 65),231	3340,(10, 95),57	3466,(1, 85),30	3499,(12, 25),15	3517,(12, 35),3	3523,(12, 45),21	3607,(10, 105),66	3829,(1, 95),3	3958,(12, 55),21	4021,(1, 105),3	4162,(12, 85),6	4177,(12, 105),6	4186,(9, 55),93	4294,(1, 115),9	4303,(5, 75),519	4822,(5, 85),579	5401,(6, 85),564	6214,(11, 15),21	6235,(9, 115),300	6637,(11, 25),3	6640,(10, 85),333	6973,(12, 75),141	7114,(12, 95),33	7147,(12, 115),36	7246,(9, 45),639	8017,(11, 35),3	8149,(11, 45),33	8275,(11, 55),9	8284,(12, 65),546	9154,(11, 65),3	9517,(11, 75),114	10102,(11, 85),3	10195,(11, 95),6	10429,(11, 105),21	11098,(11, 115),3	11101,(12, 15),1239	
1,(0, 2),42	130,(3, 14),45	193,(4, 34),27	223,(4, 44),3	229,(5, 24),3	235,(3, 34),3	238,(5, 14),18	256,(6, 14),3	274,(6, 24),3	310,(3, 44),9	322,(6, 34),12	349,(7, 14),3	355,(5, 34),9	364,(7, 24),3	376,(4, 64),3	379,(0, 12),42	421,(1, 14),3	424,(7, 54),3	427,(8, 14),18	448,(8, 64),3	451,(7, 94),3	454,(5, 44),48	502,(8, 114),3	505,(9, 44),6	511,(1, 24),3	514,(3, 24),72	586,(4, 14),93	679,(6, 44),12	691,(8, 24),15	706,(9, 54),3	709,(5, 84),3	712,(6, 54),9	721,(9, 34),9	730,(9, 104),9	739,(8, 54),18	757,(9, 14),33	790,(10, 24),3	793,(10, 34),9	802,(7, 44),27	829,(9, 64),12	841,(9, 84),21	862,(6, 64),45	907,(8, 74),9	916,(10, 44),3	919,(6, 104),3	922,(4, 24),96	1018,(9, 94),12	1030,(10, 74),9	1051,(4, 94),3	1054,(8, 44),51	1105,(10, 94),3	1108,(3, 84),3	1111,(1, 34),84	1195,(3, 54),24	1219,(4, 54),36	1264,(3, 64),15	1294,(1, 44),33	1327,(5, 54),78	1405,(10, 54),18	1429,(4, 74),21	1450,(8, 94),30	1480,(8, 104),30	1516,(6, 74),27	1543,(6, 94),27	1570,(3, 74),15	1597,(5, 64),27	1624,(5, 94),3	1627,(5, 114),3	1633,(3, 94),3	1636,(7, 74),18	1669,(4, 84),33	1702,(10, 64),21	1744,(4, 104),18	1762,(9, 74),63	1825,(10, 114),30	1855,(5, 74),51	1921,(3, 104),18	1939,(6, 84),57	1996,(7, 84),18	2014,(10, 84),48	2071,(1, 54),42	2113,(5, 104),72	2221,(4, 114),12	2233,(9, 114),36	2326,(1, 64),594	2920,(6, 114),102	3025,(1, 74),3	3028,(7, 34),174	3220,(3, 114),90	3310,(7, 104),36	3346,(7, 114),27	3436,(1, 84),30	3466,(8, 34),180	3694,(1, 94),135	3829,(7, 64),144	4006,(1, 104),15	4021,(8, 84),261	4288,(1, 114),6	4294,(9, 24),480	4774,(10, 14),75	4969,(10, 104),105	6205,(11, 14),9	6520,(11, 24),117	8002,(11, 34),15	8146,(11, 44),3	8257,(11, 54),18	8620,(11, 64),534	9313,(11, 74),204	10096,(11, 84),6	10192,(11, 94),3	10426,(11, 104),3	10849,(11, 114),249	
76,(2, 13),18	97,(2, 23),9	112,(2, 33),6	118,(2, 43),3	121,(2, 63),6	127,(3, 13),3	160,(4, 13),3	193,(3, 23),3	202,(5, 13),24	226,(5, 23),3	232,(3, 33),3	244,(6, 13),3	250,(3, 43),3	277,(4, 53),12	289,(6, 23),30	319,(7, 13),30	355,(7, 33),9	367,(5, 43),3	370,(7, 53),3	373,(4, 63),3	376,(9, 13),3	382,(5, 53),3	385,(8, 13),15	400,(7, 63),12	412,(9, 63),3	415,(8, 33),6	421,(4, 33),48	469,(8, 53),3	472,(8, 63),3	475,(9, 83),3	478,(10, 13),9	487,(10, 53),3	490,(6, 43),6	496,(4, 83),6	502,(6, 53),18	520,(6, 63),6	526,(6, 73),6	532,(7, 23),24	556,(8, 23),24	580,(8, 43),12	592,(8, 73),12	604,(8, 103),3	607,(9, 23),42	649,(9, 43),24	673,(10, 63),3	676,(10, 83),3	679,(4, 23),243	922,(6, 113),3	925,(9, 53),9	934,(9, 73),27	961,(9, 93),15	976,(9, 103),3	979,(9, 113),3	982,(10, 93),3	985,(6, 83),6	994,(3, 53),21	1015,(6, 93),6	1021,(5, 63),18	1039,(10, 43),12	1051,(10, 73),24	1075,(10, 103),18	1102,(4, 43),78	1180,(7, 103),3	1189,(2, 53),51	1240,(6, 103),9	1255,(7, 93),15	1270,(5, 73),33	1303,(5, 103),3	1306,(6, 33),90	1405,(3, 63),63	1477,(4, 113),3	1480,(3, 73),90	1570,(4, 73),66	1636,(2, 73),6	1642,(3, 83),84	1726,(8, 83),42	1810,(3, 93),54	1906,(2, 83),33	1939,(3, 103),33	1972,(4, 103),66	2038,(7, 73),39	2083,(5, 83),15	2131,(4, 93),78	2209,(5, 93),93	2302,(5, 113),15	2332,(8, 113),90	2422,(10, 113),54	2632,(2, 93),42	2674,(7, 113),84	2827,(2, 103),90	2944,(2, 113),3	2947,(3, 113),273	3220,(5, 33),246	3466,(7, 43),189	3655,(12, 13),12	3667,(12, 23),3	3670,(12, 33),3	3673,(12, 43),3	3691,(12, 53),3	3730,(9, 33),222	3973,(7, 83),210	4183,(12, 63),3	4213,(12, 73),3	4219,(12, 103),6	4660,(8, 93),1134	5794,(10, 23),486	6280,(10, 33),105	6385,(12, 83),69	6454,(17, 121),6	6487,(18, 121),6	6544,(19, 121),6	6550,(20, 121),6	6556,(21, 121),6	6562,(22, 121),6	6640,(12, 93),45	6685,(25, 121),6	6694,(26, 121),6	6706,(27, 121),6	6856,(12, 113),51	6907,(29, 121),6	6961,(14, 121),6	6967,(24, 121),6	7279,(16, 121),6	7633,(30, 121),6	7666,(28, 121),6	7885,(31, 121),6	8035,(32, 121),6	8050,(34, 121),6	8056,(35, 121),6	8062,(36, 121),6	8107,(37, 121),6	8125,(38, 121),6	8137,(39, 121),6	8146,(40, 121),6	8176,(41, 121),6	8182,(42, 121),6	8188,(44, 121),6	8215,(45, 121),6	8221,(46, 121),6	8242,(47, 121),6	8248,(48, 121),6	8254,(49, 121),6	8266,(50, 121),6	8290,(52, 121),6	8317,(55, 121),6	8323,(56, 121),6	8329,(57, 121),6	8422,(59, 121),6	8518,(51, 121),6	8524,(61, 121),6	8653,(62, 121),6	8830,(54, 121),6	9145,(60, 121),6	9187,(64, 121),6	9193,(65, 121),6	9199,(66, 121),6	9208,(67, 121),6	9322,(69, 121),6	9328,(70, 121),6	9334,(71, 121),6	9346,(72, 121),6	9550,(74, 121),6	9664,(75, 121),6	9832,(76, 121),6	9838,(77, 121),6	9853,(78, 121),6	9949,(79, 121),6	9955,(80, 121),6	10129,(82, 121),6	10135,(84, 121),6	10141,(85, 121),6	10147,(86, 121),6	10153,(87, 121),6	10159,(88, 121),6	10165,(89, 121),6	10180,(90, 121),6	10222,(91, 121),6	10228,(92, 121),6	10234,(94, 121),6	10240,(95, 121),6	10294,(96, 121),6	10306,(97, 121),6	10393,(98, 121),6	10399,(99, 121),6	10405,(100, 121),6	10411,(101, 121),6	10459,(102, 121),6	10465,(104, 121),6	10483,(105, 121),6	10804,(106, 121),6	10813,(107, 121),6	10834,(108, 121),6	10840,(109, 121),6	10873,(110, 121),6	10879,(111, 121),6	10885,(112, 121),6	11137,(116, 121),6	11239,(117, 121),6	11245,(118, 121),6	11284,(119, 121),6	11329,(120, 121),6	12340,(114, 121),6	12526,(115, 121),6	12532,(15, 121),6	12559,(81, 121),6	13126,(58, 121),6	13795,(68, 121),6	
# Outgoing
478,(10, 13),9	487,(10, 53),3	490,(10, 19),6	496,(10, 99),3	499,(10, 45),3	502,(10, 119),3	505,(10, 87),3	508,(10, 36),3	511,(10, 39),9	520,(10, 69),6	526,(10, 51),3	529,(10, 71),3	532,(10, 27),12	544,(10, 47),6	550,(10, 15),6	559,(10, 70),3	562,(10, 49),9	580,(10, 55),3	583,(10, 75),3	589,(10, 115),3	607,(10, 40),6	613,(10, 50),33	673,(10, 63),3	676,(10, 83),3	688,(10, 57),12	700,(10, 90),6	706,(10, 100),3	712,(10, 31),12	727,(10, 61),24	757,(10, 18),15	772,(10, 28),18	790,(10, 24),3	793,(10, 34),9	802,(10, 48),9	811,(10, 98),3	844,(10, 81),9	853,(10, 91),15	868,(10, 101),15	883,(10, 111),9	892,(10, 67),12	907,(10, 46),3	916,(10, 44),3	937,(10, 79),12	955,(10, 89),12	982,(10, 93),3	994,(10, 107),12	1030,(10, 74),9	1039,(10, 43),12	1051,(10, 73),24	1075,(10, 103),18	1105,(10, 94),3	1138,(10, 88),9	1162,(10, 78),12	1204,(10, 56),3	1207,(10, 118),15	1222,(10, 60),27	1261,(10, 38),42	1384,(10, 66),3	1387,(10, 76),3	1390,(10, 106),6	1405,(10, 54),18	1477,(10, 109),39	1522,(10, 80),15	1537,(10, 120),15	1570,(10, 17),30	1606,(10, 116),3	1660,(10, 16),42	1702,(10, 64),21	1825,(10, 114),30	1894,(10, 26),15	1909,(10, 86),45	2014,(10, 84),48	2092,(10, 20),66	2212,(10, 77),48	2347,(10, 30),69	2422,(10, 113),54	2515,(10, 29),78	2650,(10, 41),102	2752,(10, 110),36	2809,(10, 97),24	2863,(10, 35),33	2896,(10, 117),54	3031,(10, 25),78	3109,(10, 65),231	3340,(10, 95),57	3406,(10, 37),90	3544,(10, 96),63	3607,(10, 105),66	3730,(10, 58),114	3880,(10, 68),81	3961,(10, 108),42	4267,(10, 21),438	4774,(10, 14),75	4849,(10, 59),120	4969,(10, 104),105	5794,(10, 23),486	6280,(10, 33),105	6562,(22, 121),6	6640,(10, 85),333	8035,(32, 121),6	8182,(42, 121),6	8290,(52, 121),6	8653,(62, 121),6	9346,(72, 121),6	10129,(82, 121),6	10228,(92, 121),6	10459,(102, 121),6	10885,(112, 121),6	
376,(9, 13),3	379,(9, 17),3	382,(9, 15),3	385,(9, 27),3	388,(9, 35),9	397,(9, 22),3	400,(9, 52),9	409,(9, 65),3	412,(9, 63),3	415,(9, 85),3	418,(9, 95),3	421,(9, 59),3	424,(9, 26),3	433,(9, 40),3	436,(9, 79),3	439,(9, 99),3	442,(9, 67),3	445,(9, 29),12	457,(9, 60),3	460,(9, 89),9	469,(9, 109),6	475,(9, 83),3	478,(9, 47),12	496,(9, 107),9	505,(9, 44),6	514,(9, 56),3	517,(9, 76),3	520,(9, 105),15	535,(9, 32),12	550,(9, 20),9	559,(9, 77),12	574,(9, 58),3	586,(9, 90),3	598,(9, 120),9	607,(9, 23),42	649,(9, 43),24	673,(9, 97),15	688,(9, 30),12	706,(9, 54),3	709,(9, 80),12	721,(9, 34),9	730,(9, 104),9	739,(9, 68),3	742,(9, 88),3	745,(9, 98),3	748,(9, 108),9	757,(9, 14),33	790,(9, 62),21	814,(9, 36),9	829,(9, 64),12	841,(9, 84),21	862,(9, 82),15	925,(9, 53),9	934,(9, 73),27	961,(9, 93),15	976,(9, 103),3	979,(9, 113),3	982,(9, 25),24	1018,(9, 94),12	1060,(9, 18),48	1108,(9, 38),30	1186,(9, 106),6	1222,(9, 69),24	1258,(9, 110),12	1270,(9, 119),15	1327,(9, 19),105	1435,(9, 70),24	1483,(9, 50),39	1522,(9, 57),45	1585,(9, 46),12	1597,(9, 66),9	1615,(9, 86),24	1702,(9, 42),42	1762,(9, 74),63	1825,(9, 92),18	1843,(9, 102),36	1990,(9, 100),48	2185,(9, 87),27	2233,(9, 114),36	2269,(9, 117),24	2332,(9, 116),210	2725,(9, 75),24	2749,(9, 112),60	2914,(9, 48),72	3082,(9, 37),210	3322,(9, 39),237	3628,(9, 28),102	3730,(9, 33),222	3952,(9, 49),234	4186,(9, 55),93	4294,(9, 24),480	4774,(9, 72),339	5935,(9, 78),84	6019,(9, 118),75	6235,(9, 115),300	6556,(21, 121),6	6661,(9, 16),585	7246,(9, 45),639	7885,(31, 121),6	8176,(41, 121),6	8287,(9, 96),231	8518,(51, 121),6	8524,(61, 121),6	9334,(71, 121),6	10222,(91, 121),6	10411,(101, 121),6	10879,(111, 121),6	12559,(81, 121),6	
385,(8, 13),15	400,(8, 15),6	406,(8, 25),3	409,(8, 19),3	412,(8, 29),3	415,(8, 33),6	421,(8, 26),3	424,(8, 41),3	427,(8, 14),18	445,(8, 55),3	448,(8, 64),3	451,(8, 17),3	454,(8, 27),3	457,(8, 47),3	460,(8, 31),6	466,(8, 61),3	469,(8, 53),3	472,(8, 63),3	475,(8, 22),12	487,(8, 79),3	490,(8, 75),3	493,(8, 87),3	496,(8, 105),3	499,(8, 101),3	502,(8, 114),3	505,(8, 21),21	526,(8, 32),9	535,(8, 35),15	550,(8, 107),6	556,(8, 23),24	580,(8, 43),12	592,(8, 73),12	604,(8, 103),3	613,(8, 42),3	616,(8, 52),3	619,(8, 62),3	622,(8, 72),3	625,(8, 82),9	634,(8, 92),3	637,(8, 112),3	646,(8, 51),27	679,(8, 102),12	691,(8, 24),15	709,(8, 46),9	718,(8, 66),3	721,(8, 38),3	724,(8, 48),15	739,(8, 54),18	757,(8, 16),48	805,(8, 56),9	814,(8, 58),9	823,(8, 71),21	847,(8, 18),60	907,(8, 74),9	916,(8, 78),9	925,(8, 81),9	937,(8, 37),30	967,(8, 49),21	991,(8, 88),9	1024,(8, 91),9	1042,(8, 89),9	1054,(8, 44),51	1108,(8, 39),33	1141,(8, 59),33	1174,(8, 69),21	1198,(8, 96),3	1201,(8, 99),6	1207,(8, 111),12	1219,(8, 95),21	1246,(8, 98),15	1264,(8, 67),27	1309,(8, 86),9	1321,(8, 36),63	1384,(8, 97),57	1450,(8, 94),30	1480,(8, 104),30	1516,(8, 68),42	1570,(8, 76),15	1618,(8, 77),84	1726,(8, 83),42	1768,(8, 108),66	1996,(8, 45),30	2026,(8, 65),42	2182,(8, 106),150	2332,(8, 113),90	2551,(8, 85),33	2584,(8, 115),84	2773,(8, 117),36	2809,(8, 119),96	3127,(8, 109),195	3466,(8, 34),180	4021,(8, 84),261	4372,(8, 57),288	4660,(8, 93),1134	6241,(8, 116),294	6550,(20, 121),6	6706,(8, 28),927	7633,(30, 121),6	8146,(40, 121),6	8266,(50, 121),6	8383,(8, 118),762	9145,(60, 121),6	9328,(70, 121),6	9955,(80, 121),6	10180,(90, 121),6	10405,(100, 121),6	10873,(110, 121),6	11329,(120, 121),6	
319,(7, 13),30	349,(7, 14),3	352,(7, 17),3	355,(7, 33),9	364,(7, 24),3	367,(7, 45),3	370,(7, 53),3	373,(7, 15),9	382,(7, 21),3	385,(7, 82),3	388,(7, 31),3	391,(7, 22),6	397,(7, 61),3	400,(7, 63),12	412,(7, 71),3	415,(7, 20),3	418,(7, 30),3	421,(7, 85),3	424,(7, 54),3	427,(7, 40),3	430,(7, 60),3	433,(7, 18),18	451,(7, 94),3	454,(7, 26),45	499,(7, 46),9	508,(7, 47),24	532,(7, 23),24	556,(7, 25),24	580,(7, 28),3	583,(7, 78),3	586,(7, 95),3	589,(7, 88),3	592,(7, 97),3	595,(7, 100),3	598,(7, 27),69	667,(7, 87),6	673,(7, 50),15	688,(7, 65),18	706,(7, 91),6	712,(7, 32),78	790,(7, 38),12	802,(7, 44),27	829,(7, 48),12	841,(7, 58),6	847,(7, 62),15	862,(7, 36),45	907,(7, 67),21	928,(7, 77),9	937,(7, 81),12	949,(7, 55),33	982,(7, 92),18	1000,(7, 101),9	1009,(7, 105),3	1012,(7, 111),3	1015,(7, 117),3	1021,(7, 16),120	1141,(7, 66),6	1147,(7, 68),15	1162,(7, 107),18	1180,(7, 103),3	1183,(7, 96),3	1186,(7, 108),6	1192,(7, 116),6	1210,(7, 80),12	1234,(7, 72),21	1255,(7, 93),15	1270,(7, 56),39	1315,(7, 37),69	1384,(7, 42),72	1462,(7, 57),48	1516,(7, 76),27	1543,(7, 86),27	1570,(7, 90),18	1588,(7, 110),21	1636,(7, 74),18	1654,(7, 120),15	1684,(7, 112),18	1705,(7, 41),90	1795,(7, 51),81	1903,(7, 115),18	1921,(7, 52),45	1996,(7, 84),18	2038,(7, 73),39	2077,(7, 102),42	2131,(7, 98),30	2209,(7, 70),138	2380,(7, 35),111	2491,(7, 75),60	2551,(7, 106),51	2674,(7, 113),84	2791,(7, 118),39	3028,(7, 34),174	3310,(7, 104),36	3346,(7, 114),27	3466,(7, 43),189	3829,(7, 64),144	3973,(7, 83),210	6544,(19, 121),6	6907,(29, 121),6	8137,(39, 121),6	8254,(49, 121),6	8422,(59, 121),6	9322,(69, 121),6	9949,(79, 121),6	10165,(89, 121),6	10399,(99, 121),6	10840,(109, 121),6	11284,(119, 121),6	
244,(6, 13),3	247,(6, 75),3	250,(6, 46),3	253,(6, 95),3	256,(6, 14),3	259,(6, 15),15	274,(6, 24),3	277,(6, 17),3	280,(6, 27),9	289,(6, 23),30	319,(6, 29),3	322,(6, 34),12	334,(6, 47),3	337,(6, 20),3	340,(6, 25),27	367,(6, 49),3	370,(6, 67),3	373,(6, 21),6	379,(6, 31),3	382,(6, 16),39	421,(6, 30),6	427,(6, 39),9	436,(6, 40),9	445,(6, 26),9	454,(6, 32),6	460,(6, 35),30	490,(6, 43),6	496,(6, 71),3	499,(6, 89),3	502,(6, 53),18	520,(6, 63),6	526,(6, 73),6	532,(6, 19),30	562,(6, 50),9	571,(6, 70),3	574,(6, 109),3	577,(6, 22),36	613,(6, 45),57	670,(6, 72),9	679,(6, 44),12	691,(6, 52),12	703,(6, 77),6	709,(6, 82),3	712,(6, 54),9	721,(6, 90),3	724,(6, 36),33	757,(6, 41),33	790,(6, 51),33	823,(6, 56),39	862,(6, 64),45	907,(6, 91),6	913,(6, 101),6	919,(6, 104),3	922,(6, 113),3	925,(6, 59),12	937,(6, 65),12	949,(6, 79),6	955,(6, 81),30	985,(6, 83),6	991,(6, 117),3	994,(6, 76),12	1006,(6, 96),3	1009,(6, 106),6	1015,(6, 93),6	1021,(6, 99),18	1039,(6, 37),114	1153,(6, 62),51	1204,(6, 100),3	1207,(6, 115),12	1219,(6, 119),3	1222,(6, 102),12	1240,(6, 103),9	1306,(6, 33),90	1396,(6, 66),120	1516,(6, 74),27	1543,(6, 94),27	1570,(6, 112),15	1633,(6, 111),21	1669,(6, 69),57	1744,(6, 60),120	1864,(6, 87),75	1939,(6, 84),57	2008,(6, 86),78	2086,(6, 105),18	2155,(6, 55),192	2347,(6, 57),150	2497,(6, 61),153	2650,(6, 92),57	2707,(6, 107),66	2809,(6, 110),111	2920,(6, 114),102	3070,(6, 116),81	3436,(6, 42),201	3682,(6, 80),180	3922,(6, 120),69	4057,(6, 97),315	5401,(6, 85),564	6487,(18, 121),6	7666,(28, 121),6	8125,(38, 121),6	8248,(48, 121),6	9853,(78, 121),6	10159,(88, 121),6	10393,(98, 121),6	10834,(108, 121),6	11245,(118, 121),6	13126,(58, 121),6	13795,(68, 121),6	
202,(5, 13),24	226,(5, 23),3	229,(5, 24),3	232,(5, 15),6	238,(5, 14),18	256,(5, 16),60	316,(5, 25),3	319,(5, 26),21	340,(5, 36),3	343,(5, 40),3	346,(5, 29),9	355,(5, 34),9	364,(5, 41),3	367,(5, 43),3	370,(5, 45),3	373,(5, 46),9	382,(5, 53),3	385,(5, 20),21	406,(5, 50),9	415,(5, 69),6	421,(5, 18),12	433,(5, 31),21	454,(5, 44),48	502,(5, 55),9	511,(5, 52),12	523,(5, 82),3	526,(5, 30),24	550,(5, 42),27	577,(5, 21),30	607,(5, 51),39	646,(5, 60),27	673,(5, 61),33	706,(5, 76),3	709,(5, 84),3	712,(5, 48),3	715,(5, 58),3	718,(5, 68),3	721,(5, 86),3	724,(5, 91),3	727,(5, 19),198	925,(5, 28),66	991,(5, 49),30	1021,(5, 63),18	1039,(5, 89),3	1042,(5, 35),132	1174,(5, 65),21	1195,(5, 88),6	1201,(5, 96),3	1204,(5, 98),3	1207,(5, 120),3	1210,(5, 56),60	1270,(5, 73),33	1303,(5, 103),3	1306,(5, 72),12	1318,(5, 116),3	1321,(5, 119),6	1327,(5, 54),78	1405,(5, 70),30	1438,(5, 38),78	1516,(5, 59),81	1597,(5, 64),27	1624,(5, 94),3	1627,(5, 114),3	1636,(5, 62),48	1684,(5, 78),24	1711,(5, 66),144	1855,(5, 74),51	1906,(5, 80),18	1924,(5, 90),21	1945,(5, 100),21	1966,(5, 102),18	1984,(5, 105),12	1996,(5, 106),12	2011,(5, 71),57	2068,(5, 81),15	2083,(5, 83),15	2098,(5, 101),9	2113,(5, 104),72	2185,(5, 110),21	2209,(5, 93),93	2302,(5, 113),15	2326,(5, 22),162	2488,(5, 32),132	2620,(5, 39),150	2770,(5, 95),93	2863,(5, 108),36	2899,(5, 118),15	2920,(5, 109),24	2944,(5, 112),33	2980,(5, 115),27	3025,(5, 92),150	3220,(5, 33),246	3466,(5, 111),81	3679,(5, 79),174	4303,(5, 75),519	4822,(5, 85),579	5401,(5, 99),315	6454,(17, 121),6	6706,(27, 121),6	8107,(37, 121),6	8242,(47, 121),6	8329,(57, 121),6	9208,(67, 121),6	9838,(77, 121),6	10153,(87, 121),6	10306,(97, 121),6	10813,(107, 121),6	11239,(117, 121),6	
160,(4, 13),3	163,(4, 15),27	190,(4, 25),3	193,(4, 34),27	220,(4, 35),3	223,(4, 44),3	226,(4, 45),6	232,(4, 17),3	235,(4, 27),15	250,(4, 37),9	259,(4, 47),18	277,(4, 53),12	289,(4, 55),3	292,(4, 19),3	295,(4, 29),6	301,(4, 39),3	304,(4, 57),6	310,(4, 20),3	313,(4, 30),9	322,(4, 40),6	328,(4, 50),3	331,(4, 60),6	337,(4, 21),3	340,(4, 41),24	364,(4, 59),3	367,(4, 61),6	373,(4, 63),3	376,(4, 64),3	379,(4, 22),3	382,(4, 32),3	385,(4, 49),24	409,(4, 62),9	418,(4, 18),3	421,(4, 33),48	469,(4, 67),9	478,(4, 69),9	487,(4, 72),3	490,(4, 48),3	493,(4, 75),3	496,(4, 83),6	502,(4, 70),24	526,(4, 89),3	529,(4, 28),45	574,(4, 80),12	586,(4, 14),93	679,(4, 23),243	922,(4, 24),96	1018,(4, 42),30	1048,(4, 92),3	1051,(4, 94),3	1054,(4, 31),48	1102,(4, 43),78	1180,(4, 77),15	1195,(4, 81),9	1204,(4, 82),15	1219,(4, 54),36	1255,(4, 101),3	1258,(4, 102),3	1261,(4, 71),42	1303,(4, 85),9	1312,(4, 97),3	1315,(4, 108),3	1318,(4, 51),111	1429,(4, 74),21	1450,(4, 87),12	1462,(4, 99),12	1474,(4, 109),3	1477,(4, 113),3	1480,(4, 52),84	1564,(4, 110),3	1567,(4, 117),3	1570,(4, 73),66	1636,(4, 79),33	1669,(4, 84),33	1702,(4, 90),42	1744,(4, 104),18	1762,(4, 119),6	1768,(4, 65),135	1903,(4, 88),39	1942,(4, 95),15	1957,(4, 105),9	1966,(4, 120),3	1972,(4, 103),66	2038,(4, 78),93	2131,(4, 93),78	2209,(4, 112),12	2221,(4, 114),12	2236,(4, 91),57	2293,(4, 107),45	2338,(4, 111),15	2353,(4, 115),27	2419,(4, 68),228	2647,(4, 118),30	3292,(4, 98),327	4249,(4, 100),711	5413,(4, 38),522	6694,(26, 121),6	7279,(16, 121),6	8062,(36, 121),6	8221,(46, 121),6	8323,(56, 121),6	9199,(66, 121),6	9832,(76, 121),6	10147,(86, 121),6	10294,(96, 121),6	10804,(106, 121),6	11137,(116, 121),6	11209,(4, 58),1884	
127,(3, 13),3	130,(3, 14),45	175,(3, 16),18	193,(3, 23),3	196,(3, 26),15	211,(3, 17),3	214,(3, 27),18	232,(3, 33),3	235,(3, 34),3	238,(3, 36),12	250,(3, 43),3	253,(3, 19),3	256,(3, 29),9	265,(3, 39),27	292,(3, 67),3	295,(3, 20),9	304,(3, 30),6	310,(3, 44),9	319,(3, 47),6	325,(3, 18),93	418,(3, 21),3	421,(3, 22),33	454,(3, 31),6	460,(3, 32),15	475,(3, 41),12	487,(3, 38),3	490,(3, 50),12	502,(3, 51),3	505,(3, 59),6	511,(3, 76),3	514,(3, 24),72	586,(3, 58),3	589,(3, 60),6	595,(3, 77),3	598,(3, 79),3	601,(3, 28),111	712,(3, 37),180	892,(3, 42),18	910,(3, 46),84	994,(3, 53),21	1015,(3, 66),6	1021,(3, 48),39	1060,(3, 49),48	1108,(3, 84),3	1111,(3, 52),36	1147,(3, 56),36	1183,(3, 61),9	1192,(3, 80),3	1195,(3, 54),24	1219,(3, 82),3	1222,(3, 57),42	1264,(3, 64),15	1279,(3, 70),15	1294,(3, 62),12	1306,(3, 71),12	1318,(3, 40),87	1405,(3, 63),63	1468,(3, 72),12	1480,(3, 73),90	1570,(3, 74),15	1585,(3, 78),27	1612,(3, 86),3	1615,(3, 87),3	1618,(3, 89),3	1621,(3, 90),9	1630,(3, 91),3	1633,(3, 94),3	1636,(3, 98),6	1642,(3, 83),84	1726,(3, 88),27	1753,(3, 92),57	1810,(3, 93),54	1864,(3, 96),30	1894,(3, 99),3	1897,(3, 100),9	1906,(3, 102),15	1921,(3, 104),18	1939,(3, 103),33	1972,(3, 106),3	1975,(3, 108),6	1981,(3, 109),3	1984,(3, 110),6	1996,(3, 101),12	2008,(3, 111),3	2011,(3, 118),27	2038,(3, 119),39	2077,(3, 120),15	2095,(3, 107),51	2146,(3, 112),54	2206,(3, 69),309	2515,(3, 97),177	2692,(3, 116),171	2863,(3, 117),27	2947,(3, 113),273	3220,(3, 114),90	4222,(3, 68),1191	6685,(25, 121),6	8056,(35, 121),6	8215,(45, 121),6	8317,(55, 121),6	9193,(65, 121),6	9664,(75, 121),6	10141,(85, 121),6	10240,(95, 121),6	10483,(105, 121),6	10846,(3, 81),1680	12526,(115, 121),6	12532,(15, 121),6	
76,(2, 13),18	94,(2, 15),3	97,(2, 23),9	106,(2, 25),6	112,(2, 33),6	118,(2, 43),3	121,(2, 63),6	127,(2, 16),15	142,(2, 36),3	145,(2, 45),12	157,(2, 46),3	160,(2, 56),6	166,(2, 66),3	169,(2, 17),3	172,(2, 37),33	205,(2, 57),3	208,(2, 77),3	211,(2, 18),114	325,(2, 19),21	346,(2, 20),39	385,(2, 21),3	388,(2, 22),3	391,(2, 27),51	442,(2, 29),3	445,(2, 30),12	457,(2, 28),30	487,(2, 31),3	490,(2, 32),3	493,(2, 38),36	529,(2, 39),3	532,(2, 41),45	577,(2, 48),3	580,(2, 49),9	589,(2, 26),117	706,(2, 35),231	937,(2, 42),33	970,(2, 47),15	985,(2, 51),15	1000,(2, 52),3	1003,(2, 58),18	1021,(2, 61),3	1024,(2, 65),6	1030,(2, 67),9	1039,(2, 85),3	1042,(2, 40),78	1120,(2, 50),69	1189,(2, 53),51	1240,(2, 55),48	1288,(2, 59),27	1315,(2, 60),3	1318,(2, 62),30	1348,(2, 68),90	1438,(2, 69),24	1462,(2, 70),21	1483,(2, 71),135	1618,(2, 72),18	1636,(2, 73),6	1642,(2, 76),18	1660,(2, 78),15	1675,(2, 80),24	1699,(2, 81),6	1705,(2, 86),3	1708,(2, 75),60	1768,(2, 79),111	1879,(2, 82),27	1906,(2, 83),33	1939,(2, 87),156	2095,(2, 89),15	2110,(2, 91),30	2140,(2, 92),6	2146,(2, 97),12	2158,(2, 99),3	2161,(2, 96),12	2173,(2, 101),6	2179,(2, 106),3	2182,(2, 107),3	2185,(2, 88),234	2419,(2, 90),213	2632,(2, 93),42	2674,(2, 95),51	2725,(2, 98),66	2791,(2, 100),18	2809,(2, 102),18	2827,(2, 103),90	2917,(2, 109),3	2920,(2, 110),6	2926,(2, 112),18	2944,(2, 113),3	2947,(2, 105),33	2980,(2, 111),33	3013,(2, 115),3	3016,(2, 116),3	3019,(2, 118),6	3025,(2, 119),18	3043,(12, 17),12	3055,(12, 18),3	3058,(12, 19),45	3103,(12, 20),6	3109,(12, 31),3	3112,(12, 39),3	3115,(12, 40),3	3118,(12, 50),3	3121,(12, 60),3	3124,(2, 108),168	3292,(2, 117),114	3406,(2, 120),93	3499,(12, 25),15	3514,(12, 27),3	3517,(12, 35),3	3520,(12, 37),3	3523,(12, 45),21	3544,(12, 100),3	3547,(12, 21),27	3574,(12, 29),21	3595,(12, 61),9	3604,(12, 89),3	3607,(12, 16),39	3646,(12, 46),6	3652,(12, 56),3	3655,(12, 13),12	3667,(12, 23),3	3670,(12, 33),3	3673,(12, 43),3	3676,(12, 47),15	3691,(12, 53),3	3694,(12, 22),30	3724,(12, 26),108	3832,(12, 32),30	3862,(12, 36),45	3907,(12, 42),27	3934,(12, 52),24	3958,(12, 55),21	3979,(12, 57),3	3982,(12, 66),3	3985,(12, 67),3	3988,(12, 76),3	3991,(12, 30),87	4078,(12, 62),18	4096,(12, 70),9	4105,(12, 71),12	4117,(12, 80),36	4153,(12, 81),9	4162,(12, 85),6	4168,(12, 86),3	4171,(12, 90),6	4177,(12, 105),6	4183,(12, 63),3	4186,(12, 49),27	4213,(12, 73),3	4216,(12, 99),3	4219,(12, 103),6	4225,(12, 106),18	4243,(12, 112),3	4246,(12, 59),210	4456,(12, 69),222	4678,(12, 77),3	4681,(12, 87),6	4687,(12, 107),6	4693,(12, 109),3	4696,(12, 117),9	4705,(12, 41),195	4900,(12, 51),336	5236,(12, 72),585	5821,(12, 79),36	5857,(12, 82),111	5968,(12, 91),60	6028,(12, 92),54	6082,(12, 116),3	6094,(12, 28),72	6166,(12, 38),3	6169,(12, 48),6	6175,(12, 78),3	6178,(12, 108),3	6181,(12, 119),12	6199,(12, 88),21	6220,(12, 98),6	6226,(12, 110),30	6256,(12, 118),3	6280,(12, 97),57	6337,(12, 111),27	6385,(12, 83),69	6454,(12, 58),186	6640,(12, 93),45	6685,(12, 101),78	6763,(12, 102),93	6856,(12, 113),51	6907,(12, 120),54	6961,(14, 121),6	6967,(24, 121),6	6973,(12, 75),141	7114,(12, 95),33	7147,(12, 115),36	7246,(12, 96),51	8050,(34, 121),6	8188,(44, 121),6	8284,(12, 65),546	8830,(54, 121),6	9187,(64, 121),6	9550,(74, 121),6	10135,(84, 121),6	10234,(94, 121),6	10465,(104, 121),6	11101,(12, 15),1239	12340,(114, 121),6	13093,(12, 68),669	
1,(0, 2),42	43,(0, 3),42	85,(0, 4),42	127,(0, 5),42	169,(0, 6),42	211,(0, 7),42	253,(0, 8),42	295,(0, 9),42	337,(0, 10),42	379,(0, 12),42	421,(1, 14),3	424,(1, 15),3	427,(1, 16),18	445,(1, 17),6	451,(1, 18),6	457,(1, 19),3	460,(1, 20),30	490,(1, 21),3	493,(1, 22),18	511,(1, 24),3	514,(1, 25),6	520,(1, 26),69	589,(1, 27),3	592,(1, 28),9	601,(1, 29),126	727,(1, 30),315	1042,(1, 31),12	1054,(1, 32),57	1111,(1, 34),84	1195,(1, 35),12	1207,(1, 36),3	1210,(1, 37),12	1222,(1, 38),24	1246,(1, 39),6	1252,(1, 40),6	1258,(1, 41),3	1261,(1, 42),33	1294,(1, 44),33	1327,(1, 45),381	1708,(1, 46),3	1711,(1, 47),132	1843,(1, 48),39	1882,(1, 49),3	1885,(1, 50),3	1888,(1, 51),108	1996,(1, 52),75	2071,(1, 54),42	2113,(1, 55),42	2155,(1, 56),6	2161,(1, 57),21	2182,(1, 58),3	2185,(1, 59),21	2206,(1, 60),3	2209,(1, 61),27	2236,(1, 62),90	2326,(1, 64),594	2920,(1, 65),27	2947,(1, 66),12	2959,(1, 67),36	2995,(1, 68),3	2998,(1, 69),12	3010,(1, 70),3	3013,(1, 71),9	3022,(1, 72),3	3025,(1, 74),3	3028,(1, 75),3	3031,(1, 76),39	3070,(1, 77),12	3082,(1, 78),42	3124,(1, 79),3	3127,(1, 80),216	3343,(1, 81),9	3352,(1, 82),84	3436,(1, 84),30	3466,(1, 85),30	3496,(1, 86),48	3544,(1, 87),81	3625,(1, 88),3	3628,(1, 89),51	3679,(1, 90),3	3682,(1, 91),9	3691,(1, 92),3	3694,(1, 94),135	3829,(1, 95),3	3832,(1, 96),3	3835,(1, 97),18	3853,(1, 98),27	3880,(1, 99),39	3919,(1, 100),3	3922,(1, 101),75	3997,(1, 102),9	4006,(1, 104),15	4021,(1, 105),3	4024,(1, 106),18	4042,(1, 107),15	4057,(1, 108),165	4222,(1, 109),24	4246,(1, 110),3	4249,(1, 111),18	4267,(1, 112),21	4288,(1, 114),6	4294,(1, 115),9	4303,(1, 116),1728	6031,(1, 117),150	6181,(1, 118),18	6199,(1, 119),3	6202,(1, 120),3	6205,(11, 14),9	6214,(11, 15),21	6235,(11, 16),6	6241,(11, 17),39	6280,(11, 18),174	6454,(11, 19),57	6511,(11, 20),3	6514,(11, 21),3	6517,(11, 22),3	6520,(11, 24),117	6637,(11, 25),3	6640,(11, 26),21	6661,(11, 27),12	6673,(11, 28),33	6706,(11, 29),117	6823,(11, 30),48	6871,(11, 31),6	6877,(11, 32),1125	8002,(11, 34),15	8017,(11, 35),3	8020,(11, 36),3	8023,(11, 37),51	8074,(11, 38),18	8092,(11, 39),12	8104,(11, 40),9	8113,(11, 41),30	8143,(11, 42),3	8146,(11, 44),3	8149,(11, 45),33	8182,(11, 46),6	8188,(11, 47),21	8209,(11, 48),3	8212,(11, 49),3	8215,(11, 50),18	8233,(11, 51),21	8254,(11, 52),3	8257,(11, 54),18	8275,(11, 55),9	8284,(11, 56),3	8287,(11, 57),3	8290,(11, 58),93	8383,(11, 59),6	8389,(11, 60),36	8425,(11, 61),6	8431,(11, 62),189	8620,(11, 64),534	9154,(11, 65),3	9157,(11, 66),3	9160,(11, 67),15	9175,(11, 68),108	9283,(11, 69),6	9289,(11, 70),3	9292,(11, 71),3	9295,(11, 72),18	9313,(11, 74),204	9517,(11, 75),114	9631,(11, 76),168	9799,(11, 77),3	9802,(11, 78),18	9820,(11, 79),96	9916,(11, 80),3	9919,(11, 81),36	9955,(11, 82),141	10096,(11, 84),6	10102,(11, 85),3	10105,(11, 86),6	10111,(11, 87),6	10117,(11, 88),6	10123,(11, 89),3	10126,(11, 90),21	10147,(11, 91),42	10189,(11, 92),3	10192,(11, 94),3	10195,(11, 95),6	10201,(11, 96),60	10261,(11, 97),12	10273,(11, 98),87	10360,(11, 99),3	10363,(11, 100),6	10369,(11, 101),9	10378,(11, 102),48	10426,(11, 104),3	10429,(11, 105),21	10450,(11, 106),321	10771,(11, 107),9	10780,(11, 108),21	10801,(11, 109),3	10804,(11, 110),36	10840,(11, 111),6	10846,(11, 112),3	10849,(11, 114),249	11098,(11, 115),3	11101,(11, 116),3	11104,(11, 117),102	11206,(11, 118),3	11209,(11, 119),42	11251,(11, 120),45	
