1064
# CPU
0,121,1	1,40,6	7,87,6	13,103,6	19,96,6	25,63,6	31,59,6	37,48,6	43,50,6	49,94,6	55,81,6	61,114,6	67,17,6	73,76,6	79,46,6	85,77,6	91,49,6	97,82,6	103,113,6	109,109,6	115,72,6	121,93,6	127,16,6	133,36,6	139,13,6	145,61,6	151,57,6	157,70,6	163,18,6	169,111,6	175,104,6	181,88,6	187,33,6	193,92,6	199,54,6	205,39,6	211,120,6	217,15,6	223,47,6	229,85,6	235,51,6	241,68,6	247,115,6	253,98,6	259,106,6	265,23,6	271,65,6	277,83,6	283,97,6	289,55,6	295,31,6	301,107,6	307,45,6	313,60,6	319,53,6	325,20,6	331,29,6	337,110,6	343,116,6	349,112,6	355,34,6	361,21,6	367,62,6	373,99,6	379,73,6	385,56,6	391,105,6	397,100,6	403,32,6	409,80,6	415,119,6	421,101,6	427,26,6	433,71,6	439,108,6	445,90,6	451,19,6	457,74,6	463,44,6	469,30,6	475,67,6	481,91,6	487,64,6	493,117,6	499,66,6	505,69,6	511,89,6	517,79,6	523,4,6	529,37,6	535,102,6	541,12,6	547,42,6	553,5,6	559,1,6	565,8,6	571,2,6	577,9,6	583,10,6	589,11,6	595,7,6	742,3,6	1057,6,6	1063,0,1	
151,41,6	271,95,6	391,78,6	541,35,6	
31,28,6	61,24,6	181,58,6	361,14,6	
91,22,6	331,25,6	
121,38,6	211,27,6	241,75,6	301,86,6	421,43,6	451,84,6	481,52,6	511,118,6	
# Incoming
247,(75, 1),3	250,(75, 8),12	262,(27, 2),9	271,(38, 9),3	274,(22, 3),3	277,(95, 2),15	292,(41, 7),6	298,(95, 7),6	307,(86, 7),18	337,(25, 3),27	367,(14, 9),33	400,(78, 10),39	439,(28, 11),3	442,(58, 11),6	448,(24, 7),3	457,(84, 11),54	511,(84, 7),6	517,(52, 7),69	586,(43, 3),45	631,(118, 3),111	742,(35, 6),315	
121,(121, 41),30	241,(121, 95),30	361,(121, 78),30	511,(121, 35),30	
1,(121, 28),30	31,(121, 24),30	151,(121, 58),30	331,(121, 14),30	
61,(121, 22),30	301,(121, 25),30	
91,(121, 38),30	181,(121, 27),30	211,(121, 75),30	271,(121, 86),30	391,(121, 43),30	421,(121, 84),30	451,(121, 52),30	481,(121, 118),30	
# Outgoing
1,(121, 28),30	31,(121, 24),30	61,(121, 22),30	91,(121, 38),30	121,(121, 41),30	151,(121, 58),30	181,(121, 27),30	211,(121, 75),30	241,(121, 95),30	271,(121, 86),30	301,(121, 25),30	331,(121, 14),30	361,(121, 78),30	391,(121, 43),30	421,(121, 84),30	451,(121, 52),30	481,(121, 118),30	511,(121, 35),30	
277,(95, 2),15	292,(41, 7),6	298,(95, 7),6	400,(78, 10),39	742,(35, 6),315	
367,(14, 9),33	439,(28, 11),3	442,(58, 11),6	448,(24, 7),3	
274,(22, 3),3	337,(25, 3),27	
247,(75, 1),3	250,(75, 8),12	262,(27, 2),9	271,(38, 9),3	307,(86, 7),18	457,(84, 11),54	511,(84, 7),6	517,(52, 7),69	586,(43, 3),45	631,(118, 3),111	
