202
# CPU
0,21,1	1,15,10	11,19,10	21,5,10	31,11,10	41,14,10	51,16,10	61,4,10	71,6,10	81,10,10	91,13,10	101,8,10	111,18,10	121,3,10	131,20,10	141,17,10	151,7,10	161,12,10	171,2,10	181,9,10	191,1,10	201,0,1	
# Incoming

# Outgoing

