716
# CPU
57,16,10	93,20,10	103,21,10	113,22,10	251,26,10	341,28,10	351,30,10	361,31,10	371,33,10	401,18,10	411,19,10	421,23,10	445,32,10	455,34,10	481,6,10	491,8,10	501,10,10	511,11,10	521,13,10	531,29,10	541,35,10	551,37,10	561,39,10	571,5,10	581,7,10	605,9,10	615,12,10	625,14,10	635,15,10	645,17,10	655,24,10	665,25,10	675,27,10	685,36,10	695,38,10	705,40,10	715,41,1	
0,0,1	1,1,10	
5,2,10	
9,3,10	
13,4,10	





# Incoming
13,(1, 15),18	31,(1, 16),26	57,(1, 20),36	93,(1, 21),4	97,(1, 22),2	99,(1, 24),32	131,(1, 25),118	249,(1, 26),2	251,(1, 28),90	341,(1, 30),2	343,(1, 31),4	347,(1, 33),4	351,(1, 34),8	359,(2, 9),14	373,(2, 10),2	375,(2, 18),26	401,(2, 19),6	407,(2, 23),6	413,(2, 25),6	419,(2, 32),26	445,(2, 34),6	451,(2, 38),8	459,(3, 5),20	479,(3, 6),2	481,(3, 8),4	485,(3, 10),6	491,(3, 11),2	493,(3, 13),2	495,(3, 17),2	497,(3, 27),2	499,(3, 29),4	503,(3, 35),18	521,(3, 37),4	525,(3, 39),2	527,(4, 5),2	529,(4, 7),12	541,(4, 9),64	605,(4, 12),4	609,(4, 14),2	611,(4, 15),4	615,(4, 17),2	617,(4, 24),4	621,(4, 25),12	633,(4, 27),2	635,(4, 36),20	655,(4, 38),8	663,(4, 40),2	

1,(0, 2),4	
5,(0, 3),4	
9,(0, 4),4	





# Outgoing

1,(0, 2),4	5,(0, 3),4	9,(0, 4),4	13,(1, 15),18	31,(1, 16),26	57,(1, 20),36	93,(1, 21),4	97,(1, 22),2	99,(1, 24),32	131,(1, 25),118	249,(1, 26),2	251,(1, 28),90	341,(1, 30),2	343,(1, 31),4	347,(1, 33),4	351,(1, 34),8	
359,(2, 9),14	373,(2, 10),2	375,(2, 18),26	401,(2, 19),6	407,(2, 23),6	413,(2, 25),6	419,(2, 32),26	445,(2, 34),6	451,(2, 38),8	
459,(3, 5),20	479,(3, 6),2	481,(3, 8),4	485,(3, 10),6	491,(3, 11),2	493,(3, 13),2	495,(3, 17),2	497,(3, 27),2	499,(3, 29),4	503,(3, 35),18	521,(3, 37),4	525,(3, 39),2	
527,(4, 5),2	529,(4, 7),12	541,(4, 9),64	605,(4, 12),4	609,(4, 14),2	611,(4, 15),4	615,(4, 17),2	617,(4, 24),4	621,(4, 25),12	633,(4, 27),2	635,(4, 36),20	655,(4, 38),8	663,(4, 40),2	





