7385
# CPU
13,5,22	35,10,22	57,70,22	169,92,22	700,19,22	722,21,22	745,41,22	787,63,22	809,86,22	831,53,22	853,58,22	875,77,22	897,95,22	919,107,22	1324,120,22	1438,80,22	1681,37,22	1703,67,22	1725,98,22	1747,33,22	1769,18,22	1791,83,22	1813,101,22	1835,110,22	1857,117,22	1879,27,22	1901,89,22	1923,30,22	1945,45,22	1967,73,22	1989,104,22	2275,49,22	2347,113,22	
10,4,22	32,9,22	67,111,22	89,17,22	172,34,22	637,102,22	694,78,22	823,74,22	845,50,22	867,96,22	919,115,22	1003,64,22	1036,108,22	1285,59,22	1307,84,22	1329,90,22	1351,24,22	1373,28,22	1395,105,22	1423,118,22	1522,42,22	1544,46,22	1567,55,22	1645,68,22	1667,81,22	1723,99,22	1747,31,22	2092,38,22	2185,71,22	2278,87,22	2329,93,22	
7,3,22	29,8,22	94,25,22	118,44,22	226,100,22	745,88,22	805,91,22	827,32,22	849,29,22	880,75,22	902,82,22	924,94,22	973,116,22	995,20,22	1017,36,22	1039,62,22	1061,103,22	1083,79,22	1444,15,22	1466,40,22	1488,69,22	1510,109,22	1532,112,22	1555,48,22	1577,57,22	1660,72,22	1682,85,22	1704,52,22	1783,66,22	1846,97,22	1933,119,22	2335,106,22	7384,121,1	
4,2,22	26,7,22	48,35,22	70,12,22	92,76,22	694,61,22	724,51,22	817,16,22	839,22,22	1120,56,22	1228,23,22	1270,47,22	1474,39,22	1594,65,22	3454,43,22	
0,0,1	1,11,22	23,1,22	45,6,22	688,14,22	710,13,22	732,60,22	2092,54,22	2980,26,22	6874,114,22	
# Incoming
10,(0, 5),3	22,(0, 10),3	26,(2, 21),9	52,(2, 30),9	151,(2, 92),18	169,(7, 27),3	172,(7, 86),3	175,(11, 45),63	238,(2, 49),183	421,(3, 37),12	433,(3, 41),216	649,(3, 45),9	658,(3, 95),3	661,(8, 63),6	682,(7, 89),3	688,(4, 19),12	700,(4, 21),9	709,(7, 107),3	712,(12, 33),3	715,(12, 41),3	718,(4, 41),27	745,(12, 53),39	784,(12, 63),3	787,(12, 86),3	790,(4, 53),9	799,(4, 58),3	802,(4, 77),3	805,(11, 95),6	811,(3, 107),18	832,(11, 107),33	865,(3, 104),48	913,(12, 80),6	919,(11, 117),9	928,(11, 120),396	1324,(3, 80),114	1438,(4, 18),129	1567,(4, 101),108	1675,(1, 37),6	1681,(1, 67),15	1696,(1, 98),3	1699,(8, 33),15	1714,(9, 18),6	1720,(9, 83),3	1723,(1, 101),3	1726,(1, 110),3	1729,(1, 117),6	1735,(8, 27),30	1765,(9, 89),21	1786,(6, 30),9	1795,(6, 45),39	1834,(6, 73),3	1846,(6, 104),81	2092,(12, 49),183	2335,(12, 113),12	
7,(0, 4),3	19,(0, 9),3	28,(11, 17),12	40,(2, 24),12	58,(11, 24),3	61,(2, 46),3	64,(2, 111),3	67,(7, 17),3	70,(11, 28),6	76,(11, 31),3	79,(11, 34),93	172,(11, 42),3	175,(2, 64),42	238,(11, 64),63	301,(3, 24),27	328,(3, 50),21	379,(3, 78),27	406,(3, 118),3	409,(8, 84),3	412,(8, 108),9	421,(2, 74),39	493,(2, 102),144	661,(7, 50),3	670,(11, 78),24	694,(3, 64),105	799,(5, 42),21	820,(5, 74),3	823,(12, 50),3	826,(11, 105),6	832,(8, 96),12	844,(8, 99),12	865,(11, 115),54	958,(5, 64),45	1012,(5, 108),24	1036,(10, 31),27	1063,(10, 46),18	1081,(10, 55),36	1270,(10, 59),15	1285,(10, 84),15	1300,(10, 90),24	1324,(1, 24),9	1333,(1, 28),21	1354,(10, 93),30	1384,(10, 105),6	1390,(10, 118),33	1474,(1, 42),48	1522,(1, 46),6	1555,(1, 55),12	1594,(1, 68),51	1660,(1, 81),6	1699,(1, 99),24	1735,(6, 31),12	1771,(10, 71),279	2050,(6, 38),42	2092,(6, 71),93	2185,(6, 87),93	2278,(12, 93),51	
4,(0, 3),3	16,(0, 8),3	40,(11, 20),18	61,(11, 25),9	70,(2, 25),24	94,(2, 44),24	118,(2, 62),33	217,(2, 100),9	226,(7, 40),12	460,(2, 75),33	637,(2, 112),24	664,(7, 66),18	685,(7, 91),3	688,(12, 36),3	691,(5, 32),3	694,(11, 79),9	703,(11, 88),42	745,(11, 91),60	805,(4, 32),6	811,(11, 97),15	826,(4, 52),6	832,(5, 29),12	844,(35, 121),30	874,(12, 75),6	880,(4, 82),6	886,(4, 94),21	907,(4, 116),66	973,(9, 20),6	979,(9, 36),3	982,(9, 62),12	994,(9, 69),6	1000,(9, 103),3	1003,(5, 72),6	1009,(5, 79),3	1012,(7, 15),39	1051,(9, 85),369	1420,(9, 106),3	1423,(10, 15),21	1444,(10, 40),3	1447,(10, 66),3	1450,(10, 69),21	1471,(10, 109),36	1507,(10, 112),15	1528,(1, 48),27	1567,(1, 57),9	1645,(1, 72),15	1666,(1, 85),3	1669,(6, 52),3	1675,(111, 121),30	1747,(6, 66),36	1786,(17, 121),30	1837,(6, 97),9	1846,(34, 121),30	1876,(102, 121),30	1927,(6, 119),6	1933,(14, 121),30	1963,(78, 121),30	1993,(13, 121),30	2050,(10, 106),93	2143,(70, 121),30	2173,(92, 121),30	2203,(19, 121),30	2233,(21, 121),30	2278,(60, 121),30	2329,(12, 106),6	2347,(76, 121),30	2377,(61, 121),30	2407,(51, 121),30	2437,(41, 121),30	2467,(63, 121),30	2497,(86, 121),30	2527,(16, 121),30	2557,(53, 121),30	2587,(22, 121),30	2617,(58, 121),30	2647,(77, 121),30	2677,(95, 121),30	2707,(107, 121),30	2737,(56, 121),30	2767,(23, 121),30	2797,(47, 121),30	2827,(120, 121),30	2857,(80, 121),30	2887,(39, 121),30	2917,(65, 121),30	2947,(37, 121),30	2977,(54, 121),30	3007,(26, 121),30	3454,(74, 121),30	3484,(50, 121),30	3514,(96, 121),30	3544,(115, 121),30	3574,(64, 121),30	3604,(108, 121),30	3634,(59, 121),30	3664,(84, 121),30	3694,(90, 121),30	3724,(24, 121),30	3754,(28, 121),30	3784,(105, 121),30	3814,(118, 121),30	3844,(42, 121),30	3874,(46, 121),30	3904,(55, 121),30	3934,(68, 121),30	3964,(81, 121),30	3994,(99, 121),30	4024,(31, 121),30	4054,(38, 121),30	4084,(71, 121),30	4114,(87, 121),30	4144,(93, 121),30	4174,(43, 121),30	6874,(67, 121),30	6904,(98, 121),30	6934,(33, 121),30	6964,(18, 121),30	6994,(83, 121),30	7024,(101, 121),30	7054,(110, 121),30	7084,(117, 121),30	7114,(27, 121),30	7144,(89, 121),30	7174,(30, 121),30	7204,(45, 121),30	7234,(73, 121),30	7264,(104, 121),30	7294,(49, 121),30	7324,(113, 121),30	7354,(114, 121),30	
1,(0, 2),3	13,(0, 7),3	25,(0, 12),3	301,(11, 65),369	670,(3, 43),3	673,(3, 47),15	688,(3, 61),6	709,(4, 39),9	718,(10, 51),6	745,(4, 43),45	811,(9, 16),6	817,(9, 22),6	844,(5, 39),114	958,(8, 56),162	1120,(10, 23),108	1228,(10, 47),42	1354,(1, 39),120	1576,(1, 65),18	1594,(10, 43),177	2980,(9, 43),474	
349,(3, 54),30	379,(4, 14),309	688,(5, 13),3	694,(5, 54),9	703,(5, 60),9	832,(4, 54),48	1051,(7, 54),1041	2092,(9, 26),888	2980,(10, 114),3894	
# Outgoing
688,(5, 13),3	691,(5, 32),3	694,(5, 54),9	703,(5, 60),9	718,(10, 51),6	799,(5, 42),21	820,(5, 74),3	832,(5, 29),12	844,(5, 39),114	958,(5, 64),45	1003,(5, 72),6	1009,(5, 79),3	1012,(5, 108),24	1036,(10, 31),27	1063,(10, 46),18	1081,(10, 55),36	1120,(10, 23),108	1228,(10, 47),42	1270,(10, 59),15	1285,(10, 84),15	1300,(10, 90),24	1354,(10, 93),30	1384,(10, 105),6	1390,(10, 118),33	1423,(10, 15),21	1444,(10, 40),3	1447,(10, 66),3	1450,(10, 69),21	1471,(10, 109),36	1507,(10, 112),15	1594,(10, 43),177	1771,(10, 71),279	2050,(10, 106),93	2143,(70, 121),30	2173,(92, 121),30	2203,(19, 121),30	2233,(21, 121),30	2437,(41, 121),30	2467,(63, 121),30	2497,(86, 121),30	2557,(53, 121),30	2617,(58, 121),30	2647,(77, 121),30	2677,(95, 121),30	2707,(107, 121),30	2827,(120, 121),30	2857,(80, 121),30	2947,(37, 121),30	2980,(10, 114),3894	6874,(67, 121),30	6904,(98, 121),30	6934,(33, 121),30	6964,(18, 121),30	6994,(83, 121),30	7024,(101, 121),30	7054,(110, 121),30	7084,(117, 121),30	7114,(27, 121),30	7144,(89, 121),30	7174,(30, 121),30	7204,(45, 121),30	7234,(73, 121),30	7264,(104, 121),30	7294,(49, 121),30	7324,(113, 121),30	
379,(4, 14),309	688,(4, 19),12	700,(4, 21),9	709,(4, 39),9	718,(4, 41),27	745,(4, 43),45	790,(4, 53),9	799,(4, 58),3	802,(4, 77),3	805,(4, 32),6	811,(9, 16),6	817,(9, 22),6	826,(4, 52),6	832,(4, 54),48	880,(4, 82),6	886,(4, 94),21	907,(4, 116),66	973,(9, 20),6	979,(9, 36),3	982,(9, 62),12	994,(9, 69),6	1000,(9, 103),3	1051,(9, 85),369	1420,(9, 106),3	1438,(4, 18),129	1567,(4, 101),108	1675,(111, 121),30	1714,(9, 18),6	1720,(9, 83),3	1765,(9, 89),21	1786,(17, 121),30	1846,(34, 121),30	1876,(102, 121),30	1963,(78, 121),30	2092,(9, 26),888	2980,(9, 43),474	3454,(74, 121),30	3484,(50, 121),30	3514,(96, 121),30	3544,(115, 121),30	3574,(64, 121),30	3604,(108, 121),30	3634,(59, 121),30	3664,(84, 121),30	3694,(90, 121),30	3724,(24, 121),30	3754,(28, 121),30	3784,(105, 121),30	3814,(118, 121),30	3844,(42, 121),30	3874,(46, 121),30	3904,(55, 121),30	3934,(68, 121),30	3964,(81, 121),30	3994,(99, 121),30	4024,(31, 121),30	4054,(38, 121),30	4084,(71, 121),30	4114,(87, 121),30	4144,(93, 121),30	
301,(3, 24),27	328,(3, 50),21	349,(3, 54),30	379,(3, 78),27	406,(3, 118),3	409,(8, 84),3	412,(8, 108),9	421,(3, 37),12	433,(3, 41),216	649,(3, 45),9	658,(3, 95),3	661,(8, 63),6	670,(3, 43),3	673,(3, 47),15	688,(3, 61),6	694,(3, 64),105	811,(3, 107),18	832,(8, 96),12	844,(8, 99),12	865,(3, 104),48	958,(8, 56),162	1324,(3, 80),114	1699,(8, 33),15	1735,(8, 27),30	
26,(2, 21),9	40,(2, 24),12	52,(2, 30),9	61,(2, 46),3	64,(2, 111),3	67,(7, 17),3	70,(2, 25),24	94,(2, 44),24	118,(2, 62),33	151,(2, 92),18	169,(7, 27),3	172,(7, 86),3	175,(2, 64),42	217,(2, 100),9	226,(7, 40),12	238,(2, 49),183	421,(2, 74),39	460,(2, 75),33	493,(2, 102),144	637,(2, 112),24	661,(7, 50),3	664,(7, 66),18	682,(7, 89),3	685,(7, 91),3	688,(12, 36),3	709,(7, 107),3	712,(12, 33),3	715,(12, 41),3	745,(12, 53),39	784,(12, 63),3	787,(12, 86),3	823,(12, 50),3	844,(35, 121),30	874,(12, 75),6	913,(12, 80),6	1012,(7, 15),39	1051,(7, 54),1041	2092,(12, 49),183	2278,(12, 93),51	2329,(12, 106),6	2335,(12, 113),12	2347,(76, 121),30	2377,(61, 121),30	2407,(51, 121),30	2527,(16, 121),30	2587,(22, 121),30	2737,(56, 121),30	2767,(23, 121),30	2797,(47, 121),30	2887,(39, 121),30	2917,(65, 121),30	4174,(43, 121),30	
1,(0, 2),3	4,(0, 3),3	7,(0, 4),3	10,(0, 5),3	13,(0, 7),3	16,(0, 8),3	19,(0, 9),3	22,(0, 10),3	25,(0, 12),3	28,(11, 17),12	40,(11, 20),18	58,(11, 24),3	61,(11, 25),9	70,(11, 28),6	76,(11, 31),3	79,(11, 34),93	172,(11, 42),3	175,(11, 45),63	238,(11, 64),63	301,(11, 65),369	670,(11, 78),24	694,(11, 79),9	703,(11, 88),42	745,(11, 91),60	805,(11, 95),6	811,(11, 97),15	826,(11, 105),6	832,(11, 107),33	865,(11, 115),54	919,(11, 117),9	928,(11, 120),396	1324,(1, 24),9	1333,(1, 28),21	1354,(1, 39),120	1474,(1, 42),48	1522,(1, 46),6	1528,(1, 48),27	1555,(1, 55),12	1567,(1, 57),9	1576,(1, 65),18	1594,(1, 68),51	1645,(1, 72),15	1660,(1, 81),6	1666,(1, 85),3	1669,(6, 52),3	1675,(1, 37),6	1681,(1, 67),15	1696,(1, 98),3	1699,(1, 99),24	1723,(1, 101),3	1726,(1, 110),3	1729,(1, 117),6	1735,(6, 31),12	1747,(6, 66),36	1786,(6, 30),9	1795,(6, 45),39	1834,(6, 73),3	1837,(6, 97),9	1846,(6, 104),81	1927,(6, 119),6	1933,(14, 121),30	1993,(13, 121),30	2050,(6, 38),42	2092,(6, 71),93	2185,(6, 87),93	2278,(60, 121),30	2977,(54, 121),30	3007,(26, 121),30	7354,(114, 121),30	
