4568
# CPU
37,5,1	73,10,1	74,40,1	100,160,1	109,15,1	127,165,1	145,20,1	220,45,1	340,120,1	403,135,1	457,105,1	469,130,1	478,190,1	565,150,1	577,90,1	670,155,1	673,75,1	691,85,1	694,195,1	733,145,1	736,35,1	823,185,1	850,115,1	856,25,1	862,70,1	922,50,1	940,140,1	961,170,1	979,180,1	1072,30,1	1195,60,1	1705,55,1	1969,80,1	2194,175,1	2350,95,1	2413,100,1	2488,65,1	2521,110,1	2872,125,1	2953,200,1	
28,4,1	40,74,1	43,84,1	64,9,1	65,199,1	100,14,1	101,129,1	102,179,1	136,19,1	137,24,1	138,29,1	139,194,1	140,114,1	298,89,1	349,109,1	406,94,1	466,189,1	472,54,1	478,64,1	481,44,1	580,34,1	610,104,1	637,99,1	640,184,1	694,134,1	739,164,1	946,49,1	955,124,1	979,59,1	1036,139,1	1084,69,1	1129,154,1	1150,144,1	1165,159,1	1174,169,1	1177,119,1	1339,39,1	1372,149,1	1465,79,1	2983,174,1	
19,3,1	55,8,1	58,28,1	73,83,1	91,13,1	103,183,1	106,193,1	127,18,1	128,78,1	129,113,1	175,63,1	220,33,1	301,98,1	340,43,1	466,128,1	472,143,1	565,88,1	577,38,1	640,108,1	724,148,1	727,163,1	850,188,1	925,93,1	943,198,1	946,133,1	958,138,1	979,153,1	1000,48,1	1003,178,1	1030,23,1	1072,68,1	1093,58,1	1111,168,1	1144,123,1	1177,173,1	1243,103,1	1321,118,1	1384,53,1	1402,73,1	1480,158,1	
10,2,1	11,87,1	46,7,1	47,57,1	48,77,1	49,142,1	82,12,1	83,22,1	94,147,1	106,52,1	109,122,1	118,17,1	119,62,1	120,127,1	121,157,1	157,32,1	184,172,1	220,177,1	238,167,1	262,152,1	322,182,1	424,27,1	475,37,1	481,117,1	490,67,1	496,82,1	511,162,1	691,92,1	763,197,1	775,107,1	835,112,1	841,137,1	853,192,1	859,42,1	898,187,1	901,47,1	955,97,1	1090,72,1	1123,102,1	1174,132,1	
0,0,1	1,11,1	2,1,1	3,6,1	4,16,1	5,146,1	6,21,1	7,36,1	8,161,1	205,66,1	211,166,1	214,26,1	217,106,1	424,31,1	463,121,1	580,131,1	775,96,1	823,191,1	955,111,1	973,171,1	979,86,1	1039,41,1	1072,196,1	1111,61,1	1237,56,1	1240,81,1	1243,116,1	1264,91,1	1321,186,1	1933,181,1	2068,176,1	2107,101,1	2146,126,1	2152,141,1	2176,151,1	2239,51,1	2254,156,1	2347,76,1	2350,136,1	2356,71,1	2476,46,1	4567,201,1	
# Incoming
28,(0, 5),9	37,(4, 25),3	40,(4, 130),3	43,(3, 85),6	59,(8, 110),3	64,(0, 10),9	73,(4, 120),9	82,(9, 100),9	94,(9, 160),6	100,(0, 15),9	121,(9, 165),6	136,(0, 20),9	145,(7, 25),15	160,(7, 140),6	172,(11, 55),3	175,(11, 70),3	178,(2, 45),42	220,(4, 80),48	268,(13, 70),15	283,(18, 130),3	301,(11, 105),24	325,(11, 115),3	328,(14, 190),3	331,(11, 120),9	340,(9, 55),27	367,(13, 100),18	385,(18, 135),18	406,(2, 140),39	445,(9, 105),12	457,(9, 130),12	472,(11, 190),6	478,(8, 95),75	553,(9, 150),12	565,(1, 90),12	577,(3, 155),93	670,(12, 75),3	673,(12, 85),18	691,(12, 195),3	694,(1, 145),39	733,(17, 35),3	736,(8, 185),87	841,(19, 30),3	844,(19, 115),6	850,(19, 175),3	853,(6, 25),3	859,(6, 70),3	862,(9, 50),60	922,(14, 140),18	946,(12, 170),15	973,(12, 180),6	994,(6, 175),6	1030,(16, 30),42	1075,(16, 65),3	1078,(7, 60),117	1195,(7, 80),96	1291,(8, 55),414	1705,(12, 80),264	1969,(12, 175),225	2194,(14, 95),156	2350,(17, 100),63	2413,(18, 65),75	2488,(18, 110),33	2521,(19, 125),351	2872,(19, 200),81	
19,(0, 4),9	28,(3, 74),12	40,(3, 84),3	46,(2, 39),6	55,(0, 9),9	64,(3, 124),21	85,(8, 39),3	91,(0, 14),9	109,(2, 174),12	127,(0, 19),9	139,(12, 94),3	142,(17, 134),3	145,(11, 39),27	178,(11, 89),120	298,(3, 109),36	334,(8, 109),15	349,(18, 144),18	373,(2, 94),33	445,(7, 99),9	463,(5, 189),3	469,(10, 54),3	475,(10, 64),3	478,(1, 44),3	481,(5, 34),99	580,(7, 104),30	634,(10, 99),3	637,(10, 184),3	640,(1, 134),54	733,(1, 149),3	736,(1, 164),3	739,(7, 49),207	946,(10, 124),9	955,(15, 59),24	979,(6, 174),15	994,(8, 139),42	1036,(13, 69),48	1093,(10, 154),36	1147,(15, 144),3	1150,(15, 159),15	1171,(15, 169),3	1174,(20, 119),3	1291,(12, 39),48	1363,(20, 149),9	1402,(20, 79),63	2413,(17, 174),570	
10,(0, 3),9	19,(2, 23),27	46,(0, 8),9	55,(2, 28),3	58,(4, 23),3	67,(9, 83),6	82,(0, 13),9	100,(9, 183),3	103,(14, 193),3	106,(2, 173),3	109,(9, 163),9	118,(0, 18),9	127,(4, 43),24	166,(7, 143),6	172,(12, 63),3	175,(12, 68),3	217,(19, 33),3	298,(11, 98),3	328,(11, 118),3	331,(19, 43),9	340,(11, 128),126	466,(11, 143),6	472,(5, 173),3	481,(1, 48),12	493,(1, 88),72	565,(19, 38),12	577,(1, 103),57	634,(1, 108),6	640,(5, 58),81	721,(12, 148),3	724,(12, 163),3	739,(1, 178),51	790,(1, 188),60	862,(6, 93),63	925,(5, 198),18	943,(20, 133),3	955,(6, 138),3	958,(6, 153),21	979,(9, 48),21	1000,(6, 178),3	1003,(16, 23),27	1030,(5, 68),42	1072,(16, 58),3	1075,(10, 58),18	1093,(14, 168),18	1123,(16, 123),21	1174,(16, 173),3	1177,(5, 103),66	1243,(9, 118),78	1321,(10, 73),42	1363,(17, 53),21	1384,(20, 73),18	1465,(20, 158),15	
1,(0, 2),9	29,(4, 22),3	37,(0, 7),9	46,(4, 37),9	56,(8, 107),3	61,(4, 177),6	73,(0, 12),9	91,(9, 147),3	94,(13, 52),12	106,(14, 122),3	109,(0, 17),9	118,(13, 47),18	136,(18, 47),3	151,(14, 32),6	157,(3, 172),27	184,(3, 177),36	220,(13, 167),18	238,(18, 152),24	268,(4, 182),54	322,(5, 27),102	427,(5, 97),18	466,(5, 192),3	469,(14, 37),6	478,(10, 117),3	481,(19, 67),9	490,(19, 82),6	496,(19, 162),15	577,(19, 92),114	721,(5, 197),42	763,(10, 107),12	775,(10, 112),60	835,(10, 137),6	850,(1, 192),3	856,(6, 42),3	883,(10, 187),15	898,(15, 47),3	925,(6, 97),30	1078,(16, 72),12	1090,(16, 102),33	1144,(16, 132),30	
58,(2, 41),48	106,(3, 126),12	118,(4, 181),3	121,(87, 201),18	139,(3, 131),18	157,(4, 66),48	205,(4, 166),6	211,(9, 26),3	214,(9, 106),3	220,(2, 86),153	373,(74, 201),18	391,(84, 201),18	409,(8, 41),6	415,(8, 71),6	421,(18, 31),3	424,(5, 96),3	427,(28, 201),18	445,(5, 121),18	463,(7, 56),3	466,(7, 91),15	481,(7, 176),75	556,(57, 201),18	574,(12, 96),3	577,(12, 131),3	580,(5, 171),54	634,(77, 201),18	652,(142, 201),18	670,(8, 141),66	736,(9, 96),39	775,(9, 176),33	808,(9, 191),15	823,(199, 201),18	841,(10, 51),42	883,(83, 201),18	901,(40, 201),18	919,(13, 111),36	955,(13, 176),6	961,(12, 171),12	973,(14, 86),6	979,(22, 201),18	997,(147, 201),18	1015,(14, 41),24	1039,(14, 196),33	1072,(129, 201),18	1090,(183, 201),18	1108,(18, 61),3	1111,(179, 201),18	1129,(160, 201),18	1147,(193, 201),18	1165,(15, 101),6	1171,(18, 56),66	1237,(18, 81),3	1240,(18, 116),3	1243,(15, 91),21	1264,(15, 186),57	1321,(9, 181),612	1933,(10, 176),135	2068,(18, 101),39	2107,(18, 126),39	2146,(18, 136),3	2149,(18, 141),3	2152,(18, 151),24	2176,(165, 201),18	2194,(52, 201),18	2212,(122, 201),18	2230,(17, 51),9	2239,(17, 156),15	2254,(62, 201),18	2272,(127, 201),18	2290,(157, 201),18	2308,(78, 201),18	2326,(113, 201),18	2344,(20, 76),3	2347,(20, 136),3	2350,(19, 71),6	2356,(24, 201),18	2374,(29, 201),18	2392,(194, 201),18	2410,(114, 201),18	2428,(20, 46),48	2476,(45, 201),18	2494,(89, 201),18	2521,(63, 201),18	2539,(33, 201),18	2557,(98, 201),18	2575,(43, 201),18	2593,(120, 201),18	2611,(135, 201),18	2629,(105, 201),18	2647,(128, 201),18	2665,(130, 201),18	2683,(143, 201),18	2701,(190, 201),18	2719,(88, 201),18	2737,(150, 201),18	2755,(38, 201),18	2773,(90, 201),18	2791,(108, 201),18	2809,(155, 201),18	2827,(75, 201),18	2845,(85, 201),18	2863,(195, 201),18	2881,(148, 201),18	2899,(163, 201),18	2917,(145, 201),18	2935,(35, 201),18	2953,(109, 201),18	2983,(32, 201),18	3001,(172, 201),18	3019,(177, 201),18	3037,(167, 201),18	3055,(152, 201),18	3073,(182, 201),18	3091,(94, 201),18	3109,(27, 201),18	3127,(189, 201),18	3145,(54, 201),18	3163,(37, 201),18	3181,(64, 201),18	3199,(117, 201),18	3217,(44, 201),18	3235,(67, 201),18	3253,(82, 201),18	3271,(162, 201),18	3289,(34, 201),18	3307,(104, 201),18	3325,(99, 201),18	3343,(184, 201),18	3361,(92, 201),18	3379,(134, 201),18	3397,(164, 201),18	3415,(197, 201),18	3433,(107, 201),18	3451,(185, 201),18	3469,(112, 201),18	3487,(137, 201),18	3505,(188, 201),18	3523,(115, 201),18	3541,(192, 201),18	3559,(25, 201),18	3577,(42, 201),18	3595,(70, 201),18	3613,(187, 201),18	3631,(47, 201),18	3649,(50, 201),18	3667,(93, 201),18	3685,(140, 201),18	3703,(198, 201),18	3721,(49, 201),18	3739,(133, 201),18	3757,(124, 201),18	3775,(97, 201),18	3793,(138, 201),18	3811,(170, 201),18	3829,(59, 201),18	3847,(153, 201),18	3865,(180, 201),18	3883,(48, 201),18	3901,(178, 201),18	3919,(23, 201),18	3937,(139, 201),18	3955,(68, 201),18	3973,(30, 201),18	3991,(69, 201),18	4009,(72, 201),18	4027,(58, 201),18	4045,(168, 201),18	4063,(102, 201),18	4081,(154, 201),18	4099,(123, 201),18	4117,(144, 201),18	4135,(159, 201),18	4153,(132, 201),18	4171,(169, 201),18	4189,(119, 201),18	4207,(173, 201),18	4225,(60, 201),18	4243,(103, 201),18	4261,(118, 201),18	4279,(39, 201),18	4297,(149, 201),18	4315,(53, 201),18	4333,(73, 201),18	4351,(79, 201),18	4369,(158, 201),18	4387,(55, 201),18	4405,(80, 201),18	4423,(175, 201),18	4441,(95, 201),18	4459,(100, 201),18	4477,(65, 201),18	4495,(110, 201),18	4513,(125, 201),18	4531,(200, 201),18	4549,(174, 201),18	
# Outgoing
322,(5, 27),102	424,(5, 96),3	427,(5, 97),18	445,(5, 121),18	463,(5, 189),3	466,(5, 192),3	469,(10, 54),3	472,(5, 173),3	475,(10, 64),3	478,(10, 117),3	481,(5, 34),99	580,(5, 171),54	634,(10, 99),3	637,(10, 184),3	640,(5, 58),81	721,(5, 197),42	763,(10, 107),12	775,(10, 112),60	835,(10, 137),6	841,(10, 51),42	883,(10, 187),15	898,(15, 47),3	901,(40, 201),18	925,(5, 198),18	943,(20, 133),3	946,(10, 124),9	955,(15, 59),24	1030,(5, 68),42	1075,(10, 58),18	1093,(10, 154),36	1129,(160, 201),18	1147,(15, 144),3	1150,(15, 159),15	1165,(15, 101),6	1171,(15, 169),3	1174,(20, 119),3	1177,(5, 103),66	1243,(15, 91),21	1264,(15, 186),57	1321,(10, 73),42	1363,(20, 149),9	1384,(20, 73),18	1402,(20, 79),63	1465,(20, 158),15	1933,(10, 176),135	2176,(165, 201),18	2344,(20, 76),3	2347,(20, 136),3	2428,(20, 46),48	2476,(45, 201),18	2593,(120, 201),18	2611,(135, 201),18	2629,(105, 201),18	2665,(130, 201),18	2701,(190, 201),18	2737,(150, 201),18	2773,(90, 201),18	2809,(155, 201),18	2827,(75, 201),18	2845,(85, 201),18	2863,(195, 201),18	2917,(145, 201),18	2935,(35, 201),18	3451,(185, 201),18	3523,(115, 201),18	3559,(25, 201),18	3595,(70, 201),18	3649,(50, 201),18	3685,(140, 201),18	3811,(170, 201),18	3865,(180, 201),18	3973,(30, 201),18	4225,(60, 201),18	4387,(55, 201),18	4405,(80, 201),18	4423,(175, 201),18	4441,(95, 201),18	4459,(100, 201),18	4477,(65, 201),18	4495,(110, 201),18	4513,(125, 201),18	4531,(200, 201),18	
29,(4, 22),3	37,(4, 25),3	40,(4, 130),3	46,(4, 37),9	58,(4, 23),3	61,(4, 177),6	67,(9, 83),6	73,(4, 120),9	82,(9, 100),9	91,(9, 147),3	94,(9, 160),6	100,(9, 183),3	103,(14, 193),3	106,(14, 122),3	109,(9, 163),9	118,(4, 181),3	121,(9, 165),6	127,(4, 43),24	151,(14, 32),6	157,(4, 66),48	205,(4, 166),6	211,(9, 26),3	214,(9, 106),3	217,(19, 33),3	220,(4, 80),48	268,(4, 182),54	328,(14, 190),3	331,(19, 43),9	340,(9, 55),27	373,(74, 201),18	391,(84, 201),18	445,(9, 105),12	457,(9, 130),12	469,(14, 37),6	481,(19, 67),9	490,(19, 82),6	496,(19, 162),15	553,(9, 150),12	565,(19, 38),12	577,(19, 92),114	736,(9, 96),39	775,(9, 176),33	808,(9, 191),15	823,(199, 201),18	841,(19, 30),3	844,(19, 115),6	850,(19, 175),3	862,(9, 50),60	922,(14, 140),18	973,(14, 86),6	979,(9, 48),21	1015,(14, 41),24	1039,(14, 196),33	1072,(129, 201),18	1093,(14, 168),18	1111,(179, 201),18	1243,(9, 118),78	1321,(9, 181),612	2194,(14, 95),156	2350,(19, 71),6	2356,(24, 201),18	2374,(29, 201),18	2392,(194, 201),18	2410,(114, 201),18	2494,(89, 201),18	2521,(19, 125),351	2872,(19, 200),81	2953,(109, 201),18	3091,(94, 201),18	3127,(189, 201),18	3145,(54, 201),18	3181,(64, 201),18	3217,(44, 201),18	3289,(34, 201),18	3307,(104, 201),18	3325,(99, 201),18	3343,(184, 201),18	3379,(134, 201),18	3397,(164, 201),18	3721,(49, 201),18	3757,(124, 201),18	3829,(59, 201),18	3937,(139, 201),18	3991,(69, 201),18	4081,(154, 201),18	4117,(144, 201),18	4135,(159, 201),18	4171,(169, 201),18	4189,(119, 201),18	4279,(39, 201),18	4297,(149, 201),18	4351,(79, 201),18	4549,(174, 201),18	
28,(3, 74),12	40,(3, 84),3	43,(3, 85),6	56,(8, 107),3	59,(8, 110),3	64,(3, 124),21	85,(8, 39),3	94,(13, 52),12	106,(3, 126),12	118,(13, 47),18	136,(18, 47),3	139,(3, 131),18	157,(3, 172),27	184,(3, 177),36	220,(13, 167),18	238,(18, 152),24	268,(13, 70),15	283,(18, 130),3	298,(3, 109),36	334,(8, 109),15	349,(18, 144),18	367,(13, 100),18	385,(18, 135),18	409,(8, 41),6	415,(8, 71),6	421,(18, 31),3	427,(28, 201),18	478,(8, 95),75	577,(3, 155),93	670,(8, 141),66	736,(8, 185),87	883,(83, 201),18	919,(13, 111),36	955,(13, 176),6	994,(8, 139),42	1036,(13, 69),48	1090,(183, 201),18	1108,(18, 61),3	1147,(193, 201),18	1171,(18, 56),66	1237,(18, 81),3	1240,(18, 116),3	1291,(8, 55),414	2068,(18, 101),39	2107,(18, 126),39	2146,(18, 136),3	2149,(18, 141),3	2152,(18, 151),24	2308,(78, 201),18	2326,(113, 201),18	2413,(18, 65),75	2488,(18, 110),33	2521,(63, 201),18	2539,(33, 201),18	2557,(98, 201),18	2575,(43, 201),18	2647,(128, 201),18	2683,(143, 201),18	2719,(88, 201),18	2755,(38, 201),18	2791,(108, 201),18	2881,(148, 201),18	2899,(163, 201),18	3505,(188, 201),18	3667,(93, 201),18	3703,(198, 201),18	3739,(133, 201),18	3793,(138, 201),18	3847,(153, 201),18	3883,(48, 201),18	3901,(178, 201),18	3919,(23, 201),18	3955,(68, 201),18	4027,(58, 201),18	4045,(168, 201),18	4099,(123, 201),18	4207,(173, 201),18	4243,(103, 201),18	4261,(118, 201),18	4315,(53, 201),18	4333,(73, 201),18	4369,(158, 201),18	
19,(2, 23),27	46,(2, 39),6	55,(2, 28),3	58,(2, 41),48	106,(2, 173),3	109,(2, 174),12	121,(87, 201),18	139,(12, 94),3	142,(17, 134),3	145,(7, 25),15	160,(7, 140),6	166,(7, 143),6	172,(12, 63),3	175,(12, 68),3	178,(2, 45),42	220,(2, 86),153	373,(2, 94),33	406,(2, 140),39	445,(7, 99),9	463,(7, 56),3	466,(7, 91),15	481,(7, 176),75	556,(57, 201),18	574,(12, 96),3	577,(12, 131),3	580,(7, 104),30	634,(77, 201),18	652,(142, 201),18	670,(12, 75),3	673,(12, 85),18	691,(12, 195),3	721,(12, 148),3	724,(12, 163),3	733,(17, 35),3	739,(7, 49),207	946,(12, 170),15	961,(12, 171),12	973,(12, 180),6	979,(22, 201),18	997,(147, 201),18	1078,(7, 60),117	1195,(7, 80),96	1291,(12, 39),48	1363,(17, 53),21	1705,(12, 80),264	1969,(12, 175),225	2194,(52, 201),18	2212,(122, 201),18	2230,(17, 51),9	2239,(17, 156),15	2254,(62, 201),18	2272,(127, 201),18	2290,(157, 201),18	2350,(17, 100),63	2413,(17, 174),570	2983,(32, 201),18	3001,(172, 201),18	3019,(177, 201),18	3037,(167, 201),18	3055,(152, 201),18	3073,(182, 201),18	3109,(27, 201),18	3163,(37, 201),18	3199,(117, 201),18	3235,(67, 201),18	3253,(82, 201),18	3271,(162, 201),18	3361,(92, 201),18	3415,(197, 201),18	3433,(107, 201),18	3469,(112, 201),18	3487,(137, 201),18	3541,(192, 201),18	3577,(42, 201),18	3613,(187, 201),18	3631,(47, 201),18	3775,(97, 201),18	4009,(72, 201),18	4063,(102, 201),18	4153,(132, 201),18	
1,(0, 2),9	10,(0, 3),9	19,(0, 4),9	28,(0, 5),9	37,(0, 7),9	46,(0, 8),9	55,(0, 9),9	64,(0, 10),9	73,(0, 12),9	82,(0, 13),9	91,(0, 14),9	100,(0, 15),9	109,(0, 17),9	118,(0, 18),9	127,(0, 19),9	136,(0, 20),9	145,(11, 39),27	172,(11, 55),3	175,(11, 70),3	178,(11, 89),120	298,(11, 98),3	301,(11, 105),24	325,(11, 115),3	328,(11, 118),3	331,(11, 120),9	340,(11, 128),126	466,(11, 143),6	472,(11, 190),6	478,(1, 44),3	481,(1, 48),12	493,(1, 88),72	565,(1, 90),12	577,(1, 103),57	634,(1, 108),6	640,(1, 134),54	694,(1, 145),39	733,(1, 149),3	736,(1, 164),3	739,(1, 178),51	790,(1, 188),60	850,(1, 192),3	853,(6, 25),3	856,(6, 42),3	859,(6, 70),3	862,(6, 93),63	925,(6, 97),30	955,(6, 138),3	958,(6, 153),21	979,(6, 174),15	994,(6, 175),6	1000,(6, 178),3	1003,(16, 23),27	1030,(16, 30),42	1072,(16, 58),3	1075,(16, 65),3	1078,(16, 72),12	1090,(16, 102),33	1123,(16, 123),21	1144,(16, 132),30	1174,(16, 173),3	
