1064
# CPU
212,6,176	388,10,176	564,14,176	740,18,176	
178,5,176	354,9,176	530,17,176	708,13,176	
4,2,176	180,4,176	356,12,176	532,16,176	708,8,176	884,20,176	
0,0,1	1,1,176	177,3,176	353,11,176	529,19,176	705,7,176	881,15,176	1063,21,1	
# Incoming
178,(1, 6),34	265,(1, 10),27	292,(1, 14),15	314,(1, 18),1	
177,(1, 5),1	219,(1, 9),46	307,(1, 17),7	314,(2, 13),394	
1,(0, 2),3	212,(1, 8),7	315,(1, 20),6	
354,(5, 21),3	388,(6, 21),3	530,(9, 21),3	564,(10, 21),3	708,(4, 21),3	711,(12, 21),3	714,(17, 21),3	717,(16, 21),3	740,(14, 21),3	884,(13, 21),3	887,(8, 21),3	916,(18, 21),3	1060,(20, 21),3	
# Outgoing
388,(6, 21),3	564,(10, 21),3	740,(14, 21),3	916,(18, 21),3	
354,(5, 21),3	530,(9, 21),3	714,(17, 21),3	884,(13, 21),3	
314,(2, 13),394	708,(4, 21),3	711,(12, 21),3	717,(16, 21),3	887,(8, 21),3	1060,(20, 21),3	
1,(0, 2),3	177,(1, 5),1	178,(1, 6),34	212,(1, 8),7	219,(1, 9),46	265,(1, 10),27	292,(1, 14),15	307,(1, 17),7	314,(1, 18),1	315,(1, 20),6	
