7014
# CPU
9,3,1	10,50,1	11,76,1	12,93,1	13,114,1	14,35,1	17,6,1	18,36,1	19,103,1	20,105,1	21,69,1	22,84,1	23,90,1	24,75,1	25,9,1	26,25,1	27,34,1	28,79,1	29,108,1	30,82,1	31,83,1	32,97,1	33,43,1	34,87,1	35,12,1	36,32,1	37,40,1	38,66,1	39,95,1	40,96,1	41,99,1	42,113,1	43,118,1	73,60,1	133,64,1	245,78,1	249,117,1	269,73,1	289,86,1	293,107,1	297,30,1	333,33,1	369,44,1	373,56,1	377,61,1	465,62,1	489,67,1	513,102,1	617,119,1	637,22,1	641,28,1	665,88,1	689,55,1	713,65,1	773,110,1	809,116,1	813,15,1	829,21,1	845,38,1	849,41,1	853,47,1	857,63,1	889,104,1	897,106,1	953,120,1	1461,100,1	1601,39,1	1605,54,1	1609,57,1	1613,68,1	1625,80,1	1629,81,1	1637,92,1	1797,101,1	2069,109,1	2089,20,1	2093,23,1	2197,29,1	2449,53,1	2461,58,1	2465,70,1	2517,71,1	2545,77,1	2597,112,1	2605,42,1	2737,45,1	2837,59,1	2841,72,1	2897,85,1	3025,89,1	3029,94,1	3065,111,1	
5,2,1	6,51,1	7,52,1	13,5,1	21,8,1	22,74,1	29,11,1	30,14,1	31,49,1	53,18,1	165,46,1	249,16,1	301,27,1	597,19,1	601,24,1	833,26,1	2321,37,1	7013,121,1	
0,0,1	1,7,1	2,10,1	3,1,1	4,4,1	5,115,1	6,48,1	7,17,1	8,13,1	9,91,1	1345,98,1	2377,31,1	
# Incoming
5,(0, 3),4	9,(2, 35),4	13,(0, 6),4	17,(2, 75),4	21,(0, 9),4	25,(2, 87),4	29,(0, 12),4	33,(7, 57),4	37,(7, 60),36	73,(7, 64),60	133,(7, 78),112	245,(7, 117),4	249,(2, 73),20	269,(2, 86),20	289,(2, 107),4	293,(5, 30),4	297,(5, 33),4	301,(10, 29),8	309,(10, 33),24	333,(10, 44),36	369,(10, 56),4	373,(10, 61),4	377,(10, 62),88	465,(10, 63),20	485,(10, 67),4	489,(10, 101),12	501,(10, 102),12	513,(10, 106),60	573,(10, 119),44	617,(1, 22),20	637,(1, 28),4	641,(2, 88),24	685,(1, 55),4	689,(1, 65),24	713,(1, 110),60	773,(1, 116),36	809,(4, 15),4	813,(4, 21),16	837,(4, 38),8	845,(4, 41),4	849,(4, 47),4	853,(4, 63),4	857,(4, 68),28	885,(4, 104),4	889,(4, 106),8	897,(4, 120),56	1345,(2, 100),116	1461,(5, 39),140	1601,(5, 54),4	1605,(5, 57),4	1609,(5, 68),4	1613,(5, 80),12	1625,(5, 81),4	1629,(5, 92),8	1637,(5, 101),160	1797,(5, 109),272	2069,(8, 20),20	2089,(8, 23),4	2093,(8, 29),104	2377,(8, 45),48	2425,(8, 53),24	2449,(8, 58),12	2461,(8, 70),4	2465,(8, 71),52	2517,(8, 77),28	2545,(8, 112),52	2597,(11, 42),8	2605,(11, 45),132	2737,(11, 59),100	2837,(11, 72),4	2841,(11, 85),56	2897,(11, 89),128	3025,(11, 94),4	3029,(11, 111),36	
1,(0, 2),4	9,(0, 5),4	17,(0, 8),4	25,(0, 11),4	29,(3, 18),24	53,(3, 46),112	165,(50, 121),68	233,(6, 16),16	249,(10, 27),52	301,(76, 121),68	369,(93, 121),68	437,(114, 121),68	505,(35, 121),68	573,(6, 19),24	597,(9, 24),4	641,(1, 37),44	685,(36, 121),68	753,(103, 121),68	829,(4, 26),4	833,(4, 37),4	837,(105, 121),68	953,(115, 121),68	1021,(48, 121),68	1089,(17, 121),68	1157,(13, 121),68	1225,(91, 121),68	1293,(69, 121),68	1361,(84, 121),68	1429,(90, 121),68	1497,(75, 121),68	1565,(25, 121),68	1633,(34, 121),68	1701,(79, 121),68	1769,(108, 121),68	1837,(82, 121),68	1905,(83, 121),68	1973,(97, 121),68	2041,(43, 121),68	2109,(87, 121),68	2177,(12, 37),144	2321,(32, 121),68	2389,(40, 121),68	2457,(66, 121),68	2525,(95, 121),68	2593,(96, 121),68	2661,(99, 121),68	2729,(113, 121),68	2797,(118, 121),68	2865,(60, 121),68	2933,(64, 121),68	3001,(78, 121),68	3069,(117, 121),68	3137,(73, 121),68	3205,(86, 121),68	3273,(107, 121),68	3341,(30, 121),68	3409,(33, 121),68	3477,(44, 121),68	3545,(56, 121),68	3613,(61, 121),68	3681,(62, 121),68	3749,(67, 121),68	3817,(102, 121),68	3885,(119, 121),68	3953,(22, 121),68	4021,(28, 121),68	4089,(88, 121),68	4157,(55, 121),68	4225,(65, 121),68	4293,(110, 121),68	4361,(116, 121),68	4429,(15, 121),68	4497,(21, 121),68	4565,(38, 121),68	4633,(41, 121),68	4701,(47, 121),68	4769,(63, 121),68	4837,(104, 121),68	4905,(106, 121),68	4973,(120, 121),68	5041,(98, 121),68	5109,(100, 121),68	5177,(39, 121),68	5245,(54, 121),68	5313,(57, 121),68	5381,(68, 121),68	5449,(80, 121),68	5517,(81, 121),68	5585,(92, 121),68	5653,(101, 121),68	5721,(109, 121),68	5789,(20, 121),68	5857,(23, 121),68	5925,(29, 121),68	5993,(31, 121),68	6061,(53, 121),68	6129,(58, 121),68	6197,(70, 121),68	6265,(71, 121),68	6333,(77, 121),68	6401,(112, 121),68	6469,(42, 121),68	6537,(45, 121),68	6605,(59, 121),68	6673,(72, 121),68	6741,(85, 121),68	6809,(89, 121),68	6877,(94, 121),68	6945,(111, 121),68	
665,(2, 98),680	2197,(8, 31),180	
# Outgoing
29,(3, 18),24	53,(3, 46),112	165,(50, 121),68	233,(6, 16),16	301,(76, 121),68	369,(93, 121),68	437,(114, 121),68	505,(35, 121),68	573,(6, 19),24	597,(9, 24),4	685,(36, 121),68	753,(103, 121),68	837,(105, 121),68	1293,(69, 121),68	1361,(84, 121),68	1429,(90, 121),68	1497,(75, 121),68	1565,(25, 121),68	1633,(34, 121),68	1701,(79, 121),68	1769,(108, 121),68	1837,(82, 121),68	1905,(83, 121),68	1973,(97, 121),68	2041,(43, 121),68	2109,(87, 121),68	2177,(12, 37),144	2321,(32, 121),68	2389,(40, 121),68	2457,(66, 121),68	2525,(95, 121),68	2593,(96, 121),68	2661,(99, 121),68	2729,(113, 121),68	2797,(118, 121),68	2865,(60, 121),68	2933,(64, 121),68	3001,(78, 121),68	3069,(117, 121),68	3137,(73, 121),68	3205,(86, 121),68	3273,(107, 121),68	3341,(30, 121),68	3409,(33, 121),68	3477,(44, 121),68	3545,(56, 121),68	3613,(61, 121),68	3681,(62, 121),68	3749,(67, 121),68	3817,(102, 121),68	3885,(119, 121),68	3953,(22, 121),68	4021,(28, 121),68	4089,(88, 121),68	4157,(55, 121),68	4225,(65, 121),68	4293,(110, 121),68	4361,(116, 121),68	4429,(15, 121),68	4497,(21, 121),68	4565,(38, 121),68	4633,(41, 121),68	4701,(47, 121),68	4769,(63, 121),68	4837,(104, 121),68	4905,(106, 121),68	4973,(120, 121),68	5109,(100, 121),68	5177,(39, 121),68	5245,(54, 121),68	5313,(57, 121),68	5381,(68, 121),68	5449,(80, 121),68	5517,(81, 121),68	5585,(92, 121),68	5653,(101, 121),68	5721,(109, 121),68	5789,(20, 121),68	5857,(23, 121),68	5925,(29, 121),68	6061,(53, 121),68	6129,(58, 121),68	6197,(70, 121),68	6265,(71, 121),68	6333,(77, 121),68	6401,(112, 121),68	6469,(42, 121),68	6537,(45, 121),68	6605,(59, 121),68	6673,(72, 121),68	6741,(85, 121),68	6809,(89, 121),68	6877,(94, 121),68	6945,(111, 121),68	
9,(2, 35),4	17,(2, 75),4	25,(2, 87),4	249,(2, 73),20	269,(2, 86),20	289,(2, 107),4	293,(5, 30),4	297,(5, 33),4	641,(2, 88),24	665,(2, 98),680	1345,(2, 100),116	1461,(5, 39),140	1601,(5, 54),4	1605,(5, 57),4	1609,(5, 68),4	1613,(5, 80),12	1625,(5, 81),4	1629,(5, 92),8	1637,(5, 101),160	1797,(5, 109),272	2069,(8, 20),20	2089,(8, 23),4	2093,(8, 29),104	2197,(8, 31),180	2377,(8, 45),48	2425,(8, 53),24	2449,(8, 58),12	2461,(8, 70),4	2465,(8, 71),52	2517,(8, 77),28	2545,(8, 112),52	2597,(11, 42),8	2605,(11, 45),132	2737,(11, 59),100	2837,(11, 72),4	2841,(11, 85),56	2897,(11, 89),128	3025,(11, 94),4	3029,(11, 111),36	
1,(0, 2),4	5,(0, 3),4	9,(0, 5),4	13,(0, 6),4	17,(0, 8),4	21,(0, 9),4	25,(0, 11),4	29,(0, 12),4	33,(7, 57),4	37,(7, 60),36	73,(7, 64),60	133,(7, 78),112	245,(7, 117),4	249,(10, 27),52	301,(10, 29),8	309,(10, 33),24	333,(10, 44),36	369,(10, 56),4	373,(10, 61),4	377,(10, 62),88	465,(10, 63),20	485,(10, 67),4	489,(10, 101),12	501,(10, 102),12	513,(10, 106),60	573,(10, 119),44	617,(1, 22),20	637,(1, 28),4	641,(1, 37),44	685,(1, 55),4	689,(1, 65),24	713,(1, 110),60	773,(1, 116),36	809,(4, 15),4	813,(4, 21),16	829,(4, 26),4	833,(4, 37),4	837,(4, 38),8	845,(4, 41),4	849,(4, 47),4	853,(4, 63),4	857,(4, 68),28	885,(4, 104),4	889,(4, 106),8	897,(4, 120),56	953,(115, 121),68	1021,(48, 121),68	1089,(17, 121),68	1157,(13, 121),68	1225,(91, 121),68	5041,(98, 121),68	5993,(31, 121),68	
