5372
# CPU
0,0,1	1,19,80	81,7,80	161,81,80	241,90,80	321,200,80	401,97,80	481,9,80	561,13,80	641,58,80	721,1,80	801,27,80	881,91,80	961,163,80	1041,153,80	1121,12,80	1201,45,80	1281,118,80	1361,15,80	1441,195,80	1521,103,80	1601,82,80	1681,86,80	1761,128,80	1841,101,80	1921,18,80	2001,71,80	2081,79,80	2161,125,80	2241,63,80	2321,145,80	2401,181,80	2481,14,80	2561,199,80	2641,11,80	2721,120,80	2801,55,80	2881,170,80	2961,41,80	3041,54,80	3121,124,80	3201,121,80	3281,166,80	3361,133,80	3441,40,80	3521,185,80	3601,187,80	3681,156,80	3761,178,80	3841,152,80	3921,149,80	4001,112,80	4081,146,80	4161,85,80	4241,110,80	4321,191,80	4401,26,80	4481,51,80	4561,84,80	4641,89,80	4721,130,80	4801,194,80	4881,171,80	4961,184,80	5041,161,80	5121,134,80	5201,192,80	5281,29,80	
21,10,80	101,177,80	181,4,80	261,34,80	341,36,80	421,17,80	501,114,80	581,137,80	661,175,80	741,3,80	821,70,80	901,111,80	981,88,80	1061,119,80	1141,67,80	1221,136,80	1301,168,80	1381,167,80	1461,159,80	1541,162,80	1621,28,80	1701,96,80	1781,43,80	1861,60,80	1941,182,80	2021,106,80	2101,148,80	2181,123,80	2261,8,80	2341,160,80	2421,193,80	2501,164,80	2581,52,80	2661,32,80	2741,138,80	2821,25,80	2901,87,80	2981,131,80	3061,104,80	3141,173,80	3221,165,80	3301,39,80	3381,158,80	3461,155,80	3541,23,80	3621,78,80	3701,22,80	3781,30,80	3861,44,80	3941,61,80	4021,33,80	4101,94,80	4181,77,80	4261,100,80	4341,92,80	4421,169,80	4501,49,80	4581,172,80	4661,179,80	4741,157,80	4821,143,80	4901,126,80	4981,116,80	5061,74,80	5141,76,80	5221,176,80	
11,16,80	91,93,80	171,31,80	251,95,80	331,2,80	411,48,80	491,183,80	571,5,80	651,24,80	731,68,80	811,154,80	891,115,80	971,20,80	1051,83,80	1131,56,80	1211,105,80	1291,196,80	1371,150,80	1451,140,80	1531,50,80	1611,108,80	1691,6,80	1771,180,80	1851,188,80	1931,129,80	2011,139,80	2091,47,80	2171,62,80	2251,198,80	2331,197,80	2411,186,80	2491,35,80	2571,72,80	2651,174,80	2731,109,80	2811,135,80	2891,21,80	2971,117,80	3051,98,80	3131,37,80	3211,59,80	3291,102,80	3371,42,80	3451,66,80	3531,38,80	3611,46,80	3691,132,80	3771,141,80	3851,53,80	3931,147,80	4011,142,80	4091,64,80	4171,57,80	4251,127,80	4331,189,80	4411,99,80	4491,122,80	4571,80,80	4651,151,80	4731,65,80	4811,107,80	4891,69,80	4971,113,80	5051,73,80	5131,144,80	5211,190,80	5291,75,80	5371,201,1	
# Incoming
1071,(20, 41),2	1073,(2, 54),2	1075,(3, 124),2	1077,(10, 121),2	1079,(17, 133),2	1081,(10, 40),2	1083,(5, 185),2	1085,(4, 187),2	1087,(3, 187),2	1089,(4, 85),2	1091,(2, 156),2	1093,(2, 178),2	1095,(5, 152),6	1101,(10, 149),6	1107,(2, 112),6	1113,(4, 146),4	1117,(5, 85),6	1123,(17, 110),4	1127,(20, 110),4	1131,(17, 191),8	1139,(16, 26),4	1143,(20, 26),4	1147,(10, 51),2	1149,(17, 84),10	1159,(16, 89),10	1169,(10, 130),14	1183,(17, 194),2	1185,(20, 194),16	1201,(10, 171),18	1219,(16, 184),20	1239,(10, 161),28	1267,(17, 134),2	1269,(10, 192),42	1357,(2, 134),40	1397,(16, 29),48	1793,(6, 166),2	1797,(6, 156),2	1799,(6, 178),2	1809,(6, 146),2	1811,(6, 29),14	2369,(8, 51),8	
11,(0, 10),10	21,(0, 4),10	41,(0, 17),10	61,(0, 3),10	81,(19, 34),10	91,(16, 36),10	101,(16, 137),2	103,(16, 88),8	111,(16, 43),2	113,(16, 78),2	115,(19, 43),4	119,(16, 182),6	125,(0, 8),10	135,(19, 32),4	139,(16, 23),6	145,(16, 94),2	159,(19, 76),2	163,(7, 67),2	173,(7, 168),8	189,(7, 165),12	203,(19, 61),4	207,(7, 61),2	227,(7, 100),12	239,(7, 92),12	251,(7, 169),2	253,(7, 74),8	293,(7, 116),52	411,(2, 169),22	433,(2, 157),10	561,(9, 137),4	569,(9, 111),2	571,(9, 119),2	583,(9, 123),2	589,(9, 61),2	621,(9, 49),18	641,(13, 175),2	651,(5, 162),2	653,(5, 28),2	655,(5, 155),10	665,(13, 94),16	681,(13, 77),2	683,(5, 172),2	685,(5, 74),10	695,(13, 172),26	721,(9, 179),24	745,(5, 76),2	801,(1, 168),2	805,(1, 182),4	821,(1, 23),2	823,(1, 179),2	825,(1, 76),18	869,(1, 143),48	1051,(20, 119),2	1053,(20, 67),2	1055,(20, 136),4	1059,(20, 167),10	1069,(20, 123),2	1075,(20, 155),4	1079,(20, 172),2	1085,(20, 23),6	1215,(12, 96),10	1225,(12, 60),2	1229,(12, 104),10	1249,(12, 33),14	1263,(12, 77),4	1267,(20, 126),42	1309,(20, 74),48	1375,(12, 176),8	1447,(15, 159),2	1451,(15, 162),4	1455,(15, 28),6	1463,(15, 52),2	1475,(15, 104),2	1481,(15, 158),10	1499,(15, 78),14	1515,(15, 94),2	1517,(15, 77),12	1567,(15, 157),36	1607,(15, 116),4	1611,(12, 76),104	1771,(6, 43),2	1773,(6, 60),8	1781,(6, 25),4	1785,(6, 131),8	1795,(6, 158),2	1801,(6, 61),8	1809,(9, 176),156	2003,(18, 106),2	2007,(18, 148),8	2017,(18, 123),6	2027,(18, 87),8	2035,(18, 158),2	2071,(18, 100),8	2079,(18, 92),10	2565,(14, 173),12	2577,(14, 39),14	2611,(14, 22),16	2627,(14, 30),16	2643,(14, 44),16	2659,(14, 77),2	2661,(14, 100),2	2723,(11, 138),2	2731,(11, 33),4	2747,(11, 49),8	2755,(11, 179),4	2759,(11, 126),10	2817,(11, 74),2	
1,(0, 16),10	31,(0, 2),10	51,(0, 5),10	71,(0, 20),10	91,(19, 183),2	93,(19, 115),2	95,(19, 98),2	97,(19, 80),2	101,(10, 154),2	103,(10, 56),2	105,(0, 6),10	115,(10, 117),2	117,(10, 53),6	123,(10, 147),10	133,(10, 107),4	139,(19, 102),10	149,(19, 147),10	161,(7, 48),2	165,(7, 196),8	181,(7, 186),2	183,(7, 21),6	189,(177, 201),2	201,(7, 42),2	209,(19, 142),18	227,(10, 64),18	261,(4, 59),8	269,(4, 102),2	271,(4, 66),4	275,(7, 99),18	293,(4, 122),4	297,(4, 80),10	307,(4, 151),6	313,(10, 65),40	353,(7, 107),20	373,(19, 190),4	377,(81, 201),2	379,(90, 201),2	381,(34, 201),2	401,(200, 201),2	421,(36, 201),2	481,(97, 201),2	501,(17, 154),2	503,(17, 127),4	507,(17, 75),14	565,(9, 68),4	573,(9, 108),10	583,(114, 201),2	585,(9, 135),4	591,(9, 64),4	595,(9, 57),26	639,(9, 144),2	643,(13, 197),2	645,(13, 42),10	655,(13, 127),2	661,(137, 201),2	683,(9, 80),12	741,(175, 201),2	745,(13, 107),22	767,(58, 201),2	803,(1, 140),2	809,(1, 135),2	811,(1, 37),10	821,(3, 115),2	823,(3, 83),2	825,(3, 50),4	829,(3, 174),4	833,(3, 135),2	835,(3, 98),10	845,(1, 127),8	853,(1, 80),16	869,(3, 65),6	875,(3, 69),34	909,(3, 144),82	991,(1, 190),8	999,(27, 201),2	1001,(70, 201),2	1003,(91, 201),2	1005,(111, 201),2	1041,(163, 201),2	1061,(88, 201),2	1121,(153, 201),2	1141,(119, 201),2	1201,(12, 105),4	1205,(12, 150),8	1213,(12, 50),2	1221,(67, 201),2	1227,(12, 35),2	1239,(12, 38),2	1241,(12, 46),8	1267,(12, 189),32	1299,(12, 73),72	1371,(12, 190),4	1375,(136, 201),2	1381,(168, 201),2	1383,(45, 201),2	1385,(118, 201),2	1441,(15, 140),6	1449,(15, 50),2	1461,(15, 72),2	1463,(167, 201),2	1465,(15, 117),10	1477,(15, 59),4	1491,(15, 66),8	1513,(15, 141),2	1529,(15, 151),38	1567,(159, 201),2	1603,(15, 107),4	1621,(162, 201),2	1701,(28, 201),2	1715,(195, 201),2	1717,(103, 201),2	1719,(82, 201),2	1761,(86, 201),2	1781,(96, 201),2	1861,(43, 201),2	1941,(60, 201),2	1965,(128, 201),2	1967,(101, 201),2	2001,(18, 139),2	2005,(18, 47),2	2015,(18, 62),2	2021,(182, 201),2	2023,(18, 198),2	2025,(18, 35),2	2037,(18, 132),16	2053,(18, 141),16	2069,(18, 142),2	2089,(18, 122),10	2099,(18, 69),14	2113,(18, 113),20	2133,(18, 144),2	2135,(18, 190),74	2209,(71, 201),2	2211,(106, 201),2	2213,(79, 201),2	2215,(148, 201),2	2241,(125, 201),2	2261,(123, 201),2	2321,(63, 201),2	2341,(8, 72),2	2343,(8, 53),12	2355,(8, 127),14	2377,(8, 69),6	2383,(8, 73),2	2401,(145, 201),2	2421,(160, 201),2	2481,(181, 201),2	2501,(193, 201),2	2561,(14, 174),2	2563,(14, 37),2	2581,(164, 201),2	2591,(14, 38),12	2603,(14, 46),8	2661,(52, 201),2	2663,(14, 189),2	2665,(14, 99),6	2671,(14, 122),22	2693,(14, 69),2	2695,(199, 201),2	2721,(11, 109),2	2725,(11, 21),4	2729,(11, 142),2	2735,(11, 99),12	2747,(32, 201),2	2769,(14, 113),48	2819,(11, 75),230	3049,(120, 201),2	3051,(138, 201),2	3053,(55, 201),2	3055,(25, 201),2	3057,(170, 201),2	3059,(87, 201),2	3061,(41, 201),2	3063,(131, 201),2	3121,(54, 201),2	3141,(104, 201),2	3201,(124, 201),2	3221,(173, 201),2	3281,(121, 201),2	3301,(165, 201),2	3361,(166, 201),2	3381,(39, 201),2	3441,(133, 201),2	3461,(158, 201),2	3521,(40, 201),2	3541,(155, 201),2	3601,(185, 201),2	3621,(23, 201),2	3681,(187, 201),2	3701,(78, 201),2	3761,(156, 201),2	3781,(22, 201),2	3841,(178, 201),2	3861,(30, 201),2	3921,(152, 201),2	3941,(44, 201),2	4001,(149, 201),2	4021,(61, 201),2	4081,(112, 201),2	4101,(33, 201),2	4161,(146, 201),2	4181,(94, 201),2	4241,(85, 201),2	4261,(77, 201),2	4321,(110, 201),2	4341,(100, 201),2	4401,(191, 201),2	4421,(92, 201),2	4481,(26, 201),2	4501,(169, 201),2	4561,(51, 201),2	4581,(49, 201),2	4641,(84, 201),2	4661,(172, 201),2	4721,(89, 201),2	4741,(179, 201),2	4801,(130, 201),2	4821,(157, 201),2	4881,(194, 201),2	4901,(143, 201),2	4961,(171, 201),2	4981,(126, 201),2	5041,(184, 201),2	5061,(116, 201),2	5121,(161, 201),2	5141,(74, 201),2	5201,(134, 201),2	5221,(76, 201),2	5281,(192, 201),2	5301,(176, 201),2	5361,(29, 201),2	
# Outgoing
1,(0, 16),10	11,(0, 10),10	21,(0, 4),10	31,(0, 2),10	41,(0, 17),10	51,(0, 5),10	61,(0, 3),10	71,(0, 20),10	81,(19, 34),10	91,(19, 183),2	93,(19, 115),2	95,(19, 98),2	97,(19, 80),2	105,(0, 6),10	115,(19, 43),4	125,(0, 8),10	135,(19, 32),4	139,(19, 102),10	149,(19, 147),10	159,(19, 76),2	161,(7, 48),2	163,(7, 67),2	165,(7, 196),8	173,(7, 168),8	181,(7, 186),2	183,(7, 21),6	189,(7, 165),12	201,(7, 42),2	203,(19, 61),4	207,(7, 61),2	209,(19, 142),18	227,(7, 100),12	239,(7, 92),12	251,(7, 169),2	253,(7, 74),8	275,(7, 99),18	293,(7, 116),52	353,(7, 107),20	373,(19, 190),4	377,(81, 201),2	379,(90, 201),2	401,(200, 201),2	481,(97, 201),2	561,(9, 137),4	565,(9, 68),4	569,(9, 111),2	571,(9, 119),2	573,(9, 108),10	583,(9, 123),2	585,(9, 135),4	589,(9, 61),2	591,(9, 64),4	595,(9, 57),26	621,(9, 49),18	639,(9, 144),2	641,(13, 175),2	643,(13, 197),2	645,(13, 42),10	655,(13, 127),2	665,(13, 94),16	681,(13, 77),2	683,(9, 80),12	695,(13, 172),26	721,(9, 179),24	745,(13, 107),22	767,(58, 201),2	801,(1, 168),2	803,(1, 140),2	805,(1, 182),4	809,(1, 135),2	811,(1, 37),10	821,(1, 23),2	823,(1, 179),2	825,(1, 76),18	845,(1, 127),8	853,(1, 80),16	869,(1, 143),48	991,(1, 190),8	999,(27, 201),2	1003,(91, 201),2	1041,(163, 201),2	1121,(153, 201),2	1201,(12, 105),4	1205,(12, 150),8	1213,(12, 50),2	1215,(12, 96),10	1225,(12, 60),2	1227,(12, 35),2	1229,(12, 104),10	1239,(12, 38),2	1241,(12, 46),8	1249,(12, 33),14	1263,(12, 77),4	1267,(12, 189),32	1299,(12, 73),72	1371,(12, 190),4	1375,(12, 176),8	1383,(45, 201),2	1385,(118, 201),2	1441,(15, 140),6	1447,(15, 159),2	1449,(15, 50),2	1451,(15, 162),4	1455,(15, 28),6	1461,(15, 72),2	1463,(15, 52),2	1465,(15, 117),10	1475,(15, 104),2	1477,(15, 59),4	1481,(15, 158),10	1491,(15, 66),8	1499,(15, 78),14	1513,(15, 141),2	1515,(15, 94),2	1517,(15, 77),12	1529,(15, 151),38	1567,(15, 157),36	1603,(15, 107),4	1607,(15, 116),4	1611,(12, 76),104	1715,(195, 201),2	1717,(103, 201),2	1719,(82, 201),2	1761,(86, 201),2	1809,(9, 176),156	1965,(128, 201),2	1967,(101, 201),2	2001,(18, 139),2	2003,(18, 106),2	2005,(18, 47),2	2007,(18, 148),8	2015,(18, 62),2	2017,(18, 123),6	2023,(18, 198),2	2025,(18, 35),2	2027,(18, 87),8	2035,(18, 158),2	2037,(18, 132),16	2053,(18, 141),16	2069,(18, 142),2	2071,(18, 100),8	2079,(18, 92),10	2089,(18, 122),10	2099,(18, 69),14	2113,(18, 113),20	2133,(18, 144),2	2135,(18, 190),74	2209,(71, 201),2	2213,(79, 201),2	2241,(125, 201),2	2321,(63, 201),2	2401,(145, 201),2	2481,(181, 201),2	2561,(14, 174),2	2563,(14, 37),2	2565,(14, 173),12	2577,(14, 39),14	2591,(14, 38),12	2603,(14, 46),8	2611,(14, 22),16	2627,(14, 30),16	2643,(14, 44),16	2659,(14, 77),2	2661,(14, 100),2	2663,(14, 189),2	2665,(14, 99),6	2671,(14, 122),22	2693,(14, 69),2	2695,(199, 201),2	2721,(11, 109),2	2723,(11, 138),2	2725,(11, 21),4	2729,(11, 142),2	2731,(11, 33),4	2735,(11, 99),12	2747,(11, 49),8	2755,(11, 179),4	2759,(11, 126),10	2769,(14, 113),48	2817,(11, 74),2	2819,(11, 75),230	3049,(120, 201),2	3053,(55, 201),2	3057,(170, 201),2	3061,(41, 201),2	3121,(54, 201),2	3201,(124, 201),2	3281,(121, 201),2	3361,(166, 201),2	3441,(133, 201),2	3521,(40, 201),2	3601,(185, 201),2	3681,(187, 201),2	3761,(156, 201),2	3841,(178, 201),2	3921,(152, 201),2	4001,(149, 201),2	4081,(112, 201),2	4161,(146, 201),2	4241,(85, 201),2	4321,(110, 201),2	4401,(191, 201),2	4481,(26, 201),2	4561,(51, 201),2	4641,(84, 201),2	4721,(89, 201),2	4801,(130, 201),2	4881,(194, 201),2	4961,(171, 201),2	5041,(184, 201),2	5121,(161, 201),2	5201,(134, 201),2	5281,(192, 201),2	5361,(29, 201),2	
101,(10, 154),2	103,(10, 56),2	115,(10, 117),2	117,(10, 53),6	123,(10, 147),10	133,(10, 107),4	189,(177, 201),2	227,(10, 64),18	261,(4, 59),8	269,(4, 102),2	271,(4, 66),4	293,(4, 122),4	297,(4, 80),10	307,(4, 151),6	313,(10, 65),40	381,(34, 201),2	421,(36, 201),2	501,(17, 154),2	503,(17, 127),4	507,(17, 75),14	583,(114, 201),2	661,(137, 201),2	741,(175, 201),2	821,(3, 115),2	823,(3, 83),2	825,(3, 50),4	829,(3, 174),4	833,(3, 135),2	835,(3, 98),10	869,(3, 65),6	875,(3, 69),34	909,(3, 144),82	1001,(70, 201),2	1005,(111, 201),2	1061,(88, 201),2	1075,(3, 124),2	1077,(10, 121),2	1079,(17, 133),2	1081,(10, 40),2	1085,(4, 187),2	1087,(3, 187),2	1089,(4, 85),2	1101,(10, 149),6	1113,(4, 146),4	1123,(17, 110),4	1131,(17, 191),8	1141,(119, 201),2	1147,(10, 51),2	1149,(17, 84),10	1169,(10, 130),14	1183,(17, 194),2	1201,(10, 171),18	1221,(67, 201),2	1239,(10, 161),28	1267,(17, 134),2	1269,(10, 192),42	1375,(136, 201),2	1381,(168, 201),2	1463,(167, 201),2	1567,(159, 201),2	1621,(162, 201),2	1701,(28, 201),2	1781,(96, 201),2	1861,(43, 201),2	1941,(60, 201),2	2021,(182, 201),2	2211,(106, 201),2	2215,(148, 201),2	2261,(123, 201),2	2341,(8, 72),2	2343,(8, 53),12	2355,(8, 127),14	2369,(8, 51),8	2377,(8, 69),6	2383,(8, 73),2	2421,(160, 201),2	2501,(193, 201),2	2581,(164, 201),2	2661,(52, 201),2	2747,(32, 201),2	3051,(138, 201),2	3055,(25, 201),2	3059,(87, 201),2	3063,(131, 201),2	3141,(104, 201),2	3221,(173, 201),2	3301,(165, 201),2	3381,(39, 201),2	3461,(158, 201),2	3541,(155, 201),2	3621,(23, 201),2	3701,(78, 201),2	3781,(22, 201),2	3861,(30, 201),2	3941,(44, 201),2	4021,(61, 201),2	4101,(33, 201),2	4181,(94, 201),2	4261,(77, 201),2	4341,(100, 201),2	4421,(92, 201),2	4501,(169, 201),2	4581,(49, 201),2	4661,(172, 201),2	4741,(179, 201),2	4821,(157, 201),2	4901,(143, 201),2	4981,(126, 201),2	5061,(116, 201),2	5141,(74, 201),2	5221,(76, 201),2	5301,(176, 201),2	
91,(16, 36),10	101,(16, 137),2	103,(16, 88),8	111,(16, 43),2	113,(16, 78),2	119,(16, 182),6	139,(16, 23),6	145,(16, 94),2	411,(2, 169),22	433,(2, 157),10	651,(5, 162),2	653,(5, 28),2	655,(5, 155),10	683,(5, 172),2	685,(5, 74),10	745,(5, 76),2	1051,(20, 119),2	1053,(20, 67),2	1055,(20, 136),4	1059,(20, 167),10	1069,(20, 123),2	1071,(20, 41),2	1073,(2, 54),2	1075,(20, 155),4	1079,(20, 172),2	1083,(5, 185),2	1085,(20, 23),6	1091,(2, 156),2	1093,(2, 178),2	1095,(5, 152),6	1107,(2, 112),6	1117,(5, 85),6	1127,(20, 110),4	1139,(16, 26),4	1143,(20, 26),4	1159,(16, 89),10	1185,(20, 194),16	1219,(16, 184),20	1267,(20, 126),42	1309,(20, 74),48	1357,(2, 134),40	1397,(16, 29),48	1771,(6, 43),2	1773,(6, 60),8	1781,(6, 25),4	1785,(6, 131),8	1793,(6, 166),2	1795,(6, 158),2	1797,(6, 156),2	1799,(6, 178),2	1801,(6, 61),8	1809,(6, 146),2	1811,(6, 29),14	
