720
# CPU
0,41,1	1,8,16	17,28,16	33,24,16	49,5,16	65,36,16	81,14,16	97,39,16	113,37,16	129,10,16	145,6,16	161,35,16	177,18,16	193,19,16	209,9,16	225,34,16	241,13,16	257,27,16	273,33,16	289,22,16	305,7,16	321,38,16	337,40,16	353,23,16	369,12,16	385,20,16	401,30,16	417,29,16	433,3,16	449,17,16	465,32,16	481,2,16	497,1,16	703,4,16	719,0,1	
137,11,16	205,21,16	341,31,16	477,15,16	



69,16,16	



273,26,16	409,25,16	
# Incoming
289,(26, 3),12	301,(21, 2),6	307,(16, 4),2	309,(11, 4),4	357,(31, 4),26	425,(25, 1),56	493,(15, 4),210	
69,(41, 11),68	137,(41, 21),68	273,(41, 31),68	409,(41, 15),68	



1,(41, 16),68	



205,(41, 26),68	341,(41, 25),68	
# Outgoing
1,(41, 16),68	69,(41, 11),68	137,(41, 21),68	205,(41, 26),68	273,(41, 31),68	341,(41, 25),68	409,(41, 15),68	
301,(21, 2),6	309,(11, 4),4	357,(31, 4),26	493,(15, 4),210	



307,(16, 4),2	



289,(26, 3),12	425,(25, 1),56	
