436
# CPU
0,0,1	1,10,10	11,64,10	21,92,10	31,96,10	41,4,10	51,86,10	61,67,10	71,37,10	81,14,10	91,66,10	101,3,10	111,75,10	121,77,10	131,93,10	141,68,10	151,40,10	161,6,10	171,82,10	181,114,10	191,73,10	201,81,10	211,22,10	221,57,10	231,95,10	241,35,10	251,34,10	261,44,10	271,107,10	281,78,10	291,24,10	335,98,10	379,42,10	425,69,10	435,121,1	
3,7,10	13,65,10	23,1,10	33,50,10	43,16,10	53,59,10	63,76,10	73,72,10	83,88,10	93,36,10	103,13,10	113,51,10	123,54,10	133,20,10	143,48,10	153,61,10	163,71,10	173,79,10	183,115,10	193,26,10	203,119,10	213,111,10	223,104,10	233,90,10	243,80,10	266,33,10	309,99,10	353,31,10	
4,11,10	14,84,10	24,110,10	34,15,10	44,2,10	54,89,10	64,27,10	74,30,10	84,55,10	94,49,10	104,21,10	114,43,10	124,19,10	134,62,10	144,52,10	154,60,10	164,9,10	174,109,10	184,106,10	194,18,10	204,105,10	214,17,10	224,53,10	234,45,10	244,28,10	254,113,10	264,39,10	274,25,10	284,94,10	294,97,10	308,120,10	
2,12,10	12,83,10	22,63,10	32,56,10	42,5,10	52,8,10	62,100,10	72,91,10	82,41,10	92,29,10	102,46,10	112,103,10	122,101,10	132,85,10	142,38,10	152,32,10	162,58,10	172,70,10	182,108,10	192,74,10	202,117,10	212,116,10	222,112,10	232,23,10	242,118,10	252,102,10	265,47,10	369,87,10	
# Incoming
22,(83, 121),1	23,(65, 121),1	24,(84, 121),1	26,(12, 34),1	30,(7, 107),2	32,(63, 121),1	34,(110, 121),1	35,(11, 34),2	37,(1, 57),1	38,(1, 78),2	42,(56, 121),1	43,(50, 121),1	44,(15, 121),1	45,(12, 69),5	53,(16, 121),1	54,(7, 44),5	63,(59, 121),1	64,(89, 121),1	65,(2, 107),6	72,(100, 121),1	73,(76, 121),1	74,(27, 121),1	75,(2, 78),6	81,(8, 98),1	82,(91, 121),1	83,(72, 121),1	84,(30, 121),1	85,(2, 24),2	92,(41, 121),1	93,(88, 121),1	94,(55, 121),1	102,(29, 121),1	103,(36, 121),1	104,(49, 121),1	112,(46, 121),1	113,(13, 121),1	114,(21, 121),1	122,(103, 121),1	123,(51, 121),1	124,(43, 121),1	132,(101, 121),1	133,(54, 121),1	134,(19, 121),1	142,(85, 121),1	143,(20, 121),1	144,(62, 121),1	152,(38, 121),1	153,(48, 121),1	154,(52, 121),1	162,(32, 121),1	163,(61, 121),1	164,(60, 121),1	172,(58, 121),1	173,(71, 121),1	174,(9, 73),14	188,(70, 121),1	189,(79, 121),1	190,(109, 121),1	192,(108, 121),1	193,(115, 121),1	194,(106, 121),1	199,(9, 95),1	202,(74, 121),1	203,(26, 121),1	204,(18, 121),1	205,(9, 35),1	211,(9, 44),1	212,(117, 121),1	213,(119, 121),1	214,(105, 121),1	215,(9, 42),1	222,(116, 121),1	223,(111, 121),1	224,(17, 121),1	232,(112, 121),1	233,(104, 121),1	234,(53, 121),1	242,(23, 121),1	243,(90, 121),1	244,(45, 121),1	252,(118, 121),1	253,(80, 121),1	254,(28, 121),1	262,(102, 121),1	264,(113, 121),1	265,(12, 24),8	274,(39, 121),1	275,(47, 121),1	276,(33, 121),1	284,(25, 121),1	285,(2, 69),8	294,(94, 121),1	304,(97, 121),1	305,(11, 98),11	316,(5, 98),19	335,(120, 121),1	336,(99, 121),1	337,(1, 42),21	358,(2, 42),21	379,(31, 121),1	380,(87, 121),1	381,(5, 69),14	395,(9, 69),30	
2,(0, 7),1	4,(0, 1),1	14,(10, 51),7	21,(10, 71),10	31,(12, 99),1	33,(11, 115),1	34,(10, 104),5	39,(11, 90),3	52,(5, 88),1	53,(5, 36),1	54,(2, 72),1	55,(5, 13),3	58,(2, 119),2	60,(5, 61),2	62,(4, 33),1	63,(5, 51),5	68,(4, 61),11	83,(5, 71),6	93,(8, 31),8	112,(3, 54),4	120,(3, 20),6	131,(3, 48),11	143,(3, 71),20	164,(3, 119),5	172,(6, 79),1	174,(6, 115),1	183,(3, 90),3	189,(9, 26),1	191,(9, 119),1	192,(6, 111),8	200,(9, 104),4	206,(6, 90),10	216,(3, 80),10	226,(9, 80),7	244,(3, 33),22	276,(5, 99),11	294,(6, 99),15	309,(3, 31),16	336,(9, 31),17	
3,(0, 11),1	6,(0, 2),1	8,(0, 9),1	12,(10, 55),2	23,(12, 15),1	24,(7, 27),1	25,(12, 30),1	26,(7, 21),4	31,(10, 39),1	32,(7, 94),1	33,(12, 52),9	42,(1, 60),1	44,(1, 28),3	51,(4, 49),1	54,(5, 49),1	55,(4, 62),1	58,(5, 62),2	61,(4, 45),1	62,(8, 30),1	68,(5, 60),2	70,(5, 53),1	71,(5, 45),1	73,(5, 43),5	79,(10, 60),18	97,(1, 39),5	104,(1, 25),9	116,(3, 19),4	126,(3, 62),5	134,(7, 97),6	142,(3, 60),1	169,(3, 17),1	186,(6, 28),1	187,(6, 113),5	266,(10, 94),8	274,(6, 94),7	281,(6, 97),13	294,(7, 120),14	
1,(0, 12),1	5,(0, 5),1	7,(0, 8),1	11,(10, 63),1	25,(11, 56),1	26,(11, 101),1	27,(11, 58),6	33,(1, 38),3	36,(1, 74),1	37,(11, 87),1	39,(10, 23),6	45,(10, 102),1	47,(1, 102),4	52,(4, 46),1	53,(4, 85),2	56,(4, 32),3	59,(4, 112),2	61,(2, 23),3	64,(10, 47),4	97,(4, 118),9	106,(4, 87),4	111,(3, 103),1	163,(3, 108),1	171,(6, 70),1	173,(6, 108),1	175,(3, 116),7	182,(6, 116),1	188,(9, 74),1	195,(9, 117),4	200,(3, 112),6	206,(9, 118),5	226,(3, 102),18	254,(1, 47),11	325,(3, 87),39	364,(6, 87),5	
# Outgoing
1,(0, 12),1	2,(0, 7),1	3,(0, 11),1	4,(0, 1),1	5,(0, 5),1	6,(0, 2),1	7,(0, 8),1	8,(0, 9),1	11,(10, 63),1	12,(10, 55),2	14,(10, 51),7	21,(10, 71),10	31,(10, 39),1	34,(10, 104),5	39,(10, 23),6	45,(10, 102),1	51,(4, 49),1	52,(4, 46),1	53,(4, 85),2	55,(4, 62),1	56,(4, 32),3	59,(4, 112),2	61,(4, 45),1	62,(4, 33),1	64,(10, 47),4	68,(4, 61),11	79,(10, 60),18	97,(4, 118),9	106,(4, 87),4	111,(3, 103),1	112,(3, 54),4	116,(3, 19),4	120,(3, 20),6	126,(3, 62),5	131,(3, 48),11	142,(3, 60),1	143,(3, 71),20	163,(3, 108),1	164,(3, 119),5	169,(3, 17),1	171,(6, 70),1	172,(6, 79),1	173,(6, 108),1	174,(6, 115),1	175,(3, 116),7	182,(6, 116),1	183,(3, 90),3	186,(6, 28),1	187,(6, 113),5	192,(6, 111),8	200,(3, 112),6	206,(6, 90),10	216,(3, 80),10	226,(3, 102),18	244,(3, 33),22	266,(10, 94),8	274,(6, 94),7	281,(6, 97),13	294,(6, 99),15	309,(3, 31),16	325,(3, 87),39	364,(6, 87),5	
23,(65, 121),1	24,(7, 27),1	26,(7, 21),4	30,(7, 107),2	32,(7, 94),1	33,(1, 38),3	36,(1, 74),1	37,(1, 57),1	38,(1, 78),2	42,(1, 60),1	43,(50, 121),1	44,(1, 28),3	47,(1, 102),4	53,(16, 121),1	54,(7, 44),5	63,(59, 121),1	73,(76, 121),1	83,(72, 121),1	93,(88, 121),1	97,(1, 39),5	103,(36, 121),1	104,(1, 25),9	113,(13, 121),1	123,(51, 121),1	133,(54, 121),1	134,(7, 97),6	143,(20, 121),1	153,(48, 121),1	163,(61, 121),1	173,(71, 121),1	189,(79, 121),1	193,(115, 121),1	203,(26, 121),1	213,(119, 121),1	223,(111, 121),1	233,(104, 121),1	243,(90, 121),1	253,(80, 121),1	254,(1, 47),11	276,(33, 121),1	294,(7, 120),14	336,(99, 121),1	337,(1, 42),21	379,(31, 121),1	
24,(84, 121),1	25,(11, 56),1	26,(11, 101),1	27,(11, 58),6	33,(11, 115),1	34,(110, 121),1	35,(11, 34),2	37,(11, 87),1	39,(11, 90),3	44,(15, 121),1	54,(2, 72),1	58,(2, 119),2	61,(2, 23),3	64,(89, 121),1	65,(2, 107),6	74,(27, 121),1	75,(2, 78),6	84,(30, 121),1	85,(2, 24),2	94,(55, 121),1	104,(49, 121),1	114,(21, 121),1	124,(43, 121),1	134,(19, 121),1	144,(62, 121),1	154,(52, 121),1	164,(60, 121),1	174,(9, 73),14	188,(9, 74),1	189,(9, 26),1	190,(109, 121),1	191,(9, 119),1	194,(106, 121),1	195,(9, 117),4	199,(9, 95),1	200,(9, 104),4	204,(18, 121),1	205,(9, 35),1	206,(9, 118),5	211,(9, 44),1	214,(105, 121),1	215,(9, 42),1	224,(17, 121),1	226,(9, 80),7	234,(53, 121),1	244,(45, 121),1	254,(28, 121),1	264,(113, 121),1	274,(39, 121),1	284,(25, 121),1	285,(2, 69),8	294,(94, 121),1	304,(97, 121),1	305,(11, 98),11	335,(120, 121),1	336,(9, 31),17	358,(2, 42),21	395,(9, 69),30	
22,(83, 121),1	23,(12, 15),1	25,(12, 30),1	26,(12, 34),1	31,(12, 99),1	32,(63, 121),1	33,(12, 52),9	42,(56, 121),1	45,(12, 69),5	52,(5, 88),1	53,(5, 36),1	54,(5, 49),1	55,(5, 13),3	58,(5, 62),2	60,(5, 61),2	62,(8, 30),1	63,(5, 51),5	68,(5, 60),2	70,(5, 53),1	71,(5, 45),1	72,(100, 121),1	73,(5, 43),5	81,(8, 98),1	82,(91, 121),1	83,(5, 71),6	92,(41, 121),1	93,(8, 31),8	102,(29, 121),1	112,(46, 121),1	122,(103, 121),1	132,(101, 121),1	142,(85, 121),1	152,(38, 121),1	162,(32, 121),1	172,(58, 121),1	188,(70, 121),1	192,(108, 121),1	202,(74, 121),1	212,(117, 121),1	222,(116, 121),1	232,(112, 121),1	242,(23, 121),1	252,(118, 121),1	262,(102, 121),1	265,(12, 24),8	275,(47, 121),1	276,(5, 99),11	316,(5, 98),19	380,(87, 121),1	381,(5, 69),14	
