2725
# CPU
5,5,25	187,38,25	396,18,25	2060,13,25	2102,28,25	2201,23,25	2227,33,25	2252,43,25	2277,48,25	2302,58,25	2327,63,25	2352,53,25	2379,68,25	2404,73,25	2429,78,25	
4,4,25	79,42,25	204,32,25	237,47,25	292,12,25	392,57,25	417,62,25	442,72,25	572,52,25	1744,22,25	1930,77,25	1995,17,25	2193,27,25	2218,37,25	2378,67,25	
3,3,25	28,8,25	251,21,25	694,36,25	1805,51,25	1945,11,25	1970,16,25	2192,26,25	2217,31,25	2242,41,25	2267,46,25	2292,56,25	2317,61,25	2355,66,25	2382,71,25	2407,76,25	
2,2,25	27,7,25	98,10,25	123,15,25	190,35,25	215,50,25	268,30,25	316,55,25	1919,75,25	1944,80,25	2190,20,25	2215,25,25	2240,40,25	2265,45,25	2290,60,25	2315,65,25	2381,70,25	
0,0,1	1,1,25	26,6,25	185,39,25	220,59,25	291,9,25	316,14,25	341,49,25	366,34,25	391,54,25	416,74,25	441,24,25	466,29,25	491,44,25	525,64,25	671,79,25	993,69,25	1392,19,25	2724,81,1	
# Incoming
4,(0, 5),1	27,(1, 13),7	34,(3, 13),6	45,(2, 48),1	47,(2, 63),1	54,(3, 18),1	67,(4, 18),1	68,(4, 48),3	71,(1, 23),55	126,(2, 28),12	138,(2, 38),11	149,(2, 43),29	178,(3, 48),1	179,(3, 58),1	180,(8, 13),6	186,(1, 38),1	187,(1, 43),1	190,(8, 23),3	196,(2, 68),2	198,(7, 13),1	199,(7, 58),1	204,(7, 63),1	206,(1, 53),105	311,(2, 53),46	357,(2, 73),21	378,(3, 73),12	390,(7, 18),6	400,(1, 63),1	402,(1, 68),13	420,(1, 73),1493	1913,(2, 78),115	2028,(4, 13),32	2060,(4, 23),15	2075,(4, 28),27	2102,(4, 53),19	2121,(4, 63),52	2173,(4, 68),26	2199,(6, 23),2	2201,(7, 68),6	2208,(6, 33),9	2217,(7, 33),10	2227,(8, 68),7	2235,(6, 43),8	2249,(6, 48),2	2252,(6, 58),1	2259,(6, 63),3	2262,(8, 53),43	2305,(8, 73),18	2323,(8, 78),27	2378,(6, 68),1	2382,(6, 73),4	2388,(6, 78),22	
3,(0, 4),1	38,(2, 17),3	41,(2, 32),4	48,(2, 72),1	49,(1, 22),22	71,(3, 22),7	78,(3, 42),1	94,(3, 52),1	99,(8, 22),1	101,(2, 37),24	125,(3, 57),5	158,(3, 72),8	166,(8, 62),1	167,(8, 67),5	172,(8, 72),1	173,(8, 77),1	178,(1, 27),1	179,(1, 32),7	186,(2, 62),4	190,(1, 47),10	200,(7, 12),3	203,(7, 32),1	205,(1, 52),1	206,(2, 57),13	219,(5, 27),12	231,(5, 47),6	237,(5, 62),3	240,(5, 72),5	260,(7, 57),12	272,(7, 62),2	274,(7, 72),1	275,(8, 12),17	292,(8, 52),18	316,(1, 57),76	392,(5, 77),6	399,(1, 62),1	418,(1, 72),2	420,(2, 77),91	511,(5, 67),22	533,(7, 52),39	680,(5, 22),1064	1926,(1, 77),4	1946,(6, 17),49	2192,(6, 27),1	2193,(6, 37),5	2355,(6, 67),23	
2,(0, 3),1	6,(0, 8),1	26,(1, 11),1	27,(2, 11),1	35,(1, 16),2	37,(2, 16),1	38,(1, 21),11	49,(2, 21),1	50,(2, 26),23	73,(4, 11),4	77,(4, 16),1	78,(4, 21),4	82,(4, 36),2	84,(4, 41),15	100,(2, 36),1	101,(4, 66),2	125,(2, 66),1	126,(1, 26),52	178,(2, 46),4	182,(2, 56),3	185,(5, 41),1	186,(5, 61),1	189,(1, 46),1	190,(4, 46),16	206,(5, 36),3	219,(2, 76),29	248,(7, 21),3	251,(7, 26),4	255,(7, 31),4	259,(7, 46),1	260,(4, 51),33	293,(4, 76),85	378,(5, 56),11	389,(7, 71),1	395,(1, 61),4	415,(1, 71),3	418,(4, 71),189	607,(5, 11),50	657,(5, 16),23	680,(7, 36),14	694,(7, 51),4	698,(7, 56),157	855,(7, 66),43	993,(7, 76),2	1744,(5, 51),61	1805,(5, 71),20	1919,(1, 76),7	1944,(6, 11),1	1945,(6, 16),1	2191,(6, 26),1	2201,(6, 31),7	2217,(6, 41),18	2244,(6, 46),5	2251,(6, 56),1	2257,(6, 61),2	2266,(6, 66),89	2381,(6, 71),1	2386,(6, 76),2	
1,(0, 2),1	5,(0, 7),1	34,(1, 15),1	37,(1, 20),1	40,(3, 15),14	55,(3, 20),1	56,(4, 10),10	66,(4, 15),1	79,(3, 45),6	85,(3, 50),9	95,(3, 55),1	96,(3, 80),1	97,(8, 10),1	98,(8, 15),1	99,(4, 75),2	108,(3, 70),11	119,(8, 25),1	120,(8, 35),3	123,(8, 40),2	130,(3, 60),28	158,(4, 20),12	170,(4, 50),17	187,(5, 20),1	188,(1, 45),1	189,(5, 35),1	190,(5, 45),1	193,(8, 55),1	200,(1, 50),5	205,(3, 65),28	233,(4, 30),27	260,(8, 30),8	288,(5, 40),15	311,(1, 55),5	316,(8, 75),9	330,(5, 70),8	357,(8, 60),15	392,(1, 60),3	401,(1, 65),1	402,(8, 45),32	671,(4, 80),38	1913,(1, 75),6	1930,(1, 80),14	1995,(6, 20),195	2190,(6, 25),1	2198,(6, 40),1	2243,(6, 45),1	2253,(6, 60),4	2262,(6, 65),4	2379,(6, 70),2	
28,(2, 14),7	35,(2, 24),1	36,(2, 34),1	46,(2, 59),1	56,(3, 24),3	59,(3, 29),7	66,(3, 34),3	69,(3, 39),1	70,(3, 44),1	71,(4, 19),2	73,(2, 29),27	100,(3, 54),1	101,(3, 59),1	102,(3, 69),6	108,(4, 24),9	117,(4, 34),24	141,(4, 39),5	146,(4, 49),7	153,(4, 69),5	158,(5, 9),23	181,(5, 24),2	183,(5, 34),1	184,(5, 39),1	185,(2, 79),1	186,(8, 14),4	190,(2, 64),6	196,(5, 54),6	202,(5, 59),2	204,(5, 64),2	206,(4, 59),14	233,(3, 74),16	249,(5, 14),39	288,(7, 9),3	291,(7, 14),7	298,(7, 49),3	303,(5, 44),11	314,(5, 69),16	330,(8, 44),8	338,(5, 74),9	347,(8, 34),9	356,(8, 54),1	372,(8, 69),1	373,(8, 74),2	375,(8, 79),2	378,(7, 19),6	396,(7, 24),7	403,(7, 29),7	410,(7, 44),7	417,(38, 81),17	434,(8, 64),10	444,(21, 81),17	461,(18, 81),17	511,(7, 64),14	572,(10, 81),17	589,(15, 81),17	607,(4, 79),64	709,(42, 81),17	726,(32, 81),17	743,(47, 81),17	760,(12, 81),17	777,(57, 81),17	794,(62, 81),17	811,(72, 81),17	828,(52, 81),17	845,(36, 81),17	898,(7, 69),95	993,(8, 19),399	1392,(35, 81),17	1409,(50, 81),17	1426,(30, 81),17	1443,(55, 81),17	1769,(22, 81),17	1830,(51, 81),17	1955,(77, 81),17	1972,(11, 81),17	1995,(16, 81),17	2028,(75, 81),17	2045,(80, 81),17	2085,(13, 81),17	2127,(28, 81),17	2199,(17, 81),17	2227,(20, 81),17	2244,(26, 81),17	2261,(27, 81),17	2278,(23, 81),17	2295,(25, 81),17	2312,(37, 81),17	2329,(33, 81),17	2350,(31, 81),17	2367,(40, 81),17	2384,(41, 81),17	2401,(43, 81),17	2418,(45, 81),17	2435,(46, 81),17	2452,(48, 81),17	2469,(60, 81),17	2486,(56, 81),17	2503,(58, 81),17	2520,(65, 81),17	2537,(61, 81),17	2554,(63, 81),17	2571,(53, 81),17	2588,(66, 81),17	2605,(67, 81),17	2622,(68, 81),17	2639,(70, 81),17	2656,(71, 81),17	2673,(73, 81),17	2690,(76, 81),17	2707,(78, 81),17	
# Outgoing
158,(5, 9),23	181,(5, 24),2	183,(5, 34),1	184,(5, 39),1	185,(5, 41),1	186,(5, 61),1	187,(5, 20),1	189,(5, 35),1	190,(5, 45),1	196,(5, 54),6	202,(5, 59),2	204,(5, 64),2	206,(5, 36),3	219,(5, 27),12	231,(5, 47),6	237,(5, 62),3	240,(5, 72),5	249,(5, 14),39	288,(5, 40),15	303,(5, 44),11	314,(5, 69),16	330,(5, 70),8	338,(5, 74),9	378,(5, 56),11	392,(5, 77),6	417,(38, 81),17	461,(18, 81),17	511,(5, 67),22	607,(5, 11),50	657,(5, 16),23	680,(5, 22),1064	1744,(5, 51),61	1805,(5, 71),20	2085,(13, 81),17	2127,(28, 81),17	2278,(23, 81),17	2329,(33, 81),17	2401,(43, 81),17	2452,(48, 81),17	2503,(58, 81),17	2554,(63, 81),17	2571,(53, 81),17	2622,(68, 81),17	2673,(73, 81),17	2707,(78, 81),17	
56,(4, 10),10	66,(4, 15),1	67,(4, 18),1	68,(4, 48),3	71,(4, 19),2	73,(4, 11),4	77,(4, 16),1	78,(4, 21),4	82,(4, 36),2	84,(4, 41),15	99,(4, 75),2	101,(4, 66),2	108,(4, 24),9	117,(4, 34),24	141,(4, 39),5	146,(4, 49),7	153,(4, 69),5	158,(4, 20),12	170,(4, 50),17	190,(4, 46),16	206,(4, 59),14	233,(4, 30),27	260,(4, 51),33	293,(4, 76),85	418,(4, 71),189	607,(4, 79),64	671,(4, 80),38	709,(42, 81),17	726,(32, 81),17	743,(47, 81),17	760,(12, 81),17	777,(57, 81),17	794,(62, 81),17	811,(72, 81),17	828,(52, 81),17	1769,(22, 81),17	1955,(77, 81),17	2028,(4, 13),32	2060,(4, 23),15	2075,(4, 28),27	2102,(4, 53),19	2121,(4, 63),52	2173,(4, 68),26	2199,(17, 81),17	2261,(27, 81),17	2312,(37, 81),17	2605,(67, 81),17	
34,(3, 13),6	40,(3, 15),14	54,(3, 18),1	55,(3, 20),1	56,(3, 24),3	59,(3, 29),7	66,(3, 34),3	69,(3, 39),1	70,(3, 44),1	71,(3, 22),7	78,(3, 42),1	79,(3, 45),6	85,(3, 50),9	94,(3, 52),1	95,(3, 55),1	96,(3, 80),1	97,(8, 10),1	98,(8, 15),1	99,(8, 22),1	100,(3, 54),1	101,(3, 59),1	102,(3, 69),6	108,(3, 70),11	119,(8, 25),1	120,(8, 35),3	123,(8, 40),2	125,(3, 57),5	130,(3, 60),28	158,(3, 72),8	166,(8, 62),1	167,(8, 67),5	172,(8, 72),1	173,(8, 77),1	178,(3, 48),1	179,(3, 58),1	180,(8, 13),6	186,(8, 14),4	190,(8, 23),3	193,(8, 55),1	205,(3, 65),28	233,(3, 74),16	260,(8, 30),8	275,(8, 12),17	292,(8, 52),18	316,(8, 75),9	330,(8, 44),8	347,(8, 34),9	356,(8, 54),1	357,(8, 60),15	372,(8, 69),1	373,(8, 74),2	375,(8, 79),2	378,(3, 73),12	402,(8, 45),32	434,(8, 64),10	444,(21, 81),17	845,(36, 81),17	993,(8, 19),399	1830,(51, 81),17	1972,(11, 81),17	1995,(16, 81),17	2227,(8, 68),7	2244,(26, 81),17	2262,(8, 53),43	2305,(8, 73),18	2323,(8, 78),27	2350,(31, 81),17	2384,(41, 81),17	2435,(46, 81),17	2486,(56, 81),17	2537,(61, 81),17	2588,(66, 81),17	2656,(71, 81),17	2690,(76, 81),17	
27,(2, 11),1	28,(2, 14),7	35,(2, 24),1	36,(2, 34),1	37,(2, 16),1	38,(2, 17),3	41,(2, 32),4	45,(2, 48),1	46,(2, 59),1	47,(2, 63),1	48,(2, 72),1	49,(2, 21),1	50,(2, 26),23	73,(2, 29),27	100,(2, 36),1	101,(2, 37),24	125,(2, 66),1	126,(2, 28),12	138,(2, 38),11	149,(2, 43),29	178,(2, 46),4	182,(2, 56),3	185,(2, 79),1	186,(2, 62),4	190,(2, 64),6	196,(2, 68),2	198,(7, 13),1	199,(7, 58),1	200,(7, 12),3	203,(7, 32),1	204,(7, 63),1	206,(2, 57),13	219,(2, 76),29	248,(7, 21),3	251,(7, 26),4	255,(7, 31),4	259,(7, 46),1	260,(7, 57),12	272,(7, 62),2	274,(7, 72),1	288,(7, 9),3	291,(7, 14),7	298,(7, 49),3	311,(2, 53),46	357,(2, 73),21	378,(7, 19),6	389,(7, 71),1	390,(7, 18),6	396,(7, 24),7	403,(7, 29),7	410,(7, 44),7	420,(2, 77),91	511,(7, 64),14	533,(7, 52),39	572,(10, 81),17	589,(15, 81),17	680,(7, 36),14	694,(7, 51),4	698,(7, 56),157	855,(7, 66),43	898,(7, 69),95	993,(7, 76),2	1392,(35, 81),17	1409,(50, 81),17	1426,(30, 81),17	1443,(55, 81),17	1913,(2, 78),115	2028,(75, 81),17	2045,(80, 81),17	2201,(7, 68),6	2217,(7, 33),10	2227,(20, 81),17	2295,(25, 81),17	2367,(40, 81),17	2418,(45, 81),17	2469,(60, 81),17	2520,(65, 81),17	2639,(70, 81),17	
1,(0, 2),1	2,(0, 3),1	3,(0, 4),1	4,(0, 5),1	5,(0, 7),1	6,(0, 8),1	26,(1, 11),1	27,(1, 13),7	34,(1, 15),1	35,(1, 16),2	37,(1, 20),1	38,(1, 21),11	49,(1, 22),22	71,(1, 23),55	126,(1, 26),52	178,(1, 27),1	179,(1, 32),7	186,(1, 38),1	187,(1, 43),1	188,(1, 45),1	189,(1, 46),1	190,(1, 47),10	200,(1, 50),5	205,(1, 52),1	206,(1, 53),105	311,(1, 55),5	316,(1, 57),76	392,(1, 60),3	395,(1, 61),4	399,(1, 62),1	400,(1, 63),1	401,(1, 65),1	402,(1, 68),13	415,(1, 71),3	418,(1, 72),2	420,(1, 73),1493	1913,(1, 75),6	1919,(1, 76),7	1926,(1, 77),4	1930,(1, 80),14	1944,(6, 11),1	1945,(6, 16),1	1946,(6, 17),49	1995,(6, 20),195	2190,(6, 25),1	2191,(6, 26),1	2192,(6, 27),1	2193,(6, 37),5	2198,(6, 40),1	2199,(6, 23),2	2201,(6, 31),7	2208,(6, 33),9	2217,(6, 41),18	2235,(6, 43),8	2243,(6, 45),1	2244,(6, 46),5	2249,(6, 48),2	2251,(6, 56),1	2252,(6, 58),1	2253,(6, 60),4	2257,(6, 61),2	2259,(6, 63),3	2262,(6, 65),4	2266,(6, 66),89	2355,(6, 67),23	2378,(6, 68),1	2379,(6, 70),2	2381,(6, 71),1	2382,(6, 73),4	2386,(6, 76),2	2388,(6, 78),22	
