3557
# CPU
0,0,1	1,7,151	152,15,151	303,62,151	454,22,151	605,46,151	756,73,151	907,44,151	1058,20,151	1209,14,151	1360,74,151	1511,16,151	1662,48,151	1813,33,151	1964,6,151	2115,51,151	2266,43,151	2417,80,151	2568,68,151	2719,27,151	2870,17,151	3405,37,151	3556,81,1	
7,4,151	158,23,151	309,79,151	460,25,151	611,9,151	762,45,151	913,61,151	1064,72,151	1215,41,151	1366,12,151	1517,39,151	1668,52,151	1819,70,151	1970,66,151	2121,3,151	2272,50,151	2423,77,151	2574,53,151	2725,76,151	2876,29,151	
10,5,151	161,78,151	312,40,151	463,31,151	614,28,151	765,24,151	916,13,151	1067,69,151	1218,75,151	1369,1,151	1520,71,151	1671,26,151	1822,60,151	1973,58,151	2124,34,151	2275,38,151	2426,59,151	2577,32,151	2728,19,151	
4,8,151	155,47,151	306,35,151	457,56,151	608,18,151	759,57,151	910,2,151	1061,11,151	1212,49,151	1363,36,151	1514,65,151	1665,42,151	1816,21,151	1967,54,151	2118,10,151	2269,64,151	2420,55,151	2571,63,151	2722,67,151	2873,30,151	
# Incoming
306,(47, 81),48	354,(23, 81),48	402,(78, 81),48	457,(35, 81),48	505,(79, 81),48	553,(40, 81),48	608,(56, 81),48	656,(25, 81),48	704,(31, 81),48	759,(18, 81),48	807,(9, 81),48	855,(28, 81),48	910,(57, 81),48	958,(45, 81),48	1006,(24, 81),48	1064,(61, 81),48	1112,(13, 81),48	1212,(11, 81),48	1260,(72, 81),48	1308,(69, 81),48	1363,(49, 81),48	1411,(41, 81),48	1459,(75, 81),48	1514,(36, 81),48	1562,(12, 81),48	1665,(65, 81),48	1713,(39, 81),48	1761,(71, 81),48	1816,(42, 81),48	1864,(52, 81),48	1912,(26, 81),48	1967,(21, 81),48	2015,(70, 81),48	2063,(60, 81),48	2118,(54, 81),48	2166,(66, 81),48	2214,(58, 81),48	2269,(10, 81),48	2317,(34, 81),48	2420,(64, 81),48	2468,(50, 81),48	2516,(38, 81),48	2571,(55, 81),48	2619,(77, 81),48	2667,(59, 81),48	2722,(63, 81),48	2770,(53, 81),48	2818,(32, 81),48	2873,(67, 81),48	2921,(76, 81),48	2969,(19, 81),48	3024,(30, 81),48	3072,(29, 81),48	3120,(1, 37),105	3225,(3, 37),180	
4,(0, 4),3	16,(0, 3),3	1520,(1, 66),3	1547,(1, 29),93	
7,(0, 5),3	13,(0, 1),3	
1,(0, 8),3	10,(0, 2),3	152,(7, 55),9	1523,(1, 64),6	1529,(1, 63),18	2115,(6, 64),3	2118,(6, 67),33	2151,(6, 30),15	2272,(3, 30),21	
# Outgoing
1,(0, 8),3	4,(0, 4),3	7,(0, 5),3	10,(0, 2),3	13,(0, 1),3	16,(0, 3),3	152,(7, 55),9	2115,(6, 64),3	2118,(6, 67),33	2151,(6, 30),15	
354,(23, 81),48	505,(79, 81),48	656,(25, 81),48	807,(9, 81),48	958,(45, 81),48	1064,(61, 81),48	1260,(72, 81),48	1411,(41, 81),48	1562,(12, 81),48	1713,(39, 81),48	1864,(52, 81),48	2015,(70, 81),48	2166,(66, 81),48	2272,(3, 30),21	2468,(50, 81),48	2619,(77, 81),48	2770,(53, 81),48	2921,(76, 81),48	3072,(29, 81),48	3225,(3, 37),180	
402,(78, 81),48	553,(40, 81),48	704,(31, 81),48	855,(28, 81),48	1006,(24, 81),48	1112,(13, 81),48	1308,(69, 81),48	1459,(75, 81),48	1520,(1, 66),3	1523,(1, 64),6	1529,(1, 63),18	1547,(1, 29),93	1761,(71, 81),48	1912,(26, 81),48	2063,(60, 81),48	2214,(58, 81),48	2317,(34, 81),48	2516,(38, 81),48	2667,(59, 81),48	2818,(32, 81),48	2969,(19, 81),48	3120,(1, 37),105	
306,(47, 81),48	457,(35, 81),48	608,(56, 81),48	759,(18, 81),48	910,(57, 81),48	1212,(11, 81),48	1363,(49, 81),48	1514,(36, 81),48	1665,(65, 81),48	1816,(42, 81),48	1967,(21, 81),48	2118,(54, 81),48	2269,(10, 81),48	2420,(64, 81),48	2571,(55, 81),48	2722,(63, 81),48	2873,(67, 81),48	3024,(30, 81),48	
