63830
# CPU
62797,24,9	63773,14,9	63782,34,9	
62633,13,9	62642,23,9	63049,33,9	
1133,12,9	1185,32,9	62605,22,9	
1081,11,9	62593,21,9	62821,31,9	
1129,10,9	1161,30,9	62589,20,9	63189,40,9	
829,9,9	1225,19,9	12981,39,9	62817,29,9	
805,4,9	913,8,9	12577,38,9	62349,18,9	62813,28,9	
537,3,9	729,37,9	62345,17,9	62689,27,9	63405,7,9	
269,2,9	809,6,9	1085,16,9	62685,26,9	63153,36,9	
0,0,1	1,1,9	818,5,9	850,15,9	859,25,9	989,35,9	63829,41,1	
# Incoming
62629,(1, 24),48	62677,(2, 14),16	62693,(2, 24),104	62797,(3, 14),48	62845,(3, 34),8	63049,(1, 34),20	63069,(2, 34),700	63769,(4, 14),4	63773,(4, 34),4	
62605,(1, 23),24	62629,(2, 13),4	62633,(2, 23),8	62641,(3, 33),20	62821,(1, 33),228	
1033,(1, 12),40	1073,(4, 22),40	1117,(4, 32),8	1129,(2, 12),4	1133,(3, 32),52	62593,(1, 22),12	
825,(1, 11),208	1033,(3, 11),48	1081,(3, 21),4	1085,(3, 31),16	1113,(4, 31),4	1225,(2, 21),156	2157,(2, 31),10412	62589,(1, 21),4	62817,(1, 31),4	
813,(1, 10),12	829,(3, 10),48	877,(4, 10),20	913,(2, 10),216	1129,(3, 20),4	1133,(4, 20),4	1137,(4, 30),24	1185,(3, 40),108	1329,(4, 40),72	62349,(1, 20),240	63153,(1, 40),36	
809,(1, 9),4	813,(3, 9),16	850,(4, 19),4	877,(3, 19),40	921,(3, 29),8	929,(3, 39),52	1169,(2, 19),56	1225,(4, 39),104	1437,(2, 29),720	12577,(2, 39),404	62813,(1, 29),4	
537,(0, 4),268	805,(2, 8),108	917,(3, 28),4	1133,(2, 18),36	1381,(2, 28),56	1437,(3, 18),1264	12569,(2, 38),8	62345,(1, 18),4	62689,(1, 28),124	
269,(0, 3),268	537,(2, 7),24	573,(2, 17),8	585,(2, 37),144	1085,(1, 17),61260	62685,(1, 27),4	62689,(4, 7),716	
1,(0, 2),268	605,(3, 6),28	641,(3, 16),64	709,(3, 26),4	805,(1, 6),4	858,(4, 26),16	897,(4, 16),88	1073,(1, 16),12	62677,(1, 26),8	63069,(1, 36),84	
561,(2, 15),12	581,(2, 25),4	585,(3, 5),20	633,(3, 15),8	705,(3, 25),4	738,(37, 41),20	814,(4, 5),4	818,(4, 15),32	854,(4, 25),4	858,(9, 41),20	985,(4, 35),4	989,(8, 41),20	1090,(11, 41),20	1138,(10, 41),20	1158,(12, 41),20	1178,(30, 41),20	1198,(32, 41),20	1234,(19, 41),20	12586,(38, 41),20	12981,(6, 41),20	13001,(16, 41),20	13021,(39, 41),20	62354,(17, 41),20	62374,(18, 41),20	62598,(20, 41),20	62618,(21, 41),20	62638,(22, 41),20	62658,(13, 41),20	62678,(23, 41),20	62698,(27, 41),20	62797,(26, 41),20	62817,(24, 41),20	62837,(29, 41),20	62857,(31, 41),20	63058,(33, 41),20	63198,(40, 41),20	63405,(28, 41),20	63425,(7, 41),20	63769,(36, 41),20	63789,(14, 41),20	63809,(34, 41),20	
# Outgoing
62817,(24, 41),20	63789,(14, 41),20	63809,(34, 41),20	
62658,(13, 41),20	62678,(23, 41),20	63058,(33, 41),20	
1158,(12, 41),20	1198,(32, 41),20	62638,(22, 41),20	
1090,(11, 41),20	62618,(21, 41),20	62857,(31, 41),20	
1138,(10, 41),20	1178,(30, 41),20	62598,(20, 41),20	63198,(40, 41),20	
858,(9, 41),20	1234,(19, 41),20	13021,(39, 41),20	62837,(29, 41),20	
814,(4, 5),4	818,(4, 15),32	850,(4, 19),4	854,(4, 25),4	858,(4, 26),16	877,(4, 10),20	897,(4, 16),88	985,(4, 35),4	989,(8, 41),20	1073,(4, 22),40	1113,(4, 31),4	1117,(4, 32),8	1133,(4, 20),4	1137,(4, 30),24	1225,(4, 39),104	1329,(4, 40),72	12586,(38, 41),20	62374,(18, 41),20	62689,(4, 7),716	63405,(28, 41),20	63769,(4, 14),4	63773,(4, 34),4	
585,(3, 5),20	605,(3, 6),28	633,(3, 15),8	641,(3, 16),64	705,(3, 25),4	709,(3, 26),4	738,(37, 41),20	813,(3, 9),16	829,(3, 10),48	877,(3, 19),40	917,(3, 28),4	921,(3, 29),8	929,(3, 39),52	1033,(3, 11),48	1081,(3, 21),4	1085,(3, 31),16	1129,(3, 20),4	1133,(3, 32),52	1185,(3, 40),108	1437,(3, 18),1264	62354,(17, 41),20	62641,(3, 33),20	62698,(27, 41),20	62797,(3, 14),48	62845,(3, 34),8	63425,(7, 41),20	
537,(2, 7),24	561,(2, 15),12	573,(2, 17),8	581,(2, 25),4	585,(2, 37),144	805,(2, 8),108	913,(2, 10),216	1129,(2, 12),4	1133,(2, 18),36	1169,(2, 19),56	1225,(2, 21),156	1381,(2, 28),56	1437,(2, 29),720	2157,(2, 31),10412	12569,(2, 38),8	12577,(2, 39),404	12981,(6, 41),20	13001,(16, 41),20	62629,(2, 13),4	62633,(2, 23),8	62677,(2, 14),16	62693,(2, 24),104	62797,(26, 41),20	63069,(2, 34),700	63769,(36, 41),20	
1,(0, 2),268	269,(0, 3),268	537,(0, 4),268	805,(1, 6),4	809,(1, 9),4	813,(1, 10),12	825,(1, 11),208	1033,(1, 12),40	1073,(1, 16),12	1085,(1, 17),61260	62345,(1, 18),4	62349,(1, 20),240	62589,(1, 21),4	62593,(1, 22),12	62605,(1, 23),24	62629,(1, 24),48	62677,(1, 26),8	62685,(1, 27),4	62689,(1, 28),124	62813,(1, 29),4	62817,(1, 31),4	62821,(1, 33),228	63049,(1, 34),20	63069,(1, 36),84	63153,(1, 40),36	
