4266
# CPU
3,3,24	27,6,24	51,11,24	75,47,24	99,55,24	123,117,24	147,59,24	171,90,24	195,50,24	219,89,24	243,54,24	1683,60,24	1817,63,24	1841,68,24	1865,25,24	1889,43,24	1913,76,24	1937,87,24	1987,57,24	2011,73,24	2035,34,24	2761,48,24	2785,107,24	2911,103,24	3317,81,24	3341,100,24	3415,94,24	3439,96,24	3463,14,24	3487,42,24	3927,64,24	3951,82,24	3975,24,24	3999,44,24	4023,53,24	4047,84,24	4071,91,24	4095,97,24	4119,101,24	4143,118,24	4265,121,1	
0,0,1	1,2,24	25,4,24	49,7,24	73,1,24	97,8,24	121,56,24	145,75,24	169,35,24	193,66,24	217,17,24	241,20,24	265,28,24	289,105,24	313,49,24	337,70,24	361,93,24	385,106,24	409,39,24	433,65,24	457,41,24	481,22,24	505,21,24	529,15,24	553,116,24	577,108,24	601,69,24	625,77,24	649,33,24	673,38,24	697,37,24	721,71,24	745,79,24	769,86,24	793,61,24	817,119,24	841,32,24	865,109,24	889,27,24	913,51,24	937,115,24	
5,5,24	29,9,24	53,10,24	77,12,24	101,30,24	125,88,24	149,85,24	173,114,24	197,111,24	221,18,24	245,19,24	269,95,24	293,74,24	317,23,24	341,98,24	365,29,24	389,92,24	413,83,24	437,80,24	461,58,24	485,45,24	509,31,24	533,40,24	557,110,24	581,13,24	605,26,24	629,102,24	1839,72,24	1961,120,24	1985,16,24	2009,99,24	2033,46,24	2057,52,24	2081,78,24	2775,62,24	2799,104,24	2823,113,24	2847,36,24	2871,67,24	2895,112,24	
# Incoming
1,(0, 3),2	5,(0, 6),2	11,(0, 11),2	29,(2, 42),152	181,(5, 14),2	183,(2, 48),1494	1677,(5, 103),2	1679,(2, 60),4	1683,(2, 63),134	1817,(2, 68),6	1823,(5, 25),12	1835,(10, 43),2	1837,(10, 53),2	1839,(2, 76),2	1841,(2, 87),8	1849,(2, 96),100	1949,(2, 118),8	1957,(5, 57),30	1987,(5, 73),6	1993,(4, 34),6	1999,(4, 48),762	2761,(4, 91),2	2763,(4, 107),2	2765,(9, 44),134	2899,(9, 103),12	2911,(7, 14),64	2975,(7, 44),326	3301,(7, 64),8	3309,(7, 81),8	3317,(7, 97),8	3325,(7, 100),2	3327,(10, 42),86	3413,(10, 94),2	3415,(10, 96),2	3417,(10, 97),2	3419,(1, 14),2	3421,(1, 42),4	3425,(1, 44),30	3455,(1, 64),148	3603,(12, 64),324	3927,(12, 82),4	3931,(8, 24),6	3937,(8, 44),14	3951,(8, 53),14	3965,(8, 84),2	3967,(8, 91),2	3969,(8, 97),4	3973,(8, 101),4	3977,(8, 118),4	3981,(30, 121),4	3985,(56, 121),4	3989,(88, 121),4	3993,(75, 121),4	3997,(85, 121),4	4001,(35, 121),4	4005,(114, 121),4	4009,(66, 121),4	4013,(111, 121),4	4017,(17, 121),4	4021,(18, 121),4	4025,(20, 121),4	4029,(19, 121),4	4033,(28, 121),4	4037,(95, 121),4	4041,(105, 121),4	4045,(74, 121),4	4049,(49, 121),4	4053,(23, 121),4	4057,(70, 121),4	4061,(98, 121),4	4065,(93, 121),4	4069,(29, 121),4	4073,(106, 121),4	4077,(92, 121),4	4081,(39, 121),4	4085,(83, 121),4	4089,(65, 121),4	4093,(80, 121),4	4097,(41, 121),4	4101,(58, 121),4	4105,(22, 121),4	4109,(45, 121),4	4113,(21, 121),4	4117,(31, 121),4	4121,(15, 121),4	4125,(40, 121),4	4129,(116, 121),4	4133,(110, 121),4	4137,(108, 121),4	4141,(13, 121),4	4145,(69, 121),4	4149,(26, 121),4	4153,(77, 121),4	4157,(102, 121),4	4161,(33, 121),4	4165,(38, 121),4	4169,(37, 121),4	4173,(71, 121),4	4177,(79, 121),4	4181,(86, 121),4	4185,(61, 121),4	4189,(119, 121),4	4193,(32, 121),4	4197,(109, 121),4	4201,(27, 121),4	4205,(51, 121),4	4209,(115, 121),4	4213,(72, 121),4	4217,(120, 121),4	4221,(16, 121),4	4225,(99, 121),4	4229,(46, 121),4	4233,(52, 121),4	4237,(78, 121),4	4241,(62, 121),4	4245,(104, 121),4	4249,(113, 121),4	4253,(36, 121),4	4257,(67, 121),4	4261,(112, 121),4	
35,(3, 37),58	111,(3, 69),2	113,(3, 70),2	121,(3, 108),14	147,(6, 33),2	149,(6, 38),2	157,(6, 69),2	159,(6, 77),2	161,(6, 109),2	179,(11, 61),4	183,(5, 33),2	185,(5, 38),2	187,(9, 37),10	197,(9, 71),2	199,(9, 79),2	201,(9, 86),2	203,(9, 115),6	209,(10, 61),6	215,(10, 119),2	217,(12, 32),2	219,(11, 27),36	255,(10, 109),8	263,(12, 27),4	267,(12, 51),2	269,(12, 115),2	
3,(0, 5),2	7,(0, 9),2	9,(0, 10),2	13,(0, 12),2	25,(2, 30),4	29,(3, 18),2	31,(3, 19),4	93,(3, 40),14	107,(3, 46),2	109,(3, 62),2	115,(3, 104),6	135,(3, 110),2	137,(6, 13),2	139,(6, 26),8	151,(6, 52),6	163,(11, 16),6	169,(11, 26),10	181,(2, 46),2	183,(6, 102),36	1677,(2, 52),2	1823,(2, 72),16	1957,(2, 120),4	1961,(4, 16),14	1975,(7, 99),2	1977,(7, 113),6	1983,(1, 46),6	1989,(1, 52),2	1991,(8, 78),2	2765,(1, 62),10	2775,(1, 104),16	2791,(1, 113),6	2797,(8, 36),4	2801,(8, 67),12	2813,(8, 112),10	
# Outgoing
29,(3, 18),2	31,(3, 19),4	35,(3, 37),58	93,(3, 40),14	107,(3, 46),2	109,(3, 62),2	111,(3, 69),2	113,(3, 70),2	115,(3, 104),6	121,(3, 108),14	135,(3, 110),2	137,(6, 13),2	139,(6, 26),8	147,(6, 33),2	149,(6, 38),2	151,(6, 52),6	157,(6, 69),2	159,(6, 77),2	161,(6, 109),2	163,(11, 16),6	169,(11, 26),10	179,(11, 61),4	183,(6, 102),36	219,(11, 27),36	
1,(0, 3),2	3,(0, 5),2	5,(0, 6),2	7,(0, 9),2	9,(0, 10),2	11,(0, 11),2	13,(0, 12),2	25,(2, 30),4	29,(2, 42),152	181,(2, 46),2	183,(2, 48),1494	1677,(2, 52),2	1679,(2, 60),4	1683,(2, 63),134	1817,(2, 68),6	1823,(2, 72),16	1839,(2, 76),2	1841,(2, 87),8	1849,(2, 96),100	1949,(2, 118),8	1957,(2, 120),4	1961,(4, 16),14	1975,(7, 99),2	1977,(7, 113),6	1983,(1, 46),6	1989,(1, 52),2	1991,(8, 78),2	1993,(4, 34),6	1999,(4, 48),762	2761,(4, 91),2	2763,(4, 107),2	2765,(1, 62),10	2775,(1, 104),16	2791,(1, 113),6	2797,(8, 36),4	2801,(8, 67),12	2813,(8, 112),10	2911,(7, 14),64	2975,(7, 44),326	3301,(7, 64),8	3309,(7, 81),8	3317,(7, 97),8	3325,(7, 100),2	3419,(1, 14),2	3421,(1, 42),4	3425,(1, 44),30	3455,(1, 64),148	3931,(8, 24),6	3937,(8, 44),14	3951,(8, 53),14	3965,(8, 84),2	3967,(8, 91),2	3969,(8, 97),4	3973,(8, 101),4	3977,(8, 118),4	3985,(56, 121),4	3993,(75, 121),4	4001,(35, 121),4	4009,(66, 121),4	4017,(17, 121),4	4025,(20, 121),4	4033,(28, 121),4	4041,(105, 121),4	4049,(49, 121),4	4057,(70, 121),4	4065,(93, 121),4	4073,(106, 121),4	4081,(39, 121),4	4089,(65, 121),4	4097,(41, 121),4	4105,(22, 121),4	4113,(21, 121),4	4121,(15, 121),4	4129,(116, 121),4	4137,(108, 121),4	4145,(69, 121),4	4153,(77, 121),4	4161,(33, 121),4	4165,(38, 121),4	4169,(37, 121),4	4173,(71, 121),4	4177,(79, 121),4	4181,(86, 121),4	4185,(61, 121),4	4189,(119, 121),4	4193,(32, 121),4	4197,(109, 121),4	4201,(27, 121),4	4205,(51, 121),4	4209,(115, 121),4	
181,(5, 14),2	183,(5, 33),2	185,(5, 38),2	187,(9, 37),10	197,(9, 71),2	199,(9, 79),2	201,(9, 86),2	203,(9, 115),6	209,(10, 61),6	215,(10, 119),2	217,(12, 32),2	255,(10, 109),8	263,(12, 27),4	267,(12, 51),2	269,(12, 115),2	1677,(5, 103),2	1823,(5, 25),12	1835,(10, 43),2	1837,(10, 53),2	1957,(5, 57),30	1987,(5, 73),6	2765,(9, 44),134	2899,(9, 103),12	3327,(10, 42),86	3413,(10, 94),2	3415,(10, 96),2	3417,(10, 97),2	3603,(12, 64),324	3927,(12, 82),4	3981,(30, 121),4	3989,(88, 121),4	3997,(85, 121),4	4005,(114, 121),4	4013,(111, 121),4	4021,(18, 121),4	4029,(19, 121),4	4037,(95, 121),4	4045,(74, 121),4	4053,(23, 121),4	4061,(98, 121),4	4069,(29, 121),4	4077,(92, 121),4	4085,(83, 121),4	4093,(80, 121),4	4101,(58, 121),4	4109,(45, 121),4	4117,(31, 121),4	4125,(40, 121),4	4133,(110, 121),4	4141,(13, 121),4	4149,(26, 121),4	4157,(102, 121),4	4213,(72, 121),4	4217,(120, 121),4	4221,(16, 121),4	4225,(99, 121),4	4229,(46, 121),4	4233,(52, 121),4	4237,(78, 121),4	4241,(62, 121),4	4245,(104, 121),4	4249,(113, 121),4	4253,(36, 121),4	4257,(67, 121),4	4261,(112, 121),4	
