5822
# CPU
0,201,1	1,189,18	19,122,18	37,130,18	55,104,18	73,99,18	91,59,18	109,160,18	127,24,18	145,25,18	163,149,18	181,106,18	199,38,18	217,31,18	235,183,18	253,162,18	271,28,18	289,124,18	307,128,18	325,111,18	343,47,18	361,117,18	379,95,18	397,172,18	415,23,18	433,110,18	451,57,18	469,33,18	487,158,18	505,88,18	523,165,18	541,64,18	559,137,18	577,197,18	595,184,18	613,105,18	631,178,18	649,141,18	667,26,18	685,37,18	703,85,18	721,138,18	739,83,18	757,94,18	775,186,18	793,109,18	811,27,18	829,89,18	847,126,18	865,52,18	883,161,18	901,36,18	919,75,18	937,67,18	955,84,18	973,87,18	991,139,18	1009,101,18	1027,188,18	1045,96,18	1063,190,18	1081,46,18	1099,61,18	1117,155,18	1135,198,18	1153,185,18	1171,74,18	1189,69,18	1207,86,18	1225,177,18	1243,168,18	1261,127,18	1279,114,18	1297,179,18	1315,51,18	1333,154,18	1351,72,18	1369,22,18	1387,118,18	1405,30,18	1423,121,18	1441,76,18	1459,70,18	1477,152,18	1495,50,18	1513,144,18	1531,66,18	1549,131,18	1567,169,18	1585,41,18	1603,120,18	1621,42,18	1639,148,18	1657,175,18	1675,142,18	1693,195,18	1711,35,18	1729,71,18	1747,112,18	1765,123,18	1783,194,18	1801,192,18	1819,187,18	1837,135,18	1855,180,18	1873,21,18	1891,103,18	1909,29,18	1927,125,18	1945,58,18	1963,63,18	1981,90,18	1999,78,18	2017,80,18	2035,129,18	2053,200,18	2071,166,18	2089,132,18	2107,92,18	2125,81,18	2143,79,18	2161,32,18	2179,173,18	2197,19,18	2215,108,18	2233,182,18	2251,7,18	2269,10,18	2287,15,18	2305,14,18	2323,20,18	2341,9,18	2359,12,18	2377,6,18	2395,11,18	2503,8,18	2675,2,18	2943,1,18	3495,4,18	4235,13,18	5803,17,18	5821,0,1	
41,164,18	81,100,18	121,62,18	281,43,18	361,156,18	521,145,18	561,176,18	601,116,18	761,60,18	801,153,18	881,193,18	1081,143,18	1121,77,18	1201,163,18	1241,170,18	1281,48,18	1401,113,18	1521,133,18	1601,150,18	1681,98,18	1921,53,18	1961,93,18	2041,49,18	2081,151,18	2121,56,18	2161,40,18	2201,102,18	2241,181,18	2773,18,18	4557,16,18	
161,39,18	201,34,18	241,147,18	321,196,18	401,82,18	441,191,18	481,45,18	641,167,18	681,174,18	721,159,18	841,146,18	921,65,18	961,97,18	1001,91,18	1041,44,18	1161,115,18	1321,199,18	1361,171,18	1441,136,18	1481,140,18	1561,134,18	1641,55,18	1721,54,18	1761,157,18	1801,73,18	1841,68,18	1881,119,18	2001,107,18	2341,3,18	3637,5,18	
# Incoming
379,(156, 19),12	391,(39, 7),4	395,(147, 10),8	403,(62, 15),4	407,(43, 20),8	415,(156, 20),8	423,(34, 9),4	427,(156, 12),4	431,(196, 6),4	435,(82, 6),4	439,(196, 11),8	447,(196, 2),4	451,(164, 1),4	455,(100, 1),4	459,(191, 15),4	463,(191, 14),8	471,(82, 1),16	487,(147, 13),4	499,(45, 9),16	515,(191, 13),16	539,(145, 12),20	559,(145, 13),4	579,(176, 19),4	583,(176, 14),4	587,(176, 4),4	619,(116, 1),12	659,(167, 11),24	699,(174, 10),8	707,(174, 9),24	779,(60, 14),28	807,(60, 11),28	859,(146, 20),16	875,(146, 11),4	879,(146, 1),4	899,(193, 20),20	939,(65, 7),16	955,(65, 9),4	979,(97, 14),36	1015,(97, 1),4	1019,(91, 7),40	1059,(44, 10),40	1099,(44, 15),8	1107,(143, 15),44	1151,(77, 15),4	1155,(44, 9),12	1167,(146, 12),32	1199,(77, 12),44	1243,(163, 12),12	1255,(143, 6),4	1259,(170, 6),56	1315,(163, 11),28	1343,(199, 8),72	1415,(65, 2),36	1451,(91, 2),16	1467,(48, 2),64	1531,(199, 2),4	1535,(140, 4),4	1539,(133, 15),4	1543,(133, 9),32	1575,(193, 1),32	1607,(170, 13),4	1611,(134, 17),4	1619,(150, 9),4	1623,(153, 4),32	1659,(55, 20),4	1663,(171, 4),16	1679,(134, 4),40	1719,(55, 4),8	1739,(54, 10),8	1747,(54, 2),4	1751,(54, 4),4	1779,(157, 7),4	1783,(54, 6),140	1923,(119, 11),4	1939,(53, 20),4	1943,(140, 13),28	1979,(93, 9),8	1987,(98, 13),48	2059,(49, 20),20	2139,(56, 20),8	2179,(40, 8),12	2191,(40, 2),20	2219,(102, 6),4	2223,(150, 11),120	2343,(102, 1),4	2359,(3, 0),4	2363,(98, 8),140	2503,(157, 2),172	2675,(140, 1),100	2775,(134, 1),116	2891,(40, 1),52	2943,(18, 0),4	2947,(73, 4),196	3143,(107, 4),352	3495,(68, 13),204	3699,(53, 13),300	3999,(107, 13),236	4235,(5, 0),4	4239,(113, 17),84	4323,(133, 17),108	4431,(40, 17),24	4455,(181, 17),1348	5803,(16, 0),4	
1,(201, 164),40	41,(201, 100),40	81,(201, 62),40	241,(201, 43),40	321,(201, 156),40	481,(201, 145),40	521,(201, 176),40	561,(201, 116),40	721,(201, 60),40	761,(201, 153),40	841,(201, 193),40	1041,(201, 143),40	1081,(201, 77),40	1161,(201, 163),40	1201,(201, 170),40	1241,(201, 48),40	1361,(201, 113),40	1481,(201, 133),40	1561,(201, 150),40	1641,(201, 98),40	1881,(201, 53),40	1921,(201, 93),40	2001,(201, 49),40	2041,(201, 151),40	2081,(201, 56),40	2121,(201, 40),40	2161,(201, 102),40	2201,(201, 181),40	2341,(59, 18),4	2345,(162, 18),4	2349,(124, 18),4	2353,(111, 18),12	2365,(105, 18),8	2373,(84, 18),4	2377,(127, 18),52	2429,(120, 18),120	2549,(195, 18),44	2593,(35, 18),140	2733,(192, 18),32	2765,(166, 18),4	2769,(32, 18),4	3213,(105, 16),20	3233,(138, 16),12	3245,(161, 16),8	3253,(36, 16),4	3257,(75, 16),36	3293,(74, 16),48	3341,(177, 16),44	3385,(121, 16),84	3469,(120, 16),8	3477,(182, 16),40	3637,(71, 16),152	3789,(192, 16),196	3985,(180, 16),224	4209,(78, 16),348	
121,(201, 39),40	161,(201, 34),40	201,(201, 147),40	281,(201, 196),40	361,(201, 82),40	401,(201, 191),40	441,(201, 45),40	601,(201, 167),40	641,(201, 174),40	681,(201, 159),40	721,(176, 5),20	741,(116, 5),20	801,(201, 146),40	881,(201, 65),40	921,(201, 97),40	961,(201, 91),40	1001,(201, 44),40	1121,(201, 115),40	1161,(143, 5),16	1281,(201, 199),40	1321,(201, 171),40	1401,(201, 136),40	1441,(201, 140),40	1521,(201, 134),40	1601,(201, 55),40	1681,(201, 54),40	1721,(201, 157),40	1761,(201, 73),40	1801,(201, 68),40	1841,(201, 119),40	1881,(98, 3),44	1961,(201, 107),40	2099,(151, 3),16	2241,(99, 3),4	2245,(95, 3),4	2249,(158, 3),16	2265,(137, 3),20	2285,(141, 3),16	2301,(37, 3),24	2325,(52, 3),4	2329,(66, 3),8	2337,(32, 3),4	2503,(163, 5),52	2773,(149, 5),4	2777,(47, 5),12	2789,(23, 5),16	2805,(138, 5),4	2809,(186, 5),4	2813,(179, 5),68	2881,(50, 5),104	2985,(144, 5),104	3089,(42, 5),120	3209,(35, 5),4	3213,(93, 5),320	3533,(81, 5),104	
# Outgoing
1,(201, 164),40	41,(201, 100),40	81,(201, 62),40	121,(201, 39),40	161,(201, 34),40	201,(201, 147),40	241,(201, 43),40	281,(201, 196),40	321,(201, 156),40	361,(201, 82),40	401,(201, 191),40	441,(201, 45),40	481,(201, 145),40	521,(201, 176),40	561,(201, 116),40	601,(201, 167),40	641,(201, 174),40	681,(201, 159),40	721,(201, 60),40	761,(201, 153),40	801,(201, 146),40	841,(201, 193),40	881,(201, 65),40	921,(201, 97),40	961,(201, 91),40	1001,(201, 44),40	1041,(201, 143),40	1081,(201, 77),40	1121,(201, 115),40	1161,(201, 163),40	1201,(201, 170),40	1241,(201, 48),40	1281,(201, 199),40	1321,(201, 171),40	1361,(201, 113),40	1401,(201, 136),40	1441,(201, 140),40	1481,(201, 133),40	1521,(201, 134),40	1561,(201, 150),40	1601,(201, 55),40	1641,(201, 98),40	1681,(201, 54),40	1721,(201, 157),40	1761,(201, 73),40	1801,(201, 68),40	1841,(201, 119),40	1881,(201, 53),40	1921,(201, 93),40	1961,(201, 107),40	2001,(201, 49),40	2041,(201, 151),40	2081,(201, 56),40	2121,(201, 40),40	2161,(201, 102),40	2201,(201, 181),40	2241,(99, 3),4	2245,(95, 3),4	2249,(158, 3),16	2265,(137, 3),20	2285,(141, 3),16	2301,(37, 3),24	2325,(52, 3),4	2329,(66, 3),8	2337,(32, 3),4	2341,(59, 18),4	2345,(162, 18),4	2349,(124, 18),4	2353,(111, 18),12	2365,(105, 18),8	2373,(84, 18),4	2377,(127, 18),52	2429,(120, 18),120	2549,(195, 18),44	2593,(35, 18),140	2733,(192, 18),32	2765,(166, 18),4	2769,(32, 18),4	2773,(149, 5),4	2777,(47, 5),12	2789,(23, 5),16	2805,(138, 5),4	2809,(186, 5),4	2813,(179, 5),68	2881,(50, 5),104	2985,(144, 5),104	3089,(42, 5),120	3209,(35, 5),4	3213,(105, 16),20	3233,(138, 16),12	3245,(161, 16),8	3253,(36, 16),4	3257,(75, 16),36	3293,(74, 16),48	3341,(177, 16),44	3385,(121, 16),84	3469,(120, 16),8	3477,(182, 16),40	3533,(81, 5),104	3637,(71, 16),152	3789,(192, 16),196	3985,(180, 16),224	4209,(78, 16),348	
379,(156, 19),12	403,(62, 15),4	407,(43, 20),8	415,(156, 20),8	427,(156, 12),4	451,(164, 1),4	455,(100, 1),4	539,(145, 12),20	559,(145, 13),4	579,(176, 19),4	583,(176, 14),4	587,(176, 4),4	619,(116, 1),12	721,(176, 5),20	741,(116, 5),20	779,(60, 14),28	807,(60, 11),28	899,(193, 20),20	1107,(143, 15),44	1151,(77, 15),4	1161,(143, 5),16	1199,(77, 12),44	1243,(163, 12),12	1255,(143, 6),4	1259,(170, 6),56	1315,(163, 11),28	1467,(48, 2),64	1539,(133, 15),4	1543,(133, 9),32	1575,(193, 1),32	1607,(170, 13),4	1619,(150, 9),4	1623,(153, 4),32	1881,(98, 3),44	1939,(53, 20),4	1979,(93, 9),8	1987,(98, 13),48	2059,(49, 20),20	2099,(151, 3),16	2139,(56, 20),8	2179,(40, 8),12	2191,(40, 2),20	2219,(102, 6),4	2223,(150, 11),120	2343,(102, 1),4	2363,(98, 8),140	2503,(163, 5),52	2891,(40, 1),52	2943,(18, 0),4	3213,(93, 5),320	3699,(53, 13),300	4239,(113, 17),84	4323,(133, 17),108	4431,(40, 17),24	4455,(181, 17),1348	5803,(16, 0),4	
391,(39, 7),4	395,(147, 10),8	423,(34, 9),4	431,(196, 6),4	435,(82, 6),4	439,(196, 11),8	447,(196, 2),4	459,(191, 15),4	463,(191, 14),8	471,(82, 1),16	487,(147, 13),4	499,(45, 9),16	515,(191, 13),16	659,(167, 11),24	699,(174, 10),8	707,(174, 9),24	859,(146, 20),16	875,(146, 11),4	879,(146, 1),4	939,(65, 7),16	955,(65, 9),4	979,(97, 14),36	1015,(97, 1),4	1019,(91, 7),40	1059,(44, 10),40	1099,(44, 15),8	1155,(44, 9),12	1167,(146, 12),32	1343,(199, 8),72	1415,(65, 2),36	1451,(91, 2),16	1531,(199, 2),4	1535,(140, 4),4	1611,(134, 17),4	1659,(55, 20),4	1663,(171, 4),16	1679,(134, 4),40	1719,(55, 4),8	1739,(54, 10),8	1747,(54, 2),4	1751,(54, 4),4	1779,(157, 7),4	1783,(54, 6),140	1923,(119, 11),4	1943,(140, 13),28	2359,(3, 0),4	2503,(157, 2),172	2675,(140, 1),100	2775,(134, 1),116	2947,(73, 4),196	3143,(107, 4),352	3495,(68, 13),204	3999,(107, 13),236	4235,(5, 0),4	
