20954
# CPU
41,6,2	81,15,2	91,16,2	101,18,2	111,19,2	4363,127,2	8313,155,2	9543,51,2	9651,105,2	10071,48,2	10137,21,2	10145,72,2	10159,34,2	10185,117,2	11735,52,2	11743,107,2	11951,168,2	11955,169,2	12047,190,2	12049,193,2	12163,24,2	12167,27,2	12247,56,2	12275,89,2	12283,97,2	12285,102,2	12287,118,2	12293,136,2	12403,181,2	12583,30,2	12585,32,2	12655,145,2	12739,171,2	14085,139,2	14773,149,2	15023,44,2	15087,54,2	15283,68,2	15489,123,2	15521,196,2	15567,28,2	15613,40,2	15639,84,2	15767,93,2	15807,124,2	15833,176,2	15929,182,2	16761,194,2	16827,42,2	16919,62,2	16977,143,2	16997,160,2	17033,165,2	17057,195,2	17077,199,2	17419,29,2	17435,38,2	17501,114,2	17603,125,2	17619,126,2	17773,142,2	17897,26,2	17987,41,2	20635,63,2	20687,65,2	20697,174,2	20717,187,2	20733,200,2	20953,201,1	
0,0,1	1,9,2	3,14,2	5,17,2	7,7,2	9,2,2	11,11,2	13,10,2	15,1,2	17,74,2	19,167,2	21,186,2	383,197,2	533,104,2	541,106,2	635,154,2	655,25,2	703,37,2	709,46,2	731,92,2	737,108,2	745,133,2	749,33,2	753,69,2	979,116,2	1031,163,2	1037,82,2	1105,164,2	1115,170,2	1173,96,2	1181,103,2	1219,135,2	1273,153,2	1307,175,2	1317,22,2	1343,66,2	1357,83,2	1427,141,2	1461,150,2	1473,152,2	1477,183,2	1515,58,2	1541,112,2	1559,35,2	1609,36,2	1611,59,2	1613,64,2	1621,73,2	1623,91,2	1633,109,2	1635,122,2	1637,129,2	1643,137,2	1675,177,2	1679,180,2	1681,23,2	1683,43,2	1687,77,2	1689,86,2	1699,88,2	1705,94,2	1739,115,2	1745,120,2	1751,138,2	1753,151,2	1761,178,2	1775,192,2	
11,3,2	21,4,2	31,5,2	51,8,2	61,12,2	71,13,2	121,20,2	171,45,2	405,90,2	669,55,2	741,67,2	751,70,2	869,159,2	901,198,2	925,31,2	943,75,2	1003,85,2	1041,131,2	4135,113,2	7551,78,2	7651,134,2	7795,173,2	8313,47,2	8329,49,2	8727,61,2	8881,110,2	8899,121,2	8995,130,2	9055,184,2	9557,80,2	9599,100,2	9631,101,2	9687,158,2	9713,189,2	10099,50,2	10161,99,2	10255,162,2	10281,166,2	10385,39,2	10447,60,2	10499,98,2	10503,119,2	10507,128,2	10511,144,2	10567,156,2	10593,172,2	10649,132,2	10659,140,2	10673,147,2	10675,148,2	10695,157,2	10701,179,2	10723,191,2	10727,53,2	10775,57,2	10789,71,2	10805,76,2	10817,79,2	10819,81,2	10821,87,2	10837,95,2	10845,111,2	10847,146,2	10851,161,2	10855,185,2	10861,188,2	
# Incoming
31,(0, 6),10	41,(3, 21),30	71,(0, 15),10	81,(0, 16),10	91,(0, 18),10	101,(0, 19),10	111,(3, 34),2	113,(3, 38),2	115,(3, 48),2	117,(3, 63),4	121,(9, 29),66	187,(9, 30),2	189,(9, 32),134	323,(9, 34),138	461,(9, 44),2	463,(9, 51),4	467,(9, 52),182	649,(3, 72),2	651,(9, 54),2	653,(3, 123),2	655,(3, 125),2	657,(3, 143),2	659,(3, 168),2	661,(3, 176),2	663,(3, 182),2	665,(3, 195),2	667,(4, 30),2	669,(9, 56),82	751,(5, 27),2	753,(9, 62),3278	4031,(9, 68),2	4033,(3, 174),10	4043,(4, 42),26	4069,(9, 84),2	4071,(4, 44),6	4077,(5, 56),4	4081,(9, 102),30	4111,(9, 107),4	4115,(4, 105),10	4125,(4, 155),8	4133,(5, 84),2	4135,(9, 117),212	4347,(5, 118),2	4349,(9, 127),14	4363,(9, 139),4	4367,(9, 145),6	4373,(4, 114),14	4387,(9, 160),128	4515,(9, 171),144	4659,(9, 181),10	4669,(9, 195),626	5295,(14, 28),112	5407,(14, 38),92	5499,(4, 176),6	5505,(5, 26),8	5513,(5, 125),2	5515,(5, 149),4	5519,(14, 48),1978	7497,(14, 51),12	7509,(14, 56),2	7511,(14, 62),26	7537,(4, 40),36	7573,(4, 182),18	7591,(5, 40),28	7619,(14, 114),18	7637,(14, 125),2	7639,(5, 41),8	7647,(8, 24),2	7649,(8, 42),2	7651,(14, 139),14	7665,(8, 32),4	7669,(8, 65),2	7671,(8, 89),2	7673,(8, 123),2	7675,(14, 142),4	7679,(14, 143),100	7779,(8, 105),4	7783,(8, 126),2	7785,(8, 168),2	7787,(14, 169),6	7793,(12, 32),2	7795,(14, 181),2	7797,(14, 182),2	7799,(5, 62),18	7817,(5, 72),16	7833,(12, 44),2	7835,(14, 190),56	7891,(14, 194),6	7897,(14, 195),112	8009,(14, 199),4	8013,(17, 21),2	8015,(17, 24),280	8295,(17, 26),2	8297,(17, 27),2	8299,(17, 29),8	8307,(8, 155),6	8313,(17, 48),14	8327,(12, 48),2	8329,(17, 54),396	8725,(8, 169),8	8733,(17, 89),2	8735,(12, 51),2	8737,(17, 97),2	8739,(5, 143),14	8753,(17, 102),98	8851,(17, 105),16	8867,(17, 107),4	8871,(12, 52),8	8879,(12, 107),2	8881,(17, 114),14	8895,(12, 117),2	8897,(12, 171),2	8899,(17, 123),28	8927,(17, 125),62	8989,(12, 145),4	8993,(13, 26),2	8995,(17, 142),10	9005,(13, 42),2	9007,(17, 165),8	9015,(17, 171),14	9029,(13, 30),6	9035,(17, 181),16	9051,(8, 63),24	9075,(13, 182),2	9077,(17, 195),4	9081,(17, 196),2	9083,(7, 26),150	9233,(7, 28),12	9245,(7, 29),16	9261,(7, 30),160	9421,(7, 34),70	9491,(12, 68),8	9499,(13, 105),4	9503,(7, 40),14	9517,(7, 41),8	9525,(7, 48),12	9537,(7, 51),6	9543,(7, 65),2	9545,(7, 68),8	9553,(20, 56),2	9555,(20, 84),2	9557,(7, 93),2	9559,(4, 102),48	9607,(12, 38),24	9631,(7, 102),2	9633,(7, 107),8	9641,(12, 193),8	9649,(20, 105),2	9651,(7, 117),2	9653,(7, 123),4	9657,(7, 125),18	9675,(7, 136),6	9681,(20, 52),8	9689,(7, 165),4	9693,(7, 168),6	9699,(7, 171),6	9705,(7, 187),2	9707,(20, 145),2	9709,(20, 169),2	9711,(20, 176),2	9713,(20, 190),2	9715,(7, 193),52	9767,(7, 196),4	9771,(7, 200),4	9775,(2, 21),2	9777,(2, 24),2	9779,(2, 28),2	9781,(2, 32),150	9931,(2, 42),2	9933,(2, 44),62	9995,(2, 48),76	10071,(5, 24),56	10127,(20, 21),10	10137,(45, 201),2	10139,(2, 72),6	10145,(13, 34),14	10159,(90, 201),2	10161,(2, 107),8	10169,(2, 114),10	10179,(2, 117),6	10185,(2, 124),20	10205,(2, 126),2	10207,(20, 28),10	10217,(55, 201),2	10219,(67, 201),2	10221,(2, 145),2	10223,(5, 181),36	10259,(12, 93),22	10281,(2, 169),6	10287,(12, 124),24	10311,(2, 187),8	10319,(2, 196),4	10323,(2, 199),58	10381,(3, 41),194	10575,(3, 68),118	10693,(3, 102),978	11671,(11, 26),2	11673,(11, 30),44	11717,(11, 32),2	11719,(11, 52),16	11735,(11, 65),6	11741,(11, 107),2	11743,(11, 123),14	11757,(11, 124),16	11773,(11, 136),2	11775,(11, 145),124	11899,(11, 168),52	11951,(11, 169),4	11955,(11, 174),66	12021,(11, 176),16	12037,(11, 182),8	12045,(11, 190),2	12047,(11, 193),2	12049,(11, 199),2	12051,(10, 24),112	12163,(10, 27),4	12167,(10, 32),12	12179,(10, 41),56	12235,(10, 44),10	12245,(10, 56),2	12247,(10, 68),16	12263,(10, 84),4	12267,(10, 89),8	12275,(10, 97),8	12283,(10, 102),2	12285,(10, 118),2	12287,(10, 136),6	12293,(10, 160),4	12297,(10, 165),52	12349,(10, 171),2	12351,(10, 181),52	12403,(10, 195),34	12437,(10, 199),98	12535,(1, 26),2	12537,(1, 28),18	12555,(1, 29),12	12567,(1, 30),16	12583,(1, 32),2	12585,(1, 124),34	12619,(1, 143),10	12629,(1, 145),26	12655,(1, 149),82	12737,(1, 171),2	12739,(1, 187),2	12741,(74, 201),2	12743,(167, 201),2	12745,(4, 123),1256	14001,(4, 139),84	14085,(4, 149),688	14773,(4, 174),82	14855,(186, 201),2	14857,(5, 44),166	15023,(5, 54),64	15087,(5, 63),70	15157,(5, 68),126	15283,(5, 123),206	15489,(5, 196),32	15521,(8, 28),46	15567,(8, 40),46	15613,(8, 84),26	15639,(8, 93),128	15767,(8, 124),40	15807,(8, 176),26	15833,(8, 182),96	15929,(8, 194),832	16761,(12, 42),66	16827,(12, 62),92	16919,(12, 143),58	16977,(12, 160),20	16997,(12, 165),36	17033,(12, 195),24	17057,(12, 199),20	17077,(13, 29),342	17419,(13, 38),16	17435,(13, 65),38	17473,(13, 114),28	17501,(13, 125),102	17603,(13, 126),16	17619,(13, 142),154	17773,(20, 26),124	17897,(20, 41),90	17987,(20, 63),2648	20635,(20, 65),52	20687,(20, 174),10	20697,(20, 187),20	20717,(20, 200),16	20733,(197, 201),2	20735,(104, 201),2	20737,(106, 201),2	20739,(154, 201),2	20741,(25, 201),2	20743,(37, 201),2	20745,(46, 201),2	20747,(92, 201),2	20749,(108, 201),2	20751,(133, 201),2	20753,(33, 201),2	20755,(70, 201),2	20757,(69, 201),2	20759,(159, 201),2	20761,(198, 201),2	20763,(31, 201),2	20765,(75, 201),2	20767,(116, 201),2	20769,(85, 201),2	20771,(163, 201),2	20773,(82, 201),2	20775,(131, 201),2	20777,(164, 201),2	20779,(170, 201),2	20781,(96, 201),2	20783,(103, 201),2	20785,(135, 201),2	20787,(153, 201),2	20789,(175, 201),2	20791,(22, 201),2	20793,(66, 201),2	20795,(83, 201),2	20797,(141, 201),2	20799,(150, 201),2	20801,(152, 201),2	20803,(183, 201),2	20805,(58, 201),2	20807,(112, 201),2	20809,(35, 201),2	20811,(36, 201),2	20813,(59, 201),2	20815,(64, 201),2	20817,(73, 201),2	20819,(91, 201),2	20821,(109, 201),2	20823,(122, 201),2	20825,(129, 201),2	20827,(137, 201),2	20829,(177, 201),2	20831,(180, 201),2	20833,(23, 201),2	20835,(43, 201),2	20837,(77, 201),2	20839,(86, 201),2	20841,(88, 201),2	20843,(94, 201),2	20845,(115, 201),2	20847,(120, 201),2	20849,(138, 201),2	20851,(151, 201),2	20853,(178, 201),2	20855,(192, 201),2	20857,(113, 201),2	20859,(78, 201),2	20861,(134, 201),2	20863,(173, 201),2	20865,(47, 201),2	20867,(49, 201),2	20869,(61, 201),2	20871,(110, 201),2	20873,(121, 201),2	20875,(130, 201),2	20877,(184, 201),2	20879,(80, 201),2	20881,(100, 201),2	20883,(101, 201),2	20885,(158, 201),2	20887,(189, 201),2	20889,(50, 201),2	20891,(99, 201),2	20893,(162, 201),2	20895,(166, 201),2	20897,(39, 201),2	20899,(60, 201),2	20901,(98, 201),2	20903,(119, 201),2	20905,(128, 201),2	20907,(144, 201),2	20909,(156, 201),2	20911,(172, 201),2	20913,(132, 201),2	20915,(140, 201),2	20917,(147, 201),2	20919,(148, 201),2	20921,(157, 201),2	20923,(179, 201),2	20925,(191, 201),2	20927,(53, 201),2	20929,(57, 201),2	20931,(71, 201),2	20933,(76, 201),2	20935,(79, 201),2	20937,(81, 201),2	20939,(87, 201),2	20941,(95, 201),2	20943,(111, 201),2	20945,(146, 201),2	20947,(161, 201),2	20949,(185, 201),2	20951,(188, 201),2	
71,(3, 69),4	75,(3, 94),18	93,(3, 108),6	99,(3, 112),6	105,(3, 163),4	109,(3, 178),2	111,(6, 23),8	119,(6, 35),2	121,(3, 115),10	131,(3, 154),32	163,(3, 192),4	167,(4, 23),2	169,(4, 25),10	179,(4, 36),32	211,(4, 43),2	213,(4, 73),2	215,(4, 77),2	217,(4, 104),20	237,(4, 106),8	245,(4, 115),36	281,(4, 135),50	331,(4, 141),24	355,(4, 170),26	381,(4, 197),2	383,(5, 22),10	393,(5, 58),20	413,(5, 59),8	421,(5, 73),24	445,(5, 86),2	447,(5, 88),2	449,(5, 94),2	451,(5, 137),26	477,(5, 150),8	485,(5, 151),2	487,(5, 180),18	505,(6, 46),14	519,(6, 66),6	525,(6, 77),2	527,(6, 88),4	531,(6, 104),2	533,(6, 106),8	541,(6, 135),30	571,(6, 137),20	591,(6, 151),4	595,(6, 152),4	599,(6, 154),36	635,(6, 178),16	651,(8, 25),2	653,(15, 25),2	655,(15, 33),2	657,(15, 35),6	663,(15, 37),2	665,(15, 43),4	669,(8, 36),24	693,(8, 37),10	703,(8, 46),6	709,(8, 91),2	711,(8, 92),20	731,(8, 96),2	733,(8, 103),2	735,(8, 108),2	737,(8, 129),6	743,(8, 133),2	745,(8, 180),2	747,(12, 33),2	749,(12, 69),2	751,(15, 69),2	753,(8, 109),48	801,(8, 152),16	817,(8, 153),38	855,(8, 183),10	865,(12, 59),8	873,(12, 64),6	879,(12, 73),28	907,(12, 82),2	909,(12, 83),24	933,(12, 86),4	937,(12, 94),18	955,(12, 103),14	969,(12, 112),4	973,(12, 116),6	979,(12, 129),10	989,(12, 137),2	991,(12, 150),4	995,(12, 163),36	1031,(12, 192),2	1033,(13, 73),2	1035,(13, 82),2	1037,(13, 96),2	1039,(13, 103),4	1043,(13, 112),36	1079,(13, 129),2	1081,(13, 135),10	1091,(13, 152),12	1103,(13, 164),2	1105,(13, 170),10	1115,(13, 192),2	1117,(15, 36),8	1125,(15, 58),18	1143,(15, 59),12	1155,(15, 73),2	1157,(15, 86),4	1161,(15, 88),6	1167,(15, 96),6	1173,(15, 103),8	1181,(15, 109),12	1193,(15, 112),24	1217,(15, 135),2	1219,(15, 141),52	1271,(15, 153),2	1273,(15, 175),34	1307,(16, 22),10	1317,(16, 36),10	1327,(16, 59),4	1331,(16, 66),12	1343,(16, 83),14	1357,(16, 94),20	1377,(16, 137),46	1423,(16, 141),4	1427,(16, 150),34	1461,(16, 151),10	1471,(16, 152),2	1473,(16, 180),2	1475,(16, 183),2	1477,(18, 35),36	1513,(18, 58),2	1515,(18, 64),2	1517,(18, 91),20	1537,(18, 112),4	1541,(18, 138),2	1543,(18, 178),2	1545,(18, 192),2	1547,(19, 35),12	1559,(19, 36),50	1609,(19, 59),2	1611,(19, 64),2	1613,(19, 73),8	1621,(19, 91),2	1623,(19, 109),10	1633,(19, 122),2	1635,(19, 129),2	1637,(19, 137),6	1643,(19, 177),32	1675,(19, 180),4	1679,(20, 23),2	1681,(20, 43),2	1683,(20, 77),4	1687,(20, 86),2	1689,(20, 88),10	1699,(20, 94),6	1705,(20, 115),34	1739,(20, 120),6	1745,(20, 138),6	1751,(20, 151),2	1753,(20, 178),8	1761,(20, 192),14	
1,(0, 3),10	11,(0, 4),10	21,(0, 5),10	41,(0, 8),10	51,(0, 12),10	61,(0, 13),10	111,(0, 20),10	121,(6, 45),50	171,(6, 67),6	177,(6, 75),12	189,(6, 76),6	195,(6, 79),20	215,(6, 90),2	217,(6, 98),44	261,(6, 101),4	265,(6, 128),2	267,(6, 130),32	299,(6, 132),30	329,(6, 146),14	343,(6, 148),16	359,(6, 156),2	361,(6, 157),2	363,(6, 158),8	371,(6, 161),6	377,(6, 184),2	379,(15, 47),2	381,(15, 75),12	393,(15, 76),4	397,(15, 78),4	401,(15, 90),4	405,(15, 95),6	411,(15, 99),10	421,(15, 156),14	435,(15, 157),8	443,(15, 188),4	447,(15, 191),10	457,(15, 198),2	459,(16, 67),14	473,(16, 70),30	503,(16, 75),2	649,(9, 53),2	651,(16, 81),2	653,(9, 55),16	669,(16, 85),2	671,(16, 98),2	673,(16, 119),30	703,(16, 130),2	705,(16, 159),24	729,(16, 166),2	731,(16, 172),6	737,(18, 67),4	741,(18, 70),10	751,(9, 57),2	753,(16, 173),20	773,(18, 71),10	783,(18, 75),2	785,(18, 85),6	791,(18, 121),12	803,(18, 134),38	841,(18, 140),4	845,(18, 144),2	847,(18, 146),4	851,(18, 147),10	861,(18, 156),2	863,(18, 159),6	869,(18, 166),6	875,(18, 189),18	893,(18, 191),2	895,(18, 198),6	901,(19, 31),24	925,(19, 39),4	929,(19, 53),8	937,(19, 75),6	943,(19, 81),52	995,(19, 85),8	1003,(19, 95),2	1005,(19, 110),8	1013,(19, 119),6	1019,(19, 128),20	1039,(19, 131),2	1041,(19, 132),6	1047,(19, 144),6	1053,(19, 162),12	1065,(19, 184),2	1067,(19, 185),2	1069,(19, 191),24	4033,(9, 80),36	4071,(9, 98),10	4115,(9, 113),20	4347,(9, 121),2	4373,(9, 147),8	4381,(9, 158),6	5499,(14, 39),14	5513,(14, 47),6	7537,(14, 71),2	7539,(14, 76),6	7545,(14, 78),6	7551,(14, 80),2	7553,(14, 95),2	7555,(14, 98),18	7573,(14, 100),46	7639,(14, 132),10	7649,(14, 134),2	7665,(14, 140),10	7779,(14, 144),4	7783,(14, 157),2	7785,(14, 161),2	7793,(14, 173),2	7799,(14, 184),22	7821,(14, 189),14	8307,(17, 47),6	8327,(17, 49),2	8725,(17, 61),2	8727,(17, 81),6	8735,(17, 95),2	8739,(17, 99),14	8871,(17, 110),10	8895,(17, 119),2	8897,(17, 121),2	8989,(17, 130),6	9005,(17, 158),2	9029,(17, 179),6	9051,(17, 184),4	9055,(17, 188),2	9057,(17, 191),20	9491,(7, 39),12	9553,(7, 71),2	9555,(7, 80),2	9559,(7, 95),30	9589,(7, 99),8	9597,(7, 100),2	9599,(7, 101),32	9641,(7, 111),10	9681,(7, 158),6	9687,(7, 161),2	9707,(7, 189),6	9713,(7, 191),2	10071,(2, 50),28	10099,(2, 71),40	10145,(2, 79),2	10147,(2, 81),10	10157,(2, 99),4	10207,(2, 132),6	10213,(2, 140),2	10215,(2, 144),6	10223,(2, 161),8	10231,(2, 162),24	10255,(2, 166),26	10287,(2, 179),24	10381,(11, 39),4	10385,(11, 53),20	10405,(11, 57),36	10441,(11, 60),6	10447,(11, 71),22	10469,(11, 79),2	10471,(11, 95),26	10497,(11, 98),2	10499,(11, 111),2	10501,(11, 119),2	10503,(11, 128),4	10507,(11, 144),4	10511,(11, 147),50	10561,(11, 148),2	10563,(11, 156),4	10567,(11, 157),10	10577,(11, 172),16	10593,(11, 179),2	10595,(11, 185),4	10599,(11, 191),4	10603,(10, 79),16	10619,(10, 87),28	10647,(10, 132),2	10649,(10, 140),10	10659,(10, 146),2	10661,(10, 147),12	10673,(10, 148),2	10675,(10, 157),20	10695,(10, 179),6	10701,(10, 191),22	10723,(1, 53),4	10727,(1, 57),48	10775,(1, 71),14	10789,(1, 76),16	10805,(1, 79),12	10817,(1, 81),2	10819,(1, 87),2	10821,(1, 95),16	10837,(1, 111),8	10845,(1, 146),2	10847,(1, 161),4	10851,(1, 185),4	10855,(1, 188),6	
# Outgoing
111,(6, 23),8	119,(6, 35),2	121,(6, 45),50	171,(6, 67),6	177,(6, 75),12	189,(6, 76),6	195,(6, 79),20	215,(6, 90),2	217,(6, 98),44	261,(6, 101),4	265,(6, 128),2	267,(6, 130),32	299,(6, 132),30	329,(6, 146),14	343,(6, 148),16	359,(6, 156),2	361,(6, 157),2	363,(6, 158),8	371,(6, 161),6	377,(6, 184),2	379,(15, 47),2	381,(15, 75),12	393,(15, 76),4	397,(15, 78),4	401,(15, 90),4	405,(15, 95),6	411,(15, 99),10	421,(15, 156),14	435,(15, 157),8	443,(15, 188),4	447,(15, 191),10	457,(15, 198),2	459,(16, 67),14	473,(16, 70),30	503,(16, 75),2	505,(6, 46),14	519,(6, 66),6	525,(6, 77),2	527,(6, 88),4	531,(6, 104),2	533,(6, 106),8	541,(6, 135),30	571,(6, 137),20	591,(6, 151),4	595,(6, 152),4	599,(6, 154),36	635,(6, 178),16	651,(16, 81),2	653,(15, 25),2	655,(15, 33),2	657,(15, 35),6	663,(15, 37),2	665,(15, 43),4	669,(16, 85),2	671,(16, 98),2	673,(16, 119),30	703,(16, 130),2	705,(16, 159),24	729,(16, 166),2	731,(16, 172),6	737,(18, 67),4	741,(18, 70),10	751,(15, 69),2	753,(16, 173),20	773,(18, 71),10	783,(18, 75),2	785,(18, 85),6	791,(18, 121),12	803,(18, 134),38	841,(18, 140),4	845,(18, 144),2	847,(18, 146),4	851,(18, 147),10	861,(18, 156),2	863,(18, 159),6	869,(18, 166),6	875,(18, 189),18	893,(18, 191),2	895,(18, 198),6	901,(19, 31),24	925,(19, 39),4	929,(19, 53),8	937,(19, 75),6	943,(19, 81),52	995,(19, 85),8	1003,(19, 95),2	1005,(19, 110),8	1013,(19, 119),6	1019,(19, 128),20	1039,(19, 131),2	1041,(19, 132),6	1047,(19, 144),6	1053,(19, 162),12	1065,(19, 184),2	1067,(19, 185),2	1069,(19, 191),24	1117,(15, 36),8	1125,(15, 58),18	1143,(15, 59),12	1155,(15, 73),2	1157,(15, 86),4	1161,(15, 88),6	1167,(15, 96),6	1173,(15, 103),8	1181,(15, 109),12	1193,(15, 112),24	1217,(15, 135),2	1219,(15, 141),52	1271,(15, 153),2	1273,(15, 175),34	1307,(16, 22),10	1317,(16, 36),10	1327,(16, 59),4	1331,(16, 66),12	1343,(16, 83),14	1357,(16, 94),20	1377,(16, 137),46	1423,(16, 141),4	1427,(16, 150),34	1461,(16, 151),10	1471,(16, 152),2	1473,(16, 180),2	1475,(16, 183),2	1477,(18, 35),36	1513,(18, 58),2	1515,(18, 64),2	1517,(18, 91),20	1537,(18, 112),4	1541,(18, 138),2	1543,(18, 178),2	1545,(18, 192),2	1547,(19, 35),12	1559,(19, 36),50	1609,(19, 59),2	1611,(19, 64),2	1613,(19, 73),8	1621,(19, 91),2	1623,(19, 109),10	1633,(19, 122),2	1635,(19, 129),2	1637,(19, 137),6	1643,(19, 177),32	1675,(19, 180),4	
1,(0, 3),10	11,(0, 4),10	21,(0, 5),10	31,(0, 6),10	41,(0, 8),10	51,(0, 12),10	61,(0, 13),10	71,(0, 15),10	81,(0, 16),10	91,(0, 18),10	101,(0, 19),10	111,(0, 20),10	121,(9, 29),66	187,(9, 30),2	189,(9, 32),134	323,(9, 34),138	461,(9, 44),2	463,(9, 51),4	467,(9, 52),182	649,(9, 53),2	651,(9, 54),2	653,(9, 55),16	669,(9, 56),82	751,(9, 57),2	753,(9, 62),3278	4031,(9, 68),2	4033,(9, 80),36	4069,(9, 84),2	4071,(9, 98),10	4081,(9, 102),30	4111,(9, 107),4	4115,(9, 113),20	4135,(9, 117),212	4347,(9, 121),2	4349,(9, 127),14	4363,(9, 139),4	4367,(9, 145),6	4373,(9, 147),8	4381,(9, 158),6	4387,(9, 160),128	4515,(9, 171),144	4659,(9, 181),10	4669,(9, 195),626	5295,(14, 28),112	5407,(14, 38),92	5499,(14, 39),14	5513,(14, 47),6	5519,(14, 48),1978	7497,(14, 51),12	7509,(14, 56),2	7511,(14, 62),26	7537,(14, 71),2	7539,(14, 76),6	7545,(14, 78),6	7551,(14, 80),2	7553,(14, 95),2	7555,(14, 98),18	7573,(14, 100),46	7619,(14, 114),18	7637,(14, 125),2	7639,(14, 132),10	7649,(14, 134),2	7651,(14, 139),14	7665,(14, 140),10	7675,(14, 142),4	7679,(14, 143),100	7779,(14, 144),4	7783,(14, 157),2	7785,(14, 161),2	7787,(14, 169),6	7793,(14, 173),2	7795,(14, 181),2	7797,(14, 182),2	7799,(14, 184),22	7821,(14, 189),14	7835,(14, 190),56	7891,(14, 194),6	7897,(14, 195),112	8009,(14, 199),4	8013,(17, 21),2	8015,(17, 24),280	8295,(17, 26),2	8297,(17, 27),2	8299,(17, 29),8	8307,(17, 47),6	8313,(17, 48),14	8327,(17, 49),2	8329,(17, 54),396	8725,(17, 61),2	8727,(17, 81),6	8733,(17, 89),2	8735,(17, 95),2	8737,(17, 97),2	8739,(17, 99),14	8753,(17, 102),98	8851,(17, 105),16	8867,(17, 107),4	8871,(17, 110),10	8881,(17, 114),14	8895,(17, 119),2	8897,(17, 121),2	8899,(17, 123),28	8927,(17, 125),62	8989,(17, 130),6	8995,(17, 142),10	9005,(17, 158),2	9007,(17, 165),8	9015,(17, 171),14	9029,(17, 179),6	9035,(17, 181),16	9051,(17, 184),4	9055,(17, 188),2	9057,(17, 191),20	9077,(17, 195),4	9081,(17, 196),2	9083,(7, 26),150	9233,(7, 28),12	9245,(7, 29),16	9261,(7, 30),160	9421,(7, 34),70	9491,(7, 39),12	9503,(7, 40),14	9517,(7, 41),8	9525,(7, 48),12	9537,(7, 51),6	9543,(7, 65),2	9545,(7, 68),8	9553,(7, 71),2	9555,(7, 80),2	9557,(7, 93),2	9559,(7, 95),30	9589,(7, 99),8	9597,(7, 100),2	9599,(7, 101),32	9631,(7, 102),2	9633,(7, 107),8	9641,(7, 111),10	9651,(7, 117),2	9653,(7, 123),4	9657,(7, 125),18	9675,(7, 136),6	9681,(7, 158),6	9687,(7, 161),2	9689,(7, 165),4	9693,(7, 168),6	9699,(7, 171),6	9705,(7, 187),2	9707,(7, 189),6	9713,(7, 191),2	9715,(7, 193),52	9767,(7, 196),4	9771,(7, 200),4	9775,(2, 21),2	9777,(2, 24),2	9779,(2, 28),2	9781,(2, 32),150	9931,(2, 42),2	9933,(2, 44),62	9995,(2, 48),76	10071,(2, 50),28	10099,(2, 71),40	10139,(2, 72),6	10145,(2, 79),2	10147,(2, 81),10	10157,(2, 99),4	10161,(2, 107),8	10169,(2, 114),10	10179,(2, 117),6	10185,(2, 124),20	10205,(2, 126),2	10207,(2, 132),6	10213,(2, 140),2	10215,(2, 144),6	10221,(2, 145),2	10223,(2, 161),8	10231,(2, 162),24	10255,(2, 166),26	10281,(2, 169),6	10287,(2, 179),24	10311,(2, 187),8	10319,(2, 196),4	10323,(2, 199),58	10381,(11, 39),4	10385,(11, 53),20	10405,(11, 57),36	10441,(11, 60),6	10447,(11, 71),22	10469,(11, 79),2	10471,(11, 95),26	10497,(11, 98),2	10499,(11, 111),2	10501,(11, 119),2	10503,(11, 128),4	10507,(11, 144),4	10511,(11, 147),50	10561,(11, 148),2	10563,(11, 156),4	10567,(11, 157),10	10577,(11, 172),16	10593,(11, 179),2	10595,(11, 185),4	10599,(11, 191),4	10603,(10, 79),16	10619,(10, 87),28	10647,(10, 132),2	10649,(10, 140),10	10659,(10, 146),2	10661,(10, 147),12	10673,(10, 148),2	10675,(10, 157),20	10695,(10, 179),6	10701,(10, 191),22	10723,(1, 53),4	10727,(1, 57),48	10775,(1, 71),14	10789,(1, 76),16	10805,(1, 79),12	10817,(1, 81),2	10819,(1, 87),2	10821,(1, 95),16	10837,(1, 111),8	10845,(1, 146),2	10847,(1, 161),4	10851,(1, 185),4	10855,(1, 188),6	11671,(11, 26),2	11673,(11, 30),44	11717,(11, 32),2	11719,(11, 52),16	11735,(11, 65),6	11741,(11, 107),2	11743,(11, 123),14	11757,(11, 124),16	11773,(11, 136),2	11775,(11, 145),124	11899,(11, 168),52	11951,(11, 169),4	11955,(11, 174),66	12021,(11, 176),16	12037,(11, 182),8	12045,(11, 190),2	12047,(11, 193),2	12049,(11, 199),2	12051,(10, 24),112	12163,(10, 27),4	12167,(10, 32),12	12179,(10, 41),56	12235,(10, 44),10	12245,(10, 56),2	12247,(10, 68),16	12263,(10, 84),4	12267,(10, 89),8	12275,(10, 97),8	12283,(10, 102),2	12285,(10, 118),2	12287,(10, 136),6	12293,(10, 160),4	12297,(10, 165),52	12349,(10, 171),2	12351,(10, 181),52	12403,(10, 195),34	12437,(10, 199),98	12535,(1, 26),2	12537,(1, 28),18	12555,(1, 29),12	12567,(1, 30),16	12583,(1, 32),2	12585,(1, 124),34	12619,(1, 143),10	12629,(1, 145),26	12655,(1, 149),82	12737,(1, 171),2	12739,(1, 187),2	12741,(74, 201),2	12743,(167, 201),2	14855,(186, 201),2	20733,(197, 201),2	20735,(104, 201),2	20737,(106, 201),2	20739,(154, 201),2	20741,(25, 201),2	20743,(37, 201),2	20745,(46, 201),2	20747,(92, 201),2	20749,(108, 201),2	20751,(133, 201),2	20753,(33, 201),2	20757,(69, 201),2	20767,(116, 201),2	20771,(163, 201),2	20773,(82, 201),2	20777,(164, 201),2	20779,(170, 201),2	20781,(96, 201),2	20783,(103, 201),2	20785,(135, 201),2	20787,(153, 201),2	20789,(175, 201),2	20791,(22, 201),2	20793,(66, 201),2	20795,(83, 201),2	20797,(141, 201),2	20799,(150, 201),2	20801,(152, 201),2	20803,(183, 201),2	20805,(58, 201),2	20807,(112, 201),2	20809,(35, 201),2	20811,(36, 201),2	20813,(59, 201),2	20815,(64, 201),2	20817,(73, 201),2	20819,(91, 201),2	20821,(109, 201),2	20823,(122, 201),2	20825,(129, 201),2	20827,(137, 201),2	20829,(177, 201),2	20831,(180, 201),2	20833,(23, 201),2	20835,(43, 201),2	20837,(77, 201),2	20839,(86, 201),2	20841,(88, 201),2	20843,(94, 201),2	20845,(115, 201),2	20847,(120, 201),2	20849,(138, 201),2	20851,(151, 201),2	20853,(178, 201),2	20855,(192, 201),2	
41,(3, 21),30	71,(3, 69),4	75,(3, 94),18	93,(3, 108),6	99,(3, 112),6	105,(3, 163),4	109,(3, 178),2	111,(3, 34),2	113,(3, 38),2	115,(3, 48),2	117,(3, 63),4	121,(3, 115),10	131,(3, 154),32	163,(3, 192),4	167,(4, 23),2	169,(4, 25),10	179,(4, 36),32	211,(4, 43),2	213,(4, 73),2	215,(4, 77),2	217,(4, 104),20	237,(4, 106),8	245,(4, 115),36	281,(4, 135),50	331,(4, 141),24	355,(4, 170),26	381,(4, 197),2	383,(5, 22),10	393,(5, 58),20	413,(5, 59),8	421,(5, 73),24	445,(5, 86),2	447,(5, 88),2	449,(5, 94),2	451,(5, 137),26	477,(5, 150),8	485,(5, 151),2	487,(5, 180),18	649,(3, 72),2	651,(8, 25),2	653,(3, 123),2	655,(3, 125),2	657,(3, 143),2	659,(3, 168),2	661,(3, 176),2	663,(3, 182),2	665,(3, 195),2	667,(4, 30),2	669,(8, 36),24	693,(8, 37),10	703,(8, 46),6	709,(8, 91),2	711,(8, 92),20	731,(8, 96),2	733,(8, 103),2	735,(8, 108),2	737,(8, 129),6	743,(8, 133),2	745,(8, 180),2	747,(12, 33),2	749,(12, 69),2	751,(5, 27),2	753,(8, 109),48	801,(8, 152),16	817,(8, 153),38	855,(8, 183),10	865,(12, 59),8	873,(12, 64),6	879,(12, 73),28	907,(12, 82),2	909,(12, 83),24	933,(12, 86),4	937,(12, 94),18	955,(12, 103),14	969,(12, 112),4	973,(12, 116),6	979,(12, 129),10	989,(12, 137),2	991,(12, 150),4	995,(12, 163),36	1031,(12, 192),2	1033,(13, 73),2	1035,(13, 82),2	1037,(13, 96),2	1039,(13, 103),4	1043,(13, 112),36	1079,(13, 129),2	1081,(13, 135),10	1091,(13, 152),12	1103,(13, 164),2	1105,(13, 170),10	1115,(13, 192),2	1679,(20, 23),2	1681,(20, 43),2	1683,(20, 77),4	1687,(20, 86),2	1689,(20, 88),10	1699,(20, 94),6	1705,(20, 115),34	1739,(20, 120),6	1745,(20, 138),6	1751,(20, 151),2	1753,(20, 178),8	1761,(20, 192),14	4033,(3, 174),10	4043,(4, 42),26	4071,(4, 44),6	4077,(5, 56),4	4115,(4, 105),10	4125,(4, 155),8	4133,(5, 84),2	4347,(5, 118),2	4373,(4, 114),14	5499,(4, 176),6	5505,(5, 26),8	5513,(5, 125),2	5515,(5, 149),4	7537,(4, 40),36	7573,(4, 182),18	7591,(5, 40),28	7639,(5, 41),8	7647,(8, 24),2	7649,(8, 42),2	7665,(8, 32),4	7669,(8, 65),2	7671,(8, 89),2	7673,(8, 123),2	7779,(8, 105),4	7783,(8, 126),2	7785,(8, 168),2	7793,(12, 32),2	7799,(5, 62),18	7817,(5, 72),16	7833,(12, 44),2	8307,(8, 155),6	8327,(12, 48),2	8725,(8, 169),8	8735,(12, 51),2	8739,(5, 143),14	8871,(12, 52),8	8879,(12, 107),2	8895,(12, 117),2	8897,(12, 171),2	8989,(12, 145),4	8993,(13, 26),2	9005,(13, 42),2	9029,(13, 30),6	9051,(8, 63),24	9075,(13, 182),2	9491,(12, 68),8	9499,(13, 105),4	9553,(20, 56),2	9555,(20, 84),2	9559,(4, 102),48	9607,(12, 38),24	9641,(12, 193),8	9649,(20, 105),2	9681,(20, 52),8	9707,(20, 145),2	9709,(20, 169),2	9711,(20, 176),2	9713,(20, 190),2	10071,(5, 24),56	10127,(20, 21),10	10137,(45, 201),2	10145,(13, 34),14	10159,(90, 201),2	10207,(20, 28),10	10217,(55, 201),2	10219,(67, 201),2	10223,(5, 181),36	10259,(12, 93),22	10287,(12, 124),24	10381,(3, 41),194	10575,(3, 68),118	10693,(3, 102),978	12745,(4, 123),1256	14001,(4, 139),84	14085,(4, 149),688	14773,(4, 174),82	14857,(5, 44),166	15023,(5, 54),64	15087,(5, 63),70	15157,(5, 68),126	15283,(5, 123),206	15489,(5, 196),32	15521,(8, 28),46	15567,(8, 40),46	15613,(8, 84),26	15639,(8, 93),128	15767,(8, 124),40	15807,(8, 176),26	15833,(8, 182),96	15929,(8, 194),832	16761,(12, 42),66	16827,(12, 62),92	16919,(12, 143),58	16977,(12, 160),20	16997,(12, 165),36	17033,(12, 195),24	17057,(12, 199),20	17077,(13, 29),342	17419,(13, 38),16	17435,(13, 65),38	17473,(13, 114),28	17501,(13, 125),102	17603,(13, 126),16	17619,(13, 142),154	17773,(20, 26),124	17897,(20, 41),90	17987,(20, 63),2648	20635,(20, 65),52	20687,(20, 174),10	20697,(20, 187),20	20717,(20, 200),16	20755,(70, 201),2	20759,(159, 201),2	20761,(198, 201),2	20763,(31, 201),2	20765,(75, 201),2	20769,(85, 201),2	20775,(131, 201),2	20857,(113, 201),2	20859,(78, 201),2	20861,(134, 201),2	20863,(173, 201),2	20865,(47, 201),2	20867,(49, 201),2	20869,(61, 201),2	20871,(110, 201),2	20873,(121, 201),2	20875,(130, 201),2	20877,(184, 201),2	20879,(80, 201),2	20881,(100, 201),2	20883,(101, 201),2	20885,(158, 201),2	20887,(189, 201),2	20889,(50, 201),2	20891,(99, 201),2	20893,(162, 201),2	20895,(166, 201),2	20897,(39, 201),2	20899,(60, 201),2	20901,(98, 201),2	20903,(119, 201),2	20905,(128, 201),2	20907,(144, 201),2	20909,(156, 201),2	20911,(172, 201),2	20913,(132, 201),2	20915,(140, 201),2	20917,(147, 201),2	20919,(148, 201),2	20921,(157, 201),2	20923,(179, 201),2	20925,(191, 201),2	20927,(53, 201),2	20929,(57, 201),2	20931,(71, 201),2	20933,(76, 201),2	20935,(79, 201),2	20937,(81, 201),2	20939,(87, 201),2	20941,(95, 201),2	20943,(111, 201),2	20945,(146, 201),2	20947,(161, 201),2	20949,(185, 201),2	20951,(188, 201),2	
