376
# CPU
44,12,8	247,7,8	295,17,8	
52,16,8	214,6,8	280,11,8	
81,20,8	195,5,8	264,10,8	292,15,8	
2,2,8	10,4,8	18,19,8	31,9,8	46,14,8	
0,0,1	1,1,8	170,3,8	248,8,8	281,13,8	367,18,8	375,21,1	
# Incoming
27,(1, 7),3	38,(1, 12),6	52,(1, 17),10	214,(2, 7),33	292,(2, 17),3	
12,(1, 6),15	46,(1, 16),6	195,(2, 6),19	264,(2, 11),16	
9,(1, 5),3	31,(1, 10),7	62,(1, 20),19	170,(2, 5),25	248,(2, 10),16	281,(2, 15),11	
1,(0, 2),1	30,(1, 9),1	44,(1, 14),2	
10,(2, 3),160	170,(12, 21),1	171,(16, 21),1	172,(20, 21),1	203,(5, 21),1	222,(6, 21),1	247,(2, 8),1	255,(7, 21),1	272,(10, 21),1	280,(2, 13),1	288,(11, 21),1	295,(2, 18),72	367,(4, 21),1	368,(19, 21),1	369,(9, 21),1	370,(14, 21),1	371,(15, 21),1	372,(17, 21),1	
# Outgoing
170,(12, 21),1	255,(7, 21),1	372,(17, 21),1	
171,(16, 21),1	222,(6, 21),1	288,(11, 21),1	
172,(20, 21),1	203,(5, 21),1	272,(10, 21),1	371,(15, 21),1	
10,(2, 3),160	170,(2, 5),25	195,(2, 6),19	214,(2, 7),33	247,(2, 8),1	248,(2, 10),16	264,(2, 11),16	280,(2, 13),1	281,(2, 15),11	292,(2, 17),3	295,(2, 18),72	367,(4, 21),1	368,(19, 21),1	369,(9, 21),1	370,(14, 21),1	
1,(0, 2),1	9,(1, 5),3	12,(1, 6),15	27,(1, 7),3	30,(1, 9),1	31,(1, 10),7	38,(1, 12),6	44,(1, 14),2	46,(1, 16),6	52,(1, 17),10	62,(1, 20),19	
