1944
# CPU
0,0,1	1,5,13	14,6,13	27,8,13	40,47,13	53,64,13	66,70,13	79,59,13	92,18,13	105,17,13	118,61,13	131,44,13	144,27,13	157,19,13	170,20,13	183,21,13	196,14,13	209,71,13	222,9,13	235,34,13	248,69,13	261,80,13	274,35,13	287,28,13	300,36,13	313,74,13	326,15,13	339,33,13	
13,1,13	26,2,13	39,12,13	52,26,13	65,77,13	78,11,13	91,55,13	104,37,13	117,48,13	130,42,13	143,38,13	156,29,13	169,13,13	182,76,13	195,63,13	208,62,13	221,60,13	234,25,13	247,43,13	260,52,13	273,65,13	859,31,13	872,73,13	885,75,13	901,67,13	914,72,13	1943,81,1	
37,3,13	50,4,13	63,30,13	76,32,13	89,10,13	102,22,13	115,39,13	128,7,13	141,54,13	154,49,13	167,66,13	180,46,13	193,24,13	206,23,13	219,41,13	232,16,13	245,50,13	258,56,13	271,68,13	284,53,13	297,79,13	310,40,13	323,45,13	336,51,13	349,58,13	362,57,13	375,78,13	
# Incoming
65,(1, 74),2	67,(3, 15),2	141,(7, 33),2	
1,(0, 1),12	13,(0, 2),12	61,(5, 25),22	83,(5, 43),2	85,(5, 52),24	109,(5, 65),4	113,(3, 72),8	121,(5, 73),736	857,(6, 31),2	859,(8, 73),4	863,(8, 75),14	877,(47, 81),22	899,(4, 67),2	901,(4, 72),8	909,(64, 81),22	931,(30, 81),22	953,(70, 81),22	975,(32, 81),22	997,(59, 81),22	1019,(10, 81),22	1041,(18, 81),22	1063,(22, 81),22	1085,(17, 81),22	1107,(39, 81),22	1129,(61, 81),22	1151,(44, 81),22	1173,(54, 81),22	1195,(27, 81),22	1217,(49, 81),22	1239,(19, 81),22	1261,(66, 81),22	1283,(20, 81),22	1305,(46, 81),22	1327,(21, 81),22	1349,(24, 81),22	1371,(14, 81),22	1393,(23, 81),22	1415,(71, 81),22	1437,(41, 81),22	1459,(9, 81),22	1481,(16, 81),22	1503,(34, 81),22	1525,(50, 81),22	1547,(69, 81),22	1569,(56, 81),22	1591,(80, 81),22	1613,(68, 81),22	1635,(35, 81),22	1657,(53, 81),22	1679,(28, 81),22	1701,(79, 81),22	1723,(36, 81),22	1745,(40, 81),22	1767,(74, 81),22	1789,(45, 81),22	1811,(15, 81),22	1833,(51, 81),22	1855,(33, 81),22	1877,(58, 81),22	1899,(57, 81),22	1921,(78, 81),22	
25,(0, 3),12	37,(0, 4),12	49,(0, 7),12	61,(1, 54),2	63,(1, 56),2	113,(5, 68),8	
# Outgoing
1,(0, 1),12	13,(0, 2),12	25,(0, 3),12	37,(0, 4),12	49,(0, 7),12	61,(5, 25),22	83,(5, 43),2	85,(5, 52),24	109,(5, 65),4	113,(5, 68),8	121,(5, 73),736	857,(6, 31),2	859,(8, 73),4	863,(8, 75),14	877,(47, 81),22	909,(64, 81),22	953,(70, 81),22	997,(59, 81),22	1041,(18, 81),22	1085,(17, 81),22	1129,(61, 81),22	1151,(44, 81),22	1195,(27, 81),22	1239,(19, 81),22	1283,(20, 81),22	1327,(21, 81),22	1371,(14, 81),22	1415,(71, 81),22	1459,(9, 81),22	1503,(34, 81),22	1547,(69, 81),22	1591,(80, 81),22	1635,(35, 81),22	1679,(28, 81),22	1723,(36, 81),22	1767,(74, 81),22	1811,(15, 81),22	1855,(33, 81),22	
61,(1, 54),2	63,(1, 56),2	65,(1, 74),2	
67,(3, 15),2	113,(3, 72),8	141,(7, 33),2	899,(4, 67),2	901,(4, 72),8	931,(30, 81),22	975,(32, 81),22	1019,(10, 81),22	1063,(22, 81),22	1107,(39, 81),22	1173,(54, 81),22	1217,(49, 81),22	1261,(66, 81),22	1305,(46, 81),22	1349,(24, 81),22	1393,(23, 81),22	1437,(41, 81),22	1481,(16, 81),22	1525,(50, 81),22	1569,(56, 81),22	1613,(68, 81),22	1657,(53, 81),22	1701,(79, 81),22	1745,(40, 81),22	1789,(45, 81),22	1833,(51, 81),22	1877,(58, 81),22	1899,(57, 81),22	1921,(78, 81),22	
