568
# CPU
375,34,4	379,14,4	383,24,4	
409,23,4	487,33,4	511,13,4	
369,32,4	373,12,4	389,22,4	
315,21,4	355,31,4	363,11,4	
343,10,4	351,20,4	365,30,4	373,40,4	
137,9,4	271,19,4	371,29,4	559,39,4	
7,4,4	11,18,4	19,8,4	125,38,4	321,28,4	
5,3,4	9,17,4	319,7,4	323,27,4	389,37,4	
3,2,4	63,6,4	141,16,4	353,26,4	417,36,4	
0,0,1	1,1,4	15,5,4	83,25,4	367,15,4	515,35,4	567,41,1	
# Incoming
373,(1, 34),2	375,(3, 14),4	379,(4, 24),4	
369,(1, 33),4	373,(2, 23),36	409,(3, 33),78	487,(4, 13),24	
365,(1, 32),4	369,(3, 12),2	379,(3, 22),10	
271,(3, 21),44	321,(3, 31),34	355,(4, 11),8	
319,(1, 10),24	343,(1, 20),8	353,(1, 30),12	365,(2, 40),8	
63,(3, 9),74	141,(3, 19),130	367,(4, 29),4	515,(3, 39),44	
5,(0, 4),2	15,(2, 8),4	83,(2, 38),42	315,(3, 28),6	
3,(0, 3),2	7,(1, 7),312	319,(2, 27),4	375,(1, 37),14	
1,(0, 2),2	9,(3, 6),54	137,(3, 16),4	351,(1, 26),2	383,(4, 36),34	
7,(2, 5),8	19,(2, 25),64	125,(6, 41),4	141,(9, 41),4	145,(16, 41),4	275,(19, 41),4	319,(21, 41),4	347,(10, 41),4	355,(17, 41),4	359,(7, 41),4	363,(4, 15),4	367,(20, 41),4	371,(18, 41),4	375,(8, 41),4	379,(31, 41),4	383,(11, 41),4	389,(27, 41),4	393,(30, 41),4	397,(32, 41),4	401,(29, 41),4	405,(40, 41),4	409,(26, 41),4	413,(12, 41),4	417,(38, 41),4	421,(28, 41),4	425,(34, 41),4	429,(14, 41),4	433,(24, 41),4	437,(22, 41),4	441,(23, 41),4	445,(36, 41),4	487,(3, 35),28	515,(33, 41),4	519,(13, 41),4	559,(37, 41),4	563,(39, 41),4	
# Outgoing
425,(34, 41),4	429,(14, 41),4	433,(24, 41),4	
441,(23, 41),4	515,(33, 41),4	519,(13, 41),4	
397,(32, 41),4	413,(12, 41),4	437,(22, 41),4	
319,(21, 41),4	379,(31, 41),4	383,(11, 41),4	
347,(10, 41),4	367,(20, 41),4	393,(30, 41),4	405,(40, 41),4	
141,(9, 41),4	275,(19, 41),4	401,(29, 41),4	563,(39, 41),4	
355,(4, 11),8	363,(4, 15),4	367,(4, 29),4	371,(18, 41),4	375,(8, 41),4	379,(4, 24),4	383,(4, 36),34	417,(38, 41),4	421,(28, 41),4	487,(4, 13),24	
9,(3, 6),54	63,(3, 9),74	137,(3, 16),4	141,(3, 19),130	271,(3, 21),44	315,(3, 28),6	321,(3, 31),34	355,(17, 41),4	359,(7, 41),4	369,(3, 12),2	375,(3, 14),4	379,(3, 22),10	389,(27, 41),4	409,(3, 33),78	487,(3, 35),28	515,(3, 39),44	559,(37, 41),4	
7,(2, 5),8	15,(2, 8),4	19,(2, 25),64	83,(2, 38),42	125,(6, 41),4	145,(16, 41),4	319,(2, 27),4	365,(2, 40),8	373,(2, 23),36	409,(26, 41),4	445,(36, 41),4	
1,(0, 2),2	3,(0, 3),2	5,(0, 4),2	7,(1, 7),312	319,(1, 10),24	343,(1, 20),8	351,(1, 26),2	353,(1, 30),12	365,(1, 32),4	369,(1, 33),4	373,(1, 34),2	375,(1, 37),14	
