24032
# CPU
181,8,12	226,9,12	12769,16,12	13192,42,12	13255,45,12	13435,53,12	13501,59,12	13513,62,12	13630,67,12	13651,68,12	13804,49,12	13831,81,12	13894,83,12	13942,84,12	14059,88,12	14227,98,12	14560,113,12	14608,116,12	14620,120,12	15133,31,12	15775,102,12	16651,25,12	17923,72,12	18559,37,12	19636,44,12	22534,107,12	22747,54,12	23113,70,12	23317,92,12	23704,93,12	23947,106,12	24031,121,1	
91,5,12	271,10,12	361,12,12	12766,13,12	12790,17,12	12814,19,12	12862,24,12	12895,29,12	12964,36,12	13009,40,12	13198,43,12	13309,46,12	13351,47,12	13363,48,12	13414,51,12	13426,52,12	13468,56,12	13480,57,12	13567,65,12	13729,74,12	13741,76,12	14191,95,12	14221,96,12	14233,97,12	14275,101,12	14506,108,12	14518,112,12	14563,114,12	14614,118,12	14626,119,12	
0,0,1	1,7,12	13,3,12	25,1,12	37,4,12	2296,14,12	2311,15,12	2431,28,12	2794,18,12	2863,32,12	2884,33,12	3154,39,12	3178,41,12	3445,63,12	3508,38,12	3577,75,12	3667,23,12	3793,58,12	3844,60,12	3943,69,12	3961,78,12	3973,80,12	3985,82,12	3997,86,12	4090,94,12	4102,100,12	4129,104,12	4141,109,12	4153,110,12	4207,111,12	
46,2,12	136,6,12	316,11,12	12829,20,12	12841,21,12	12853,22,12	12868,26,12	12880,27,12	12922,30,12	12943,34,12	12955,35,12	13411,50,12	13465,55,12	13504,61,12	13564,64,12	13576,66,12	13666,71,12	13684,73,12	13750,77,12	13825,79,12	13945,85,12	13972,87,12	14068,89,12	14101,90,12	14128,91,12	14260,99,12	14329,103,12	14341,105,12	14584,115,12	14611,117,12	
# Incoming
136,(0, 8),45	181,(0, 9),45	226,(2, 16),3	253,(2, 37),15	319,(2, 42),3	322,(2, 44),3	325,(2, 45),9	334,(2, 53),3	358,(2, 62),6	364,(7, 16),3	367,(2, 59),30	493,(5, 16),27	547,(7, 25),36	583,(2, 49),108	691,(5, 45),3	694,(7, 31),3	697,(2, 54),48	745,(5, 25),6	751,(5, 31),6	757,(5, 44),6	763,(2, 67),21	784,(2, 68),9	793,(2, 70),21	814,(5, 49),3	868,(7, 37),6	874,(5, 54),3	877,(7, 42),6	883,(2, 84),3	886,(7, 44),3	889,(7, 45),6	895,(2, 81),99	994,(2, 83),18	1012,(2, 88),6	1018,(5, 68),3	1021,(5, 84),3	1024,(5, 92),3	1027,(7, 49),3	1030,(5, 70),12	1042,(7, 53),6	1048,(7, 54),12	1060,(5, 67),15	1075,(5, 83),9	1084,(5, 93),3	1087,(5, 98),3	1090,(7, 59),24	1114,(2, 92),24	1138,(5, 113),6	1144,(10, 93),3	1147,(7, 62),42	1189,(2, 93),15	1204,(2, 98),15	1219,(2, 102),171	1390,(7, 67),9	1399,(7, 68),36	1435,(7, 70),45	1480,(2, 106),42	1522,(2, 107),12	1534,(2, 113),21	1555,(2, 116),6	1561,(2, 120),9	1570,(10, 120),3	1573,(7, 72),3	1576,(5, 37),120	1696,(5, 42),54	1750,(5, 59),45	1795,(7, 81),9	1804,(7, 83),39	1843,(7, 84),12	1855,(5, 62),60	1915,(5, 88),21	1936,(6, 37),3	1939,(12, 16),3	1942,(7, 88),9	1951,(5, 72),36	1987,(6, 16),9	1996,(6, 54),6	2002,(6, 59),3	2005,(7, 92),3	2008,(7, 93),33	2041,(5, 53),96	2137,(5, 116),21	2158,(6, 62),6	2164,(7, 98),96	2260,(5, 81),33	2293,(5, 120),24	2317,(6, 49),12	2329,(6, 83),12	2341,(7, 102),6	2347,(6, 113),3	2350,(6, 116),3	2353,(7, 106),3	2356,(7, 107),15	2371,(5, 106),72	2443,(11, 25),3	2446,(7, 113),63	2509,(6, 45),27	2536,(6, 53),27	2563,(10, 16),9	2572,(11, 31),3	2575,(7, 116),6	2581,(6, 31),69	2650,(6, 67),21	2671,(7, 120),4326	6997,(10, 42),6	7003,(10, 67),6	7009,(3, 16),3	7012,(5, 107),129	7141,(11, 53),3	7144,(3, 25),78	7222,(6, 88),15	7237,(11, 68),3	7240,(3, 31),3	7243,(6, 68),30	7273,(6, 81),21	7294,(10, 25),18	7312,(3, 37),6	7318,(11, 83),3	7321,(3, 42),3	7324,(10, 53),9	7333,(10, 68),6	7339,(3, 44),6	7345,(3, 45),48	7393,(6, 84),36	7429,(6, 92),63	7492,(10, 62),15	7507,(3, 49),3	7510,(6, 98),33	7543,(6, 106),21	7564,(6, 120),21	7585,(10, 70),6	7591,(3, 53),702	8293,(3, 54),15	8308,(6, 107),39	8347,(11, 84),3	8350,(3, 59),9	8359,(10, 83),15	8374,(3, 62),699	9073,(10, 31),36	9109,(11, 88),3	9112,(3, 67),15	9127,(3, 68),3	9130,(3, 70),21	9151,(10, 45),24	9175,(10, 49),21	9196,(10, 84),6	9202,(10, 98),9	9211,(3, 72),3	9214,(10, 59),33	9247,(10, 88),24	9271,(11, 102),3	9274,(3, 81),3	9277,(3, 83),36	9313,(3, 84),3	9316,(10, 72),42	9358,(10, 81),42	9400,(10, 102),12	9412,(10, 113),6	9418,(11, 106),3	9421,(3, 88),9	9430,(10, 116),18	9448,(11, 37),6	9454,(11, 62),9	9463,(11, 107),3	9466,(3, 92),3	9469,(3, 93),54	9523,(11, 16),30	9553,(11, 92),9	9562,(12, 42),3	9565,(3, 98),3	9568,(11, 42),18	9586,(11, 45),27	9613,(3, 102),6	9619,(11, 59),48	9667,(12, 44),6	9673,(3, 106),6	9679,(3, 107),3	9682,(11, 67),24	9706,(11, 72),18	9724,(11, 81),15	9739,(12, 45),3	9742,(3, 113),3	9745,(11, 93),27	9772,(11, 98),9	9781,(12, 49),3	9784,(3, 116),3	9787,(12, 62),3	9790,(12, 68),3	9793,(12, 72),3	9796,(3, 120),30	9826,(11, 113),15	9841,(12, 81),3	9844,(1, 16),3	9847,(11, 44),93	9940,(12, 25),15	9955,(12, 88),3	9961,(1, 25),9	9970,(6, 42),156	10126,(1, 31),222	10348,(11, 70),78	10426,(12, 31),12	10444,(1, 37),3	10453,(1, 42),69	10525,(1, 44),3	10528,(1, 45),93	10621,(11, 116),27	10648,(11, 120),36	10684,(1, 49),141	10825,(12, 37),21	10846,(12, 54),48	10894,(12, 67),24	10918,(1, 53),24	10942,(1, 54),51	10993,(12, 59),39	11032,(12, 83),12	11044,(12, 102),12	11056,(1, 59),27	11083,(12, 84),18	11101,(12, 113),9	11113,(1, 62),78	11191,(12, 53),108	11305,(1, 67),3	11308,(1, 68),3	11311,(1, 70),3	11317,(1, 72),3	11320,(6, 44),174	11509,(1, 81),18	11527,(1, 83),87	11614,(1, 84),225	11845,(1, 88),3	11848,(6, 102),123	11971,(12, 98),33	12019,(1, 92),6	12025,(1, 93),3	12028,(12, 116),24	12058,(1, 98),75	12133,(12, 120),39	12175,(1, 102),6	12223,(1, 106),3	12226,(1, 107),9	12235,(12, 107),51	12352,(1, 113),3	12391,(1, 116),210	12643,(1, 120),3	12766,(4, 16),3	12778,(13, 121),3	12802,(17, 121),3	12826,(19, 121),3	12841,(20, 121),3	12853,(21, 121),3	12862,(4, 25),3	12865,(22, 121),3	12874,(24, 121),3	12880,(26, 121),3	12892,(27, 121),3	12907,(29, 121),3	12922,(4, 31),3	12934,(30, 121),3	12955,(34, 121),3	12964,(4, 37),36	13000,(35, 121),3	13003,(36, 121),3	13009,(4, 42),183	13192,(40, 121),3	13198,(4, 44),24	13222,(4, 45),33	13255,(43, 121),3	13321,(46, 121),3	13354,(4, 49),45	13399,(47, 121),3	13402,(48, 121),3	13420,(4, 53),15	13435,(4, 54),9	13444,(50, 121),3	13447,(51, 121),3	13450,(52, 121),3	13471,(4, 59),30	13501,(55, 121),3	13504,(4, 62),9	13513,(56, 121),3	13516,(57, 121),3	13519,(61, 121),3	13570,(4, 67),60	13630,(4, 68),21	13651,(4, 70),6	13657,(64, 121),3	13660,(65, 121),3	13663,(66, 121),3	13666,(4, 72),15	13681,(11, 49),123	13804,(71, 121),3	13807,(73, 121),3	13810,(74, 121),3	13813,(76, 121),3	13816,(77, 121),3	13825,(4, 81),6	13831,(4, 83),63	13894,(4, 84),48	13942,(79, 121),3	13957,(85, 121),3	13972,(4, 88),87	14059,(87, 121),3	14080,(89, 121),3	14113,(90, 121),3	14128,(4, 92),3	14131,(4, 93),51	14182,(91, 121),3	14203,(95, 121),3	14224,(4, 98),3	14233,(96, 121),3	14245,(97, 121),3	14272,(99, 121),3	14275,(4, 102),51	14326,(101, 121),3	14332,(4, 106),3	14335,(4, 107),156	14491,(103, 121),3	14494,(105, 121),3	14512,(4, 113),48	14560,(108, 121),3	14563,(112, 121),3	14575,(114, 121),3	14584,(4, 116),24	14608,(115, 121),3	14617,(4, 120),3	14620,(2, 25),237	14857,(2, 31),276	15133,(2, 72),375	15508,(5, 102),267	15775,(6, 25),876	16651,(6, 70),210	16861,(6, 72),1062	17923,(6, 93),234	18157,(10, 37),402	18559,(10, 44),1077	19636,(10, 54),387	20023,(10, 92),183	20206,(10, 106),186	20392,(10, 107),2142	22534,(11, 54),213	22747,(12, 70),366	23113,(12, 92),204	23317,(12, 93),387	23704,(12, 106),243	23947,(14, 121),3	23950,(15, 121),3	23953,(28, 121),3	23956,(18, 121),3	23959,(32, 121),3	23962,(33, 121),3	23965,(39, 121),3	23968,(41, 121),3	23971,(63, 121),3	23974,(38, 121),3	23977,(75, 121),3	23980,(23, 121),3	23983,(58, 121),3	23986,(60, 121),3	23989,(69, 121),3	23992,(78, 121),3	23995,(80, 121),3	23998,(82, 121),3	24001,(86, 121),3	24004,(94, 121),3	24007,(100, 121),3	24010,(104, 121),3	24013,(109, 121),3	24016,(110, 121),3	24019,(111, 121),3	24022,(117, 121),3	24025,(118, 121),3	24028,(119, 121),3	
46,(0, 5),45	91,(2, 13),3	112,(2, 17),15	172,(2, 19),15	190,(2, 24),9	205,(2, 29),9	226,(0, 10),45	271,(2, 36),24	301,(2, 40),12	316,(0, 12),45	361,(7, 13),3	364,(2, 56),3	367,(7, 17),18	385,(7, 19),21	406,(2, 43),18	424,(2, 46),12	436,(2, 47),9	445,(2, 48),87	532,(2, 51),12	544,(7, 24),3	547,(2, 52),6	553,(2, 57),21	574,(2, 65),9	667,(7, 29),3	691,(2, 74),6	697,(8, 13),87	784,(8, 17),3	787,(8, 24),3	790,(8, 29),21	811,(8, 46),3	814,(8, 47),3	817,(7, 36),51	868,(8, 74),6	874,(7, 40),3	877,(8, 95),3	880,(8, 101),3	883,(7, 43),3	886,(2, 95),3	889,(2, 97),3	892,(8, 112),3	895,(7, 46),42	937,(7, 47),27	964,(7, 48),63	1030,(8, 114),3	1033,(7, 51),3	1036,(7, 52),6	1042,(2, 76),12	1057,(8, 36),18	1075,(8, 56),9	1084,(7, 56),3	1087,(7, 57),3	1090,(8, 40),12	1105,(2, 96),9	1114,(8, 43),12	1138,(2, 101),6	1144,(8, 119),3	1147,(2, 108),12	1177,(2, 112),12	1189,(8, 19),90	1279,(8, 48),30	1309,(8, 52),18	1327,(8, 57),12	1339,(9, 17),3	1342,(7, 65),6	1348,(8, 65),12	1360,(8, 76),15	1375,(8, 96),9	1384,(9, 19),3	1387,(9, 29),3	1390,(2, 114),9	1399,(2, 118),18	1417,(2, 119),6	1423,(6, 13),6	1429,(6, 29),3	1432,(8, 97),18	1450,(6, 17),9	1459,(9, 36),3	1462,(9, 43),3	1471,(6, 24),9	1570,(6, 19),24	1594,(8, 108),42	1636,(9, 40),6	1642,(9, 48),6	1648,(9, 51),3	1651,(9, 52),3	1654,(6, 36),12	1666,(8, 118),27	1693,(9, 13),27	1720,(9, 57),3	1723,(9, 65),6	1729,(9, 96),3	1732,(9, 97),3	1735,(6, 40),3	1738,(9, 114),3	1741,(6, 43),3	1744,(6, 48),9	1753,(6, 57),6	1759,(7, 74),12	1771,(7, 76),15	1786,(6, 46),27	1813,(6, 47),51	1864,(6, 51),39	1903,(6, 52),24	1927,(6, 65),9	1939,(6, 56),27	1966,(6, 74),3	1969,(6, 76),6	1975,(9, 46),18	2041,(7, 95),21	2062,(7, 96),6	2068,(7, 97),96	2164,(6, 95),12	2176,(6, 96),9	2185,(6, 97),24	2209,(6, 101),3	2212,(6, 108),12	2224,(9, 74),12	2236,(9, 101),6	2242,(9, 119),9	2254,(6, 112),6	2260,(6, 118),3	2263,(6, 119),3	2266,(9, 24),45	2311,(11, 24),3	2314,(7, 101),27	2341,(11, 19),6	2353,(11, 13),18	2371,(7, 108),21	2392,(7, 112),54	2446,(11, 29),15	2461,(11, 36),18	2479,(11, 43),12	2491,(11, 47),18	2509,(7, 114),63	2575,(11, 56),3	2578,(11, 65),3	2584,(7, 118),84	2668,(7, 119),3	2671,(6, 114),129	2800,(8, 51),78	2878,(9, 47),48	2926,(9, 56),45	2971,(9, 76),18	2989,(9, 95),33	3022,(11, 48),27	3049,(11, 51),12	3061,(11, 76),3	3064,(9, 108),12	3076,(11, 52),21	3097,(11, 95),3	3100,(9, 112),54	3172,(9, 118),18	3190,(11, 17),66	3256,(11, 40),84	3340,(11, 46),45	3385,(11, 57),21	3445,(11, 74),33	3487,(11, 96),3	3490,(11, 97),27	3517,(11, 101),9	3574,(11, 108),3	3586,(11, 112),15	3601,(11, 114),3	3604,(11, 118),36	3640,(11, 119),45	6997,(3, 13),12	7012,(3, 17),63	7075,(3, 19),24	7123,(3, 24),21	7228,(3, 29),9	7261,(3, 36),51	7318,(3, 40),3	7324,(3, 43),15	7393,(3, 46),3	7396,(3, 47),3	7399,(3, 48),108	7564,(3, 51),18	7582,(3, 52),9	8335,(3, 56),3	8338,(3, 57),12	9097,(3, 65),3	9250,(3, 74),3	9253,(3, 76),3	9523,(3, 95),3	9526,(3, 96),33	9559,(3, 97),6	9571,(3, 101),42	9682,(3, 108),9	9691,(3, 112),51	9745,(3, 114),36	9790,(3, 118),3	9793,(3, 119),3	9826,(1, 13),18	9847,(1, 17),3	9850,(1, 19),12	9949,(1, 24),12	10057,(1, 29),54	10432,(1, 36),12	10447,(1, 40),6	10522,(1, 43),3	10621,(1, 46),6	10627,(1, 47),15	10642,(1, 48),42	10867,(1, 51),12	10879,(1, 52),39	11011,(1, 56),18	11029,(1, 57),27	11275,(1, 65),21	11323,(1, 74),66	11389,(1, 76),3	12028,(1, 95),3	12031,(1, 96),24	12055,(1, 97),3	12154,(1, 101),21	12235,(1, 108),3	12238,(1, 112),114	12355,(1, 114),3	12616,(1, 118),3	12619,(1, 119),24	12646,(4, 13),120	12769,(4, 17),21	12790,(4, 19),24	12844,(4, 24),18	12880,(4, 29),15	12949,(4, 36),15	13000,(4, 40),9	13192,(4, 43),6	13255,(4, 46),54	13309,(4, 47),42	13351,(4, 48),3	13411,(4, 51),3	13414,(4, 52),6	13465,(4, 56),3	13468,(4, 57),3	13564,(4, 65),3	13684,(4, 74),45	13729,(4, 76),3	14182,(4, 95),9	14191,(4, 96),30	14221,(4, 97),3	14260,(4, 101),15	14491,(4, 108),15	14506,(4, 112),6	14560,(4, 114),3	14611,(4, 118),3	14614,(4, 119),3	
94,(2, 14),15	109,(2, 15),3	127,(2, 18),45	187,(2, 23),3	199,(2, 28),6	214,(2, 33),12	229,(2, 32),24	268,(2, 39),3	295,(2, 38),6	313,(2, 41),6	337,(2, 58),21	397,(2, 63),3	400,(2, 69),3	403,(2, 78),3	406,(5, 14),51	457,(5, 15),36	520,(5, 18),3	523,(5, 23),18	541,(5, 28),3	544,(2, 80),3	580,(5, 32),3	583,(5, 33),3	586,(5, 38),36	622,(5, 39),3	625,(5, 41),3	628,(5, 60),12	640,(5, 63),18	658,(5, 69),3	661,(5, 78),3	664,(5, 80),3	670,(5, 75),21	697,(5, 82),15	712,(5, 100),21	733,(5, 111),6	739,(10, 14),3	742,(10, 15),3	745,(2, 60),18	763,(5, 86),51	814,(2, 75),42	856,(2, 82),27	883,(8, 14),3	886,(8, 28),6	892,(2, 100),3	895,(8, 15),15	910,(8, 18),36	946,(8, 23),42	988,(8, 32),3	991,(8, 33),3	994,(8, 60),3	997,(8, 63),3	1000,(10, 18),3	1003,(10, 23),9	1012,(10, 28),3	1015,(10, 39),3	1018,(2, 94),24	1042,(10, 60),3	1045,(10, 63),3	1048,(10, 69),6	1054,(2, 86),51	1105,(5, 109),21	1126,(8, 39),12	1138,(8, 69),3	1141,(8, 78),3	1144,(2, 104),3	1147,(10, 75),3	1150,(10, 82),3	1153,(10, 94),3	1156,(10, 110),3	1159,(2, 109),3	1162,(2, 110),6	1168,(2, 111),9	1177,(5, 58),129	1306,(5, 94),45	1351,(5, 104),57	1408,(5, 110),24	1432,(6, 14),3	1435,(6, 15),15	1450,(8, 41),9	1459,(6, 18),9	1468,(6, 23),3	1471,(8, 38),42	1513,(8, 58),42	1555,(8, 75),15	1570,(8, 80),3	1573,(8, 82),6	1579,(8, 86),9	1588,(8, 109),3	1591,(8, 110),3	1594,(6, 28),15	1609,(6, 32),18	1627,(6, 33),27	1654,(8, 111),3	1657,(9, 14),3	1660,(9, 18),3	1663,(9, 28),3	1666,(6, 38),15	1681,(6, 39),54	1735,(9, 32),3	1738,(6, 41),3	1741,(8, 94),15	1756,(9, 60),3	1759,(6, 58),3	1762,(6, 60),12	1774,(6, 63),3	1777,(6, 78),3	1780,(6, 82),6	1786,(9, 38),9	1795,(10, 33),27	1822,(10, 38),21	1843,(10, 109),6	1849,(8, 100),45	1894,(8, 104),27	1921,(9, 15),15	1936,(9, 39),6	1942,(12, 14),9	1951,(9, 23),21	1972,(9, 63),3	1975,(6, 86),6	1981,(6, 94),3	1984,(6, 100),3	1987,(12, 15),6	1993,(9, 58),6	1999,(9, 69),3	2002,(9, 80),3	2005,(6, 69),30	2035,(6, 75),30	2065,(6, 80),54	2119,(6, 104),3	2122,(6, 109),33	2155,(11, 18),3	2158,(9, 33),36	2194,(9, 41),27	2221,(9, 94),3	2224,(6, 110),6	2230,(6, 111),24	2254,(12, 28),3	2257,(12, 33),3	2260,(9, 86),6	2266,(11, 14),30	2296,(11, 15),15	2311,(9, 104),3	2314,(11, 23),3	2317,(10, 41),24	2341,(9, 75),9	2350,(9, 109),3	2353,(10, 86),18	2371,(11, 28),60	2431,(11, 58),3	2434,(11, 69),3	2437,(11, 75),3	2440,(11, 78),3	2443,(10, 32),63	2506,(10, 78),42	2548,(12, 39),3	2551,(9, 78),12	2563,(9, 82),12	2575,(12, 32),6	2581,(9, 111),3	2584,(10, 58),69	2653,(10, 80),33	2686,(10, 100),21	2707,(10, 104),18	2725,(10, 111),54	2779,(12, 18),15	2794,(12, 41),3	2797,(12, 63),3	2800,(11, 32),63	2863,(11, 33),21	2884,(11, 38),129	3013,(11, 80),9	3022,(9, 100),42	3064,(11, 82),6	3070,(11, 100),3	3073,(11, 110),3	3076,(9, 110),24	3100,(11, 39),54	3154,(11, 41),24	3178,(11, 86),12	3406,(11, 60),18	3424,(11, 63),21	3478,(11, 94),9	3487,(12, 38),21	3526,(11, 104),48	3574,(12, 75),3	3577,(11, 109),6	3583,(11, 111),3	3586,(12, 23),81	3667,(12, 58),126	3793,(12, 60),51	3922,(12, 69),21	3943,(12, 78),18	3961,(12, 80),6	3967,(12, 82),3	3970,(12, 86),3	4030,(12, 94),60	4096,(12, 100),3	4099,(12, 104),30	4132,(12, 109),6	4138,(12, 110),6	4144,(12, 111),63	
1,(0, 2),45	91,(0, 6),45	271,(0, 11),45	406,(7, 20),54	460,(7, 21),12	472,(7, 22),72	544,(5, 20),6	550,(5, 21),12	562,(5, 22),3	565,(5, 26),3	568,(5, 30),12	583,(7, 26),9	592,(7, 27),75	667,(5, 35),3	670,(7, 30),24	694,(5, 50),3	697,(7, 34),102	799,(7, 35),18	817,(5, 27),39	856,(5, 34),15	871,(5, 55),3	874,(8, 21),3	877,(5, 61),9	886,(5, 64),6	892,(5, 66),3	895,(5, 71),27	922,(5, 73),3	925,(5, 77),12	937,(5, 79),3	940,(5, 85),3	943,(5, 87),36	979,(5, 89),3	982,(5, 90),3	985,(5, 91),3	988,(5, 99),3	991,(5, 103),3	994,(5, 105),6	1000,(8, 20),12	1012,(8, 22),6	1018,(8, 26),3	1021,(8, 30),3	1024,(8, 50),3	1027,(8, 64),3	1030,(7, 50),3	1033,(8, 35),24	1057,(10, 21),3	1060,(7, 55),24	1084,(8, 66),3	1087,(8, 77),3	1090,(10, 20),12	1102,(8, 73),12	1114,(7, 61),33	1147,(8, 27),42	1189,(7, 64),153	1342,(8, 87),3	1345,(8, 89),3	1348,(7, 66),42	1390,(8, 34),36	1426,(8, 91),6	1432,(5, 115),33	1465,(8, 99),6	1471,(10, 26),3	1474,(10, 61),6	1480,(7, 71),93	1573,(10, 64),3	1576,(7, 73),183	1759,(8, 79),12	1771,(8, 103),3	1774,(8, 105),3	1777,(8, 117),3	1780,(9, 22),3	1783,(9, 34),3	1786,(7, 77),6	1792,(7, 79),3	1795,(8, 61),36	1831,(8, 85),18	1849,(10, 77),3	1852,(10, 99),3	1855,(7, 85),84	1939,(7, 87),3	1942,(9, 20),9	1951,(7, 89),6	1957,(7, 90),3	1960,(7, 91),45	2005,(8, 55),72	2077,(8, 71),57	2134,(8, 90),18	2152,(9, 26),6	2158,(5, 117),93	2251,(9, 55),3	2254,(9, 64),6	2260,(7, 99),54	2314,(8, 115),12	2326,(9, 21),12	2338,(9, 66),3	2341,(10, 115),3	2344,(12, 20),3	2347,(7, 103),3	2350,(7, 105),3	2353,(9, 27),69	2422,(9, 30),30	2452,(9, 35),15	2467,(9, 50),36	2503,(9, 61),18	2521,(9, 73),30	2551,(10, 27),9	2560,(12, 21),3	2572,(7, 115),3	2575,(9, 87),6	2581,(7, 117),3	2584,(9, 71),75	2659,(9, 77),24	2683,(9, 79),27	2710,(9, 85),12	2722,(9, 89),3	2725,(9, 90),12	2737,(9, 91),21	2758,(9, 99),12	2770,(9, 103),12	2782,(9, 105),3	2785,(9, 115),15	2800,(10, 22),60	2860,(10, 30),9	2869,(10, 34),12	2881,(10, 35),57	2938,(10, 50),63	3001,(10, 55),24	3025,(10, 66),12	3037,(10, 71),114	3151,(12, 22),3	3154,(9, 117),18	3172,(10, 73),15	3187,(10, 79),15	3202,(10, 85),36	3238,(10, 87),15	3253,(10, 89),15	3268,(10, 90),12	3280,(10, 91),12	3292,(10, 103),57	3349,(10, 105),9	3358,(10, 117),75	3433,(12, 26),3	3436,(12, 27),3	3439,(12, 30),6	3445,(12, 34),6	3451,(12, 35),36	3508,(12, 50),18	3526,(12, 55),3	3529,(12, 61),24	3553,(12, 66),3	3556,(12, 71),3	3559,(12, 73),3	3562,(12, 77),3	3565,(12, 79),6	3571,(12, 85),3	3577,(12, 87),6	3583,(12, 103),3	3844,(12, 64),78	3973,(12, 89),9	3982,(12, 90),27	4009,(12, 91),21	4090,(12, 99),6	4129,(12, 105),3	4207,(12, 115),3	4210,(12, 117),3	7099,(3, 20),15	7114,(3, 21),6	7120,(3, 22),3	7222,(3, 26),3	7225,(3, 27),3	7237,(3, 30),3	7243,(3, 34),12	7255,(3, 35),6	7510,(3, 50),54	8308,(3, 55),27	8359,(3, 61),15	9073,(3, 64),24	9100,(3, 66),12	9151,(3, 71),60	9214,(3, 73),36	9256,(3, 77),6	9262,(3, 79),12	9316,(3, 85),3	9319,(3, 87),102	9430,(3, 89),6	9436,(3, 90),9	9445,(3, 91),21	9568,(3, 99),3	9619,(3, 103),51	9670,(3, 105),3	9781,(3, 115),3	9787,(3, 117),3	9862,(1, 20),3	9865,(1, 21),63	9928,(1, 22),21	9970,(1, 26),84	10054,(1, 27),3	10111,(1, 30),15	10348,(1, 34),3	10351,(1, 35),81	10825,(1, 50),42	10993,(1, 55),18	11083,(1, 61),30	11191,(1, 64),84	11296,(1, 66),9	11314,(1, 71),3	11320,(1, 73),3	11392,(1, 77),21	11413,(1, 79),96	11839,(1, 85),3	11842,(1, 87),3	11848,(1, 89),3	11851,(1, 90),66	11917,(1, 91),102	12133,(1, 99),21	12181,(1, 103),15	12196,(1, 105),27	12358,(1, 115),33	12601,(1, 117),15	12814,(4, 20),15	12829,(4, 21),3	12832,(4, 22),12	12865,(4, 26),3	12868,(4, 27),12	12895,(4, 30),27	12925,(4, 34),18	12943,(4, 35),6	13399,(4, 50),12	13444,(4, 55),21	13501,(4, 61),3	13513,(4, 64),51	13567,(4, 66),3	13657,(4, 71),9	13681,(4, 73),3	13732,(4, 77),18	13750,(4, 79),75	13942,(4, 85),3	13945,(4, 87),27	14059,(4, 89),9	14068,(4, 90),33	14101,(4, 91),27	14227,(4, 99),33	14326,(4, 103),3	14329,(4, 105),3	14563,(4, 115),21	14608,(4, 117),3	
# Outgoing
697,(8, 13),87	784,(8, 17),3	787,(8, 24),3	790,(8, 29),21	811,(8, 46),3	814,(8, 47),3	868,(8, 74),6	874,(8, 21),3	877,(8, 95),3	880,(8, 101),3	883,(8, 14),3	886,(8, 28),6	892,(8, 112),3	895,(8, 15),15	910,(8, 18),36	946,(8, 23),42	988,(8, 32),3	991,(8, 33),3	994,(8, 60),3	997,(8, 63),3	1000,(8, 20),12	1012,(8, 22),6	1018,(8, 26),3	1021,(8, 30),3	1024,(8, 50),3	1027,(8, 64),3	1030,(8, 114),3	1033,(8, 35),24	1057,(8, 36),18	1075,(8, 56),9	1084,(8, 66),3	1087,(8, 77),3	1090,(8, 40),12	1102,(8, 73),12	1114,(8, 43),12	1126,(8, 39),12	1138,(8, 69),3	1141,(8, 78),3	1144,(8, 119),3	1147,(8, 27),42	1189,(8, 19),90	1279,(8, 48),30	1309,(8, 52),18	1327,(8, 57),12	1339,(9, 17),3	1342,(8, 87),3	1345,(8, 89),3	1348,(8, 65),12	1360,(8, 76),15	1375,(8, 96),9	1384,(9, 19),3	1387,(9, 29),3	1390,(8, 34),36	1426,(8, 91),6	1432,(8, 97),18	1450,(8, 41),9	1459,(9, 36),3	1462,(9, 43),3	1465,(8, 99),6	1471,(8, 38),42	1513,(8, 58),42	1555,(8, 75),15	1570,(8, 80),3	1573,(8, 82),6	1579,(8, 86),9	1588,(8, 109),3	1591,(8, 110),3	1594,(8, 108),42	1636,(9, 40),6	1642,(9, 48),6	1648,(9, 51),3	1651,(9, 52),3	1654,(8, 111),3	1657,(9, 14),3	1660,(9, 18),3	1663,(9, 28),3	1666,(8, 118),27	1693,(9, 13),27	1720,(9, 57),3	1723,(9, 65),6	1729,(9, 96),3	1732,(9, 97),3	1735,(9, 32),3	1738,(9, 114),3	1741,(8, 94),15	1756,(9, 60),3	1759,(8, 79),12	1771,(8, 103),3	1774,(8, 105),3	1777,(8, 117),3	1780,(9, 22),3	1783,(9, 34),3	1786,(9, 38),9	1795,(8, 61),36	1831,(8, 85),18	1849,(8, 100),45	1894,(8, 104),27	1921,(9, 15),15	1936,(9, 39),6	1942,(9, 20),9	1951,(9, 23),21	1972,(9, 63),3	1975,(9, 46),18	1993,(9, 58),6	1999,(9, 69),3	2002,(9, 80),3	2005,(8, 55),72	2077,(8, 71),57	2134,(8, 90),18	2152,(9, 26),6	2158,(9, 33),36	2194,(9, 41),27	2221,(9, 94),3	2224,(9, 74),12	2236,(9, 101),6	2242,(9, 119),9	2251,(9, 55),3	2254,(9, 64),6	2260,(9, 86),6	2266,(9, 24),45	2311,(9, 104),3	2314,(8, 115),12	2326,(9, 21),12	2338,(9, 66),3	2341,(9, 75),9	2350,(9, 109),3	2353,(9, 27),69	2422,(9, 30),30	2452,(9, 35),15	2467,(9, 50),36	2503,(9, 61),18	2521,(9, 73),30	2551,(9, 78),12	2563,(9, 82),12	2575,(9, 87),6	2581,(9, 111),3	2584,(9, 71),75	2659,(9, 77),24	2683,(9, 79),27	2710,(9, 85),12	2722,(9, 89),3	2725,(9, 90),12	2737,(9, 91),21	2758,(9, 99),12	2770,(9, 103),12	2782,(9, 105),3	2785,(9, 115),15	2800,(8, 51),78	2878,(9, 47),48	2926,(9, 56),45	2971,(9, 76),18	2989,(9, 95),33	3022,(9, 100),42	3064,(9, 108),12	3076,(9, 110),24	3100,(9, 112),54	3154,(9, 117),18	3172,(9, 118),18	
406,(5, 14),51	457,(5, 15),36	493,(5, 16),27	520,(5, 18),3	523,(5, 23),18	541,(5, 28),3	544,(5, 20),6	550,(5, 21),12	562,(5, 22),3	565,(5, 26),3	568,(5, 30),12	580,(5, 32),3	583,(5, 33),3	586,(5, 38),36	622,(5, 39),3	625,(5, 41),3	628,(5, 60),12	640,(5, 63),18	658,(5, 69),3	661,(5, 78),3	664,(5, 80),3	667,(5, 35),3	670,(5, 75),21	691,(5, 45),3	694,(5, 50),3	697,(5, 82),15	712,(5, 100),21	733,(5, 111),6	739,(10, 14),3	742,(10, 15),3	745,(5, 25),6	751,(5, 31),6	757,(5, 44),6	763,(5, 86),51	814,(5, 49),3	817,(5, 27),39	856,(5, 34),15	871,(5, 55),3	874,(5, 54),3	877,(5, 61),9	886,(5, 64),6	892,(5, 66),3	895,(5, 71),27	922,(5, 73),3	925,(5, 77),12	937,(5, 79),3	940,(5, 85),3	943,(5, 87),36	979,(5, 89),3	982,(5, 90),3	985,(5, 91),3	988,(5, 99),3	991,(5, 103),3	994,(5, 105),6	1000,(10, 18),3	1003,(10, 23),9	1012,(10, 28),3	1015,(10, 39),3	1018,(5, 68),3	1021,(5, 84),3	1024,(5, 92),3	1030,(5, 70),12	1042,(10, 60),3	1045,(10, 63),3	1048,(10, 69),6	1057,(10, 21),3	1060,(5, 67),15	1075,(5, 83),9	1084,(5, 93),3	1087,(5, 98),3	1090,(10, 20),12	1105,(5, 109),21	1138,(5, 113),6	1144,(10, 93),3	1147,(10, 75),3	1150,(10, 82),3	1153,(10, 94),3	1156,(10, 110),3	1177,(5, 58),129	1306,(5, 94),45	1351,(5, 104),57	1408,(5, 110),24	1432,(5, 115),33	1471,(10, 26),3	1474,(10, 61),6	1570,(10, 120),3	1573,(10, 64),3	1576,(5, 37),120	1696,(5, 42),54	1750,(5, 59),45	1795,(10, 33),27	1822,(10, 38),21	1843,(10, 109),6	1849,(10, 77),3	1852,(10, 99),3	1855,(5, 62),60	1915,(5, 88),21	1939,(12, 16),3	1942,(12, 14),9	1951,(5, 72),36	1987,(12, 15),6	2041,(5, 53),96	2137,(5, 116),21	2158,(5, 117),93	2254,(12, 28),3	2257,(12, 33),3	2260,(5, 81),33	2293,(5, 120),24	2317,(10, 41),24	2341,(10, 115),3	2344,(12, 20),3	2353,(10, 86),18	2371,(5, 106),72	2443,(10, 32),63	2506,(10, 78),42	2548,(12, 39),3	2551,(10, 27),9	2560,(12, 21),3	2563,(10, 16),9	2575,(12, 32),6	2584,(10, 58),69	2653,(10, 80),33	2686,(10, 100),21	2707,(10, 104),18	2725,(10, 111),54	2779,(12, 18),15	2794,(12, 41),3	2797,(12, 63),3	2800,(10, 22),60	2860,(10, 30),9	2869,(10, 34),12	2881,(10, 35),57	2938,(10, 50),63	3001,(10, 55),24	3025,(10, 66),12	3037,(10, 71),114	3151,(12, 22),3	3172,(10, 73),15	3187,(10, 79),15	3202,(10, 85),36	3238,(10, 87),15	3253,(10, 89),15	3268,(10, 90),12	3280,(10, 91),12	3292,(10, 103),57	3349,(10, 105),9	3358,(10, 117),75	3433,(12, 26),3	3436,(12, 27),3	3439,(12, 30),6	3445,(12, 34),6	3451,(12, 35),36	3487,(12, 38),21	3508,(12, 50),18	3526,(12, 55),3	3529,(12, 61),24	3553,(12, 66),3	3556,(12, 71),3	3559,(12, 73),3	3562,(12, 77),3	3565,(12, 79),6	3571,(12, 85),3	3574,(12, 75),3	3577,(12, 87),6	3583,(12, 103),3	3586,(12, 23),81	3667,(12, 58),126	3793,(12, 60),51	3844,(12, 64),78	3922,(12, 69),21	3943,(12, 78),18	3961,(12, 80),6	3967,(12, 82),3	3970,(12, 86),3	3973,(12, 89),9	3982,(12, 90),27	4009,(12, 91),21	4030,(12, 94),60	4090,(12, 99),6	4096,(12, 100),3	4099,(12, 104),30	4129,(12, 105),3	4132,(12, 109),6	4138,(12, 110),6	4144,(12, 111),63	4207,(12, 115),3	4210,(12, 117),3	6997,(10, 42),6	7003,(10, 67),6	7012,(5, 107),129	7294,(10, 25),18	7324,(10, 53),9	7333,(10, 68),6	7492,(10, 62),15	7585,(10, 70),6	8359,(10, 83),15	9073,(10, 31),36	9151,(10, 45),24	9175,(10, 49),21	9196,(10, 84),6	9202,(10, 98),9	9214,(10, 59),33	9247,(10, 88),24	9316,(10, 72),42	9358,(10, 81),42	9400,(10, 102),12	9412,(10, 113),6	9430,(10, 116),18	9562,(12, 42),3	9667,(12, 44),6	9739,(12, 45),3	9781,(12, 49),3	9787,(12, 62),3	9790,(12, 68),3	9793,(12, 72),3	9841,(12, 81),3	9940,(12, 25),15	9955,(12, 88),3	10426,(12, 31),12	10825,(12, 37),21	10846,(12, 54),48	10894,(12, 67),24	10993,(12, 59),39	11032,(12, 83),12	11044,(12, 102),12	11083,(12, 84),18	11101,(12, 113),9	11191,(12, 53),108	11971,(12, 98),33	12028,(12, 116),24	12133,(12, 120),39	12235,(12, 107),51	12778,(13, 121),3	12802,(17, 121),3	12826,(19, 121),3	12874,(24, 121),3	12907,(29, 121),3	13003,(36, 121),3	13192,(40, 121),3	13255,(43, 121),3	13321,(46, 121),3	13399,(47, 121),3	13402,(48, 121),3	13447,(51, 121),3	13450,(52, 121),3	13513,(56, 121),3	13516,(57, 121),3	13660,(65, 121),3	13810,(74, 121),3	13813,(76, 121),3	14203,(95, 121),3	14233,(96, 121),3	14245,(97, 121),3	14326,(101, 121),3	14560,(108, 121),3	14563,(112, 121),3	14575,(114, 121),3	15508,(5, 102),267	18157,(10, 37),402	18559,(10, 44),1077	19636,(10, 54),387	20023,(10, 92),183	20206,(10, 106),186	20392,(10, 107),2142	22747,(12, 70),366	23113,(12, 92),204	23317,(12, 93),387	23704,(12, 106),243	24025,(118, 121),3	24028,(119, 121),3	
1,(0, 2),45	46,(0, 5),45	91,(0, 6),45	136,(0, 8),45	181,(0, 9),45	226,(0, 10),45	271,(0, 11),45	316,(0, 12),45	361,(7, 13),3	364,(7, 16),3	367,(7, 17),18	385,(7, 19),21	406,(7, 20),54	460,(7, 21),12	472,(7, 22),72	544,(7, 24),3	547,(7, 25),36	583,(7, 26),9	592,(7, 27),75	667,(7, 29),3	670,(7, 30),24	694,(7, 31),3	697,(7, 34),102	799,(7, 35),18	817,(7, 36),51	868,(7, 37),6	874,(7, 40),3	877,(7, 42),6	883,(7, 43),3	886,(7, 44),3	889,(7, 45),6	895,(7, 46),42	937,(7, 47),27	964,(7, 48),63	1027,(7, 49),3	1030,(7, 50),3	1033,(7, 51),3	1036,(7, 52),6	1042,(7, 53),6	1048,(7, 54),12	1060,(7, 55),24	1084,(7, 56),3	1087,(7, 57),3	1090,(7, 59),24	1114,(7, 61),33	1147,(7, 62),42	1189,(7, 64),153	1342,(7, 65),6	1348,(7, 66),42	1390,(7, 67),9	1399,(7, 68),36	1435,(7, 70),45	1480,(7, 71),93	1573,(7, 72),3	1576,(7, 73),183	1759,(7, 74),12	1771,(7, 76),15	1786,(7, 77),6	1792,(7, 79),3	1795,(7, 81),9	1804,(7, 83),39	1843,(7, 84),12	1855,(7, 85),84	1939,(7, 87),3	1942,(7, 88),9	1951,(7, 89),6	1957,(7, 90),3	1960,(7, 91),45	2005,(7, 92),3	2008,(7, 93),33	2041,(7, 95),21	2062,(7, 96),6	2068,(7, 97),96	2164,(7, 98),96	2260,(7, 99),54	2314,(7, 101),27	2341,(7, 102),6	2347,(7, 103),3	2350,(7, 105),3	2353,(7, 106),3	2356,(7, 107),15	2371,(7, 108),21	2392,(7, 112),54	2446,(7, 113),63	2509,(7, 114),63	2572,(7, 115),3	2575,(7, 116),6	2581,(7, 117),3	2584,(7, 118),84	2668,(7, 119),3	2671,(7, 120),4326	6997,(3, 13),12	7009,(3, 16),3	7012,(3, 17),63	7075,(3, 19),24	7099,(3, 20),15	7114,(3, 21),6	7120,(3, 22),3	7123,(3, 24),21	7144,(3, 25),78	7222,(3, 26),3	7225,(3, 27),3	7228,(3, 29),9	7237,(3, 30),3	7240,(3, 31),3	7243,(3, 34),12	7255,(3, 35),6	7261,(3, 36),51	7312,(3, 37),6	7318,(3, 40),3	7321,(3, 42),3	7324,(3, 43),15	7339,(3, 44),6	7345,(3, 45),48	7393,(3, 46),3	7396,(3, 47),3	7399,(3, 48),108	7507,(3, 49),3	7510,(3, 50),54	7564,(3, 51),18	7582,(3, 52),9	7591,(3, 53),702	8293,(3, 54),15	8308,(3, 55),27	8335,(3, 56),3	8338,(3, 57),12	8350,(3, 59),9	8359,(3, 61),15	8374,(3, 62),699	9073,(3, 64),24	9097,(3, 65),3	9100,(3, 66),12	9112,(3, 67),15	9127,(3, 68),3	9130,(3, 70),21	9151,(3, 71),60	9211,(3, 72),3	9214,(3, 73),36	9250,(3, 74),3	9253,(3, 76),3	9256,(3, 77),6	9262,(3, 79),12	9274,(3, 81),3	9277,(3, 83),36	9313,(3, 84),3	9316,(3, 85),3	9319,(3, 87),102	9421,(3, 88),9	9430,(3, 89),6	9436,(3, 90),9	9445,(3, 91),21	9466,(3, 92),3	9469,(3, 93),54	9523,(3, 95),3	9526,(3, 96),33	9559,(3, 97),6	9565,(3, 98),3	9568,(3, 99),3	9571,(3, 101),42	9613,(3, 102),6	9619,(3, 103),51	9670,(3, 105),3	9673,(3, 106),6	9679,(3, 107),3	9682,(3, 108),9	9691,(3, 112),51	9742,(3, 113),3	9745,(3, 114),36	9781,(3, 115),3	9784,(3, 116),3	9787,(3, 117),3	9790,(3, 118),3	9793,(3, 119),3	9796,(3, 120),30	9826,(1, 13),18	9844,(1, 16),3	9847,(1, 17),3	9850,(1, 19),12	9862,(1, 20),3	9865,(1, 21),63	9928,(1, 22),21	9949,(1, 24),12	9961,(1, 25),9	9970,(1, 26),84	10054,(1, 27),3	10057,(1, 29),54	10111,(1, 30),15	10126,(1, 31),222	10348,(1, 34),3	10351,(1, 35),81	10432,(1, 36),12	10444,(1, 37),3	10447,(1, 40),6	10453,(1, 42),69	10522,(1, 43),3	10525,(1, 44),3	10528,(1, 45),93	10621,(1, 46),6	10627,(1, 47),15	10642,(1, 48),42	10684,(1, 49),141	10825,(1, 50),42	10867,(1, 51),12	10879,(1, 52),39	10918,(1, 53),24	10942,(1, 54),51	10993,(1, 55),18	11011,(1, 56),18	11029,(1, 57),27	11056,(1, 59),27	11083,(1, 61),30	11113,(1, 62),78	11191,(1, 64),84	11275,(1, 65),21	11296,(1, 66),9	11305,(1, 67),3	11308,(1, 68),3	11311,(1, 70),3	11314,(1, 71),3	11317,(1, 72),3	11320,(1, 73),3	11323,(1, 74),66	11389,(1, 76),3	11392,(1, 77),21	11413,(1, 79),96	11509,(1, 81),18	11527,(1, 83),87	11614,(1, 84),225	11839,(1, 85),3	11842,(1, 87),3	11845,(1, 88),3	11848,(1, 89),3	11851,(1, 90),66	11917,(1, 91),102	12019,(1, 92),6	12025,(1, 93),3	12028,(1, 95),3	12031,(1, 96),24	12055,(1, 97),3	12058,(1, 98),75	12133,(1, 99),21	12154,(1, 101),21	12175,(1, 102),6	12181,(1, 103),15	12196,(1, 105),27	12223,(1, 106),3	12226,(1, 107),9	12235,(1, 108),3	12238,(1, 112),114	12352,(1, 113),3	12355,(1, 114),3	12358,(1, 115),33	12391,(1, 116),210	12601,(1, 117),15	12616,(1, 118),3	12619,(1, 119),24	12643,(1, 120),3	12646,(4, 13),120	12766,(4, 16),3	12769,(4, 17),21	12790,(4, 19),24	12814,(4, 20),15	12829,(4, 21),3	12832,(4, 22),12	12844,(4, 24),18	12862,(4, 25),3	12865,(4, 26),3	12868,(4, 27),12	12880,(4, 29),15	12895,(4, 30),27	12922,(4, 31),3	12925,(4, 34),18	12943,(4, 35),6	12949,(4, 36),15	12964,(4, 37),36	13000,(4, 40),9	13009,(4, 42),183	13192,(4, 43),6	13198,(4, 44),24	13222,(4, 45),33	13255,(4, 46),54	13309,(4, 47),42	13351,(4, 48),3	13354,(4, 49),45	13399,(4, 50),12	13411,(4, 51),3	13414,(4, 52),6	13420,(4, 53),15	13435,(4, 54),9	13444,(4, 55),21	13465,(4, 56),3	13468,(4, 57),3	13471,(4, 59),30	13501,(4, 61),3	13504,(4, 62),9	13513,(4, 64),51	13564,(4, 65),3	13567,(4, 66),3	13570,(4, 67),60	13630,(4, 68),21	13651,(4, 70),6	13657,(4, 71),9	13666,(4, 72),15	13681,(4, 73),3	13684,(4, 74),45	13729,(4, 76),3	13732,(4, 77),18	13750,(4, 79),75	13825,(4, 81),6	13831,(4, 83),63	13894,(4, 84),48	13942,(4, 85),3	13945,(4, 87),27	13972,(4, 88),87	14059,(4, 89),9	14068,(4, 90),33	14101,(4, 91),27	14128,(4, 92),3	14131,(4, 93),51	14182,(4, 95),9	14191,(4, 96),30	14221,(4, 97),3	14224,(4, 98),3	14227,(4, 99),33	14260,(4, 101),15	14275,(4, 102),51	14326,(4, 103),3	14329,(4, 105),3	14332,(4, 106),3	14335,(4, 107),156	14491,(4, 108),15	14506,(4, 112),6	14512,(4, 113),48	14560,(4, 114),3	14563,(4, 115),21	14584,(4, 116),24	14608,(4, 117),3	14611,(4, 118),3	14614,(4, 119),3	14617,(4, 120),3	23947,(14, 121),3	23950,(15, 121),3	23953,(28, 121),3	23956,(18, 121),3	23959,(32, 121),3	23962,(33, 121),3	23965,(39, 121),3	23968,(41, 121),3	23971,(63, 121),3	23974,(38, 121),3	23977,(75, 121),3	23980,(23, 121),3	23983,(58, 121),3	23986,(60, 121),3	23989,(69, 121),3	23992,(78, 121),3	23995,(80, 121),3	23998,(82, 121),3	24001,(86, 121),3	24004,(94, 121),3	24007,(100, 121),3	24010,(104, 121),3	24013,(109, 121),3	24016,(110, 121),3	24019,(111, 121),3	
91,(2, 13),3	94,(2, 14),15	109,(2, 15),3	112,(2, 17),15	127,(2, 18),45	172,(2, 19),15	187,(2, 23),3	190,(2, 24),9	199,(2, 28),6	205,(2, 29),9	214,(2, 33),12	226,(2, 16),3	229,(2, 32),24	253,(2, 37),15	268,(2, 39),3	271,(2, 36),24	295,(2, 38),6	301,(2, 40),12	313,(2, 41),6	319,(2, 42),3	322,(2, 44),3	325,(2, 45),9	334,(2, 53),3	337,(2, 58),21	358,(2, 62),6	364,(2, 56),3	367,(2, 59),30	397,(2, 63),3	400,(2, 69),3	403,(2, 78),3	406,(2, 43),18	424,(2, 46),12	436,(2, 47),9	445,(2, 48),87	532,(2, 51),12	544,(2, 80),3	547,(2, 52),6	553,(2, 57),21	574,(2, 65),9	583,(2, 49),108	691,(2, 74),6	697,(2, 54),48	745,(2, 60),18	763,(2, 67),21	784,(2, 68),9	793,(2, 70),21	814,(2, 75),42	856,(2, 82),27	883,(2, 84),3	886,(2, 95),3	889,(2, 97),3	892,(2, 100),3	895,(2, 81),99	994,(2, 83),18	1012,(2, 88),6	1018,(2, 94),24	1042,(2, 76),12	1054,(2, 86),51	1105,(2, 96),9	1114,(2, 92),24	1138,(2, 101),6	1144,(2, 104),3	1147,(2, 108),12	1159,(2, 109),3	1162,(2, 110),6	1168,(2, 111),9	1177,(2, 112),12	1189,(2, 93),15	1204,(2, 98),15	1219,(2, 102),171	1390,(2, 114),9	1399,(2, 118),18	1417,(2, 119),6	1423,(6, 13),6	1429,(6, 29),3	1432,(6, 14),3	1435,(6, 15),15	1450,(6, 17),9	1459,(6, 18),9	1468,(6, 23),3	1471,(6, 24),9	1480,(2, 106),42	1522,(2, 107),12	1534,(2, 113),21	1555,(2, 116),6	1561,(2, 120),9	1570,(6, 19),24	1594,(6, 28),15	1609,(6, 32),18	1627,(6, 33),27	1654,(6, 36),12	1666,(6, 38),15	1681,(6, 39),54	1735,(6, 40),3	1738,(6, 41),3	1741,(6, 43),3	1744,(6, 48),9	1753,(6, 57),6	1759,(6, 58),3	1762,(6, 60),12	1774,(6, 63),3	1777,(6, 78),3	1780,(6, 82),6	1786,(6, 46),27	1813,(6, 47),51	1864,(6, 51),39	1903,(6, 52),24	1927,(6, 65),9	1936,(6, 37),3	1939,(6, 56),27	1966,(6, 74),3	1969,(6, 76),6	1975,(6, 86),6	1981,(6, 94),3	1984,(6, 100),3	1987,(6, 16),9	1996,(6, 54),6	2002,(6, 59),3	2005,(6, 69),30	2035,(6, 75),30	2065,(6, 80),54	2119,(6, 104),3	2122,(6, 109),33	2155,(11, 18),3	2158,(6, 62),6	2164,(6, 95),12	2176,(6, 96),9	2185,(6, 97),24	2209,(6, 101),3	2212,(6, 108),12	2224,(6, 110),6	2230,(6, 111),24	2254,(6, 112),6	2260,(6, 118),3	2263,(6, 119),3	2266,(11, 14),30	2296,(11, 15),15	2311,(11, 24),3	2314,(11, 23),3	2317,(6, 49),12	2329,(6, 83),12	2341,(11, 19),6	2347,(6, 113),3	2350,(6, 116),3	2353,(11, 13),18	2371,(11, 28),60	2431,(11, 58),3	2434,(11, 69),3	2437,(11, 75),3	2440,(11, 78),3	2443,(11, 25),3	2446,(11, 29),15	2461,(11, 36),18	2479,(11, 43),12	2491,(11, 47),18	2509,(6, 45),27	2536,(6, 53),27	2572,(11, 31),3	2575,(11, 56),3	2578,(11, 65),3	2581,(6, 31),69	2650,(6, 67),21	2671,(6, 114),129	2800,(11, 32),63	2863,(11, 33),21	2884,(11, 38),129	3013,(11, 80),9	3022,(11, 48),27	3049,(11, 51),12	3061,(11, 76),3	3064,(11, 82),6	3070,(11, 100),3	3073,(11, 110),3	3076,(11, 52),21	3097,(11, 95),3	3100,(11, 39),54	3154,(11, 41),24	3178,(11, 86),12	3190,(11, 17),66	3256,(11, 40),84	3340,(11, 46),45	3385,(11, 57),21	3406,(11, 60),18	3424,(11, 63),21	3445,(11, 74),33	3478,(11, 94),9	3487,(11, 96),3	3490,(11, 97),27	3517,(11, 101),9	3526,(11, 104),48	3574,(11, 108),3	3577,(11, 109),6	3583,(11, 111),3	3586,(11, 112),15	3601,(11, 114),3	3604,(11, 118),36	3640,(11, 119),45	7141,(11, 53),3	7222,(6, 88),15	7237,(11, 68),3	7243,(6, 68),30	7273,(6, 81),21	7318,(11, 83),3	7393,(6, 84),36	7429,(6, 92),63	7510,(6, 98),33	7543,(6, 106),21	7564,(6, 120),21	8308,(6, 107),39	8347,(11, 84),3	9109,(11, 88),3	9271,(11, 102),3	9418,(11, 106),3	9448,(11, 37),6	9454,(11, 62),9	9463,(11, 107),3	9523,(11, 16),30	9553,(11, 92),9	9568,(11, 42),18	9586,(11, 45),27	9619,(11, 59),48	9682,(11, 67),24	9706,(11, 72),18	9724,(11, 81),15	9745,(11, 93),27	9772,(11, 98),9	9826,(11, 113),15	9847,(11, 44),93	9970,(6, 42),156	10348,(11, 70),78	10621,(11, 116),27	10648,(11, 120),36	11320,(6, 44),174	11848,(6, 102),123	12841,(20, 121),3	12853,(21, 121),3	12865,(22, 121),3	12880,(26, 121),3	12892,(27, 121),3	12934,(30, 121),3	12955,(34, 121),3	13000,(35, 121),3	13444,(50, 121),3	13501,(55, 121),3	13519,(61, 121),3	13657,(64, 121),3	13663,(66, 121),3	13681,(11, 49),123	13804,(71, 121),3	13807,(73, 121),3	13816,(77, 121),3	13942,(79, 121),3	13957,(85, 121),3	14059,(87, 121),3	14080,(89, 121),3	14113,(90, 121),3	14182,(91, 121),3	14272,(99, 121),3	14491,(103, 121),3	14494,(105, 121),3	14608,(115, 121),3	14620,(2, 25),237	14857,(2, 31),276	15133,(2, 72),375	15775,(6, 25),876	16651,(6, 70),210	16861,(6, 72),1062	17923,(6, 93),234	22534,(11, 54),213	24022,(117, 121),3	
