2038
# CPU
49,5,5	54,58,5	59,75,5	137,45,5	142,18,5	157,31,5	265,71,5	277,24,5	285,30,5	349,54,5	365,56,5	405,77,5	425,28,5	430,35,5	473,41,5	478,26,5	483,33,5	488,36,5	493,79,5	509,60,5	529,63,5	573,43,5	733,32,5	857,38,5	1109,20,5	1129,39,5	1141,47,5	1197,50,5	1209,68,5	1229,73,5	
37,4,5	69,13,5	173,49,5	289,29,5	294,44,5	309,15,5	501,57,5	649,76,5	701,78,5	721,25,5	769,52,5	774,55,5	801,59,5	885,40,5	925,46,5	945,80,5	1105,70,5	1113,23,5	1133,42,5	1201,65,5	1213,72,5	1265,74,5	1605,61,5	2037,81,1	
25,3,5	73,8,5	101,62,5	145,21,5	285,53,5	309,48,5	525,67,5	653,14,5	717,22,5	813,34,5	937,51,5	1097,66,5	
13,2,5	61,7,5	66,12,5	71,37,5	149,17,5	229,27,5	265,11,5	361,16,5	1041,64,5	
0,0,1	1,6,5	6,1,5	11,10,5	42,9,5	1073,69,5	1597,19,5	
# Incoming
37,(0, 5),12	49,(2, 20),12	61,(2, 28),4	65,(2, 45),72	137,(4, 18),4	145,(4, 28),8	153,(4, 31),4	157,(4, 41),8	165,(4, 71),100	265,(3, 24),12	277,(3, 30),8	285,(2, 54),64	349,(2, 56),16	365,(2, 77),40	405,(3, 28),20	425,(3, 35),4	429,(3, 38),28	457,(3, 41),16	473,(7, 26),4	477,(7, 33),4	481,(7, 36),4	485,(7, 79),4	489,(6, 60),20	509,(6, 63),20	529,(3, 43),44	717,(7, 32),16	813,(7, 38),44	1105,(1, 20),4	1113,(1, 39),16	1133,(1, 47),8	1141,(1, 50),56	1201,(1, 68),8	1213,(1, 73),16	
25,(0, 4),12	65,(5, 13),4	93,(5, 49),4	101,(5, 76),8	109,(58, 81),16	137,(2, 49),36	173,(75, 81),16	189,(45, 81),16	205,(18, 81),16	229,(6, 29),60	289,(6, 44),4	293,(6, 46),12	305,(8, 15),4	309,(6, 52),164	473,(6, 57),16	489,(2, 57),12	501,(2, 61),16	517,(2, 65),96	613,(2, 76),36	649,(3, 46),16	665,(3, 65),28	693,(3, 78),8	701,(8, 25),20	721,(8, 52),48	769,(8, 55),4	773,(8, 59),28	801,(8, 61),32	833,(8, 80),4	837,(62, 81),16	857,(7, 40),28	885,(7, 46),40	925,(21, 81),16	941,(7, 80),4	945,(12, 81),16	961,(37, 81),16	977,(17, 81),16	993,(27, 81),16	1009,(11, 81),16	1025,(53, 81),16	1041,(48, 81),16	1057,(16, 81),16	1073,(31, 81),16	1097,(6, 70),8	1109,(1, 23),4	1113,(71, 81),16	1129,(1, 42),4	1133,(24, 81),16	1149,(30, 81),16	1165,(54, 81),16	1181,(56, 81),16	1197,(1, 65),4	1209,(1, 72),4	1213,(77, 81),16	1229,(1, 74),36	1265,(10, 81),16	1281,(9, 81),16	1297,(7, 61),308	1605,(28, 81),16	1621,(35, 81),16	1637,(41, 81),16	1653,(26, 81),16	1669,(33, 81),16	1685,(36, 81),16	1701,(79, 81),16	1717,(60, 81),16	1733,(67, 81),16	1749,(63, 81),16	1765,(43, 81),16	1781,(14, 81),16	1797,(22, 81),16	1813,(32, 81),16	1829,(34, 81),16	1845,(38, 81),16	1861,(51, 81),16	1877,(64, 81),16	1893,(69, 81),16	1909,(66, 81),16	1925,(20, 81),16	1941,(39, 81),16	1957,(47, 81),16	1973,(50, 81),16	1989,(68, 81),16	2005,(73, 81),16	2021,(19, 81),16	
13,(0, 3),12	61,(0, 8),12	97,(5, 62),4	141,(4, 21),4	173,(2, 53),112	305,(6, 48),4	309,(5, 67),216	649,(7, 14),4	653,(7, 22),64	733,(7, 34),80	925,(7, 51),12	937,(7, 66),4	1041,(6, 66),56	
1,(0, 2),12	49,(0, 7),12	61,(5, 12),4	73,(6, 11),4	77,(6, 17),72	149,(6, 27),80	229,(3, 11),36	265,(4, 64),8	309,(8, 16),52	529,(6, 64),512	
18,(2, 9),24	69,(5, 19),24	525,(5, 69),548	1073,(8, 19),524	
# Outgoing
61,(5, 12),4	65,(5, 13),4	69,(5, 19),24	93,(5, 49),4	97,(5, 62),4	101,(5, 76),8	109,(58, 81),16	173,(75, 81),16	189,(45, 81),16	205,(18, 81),16	309,(5, 67),216	525,(5, 69),548	1073,(31, 81),16	1113,(71, 81),16	1133,(24, 81),16	1149,(30, 81),16	1165,(54, 81),16	1181,(56, 81),16	1213,(77, 81),16	1605,(28, 81),16	1621,(35, 81),16	1637,(41, 81),16	1653,(26, 81),16	1669,(33, 81),16	1685,(36, 81),16	1701,(79, 81),16	1717,(60, 81),16	1749,(63, 81),16	1765,(43, 81),16	1813,(32, 81),16	1845,(38, 81),16	1925,(20, 81),16	1941,(39, 81),16	1957,(47, 81),16	1973,(50, 81),16	1989,(68, 81),16	2005,(73, 81),16	
137,(4, 18),4	141,(4, 21),4	145,(4, 28),8	153,(4, 31),4	157,(4, 41),8	165,(4, 71),100	265,(4, 64),8	
229,(3, 11),36	265,(3, 24),12	277,(3, 30),8	305,(8, 15),4	309,(8, 16),52	405,(3, 28),20	425,(3, 35),4	429,(3, 38),28	457,(3, 41),16	529,(3, 43),44	649,(3, 46),16	665,(3, 65),28	693,(3, 78),8	701,(8, 25),20	721,(8, 52),48	769,(8, 55),4	773,(8, 59),28	801,(8, 61),32	833,(8, 80),4	837,(62, 81),16	925,(21, 81),16	1025,(53, 81),16	1041,(48, 81),16	1073,(8, 19),524	1733,(67, 81),16	1781,(14, 81),16	1797,(22, 81),16	1829,(34, 81),16	1861,(51, 81),16	1909,(66, 81),16	
18,(2, 9),24	49,(2, 20),12	61,(2, 28),4	65,(2, 45),72	137,(2, 49),36	173,(2, 53),112	285,(2, 54),64	349,(2, 56),16	365,(2, 77),40	473,(7, 26),4	477,(7, 33),4	481,(7, 36),4	485,(7, 79),4	489,(2, 57),12	501,(2, 61),16	517,(2, 65),96	613,(2, 76),36	649,(7, 14),4	653,(7, 22),64	717,(7, 32),16	733,(7, 34),80	813,(7, 38),44	857,(7, 40),28	885,(7, 46),40	925,(7, 51),12	937,(7, 66),4	941,(7, 80),4	945,(12, 81),16	961,(37, 81),16	977,(17, 81),16	993,(27, 81),16	1009,(11, 81),16	1057,(16, 81),16	1297,(7, 61),308	1877,(64, 81),16	
1,(0, 2),12	13,(0, 3),12	25,(0, 4),12	37,(0, 5),12	49,(0, 7),12	61,(0, 8),12	73,(6, 11),4	77,(6, 17),72	149,(6, 27),80	229,(6, 29),60	289,(6, 44),4	293,(6, 46),12	305,(6, 48),4	309,(6, 52),164	473,(6, 57),16	489,(6, 60),20	509,(6, 63),20	529,(6, 64),512	1041,(6, 66),56	1097,(6, 70),8	1105,(1, 20),4	1109,(1, 23),4	1113,(1, 39),16	1129,(1, 42),4	1133,(1, 47),8	1141,(1, 50),56	1197,(1, 65),4	1201,(1, 68),8	1209,(1, 72),4	1213,(1, 73),16	1229,(1, 74),36	1265,(10, 81),16	1281,(9, 81),16	1893,(69, 81),16	2021,(19, 81),16	
