1941
# CPU
7,2,1	8,158,1	9,178,1	13,4,1	14,96,1	15,102,1	16,134,1	17,192,1	18,198,1	19,144,1	20,6,1	21,66,1	22,70,1	23,92,1	24,154,1	25,184,1	26,186,1	27,8,1	28,22,1	29,76,1	31,10,1	32,188,1	33,196,1	37,12,1	38,26,1	39,42,1	40,176,1	41,200,1	42,58,1	43,118,1	44,14,1	45,68,1	49,16,1	50,44,1	51,122,1	52,194,1	53,172,1	55,18,1	56,86,1	57,130,1	58,138,1	59,150,1	61,20,1	62,116,1	63,160,1	64,162,1	65,32,1	89,40,1	144,114,1	275,140,1	314,64,1	336,98,1	337,100,1	447,136,1	448,152,1	467,164,1	481,190,1	484,24,1	490,72,1	528,104,1	554,124,1	566,132,1	569,174,1	572,36,1	573,78,1	608,82,1	611,110,1	619,128,1	620,146,1	621,168,1	622,170,1	638,46,1	665,90,1	666,148,1	667,28,1	677,34,1	680,38,1	686,56,1	695,62,1	696,74,1	717,88,1	722,94,1	723,126,1	732,142,1	733,180,1	749,52,1	759,120,1	777,166,1	782,50,1	795,80,1	801,182,1	811,54,1	813,60,1	826,106,1	832,108,1	833,156,1	834,30,1	837,48,1	838,84,1	848,112,1	
0,0,1	1,11,1	2,17,1	3,9,1	4,15,1	5,1,1	6,19,1	7,3,1	8,5,1	9,7,1	10,13,1	11,163,1	12,89,1	13,189,1	14,65,1	15,45,1	16,21,1	17,95,1	18,165,1	19,129,1	20,107,1	21,131,1	22,175,1	23,117,1	24,111,1	25,105,1	26,101,1	27,55,1	28,153,1	29,183,1	30,145,1	31,83,1	32,77,1	33,75,1	34,51,1	35,37,1	36,181,1	37,57,1	38,115,1	39,61,1	40,167,1	41,149,1	42,127,1	43,103,1	44,43,1	45,195,1	46,121,1	47,85,1	48,79,1	49,39,1	50,33,1	51,29,1	52,197,1	53,173,1	54,41,1	55,159,1	56,97,1	57,73,1	58,193,1	59,169,1	60,35,1	61,93,1	119,139,1	131,177,1	184,191,1	189,63,1	194,69,1	195,119,1	196,143,1	218,155,1	225,187,1	261,123,1	262,157,1	321,31,1	323,59,1	324,87,1	341,47,1	342,81,1	344,91,1	345,99,1	346,137,1	418,49,1	1578,133,1	1593,25,1	1594,53,1	1595,109,1	1598,113,1	1605,171,1	1608,199,1	1620,161,1	1653,71,1	1675,125,1	1676,135,1	1735,147,1	1736,151,1	1737,185,1	1815,23,1	1820,27,1	1821,67,1	1824,141,1	1826,179,1	1940,201,1	
# Incoming
1,(0, 2),6	7,(0, 4),6	13,(0, 6),6	19,(0, 8),6	25,(0, 10),6	31,(0, 12),6	37,(0, 14),6	43,(0, 16),6	49,(0, 18),6	55,(0, 20),6	61,(11, 32),3	64,(11, 40),25	89,(11, 74),41	130,(11, 82),10	140,(11, 114),4	144,(11, 140),131	275,(11, 156),1	276,(17, 64),38	314,(17, 98),22	336,(17, 100),1	337,(17, 136),110	447,(17, 152),1	448,(17, 164),19	467,(17, 190),14	481,(9, 24),3	484,(9, 72),6	490,(9, 88),1	491,(9, 104),37	528,(9, 124),26	554,(9, 132),12	566,(9, 174),3	569,(15, 28),2	571,(15, 36),1	572,(15, 78),1	573,(15, 82),35	608,(15, 110),3	611,(15, 128),8	619,(15, 146),1	620,(15, 168),1	621,(15, 170),1	622,(1, 46),16	638,(1, 90),27	665,(1, 148),1	666,(19, 28),1	667,(19, 34),10	677,(19, 38),3	680,(19, 56),6	686,(19, 62),9	695,(19, 74),1	696,(19, 88),21	717,(19, 94),5	722,(19, 126),1	723,(19, 142),9	732,(19, 180),1	733,(3, 52),16	749,(3, 84),2	751,(3, 120),8	759,(3, 166),18	777,(5, 50),5	782,(5, 80),13	795,(5, 182),6	801,(7, 54),10	811,(7, 60),2	813,(7, 106),13	826,(7, 108),6	832,(7, 156),1	833,(13, 30),1	834,(13, 48),3	837,(13, 84),1	838,(13, 112),10	
8,(2, 93),4	12,(2, 139),107	119,(2, 141),6	125,(2, 157),1	126,(2, 177),5	131,(2, 191),53	184,(158, 201),2	186,(178, 201),2	188,(4, 63),1	189,(4, 69),5	194,(4, 119),1	195,(4, 143),1	196,(4, 155),22	218,(4, 187),7	225,(96, 201),2	227,(102, 201),2	229,(134, 201),2	231,(192, 201),2	233,(198, 201),2	235,(144, 201),2	237,(6, 47),1	238,(6, 67),17	255,(6, 123),6	261,(6, 157),1	262,(66, 201),2	264,(70, 201),2	266,(92, 201),2	268,(154, 201),2	270,(184, 201),2	272,(186, 201),2	274,(8, 25),39	313,(8, 31),8	321,(8, 59),2	323,(8, 87),1	324,(22, 201),2	326,(76, 201),2	328,(10, 47),13	341,(10, 81),1	342,(10, 91),2	344,(10, 99),1	345,(10, 137),1	346,(188, 201),2	348,(196, 201),2	350,(12, 49),68	418,(12, 109),3	421,(12, 133),1157	1578,(26, 201),2	1580,(42, 201),2	1582,(176, 201),2	1584,(200, 201),2	1586,(58, 201),2	1588,(118, 201),2	1590,(14, 25),3	1593,(14, 53),1	1594,(14, 109),1	1595,(14, 113),3	1598,(14, 171),7	1605,(14, 199),3	1608,(68, 201),2	1610,(16, 27),5	1615,(16, 161),5	1620,(44, 201),2	1622,(122, 201),2	1624,(194, 201),2	1626,(172, 201),2	1628,(18, 71),25	1653,(18, 125),22	1675,(18, 135),1	1676,(18, 147),59	1735,(18, 151),1	1736,(18, 185),1	1737,(86, 201),2	1739,(130, 201),2	1741,(138, 201),2	1743,(150, 201),2	1745,(20, 23),70	1815,(20, 27),5	1820,(20, 67),1	1821,(20, 141),3	1824,(20, 179),2	1826,(116, 201),2	1828,(160, 201),2	1830,(162, 201),2	1832,(32, 201),2	1834,(40, 201),2	1836,(114, 201),2	1838,(140, 201),2	1840,(64, 201),2	1842,(98, 201),2	1844,(100, 201),2	1846,(136, 201),2	1848,(152, 201),2	1850,(164, 201),2	1852,(190, 201),2	1854,(24, 201),2	1856,(72, 201),2	1858,(104, 201),2	1860,(124, 201),2	1862,(132, 201),2	1864,(174, 201),2	1866,(36, 201),2	1868,(78, 201),2	1870,(82, 201),2	1872,(110, 201),2	1874,(128, 201),2	1876,(146, 201),2	1878,(168, 201),2	1880,(170, 201),2	1882,(46, 201),2	1884,(90, 201),2	1886,(148, 201),2	1888,(28, 201),2	1890,(34, 201),2	1892,(38, 201),2	1894,(56, 201),2	1896,(62, 201),2	1898,(74, 201),2	1900,(88, 201),2	1902,(94, 201),2	1904,(126, 201),2	1906,(142, 201),2	1908,(180, 201),2	1910,(52, 201),2	1912,(120, 201),2	1914,(166, 201),2	1916,(50, 201),2	1918,(80, 201),2	1920,(182, 201),2	1922,(54, 201),2	1924,(60, 201),2	1926,(106, 201),2	1928,(108, 201),2	1930,(156, 201),2	1932,(30, 201),2	1934,(48, 201),2	1936,(84, 201),2	1938,(112, 201),2	
# Outgoing
8,(2, 93),4	12,(2, 139),107	119,(2, 141),6	125,(2, 157),1	126,(2, 177),5	131,(2, 191),53	184,(158, 201),2	186,(178, 201),2	188,(4, 63),1	189,(4, 69),5	194,(4, 119),1	195,(4, 143),1	196,(4, 155),22	218,(4, 187),7	225,(96, 201),2	227,(102, 201),2	229,(134, 201),2	231,(192, 201),2	233,(198, 201),2	235,(144, 201),2	237,(6, 47),1	238,(6, 67),17	255,(6, 123),6	261,(6, 157),1	262,(66, 201),2	264,(70, 201),2	266,(92, 201),2	268,(154, 201),2	270,(184, 201),2	272,(186, 201),2	274,(8, 25),39	313,(8, 31),8	321,(8, 59),2	323,(8, 87),1	324,(22, 201),2	326,(76, 201),2	328,(10, 47),13	341,(10, 81),1	342,(10, 91),2	344,(10, 99),1	345,(10, 137),1	346,(188, 201),2	348,(196, 201),2	350,(12, 49),68	418,(12, 109),3	421,(12, 133),1157	1578,(26, 201),2	1580,(42, 201),2	1582,(176, 201),2	1584,(200, 201),2	1586,(58, 201),2	1588,(118, 201),2	1590,(14, 25),3	1593,(14, 53),1	1594,(14, 109),1	1595,(14, 113),3	1598,(14, 171),7	1605,(14, 199),3	1608,(68, 201),2	1610,(16, 27),5	1615,(16, 161),5	1620,(44, 201),2	1622,(122, 201),2	1624,(194, 201),2	1626,(172, 201),2	1628,(18, 71),25	1653,(18, 125),22	1675,(18, 135),1	1676,(18, 147),59	1735,(18, 151),1	1736,(18, 185),1	1737,(86, 201),2	1739,(130, 201),2	1741,(138, 201),2	1743,(150, 201),2	1745,(20, 23),70	1815,(20, 27),5	1820,(20, 67),1	1821,(20, 141),3	1824,(20, 179),2	1826,(116, 201),2	1828,(160, 201),2	1830,(162, 201),2	1832,(32, 201),2	1834,(40, 201),2	1836,(114, 201),2	1838,(140, 201),2	1840,(64, 201),2	1842,(98, 201),2	1844,(100, 201),2	1846,(136, 201),2	1848,(152, 201),2	1850,(164, 201),2	1852,(190, 201),2	1854,(24, 201),2	1856,(72, 201),2	1858,(104, 201),2	1860,(124, 201),2	1862,(132, 201),2	1864,(174, 201),2	1866,(36, 201),2	1868,(78, 201),2	1870,(82, 201),2	1872,(110, 201),2	1874,(128, 201),2	1876,(146, 201),2	1878,(168, 201),2	1880,(170, 201),2	1882,(46, 201),2	1884,(90, 201),2	1886,(148, 201),2	1888,(28, 201),2	1890,(34, 201),2	1892,(38, 201),2	1894,(56, 201),2	1896,(62, 201),2	1898,(74, 201),2	1900,(88, 201),2	1902,(94, 201),2	1904,(126, 201),2	1906,(142, 201),2	1908,(180, 201),2	1910,(52, 201),2	1912,(120, 201),2	1914,(166, 201),2	1916,(50, 201),2	1918,(80, 201),2	1920,(182, 201),2	1922,(54, 201),2	1924,(60, 201),2	1926,(106, 201),2	1928,(108, 201),2	1930,(156, 201),2	1932,(30, 201),2	1934,(48, 201),2	1936,(84, 201),2	1938,(112, 201),2	
1,(0, 2),6	7,(0, 4),6	13,(0, 6),6	19,(0, 8),6	25,(0, 10),6	31,(0, 12),6	37,(0, 14),6	43,(0, 16),6	49,(0, 18),6	55,(0, 20),6	61,(11, 32),3	64,(11, 40),25	89,(11, 74),41	130,(11, 82),10	140,(11, 114),4	144,(11, 140),131	275,(11, 156),1	276,(17, 64),38	314,(17, 98),22	336,(17, 100),1	337,(17, 136),110	447,(17, 152),1	448,(17, 164),19	467,(17, 190),14	481,(9, 24),3	484,(9, 72),6	490,(9, 88),1	491,(9, 104),37	528,(9, 124),26	554,(9, 132),12	566,(9, 174),3	569,(15, 28),2	571,(15, 36),1	572,(15, 78),1	573,(15, 82),35	608,(15, 110),3	611,(15, 128),8	619,(15, 146),1	620,(15, 168),1	621,(15, 170),1	622,(1, 46),16	638,(1, 90),27	665,(1, 148),1	666,(19, 28),1	667,(19, 34),10	677,(19, 38),3	680,(19, 56),6	686,(19, 62),9	695,(19, 74),1	696,(19, 88),21	717,(19, 94),5	722,(19, 126),1	723,(19, 142),9	732,(19, 180),1	733,(3, 52),16	749,(3, 84),2	751,(3, 120),8	759,(3, 166),18	777,(5, 50),5	782,(5, 80),13	795,(5, 182),6	801,(7, 54),10	811,(7, 60),2	813,(7, 106),13	826,(7, 108),6	832,(7, 156),1	833,(13, 30),1	834,(13, 48),3	837,(13, 84),1	838,(13, 112),10	
