352
# CPU
0,0,1	1,6,11	12,30,11	23,66,11	34,58,11	45,79,11	56,59,11	67,13,11	87,12,11	132,67,11	
4,2,11	15,71,11	26,23,11	37,61,11	48,73,11	59,54,11	70,76,11	81,28,11	92,49,11	103,9,11	138,32,11	351,81,1	
10,7,11	21,41,11	32,78,11	43,68,11	54,75,11	65,34,11	76,31,11	135,38,11	
7,4,11	18,51,11	29,15,11	40,63,11	51,43,11	62,11,11	73,22,11	84,10,11	
16,5,11	27,69,11	38,14,11	49,21,11	60,53,11	71,72,11	82,26,11	
13,1,11	24,77,11	35,29,11	46,33,11	57,65,11	68,56,11	102,62,11	
19,3,11	30,25,11	41,74,11	52,45,11	63,40,11	74,47,11	85,46,11	96,60,11	252,57,11	
21,18,11	32,16,11	43,80,11	54,70,11	65,20,11	
22,8,11	33,44,11	44,42,11	55,27,11	66,52,11	77,36,11	88,50,11	99,39,11	110,17,11	171,48,11	324,19,11	
27,55,11	38,35,11	49,24,11	60,37,11	72,64,11	
# Incoming
42,(3, 59),6	48,(1, 13),3	51,(8, 13),9	60,(5, 12),27	87,(2, 67),45	
1,(0, 2),3	24,(4, 54),3	27,(7, 28),6	33,(30, 81),3	36,(4, 9),6	42,(18, 81),3	45,(77, 81),3	48,(66, 81),3	51,(55, 81),3	54,(5, 76),3	57,(51, 81),3	60,(41, 81),3	63,(15, 81),3	66,(78, 81),3	69,(16, 81),3	72,(58, 81),3	75,(3, 9),3	78,(29, 81),3	81,(8, 49),6	87,(35, 81),3	90,(63, 81),3	93,(68, 81),3	96,(80, 81),3	99,(79, 81),3	102,(8, 32),36	138,(69, 81),3	141,(44, 81),3	144,(14, 81),3	147,(42, 81),3	150,(21, 81),3	153,(24, 81),3	156,(43, 81),3	159,(75, 81),3	162,(70, 81),3	165,(27, 81),3	168,(59, 81),3	171,(53, 81),3	174,(37, 81),3	177,(11, 81),3	180,(34, 81),3	183,(20, 81),3	186,(52, 81),3	189,(13, 81),3	192,(72, 81),3	195,(64, 81),3	198,(22, 81),3	201,(31, 81),3	204,(36, 81),3	207,(26, 81),3	210,(10, 81),3	213,(12, 81),3	216,(50, 81),3	219,(39, 81),3	222,(17, 81),3	225,(67, 81),3	228,(38, 81),3	231,(48, 81),3	252,(33, 81),3	255,(65, 81),3	258,(56, 81),3	261,(62, 81),3	324,(25, 81),3	327,(74, 81),3	330,(45, 81),3	333,(40, 81),3	336,(47, 81),3	339,(46, 81),3	342,(60, 81),3	345,(57, 81),3	348,(19, 81),3	
7,(0, 7),3	30,(4, 34),3	69,(3, 31),6	87,(5, 38),48	
4,(0, 4),3	24,(7, 43),3	27,(1, 10),3	39,(8, 11),3	54,(3, 22),15	72,(8, 10),9	
13,(0, 5),3	33,(4, 26),3	36,(7, 26),21	
10,(0, 1),3	22,(6, 33),6	30,(5, 65),9	39,(5, 56),15	60,(8, 56),6	87,(8, 62),15	
16,(0, 3),3	27,(4, 40),3	30,(6, 47),3	42,(8, 46),3	51,(1, 60),27	78,(7, 57),9	87,(1, 57),165	
15,(2, 18),6	21,(4, 16),3	24,(2, 70),3	27,(5, 16),3	33,(3, 80),3	36,(3, 70),6	42,(4, 20),6	48,(8, 20),3	51,(3, 20),3	
19,(0, 8),3	30,(2, 50),3	33,(1, 39),3	36,(2, 17),6	42,(2, 48),3	48,(4, 17),6	78,(3, 48),93	171,(3, 19),153	
21,(7, 55),3	24,(1, 55),3	27,(2, 37),3	30,(3, 35),3	33,(8, 24),6	39,(6, 37),6	45,(6, 64),3	48,(3, 37),3	51,(2, 64),18	69,(8, 64),3	
# Outgoing
1,(0, 2),3	4,(0, 4),3	7,(0, 7),3	10,(0, 1),3	13,(0, 5),3	16,(0, 3),3	19,(0, 8),3	22,(6, 33),6	30,(6, 47),3	33,(30, 81),3	39,(6, 37),6	45,(6, 64),3	48,(66, 81),3	72,(58, 81),3	99,(79, 81),3	168,(59, 81),3	189,(13, 81),3	213,(12, 81),3	225,(67, 81),3	
15,(2, 18),6	24,(2, 70),3	27,(2, 37),3	30,(2, 50),3	36,(2, 17),6	42,(2, 48),3	51,(2, 64),18	87,(2, 67),45	
21,(7, 55),3	24,(7, 43),3	27,(7, 28),6	36,(7, 26),21	60,(41, 81),3	66,(78, 81),3	78,(7, 57),9	93,(68, 81),3	159,(75, 81),3	180,(34, 81),3	201,(31, 81),3	228,(38, 81),3	
21,(4, 16),3	24,(4, 54),3	27,(4, 40),3	30,(4, 34),3	33,(4, 26),3	36,(4, 9),6	42,(4, 20),6	48,(4, 17),6	57,(51, 81),3	63,(15, 81),3	90,(63, 81),3	156,(43, 81),3	177,(11, 81),3	198,(22, 81),3	210,(10, 81),3	
27,(5, 16),3	30,(5, 65),9	39,(5, 56),15	54,(5, 76),3	60,(5, 12),27	87,(5, 38),48	138,(69, 81),3	144,(14, 81),3	150,(21, 81),3	171,(53, 81),3	192,(72, 81),3	207,(26, 81),3	
24,(1, 55),3	27,(1, 10),3	33,(1, 39),3	45,(77, 81),3	48,(1, 13),3	51,(1, 60),27	78,(29, 81),3	87,(1, 57),165	252,(33, 81),3	255,(65, 81),3	258,(56, 81),3	261,(62, 81),3	
30,(3, 35),3	33,(3, 80),3	36,(3, 70),6	42,(3, 59),6	48,(3, 37),3	51,(3, 20),3	54,(3, 22),15	69,(3, 31),6	75,(3, 9),3	78,(3, 48),93	171,(3, 19),153	324,(25, 81),3	327,(74, 81),3	330,(45, 81),3	333,(40, 81),3	336,(47, 81),3	339,(46, 81),3	342,(60, 81),3	345,(57, 81),3	
42,(18, 81),3	69,(16, 81),3	96,(80, 81),3	162,(70, 81),3	183,(20, 81),3	
33,(8, 24),6	39,(8, 11),3	42,(8, 46),3	48,(8, 20),3	51,(8, 13),9	60,(8, 56),6	69,(8, 64),3	72,(8, 10),9	81,(8, 49),6	87,(8, 62),15	102,(8, 32),36	141,(44, 81),3	147,(42, 81),3	165,(27, 81),3	186,(52, 81),3	204,(36, 81),3	216,(50, 81),3	219,(39, 81),3	222,(17, 81),3	231,(48, 81),3	348,(19, 81),3	
51,(55, 81),3	87,(35, 81),3	153,(24, 81),3	174,(37, 81),3	195,(64, 81),3	
