636
# CPU
61,2,1	62,5,1	63,11,1	64,20,1	65,13,1	66,14,1	67,15,1	68,4,1	89,7,1	93,10,1	101,12,1	157,16,1	161,17,1	165,18,1	635,21,1	
0,0,1	1,1,1	2,3,1	90,6,1	170,8,1	266,9,1	630,19,1	
# Incoming
1,(0, 2),60	61,(1, 4),4	65,(1, 7),24	89,(1, 10),4	93,(1, 12),8	101,(1, 16),56	157,(1, 17),4	161,(1, 18),4	165,(3, 21),4	169,(6, 21),4	173,(8, 21),4	267,(9, 21),4	631,(19, 21),4	
62,(2, 6),28	90,(2, 8),80	170,(2, 9),96	266,(2, 19),364	
# Outgoing
62,(2, 6),28	90,(2, 8),80	170,(2, 9),96	266,(2, 19),364	
1,(0, 2),60	61,(1, 4),4	65,(1, 7),24	89,(1, 10),4	93,(1, 12),8	101,(1, 16),56	157,(1, 17),4	161,(1, 18),4	165,(3, 21),4	169,(6, 21),4	173,(8, 21),4	267,(9, 21),4	631,(19, 21),4	
