3534
# CPU
37,10,2	39,170,2	49,60,2	65,160,2	73,20,2	137,40,2	157,30,2	197,130,2	205,70,2	221,110,2	237,100,2	273,180,2	297,140,2	313,190,2	325,50,2	373,150,2	477,120,2	525,200,2	749,90,2	817,80,2	
33,9,2	35,129,2	37,99,2	41,39,2	49,169,2	61,29,2	65,69,2	69,19,2	71,199,2	81,109,2	85,79,2	105,89,2	117,119,2	133,149,2	177,59,2	193,179,2	501,49,2	513,159,2	593,139,2	773,189,2	
29,8,2	31,198,2	41,148,2	61,28,2	65,18,2	67,58,2	73,68,2	77,98,2	81,168,2	93,128,2	113,118,2	225,78,2	237,38,2	241,178,2	329,188,2	441,88,2	577,138,2	605,108,2	869,48,2	1129,158,2	
25,7,2	55,87,2	61,17,2	69,137,2	85,37,2	89,67,2	117,127,2	133,57,2	137,47,2	141,117,2	153,27,2	369,77,2	397,97,2	409,157,2	461,187,2	497,147,2	549,177,2	597,167,2	757,107,2	1513,197,2	
21,6,2	53,26,2	57,16,2	59,36,2	61,76,2	93,96,2	105,126,2	121,146,2	173,106,2	197,196,2	221,46,2	225,136,2	405,116,2	421,176,2	485,56,2	709,186,2	901,66,2	1009,86,2	1193,166,2	1457,156,2	
17,5,2	19,55,2	43,45,2	47,185,2	53,15,2	101,25,2	105,35,2	117,145,2	125,115,2	149,65,2	169,85,2	173,95,2	233,75,2	405,135,2	409,155,2	413,165,2	521,195,2	677,125,2	1213,105,2	1225,175,2	
13,4,2	49,14,2	51,114,2	53,184,2	61,44,2	97,24,2	117,64,2	173,34,2	189,174,2	273,84,2	413,194,2	481,54,2	577,104,2	609,124,2	657,74,2	849,164,2	1069,134,2	1073,144,2	1125,154,2	1453,94,2	
9,3,2	11,23,2	13,83,2	45,13,2	47,193,2	69,33,2	101,43,2	105,153,2	109,113,2	129,173,2	157,183,2	181,133,2	309,163,2	417,63,2	517,73,2	817,143,2	1361,53,2	1365,93,2	1381,123,2	2573,103,2	
5,2,2	7,22,2	9,92,2	41,12,2	43,82,2	45,102,2	47,182,2	49,192,2	51,172,2	69,52,2	89,112,2	113,42,2	125,62,2	129,132,2	149,142,2	153,32,2	257,162,2	513,122,2	637,152,2	1005,72,2	
0,0,1	1,1,2	3,11,2	5,51,2	237,161,2	289,61,2	293,181,2	349,91,2	353,191,2	357,121,2	373,81,2	413,141,2	425,71,2	533,171,2	725,131,2	889,41,2	1709,101,2	1761,151,2	1809,21,2	1917,31,2	1941,111,2	3533,201,1	
# Incoming
33,(0, 10),4	41,(8, 60),8	61,(6, 160),4	69,(0, 20),4	73,(2, 40),64	137,(3, 30),20	157,(5, 130),40	197,(8, 70),8	205,(9, 110),16	225,(1, 100),12	237,(6, 180),36	273,(8, 140),24	297,(12, 190),16	313,(19, 50),12	369,(3, 150),4	373,(6, 120),104	521,(11, 200),4	525,(18, 90),224	749,(19, 80),68	
29,(0, 9),4	33,(4, 99),4	37,(8, 39),4	41,(4, 169),8	49,(6, 29),12	61,(10, 69),4	65,(0, 19),4	69,(8, 109),12	81,(18, 79),4	101,(16, 89),4	113,(16, 119),4	117,(8, 149),16	153,(18, 59),24	189,(2, 179),4	193,(7, 49),308	501,(12, 159),12	533,(16, 139),60	709,(15, 189),64	
25,(0, 8),4	37,(4, 148),4	41,(5, 28),20	61,(0, 18),4	65,(10, 68),8	73,(10, 98),4	77,(10, 168),4	89,(15, 128),4	109,(16, 118),4	125,(1, 78),100	225,(12, 38),12	237,(19, 178),4	305,(15, 188),24	373,(14, 88),68	461,(19, 138),116	577,(7, 108),28	849,(17, 48),20	1125,(17, 158),4	
21,(0, 7),4	51,(14, 87),4	57,(0, 17),4	61,(8, 137),8	69,(5, 37),16	85,(5, 67),4	89,(8, 127),28	117,(9, 57),16	133,(13, 47),4	137,(15, 117),4	141,(20, 27),12	157,(3, 77),212	369,(15, 97),28	405,(1, 157),4	441,(14, 187),20	485,(11, 147),12	497,(20, 177),52	593,(16, 167),4	677,(12, 107),80	1213,(3, 197),300	
17,(0, 6),4	21,(3, 26),32	53,(0, 16),4	69,(3, 96),24	93,(3, 126),12	105,(4, 146),16	169,(2, 106),4	173,(9, 196),24	217,(12, 46),4	221,(12, 136),4	397,(13, 116),8	409,(1, 176),12	481,(11, 56),4	637,(15, 186),72	869,(17, 66),32	1005,(17, 86),4	1129,(17, 166),64	1193,(19, 156),264	
13,(0, 5),4	39,(10, 45),4	43,(10, 185),4	49,(0, 15),4	53,(9, 25),48	101,(9, 35),4	105,(9, 145),12	117,(10, 115),8	137,(2, 65),12	149,(2, 85),20	169,(19, 95),4	221,(19, 75),12	237,(1, 135),168	405,(12, 155),4	409,(12, 165),4	497,(11, 195),24	521,(2, 125),156	677,(3, 105),536	1213,(7, 175),12	
9,(0, 4),4	45,(0, 14),4	49,(8, 44),12	73,(1, 24),24	97,(5, 64),20	117,(6, 34),56	181,(2, 174),8	237,(12, 84),36	405,(13, 194),8	421,(11, 54),60	517,(7, 104),60	605,(7, 124),4	609,(13, 74),48	817,(7, 164),32	1009,(17, 134),60	1069,(17, 144),4	1073,(17, 154),52	1125,(20, 94),328	
5,(0, 3),4	41,(0, 13),4	61,(5, 33),8	69,(16, 43),32	101,(20, 153),4	105,(16, 113),4	117,(5, 173),12	133,(9, 183),24	173,(2, 133),8	237,(4, 163),72	309,(10, 63),108	501,(7, 73),16	725,(7, 143),92	817,(16, 53),544	1361,(17, 93),4	1365,(17, 123),16	1809,(17, 103),764	
1,(0, 2),4	37,(0, 12),4	53,(3, 52),16	69,(4, 112),20	97,(1, 42),16	113,(1, 62),12	125,(3, 132),4	129,(4, 142),20	149,(18, 32),4	205,(18, 162),52	397,(15, 122),116	557,(15, 152),80	901,(17, 72),104	
193,(22, 201),12	205,(92, 201),12	217,(4, 161),20	237,(5, 61),52	289,(5, 181),4	293,(55, 201),12	305,(6, 91),44	349,(6, 191),4	353,(8, 121),4	357,(198, 201),12	369,(14, 81),4	373,(23, 201),12	385,(83, 201),12	397,(129, 201),12	409,(18, 141),4	417,(10, 71),8	425,(99, 201),12	437,(170, 201),12	449,(39, 201),12	461,(148, 201),12	477,(6, 171),56	533,(45, 201),12	545,(185, 201),12	557,(193, 201),12	569,(60, 201),12	581,(169, 201),12	593,(114, 201),12	609,(7, 131),116	725,(26, 201),12	737,(184, 201),12	757,(82, 201),12	769,(102, 201),12	781,(182, 201),12	793,(192, 201),12	805,(172, 201),12	817,(15, 41),72	889,(15, 101),820	1709,(87, 201),12	1721,(16, 151),40	1761,(36, 201),12	1773,(17, 21),36	1809,(28, 201),12	1821,(29, 201),12	1833,(44, 201),12	1845,(76, 201),12	1857,(18, 31),60	1917,(18, 111),24	1941,(160, 201),12	1953,(69, 201),12	1965,(58, 201),12	1977,(52, 201),12	1989,(33, 201),12	2001,(199, 201),12	2013,(68, 201),12	2025,(98, 201),12	2037,(109, 201),12	2049,(168, 201),12	2061,(79, 201),12	2073,(112, 201),12	2085,(96, 201),12	2097,(128, 201),12	2109,(24, 201),12	2121,(25, 201),12	2133,(43, 201),12	2145,(126, 201),12	2157,(89, 201),12	2169,(35, 201),12	2181,(153, 201),12	2193,(113, 201),12	2205,(42, 201),12	2217,(118, 201),12	2229,(64, 201),12	2241,(145, 201),12	2253,(119, 201),12	2265,(146, 201),12	2277,(115, 201),12	2289,(62, 201),12	2301,(173, 201),12	2313,(132, 201),12	2325,(149, 201),12	2337,(40, 201),12	2349,(142, 201),12	2361,(65, 201),12	2373,(32, 201),12	2385,(183, 201),12	2397,(30, 201),12	2409,(85, 201),12	2421,(34, 201),12	2433,(106, 201),12	2445,(95, 201),12	2457,(59, 201),12	2469,(133, 201),12	2481,(174, 201),12	2493,(179, 201),12	2505,(130, 201),12	2517,(196, 201),12	2529,(70, 201),12	2541,(110, 201),12	2553,(46, 201),12	2573,(137, 201),12	2585,(37, 201),12	2597,(67, 201),12	2609,(127, 201),12	2621,(57, 201),12	2633,(47, 201),12	2645,(117, 201),12	2657,(27, 201),12	2669,(78, 201),12	2681,(136, 201),12	2693,(75, 201),12	2705,(38, 201),12	2717,(100, 201),12	2729,(178, 201),12	2741,(162, 201),12	2753,(180, 201),12	2765,(84, 201),12	2777,(140, 201),12	2789,(163, 201),12	2801,(190, 201),12	2813,(50, 201),12	2825,(188, 201),12	2837,(77, 201),12	2849,(150, 201),12	2861,(97, 201),12	2873,(135, 201),12	2885,(116, 201),12	2897,(155, 201),12	2909,(157, 201),12	2921,(194, 201),12	2933,(165, 201),12	2945,(63, 201),12	2957,(176, 201),12	2969,(88, 201),12	2981,(187, 201),12	2993,(120, 201),12	3005,(54, 201),12	3017,(56, 201),12	3029,(147, 201),12	3041,(49, 201),12	3053,(122, 201),12	3065,(159, 201),12	3077,(73, 201),12	3089,(195, 201),12	3101,(200, 201),12	3113,(177, 201),12	3125,(138, 201),12	3137,(104, 201),12	3149,(139, 201),12	3161,(167, 201),12	3173,(108, 201),12	3185,(124, 201),12	3197,(152, 201),12	3209,(74, 201),12	3221,(125, 201),12	3233,(186, 201),12	3245,(90, 201),12	3257,(107, 201),12	3269,(189, 201),12	3281,(143, 201),12	3293,(80, 201),12	3305,(164, 201),12	3317,(48, 201),12	3329,(66, 201),12	3341,(72, 201),12	3353,(86, 201),12	3365,(134, 201),12	3377,(144, 201),12	3389,(154, 201),12	3401,(158, 201),12	3413,(166, 201),12	3425,(105, 201),12	3437,(175, 201),12	3449,(53, 201),12	3461,(93, 201),12	3473,(123, 201),12	3485,(94, 201),12	3497,(156, 201),12	3509,(197, 201),12	3521,(103, 201),12	
# Outgoing
39,(10, 45),4	43,(10, 185),4	61,(10, 69),4	65,(10, 68),8	73,(10, 98),4	77,(10, 168),4	101,(20, 153),4	117,(10, 115),8	141,(20, 27),12	309,(10, 63),108	417,(10, 71),8	437,(170, 201),12	497,(20, 177),52	569,(60, 201),12	1125,(20, 94),328	1941,(160, 201),12	2337,(40, 201),12	2397,(30, 201),12	2505,(130, 201),12	2529,(70, 201),12	2541,(110, 201),12	2717,(100, 201),12	2753,(180, 201),12	2777,(140, 201),12	2801,(190, 201),12	2813,(50, 201),12	2849,(150, 201),12	2993,(120, 201),12	3101,(200, 201),12	3245,(90, 201),12	3293,(80, 201),12	
53,(9, 25),48	101,(9, 35),4	105,(9, 145),12	117,(9, 57),16	133,(9, 183),24	169,(19, 95),4	173,(9, 196),24	205,(9, 110),16	221,(19, 75),12	237,(19, 178),4	313,(19, 50),12	397,(129, 201),12	425,(99, 201),12	449,(39, 201),12	461,(19, 138),116	581,(169, 201),12	749,(19, 80),68	1193,(19, 156),264	1821,(29, 201),12	1953,(69, 201),12	2001,(199, 201),12	2037,(109, 201),12	2061,(79, 201),12	2157,(89, 201),12	2253,(119, 201),12	2325,(149, 201),12	2457,(59, 201),12	2493,(179, 201),12	3041,(49, 201),12	3065,(159, 201),12	3149,(139, 201),12	3269,(189, 201),12	
37,(8, 39),4	41,(8, 60),8	49,(8, 44),12	61,(8, 137),8	69,(8, 109),12	81,(18, 79),4	89,(8, 127),28	117,(8, 149),16	149,(18, 32),4	153,(18, 59),24	197,(8, 70),8	205,(18, 162),52	273,(8, 140),24	353,(8, 121),4	357,(198, 201),12	409,(18, 141),4	461,(148, 201),12	525,(18, 90),224	1809,(28, 201),12	1857,(18, 31),60	1917,(18, 111),24	1965,(58, 201),12	2013,(68, 201),12	2025,(98, 201),12	2049,(168, 201),12	2097,(128, 201),12	2217,(118, 201),12	2669,(78, 201),12	2705,(38, 201),12	2729,(178, 201),12	2825,(188, 201),12	2969,(88, 201),12	3125,(138, 201),12	3173,(108, 201),12	3317,(48, 201),12	3401,(158, 201),12	
193,(7, 49),308	501,(7, 73),16	517,(7, 104),60	577,(7, 108),28	605,(7, 124),4	609,(7, 131),116	725,(7, 143),92	817,(7, 164),32	849,(17, 48),20	869,(17, 66),32	901,(17, 72),104	1005,(17, 86),4	1009,(17, 134),60	1069,(17, 144),4	1073,(17, 154),52	1125,(17, 158),4	1129,(17, 166),64	1213,(7, 175),12	1361,(17, 93),4	1365,(17, 123),16	1709,(87, 201),12	1773,(17, 21),36	1809,(17, 103),764	2573,(137, 201),12	2585,(37, 201),12	2597,(67, 201),12	2609,(127, 201),12	2621,(57, 201),12	2633,(47, 201),12	2645,(117, 201),12	2657,(27, 201),12	2837,(77, 201),12	2861,(97, 201),12	2909,(157, 201),12	2981,(187, 201),12	3029,(147, 201),12	3113,(177, 201),12	3161,(167, 201),12	3257,(107, 201),12	3509,(197, 201),12	
49,(6, 29),12	61,(6, 160),4	69,(16, 43),32	101,(16, 89),4	105,(16, 113),4	109,(16, 118),4	113,(16, 119),4	117,(6, 34),56	237,(6, 180),36	305,(6, 91),44	349,(6, 191),4	373,(6, 120),104	477,(6, 171),56	533,(16, 139),60	593,(16, 167),4	725,(26, 201),12	817,(16, 53),544	1721,(16, 151),40	1761,(36, 201),12	1845,(76, 201),12	2085,(96, 201),12	2145,(126, 201),12	2265,(146, 201),12	2433,(106, 201),12	2517,(196, 201),12	2553,(46, 201),12	2681,(136, 201),12	2885,(116, 201),12	2957,(176, 201),12	3017,(56, 201),12	3233,(186, 201),12	3329,(66, 201),12	3353,(86, 201),12	3413,(166, 201),12	3497,(156, 201),12	
41,(5, 28),20	61,(5, 33),8	69,(5, 37),16	85,(5, 67),4	89,(15, 128),4	97,(5, 64),20	117,(5, 173),12	137,(15, 117),4	157,(5, 130),40	237,(5, 61),52	289,(5, 181),4	293,(55, 201),12	305,(15, 188),24	369,(15, 97),28	397,(15, 122),116	533,(45, 201),12	545,(185, 201),12	557,(15, 152),80	637,(15, 186),72	709,(15, 189),64	817,(15, 41),72	889,(15, 101),820	2121,(25, 201),12	2169,(35, 201),12	2241,(145, 201),12	2277,(115, 201),12	2361,(65, 201),12	2409,(85, 201),12	2445,(95, 201),12	2693,(75, 201),12	2873,(135, 201),12	2897,(155, 201),12	2933,(165, 201),12	3089,(195, 201),12	3221,(125, 201),12	3425,(105, 201),12	3437,(175, 201),12	
33,(4, 99),4	37,(4, 148),4	41,(4, 169),8	51,(14, 87),4	69,(4, 112),20	105,(4, 146),16	129,(4, 142),20	217,(4, 161),20	237,(4, 163),72	369,(14, 81),4	373,(14, 88),68	441,(14, 187),20	593,(114, 201),12	737,(184, 201),12	1833,(44, 201),12	2109,(24, 201),12	2229,(64, 201),12	2421,(34, 201),12	2481,(174, 201),12	2765,(84, 201),12	2921,(194, 201),12	3005,(54, 201),12	3137,(104, 201),12	3185,(124, 201),12	3209,(74, 201),12	3305,(164, 201),12	3365,(134, 201),12	3377,(144, 201),12	3389,(154, 201),12	3485,(94, 201),12	
21,(3, 26),32	53,(3, 52),16	69,(3, 96),24	93,(3, 126),12	125,(3, 132),4	133,(13, 47),4	137,(3, 30),20	157,(3, 77),212	369,(3, 150),4	373,(23, 201),12	385,(83, 201),12	397,(13, 116),8	405,(13, 194),8	557,(193, 201),12	609,(13, 74),48	677,(3, 105),536	1213,(3, 197),300	1989,(33, 201),12	2133,(43, 201),12	2181,(153, 201),12	2193,(113, 201),12	2301,(173, 201),12	2385,(183, 201),12	2469,(133, 201),12	2789,(163, 201),12	2945,(63, 201),12	3077,(73, 201),12	3281,(143, 201),12	3449,(53, 201),12	3461,(93, 201),12	3473,(123, 201),12	3521,(103, 201),12	
73,(2, 40),64	137,(2, 65),12	149,(2, 85),20	169,(2, 106),4	173,(2, 133),8	181,(2, 174),8	189,(2, 179),4	193,(22, 201),12	205,(92, 201),12	217,(12, 46),4	221,(12, 136),4	225,(12, 38),12	237,(12, 84),36	297,(12, 190),16	405,(12, 155),4	409,(12, 165),4	501,(12, 159),12	521,(2, 125),156	677,(12, 107),80	757,(82, 201),12	769,(102, 201),12	781,(182, 201),12	793,(192, 201),12	805,(172, 201),12	1977,(52, 201),12	2073,(112, 201),12	2205,(42, 201),12	2289,(62, 201),12	2313,(132, 201),12	2349,(142, 201),12	2373,(32, 201),12	2741,(162, 201),12	3053,(122, 201),12	3197,(152, 201),12	3341,(72, 201),12	
1,(0, 2),4	5,(0, 3),4	9,(0, 4),4	13,(0, 5),4	17,(0, 6),4	21,(0, 7),4	25,(0, 8),4	29,(0, 9),4	33,(0, 10),4	37,(0, 12),4	41,(0, 13),4	45,(0, 14),4	49,(0, 15),4	53,(0, 16),4	57,(0, 17),4	61,(0, 18),4	65,(0, 19),4	69,(0, 20),4	73,(1, 24),24	97,(1, 42),16	113,(1, 62),12	125,(1, 78),100	225,(1, 100),12	237,(1, 135),168	405,(1, 157),4	409,(1, 176),12	421,(11, 54),60	481,(11, 56),4	485,(11, 147),12	497,(11, 195),24	521,(11, 200),4	
