4049
# CPU
2233,48,51	2345,58,51	2396,38,51	2549,28,51	2781,78,51	2832,18,51	3995,68,51	
2221,17,51	2321,47,51	2439,67,51	2490,27,51	2541,57,51	3007,77,51	3058,37,51	
2703,8,51	2754,46,51	3085,76,51	3136,16,51	3187,36,51	3238,56,51	3289,66,51	3579,26,51	
2317,7,51	2368,15,51	2419,35,51	2709,75,51	2941,45,51	3007,55,51	3133,65,51	3561,25,51	
1931,6,51	1982,64,51	2033,34,51	2084,14,51	2179,24,51	2701,74,51	2772,44,51	3639,54,51	
1545,5,51	2173,53,51	2224,73,51	2275,43,51	2463,33,51	2547,23,51	2762,13,51	3657,63,51	
1159,4,51	1992,12,51	2089,22,51	2181,32,51	2241,62,51	2489,72,51	2770,42,51	2821,52,51	
773,3,51	2197,41,51	2707,11,51	3527,21,51	3578,61,51	3629,31,51	3680,51,51	3731,71,51	
387,2,51	2105,50,51	2535,20,51	2689,60,51	2756,10,51	2807,30,51	3145,70,51	3196,80,51	3635,40,51	
0,0,1	1,1,51	52,9,51	103,59,51	2257,69,51	2311,79,51	2523,19,51	2574,39,51	2625,29,51	2774,49,51	4048,81,1	
# Incoming
2211,(2, 48),16	2227,(3, 48),6	2233,(3, 68),40	2273,(5, 28),4	2277,(3, 58),68	2345,(6, 38),46	2547,(4, 28),2	2753,(4, 78),28	2781,(8, 18),20	3133,(8, 68),2	3553,(4, 68),442	
2199,(2, 47),12	2211,(3, 17),10	2221,(6, 67),4	2241,(2, 67),2	2257,(2, 77),2	2299,(5, 47),22	2321,(6, 77),4	2347,(3, 67),92	2439,(7, 27),12	2463,(7, 57),2	2555,(4, 37),4	2661,(7, 77),346	3007,(8, 37),4	
2317,(0, 8),386	2703,(2, 66),4	2707,(3, 46),2	2709,(3, 76),376	3085,(4, 16),28	3113,(5, 26),10	3123,(5, 36),42	3165,(6, 56),32	3197,(7, 66),4	3561,(1, 26),18	
1931,(0, 7),386	2317,(2, 45),2	2319,(4, 15),12	2331,(5, 55),2	2333,(6, 35),2	2345,(3, 65),2	2391,(6, 55),16	2701,(4, 75),8	2829,(8, 45),112	2941,(8, 55),66	3011,(8, 65),122	3527,(1, 25),34	
1545,(0, 6),386	1931,(2, 14),12	1943,(3, 24),26	1969,(3, 34),42	2011,(3, 54),14	2025,(5, 14),42	2107,(5, 54),18	2131,(5, 74),2	2165,(2, 24),14	2699,(4, 74),2	2770,(8, 44),2	3637,(1, 54),2	
1159,(0, 5),386	1971,(2, 23),194	2165,(6, 53),8	2173,(6, 73),6	2197,(2, 43),2	2461,(7, 33),2	2535,(4, 23),12	2707,(1, 13),12	2719,(4, 63),34	2756,(8, 13),6	3639,(1, 63),18	
773,(0, 4),386	1159,(3, 12),58	1217,(3, 42),2	1943,(2, 22),28	1982,(6, 12),10	2002,(6, 22),10	2014,(6, 72),30	2083,(5, 22),6	2179,(2, 32),2	2227,(2, 52),6	2233,(2, 62),8	2465,(7, 72),24	2764,(8, 42),6	2774,(8, 52),4	
387,(0, 3),386	2012,(6, 61),2	2089,(5, 41),10	2105,(5, 51),2	2125,(5, 71),6	2181,(2, 41),16	2225,(6, 71),84	2451,(7, 31),10	2597,(4, 51),90	2703,(1, 11),4	2719,(1, 21),808	3527,(4, 61),26	3579,(1, 31),46	3635,(1, 51),2	3657,(1, 71),4	
1,(0, 2),386	1992,(6, 20),10	2067,(5, 20),16	2099,(5, 50),6	2523,(4, 20),12	2561,(4, 40),36	2687,(4, 60),2	2689,(4, 70),10	2754,(8, 10),2	2762,(8, 30),2	2801,(8, 40),28	3135,(8, 70),10	3145,(8, 80),8	3625,(1, 40),10	
2243,(2, 69),14	2257,(5, 39),2	2259,(2, 79),14	2273,(3, 29),4	2277,(5, 19),22	2299,(50, 81),2	2301,(17, 81),2	2303,(48, 81),2	2309,(6, 79),2	2311,(64, 81),2	2313,(34, 81),2	2315,(14, 81),2	2317,(24, 81),2	2321,(53, 81),2	2323,(73, 81),2	2326,(43, 81),2	2331,(4, 19),192	2523,(41, 81),2	2525,(47, 81),2	2527,(58, 81),2	2529,(15, 81),2	2531,(38, 81),2	2533,(35, 81),2	2535,(67, 81),2	2537,(33, 81),2	2541,(27, 81),2	2549,(4, 29),6	2559,(4, 39),2	2561,(7, 29),50	2611,(7, 49),50	2661,(20, 81),2	2663,(57, 81),2	2665,(23, 81),2	2667,(28, 81),2	2709,(12, 81),2	2711,(22, 81),2	2713,(32, 81),2	2715,(62, 81),2	2717,(72, 81),2	2740,(60, 81),2	2752,(74, 81),2	2772,(8, 49),2	2807,(10, 81),2	2813,(13, 81),2	2821,(42, 81),2	2823,(44, 81),2	2832,(78, 81),2	2858,(30, 81),2	2872,(52, 81),2	2883,(18, 81),2	3007,(75, 81),2	3009,(45, 81),2	3058,(77, 81),2	3060,(55, 81),2	3085,(11, 81),2	3109,(37, 81),2	3153,(46, 81),2	3155,(76, 81),2	3184,(65, 81),2	3187,(16, 81),2	3196,(70, 81),2	3238,(36, 81),2	3247,(80, 81),2	3289,(56, 81),2	3340,(66, 81),2	3578,(21, 81),2	3612,(25, 81),2	3629,(61, 81),2	3631,(26, 81),2	3680,(31, 81),2	3686,(40, 81),2	3690,(54, 81),2	3708,(63, 81),2	3731,(51, 81),2	3782,(71, 81),2	4046,(68, 81),2	
# Outgoing
2303,(48, 81),2	2527,(58, 81),2	2531,(38, 81),2	2667,(28, 81),2	2832,(78, 81),2	2883,(18, 81),2	4046,(68, 81),2	
2301,(17, 81),2	2525,(47, 81),2	2535,(67, 81),2	2541,(27, 81),2	2663,(57, 81),2	3058,(77, 81),2	3109,(37, 81),2	
2754,(8, 10),2	2756,(8, 13),6	2762,(8, 30),2	2764,(8, 42),6	2770,(8, 44),2	2772,(8, 49),2	2774,(8, 52),4	2781,(8, 18),20	2801,(8, 40),28	2829,(8, 45),112	2941,(8, 55),66	3007,(8, 37),4	3011,(8, 65),122	3133,(8, 68),2	3135,(8, 70),10	3145,(8, 80),8	3153,(46, 81),2	3155,(76, 81),2	3187,(16, 81),2	3238,(36, 81),2	3289,(56, 81),2	3340,(66, 81),2	3631,(26, 81),2	
2439,(7, 27),12	2451,(7, 31),10	2461,(7, 33),2	2463,(7, 57),2	2465,(7, 72),24	2529,(15, 81),2	2533,(35, 81),2	2561,(7, 29),50	2611,(7, 49),50	2661,(7, 77),346	3007,(75, 81),2	3009,(45, 81),2	3060,(55, 81),2	3184,(65, 81),2	3197,(7, 66),4	3612,(25, 81),2	
1982,(6, 12),10	1992,(6, 20),10	2002,(6, 22),10	2012,(6, 61),2	2014,(6, 72),30	2165,(6, 53),8	2173,(6, 73),6	2221,(6, 67),4	2225,(6, 71),84	2309,(6, 79),2	2311,(64, 81),2	2313,(34, 81),2	2315,(14, 81),2	2317,(24, 81),2	2321,(6, 77),4	2333,(6, 35),2	2345,(6, 38),46	2391,(6, 55),16	2752,(74, 81),2	2823,(44, 81),2	3165,(6, 56),32	3690,(54, 81),2	
2025,(5, 14),42	2067,(5, 20),16	2083,(5, 22),6	2089,(5, 41),10	2099,(5, 50),6	2105,(5, 51),2	2107,(5, 54),18	2125,(5, 71),6	2131,(5, 74),2	2257,(5, 39),2	2273,(5, 28),4	2277,(5, 19),22	2299,(5, 47),22	2321,(53, 81),2	2323,(73, 81),2	2326,(43, 81),2	2331,(5, 55),2	2537,(33, 81),2	2665,(23, 81),2	2813,(13, 81),2	3113,(5, 26),10	3123,(5, 36),42	3708,(63, 81),2	
2319,(4, 15),12	2331,(4, 19),192	2523,(4, 20),12	2535,(4, 23),12	2547,(4, 28),2	2549,(4, 29),6	2555,(4, 37),4	2559,(4, 39),2	2561,(4, 40),36	2597,(4, 51),90	2687,(4, 60),2	2689,(4, 70),10	2699,(4, 74),2	2701,(4, 75),8	2709,(12, 81),2	2711,(22, 81),2	2713,(32, 81),2	2715,(62, 81),2	2717,(72, 81),2	2719,(4, 63),34	2753,(4, 78),28	2821,(42, 81),2	2872,(52, 81),2	3085,(4, 16),28	3527,(4, 61),26	3553,(4, 68),442	
1159,(3, 12),58	1217,(3, 42),2	1943,(3, 24),26	1969,(3, 34),42	2011,(3, 54),14	2211,(3, 17),10	2227,(3, 48),6	2233,(3, 68),40	2273,(3, 29),4	2277,(3, 58),68	2345,(3, 65),2	2347,(3, 67),92	2523,(41, 81),2	2707,(3, 46),2	2709,(3, 76),376	3085,(11, 81),2	3578,(21, 81),2	3629,(61, 81),2	3680,(31, 81),2	3731,(51, 81),2	3782,(71, 81),2	
1931,(2, 14),12	1943,(2, 22),28	1971,(2, 23),194	2165,(2, 24),14	2179,(2, 32),2	2181,(2, 41),16	2197,(2, 43),2	2199,(2, 47),12	2211,(2, 48),16	2227,(2, 52),6	2233,(2, 62),8	2241,(2, 67),2	2243,(2, 69),14	2257,(2, 77),2	2259,(2, 79),14	2299,(50, 81),2	2317,(2, 45),2	2661,(20, 81),2	2703,(2, 66),4	2740,(60, 81),2	2807,(10, 81),2	2858,(30, 81),2	3196,(70, 81),2	3247,(80, 81),2	3686,(40, 81),2	
1,(0, 2),386	387,(0, 3),386	773,(0, 4),386	1159,(0, 5),386	1545,(0, 6),386	1931,(0, 7),386	2317,(0, 8),386	2703,(1, 11),4	2707,(1, 13),12	2719,(1, 21),808	3527,(1, 25),34	3561,(1, 26),18	3579,(1, 31),46	3625,(1, 40),10	3635,(1, 51),2	3637,(1, 54),2	3639,(1, 63),18	3657,(1, 71),4	
