8923
# CPU
0,0,1	1,17,14	15,2,14	29,20,14	43,16,14	57,7,14	71,13,14	85,9,14	99,19,14	113,12,14	127,8,14	141,3,14	155,6,14	169,1,14	183,34,14	197,90,14	211,14,14	225,86,14	239,10,14	253,95,14	267,116,14	281,11,14	295,124,14	309,87,14	323,137,14	337,183,14	351,169,14	365,47,14	379,163,14	393,129,14	407,39,14	421,143,14	435,93,14	449,117,14	463,61,14	477,152,14	491,173,14	505,101,14	519,135,14	533,138,14	547,186,14	561,37,14	575,131,14	589,187,14	603,73,14	617,30,14	631,102,14	645,178,14	659,33,14	673,125,14	687,160,14	701,79,14	715,66,14	729,157,14	743,133,14	757,57,14	771,154,14	785,119,14	799,65,14	813,162,14	827,179,14	841,181,14	855,142,14	869,97,14	883,110,14	897,151,14	911,35,14	925,190,14	939,94,14	953,144,14	967,43,14	981,132,14	995,67,14	1009,71,14	1023,189,14	1037,127,14	1051,148,14	1065,41,14	1079,82,14	1093,24,14	1107,111,14	1121,69,14	1135,60,14	1149,185,14	1163,121,14	1177,200,14	1191,122,14	1205,197,14	1219,139,14	1233,140,14	1247,114,14	1261,107,14	1275,98,14	1289,166,14	1303,32,14	1317,196,14	1331,56,14	1345,191,14	1359,99,14	1373,78,14	1387,88,14	1401,167,14	1437,176,14	1476,59,14	1518,25,14	1560,77,14	1605,27,14	1650,23,14	1695,92,14	1740,89,14	1785,85,14	1833,106,14	1881,109,14	1929,53,14	1980,50,14	2031,68,14	2082,26,14	2133,55,14	2184,70,14	2235,48,14	2289,161,14	2343,170,14	2400,172,14	2457,165,14	2517,38,14	2577,40,14	2637,115,14	2700,175,14	2763,164,14	2826,64,14	2892,155,14	2958,171,14	3027,63,14	3096,136,14	3168,130,14	3243,46,14	3321,188,14	3402,184,14	3483,159,14	3573,182,14	3666,150,14	3762,192,14	3858,75,14	3954,156,14	4062,168,14	4176,199,14	4293,54,14	4410,72,14	4530,58,14	4668,42,14	4809,22,14	4956,153,14	5115,158,14	5277,62,14	5451,113,14	5643,36,14	5868,141,14	6111,31,14	6357,28,14	6648,52,14	7086,147,14	8922,201,1	
55,4,14	109,18,14	163,5,14	217,128,14	271,15,14	286,83,14	304,84,14	355,29,14	409,103,14	466,118,14	532,112,14	607,51,14	691,108,14	781,180,14	877,194,14	976,126,14	1087,120,14	1210,177,14	1339,104,14	1483,174,14	1630,96,14	1777,149,14	1924,21,14	2077,91,14	2239,123,14	2401,44,14	2575,134,14	2755,146,14	2953,80,14	3163,49,14	3394,145,14	3631,76,14	3871,45,14	4120,105,14	4372,81,14	4633,193,14	4909,195,14	5209,100,14	5518,198,14	6217,74,14	
# Incoming
177,(5, 163),3	180,(4, 129),3	183,(5, 39),3	186,(4, 143),3	189,(5, 117),3	192,(5, 152),3	195,(4, 173),3	198,(4, 101),3	201,(18, 135),3	204,(5, 138),3	207,(5, 186),6	213,(4, 37),3	216,(4, 187),6	222,(4, 73),6	228,(5, 30),9	237,(5, 102),9	246,(18, 178),9	255,(4, 33),3	258,(5, 33),3	261,(5, 125),9	270,(18, 160),3	273,(18, 79),9	282,(4, 133),3	285,(15, 93),3	288,(15, 61),3	291,(15, 138),3	294,(15, 37),3	297,(15, 131),6	303,(15, 73),3	306,(15, 33),3	309,(15, 160),6	315,(4, 66),9	324,(18, 157),6	330,(15, 157),3	333,(5, 133),9	342,(4, 57),3	345,(18, 57),3	348,(5, 57),6	354,(5, 154),12	366,(4, 119),9	375,(5, 119),3	378,(4, 65),15	393,(5, 162),15	408,(4, 179),15	423,(4, 181),6	429,(5, 181),6	435,(15, 181),3	438,(18, 142),12	450,(15, 142),3	453,(4, 97),15	468,(4, 110),3	471,(18, 110),9	480,(15, 110),3	483,(4, 151),3	486,(18, 151),9	495,(15, 151),3	498,(4, 35),3	501,(18, 35),12	513,(4, 190),3	516,(18, 190),12	528,(4, 94),3	531,(18, 94),3	534,(5, 94),6	540,(15, 94),3	543,(18, 144),3	546,(15, 144),15	561,(4, 43),6	567,(15, 43),12	579,(4, 132),6	585,(18, 132),3	588,(5, 132),9	597,(15, 67),18	615,(18, 71),3	618,(5, 71),15	633,(4, 189),3	636,(18, 189),9	645,(5, 189),6	651,(4, 127),15	666,(18, 127),3	669,(18, 148),6	675,(5, 148),12	687,(4, 41),3	690,(15, 41),15	705,(4, 82),9	714,(18, 82),12	726,(4, 24),18	744,(15, 24),3	747,(5, 111),15	762,(15, 111),6	768,(4, 69),3	771,(18, 69),6	777,(15, 69),12	789,(18, 60),24	813,(5, 185),24	837,(18, 121),6	843,(5, 121),6	849,(15, 121),15	864,(4, 200),27	891,(4, 122),24	915,(18, 122),3	918,(18, 197),3	921,(15, 197),24	945,(5, 139),3	948,(15, 139),27	975,(4, 140),12	987,(18, 140),3	990,(5, 140),12	1002,(15, 140),3	1005,(4, 114),3	1008,(18, 114),3	1011,(5, 114),24	1035,(4, 107),18	1053,(5, 107),12	1065,(5, 98),24	1089,(15, 98),6	1095,(4, 166),18	1113,(18, 166),12	1125,(4, 32),3	1128,(18, 32),6	1134,(5, 32),24	1158,(4, 196),6	1164,(5, 196),24	1188,(15, 196),3	1191,(5, 56),33	1224,(4, 191),21	1245,(5, 191),12	1257,(4, 99),33	1290,(5, 99),3	1293,(4, 78),30	1323,(18, 78),6	1329,(18, 88),33	1362,(5, 88),3	1365,(18, 167),33	1398,(5, 167),3	1401,(4, 176),3	1404,(5, 176),3	1407,(15, 176),30	1437,(4, 59),3	1440,(5, 59),21	1461,(15, 59),15	1476,(4, 25),3	1479,(18, 25),6	1485,(5, 25),3	1488,(15, 25),30	1518,(4, 77),36	1554,(18, 77),6	1560,(4, 27),30	1590,(5, 27),15	1605,(15, 23),45	1650,(4, 92),30	1680,(15, 92),15	1695,(4, 89),21	1716,(18, 89),12	1728,(5, 89),12	1740,(4, 85),9	1749,(5, 85),33	1782,(15, 85),3	1785,(4, 106),12	1797,(18, 106),15	1812,(5, 106),18	1830,(15, 106),3	1833,(4, 109),33	1866,(18, 109),15	1881,(4, 53),48	1929,(4, 50),18	1947,(15, 50),33	1980,(4, 68),12	1992,(5, 68),6	1998,(15, 68),33	2031,(18, 26),48	2079,(5, 26),3	2082,(4, 55),6	2088,(18, 55),3	2091,(15, 55),42	2133,(4, 70),3	2136,(18, 70),15	2151,(5, 70),30	2181,(15, 70),3	2184,(18, 48),3	2187,(5, 48),3	2190,(15, 48),45	2235,(4, 161),12	2247,(18, 161),42	2289,(4, 170),42	2331,(15, 170),12	2343,(4, 172),3	2346,(18, 172),3	2349,(15, 172),51	2400,(18, 165),48	2448,(5, 165),3	2451,(15, 165),6	2457,(4, 38),54	2511,(18, 38),6	2517,(4, 40),3	2520,(5, 40),57	2577,(4, 115),18	2595,(18, 115),3	2598,(5, 115),39	2637,(4, 175),54	2691,(18, 175),6	2697,(15, 175),3	2700,(4, 164),33	2733,(5, 164),30	2763,(18, 64),27	2790,(5, 64),36	2826,(4, 155),3	2829,(18, 155),15	2844,(5, 155),9	2853,(15, 155),39	2892,(18, 171),63	2955,(5, 171),3	2958,(4, 63),27	2985,(5, 63),15	3000,(15, 63),27	3027,(4, 136),51	3078,(18, 136),3	3081,(5, 136),15	3096,(4, 130),24	3120,(18, 130),48	3168,(4, 46),72	3240,(15, 46),3	3243,(4, 188),72	3315,(15, 188),6	3321,(4, 184),81	3402,(4, 159),30	3432,(18, 159),30	3462,(5, 159),21	3483,(18, 182),54	3537,(5, 182),36	3573,(5, 150),93	3666,(5, 192),21	3687,(15, 192),75	3762,(5, 75),93	3855,(15, 75),3	3858,(4, 156),9	3867,(18, 156),69	3936,(5, 156),18	3954,(4, 168),27	3981,(18, 168),39	4020,(5, 168),42	4062,(4, 199),102	4164,(18, 199),12	4176,(4, 54),27	4203,(18, 54),12	4215,(5, 54),24	4239,(15, 54),54	4293,(4, 72),105	4398,(15, 72),12	4410,(4, 58),18	4428,(18, 58),66	4494,(5, 58),36	4530,(18, 42),27	4557,(5, 42),63	4620,(15, 42),48	4668,(15, 22),141	4809,(4, 153),6	4815,(18, 153),9	4824,(5, 153),30	4854,(15, 153),102	4956,(18, 158),3	4959,(5, 158),144	5103,(15, 158),12	5115,(4, 62),3	5118,(5, 62),3	5121,(15, 62),156	5277,(4, 113),6	5283,(18, 113),123	5406,(5, 113),42	5448,(15, 113),3	5451,(4, 36),30	5481,(18, 36),162	5643,(18, 141),15	5658,(5, 141),195	5853,(15, 141),15	5868,(4, 31),15	5883,(18, 31),225	6108,(5, 31),3	6111,(4, 28),96	6207,(18, 28),9	6216,(5, 28),138	6354,(15, 28),3	6357,(4, 52),72	6429,(18, 52),219	6648,(4, 147),3	6651,(18, 147),321	6972,(5, 147),114	7086,(128, 201),51	7137,(83, 201),51	7188,(84, 201),51	7239,(29, 201),51	7290,(103, 201),51	7341,(118, 201),51	7392,(112, 201),51	7443,(51, 201),51	7494,(108, 201),51	7545,(180, 201),51	7596,(194, 201),51	7647,(126, 201),51	7698,(120, 201),51	7749,(177, 201),51	7800,(104, 201),51	7851,(174, 201),51	7902,(96, 201),51	7953,(149, 201),51	8004,(21, 201),51	8055,(91, 201),51	8106,(123, 201),51	8157,(44, 201),51	8208,(134, 201),51	8259,(146, 201),51	8310,(80, 201),51	8361,(49, 201),51	8412,(145, 201),51	8463,(76, 201),51	8514,(45, 201),51	8565,(105, 201),51	8616,(81, 201),51	8667,(193, 201),51	8718,(195, 201),51	8769,(100, 201),51	8820,(198, 201),51	8871,(74, 201),51	
1,(0, 4),54	55,(0, 18),54	109,(0, 5),54	163,(17, 128),3	166,(2, 128),3	169,(20, 128),15	184,(12, 128),3	187,(8, 128),9	196,(6, 128),21	217,(0, 15),54	271,(17, 83),3	274,(20, 83),3	277,(13, 83),3	280,(9, 83),3	283,(3, 83),3	286,(20, 84),3	289,(13, 84),6	295,(6, 84),6	301,(14, 84),3	304,(17, 29),3	307,(8, 29),3	310,(6, 29),18	328,(11, 29),27	355,(2, 103),3	358,(12, 103),3	361,(3, 103),3	364,(6, 103),15	379,(10, 103),3	382,(11, 103),27	409,(17, 118),6	415,(16, 118),3	418,(13, 118),9	427,(9, 118),3	430,(3, 118),3	433,(6, 118),6	439,(1, 118),9	448,(10, 118),18	466,(20, 112),3	469,(16, 112),9	478,(8, 112),9	487,(6, 112),30	517,(1, 112),12	529,(14, 112),3	532,(20, 51),30	562,(7, 51),3	565,(9, 51),3	568,(3, 51),15	583,(6, 51),15	598,(14, 51),3	601,(10, 51),3	604,(11, 51),3	607,(16, 108),9	616,(9, 108),24	640,(8, 108),6	646,(14, 108),3	649,(10, 108),42	691,(20, 180),6	697,(9, 180),3	700,(6, 180),81	781,(7, 194),3	784,(8, 194),3	787,(1, 194),42	829,(10, 194),48	877,(20, 126),24	901,(13, 126),12	913,(12, 126),3	916,(8, 126),12	928,(3, 126),6	934,(6, 126),3	937,(1, 126),33	970,(14, 126),6	976,(17, 120),27	1003,(7, 120),45	1048,(13, 120),15	1063,(12, 120),12	1075,(3, 120),3	1078,(6, 120),3	1081,(14, 120),6	1087,(17, 177),24	1111,(2, 177),15	1126,(16, 177),12	1138,(7, 177),6	1144,(13, 177),18	1162,(9, 177),3	1165,(12, 177),3	1168,(8, 177),3	1171,(3, 177),18	1189,(6, 177),6	1195,(14, 177),12	1207,(11, 177),3	1210,(7, 104),6	1216,(9, 104),12	1228,(12, 104),48	1276,(8, 104),6	1282,(6, 104),18	1300,(1, 104),3	1303,(14, 104),21	1324,(10, 104),15	1339,(17, 174),3	1342,(2, 174),75	1417,(20, 174),12	1429,(13, 174),12	1441,(9, 174),3	1444,(8, 174),12	1456,(1, 174),21	1477,(14, 174),3	1480,(10, 174),3	1483,(2, 96),6	1489,(13, 96),9	1498,(9, 96),36	1534,(19, 96),18	1552,(8, 96),6	1558,(10, 96),72	1630,(2, 149),12	1642,(13, 149),45	1687,(12, 149),3	1690,(6, 149),69	1759,(10, 149),15	1774,(11, 149),3	1777,(17, 21),3	1780,(2, 21),15	1795,(13, 21),54	1849,(9, 21),6	1855,(8, 21),3	1858,(3, 21),60	1918,(14, 21),3	1921,(10, 21),3	1924,(20, 91),15	1939,(13, 91),6	1945,(9, 91),18	1963,(12, 91),87	2050,(6, 91),24	2074,(10, 91),3	2077,(16, 123),39	2116,(7, 123),12	2128,(9, 123),27	2155,(12, 123),3	2158,(1, 123),18	2176,(14, 123),24	2200,(10, 123),36	2236,(11, 123),3	2239,(20, 44),3	2242,(16, 44),78	2320,(13, 44),15	2335,(6, 44),18	2353,(14, 44),12	2365,(11, 44),36	2401,(17, 134),18	2419,(7, 134),3	2422,(13, 134),27	2449,(19, 134),3	2452,(12, 134),12	2464,(8, 134),63	2527,(6, 134),39	2566,(1, 134),9	2575,(17, 146),42	2617,(20, 146),30	2647,(16, 146),54	2701,(7, 146),3	2704,(9, 146),27	2731,(8, 146),12	2743,(6, 146),9	2752,(14, 146),3	2755,(17, 80),9	2764,(2, 80),75	2839,(16, 80),36	2875,(13, 80),30	2905,(8, 80),6	2911,(3, 80),9	2920,(1, 80),27	2947,(11, 80),6	2953,(20, 49),36	2989,(16, 49),3	2992,(7, 49),15	3007,(13, 49),6	3013,(8, 49),135	3148,(3, 49),3	3151,(1, 49),9	3160,(14, 49),3	3163,(2, 145),39	3202,(16, 145),39	3241,(7, 145),6	3247,(13, 145),3	3250,(9, 145),72	3322,(12, 145),12	3334,(3, 145),3	3337,(1, 145),18	3355,(14, 145),18	3373,(10, 145),12	3385,(11, 145),9	3394,(20, 76),93	3487,(13, 76),78	3565,(9, 76),6	3571,(3, 76),3	3574,(6, 76),3	3577,(1, 76),30	3607,(14, 76),24	3631,(17, 45),30	3661,(2, 45),3	3664,(16, 45),6	3670,(7, 45),3	3673,(13, 45),60	3733,(9, 45),3	3736,(12, 45),30	3766,(8, 45),3	3769,(3, 45),3	3772,(6, 45),21	3793,(1, 45),36	3829,(14, 45),21	3850,(10, 45),18	3868,(11, 45),3	3871,(17, 105),18	3889,(2, 105),3	3892,(20, 105),3	3895,(7, 105),48	3943,(19, 105),123	4066,(1, 105),27	4093,(14, 105),9	4102,(10, 105),3	4105,(11, 105),15	4120,(17, 81),30	4150,(2, 81),36	4186,(16, 81),30	4216,(7, 81),36	4252,(13, 81),3	4255,(9, 81),39	4294,(19, 81),9	4303,(12, 81),57	4360,(6, 81),12	4372,(17, 193),3	4375,(16, 193),6	4381,(7, 193),69	4450,(13, 193),9	4459,(9, 193),21	4480,(19, 193),18	4498,(8, 193),6	4504,(3, 193),96	4600,(1, 193),30	4630,(14, 193),3	4633,(2, 195),3	4636,(20, 195),135	4771,(13, 195),75	4846,(3, 195),12	4858,(6, 195),30	4888,(1, 195),3	4891,(10, 195),15	4906,(11, 195),3	4909,(17, 100),120	5029,(20, 100),12	5041,(16, 100),9	5050,(9, 100),3	5053,(6, 100),51	5104,(1, 100),27	5131,(11, 100),78	5209,(17, 198),21	5230,(7, 198),18	5248,(13, 198),141	5389,(12, 198),54	5443,(3, 198),6	5449,(6, 198),3	5452,(1, 198),42	5494,(14, 198),15	5509,(11, 198),9	5518,(17, 74),3	5521,(2, 74),18	5539,(20, 74),63	5602,(7, 74),3	5605,(9, 74),9	5614,(12, 74),6	5620,(8, 74),564	6184,(6, 74),15	6199,(1, 74),18	
# Outgoing
1,(0, 4),54	55,(0, 18),54	109,(0, 5),54	163,(17, 128),3	166,(2, 128),3	169,(20, 128),15	184,(12, 128),3	187,(8, 128),9	196,(6, 128),21	217,(0, 15),54	271,(17, 83),3	274,(20, 83),3	277,(13, 83),3	280,(9, 83),3	283,(3, 83),3	286,(20, 84),3	289,(13, 84),6	295,(6, 84),6	301,(14, 84),3	304,(17, 29),3	307,(8, 29),3	310,(6, 29),18	328,(11, 29),27	355,(2, 103),3	358,(12, 103),3	361,(3, 103),3	364,(6, 103),15	379,(10, 103),3	382,(11, 103),27	409,(17, 118),6	415,(16, 118),3	418,(13, 118),9	427,(9, 118),3	430,(3, 118),3	433,(6, 118),6	439,(1, 118),9	448,(10, 118),18	466,(20, 112),3	469,(16, 112),9	478,(8, 112),9	487,(6, 112),30	517,(1, 112),12	529,(14, 112),3	532,(20, 51),30	562,(7, 51),3	565,(9, 51),3	568,(3, 51),15	583,(6, 51),15	598,(14, 51),3	601,(10, 51),3	604,(11, 51),3	607,(16, 108),9	616,(9, 108),24	640,(8, 108),6	646,(14, 108),3	649,(10, 108),42	691,(20, 180),6	697,(9, 180),3	700,(6, 180),81	781,(7, 194),3	784,(8, 194),3	787,(1, 194),42	829,(10, 194),48	877,(20, 126),24	901,(13, 126),12	913,(12, 126),3	916,(8, 126),12	928,(3, 126),6	934,(6, 126),3	937,(1, 126),33	970,(14, 126),6	976,(17, 120),27	1003,(7, 120),45	1048,(13, 120),15	1063,(12, 120),12	1075,(3, 120),3	1078,(6, 120),3	1081,(14, 120),6	1087,(17, 177),24	1111,(2, 177),15	1126,(16, 177),12	1138,(7, 177),6	1144,(13, 177),18	1162,(9, 177),3	1165,(12, 177),3	1168,(8, 177),3	1171,(3, 177),18	1189,(6, 177),6	1195,(14, 177),12	1207,(11, 177),3	1210,(7, 104),6	1216,(9, 104),12	1228,(12, 104),48	1276,(8, 104),6	1282,(6, 104),18	1300,(1, 104),3	1303,(14, 104),21	1324,(10, 104),15	1339,(17, 174),3	1342,(2, 174),75	1417,(20, 174),12	1429,(13, 174),12	1441,(9, 174),3	1444,(8, 174),12	1456,(1, 174),21	1477,(14, 174),3	1480,(10, 174),3	1483,(2, 96),6	1489,(13, 96),9	1498,(9, 96),36	1534,(19, 96),18	1552,(8, 96),6	1558,(10, 96),72	1630,(2, 149),12	1642,(13, 149),45	1687,(12, 149),3	1690,(6, 149),69	1759,(10, 149),15	1774,(11, 149),3	1777,(17, 21),3	1780,(2, 21),15	1795,(13, 21),54	1849,(9, 21),6	1855,(8, 21),3	1858,(3, 21),60	1918,(14, 21),3	1921,(10, 21),3	1924,(20, 91),15	1939,(13, 91),6	1945,(9, 91),18	1963,(12, 91),87	2050,(6, 91),24	2074,(10, 91),3	2077,(16, 123),39	2116,(7, 123),12	2128,(9, 123),27	2155,(12, 123),3	2158,(1, 123),18	2176,(14, 123),24	2200,(10, 123),36	2236,(11, 123),3	2239,(20, 44),3	2242,(16, 44),78	2320,(13, 44),15	2335,(6, 44),18	2353,(14, 44),12	2365,(11, 44),36	2401,(17, 134),18	2419,(7, 134),3	2422,(13, 134),27	2449,(19, 134),3	2452,(12, 134),12	2464,(8, 134),63	2527,(6, 134),39	2566,(1, 134),9	2575,(17, 146),42	2617,(20, 146),30	2647,(16, 146),54	2701,(7, 146),3	2704,(9, 146),27	2731,(8, 146),12	2743,(6, 146),9	2752,(14, 146),3	2755,(17, 80),9	2764,(2, 80),75	2839,(16, 80),36	2875,(13, 80),30	2905,(8, 80),6	2911,(3, 80),9	2920,(1, 80),27	2947,(11, 80),6	2953,(20, 49),36	2989,(16, 49),3	2992,(7, 49),15	3007,(13, 49),6	3013,(8, 49),135	3148,(3, 49),3	3151,(1, 49),9	3160,(14, 49),3	3163,(2, 145),39	3202,(16, 145),39	3241,(7, 145),6	3247,(13, 145),3	3250,(9, 145),72	3322,(12, 145),12	3334,(3, 145),3	3337,(1, 145),18	3355,(14, 145),18	3373,(10, 145),12	3385,(11, 145),9	3394,(20, 76),93	3487,(13, 76),78	3565,(9, 76),6	3571,(3, 76),3	3574,(6, 76),3	3577,(1, 76),30	3607,(14, 76),24	3631,(17, 45),30	3661,(2, 45),3	3664,(16, 45),6	3670,(7, 45),3	3673,(13, 45),60	3733,(9, 45),3	3736,(12, 45),30	3766,(8, 45),3	3769,(3, 45),3	3772,(6, 45),21	3793,(1, 45),36	3829,(14, 45),21	3850,(10, 45),18	3868,(11, 45),3	3871,(17, 105),18	3889,(2, 105),3	3892,(20, 105),3	3895,(7, 105),48	3943,(19, 105),123	4066,(1, 105),27	4093,(14, 105),9	4102,(10, 105),3	4105,(11, 105),15	4120,(17, 81),30	4150,(2, 81),36	4186,(16, 81),30	4216,(7, 81),36	4252,(13, 81),3	4255,(9, 81),39	4294,(19, 81),9	4303,(12, 81),57	4360,(6, 81),12	4372,(17, 193),3	4375,(16, 193),6	4381,(7, 193),69	4450,(13, 193),9	4459,(9, 193),21	4480,(19, 193),18	4498,(8, 193),6	4504,(3, 193),96	4600,(1, 193),30	4630,(14, 193),3	4633,(2, 195),3	4636,(20, 195),135	4771,(13, 195),75	4846,(3, 195),12	4858,(6, 195),30	4888,(1, 195),3	4891,(10, 195),15	4906,(11, 195),3	4909,(17, 100),120	5029,(20, 100),12	5041,(16, 100),9	5050,(9, 100),3	5053,(6, 100),51	5104,(1, 100),27	5131,(11, 100),78	5209,(17, 198),21	5230,(7, 198),18	5248,(13, 198),141	5389,(12, 198),54	5443,(3, 198),6	5449,(6, 198),3	5452,(1, 198),42	5494,(14, 198),15	5509,(11, 198),9	5518,(17, 74),3	5521,(2, 74),18	5539,(20, 74),63	5602,(7, 74),3	5605,(9, 74),9	5614,(12, 74),6	5620,(8, 74),564	6184,(6, 74),15	6199,(1, 74),18	
177,(5, 163),3	180,(4, 129),3	183,(5, 39),3	186,(4, 143),3	189,(5, 117),3	192,(5, 152),3	195,(4, 173),3	198,(4, 101),3	201,(18, 135),3	204,(5, 138),3	207,(5, 186),6	213,(4, 37),3	216,(4, 187),6	222,(4, 73),6	228,(5, 30),9	237,(5, 102),9	246,(18, 178),9	255,(4, 33),3	258,(5, 33),3	261,(5, 125),9	270,(18, 160),3	273,(18, 79),9	282,(4, 133),3	285,(15, 93),3	288,(15, 61),3	291,(15, 138),3	294,(15, 37),3	297,(15, 131),6	303,(15, 73),3	306,(15, 33),3	309,(15, 160),6	315,(4, 66),9	324,(18, 157),6	330,(15, 157),3	333,(5, 133),9	342,(4, 57),3	345,(18, 57),3	348,(5, 57),6	354,(5, 154),12	366,(4, 119),9	375,(5, 119),3	378,(4, 65),15	393,(5, 162),15	408,(4, 179),15	423,(4, 181),6	429,(5, 181),6	435,(15, 181),3	438,(18, 142),12	450,(15, 142),3	453,(4, 97),15	468,(4, 110),3	471,(18, 110),9	480,(15, 110),3	483,(4, 151),3	486,(18, 151),9	495,(15, 151),3	498,(4, 35),3	501,(18, 35),12	513,(4, 190),3	516,(18, 190),12	528,(4, 94),3	531,(18, 94),3	534,(5, 94),6	540,(15, 94),3	543,(18, 144),3	546,(15, 144),15	561,(4, 43),6	567,(15, 43),12	579,(4, 132),6	585,(18, 132),3	588,(5, 132),9	597,(15, 67),18	615,(18, 71),3	618,(5, 71),15	633,(4, 189),3	636,(18, 189),9	645,(5, 189),6	651,(4, 127),15	666,(18, 127),3	669,(18, 148),6	675,(5, 148),12	687,(4, 41),3	690,(15, 41),15	705,(4, 82),9	714,(18, 82),12	726,(4, 24),18	744,(15, 24),3	747,(5, 111),15	762,(15, 111),6	768,(4, 69),3	771,(18, 69),6	777,(15, 69),12	789,(18, 60),24	813,(5, 185),24	837,(18, 121),6	843,(5, 121),6	849,(15, 121),15	864,(4, 200),27	891,(4, 122),24	915,(18, 122),3	918,(18, 197),3	921,(15, 197),24	945,(5, 139),3	948,(15, 139),27	975,(4, 140),12	987,(18, 140),3	990,(5, 140),12	1002,(15, 140),3	1005,(4, 114),3	1008,(18, 114),3	1011,(5, 114),24	1035,(4, 107),18	1053,(5, 107),12	1065,(5, 98),24	1089,(15, 98),6	1095,(4, 166),18	1113,(18, 166),12	1125,(4, 32),3	1128,(18, 32),6	1134,(5, 32),24	1158,(4, 196),6	1164,(5, 196),24	1188,(15, 196),3	1191,(5, 56),33	1224,(4, 191),21	1245,(5, 191),12	1257,(4, 99),33	1290,(5, 99),3	1293,(4, 78),30	1323,(18, 78),6	1329,(18, 88),33	1362,(5, 88),3	1365,(18, 167),33	1398,(5, 167),3	1401,(4, 176),3	1404,(5, 176),3	1407,(15, 176),30	1437,(4, 59),3	1440,(5, 59),21	1461,(15, 59),15	1476,(4, 25),3	1479,(18, 25),6	1485,(5, 25),3	1488,(15, 25),30	1518,(4, 77),36	1554,(18, 77),6	1560,(4, 27),30	1590,(5, 27),15	1605,(15, 23),45	1650,(4, 92),30	1680,(15, 92),15	1695,(4, 89),21	1716,(18, 89),12	1728,(5, 89),12	1740,(4, 85),9	1749,(5, 85),33	1782,(15, 85),3	1785,(4, 106),12	1797,(18, 106),15	1812,(5, 106),18	1830,(15, 106),3	1833,(4, 109),33	1866,(18, 109),15	1881,(4, 53),48	1929,(4, 50),18	1947,(15, 50),33	1980,(4, 68),12	1992,(5, 68),6	1998,(15, 68),33	2031,(18, 26),48	2079,(5, 26),3	2082,(4, 55),6	2088,(18, 55),3	2091,(15, 55),42	2133,(4, 70),3	2136,(18, 70),15	2151,(5, 70),30	2181,(15, 70),3	2184,(18, 48),3	2187,(5, 48),3	2190,(15, 48),45	2235,(4, 161),12	2247,(18, 161),42	2289,(4, 170),42	2331,(15, 170),12	2343,(4, 172),3	2346,(18, 172),3	2349,(15, 172),51	2400,(18, 165),48	2448,(5, 165),3	2451,(15, 165),6	2457,(4, 38),54	2511,(18, 38),6	2517,(4, 40),3	2520,(5, 40),57	2577,(4, 115),18	2595,(18, 115),3	2598,(5, 115),39	2637,(4, 175),54	2691,(18, 175),6	2697,(15, 175),3	2700,(4, 164),33	2733,(5, 164),30	2763,(18, 64),27	2790,(5, 64),36	2826,(4, 155),3	2829,(18, 155),15	2844,(5, 155),9	2853,(15, 155),39	2892,(18, 171),63	2955,(5, 171),3	2958,(4, 63),27	2985,(5, 63),15	3000,(15, 63),27	3027,(4, 136),51	3078,(18, 136),3	3081,(5, 136),15	3096,(4, 130),24	3120,(18, 130),48	3168,(4, 46),72	3240,(15, 46),3	3243,(4, 188),72	3315,(15, 188),6	3321,(4, 184),81	3402,(4, 159),30	3432,(18, 159),30	3462,(5, 159),21	3483,(18, 182),54	3537,(5, 182),36	3573,(5, 150),93	3666,(5, 192),21	3687,(15, 192),75	3762,(5, 75),93	3855,(15, 75),3	3858,(4, 156),9	3867,(18, 156),69	3936,(5, 156),18	3954,(4, 168),27	3981,(18, 168),39	4020,(5, 168),42	4062,(4, 199),102	4164,(18, 199),12	4176,(4, 54),27	4203,(18, 54),12	4215,(5, 54),24	4239,(15, 54),54	4293,(4, 72),105	4398,(15, 72),12	4410,(4, 58),18	4428,(18, 58),66	4494,(5, 58),36	4530,(18, 42),27	4557,(5, 42),63	4620,(15, 42),48	4668,(15, 22),141	4809,(4, 153),6	4815,(18, 153),9	4824,(5, 153),30	4854,(15, 153),102	4956,(18, 158),3	4959,(5, 158),144	5103,(15, 158),12	5115,(4, 62),3	5118,(5, 62),3	5121,(15, 62),156	5277,(4, 113),6	5283,(18, 113),123	5406,(5, 113),42	5448,(15, 113),3	5451,(4, 36),30	5481,(18, 36),162	5643,(18, 141),15	5658,(5, 141),195	5853,(15, 141),15	5868,(4, 31),15	5883,(18, 31),225	6108,(5, 31),3	6111,(4, 28),96	6207,(18, 28),9	6216,(5, 28),138	6354,(15, 28),3	6357,(4, 52),72	6429,(18, 52),219	6648,(4, 147),3	6651,(18, 147),321	6972,(5, 147),114	7086,(128, 201),51	7137,(83, 201),51	7188,(84, 201),51	7239,(29, 201),51	7290,(103, 201),51	7341,(118, 201),51	7392,(112, 201),51	7443,(51, 201),51	7494,(108, 201),51	7545,(180, 201),51	7596,(194, 201),51	7647,(126, 201),51	7698,(120, 201),51	7749,(177, 201),51	7800,(104, 201),51	7851,(174, 201),51	7902,(96, 201),51	7953,(149, 201),51	8004,(21, 201),51	8055,(91, 201),51	8106,(123, 201),51	8157,(44, 201),51	8208,(134, 201),51	8259,(146, 201),51	8310,(80, 201),51	8361,(49, 201),51	8412,(145, 201),51	8463,(76, 201),51	8514,(45, 201),51	8565,(105, 201),51	8616,(81, 201),51	8667,(193, 201),51	8718,(195, 201),51	8769,(100, 201),51	8820,(198, 201),51	8871,(74, 201),51	
