987
# CPU
2,2,11	13,4,11	24,6,11	35,8,11	46,73,11	57,71,11	68,23,11	79,61,11	90,18,11	101,25,11	112,35,11	123,22,11	134,54,11	145,63,11	156,51,11	167,40,11	178,30,11	189,66,11	200,79,11	211,67,11	222,37,11	233,58,11	244,45,11	255,50,11	266,49,11	277,42,11	288,44,11	299,24,11	310,32,11	321,36,11	332,27,11	343,20,11	354,52,11	365,64,11	376,46,11	387,47,11	398,48,11	409,59,11	420,70,11	431,74,11	442,80,11	453,12,11	464,14,11	475,16,11	486,21,11	497,53,11	508,56,11	519,69,11	587,72,11	598,76,11	609,10,11	620,29,11	631,33,11	642,39,11	668,60,11	679,62,11	690,65,11	701,77,11	712,26,11	723,28,11	734,31,11	745,34,11	756,38,11	767,41,11	778,43,11	789,55,11	800,57,11	811,68,11	822,75,11	833,78,11	986,81,1	
0,0,1	1,3,11	12,5,11	23,1,11	34,7,11	45,9,11	71,15,11	82,11,11	93,13,11	104,17,11	974,19,11	
# Incoming
1,(0, 2),1	2,(0, 4),1	3,(0, 6),1	4,(0, 8),1	12,(3, 20),1	13,(3, 22),5	18,(3, 25),1	19,(3, 31),2	21,(3, 35),1	22,(3, 37),1	23,(3, 40),8	31,(3, 45),11	42,(3, 46),214	256,(3, 47),26	282,(3, 48),31	313,(3, 57),44	357,(3, 59),2	359,(3, 60),10	369,(3, 70),2	371,(3, 74),1	372,(3, 80),1	373,(5, 12),9	382,(5, 14),6	388,(5, 16),1	389,(5, 21),6	395,(5, 26),2	397,(5, 38),16	413,(5, 53),51	464,(5, 56),5	469,(5, 65),3	472,(5, 69),3	475,(5, 72),112	587,(5, 76),1	588,(1, 10),1	589,(1, 29),11	600,(1, 33),2	602,(1, 39),1	603,(1, 55),1	604,(1, 57),55	659,(1, 60),9	668,(1, 62),11	679,(1, 65),1	680,(1, 77),1	681,(7, 26),7	688,(7, 28),2	690,(7, 31),6	696,(7, 34),10	706,(7, 38),37	743,(7, 41),1	744,(7, 43),1	745,(7, 55),1	746,(7, 57),3	749,(7, 68),32	781,(7, 75),32	813,(7, 78),7	820,(9, 81),1	821,(15, 81),1	822,(11, 81),1	823,(13, 81),1	824,(17, 81),1	985,(19, 81),1	
13,(2, 9),18	31,(2, 17),2	33,(4, 9),2	35,(4, 11),13	48,(4, 15),23	71,(4, 17),2	73,(8, 11),1	74,(8, 13),3	77,(8, 17),14	91,(8, 19),883	
# Outgoing
13,(2, 9),18	31,(2, 17),2	33,(4, 9),2	35,(4, 11),13	48,(4, 15),23	71,(4, 17),2	73,(8, 11),1	74,(8, 13),3	77,(8, 17),14	91,(8, 19),883	
1,(0, 2),1	2,(0, 4),1	3,(0, 6),1	4,(0, 8),1	12,(3, 20),1	13,(3, 22),5	18,(3, 25),1	19,(3, 31),2	21,(3, 35),1	22,(3, 37),1	23,(3, 40),8	31,(3, 45),11	42,(3, 46),214	256,(3, 47),26	282,(3, 48),31	313,(3, 57),44	357,(3, 59),2	359,(3, 60),10	369,(3, 70),2	371,(3, 74),1	372,(3, 80),1	373,(5, 12),9	382,(5, 14),6	388,(5, 16),1	389,(5, 21),6	395,(5, 26),2	397,(5, 38),16	413,(5, 53),51	464,(5, 56),5	469,(5, 65),3	472,(5, 69),3	475,(5, 72),112	587,(5, 76),1	588,(1, 10),1	589,(1, 29),11	600,(1, 33),2	602,(1, 39),1	603,(1, 55),1	604,(1, 57),55	659,(1, 60),9	668,(1, 62),11	679,(1, 65),1	680,(1, 77),1	681,(7, 26),7	688,(7, 28),2	690,(7, 31),6	696,(7, 34),10	706,(7, 38),37	743,(7, 41),1	744,(7, 43),1	745,(7, 55),1	746,(7, 57),3	749,(7, 68),32	781,(7, 75),32	813,(7, 78),7	820,(9, 81),1	821,(15, 81),1	822,(11, 81),1	823,(13, 81),1	824,(17, 81),1	985,(19, 81),1	
