941
# CPU
0,0,1	1,7,1	2,6,1	3,4,1	4,12,1	5,35,1	6,26,1	7,67,1	8,16,1	9,21,1	10,49,1	11,47,1	12,45,1	13,11,1	14,30,1	15,70,1	16,63,1	116,72,1	121,76,1	201,19,1	258,25,1	286,46,1	300,50,1	316,57,1	371,80,1	453,10,1	456,15,1	457,20,1	497,22,1	505,29,1	568,58,1	570,71,1	695,9,1	703,14,1	704,17,1	723,39,1	729,42,1	742,56,1	748,59,1	753,75,1	940,81,1	
4,1,1	5,31,1	6,33,1	7,43,1	8,51,1	9,78,1	10,73,1	11,2,1	12,3,1	13,48,1	14,55,1	15,65,1	16,24,1	17,37,1	18,64,1	19,5,1	20,53,1	21,66,1	22,32,1	23,28,1	24,60,1	25,41,1	26,54,1	27,8,1	28,18,1	29,61,1	30,38,1	31,27,1	32,77,1	33,23,1	34,40,1	35,74,1	36,62,1	37,69,1	38,44,1	39,36,1	40,34,1	41,68,1	42,13,1	43,52,1	44,79,1	
# Incoming
5,(1, 9),4	9,(1, 10),1	10,(1, 14),13	23,(1, 29),81	104,(1, 42),4	108,(1, 50),5	113,(1, 56),1	114,(1, 57),1	115,(1, 72),1	116,(1, 76),5	121,(31, 81),11	132,(33, 81),11	143,(43, 81),11	154,(51, 81),11	165,(78, 81),11	176,(73, 81),11	187,(2, 75),1	188,(3, 9),12	200,(3, 19),1	201,(3, 25),57	258,(3, 29),4	262,(3, 46),24	286,(3, 50),14	300,(3, 57),16	316,(3, 58),8	324,(3, 80),47	371,(48, 81),11	382,(55, 81),11	393,(65, 81),11	404,(24, 81),11	415,(37, 81),11	426,(64, 81),11	437,(5, 10),16	453,(5, 15),3	456,(5, 20),1	457,(5, 22),40	497,(5, 29),8	505,(5, 58),63	568,(5, 71),2	570,(53, 81),11	581,(66, 81),11	592,(32, 81),11	603,(28, 81),11	614,(60, 81),11	625,(41, 81),11	636,(54, 81),11	647,(8, 9),48	695,(8, 14),8	703,(8, 17),1	704,(8, 39),19	723,(8, 42),6	729,(8, 56),13	742,(8, 59),6	748,(8, 75),5	753,(18, 81),11	764,(61, 81),11	775,(38, 81),11	786,(27, 81),11	797,(77, 81),11	808,(23, 81),11	819,(40, 81),11	830,(74, 81),11	841,(62, 81),11	852,(69, 81),11	863,(44, 81),11	874,(36, 81),11	885,(34, 81),11	896,(68, 81),11	907,(13, 81),11	918,(52, 81),11	929,(79, 81),11	
1,(0, 1),3	4,(0, 2),3	7,(0, 3),3	10,(0, 5),3	13,(0, 8),3	16,(7, 18),1	17,(7, 61),2	19,(7, 79),1	20,(6, 36),1	21,(4, 34),1	
# Outgoing
1,(0, 1),3	4,(0, 2),3	7,(0, 3),3	10,(0, 5),3	13,(0, 8),3	16,(7, 18),1	17,(7, 61),2	19,(7, 79),1	20,(6, 36),1	21,(4, 34),1	
5,(1, 9),4	9,(1, 10),1	10,(1, 14),13	23,(1, 29),81	104,(1, 42),4	108,(1, 50),5	113,(1, 56),1	114,(1, 57),1	115,(1, 72),1	116,(1, 76),5	121,(31, 81),11	132,(33, 81),11	143,(43, 81),11	154,(51, 81),11	165,(78, 81),11	176,(73, 81),11	187,(2, 75),1	188,(3, 9),12	200,(3, 19),1	201,(3, 25),57	258,(3, 29),4	262,(3, 46),24	286,(3, 50),14	300,(3, 57),16	316,(3, 58),8	324,(3, 80),47	371,(48, 81),11	382,(55, 81),11	393,(65, 81),11	404,(24, 81),11	415,(37, 81),11	426,(64, 81),11	437,(5, 10),16	453,(5, 15),3	456,(5, 20),1	457,(5, 22),40	497,(5, 29),8	505,(5, 58),63	568,(5, 71),2	570,(53, 81),11	581,(66, 81),11	592,(32, 81),11	603,(28, 81),11	614,(60, 81),11	625,(41, 81),11	636,(54, 81),11	647,(8, 9),48	695,(8, 14),8	703,(8, 17),1	704,(8, 39),19	723,(8, 42),6	729,(8, 56),13	742,(8, 59),6	748,(8, 75),5	753,(18, 81),11	764,(61, 81),11	775,(38, 81),11	786,(27, 81),11	797,(77, 81),11	808,(23, 81),11	819,(40, 81),11	830,(74, 81),11	841,(62, 81),11	852,(69, 81),11	863,(44, 81),11	874,(36, 81),11	885,(34, 81),11	896,(68, 81),11	907,(13, 81),11	918,(52, 81),11	929,(79, 81),11	
