2427
# CPU
0,121,1	1,111,22	23,110,22	45,86,22	67,36,22	89,77,22	111,105,22	133,61,22	155,81,22	177,22,22	199,52,22	221,16,22	243,30,22	265,79,22	287,57,22	309,103,22	331,29,22	353,37,22	375,96,22	397,72,22	419,59,22	441,33,22	463,46,22	485,20,22	507,58,22	529,50,22	551,94,22	573,44,22	595,90,22	617,48,22	639,31,22	661,24,22	683,19,22	705,118,22	727,75,22	749,55,22	771,66,22	793,74,22	815,88,22	837,47,22	859,99,22	881,42,22	903,68,22	925,115,22	947,27,22	969,70,22	991,113,22	1013,112,22	1035,106,22	1057,64,22	1079,23,22	1101,51,22	1123,39,22	1145,102,22	1167,116,22	1189,49,22	1211,108,22	1233,71,22	1255,14,22	1277,65,22	1299,43,22	1321,26,22	1343,76,22	1365,114,22	1387,1,22	1409,5,22	1431,2,22	1453,12,22	1475,10,22	1544,8,22	1856,4,22	2225,9,22	2426,0,1	
31,73,22	211,95,22	271,117,22	331,17,22	361,40,22	391,67,22	481,83,22	691,107,22	781,53,22	811,15,22	961,45,22	1021,87,22	1051,34,22	1081,101,22	1111,80,22	1141,18,22	1201,41,22	1321,54,22	1351,60,22	1384,7,22	2401,11,22	
61,35,22	91,98,22	151,32,22	241,100,22	451,92,22	511,69,22	871,13,22	901,93,22	991,104,22	1171,56,22	1537,6,22	
121,63,22	181,119,22	301,21,22	421,84,22	541,89,22	571,28,22	601,25,22	631,78,22	661,82,22	721,62,22	751,109,22	841,38,22	931,91,22	1231,97,22	1261,85,22	1291,120,22	2072,3,22	
# Incoming
113,(98, 1),3	116,(35, 2),3	173,(32, 5),3	176,(32, 4),6	263,(100, 2),9	293,(117, 1),6	383,(40, 10),3	413,(67, 1),15	473,(92, 2),18	503,(83, 10),18	521,(83, 9),3	533,(69, 10),21	554,(69, 9),6	566,(21, 2),9	575,(63, 12),3	578,(84, 10),15	593,(28, 1),21	620,(84, 8),3	623,(25, 2),24	647,(63, 8),6	653,(21, 4),9	662,(78, 4),3	665,(84, 9),12	683,(82, 8),27	710,(82, 4),6	716,(89, 9),21	743,(62, 2),33	776,(62, 9),12	803,(53, 5),3	806,(53, 12),39	845,(109, 10),36	881,(53, 4),9	893,(13, 5),3	896,(15, 10),21	923,(93, 12),51	974,(93, 10),30	1103,(101, 1),3	1133,(80, 12),6	1163,(18, 9),6	1223,(41, 12),3	1283,(85, 1),3	1313,(120, 5),30	1343,(54, 5),9	1352,(120, 10),3	1373,(60, 5),9	1382,(56, 8),162	1544,(101, 4),108	1652,(18, 4),129	1781,(41, 4),27	1808,(54, 4),48	1856,(85, 9),369	2225,(7, 0),3	2228,(6, 0),3	2231,(3, 0),3	2423,(11, 0),3	
1,(121, 73),30	181,(121, 95),30	241,(121, 117),30	301,(121, 17),30	331,(121, 40),30	361,(121, 67),30	451,(121, 83),30	563,(89, 7),3	661,(121, 107),30	737,(28, 11),6	751,(121, 53),30	781,(121, 15),30	811,(25, 11),9	820,(78, 11),24	931,(121, 45),30	961,(91, 7),3	991,(121, 87),30	1021,(121, 34),30	1051,(121, 101),30	1081,(121, 80),30	1111,(121, 18),30	1171,(121, 41),30	1201,(91, 11),60	1261,(97, 11),15	1291,(121, 54),30	1321,(121, 60),30	1351,(86, 7),3	1354,(61, 7),6	1360,(50, 7),3	1363,(66, 7),18	1381,(27, 7),3	1384,(120, 11),396	1831,(105, 11),6	1837,(79, 11),9	1846,(20, 11),18	1864,(31, 11),3	1867,(24, 11),3	1870,(88, 11),42	1912,(42, 11),3	1915,(115, 11),54	1969,(64, 11),63	2032,(65, 11),369	
31,(121, 35),30	61,(121, 98),30	121,(121, 32),30	211,(121, 100),30	299,(73, 6),3	421,(121, 92),30	481,(121, 69),30	614,(119, 6),6	841,(121, 13),30	871,(121, 93),30	901,(38, 6),42	961,(121, 104),30	991,(45, 6),39	1141,(121, 56),30	1226,(87, 6),93	1343,(97, 6),9	1384,(52, 6),3	1387,(30, 6),9	1396,(31, 6),12	1408,(66, 6),36	1444,(71, 6),93	
91,(121, 63),30	151,(121, 119),30	271,(121, 21),30	302,(95, 3),3	391,(121, 84),30	511,(121, 89),30	541,(121, 28),30	571,(121, 25),30	601,(121, 78),30	631,(121, 82),30	691,(121, 62),30	721,(121, 109),30	751,(107, 3),18	811,(121, 38),30	901,(121, 91),30	1030,(45, 3),9	1039,(104, 3),48	1201,(121, 97),30	1231,(121, 85),30	1261,(121, 120),30	1382,(80, 3),114	1496,(54, 3),30	1537,(61, 3),6	1543,(37, 3),12	1555,(50, 3),21	1576,(44, 3),12	1588,(24, 3),27	1615,(118, 3),3	1618,(75, 3),3	1621,(47, 3),15	1636,(112, 3),87	1723,(64, 3),105	1828,(43, 3),3	1856,(41, 3),216	
# Outgoing
1,(121, 73),30	31,(121, 35),30	61,(121, 98),30	91,(121, 63),30	121,(121, 32),30	151,(121, 119),30	181,(121, 95),30	211,(121, 100),30	241,(121, 117),30	271,(121, 21),30	301,(121, 17),30	331,(121, 40),30	361,(121, 67),30	391,(121, 84),30	421,(121, 92),30	451,(121, 83),30	481,(121, 69),30	511,(121, 89),30	541,(121, 28),30	571,(121, 25),30	601,(121, 78),30	631,(121, 82),30	661,(121, 107),30	691,(121, 62),30	721,(121, 109),30	751,(121, 53),30	781,(121, 15),30	811,(121, 38),30	841,(121, 13),30	871,(121, 93),30	901,(121, 91),30	931,(121, 45),30	961,(121, 104),30	991,(121, 87),30	1021,(121, 34),30	1051,(121, 101),30	1081,(121, 80),30	1111,(121, 18),30	1141,(121, 56),30	1171,(121, 41),30	1201,(121, 97),30	1231,(121, 85),30	1261,(121, 120),30	1291,(121, 54),30	1321,(121, 60),30	1351,(86, 7),3	1354,(61, 7),6	1360,(50, 7),3	1363,(66, 7),18	1381,(27, 7),3	1384,(52, 6),3	1387,(30, 6),9	1396,(31, 6),12	1408,(66, 6),36	1444,(71, 6),93	1537,(61, 3),6	1543,(37, 3),12	1555,(50, 3),21	1576,(44, 3),12	1588,(24, 3),27	1615,(118, 3),3	1618,(75, 3),3	1621,(47, 3),15	1636,(112, 3),87	1723,(64, 3),105	1828,(43, 3),3	1831,(105, 11),6	1837,(79, 11),9	1846,(20, 11),18	1864,(31, 11),3	1867,(24, 11),3	1870,(88, 11),42	1912,(42, 11),3	1915,(115, 11),54	1969,(64, 11),63	2032,(65, 11),369	
293,(117, 1),6	299,(73, 6),3	302,(95, 3),3	383,(40, 10),3	413,(67, 1),15	503,(83, 10),18	521,(83, 9),3	751,(107, 3),18	803,(53, 5),3	806,(53, 12),39	881,(53, 4),9	896,(15, 10),21	991,(45, 6),39	1030,(45, 3),9	1103,(101, 1),3	1133,(80, 12),6	1163,(18, 9),6	1223,(41, 12),3	1226,(87, 6),93	1343,(54, 5),9	1373,(60, 5),9	1382,(80, 3),114	1496,(54, 3),30	1544,(101, 4),108	1652,(18, 4),129	1781,(41, 4),27	1808,(54, 4),48	1856,(41, 3),216	2225,(7, 0),3	2423,(11, 0),3	
113,(98, 1),3	116,(35, 2),3	173,(32, 5),3	176,(32, 4),6	263,(100, 2),9	473,(92, 2),18	533,(69, 10),21	554,(69, 9),6	893,(13, 5),3	923,(93, 12),51	974,(93, 10),30	1039,(104, 3),48	1382,(56, 8),162	2228,(6, 0),3	
563,(89, 7),3	566,(21, 2),9	575,(63, 12),3	578,(84, 10),15	593,(28, 1),21	614,(119, 6),6	620,(84, 8),3	623,(25, 2),24	647,(63, 8),6	653,(21, 4),9	662,(78, 4),3	665,(84, 9),12	683,(82, 8),27	710,(82, 4),6	716,(89, 9),21	737,(28, 11),6	743,(62, 2),33	776,(62, 9),12	811,(25, 11),9	820,(78, 11),24	845,(109, 10),36	901,(38, 6),42	961,(91, 7),3	1201,(91, 11),60	1261,(97, 11),15	1283,(85, 1),3	1313,(120, 5),30	1343,(97, 6),9	1352,(120, 10),3	1384,(120, 11),396	1856,(85, 9),369	2231,(3, 0),3	
