1197
# CPU
0,0,1	1,17,1	2,79,1	3,12,1	4,199,1	5,133,1	6,85,1	7,184,1	8,120,1	9,171,1	10,172,1	11,37,1	12,105,1	13,3,1	14,186,1	15,73,1	16,164,1	17,182,1	18,15,1	19,169,1	20,153,1	21,110,1	22,103,1	23,44,1	24,176,1	25,92,1	26,137,1	27,179,1	28,55,1	29,131,1	30,48,1	31,158,1	32,2,1	33,107,1	34,90,1	35,50,1	36,58,1	37,26,1	38,124,1	39,106,1	40,14,1	41,71,1	42,47,1	43,65,1	44,193,1	45,117,1	46,31,1	47,159,1	48,180,1	49,178,1	50,200,1	51,167,1	52,95,1	53,4,1	54,183,1	55,36,1	56,130,1	57,166,1	58,163,1	59,174,1	60,23,1	61,112,1	62,185,1	63,20,1	64,40,1	65,33,1	66,146,1	67,196,1	68,134,1	69,135,1	70,156,1	71,168,1	72,162,1	73,51,1	74,145,1	75,98,1	76,49,1	77,10,1	78,64,1	79,140,1	80,72,1	81,104,1	82,83,1	83,25,1	84,187,1	85,149,1	86,6,1	87,157,1	88,38,1	89,46,1	90,53,1	91,123,1	92,138,1	93,29,1	94,61,1	95,39,1	96,13,1	97,56,1	98,101,1	99,147,1	100,114,1	101,141,1	102,67,1	103,144,1	104,102,1	105,18,1	106,27,1	107,170,1	108,148,1	109,80,1	110,151,1	111,35,1	112,100,1	113,59,1	114,28,1	115,99,1	116,93,1	117,43,1	118,175,1	119,143,1	120,9,1	121,42,1	122,22,1	123,128,1	124,111,1	125,191,1	126,129,1	127,113,1	128,181,1	129,127,1	130,76,1	131,11,1	132,84,1	133,63,1	134,122,1	135,89,1	136,74,1	137,155,1	138,57,1	143,189,1	147,165,1	151,82,1	155,30,1	159,66,1	163,96,1	167,194,1	171,108,1	175,192,1	179,115,1	183,41,1	191,150,1	199,87,1	207,94,1	223,60,1	243,91,1	267,62,1	295,109,1	323,45,1	367,118,1	415,121,1	475,68,1	539,125,1	699,154,1	1195,160,1	1196,201,1	
9,7,1	10,21,1	17,5,1	18,139,1	19,161,1	20,197,1	21,132,1	22,75,1	23,126,1	24,195,1	25,19,1	26,24,1	27,78,1	28,119,1	29,190,1	30,152,1	31,177,1	32,69,1	33,8,1	34,54,1	35,142,1	36,86,1	37,97,1	38,52,1	39,136,1	40,188,1	41,1,1	42,77,1	43,116,1	44,34,1	45,88,1	46,81,1	49,16,1	50,70,1	51,173,1	52,198,1	53,32,1	
# Incoming
11,(21, 201),4	19,(139, 201),4	23,(161, 201),4	27,(197, 201),4	31,(132, 201),4	35,(75, 201),4	39,(126, 201),4	43,(195, 201),4	47,(24, 201),4	51,(78, 201),4	55,(119, 201),4	59,(190, 201),4	63,(152, 201),4	67,(177, 201),4	71,(69, 201),4	75,(54, 201),4	79,(142, 201),4	83,(86, 201),4	87,(97, 201),4	91,(52, 201),4	95,(136, 201),4	99,(188, 201),4	103,(77, 201),4	107,(116, 201),4	111,(34, 201),4	115,(88, 201),4	119,(81, 201),4	123,(70, 201),4	127,(173, 201),4	131,(198, 201),4	135,(32, 201),4	139,(5, 189),4	143,(1, 165),4	147,(19, 82),4	151,(19, 30),4	155,(8, 66),4	159,(8, 96),4	163,(16, 194),4	167,(5, 108),4	171,(19, 192),4	175,(8, 115),4	179,(16, 41),4	183,(5, 150),8	191,(1, 87),8	199,(16, 94),8	207,(8, 60),16	223,(16, 91),20	243,(5, 62),24	267,(8, 109),28	295,(1, 45),28	323,(7, 118),44	367,(1, 121),48	415,(8, 68),60	475,(8, 125),64	539,(19, 154),160	699,(16, 160),496	
1,(0, 7),8	9,(0, 5),8	17,(0, 19),8	25,(0, 8),8	33,(0, 1),8	41,(0, 16),8	
# Outgoing
1,(0, 7),8	9,(0, 5),8	17,(0, 19),8	25,(0, 8),8	33,(0, 1),8	41,(0, 16),8	
11,(21, 201),4	19,(139, 201),4	23,(161, 201),4	27,(197, 201),4	31,(132, 201),4	35,(75, 201),4	39,(126, 201),4	43,(195, 201),4	47,(24, 201),4	51,(78, 201),4	55,(119, 201),4	59,(190, 201),4	63,(152, 201),4	67,(177, 201),4	71,(69, 201),4	75,(54, 201),4	79,(142, 201),4	83,(86, 201),4	87,(97, 201),4	91,(52, 201),4	95,(136, 201),4	99,(188, 201),4	103,(77, 201),4	107,(116, 201),4	111,(34, 201),4	115,(88, 201),4	119,(81, 201),4	123,(70, 201),4	127,(173, 201),4	131,(198, 201),4	135,(32, 201),4	139,(5, 189),4	143,(1, 165),4	147,(19, 82),4	151,(19, 30),4	155,(8, 66),4	159,(8, 96),4	163,(16, 194),4	167,(5, 108),4	171,(19, 192),4	175,(8, 115),4	179,(16, 41),4	183,(5, 150),8	191,(1, 87),8	199,(16, 94),8	207,(8, 60),16	223,(16, 91),20	243,(5, 62),24	267,(8, 109),28	295,(1, 45),28	323,(7, 118),44	367,(1, 121),48	415,(8, 68),60	475,(8, 125),64	539,(19, 154),160	699,(16, 160),496	
