1111
# CPU
0,201,1	1,143,1	2,139,1	3,59,1	4,65,1	5,172,1	6,191,1	7,51,1	8,101,1	9,97,1	10,109,1	11,32,1	12,135,1	13,67,1	14,144,1	15,122,1	16,168,1	17,30,1	18,156,1	19,196,1	20,165,1	21,90,1	22,179,1	23,39,1	24,186,1	25,121,1	26,120,1	27,47,1	28,138,1	29,107,1	30,160,1	31,117,1	32,75,1	33,125,1	34,86,1	35,85,1	36,129,1	37,81,1	38,182,1	39,66,1	40,54,1	41,145,1	42,29,1	43,164,1	44,21,1	45,181,1	46,194,1	47,134,1	48,159,1	49,190,1	50,119,1	51,52,1	52,102,1	53,22,1	54,61,1	55,151,1	56,57,1	57,137,1	58,163,1	59,158,1	60,152,1	61,77,1	62,103,1	63,93,1	64,72,1	65,71,1	66,177,1	67,79,1	68,148,1	69,131,1	70,128,1	71,63,1	72,193,1	73,49,1	74,162,1	75,38,1	76,192,1	77,180,1	78,56,1	79,55,1	80,130,1	81,45,1	82,153,1	83,80,1	84,64,1	85,198,1	86,89,1	87,185,1	88,150,1	89,146,1	90,84,1	91,176,1	92,88,1	93,171,1	94,113,1	95,33,1	96,200,1	97,154,1	98,25,1	99,108,1	100,99,1	101,68,1	102,60,1	103,41,1	104,31,1	105,174,1	106,141,1	107,187,1	108,112,1	109,96,1	110,83,1	111,127,1	112,74,1	113,157,1	114,82,1	115,147,1	116,170,1	117,42,1	118,46,1	119,188,1	120,178,1	121,116,1	122,43,1	123,44,1	124,28,1	125,105,1	126,70,1	127,34,1	128,91,1	129,173,1	130,58,1	131,133,1	132,36,1	133,92,1	134,126,1	135,197,1	136,195,1	137,98,1	138,50,1	139,23,1	140,100,1	141,161,1	142,94,1	143,111,1	144,110,1	145,124,1	146,136,1	147,37,1	148,62,1	149,104,1	150,26,1	151,132,1	152,53,1	153,169,1	154,40,1	155,167,1	156,118,1	157,73,1	158,166,1	159,123,1	160,199,1	161,184,1	162,48,1	163,149,1	164,7,1	165,35,1	166,78,1	167,76,1	168,87,1	169,106,1	170,175,1	171,140,1	172,15,1	173,20,1	174,27,1	175,17,1	176,6,1	177,142,1	178,4,1	179,95,1	180,1,1	181,115,1	182,9,1	183,13,1	184,24,1	185,19,1	186,11,1	187,114,1	188,16,1	189,3,1	190,189,1	191,10,1	192,183,1	193,12,1	194,2,1	195,5,1	238,8,1	1094,14,1	1110,0,1	
93,155,1	185,69,1	565,18,1	


# Incoming
94,(155, 5),40	186,(69, 8),52	238,(69, 14),856	1094,(18, 0),16	
1,(201, 155),92	93,(201, 69),92	185,(181, 18),12	197,(177, 18),4	201,(38, 18),24	225,(45, 18),28	253,(89, 18),32	285,(84, 18),8	293,(74, 18),56	349,(157, 18),60	409,(46, 18),64	473,(105, 18),72	545,(70, 18),8	553,(124, 18),4	557,(40, 18),4	561,(167, 18),4	


# Outgoing
1,(201, 155),92	93,(201, 69),92	185,(181, 18),12	197,(177, 18),4	201,(38, 18),24	225,(45, 18),28	253,(89, 18),32	285,(84, 18),8	293,(74, 18),56	349,(157, 18),60	409,(46, 18),64	473,(105, 18),72	545,(70, 18),8	553,(124, 18),4	557,(40, 18),4	561,(167, 18),4	
94,(155, 5),40	186,(69, 8),52	238,(69, 14),856	1094,(18, 0),16	


