2570
# CPU
301,4,17	318,5,17	335,39,17	352,16,17	369,21,17	386,20,17	403,33,17	420,17,17	437,22,17	454,18,17	471,23,17	488,28,17	505,12,17	522,31,17	997,37,17	
429,9,17	1157,40,17	1509,10,17	1797,34,17	1853,36,17	1937,8,17	1957,15,17	1974,29,17	1993,35,17	2569,41,1	
101,2,17	118,30,17	321,11,17	338,6,17	355,13,17	372,14,17	389,25,17	406,27,17	
201,3,17	218,7,17	235,26,17	
0,0,1	1,1,17	
365,19,17	
385,24,17	
449,32,17	
1001,38,17	

# Incoming
201,(0, 4),100	301,(2, 5),4	305,(2, 28),4	309,(2, 39),4	325,(1, 18),12	365,(1, 23),4	393,(1, 28),8	429,(3, 12),4	433,(3, 31),4	993,(1, 37),4	
301,(1, 8),4	305,(1, 10),12	317,(2, 8),12	329,(2, 9),20	349,(2, 35),28	377,(2, 40),8	385,(30, 41),24	409,(3, 9),20	429,(4, 10),20	449,(1, 36),544	1001,(1, 40),156	1157,(2, 29),116	1273,(2, 34),204	1477,(3, 10),32	1509,(3, 15),244	1753,(3, 34),44	1797,(3, 36),56	1853,(7, 41),24	1877,(26, 41),24	1901,(4, 8),36	1937,(4, 15),20	1957,(4, 29),12	1969,(4, 35),24	1993,(5, 41),24	2017,(11, 41),24	2041,(39, 41),24	2065,(6, 41),24	2089,(16, 41),24	2113,(13, 41),24	2137,(19, 41),24	2161,(21, 41),24	2185,(14, 41),24	2209,(24, 41),24	2233,(20, 41),24	2257,(25, 41),24	2281,(33, 41),24	2305,(27, 41),24	2329,(17, 41),24	2353,(22, 41),24	2377,(32, 41),24	2401,(18, 41),24	2425,(23, 41),24	2449,(28, 41),24	2473,(12, 41),24	2497,(31, 41),24	2521,(37, 41),24	2545,(38, 41),24	
1,(0, 2),100	317,(1, 11),4	321,(1, 14),4	325,(4, 6),4	329,(4, 13),4	333,(4, 14),4	385,(1, 25),4	389,(1, 27),4	
101,(0, 3),100	

337,(1, 19),28	
369,(1, 24),16	
401,(1, 32),48	
997,(1, 38),4	

# Outgoing
325,(4, 6),4	329,(4, 13),4	333,(4, 14),4	429,(4, 10),20	1901,(4, 8),36	1937,(4, 15),20	1957,(4, 29),12	1969,(4, 35),24	1993,(5, 41),24	2041,(39, 41),24	2089,(16, 41),24	2161,(21, 41),24	2233,(20, 41),24	2281,(33, 41),24	2329,(17, 41),24	2353,(22, 41),24	2401,(18, 41),24	2425,(23, 41),24	2449,(28, 41),24	2473,(12, 41),24	2497,(31, 41),24	2521,(37, 41),24	

301,(2, 5),4	305,(2, 28),4	309,(2, 39),4	317,(2, 8),12	329,(2, 9),20	349,(2, 35),28	377,(2, 40),8	385,(30, 41),24	1157,(2, 29),116	1273,(2, 34),204	2017,(11, 41),24	2065,(6, 41),24	2113,(13, 41),24	2185,(14, 41),24	2257,(25, 41),24	2305,(27, 41),24	
409,(3, 9),20	429,(3, 12),4	433,(3, 31),4	1477,(3, 10),32	1509,(3, 15),244	1753,(3, 34),44	1797,(3, 36),56	1853,(7, 41),24	1877,(26, 41),24	
1,(0, 2),100	101,(0, 3),100	201,(0, 4),100	301,(1, 8),4	305,(1, 10),12	317,(1, 11),4	321,(1, 14),4	325,(1, 18),12	337,(1, 19),28	365,(1, 23),4	369,(1, 24),16	385,(1, 25),4	389,(1, 27),4	393,(1, 28),8	401,(1, 32),48	449,(1, 36),544	993,(1, 37),4	997,(1, 38),4	1001,(1, 40),156	
2137,(19, 41),24	
2209,(24, 41),24	
2377,(32, 41),24	
2545,(38, 41),24	

