1956
# CPU
0,201,1	1,116,1	2,164,1	3,127,1	4,126,1	5,106,1	6,191,1	7,130,1	8,159,1	9,114,1	10,188,1	11,149,1	12,174,1	13,101,1	14,115,1	15,157,1	16,156,1	17,125,1	18,69,1	19,52,1	20,103,1	21,124,1	22,67,1	23,150,1	24,141,1	25,27,1	26,94,1	27,87,1	28,68,1	29,54,1	30,184,1	31,171,1	32,78,1	33,84,1	34,55,1	35,113,1	36,179,1	37,122,1	38,167,1	39,74,1	40,90,1	41,51,1	42,192,1	43,187,1	44,178,1	45,148,1	46,50,1	47,170,1	48,177,1	49,145,1	50,195,1	51,135,1	52,176,1	53,162,1	54,99,1	55,190,1	56,172,1	57,39,1	58,60,1	59,45,1	60,56,1	61,73,1	62,189,1	63,147,1	64,117,1	65,104,1	66,86,1	67,21,1	68,136,1	69,59,1	70,24,1	71,118,1	72,97,1	73,182,1	74,89,1	75,144,1	76,66,1	77,46,1	78,23,1	79,186,1	80,158,1	81,72,1	82,37,1	83,173,1	84,38,1	85,41,1	86,88,1	87,92,1	88,151,1	89,110,1	90,43,1	91,152,1	92,29,1	93,77,1	94,58,1	95,53,1	96,64,1	97,26,1	98,62,1	99,175,1	100,183,1	101,70,1	102,44,1	103,95,1	104,71,1	105,193,1	106,96,1	107,146,1	108,197,1	109,196,1	110,185,1	111,194,1	112,119,1	113,155,1	114,76,1	115,198,1	116,105,1	117,100,1	118,131,1	119,112,1	120,79,1	121,132,1	122,180,1	123,199,1	124,129,1	125,30,1	126,85,1	127,168,1	128,75,1	129,181,1	130,83,1	131,161,1	132,82,1	133,153,1	134,22,1	135,200,1	136,160,1	137,61,1	138,49,1	139,57,1	140,107,1	141,42,1	142,63,1	143,25,1	144,128,1	145,31,1	146,98,1	147,40,1	148,35,1	149,91,1	150,102,1	151,169,1	152,137,1	153,121,1	154,163,1	155,109,1	156,32,1	157,81,1	158,154,1	159,140,1	160,33,1	161,34,1	162,142,1	163,15,1	164,138,1	165,165,1	166,9,1	167,134,1	168,65,1	169,93,1	170,2,1	171,12,1	172,1,1	173,13,1	174,3,1	190,7,1	214,19,1	250,6,1	286,20,1	330,17,1	422,5,1	534,10,1	654,16,1	794,18,1	982,4,1	1222,11,1	1466,14,1	1954,8,1	1955,0,1	
25,139,1	85,48,1	121,108,1	

37,80,1	

145,143,1	157,111,1	

13,36,1	73,47,1	97,133,1	

49,123,1	61,166,1	109,120,1	133,28,1	
# Incoming
26,(139, 2),4	30,(139, 7),12	42,(36, 20),8	50,(123, 1),28	78,(123, 13),4	82,(123, 7),4	86,(48, 2),4	90,(48, 12),12	102,(166, 13),24	126,(48, 3),4	130,(166, 6),4	134,(28, 19),4	138,(139, 20),4	142,(108, 16),4	146,(143, 12),4	150,(143, 3),24	174,(28, 7),16	190,(80, 19),24	214,(108, 6),20	234,(28, 6),16	250,(48, 20),36	286,(133, 17),44	330,(133, 5),92	422,(120, 10),112	534,(166, 16),40	574,(120, 16),80	654,(47, 18),52	706,(120, 18),88	794,(47, 4),4	798,(28, 4),184	982,(47, 11),36	1018,(48, 11),64	1082,(108, 11),140	1222,(47, 14),8	1230,(143, 14),236	1466,(28, 8),56	1522,(143, 8),80	1602,(111, 8),352	
13,(201, 139),12	73,(201, 48),12	109,(201, 108),12	

25,(201, 80),12	

133,(201, 143),12	145,(201, 111),12	

1,(201, 36),12	61,(201, 47),12	85,(201, 133),12	

37,(201, 123),12	49,(201, 166),12	97,(201, 120),12	121,(201, 28),12	
# Outgoing
1,(201, 36),12	13,(201, 139),12	25,(201, 80),12	37,(201, 123),12	49,(201, 166),12	61,(201, 47),12	73,(201, 48),12	85,(201, 133),12	97,(201, 120),12	109,(201, 108),12	121,(201, 28),12	133,(201, 143),12	145,(201, 111),12	
26,(139, 2),4	30,(139, 7),12	86,(48, 2),4	90,(48, 12),12	126,(48, 3),4	138,(139, 20),4	142,(108, 16),4	214,(108, 6),20	250,(48, 20),36	1018,(48, 11),64	1082,(108, 11),140	

190,(80, 19),24	

146,(143, 12),4	150,(143, 3),24	1230,(143, 14),236	1522,(143, 8),80	1602,(111, 8),352	

42,(36, 20),8	286,(133, 17),44	330,(133, 5),92	654,(47, 18),52	794,(47, 4),4	982,(47, 11),36	1222,(47, 14),8	

50,(123, 1),28	78,(123, 13),4	82,(123, 7),4	102,(166, 13),24	130,(166, 6),4	134,(28, 19),4	174,(28, 7),16	234,(28, 6),16	422,(120, 10),112	534,(166, 16),40	574,(120, 16),80	706,(120, 18),88	798,(28, 4),184	1466,(28, 8),56	
