75
# CPU
35,17,5	
49,16,5	
22,14,5	
44,19,5	49,13,5	
30,12,5	
27,10,5	
18,9,5	44,18,5	60,20,5	
15,8,5	40,15,5	74,21,1	
6,2,5	11,5,5	16,7,5	21,11,5	
0,0,1	1,1,5	6,6,5	15,3,5	24,4,5	
# Incoming
30,(2, 17),5	
40,(1, 16),3	45,(2, 16),4	
18,(1, 14),4	
43,(1, 19),1	44,(2, 13),1	
27,(2, 12),3	
24,(2, 10),3	
15,(1, 9),3	35,(2, 18),9	44,(1, 20),16	
6,(1, 8),9	22,(1, 15),18	40,(9, 21),2	42,(14, 21),2	44,(10, 21),2	46,(12, 21),2	49,(5, 21),2	51,(7, 21),2	53,(11, 21),2	55,(17, 21),2	57,(18, 21),2	60,(6, 21),2	62,(3, 21),2	64,(4, 21),2	66,(19, 21),2	68,(16, 21),2	70,(13, 21),2	72,(20, 21),2	
1,(0, 2),5	
11,(2, 3),4	15,(2, 4),9	
# Outgoing
55,(17, 21),2	
68,(16, 21),2	
42,(14, 21),2	
66,(19, 21),2	70,(13, 21),2	
46,(12, 21),2	
44,(10, 21),2	
40,(9, 21),2	57,(18, 21),2	72,(20, 21),2	

11,(2, 3),4	15,(2, 4),9	24,(2, 10),3	27,(2, 12),3	30,(2, 17),5	35,(2, 18),9	44,(2, 13),1	45,(2, 16),4	49,(5, 21),2	51,(7, 21),2	53,(11, 21),2	
1,(0, 2),5	6,(1, 8),9	15,(1, 9),3	18,(1, 14),4	22,(1, 15),18	40,(1, 16),3	43,(1, 19),1	44,(1, 20),16	60,(6, 21),2	62,(3, 21),2	64,(4, 21),2	
