6202
# CPU
25,4,1	26,12,1	27,16,1	28,36,1	57,8,1	151,20,1	181,32,1	313,24,1	487,28,1	559,40,1	
17,3,1	18,19,1	19,35,1	20,31,1	31,7,1	103,15,1	321,27,1	571,11,1	617,23,1	649,39,1	
9,2,1	10,6,1	95,10,1	97,18,1	181,30,1	195,38,1	205,34,1	599,14,1	601,22,1	645,26,1	
0,0,1	1,1,1	345,17,1	367,21,1	371,33,1	401,37,1	511,5,1	515,9,1	1407,13,1	1413,25,1	1417,29,1	6201,41,1	
# Incoming
17,(0, 4),8	25,(2, 8),30	55,(3, 8),2	57,(3, 24),2	103,(1, 20),48	151,(1, 32),30	305,(2, 24),8	321,(2, 28),166	487,(2, 40),72	
9,(0, 3),8	17,(2, 7),2	25,(1, 7),6	55,(2, 11),10	95,(1, 15),8	313,(2, 27),8	515,(4, 11),56	601,(4, 23),16	645,(4, 39),4	
1,(0, 2),8	31,(1, 10),64	95,(3, 18),2	97,(3, 30),84	181,(1, 38),14	195,(3, 34),10	571,(4, 14),28	599,(4, 22),2	617,(4, 26),28	
65,(2, 17),238	303,(2, 21),2	305,(3, 17),40	345,(3, 21),22	367,(3, 33),4	371,(3, 37),30	401,(4, 5),110	511,(4, 9),4	559,(6, 41),208	767,(19, 41),208	975,(35, 41),208	1183,(31, 41),208	1391,(4, 13),16	1407,(4, 25),6	1413,(4, 29),4	1417,(12, 41),208	1625,(16, 41),208	1833,(36, 41),208	2041,(7, 41),208	2249,(8, 41),208	2457,(10, 41),208	2665,(18, 41),208	2873,(15, 41),208	3081,(20, 41),208	3289,(30, 41),208	3497,(32, 41),208	3705,(38, 41),208	3913,(34, 41),208	4121,(24, 41),208	4329,(27, 41),208	4537,(28, 41),208	4745,(40, 41),208	4953,(11, 41),208	5161,(14, 41),208	5369,(22, 41),208	5577,(23, 41),208	5785,(26, 41),208	5993,(39, 41),208	
# Outgoing
401,(4, 5),110	511,(4, 9),4	515,(4, 11),56	571,(4, 14),28	599,(4, 22),2	601,(4, 23),16	617,(4, 26),28	645,(4, 39),4	1391,(4, 13),16	1407,(4, 25),6	1413,(4, 29),4	1417,(12, 41),208	1625,(16, 41),208	1833,(36, 41),208	2249,(8, 41),208	3081,(20, 41),208	3497,(32, 41),208	4121,(24, 41),208	4537,(28, 41),208	4745,(40, 41),208	
55,(3, 8),2	57,(3, 24),2	95,(3, 18),2	97,(3, 30),84	195,(3, 34),10	305,(3, 17),40	345,(3, 21),22	367,(3, 33),4	371,(3, 37),30	767,(19, 41),208	975,(35, 41),208	1183,(31, 41),208	2041,(7, 41),208	2873,(15, 41),208	4329,(27, 41),208	4953,(11, 41),208	5577,(23, 41),208	5993,(39, 41),208	
17,(2, 7),2	25,(2, 8),30	55,(2, 11),10	65,(2, 17),238	303,(2, 21),2	305,(2, 24),8	313,(2, 27),8	321,(2, 28),166	487,(2, 40),72	559,(6, 41),208	2457,(10, 41),208	2665,(18, 41),208	3289,(30, 41),208	3705,(38, 41),208	3913,(34, 41),208	5161,(14, 41),208	5369,(22, 41),208	5785,(26, 41),208	
1,(0, 2),8	9,(0, 3),8	17,(0, 4),8	25,(1, 7),6	31,(1, 10),64	95,(1, 15),8	103,(1, 20),48	151,(1, 32),30	181,(1, 38),14	
