1646
# CPU
109,13,10	119,28,10	129,36,10	139,38,10	1261,19,10	1279,21,10	1325,22,10	1335,31,10	1345,25,10	1501,34,10	1601,40,10	
19,4,10	29,10,10	39,17,10	49,16,10	59,29,10	155,32,10	183,35,10	193,39,10	1191,14,10	1359,26,10	1591,37,10	1645,41,1	
13,3,10	35,9,10	103,24,10	1177,33,10	1217,11,10	1259,15,10	1327,27,10	1421,30,10	
7,2,10	17,7,10	27,8,10	1189,12,10	1339,23,10	1403,20,10	
0,0,1	1,1,10	1135,18,10	1145,5,10	1185,6,10	
# Incoming
103,(1, 25),4	107,(2, 13),2	109,(2, 19),2	111,(2, 28),2	113,(2, 36),10	123,(2, 38),2	125,(2, 40),2	1135,(2, 31),28	1177,(2, 34),50	1259,(4, 19),2	1261,(4, 21),18	1279,(4, 22),46	1327,(4, 31),8	1339,(3, 25),2	1421,(4, 34),80	1591,(3, 40),10	
13,(0, 4),6	19,(2, 10),2	21,(2, 26),2	23,(2, 29),16	39,(7, 41),4	43,(8, 41),4	119,(13, 41),4	129,(28, 41),4	137,(1, 32),18	155,(1, 35),28	183,(1, 39),2	185,(36, 41),4	189,(38, 41),4	1145,(18, 41),4	1155,(5, 41),4	1189,(3, 14),2	1195,(6, 41),4	1227,(12, 41),4	1271,(19, 41),4	1289,(21, 41),4	1335,(22, 41),4	1341,(3, 26),18	1359,(3, 37),232	1591,(31, 41),4	1595,(23, 41),4	1601,(9, 41),4	1605,(24, 41),4	1609,(33, 41),4	1613,(11, 41),4	1617,(15, 41),4	1621,(27, 41),4	1625,(25, 41),4	1629,(20, 41),4	1633,(30, 41),4	1637,(34, 41),4	1641,(40, 41),4	
7,(0, 3),6	25,(1, 9),10	35,(1, 11),58	101,(1, 24),2	107,(1, 27),28	135,(1, 30),2	137,(2, 11),10	147,(2, 15),20	1163,(2, 33),14	1185,(4, 11),32	1217,(4, 15),42	1325,(4, 27),2	1403,(4, 30),18	
1,(0, 2),6	19,(1, 8),6	93,(1, 12),2	95,(1, 23),6	1137,(3, 12),52	1191,(3, 23),148	1339,(4, 20),64	
167,(2, 18),968	1135,(3, 5),2	1137,(4, 5),2	1139,(4, 6),46	
# Outgoing
119,(13, 41),4	129,(28, 41),4	185,(36, 41),4	189,(38, 41),4	1271,(19, 41),4	1289,(21, 41),4	1335,(22, 41),4	1591,(31, 41),4	1625,(25, 41),4	1637,(34, 41),4	1641,(40, 41),4	
1137,(4, 5),2	1139,(4, 6),46	1185,(4, 11),32	1217,(4, 15),42	1259,(4, 19),2	1261,(4, 21),18	1279,(4, 22),46	1325,(4, 27),2	1327,(4, 31),8	1339,(4, 20),64	1403,(4, 30),18	1421,(4, 34),80	
1135,(3, 5),2	1137,(3, 12),52	1189,(3, 14),2	1191,(3, 23),148	1339,(3, 25),2	1341,(3, 26),18	1359,(3, 37),232	1591,(3, 40),10	1601,(9, 41),4	1605,(24, 41),4	1609,(33, 41),4	1613,(11, 41),4	1617,(15, 41),4	1621,(27, 41),4	1633,(30, 41),4	
19,(2, 10),2	21,(2, 26),2	23,(2, 29),16	39,(7, 41),4	43,(8, 41),4	107,(2, 13),2	109,(2, 19),2	111,(2, 28),2	113,(2, 36),10	123,(2, 38),2	125,(2, 40),2	137,(2, 11),10	147,(2, 15),20	167,(2, 18),968	1135,(2, 31),28	1163,(2, 33),14	1177,(2, 34),50	1227,(12, 41),4	1595,(23, 41),4	1629,(20, 41),4	
1,(0, 2),6	7,(0, 3),6	13,(0, 4),6	19,(1, 8),6	25,(1, 9),10	35,(1, 11),58	93,(1, 12),2	95,(1, 23),6	101,(1, 24),2	103,(1, 25),4	107,(1, 27),28	135,(1, 30),2	137,(1, 32),18	155,(1, 35),28	183,(1, 39),2	1145,(18, 41),4	1155,(5, 41),4	1195,(6, 41),4	
