14342
# CPU
9,3,5	14,87,5	19,6,5	25,9,5	30,102,5	35,12,5	41,15,5	49,18,5	54,42,5	65,36,5	641,84,5	1409,99,5	1521,129,5	3961,162,5	4285,108,5	4989,171,5	5593,156,5	5741,33,5	5929,39,5	5957,60,5	6117,147,5	6321,189,5	6357,24,5	6637,105,5	7081,168,5	7145,30,5	7265,66,5	7285,90,5	7441,117,5	7473,159,5	8305,180,5	8385,195,5	8429,22,5	9085,69,5	9125,72,5	9153,93,5	9158,135,5	9173,138,5	9201,153,5	9229,198,5	9257,48,5	9277,54,5	9325,75,5	9353,81,5	9413,45,5	9457,57,5	9489,114,5	9525,123,5	9553,126,5	9558,150,5	10697,174,5	10813,177,5	10825,192,5	11009,27,5	11017,51,5	11065,63,5	11070,78,5	11081,96,5	11086,111,5	11091,120,5	11097,132,5	11157,141,5	11345,144,5	11350,165,5	11357,183,5	11381,186,5	
5,2,5	13,5,5	18,173,5	23,8,5	29,11,5	37,14,5	42,197,5	47,17,5	52,170,5	57,20,5	62,143,5	365,59,5	1705,68,5	1809,137,5	1861,155,5	2345,23,5	2745,53,5	2750,65,5	2897,113,5	3045,32,5	3201,26,5	3457,140,5	3493,176,5	3569,71,5	3693,80,5	3721,83,5	3733,89,5	3837,179,5	4501,92,5	4617,131,5	4757,56,5	5229,41,5	5234,86,5	5293,104,5	5505,158,5	5537,29,5	5569,95,5	5725,101,5	5730,119,5	5741,146,5	5921,35,5	5929,161,5	5934,44,5	5957,125,5	5965,62,5	6021,74,5	6026,128,5	6097,107,5	6125,152,5	6157,185,5	6241,122,5	6325,194,5	6473,50,5	6809,116,5	7005,149,5	7097,182,5	7113,188,5	7217,38,5	7222,47,5	7269,77,5	7317,98,5	7437,110,5	7469,134,5	7501,164,5	7525,167,5	7557,191,5	7565,200,5	
0,0,1	1,4,5	6,13,5	11,10,5	16,7,5	21,1,5	26,19,5	31,16,5	36,37,5	41,121,5	46,163,5	51,73,5	56,34,5	61,148,5	1441,64,5	1461,178,5	1521,190,5	1609,130,5	1781,154,5	1813,55,5	1881,91,5	2717,157,5	2933,172,5	2938,175,5	2945,196,5	3053,151,5	3061,85,5	3077,142,5	3677,181,5	3921,127,5	3977,199,5	4009,49,5	4037,88,5	4133,115,5	4181,40,5	4325,76,5	4449,43,5	4465,46,5	4493,61,5	4533,184,5	4641,25,5	4649,31,5	4681,103,5	4693,124,5	4713,136,5	4757,166,5	4762,193,5	5065,67,5	5121,106,5	5137,133,5	5153,139,5	5193,187,5	5201,28,5	5209,52,5	5214,70,5	5229,79,5	8265,94,5	8557,100,5	9049,109,5	9141,160,5	9201,58,5	9206,82,5	9229,97,5	9469,112,5	9505,118,5	9533,145,5	9538,169,5	11005,21,5	14341,201,1	
# Incoming
5,(0, 3),4	13,(0, 6),4	21,(0, 9),4	29,(0, 12),4	37,(0, 15),4	45,(0, 18),4	49,(2, 36),16	229,(2, 45),36	329,(4, 57),32	365,(4, 63),220	585,(5, 22),4	589,(4, 84),16	605,(4, 96),12	617,(2, 84),24	641,(4, 99),4	645,(4, 111),72	717,(2, 63),132	1289,(2, 174),36	1325,(5, 51),4	1329,(5, 66),4	1333,(5, 96),48	1381,(5, 99),28	1409,(5, 141),8	1417,(5, 147),4	1421,(5, 156),4	1425,(8, 141),8	1433,(4, 132),20	1453,(4, 141),40	1493,(5, 129),28	1565,(4, 180),4	1569,(4, 189),36	1605,(4, 192),4	1609,(2, 51),888	2497,(2, 72),188	2685,(2, 144),408	3093,(13, 30),60	3153,(13, 57),44	3197,(13, 81),36	3233,(13, 96),32	3265,(13, 135),672	3937,(13, 147),4	3941,(13, 162),20	3961,(13, 177),4	3965,(13, 189),248	4213,(10, 27),40	4253,(10, 51),4	4257,(10, 72),8	4265,(10, 108),20	4285,(10, 120),640	4925,(10, 147),60	4985,(10, 171),4	4989,(5, 63),240	5229,(7, 24),16	5245,(7, 39),200	5445,(7, 45),44	5489,(7, 75),16	5505,(7, 147),28	5533,(7, 156),60	5593,(7, 174),20	5613,(7, 180),52	5665,(7, 183),4	5669,(7, 186),68	5737,(1, 33),4	5921,(1, 39),8	5933,(1, 60),24	5965,(1, 69),20	6025,(1, 135),12	6037,(1, 141),16	6053,(1, 147),64	6157,(1, 189),164	6325,(19, 24),32	6473,(19, 66),64	6537,(19, 69),4	6541,(19, 81),72	6613,(19, 105),24	6809,(19, 120),56	6865,(19, 123),32	7005,(19, 153),64	7069,(19, 168),12	7097,(19, 186),4	7113,(16, 30),32	7221,(16, 57),40	7261,(16, 66),4	7269,(16, 90),16	7437,(16, 117),4	7441,(16, 120),16	7469,(16, 159),4	8265,(5, 180),40	8305,(5, 195),80	8385,(8, 22),44	8429,(8, 93),16	8445,(8, 96),164	8609,(8, 126),440	9049,(8, 165),8	9057,(11, 69),28	9085,(11, 72),40	9125,(11, 75),8	9133,(11, 93),20	9153,(11, 135),4	9157,(11, 138),16	9173,(11, 153),28	9201,(11, 183),12	9213,(11, 198),16	9229,(14, 48),28	9257,(14, 51),4	9261,(14, 54),16	9277,(14, 63),44	9321,(14, 75),4	9325,(14, 81),28	9353,(14, 114),4	9357,(14, 186),36	9393,(17, 45),20	9413,(17, 57),44	9457,(17, 78),28	9485,(17, 114),4	9489,(17, 123),36	9525,(17, 126),28	9553,(17, 150),4	9557,(17, 165),12	9569,(17, 174),1128	10697,(17, 177),116	10813,(17, 192),12	11005,(20, 27),4	11009,(20, 51),8	11017,(20, 63),48	11065,(20, 78),4	11069,(20, 96),12	11081,(20, 111),4	11085,(20, 120),4	11089,(20, 132),8	11097,(20, 141),60	11157,(20, 144),188	11345,(20, 165),4	11349,(20, 183),8	11357,(20, 186),24	
1,(0, 2),4	9,(0, 5),4	17,(0, 8),4	25,(0, 11),4	33,(0, 14),4	41,(0, 17),4	49,(0, 20),4	53,(4, 23),16	69,(4, 26),156	225,(4, 38),100	325,(4, 56),4	361,(4, 59),4	585,(4, 74),4	605,(3, 32),4	609,(3, 35),4	617,(4, 98),24	641,(3, 44),8	717,(4, 128),716	1433,(3, 71),44	1489,(3, 164),4	1493,(4, 155),4	1497,(4, 161),24	1521,(4, 167),44	1565,(3, 86),32	1597,(3, 161),8	1605,(3, 200),4	1609,(13, 26),40	1649,(13, 29),24	1673,(13, 68),32	1705,(13, 125),8	1713,(13, 131),16	1729,(13, 134),12	1741,(13, 137),68	1809,(13, 155),52	1861,(13, 164),4	1865,(13, 194),64	1929,(3, 101),28	1957,(3, 119),32	1989,(3, 149),48	2037,(3, 152),44	2081,(3, 158),20	2101,(3, 167),240	2341,(10, 23),4	2345,(10, 53),400	2745,(10, 65),4	2749,(10, 71),12	2761,(10, 95),4	2765,(10, 113),132	2897,(10, 146),72	2969,(10, 161),20	2989,(10, 188),52	3041,(7, 32),4	3045,(7, 38),20	3065,(7, 86),4	3069,(7, 176),8	3077,(6, 26),124	3201,(6, 101),96	3297,(6, 125),60	3357,(6, 131),88	3445,(6, 140),12	3457,(6, 149),4	3461,(6, 164),28	3489,(6, 176),4	3493,(6, 185),4	3497,(9, 71),72	3569,(9, 80),124	3693,(9, 83),28	3721,(9, 89),12	3733,(9, 98),12	3745,(9, 104),52	3797,(9, 122),16	3813,(9, 164),8	3821,(9, 179),16	3837,(9, 188),16	3853,(12, 38),8	3861,(12, 41),12	3873,(12, 62),12	3885,(12, 86),160	4045,(12, 92),456	4501,(12, 110),36	4537,(12, 128),16	4553,(12, 131),64	4617,(12, 200),16	4633,(15, 35),60	4693,(15, 56),64	4757,(15, 62),16	4989,(10, 194),132	5121,(7, 35),76	5197,(1, 41),32	5229,(15, 86),4	5233,(15, 104),60	5293,(15, 122),36	5329,(15, 146),8	5337,(15, 158),168	5505,(15, 188),4	5509,(15, 191),24	5533,(18, 29),4	5537,(18, 35),8	5545,(18, 95),24	5569,(18, 101),156	5725,(18, 119),4	5729,(18, 134),4	5733,(18, 146),8	5741,(1, 35),180	5921,(18, 161),8	5929,(1, 44),4	5933,(18, 125),24	5957,(1, 62),8	5965,(18, 182),4	5985,(1, 74),36	6021,(1, 128),4	6025,(18, 107),72	6117,(1, 152),8	6125,(1, 164),24	6149,(1, 185),8	6157,(18, 122),84	6321,(1, 194),4	6357,(19, 50),116	6637,(19, 116),172	6897,(19, 149),108	7081,(19, 182),16	7101,(19, 188),12	7145,(16, 38),72	7217,(16, 47),4	7265,(16, 77),4	7285,(16, 98),32	7317,(16, 110),120	7457,(16, 134),12	7473,(16, 164),28	7501,(16, 167),24	7525,(16, 191),32	7557,(16, 200),8	
65,(2, 43),164	265,(2, 64),24	289,(2, 76),36	325,(2, 82),20	345,(2, 94),120	465,(2, 103),24	489,(2, 118),44	533,(2, 151),8	541,(2, 181),24	565,(3, 25),40	605,(5, 31),4	609,(5, 43),4	613,(3, 46),20	633,(3, 91),4	637,(3, 127),4	641,(5, 55),4	645,(5, 127),4	649,(3, 58),96	745,(3, 106),68	813,(3, 109),36	849,(2, 67),440	1289,(3, 103),144	1433,(5, 64),8	1441,(5, 67),12	1453,(5, 130),4	1457,(5, 178),4	1461,(8, 31),8	1469,(8, 145),8	1477,(3, 136),12	1489,(11, 40),4	1493,(3, 175),4	1497,(3, 181),4	1501,(3, 199),4	1505,(6, 52),8	1513,(6, 130),4	1517,(6, 190),4	1521,(5, 133),40	1561,(5, 142),40	1601,(11, 82),4	1605,(11, 130),4	1609,(87, 201),40	1649,(6, 106),124	1773,(6, 154),8	1781,(9, 55),32	1813,(9, 70),4	1817,(9, 91),64	1881,(9, 94),48	2341,(9, 76),232	2573,(9, 100),44	2617,(9, 115),4	2621,(9, 127),88	2709,(9, 133),4	2713,(9, 157),4	2717,(9, 172),216	2933,(9, 175),4	2937,(9, 196),8	2945,(102, 201),40	2985,(12, 52),20	3005,(12, 67),4	3009,(12, 151),44	3053,(15, 40),4	3057,(15, 85),4	3061,(15, 94),12	3073,(15, 142),4	3093,(5, 166),48	3141,(5, 169),308	3449,(5, 181),228	3677,(173, 201),40	3717,(8, 43),16	3733,(8, 112),60	3793,(8, 118),100	3893,(8, 127),28	3921,(8, 136),12	3933,(8, 193),32	3965,(8, 199),12	3977,(11, 49),32	4009,(11, 88),28	4037,(11, 100),16	4053,(11, 112),52	4105,(11, 115),28	4133,(11, 124),20	4153,(11, 166),12	4165,(11, 184),12	4177,(14, 40),4	4181,(14, 43),52	4233,(14, 52),80	4313,(14, 76),12	4325,(14, 112),60	4385,(14, 145),4	4389,(14, 187),4	4393,(197, 201),40	4433,(17, 43),16	4449,(17, 46),16	4465,(17, 61),28	4493,(17, 133),4	4497,(17, 136),4	4501,(17, 139),4	4505,(17, 184),28	4533,(17, 187),24	4557,(170, 201),40	4597,(20, 25),44	4641,(20, 31),8	4649,(20, 82),20	4669,(20, 103),12	4681,(20, 124),12	4693,(20, 136),20	4713,(20, 166),44	4757,(20, 193),4	4773,(15, 67),292	5065,(15, 106),56	5121,(15, 133),16	5137,(15, 139),16	5153,(15, 187),40	5193,(18, 28),8	5201,(18, 52),8	5209,(18, 70),4	5213,(18, 79),16	5229,(5, 94),3036	8265,(15, 100),292	8557,(15, 109),492	9049,(15, 160),92	9141,(18, 58),60	9201,(18, 82),4	9205,(18, 97),24	9229,(18, 112),240	9469,(18, 118),36	9505,(18, 145),28	9533,(18, 169),4	9537,(42, 201),40	9577,(36, 201),40	9617,(84, 201),40	9657,(99, 201),40	9697,(129, 201),40	9737,(162, 201),40	9777,(108, 201),40	9817,(171, 201),40	9857,(156, 201),40	9897,(33, 201),40	9937,(39, 201),40	9977,(60, 201),40	10017,(147, 201),40	10057,(189, 201),40	10097,(24, 201),40	10137,(105, 201),40	10177,(168, 201),40	10217,(30, 201),40	10257,(66, 201),40	10297,(90, 201),40	10337,(117, 201),40	10377,(159, 201),40	10417,(180, 201),40	10457,(195, 201),40	10497,(22, 201),40	10537,(69, 201),40	10577,(72, 201),40	10617,(93, 201),40	10657,(135, 201),40	10697,(138, 201),40	10737,(153, 201),40	10777,(198, 201),40	10825,(20, 21),180	11005,(48, 201),40	11045,(54, 201),40	11085,(75, 201),40	11125,(81, 201),40	11165,(45, 201),40	11205,(57, 201),40	11245,(114, 201),40	11285,(123, 201),40	11325,(126, 201),40	11381,(143, 201),40	11421,(59, 201),40	11461,(68, 201),40	11501,(137, 201),40	11541,(155, 201),40	11581,(23, 201),40	11621,(53, 201),40	11661,(65, 201),40	11701,(113, 201),40	11741,(32, 201),40	11781,(26, 201),40	11821,(140, 201),40	11861,(176, 201),40	11901,(71, 201),40	11941,(80, 201),40	11981,(83, 201),40	12021,(89, 201),40	12061,(179, 201),40	12101,(92, 201),40	12141,(131, 201),40	12181,(56, 201),40	12221,(41, 201),40	12261,(86, 201),40	12301,(104, 201),40	12341,(158, 201),40	12381,(29, 201),40	12421,(95, 201),40	12461,(101, 201),40	12501,(119, 201),40	12541,(146, 201),40	12581,(35, 201),40	12621,(161, 201),40	12661,(44, 201),40	12701,(125, 201),40	12741,(62, 201),40	12781,(74, 201),40	12821,(128, 201),40	12861,(107, 201),40	12901,(152, 201),40	12941,(185, 201),40	12981,(122, 201),40	13021,(194, 201),40	13061,(50, 201),40	13101,(116, 201),40	13141,(149, 201),40	13181,(182, 201),40	13221,(188, 201),40	13261,(38, 201),40	13301,(47, 201),40	13341,(77, 201),40	13381,(98, 201),40	13421,(110, 201),40	13461,(134, 201),40	13501,(164, 201),40	13541,(167, 201),40	13581,(191, 201),40	13621,(200, 201),40	13661,(150, 201),40	13701,(174, 201),40	13741,(177, 201),40	13781,(192, 201),40	13821,(27, 201),40	13861,(51, 201),40	13901,(63, 201),40	13941,(78, 201),40	13981,(96, 201),40	14021,(111, 201),40	14061,(120, 201),40	14101,(132, 201),40	14141,(141, 201),40	14181,(144, 201),40	14221,(165, 201),40	14261,(183, 201),40	14301,(186, 201),40	
# Outgoing
565,(3, 25),40	605,(3, 32),4	609,(3, 35),4	613,(3, 46),20	633,(3, 91),4	637,(3, 127),4	641,(3, 44),8	649,(3, 58),96	745,(3, 106),68	813,(3, 109),36	1289,(3, 103),144	1433,(3, 71),44	1477,(3, 136),12	1489,(3, 164),4	1493,(3, 175),4	1497,(3, 181),4	1501,(3, 199),4	1505,(6, 52),8	1513,(6, 130),4	1517,(6, 190),4	1565,(3, 86),32	1597,(3, 161),8	1605,(3, 200),4	1609,(87, 201),40	1649,(6, 106),124	1773,(6, 154),8	1781,(9, 55),32	1813,(9, 70),4	1817,(9, 91),64	1881,(9, 94),48	1929,(3, 101),28	1957,(3, 119),32	1989,(3, 149),48	2037,(3, 152),44	2081,(3, 158),20	2101,(3, 167),240	2341,(9, 76),232	2573,(9, 100),44	2617,(9, 115),4	2621,(9, 127),88	2709,(9, 133),4	2713,(9, 157),4	2717,(9, 172),216	2933,(9, 175),4	2937,(9, 196),8	2945,(102, 201),40	2985,(12, 52),20	3005,(12, 67),4	3009,(12, 151),44	3053,(15, 40),4	3057,(15, 85),4	3061,(15, 94),12	3073,(15, 142),4	3077,(6, 26),124	3201,(6, 101),96	3297,(6, 125),60	3357,(6, 131),88	3445,(6, 140),12	3457,(6, 149),4	3461,(6, 164),28	3489,(6, 176),4	3493,(6, 185),4	3497,(9, 71),72	3569,(9, 80),124	3693,(9, 83),28	3721,(9, 89),12	3733,(9, 98),12	3745,(9, 104),52	3797,(9, 122),16	3813,(9, 164),8	3821,(9, 179),16	3837,(9, 188),16	3853,(12, 38),8	3861,(12, 41),12	3873,(12, 62),12	3885,(12, 86),160	4045,(12, 92),456	4501,(12, 110),36	4537,(12, 128),16	4553,(12, 131),64	4617,(12, 200),16	4633,(15, 35),60	4693,(15, 56),64	4757,(15, 62),16	4773,(15, 67),292	5065,(15, 106),56	5121,(15, 133),16	5137,(15, 139),16	5153,(15, 187),40	5193,(18, 28),8	5201,(18, 52),8	5209,(18, 70),4	5213,(18, 79),16	5229,(15, 86),4	5233,(15, 104),60	5293,(15, 122),36	5329,(15, 146),8	5337,(15, 158),168	5505,(15, 188),4	5509,(15, 191),24	5533,(18, 29),4	5537,(18, 35),8	5545,(18, 95),24	5569,(18, 101),156	5725,(18, 119),4	5729,(18, 134),4	5733,(18, 146),8	5921,(18, 161),8	5933,(18, 125),24	5965,(18, 182),4	6025,(18, 107),72	6157,(18, 122),84	8265,(15, 100),292	8557,(15, 109),492	9049,(15, 160),92	9141,(18, 58),60	9201,(18, 82),4	9205,(18, 97),24	9229,(18, 112),240	9469,(18, 118),36	9505,(18, 145),28	9533,(18, 169),4	9537,(42, 201),40	9577,(36, 201),40	9617,(84, 201),40	9657,(99, 201),40	9697,(129, 201),40	9737,(162, 201),40	9777,(108, 201),40	9817,(171, 201),40	9857,(156, 201),40	9897,(33, 201),40	9937,(39, 201),40	9977,(60, 201),40	10017,(147, 201),40	10057,(189, 201),40	10097,(24, 201),40	10137,(105, 201),40	10177,(168, 201),40	10217,(30, 201),40	10257,(66, 201),40	10297,(90, 201),40	10337,(117, 201),40	10377,(159, 201),40	10417,(180, 201),40	10457,(195, 201),40	10497,(22, 201),40	10537,(69, 201),40	10577,(72, 201),40	10617,(93, 201),40	10657,(135, 201),40	10697,(138, 201),40	10737,(153, 201),40	10777,(198, 201),40	11005,(48, 201),40	11045,(54, 201),40	11085,(75, 201),40	11125,(81, 201),40	11165,(45, 201),40	11205,(57, 201),40	11245,(114, 201),40	11285,(123, 201),40	11325,(126, 201),40	13661,(150, 201),40	13701,(174, 201),40	13741,(177, 201),40	13781,(192, 201),40	13821,(27, 201),40	13861,(51, 201),40	13901,(63, 201),40	13941,(78, 201),40	13981,(96, 201),40	14021,(111, 201),40	14061,(120, 201),40	14101,(132, 201),40	14141,(141, 201),40	14181,(144, 201),40	14221,(165, 201),40	14261,(183, 201),40	14301,(186, 201),40	
49,(2, 36),16	65,(2, 43),164	229,(2, 45),36	265,(2, 64),24	289,(2, 76),36	325,(2, 82),20	345,(2, 94),120	465,(2, 103),24	489,(2, 118),44	533,(2, 151),8	541,(2, 181),24	585,(5, 22),4	605,(5, 31),4	609,(5, 43),4	617,(2, 84),24	641,(5, 55),4	645,(5, 127),4	717,(2, 63),132	849,(2, 67),440	1289,(2, 174),36	1325,(5, 51),4	1329,(5, 66),4	1333,(5, 96),48	1381,(5, 99),28	1409,(5, 141),8	1417,(5, 147),4	1421,(5, 156),4	1425,(8, 141),8	1433,(5, 64),8	1441,(5, 67),12	1453,(5, 130),4	1457,(5, 178),4	1461,(8, 31),8	1469,(8, 145),8	1489,(11, 40),4	1493,(5, 129),28	1521,(5, 133),40	1561,(5, 142),40	1601,(11, 82),4	1605,(11, 130),4	1609,(2, 51),888	2497,(2, 72),188	2685,(2, 144),408	3093,(5, 166),48	3141,(5, 169),308	3449,(5, 181),228	3677,(173, 201),40	3717,(8, 43),16	3733,(8, 112),60	3793,(8, 118),100	3893,(8, 127),28	3921,(8, 136),12	3933,(8, 193),32	3965,(8, 199),12	3977,(11, 49),32	4009,(11, 88),28	4037,(11, 100),16	4053,(11, 112),52	4105,(11, 115),28	4133,(11, 124),20	4153,(11, 166),12	4165,(11, 184),12	4177,(14, 40),4	4181,(14, 43),52	4233,(14, 52),80	4313,(14, 76),12	4325,(14, 112),60	4385,(14, 145),4	4389,(14, 187),4	4393,(197, 201),40	4433,(17, 43),16	4449,(17, 46),16	4465,(17, 61),28	4493,(17, 133),4	4497,(17, 136),4	4501,(17, 139),4	4505,(17, 184),28	4533,(17, 187),24	4557,(170, 201),40	4597,(20, 25),44	4641,(20, 31),8	4649,(20, 82),20	4669,(20, 103),12	4681,(20, 124),12	4693,(20, 136),20	4713,(20, 166),44	4757,(20, 193),4	4989,(5, 63),240	5229,(5, 94),3036	8265,(5, 180),40	8305,(5, 195),80	8385,(8, 22),44	8429,(8, 93),16	8445,(8, 96),164	8609,(8, 126),440	9049,(8, 165),8	9057,(11, 69),28	9085,(11, 72),40	9125,(11, 75),8	9133,(11, 93),20	9153,(11, 135),4	9157,(11, 138),16	9173,(11, 153),28	9201,(11, 183),12	9213,(11, 198),16	9229,(14, 48),28	9257,(14, 51),4	9261,(14, 54),16	9277,(14, 63),44	9321,(14, 75),4	9325,(14, 81),28	9353,(14, 114),4	9357,(14, 186),36	9393,(17, 45),20	9413,(17, 57),44	9457,(17, 78),28	9485,(17, 114),4	9489,(17, 123),36	9525,(17, 126),28	9553,(17, 150),4	9557,(17, 165),12	9569,(17, 174),1128	10697,(17, 177),116	10813,(17, 192),12	10825,(20, 21),180	11005,(20, 27),4	11009,(20, 51),8	11017,(20, 63),48	11065,(20, 78),4	11069,(20, 96),12	11081,(20, 111),4	11085,(20, 120),4	11089,(20, 132),8	11097,(20, 141),60	11157,(20, 144),188	11345,(20, 165),4	11349,(20, 183),8	11357,(20, 186),24	11381,(143, 201),40	11421,(59, 201),40	11461,(68, 201),40	11501,(137, 201),40	11541,(155, 201),40	11581,(23, 201),40	11621,(53, 201),40	11661,(65, 201),40	11701,(113, 201),40	11741,(32, 201),40	11781,(26, 201),40	11821,(140, 201),40	11861,(176, 201),40	11901,(71, 201),40	11941,(80, 201),40	11981,(83, 201),40	12021,(89, 201),40	12061,(179, 201),40	12101,(92, 201),40	12141,(131, 201),40	12181,(56, 201),40	12221,(41, 201),40	12261,(86, 201),40	12301,(104, 201),40	12341,(158, 201),40	12381,(29, 201),40	12421,(95, 201),40	12461,(101, 201),40	12501,(119, 201),40	12541,(146, 201),40	12581,(35, 201),40	12621,(161, 201),40	12661,(44, 201),40	12701,(125, 201),40	12741,(62, 201),40	12781,(74, 201),40	12821,(128, 201),40	12861,(107, 201),40	12901,(152, 201),40	12941,(185, 201),40	12981,(122, 201),40	13021,(194, 201),40	13061,(50, 201),40	13101,(116, 201),40	13141,(149, 201),40	13181,(182, 201),40	13221,(188, 201),40	13261,(38, 201),40	13301,(47, 201),40	13341,(77, 201),40	13381,(98, 201),40	13421,(110, 201),40	13461,(134, 201),40	13501,(164, 201),40	13541,(167, 201),40	13581,(191, 201),40	13621,(200, 201),40	
1,(0, 2),4	5,(0, 3),4	9,(0, 5),4	13,(0, 6),4	17,(0, 8),4	21,(0, 9),4	25,(0, 11),4	29,(0, 12),4	33,(0, 14),4	37,(0, 15),4	41,(0, 17),4	45,(0, 18),4	49,(0, 20),4	53,(4, 23),16	69,(4, 26),156	225,(4, 38),100	325,(4, 56),4	329,(4, 57),32	361,(4, 59),4	365,(4, 63),220	585,(4, 74),4	589,(4, 84),16	605,(4, 96),12	617,(4, 98),24	641,(4, 99),4	645,(4, 111),72	717,(4, 128),716	1433,(4, 132),20	1453,(4, 141),40	1493,(4, 155),4	1497,(4, 161),24	1521,(4, 167),44	1565,(4, 180),4	1569,(4, 189),36	1605,(4, 192),4	1609,(13, 26),40	1649,(13, 29),24	1673,(13, 68),32	1705,(13, 125),8	1713,(13, 131),16	1729,(13, 134),12	1741,(13, 137),68	1809,(13, 155),52	1861,(13, 164),4	1865,(13, 194),64	2341,(10, 23),4	2345,(10, 53),400	2745,(10, 65),4	2749,(10, 71),12	2761,(10, 95),4	2765,(10, 113),132	2897,(10, 146),72	2969,(10, 161),20	2989,(10, 188),52	3041,(7, 32),4	3045,(7, 38),20	3065,(7, 86),4	3069,(7, 176),8	3093,(13, 30),60	3153,(13, 57),44	3197,(13, 81),36	3233,(13, 96),32	3265,(13, 135),672	3937,(13, 147),4	3941,(13, 162),20	3961,(13, 177),4	3965,(13, 189),248	4213,(10, 27),40	4253,(10, 51),4	4257,(10, 72),8	4265,(10, 108),20	4285,(10, 120),640	4925,(10, 147),60	4985,(10, 171),4	4989,(10, 194),132	5121,(7, 35),76	5197,(1, 41),32	5229,(7, 24),16	5245,(7, 39),200	5445,(7, 45),44	5489,(7, 75),16	5505,(7, 147),28	5533,(7, 156),60	5593,(7, 174),20	5613,(7, 180),52	5665,(7, 183),4	5669,(7, 186),68	5737,(1, 33),4	5741,(1, 35),180	5921,(1, 39),8	5929,(1, 44),4	5933,(1, 60),24	5957,(1, 62),8	5965,(1, 69),20	5985,(1, 74),36	6021,(1, 128),4	6025,(1, 135),12	6037,(1, 141),16	6053,(1, 147),64	6117,(1, 152),8	6125,(1, 164),24	6149,(1, 185),8	6157,(1, 189),164	6321,(1, 194),4	6325,(19, 24),32	6357,(19, 50),116	6473,(19, 66),64	6537,(19, 69),4	6541,(19, 81),72	6613,(19, 105),24	6637,(19, 116),172	6809,(19, 120),56	6865,(19, 123),32	6897,(19, 149),108	7005,(19, 153),64	7069,(19, 168),12	7081,(19, 182),16	7097,(19, 186),4	7101,(19, 188),12	7113,(16, 30),32	7145,(16, 38),72	7217,(16, 47),4	7221,(16, 57),40	7261,(16, 66),4	7265,(16, 77),4	7269,(16, 90),16	7285,(16, 98),32	7317,(16, 110),120	7437,(16, 117),4	7441,(16, 120),16	7457,(16, 134),12	7469,(16, 159),4	7473,(16, 164),28	7501,(16, 167),24	7525,(16, 191),32	7557,(16, 200),8	
