844
# CPU
0,121,1	1,81,10	11,50,10	21,68,10	31,13,10	41,97,10	51,63,10	61,62,10	71,19,10	81,118,10	91,39,10	101,38,10	111,115,10	121,55,10	131,89,10	141,71,10	151,67,10	161,26,10	171,102,10	181,110,10	191,35,10	201,104,10	211,22,10	221,57,10	231,18,10	241,98,10	251,88,10	261,24,10	271,42,10	281,36,10	291,96,10	301,73,10	311,37,10	321,64,10	331,61,10	341,43,10	351,106,10	361,76,10	371,84,10	381,20,10	391,82,10	401,29,10	411,46,10	421,31,10	431,41,10	441,59,10	451,47,10	461,49,10	471,75,10	481,95,10	491,107,10	501,40,10	511,93,10	521,66,10	531,112,10	541,80,10	551,14,10	561,32,10	571,69,10	581,33,10	591,45,10	601,27,10	611,58,10	621,114,10	631,34,10	641,30,10	651,12,10	661,4,10	671,3,10	681,8,10	691,1,10	701,6,10	711,2,10	769,9,10	843,0,1	
16,86,10	31,120,10	46,105,10	61,87,10	76,77,10	91,117,10	106,116,10	121,52,10	136,16,10	151,70,10	166,25,10	181,53,10	196,91,10	211,21,10	226,74,10	241,94,10	256,54,10	271,90,10	286,56,10	301,28,10	316,65,10	331,51,10	346,111,10	361,108,10	376,15,10	391,83,10	406,72,10	421,17,10	436,85,10	451,79,10	466,78,10	481,99,10	496,101,10	511,44,10	526,103,10	541,100,10	556,60,10	571,113,10	586,119,10	601,23,10	616,109,10	631,48,10	646,92,10	664,5,10	689,10,10	720,11,10	831,7,10	
# Incoming
311,(28, 12),5	316,(105, 3),1	317,(52, 3),1	318,(74, 1),3	321,(54, 1),4	325,(87, 6),1	326,(65, 4),5	331,(90, 1),4	335,(90, 6),1	336,(117, 2),1	337,(21, 2),2	339,(77, 9),1	340,(16, 9),1	341,(51, 4),2	343,(70, 9),1	344,(53, 9),2	346,(51, 9),6	356,(111, 9),6	371,(108, 3),7	386,(15, 6),8	401,(83, 2),2	403,(83, 9),8	416,(72, 9),5	431,(17, 8),7	438,(17, 6),11	449,(85, 6),1	476,(78, 9),13	491,(99, 8),13	551,(100, 8),3	566,(60, 1),23	589,(103, 6),18	611,(23, 6),9	641,(48, 1),10	651,(23, 2),52	703,(109, 9),66	769,(5, 0),2	771,(10, 0),2	773,(11, 0),2	841,(7, 0),2	
1,(121, 86),15	16,(121, 120),15	31,(121, 105),15	46,(121, 87),15	61,(121, 77),15	76,(121, 117),15	91,(121, 116),15	106,(121, 52),15	121,(121, 16),15	136,(121, 70),15	151,(121, 25),15	166,(121, 53),15	181,(121, 91),15	196,(121, 21),15	211,(121, 74),15	226,(121, 94),15	241,(121, 54),15	256,(121, 90),15	271,(121, 56),15	286,(121, 28),15	301,(121, 65),15	316,(121, 51),15	331,(121, 111),15	346,(121, 108),15	361,(121, 15),15	376,(121, 83),15	391,(121, 72),15	406,(121, 17),15	421,(121, 85),15	436,(121, 79),15	451,(121, 78),15	466,(121, 99),15	481,(121, 101),15	496,(121, 44),15	511,(121, 103),15	526,(121, 100),15	541,(121, 60),15	556,(121, 113),15	571,(121, 119),15	586,(121, 23),15	601,(121, 109),15	616,(121, 48),15	631,(121, 92),15	646,(62, 5),1	647,(26, 5),1	648,(104, 5),1	649,(98, 5),3	652,(47, 5),12	664,(104, 10),2	666,(36, 10),2	668,(20, 10),8	676,(47, 10),1	677,(33, 10),1	678,(30, 10),11	689,(13, 11),1	690,(19, 11),1	691,(67, 11),1	692,(42, 11),4	696,(61, 11),5	701,(76, 11),6	707,(41, 11),11	718,(66, 11),2	720,(39, 7),1	721,(104, 7),2	723,(22, 7),2	725,(57, 7),3	728,(18, 7),3	731,(37, 7),5	736,(64, 7),5	741,(84, 7),7	748,(107, 7),16	764,(93, 7),17	781,(32, 7),1	782,(27, 7),49	
# Outgoing
1,(121, 86),15	16,(121, 120),15	31,(121, 105),15	46,(121, 87),15	61,(121, 77),15	76,(121, 117),15	91,(121, 116),15	106,(121, 52),15	121,(121, 16),15	136,(121, 70),15	151,(121, 25),15	166,(121, 53),15	181,(121, 91),15	196,(121, 21),15	211,(121, 74),15	226,(121, 94),15	241,(121, 54),15	256,(121, 90),15	271,(121, 56),15	286,(121, 28),15	301,(121, 65),15	316,(121, 51),15	331,(121, 111),15	346,(121, 108),15	361,(121, 15),15	376,(121, 83),15	391,(121, 72),15	406,(121, 17),15	421,(121, 85),15	436,(121, 79),15	451,(121, 78),15	466,(121, 99),15	481,(121, 101),15	496,(121, 44),15	511,(121, 103),15	526,(121, 100),15	541,(121, 60),15	556,(121, 113),15	571,(121, 119),15	586,(121, 23),15	601,(121, 109),15	616,(121, 48),15	631,(121, 92),15	646,(62, 5),1	647,(26, 5),1	648,(104, 5),1	649,(98, 5),3	652,(47, 5),12	664,(104, 10),2	666,(36, 10),2	668,(20, 10),8	676,(47, 10),1	677,(33, 10),1	678,(30, 10),11	689,(13, 11),1	690,(19, 11),1	691,(67, 11),1	692,(42, 11),4	696,(61, 11),5	701,(76, 11),6	707,(41, 11),11	718,(66, 11),2	720,(39, 7),1	721,(104, 7),2	723,(22, 7),2	725,(57, 7),3	728,(18, 7),3	731,(37, 7),5	736,(64, 7),5	741,(84, 7),7	748,(107, 7),16	764,(93, 7),17	781,(32, 7),1	782,(27, 7),49	
311,(28, 12),5	316,(105, 3),1	317,(52, 3),1	318,(74, 1),3	321,(54, 1),4	325,(87, 6),1	326,(65, 4),5	331,(90, 1),4	335,(90, 6),1	336,(117, 2),1	337,(21, 2),2	339,(77, 9),1	340,(16, 9),1	341,(51, 4),2	343,(70, 9),1	344,(53, 9),2	346,(51, 9),6	356,(111, 9),6	371,(108, 3),7	386,(15, 6),8	401,(83, 2),2	403,(83, 9),8	416,(72, 9),5	431,(17, 8),7	438,(17, 6),11	449,(85, 6),1	476,(78, 9),13	491,(99, 8),13	551,(100, 8),3	566,(60, 1),23	589,(103, 6),18	611,(23, 6),9	641,(48, 1),10	651,(23, 2),52	703,(109, 9),66	769,(5, 0),2	771,(10, 0),2	773,(11, 0),2	841,(7, 0),2	
