1538
# CPU
0,0,1	1,1,1	2,5,1	3,11,1	4,3,1	5,9,1	6,2,1	7,8,1	8,7,1	9,71,1	10,58,1	11,37,1	12,10,1	13,48,1	14,118,1	15,21,1	16,24,1	17,94,1	18,27,1	19,57,1	20,108,1	21,50,1	22,99,1	23,63,1	24,90,1	25,110,1	26,95,1	27,79,1	28,84,1	29,30,1	30,17,1	31,61,1	32,101,1	33,103,1	34,66,1	35,19,1	36,42,1	37,13,1	38,76,1	40,53,1	43,104,1	48,87,1	52,74,1	56,22,1	61,120,1	65,31,1	69,119,1	75,65,1	80,49,1	85,114,1	91,100,1	97,78,1	103,68,1	109,25,1	116,35,1	123,55,1	130,82,1	139,73,1	148,40,1	157,44,1	169,97,1	180,32,1	192,117,1	204,72,1	217,41,1	231,56,1	244,34,1	258,107,1	273,88,1	289,86,1	306,29,1	324,60,1	342,47,1	363,98,1	387,92,1	410,75,1	435,93,1	460,70,1	487,102,1	514,113,1	551,54,1	589,18,1	632,111,1	675,14,1	722,89,1	768,52,1	843,36,1	926,45,1	1012,112,1	1104,106,1	1536,15,1	1537,121,1	
6,12,1	11,6,1	15,67,1	20,4,1	22,85,1	31,105,1	41,28,1	52,64,1	65,91,1	83,109,1	104,38,1	126,16,1	151,23,1	178,20,1	205,115,1	234,80,1	264,46,1	294,26,1	327,83,1	361,96,1	399,81,1	440,51,1	484,62,1	530,59,1	581,33,1	656,116,1	734,69,1	815,43,1	909,39,1	1005,77,1	








# Incoming
16,(67, 121),1	17,(12, 17),1	18,(12, 61),1	19,(12, 103),1	20,(6, 66),1	21,(4, 63),2	23,(85, 121),1	24,(4, 84),1	25,(4, 30),1	26,(4, 101),1	27,(12, 19),2	29,(12, 42),1	30,(6, 42),1	31,(12, 13),1	32,(105, 121),1	33,(4, 13),1	34,(6, 76),2	36,(4, 76),1	37,(12, 53),1	38,(6, 53),1	39,(4, 53),1	40,(12, 104),1	41,(4, 104),2	43,(28, 121),1	44,(12, 87),4	48,(6, 74),1	49,(4, 74),3	52,(12, 22),1	53,(6, 22),3	56,(64, 121),1	57,(4, 120),4	61,(12, 31),4	65,(12, 119),4	69,(91, 121),1	70,(4, 65),5	75,(12, 49),4	79,(6, 49),1	80,(12, 114),1	81,(4, 114),4	85,(109, 121),1	86,(4, 100),5	91,(12, 78),1	92,(6, 78),4	96,(4, 78),1	97,(6, 68),6	103,(6, 25),6	109,(38, 121),1	110,(12, 35),6	116,(12, 55),7	123,(6, 82),5	128,(4, 82),2	130,(16, 121),1	131,(6, 73),1	132,(4, 73),7	139,(12, 40),5	144,(4, 40),4	148,(12, 44),7	155,(4, 44),2	157,(23, 121),1	158,(6, 97),9	167,(4, 97),2	169,(12, 32),1	170,(4, 32),10	180,(20, 121),1	181,(12, 117),1	182,(6, 117),1	183,(4, 117),9	192,(12, 72),12	204,(12, 41),13	217,(115, 121),1	218,(12, 56),3	221,(6, 56),2	223,(4, 56),8	231,(6, 34),13	244,(80, 121),1	245,(12, 107),8	253,(6, 107),5	258,(12, 88),1	259,(6, 88),4	263,(4, 88),10	273,(46, 121),1	274,(12, 86),1	275,(6, 86),14	289,(6, 29),8	297,(4, 29),9	306,(26, 121),1	307,(12, 60),5	312,(6, 60),2	314,(4, 60),10	324,(12, 47),2	326,(6, 47),16	342,(83, 121),1	343,(12, 98),7	350,(6, 98),5	355,(4, 98),8	363,(96, 121),1	364,(12, 92),10	374,(4, 92),13	387,(6, 75),6	393,(4, 75),17	410,(81, 121),1	411,(12, 93),8	419,(4, 93),16	435,(12, 70),22	457,(4, 70),3	460,(51, 121),1	461,(12, 102),23	484,(4, 102),3	487,(62, 121),1	488,(6, 113),2	490,(4, 113),24	514,(12, 54),1	515,(6, 54),36	551,(59, 121),1	552,(12, 18),21	573,(6, 18),6	579,(4, 18),10	589,(33, 121),1	590,(4, 111),42	632,(6, 14),43	675,(116, 121),1	676,(12, 89),1	677,(6, 89),26	703,(4, 89),19	722,(4, 52),46	768,(69, 121),1	769,(12, 36),71	840,(6, 36),3	843,(43, 121),1	844,(12, 45),82	926,(39, 121),1	927,(12, 112),1	928,(6, 112),50	978,(4, 112),34	1012,(77, 121),1	1013,(12, 106),2	1015,(6, 106),89	1104,(6, 15),432	
1,(0, 12),5	6,(0, 6),5	11,(7, 67),3	14,(10, 67),1	15,(0, 4),5	20,(11, 85),1	21,(8, 85),1	22,(3, 105),3	25,(2, 105),1	26,(8, 105),1	27,(7, 105),1	28,(10, 105),3	31,(11, 28),9	40,(2, 28),1	41,(1, 64),7	48,(11, 64),1	49,(2, 64),2	51,(10, 64),1	52,(1, 91),5	57,(3, 91),1	58,(9, 91),6	64,(7, 91),1	65,(1, 109),4	69,(3, 109),5	74,(9, 109),1	75,(7, 109),7	82,(10, 109),1	83,(5, 38),1	84,(9, 38),8	92,(8, 38),10	102,(7, 38),1	103,(10, 38),1	104,(1, 16),8	112,(5, 16),1	113,(11, 16),1	114,(3, 16),7	121,(8, 16),5	126,(1, 23),6	132,(5, 23),11	143,(11, 23),5	148,(3, 23),1	149,(2, 23),1	150,(7, 23),1	151,(1, 20),1	152,(9, 20),2	154,(7, 20),1	155,(10, 20),23	178,(11, 115),16	194,(3, 115),1	195,(2, 115),6	201,(8, 115),2	203,(7, 115),1	204,(10, 115),1	205,(2, 80),1	206,(8, 80),25	231,(7, 80),2	233,(10, 80),1	234,(1, 46),6	240,(11, 46),9	249,(3, 46),10	259,(10, 46),5	264,(1, 26),2	266,(11, 26),23	289,(2, 26),5	294,(1, 83),7	301,(5, 83),8	309,(11, 83),8	317,(3, 83),1	318,(9, 83),2	320,(10, 83),7	327,(1, 96),9	336,(5, 96),4	340,(11, 96),11	351,(3, 96),2	353,(9, 96),1	354,(8, 96),1	355,(7, 96),1	356,(10, 96),5	361,(5, 81),1	362,(3, 81),6	368,(9, 81),7	375,(2, 81),20	395,(7, 81),1	396,(10, 81),3	399,(1, 51),1	400,(11, 51),4	404,(9, 51),15	419,(2, 51),4	423,(8, 51),1	424,(7, 51),6	430,(10, 51),10	440,(1, 62),2	442,(5, 62),26	468,(3, 62),7	475,(9, 62),9	484,(1, 59),1	485,(9, 59),22	507,(2, 59),3	510,(8, 59),17	527,(7, 59),3	530,(11, 33),3	533,(3, 33),25	558,(9, 33),1	559,(2, 33),3	562,(8, 33),3	565,(10, 33),16	581,(5, 116),22	603,(11, 116),23	626,(2, 116),14	640,(8, 116),15	655,(7, 116),1	656,(1, 69),16	672,(5, 69),37	709,(2, 69),21	730,(8, 69),3	733,(10, 69),1	734,(1, 43),4	738,(11, 43),1	739,(3, 43),24	763,(2, 43),36	799,(8, 43),5	804,(10, 43),11	815,(1, 39),17	832,(11, 39),31	863,(2, 39),5	868,(8, 39),1	869,(7, 39),1	870,(10, 39),39	909,(1, 77),1	910,(5, 77),3	913,(11, 77),1	914,(9, 77),79	993,(8, 77),1	994,(10, 77),11	








# Outgoing
1,(0, 12),5	6,(0, 6),5	11,(7, 67),3	14,(10, 67),1	15,(0, 4),5	20,(11, 85),1	21,(8, 85),1	22,(3, 105),3	25,(2, 105),1	26,(8, 105),1	27,(7, 105),1	28,(10, 105),3	31,(11, 28),9	40,(2, 28),1	41,(1, 64),7	48,(11, 64),1	49,(2, 64),2	51,(10, 64),1	52,(1, 91),5	57,(3, 91),1	58,(9, 91),6	64,(7, 91),1	65,(1, 109),4	69,(3, 109),5	74,(9, 109),1	75,(7, 109),7	82,(10, 109),1	83,(5, 38),1	84,(9, 38),8	92,(8, 38),10	102,(7, 38),1	103,(10, 38),1	104,(1, 16),8	112,(5, 16),1	113,(11, 16),1	114,(3, 16),7	121,(8, 16),5	126,(1, 23),6	132,(5, 23),11	143,(11, 23),5	148,(3, 23),1	149,(2, 23),1	150,(7, 23),1	151,(1, 20),1	152,(9, 20),2	154,(7, 20),1	155,(10, 20),23	178,(11, 115),16	194,(3, 115),1	195,(2, 115),6	201,(8, 115),2	203,(7, 115),1	204,(10, 115),1	205,(2, 80),1	206,(8, 80),25	231,(7, 80),2	233,(10, 80),1	234,(1, 46),6	240,(11, 46),9	249,(3, 46),10	259,(10, 46),5	264,(1, 26),2	266,(11, 26),23	289,(2, 26),5	294,(1, 83),7	301,(5, 83),8	309,(11, 83),8	317,(3, 83),1	318,(9, 83),2	320,(10, 83),7	327,(1, 96),9	336,(5, 96),4	340,(11, 96),11	351,(3, 96),2	353,(9, 96),1	354,(8, 96),1	355,(7, 96),1	356,(10, 96),5	361,(5, 81),1	362,(3, 81),6	368,(9, 81),7	375,(2, 81),20	395,(7, 81),1	396,(10, 81),3	399,(1, 51),1	400,(11, 51),4	404,(9, 51),15	419,(2, 51),4	423,(8, 51),1	424,(7, 51),6	430,(10, 51),10	440,(1, 62),2	442,(5, 62),26	468,(3, 62),7	475,(9, 62),9	484,(1, 59),1	485,(9, 59),22	507,(2, 59),3	510,(8, 59),17	527,(7, 59),3	530,(11, 33),3	533,(3, 33),25	558,(9, 33),1	559,(2, 33),3	562,(8, 33),3	565,(10, 33),16	581,(5, 116),22	603,(11, 116),23	626,(2, 116),14	640,(8, 116),15	655,(7, 116),1	656,(1, 69),16	672,(5, 69),37	709,(2, 69),21	730,(8, 69),3	733,(10, 69),1	734,(1, 43),4	738,(11, 43),1	739,(3, 43),24	763,(2, 43),36	799,(8, 43),5	804,(10, 43),11	815,(1, 39),17	832,(11, 39),31	863,(2, 39),5	868,(8, 39),1	869,(7, 39),1	870,(10, 39),39	909,(1, 77),1	910,(5, 77),3	913,(11, 77),1	914,(9, 77),79	993,(8, 77),1	994,(10, 77),11	
16,(67, 121),1	17,(12, 17),1	18,(12, 61),1	19,(12, 103),1	20,(6, 66),1	21,(4, 63),2	23,(85, 121),1	24,(4, 84),1	25,(4, 30),1	26,(4, 101),1	27,(12, 19),2	29,(12, 42),1	30,(6, 42),1	31,(12, 13),1	32,(105, 121),1	33,(4, 13),1	34,(6, 76),2	36,(4, 76),1	37,(12, 53),1	38,(6, 53),1	39,(4, 53),1	40,(12, 104),1	41,(4, 104),2	43,(28, 121),1	44,(12, 87),4	48,(6, 74),1	49,(4, 74),3	52,(12, 22),1	53,(6, 22),3	56,(64, 121),1	57,(4, 120),4	61,(12, 31),4	65,(12, 119),4	69,(91, 121),1	70,(4, 65),5	75,(12, 49),4	79,(6, 49),1	80,(12, 114),1	81,(4, 114),4	85,(109, 121),1	86,(4, 100),5	91,(12, 78),1	92,(6, 78),4	96,(4, 78),1	97,(6, 68),6	103,(6, 25),6	109,(38, 121),1	110,(12, 35),6	116,(12, 55),7	123,(6, 82),5	128,(4, 82),2	130,(16, 121),1	131,(6, 73),1	132,(4, 73),7	139,(12, 40),5	144,(4, 40),4	148,(12, 44),7	155,(4, 44),2	157,(23, 121),1	158,(6, 97),9	167,(4, 97),2	169,(12, 32),1	170,(4, 32),10	180,(20, 121),1	181,(12, 117),1	182,(6, 117),1	183,(4, 117),9	192,(12, 72),12	204,(12, 41),13	217,(115, 121),1	218,(12, 56),3	221,(6, 56),2	223,(4, 56),8	231,(6, 34),13	244,(80, 121),1	245,(12, 107),8	253,(6, 107),5	258,(12, 88),1	259,(6, 88),4	263,(4, 88),10	273,(46, 121),1	274,(12, 86),1	275,(6, 86),14	289,(6, 29),8	297,(4, 29),9	306,(26, 121),1	307,(12, 60),5	312,(6, 60),2	314,(4, 60),10	324,(12, 47),2	326,(6, 47),16	342,(83, 121),1	343,(12, 98),7	350,(6, 98),5	355,(4, 98),8	363,(96, 121),1	364,(12, 92),10	374,(4, 92),13	387,(6, 75),6	393,(4, 75),17	410,(81, 121),1	411,(12, 93),8	419,(4, 93),16	435,(12, 70),22	457,(4, 70),3	460,(51, 121),1	461,(12, 102),23	484,(4, 102),3	487,(62, 121),1	488,(6, 113),2	490,(4, 113),24	514,(12, 54),1	515,(6, 54),36	551,(59, 121),1	552,(12, 18),21	573,(6, 18),6	579,(4, 18),10	589,(33, 121),1	590,(4, 111),42	632,(6, 14),43	675,(116, 121),1	676,(12, 89),1	677,(6, 89),26	703,(4, 89),19	722,(4, 52),46	768,(69, 121),1	769,(12, 36),71	840,(6, 36),3	843,(43, 121),1	844,(12, 45),82	926,(39, 121),1	927,(12, 112),1	928,(6, 112),50	978,(4, 112),34	1012,(77, 121),1	1013,(12, 106),2	1015,(6, 106),89	1104,(6, 15),432	








