4204
# CPU
2,1,70	72,2,70	142,5,70	212,8,70	282,9,70	352,10,70	422,102,70	492,107,70	562,91,70	632,71,70	702,59,70	772,44,70	842,109,70	912,26,70	982,46,70	1052,49,70	1122,72,70	1192,117,70	1262,97,70	1332,111,70	1402,82,70	1472,76,70	1542,56,70	1612,119,70	1682,53,70	1752,31,70	1822,24,70	1892,20,70	1962,18,70	2032,15,70	2102,105,70	2172,77,70	2242,60,70	2312,51,70	2382,114,70	2452,110,70	2522,85,70	2592,116,70	2662,94,70	2732,36,70	2802,99,70	2872,50,70	2942,33,70	3012,14,70	3082,120,70	3152,95,70	3222,27,70	3292,61,70	3362,17,70	3432,41,70	3502,83,70	3572,48,70	3642,75,70	3712,16,70	3782,112,70	3852,70,70	3922,58,70	3992,62,70	4062,113,70	4132,73,70	
0,0,1	1,6,70	71,7,70	141,11,70	211,3,70	281,12,70	351,4,70	421,39,70	491,23,70	561,100,70	631,89,70	701,54,70	771,64,70	841,63,70	911,52,70	981,45,70	1051,32,70	1121,29,70	1191,104,70	1261,103,70	1331,96,70	1401,90,70	1471,84,70	1541,57,70	1611,69,70	1681,68,70	1751,43,70	1821,40,70	1891,38,70	1961,74,70	2031,55,70	2101,42,70	2171,35,70	2241,34,70	2311,86,70	2381,21,70	2451,13,70	2521,115,70	2591,108,70	2661,106,70	2731,101,70	2801,87,70	2871,80,70	2941,118,70	3011,30,70	3081,98,70	3151,93,70	3221,67,70	3291,92,70	3361,78,70	3431,66,70	3501,79,70	3571,37,70	3641,22,70	3711,88,70	3781,19,70	3851,65,70	3921,28,70	3991,25,70	4061,47,70	4131,81,70	4203,121,1	
# Incoming
1,(0, 1),1	2,(0, 2),1	3,(0, 5),1	4,(0, 8),1	5,(0, 9),1	6,(0, 10),1	71,(6, 26),2	73,(6, 46),1	74,(6, 49),2	76,(6, 72),8	141,(7, 15),1	142,(7, 105),1	211,(11, 33),1	
142,(2, 57),3	282,(8, 37),5	287,(8, 80),1	492,(102, 121),1	562,(107, 121),1	632,(91, 121),1	702,(71, 121),1	772,(59, 121),1	842,(44, 121),1	912,(109, 121),1	982,(26, 121),1	1052,(46, 121),1	1122,(49, 121),1	1192,(72, 121),1	1262,(117, 121),1	1332,(97, 121),1	1402,(111, 121),1	1472,(82, 121),1	1542,(76, 121),1	1612,(56, 121),1	1682,(119, 121),1	1752,(53, 121),1	1822,(31, 121),1	1892,(24, 121),1	1962,(20, 121),1	2032,(18, 121),1	2102,(15, 121),1	2172,(105, 121),1	2242,(77, 121),1	2312,(60, 121),1	2382,(51, 121),1	2452,(114, 121),1	2522,(110, 121),1	2592,(85, 121),1	2662,(116, 121),1	2732,(94, 121),1	2802,(36, 121),1	2872,(99, 121),1	2942,(50, 121),1	3012,(33, 121),1	3082,(14, 121),1	3152,(120, 121),1	3222,(95, 121),1	3292,(27, 121),1	3362,(61, 121),1	3432,(17, 121),1	3502,(41, 121),1	3572,(83, 121),1	3642,(48, 121),1	3712,(75, 121),1	3782,(16, 121),1	3852,(112, 121),1	3922,(70, 121),1	3992,(58, 121),1	4062,(62, 121),1	4132,(113, 121),1	4202,(73, 121),1	
# Outgoing
142,(2, 57),3	282,(8, 37),5	287,(8, 80),1	492,(102, 121),1	562,(107, 121),1	632,(91, 121),1	702,(71, 121),1	772,(59, 121),1	842,(44, 121),1	912,(109, 121),1	982,(26, 121),1	1052,(46, 121),1	1122,(49, 121),1	1192,(72, 121),1	1262,(117, 121),1	1332,(97, 121),1	1402,(111, 121),1	1472,(82, 121),1	1542,(76, 121),1	1612,(56, 121),1	1682,(119, 121),1	1752,(53, 121),1	1822,(31, 121),1	1892,(24, 121),1	1962,(20, 121),1	2032,(18, 121),1	2102,(15, 121),1	2172,(105, 121),1	2242,(77, 121),1	2312,(60, 121),1	2382,(51, 121),1	2452,(114, 121),1	2522,(110, 121),1	2592,(85, 121),1	2662,(116, 121),1	2732,(94, 121),1	2802,(36, 121),1	2872,(99, 121),1	2942,(50, 121),1	3012,(33, 121),1	3082,(14, 121),1	3152,(120, 121),1	3222,(95, 121),1	3292,(27, 121),1	3362,(61, 121),1	3432,(17, 121),1	3502,(41, 121),1	3572,(83, 121),1	3642,(48, 121),1	3712,(75, 121),1	3782,(16, 121),1	3852,(112, 121),1	3922,(70, 121),1	3992,(58, 121),1	4062,(62, 121),1	4132,(113, 121),1	4202,(73, 121),1	
1,(0, 1),1	2,(0, 2),1	3,(0, 5),1	4,(0, 8),1	5,(0, 9),1	6,(0, 10),1	71,(6, 26),2	73,(6, 46),1	74,(6, 49),2	76,(6, 72),8	141,(7, 15),1	142,(7, 105),1	211,(11, 33),1	
