1471
# CPU
136,4,14	150,24,14	164,64,14	178,76,14	192,80,14	271,8,14	285,20,14	299,40,14	313,68,14	327,52,14	341,16,14	355,32,14	369,44,14	383,56,14	397,28,14	411,12,14	526,48,14	793,72,14	1300,36,14	1435,60,14	
91,3,14	105,11,14	119,59,14	133,67,14	147,55,14	226,7,14	240,31,14	254,47,14	268,39,14	282,71,14	296,75,14	310,79,14	324,35,14	340,27,14	433,43,14	499,19,14	523,15,14	1249,51,14	1279,23,14	1453,63,14	
46,2,14	60,10,14	74,54,14	88,70,14	102,78,14	181,6,14	195,18,14	209,26,14	223,66,14	316,14,14	331,22,14	345,50,14	359,58,14	373,62,14	387,30,14	401,38,14	445,46,14	1267,74,14	1282,34,14	1303,42,14	
0,0,1	1,1,14	15,5,14	29,13,14	43,73,14	57,17,14	235,25,14	265,29,14	279,21,14	293,37,14	307,41,14	321,53,14	335,49,14	349,65,14	363,69,14	377,9,14	391,45,14	405,33,14	419,57,14	445,77,14	979,61,14	1470,81,1	
# Incoming
91,(0, 4),45	136,(2, 24),3	226,(0, 8),45	271,(2, 68),15	286,(7, 52),3	289,(6, 16),3	292,(6, 32),9	307,(6, 44),12	319,(6, 56),15	340,(1, 28),6	373,(7, 12),6	445,(1, 48),81	526,(3, 72),267	1282,(5, 36),18	1303,(5, 60),132	
46,(0, 3),45	91,(2, 11),6	97,(2, 55),33	181,(0, 7),45	226,(4, 39),15	241,(4, 71),3	285,(8, 75),6	291,(8, 79),6	301,(6, 35),3	331,(1, 27),9	346,(1, 43),87	433,(6, 19),66	499,(8, 15),24	526,(1, 51),723	1267,(5, 23),12	1435,(5, 63),18	
1,(0, 2),45	136,(0, 6),45	181,(4, 26),24	205,(4, 66),6	271,(1, 14),45	316,(1, 22),15	331,(3, 50),9	340,(3, 58),3	343,(3, 62),15	358,(7, 30),3	382,(7, 38),3	433,(1, 46),12	1249,(1, 74),18	1279,(5, 34),3	1300,(5, 42),3	
139,(2, 25),96	235,(2, 29),30	265,(10, 81),3	268,(54, 81),3	271,(3, 21),3	274,(3, 37),3	277,(3, 41),6	283,(11, 81),3	286,(70, 81),3	289,(3, 53),15	304,(78, 81),3	307,(59, 81),3	310,(67, 81),3	313,(4, 49),6	319,(4, 65),3	322,(55, 81),3	325,(24, 81),3	328,(64, 81),3	331,(76, 81),3	334,(6, 69),15	349,(80, 81),3	352,(18, 81),3	355,(26, 81),3	358,(66, 81),3	361,(7, 9),12	373,(8, 45),3	376,(20, 81),3	379,(7, 33),3	382,(40, 81),3	385,(7, 57),30	415,(31, 81),3	418,(47, 81),3	421,(39, 81),3	424,(8, 77),21	445,(71, 81),3	448,(75, 81),3	451,(79, 81),3	454,(68, 81),3	457,(35, 81),3	460,(52, 81),3	463,(27, 81),3	466,(16, 81),3	469,(32, 81),3	472,(44, 81),3	475,(56, 81),3	478,(28, 81),3	481,(12, 81),3	484,(43, 81),3	499,(14, 81),3	502,(22, 81),3	505,(50, 81),3	508,(58, 81),3	511,(62, 81),3	514,(30, 81),3	517,(38, 81),3	520,(46, 81),3	523,(19, 81),3	540,(48, 81),3	793,(7, 61),186	979,(15, 81),3	982,(72, 81),3	1263,(51, 81),3	1281,(74, 81),3	1293,(23, 81),3	1296,(34, 81),3	1314,(36, 81),3	1317,(42, 81),3	1449,(60, 81),3	1467,(63, 81),3	
# Outgoing
181,(4, 26),24	205,(4, 66),6	226,(4, 39),15	241,(4, 71),3	285,(8, 75),6	291,(8, 79),6	313,(4, 49),6	319,(4, 65),3	325,(24, 81),3	328,(64, 81),3	331,(76, 81),3	349,(80, 81),3	373,(8, 45),3	376,(20, 81),3	382,(40, 81),3	424,(8, 77),21	454,(68, 81),3	460,(52, 81),3	466,(16, 81),3	469,(32, 81),3	472,(44, 81),3	475,(56, 81),3	478,(28, 81),3	481,(12, 81),3	499,(8, 15),24	540,(48, 81),3	982,(72, 81),3	1314,(36, 81),3	1449,(60, 81),3	
271,(3, 21),3	274,(3, 37),3	277,(3, 41),6	283,(11, 81),3	286,(7, 52),3	289,(3, 53),15	307,(59, 81),3	310,(67, 81),3	322,(55, 81),3	331,(3, 50),9	340,(3, 58),3	343,(3, 62),15	358,(7, 30),3	361,(7, 9),12	373,(7, 12),6	379,(7, 33),3	382,(7, 38),3	385,(7, 57),30	415,(31, 81),3	418,(47, 81),3	421,(39, 81),3	445,(71, 81),3	448,(75, 81),3	451,(79, 81),3	457,(35, 81),3	463,(27, 81),3	484,(43, 81),3	523,(19, 81),3	526,(3, 72),267	793,(7, 61),186	979,(15, 81),3	1263,(51, 81),3	1293,(23, 81),3	1467,(63, 81),3	
91,(2, 11),6	97,(2, 55),33	136,(2, 24),3	139,(2, 25),96	235,(2, 29),30	265,(10, 81),3	268,(54, 81),3	271,(2, 68),15	286,(70, 81),3	289,(6, 16),3	292,(6, 32),9	301,(6, 35),3	304,(78, 81),3	307,(6, 44),12	319,(6, 56),15	334,(6, 69),15	352,(18, 81),3	355,(26, 81),3	358,(66, 81),3	433,(6, 19),66	499,(14, 81),3	502,(22, 81),3	505,(50, 81),3	508,(58, 81),3	511,(62, 81),3	514,(30, 81),3	517,(38, 81),3	520,(46, 81),3	1281,(74, 81),3	1296,(34, 81),3	1317,(42, 81),3	
1,(0, 2),45	46,(0, 3),45	91,(0, 4),45	136,(0, 6),45	181,(0, 7),45	226,(0, 8),45	271,(1, 14),45	316,(1, 22),15	331,(1, 27),9	340,(1, 28),6	346,(1, 43),87	433,(1, 46),12	445,(1, 48),81	526,(1, 51),723	1249,(1, 74),18	1267,(5, 23),12	1279,(5, 34),3	1282,(5, 36),18	1300,(5, 42),3	1303,(5, 60),132	1435,(5, 63),18	
