130
# CPU
0,0,1	1,1,18	19,10,18	37,5,18	55,8,18	73,16,18	105,12,18	129,21,1	
2,2,18	20,9,18	38,19,18	56,4,18	74,14,18	92,13,18	110,20,18	
20,6,18	42,18,18	60,17,18	106,15,18	
28,7,18	46,11,18	64,3,18	
# Incoming
38,(9, 21),1	39,(6, 21),1	46,(7, 21),1	56,(19, 21),1	60,(18, 21),1	64,(11, 21),1	65,(2, 16),8	74,(4, 21),1	78,(17, 21),1	82,(3, 21),1	92,(14, 21),1	93,(2, 12),12	110,(13, 21),1	124,(15, 21),1	128,(20, 21),1	
1,(0, 2),1	
19,(1, 6),1	28,(1, 18),14	42,(2, 17),2	75,(2, 15),13	
20,(1, 7),8	39,(2, 11),1	44,(2, 3),6	
# Outgoing
1,(0, 2),1	19,(1, 6),1	20,(1, 7),8	28,(1, 18),14	
38,(9, 21),1	39,(2, 11),1	42,(2, 17),2	44,(2, 3),6	56,(19, 21),1	65,(2, 16),8	74,(4, 21),1	75,(2, 15),13	92,(14, 21),1	93,(2, 12),12	110,(13, 21),1	128,(20, 21),1	
39,(6, 21),1	60,(18, 21),1	78,(17, 21),1	124,(15, 21),1	
46,(7, 21),1	64,(11, 21),1	82,(3, 21),1	
