78332
# CPU
0,0,1	1,9,6	7,20,6	13,16,6	19,7,6	25,19,6	31,14,6	37,11,6	29413,64,6	30241,96,6	30481,124,6	30607,134,6	35377,100,6	37522,155,6	37795,189,6	38062,41,6	38113,55,6	38965,93,6	39049,114,6	39208,120,6	39697,143,6	40174,192,6	40522,31,6	40687,42,6	41122,44,6	42181,58,6	42220,61,6	42646,71,6	42694,102,6	42709,109,6	42721,116,6	42940,122,6	43210,129,6	43372,159,6	43384,174,6	43435,175,6	43663,183,6	44065,29,6	44266,33,6	44281,35,6	44287,37,6	44305,62,6	44314,63,6	44569,68,6	44692,70,6	44983,77,6	46297,97,6	46312,99,6	54697,139,6	54727,140,6	54757,141,6	54763,142,6	54859,147,6	54865,157,6	54871,164,6	54916,173,6	55045,185,6	55153,190,6	55201,199,6	55207,27,6	55303,30,6	55357,40,6	55363,46,6	55477,47,6	55483,49,6	55531,50,6	55537,65,6	55543,67,6	55549,69,6	55576,72,6	55609,74,6	55663,75,6	55669,78,6	55675,79,6	55690,85,6	55696,87,6	55702,89,6	55714,92,6	55741,95,6	55756,101,6	55774,104,6	55780,108,6	55795,112,6	55903,117,6	55909,118,6	55951,127,6	55966,133,6	55972,136,6	55981,138,6	55993,161,6	56107,162,6	56125,165,6	56413,178,6	56419,180,6	56509,181,6	56818,184,6	56824,186,6	56866,191,6	56872,197,6	56893,198,6	56929,200,6	78331,201,1	
7,1,6	13,2,6	19,3,6	25,4,6	31,5,6	37,6,6	43,8,6	49,10,6	55,12,6	61,13,6	67,15,6	73,17,6	79,18,6	1789,36,6	1873,59,6	2302,146,6	2365,154,6	2488,169,6	2494,171,6	2515,187,6	2617,25,6	2656,43,6	2668,48,6	2701,54,6	2707,60,6	2917,106,6	3016,115,6	3037,123,6	3259,148,6	3484,23,6	3616,52,6	3640,57,6	3766,86,6	3826,94,6	3871,125,6	3910,132,6	3988,150,6	4009,152,6	4057,182,6	4147,28,6	4240,45,6	4246,51,6	4339,73,6	4351,81,6	4414,83,6	4429,90,6	4441,98,6	4462,103,6	4468,105,6	4486,110,6	4498,111,6	4516,113,6	4522,119,6	4528,128,6	4534,131,6	4549,135,6	4570,156,6	4579,163,6	4585,166,6	4603,167,6	4660,170,6	4669,172,6	4705,176,6	4711,179,6	4780,195,6	4795,21,6	4804,22,6	4813,24,6	4819,26,6	4843,32,6	4849,34,6	4864,38,6	4870,39,6	4885,53,6	4891,56,6	4897,66,6	4915,76,6	4924,80,6	4987,82,6	5041,84,6	5047,88,6	5071,91,6	5083,107,6	5089,121,6	5116,126,6	5122,130,6	5167,137,6	5215,144,6	5221,145,6	5263,149,6	5269,151,6	5275,153,6	5281,158,6	5287,160,6	5293,168,6	5299,177,6	5305,188,6	5311,193,6	5317,194,6	5338,196,6	
# Incoming
13,(1, 27),120	133,(1, 30),3	136,(1, 37),12	148,(1, 40),36	184,(1, 46),3	187,(1, 47),9	196,(1, 49),15	211,(1, 55),3	214,(1, 65),3	217,(1, 72),3	220,(1, 77),54	274,(1, 78),24	298,(1, 79),6	304,(1, 85),15	319,(1, 87),3	322,(1, 92),3	325,(1, 96),6	331,(1, 99),33	364,(1, 108),3	367,(1, 109),15	382,(1, 112),12	394,(1, 114),3	397,(1, 116),33	430,(1, 118),9	439,(1, 120),9	448,(1, 122),21	469,(1, 124),24	493,(1, 129),6	499,(1, 133),3	502,(1, 134),6	508,(1, 136),18	526,(1, 138),249	775,(1, 139),18	793,(1, 140),162	955,(1, 147),3	958,(1, 155),75	1033,(1, 159),3366	4399,(1, 161),12	4411,(1, 162),3	4414,(1, 164),72	4486,(1, 174),3	4489,(1, 178),39	4528,(1, 181),93	4621,(1, 183),3	4624,(1, 189),39	4663,(1, 190),63	4726,(1, 197),3	4729,(1, 199),3	4732,(1, 200),3	4735,(2, 27),162	4897,(2, 30),21	4918,(2, 33),3	4921,(2, 37),3	4924,(2, 47),3	4927,(2, 49),6	4933,(2, 50),45	4978,(2, 55),6	4984,(2, 58),63	5047,(2, 61),24	5071,(2, 65),216	5287,(2, 68),75	5362,(2, 69),99	5461,(2, 74),3	5464,(2, 75),3	5467,(2, 78),6	5473,(2, 79),9	5482,(2, 85),9	5491,(2, 92),3	5494,(2, 95),60	5554,(2, 97),9	5563,(2, 101),3	5566,(2, 104),3	5569,(2, 112),3	5572,(2, 117),12	5584,(2, 122),3	5587,(2, 127),3	5590,(2, 133),3	5593,(2, 134),51	5644,(2, 138),3	5647,(2, 140),288	5935,(2, 141),6	5941,(2, 142),24	5965,(2, 143),18	5983,(2, 157),3	5986,(2, 161),3	5989,(2, 162),45	6034,(2, 164),3	6037,(2, 165),3	6040,(2, 173),3	6043,(2, 174),6	6049,(2, 178),9	6058,(2, 183),2436	8494,(2, 184),3	8497,(2, 185),3	8500,(2, 189),9	8509,(2, 190),3	8512,(2, 197),9	8521,(2, 198),9	8530,(2, 199),15	8545,(2, 200),3	8548,(3, 29),9	8557,(3, 31),3	8560,(3, 37),15	8575,(3, 40),30	8605,(3, 42),12	8617,(3, 46),21	8638,(3, 50),3	8641,(3, 55),48	8689,(3, 58),21	8710,(3, 61),3	8713,(3, 62),3	8716,(3, 64),3	8719,(3, 67),24	8743,(3, 71),3	8746,(3, 72),33	8779,(3, 75),18	8797,(3, 79),6	8803,(3, 85),294	9097,(3, 87),3	9100,(3, 89),12	9112,(3, 92),24	9136,(3, 96),3	9139,(3, 97),3	9142,(3, 101),15	9157,(3, 102),45	9202,(3, 104),6	9208,(3, 108),6	9214,(3, 112),3	9217,(3, 114),9	9226,(3, 117),12	9238,(3, 120),3	9241,(3, 124),21	9262,(3, 127),3	9265,(3, 129),12	9277,(3, 133),21	9298,(3, 134),99	9397,(3, 139),30	9427,(3, 142),3	9430,(3, 155),36	9466,(3, 159),3	9469,(3, 173),3	9472,(3, 175),48	9520,(3, 178),15	9535,(3, 180),72	9607,(3, 183),99	9706,(3, 184),303	10009,(3, 186),270	10279,(3, 189),3	10282,(3, 190),3	10285,(3, 199),48	10333,(4, 27),12	10345,(4, 30),147	10492,(4, 33),60	10552,(4, 35),3	10555,(4, 37),18	10573,(4, 41),21	10594,(4, 44),6	10600,(4, 46),3	10603,(4, 47),21	10624,(4, 49),15	10639,(4, 50),645	11284,(4, 64),12	11296,(4, 67),3	11299,(4, 69),9	11308,(4, 70),12	11320,(4, 71),6	11326,(4, 78),15	11341,(4, 79),30	11371,(4, 85),66	11437,(4, 87),3	11440,(4, 89),33	11473,(4, 92),3	11476,(4, 93),3	11479,(4, 96),27	11506,(4, 97),3	11509,(4, 99),3	11512,(4, 100),3	11515,(4, 102),69	11584,(4, 104),3	11587,(4, 109),9	11596,(4, 114),30	11626,(4, 116),990	12616,(4, 118),27	12643,(4, 122),69	12712,(4, 124),6	12718,(4, 139),126	12844,(4, 142),9	12853,(4, 143),3	12856,(4, 157),3	12859,(4, 159),3	12862,(4, 164),6	12868,(4, 165),42	12910,(4, 174),3	12913,(4, 175),3	12916,(4, 178),6	12922,(4, 180),3	12925,(4, 183),9	12934,(4, 185),42	12976,(4, 192),99	13075,(4, 197),36	13111,(4, 199),15	13126,(5, 27),3	13129,(5, 30),3	13132,(5, 31),3	13135,(5, 35),3	13138,(5, 41),39	13177,(5, 42),3	13180,(5, 44),30	13210,(5, 50),3	13213,(5, 58),3	13216,(5, 61),3	13219,(5, 62),27	13246,(5, 67),3	13249,(5, 69),12	13261,(5, 71),3	13264,(5, 72),9	13273,(5, 74),3	13276,(5, 75),39	13315,(5, 79),135	13450,(5, 85),27	13477,(5, 87),3	13480,(5, 93),36	13516,(5, 95),3	13519,(5, 96),18	13537,(5, 99),9	13546,(5, 100),108	13654,(5, 101),6	13660,(5, 102),78	13738,(5, 104),6	13744,(5, 109),6	13750,(5, 114),18	13768,(5, 116),3	13771,(5, 117),45	13816,(5, 118),240	14056,(5, 120),144	14200,(5, 122),36	14236,(5, 127),6	14242,(5, 129),15	14257,(5, 136),24	14281,(5, 141),3	14284,(5, 142),30	14314,(5, 147),3	14317,(5, 155),3	14320,(5, 157),195	14515,(5, 165),6	14521,(5, 174),3	14524,(5, 180),726	15250,(5, 185),6	15256,(5, 191),6	15262,(5, 192),405	15667,(5, 197),9	15676,(5, 200),18	15694,(6, 27),105	15799,(6, 30),3	15802,(6, 31),3	15805,(6, 33),9	15814,(6, 35),18	15832,(6, 37),15	15847,(6, 40),6	15853,(6, 41),6	15859,(6, 46),3	15862,(6, 47),21	15883,(6, 49),21	15904,(6, 58),9	15913,(6, 62),9	15922,(6, 63),6	15928,(6, 65),3	15931,(6, 68),3	15934,(6, 69),15	15949,(6, 70),6	15955,(6, 71),3	15958,(6, 75),54	16012,(6, 78),3	16015,(6, 92),21	16036,(6, 93),33	16069,(6, 95),267	16336,(6, 96),3	16339,(6, 102),15	16354,(6, 108),3	16357,(6, 109),6	16363,(6, 116),42	16405,(6, 120),3	16408,(6, 122),93	16501,(6, 124),12	16513,(6, 129),69	16582,(6, 134),24	16606,(6, 136),15	16621,(6, 138),6	16627,(6, 139),5667	22294,(6, 142),801	23095,(6, 157),192	23287,(6, 159),39	23326,(6, 162),936	24262,(6, 164),24	24286,(6, 165),2892	27178,(6, 175),9	27187,(6, 178),9	27196,(6, 181),9	27205,(6, 183),9	27214,(6, 189),3	27217,(6, 190),45	27262,(6, 191),36	27298,(6, 197),3	27301,(6, 199),3	27304,(6, 200),6	27310,(8, 27),3	27313,(8, 30),24	27337,(8, 35),165	27502,(8, 41),15	27517,(8, 46),3	27520,(8, 47),24	27544,(8, 49),3	27547,(8, 50),120	27667,(8, 61),51	27718,(8, 62),15	27733,(8, 67),3	27736,(8, 70),12	27748,(8, 72),3	27751,(8, 74),105	27856,(8, 79),78	27934,(8, 87),6	27940,(8, 92),12	27952,(8, 96),42	27994,(8, 97),3	27997,(8, 99),30	28027,(8, 100),33	28060,(8, 109),60	28120,(8, 117),3	28123,(8, 120),3	28126,(8, 127),6	28132,(8, 133),3	28135,(8, 136),27	28162,(8, 139),3	28165,(8, 143),3	28168,(8, 147),3	28171,(8, 155),27	28198,(8, 159),6	28204,(8, 165),9	28213,(8, 173),42	28255,(8, 174),3	28258,(8, 180),3	28261,(8, 183),9	28270,(8, 184),36	28306,(8, 186),12	28318,(8, 189),3	28321,(8, 190),60	28381,(8, 191),81	28462,(8, 192),105	28567,(8, 198),3	28570,(8, 199),78	28648,(8, 200),9	28657,(10, 27),9	28666,(10, 29),9	28675,(10, 30),6	28681,(10, 35),9	28690,(10, 37),3	28693,(10, 40),21	28714,(10, 41),381	29095,(10, 42),63	29158,(10, 46),72	29230,(10, 47),87	29317,(10, 50),57	29374,(10, 55),24	29398,(10, 62),6	29404,(10, 63),6	29410,(10, 64),3	29413,(10, 65),66	29479,(10, 67),3	29482,(10, 69),15	29497,(10, 70),81	29578,(10, 74),3	29581,(10, 75),225	29806,(10, 85),42	29848,(10, 87),129	29977,(10, 89),3	29980,(10, 92),18	29998,(10, 93),3	30001,(10, 96),240	30241,(10, 99),39	30280,(10, 100),102	30382,(10, 101),18	30400,(10, 102),21	30421,(10, 104),18	30439,(10, 109),3	30442,(10, 112),30	30472,(10, 117),3	30475,(10, 120),3	30478,(10, 124),3	30481,(10, 129),123	30604,(10, 134),3	30607,(10, 138),111	30718,(10, 139),15	30733,(10, 143),3	30736,(10, 147),42	30778,(10, 155),54	30832,(10, 157),78	30910,(10, 164),3	30913,(10, 165),111	31024,(10, 175),132	31156,(10, 178),252	31408,(10, 181),51	31459,(10, 183),18	31477,(10, 185),54	31531,(10, 189),2682	34213,(10, 190),6	34219,(10, 191),15	34234,(10, 192),48	34282,(10, 200),3	34285,(12, 29),30	34315,(12, 30),9	34324,(12, 33),21	34345,(12, 37),24	34369,(12, 40),6	34375,(12, 41),39	34414,(12, 44),12	34426,(12, 46),3	34429,(12, 47),213	34642,(12, 49),111	34753,(12, 55),6	34759,(12, 61),123	34882,(12, 62),21	34903,(12, 63),12	34915,(12, 65),3	34918,(12, 68),6	34924,(12, 69),108	35032,(12, 74),6	35038,(12, 75),114	35152,(12, 77),36	35188,(12, 78),153	35341,(12, 79),27	35368,(12, 93),3	35371,(12, 100),6	35377,(12, 104),66	35443,(12, 108),9	35452,(12, 109),27	35479,(12, 112),6	35485,(12, 114),1008	36493,(12, 117),30	36523,(12, 120),927	37450,(12, 122),6	37456,(12, 127),24	37480,(12, 129),3	37483,(12, 133),3	37486,(12, 138),3	37489,(12, 141),15	37504,(12, 142),3	37507,(12, 143),6	37513,(12, 155),9	37522,(12, 157),66	37588,(12, 159),6	37594,(12, 161),6	37600,(12, 173),6	37606,(12, 180),9	37615,(12, 189),180	37795,(12, 190),24	37819,(12, 191),66	37885,(12, 192),63	37948,(13, 27),27	37975,(13, 29),9	37984,(13, 30),6	37990,(13, 31),3	37993,(13, 33),15	38008,(13, 35),12	38020,(13, 37),36	38056,(13, 41),6	38062,(13, 42),3	38065,(13, 46),21	38086,(13, 50),3	38089,(13, 55),24	38113,(13, 61),81	38194,(13, 62),18	38212,(13, 63),6	38218,(13, 65),6	38224,(13, 67),9	38233,(13, 68),18	38251,(13, 70),3	38254,(13, 72),3	38257,(13, 74),378	38635,(13, 75),273	38908,(13, 78),15	38923,(13, 79),3	38926,(13, 87),12	38938,(13, 92),15	38953,(13, 93),12	38965,(13, 95),12	38977,(13, 97),3	38980,(13, 99),24	39004,(13, 102),3	39007,(13, 108),3	39010,(13, 109),21	39031,(13, 114),18	39049,(13, 117),18	39067,(13, 118),138	39205,(13, 120),3	39208,(13, 122),114	39322,(13, 127),75	39397,(13, 129),3	39400,(13, 133),27	39427,(13, 136),3	39430,(13, 140),6	39436,(13, 141),3	39439,(13, 142),255	39694,(13, 143),3	39697,(13, 157),12	39709,(13, 159),63	39772,(13, 161),12	39784,(13, 175),6	39790,(13, 178),66	39856,(13, 180),297	40153,(13, 186),3	40156,(13, 191),15	40171,(13, 192),3	40174,(13, 197),96	40270,(13, 199),45	40315,(13, 200),12	40327,(15, 27),108	40435,(15, 29),60	40495,(15, 31),27	40522,(15, 33),3	40525,(15, 37),153	40678,(15, 40),6	40684,(15, 42),3	40687,(15, 44),435	41122,(15, 47),15	41137,(15, 49),1038	42175,(15, 50),3	42178,(15, 58),3	42181,(15, 61),39	42220,(15, 62),3	42223,(15, 67),18	42241,(15, 69),3	42244,(15, 70),384	42628,(15, 71),18	42646,(15, 75),21	42667,(15, 78),3	42670,(15, 87),3	42673,(15, 102),21	42694,(15, 109),15	42709,(15, 112),3	42712,(15, 116),9	42721,(15, 117),21	42742,(15, 118),165	42907,(15, 122),33	42940,(15, 129),270	43210,(15, 139),18	43228,(15, 140),9	43237,(15, 141),63	43300,(15, 142),48	43348,(15, 147),3	43351,(15, 157),3	43354,(15, 159),18	43372,(15, 173),3	43375,(15, 174),9	43384,(15, 175),51	43435,(15, 178),96	43531,(15, 180),99	43630,(15, 181),18	43648,(15, 183),15	43663,(15, 184),3	43666,(15, 185),126	43792,(15, 186),6	43798,(15, 190),3	43801,(15, 191),6	43807,(15, 197),138	43945,(15, 200),75	44020,(17, 29),45	44065,(17, 30),135	44200,(17, 33),66	44266,(17, 35),15	44281,(17, 37),3	44284,(17, 46),6	44290,(17, 49),3	44293,(17, 50),9	44302,(17, 62),3	44305,(17, 63),9	44314,(17, 65),120	44434,(17, 67),15	44449,(17, 68),120	44569,(17, 69),33	44602,(17, 70),90	44692,(17, 74),162	44854,(17, 75),39	44893,(17, 77),90	44983,(17, 78),3	44986,(17, 79),1302	46288,(17, 89),3	46291,(17, 92),3	46294,(17, 97),3	46297,(17, 99),15	46312,(17, 101),3	46315,(17, 104),6	46321,(17, 108),18	46339,(17, 112),3	46342,(17, 117),3	46345,(17, 118),39	46384,(17, 136),8310	54694,(17, 139),3	54697,(17, 140),30	54727,(17, 141),30	54757,(17, 142),3	54760,(17, 147),99	54859,(17, 157),3	54862,(17, 161),3	54865,(17, 162),3	54868,(17, 164),3	54871,(17, 165),21	54892,(17, 173),24	54916,(17, 181),12	54928,(17, 185),117	55045,(17, 186),84	55129,(17, 190),24	55153,(17, 197),3	55156,(17, 198),42	55198,(17, 199),3	55201,(18, 27),3	55204,(18, 30),99	55303,(18, 40),54	55357,(18, 46),6	55363,(18, 47),114	55477,(18, 49),3	55480,(18, 50),51	55531,(18, 65),3	55534,(18, 67),6	55540,(18, 69),6	55546,(18, 72),30	55576,(18, 74),33	55609,(18, 75),54	55663,(18, 78),3	55666,(18, 79),3	55669,(18, 85),21	55690,(18, 87),6	55696,(18, 89),3	55699,(18, 92),15	55714,(18, 95),27	55741,(18, 101),15	55756,(18, 104),18	55774,(18, 108),3	55777,(18, 112),18	55795,(18, 117),108	55903,(18, 118),3	55906,(18, 127),45	55951,(18, 133),15	55966,(18, 136),3	55969,(18, 138),12	55981,(18, 161),12	55993,(18, 162),114	56107,(18, 165),18	56125,(18, 178),288	56413,(18, 180),3	56416,(18, 181),93	56509,(18, 184),309	56818,(18, 186),3	56821,(18, 191),45	56866,(18, 197),3	56869,(18, 198),24	56893,(18, 200),36	56929,(36, 201),246	57175,(59, 201),246	57421,(146, 201),246	57667,(154, 201),246	57913,(169, 201),246	58159,(171, 201),246	58405,(187, 201),246	58651,(25, 201),246	58897,(43, 201),246	59143,(48, 201),246	59389,(54, 201),246	59635,(60, 201),246	59881,(106, 201),246	60127,(115, 201),246	60373,(123, 201),246	60619,(148, 201),246	60865,(23, 201),246	61111,(52, 201),246	61357,(57, 201),246	61603,(86, 201),246	61849,(94, 201),246	62095,(125, 201),246	62341,(132, 201),246	62587,(150, 201),246	62833,(152, 201),246	63079,(182, 201),246	63325,(28, 201),246	63571,(45, 201),246	63817,(51, 201),246	64063,(73, 201),246	64309,(81, 201),246	64555,(83, 201),246	64801,(90, 201),246	65047,(98, 201),246	65293,(103, 201),246	65539,(105, 201),246	65785,(110, 201),246	66031,(111, 201),246	66277,(113, 201),246	66523,(119, 201),246	66769,(128, 201),246	67015,(131, 201),246	67261,(135, 201),246	67507,(156, 201),246	67753,(163, 201),246	67999,(166, 201),246	68245,(167, 201),246	68491,(170, 201),246	68737,(172, 201),246	68983,(176, 201),246	69229,(179, 201),246	69475,(195, 201),246	69721,(21, 201),246	69967,(22, 201),246	70213,(24, 201),246	70459,(26, 201),246	70705,(32, 201),246	70951,(34, 201),246	71197,(38, 201),246	71443,(39, 201),246	71689,(53, 201),246	71935,(56, 201),246	72181,(66, 201),246	72427,(76, 201),246	72673,(80, 201),246	72919,(82, 201),246	73165,(84, 201),246	73411,(88, 201),246	73657,(91, 201),246	73903,(107, 201),246	74149,(121, 201),246	74395,(126, 201),246	74641,(130, 201),246	74887,(137, 201),246	75133,(144, 201),246	75379,(145, 201),246	75625,(149, 201),246	75871,(151, 201),246	76117,(153, 201),246	76363,(158, 201),246	76609,(160, 201),246	76855,(168, 201),246	77101,(177, 201),246	77347,(188, 201),246	77593,(193, 201),246	77839,(194, 201),246	78085,(196, 201),246	
1,(0, 1),6	7,(0, 2),6	13,(0, 3),6	19,(0, 4),6	25,(0, 5),6	31,(0, 6),6	37,(0, 8),6	43,(0, 10),6	49,(0, 12),6	55,(0, 13),6	61,(0, 15),6	67,(0, 17),6	73,(0, 18),6	79,(9, 22),87	166,(9, 32),3	169,(9, 38),9	178,(9, 39),3	181,(9, 43),6	187,(9, 45),48	235,(9, 48),3	238,(9, 51),36	274,(9, 53),15	289,(9, 54),36	325,(9, 56),3	328,(9, 57),15	343,(9, 60),102	445,(9, 76),24	469,(9, 80),3	472,(9, 82),9	481,(9, 98),18	499,(9, 105),3	502,(9, 106),9	511,(9, 111),3	514,(9, 113),30	544,(9, 126),9	553,(9, 128),69	622,(9, 135),9	631,(9, 144),6	637,(9, 145),90	727,(9, 146),21	748,(9, 148),69	817,(9, 151),3	820,(9, 156),3	823,(9, 158),81	904,(9, 167),3	907,(9, 169),45	952,(9, 176),3	955,(9, 179),3	958,(9, 182),6	964,(9, 187),9	973,(9, 193),24	997,(9, 194),36	1033,(9, 195),18	1051,(20, 22),6	1057,(20, 24),3	1060,(20, 26),21	1081,(20, 32),9	1090,(20, 36),12	1102,(20, 38),75	1177,(20, 43),9	1186,(20, 52),9	1195,(20, 57),27	1222,(20, 59),15	1237,(20, 76),3	1240,(20, 81),3	1243,(20, 84),9	1252,(20, 86),3	1255,(20, 105),21	1276,(20, 107),99	1375,(20, 113),9	1384,(20, 115),9	1393,(20, 119),3	1396,(20, 121),18	1414,(20, 123),30	1444,(20, 126),24	1468,(20, 128),51	1519,(20, 130),9	1528,(20, 135),3	1531,(20, 144),18	1549,(20, 145),21	1570,(20, 146),15	1585,(20, 156),3	1588,(20, 158),3	1591,(20, 160),3	1594,(20, 163),3	1597,(20, 167),21	1618,(20, 168),3	1621,(20, 176),30	1651,(20, 179),3	1654,(20, 182),39	1693,(20, 187),6	1699,(20, 193),3	1702,(20, 194),36	1738,(20, 195),3	1741,(20, 196),3	1744,(16, 21),12	1756,(16, 22),3	1759,(16, 28),24	1783,(16, 36),6	1789,(16, 39),33	1822,(16, 43),3	1825,(16, 56),15	1840,(16, 57),27	1867,(16, 59),6	1873,(16, 60),57	1930,(16, 66),60	1990,(16, 76),78	2068,(16, 80),3	2071,(16, 81),21	2092,(16, 84),12	2104,(16, 88),6	2110,(16, 90),3	2113,(16, 91),3	2116,(16, 98),18	2134,(16, 103),3	2137,(16, 105),33	2170,(16, 106),12	2182,(16, 110),24	2206,(16, 115),18	2224,(16, 119),27	2251,(16, 121),12	2263,(16, 126),9	2272,(16, 128),3	2275,(16, 130),3	2278,(16, 135),3	2281,(16, 137),6	2287,(16, 146),15	2302,(16, 151),42	2344,(16, 152),12	2356,(16, 154),9	2365,(16, 156),3	2368,(16, 160),9	2377,(16, 163),3	2380,(16, 166),3	2383,(16, 167),6	2389,(16, 169),99	2488,(16, 171),3	2491,(16, 179),3	2494,(16, 187),21	2515,(16, 188),18	2533,(16, 193),33	2566,(16, 194),39	2605,(7, 25),12	2617,(7, 28),33	2650,(7, 39),3	2653,(7, 43),3	2656,(7, 48),12	2668,(7, 52),15	2683,(7, 54),18	2701,(7, 60),3	2704,(7, 66),48	2752,(7, 73),12	2764,(7, 80),21	2785,(7, 82),9	2794,(7, 84),3	2797,(7, 86),3	2800,(7, 91),18	2818,(7, 98),84	2902,(7, 103),12	2914,(7, 106),3	2917,(7, 111),12	2929,(7, 115),87	3016,(7, 119),3	3019,(7, 121),9	3028,(7, 123),9	3037,(7, 126),48	3085,(7, 128),21	3106,(7, 130),78	3184,(7, 137),3	3187,(7, 144),66	3253,(7, 145),3	3256,(7, 148),3	3259,(7, 149),3	3262,(7, 150),3	3265,(7, 151),30	3295,(7, 156),63	3358,(7, 160),6	3364,(7, 163),3	3367,(7, 166),3	3370,(7, 167),21	3391,(7, 172),6	3397,(7, 179),57	3454,(7, 188),6	3460,(7, 193),3	3463,(19, 22),9	3472,(19, 23),12	3484,(19, 24),78	3562,(19, 26),6	3568,(19, 28),24	3592,(19, 34),9	3601,(19, 45),12	3613,(19, 52),3	3616,(19, 56),15	3631,(19, 57),9	3640,(19, 73),27	3667,(19, 81),84	3751,(19, 84),3	3754,(19, 86),12	3766,(19, 90),42	3808,(19, 94),18	3826,(19, 98),18	3844,(19, 105),6	3850,(19, 110),3	3853,(19, 111),3	3856,(19, 121),6	3862,(19, 125),9	3871,(19, 130),18	3889,(19, 132),21	3910,(19, 135),3	3913,(19, 137),72	3985,(19, 150),3	3988,(19, 152),21	4009,(19, 153),3	4012,(19, 160),3	4015,(19, 163),9	4024,(19, 166),3	4027,(19, 172),6	4033,(19, 179),3	4036,(19, 182),21	4057,(19, 188),6	4063,(19, 195),24	4087,(14, 21),24	4111,(14, 22),21	4132,(14, 26),12	4144,(14, 28),3	4147,(14, 32),45	4192,(14, 34),6	4198,(14, 38),6	4204,(14, 39),24	4228,(14, 45),12	4240,(14, 51),3	4243,(14, 53),78	4321,(14, 66),15	4336,(14, 73),3	4339,(14, 76),3	4342,(14, 81),9	4351,(14, 82),3	4354,(14, 83),60	4414,(14, 84),9	4423,(14, 90),6	4429,(14, 91),9	4438,(14, 98),3	4441,(14, 103),21	4462,(14, 105),3	4465,(14, 107),6	4471,(14, 110),15	4486,(14, 111),12	4498,(14, 113),18	4516,(14, 119),3	4519,(14, 128),3	4522,(14, 131),9	4531,(14, 135),18	4549,(14, 149),3	4552,(14, 153),15	4567,(14, 156),3	4570,(14, 160),6	4576,(14, 163),3	4579,(14, 166),6	4585,(14, 167),18	4603,(14, 168),24	4627,(14, 170),33	4660,(14, 172),9	4669,(14, 176),36	4705,(14, 179),3	4708,(14, 188),36	4744,(14, 195),36	4780,(14, 196),6	4786,(11, 21),9	4795,(11, 22),9	4804,(11, 24),9	4813,(11, 26),3	4816,(11, 32),27	4843,(11, 34),3	4846,(11, 38),18	4864,(11, 39),6	4870,(11, 53),15	4885,(11, 56),6	4891,(11, 66),3	4894,(11, 76),21	4915,(11, 80),9	4924,(11, 82),63	4987,(11, 84),54	5041,(11, 88),3	5044,(11, 91),27	5071,(11, 107),12	5083,(11, 121),3	5086,(11, 126),30	5116,(11, 130),3	5119,(11, 137),48	5167,(11, 144),48	5215,(11, 145),6	5221,(11, 149),42	5263,(11, 151),3	5266,(11, 153),6	5272,(11, 158),3	5275,(11, 160),3	5278,(11, 168),12	5290,(11, 177),3	5293,(11, 188),12	5305,(11, 193),6	5311,(11, 194),6	5317,(11, 196),21	
# Outgoing
1,(0, 1),6	7,(0, 2),6	13,(0, 3),6	19,(0, 4),6	25,(0, 5),6	31,(0, 6),6	37,(0, 8),6	43,(0, 10),6	49,(0, 12),6	55,(0, 13),6	61,(0, 15),6	67,(0, 17),6	73,(0, 18),6	79,(9, 22),87	166,(9, 32),3	169,(9, 38),9	178,(9, 39),3	181,(9, 43),6	187,(9, 45),48	235,(9, 48),3	238,(9, 51),36	274,(9, 53),15	289,(9, 54),36	325,(9, 56),3	328,(9, 57),15	343,(9, 60),102	445,(9, 76),24	469,(9, 80),3	472,(9, 82),9	481,(9, 98),18	499,(9, 105),3	502,(9, 106),9	511,(9, 111),3	514,(9, 113),30	544,(9, 126),9	553,(9, 128),69	622,(9, 135),9	631,(9, 144),6	637,(9, 145),90	727,(9, 146),21	748,(9, 148),69	817,(9, 151),3	820,(9, 156),3	823,(9, 158),81	904,(9, 167),3	907,(9, 169),45	952,(9, 176),3	955,(9, 179),3	958,(9, 182),6	964,(9, 187),9	973,(9, 193),24	997,(9, 194),36	1033,(9, 195),18	1051,(20, 22),6	1057,(20, 24),3	1060,(20, 26),21	1081,(20, 32),9	1090,(20, 36),12	1102,(20, 38),75	1177,(20, 43),9	1186,(20, 52),9	1195,(20, 57),27	1222,(20, 59),15	1237,(20, 76),3	1240,(20, 81),3	1243,(20, 84),9	1252,(20, 86),3	1255,(20, 105),21	1276,(20, 107),99	1375,(20, 113),9	1384,(20, 115),9	1393,(20, 119),3	1396,(20, 121),18	1414,(20, 123),30	1444,(20, 126),24	1468,(20, 128),51	1519,(20, 130),9	1528,(20, 135),3	1531,(20, 144),18	1549,(20, 145),21	1570,(20, 146),15	1585,(20, 156),3	1588,(20, 158),3	1591,(20, 160),3	1594,(20, 163),3	1597,(20, 167),21	1618,(20, 168),3	1621,(20, 176),30	1651,(20, 179),3	1654,(20, 182),39	1693,(20, 187),6	1699,(20, 193),3	1702,(20, 194),36	1738,(20, 195),3	1741,(20, 196),3	1744,(16, 21),12	1756,(16, 22),3	1759,(16, 28),24	1783,(16, 36),6	1789,(16, 39),33	1822,(16, 43),3	1825,(16, 56),15	1840,(16, 57),27	1867,(16, 59),6	1873,(16, 60),57	1930,(16, 66),60	1990,(16, 76),78	2068,(16, 80),3	2071,(16, 81),21	2092,(16, 84),12	2104,(16, 88),6	2110,(16, 90),3	2113,(16, 91),3	2116,(16, 98),18	2134,(16, 103),3	2137,(16, 105),33	2170,(16, 106),12	2182,(16, 110),24	2206,(16, 115),18	2224,(16, 119),27	2251,(16, 121),12	2263,(16, 126),9	2272,(16, 128),3	2275,(16, 130),3	2278,(16, 135),3	2281,(16, 137),6	2287,(16, 146),15	2302,(16, 151),42	2344,(16, 152),12	2356,(16, 154),9	2365,(16, 156),3	2368,(16, 160),9	2377,(16, 163),3	2380,(16, 166),3	2383,(16, 167),6	2389,(16, 169),99	2488,(16, 171),3	2491,(16, 179),3	2494,(16, 187),21	2515,(16, 188),18	2533,(16, 193),33	2566,(16, 194),39	2605,(7, 25),12	2617,(7, 28),33	2650,(7, 39),3	2653,(7, 43),3	2656,(7, 48),12	2668,(7, 52),15	2683,(7, 54),18	2701,(7, 60),3	2704,(7, 66),48	2752,(7, 73),12	2764,(7, 80),21	2785,(7, 82),9	2794,(7, 84),3	2797,(7, 86),3	2800,(7, 91),18	2818,(7, 98),84	2902,(7, 103),12	2914,(7, 106),3	2917,(7, 111),12	2929,(7, 115),87	3016,(7, 119),3	3019,(7, 121),9	3028,(7, 123),9	3037,(7, 126),48	3085,(7, 128),21	3106,(7, 130),78	3184,(7, 137),3	3187,(7, 144),66	3253,(7, 145),3	3256,(7, 148),3	3259,(7, 149),3	3262,(7, 150),3	3265,(7, 151),30	3295,(7, 156),63	3358,(7, 160),6	3364,(7, 163),3	3367,(7, 166),3	3370,(7, 167),21	3391,(7, 172),6	3397,(7, 179),57	3454,(7, 188),6	3460,(7, 193),3	3463,(19, 22),9	3472,(19, 23),12	3484,(19, 24),78	3562,(19, 26),6	3568,(19, 28),24	3592,(19, 34),9	3601,(19, 45),12	3613,(19, 52),3	3616,(19, 56),15	3631,(19, 57),9	3640,(19, 73),27	3667,(19, 81),84	3751,(19, 84),3	3754,(19, 86),12	3766,(19, 90),42	3808,(19, 94),18	3826,(19, 98),18	3844,(19, 105),6	3850,(19, 110),3	3853,(19, 111),3	3856,(19, 121),6	3862,(19, 125),9	3871,(19, 130),18	3889,(19, 132),21	3910,(19, 135),3	3913,(19, 137),72	3985,(19, 150),3	3988,(19, 152),21	4009,(19, 153),3	4012,(19, 160),3	4015,(19, 163),9	4024,(19, 166),3	4027,(19, 172),6	4033,(19, 179),3	4036,(19, 182),21	4057,(19, 188),6	4063,(19, 195),24	4087,(14, 21),24	4111,(14, 22),21	4132,(14, 26),12	4144,(14, 28),3	4147,(14, 32),45	4192,(14, 34),6	4198,(14, 38),6	4204,(14, 39),24	4228,(14, 45),12	4240,(14, 51),3	4243,(14, 53),78	4321,(14, 66),15	4336,(14, 73),3	4339,(14, 76),3	4342,(14, 81),9	4351,(14, 82),3	4354,(14, 83),60	4414,(14, 84),9	4423,(14, 90),6	4429,(14, 91),9	4438,(14, 98),3	4441,(14, 103),21	4462,(14, 105),3	4465,(14, 107),6	4471,(14, 110),15	4486,(14, 111),12	4498,(14, 113),18	4516,(14, 119),3	4519,(14, 128),3	4522,(14, 131),9	4531,(14, 135),18	4549,(14, 149),3	4552,(14, 153),15	4567,(14, 156),3	4570,(14, 160),6	4576,(14, 163),3	4579,(14, 166),6	4585,(14, 167),18	4603,(14, 168),24	4627,(14, 170),33	4660,(14, 172),9	4669,(14, 176),36	4705,(14, 179),3	4708,(14, 188),36	4744,(14, 195),36	4780,(14, 196),6	4786,(11, 21),9	4795,(11, 22),9	4804,(11, 24),9	4813,(11, 26),3	4816,(11, 32),27	4843,(11, 34),3	4846,(11, 38),18	4864,(11, 39),6	4870,(11, 53),15	4885,(11, 56),6	4891,(11, 66),3	4894,(11, 76),21	4915,(11, 80),9	4924,(11, 82),63	4987,(11, 84),54	5041,(11, 88),3	5044,(11, 91),27	5071,(11, 107),12	5083,(11, 121),3	5086,(11, 126),30	5116,(11, 130),3	5119,(11, 137),48	5167,(11, 144),48	5215,(11, 145),6	5221,(11, 149),42	5263,(11, 151),3	5266,(11, 153),6	5272,(11, 158),3	5275,(11, 160),3	5278,(11, 168),12	5290,(11, 177),3	5293,(11, 188),12	5305,(11, 193),6	5311,(11, 194),6	5317,(11, 196),21	
13,(1, 27),120	133,(1, 30),3	136,(1, 37),12	148,(1, 40),36	184,(1, 46),3	187,(1, 47),9	196,(1, 49),15	211,(1, 55),3	214,(1, 65),3	217,(1, 72),3	220,(1, 77),54	274,(1, 78),24	298,(1, 79),6	304,(1, 85),15	319,(1, 87),3	322,(1, 92),3	325,(1, 96),6	331,(1, 99),33	364,(1, 108),3	367,(1, 109),15	382,(1, 112),12	394,(1, 114),3	397,(1, 116),33	430,(1, 118),9	439,(1, 120),9	448,(1, 122),21	469,(1, 124),24	493,(1, 129),6	499,(1, 133),3	502,(1, 134),6	508,(1, 136),18	526,(1, 138),249	775,(1, 139),18	793,(1, 140),162	955,(1, 147),3	958,(1, 155),75	1033,(1, 159),3366	4399,(1, 161),12	4411,(1, 162),3	4414,(1, 164),72	4486,(1, 174),3	4489,(1, 178),39	4528,(1, 181),93	4621,(1, 183),3	4624,(1, 189),39	4663,(1, 190),63	4726,(1, 197),3	4729,(1, 199),3	4732,(1, 200),3	4735,(2, 27),162	4897,(2, 30),21	4918,(2, 33),3	4921,(2, 37),3	4924,(2, 47),3	4927,(2, 49),6	4933,(2, 50),45	4978,(2, 55),6	4984,(2, 58),63	5047,(2, 61),24	5071,(2, 65),216	5287,(2, 68),75	5362,(2, 69),99	5461,(2, 74),3	5464,(2, 75),3	5467,(2, 78),6	5473,(2, 79),9	5482,(2, 85),9	5491,(2, 92),3	5494,(2, 95),60	5554,(2, 97),9	5563,(2, 101),3	5566,(2, 104),3	5569,(2, 112),3	5572,(2, 117),12	5584,(2, 122),3	5587,(2, 127),3	5590,(2, 133),3	5593,(2, 134),51	5644,(2, 138),3	5647,(2, 140),288	5935,(2, 141),6	5941,(2, 142),24	5965,(2, 143),18	5983,(2, 157),3	5986,(2, 161),3	5989,(2, 162),45	6034,(2, 164),3	6037,(2, 165),3	6040,(2, 173),3	6043,(2, 174),6	6049,(2, 178),9	6058,(2, 183),2436	8494,(2, 184),3	8497,(2, 185),3	8500,(2, 189),9	8509,(2, 190),3	8512,(2, 197),9	8521,(2, 198),9	8530,(2, 199),15	8545,(2, 200),3	8548,(3, 29),9	8557,(3, 31),3	8560,(3, 37),15	8575,(3, 40),30	8605,(3, 42),12	8617,(3, 46),21	8638,(3, 50),3	8641,(3, 55),48	8689,(3, 58),21	8710,(3, 61),3	8713,(3, 62),3	8716,(3, 64),3	8719,(3, 67),24	8743,(3, 71),3	8746,(3, 72),33	8779,(3, 75),18	8797,(3, 79),6	8803,(3, 85),294	9097,(3, 87),3	9100,(3, 89),12	9112,(3, 92),24	9136,(3, 96),3	9139,(3, 97),3	9142,(3, 101),15	9157,(3, 102),45	9202,(3, 104),6	9208,(3, 108),6	9214,(3, 112),3	9217,(3, 114),9	9226,(3, 117),12	9238,(3, 120),3	9241,(3, 124),21	9262,(3, 127),3	9265,(3, 129),12	9277,(3, 133),21	9298,(3, 134),99	9397,(3, 139),30	9427,(3, 142),3	9430,(3, 155),36	9466,(3, 159),3	9469,(3, 173),3	9472,(3, 175),48	9520,(3, 178),15	9535,(3, 180),72	9607,(3, 183),99	9706,(3, 184),303	10009,(3, 186),270	10279,(3, 189),3	10282,(3, 190),3	10285,(3, 199),48	10333,(4, 27),12	10345,(4, 30),147	10492,(4, 33),60	10552,(4, 35),3	10555,(4, 37),18	10573,(4, 41),21	10594,(4, 44),6	10600,(4, 46),3	10603,(4, 47),21	10624,(4, 49),15	10639,(4, 50),645	11284,(4, 64),12	11296,(4, 67),3	11299,(4, 69),9	11308,(4, 70),12	11320,(4, 71),6	11326,(4, 78),15	11341,(4, 79),30	11371,(4, 85),66	11437,(4, 87),3	11440,(4, 89),33	11473,(4, 92),3	11476,(4, 93),3	11479,(4, 96),27	11506,(4, 97),3	11509,(4, 99),3	11512,(4, 100),3	11515,(4, 102),69	11584,(4, 104),3	11587,(4, 109),9	11596,(4, 114),30	11626,(4, 116),990	12616,(4, 118),27	12643,(4, 122),69	12712,(4, 124),6	12718,(4, 139),126	12844,(4, 142),9	12853,(4, 143),3	12856,(4, 157),3	12859,(4, 159),3	12862,(4, 164),6	12868,(4, 165),42	12910,(4, 174),3	12913,(4, 175),3	12916,(4, 178),6	12922,(4, 180),3	12925,(4, 183),9	12934,(4, 185),42	12976,(4, 192),99	13075,(4, 197),36	13111,(4, 199),15	13126,(5, 27),3	13129,(5, 30),3	13132,(5, 31),3	13135,(5, 35),3	13138,(5, 41),39	13177,(5, 42),3	13180,(5, 44),30	13210,(5, 50),3	13213,(5, 58),3	13216,(5, 61),3	13219,(5, 62),27	13246,(5, 67),3	13249,(5, 69),12	13261,(5, 71),3	13264,(5, 72),9	13273,(5, 74),3	13276,(5, 75),39	13315,(5, 79),135	13450,(5, 85),27	13477,(5, 87),3	13480,(5, 93),36	13516,(5, 95),3	13519,(5, 96),18	13537,(5, 99),9	13546,(5, 100),108	13654,(5, 101),6	13660,(5, 102),78	13738,(5, 104),6	13744,(5, 109),6	13750,(5, 114),18	13768,(5, 116),3	13771,(5, 117),45	13816,(5, 118),240	14056,(5, 120),144	14200,(5, 122),36	14236,(5, 127),6	14242,(5, 129),15	14257,(5, 136),24	14281,(5, 141),3	14284,(5, 142),30	14314,(5, 147),3	14317,(5, 155),3	14320,(5, 157),195	14515,(5, 165),6	14521,(5, 174),3	14524,(5, 180),726	15250,(5, 185),6	15256,(5, 191),6	15262,(5, 192),405	15667,(5, 197),9	15676,(5, 200),18	15694,(6, 27),105	15799,(6, 30),3	15802,(6, 31),3	15805,(6, 33),9	15814,(6, 35),18	15832,(6, 37),15	15847,(6, 40),6	15853,(6, 41),6	15859,(6, 46),3	15862,(6, 47),21	15883,(6, 49),21	15904,(6, 58),9	15913,(6, 62),9	15922,(6, 63),6	15928,(6, 65),3	15931,(6, 68),3	15934,(6, 69),15	15949,(6, 70),6	15955,(6, 71),3	15958,(6, 75),54	16012,(6, 78),3	16015,(6, 92),21	16036,(6, 93),33	16069,(6, 95),267	16336,(6, 96),3	16339,(6, 102),15	16354,(6, 108),3	16357,(6, 109),6	16363,(6, 116),42	16405,(6, 120),3	16408,(6, 122),93	16501,(6, 124),12	16513,(6, 129),69	16582,(6, 134),24	16606,(6, 136),15	16621,(6, 138),6	16627,(6, 139),5667	22294,(6, 142),801	23095,(6, 157),192	23287,(6, 159),39	23326,(6, 162),936	24262,(6, 164),24	24286,(6, 165),2892	27178,(6, 175),9	27187,(6, 178),9	27196,(6, 181),9	27205,(6, 183),9	27214,(6, 189),3	27217,(6, 190),45	27262,(6, 191),36	27298,(6, 197),3	27301,(6, 199),3	27304,(6, 200),6	27310,(8, 27),3	27313,(8, 30),24	27337,(8, 35),165	27502,(8, 41),15	27517,(8, 46),3	27520,(8, 47),24	27544,(8, 49),3	27547,(8, 50),120	27667,(8, 61),51	27718,(8, 62),15	27733,(8, 67),3	27736,(8, 70),12	27748,(8, 72),3	27751,(8, 74),105	27856,(8, 79),78	27934,(8, 87),6	27940,(8, 92),12	27952,(8, 96),42	27994,(8, 97),3	27997,(8, 99),30	28027,(8, 100),33	28060,(8, 109),60	28120,(8, 117),3	28123,(8, 120),3	28126,(8, 127),6	28132,(8, 133),3	28135,(8, 136),27	28162,(8, 139),3	28165,(8, 143),3	28168,(8, 147),3	28171,(8, 155),27	28198,(8, 159),6	28204,(8, 165),9	28213,(8, 173),42	28255,(8, 174),3	28258,(8, 180),3	28261,(8, 183),9	28270,(8, 184),36	28306,(8, 186),12	28318,(8, 189),3	28321,(8, 190),60	28381,(8, 191),81	28462,(8, 192),105	28567,(8, 198),3	28570,(8, 199),78	28648,(8, 200),9	28657,(10, 27),9	28666,(10, 29),9	28675,(10, 30),6	28681,(10, 35),9	28690,(10, 37),3	28693,(10, 40),21	28714,(10, 41),381	29095,(10, 42),63	29158,(10, 46),72	29230,(10, 47),87	29317,(10, 50),57	29374,(10, 55),24	29398,(10, 62),6	29404,(10, 63),6	29410,(10, 64),3	29413,(10, 65),66	29479,(10, 67),3	29482,(10, 69),15	29497,(10, 70),81	29578,(10, 74),3	29581,(10, 75),225	29806,(10, 85),42	29848,(10, 87),129	29977,(10, 89),3	29980,(10, 92),18	29998,(10, 93),3	30001,(10, 96),240	30241,(10, 99),39	30280,(10, 100),102	30382,(10, 101),18	30400,(10, 102),21	30421,(10, 104),18	30439,(10, 109),3	30442,(10, 112),30	30472,(10, 117),3	30475,(10, 120),3	30478,(10, 124),3	30481,(10, 129),123	30604,(10, 134),3	30607,(10, 138),111	30718,(10, 139),15	30733,(10, 143),3	30736,(10, 147),42	30778,(10, 155),54	30832,(10, 157),78	30910,(10, 164),3	30913,(10, 165),111	31024,(10, 175),132	31156,(10, 178),252	31408,(10, 181),51	31459,(10, 183),18	31477,(10, 185),54	31531,(10, 189),2682	34213,(10, 190),6	34219,(10, 191),15	34234,(10, 192),48	34282,(10, 200),3	34285,(12, 29),30	34315,(12, 30),9	34324,(12, 33),21	34345,(12, 37),24	34369,(12, 40),6	34375,(12, 41),39	34414,(12, 44),12	34426,(12, 46),3	34429,(12, 47),213	34642,(12, 49),111	34753,(12, 55),6	34759,(12, 61),123	34882,(12, 62),21	34903,(12, 63),12	34915,(12, 65),3	34918,(12, 68),6	34924,(12, 69),108	35032,(12, 74),6	35038,(12, 75),114	35152,(12, 77),36	35188,(12, 78),153	35341,(12, 79),27	35368,(12, 93),3	35371,(12, 100),6	35377,(12, 104),66	35443,(12, 108),9	35452,(12, 109),27	35479,(12, 112),6	35485,(12, 114),1008	36493,(12, 117),30	36523,(12, 120),927	37450,(12, 122),6	37456,(12, 127),24	37480,(12, 129),3	37483,(12, 133),3	37486,(12, 138),3	37489,(12, 141),15	37504,(12, 142),3	37507,(12, 143),6	37513,(12, 155),9	37522,(12, 157),66	37588,(12, 159),6	37594,(12, 161),6	37600,(12, 173),6	37606,(12, 180),9	37615,(12, 189),180	37795,(12, 190),24	37819,(12, 191),66	37885,(12, 192),63	37948,(13, 27),27	37975,(13, 29),9	37984,(13, 30),6	37990,(13, 31),3	37993,(13, 33),15	38008,(13, 35),12	38020,(13, 37),36	38056,(13, 41),6	38062,(13, 42),3	38065,(13, 46),21	38086,(13, 50),3	38089,(13, 55),24	38113,(13, 61),81	38194,(13, 62),18	38212,(13, 63),6	38218,(13, 65),6	38224,(13, 67),9	38233,(13, 68),18	38251,(13, 70),3	38254,(13, 72),3	38257,(13, 74),378	38635,(13, 75),273	38908,(13, 78),15	38923,(13, 79),3	38926,(13, 87),12	38938,(13, 92),15	38953,(13, 93),12	38965,(13, 95),12	38977,(13, 97),3	38980,(13, 99),24	39004,(13, 102),3	39007,(13, 108),3	39010,(13, 109),21	39031,(13, 114),18	39049,(13, 117),18	39067,(13, 118),138	39205,(13, 120),3	39208,(13, 122),114	39322,(13, 127),75	39397,(13, 129),3	39400,(13, 133),27	39427,(13, 136),3	39430,(13, 140),6	39436,(13, 141),3	39439,(13, 142),255	39694,(13, 143),3	39697,(13, 157),12	39709,(13, 159),63	39772,(13, 161),12	39784,(13, 175),6	39790,(13, 178),66	39856,(13, 180),297	40153,(13, 186),3	40156,(13, 191),15	40171,(13, 192),3	40174,(13, 197),96	40270,(13, 199),45	40315,(13, 200),12	40327,(15, 27),108	40435,(15, 29),60	40495,(15, 31),27	40522,(15, 33),3	40525,(15, 37),153	40678,(15, 40),6	40684,(15, 42),3	40687,(15, 44),435	41122,(15, 47),15	41137,(15, 49),1038	42175,(15, 50),3	42178,(15, 58),3	42181,(15, 61),39	42220,(15, 62),3	42223,(15, 67),18	42241,(15, 69),3	42244,(15, 70),384	42628,(15, 71),18	42646,(15, 75),21	42667,(15, 78),3	42670,(15, 87),3	42673,(15, 102),21	42694,(15, 109),15	42709,(15, 112),3	42712,(15, 116),9	42721,(15, 117),21	42742,(15, 118),165	42907,(15, 122),33	42940,(15, 129),270	43210,(15, 139),18	43228,(15, 140),9	43237,(15, 141),63	43300,(15, 142),48	43348,(15, 147),3	43351,(15, 157),3	43354,(15, 159),18	43372,(15, 173),3	43375,(15, 174),9	43384,(15, 175),51	43435,(15, 178),96	43531,(15, 180),99	43630,(15, 181),18	43648,(15, 183),15	43663,(15, 184),3	43666,(15, 185),126	43792,(15, 186),6	43798,(15, 190),3	43801,(15, 191),6	43807,(15, 197),138	43945,(15, 200),75	44020,(17, 29),45	44065,(17, 30),135	44200,(17, 33),66	44266,(17, 35),15	44281,(17, 37),3	44284,(17, 46),6	44290,(17, 49),3	44293,(17, 50),9	44302,(17, 62),3	44305,(17, 63),9	44314,(17, 65),120	44434,(17, 67),15	44449,(17, 68),120	44569,(17, 69),33	44602,(17, 70),90	44692,(17, 74),162	44854,(17, 75),39	44893,(17, 77),90	44983,(17, 78),3	44986,(17, 79),1302	46288,(17, 89),3	46291,(17, 92),3	46294,(17, 97),3	46297,(17, 99),15	46312,(17, 101),3	46315,(17, 104),6	46321,(17, 108),18	46339,(17, 112),3	46342,(17, 117),3	46345,(17, 118),39	46384,(17, 136),8310	54694,(17, 139),3	54697,(17, 140),30	54727,(17, 141),30	54757,(17, 142),3	54760,(17, 147),99	54859,(17, 157),3	54862,(17, 161),3	54865,(17, 162),3	54868,(17, 164),3	54871,(17, 165),21	54892,(17, 173),24	54916,(17, 181),12	54928,(17, 185),117	55045,(17, 186),84	55129,(17, 190),24	55153,(17, 197),3	55156,(17, 198),42	55198,(17, 199),3	55201,(18, 27),3	55204,(18, 30),99	55303,(18, 40),54	55357,(18, 46),6	55363,(18, 47),114	55477,(18, 49),3	55480,(18, 50),51	55531,(18, 65),3	55534,(18, 67),6	55540,(18, 69),6	55546,(18, 72),30	55576,(18, 74),33	55609,(18, 75),54	55663,(18, 78),3	55666,(18, 79),3	55669,(18, 85),21	55690,(18, 87),6	55696,(18, 89),3	55699,(18, 92),15	55714,(18, 95),27	55741,(18, 101),15	55756,(18, 104),18	55774,(18, 108),3	55777,(18, 112),18	55795,(18, 117),108	55903,(18, 118),3	55906,(18, 127),45	55951,(18, 133),15	55966,(18, 136),3	55969,(18, 138),12	55981,(18, 161),12	55993,(18, 162),114	56107,(18, 165),18	56125,(18, 178),288	56413,(18, 180),3	56416,(18, 181),93	56509,(18, 184),309	56818,(18, 186),3	56821,(18, 191),45	56866,(18, 197),3	56869,(18, 198),24	56893,(18, 200),36	56929,(36, 201),246	57175,(59, 201),246	57421,(146, 201),246	57667,(154, 201),246	57913,(169, 201),246	58159,(171, 201),246	58405,(187, 201),246	58651,(25, 201),246	58897,(43, 201),246	59143,(48, 201),246	59389,(54, 201),246	59635,(60, 201),246	59881,(106, 201),246	60127,(115, 201),246	60373,(123, 201),246	60619,(148, 201),246	60865,(23, 201),246	61111,(52, 201),246	61357,(57, 201),246	61603,(86, 201),246	61849,(94, 201),246	62095,(125, 201),246	62341,(132, 201),246	62587,(150, 201),246	62833,(152, 201),246	63079,(182, 201),246	63325,(28, 201),246	63571,(45, 201),246	63817,(51, 201),246	64063,(73, 201),246	64309,(81, 201),246	64555,(83, 201),246	64801,(90, 201),246	65047,(98, 201),246	65293,(103, 201),246	65539,(105, 201),246	65785,(110, 201),246	66031,(111, 201),246	66277,(113, 201),246	66523,(119, 201),246	66769,(128, 201),246	67015,(131, 201),246	67261,(135, 201),246	67507,(156, 201),246	67753,(163, 201),246	67999,(166, 201),246	68245,(167, 201),246	68491,(170, 201),246	68737,(172, 201),246	68983,(176, 201),246	69229,(179, 201),246	69475,(195, 201),246	69721,(21, 201),246	69967,(22, 201),246	70213,(24, 201),246	70459,(26, 201),246	70705,(32, 201),246	70951,(34, 201),246	71197,(38, 201),246	71443,(39, 201),246	71689,(53, 201),246	71935,(56, 201),246	72181,(66, 201),246	72427,(76, 201),246	72673,(80, 201),246	72919,(82, 201),246	73165,(84, 201),246	73411,(88, 201),246	73657,(91, 201),246	73903,(107, 201),246	74149,(121, 201),246	74395,(126, 201),246	74641,(130, 201),246	74887,(137, 201),246	75133,(144, 201),246	75379,(145, 201),246	75625,(149, 201),246	75871,(151, 201),246	76117,(153, 201),246	76363,(158, 201),246	76609,(160, 201),246	76855,(168, 201),246	77101,(177, 201),246	77347,(188, 201),246	77593,(193, 201),246	77839,(194, 201),246	78085,(196, 201),246	
