2812
# CPU
0,201,1	1,174,14	15,41,14	29,98,14	43,120,14	57,73,14	71,175,14	85,64,14	99,90,14	113,135,14	127,106,14	141,45,14	155,148,14	169,70,14	183,58,14	197,158,14	211,86,14	225,186,14	239,156,14	253,181,14	267,89,14	281,42,14	295,79,14	309,169,14	323,122,14	337,196,14	351,155,14	365,99,14	379,33,14	393,29,14	407,138,14	421,57,14	435,48,14	449,151,14	463,92,14	477,94,14	491,32,14	505,161,14	519,35,14	533,193,14	547,200,14	561,167,14	575,56,14	589,50,14	603,143,14	617,68,14	631,91,14	645,173,14	659,197,14	673,149,14	687,82,14	701,118,14	715,80,14	729,83,14	743,165,14	757,136,14	771,72,14	785,110,14	799,62,14	813,132,14	827,25,14	841,191,14	855,146,14	869,170,14	883,139,14	897,176,14	911,172,14	925,47,14	939,150,14	953,154,14	967,55,14	981,60,14	995,30,14	1009,140,14	1023,180,14	1037,168,14	1051,114,14	1065,125,14	1079,145,14	1093,182,14	1107,160,14	1121,39,14	1135,133,14	1149,65,14	1163,198,14	1177,77,14	1191,28,14	1205,130,14	1219,31,14	1233,109,14	1247,27,14	1261,100,14	1275,185,14	1289,34,14	1303,95,14	1317,183,14	1331,126,14	1345,124,14	1359,59,14	1373,87,14	1387,66,14	1401,153,14	1415,54,14	1429,93,14	1443,51,14	1457,177,14	1471,163,14	1485,152,14	1499,189,14	1513,53,14	1527,171,14	1541,81,14	1555,166,14	1569,85,14	1583,112,14	1597,147,14	1611,43,14	1625,105,14	1639,97,14	1653,37,14	1667,22,14	1681,123,14	1695,26,14	1709,141,14	1723,128,14	1737,134,14	1751,102,14	1765,199,14	1779,187,14	1793,84,14	1807,49,14	1821,44,14	1835,117,14	1849,104,14	1863,195,14	1877,121,14	1891,103,14	1905,111,14	1919,127,14	1933,129,14	1947,75,14	1961,144,14	1975,78,14	1989,96,14	2003,21,14	2017,184,14	2031,188,14	2045,36,14	2059,137,14	2073,142,14	2087,4,14	2101,159,14	2115,157,14	2129,23,14	2143,178,14	2157,40,14	2171,63,14	2185,69,14	2199,116,14	2213,107,14	2227,101,14	2241,108,14	2255,88,14	2269,113,14	2283,76,14	2297,192,14	2311,119,14	2325,10,14	2339,67,14	2353,115,14	2367,162,14	2381,131,14	2395,3,14	2409,11,14	2423,9,14	2437,8,14	2451,6,14	2465,19,14	2479,15,14	2493,7,14	2507,16,14	2521,2,14	2535,13,14	2549,20,14	2563,14,14	2577,12,14	2591,1,14	2605,17,14	2619,5,14	2811,0,1	
208,194,14	415,190,14	622,74,14	829,52,14	1036,61,14	1243,24,14	1450,46,14	1657,71,14	1864,164,14	2071,179,14	2278,38,14	2794,18,14	
# Incoming
222,(194, 3),3	225,(194, 9),3	429,(190, 7),3	432,(190, 14),9	636,(74, 16),12	648,(74, 13),3	843,(52, 19),21	864,(52, 2),12	1050,(61, 11),3	1053,(61, 6),9	1062,(61, 7),27	1089,(61, 20),15	1104,(61, 5),3	1257,(24, 20),36	1293,(24, 17),18	1464,(46, 16),21	1485,(46, 13),48	1671,(71, 14),3	1674,(71, 12),66	1878,(164, 14),42	1920,(164, 1),93	2085,(179, 15),27	2112,(179, 17),150	2292,(38, 8),6	2298,(38, 6),3	2301,(38, 2),39	2340,(38, 5),195	2808,(18, 0),3	
1,(201, 194),207	208,(201, 190),207	415,(201, 74),207	622,(201, 52),207	829,(201, 61),207	1036,(201, 24),207	1243,(201, 46),207	1450,(201, 71),207	1657,(201, 164),207	1864,(201, 179),207	2071,(201, 38),207	2278,(174, 18),3	2281,(45, 18),3	2284,(169, 18),6	2290,(196, 18),6	2296,(92, 18),3	2299,(56, 18),12	2311,(91, 18),12	2323,(83, 18),3	2326,(182, 18),3	2329,(95, 18),39	2368,(81, 18),57	2425,(37, 18),24	2449,(134, 18),78	2527,(195, 18),93	2620,(40, 18),171	2791,(119, 18),3	
# Outgoing
1,(201, 194),207	208,(201, 190),207	415,(201, 74),207	622,(201, 52),207	829,(201, 61),207	1036,(201, 24),207	1243,(201, 46),207	1450,(201, 71),207	1657,(201, 164),207	1864,(201, 179),207	2071,(201, 38),207	2278,(174, 18),3	2281,(45, 18),3	2284,(169, 18),6	2290,(196, 18),6	2296,(92, 18),3	2299,(56, 18),12	2311,(91, 18),12	2323,(83, 18),3	2326,(182, 18),3	2329,(95, 18),39	2368,(81, 18),57	2425,(37, 18),24	2449,(134, 18),78	2527,(195, 18),93	2620,(40, 18),171	2791,(119, 18),3	
222,(194, 3),3	225,(194, 9),3	429,(190, 7),3	432,(190, 14),9	636,(74, 16),12	648,(74, 13),3	843,(52, 19),21	864,(52, 2),12	1050,(61, 11),3	1053,(61, 6),9	1062,(61, 7),27	1089,(61, 20),15	1104,(61, 5),3	1257,(24, 20),36	1293,(24, 17),18	1464,(46, 16),21	1485,(46, 13),48	1671,(71, 14),3	1674,(71, 12),66	1878,(164, 14),42	1920,(164, 1),93	2085,(179, 15),27	2112,(179, 17),150	2292,(38, 8),6	2298,(38, 6),3	2301,(38, 2),39	2340,(38, 5),195	2808,(18, 0),3	
