478
# CPU
0,121,1	1,115,4	5,78,4	9,69,4	13,120,4	17,51,4	21,13,4	25,37,4	29,93,4	33,110,4	37,25,4	41,66,4	45,62,4	49,91,4	53,111,4	57,61,4	61,107,4	65,112,4	69,68,4	73,42,4	77,114,4	81,35,4	85,57,4	89,56,4	93,117,4	97,32,4	101,80,4	105,19,4	109,43,4	113,24,4	117,53,4	121,76,4	125,87,4	129,48,4	133,55,4	137,58,4	141,96,4	145,98,4	149,18,4	153,109,4	157,54,4	161,65,4	165,106,4	169,79,4	173,31,4	177,39,4	181,113,4	185,108,4	189,21,4	193,50,4	197,30,4	201,20,4	205,84,4	209,118,4	213,90,4	217,63,4	221,81,4	225,94,4	229,119,4	233,82,4	237,64,4	241,47,4	245,92,4	249,23,4	253,100,4	257,28,4	261,104,4	265,29,4	269,14,4	273,74,4	277,44,4	281,99,4	285,49,4	289,105,4	293,77,4	297,46,4	301,70,4	305,52,4	309,22,4	313,102,4	317,83,4	321,33,4	325,86,4	329,45,4	333,59,4	337,95,4	341,72,4	345,73,4	349,97,4	353,60,4	357,34,4	361,12,4	365,40,4	369,41,4	373,38,4	377,75,4	381,26,4	385,101,4	389,15,4	393,16,4	397,6,4	401,27,4	405,71,4	409,8,4	413,116,4	417,3,4	421,1,4	425,85,4	429,9,4	433,103,4	437,88,4	441,17,4	445,5,4	449,11,4	453,36,4	457,89,4	461,10,4	465,7,4	469,2,4	473,4,4	477,0,1	
331,67,4	








# Incoming
335,(67, 7),2	337,(67, 2),10	347,(67, 4),36	
1,(121, 67),330	








# Outgoing
1,(121, 67),330	
335,(67, 7),2	337,(67, 2),10	347,(67, 4),36	








