964
# CPU
159,20,8	567,5,8	627,8,8	678,11,8	686,14,8	726,17,8	
4,2,8	12,4,8	20,19,8	28,13,8	36,7,8	48,10,8	72,16,8	
0,0,1	1,1,8	9,12,8	492,3,8	624,6,8	632,9,8	717,15,8	942,18,8	963,21,1	
# Incoming
9,(1, 5),9	48,(1, 14),6	72,(1, 17),30	102,(1, 20),57	492,(2, 5),75	624,(2, 8),3	630,(2, 11),48	678,(2, 14),6	717,(2, 17),9	
1,(0, 2),3	18,(1, 7),9	27,(1, 10),21	54,(1, 16),18	
12,(2, 3),480	492,(20, 21),3	567,(2, 6),57	624,(5, 21),3	627,(2, 9),3	635,(8, 21),3	684,(2, 15),33	717,(11, 21),3	720,(14, 21),3	726,(2, 18),216	942,(4, 21),3	945,(19, 21),3	948,(13, 21),3	951,(7, 21),3	954,(10, 21),3	957,(16, 21),3	960,(17, 21),3	
# Outgoing
492,(20, 21),3	624,(5, 21),3	635,(8, 21),3	717,(11, 21),3	720,(14, 21),3	960,(17, 21),3	
12,(2, 3),480	492,(2, 5),75	567,(2, 6),57	624,(2, 8),3	627,(2, 9),3	630,(2, 11),48	678,(2, 14),6	684,(2, 15),33	717,(2, 17),9	726,(2, 18),216	942,(4, 21),3	945,(19, 21),3	948,(13, 21),3	951,(7, 21),3	954,(10, 21),3	957,(16, 21),3	
1,(0, 2),3	9,(1, 5),9	18,(1, 7),9	27,(1, 10),21	48,(1, 14),6	54,(1, 16),18	72,(1, 17),30	102,(1, 20),57	
