4874
# CPU
121,5,28	241,10,28	340,20,28	571,17,28	811,45,28	839,90,28	967,100,28	1129,55,28	1591,25,28	1621,30,28	1649,40,28	1677,50,28	1705,85,28	1733,95,28	1761,35,28	1789,105,28	1969,70,28	2107,110,28	3469,65,28	3497,75,28	3832,120,28	3964,60,28	4078,80,28	4801,115,28	
91,4,28	211,9,28	239,16,28	267,104,28	664,44,28	1234,94,28	1321,114,28	1372,69,28	1417,59,28	1663,34,28	1810,84,28	1838,29,28	1957,24,28	1985,19,28	2260,89,28	2548,64,28	2587,79,28	2629,109,28	2689,49,28	3460,39,28	3769,54,28	3797,74,28	3825,99,28	3853,119,28	
61,3,28	181,8,28	292,14,28	472,18,28	940,83,28	1186,93,28	1240,108,28	1414,33,28	1567,23,28	1684,118,28	1712,38,28	1740,43,28	1945,68,28	1978,73,28	2212,78,28	2240,98,28	2290,28,28	2318,48,28	2346,53,28	2428,58,28	2456,63,28	2590,88,28	2623,103,28	2651,113,28	
31,2,28	151,7,28	179,37,28	271,12,28	299,27,28	327,52,28	355,72,28	406,107,28	1030,67,28	1249,22,28	1321,47,28	1393,62,28	1421,32,28	2140,77,28	2218,82,28	2246,87,28	2274,92,28	2302,15,28	2330,42,28	2416,57,28	2617,97,28	2645,102,28	2673,112,28	2701,117,28	
0,0,1	1,1,28	29,11,28	57,6,28	85,81,28	113,106,28	141,36,28	202,76,28	493,56,28	521,116,28	568,46,28	628,96,28	769,91,28	1051,71,28	1081,21,28	1109,26,28	1137,31,28	1381,66,28	1519,86,28	1777,13,28	1807,51,28	1835,61,28	1863,111,28	3730,41,28	4690,101,28	4873,121,1	
# Incoming
91,(0, 5),30	121,(2, 20),30	151,(2, 30),6	157,(2, 50),6	163,(2, 60),12	175,(4, 30),3	178,(3, 35),12	190,(3, 65),3	196,(4, 100),3	199,(4, 105),6	208,(3, 120),3	211,(0, 10),30	241,(2, 45),51	292,(1, 17),6	298,(4, 17),18	316,(8, 45),3	319,(9, 25),3	322,(9, 40),3	325,(1, 20),15	340,(4, 35),30	370,(9, 50),6	376,(7, 25),3	379,(9, 75),3	382,(1, 35),9	391,(1, 40),15	406,(8, 90),3	409,(8, 110),3	412,(1, 45),9	421,(2, 40),129	550,(8, 17),21	571,(8, 50),21	592,(8, 60),15	607,(8, 85),21	778,(4, 40),15	793,(4, 45),18	811,(9, 80),3	814,(9, 90),9	823,(9, 100),3	826,(2, 100),9	835,(2, 105),48	883,(4, 70),42	925,(8, 100),42	1051,(4, 75),42	1093,(7, 35),15	1108,(7, 55),21	1129,(7, 65),3	1132,(1, 80),39	1171,(7, 40),57	1228,(7, 80),9	1237,(9, 35),27	1309,(7, 50),39	1348,(9, 85),51	1399,(11, 25),15	1414,(11, 30),3	1525,(7, 110),6	1531,(7, 120),3	1567,(12, 25),24	1591,(12, 30),30	1621,(12, 40),3	1624,(12, 50),3	1639,(12, 70),3	1645,(12, 85),3	1648,(12, 95),3	1663,(11, 35),30	1693,(12, 105),3	1747,(11, 60),66	1879,(11, 65),54	1945,(11, 70),24	1969,(9, 110),138	2212,(11, 80),3	2257,(11, 115),3	2260,(2, 65),630	2890,(2, 75),555	3445,(6, 65),24	3469,(6, 75),12	3481,(6, 120),51	3532,(8, 120),300	3832,(12, 60),132	3964,(12, 80),114	4690,(12, 115),111	
61,(0, 4),30	91,(2, 29),15	106,(2, 54),15	121,(3, 16),15	157,(3, 34),21	178,(2, 119),3	181,(0, 9),30	211,(3, 39),3	214,(3, 44),3	217,(3, 49),21	238,(3, 79),3	241,(3, 114),9	250,(8, 24),15	301,(1, 19),24	325,(2, 59),39	364,(2, 84),12	379,(1, 34),3	388,(8, 89),3	400,(7, 19),6	406,(7, 29),6	412,(7, 74),6	418,(7, 94),3	421,(1, 49),36	457,(5, 24),12	469,(5, 29),6	478,(8, 114),9	487,(8, 119),9	496,(1, 64),24	520,(5, 54),9	529,(5, 64),3	532,(5, 69),3	535,(5, 109),3	538,(10, 29),6	550,(2, 44),114	664,(2, 69),57	721,(2, 89),72	793,(5, 59),30	823,(5, 74),21	844,(5, 99),30	874,(10, 34),3	883,(2, 109),186	1069,(10, 24),39	1108,(10, 89),3	1129,(1, 79),3	1132,(7, 54),39	1171,(1, 84),3	1174,(5, 94),60	1237,(7, 109),3	1240,(1, 109),3	1249,(10, 69),12	1261,(1, 114),60	1321,(8, 19),24	1345,(8, 69),27	1381,(7, 89),9	1390,(11, 19),9	1399,(10, 59),18	1420,(11, 34),243	1663,(3, 84),147	1810,(12, 29),3	1813,(11, 64),66	1879,(7, 24),78	1957,(12, 19),21	1978,(11, 74),3	1981,(7, 39),195	2176,(7, 99),27	2203,(10, 74),54	2257,(12, 89),3	2260,(11, 119),15	2305,(6, 54),99	2440,(6, 64),108	2548,(6, 79),39	2623,(6, 109),6	2629,(10, 49),60	3445,(12, 39),15	3730,(12, 54),39	3769,(12, 74),12	3781,(12, 99),9	3790,(12, 119),12	
31,(0, 3),30	65,(2, 14),12	77,(2, 43),3	151,(0, 8),30	181,(2, 33),48	229,(4, 118),9	238,(2, 68),3	265,(9, 48),3	268,(9, 68),3	271,(1, 14),21	298,(1, 18),3	319,(7, 18),6	325,(9, 53),12	340,(1, 28),3	346,(1, 33),33	379,(2, 98),12	406,(1, 43),6	412,(4, 83),39	451,(5, 28),3	454,(9, 18),18	475,(5, 43),9	484,(5, 53),6	490,(1, 63),6	496,(4, 23),282	778,(10, 33),3	781,(10, 58),9	793,(2, 93),33	826,(4, 103),51	877,(5, 38),21	898,(10, 73),36	934,(10, 83),6	940,(10, 93),12	952,(10, 118),18	1030,(1, 78),99	1129,(4, 113),45	1174,(1, 93),12	1186,(1, 98),3	1201,(1, 108),39	1240,(7, 53),3	1243,(1, 113),18	1261,(7, 23),24	1285,(7, 28),24	1321,(1, 118),69	1390,(7, 33),24	1414,(7, 63),84	1543,(12, 23),24	1627,(12, 58),6	1633,(12, 68),6	1642,(12, 73),3	1651,(12, 103),15	1666,(12, 118),18	1693,(11, 38),15	1708,(11, 43),3	1711,(11, 48),24	1735,(11, 58),12	1933,(11, 68),12	1969,(11, 73),9	2140,(11, 78),72	2221,(11, 88),3	2230,(11, 98),3	2233,(11, 103),21	2281,(6, 28),9	2296,(6, 48),3	2299,(6, 53),6	2416,(6, 58),12	2428,(6, 63),12	2587,(6, 88),3	2620,(6, 103),3	2635,(6, 113),3	
1,(0, 2),30	121,(0, 7),30	151,(4, 15),12	163,(4, 42),9	172,(4, 57),3	193,(4, 92),3	205,(3, 102),3	241,(0, 12),30	271,(8, 15),18	289,(8, 32),6	295,(8, 47),3	298,(8, 82),15	313,(8, 87),3	316,(9, 82),3	337,(9, 97),3	343,(1, 32),3	376,(9, 107),3	391,(8, 97),3	394,(8, 102),9	403,(8, 107),3	430,(5, 15),9	454,(5, 67),3	457,(1, 62),33	490,(5, 47),18	508,(5, 92),3	520,(1, 67),510	1030,(3, 87),84	1114,(5, 62),33	1147,(5, 97),21	1168,(10, 42),6	1189,(1, 102),12	1234,(10, 22),15	1264,(9, 42),39	1303,(10, 47),18	1321,(10, 57),45	1366,(10, 62),27	1417,(11, 32),3	1420,(8, 92),204	1768,(10, 82),9	1777,(10, 97),12	1789,(10, 117),24	1981,(11, 77),159	2215,(11, 82),3	2218,(11, 87),3	2224,(11, 92),3	2227,(11, 97),3	2254,(11, 112),3	2275,(6, 15),6	2290,(6, 42),6	2404,(6, 57),12	2590,(6, 97),27	2617,(6, 102),3	2629,(6, 112),6	2638,(6, 117),3	
59,(2, 13),6	80,(2, 46),6	86,(2, 56),3	136,(3, 26),18	154,(3, 31),3	175,(2, 111),3	178,(4, 56),9	187,(4, 91),6	193,(3, 71),3	196,(3, 76),6	202,(3, 86),3	205,(4, 21),18	223,(4, 116),3	229,(2, 66),9	238,(4, 61),27	265,(8, 13),3	268,(8, 56),3	271,(9, 51),15	286,(9, 91),3	292,(2, 71),27	319,(3, 21),69	391,(2, 116),9	400,(5, 13),30	430,(8, 46),6	439,(5, 46),9	448,(5, 56),3	451,(8, 101),27	478,(9, 56),15	496,(14, 121),9	511,(5, 111),6	517,(5, 116),3	520,(18, 121),9	544,(10, 31),21	565,(10, 46),3	568,(10, 96),60	628,(8, 91),141	769,(20, 121),9	925,(4, 71),126	1051,(17, 121),9	1060,(45, 121),9	1069,(7, 13),3	1072,(7, 21),9	1081,(7, 26),3	1084,(7, 31),6	1090,(7, 41),3	1093,(9, 101),33	1126,(83, 121),9	1174,(16, 121),9	1183,(104, 121),9	1192,(44, 121),9	1214,(93, 121),9	1243,(7, 61),18	1261,(90, 121),9	1270,(100, 121),9	1279,(55, 121),9	1288,(108, 121),9	1303,(94, 121),9	1348,(7, 66),33	1399,(114, 121),9	1408,(69, 121),9	1445,(59, 121),9	1498,(7, 86),21	1519,(7, 101),6	1534,(37, 121),9	1543,(10, 41),225	1768,(12, 13),9	1777,(12, 51),30	1807,(12, 61),3	1813,(12, 111),3	1816,(27, 121),9	1825,(52, 121),9	1834,(72, 121),9	1843,(107, 121),9	1852,(67, 121),9	1861,(22, 121),9	1870,(47, 121),9	1879,(33, 121),9	1888,(23, 121),9	1897,(25, 121),9	1906,(30, 121),9	1915,(40, 121),9	1924,(34, 121),9	1933,(50, 121),9	1942,(118, 121),9	1951,(85, 121),9	1960,(38, 121),9	1969,(95, 121),9	1978,(43, 121),9	1987,(35, 121),9	1996,(105, 121),9	2005,(68, 121),9	2014,(70, 121),9	2023,(73, 121),9	2107,(84, 121),9	2116,(29, 121),9	2125,(24, 121),9	2134,(19, 121),9	2143,(110, 121),9	2203,(62, 121),9	2212,(32, 121),9	2221,(77, 121),9	2240,(78, 121),9	2268,(98, 121),9	2288,(89, 121),9	2318,(28, 121),9	2346,(48, 121),9	2374,(53, 121),9	2456,(58, 121),9	2484,(63, 121),9	2576,(64, 121),9	2615,(79, 121),9	2624,(88, 121),9	2651,(103, 121),9	2660,(109, 121),9	2679,(113, 121),9	2717,(49, 121),9	3460,(12, 41),270	3730,(39, 121),9	3739,(65, 121),9	3748,(75, 121),9	3802,(82, 121),9	3811,(87, 121),9	3820,(92, 121),9	3829,(54, 121),9	3838,(74, 121),9	3853,(99, 121),9	3862,(120, 121),9	3881,(119, 121),9	3992,(60, 121),9	4078,(12, 101),612	4690,(80, 121),9	4801,(15, 121),9	4810,(42, 121),9	4819,(57, 121),9	4828,(97, 121),9	4837,(102, 121),9	4846,(112, 121),9	4855,(117, 121),9	4864,(115, 121),9	
# Outgoing
400,(5, 13),30	430,(5, 15),9	439,(5, 46),9	448,(5, 56),3	451,(5, 28),3	454,(5, 67),3	457,(5, 24),12	469,(5, 29),6	475,(5, 43),9	484,(5, 53),6	490,(5, 47),18	508,(5, 92),3	511,(5, 111),6	517,(5, 116),3	520,(5, 54),9	529,(5, 64),3	532,(5, 69),3	535,(5, 109),3	538,(10, 29),6	544,(10, 31),21	565,(10, 46),3	568,(10, 96),60	769,(20, 121),9	778,(10, 33),3	781,(10, 58),9	793,(5, 59),30	823,(5, 74),21	844,(5, 99),30	874,(10, 34),3	877,(5, 38),21	898,(10, 73),36	934,(10, 83),6	940,(10, 93),12	952,(10, 118),18	1051,(17, 121),9	1060,(45, 121),9	1069,(10, 24),39	1108,(10, 89),3	1114,(5, 62),33	1147,(5, 97),21	1168,(10, 42),6	1174,(5, 94),60	1234,(10, 22),15	1249,(10, 69),12	1261,(90, 121),9	1270,(100, 121),9	1279,(55, 121),9	1303,(10, 47),18	1321,(10, 57),45	1366,(10, 62),27	1399,(10, 59),18	1543,(10, 41),225	1768,(10, 82),9	1777,(10, 97),12	1789,(10, 117),24	1897,(25, 121),9	1906,(30, 121),9	1915,(40, 121),9	1933,(50, 121),9	1951,(85, 121),9	1969,(95, 121),9	1987,(35, 121),9	1996,(105, 121),9	2014,(70, 121),9	2143,(110, 121),9	2203,(10, 74),54	2629,(10, 49),60	3739,(65, 121),9	3748,(75, 121),9	3862,(120, 121),9	3992,(60, 121),9	4690,(80, 121),9	4864,(115, 121),9	
151,(4, 15),12	163,(4, 42),9	172,(4, 57),3	175,(4, 30),3	178,(4, 56),9	187,(4, 91),6	193,(4, 92),3	196,(4, 100),3	199,(4, 105),6	205,(4, 21),18	223,(4, 116),3	229,(4, 118),9	238,(4, 61),27	265,(9, 48),3	268,(9, 68),3	271,(9, 51),15	286,(9, 91),3	298,(4, 17),18	316,(9, 82),3	319,(9, 25),3	322,(9, 40),3	325,(9, 53),12	337,(9, 97),3	340,(4, 35),30	370,(9, 50),6	376,(9, 107),3	379,(9, 75),3	412,(4, 83),39	454,(9, 18),18	478,(9, 56),15	496,(4, 23),282	778,(4, 40),15	793,(4, 45),18	811,(9, 80),3	814,(9, 90),9	823,(9, 100),3	826,(4, 103),51	883,(4, 70),42	925,(4, 71),126	1051,(4, 75),42	1093,(9, 101),33	1129,(4, 113),45	1174,(16, 121),9	1183,(104, 121),9	1192,(44, 121),9	1237,(9, 35),27	1264,(9, 42),39	1303,(94, 121),9	1348,(9, 85),51	1399,(114, 121),9	1408,(69, 121),9	1445,(59, 121),9	1924,(34, 121),9	1969,(9, 110),138	2107,(84, 121),9	2116,(29, 121),9	2125,(24, 121),9	2134,(19, 121),9	2288,(89, 121),9	2576,(64, 121),9	2615,(79, 121),9	2660,(109, 121),9	2717,(49, 121),9	3730,(39, 121),9	3829,(54, 121),9	3838,(74, 121),9	3853,(99, 121),9	3881,(119, 121),9	
121,(3, 16),15	136,(3, 26),18	154,(3, 31),3	157,(3, 34),21	178,(3, 35),12	190,(3, 65),3	193,(3, 71),3	196,(3, 76),6	202,(3, 86),3	205,(3, 102),3	208,(3, 120),3	211,(3, 39),3	214,(3, 44),3	217,(3, 49),21	238,(3, 79),3	241,(3, 114),9	250,(8, 24),15	265,(8, 13),3	268,(8, 56),3	271,(8, 15),18	289,(8, 32),6	295,(8, 47),3	298,(8, 82),15	313,(8, 87),3	316,(8, 45),3	319,(3, 21),69	388,(8, 89),3	391,(8, 97),3	394,(8, 102),9	403,(8, 107),3	406,(8, 90),3	409,(8, 110),3	430,(8, 46),6	451,(8, 101),27	478,(8, 114),9	487,(8, 119),9	496,(14, 121),9	520,(18, 121),9	550,(8, 17),21	571,(8, 50),21	592,(8, 60),15	607,(8, 85),21	628,(8, 91),141	925,(8, 100),42	1030,(3, 87),84	1126,(83, 121),9	1214,(93, 121),9	1288,(108, 121),9	1321,(8, 19),24	1345,(8, 69),27	1420,(8, 92),204	1663,(3, 84),147	1879,(33, 121),9	1888,(23, 121),9	1942,(118, 121),9	1960,(38, 121),9	1978,(43, 121),9	2005,(68, 121),9	2023,(73, 121),9	2240,(78, 121),9	2268,(98, 121),9	2318,(28, 121),9	2346,(48, 121),9	2374,(53, 121),9	2456,(58, 121),9	2484,(63, 121),9	2624,(88, 121),9	2651,(103, 121),9	2679,(113, 121),9	3532,(8, 120),300	
59,(2, 13),6	65,(2, 14),12	77,(2, 43),3	80,(2, 46),6	86,(2, 56),3	91,(2, 29),15	106,(2, 54),15	121,(2, 20),30	151,(2, 30),6	157,(2, 50),6	163,(2, 60),12	175,(2, 111),3	178,(2, 119),3	181,(2, 33),48	229,(2, 66),9	238,(2, 68),3	241,(2, 45),51	292,(2, 71),27	319,(7, 18),6	325,(2, 59),39	364,(2, 84),12	376,(7, 25),3	379,(2, 98),12	391,(2, 116),9	400,(7, 19),6	406,(7, 29),6	412,(7, 74),6	418,(7, 94),3	421,(2, 40),129	550,(2, 44),114	664,(2, 69),57	721,(2, 89),72	793,(2, 93),33	826,(2, 100),9	835,(2, 105),48	883,(2, 109),186	1069,(7, 13),3	1072,(7, 21),9	1081,(7, 26),3	1084,(7, 31),6	1090,(7, 41),3	1093,(7, 35),15	1108,(7, 55),21	1129,(7, 65),3	1132,(7, 54),39	1171,(7, 40),57	1228,(7, 80),9	1237,(7, 109),3	1240,(7, 53),3	1243,(7, 61),18	1261,(7, 23),24	1285,(7, 28),24	1309,(7, 50),39	1348,(7, 66),33	1381,(7, 89),9	1390,(7, 33),24	1414,(7, 63),84	1498,(7, 86),21	1519,(7, 101),6	1525,(7, 110),6	1531,(7, 120),3	1534,(37, 121),9	1543,(12, 23),24	1567,(12, 25),24	1591,(12, 30),30	1621,(12, 40),3	1624,(12, 50),3	1627,(12, 58),6	1633,(12, 68),6	1639,(12, 70),3	1642,(12, 73),3	1645,(12, 85),3	1648,(12, 95),3	1651,(12, 103),15	1666,(12, 118),18	1693,(12, 105),3	1768,(12, 13),9	1777,(12, 51),30	1807,(12, 61),3	1810,(12, 29),3	1813,(12, 111),3	1816,(27, 121),9	1825,(52, 121),9	1834,(72, 121),9	1843,(107, 121),9	1852,(67, 121),9	1861,(22, 121),9	1870,(47, 121),9	1879,(7, 24),78	1957,(12, 19),21	1981,(7, 39),195	2176,(7, 99),27	2203,(62, 121),9	2212,(32, 121),9	2221,(77, 121),9	2257,(12, 89),3	2260,(2, 65),630	2890,(2, 75),555	3445,(12, 39),15	3460,(12, 41),270	3730,(12, 54),39	3769,(12, 74),12	3781,(12, 99),9	3790,(12, 119),12	3802,(82, 121),9	3811,(87, 121),9	3820,(92, 121),9	3832,(12, 60),132	3964,(12, 80),114	4078,(12, 101),612	4690,(12, 115),111	4801,(15, 121),9	4810,(42, 121),9	4819,(57, 121),9	4828,(97, 121),9	4837,(102, 121),9	4846,(112, 121),9	4855,(117, 121),9	
1,(0, 2),30	31,(0, 3),30	61,(0, 4),30	91,(0, 5),30	121,(0, 7),30	151,(0, 8),30	181,(0, 9),30	211,(0, 10),30	241,(0, 12),30	271,(1, 14),21	292,(1, 17),6	298,(1, 18),3	301,(1, 19),24	325,(1, 20),15	340,(1, 28),3	343,(1, 32),3	346,(1, 33),33	379,(1, 34),3	382,(1, 35),9	391,(1, 40),15	406,(1, 43),6	412,(1, 45),9	421,(1, 49),36	457,(1, 62),33	490,(1, 63),6	496,(1, 64),24	520,(1, 67),510	1030,(1, 78),99	1129,(1, 79),3	1132,(1, 80),39	1171,(1, 84),3	1174,(1, 93),12	1186,(1, 98),3	1189,(1, 102),12	1201,(1, 108),39	1240,(1, 109),3	1243,(1, 113),18	1261,(1, 114),60	1321,(1, 118),69	1390,(11, 19),9	1399,(11, 25),15	1414,(11, 30),3	1417,(11, 32),3	1420,(11, 34),243	1663,(11, 35),30	1693,(11, 38),15	1708,(11, 43),3	1711,(11, 48),24	1735,(11, 58),12	1747,(11, 60),66	1813,(11, 64),66	1879,(11, 65),54	1933,(11, 68),12	1945,(11, 70),24	1969,(11, 73),9	1978,(11, 74),3	1981,(11, 77),159	2140,(11, 78),72	2212,(11, 80),3	2215,(11, 82),3	2218,(11, 87),3	2221,(11, 88),3	2224,(11, 92),3	2227,(11, 97),3	2230,(11, 98),3	2233,(11, 103),21	2254,(11, 112),3	2257,(11, 115),3	2260,(11, 119),15	2275,(6, 15),6	2281,(6, 28),9	2290,(6, 42),6	2296,(6, 48),3	2299,(6, 53),6	2305,(6, 54),99	2404,(6, 57),12	2416,(6, 58),12	2428,(6, 63),12	2440,(6, 64),108	2548,(6, 79),39	2587,(6, 88),3	2590,(6, 97),27	2617,(6, 102),3	2620,(6, 103),3	2623,(6, 109),6	2629,(6, 112),6	2635,(6, 113),3	2638,(6, 117),3	3445,(6, 65),24	3469,(6, 75),12	3481,(6, 120),51	
