5016
# CPU
0,0,1	1,14,3	4,11,3	7,5,3	10,15,3	13,13,3	16,16,3	19,91,3	22,42,3	25,136,3	28,177,3	31,143,3	34,132,3	37,93,3	40,48,3	43,183,3	46,43,3	49,39,3	52,29,3	55,142,3	58,70,3	61,156,3	64,74,3	67,53,3	70,178,3	73,186,3	76,176,3	79,161,3	82,157,3	85,199,3	88,111,3	91,103,3	94,31,3	97,22,3	100,190,3	103,159,3	106,153,3	109,100,3	112,33,3	115,127,3	118,187,3	121,135,3	124,63,3	127,139,3	130,144,3	133,192,3	136,165,3	139,79,3	142,181,3	145,152,3	148,129,3	
9,4,3	12,49,3	15,51,3	18,7,3	21,8,3	24,10,3	27,12,3	30,102,3	33,82,3	36,87,3	39,112,3	42,149,3	45,126,3	48,54,3	51,195,3	54,164,3	57,168,3	60,171,3	63,167,3	66,69,3	69,154,3	72,158,3	75,86,3	78,46,3	81,88,3	84,59,3	87,173,3	90,198,3	93,189,3	96,134,3	99,115,3	102,120,3	105,98,3	108,109,3	111,65,3	114,179,3	117,197,3	120,75,3	123,44,3	126,97,3	129,38,3	151,72,3	227,114,3	235,122,3	3689,60,3	3701,47,3	3717,23,3	3720,58,3	3723,184,3	4083,73,3	
5,2,3	8,3,3	11,89,3	14,141,3	17,113,3	20,6,3	23,140,3	26,66,3	29,9,3	32,172,3	35,95,3	38,148,3	41,117,3	44,77,3	47,21,3	50,68,3	53,106,3	56,128,3	59,116,3	62,85,3	65,92,3	68,138,3	71,180,3	87,27,3	95,175,3	123,40,3	147,57,3	225,107,3	263,137,3	3813,121,3	4013,155,3	4061,99,3	4064,170,3	4067,125,3	4070,56,3	4073,45,3	4076,67,3	4079,118,3	4085,26,3	4088,41,3	4091,96,3	4095,78,3	4107,174,3	4111,185,3	4161,36,3	4189,182,3	4257,83,3	4277,200,3	4365,119,3	4368,160,3	5015,201,1	
3,1,3	6,30,3	9,163,3	12,193,3	15,80,3	18,123,3	21,133,3	24,17,3	27,18,3	30,19,3	33,71,3	36,191,3	39,81,3	42,64,3	45,20,3	48,25,3	51,166,3	54,194,3	57,28,3	60,151,3	63,108,3	66,105,3	69,62,3	72,32,3	75,146,3	78,55,3	81,110,3	84,37,3	87,145,3	90,104,3	93,101,3	96,34,3	99,196,3	102,169,3	105,188,3	108,124,3	111,24,3	114,84,3	117,50,3	120,35,3	123,90,3	129,147,3	149,61,3	165,76,3	237,130,3	3699,162,3	4031,52,3	4057,94,3	4067,150,3	4095,131,3	
# Incoming
14,(2, 127),8	22,(2, 152),2	24,(3, 187),2	27,(4, 135),6	33,(3, 63),10	43,(4, 139),6	49,(12, 144),6	55,(18, 192),6	61,(3, 165),10	71,(7, 79),16	87,(6, 181),2	89,(9, 152),2	113,(12, 129),14	
7,(0, 4),2	9,(1, 54),2	11,(0, 7),2	13,(0, 8),2	17,(0, 10),2	19,(0, 12),2	25,(1, 184),6	31,(17, 73),10	41,(17, 109),2	43,(3, 65),2	45,(17, 179),2	47,(18, 197),4	51,(19, 75),2	61,(20, 44),10	73,(6, 97),2	93,(14, 38),2	149,(14, 72),2	225,(14, 114),2	227,(14, 122),8	3687,(11, 60),2	3699,(5, 47),2	3711,(15, 23),6	3717,(13, 58),2	3719,(13, 184),2	4071,(13, 73),12	
3,(0, 2),2	5,(0, 3),2	9,(0, 6),2	15,(0, 9),2	17,(1, 117),8	25,(4, 77),2	29,(14, 21),2	31,(14, 27),56	87,(30, 201),6	93,(4, 175),2	95,(14, 40),28	123,(14, 56),10	133,(14, 57),14	147,(163, 201),6	153,(49, 201),6	159,(193, 201),6	165,(14, 83),20	185,(14, 96),12	197,(14, 107),28	225,(51, 201),6	231,(80, 201),6	237,(14, 137),26	263,(14, 160),3424	3687,(1, 155),34	3721,(11, 36),90	3811,(11, 121),2	3813,(11, 125),172	3985,(5, 155),28	4013,(5, 174),8	4021,(123, 201),6	4027,(10, 125),4	4031,(15, 83),20	4051,(133, 201),6	4057,(15, 118),2	4059,(17, 99),2	4061,(17, 170),2	4063,(12, 125),2	4065,(19, 56),2	4067,(13, 45),4	4071,(19, 67),2	4073,(19, 118),2	4075,(19, 119),2	4077,(102, 201),6	4083,(16, 26),2	4085,(16, 41),2	4087,(16, 96),4	4091,(20, 78),4	4095,(16, 174),12	4107,(16, 185),4	4111,(7, 36),50	4161,(91, 201),6	4167,(8, 182),22	4189,(8, 200),36	4225,(42, 201),6	4231,(136, 201),6	4237,(12, 83),20	4257,(12, 200),20	4277,(177, 201),6	4283,(143, 201),6	4289,(82, 201),6	4295,(71, 201),6	4301,(132, 201),6	4307,(87, 201),6	4313,(191, 201),6	4319,(93, 201),6	4325,(112, 201),6	4331,(81, 201),6	4337,(48, 201),6	4343,(149, 201),6	4349,(64, 201),6	4355,(183, 201),6	4361,(20, 119),4	4365,(20, 160),2	4367,(126, 201),6	4373,(43, 201),6	4379,(54, 201),6	4385,(25, 201),6	4391,(39, 201),6	4397,(195, 201),6	4403,(166, 201),6	4409,(29, 201),6	4415,(164, 201),6	4421,(194, 201),6	4427,(142, 201),6	4433,(28, 201),6	4439,(168, 201),6	4445,(70, 201),6	4451,(171, 201),6	4457,(151, 201),6	4463,(156, 201),6	4469,(167, 201),6	4475,(108, 201),6	4481,(74, 201),6	4487,(69, 201),6	4493,(105, 201),6	4499,(53, 201),6	4505,(154, 201),6	4511,(62, 201),6	4517,(178, 201),6	4523,(158, 201),6	4529,(32, 201),6	4535,(186, 201),6	4541,(146, 201),6	4547,(86, 201),6	4553,(176, 201),6	4559,(55, 201),6	4565,(46, 201),6	4571,(161, 201),6	4577,(110, 201),6	4583,(88, 201),6	4589,(157, 201),6	4595,(37, 201),6	4601,(59, 201),6	4607,(199, 201),6	4613,(173, 201),6	4619,(145, 201),6	4625,(111, 201),6	4631,(198, 201),6	4637,(104, 201),6	4643,(103, 201),6	4649,(189, 201),6	4655,(101, 201),6	4661,(31, 201),6	4667,(134, 201),6	4673,(34, 201),6	4679,(22, 201),6	4685,(115, 201),6	4691,(196, 201),6	4697,(190, 201),6	4703,(120, 201),6	4709,(169, 201),6	4715,(159, 201),6	4721,(98, 201),6	4727,(188, 201),6	4733,(153, 201),6	4739,(124, 201),6	4745,(109, 201),6	4751,(100, 201),6	4757,(24, 201),6	4763,(65, 201),6	4769,(33, 201),6	4775,(179, 201),6	4781,(84, 201),6	4787,(127, 201),6	4793,(197, 201),6	4799,(50, 201),6	4805,(187, 201),6	4811,(35, 201),6	4817,(75, 201),6	4823,(135, 201),6	4829,(90, 201),6	4835,(44, 201),6	4841,(63, 201),6	4847,(97, 201),6	4853,(139, 201),6	4859,(147, 201),6	4865,(38, 201),6	4871,(144, 201),6	4877,(192, 201),6	4883,(165, 201),6	4889,(79, 201),6	4895,(181, 201),6	4901,(152, 201),6	4907,(129, 201),6	4913,(61, 201),6	4919,(72, 201),6	4925,(76, 201),6	4931,(114, 201),6	4937,(122, 201),6	4943,(130, 201),6	4949,(60, 201),6	4955,(162, 201),6	4961,(47, 201),6	4967,(23, 201),6	4973,(58, 201),6	4979,(184, 201),6	4985,(52, 201),6	4991,(94, 201),6	4997,(150, 201),6	5003,(73, 201),6	5009,(131, 201),6	
1,(0, 1),2	8,(2, 28),6	14,(4, 37),2	21,(0, 17),2	23,(0, 18),2	25,(0, 19),2	27,(0, 20),2	29,(3, 28),4	33,(7, 146),4	37,(8, 110),4	41,(12, 55),2	45,(3, 124),10	55,(3, 150),6	61,(10, 24),10	71,(6, 84),2	75,(9, 50),2	77,(9, 90),2	87,(14, 35),6	95,(8, 90),18	127,(12, 147),2	147,(14, 61),2	151,(14, 76),14	235,(14, 130),2	3689,(11, 162),10	3701,(5, 150),10	4021,(15, 52),10	4051,(15, 94),6	4059,(15, 150),8	4091,(16, 131),4	
# Outgoing
1,(0, 1),2	3,(0, 2),2	5,(0, 3),2	7,(0, 4),2	9,(0, 6),2	11,(0, 7),2	13,(0, 8),2	15,(0, 9),2	17,(0, 10),2	19,(0, 12),2	21,(0, 17),2	23,(0, 18),2	25,(0, 19),2	27,(0, 20),2	29,(14, 21),2	31,(14, 27),56	87,(14, 35),6	93,(14, 38),2	95,(14, 40),28	123,(14, 56),10	133,(14, 57),14	147,(14, 61),2	149,(14, 72),2	151,(14, 76),14	165,(14, 83),20	185,(14, 96),12	197,(14, 107),28	225,(14, 114),2	227,(14, 122),8	235,(14, 130),2	237,(14, 137),26	263,(14, 160),3424	3687,(11, 60),2	3689,(11, 162),10	3699,(5, 47),2	3701,(5, 150),10	3711,(15, 23),6	3717,(13, 58),2	3719,(13, 184),2	3721,(11, 36),90	3811,(11, 121),2	3813,(11, 125),172	3985,(5, 155),28	4013,(5, 174),8	4021,(15, 52),10	4031,(15, 83),20	4051,(15, 94),6	4057,(15, 118),2	4059,(15, 150),8	4067,(13, 45),4	4071,(13, 73),12	4083,(16, 26),2	4085,(16, 41),2	4087,(16, 96),4	4091,(16, 131),4	4095,(16, 174),12	4107,(16, 185),4	4161,(91, 201),6	4225,(42, 201),6	4231,(136, 201),6	4277,(177, 201),6	4283,(143, 201),6	4301,(132, 201),6	4319,(93, 201),6	4337,(48, 201),6	4355,(183, 201),6	4373,(43, 201),6	4391,(39, 201),6	4409,(29, 201),6	4427,(142, 201),6	4445,(70, 201),6	4463,(156, 201),6	4481,(74, 201),6	4499,(53, 201),6	4517,(178, 201),6	4535,(186, 201),6	4553,(176, 201),6	4571,(161, 201),6	4589,(157, 201),6	4607,(199, 201),6	4625,(111, 201),6	4643,(103, 201),6	4661,(31, 201),6	4679,(22, 201),6	4697,(190, 201),6	4715,(159, 201),6	4733,(153, 201),6	4751,(100, 201),6	4769,(33, 201),6	4787,(127, 201),6	4805,(187, 201),6	4823,(135, 201),6	4841,(63, 201),6	4853,(139, 201),6	4871,(144, 201),6	4877,(192, 201),6	4883,(165, 201),6	4889,(79, 201),6	4895,(181, 201),6	4901,(152, 201),6	4907,(129, 201),6	
14,(4, 37),2	25,(4, 77),2	27,(4, 135),6	33,(7, 146),4	37,(8, 110),4	41,(12, 55),2	43,(4, 139),6	49,(12, 144),6	61,(10, 24),10	71,(7, 79),16	93,(4, 175),2	95,(8, 90),18	113,(12, 129),14	127,(12, 147),2	153,(49, 201),6	225,(51, 201),6	4027,(10, 125),4	4063,(12, 125),2	4077,(102, 201),6	4111,(7, 36),50	4167,(8, 182),22	4189,(8, 200),36	4237,(12, 83),20	4257,(12, 200),20	4289,(82, 201),6	4307,(87, 201),6	4325,(112, 201),6	4343,(149, 201),6	4367,(126, 201),6	4379,(54, 201),6	4397,(195, 201),6	4415,(164, 201),6	4439,(168, 201),6	4451,(171, 201),6	4469,(167, 201),6	4487,(69, 201),6	4505,(154, 201),6	4523,(158, 201),6	4547,(86, 201),6	4565,(46, 201),6	4583,(88, 201),6	4601,(59, 201),6	4613,(173, 201),6	4631,(198, 201),6	4649,(189, 201),6	4667,(134, 201),6	4685,(115, 201),6	4703,(120, 201),6	4721,(98, 201),6	4745,(109, 201),6	4763,(65, 201),6	4775,(179, 201),6	4793,(197, 201),6	4817,(75, 201),6	4835,(44, 201),6	4847,(97, 201),6	4865,(38, 201),6	4919,(72, 201),6	4931,(114, 201),6	4937,(122, 201),6	4949,(60, 201),6	4961,(47, 201),6	4967,(23, 201),6	4973,(58, 201),6	4979,(184, 201),6	5003,(73, 201),6	
8,(2, 28),6	14,(2, 127),8	22,(2, 152),2	24,(3, 187),2	29,(3, 28),4	33,(3, 63),10	43,(3, 65),2	45,(3, 124),10	55,(3, 150),6	61,(3, 165),10	71,(6, 84),2	73,(6, 97),2	75,(9, 50),2	77,(9, 90),2	87,(6, 181),2	89,(9, 152),2	
9,(1, 54),2	17,(1, 117),8	25,(1, 184),6	31,(17, 73),10	41,(17, 109),2	45,(17, 179),2	47,(18, 197),4	51,(19, 75),2	55,(18, 192),6	61,(20, 44),10	87,(30, 201),6	147,(163, 201),6	159,(193, 201),6	231,(80, 201),6	3687,(1, 155),34	4021,(123, 201),6	4051,(133, 201),6	4059,(17, 99),2	4061,(17, 170),2	4065,(19, 56),2	4071,(19, 67),2	4073,(19, 118),2	4075,(19, 119),2	4091,(20, 78),4	4295,(71, 201),6	4313,(191, 201),6	4331,(81, 201),6	4349,(64, 201),6	4361,(20, 119),4	4365,(20, 160),2	4385,(25, 201),6	4403,(166, 201),6	4421,(194, 201),6	4433,(28, 201),6	4457,(151, 201),6	4475,(108, 201),6	4493,(105, 201),6	4511,(62, 201),6	4529,(32, 201),6	4541,(146, 201),6	4559,(55, 201),6	4577,(110, 201),6	4595,(37, 201),6	4619,(145, 201),6	4637,(104, 201),6	4655,(101, 201),6	4673,(34, 201),6	4691,(196, 201),6	4709,(169, 201),6	4727,(188, 201),6	4739,(124, 201),6	4757,(24, 201),6	4781,(84, 201),6	4799,(50, 201),6	4811,(35, 201),6	4829,(90, 201),6	4859,(147, 201),6	4913,(61, 201),6	4925,(76, 201),6	4943,(130, 201),6	4955,(162, 201),6	4985,(52, 201),6	4991,(94, 201),6	4997,(150, 201),6	5009,(131, 201),6	
