1412
# CPU
135,48,1	136,58,1	449,18,1	455,38,1	465,78,1	468,28,1	927,68,1	
53,17,1	71,27,1	75,67,1	139,37,1	174,57,1	652,77,1	814,47,1	
50,8,1	52,36,1	58,26,1	88,76,1	89,16,1	120,46,1	649,66,1	824,56,1	
43,7,1	44,15,1	45,65,1	46,55,1	47,25,1	63,75,1	100,45,1	136,35,1	
36,6,1	37,34,1	38,14,1	60,74,1	76,24,1	80,54,1	89,64,1	641,44,1	
29,5,1	47,73,1	80,43,1	118,23,1	122,53,1	135,13,1	404,63,1	535,33,1	
22,4,1	23,12,1	24,32,1	25,72,1	36,62,1	45,22,1	46,42,1	56,52,1	
15,3,1	16,21,1	17,61,1	18,71,1	59,11,1	79,51,1	451,31,1	456,41,1	
8,2,1	9,50,1	31,20,1	52,10,1	55,40,1	99,70,1	106,80,1	137,60,1	798,30,1	
0,0,1	1,1,1	746,59,1	758,29,1	759,39,1	762,69,1	797,9,1	809,19,1	823,49,1	859,79,1	1411,81,1	
# Incoming
120,(1, 48),1	121,(3, 48),14	135,(5, 58),1	137,(1, 68),292	429,(2, 18),20	451,(2, 38),4	455,(4, 78),10	465,(5, 28),3	468,(5, 68),3	824,(7, 68),103	
50,(1, 17),3	53,(1, 27),18	71,(3, 47),1	72,(5, 67),3	136,(6, 37),3	139,(6, 57),35	649,(2, 77),3	798,(7, 47),16	
43,(0, 8),7	50,(4, 36),2	52,(5, 26),6	58,(4, 76),30	88,(6, 16),1	100,(1, 46),20	122,(1, 56),1	641,(2, 66),8	823,(7, 56),1	
36,(0, 7),7	43,(3, 15),1	44,(4, 25),1	60,(3, 75),3	80,(1, 45),20	118,(6, 35),18	
29,(0, 6),7	36,(5, 34),1	47,(3, 74),13	60,(8, 24),16	79,(8, 54),1	80,(8, 64),9	456,(2, 44),185	
22,(0, 5),7	46,(3, 73),1	71,(1, 43),9	89,(6, 23),29	121,(1, 53),1	122,(8, 13),13	135,(3, 63),269	404,(8, 33),131	
15,(0, 4),7	31,(5, 62),5	44,(3, 22),1	45,(3, 42),1	55,(8, 52),1	
8,(0, 3),7	52,(4, 41),6	58,(8, 11),1	76,(8, 51),3	449,(2, 31),2	455,(2, 41),1	
1,(0, 2),7	30,(5, 20),1	51,(8, 10),1	52,(8, 40),3	72,(3, 70),27	99,(4, 80),7	123,(1, 60),14	797,(7, 30),1	
652,(50, 81),11	663,(21, 81),11	674,(61, 81),11	685,(71, 81),11	696,(12, 81),11	707,(32, 81),11	718,(72, 81),11	729,(5, 59),17	746,(20, 81),11	757,(6, 29),1	758,(6, 39),1	759,(6, 69),3	762,(62, 81),11	773,(34, 81),11	784,(14, 81),11	795,(7, 9),2	797,(22, 81),11	808,(8, 19),1	814,(7, 49),9	823,(42, 81),11	834,(73, 81),11	845,(8, 79),14	859,(36, 81),11	870,(10, 81),11	881,(17, 81),11	892,(40, 81),11	903,(52, 81),11	914,(26, 81),11	927,(15, 81),11	938,(65, 81),11	949,(55, 81),11	960,(25, 81),11	971,(11, 81),11	982,(74, 81),11	993,(75, 81),11	1004,(27, 81),11	1015,(67, 81),11	1026,(24, 81),11	1037,(51, 81),11	1048,(43, 81),11	1059,(54, 81),11	1070,(76, 81),11	1081,(64, 81),11	1092,(16, 81),11	1103,(70, 81),11	1114,(45, 81),11	1125,(80, 81),11	1136,(23, 81),11	1147,(46, 81),11	1158,(53, 81),11	1169,(48, 81),11	1180,(13, 81),11	1191,(35, 81),11	1202,(58, 81),11	1213,(60, 81),11	1224,(37, 81),11	1235,(57, 81),11	1246,(63, 81),11	1257,(18, 81),11	1268,(31, 81),11	1279,(38, 81),11	1290,(41, 81),11	1301,(78, 81),11	1312,(28, 81),11	1323,(33, 81),11	1334,(44, 81),11	1345,(66, 81),11	1356,(77, 81),11	1367,(30, 81),11	1378,(47, 81),11	1389,(56, 81),11	1400,(68, 81),11	
# Outgoing
1169,(48, 81),11	1202,(58, 81),11	1257,(18, 81),11	1279,(38, 81),11	1301,(78, 81),11	1312,(28, 81),11	1400,(68, 81),11	
881,(17, 81),11	1004,(27, 81),11	1015,(67, 81),11	1224,(37, 81),11	1235,(57, 81),11	1356,(77, 81),11	1378,(47, 81),11	
51,(8, 10),1	52,(8, 40),3	55,(8, 52),1	58,(8, 11),1	60,(8, 24),16	76,(8, 51),3	79,(8, 54),1	80,(8, 64),9	122,(8, 13),13	404,(8, 33),131	808,(8, 19),1	845,(8, 79),14	859,(36, 81),11	914,(26, 81),11	1070,(76, 81),11	1092,(16, 81),11	1147,(46, 81),11	1345,(66, 81),11	1389,(56, 81),11	
795,(7, 9),2	797,(7, 30),1	798,(7, 47),16	814,(7, 49),9	823,(7, 56),1	824,(7, 68),103	927,(15, 81),11	938,(65, 81),11	949,(55, 81),11	960,(25, 81),11	993,(75, 81),11	1114,(45, 81),11	1191,(35, 81),11	
88,(6, 16),1	89,(6, 23),29	118,(6, 35),18	136,(6, 37),3	139,(6, 57),35	757,(6, 29),1	758,(6, 39),1	759,(6, 69),3	773,(34, 81),11	784,(14, 81),11	982,(74, 81),11	1026,(24, 81),11	1059,(54, 81),11	1081,(64, 81),11	1334,(44, 81),11	
30,(5, 20),1	31,(5, 62),5	36,(5, 34),1	52,(5, 26),6	72,(5, 67),3	135,(5, 58),1	465,(5, 28),3	468,(5, 68),3	729,(5, 59),17	834,(73, 81),11	1048,(43, 81),11	1136,(23, 81),11	1158,(53, 81),11	1180,(13, 81),11	1246,(63, 81),11	1323,(33, 81),11	
44,(4, 25),1	50,(4, 36),2	52,(4, 41),6	58,(4, 76),30	99,(4, 80),7	455,(4, 78),10	696,(12, 81),11	707,(32, 81),11	718,(72, 81),11	762,(62, 81),11	797,(22, 81),11	823,(42, 81),11	903,(52, 81),11	
43,(3, 15),1	44,(3, 22),1	45,(3, 42),1	46,(3, 73),1	47,(3, 74),13	60,(3, 75),3	71,(3, 47),1	72,(3, 70),27	121,(3, 48),14	135,(3, 63),269	663,(21, 81),11	674,(61, 81),11	685,(71, 81),11	971,(11, 81),11	1037,(51, 81),11	1268,(31, 81),11	1290,(41, 81),11	
429,(2, 18),20	449,(2, 31),2	451,(2, 38),4	455,(2, 41),1	456,(2, 44),185	641,(2, 66),8	649,(2, 77),3	652,(50, 81),11	746,(20, 81),11	870,(10, 81),11	892,(40, 81),11	1103,(70, 81),11	1125,(80, 81),11	1213,(60, 81),11	1367,(30, 81),11	
1,(0, 2),7	8,(0, 3),7	15,(0, 4),7	22,(0, 5),7	29,(0, 6),7	36,(0, 7),7	43,(0, 8),7	50,(1, 17),3	53,(1, 27),18	71,(1, 43),9	80,(1, 45),20	100,(1, 46),20	120,(1, 48),1	121,(1, 53),1	122,(1, 56),1	123,(1, 60),14	137,(1, 68),292	
