118
# CPU
0,0,1	1,8,3	4,78,3	7,34,3	10,79,3	13,77,3	16,10,3	19,58,3	22,38,3	25,72,3	28,15,3	31,45,3	34,64,3	37,56,3	40,19,3	50,71,3	62,22,3	75,57,3	112,52,3	117,81,1	
3,2,3	6,4,3	9,3,3	12,68,3	15,9,3	18,21,3	21,36,3	24,46,3	27,69,3	30,27,3	33,24,3	36,41,3	39,76,3	42,54,3	45,18,3	48,29,3	51,51,3	54,35,3	57,40,3	60,50,3	63,49,3	66,80,3	69,43,3	72,20,3	75,75,3	
4,1,3	7,28,3	10,12,3	13,55,3	16,63,3	19,37,3	22,17,3	25,48,3	28,53,3	31,66,3	34,62,3	52,26,3	
5,6,3	8,59,3	11,70,3	14,73,3	17,74,3	20,25,3	23,39,3	26,23,3	29,30,3	32,11,3	
2,7,3	5,47,3	8,5,3	11,42,3	14,61,3	17,14,3	20,13,3	23,33,3	26,65,3	29,67,3	32,32,3	35,31,3	38,44,3	41,60,3	91,16,3	
# Incoming
8,(47, 81),1	10,(28, 81),1	11,(59, 81),1	12,(1, 22),1	13,(12, 81),1	14,(42, 81),1	15,(70, 81),1	16,(68, 81),1	17,(55, 81),1	18,(61, 81),1	19,(73, 81),1	20,(9, 81),1	21,(63, 81),1	22,(14, 81),1	23,(74, 81),1	24,(21, 81),1	25,(37, 81),1	26,(13, 81),1	27,(25, 81),1	28,(36, 81),1	29,(17, 81),1	30,(33, 81),1	31,(39, 81),1	32,(46, 81),1	33,(48, 81),1	34,(65, 81),1	35,(23, 81),1	36,(69, 81),1	37,(53, 81),1	38,(67, 81),1	39,(30, 81),1	40,(27, 81),1	41,(66, 81),1	42,(32, 81),1	43,(11, 81),1	44,(24, 81),1	45,(6, 71),3	48,(3, 71),2	50,(62, 81),1	51,(31, 81),1	52,(41, 81),1	53,(44, 81),1	54,(76, 81),1	55,(4, 22),7	62,(60, 81),1	63,(54, 81),1	64,(18, 81),1	65,(29, 81),1	66,(51, 81),1	67,(7, 57),3	70,(2, 57),5	75,(26, 81),1	76,(35, 81),1	77,(40, 81),1	78,(50, 81),1	79,(49, 81),1	80,(2, 52),31	111,(3, 52),1	112,(80, 81),1	113,(43, 81),1	114,(20, 81),1	115,(75, 81),1	116,(16, 81),1	
2,(0, 2),1	5,(0, 4),1	7,(0, 3),1	43,(5, 75),8	
3,(0, 1),1	8,(8, 66),1	11,(5, 63),1	12,(5, 66),1	17,(2, 37),1	18,(4, 17),1	21,(2, 48),2	23,(2, 66),1	25,(3, 53),2	27,(8, 62),6	48,(6, 26),4	
4,(0, 6),1	9,(7, 11),1	19,(4, 30),1	
1,(0, 7),1	6,(0, 5),1	11,(1, 60),1	27,(2, 44),1	29,(2, 16),1	52,(6, 16),39	
# Outgoing
1,(0, 7),1	2,(0, 2),1	3,(0, 1),1	4,(0, 6),1	5,(0, 4),1	6,(0, 5),1	7,(0, 3),1	8,(8, 66),1	27,(8, 62),6	
16,(68, 81),1	17,(2, 37),1	18,(4, 17),1	19,(4, 30),1	20,(9, 81),1	21,(2, 48),2	23,(2, 66),1	24,(21, 81),1	25,(3, 53),2	27,(2, 44),1	28,(36, 81),1	29,(2, 16),1	32,(46, 81),1	36,(69, 81),1	40,(27, 81),1	44,(24, 81),1	48,(3, 71),2	52,(41, 81),1	54,(76, 81),1	55,(4, 22),7	63,(54, 81),1	64,(18, 81),1	65,(29, 81),1	66,(51, 81),1	70,(2, 57),5	76,(35, 81),1	77,(40, 81),1	78,(50, 81),1	79,(49, 81),1	80,(2, 52),31	111,(3, 52),1	112,(80, 81),1	113,(43, 81),1	114,(20, 81),1	115,(75, 81),1	
10,(28, 81),1	11,(1, 60),1	12,(1, 22),1	13,(12, 81),1	17,(55, 81),1	21,(63, 81),1	25,(37, 81),1	29,(17, 81),1	33,(48, 81),1	37,(53, 81),1	41,(66, 81),1	50,(62, 81),1	75,(26, 81),1	
11,(59, 81),1	15,(70, 81),1	19,(73, 81),1	23,(74, 81),1	27,(25, 81),1	31,(39, 81),1	35,(23, 81),1	39,(30, 81),1	43,(11, 81),1	45,(6, 71),3	48,(6, 26),4	52,(6, 16),39	
8,(47, 81),1	9,(7, 11),1	11,(5, 63),1	12,(5, 66),1	14,(42, 81),1	18,(61, 81),1	22,(14, 81),1	26,(13, 81),1	30,(33, 81),1	34,(65, 81),1	38,(67, 81),1	42,(32, 81),1	43,(5, 75),8	51,(31, 81),1	53,(44, 81),1	62,(60, 81),1	67,(7, 57),3	116,(16, 81),1	
