262
# CPU
0,81,1	1,68,1	2,10,1	3,11,1	4,21,1	5,20,1	6,22,1	7,19,1	8,34,1	9,52,1	10,53,1	11,54,1	12,58,1	13,56,1	14,42,1	15,39,1	16,29,1	17,25,1	18,73,1	19,16,1	20,15,1	21,9,1	22,36,1	23,31,1	24,77,1	25,40,1	26,17,1	27,28,1	28,75,1	29,32,1	30,69,1	31,67,1	32,37,1	33,38,1	34,65,1	35,62,1	36,72,1	37,71,1	38,26,1	39,41,1	40,80,1	41,12,1	42,66,1	43,64,1	44,49,1	45,43,1	46,55,1	47,74,1	48,13,1	49,48,1	50,79,1	51,60,1	52,24,1	53,47,1	54,59,1	55,5,1	56,27,1	57,18,1	58,45,1	59,46,1	60,1,1	61,61,1	62,50,1	63,70,1	64,23,1	65,76,1	66,57,1	67,33,1	68,63,1	69,3,1	70,7,1	71,8,1	72,4,1	75,6,1	260,2,1	261,0,1	
12,30,1	23,51,1	34,14,1	45,78,1	56,35,1	67,44,1	
# Incoming
13,(30, 7),1	24,(51, 8),3	35,(14, 6),5	46,(78, 4),10	57,(35, 6),18	75,(44, 2),185	
1,(81, 30),11	12,(81, 51),11	23,(81, 14),11	34,(81, 78),11	45,(81, 35),11	56,(81, 44),11	
# Outgoing
1,(81, 30),11	12,(81, 51),11	23,(81, 14),11	34,(81, 78),11	45,(81, 35),11	56,(81, 44),11	
13,(30, 7),1	24,(51, 8),3	35,(14, 6),5	46,(78, 4),10	57,(35, 6),18	75,(44, 2),185	
