3072
# CPU
55,2,1	56,52,1	57,68,1	109,4,1	110,10,1	111,44,1	112,18,1	113,32,1	114,40,1	163,6,1	164,20,1	165,80,1	166,28,1	167,34,1	168,42,1	169,76,1	217,8,1	218,26,1	219,38,1	220,48,1	221,72,1	222,74,1	223,56,1	241,14,1	286,24,1	418,30,1	421,46,1	442,70,1	445,78,1	448,12,1	535,54,1	655,62,1	667,64,1	679,66,1	691,16,1	712,50,1	742,58,1	817,60,1	835,22,1	838,36,1	
0,0,1	1,1,1	2,3,1	3,7,1	4,5,1	5,29,1	6,63,1	7,37,1	8,47,1	9,23,1	10,11,1	11,43,1	12,39,1	13,31,1	14,25,1	15,51,1	16,73,1	17,69,1	18,75,1	19,77,1	20,35,1	62,9,1	65,19,1	68,27,1	71,41,1	122,49,1	131,67,1	248,65,1	251,71,1	347,79,1	860,15,1	878,55,1	902,57,1	944,61,1	1508,13,1	1670,17,1	1673,21,1	1676,33,1	1754,45,1	1757,53,1	1760,59,1	3071,81,1	
# Incoming
1,(0, 2),54	55,(0, 4),54	109,(0, 6),54	163,(0, 8),54	217,(1, 14),24	241,(1, 24),45	286,(1, 30),132	418,(1, 46),3	421,(1, 70),21	442,(1, 78),3	445,(3, 12),3	448,(3, 54),87	535,(3, 62),120	655,(3, 64),12	667,(3, 66),12	679,(7, 16),12	691,(7, 50),21	712,(7, 58),30	742,(7, 60),75	817,(5, 22),18	835,(5, 36),3	
56,(2, 9),6	62,(2, 19),3	65,(2, 27),3	68,(2, 41),3	71,(2, 49),51	122,(2, 67),9	131,(52, 81),57	188,(68, 81),57	245,(4, 65),3	248,(4, 71),3	251,(4, 79),96	347,(10, 81),57	404,(44, 81),57	461,(18, 81),57	518,(32, 81),57	575,(40, 81),57	632,(6, 15),228	860,(6, 55),18	878,(6, 57),24	902,(6, 61),42	944,(20, 81),57	1001,(80, 81),57	1058,(28, 81),57	1115,(34, 81),57	1172,(42, 81),57	1229,(76, 81),57	1286,(8, 13),222	1508,(8, 17),162	1670,(8, 21),3	1673,(8, 33),3	1676,(8, 45),78	1754,(8, 53),3	1757,(8, 59),3	1760,(26, 81),57	1817,(38, 81),57	1874,(48, 81),57	1931,(72, 81),57	1988,(74, 81),57	2045,(56, 81),57	2102,(14, 81),57	2159,(24, 81),57	2216,(30, 81),57	2273,(46, 81),57	2330,(70, 81),57	2387,(78, 81),57	2444,(12, 81),57	2501,(54, 81),57	2558,(62, 81),57	2615,(64, 81),57	2672,(66, 81),57	2729,(16, 81),57	2786,(50, 81),57	2843,(58, 81),57	2900,(60, 81),57	2957,(22, 81),57	3014,(36, 81),57	
# Outgoing
56,(2, 9),6	62,(2, 19),3	65,(2, 27),3	68,(2, 41),3	71,(2, 49),51	122,(2, 67),9	131,(52, 81),57	188,(68, 81),57	245,(4, 65),3	248,(4, 71),3	251,(4, 79),96	347,(10, 81),57	404,(44, 81),57	461,(18, 81),57	518,(32, 81),57	575,(40, 81),57	632,(6, 15),228	860,(6, 55),18	878,(6, 57),24	902,(6, 61),42	944,(20, 81),57	1001,(80, 81),57	1058,(28, 81),57	1115,(34, 81),57	1172,(42, 81),57	1229,(76, 81),57	1286,(8, 13),222	1508,(8, 17),162	1670,(8, 21),3	1673,(8, 33),3	1676,(8, 45),78	1754,(8, 53),3	1757,(8, 59),3	1760,(26, 81),57	1817,(38, 81),57	1874,(48, 81),57	1931,(72, 81),57	1988,(74, 81),57	2045,(56, 81),57	2102,(14, 81),57	2159,(24, 81),57	2216,(30, 81),57	2273,(46, 81),57	2330,(70, 81),57	2387,(78, 81),57	2444,(12, 81),57	2501,(54, 81),57	2558,(62, 81),57	2615,(64, 81),57	2672,(66, 81),57	2729,(16, 81),57	2786,(50, 81),57	2843,(58, 81),57	2900,(60, 81),57	2957,(22, 81),57	3014,(36, 81),57	
1,(0, 2),54	55,(0, 4),54	109,(0, 6),54	163,(0, 8),54	217,(1, 14),24	241,(1, 24),45	286,(1, 30),132	418,(1, 46),3	421,(1, 70),21	442,(1, 78),3	445,(3, 12),3	448,(3, 54),87	535,(3, 62),120	655,(3, 64),12	667,(3, 66),12	679,(7, 16),12	691,(7, 50),21	712,(7, 58),30	742,(7, 60),75	817,(5, 22),18	835,(5, 36),3	
