1711
# CPU
0,0,1	1,1,223	224,11,223	447,8,223	670,18,223	893,9,223	1116,10,223	1339,16,223	1710,21,1	
17,2,223	240,4,223	463,6,223	686,20,223	909,15,223	1132,19,223	1355,13,223	
228,12,223	451,17,223	674,5,223	897,3,223	1120,14,223	1343,7,223	
# Incoming
240,(2, 8),12	260,(2, 9),4	276,(2, 10),8	328,(2, 16),28	451,(12, 21),72	523,(4, 21),72	674,(17, 21),72	746,(6, 21),72	897,(5, 21),72	969,(20, 21),72	1120,(3, 21),72	1192,(15, 21),72	1343,(14, 21),72	1415,(19, 21),72	1566,(7, 21),72	1638,(13, 21),72	
1,(0, 2),16	244,(1, 13),8	
224,(1, 12),4	228,(1, 5),4	232,(1, 3),4	236,(1, 14),8	252,(2, 17),4	256,(2, 5),4	264,(2, 3),12	284,(2, 14),44	328,(1, 7),12	356,(2, 7),48	
# Outgoing
1,(0, 2),16	224,(1, 12),4	228,(1, 5),4	232,(1, 3),4	236,(1, 14),8	244,(1, 13),8	328,(1, 7),12	
240,(2, 8),12	252,(2, 17),4	256,(2, 5),4	260,(2, 9),4	264,(2, 3),12	276,(2, 10),8	284,(2, 14),44	328,(2, 16),28	356,(2, 7),48	523,(4, 21),72	746,(6, 21),72	969,(20, 21),72	1192,(15, 21),72	1415,(19, 21),72	1638,(13, 21),72	
451,(12, 21),72	674,(17, 21),72	897,(5, 21),72	1120,(3, 21),72	1343,(14, 21),72	1566,(7, 21),72	
