5452
# CPU
0,0,1	1,12,6	7,5,6	13,8,6	907,23,6	2751,32,6	2829,60,6	2835,67,6	2909,118,6	3155,90,6	3983,13,6	4011,14,6	4147,42,6	4177,46,6	4183,55,6	4189,56,6	4229,68,6	4299,103,6	4357,119,6	4387,27,6	4397,34,6	4587,36,6	4593,70,6	4605,79,6	4675,86,6	4697,88,6	4759,92,6	4765,94,6	4777,98,6	4795,113,6	4803,115,6	5451,121,1	
7,1,6	13,2,6	25,4,6	425,25,6	579,38,6	651,63,6	781,110,6	877,51,6	899,93,6	997,65,6	1025,47,6	1031,75,6	1037,83,6	1089,73,6	1165,89,6	1171,116,6	1177,20,6	1183,30,6	1191,24,6	1197,44,6	1251,29,6	1273,62,6	1279,69,6	1291,72,6	1299,74,6	1319,76,6	1377,78,6	1421,82,6	1431,96,6	2783,109,6	
19,3,6	37,7,6	49,10,6	547,15,6	907,17,6	913,16,6	933,19,6	949,21,6	955,22,6	1037,37,6	1189,84,6	1197,95,6	1251,48,6	1357,52,6	1429,107,6	1437,99,6	1447,117,6	1499,18,6	1527,114,6	1535,35,6	1553,40,6	1567,41,6	1621,49,6	1633,53,6	1645,57,6	1659,61,6	1707,77,6	1721,101,6	1747,106,6	1763,111,6	
31,6,6	43,9,6	55,11,6	189,43,6	347,80,6	851,33,6	1017,28,6	1059,91,6	1079,64,6	1257,50,6	1263,58,6	1433,102,6	1451,104,6	1457,105,6	1503,26,6	1529,31,6	1537,39,6	1613,45,6	1639,54,6	1651,59,6	1701,66,6	1707,71,6	1713,81,6	1719,85,6	1725,87,6	1753,108,6	2763,97,6	2779,100,6	2785,112,6	2793,120,6	
# Incoming
13,(1, 14),248	261,(6, 67),2	263,(1, 23),18	281,(6, 23),8	289,(6, 56),8	297,(1, 36),2	299,(1, 42),4	303,(6, 92),2	305,(1, 56),2	307,(6, 60),4	311,(1, 70),2	313,(6, 34),12	325,(6, 94),2	327,(1, 46),62	389,(1, 60),8	399,(1, 94),2	401,(3, 13),18	419,(3, 23),2	421,(6, 68),4	425,(3, 32),2	427,(9, 42),4	431,(9, 118),2	433,(3, 46),28	461,(6, 42),12	473,(11, 46),2	475,(3, 56),2	477,(1, 98),4	481,(1, 103),4	485,(9, 90),6	493,(1, 55),106	599,(3, 60),2	601,(3, 68),4	605,(3, 88),12	617,(9, 113),4	621,(11, 13),4	627,(3, 90),24	651,(3, 119),2	653,(1, 90),20	673,(1, 92),16	689,(3, 14),86	775,(3, 92),4	779,(3, 113),6	785,(7, 42),4	789,(11, 56),4	793,(1, 113),6	799,(11, 42),6	807,(1, 118),12	819,(1, 119),4	823,(6, 103),14	839,(2, 27),2	843,(2, 32),2	845,(11, 67),4	849,(7, 46),2	851,(2, 42),2	853,(2, 56),2	855,(2, 79),2	857,(3, 115),8	865,(6, 46),34	899,(7, 23),8	907,(2, 34),112	1019,(3, 42),110	1129,(6, 70),28	1157,(6, 115),16	1173,(6, 119),18	1191,(2, 94),2	1193,(7, 13),30	1223,(7, 56),6	1229,(7, 60),4	1233,(7, 67),2	1235,(7, 92),2	1237,(7, 113),4	1241,(7, 115),4	1245,(2, 98),190	1435,(7, 32),48	1483,(7, 98),12	1495,(2, 118),2	1497,(3, 34),1092	2589,(3, 55),146	2735,(4, 13),12	2747,(4, 27),2	2749,(4, 32),2	2751,(4, 36),58	2809,(4, 42),14	2823,(4, 60),6	2829,(4, 67),6	2835,(4, 79),30	2865,(4, 88),10	2875,(4, 90),2	2877,(4, 94),8	2885,(4, 98),2	2887,(4, 113),6	2893,(4, 118),16	2909,(4, 119),8	2917,(6, 86),68	2985,(6, 98),90	3075,(7, 70),44	3119,(7, 88),14	3133,(7, 90),22	3155,(9, 46),34	3189,(9, 56),12	3201,(9, 70),402	3603,(9, 86),14	3617,(9, 92),70	3687,(9, 94),80	3767,(9, 98),194	3961,(9, 119),12	3973,(10, 13),10	3983,(10, 14),28	4011,(10, 27),128	4139,(10, 36),6	4145,(10, 42),2	4147,(10, 46),30	4177,(10, 55),6	4183,(10, 56),2	4185,(10, 68),44	4229,(10, 79),32	4261,(10, 88),6	4267,(10, 92),10	4277,(10, 103),22	4299,(10, 113),32	4331,(10, 115),2	4333,(10, 119),24	4357,(11, 27),30	4387,(11, 34),10	4397,(11, 36),190	4587,(11, 70),6	4593,(11, 79),12	4605,(11, 86),70	4675,(11, 88),22	4697,(11, 92),62	4759,(11, 94),6	4765,(11, 98),12	4777,(11, 113),18	4795,(11, 115),8	4803,(43, 121),8	4811,(80, 121),8	4819,(25, 121),8	4827,(15, 121),8	4835,(38, 121),8	4843,(63, 121),8	4851,(110, 121),8	4859,(33, 121),8	4867,(51, 121),8	4875,(93, 121),8	4883,(17, 121),8	4891,(16, 121),8	4899,(19, 121),8	4907,(21, 121),8	4915,(22, 121),8	4923,(65, 121),8	4931,(28, 121),8	4939,(47, 121),8	4947,(75, 121),8	4955,(83, 121),8	4963,(37, 121),8	4971,(91, 121),8	4979,(64, 121),8	4987,(73, 121),8	4995,(89, 121),8	5003,(116, 121),8	5011,(20, 121),8	5019,(30, 121),8	5027,(84, 121),8	5035,(24, 121),8	5043,(95, 121),8	5051,(44, 121),8	5059,(48, 121),8	5067,(29, 121),8	5075,(50, 121),8	5083,(58, 121),8	5091,(62, 121),8	5099,(69, 121),8	5107,(72, 121),8	5115,(74, 121),8	5123,(76, 121),8	5131,(52, 121),8	5139,(78, 121),8	5147,(82, 121),8	5155,(107, 121),8	5163,(96, 121),8	5171,(102, 121),8	5179,(99, 121),8	5187,(117, 121),8	5195,(104, 121),8	5203,(105, 121),8	5211,(18, 121),8	5219,(26, 121),8	5227,(114, 121),8	5235,(31, 121),8	5243,(35, 121),8	5251,(39, 121),8	5259,(40, 121),8	5267,(41, 121),8	5275,(45, 121),8	5283,(49, 121),8	5291,(53, 121),8	5299,(54, 121),8	5307,(57, 121),8	5315,(59, 121),8	5323,(61, 121),8	5331,(66, 121),8	5339,(77, 121),8	5347,(71, 121),8	5355,(81, 121),8	5363,(85, 121),8	5371,(101, 121),8	5379,(87, 121),8	5387,(106, 121),8	5395,(108, 121),8	5403,(111, 121),8	5411,(97, 121),8	5419,(100, 121),8	5427,(109, 121),8	5435,(112, 121),8	5443,(120, 121),8	
1,(0, 1),6	7,(0, 2),6	19,(0, 4),6	43,(6, 24),2	45,(6, 30),2	47,(6, 44),2	55,(6, 25),12	67,(6, 38),4	71,(6, 47),2	73,(6, 62),2	75,(6, 63),2	77,(6, 74),8	85,(6, 76),16	101,(9, 20),2	103,(12, 20),2	105,(6, 89),4	109,(9, 38),2	111,(12, 25),2	145,(12, 29),6	151,(12, 30),2	155,(6, 78),16	171,(6, 93),14	203,(12, 47),4	207,(6, 69),42	249,(6, 116),4	253,(9, 62),2	255,(9, 69),2	279,(12, 72),4	283,(12, 73),12	295,(12, 74),2	297,(12, 75),6	305,(9, 73),2	311,(9, 89),2	313,(12, 78),28	347,(12, 82),6	353,(12, 83),6	361,(12, 89),4	365,(9, 24),14	379,(9, 47),10	389,(9, 51),24	413,(11, 24),8	421,(3, 25),4	425,(11, 78),2	427,(3, 44),6	433,(9, 63),14	447,(11, 47),8	455,(11, 62),6	461,(3, 51),14	485,(3, 47),20	505,(9, 82),18	531,(3, 63),4	535,(3, 65),10	547,(3, 73),2	549,(3, 74),2	551,(3, 75),2	555,(5, 24),4	559,(3, 82),10	575,(5, 38),4	579,(3, 78),18	597,(7, 24),2	599,(5, 44),14	617,(3, 89),10	637,(5, 62),6	643,(5, 63),8	651,(5, 65),2	653,(7, 30),2	655,(7, 44),4	659,(7, 69),2	661,(5, 72),6	667,(5, 74),10	677,(5, 75),4	681,(5, 76),28	711,(5, 82),10	721,(9, 78),32	759,(5, 109),2	767,(5, 89),10	779,(5, 110),2	787,(8, 29),2	789,(3, 62),28	817,(3, 69),32	855,(7, 73),2	865,(7, 51),12	877,(7, 75),4	881,(7, 76),8	889,(7, 78),2	891,(7, 93),8	899,(8, 44),6	905,(9, 83),38	943,(9, 96),26	969,(11, 65),28	1005,(8, 47),20	1027,(8, 75),2	1031,(8, 83),4	1059,(8, 96),2	1061,(11, 73),28	1129,(7, 89),36	1165,(7, 116),6	1171,(10, 20),2	1173,(10, 30),2	1183,(10, 24),8	1191,(10, 44),2	1245,(10, 29),6	1267,(10, 62),6	1273,(10, 69),2	1279,(10, 72),12	1291,(10, 74),8	1299,(10, 76),20	1319,(10, 78),58	1395,(10, 82),26	1429,(10, 96),2	2779,(10, 109),4	
13,(0, 3),6	31,(0, 7),6	37,(6, 19),6	43,(0, 10),6	49,(6, 22),6	55,(12, 17),40	95,(12, 19),8	103,(6, 114),2	105,(12, 21),6	111,(6, 35),14	125,(6, 37),4	129,(6, 41),4	133,(6, 49),22	161,(12, 37),22	183,(12, 40),2	185,(6, 52),18	203,(6, 117),4	207,(12, 48),2	209,(12, 49),2	237,(12, 52),12	249,(12, 53),8	257,(9, 18),2	259,(9, 37),2	261,(1, 22),2	263,(6, 95),10	273,(9, 40),2	275,(9, 41),2	277,(9, 49),2	279,(9, 106),2	283,(1, 35),14	297,(9, 53),4	301,(11, 22),2	303,(12, 77),10	313,(1, 37),6	319,(1, 41),8	327,(6, 48),32	359,(9, 99),4	363,(11, 61),2	365,(12, 99),26	393,(12, 101),2	395,(12, 107),4	399,(12, 111),4	403,(1, 48),46	449,(1, 49),10	459,(1, 61),2	461,(12, 114),24	485,(1, 53),8	493,(5, 15),54	547,(5, 17),4	551,(5, 21),2	553,(5, 22),2	555,(6, 107),10	565,(11, 101),2	567,(5, 35),6	573,(5, 37),2	575,(9, 17),10	585,(9, 57),8	595,(5, 40),2	597,(5, 41),2	599,(1, 57),18	617,(5, 48),12	629,(5, 53),8	637,(6, 84),22	659,(9, 19),24	683,(9, 21),14	697,(9, 114),4	701,(11, 19),6	709,(5, 77),2	711,(9, 117),10	721,(5, 95),2	723,(5, 107),2	725,(1, 106),2	727,(1, 107),32	761,(1, 111),30	791,(5, 117),2	793,(11, 77),6	799,(1, 114),4	803,(1, 117),4	807,(9, 107),14	823,(2, 18),4	827,(2, 21),2	829,(2, 22),10	841,(5, 101),6	847,(5, 114),10	857,(2, 17),50	907,(8, 16),4	911,(8, 19),22	933,(8, 21),16	949,(8, 22),6	955,(8, 35),42	997,(8, 40),8	1005,(11, 41),10	1019,(2, 37),18	1037,(2, 49),8	1045,(2, 52),2	1047,(2, 53),18	1065,(8, 48),6	1071,(8, 52),2	1073,(8, 61),2	1075,(8, 77),2	1077,(8, 84),6	1083,(8, 95),8	1091,(8, 99),14	1105,(8, 107),28	1133,(2, 77),10	1143,(8, 114),14	1175,(2, 84),14	1193,(2, 95),4	1197,(9, 48),54	1251,(9, 61),46	1297,(9, 77),34	1331,(11, 52),26	1357,(11, 53),18	1375,(11, 99),40	1415,(11, 107),14	1435,(2, 99),2	1437,(11, 117),10	1453,(2, 106),16	1485,(2, 111),8	1493,(2, 114),2	1497,(4, 18),2	1499,(11, 114),28	1529,(4, 35),6	1537,(4, 40),16	1553,(4, 41),14	1613,(4, 49),8	1621,(4, 53),12	1639,(4, 57),6	1651,(4, 61),8	1703,(4, 77),4	1719,(4, 101),2	1721,(4, 106),26	1753,(4, 111),10	
25,(0, 6),6	37,(0, 9),6	49,(0, 11),6	113,(12, 26),14	127,(12, 28),18	153,(12, 33),8	185,(12, 43),4	189,(12, 45),14	211,(12, 50),26	257,(12, 71),22	281,(1, 31),2	303,(1, 45),2	307,(1, 66),4	341,(12, 80),6	359,(12, 85),2	391,(12, 100),2	397,(1, 87),2	401,(1, 102),2	403,(12, 112),58	461,(1, 81),8	469,(1, 91),8	477,(3, 26),6	483,(3, 28),2	485,(12, 120),6	491,(5, 26),2	505,(3, 54),2	507,(3, 58),24	545,(3, 71),2	553,(3, 85),6	559,(5, 28),2	561,(5, 31),4	565,(5, 33),2	569,(3, 91),6	575,(3, 97),2	577,(3, 108),2	579,(5, 39),16	613,(5, 59),4	617,(1, 64),36	653,(5, 54),8	661,(3, 105),8	669,(7, 26),20	689,(1, 97),26	715,(1, 104),10	725,(5, 66),30	755,(5, 102),4	759,(1, 108),2	761,(5, 85),6	777,(5, 108),2	781,(8, 26),6	789,(8, 33),2	791,(1, 112),2	793,(5, 50),48	841,(2, 31),2	845,(2, 33),6	851,(7, 39),4	857,(8, 28),12	869,(8, 39),30	905,(8, 50),2	907,(3, 112),56	963,(7, 66),28	991,(7, 71),4	995,(7, 81),2	997,(7, 87),2	999,(7, 100),2	1001,(7, 102),2	1003,(7, 104),2	1005,(7, 108),10	1015,(10, 28),2	1017,(10, 39),2	1025,(8, 64),2	1029,(8, 81),2	1035,(8, 85),4	1039,(8, 87),10	1049,(8, 91),10	1061,(8, 104),2	1063,(8, 112),2	1065,(2, 64),14	1079,(2, 66),50	1129,(2, 71),4	1133,(8, 100),6	1143,(2, 81),32	1175,(7, 120),8	1189,(2, 87),2	1197,(2, 97),48	1251,(10, 50),6	1257,(10, 58),4	1261,(10, 59),6	1275,(10, 71),4	1377,(10, 81),18	1421,(10, 87),8	1431,(10, 102),2	1433,(10, 105),2	1437,(2, 100),2	1439,(2, 104),12	1451,(2, 105),2	1469,(2, 108),16	1495,(10, 108),2	1499,(4, 26),4	1503,(4, 31),26	1535,(4, 39),2	1567,(4, 45),46	1633,(4, 54),6	1645,(4, 59),6	1659,(4, 66),42	1701,(4, 71),2	1707,(4, 81),6	1713,(4, 85),2	1715,(4, 87),2	1717,(4, 100),2	1747,(4, 108),6	1763,(4, 112),44	2735,(10, 97),28	2763,(10, 100),16	2783,(10, 112),2	2785,(10, 120),8	
# Outgoing
1,(0, 1),6	7,(0, 2),6	13,(0, 3),6	19,(0, 4),6	25,(0, 6),6	31,(0, 7),6	37,(0, 9),6	43,(0, 10),6	49,(0, 11),6	55,(12, 17),40	95,(12, 19),8	103,(12, 20),2	105,(12, 21),6	111,(12, 25),2	113,(12, 26),14	127,(12, 28),18	145,(12, 29),6	151,(12, 30),2	153,(12, 33),8	161,(12, 37),22	183,(12, 40),2	185,(12, 43),4	189,(12, 45),14	203,(12, 47),4	207,(12, 48),2	209,(12, 49),2	211,(12, 50),26	237,(12, 52),12	249,(12, 53),8	257,(12, 71),22	279,(12, 72),4	283,(12, 73),12	295,(12, 74),2	297,(12, 75),6	303,(12, 77),10	313,(12, 78),28	341,(12, 80),6	347,(12, 82),6	353,(12, 83),6	359,(12, 85),2	361,(12, 89),4	365,(12, 99),26	391,(12, 100),2	393,(12, 101),2	395,(12, 107),4	399,(12, 111),4	403,(12, 112),58	461,(12, 114),24	485,(12, 120),6	491,(5, 26),2	493,(5, 15),54	547,(5, 17),4	551,(5, 21),2	553,(5, 22),2	555,(5, 24),4	559,(5, 28),2	561,(5, 31),4	565,(5, 33),2	567,(5, 35),6	573,(5, 37),2	575,(5, 38),4	579,(5, 39),16	595,(5, 40),2	597,(5, 41),2	599,(5, 44),14	613,(5, 59),4	617,(5, 48),12	629,(5, 53),8	637,(5, 62),6	643,(5, 63),8	651,(5, 65),2	653,(5, 54),8	661,(5, 72),6	667,(5, 74),10	677,(5, 75),4	681,(5, 76),28	709,(5, 77),2	711,(5, 82),10	721,(5, 95),2	723,(5, 107),2	725,(5, 66),30	755,(5, 102),4	759,(5, 109),2	761,(5, 85),6	767,(5, 89),10	777,(5, 108),2	779,(5, 110),2	781,(8, 26),6	787,(8, 29),2	789,(8, 33),2	791,(5, 117),2	793,(5, 50),48	841,(5, 101),6	847,(5, 114),10	857,(8, 28),12	869,(8, 39),30	899,(8, 44),6	905,(8, 50),2	907,(8, 16),4	911,(8, 19),22	933,(8, 21),16	949,(8, 22),6	955,(8, 35),42	997,(8, 40),8	1005,(8, 47),20	1025,(8, 64),2	1027,(8, 75),2	1029,(8, 81),2	1031,(8, 83),4	1035,(8, 85),4	1039,(8, 87),10	1049,(8, 91),10	1059,(8, 96),2	1061,(8, 104),2	1063,(8, 112),2	1065,(8, 48),6	1071,(8, 52),2	1073,(8, 61),2	1075,(8, 77),2	1077,(8, 84),6	1083,(8, 95),8	1091,(8, 99),14	1105,(8, 107),28	1133,(8, 100),6	1143,(8, 114),14	
13,(1, 14),248	261,(1, 22),2	263,(1, 23),18	281,(1, 31),2	283,(1, 35),14	297,(1, 36),2	299,(1, 42),4	303,(1, 45),2	305,(1, 56),2	307,(1, 66),4	311,(1, 70),2	313,(1, 37),6	319,(1, 41),8	327,(1, 46),62	389,(1, 60),8	397,(1, 87),2	399,(1, 94),2	401,(1, 102),2	403,(1, 48),46	449,(1, 49),10	459,(1, 61),2	461,(1, 81),8	469,(1, 91),8	477,(1, 98),4	481,(1, 103),4	485,(1, 53),8	493,(1, 55),106	599,(1, 57),18	617,(1, 64),36	653,(1, 90),20	673,(1, 92),16	689,(1, 97),26	715,(1, 104),10	725,(1, 106),2	727,(1, 107),32	759,(1, 108),2	761,(1, 111),30	791,(1, 112),2	793,(1, 113),6	799,(1, 114),4	803,(1, 117),4	807,(1, 118),12	819,(1, 119),4	823,(2, 18),4	827,(2, 21),2	829,(2, 22),10	839,(2, 27),2	841,(2, 31),2	843,(2, 32),2	845,(2, 33),6	851,(2, 42),2	853,(2, 56),2	855,(2, 79),2	857,(2, 17),50	907,(2, 34),112	1019,(2, 37),18	1037,(2, 49),8	1045,(2, 52),2	1047,(2, 53),18	1065,(2, 64),14	1079,(2, 66),50	1129,(2, 71),4	1133,(2, 77),10	1143,(2, 81),32	1175,(2, 84),14	1189,(2, 87),2	1191,(2, 94),2	1193,(2, 95),4	1197,(2, 97),48	1245,(2, 98),190	1435,(2, 99),2	1437,(2, 100),2	1439,(2, 104),12	1451,(2, 105),2	1453,(2, 106),16	1469,(2, 108),16	1485,(2, 111),8	1493,(2, 114),2	1495,(2, 118),2	1497,(4, 18),2	1499,(4, 26),4	1503,(4, 31),26	1529,(4, 35),6	1535,(4, 39),2	1537,(4, 40),16	1553,(4, 41),14	1567,(4, 45),46	1613,(4, 49),8	1621,(4, 53),12	1633,(4, 54),6	1639,(4, 57),6	1645,(4, 59),6	1651,(4, 61),8	1659,(4, 66),42	1701,(4, 71),2	1703,(4, 77),4	1707,(4, 81),6	1713,(4, 85),2	1715,(4, 87),2	1717,(4, 100),2	1719,(4, 101),2	1721,(4, 106),26	1747,(4, 108),6	1753,(4, 111),10	1763,(4, 112),44	2735,(4, 13),12	2747,(4, 27),2	2749,(4, 32),2	2751,(4, 36),58	2809,(4, 42),14	2823,(4, 60),6	2829,(4, 67),6	2835,(4, 79),30	2865,(4, 88),10	2875,(4, 90),2	2877,(4, 94),8	2885,(4, 98),2	2887,(4, 113),6	2893,(4, 118),16	2909,(4, 119),8	4819,(25, 121),8	4835,(38, 121),8	4843,(63, 121),8	4851,(110, 121),8	4867,(51, 121),8	4875,(93, 121),8	4923,(65, 121),8	4939,(47, 121),8	4947,(75, 121),8	4955,(83, 121),8	4987,(73, 121),8	4995,(89, 121),8	5003,(116, 121),8	5011,(20, 121),8	5019,(30, 121),8	5035,(24, 121),8	5051,(44, 121),8	5067,(29, 121),8	5091,(62, 121),8	5099,(69, 121),8	5107,(72, 121),8	5115,(74, 121),8	5123,(76, 121),8	5139,(78, 121),8	5147,(82, 121),8	5163,(96, 121),8	5427,(109, 121),8	
401,(3, 13),18	419,(3, 23),2	421,(3, 25),4	425,(3, 32),2	427,(3, 44),6	433,(3, 46),28	461,(3, 51),14	475,(3, 56),2	477,(3, 26),6	483,(3, 28),2	485,(3, 47),20	505,(3, 54),2	507,(3, 58),24	531,(3, 63),4	535,(3, 65),10	545,(3, 71),2	547,(3, 73),2	549,(3, 74),2	551,(3, 75),2	553,(3, 85),6	559,(3, 82),10	569,(3, 91),6	575,(3, 97),2	577,(3, 108),2	579,(3, 78),18	597,(7, 24),2	599,(3, 60),2	601,(3, 68),4	605,(3, 88),12	617,(3, 89),10	627,(3, 90),24	651,(3, 119),2	653,(7, 30),2	655,(7, 44),4	659,(7, 69),2	661,(3, 105),8	669,(7, 26),20	689,(3, 14),86	775,(3, 92),4	779,(3, 113),6	785,(7, 42),4	789,(3, 62),28	817,(3, 69),32	849,(7, 46),2	851,(7, 39),4	855,(7, 73),2	857,(3, 115),8	865,(7, 51),12	877,(7, 75),4	881,(7, 76),8	889,(7, 78),2	891,(7, 93),8	899,(7, 23),8	907,(3, 112),56	963,(7, 66),28	991,(7, 71),4	995,(7, 81),2	997,(7, 87),2	999,(7, 100),2	1001,(7, 102),2	1003,(7, 104),2	1005,(7, 108),10	1015,(10, 28),2	1017,(10, 39),2	1019,(3, 42),110	1129,(7, 89),36	1165,(7, 116),6	1171,(10, 20),2	1173,(10, 30),2	1175,(7, 120),8	1183,(10, 24),8	1191,(10, 44),2	1193,(7, 13),30	1223,(7, 56),6	1229,(7, 60),4	1233,(7, 67),2	1235,(7, 92),2	1237,(7, 113),4	1241,(7, 115),4	1245,(10, 29),6	1251,(10, 50),6	1257,(10, 58),4	1261,(10, 59),6	1267,(10, 62),6	1273,(10, 69),2	1275,(10, 71),4	1279,(10, 72),12	1291,(10, 74),8	1299,(10, 76),20	1319,(10, 78),58	1377,(10, 81),18	1395,(10, 82),26	1421,(10, 87),8	1429,(10, 96),2	1431,(10, 102),2	1433,(10, 105),2	1435,(7, 32),48	1483,(7, 98),12	1495,(10, 108),2	1497,(3, 34),1092	2589,(3, 55),146	2735,(10, 97),28	2763,(10, 100),16	2779,(10, 109),4	2783,(10, 112),2	2785,(10, 120),8	3075,(7, 70),44	3119,(7, 88),14	3133,(7, 90),22	3973,(10, 13),10	3983,(10, 14),28	4011,(10, 27),128	4139,(10, 36),6	4145,(10, 42),2	4147,(10, 46),30	4177,(10, 55),6	4183,(10, 56),2	4185,(10, 68),44	4229,(10, 79),32	4261,(10, 88),6	4267,(10, 92),10	4277,(10, 103),22	4299,(10, 113),32	4331,(10, 115),2	4333,(10, 119),24	4827,(15, 121),8	4883,(17, 121),8	4891,(16, 121),8	4899,(19, 121),8	4907,(21, 121),8	4915,(22, 121),8	4963,(37, 121),8	5027,(84, 121),8	5043,(95, 121),8	5059,(48, 121),8	5131,(52, 121),8	5155,(107, 121),8	5179,(99, 121),8	5187,(117, 121),8	5211,(18, 121),8	5227,(114, 121),8	5243,(35, 121),8	5259,(40, 121),8	5267,(41, 121),8	5283,(49, 121),8	5291,(53, 121),8	5307,(57, 121),8	5323,(61, 121),8	5339,(77, 121),8	5371,(101, 121),8	5387,(106, 121),8	5403,(111, 121),8	
37,(6, 19),6	43,(6, 24),2	45,(6, 30),2	47,(6, 44),2	49,(6, 22),6	55,(6, 25),12	67,(6, 38),4	71,(6, 47),2	73,(6, 62),2	75,(6, 63),2	77,(6, 74),8	85,(6, 76),16	101,(9, 20),2	103,(6, 114),2	105,(6, 89),4	109,(9, 38),2	111,(6, 35),14	125,(6, 37),4	129,(6, 41),4	133,(6, 49),22	155,(6, 78),16	171,(6, 93),14	185,(6, 52),18	203,(6, 117),4	207,(6, 69),42	249,(6, 116),4	253,(9, 62),2	255,(9, 69),2	257,(9, 18),2	259,(9, 37),2	261,(6, 67),2	263,(6, 95),10	273,(9, 40),2	275,(9, 41),2	277,(9, 49),2	279,(9, 106),2	281,(6, 23),8	289,(6, 56),8	297,(9, 53),4	301,(11, 22),2	303,(6, 92),2	305,(9, 73),2	307,(6, 60),4	311,(9, 89),2	313,(6, 34),12	325,(6, 94),2	327,(6, 48),32	359,(9, 99),4	363,(11, 61),2	365,(9, 24),14	379,(9, 47),10	389,(9, 51),24	413,(11, 24),8	421,(6, 68),4	425,(11, 78),2	427,(9, 42),4	431,(9, 118),2	433,(9, 63),14	447,(11, 47),8	455,(11, 62),6	461,(6, 42),12	473,(11, 46),2	485,(9, 90),6	505,(9, 82),18	555,(6, 107),10	565,(11, 101),2	575,(9, 17),10	585,(9, 57),8	617,(9, 113),4	621,(11, 13),4	637,(6, 84),22	659,(9, 19),24	683,(9, 21),14	697,(9, 114),4	701,(11, 19),6	711,(9, 117),10	721,(9, 78),32	789,(11, 56),4	793,(11, 77),6	799,(11, 42),6	807,(9, 107),14	823,(6, 103),14	845,(11, 67),4	865,(6, 46),34	905,(9, 83),38	943,(9, 96),26	969,(11, 65),28	1005,(11, 41),10	1061,(11, 73),28	1129,(6, 70),28	1157,(6, 115),16	1173,(6, 119),18	1197,(9, 48),54	1251,(9, 61),46	1297,(9, 77),34	1331,(11, 52),26	1357,(11, 53),18	1375,(11, 99),40	1415,(11, 107),14	1437,(11, 117),10	1499,(11, 114),28	2917,(6, 86),68	2985,(6, 98),90	3155,(9, 46),34	3189,(9, 56),12	3201,(9, 70),402	3603,(9, 86),14	3617,(9, 92),70	3687,(9, 94),80	3767,(9, 98),194	3961,(9, 119),12	4357,(11, 27),30	4387,(11, 34),10	4397,(11, 36),190	4587,(11, 70),6	4593,(11, 79),12	4605,(11, 86),70	4675,(11, 88),22	4697,(11, 92),62	4759,(11, 94),6	4765,(11, 98),12	4777,(11, 113),18	4795,(11, 115),8	4803,(43, 121),8	4811,(80, 121),8	4859,(33, 121),8	4931,(28, 121),8	4971,(91, 121),8	4979,(64, 121),8	5075,(50, 121),8	5083,(58, 121),8	5171,(102, 121),8	5195,(104, 121),8	5203,(105, 121),8	5219,(26, 121),8	5235,(31, 121),8	5251,(39, 121),8	5275,(45, 121),8	5299,(54, 121),8	5315,(59, 121),8	5331,(66, 121),8	5347,(71, 121),8	5355,(81, 121),8	5363,(85, 121),8	5379,(87, 121),8	5395,(108, 121),8	5411,(97, 121),8	5419,(100, 121),8	5435,(112, 121),8	5443,(120, 121),8	
