208
# CPU
0,201,1	1,58,1	2,78,1	3,126,1	4,62,1	5,142,1	6,135,1	7,133,1	8,123,1	9,122,1	10,72,1	11,131,1	12,121,1	13,76,1	14,40,1	15,68,1	16,132,1	17,136,1	18,119,1	19,140,1	20,137,1	21,152,1	22,156,1	23,158,1	24,117,1	25,36,1	26,97,1	27,165,1	28,50,1	29,21,1	30,172,1	31,96,1	32,39,1	33,112,1	34,98,1	35,179,1	36,176,1	37,178,1	38,189,1	39,30,1	40,24,1	41,41,1	42,174,1	43,89,1	44,26,1	45,27,1	46,109,1	47,173,1	48,83,1	49,182,1	50,190,1	51,44,1	52,67,1	53,71,1	54,77,1	55,25,1	56,198,1	57,141,1	58,153,1	59,166,1	60,37,1	61,162,1	62,55,1	63,200,1	64,187,1	65,155,1	66,22,1	67,28,1	68,146,1	69,31,1	70,35,1	71,183,1	72,94,1	73,45,1	74,124,1	75,120,1	76,29,1	77,114,1	78,154,1	79,197,1	80,85,1	81,102,1	82,169,1	83,75,1	84,69,1	85,111,1	86,116,1	87,161,1	88,73,1	89,185,1	90,177,1	91,65,1	92,81,1	93,63,1	94,191,1	95,95,1	96,160,1	97,56,1	98,104,1	99,74,1	100,157,1	101,128,1	102,139,1	103,149,1	104,90,1	105,57,1	106,108,1	107,23,1	108,91,1	109,151,1	110,194,1	111,51,1	112,192,1	113,107,1	114,66,1	115,100,1	116,84,1	117,193,1	118,196,1	119,168,1	120,175,1	121,127,1	122,186,1	123,188,1	124,138,1	125,103,1	126,53,1	127,113,1	128,181,1	129,106,1	130,38,1	131,59,1	132,43,1	133,164,1	134,86,1	135,118,1	136,101,1	137,93,1	138,170,1	139,52,1	140,1,1	141,195,1	142,42,1	143,32,1	144,171,1	145,125,1	146,180,1	147,143,1	148,99,1	149,17,1	150,82,1	151,92,1	152,7,1	153,61,1	154,80,1	155,129,1	156,14,1	157,33,1	158,47,1	159,20,1	160,184,1	161,10,1	162,199,1	163,49,1	164,60,1	165,19,1	166,110,1	167,16,1	168,105,1	169,3,1	170,79,1	171,145,1	172,147,1	173,70,1	174,2,1	175,134,1	176,87,1	177,12,1	178,9,1	179,4,1	180,11,1	181,13,1	182,5,1	183,15,1	184,8,1	206,18,1	207,0,1	
25,48,1	49,34,1	73,54,1	109,130,1	133,150,1	145,159,1	157,163,1	
37,88,1	61,148,1	169,46,1	195,6,1	
13,144,1	121,64,1	
85,167,1	97,115,1	
# Incoming
14,(144, 9),1	38,(88, 9),1	62,(148, 5),3	86,(167, 4),4	98,(115, 11),5	110,(130, 5),7	117,(48, 8),1	118,(54, 18),3	122,(64, 13),10	134,(150, 15),14	148,(159, 8),23	171,(163, 18),35	206,(6, 0),1	
13,(201, 48),12	37,(201, 34),12	61,(201, 54),12	97,(201, 130),12	121,(201, 150),12	133,(201, 159),12	145,(201, 163),12	
25,(201, 88),12	49,(201, 148),12	121,(34, 6),1	157,(201, 46),12	169,(133, 6),1	170,(72, 6),1	171,(36, 6),1	172,(50, 6),1	173,(89, 6),1	174,(27, 6),1	175,(169, 6),4	179,(66, 6),8	187,(100, 6),8	
1,(201, 144),12	109,(201, 64),12	
73,(201, 167),12	85,(201, 115),12	
# Outgoing
1,(201, 144),12	13,(201, 48),12	25,(201, 88),12	37,(201, 34),12	49,(201, 148),12	61,(201, 54),12	73,(201, 167),12	85,(201, 115),12	97,(201, 130),12	109,(201, 64),12	121,(201, 150),12	133,(201, 159),12	145,(201, 163),12	157,(201, 46),12	169,(133, 6),1	170,(72, 6),1	171,(36, 6),1	172,(50, 6),1	173,(89, 6),1	174,(27, 6),1	175,(169, 6),4	179,(66, 6),8	187,(100, 6),8	
110,(130, 5),7	117,(48, 8),1	118,(54, 18),3	121,(34, 6),1	134,(150, 15),14	148,(159, 8),23	171,(163, 18),35	
38,(88, 9),1	62,(148, 5),3	206,(6, 0),1	
14,(144, 9),1	122,(64, 13),10	
86,(167, 4),4	98,(115, 11),5	
