1555
# CPU
0,0,1	1,8,6	7,6,6	13,10,6	19,9,6	25,4,6	31,119,6	37,59,6	43,43,6	53,109,6	63,40,6	74,87,6	86,31,6	98,67,6	111,100,6	124,54,6	138,21,6	147,25,6	157,102,6	168,120,6	179,74,6	194,95,6	207,45,6	221,39,6	237,35,6	255,24,6	268,94,6	287,51,6	307,47,6	331,106,6	351,72,6	372,49,6	393,108,6	414,69,6	438,52,6	466,117,6	491,81,6	522,37,6	560,84,6	595,78,6	634,88,6	677,86,6	721,41,6	768,76,6	812,50,6	858,19,6	924,112,6	1005,15,6	1093,70,6	1197,27,6	1332,55,6	1548,14,6	1554,121,1	
4,7,6	10,1,6	16,12,6	22,2,6	28,20,6	34,30,6	40,116,6	46,110,6	52,111,6	63,93,6	79,75,6	103,33,6	114,104,6	125,91,6	149,89,6	161,63,6	175,44,6	188,29,6	203,96,6	238,26,6	302,57,6	327,83,6	351,68,6	369,65,6	418,64,6	456,82,6	480,62,6	505,114,6	535,61,6	602,90,6	660,79,6	761,13,6	815,107,6	953,17,6	1033,98,6	
7,11,6	13,5,6	19,3,6	25,16,6	31,80,6	37,18,6	43,85,6	49,38,6	56,101,6	71,58,6	84,60,6	93,115,6	133,22,6	144,56,6	170,118,6	220,105,6	258,77,6	280,113,6	304,73,6	387,103,6	407,28,6	427,71,6	494,36,6	569,53,6	604,23,6	629,92,6	662,32,6	716,99,6	835,48,6	920,97,6	1122,66,6	1128,46,6	1308,42,6	1516,34,6	
# Incoming
16,(1, 119),2	18,(1, 109),1	21,(7, 87),1	22,(12, 119),1	23,(12, 40),1	25,(3, 119),1	26,(5, 59),2	28,(11, 43),1	29,(12, 43),2	31,(16, 121),4	35,(20, 121),4	39,(80, 121),4	43,(30, 121),4	47,(18, 121),4	51,(5, 109),1	52,(2, 109),1	53,(116, 121),4	57,(85, 121),4	61,(5, 40),1	62,(3, 40),1	63,(110, 121),4	67,(38, 121),4	71,(11, 87),1	72,(1, 87),1	73,(2, 87),1	74,(111, 121),4	78,(101, 121),4	82,(1, 31),1	83,(5, 31),2	85,(2, 31),1	86,(93, 121),4	90,(58, 121),4	94,(7, 67),1	95,(11, 67),2	97,(12, 67),1	98,(75, 121),4	102,(60, 121),4	106,(7, 100),1	107,(11, 100),2	109,(12, 100),1	110,(2, 100),1	111,(115, 121),4	115,(33, 121),4	119,(5, 54),4	123,(3, 54),1	124,(104, 121),4	128,(5, 21),1	129,(2, 21),1	130,(1, 25),1	131,(91, 121),4	135,(12, 21),3	138,(12, 25),1	139,(22, 121),4	143,(3, 25),2	145,(2, 25),2	147,(7, 102),1	148,(11, 102),2	150,(56, 121),4	154,(1, 102),1	155,(5, 102),2	157,(89, 121),4	161,(7, 120),4	165,(12, 120),3	168,(63, 121),4	172,(5, 74),5	177,(12, 74),1	178,(3, 74),1	179,(118, 121),4	183,(44, 121),4	187,(7, 95),4	191,(5, 95),1	192,(2, 95),2	194,(29, 121),4	198,(11, 45),1	199,(1, 45),1	200,(12, 45),7	207,(7, 39),2	209,(96, 121),4	213,(5, 39),8	221,(7, 35),1	222,(5, 35),3	225,(7, 24),1	226,(105, 121),4	230,(1, 35),7	237,(11, 24),4	241,(5, 24),2	243,(1, 94),1	244,(26, 121),4	248,(1, 24),4	252,(2, 24),3	255,(11, 94),3	258,(5, 94),9	267,(2, 94),1	268,(77, 121),4	272,(7, 51),6	278,(1, 51),2	280,(3, 51),7	287,(113, 121),4	291,(11, 47),4	295,(12, 47),2	297,(3, 47),10	307,(1, 106),1	308,(57, 121),4	312,(73, 121),4	316,(7, 106),6	322,(3, 106),1	323,(2, 106),8	331,(12, 72),2	333,(83, 121),4	337,(1, 72),7	344,(5, 72),3	347,(2, 72),4	351,(1, 49),5	356,(12, 49),1	357,(68, 121),4	361,(7, 49),7	368,(2, 49),4	372,(11, 108),1	373,(1, 108),1	374,(5, 108),1	375,(65, 121),4	379,(7, 108),5	384,(3, 108),1	385,(2, 108),8	393,(103, 121),4	397,(7, 69),1	398,(3, 69),16	414,(28, 121),4	418,(11, 52),13	431,(12, 52),6	437,(2, 52),1	438,(64, 121),4	442,(71, 121),4	446,(7, 117),1	447,(11, 117),5	452,(1, 117),2	454,(5, 117),1	455,(3, 117),11	466,(82, 121),4	470,(7, 81),1	471,(1, 81),4	475,(2, 81),16	491,(62, 121),4	495,(7, 37),3	498,(1, 37),3	501,(5, 37),1	502,(12, 37),11	513,(2, 37),9	522,(36, 121),4	526,(114, 121),4	530,(3, 84),23	553,(2, 84),7	560,(61, 121),4	564,(7, 78),1	565,(11, 78),1	566,(12, 78),14	580,(3, 78),9	589,(2, 78),6	595,(53, 121),4	599,(7, 88),7	606,(11, 88),11	617,(5, 88),1	618,(12, 88),10	628,(3, 88),6	634,(90, 121),4	638,(23, 121),4	642,(11, 86),35	677,(92, 121),4	681,(79, 121),4	685,(7, 41),9	694,(11, 41),5	699,(1, 41),4	703,(5, 41),1	704,(3, 41),17	721,(32, 121),4	725,(99, 121),4	729,(7, 76),4	733,(5, 76),14	747,(2, 76),21	768,(13, 121),4	772,(11, 50),3	775,(5, 50),24	799,(12, 50),13	812,(7, 19),22	834,(11, 19),3	837,(12, 19),4	841,(3, 19),17	858,(107, 121),4	862,(48, 121),4	866,(1, 112),1	867,(12, 112),29	896,(3, 112),28	924,(3, 15),1	925,(1, 70),1	926,(97, 121),4	930,(7, 15),48	978,(5, 15),27	1005,(17, 121),4	1009,(7, 70),22	1031,(11, 70),3	1034,(5, 70),58	1092,(12, 70),1	1093,(98, 121),4	1097,(11, 27),15	1112,(5, 27),35	1147,(12, 27),49	1196,(2, 27),1	1197,(66, 121),4	1201,(46, 121),4	1205,(1, 55),53	1258,(5, 55),1	1259,(3, 55),73	1332,(42, 121),4	1336,(1, 14),124	1460,(5, 14),45	1505,(3, 14),43	1548,(34, 121),4	
1,(0, 7),3	7,(0, 1),3	13,(0, 12),3	19,(0, 2),3	24,(10, 20),1	25,(9, 20),1	26,(6, 30),1	29,(5, 110),1	30,(3, 111),1	31,(10, 30),1	33,(6, 116),2	35,(5, 75),2	37,(3, 75),1	38,(5, 33),1	39,(4, 110),4	43,(11, 33),4	47,(4, 111),5	52,(11, 104),1	53,(11, 91),1	54,(3, 63),2	56,(6, 93),7	63,(3, 91),3	66,(5, 26),1	71,(8, 75),1	72,(4, 75),7	82,(5, 65),1	85,(5, 89),5	93,(8, 33),1	94,(9, 33),9	103,(8, 104),1	104,(6, 104),1	105,(9, 104),9	114,(8, 91),5	119,(6, 91),1	120,(9, 91),5	125,(3, 44),3	129,(3, 89),5	134,(5, 63),4	138,(11, 64),1	144,(6, 89),2	146,(9, 89),1	147,(4, 89),2	149,(6, 63),1	150,(9, 63),7	157,(4, 63),4	161,(5, 44),7	168,(11, 26),2	170,(8, 44),3	173,(6, 44),1	174,(10, 44),1	175,(8, 29),1	176,(10, 29),3	179,(4, 29),9	188,(8, 96),1	189,(10, 96),1	190,(9, 96),13	203,(3, 26),3	206,(3, 57),6	212,(11, 61),1	220,(8, 26),3	223,(6, 26),11	234,(9, 26),2	236,(4, 26),2	243,(3, 68),2	245,(3, 65),5	250,(5, 82),5	267,(5, 107),1	272,(3, 82),5	277,(11, 62),3	280,(10, 57),15	295,(9, 57),4	299,(4, 57),3	302,(8, 64),1	304,(8, 83),2	306,(9, 83),19	325,(4, 83),2	327,(6, 68),2	329,(10, 68),22	351,(11, 65),14	365,(4, 65),4	369,(5, 62),3	375,(5, 114),5	380,(11, 13),2	382,(5, 17),2	385,(3, 61),7	393,(9, 64),25	427,(10, 82),13	440,(9, 82),9	449,(4, 82),7	456,(6, 62),1	457,(10, 62),3	460,(9, 62),1	461,(4, 62),1	466,(3, 62),14	480,(11, 114),14	494,(8, 114),7	501,(6, 114),1	502,(10, 114),1	503,(9, 114),2	505,(8, 61),1	506,(10, 61),2	508,(9, 61),23	531,(4, 61),4	543,(9, 90),3	546,(4, 90),1	547,(10, 13),5	553,(3, 90),12	566,(5, 90),13	580,(4, 13),6	586,(10, 17),3	589,(11, 79),6	599,(11, 107),7	618,(5, 79),10	629,(10, 79),16	645,(4, 79),15	660,(8, 98),1	661,(4, 98),1	681,(3, 13),9	690,(8, 107),14	704,(6, 107),5	709,(9, 107),7	747,(5, 13),14	762,(9, 17),5	799,(3, 107),16	815,(6, 98),45	866,(3, 17),29	930,(11, 98),6	936,(9, 98),97	
4,(0, 11),3	10,(0, 5),3	16,(0, 3),3	19,(1, 38),2	22,(8, 16),2	24,(12, 80),3	27,(9, 80),4	31,(12, 85),1	32,(9, 18),1	33,(2, 18),2	35,(4, 18),1	36,(8, 85),2	38,(4, 85),1	39,(7, 101),1	40,(12, 101),1	41,(7, 60),2	43,(6, 38),2	45,(9, 38),1	46,(4, 38),1	47,(1, 60),4	51,(1, 22),1	52,(10, 101),3	55,(4, 101),1	57,(12, 60),4	61,(7, 115),2	63,(10, 58),2	65,(9, 58),6	71,(1, 56),1	78,(12, 56),1	79,(6, 60),2	81,(4, 60),3	84,(6, 115),8	92,(10, 115),1	93,(2, 56),1	95,(12, 118),1	96,(2, 118),1	102,(7, 56),3	105,(2, 105),1	107,(7, 113),2	111,(1, 113),3	114,(7, 73),1	119,(2, 22),5	125,(8, 22),3	128,(6, 22),3	131,(10, 22),2	133,(6, 56),4	137,(10, 56),1	138,(9, 56),6	144,(1, 36),1	148,(1, 118),6	155,(1, 103),2	161,(9, 118),1	162,(4, 118),8	172,(12, 77),5	178,(2, 77),5	191,(7, 92),1	198,(2, 32),1	203,(6, 105),10	213,(10, 105),1	214,(9, 105),6	220,(7, 99),1	222,(12, 103),3	226,(7, 71),2	228,(2, 71),2	237,(2, 99),1	238,(8, 77),1	239,(9, 77),17	256,(4, 77),2	258,(8, 113),1	259,(10, 113),16	275,(9, 113),2	277,(4, 113),3	280,(1, 73),15	297,(12, 73),6	303,(9, 73),1	304,(12, 36),2	306,(12, 48),1	312,(1, 53),4	322,(7, 46),1	344,(1, 66),2	346,(2, 42),1	351,(8, 103),13	364,(10, 28),1	369,(6, 103),7	376,(10, 103),11	387,(8, 28),6	393,(12, 53),4	398,(12, 28),9	407,(12, 71),11	418,(6, 71),6	424,(10, 71),2	426,(4, 71),1	427,(7, 23),4	442,(7, 42),2	444,(1, 42),2	447,(12, 34),1	454,(1, 92),8	462,(10, 36),3	465,(4, 36),29	535,(10, 53),6	541,(9, 53),2	543,(2, 53),9	552,(4, 53),6	558,(8, 23),7	565,(6, 23),4	569,(8, 92),9	578,(6, 92),1	579,(4, 32),1	580,(1, 23),9	589,(10, 92),5	594,(9, 92),35	638,(7, 32),24	662,(8, 99),7	669,(10, 99),17	686,(9, 99),2	688,(10, 48),1	689,(9, 97),1	703,(12, 99),13	716,(8, 48),3	719,(6, 48),16	735,(9, 48),27	767,(9, 66),1	768,(10, 42),1	769,(9, 42),2	772,(1, 48),23	795,(10, 97),14	809,(8, 46),5	841,(1, 97),13	860,(4, 66),21	881,(10, 46),15	896,(2, 97),24	920,(6, 42),6	926,(4, 42),7	933,(8, 34),3	978,(7, 66),14	992,(12, 46),11	1031,(2, 66),25	1056,(6, 46),17	1073,(9, 46),17	1090,(6, 34),6	1097,(1, 46),31	1128,(8, 42),180	1460,(2, 34),56	
# Outgoing
1,(0, 7),3	4,(0, 11),3	7,(0, 1),3	10,(0, 5),3	13,(0, 12),3	16,(0, 3),3	19,(0, 2),3	22,(8, 16),2	24,(10, 20),1	25,(9, 20),1	26,(6, 30),1	27,(9, 80),4	31,(10, 30),1	32,(9, 18),1	33,(6, 116),2	35,(4, 18),1	36,(8, 85),2	38,(4, 85),1	39,(4, 110),4	43,(6, 38),2	45,(9, 38),1	46,(4, 38),1	47,(4, 111),5	52,(10, 101),3	55,(4, 101),1	56,(6, 93),7	63,(10, 58),2	65,(9, 58),6	71,(8, 75),1	72,(4, 75),7	79,(6, 60),2	81,(4, 60),3	84,(6, 115),8	92,(10, 115),1	93,(8, 33),1	94,(9, 33),9	103,(8, 104),1	104,(6, 104),1	105,(9, 104),9	114,(8, 91),5	119,(6, 91),1	120,(9, 91),5	125,(8, 22),3	128,(6, 22),3	131,(10, 22),2	133,(6, 56),4	137,(10, 56),1	138,(9, 56),6	144,(6, 89),2	146,(9, 89),1	147,(4, 89),2	149,(6, 63),1	150,(9, 63),7	157,(4, 63),4	161,(9, 118),1	162,(4, 118),8	170,(8, 44),3	173,(6, 44),1	174,(10, 44),1	175,(8, 29),1	176,(10, 29),3	179,(4, 29),9	188,(8, 96),1	189,(10, 96),1	190,(9, 96),13	203,(6, 105),10	213,(10, 105),1	214,(9, 105),6	220,(8, 26),3	223,(6, 26),11	234,(9, 26),2	236,(4, 26),2	238,(8, 77),1	239,(9, 77),17	256,(4, 77),2	258,(8, 113),1	259,(10, 113),16	275,(9, 113),2	277,(4, 113),3	280,(10, 57),15	295,(9, 57),4	299,(4, 57),3	302,(8, 64),1	303,(9, 73),1	304,(8, 83),2	306,(9, 83),19	325,(4, 83),2	327,(6, 68),2	329,(10, 68),22	351,(8, 103),13	364,(10, 28),1	365,(4, 65),4	369,(6, 103),7	376,(10, 103),11	387,(8, 28),6	393,(9, 64),25	418,(6, 71),6	424,(10, 71),2	426,(4, 71),1	427,(10, 82),13	440,(9, 82),9	449,(4, 82),7	456,(6, 62),1	457,(10, 62),3	460,(9, 62),1	461,(4, 62),1	462,(10, 36),3	465,(4, 36),29	494,(8, 114),7	501,(6, 114),1	502,(10, 114),1	503,(9, 114),2	505,(8, 61),1	506,(10, 61),2	508,(9, 61),23	531,(4, 61),4	535,(10, 53),6	541,(9, 53),2	543,(9, 90),3	546,(4, 90),1	547,(10, 13),5	552,(4, 53),6	558,(8, 23),7	565,(6, 23),4	569,(8, 92),9	578,(6, 92),1	579,(4, 32),1	580,(4, 13),6	586,(10, 17),3	589,(10, 92),5	594,(9, 92),35	629,(10, 79),16	645,(4, 79),15	660,(8, 98),1	661,(4, 98),1	662,(8, 99),7	669,(10, 99),17	686,(9, 99),2	688,(10, 48),1	689,(9, 97),1	690,(8, 107),14	704,(6, 107),5	709,(9, 107),7	716,(8, 48),3	719,(6, 48),16	735,(9, 48),27	762,(9, 17),5	767,(9, 66),1	768,(10, 42),1	769,(9, 42),2	795,(10, 97),14	809,(8, 46),5	815,(6, 98),45	860,(4, 66),21	881,(10, 46),15	920,(6, 42),6	926,(4, 42),7	933,(8, 34),3	936,(9, 98),97	1056,(6, 46),17	1073,(9, 46),17	1090,(6, 34),6	1128,(8, 42),180	
16,(1, 119),2	18,(1, 109),1	19,(1, 38),2	21,(7, 87),1	22,(12, 119),1	23,(12, 40),1	24,(12, 80),3	29,(12, 43),2	31,(12, 85),1	33,(2, 18),2	35,(20, 121),4	39,(7, 101),1	40,(12, 101),1	41,(7, 60),2	43,(30, 121),4	47,(1, 60),4	51,(1, 22),1	52,(2, 109),1	53,(116, 121),4	57,(12, 60),4	61,(7, 115),2	63,(110, 121),4	71,(1, 56),1	72,(1, 87),1	73,(2, 87),1	74,(111, 121),4	78,(12, 56),1	82,(1, 31),1	85,(2, 31),1	86,(93, 121),4	93,(2, 56),1	94,(7, 67),1	95,(12, 118),1	96,(2, 118),1	97,(12, 67),1	98,(75, 121),4	102,(7, 56),3	105,(2, 105),1	106,(7, 100),1	107,(7, 113),2	109,(12, 100),1	110,(2, 100),1	111,(1, 113),3	114,(7, 73),1	115,(33, 121),4	119,(2, 22),5	124,(104, 121),4	129,(2, 21),1	130,(1, 25),1	131,(91, 121),4	135,(12, 21),3	138,(12, 25),1	144,(1, 36),1	145,(2, 25),2	147,(7, 102),1	148,(1, 118),6	154,(1, 102),1	155,(1, 103),2	157,(89, 121),4	161,(7, 120),4	165,(12, 120),3	168,(63, 121),4	172,(12, 77),5	177,(12, 74),1	178,(2, 77),5	183,(44, 121),4	187,(7, 95),4	191,(7, 92),1	192,(2, 95),2	194,(29, 121),4	198,(2, 32),1	199,(1, 45),1	200,(12, 45),7	207,(7, 39),2	209,(96, 121),4	220,(7, 99),1	221,(7, 35),1	222,(12, 103),3	225,(7, 24),1	226,(7, 71),2	228,(2, 71),2	230,(1, 35),7	237,(2, 99),1	243,(1, 94),1	244,(26, 121),4	248,(1, 24),4	252,(2, 24),3	267,(2, 94),1	272,(7, 51),6	278,(1, 51),2	280,(1, 73),15	295,(12, 47),2	297,(12, 73),6	304,(12, 36),2	306,(12, 48),1	307,(1, 106),1	308,(57, 121),4	312,(1, 53),4	316,(7, 106),6	322,(7, 46),1	323,(2, 106),8	331,(12, 72),2	333,(83, 121),4	337,(1, 72),7	344,(1, 66),2	346,(2, 42),1	347,(2, 72),4	351,(1, 49),5	356,(12, 49),1	357,(68, 121),4	361,(7, 49),7	368,(2, 49),4	373,(1, 108),1	375,(65, 121),4	379,(7, 108),5	385,(2, 108),8	393,(12, 53),4	397,(7, 69),1	398,(12, 28),9	407,(12, 71),11	427,(7, 23),4	431,(12, 52),6	437,(2, 52),1	438,(64, 121),4	442,(7, 42),2	444,(1, 42),2	446,(7, 117),1	447,(12, 34),1	452,(1, 117),2	454,(1, 92),8	466,(82, 121),4	470,(7, 81),1	471,(1, 81),4	475,(2, 81),16	491,(62, 121),4	495,(7, 37),3	498,(1, 37),3	502,(12, 37),11	513,(2, 37),9	526,(114, 121),4	543,(2, 53),9	553,(2, 84),7	560,(61, 121),4	564,(7, 78),1	566,(12, 78),14	580,(1, 23),9	589,(2, 78),6	599,(7, 88),7	618,(12, 88),10	634,(90, 121),4	638,(7, 32),24	681,(79, 121),4	685,(7, 41),9	699,(1, 41),4	703,(12, 99),13	729,(7, 76),4	747,(2, 76),21	768,(13, 121),4	772,(1, 48),23	799,(12, 50),13	812,(7, 19),22	837,(12, 19),4	841,(1, 97),13	858,(107, 121),4	866,(1, 112),1	867,(12, 112),29	896,(2, 97),24	925,(1, 70),1	930,(7, 15),48	978,(7, 66),14	992,(12, 46),11	1005,(17, 121),4	1009,(7, 70),22	1031,(2, 66),25	1092,(12, 70),1	1093,(98, 121),4	1097,(1, 46),31	1147,(12, 27),49	1196,(2, 27),1	1205,(1, 55),53	1336,(1, 14),124	1460,(2, 34),56	
25,(3, 119),1	26,(5, 59),2	28,(11, 43),1	29,(5, 110),1	30,(3, 111),1	31,(16, 121),4	35,(5, 75),2	37,(3, 75),1	38,(5, 33),1	39,(80, 121),4	43,(11, 33),4	47,(18, 121),4	51,(5, 109),1	52,(11, 104),1	53,(11, 91),1	54,(3, 63),2	57,(85, 121),4	61,(5, 40),1	62,(3, 40),1	63,(3, 91),3	66,(5, 26),1	67,(38, 121),4	71,(11, 87),1	78,(101, 121),4	82,(5, 65),1	83,(5, 31),2	85,(5, 89),5	90,(58, 121),4	95,(11, 67),2	102,(60, 121),4	107,(11, 100),2	111,(115, 121),4	119,(5, 54),4	123,(3, 54),1	125,(3, 44),3	128,(5, 21),1	129,(3, 89),5	134,(5, 63),4	138,(11, 64),1	139,(22, 121),4	143,(3, 25),2	148,(11, 102),2	150,(56, 121),4	155,(5, 102),2	161,(5, 44),7	168,(11, 26),2	172,(5, 74),5	178,(3, 74),1	179,(118, 121),4	191,(5, 95),1	198,(11, 45),1	203,(3, 26),3	206,(3, 57),6	212,(11, 61),1	213,(5, 39),8	222,(5, 35),3	226,(105, 121),4	237,(11, 24),4	241,(5, 24),2	243,(3, 68),2	245,(3, 65),5	250,(5, 82),5	255,(11, 94),3	258,(5, 94),9	267,(5, 107),1	268,(77, 121),4	272,(3, 82),5	277,(11, 62),3	280,(3, 51),7	287,(113, 121),4	291,(11, 47),4	297,(3, 47),10	312,(73, 121),4	322,(3, 106),1	344,(5, 72),3	351,(11, 65),14	369,(5, 62),3	372,(11, 108),1	374,(5, 108),1	375,(5, 114),5	380,(11, 13),2	382,(5, 17),2	384,(3, 108),1	385,(3, 61),7	393,(103, 121),4	398,(3, 69),16	414,(28, 121),4	418,(11, 52),13	442,(71, 121),4	447,(11, 117),5	454,(5, 117),1	455,(3, 117),11	466,(3, 62),14	480,(11, 114),14	501,(5, 37),1	522,(36, 121),4	530,(3, 84),23	553,(3, 90),12	565,(11, 78),1	566,(5, 90),13	580,(3, 78),9	589,(11, 79),6	595,(53, 121),4	599,(11, 107),7	606,(11, 88),11	617,(5, 88),1	618,(5, 79),10	628,(3, 88),6	638,(23, 121),4	642,(11, 86),35	677,(92, 121),4	681,(3, 13),9	694,(11, 41),5	703,(5, 41),1	704,(3, 41),17	721,(32, 121),4	725,(99, 121),4	733,(5, 76),14	747,(5, 13),14	772,(11, 50),3	775,(5, 50),24	799,(3, 107),16	834,(11, 19),3	841,(3, 19),17	862,(48, 121),4	866,(3, 17),29	896,(3, 112),28	924,(3, 15),1	926,(97, 121),4	930,(11, 98),6	978,(5, 15),27	1031,(11, 70),3	1034,(5, 70),58	1097,(11, 27),15	1112,(5, 27),35	1197,(66, 121),4	1201,(46, 121),4	1258,(5, 55),1	1259,(3, 55),73	1332,(42, 121),4	1460,(5, 14),45	1505,(3, 14),43	1548,(34, 121),4	
