4568
# CPU
0,0,1	1,1,6	7,62,6	13,87,6	19,105,6	25,2,6	31,114,6	37,30,6	43,17,6	49,18,6	55,9,6	61,92,6	67,78,6	73,64,6	79,52,6	85,120,6	91,107,6	97,71,6	103,59,6	109,11,6	115,101,6	121,47,6	127,37,6	133,84,6	139,112,6	145,4,6	151,85,6	157,22,6	163,21,6	169,43,6	175,93,6	181,109,6	187,57,6	193,118,6	199,25,6	205,12,6	211,86,6	217,108,6	223,48,6	229,44,6	235,14,6	241,42,6	247,97,6	253,7,6	259,46,6	265,49,6	271,76,6	277,60,6	283,116,6	289,54,6	295,88,6	301,50,6	313,56,6	319,89,6	331,69,6	337,91,6	349,65,6	355,63,6	367,41,6	373,20,6	388,35,6	394,100,6	400,73,6	406,28,6	415,99,6	424,16,6	436,70,6	448,26,6	463,19,6	478,45,6	493,27,6	514,77,6	535,66,6	565,75,6	601,115,6	649,104,6	697,80,6	748,74,6	808,29,6	871,113,6	937,90,6	1006,68,6	1078,24,6	1168,32,6	1261,40,6	1390,39,6	1540,23,6	1714,98,6	1897,38,6	4561,117,6	4567,121,1	
31,5,6	37,51,6	43,13,6	49,55,6	64,102,6	70,110,6	97,10,6	103,53,6	109,106,6	115,83,6	121,81,6	127,6,6	133,103,6	139,119,6	145,111,6	151,61,6	157,58,6	163,79,6	178,3,6	184,67,6	190,96,6	196,31,6	202,82,6	208,15,6	
148,95,6	
136,36,6	193,72,6	
61,8,6	67,94,6	73,33,6	79,34,6	
# Incoming
43,(51, 121),12	55,(13, 121),12	67,(55, 121),12	79,(102, 121),12	91,(94, 121),12	103,(110, 121),12	115,(33, 121),12	127,(34, 121),12	139,(53, 121),12	151,(106, 121),12	163,(83, 121),12	175,(81, 121),12	187,(103, 121),12	199,(36, 121),12	211,(119, 121),12	223,(111, 121),12	235,(95, 121),12	247,(61, 121),12	259,(58, 121),12	271,(79, 121),12	283,(67, 121),12	295,(6, 50),3	298,(96, 121),12	310,(10, 56),3	313,(6, 89),3	316,(72, 121),12	328,(6, 69),3	331,(8, 91),3	334,(31, 121),12	346,(8, 65),3	349,(6, 63),3	352,(82, 121),12	364,(8, 41),3	367,(5, 20),3	370,(15, 121),12	382,(6, 35),6	388,(5, 100),6	394,(8, 73),3	397,(6, 73),3	400,(8, 28),6	406,(3, 99),9	415,(5, 16),9	424,(3, 70),12	436,(5, 26),12	448,(8, 19),15	463,(8, 45),15	478,(5, 27),15	493,(5, 77),21	514,(8, 66),21	535,(5, 75),30	565,(8, 115),36	601,(8, 104),21	622,(6, 104),27	649,(5, 80),48	697,(3, 74),51	748,(5, 29),6	754,(10, 29),54	808,(10, 113),60	868,(6, 113),3	871,(3, 90),66	937,(6, 68),69	1006,(3, 24),72	1078,(3, 32),90	1168,(5, 40),75	1243,(8, 40),18	1261,(8, 39),63	1324,(10, 39),66	1390,(6, 23),150	1540,(10, 98),171	1711,(3, 98),3	1714,(8, 38),180	1894,(10, 38),3	1897,(6, 117),396	2293,(3, 117),2268	
1,(0, 5),30	61,(1, 102),3	64,(9, 110),3	67,(0, 10),30	97,(0, 6),30	148,(0, 3),30	193,(4, 15),3	
115,(5, 95),15	130,(11, 95),18	
91,(5, 36),6	133,(6, 36),3	136,(6, 72),3	178,(11, 72),15	
31,(0, 8),30	
# Outgoing
1,(0, 5),30	31,(0, 8),30	61,(1, 102),3	64,(9, 110),3	67,(0, 10),30	97,(0, 6),30	130,(11, 95),18	148,(0, 3),30	178,(11, 72),15	193,(4, 15),3	
43,(51, 121),12	55,(13, 121),12	67,(55, 121),12	79,(102, 121),12	91,(5, 36),6	103,(110, 121),12	115,(5, 95),15	133,(6, 36),3	136,(6, 72),3	139,(53, 121),12	151,(106, 121),12	163,(83, 121),12	175,(81, 121),12	187,(103, 121),12	211,(119, 121),12	223,(111, 121),12	247,(61, 121),12	259,(58, 121),12	271,(79, 121),12	283,(67, 121),12	295,(6, 50),3	298,(96, 121),12	310,(10, 56),3	313,(6, 89),3	328,(6, 69),3	334,(31, 121),12	349,(6, 63),3	352,(82, 121),12	367,(5, 20),3	370,(15, 121),12	382,(6, 35),6	388,(5, 100),6	397,(6, 73),3	406,(3, 99),9	415,(5, 16),9	424,(3, 70),12	436,(5, 26),12	478,(5, 27),15	493,(5, 77),21	535,(5, 75),30	622,(6, 104),27	649,(5, 80),48	697,(3, 74),51	748,(5, 29),6	754,(10, 29),54	808,(10, 113),60	868,(6, 113),3	871,(3, 90),66	937,(6, 68),69	1006,(3, 24),72	1078,(3, 32),90	1168,(5, 40),75	1324,(10, 39),66	1390,(6, 23),150	1540,(10, 98),171	1711,(3, 98),3	1894,(10, 38),3	1897,(6, 117),396	2293,(3, 117),2268	
235,(95, 121),12	
199,(36, 121),12	316,(72, 121),12	
91,(94, 121),12	115,(33, 121),12	127,(34, 121),12	331,(8, 91),3	346,(8, 65),3	364,(8, 41),3	394,(8, 73),3	400,(8, 28),6	448,(8, 19),15	463,(8, 45),15	514,(8, 66),21	565,(8, 115),36	601,(8, 104),21	1243,(8, 40),18	1261,(8, 39),63	1714,(8, 38),180	
