2189
# CPU
0,0,1	1,10,24	25,98,24	49,8,24	73,116,24	97,93,24	121,21,24	145,65,24	169,12,24	193,80,24	217,83,24	241,31,24	265,45,24	289,92,24	313,2,24	337,30,24	361,120,24	385,119,24	409,118,24	433,106,24	457,72,24	481,63,24	505,109,24	529,77,24	553,61,24	577,42,24	601,62,24	625,96,24	649,29,24	673,27,24	697,102,24	769,64,24	2158,48,24	
10,5,24	34,88,24	58,111,24	82,85,24	106,114,24	130,13,24	154,18,24	178,78,24	202,7,24	226,35,24	250,20,24	274,66,24	298,41,24	322,15,24	346,86,24	370,17,24	394,33,24	418,22,24	442,69,24	466,67,24	490,68,24	514,113,24	538,112,24	562,26,24	586,52,24	610,87,24	634,38,24	658,99,24	1015,44,24	2188,121,1	
7,1,24	31,28,24	55,105,24	79,79,24	103,6,24	127,55,24	151,47,24	175,59,24	199,51,24	223,11,24	247,89,24	271,90,24	295,54,24	319,50,24	343,43,24	367,100,24	391,94,24	415,91,24	439,60,24	463,82,24	487,101,24	511,73,24	535,34,24	559,49,24	583,25,24	607,53,24	631,57,24	655,104,24	679,39,24	
4,3,24	28,9,24	52,74,24	76,19,24	100,23,24	124,40,24	148,95,24	172,84,24	196,58,24	220,103,24	244,4,24	268,56,24	292,70,24	316,108,24	340,37,24	364,32,24	388,71,24	412,76,24	436,36,24	460,115,24	484,110,24	508,75,24	532,81,24	556,24,24	580,117,24	604,97,24	628,16,24	652,46,24	676,107,24	700,14,24	
# Incoming
136,(6, 109),3	139,(6, 77),3	142,(3, 62),3	145,(1, 42),6	172,(1, 62),15	187,(9, 29),27	247,(11, 61),6	268,(11, 48),6	280,(7, 64),12	292,(11, 96),18	418,(11, 27),54	493,(6, 102),54	547,(1, 64),222	1015,(4, 48),1143	
7,(0, 5),3	16,(0, 7),3	31,(10, 52),21	55,(3, 18),3	58,(9, 86),3	61,(3, 69),3	64,(3, 68),3	67,(9, 112),6	76,(8, 78),3	79,(8, 41),3	82,(8, 15),3	88,(8, 22),3	91,(74, 121),6	97,(8, 69),12	109,(3, 87),15	127,(6, 13),3	130,(6, 33),3	133,(6, 69),3	136,(8, 67),18	154,(6, 68),9	163,(1, 113),9	172,(8, 112),15	187,(6, 26),12	199,(1, 52),3	202,(6, 38),3	211,(12, 113),12	223,(6, 52),9	232,(28, 121),6	238,(105, 121),6	244,(19, 121),6	253,(11, 26),15	268,(4, 17),3	271,(4, 33),3	274,(6, 87),18	292,(9, 99),42	334,(79, 121),6	340,(2, 22),3	343,(23, 121),6	349,(2, 68),9	358,(2, 52),3	361,(2, 87),12	373,(1, 38),45	418,(40, 121),6	424,(95, 121),6	430,(12, 99),42	472,(84, 121),6	478,(58, 121),6	484,(103, 121),6	490,(56, 121),6	496,(70, 121),6	502,(108, 121),6	508,(37, 121),6	514,(32, 121),6	520,(8, 44),21	541,(98, 121),6	547,(116, 121),6	553,(93, 121),6	559,(21, 121),6	565,(65, 121),6	571,(80, 121),6	577,(83, 121),6	583,(31, 121),6	589,(45, 121),6	595,(92, 121),6	601,(30, 121),6	607,(120, 121),6	613,(119, 121),6	619,(71, 121),6	625,(118, 121),6	631,(76, 121),6	637,(106, 121),6	643,(36, 121),6	649,(72, 121),6	655,(115, 121),6	661,(63, 121),6	667,(110, 121),6	673,(109, 121),6	679,(75, 121),6	685,(77, 121),6	691,(81, 121),6	697,(61, 121),6	703,(24, 121),6	709,(42, 121),6	715,(117, 121),6	721,(62, 121),6	727,(97, 121),6	733,(96, 121),6	739,(16, 121),6	745,(29, 121),6	751,(46, 121),6	757,(27, 121),6	763,(107, 121),6	769,(1, 44),45	814,(9, 44),201	1015,(55, 121),6	1021,(47, 121),6	1027,(59, 121),6	1033,(51, 121),6	1039,(89, 121),6	1045,(90, 121),6	1051,(54, 121),6	1057,(50, 121),6	1063,(43, 121),6	1069,(100, 121),6	1075,(94, 121),6	1081,(91, 121),6	1087,(60, 121),6	1093,(82, 121),6	1099,(101, 121),6	1105,(73, 121),6	1111,(34, 121),6	1117,(49, 121),6	1123,(25, 121),6	1129,(53, 121),6	1135,(57, 121),6	1141,(104, 121),6	1147,(39, 121),6	1153,(102, 121),6	1159,(64, 121),6	2158,(14, 121),6	2182,(48, 121),6	
4,(0, 1),3	13,(0, 6),3	19,(0, 11),3	25,(10, 43),3	28,(10, 94),3	43,(5, 73),9	52,(9, 79),3	55,(5, 25),18	73,(3, 104),9	85,(8, 91),3	112,(8, 101),6	133,(10, 53),3	136,(5, 57),45	196,(12, 51),3	205,(12, 82),6	226,(7, 100),3	229,(8, 53),21	253,(7, 49),15	274,(4, 91),3	277,(4, 34),9	301,(10, 104),15	343,(2, 60),6	376,(12, 104),54	472,(8, 39),48	520,(4, 39),69	
1,(0, 3),3	10,(0, 9),3	22,(0, 4),3	34,(5, 103),3	37,(5, 110),6	52,(10, 97),3	73,(8, 84),3	76,(5, 16),12	88,(5, 14),3	91,(8, 36),6	109,(8, 115),3	118,(8, 24),9	127,(8, 97),6	142,(6, 24),3	151,(1, 14),3	193,(12, 58),3	199,(12, 32),3	202,(12, 115),3	205,(6, 117),18	229,(7, 71),3	232,(7, 75),9	241,(7, 81),12	268,(7, 97),12	280,(10, 46),21	310,(11, 16),9	319,(1, 46),9	337,(2, 76),3	340,(6, 107),15	373,(2, 46),3	376,(7, 14),96	472,(11, 107),21	
# Outgoing
1,(0, 3),3	4,(0, 1),3	7,(0, 5),3	10,(0, 9),3	13,(0, 6),3	16,(0, 7),3	19,(0, 11),3	22,(0, 4),3	25,(10, 43),3	28,(10, 94),3	31,(10, 52),21	52,(10, 97),3	73,(8, 84),3	76,(8, 78),3	79,(8, 41),3	82,(8, 15),3	85,(8, 91),3	88,(8, 22),3	91,(8, 36),6	97,(8, 69),12	109,(8, 115),3	112,(8, 101),6	118,(8, 24),9	127,(8, 97),6	133,(10, 53),3	136,(8, 67),18	172,(8, 112),15	193,(12, 58),3	196,(12, 51),3	199,(12, 32),3	202,(12, 115),3	205,(12, 82),6	211,(12, 113),12	229,(8, 53),21	280,(10, 46),21	301,(10, 104),15	337,(2, 76),3	340,(2, 22),3	343,(2, 60),6	349,(2, 68),9	358,(2, 52),3	361,(2, 87),12	373,(2, 46),3	376,(12, 104),54	430,(12, 99),42	472,(8, 39),48	520,(8, 44),21	541,(98, 121),6	547,(116, 121),6	553,(93, 121),6	559,(21, 121),6	565,(65, 121),6	571,(80, 121),6	577,(83, 121),6	583,(31, 121),6	589,(45, 121),6	595,(92, 121),6	601,(30, 121),6	607,(120, 121),6	613,(119, 121),6	625,(118, 121),6	637,(106, 121),6	649,(72, 121),6	661,(63, 121),6	673,(109, 121),6	685,(77, 121),6	697,(61, 121),6	709,(42, 121),6	721,(62, 121),6	733,(96, 121),6	745,(29, 121),6	757,(27, 121),6	1153,(102, 121),6	1159,(64, 121),6	2182,(48, 121),6	
34,(5, 103),3	37,(5, 110),6	43,(5, 73),9	55,(5, 25),18	76,(5, 16),12	88,(5, 14),3	136,(5, 57),45	226,(7, 100),3	229,(7, 71),3	232,(7, 75),9	241,(7, 81),12	253,(7, 49),15	268,(7, 97),12	280,(7, 64),12	376,(7, 14),96	
127,(6, 13),3	130,(6, 33),3	133,(6, 69),3	136,(6, 109),3	139,(6, 77),3	142,(6, 24),3	145,(1, 42),6	151,(1, 14),3	154,(6, 68),9	163,(1, 113),9	172,(1, 62),15	187,(6, 26),12	199,(1, 52),3	202,(6, 38),3	205,(6, 117),18	223,(6, 52),9	232,(28, 121),6	238,(105, 121),6	247,(11, 61),6	253,(11, 26),15	268,(11, 48),6	274,(6, 87),18	292,(11, 96),18	310,(11, 16),9	319,(1, 46),9	334,(79, 121),6	340,(6, 107),15	373,(1, 38),45	418,(11, 27),54	472,(11, 107),21	493,(6, 102),54	547,(1, 64),222	769,(1, 44),45	1015,(55, 121),6	1021,(47, 121),6	1027,(59, 121),6	1033,(51, 121),6	1039,(89, 121),6	1045,(90, 121),6	1051,(54, 121),6	1057,(50, 121),6	1063,(43, 121),6	1069,(100, 121),6	1075,(94, 121),6	1081,(91, 121),6	1087,(60, 121),6	1093,(82, 121),6	1099,(101, 121),6	1105,(73, 121),6	1111,(34, 121),6	1117,(49, 121),6	1123,(25, 121),6	1129,(53, 121),6	1135,(57, 121),6	1141,(104, 121),6	1147,(39, 121),6	
52,(9, 79),3	55,(3, 18),3	58,(9, 86),3	61,(3, 69),3	64,(3, 68),3	67,(9, 112),6	73,(3, 104),9	91,(74, 121),6	109,(3, 87),15	142,(3, 62),3	187,(9, 29),27	244,(19, 121),6	268,(4, 17),3	271,(4, 33),3	274,(4, 91),3	277,(4, 34),9	292,(9, 99),42	343,(23, 121),6	418,(40, 121),6	424,(95, 121),6	472,(84, 121),6	478,(58, 121),6	484,(103, 121),6	490,(56, 121),6	496,(70, 121),6	502,(108, 121),6	508,(37, 121),6	514,(32, 121),6	520,(4, 39),69	619,(71, 121),6	631,(76, 121),6	643,(36, 121),6	655,(115, 121),6	667,(110, 121),6	679,(75, 121),6	691,(81, 121),6	703,(24, 121),6	715,(117, 121),6	727,(97, 121),6	739,(16, 121),6	751,(46, 121),6	763,(107, 121),6	814,(9, 44),201	1015,(4, 48),1143	2158,(14, 121),6	
