31826
# CPU
0,0,1	1,5,24	25,7,24	49,35,24	73,54,24	97,87,24	121,36,24	145,78,24	23949,184,24	24053,29,24	24077,114,24	24101,141,24	24125,198,24	24149,45,24	24173,159,24	24197,77,24	24221,170,24	24245,47,24	24269,52,24	24293,200,24	
281,12,24	305,120,24	393,16,24	417,25,24	441,105,24	465,124,24	489,136,24	513,167,24	537,31,24	561,165,24	585,82,24	609,164,24	633,48,24	657,21,24	18945,197,24	18969,46,24	18993,86,24	24065,113,24	24093,155,24	24117,79,24	24141,117,24	
29,1,24	53,40,24	77,179,24	101,142,24	125,157,24	301,28,24	325,199,24	349,14,24	373,110,24	397,64,24	421,72,24	445,154,24	469,163,24	509,88,24	18997,93,24	23729,123,24	24085,42,24	24129,38,24	24153,166,24	24177,156,24	
365,15,24	389,112,24	413,22,24	437,138,24	461,50,24	485,58,24	509,20,24	533,183,24	557,24,24	581,98,24	605,130,24	629,101,24	653,177,24	677,65,24	701,118,24	23849,147,24	24085,143,24	24109,43,24	24141,172,24	24165,191,24	
113,4,24	137,81,24	161,133,24	185,160,24	209,91,24	233,9,24	257,75,24	281,190,24	505,63,24	557,137,24	621,129,24	645,62,24	669,85,24	781,108,24	19641,126,24	24017,66,24	24129,132,24	24229,100,24	24301,185,24	24393,187,24	
57,2,24	81,53,24	105,196,24	129,178,24	193,180,24	305,119,24	421,17,24	445,127,24	469,39,24	553,106,24	625,168,24	785,111,24	1193,146,24	18949,27,24	19657,194,24	24013,55,24	24061,80,24	24085,83,24	24109,74,24	24153,107,24	
85,3,24	109,26,24	189,151,24	477,19,24	501,70,24	525,125,24	549,144,24	573,171,24	597,32,24	621,192,24	669,34,24	709,195,24	2473,175,24	19037,103,24	24057,59,24	24085,61,24	24145,57,24	24169,71,24	24193,94,24	24241,92,24	
309,13,24	333,90,24	357,115,24	449,18,24	473,176,24	497,23,24	521,193,24	545,68,24	569,96,24	593,51,24	617,139,24	641,161,24	665,89,24	941,128,24	24065,60,24	24089,67,24	24133,149,24	24289,109,24	24345,131,24	
141,6,24	165,73,24	189,99,24	253,11,24	277,30,24	301,56,24	325,69,24	349,152,24	449,122,24	509,169,24	533,173,24	557,182,24	597,97,24	653,84,24	793,41,24	24089,37,24	24133,181,24	24157,189,24	24261,145,24	
169,8,24	193,95,24	225,10,24	249,76,24	273,153,24	297,102,24	941,150,24	1225,148,24	1249,33,24	2457,188,24	18865,186,24	19653,174,24	23725,49,24	23813,134,24	23853,158,24	24185,135,24	24593,104,24	24893,116,24	25169,140,24	25193,162,24	27317,44,24	28009,121,24	31825,201,1	
# Incoming
23853,(2, 159),16	23869,(2, 184),80	23949,(4, 77),4	23953,(6, 170),36	23989,(8, 47),20	24009,(11, 114),8	24017,(11, 141),4	24021,(12, 29),32	24053,(14, 114),12	24065,(14, 141),4	24069,(12, 198),12	24081,(15, 45),8	24089,(10, 45),4	24093,(18, 159),4	24097,(10, 77),8	24105,(15, 170),8	24113,(18, 47),12	24125,(19, 52),4	24129,(20, 52),4	24161,(10, 200),4	
253,(0, 12),28	281,(3, 86),56	337,(4, 86),4	341,(4, 117),20	361,(4, 165),4	365,(0, 16),28	393,(6, 113),4	397,(6, 164),4	401,(9, 31),4	405,(11, 117),12	417,(13, 86),4	421,(15, 31),4	441,(1, 79),8	449,(1, 165),12	477,(18, 86),16	497,(15, 113),16	513,(18, 82),28	541,(19, 164),4	549,(19, 155),16	565,(20, 21),16	581,(20, 48),4	609,(19, 21),44	793,(20, 86),32	18877,(5, 197),68	18949,(7, 46),20	18969,(7, 86),24	24061,(8, 113),4	24089,(17, 155),4	24105,(10, 79),4	24109,(10, 117),8	
1,(0, 1),28	169,(6, 110),12	277,(11, 28),24	301,(9, 199),4	309,(0, 14),28	393,(13, 163),4	505,(19, 88),4	2453,(5, 166),8	18993,(7, 93),4	23725,(2, 123),4	24081,(16, 42),4	24101,(16, 38),28	24133,(10, 166),4	24153,(16, 156),4	
337,(0, 15),28	365,(4, 143),20	385,(6, 112),4	389,(9, 43),8	401,(11, 191),4	473,(18, 43),4	477,(0, 20),28	509,(18, 183),4	573,(14, 43),24	597,(18, 177),12	641,(5, 65),4	669,(14, 118),20	689,(19, 147),48	737,(19, 191),40	1085,(5, 143),104	23813,(2, 147),36	24057,(17, 43),4	24065,(8, 143),20	24085,(12, 43),16	24137,(10, 172),4	24141,(10, 191),20	
85,(0, 4),28	169,(0, 9),28	425,(15, 63),4	501,(19, 63),4	509,(19, 100),4	553,(20, 137),4	617,(14, 129),4	637,(5, 62),4	653,(5, 85),4	657,(5, 100),92	749,(5, 108),32	18865,(5, 187),12	19633,(7, 126),8	24013,(8, 66),4	24117,(10, 132),12	24181,(17, 100),48	24289,(16, 185),12	24345,(17, 187),48	
29,(0, 2),28	109,(3, 27),24	133,(3, 74),8	165,(6, 107),4	189,(1, 180),4	273,(9, 127),4	281,(9, 168),8	301,(11, 119),4	333,(13, 27),16	369,(13, 106),8	377,(13, 111),16	393,(0, 17),28	433,(15, 111),12	445,(15, 168),4	453,(15, 107),44	513,(19, 107),4	549,(20, 106),4	605,(14, 80),8	621,(14, 168),4	781,(5, 111),4	1189,(5, 146),4	18945,(7, 27),4	19653,(7, 194),4	24009,(8, 55),4	24017,(8, 74),40	24057,(8, 80),4	24061,(12, 83),8	24093,(10, 74),4	24145,(16, 107),8	
57,(0, 3),28	149,(1, 57),12	161,(1, 70),24	185,(1, 151),4	189,(4, 92),84	429,(15, 70),4	449,(0, 19),28	493,(18, 92),8	541,(18, 192),4	545,(5, 61),92	637,(20, 59),4	665,(14, 34),4	689,(14, 195),20	2461,(5, 175),12	18997,(7, 103),40	24053,(12, 59),4	24065,(17, 61),20	24129,(16, 57),16	24145,(17, 71),8	24153,(17, 94),28	24185,(16, 92),56	
281,(0, 13),28	421,(0, 18),28	461,(1, 176),4	505,(5, 51),28	533,(5, 60),12	545,(19, 139),4	565,(19, 161),4	597,(14, 67),8	613,(14, 89),4	645,(5, 67),4	649,(15, 67),64	901,(5, 128),40	1225,(5, 149),4	23729,(2, 131),16	24061,(17, 60),4	24085,(17, 67),4	24129,(10, 149),4	24241,(16, 109),48	24329,(17, 131),16	
113,(0, 6),28	141,(1, 30),8	149,(4, 56),4	153,(4, 73),8	161,(4, 169),12	225,(0, 11),28	277,(9, 152),4	289,(9, 169),12	349,(13, 37),20	421,(13, 122),28	449,(15, 37),4	501,(18, 169),8	513,(15, 173),8	521,(15, 182),28	549,(18, 145),16	565,(18, 189),4	585,(20, 97),12	649,(5, 84),4	713,(20, 41),80	24057,(12, 181),4	24085,(10, 37),4	24129,(17, 181),4	24133,(17, 189),4	24229,(17, 145),32	
141,(0, 8),28	169,(3, 140),28	197,(0, 10),28	225,(1, 49),216	441,(3, 174),12	453,(6, 135),4	457,(11, 116),8	465,(40, 201),36	501,(179, 201),36	537,(142, 201),36	573,(26, 201),36	609,(4, 174),20	629,(157, 201),36	665,(81, 201),36	701,(6, 174),60	761,(9, 44),16	777,(13, 49),8	785,(5, 121),116	901,(133, 201),36	937,(14, 150),4	941,(5, 140),144	1085,(73, 201),36	1121,(160, 201),36	1157,(151, 201),36	1193,(5, 148),32	1225,(15, 33),4	1229,(5, 162),1224	2453,(19, 188),4	2473,(5, 186),16392	18865,(99, 201),36	18901,(91, 201),36	18937,(11, 174),32	18969,(75, 201),36	19037,(7, 116),596	19641,(7, 174),12	19657,(35, 201),36	19693,(2, 49),4032	23745,(2, 134),68	23813,(54, 201),36	23849,(2, 158),4	23853,(87, 201),36	23889,(36, 201),36	23949,(53, 201),36	23985,(196, 201),36	24021,(178, 201),36	24057,(78, 201),36	24093,(180, 201),36	24129,(30, 201),36	24165,(12, 135),20	24185,(190, 201),36	24221,(28, 201),36	24257,(56, 201),36	24293,(119, 201),36	24329,(120, 201),36	24365,(13, 104),228	24593,(199, 201),36	24629,(69, 201),36	24665,(90, 201),36	24701,(14, 116),192	24893,(152, 201),36	24929,(115, 201),36	24965,(110, 201),36	25001,(112, 201),36	25037,(64, 201),36	25073,(22, 201),36	25109,(25, 201),36	25145,(17, 140),24	25169,(17, 162),16	25185,(72, 201),36	25221,(138, 201),36	25257,(105, 201),36	25293,(127, 201),36	25329,(154, 201),36	25365,(122, 201),36	25401,(50, 201),36	25437,(124, 201),36	25473,(163, 201),36	25509,(39, 201),36	25545,(176, 201),36	25581,(19, 44),136	25717,(58, 201),36	25753,(136, 201),36	25789,(23, 201),36	25825,(70, 201),36	25861,(63, 201),36	25897,(20, 44),1420	27317,(20, 121),692	28009,(169, 201),36	28045,(88, 201),36	28081,(167, 201),36	28117,(193, 201),36	28153,(125, 201),36	28189,(173, 201),36	28225,(183, 201),36	28261,(31, 201),36	28297,(68, 201),36	28333,(144, 201),36	28369,(106, 201),36	28405,(182, 201),36	28441,(137, 201),36	28477,(24, 201),36	28513,(165, 201),36	28549,(96, 201),36	28585,(171, 201),36	28621,(98, 201),36	28657,(82, 201),36	28693,(51, 201),36	28729,(97, 201),36	28765,(32, 201),36	28801,(130, 201),36	28837,(164, 201),36	28873,(139, 201),36	28909,(129, 201),36	28945,(192, 201),36	28981,(168, 201),36	29017,(101, 201),36	29053,(48, 201),36	29089,(161, 201),36	29125,(62, 201),36	29161,(177, 201),36	29197,(84, 201),36	29233,(21, 201),36	29269,(89, 201),36	29305,(34, 201),36	29341,(85, 201),36	29377,(65, 201),36	29413,(118, 201),36	29449,(195, 201),36	29485,(108, 201),36	29521,(111, 201),36	29557,(41, 201),36	29593,(128, 201),36	29629,(146, 201),36	29665,(175, 201),36	29701,(197, 201),36	29737,(27, 201),36	29773,(46, 201),36	29809,(86, 201),36	29845,(93, 201),36	29881,(103, 201),36	29917,(126, 201),36	29953,(194, 201),36	29989,(123, 201),36	30025,(147, 201),36	30061,(184, 201),36	30097,(55, 201),36	30133,(66, 201),36	30169,(29, 201),36	30205,(59, 201),36	30241,(80, 201),36	30277,(113, 201),36	30313,(60, 201),36	30349,(114, 201),36	30385,(143, 201),36	30421,(61, 201),36	30457,(83, 201),36	30493,(42, 201),36	30529,(67, 201),36	30565,(37, 201),36	30601,(155, 201),36	30637,(141, 201),36	30673,(74, 201),36	30709,(43, 201),36	30745,(79, 201),36	30781,(198, 201),36	30817,(38, 201),36	30853,(132, 201),36	30889,(149, 201),36	30925,(181, 201),36	30961,(117, 201),36	30997,(172, 201),36	31033,(57, 201),36	31069,(45, 201),36	31105,(107, 201),36	31141,(166, 201),36	31177,(189, 201),36	31213,(191, 201),36	31249,(71, 201),36	31285,(159, 201),36	31321,(156, 201),36	31357,(94, 201),36	31393,(77, 201),36	31429,(170, 201),36	31465,(100, 201),36	31501,(92, 201),36	31537,(47, 201),36	31573,(145, 201),36	31609,(52, 201),36	31645,(109, 201),36	31681,(200, 201),36	31717,(185, 201),36	31753,(131, 201),36	31789,(187, 201),36	
# Outgoing
1,(0, 1),28	29,(0, 2),28	57,(0, 3),28	85,(0, 4),28	113,(0, 6),28	141,(0, 8),28	169,(0, 9),28	197,(0, 10),28	225,(0, 11),28	253,(0, 12),28	281,(0, 13),28	309,(0, 14),28	337,(0, 15),28	365,(0, 16),28	393,(0, 17),28	421,(0, 18),28	449,(0, 19),28	477,(0, 20),28	505,(5, 51),28	533,(5, 60),12	545,(5, 61),92	637,(5, 62),4	641,(5, 65),4	645,(5, 67),4	649,(5, 84),4	653,(5, 85),4	657,(5, 100),92	749,(5, 108),32	781,(5, 111),4	785,(5, 121),116	901,(5, 128),40	941,(5, 140),144	1085,(5, 143),104	1189,(5, 146),4	1193,(5, 148),32	1225,(5, 149),4	1229,(5, 162),1224	2453,(5, 166),8	2461,(5, 175),12	2473,(5, 186),16392	18865,(5, 187),12	18877,(5, 197),68	18945,(7, 27),4	18949,(7, 46),20	18969,(7, 86),24	18993,(7, 93),4	18997,(7, 103),40	19037,(7, 116),596	19633,(7, 126),8	19641,(7, 174),12	19653,(7, 194),4	19657,(35, 201),36	23813,(54, 201),36	23853,(87, 201),36	23889,(36, 201),36	24057,(78, 201),36	30061,(184, 201),36	30169,(29, 201),36	30349,(114, 201),36	30637,(141, 201),36	30781,(198, 201),36	31069,(45, 201),36	31285,(159, 201),36	31393,(77, 201),36	31429,(170, 201),36	31537,(47, 201),36	31609,(52, 201),36	31681,(200, 201),36	
24021,(12, 29),32	24053,(12, 59),4	24057,(12, 181),4	24061,(12, 83),8	24069,(12, 198),12	24081,(16, 42),4	24085,(12, 43),16	24101,(16, 38),28	24129,(16, 57),16	24145,(16, 107),8	24153,(16, 156),4	24165,(12, 135),20	24185,(16, 92),56	24241,(16, 109),48	24289,(16, 185),12	24329,(120, 201),36	25109,(25, 201),36	25257,(105, 201),36	25437,(124, 201),36	25753,(136, 201),36	28081,(167, 201),36	28261,(31, 201),36	28513,(165, 201),36	28657,(82, 201),36	28837,(164, 201),36	29053,(48, 201),36	29233,(21, 201),36	29701,(197, 201),36	29773,(46, 201),36	29809,(86, 201),36	30277,(113, 201),36	30601,(155, 201),36	30745,(79, 201),36	30961,(117, 201),36	
141,(1, 30),8	149,(1, 57),12	161,(1, 70),24	185,(1, 151),4	189,(1, 180),4	225,(1, 49),216	441,(1, 79),8	449,(1, 165),12	461,(1, 176),4	465,(40, 201),36	501,(179, 201),36	537,(142, 201),36	573,(14, 43),24	597,(14, 67),8	605,(14, 80),8	613,(14, 89),4	617,(14, 129),4	621,(14, 168),4	629,(157, 201),36	665,(14, 34),4	669,(14, 118),20	689,(14, 195),20	937,(14, 150),4	24053,(14, 114),12	24065,(14, 141),4	24221,(28, 201),36	24593,(199, 201),36	24701,(14, 116),192	24965,(110, 201),36	25037,(64, 201),36	25185,(72, 201),36	25329,(154, 201),36	25473,(163, 201),36	28045,(88, 201),36	29845,(93, 201),36	29989,(123, 201),36	30493,(42, 201),36	30817,(38, 201),36	31141,(166, 201),36	31321,(156, 201),36	
421,(15, 31),4	425,(15, 63),4	429,(15, 70),4	433,(15, 111),12	445,(15, 168),4	449,(15, 37),4	453,(15, 107),44	497,(15, 113),16	513,(15, 173),8	521,(15, 182),28	549,(20, 106),4	553,(20, 137),4	565,(20, 21),16	581,(20, 48),4	585,(20, 97),12	637,(20, 59),4	649,(15, 67),64	713,(20, 41),80	793,(20, 86),32	1225,(15, 33),4	24081,(15, 45),8	24105,(15, 170),8	24129,(20, 52),4	25001,(112, 201),36	25073,(22, 201),36	25221,(138, 201),36	25401,(50, 201),36	25717,(58, 201),36	25897,(20, 44),1420	27317,(20, 121),692	28225,(183, 201),36	28477,(24, 201),36	28621,(98, 201),36	28801,(130, 201),36	29017,(101, 201),36	29161,(177, 201),36	29377,(65, 201),36	29413,(118, 201),36	30025,(147, 201),36	30385,(143, 201),36	30709,(43, 201),36	30997,(172, 201),36	31213,(191, 201),36	
149,(4, 56),4	153,(4, 73),8	161,(4, 169),12	189,(4, 92),84	273,(9, 127),4	277,(9, 152),4	281,(9, 168),8	289,(9, 169),12	301,(9, 199),4	337,(4, 86),4	341,(4, 117),20	361,(4, 165),4	365,(4, 143),20	389,(9, 43),8	401,(9, 31),4	609,(4, 174),20	665,(81, 201),36	761,(9, 44),16	901,(133, 201),36	1121,(160, 201),36	18901,(91, 201),36	18969,(75, 201),36	23949,(4, 77),4	24185,(190, 201),36	25861,(63, 201),36	28441,(137, 201),36	28909,(129, 201),36	29125,(62, 201),36	29341,(85, 201),36	29485,(108, 201),36	29917,(126, 201),36	30133,(66, 201),36	30853,(132, 201),36	31465,(100, 201),36	31717,(185, 201),36	31789,(187, 201),36	
19693,(2, 49),4032	23725,(2, 123),4	23729,(2, 131),16	23745,(2, 134),68	23813,(2, 147),36	23849,(2, 158),4	23853,(2, 159),16	23869,(2, 184),80	23949,(53, 201),36	23985,(196, 201),36	24021,(178, 201),36	24057,(17, 43),4	24061,(17, 60),4	24065,(17, 61),20	24085,(17, 67),4	24089,(17, 155),4	24093,(180, 201),36	24129,(17, 181),4	24133,(17, 189),4	24145,(17, 71),8	24153,(17, 94),28	24181,(17, 100),48	24229,(17, 145),32	24293,(119, 201),36	24329,(17, 131),16	24345,(17, 187),48	25145,(17, 140),24	25169,(17, 162),16	25293,(127, 201),36	25509,(39, 201),36	28369,(106, 201),36	28981,(168, 201),36	29521,(111, 201),36	29629,(146, 201),36	29737,(27, 201),36	29953,(194, 201),36	30097,(55, 201),36	30241,(80, 201),36	30457,(83, 201),36	30673,(74, 201),36	31105,(107, 201),36	
109,(3, 27),24	133,(3, 74),8	169,(3, 140),28	281,(3, 86),56	441,(3, 174),12	501,(19, 63),4	505,(19, 88),4	509,(19, 100),4	513,(19, 107),4	541,(19, 164),4	545,(19, 139),4	549,(19, 155),16	565,(19, 161),4	573,(26, 201),36	609,(19, 21),44	689,(19, 147),48	737,(19, 191),40	1157,(151, 201),36	2453,(19, 188),4	24125,(19, 52),4	25581,(19, 44),136	25825,(70, 201),36	28153,(125, 201),36	28333,(144, 201),36	28585,(171, 201),36	28765,(32, 201),36	28945,(192, 201),36	29305,(34, 201),36	29449,(195, 201),36	29665,(175, 201),36	29881,(103, 201),36	30205,(59, 201),36	30421,(61, 201),36	31033,(57, 201),36	31249,(71, 201),36	31357,(94, 201),36	31501,(92, 201),36	
333,(13, 27),16	349,(13, 37),20	369,(13, 106),8	377,(13, 111),16	393,(13, 163),4	417,(13, 86),4	421,(13, 122),28	473,(18, 43),4	477,(18, 86),16	493,(18, 92),8	501,(18, 169),8	509,(18, 183),4	513,(18, 82),28	541,(18, 192),4	549,(18, 145),16	565,(18, 189),4	597,(18, 177),12	777,(13, 49),8	24093,(18, 159),4	24113,(18, 47),12	24365,(13, 104),228	24665,(90, 201),36	24929,(115, 201),36	25545,(176, 201),36	25789,(23, 201),36	28117,(193, 201),36	28297,(68, 201),36	28549,(96, 201),36	28693,(51, 201),36	28873,(139, 201),36	29089,(161, 201),36	29269,(89, 201),36	29593,(128, 201),36	30313,(60, 201),36	30529,(67, 201),36	30889,(149, 201),36	31645,(109, 201),36	31753,(131, 201),36	
165,(6, 107),4	169,(6, 110),12	277,(11, 28),24	301,(11, 119),4	385,(6, 112),4	393,(6, 113),4	397,(6, 164),4	401,(11, 191),4	405,(11, 117),12	453,(6, 135),4	457,(11, 116),8	701,(6, 174),60	1085,(73, 201),36	18865,(99, 201),36	18937,(11, 174),32	23953,(6, 170),36	24009,(11, 114),8	24017,(11, 141),4	24129,(30, 201),36	24257,(56, 201),36	24629,(69, 201),36	24893,(152, 201),36	25365,(122, 201),36	28009,(169, 201),36	28189,(173, 201),36	28405,(182, 201),36	28729,(97, 201),36	29197,(84, 201),36	29557,(41, 201),36	30565,(37, 201),36	30925,(181, 201),36	31177,(189, 201),36	31573,(145, 201),36	
23989,(8, 47),20	24009,(8, 55),4	24013,(8, 66),4	24017,(8, 74),40	24057,(8, 80),4	24061,(8, 113),4	24065,(8, 143),20	24085,(10, 37),4	24089,(10, 45),4	24093,(10, 74),4	24097,(10, 77),8	24105,(10, 79),4	24109,(10, 117),8	24117,(10, 132),12	24129,(10, 149),4	24133,(10, 166),4	24137,(10, 172),4	24141,(10, 191),20	24161,(10, 200),4	
