566
# CPU
0,0,1	1,9,1	2,7,1	3,183,1	4,3,1	5,187,1	6,8,1	7,96,1	8,138,1	9,102,1	10,35,1	11,17,1	12,108,1	13,87,1	14,10,1	15,58,1	16,38,1	17,161,1	18,150,1	19,20,1	20,118,1	21,176,1	22,117,1	23,141,1	24,6,1	25,135,1	26,18,1	27,114,1	28,34,1	29,73,1	30,168,1	31,14,1	32,100,1	33,106,1	34,149,1	35,15,1	36,39,1	37,80,1	38,169,1	39,109,1	40,159,1	41,1,1	42,116,1	43,71,1	44,136,1	45,82,1	46,123,1	47,95,1	48,110,1	49,92,1	50,147,1	51,49,1	52,67,1	53,19,1	54,47,1	55,97,1	56,143,1	57,76,1	58,65,1	59,175,1	60,22,1	61,57,1	62,13,1	63,174,1	64,121,1	65,21,1	66,79,1	67,137,1	68,186,1	69,24,1	70,158,1	71,144,1	72,197,1	73,2,1	74,111,1	75,93,1	76,148,1	77,36,1	78,142,1	79,70,1	80,26,1	81,181,1	82,90,1	83,173,1	84,45,1	85,198,1	86,130,1	87,55,1	88,69,1	89,155,1	90,145,1	91,104,1	92,156,1	93,127,1	94,46,1	95,167,1	96,112,1	97,53,1	98,125,1	99,68,1	100,66,1	101,32,1	102,75,1	103,188,1	104,50,1	105,89,1	106,48,1	107,170,1	108,172,1	109,105,1	110,42,1	111,60,1	112,77,1	113,25,1	114,157,1	115,86,1	116,196,1	117,27,1	119,107,1	124,154,1	130,132,1	137,192,1	144,23,1	151,194,1	158,119,1	167,91,1	175,98,1	185,81,1	195,162,1	205,153,1	216,74,1	227,191,1	238,160,1	249,52,1	260,64,1	271,193,1	283,140,1	296,63,1	309,190,1	323,51,1	339,126,1	355,84,1	371,178,1	388,171,1	423,99,1	461,41,1	537,134,1	
14,5,1	15,185,1	26,94,1	30,139,1	33,180,1	39,4,1	40,120,1	41,88,1	42,62,1	43,115,1	48,11,1	49,129,1	50,83,1	51,44,1	53,101,1	57,165,1	60,177,1	65,78,1	67,128,1	75,29,1	82,103,1	89,56,1	97,200,1	105,37,1	114,152,1	123,182,1	145,59,1	168,133,1	182,131,1	196,146,1	230,61,1	249,85,1	268,122,1	288,72,1	314,33,1	343,199,1	401,151,1	433,31,1	565,201,1	
7,12,1	8,124,1	9,195,1	21,16,1	22,163,1	23,164,1	24,184,1	50,189,1	55,40,1	64,30,1	71,166,1	77,113,1	136,179,1	159,28,1	213,43,1	372,54,1	
# Incoming
19,(12, 55),1	20,(12, 156),1	21,(12, 53),1	22,(16, 145),1	23,(16, 127),1	24,(16, 172),1	25,(16, 60),4	29,(12, 25),5	34,(16, 196),4	38,(12, 27),6	44,(12, 154),4	48,(12, 132),2	50,(12, 140),1	51,(11, 69),1	52,(11, 155),1	53,(11, 104),1	54,(5, 46),1	55,(11, 167),2	57,(4, 112),2	59,(5, 53),1	60,(5, 125),2	62,(4, 68),2	64,(5, 66),2	66,(4, 32),1	67,(11, 32),1	68,(5, 75),3	71,(5, 188),3	74,(4, 50),3	77,(4, 89),1	78,(11, 89),2	80,(4, 48),4	84,(11, 170),4	88,(11, 172),3	91,(5, 105),3	94,(4, 105),1	95,(11, 42),4	99,(11, 77),4	103,(11, 157),5	108,(4, 86),5	113,(11, 196),1	114,(11, 107),5	119,(4, 154),5	124,(4, 132),6	130,(4, 192),7	137,(5, 23),1	138,(11, 23),6	144,(5, 194),7	151,(4, 119),7	158,(16, 51),1	159,(5, 91),8	167,(11, 98),8	175,(5, 81),8	183,(11, 81),2	185,(16, 162),10	195,(16, 153),10	205,(12, 74),11	216,(11, 191),11	227,(12, 160),11	238,(16, 52),2	240,(4, 52),5	245,(11, 52),4	249,(16, 64),11	260,(16, 193),5	265,(4, 193),5	270,(11, 193),1	271,(11, 140),12	283,(16, 63),6	289,(4, 63),4	293,(11, 63),3	296,(12, 190),10	306,(16, 190),3	309,(5, 51),14	323,(16, 126),4	327,(4, 126),12	339,(12, 84),15	354,(4, 84),1	355,(5, 178),16	371,(5, 171),2	373,(4, 171),15	388,(5, 99),31	419,(4, 99),4	423,(4, 41),38	461,(12, 134),76	
8,(0, 5),6	14,(8, 185),1	15,(12, 62),3	18,(12, 44),1	21,(17, 180),1	22,(10, 88),3	25,(6, 94),1	26,(3, 115),1	27,(18, 139),3	30,(18, 180),3	33,(0, 4),6	39,(14, 120),1	40,(17, 115),1	41,(20, 115),1	42,(0, 11),6	49,(3, 44),1	50,(6, 101),3	53,(7, 165),1	54,(16, 61),1	55,(3, 165),1	56,(18, 165),1	57,(7, 177),1	58,(1, 177),1	59,(19, 177),1	60,(12, 78),3	63,(124, 201),1	64,(13, 78),1	65,(13, 128),2	67,(195, 201),1	68,(163, 201),1	69,(164, 201),1	70,(184, 201),1	71,(189, 201),1	72,(40, 201),1	73,(7, 103),1	74,(2, 29),1	75,(30, 201),1	76,(166, 201),1	77,(3, 103),5	82,(15, 56),7	89,(7, 200),8	97,(17, 37),2	99,(1, 37),5	104,(2, 37),1	105,(17, 152),1	106,(10, 152),7	113,(6, 152),1	114,(13, 182),9	123,(16, 59),9	132,(113, 201),1	136,(8, 59),6	142,(17, 59),3	145,(12, 133),10	155,(179, 201),1	157,(15, 133),1	158,(13, 133),10	168,(14, 131),13	181,(2, 131),1	182,(8, 146),3	185,(17, 146),1	186,(14, 146),9	195,(15, 146),1	213,(20, 61),17	230,(3, 85),9	239,(6, 85),10	249,(14, 122),19	268,(8, 72),9	277,(6, 72),8	285,(14, 72),3	288,(7, 33),18	306,(17, 33),7	313,(6, 33),1	314,(2, 199),29	354,(12, 151),13	367,(28, 201),1	368,(43, 201),1	372,(18, 151),28	400,(19, 151),1	401,(10, 31),19	420,(1, 31),13	433,(183, 201),1	434,(187, 201),1	435,(96, 201),1	436,(138, 201),1	437,(102, 201),1	438,(35, 201),1	439,(108, 201),1	440,(87, 201),1	441,(58, 201),1	442,(38, 201),1	443,(161, 201),1	444,(150, 201),1	445,(118, 201),1	446,(176, 201),1	447,(117, 201),1	448,(141, 201),1	449,(135, 201),1	450,(114, 201),1	451,(34, 201),1	452,(73, 201),1	453,(168, 201),1	454,(100, 201),1	455,(106, 201),1	456,(149, 201),1	457,(39, 201),1	458,(80, 201),1	459,(169, 201),1	460,(109, 201),1	461,(159, 201),1	462,(116, 201),1	463,(71, 201),1	464,(136, 201),1	465,(82, 201),1	466,(123, 201),1	467,(95, 201),1	468,(110, 201),1	469,(92, 201),1	470,(147, 201),1	471,(49, 201),1	472,(67, 201),1	473,(47, 201),1	474,(97, 201),1	475,(143, 201),1	476,(76, 201),1	477,(65, 201),1	478,(175, 201),1	479,(22, 201),1	480,(57, 201),1	481,(174, 201),1	482,(121, 201),1	483,(21, 201),1	484,(79, 201),1	485,(137, 201),1	486,(186, 201),1	487,(24, 201),1	488,(158, 201),1	489,(144, 201),1	490,(197, 201),1	491,(111, 201),1	492,(93, 201),1	493,(148, 201),1	494,(36, 201),1	495,(142, 201),1	496,(70, 201),1	497,(26, 201),1	498,(181, 201),1	499,(90, 201),1	500,(173, 201),1	501,(45, 201),1	502,(198, 201),1	503,(130, 201),1	504,(55, 201),1	505,(69, 201),1	506,(155, 201),1	507,(145, 201),1	508,(104, 201),1	509,(156, 201),1	510,(127, 201),1	511,(46, 201),1	512,(167, 201),1	513,(112, 201),1	514,(53, 201),1	515,(125, 201),1	516,(68, 201),1	517,(66, 201),1	518,(32, 201),1	519,(75, 201),1	520,(188, 201),1	521,(50, 201),1	522,(89, 201),1	523,(48, 201),1	524,(170, 201),1	525,(172, 201),1	526,(105, 201),1	527,(42, 201),1	528,(60, 201),1	529,(77, 201),1	530,(25, 201),1	531,(157, 201),1	532,(86, 201),1	533,(196, 201),1	534,(27, 201),1	535,(107, 201),1	536,(154, 201),1	537,(132, 201),1	538,(192, 201),1	539,(23, 201),1	540,(194, 201),1	541,(119, 201),1	542,(91, 201),1	543,(98, 201),1	544,(81, 201),1	545,(162, 201),1	546,(153, 201),1	547,(74, 201),1	548,(191, 201),1	549,(160, 201),1	550,(52, 201),1	551,(64, 201),1	552,(193, 201),1	553,(140, 201),1	554,(63, 201),1	555,(190, 201),1	556,(51, 201),1	557,(126, 201),1	558,(84, 201),1	559,(178, 201),1	560,(54, 201),1	561,(171, 201),1	562,(99, 201),1	563,(41, 201),1	564,(134, 201),1	
1,(0, 12),6	7,(3, 195),1	15,(0, 16),6	48,(15, 189),1	49,(11, 189),1	50,(4, 113),1	54,(19, 40),1	60,(19, 166),3	63,(13, 30),1	67,(1, 166),4	71,(17, 113),1	72,(10, 113),1	75,(2, 113),2	123,(18, 179),2	125,(1, 179),10	135,(2, 179),1	145,(3, 28),1	146,(1, 28),11	158,(11, 28),1	185,(5, 54),4	196,(3, 43),2	198,(6, 43),2	200,(1, 43),3	203,(19, 43),9	212,(2, 43),1	227,(11, 54),11	343,(3, 54),1	344,(6, 54),26	370,(19, 54),2	
# Outgoing
1,(0, 12),6	7,(3, 195),1	8,(0, 5),6	14,(8, 185),1	15,(0, 16),6	21,(17, 180),1	22,(10, 88),3	25,(6, 94),1	26,(3, 115),1	27,(18, 139),3	30,(18, 180),3	33,(0, 4),6	39,(14, 120),1	40,(17, 115),1	41,(20, 115),1	42,(0, 11),6	48,(15, 189),1	49,(3, 44),1	50,(6, 101),3	53,(7, 165),1	54,(19, 40),1	55,(3, 165),1	56,(18, 165),1	57,(7, 177),1	58,(1, 177),1	59,(19, 177),1	60,(19, 166),3	63,(13, 30),1	64,(13, 78),1	65,(13, 128),2	67,(1, 166),4	71,(17, 113),1	72,(10, 113),1	73,(7, 103),1	74,(2, 29),1	75,(2, 113),2	77,(3, 103),5	82,(15, 56),7	89,(7, 200),8	97,(17, 37),2	99,(1, 37),5	104,(2, 37),1	105,(17, 152),1	106,(10, 152),7	113,(6, 152),1	114,(13, 182),9	123,(18, 179),2	125,(1, 179),10	135,(2, 179),1	136,(8, 59),6	142,(17, 59),3	145,(3, 28),1	146,(1, 28),11	157,(15, 133),1	158,(13, 133),10	168,(14, 131),13	181,(2, 131),1	182,(8, 146),3	185,(17, 146),1	186,(14, 146),9	195,(15, 146),1	196,(3, 43),2	198,(6, 43),2	200,(1, 43),3	203,(19, 43),9	212,(2, 43),1	213,(20, 61),17	230,(3, 85),9	239,(6, 85),10	249,(14, 122),19	268,(8, 72),9	277,(6, 72),8	285,(14, 72),3	288,(7, 33),18	306,(17, 33),7	313,(6, 33),1	314,(2, 199),29	343,(3, 54),1	344,(6, 54),26	370,(19, 54),2	372,(18, 151),28	400,(19, 151),1	401,(10, 31),19	420,(1, 31),13	433,(183, 201),1	434,(187, 201),1	435,(96, 201),1	436,(138, 201),1	437,(102, 201),1	438,(35, 201),1	439,(108, 201),1	440,(87, 201),1	441,(58, 201),1	442,(38, 201),1	443,(161, 201),1	444,(150, 201),1	445,(118, 201),1	446,(176, 201),1	447,(117, 201),1	448,(141, 201),1	449,(135, 201),1	450,(114, 201),1	451,(34, 201),1	452,(73, 201),1	453,(168, 201),1	454,(100, 201),1	455,(106, 201),1	456,(149, 201),1	457,(39, 201),1	458,(80, 201),1	459,(169, 201),1	460,(109, 201),1	461,(159, 201),1	462,(116, 201),1	463,(71, 201),1	464,(136, 201),1	465,(82, 201),1	466,(123, 201),1	467,(95, 201),1	468,(110, 201),1	469,(92, 201),1	470,(147, 201),1	471,(49, 201),1	472,(67, 201),1	473,(47, 201),1	474,(97, 201),1	475,(143, 201),1	476,(76, 201),1	477,(65, 201),1	478,(175, 201),1	479,(22, 201),1	480,(57, 201),1	481,(174, 201),1	482,(121, 201),1	483,(21, 201),1	484,(79, 201),1	485,(137, 201),1	486,(186, 201),1	487,(24, 201),1	488,(158, 201),1	489,(144, 201),1	490,(197, 201),1	491,(111, 201),1	492,(93, 201),1	493,(148, 201),1	494,(36, 201),1	495,(142, 201),1	496,(70, 201),1	497,(26, 201),1	498,(181, 201),1	499,(90, 201),1	500,(173, 201),1	501,(45, 201),1	502,(198, 201),1	503,(130, 201),1	504,(55, 201),1	505,(69, 201),1	506,(155, 201),1	507,(145, 201),1	508,(104, 201),1	509,(156, 201),1	510,(127, 201),1	511,(46, 201),1	512,(167, 201),1	513,(112, 201),1	514,(53, 201),1	515,(125, 201),1	516,(68, 201),1	517,(66, 201),1	518,(32, 201),1	519,(75, 201),1	520,(188, 201),1	521,(50, 201),1	522,(89, 201),1	523,(48, 201),1	524,(170, 201),1	525,(172, 201),1	526,(105, 201),1	527,(42, 201),1	528,(60, 201),1	529,(77, 201),1	530,(25, 201),1	531,(157, 201),1	532,(86, 201),1	533,(196, 201),1	534,(27, 201),1	535,(107, 201),1	536,(154, 201),1	537,(132, 201),1	538,(192, 201),1	539,(23, 201),1	540,(194, 201),1	541,(119, 201),1	542,(91, 201),1	543,(98, 201),1	544,(81, 201),1	545,(162, 201),1	546,(153, 201),1	547,(74, 201),1	548,(191, 201),1	549,(160, 201),1	550,(52, 201),1	551,(64, 201),1	552,(193, 201),1	553,(140, 201),1	554,(63, 201),1	555,(190, 201),1	556,(51, 201),1	557,(126, 201),1	558,(84, 201),1	559,(178, 201),1	561,(171, 201),1	562,(99, 201),1	563,(41, 201),1	564,(134, 201),1	
49,(11, 189),1	50,(4, 113),1	51,(11, 69),1	52,(11, 155),1	53,(11, 104),1	54,(5, 46),1	55,(11, 167),2	57,(4, 112),2	59,(5, 53),1	60,(5, 125),2	62,(4, 68),2	64,(5, 66),2	66,(4, 32),1	67,(11, 32),1	68,(5, 75),3	71,(5, 188),3	74,(4, 50),3	77,(4, 89),1	78,(11, 89),2	80,(4, 48),4	84,(11, 170),4	88,(11, 172),3	91,(5, 105),3	94,(4, 105),1	95,(11, 42),4	99,(11, 77),4	103,(11, 157),5	108,(4, 86),5	113,(11, 196),1	114,(11, 107),5	119,(4, 154),5	124,(4, 132),6	130,(4, 192),7	137,(5, 23),1	138,(11, 23),6	144,(5, 194),7	151,(4, 119),7	158,(11, 28),1	159,(5, 91),8	167,(11, 98),8	175,(5, 81),8	183,(11, 81),2	185,(5, 54),4	216,(11, 191),11	227,(11, 54),11	240,(4, 52),5	245,(11, 52),4	265,(4, 193),5	270,(11, 193),1	271,(11, 140),12	289,(4, 63),4	293,(11, 63),3	309,(5, 51),14	327,(4, 126),12	354,(4, 84),1	355,(5, 178),16	371,(5, 171),2	373,(4, 171),15	388,(5, 99),31	419,(4, 99),4	423,(4, 41),38	
15,(12, 62),3	18,(12, 44),1	19,(12, 55),1	20,(12, 156),1	21,(12, 53),1	22,(16, 145),1	23,(16, 127),1	24,(16, 172),1	25,(16, 60),4	29,(12, 25),5	34,(16, 196),4	38,(12, 27),6	44,(12, 154),4	48,(12, 132),2	50,(12, 140),1	54,(16, 61),1	60,(12, 78),3	63,(124, 201),1	67,(195, 201),1	68,(163, 201),1	69,(164, 201),1	70,(184, 201),1	71,(189, 201),1	72,(40, 201),1	75,(30, 201),1	76,(166, 201),1	123,(16, 59),9	132,(113, 201),1	145,(12, 133),10	155,(179, 201),1	158,(16, 51),1	185,(16, 162),10	195,(16, 153),10	205,(12, 74),11	227,(12, 160),11	238,(16, 52),2	249,(16, 64),11	260,(16, 193),5	283,(16, 63),6	296,(12, 190),10	306,(16, 190),3	323,(16, 126),4	339,(12, 84),15	354,(12, 151),13	367,(28, 201),1	368,(43, 201),1	461,(12, 134),76	560,(54, 201),1	
