23313
# CPU
57,2,33	113,4,33	169,6,33	225,8,33	281,10,33	337,12,33	20921,14,33	21001,16,33	21034,18,33	21067,20,33	21261,22,33	21294,24,33	21327,26,33	21381,28,33	21414,30,33	21589,32,33	21622,34,33	21655,36,33	21709,38,33	21742,40,33	21775,42,33	21813,44,33	21846,46,33	21879,48,33	21912,50,33	21945,52,33	21978,54,33	22041,56,33	22074,58,33	22107,60,33	22145,62,33	22181,64,33	22373,66,33	22406,68,33	22439,70,33	22472,72,33	22505,74,33	22538,76,33	22571,78,33	22604,80,33	22637,82,33	22670,84,33	22703,86,33	22736,88,33	22769,90,33	22809,92,33	22842,94,33	22875,96,33	22908,98,33	22941,100,33	22974,102,33	23007,104,33	23040,106,33	23073,108,33	23106,110,33	23139,112,33	23172,114,33	23205,116,33	23238,118,33	23271,120,33	
0,0,1	1,1,33	34,3,33	67,11,33	100,9,33	133,7,33	166,5,33	14482,13,33	16134,15,33	16167,17,33	16210,19,33	16246,21,33	16279,23,33	16312,25,33	16345,27,33	16378,29,33	16411,31,33	16444,33,33	16477,35,33	16510,37,33	16543,39,33	16582,41,33	16615,43,33	16648,45,33	16681,47,33	16714,49,33	17118,51,33	17151,53,33	17184,55,33	17217,57,33	17434,59,33	17467,61,33	17500,63,33	18178,65,33	18211,67,33	18478,69,33	18511,71,33	18544,73,33	18686,75,33	18719,77,33	18752,79,33	18785,81,33	18842,83,33	18875,85,33	18908,87,33	18941,89,33	18974,91,33	19007,93,33	19046,95,33	19122,97,33	19155,99,33	19230,101,33	19263,103,33	19296,105,33	19329,107,33	19362,109,33	19395,111,33	19428,113,33	19461,115,33	19494,117,33	19527,119,33	23312,121,1	
# Incoming
1,(0, 2),56	57,(0, 4),56	113,(0, 6),56	169,(0, 8),56	225,(0, 10),56	281,(0, 12),56	337,(1, 14),4	341,(1, 16),24	365,(1, 18),8	373,(1, 20),40	413,(1, 22),24	437,(1, 24),4	441,(1, 26),92	533,(1, 28),12	545,(1, 30),420	965,(1, 32),76	1041,(1, 34),112	1153,(1, 36),4	1157,(1, 38),32	1189,(1, 40),8	1197,(1, 42),44	1241,(1, 44),44	1285,(1, 46),4	1289,(1, 48),52	1341,(1, 50),4	1345,(1, 52),100	1445,(1, 54),56	1501,(1, 56),8	1509,(1, 58),4	1513,(1, 60),4	1517,(1, 62),120	1637,(1, 64),792	2429,(1, 66),16	2445,(1, 68),4	2449,(1, 70),4	2453,(1, 72),4	2457,(1, 74),4	2461,(1, 76),52	2513,(1, 78),56	2569,(1, 80),288	2857,(1, 82),112	2969,(1, 84),40	3009,(1, 86),64	3073,(1, 88),4	3077,(1, 90),4	3081,(1, 92),4	3085,(1, 94),180	3265,(1, 96),4	3269,(1, 98),36	3305,(1, 100),4	3309,(1, 102),12	3321,(1, 104),20	3341,(1, 106),24	3365,(1, 108),220	3585,(1, 110),4	3589,(1, 112),28	3617,(1, 114),8	3625,(1, 116),2304	5929,(1, 118),24	5953,(1, 120),4	5957,(3, 14),60	6017,(3, 16),24	6041,(3, 18),124	6165,(3, 20),12	6177,(3, 22),44	6221,(3, 24),96	6317,(3, 26),20	6337,(3, 28),148	6485,(3, 30),8	6493,(3, 32),20	6513,(3, 34),4	6517,(3, 36),16	6533,(3, 38),4	6537,(3, 40),116	6653,(3, 42),24	6677,(3, 44),12	6689,(3, 46),112	6801,(3, 48),52	6853,(3, 50),16	6869,(3, 52),48	6917,(3, 54),32	6949,(3, 56),48	6997,(3, 58),4	7001,(3, 60),8	7009,(3, 62),16	7025,(3, 64),20	7045,(3, 66),8	7053,(3, 68),1588	8641,(3, 70),20	8661,(3, 72),16	8677,(3, 74),20	8697,(3, 76),4	8701,(3, 78),36	8737,(3, 80),4	8741,(3, 82),4	8745,(3, 84),4	8749,(3, 86),4	8753,(3, 88),36	8789,(3, 90),12	8801,(3, 92),76	8877,(3, 94),4	8881,(3, 96),40	8921,(3, 98),8	8929,(3, 100),12	8941,(3, 102),20	8961,(3, 104),24	8985,(3, 106),4	8989,(3, 108),8	8997,(3, 110),8	9005,(3, 112),72	9077,(3, 114),120	9197,(3, 116),228	9425,(3, 118),36	9461,(3, 120),20	9481,(11, 14),12	9493,(11, 16),8	9501,(11, 18),232	9733,(11, 20),4	9737,(11, 22),4	9741,(11, 24),156	9897,(11, 26),28	9925,(11, 28),44	9969,(11, 30),64	10033,(11, 32),1500	11533,(11, 34),20	11553,(11, 36),4	11557,(11, 38),24	11581,(11, 40),12	11593,(11, 42),4	11597,(11, 44),4	11601,(11, 46),8	11609,(11, 48),4	11613,(11, 50),24	11637,(11, 52),4	11641,(11, 54),24	11665,(11, 56),4	11669,(11, 58),124	11793,(11, 60),48	11841,(11, 62),252	12093,(11, 64),712	12805,(11, 66),4	12809,(11, 68),144	12953,(11, 70),4	12957,(11, 72),24	12981,(11, 74),272	13253,(11, 76),224	13477,(11, 78),24	13501,(11, 80),4	13505,(11, 82),188	13693,(11, 84),8	13701,(11, 86),8	13709,(11, 88),8	13717,(11, 90),28	13745,(11, 92),4	13749,(11, 94),4	13753,(11, 96),80	13833,(11, 98),116	13949,(11, 100),8	13957,(11, 102),64	14021,(11, 104),4	14025,(11, 106),428	14453,(11, 108),28	14481,(11, 110),48	14529,(11, 112),4	14533,(11, 114),332	14865,(11, 116),4	14869,(11, 118),4	14873,(11, 120),60	14933,(9, 14),44	14977,(9, 16),780	15757,(9, 18),64	15821,(9, 20),12	15833,(9, 22),4	15837,(9, 24),640	16477,(9, 26),4	16481,(9, 28),136	16617,(9, 30),16	16633,(9, 32),16	16649,(9, 34),12	16661,(9, 36),12	16673,(9, 38),40	16713,(9, 40),4	16717,(9, 42),56	16773,(9, 44),8	16781,(9, 46),16	16797,(9, 48),96	16893,(9, 50),52	16945,(9, 52),12	16957,(9, 54),4	16961,(9, 56),4	16965,(9, 58),4	16969,(9, 60),4	16973,(9, 62),28	17001,(9, 64),16	17017,(9, 66),12	17029,(9, 68),4	17033,(9, 70),32	17065,(9, 72),452	17517,(9, 74),84	17601,(9, 76),4	17605,(9, 78),112	17717,(9, 80),16	17733,(9, 82),20	17753,(9, 84),28	17781,(9, 86),32	17813,(9, 88),4	17817,(9, 90),4	17821,(9, 92),24	17845,(9, 94),16	17861,(9, 96),308	18169,(9, 98),4	18173,(9, 100),64	18237,(9, 102),48	18285,(9, 104),12	18297,(9, 106),8	18305,(9, 108),12	18317,(9, 110),16	18333,(9, 112),80	18413,(9, 114),48	18461,(9, 116),280	18741,(9, 118),100	18841,(9, 120),12	18853,(7, 14),4	18857,(7, 16),160	19017,(7, 18),24	19041,(7, 20),4	19045,(7, 22),8	19053,(7, 24),4	19057,(7, 26),60	19117,(7, 28),4	19121,(7, 30),4	19125,(7, 32),104	19229,(7, 34),232	19461,(7, 36),60	19521,(7, 38),16	19537,(7, 40),4	19541,(7, 42),96	19637,(7, 44),36	19673,(7, 46),12	19685,(7, 48),16	19701,(7, 50),20	19721,(7, 52),60	19781,(7, 54),4	19785,(7, 56),52	19837,(7, 58),8	19845,(7, 60),4	19849,(7, 62),20	19869,(7, 64),192	20061,(7, 66),8	20069,(7, 68),20	20089,(7, 70),184	20273,(7, 72),28	20301,(7, 74),24	20325,(7, 76),36	20361,(7, 78),4	20365,(7, 80),16	20381,(7, 82),4	20385,(7, 84),24	20409,(7, 86),36	20445,(7, 88),4	20449,(7, 90),24	20473,(7, 92),24	20497,(7, 94),4	20501,(7, 96),4	20505,(7, 98),40	20545,(7, 100),4	20549,(7, 102),56	20605,(7, 104),48	20653,(7, 106),68	20721,(7, 108),8	20729,(7, 110),28	20757,(7, 112),24	20781,(7, 114),36	20817,(7, 116),8	20825,(7, 118),52	20877,(7, 120),20	20897,(5, 14),24	20921,(5, 16),80	21001,(5, 18),16	21017,(5, 20),28	21045,(5, 22),216	21261,(5, 24),4	21265,(5, 26),28	21293,(5, 28),88	21381,(5, 30),32	21413,(5, 32),176	21589,(5, 34),12	21601,(5, 36),4	21605,(5, 38),104	21709,(5, 40),4	21713,(5, 42),36	21749,(5, 44),64	21813,(5, 46),12	21825,(5, 48),4	21829,(5, 50),12	21841,(5, 52),16	21857,(5, 54),104	21961,(5, 56),80	22041,(5, 58),4	22045,(5, 60),36	22081,(5, 62),64	22145,(5, 64),36	22181,(5, 66),192	22373,(5, 68),4	22377,(5, 70),40	22417,(5, 72),16	22433,(5, 74),68	22501,(5, 76),4	22505,(5, 78),32	22537,(5, 80),24	22561,(5, 82),4	22565,(5, 84),4	22569,(5, 86),4	22573,(5, 88),8	22581,(5, 90),28	22609,(5, 92),200	22809,(5, 94),4	22813,(5, 96),4	22817,(5, 98),4	22821,(5, 100),28	22849,(5, 102),24	22873,(5, 104),96	22969,(5, 106),16	22985,(5, 108),48	23033,(5, 110),28	23061,(5, 112),44	23105,(5, 114),4	23109,(5, 116),4	23113,(5, 118),20	23133,(5, 120),4	
90,(2, 13),24	114,(2, 15),4	118,(2, 17),4	122,(2, 19),28	150,(2, 21),4	154,(2, 23),12	166,(2, 25),8	174,(2, 27),68	242,(2, 29),4	246,(2, 31),4	250,(2, 33),8	258,(2, 35),308	566,(2, 37),44	610,(2, 39),4	614,(2, 41),60	674,(2, 43),4	678,(2, 45),16	694,(2, 47),20	714,(2, 49),12	726,(2, 51),20	746,(2, 53),68	814,(2, 55),64	878,(2, 57),4	882,(2, 59),36	918,(2, 61),4	922,(2, 63),8	930,(2, 65),8	938,(2, 67),12	950,(2, 69),32	982,(2, 71),180	1162,(2, 73),8	1170,(2, 75),80	1250,(2, 77),4	1254,(2, 79),148	1402,(2, 81),8	1410,(2, 83),44	1454,(2, 85),4	1458,(2, 87),208	1666,(2, 89),20	1686,(2, 91),40	1726,(2, 93),56	1782,(2, 95),68	1850,(2, 97),16	1866,(2, 99),4	1870,(2, 101),8	1878,(2, 103),120	1998,(2, 105),44	2042,(2, 107),4	2046,(2, 109),4	2050,(2, 111),44	2094,(2, 113),4	2098,(2, 115),4	2102,(2, 117),152	2254,(2, 119),24	2278,(4, 13),4	2282,(4, 15),36	2318,(4, 17),4	2322,(4, 19),4	2326,(4, 21),4	2330,(4, 23),324	2654,(4, 25),4	2658,(4, 27),20	2678,(4, 29),8	2686,(4, 31),64	2750,(4, 33),64	2814,(4, 35),4	2818,(4, 37),12	2830,(4, 39),4	2834,(4, 41),32	2866,(4, 43),104	2970,(4, 45),8	2978,(4, 47),24	3002,(4, 49),32	3034,(4, 51),148	3182,(4, 53),16	3198,(4, 55),4	3202,(4, 57),8	3210,(4, 59),4	3214,(4, 61),8	3222,(4, 63),4	3226,(4, 65),180	3406,(4, 67),12	3418,(4, 69),12	3430,(4, 71),56	3486,(4, 73),88	3574,(4, 75),4	3578,(4, 77),20	3598,(4, 79),44	3642,(4, 81),12	3654,(4, 83),8	3662,(4, 85),12	3674,(4, 87),16	3690,(4, 89),4	3694,(4, 91),76	3770,(4, 93),104	3874,(4, 95),20	3894,(4, 97),4	3898,(4, 99),16	3914,(4, 101),4	3918,(4, 103),88	4006,(4, 105),12	4018,(4, 107),60	4078,(4, 109),4	4082,(4, 111),20	4102,(4, 113),4	4106,(4, 115),36	4142,(4, 117),4	4146,(4, 119),8	4154,(6, 13),4	4158,(6, 15),20	4178,(6, 17),4	4182,(6, 19),40	4222,(6, 21),8	4230,(6, 23),40	4270,(6, 25),36	4306,(6, 27),12	4318,(6, 29),4	4322,(6, 31),4	4326,(6, 33),120	4446,(6, 35),40	4486,(6, 37),152	4638,(6, 39),12	4650,(6, 41),44	4694,(6, 43),8	4702,(6, 45),76	4778,(6, 47),4	4782,(6, 49),4	4786,(6, 51),44	4830,(6, 53),24	4854,(6, 55),256	5110,(6, 57),200	5310,(6, 59),16	5326,(6, 61),204	5530,(6, 63),8	5538,(6, 65),16	5554,(6, 67),4	5558,(6, 69),76	5634,(6, 71),4	5638,(6, 73),8	5646,(6, 75),4	5650,(6, 77),8	5658,(6, 79),8	5666,(6, 81),40	5706,(6, 83),8	5714,(6, 85),752	6466,(6, 87),100	6566,(6, 89),4	6570,(6, 91),8	6578,(6, 93),8	6586,(6, 95),4	6590,(6, 97),420	7010,(6, 99),24	7034,(6, 101),8	7042,(6, 103),12	7054,(6, 105),24	7078,(6, 107),88	7166,(6, 109),4	7170,(6, 111),28	7198,(6, 113),4	7202,(6, 115),16	7218,(6, 117),4	7222,(6, 119),4	7226,(8, 13),20	7246,(8, 15),8	7254,(8, 17),4	7258,(8, 19),4	7262,(8, 21),28	7290,(8, 23),32	7322,(8, 25),4	7326,(8, 27),4	7330,(8, 29),4	7334,(8, 31),8	7342,(8, 33),8	7350,(8, 35),20	7370,(8, 37),40	7410,(8, 39),44	7454,(8, 41),4	7458,(8, 43),16	7474,(8, 45),40	7514,(8, 47),4	7518,(8, 49),28	7546,(8, 51),36	7582,(8, 53),4	7586,(8, 55),4	7590,(8, 57),384	7974,(8, 59),44	8018,(8, 61),4	8022,(8, 63),4	8026,(8, 65),56	8082,(8, 67),36	8118,(8, 69),28	8146,(8, 71),28	8174,(8, 73),16	8190,(8, 75),4	8194,(8, 77),112	8306,(8, 79),4	8310,(8, 81),12	8322,(8, 83),56	8378,(8, 85),44	8422,(8, 87),4	8426,(8, 89),12	8438,(8, 91),12	8450,(8, 93),1512	9962,(8, 95),28	9990,(8, 97),76	10066,(8, 99),8	10074,(8, 101),4	10078,(8, 103),4	10082,(8, 105),4	10086,(8, 107),8	10094,(8, 109),260	10354,(8, 111),16	10370,(8, 113),120	10490,(8, 115),112	10602,(8, 117),48	10650,(8, 119),128	10778,(10, 13),12	10790,(10, 15),8	10798,(10, 17),40	10838,(10, 19),8	10846,(10, 21),584	11430,(10, 23),648	12078,(10, 25),104	12182,(10, 27),16	12198,(10, 29),104	12302,(10, 31),16	12318,(10, 33),140	12458,(10, 35),44	12502,(10, 37),120	12622,(10, 39),12	12634,(10, 41),136	12770,(10, 43),16	12786,(10, 45),4	12790,(10, 47),8	12798,(10, 49),12	12810,(10, 51),4	12814,(10, 53),4	12818,(10, 55),4	12822,(10, 57),16	12838,(10, 59),160	12998,(10, 61),32	13030,(10, 63),4	13034,(10, 65),308	13342,(10, 67),16	13358,(10, 69),8	13366,(10, 71),4	13370,(10, 73),32	13402,(10, 75),4	13406,(10, 77),64	13470,(10, 79),16	13486,(10, 81),12	13498,(10, 83),4	13502,(10, 85),444	13946,(10, 87),4	13950,(10, 89),16	13966,(10, 91),20	13986,(10, 93),4	13990,(10, 95),76	14066,(10, 97),32	14098,(10, 99),4	14102,(10, 101),20	14122,(10, 103),24	14146,(10, 105),88	14234,(10, 107),16	14250,(10, 109),52	14302,(10, 111),12	14314,(10, 113),72	14386,(10, 115),4	14390,(10, 117),72	14462,(10, 119),4	14466,(12, 13),16	14482,(12, 15),1652	16134,(12, 17),16	16150,(12, 19),60	16210,(12, 21),36	16246,(12, 23),4	16250,(12, 25),20	16270,(12, 27),4	16274,(12, 29),28	16302,(12, 31),4	16306,(12, 33),4	16310,(12, 35),4	16314,(12, 37),4	16318,(12, 39),4	16322,(12, 41),260	16582,(12, 43),4	16586,(12, 45),28	16614,(12, 47),20	16634,(12, 49),36	16670,(12, 51),448	17118,(12, 53),4	17122,(12, 55),28	17150,(12, 57),4	17154,(12, 59),280	17434,(12, 61),12	17446,(12, 63),4	17450,(12, 65),728	18178,(12, 67),4	18182,(12, 69),296	18478,(12, 71),16	18494,(12, 73),4	18498,(12, 75),188	18686,(12, 77),4	18690,(12, 79),48	18738,(12, 81),12	18750,(12, 83),92	18842,(12, 85),8	18850,(12, 87),8	18858,(12, 89),4	18862,(12, 91),80	18942,(12, 93),60	19002,(12, 95),44	19046,(12, 97),76	19122,(12, 99),4	19126,(12, 101),104	19230,(12, 103),8	19238,(12, 105),8	19246,(12, 107),8	19254,(12, 109),4	19258,(12, 111),36	19294,(12, 113),68	19362,(12, 115),48	19410,(12, 117),12	19422,(12, 119),16	20954,(14, 121),8	21034,(16, 121),8	21067,(18, 121),8	21100,(20, 121),8	21294,(22, 121),8	21327,(24, 121),8	21360,(26, 121),8	21414,(28, 121),8	21447,(30, 121),8	21622,(32, 121),8	21655,(34, 121),8	21688,(36, 121),8	21742,(38, 121),8	21775,(40, 121),8	21808,(42, 121),8	21846,(44, 121),8	21879,(46, 121),8	21912,(48, 121),8	21945,(50, 121),8	21978,(52, 121),8	22011,(54, 121),8	22074,(56, 121),8	22107,(58, 121),8	22140,(60, 121),8	22178,(62, 121),8	22214,(64, 121),8	22406,(66, 121),8	22439,(68, 121),8	22472,(70, 121),8	22505,(72, 121),8	22538,(74, 121),8	22571,(76, 121),8	22604,(78, 121),8	22637,(80, 121),8	22670,(82, 121),8	22703,(84, 121),8	22736,(86, 121),8	22769,(88, 121),8	22802,(90, 121),8	22842,(92, 121),8	22875,(94, 121),8	22908,(96, 121),8	22941,(98, 121),8	22974,(100, 121),8	23007,(102, 121),8	23040,(104, 121),8	23073,(106, 121),8	23106,(108, 121),8	23139,(110, 121),8	23172,(112, 121),8	23205,(114, 121),8	23238,(116, 121),8	23271,(118, 121),8	23304,(120, 121),8	
# Outgoing
90,(2, 13),24	114,(2, 15),4	118,(2, 17),4	122,(2, 19),28	150,(2, 21),4	154,(2, 23),12	166,(2, 25),8	174,(2, 27),68	242,(2, 29),4	246,(2, 31),4	250,(2, 33),8	258,(2, 35),308	566,(2, 37),44	610,(2, 39),4	614,(2, 41),60	674,(2, 43),4	678,(2, 45),16	694,(2, 47),20	714,(2, 49),12	726,(2, 51),20	746,(2, 53),68	814,(2, 55),64	878,(2, 57),4	882,(2, 59),36	918,(2, 61),4	922,(2, 63),8	930,(2, 65),8	938,(2, 67),12	950,(2, 69),32	982,(2, 71),180	1162,(2, 73),8	1170,(2, 75),80	1250,(2, 77),4	1254,(2, 79),148	1402,(2, 81),8	1410,(2, 83),44	1454,(2, 85),4	1458,(2, 87),208	1666,(2, 89),20	1686,(2, 91),40	1726,(2, 93),56	1782,(2, 95),68	1850,(2, 97),16	1866,(2, 99),4	1870,(2, 101),8	1878,(2, 103),120	1998,(2, 105),44	2042,(2, 107),4	2046,(2, 109),4	2050,(2, 111),44	2094,(2, 113),4	2098,(2, 115),4	2102,(2, 117),152	2254,(2, 119),24	2278,(4, 13),4	2282,(4, 15),36	2318,(4, 17),4	2322,(4, 19),4	2326,(4, 21),4	2330,(4, 23),324	2654,(4, 25),4	2658,(4, 27),20	2678,(4, 29),8	2686,(4, 31),64	2750,(4, 33),64	2814,(4, 35),4	2818,(4, 37),12	2830,(4, 39),4	2834,(4, 41),32	2866,(4, 43),104	2970,(4, 45),8	2978,(4, 47),24	3002,(4, 49),32	3034,(4, 51),148	3182,(4, 53),16	3198,(4, 55),4	3202,(4, 57),8	3210,(4, 59),4	3214,(4, 61),8	3222,(4, 63),4	3226,(4, 65),180	3406,(4, 67),12	3418,(4, 69),12	3430,(4, 71),56	3486,(4, 73),88	3574,(4, 75),4	3578,(4, 77),20	3598,(4, 79),44	3642,(4, 81),12	3654,(4, 83),8	3662,(4, 85),12	3674,(4, 87),16	3690,(4, 89),4	3694,(4, 91),76	3770,(4, 93),104	3874,(4, 95),20	3894,(4, 97),4	3898,(4, 99),16	3914,(4, 101),4	3918,(4, 103),88	4006,(4, 105),12	4018,(4, 107),60	4078,(4, 109),4	4082,(4, 111),20	4102,(4, 113),4	4106,(4, 115),36	4142,(4, 117),4	4146,(4, 119),8	4154,(6, 13),4	4158,(6, 15),20	4178,(6, 17),4	4182,(6, 19),40	4222,(6, 21),8	4230,(6, 23),40	4270,(6, 25),36	4306,(6, 27),12	4318,(6, 29),4	4322,(6, 31),4	4326,(6, 33),120	4446,(6, 35),40	4486,(6, 37),152	4638,(6, 39),12	4650,(6, 41),44	4694,(6, 43),8	4702,(6, 45),76	4778,(6, 47),4	4782,(6, 49),4	4786,(6, 51),44	4830,(6, 53),24	4854,(6, 55),256	5110,(6, 57),200	5310,(6, 59),16	5326,(6, 61),204	5530,(6, 63),8	5538,(6, 65),16	5554,(6, 67),4	5558,(6, 69),76	5634,(6, 71),4	5638,(6, 73),8	5646,(6, 75),4	5650,(6, 77),8	5658,(6, 79),8	5666,(6, 81),40	5706,(6, 83),8	5714,(6, 85),752	6466,(6, 87),100	6566,(6, 89),4	6570,(6, 91),8	6578,(6, 93),8	6586,(6, 95),4	6590,(6, 97),420	7010,(6, 99),24	7034,(6, 101),8	7042,(6, 103),12	7054,(6, 105),24	7078,(6, 107),88	7166,(6, 109),4	7170,(6, 111),28	7198,(6, 113),4	7202,(6, 115),16	7218,(6, 117),4	7222,(6, 119),4	7226,(8, 13),20	7246,(8, 15),8	7254,(8, 17),4	7258,(8, 19),4	7262,(8, 21),28	7290,(8, 23),32	7322,(8, 25),4	7326,(8, 27),4	7330,(8, 29),4	7334,(8, 31),8	7342,(8, 33),8	7350,(8, 35),20	7370,(8, 37),40	7410,(8, 39),44	7454,(8, 41),4	7458,(8, 43),16	7474,(8, 45),40	7514,(8, 47),4	7518,(8, 49),28	7546,(8, 51),36	7582,(8, 53),4	7586,(8, 55),4	7590,(8, 57),384	7974,(8, 59),44	8018,(8, 61),4	8022,(8, 63),4	8026,(8, 65),56	8082,(8, 67),36	8118,(8, 69),28	8146,(8, 71),28	8174,(8, 73),16	8190,(8, 75),4	8194,(8, 77),112	8306,(8, 79),4	8310,(8, 81),12	8322,(8, 83),56	8378,(8, 85),44	8422,(8, 87),4	8426,(8, 89),12	8438,(8, 91),12	8450,(8, 93),1512	9962,(8, 95),28	9990,(8, 97),76	10066,(8, 99),8	10074,(8, 101),4	10078,(8, 103),4	10082,(8, 105),4	10086,(8, 107),8	10094,(8, 109),260	10354,(8, 111),16	10370,(8, 113),120	10490,(8, 115),112	10602,(8, 117),48	10650,(8, 119),128	10778,(10, 13),12	10790,(10, 15),8	10798,(10, 17),40	10838,(10, 19),8	10846,(10, 21),584	11430,(10, 23),648	12078,(10, 25),104	12182,(10, 27),16	12198,(10, 29),104	12302,(10, 31),16	12318,(10, 33),140	12458,(10, 35),44	12502,(10, 37),120	12622,(10, 39),12	12634,(10, 41),136	12770,(10, 43),16	12786,(10, 45),4	12790,(10, 47),8	12798,(10, 49),12	12810,(10, 51),4	12814,(10, 53),4	12818,(10, 55),4	12822,(10, 57),16	12838,(10, 59),160	12998,(10, 61),32	13030,(10, 63),4	13034,(10, 65),308	13342,(10, 67),16	13358,(10, 69),8	13366,(10, 71),4	13370,(10, 73),32	13402,(10, 75),4	13406,(10, 77),64	13470,(10, 79),16	13486,(10, 81),12	13498,(10, 83),4	13502,(10, 85),444	13946,(10, 87),4	13950,(10, 89),16	13966,(10, 91),20	13986,(10, 93),4	13990,(10, 95),76	14066,(10, 97),32	14098,(10, 99),4	14102,(10, 101),20	14122,(10, 103),24	14146,(10, 105),88	14234,(10, 107),16	14250,(10, 109),52	14302,(10, 111),12	14314,(10, 113),72	14386,(10, 115),4	14390,(10, 117),72	14462,(10, 119),4	14466,(12, 13),16	14482,(12, 15),1652	16134,(12, 17),16	16150,(12, 19),60	16210,(12, 21),36	16246,(12, 23),4	16250,(12, 25),20	16270,(12, 27),4	16274,(12, 29),28	16302,(12, 31),4	16306,(12, 33),4	16310,(12, 35),4	16314,(12, 37),4	16318,(12, 39),4	16322,(12, 41),260	16582,(12, 43),4	16586,(12, 45),28	16614,(12, 47),20	16634,(12, 49),36	16670,(12, 51),448	17118,(12, 53),4	17122,(12, 55),28	17150,(12, 57),4	17154,(12, 59),280	17434,(12, 61),12	17446,(12, 63),4	17450,(12, 65),728	18178,(12, 67),4	18182,(12, 69),296	18478,(12, 71),16	18494,(12, 73),4	18498,(12, 75),188	18686,(12, 77),4	18690,(12, 79),48	18738,(12, 81),12	18750,(12, 83),92	18842,(12, 85),8	18850,(12, 87),8	18858,(12, 89),4	18862,(12, 91),80	18942,(12, 93),60	19002,(12, 95),44	19046,(12, 97),76	19122,(12, 99),4	19126,(12, 101),104	19230,(12, 103),8	19238,(12, 105),8	19246,(12, 107),8	19254,(12, 109),4	19258,(12, 111),36	19294,(12, 113),68	19362,(12, 115),48	19410,(12, 117),12	19422,(12, 119),16	20954,(14, 121),8	21034,(16, 121),8	21067,(18, 121),8	21100,(20, 121),8	21294,(22, 121),8	21327,(24, 121),8	21360,(26, 121),8	21414,(28, 121),8	21447,(30, 121),8	21622,(32, 121),8	21655,(34, 121),8	21688,(36, 121),8	21742,(38, 121),8	21775,(40, 121),8	21808,(42, 121),8	21846,(44, 121),8	21879,(46, 121),8	21912,(48, 121),8	21945,(50, 121),8	21978,(52, 121),8	22011,(54, 121),8	22074,(56, 121),8	22107,(58, 121),8	22140,(60, 121),8	22178,(62, 121),8	22214,(64, 121),8	22406,(66, 121),8	22439,(68, 121),8	22472,(70, 121),8	22505,(72, 121),8	22538,(74, 121),8	22571,(76, 121),8	22604,(78, 121),8	22637,(80, 121),8	22670,(82, 121),8	22703,(84, 121),8	22736,(86, 121),8	22769,(88, 121),8	22802,(90, 121),8	22842,(92, 121),8	22875,(94, 121),8	22908,(96, 121),8	22941,(98, 121),8	22974,(100, 121),8	23007,(102, 121),8	23040,(104, 121),8	23073,(106, 121),8	23106,(108, 121),8	23139,(110, 121),8	23172,(112, 121),8	23205,(114, 121),8	23238,(116, 121),8	23271,(118, 121),8	23304,(120, 121),8	
1,(0, 2),56	57,(0, 4),56	113,(0, 6),56	169,(0, 8),56	225,(0, 10),56	281,(0, 12),56	337,(1, 14),4	341,(1, 16),24	365,(1, 18),8	373,(1, 20),40	413,(1, 22),24	437,(1, 24),4	441,(1, 26),92	533,(1, 28),12	545,(1, 30),420	965,(1, 32),76	1041,(1, 34),112	1153,(1, 36),4	1157,(1, 38),32	1189,(1, 40),8	1197,(1, 42),44	1241,(1, 44),44	1285,(1, 46),4	1289,(1, 48),52	1341,(1, 50),4	1345,(1, 52),100	1445,(1, 54),56	1501,(1, 56),8	1509,(1, 58),4	1513,(1, 60),4	1517,(1, 62),120	1637,(1, 64),792	2429,(1, 66),16	2445,(1, 68),4	2449,(1, 70),4	2453,(1, 72),4	2457,(1, 74),4	2461,(1, 76),52	2513,(1, 78),56	2569,(1, 80),288	2857,(1, 82),112	2969,(1, 84),40	3009,(1, 86),64	3073,(1, 88),4	3077,(1, 90),4	3081,(1, 92),4	3085,(1, 94),180	3265,(1, 96),4	3269,(1, 98),36	3305,(1, 100),4	3309,(1, 102),12	3321,(1, 104),20	3341,(1, 106),24	3365,(1, 108),220	3585,(1, 110),4	3589,(1, 112),28	3617,(1, 114),8	3625,(1, 116),2304	5929,(1, 118),24	5953,(1, 120),4	5957,(3, 14),60	6017,(3, 16),24	6041,(3, 18),124	6165,(3, 20),12	6177,(3, 22),44	6221,(3, 24),96	6317,(3, 26),20	6337,(3, 28),148	6485,(3, 30),8	6493,(3, 32),20	6513,(3, 34),4	6517,(3, 36),16	6533,(3, 38),4	6537,(3, 40),116	6653,(3, 42),24	6677,(3, 44),12	6689,(3, 46),112	6801,(3, 48),52	6853,(3, 50),16	6869,(3, 52),48	6917,(3, 54),32	6949,(3, 56),48	6997,(3, 58),4	7001,(3, 60),8	7009,(3, 62),16	7025,(3, 64),20	7045,(3, 66),8	7053,(3, 68),1588	8641,(3, 70),20	8661,(3, 72),16	8677,(3, 74),20	8697,(3, 76),4	8701,(3, 78),36	8737,(3, 80),4	8741,(3, 82),4	8745,(3, 84),4	8749,(3, 86),4	8753,(3, 88),36	8789,(3, 90),12	8801,(3, 92),76	8877,(3, 94),4	8881,(3, 96),40	8921,(3, 98),8	8929,(3, 100),12	8941,(3, 102),20	8961,(3, 104),24	8985,(3, 106),4	8989,(3, 108),8	8997,(3, 110),8	9005,(3, 112),72	9077,(3, 114),120	9197,(3, 116),228	9425,(3, 118),36	9461,(3, 120),20	9481,(11, 14),12	9493,(11, 16),8	9501,(11, 18),232	9733,(11, 20),4	9737,(11, 22),4	9741,(11, 24),156	9897,(11, 26),28	9925,(11, 28),44	9969,(11, 30),64	10033,(11, 32),1500	11533,(11, 34),20	11553,(11, 36),4	11557,(11, 38),24	11581,(11, 40),12	11593,(11, 42),4	11597,(11, 44),4	11601,(11, 46),8	11609,(11, 48),4	11613,(11, 50),24	11637,(11, 52),4	11641,(11, 54),24	11665,(11, 56),4	11669,(11, 58),124	11793,(11, 60),48	11841,(11, 62),252	12093,(11, 64),712	12805,(11, 66),4	12809,(11, 68),144	12953,(11, 70),4	12957,(11, 72),24	12981,(11, 74),272	13253,(11, 76),224	13477,(11, 78),24	13501,(11, 80),4	13505,(11, 82),188	13693,(11, 84),8	13701,(11, 86),8	13709,(11, 88),8	13717,(11, 90),28	13745,(11, 92),4	13749,(11, 94),4	13753,(11, 96),80	13833,(11, 98),116	13949,(11, 100),8	13957,(11, 102),64	14021,(11, 104),4	14025,(11, 106),428	14453,(11, 108),28	14481,(11, 110),48	14529,(11, 112),4	14533,(11, 114),332	14865,(11, 116),4	14869,(11, 118),4	14873,(11, 120),60	14933,(9, 14),44	14977,(9, 16),780	15757,(9, 18),64	15821,(9, 20),12	15833,(9, 22),4	15837,(9, 24),640	16477,(9, 26),4	16481,(9, 28),136	16617,(9, 30),16	16633,(9, 32),16	16649,(9, 34),12	16661,(9, 36),12	16673,(9, 38),40	16713,(9, 40),4	16717,(9, 42),56	16773,(9, 44),8	16781,(9, 46),16	16797,(9, 48),96	16893,(9, 50),52	16945,(9, 52),12	16957,(9, 54),4	16961,(9, 56),4	16965,(9, 58),4	16969,(9, 60),4	16973,(9, 62),28	17001,(9, 64),16	17017,(9, 66),12	17029,(9, 68),4	17033,(9, 70),32	17065,(9, 72),452	17517,(9, 74),84	17601,(9, 76),4	17605,(9, 78),112	17717,(9, 80),16	17733,(9, 82),20	17753,(9, 84),28	17781,(9, 86),32	17813,(9, 88),4	17817,(9, 90),4	17821,(9, 92),24	17845,(9, 94),16	17861,(9, 96),308	18169,(9, 98),4	18173,(9, 100),64	18237,(9, 102),48	18285,(9, 104),12	18297,(9, 106),8	18305,(9, 108),12	18317,(9, 110),16	18333,(9, 112),80	18413,(9, 114),48	18461,(9, 116),280	18741,(9, 118),100	18841,(9, 120),12	18853,(7, 14),4	18857,(7, 16),160	19017,(7, 18),24	19041,(7, 20),4	19045,(7, 22),8	19053,(7, 24),4	19057,(7, 26),60	19117,(7, 28),4	19121,(7, 30),4	19125,(7, 32),104	19229,(7, 34),232	19461,(7, 36),60	19521,(7, 38),16	19537,(7, 40),4	19541,(7, 42),96	19637,(7, 44),36	19673,(7, 46),12	19685,(7, 48),16	19701,(7, 50),20	19721,(7, 52),60	19781,(7, 54),4	19785,(7, 56),52	19837,(7, 58),8	19845,(7, 60),4	19849,(7, 62),20	19869,(7, 64),192	20061,(7, 66),8	20069,(7, 68),20	20089,(7, 70),184	20273,(7, 72),28	20301,(7, 74),24	20325,(7, 76),36	20361,(7, 78),4	20365,(7, 80),16	20381,(7, 82),4	20385,(7, 84),24	20409,(7, 86),36	20445,(7, 88),4	20449,(7, 90),24	20473,(7, 92),24	20497,(7, 94),4	20501,(7, 96),4	20505,(7, 98),40	20545,(7, 100),4	20549,(7, 102),56	20605,(7, 104),48	20653,(7, 106),68	20721,(7, 108),8	20729,(7, 110),28	20757,(7, 112),24	20781,(7, 114),36	20817,(7, 116),8	20825,(7, 118),52	20877,(7, 120),20	20897,(5, 14),24	20921,(5, 16),80	21001,(5, 18),16	21017,(5, 20),28	21045,(5, 22),216	21261,(5, 24),4	21265,(5, 26),28	21293,(5, 28),88	21381,(5, 30),32	21413,(5, 32),176	21589,(5, 34),12	21601,(5, 36),4	21605,(5, 38),104	21709,(5, 40),4	21713,(5, 42),36	21749,(5, 44),64	21813,(5, 46),12	21825,(5, 48),4	21829,(5, 50),12	21841,(5, 52),16	21857,(5, 54),104	21961,(5, 56),80	22041,(5, 58),4	22045,(5, 60),36	22081,(5, 62),64	22145,(5, 64),36	22181,(5, 66),192	22373,(5, 68),4	22377,(5, 70),40	22417,(5, 72),16	22433,(5, 74),68	22501,(5, 76),4	22505,(5, 78),32	22537,(5, 80),24	22561,(5, 82),4	22565,(5, 84),4	22569,(5, 86),4	22573,(5, 88),8	22581,(5, 90),28	22609,(5, 92),200	22809,(5, 94),4	22813,(5, 96),4	22817,(5, 98),4	22821,(5, 100),28	22849,(5, 102),24	22873,(5, 104),96	22969,(5, 106),16	22985,(5, 108),48	23033,(5, 110),28	23061,(5, 112),44	23105,(5, 114),4	23109,(5, 116),4	23113,(5, 118),20	23133,(5, 120),4	
