23108
# CPU
5305,126,1	10942,46,1	11059,54,1	11881,144,1	12718,98,1	13060,105,1	13585,194,1	13687,45,1	14074,114,1	14104,151,1	14413,186,1	15004,188,1	15445,51,1	15553,63,1	16117,92,1	18154,72,1	18199,86,1	18241,129,1	18280,148,1	18394,185,1	18439,191,1	18577,23,1	18610,44,1	18643,48,1	18817,73,1	19198,170,1	19228,171,1	19258,177,1	19402,190,1	19984,69,1	20014,70,1	20050,93,1	20080,150,1	20206,29,1	20263,75,1	20488,55,1	20527,85,1	20536,95,1	20566,100,1	20689,125,1	20716,174,1	20737,180,1	20761,189,1	20776,193,1	20800,196,1	20848,22,1	20869,56,1	21088,64,1	21265,115,1	21394,136,1	21403,157,1	21646,164,1	21733,176,1	21760,181,1	21940,25,1	21982,34,1	21994,60,1	22015,79,1	22105,88,1	22165,107,1	22198,108,1	22213,127,1	22219,132,1	22297,143,1	22354,153,1	22357,156,1	22360,159,1	22363,168,1	22426,172,1	22441,182,1	22447,195,1	23107,201,1	
0,0,1	1,8,1	2,17,1	3,5,1	4,12,1	5,2,1	6,15,1	7,13,1	8,122,1	9,192,1	10,198,1	11,43,1	12,103,1	13,37,1	14,94,1	15,162,1	16,47,1	17,149,1	18,109,1	79,32,1	109,106,1	115,130,1	139,137,1	148,187,1	157,77,1	160,134,1	178,41,1	211,28,1	223,120,1	256,154,1	274,31,1	280,38,1	283,104,1	301,131,1	310,116,1	371,81,1	401,112,1	404,146,1	407,167,1	499,99,1	520,139,1	523,140,1	526,142,1	535,160,1	
34,1,1	35,90,1	100,4,1	101,178,1	102,183,1	166,7,1	167,50,1	168,57,1	169,97,1	196,102,1	265,11,1	266,82,1	267,118,1	298,14,1	301,59,1	364,18,1	365,66,1	366,117,1	430,20,1	431,61,1	454,27,1	457,40,1	475,111,1	490,145,1	721,58,1	6778,76,1	6781,89,1	7549,152,1	7999,200,1	8854,124,1	9136,175,1	9355,39,1	10624,42,1	10945,49,1	10969,110,1	10975,135,1	10990,141,1	11059,21,1	11785,128,1	12160,158,1	12538,121,1	12541,138,1	12574,173,1	12718,199,1	
67,3,1	133,6,1	199,9,1	200,71,1	201,84,1	232,10,1	233,36,1	234,87,1	235,74,1	238,147,1	253,161,1	256,165,1	280,123,1	331,16,1	332,30,1	333,179,1	334,33,1	335,65,1	336,169,1	397,19,1	398,53,1	399,78,1	400,52,1	401,67,1	402,68,1	403,24,1	404,80,1	406,163,1	442,26,1	496,91,1	529,155,1	538,197,1	5329,166,1	6784,101,1	6796,119,1	8002,35,1	8005,62,1	8842,113,1	10138,96,1	10957,83,1	11800,133,1	12250,184,1	
# Incoming
430,(8, 23),3	433,(1, 132),27	460,(8, 54),177	637,(8, 56),81	718,(1, 177),3	721,(8, 85),54	775,(8, 88),3	778,(8, 95),75	853,(8, 98),93	946,(8, 100),369	1315,(8, 115),24	1339,(8, 125),3900	5239,(8, 126),66	5305,(1, 136),21	5326,(1, 181),3	5329,(8, 170),39	5368,(3, 63),3	5371,(8, 186),6	5377,(8, 188),75	5452,(8, 194),6	5458,(17, 23),21	5479,(17, 46),3	5482,(17, 60),15	5497,(1, 150),6	5503,(4, 44),3	5506,(4, 98),3	5509,(17, 64),6	5515,(17, 69),1245	6760,(17, 70),12	6772,(90, 201),15	6787,(3, 46),9	6796,(17, 150),750	7546,(6, 72),3	7549,(17, 157),45	7594,(17, 164),3	7597,(17, 168),6	7603,(17, 172),81	7684,(17, 174),93	7777,(17, 182),24	7801,(17, 185),3	7804,(17, 186),15	7819,(17, 193),9	7828,(17, 194),51	7879,(17, 195),117	7996,(3, 151),9	8005,(5, 88),561	8566,(5, 92),102	8668,(5, 93),66	8734,(5, 100),3	8737,(5, 107),93	8830,(3, 176),9	8839,(4, 107),6	8845,(4, 153),6	8851,(6, 114),3	8854,(5, 129),3	8857,(5, 144),21	8878,(5, 153),66	8944,(5, 156),63	9007,(7, 92),3	9010,(7, 108),3	9013,(5, 159),33	9046,(5, 164),30	9076,(5, 174),54	9130,(9, 125),3	9133,(9, 153),3	9136,(5, 177),12	9148,(5, 181),33	9181,(12, 22),27	9208,(12, 23),45	9253,(12, 25),72	9325,(12, 29),18	9343,(178, 201),15	9358,(9, 182),3	9361,(9, 193),3	9364,(12, 46),144	9508,(12, 54),15	9523,(12, 55),558	10081,(12, 63),3	10084,(12, 73),36	10120,(12, 92),3	10123,(12, 95),6	10129,(7, 93),9	10138,(12, 105),57	10195,(12, 127),9	10204,(12, 148),189	10393,(12, 157),153	10546,(12, 171),3	10549,(12, 177),24	10573,(12, 190),36	10609,(2, 29),12	10621,(10, 114),3	10624,(2, 44),3	10627,(2, 45),276	10903,(2, 46),39	10942,(183, 201),15	10957,(2, 105),3	10960,(50, 201),15	10975,(2, 136),9	10984,(10, 29),6	10990,(2, 144),39	11029,(2, 174),3	11032,(2, 180),3	11035,(2, 189),18	11053,(11, 54),6	11059,(15, 25),12	11071,(15, 51),84	11155,(15, 63),189	11344,(15, 64),147	11491,(15, 88),81	11572,(15, 95),3	11575,(15, 100),15	11590,(15, 105),3	11593,(15, 114),180	11773,(15, 115),6	11779,(15, 125),3	11782,(57, 201),15	11797,(11, 63),3	11800,(15, 144),81	11881,(15, 151),258	12139,(6, 23),21	12160,(15, 174),84	12244,(14, 190),3	12247,(16, 23),3	12250,(15, 185),153	12403,(15, 186),48	12451,(13, 22),42	12493,(13, 23),3	12496,(13, 25),12	12508,(13, 34),6	12514,(13, 45),3	12517,(13, 93),6	12523,(13, 95),12	12535,(16, 86),3	12538,(16, 98),3	12541,(13, 168),24	12565,(13, 172),6	12571,(18, 79),3	12574,(13, 176),3	12577,(13, 180),27	12604,(13, 185),60	12664,(13, 196),51	12715,(18, 98),3	12718,(122, 201),15	12733,(192, 201),15	12748,(198, 201),15	12763,(43, 201),15	12778,(103, 201),15	12793,(37, 201),15	12808,(94, 201),15	12823,(162, 201),15	12838,(47, 201),15	12853,(149, 201),15	12868,(109, 201),15	12883,(1, 85),117	13000,(1, 105),60	13060,(1, 174),42	13102,(1, 182),36	13138,(3, 48),45	13183,(3, 51),114	13297,(3, 108),57	13354,(3, 114),36	13390,(3, 115),45	13435,(3, 127),42	13477,(3, 150),51	13528,(3, 194),57	13585,(32, 201),15	13600,(4, 34),45	13645,(4, 45),42	13687,(4, 56),84	13771,(4, 60),24	13795,(4, 64),78	13873,(4, 73),141	14014,(4, 86),36	14050,(4, 114),24	14074,(4, 151),30	14104,(4, 168),105	14209,(4, 176),150	14359,(4, 186),54	14413,(106, 201),15	14428,(130, 201),15	14443,(6, 95),21	14464,(6, 143),30	14494,(6, 168),54	14548,(6, 171),24	14572,(6, 182),48	14620,(6, 196),21	14641,(137, 201),15	14656,(187, 201),15	14671,(77, 201),15	14686,(134, 201),15	14701,(7, 72),219	14920,(7, 125),24	14944,(7, 170),39	14983,(7, 188),21	15004,(7, 189),24	15028,(7, 190),348	15376,(97, 201),15	15391,(41, 201),15	15406,(102, 201),15	15421,(9, 48),15	15436,(9, 51),9	15445,(9, 63),108	15553,(9, 70),531	16084,(9, 92),33	16117,(9, 93),9	16126,(9, 100),699	16825,(9, 108),153	16978,(9, 115),54	17032,(9, 129),276	17308,(9, 132),393	17701,(9, 136),39	17740,(9, 148),12	17752,(9, 159),42	17794,(9, 191),75	17869,(71, 201),15	17884,(84, 201),15	17899,(28, 201),15	17914,(120, 201),15	17929,(10, 44),33	17962,(10, 64),72	18034,(10, 72),120	18154,(10, 79),21	18175,(10, 86),24	18199,(10, 129),42	18241,(10, 148),39	18280,(10, 156),21	18301,(10, 172),57	18358,(10, 185),36	18394,(10, 191),45	18439,(36, 201),15	18454,(87, 201),15	18469,(74, 201),15	18484,(147, 201),15	18499,(161, 201),15	18514,(154, 201),15	18529,(165, 201),15	18544,(11, 22),24	18568,(11, 23),9	18577,(11, 44),33	18610,(11, 48),33	18643,(11, 55),54	18697,(11, 60),99	18796,(11, 73),21	18817,(11, 75),30	18847,(11, 127),132	18979,(11, 136),99	19078,(11, 157),87	19165,(11, 170),33	19198,(11, 171),30	19228,(11, 177),30	19258,(11, 180),105	19363,(11, 181),27	19390,(11, 190),12	19402,(11, 193),102	19504,(11, 195),9	19513,(82, 201),15	19528,(118, 201),15	19543,(31, 201),15	19558,(38, 201),15	19573,(123, 201),15	19588,(104, 201),15	19603,(14, 29),69	19672,(14, 56),33	19705,(14, 60),15	19720,(14, 69),264	19984,(14, 70),30	20014,(14, 93),36	20050,(14, 150),30	20080,(14, 193),21	20101,(131, 201),15	20116,(59, 201),15	20131,(116, 201),15	20146,(16, 25),36	20182,(16, 29),24	20206,(16, 75),57	20263,(16, 79),51	20314,(16, 100),12	20326,(16, 174),21	20347,(30, 201),15	20362,(179, 201),15	20377,(33, 201),15	20392,(65, 201),15	20407,(169, 201),15	20422,(18, 22),51	20473,(18, 55),15	20488,(18, 85),39	20527,(18, 95),9	20536,(18, 100),30	20566,(18, 125),123	20689,(18, 174),27	20716,(18, 180),21	20737,(18, 189),24	20761,(18, 193),15	20776,(18, 195),21	20797,(18, 196),3	20800,(66, 201),15	20815,(117, 201),15	20830,(81, 201),15	20845,(19, 22),3	20848,(19, 34),9	20857,(19, 56),12	20869,(19, 60),63	20932,(19, 64),156	21088,(19, 115),177	21265,(19, 136),129	21394,(19, 143),3	21397,(19, 153),3	21400,(19, 157),3	21403,(19, 164),243	21646,(19, 176),87	21733,(19, 181),27	21760,(53, 201),15	21775,(78, 201),15	21790,(52, 201),15	21805,(112, 201),15	21820,(67, 201),15	21835,(68, 201),15	21850,(24, 201),15	21865,(146, 201),15	21880,(80, 201),15	21895,(163, 201),15	21910,(167, 201),15	21925,(20, 25),15	21940,(20, 34),42	21982,(20, 60),12	21994,(20, 79),21	22015,(20, 88),90	22105,(20, 107),60	22165,(20, 108),33	22198,(20, 127),15	22213,(20, 132),6	22219,(20, 143),78	22297,(20, 153),57	22354,(20, 156),3	22357,(20, 159),3	22360,(20, 168),3	22363,(20, 172),63	22426,(20, 182),15	22441,(20, 195),6	22447,(61, 201),15	22462,(26, 201),15	22477,(27, 201),15	22492,(40, 201),15	22507,(111, 201),15	22522,(145, 201),15	22537,(91, 201),15	22552,(99, 201),15	22567,(139, 201),15	22582,(140, 201),15	22597,(142, 201),15	22612,(155, 201),15	22627,(160, 201),15	22642,(197, 201),15	22657,(58, 201),15	22672,(166, 201),15	22687,(76, 201),15	22702,(89, 201),15	22717,(101, 201),15	22732,(119, 201),15	22747,(152, 201),15	22762,(200, 201),15	22777,(35, 201),15	22792,(62, 201),15	22807,(113, 201),15	22822,(124, 201),15	22837,(175, 201),15	22852,(39, 201),15	22867,(96, 201),15	22882,(42, 201),15	22897,(49, 201),15	22912,(83, 201),15	22927,(110, 201),15	22942,(135, 201),15	22957,(141, 201),15	22972,(21, 201),15	22987,(128, 201),15	23002,(133, 201),15	23017,(158, 201),15	23032,(184, 201),15	23047,(121, 201),15	23062,(138, 201),15	23077,(173, 201),15	23092,(199, 201),15	
70,(1, 32),9	79,(3, 28),12	91,(3, 81),6	97,(3, 106),3	100,(1, 106),9	109,(1, 130),6	115,(3, 104),9	124,(3, 112),12	136,(3, 137),3	139,(3, 187),9	148,(6, 38),6	154,(6, 77),3	157,(6, 134),3	160,(6, 140),3	166,(4, 28),3	169,(4, 41),9	178,(7, 99),3	202,(9, 28),9	214,(9, 120),9	232,(9, 139),3	235,(9, 142),3	238,(9, 154),18	256,(10, 31),18	274,(10, 38),6	280,(10, 104),3	283,(10, 131),3	286,(10, 160),3	289,(11, 81),3	292,(11, 131),9	301,(14, 116),9	310,(14, 139),3	332,(16, 139),6	365,(18, 81),6	371,(18, 99),6	398,(19, 112),3	401,(19, 146),3	404,(19, 167),3	496,(20, 99),3	502,(20, 139),18	520,(20, 140),3	523,(20, 142),3	529,(20, 160),6	
1,(0, 1),33	67,(0, 4),33	133,(0, 7),33	166,(3, 121),18	184,(6, 58),3	187,(6, 102),9	196,(6, 199),6	211,(9, 39),3	223,(9, 128),6	229,(9, 135),3	232,(0, 11),33	265,(0, 14),33	298,(10, 59),3	331,(0, 18),33	364,(16, 42),9	373,(16, 135),6	397,(0, 20),33	430,(19, 124),9	442,(8, 27),12	454,(8, 40),3	457,(8, 49),3	460,(19, 111),15	475,(19, 145),15	490,(19, 158),18	718,(8, 58),3	5305,(8, 152),12	5317,(8, 158),3	5368,(8, 175),3	6772,(17, 76),6	6778,(17, 89),3	7546,(17, 152),3	7996,(17, 200),3	8842,(5, 121),3	8845,(5, 124),9	9007,(5, 158),6	9130,(5, 175),6	9343,(12, 39),12	9355,(12, 42),9	10621,(2, 42),3	10942,(2, 49),3	10960,(2, 110),9	10969,(2, 135),6	10984,(2, 141),6	11053,(2, 199),3	11056,(15, 21),3	11782,(15, 128),3	12139,(15, 158),21	12535,(13, 121),3	12538,(13, 138),3	12571,(13, 173),3	12715,(13, 199),3	
34,(0, 3),33	67,(1, 30),3	79,(1, 35),15	94,(1, 71),6	100,(0, 6),33	133,(1, 53),18	151,(1, 119),15	166,(0, 9),33	199,(0, 10),33	232,(1, 147),6	238,(1, 161),15	253,(1, 165),3	256,(4, 197),3	259,(7, 53),3	262,(7, 78),12	274,(7, 91),3	277,(7, 123),3	280,(7, 133),3	283,(7, 197),3	286,(11, 52),3	298,(0, 16),33	331,(11, 169),3	334,(14, 184),12	364,(0, 19),33	397,(18, 24),3	400,(18, 80),3	403,(18, 163),3	433,(8, 26),9	460,(20, 35),18	478,(20, 91),18	499,(20, 113),3	526,(20, 155),3	535,(20, 197),3	5320,(8, 166),9	5497,(17, 62),12	6781,(17, 101),3	6784,(17, 119),12	7999,(5, 35),3	8002,(5, 62),3	8830,(5, 113),12	10129,(12, 96),9	10945,(2, 83),12	11785,(15, 133),15	12244,(15, 184),6	
# Outgoing

1,(0, 1),33	34,(0, 3),33	67,(0, 4),33	100,(0, 6),33	133,(0, 7),33	166,(0, 9),33	199,(0, 10),33	232,(0, 11),33	265,(0, 14),33	298,(0, 16),33	331,(0, 18),33	364,(0, 19),33	397,(0, 20),33	430,(8, 23),3	433,(8, 26),9	442,(8, 27),12	454,(8, 40),3	457,(8, 49),3	460,(8, 54),177	637,(8, 56),81	718,(8, 58),3	721,(8, 85),54	775,(8, 88),3	778,(8, 95),75	853,(8, 98),93	946,(8, 100),369	1315,(8, 115),24	1339,(8, 125),3900	5239,(8, 126),66	5305,(8, 152),12	5317,(8, 158),3	5320,(8, 166),9	5329,(8, 170),39	5368,(8, 175),3	5371,(8, 186),6	5377,(8, 188),75	5452,(8, 194),6	5458,(17, 23),21	5479,(17, 46),3	5482,(17, 60),15	5497,(17, 62),12	5509,(17, 64),6	5515,(17, 69),1245	6760,(17, 70),12	6772,(17, 76),6	6778,(17, 89),3	6781,(17, 101),3	6784,(17, 119),12	6796,(17, 150),750	7546,(17, 152),3	7549,(17, 157),45	7594,(17, 164),3	7597,(17, 168),6	7603,(17, 172),81	7684,(17, 174),93	7777,(17, 182),24	7801,(17, 185),3	7804,(17, 186),15	7819,(17, 193),9	7828,(17, 194),51	7879,(17, 195),117	7996,(17, 200),3	7999,(5, 35),3	8002,(5, 62),3	8005,(5, 88),561	8566,(5, 92),102	8668,(5, 93),66	8734,(5, 100),3	8737,(5, 107),93	8830,(5, 113),12	8842,(5, 121),3	8845,(5, 124),9	8854,(5, 129),3	8857,(5, 144),21	8878,(5, 153),66	8944,(5, 156),63	9007,(5, 158),6	9013,(5, 159),33	9046,(5, 164),30	9076,(5, 174),54	9130,(5, 175),6	9136,(5, 177),12	9148,(5, 181),33	9181,(12, 22),27	9208,(12, 23),45	9253,(12, 25),72	9325,(12, 29),18	9343,(12, 39),12	9355,(12, 42),9	9364,(12, 46),144	9508,(12, 54),15	9523,(12, 55),558	10081,(12, 63),3	10084,(12, 73),36	10120,(12, 92),3	10123,(12, 95),6	10129,(12, 96),9	10138,(12, 105),57	10195,(12, 127),9	10204,(12, 148),189	10393,(12, 157),153	10546,(12, 171),3	10549,(12, 177),24	10573,(12, 190),36	10609,(2, 29),12	10621,(2, 42),3	10624,(2, 44),3	10627,(2, 45),276	10903,(2, 46),39	10942,(2, 49),3	10945,(2, 83),12	10957,(2, 105),3	10960,(2, 110),9	10969,(2, 135),6	10975,(2, 136),9	10984,(2, 141),6	10990,(2, 144),39	11029,(2, 174),3	11032,(2, 180),3	11035,(2, 189),18	11053,(2, 199),3	11056,(15, 21),3	11059,(15, 25),12	11071,(15, 51),84	11155,(15, 63),189	11344,(15, 64),147	11491,(15, 88),81	11572,(15, 95),3	11575,(15, 100),15	11590,(15, 105),3	11593,(15, 114),180	11773,(15, 115),6	11779,(15, 125),3	11782,(15, 128),3	11785,(15, 133),15	11800,(15, 144),81	11881,(15, 151),258	12139,(15, 158),21	12160,(15, 174),84	12244,(15, 184),6	12250,(15, 185),153	12403,(15, 186),48	12451,(13, 22),42	12493,(13, 23),3	12496,(13, 25),12	12508,(13, 34),6	12514,(13, 45),3	12517,(13, 93),6	12523,(13, 95),12	12535,(13, 121),3	12538,(13, 138),3	12541,(13, 168),24	12565,(13, 172),6	12571,(13, 173),3	12574,(13, 176),3	12577,(13, 180),27	12604,(13, 185),60	12664,(13, 196),51	12715,(13, 199),3	12718,(122, 201),15	12733,(192, 201),15	12748,(198, 201),15	12763,(43, 201),15	12778,(103, 201),15	12793,(37, 201),15	12808,(94, 201),15	12823,(162, 201),15	12838,(47, 201),15	12853,(149, 201),15	12868,(109, 201),15	13585,(32, 201),15	14413,(106, 201),15	14428,(130, 201),15	14641,(137, 201),15	14656,(187, 201),15	14671,(77, 201),15	14686,(134, 201),15	15391,(41, 201),15	17899,(28, 201),15	17914,(120, 201),15	18514,(154, 201),15	19543,(31, 201),15	19558,(38, 201),15	19588,(104, 201),15	20101,(131, 201),15	20131,(116, 201),15	20830,(81, 201),15	21805,(112, 201),15	21865,(146, 201),15	21910,(167, 201),15	22552,(99, 201),15	22567,(139, 201),15	22582,(140, 201),15	22597,(142, 201),15	22627,(160, 201),15	
67,(1, 30),3	70,(1, 32),9	79,(1, 35),15	94,(1, 71),6	100,(1, 106),9	109,(1, 130),6	133,(1, 53),18	151,(1, 119),15	166,(4, 28),3	169,(4, 41),9	178,(7, 99),3	232,(1, 147),6	238,(1, 161),15	253,(1, 165),3	256,(4, 197),3	259,(7, 53),3	262,(7, 78),12	274,(7, 91),3	277,(7, 123),3	280,(7, 133),3	283,(7, 197),3	286,(11, 52),3	289,(11, 81),3	292,(11, 131),9	301,(14, 116),9	310,(14, 139),3	331,(11, 169),3	334,(14, 184),12	365,(18, 81),6	371,(18, 99),6	397,(18, 24),3	400,(18, 80),3	403,(18, 163),3	433,(1, 132),27	460,(20, 35),18	478,(20, 91),18	496,(20, 99),3	499,(20, 113),3	502,(20, 139),18	520,(20, 140),3	523,(20, 142),3	526,(20, 155),3	529,(20, 160),6	535,(20, 197),3	718,(1, 177),3	5305,(1, 136),21	5326,(1, 181),3	5497,(1, 150),6	5503,(4, 44),3	5506,(4, 98),3	6772,(90, 201),15	8839,(4, 107),6	8845,(4, 153),6	9007,(7, 92),3	9010,(7, 108),3	9343,(178, 201),15	10129,(7, 93),9	10942,(183, 201),15	10960,(50, 201),15	11053,(11, 54),6	11782,(57, 201),15	11797,(11, 63),3	12244,(14, 190),3	12571,(18, 79),3	12715,(18, 98),3	12883,(1, 85),117	13000,(1, 105),60	13060,(1, 174),42	13102,(1, 182),36	13600,(4, 34),45	13645,(4, 45),42	13687,(4, 56),84	13771,(4, 60),24	13795,(4, 64),78	13873,(4, 73),141	14014,(4, 86),36	14050,(4, 114),24	14074,(4, 151),30	14104,(4, 168),105	14209,(4, 176),150	14359,(4, 186),54	14701,(7, 72),219	14920,(7, 125),24	14944,(7, 170),39	14983,(7, 188),21	15004,(7, 189),24	15028,(7, 190),348	15376,(97, 201),15	15406,(102, 201),15	18544,(11, 22),24	18568,(11, 23),9	18577,(11, 44),33	18610,(11, 48),33	18643,(11, 55),54	18697,(11, 60),99	18796,(11, 73),21	18817,(11, 75),30	18847,(11, 127),132	18979,(11, 136),99	19078,(11, 157),87	19165,(11, 170),33	19198,(11, 171),30	19228,(11, 177),30	19258,(11, 180),105	19363,(11, 181),27	19390,(11, 190),12	19402,(11, 193),102	19504,(11, 195),9	19513,(82, 201),15	19528,(118, 201),15	19603,(14, 29),69	19672,(14, 56),33	19705,(14, 60),15	19720,(14, 69),264	19984,(14, 70),30	20014,(14, 93),36	20050,(14, 150),30	20080,(14, 193),21	20116,(59, 201),15	20422,(18, 22),51	20473,(18, 55),15	20488,(18, 85),39	20527,(18, 95),9	20536,(18, 100),30	20566,(18, 125),123	20689,(18, 174),27	20716,(18, 180),21	20737,(18, 189),24	20761,(18, 193),15	20776,(18, 195),21	20797,(18, 196),3	20800,(66, 201),15	20815,(117, 201),15	21925,(20, 25),15	21940,(20, 34),42	21982,(20, 60),12	21994,(20, 79),21	22015,(20, 88),90	22105,(20, 107),60	22165,(20, 108),33	22198,(20, 127),15	22213,(20, 132),6	22219,(20, 143),78	22297,(20, 153),57	22354,(20, 156),3	22357,(20, 159),3	22360,(20, 168),3	22363,(20, 172),63	22426,(20, 182),15	22441,(20, 195),6	22447,(61, 201),15	22477,(27, 201),15	22492,(40, 201),15	22507,(111, 201),15	22522,(145, 201),15	22657,(58, 201),15	22687,(76, 201),15	22702,(89, 201),15	22747,(152, 201),15	22762,(200, 201),15	22822,(124, 201),15	22837,(175, 201),15	22852,(39, 201),15	22882,(42, 201),15	22897,(49, 201),15	22927,(110, 201),15	22942,(135, 201),15	22957,(141, 201),15	22972,(21, 201),15	22987,(128, 201),15	23017,(158, 201),15	23047,(121, 201),15	23062,(138, 201),15	23077,(173, 201),15	23092,(199, 201),15	
79,(3, 28),12	91,(3, 81),6	97,(3, 106),3	115,(3, 104),9	124,(3, 112),12	136,(3, 137),3	139,(3, 187),9	148,(6, 38),6	154,(6, 77),3	157,(6, 134),3	160,(6, 140),3	166,(3, 121),18	184,(6, 58),3	187,(6, 102),9	196,(6, 199),6	202,(9, 28),9	211,(9, 39),3	214,(9, 120),9	223,(9, 128),6	229,(9, 135),3	232,(9, 139),3	235,(9, 142),3	238,(9, 154),18	256,(10, 31),18	274,(10, 38),6	280,(10, 104),3	283,(10, 131),3	286,(10, 160),3	298,(10, 59),3	332,(16, 139),6	364,(16, 42),9	373,(16, 135),6	398,(19, 112),3	401,(19, 146),3	404,(19, 167),3	430,(19, 124),9	460,(19, 111),15	475,(19, 145),15	490,(19, 158),18	5368,(3, 63),3	6787,(3, 46),9	7546,(6, 72),3	7996,(3, 151),9	8830,(3, 176),9	8851,(6, 114),3	9130,(9, 125),3	9133,(9, 153),3	9358,(9, 182),3	9361,(9, 193),3	10621,(10, 114),3	10984,(10, 29),6	12139,(6, 23),21	12247,(16, 23),3	12535,(16, 86),3	12538,(16, 98),3	13138,(3, 48),45	13183,(3, 51),114	13297,(3, 108),57	13354,(3, 114),36	13390,(3, 115),45	13435,(3, 127),42	13477,(3, 150),51	13528,(3, 194),57	14443,(6, 95),21	14464,(6, 143),30	14494,(6, 168),54	14548,(6, 171),24	14572,(6, 182),48	14620,(6, 196),21	15421,(9, 48),15	15436,(9, 51),9	15445,(9, 63),108	15553,(9, 70),531	16084,(9, 92),33	16117,(9, 93),9	16126,(9, 100),699	16825,(9, 108),153	16978,(9, 115),54	17032,(9, 129),276	17308,(9, 132),393	17701,(9, 136),39	17740,(9, 148),12	17752,(9, 159),42	17794,(9, 191),75	17869,(71, 201),15	17884,(84, 201),15	17929,(10, 44),33	17962,(10, 64),72	18034,(10, 72),120	18154,(10, 79),21	18175,(10, 86),24	18199,(10, 129),42	18241,(10, 148),39	18280,(10, 156),21	18301,(10, 172),57	18358,(10, 185),36	18394,(10, 191),45	18439,(36, 201),15	18454,(87, 201),15	18469,(74, 201),15	18484,(147, 201),15	18499,(161, 201),15	18529,(165, 201),15	19573,(123, 201),15	20146,(16, 25),36	20182,(16, 29),24	20206,(16, 75),57	20263,(16, 79),51	20314,(16, 100),12	20326,(16, 174),21	20347,(30, 201),15	20362,(179, 201),15	20377,(33, 201),15	20392,(65, 201),15	20407,(169, 201),15	20845,(19, 22),3	20848,(19, 34),9	20857,(19, 56),12	20869,(19, 60),63	20932,(19, 64),156	21088,(19, 115),177	21265,(19, 136),129	21394,(19, 143),3	21397,(19, 153),3	21400,(19, 157),3	21403,(19, 164),243	21646,(19, 176),87	21733,(19, 181),27	21760,(53, 201),15	21775,(78, 201),15	21790,(52, 201),15	21820,(67, 201),15	21835,(68, 201),15	21850,(24, 201),15	21880,(80, 201),15	21895,(163, 201),15	22462,(26, 201),15	22537,(91, 201),15	22612,(155, 201),15	22642,(197, 201),15	22672,(166, 201),15	22717,(101, 201),15	22732,(119, 201),15	22777,(35, 201),15	22792,(62, 201),15	22807,(113, 201),15	22867,(96, 201),15	22912,(83, 201),15	23002,(133, 201),15	23032,(184, 201),15	
