417
# CPU
79,9,35	142,11,35	177,16,35	212,20,35	247,24,35	282,39,35	317,29,35	352,34,35	
4,4,35	41,35,35	76,8,35	111,25,35	146,15,35	181,30,35	216,19,35	251,40,35	
3,3,35	56,7,35	91,12,35	126,22,35	161,17,35	196,27,35	231,37,35	266,32,35	
2,2,35	50,6,35	85,10,35	129,26,35	164,21,35	207,31,35	250,36,35	328,14,35	
0,0,1	1,1,35	49,5,35	84,23,35	119,33,35	154,13,35	189,18,35	224,28,35	259,38,35	416,41,1	
# Incoming
42,(1, 9),31	73,(2, 24),1	74,(2, 29),1	75,(3, 9),4	79,(1, 16),42	121,(2, 20),17	138,(2, 39),2	140,(3, 11),2	142,(1, 20),1	143,(3, 24),1	144,(3, 39),1	145,(4, 16),3	148,(4, 20),1	151,(1, 24),2	154,(1, 29),51	205,(4, 39),3	210,(1, 34),13	223,(3, 34),8	231,(4, 24),16	250,(1, 39),1	251,(4, 29),8	259,(4, 34),16	
3,(0, 4),1	38,(2, 8),1	39,(2, 15),1	40,(2, 35),1	41,(1, 8),1	42,(3, 8),16	62,(2, 19),2	72,(3, 25),2	75,(1, 15),4	79,(3, 30),3	84,(2, 40),15	130,(1, 19),12	203,(3, 40),15	
2,(0, 3),1	37,(1, 7),4	41,(2, 7),15	56,(2, 12),1	58,(4, 27),2	60,(4, 32),1	61,(2, 17),1	64,(2, 32),4	68,(4, 22),49	121,(1, 17),9	153,(1, 27),1	154,(4, 37),24	207,(1, 32),3	
1,(0, 2),1	36,(1, 6),1	49,(4, 6),1	50,(4, 10),8	58,(3, 10),12	73,(1, 10),2	117,(4, 26),12	129,(4, 36),1	143,(1, 21),8	151,(3, 36),52	205,(1, 31),2	223,(1, 36),27	250,(3, 14),78	
37,(2, 5),1	39,(4, 5),10	57,(2, 13),4	61,(4, 13),4	65,(4, 33),1	68,(2, 38),1	70,(3, 18),1	71,(3, 23),1	74,(3, 33),1	75,(2, 33),9	84,(3, 13),48	132,(3, 38),7	139,(4, 18),6	149,(4, 28),4	153,(6, 41),8	161,(9, 41),8	169,(10, 41),8	178,(4, 38),12	190,(35, 41),8	198,(26, 41),8	208,(8, 41),8	216,(25, 41),8	231,(7, 41),8	239,(12, 41),8	247,(11, 41),8	255,(21, 41),8	263,(16, 41),8	275,(15, 41),8	283,(30, 41),8	291,(31, 41),8	299,(20, 41),8	307,(19, 41),8	315,(24, 41),8	328,(22, 41),8	336,(17, 41),8	344,(27, 41),8	352,(37, 41),8	360,(36, 41),8	368,(40, 41),8	376,(32, 41),8	384,(39, 41),8	392,(29, 41),8	400,(14, 41),8	408,(34, 41),8	
# Outgoing
161,(9, 41),8	247,(11, 41),8	263,(16, 41),8	299,(20, 41),8	315,(24, 41),8	384,(39, 41),8	392,(29, 41),8	408,(34, 41),8	
39,(4, 5),10	49,(4, 6),1	50,(4, 10),8	58,(4, 27),2	60,(4, 32),1	61,(4, 13),4	65,(4, 33),1	68,(4, 22),49	117,(4, 26),12	129,(4, 36),1	139,(4, 18),6	145,(4, 16),3	148,(4, 20),1	149,(4, 28),4	154,(4, 37),24	178,(4, 38),12	190,(35, 41),8	205,(4, 39),3	208,(8, 41),8	216,(25, 41),8	231,(4, 24),16	251,(4, 29),8	259,(4, 34),16	275,(15, 41),8	283,(30, 41),8	307,(19, 41),8	368,(40, 41),8	
42,(3, 8),16	58,(3, 10),12	70,(3, 18),1	71,(3, 23),1	72,(3, 25),2	74,(3, 33),1	75,(3, 9),4	79,(3, 30),3	84,(3, 13),48	132,(3, 38),7	140,(3, 11),2	143,(3, 24),1	144,(3, 39),1	151,(3, 36),52	203,(3, 40),15	223,(3, 34),8	231,(7, 41),8	239,(12, 41),8	250,(3, 14),78	328,(22, 41),8	336,(17, 41),8	344,(27, 41),8	352,(37, 41),8	376,(32, 41),8	
37,(2, 5),1	38,(2, 8),1	39,(2, 15),1	40,(2, 35),1	41,(2, 7),15	56,(2, 12),1	57,(2, 13),4	61,(2, 17),1	62,(2, 19),2	64,(2, 32),4	68,(2, 38),1	73,(2, 24),1	74,(2, 29),1	75,(2, 33),9	84,(2, 40),15	121,(2, 20),17	138,(2, 39),2	153,(6, 41),8	169,(10, 41),8	198,(26, 41),8	255,(21, 41),8	291,(31, 41),8	360,(36, 41),8	400,(14, 41),8	
1,(0, 2),1	2,(0, 3),1	3,(0, 4),1	36,(1, 6),1	37,(1, 7),4	41,(1, 8),1	42,(1, 9),31	73,(1, 10),2	75,(1, 15),4	79,(1, 16),42	121,(1, 17),9	130,(1, 19),12	142,(1, 20),1	143,(1, 21),8	151,(1, 24),2	153,(1, 27),1	154,(1, 29),51	205,(1, 31),2	207,(1, 32),3	210,(1, 34),13	223,(1, 36),27	250,(1, 39),1	
