3838
# CPU
31,3,14	45,10,14	59,24,14	73,21,14	87,72,14	101,6,14	115,54,14	129,39,14	143,66,14	157,69,14	171,18,14	268,78,14	282,36,14	296,42,14	323,60,14	337,63,14	351,15,14	365,45,14	379,75,14	3498,27,14	3525,48,14	3766,51,14	3780,12,14	3794,30,14	3808,33,14	3822,57,14	
16,2,14	30,11,14	44,29,14	58,68,14	72,5,14	86,8,14	100,26,14	114,41,14	128,17,14	142,23,14	156,50,14	170,65,14	184,71,14	198,20,14	212,77,14	3480,80,14	3495,14,14	3509,53,14	3571,59,14	3585,62,14	3599,32,14	3613,35,14	3627,44,14	3641,56,14	3772,74,14	3786,38,14	3800,47,14	
0,0,1	1,4,14	15,1,14	29,7,14	43,49,14	57,64,14	71,76,14	85,28,14	99,22,14	113,13,14	127,73,14	141,46,14	155,43,14	169,31,14	183,52,14	197,9,14	211,61,14	225,25,14	239,37,14	253,55,14	267,70,14	281,58,14	295,67,14	309,16,14	323,19,14	337,34,14	351,40,14	365,79,14	3837,81,1	
# Incoming
16,(0, 3),15	31,(2, 10),4	35,(2, 24),1	46,(0, 6),15	68,(2, 54),1	84,(4, 39),5	90,(4, 66),2	104,(2, 78),164	272,(5, 36),6	278,(5, 42),1	279,(5, 60),44	323,(5, 63),6	329,(8, 15),8	338,(8, 45),1	339,(8, 75),2	3495,(1, 27),3	3498,(1, 48),27	3525,(1, 51),241	3772,(7, 12),2	3774,(7, 30),1	3775,(7, 33),1	3778,(7, 57),10	
1,(0, 2),15	31,(0, 5),15	61,(0, 8),15	76,(4, 26),8	84,(3, 41),2	86,(3, 50),3	89,(4, 65),1	92,(4, 71),1	93,(4, 80),3387	3480,(1, 14),15	3495,(3, 53),5	3500,(3, 59),71	3571,(3, 62),5	3576,(6, 32),3	3579,(6, 35),1	3580,(6, 44),4	3584,(6, 56),5	3766,(1, 74),6	3776,(7, 38),1	3777,(7, 47),1	
36,(2, 25),32	68,(3, 37),1	69,(2, 55),11	80,(2, 70),24	104,(3, 58),1	105,(3, 67),1	106,(10, 81),1	107,(24, 81),1	108,(21, 81),1	109,(72, 81),1	115,(6, 16),1	116,(6, 19),22	138,(54, 81),1	143,(39, 81),1	157,(66, 81),1	171,(69, 81),1	185,(18, 81),1	268,(11, 81),1	269,(29, 81),1	270,(68, 81),1	271,(5, 34),1	282,(78, 81),1	296,(36, 81),1	310,(42, 81),1	337,(8, 40),1	338,(60, 81),1	341,(8, 79),2	343,(26, 81),1	344,(41, 81),1	345,(17, 81),1	346,(23, 81),1	347,(50, 81),1	348,(65, 81),1	349,(71, 81),1	350,(20, 81),1	351,(77, 81),1	352,(63, 81),1	365,(15, 81),1	379,(45, 81),1	393,(75, 81),1	3494,(80, 81),1	3509,(14, 81),1	3523,(53, 81),1	3585,(59, 81),1	3589,(27, 81),1	3590,(48, 81),1	3599,(62, 81),1	3613,(32, 81),1	3627,(35, 81),1	3641,(44, 81),1	3655,(56, 81),1	3780,(51, 81),1	3786,(74, 81),1	3794,(12, 81),1	3800,(38, 81),1	3808,(30, 81),1	3814,(47, 81),1	3822,(33, 81),1	3836,(57, 81),1	
# Outgoing
68,(3, 37),1	84,(3, 41),2	86,(3, 50),3	104,(3, 58),1	105,(3, 67),1	106,(10, 81),1	107,(24, 81),1	108,(21, 81),1	109,(72, 81),1	115,(6, 16),1	116,(6, 19),22	138,(54, 81),1	143,(39, 81),1	157,(66, 81),1	171,(69, 81),1	185,(18, 81),1	282,(78, 81),1	296,(36, 81),1	310,(42, 81),1	338,(60, 81),1	352,(63, 81),1	365,(15, 81),1	379,(45, 81),1	393,(75, 81),1	3495,(3, 53),5	3500,(3, 59),71	3571,(3, 62),5	3576,(6, 32),3	3579,(6, 35),1	3580,(6, 44),4	3584,(6, 56),5	3589,(27, 81),1	3590,(48, 81),1	3780,(51, 81),1	3794,(12, 81),1	3808,(30, 81),1	3822,(33, 81),1	3836,(57, 81),1	
31,(2, 10),4	35,(2, 24),1	36,(2, 25),32	68,(2, 54),1	69,(2, 55),11	80,(2, 70),24	104,(2, 78),164	268,(11, 81),1	269,(29, 81),1	270,(68, 81),1	271,(5, 34),1	272,(5, 36),6	278,(5, 42),1	279,(5, 60),44	323,(5, 63),6	329,(8, 15),8	337,(8, 40),1	338,(8, 45),1	339,(8, 75),2	341,(8, 79),2	343,(26, 81),1	344,(41, 81),1	345,(17, 81),1	346,(23, 81),1	347,(50, 81),1	348,(65, 81),1	349,(71, 81),1	350,(20, 81),1	351,(77, 81),1	3494,(80, 81),1	3509,(14, 81),1	3523,(53, 81),1	3585,(59, 81),1	3599,(62, 81),1	3613,(32, 81),1	3627,(35, 81),1	3641,(44, 81),1	3655,(56, 81),1	3786,(74, 81),1	3800,(38, 81),1	3814,(47, 81),1	
1,(0, 2),15	16,(0, 3),15	31,(0, 5),15	46,(0, 6),15	61,(0, 8),15	76,(4, 26),8	84,(4, 39),5	89,(4, 65),1	90,(4, 66),2	92,(4, 71),1	93,(4, 80),3387	3480,(1, 14),15	3495,(1, 27),3	3498,(1, 48),27	3525,(1, 51),241	3766,(1, 74),6	3772,(7, 12),2	3774,(7, 30),1	3775,(7, 33),1	3776,(7, 38),1	3777,(7, 47),1	3778,(7, 57),10	
