1379
# CPU
4,2,3	7,4,3	10,18,3	13,20,3	16,6,3	19,68,3	22,26,3	25,44,3	28,8,3	31,52,3	34,40,3	37,22,3	40,80,3	43,46,3	304,14,3	310,34,3	382,36,3	388,48,3	409,10,3	412,28,3	421,30,3	430,32,3	436,38,3	439,42,3	445,50,3	484,64,3	493,70,3	514,72,3	535,16,3	547,54,3	556,60,3	559,74,3	562,76,3	565,78,3	574,12,3	583,24,3	598,56,3	613,58,3	622,62,3	625,66,3	
0,0,1	1,7,3	4,1,3	7,5,3	10,3,3	13,15,3	16,77,3	19,71,3	22,25,3	25,27,3	28,9,3	31,33,3	34,23,3	37,17,3	40,59,3	43,51,3	46,55,3	49,31,3	52,49,3	55,45,3	58,47,3	61,69,3	97,35,3	100,61,3	148,67,3	199,11,3	274,29,3	280,37,3	283,41,3	367,57,3	370,63,3	379,73,3	454,13,3	487,19,3	496,21,3	517,39,3	523,43,3	562,53,3	619,65,3	622,75,3	634,79,3	1378,81,1	
# Incoming
1,(0, 2),3	4,(0, 4),3	7,(0, 6),3	10,(0, 8),3	13,(7, 14),291	304,(7, 34),6	310,(7, 36),72	382,(7, 48),6	388,(7, 58),9	397,(7, 70),3	400,(7, 72),3	403,(1, 10),6	409,(1, 28),3	412,(1, 30),9	421,(1, 32),9	430,(1, 38),6	436,(1, 42),3	439,(1, 50),6	445,(1, 58),36	481,(1, 64),3	484,(1, 70),9	493,(1, 72),21	514,(5, 16),21	535,(5, 54),12	547,(5, 60),9	556,(5, 74),3	559,(5, 76),3	562,(5, 78),3	565,(3, 12),9	574,(3, 24),9	583,(3, 56),15	598,(3, 58),15	613,(3, 62),9	622,(3, 66),3	
7,(2, 19),3	10,(2, 33),3	13,(2, 45),3	16,(2, 47),3	19,(2, 57),3	22,(2, 69),3	25,(2, 75),3	28,(4, 13),3	31,(4, 21),30	61,(4, 35),36	97,(4, 61),3	100,(4, 67),48	148,(18, 81),24	172,(20, 81),24	196,(6, 11),3	199,(6, 29),75	274,(6, 37),6	280,(6, 41),3	283,(6, 43),30	313,(6, 57),54	367,(6, 63),3	370,(6, 65),6	376,(6, 73),3	379,(68, 81),24	403,(26, 81),24	427,(44, 81),24	451,(8, 13),3	454,(8, 19),33	487,(8, 21),9	496,(8, 39),21	517,(8, 43),6	523,(8, 53),39	562,(8, 65),57	619,(8, 75),3	622,(8, 79),12	634,(52, 81),24	658,(40, 81),24	682,(22, 81),24	706,(80, 81),24	730,(46, 81),24	754,(14, 81),24	778,(34, 81),24	802,(36, 81),24	826,(48, 81),24	850,(10, 81),24	874,(28, 81),24	898,(30, 81),24	922,(32, 81),24	946,(38, 81),24	970,(42, 81),24	994,(50, 81),24	1018,(64, 81),24	1042,(70, 81),24	1066,(72, 81),24	1090,(16, 81),24	1114,(54, 81),24	1138,(60, 81),24	1162,(74, 81),24	1186,(76, 81),24	1210,(78, 81),24	1234,(12, 81),24	1258,(24, 81),24	1282,(56, 81),24	1306,(58, 81),24	1330,(62, 81),24	1354,(66, 81),24	
# Outgoing
7,(2, 19),3	10,(2, 33),3	13,(2, 45),3	16,(2, 47),3	19,(2, 57),3	22,(2, 69),3	25,(2, 75),3	28,(4, 13),3	31,(4, 21),30	61,(4, 35),36	97,(4, 61),3	100,(4, 67),48	148,(18, 81),24	172,(20, 81),24	196,(6, 11),3	199,(6, 29),75	274,(6, 37),6	280,(6, 41),3	283,(6, 43),30	313,(6, 57),54	367,(6, 63),3	370,(6, 65),6	376,(6, 73),3	379,(68, 81),24	403,(26, 81),24	427,(44, 81),24	451,(8, 13),3	454,(8, 19),33	487,(8, 21),9	496,(8, 39),21	517,(8, 43),6	523,(8, 53),39	562,(8, 65),57	619,(8, 75),3	622,(8, 79),12	634,(52, 81),24	658,(40, 81),24	682,(22, 81),24	706,(80, 81),24	730,(46, 81),24	754,(14, 81),24	778,(34, 81),24	802,(36, 81),24	826,(48, 81),24	850,(10, 81),24	874,(28, 81),24	898,(30, 81),24	922,(32, 81),24	946,(38, 81),24	970,(42, 81),24	994,(50, 81),24	1018,(64, 81),24	1042,(70, 81),24	1066,(72, 81),24	1090,(16, 81),24	1114,(54, 81),24	1138,(60, 81),24	1162,(74, 81),24	1186,(76, 81),24	1210,(78, 81),24	1234,(12, 81),24	1258,(24, 81),24	1282,(56, 81),24	1306,(58, 81),24	1330,(62, 81),24	1354,(66, 81),24	
1,(0, 2),3	4,(0, 4),3	7,(0, 6),3	10,(0, 8),3	13,(7, 14),291	304,(7, 34),6	310,(7, 36),72	382,(7, 48),6	388,(7, 58),9	397,(7, 70),3	400,(7, 72),3	403,(1, 10),6	409,(1, 28),3	412,(1, 30),9	421,(1, 32),9	430,(1, 38),6	436,(1, 42),3	439,(1, 50),6	445,(1, 58),36	481,(1, 64),3	484,(1, 70),9	493,(1, 72),21	514,(5, 16),21	535,(5, 54),12	547,(5, 60),9	556,(5, 74),3	559,(5, 76),3	562,(5, 78),3	565,(3, 12),9	574,(3, 24),9	583,(3, 56),15	598,(3, 58),15	613,(3, 62),9	622,(3, 66),3	
