2805
# CPU
280,10,41	321,95,41	362,165,41	403,125,41	528,45,41	569,20,41	610,75,41	653,155,41	694,115,41	735,145,41	776,30,41	817,195,41	858,105,41	899,35,41	940,135,41	981,85,41	1022,65,41	1103,175,41	1246,185,41	1317,56,41	
249,9,41	290,107,41	331,48,41	372,117,41	413,137,41	454,67,41	495,97,41	536,87,41	577,58,41	618,147,41	659,19,41	700,38,41	741,29,41	782,77,41	823,157,41	864,197,41	905,167,41	946,127,41	987,177,41	1028,187,41	
218,8,41	259,34,41	300,174,41	380,124,41	421,74,41	462,164,41	503,104,41	544,18,41	585,144,41	626,184,41	667,28,41	708,154,41	749,94,41	790,114,41	831,55,41	872,84,41	913,194,41	954,134,41	995,44,41	1339,64,41	
187,7,41	228,63,41	269,27,41	310,54,41	351,153,41	392,173,41	433,83,41	474,93,41	515,113,41	556,17,41	597,33,41	638,73,41	679,183,41	720,103,41	761,163,41	802,43,41	843,123,41	884,133,41	925,143,41	1218,193,41	
156,6,41	197,92,41	303,53,41	344,82,41	385,102,41	426,42,41	467,162,41	508,26,41	549,16,41	590,122,41	631,142,41	672,182,41	713,32,41	754,62,41	795,152,41	836,72,41	877,172,41	918,112,41	959,192,41	1464,132,41	
125,5,41	231,98,41	288,188,41	404,15,41	566,39,41	607,178,41	648,148,41	689,108,41	730,25,41	771,49,41	812,68,41	853,158,41	894,168,41	1085,59,41	1185,118,41	1226,198,41	1343,78,41	1461,88,41	1502,128,41	1543,138,41	
94,4,41	135,40,41	176,170,41	217,50,41	258,90,41	299,24,41	340,190,41	381,200,41	422,14,41	545,60,41	586,70,41	627,120,41	668,150,41	709,160,41	750,110,41	791,140,41	832,180,41	873,100,41	914,80,41	1664,130,41	
63,3,41	104,37,41	239,76,41	280,146,41	321,196,41	362,13,41	403,47,41	444,126,41	485,166,41	526,176,41	567,57,41	608,23,41	649,106,41	690,86,41	731,186,41	772,156,41	813,116,41	854,136,41	895,66,41	1157,96,41	
32,2,41	73,31,41	114,161,41	155,171,41	196,52,41	237,101,41	278,61,41	319,111,41	360,12,41	401,71,41	442,141,41	483,22,41	524,121,41	565,151,41	606,191,41	647,181,41	688,81,41	729,91,41	770,131,41	811,41,41	
0,0,1	1,1,41	42,11,41	83,21,41	195,159,41	236,69,41	277,139,41	318,79,41	359,169,41	400,129,41	441,119,41	482,189,41	523,36,41	564,109,41	858,199,41	1100,89,41	1157,99,41	1198,149,41	1239,179,41	1458,51,41	1684,46,41	2804,201,1	
# Incoming
249,(0, 10),31	280,(4, 30),4	284,(4, 95),3	287,(7, 165),1	294,(5, 165),1	329,(5, 125),28	357,(8, 65),4	381,(4, 175),139	520,(12, 45),8	528,(0, 20),31	559,(5, 195),24	583,(6, 155),70	653,(12, 115),1	654,(12, 145),1	655,(15, 30),1	656,(15, 65),3	659,(14, 195),1	660,(18, 56),9	669,(1, 185),52	721,(8, 105),18	739,(16, 35),4	743,(16, 135),2	766,(11, 85),3	769,(12, 65),28	797,(14, 175),306	1103,(14, 185),143	1316,(19, 56),1	
218,(0, 9),31	249,(4, 58),11	260,(4, 87),2	262,(4, 107),7	269,(7, 48),1	276,(5, 117),5	281,(5, 137),7	288,(7, 97),10	303,(3, 87),22	347,(8, 58),6	353,(6, 147),114	467,(10, 197),2	497,(0, 19),31	528,(15, 38),2	539,(13, 167),10	585,(18, 29),17	602,(17, 77),2	604,(17, 157),16	621,(17, 197),1	769,(11, 127),4	781,(11, 177),23	804,(16, 187),10	
187,(0, 8),31	218,(6, 34),1	269,(4, 174),3	272,(7, 74),12	365,(4, 124),15	389,(10, 74),12	408,(10, 164),23	437,(12, 55),3	440,(12, 104),4	466,(0, 18),31	497,(15, 144),1	499,(15, 184),4	559,(1, 28),3	565,(14, 154),1	567,(14, 94),4	590,(14, 55),23	613,(20, 84),1	620,(17, 194),1	681,(20, 44),47	728,(16, 134),1	746,(11, 44),13	1317,(19, 64),22	
156,(0, 7),31	187,(2, 63),1	188,(2, 73),7	195,(4, 27),15	210,(4, 54),11	228,(6, 83),2	269,(5, 93),6	275,(5, 113),1	288,(5, 143),6	346,(8, 43),1	435,(0, 17),31	496,(15, 33),1	595,(1, 183),74	669,(18, 103),1	670,(18, 163),1	721,(11, 43),25	746,(16, 123),7	753,(16, 133),7	773,(11, 143),7	1185,(9, 193),33	
125,(0, 6),31	156,(2, 92),3	195,(2, 142),75	270,(3, 53),33	303,(4, 82),1	304,(4, 102),61	365,(5, 112),10	375,(5, 142),1	376,(8, 42),1	377,(8, 122),1	380,(4, 162),1	381,(10, 26),7	404,(0, 16),31	435,(7, 122),45	481,(12, 142),1	482,(12, 182),3	498,(15, 152),1	537,(13, 32),1	549,(13, 172),9	566,(1, 62),3	578,(1, 152),4	582,(1, 172),13	597,(17, 112),2	604,(13, 192),5	1463,(19, 132),1	
94,(0, 5),31	125,(2, 49),25	150,(2, 168),5	155,(3, 49),23	219,(6, 59),9	230,(6, 98),1	273,(6, 188),15	373,(0, 15),31	409,(12, 39),7	538,(13, 59),1	562,(1, 39),4	566,(14, 49),1	569,(1, 88),1	599,(17, 178),1	613,(14, 148),1	614,(20, 128),1	618,(18, 108),1	646,(17, 25),18	667,(16, 49),41	723,(16, 68),5	729,(16, 158),5	780,(11, 168),1	781,(9, 59),304	1085,(9, 118),100	1185,(16, 198),21	1339,(19, 78),4	1343,(19, 88),118	1461,(19, 128),2	1486,(19, 138),18	
63,(0, 4),31	178,(3, 50),6	188,(3, 90),1	189,(3, 100),4	193,(5, 24),76	295,(5, 190),12	307,(6, 200),16	342,(0, 14),31	373,(3, 140),164	537,(8, 60),6	543,(10, 60),2	545,(10, 70),1	546,(12, 80),2	548,(15, 120),5	583,(15, 150),11	618,(15, 160),13	631,(18, 110),3	634,(18, 140),10	664,(17, 180),10	708,(16, 100),1	765,(11, 80),1	1570,(19, 130),94	
32,(0, 3),31	159,(2, 176),4	227,(4, 76),12	239,(6, 116),1	247,(4, 106),1	248,(6, 146),25	284,(7, 106),2	286,(7, 176),1	298,(7, 196),2	311,(0, 13),31	388,(10, 47),1	401,(10, 126),7	438,(10, 166),9	455,(5, 176),18	473,(12, 57),8	487,(15, 23),9	571,(14, 106),5	602,(18, 86),16	618,(20, 66),1	619,(18, 186),2	621,(20, 156),1	632,(14, 116),6	638,(14, 136),13	759,(11, 66),6	1040,(17, 96),117	
1,(0, 2),31	184,(3, 52),4	193,(3, 151),1	231,(6, 101),2	240,(6, 131),7	270,(7, 61),1	271,(7, 111),1	280,(0, 12),31	311,(5, 71),18	329,(7, 141),1	330,(8, 22),16	353,(8, 121),1	376,(5, 151),79	467,(6, 191),24	491,(8, 181),18	562,(14, 81),3	570,(1, 91),5	575,(1, 131),3	610,(20, 41),3	
194,(3, 159),1	195,(3, 169),11	206,(37, 201),14	221,(4, 69),6	233,(6, 139),4	237,(6, 179),1	239,(4, 79),8	248,(4, 169),1	270,(31, 201),14	287,(4, 119),11	298,(161, 201),14	312,(171, 201),14	326,(6, 129),27	353,(7, 119),3	356,(7, 189),11	367,(52, 201),14	381,(63, 201),14	395,(101, 201),14	409,(34, 201),14	423,(61, 201),14	437,(10, 36),1	438,(174, 201),14	452,(111, 201),14	466,(12, 109),4	473,(98, 201),14	491,(92, 201),14	505,(27, 201),14	520,(40, 201),14	534,(170, 201),14	548,(50, 201),14	562,(76, 201),14	576,(90, 201),14	590,(146, 201),14	604,(188, 201),14	618,(24, 201),14	632,(54, 201),14	653,(53, 201),14	667,(95, 201),14	681,(196, 201),14	695,(190, 201),14	709,(82, 201),14	723,(153, 201),14	737,(165, 201),14	751,(124, 201),14	765,(200, 201),14	779,(102, 201),14	793,(173, 201),14	807,(71, 201),14	821,(125, 201),14	835,(47, 201),14	849,(15, 199),9	858,(74, 201),14	872,(42, 201),14	886,(83, 201),14	900,(141, 201),14	914,(126, 201),14	928,(164, 201),14	942,(162, 201),14	956,(93, 201),14	970,(22, 201),14	984,(166, 201),14	998,(104, 201),14	1012,(26, 201),14	1026,(113, 201),14	1040,(121, 201),14	1054,(176, 201),14	1068,(45, 201),14	1082,(18, 89),18	1100,(151, 201),14	1114,(39, 201),14	1128,(57, 201),14	1142,(20, 99),15	1157,(17, 149),5	1162,(17, 179),1	1163,(144, 201),14	1177,(33, 201),14	1191,(191, 201),14	1218,(107, 201),14	1232,(48, 201),14	1246,(117, 201),14	1260,(137, 201),14	1274,(67, 201),14	1288,(97, 201),14	1302,(87, 201),14	1316,(18, 51),142	1458,(60, 201),14	1472,(58, 201),14	1486,(70, 201),14	1500,(122, 201),14	1514,(178, 201),14	1528,(23, 201),14	1542,(75, 201),14	1556,(147, 201),14	1570,(184, 201),14	1584,(120, 201),14	1598,(142, 201),14	1612,(73, 201),14	1626,(181, 201),14	1640,(148, 201),14	1654,(106, 201),14	1668,(155, 201),14	1682,(19, 46),2	1684,(28, 201),14	1698,(150, 201),14	1712,(182, 201),14	1726,(183, 201),14	1740,(81, 201),14	1754,(108, 201),14	1768,(86, 201),14	1782,(115, 201),14	1796,(38, 201),14	1810,(154, 201),14	1824,(160, 201),14	1838,(32, 201),14	1852,(103, 201),14	1866,(91, 201),14	1880,(25, 201),14	1894,(186, 201),14	1908,(145, 201),14	1922,(29, 201),14	1936,(94, 201),14	1950,(110, 201),14	1964,(62, 201),14	1978,(163, 201),14	1992,(131, 201),14	2006,(49, 201),14	2020,(156, 201),14	2034,(30, 201),14	2048,(77, 201),14	2062,(114, 201),14	2076,(140, 201),14	2090,(152, 201),14	2104,(43, 201),14	2118,(41, 201),14	2132,(68, 201),14	2146,(116, 201),14	2160,(195, 201),14	2174,(157, 201),14	2188,(55, 201),14	2202,(180, 201),14	2216,(72, 201),14	2230,(123, 201),14	2244,(158, 201),14	2258,(136, 201),14	2272,(105, 201),14	2286,(197, 201),14	2300,(84, 201),14	2314,(100, 201),14	2328,(172, 201),14	2342,(133, 201),14	2356,(168, 201),14	2370,(66, 201),14	2384,(35, 201),14	2398,(167, 201),14	2412,(194, 201),14	2426,(80, 201),14	2440,(112, 201),14	2454,(143, 201),14	2468,(135, 201),14	2482,(127, 201),14	2496,(134, 201),14	2510,(192, 201),14	2524,(85, 201),14	2538,(177, 201),14	2552,(44, 201),14	2566,(65, 201),14	2580,(187, 201),14	2594,(59, 201),14	2608,(175, 201),14	2622,(96, 201),14	2636,(118, 201),14	2650,(193, 201),14	2664,(198, 201),14	2678,(185, 201),14	2692,(56, 201),14	2706,(64, 201),14	2720,(78, 201),14	2734,(88, 201),14	2748,(132, 201),14	2762,(128, 201),14	2776,(138, 201),14	2790,(130, 201),14	
# Outgoing
381,(10, 26),7	388,(10, 47),1	389,(10, 74),12	401,(10, 126),7	408,(10, 164),23	437,(10, 36),1	438,(10, 166),9	467,(10, 197),2	543,(10, 60),2	545,(10, 70),1	610,(20, 41),3	613,(20, 84),1	614,(20, 128),1	618,(20, 66),1	621,(20, 156),1	667,(95, 201),14	681,(20, 44),47	737,(165, 201),14	821,(125, 201),14	1068,(45, 201),14	1142,(20, 99),15	1542,(75, 201),14	1668,(155, 201),14	1782,(115, 201),14	1908,(145, 201),14	2034,(30, 201),14	2160,(195, 201),14	2272,(105, 201),14	2384,(35, 201),14	2468,(135, 201),14	2524,(85, 201),14	2566,(65, 201),14	2608,(175, 201),14	2678,(185, 201),14	2692,(56, 201),14	
781,(9, 59),304	1085,(9, 118),100	1185,(9, 193),33	1218,(107, 201),14	1232,(48, 201),14	1246,(117, 201),14	1260,(137, 201),14	1274,(67, 201),14	1288,(97, 201),14	1302,(87, 201),14	1316,(19, 56),1	1317,(19, 64),22	1339,(19, 78),4	1343,(19, 88),118	1461,(19, 128),2	1463,(19, 132),1	1472,(58, 201),14	1486,(19, 138),18	1556,(147, 201),14	1570,(19, 130),94	1682,(19, 46),2	1796,(38, 201),14	1922,(29, 201),14	2048,(77, 201),14	2174,(157, 201),14	2286,(197, 201),14	2398,(167, 201),14	2482,(127, 201),14	2538,(177, 201),14	2580,(187, 201),14	
330,(8, 22),16	346,(8, 43),1	347,(8, 58),6	353,(8, 121),1	357,(8, 65),4	376,(8, 42),1	377,(8, 122),1	409,(34, 201),14	438,(174, 201),14	491,(8, 181),18	537,(8, 60),6	585,(18, 29),17	602,(18, 86),16	618,(18, 108),1	619,(18, 186),2	631,(18, 110),3	634,(18, 140),10	660,(18, 56),9	669,(18, 103),1	670,(18, 163),1	721,(8, 105),18	751,(124, 201),14	858,(74, 201),14	928,(164, 201),14	998,(104, 201),14	1082,(18, 89),18	1163,(144, 201),14	1316,(18, 51),142	1570,(184, 201),14	1684,(28, 201),14	1810,(154, 201),14	1936,(94, 201),14	2062,(114, 201),14	2188,(55, 201),14	2300,(84, 201),14	2412,(194, 201),14	2496,(134, 201),14	2552,(44, 201),14	2706,(64, 201),14	
269,(7, 48),1	270,(7, 61),1	271,(7, 111),1	272,(7, 74),12	284,(7, 106),2	286,(7, 176),1	287,(7, 165),1	288,(7, 97),10	298,(7, 196),2	329,(7, 141),1	353,(7, 119),3	356,(7, 189),11	381,(63, 201),14	435,(7, 122),45	505,(27, 201),14	597,(17, 112),2	599,(17, 178),1	602,(17, 77),2	604,(17, 157),16	620,(17, 194),1	621,(17, 197),1	632,(54, 201),14	646,(17, 25),18	664,(17, 180),10	723,(153, 201),14	793,(173, 201),14	886,(83, 201),14	956,(93, 201),14	1026,(113, 201),14	1040,(17, 96),117	1157,(17, 149),5	1162,(17, 179),1	1177,(33, 201),14	1612,(73, 201),14	1726,(183, 201),14	1852,(103, 201),14	1978,(163, 201),14	2104,(43, 201),14	2230,(123, 201),14	2342,(133, 201),14	2454,(143, 201),14	2650,(193, 201),14	
218,(6, 34),1	219,(6, 59),9	228,(6, 83),2	230,(6, 98),1	231,(6, 101),2	233,(6, 139),4	237,(6, 179),1	239,(6, 116),1	240,(6, 131),7	248,(6, 146),25	273,(6, 188),15	307,(6, 200),16	326,(6, 129),27	353,(6, 147),114	467,(6, 191),24	491,(92, 201),14	583,(6, 155),70	653,(53, 201),14	667,(16, 49),41	708,(16, 100),1	709,(82, 201),14	723,(16, 68),5	728,(16, 134),1	729,(16, 158),5	739,(16, 35),4	743,(16, 135),2	746,(16, 123),7	753,(16, 133),7	779,(102, 201),14	804,(16, 187),10	872,(42, 201),14	942,(162, 201),14	1012,(26, 201),14	1185,(16, 198),21	1500,(122, 201),14	1598,(142, 201),14	1712,(182, 201),14	1838,(32, 201),14	1964,(62, 201),14	2090,(152, 201),14	2216,(72, 201),14	2328,(172, 201),14	2440,(112, 201),14	2510,(192, 201),14	2748,(132, 201),14	
193,(5, 24),76	269,(5, 93),6	275,(5, 113),1	276,(5, 117),5	281,(5, 137),7	288,(5, 143),6	294,(5, 165),1	295,(5, 190),12	311,(5, 71),18	329,(5, 125),28	365,(5, 112),10	375,(5, 142),1	376,(5, 151),79	455,(5, 176),18	473,(98, 201),14	487,(15, 23),9	496,(15, 33),1	497,(15, 144),1	498,(15, 152),1	499,(15, 184),4	528,(15, 38),2	548,(15, 120),5	559,(5, 195),24	583,(15, 150),11	604,(188, 201),14	618,(15, 160),13	655,(15, 30),1	656,(15, 65),3	849,(15, 199),9	1114,(39, 201),14	1514,(178, 201),14	1640,(148, 201),14	1754,(108, 201),14	1880,(25, 201),14	2006,(49, 201),14	2132,(68, 201),14	2244,(158, 201),14	2356,(168, 201),14	2594,(59, 201),14	2636,(118, 201),14	2664,(198, 201),14	2720,(78, 201),14	2734,(88, 201),14	2762,(128, 201),14	2776,(138, 201),14	
195,(4, 27),15	210,(4, 54),11	221,(4, 69),6	227,(4, 76),12	239,(4, 79),8	247,(4, 106),1	248,(4, 169),1	249,(4, 58),11	260,(4, 87),2	262,(4, 107),7	269,(4, 174),3	280,(4, 30),4	284,(4, 95),3	287,(4, 119),11	303,(4, 82),1	304,(4, 102),61	365,(4, 124),15	380,(4, 162),1	381,(4, 175),139	520,(40, 201),14	534,(170, 201),14	548,(50, 201),14	562,(14, 81),3	565,(14, 154),1	566,(14, 49),1	567,(14, 94),4	571,(14, 106),5	576,(90, 201),14	590,(14, 55),23	613,(14, 148),1	618,(24, 201),14	632,(14, 116),6	638,(14, 136),13	659,(14, 195),1	695,(190, 201),14	765,(200, 201),14	797,(14, 175),306	1103,(14, 185),143	1458,(60, 201),14	1486,(70, 201),14	1584,(120, 201),14	1698,(150, 201),14	1824,(160, 201),14	1950,(110, 201),14	2076,(140, 201),14	2202,(180, 201),14	2314,(100, 201),14	2426,(80, 201),14	2790,(130, 201),14	
155,(3, 49),23	178,(3, 50),6	184,(3, 52),4	188,(3, 90),1	189,(3, 100),4	193,(3, 151),1	194,(3, 159),1	195,(3, 169),11	206,(37, 201),14	270,(3, 53),33	303,(3, 87),22	373,(3, 140),164	537,(13, 32),1	538,(13, 59),1	539,(13, 167),10	549,(13, 172),9	562,(76, 201),14	590,(146, 201),14	604,(13, 192),5	681,(196, 201),14	835,(47, 201),14	914,(126, 201),14	984,(166, 201),14	1054,(176, 201),14	1128,(57, 201),14	1528,(23, 201),14	1654,(106, 201),14	1768,(86, 201),14	1894,(186, 201),14	2020,(156, 201),14	2146,(116, 201),14	2258,(136, 201),14	2370,(66, 201),14	2622,(96, 201),14	
125,(2, 49),25	150,(2, 168),5	156,(2, 92),3	159,(2, 176),4	187,(2, 63),1	188,(2, 73),7	195,(2, 142),75	270,(31, 201),14	298,(161, 201),14	312,(171, 201),14	367,(52, 201),14	395,(101, 201),14	409,(12, 39),7	423,(61, 201),14	437,(12, 55),3	440,(12, 104),4	452,(111, 201),14	466,(12, 109),4	473,(12, 57),8	481,(12, 142),1	482,(12, 182),3	520,(12, 45),8	546,(12, 80),2	653,(12, 115),1	654,(12, 145),1	769,(12, 65),28	807,(71, 201),14	900,(141, 201),14	970,(22, 201),14	1040,(121, 201),14	1100,(151, 201),14	1191,(191, 201),14	1626,(181, 201),14	1740,(81, 201),14	1866,(91, 201),14	1992,(131, 201),14	2118,(41, 201),14	
1,(0, 2),31	32,(0, 3),31	63,(0, 4),31	94,(0, 5),31	125,(0, 6),31	156,(0, 7),31	187,(0, 8),31	218,(0, 9),31	249,(0, 10),31	280,(0, 12),31	311,(0, 13),31	342,(0, 14),31	373,(0, 15),31	404,(0, 16),31	435,(0, 17),31	466,(0, 18),31	497,(0, 19),31	528,(0, 20),31	559,(1, 28),3	562,(1, 39),4	566,(1, 62),3	569,(1, 88),1	570,(1, 91),5	575,(1, 131),3	578,(1, 152),4	582,(1, 172),13	595,(1, 183),74	669,(1, 185),52	721,(11, 43),25	746,(11, 44),13	759,(11, 66),6	765,(11, 80),1	766,(11, 85),3	769,(11, 127),4	773,(11, 143),7	780,(11, 168),1	781,(11, 177),23	
