219
# CPU
0,0,1	1,8,1	2,76,1	3,62,1	4,34,1	5,50,1	6,43,1	7,60,1	8,17,1	9,44,1	10,6,1	11,40,1	12,22,1	13,29,1	14,27,1	15,61,1	16,20,1	17,53,1	18,77,1	19,36,1	20,19,1	
7,7,1	8,80,1	9,63,1	10,35,1	11,38,1	12,73,1	13,39,1	14,56,1	15,31,1	16,41,1	17,45,1	
3,1,1	4,23,1	5,26,1	6,51,1	7,66,1	8,46,1	9,47,1	10,9,1	11,78,1	12,10,1	14,4,1	15,70,1	16,59,1	17,49,1	18,58,1	19,67,1	20,79,1	21,57,1	22,24,1	23,12,1	24,28,1	25,42,1	218,81,1	
5,2,1	6,54,1	7,52,1	8,55,1	9,3,1	10,14,1	11,13,1	12,11,1	13,32,1	14,18,1	15,72,1	16,69,1	17,74,1	18,65,1	
10,30,1	12,5,1	13,21,1	14,33,1	15,37,1	16,48,1	17,15,1	18,68,1	19,75,1	20,25,1	21,64,1	22,16,1	23,71,1	
# Incoming

5,(0, 7),2	
1,(0, 1),2	7,(54, 81),4	12,(0, 4),2	14,(76, 81),4	18,(62, 81),4	22,(34, 81),4	26,(50, 81),4	30,(43, 81),4	34,(60, 81),4	38,(52, 81),4	42,(80, 81),4	46,(17, 81),4	50,(55, 81),4	54,(63, 81),4	58,(44, 81),4	62,(35, 81),4	66,(14, 81),4	70,(30, 81),4	74,(38, 81),4	78,(40, 81),4	82,(13, 81),4	86,(22, 81),4	90,(73, 81),4	94,(11, 81),4	98,(21, 81),4	102,(29, 81),4	106,(39, 81),4	110,(32, 81),4	114,(33, 81),4	118,(27, 81),4	122,(56, 81),4	126,(18, 81),4	130,(37, 81),4	134,(61, 81),4	138,(72, 81),4	142,(31, 81),4	146,(48, 81),4	150,(20, 81),4	154,(69, 81),4	158,(41, 81),4	162,(15, 81),4	166,(53, 81),4	170,(45, 81),4	174,(74, 81),4	178,(68, 81),4	182,(77, 81),4	186,(65, 81),4	190,(75, 81),4	194,(36, 81),4	198,(19, 81),4	202,(25, 81),4	206,(64, 81),4	210,(16, 81),4	214,(71, 81),4	
3,(0, 2),2	7,(0, 3),2	
8,(7, 30),2	10,(0, 5),2	
# Outgoing
1,(0, 1),2	3,(0, 2),2	5,(0, 7),2	7,(0, 3),2	10,(0, 5),2	12,(0, 4),2	14,(76, 81),4	18,(62, 81),4	22,(34, 81),4	26,(50, 81),4	30,(43, 81),4	34,(60, 81),4	46,(17, 81),4	58,(44, 81),4	78,(40, 81),4	86,(22, 81),4	102,(29, 81),4	118,(27, 81),4	134,(61, 81),4	150,(20, 81),4	166,(53, 81),4	182,(77, 81),4	194,(36, 81),4	198,(19, 81),4	
8,(7, 30),2	42,(80, 81),4	54,(63, 81),4	62,(35, 81),4	74,(38, 81),4	90,(73, 81),4	106,(39, 81),4	122,(56, 81),4	142,(31, 81),4	158,(41, 81),4	170,(45, 81),4	

7,(54, 81),4	38,(52, 81),4	50,(55, 81),4	66,(14, 81),4	82,(13, 81),4	94,(11, 81),4	110,(32, 81),4	126,(18, 81),4	138,(72, 81),4	154,(69, 81),4	174,(74, 81),4	186,(65, 81),4	
70,(30, 81),4	98,(21, 81),4	114,(33, 81),4	130,(37, 81),4	146,(48, 81),4	162,(15, 81),4	178,(68, 81),4	190,(75, 81),4	202,(25, 81),4	206,(64, 81),4	210,(16, 81),4	214,(71, 81),4	
