152
# CPU
0,0,1	1,8,3	4,78,3	7,34,3	10,79,3	13,10,3	16,58,3	19,38,3	22,72,3	25,15,3	28,45,3	31,64,3	34,56,3	37,19,3	43,21,3	50,53,3	60,71,3	79,40,3	148,75,3	151,81,1	
6,4,3	9,17,3	12,27,3	15,18,3	18,51,3	21,49,3	24,22,3	
4,1,3	7,28,3	10,12,3	13,55,3	16,30,3	22,62,3	37,26,3	
7,77,3	18,44,3	22,11,3	
8,5,3	11,63,3	14,61,3	17,67,3	20,32,3	23,31,3	26,41,3	101,16,3	
9,3,3	12,9,3	15,36,3	18,68,3	21,69,3	24,24,3	27,76,3	30,80,3	33,43,3	36,20,3	
19,66,3	
5,6,3	8,59,3	11,70,3	14,73,3	17,74,3	20,25,3	23,39,3	26,23,3	
3,2,3	6,37,3	9,46,3	12,48,3	15,54,3	18,29,3	21,35,3	24,50,3	27,52,3	
2,7,3	5,47,3	8,42,3	11,14,3	14,13,3	17,33,3	20,65,3	23,60,3	26,57,3	
# Incoming
8,(47, 81),1	9,(37, 81),1	10,(28, 81),1	11,(77, 81),1	12,(59, 81),1	13,(42, 81),1	14,(17, 81),1	15,(46, 81),1	16,(12, 81),1	17,(63, 81),1	18,(70, 81),1	19,(14, 81),1	20,(9, 81),1	21,(27, 81),1	22,(48, 81),1	23,(55, 81),1	24,(61, 81),1	25,(13, 81),1	26,(73, 81),1	27,(36, 81),1	28,(18, 81),1	29,(54, 81),1	30,(30, 81),1	31,(33, 81),1	32,(74, 81),1	33,(67, 81),1	34,(68, 81),1	35,(29, 81),1	36,(51, 81),1	37,(44, 81),1	38,(66, 81),1	39,(25, 81),1	40,(65, 81),1	41,(32, 81),1	42,(3, 21),1	43,(69, 81),1	44,(35, 81),1	45,(49, 81),1	46,(11, 81),1	47,(62, 81),1	48,(3, 53),2	50,(39, 81),1	51,(31, 81),1	52,(60, 81),1	53,(24, 81),1	54,(50, 81),1	55,(6, 71),3	58,(3, 71),2	60,(22, 81),1	61,(23, 81),1	62,(57, 81),1	63,(41, 81),1	64,(76, 81),1	65,(3, 40),14	79,(52, 81),1	80,(80, 81),1	81,(43, 81),1	82,(20, 81),1	83,(26, 81),1	84,(4, 75),56	140,(5, 75),8	148,(16, 81),1	
5,(0, 4),1	12,(1, 22),1	
3,(0, 1),1	13,(6, 30),2	15,(4, 30),1	16,(8, 62),6	22,(6, 26),4	
6,(8, 77),1	9,(7, 44),4	13,(2, 44),1	14,(7, 11),1	15,(6, 11),3	
7,(0, 5),1	11,(2, 16),1	21,(3, 41),5	62,(6, 16),39	
8,(0, 3),1	
9,(8, 66),1	10,(2, 66),1	18,(5, 66),1	
4,(0, 6),1	
2,(0, 2),1	26,(3, 52),1	
1,(0, 7),1	11,(1, 60),1	16,(2, 57),5	
# Outgoing
1,(0, 7),1	2,(0, 2),1	3,(0, 1),1	4,(0, 6),1	5,(0, 4),1	6,(8, 77),1	7,(0, 5),1	8,(0, 3),1	9,(8, 66),1	16,(8, 62),6	
14,(17, 81),1	15,(4, 30),1	21,(27, 81),1	28,(18, 81),1	36,(51, 81),1	45,(49, 81),1	60,(22, 81),1	84,(4, 75),56	
10,(28, 81),1	11,(1, 60),1	12,(1, 22),1	16,(12, 81),1	23,(55, 81),1	30,(30, 81),1	47,(62, 81),1	83,(26, 81),1	
11,(77, 81),1	37,(44, 81),1	46,(11, 81),1	
17,(63, 81),1	18,(5, 66),1	24,(61, 81),1	33,(67, 81),1	41,(32, 81),1	51,(31, 81),1	63,(41, 81),1	140,(5, 75),8	148,(16, 81),1	
20,(9, 81),1	21,(3, 41),5	26,(3, 52),1	27,(36, 81),1	34,(68, 81),1	42,(3, 21),1	43,(69, 81),1	48,(3, 53),2	53,(24, 81),1	58,(3, 71),2	64,(76, 81),1	65,(3, 40),14	80,(80, 81),1	81,(43, 81),1	82,(20, 81),1	
38,(66, 81),1	
12,(59, 81),1	13,(6, 30),2	15,(6, 11),3	18,(70, 81),1	22,(6, 26),4	26,(73, 81),1	32,(74, 81),1	39,(25, 81),1	50,(39, 81),1	55,(6, 71),3	61,(23, 81),1	62,(6, 16),39	
9,(37, 81),1	10,(2, 66),1	11,(2, 16),1	13,(2, 44),1	15,(46, 81),1	16,(2, 57),5	22,(48, 81),1	29,(54, 81),1	35,(29, 81),1	44,(35, 81),1	54,(50, 81),1	79,(52, 81),1	
8,(47, 81),1	9,(7, 44),4	13,(42, 81),1	14,(7, 11),1	19,(14, 81),1	25,(13, 81),1	31,(33, 81),1	40,(65, 81),1	52,(60, 81),1	62,(57, 81),1	
