591
# CPU
0,0,1	1,1,31	32,10,31	63,8,31	94,14,31	125,48,31	156,7,31	187,59,31	218,19,31	249,45,31	280,6,31	311,67,31	342,72,31	373,64,31	404,80,31	435,78,31	466,38,31	497,31,31	528,18,31	559,62,31	590,81,1	
36,3,31	67,27,31	98,60,31	129,79,31	160,5,31	191,50,31	222,32,31	253,44,31	284,22,31	315,9,31	346,65,31	377,41,31	408,55,31	439,21,31	470,42,31	501,52,31	
41,74,31	73,58,31	104,69,31	150,2,31	181,17,31	212,63,31	243,36,31	274,35,31	305,49,31	336,66,31	367,11,31	398,54,31	429,77,31	460,39,31	491,34,31	522,15,31	553,56,31	
68,43,31	99,25,31	130,28,31	185,12,31	216,68,31	247,61,31	278,16,31	309,57,31	340,13,31	371,71,31	402,40,31	433,29,31	464,75,31	495,33,31	526,51,31	
70,37,31	101,70,31	185,4,31	216,53,31	247,24,31	278,26,31	309,23,31	340,20,31	371,73,31	402,47,31	433,76,31	464,46,31	495,30,31	
# Incoming
116,(3, 31),14	130,(27, 81),1	131,(43, 81),1	132,(60, 81),1	133,(25, 81),1	160,(79, 81),1	161,(28, 81),1	193,(74, 81),1	194,(58, 81),1	195,(69, 81),1	212,(2, 18),21	233,(5, 62),85	318,(4, 62),191	509,(37, 81),1	510,(70, 81),1	511,(17, 81),1	512,(12, 81),1	513,(50, 81),1	514,(63, 81),1	515,(53, 81),1	516,(68, 81),1	517,(32, 81),1	518,(36, 81),1	519,(24, 81),1	520,(61, 81),1	521,(44, 81),1	522,(35, 81),1	523,(26, 81),1	524,(16, 81),1	525,(22, 81),1	526,(49, 81),1	527,(23, 81),1	528,(57, 81),1	529,(9, 81),1	530,(66, 81),1	531,(20, 81),1	532,(13, 81),1	533,(65, 81),1	534,(11, 81),1	535,(73, 81),1	536,(71, 81),1	537,(41, 81),1	538,(54, 81),1	539,(47, 81),1	540,(40, 81),1	541,(55, 81),1	542,(77, 81),1	543,(76, 81),1	544,(29, 81),1	545,(21, 81),1	546,(39, 81),1	547,(46, 81),1	548,(75, 81),1	549,(42, 81),1	550,(34, 81),1	551,(30, 81),1	552,(33, 81),1	553,(52, 81),1	554,(15, 81),1	557,(51, 81),1	584,(56, 81),1	
1,(0, 3),35	41,(0, 5),35	79,(1, 55),3	82,(1, 21),4	102,(8, 79),1	185,(2, 41),3	210,(1, 42),9	225,(4, 65),1	257,(4, 52),1	311,(6, 9),1	353,(6, 21),1	416,(7, 52),9	
36,(1, 74),5	70,(3, 58),3	86,(1, 34),3	95,(8, 69),7	103,(8, 35),1	115,(0, 2),35	188,(8, 49),3	191,(5, 63),1	192,(5, 49),2	200,(1, 39),10	216,(4, 36),1	217,(5, 39),9	227,(4, 54),3	230,(4, 34),27	312,(6, 66),1	316,(6, 11),1	322,(6, 54),3	331,(6, 77),19	425,(6, 15),33	469,(7, 56),39	508,(6, 56),45	
67,(3, 43),1	73,(3, 25),1	76,(1, 40),3	94,(8, 25),1	95,(3, 28),11	106,(8, 28),9	115,(3, 68),1	181,(2, 12),4	187,(7, 68),1	191,(7, 57),3	194,(5, 71),2	196,(2, 40),1	197,(5, 75),3	200,(5, 33),1	209,(2, 33),3	217,(4, 61),2	219,(4, 16),4	223,(4, 57),2	226,(4, 71),1	227,(7, 29),19	271,(1, 75),32	313,(6, 13),3	317,(6, 71),5	325,(6, 40),6	350,(6, 29),3	382,(7, 33),29	411,(6, 33),5	416,(5, 51),30	458,(8, 51),11	
68,(3, 37),2	74,(3, 70),21	106,(3, 47),2	150,(0, 4),35	188,(2, 47),5	194,(7, 73),6	200,(2, 76),9	209,(5, 46),1	246,(1, 46),25	354,(8, 30),23	377,(6, 30),5	
# Outgoing
1,(0, 3),35	36,(1, 74),5	41,(0, 5),35	76,(1, 40),3	79,(1, 55),3	82,(1, 21),4	86,(1, 34),3	94,(8, 25),1	95,(8, 69),7	102,(8, 79),1	103,(8, 35),1	106,(8, 28),9	115,(0, 2),35	150,(0, 4),35	187,(7, 68),1	188,(8, 49),3	191,(7, 57),3	194,(7, 73),6	200,(1, 39),10	210,(1, 42),9	227,(7, 29),19	246,(1, 46),25	271,(1, 75),32	311,(6, 9),1	312,(6, 66),1	313,(6, 13),3	316,(6, 11),1	317,(6, 71),5	322,(6, 54),3	325,(6, 40),6	331,(6, 77),19	350,(6, 29),3	353,(6, 21),1	354,(8, 30),23	377,(6, 30),5	382,(7, 33),29	411,(6, 33),5	416,(7, 52),9	425,(6, 15),33	458,(8, 51),11	469,(7, 56),39	508,(6, 56),45	
67,(3, 43),1	68,(3, 37),2	70,(3, 58),3	73,(3, 25),1	74,(3, 70),21	95,(3, 28),11	106,(3, 47),2	115,(3, 68),1	116,(3, 31),14	130,(27, 81),1	132,(60, 81),1	160,(79, 81),1	191,(5, 63),1	192,(5, 49),2	194,(5, 71),2	197,(5, 75),3	200,(5, 33),1	209,(5, 46),1	217,(5, 39),9	233,(5, 62),85	416,(5, 51),30	513,(50, 81),1	517,(32, 81),1	521,(44, 81),1	525,(22, 81),1	529,(9, 81),1	533,(65, 81),1	537,(41, 81),1	541,(55, 81),1	545,(21, 81),1	549,(42, 81),1	553,(52, 81),1	
181,(2, 12),4	185,(2, 41),3	188,(2, 47),5	193,(74, 81),1	194,(58, 81),1	195,(69, 81),1	196,(2, 40),1	200,(2, 76),9	209,(2, 33),3	212,(2, 18),21	511,(17, 81),1	514,(63, 81),1	518,(36, 81),1	522,(35, 81),1	526,(49, 81),1	530,(66, 81),1	534,(11, 81),1	538,(54, 81),1	542,(77, 81),1	546,(39, 81),1	550,(34, 81),1	554,(15, 81),1	584,(56, 81),1	
131,(43, 81),1	133,(25, 81),1	161,(28, 81),1	512,(12, 81),1	516,(68, 81),1	520,(61, 81),1	524,(16, 81),1	528,(57, 81),1	532,(13, 81),1	536,(71, 81),1	540,(40, 81),1	544,(29, 81),1	548,(75, 81),1	552,(33, 81),1	557,(51, 81),1	
216,(4, 36),1	217,(4, 61),2	219,(4, 16),4	223,(4, 57),2	225,(4, 65),1	226,(4, 71),1	227,(4, 54),3	230,(4, 34),27	257,(4, 52),1	318,(4, 62),191	509,(37, 81),1	510,(70, 81),1	515,(53, 81),1	519,(24, 81),1	523,(26, 81),1	527,(23, 81),1	531,(20, 81),1	535,(73, 81),1	539,(47, 81),1	543,(76, 81),1	547,(46, 81),1	551,(30, 81),1	
