63
# CPU
0,0,1	1,3,1	2,36,1	3,17,1	4,19,1	5,37,1	6,11,1	7,33,1	8,12,1	10,13,1	
2,2,1	3,31,1	4,26,1	5,22,1	6,14,1	7,38,1	8,21,1	9,25,1	10,29,1	11,28,1	13,6,1	
3,1,1	4,23,1	5,9,1	6,20,1	7,7,1	8,8,1	9,24,1	10,35,1	11,40,1	12,32,1	62,41,1	
4,4,1	5,39,1	6,27,1	7,5,1	8,16,1	9,15,1	10,18,1	11,30,1	12,10,1	16,34,1	
# Incoming
3,(2, 33),1	4,(1, 12),1	5,(1, 13),4	9,(4, 13),1	
1,(0, 2),1	5,(3, 28),1	10,(4, 28),1	11,(4, 6),2	
2,(0, 1),1	4,(2, 40),1	6,(3, 32),1	7,(31, 41),2	9,(26, 41),2	11,(22, 41),2	13,(39, 41),2	16,(36, 41),2	18,(17, 41),2	20,(19, 41),2	22,(37, 41),2	24,(27, 41),2	26,(14, 41),2	28,(11, 41),2	30,(5, 41),2	32,(38, 41),2	34,(33, 41),2	36,(16, 41),2	38,(21, 41),2	40,(12, 41),2	42,(25, 41),2	44,(15, 41),2	46,(29, 41),2	48,(18, 41),2	50,(13, 41),2	52,(30, 41),2	54,(28, 41),2	56,(10, 41),2	58,(6, 41),2	60,(34, 41),2	
3,(0, 4),1	4,(3, 30),1	7,(3, 10),3	10,(3, 34),6	
# Outgoing
1,(0, 2),1	2,(0, 1),1	3,(0, 4),1	4,(3, 30),1	5,(3, 28),1	6,(3, 32),1	7,(3, 10),3	10,(3, 34),6	16,(36, 41),2	18,(17, 41),2	20,(19, 41),2	22,(37, 41),2	28,(11, 41),2	34,(33, 41),2	40,(12, 41),2	50,(13, 41),2	
3,(2, 33),1	4,(2, 40),1	7,(31, 41),2	9,(26, 41),2	11,(22, 41),2	26,(14, 41),2	32,(38, 41),2	38,(21, 41),2	42,(25, 41),2	46,(29, 41),2	54,(28, 41),2	58,(6, 41),2	
4,(1, 12),1	5,(1, 13),4	
9,(4, 13),1	10,(4, 28),1	11,(4, 6),2	13,(39, 41),2	24,(27, 41),2	30,(5, 41),2	36,(16, 41),2	44,(15, 41),2	48,(18, 41),2	52,(30, 41),2	56,(10, 41),2	60,(34, 41),2	
