122
# CPU
0,121,1	1,13,1	2,49,1	3,100,1	4,93,1	5,85,1	6,99,1	7,35,1	8,47,1	9,32,1	10,108,1	11,20,1	12,115,1	13,109,1	14,84,1	15,79,1	16,78,1	17,106,1	18,104,1	19,118,1	20,40,1	21,82,1	22,19,1	23,25,1	24,26,1	25,110,1	26,69,1	27,65,1	28,57,1	29,58,1	30,33,1	31,81,1	32,88,1	33,41,1	34,28,1	35,48,1	36,23,1	37,83,1	38,75,1	39,112,1	40,70,1	41,15,1	42,117,1	43,116,1	44,96,1	45,55,1	46,62,1	47,103,1	48,120,1	49,76,1	50,16,1	51,54,1	52,98,1	53,53,1	54,43,1	55,36,1	56,14,1	57,91,1	58,119,1	59,94,1	60,24,1	61,64,1	62,52,1	63,18,1	64,29,1	65,42,1	66,114,1	67,89,1	68,111,1	69,27,1	70,38,1	71,56,1	72,21,1	73,95,1	74,101,1	75,61,1	76,92,1	77,80,1	78,107,1	79,50,1	80,87,1	81,34,1	82,51,1	83,102,1	84,86,1	85,90,1	86,44,1	87,72,1	88,31,1	89,39,1	90,67,1	91,68,1	92,60,1	93,5,1	94,9,1	95,37,1	96,59,1	97,45,1	98,71,1	99,74,1	100,97,1	101,30,1	102,66,1	103,77,1	104,4,1	105,7,1	106,105,1	107,113,1	108,17,1	109,3,1	110,22,1	111,46,1	112,10,1	113,73,1	114,8,1	115,1,1	116,6,1	117,11,1	118,63,1	119,12,1	120,2,1	121,0,1	
# Incoming

# Outgoing

