4713
# CPU
0,201,1	1,125,27	28,123,27	55,126,27	82,120,27	109,130,27	136,133,27	163,115,27	190,114,27	217,40,27	244,51,27	271,102,27	298,146,27	325,101,27	352,59,27	379,56,27	406,36,27	433,185,27	460,172,27	487,21,27	514,173,27	541,154,27	568,82,27	595,156,27	622,75,27	649,55,27	676,54,27	703,180,27	730,182,27	757,53,27	784,97,27	811,199,27	838,197,27	865,189,27	892,105,27	919,77,27	946,46,27	973,169,27	1000,90,27	1027,157,27	1054,175,27	1081,35,27	1108,144,27	1135,200,27	1162,195,27	1189,29,27	1216,178,27	1243,92,27	1270,136,27	1297,153,27	1324,104,27	1351,49,27	1378,149,27	1405,22,27	1432,79,27	1459,186,27	1486,76,27	1513,61,27	1540,168,27	1567,135,27	1594,83,27	1621,108,27	1648,42,27	1675,32,27	1702,162,27	1729,60,27	1756,122,27	1783,65,27	1810,161,27	1837,99,27	1864,187,27	1891,155,27	1918,163,27	1945,171,27	1972,23,27	1999,179,27	2026,151,27	2053,58,27	2080,33,27	2107,52,27	2134,73,27	2161,132,27	2188,142,27	2215,139,27	2242,112,27	2269,143,27	2296,84,27	2323,26,27	2350,128,27	2377,89,27	2404,28,27	2431,145,27	2458,48,27	2485,148,27	2512,191,27	2539,184,27	2566,152,27	2593,94,27	2620,167,27	2647,63,27	2674,66,27	2701,134,27	2728,188,27	2755,190,27	2782,38,27	2809,119,27	2836,127,27	2863,181,27	2890,41,27	2917,31,27	2944,194,27	2971,72,27	2998,39,27	3025,196,27	3052,160,27	3079,62,27	3106,95,27	3133,147,27	3160,107,27	3187,37,27	3214,88,27	3241,103,27	3268,45,27	3295,150,27	3322,116,27	3349,131,27	3376,164,27	3403,124,27	3430,113,27	3457,91,27	3484,129,27	3511,4,27	3538,27,27	3565,86,27	3592,14,27	3619,20,27	3646,16,27	3673,18,27	3700,17,27	3727,6,27	3754,10,27	3781,3,27	3808,9,27	3835,8,27	3862,11,27	3889,15,27	4116,2,27	4712,0,1	
73,68,27	145,64,27	217,140,27	289,141,27	361,177,27	433,100,27	505,174,27	577,85,27	649,165,27	721,87,27	793,71,27	865,96,27	937,44,27	1009,57,27	1081,176,27	1153,193,27	1225,93,27	1297,24,27	1369,25,27	1441,47,27	1513,106,27	1585,183,27	1657,121,27	1729,159,27	1801,158,27	1873,118,27	1945,170,27	2017,70,27	2089,50,27	2161,109,27	2233,166,27	2305,81,27	2377,67,27	2449,69,27	2521,43,27	2593,111,27	2665,192,27	2737,117,27	2809,198,27	2881,78,27	2953,80,27	3025,74,27	3097,137,27	3145,13,27	3217,110,27	3289,34,27	3361,138,27	3433,30,27	3505,98,27	3589,1,27	3673,12,27	3829,7,27	4205,19,27	4681,5,27	
# Incoming
388,(177, 14),4	392,(64, 17),4	396,(140, 11),4	532,(174, 18),4	676,(165, 6),4	748,(87, 18),4	820,(71, 14),4	892,(96, 18),4	1036,(57, 16),8	1108,(176, 20),8	1252,(93, 8),12	1396,(25, 8),12	1540,(106, 17),16	1684,(121, 17),16	2116,(50, 8),28	2260,(166, 8),32	2332,(81, 15),36	2404,(67, 9),36	2476,(69, 6),44	2548,(43, 9),48	2692,(192, 10),60	2764,(117, 3),64	3052,(74, 11),100	3172,(13, 0),4	3316,(34, 15),344	3660,(138, 2),456	4116,(1, 0),4	4120,(12, 0),4	4124,(7, 0),4	4232,(19, 0),4	4708,(5, 0),4	
1,(201, 68),72	73,(201, 64),72	145,(201, 140),72	217,(201, 141),72	289,(201, 177),72	361,(201, 100),72	433,(201, 174),72	505,(201, 85),72	577,(201, 165),72	649,(201, 87),72	721,(201, 71),72	793,(201, 96),72	865,(201, 44),72	937,(201, 57),72	1009,(201, 176),72	1081,(201, 193),72	1153,(201, 93),72	1225,(201, 24),72	1297,(201, 25),72	1369,(201, 47),72	1441,(201, 106),72	1513,(201, 183),72	1585,(201, 121),72	1657,(201, 159),72	1729,(201, 158),72	1801,(201, 118),72	1873,(201, 170),72	1945,(201, 70),72	2017,(201, 50),72	2089,(201, 109),72	2161,(201, 166),72	2233,(201, 81),72	2305,(201, 67),72	2377,(201, 69),72	2449,(201, 43),72	2521,(201, 111),72	2593,(201, 192),72	2665,(201, 117),72	2737,(201, 198),72	2809,(201, 78),72	2881,(201, 80),72	2953,(201, 74),72	3025,(201, 137),72	3097,(55, 13),4	3101,(79, 13),12	3113,(139, 13),32	3145,(201, 110),72	3217,(201, 34),72	3289,(201, 138),72	3361,(201, 30),72	3433,(201, 98),72	3505,(115, 1),4	3509,(82, 1),4	3513,(156, 1),4	3517,(157, 1),8	3525,(195, 1),8	3533,(186, 1),12	3545,(148, 1),44	3589,(114, 12),4	3593,(162, 12),20	3613,(58, 12),28	3641,(132, 12),32	3673,(125, 7),4	3677,(133, 7),4	3681,(172, 7),4	3685,(200, 7),8	3693,(153, 7),12	3705,(108, 7),16	3721,(187, 7),24	3745,(171, 7),24	3769,(66, 7),60	3829,(36, 19),4	3833,(135, 19),16	3849,(60, 19),20	3869,(143, 19),36	3905,(188, 19),64	3969,(119, 19),68	4037,(37, 19),168	4205,(104, 5),12	4217,(161, 5),24	4241,(190, 5),64	4305,(107, 5),148	4453,(45, 5),228	
# Outgoing
1,(201, 68),72	73,(201, 64),72	145,(201, 140),72	217,(201, 141),72	289,(201, 177),72	361,(201, 100),72	433,(201, 174),72	505,(201, 85),72	577,(201, 165),72	649,(201, 87),72	721,(201, 71),72	793,(201, 96),72	865,(201, 44),72	937,(201, 57),72	1009,(201, 176),72	1081,(201, 193),72	1153,(201, 93),72	1225,(201, 24),72	1297,(201, 25),72	1369,(201, 47),72	1441,(201, 106),72	1513,(201, 183),72	1585,(201, 121),72	1657,(201, 159),72	1729,(201, 158),72	1801,(201, 118),72	1873,(201, 170),72	1945,(201, 70),72	2017,(201, 50),72	2089,(201, 109),72	2161,(201, 166),72	2233,(201, 81),72	2305,(201, 67),72	2377,(201, 69),72	2449,(201, 43),72	2521,(201, 111),72	2593,(201, 192),72	2665,(201, 117),72	2737,(201, 198),72	2809,(201, 78),72	2881,(201, 80),72	2953,(201, 74),72	3025,(201, 137),72	3097,(55, 13),4	3101,(79, 13),12	3113,(139, 13),32	3145,(201, 110),72	3217,(201, 34),72	3289,(201, 138),72	3361,(201, 30),72	3433,(201, 98),72	3505,(115, 1),4	3509,(82, 1),4	3513,(156, 1),4	3517,(157, 1),8	3525,(195, 1),8	3533,(186, 1),12	3545,(148, 1),44	3589,(114, 12),4	3593,(162, 12),20	3613,(58, 12),28	3641,(132, 12),32	3673,(125, 7),4	3677,(133, 7),4	3681,(172, 7),4	3685,(200, 7),8	3693,(153, 7),12	3705,(108, 7),16	3721,(187, 7),24	3745,(171, 7),24	3769,(66, 7),60	3829,(36, 19),4	3833,(135, 19),16	3849,(60, 19),20	3869,(143, 19),36	3905,(188, 19),64	3969,(119, 19),68	4037,(37, 19),168	4205,(104, 5),12	4217,(161, 5),24	4241,(190, 5),64	4305,(107, 5),148	4453,(45, 5),228	
388,(177, 14),4	392,(64, 17),4	396,(140, 11),4	532,(174, 18),4	676,(165, 6),4	748,(87, 18),4	820,(71, 14),4	892,(96, 18),4	1036,(57, 16),8	1108,(176, 20),8	1252,(93, 8),12	1396,(25, 8),12	1540,(106, 17),16	1684,(121, 17),16	2116,(50, 8),28	2260,(166, 8),32	2332,(81, 15),36	2404,(67, 9),36	2476,(69, 6),44	2548,(43, 9),48	2692,(192, 10),60	2764,(117, 3),64	3052,(74, 11),100	3172,(13, 0),4	3316,(34, 15),344	3660,(138, 2),456	4116,(1, 0),4	4120,(12, 0),4	4124,(7, 0),4	4232,(19, 0),4	4708,(5, 0),4	
