98
# CPU
0,0,1	1,2,1	2,119,1	3,95,1	4,41,1	5,32,1	6,74,1	7,86,1	8,108,1	9,39,1	10,63,1	11,7,1	12,15,1	13,48,1	14,17,1	15,3,1	16,51,1	17,78,1	18,89,1	19,81,1	20,85,1	21,6,1	22,111,1	23,110,1	24,102,1	25,79,1	26,80,1	27,18,1	28,45,1	29,14,1	30,115,1	31,68,1	32,8,1	33,72,1	34,73,1	35,112,1	36,96,1	37,16,1	38,88,1	39,12,1	40,105,1	41,35,1	42,56,1	43,23,1	44,77,1	45,70,1	46,76,1	47,33,1	48,26,1	49,40,1	50,97,1	51,11,1	52,42,1	53,83,1	54,66,1	55,90,1	56,109,1	57,24,1	58,87,1	59,57,1	60,98,1	61,104,1	62,25,1	63,59,1	64,34,1	65,117,1	66,75,1	67,10,1	68,114,1	69,62,1	70,30,1	71,93,1	72,19,1	73,100,1	74,1,1	75,47,1	76,82,1	77,21,1	78,58,1	79,49,1	80,65,1	81,99,1	82,29,1	83,52,1	84,103,1	85,44,1	86,5,1	87,50,1	88,69,1	89,113,1	90,53,1	91,54,1	92,55,1	93,94,1	94,43,1	95,120,1	96,22,1	97,121,1	
4,20,1	24,84,1	26,46,1	46,4,1	47,118,1	48,116,1	49,36,1	50,61,1	51,106,1	52,92,1	53,67,1	54,31,1	55,71,1	56,91,1	66,9,1	67,37,1	68,64,1	69,60,1	70,101,1	71,107,1	72,28,1	73,27,1	74,38,1	
49,13,1	


# Incoming
49,(20, 121),2	51,(84, 121),2	53,(46, 121),2	55,(118, 121),2	57,(116, 121),2	59,(36, 121),2	61,(13, 121),2	63,(61, 121),2	65,(106, 121),2	67,(92, 121),2	69,(67, 121),2	71,(31, 121),2	73,(71, 121),2	75,(91, 121),2	77,(37, 121),2	79,(64, 121),2	81,(60, 121),2	83,(101, 121),2	85,(107, 121),2	87,(28, 121),2	89,(27, 121),2	91,(38, 121),2	
2,(2, 20),2	22,(6, 84),2	24,(6, 46),2	26,(0, 4),20	46,(0, 9),20	
47,(4, 13),2	


# Outgoing
2,(2, 20),2	22,(6, 84),2	24,(6, 46),2	26,(0, 4),20	46,(0, 9),20	
47,(4, 13),2	49,(20, 121),2	51,(84, 121),2	53,(46, 121),2	55,(118, 121),2	57,(116, 121),2	59,(36, 121),2	63,(61, 121),2	65,(106, 121),2	67,(92, 121),2	69,(67, 121),2	71,(31, 121),2	73,(71, 121),2	75,(91, 121),2	77,(37, 121),2	79,(64, 121),2	81,(60, 121),2	83,(101, 121),2	85,(107, 121),2	87,(28, 121),2	89,(27, 121),2	91,(38, 121),2	
61,(13, 121),2	


