2165
# CPU
103,28,31	143,21,31	174,47,31	205,55,31	278,74,31	309,38,31	2083,64,31	
67,36,31	98,62,31	129,26,31	160,20,31	400,53,31	431,72,31	2045,45,31	
29,8,31	60,19,31	91,25,31	122,34,31	279,51,31	310,70,31	341,60,31	372,80,31	2040,43,31	
25,7,31	56,67,31	87,17,31	118,31,31	149,49,31	180,23,31	211,41,31	242,77,31	2057,58,31	
21,6,31	86,24,31	117,14,31	148,33,31	179,42,31	210,50,31	241,68,31	272,59,31	442,78,31	
17,5,31	48,13,31	79,22,31	110,40,31	141,30,31	172,48,31	416,66,31	447,76,31	2046,57,31	
13,4,31	70,35,31	101,12,31	132,61,31	163,44,31	194,71,31	225,18,31	399,52,31	
9,3,31	40,11,31	76,73,31	107,27,31	138,46,31	170,63,31	402,54,31	2017,37,31	
5,2,31	41,10,31	72,29,31	116,65,31	167,56,31	287,32,31	422,75,31	2016,16,31	
0,0,1	1,1,31	84,9,31	1894,39,31	1984,15,31	2084,69,31	2133,79,31	2164,81,1	
# Incoming
70,(1, 38),26	96,(3, 21),5	101,(3, 28),2	103,(3, 74),1	105,(2, 38),1	106,(3, 55),5	111,(4, 47),11	122,(7, 21),21	143,(7, 38),15	158,(8, 47),2	160,(8, 55),1	173,(2, 74),53	226,(7, 64),12	238,(7, 74),40	287,(8, 38),21	2057,(6, 64),26	
32,(1, 20),24	56,(3, 36),11	74,(3, 53),1	81,(3, 62),4	85,(5, 26),1	86,(7, 20),14	116,(8, 72),8	399,(1, 53),1	416,(1, 72),5	2040,(6, 45),5	
25,(0, 8),4	44,(4, 19),7	52,(3, 51),1	53,(4, 25),2	62,(1, 34),7	97,(1, 51),182	279,(2, 70),7	286,(5, 60),3	289,(7, 80),1	2017,(6, 43),23	
21,(0, 7),4	52,(4, 31),1	54,(3, 67),1	61,(1, 31),1	62,(4, 49),17	90,(5, 23),6	96,(8, 41),14	226,(2, 77),1	402,(1, 58),1	2046,(6, 58),11	
17,(0, 6),4	56,(1, 24),1	67,(3, 50),7	84,(2, 24),2	86,(5, 14),4	91,(2, 33),14	105,(5, 42),9	127,(2, 50),1	128,(3, 68),22	170,(2, 68),3	173,(7, 59),27	426,(1, 78),16	
13,(0, 5),4	41,(3, 13),3	51,(4, 30),1	60,(8, 22),15	96,(1, 40),1	104,(7, 30),1	112,(7, 48),2	114,(7, 57),2	121,(2, 48),6	150,(3, 76),23	403,(1, 66),13	422,(1, 76),4	2045,(6, 57),1	
9,(0, 4),4	47,(3, 35),5	53,(3, 52),1	69,(1, 35),1	75,(3, 61),3	80,(2, 12),4	84,(5, 61),1	96,(5, 71),1	105,(7, 44),7	116,(7, 71),4	128,(2, 52),41	169,(5, 18),45	279,(1, 52),120	
5,(0, 3),4	57,(1, 27),4	75,(8, 73),1	86,(2, 27),5	100,(7, 27),4	106,(2, 46),15	121,(5, 54),11	169,(2, 63),1	400,(1, 54),2	2016,(6, 37),1	
1,(0, 2),4	40,(3, 10),1	44,(3, 29),3	79,(4, 75),13	110,(8, 65),6	158,(7, 56),9	167,(8, 32),120	421,(1, 75),1	1984,(6, 16),32	
36,(2, 9),44	80,(3, 15),1	81,(5, 9),3	85,(3, 69),3	88,(11, 81),2	91,(19, 81),2	97,(13, 81),2	99,(36, 81),2	101,(35, 81),2	111,(73, 81),2	114,(22, 81),2	120,(67, 81),2	122,(4, 79),1611	1733,(5, 39),161	1894,(6, 15),90	1984,(8, 69),9	1993,(10, 81),2	1995,(29, 81),2	1997,(17, 81),2	1999,(25, 81),2	2001,(62, 81),2	2003,(12, 81),2	2005,(28, 81),2	2007,(27, 81),2	2009,(40, 81),2	2011,(65, 81),2	2013,(31, 81),2	2015,(34, 81),2	2017,(26, 81),2	2019,(61, 81),2	2021,(46, 81),2	2023,(30, 81),2	2025,(21, 81),2	2027,(49, 81),2	2029,(20, 81),2	2031,(44, 81),2	2033,(56, 81),2	2035,(63, 81),2	2037,(48, 81),2	2039,(47, 81),2	2041,(23, 81),2	2043,(71, 81),2	2045,(55, 81),2	2047,(41, 81),2	2049,(18, 81),2	2051,(77, 81),2	2053,(74, 81),2	2055,(51, 81),2	2057,(32, 81),2	2059,(38, 81),2	2061,(70, 81),2	2063,(60, 81),2	2065,(80, 81),2	2067,(52, 81),2	2069,(53, 81),2	2071,(54, 81),2	2073,(66, 81),2	2075,(75, 81),2	2077,(72, 81),2	2079,(76, 81),2	2081,(16, 81),2	2083,(6, 69),1	2084,(6, 79),49	2133,(24, 81),2	2135,(14, 81),2	2137,(33, 81),2	2139,(42, 81),2	2141,(50, 81),2	2143,(68, 81),2	2145,(59, 81),2	2147,(78, 81),2	2149,(37, 81),2	2151,(43, 81),2	2153,(45, 81),2	2155,(57, 81),2	2157,(58, 81),2	2159,(64, 81),2	
# Outgoing
2005,(28, 81),2	2025,(21, 81),2	2039,(47, 81),2	2045,(55, 81),2	2053,(74, 81),2	2059,(38, 81),2	2159,(64, 81),2	
99,(36, 81),2	2001,(62, 81),2	2017,(26, 81),2	2029,(20, 81),2	2069,(53, 81),2	2077,(72, 81),2	2153,(45, 81),2	
60,(8, 22),15	75,(8, 73),1	91,(19, 81),2	96,(8, 41),14	110,(8, 65),6	116,(8, 72),8	158,(8, 47),2	160,(8, 55),1	167,(8, 32),120	287,(8, 38),21	1984,(8, 69),9	1999,(25, 81),2	2015,(34, 81),2	2055,(51, 81),2	2061,(70, 81),2	2063,(60, 81),2	2065,(80, 81),2	2151,(43, 81),2	
86,(7, 20),14	100,(7, 27),4	104,(7, 30),1	105,(7, 44),7	112,(7, 48),2	114,(7, 57),2	116,(7, 71),4	120,(67, 81),2	122,(7, 21),21	143,(7, 38),15	158,(7, 56),9	173,(7, 59),27	226,(7, 64),12	238,(7, 74),40	289,(7, 80),1	1997,(17, 81),2	2013,(31, 81),2	2027,(49, 81),2	2041,(23, 81),2	2047,(41, 81),2	2051,(77, 81),2	2157,(58, 81),2	
1894,(6, 15),90	1984,(6, 16),32	2016,(6, 37),1	2017,(6, 43),23	2040,(6, 45),5	2045,(6, 57),1	2046,(6, 58),11	2057,(6, 64),26	2083,(6, 69),1	2084,(6, 79),49	2133,(24, 81),2	2135,(14, 81),2	2137,(33, 81),2	2139,(42, 81),2	2141,(50, 81),2	2143,(68, 81),2	2145,(59, 81),2	2147,(78, 81),2	
81,(5, 9),3	84,(5, 61),1	85,(5, 26),1	86,(5, 14),4	90,(5, 23),6	96,(5, 71),1	97,(13, 81),2	105,(5, 42),9	114,(22, 81),2	121,(5, 54),11	169,(5, 18),45	286,(5, 60),3	1733,(5, 39),161	2009,(40, 81),2	2023,(30, 81),2	2037,(48, 81),2	2073,(66, 81),2	2079,(76, 81),2	2155,(57, 81),2	
44,(4, 19),7	51,(4, 30),1	52,(4, 31),1	53,(4, 25),2	62,(4, 49),17	79,(4, 75),13	101,(35, 81),2	111,(4, 47),11	122,(4, 79),1611	2003,(12, 81),2	2019,(61, 81),2	2031,(44, 81),2	2043,(71, 81),2	2049,(18, 81),2	2067,(52, 81),2	
40,(3, 10),1	41,(3, 13),3	44,(3, 29),3	47,(3, 35),5	52,(3, 51),1	53,(3, 52),1	54,(3, 67),1	56,(3, 36),11	67,(3, 50),7	74,(3, 53),1	75,(3, 61),3	80,(3, 15),1	81,(3, 62),4	85,(3, 69),3	88,(11, 81),2	96,(3, 21),5	101,(3, 28),2	103,(3, 74),1	106,(3, 55),5	111,(73, 81),2	128,(3, 68),22	150,(3, 76),23	2007,(27, 81),2	2021,(46, 81),2	2035,(63, 81),2	2071,(54, 81),2	2149,(37, 81),2	
36,(2, 9),44	80,(2, 12),4	84,(2, 24),2	86,(2, 27),5	91,(2, 33),14	105,(2, 38),1	106,(2, 46),15	121,(2, 48),6	127,(2, 50),1	128,(2, 52),41	169,(2, 63),1	170,(2, 68),3	173,(2, 74),53	226,(2, 77),1	279,(2, 70),7	1993,(10, 81),2	1995,(29, 81),2	2011,(65, 81),2	2033,(56, 81),2	2057,(32, 81),2	2075,(75, 81),2	2081,(16, 81),2	
1,(0, 2),4	5,(0, 3),4	9,(0, 4),4	13,(0, 5),4	17,(0, 6),4	21,(0, 7),4	25,(0, 8),4	32,(1, 20),24	56,(1, 24),1	57,(1, 27),4	61,(1, 31),1	62,(1, 34),7	69,(1, 35),1	70,(1, 38),26	96,(1, 40),1	97,(1, 51),182	279,(1, 52),120	399,(1, 53),1	400,(1, 54),2	402,(1, 58),1	403,(1, 66),13	416,(1, 72),5	421,(1, 75),1	422,(1, 76),4	426,(1, 78),16	
