5186
# CPU
0,0,1	1,5,24	25,146,24	49,84,24	73,175,24	97,51,24	121,10,24	145,76,24	169,102,24	193,153,24	217,17,24	241,39,24	265,14,24	289,154,24	313,150,24	337,64,24	361,72,24	385,8,24	409,186,24	433,55,24	457,148,24	481,95,24	505,80,24	529,11,24	553,69,24	577,162,24	601,20,24	625,97,24	649,130,24	673,118,24	697,101,24	721,172,24	745,24,24	769,121,24	796,85,24	826,65,24	856,181,24	886,33,24	916,62,24	946,66,24	976,34,24	1006,137,24	1036,188,24	1066,158,24	1096,56,24	1126,127,24	1156,100,24	1189,123,24	1222,119,24	1255,108,24	1288,173,24	1321,106,24	1354,83,24	1390,52,24	1426,178,24	1462,168,24	1498,110,24	1537,164,24	1576,139,24	1615,60,24	1657,30,24	1699,48,24	1744,135,24	1789,28,24	1837,63,24	1885,35,24	1933,38,24	1981,140,24	2029,43,24	2077,122,24	2128,129,24	2179,169,24	2239,113,24	2299,161,24	2362,47,24	2428,159,24	2494,200,24	2560,141,24	2632,74,24	2704,98,24	2782,29,24	2860,78,24	2938,134,24	3022,82,24	3106,198,24	3190,88,24	3289,103,24	3394,174,24	3499,41,24	3613,197,24	3733,109,24	3862,191,24	4003,44,24	4162,187,24	4336,182,24	4534,104,24	4753,21,24	5158,57,24	5185,201,1	
43,9,24	67,190,24	106,15,24	130,50,24	169,16,24	193,167,24	232,7,24	274,2,24	298,194,24	322,46,24	346,105,24	370,53,24	394,31,24	418,124,24	442,58,24	466,184,24	490,136,24	514,177,24	538,111,24	562,114,24	586,117,24	610,170,24	634,67,24	739,143,24	883,116,24	2524,107,24	3349,49,24	
67,120,24	112,99,24	148,18,24	172,23,24	196,193,24	253,13,24	277,115,24	301,96,24	325,90,24	349,68,24	373,149,24	397,131,24	421,128,24	445,27,24	
85,1,24	109,142,24	133,179,24	157,40,24	181,157,24	205,156,24	229,183,24	253,75,24	277,54,24	301,166,24	325,45,24	
127,152,24	151,22,24	175,199,24	217,192,24	259,93,24	283,71,24	307,196,24	1714,92,24	
139,138,24	175,160,24	277,189,24	301,89,24	325,132,24	
196,42,24	220,25,24	244,176,24	268,87,24	292,77,24	316,180,24	
280,163,24	304,37,24	
211,19,24	235,171,24	259,144,24	283,32,24	307,125,24	331,155,24	355,36,24	379,94,24	403,70,24	427,112,24	526,61,24	637,147,24	
22,12,24	64,6,24	127,4,24	151,73,24	190,3,24	214,26,24	238,133,24	262,81,24	286,91,24	310,151,24	334,126,24	358,79,24	382,165,24	406,185,24	430,195,24	454,145,24	628,59,24	661,86,24	
# Incoming
91,(190, 201),27	118,(120, 201),27	145,(142, 201),27	172,(99, 201),27	199,(152, 201),27	226,(50, 201),27	253,(179, 201),27	280,(138, 201),27	307,(73, 201),27	334,(22, 201),27	361,(40, 201),27	388,(23, 201),27	415,(199, 201),27	442,(160, 201),27	469,(157, 201),27	496,(167, 201),27	523,(193, 201),27	550,(42, 201),27	577,(156, 201),27	604,(26, 201),27	631,(192, 201),27	658,(25, 201),27	685,(183, 201),27	712,(171, 201),27	739,(133, 201),27	766,(176, 201),27	793,(9, 85),3	796,(75, 201),27	823,(15, 65),3	826,(144, 201),27	853,(12, 181),3	856,(93, 201),27	883,(15, 33),3	886,(81, 201),27	913,(4, 62),3	916,(87, 201),27	943,(4, 66),3	946,(115, 201),27	973,(3, 34),3	976,(54, 201),27	1003,(4, 137),3	1006,(189, 201),27	1033,(19, 188),3	1036,(163, 201),27	1063,(2, 158),3	1066,(32, 201),27	1093,(4, 56),3	1096,(71, 201),27	1123,(9, 127),3	1126,(91, 201),27	1153,(19, 100),3	1156,(77, 201),27	1183,(1, 123),3	1186,(2, 123),3	1189,(194, 201),27	1216,(2, 119),6	1222,(96, 201),27	1249,(9, 108),6	1255,(166, 201),27	1282,(15, 173),6	1288,(89, 201),27	1315,(13, 106),6	1321,(37, 201),27	1348,(12, 83),6	1354,(125, 201),27	1381,(19, 52),3	1384,(7, 52),6	1390,(196, 201),27	1417,(2, 178),9	1426,(151, 201),27	1453,(9, 168),6	1459,(15, 168),3	1462,(180, 201),27	1489,(6, 110),9	1498,(46, 201),27	1525,(12, 164),6	1531,(6, 164),3	1534,(19, 164),3	1537,(90, 201),27	1564,(18, 139),9	1573,(19, 139),3	1576,(45, 201),27	1603,(13, 60),12	1615,(132, 201),27	1642,(6, 30),9	1651,(1, 30),6	1657,(155, 201),27	1684,(16, 48),15	1699,(126, 201),27	1726,(12, 135),15	1741,(6, 135),3	1744,(105, 201),27	1771,(1, 28),18	1789,(68, 201),27	1816,(9, 63),15	1831,(15, 63),3	1834,(19, 63),3	1837,(36, 201),27	1864,(7, 35),21	1885,(79, 201),27	1912,(16, 38),21	1933,(53, 201),27	1960,(3, 140),21	1981,(149, 201),27	2008,(12, 43),12	2020,(9, 43),6	2026,(18, 43),3	2029,(94, 201),27	2056,(13, 122),21	2077,(165, 201),27	2104,(9, 129),24	2128,(31, 201),27	2155,(9, 169),9	2164,(4, 169),9	2173,(18, 169),6	2179,(131, 201),27	2206,(6, 113),3	2209,(15, 113),12	2221,(16, 113),18	2239,(70, 201),27	2266,(18, 161),30	2296,(19, 161),3	2299,(185, 201),27	2326,(18, 47),9	2335,(7, 47),27	2362,(124, 201),27	2389,(18, 159),3	2392,(7, 159),24	2416,(2, 159),12	2428,(128, 201),27	2455,(7, 200),39	2494,(112, 201),27	2521,(7, 141),39	2560,(195, 201),27	2587,(3, 74),6	2593,(2, 74),39	2632,(58, 201),27	2659,(15, 98),45	2704,(27, 201),27	2731,(12, 29),24	2755,(7, 29),27	2782,(145, 201),27	2809,(7, 78),51	2860,(184, 201),27	2887,(2, 134),51	2938,(136, 201),27	2965,(18, 82),21	2986,(16, 82),36	3022,(177, 201),27	3049,(12, 198),9	3058,(7, 198),48	3106,(61, 201),27	3133,(1, 88),54	3187,(19, 88),3	3190,(111, 201),27	3217,(3, 103),42	3259,(7, 103),30	3289,(114, 201),27	3316,(6, 174),45	3361,(4, 174),15	3376,(3, 174),9	3385,(7, 174),9	3394,(117, 201),27	3421,(6, 41),78	3499,(170, 201),27	3526,(16, 197),87	3613,(59, 201),27	3640,(16, 109),36	3676,(13, 109),57	3733,(67, 201),27	3760,(15, 191),72	3832,(19, 191),30	3862,(147, 201),27	3889,(9, 44),12	3901,(19, 44),102	4003,(86, 201),27	4030,(9, 187),63	4093,(4, 187),69	4162,(143, 201),27	4189,(6, 182),126	4315,(15, 182),21	4336,(116, 201),27	4363,(13, 104),171	4534,(92, 201),27	4561,(16, 21),159	4720,(19, 21),33	4753,(107, 201),27	4780,(1, 57),9	4789,(16, 57),12	4801,(3, 57),357	5158,(49, 201),27	
22,(0, 9),21	85,(0, 15),21	112,(6, 107),3	148,(0, 16),21	211,(0, 7),21	253,(0, 2),21	295,(18, 177),9	304,(13, 111),12	334,(13, 49),6	340,(5, 111),3	343,(17, 111),9	352,(4, 117),15	367,(6, 170),27	394,(4, 143),15	415,(18, 67),87	526,(14, 114),9	535,(10, 117),6	541,(5, 170),3	544,(5, 67),3	547,(17, 67),3	553,(11, 114),6	559,(11, 117),9	568,(14, 67),6	574,(8, 143),15	589,(11, 116),6	595,(8, 49),21	661,(5, 143),78	739,(14, 116),144	883,(19, 107),3	1003,(1, 49),162	
46,(12, 120),21	88,(6, 99),24	127,(0, 18),21	232,(0, 13),21	253,(3, 27),18	295,(7, 27),3	322,(5, 149),3	325,(10, 149),3	328,(17, 131),12	352,(2, 131),12	373,(5, 128),30	418,(2, 27),27	
64,(0, 1),21	151,(15, 183),9	160,(9, 75),27	187,(15, 45),6	196,(16, 156),3	202,(18, 183),3	265,(7, 54),9	280,(7, 45),9	289,(5, 166),6	295,(10, 166),3	304,(10, 45),3	
118,(9, 152),3	121,(6, 152),6	127,(9, 199),3	139,(15, 22),12	172,(1, 199),3	181,(1, 93),9	199,(18, 192),3	208,(18, 92),6	214,(3, 192),3	217,(3, 71),6	256,(7, 93),3	277,(17, 71),6	298,(2, 196),9	409,(4, 92),63	472,(3, 92),102	616,(16, 92),42	
130,(15, 138),9	151,(4, 160),24	175,(6, 189),24	205,(18, 189),3	244,(18, 89),18	274,(17, 189),3	277,(4, 132),21	298,(14, 89),3	307,(10, 132),9	
175,(1, 42),3	178,(1, 176),3	193,(16, 42),3	199,(16, 25),18	217,(18, 176),27	244,(4, 77),3	247,(1, 180),3	259,(7, 87),6	274,(7, 77),6	283,(10, 77),6	307,(2, 180),9	
190,(1, 163),21	217,(15, 37),3	223,(6, 37),15	277,(13, 163),3	280,(13, 37),15	301,(10, 37),3	
190,(0, 19),21	211,(6, 112),3	220,(15, 70),3	238,(3, 125),3	280,(1, 70),18	316,(17, 155),3	319,(16, 155),12	331,(7, 36),21	352,(17, 94),21	373,(15, 112),45	442,(5, 61),69	511,(17, 61),15	526,(15, 147),63	589,(2, 147),27	628,(20, 147),9	
1,(0, 12),21	43,(0, 6),21	106,(0, 4),21	169,(0, 3),21	211,(1, 151),3	214,(1, 79),6	220,(1, 165),9	262,(18, 145),12	289,(7, 126),6	316,(13, 86),3	319,(10, 79),3	322,(18, 86),12	364,(16, 185),9	403,(14, 195),15	418,(17, 145),24	445,(7, 86),18	625,(20, 59),3	637,(20, 86),24	
# Outgoing
1,(0, 12),21	22,(0, 9),21	43,(0, 6),21	64,(0, 1),21	85,(0, 15),21	106,(0, 4),21	127,(0, 18),21	148,(0, 16),21	169,(0, 3),21	190,(0, 19),21	211,(0, 7),21	232,(0, 13),21	253,(0, 2),21	274,(17, 189),3	277,(17, 71),6	283,(10, 77),6	289,(5, 166),6	295,(10, 166),3	298,(14, 89),3	301,(10, 37),3	304,(10, 45),3	307,(10, 132),9	316,(17, 155),3	319,(10, 79),3	322,(5, 149),3	325,(10, 149),3	328,(17, 131),12	340,(5, 111),3	343,(17, 111),9	352,(17, 94),21	373,(5, 128),30	403,(14, 195),15	418,(17, 145),24	442,(5, 61),69	511,(17, 61),15	526,(14, 114),9	535,(10, 117),6	541,(5, 170),3	544,(5, 67),3	547,(17, 67),3	553,(11, 114),6	559,(11, 117),9	568,(14, 67),6	574,(8, 143),15	589,(11, 116),6	595,(8, 49),21	625,(20, 59),3	628,(20, 147),9	637,(20, 86),24	661,(5, 143),78	739,(14, 116),144	
91,(190, 201),27	118,(9, 152),3	127,(9, 199),3	130,(15, 138),9	139,(15, 22),12	151,(15, 183),9	160,(9, 75),27	187,(15, 45),6	193,(16, 42),3	196,(16, 156),3	199,(16, 25),18	217,(15, 37),3	220,(15, 70),3	226,(50, 201),27	256,(7, 93),3	259,(7, 87),6	265,(7, 54),9	274,(7, 77),6	280,(7, 45),9	289,(7, 126),6	295,(7, 27),3	298,(2, 196),9	307,(2, 180),9	319,(16, 155),12	331,(7, 36),21	352,(2, 131),12	364,(16, 185),9	373,(15, 112),45	418,(2, 27),27	445,(7, 86),18	496,(167, 201),27	526,(15, 147),63	589,(2, 147),27	616,(16, 92),42	793,(9, 85),3	823,(15, 65),3	883,(15, 33),3	1063,(2, 158),3	1123,(9, 127),3	1186,(2, 123),3	1189,(194, 201),27	1216,(2, 119),6	1249,(9, 108),6	1282,(15, 173),6	1384,(7, 52),6	1417,(2, 178),9	1453,(9, 168),6	1459,(15, 168),3	1498,(46, 201),27	1684,(16, 48),15	1744,(105, 201),27	1816,(9, 63),15	1831,(15, 63),3	1864,(7, 35),21	1912,(16, 38),21	1933,(53, 201),27	2020,(9, 43),6	2104,(9, 129),24	2128,(31, 201),27	2155,(9, 169),9	2209,(15, 113),12	2221,(16, 113),18	2335,(7, 47),27	2362,(124, 201),27	2392,(7, 159),24	2416,(2, 159),12	2455,(7, 200),39	2521,(7, 141),39	2593,(2, 74),39	2632,(58, 201),27	2659,(15, 98),45	2755,(7, 29),27	2809,(7, 78),51	2860,(184, 201),27	2887,(2, 134),51	2938,(136, 201),27	2986,(16, 82),36	3022,(177, 201),27	3058,(7, 198),48	3190,(111, 201),27	3259,(7, 103),30	3289,(114, 201),27	3385,(7, 174),9	3394,(117, 201),27	3499,(170, 201),27	3526,(16, 197),87	3640,(16, 109),36	3733,(67, 201),27	3760,(15, 191),72	3889,(9, 44),12	4030,(9, 187),63	4162,(143, 201),27	4315,(15, 182),21	4336,(116, 201),27	4561,(16, 21),159	4753,(107, 201),27	4789,(16, 57),12	5158,(49, 201),27	
118,(120, 201),27	172,(99, 201),27	199,(18, 192),3	202,(18, 183),3	205,(18, 189),3	208,(18, 92),6	217,(18, 176),27	244,(18, 89),18	262,(18, 145),12	277,(13, 163),3	280,(13, 37),15	295,(18, 177),9	304,(13, 111),12	316,(13, 86),3	322,(18, 86),12	334,(13, 49),6	388,(23, 201),27	415,(18, 67),87	523,(193, 201),27	946,(115, 201),27	1222,(96, 201),27	1315,(13, 106),6	1537,(90, 201),27	1564,(18, 139),9	1603,(13, 60),12	1789,(68, 201),27	1981,(149, 201),27	2026,(18, 43),3	2056,(13, 122),21	2173,(18, 169),6	2179,(131, 201),27	2266,(18, 161),30	2326,(18, 47),9	2389,(18, 159),3	2428,(128, 201),27	2704,(27, 201),27	2965,(18, 82),21	3676,(13, 109),57	4363,(13, 104),171	
145,(142, 201),27	172,(1, 199),3	175,(1, 42),3	178,(1, 176),3	181,(1, 93),9	190,(1, 163),21	211,(1, 151),3	214,(1, 79),6	220,(1, 165),9	247,(1, 180),3	253,(179, 201),27	280,(1, 70),18	361,(40, 201),27	469,(157, 201),27	577,(156, 201),27	685,(183, 201),27	796,(75, 201),27	976,(54, 201),27	1003,(1, 49),162	1183,(1, 123),3	1255,(166, 201),27	1576,(45, 201),27	1651,(1, 30),6	1771,(1, 28),18	3133,(1, 88),54	4780,(1, 57),9	
199,(152, 201),27	334,(22, 201),27	415,(199, 201),27	631,(192, 201),27	856,(93, 201),27	1096,(71, 201),27	1390,(196, 201),27	4534,(92, 201),27	
280,(138, 201),27	442,(160, 201),27	1006,(189, 201),27	1288,(89, 201),27	1615,(132, 201),27	
550,(42, 201),27	658,(25, 201),27	766,(176, 201),27	916,(87, 201),27	1156,(77, 201),27	1462,(180, 201),27	
1036,(163, 201),27	1321,(37, 201),27	
712,(171, 201),27	826,(144, 201),27	883,(19, 107),3	1033,(19, 188),3	1066,(32, 201),27	1153,(19, 100),3	1354,(125, 201),27	1381,(19, 52),3	1534,(19, 164),3	1573,(19, 139),3	1657,(155, 201),27	1834,(19, 63),3	1837,(36, 201),27	2029,(94, 201),27	2239,(70, 201),27	2296,(19, 161),3	2494,(112, 201),27	3106,(61, 201),27	3187,(19, 88),3	3832,(19, 191),30	3862,(147, 201),27	3901,(19, 44),102	4720,(19, 21),33	
46,(12, 120),21	88,(6, 99),24	112,(6, 107),3	121,(6, 152),6	151,(4, 160),24	175,(6, 189),24	211,(6, 112),3	214,(3, 192),3	217,(3, 71),6	223,(6, 37),15	238,(3, 125),3	244,(4, 77),3	253,(3, 27),18	277,(4, 132),21	307,(73, 201),27	352,(4, 117),15	367,(6, 170),27	394,(4, 143),15	409,(4, 92),63	472,(3, 92),102	604,(26, 201),27	739,(133, 201),27	853,(12, 181),3	886,(81, 201),27	913,(4, 62),3	943,(4, 66),3	973,(3, 34),3	1003,(4, 137),3	1093,(4, 56),3	1126,(91, 201),27	1348,(12, 83),6	1426,(151, 201),27	1489,(6, 110),9	1525,(12, 164),6	1531,(6, 164),3	1642,(6, 30),9	1699,(126, 201),27	1726,(12, 135),15	1741,(6, 135),3	1885,(79, 201),27	1960,(3, 140),21	2008,(12, 43),12	2077,(165, 201),27	2164,(4, 169),9	2206,(6, 113),3	2299,(185, 201),27	2560,(195, 201),27	2587,(3, 74),6	2731,(12, 29),24	2782,(145, 201),27	3049,(12, 198),9	3217,(3, 103),42	3316,(6, 174),45	3361,(4, 174),15	3376,(3, 174),9	3421,(6, 41),78	3613,(59, 201),27	4003,(86, 201),27	4093,(4, 187),69	4189,(6, 182),126	4801,(3, 57),357	
