1723
# CPU
256,5,223	479,7,223	702,10,223	925,13,223	1148,16,223	1371,19,223	
17,2,223	240,4,223	463,15,223	686,6,223	909,9,223	1132,12,223	1355,18,223	
0,0,1	1,1,223	224,11,223	447,3,223	670,8,223	893,14,223	1116,17,223	1339,20,223	1722,21,1	
# Incoming
224,(1, 5),4	228,(1, 7),12	252,(2, 5),4	272,(1, 10),24	300,(1, 13),8	308,(1, 16),28	336,(2, 7),48	384,(2, 10),8	392,(2, 13),76	468,(2, 16),28	496,(2, 19),72	
1,(0, 2),16	240,(1, 9),32	296,(1, 12),4	336,(1, 18),40	
240,(2, 3),12	256,(2, 8),12	268,(2, 14),44	312,(2, 17),4	479,(5, 21),72	568,(2, 20),48	616,(4, 21),72	688,(15, 21),72	760,(7, 21),72	909,(6, 21),72	981,(10, 21),72	1132,(9, 21),72	1204,(13, 21),72	1355,(12, 21),72	1427,(16, 21),72	1578,(18, 21),72	1650,(19, 21),72	
# Outgoing
479,(5, 21),72	760,(7, 21),72	981,(10, 21),72	1204,(13, 21),72	1427,(16, 21),72	1650,(19, 21),72	
240,(2, 3),12	252,(2, 5),4	256,(2, 8),12	268,(2, 14),44	312,(2, 17),4	336,(2, 7),48	384,(2, 10),8	392,(2, 13),76	468,(2, 16),28	496,(2, 19),72	568,(2, 20),48	616,(4, 21),72	688,(15, 21),72	909,(6, 21),72	1132,(9, 21),72	1355,(12, 21),72	1578,(18, 21),72	
1,(0, 2),16	224,(1, 5),4	228,(1, 7),12	240,(1, 9),32	272,(1, 10),24	296,(1, 12),4	300,(1, 13),8	308,(1, 16),28	336,(1, 18),40	
