4280
# CPU
55,4,3	109,8,3	1369,32,3	2404,68,3	2515,80,3	2698,72,3	2857,12,3	2896,16,3	3022,20,3	3052,24,3	3067,28,3	3436,36,3	3601,40,3	3679,44,3	3703,48,3	3964,52,3	3967,56,3	4009,60,3	4015,64,3	4057,76,3	
37,3,3	91,7,3	1096,15,3	1510,55,3	2032,27,3	2056,43,3	2542,71,3	2818,11,3	3013,19,3	3019,63,3	3022,79,3	3040,23,3	3283,35,3	3313,31,3	3580,39,3	3634,67,3	3697,47,3	3946,51,3	4006,59,3	4231,75,3	
19,2,3	73,6,3	904,34,3	2569,46,3	2716,78,3	2764,10,3	2794,30,3	2851,54,3	2869,14,3	2881,62,3	2923,18,3	3037,22,3	3061,26,3	3121,66,3	3457,38,3	3616,42,3	3712,50,3	4000,58,3	4021,70,3	4027,74,3	
0,0,1	1,1,3	4,5,3	1099,17,3	1495,65,3	1861,21,3	1966,25,3	1969,29,3	2353,33,3	2758,77,3	3100,9,3	3115,13,3	3118,41,3	3130,45,3	3160,49,3	3169,53,3	3172,57,3	3175,61,3	3178,69,3	3187,73,3	3595,37,3	4279,81,1	
# Incoming
37,(0, 4),18	70,(2, 12),3	91,(0, 8),18	109,(2, 16),21	379,(1, 16),417	796,(2, 20),3	799,(3, 28),3	802,(1, 24),15	817,(3, 12),24	841,(3, 44),3	844,(3, 48),3	847,(3, 76),3	850,(3, 80),12	865,(1, 32),12	877,(7, 12),12	889,(7, 24),15	904,(7, 32),3	907,(1, 40),9	916,(7, 44),3	919,(7, 48),6	925,(1, 44),360	1285,(2, 32),84	1369,(2, 36),54	1423,(2, 44),6	1429,(2, 48),18	1447,(2, 60),12	1459,(2, 72),3	1462,(6, 48),3	1465,(6, 56),3	1468,(1, 48),6	1474,(6, 52),9	1483,(6, 76),6	1504,(7, 68),3	1516,(1, 60),279	1801,(7, 28),18	1819,(7, 40),84	1903,(7, 56),12	1915,(7, 80),9	1969,(2, 52),48	2017,(6, 12),51	2068,(7, 64),39	2107,(1, 64),102	2209,(6, 16),54	2275,(1, 68),30	2305,(6, 60),36	2341,(6, 68),63	2404,(6, 80),111	2542,(1, 72),81	2647,(1, 76),3	2650,(7, 72),48	2818,(5, 12),39	2869,(5, 16),27	3013,(5, 20),9	3040,(5, 24),12	3061,(5, 28),6	3082,(5, 36),354	3580,(5, 40),21	3616,(5, 44),63	3697,(5, 48),6	3703,(7, 52),189	3946,(5, 52),18	3964,(5, 56),3	4006,(5, 60),3	4009,(5, 64),6	4027,(5, 76),30	
19,(0, 3),18	73,(0, 7),18	91,(2, 19),3	103,(2, 75),6	274,(1, 15),105	763,(2, 27),33	817,(1, 27),6	862,(1, 31),3	997,(2, 71),42	1090,(6, 11),3	1093,(6, 15),3	1099,(6, 19),3	1105,(6, 23),15	1129,(6, 27),12	1141,(6, 31),84	1225,(6, 43),9	1234,(6, 51),3	1237,(6, 63),3	1240,(6, 71),6	1246,(6, 75),3	1249,(6, 79),3	1285,(1, 47),183	1486,(1, 51),12	1507,(1, 55),3	1510,(1, 59),6	1516,(2, 11),453	1969,(4, 11),27	1996,(4, 19),6	2002,(4, 23),18	2020,(4, 27),12	2032,(4, 35),3	2035,(4, 43),21	2056,(4, 47),9	2065,(4, 63),15	2080,(4, 67),9	2089,(4, 71),12	2101,(1, 63),6	2209,(1, 67),66	2305,(1, 71),237	2620,(4, 75),102	2758,(4, 79),3	2761,(8, 11),3	2764,(5, 11),54	2818,(6, 59),99	2917,(8, 35),3	2920,(8, 47),3	2923,(5, 19),90	3013,(8, 63),6	3019,(8, 79),3	3037,(5, 23),3	3067,(5, 35),15	3082,(6, 35),201	3283,(8, 31),30	3457,(5, 39),123	3595,(8, 67),39	3679,(5, 47),18	3712,(5, 51),234	4000,(5, 59),6	4006,(8, 75),225	
1,(0, 2),18	55,(0, 6),18	109,(1, 10),165	796,(1, 18),3	799,(1, 22),3	802,(3, 22),3	805,(3, 26),3	808,(3, 30),3	811,(3, 78),3	814,(7, 26),3	823,(1, 30),39	862,(3, 74),15	877,(1, 34),27	904,(1, 38),3	907,(7, 38),6	913,(7, 50),3	916,(1, 42),9	925,(3, 10),66	991,(7, 70),3	1009,(3, 18),159	1474,(1, 50),12	1498,(1, 54),9	1507,(3, 50),21	1648,(3, 58),93	1741,(3, 66),45	1786,(4, 22),6	1792,(4, 62),3	1795,(1, 62),306	2101,(4, 14),240	2341,(4, 26),27	2368,(4, 30),93	2461,(4, 46),54	2515,(7, 22),45	2560,(7, 46),9	2590,(4, 74),30	2623,(1, 74),24	2650,(1, 78),66	2716,(5, 10),48	2764,(8, 22),24	2788,(8, 30),6	2794,(8, 42),9	2803,(8, 54),48	2851,(8, 74),3	2857,(5, 14),12	2869,(8, 62),12	2896,(5, 18),27	3022,(5, 22),15	3052,(5, 26),9	3082,(7, 66),39	3436,(5, 38),21	3601,(5, 42),15	3703,(5, 50),9	3967,(5, 58),33	4015,(5, 70),6	4021,(5, 74),6	
22,(2, 9),48	73,(2, 13),18	94,(2, 25),6	100,(2, 69),3	130,(2, 17),603	733,(2, 21),30	763,(3, 9),30	793,(3, 17),3	796,(7, 21),3	799,(2, 29),18	817,(2, 37),111	928,(2, 57),30	958,(2, 61),39	997,(3, 13),12	1039,(2, 73),36	1075,(2, 77),3	1078,(6, 9),12	1096,(6, 17),3	1102,(6, 21),3	1120,(6, 25),9	1168,(3, 33),291	1459,(3, 61),12	1471,(3, 65),24	1495,(3, 69),9	1504,(6, 37),6	1510,(6, 77),3	1528,(3, 53),120	1648,(4, 9),123	1771,(4, 29),3	1774,(4, 33),3	1777,(4, 69),3	1780,(8, 25),3	1783,(8, 29),3	1786,(3, 77),15	1801,(4, 13),24	1825,(4, 21),36	1861,(4, 37),78	1939,(4, 41),12	1951,(7, 9),12	1963,(7, 25),3	1966,(7, 29),3	1969,(7, 37),3	1972,(7, 41),3	1975,(7, 53),3	1978,(7, 61),39	2017,(7, 69),24	2041,(15, 81),12	2053,(55, 81),12	2068,(6, 45),12	2080,(6, 49),12	2092,(6, 57),21	2113,(6, 69),66	2179,(6, 73),18	2197,(7, 33),156	2353,(7, 73),126	2479,(27, 81),12	2491,(43, 81),12	2515,(4, 53),75	2590,(34, 81),12	2602,(71, 81),12	2614,(46, 81),12	2722,(4, 77),36	2758,(7, 57),324	3082,(8, 9),18	3100,(8, 13),15	3115,(8, 41),3	3118,(8, 45),12	3130,(8, 49),30	3160,(8, 53),9	3169,(8, 57),3	3172,(8, 61),3	3175,(8, 69),3	3178,(8, 73),9	3187,(32, 81),12	3199,(68, 81),12	3211,(80, 81),12	3223,(72, 81),12	3235,(11, 81),12	3247,(12, 81),12	3259,(16, 81),12	3271,(19, 81),12	3283,(78, 81),12	3295,(10, 81),12	3313,(8, 37),282	3595,(30, 81),12	3607,(54, 81),12	3619,(14, 81),12	3631,(62, 81),12	3643,(18, 81),12	3655,(63, 81),12	3667,(20, 81),12	3679,(79, 81),12	3691,(22, 81),12	3703,(24, 81),12	3715,(26, 81),12	3727,(28, 81),12	3739,(66, 81),12	3751,(36, 81),12	3763,(38, 81),12	3775,(40, 81),12	3787,(42, 81),12	3799,(44, 81),12	3811,(48, 81),12	3823,(50, 81),12	3892,(23, 81),12	3904,(35, 81),12	3916,(31, 81),12	3928,(39, 81),12	3940,(67, 81),12	3952,(47, 81),12	3964,(51, 81),12	3976,(52, 81),12	3988,(56, 81),12	4003,(58, 81),12	4015,(59, 81),12	4027,(70, 81),12	4039,(74, 81),12	4231,(60, 81),12	4243,(64, 81),12	4255,(76, 81),12	4267,(75, 81),12	
# Outgoing
1648,(4, 9),123	1771,(4, 29),3	1774,(4, 33),3	1777,(4, 69),3	1780,(8, 25),3	1783,(8, 29),3	1786,(4, 22),6	1792,(4, 62),3	1801,(4, 13),24	1825,(4, 21),36	1861,(4, 37),78	1939,(4, 41),12	1969,(4, 11),27	1996,(4, 19),6	2002,(4, 23),18	2020,(4, 27),12	2032,(4, 35),3	2035,(4, 43),21	2056,(4, 47),9	2065,(4, 63),15	2080,(4, 67),9	2089,(4, 71),12	2101,(4, 14),240	2341,(4, 26),27	2368,(4, 30),93	2461,(4, 46),54	2515,(4, 53),75	2590,(4, 74),30	2620,(4, 75),102	2722,(4, 77),36	2758,(4, 79),3	2761,(8, 11),3	2764,(8, 22),24	2788,(8, 30),6	2794,(8, 42),9	2803,(8, 54),48	2851,(8, 74),3	2869,(8, 62),12	2917,(8, 35),3	2920,(8, 47),3	3013,(8, 63),6	3019,(8, 79),3	3082,(8, 9),18	3100,(8, 13),15	3115,(8, 41),3	3118,(8, 45),12	3130,(8, 49),30	3160,(8, 53),9	3169,(8, 57),3	3172,(8, 61),3	3175,(8, 69),3	3178,(8, 73),9	3187,(32, 81),12	3199,(68, 81),12	3211,(80, 81),12	3223,(72, 81),12	3247,(12, 81),12	3259,(16, 81),12	3283,(8, 31),30	3313,(8, 37),282	3595,(8, 67),39	3667,(20, 81),12	3703,(24, 81),12	3727,(28, 81),12	3751,(36, 81),12	3775,(40, 81),12	3799,(44, 81),12	3811,(48, 81),12	3976,(52, 81),12	3988,(56, 81),12	4006,(8, 75),225	4231,(60, 81),12	4243,(64, 81),12	4255,(76, 81),12	
763,(3, 9),30	793,(3, 17),3	796,(7, 21),3	799,(3, 28),3	802,(3, 22),3	805,(3, 26),3	808,(3, 30),3	811,(3, 78),3	814,(7, 26),3	817,(3, 12),24	841,(3, 44),3	844,(3, 48),3	847,(3, 76),3	850,(3, 80),12	862,(3, 74),15	877,(7, 12),12	889,(7, 24),15	904,(7, 32),3	907,(7, 38),6	913,(7, 50),3	916,(7, 44),3	919,(7, 48),6	925,(3, 10),66	991,(7, 70),3	997,(3, 13),12	1009,(3, 18),159	1168,(3, 33),291	1459,(3, 61),12	1471,(3, 65),24	1495,(3, 69),9	1504,(7, 68),3	1507,(3, 50),21	1528,(3, 53),120	1648,(3, 58),93	1741,(3, 66),45	1786,(3, 77),15	1801,(7, 28),18	1819,(7, 40),84	1903,(7, 56),12	1915,(7, 80),9	1951,(7, 9),12	1963,(7, 25),3	1966,(7, 29),3	1969,(7, 37),3	1972,(7, 41),3	1975,(7, 53),3	1978,(7, 61),39	2017,(7, 69),24	2041,(15, 81),12	2053,(55, 81),12	2068,(7, 64),39	2197,(7, 33),156	2353,(7, 73),126	2479,(27, 81),12	2491,(43, 81),12	2515,(7, 22),45	2560,(7, 46),9	2602,(71, 81),12	2650,(7, 72),48	2758,(7, 57),324	3082,(7, 66),39	3235,(11, 81),12	3271,(19, 81),12	3655,(63, 81),12	3679,(79, 81),12	3703,(7, 52),189	3892,(23, 81),12	3904,(35, 81),12	3916,(31, 81),12	3928,(39, 81),12	3940,(67, 81),12	3952,(47, 81),12	3964,(51, 81),12	4015,(59, 81),12	4267,(75, 81),12	
22,(2, 9),48	70,(2, 12),3	73,(2, 13),18	91,(2, 19),3	94,(2, 25),6	100,(2, 69),3	103,(2, 75),6	109,(2, 16),21	130,(2, 17),603	733,(2, 21),30	763,(2, 27),33	796,(2, 20),3	799,(2, 29),18	817,(2, 37),111	928,(2, 57),30	958,(2, 61),39	997,(2, 71),42	1039,(2, 73),36	1075,(2, 77),3	1078,(6, 9),12	1090,(6, 11),3	1093,(6, 15),3	1096,(6, 17),3	1099,(6, 19),3	1102,(6, 21),3	1105,(6, 23),15	1120,(6, 25),9	1129,(6, 27),12	1141,(6, 31),84	1225,(6, 43),9	1234,(6, 51),3	1237,(6, 63),3	1240,(6, 71),6	1246,(6, 75),3	1249,(6, 79),3	1285,(2, 32),84	1369,(2, 36),54	1423,(2, 44),6	1429,(2, 48),18	1447,(2, 60),12	1459,(2, 72),3	1462,(6, 48),3	1465,(6, 56),3	1474,(6, 52),9	1483,(6, 76),6	1504,(6, 37),6	1510,(6, 77),3	1516,(2, 11),453	1969,(2, 52),48	2017,(6, 12),51	2068,(6, 45),12	2080,(6, 49),12	2092,(6, 57),21	2113,(6, 69),66	2179,(6, 73),18	2209,(6, 16),54	2305,(6, 60),36	2341,(6, 68),63	2404,(6, 80),111	2590,(34, 81),12	2614,(46, 81),12	2818,(6, 59),99	3082,(6, 35),201	3283,(78, 81),12	3295,(10, 81),12	3595,(30, 81),12	3607,(54, 81),12	3619,(14, 81),12	3631,(62, 81),12	3643,(18, 81),12	3691,(22, 81),12	3715,(26, 81),12	3739,(66, 81),12	3763,(38, 81),12	3787,(42, 81),12	3823,(50, 81),12	4003,(58, 81),12	4027,(70, 81),12	4039,(74, 81),12	
1,(0, 2),18	19,(0, 3),18	37,(0, 4),18	55,(0, 6),18	73,(0, 7),18	91,(0, 8),18	109,(1, 10),165	274,(1, 15),105	379,(1, 16),417	796,(1, 18),3	799,(1, 22),3	802,(1, 24),15	817,(1, 27),6	823,(1, 30),39	862,(1, 31),3	865,(1, 32),12	877,(1, 34),27	904,(1, 38),3	907,(1, 40),9	916,(1, 42),9	925,(1, 44),360	1285,(1, 47),183	1468,(1, 48),6	1474,(1, 50),12	1486,(1, 51),12	1498,(1, 54),9	1507,(1, 55),3	1510,(1, 59),6	1516,(1, 60),279	1795,(1, 62),306	2101,(1, 63),6	2107,(1, 64),102	2209,(1, 67),66	2275,(1, 68),30	2305,(1, 71),237	2542,(1, 72),81	2623,(1, 74),24	2647,(1, 76),3	2650,(1, 78),66	2716,(5, 10),48	2764,(5, 11),54	2818,(5, 12),39	2857,(5, 14),12	2869,(5, 16),27	2896,(5, 18),27	2923,(5, 19),90	3013,(5, 20),9	3022,(5, 22),15	3037,(5, 23),3	3040,(5, 24),12	3052,(5, 26),9	3061,(5, 28),6	3067,(5, 35),15	3082,(5, 36),354	3436,(5, 38),21	3457,(5, 39),123	3580,(5, 40),21	3601,(5, 42),15	3616,(5, 44),63	3679,(5, 47),18	3697,(5, 48),6	3703,(5, 50),9	3712,(5, 51),234	3946,(5, 52),18	3964,(5, 56),3	3967,(5, 58),33	4000,(5, 59),6	4006,(5, 60),3	4009,(5, 64),6	4015,(5, 70),6	4021,(5, 74),6	4027,(5, 76),30	
