2872
# CPU
2633,3,9	2642,12,9	2651,24,9	2660,6,9	2669,38,9	2678,9,9	2687,26,9	2696,28,9	2705,40,9	2714,22,9	2723,32,9	2732,34,9	2741,36,9	2750,15,9	2759,17,9	2768,30,9	2777,19,9	
1317,2,9	1326,11,9	1335,33,9	2644,16,9	2670,18,9	2679,31,9	2688,35,9	2697,27,9	2706,8,9	2715,39,9	2724,5,9	2733,13,9	2742,21,9	2751,23,9	2760,25,9	2769,37,9	2837,29,9	2871,41,1	
0,0,1	1,4,9	10,1,9	19,20,9	2643,7,9	2747,10,9	2821,14,9	
# Incoming
1317,(0, 3),1316	2633,(4, 12),1	2634,(4, 15),13	2647,(4, 17),1	2648,(2, 9),4	2652,(2, 26),6	2658,(2, 28),1	2659,(2, 40),11	2670,(4, 22),3	2683,(4, 32),1	2684,(4, 34),8	2692,(4, 36),1	2696,(1, 15),1	2697,(1, 17),4	2712,(1, 30),2	2714,(2, 19),42	
1,(0, 2),1316	2643,(3, 16),1	2644,(3, 25),4	2648,(4, 18),22	2670,(3, 31),2	2672,(3, 35),1	2673,(4, 25),5	2678,(4, 27),5	2683,(3, 8),9	2693,(4, 39),1	2694,(1, 5),1	2695,(1, 13),1	2701,(1, 21),5	2706,(1, 23),3	2709,(1, 25),3	2714,(1, 37),3	2717,(20, 41),2	2719,(7, 41),2	2756,(10, 41),2	2821,(3, 29),16	2837,(12, 41),2	2839,(24, 41),2	2841,(6, 41),2	2843,(38, 41),2	2845,(9, 41),2	2847,(26, 41),2	2849,(28, 41),2	2851,(40, 41),2	2853,(22, 41),2	2855,(32, 41),2	2857,(34, 41),2	2859,(36, 41),2	2861,(15, 41),2	2863,(17, 41),2	2865,(30, 41),2	2867,(19, 41),2	2869,(14, 41),2	
2642,(3, 7),1	2692,(3, 10),55	2747,(3, 14),74	
# Outgoing
2642,(3, 7),1	2643,(3, 16),1	2644,(3, 25),4	2670,(3, 31),2	2672,(3, 35),1	2683,(3, 8),9	2692,(3, 10),55	2747,(3, 14),74	2821,(3, 29),16	2837,(12, 41),2	2839,(24, 41),2	2841,(6, 41),2	2843,(38, 41),2	2845,(9, 41),2	2847,(26, 41),2	2849,(28, 41),2	2851,(40, 41),2	2853,(22, 41),2	2855,(32, 41),2	2857,(34, 41),2	2859,(36, 41),2	2861,(15, 41),2	2863,(17, 41),2	2865,(30, 41),2	2867,(19, 41),2	
2648,(2, 9),4	2652,(2, 26),6	2658,(2, 28),1	2659,(2, 40),11	2714,(2, 19),42	
1,(0, 2),1316	1317,(0, 3),1316	2633,(4, 12),1	2634,(4, 15),13	2647,(4, 17),1	2648,(4, 18),22	2670,(4, 22),3	2673,(4, 25),5	2678,(4, 27),5	2683,(4, 32),1	2684,(4, 34),8	2692,(4, 36),1	2693,(4, 39),1	2694,(1, 5),1	2695,(1, 13),1	2696,(1, 15),1	2697,(1, 17),4	2701,(1, 21),5	2706,(1, 23),3	2709,(1, 25),3	2712,(1, 30),2	2714,(1, 37),3	2717,(20, 41),2	2719,(7, 41),2	2756,(10, 41),2	2869,(14, 41),2	
