1489
# CPU
0,0,1	1,7,37	38,4,37	75,3,37	112,1,37	149,5,37	186,68,37	223,11,37	260,49,37	297,28,37	334,53,37	371,73,37	408,62,37	445,39,37	482,64,37	519,77,37	556,24,37	593,37,37	630,69,37	667,66,37	704,27,37	741,76,37	778,26,37	815,48,37	852,32,37	889,63,37	926,80,37	963,35,37	1000,42,37	1037,34,37	1074,72,37	1111,31,37	1148,61,37	1185,67,37	1222,55,37	1259,79,37	1296,47,37	1333,59,37	1370,44,37	1407,75,37	1444,33,37	
8,2,37	45,8,37	82,74,37	119,51,37	156,50,37	193,71,37	230,6,37	267,45,37	304,18,37	341,21,37	378,15,37	415,16,37	452,23,37	489,57,37	526,30,37	563,25,37	600,78,37	637,17,37	674,56,37	711,54,37	748,40,37	785,52,37	822,65,37	859,58,37	896,22,37	933,43,37	970,70,37	1007,38,37	1044,19,37	1081,29,37	1118,41,37	1155,46,37	1192,36,37	1229,10,37	1266,9,37	1303,14,37	1340,20,37	1377,13,37	1414,60,37	1451,12,37	1488,81,1	
# Incoming
45,(2, 62),1	46,(2, 77),2	48,(2, 66),1	49,(2, 27),3	52,(2, 76),2	54,(2, 26),4	58,(2, 48),1	59,(2, 35),1	60,(2, 42),11	71,(2, 34),4	75,(2, 72),7	82,(8, 24),2	84,(8, 37),2	86,(8, 69),2	88,(8, 66),1	89,(8, 76),2	91,(8, 26),1	92,(8, 48),1	93,(8, 32),4	97,(8, 34),7	104,(8, 72),4	108,(2, 31),5	113,(8, 31),8	121,(8, 61),13	134,(2, 67),7	141,(8, 67),3	144,(2, 55),2	146,(8, 55),13	159,(2, 79),15	174,(8, 79),1	175,(2, 47),1	176,(8, 47),11	187,(2, 59),4	191,(2, 44),26	217,(8, 44),1	218,(2, 75),23	241,(8, 75),2	267,(6, 39),1	268,(6, 64),1	269,(6, 69),1	270,(6, 66),1	271,(6, 48),3	274,(6, 32),1	275,(6, 63),6	281,(6, 80),7	288,(6, 35),6	294,(6, 72),1	295,(6, 31),1	296,(6, 61),2	298,(6, 67),5	303,(6, 55),1	304,(6, 47),5	309,(6, 59),16	325,(6, 75),5	330,(8, 33),40	
1,(0, 2),7	8,(0, 8),7	15,(0, 6),7	38,(7, 51),6	44,(7, 18),1	45,(7, 21),2	47,(7, 57),3	50,(7, 54),3	53,(7, 58),10	63,(7, 22),2	65,(7, 38),3	68,(7, 14),1	69,(7, 12),1	75,(4, 74),2	77,(4, 51),1	78,(4, 50),1	79,(4, 15),1	80,(4, 16),1	81,(4, 30),1	82,(4, 25),4	86,(4, 54),3	89,(4, 40),9	98,(4, 70),8	106,(4, 38),1	107,(4, 29),1	112,(3, 71),1	113,(3, 45),1	114,(3, 15),1	115,(3, 78),1	116,(3, 17),1	117,(3, 56),6	123,(3, 54),1	124,(3, 52),10	134,(3, 58),1	135,(3, 43),10	145,(3, 70),4	149,(1, 50),3	152,(1, 15),1	153,(1, 23),3	156,(1, 30),3	159,(1, 78),6	165,(1, 17),4	169,(1, 56),1	170,(1, 43),3	173,(1, 70),1	174,(7, 19),9	183,(3, 29),3	186,(5, 71),3	189,(5, 16),2	191,(5, 57),1	192,(5, 25),1	193,(5, 17),2	195,(5, 56),1	196,(5, 54),2	198,(5, 65),10	208,(5, 22),10	218,(5, 70),3	221,(1, 38),13	234,(3, 19),4	238,(1, 19),5	243,(7, 29),14	257,(1, 29),1	258,(5, 29),4	262,(4, 41),7	269,(3, 41),16	285,(4, 46),25	310,(3, 46),1	311,(5, 46),1	312,(4, 36),12	324,(1, 36),1	325,(5, 36),14	339,(4, 10),42	381,(3, 10),1	382,(7, 9),25	407,(4, 9),7	414,(5, 9),15	429,(1, 14),19	448,(5, 14),27	475,(7, 20),8	483,(3, 20),14	497,(1, 20),27	524,(4, 13),12	536,(1, 13),42	578,(5, 13),6	584,(4, 60),37	621,(3, 60),27	648,(4, 12),97	745,(1, 12),3	748,(68, 81),4	752,(11, 81),4	756,(49, 81),4	760,(28, 81),4	764,(53, 81),4	768,(73, 81),4	772,(62, 81),4	776,(39, 81),4	780,(64, 81),4	784,(77, 81),4	788,(24, 81),4	792,(37, 81),4	796,(69, 81),4	800,(66, 81),4	804,(27, 81),4	808,(76, 81),4	815,(26, 81),4	852,(48, 81),4	889,(32, 81),4	926,(63, 81),4	963,(80, 81),4	1000,(35, 81),4	1037,(42, 81),4	1074,(34, 81),4	1111,(72, 81),4	1148,(31, 81),4	1185,(61, 81),4	1222,(67, 81),4	1259,(55, 81),4	1296,(79, 81),4	1333,(47, 81),4	1370,(59, 81),4	1407,(44, 81),4	1444,(75, 81),4	1481,(33, 81),4	
# Outgoing
1,(0, 2),7	8,(0, 8),7	15,(0, 6),7	38,(7, 51),6	44,(7, 18),1	45,(7, 21),2	47,(7, 57),3	50,(7, 54),3	53,(7, 58),10	63,(7, 22),2	65,(7, 38),3	68,(7, 14),1	69,(7, 12),1	75,(4, 74),2	77,(4, 51),1	78,(4, 50),1	79,(4, 15),1	80,(4, 16),1	81,(4, 30),1	82,(4, 25),4	86,(4, 54),3	89,(4, 40),9	98,(4, 70),8	106,(4, 38),1	107,(4, 29),1	112,(3, 71),1	113,(3, 45),1	114,(3, 15),1	115,(3, 78),1	116,(3, 17),1	117,(3, 56),6	123,(3, 54),1	124,(3, 52),10	134,(3, 58),1	135,(3, 43),10	145,(3, 70),4	149,(1, 50),3	152,(1, 15),1	153,(1, 23),3	156,(1, 30),3	159,(1, 78),6	165,(1, 17),4	169,(1, 56),1	170,(1, 43),3	173,(1, 70),1	174,(7, 19),9	183,(3, 29),3	186,(5, 71),3	189,(5, 16),2	191,(5, 57),1	192,(5, 25),1	193,(5, 17),2	195,(5, 56),1	196,(5, 54),2	198,(5, 65),10	208,(5, 22),10	218,(5, 70),3	221,(1, 38),13	234,(3, 19),4	238,(1, 19),5	243,(7, 29),14	257,(1, 29),1	258,(5, 29),4	262,(4, 41),7	269,(3, 41),16	285,(4, 46),25	310,(3, 46),1	311,(5, 46),1	312,(4, 36),12	324,(1, 36),1	325,(5, 36),14	339,(4, 10),42	381,(3, 10),1	382,(7, 9),25	407,(4, 9),7	414,(5, 9),15	429,(1, 14),19	448,(5, 14),27	475,(7, 20),8	483,(3, 20),14	497,(1, 20),27	524,(4, 13),12	536,(1, 13),42	578,(5, 13),6	584,(4, 60),37	621,(3, 60),27	648,(4, 12),97	745,(1, 12),3	748,(68, 81),4	752,(11, 81),4	756,(49, 81),4	760,(28, 81),4	764,(53, 81),4	768,(73, 81),4	772,(62, 81),4	776,(39, 81),4	780,(64, 81),4	784,(77, 81),4	788,(24, 81),4	792,(37, 81),4	796,(69, 81),4	800,(66, 81),4	804,(27, 81),4	808,(76, 81),4	815,(26, 81),4	852,(48, 81),4	889,(32, 81),4	926,(63, 81),4	963,(80, 81),4	1000,(35, 81),4	1037,(42, 81),4	1074,(34, 81),4	1111,(72, 81),4	1148,(31, 81),4	1185,(61, 81),4	1222,(67, 81),4	1259,(55, 81),4	1296,(79, 81),4	1333,(47, 81),4	1370,(59, 81),4	1407,(44, 81),4	1444,(75, 81),4	1481,(33, 81),4	
45,(2, 62),1	46,(2, 77),2	48,(2, 66),1	49,(2, 27),3	52,(2, 76),2	54,(2, 26),4	58,(2, 48),1	59,(2, 35),1	60,(2, 42),11	71,(2, 34),4	75,(2, 72),7	82,(8, 24),2	84,(8, 37),2	86,(8, 69),2	88,(8, 66),1	89,(8, 76),2	91,(8, 26),1	92,(8, 48),1	93,(8, 32),4	97,(8, 34),7	104,(8, 72),4	108,(2, 31),5	113,(8, 31),8	121,(8, 61),13	134,(2, 67),7	141,(8, 67),3	144,(2, 55),2	146,(8, 55),13	159,(2, 79),15	174,(8, 79),1	175,(2, 47),1	176,(8, 47),11	187,(2, 59),4	191,(2, 44),26	217,(8, 44),1	218,(2, 75),23	241,(8, 75),2	267,(6, 39),1	268,(6, 64),1	269,(6, 69),1	270,(6, 66),1	271,(6, 48),3	274,(6, 32),1	275,(6, 63),6	281,(6, 80),7	288,(6, 35),6	294,(6, 72),1	295,(6, 31),1	296,(6, 61),2	298,(6, 67),5	303,(6, 55),1	304,(6, 47),5	309,(6, 59),16	325,(6, 75),5	330,(8, 33),40	
