2084
# CPU
7,3,3	10,9,3	13,68,3	16,76,3	19,21,3	22,40,3	25,53,3	28,41,3	31,24,3	34,36,3	37,6,3	40,37,3	43,17,3	46,25,3	49,74,3	52,39,3	55,59,3	58,70,3	61,29,3	64,46,3	67,48,3	73,27,3	76,30,3	157,49,3	193,51,3	235,35,3	289,50,3	316,54,3	349,15,3	352,34,3	355,66,3	358,79,3	367,12,3	448,26,3	451,28,3	463,55,3	661,52,3	685,33,3	688,42,3	700,44,3	703,47,3	712,57,3	772,60,3	976,32,3	1273,38,3	1294,45,3	1378,56,3	1390,58,3	1408,62,3	1438,64,3	1456,72,3	
4,2,3	10,5,3	13,31,3	16,67,3	19,61,3	22,63,3	25,8,3	28,77,3	46,18,3	361,75,3	370,22,3	697,43,3	703,69,3	919,80,3	943,14,3	1033,65,3	1072,11,3	1162,23,3	1171,71,3	1198,73,3	2083,81,1	
0,0,1	1,4,3	4,1,3	7,7,3	10,13,3	409,20,3	499,10,3	1255,19,3	1372,16,3	2077,78,3	
# Incoming
4,(0, 3),3	10,(0, 6),3	13,(2, 37),3	16,(4, 17),3	19,(2, 29),30	49,(2, 44),3	52,(2, 46),3	55,(2, 48),6	61,(2, 66),3	64,(5, 66),3	67,(4, 27),6	73,(4, 30),3	76,(4, 49),81	157,(4, 51),36	193,(2, 35),42	235,(2, 50),54	289,(2, 54),27	316,(2, 57),15	331,(8, 15),18	349,(8, 34),3	352,(8, 66),3	355,(8, 79),3	361,(1, 12),6	370,(1, 26),78	448,(1, 28),3	451,(1, 55),12	463,(1, 60),3	466,(1, 62),102	568,(2, 52),93	661,(7, 33),24	685,(7, 42),3	688,(7, 44),12	700,(7, 47),3	703,(7, 57),9	712,(7, 60),60	772,(5, 32),204	1255,(8, 38),18	1273,(8, 45),21	1294,(8, 56),84	1378,(8, 58),12	1390,(8, 62),18	1408,(8, 64),30	1438,(8, 72),18	
1,(0, 2),3	7,(0, 5),3	13,(0, 8),3	19,(4, 18),27	46,(4, 22),21	193,(4, 75),168	367,(1, 22),3	409,(3, 43),288	697,(3, 69),6	703,(3, 71),6	709,(3, 80),210	919,(7, 11),3	922,(7, 14),21	943,(7, 65),90	1033,(9, 81),3	1036,(13, 81),3	1039,(68, 81),3	1042,(76, 81),3	1045,(21, 81),3	1048,(40, 81),3	1051,(53, 81),3	1054,(41, 81),3	1057,(24, 81),3	1060,(36, 81),3	1063,(6, 11),9	1072,(6, 23),90	1162,(6, 71),9	1171,(6, 73),27	1198,(37, 81),3	1201,(17, 81),3	1204,(25, 81),3	1207,(74, 81),3	1210,(39, 81),3	1213,(59, 81),3	1216,(70, 81),3	1219,(29, 81),3	1222,(46, 81),3	1225,(48, 81),3	1228,(27, 81),3	1231,(30, 81),3	1234,(49, 81),3	1237,(51, 81),3	1240,(35, 81),3	1243,(50, 81),3	1246,(54, 81),3	1249,(15, 81),3	1252,(34, 81),3	1255,(20, 81),3	1258,(10, 81),3	1261,(19, 81),3	1372,(66, 81),3	1375,(79, 81),3	1378,(12, 81),3	1381,(26, 81),3	1384,(28, 81),3	1387,(55, 81),3	1390,(52, 81),3	1393,(33, 81),3	1396,(42, 81),3	1399,(44, 81),3	1402,(47, 81),3	1405,(57, 81),3	1408,(60, 81),3	1411,(32, 81),3	1414,(38, 81),3	1417,(45, 81),3	1420,(16, 81),3	1423,(56, 81),3	1426,(58, 81),3	1429,(62, 81),3	1441,(64, 81),3	1459,(72, 81),3	2080,(78, 81),3	
7,(2, 16),3	10,(3, 20),399	409,(5, 16),81	490,(8, 10),9	976,(8, 19),279	1255,(6, 16),117	1456,(8, 78),621	
# Outgoing
10,(3, 20),399	409,(3, 43),288	697,(3, 69),6	703,(3, 71),6	709,(3, 80),210	1033,(9, 81),3	1039,(68, 81),3	1042,(76, 81),3	1045,(21, 81),3	1048,(40, 81),3	1051,(53, 81),3	1054,(41, 81),3	1057,(24, 81),3	1060,(36, 81),3	1063,(6, 11),9	1072,(6, 23),90	1162,(6, 71),9	1171,(6, 73),27	1198,(37, 81),3	1201,(17, 81),3	1204,(25, 81),3	1207,(74, 81),3	1210,(39, 81),3	1213,(59, 81),3	1216,(70, 81),3	1219,(29, 81),3	1222,(46, 81),3	1225,(48, 81),3	1228,(27, 81),3	1231,(30, 81),3	1234,(49, 81),3	1237,(51, 81),3	1240,(35, 81),3	1243,(50, 81),3	1246,(54, 81),3	1249,(15, 81),3	1252,(34, 81),3	1255,(6, 16),117	1372,(66, 81),3	1375,(79, 81),3	1378,(12, 81),3	1381,(26, 81),3	1384,(28, 81),3	1387,(55, 81),3	1390,(52, 81),3	1393,(33, 81),3	1396,(42, 81),3	1399,(44, 81),3	1402,(47, 81),3	1405,(57, 81),3	1408,(60, 81),3	1411,(32, 81),3	1414,(38, 81),3	1417,(45, 81),3	1423,(56, 81),3	1426,(58, 81),3	1429,(62, 81),3	1441,(64, 81),3	1459,(72, 81),3	
7,(2, 16),3	13,(2, 37),3	19,(2, 29),30	49,(2, 44),3	52,(2, 46),3	55,(2, 48),6	61,(2, 66),3	64,(5, 66),3	193,(2, 35),42	235,(2, 50),54	289,(2, 54),27	316,(2, 57),15	331,(8, 15),18	349,(8, 34),3	352,(8, 66),3	355,(8, 79),3	409,(5, 16),81	490,(8, 10),9	568,(2, 52),93	772,(5, 32),204	976,(8, 19),279	1255,(8, 38),18	1273,(8, 45),21	1294,(8, 56),84	1378,(8, 58),12	1390,(8, 62),18	1408,(8, 64),30	1438,(8, 72),18	1456,(8, 78),621	
1,(0, 2),3	4,(0, 3),3	7,(0, 5),3	10,(0, 6),3	13,(0, 8),3	16,(4, 17),3	19,(4, 18),27	46,(4, 22),21	67,(4, 27),6	73,(4, 30),3	76,(4, 49),81	157,(4, 51),36	193,(4, 75),168	361,(1, 12),6	367,(1, 22),3	370,(1, 26),78	448,(1, 28),3	451,(1, 55),12	463,(1, 60),3	466,(1, 62),102	661,(7, 33),24	685,(7, 42),3	688,(7, 44),12	700,(7, 47),3	703,(7, 57),9	712,(7, 60),60	919,(7, 11),3	922,(7, 14),21	943,(7, 65),90	1036,(13, 81),3	1255,(20, 81),3	1258,(10, 81),3	1261,(19, 81),3	1420,(16, 81),3	2080,(78, 81),3	
