1202
# CPU
7,2,10	17,4,10	27,7,10	37,28,10	47,10,10	57,36,10	67,38,10	77,31,10	87,34,10	97,21,10	107,29,10	117,22,10	127,20,10	137,19,10	147,16,10	157,14,10	237,26,10	371,33,10	603,37,10	613,40,10	623,8,10	633,9,10	643,12,10	653,23,10	663,24,10	673,25,10	683,27,10	693,30,10	703,32,10	719,35,10	729,39,10	1201,41,1	
0,0,1	1,3,10	11,1,10	29,13,10	1017,18,10	1027,5,10	1065,6,10	1097,11,10	1139,15,10	1187,17,10	
# Incoming
1,(0, 2),6	7,(0, 4),6	13,(3, 12),52	65,(3, 14),2	67,(3, 23),148	215,(3, 24),2	217,(3, 25),2	219,(3, 26),18	237,(3, 27),2	239,(3, 30),2	241,(3, 33),130	371,(3, 37),232	603,(3, 40),10	613,(1, 8),6	619,(1, 9),10	629,(1, 12),2	631,(1, 23),6	637,(1, 24),2	639,(1, 25),4	643,(1, 27),28	671,(1, 30),2	673,(1, 32),18	691,(1, 35),28	719,(1, 39),2	721,(13, 41),4	1027,(18, 41),4	1037,(5, 41),4	1075,(6, 41),4	1107,(11, 41),4	1149,(15, 41),4	1197,(17, 41),4	
17,(2, 11),10	27,(2, 13),2	29,(2, 15),20	49,(2, 18),968	1017,(4, 5),2	1019,(4, 6),46	1065,(4, 11),32	1097,(4, 15),42	1139,(4, 17),48	
# Outgoing
17,(2, 11),10	27,(2, 13),2	29,(2, 15),20	49,(2, 18),968	1017,(4, 5),2	1019,(4, 6),46	1065,(4, 11),32	1097,(4, 15),42	1139,(4, 17),48	
1,(0, 2),6	7,(0, 4),6	13,(3, 12),52	65,(3, 14),2	67,(3, 23),148	215,(3, 24),2	217,(3, 25),2	219,(3, 26),18	237,(3, 27),2	239,(3, 30),2	241,(3, 33),130	371,(3, 37),232	603,(3, 40),10	613,(1, 8),6	619,(1, 9),10	629,(1, 12),2	631,(1, 23),6	637,(1, 24),2	639,(1, 25),4	643,(1, 27),28	671,(1, 30),2	673,(1, 32),18	691,(1, 35),28	719,(1, 39),2	721,(13, 41),4	1027,(18, 41),4	1037,(5, 41),4	1075,(6, 41),4	1107,(11, 41),4	1149,(15, 41),4	1197,(17, 41),4	
