3710
# CPU
37,5,7	44,10,7	51,20,7	103,65,7	127,40,7	244,60,7	769,75,7	796,15,7	859,25,7	866,30,7	958,35,7	1666,45,7	1678,55,7	1708,70,7	1846,80,7	1906,50,7	
28,4,7	35,39,7	79,24,7	88,59,7	112,29,7	119,14,7	126,19,7	133,69,7	142,74,7	166,44,7	223,64,7	457,54,7	820,9,7	871,34,7	1027,49,7	1078,79,7	
19,3,7	26,28,7	55,8,7	62,23,7	69,13,7	97,48,7	104,68,7	121,53,7	128,63,7	202,33,7	232,38,7	256,73,7	352,58,7	772,78,7	826,18,7	1015,43,7	
10,2,7	46,7,7	53,42,7	127,17,7	172,57,7	184,32,7	220,62,7	241,52,7	304,22,7	370,27,7	472,37,7	823,12,7	1042,67,7	1051,72,7	1058,77,7	1675,47,7	
0,0,1	1,6,7	8,1,7	15,41,7	70,21,7	91,11,7	100,51,7	109,36,7	139,16,7	208,61,7	406,56,7	583,31,7	694,26,7	701,46,7	733,71,7	1705,66,7	1712,76,7	3709,81,1	
# Incoming
28,(0, 5),9	37,(2, 10),6	100,(2, 65),3	112,(3, 30),6	124,(3, 40),3	223,(3, 70),6	229,(3, 75),3	232,(8, 45),3	241,(6, 60),3	256,(6, 75),513	769,(8, 15),27	826,(1, 25),33	859,(1, 30),3	862,(3, 35),96	958,(4, 45),708	1675,(4, 55),3	1705,(4, 70),3	1708,(7, 80),138	1846,(8, 50),60	
19,(0, 4),9	67,(5, 24),12	79,(5, 59),9	91,(3, 29),21	112,(7, 14),3	115,(7, 19),3	124,(7, 69),9	133,(7, 74),9	157,(3, 44),9	220,(3, 64),3	232,(6, 49),3	235,(3, 49),99	352,(7, 54),105	772,(1, 9),48	862,(1, 34),9	1015,(1, 49),12	1057,(1, 79),21	
10,(0, 3),9	46,(0, 8),9	55,(5, 13),12	70,(2, 48),27	97,(5, 68),6	118,(7, 53),3	121,(7, 63),3	127,(6, 18),54	184,(6, 33),18	202,(6, 38),30	253,(6, 73),3	256,(2, 58),96	769,(6, 78),3	823,(1, 18),3	871,(1, 43),144	
1,(0, 2),9	37,(0, 7),9	55,(6, 17),72	127,(3, 27),24	151,(3, 37),6	166,(3, 57),6	181,(6, 32),3	184,(5, 72),12	208,(3, 62),12	235,(6, 52),6	244,(6, 72),9	253,(5, 22),51	304,(5, 27),66	460,(8, 12),6	466,(8, 37),6	820,(1, 12),3	1027,(1, 67),15	1042,(1, 72),9	1051,(1, 77),6	1666,(4, 47),9	
43,(2, 11),3	46,(2, 21),24	70,(3, 11),21	97,(2, 51),3	103,(2, 66),3	106,(7, 36),3	109,(7, 46),3	118,(3, 31),6	124,(5, 16),15	139,(5, 71),30	172,(3, 61),36	208,(5, 56),39	334,(3, 56),72	406,(28, 81),54	460,(10, 81),54	514,(7, 31),69	583,(20, 81),54	637,(42, 81),54	691,(8, 26),3	694,(8, 46),6	700,(8, 71),33	733,(65, 81),54	796,(23, 81),54	850,(17, 81),54	904,(40, 81),54	958,(13, 81),54	1012,(48, 81),54	1066,(68, 81),54	1120,(53, 81),54	1174,(63, 81),54	1228,(57, 81),54	1282,(32, 81),54	1336,(33, 81),54	1390,(62, 81),54	1444,(38, 81),54	1498,(52, 81),54	1552,(60, 81),54	1606,(73, 81),54	1678,(4, 66),27	1708,(4, 76),3	1711,(39, 81),54	1765,(24, 81),54	1819,(59, 81),54	1873,(29, 81),54	1927,(14, 81),54	1981,(19, 81),54	2035,(69, 81),54	2089,(74, 81),54	2143,(44, 81),54	2197,(64, 81),54	2251,(22, 81),54	2305,(58, 81),54	2359,(27, 81),54	2413,(54, 81),54	2467,(37, 81),54	2521,(75, 81),54	2575,(78, 81),54	2629,(15, 81),54	2683,(9, 81),54	2737,(12, 81),54	2791,(18, 81),54	2845,(25, 81),54	2899,(30, 81),54	2953,(34, 81),54	3007,(35, 81),54	3061,(43, 81),54	3115,(49, 81),54	3169,(67, 81),54	3223,(72, 81),54	3277,(77, 81),54	3331,(79, 81),54	3385,(45, 81),54	3439,(47, 81),54	3493,(55, 81),54	3547,(70, 81),54	3601,(80, 81),54	3655,(50, 81),54	
# Outgoing
55,(5, 13),12	67,(5, 24),12	79,(5, 59),9	97,(5, 68),6	124,(5, 16),15	139,(5, 71),30	184,(5, 72),12	208,(5, 56),39	253,(5, 22),51	304,(5, 27),66	460,(10, 81),54	583,(20, 81),54	733,(65, 81),54	904,(40, 81),54	1552,(60, 81),54	2521,(75, 81),54	2629,(15, 81),54	2845,(25, 81),54	2899,(30, 81),54	3007,(35, 81),54	3385,(45, 81),54	3493,(55, 81),54	3547,(70, 81),54	3601,(80, 81),54	3655,(50, 81),54	
958,(4, 45),708	1666,(4, 47),9	1675,(4, 55),3	1678,(4, 66),27	1705,(4, 70),3	1708,(4, 76),3	1711,(39, 81),54	1765,(24, 81),54	1819,(59, 81),54	1873,(29, 81),54	1927,(14, 81),54	1981,(19, 81),54	2035,(69, 81),54	2089,(74, 81),54	2143,(44, 81),54	2197,(64, 81),54	2413,(54, 81),54	2683,(9, 81),54	2953,(34, 81),54	3115,(49, 81),54	3331,(79, 81),54	
70,(3, 11),21	91,(3, 29),21	112,(3, 30),6	118,(3, 31),6	124,(3, 40),3	127,(3, 27),24	151,(3, 37),6	157,(3, 44),9	166,(3, 57),6	172,(3, 61),36	208,(3, 62),12	220,(3, 64),3	223,(3, 70),6	229,(3, 75),3	232,(8, 45),3	235,(3, 49),99	334,(3, 56),72	406,(28, 81),54	460,(8, 12),6	466,(8, 37),6	691,(8, 26),3	694,(8, 46),6	700,(8, 71),33	769,(8, 15),27	796,(23, 81),54	862,(3, 35),96	958,(13, 81),54	1012,(48, 81),54	1066,(68, 81),54	1120,(53, 81),54	1174,(63, 81),54	1336,(33, 81),54	1444,(38, 81),54	1606,(73, 81),54	1846,(8, 50),60	2305,(58, 81),54	2575,(78, 81),54	2791,(18, 81),54	3061,(43, 81),54	
37,(2, 10),6	43,(2, 11),3	46,(2, 21),24	70,(2, 48),27	97,(2, 51),3	100,(2, 65),3	103,(2, 66),3	106,(7, 36),3	109,(7, 46),3	112,(7, 14),3	115,(7, 19),3	118,(7, 53),3	121,(7, 63),3	124,(7, 69),9	133,(7, 74),9	256,(2, 58),96	352,(7, 54),105	514,(7, 31),69	637,(42, 81),54	850,(17, 81),54	1228,(57, 81),54	1282,(32, 81),54	1390,(62, 81),54	1498,(52, 81),54	1708,(7, 80),138	2251,(22, 81),54	2359,(27, 81),54	2467,(37, 81),54	2737,(12, 81),54	3169,(67, 81),54	3223,(72, 81),54	3277,(77, 81),54	3439,(47, 81),54	
1,(0, 2),9	10,(0, 3),9	19,(0, 4),9	28,(0, 5),9	37,(0, 7),9	46,(0, 8),9	55,(6, 17),72	127,(6, 18),54	181,(6, 32),3	184,(6, 33),18	202,(6, 38),30	232,(6, 49),3	235,(6, 52),6	241,(6, 60),3	244,(6, 72),9	253,(6, 73),3	256,(6, 75),513	769,(6, 78),3	772,(1, 9),48	820,(1, 12),3	823,(1, 18),3	826,(1, 25),33	859,(1, 30),3	862,(1, 34),9	871,(1, 43),144	1015,(1, 49),12	1027,(1, 67),15	1042,(1, 72),9	1051,(1, 77),6	1057,(1, 79),21	
