12331
# CPU
0,0,1	1,4,183	184,13,183	367,15,183	550,14,183	733,12,183	916,8,183	1099,1,183	1282,10,183	1465,2,183	1648,130,183	1831,128,183	2014,163,183	2197,164,183	2380,189,183	2563,77,183	2746,66,183	2929,200,183	3112,74,183	3295,113,183	3478,157,183	3661,75,183	3844,196,183	4027,150,183	4210,52,183	4393,181,183	4576,111,183	4759,79,183	4942,29,183	5125,48,183	5308,107,183	5491,121,183	5674,105,183	5857,31,183	6040,91,183	6223,193,183	6406,51,183	6589,50,183	6772,185,183	6955,98,183	7138,169,183	7321,112,183	7504,197,183	7687,116,183	7870,124,183	8053,171,183	8236,198,183	8419,72,183	8602,176,183	8785,102,183	8968,68,183	9151,134,183	9334,109,183	9517,190,183	9700,62,183	9883,145,183	10066,106,183	10249,143,183	10432,59,183	10615,172,183	10798,42,183	10981,126,183	11164,26,183	11347,184,183	11530,88,183	11713,36,183	11896,56,183	12079,136,183	12330,201,1	
13,18,183	196,16,183	379,6,183	562,19,183	745,11,183	928,47,183	1111,9,183	1294,82,183	1477,67,183	1660,30,183	1843,55,183	2026,97,183	2209,80,183	2392,165,183	2575,123,183	2758,178,183	2941,177,183	3124,89,183	3307,170,183	3490,117,183	3673,65,183	3856,168,183	4039,125,183	4222,110,183	4405,21,183	4588,120,183	4771,87,183	4954,154,183	5137,37,183	5320,44,183	5503,28,183	5686,133,183	5869,151,183	6052,101,183	6235,188,183	6418,99,183	6601,38,183	6784,138,183	6967,108,183	7150,153,183	7333,199,183	7516,41,183	7699,60,183	7882,139,183	8065,93,183	8248,131,183	8431,53,183	8614,32,183	8797,34,183	8980,23,183	9163,159,183	9346,114,183	9529,183,183	9712,69,183	9895,104,183	10078,119,183	10261,94,183	10444,191,183	10627,22,183	10810,96,183	10993,180,183	11176,46,183	11359,63,183	11542,137,183	11725,166,183	11908,122,183	12091,76,183	
25,17,183	208,7,183	391,40,183	574,5,183	757,3,183	940,20,183	1123,149,183	1306,156,183	1489,160,183	1672,144,183	1855,158,183	2038,85,183	2221,179,183	2404,95,183	2587,61,183	2770,194,183	2953,33,183	3136,25,183	3319,155,183	3502,167,183	3685,70,183	3868,39,183	4051,161,183	4234,152,183	4417,35,183	4600,73,183	4783,174,183	4966,54,183	5149,57,183	5332,187,183	5515,45,183	5698,192,183	5881,162,183	6064,58,183	6247,140,183	6430,86,183	6613,146,183	6796,142,183	6979,71,183	7162,182,183	7345,83,183	7528,141,183	7711,43,183	7894,173,183	8077,100,183	8260,24,183	8443,115,183	8626,127,183	8809,147,183	8992,84,183	9175,78,183	9358,27,183	9541,81,183	9724,132,183	9907,118,183	10090,135,183	10273,103,183	10456,186,183	10639,195,183	10822,64,183	11005,90,183	11188,175,183	11371,129,183	11554,92,183	11737,148,183	11920,49,183	
# Incoming
952,(3, 164),4	956,(18, 77),4	960,(11, 200),4	964,(11, 113),8	972,(6, 157),4	976,(19, 157),4	980,(7, 74),8	988,(19, 75),12	1000,(5, 196),4	1004,(3, 196),8	1020,(11, 150),4	1024,(3, 150),8	1032,(7, 181),4	1048,(18, 52),12	1060,(6, 181),4	1064,(19, 111),16	1080,(17, 79),8	1088,(17, 29),4	1092,(11, 48),12	1104,(16, 107),4	1108,(16, 121),16	1124,(11, 121),4	1128,(16, 105),4	1132,(6, 91),8	1140,(11, 193),4	1147,(7, 107),12	1159,(20, 121),4	1163,(17, 193),4	1167,(3, 50),4	1179,(7, 105),12	1191,(3, 105),12	1203,(19, 193),20	1223,(18, 98),4	1227,(18, 124),4	1247,(5, 31),32	1279,(17, 91),12	1291,(20, 185),4	1298,(9, 189),4	1302,(9, 66),4	1306,(5, 193),8	1314,(9, 181),8	1322,(9, 79),12	1334,(9, 29),20	1354,(9, 48),12	1366,(9, 107),8	1374,(7, 91),12	1386,(19, 51),28	1414,(3, 51),8	1422,(18, 50),36	1458,(3, 185),40	1498,(19, 98),12	1510,(5, 98),12	1522,(3, 98),4	1526,(20, 98),12	1538,(9, 169),44	1585,(17, 112),4	1589,(3, 112),40	1629,(6, 197),44	1673,(9, 116),44	1717,(16, 124),4	1721,(6, 124),36	1757,(6, 171),20	1777,(19, 171),24	1801,(6, 198),12	1813,(16, 176),4	1817,(16, 106),4	1824,(3, 124),4	1828,(11, 198),36	1864,(19, 72),20	1884,(18, 102),8	1892,(7, 171),8	1900,(17, 198),4	1904,(5, 72),4	1908,(11, 176),28	1936,(6, 102),20	1956,(16, 145),12	1968,(7, 72),32	2000,(7, 176),4	2004,(7, 102),4	2008,(19, 68),64	2072,(3, 176),24	2096,(9, 106),4	2100,(6, 143),4	2104,(9, 143),4	2108,(19, 59),4	2112,(20, 102),28	2140,(7, 134),48	2188,(5, 62),4	2192,(6, 62),28	2220,(11, 106),20	2240,(5, 134),16	2256,(17, 109),72	2328,(19, 145),36	2364,(11, 59),16	2380,(16, 172),4	2384,(18, 26),8	2392,(19, 56),4	2396,(3, 62),40	2436,(3, 145),4	2440,(7, 143),4	2444,(9, 172),44	2488,(6, 42),44	2536,(17, 190),72	2608,(20, 145),20	2628,(11, 42),24	2652,(7, 106),44	2696,(5, 143),16	2712,(3, 143),48	2760,(18, 126),16	2776,(19, 26),36	2812,(11, 26),20	2832,(17, 59),12	2844,(7, 59),20	2864,(5, 59),36	2900,(7, 172),12	2912,(17, 42),4	2916,(7, 42),20	2936,(16, 26),64	3000,(19, 184),12	3016,(5, 172),32	3048,(7, 126),100	3148,(20, 126),12	3160,(11, 184),152	3312,(6, 88),16	3328,(19, 88),24	3352,(11, 36),40	3392,(18, 56),16	3408,(47, 201),56	3488,(3, 88),184	3672,(5, 36),52	3724,(5, 136),8	3732,(20, 136),44	3796,(82, 201),56	3856,(17, 36),148	4004,(67, 201),56	4072,(17, 56),112	4184,(9, 56),120	4308,(40, 201),56	4364,(149, 201),56	4420,(156, 201),56	4476,(30, 201),56	4584,(7, 136),344	4928,(160, 201),56	4984,(144, 201),56	5040,(55, 201),56	5096,(97, 201),56	5152,(158, 201),56	5208,(85, 201),56	5264,(80, 201),56	5320,(179, 201),56	5376,(165, 201),56	5432,(95, 201),56	5488,(123, 201),56	5544,(61, 201),56	5600,(178, 201),56	5656,(194, 201),56	5712,(177, 201),56	5768,(33, 201),56	5824,(89, 201),56	5880,(25, 201),56	5936,(155, 201),56	5992,(167, 201),56	6048,(70, 201),56	6136,(170, 201),56	6192,(117, 201),56	6248,(65, 201),56	6304,(168, 201),56	6360,(39, 201),56	6416,(125, 201),56	6472,(161, 201),56	6528,(110, 201),56	6584,(152, 201),56	6640,(21, 201),56	6696,(35, 201),56	6752,(120, 201),56	6808,(73, 201),56	6864,(174, 201),56	6920,(54, 201),56	6976,(57, 201),56	7032,(187, 201),56	7128,(87, 201),56	7184,(154, 201),56	7240,(37, 201),56	7296,(44, 201),56	7352,(28, 201),56	7408,(45, 201),56	7464,(133, 201),56	7520,(192, 201),56	7576,(151, 201),56	7632,(162, 201),56	7688,(58, 201),56	7744,(140, 201),56	7800,(86, 201),56	7856,(146, 201),56	7912,(142, 201),56	7980,(101, 201),56	8036,(188, 201),56	8092,(99, 201),56	8148,(38, 201),56	8204,(138, 201),56	8260,(108, 201),56	8316,(153, 201),56	8372,(199, 201),56	8428,(41, 201),56	8512,(71, 201),56	8568,(60, 201),56	8624,(139, 201),56	8680,(93, 201),56	8736,(131, 201),56	8792,(53, 201),56	8848,(32, 201),56	8980,(34, 201),56	9163,(23, 201),56	9372,(182, 201),56	9428,(83, 201),56	9484,(141, 201),56	9540,(43, 201),56	9596,(173, 201),56	9652,(100, 201),56	9708,(24, 201),56	9764,(115, 201),56	9820,(127, 201),56	9876,(147, 201),56	9932,(84, 201),56	9988,(159, 201),56	10044,(78, 201),56	10100,(114, 201),56	10156,(27, 201),56	10212,(183, 201),56	10268,(81, 201),56	10324,(69, 201),56	10380,(132, 201),56	10436,(104, 201),56	10492,(118, 201),56	10548,(119, 201),56	10604,(135, 201),56	10660,(94, 201),56	10716,(103, 201),56	10772,(191, 201),56	10828,(186, 201),56	10884,(22, 201),56	10940,(195, 201),56	10996,(96, 201),56	11052,(64, 201),56	11176,(180, 201),56	11232,(90, 201),56	11359,(46, 201),56	11415,(175, 201),56	11542,(63, 201),56	11598,(129, 201),56	11725,(137, 201),56	11781,(92, 201),56	11908,(166, 201),56	11964,(148, 201),56	12091,(122, 201),56	12147,(49, 201),56	12274,(76, 201),56	
1,(0, 18),12	25,(0, 16),12	49,(0, 6),12	61,(0, 19),12	85,(0, 11),12	121,(0, 9),12	184,(4, 55),8	196,(4, 125),4	200,(4, 37),4	208,(4, 178),20	228,(4, 177),16	284,(4, 87),32	316,(4, 28),28	356,(4, 99),4	360,(4, 108),4	375,(13, 97),12	411,(13, 170),4	427,(13, 65),12	439,(13, 168),12	467,(13, 87),4	550,(15, 97),4	554,(15, 80),16	570,(15, 165),4	574,(15, 65),4	578,(15, 168),20	598,(15, 120),4	602,(13, 154),28	666,(13, 133),16	682,(13, 101),12	694,(13, 108),4	698,(15, 153),8	741,(14, 165),16	757,(14, 123),8	765,(14, 65),8	773,(14, 125),32	849,(14, 154),4	857,(14, 37),44	901,(14, 28),4	916,(12, 47),12	928,(12, 55),4	940,(3, 67),8	948,(17, 55),4	952,(12, 117),4	956,(17, 80),4	960,(7, 123),4	964,(5, 123),4	968,(3, 123),8	976,(7, 177),4	980,(12, 65),8	988,(17, 89),4	992,(12, 89),20	1012,(5, 117),4	1016,(17, 110),4	1020,(12, 110),8	1028,(12, 21),8	1036,(17, 120),4	1040,(7, 120),20	1060,(12, 120),8	1068,(3, 120),4	1072,(12, 87),8	1080,(12, 188),4	1084,(4, 199),8	1092,(7, 44),4	1099,(8, 30),4	1103,(17, 154),16	1119,(5, 44),4	1123,(20, 110),8	1131,(20, 21),16	1159,(8, 37),12	1171,(3, 44),4	1175,(3, 28),4	1179,(8, 151),8	1203,(17, 133),44	1247,(14, 38),16	1263,(14, 138),16	1282,(1, 82),4	1286,(1, 165),4	1290,(1, 89),4	1294,(1, 110),4	1298,(3, 99),4	1302,(1, 117),24	1326,(5, 101),16	1342,(17, 188),20	1362,(5, 153),12	1386,(1, 28),24	1410,(7, 34),4	1414,(14, 151),44	1473,(10, 178),4	1477,(10, 177),4	1497,(10, 170),24	1529,(10, 21),16	1545,(20, 101),40	1585,(10, 44),48	1633,(1, 151),12	1648,(2, 30),4	1652,(5, 199),8	1660,(2, 177),4	1664,(7, 159),4	1668,(5, 183),4	1672,(2, 110),16	1688,(7, 188),44	1732,(7, 99),52	1784,(3, 38),28	1812,(17, 41),12	1824,(1, 188),4	1828,(5, 138),64	1892,(1, 99),4	1896,(10, 99),12	1908,(7, 199),24	1932,(5, 41),16	1948,(17, 93),20	1980,(13, 38),36	2016,(5, 131),56	2096,(20, 32),16	2112,(1, 108),80	2192,(17, 32),24	2216,(20, 34),24	2256,(13, 153),48	2304,(1, 153),4	2308,(2, 153),20	2328,(20, 114),60	2388,(7, 183),8	2396,(15, 199),44	2440,(8, 199),12	2452,(5, 32),84	2548,(13, 41),64	2612,(10, 41),8	2628,(20, 104),24	2660,(4, 60),24	2684,(14, 60),48	2732,(10, 60),24	2756,(2, 60),4	2760,(7, 69),72	2832,(15, 139),76	2908,(10, 139),20	2928,(2, 139),8	2936,(5, 69),52	2988,(17, 119),8	2996,(17, 94),4	3000,(7, 94),16	3032,(4, 93),52	3084,(14, 93),16	3100,(12, 93),4	3104,(8, 93),12	3116,(13, 131),4	3120,(14, 131),48	3168,(7, 53),108	3276,(20, 22),4	3280,(13, 53),16	3296,(20, 119),48	3344,(5, 94),80	3424,(17, 22),12	3436,(5, 46),52	3496,(15, 34),8	3504,(8, 34),92	3668,(12, 23),64	3732,(2, 23),72	3804,(20, 137),52	3904,(12, 159),4	3908,(8, 159),4	3912,(10, 159),124	4036,(2, 159),4	4040,(5, 166),32	4108,(14, 114),80	4188,(8, 114),4	4192,(2, 114),4	4196,(3, 191),112	4340,(15, 183),128	4468,(8, 183),4	4472,(10, 183),4	4476,(5, 137),108	4620,(10, 69),24	4756,(4, 104),4	4760,(13, 104),88	4848,(14, 104),8	4856,(10, 104),28	4972,(14, 119),36	5008,(12, 119),72	5080,(8, 119),4	5084,(7, 76),68	5208,(15, 94),32	5240,(12, 94),28	5268,(8, 94),4	5272,(10, 94),20	5412,(13, 191),72	5484,(14, 191),4	5624,(10, 22),180	5804,(2, 22),4	5944,(13, 96),4	5948,(15, 96),44	5992,(14, 96),156	6148,(10, 96),8	6156,(5, 180),156	6312,(4, 180),8	6320,(15, 180),32	6352,(1, 180),16	6588,(4, 46),180	6768,(13, 46),8	6776,(12, 46),20	6796,(2, 46),4	6900,(15, 63),160	7060,(14, 63),80	7140,(1, 63),4	7144,(10, 63),4	7148,(2, 63),20	7380,(10, 137),116	7664,(4, 166),4	7668,(13, 166),192	7860,(14, 166),4	7864,(2, 166),116	8076,(15, 122),44	8120,(12, 122),16	8136,(3, 122),376	8512,(1, 122),48	8560,(10, 122),4	8564,(15, 76),4	8568,(12, 76),20	8588,(3, 76),784	9372,(10, 76),4	9376,(2, 76),716	
13,(0, 17),12	37,(0, 7),12	73,(0, 5),12	97,(0, 3),12	109,(0, 20),12	192,(4, 179),4	196,(18, 40),8	204,(4, 95),4	208,(18, 61),12	220,(18, 167),4	224,(18, 35),8	232,(18, 162),4	236,(18, 142),4	240,(18, 195),4	244,(4, 152),40	284,(18, 192),16	300,(18, 182),24	324,(18, 90),4	344,(4, 45),8	352,(4, 162),4	367,(13, 158),8	379,(16, 194),4	383,(16, 35),4	387,(13, 179),12	399,(13, 194),12	411,(16, 140),4	415,(13, 155),12	427,(16, 142),8	435,(16, 182),4	439,(16, 84),4	443,(16, 118),4	447,(16, 186),4	451,(13, 39),16	467,(16, 92),4	471,(4, 174),52	523,(13, 57),20	543,(13, 140),4	562,(6, 95),4	566,(6, 167),32	598,(6, 86),4	602,(6, 142),4	606,(6, 173),4	610,(16, 115),20	630,(13, 54),28	658,(15, 54),8	666,(16, 45),40	706,(15, 45),4	710,(15, 192),12	722,(4, 142),8	733,(14, 160),8	741,(6, 103),4	745,(19, 95),8	753,(19, 70),20	773,(19, 54),8	781,(19, 187),12	793,(19, 192),4	797,(19, 146),8	805,(14, 161),4	809,(14, 35),40	849,(19, 100),4	853,(14, 54),4	857,(16, 71),28	885,(19, 141),8	893,(6, 78),12	905,(14, 45),8	913,(19, 27),4	917,(6, 135),8	928,(11, 25),4	932,(12, 194),4	936,(12, 155),16	952,(11, 45),4	956,(12, 152),8	964,(12, 187),4	968,(14, 58),4	972,(14, 142),4	976,(13, 141),4	980,(11, 141),4	984,(11, 43),4	988,(13, 100),4	1000,(11, 70),20	1024,(11, 161),24	1048,(12, 173),8	1056,(13, 147),4	1068,(12, 78),4	1080,(11, 115),4	1084,(6, 186),8	1092,(12, 81),4	1103,(8, 85),12	1115,(8, 33),8	1123,(8, 39),28	1151,(8, 161),8	1159,(11, 57),20	1179,(19, 186),8	1187,(15, 162),44	1231,(11, 162),16	1247,(19, 43),32	1279,(11, 175),4	1283,(19, 148),4	1294,(9, 156),4	1298,(1, 155),4	1306,(9, 25),8	1326,(1, 73),32	1358,(1, 54),8	1366,(1, 187),20	1410,(1, 45),4	1414,(9, 100),4	1418,(9, 127),4	1458,(1, 58),4	1465,(10, 158),4	1469,(10, 61),4	1481,(10, 33),12	1493,(10, 25),4	1521,(10, 161),8	1545,(10, 73),20	1565,(10, 174),4	1569,(10, 57),16	1585,(9, 146),28	1613,(19, 49),12	1652,(2, 144),8	1664,(2, 25),4	1668,(2, 161),4	1688,(2, 57),4	1692,(10, 187),20	1712,(2, 187),4	1716,(2, 192),40	1756,(10, 162),4	1760,(13, 58),60	1820,(2, 58),4	1828,(8, 140),36	1864,(2, 140),28	1908,(8, 86),56	1964,(10, 86),16	1980,(19, 84),20	2016,(4, 146),24	2040,(1, 146),4	2044,(10, 146),12	2056,(1, 142),20	2076,(10, 142),36	2112,(9, 141),40	2152,(11, 100),40	2192,(10, 71),64	2256,(16, 100),60	2328,(8, 182),64	2392,(10, 182),4	2396,(18, 147),44	2452,(4, 83),56	2508,(12, 83),36	2544,(1, 83),4	2548,(19, 78),52	2620,(14, 141),28	2648,(2, 141),12	2660,(9, 132),36	2696,(9, 135),44	2760,(14, 43),72	2832,(19, 118),80	2936,(4, 173),96	3032,(11, 103),56	3088,(9, 186),28	3116,(9, 195),44	3168,(1, 24),112	3296,(4, 115),8	3304,(13, 115),8	3312,(1, 115),12	3324,(10, 115),32	3356,(2, 115),28	3384,(13, 127),24	3408,(8, 127),84	3492,(1, 127),4	3496,(18, 64),56	3552,(19, 129),36	3596,(15, 147),16	3612,(8, 147),4	3616,(1, 147),8	3624,(2, 147),44	3668,(9, 175),128	3804,(15, 84),68	3872,(14, 84),32	4040,(13, 78),68	4196,(1, 27),40	4236,(10, 27),44	4280,(2, 27),60	4476,(15, 81),92	4568,(1, 81),4	4572,(10, 81),48	4644,(15, 132),104	4748,(12, 132),8	4884,(13, 118),16	4900,(1, 118),72	5084,(13, 135),8	5092,(15, 135),116	5292,(4, 103),84	5376,(13, 103),4	5380,(15, 103),8	5388,(8, 103),4	5392,(10, 103),20	5488,(15, 186),96	5584,(12, 186),40	5808,(13, 195),8	5816,(2, 195),128	5944,(18, 49),192	6156,(10, 64),156	6368,(4, 90),4	6372,(8, 90),68	6440,(10, 90),4	6444,(2, 90),144	6800,(1, 175),48	6848,(10, 175),52	6900,(19, 92),228	7168,(4, 129),8	7176,(14, 129),24	7200,(10, 129),180	7496,(13, 92),28	7524,(15, 92),16	7540,(8, 92),124	7664,(9, 148),316	7980,(4, 148),4	7984,(13, 148),8	7992,(14, 148),52	8044,(12, 148),24	8068,(8, 148),8	8136,(4, 49),28	8164,(15, 49),16	8180,(8, 49),84	8264,(1, 49),40	8304,(10, 49),132	8436,(2, 49),4	
# Outgoing
1,(0, 18),12	13,(0, 17),12	25,(0, 16),12	37,(0, 7),12	49,(0, 6),12	61,(0, 19),12	73,(0, 5),12	85,(0, 11),12	97,(0, 3),12	109,(0, 20),12	121,(0, 9),12	184,(4, 55),8	192,(4, 179),4	196,(4, 125),4	200,(4, 37),4	204,(4, 95),4	208,(4, 178),20	228,(4, 177),16	244,(4, 152),40	284,(4, 87),32	316,(4, 28),28	344,(4, 45),8	352,(4, 162),4	356,(4, 99),4	360,(4, 108),4	367,(13, 158),8	375,(13, 97),12	387,(13, 179),12	399,(13, 194),12	411,(13, 170),4	415,(13, 155),12	427,(13, 65),12	439,(13, 168),12	451,(13, 39),16	467,(13, 87),4	471,(4, 174),52	523,(13, 57),20	543,(13, 140),4	550,(15, 97),4	554,(15, 80),16	570,(15, 165),4	574,(15, 65),4	578,(15, 168),20	598,(15, 120),4	602,(13, 154),28	630,(13, 54),28	658,(15, 54),8	666,(13, 133),16	682,(13, 101),12	694,(13, 108),4	698,(15, 153),8	706,(15, 45),4	710,(15, 192),12	722,(4, 142),8	733,(14, 160),8	741,(14, 165),16	757,(14, 123),8	765,(14, 65),8	773,(14, 125),32	805,(14, 161),4	809,(14, 35),40	849,(14, 154),4	853,(14, 54),4	857,(14, 37),44	901,(14, 28),4	905,(14, 45),8	916,(12, 47),12	928,(12, 55),4	932,(12, 194),4	936,(12, 155),16	952,(12, 117),4	956,(12, 152),8	964,(12, 187),4	968,(14, 58),4	972,(14, 142),4	976,(13, 141),4	980,(12, 65),8	988,(13, 100),4	992,(12, 89),20	1020,(12, 110),8	1028,(12, 21),8	1048,(12, 173),8	1056,(13, 147),4	1060,(12, 120),8	1068,(12, 78),4	1072,(12, 87),8	1080,(12, 188),4	1084,(4, 199),8	1092,(12, 81),4	1099,(8, 30),4	1103,(8, 85),12	1115,(8, 33),8	1123,(8, 39),28	1151,(8, 161),8	1159,(8, 37),12	1179,(8, 151),8	1187,(15, 162),44	1247,(14, 38),16	1263,(14, 138),16	1282,(1, 82),4	1286,(1, 165),4	1290,(1, 89),4	1294,(1, 110),4	1298,(1, 155),4	1302,(1, 117),24	1326,(1, 73),32	1358,(1, 54),8	1366,(1, 187),20	1386,(1, 28),24	1410,(1, 45),4	1414,(14, 151),44	1458,(1, 58),4	1465,(10, 158),4	1469,(10, 61),4	1473,(10, 178),4	1477,(10, 177),4	1481,(10, 33),12	1493,(10, 25),4	1497,(10, 170),24	1521,(10, 161),8	1529,(10, 21),16	1545,(10, 73),20	1565,(10, 174),4	1569,(10, 57),16	1585,(10, 44),48	1633,(1, 151),12	1648,(2, 30),4	1652,(2, 144),8	1660,(2, 177),4	1664,(2, 25),4	1668,(2, 161),4	1672,(2, 110),16	1688,(2, 57),4	1692,(10, 187),20	1712,(2, 187),4	1716,(2, 192),40	1756,(10, 162),4	1760,(13, 58),60	1820,(2, 58),4	1824,(1, 188),4	1828,(8, 140),36	1864,(2, 140),28	1892,(1, 99),4	1896,(10, 99),12	1908,(8, 86),56	1964,(10, 86),16	1980,(13, 38),36	2016,(4, 146),24	2040,(1, 146),4	2044,(10, 146),12	2056,(1, 142),20	2076,(10, 142),36	2112,(1, 108),80	2192,(10, 71),64	2256,(13, 153),48	2304,(1, 153),4	2308,(2, 153),20	2328,(8, 182),64	2392,(10, 182),4	2396,(15, 199),44	2440,(8, 199),12	2452,(4, 83),56	2508,(12, 83),36	2544,(1, 83),4	2548,(13, 41),64	2612,(10, 41),8	2620,(14, 141),28	2648,(2, 141),12	2660,(4, 60),24	2684,(14, 60),48	2732,(10, 60),24	2756,(2, 60),4	2760,(14, 43),72	2832,(15, 139),76	2908,(10, 139),20	2928,(2, 139),8	2936,(4, 173),96	3032,(4, 93),52	3084,(14, 93),16	3100,(12, 93),4	3104,(8, 93),12	3116,(13, 131),4	3120,(14, 131),48	3168,(1, 24),112	3280,(13, 53),16	3296,(4, 115),8	3304,(13, 115),8	3312,(1, 115),12	3324,(10, 115),32	3356,(2, 115),28	3384,(13, 127),24	3408,(8, 127),84	3492,(1, 127),4	3496,(15, 34),8	3504,(8, 34),92	3596,(15, 147),16	3612,(8, 147),4	3616,(1, 147),8	3624,(2, 147),44	3668,(12, 23),64	3732,(2, 23),72	3804,(15, 84),68	3872,(14, 84),32	3904,(12, 159),4	3908,(8, 159),4	3912,(10, 159),124	4036,(2, 159),4	4040,(13, 78),68	4108,(14, 114),80	4188,(8, 114),4	4192,(2, 114),4	4196,(1, 27),40	4236,(10, 27),44	4280,(2, 27),60	4340,(15, 183),128	4468,(8, 183),4	4472,(10, 183),4	4476,(15, 81),92	4568,(1, 81),4	4572,(10, 81),48	4620,(10, 69),24	4644,(15, 132),104	4748,(12, 132),8	4756,(4, 104),4	4760,(13, 104),88	4848,(14, 104),8	4856,(10, 104),28	4884,(13, 118),16	4900,(1, 118),72	4972,(14, 119),36	5008,(12, 119),72	5080,(8, 119),4	5084,(13, 135),8	5092,(15, 135),116	5208,(15, 94),32	5240,(12, 94),28	5268,(8, 94),4	5272,(10, 94),20	5292,(4, 103),84	5376,(13, 103),4	5380,(15, 103),8	5388,(8, 103),4	5392,(10, 103),20	5412,(13, 191),72	5484,(14, 191),4	5488,(15, 186),96	5584,(12, 186),40	5624,(10, 22),180	5804,(2, 22),4	5808,(13, 195),8	5816,(2, 195),128	5944,(13, 96),4	5948,(15, 96),44	5992,(14, 96),156	6148,(10, 96),8	6156,(10, 64),156	6312,(4, 180),8	6320,(15, 180),32	6352,(1, 180),16	6368,(4, 90),4	6372,(8, 90),68	6440,(10, 90),4	6444,(2, 90),144	6588,(4, 46),180	6768,(13, 46),8	6776,(12, 46),20	6796,(2, 46),4	6800,(1, 175),48	6848,(10, 175),52	6900,(15, 63),160	7060,(14, 63),80	7140,(1, 63),4	7144,(10, 63),4	7148,(2, 63),20	7168,(4, 129),8	7176,(14, 129),24	7200,(10, 129),180	7380,(10, 137),116	7496,(13, 92),28	7524,(15, 92),16	7540,(8, 92),124	7664,(4, 166),4	7668,(13, 166),192	7860,(14, 166),4	7864,(2, 166),116	7980,(4, 148),4	7984,(13, 148),8	7992,(14, 148),52	8044,(12, 148),24	8068,(8, 148),8	8076,(15, 122),44	8120,(12, 122),16	8136,(4, 49),28	8164,(15, 49),16	8180,(8, 49),84	8264,(1, 49),40	8304,(10, 49),132	8436,(2, 49),4	8512,(1, 122),48	8560,(10, 122),4	8564,(15, 76),4	8568,(12, 76),20	9372,(10, 76),4	9376,(2, 76),716	
196,(18, 40),8	208,(18, 61),12	220,(18, 167),4	224,(18, 35),8	232,(18, 162),4	236,(18, 142),4	240,(18, 195),4	284,(18, 192),16	300,(18, 182),24	324,(18, 90),4	379,(16, 194),4	383,(16, 35),4	411,(16, 140),4	427,(16, 142),8	435,(16, 182),4	439,(16, 84),4	443,(16, 118),4	447,(16, 186),4	467,(16, 92),4	562,(6, 95),4	566,(6, 167),32	598,(6, 86),4	602,(6, 142),4	606,(6, 173),4	610,(16, 115),20	666,(16, 45),40	741,(6, 103),4	745,(19, 95),8	753,(19, 70),20	773,(19, 54),8	781,(19, 187),12	793,(19, 192),4	797,(19, 146),8	849,(19, 100),4	857,(16, 71),28	885,(19, 141),8	893,(6, 78),12	913,(19, 27),4	917,(6, 135),8	928,(11, 25),4	952,(11, 45),4	956,(18, 77),4	960,(11, 200),4	964,(11, 113),8	972,(6, 157),4	976,(19, 157),4	980,(11, 141),4	984,(11, 43),4	988,(19, 75),12	1000,(11, 70),20	1020,(11, 150),4	1024,(11, 161),24	1048,(18, 52),12	1060,(6, 181),4	1064,(19, 111),16	1080,(11, 115),4	1084,(6, 186),8	1092,(11, 48),12	1104,(16, 107),4	1108,(16, 121),16	1124,(11, 121),4	1128,(16, 105),4	1132,(6, 91),8	1140,(11, 193),4	1159,(11, 57),20	1179,(19, 186),8	1203,(19, 193),20	1223,(18, 98),4	1227,(18, 124),4	1231,(11, 162),16	1247,(19, 43),32	1279,(11, 175),4	1283,(19, 148),4	1294,(9, 156),4	1298,(9, 189),4	1302,(9, 66),4	1306,(9, 25),8	1314,(9, 181),8	1322,(9, 79),12	1334,(9, 29),20	1354,(9, 48),12	1366,(9, 107),8	1386,(19, 51),28	1414,(9, 100),4	1418,(9, 127),4	1422,(18, 50),36	1498,(19, 98),12	1538,(9, 169),44	1585,(9, 146),28	1613,(19, 49),12	1629,(6, 197),44	1673,(9, 116),44	1717,(16, 124),4	1721,(6, 124),36	1757,(6, 171),20	1777,(19, 171),24	1801,(6, 198),12	1813,(16, 176),4	1817,(16, 106),4	1828,(11, 198),36	1864,(19, 72),20	1884,(18, 102),8	1908,(11, 176),28	1936,(6, 102),20	1956,(16, 145),12	1980,(19, 84),20	2008,(19, 68),64	2096,(9, 106),4	2100,(6, 143),4	2104,(9, 143),4	2108,(19, 59),4	2112,(9, 141),40	2152,(11, 100),40	2192,(6, 62),28	2220,(11, 106),20	2256,(16, 100),60	2328,(19, 145),36	2364,(11, 59),16	2380,(16, 172),4	2384,(18, 26),8	2392,(19, 56),4	2396,(18, 147),44	2444,(9, 172),44	2488,(6, 42),44	2548,(19, 78),52	2628,(11, 42),24	2660,(9, 132),36	2696,(9, 135),44	2760,(18, 126),16	2776,(19, 26),36	2812,(11, 26),20	2832,(19, 118),80	2936,(16, 26),64	3000,(19, 184),12	3032,(11, 103),56	3088,(9, 186),28	3116,(9, 195),44	3160,(11, 184),152	3312,(6, 88),16	3328,(19, 88),24	3352,(11, 36),40	3392,(18, 56),16	3408,(47, 201),56	3496,(18, 64),56	3552,(19, 129),36	3668,(9, 175),128	3796,(82, 201),56	4004,(67, 201),56	4184,(9, 56),120	4476,(30, 201),56	5040,(55, 201),56	5096,(97, 201),56	5264,(80, 201),56	5376,(165, 201),56	5488,(123, 201),56	5600,(178, 201),56	5712,(177, 201),56	5824,(89, 201),56	5944,(18, 49),192	6136,(170, 201),56	6192,(117, 201),56	6248,(65, 201),56	6304,(168, 201),56	6416,(125, 201),56	6528,(110, 201),56	6640,(21, 201),56	6752,(120, 201),56	6900,(19, 92),228	7128,(87, 201),56	7184,(154, 201),56	7240,(37, 201),56	7296,(44, 201),56	7352,(28, 201),56	7464,(133, 201),56	7576,(151, 201),56	7664,(9, 148),316	7980,(101, 201),56	8036,(188, 201),56	8092,(99, 201),56	8148,(38, 201),56	8204,(138, 201),56	8260,(108, 201),56	8316,(153, 201),56	8372,(199, 201),56	8428,(41, 201),56	8568,(60, 201),56	8624,(139, 201),56	8680,(93, 201),56	8736,(131, 201),56	8792,(53, 201),56	8848,(32, 201),56	8980,(34, 201),56	9163,(23, 201),56	9988,(159, 201),56	10100,(114, 201),56	10212,(183, 201),56	10324,(69, 201),56	10436,(104, 201),56	10548,(119, 201),56	10660,(94, 201),56	10772,(191, 201),56	10884,(22, 201),56	10996,(96, 201),56	11176,(180, 201),56	11359,(46, 201),56	11542,(63, 201),56	11725,(137, 201),56	11908,(166, 201),56	12091,(122, 201),56	12274,(76, 201),56	
940,(3, 67),8	948,(17, 55),4	952,(3, 164),4	956,(17, 80),4	960,(7, 123),4	964,(5, 123),4	968,(3, 123),8	976,(7, 177),4	980,(7, 74),8	988,(17, 89),4	1000,(5, 196),4	1004,(3, 196),8	1012,(5, 117),4	1016,(17, 110),4	1024,(3, 150),8	1032,(7, 181),4	1036,(17, 120),4	1040,(7, 120),20	1068,(3, 120),4	1080,(17, 79),8	1088,(17, 29),4	1092,(7, 44),4	1103,(17, 154),16	1119,(5, 44),4	1123,(20, 110),8	1131,(20, 21),16	1147,(7, 107),12	1159,(20, 121),4	1163,(17, 193),4	1167,(3, 50),4	1171,(3, 44),4	1175,(3, 28),4	1179,(7, 105),12	1191,(3, 105),12	1203,(17, 133),44	1247,(5, 31),32	1279,(17, 91),12	1291,(20, 185),4	1298,(3, 99),4	1306,(5, 193),8	1326,(5, 101),16	1342,(17, 188),20	1362,(5, 153),12	1374,(7, 91),12	1410,(7, 34),4	1414,(3, 51),8	1458,(3, 185),40	1510,(5, 98),12	1522,(3, 98),4	1526,(20, 98),12	1545,(20, 101),40	1585,(17, 112),4	1589,(3, 112),40	1652,(5, 199),8	1664,(7, 159),4	1668,(5, 183),4	1688,(7, 188),44	1732,(7, 99),52	1784,(3, 38),28	1812,(17, 41),12	1824,(3, 124),4	1828,(5, 138),64	1892,(7, 171),8	1900,(17, 198),4	1904,(5, 72),4	1908,(7, 199),24	1932,(5, 41),16	1948,(17, 93),20	1968,(7, 72),32	2000,(7, 176),4	2004,(7, 102),4	2016,(5, 131),56	2072,(3, 176),24	2096,(20, 32),16	2112,(20, 102),28	2140,(7, 134),48	2188,(5, 62),4	2192,(17, 32),24	2216,(20, 34),24	2240,(5, 134),16	2256,(17, 109),72	2328,(20, 114),60	2388,(7, 183),8	2396,(3, 62),40	2436,(3, 145),4	2440,(7, 143),4	2452,(5, 32),84	2536,(17, 190),72	2608,(20, 145),20	2628,(20, 104),24	2652,(7, 106),44	2696,(5, 143),16	2712,(3, 143),48	2760,(7, 69),72	2832,(17, 59),12	2844,(7, 59),20	2864,(5, 59),36	2900,(7, 172),12	2912,(17, 42),4	2916,(7, 42),20	2936,(5, 69),52	2988,(17, 119),8	2996,(17, 94),4	3000,(7, 94),16	3016,(5, 172),32	3048,(7, 126),100	3148,(20, 126),12	3168,(7, 53),108	3276,(20, 22),4	3296,(20, 119),48	3344,(5, 94),80	3424,(17, 22),12	3436,(5, 46),52	3488,(3, 88),184	3672,(5, 36),52	3724,(5, 136),8	3732,(20, 136),44	3804,(20, 137),52	3856,(17, 36),148	4040,(5, 166),32	4072,(17, 56),112	4196,(3, 191),112	4308,(40, 201),56	4364,(149, 201),56	4420,(156, 201),56	4476,(5, 137),108	4584,(7, 136),344	4928,(160, 201),56	4984,(144, 201),56	5084,(7, 76),68	5152,(158, 201),56	5208,(85, 201),56	5320,(179, 201),56	5432,(95, 201),56	5544,(61, 201),56	5656,(194, 201),56	5768,(33, 201),56	5880,(25, 201),56	5936,(155, 201),56	5992,(167, 201),56	6048,(70, 201),56	6156,(5, 180),156	6360,(39, 201),56	6472,(161, 201),56	6584,(152, 201),56	6696,(35, 201),56	6808,(73, 201),56	6864,(174, 201),56	6920,(54, 201),56	6976,(57, 201),56	7032,(187, 201),56	7408,(45, 201),56	7520,(192, 201),56	7632,(162, 201),56	7688,(58, 201),56	7744,(140, 201),56	7800,(86, 201),56	7856,(146, 201),56	7912,(142, 201),56	8136,(3, 122),376	8512,(71, 201),56	8588,(3, 76),784	9372,(182, 201),56	9428,(83, 201),56	9484,(141, 201),56	9540,(43, 201),56	9596,(173, 201),56	9652,(100, 201),56	9708,(24, 201),56	9764,(115, 201),56	9820,(127, 201),56	9876,(147, 201),56	9932,(84, 201),56	10044,(78, 201),56	10156,(27, 201),56	10268,(81, 201),56	10380,(132, 201),56	10492,(118, 201),56	10604,(135, 201),56	10716,(103, 201),56	10828,(186, 201),56	10940,(195, 201),56	11052,(64, 201),56	11232,(90, 201),56	11415,(175, 201),56	11598,(129, 201),56	11781,(92, 201),56	11964,(148, 201),56	12147,(49, 201),56	
