3123
# CPU
0,0,1	1,14,41	42,154,41	83,81,41	124,94,41	165,136,41	206,12,41	247,145,41	288,182,41	329,109,41	370,104,41	411,57,41	452,45,41	493,55,41	534,19,41	575,132,41	616,46,41	657,78,41	698,138,41	739,64,41	780,130,41	821,4,41	862,175,41	903,162,41	944,40,41	985,82,41	1026,170,41	1067,174,41	1108,95,41	1149,69,41	1190,107,41	1231,79,41	1272,54,41	1313,76,41	1354,27,41	1395,124,41	1436,102,41	1477,116,41	1518,88,41	1559,30,41	1600,106,41	1641,119,41	1682,39,41	1723,93,41	1764,50,41	1805,58,41	1846,123,41	1887,65,41	1928,161,41	1969,199,41	2010,56,41	2051,167,41	2092,187,41	2133,169,41	2174,99,41	2215,22,41	2256,157,41	2334,105,41	2416,181,41	2504,195,41	2590,125,41	2716,122,41	2846,185,41	2992,142,41	3081,49,41	3122,201,1	
43,148,41	84,32,41	125,144,41	166,121,41	207,70,41	248,115,41	289,134,41	330,42,41	371,156,41	412,47,41	453,48,41	494,63,41	535,113,41	576,34,41	617,61,41	658,178,41	699,33,41	740,72,41	781,108,41	822,103,41	863,159,41	904,194,41	945,90,41	986,186,41	1027,21,41	1068,77,41	1109,101,41	1150,83,41	1191,31,41	1232,80,41	1273,128,41	1314,28,41	1355,92,41	1396,41,41	1437,35,41	1478,184,41	1519,100,41	1560,192,41	1601,117,41	1642,91,41	1683,149,41	1724,67,41	1765,133,41	1806,26,41	1847,126,41	1888,114,41	1929,23,41	1970,166,41	2011,180,41	2052,97,41	2093,150,41	2134,160,41	2175,188,41	2216,86,41	2257,29,41	2298,25,41	2339,71,41	2380,177,41	2421,87,41	2462,146,41	2503,129,41	
32,13,41	74,15,41	115,8,41	156,10,41	197,11,41	238,16,41	279,7,41	320,20,41	361,1,41	402,2,41	443,5,41	484,6,41	525,17,41	566,18,41	607,3,41	648,9,41	689,163,41	730,111,41	771,141,41	812,98,41	853,84,41	894,179,41	935,165,41	976,36,41	1017,196,41	1058,153,41	1099,135,41	1140,197,41	1181,38,41	1222,37,41	1263,62,41	1304,85,41	1345,110,41	1386,75,41	1427,152,41	1468,139,41	1509,52,41	1550,120,41	1591,168,41	1632,68,41	1673,158,41	1714,173,41	1755,66,41	1796,60,41	1837,131,41	1878,137,41	1919,143,41	1960,127,41	2001,73,41	2042,112,41	2083,189,41	2124,190,41	2165,74,41	2206,172,41	2247,200,41	2288,89,41	2329,176,41	2370,198,41	2411,164,41	2452,191,41	2493,43,41	2534,193,41	2575,53,41	2616,171,41	2657,44,41	2698,155,41	2739,183,41	2780,24,41	2821,151,41	2862,118,41	2903,147,41	2944,96,41	2985,51,41	3026,140,41	3067,59,41	
# Incoming
84,(148, 201),14	98,(13, 167),10	121,(15, 30),1	122,(15, 65),3	125,(32, 201),14	139,(15, 199),9	158,(8, 58),6	166,(144, 201),14	180,(8, 65),4	207,(121, 201),14	222,(8, 22),16	241,(8, 122),1	248,(70, 201),14	289,(115, 201),14	303,(16, 123),7	310,(16, 187),10	322,(7, 106),2	324,(7, 119),3	330,(134, 201),14	366,(20, 30),1	371,(42, 201),14	385,(20, 99),15	405,(1, 88),1	412,(156, 201),14	426,(1, 39),4	453,(47, 201),14	467,(2, 161),8	475,(2, 181),6	494,(48, 201),14	508,(5, 93),6	514,(5, 142),1	530,(6, 116),1	535,(63, 201),14	576,(113, 201),14	590,(17, 157),16	617,(34, 201),14	631,(18, 56),9	658,(61, 201),14	672,(3, 50),6	678,(3, 169),11	699,(178, 201),14	730,(163, 201),14	744,(33, 201),14	771,(111, 201),14	785,(72, 201),14	812,(141, 201),14	826,(108, 201),14	853,(98, 201),14	867,(103, 201),14	894,(84, 201),14	908,(159, 201),14	935,(179, 201),14	949,(194, 201),14	976,(165, 201),14	990,(90, 201),14	1017,(36, 201),14	1031,(186, 201),14	1058,(196, 201),14	1072,(21, 201),14	1099,(153, 201),14	1113,(77, 201),14	1140,(135, 201),14	1154,(101, 201),14	1181,(197, 201),14	1195,(83, 201),14	1222,(38, 201),14	1236,(31, 201),14	1263,(37, 201),14	1277,(80, 201),14	1304,(62, 201),14	1318,(128, 201),14	1345,(85, 201),14	1359,(28, 201),14	1386,(110, 201),14	1400,(92, 201),14	1427,(75, 201),14	1441,(41, 201),14	1468,(152, 201),14	1482,(35, 201),14	1509,(139, 201),14	1523,(184, 201),14	1550,(52, 201),14	1564,(100, 201),14	1591,(120, 201),14	1605,(192, 201),14	1632,(168, 201),14	1646,(117, 201),14	1673,(68, 201),14	1687,(91, 201),14	1714,(158, 201),14	1728,(149, 201),14	1755,(173, 201),14	1769,(67, 201),14	1796,(66, 201),14	1810,(133, 201),14	1837,(60, 201),14	1851,(26, 201),14	1878,(131, 201),14	1892,(126, 201),14	1919,(137, 201),14	1933,(114, 201),14	1960,(143, 201),14	1974,(23, 201),14	2001,(127, 201),14	2015,(166, 201),14	2042,(73, 201),14	2056,(180, 201),14	2083,(112, 201),14	2097,(97, 201),14	2124,(189, 201),14	2138,(150, 201),14	2165,(190, 201),14	2179,(160, 201),14	2206,(74, 201),14	2220,(188, 201),14	2247,(172, 201),14	2261,(86, 201),14	2288,(200, 201),14	2302,(29, 201),14	2316,(8, 105),18	2334,(89, 201),14	2348,(25, 201),14	2370,(176, 201),14	2384,(71, 201),14	2398,(8, 181),18	2416,(198, 201),14	2430,(177, 201),14	2452,(164, 201),14	2466,(87, 201),14	2480,(5, 195),24	2504,(191, 201),14	2518,(146, 201),14	2534,(43, 201),14	2548,(129, 201),14	2562,(5, 125),28	2590,(193, 201),14	2616,(53, 201),14	2630,(2, 49),25	2657,(171, 201),14	2671,(7, 122),45	2716,(44, 201),14	2739,(155, 201),14	2753,(3, 49),23	2780,(183, 201),14	2794,(1, 185),52	2846,(24, 201),14	2862,(151, 201),14	2903,(118, 201),14	2917,(2, 142),75	2992,(147, 201),14	3006,(96, 201),14	3026,(51, 201),14	3040,(16, 49),41	3081,(140, 201),14	3108,(59, 201),14	
42,(14, 148),1	73,(13, 32),1	74,(13, 192),5	115,(15, 144),1	116,(15, 33),1	117,(15, 184),4	125,(15, 23),9	156,(8, 121),1	157,(8, 42),1	164,(15, 150),11	184,(15, 160),13	197,(10, 70),1	198,(10, 47),1	199,(10, 26),7	206,(10, 126),7	213,(10, 166),9	238,(11, 21),2	240,(11, 80),1	247,(12, 115),1	248,(11, 177),23	279,(16, 134),1	280,(16, 72),1	281,(16, 35),4	285,(16, 100),1	286,(16, 133),7	320,(7, 48),1	321,(7, 61),1	327,(7, 97),10	361,(20, 156),1	362,(20, 128),1	363,(20, 41),3	402,(1, 28),3	406,(1, 91),5	443,(2, 63),1	444,(2, 31),2	446,(2, 92),3	484,(5, 113),1	485,(5, 117),5	490,(5, 71),18	525,(6, 34),1	526,(6, 101),2	528,(6, 83),2	530,(12, 80),2	532,(6, 188),15	566,(17, 178),1	567,(17, 194),1	568,(17, 77),2	570,(17, 149),5	575,(19, 128),2	577,(17, 180),10	607,(18, 108),1	608,(18, 103),1	609,(18, 186),2	611,(18, 114),8	648,(3, 159),1	649,(3, 90),1	650,(3, 100),4	654,(18, 86),16	689,(9, 67),6	695,(18, 29),17	712,(17, 25),18	744,(3, 87),22	785,(6, 146),25	826,(6, 129),27	862,(4, 87),2	
1,(0, 13),31	43,(0, 15),31	74,(0, 8),31	105,(0, 10),31	136,(0, 11),31	167,(0, 16),31	198,(0, 7),31	248,(0, 20),31	279,(0, 1),31	310,(0, 2),31	341,(0, 5),31	372,(0, 6),31	403,(0, 17),31	434,(0, 18),31	465,(0, 3),31	496,(0, 9),31	
# Outgoing
1,(0, 13),31	42,(14, 148),1	43,(0, 15),31	74,(0, 8),31	105,(0, 10),31	136,(0, 11),31	167,(0, 16),31	198,(0, 7),31	247,(12, 115),1	248,(0, 20),31	279,(0, 1),31	310,(0, 2),31	341,(0, 5),31	372,(0, 6),31	403,(0, 17),31	434,(0, 18),31	465,(0, 3),31	496,(0, 9),31	530,(12, 80),2	575,(19, 128),2	862,(4, 87),2	
84,(148, 201),14	125,(32, 201),14	166,(144, 201),14	207,(121, 201),14	248,(70, 201),14	289,(115, 201),14	330,(134, 201),14	371,(42, 201),14	412,(156, 201),14	453,(47, 201),14	494,(48, 201),14	535,(63, 201),14	576,(113, 201),14	617,(34, 201),14	658,(61, 201),14	699,(178, 201),14	744,(33, 201),14	785,(72, 201),14	826,(108, 201),14	867,(103, 201),14	908,(159, 201),14	949,(194, 201),14	990,(90, 201),14	1031,(186, 201),14	1072,(21, 201),14	1113,(77, 201),14	1154,(101, 201),14	1195,(83, 201),14	1236,(31, 201),14	1277,(80, 201),14	1318,(128, 201),14	1359,(28, 201),14	1400,(92, 201),14	1441,(41, 201),14	1482,(35, 201),14	1523,(184, 201),14	1564,(100, 201),14	1605,(192, 201),14	1646,(117, 201),14	1687,(91, 201),14	1728,(149, 201),14	1769,(67, 201),14	1810,(133, 201),14	1851,(26, 201),14	1892,(126, 201),14	1933,(114, 201),14	1974,(23, 201),14	2015,(166, 201),14	2056,(180, 201),14	2097,(97, 201),14	2138,(150, 201),14	2179,(160, 201),14	2220,(188, 201),14	2261,(86, 201),14	2302,(29, 201),14	2348,(25, 201),14	2384,(71, 201),14	2430,(177, 201),14	2466,(87, 201),14	2518,(146, 201),14	2548,(129, 201),14	
73,(13, 32),1	74,(13, 192),5	98,(13, 167),10	115,(15, 144),1	116,(15, 33),1	117,(15, 184),4	121,(15, 30),1	122,(15, 65),3	125,(15, 23),9	139,(15, 199),9	156,(8, 121),1	157,(8, 42),1	158,(8, 58),6	164,(15, 150),11	180,(8, 65),4	184,(15, 160),13	197,(10, 70),1	198,(10, 47),1	199,(10, 26),7	206,(10, 126),7	213,(10, 166),9	222,(8, 22),16	238,(11, 21),2	240,(11, 80),1	241,(8, 122),1	248,(11, 177),23	279,(16, 134),1	280,(16, 72),1	281,(16, 35),4	285,(16, 100),1	286,(16, 133),7	303,(16, 123),7	310,(16, 187),10	320,(7, 48),1	321,(7, 61),1	322,(7, 106),2	324,(7, 119),3	327,(7, 97),10	361,(20, 156),1	362,(20, 128),1	363,(20, 41),3	366,(20, 30),1	385,(20, 99),15	402,(1, 28),3	405,(1, 88),1	406,(1, 91),5	426,(1, 39),4	443,(2, 63),1	444,(2, 31),2	446,(2, 92),3	467,(2, 161),8	475,(2, 181),6	484,(5, 113),1	485,(5, 117),5	490,(5, 71),18	508,(5, 93),6	514,(5, 142),1	525,(6, 34),1	526,(6, 101),2	528,(6, 83),2	530,(6, 116),1	532,(6, 188),15	566,(17, 178),1	567,(17, 194),1	568,(17, 77),2	570,(17, 149),5	577,(17, 180),10	590,(17, 157),16	607,(18, 108),1	608,(18, 103),1	609,(18, 186),2	611,(18, 114),8	631,(18, 56),9	648,(3, 159),1	649,(3, 90),1	650,(3, 100),4	654,(18, 86),16	672,(3, 50),6	678,(3, 169),11	689,(9, 67),6	695,(18, 29),17	712,(17, 25),18	730,(163, 201),14	744,(3, 87),22	771,(111, 201),14	785,(6, 146),25	812,(141, 201),14	826,(6, 129),27	853,(98, 201),14	894,(84, 201),14	935,(179, 201),14	976,(165, 201),14	1017,(36, 201),14	1058,(196, 201),14	1099,(153, 201),14	1140,(135, 201),14	1181,(197, 201),14	1222,(38, 201),14	1263,(37, 201),14	1304,(62, 201),14	1345,(85, 201),14	1386,(110, 201),14	1427,(75, 201),14	1468,(152, 201),14	1509,(139, 201),14	1550,(52, 201),14	1591,(120, 201),14	1632,(168, 201),14	1673,(68, 201),14	1714,(158, 201),14	1755,(173, 201),14	1796,(66, 201),14	1837,(60, 201),14	1878,(131, 201),14	1919,(137, 201),14	1960,(143, 201),14	2001,(127, 201),14	2042,(73, 201),14	2083,(112, 201),14	2124,(189, 201),14	2165,(190, 201),14	2206,(74, 201),14	2247,(172, 201),14	2288,(200, 201),14	2316,(8, 105),18	2334,(89, 201),14	2370,(176, 201),14	2398,(8, 181),18	2416,(198, 201),14	2452,(164, 201),14	2480,(5, 195),24	2504,(191, 201),14	2534,(43, 201),14	2562,(5, 125),28	2590,(193, 201),14	2616,(53, 201),14	2630,(2, 49),25	2657,(171, 201),14	2671,(7, 122),45	2716,(44, 201),14	2739,(155, 201),14	2753,(3, 49),23	2780,(183, 201),14	2794,(1, 185),52	2846,(24, 201),14	2862,(151, 201),14	2903,(118, 201),14	2917,(2, 142),75	2992,(147, 201),14	3006,(96, 201),14	3026,(51, 201),14	3040,(16, 49),41	3081,(140, 201),14	3108,(59, 201),14	
