6418
# CPU
13,4,1	14,21,1	15,38,1	16,41,1	17,47,1	18,35,1	25,8,1	26,23,1	27,53,1	28,58,1	29,71,1	30,112,1	33,104,1	37,12,1	38,40,1	39,95,1	41,30,1	69,51,1	89,73,1	109,86,1	133,88,1	169,50,1	177,93,1	181,114,1	189,54,1	193,57,1	197,117,1	209,80,1	321,46,1	413,76,1	449,60,1	561,78,1	569,42,1	601,49,1	673,25,1	677,34,1	725,43,1	813,82,1	829,69,1	857,84,1	885,90,1	889,56,1	893,61,1	897,67,1	909,97,1	1009,108,1	1029,22,1	1033,28,1	1081,55,1	1105,65,1	1165,110,1	1281,100,1	1385,44,1	1405,63,1	1417,102,1	1477,106,1	1521,119,1	2969,45,1	3069,59,1	
9,3,1	21,7,1	22,64,1	25,75,1	29,87,1	33,11,1	34,72,1	35,85,1	36,111,1	37,89,1	38,107,1	41,15,1	185,39,1	189,26,1	193,70,1	221,92,1	657,24,1	685,68,1	709,32,1	717,66,1	721,96,1	725,99,1	785,79,1	813,77,1	901,83,1	993,20,1	1013,36,1	1033,81,1	1061,94,1	1065,103,1	1105,105,1	1117,109,1	1149,33,1	1161,101,1	1201,116,1	1433,120,1	1945,29,1	2237,62,1	2517,113,1	2665,118,1	6417,121,1	
5,2,1	6,52,1	17,6,1	18,16,1	19,19,1	29,10,1	30,27,1	53,18,1	69,14,1	453,74,1	1077,37,1	
0,0,1	1,5,1	2,9,1	3,1,1	4,13,1	813,98,1	1377,91,1	1637,48,1	2837,115,1	3017,31,1	3169,17,1	
# Incoming
9,(0, 4),4	13,(2, 35),4	21,(0, 8),4	29,(6, 104),4	33,(0, 12),4	37,(5, 30),4	41,(2, 51),28	69,(2, 73),20	89,(2, 86),20	109,(2, 88),24	133,(3, 50),36	169,(3, 93),8	177,(3, 114),4	181,(7, 57),4	185,(5, 54),4	189,(5, 57),4	193,(7, 117),4	197,(5, 80),12	209,(3, 46),112	321,(3, 76),92	413,(7, 60),36	449,(7, 78),112	561,(11, 42),8	569,(11, 49),32	657,(9, 25),16	673,(9, 34),4	677,(9, 43),48	785,(9, 82),28	813,(6, 69),16	829,(6, 84),28	857,(6, 90),28	885,(10, 56),4	889,(10, 61),4	893,(10, 67),4	901,(9, 97),8	909,(9, 108),100	1009,(1, 22),20	1029,(1, 28),4	1077,(1, 55),4	1081,(1, 65),24	1105,(1, 110),60	1165,(2, 100),116	1349,(10, 44),36	1385,(10, 63),20	1405,(10, 102),12	1417,(10, 106),60	1477,(10, 119),44	2837,(11, 45),132	2969,(11, 59),100	
5,(0, 3),4	17,(0, 7),4	21,(2, 75),4	25,(2, 87),4	29,(0, 11),4	33,(2, 107),4	37,(4, 15),4	41,(5, 33),4	45,(5, 39),140	185,(4, 26),4	189,(8, 70),4	193,(5, 68),4	209,(5, 81),4	213,(5, 92),8	221,(5, 101),160	381,(5, 109),272	653,(9, 24),4	657,(4, 68),28	685,(8, 20),20	705,(12, 32),4	709,(12, 66),8	717,(12, 96),4	721,(12, 99),4	725,(9, 79),60	785,(8, 77),28	813,(9, 83),88	901,(52, 121),68	969,(6, 20),24	993,(6, 33),8	1001,(6, 36),12	1013,(6, 81),20	1033,(6, 94),28	1061,(6, 103),4	1065,(6, 105),40	1105,(6, 109),12	1117,(10, 29),8	1125,(10, 33),24	1149,(10, 101),12	1165,(1, 116),36	1201,(13, 121),68	1281,(16, 121),68	1377,(4, 120),56	1433,(21, 121),68	1501,(38, 121),68	1569,(41, 121),68	1637,(47, 121),68	1705,(35, 121),68	1773,(19, 121),68	1841,(8, 29),104	1945,(23, 121),68	2013,(53, 121),68	2081,(58, 121),68	2149,(10, 62),88	2237,(71, 121),68	2305,(112, 121),68	2373,(27, 121),68	2441,(104, 121),68	2509,(12, 113),8	2517,(12, 118),148	2665,(40, 121),68	2733,(95, 121),68	2801,(18, 121),68	2869,(14, 121),68	2937,(74, 121),68	3017,(30, 121),68	3085,(51, 121),68	3153,(73, 121),68	3221,(86, 121),68	3289,(88, 121),68	3357,(50, 121),68	3425,(93, 121),68	3493,(114, 121),68	3561,(54, 121),68	3629,(57, 121),68	3697,(117, 121),68	3765,(80, 121),68	3833,(46, 121),68	3901,(76, 121),68	3969,(60, 121),68	4037,(78, 121),68	4105,(42, 121),68	4173,(49, 121),68	4241,(25, 121),68	4309,(34, 121),68	4377,(43, 121),68	4445,(98, 121),68	4513,(82, 121),68	4581,(69, 121),68	4649,(84, 121),68	4717,(90, 121),68	4785,(56, 121),68	4853,(61, 121),68	4921,(67, 121),68	4989,(97, 121),68	5057,(108, 121),68	5125,(22, 121),68	5193,(28, 121),68	5261,(37, 121),68	5329,(55, 121),68	5397,(65, 121),68	5465,(110, 121),68	5533,(100, 121),68	5601,(91, 121),68	5669,(44, 121),68	5737,(63, 121),68	5805,(102, 121),68	5873,(106, 121),68	5941,(119, 121),68	6009,(48, 121),68	6077,(115, 121),68	6145,(45, 121),68	6213,(31, 121),68	6281,(59, 121),68	6349,(17, 121),68	
1,(0, 2),4	13,(0, 6),4	25,(0, 10),4	29,(3, 18),24	53,(4, 37),4	57,(11, 14),12	193,(8, 74),260	453,(12, 37),144	1033,(1, 37),44	
133,(2, 98),680	813,(4, 91),564	1377,(7, 48),260	1637,(7, 115),1200	2837,(8, 31),180	3017,(10, 17),152	
# Outgoing
37,(4, 15),4	53,(4, 37),4	185,(4, 26),4	189,(8, 70),4	193,(8, 74),260	453,(12, 37),144	657,(4, 68),28	685,(8, 20),20	705,(12, 32),4	709,(12, 66),8	717,(12, 96),4	721,(12, 99),4	785,(8, 77),28	813,(4, 91),564	1377,(4, 120),56	1433,(21, 121),68	1501,(38, 121),68	1569,(41, 121),68	1637,(47, 121),68	1705,(35, 121),68	1841,(8, 29),104	1945,(23, 121),68	2013,(53, 121),68	2081,(58, 121),68	2237,(71, 121),68	2305,(112, 121),68	2441,(104, 121),68	2509,(12, 113),8	2517,(12, 118),148	2665,(40, 121),68	2733,(95, 121),68	2837,(8, 31),180	3017,(30, 121),68	3085,(51, 121),68	3153,(73, 121),68	3221,(86, 121),68	3289,(88, 121),68	3357,(50, 121),68	3425,(93, 121),68	3493,(114, 121),68	3561,(54, 121),68	3629,(57, 121),68	3697,(117, 121),68	3765,(80, 121),68	3833,(46, 121),68	3901,(76, 121),68	3969,(60, 121),68	4037,(78, 121),68	4105,(42, 121),68	4173,(49, 121),68	4241,(25, 121),68	4309,(34, 121),68	4377,(43, 121),68	4513,(82, 121),68	4581,(69, 121),68	4649,(84, 121),68	4717,(90, 121),68	4785,(56, 121),68	4853,(61, 121),68	4921,(67, 121),68	4989,(97, 121),68	5057,(108, 121),68	5125,(22, 121),68	5193,(28, 121),68	5329,(55, 121),68	5397,(65, 121),68	5465,(110, 121),68	5533,(100, 121),68	5669,(44, 121),68	5737,(63, 121),68	5805,(102, 121),68	5873,(106, 121),68	5941,(119, 121),68	6145,(45, 121),68	6281,(59, 121),68	
29,(3, 18),24	57,(11, 14),12	133,(3, 50),36	169,(3, 93),8	177,(3, 114),4	181,(7, 57),4	193,(7, 117),4	209,(3, 46),112	321,(3, 76),92	413,(7, 60),36	449,(7, 78),112	561,(11, 42),8	569,(11, 49),32	1377,(7, 48),260	1637,(7, 115),1200	2837,(11, 45),132	2969,(11, 59),100	
13,(2, 35),4	21,(2, 75),4	25,(2, 87),4	29,(6, 104),4	33,(2, 107),4	41,(2, 51),28	69,(2, 73),20	89,(2, 86),20	109,(2, 88),24	133,(2, 98),680	813,(6, 69),16	829,(6, 84),28	857,(6, 90),28	885,(10, 56),4	889,(10, 61),4	893,(10, 67),4	901,(52, 121),68	969,(6, 20),24	993,(6, 33),8	1001,(6, 36),12	1013,(6, 81),20	1033,(6, 94),28	1061,(6, 103),4	1065,(6, 105),40	1105,(6, 109),12	1117,(10, 29),8	1125,(10, 33),24	1149,(10, 101),12	1165,(2, 100),116	1281,(16, 121),68	1349,(10, 44),36	1385,(10, 63),20	1405,(10, 102),12	1417,(10, 106),60	1477,(10, 119),44	1773,(19, 121),68	2149,(10, 62),88	2373,(27, 121),68	2801,(18, 121),68	2869,(14, 121),68	2937,(74, 121),68	3017,(10, 17),152	5261,(37, 121),68	
1,(0, 2),4	5,(0, 3),4	9,(0, 4),4	13,(0, 6),4	17,(0, 7),4	21,(0, 8),4	25,(0, 10),4	29,(0, 11),4	33,(0, 12),4	37,(5, 30),4	41,(5, 33),4	45,(5, 39),140	185,(5, 54),4	189,(5, 57),4	193,(5, 68),4	197,(5, 80),12	209,(5, 81),4	213,(5, 92),8	221,(5, 101),160	381,(5, 109),272	653,(9, 24),4	657,(9, 25),16	673,(9, 34),4	677,(9, 43),48	725,(9, 79),60	785,(9, 82),28	813,(9, 83),88	901,(9, 97),8	909,(9, 108),100	1009,(1, 22),20	1029,(1, 28),4	1033,(1, 37),44	1077,(1, 55),4	1081,(1, 65),24	1105,(1, 110),60	1165,(1, 116),36	1201,(13, 121),68	4445,(98, 121),68	5601,(91, 121),68	6009,(48, 121),68	6077,(115, 121),68	6213,(31, 121),68	6349,(17, 121),68	
