176
# CPU
64,6,4	70,7,4	74,11,4	97,13,4	127,15,4	131,8,4	135,17,4	139,9,4	143,19,4	147,12,4	
61,2,4	65,4,4	69,5,4	73,14,4	130,16,4	136,18,4	
0,0,1	1,1,4	89,3,4	125,10,4	133,20,4	175,21,1	
# Incoming
61,(1, 6),3	64,(1, 7),6	70,(1, 11),3	73,(1, 12),21	94,(1, 13),3	97,(1, 15),30	127,(2, 8),3	130,(1, 17),3	133,(2, 9),3	136,(1, 19),3	139,(2, 12),3	
1,(0, 2),60	127,(1, 16),3	133,(1, 18),3	
65,(2, 3),24	89,(2, 10),36	125,(6, 21),3	130,(2, 20),3	133,(7, 21),3	136,(4, 21),3	139,(11, 21),3	142,(5, 21),3	145,(14, 21),3	148,(13, 21),3	151,(15, 21),3	154,(16, 21),3	157,(8, 21),3	160,(17, 21),3	163,(18, 21),3	166,(9, 21),3	169,(19, 21),3	172,(12, 21),3	
# Outgoing
125,(6, 21),3	133,(7, 21),3	139,(11, 21),3	148,(13, 21),3	151,(15, 21),3	157,(8, 21),3	160,(17, 21),3	166,(9, 21),3	169,(19, 21),3	172,(12, 21),3	
65,(2, 3),24	89,(2, 10),36	127,(2, 8),3	130,(2, 20),3	133,(2, 9),3	136,(4, 21),3	139,(2, 12),3	142,(5, 21),3	145,(14, 21),3	154,(16, 21),3	163,(18, 21),3	
1,(0, 2),60	61,(1, 6),3	64,(1, 7),6	70,(1, 11),3	73,(1, 12),21	94,(1, 13),3	97,(1, 15),30	127,(1, 16),3	130,(1, 17),3	133,(1, 18),3	136,(1, 19),3	
