356
# CPU
0,0,1	1,4,22	23,3,22	45,24,22	67,20,22	89,36,22	111,29,22	133,13,22	155,10,22	177,31,22	199,16,22	221,25,22	259,11,22	355,41,1	
15,2,22	37,21,22	59,26,22	81,40,22	103,5,22	125,8,22	163,22,22	227,19,22	
29,1,22	51,38,22	73,30,22	95,28,22	117,27,22	141,33,22	183,37,22	205,7,22	
45,18,22	67,32,22	93,6,22	143,9,22	241,14,22	
47,23,22	71,17,22	
57,35,22	87,34,22	
57,39,22	
67,15,22	

53,12,22	
# Incoming
67,(2, 29),2	71,(1, 10),2	73,(18, 41),8	81,(2, 13),2	83,(2, 10),2	85,(2, 31),4	89,(2, 25),2	93,(1, 16),6	99,(1, 25),10	109,(23, 41),8	121,(21, 41),8	129,(12, 41),8	137,(38, 41),8	145,(39, 41),8	153,(35, 41),8	161,(15, 41),8	173,(26, 41),8	181,(32, 41),8	189,(17, 41),8	197,(40, 41),8	205,(34, 41),8	213,(6, 41),8	227,(1, 11),32	259,(30, 41),8	267,(28, 41),8	275,(5, 41),8	283,(27, 41),8	291,(8, 41),8	299,(33, 41),8	307,(9, 41),8	315,(22, 41),8	323,(37, 41),8	331,(7, 41),8	339,(19, 41),8	347,(14, 41),8	
1,(0, 2),14	53,(1, 26),2	59,(1, 8),2	71,(3, 40),4	75,(1, 5),16	91,(1, 22),2	107,(4, 8),14	143,(4, 22),20	163,(1, 19),64	
15,(0, 1),14	45,(2, 38),2	65,(2, 28),2	69,(3, 30),2	79,(2, 27),2	93,(4, 27),2	95,(3, 27),12	113,(2, 37),8	121,(3, 33),20	141,(2, 7),10	163,(3, 37),20	183,(4, 7),20	
29,(4, 18),2	37,(2, 18),8	55,(3, 32),4	59,(2, 32),6	71,(2, 6),8	87,(4, 6),4	91,(3, 6),2	93,(2, 9),20	113,(1, 9),20	133,(1, 14),4	141,(4, 9),2	151,(2, 14),22	203,(4, 14),32	235,(3, 14),6	
31,(4, 23),8	45,(3, 23),2	57,(1, 17),2	61,(4, 17),8	69,(2, 17),2	
47,(4, 35),8	55,(1, 35),2	67,(1, 34),4	75,(4, 34),2	77,(3, 34),10	
43,(4, 39),2	49,(2, 39),8	
57,(2, 15),2	59,(3, 15),2	61,(1, 15),6	

39,(4, 12),4	47,(2, 12),2	51,(1, 12),2	
# Outgoing
1,(0, 2),14	15,(0, 1),14	29,(4, 18),2	31,(4, 23),8	39,(4, 12),4	43,(4, 39),2	45,(3, 23),2	47,(4, 35),8	55,(3, 32),4	59,(3, 15),2	61,(4, 17),8	69,(3, 30),2	71,(3, 40),4	75,(4, 34),2	77,(3, 34),10	87,(4, 6),4	91,(3, 6),2	93,(4, 27),2	95,(3, 27),12	107,(4, 8),14	121,(3, 33),20	141,(4, 9),2	143,(4, 22),20	163,(3, 37),20	183,(4, 7),20	203,(4, 14),32	235,(3, 14),6	
37,(2, 18),8	45,(2, 38),2	47,(2, 12),2	49,(2, 39),8	57,(2, 15),2	59,(2, 32),6	65,(2, 28),2	67,(2, 29),2	69,(2, 17),2	71,(2, 6),8	79,(2, 27),2	81,(2, 13),2	83,(2, 10),2	85,(2, 31),4	89,(2, 25),2	93,(2, 9),20	113,(2, 37),8	121,(21, 41),8	141,(2, 7),10	151,(2, 14),22	173,(26, 41),8	197,(40, 41),8	275,(5, 41),8	291,(8, 41),8	315,(22, 41),8	339,(19, 41),8	
51,(1, 12),2	53,(1, 26),2	55,(1, 35),2	57,(1, 17),2	59,(1, 8),2	61,(1, 15),6	67,(1, 34),4	71,(1, 10),2	75,(1, 5),16	91,(1, 22),2	93,(1, 16),6	99,(1, 25),10	113,(1, 9),20	133,(1, 14),4	137,(38, 41),8	163,(1, 19),64	227,(1, 11),32	259,(30, 41),8	267,(28, 41),8	283,(27, 41),8	299,(33, 41),8	323,(37, 41),8	331,(7, 41),8	
73,(18, 41),8	181,(32, 41),8	213,(6, 41),8	307,(9, 41),8	347,(14, 41),8	
109,(23, 41),8	189,(17, 41),8	
153,(35, 41),8	205,(34, 41),8	
145,(39, 41),8	
161,(15, 41),8	

129,(12, 41),8	
