2350
# CPU
7,5,18	25,8,18	43,10,18	61,95,18	109,109,18	127,23,18	190,33,18	208,37,18	226,64,18	244,59,18	262,71,18	280,115,18	298,72,18	316,106,18	334,92,18	352,83,18	387,41,18	1013,26,18	1067,14,18	1085,35,18	1103,36,18	1121,53,18	1139,67,18	1157,102,18	
9,6,18	27,12,18	45,112,18	63,48,18	81,49,18	261,52,18	279,98,18	297,29,18	315,50,18	333,22,18	351,73,18	369,74,18	387,96,18	405,114,18	1015,28,18	1068,31,18	1086,39,18	1104,40,18	1122,47,18	1140,62,18	1158,89,18	1176,97,18	1194,101,18	1212,111,18	
0,0,1	1,2,18	19,1,18	37,9,18	55,45,18	73,25,18	91,43,18	109,18,18	127,16,18	145,88,18	163,24,18	181,90,18	199,78,18	217,13,18	235,38,18	253,63,18	271,87,18	289,76,18	307,84,18	325,117,18	343,99,18	361,110,18	379,82,18	397,20,18	415,56,18	
3,3,18	21,11,18	39,17,18	57,120,18	75,34,18	123,58,18	149,105,18	206,55,18	259,46,18	277,69,18	295,70,18	1566,30,18	1584,65,18	1602,94,18	1620,104,18	1942,86,18	2024,81,18	2042,108,18	2168,75,18	2186,77,18	2204,103,18	2224,116,18	2270,60,18	2288,119,18	2349,121,1	
5,4,18	23,7,18	41,51,18	59,54,18	89,19,18	177,91,18	195,32,18	213,107,18	231,118,18	249,27,18	307,15,18	325,68,18	343,85,18	361,44,18	379,100,18	397,57,18	415,61,18	1010,21,18	1035,80,18	1056,93,18	1082,42,18	1117,66,18	1137,79,18	1157,113,18	
# Incoming
5,(0, 5),2	11,(0, 8),2	13,(0, 10),2	46,(2, 23),3	52,(3, 26),1	53,(3, 33),5	58,(4, 23),1	59,(3, 64),1	69,(2, 35),6	75,(2, 36),3	78,(3, 71),7	85,(4, 26),11	96,(4, 35),8	104,(4, 83),4	108,(4, 109),1	109,(6, 23),1	110,(6, 33),1	111,(11, 41),1	112,(6, 64),11	123,(11, 67),1	124,(4, 67),27	151,(6, 53),28	179,(11, 115),10	189,(7, 33),1	190,(6, 83),1	191,(6, 92),1	192,(7, 37),5	197,(7, 64),1	198,(6, 115),5	203,(7, 59),2	205,(12, 53),1	206,(2, 59),1	207,(7, 71),5	216,(7, 115),8	225,(2, 67),15	240,(11, 35),25	266,(2, 72),2	284,(12, 72),1	285,(12, 106),1	315,(2, 83),1	318,(2, 92),1	319,(11, 83),33	352,(12, 41),35	1010,(1, 26),3	1015,(1, 53),1	1020,(1, 67),10	1056,(1, 102),2	1058,(9, 14),9	1068,(9, 35),5	1073,(9, 36),1	1090,(9, 53),15	1117,(9, 67),4	1146,(9, 102),1	
7,(0, 6),2	17,(0, 12),2	35,(2, 22),11	49,(2, 28),5	54,(2, 29),6	60,(2, 31),2	62,(3, 48),1	63,(3, 49),1	64,(3, 52),11	75,(3, 62),2	77,(3, 74),1	78,(2, 40),37	115,(3, 98),3	118,(4, 28),5	123,(4, 62),1	124,(5, 62),8	132,(11, 47),2	134,(11, 74),1	135,(11, 114),2	138,(5, 96),1	139,(5, 97),3	142,(5, 98),1	143,(11, 111),6	149,(5, 111),1	150,(8, 31),1	151,(2, 47),39	190,(4, 96),1	191,(11, 40),23	214,(11, 52),18	232,(7, 22),1	233,(7, 28),1	234,(7, 31),1	235,(7, 40),24	259,(7, 47),1	260,(7, 52),1	261,(7, 62),5	266,(7, 73),1	267,(7, 98),1	268,(7, 114),2	270,(8, 29),3	273,(8, 50),6	279,(8, 73),15	294,(10, 22),1	302,(10, 73),12	314,(10, 74),1	315,(10, 89),1	320,(2, 96),1	321,(2, 97),4	334,(2, 111),1	336,(2, 114),2	424,(10, 111),10	1013,(1, 28),2	1067,(9, 31),1	1074,(9, 39),1	1075,(9, 40),1	1082,(9, 47),8	1105,(9, 62),11	1137,(9, 89),6	1143,(9, 97),1	1144,(9, 101),2	1147,(9, 111),9	
49,(3, 24),2	51,(3, 25),1	52,(4, 16),6	58,(3, 56),1	59,(4, 24),1	60,(3, 84),1	61,(3, 110),1	65,(4, 56),2	67,(5, 13),4	71,(5, 18),1	72,(5, 20),2	74,(6, 13),4	78,(6, 16),13	91,(6, 20),2	93,(6, 24),1	94,(11, 20),2	96,(11, 24),3	99,(11, 82),6	105,(11, 88),1	106,(11, 99),1	107,(6, 88),1	108,(6, 99),1	109,(7, 24),1	111,(5, 82),8	121,(8, 24),1	123,(8, 78),1	132,(5, 90),6	138,(12, 13),3	141,(12, 38),1	142,(12, 78),8	151,(4, 117),17	168,(7, 13),10	178,(7, 38),3	181,(7, 63),2	183,(8, 56),5	188,(8, 76),8	196,(10, 76),1	197,(10, 87),1	198,(7, 76),5	205,(7, 84),2	207,(8, 110),3	210,(10, 110),1	211,(10, 117),1	212,(7, 99),2	214,(7, 110),2	216,(8, 82),19	256,(10, 20),8	295,(10, 56),7	
1,(0, 3),2	15,(0, 11),2	60,(4, 34),2	62,(4, 46),1	63,(4, 55),2	67,(4, 65),1	68,(4, 75),3	71,(4, 81),8	79,(4, 103),1	80,(4, 105),4	84,(5, 30),25	109,(5, 77),2	111,(6, 30),1	112,(7, 46),2	114,(7, 69),2	116,(51, 121),1	117,(54, 121),1	119,(5, 119),2	122,(8, 58),1	123,(6, 69),2	125,(6, 81),1	126,(6, 86),6	132,(6, 105),1	133,(6, 108),5	143,(5, 105),6	150,(112, 121),1	166,(8, 30),2	168,(10, 55),1	169,(10, 77),1	170,(95, 121),1	171,(109, 121),1	172,(23, 121),1	183,(7, 75),6	190,(2, 55),16	206,(6, 60),27	233,(6, 116),8	241,(8, 119),15	256,(12, 46),3	259,(12, 69),4	263,(12, 70),3	266,(33, 121),1	267,(37, 121),1	268,(2, 81),47	315,(7, 108),4	319,(12, 75),5	324,(48, 121),1	325,(2, 103),9	334,(49, 121),1	335,(19, 121),1	336,(91, 121),1	337,(32, 121),1	338,(2, 116),657	995,(2, 119),6	1001,(4, 86),315	1316,(1, 30),250	1566,(1, 65),7	1573,(1, 94),6	1579,(1, 103),11	1590,(1, 104),3	1593,(1, 116),1	1594,(1, 119),26	1620,(7, 86),227	1847,(7, 116),60	1907,(8, 86),35	1942,(8, 116),66	2008,(12, 81),16	2024,(12, 108),6	2030,(9, 60),134	2164,(9, 75),4	2168,(9, 77),1	2169,(9, 103),4	2173,(9, 116),51	2224,(10, 60),46	2270,(10, 119),6	2276,(45, 121),1	2277,(25, 121),1	2278,(43, 121),1	2279,(18, 121),1	2280,(16, 121),1	2281,(88, 121),1	2282,(24, 121),1	2283,(90, 121),1	2284,(78, 121),1	2285,(107, 121),1	2286,(13, 121),1	2287,(64, 121),1	2288,(118, 121),1	2289,(38, 121),1	2290,(59, 121),1	2291,(27, 121),1	2292,(63, 121),1	2293,(52, 121),1	2294,(71, 121),1	2295,(87, 121),1	2296,(98, 121),1	2297,(115, 121),1	2298,(76, 121),1	2299,(29, 121),1	2300,(72, 121),1	2301,(84, 121),1	2302,(15, 121),1	2303,(50, 121),1	2304,(106, 121),1	2305,(68, 121),1	2306,(117, 121),1	2307,(22, 121),1	2308,(92, 121),1	2309,(99, 121),1	2310,(85, 121),1	2311,(73, 121),1	2312,(83, 121),1	2313,(44, 121),1	2314,(110, 121),1	2315,(74, 121),1	2316,(82, 121),1	2317,(100, 121),1	2318,(41, 121),1	2319,(96, 121),1	2320,(57, 121),1	2321,(20, 121),1	2322,(114, 121),1	2323,(61, 121),1	2324,(56, 121),1	2325,(21, 121),1	2326,(26, 121),1	2327,(28, 121),1	2328,(80, 121),1	2329,(93, 121),1	2330,(14, 121),1	2331,(31, 121),1	2332,(42, 121),1	2333,(35, 121),1	2334,(39, 121),1	2335,(36, 121),1	2336,(40, 121),1	2337,(66, 121),1	2338,(53, 121),1	2339,(47, 121),1	2340,(79, 121),1	2341,(67, 121),1	2342,(62, 121),1	2343,(113, 121),1	2344,(102, 121),1	2345,(89, 121),1	2346,(97, 121),1	2347,(101, 121),1	2348,(111, 121),1	
3,(0, 4),2	9,(0, 7),2	19,(2, 19),16	35,(3, 19),14	62,(2, 32),7	74,(5, 21),8	82,(5, 107),1	83,(8, 21),1	85,(3, 118),1	86,(11, 19),3	89,(11, 27),5	94,(6, 27),3	97,(6, 42),6	103,(6, 44),3	106,(6, 68),1	107,(11, 32),4	112,(11, 85),1	115,(2, 42),36	151,(5, 66),15	166,(11, 118),7	173,(8, 44),1	174,(8, 57),1	175,(8, 85),1	176,(8, 91),1	177,(8, 113),1	178,(10, 32),1	179,(6, 61),11	192,(6, 107),4	196,(6, 113),2	198,(8, 107),5	203,(8, 118),4	207,(2, 66),18	235,(10, 27),5	240,(2, 68),26	266,(6, 93),18	284,(11, 44),21	305,(12, 15),2	307,(12, 42),3	310,(12, 68),6	316,(2, 85),2	318,(12, 85),1	319,(2, 93),1	320,(10, 42),9	329,(10, 44),1	330,(10, 100),3	335,(2, 113),1	336,(8, 93),29	365,(10, 57),9	374,(10, 61),8	382,(10, 66),9	391,(10, 79),15	406,(10, 93),18	1001,(1, 21),9	1016,(1, 66),4	1030,(1, 79),1	1031,(1, 80),4	1035,(1, 93),21	1076,(9, 42),6	1116,(9, 66),1	1121,(9, 79),16	1156,(9, 113),1	
# Outgoing
67,(5, 13),4	71,(5, 18),1	72,(5, 20),2	74,(5, 21),8	82,(5, 107),1	83,(8, 21),1	84,(5, 30),25	109,(5, 77),2	111,(5, 82),8	119,(5, 119),2	121,(8, 24),1	122,(8, 58),1	123,(8, 78),1	124,(5, 62),8	132,(5, 90),6	138,(5, 96),1	139,(5, 97),3	142,(5, 98),1	143,(5, 105),6	149,(5, 111),1	150,(8, 31),1	151,(5, 66),15	166,(8, 30),2	168,(10, 55),1	169,(10, 77),1	170,(95, 121),1	171,(109, 121),1	172,(23, 121),1	173,(8, 44),1	174,(8, 57),1	175,(8, 85),1	176,(8, 91),1	177,(8, 113),1	178,(10, 32),1	183,(8, 56),5	188,(8, 76),8	196,(10, 76),1	197,(10, 87),1	198,(8, 107),5	203,(8, 118),4	207,(8, 110),3	210,(10, 110),1	211,(10, 117),1	216,(8, 82),19	235,(10, 27),5	241,(8, 119),15	256,(10, 20),8	266,(33, 121),1	267,(37, 121),1	270,(8, 29),3	273,(8, 50),6	279,(8, 73),15	294,(10, 22),1	295,(10, 56),7	302,(10, 73),12	314,(10, 74),1	315,(10, 89),1	320,(10, 42),9	329,(10, 44),1	330,(10, 100),3	336,(8, 93),29	365,(10, 57),9	374,(10, 61),8	382,(10, 66),9	391,(10, 79),15	406,(10, 93),18	424,(10, 111),10	1907,(8, 86),35	1942,(8, 116),66	2224,(10, 60),46	2270,(10, 119),6	2287,(64, 121),1	2290,(59, 121),1	2294,(71, 121),1	2297,(115, 121),1	2300,(72, 121),1	2304,(106, 121),1	2308,(92, 121),1	2312,(83, 121),1	2318,(41, 121),1	2326,(26, 121),1	2330,(14, 121),1	2333,(35, 121),1	2335,(36, 121),1	2338,(53, 121),1	2341,(67, 121),1	2344,(102, 121),1	
74,(6, 13),4	78,(6, 16),13	91,(6, 20),2	93,(6, 24),1	94,(6, 27),3	97,(6, 42),6	103,(6, 44),3	106,(6, 68),1	107,(6, 88),1	108,(6, 99),1	109,(6, 23),1	110,(6, 33),1	111,(6, 30),1	112,(6, 64),11	123,(6, 69),2	125,(6, 81),1	126,(6, 86),6	132,(6, 105),1	133,(6, 108),5	138,(12, 13),3	141,(12, 38),1	142,(12, 78),8	150,(112, 121),1	151,(6, 53),28	179,(6, 61),11	190,(6, 83),1	191,(6, 92),1	192,(6, 107),4	196,(6, 113),2	198,(6, 115),5	205,(12, 53),1	206,(6, 60),27	233,(6, 116),8	256,(12, 46),3	259,(12, 69),4	263,(12, 70),3	266,(6, 93),18	284,(12, 72),1	285,(12, 106),1	305,(12, 15),2	307,(12, 42),3	310,(12, 68),6	318,(12, 85),1	319,(12, 75),5	324,(48, 121),1	334,(49, 121),1	352,(12, 41),35	2008,(12, 81),16	2024,(12, 108),6	2293,(52, 121),1	2296,(98, 121),1	2299,(29, 121),1	2303,(50, 121),1	2307,(22, 121),1	2311,(73, 121),1	2315,(74, 121),1	2319,(96, 121),1	2322,(114, 121),1	2327,(28, 121),1	2331,(31, 121),1	2334,(39, 121),1	2336,(40, 121),1	2339,(47, 121),1	2342,(62, 121),1	2345,(89, 121),1	2346,(97, 121),1	2347,(101, 121),1	2348,(111, 121),1	
1,(0, 3),2	3,(0, 4),2	5,(0, 5),2	7,(0, 6),2	9,(0, 7),2	11,(0, 8),2	13,(0, 10),2	15,(0, 11),2	17,(0, 12),2	19,(2, 19),16	35,(2, 22),11	46,(2, 23),3	49,(2, 28),5	54,(2, 29),6	60,(2, 31),2	62,(2, 32),7	69,(2, 35),6	75,(2, 36),3	78,(2, 40),37	115,(2, 42),36	151,(2, 47),39	190,(2, 55),16	206,(2, 59),1	207,(2, 66),18	225,(2, 67),15	240,(2, 68),26	266,(2, 72),2	268,(2, 81),47	315,(2, 83),1	316,(2, 85),2	318,(2, 92),1	319,(2, 93),1	320,(2, 96),1	321,(2, 97),4	325,(2, 103),9	334,(2, 111),1	335,(2, 113),1	336,(2, 114),2	338,(2, 116),657	995,(2, 119),6	1001,(1, 21),9	1010,(1, 26),3	1013,(1, 28),2	1015,(1, 53),1	1016,(1, 66),4	1020,(1, 67),10	1030,(1, 79),1	1031,(1, 80),4	1035,(1, 93),21	1056,(1, 102),2	1058,(9, 14),9	1067,(9, 31),1	1068,(9, 35),5	1073,(9, 36),1	1074,(9, 39),1	1075,(9, 40),1	1076,(9, 42),6	1082,(9, 47),8	1090,(9, 53),15	1105,(9, 62),11	1116,(9, 66),1	1117,(9, 67),4	1121,(9, 79),16	1137,(9, 89),6	1143,(9, 97),1	1144,(9, 101),2	1146,(9, 102),1	1147,(9, 111),9	1156,(9, 113),1	1316,(1, 30),250	1566,(1, 65),7	1573,(1, 94),6	1579,(1, 103),11	1590,(1, 104),3	1593,(1, 116),1	1594,(1, 119),26	2030,(9, 60),134	2164,(9, 75),4	2168,(9, 77),1	2169,(9, 103),4	2173,(9, 116),51	2276,(45, 121),1	2277,(25, 121),1	2278,(43, 121),1	2279,(18, 121),1	2280,(16, 121),1	2281,(88, 121),1	2282,(24, 121),1	2283,(90, 121),1	2284,(78, 121),1	2286,(13, 121),1	2289,(38, 121),1	2292,(63, 121),1	2295,(87, 121),1	2298,(76, 121),1	2301,(84, 121),1	2306,(117, 121),1	2309,(99, 121),1	2314,(110, 121),1	2316,(82, 121),1	2321,(20, 121),1	2324,(56, 121),1	
35,(3, 19),14	49,(3, 24),2	51,(3, 25),1	52,(3, 26),1	53,(3, 33),5	58,(3, 56),1	59,(3, 64),1	60,(3, 84),1	61,(3, 110),1	62,(3, 48),1	63,(3, 49),1	64,(3, 52),11	75,(3, 62),2	77,(3, 74),1	78,(3, 71),7	85,(3, 118),1	86,(11, 19),3	89,(11, 27),5	94,(11, 20),2	96,(11, 24),3	99,(11, 82),6	105,(11, 88),1	106,(11, 99),1	107,(11, 32),4	111,(11, 41),1	112,(11, 85),1	115,(3, 98),3	123,(11, 67),1	132,(11, 47),2	134,(11, 74),1	135,(11, 114),2	143,(11, 111),6	166,(11, 118),7	179,(11, 115),10	191,(11, 40),23	214,(11, 52),18	240,(11, 35),25	284,(11, 44),21	319,(11, 83),33	
52,(4, 16),6	58,(4, 23),1	59,(4, 24),1	60,(4, 34),2	62,(4, 46),1	63,(4, 55),2	65,(4, 56),2	67,(4, 65),1	68,(4, 75),3	71,(4, 81),8	79,(4, 103),1	80,(4, 105),4	85,(4, 26),11	96,(4, 35),8	104,(4, 83),4	108,(4, 109),1	109,(7, 24),1	112,(7, 46),2	114,(7, 69),2	116,(51, 121),1	117,(54, 121),1	118,(4, 28),5	123,(4, 62),1	124,(4, 67),27	151,(4, 117),17	168,(7, 13),10	178,(7, 38),3	181,(7, 63),2	183,(7, 75),6	189,(7, 33),1	190,(4, 96),1	192,(7, 37),5	197,(7, 64),1	198,(7, 76),5	203,(7, 59),2	205,(7, 84),2	207,(7, 71),5	212,(7, 99),2	214,(7, 110),2	216,(7, 115),8	232,(7, 22),1	233,(7, 28),1	234,(7, 31),1	235,(7, 40),24	259,(7, 47),1	260,(7, 52),1	261,(7, 62),5	266,(7, 73),1	267,(7, 98),1	268,(7, 114),2	315,(7, 108),4	335,(19, 121),1	336,(91, 121),1	337,(32, 121),1	1001,(4, 86),315	1620,(7, 86),227	1847,(7, 116),60	2285,(107, 121),1	2288,(118, 121),1	2291,(27, 121),1	2302,(15, 121),1	2305,(68, 121),1	2310,(85, 121),1	2313,(44, 121),1	2317,(100, 121),1	2320,(57, 121),1	2323,(61, 121),1	2325,(21, 121),1	2328,(80, 121),1	2329,(93, 121),1	2332,(42, 121),1	2337,(66, 121),1	2340,(79, 121),1	2343,(113, 121),1	
