75
# CPU
0,0,1	1,2,2	3,9,2	5,12,2	7,5,2	9,13,2	11,18,2	13,19,2	15,10,2	17,6,2	20,4,2	26,7,2	74,21,1	
6,20,2	12,1,2	14,14,2	16,17,2	18,11,2	20,3,2	22,16,2	24,15,2	26,8,2	

# Incoming
14,(1, 6),3	17,(1, 4),3	20,(1, 7),6	26,(20, 21),6	32,(14, 21),6	38,(17, 21),6	44,(11, 21),6	50,(3, 21),6	56,(16, 21),6	62,(15, 21),6	68,(8, 21),6	
3,(2, 20),3	6,(0, 1),6	12,(2, 8),3	

# Outgoing
3,(2, 20),3	6,(0, 1),6	12,(2, 8),3	
14,(1, 6),3	17,(1, 4),3	20,(1, 7),6	26,(20, 21),6	32,(14, 21),6	38,(17, 21),6	44,(11, 21),6	50,(3, 21),6	56,(16, 21),6	62,(15, 21),6	68,(8, 21),6	

