659
# CPU
0,0,1	1,5,3	4,6,3	7,4,3	10,14,3	13,3,3	16,65,3	19,7,3	22,28,3	25,23,3	28,70,3	31,43,3	34,46,3	37,39,3	40,69,3	43,79,3	46,38,3	49,19,3	52,35,3	55,77,3	58,59,3	61,33,3	64,53,3	69,66,3	76,40,3	84,63,3	92,45,3	100,51,3	109,24,3	118,18,3	130,12,3	143,74,3	152,22,3	166,49,3	181,31,3	196,57,3	212,68,3	225,21,3	242,27,3	261,30,3	277,58,3	299,36,3	327,80,3	381,73,3	440,10,3	537,71,3	654,52,3	658,81,1	
7,8,3	13,1,3	16,67,3	22,55,3	25,15,3	30,41,3	36,2,3	39,34,3	42,32,3	45,29,3	48,17,3	51,20,3	54,25,3	57,48,3	61,56,3	67,62,3	76,78,3	85,47,3	98,13,3	111,60,3	126,42,3	142,50,3	158,64,3	174,26,3	191,61,3	213,72,3	238,54,3	265,76,3	292,16,3	321,11,3	354,44,3	394,75,3	447,37,3	506,9,3	
# Incoming
10,(8, 69),1	11,(8, 79),1	12,(8, 35),1	13,(8, 53),3	16,(1, 69),1	17,(1, 38),1	18,(1, 77),1	19,(67, 81),4	23,(1, 59),2	25,(55, 81),4	29,(15, 81),4	33,(41, 81),4	37,(1, 33),2	39,(2, 69),1	40,(2, 19),1	41,(2, 77),1	42,(34, 81),4	46,(32, 81),4	50,(29, 81),4	54,(17, 81),4	58,(20, 81),4	62,(25, 81),4	66,(2, 66),3	69,(48, 81),4	73,(1, 40),3	76,(56, 81),4	80,(8, 63),2	82,(1, 63),2	84,(62, 81),4	88,(8, 45),4	92,(78, 81),4	96,(1, 51),4	100,(47, 81),4	104,(1, 24),5	109,(13, 81),4	113,(1, 18),1	114,(2, 18),4	118,(60, 81),4	122,(8, 12),7	129,(2, 12),1	130,(42, 81),4	134,(8, 74),1	135,(1, 74),8	143,(8, 22),8	151,(1, 22),1	152,(50, 81),4	156,(8, 49),10	166,(64, 81),4	170,(8, 31),10	180,(1, 31),1	181,(26, 81),4	185,(8, 57),1	186,(2, 57),10	196,(61, 81),4	200,(8, 68),2	202,(1, 68),10	212,(1, 21),3	215,(2, 21),10	225,(72, 81),4	229,(1, 27),2	231,(2, 27),11	242,(54, 81),4	246,(8, 30),2	248,(1, 30),13	261,(2, 58),16	277,(76, 81),4	281,(2, 36),18	299,(16, 81),4	303,(8, 80),24	327,(11, 81),4	331,(8, 73),3	334,(1, 73),35	369,(2, 73),12	381,(44, 81),4	385,(1, 10),55	440,(75, 81),4	444,(1, 71),79	523,(2, 71),14	537,(37, 81),4	541,(8, 52),97	638,(2, 52),16	654,(9, 81),4	
1,(0, 8),6	7,(0, 1),6	13,(4, 67),3	16,(3, 55),6	22,(6, 15),1	23,(3, 15),1	24,(7, 15),1	25,(4, 41),4	29,(7, 41),1	30,(0, 2),6	36,(6, 34),1	37,(7, 32),1	38,(4, 29),1	39,(7, 29),1	40,(6, 17),1	41,(3, 17),1	42,(5, 20),3	45,(6, 25),3	48,(7, 25),1	49,(5, 48),2	51,(6, 48),1	52,(3, 48),1	53,(7, 48),2	55,(5, 56),1	56,(6, 56),1	57,(7, 56),4	61,(6, 62),5	66,(4, 62),1	67,(6, 78),8	75,(3, 78),1	76,(5, 47),6	82,(4, 47),3	85,(5, 13),1	86,(4, 13),8	94,(3, 13),4	98,(5, 60),1	99,(6, 60),12	111,(5, 42),5	116,(6, 42),10	126,(5, 50),3	129,(6, 50),5	134,(3, 50),7	141,(7, 50),1	142,(5, 64),2	144,(4, 64),1	145,(7, 64),13	158,(5, 26),3	161,(6, 26),2	163,(4, 26),9	172,(3, 26),1	173,(7, 26),1	174,(3, 61),4	178,(7, 61),13	191,(4, 72),6	197,(7, 72),16	213,(6, 54),25	238,(5, 76),10	248,(6, 76),2	250,(4, 76),14	264,(3, 76),1	265,(5, 16),9	274,(6, 16),18	292,(5, 11),18	310,(6, 11),1	311,(4, 11),9	320,(7, 11),1	321,(5, 44),21	342,(4, 44),10	352,(3, 44),1	353,(7, 44),1	354,(6, 75),1	355,(4, 75),34	389,(3, 75),4	393,(7, 75),1	394,(5, 37),24	418,(6, 37),2	420,(4, 37),26	446,(7, 37),1	447,(6, 9),4	451,(4, 9),41	492,(3, 9),10	502,(7, 9),4	
# Outgoing
1,(0, 8),6	7,(0, 1),6	13,(4, 67),3	16,(3, 55),6	22,(6, 15),1	23,(3, 15),1	24,(7, 15),1	25,(4, 41),4	29,(7, 41),1	30,(0, 2),6	36,(6, 34),1	37,(7, 32),1	38,(4, 29),1	39,(7, 29),1	40,(6, 17),1	41,(3, 17),1	42,(5, 20),3	45,(6, 25),3	48,(7, 25),1	49,(5, 48),2	51,(6, 48),1	52,(3, 48),1	53,(7, 48),2	55,(5, 56),1	56,(6, 56),1	57,(7, 56),4	61,(6, 62),5	66,(4, 62),1	67,(6, 78),8	75,(3, 78),1	76,(5, 47),6	82,(4, 47),3	85,(5, 13),1	86,(4, 13),8	94,(3, 13),4	98,(5, 60),1	99,(6, 60),12	111,(5, 42),5	116,(6, 42),10	126,(5, 50),3	129,(6, 50),5	134,(3, 50),7	141,(7, 50),1	142,(5, 64),2	144,(4, 64),1	145,(7, 64),13	158,(5, 26),3	161,(6, 26),2	163,(4, 26),9	172,(3, 26),1	173,(7, 26),1	174,(3, 61),4	178,(7, 61),13	191,(4, 72),6	197,(7, 72),16	213,(6, 54),25	238,(5, 76),10	248,(6, 76),2	250,(4, 76),14	264,(3, 76),1	265,(5, 16),9	274,(6, 16),18	292,(5, 11),18	310,(6, 11),1	311,(4, 11),9	320,(7, 11),1	321,(5, 44),21	342,(4, 44),10	352,(3, 44),1	353,(7, 44),1	354,(6, 75),1	355,(4, 75),34	389,(3, 75),4	393,(7, 75),1	394,(5, 37),24	418,(6, 37),2	420,(4, 37),26	446,(7, 37),1	447,(6, 9),4	451,(4, 9),41	492,(3, 9),10	502,(7, 9),4	
10,(8, 69),1	11,(8, 79),1	12,(8, 35),1	13,(8, 53),3	16,(1, 69),1	17,(1, 38),1	18,(1, 77),1	19,(67, 81),4	23,(1, 59),2	25,(55, 81),4	29,(15, 81),4	33,(41, 81),4	37,(1, 33),2	39,(2, 69),1	40,(2, 19),1	41,(2, 77),1	42,(34, 81),4	46,(32, 81),4	50,(29, 81),4	54,(17, 81),4	58,(20, 81),4	62,(25, 81),4	66,(2, 66),3	69,(48, 81),4	73,(1, 40),3	76,(56, 81),4	80,(8, 63),2	82,(1, 63),2	84,(62, 81),4	88,(8, 45),4	92,(78, 81),4	96,(1, 51),4	100,(47, 81),4	104,(1, 24),5	109,(13, 81),4	113,(1, 18),1	114,(2, 18),4	118,(60, 81),4	122,(8, 12),7	129,(2, 12),1	130,(42, 81),4	134,(8, 74),1	135,(1, 74),8	143,(8, 22),8	151,(1, 22),1	152,(50, 81),4	156,(8, 49),10	166,(64, 81),4	170,(8, 31),10	180,(1, 31),1	181,(26, 81),4	185,(8, 57),1	186,(2, 57),10	196,(61, 81),4	200,(8, 68),2	202,(1, 68),10	212,(1, 21),3	215,(2, 21),10	225,(72, 81),4	229,(1, 27),2	231,(2, 27),11	242,(54, 81),4	246,(8, 30),2	248,(1, 30),13	261,(2, 58),16	277,(76, 81),4	281,(2, 36),18	299,(16, 81),4	303,(8, 80),24	327,(11, 81),4	331,(8, 73),3	334,(1, 73),35	369,(2, 73),12	381,(44, 81),4	385,(1, 10),55	440,(75, 81),4	444,(1, 71),79	523,(2, 71),14	537,(37, 81),4	541,(8, 52),97	638,(2, 52),16	654,(9, 81),4	
