158
# CPU
0,0,1	1,4,3	4,23,3	7,27,3	10,8,3	13,5,3	16,7,3	19,12,3	22,9,3	25,3,3	28,28,3	31,30,3	34,31,3	37,33,3	40,11,3	43,17,3	46,26,3	49,38,3	52,2,3	55,40,3	58,37,3	61,24,3	64,15,3	67,29,3	70,13,3	73,20,3	76,16,3	79,6,3	82,39,3	157,41,1	
53,1,3	56,21,3	59,32,3	62,36,3	65,10,3	68,19,3	71,18,3	74,14,3	77,34,3	80,35,3	83,22,3	
65,25,3	
# Incoming
65,(1, 39),4	69,(21, 41),8	77,(32, 41),8	85,(36, 41),8	93,(10, 41),8	101,(25, 41),8	109,(19, 41),8	117,(18, 41),8	125,(14, 41),8	133,(34, 41),8	141,(35, 41),8	149,(22, 41),8	
1,(0, 1),52	57,(4, 22),20	
53,(3, 25),4	57,(1, 25),8	
# Outgoing
1,(0, 1),52	53,(3, 25),4	57,(4, 22),20	
57,(1, 25),8	65,(1, 39),4	69,(21, 41),8	77,(32, 41),8	85,(36, 41),8	93,(10, 41),8	109,(19, 41),8	117,(18, 41),8	125,(14, 41),8	133,(34, 41),8	141,(35, 41),8	149,(22, 41),8	
101,(25, 41),8	
