1903
# CPU
5,2,1	6,10,1	7,12,1	8,18,1	9,20,1	29,4,1	33,6,1	77,8,1	93,14,1	97,16,1	
0,0,1	1,1,1	2,3,1	3,5,1	4,19,1	10,7,1	1254,9,1	1274,11,1	1326,13,1	1338,15,1	1434,17,1	1902,21,1	
# Incoming
1,(0, 2),4	5,(1, 4),24	29,(1, 6),4	33,(1, 8),44	77,(1, 14),16	93,(1, 16),4	
6,(2, 7),4	10,(2, 9),1244	1254,(2, 11),20	1274,(2, 13),52	1326,(2, 15),12	1338,(2, 17),96	1434,(10, 21),52	1486,(12, 21),52	1538,(18, 21),52	1590,(20, 21),52	1642,(4, 21),52	1694,(6, 21),52	1746,(8, 21),52	1798,(14, 21),52	1850,(16, 21),52	
# Outgoing
6,(2, 7),4	10,(2, 9),1244	1254,(2, 11),20	1274,(2, 13),52	1326,(2, 15),12	1338,(2, 17),96	1434,(10, 21),52	1486,(12, 21),52	1538,(18, 21),52	1590,(20, 21),52	1642,(4, 21),52	1694,(6, 21),52	1746,(8, 21),52	1798,(14, 21),52	1850,(16, 21),52	
1,(0, 2),4	5,(1, 4),24	29,(1, 6),4	33,(1, 8),44	77,(1, 14),16	93,(1, 16),4	
