327
# CPU
0,41,1	1,40,13	14,39,13	27,17,13	40,37,13	53,24,13	66,9,13	79,18,13	92,19,13	105,11,13	118,15,13	131,29,13	144,8,13	157,23,13	170,13,13	183,34,13	196,25,13	209,31,13	222,33,13	235,2,13	248,1,13	326,0,1	
13,20,13	61,30,13	97,14,13	121,28,13	145,10,13	169,12,13	205,21,13	265,4,13	
37,5,13	157,7,13	217,35,13	245,3,13	
25,26,13	85,27,13	181,6,13	
49,16,13	73,32,13	109,22,13	133,36,13	193,38,13	
# Incoming
110,(14, 2),6	116,(26, 1),2	122,(22, 2),6	128,(16, 1),2	130,(32, 1),2	134,(28, 1),8	158,(10, 1),10	196,(12, 1),8	258,(3, 0),34	292,(4, 0),34	
1,(41, 20),12	49,(41, 30),12	85,(41, 14),12	109,(41, 28),12	133,(41, 10),12	157,(41, 12),12	170,(7, 4),12	193,(41, 21),12	205,(6, 4),16	225,(17, 4),2	227,(24, 4),2	229,(11, 4),2	231,(15, 4),6	237,(34, 4),10	247,(33, 4),18	
25,(41, 5),12	38,(26, 3),2	98,(27, 3),4	116,(30, 3),2	145,(41, 7),12	157,(36, 3),8	182,(12, 3),14	205,(41, 35),12	217,(37, 3),2	219,(9, 3),2	221,(18, 3),4	225,(38, 3),20	
13,(41, 26),12	73,(41, 27),12	169,(41, 6),12	
37,(41, 16),12	61,(41, 32),12	97,(41, 22),12	121,(41, 36),12	181,(41, 38),12	
# Outgoing
1,(41, 20),12	13,(41, 26),12	25,(41, 5),12	37,(41, 16),12	49,(41, 30),12	61,(41, 32),12	73,(41, 27),12	85,(41, 14),12	97,(41, 22),12	109,(41, 28),12	121,(41, 36),12	133,(41, 10),12	145,(41, 7),12	157,(41, 12),12	169,(41, 6),12	181,(41, 38),12	193,(41, 21),12	205,(41, 35),12	217,(37, 3),2	219,(9, 3),2	221,(18, 3),4	225,(17, 4),2	227,(24, 4),2	229,(11, 4),2	231,(15, 4),6	237,(34, 4),10	247,(33, 4),18	
110,(14, 2),6	116,(30, 3),2	134,(28, 1),8	158,(10, 1),10	182,(12, 3),14	196,(12, 1),8	292,(4, 0),34	
170,(7, 4),12	258,(3, 0),34	
38,(26, 3),2	98,(27, 3),4	116,(26, 1),2	205,(6, 4),16	
122,(22, 2),6	128,(16, 1),2	130,(32, 1),2	157,(36, 3),8	225,(38, 3),20	
