851
# CPU
0,0,1	1,5,9	10,72,9	19,11,9	28,18,9	37,63,9	46,67,9	55,27,9	64,73,9	73,75,9	82,9,9	91,33,9	109,34,9	137,53,9	169,65,9	205,40,9	253,69,9	321,14,9	389,22,9	481,70,9	581,17,9	841,16,9	850,81,1	
9,7,9	18,2,9	27,6,9	36,29,9	45,71,9	54,52,9	63,23,9	72,32,9	81,59,9	90,36,9	99,24,9	108,10,9	117,46,9	126,39,9	135,30,9	144,79,9	153,43,9	162,21,9	171,54,9	180,50,9	189,77,9	198,80,9	207,57,9	216,56,9	225,58,9	
13,3,9	22,41,9	31,61,9	40,44,9	49,13,9	58,19,9	67,47,9	76,68,9	85,42,9	94,78,9	
5,8,9	14,28,9	23,4,9	32,1,9	41,74,9	50,45,9	59,51,9	68,66,9	77,76,9	86,60,9	95,20,9	104,38,9	113,55,9	122,49,9	131,48,9	140,12,9	149,62,9	158,37,9	167,26,9	176,35,9	185,64,9	194,31,9	203,15,9	212,25,9	
# Incoming
23,(28, 81),4	31,(41, 81),4	35,(4, 33),4	40,(61, 81),4	45,(29, 81),4	49,(44, 81),4	53,(74, 81),4	57,(71, 81),4	61,(13, 81),4	65,(45, 81),4	69,(52, 81),4	73,(19, 81),4	77,(51, 81),4	81,(23, 81),4	85,(47, 81),4	89,(66, 81),4	93,(32, 81),4	97,(68, 81),4	101,(76, 81),4	105,(1, 34),4	109,(59, 81),4	113,(42, 81),4	117,(60, 81),4	121,(36, 81),4	125,(4, 53),12	137,(78, 81),4	141,(20, 81),4	145,(24, 81),4	149,(38, 81),4	153,(6, 65),16	169,(10, 81),4	173,(55, 81),4	177,(46, 81),4	181,(49, 81),4	185,(7, 40),12	197,(6, 40),8	205,(39, 81),4	209,(48, 81),4	213,(30, 81),4	217,(12, 81),4	221,(1, 69),32	253,(79, 81),4	257,(62, 81),4	261,(43, 81),4	265,(37, 81),4	269,(8, 14),44	313,(7, 14),8	321,(21, 81),4	325,(26, 81),4	329,(54, 81),4	333,(35, 81),4	337,(3, 22),4	341,(2, 22),48	389,(50, 81),4	393,(64, 81),4	397,(77, 81),4	401,(31, 81),4	405,(7, 70),24	429,(6, 70),4	433,(1, 70),48	481,(80, 81),4	485,(15, 81),4	489,(57, 81),4	493,(25, 81),4	497,(7, 17),20	517,(1, 17),64	581,(56, 81),4	585,(58, 81),4	589,(2, 16),232	821,(1, 16),20	
5,(0, 7),4	13,(0, 2),4	21,(0, 6),4	87,(5, 58),24	153,(4, 57),12	185,(8, 56),12	
9,(0, 3),4	27,(8, 47),4	39,(4, 68),4	43,(1, 42),4	47,(5, 78),40	
1,(0, 8),4	17,(0, 4),4	25,(0, 1),4	
# Outgoing
1,(0, 8),4	5,(0, 7),4	9,(0, 3),4	13,(0, 2),4	17,(0, 4),4	21,(0, 6),4	25,(0, 1),4	47,(5, 78),40	87,(5, 58),24	
45,(29, 81),4	57,(71, 81),4	69,(52, 81),4	81,(23, 81),4	93,(32, 81),4	109,(59, 81),4	121,(36, 81),4	145,(24, 81),4	153,(6, 65),16	169,(10, 81),4	177,(46, 81),4	185,(7, 40),12	197,(6, 40),8	205,(39, 81),4	213,(30, 81),4	253,(79, 81),4	261,(43, 81),4	313,(7, 14),8	321,(21, 81),4	329,(54, 81),4	341,(2, 22),48	389,(50, 81),4	397,(77, 81),4	405,(7, 70),24	429,(6, 70),4	481,(80, 81),4	489,(57, 81),4	497,(7, 17),20	581,(56, 81),4	585,(58, 81),4	589,(2, 16),232	
31,(41, 81),4	40,(61, 81),4	49,(44, 81),4	61,(13, 81),4	73,(19, 81),4	85,(47, 81),4	97,(68, 81),4	113,(42, 81),4	137,(78, 81),4	337,(3, 22),4	
23,(28, 81),4	27,(8, 47),4	35,(4, 33),4	39,(4, 68),4	43,(1, 42),4	53,(74, 81),4	65,(45, 81),4	77,(51, 81),4	89,(66, 81),4	101,(76, 81),4	105,(1, 34),4	117,(60, 81),4	125,(4, 53),12	141,(20, 81),4	149,(38, 81),4	153,(4, 57),12	173,(55, 81),4	181,(49, 81),4	185,(8, 56),12	209,(48, 81),4	217,(12, 81),4	221,(1, 69),32	257,(62, 81),4	265,(37, 81),4	269,(8, 14),44	325,(26, 81),4	333,(35, 81),4	393,(64, 81),4	401,(31, 81),4	433,(1, 70),48	485,(15, 81),4	493,(25, 81),4	517,(1, 17),64	821,(1, 16),20	
