1103
# CPU
0,121,1	1,40,6	7,87,6	13,103,6	19,96,6	25,63,6	31,76,6	37,81,6	43,36,6	49,94,6	55,93,6	61,113,6	67,50,6	73,59,6	79,16,6	85,77,6	91,22,6	97,72,6	103,17,6	109,49,6	115,48,6	121,24,6	127,28,6	133,114,6	139,13,6	145,61,6	151,41,6	157,54,6	163,18,6	169,104,6	175,92,6	181,88,6	187,57,6	193,58,6	199,39,6	205,33,6	211,27,6	217,15,6	223,47,6	229,85,6	235,51,6	241,68,6	247,115,6	253,98,6	259,106,6	265,23,6	271,55,6	277,95,6	283,97,6	289,83,6	295,31,6	301,86,6	307,45,6	313,60,6	319,53,6	325,20,6	331,110,6	337,112,6	343,29,6	349,116,6	355,34,6	361,21,6	367,62,6	373,99,6	379,73,6	385,56,6	391,105,6	397,100,6	403,32,6	409,80,6	415,119,6	421,101,6	427,43,6	433,71,6	439,108,6	445,90,6	451,19,6	457,74,6	463,44,6	469,30,6	475,67,6	481,91,6	487,64,6	493,117,6	499,66,6	505,69,6	511,118,6	517,79,6	523,4,6	529,37,6	535,102,6	541,12,6	547,42,6	553,5,6	559,8,6	565,2,6	571,9,6	577,3,6	583,1,6	589,11,6	595,10,6	661,7,6	1096,6,6	1102,0,1	
31,82,6	61,38,6	151,111,6	301,107,6	331,25,6	391,78,6	421,26,6	481,52,6	511,89,6	541,35,6	
91,46,6	121,109,6	181,70,6	211,120,6	241,75,6	271,65,6	361,14,6	451,84,6	
# Incoming
247,(75, 8),12	259,(82, 2),3	262,(120, 2),3	265,(38, 9),3	268,(46, 3),3	271,(75, 1),3	274,(120, 10),3	277,(65, 2),12	289,(65, 11),15	304,(109, 6),3	307,(107, 3),9	316,(107, 1),18	337,(25, 3),27	367,(14, 9),33	400,(111, 10),6	406,(70, 10),6	412,(78, 10),39	457,(84, 11),54	511,(84, 7),6	517,(89, 1),30	547,(26, 10),45	592,(52, 7),69	661,(120, 6),9	670,(89, 6),111	781,(35, 6),315	
1,(121, 82),30	31,(121, 38),30	121,(121, 111),30	271,(121, 107),30	301,(121, 25),30	361,(121, 78),30	391,(121, 26),30	451,(121, 52),30	481,(121, 89),30	511,(121, 35),30	
61,(121, 46),30	91,(121, 109),30	151,(121, 70),30	181,(121, 120),30	211,(121, 75),30	241,(121, 65),30	331,(121, 14),30	421,(121, 84),30	
# Outgoing
1,(121, 82),30	31,(121, 38),30	61,(121, 46),30	91,(121, 109),30	121,(121, 111),30	151,(121, 70),30	181,(121, 120),30	211,(121, 75),30	241,(121, 65),30	271,(121, 107),30	301,(121, 25),30	331,(121, 14),30	361,(121, 78),30	391,(121, 26),30	421,(121, 84),30	451,(121, 52),30	481,(121, 89),30	511,(121, 35),30	
259,(82, 2),3	265,(38, 9),3	307,(107, 3),9	316,(107, 1),18	337,(25, 3),27	400,(111, 10),6	412,(78, 10),39	517,(89, 1),30	547,(26, 10),45	592,(52, 7),69	670,(89, 6),111	781,(35, 6),315	
247,(75, 8),12	262,(120, 2),3	268,(46, 3),3	271,(75, 1),3	274,(120, 10),3	277,(65, 2),12	289,(65, 11),15	304,(109, 6),3	367,(14, 9),33	406,(70, 10),6	457,(84, 11),54	511,(84, 7),6	661,(120, 6),9	
