28530
# CPU
37,4,6	73,8,6	109,12,6	2257,18,6	2273,80,6	6293,54,6	7477,30,6	10097,20,6	10137,23,6	10157,25,6	10163,31,6	10173,38,6	10421,60,6	10605,75,6	11009,110,6	15937,90,6	16113,21,6	16141,29,6	16193,40,6	16199,44,6	16261,48,6	16353,69,6	16413,82,6	16553,84,6	16589,96,6	16825,106,6	16833,112,6	16929,120,6	16941,19,6	16947,22,6	16961,24,6	16969,26,6	17053,28,6	17069,33,6	17089,34,6	17469,36,6	17481,42,6	17487,46,6	17497,50,6	17549,52,6	17557,56,6	17625,58,6	17637,62,6	17643,64,6	17649,67,6	17713,71,6	17769,73,6	17781,77,6	17921,86,6	17965,88,6	18089,92,6	18101,94,6	18125,98,6	18133,100,6	18141,102,6	18147,104,6	18153,108,6	18205,114,6	18225,117,6	
25,3,6	61,7,6	97,11,6	3553,16,6	3893,93,6	4353,43,6	4361,47,6	4509,32,6	4517,105,6	5181,39,6	6369,59,6	6557,63,6	6563,65,6	6885,74,6	6949,76,6	7005,78,6	7025,85,6	7129,17,6	7141,95,6	7153,101,6	7485,68,6	7537,99,6	8109,35,6	8121,37,6	8137,41,6	8143,45,6	8161,49,6	8169,51,6	8185,53,6	8397,55,6	8433,57,6	8439,61,6	8449,70,6	8493,81,6	8501,83,6	8507,87,6	8693,89,6	8709,91,6	8761,97,6	8769,103,6	8833,107,6	8839,109,6	8897,111,6	8909,113,6	9129,116,6	10537,72,6	27681,119,6	
13,2,6	49,6,6	85,10,6	3921,15,6	4361,27,6	6993,79,6	7481,115,6	8081,14,6	8445,66,6	9153,118,6	28529,121,1	
0,0,1	1,9,6	7,5,6	13,1,6	6397,13,6	
# Incoming
25,(0, 4),12	61,(0, 8),12	73,(3, 23),4	77,(3, 25),8	97,(0, 12),12	129,(9, 18),4	133,(9, 19),48	181,(9, 20),4	185,(9, 21),28	213,(9, 24),28	241,(9, 26),8	249,(9, 33),36	285,(2, 21),4	289,(9, 38),4	293,(9, 40),4	297,(2, 31),4	301,(9, 42),8	309,(2, 18),8	317,(2, 22),20	337,(2, 24),12	349,(2, 25),8	357,(2, 29),40	397,(2, 33),12	409,(2, 42),4	413,(9, 46),68	481,(2, 52),4	485,(2, 56),4	489,(2, 71),8	497,(2, 94),4	501,(9, 48),108	609,(2, 100),4	613,(9, 50),240	853,(2, 64),28	881,(2, 77),20	901,(2, 82),8	909,(9, 54),48	957,(9, 56),24	981,(2, 114),4	985,(3, 26),12	997,(9, 58),24	1021,(2, 30),132	1153,(2, 104),24	1177,(9, 62),4	1181,(2, 84),28	1209,(9, 64),100	1309,(3, 28),4	1313,(9, 69),4	1317,(2, 34),224	1541,(2, 44),64	1605,(2, 96),56	1661,(2, 98),380	2041,(2, 106),32	2073,(2, 108),32	2105,(3, 40),4	2109,(3, 44),12	2121,(9, 73),4	2125,(9, 77),68	2193,(3, 18),64	2257,(9, 80),16	2273,(3, 54),4	2277,(3, 56),4	2281,(3, 60),4	2285,(9, 82),36	2321,(3, 19),68	2389,(3, 71),4	2393,(3, 73),4	2397,(9, 86),28	2425,(3, 75),4	2429,(3, 92),8	2437,(9, 90),12	2449,(3, 82),20	2469,(9, 92),140	2609,(9, 94),160	2769,(9, 96),52	2821,(3, 106),4	2825,(9, 98),388	3213,(3, 108),4	3217,(6, 24),4	3221,(9, 102),144	3365,(9, 104),36	3401,(3, 88),24	3425,(9, 106),4	3429,(6, 19),12	3441,(6, 22),12	3453,(6, 30),4	3457,(9, 108),4	3461,(9, 112),92	3553,(6, 38),8	3561,(9, 114),8	3569,(9, 117),20	3589,(6, 23),16	3605,(6, 44),4	3609,(6, 54),4	3613,(6, 62),4	3617,(9, 120),16	3633,(3, 22),60	3693,(3, 42),220	3913,(6, 56),16	3929,(5, 21),4	3933,(5, 22),4	3937,(5, 23),272	4209,(5, 24),8	4217,(5, 26),4	4221,(3, 46),56	4277,(3, 58),48	4325,(6, 25),24	4349,(6, 60),8	4357,(6, 67),4	4361,(5, 28),4	4365,(5, 31),8	4373,(3, 62),56	4429,(3, 69),64	4493,(6, 92),4	4497,(6, 94),4	4501,(6, 104),4	4505,(6, 114),4	4509,(5, 33),4	4513,(5, 34),4	4517,(6, 117),8	4525,(7, 24),4	4529,(5, 36),608	5137,(7, 30),4	5141,(5, 38),8	5149,(6, 34),24	5173,(7, 42),8	5181,(5, 40),4	5185,(7, 46),4	5189,(5, 42),696	5885,(5, 44),28	5913,(5, 46),228	6141,(5, 48),24	6165,(5, 50),96	6261,(7, 23),16	6277,(5, 54),16	6293,(7, 67),4	6297,(5, 56),64	6361,(7, 44),8	6369,(5, 60),160	6529,(5, 62),12	6541,(3, 77),96	6637,(3, 84),92	6729,(3, 90),48	6777,(3, 117),44	6821,(6, 26),44	6865,(7, 56),12	6877,(7, 60),8	6885,(5, 75),8	6893,(6, 42),24	6917,(6, 71),24	6941,(7, 69),4	6945,(7, 73),4	6949,(5, 77),4	6953,(6, 52),36	6989,(7, 92),4	6993,(5, 82),20	7013,(7, 71),8	7021,(7, 100),4	7025,(5, 88),4	7029,(7, 75),8	7037,(7, 102),4	7041,(7, 104),4	7045,(7, 117),4	7049,(5, 90),52	7101,(5, 94),36	7137,(7, 120),16	7153,(5, 102),8	7161,(3, 112),112	7273,(5, 108),4	7277,(10, 20),4	7281,(5, 110),4	7285,(6, 31),64	7349,(6, 120),24	7373,(10, 22),8	7381,(10, 28),4	7385,(5, 114),20	7405,(6, 46),68	7473,(10, 30),4	7477,(10, 42),4	7481,(5, 117),4	7485,(2, 62),2600	10085,(1, 20),12	10097,(1, 22),4	10101,(1, 23),36	10137,(1, 24),16	10153,(1, 25),4	10157,(1, 31),4	10161,(1, 36),4	10165,(1, 38),8	10173,(1, 42),8	10181,(1, 44),4	10185,(1, 46),124	10309,(1, 48),92	10401,(1, 56),4	10405,(1, 60),16	10421,(1, 62),36	10457,(1, 64),72	10529,(1, 73),60	10589,(1, 75),16	10605,(1, 82),208	10813,(1, 90),40	10853,(1, 92),32	10885,(1, 94),4	10889,(1, 98),8	10897,(1, 102),4	10901,(1, 104),20	10921,(1, 106),4	10925,(1, 108),4	10929,(1, 110),80	11009,(1, 112),4	11013,(1, 114),8	11021,(1, 117),8	11029,(3, 34),2184	13213,(3, 48),1636	14849,(6, 48),64	14913,(6, 69),84	14997,(6, 84),44	15041,(6, 86),136	15177,(6, 98),180	15357,(6, 100),40	15397,(6, 102),64	15461,(6, 108),148	15609,(6, 112),128	15737,(7, 19),88	15825,(7, 26),40	15865,(7, 88),28	15893,(7, 90),44	15937,(7, 98),24	15961,(7, 106),24	15985,(7, 108),20	16005,(7, 114),56	16061,(10, 21),52	16113,(10, 24),16	16129,(10, 29),12	16141,(10, 36),12	16153,(10, 40),40	16193,(10, 44),4	16197,(10, 46),60	16257,(10, 48),4	16261,(10, 50),12	16273,(10, 52),52	16325,(10, 56),4	16329,(10, 58),8	16337,(10, 62),12	16349,(10, 69),4	16353,(10, 71),8	16361,(10, 82),52	16413,(10, 84),140	16553,(10, 88),12	16565,(10, 92),20	16585,(10, 96),4	16589,(10, 100),32	16621,(10, 102),4	16625,(10, 106),200	16825,(10, 108),4	16829,(10, 112),4	16833,(10, 114),4	16837,(10, 117),76	16913,(10, 120),16	16929,(11, 19),12	16941,(11, 22),4	16945,(11, 24),16	16961,(11, 26),8	16969,(11, 28),84	17053,(11, 33),16	17069,(11, 34),20	17089,(11, 36),380	17469,(11, 42),12	17481,(11, 46),4	17485,(11, 50),12	17497,(11, 52),52	17549,(11, 56),8	17557,(11, 58),68	17625,(11, 62),12	17637,(11, 64),4	17641,(11, 67),8	17649,(11, 71),64	17713,(11, 73),56	17769,(11, 77),12	17781,(11, 86),140	17921,(11, 88),44	17965,(11, 92),124	18089,(11, 94),12	18101,(11, 98),24	18125,(11, 100),8	18133,(11, 102),8	18141,(11, 104),4	18145,(11, 108),4	18149,(11, 114),56	18205,(11, 117),20	
13,(0, 3),12	49,(0, 7),12	85,(0, 11),12	97,(4, 32),4	101,(4, 39),4	105,(4, 85),4	109,(9, 17),20	129,(2, 17),100	229,(2, 32),4	233,(2, 37),36	269,(2, 49),16	285,(9, 37),4	289,(2, 87),4	293,(2, 89),4	297,(9, 41),4	301,(2, 95),8	309,(9, 45),104	413,(2, 53),36	449,(2, 72),16	465,(2, 99),4	469,(2, 105),4	473,(2, 109),4	477,(4, 87),4	481,(9, 47),20	501,(2, 63),40	541,(2, 65),68	609,(9, 49),4	613,(2, 76),84	697,(2, 78),24	721,(2, 81),64	785,(2, 93),44	829,(2, 111),16	845,(4, 83),8	853,(9, 51),48	901,(9, 53),8	909,(4, 35),12	921,(4, 41),28	949,(4, 49),16	965,(4, 57),12	977,(4, 101),4	981,(9, 57),16	997,(4, 53),24	1021,(9, 59),64	1085,(9, 61),92	1177,(6, 39),4	1181,(9, 63),28	1209,(2, 97),96	1305,(4, 59),12	1317,(9, 70),804	2121,(4, 47),48	2169,(4, 61),16	2185,(4, 89),8	2193,(9, 78),64	2257,(4, 63),16	2273,(9, 81),12	2285,(4, 65),16	2301,(4, 81),12	2313,(6, 37),8	2321,(9, 83),76	2397,(4, 74),28	2425,(9, 87),8	2433,(9, 89),4	2437,(4, 113),12	2449,(9, 91),20	2469,(2, 83),196	2665,(4, 45),92	2757,(4, 109),20	2777,(4, 111),20	2797,(4, 119),16	2813,(6, 41),8	2821,(9, 97),4	2825,(4, 76),268	3093,(6, 35),28	3121,(6, 43),20	3141,(6, 47),4	3145,(6, 49),44	3189,(6, 59),8	3197,(6, 63),4	3201,(6, 68),8	3209,(6, 91),4	3213,(9, 99),8	3221,(4, 78),144	3365,(6, 74),16	3381,(6, 89),8	3389,(6, 116),8	3397,(8, 61),4	3401,(9, 105),24	3425,(8, 81),4	3429,(9, 107),28	3457,(6, 70),56	3513,(6, 76),32	3545,(8, 16),8	3553,(9, 113),8	3561,(6, 87),28	3589,(8, 113),4	3593,(9, 119),24	3617,(6, 78),32	3649,(6, 81),216	3865,(6, 93),28	3893,(6, 95),20	3913,(8, 83),8	3921,(5, 17),8	3929,(6, 103),28	3957,(6, 105),40	3997,(6, 107),20	4017,(6, 119),36	4053,(8, 35),84	4137,(8, 39),60	4197,(8, 47),40	4237,(8, 70),16	4253,(8, 85),8	4261,(8, 87),20	4281,(8, 91),20	4301,(8, 95),16	4317,(8, 99),28	4345,(12, 43),8	4353,(12, 47),8	4361,(10, 17),12	4373,(5, 32),136	4509,(10, 39),4	4513,(10, 105),4	4517,(5, 35),12	4529,(4, 51),520	5049,(8, 103),52	5101,(10, 53),24	5125,(10, 55),12	5137,(5, 37),4	5141,(10, 61),8	5149,(5, 39),32	5181,(12, 49),4	5185,(5, 41),4	5189,(8, 107),56	5245,(10, 37),124	5369,(10, 41),176	5545,(10, 49),72	5617,(10, 57),60	5677,(10, 59),12	5689,(10, 68),88	5777,(10, 72),24	5801,(10, 74),16	5817,(10, 76),40	5857,(10, 78),116	5973,(10, 81),36	6009,(10, 87),16	6025,(10, 95),92	6117,(10, 97),56	6173,(10, 99),68	6241,(10, 101),12	6253,(10, 109),8	6261,(5, 53),16	6293,(5, 55),4	6297,(10, 103),44	6361,(5, 59),8	6369,(10, 113),64	6433,(10, 119),48	6481,(12, 37),44	6525,(12, 53),16	6541,(5, 63),16	6557,(5, 65),4	6561,(12, 45),28	6589,(12, 70),4	6593,(12, 72),8	6601,(12, 74),4	6605,(12, 83),12	6617,(12, 85),4	6621,(5, 70),232	6853,(5, 72),12	6865,(5, 74),20	6885,(12, 89),8	6893,(5, 76),56	6949,(12, 78),56	7005,(12, 101),4	7009,(12, 119),4	7013,(5, 85),12	7029,(5, 89),20	7049,(12, 17),80	7129,(12, 107),8	7137,(5, 95),4	7141,(5, 101),12	7153,(12, 111),8	7161,(5, 103),108	7269,(5, 107),4	7277,(5, 109),4	7285,(5, 113),100	7385,(12, 68),100	7485,(12, 99),52	7537,(12, 103),12	8081,(1, 35),28	8109,(1, 37),12	8121,(1, 41),16	8137,(1, 45),4	8141,(1, 49),20	8161,(1, 51),8	8169,(1, 53),16	8185,(1, 55),212	8397,(1, 57),36	8433,(1, 61),4	8445,(1, 70),4	8449,(1, 72),28	8477,(1, 81),16	8493,(1, 83),8	8501,(1, 87),4	8505,(1, 89),188	8693,(1, 91),16	8709,(1, 97),52	8761,(1, 103),8	8769,(1, 107),64	8833,(1, 109),4	8837,(1, 111),60	8897,(1, 113),12	8909,(1, 116),220	9153,(1, 119),8	9161,(4, 72),1376	10537,(8, 119),17144	
1,(0, 2),12	37,(0, 6),12	67,(3, 15),4	73,(0, 10),12	85,(3, 14),172	257,(3, 115),16	273,(4, 27),4	277,(4, 66),84	361,(4, 79),60	421,(4, 118),32	453,(7, 15),192	645,(7, 66),56	701,(7, 115),8	709,(8, 14),12	721,(11, 27),60	781,(11, 79),24	805,(11, 115),16	821,(12, 118),4	997,(11, 66),292	1309,(9, 66),4	1317,(12, 27),196	1513,(12, 79),324	2313,(18, 121),16	2329,(80, 121),16	3559,(16, 121),16	3589,(9, 118),4	3633,(5, 14),180	3813,(5, 15),108	3921,(93, 121),16	4221,(5, 27),140	4493,(43, 121),16	4509,(47, 121),16	4529,(32, 121),16	4545,(105, 121),16	5189,(39, 121),16	6375,(59, 121),16	6397,(54, 121),16	6561,(5, 66),60	6821,(63, 121),16	6837,(65, 121),16	6891,(74, 121),16	6953,(5, 79),40	6993,(76, 121),16	7049,(78, 121),16	7065,(85, 121),16	7273,(17, 121),16	7289,(95, 121),16	7305,(101, 121),16	7405,(5, 115),76	7485,(5, 118),100	7585,(1, 14),496	8081,(30, 121),16	8097,(68, 121),16	8113,(99, 121),16	8129,(35, 121),16	8145,(37, 121),16	8161,(41, 121),16	8177,(45, 121),16	8193,(49, 121),16	8209,(51, 121),16	8225,(53, 121),16	8403,(55, 121),16	8437,(1, 66),8	8445,(57, 121),16	8461,(61, 121),16	8477,(70, 121),16	8499,(81, 121),16	8515,(83, 121),16	8531,(87, 121),16	8699,(89, 121),16	8715,(91, 121),16	8767,(97, 121),16	8783,(103, 121),16	8839,(107, 121),16	8855,(109, 121),16	8903,(111, 121),16	8919,(113, 121),16	9129,(1, 118),24	9161,(13, 121),16	9177,(116, 121),16	10543,(72, 121),16	27681,(20, 121),16	27697,(23, 121),16	27713,(25, 121),16	27729,(31, 121),16	27745,(38, 121),16	27761,(60, 121),16	27777,(75, 121),16	27793,(110, 121),16	27809,(90, 121),16	27825,(21, 121),16	27841,(29, 121),16	27857,(40, 121),16	27873,(44, 121),16	27889,(48, 121),16	27905,(69, 121),16	27921,(82, 121),16	27937,(84, 121),16	27953,(96, 121),16	27969,(106, 121),16	27985,(112, 121),16	28001,(120, 121),16	28017,(19, 121),16	28033,(22, 121),16	28049,(24, 121),16	28065,(26, 121),16	28081,(28, 121),16	28097,(33, 121),16	28113,(34, 121),16	28129,(36, 121),16	28145,(42, 121),16	28161,(46, 121),16	28177,(50, 121),16	28193,(52, 121),16	28209,(56, 121),16	28225,(58, 121),16	28241,(62, 121),16	28257,(64, 121),16	28273,(67, 121),16	28289,(71, 121),16	28305,(73, 121),16	28321,(77, 121),16	28337,(86, 121),16	28353,(88, 121),16	28369,(92, 121),16	28385,(94, 121),16	28401,(98, 121),16	28417,(100, 121),16	28433,(102, 121),16	28449,(104, 121),16	28465,(108, 121),16	28481,(114, 121),16	28497,(117, 121),16	28513,(119, 121),16	
31,(3, 13),36	67,(4, 13),24	273,(7, 13),60	333,(11, 13),8	909,(10, 13),20	5245,(12, 13),1152	
# Outgoing
67,(4, 13),24	97,(4, 32),4	101,(4, 39),4	105,(4, 85),4	273,(4, 27),4	277,(4, 66),84	361,(4, 79),60	421,(4, 118),32	477,(4, 87),4	709,(8, 14),12	821,(12, 118),4	845,(4, 83),8	909,(4, 35),12	921,(4, 41),28	949,(4, 49),16	965,(4, 57),12	977,(4, 101),4	997,(4, 53),24	1305,(4, 59),12	1317,(12, 27),196	1513,(12, 79),324	2121,(4, 47),48	2169,(4, 61),16	2185,(4, 89),8	2257,(4, 63),16	2285,(4, 65),16	2301,(4, 81),12	2313,(18, 121),16	2329,(80, 121),16	2397,(4, 74),28	2437,(4, 113),12	2665,(4, 45),92	2757,(4, 109),20	2777,(4, 111),20	2797,(4, 119),16	2825,(4, 76),268	3221,(4, 78),144	3397,(8, 61),4	3425,(8, 81),4	3545,(8, 16),8	3589,(8, 113),4	3913,(8, 83),8	4053,(8, 35),84	4137,(8, 39),60	4197,(8, 47),40	4237,(8, 70),16	4253,(8, 85),8	4261,(8, 87),20	4281,(8, 91),20	4301,(8, 95),16	4317,(8, 99),28	4345,(12, 43),8	4353,(12, 47),8	4529,(4, 51),520	5049,(8, 103),52	5181,(12, 49),4	5189,(8, 107),56	5245,(12, 13),1152	6397,(54, 121),16	6481,(12, 37),44	6525,(12, 53),16	6561,(12, 45),28	6589,(12, 70),4	6593,(12, 72),8	6601,(12, 74),4	6605,(12, 83),12	6617,(12, 85),4	6885,(12, 89),8	6949,(12, 78),56	7005,(12, 101),4	7009,(12, 119),4	7049,(12, 17),80	7129,(12, 107),8	7153,(12, 111),8	7385,(12, 68),100	7485,(12, 99),52	7537,(12, 103),12	8081,(30, 121),16	9161,(4, 72),1376	10537,(8, 119),17144	27681,(20, 121),16	27697,(23, 121),16	27713,(25, 121),16	27729,(31, 121),16	27745,(38, 121),16	27761,(60, 121),16	27777,(75, 121),16	27793,(110, 121),16	27809,(90, 121),16	27825,(21, 121),16	27841,(29, 121),16	27857,(40, 121),16	27873,(44, 121),16	27889,(48, 121),16	27905,(69, 121),16	27921,(82, 121),16	27937,(84, 121),16	27953,(96, 121),16	27969,(106, 121),16	27985,(112, 121),16	28001,(120, 121),16	28017,(19, 121),16	28033,(22, 121),16	28049,(24, 121),16	28065,(26, 121),16	28081,(28, 121),16	28097,(33, 121),16	28113,(34, 121),16	28129,(36, 121),16	28145,(42, 121),16	28161,(46, 121),16	28177,(50, 121),16	28193,(52, 121),16	28209,(56, 121),16	28225,(58, 121),16	28241,(62, 121),16	28257,(64, 121),16	28273,(67, 121),16	28289,(71, 121),16	28305,(73, 121),16	28321,(77, 121),16	28337,(86, 121),16	28353,(88, 121),16	28369,(92, 121),16	28385,(94, 121),16	28401,(98, 121),16	28417,(100, 121),16	28433,(102, 121),16	28449,(104, 121),16	28465,(108, 121),16	28481,(114, 121),16	28497,(117, 121),16	
31,(3, 13),36	67,(3, 15),4	73,(3, 23),4	77,(3, 25),8	85,(3, 14),172	257,(3, 115),16	273,(7, 13),60	333,(11, 13),8	453,(7, 15),192	645,(7, 66),56	701,(7, 115),8	721,(11, 27),60	781,(11, 79),24	805,(11, 115),16	985,(3, 26),12	997,(11, 66),292	1309,(3, 28),4	2105,(3, 40),4	2109,(3, 44),12	2193,(3, 18),64	2273,(3, 54),4	2277,(3, 56),4	2281,(3, 60),4	2321,(3, 19),68	2389,(3, 71),4	2393,(3, 73),4	2425,(3, 75),4	2429,(3, 92),8	2449,(3, 82),20	2821,(3, 106),4	3213,(3, 108),4	3401,(3, 88),24	3559,(16, 121),16	3633,(3, 22),60	3693,(3, 42),220	3921,(93, 121),16	4221,(3, 46),56	4277,(3, 58),48	4373,(3, 62),56	4429,(3, 69),64	4493,(43, 121),16	4509,(47, 121),16	4525,(7, 24),4	4529,(32, 121),16	4545,(105, 121),16	5137,(7, 30),4	5173,(7, 42),8	5185,(7, 46),4	5189,(39, 121),16	6261,(7, 23),16	6293,(7, 67),4	6361,(7, 44),8	6375,(59, 121),16	6541,(3, 77),96	6637,(3, 84),92	6729,(3, 90),48	6777,(3, 117),44	6821,(63, 121),16	6837,(65, 121),16	6865,(7, 56),12	6877,(7, 60),8	6891,(74, 121),16	6941,(7, 69),4	6945,(7, 73),4	6989,(7, 92),4	6993,(76, 121),16	7013,(7, 71),8	7021,(7, 100),4	7029,(7, 75),8	7037,(7, 102),4	7041,(7, 104),4	7045,(7, 117),4	7049,(78, 121),16	7065,(85, 121),16	7137,(7, 120),16	7161,(3, 112),112	7273,(17, 121),16	7289,(95, 121),16	7305,(101, 121),16	8097,(68, 121),16	8113,(99, 121),16	8129,(35, 121),16	8145,(37, 121),16	8161,(41, 121),16	8177,(45, 121),16	8193,(49, 121),16	8209,(51, 121),16	8225,(53, 121),16	8403,(55, 121),16	8445,(57, 121),16	8461,(61, 121),16	8477,(70, 121),16	8499,(81, 121),16	8515,(83, 121),16	8531,(87, 121),16	8699,(89, 121),16	8715,(91, 121),16	8767,(97, 121),16	8783,(103, 121),16	8839,(107, 121),16	8855,(109, 121),16	8903,(111, 121),16	8919,(113, 121),16	9177,(116, 121),16	10543,(72, 121),16	11029,(3, 34),2184	13213,(3, 48),1636	15737,(7, 19),88	15825,(7, 26),40	15865,(7, 88),28	15893,(7, 90),44	15937,(7, 98),24	15961,(7, 106),24	15985,(7, 108),20	16005,(7, 114),56	16929,(11, 19),12	16941,(11, 22),4	16945,(11, 24),16	16961,(11, 26),8	16969,(11, 28),84	17053,(11, 33),16	17069,(11, 34),20	17089,(11, 36),380	17469,(11, 42),12	17481,(11, 46),4	17485,(11, 50),12	17497,(11, 52),52	17549,(11, 56),8	17557,(11, 58),68	17625,(11, 62),12	17637,(11, 64),4	17641,(11, 67),8	17649,(11, 71),64	17713,(11, 73),56	17769,(11, 77),12	17781,(11, 86),140	17921,(11, 88),44	17965,(11, 92),124	18089,(11, 94),12	18101,(11, 98),24	18125,(11, 100),8	18133,(11, 102),8	18141,(11, 104),4	18145,(11, 108),4	18149,(11, 114),56	18205,(11, 117),20	28513,(119, 121),16	
129,(2, 17),100	229,(2, 32),4	233,(2, 37),36	269,(2, 49),16	285,(2, 21),4	289,(2, 87),4	293,(2, 89),4	297,(2, 31),4	301,(2, 95),8	309,(2, 18),8	317,(2, 22),20	337,(2, 24),12	349,(2, 25),8	357,(2, 29),40	397,(2, 33),12	409,(2, 42),4	413,(2, 53),36	449,(2, 72),16	465,(2, 99),4	469,(2, 105),4	473,(2, 109),4	481,(2, 52),4	485,(2, 56),4	489,(2, 71),8	497,(2, 94),4	501,(2, 63),40	541,(2, 65),68	609,(2, 100),4	613,(2, 76),84	697,(2, 78),24	721,(2, 81),64	785,(2, 93),44	829,(2, 111),16	853,(2, 64),28	881,(2, 77),20	901,(2, 82),8	909,(10, 13),20	981,(2, 114),4	1021,(2, 30),132	1153,(2, 104),24	1177,(6, 39),4	1181,(2, 84),28	1209,(2, 97),96	1317,(2, 34),224	1541,(2, 44),64	1605,(2, 96),56	1661,(2, 98),380	2041,(2, 106),32	2073,(2, 108),32	2313,(6, 37),8	2469,(2, 83),196	2813,(6, 41),8	3093,(6, 35),28	3121,(6, 43),20	3141,(6, 47),4	3145,(6, 49),44	3189,(6, 59),8	3197,(6, 63),4	3201,(6, 68),8	3209,(6, 91),4	3217,(6, 24),4	3365,(6, 74),16	3381,(6, 89),8	3389,(6, 116),8	3429,(6, 19),12	3441,(6, 22),12	3453,(6, 30),4	3457,(6, 70),56	3513,(6, 76),32	3553,(6, 38),8	3561,(6, 87),28	3589,(6, 23),16	3605,(6, 44),4	3609,(6, 54),4	3613,(6, 62),4	3617,(6, 78),32	3649,(6, 81),216	3865,(6, 93),28	3893,(6, 95),20	3913,(6, 56),16	3929,(6, 103),28	3957,(6, 105),40	3997,(6, 107),20	4017,(6, 119),36	4325,(6, 25),24	4349,(6, 60),8	4357,(6, 67),4	4361,(10, 17),12	4493,(6, 92),4	4497,(6, 94),4	4501,(6, 104),4	4505,(6, 114),4	4509,(10, 39),4	4513,(10, 105),4	4517,(6, 117),8	5101,(10, 53),24	5125,(10, 55),12	5141,(10, 61),8	5149,(6, 34),24	5245,(10, 37),124	5369,(10, 41),176	5545,(10, 49),72	5617,(10, 57),60	5677,(10, 59),12	5689,(10, 68),88	5777,(10, 72),24	5801,(10, 74),16	5817,(10, 76),40	5857,(10, 78),116	5973,(10, 81),36	6009,(10, 87),16	6025,(10, 95),92	6117,(10, 97),56	6173,(10, 99),68	6241,(10, 101),12	6253,(10, 109),8	6297,(10, 103),44	6369,(10, 113),64	6433,(10, 119),48	6821,(6, 26),44	6893,(6, 42),24	6917,(6, 71),24	6953,(6, 52),36	7277,(10, 20),4	7285,(6, 31),64	7349,(6, 120),24	7373,(10, 22),8	7381,(10, 28),4	7405,(6, 46),68	7473,(10, 30),4	7477,(10, 42),4	7485,(2, 62),2600	14849,(6, 48),64	14913,(6, 69),84	14997,(6, 84),44	15041,(6, 86),136	15177,(6, 98),180	15357,(6, 100),40	15397,(6, 102),64	15461,(6, 108),148	15609,(6, 112),128	16061,(10, 21),52	16113,(10, 24),16	16129,(10, 29),12	16141,(10, 36),12	16153,(10, 40),40	16193,(10, 44),4	16197,(10, 46),60	16257,(10, 48),4	16261,(10, 50),12	16273,(10, 52),52	16325,(10, 56),4	16329,(10, 58),8	16337,(10, 62),12	16349,(10, 69),4	16353,(10, 71),8	16361,(10, 82),52	16413,(10, 84),140	16553,(10, 88),12	16565,(10, 92),20	16585,(10, 96),4	16589,(10, 100),32	16621,(10, 102),4	16625,(10, 106),200	16825,(10, 108),4	16829,(10, 112),4	16833,(10, 114),4	16837,(10, 117),76	16913,(10, 120),16	
1,(0, 2),12	13,(0, 3),12	25,(0, 4),12	37,(0, 6),12	49,(0, 7),12	61,(0, 8),12	73,(0, 10),12	85,(0, 11),12	97,(0, 12),12	109,(9, 17),20	129,(9, 18),4	133,(9, 19),48	181,(9, 20),4	185,(9, 21),28	213,(9, 24),28	241,(9, 26),8	249,(9, 33),36	285,(9, 37),4	289,(9, 38),4	293,(9, 40),4	297,(9, 41),4	301,(9, 42),8	309,(9, 45),104	413,(9, 46),68	481,(9, 47),20	501,(9, 48),108	609,(9, 49),4	613,(9, 50),240	853,(9, 51),48	901,(9, 53),8	909,(9, 54),48	957,(9, 56),24	981,(9, 57),16	997,(9, 58),24	1021,(9, 59),64	1085,(9, 61),92	1177,(9, 62),4	1181,(9, 63),28	1209,(9, 64),100	1309,(9, 66),4	1313,(9, 69),4	1317,(9, 70),804	2121,(9, 73),4	2125,(9, 77),68	2193,(9, 78),64	2257,(9, 80),16	2273,(9, 81),12	2285,(9, 82),36	2321,(9, 83),76	2397,(9, 86),28	2425,(9, 87),8	2433,(9, 89),4	2437,(9, 90),12	2449,(9, 91),20	2469,(9, 92),140	2609,(9, 94),160	2769,(9, 96),52	2821,(9, 97),4	2825,(9, 98),388	3213,(9, 99),8	3221,(9, 102),144	3365,(9, 104),36	3401,(9, 105),24	3425,(9, 106),4	3429,(9, 107),28	3457,(9, 108),4	3461,(9, 112),92	3553,(9, 113),8	3561,(9, 114),8	3569,(9, 117),20	3589,(9, 118),4	3593,(9, 119),24	3617,(9, 120),16	3633,(5, 14),180	3813,(5, 15),108	3921,(5, 17),8	3929,(5, 21),4	3933,(5, 22),4	3937,(5, 23),272	4209,(5, 24),8	4217,(5, 26),4	4221,(5, 27),140	4361,(5, 28),4	4365,(5, 31),8	4373,(5, 32),136	4509,(5, 33),4	4513,(5, 34),4	4517,(5, 35),12	4529,(5, 36),608	5137,(5, 37),4	5141,(5, 38),8	5149,(5, 39),32	5181,(5, 40),4	5185,(5, 41),4	5189,(5, 42),696	5885,(5, 44),28	5913,(5, 46),228	6141,(5, 48),24	6165,(5, 50),96	6261,(5, 53),16	6277,(5, 54),16	6293,(5, 55),4	6297,(5, 56),64	6361,(5, 59),8	6369,(5, 60),160	6529,(5, 62),12	6541,(5, 63),16	6557,(5, 65),4	6561,(5, 66),60	6621,(5, 70),232	6853,(5, 72),12	6865,(5, 74),20	6885,(5, 75),8	6893,(5, 76),56	6949,(5, 77),4	6953,(5, 79),40	6993,(5, 82),20	7013,(5, 85),12	7025,(5, 88),4	7029,(5, 89),20	7049,(5, 90),52	7101,(5, 94),36	7137,(5, 95),4	7141,(5, 101),12	7153,(5, 102),8	7161,(5, 103),108	7269,(5, 107),4	7273,(5, 108),4	7277,(5, 109),4	7281,(5, 110),4	7285,(5, 113),100	7385,(5, 114),20	7405,(5, 115),76	7481,(5, 117),4	7485,(5, 118),100	7585,(1, 14),496	8081,(1, 35),28	8109,(1, 37),12	8121,(1, 41),16	8137,(1, 45),4	8141,(1, 49),20	8161,(1, 51),8	8169,(1, 53),16	8185,(1, 55),212	8397,(1, 57),36	8433,(1, 61),4	8437,(1, 66),8	8445,(1, 70),4	8449,(1, 72),28	8477,(1, 81),16	8493,(1, 83),8	8501,(1, 87),4	8505,(1, 89),188	8693,(1, 91),16	8709,(1, 97),52	8761,(1, 103),8	8769,(1, 107),64	8833,(1, 109),4	8837,(1, 111),60	8897,(1, 113),12	8909,(1, 116),220	9129,(1, 118),24	9153,(1, 119),8	9161,(13, 121),16	10085,(1, 20),12	10097,(1, 22),4	10101,(1, 23),36	10137,(1, 24),16	10153,(1, 25),4	10157,(1, 31),4	10161,(1, 36),4	10165,(1, 38),8	10173,(1, 42),8	10181,(1, 44),4	10185,(1, 46),124	10309,(1, 48),92	10401,(1, 56),4	10405,(1, 60),16	10421,(1, 62),36	10457,(1, 64),72	10529,(1, 73),60	10589,(1, 75),16	10605,(1, 82),208	10813,(1, 90),40	10853,(1, 92),32	10885,(1, 94),4	10889,(1, 98),8	10897,(1, 102),4	10901,(1, 104),20	10921,(1, 106),4	10925,(1, 108),4	10929,(1, 110),80	11009,(1, 112),4	11013,(1, 114),8	11021,(1, 117),8	
