1061
# CPU
0,21,1	1,4,176	177,12,176	353,11,176	529,10,176	705,7,176	881,1,176	
4,5,176	180,8,176	356,14,176	532,6,176	708,13,176	884,2,176	1060,0,1	
10,3,176	186,20,176	362,15,176	538,9,176	
7,18,176	183,17,176	359,16,176	535,19,176	
# Incoming
180,(5, 1),1	183,(18, 1),1	186,(3, 1),2	356,(8, 1),7	363,(17, 1),7	370,(20, 1),6	532,(14, 1),15	547,(15, 1),19	708,(6, 1),34	742,(19, 1),38	780,(9, 1),46	
1,(21, 5),3	10,(21, 8),3	19,(21, 14),3	28,(21, 6),3	37,(21, 13),3	177,(4, 2),1	353,(12, 2),3	362,(20, 2),8	535,(16, 2),15	1057,(1, 0),3	
7,(21, 3),3	16,(21, 20),3	25,(21, 15),3	34,(21, 9),3	
4,(21, 18),3	13,(21, 17),3	22,(21, 16),3	31,(21, 19),3	
# Outgoing
1,(21, 5),3	4,(21, 18),3	7,(21, 3),3	10,(21, 8),3	13,(21, 17),3	16,(21, 20),3	19,(21, 14),3	22,(21, 16),3	25,(21, 15),3	28,(21, 6),3	31,(21, 19),3	34,(21, 9),3	37,(21, 13),3	177,(4, 2),1	353,(12, 2),3	1057,(1, 0),3	
180,(5, 1),1	356,(8, 1),7	532,(14, 1),15	708,(6, 1),34	
186,(3, 1),2	362,(20, 2),8	370,(20, 1),6	547,(15, 1),19	780,(9, 1),46	
183,(18, 1),1	363,(17, 1),7	535,(16, 2),15	742,(19, 1),38	
