8008
# CPU
6,2,80	86,4,80	166,6,80	246,8,80	326,10,80	406,12,80	486,14,80	566,16,80	646,18,80	726,20,80	806,129,80	886,193,80	966,25,80	1046,177,80	1126,45,80	1206,33,80	1286,143,80	1366,149,80	1446,22,80	1526,173,80	1606,37,80	1686,39,80	1766,161,80	1846,93,80	1926,95,80	2006,105,80	2086,31,80	2166,49,80	2246,181,80	2326,139,80	2406,79,80	2486,125,80	2566,47,80	2646,71,80	2726,111,80	2806,135,80	2886,69,80	2966,167,80	3046,189,80	3126,123,80	3206,119,80	3286,73,80	3366,83,80	3446,23,80	3526,65,80	3606,163,80	3686,179,80	3766,87,80	3846,131,80	3926,137,80	4006,191,80	4086,55,80	4166,117,80	4246,133,80	4326,141,80	4406,145,80	4486,151,80	4566,157,80	4646,159,80	4726,27,80	4806,29,80	4886,67,80	4966,81,80	5046,91,80	5126,97,80	5206,99,80	5286,103,80	5366,153,80	5446,165,80	5526,169,80	5606,171,80	5686,199,80	5766,63,80	5846,77,80	5926,89,80	6006,101,80	6086,107,80	6166,121,80	6246,127,80	6326,175,80	6406,195,80	6486,197,80	6566,35,80	6646,53,80	6726,57,80	6806,59,80	6886,75,80	6966,109,80	7046,113,80	7126,155,80	7206,185,80	7286,41,80	7366,43,80	7446,51,80	7526,61,80	7606,85,80	7686,115,80	7766,147,80	7846,183,80	7926,187,80	
0,0,1	1,3,80	81,11,80	161,1,80	241,9,80	321,17,80	401,15,80	481,7,80	561,13,80	641,5,80	721,19,80	801,70,80	881,138,80	961,156,80	1041,188,80	1121,66,80	1201,146,80	1281,82,80	1361,140,80	1441,120,80	1521,52,80	1601,72,80	1681,186,80	1761,48,80	1841,168,80	1921,54,80	2001,200,80	2081,116,80	2161,134,80	2241,42,80	2321,86,80	2401,58,80	2481,160,80	2561,164,80	2641,28,80	2721,152,80	2801,68,80	2881,24,80	2961,114,80	3041,162,80	3121,32,80	3201,34,80	3281,90,80	3361,128,80	3441,40,80	3521,60,80	3601,76,80	3681,96,80	3761,104,80	3841,118,80	3921,124,80	4001,130,80	4081,176,80	4161,30,80	4241,38,80	4321,44,80	4401,46,80	4481,84,80	4561,170,80	4641,174,80	4721,192,80	4801,36,80	4881,78,80	4961,80,80	5041,88,80	5121,94,80	5201,102,80	5281,150,80	5361,154,80	5441,182,80	5521,62,80	5601,92,80	5681,100,80	5761,106,80	5841,112,80	5921,132,80	6001,142,80	6081,144,80	6161,148,80	6241,158,80	6321,166,80	6401,178,80	6481,184,80	6561,190,80	6641,198,80	6721,21,80	6801,26,80	6881,50,80	6961,56,80	7041,64,80	7121,74,80	7201,98,80	7281,108,80	7361,110,80	7441,122,80	7521,126,80	7601,136,80	7681,172,80	7761,180,80	7841,194,80	7921,196,80	8007,201,1	
# Incoming
1,(0, 2),5	6,(0, 4),5	11,(0, 6),5	16,(0, 8),5	21,(0, 10),5	26,(0, 12),5	31,(0, 14),5	36,(0, 16),5	41,(0, 18),5	46,(0, 20),5	81,(3, 33),3	84,(3, 49),30	114,(3, 61),119	233,(3, 65),3	236,(3, 69),17	253,(3, 83),1	254,(3, 111),8	262,(3, 115),1	263,(3, 123),4	267,(3, 135),1	268,(3, 143),2	270,(3, 159),3	273,(3, 167),13	286,(3, 173),2	288,(3, 179),1	289,(3, 187),1	290,(3, 193),7	297,(11, 33),2	299,(11, 49),4	303,(11, 55),3	306,(11, 75),115	421,(11, 99),6	427,(11, 109),1	428,(11, 161),19	447,(11, 179),2	449,(1, 23),1	450,(1, 27),1	451,(1, 37),5	456,(1, 79),1	457,(1, 91),3	460,(1, 125),1	461,(1, 127),4	465,(1, 133),9	474,(1, 135),1	475,(1, 143),24	499,(1, 149),13	512,(1, 153),9	521,(1, 161),105	626,(1, 163),14	640,(1, 179),1	641,(1, 185),2	643,(1, 187),22	665,(9, 41),3	668,(9, 49),9	677,(9, 55),64	741,(9, 57),13	754,(9, 61),1	755,(9, 111),1	756,(9, 119),1	757,(9, 123),1	758,(9, 133),24	782,(9, 135),2	784,(9, 137),2	786,(9, 153),45	831,(9, 163),4	835,(9, 179),12	847,(9, 187),3	850,(17, 67),5	855,(17, 75),7	862,(17, 77),64	926,(17, 87),2	928,(17, 127),2	930,(17, 131),10	940,(17, 133),1	941,(17, 137),2	943,(17, 165),15	958,(17, 191),4	962,(15, 55),25	987,(15, 59),2	989,(15, 77),6	995,(15, 101),17	1012,(15, 103),4	1016,(15, 107),2	1018,(15, 117),5	1023,(15, 133),42	1065,(15, 141),1	1066,(15, 145),8	1074,(15, 151),19	1093,(15, 157),18	1111,(15, 159),1	1112,(15, 171),52	1164,(15, 195),1	1165,(7, 27),3	1168,(7, 29),3	1171,(7, 41),6	1177,(7, 61),1	1178,(7, 67),1	1179,(7, 81),5	1184,(7, 91),5	1189,(7, 97),44	1233,(7, 99),9	1242,(7, 103),2	1244,(7, 107),10	1254,(7, 153),1	1255,(7, 165),6	1261,(7, 169),1	1262,(7, 171),1	1263,(7, 199),4	1267,(13, 63),14	1281,(13, 77),1	1282,(13, 89),37	1319,(13, 101),2	1321,(13, 107),11	1332,(13, 121),31	1363,(13, 127),1	1364,(13, 175),1	1365,(13, 195),1	1366,(13, 197),1	1367,(5, 35),12	1379,(5, 53),17	1396,(5, 57),14	1410,(5, 59),7	1417,(5, 75),7	1424,(5, 85),3	1427,(5, 109),1	1428,(5, 113),16	1444,(5, 147),4	1448,(5, 155),5	1453,(5, 185),1	1454,(19, 41),5	1459,(19, 43),2	1461,(19, 51),10	1471,(19, 61),2	1473,(19, 85),11	1484,(19, 115),1	1485,(19, 147),5	1490,(19, 183),1	1491,(19, 187),6	
86,(2, 42),9	95,(2, 48),5	100,(2, 54),1	101,(2, 66),14	115,(2, 72),48	163,(2, 112),3	166,(2, 132),3	169,(2, 134),20	189,(2, 142),6	195,(2, 156),1	196,(2, 178),1	197,(2, 198),22	219,(4, 28),11	230,(4, 32),7	237,(4, 34),1	238,(4, 36),9	247,(4, 44),1	248,(4, 66),2	250,(4, 76),17	267,(4, 80),5	272,(4, 88),6	278,(4, 96),23	301,(4, 102),1	302,(4, 122),2	304,(4, 146),2	306,(4, 168),4	310,(4, 176),47	357,(6, 42),14	371,(6, 60),4	375,(6, 64),14	389,(6, 122),18	407,(6, 146),1	408,(6, 156),1	409,(6, 158),1	410,(6, 166),1	411,(6, 178),1	412,(6, 180),1	413,(6, 186),61	474,(6, 188),6	480,(6, 190),5	485,(8, 32),1	486,(8, 52),1	487,(8, 72),1	488,(8, 74),108	596,(8, 78),7	603,(8, 100),5	608,(8, 116),12	620,(8, 126),36	656,(8, 158),9	665,(8, 160),1	666,(8, 164),27	693,(8, 172),1	694,(10, 30),38	732,(10, 36),18	750,(10, 40),1	751,(10, 56),1	752,(10, 64),9	761,(10, 114),1	762,(10, 130),7	769,(10, 148),1	770,(10, 154),1	771,(10, 162),6	777,(10, 182),25	802,(10, 192),21	823,(12, 38),1	824,(12, 40),111	935,(12, 46),4	939,(12, 50),1	940,(12, 60),1	941,(12, 76),52	993,(12, 84),1	994,(12, 96),5	999,(12, 104),5	1004,(12, 118),3	1007,(12, 124),30	1037,(12, 130),1	1038,(12, 150),4	1042,(12, 176),4	1046,(12, 190),2	1048,(14, 26),936	1984,(14, 30),8	1992,(14, 38),6	1998,(14, 44),8	2006,(14, 46),4	2010,(14, 84),12	2022,(14, 100),1	2023,(14, 112),6	2029,(14, 122),11	2040,(14, 170),350	2390,(14, 174),1	2391,(14, 184),41	2432,(14, 192),258	2690,(16, 26),2	2692,(16, 36),5	2697,(16, 62),7	2704,(16, 78),1	2705,(16, 80),6	2711,(16, 88),4	2715,(16, 94),1	2716,(16, 102),12	2728,(16, 122),15	2743,(16, 132),27	2770,(16, 150),11	2781,(16, 154),15	2796,(16, 180),2	2798,(16, 182),3	2801,(16, 184),10	2811,(18, 62),1	2812,(18, 92),5	2817,(18, 100),4	2821,(18, 106),1	2822,(18, 112),2	2824,(18, 122),5	2829,(18, 132),8	2837,(18, 142),1	2838,(18, 144),1	2839,(18, 148),4	2843,(18, 158),1	2844,(18, 166),36	2880,(18, 178),63	2943,(18, 184),4	2947,(18, 190),37	2984,(18, 198),1	2985,(20, 21),1	2986,(20, 26),2	2988,(20, 50),6	2994,(20, 56),29	3023,(20, 64),1	3024,(20, 74),24	3048,(20, 98),1	3049,(20, 108),3	3052,(20, 110),2	3054,(20, 122),12	3066,(20, 126),21	3087,(20, 136),2	3089,(20, 172),1	3090,(20, 180),1	3091,(20, 194),8	3099,(20, 196),1	3100,(129, 201),1	3101,(193, 201),1	3102,(25, 201),1	3103,(177, 201),1	3104,(45, 201),1	3105,(33, 201),1	3106,(143, 201),1	3107,(149, 201),1	3108,(22, 201),1	3109,(173, 201),1	3110,(37, 201),1	3111,(39, 201),1	3112,(161, 201),1	3113,(93, 201),1	3114,(95, 201),1	3115,(105, 201),1	3116,(31, 201),1	3117,(49, 201),1	3118,(181, 201),1	3119,(139, 201),1	3120,(79, 201),1	3121,(125, 201),1	3122,(47, 201),1	3123,(71, 201),1	3124,(111, 201),1	3125,(135, 201),1	3126,(69, 201),1	3127,(167, 201),1	3128,(189, 201),1	3206,(123, 201),1	3286,(119, 201),1	3366,(73, 201),1	3446,(83, 201),1	3526,(23, 201),1	3606,(65, 201),1	3686,(163, 201),1	3766,(179, 201),1	3846,(87, 201),1	3926,(131, 201),1	4006,(137, 201),1	4086,(191, 201),1	4166,(55, 201),1	4246,(117, 201),1	4326,(133, 201),1	4406,(141, 201),1	4486,(145, 201),1	4566,(151, 201),1	4646,(157, 201),1	4726,(159, 201),1	4806,(27, 201),1	4886,(29, 201),1	4966,(67, 201),1	5046,(81, 201),1	5126,(91, 201),1	5206,(97, 201),1	5286,(99, 201),1	5366,(103, 201),1	5446,(153, 201),1	5526,(165, 201),1	5606,(169, 201),1	5686,(171, 201),1	5766,(199, 201),1	5846,(63, 201),1	5926,(77, 201),1	6006,(89, 201),1	6086,(101, 201),1	6166,(107, 201),1	6246,(121, 201),1	6326,(127, 201),1	6406,(175, 201),1	6486,(195, 201),1	6566,(197, 201),1	6646,(35, 201),1	6726,(53, 201),1	6806,(57, 201),1	6886,(59, 201),1	6966,(75, 201),1	7046,(109, 201),1	7126,(113, 201),1	7206,(155, 201),1	7286,(185, 201),1	7366,(41, 201),1	7446,(43, 201),1	7526,(51, 201),1	7606,(61, 201),1	7686,(85, 201),1	7766,(115, 201),1	7846,(147, 201),1	7926,(183, 201),1	8006,(187, 201),1	
# Outgoing
86,(2, 42),9	95,(2, 48),5	100,(2, 54),1	101,(2, 66),14	115,(2, 72),48	163,(2, 112),3	166,(2, 132),3	169,(2, 134),20	189,(2, 142),6	195,(2, 156),1	196,(2, 178),1	197,(2, 198),22	219,(4, 28),11	230,(4, 32),7	237,(4, 34),1	238,(4, 36),9	247,(4, 44),1	248,(4, 66),2	250,(4, 76),17	267,(4, 80),5	272,(4, 88),6	278,(4, 96),23	301,(4, 102),1	302,(4, 122),2	304,(4, 146),2	306,(4, 168),4	310,(4, 176),47	357,(6, 42),14	371,(6, 60),4	375,(6, 64),14	389,(6, 122),18	407,(6, 146),1	408,(6, 156),1	409,(6, 158),1	410,(6, 166),1	411,(6, 178),1	412,(6, 180),1	413,(6, 186),61	474,(6, 188),6	480,(6, 190),5	485,(8, 32),1	486,(8, 52),1	487,(8, 72),1	488,(8, 74),108	596,(8, 78),7	603,(8, 100),5	608,(8, 116),12	620,(8, 126),36	656,(8, 158),9	665,(8, 160),1	666,(8, 164),27	693,(8, 172),1	694,(10, 30),38	732,(10, 36),18	750,(10, 40),1	751,(10, 56),1	752,(10, 64),9	761,(10, 114),1	762,(10, 130),7	769,(10, 148),1	770,(10, 154),1	771,(10, 162),6	777,(10, 182),25	802,(10, 192),21	823,(12, 38),1	824,(12, 40),111	935,(12, 46),4	939,(12, 50),1	940,(12, 60),1	941,(12, 76),52	993,(12, 84),1	994,(12, 96),5	999,(12, 104),5	1004,(12, 118),3	1007,(12, 124),30	1037,(12, 130),1	1038,(12, 150),4	1042,(12, 176),4	1046,(12, 190),2	1048,(14, 26),936	1984,(14, 30),8	1992,(14, 38),6	1998,(14, 44),8	2006,(14, 46),4	2010,(14, 84),12	2022,(14, 100),1	2023,(14, 112),6	2029,(14, 122),11	2040,(14, 170),350	2390,(14, 174),1	2391,(14, 184),41	2432,(14, 192),258	2690,(16, 26),2	2692,(16, 36),5	2697,(16, 62),7	2704,(16, 78),1	2705,(16, 80),6	2711,(16, 88),4	2715,(16, 94),1	2716,(16, 102),12	2728,(16, 122),15	2743,(16, 132),27	2770,(16, 150),11	2781,(16, 154),15	2796,(16, 180),2	2798,(16, 182),3	2801,(16, 184),10	2811,(18, 62),1	2812,(18, 92),5	2817,(18, 100),4	2821,(18, 106),1	2822,(18, 112),2	2824,(18, 122),5	2829,(18, 132),8	2837,(18, 142),1	2838,(18, 144),1	2839,(18, 148),4	2843,(18, 158),1	2844,(18, 166),36	2880,(18, 178),63	2943,(18, 184),4	2947,(18, 190),37	2984,(18, 198),1	2985,(20, 21),1	2986,(20, 26),2	2988,(20, 50),6	2994,(20, 56),29	3023,(20, 64),1	3024,(20, 74),24	3048,(20, 98),1	3049,(20, 108),3	3052,(20, 110),2	3054,(20, 122),12	3066,(20, 126),21	3087,(20, 136),2	3089,(20, 172),1	3090,(20, 180),1	3091,(20, 194),8	3099,(20, 196),1	3100,(129, 201),1	3101,(193, 201),1	3102,(25, 201),1	3103,(177, 201),1	3104,(45, 201),1	3105,(33, 201),1	3106,(143, 201),1	3107,(149, 201),1	3108,(22, 201),1	3109,(173, 201),1	3110,(37, 201),1	3111,(39, 201),1	3112,(161, 201),1	3113,(93, 201),1	3114,(95, 201),1	3115,(105, 201),1	3116,(31, 201),1	3117,(49, 201),1	3118,(181, 201),1	3119,(139, 201),1	3120,(79, 201),1	3121,(125, 201),1	3122,(47, 201),1	3123,(71, 201),1	3124,(111, 201),1	3125,(135, 201),1	3126,(69, 201),1	3127,(167, 201),1	3128,(189, 201),1	3206,(123, 201),1	3286,(119, 201),1	3366,(73, 201),1	3446,(83, 201),1	3526,(23, 201),1	3606,(65, 201),1	3686,(163, 201),1	3766,(179, 201),1	3846,(87, 201),1	3926,(131, 201),1	4006,(137, 201),1	4086,(191, 201),1	4166,(55, 201),1	4246,(117, 201),1	4326,(133, 201),1	4406,(141, 201),1	4486,(145, 201),1	4566,(151, 201),1	4646,(157, 201),1	4726,(159, 201),1	4806,(27, 201),1	4886,(29, 201),1	4966,(67, 201),1	5046,(81, 201),1	5126,(91, 201),1	5206,(97, 201),1	5286,(99, 201),1	5366,(103, 201),1	5446,(153, 201),1	5526,(165, 201),1	5606,(169, 201),1	5686,(171, 201),1	5766,(199, 201),1	5846,(63, 201),1	5926,(77, 201),1	6006,(89, 201),1	6086,(101, 201),1	6166,(107, 201),1	6246,(121, 201),1	6326,(127, 201),1	6406,(175, 201),1	6486,(195, 201),1	6566,(197, 201),1	6646,(35, 201),1	6726,(53, 201),1	6806,(57, 201),1	6886,(59, 201),1	6966,(75, 201),1	7046,(109, 201),1	7126,(113, 201),1	7206,(155, 201),1	7286,(185, 201),1	7366,(41, 201),1	7446,(43, 201),1	7526,(51, 201),1	7606,(61, 201),1	7686,(85, 201),1	7766,(115, 201),1	7846,(147, 201),1	7926,(183, 201),1	8006,(187, 201),1	
1,(0, 2),5	6,(0, 4),5	11,(0, 6),5	16,(0, 8),5	21,(0, 10),5	26,(0, 12),5	31,(0, 14),5	36,(0, 16),5	41,(0, 18),5	46,(0, 20),5	81,(3, 33),3	84,(3, 49),30	114,(3, 61),119	233,(3, 65),3	236,(3, 69),17	253,(3, 83),1	254,(3, 111),8	262,(3, 115),1	263,(3, 123),4	267,(3, 135),1	268,(3, 143),2	270,(3, 159),3	273,(3, 167),13	286,(3, 173),2	288,(3, 179),1	289,(3, 187),1	290,(3, 193),7	297,(11, 33),2	299,(11, 49),4	303,(11, 55),3	306,(11, 75),115	421,(11, 99),6	427,(11, 109),1	428,(11, 161),19	447,(11, 179),2	449,(1, 23),1	450,(1, 27),1	451,(1, 37),5	456,(1, 79),1	457,(1, 91),3	460,(1, 125),1	461,(1, 127),4	465,(1, 133),9	474,(1, 135),1	475,(1, 143),24	499,(1, 149),13	512,(1, 153),9	521,(1, 161),105	626,(1, 163),14	640,(1, 179),1	641,(1, 185),2	643,(1, 187),22	665,(9, 41),3	668,(9, 49),9	677,(9, 55),64	741,(9, 57),13	754,(9, 61),1	755,(9, 111),1	756,(9, 119),1	757,(9, 123),1	758,(9, 133),24	782,(9, 135),2	784,(9, 137),2	786,(9, 153),45	831,(9, 163),4	835,(9, 179),12	847,(9, 187),3	850,(17, 67),5	855,(17, 75),7	862,(17, 77),64	926,(17, 87),2	928,(17, 127),2	930,(17, 131),10	940,(17, 133),1	941,(17, 137),2	943,(17, 165),15	958,(17, 191),4	962,(15, 55),25	987,(15, 59),2	989,(15, 77),6	995,(15, 101),17	1012,(15, 103),4	1016,(15, 107),2	1018,(15, 117),5	1023,(15, 133),42	1065,(15, 141),1	1066,(15, 145),8	1074,(15, 151),19	1093,(15, 157),18	1111,(15, 159),1	1112,(15, 171),52	1164,(15, 195),1	1165,(7, 27),3	1168,(7, 29),3	1171,(7, 41),6	1177,(7, 61),1	1178,(7, 67),1	1179,(7, 81),5	1184,(7, 91),5	1189,(7, 97),44	1233,(7, 99),9	1242,(7, 103),2	1244,(7, 107),10	1254,(7, 153),1	1255,(7, 165),6	1261,(7, 169),1	1262,(7, 171),1	1263,(7, 199),4	1267,(13, 63),14	1281,(13, 77),1	1282,(13, 89),37	1319,(13, 101),2	1321,(13, 107),11	1332,(13, 121),31	1363,(13, 127),1	1364,(13, 175),1	1365,(13, 195),1	1366,(13, 197),1	1367,(5, 35),12	1379,(5, 53),17	1396,(5, 57),14	1410,(5, 59),7	1417,(5, 75),7	1424,(5, 85),3	1427,(5, 109),1	1428,(5, 113),16	1444,(5, 147),4	1448,(5, 155),5	1453,(5, 185),1	1454,(19, 41),5	1459,(19, 43),2	1461,(19, 51),10	1471,(19, 61),2	1473,(19, 85),11	1484,(19, 115),1	1485,(19, 147),5	1490,(19, 183),1	1491,(19, 187),6	
