602
# CPU
0,0,1	1,12,3	4,70,3	7,68,3	10,56,3	13,3,3	16,115,3	19,96,3	22,118,3	25,34,3	28,109,3	31,29,3	34,117,3	37,63,3	40,11,3	43,71,3	46,94,3	49,65,3	52,100,3	55,28,3	58,75,3	61,80,3	64,69,3	67,4,3	70,103,3	73,111,3	76,26,3	79,21,3	82,98,3	85,91,3	88,49,3	91,116,3	94,51,3	97,9,3	100,66,3	103,89,3	106,105,3	109,54,3	112,6,3	115,76,3	118,53,3	121,59,3	124,30,3	127,32,3	130,50,3	133,25,3	136,36,3	139,7,3	142,23,3	145,38,3	148,78,3	151,112,3	154,37,3	157,41,3	160,24,3	163,18,3	166,5,3	169,16,3	172,44,3	175,64,3	178,92,3	181,86,3	184,52,3	187,90,3	190,113,3	193,8,3	196,93,3	199,17,3	202,79,3	205,60,3	208,22,3	211,88,3	214,120,3	217,45,3	220,19,3	223,61,3	226,14,3	229,73,3	232,104,3	235,43,3	238,2,3	241,67,3	244,119,3	247,77,3	250,62,3	253,83,3	256,48,3	259,107,3	262,15,3	265,10,3	268,81,3	271,35,3	274,95,3	277,84,3	280,46,3	283,99,3	286,40,3	289,97,3	292,20,3	295,101,3	298,31,3	301,42,3	304,58,3	406,108,3	598,74,3	601,121,1	
67,1,3	70,27,3	73,33,3	76,106,3	79,114,3	82,55,3	85,87,3	88,110,3	91,85,3	106,47,3	151,13,3	172,72,3	205,39,3	250,102,3	271,57,3	292,82,3	
# Incoming
73,(27, 121),3	76,(33, 121),3	79,(106, 121),3	82,(114, 121),3	85,(55, 121),3	88,(87, 121),3	91,(110, 121),3	94,(85, 121),3	97,(1, 20),9	109,(47, 121),3	112,(1, 101),12	124,(1, 31),18	154,(13, 121),3	175,(72, 121),3	178,(1, 42),24	208,(39, 121),3	211,(1, 58),33	253,(102, 121),3	274,(57, 121),3	295,(82, 121),3	298,(1, 108),108	406,(1, 74),192	
1,(0, 1),66	67,(12, 110),3	70,(11, 85),9	79,(12, 47),3	100,(9, 47),6	106,(9, 102),3	115,(6, 72),15	142,(7, 13),9	151,(7, 39),6	169,(5, 72),3	172,(11, 39),30	202,(8, 39),3	205,(7, 102),45	268,(10, 57),3	271,(10, 82),21	
# Outgoing
1,(0, 1),66	67,(12, 110),3	70,(11, 85),9	79,(12, 47),3	100,(9, 47),6	106,(9, 102),3	115,(6, 72),15	142,(7, 13),9	151,(7, 39),6	169,(5, 72),3	172,(11, 39),30	202,(8, 39),3	205,(7, 102),45	268,(10, 57),3	271,(10, 82),21	
73,(27, 121),3	76,(33, 121),3	79,(106, 121),3	82,(114, 121),3	85,(55, 121),3	88,(87, 121),3	91,(110, 121),3	94,(85, 121),3	97,(1, 20),9	109,(47, 121),3	112,(1, 101),12	124,(1, 31),18	154,(13, 121),3	175,(72, 121),3	178,(1, 42),24	208,(39, 121),3	211,(1, 58),33	253,(102, 121),3	274,(57, 121),3	295,(82, 121),3	298,(1, 108),108	406,(1, 74),192	
