9011
# CPU
61,3,6	67,67,6	73,82,6	121,6,6	181,9,6	187,35,6	193,78,6	199,92,6	205,120,6	211,70,6	241,12,6	247,42,6	253,48,6	259,89,6	265,108,6	313,24,6	421,17,6	427,30,6	433,32,6	439,52,6	451,64,6	4336,87,6	4576,114,6	4585,16,6	4612,36,6	4696,51,6	4711,96,6	4720,27,6	6685,46,6	6694,49,6	6700,50,6	6736,54,6	6784,80,6	6805,19,6	6820,76,6	6985,88,6	7006,28,6	7012,73,6	7018,37,6	7024,47,6	7063,102,6	7084,90,6	7147,31,6	7222,53,6	7324,58,6	7423,61,6	7564,55,6	7633,110,6	7750,33,6	7813,39,6	7903,81,6	7954,83,6	8125,98,6	8152,106,6	8182,94,6	8218,84,6	8245,91,6	8257,22,6	8266,29,6	8293,40,6	8341,41,6	8347,43,6	8386,44,6	8395,45,6	8410,104,6	8419,116,6	8437,85,6	8446,86,6	8479,93,6	8521,100,6	8581,112,6	8677,118,6	8812,34,6	8992,38,6	
31,2,6	91,5,6	151,8,6	211,11,6	217,95,6	223,101,6	457,77,6	3100,72,6	3106,103,6	3112,111,6	3559,69,6	3604,99,6	4399,105,6	4405,107,6	4711,26,6	6739,60,6	6784,63,6	7816,79,6	8212,113,6	8221,119,6	8227,15,6	8245,21,6	8260,23,6	8410,57,6	8428,66,6	8434,75,6	8515,97,6	8527,109,6	8584,115,6	8593,117,6	9010,121,1	
0,0,1	1,1,6	7,7,6	13,10,6	19,4,6	25,18,6	31,62,6	37,25,6	589,13,6	595,65,6	3094,68,6	3544,20,6	3550,59,6	3598,71,6	3760,14,6	3766,56,6	4663,74,6	
# Incoming
31,(0, 3),30	91,(0, 6),30	151,(0, 9),30	211,(0, 12),30	241,(1, 16),51	292,(1, 17),3	295,(1, 24),18	313,(1, 29),15	328,(1, 43),30	358,(1, 44),3	361,(1, 45),3	364,(2, 17),57	421,(2, 30),3	424,(2, 32),3	427,(1, 76),3	430,(2, 37),3	433,(2, 52),3	436,(2, 64),15	457,(1, 86),3828	4285,(1, 87),51	4336,(1, 90),3	4339,(1, 102),3	4342,(2, 27),105	4447,(1, 118),3	4450,(2, 45),57	4507,(2, 80),18	4525,(2, 84),33	4558,(2, 88),3	4561,(2, 100),12	4573,(2, 114),3	4576,(5, 16),9	4585,(5, 27),15	4600,(5, 29),6	4606,(5, 36),6	4612,(5, 40),75	4687,(5, 51),9	4696,(5, 58),12	4708,(5, 96),3	4711,(7, 27),9	4720,(7, 28),1962	6682,(7, 46),3	6685,(7, 49),9	6694,(7, 50),3	6697,(7, 54),39	6736,(5, 80),48	6784,(5, 100),6	6790,(8, 19),15	6805,(7, 76),15	6820,(7, 88),165	6985,(7, 100),15	7000,(8, 28),6	7006,(8, 41),3	7009,(8, 73),3	7012,(8, 91),3	7015,(11, 37),3	7018,(11, 47),3	7021,(7, 116),18	7039,(5, 102),24	7063,(8, 40),18	7081,(11, 90),3	7084,(10, 29),54	7138,(10, 31),9	7147,(10, 38),3	7150,(10, 39),66	7216,(10, 53),6	7222,(10, 58),102	7324,(10, 61),99	7423,(5, 55),141	7564,(5, 110),69	7633,(8, 33),117	7750,(8, 39),63	7816,(10, 81),87	7903,(10, 83),51	7954,(10, 98),171	8125,(10, 106),27	8152,(8, 45),15	8167,(8, 94),15	8182,(8, 104),21	8203,(11, 84),15	8218,(11, 91),27	8245,(4, 22),12	8260,(4, 29),6	8266,(4, 38),24	8290,(4, 40),3	8293,(4, 41),48	8341,(4, 43),3	8344,(4, 44),42	8386,(4, 45),9	8395,(11, 104),15	8410,(11, 116),9	8431,(4, 85),6	8437,(4, 86),9	8446,(4, 93),33	8515,(4, 100),6	8521,(11, 112),60	8593,(4, 118),84	8677,(8, 34),135	8812,(8, 38),180	
1,(0, 2),30	61,(0, 5),30	121,(0, 8),30	181,(0, 11),30	364,(1, 57),63	430,(1, 77),27	571,(3, 99),9	580,(3, 117),2268	2848,(67, 121),12	2860,(82, 121),12	2872,(6, 23),150	3022,(6, 63),3	3094,(6, 69),3	3097,(6, 72),3	3100,(6, 103),3	3103,(6, 111),3	3106,(6, 113),3	3109,(6, 117),396	3505,(6, 119),3	3544,(9, 21),3	3550,(9, 69),9	3598,(9, 99),6	3604,(9, 107),27	3631,(9, 115),21	3652,(35, 121),12	3664,(78, 121),12	3676,(92, 121),12	3688,(120, 121),12	3700,(70, 121),12	3766,(12, 63),3	3769,(12, 66),48	4342,(1, 105),57	4399,(1, 107),3	4402,(1, 109),42	4444,(1, 113),3	4450,(7, 26),261	4711,(12, 75),3	4714,(12, 97),177	4891,(12, 115),3	4894,(42, 121),12	4906,(48, 121),12	4918,(89, 121),12	4930,(108, 121),12	4942,(24, 121),12	4954,(17, 121),12	4966,(30, 121),12	4978,(32, 121),12	4990,(52, 121),12	5002,(64, 121),12	5014,(87, 121),12	5026,(114, 121),12	5038,(16, 121),12	5050,(36, 121),12	5062,(51, 121),12	5074,(96, 121),12	5086,(27, 121),12	6691,(46, 121),12	6703,(49, 121),12	6715,(50, 121),12	6736,(7, 60),3	6739,(7, 63),45	6784,(7, 66),21	6805,(54, 121),12	6817,(80, 121),12	6829,(19, 121),12	6841,(76, 121),12	7000,(7, 113),21	7021,(88, 121),12	7039,(10, 15),45	7084,(28, 121),12	7096,(73, 121),12	7108,(37, 121),12	7120,(47, 121),12	7132,(102, 121),12	7144,(90, 121),12	7156,(31, 121),12	7228,(53, 121),12	7330,(58, 121),12	7423,(10, 79),393	7816,(61, 121),12	7828,(55, 121),12	7840,(110, 121),12	7852,(33, 121),12	7864,(39, 121),12	7909,(81, 121),12	7960,(83, 121),12	8131,(98, 121),12	8152,(10, 113),60	8212,(10, 119),9	8221,(4, 15),3	8224,(4, 21),21	8245,(106, 121),12	8257,(4, 23),3	8260,(94, 121),12	8272,(84, 121),12	8284,(91, 121),12	8296,(22, 121),12	8308,(29, 121),12	8320,(40, 121),12	8347,(41, 121),12	8359,(43, 121),12	8395,(4, 57),15	8410,(4, 66),18	8428,(4, 75),3	8431,(44, 121),12	8443,(45, 121),12	8455,(104, 121),12	8467,(116, 121),12	8479,(4, 97),36	8521,(4, 109),6	8527,(4, 115),57	8584,(4, 117),9	8593,(85, 121),12	8605,(86, 121),12	8617,(93, 121),12	8629,(100, 121),12	8641,(112, 121),12	8677,(18, 121),12	8689,(62, 121),12	8701,(25, 121),12	8713,(13, 121),12	8725,(65, 121),12	8737,(68, 121),12	8749,(20, 121),12	8761,(59, 121),12	8773,(71, 121),12	8785,(14, 121),12	8797,(56, 121),12	8809,(74, 121),12	8821,(118, 121),12	8833,(34, 121),12	8998,(38, 121),12	
451,(2, 65),36	487,(2, 71),33	520,(3, 74),51	571,(5, 13),18	589,(5, 20),3	592,(8, 65),3	595,(11, 20),195	790,(11, 74),3	3025,(6, 68),69	3508,(9, 20),36	3547,(9, 59),3	3559,(9, 71),39	3712,(12, 14),48	3760,(12, 56),6	3817,(12, 74),846	
# Outgoing
520,(3, 74),51	571,(3, 99),9	580,(3, 117),2268	2848,(67, 121),12	2860,(82, 121),12	2872,(6, 23),150	3022,(6, 63),3	3025,(6, 68),69	3094,(6, 69),3	3097,(6, 72),3	3100,(6, 103),3	3103,(6, 111),3	3106,(6, 113),3	3109,(6, 117),396	3505,(6, 119),3	3508,(9, 20),36	3544,(9, 21),3	3547,(9, 59),3	3550,(9, 69),9	3559,(9, 71),39	3598,(9, 99),6	3604,(9, 107),27	3631,(9, 115),21	3652,(35, 121),12	3664,(78, 121),12	3676,(92, 121),12	3688,(120, 121),12	3700,(70, 121),12	3712,(12, 14),48	3760,(12, 56),6	3766,(12, 63),3	3769,(12, 66),48	3817,(12, 74),846	4711,(12, 75),3	4714,(12, 97),177	4891,(12, 115),3	4894,(42, 121),12	4906,(48, 121),12	4918,(89, 121),12	4930,(108, 121),12	4942,(24, 121),12	4954,(17, 121),12	4966,(30, 121),12	4978,(32, 121),12	4990,(52, 121),12	5002,(64, 121),12	5014,(87, 121),12	5026,(114, 121),12	5038,(16, 121),12	5050,(36, 121),12	5062,(51, 121),12	5074,(96, 121),12	5086,(27, 121),12	6691,(46, 121),12	6703,(49, 121),12	6715,(50, 121),12	6805,(54, 121),12	6817,(80, 121),12	6829,(19, 121),12	6841,(76, 121),12	7021,(88, 121),12	7084,(28, 121),12	7096,(73, 121),12	7108,(37, 121),12	7120,(47, 121),12	7132,(102, 121),12	7144,(90, 121),12	7156,(31, 121),12	7228,(53, 121),12	7330,(58, 121),12	7816,(61, 121),12	7828,(55, 121),12	7840,(110, 121),12	7852,(33, 121),12	7864,(39, 121),12	7909,(81, 121),12	7960,(83, 121),12	8131,(98, 121),12	8245,(106, 121),12	8260,(94, 121),12	8272,(84, 121),12	8284,(91, 121),12	8296,(22, 121),12	8308,(29, 121),12	8320,(40, 121),12	8347,(41, 121),12	8359,(43, 121),12	8431,(44, 121),12	8443,(45, 121),12	8455,(104, 121),12	8467,(116, 121),12	8593,(85, 121),12	8605,(86, 121),12	8617,(93, 121),12	8629,(100, 121),12	8641,(112, 121),12	8821,(118, 121),12	8833,(34, 121),12	8998,(38, 121),12	
364,(2, 17),57	421,(2, 30),3	424,(2, 32),3	430,(2, 37),3	433,(2, 52),3	436,(2, 64),15	451,(2, 65),36	487,(2, 71),33	571,(5, 13),18	589,(5, 20),3	592,(8, 65),3	595,(11, 20),195	790,(11, 74),3	4342,(2, 27),105	4450,(2, 45),57	4507,(2, 80),18	4525,(2, 84),33	4558,(2, 88),3	4561,(2, 100),12	4573,(2, 114),3	4576,(5, 16),9	4585,(5, 27),15	4600,(5, 29),6	4606,(5, 36),6	4612,(5, 40),75	4687,(5, 51),9	4696,(5, 58),12	4708,(5, 96),3	6736,(5, 80),48	6784,(5, 100),6	6790,(8, 19),15	7000,(8, 28),6	7006,(8, 41),3	7009,(8, 73),3	7012,(8, 91),3	7015,(11, 37),3	7018,(11, 47),3	7039,(5, 102),24	7063,(8, 40),18	7081,(11, 90),3	7423,(5, 55),141	7564,(5, 110),69	7633,(8, 33),117	7750,(8, 39),63	8152,(8, 45),15	8167,(8, 94),15	8182,(8, 104),21	8203,(11, 84),15	8218,(11, 91),27	8395,(11, 104),15	8410,(11, 116),9	8521,(11, 112),60	8677,(8, 34),135	8812,(8, 38),180	
1,(0, 2),30	31,(0, 3),30	61,(0, 5),30	91,(0, 6),30	121,(0, 8),30	151,(0, 9),30	181,(0, 11),30	211,(0, 12),30	241,(1, 16),51	292,(1, 17),3	295,(1, 24),18	313,(1, 29),15	328,(1, 43),30	358,(1, 44),3	361,(1, 45),3	364,(1, 57),63	427,(1, 76),3	430,(1, 77),27	457,(1, 86),3828	4285,(1, 87),51	4336,(1, 90),3	4339,(1, 102),3	4342,(1, 105),57	4399,(1, 107),3	4402,(1, 109),42	4444,(1, 113),3	4447,(1, 118),3	4450,(7, 26),261	4711,(7, 27),9	4720,(7, 28),1962	6682,(7, 46),3	6685,(7, 49),9	6694,(7, 50),3	6697,(7, 54),39	6736,(7, 60),3	6739,(7, 63),45	6784,(7, 66),21	6805,(7, 76),15	6820,(7, 88),165	6985,(7, 100),15	7000,(7, 113),21	7021,(7, 116),18	7039,(10, 15),45	7084,(10, 29),54	7138,(10, 31),9	7147,(10, 38),3	7150,(10, 39),66	7216,(10, 53),6	7222,(10, 58),102	7324,(10, 61),99	7423,(10, 79),393	7816,(10, 81),87	7903,(10, 83),51	7954,(10, 98),171	8125,(10, 106),27	8152,(10, 113),60	8212,(10, 119),9	8221,(4, 15),3	8224,(4, 21),21	8245,(4, 22),12	8257,(4, 23),3	8260,(4, 29),6	8266,(4, 38),24	8290,(4, 40),3	8293,(4, 41),48	8341,(4, 43),3	8344,(4, 44),42	8386,(4, 45),9	8395,(4, 57),15	8410,(4, 66),18	8428,(4, 75),3	8431,(4, 85),6	8437,(4, 86),9	8446,(4, 93),33	8479,(4, 97),36	8515,(4, 100),6	8521,(4, 109),6	8527,(4, 115),57	8584,(4, 117),9	8593,(4, 118),84	8677,(18, 121),12	8689,(62, 121),12	8701,(25, 121),12	8713,(13, 121),12	8725,(65, 121),12	8737,(68, 121),12	8749,(20, 121),12	8761,(59, 121),12	8773,(71, 121),12	8785,(14, 121),12	8797,(56, 121),12	8809,(74, 121),12	
