3171
# CPU
10,2,11	21,6,11	32,8,11	43,14,11	54,17,11	65,9,11	76,12,11	87,4,11	98,10,11	109,11,11	120,13,11	131,15,11	150,16,11	228,18,11	239,19,11	294,20,11	3170,21,1	
0,0,1	1,1,11	12,3,11	23,5,11	2511,7,11	
# Incoming
1,(0, 2),9	12,(1, 6),3	15,(1, 8),3	18,(1, 10),9	27,(1, 11),6	33,(1, 13),84	117,(1, 15),3	120,(1, 16),30	150,(1, 18),78	228,(1, 19),3	231,(1, 20),63	294,(3, 21),648	942,(5, 21),648	2522,(7, 21),648	
21,(2, 7),2490	
# Outgoing
21,(2, 7),2490	
1,(0, 2),9	12,(1, 6),3	15,(1, 8),3	18,(1, 10),9	27,(1, 11),6	33,(1, 13),84	117,(1, 15),3	120,(1, 16),30	150,(1, 18),78	228,(1, 19),3	231,(1, 20),63	294,(3, 21),648	942,(5, 21),648	2522,(7, 21),648	
