42
# CPU
0,41,1	1,18,1	2,22,1	3,9,1	4,33,1	5,7,1	6,25,1	7,39,1	8,27,1	9,24,1	10,15,1	11,16,1	12,34,1	13,6,1	14,38,1	15,36,1	16,13,1	17,23,1	18,35,1	19,31,1	20,12,1	21,19,1	22,21,1	23,14,1	24,26,1	25,8,1	26,32,1	27,37,1	28,20,1	29,11,1	30,29,1	31,10,1	32,40,1	33,30,1	34,5,1	35,28,1	36,4,1	37,17,1	38,1,1	39,3,1	40,2,1	41,0,1	




# Incoming





# Outgoing





