343
# CPU
0,201,1	1,58,1	2,78,1	3,126,1	4,62,1	5,142,1	6,135,1	7,133,1	8,123,1	9,122,1	10,72,1	11,131,1	12,121,1	13,68,1	14,132,1	15,119,1	16,136,1	17,137,1	18,140,1	19,144,1	20,117,1	21,152,1	22,156,1	23,158,1	24,112,1	25,165,1	26,50,1	27,48,1	28,109,1	29,172,1	30,173,1	31,21,1	32,96,1	33,178,1	34,39,1	35,97,1	36,98,1	37,40,1	38,44,1	39,76,1	40,83,1	41,24,1	42,182,1	43,190,1	44,36,1	45,179,1	46,189,1	47,89,1	48,176,1	49,174,1	50,41,1	51,26,1	52,27,1	53,30,1	54,34,1	55,67,1	56,71,1	57,77,1	58,25,1	59,198,1	60,141,1	61,153,1	62,166,1	63,37,1	64,162,1	65,200,1	66,45,1	67,22,1	68,28,1	69,124,1	70,187,1	71,148,1	72,94,1	73,54,1	74,55,1	75,31,1	76,183,1	77,35,1	78,146,1	79,120,1	80,29,1	81,114,1	82,154,1	83,197,1	84,85,1	85,102,1	86,169,1	87,75,1	88,69,1	89,111,1	90,161,1	91,167,1	92,116,1	93,73,1	94,185,1	95,177,1	96,65,1	97,81,1	98,63,1	99,191,1	100,95,1	101,160,1	102,104,1	103,56,1	104,115,1	105,74,1	106,157,1	107,128,1	108,139,1	109,90,1	110,108,1	111,149,1	112,23,1	113,91,1	114,151,1	115,51,1	116,130,1	117,194,1	118,192,1	119,107,1	120,66,1	121,100,1	122,84,1	123,193,1	124,196,1	125,168,1	126,175,1	127,127,1	128,186,1	129,64,1	130,188,1	131,138,1	132,103,1	133,53,1	134,113,1	135,181,1	136,106,1	137,38,1	138,59,1	139,43,1	140,86,1	141,150,1	142,164,1	143,11,1	144,118,1	145,93,1	146,170,1	147,52,1	148,1,1	149,195,1	150,32,1	151,42,1	152,171,1	153,125,1	154,159,1	155,8,1	156,180,1	157,143,1	158,99,1	159,17,1	160,82,1	161,92,1	162,7,1	163,61,1	164,80,1	165,129,1	166,14,1	167,33,1	168,163,1	169,47,1	170,20,1	171,184,1	172,10,1	173,199,1	174,13,1	175,49,1	176,60,1	177,19,1	178,110,1	179,16,1	180,105,1	181,3,1	182,79,1	183,145,1	184,5,1	185,147,1	186,70,1	187,2,1	188,134,1	189,87,1	190,12,1	191,9,1	192,4,1	193,15,1	194,18,1	341,6,1	342,0,1	
109,57,1	145,101,1	
37,88,1	181,46,1	
73,155,1	
# Incoming
38,(88, 9),3	74,(155, 4),9	110,(57, 15),18	146,(101, 18),48	194,(46, 6),147	
73,(201, 57),36	109,(201, 101),36	
1,(201, 88),36	145,(201, 46),36	
37,(201, 155),36	
# Outgoing
1,(201, 88),36	37,(201, 155),36	73,(201, 57),36	109,(201, 101),36	145,(201, 46),36	
110,(57, 15),18	146,(101, 18),48	
38,(88, 9),3	194,(46, 6),147	
74,(155, 4),9	
