482
# CPU
0,0,1	1,1,12	13,3,12	25,4,12	37,2,12	49,19,12	61,39,12	73,18,12	85,38,12	97,16,12	109,26,12	121,25,12	133,8,12	145,23,12	157,20,12	169,21,12	181,6,12	193,5,12	205,37,12	217,31,12	229,29,12	241,22,12	253,36,12	265,34,12	277,28,12	289,9,12	301,24,12	313,15,12	325,12,12	337,10,12	349,7,12	361,17,12	373,35,12	385,40,12	397,13,12	409,27,12	421,11,12	433,14,12	445,30,12	457,32,12	469,33,12	481,41,1	



# Incoming




# Outgoing




