1158
# CPU
37,3,10	47,43,10	57,53,10	73,6,10	83,27,10	93,75,10	103,77,10	113,79,10	123,24,10	133,33,10	143,10,10	153,14,10	168,39,10	193,47,10	203,51,10	213,61,10	223,15,10	233,45,10	243,59,10	272,73,10	282,19,10	292,71,10	302,35,10	312,65,10	322,67,10	332,69,10	342,13,10	352,30,10	364,55,10	430,63,10	440,17,10	450,21,10	460,37,10	470,41,10	480,49,10	493,57,10	
19,2,10	29,12,10	39,36,10	55,5,10	65,25,10	75,50,10	85,62,10	95,72,10	105,58,10	115,8,10	125,18,10	135,40,10	145,60,10	155,80,10	165,31,10	175,34,10	194,16,10	204,56,10	214,28,10	224,52,10	234,66,10	244,68,10	254,70,10	264,78,10	274,74,10	294,76,10	304,22,10	314,38,10	331,42,10	344,44,10	354,46,10	365,11,10	381,20,10	391,48,10	401,54,10	411,64,10	1157,81,1	
0,0,1	1,4,10	11,1,10	21,7,10	31,26,10	125,29,10	191,9,10	227,23,10	1146,32,10	
# Incoming
19,(0, 3),18	55,(0, 6),18	91,(4, 15),1	99,(4, 24),1	100,(4, 33),6	106,(2, 10),1	107,(2, 14),5	112,(2, 57),3	115,(4, 37),47	162,(4, 39),6	168,(4, 45),23	191,(2, 71),1	192,(4, 47),1	193,(4, 51),1	194,(2, 61),2	196,(5, 15),1	197,(5, 17),11	208,(5, 45),1	209,(5, 59),1	210,(4, 71),1	211,(4, 73),61	272,(5, 19),8	280,(5, 71),1	281,(8, 13),6	287,(8, 35),1	288,(8, 49),2	290,(8, 65),1	291,(8, 67),1	292,(8, 69),2	294,(1, 13),1	299,(1, 41),1	300,(2, 30),37	352,(1, 49),7	359,(1, 55),5	364,(2, 63),66	430,(7, 17),3	433,(7, 21),6	439,(7, 37),9	448,(7, 41),1	449,(7, 49),20	469,(7, 57),24	
1,(0, 2),18	37,(0, 5),18	55,(3, 20),4	59,(3, 25),6	65,(3, 42),3	68,(3, 58),1	69,(43, 81),1	70,(53, 81),1	73,(0, 8),18	91,(6, 18),1	92,(4, 22),7	99,(6, 40),1	101,(3, 70),5	106,(4, 34),9	115,(3, 52),6	121,(3, 68),10	191,(4, 46),1	192,(6, 16),2	194,(4, 56),9	203,(4, 68),7	210,(6, 28),4	214,(6, 52),1	215,(6, 54),4	219,(6, 66),4	223,(6, 68),1	224,(6, 70),3	227,(6, 78),1	228,(27, 81),1	229,(75, 81),1	230,(77, 81),1	231,(79, 81),1	232,(24, 81),1	233,(33, 81),1	234,(10, 81),1	235,(14, 81),1	236,(39, 81),1	237,(47, 81),1	238,(51, 81),1	239,(61, 81),1	240,(15, 81),1	243,(45, 81),1	253,(59, 81),1	272,(4, 74),1	273,(4, 76),21	294,(73, 81),1	295,(1, 22),3	298,(1, 38),1	299,(19, 81),1	300,(1, 42),31	331,(1, 44),13	344,(1, 46),8	352,(71, 81),1	353,(35, 81),1	354,(65, 81),1	355,(67, 81),1	356,(69, 81),1	357,(13, 81),1	362,(30, 81),1	364,(7, 11),1	365,(7, 20),16	381,(7, 48),5	386,(7, 54),2	388,(7, 64),2	390,(26, 81),1	391,(29, 81),1	392,(9, 81),1	393,(23, 81),1	394,(55, 81),1	440,(63, 81),1	450,(17, 81),1	460,(21, 81),1	470,(37, 81),1	480,(41, 81),1	490,(49, 81),1	503,(57, 81),1	1156,(32, 81),1	
29,(2, 9),71	100,(3, 32),1	115,(5, 29),10	131,(6, 9),60	210,(8, 23),17	430,(8, 32),716	
# Outgoing
55,(3, 20),4	59,(3, 25),6	65,(3, 42),3	68,(3, 58),1	69,(43, 81),1	70,(53, 81),1	91,(6, 18),1	99,(6, 40),1	100,(3, 32),1	101,(3, 70),5	115,(3, 52),6	121,(3, 68),10	131,(6, 9),60	192,(6, 16),2	210,(6, 28),4	214,(6, 52),1	215,(6, 54),4	219,(6, 66),4	223,(6, 68),1	224,(6, 70),3	227,(6, 78),1	228,(27, 81),1	229,(75, 81),1	230,(77, 81),1	231,(79, 81),1	232,(24, 81),1	233,(33, 81),1	234,(10, 81),1	235,(14, 81),1	236,(39, 81),1	237,(47, 81),1	238,(51, 81),1	239,(61, 81),1	240,(15, 81),1	243,(45, 81),1	253,(59, 81),1	294,(73, 81),1	299,(19, 81),1	352,(71, 81),1	353,(35, 81),1	354,(65, 81),1	355,(67, 81),1	356,(69, 81),1	357,(13, 81),1	362,(30, 81),1	394,(55, 81),1	440,(63, 81),1	450,(17, 81),1	460,(21, 81),1	470,(37, 81),1	480,(41, 81),1	490,(49, 81),1	503,(57, 81),1	
29,(2, 9),71	106,(2, 10),1	107,(2, 14),5	112,(2, 57),3	115,(5, 29),10	191,(2, 71),1	194,(2, 61),2	196,(5, 15),1	197,(5, 17),11	208,(5, 45),1	209,(5, 59),1	210,(8, 23),17	272,(5, 19),8	280,(5, 71),1	281,(8, 13),6	287,(8, 35),1	288,(8, 49),2	290,(8, 65),1	291,(8, 67),1	292,(8, 69),2	300,(2, 30),37	364,(2, 63),66	430,(8, 32),716	
1,(0, 2),18	19,(0, 3),18	37,(0, 5),18	55,(0, 6),18	73,(0, 8),18	91,(4, 15),1	92,(4, 22),7	99,(4, 24),1	100,(4, 33),6	106,(4, 34),9	115,(4, 37),47	162,(4, 39),6	168,(4, 45),23	191,(4, 46),1	192,(4, 47),1	193,(4, 51),1	194,(4, 56),9	203,(4, 68),7	210,(4, 71),1	211,(4, 73),61	272,(4, 74),1	273,(4, 76),21	294,(1, 13),1	295,(1, 22),3	298,(1, 38),1	299,(1, 41),1	300,(1, 42),31	331,(1, 44),13	344,(1, 46),8	352,(1, 49),7	359,(1, 55),5	364,(7, 11),1	365,(7, 20),16	381,(7, 48),5	386,(7, 54),2	388,(7, 64),2	390,(26, 81),1	391,(29, 81),1	392,(9, 81),1	393,(23, 81),1	430,(7, 17),3	433,(7, 21),6	439,(7, 37),9	448,(7, 41),1	449,(7, 49),20	469,(7, 57),24	1156,(32, 81),1	
