1231
# CPU
0,81,1	1,16,7	8,19,7	15,78,7	22,55,7	29,76,7	36,40,7	43,73,7	50,32,7	57,28,7	64,26,7	71,53,7	78,14,7	85,65,7	92,64,7	99,63,7	106,60,7	113,57,7	120,10,7	127,37,7	134,30,7	141,46,7	148,70,7	155,68,7	162,52,7	169,12,7	176,69,7	183,59,7	190,44,7	197,34,7	204,72,7	211,13,7	218,36,7	225,24,7	232,67,7	239,42,7	246,41,7	253,33,7	260,11,7	267,29,7	274,21,7	281,15,7	288,48,7	295,66,7	302,71,7	309,25,7	316,61,7	323,39,7	330,20,7	337,22,7	344,18,7	351,50,7	358,79,7	365,47,7	372,27,7	379,31,7	386,17,7	393,35,7	400,58,7	407,49,7	414,54,7	421,80,7	428,43,7	435,38,7	442,75,7	449,6,7	456,2,7	463,7,7	470,8,7	477,5,7	484,1,7	515,3,7	1223,4,7	1230,0,1	
217,62,7	271,23,7	379,56,7	433,45,7	
55,51,7	109,77,7	163,74,7	325,9,7	
# Incoming
62,(51, 2),3	116,(77, 1),6	170,(74, 7),9	278,(23, 8),21	299,(62, 3),12	311,(23, 3),3	332,(9, 1),48	386,(56, 5),39	440,(45, 8),3	443,(56, 3),72	515,(45, 4),708	
163,(81, 62),54	217,(81, 23),54	325,(81, 56),54	379,(81, 45),54	
1,(81, 51),54	55,(81, 77),54	109,(81, 74),54	271,(81, 9),54	
# Outgoing
1,(81, 51),54	55,(81, 77),54	109,(81, 74),54	163,(81, 62),54	217,(81, 23),54	271,(81, 9),54	325,(81, 56),54	379,(81, 45),54	
278,(23, 8),21	299,(62, 3),12	311,(23, 3),3	386,(56, 5),39	440,(45, 8),3	443,(56, 3),72	515,(45, 4),708	
62,(51, 2),3	116,(77, 1),6	170,(74, 7),9	332,(9, 1),48	
