1177
# CPU
13,4,15	28,20,15	44,8,15	60,28,15	320,12,15	340,16,15	372,24,15	416,32,15	540,36,15	736,40,15	
9,3,15	24,11,15	304,7,15	356,19,15	371,23,15	408,31,15	524,35,15	924,15,15	992,27,15	1136,39,15	
5,2,15	20,14,15	35,18,15	52,22,15	268,30,15	283,34,15	344,26,15	359,38,15	768,6,15	912,10,15	
0,0,1	1,1,15	408,13,15	423,25,15	460,33,15	532,17,15	716,37,15	752,5,15	812,9,15	928,21,15	1076,29,15	1176,41,1	
# Incoming
9,(0, 4),4	24,(3, 8),20	52,(3, 28),8	304,(1, 12),16	320,(1, 16),20	360,(2, 24),12	408,(2, 32),8	524,(2, 36),16	716,(2, 40),20	
5,(0, 3),4	16,(1, 7),288	304,(2, 19),52	356,(2, 23),4	376,(2, 31),32	460,(2, 35),64	912,(4, 15),12	928,(4, 27),64	1076,(4, 39),60	
1,(0, 2),4	44,(3, 22),8	60,(3, 30),208	268,(3, 34),8	340,(1, 26),4	344,(1, 38),8	752,(4, 6),16	812,(4, 10),100	
372,(2, 25),4	376,(3, 13),32	408,(3, 25),4	412,(11, 41),4	416,(2, 33),44	460,(3, 17),72	532,(7, 41),4	536,(19, 41),4	540,(2, 37),176	716,(4, 5),36	752,(14, 41),4	756,(18, 41),4	760,(22, 41),4	764,(30, 41),4	768,(4, 9),44	812,(34, 41),4	816,(26, 41),4	820,(38, 41),4	824,(23, 41),4	828,(31, 41),4	832,(35, 41),4	836,(6, 41),4	924,(4, 21),4	928,(10, 41),4	939,(15, 41),4	992,(4, 29),84	1076,(27, 41),4	1136,(20, 41),4	1140,(8, 41),4	1144,(28, 41),4	1148,(12, 41),4	1152,(16, 41),4	1156,(24, 41),4	1160,(32, 41),4	1164,(36, 41),4	1168,(40, 41),4	1172,(39, 41),4	
# Outgoing
716,(4, 5),36	752,(4, 6),16	768,(4, 9),44	812,(4, 10),100	912,(4, 15),12	924,(4, 21),4	928,(4, 27),64	992,(4, 29),84	1076,(4, 39),60	1136,(20, 41),4	1140,(8, 41),4	1144,(28, 41),4	1148,(12, 41),4	1152,(16, 41),4	1156,(24, 41),4	1160,(32, 41),4	1164,(36, 41),4	1168,(40, 41),4	
24,(3, 8),20	44,(3, 22),8	52,(3, 28),8	60,(3, 30),208	268,(3, 34),8	376,(3, 13),32	408,(3, 25),4	412,(11, 41),4	460,(3, 17),72	532,(7, 41),4	536,(19, 41),4	824,(23, 41),4	828,(31, 41),4	832,(35, 41),4	939,(15, 41),4	1076,(27, 41),4	1172,(39, 41),4	
304,(2, 19),52	356,(2, 23),4	360,(2, 24),12	372,(2, 25),4	376,(2, 31),32	408,(2, 32),8	416,(2, 33),44	460,(2, 35),64	524,(2, 36),16	540,(2, 37),176	716,(2, 40),20	752,(14, 41),4	756,(18, 41),4	760,(22, 41),4	764,(30, 41),4	812,(34, 41),4	816,(26, 41),4	820,(38, 41),4	836,(6, 41),4	928,(10, 41),4	
1,(0, 2),4	5,(0, 3),4	9,(0, 4),4	16,(1, 7),288	304,(1, 12),16	320,(1, 16),20	340,(1, 26),4	344,(1, 38),8	
