2880
# CPU
0,201,1	1,140,3	4,134,3	7,81,3	10,121,3	13,159,3	16,148,3	19,156,3	22,78,3	25,65,3	28,37,3	31,77,3	34,138,3	37,75,3	40,48,3	43,172,3	46,153,3	49,108,3	52,125,3	55,102,3	58,106,3	61,104,3	64,103,3	67,66,3	70,63,3	73,61,3	76,120,3	79,136,3	82,56,3	85,183,3	88,146,3	91,36,3	94,123,3	97,28,3	100,177,3	103,46,3	106,135,3	109,147,3	112,68,3	115,157,3	118,105,3	121,85,3	124,23,3	127,142,3	130,76,3	133,169,3	136,163,3	139,110,3	142,59,3	145,167,3	148,126,3	151,128,3	154,40,3	157,166,3	160,197,3	163,88,3	166,90,3	169,21,3	172,195,3	175,190,3	178,151,3	181,132,3	184,72,3	187,161,3	190,143,3	193,53,3	196,168,3	199,112,3	202,50,3	205,80,3	208,184,3	211,38,3	214,199,3	217,67,3	220,32,3	223,84,3	226,141,3	229,145,3	232,47,3	235,160,3	238,62,3	241,186,3	244,83,3	247,35,3	250,41,3	253,122,3	256,149,3	259,26,3	262,58,3	265,96,3	268,171,3	271,154,3	274,131,3	277,188,3	280,181,3	283,187,3	286,34,3	289,124,3	292,31,3	295,127,3	298,116,3	301,89,3	304,119,3	307,101,3	310,200,3	313,137,3	316,74,3	319,129,3	322,24,3	325,111,3	328,179,3	331,87,3	334,175,3	337,70,3	340,182,3	343,95,3	346,51,3	349,94,3	352,189,3	355,73,3	358,109,3	361,45,3	364,91,3	367,144,3	370,98,3	373,174,3	376,27,3	379,191,3	382,164,3	385,150,3	388,93,3	391,176,3	394,69,3	397,60,3	400,185,3	403,162,3	406,29,3	409,39,3	412,57,3	415,99,3	418,107,3	421,71,3	424,155,3	427,198,3	430,158,3	433,117,3	436,44,3	439,49,3	442,139,3	445,52,3	448,25,3	451,82,3	454,133,3	457,92,3	460,42,3	463,130,3	466,86,3	469,22,3	472,196,3	475,165,3	478,54,3	481,193,3	484,19,3	487,170,3	490,13,3	493,152,3	496,100,3	499,79,3	502,10,3	505,17,3	508,12,3	511,3,3	514,14,3	517,9,3	520,11,3	523,8,3	526,7,3	564,20,3	652,4,3	744,16,3	856,6,3	1108,2,3	1376,15,3	1704,5,3	2876,18,3	2879,0,1	
33,33,3	289,118,3	353,115,3	385,97,3	

193,173,3	
65,30,3	97,178,3	129,43,3	161,113,3	225,114,3	257,64,3	321,55,3	417,192,3	449,180,3	481,194,3	1213,1,3	
# Incoming
132,(43, 10),4	136,(30, 12),12	148,(178, 8),12	160,(178, 7),24	184,(113, 7),8	192,(30, 4),4	196,(173, 9),8	204,(43, 16),4	208,(43, 6),32	240,(30, 5),4	244,(43, 18),16	260,(64, 9),8	268,(64, 20),4	292,(118, 3),12	304,(33, 11),4	308,(118, 11),16	324,(118, 18),4	356,(115, 9),4	360,(115, 8),24	420,(192, 9),4	424,(192, 11),4	428,(192, 7),8	436,(192, 16),8	452,(180, 20),4	484,(194, 17),4	488,(194, 14),20	508,(114, 20),56	564,(180, 4),88	652,(118, 16),92	744,(55, 6),112	856,(173, 2),52	908,(97, 2),200	1108,(113, 15),40	1148,(64, 15),72	1220,(115, 15),156	1376,(1, 0),4	1380,(114, 5),60	1440,(192, 5),264	1704,(97, 18),56	1760,(194, 18),1116	
1,(201, 33),32	257,(201, 118),32	321,(201, 115),32	353,(201, 97),32	

161,(201, 173),32	
33,(201, 30),32	65,(201, 178),32	97,(201, 43),32	129,(201, 113),32	193,(201, 114),32	225,(201, 64),32	289,(201, 55),32	385,(201, 192),32	417,(201, 180),32	449,(201, 194),32	481,(156, 1),4	485,(153, 1),8	493,(106, 1),12	505,(120, 1),4	509,(146, 1),12	521,(177, 1),20	541,(147, 1),20	561,(126, 1),36	597,(197, 1),4	601,(90, 1),40	641,(21, 1),44	685,(195, 1),4	689,(112, 1),4	693,(47, 1),12	705,(62, 1),8	713,(96, 1),4	717,(171, 1),76	793,(187, 1),4	797,(127, 1),8	805,(87, 1),4	809,(94, 1),8	817,(109, 1),156	973,(98, 1),32	1005,(27, 1),4	1009,(69, 1),24	1033,(71, 1),8	1041,(133, 1),100	1141,(193, 1),16	1157,(79, 1),56	
# Outgoing
1,(201, 33),32	33,(201, 30),32	65,(201, 178),32	97,(201, 43),32	129,(201, 113),32	161,(201, 173),32	193,(201, 114),32	225,(201, 64),32	257,(201, 118),32	289,(201, 55),32	321,(201, 115),32	353,(201, 97),32	385,(201, 192),32	417,(201, 180),32	449,(201, 194),32	481,(156, 1),4	485,(153, 1),8	493,(106, 1),12	505,(120, 1),4	509,(146, 1),12	521,(177, 1),20	541,(147, 1),20	561,(126, 1),36	597,(197, 1),4	601,(90, 1),40	641,(21, 1),44	685,(195, 1),4	689,(112, 1),4	693,(47, 1),12	705,(62, 1),8	713,(96, 1),4	717,(171, 1),76	793,(187, 1),4	797,(127, 1),8	805,(87, 1),4	809,(94, 1),8	817,(109, 1),156	973,(98, 1),32	1005,(27, 1),4	1009,(69, 1),24	1033,(71, 1),8	1041,(133, 1),100	1141,(193, 1),16	1157,(79, 1),56	
292,(118, 3),12	304,(33, 11),4	308,(118, 11),16	324,(118, 18),4	356,(115, 9),4	360,(115, 8),24	652,(118, 16),92	908,(97, 2),200	1220,(115, 15),156	1704,(97, 18),56	

196,(173, 9),8	856,(173, 2),52	
132,(43, 10),4	136,(30, 12),12	148,(178, 8),12	160,(178, 7),24	184,(113, 7),8	192,(30, 4),4	204,(43, 16),4	208,(43, 6),32	240,(30, 5),4	244,(43, 18),16	260,(64, 9),8	268,(64, 20),4	420,(192, 9),4	424,(192, 11),4	428,(192, 7),8	436,(192, 16),8	452,(180, 20),4	484,(194, 17),4	488,(194, 14),20	508,(114, 20),56	564,(180, 4),88	744,(55, 6),112	1108,(113, 15),40	1148,(64, 15),72	1376,(1, 0),4	1380,(114, 5),60	1440,(192, 5),264	1760,(194, 18),1116	
