11380
# CPU
2049,35,4	2053,37,4	2057,68,4	2061,76,4	2093,86,4	2153,93,4	2625,15,4	2629,117,4	2927,36,4	2999,41,4	3003,109,4	3047,96,4	3063,101,4	3209,107,4	3261,44,4	3273,94,4	3287,17,4	3293,79,4	3297,112,4	3347,60,4	3351,13,4	3479,88,4	3823,89,4	3829,113,4	3877,40,4	3899,49,4	3955,75,4	4023,95,4	4231,116,4	4275,38,4	4333,52,4	4359,70,4	4383,77,4	4397,82,4	4413,83,4	4479,16,4	4509,28,4	4545,56,4	4549,57,4	4553,65,4	4557,80,4	4567,81,4	4607,97,4	4635,102,4	4653,104,4	4657,115,4	4671,18,4	4819,27,4	4827,50,4	4831,62,4	4843,64,4	4847,67,4	4883,72,4	4887,91,4	4905,99,4	4925,103,4	4929,118,4	4937,20,4	4945,21,4	4951,26,4	4973,33,4	4977,43,4	4981,51,4	4985,54,4	5065,71,4	5091,108,4	5095,120,4	5099,42,4	5103,58,4	5137,73,4	5157,74,4	5263,85,4	5267,87,4	5279,90,4	5285,106,4	5311,22,4	5327,23,4	5331,24,4	5347,29,4	5355,30,4	5395,34,4	5403,39,4	5407,45,4	5411,48,4	5417,59,4	5421,69,4	5425,78,4	5429,92,4	5433,98,4	5439,119,4	11379,121,1	
0,0,1	1,3,4	5,4,4	9,11,4	13,10,4	17,2,4	
289,1,4	2627,19,4	2981,46,4	3259,63,4	
2037,14,4	3303,114,4	3349,61,4	
2017,12,4	2153,111,4	3003,55,4	
1729,9,4	2999,53,4	4141,110,4	
1441,8,4	2995,47,4	3301,105,4	
1153,7,4	2049,32,4	3277,100,4	
865,6,4	2061,84,4	3209,31,4	
577,5,4	2629,25,4	3261,66,4	
# Incoming
2037,(3, 20),10	2047,(1, 35),2	2049,(1, 37),2	2051,(1, 49),2	2053,(1, 51),2	2055,(1, 68),2	2057,(1, 76),4	2061,(3, 86),32	2093,(3, 101),58	2151,(1, 93),2	2153,(3, 115),402	2555,(3, 116),2	2557,(3, 118),2	2559,(4, 15),66	2625,(1, 96),2	2627,(1, 117),2	2629,(4, 36),298	2927,(4, 38),10	2937,(4, 44),20	2957,(1, 41),42	2999,(1, 109),4	3003,(4, 58),2	3005,(4, 67),36	3041,(4, 73),2	3043,(4, 96),4	3047,(4, 101),16	3063,(11, 17),140	3203,(5, 16),2	3205,(5, 99),2	3207,(5, 107),2	3209,(11, 39),2	3211,(11, 59),36	3247,(1, 44),14	3261,(1, 94),12	3273,(5, 17),14	3287,(5, 79),6	3293,(5, 112),2	3295,(5, 113),8	3303,(10, 13),2	3305,(10, 40),2	3307,(10, 60),40	3347,(6, 13),2	3349,(10, 64),2	3351,(10, 88),128	3479,(10, 89),344	3823,(10, 98),4	3827,(10, 113),2	3829,(2, 22),4	3833,(2, 39),4	3837,(2, 40),40	3877,(2, 49),22	3899,(2, 67),10	3909,(2, 75),46	3955,(2, 83),30	3985,(2, 95),38	4023,(2, 103),116	4139,(1, 116),92	4231,(5, 38),44	4275,(5, 45),32	4307,(5, 52),26	4333,(5, 70),26	4359,(5, 77),24	4383,(5, 82),14	4397,(5, 83),16	4413,(6, 16),66	4479,(6, 23),14	4493,(6, 28),16	4509,(6, 33),32	4541,(6, 42),2	4543,(6, 56),2	4545,(6, 57),2	4547,(6, 65),6	4553,(6, 80),2	4555,(6, 81),12	4567,(6, 97),40	4607,(6, 102),28	4635,(6, 104),18	4653,(6, 115),2	4655,(6, 118),12	4667,(7, 18),4	4671,(7, 23),14	4685,(7, 26),52	4737,(7, 27),82	4819,(7, 50),8	4827,(7, 62),2	4829,(7, 64),14	4843,(7, 67),2	4845,(7, 72),38	4883,(7, 91),2	4885,(7, 99),20	4905,(7, 103),20	4925,(7, 118),2	4927,(8, 20),10	4937,(8, 21),8	4945,(8, 26),6	4951,(8, 33),22	4973,(8, 43),2	4975,(8, 51),2	4977,(8, 54),6	4983,(8, 71),82	5065,(8, 74),2	5067,(8, 92),16	5083,(8, 108),8	5091,(8, 120),2	5093,(9, 42),2	5095,(9, 58),4	5099,(9, 73),38	5137,(9, 74),20	5157,(9, 85),106	5263,(9, 87),4	5267,(9, 90),12	5279,(9, 106),6	5285,(12, 22),26	5311,(12, 23),16	5327,(12, 24),2	5329,(12, 29),18	5347,(12, 30),8	5355,(12, 34),40	5395,(12, 39),8	5403,(12, 45),2	5405,(12, 48),4	5409,(12, 59),8	5417,(12, 69),2	5419,(12, 78),2	5421,(12, 92),2	5423,(12, 98),2	5425,(12, 119),14	5439,(14, 121),330	5769,(32, 121),330	6099,(84, 121),330	6429,(111, 121),330	6759,(19, 121),330	7089,(25, 121),330	7419,(46, 121),330	7749,(47, 121),330	8079,(53, 121),330	8409,(55, 121),330	8739,(31, 121),330	9069,(63, 121),330	9399,(66, 121),330	9729,(100, 121),330	10059,(105, 121),330	10389,(114, 121),330	10719,(61, 121),330	11049,(110, 121),330	

1,(0, 1),288	2625,(4, 19),2	2957,(4, 46),24	3247,(11, 63),12	
2017,(3, 14),20	3301,(11, 114),2	3347,(10, 61),2	
1729,(0, 12),288	2151,(3, 111),2	2999,(4, 55),4	
1441,(0, 9),288	2995,(4, 53),4	4139,(2, 110),2	
1153,(0, 8),288	2981,(4, 47),14	3277,(11, 105),24	
865,(0, 7),288	2047,(3, 32),2	3261,(11, 100),16	
577,(0, 6),288	2049,(3, 84),12	3203,(11, 31),6	
289,(0, 5),288	2627,(4, 25),2	3259,(11, 66),2	
# Outgoing

1,(0, 1),288	289,(0, 5),288	577,(0, 6),288	865,(0, 7),288	1153,(0, 8),288	1441,(0, 9),288	1729,(0, 12),288	2017,(3, 14),20	2037,(3, 20),10	2047,(3, 32),2	2049,(3, 84),12	2061,(3, 86),32	2093,(3, 101),58	2151,(3, 111),2	2153,(3, 115),402	2555,(3, 116),2	2557,(3, 118),2	2559,(4, 15),66	2625,(4, 19),2	2627,(4, 25),2	2629,(4, 36),298	2927,(4, 38),10	2937,(4, 44),20	2957,(4, 46),24	2981,(4, 47),14	2995,(4, 53),4	2999,(4, 55),4	3003,(4, 58),2	3005,(4, 67),36	3041,(4, 73),2	3043,(4, 96),4	3047,(4, 101),16	3063,(11, 17),140	3203,(11, 31),6	3209,(11, 39),2	3211,(11, 59),36	3247,(11, 63),12	3259,(11, 66),2	3261,(11, 100),16	3277,(11, 105),24	3301,(11, 114),2	3303,(10, 13),2	3305,(10, 40),2	3307,(10, 60),40	3347,(10, 61),2	3349,(10, 64),2	3351,(10, 88),128	3479,(10, 89),344	3823,(10, 98),4	3827,(10, 113),2	3829,(2, 22),4	3833,(2, 39),4	3837,(2, 40),40	3877,(2, 49),22	3899,(2, 67),10	3909,(2, 75),46	3955,(2, 83),30	3985,(2, 95),38	4023,(2, 103),116	4139,(2, 110),2	
2047,(1, 35),2	2049,(1, 37),2	2051,(1, 49),2	2053,(1, 51),2	2055,(1, 68),2	2057,(1, 76),4	2151,(1, 93),2	2625,(1, 96),2	2627,(1, 117),2	2957,(1, 41),42	2999,(1, 109),4	3247,(1, 44),14	3261,(1, 94),12	4139,(1, 116),92	6759,(19, 121),330	7419,(46, 121),330	9069,(63, 121),330	
5439,(14, 121),330	10389,(114, 121),330	10719,(61, 121),330	
5285,(12, 22),26	5311,(12, 23),16	5327,(12, 24),2	5329,(12, 29),18	5347,(12, 30),8	5355,(12, 34),40	5395,(12, 39),8	5403,(12, 45),2	5405,(12, 48),4	5409,(12, 59),8	5417,(12, 69),2	5419,(12, 78),2	5421,(12, 92),2	5423,(12, 98),2	5425,(12, 119),14	6429,(111, 121),330	8409,(55, 121),330	
5093,(9, 42),2	5095,(9, 58),4	5099,(9, 73),38	5137,(9, 74),20	5157,(9, 85),106	5263,(9, 87),4	5267,(9, 90),12	5279,(9, 106),6	8079,(53, 121),330	11049,(110, 121),330	
4927,(8, 20),10	4937,(8, 21),8	4945,(8, 26),6	4951,(8, 33),22	4973,(8, 43),2	4975,(8, 51),2	4977,(8, 54),6	4983,(8, 71),82	5065,(8, 74),2	5067,(8, 92),16	5083,(8, 108),8	5091,(8, 120),2	7749,(47, 121),330	10059,(105, 121),330	
4667,(7, 18),4	4671,(7, 23),14	4685,(7, 26),52	4737,(7, 27),82	4819,(7, 50),8	4827,(7, 62),2	4829,(7, 64),14	4843,(7, 67),2	4845,(7, 72),38	4883,(7, 91),2	4885,(7, 99),20	4905,(7, 103),20	4925,(7, 118),2	5769,(32, 121),330	9729,(100, 121),330	
3347,(6, 13),2	4413,(6, 16),66	4479,(6, 23),14	4493,(6, 28),16	4509,(6, 33),32	4541,(6, 42),2	4543,(6, 56),2	4545,(6, 57),2	4547,(6, 65),6	4553,(6, 80),2	4555,(6, 81),12	4567,(6, 97),40	4607,(6, 102),28	4635,(6, 104),18	4653,(6, 115),2	4655,(6, 118),12	6099,(84, 121),330	8739,(31, 121),330	
3203,(5, 16),2	3205,(5, 99),2	3207,(5, 107),2	3273,(5, 17),14	3287,(5, 79),6	3293,(5, 112),2	3295,(5, 113),8	4231,(5, 38),44	4275,(5, 45),32	4307,(5, 52),26	4333,(5, 70),26	4359,(5, 77),24	4383,(5, 82),14	4397,(5, 83),16	7089,(25, 121),330	9399,(66, 121),330	
