1508
# CPU
73,5,1	74,19,1	75,69,1	76,73,1	77,75,1	78,77,1	79,35,1	80,36,1	81,27,1	82,41,1	93,49,1	95,52,1	98,67,1	102,37,1	104,47,1	108,64,1	116,40,1	120,44,1	121,65,1	122,71,1	124,31,1	131,39,1	132,26,1	133,29,1	162,54,1	169,50,1	178,46,1	187,63,1	197,58,1	210,28,1	214,34,1	219,42,1	251,79,1	276,60,1	297,33,1	298,38,1	324,45,1	327,48,1	328,56,1	
55,4,1	56,18,1	57,32,1	59,68,1	66,23,1	70,66,1	80,22,1	109,51,1	111,21,1	112,53,1	113,59,1	127,72,1	128,74,1	194,70,1	195,78,1	225,55,1	233,57,1	247,61,1	255,76,1	256,80,1	296,62,1	
37,3,1	38,43,1	109,8,1	113,16,1	132,24,1	177,30,1	206,20,1	227,25,1	
19,2,1	44,12,1	91,7,1	117,14,1	690,17,1	1507,81,1	
0,0,1	1,1,1	2,6,1	3,15,1	22,9,1	43,11,1	59,10,1	255,13,1	
# Incoming
55,(0, 5),18	73,(2, 19),1	74,(2, 27),1	75,(2, 41),1	76,(2, 49),17	93,(2, 52),2	95,(2, 67),3	98,(3, 37),4	102,(3, 47),2	104,(3, 64),4	108,(4, 40),8	116,(4, 44),4	120,(4, 65),1	121,(4, 71),1	122,(7, 31),2	124,(7, 39),7	131,(8, 26),1	132,(1, 29),1	133,(3, 54),29	162,(7, 50),7	177,(1, 46),1	178,(1, 63),9	187,(7, 58),10	206,(6, 28),4	210,(6, 34),4	214,(6, 42),5	219,(4, 79),32	251,(7, 60),25	296,(8, 33),1	297,(8, 38),1	298,(8, 45),26	324,(8, 48),3	327,(8, 56),1	
37,(0, 4),18	55,(2, 68),4	59,(3, 23),7	66,(3, 66),4	74,(5, 22),6	98,(7, 51),11	110,(8, 21),1	111,(8, 53),1	112,(8, 59),1	113,(8, 72),14	127,(8, 74),1	187,(1, 70),7	194,(1, 78),1	219,(6, 55),6	225,(6, 57),8	233,(6, 61),14	247,(6, 76),8	255,(6, 80),1	256,(3, 62),40	
19,(0, 3),18	91,(0, 8),18	109,(7, 16),4	117,(1, 24),15	133,(1, 30),44	195,(6, 20),11	206,(7, 25),21	
1,(0, 2),18	43,(3, 12),1	73,(0, 7),18	109,(1, 14),8	122,(18, 81),19	141,(32, 81),19	162,(43, 81),19	181,(68, 81),19	200,(23, 81),19	219,(19, 81),19	256,(15, 81),19	275,(9, 81),19	294,(11, 81),19	313,(10, 81),19	332,(66, 81),19	351,(69, 81),19	370,(73, 81),19	389,(75, 81),19	408,(77, 81),19	427,(35, 81),19	446,(22, 81),19	465,(36, 81),19	484,(27, 81),19	503,(41, 81),19	522,(49, 81),19	541,(52, 81),19	560,(67, 81),19	579,(37, 81),19	598,(47, 81),19	617,(64, 81),19	636,(8, 17),54	690,(51, 81),19	709,(21, 81),19	728,(53, 81),19	747,(16, 81),19	766,(59, 81),19	785,(40, 81),19	804,(44, 81),19	823,(65, 81),19	842,(71, 81),19	861,(31, 81),19	880,(72, 81),19	899,(74, 81),19	918,(39, 81),19	937,(26, 81),19	956,(24, 81),19	975,(29, 81),19	994,(54, 81),19	1013,(50, 81),19	1032,(30, 81),19	1051,(46, 81),19	1070,(63, 81),19	1089,(70, 81),19	1108,(78, 81),19	1127,(58, 81),19	1146,(20, 81),19	1165,(28, 81),19	1184,(34, 81),19	1203,(42, 81),19	1222,(55, 81),19	1241,(25, 81),19	1260,(57, 81),19	1279,(61, 81),19	1298,(79, 81),19	1317,(13, 81),19	1336,(76, 81),19	1355,(80, 81),19	1374,(60, 81),19	1393,(62, 81),19	1412,(33, 81),19	1431,(38, 81),19	1450,(45, 81),19	1469,(48, 81),19	1488,(56, 81),19	
20,(2, 9),2	38,(3, 11),5	56,(4, 10),3	181,(8, 13),74	
# Outgoing
74,(5, 22),6	219,(19, 81),19	351,(69, 81),19	370,(73, 81),19	389,(75, 81),19	408,(77, 81),19	427,(35, 81),19	465,(36, 81),19	484,(27, 81),19	503,(41, 81),19	522,(49, 81),19	541,(52, 81),19	560,(67, 81),19	579,(37, 81),19	598,(47, 81),19	617,(64, 81),19	785,(40, 81),19	804,(44, 81),19	823,(65, 81),19	842,(71, 81),19	861,(31, 81),19	918,(39, 81),19	937,(26, 81),19	975,(29, 81),19	994,(54, 81),19	1013,(50, 81),19	1051,(46, 81),19	1070,(63, 81),19	1127,(58, 81),19	1165,(28, 81),19	1184,(34, 81),19	1203,(42, 81),19	1298,(79, 81),19	1374,(60, 81),19	1412,(33, 81),19	1431,(38, 81),19	1450,(45, 81),19	1469,(48, 81),19	1488,(56, 81),19	
56,(4, 10),3	108,(4, 40),8	116,(4, 44),4	120,(4, 65),1	121,(4, 71),1	122,(18, 81),19	141,(32, 81),19	181,(68, 81),19	200,(23, 81),19	219,(4, 79),32	332,(66, 81),19	446,(22, 81),19	690,(51, 81),19	709,(21, 81),19	728,(53, 81),19	766,(59, 81),19	880,(72, 81),19	899,(74, 81),19	1089,(70, 81),19	1108,(78, 81),19	1222,(55, 81),19	1260,(57, 81),19	1279,(61, 81),19	1336,(76, 81),19	1355,(80, 81),19	1393,(62, 81),19	
38,(3, 11),5	43,(3, 12),1	59,(3, 23),7	66,(3, 66),4	98,(3, 37),4	102,(3, 47),2	104,(3, 64),4	110,(8, 21),1	111,(8, 53),1	112,(8, 59),1	113,(8, 72),14	127,(8, 74),1	131,(8, 26),1	133,(3, 54),29	162,(43, 81),19	181,(8, 13),74	256,(3, 62),40	296,(8, 33),1	297,(8, 38),1	298,(8, 45),26	324,(8, 48),3	327,(8, 56),1	636,(8, 17),54	747,(16, 81),19	956,(24, 81),19	1032,(30, 81),19	1146,(20, 81),19	1241,(25, 81),19	
20,(2, 9),2	55,(2, 68),4	73,(2, 19),1	74,(2, 27),1	75,(2, 41),1	76,(2, 49),17	93,(2, 52),2	95,(2, 67),3	98,(7, 51),11	109,(7, 16),4	122,(7, 31),2	124,(7, 39),7	162,(7, 50),7	187,(7, 58),10	206,(7, 25),21	251,(7, 60),25	
1,(0, 2),18	19,(0, 3),18	37,(0, 4),18	55,(0, 5),18	73,(0, 7),18	91,(0, 8),18	109,(1, 14),8	117,(1, 24),15	132,(1, 29),1	133,(1, 30),44	177,(1, 46),1	178,(1, 63),9	187,(1, 70),7	194,(1, 78),1	195,(6, 20),11	206,(6, 28),4	210,(6, 34),4	214,(6, 42),5	219,(6, 55),6	225,(6, 57),8	233,(6, 61),14	247,(6, 76),8	255,(6, 80),1	256,(15, 81),19	275,(9, 81),19	294,(11, 81),19	313,(10, 81),19	1317,(13, 81),19	
