20262
# CPU
105,3,5	209,6,5	225,84,5	313,9,5	349,177,5	417,12,5	521,15,5	526,24,5	531,39,5	536,96,5	541,153,5	625,18,5	893,63,5	937,135,5	2553,48,5	2717,45,5	3789,180,5	4277,72,5	4621,30,5	4781,150,5	4897,75,5	5105,105,5	5225,21,5	5285,111,5	5437,126,5	5445,129,5	5565,141,5	5605,165,5	5765,33,5	5909,66,5	5917,195,5	5961,99,5	5966,81,5	6477,93,5	7049,189,5	7849,108,5	8285,156,5	8405,42,5	8410,54,5	8417,57,5	8453,90,5	8469,102,5	8577,159,5	8582,168,5	8725,171,5	8741,183,5	9289,132,5	9297,198,5	9302,27,5	9309,36,5	9321,144,5	9469,60,5	9501,117,5	9757,78,5	9809,120,5	9821,123,5	9845,138,5	10029,69,5	10081,114,5	10097,192,5	10109,174,5	10145,186,5	10745,162,5	11261,51,5	12937,87,5	12993,147,5	
53,2,5	58,98,5	157,5,5	162,26,5	167,152,5	261,8,5	365,11,5	370,32,5	469,14,5	474,95,5	479,164,5	484,197,5	573,17,5	578,59,5	677,20,5	682,83,5	845,47,5	1949,41,5	2405,77,5	2417,29,5	2657,185,5	2721,128,5	3065,149,5	3089,161,5	3105,173,5	4065,200,5	4917,86,5	5281,92,5	5789,38,5	5949,71,5	6121,89,5	6165,122,5	6869,155,5	7325,50,5	7341,62,5	7805,104,5	7865,110,5	7917,143,5	7985,170,5	7990,23,5	7995,35,5	8245,125,5	8269,137,5	8373,179,5	8413,56,5	8421,65,5	8426,74,5	8485,107,5	8505,134,5	8933,188,5	9057,191,5	9293,194,5	9329,53,5	9493,68,5	9501,80,5	9533,101,5	9605,113,5	9705,116,5	9765,119,5	9833,131,5	9877,140,5	9941,146,5	9957,158,5	10101,167,5	10113,176,5	10125,182,5	11873,44,5	
0,0,1	1,10,5	6,16,5	11,19,5	16,13,5	21,1,5	26,4,5	31,7,5	36,112,5	41,175,5	46,49,5	51,139,5	145,61,5	205,64,5	210,145,5	317,160,5	617,28,5	645,55,5	757,148,5	765,169,5	1341,52,5	1441,37,5	1525,40,5	2173,76,5	2417,187,5	2453,106,5	2465,109,5	2685,88,5	2721,115,5	2917,118,5	3041,142,5	3233,46,5	3373,70,5	3421,97,5	3441,100,5	3513,127,5	3518,178,5	3533,196,5	3589,43,5	3594,121,5	3599,133,5	3681,163,5	3686,79,5	3941,172,5	4065,166,5	4169,184,5	4174,22,5	4179,34,5	4184,58,5	4189,91,5	4569,151,5	4901,94,5	4906,124,5	4917,67,5	5189,25,5	5237,154,5	5405,190,5	6457,193,5	8881,136,5	8905,73,5	8981,85,5	9337,103,5	9342,31,5	9369,82,5	9425,130,5	9829,181,5	12789,157,5	13117,199,5	20261,201,1	
# Incoming
53,(0, 3),52	105,(2, 21),4	109,(2, 57),16	145,(2, 72),12	157,(0, 6),52	209,(2, 84),16	261,(0, 9),52	317,(2, 177),32	365,(0, 12),52	469,(0, 15),52	557,(2, 189),4	573,(0, 18),52	625,(2, 198),28	653,(5, 60),24	677,(10, 30),20	697,(2, 159),68	841,(5, 126),4	845,(10, 60),32	877,(5, 63),16	893,(5, 90),12	905,(5, 120),24	929,(5, 135),8	937,(10, 75),1460	2397,(10, 81),28	2425,(5, 33),116	2541,(5, 147),4	2545,(5, 195),4	2549,(8, 48),4	2553,(8, 129),4	2557,(8, 138),4	2561,(11, 30),4	2565,(10, 90),4	2569,(5, 141),40	2613,(10, 120),80	2693,(10, 126),8	2701,(11, 45),16	2717,(11, 75),4	2721,(10, 138),1032	3753,(11, 93),8	3761,(11, 102),4	3765,(10, 180),24	3789,(10, 192),272	4061,(11, 105),4	4065,(16, 27),12	4077,(16, 33),84	4161,(16, 36),8	4169,(11, 108),8	4177,(11, 114),4	4181,(11, 129),4	4185,(16, 72),92	4277,(2, 30),344	4621,(2, 150),160	4781,(5, 111),52	4833,(8, 60),52	4885,(14, 75),12	4897,(14, 105),4	4901,(14, 126),4	4909,(17, 51),4	4917,(16, 90),16	4933,(8, 87),120	5053,(8, 105),52	5105,(11, 21),120	5225,(11, 99),48	5281,(16, 111),4	5293,(16, 126),144	5437,(16, 129),8	5445,(16, 141),120	5565,(17, 123),4	5569,(17, 138),4	5573,(17, 144),4	5577,(17, 162),16	5593,(17, 168),8	5601,(16, 165),4	5605,(16, 183),52	5657,(19, 27),16	5673,(19, 33),92	5765,(17, 192),28	5793,(19, 66),116	5909,(17, 195),8	5917,(20, 42),28	5949,(19, 78),4	5953,(20, 99),8	5961,(19, 81),4	5965,(14, 168),140	6105,(17, 36),56	6165,(19, 123),52	6217,(8, 93),260	6477,(8, 123),252	6869,(19, 183),40	6909,(19, 189),140	7073,(13, 27),244	7585,(13, 69),4	7837,(13, 108),12	8245,(1, 132),20	8269,(1, 156),16	8285,(1, 171),72	8357,(1, 174),8	8377,(4, 42),28	8405,(4, 54),4	8413,(4, 57),4	8425,(4, 90),28	8453,(4, 102),16	8485,(4, 117),4	8505,(4, 159),72	8577,(4, 168),4	8581,(4, 171),144	8725,(4, 183),16	8741,(4, 186),188	9057,(4, 192),220	9277,(20, 132),12	9293,(4, 198),4	9297,(7, 27),4	9301,(7, 36),8	9309,(20, 144),12	9329,(7, 60),140	9469,(20, 117),32	9501,(7, 87),20	9521,(14, 78),236	9765,(7, 120),44	9809,(7, 123),12	9833,(7, 138),12	9845,(17, 69),184	10029,(20, 114),52	10081,(20, 192),16	10101,(7, 174),8	10125,(7, 186),20	10145,(8, 162),600	10745,(11, 51),516	12789,(17, 87),148	12937,(20, 147),56	
1,(0, 2),52	105,(0, 5),52	157,(3, 23),4	161,(3, 50),32	193,(3, 86),4	197,(3, 128),4	209,(0, 8),52	261,(3, 146),8	269,(3, 158),4	273,(3, 179),12	285,(6, 71),8	293,(6, 80),4	297,(6, 83),8	305,(6, 104),4	309,(6, 119),4	313,(0, 11),52	365,(6, 68),40	405,(6, 128),4	409,(9, 92),4	413,(9, 167),4	417,(0, 14),52	469,(6, 173),44	513,(9, 200),8	521,(0, 17),52	573,(12, 68),8	581,(12, 71),4	585,(12, 125),4	589,(12, 170),4	593,(15, 80),4	625,(0, 20),52	697,(10, 47),148	877,(10, 71),60	1341,(3, 89),80	1421,(3, 131),128	1781,(6, 179),44	1825,(6, 191),76	1901,(9, 41),48	1949,(12, 191),60	2009,(12, 200),32	2041,(15, 101),4	2121,(9, 77),284	2405,(15, 29),12	2425,(10, 89),140	2569,(10, 104),44	2613,(15, 68),32	2645,(15, 179),8	2653,(15, 185),4	2657,(18, 50),8	2665,(18, 92),4	2669,(18, 140),4	2701,(10, 128),20	2721,(15, 116),44	2765,(15, 194),232	2997,(18, 113),24	3021,(18, 125),8	3029,(18, 149),36	3065,(18, 155),20	3085,(18, 161),4	3089,(18, 173),16	3533,(18, 158),148	3753,(10, 140),4	3757,(10, 155),8	3765,(18, 68),208	4061,(10, 200),4	4169,(16, 68),16	4277,(16, 86),640	4933,(16, 92),348	5285,(16, 119),8	5565,(16, 155),36	5765,(19, 38),24	5789,(19, 56),4	5909,(19, 71),40	5953,(19, 80),8	5965,(19, 89),156	6121,(19, 107),40	6161,(19, 122),4	6217,(19, 131),616	6833,(19, 155),36	7049,(19, 194),24	7317,(13, 50),8	7325,(13, 62),16	7341,(13, 65),244	7589,(13, 104),216	7805,(13, 107),32	7849,(13, 110),16	7865,(13, 143),52	7917,(13, 167),64	7981,(13, 170),4	7985,(1, 23),4	7989,(1, 35),4	7993,(1, 56),240	8233,(1, 125),12	8265,(1, 137),4	8365,(1, 179),8	8373,(1, 191),4	8409,(4, 56),4	8417,(4, 65),4	8421,(4, 74),4	8469,(4, 107),16	8489,(4, 134),16	8929,(4, 188),4	8933,(4, 191),124	9277,(4, 194),16	9309,(7, 53),20	9469,(7, 68),24	9493,(7, 80),8	9521,(7, 101),12	9533,(7, 113),72	9605,(7, 116),100	9705,(7, 119),60	9821,(7, 131),12	9845,(7, 140),32	9877,(7, 146),64	9941,(7, 158),16	9957,(7, 167),144	10109,(7, 176),4	10113,(7, 182),12	10125,(6, 44),1748	
125,(2, 61),20	157,(2, 97),24	181,(2, 163),4	185,(2, 181),16	201,(3, 64),4	205,(3, 145),4	209,(3, 154),4	214,(6, 37),4	218,(6, 67),4	225,(2, 160),92	317,(3, 130),28	345,(9, 40),4	349,(2, 184),208	557,(9, 91),4	561,(5, 25),8	569,(5, 121),4	573,(5, 166),4	577,(5, 187),20	597,(6, 28),20	617,(6, 40),8	625,(6, 55),20	645,(6, 70),8	653,(6, 127),68	721,(6, 148),36	757,(9, 94),4	761,(9, 169),4	765,(98, 201),76	841,(3, 52),500	1341,(5, 37),100	1441,(26, 201),76	1517,(8, 25),4	1521,(8, 40),4	1525,(8, 100),12	1537,(8, 178),4	1541,(11, 85),4	1545,(11, 136),4	1549,(3, 184),232	1781,(5, 118),188	1969,(152, 201),76	2045,(84, 201),76	2121,(8, 76),52	2173,(8, 142),204	2377,(8, 187),40	2417,(9, 97),12	2429,(9, 106),24	2453,(9, 109),12	2465,(9, 133),64	2529,(177, 201),76	2605,(12, 22),4	2609,(8, 172),64	2673,(12, 25),8	2681,(12, 88),4	2685,(12, 94),32	2717,(12, 115),4	2721,(11, 118),196	2917,(11, 121),80	2997,(11, 142),44	3041,(32, 201),76	3117,(12, 46),116	3233,(12, 70),140	3373,(12, 97),48	3421,(12, 100),20	3441,(12, 127),72	3513,(12, 178),4	3517,(12, 193),12	3529,(12, 196),4	3533,(14, 43),56	3589,(14, 121),4	3593,(14, 133),4	3597,(14, 163),84	3681,(15, 79),4	3685,(15, 157),80	3765,(14, 172),176	3941,(14, 181),100	4041,(15, 166),24	4065,(95, 201),76	4141,(15, 184),28	4169,(18, 22),4	4173,(18, 34),4	4177,(18, 58),4	4181,(18, 91),4	4185,(164, 201),76	4261,(15, 151),308	4569,(24, 201),76	4645,(39, 201),76	4721,(96, 201),76	4797,(153, 201),76	4873,(18, 94),28	4901,(18, 124),4	4905,(17, 31),4	4913,(17, 67),4	4917,(18, 25),272	5189,(18, 154),48	5273,(14, 190),132	5405,(197, 201),76	5481,(15, 193),976	6457,(63, 201),76	6533,(135, 201),76	6609,(48, 201),76	6729,(8, 136),2152	8881,(17, 73),24	8905,(17, 85),76	8981,(59, 201),76	9057,(18, 103),280	9337,(20, 31),4	9341,(20, 82),28	9369,(20, 130),56	9425,(45, 201),76	9501,(180, 201),76	9577,(72, 201),76	9653,(30, 201),76	9757,(20, 181),72	9829,(150, 201),76	9905,(75, 201),76	9981,(105, 201),76	11261,(11, 157),1528	12789,(21, 201),76	12865,(111, 201),76	12993,(20, 199),124	13117,(83, 201),76	13193,(47, 201),76	13269,(41, 201),76	13345,(77, 201),76	13421,(29, 201),76	13497,(185, 201),76	13573,(128, 201),76	13649,(149, 201),76	13725,(161, 201),76	13801,(173, 201),76	13877,(200, 201),76	13953,(86, 201),76	14029,(92, 201),76	14105,(126, 201),76	14181,(129, 201),76	14257,(141, 201),76	14333,(165, 201),76	14409,(33, 201),76	14485,(38, 201),76	14561,(66, 201),76	14637,(195, 201),76	14713,(71, 201),76	14789,(99, 201),76	14865,(81, 201),76	14941,(89, 201),76	15017,(122, 201),76	15093,(93, 201),76	15169,(155, 201),76	15245,(189, 201),76	15321,(50, 201),76	15397,(62, 201),76	15473,(104, 201),76	15549,(108, 201),76	15625,(110, 201),76	15701,(143, 201),76	15777,(170, 201),76	15853,(23, 201),76	15929,(35, 201),76	16005,(125, 201),76	16081,(137, 201),76	16157,(156, 201),76	16233,(179, 201),76	16309,(42, 201),76	16385,(54, 201),76	16461,(56, 201),76	16537,(57, 201),76	16613,(65, 201),76	16689,(74, 201),76	16765,(90, 201),76	16841,(102, 201),76	16917,(107, 201),76	16993,(134, 201),76	17069,(159, 201),76	17145,(168, 201),76	17221,(171, 201),76	17297,(183, 201),76	17373,(188, 201),76	17449,(191, 201),76	17525,(132, 201),76	17601,(194, 201),76	17677,(198, 201),76	17753,(27, 201),76	17829,(36, 201),76	17905,(144, 201),76	17981,(53, 201),76	18057,(60, 201),76	18133,(68, 201),76	18209,(117, 201),76	18285,(80, 201),76	18361,(101, 201),76	18437,(113, 201),76	18513,(116, 201),76	18589,(78, 201),76	18665,(119, 201),76	18741,(120, 201),76	18817,(123, 201),76	18893,(131, 201),76	18969,(138, 201),76	19045,(140, 201),76	19121,(146, 201),76	19197,(158, 201),76	19273,(69, 201),76	19349,(114, 201),76	19425,(192, 201),76	19501,(167, 201),76	19577,(174, 201),76	19653,(176, 201),76	19729,(182, 201),76	19805,(186, 201),76	19881,(162, 201),76	19957,(51, 201),76	20033,(44, 201),76	20109,(87, 201),76	20185,(147, 201),76	
# Outgoing
157,(3, 23),4	161,(3, 50),32	193,(3, 86),4	197,(3, 128),4	201,(3, 64),4	205,(3, 145),4	209,(3, 154),4	214,(6, 37),4	218,(6, 67),4	261,(3, 146),8	269,(3, 158),4	273,(3, 179),12	285,(6, 71),8	293,(6, 80),4	297,(6, 83),8	305,(6, 104),4	309,(6, 119),4	317,(3, 130),28	345,(9, 40),4	365,(6, 68),40	405,(6, 128),4	409,(9, 92),4	413,(9, 167),4	469,(6, 173),44	513,(9, 200),8	557,(9, 91),4	573,(12, 68),8	581,(12, 71),4	585,(12, 125),4	589,(12, 170),4	593,(15, 80),4	597,(6, 28),20	617,(6, 40),8	625,(6, 55),20	645,(6, 70),8	653,(6, 127),68	721,(6, 148),36	757,(9, 94),4	761,(9, 169),4	841,(3, 52),500	1341,(3, 89),80	1421,(3, 131),128	1549,(3, 184),232	1781,(6, 179),44	1825,(6, 191),76	1901,(9, 41),48	1949,(12, 191),60	2009,(12, 200),32	2041,(15, 101),4	2045,(84, 201),76	2121,(9, 77),284	2405,(15, 29),12	2417,(9, 97),12	2429,(9, 106),24	2453,(9, 109),12	2465,(9, 133),64	2529,(177, 201),76	2605,(12, 22),4	2613,(15, 68),32	2645,(15, 179),8	2653,(15, 185),4	2657,(18, 50),8	2665,(18, 92),4	2669,(18, 140),4	2673,(12, 25),8	2681,(12, 88),4	2685,(12, 94),32	2717,(12, 115),4	2721,(15, 116),44	2765,(15, 194),232	2997,(18, 113),24	3021,(18, 125),8	3029,(18, 149),36	3065,(18, 155),20	3085,(18, 161),4	3089,(18, 173),16	3117,(12, 46),116	3233,(12, 70),140	3373,(12, 97),48	3421,(12, 100),20	3441,(12, 127),72	3513,(12, 178),4	3517,(12, 193),12	3529,(12, 196),4	3533,(18, 158),148	3681,(15, 79),4	3685,(15, 157),80	3765,(18, 68),208	4041,(15, 166),24	4141,(15, 184),28	4169,(18, 22),4	4173,(18, 34),4	4177,(18, 58),4	4181,(18, 91),4	4261,(15, 151),308	4569,(24, 201),76	4645,(39, 201),76	4721,(96, 201),76	4797,(153, 201),76	4873,(18, 94),28	4901,(18, 124),4	4917,(18, 25),272	5189,(18, 154),48	5481,(15, 193),976	6457,(63, 201),76	6533,(135, 201),76	6609,(48, 201),76	9057,(18, 103),280	9425,(45, 201),76	9501,(180, 201),76	9577,(72, 201),76	9653,(30, 201),76	9829,(150, 201),76	9905,(75, 201),76	9981,(105, 201),76	10125,(6, 44),1748	12789,(21, 201),76	12865,(111, 201),76	14105,(126, 201),76	14181,(129, 201),76	14257,(141, 201),76	14333,(165, 201),76	14409,(33, 201),76	14561,(66, 201),76	14637,(195, 201),76	14789,(99, 201),76	14865,(81, 201),76	15093,(93, 201),76	15245,(189, 201),76	15549,(108, 201),76	16157,(156, 201),76	16309,(42, 201),76	16385,(54, 201),76	16537,(57, 201),76	16765,(90, 201),76	16841,(102, 201),76	17069,(159, 201),76	17145,(168, 201),76	17221,(171, 201),76	17297,(183, 201),76	17525,(132, 201),76	17677,(198, 201),76	17753,(27, 201),76	17829,(36, 201),76	17905,(144, 201),76	18057,(60, 201),76	18209,(117, 201),76	18589,(78, 201),76	18741,(120, 201),76	18817,(123, 201),76	18969,(138, 201),76	19273,(69, 201),76	19349,(114, 201),76	19425,(192, 201),76	19577,(174, 201),76	19805,(186, 201),76	19881,(162, 201),76	19957,(51, 201),76	20109,(87, 201),76	20185,(147, 201),76	
105,(2, 21),4	109,(2, 57),16	125,(2, 61),20	145,(2, 72),12	157,(2, 97),24	181,(2, 163),4	185,(2, 181),16	209,(2, 84),16	225,(2, 160),92	317,(2, 177),32	349,(2, 184),208	557,(2, 189),4	561,(5, 25),8	569,(5, 121),4	573,(5, 166),4	577,(5, 187),20	625,(2, 198),28	653,(5, 60),24	697,(2, 159),68	765,(98, 201),76	841,(5, 126),4	877,(5, 63),16	893,(5, 90),12	905,(5, 120),24	929,(5, 135),8	1341,(5, 37),100	1441,(26, 201),76	1517,(8, 25),4	1521,(8, 40),4	1525,(8, 100),12	1537,(8, 178),4	1541,(11, 85),4	1545,(11, 136),4	1781,(5, 118),188	1969,(152, 201),76	2121,(8, 76),52	2173,(8, 142),204	2377,(8, 187),40	2425,(5, 33),116	2541,(5, 147),4	2545,(5, 195),4	2549,(8, 48),4	2553,(8, 129),4	2557,(8, 138),4	2561,(11, 30),4	2569,(5, 141),40	2609,(8, 172),64	2701,(11, 45),16	2717,(11, 75),4	2721,(11, 118),196	2917,(11, 121),80	2997,(11, 142),44	3041,(32, 201),76	3533,(14, 43),56	3589,(14, 121),4	3593,(14, 133),4	3597,(14, 163),84	3753,(11, 93),8	3761,(11, 102),4	3765,(14, 172),176	3941,(14, 181),100	4061,(11, 105),4	4065,(95, 201),76	4169,(11, 108),8	4177,(11, 114),4	4181,(11, 129),4	4185,(164, 201),76	4277,(2, 30),344	4621,(2, 150),160	4781,(5, 111),52	4833,(8, 60),52	4885,(14, 75),12	4897,(14, 105),4	4901,(14, 126),4	4905,(17, 31),4	4909,(17, 51),4	4913,(17, 67),4	4933,(8, 87),120	5053,(8, 105),52	5105,(11, 21),120	5225,(11, 99),48	5273,(14, 190),132	5405,(197, 201),76	5565,(17, 123),4	5569,(17, 138),4	5573,(17, 144),4	5577,(17, 162),16	5593,(17, 168),8	5765,(17, 192),28	5909,(17, 195),8	5917,(20, 42),28	5953,(20, 99),8	5965,(14, 168),140	6105,(17, 36),56	6217,(8, 93),260	6477,(8, 123),252	6729,(8, 136),2152	8881,(17, 73),24	8905,(17, 85),76	8981,(59, 201),76	9277,(20, 132),12	9309,(20, 144),12	9337,(20, 31),4	9341,(20, 82),28	9369,(20, 130),56	9469,(20, 117),32	9521,(14, 78),236	9757,(20, 181),72	9845,(17, 69),184	10029,(20, 114),52	10081,(20, 192),16	10145,(8, 162),600	10745,(11, 51),516	11261,(11, 157),1528	12789,(17, 87),148	12937,(20, 147),56	12993,(20, 199),124	13117,(83, 201),76	13193,(47, 201),76	13269,(41, 201),76	13345,(77, 201),76	13421,(29, 201),76	13497,(185, 201),76	13573,(128, 201),76	13649,(149, 201),76	13725,(161, 201),76	13801,(173, 201),76	13877,(200, 201),76	13953,(86, 201),76	14029,(92, 201),76	14485,(38, 201),76	14713,(71, 201),76	14941,(89, 201),76	15017,(122, 201),76	15169,(155, 201),76	15321,(50, 201),76	15397,(62, 201),76	15473,(104, 201),76	15625,(110, 201),76	15701,(143, 201),76	15777,(170, 201),76	15853,(23, 201),76	15929,(35, 201),76	16005,(125, 201),76	16081,(137, 201),76	16233,(179, 201),76	16461,(56, 201),76	16613,(65, 201),76	16689,(74, 201),76	16917,(107, 201),76	16993,(134, 201),76	17373,(188, 201),76	17449,(191, 201),76	17601,(194, 201),76	17981,(53, 201),76	18133,(68, 201),76	18285,(80, 201),76	18361,(101, 201),76	18437,(113, 201),76	18513,(116, 201),76	18665,(119, 201),76	18893,(131, 201),76	19045,(140, 201),76	19121,(146, 201),76	19197,(158, 201),76	19501,(167, 201),76	19653,(176, 201),76	19729,(182, 201),76	20033,(44, 201),76	
1,(0, 2),52	53,(0, 3),52	105,(0, 5),52	157,(0, 6),52	209,(0, 8),52	261,(0, 9),52	313,(0, 11),52	365,(0, 12),52	417,(0, 14),52	469,(0, 15),52	521,(0, 17),52	573,(0, 18),52	625,(0, 20),52	677,(10, 30),20	697,(10, 47),148	845,(10, 60),32	877,(10, 71),60	937,(10, 75),1460	2397,(10, 81),28	2425,(10, 89),140	2565,(10, 90),4	2569,(10, 104),44	2613,(10, 120),80	2693,(10, 126),8	2701,(10, 128),20	2721,(10, 138),1032	3753,(10, 140),4	3757,(10, 155),8	3765,(10, 180),24	3789,(10, 192),272	4061,(10, 200),4	4065,(16, 27),12	4077,(16, 33),84	4161,(16, 36),8	4169,(16, 68),16	4185,(16, 72),92	4277,(16, 86),640	4917,(16, 90),16	4933,(16, 92),348	5281,(16, 111),4	5285,(16, 119),8	5293,(16, 126),144	5437,(16, 129),8	5445,(16, 141),120	5565,(16, 155),36	5601,(16, 165),4	5605,(16, 183),52	5657,(19, 27),16	5673,(19, 33),92	5765,(19, 38),24	5789,(19, 56),4	5793,(19, 66),116	5909,(19, 71),40	5949,(19, 78),4	5953,(19, 80),8	5961,(19, 81),4	5965,(19, 89),156	6121,(19, 107),40	6161,(19, 122),4	6165,(19, 123),52	6217,(19, 131),616	6833,(19, 155),36	6869,(19, 183),40	6909,(19, 189),140	7049,(19, 194),24	7073,(13, 27),244	7317,(13, 50),8	7325,(13, 62),16	7341,(13, 65),244	7585,(13, 69),4	7589,(13, 104),216	7805,(13, 107),32	7837,(13, 108),12	7849,(13, 110),16	7865,(13, 143),52	7917,(13, 167),64	7981,(13, 170),4	7985,(1, 23),4	7989,(1, 35),4	7993,(1, 56),240	8233,(1, 125),12	8245,(1, 132),20	8265,(1, 137),4	8269,(1, 156),16	8285,(1, 171),72	8357,(1, 174),8	8365,(1, 179),8	8373,(1, 191),4	8377,(4, 42),28	8405,(4, 54),4	8409,(4, 56),4	8413,(4, 57),4	8417,(4, 65),4	8421,(4, 74),4	8425,(4, 90),28	8453,(4, 102),16	8469,(4, 107),16	8485,(4, 117),4	8489,(4, 134),16	8505,(4, 159),72	8577,(4, 168),4	8581,(4, 171),144	8725,(4, 183),16	8741,(4, 186),188	8929,(4, 188),4	8933,(4, 191),124	9057,(4, 192),220	9277,(4, 194),16	9293,(4, 198),4	9297,(7, 27),4	9301,(7, 36),8	9309,(7, 53),20	9329,(7, 60),140	9469,(7, 68),24	9493,(7, 80),8	9501,(7, 87),20	9521,(7, 101),12	9533,(7, 113),72	9605,(7, 116),100	9705,(7, 119),60	9765,(7, 120),44	9809,(7, 123),12	9821,(7, 131),12	9833,(7, 138),12	9845,(7, 140),32	9877,(7, 146),64	9941,(7, 158),16	9957,(7, 167),144	10101,(7, 174),8	10109,(7, 176),4	10113,(7, 182),12	10125,(7, 186),20	
