121
# CPU
0,0,1	1,2,1	2,11,1	3,6,1	4,3,1	5,1,1	6,85,1	7,5,1	8,8,1	9,22,1	10,49,1	11,7,1	12,60,1	13,119,1	14,4,1	15,73,1	16,47,1	17,17,1	18,106,1	19,30,1	20,10,1	21,104,1	22,107,1	23,80,1	24,92,1	25,65,1	26,82,1	27,63,1	28,57,1	29,102,1	30,58,1	31,12,1	32,54,1	33,23,1	34,118,1	35,96,1	36,77,1	37,84,1	38,64,1	39,114,1	40,94,1	41,113,1	42,71,1	43,26,1	44,45,1	45,72,1	46,55,1	47,14,1	48,59,1	49,31,1	50,95,1	51,35,1	52,90,1	53,36,1	54,44,1	55,86,1	56,79,1	57,15,1	58,99,1	59,28,1	60,56,1	61,37,1	62,13,1	63,34,1	64,9,1	65,116,1	66,93,1	67,19,1	68,103,1	69,42,1	70,120,1	71,66,1	72,100,1	73,87,1	74,97,1	75,27,1	76,16,1	77,75,1	78,40,1	79,48,1	80,33,1	81,88,1	82,41,1	83,51,1	84,70,1	85,110,1	86,67,1	87,43,1	88,112,1	89,98,1	90,111,1	91,78,1	92,18,1	93,39,1	94,81,1	95,91,1	96,46,1	97,108,1	98,25,1	99,38,1	100,83,1	101,20,1	102,105,1	103,61,1	104,29,1	105,115,1	106,53,1	107,21,1	108,69,1	109,32,1	110,50,1	111,74,1	112,109,1	113,117,1	114,52,1	115,24,1	116,101,1	117,62,1	118,68,1	119,76,1	120,121,1	
67,89,1	


# Incoming
68,(89, 121),4	
6,(1, 89),2	8,(5, 89),28	36,(4, 89),2	38,(10, 89),6	65,(9, 89),2	


# Outgoing
6,(1, 89),2	8,(5, 89),28	36,(4, 89),2	38,(10, 89),6	65,(9, 89),2	
68,(89, 121),4	


