3998
# CPU
97,3,6	103,22,6	109,25,6	115,54,6	121,113,6	127,39,6	133,43,6	139,46,6	145,51,6	151,77,6	193,6,6	199,18,6	205,50,6	211,93,6	217,109,6	223,56,6	229,62,6	235,69,6	241,115,6	289,9,6	295,23,6	301,38,6	307,48,6	313,55,6	319,64,6	337,59,6	385,12,6	391,57,6	397,30,6	403,99,6	409,73,6	415,85,6	421,16,6	427,60,6	478,67,6	622,79,6	628,81,6	634,87,6	670,61,6	718,71,6	739,53,6	754,28,6	760,49,6	766,111,6	865,117,6	907,119,6	916,47,6	922,58,6	931,33,6	946,65,6	964,41,6	1054,52,6	1150,91,6	1156,95,6	1177,103,6	1207,21,6	1231,101,6	1246,45,6	1252,63,6	1258,75,6	1264,83,6	1294,89,6	1300,97,6	1312,105,6	1330,107,6	1753,42,6	1807,44,6	
49,2,6	55,17,6	61,27,6	67,74,6	73,82,6	79,98,6	145,5,6	151,94,6	157,32,6	163,92,6	175,116,6	241,8,6	247,88,6	337,11,6	343,20,6	349,80,6	382,114,6	394,15,6	499,66,6	550,108,6	655,110,6	664,68,6	670,70,6	703,36,6	715,106,6	757,78,6	868,118,6	910,120,6	916,24,6	958,37,6	1057,72,6	1063,76,6	1069,84,6	1084,86,6	1234,29,6	1297,96,6	1303,100,6	1309,104,6	1417,112,6	2470,90,6	2767,102,6	3997,121,1	
0,0,1	1,4,6	7,10,6	13,7,6	19,1,6	25,26,6	31,13,6	256,19,6	286,31,6	328,14,6	652,34,6	1363,35,6	2419,40,6	
# Incoming
49,(0, 3),48	97,(2, 51),9	106,(2, 65),12	118,(2, 77),3	121,(2, 95),15	145,(0, 6),48	193,(2, 115),12	241,(0, 9),48	289,(2, 117),45	334,(8, 59),3	337,(0, 12),48	385,(5, 57),6	391,(11, 16),3	394,(4, 60),21	415,(4, 67),63	478,(4, 79),144	622,(4, 81),3	625,(4, 87),3	628,(5, 105),36	664,(8, 61),6	670,(10, 71),48	718,(8, 53),21	739,(8, 75),12	751,(11, 28),3	754,(11, 49),3	757,(10, 111),6	763,(10, 117),102	865,(10, 119),42	907,(11, 47),9	916,(11, 58),6	925,(7, 33),6	931,(11, 65),15	958,(7, 41),6	964,(7, 45),21	985,(7, 52),69	1054,(11, 97),15	1084,(7, 91),66	1150,(7, 95),6	1174,(7, 103),3	1177,(1, 21),30	1207,(11, 101),24	1234,(1, 45),12	1246,(1, 63),3	1249,(1, 75),3	1252,(1, 83),12	1264,(1, 89),30	1297,(1, 97),3	1309,(1, 105),3	1312,(1, 107),18	1330,(5, 42),423	1753,(11, 44),54	
1,(0, 2),48	97,(0, 5),48	145,(3, 94),3	148,(3, 116),27	193,(0, 8),48	241,(22, 121),30	289,(0, 11),48	337,(25, 121),30	367,(6, 120),9	376,(9, 29),3	379,(9, 114),3	385,(4, 15),9	394,(3, 66),105	499,(3, 108),51	550,(54, 121),30	580,(113, 121),30	610,(9, 102),15	628,(4, 110),27	655,(10, 68),9	664,(10, 70),6	670,(39, 121),30	700,(12, 36),3	703,(12, 106),12	715,(12, 112),3	718,(10, 78),39	757,(3, 118),111	868,(43, 121),30	907,(10, 120),3	910,(7, 24),3	913,(7, 29),12	931,(7, 37),27	958,(46, 121),30	988,(51, 121),30	1018,(77, 121),30	1054,(7, 72),3	1057,(7, 76),3	1060,(7, 84),6	1066,(7, 86),18	1156,(7, 100),18	1207,(1, 29),27	1294,(1, 96),3	1300,(1, 100),3	1303,(1, 104),6	1330,(26, 121),30	1360,(13, 121),30	1390,(6, 112),27	1417,(18, 121),30	1447,(50, 121),30	1477,(93, 121),30	1507,(109, 121),30	1537,(56, 121),30	1567,(62, 121),30	1597,(69, 121),30	1627,(115, 121),30	1657,(19, 121),30	1687,(31, 121),30	1717,(23, 121),30	1747,(38, 121),30	1777,(48, 121),30	1807,(55, 121),30	1837,(64, 121),30	1867,(14, 121),30	1897,(59, 121),30	1927,(34, 121),30	1957,(35, 121),30	2419,(12, 90),51	2470,(12, 102),297	2767,(57, 121),30	2797,(30, 121),30	2827,(99, 121),30	2857,(73, 121),30	2887,(85, 121),30	2917,(16, 121),30	2947,(60, 121),30	2977,(67, 121),30	3007,(79, 121),30	3037,(81, 121),30	3067,(87, 121),30	3097,(61, 121),30	3127,(71, 121),30	3157,(53, 121),30	3187,(28, 121),30	3217,(49, 121),30	3247,(111, 121),30	3277,(117, 121),30	3307,(119, 121),30	3337,(47, 121),30	3367,(58, 121),30	3397,(33, 121),30	3427,(65, 121),30	3457,(41, 121),30	3487,(52, 121),30	3517,(91, 121),30	3547,(95, 121),30	3577,(103, 121),30	3607,(21, 121),30	3637,(101, 121),30	3667,(45, 121),30	3697,(63, 121),30	3727,(75, 121),30	3757,(83, 121),30	3787,(89, 121),30	3817,(97, 121),30	3847,(105, 121),30	3877,(107, 121),30	3907,(42, 121),30	3937,(44, 121),30	3967,(40, 121),30	
103,(3, 19),36	205,(5, 19),51	271,(6, 31),15	295,(9, 14),33	343,(11, 34),15	625,(12, 34),27	1048,(6, 35),315	1927,(12, 40),492	
# Outgoing
103,(3, 19),36	145,(3, 94),3	148,(3, 116),27	241,(22, 121),30	271,(6, 31),15	295,(9, 14),33	337,(25, 121),30	367,(6, 120),9	376,(9, 29),3	379,(9, 114),3	394,(3, 66),105	499,(3, 108),51	550,(54, 121),30	580,(113, 121),30	610,(9, 102),15	625,(12, 34),27	670,(39, 121),30	700,(12, 36),3	703,(12, 106),12	715,(12, 112),3	757,(3, 118),111	868,(43, 121),30	958,(46, 121),30	988,(51, 121),30	1018,(77, 121),30	1048,(6, 35),315	1390,(6, 112),27	1417,(18, 121),30	1447,(50, 121),30	1477,(93, 121),30	1507,(109, 121),30	1537,(56, 121),30	1567,(62, 121),30	1597,(69, 121),30	1627,(115, 121),30	1717,(23, 121),30	1747,(38, 121),30	1777,(48, 121),30	1807,(55, 121),30	1837,(64, 121),30	1897,(59, 121),30	1927,(12, 40),492	2419,(12, 90),51	2470,(12, 102),297	2767,(57, 121),30	2797,(30, 121),30	2827,(99, 121),30	2857,(73, 121),30	2887,(85, 121),30	2917,(16, 121),30	2947,(60, 121),30	2977,(67, 121),30	3007,(79, 121),30	3037,(81, 121),30	3067,(87, 121),30	3097,(61, 121),30	3127,(71, 121),30	3157,(53, 121),30	3187,(28, 121),30	3217,(49, 121),30	3247,(111, 121),30	3277,(117, 121),30	3307,(119, 121),30	3337,(47, 121),30	3367,(58, 121),30	3397,(33, 121),30	3427,(65, 121),30	3457,(41, 121),30	3487,(52, 121),30	3517,(91, 121),30	3547,(95, 121),30	3577,(103, 121),30	3607,(21, 121),30	3637,(101, 121),30	3667,(45, 121),30	3697,(63, 121),30	3727,(75, 121),30	3757,(83, 121),30	3787,(89, 121),30	3817,(97, 121),30	3847,(105, 121),30	3877,(107, 121),30	3907,(42, 121),30	3937,(44, 121),30	
97,(2, 51),9	106,(2, 65),12	118,(2, 77),3	121,(2, 95),15	193,(2, 115),12	205,(5, 19),51	289,(2, 117),45	334,(8, 59),3	343,(11, 34),15	385,(5, 57),6	391,(11, 16),3	628,(5, 105),36	664,(8, 61),6	718,(8, 53),21	739,(8, 75),12	751,(11, 28),3	754,(11, 49),3	907,(11, 47),9	916,(11, 58),6	931,(11, 65),15	1054,(11, 97),15	1207,(11, 101),24	1330,(5, 42),423	1753,(11, 44),54	
1,(0, 2),48	49,(0, 3),48	97,(0, 5),48	145,(0, 6),48	193,(0, 8),48	241,(0, 9),48	289,(0, 11),48	337,(0, 12),48	385,(4, 15),9	394,(4, 60),21	415,(4, 67),63	478,(4, 79),144	622,(4, 81),3	625,(4, 87),3	628,(4, 110),27	655,(10, 68),9	664,(10, 70),6	670,(10, 71),48	718,(10, 78),39	757,(10, 111),6	763,(10, 117),102	865,(10, 119),42	907,(10, 120),3	910,(7, 24),3	913,(7, 29),12	925,(7, 33),6	931,(7, 37),27	958,(7, 41),6	964,(7, 45),21	985,(7, 52),69	1054,(7, 72),3	1057,(7, 76),3	1060,(7, 84),6	1066,(7, 86),18	1084,(7, 91),66	1150,(7, 95),6	1156,(7, 100),18	1174,(7, 103),3	1177,(1, 21),30	1207,(1, 29),27	1234,(1, 45),12	1246,(1, 63),3	1249,(1, 75),3	1252,(1, 83),12	1264,(1, 89),30	1294,(1, 96),3	1297,(1, 97),3	1300,(1, 100),3	1303,(1, 104),6	1309,(1, 105),3	1312,(1, 107),18	1330,(26, 121),30	1360,(13, 121),30	1657,(19, 121),30	1687,(31, 121),30	1867,(14, 121),30	1927,(34, 121),30	1957,(35, 121),30	3967,(40, 121),30	
