2879
# CPU
0,201,1	1,197,6	7,88,6	13,97,6	19,34,6	25,172,6	31,106,6	37,163,6	43,36,6	49,92,6	55,168,6	61,80,6	67,94,6	73,112,6	79,193,6	85,62,6	91,57,6	97,39,6	103,28,6	109,187,6	115,196,6	121,160,6	127,52,6	133,111,6	139,123,6	145,171,6	151,103,6	157,174,6	163,55,6	169,84,6	175,176,6	181,82,6	187,101,6	193,25,6	199,177,6	205,135,6	211,86,6	217,195,6	223,89,6	229,156,6	235,179,6	241,154,6	247,56,6	253,91,6	259,38,6	265,71,6	271,48,6	277,67,6	283,26,6	289,128,6	295,113,6	301,102,6	307,173,6	313,58,6	319,198,6	325,108,6	331,22,6	337,64,6	343,53,6	349,200,6	355,83,6	361,110,6	367,127,6	373,45,6	379,100,6	385,125,6	391,119,6	397,93,6	403,54,6	409,122,6	415,105,6	421,107,6	427,143,6	433,151,6	439,146,6	445,73,6	451,68,6	457,150,6	463,199,6	469,161,6	475,194,6	481,190,6	487,42,6	493,43,6	499,51,6	505,99,6	511,121,6	517,191,6	523,149,6	529,27,6	535,98,6	541,35,6	547,170,6	553,169,6	559,59,6	565,37,6	571,182,6	577,132,6	583,131,6	589,104,6	595,155,6	601,72,6	607,157,6	613,145,6	619,46,6	625,66,6	631,115,6	637,117,6	643,24,6	649,47,6	655,144,6	661,65,6	667,40,6	673,90,6	679,166,6	685,32,6	691,96,6	697,133,6	703,118,6	709,138,6	715,130,6	721,141,6	727,148,6	733,186,6	739,129,6	745,29,6	751,75,6	757,178,6	763,60,6	769,140,6	775,185,6	781,76,6	787,126,6	793,175,6	799,137,6	805,184,6	811,153,6	817,78,6	823,87,6	829,85,6	835,69,6	841,33,6	847,74,6	853,41,6	859,95,6	865,70,6	871,167,6	877,152,6	883,147,6	889,192,6	895,31,6	901,44,6	907,81,6	913,21,6	919,63,6	925,77,6	931,50,6	937,180,6	943,188,6	949,142,6	955,134,6	961,61,6	967,120,6	973,162,6	979,30,6	985,116,6	991,114,6	997,124,6	1003,79,6	1009,183,6	1015,189,6	1021,165,6	1027,159,6	1033,164,6	1039,139,6	1045,181,6	1051,136,6	1057,11,6	1063,18,6	1069,20,6	1075,16,6	1081,17,6	1087,19,6	1093,3,6	1099,2,6	1105,10,6	1111,1,6	1117,6,6	1123,5,6	1129,14,6	1135,7,6	1141,9,6	1147,8,6	1276,12,6	1444,13,6	1771,4,6	2872,15,6	2878,0,1	
985,49,6	
247,109,6	493,158,6	739,23,6	
# Incoming
499,(158, 11),3	502,(109, 20),3	505,(158, 20),3	508,(109, 16),3	511,(109, 19),3	514,(158, 3),21	535,(158, 2),18	553,(109, 10),3	556,(158, 10),21	577,(109, 1),15	592,(109, 6),6	598,(109, 5),6	604,(158, 5),3	607,(109, 14),72	679,(109, 8),60	739,(158, 15),3	745,(23, 17),3	748,(23, 19),12	760,(23, 2),3	763,(23, 10),6	769,(23, 6),6	775,(23, 5),36	811,(158, 9),81	892,(158, 8),9	901,(23, 8),75	976,(23, 12),3	979,(23, 13),6	991,(49, 18),3	994,(49, 16),3	997,(49, 17),3	1000,(49, 2),6	1006,(49, 1),15	1021,(49, 6),21	1042,(49, 7),78	1120,(49, 9),15	1135,(49, 8),3	1138,(109, 12),27	1165,(49, 12),111	1276,(109, 13),21	1297,(158, 13),147	1444,(109, 4),9	1453,(158, 4),30	1483,(23, 4),273	1756,(49, 4),15	1771,(109, 15),15	1786,(23, 15),48	1834,(49, 15),1038	
739,(201, 49),246	
1,(201, 109),246	247,(201, 158),246	493,(201, 23),246	
# Outgoing
1,(201, 109),246	247,(201, 158),246	493,(201, 23),246	739,(201, 49),246	
991,(49, 18),3	994,(49, 16),3	997,(49, 17),3	1000,(49, 2),6	1006,(49, 1),15	1021,(49, 6),21	1042,(49, 7),78	1120,(49, 9),15	1135,(49, 8),3	1165,(49, 12),111	1756,(49, 4),15	1834,(49, 15),1038	
499,(158, 11),3	502,(109, 20),3	505,(158, 20),3	508,(109, 16),3	511,(109, 19),3	514,(158, 3),21	535,(158, 2),18	553,(109, 10),3	556,(158, 10),21	577,(109, 1),15	592,(109, 6),6	598,(109, 5),6	604,(158, 5),3	607,(109, 14),72	679,(109, 8),60	739,(158, 15),3	745,(23, 17),3	748,(23, 19),12	760,(23, 2),3	763,(23, 10),6	769,(23, 6),6	775,(23, 5),36	811,(158, 9),81	892,(158, 8),9	901,(23, 8),75	976,(23, 12),3	979,(23, 13),6	1138,(109, 12),27	1276,(109, 13),21	1297,(158, 13),147	1444,(109, 4),9	1453,(158, 4),30	1483,(23, 4),273	1771,(109, 15),15	1786,(23, 15),48	
