317
# CPU
65,27,2	300,35,2	
62,33,2	184,26,2	304,39,2	
65,37,2	67,22,2	284,30,2	
49,21,2	187,28,2	301,36,2	
23,15,2	34,18,2	61,23,2	72,40,2	316,41,1	
12,10,2	31,17,2	48,20,2	
10,4,2	12,9,2	56,16,2	107,38,2	
7,3,2	9,8,2	11,34,2	21,14,2	80,7,2	162,12,2	183,24,2	299,32,2	
4,2,2	6,31,2	11,6,2	38,19,2	88,25,2	171,13,2	
0,0,1	1,1,2	78,5,2	156,11,2	281,29,2	
# Incoming
50,(1, 27),1	51,(1, 35),13	64,(3, 27),1	90,(3, 35),4	299,(4, 35),1	
39,(2, 26),6	61,(3, 33),1	62,(3, 39),1	183,(4, 26),1	301,(4, 39),3	
64,(1, 37),1	65,(3, 22),1	88,(3, 30),2	281,(4, 30),3	
48,(1, 21),1	184,(4, 28),3	300,(4, 36),1	
21,(1, 15),1	22,(2, 15),1	23,(10, 41),2	31,(2, 18),3	34,(17, 41),2	46,(31, 41),2	48,(6, 41),2	50,(19, 41),2	52,(20, 41),2	54,(21, 41),2	56,(3, 23),5	65,(1, 40),7	72,(33, 41),2	74,(27, 41),2	76,(37, 41),2	78,(22, 41),2	80,(5, 41),2	90,(25, 41),2	107,(8, 41),2	109,(34, 41),2	111,(14, 41),2	113,(7, 41),2	158,(11, 41),2	164,(12, 41),2	173,(13, 41),2	185,(24, 41),2	187,(26, 41),2	189,(28, 41),2	283,(29, 41),2	286,(30, 41),2	301,(32, 41),2	304,(9, 41),2	306,(16, 41),2	308,(38, 41),2	310,(35, 41),2	312,(36, 41),2	314,(39, 41),2	
11,(1, 10),1	23,(2, 17),8	38,(1, 20),10	
7,(0, 4),3	47,(3, 16),9	94,(3, 38),13	
4,(0, 3),3	12,(1, 14),9	34,(2, 24),5	49,(1, 24),1	78,(4, 7),2	156,(4, 12),6	171,(4, 24),12	284,(4, 32),15	
1,(0, 2),3	10,(1, 6),1	22,(1, 19),16	66,(3, 25),22	162,(4, 13),9	
45,(2, 29),1	46,(3, 5),1	47,(4, 5),31	80,(4, 11),76	187,(4, 29),94	
# Outgoing
74,(27, 41),2	310,(35, 41),2	
72,(33, 41),2	187,(26, 41),2	314,(39, 41),2	
76,(37, 41),2	78,(22, 41),2	286,(30, 41),2	
54,(21, 41),2	189,(28, 41),2	312,(36, 41),2	

23,(10, 41),2	34,(17, 41),2	52,(20, 41),2	
47,(4, 5),31	78,(4, 7),2	80,(4, 11),76	156,(4, 12),6	162,(4, 13),9	171,(4, 24),12	183,(4, 26),1	184,(4, 28),3	187,(4, 29),94	281,(4, 30),3	284,(4, 32),15	299,(4, 35),1	300,(4, 36),1	301,(4, 39),3	304,(9, 41),2	306,(16, 41),2	308,(38, 41),2	
46,(3, 5),1	47,(3, 16),9	56,(3, 23),5	61,(3, 33),1	62,(3, 39),1	64,(3, 27),1	65,(3, 22),1	66,(3, 25),22	88,(3, 30),2	90,(3, 35),4	94,(3, 38),13	107,(8, 41),2	109,(34, 41),2	111,(14, 41),2	113,(7, 41),2	164,(12, 41),2	185,(24, 41),2	301,(32, 41),2	
22,(2, 15),1	23,(2, 17),8	31,(2, 18),3	34,(2, 24),5	39,(2, 26),6	45,(2, 29),1	46,(31, 41),2	48,(6, 41),2	50,(19, 41),2	90,(25, 41),2	173,(13, 41),2	
1,(0, 2),3	4,(0, 3),3	7,(0, 4),3	10,(1, 6),1	11,(1, 10),1	12,(1, 14),9	21,(1, 15),1	22,(1, 19),16	38,(1, 20),10	48,(1, 21),1	49,(1, 24),1	50,(1, 27),1	51,(1, 35),13	64,(1, 37),1	65,(1, 40),7	80,(5, 41),2	158,(11, 41),2	283,(29, 41),2	
