2554
# CPU
19,4,89	162,24,89	251,8,89	340,12,89	429,28,89	518,20,89	607,16,89	696,32,89	785,36,89	1569,40,89	
13,3,89	237,11,89	326,15,89	415,19,89	504,7,89	593,39,89	682,23,89	771,27,89	860,31,89	949,35,89	
7,2,89	96,26,89	185,6,89	274,14,89	363,18,89	452,10,89	541,34,89	630,30,89	719,22,89	808,38,89	
0,0,1	1,1,89	90,9,89	179,25,89	268,5,89	375,17,89	464,29,89	553,13,89	642,21,89	731,33,89	1617,37,89	2553,41,1	
# Incoming
13,(0, 4),6	129,(2, 8),15	144,(2, 24),18	162,(3, 8),48	234,(1, 12),51	285,(3, 28),3	288,(1, 20),150	438,(3, 16),153	591,(3, 32),6	597,(3, 36),3	1539,(3, 40),30	
7,(0, 3),6	114,(1, 7),111	225,(1, 11),9	234,(2, 11),3	237,(2, 15),39	285,(1, 19),3	288,(4, 7),24	375,(2, 27),30	405,(4, 39),3	438,(1, 23),15	453,(1, 27),6	465,(1, 31),9	474,(1, 35),12	
1,(0, 2),6	90,(1, 6),24	210,(3, 14),3	213,(3, 18),18	237,(3, 38),9	312,(4, 10),66	378,(4, 34),3	459,(1, 30),6	480,(4, 22),102	585,(4, 38),90	
96,(2, 5),33	185,(26, 41),39	231,(3, 21),6	276,(2, 17),99	375,(3, 29),51	426,(4, 13),24	450,(4, 21),30	480,(6, 41),39	519,(14, 41),39	582,(4, 33),3	600,(3, 37),939	1539,(4, 37),78	1617,(24, 41),39	1656,(11, 41),39	1695,(8, 41),39	1734,(15, 41),39	1773,(12, 41),39	1812,(18, 41),39	1851,(19, 41),39	1890,(28, 41),39	1929,(10, 41),39	1968,(7, 41),39	2007,(20, 41),39	2046,(34, 41),39	2085,(39, 41),39	2124,(16, 41),39	2163,(30, 41),39	2202,(23, 41),39	2241,(32, 41),39	2280,(22, 41),39	2319,(27, 41),39	2358,(36, 41),39	2397,(38, 41),39	2436,(31, 41),39	2475,(35, 41),39	2514,(40, 41),39	
# Outgoing
288,(4, 7),24	312,(4, 10),66	378,(4, 34),3	405,(4, 39),3	426,(4, 13),24	450,(4, 21),30	480,(4, 22),102	582,(4, 33),3	585,(4, 38),90	1539,(4, 37),78	1617,(24, 41),39	1695,(8, 41),39	1773,(12, 41),39	1890,(28, 41),39	2007,(20, 41),39	2124,(16, 41),39	2241,(32, 41),39	2358,(36, 41),39	2514,(40, 41),39	
162,(3, 8),48	210,(3, 14),3	213,(3, 18),18	231,(3, 21),6	237,(3, 38),9	285,(3, 28),3	375,(3, 29),51	438,(3, 16),153	591,(3, 32),6	597,(3, 36),3	600,(3, 37),939	1539,(3, 40),30	1656,(11, 41),39	1734,(15, 41),39	1851,(19, 41),39	1968,(7, 41),39	2085,(39, 41),39	2202,(23, 41),39	2319,(27, 41),39	2436,(31, 41),39	2475,(35, 41),39	
96,(2, 5),33	129,(2, 8),15	144,(2, 24),18	185,(26, 41),39	234,(2, 11),3	237,(2, 15),39	276,(2, 17),99	375,(2, 27),30	480,(6, 41),39	519,(14, 41),39	1812,(18, 41),39	1929,(10, 41),39	2046,(34, 41),39	2163,(30, 41),39	2280,(22, 41),39	2397,(38, 41),39	
1,(0, 2),6	7,(0, 3),6	13,(0, 4),6	90,(1, 6),24	114,(1, 7),111	225,(1, 11),9	234,(1, 12),51	285,(1, 19),3	288,(1, 20),150	438,(1, 23),15	453,(1, 27),6	459,(1, 30),6	465,(1, 31),9	474,(1, 35),12	
