486
# CPU
15,3,5	20,28,5	25,48,5	30,77,5	35,6,5	40,20,5	45,9,5	50,23,5	55,52,5	60,12,5	94,42,5	127,65,5	151,33,5	156,37,5	197,62,5	233,14,5	243,17,5	254,30,5	291,59,5	296,50,5	301,68,5	306,26,5	311,46,5	316,71,5	327,39,5	336,54,5	347,56,5	354,80,5	469,74,5	
8,2,5	22,5,5	27,51,5	32,63,5	37,8,5	52,13,5	58,18,5	126,57,5	134,49,5	240,78,5	245,11,5	250,16,5	255,55,5	260,29,5	285,47,5	290,66,5	295,72,5	300,24,5	305,27,5	315,32,5	320,36,5	325,38,5	330,21,5	335,53,5	352,75,5	361,41,5	381,44,5	391,60,5	398,69,5	
0,0,1	1,4,5	6,1,5	11,7,5	16,67,5	21,10,5	26,76,5	31,79,5	36,58,5	41,25,5	46,73,5	51,70,5	56,19,5	67,31,5	72,40,5	197,64,5	221,34,5	243,22,5	255,43,5	262,61,5	308,15,5	359,35,5	449,45,5	485,81,1	
# Incoming
8,(0, 3),7	15,(2, 14),5	20,(2, 50),1	22,(0, 6),7	29,(2, 30),4	33,(5, 9),1	34,(5, 20),2	36,(4, 9),4	40,(4, 12),3	43,(2, 17),10	67,(2, 68),12	83,(4, 42),11	94,(4, 46),8	126,(4, 65),1	127,(4, 68),10	137,(5, 33),14	151,(5, 37),2	153,(5, 50),3	156,(5, 62),41	226,(5, 74),1	227,(8, 14),6	240,(4, 80),1	241,(1, 17),2	243,(8, 30),11	255,(1, 56),7	262,(1, 59),29	291,(8, 50),1	292,(8, 68),3	295,(7, 26),1	296,(8, 46),6	302,(8, 71),2	321,(7, 39),6	330,(7, 54),6	336,(7, 56),11	347,(7, 80),7	449,(8, 74),20	
1,(0, 2),7	15,(0, 5),7	22,(3, 16),4	26,(3, 21),1	29,(0, 8),7	36,(3, 29),5	43,(4, 13),9	52,(4, 18),6	58,(4, 41),25	83,(3, 36),19	102,(4, 47),5	107,(4, 55),1	108,(4, 57),18	126,(3, 49),8	137,(4, 75),99	236,(4, 78),4	240,(6, 11),1	241,(6, 16),1	242,(6, 55),1	243,(1, 21),9	252,(1, 29),2	254,(1, 44),1	255,(3, 47),30	285,(3, 66),4	291,(1, 69),1	292,(1, 72),2	294,(7, 24),1	296,(7, 27),3	299,(7, 32),16	315,(7, 36),5	320,(7, 38),1	321,(6, 21),6	327,(7, 53),3	330,(3, 69),13	343,(3, 75),9	352,(6, 41),9	361,(6, 44),20	381,(6, 60),10	391,(6, 69),7	
13,(2, 10),2	21,(2, 73),3	24,(2, 76),1	25,(2, 79),1	27,(3, 34),3	30,(3, 35),1	31,(3, 58),5	36,(5, 25),1	37,(5, 43),1	38,(5, 45),1	39,(5, 73),1	40,(51, 81),1	41,(3, 70),1	42,(28, 81),1	43,(48, 81),1	44,(77, 81),1	45,(6, 19),1	46,(6, 22),6	52,(20, 81),1	53,(2, 31),14	67,(6, 40),4	71,(9, 81),1	72,(23, 81),1	73,(52, 81),1	74,(12, 81),1	79,(5, 15),54	133,(63, 81),1	134,(3, 64),63	197,(5, 34),24	221,(5, 35),5	226,(42, 81),1	227,(65, 81),1	228,(33, 81),1	229,(37, 81),1	230,(62, 81),1	233,(8, 22),10	243,(14, 81),1	248,(17, 81),1	254,(8, 43),1	255,(8, 61),7	262,(13, 81),1	263,(18, 81),1	264,(57, 81),1	265,(49, 81),1	266,(78, 81),1	267,(11, 81),1	268,(16, 81),1	269,(55, 81),1	270,(29, 81),1	289,(6, 15),19	308,(8, 35),51	359,(8, 45),90	449,(30, 81),1	450,(59, 81),1	451,(50, 81),1	452,(68, 81),1	453,(26, 81),1	454,(46, 81),1	455,(71, 81),1	456,(39, 81),1	457,(54, 81),1	458,(56, 81),1	459,(80, 81),1	469,(47, 81),1	470,(66, 81),1	471,(72, 81),1	472,(24, 81),1	473,(27, 81),1	474,(32, 81),1	475,(36, 81),1	476,(38, 81),1	477,(21, 81),1	478,(53, 81),1	479,(75, 81),1	480,(41, 81),1	481,(44, 81),1	482,(60, 81),1	483,(69, 81),1	484,(74, 81),1	
# Outgoing
22,(3, 16),4	26,(3, 21),1	27,(3, 34),3	30,(3, 35),1	31,(3, 58),5	36,(3, 29),5	41,(3, 70),1	42,(28, 81),1	43,(48, 81),1	44,(77, 81),1	45,(6, 19),1	46,(6, 22),6	52,(20, 81),1	67,(6, 40),4	71,(9, 81),1	72,(23, 81),1	73,(52, 81),1	74,(12, 81),1	83,(3, 36),19	126,(3, 49),8	134,(3, 64),63	226,(42, 81),1	227,(65, 81),1	228,(33, 81),1	229,(37, 81),1	230,(62, 81),1	240,(6, 11),1	241,(6, 16),1	242,(6, 55),1	243,(14, 81),1	248,(17, 81),1	255,(3, 47),30	285,(3, 66),4	289,(6, 15),19	321,(6, 21),6	330,(3, 69),13	343,(3, 75),9	352,(6, 41),9	361,(6, 44),20	381,(6, 60),10	391,(6, 69),7	449,(30, 81),1	450,(59, 81),1	451,(50, 81),1	452,(68, 81),1	453,(26, 81),1	454,(46, 81),1	455,(71, 81),1	456,(39, 81),1	457,(54, 81),1	458,(56, 81),1	459,(80, 81),1	484,(74, 81),1	
13,(2, 10),2	15,(2, 14),5	20,(2, 50),1	21,(2, 73),3	24,(2, 76),1	25,(2, 79),1	29,(2, 30),4	33,(5, 9),1	34,(5, 20),2	36,(5, 25),1	37,(5, 43),1	38,(5, 45),1	39,(5, 73),1	40,(51, 81),1	43,(2, 17),10	53,(2, 31),14	67,(2, 68),12	79,(5, 15),54	133,(63, 81),1	137,(5, 33),14	151,(5, 37),2	153,(5, 50),3	156,(5, 62),41	197,(5, 34),24	221,(5, 35),5	226,(5, 74),1	227,(8, 14),6	233,(8, 22),10	243,(8, 30),11	254,(8, 43),1	255,(8, 61),7	262,(13, 81),1	263,(18, 81),1	264,(57, 81),1	265,(49, 81),1	266,(78, 81),1	267,(11, 81),1	268,(16, 81),1	269,(55, 81),1	270,(29, 81),1	291,(8, 50),1	292,(8, 68),3	296,(8, 46),6	302,(8, 71),2	308,(8, 35),51	359,(8, 45),90	449,(8, 74),20	469,(47, 81),1	470,(66, 81),1	471,(72, 81),1	472,(24, 81),1	473,(27, 81),1	474,(32, 81),1	475,(36, 81),1	476,(38, 81),1	477,(21, 81),1	478,(53, 81),1	479,(75, 81),1	480,(41, 81),1	481,(44, 81),1	482,(60, 81),1	483,(69, 81),1	
1,(0, 2),7	8,(0, 3),7	15,(0, 5),7	22,(0, 6),7	29,(0, 8),7	36,(4, 9),4	40,(4, 12),3	43,(4, 13),9	52,(4, 18),6	58,(4, 41),25	83,(4, 42),11	94,(4, 46),8	102,(4, 47),5	107,(4, 55),1	108,(4, 57),18	126,(4, 65),1	127,(4, 68),10	137,(4, 75),99	236,(4, 78),4	240,(4, 80),1	241,(1, 17),2	243,(1, 21),9	252,(1, 29),2	254,(1, 44),1	255,(1, 56),7	262,(1, 59),29	291,(1, 69),1	292,(1, 72),2	294,(7, 24),1	295,(7, 26),1	296,(7, 27),3	299,(7, 32),16	315,(7, 36),5	320,(7, 38),1	321,(7, 39),6	327,(7, 53),3	330,(7, 54),6	336,(7, 56),11	347,(7, 80),7	
