424
# CPU
11,2,24	35,4,24	59,6,24	83,8,24	107,10,24	131,14,24	155,12,24	179,16,24	203,18,24	227,20,24	
0,0,1	1,1,24	25,3,24	49,19,24	73,5,24	97,7,24	121,9,24	181,11,24	205,13,24	236,15,24	399,17,24	423,21,1	
# Incoming
1,(0, 2),10	25,(1, 4),6	31,(1, 6),1	32,(1, 8),1	33,(1, 10),1	34,(1, 12),28	62,(1, 16),5	67,(1, 18),19	86,(1, 20),8	
35,(2, 7),31	66,(2, 9),52	118,(2, 11),63	181,(2, 13),16	197,(2, 15),39	236,(2, 17),163	399,(4, 21),1	400,(6, 21),1	401,(8, 21),1	402,(10, 21),1	403,(14, 21),1	404,(12, 21),1	405,(16, 21),1	406,(18, 21),1	407,(20, 21),1	
# Outgoing
35,(2, 7),31	66,(2, 9),52	118,(2, 11),63	181,(2, 13),16	197,(2, 15),39	236,(2, 17),163	399,(4, 21),1	400,(6, 21),1	401,(8, 21),1	402,(10, 21),1	403,(14, 21),1	404,(12, 21),1	405,(16, 21),1	406,(18, 21),1	407,(20, 21),1	
1,(0, 2),10	25,(1, 4),6	31,(1, 6),1	32,(1, 8),1	33,(1, 10),1	34,(1, 12),28	62,(1, 16),5	67,(1, 18),19	86,(1, 20),8	
