2457
# CPU
13,2,16	29,4,16	45,14,16	61,20,16	77,36,16	93,40,16	109,34,16	125,6,16	141,16,16	451,8,16	496,12,16	512,18,16	528,24,16	544,26,16	580,30,16	598,38,16	614,10,16	631,22,16	647,28,16	769,32,16	
0,0,1	1,3,16	17,1,16	33,37,16	49,29,16	65,5,16	81,27,16	97,7,16	113,25,16	129,13,16	145,19,16	161,21,16	177,23,16	193,9,16	209,11,16	455,15,16	566,17,16	605,31,16	621,33,16	637,35,16	653,39,16	2456,41,1	
# Incoming
1,(0, 2),12	13,(0, 4),12	25,(3, 6),6	31,(3, 8),420	451,(3, 12),45	496,(3, 18),9	505,(3, 24),3	508,(3, 26),18	526,(3, 30),54	580,(3, 38),18	598,(1, 10),6	604,(1, 22),27	631,(1, 28),3	634,(1, 32),135	
29,(2, 13),15	44,(2, 19),9	53,(2, 21),9	62,(2, 23),39	101,(2, 33),12	113,(2, 35),9	122,(4, 9),12	134,(4, 11),6	140,(4, 15),315	455,(4, 17),111	566,(4, 31),39	605,(4, 33),3	608,(4, 35),9	617,(4, 39),3	620,(14, 41),102	722,(20, 41),102	824,(36, 41),102	926,(40, 41),102	1028,(34, 41),102	1130,(6, 41),102	1232,(16, 41),102	1334,(8, 41),102	1436,(12, 41),102	1538,(18, 41),102	1640,(24, 41),102	1742,(26, 41),102	1844,(30, 41),102	1946,(38, 41),102	2048,(10, 41),102	2150,(22, 41),102	2252,(28, 41),102	2354,(32, 41),102	
# Outgoing
29,(2, 13),15	44,(2, 19),9	53,(2, 21),9	62,(2, 23),39	101,(2, 33),12	113,(2, 35),9	122,(4, 9),12	134,(4, 11),6	140,(4, 15),315	455,(4, 17),111	566,(4, 31),39	605,(4, 33),3	608,(4, 35),9	617,(4, 39),3	620,(14, 41),102	722,(20, 41),102	824,(36, 41),102	926,(40, 41),102	1028,(34, 41),102	1130,(6, 41),102	1232,(16, 41),102	1334,(8, 41),102	1436,(12, 41),102	1538,(18, 41),102	1640,(24, 41),102	1742,(26, 41),102	1844,(30, 41),102	1946,(38, 41),102	2048,(10, 41),102	2150,(22, 41),102	2252,(28, 41),102	2354,(32, 41),102	
1,(0, 2),12	13,(0, 4),12	25,(3, 6),6	31,(3, 8),420	451,(3, 12),45	496,(3, 18),9	505,(3, 24),3	508,(3, 26),18	526,(3, 30),54	580,(3, 38),18	598,(1, 10),6	604,(1, 22),27	631,(1, 28),3	634,(1, 32),135	
