5097
# CPU
40,2,5	45,20,5	50,60,5	55,82,5	60,102,5	65,86,5	70,98,5	75,32,5	80,44,5	85,4,5	90,26,5	95,92,5	100,94,5	105,103,5	110,116,5	115,56,5	120,68,5	125,91,5	130,6,5	135,36,5	140,80,5	145,93,5	150,38,5	155,46,5	160,55,5	165,64,5	170,8,5	175,40,5	180,111,5	185,118,5	190,48,5	195,79,5	200,84,5	205,95,5	210,100,5	215,10,5	220,53,5	225,58,5	230,73,5	235,81,5	240,106,5	245,115,5	250,97,5	255,12,5	260,34,5	265,50,5	270,21,5	275,83,5	280,107,5	285,101,5	290,66,5	295,75,5	300,78,5	305,74,5	607,85,5	612,89,5	643,109,5	661,110,5	676,25,5	817,29,5	822,42,5	827,90,5	1141,108,5	1159,112,5	1164,113,5	1169,18,5	1195,76,5	1312,87,5	1336,99,5	1345,119,5	1351,16,5	1408,22,5	1456,24,5	1567,54,5	1572,72,5	1577,105,5	1600,114,5	1605,14,5	1610,23,5	1642,27,5	1651,30,5	1656,70,5	1726,77,5	1741,88,5	1786,117,5	1843,120,5	1873,62,5	1891,71,5	1900,96,5	1905,104,5	5096,121,1	
0,0,1	1,3,5	6,9,5	11,7,5	16,1,5	21,11,5	26,5,5	31,43,5	36,28,5	41,47,5	46,49,5	51,61,5	56,57,5	61,59,5	66,35,5	71,33,5	76,15,5	81,19,5	86,45,5	91,65,5	138,13,5	198,37,5	216,39,5	438,52,5	477,31,5	482,51,5	4794,69,5	5004,63,5	5009,17,5	5061,41,5	5073,67,5	
# Incoming
1,(0, 2),39	40,(0, 4),39	79,(0, 6),39	118,(0, 8),39	157,(0, 10),39	196,(0, 12),39	235,(3, 34),3	238,(3, 50),15	253,(3, 74),18	271,(3, 85),336	607,(3, 89),3	610,(3, 109),33	643,(3, 110),18	661,(9, 25),15	676,(9, 29),141	817,(9, 42),3	820,(9, 90),6	826,(9, 108),315	1141,(9, 112),18	1159,(9, 113),3	1162,(7, 18),3	1165,(7, 76),30	1195,(7, 87),117	1312,(7, 99),24	1336,(7, 119),9	1345,(1, 16),6	1351,(1, 22),57	1408,(1, 24),48	1456,(1, 54),111	1567,(1, 72),3	1570,(1, 105),3	1573,(1, 114),27	1600,(11, 14),3	1603,(11, 23),6	1609,(11, 27),33	1642,(11, 30),9	1651,(11, 70),3	1654,(11, 77),72	1726,(11, 88),15	1741,(11, 117),45	1786,(11, 120),57	1843,(5, 62),30	1873,(5, 71),18	1891,(5, 96),9	1900,(5, 104),3	1903,(43, 121),15	1918,(28, 121),15	1933,(47, 121),15	1948,(49, 121),15	1963,(61, 121),15	1978,(57, 121),15	1993,(59, 121),15	2008,(35, 121),15	2023,(33, 121),15	2038,(15, 121),15	2053,(19, 121),15	2068,(45, 121),15	2083,(65, 121),15	2098,(13, 121),15	2113,(37, 121),15	2128,(39, 121),15	2143,(52, 121),15	2158,(31, 121),15	2173,(51, 121),15	4799,(69, 121),15	5009,(63, 121),15	5024,(17, 121),15	5066,(41, 121),15	5081,(67, 121),15	
45,(2, 65),18	135,(6, 13),3	138,(6, 37),60	198,(6, 39),18	216,(6, 52),222	438,(8, 31),39	477,(8, 51),3	480,(8, 69),4314	4794,(10, 63),210	5004,(12, 17),3	5007,(12, 41),54	5061,(12, 67),12	
# Outgoing
45,(2, 65),18	135,(6, 13),3	138,(6, 37),60	198,(6, 39),18	216,(6, 52),222	438,(8, 31),39	477,(8, 51),3	480,(8, 69),4314	4794,(10, 63),210	5004,(12, 17),3	5007,(12, 41),54	5061,(12, 67),12	
1,(0, 2),39	40,(0, 4),39	79,(0, 6),39	118,(0, 8),39	157,(0, 10),39	196,(0, 12),39	235,(3, 34),3	238,(3, 50),15	253,(3, 74),18	271,(3, 85),336	607,(3, 89),3	610,(3, 109),33	643,(3, 110),18	661,(9, 25),15	676,(9, 29),141	817,(9, 42),3	820,(9, 90),6	826,(9, 108),315	1141,(9, 112),18	1159,(9, 113),3	1162,(7, 18),3	1165,(7, 76),30	1195,(7, 87),117	1312,(7, 99),24	1336,(7, 119),9	1345,(1, 16),6	1351,(1, 22),57	1408,(1, 24),48	1456,(1, 54),111	1567,(1, 72),3	1570,(1, 105),3	1573,(1, 114),27	1600,(11, 14),3	1603,(11, 23),6	1609,(11, 27),33	1642,(11, 30),9	1651,(11, 70),3	1654,(11, 77),72	1726,(11, 88),15	1741,(11, 117),45	1786,(11, 120),57	1843,(5, 62),30	1873,(5, 71),18	1891,(5, 96),9	1900,(5, 104),3	1903,(43, 121),15	1918,(28, 121),15	1933,(47, 121),15	1948,(49, 121),15	1963,(61, 121),15	1978,(57, 121),15	1993,(59, 121),15	2008,(35, 121),15	2023,(33, 121),15	2038,(15, 121),15	2053,(19, 121),15	2068,(45, 121),15	2083,(65, 121),15	2098,(13, 121),15	2113,(37, 121),15	2128,(39, 121),15	2143,(52, 121),15	2158,(31, 121),15	2173,(51, 121),15	4799,(69, 121),15	5009,(63, 121),15	5024,(17, 121),15	5066,(41, 121),15	5081,(67, 121),15	
