482
# CPU
0,121,1	1,115,4	5,78,4	9,69,4	13,120,4	17,51,4	21,13,4	25,37,4	29,93,4	33,110,4	37,25,4	41,66,4	45,62,4	49,91,4	53,111,4	57,61,4	61,107,4	65,112,4	69,68,4	73,42,4	77,114,4	81,35,4	85,57,4	89,56,4	93,117,4	97,32,4	101,80,4	105,19,4	109,43,4	113,24,4	117,53,4	121,76,4	125,87,4	129,48,4	133,55,4	137,58,4	141,96,4	145,98,4	149,18,4	153,109,4	157,54,4	161,65,4	165,106,4	169,79,4	173,31,4	177,39,4	181,113,4	185,108,4	189,21,4	193,50,4	197,30,4	201,20,4	205,84,4	209,118,4	213,90,4	217,63,4	221,81,4	225,94,4	229,119,4	233,82,4	237,64,4	241,47,4	245,92,4	249,23,4	253,100,4	257,28,4	261,104,4	265,29,4	269,14,4	273,74,4	277,44,4	281,99,4	285,49,4	289,105,4	293,77,4	297,46,4	301,70,4	305,52,4	309,22,4	313,102,4	317,83,4	321,33,4	325,86,4	329,45,4	333,59,4	337,67,4	341,95,4	345,72,4	349,73,4	353,97,4	357,60,4	361,34,4	365,12,4	369,40,4	373,41,4	377,38,4	381,75,4	385,26,4	389,101,4	393,15,4	397,16,4	401,6,4	405,27,4	409,71,4	413,8,4	417,116,4	421,3,4	425,1,4	429,85,4	433,9,4	437,103,4	441,7,4	445,2,4	449,88,4	453,17,4	457,5,4	461,11,4	465,36,4	469,4,4	473,89,4	477,10,4	481,0,1	
# Incoming

# Outgoing

