1346
# CPU
33,3,6	39,27,6	45,39,6	51,54,6	57,108,6	63,66,6	69,51,6	75,6,6	81,18,6	87,69,6	93,93,6	99,9,6	105,57,6	111,48,6	117,114,6	129,12,6	135,36,6	141,102,6	147,30,6	153,90,6	159,99,6	176,78,6	182,111,6	212,117,6	227,120,6	237,21,6	251,63,6	257,75,6	267,96,6	273,105,6	279,15,6	286,60,6	292,81,6	298,87,6	304,24,6	310,33,6	316,45,6	322,72,6	328,84,6	457,42,6	
17,2,6	23,17,6	29,98,6	35,74,6	41,77,6	49,5,6	55,32,6	61,92,6	81,8,6	87,53,6	93,113,6	99,59,6	105,50,6	113,11,6	119,20,6	125,44,6	131,47,6	137,65,6	143,80,6	149,116,6	155,26,6	161,68,6	176,23,6	182,38,6	200,56,6	226,119,6	256,83,6	269,104,6	276,107,6	287,62,6	297,110,6	303,29,6	309,41,6	322,86,6	328,95,6	429,35,6	466,89,6	480,101,6	491,14,6	506,71,6	
0,0,1	1,10,6	7,1,6	13,4,6	19,7,6	25,70,6	31,67,6	37,79,6	43,52,6	49,13,6	55,103,6	61,91,6	67,76,6	73,82,6	79,115,6	85,22,6	91,25,6	97,46,6	103,94,6	109,43,6	118,61,6	124,88,6	130,16,6	136,28,6	159,118,6	206,19,6	271,31,6	277,109,6	286,49,6	309,100,6	324,55,6	529,37,6	593,64,6	640,58,6	646,97,6	684,34,6	848,40,6	859,73,6	865,85,6	871,106,6	877,112,6	1345,121,1	
# Incoming
17,(0, 3),16	33,(2, 27),3	36,(2, 36),1	37,(2, 51),3	45,(2, 120),1	49,(0, 6),16	65,(2, 117),15	81,(0, 9),16	97,(5, 57),2	99,(8, 75),4	113,(0, 12),16	129,(5, 105),12	141,(11, 84),18	163,(10, 78),13	176,(10, 111),2	178,(10, 117),34	226,(10, 120),1	227,(1, 21),10	246,(1, 45),4	250,(1, 63),1	251,(1, 75),1	266,(1, 96),1	269,(1, 105),1	276,(4, 15),3	279,(4, 60),7	286,(4, 81),1	287,(4, 87),1	297,(7, 24),1	302,(7, 33),2	306,(7, 45),7	313,(7, 72),1	314,(7, 84),2	316,(5, 42),141	
1,(0, 2),16	33,(0, 5),16	65,(0, 8),16	81,(3, 53),2	83,(3, 107),3	86,(3, 113),1	87,(6, 50),1	97,(0, 11),16	113,(3, 116),9	129,(10, 26),15	144,(10, 68),3	147,(10, 71),16	169,(6, 23),4	173,(9, 23),3	176,(9, 29),1	177,(9, 38),1	189,(6, 56),11	200,(12, 83),5	212,(10, 119),14	237,(1, 29),9	252,(1, 83),4	256,(1, 89),10	267,(1, 104),2	270,(1, 107),6	276,(6, 62),11	288,(4, 110),9	298,(7, 29),4	304,(7, 41),2	316,(7, 86),6	322,(7, 95),2	324,(6, 35),105	429,(6, 89),37	466,(6, 101),14	480,(9, 14),11	491,(12, 71),15	
40,(2, 82),1	41,(2, 115),4	46,(17, 121),10	56,(3, 19),12	68,(3, 22),1	69,(3, 25),9	78,(3, 46),1	79,(3, 94),1	80,(98, 121),10	90,(3, 43),15	105,(74, 121),10	115,(5, 37),1	116,(8, 61),2	118,(8, 88),2	120,(11, 16),1	121,(11, 28),1	122,(3, 118),37	159,(27, 121),10	169,(77, 121),10	179,(39, 121),10	189,(5, 19),17	206,(54, 121),10	216,(32, 121),10	226,(108, 121),10	236,(92, 121),10	246,(66, 121),10	256,(51, 121),10	266,(6, 31),5	271,(6, 85),3	274,(6, 109),1	275,(53, 121),10	285,(11, 49),1	287,(6, 112),9	296,(8, 100),13	309,(18, 121),10	319,(9, 55),5	457,(8, 37),72	529,(69, 121),10	539,(113, 121),10	549,(93, 121),10	559,(9, 64),34	593,(59, 121),10	603,(57, 121),10	613,(50, 121),10	623,(48, 121),10	633,(11, 34),5	638,(11, 58),2	640,(11, 97),5	645,(114, 121),10	655,(20, 121),10	665,(44, 121),10	675,(12, 34),9	684,(12, 40),164	848,(12, 73),11	859,(12, 85),1	860,(12, 106),4	864,(12, 112),1	865,(47, 121),10	875,(36, 121),10	885,(65, 121),10	895,(102, 121),10	905,(80, 121),10	915,(30, 121),10	925,(116, 121),10	935,(90, 121),10	945,(26, 121),10	955,(99, 121),10	965,(68, 121),10	975,(23, 121),10	985,(78, 121),10	995,(38, 121),10	1005,(111, 121),10	1015,(56, 121),10	1025,(117, 121),10	1035,(119, 121),10	1045,(120, 121),10	1055,(21, 121),10	1065,(63, 121),10	1075,(83, 121),10	1085,(75, 121),10	1095,(96, 121),10	1105,(104, 121),10	1115,(105, 121),10	1125,(107, 121),10	1135,(15, 121),10	1145,(60, 121),10	1155,(62, 121),10	1165,(81, 121),10	1175,(110, 121),10	1185,(87, 121),10	1195,(29, 121),10	1205,(24, 121),10	1215,(41, 121),10	1225,(33, 121),10	1235,(45, 121),10	1245,(86, 121),10	1255,(72, 121),10	1265,(84, 121),10	1275,(95, 121),10	1285,(35, 121),10	1295,(42, 121),10	1305,(89, 121),10	1315,(101, 121),10	1325,(14, 121),10	1335,(71, 121),10	
# Outgoing
56,(3, 19),12	68,(3, 22),1	69,(3, 25),9	78,(3, 46),1	79,(3, 94),1	81,(3, 53),2	83,(3, 107),3	86,(3, 113),1	87,(6, 50),1	90,(3, 43),15	113,(3, 116),9	122,(3, 118),37	159,(27, 121),10	169,(6, 23),4	173,(9, 23),3	176,(9, 29),1	177,(9, 38),1	179,(39, 121),10	189,(6, 56),11	200,(12, 83),5	206,(54, 121),10	226,(108, 121),10	246,(66, 121),10	256,(51, 121),10	266,(6, 31),5	271,(6, 85),3	274,(6, 109),1	276,(6, 62),11	287,(6, 112),9	309,(18, 121),10	319,(9, 55),5	324,(6, 35),105	429,(6, 89),37	466,(6, 101),14	480,(9, 14),11	491,(12, 71),15	529,(69, 121),10	549,(93, 121),10	559,(9, 64),34	603,(57, 121),10	623,(48, 121),10	645,(114, 121),10	675,(12, 34),9	684,(12, 40),164	848,(12, 73),11	859,(12, 85),1	860,(12, 106),4	864,(12, 112),1	875,(36, 121),10	895,(102, 121),10	915,(30, 121),10	935,(90, 121),10	955,(99, 121),10	985,(78, 121),10	1005,(111, 121),10	1025,(117, 121),10	1045,(120, 121),10	1055,(21, 121),10	1065,(63, 121),10	1085,(75, 121),10	1095,(96, 121),10	1115,(105, 121),10	1135,(15, 121),10	1145,(60, 121),10	1165,(81, 121),10	1185,(87, 121),10	1205,(24, 121),10	1225,(33, 121),10	1235,(45, 121),10	1255,(72, 121),10	1265,(84, 121),10	1295,(42, 121),10	
33,(2, 27),3	36,(2, 36),1	37,(2, 51),3	40,(2, 82),1	41,(2, 115),4	45,(2, 120),1	46,(17, 121),10	65,(2, 117),15	80,(98, 121),10	97,(5, 57),2	99,(8, 75),4	105,(74, 121),10	115,(5, 37),1	116,(8, 61),2	118,(8, 88),2	120,(11, 16),1	121,(11, 28),1	129,(5, 105),12	141,(11, 84),18	169,(77, 121),10	189,(5, 19),17	216,(32, 121),10	236,(92, 121),10	275,(53, 121),10	285,(11, 49),1	296,(8, 100),13	316,(5, 42),141	457,(8, 37),72	539,(113, 121),10	593,(59, 121),10	613,(50, 121),10	633,(11, 34),5	638,(11, 58),2	640,(11, 97),5	655,(20, 121),10	665,(44, 121),10	865,(47, 121),10	885,(65, 121),10	905,(80, 121),10	925,(116, 121),10	945,(26, 121),10	965,(68, 121),10	975,(23, 121),10	995,(38, 121),10	1015,(56, 121),10	1035,(119, 121),10	1075,(83, 121),10	1105,(104, 121),10	1125,(107, 121),10	1155,(62, 121),10	1175,(110, 121),10	1195,(29, 121),10	1215,(41, 121),10	1245,(86, 121),10	1275,(95, 121),10	1285,(35, 121),10	1305,(89, 121),10	1315,(101, 121),10	1325,(14, 121),10	1335,(71, 121),10	
1,(0, 2),16	17,(0, 3),16	33,(0, 5),16	49,(0, 6),16	65,(0, 8),16	81,(0, 9),16	97,(0, 11),16	113,(0, 12),16	129,(10, 26),15	144,(10, 68),3	147,(10, 71),16	163,(10, 78),13	176,(10, 111),2	178,(10, 117),34	212,(10, 119),14	226,(10, 120),1	227,(1, 21),10	237,(1, 29),9	246,(1, 45),4	250,(1, 63),1	251,(1, 75),1	252,(1, 83),4	256,(1, 89),10	266,(1, 96),1	267,(1, 104),2	269,(1, 105),1	270,(1, 107),6	276,(4, 15),3	279,(4, 60),7	286,(4, 81),1	287,(4, 87),1	288,(4, 110),9	297,(7, 24),1	298,(7, 29),4	302,(7, 33),2	304,(7, 41),2	306,(7, 45),7	313,(7, 72),1	314,(7, 84),2	316,(7, 86),6	322,(7, 95),2	
