1358
# CPU
0,0,1	1,2,223	224,4,223	447,6,223	670,20,223	893,15,223	1116,19,223	
5,1,223	228,11,223	451,18,223	674,9,223	897,8,223	
225,17,223	448,5,223	671,10,223	894,16,223	1117,13,223	1357,21,1	
229,12,223	452,3,223	675,14,223	898,7,223	
# Incoming

1,(0, 1),4	228,(2, 9),1	251,(2, 8),3	
224,(2, 17),1	225,(2, 5),1	226,(2, 10),2	229,(1, 5),1	230,(1, 13),2	233,(1, 10),6	244,(2, 16),7	251,(1, 16),7	266,(2, 13),19	447,(4, 21),18	465,(11, 21),18	483,(12, 21),18	670,(6, 21),18	688,(18, 21),18	706,(3, 21),18	893,(20, 21),18	911,(9, 21),18	929,(14, 21),18	1116,(15, 21),18	1134,(8, 21),18	1152,(7, 21),18	1339,(19, 21),18	
228,(1, 12),1	229,(2, 3),3	232,(1, 3),1	233,(2, 14),11	244,(1, 14),2	246,(1, 7),3	254,(2, 7),12	
# Outgoing
1,(0, 1),4	224,(2, 17),1	225,(2, 5),1	226,(2, 10),2	228,(2, 9),1	229,(2, 3),3	233,(2, 14),11	244,(2, 16),7	251,(2, 8),3	254,(2, 7),12	266,(2, 13),19	447,(4, 21),18	670,(6, 21),18	893,(20, 21),18	1116,(15, 21),18	1339,(19, 21),18	
228,(1, 12),1	229,(1, 5),1	230,(1, 13),2	232,(1, 3),1	233,(1, 10),6	244,(1, 14),2	246,(1, 7),3	251,(1, 16),7	465,(11, 21),18	688,(18, 21),18	911,(9, 21),18	1134,(8, 21),18	

483,(12, 21),18	706,(3, 21),18	929,(14, 21),18	1152,(7, 21),18	
