486
# CPU
371,8,8	379,9,8	405,10,8	437,11,8	445,13,8	465,15,8	473,17,8	
79,12,8	95,16,8	155,20,8	369,6,8	443,14,8	485,21,1	
3,2,8	11,4,8	19,19,8	27,5,8	51,7,8	117,18,8	
0,0,1	1,1,8	331,3,8	
# Incoming
51,(1, 9),2	53,(1, 10),14	95,(1, 17),20	369,(2, 8),2	371,(2, 9),2	373,(2, 10),32	405,(2, 11),32	437,(2, 13),2	443,(2, 15),22	465,(2, 17),6	
15,(1, 6),30	67,(1, 12),12	79,(1, 14),4	83,(1, 16),12	117,(1, 20),38	331,(2, 6),38	369,(3, 21),2	379,(8, 21),2	387,(9, 21),2	413,(10, 21),2	439,(2, 14),4	445,(11, 21),2	453,(13, 21),2	471,(4, 21),2	473,(19, 21),2	475,(5, 21),2	477,(7, 21),2	479,(18, 21),2	481,(15, 21),2	483,(17, 21),2	
1,(0, 2),2	9,(1, 5),6	45,(1, 7),6	115,(1, 18),2	
11,(2, 3),320	
# Outgoing
379,(8, 21),2	387,(9, 21),2	413,(10, 21),2	445,(11, 21),2	453,(13, 21),2	481,(15, 21),2	483,(17, 21),2	

11,(2, 3),320	331,(2, 6),38	369,(2, 8),2	371,(2, 9),2	373,(2, 10),32	405,(2, 11),32	437,(2, 13),2	439,(2, 14),4	443,(2, 15),22	465,(2, 17),6	471,(4, 21),2	473,(19, 21),2	475,(5, 21),2	477,(7, 21),2	479,(18, 21),2	
1,(0, 2),2	9,(1, 5),6	15,(1, 6),30	45,(1, 7),6	51,(1, 9),2	53,(1, 10),14	67,(1, 12),12	79,(1, 14),4	83,(1, 16),12	95,(1, 17),20	115,(1, 18),2	117,(1, 20),38	369,(3, 21),2	
