539
# CPU
0,0,1	1,20,1	2,61,1	3,3,1	4,155,1	5,18,1	6,117,1	7,13,1	8,149,1	9,47,1	10,1,1	11,90,1	12,4,1	13,173,1	14,178,1	15,183,1	16,15,1	17,151,1	18,19,1	19,167,1	20,67,1	21,34,1	22,176,1	23,14,1	24,145,1	25,7,1	26,21,1	27,50,1	28,66,1	29,57,1	30,97,1	31,111,1	32,16,1	33,33,1	34,65,1	35,30,1	36,11,1	37,118,1	38,75,1	39,138,1	40,52,1	41,82,1	42,10,1	43,74,1	44,59,1	45,161,1	46,133,1	47,53,1	48,86,1	49,79,1	50,184,1	51,87,1	52,12,1	53,160,1	54,96,1	55,22,1	56,25,1	57,127,1	58,73,1	59,190,1	60,55,1	61,9,1	62,84,1	63,169,1	64,123,1	65,154,1	66,128,1	67,36,1	68,78,1	69,48,1	70,39,1	71,191,1	72,51,1	73,108,1	74,28,1	75,148,1	76,63,1	77,71,1	78,132,1	79,17,1	80,122,1	81,192,1	82,200,1	83,131,1	84,137,1	85,76,1	86,109,1	87,119,1	88,146,1	89,172,1	90,60,1	91,193,1	92,195,1	93,185,1	94,157,1	95,103,1	96,64,1	97,89,1	98,130,1	99,70,1	100,150,1	101,69,1	102,6,1	103,80,1	104,165,1	105,101,1	106,102,1	107,163,1	108,91,1	109,171,1	110,197,1	111,77,1	112,182,1	113,196,1	114,143,1	115,168,1	116,68,1	117,114,1	118,147,1	119,72,1	120,179,1	121,24,1	122,8,1	123,40,1	124,166,1	125,27,1	126,26,1	127,43,1	128,152,1	129,116,1	130,81,1	131,170,1	132,23,1	133,58,1	134,186,1	135,194,1	136,126,1	137,188,1	138,95,1	139,56,1	140,98,1	141,85,1	142,54,1	143,115,1	144,198,1	145,125,1	146,199,1	147,121,1	148,35,1	149,44,1	150,112,1	151,42,1	152,105,1	153,180,1	154,129,1	155,62,1	156,100,1	157,135,1	158,158,1	159,175,1	160,120,1	161,141,1	162,124,1	163,136,1	164,110,1	165,177,1	166,29,1	167,41,1	168,113,1	169,189,1	170,99,1	171,139,1	180,164,1	202,181,1	224,159,1	250,46,1	288,174,1	328,144,1	538,201,1	

23,2,1	29,32,1	35,162,1	57,5,1	63,37,1	67,142,1	73,187,1	83,83,1	95,31,1	105,134,1	107,140,1	111,38,1	123,106,1	133,49,1	143,104,1	159,156,1	183,94,1	209,92,1	239,45,1	279,93,1	323,107,1	369,153,1	485,88,1	







# Incoming
24,(2, 199),2	26,(2, 44),2	28,(2, 42),2	30,(2, 105),2	32,(2, 180),2	34,(2, 135),4	38,(2, 120),4	42,(2, 141),4	46,(2, 136),6	52,(2, 110),6	58,(5, 121),2	60,(5, 35),2	62,(5, 112),2	64,(5, 129),2	66,(5, 62),2	68,(5, 100),2	70,(5, 158),4	74,(5, 175),4	78,(5, 124),6	84,(5, 177),8	92,(2, 29),8	100,(5, 41),8	108,(5, 113),8	116,(2, 189),12	128,(5, 99),12	140,(2, 139),20	160,(5, 164),20	180,(5, 181),22	202,(5, 159),22	224,(2, 46),26	250,(2, 174),2	252,(5, 174),36	288,(2, 144),26	314,(5, 144),14	328,(32, 201),10	338,(162, 201),10	348,(37, 201),10	358,(142, 201),10	368,(187, 201),10	378,(83, 201),10	388,(31, 201),10	398,(134, 201),10	408,(140, 201),10	418,(38, 201),10	428,(106, 201),10	438,(49, 201),10	448,(104, 201),10	458,(156, 201),10	468,(94, 201),10	478,(92, 201),10	488,(45, 201),10	498,(93, 201),10	508,(107, 201),10	518,(153, 201),10	528,(88, 201),10	

1,(0, 2),22	23,(1, 32),6	29,(13, 162),6	35,(0, 5),22	57,(12, 37),6	63,(20, 142),2	65,(9, 142),2	67,(3, 187),6	73,(9, 83),10	83,(10, 31),12	95,(20, 140),2	97,(10, 38),4	101,(3, 106),2	103,(6, 134),2	105,(6, 140),2	107,(6, 38),4	111,(1, 106),6	117,(15, 106),6	123,(14, 49),8	131,(8, 49),2	133,(3, 104),6	139,(10, 104),2	141,(8, 104),2	143,(20, 156),2	145,(10, 156),14	159,(8, 94),24	183,(7, 92),2	185,(12, 92),2	187,(9, 92),22	209,(13, 45),2	211,(4, 45),28	239,(13, 93),4	243,(14, 93),24	267,(7, 93),6	273,(9, 93),6	279,(20, 107),40	319,(4, 107),4	323,(20, 153),38	361,(4, 153),4	365,(19, 153),2	367,(9, 153),2	369,(20, 88),60	429,(15, 88),54	483,(8, 88),2	







# Outgoing
1,(0, 2),22	23,(1, 32),6	29,(13, 162),6	35,(0, 5),22	57,(12, 37),6	63,(20, 142),2	65,(9, 142),2	67,(3, 187),6	73,(9, 83),10	83,(10, 31),12	95,(20, 140),2	97,(10, 38),4	101,(3, 106),2	103,(6, 134),2	105,(6, 140),2	107,(6, 38),4	111,(1, 106),6	117,(15, 106),6	123,(14, 49),8	131,(8, 49),2	133,(3, 104),6	139,(10, 104),2	141,(8, 104),2	143,(20, 156),2	145,(10, 156),14	159,(8, 94),24	183,(7, 92),2	185,(12, 92),2	187,(9, 92),22	209,(13, 45),2	211,(4, 45),28	239,(13, 93),4	243,(14, 93),24	267,(7, 93),6	273,(9, 93),6	279,(20, 107),40	319,(4, 107),4	323,(20, 153),38	361,(4, 153),4	365,(19, 153),2	367,(9, 153),2	369,(20, 88),60	429,(15, 88),54	483,(8, 88),2	

24,(2, 199),2	26,(2, 44),2	28,(2, 42),2	30,(2, 105),2	32,(2, 180),2	34,(2, 135),4	38,(2, 120),4	42,(2, 141),4	46,(2, 136),6	52,(2, 110),6	58,(5, 121),2	60,(5, 35),2	62,(5, 112),2	64,(5, 129),2	66,(5, 62),2	68,(5, 100),2	70,(5, 158),4	74,(5, 175),4	78,(5, 124),6	84,(5, 177),8	92,(2, 29),8	100,(5, 41),8	108,(5, 113),8	116,(2, 189),12	128,(5, 99),12	140,(2, 139),20	160,(5, 164),20	180,(5, 181),22	202,(5, 159),22	224,(2, 46),26	250,(2, 174),2	252,(5, 174),36	288,(2, 144),26	314,(5, 144),14	328,(32, 201),10	338,(162, 201),10	348,(37, 201),10	358,(142, 201),10	368,(187, 201),10	378,(83, 201),10	388,(31, 201),10	398,(134, 201),10	408,(140, 201),10	418,(38, 201),10	428,(106, 201),10	438,(49, 201),10	448,(104, 201),10	458,(156, 201),10	468,(94, 201),10	478,(92, 201),10	488,(45, 201),10	498,(93, 201),10	508,(107, 201),10	518,(153, 201),10	528,(88, 201),10	







