9009
# CPU
56,14,2	58,18,2	
126,17,2	130,12,2	740,20,2	
46,8,2	49,10,2	119,16,2	
23,2,2	25,11,2	45,6,2	69,13,2	99,15,2	
0,0,1	1,1,2	3,4,2	5,5,2	7,7,2	26,3,2	55,9,2	730,19,2	9008,21,1	
# Incoming
55,(2, 14),1	56,(2, 18),1	
119,(1, 17),7	126,(2, 12),4	730,(2, 20),10	
45,(1, 8),1	46,(1, 10),3	99,(1, 16),20	
1,(0, 2),22	23,(1, 6),22	49,(1, 13),20	69,(1, 15),30	
25,(2, 3),1	26,(2, 9),29	130,(2, 19),600	740,(11, 21),689	1429,(6, 21),689	2118,(8, 21),689	2807,(10, 21),689	3496,(14, 21),689	4185,(18, 21),689	4874,(13, 21),689	5563,(15, 21),689	6252,(16, 21),689	6941,(17, 21),689	7630,(12, 21),689	8319,(20, 21),689	
# Outgoing
3496,(14, 21),689	4185,(18, 21),689	
6941,(17, 21),689	7630,(12, 21),689	8319,(20, 21),689	
2118,(8, 21),689	2807,(10, 21),689	6252,(16, 21),689	
25,(2, 3),1	26,(2, 9),29	55,(2, 14),1	56,(2, 18),1	126,(2, 12),4	130,(2, 19),600	730,(2, 20),10	740,(11, 21),689	1429,(6, 21),689	4874,(13, 21),689	5563,(15, 21),689	
1,(0, 2),22	23,(1, 6),22	45,(1, 8),1	46,(1, 10),3	49,(1, 13),20	69,(1, 15),30	99,(1, 16),20	119,(1, 17),7	
