1094
# CPU
0,0,1	1,4,66	67,19,66	133,5,66	199,27,66	265,6,66	331,16,66	397,36,66	463,22,66	529,23,66	595,33,66	661,38,66	727,7,66	793,12,66	1027,11,66	1093,41,1	
3,1,66	69,17,66	135,20,66	201,31,66	267,37,66	333,15,66	399,29,66	465,9,66	531,2,66	597,28,66	663,32,66	729,10,66	795,26,66	861,21,66	
5,3,66	71,13,66	137,39,66	203,24,66	269,25,66	335,8,66	401,35,66	467,14,66	533,34,66	599,30,66	665,40,66	731,18,66	
# Incoming
135,(17, 41),16	151,(13, 41),16	167,(3, 33),4	171,(1, 12),24	201,(20, 41),16	217,(39, 41),16	267,(31, 41),16	283,(24, 41),16	333,(37, 41),16	349,(25, 41),16	399,(15, 41),16	415,(8, 41),16	465,(29, 41),16	481,(35, 41),16	531,(9, 41),16	547,(14, 41),16	597,(2, 38),2	599,(34, 41),16	615,(2, 7),20	663,(28, 41),16	679,(30, 41),16	729,(32, 41),16	745,(40, 41),16	795,(10, 41),16	811,(18, 41),16	861,(26, 41),16	877,(2, 11),150	1027,(21, 41),16	
1,(0, 1),2	5,(0, 2),2	67,(4, 9),2	
3,(0, 3),2	69,(4, 40),16	151,(1, 40),4	635,(2, 18),24	
# Outgoing
1,(0, 1),2	3,(0, 3),2	5,(0, 2),2	67,(4, 9),2	69,(4, 40),16	
135,(17, 41),16	151,(1, 40),4	171,(1, 12),24	201,(20, 41),16	267,(31, 41),16	333,(37, 41),16	399,(15, 41),16	465,(29, 41),16	531,(9, 41),16	597,(2, 38),2	615,(2, 7),20	635,(2, 18),24	663,(28, 41),16	729,(32, 41),16	795,(10, 41),16	861,(26, 41),16	877,(2, 11),150	1027,(21, 41),16	
151,(13, 41),16	167,(3, 33),4	217,(39, 41),16	283,(24, 41),16	349,(25, 41),16	415,(8, 41),16	481,(35, 41),16	547,(14, 41),16	599,(34, 41),16	679,(30, 41),16	745,(40, 41),16	811,(18, 41),16	
