4689
# CPU
61,3,28	121,6,28	149,36,28	181,9,28	241,12,28	269,27,28	297,51,28	361,72,28	601,39,28	838,54,28	910,111,28	1741,15,28	1769,21,28	2095,99,28	2158,87,28	2236,90,28	2305,48,28	2419,105,28	2974,75,28	3013,24,28	3041,30,28	3069,42,28	3106,57,28	3271,69,28	3367,117,28	3403,33,28	3431,45,28	3459,63,28	3487,66,28	3529,84,28	3557,93,28	3586,96,28	3619,102,28	3658,108,28	3736,114,28	3835,18,28	4135,120,28	4201,60,28	4273,78,28	4651,81,28	
31,2,28	91,5,28	151,8,28	211,11,28	239,38,28	361,26,28	760,53,28	788,65,28	829,77,28	859,86,28	1069,104,28	1207,110,28	1615,50,28	1643,68,28	1671,107,28	2041,23,28	2131,44,28	2329,71,28	2413,92,28	2470,119,28	2498,29,28	2704,41,28	2732,47,28	2760,59,28	2821,74,28	2849,83,28	2877,89,28	2905,95,28	2933,14,28	2961,17,28	2989,20,28	3017,32,28	3045,35,28	3073,56,28	3101,62,28	3129,80,28	3589,98,28	3676,113,28	3781,116,28	4393,101,28	
0,0,1	1,7,28	29,4,28	57,10,28	85,1,28	113,37,28	251,67,28	279,31,28	403,28,28	673,46,28	701,109,28	729,16,28	766,55,28	898,94,28	1192,91,28	1234,100,28	1262,49,28	1291,79,28	1654,34,28	1682,43,28	1714,76,28	1742,82,28	1770,88,28	1798,13,28	1826,40,28	1854,58,28	1882,106,28	1910,112,28	1938,19,28	1966,22,28	1994,25,28	2022,52,28	2050,61,28	2078,70,28	2106,73,28	2134,85,28	2162,97,28	2190,115,28	2218,118,28	2246,103,28	2371,64,28	4688,121,1	
# Incoming
31,(0, 3),30	65,(2, 30),6	91,(0, 6),30	151,(0, 9),30	211,(0, 12),30	241,(7, 18),6	247,(7, 21),9	256,(2, 54),15	271,(2, 66),9	280,(7, 24),78	358,(2, 72),3	361,(2, 111),3	364,(5, 45),3	367,(7, 33),24	391,(2, 60),12	406,(7, 39),195	601,(2, 84),12	613,(2, 93),33	646,(7, 54),39	685,(5, 15),9	697,(7, 63),84	781,(5, 69),3	784,(7, 66),33	817,(5, 24),12	829,(5, 54),9	859,(7, 87),3	871,(7, 99),27	898,(5, 105),6	904,(5, 111),6	910,(7, 117),798	1708,(7, 120),3	1711,(4, 15),12	1723,(8, 15),18	1741,(4, 21),18	1759,(2, 33),48	1807,(2, 45),51	1858,(2, 69),57	1915,(2, 105),48	1963,(2, 117),54	2017,(8, 24),15	2032,(8, 45),3	2035,(8, 63),3	2038,(8, 87),3	2041,(4, 24),21	2062,(4, 30),3	2065,(5, 99),30	2095,(4, 42),9	2104,(8, 60),15	2119,(8, 78),12	2131,(4, 45),18	2149,(8, 90),3	2152,(11, 30),3	2155,(11, 87),3	2158,(4, 57),3	2161,(4, 69),42	2203,(5, 90),33	2236,(8, 69),27	2263,(8, 102),9	2272,(8, 114),9	2281,(11, 48),24	2329,(4, 75),42	2371,(11, 96),6	2413,(4, 105),6	2419,(2, 75),555	2974,(10, 24),39	3013,(10, 30),9	3022,(10, 33),3	3025,(10, 42),6	3031,(10, 45),30	3061,(10, 57),45	3106,(10, 60),153	3259,(10, 69),12	3271,(10, 93),12	3283,(10, 96),60	3343,(10, 117),24	3367,(1, 18),3	3370,(1, 33),33	3403,(1, 45),9	3412,(1, 63),6	3418,(1, 66),6	3424,(1, 78),99	3523,(1, 81),3	3526,(1, 84),3	3529,(1, 93),12	3541,(1, 96),45	3607,(1, 102),12	3619,(1, 108),39	3676,(1, 114),60	3736,(8, 18),99	3835,(8, 120),300	4135,(11, 60),66	4201,(11, 78),72	4273,(11, 81),378	
1,(0, 2),30	61,(0, 5),30	121,(0, 8),30	181,(0, 11),30	233,(3, 26),18	256,(7, 23),24	280,(3, 35),12	292,(3, 44),3	316,(3, 65),3	319,(3, 68),24	343,(3, 71),3	355,(3, 86),3	358,(7, 26),3	361,(7, 29),6	391,(7, 35),15	406,(3, 83),39	445,(6, 41),129	574,(6, 53),6	580,(6, 113),3	583,(9, 50),6	601,(7, 41),3	604,(7, 50),39	643,(7, 53),3	646,(6, 56),30	685,(7, 62),12	697,(6, 65),24	721,(9, 35),27	748,(9, 53),12	760,(9, 68),3	763,(9, 80),3	781,(7, 65),3	802,(9, 56),15	817,(7, 74),6	823,(7, 77),6	829,(7, 80),9	838,(7, 86),21	859,(9, 107),3	862,(7, 89),9	871,(9, 74),27	898,(7, 101),6	904,(7, 110),6	1006,(9, 101),33	1039,(9, 104),30	1069,(9, 110),138	1207,(12, 23),24	1231,(12, 29),3	1234,(12, 47),9	1342,(12, 41),270	1612,(12, 50),3	1615,(12, 68),6	1621,(12, 74),12	1633,(12, 89),3	1636,(12, 95),3	1639,(12, 107),6	1645,(12, 119),12	1723,(4, 17),18	1759,(4, 23),282	2065,(4, 35),30	2104,(4, 44),27	2149,(4, 56),9	2203,(4, 71),126	2371,(4, 83),39	2410,(4, 92),3	2419,(4, 113),45	2464,(4, 116),3	2467,(4, 119),3	2470,(10, 20),3	2473,(10, 29),6	2479,(10, 41),225	2704,(10, 47),18	2722,(10, 59),18	2740,(10, 62),27	2767,(10, 74),54	2821,(10, 83),6	2827,(10, 89),3	2830,(10, 95),15	2845,(1, 14),21	2866,(1, 17),6	2872,(1, 20),15	2887,(1, 32),3	2890,(1, 35),9	2899,(1, 56),3	2902,(1, 62),33	2935,(1, 80),39	2974,(12, 80),114	3586,(1, 98),3	3589,(1, 101),18	3658,(1, 113),18	3736,(1, 116),45	3781,(12, 101),612	
59,(2, 13),6	71,(2, 40),129	200,(2, 43),3	203,(2, 46),6	209,(2, 100),9	218,(3, 16),15	233,(5, 28),3	236,(5, 43),9	245,(5, 64),3	248,(5, 67),3	251,(3, 28),3	254,(3, 31),3	257,(3, 34),21	280,(5, 46),9	289,(5, 85),3	292,(5, 109),3	295,(3, 49),21	316,(5, 13),30	346,(3, 76),6	352,(3, 79),3	355,(8, 13),3	358,(3, 103),36	394,(6, 28),9	403,(2, 109),186	589,(6, 58),12	601,(6, 76),3	604,(6, 79),39	643,(6, 88),3	646,(5, 97),21	667,(8, 46),6	673,(8, 97),3	676,(6, 103),3	679,(6, 109),6	685,(6, 112),6	691,(9, 16),3	694,(5, 55),72	766,(6, 97),27	793,(36, 121),9	802,(8, 82),15	817,(9, 19),3	820,(9, 25),3	823,(9, 40),3	826,(9, 82),3	829,(9, 91),3	832,(9, 97),3	835,(9, 100),3	838,(5, 94),60	898,(6, 64),108	1006,(8, 19),24	1030,(8, 85),21	1051,(8, 91),141	1192,(8, 100),42	1234,(8, 103),9	1243,(9, 49),18	1261,(9, 79),30	1291,(9, 85),51	1342,(11, 13),45	1387,(11, 19),9	1396,(11, 25),15	1411,(11, 34),243	1654,(11, 43),3	1657,(11, 58),12	1669,(11, 70),24	1693,(11, 73),9	1702,(11, 76),12	1714,(11, 82),3	1717,(11, 88),3	1720,(11, 97),3	1723,(12, 13),9	1732,(12, 40),3	1735,(12, 58),6	1741,(11, 106),3	1744,(11, 112),3	1747,(11, 115),3	1750,(38, 121),9	1759,(12, 19),21	1780,(12, 22),12	1792,(12, 25),24	1816,(12, 52),39	1855,(12, 61),3	1858,(12, 70),3	1861,(12, 73),3	1864,(12, 85),3	1867,(12, 97),27	1894,(12, 103),15	1909,(12, 115),111	2020,(12, 118),18	2041,(11, 103),21	2062,(27, 121),9	2071,(51, 121),9	2080,(72, 121),9	2095,(26, 121),9	2104,(39, 121),9	2113,(54, 121),9	2122,(111, 121),9	2131,(53, 121),9	2140,(65, 121),9	2149,(15, 121),9	2158,(77, 121),9	2167,(86, 121),9	2176,(104, 121),9	2185,(110, 121),9	2194,(50, 121),9	2203,(21, 121),9	2212,(99, 121),9	2221,(87, 121),9	2264,(90, 121),9	2305,(11, 64),66	2377,(68, 121),9	2386,(107, 121),9	2395,(23, 121),9	2404,(44, 121),9	2413,(48, 121),9	2447,(105, 121),9	2974,(71, 121),9	2983,(92, 121),9	2992,(119, 121),9	3001,(29, 121),9	3010,(41, 121),9	3019,(47, 121),9	3028,(59, 121),9	3037,(74, 121),9	3046,(83, 121),9	3055,(89, 121),9	3064,(95, 121),9	3073,(14, 121),9	3082,(17, 121),9	3091,(75, 121),9	3100,(20, 121),9	3109,(24, 121),9	3118,(32, 121),9	3127,(30, 121),9	3136,(35, 121),9	3145,(42, 121),9	3154,(56, 121),9	3163,(62, 121),9	3172,(57, 121),9	3181,(80, 121),9	3299,(69, 121),9	3395,(117, 121),9	3431,(33, 121),9	3459,(45, 121),9	3487,(63, 121),9	3515,(66, 121),9	3557,(84, 121),9	3585,(93, 121),9	3614,(96, 121),9	3623,(98, 121),9	3647,(102, 121),9	3686,(108, 121),9	3704,(113, 121),9	3764,(114, 121),9	4393,(18, 121),9	4402,(120, 121),9	4411,(60, 121),9	4420,(78, 121),9	4651,(116, 121),9	4660,(101, 121),9	4679,(81, 121),9	
# Outgoing
218,(3, 16),15	233,(3, 26),18	251,(3, 28),3	254,(3, 31),3	257,(3, 34),21	280,(3, 35),12	292,(3, 44),3	295,(3, 49),21	316,(3, 65),3	319,(3, 68),24	343,(3, 71),3	346,(3, 76),6	352,(3, 79),3	355,(3, 86),3	358,(3, 103),36	394,(6, 28),9	406,(3, 83),39	445,(6, 41),129	574,(6, 53),6	580,(6, 113),3	583,(9, 50),6	589,(6, 58),12	601,(6, 76),3	604,(6, 79),39	643,(6, 88),3	646,(6, 56),30	676,(6, 103),3	679,(6, 109),6	685,(6, 112),6	691,(9, 16),3	697,(6, 65),24	721,(9, 35),27	748,(9, 53),12	760,(9, 68),3	763,(9, 80),3	766,(6, 97),27	793,(36, 121),9	802,(9, 56),15	817,(9, 19),3	820,(9, 25),3	823,(9, 40),3	826,(9, 82),3	829,(9, 91),3	832,(9, 97),3	835,(9, 100),3	859,(9, 107),3	871,(9, 74),27	898,(6, 64),108	1006,(9, 101),33	1039,(9, 104),30	1069,(9, 110),138	1207,(12, 23),24	1231,(12, 29),3	1234,(12, 47),9	1243,(9, 49),18	1261,(9, 79),30	1291,(9, 85),51	1342,(12, 41),270	1612,(12, 50),3	1615,(12, 68),6	1621,(12, 74),12	1633,(12, 89),3	1636,(12, 95),3	1639,(12, 107),6	1645,(12, 119),12	1723,(12, 13),9	1732,(12, 40),3	1735,(12, 58),6	1759,(12, 19),21	1780,(12, 22),12	1792,(12, 25),24	1816,(12, 52),39	1855,(12, 61),3	1858,(12, 70),3	1861,(12, 73),3	1864,(12, 85),3	1867,(12, 97),27	1894,(12, 103),15	1909,(12, 115),111	2020,(12, 118),18	2062,(27, 121),9	2071,(51, 121),9	2080,(72, 121),9	2104,(39, 121),9	2113,(54, 121),9	2122,(111, 121),9	2149,(15, 121),9	2203,(21, 121),9	2212,(99, 121),9	2221,(87, 121),9	2264,(90, 121),9	2413,(48, 121),9	2447,(105, 121),9	2974,(12, 80),114	3091,(75, 121),9	3109,(24, 121),9	3127,(30, 121),9	3145,(42, 121),9	3172,(57, 121),9	3299,(69, 121),9	3395,(117, 121),9	3431,(33, 121),9	3459,(45, 121),9	3487,(63, 121),9	3515,(66, 121),9	3557,(84, 121),9	3585,(93, 121),9	3614,(96, 121),9	3647,(102, 121),9	3686,(108, 121),9	3764,(114, 121),9	3781,(12, 101),612	4393,(18, 121),9	4402,(120, 121),9	4411,(60, 121),9	4420,(78, 121),9	4679,(81, 121),9	
59,(2, 13),6	65,(2, 30),6	71,(2, 40),129	200,(2, 43),3	203,(2, 46),6	209,(2, 100),9	233,(5, 28),3	236,(5, 43),9	245,(5, 64),3	248,(5, 67),3	256,(2, 54),15	271,(2, 66),9	280,(5, 46),9	289,(5, 85),3	292,(5, 109),3	316,(5, 13),30	355,(8, 13),3	358,(2, 72),3	361,(2, 111),3	364,(5, 45),3	391,(2, 60),12	403,(2, 109),186	601,(2, 84),12	613,(2, 93),33	646,(5, 97),21	667,(8, 46),6	673,(8, 97),3	685,(5, 15),9	694,(5, 55),72	781,(5, 69),3	802,(8, 82),15	817,(5, 24),12	829,(5, 54),9	838,(5, 94),60	898,(5, 105),6	904,(5, 111),6	1006,(8, 19),24	1030,(8, 85),21	1051,(8, 91),141	1192,(8, 100),42	1234,(8, 103),9	1342,(11, 13),45	1387,(11, 19),9	1396,(11, 25),15	1411,(11, 34),243	1654,(11, 43),3	1657,(11, 58),12	1669,(11, 70),24	1693,(11, 73),9	1702,(11, 76),12	1714,(11, 82),3	1717,(11, 88),3	1720,(11, 97),3	1723,(8, 15),18	1741,(11, 106),3	1744,(11, 112),3	1747,(11, 115),3	1750,(38, 121),9	1759,(2, 33),48	1807,(2, 45),51	1858,(2, 69),57	1915,(2, 105),48	1963,(2, 117),54	2017,(8, 24),15	2032,(8, 45),3	2035,(8, 63),3	2038,(8, 87),3	2041,(11, 103),21	2065,(5, 99),30	2095,(26, 121),9	2104,(8, 60),15	2119,(8, 78),12	2131,(53, 121),9	2140,(65, 121),9	2149,(8, 90),3	2152,(11, 30),3	2155,(11, 87),3	2158,(77, 121),9	2167,(86, 121),9	2176,(104, 121),9	2185,(110, 121),9	2194,(50, 121),9	2203,(5, 90),33	2236,(8, 69),27	2263,(8, 102),9	2272,(8, 114),9	2281,(11, 48),24	2305,(11, 64),66	2371,(11, 96),6	2377,(68, 121),9	2386,(107, 121),9	2395,(23, 121),9	2404,(44, 121),9	2419,(2, 75),555	2974,(71, 121),9	2983,(92, 121),9	2992,(119, 121),9	3001,(29, 121),9	3010,(41, 121),9	3019,(47, 121),9	3028,(59, 121),9	3037,(74, 121),9	3046,(83, 121),9	3055,(89, 121),9	3064,(95, 121),9	3073,(14, 121),9	3082,(17, 121),9	3100,(20, 121),9	3118,(32, 121),9	3136,(35, 121),9	3154,(56, 121),9	3163,(62, 121),9	3181,(80, 121),9	3623,(98, 121),9	3704,(113, 121),9	3736,(8, 18),99	3835,(8, 120),300	4135,(11, 60),66	4201,(11, 78),72	4273,(11, 81),378	4651,(116, 121),9	4660,(101, 121),9	
1,(0, 2),30	31,(0, 3),30	61,(0, 5),30	91,(0, 6),30	121,(0, 8),30	151,(0, 9),30	181,(0, 11),30	211,(0, 12),30	241,(7, 18),6	247,(7, 21),9	256,(7, 23),24	280,(7, 24),78	358,(7, 26),3	361,(7, 29),6	367,(7, 33),24	391,(7, 35),15	406,(7, 39),195	601,(7, 41),3	604,(7, 50),39	643,(7, 53),3	646,(7, 54),39	685,(7, 62),12	697,(7, 63),84	781,(7, 65),3	784,(7, 66),33	817,(7, 74),6	823,(7, 77),6	829,(7, 80),9	838,(7, 86),21	859,(7, 87),3	862,(7, 89),9	871,(7, 99),27	898,(7, 101),6	904,(7, 110),6	910,(7, 117),798	1708,(7, 120),3	1711,(4, 15),12	1723,(4, 17),18	1741,(4, 21),18	1759,(4, 23),282	2041,(4, 24),21	2062,(4, 30),3	2065,(4, 35),30	2095,(4, 42),9	2104,(4, 44),27	2131,(4, 45),18	2149,(4, 56),9	2158,(4, 57),3	2161,(4, 69),42	2203,(4, 71),126	2329,(4, 75),42	2371,(4, 83),39	2410,(4, 92),3	2413,(4, 105),6	2419,(4, 113),45	2464,(4, 116),3	2467,(4, 119),3	2470,(10, 20),3	2473,(10, 29),6	2479,(10, 41),225	2704,(10, 47),18	2722,(10, 59),18	2740,(10, 62),27	2767,(10, 74),54	2821,(10, 83),6	2827,(10, 89),3	2830,(10, 95),15	2845,(1, 14),21	2866,(1, 17),6	2872,(1, 20),15	2887,(1, 32),3	2890,(1, 35),9	2899,(1, 56),3	2902,(1, 62),33	2935,(1, 80),39	2974,(10, 24),39	3013,(10, 30),9	3022,(10, 33),3	3025,(10, 42),6	3031,(10, 45),30	3061,(10, 57),45	3106,(10, 60),153	3259,(10, 69),12	3271,(10, 93),12	3283,(10, 96),60	3343,(10, 117),24	3367,(1, 18),3	3370,(1, 33),33	3403,(1, 45),9	3412,(1, 63),6	3418,(1, 66),6	3424,(1, 78),99	3523,(1, 81),3	3526,(1, 84),3	3529,(1, 93),12	3541,(1, 96),45	3586,(1, 98),3	3589,(1, 101),18	3607,(1, 102),12	3619,(1, 108),39	3658,(1, 113),18	3676,(1, 114),60	3736,(1, 116),45	
