7278
# CPU
353,5,3	356,16,3	529,115,3	597,60,3	705,10,3	708,35,3	711,95,3	753,45,3	881,120,3	1133,55,3	1836,70,3	1965,105,3	1969,110,3	2153,65,3	2269,75,3	2309,85,3	2345,100,3	2493,25,3	2509,30,3	2677,50,3	2737,80,3	3201,40,3	3833,20,3	4381,90,3	
265,4,3	268,49,3	457,29,3	473,34,3	617,9,3	620,54,3	629,109,3	637,14,3	669,19,3	685,79,3	1885,114,3	1961,24,3	2129,39,3	2140,44,3	2217,69,3	2313,89,3	2317,94,3	2489,119,3	2493,64,3	2497,104,3	2737,59,3	2769,84,3	5821,74,3	6253,99,3	
177,3,3	180,118,3	409,98,3	413,103,3	529,8,3	532,43,3	535,73,3	725,88,3	1017,33,3	2009,108,3	2021,13,3	2029,23,3	2077,28,3	2221,48,3	2261,18,3	2273,38,3	2297,83,3	2309,78,3	2376,58,3	2512,63,3	2548,68,3	2701,53,3	3717,113,3	7269,93,3	
89,2,3	92,67,3	95,77,3	441,7,3	553,117,3	557,17,3	585,22,3	793,12,3	796,112,3	1013,27,3	1049,42,3	1077,47,3	1689,87,3	1693,102,3	2312,52,3	2460,92,3	2476,57,3	2549,32,3	2589,37,3	2621,107,3	2649,82,3	2745,62,3	2765,72,3	6137,97,3	
0,0,1	1,1,3	4,11,3	7,6,3	10,106,3	13,71,3	16,76,3	1776,96,3	1828,21,3	1836,26,3	1848,36,3	2036,51,3	2064,91,3	2072,111,3	2128,116,3	2268,66,3	2281,41,3	2353,61,3	2452,86,3	2484,81,3	2581,46,3	2625,15,3	2677,56,3	3665,31,3	6293,101,3	7277,121,1	
# Incoming
265,(0, 5),88	353,(4, 30),40	493,(3, 45),24	521,(3, 100),4	525,(3, 115),4	585,(8, 60),12	617,(0, 10),88	705,(8, 45),48	841,(8, 120),40	881,(9, 105),108	997,(1, 20),12	1077,(1, 55),56	1133,(9, 25),160	1485,(1, 85),32	1832,(12, 70),4	1837,(1, 110),20	1961,(12, 105),4	1965,(12, 110),4	1989,(11, 25),48	2129,(11, 40),12	2141,(11, 65),12	2217,(11, 75),52	2269,(11, 80),12	2297,(11, 85),12	2317,(11, 100),28	2489,(6, 25),4	2493,(6, 30),16	2589,(6, 50),88	2677,(12, 80),60	2769,(6, 90),120	2889,(2, 40),312	3201,(8, 20),632	3833,(12, 90),548	
177,(0, 4),88	265,(3, 14),92	357,(3, 19),60	417,(3, 24),20	437,(3, 29),20	461,(3, 34),12	529,(0, 9),88	617,(3, 109),12	629,(8, 14),8	637,(8, 19),32	669,(8, 39),4	673,(8, 79),12	753,(8, 104),88	1181,(1, 74),256	1772,(2, 119),4	1784,(7, 39),8	1792,(7, 44),4	1796,(7, 84),36	1857,(1, 114),28	1885,(7, 24),76	2089,(11, 39),40	2136,(5, 44),4	2153,(11, 69),64	2309,(11, 89),4	2313,(11, 94),4	2345,(11, 104),140	2485,(11, 119),4	2489,(5, 64),4	2493,(5, 104),4	2649,(10, 84),20	2701,(6, 59),36	2765,(6, 84),4	3717,(10, 74),2104	6137,(10, 99),116	
89,(0, 3),88	268,(4, 18),4	393,(4, 98),16	409,(4, 103),4	441,(0, 8),88	529,(4, 83),56	649,(4, 108),44	701,(9, 88),24	793,(1, 13),204	1013,(1, 33),4	1137,(1, 58),44	1693,(1, 108),144	1837,(2, 83),48	1885,(11, 18),104	1989,(2, 108),20	2009,(7, 13),12	2021,(7, 23),8	2029,(7, 83),4	2033,(12, 28),4	2037,(11, 28),40	2077,(11, 38),12	2089,(2, 48),132	2221,(7, 18),40	2261,(7, 38),12	2281,(11, 83),16	2297,(7, 78),12	2312,(5, 58),64	2376,(12, 63),136	2512,(12, 68),36	2677,(6, 53),24	2701,(5, 113),1016	4381,(12, 93),2888	
1,(0, 2),88	272,(4, 52),80	353,(0, 7),88	457,(3, 32),4	473,(3, 42),20	517,(3, 97),4	529,(3, 117),24	553,(8, 17),4	557,(8, 22),28	585,(4, 107),64	693,(9, 47),8	705,(0, 12),88	793,(9, 42),72	865,(9, 102),4	1009,(1, 27),4	1017,(1, 42),32	1049,(1, 47),28	1133,(1, 57),4	1437,(1, 82),48	1517,(1, 87),172	1689,(1, 102),4	2192,(5, 52),120	2376,(5, 72),4	2452,(5, 92),8	2472,(10, 57),4	2509,(6, 32),40	2549,(6, 37),40	2589,(5, 107),32	2621,(10, 82),28	2737,(6, 62),8	2745,(6, 72),20	5821,(10, 97),316	
92,(2, 15),1680	1772,(3, 96),4	1776,(67, 121),4	1780,(77, 121),4	1784,(3, 101),28	1812,(118, 121),4	1816,(4, 21),12	1828,(4, 26),8	1836,(4, 36),12	1848,(4, 51),188	2036,(4, 91),28	2064,(4, 111),8	2072,(4, 116),56	2128,(49, 121),4	2132,(5, 15),4	2136,(98, 121),4	2140,(5, 46),52	2192,(103, 121),4	2196,(29, 121),4	2200,(34, 121),4	2204,(43, 121),4	2208,(73, 121),4	2212,(9, 66),56	2268,(54, 121),4	2273,(7, 41),8	2281,(8, 61),72	2353,(117, 121),4	2357,(17, 121),4	2361,(22, 121),4	2365,(109, 121),4	2369,(14, 121),4	2373,(19, 121),4	2380,(5, 86),72	2452,(79, 121),4	2456,(88, 121),4	2460,(16, 121),4	2464,(115, 121),4	2468,(60, 121),4	2472,(33, 121),4	2476,(10, 81),8	2484,(35, 121),4	2488,(114, 121),4	2492,(24, 121),4	2497,(10, 46),84	2581,(95, 121),4	2585,(45, 121),4	2589,(12, 15),36	2625,(12, 56),52	2677,(120, 121),4	2681,(55, 121),4	2685,(70, 121),4	2689,(105, 121),4	2693,(110, 121),4	2697,(108, 121),4	2701,(13, 121),4	2705,(23, 121),4	2709,(28, 121),4	2713,(39, 121),4	2717,(44, 121),4	2721,(69, 121),4	2725,(48, 121),4	2729,(18, 121),4	2733,(38, 121),4	2737,(112, 121),4	2741,(27, 121),4	2745,(42, 121),4	2749,(47, 121),4	2753,(87, 121),4	2757,(102, 121),4	2761,(83, 121),4	2765,(78, 121),4	2769,(52, 121),4	2773,(89, 121),4	2777,(94, 121),4	2781,(58, 121),4	2785,(92, 121),4	2789,(57, 121),4	2793,(119, 121),4	2797,(64, 121),4	2801,(104, 121),4	2805,(63, 121),4	2809,(68, 121),4	2813,(32, 121),4	2817,(37, 121),4	2821,(107, 121),4	2825,(82, 121),4	2829,(53, 121),4	2833,(59, 121),4	2837,(62, 121),4	2841,(72, 121),4	2845,(84, 121),4	3201,(7, 31),464	3833,(113, 121),4	5824,(74, 121),4	6253,(10, 101),40	6293,(65, 121),4	6297,(75, 121),4	6301,(85, 121),4	6305,(100, 121),4	6309,(25, 121),4	6313,(30, 121),4	6317,(50, 121),4	6321,(80, 121),4	6325,(40, 121),4	6329,(20, 121),4	6333,(90, 121),4	6337,(99, 121),4	7269,(97, 121),4	7273,(93, 121),4	
# Outgoing
2132,(5, 15),4	2136,(5, 44),4	2140,(5, 46),52	2192,(5, 52),120	2312,(5, 58),64	2376,(5, 72),4	2380,(5, 86),72	2452,(5, 92),8	2460,(16, 121),4	2464,(115, 121),4	2468,(60, 121),4	2472,(10, 57),4	2476,(10, 81),8	2484,(35, 121),4	2489,(5, 64),4	2493,(5, 104),4	2497,(10, 46),84	2581,(95, 121),4	2585,(45, 121),4	2589,(5, 107),32	2621,(10, 82),28	2649,(10, 84),20	2677,(120, 121),4	2681,(55, 121),4	2685,(70, 121),4	2689,(105, 121),4	2693,(110, 121),4	2701,(5, 113),1016	3717,(10, 74),2104	5821,(10, 97),316	6137,(10, 99),116	6253,(10, 101),40	6293,(65, 121),4	6297,(75, 121),4	6301,(85, 121),4	6305,(100, 121),4	6309,(25, 121),4	6313,(30, 121),4	6317,(50, 121),4	6321,(80, 121),4	6325,(40, 121),4	6329,(20, 121),4	6333,(90, 121),4	
268,(4, 18),4	272,(4, 52),80	353,(4, 30),40	393,(4, 98),16	409,(4, 103),4	529,(4, 83),56	585,(4, 107),64	649,(4, 108),44	693,(9, 47),8	701,(9, 88),24	793,(9, 42),72	865,(9, 102),4	881,(9, 105),108	1133,(9, 25),160	1816,(4, 21),12	1828,(4, 26),8	1836,(4, 36),12	1848,(4, 51),188	2036,(4, 91),28	2064,(4, 111),8	2072,(4, 116),56	2128,(49, 121),4	2196,(29, 121),4	2200,(34, 121),4	2212,(9, 66),56	2268,(54, 121),4	2365,(109, 121),4	2369,(14, 121),4	2373,(19, 121),4	2452,(79, 121),4	2488,(114, 121),4	2492,(24, 121),4	2713,(39, 121),4	2717,(44, 121),4	2721,(69, 121),4	2773,(89, 121),4	2777,(94, 121),4	2793,(119, 121),4	2797,(64, 121),4	2801,(104, 121),4	2833,(59, 121),4	2845,(84, 121),4	5824,(74, 121),4	6337,(99, 121),4	
265,(3, 14),92	357,(3, 19),60	417,(3, 24),20	437,(3, 29),20	457,(3, 32),4	461,(3, 34),12	473,(3, 42),20	493,(3, 45),24	517,(3, 97),4	521,(3, 100),4	525,(3, 115),4	529,(3, 117),24	553,(8, 17),4	557,(8, 22),28	585,(8, 60),12	617,(3, 109),12	629,(8, 14),8	637,(8, 19),32	669,(8, 39),4	673,(8, 79),12	705,(8, 45),48	753,(8, 104),88	841,(8, 120),40	1772,(3, 96),4	1784,(3, 101),28	1812,(118, 121),4	2136,(98, 121),4	2192,(103, 121),4	2204,(43, 121),4	2208,(73, 121),4	2281,(8, 61),72	2456,(88, 121),4	2472,(33, 121),4	2697,(108, 121),4	2701,(13, 121),4	2705,(23, 121),4	2709,(28, 121),4	2725,(48, 121),4	2729,(18, 121),4	2733,(38, 121),4	2761,(83, 121),4	2765,(78, 121),4	2781,(58, 121),4	2805,(63, 121),4	2809,(68, 121),4	2829,(53, 121),4	3201,(8, 20),632	3833,(113, 121),4	7273,(93, 121),4	
92,(2, 15),1680	1772,(2, 119),4	1776,(67, 121),4	1780,(77, 121),4	1784,(7, 39),8	1792,(7, 44),4	1796,(7, 84),36	1832,(12, 70),4	1837,(2, 83),48	1885,(7, 24),76	1961,(12, 105),4	1965,(12, 110),4	1989,(2, 108),20	2009,(7, 13),12	2021,(7, 23),8	2029,(7, 83),4	2033,(12, 28),4	2089,(2, 48),132	2221,(7, 18),40	2261,(7, 38),12	2273,(7, 41),8	2297,(7, 78),12	2353,(117, 121),4	2357,(17, 121),4	2361,(22, 121),4	2376,(12, 63),136	2512,(12, 68),36	2589,(12, 15),36	2625,(12, 56),52	2677,(12, 80),60	2737,(112, 121),4	2741,(27, 121),4	2745,(42, 121),4	2749,(47, 121),4	2753,(87, 121),4	2757,(102, 121),4	2769,(52, 121),4	2785,(92, 121),4	2789,(57, 121),4	2813,(32, 121),4	2817,(37, 121),4	2821,(107, 121),4	2825,(82, 121),4	2837,(62, 121),4	2841,(72, 121),4	2889,(2, 40),312	3201,(7, 31),464	3833,(12, 90),548	4381,(12, 93),2888	7269,(97, 121),4	
1,(0, 2),88	89,(0, 3),88	177,(0, 4),88	265,(0, 5),88	353,(0, 7),88	441,(0, 8),88	529,(0, 9),88	617,(0, 10),88	705,(0, 12),88	793,(1, 13),204	997,(1, 20),12	1009,(1, 27),4	1013,(1, 33),4	1017,(1, 42),32	1049,(1, 47),28	1077,(1, 55),56	1133,(1, 57),4	1137,(1, 58),44	1181,(1, 74),256	1437,(1, 82),48	1485,(1, 85),32	1517,(1, 87),172	1689,(1, 102),4	1693,(1, 108),144	1837,(1, 110),20	1857,(1, 114),28	1885,(11, 18),104	1989,(11, 25),48	2037,(11, 28),40	2077,(11, 38),12	2089,(11, 39),40	2129,(11, 40),12	2141,(11, 65),12	2153,(11, 69),64	2217,(11, 75),52	2269,(11, 80),12	2281,(11, 83),16	2297,(11, 85),12	2309,(11, 89),4	2313,(11, 94),4	2317,(11, 100),28	2345,(11, 104),140	2485,(11, 119),4	2489,(6, 25),4	2493,(6, 30),16	2509,(6, 32),40	2549,(6, 37),40	2589,(6, 50),88	2677,(6, 53),24	2701,(6, 59),36	2737,(6, 62),8	2745,(6, 72),20	2765,(6, 84),4	2769,(6, 90),120	
