5196
# CPU
19,10,5	37,20,5	107,190,5	317,80,5	547,160,5	627,40,5	687,30,5	695,130,5	789,70,5	799,140,5	1111,100,5	1169,50,5	1399,120,5	1643,60,5	1725,90,5	1743,110,5	1967,200,5	3119,180,5	3269,150,5	3289,170,5	
17,9,5	22,89,5	27,179,5	35,19,5	95,129,5	109,159,5	157,79,5	361,199,5	625,59,5	630,99,5	675,69,5	747,119,5	759,29,5	965,169,5	1169,189,5	1341,39,5	1445,139,5	1585,49,5	1699,149,5	3523,109,5	
15,8,5	33,18,5	38,28,5	141,148,5	153,108,5	501,118,5	577,98,5	617,178,5	645,48,5	709,88,5	725,68,5	795,138,5	833,188,5	845,198,5	1539,158,5	3069,58,5	3074,38,5	3081,128,5	3086,168,5	3207,78,5	
13,7,5	31,17,5	89,37,5	115,77,5	143,117,5	249,27,5	267,87,5	409,157,5	761,127,5	767,147,5	772,177,5	793,167,5	815,57,5	931,97,5	965,137,5	985,187,5	999,197,5	1373,107,5	1599,47,5	3249,67,5	
11,6,5	29,16,5	807,146,5	1287,26,5	1303,96,5	1335,66,5	1635,36,5	1641,76,5	1723,86,5	1771,156,5	2089,196,5	2325,176,5	2411,116,5	2433,166,5	3071,136,5	3103,56,5	3153,186,5	3179,46,5	3241,126,5	3277,106,5	
9,5,5	27,15,5	33,65,5	38,85,5	233,195,5	267,55,5	299,95,5	337,175,5	407,25,5	521,105,5	767,115,5	787,125,5	819,145,5	991,155,5	1241,35,5	1371,75,5	1775,135,5	3171,45,5	3275,165,5	3869,185,5	
7,4,5	25,14,5	45,54,5	187,74,5	195,44,5	315,34,5	405,84,5	655,104,5	709,164,5	745,154,5	777,124,5	1033,194,5	1201,24,5	3071,94,5	3083,64,5	3099,144,5	3209,114,5	3267,134,5	3853,174,5	3867,184,5	
5,3,5	23,13,5	39,33,5	403,23,5	525,163,5	621,83,5	761,113,5	815,193,5	820,143,5	1285,73,5	1349,103,5	1373,63,5	1431,153,5	1441,183,5	1446,133,5	1573,173,5	1773,53,5	1778,93,5	3161,43,5	3227,123,5	
3,2,5	21,12,5	141,92,5	167,62,5	279,22,5	395,102,5	407,152,5	529,182,5	587,132,5	651,82,5	695,72,5	861,172,5	1001,162,5	1041,52,5	1203,32,5	1307,42,5	1391,142,5	1553,122,5	1671,112,5	3875,192,5	
0,0,1	1,1,5	6,11,5	475,171,5	487,31,5	1087,111,5	1229,71,5	1375,121,5	1439,91,5	1477,161,5	1537,141,5	1551,191,5	1585,181,5	1601,51,5	1641,41,5	1719,101,5	1765,151,5	1807,131,5	1877,81,5	1967,21,5	3193,61,5	5195,201,1	
# Incoming
17,(0, 10),2	28,(5, 130),2	35,(0, 20),2	45,(6, 60),36	81,(6, 90),8	89,(6, 130),2	91,(6, 140),6	105,(6, 190),2	131,(16, 90),8	143,(1, 60),12	155,(15, 40),2	157,(18, 70),2	183,(3, 60),6	189,(3, 90),2	191,(16, 200),4	209,(16, 120),8	217,(9, 70),2	227,(5, 180),20	255,(9, 80),62	329,(9, 180),2	339,(3, 200),2	341,(16, 30),16	357,(9, 100),22	465,(2, 110),14	479,(15, 150),12	499,(4, 180),2	501,(15, 160),46	619,(14, 40),2	625,(11, 40),2	651,(11, 130),2	657,(13, 30),30	691,(13, 100),2	693,(13, 130),2	719,(11, 100),8	727,(16, 70),62	795,(11, 140),4	845,(11, 200),44	889,(16, 110),60	965,(15, 100),146	1111,(19, 50),58	1371,(19, 120),28	1641,(12, 60),2	1723,(12, 90),2	1725,(12, 110),18	1807,(12, 150),42	1849,(12, 180),110	1959,(12, 200),8	3093,(7, 180),26	3267,(17, 150),2	3275,(17, 170),14	
15,(0, 9),2	33,(0, 19),2	61,(5, 99),14	81,(5, 129),14	99,(6, 149),2	107,(16, 159),2	129,(1, 39),4	133,(8, 199),6	139,(18, 29),2	141,(18, 39),4	149,(18, 79),8	159,(1, 69),10	169,(18, 119),2	171,(18, 169),2	179,(20, 149),2	191,(1, 109),168	359,(3, 199),2	383,(3, 99),66	449,(15, 139),8	463,(3, 109),18	481,(3, 119),16	497,(3, 149),24	541,(1, 189),82	623,(4, 59),2	625,(4, 99),2	627,(11, 49),16	661,(11, 69),14	675,(8, 119),72	747,(13, 29),12	761,(13, 139),4	793,(4, 189),18	811,(5, 169),154	965,(10, 139),80	1045,(13, 189),124	1241,(7, 39),100	1443,(17, 139),2	1455,(7, 49),130	1671,(14, 149),28	3277,(15, 109),246	
13,(0, 8),2	31,(0, 18),2	61,(10, 108),10	71,(10, 118),2	107,(10, 188),26	139,(16, 148),2	141,(5, 178),2	143,(5, 188),4	147,(20, 78),2	151,(15, 108),2	157,(15, 188),2	195,(3, 58),48	243,(6, 168),54	301,(20, 188),4	317,(9, 98),6	323,(9, 138),6	347,(3, 158),10	363,(1, 128),2	365,(16, 38),36	401,(16, 98),16	453,(9, 188),8	479,(2, 118),22	501,(4, 38),50	551,(4, 88),14	565,(4, 98),12	601,(4, 178),16	625,(19, 168),6	631,(14, 48),14	645,(3, 198),12	657,(11, 68),4	671,(19, 188),6	695,(11, 88),14	709,(13, 68),16	787,(11, 138),8	813,(14, 128),2	831,(11, 188),2	837,(11, 198),8	1087,(4, 128),358	1445,(7, 38),10	1455,(15, 158),84	1585,(7, 58),1484	3069,(12, 38),4	3073,(12, 128),8	3081,(12, 168),2	3193,(17, 78),14	
11,(0, 7),2	26,(5, 127),2	29,(0, 17),2	31,(5, 67),6	37,(10, 27),20	63,(8, 47),10	73,(10, 37),16	97,(8, 127),14	111,(16, 47),2	113,(16, 77),2	133,(20, 27),2	135,(5, 147),2	139,(5, 167),2	141,(16, 117),2	147,(5, 197),2	149,(10, 147),30	179,(18, 97),12	223,(9, 157),2	247,(15, 27),2	259,(3, 87),8	293,(15, 147),4	301,(3, 127),2	323,(15, 187),20	361,(12, 67),2	371,(1, 147),32	407,(1, 157),2	409,(9, 127),44	453,(16, 57),20	473,(16, 97),30	503,(16, 167),12	525,(3, 167),120	645,(4, 57),16	687,(10, 187),72	759,(13, 127),2	765,(13, 147),2	767,(13, 177),2	771,(4, 167),22	793,(13, 57),22	815,(13, 187),18	833,(11, 197),4	837,(13, 97),94	931,(13, 137),34	983,(14, 187),2	985,(14, 197),14	999,(19, 67),70	1117,(2, 67),220	1337,(18, 107),36	1477,(14, 47),122	3103,(15, 67),146	
9,(0, 6),2	22,(5, 66),2	24,(5, 86),2	27,(0, 16),2	37,(5, 96),24	73,(8, 56),4	77,(8, 86),2	89,(10, 166),18	111,(8, 136),6	131,(18, 66),2	137,(5, 156),2	141,(20, 96),6	149,(15, 86),2	153,(3, 36),14	167,(15, 146),4	173,(3, 46),10	183,(20, 136),10	203,(5, 166),24	233,(18, 146),4	243,(3, 86),16	267,(3, 106),34	303,(3, 136),6	309,(15, 36),14	325,(2, 36),8	333,(3, 156),2	337,(3, 186),2	357,(20, 186),12	375,(2, 76),18	403,(4, 26),78	487,(4, 56),2	491,(4, 96),6	497,(8, 96),82	587,(4, 136),14	605,(19, 186),2	621,(9, 196),4	627,(14, 26),4	631,(19, 46),12	643,(11, 56),2	655,(11, 146),2	661,(4, 166),110	771,(10, 146),36	811,(14, 86),2	813,(11, 166),6	819,(8, 116),228	1047,(8, 126),220	1267,(13, 26),20	1287,(13, 96),16	1303,(19, 66),32	1371,(7, 86),2	1391,(7, 156),30	1421,(7, 166),14	1435,(7, 176),4	1439,(9, 76),116	1585,(12, 36),50	1635,(14, 76),6	1643,(12, 86),80	1723,(14, 186),18	1765,(12, 156),6	1775,(13, 196),314	2089,(14, 176),236	2325,(19, 116),86	2411,(20, 166),22	3069,(17, 136),2	3071,(15, 56),32	3119,(7, 186),34	3171,(17, 46),8	3227,(17, 126),14	3249,(15, 106),28	
7,(0, 5),2	25,(0, 15),2	31,(10, 65),2	33,(10, 85),2	35,(10, 95),2	39,(1, 35),90	129,(3, 25),20	149,(6, 185),2	151,(3, 35),2	153,(6, 125),30	183,(6, 135),8	191,(8, 145),4	195,(8, 155),2	197,(8, 165),4	201,(9, 55),16	217,(20, 35),2	219,(20, 165),2	221,(9, 115),2	229,(9, 175),2	231,(9, 195),2	233,(10, 55),34	279,(18, 35),4	283,(18, 75),2	287,(18, 95),12	299,(18, 105),8	307,(18, 125),12	319,(18, 165),4	335,(3, 175),2	341,(2, 45),18	365,(1, 135),6	371,(18, 145),14	385,(20, 25),22	497,(4, 155),2	509,(19, 105),12	537,(1, 185),4	621,(14, 75),2	645,(11, 75),4	653,(11, 135),2	725,(13, 125),4	753,(11, 115),14	777,(11, 125),10	817,(14, 145),2	965,(13, 155),26	1203,(7, 35),38	1341,(7, 45),22	1363,(7, 75),8	1439,(13, 135),336	3161,(17, 45),10	3269,(17, 165),6	3867,(17, 185),2	
5,(0, 4),2	18,(5, 64),4	23,(0, 14),2	33,(6, 54),12	75,(5, 104),6	81,(8, 74),16	97,(6, 144),2	101,(6, 154),4	109,(16, 184),2	117,(8, 194),14	141,(1, 44),2	143,(16, 134),6	159,(18, 84),2	161,(18, 134),2	169,(1, 74),18	187,(1, 94),4	191,(3, 44),4	195,(6, 164),14	209,(20, 124),6	219,(9, 84),2	225,(9, 164),4	229,(16, 164),14	249,(15, 84),38	287,(15, 94),6	297,(16, 34),18	331,(3, 164),2	333,(9, 94),24	361,(1, 124),2	363,(2, 64),12	393,(2, 84),12	405,(2, 94),60	465,(9, 104),26	501,(2, 134),2	507,(2, 174),18	525,(1, 164),12	537,(10, 194),66	623,(1, 194),2	625,(15, 104),30	655,(19, 24),16	687,(13, 94),4	707,(13, 164),2	709,(19, 154),18	729,(13, 134),6	735,(13, 154),10	745,(13, 184),2	767,(11, 124),10	825,(11, 184),6	831,(20, 144),94	1001,(13, 194),32	1193,(7, 24),8	1349,(2, 144),204	1553,(5, 94),1518	3071,(7, 64),12	3083,(7, 174),10	3093,(12, 144),6	3207,(17, 114),2	3241,(17, 134),26	3289,(17, 174),564	3853,(17, 184),14	
3,(0, 3),2	16,(5, 43),2	21,(0, 13),2	23,(6, 33),6	29,(10, 23),2	37,(1, 33),2	55,(8, 43),8	79,(8, 143),2	95,(5, 133),20	115,(6, 93),16	133,(1, 43),8	141,(2, 23),184	325,(8, 93),8	333,(8, 193),16	349,(20, 103),6	355,(5, 173),38	395,(4, 23),8	403,(9, 123),2	405,(9, 133),2	407,(19, 103),2	409,(1, 163),116	525,(2, 43),82	607,(9, 83),14	621,(10, 113),66	687,(15, 133),8	695,(16, 133),2	709,(11, 93),10	719,(15, 123),40	759,(20, 113),2	761,(20, 143),6	767,(20, 183),4	799,(11, 153),14	813,(20, 193),2	815,(14, 143),2	819,(11, 183),6	825,(4, 63),110	935,(14, 43),26	961,(14, 63),22	1051,(2, 63),66	1117,(5, 63),120	1237,(19, 73),48	1285,(19, 123),16	1301,(20, 53),18	1337,(2, 103),12	1349,(20, 63),24	1375,(7, 133),10	1399,(19, 153),32	1439,(7, 183),2	1441,(17, 133),2	1553,(2, 173),20	1573,(10, 53),200	1773,(12, 93),2	3153,(17, 43),8	3209,(17, 123),18	
1,(0, 2),2	14,(5, 22),2	19,(0, 12),2	29,(6, 52),4	33,(8, 22),22	57,(10, 72),4	115,(5, 142),20	135,(20, 62),4	139,(20, 92),2	145,(18, 52),4	149,(3, 32),2	153,(15, 142),2	155,(1, 62),4	159,(15, 62),8	167,(3, 42),6	173,(5, 152),30	203,(8, 112),30	233,(9, 72),22	255,(18, 22),24	279,(20, 132),4	285,(18, 82),2	287,(20, 82),10	297,(20, 182),4	309,(3, 152),22	331,(19, 82),2	349,(18, 182),2	359,(1, 112),2	379,(9, 102),16	395,(9, 122),8	403,(1, 152),4	425,(15, 122),18	481,(4, 52),6	491,(9, 132),18	521,(19, 182),8	577,(4, 132),10	617,(4, 192),2	649,(11, 82),2	675,(11, 72),20	695,(13, 112),12	727,(11, 112),26	753,(9, 172),108	861,(19, 112),128	991,(13, 162),10	1001,(14, 52),40	1201,(7, 32),2	1267,(18, 42),40	1385,(7, 142),6	1391,(18, 112),120	1511,(18, 122),42	1641,(14, 112),30	3869,(17, 192),6	
333,(2, 41),8	341,(3, 51),4	345,(3, 91),2	347,(5, 31),2	349,(5, 51),2	351,(5, 141),4	355,(10, 51),2	357,(3, 181),2	359,(2, 131),2	361,(3, 71),22	383,(4, 21),12	395,(5, 191),30	425,(8, 31),4	429,(8, 141),4	433,(8, 191),10	443,(10, 71),6	449,(3, 101),14	463,(10, 161),10	473,(10, 171),2	475,(18, 81),4	479,(18, 161),4	483,(20, 31),4	487,(20, 111),2	489,(4, 61),2	491,(20, 51),4	495,(20, 191),2	503,(2, 151),4	521,(3, 161),4	525,(6, 101),48	573,(9, 91),32	607,(2, 51),444	1051,(4, 111),36	1087,(6, 131),44	1131,(7, 21),62	1193,(9, 71),36	1229,(13, 131),8	1237,(5, 181),114	1351,(89, 201),20	1373,(7, 121),2	1375,(13, 21),14	1389,(13, 81),18	1407,(13, 91),32	1445,(4, 141),20	1465,(4, 161),12	1477,(16, 181),14	1491,(16, 191),16	1507,(20, 141),30	1539,(15, 191),12	1553,(28, 201),20	1573,(2, 181),12	1599,(14, 51),2	1601,(14, 81),14	1615,(179, 201),20	1635,(12, 41),6	1641,(18, 101),78	1719,(129, 201),20	1743,(12, 151),22	1775,(12, 131),32	1807,(19, 21),34	1841,(19, 81),36	1877,(20, 21),90	1967,(54, 201),20	1987,(190, 201),20	2007,(159, 201),20	2027,(148, 201),20	2047,(92, 201),20	2067,(108, 201),20	2089,(33, 201),20	2109,(79, 201),20	2129,(62, 201),20	2149,(22, 201),20	2169,(80, 201),20	2189,(199, 201),20	2209,(102, 201),20	2229,(23, 201),20	2249,(152, 201),20	2269,(118, 201),20	2289,(163, 201),20	2325,(74, 201),20	2345,(44, 201),20	2365,(34, 201),20	2385,(84, 201),20	2405,(182, 201),20	2433,(160, 201),20	2453,(98, 201),20	2473,(132, 201),20	2493,(178, 201),20	2513,(83, 201),20	2533,(59, 201),20	2553,(40, 201),20	2573,(99, 201),20	2593,(48, 201),20	2613,(82, 201),20	2633,(104, 201),20	2653,(69, 201),20	2673,(30, 201),20	2693,(72, 201),20	2713,(130, 201),20	2733,(88, 201),20	2753,(164, 201),20	2773,(68, 201),20	2793,(154, 201),20	2813,(119, 201),20	2833,(29, 201),20	2853,(113, 201),20	2873,(124, 201),20	2893,(70, 201),20	2913,(138, 201),20	2933,(140, 201),20	2953,(146, 201),20	2973,(193, 201),20	2993,(143, 201),20	3013,(188, 201),20	3033,(198, 201),20	3053,(169, 201),20	3073,(194, 201),20	3099,(172, 201),20	3119,(162, 201),20	3139,(52, 201),20	3159,(100, 201),20	3179,(17, 61),14	3193,(189, 201),20	3213,(50, 201),20	3233,(24, 201),20	3253,(32, 201),20	3273,(73, 201),20	3293,(26, 201),20	3313,(96, 201),20	3333,(42, 201),20	3353,(66, 201),20	3373,(39, 201),20	3393,(103, 201),20	3413,(63, 201),20	3433,(142, 201),20	3453,(120, 201),20	3473,(153, 201),20	3493,(183, 201),20	3523,(65, 201),20	3543,(85, 201),20	3563,(195, 201),20	3583,(55, 201),20	3603,(95, 201),20	3623,(175, 201),20	3643,(25, 201),20	3663,(105, 201),20	3683,(115, 201),20	3703,(125, 201),20	3723,(145, 201),20	3743,(155, 201),20	3763,(35, 201),20	3783,(75, 201),20	3803,(139, 201),20	3823,(133, 201),20	3843,(158, 201),20	3875,(37, 201),20	3895,(77, 201),20	3915,(117, 201),20	3935,(27, 201),20	3955,(87, 201),20	3975,(157, 201),20	3995,(127, 201),20	4015,(147, 201),20	4035,(177, 201),20	4055,(167, 201),20	4075,(57, 201),20	4095,(97, 201),20	4115,(137, 201),20	4135,(187, 201),20	4155,(197, 201),20	4175,(107, 201),20	4195,(122, 201),20	4215,(173, 201),20	4235,(49, 201),20	4255,(47, 201),20	4275,(36, 201),20	4295,(76, 201),20	4315,(60, 201),20	4335,(112, 201),20	4355,(149, 201),20	4375,(86, 201),20	4395,(90, 201),20	4415,(110, 201),20	4435,(156, 201),20	4455,(53, 201),20	4475,(135, 201),20	4495,(93, 201),20	4515,(200, 201),20	4535,(196, 201),20	4555,(176, 201),20	4575,(116, 201),20	4595,(166, 201),20	4615,(58, 201),20	4635,(94, 201),20	4655,(136, 201),20	4675,(38, 201),20	4695,(128, 201),20	4715,(64, 201),20	4735,(168, 201),20	4755,(144, 201),20	4775,(56, 201),20	4795,(180, 201),20	4815,(186, 201),20	4835,(43, 201),20	4855,(45, 201),20	4875,(46, 201),20	4895,(78, 201),20	4915,(114, 201),20	4935,(123, 201),20	4955,(126, 201),20	4975,(67, 201),20	4995,(134, 201),20	5015,(150, 201),20	5035,(165, 201),20	5055,(106, 201),20	5075,(170, 201),20	5095,(109, 201),20	5115,(174, 201),20	5135,(184, 201),20	5155,(185, 201),20	5175,(192, 201),20	
# Outgoing
29,(10, 23),2	31,(10, 65),2	33,(10, 85),2	35,(10, 95),2	37,(10, 27),20	57,(10, 72),4	61,(10, 108),10	71,(10, 118),2	73,(10, 37),16	89,(10, 166),18	107,(10, 188),26	133,(20, 27),2	135,(20, 62),4	139,(20, 92),2	141,(20, 96),6	147,(20, 78),2	149,(10, 147),30	179,(20, 149),2	183,(20, 136),10	209,(20, 124),6	217,(20, 35),2	219,(20, 165),2	233,(10, 55),34	279,(20, 132),4	287,(20, 82),10	297,(20, 182),4	301,(20, 188),4	349,(20, 103),6	355,(10, 51),2	357,(20, 186),12	385,(20, 25),22	443,(10, 71),6	463,(10, 161),10	473,(10, 171),2	483,(20, 31),4	487,(20, 111),2	491,(20, 51),4	495,(20, 191),2	537,(10, 194),66	621,(10, 113),66	687,(10, 187),72	759,(20, 113),2	761,(20, 143),6	767,(20, 183),4	771,(10, 146),36	813,(20, 193),2	831,(20, 144),94	965,(10, 139),80	1301,(20, 53),18	1349,(20, 63),24	1507,(20, 141),30	1573,(10, 53),200	1877,(20, 21),90	1987,(190, 201),20	2169,(80, 201),20	2411,(20, 166),22	2433,(160, 201),20	2553,(40, 201),20	2673,(30, 201),20	2713,(130, 201),20	2893,(70, 201),20	2933,(140, 201),20	3159,(100, 201),20	3213,(50, 201),20	3453,(120, 201),20	4315,(60, 201),20	4395,(90, 201),20	4415,(110, 201),20	4515,(200, 201),20	4795,(180, 201),20	5015,(150, 201),20	5075,(170, 201),20	
201,(9, 55),16	217,(9, 70),2	219,(9, 84),2	221,(9, 115),2	223,(9, 157),2	225,(9, 164),4	229,(9, 175),2	231,(9, 195),2	233,(9, 72),22	255,(9, 80),62	317,(9, 98),6	323,(9, 138),6	329,(9, 180),2	331,(19, 82),2	333,(9, 94),24	357,(9, 100),22	379,(9, 102),16	395,(9, 122),8	403,(9, 123),2	405,(9, 133),2	407,(19, 103),2	409,(9, 127),44	453,(9, 188),8	465,(9, 104),26	491,(9, 132),18	509,(19, 105),12	521,(19, 182),8	573,(9, 91),32	605,(19, 186),2	607,(9, 83),14	621,(9, 196),4	625,(19, 168),6	631,(19, 46),12	655,(19, 24),16	671,(19, 188),6	709,(19, 154),18	753,(9, 172),108	861,(19, 112),128	999,(19, 67),70	1111,(19, 50),58	1193,(9, 71),36	1237,(19, 73),48	1285,(19, 123),16	1303,(19, 66),32	1351,(89, 201),20	1371,(19, 120),28	1399,(19, 153),32	1439,(9, 76),116	1615,(179, 201),20	1719,(129, 201),20	1807,(19, 21),34	1841,(19, 81),36	2007,(159, 201),20	2109,(79, 201),20	2189,(199, 201),20	2325,(19, 116),86	2533,(59, 201),20	2573,(99, 201),20	2653,(69, 201),20	2813,(119, 201),20	2833,(29, 201),20	3053,(169, 201),20	3193,(189, 201),20	3373,(39, 201),20	3803,(139, 201),20	4235,(49, 201),20	4355,(149, 201),20	5095,(109, 201),20	
33,(8, 22),22	55,(8, 43),8	63,(8, 47),10	73,(8, 56),4	77,(8, 86),2	79,(8, 143),2	81,(8, 74),16	97,(8, 127),14	111,(8, 136),6	117,(8, 194),14	131,(18, 66),2	133,(8, 199),6	139,(18, 29),2	141,(18, 39),4	145,(18, 52),4	149,(18, 79),8	157,(18, 70),2	159,(18, 84),2	161,(18, 134),2	169,(18, 119),2	171,(18, 169),2	179,(18, 97),12	191,(8, 145),4	195,(8, 155),2	197,(8, 165),4	203,(8, 112),30	233,(18, 146),4	255,(18, 22),24	279,(18, 35),4	283,(18, 75),2	285,(18, 82),2	287,(18, 95),12	299,(18, 105),8	307,(18, 125),12	319,(18, 165),4	325,(8, 93),8	333,(8, 193),16	349,(18, 182),2	371,(18, 145),14	425,(8, 31),4	429,(8, 141),4	433,(8, 191),10	475,(18, 81),4	479,(18, 161),4	497,(8, 96),82	675,(8, 119),72	819,(8, 116),228	1047,(8, 126),220	1267,(18, 42),40	1337,(18, 107),36	1391,(18, 112),120	1511,(18, 122),42	1553,(28, 201),20	1641,(18, 101),78	2027,(148, 201),20	2067,(108, 201),20	2269,(118, 201),20	2453,(98, 201),20	2493,(178, 201),20	2593,(48, 201),20	2733,(88, 201),20	2773,(68, 201),20	2913,(138, 201),20	3013,(188, 201),20	3033,(198, 201),20	3843,(158, 201),20	4615,(58, 201),20	4675,(38, 201),20	4695,(128, 201),20	4735,(168, 201),20	4895,(78, 201),20	
1131,(7, 21),62	1193,(7, 24),8	1201,(7, 32),2	1203,(7, 35),38	1241,(7, 39),100	1341,(7, 45),22	1363,(7, 75),8	1371,(7, 86),2	1373,(7, 121),2	1375,(7, 133),10	1385,(7, 142),6	1391,(7, 156),30	1421,(7, 166),14	1435,(7, 176),4	1439,(7, 183),2	1441,(17, 133),2	1443,(17, 139),2	1445,(7, 38),10	1455,(7, 49),130	1585,(7, 58),1484	3069,(17, 136),2	3071,(7, 64),12	3083,(7, 174),10	3093,(7, 180),26	3119,(7, 186),34	3153,(17, 43),8	3161,(17, 45),10	3171,(17, 46),8	3179,(17, 61),14	3193,(17, 78),14	3207,(17, 114),2	3209,(17, 123),18	3227,(17, 126),14	3241,(17, 134),26	3267,(17, 150),2	3269,(17, 165),6	3275,(17, 170),14	3289,(17, 174),564	3853,(17, 184),14	3867,(17, 185),2	3869,(17, 192),6	3875,(37, 201),20	3895,(77, 201),20	3915,(117, 201),20	3935,(27, 201),20	3955,(87, 201),20	3975,(157, 201),20	3995,(127, 201),20	4015,(147, 201),20	4035,(177, 201),20	4055,(167, 201),20	4075,(57, 201),20	4095,(97, 201),20	4115,(137, 201),20	4135,(187, 201),20	4155,(197, 201),20	4175,(107, 201),20	4255,(47, 201),20	4975,(67, 201),20	
23,(6, 33),6	29,(6, 52),4	33,(6, 54),12	45,(6, 60),36	81,(6, 90),8	89,(6, 130),2	91,(6, 140),6	97,(6, 144),2	99,(6, 149),2	101,(6, 154),4	105,(6, 190),2	107,(16, 159),2	109,(16, 184),2	111,(16, 47),2	113,(16, 77),2	115,(6, 93),16	131,(16, 90),8	139,(16, 148),2	141,(16, 117),2	143,(16, 134),6	149,(6, 185),2	153,(6, 125),30	183,(6, 135),8	191,(16, 200),4	195,(6, 164),14	209,(16, 120),8	229,(16, 164),14	243,(6, 168),54	297,(16, 34),18	341,(16, 30),16	365,(16, 38),36	401,(16, 98),16	453,(16, 57),20	473,(16, 97),30	503,(16, 167),12	525,(6, 101),48	695,(16, 133),2	727,(16, 70),62	889,(16, 110),60	1087,(6, 131),44	1477,(16, 181),14	1491,(16, 191),16	2953,(146, 201),20	3293,(26, 201),20	3313,(96, 201),20	3353,(66, 201),20	4275,(36, 201),20	4295,(76, 201),20	4375,(86, 201),20	4435,(156, 201),20	4535,(196, 201),20	4555,(176, 201),20	4575,(116, 201),20	4595,(166, 201),20	4655,(136, 201),20	4775,(56, 201),20	4815,(186, 201),20	4875,(46, 201),20	4955,(126, 201),20	5055,(106, 201),20	
14,(5, 22),2	16,(5, 43),2	18,(5, 64),4	22,(5, 66),2	24,(5, 86),2	26,(5, 127),2	28,(5, 130),2	31,(5, 67),6	37,(5, 96),24	61,(5, 99),14	75,(5, 104),6	81,(5, 129),14	95,(5, 133),20	115,(5, 142),20	135,(5, 147),2	137,(5, 156),2	139,(5, 167),2	141,(5, 178),2	143,(5, 188),4	147,(5, 197),2	149,(15, 86),2	151,(15, 108),2	153,(15, 142),2	155,(15, 40),2	157,(15, 188),2	159,(15, 62),8	167,(15, 146),4	173,(5, 152),30	203,(5, 166),24	227,(5, 180),20	247,(15, 27),2	249,(15, 84),38	287,(15, 94),6	293,(15, 147),4	309,(15, 36),14	323,(15, 187),20	347,(5, 31),2	349,(5, 51),2	351,(5, 141),4	355,(5, 173),38	395,(5, 191),30	425,(15, 122),18	449,(15, 139),8	479,(15, 150),12	501,(15, 160),46	625,(15, 104),30	687,(15, 133),8	719,(15, 123),40	811,(5, 169),154	965,(15, 100),146	1117,(5, 63),120	1237,(5, 181),114	1455,(15, 158),84	1539,(15, 191),12	1553,(5, 94),1518	3071,(15, 56),32	3103,(15, 67),146	3249,(15, 106),28	3277,(15, 109),246	3523,(65, 201),20	3543,(85, 201),20	3563,(195, 201),20	3583,(55, 201),20	3603,(95, 201),20	3623,(175, 201),20	3643,(25, 201),20	3663,(105, 201),20	3683,(115, 201),20	3703,(125, 201),20	3723,(145, 201),20	3743,(155, 201),20	3763,(35, 201),20	3783,(75, 201),20	4475,(135, 201),20	4855,(45, 201),20	5035,(165, 201),20	5155,(185, 201),20	
383,(4, 21),12	395,(4, 23),8	403,(4, 26),78	481,(4, 52),6	487,(4, 56),2	489,(4, 61),2	491,(4, 96),6	497,(4, 155),2	499,(4, 180),2	501,(4, 38),50	551,(4, 88),14	565,(4, 98),12	577,(4, 132),10	587,(4, 136),14	601,(4, 178),16	617,(4, 192),2	619,(14, 40),2	621,(14, 75),2	623,(4, 59),2	625,(4, 99),2	627,(14, 26),4	631,(14, 48),14	645,(4, 57),16	661,(4, 166),110	771,(4, 167),22	793,(4, 189),18	811,(14, 86),2	813,(14, 128),2	815,(14, 143),2	817,(14, 145),2	825,(4, 63),110	935,(14, 43),26	961,(14, 63),22	983,(14, 187),2	985,(14, 197),14	1001,(14, 52),40	1051,(4, 111),36	1087,(4, 128),358	1445,(4, 141),20	1465,(4, 161),12	1477,(14, 47),122	1599,(14, 51),2	1601,(14, 81),14	1635,(14, 76),6	1641,(14, 112),30	1671,(14, 149),28	1723,(14, 186),18	1967,(54, 201),20	2089,(14, 176),236	2325,(74, 201),20	2345,(44, 201),20	2365,(34, 201),20	2385,(84, 201),20	2633,(104, 201),20	2753,(164, 201),20	2793,(154, 201),20	2873,(124, 201),20	3073,(194, 201),20	3233,(24, 201),20	4635,(94, 201),20	4715,(64, 201),20	4755,(144, 201),20	4915,(114, 201),20	4995,(134, 201),20	5115,(174, 201),20	5135,(184, 201),20	
129,(3, 25),20	149,(3, 32),2	151,(3, 35),2	153,(3, 36),14	167,(3, 42),6	173,(3, 46),10	183,(3, 60),6	189,(3, 90),2	191,(3, 44),4	195,(3, 58),48	243,(3, 86),16	259,(3, 87),8	267,(3, 106),34	301,(3, 127),2	303,(3, 136),6	309,(3, 152),22	331,(3, 164),2	333,(3, 156),2	335,(3, 175),2	337,(3, 186),2	339,(3, 200),2	341,(3, 51),4	345,(3, 91),2	347,(3, 158),10	357,(3, 181),2	359,(3, 199),2	361,(3, 71),22	383,(3, 99),66	449,(3, 101),14	463,(3, 109),18	481,(3, 119),16	497,(3, 149),24	521,(3, 161),4	525,(3, 167),120	645,(3, 198),12	657,(13, 30),30	687,(13, 94),4	691,(13, 100),2	693,(13, 130),2	695,(13, 112),12	707,(13, 164),2	709,(13, 68),16	725,(13, 125),4	729,(13, 134),6	735,(13, 154),10	745,(13, 184),2	747,(13, 29),12	759,(13, 127),2	761,(13, 139),4	765,(13, 147),2	767,(13, 177),2	793,(13, 57),22	815,(13, 187),18	837,(13, 97),94	931,(13, 137),34	965,(13, 155),26	991,(13, 162),10	1001,(13, 194),32	1045,(13, 189),124	1229,(13, 131),8	1267,(13, 26),20	1287,(13, 96),16	1375,(13, 21),14	1389,(13, 81),18	1407,(13, 91),32	1439,(13, 135),336	1775,(13, 196),314	2089,(33, 201),20	2229,(23, 201),20	2289,(163, 201),20	2513,(83, 201),20	2853,(113, 201),20	2973,(193, 201),20	2993,(143, 201),20	3273,(73, 201),20	3393,(103, 201),20	3413,(63, 201),20	3473,(153, 201),20	3493,(183, 201),20	3823,(133, 201),20	4215,(173, 201),20	4455,(53, 201),20	4495,(93, 201),20	4835,(43, 201),20	4935,(123, 201),20	
141,(2, 23),184	325,(2, 36),8	333,(2, 41),8	341,(2, 45),18	359,(2, 131),2	361,(12, 67),2	363,(2, 64),12	375,(2, 76),18	393,(2, 84),12	405,(2, 94),60	465,(2, 110),14	479,(2, 118),22	501,(2, 134),2	503,(2, 151),4	507,(2, 174),18	525,(2, 43),82	607,(2, 51),444	1051,(2, 63),66	1117,(2, 67),220	1337,(2, 103),12	1349,(2, 144),204	1553,(2, 173),20	1573,(2, 181),12	1585,(12, 36),50	1635,(12, 41),6	1641,(12, 60),2	1643,(12, 86),80	1723,(12, 90),2	1725,(12, 110),18	1743,(12, 151),22	1765,(12, 156),6	1773,(12, 93),2	1775,(12, 131),32	1807,(12, 150),42	1849,(12, 180),110	1959,(12, 200),8	2047,(92, 201),20	2129,(62, 201),20	2149,(22, 201),20	2209,(102, 201),20	2249,(152, 201),20	2405,(182, 201),20	2473,(132, 201),20	2613,(82, 201),20	2693,(72, 201),20	3069,(12, 38),4	3073,(12, 128),8	3081,(12, 168),2	3093,(12, 144),6	3099,(172, 201),20	3119,(162, 201),20	3139,(52, 201),20	3253,(32, 201),20	3333,(42, 201),20	3433,(142, 201),20	4195,(122, 201),20	4335,(112, 201),20	5175,(192, 201),20	
1,(0, 2),2	3,(0, 3),2	5,(0, 4),2	7,(0, 5),2	9,(0, 6),2	11,(0, 7),2	13,(0, 8),2	15,(0, 9),2	17,(0, 10),2	19,(0, 12),2	21,(0, 13),2	23,(0, 14),2	25,(0, 15),2	27,(0, 16),2	29,(0, 17),2	31,(0, 18),2	33,(0, 19),2	35,(0, 20),2	37,(1, 33),2	39,(1, 35),90	129,(1, 39),4	133,(1, 43),8	141,(1, 44),2	143,(1, 60),12	155,(1, 62),4	159,(1, 69),10	169,(1, 74),18	187,(1, 94),4	191,(1, 109),168	359,(1, 112),2	361,(1, 124),2	363,(1, 128),2	365,(1, 135),6	371,(1, 147),32	403,(1, 152),4	407,(1, 157),2	409,(1, 163),116	525,(1, 164),12	537,(1, 185),4	541,(1, 189),82	623,(1, 194),2	625,(11, 40),2	627,(11, 49),16	643,(11, 56),2	645,(11, 75),4	649,(11, 82),2	651,(11, 130),2	653,(11, 135),2	655,(11, 146),2	657,(11, 68),4	661,(11, 69),14	675,(11, 72),20	695,(11, 88),14	709,(11, 93),10	719,(11, 100),8	727,(11, 112),26	753,(11, 115),14	767,(11, 124),10	777,(11, 125),10	787,(11, 138),8	795,(11, 140),4	799,(11, 153),14	813,(11, 166),6	819,(11, 183),6	825,(11, 184),6	831,(11, 188),2	833,(11, 197),4	837,(11, 198),8	845,(11, 200),44	
