130
# CPU
0,121,1	1,25,1	2,63,1	3,111,1	4,45,1	5,41,1	6,70,1	7,73,1	8,13,1	9,94,1	10,71,1	11,112,1	12,113,1	13,109,1	14,50,1	15,16,1	16,98,1	17,119,1	18,66,1	19,77,1	20,84,1	21,49,1	22,85,1	23,74,1	24,99,1	25,19,1	26,20,1	27,22,1	28,108,1	29,48,1	30,61,1	31,115,1	32,82,1	33,56,1	34,23,1	35,89,1	36,95,1	37,44,1	38,46,1	39,86,1	40,105,1	41,91,1	42,35,1	43,104,1	44,52,1	45,43,1	46,53,1	47,102,1	48,75,1	49,90,1	50,33,1	51,110,1	52,30,1	53,21,1	54,26,1	55,31,1	56,37,1	57,97,1	58,67,1	59,62,1	60,107,1	61,42,1	62,14,1	63,7,1	64,83,1	65,18,1	66,93,1	67,55,1	68,54,1	69,29,1	70,9,1	71,39,1	72,117,1	73,78,1	74,57,1	75,27,1	76,96,1	77,101,1	78,65,1	79,100,1	80,40,1	81,81,1	82,59,1	83,103,1	84,34,1	85,87,1	86,64,1	87,80,1	88,79,1	89,12,1	90,32,1	91,38,1	92,2,1	93,76,1	94,28,1	95,51,1	96,36,1	97,60,1	98,69,1	99,120,1	100,68,1	101,10,1	102,15,1	103,17,1	104,4,1	105,72,1	106,106,1	107,58,1	108,11,1	109,24,1	110,8,1	111,92,1	112,116,1	113,6,1	114,88,1	115,1,1	116,114,1	117,3,1	128,5,1	129,0,1	
93,47,1	


47,118,1	
# Incoming
48,(118, 3),8	94,(47, 5),34	
47,(121, 47),46	


1,(121, 118),46	
# Outgoing
1,(121, 118),46	47,(121, 47),46	
94,(47, 5),34	


48,(118, 3),8	
