12076
# CPU
15,2,24	39,4,24	63,178,24	87,196,24	111,6,24	135,8,24	159,160,24	183,10,24	207,12,24	231,14,24	255,16,24	279,18,24	303,20,24	327,62,24	351,66,24	375,84,24	399,158,24	423,76,24	447,132,24	471,134,24	495,102,24	519,120,24	543,64,24	567,110,24	591,72,24	615,150,24	639,154,24	663,136,24	687,38,24	711,124,24	735,96,24	759,68,24	783,82,24	807,146,24	831,172,24	855,130,24	879,118,24	903,48,24	927,24,24	951,148,24	9145,186,24	9187,90,24	9301,104,24	9619,128,24	9643,36,24	9667,46,24	9691,54,24	9715,78,24	10183,126,24	10381,184,24	10405,194,24	10429,198,24	10453,200,24	10479,56,24	10503,114,24	10527,116,24	10779,122,24	10823,32,24	10893,52,24	11049,144,24	11073,164,24	11097,188,24	11121,22,24	11145,50,24	11179,58,24	11211,98,24	11241,112,24	11265,138,24	11289,170,24	11313,182,24	11337,26,24	11361,34,24	11385,74,24	11409,86,24	11433,92,24	11457,174,24	11481,192,24	11505,60,24	11529,80,24	11553,94,24	11577,100,24	11601,106,24	11625,140,24	11649,162,24	11673,28,24	11697,30,24	11721,40,24	11745,42,24	11769,70,24	11793,88,24	11817,142,24	11841,156,24	11865,166,24	11889,176,24	11913,180,24	11937,44,24	11961,108,24	11985,152,24	12009,168,24	12033,190,24	
0,0,1	1,5,24	25,13,24	49,7,24	73,11,24	97,19,24	121,15,24	145,3,24	169,17,24	193,1,24	217,9,24	241,175,24	265,51,24	289,115,24	313,35,24	337,87,24	361,69,24	385,171,24	409,173,24	433,65,24	457,27,24	481,125,24	505,103,24	529,61,24	553,71,24	577,39,24	601,163,24	625,179,24	649,151,24	673,157,24	697,93,24	721,199,24	745,127,24	769,75,24	793,85,24	817,63,24	2097,53,24	2479,111,24	2503,119,24	2527,123,24	2551,131,24	2575,81,24	2599,91,24	2623,133,24	2799,187,24	2907,73,24	2931,99,24	3013,49,24	3037,55,24	3061,95,24	3085,143,24	3109,33,24	3133,37,24	3157,45,24	3181,77,24	3223,153,24	3247,191,24	3271,29,24	3295,79,24	3319,83,24	3343,135,24	3367,165,24	3391,181,24	3415,129,24	3439,141,24	3463,195,24	3493,25,24	3523,31,24	3547,57,24	3571,105,24	3595,107,24	3619,109,24	3643,113,24	3667,117,24	3691,155,24	3715,167,24	3739,185,24	3763,197,24	3787,23,24	3811,47,24	3835,67,24	3859,89,24	3883,139,24	3907,145,24	3967,149,24	3991,159,24	4015,161,24	4039,169,24	4063,177,24	4087,183,24	4111,189,24	4135,193,24	4159,21,24	4183,41,24	4207,43,24	4231,59,24	4255,97,24	4279,101,24	4513,121,24	4537,137,24	4561,147,24	12075,201,1	
# Incoming
1,(0, 2),14	15,(0, 4),14	29,(0, 6),14	43,(0, 8),14	57,(0, 10),14	71,(0, 12),14	85,(0, 14),14	99,(0, 16),14	113,(0, 18),14	127,(0, 20),14	141,(5, 52),6	147,(5, 60),6	153,(5, 62),2	155,(5, 78),2	157,(5, 84),2	159,(5, 100),46	205,(5, 108),16	221,(5, 128),20	241,(5, 140),72	313,(5, 146),2	315,(5, 148),16	331,(5, 162),612	943,(5, 166),4	947,(5, 170),2	949,(5, 186),8196	9145,(5, 198),6	9151,(13, 60),8	9159,(13, 86),2	9161,(13, 90),26	9187,(13, 104),114	9301,(13, 106),4	9305,(13, 122),14	9319,(13, 128),300	9619,(7, 36),14	9633,(7, 46),10	9643,(7, 52),4	9647,(7, 54),6	9653,(7, 78),34	9687,(7, 86),12	9699,(7, 114),182	9881,(7, 116),298	10179,(7, 126),4	10183,(7, 170),76	10259,(7, 174),6	10265,(7, 184),116	10381,(7, 194),2	10383,(7, 198),32	10415,(7, 200),26	10441,(11, 28),12	10453,(11, 30),8	10461,(11, 56),18	10479,(11, 114),4	10483,(11, 116),4	10487,(11, 122),292	10779,(11, 174),16	10795,(19, 32),28	10823,(19, 44),68	10891,(19, 52),2	10893,(19, 70),130	11023,(19, 88),2	11025,(19, 94),16	11041,(19, 100),2	11043,(19, 144),6	11049,(19, 164),2	11051,(19, 188),2	11053,(15, 22),8	11061,(15, 50),6	11067,(15, 58),112	11179,(15, 70),2	11181,(15, 98),30	11211,(15, 112),30	11241,(15, 138),6	11247,(15, 168),2	11249,(15, 170),4	11253,(15, 182),14	11267,(3, 26),4	11271,(3, 34),2	11273,(3, 74),4	11277,(3, 86),28	11305,(3, 92),68	11373,(3, 140),14	11387,(3, 174),6	11393,(3, 192),2	11395,(17, 60),2	11397,(17, 80),24	11421,(17, 94),14	11435,(17, 100),24	11459,(17, 106),36	11495,(17, 140),12	11507,(17, 162),8	11515,(17, 168),16	11531,(1, 28),12	11543,(1, 30),4	11547,(1, 40),20	11567,(1, 42),2	11569,(1, 70),12	11581,(1, 88),36	11617,(1, 142),2	11619,(1, 156),16	11635,(1, 166),6	11641,(1, 176),2	11643,(1, 180),2	11645,(9, 44),8	11653,(9, 108),4	11657,(9, 152),2	11659,(9, 168),4	11663,(9, 190),10	
39,(2, 27),18	57,(2, 49),2016	2073,(2, 53),24	2097,(2, 107),334	2431,(2, 111),48	2479,(2, 119),4	2483,(2, 123),2	2485,(2, 131),8	2493,(2, 147),18	2511,(2, 159),8	2519,(4, 73),4	2523,(4, 77),2	2525,(4, 81),20	2545,(4, 91),24	2569,(4, 117),10	2579,(4, 133),18	2597,(4, 137),2	2599,(4, 143),10	2609,(4, 165),2	2611,(4, 169),6	2617,(4, 185),136	2753,(4, 187),46	2799,(178, 201),18	2817,(196, 201),18	2835,(6, 37),10	2845,(6, 41),52	2897,(6, 73),10	2907,(6, 99),16	2923,(6, 107),2	2925,(6, 113),2	2927,(6, 135),2	2929,(6, 145),44	2973,(6, 189),16	2989,(8, 47),10	2999,(8, 49),14	3013,(8, 55),2	3015,(8, 95),16	3031,(8, 113),2	3033,(8, 135),10	3043,(8, 143),10	3053,(160, 201),18	3071,(10, 33),2	3073,(10, 37),2	3075,(10, 45),2	3077,(10, 77),4	3081,(10, 79),2	3083,(10, 117),4	3087,(10, 149),2	3089,(10, 153),134	3223,(10, 191),10	3233,(12, 29),16	3249,(12, 43),8	3257,(12, 59),2	3259,(12, 79),28	3287,(12, 83),4	3291,(12, 135),10	3301,(12, 165),40	3341,(12, 181),2	3343,(14, 43),12	3355,(14, 67),4	3359,(14, 89),2	3361,(14, 129),2	3363,(14, 141),2	3365,(14, 195),10	3375,(16, 21),106	3481,(16, 25),12	3493,(16, 31),30	3523,(16, 57),8	3531,(16, 105),12	3543,(16, 107),4	3547,(16, 109),24	3571,(16, 113),12	3583,(16, 117),68	3651,(16, 155),8	3659,(16, 167),10	3669,(16, 185),6	3675,(16, 197),58	3733,(18, 23),2	3735,(18, 43),2	3737,(18, 47),6	3743,(18, 67),58	3801,(18, 89),12	3813,(18, 139),6	3819,(18, 145),8	3827,(18, 149),140	3967,(18, 159),2	3969,(18, 161),20	3989,(18, 169),4	3993,(18, 177),6	3999,(18, 183),2	4001,(18, 189),2	4003,(18, 193),6	4009,(20, 21),8	4017,(20, 41),40	4057,(20, 43),78	4135,(20, 59),2	4137,(20, 97),6	4143,(20, 101),24	4167,(20, 121),346	4513,(20, 137),2	4515,(20, 147),6	4521,(62, 201),18	4539,(66, 201),18	4557,(84, 201),18	4575,(158, 201),18	4593,(76, 201),18	4611,(132, 201),18	4629,(134, 201),18	4647,(102, 201),18	4665,(120, 201),18	4683,(64, 201),18	4701,(110, 201),18	4719,(72, 201),18	4737,(150, 201),18	4755,(154, 201),18	4773,(136, 201),18	4791,(38, 201),18	4809,(124, 201),18	4827,(96, 201),18	4845,(68, 201),18	4863,(82, 201),18	4881,(146, 201),18	4899,(172, 201),18	4917,(130, 201),18	4935,(118, 201),18	4953,(48, 201),18	4971,(24, 201),18	4989,(148, 201),18	9169,(186, 201),18	9211,(90, 201),18	9325,(104, 201),18	9643,(128, 201),18	9667,(36, 201),18	9691,(46, 201),18	9715,(54, 201),18	9739,(78, 201),18	10207,(126, 201),18	10405,(184, 201),18	10429,(194, 201),18	10453,(198, 201),18	10477,(200, 201),18	10503,(56, 201),18	10527,(114, 201),18	10551,(116, 201),18	10803,(122, 201),18	10847,(32, 201),18	10917,(52, 201),18	11073,(144, 201),18	11097,(164, 201),18	11121,(188, 201),18	11145,(22, 201),18	11169,(50, 201),18	11203,(58, 201),18	11235,(98, 201),18	11265,(112, 201),18	11289,(138, 201),18	11313,(170, 201),18	11337,(182, 201),18	11361,(26, 201),18	11385,(34, 201),18	11409,(74, 201),18	11433,(86, 201),18	11457,(92, 201),18	11481,(174, 201),18	11505,(192, 201),18	11529,(60, 201),18	11553,(80, 201),18	11577,(94, 201),18	11601,(100, 201),18	11625,(106, 201),18	11649,(140, 201),18	11673,(162, 201),18	11697,(28, 201),18	11721,(30, 201),18	11745,(40, 201),18	11769,(42, 201),18	11793,(70, 201),18	11817,(88, 201),18	11841,(142, 201),18	11865,(156, 201),18	11889,(166, 201),18	11913,(176, 201),18	11937,(180, 201),18	11961,(44, 201),18	11985,(108, 201),18	12009,(152, 201),18	12033,(168, 201),18	12057,(190, 201),18	
# Outgoing
39,(2, 27),18	57,(2, 49),2016	2073,(2, 53),24	2097,(2, 107),334	2431,(2, 111),48	2479,(2, 119),4	2483,(2, 123),2	2485,(2, 131),8	2493,(2, 147),18	2511,(2, 159),8	2519,(4, 73),4	2523,(4, 77),2	2525,(4, 81),20	2545,(4, 91),24	2569,(4, 117),10	2579,(4, 133),18	2597,(4, 137),2	2599,(4, 143),10	2609,(4, 165),2	2611,(4, 169),6	2617,(4, 185),136	2753,(4, 187),46	2799,(178, 201),18	2817,(196, 201),18	2835,(6, 37),10	2845,(6, 41),52	2897,(6, 73),10	2907,(6, 99),16	2923,(6, 107),2	2925,(6, 113),2	2927,(6, 135),2	2929,(6, 145),44	2973,(6, 189),16	2989,(8, 47),10	2999,(8, 49),14	3013,(8, 55),2	3015,(8, 95),16	3031,(8, 113),2	3033,(8, 135),10	3043,(8, 143),10	3053,(160, 201),18	3071,(10, 33),2	3073,(10, 37),2	3075,(10, 45),2	3077,(10, 77),4	3081,(10, 79),2	3083,(10, 117),4	3087,(10, 149),2	3089,(10, 153),134	3223,(10, 191),10	3233,(12, 29),16	3249,(12, 43),8	3257,(12, 59),2	3259,(12, 79),28	3287,(12, 83),4	3291,(12, 135),10	3301,(12, 165),40	3341,(12, 181),2	3343,(14, 43),12	3355,(14, 67),4	3359,(14, 89),2	3361,(14, 129),2	3363,(14, 141),2	3365,(14, 195),10	3375,(16, 21),106	3481,(16, 25),12	3493,(16, 31),30	3523,(16, 57),8	3531,(16, 105),12	3543,(16, 107),4	3547,(16, 109),24	3571,(16, 113),12	3583,(16, 117),68	3651,(16, 155),8	3659,(16, 167),10	3669,(16, 185),6	3675,(16, 197),58	3733,(18, 23),2	3735,(18, 43),2	3737,(18, 47),6	3743,(18, 67),58	3801,(18, 89),12	3813,(18, 139),6	3819,(18, 145),8	3827,(18, 149),140	3967,(18, 159),2	3969,(18, 161),20	3989,(18, 169),4	3993,(18, 177),6	3999,(18, 183),2	4001,(18, 189),2	4003,(18, 193),6	4009,(20, 21),8	4017,(20, 41),40	4057,(20, 43),78	4135,(20, 59),2	4137,(20, 97),6	4143,(20, 101),24	4167,(20, 121),346	4513,(20, 137),2	4515,(20, 147),6	4521,(62, 201),18	4539,(66, 201),18	4557,(84, 201),18	4575,(158, 201),18	4593,(76, 201),18	4611,(132, 201),18	4629,(134, 201),18	4647,(102, 201),18	4665,(120, 201),18	4683,(64, 201),18	4701,(110, 201),18	4719,(72, 201),18	4737,(150, 201),18	4755,(154, 201),18	4773,(136, 201),18	4791,(38, 201),18	4809,(124, 201),18	4827,(96, 201),18	4845,(68, 201),18	4863,(82, 201),18	4881,(146, 201),18	4899,(172, 201),18	4917,(130, 201),18	4935,(118, 201),18	4953,(48, 201),18	4971,(24, 201),18	4989,(148, 201),18	9169,(186, 201),18	9211,(90, 201),18	9325,(104, 201),18	9643,(128, 201),18	9667,(36, 201),18	9691,(46, 201),18	9715,(54, 201),18	9739,(78, 201),18	10207,(126, 201),18	10405,(184, 201),18	10429,(194, 201),18	10453,(198, 201),18	10477,(200, 201),18	10503,(56, 201),18	10527,(114, 201),18	10551,(116, 201),18	10803,(122, 201),18	10847,(32, 201),18	10917,(52, 201),18	11073,(144, 201),18	11097,(164, 201),18	11121,(188, 201),18	11145,(22, 201),18	11169,(50, 201),18	11203,(58, 201),18	11235,(98, 201),18	11265,(112, 201),18	11289,(138, 201),18	11313,(170, 201),18	11337,(182, 201),18	11361,(26, 201),18	11385,(34, 201),18	11409,(74, 201),18	11433,(86, 201),18	11457,(92, 201),18	11481,(174, 201),18	11505,(192, 201),18	11529,(60, 201),18	11553,(80, 201),18	11577,(94, 201),18	11601,(100, 201),18	11625,(106, 201),18	11649,(140, 201),18	11673,(162, 201),18	11697,(28, 201),18	11721,(30, 201),18	11745,(40, 201),18	11769,(42, 201),18	11793,(70, 201),18	11817,(88, 201),18	11841,(142, 201),18	11865,(156, 201),18	11889,(166, 201),18	11913,(176, 201),18	11937,(180, 201),18	11961,(44, 201),18	11985,(108, 201),18	12009,(152, 201),18	12033,(168, 201),18	12057,(190, 201),18	
1,(0, 2),14	15,(0, 4),14	29,(0, 6),14	43,(0, 8),14	57,(0, 10),14	71,(0, 12),14	85,(0, 14),14	99,(0, 16),14	113,(0, 18),14	127,(0, 20),14	141,(5, 52),6	147,(5, 60),6	153,(5, 62),2	155,(5, 78),2	157,(5, 84),2	159,(5, 100),46	205,(5, 108),16	221,(5, 128),20	241,(5, 140),72	313,(5, 146),2	315,(5, 148),16	331,(5, 162),612	943,(5, 166),4	947,(5, 170),2	949,(5, 186),8196	9145,(5, 198),6	9151,(13, 60),8	9159,(13, 86),2	9161,(13, 90),26	9187,(13, 104),114	9301,(13, 106),4	9305,(13, 122),14	9319,(13, 128),300	9619,(7, 36),14	9633,(7, 46),10	9643,(7, 52),4	9647,(7, 54),6	9653,(7, 78),34	9687,(7, 86),12	9699,(7, 114),182	9881,(7, 116),298	10179,(7, 126),4	10183,(7, 170),76	10259,(7, 174),6	10265,(7, 184),116	10381,(7, 194),2	10383,(7, 198),32	10415,(7, 200),26	10441,(11, 28),12	10453,(11, 30),8	10461,(11, 56),18	10479,(11, 114),4	10483,(11, 116),4	10487,(11, 122),292	10779,(11, 174),16	10795,(19, 32),28	10823,(19, 44),68	10891,(19, 52),2	10893,(19, 70),130	11023,(19, 88),2	11025,(19, 94),16	11041,(19, 100),2	11043,(19, 144),6	11049,(19, 164),2	11051,(19, 188),2	11053,(15, 22),8	11061,(15, 50),6	11067,(15, 58),112	11179,(15, 70),2	11181,(15, 98),30	11211,(15, 112),30	11241,(15, 138),6	11247,(15, 168),2	11249,(15, 170),4	11253,(15, 182),14	11267,(3, 26),4	11271,(3, 34),2	11273,(3, 74),4	11277,(3, 86),28	11305,(3, 92),68	11373,(3, 140),14	11387,(3, 174),6	11393,(3, 192),2	11395,(17, 60),2	11397,(17, 80),24	11421,(17, 94),14	11435,(17, 100),24	11459,(17, 106),36	11495,(17, 140),12	11507,(17, 162),8	11515,(17, 168),16	11531,(1, 28),12	11543,(1, 30),4	11547,(1, 40),20	11567,(1, 42),2	11569,(1, 70),12	11581,(1, 88),36	11617,(1, 142),2	11619,(1, 156),16	11635,(1, 166),6	11641,(1, 176),2	11643,(1, 180),2	11645,(9, 44),8	11653,(9, 108),4	11657,(9, 152),2	11659,(9, 168),4	11663,(9, 190),10	
