2320
# CPU
0,21,1	1,8,223	224,5,223	447,12,223	670,3,223	893,16,223	1116,18,223	1339,14,223	1562,20,223	1785,19,223	2088,1,223	2319,0,1	
73,4,223	296,11,223	519,17,223	742,10,223	965,9,223	1188,6,223	1411,7,223	1634,15,223	1857,13,223	2080,2,223	
# Incoming
519,(11, 1),4	965,(10, 1),24	1188,(9, 1),32	1634,(7, 1),12	2080,(13, 1),8	2303,(2, 0),16	
1,(21, 4),72	73,(21, 11),72	145,(21, 17),72	217,(21, 10),72	289,(21, 9),72	361,(21, 6),72	433,(21, 7),72	505,(21, 15),72	577,(21, 13),72	649,(8, 2),12	661,(5, 2),4	893,(3, 2),12	1116,(16, 2),28	1562,(14, 2),44	1785,(20, 2),48	2008,(19, 2),72	
# Outgoing
1,(21, 4),72	73,(21, 11),72	145,(21, 17),72	217,(21, 10),72	289,(21, 9),72	361,(21, 6),72	433,(21, 7),72	505,(21, 15),72	577,(21, 13),72	649,(8, 2),12	661,(5, 2),4	893,(3, 2),12	1116,(16, 2),28	1562,(14, 2),44	1785,(20, 2),48	2008,(19, 2),72	
519,(11, 1),4	965,(10, 1),24	1188,(9, 1),32	1634,(7, 1),12	2080,(13, 1),8	2303,(2, 0),16	
