268
# CPU
0,0,1	1,10,6	7,119,6	13,33,6	19,55,6	25,23,6	31,9,6	37,72,6	43,111,6	49,63,6	55,39,6	61,36,6	67,73,6	73,80,6	79,87,6	85,3,6	91,71,6	97,82,6	103,35,6	109,113,6	115,6,6	121,92,6	127,28,6	133,64,6	139,84,6	145,67,6	151,69,6	157,76,6	163,5,6	169,78,6	175,22,6	181,74,6	187,116,6	193,65,6	199,109,6	205,50,6	211,86,6	217,48,6	223,52,6	229,51,6	235,118,6	241,26,6	
8,20,6	21,7,6	27,16,6	33,120,6	39,85,6	45,31,6	51,34,6	57,96,6	63,4,6	69,45,6	75,21,6	81,89,6	87,68,6	93,62,6	99,37,6	105,2,6	111,104,6	117,102,6	123,18,6	129,25,6	135,75,6	141,94,6	147,98,6	153,59,6	159,97,6	165,99,6	171,46,6	177,49,6	183,95,6	189,44,6	195,110,6	201,60,6	207,11,6	213,117,6	219,14,6	225,101,6	231,107,6	237,70,6	243,90,6	249,27,6	255,77,6	261,83,6	267,121,1	
9,105,6	28,29,6	34,40,6	40,13,6	46,106,6	52,61,6	59,1,6	65,32,6	71,81,6	77,115,6	83,53,6	89,15,6	95,43,6	101,103,6	107,8,6	113,112,6	119,58,6	125,56,6	131,79,6	137,24,6	143,17,6	149,54,6	155,100,6	161,66,6	167,57,6	173,19,6	179,12,6	185,93,6	191,42,6	197,91,6	203,47,6	209,41,6	215,108,6	221,88,6	227,38,6	233,30,6	244,114,6	
# Incoming
187,(8, 86),1	188,(1, 48),1	189,(8, 52),1	190,(8, 51),1	204,(4, 26),2	218,(11, 118),2	
7,(10, 20),1	9,(0, 7),12	23,(0, 4),12	35,(10, 60),2	40,(9, 37),1	41,(10, 83),3	44,(119, 121),1	45,(33, 121),1	46,(55, 121),1	59,(0, 2),12	84,(23, 121),1	85,(72, 121),1	86,(111, 121),1	87,(63, 121),1	88,(39, 121),1	89,(36, 121),1	90,(73, 121),1	91,(3, 37),2	109,(3, 95),1	110,(80, 121),1	111,(87, 121),1	112,(71, 121),1	113,(82, 121),1	114,(35, 121),1	115,(113, 121),1	121,(6, 110),1	125,(0, 11),12	150,(92, 121),1	151,(28, 121),1	152,(64, 121),1	153,(84, 121),1	154,(67, 121),1	157,(69, 121),1	163,(76, 121),1	177,(5, 77),1	178,(78, 121),1	181,(22, 121),1	185,(12, 44),1	186,(12, 110),1	187,(74, 121),1	191,(105, 121),1	192,(29, 121),1	193,(40, 121),1	194,(13, 121),1	195,(106, 121),1	196,(61, 121),1	197,(32, 121),1	198,(81, 121),1	199,(115, 121),1	200,(53, 121),1	201,(15, 121),1	202,(43, 121),1	203,(103, 121),1	204,(112, 121),1	205,(58, 121),1	206,(56, 121),1	207,(79, 121),1	208,(24, 121),1	209,(17, 121),1	210,(54, 121),1	211,(100, 121),1	212,(66, 121),1	213,(57, 121),1	214,(19, 121),1	215,(93, 121),1	216,(116, 121),1	217,(42, 121),1	218,(65, 121),1	219,(91, 121),1	220,(109, 121),1	221,(47, 121),1	222,(50, 121),1	223,(41, 121),1	224,(86, 121),1	225,(108, 121),1	226,(48, 121),1	227,(88, 121),1	229,(52, 121),1	233,(38, 121),1	235,(51, 121),1	239,(30, 121),1	241,(118, 121),1	247,(26, 121),1	250,(114, 121),1	
8,(10, 105),1	21,(10, 40),1	22,(10, 61),1	27,(7, 29),1	28,(7, 40),2	30,(7, 106),1	31,(7, 100),6	37,(9, 13),1	38,(9, 106),2	40,(7, 61),7	47,(0, 1),12	69,(4, 41),1	71,(0, 8),12	83,(9, 66),1	84,(4, 57),8	93,(3, 103),4	97,(0, 12),12	111,(2, 54),4	115,(2, 66),7	122,(6, 57),3	137,(9, 38),13	169,(5, 19),1	170,(5, 108),7	177,(4, 30),27	213,(11, 88),5	220,(11, 114),24	
# Outgoing
7,(10, 20),1	8,(10, 105),1	9,(0, 7),12	21,(10, 40),1	22,(10, 61),1	23,(0, 4),12	35,(10, 60),2	37,(9, 13),1	38,(9, 106),2	40,(9, 37),1	41,(10, 83),3	44,(119, 121),1	45,(33, 121),1	46,(55, 121),1	47,(0, 1),12	59,(0, 2),12	71,(0, 8),12	83,(9, 66),1	84,(23, 121),1	85,(72, 121),1	86,(111, 121),1	87,(63, 121),1	88,(39, 121),1	89,(36, 121),1	90,(73, 121),1	91,(3, 37),2	93,(3, 103),4	97,(0, 12),12	109,(3, 95),1	110,(80, 121),1	111,(87, 121),1	112,(71, 121),1	113,(82, 121),1	114,(35, 121),1	115,(113, 121),1	121,(6, 110),1	122,(6, 57),3	125,(0, 11),12	137,(9, 38),13	150,(92, 121),1	151,(28, 121),1	152,(64, 121),1	153,(84, 121),1	154,(67, 121),1	157,(69, 121),1	163,(76, 121),1	169,(5, 19),1	170,(5, 108),7	177,(5, 77),1	178,(78, 121),1	181,(22, 121),1	187,(74, 121),1	216,(116, 121),1	218,(65, 121),1	220,(109, 121),1	222,(50, 121),1	224,(86, 121),1	226,(48, 121),1	229,(52, 121),1	235,(51, 121),1	241,(118, 121),1	247,(26, 121),1	
27,(7, 29),1	28,(7, 40),2	30,(7, 106),1	31,(7, 100),6	40,(7, 61),7	69,(4, 41),1	84,(4, 57),8	111,(2, 54),4	115,(2, 66),7	177,(4, 30),27	204,(4, 26),2	213,(11, 88),5	218,(11, 118),2	220,(11, 114),24	
185,(12, 44),1	186,(12, 110),1	187,(8, 86),1	188,(1, 48),1	189,(8, 52),1	190,(8, 51),1	191,(105, 121),1	192,(29, 121),1	193,(40, 121),1	194,(13, 121),1	195,(106, 121),1	196,(61, 121),1	197,(32, 121),1	198,(81, 121),1	199,(115, 121),1	200,(53, 121),1	201,(15, 121),1	202,(43, 121),1	203,(103, 121),1	204,(112, 121),1	205,(58, 121),1	206,(56, 121),1	207,(79, 121),1	208,(24, 121),1	209,(17, 121),1	210,(54, 121),1	211,(100, 121),1	212,(66, 121),1	213,(57, 121),1	214,(19, 121),1	215,(93, 121),1	217,(42, 121),1	219,(91, 121),1	221,(47, 121),1	223,(41, 121),1	225,(108, 121),1	227,(88, 121),1	233,(38, 121),1	239,(30, 121),1	250,(114, 121),1	
