1764
# CPU
0,201,1	1,160,3	4,72,3	7,109,3	10,21,3	13,38,3	16,151,3	19,118,3	22,62,3	25,26,3	28,22,3	31,156,3	34,188,3	37,143,3	40,99,3	43,89,3	46,126,3	49,42,3	52,148,3	55,130,3	58,82,3	61,58,3	64,178,3	67,29,3	70,86,3	73,141,3	76,183,3	79,172,3	82,158,3	85,31,3	88,106,3	91,171,3	94,35,3	97,65,3	100,138,3	103,111,3	106,69,3	109,30,3	112,166,3	115,70,3	118,91,3	121,194,3	124,136,3	127,163,3	130,197,3	133,134,3	136,64,3	139,104,3	142,55,3	145,139,3	148,95,3	151,131,3	154,161,3	157,46,3	160,122,3	163,100,3	166,105,3	169,157,3	172,149,3	175,56,3	178,181,3	181,80,3	184,96,3	187,60,3	190,103,3	193,146,3	196,127,3	199,76,3	202,68,3	205,144,3	208,110,3	211,192,3	214,34,3	217,186,3	220,57,3	223,63,3	226,61,3	229,115,3	232,184,3	235,47,3	238,167,3	241,39,3	244,84,3	247,52,3	250,43,3	253,189,3	256,168,3	259,195,3	262,83,3	265,44,3	268,24,3	271,196,3	274,116,3	277,37,3	280,119,3	283,90,3	286,162,3	289,137,3	292,193,3	295,124,3	298,198,3	301,185,3	304,108,3	307,176,3	310,169,3	313,102,3	316,40,3	319,54,3	322,107,3	325,123,3	328,173,3	331,155,3	334,132,3	337,114,3	340,101,3	343,200,3	346,23,3	349,128,3	352,180,3	355,71,3	358,67,3	361,75,3	364,147,3	367,154,3	370,117,3	373,48,3	376,97,3	379,175,3	382,27,3	385,92,3	388,121,3	391,87,3	394,36,3	397,79,3	400,59,3	403,53,3	406,85,3	409,187,3	412,14,3	415,98,3	418,125,3	421,140,3	424,159,3	427,120,3	430,45,3	433,94,3	436,15,3	439,2,3	442,16,3	445,3,3	448,19,3	472,12,3	528,7,3	612,4,3	700,8,3	812,20,3	924,1,3	1040,11,3	1172,18,3	1384,10,3	1760,9,3	1763,0,1	
61,77,3	157,49,3	193,191,3	217,150,3	229,41,3	277,174,3	313,73,3	361,74,3	373,133,3	397,164,3	433,199,3	477,6,3	985,13,3	
13,88,3	25,142,3	37,66,3	97,177,3	169,179,3	289,51,3	385,25,3	
49,33,3	85,152,3	
73,145,3	
109,78,3	133,93,3	145,113,3	
325,50,3	337,170,3	
265,112,3	
253,129,3	301,135,3	
121,153,3	181,32,3	205,28,3	241,190,3	349,81,3	409,182,3	421,165,3	637,17,3	785,5,3	
# Incoming
220,(150, 15),16	236,(77, 2),4	240,(152, 2),4	244,(113, 2),16	260,(28, 2),12	272,(33, 16),4	276,(153, 16),12	288,(41, 16),4	292,(174, 16),24	316,(66, 3),4	320,(28, 3),8	328,(150, 3),12	340,(32, 19),20	360,(88, 12),4	364,(74, 15),8	372,(28, 19),28	400,(179, 12),20	420,(77, 4),4	424,(165, 3),20	444,(129, 12),28	472,(73, 7),56	528,(6, 0),4	532,(49, 4),16	548,(51, 4),52	600,(135, 4),12	612,(112, 8),44	656,(182, 8),44	700,(17, 0),4	704,(145, 20),4	708,(78, 20),8	716,(150, 20),32	748,(50, 20),64	812,(5, 0),4	816,(133, 1),108	924,(177, 11),12	936,(93, 11),16	952,(74, 11),88	1040,(13, 0),4	1044,(25, 18),128	1172,(164, 10),212	1384,(152, 9),4	1388,(78, 9),12	1400,(50, 9),4	1404,(170, 9),72	1476,(182, 9),284	
49,(201, 77),12	145,(201, 49),12	181,(201, 191),12	205,(201, 150),12	217,(201, 41),12	265,(201, 174),12	301,(201, 73),12	349,(201, 74),12	361,(201, 133),12	385,(201, 164),12	421,(201, 199),12	433,(99, 6),4	437,(148, 6),4	441,(172, 6),8	449,(95, 6),16	465,(181, 6),4	469,(84, 6),4	473,(97, 6),4	477,(190, 13),36	513,(135, 13),52	693,(22, 13),4	697,(58, 13),4	701,(178, 13),4	705,(31, 13),8	713,(111, 13),12	725,(184, 13),4	785,(161, 13),16	801,(157, 13),20	821,(181, 13),20	841,(103, 13),24	865,(144, 13),28	893,(186, 13),28	921,(176, 13),56	977,(45, 13),8	
1,(201, 88),12	13,(201, 142),12	25,(201, 66),12	85,(201, 177),12	157,(201, 179),12	277,(201, 51),12	373,(201, 25),12	
37,(201, 33),12	73,(201, 152),12	
61,(201, 145),12	
97,(201, 78),12	121,(201, 93),12	133,(201, 113),12	
313,(201, 50),12	325,(201, 170),12	
253,(201, 112),12	
241,(201, 129),12	289,(201, 135),12	
109,(201, 153),12	169,(201, 32),12	193,(201, 28),12	229,(201, 190),12	241,(191, 17),24	276,(152, 5),8	320,(179, 17),4	324,(142, 5),4	337,(201, 81),12	349,(170, 17),4	372,(73, 17),20	397,(201, 182),12	409,(201, 165),12	424,(150, 5),20	444,(174, 5),16	477,(109, 17),4	481,(99, 17),4	485,(64, 17),16	501,(124, 17),52	553,(71, 17),80	633,(147, 17),4	637,(29, 5),4	641,(70, 5),12	653,(47, 5),4	657,(39, 5),36	693,(129, 5),36	729,(155, 5),56	
# Outgoing
1,(201, 88),12	13,(201, 142),12	25,(201, 66),12	37,(201, 33),12	49,(201, 77),12	61,(201, 145),12	73,(201, 152),12	85,(201, 177),12	97,(201, 78),12	109,(201, 153),12	121,(201, 93),12	133,(201, 113),12	145,(201, 49),12	157,(201, 179),12	169,(201, 32),12	181,(201, 191),12	193,(201, 28),12	205,(201, 150),12	217,(201, 41),12	229,(201, 190),12	241,(201, 129),12	253,(201, 112),12	265,(201, 174),12	277,(201, 51),12	289,(201, 135),12	301,(201, 73),12	313,(201, 50),12	325,(201, 170),12	337,(201, 81),12	349,(201, 74),12	361,(201, 133),12	373,(201, 25),12	385,(201, 164),12	397,(201, 182),12	409,(201, 165),12	421,(201, 199),12	433,(99, 6),4	437,(148, 6),4	441,(172, 6),8	449,(95, 6),16	465,(181, 6),4	469,(84, 6),4	473,(97, 6),4	477,(109, 17),4	481,(99, 17),4	485,(64, 17),16	501,(124, 17),52	553,(71, 17),80	633,(147, 17),4	637,(29, 5),4	641,(70, 5),12	653,(47, 5),4	657,(39, 5),36	693,(22, 13),4	697,(58, 13),4	701,(178, 13),4	705,(31, 13),8	713,(111, 13),12	725,(184, 13),4	729,(155, 5),56	785,(161, 13),16	801,(157, 13),20	821,(181, 13),20	841,(103, 13),24	865,(144, 13),28	893,(186, 13),28	921,(176, 13),56	977,(45, 13),8	
220,(150, 15),16	236,(77, 2),4	241,(191, 17),24	288,(41, 16),4	292,(174, 16),24	328,(150, 3),12	364,(74, 15),8	372,(73, 17),20	420,(77, 4),4	424,(150, 5),20	444,(174, 5),16	472,(73, 7),56	528,(6, 0),4	532,(49, 4),16	716,(150, 20),32	816,(133, 1),108	952,(74, 11),88	1040,(13, 0),4	1172,(164, 10),212	
316,(66, 3),4	320,(179, 17),4	324,(142, 5),4	360,(88, 12),4	400,(179, 12),20	548,(51, 4),52	924,(177, 11),12	1044,(25, 18),128	
240,(152, 2),4	272,(33, 16),4	276,(152, 5),8	1384,(152, 9),4	
704,(145, 20),4	
244,(113, 2),16	708,(78, 20),8	936,(93, 11),16	1388,(78, 9),12	
349,(170, 17),4	748,(50, 20),64	1400,(50, 9),4	1404,(170, 9),72	
612,(112, 8),44	
444,(129, 12),28	513,(135, 13),52	600,(135, 4),12	693,(129, 5),36	
260,(28, 2),12	276,(153, 16),12	320,(28, 3),8	340,(32, 19),20	372,(28, 19),28	424,(165, 3),20	477,(190, 13),36	656,(182, 8),44	700,(17, 0),4	812,(5, 0),4	1476,(182, 9),284	
