274
# CPU
20,8,7	27,11,7	234,15,7	265,19,7	
30,6,7	37,17,7	225,10,7	232,13,7	
16,5,7	34,14,7	218,9,7	246,18,7	
8,2,7	15,4,7	22,16,7	29,12,7	36,20,7	273,21,1	
0,0,1	1,1,7	22,3,7	207,7,7	
# Incoming
16,(1, 8),4	21,(1, 11),3	228,(2, 15),6	246,(2, 19),19	
24,(1, 13),3	27,(2, 6),3	34,(1, 17),1	218,(2, 10),7	225,(2, 13),3	
14,(1, 5),2	20,(1, 9),1	27,(1, 14),7	35,(1, 18),8	207,(2, 9),11	234,(2, 18),12	
1,(0, 2),7	8,(1, 4),6	23,(5, 21),1	27,(8, 21),1	34,(11, 21),1	37,(6, 21),1	41,(14, 21),1	43,(3, 21),1	44,(17, 21),1	214,(7, 21),1	225,(9, 21),1	232,(10, 21),1	239,(13, 21),1	241,(15, 21),1	253,(18, 21),1	272,(19, 21),1	
15,(2, 3),7	30,(2, 7),177	
# Outgoing
27,(8, 21),1	34,(11, 21),1	241,(15, 21),1	272,(19, 21),1	
37,(6, 21),1	44,(17, 21),1	232,(10, 21),1	239,(13, 21),1	
23,(5, 21),1	41,(14, 21),1	225,(9, 21),1	253,(18, 21),1	
15,(2, 3),7	27,(2, 6),3	30,(2, 7),177	207,(2, 9),11	218,(2, 10),7	225,(2, 13),3	228,(2, 15),6	234,(2, 18),12	246,(2, 19),19	
1,(0, 2),7	8,(1, 4),6	14,(1, 5),2	16,(1, 8),4	20,(1, 9),1	21,(1, 11),3	24,(1, 13),3	27,(1, 14),7	34,(1, 17),1	35,(1, 18),8	43,(3, 21),1	214,(7, 21),1	
