6809
# CPU
199,4,3	202,26,3	205,49,3	208,91,3	211,51,3	397,8,3	400,17,3	403,60,3	406,61,3	409,73,3	412,29,3	424,34,3	457,45,3	460,96,3	475,98,3	490,115,3	508,117,3	514,23,3	595,12,3	598,56,3	601,63,3	604,44,3	838,86,3	889,78,3	907,112,3	910,71,3	1081,52,3	1183,28,3	1192,38,3	1222,39,3	1276,65,3	1324,69,3	1327,94,3	1663,48,3	1687,67,3	1705,119,3	1717,30,3	1747,32,3	1777,37,3	1801,41,3	1819,53,3	2101,54,3	2128,59,3	2134,62,3	2140,76,3	2161,88,3	2179,35,3	2185,40,3	2203,84,3	2275,50,3	2284,80,3	2293,27,3	2314,33,3	2338,42,3	2359,47,3	2401,55,3	2404,57,3	2437,58,3	2536,46,3	2557,82,3	2578,100,3	2641,102,3	2662,106,3	2770,108,3	2785,110,3	2890,104,3	
133,3,3	136,109,3	139,118,3	331,7,3	529,11,3	532,75,3	598,16,3	781,64,3	892,92,3	1342,21,3	1396,103,3	1450,111,3	1492,116,3	1834,77,3	1870,83,3	2044,107,3	2047,25,3	2062,72,3	2068,81,3	2071,95,3	2098,22,3	2143,66,3	2206,89,3	2377,99,3	2497,85,3	2626,87,3	2638,101,3	2806,114,3	3058,36,3	3067,79,3	3097,120,3	3160,68,3	3163,70,3	3589,105,3	4873,97,3	6808,121,1	
67,2,3	265,6,3	463,10,3	571,24,3	1699,113,3	2053,14,3	2077,19,3	2311,31,3	3574,90,3	
0,0,1	1,5,3	4,9,3	7,1,3	1342,13,3	1450,18,3	1978,20,3	2008,15,3	3001,43,3	4636,74,3	6802,93,3	
# Incoming
133,(0, 4),66	331,(0, 8),66	397,(3, 29),15	412,(3, 32),3	415,(3, 34),9	424,(3, 42),15	439,(3, 45),18	457,(3, 96),3	460,(3, 98),15	475,(3, 100),3	487,(3, 115),3	490,(3, 117),18	508,(7, 23),6	529,(0, 12),66	595,(7, 44),3	598,(5, 44),3	601,(5, 46),39	640,(5, 52),90	730,(5, 58),48	778,(7, 39),6	784,(5, 86),54	838,(7, 37),24	862,(7, 38),9	871,(7, 41),6	877,(7, 62),3	880,(7, 78),9	889,(7, 112),18	907,(11, 71),3	910,(5, 104),3	913,(7, 52),168	1081,(7, 84),27	1108,(7, 102),45	1153,(11, 28),30	1183,(11, 38),9	1192,(11, 39),30	1222,(11, 40),9	1231,(11, 41),36	1267,(11, 65),9	1276,(11, 69),48	1324,(11, 94),3	1327,(11, 119),3	1330,(2, 40),234	1564,(2, 48),99	1663,(2, 62),21	1684,(2, 67),3	1687,(2, 108),15	1702,(2, 119),3	1705,(6, 30),12	1717,(6, 32),30	1747,(6, 37),30	1777,(6, 41),24	1801,(6, 53),18	1819,(9, 42),54	1873,(9, 47),6	1879,(9, 54),222	2101,(6, 59),27	2128,(6, 62),6	2134,(6, 76),6	2140,(6, 84),3	2143,(9, 88),18	2161,(10, 35),18	2179,(10, 40),6	2185,(10, 57),3	2188,(10, 84),15	2206,(9, 102),3	2209,(6, 50),66	2275,(11, 80),9	2290,(1, 27),3	2311,(1, 33),3	2314,(1, 42),24	2338,(1, 47),21	2359,(1, 55),42	2401,(1, 57),3	2404,(1, 58),33	2437,(1, 82),36	2473,(10, 46),63	2536,(10, 82),21	2557,(11, 100),21	2638,(1, 102),3	2641,(1, 106),21	2662,(1, 108),108	2770,(1, 110),15	2785,(11, 104),105	
67,(0, 3),66	265,(0, 7),66	463,(0, 11),66	595,(5, 16),3	778,(5, 64),3	781,(5, 72),3	886,(5, 92),6	892,(5, 95),18	913,(5, 107),24	1333,(4, 21),9	1342,(4, 36),9	1351,(4, 83),42	1393,(4, 103),3	1396,(4, 107),48	1444,(4, 111),6	1450,(4, 116),42	1492,(26, 121),3	1495,(49, 121),3	1498,(91, 121),3	1501,(51, 121),3	1699,(9, 25),120	1819,(2, 77),15	1834,(2, 83),36	1870,(2, 107),174	2044,(6, 25),3	2047,(6, 72),15	2062,(10, 81),6	2068,(10, 95),3	2071,(24, 121),3	2074,(113, 121),3	2077,(8, 22),21	2098,(14, 121),3	2101,(9, 66),42	2143,(19, 121),3	2161,(9, 89),45	2209,(9, 105),81	2290,(10, 99),87	2377,(10, 101),30	2407,(31, 121),3	2473,(1, 85),24	2497,(1, 87),129	2626,(1, 101),12	2785,(1, 114),21	2806,(6, 36),252	3058,(8, 79),9	3067,(8, 120),30	3097,(17, 121),3	3100,(60, 121),3	3103,(61, 121),3	3106,(73, 121),3	3109,(29, 121),3	3112,(34, 121),3	3115,(45, 121),3	3118,(96, 121),3	3121,(98, 121),3	3124,(115, 121),3	3127,(117, 121),3	3130,(23, 121),3	3133,(12, 68),27	3160,(12, 70),3	3163,(13, 121),3	3166,(18, 121),3	3169,(20, 121),3	3172,(15, 121),3	3175,(43, 121),3	3574,(12, 97),12	3586,(12, 105),3	3589,(56, 121),3	3592,(63, 121),3	3595,(44, 121),3	3598,(86, 121),3	3601,(78, 121),3	3604,(112, 121),3	3607,(71, 121),3	3610,(52, 121),3	3613,(28, 121),3	3616,(38, 121),3	3619,(39, 121),3	3622,(65, 121),3	3625,(69, 121),3	3628,(94, 121),3	3631,(48, 121),3	3634,(67, 121),3	3637,(119, 121),3	3640,(30, 121),3	3643,(32, 121),3	3646,(37, 121),3	3649,(41, 121),3	3652,(53, 121),3	3655,(54, 121),3	3658,(59, 121),3	3661,(62, 121),3	3664,(76, 121),3	3667,(88, 121),3	3670,(35, 121),3	3673,(40, 121),3	3676,(84, 121),3	3679,(50, 121),3	3682,(80, 121),3	3685,(27, 121),3	3688,(33, 121),3	3691,(42, 121),3	3694,(47, 121),3	3697,(55, 121),3	3700,(57, 121),3	3703,(58, 121),3	3706,(46, 121),3	3709,(82, 121),3	3712,(100, 121),3	3715,(102, 121),3	3718,(106, 121),3	3721,(108, 121),3	3724,(110, 121),3	3727,(104, 121),3	4636,(10, 97),237	4873,(90, 121),3	4876,(74, 121),3	6805,(93, 121),3	
1,(0, 2),66	199,(0, 6),66	265,(3, 14),69	334,(3, 19),45	379,(3, 24),15	397,(0, 10),66	478,(3, 113),9	514,(7, 24),57	838,(5, 90),48	937,(5, 113),762	1699,(7, 31),348	2047,(8, 14),6	2053,(8, 19),24	2293,(1, 31),18	3163,(12, 90),411	
70,(2, 15),1260	1330,(4, 18),3	1333,(7, 13),9	1342,(7, 18),30	1372,(11, 18),78	1504,(8, 20),474	1978,(8, 93),3	1981,(12, 15),27	2098,(8, 43),903	3058,(10, 74),1578	4636,(12, 93),2166	
# Outgoing
1330,(4, 18),3	1333,(4, 21),9	1342,(4, 36),9	1351,(4, 83),42	1393,(4, 103),3	1396,(4, 107),48	1444,(4, 111),6	1450,(4, 116),42	1492,(26, 121),3	1495,(49, 121),3	1498,(91, 121),3	1501,(51, 121),3	1504,(8, 20),474	1978,(8, 93),3	1981,(12, 15),27	2047,(8, 14),6	2053,(8, 19),24	2077,(8, 22),21	2098,(8, 43),903	3058,(8, 79),9	3067,(8, 120),30	3097,(17, 121),3	3100,(60, 121),3	3103,(61, 121),3	3106,(73, 121),3	3109,(29, 121),3	3112,(34, 121),3	3115,(45, 121),3	3118,(96, 121),3	3121,(98, 121),3	3124,(115, 121),3	3127,(117, 121),3	3130,(23, 121),3	3133,(12, 68),27	3160,(12, 70),3	3163,(12, 90),411	3574,(12, 97),12	3586,(12, 105),3	3589,(56, 121),3	3592,(63, 121),3	3595,(44, 121),3	3598,(86, 121),3	3601,(78, 121),3	3604,(112, 121),3	3607,(71, 121),3	3610,(52, 121),3	3613,(28, 121),3	3616,(38, 121),3	3619,(39, 121),3	3622,(65, 121),3	3625,(69, 121),3	3628,(94, 121),3	3631,(48, 121),3	3634,(67, 121),3	3637,(119, 121),3	3640,(30, 121),3	3643,(32, 121),3	3646,(37, 121),3	3649,(41, 121),3	3652,(53, 121),3	3655,(54, 121),3	3658,(59, 121),3	3661,(62, 121),3	3664,(76, 121),3	3667,(88, 121),3	3670,(35, 121),3	3673,(40, 121),3	3676,(84, 121),3	3679,(50, 121),3	3682,(80, 121),3	3685,(27, 121),3	3688,(33, 121),3	3691,(42, 121),3	3694,(47, 121),3	3697,(55, 121),3	3700,(57, 121),3	3703,(58, 121),3	3706,(46, 121),3	3709,(82, 121),3	3712,(100, 121),3	3715,(102, 121),3	3718,(106, 121),3	3721,(108, 121),3	3724,(110, 121),3	3727,(104, 121),3	4636,(12, 93),2166	
265,(3, 14),69	334,(3, 19),45	379,(3, 24),15	397,(3, 29),15	412,(3, 32),3	415,(3, 34),9	424,(3, 42),15	439,(3, 45),18	457,(3, 96),3	460,(3, 98),15	475,(3, 100),3	478,(3, 113),9	487,(3, 115),3	490,(3, 117),18	508,(7, 23),6	514,(7, 24),57	595,(7, 44),3	778,(7, 39),6	838,(7, 37),24	862,(7, 38),9	871,(7, 41),6	877,(7, 62),3	880,(7, 78),9	889,(7, 112),18	907,(11, 71),3	913,(7, 52),168	1081,(7, 84),27	1108,(7, 102),45	1153,(11, 28),30	1183,(11, 38),9	1192,(11, 39),30	1222,(11, 40),9	1231,(11, 41),36	1267,(11, 65),9	1276,(11, 69),48	1324,(11, 94),3	1327,(11, 119),3	1333,(7, 13),9	1342,(7, 18),30	1372,(11, 18),78	1699,(7, 31),348	2275,(11, 80),9	2557,(11, 100),21	2785,(11, 104),105	
70,(2, 15),1260	1330,(2, 40),234	1564,(2, 48),99	1663,(2, 62),21	1684,(2, 67),3	1687,(2, 108),15	1702,(2, 119),3	1705,(6, 30),12	1717,(6, 32),30	1747,(6, 37),30	1777,(6, 41),24	1801,(6, 53),18	1819,(2, 77),15	1834,(2, 83),36	1870,(2, 107),174	2044,(6, 25),3	2047,(6, 72),15	2062,(10, 81),6	2068,(10, 95),3	2071,(24, 121),3	2074,(113, 121),3	2098,(14, 121),3	2101,(6, 59),27	2128,(6, 62),6	2134,(6, 76),6	2140,(6, 84),3	2143,(19, 121),3	2161,(10, 35),18	2179,(10, 40),6	2185,(10, 57),3	2188,(10, 84),15	2209,(6, 50),66	2290,(10, 99),87	2377,(10, 101),30	2407,(31, 121),3	2473,(10, 46),63	2536,(10, 82),21	2806,(6, 36),252	3058,(10, 74),1578	4636,(10, 97),237	4873,(90, 121),3	
1,(0, 2),66	67,(0, 3),66	133,(0, 4),66	199,(0, 6),66	265,(0, 7),66	331,(0, 8),66	397,(0, 10),66	463,(0, 11),66	529,(0, 12),66	595,(5, 16),3	598,(5, 44),3	601,(5, 46),39	640,(5, 52),90	730,(5, 58),48	778,(5, 64),3	781,(5, 72),3	784,(5, 86),54	838,(5, 90),48	886,(5, 92),6	892,(5, 95),18	910,(5, 104),3	913,(5, 107),24	937,(5, 113),762	1699,(9, 25),120	1819,(9, 42),54	1873,(9, 47),6	1879,(9, 54),222	2101,(9, 66),42	2143,(9, 88),18	2161,(9, 89),45	2206,(9, 102),3	2209,(9, 105),81	2290,(1, 27),3	2293,(1, 31),18	2311,(1, 33),3	2314,(1, 42),24	2338,(1, 47),21	2359,(1, 55),42	2401,(1, 57),3	2404,(1, 58),33	2437,(1, 82),36	2473,(1, 85),24	2497,(1, 87),129	2626,(1, 101),12	2638,(1, 102),3	2641,(1, 106),21	2662,(1, 108),108	2770,(1, 110),15	2785,(1, 114),21	3163,(13, 121),3	3166,(18, 121),3	3169,(20, 121),3	3172,(15, 121),3	3175,(43, 121),3	4876,(74, 121),3	6805,(93, 121),3	
