887
# CPU
14,7,1	22,13,1	105,28,1	147,31,1	414,40,1	415,23,1	440,24,1	479,36,1	504,37,1	507,38,1	511,39,1	549,20,1	552,25,1	553,26,1	555,27,1	578,30,1	592,33,1	601,34,1	607,35,1	745,15,1	749,21,1	763,29,1	772,32,1	886,41,1	
3,1,1	4,5,1	5,14,1	6,16,1	7,3,1	8,6,1	9,9,1	10,22,1	15,10,1	24,19,1	
0,0,1	1,4,1	2,2,1	3,11,1	4,12,1	5,18,1	6,8,1	7,17,1	
# Incoming
5,(4, 7),9	15,(4, 13),7	22,(4, 15),1	24,(4, 20),10	34,(4, 21),40	74,(4, 24),1	75,(4, 28),30	105,(4, 29),24	129,(4, 31),18	147,(4, 33),1	148,(4, 35),251	399,(4, 40),15	414,(2, 23),1	415,(2, 24),25	440,(2, 25),20	460,(2, 26),13	473,(2, 32),5	478,(2, 36),1	479,(2, 37),25	504,(2, 38),3	507,(2, 39),4	511,(1, 15),35	546,(1, 20),3	549,(1, 25),3	552,(1, 26),1	553,(1, 27),2	555,(1, 30),23	578,(1, 33),14	592,(1, 34),9	601,(1, 35),6	607,(11, 41),19	626,(5, 41),19	645,(12, 41),19	664,(14, 41),19	683,(18, 41),19	702,(16, 41),19	721,(8, 41),19	740,(3, 15),5	745,(3, 21),4	749,(3, 29),14	763,(3, 32),9	772,(17, 41),19	791,(6, 41),19	810,(9, 41),19	829,(22, 41),19	848,(10, 41),19	867,(19, 41),19	
1,(0, 1),2	3,(0, 3),2	14,(4, 10),1	23,(4, 19),1	

# Outgoing

511,(1, 15),35	546,(1, 20),3	549,(1, 25),3	552,(1, 26),1	553,(1, 27),2	555,(1, 30),23	578,(1, 33),14	592,(1, 34),9	601,(1, 35),6	626,(5, 41),19	664,(14, 41),19	702,(16, 41),19	740,(3, 15),5	745,(3, 21),4	749,(3, 29),14	763,(3, 32),9	791,(6, 41),19	810,(9, 41),19	829,(22, 41),19	848,(10, 41),19	867,(19, 41),19	
1,(0, 1),2	3,(0, 3),2	5,(4, 7),9	14,(4, 10),1	15,(4, 13),7	22,(4, 15),1	23,(4, 19),1	24,(4, 20),10	34,(4, 21),40	74,(4, 24),1	75,(4, 28),30	105,(4, 29),24	129,(4, 31),18	147,(4, 33),1	148,(4, 35),251	399,(4, 40),15	414,(2, 23),1	415,(2, 24),25	440,(2, 25),20	460,(2, 26),13	473,(2, 32),5	478,(2, 36),1	479,(2, 37),25	504,(2, 38),3	507,(2, 39),4	607,(11, 41),19	645,(12, 41),19	683,(18, 41),19	721,(8, 41),19	772,(17, 41),19	
