7118
# CPU
45,14,4	69,32,4	93,84,4	157,86,4	277,111,4	1177,60,4	1181,61,4	1441,88,4	2129,89,4	2273,15,4	2277,19,4	2281,25,4	2877,36,4	2985,46,4	3013,47,4	3021,53,4	3029,55,4	3149,101,4	3441,31,4	3541,63,4	3545,66,4	3577,100,4	3625,105,4	3629,114,4	3725,40,4	3881,75,4	4017,95,4	4253,110,4	4265,58,4	4341,73,4	4593,85,4	4601,87,4	4625,90,4	4637,106,4	4641,35,4	4645,37,4	4729,41,4	4757,44,4	4761,49,4	4769,68,4	4777,76,4	4781,93,4	4805,94,4	4809,96,4	4817,109,4	5001,116,4	5005,117,4	5013,18,4	5309,27,4	5325,50,4	5329,62,4	5357,64,4	5361,67,4	5437,72,4	5441,91,4	5521,103,4	5545,20,4	5561,21,4	5573,26,4	5621,43,4	5625,51,4	5637,54,4	5801,71,4	5805,74,4	5853,108,4	5857,120,4	5861,13,4	6053,28,4	6117,33,4	6121,42,4	6125,56,4	6129,57,4	6141,65,4	6145,80,4	6169,81,4	6249,97,4	6305,102,4	6341,104,4	6345,115,4	6369,118,4	6373,16,4	6401,17,4	6489,38,4	6605,52,4	6657,70,4	6705,77,4	6717,79,4	6745,82,4	6777,83,4	6781,99,4	6785,107,4	6789,112,4	6805,113,4	6857,22,4	6889,23,4	6893,24,4	6929,29,4	6945,30,4	7025,34,4	7041,39,4	7045,45,4	7053,48,4	7069,59,4	7073,69,4	7077,78,4	7081,92,4	7085,98,4	7113,119,4	7117,121,1	
0,0,1	1,3,4	5,10,4	9,4,4	13,11,4	17,2,4	21,9,4	25,1,4	29,7,4	33,8,4	37,6,4	41,5,4	45,12,4	
# Incoming
5,(3, 14),40	45,(3, 20),20	65,(3, 32),4	69,(3, 84),24	93,(3, 86),64	157,(3, 101),116	273,(3, 111),4	277,(3, 115),804	1081,(3, 116),4	1085,(3, 118),4	1089,(10, 13),4	1093,(10, 40),4	1097,(10, 60),80	1177,(10, 61),4	1181,(10, 64),4	1185,(10, 88),256	1441,(10, 89),688	2129,(10, 98),8	2137,(10, 113),4	2141,(4, 15),132	2273,(4, 19),4	2277,(4, 25),4	2281,(4, 36),596	2877,(4, 38),20	2897,(4, 44),40	2937,(4, 46),48	2985,(4, 47),28	3013,(4, 53),8	3021,(4, 55),8	3029,(4, 58),4	3033,(4, 67),72	3105,(4, 73),4	3109,(4, 96),8	3117,(4, 101),32	3149,(11, 17),280	3429,(11, 31),12	3441,(11, 39),4	3445,(11, 59),72	3517,(11, 63),24	3541,(11, 66),4	3545,(11, 100),32	3577,(11, 105),48	3625,(11, 114),4	3629,(2, 22),8	3637,(2, 39),8	3645,(2, 40),80	3725,(2, 49),44	3769,(2, 67),20	3789,(2, 75),92	3881,(2, 83),60	3941,(2, 95),76	4017,(2, 103),232	4249,(2, 110),4	4253,(9, 42),4	4257,(9, 58),8	4265,(9, 73),76	4341,(9, 74),40	4381,(9, 85),212	4593,(9, 87),8	4601,(9, 90),24	4625,(9, 106),12	4637,(1, 35),4	4641,(1, 37),4	4645,(1, 41),84	4729,(1, 44),28	4757,(1, 49),4	4761,(1, 51),4	4765,(1, 68),4	4769,(1, 76),8	4777,(1, 93),4	4781,(1, 94),24	4805,(1, 96),4	4809,(1, 109),8	4817,(1, 116),184	5001,(1, 117),4	5005,(7, 18),8	5013,(7, 23),28	5041,(7, 26),104	5145,(7, 27),164	5309,(7, 50),16	5325,(7, 62),4	5329,(7, 64),28	5357,(7, 67),4	5361,(7, 72),76	5437,(7, 91),4	5441,(7, 99),40	5481,(7, 103),40	5521,(7, 118),4	5525,(8, 20),20	5545,(8, 21),16	5561,(8, 26),12	5573,(8, 33),44	5617,(8, 43),4	5621,(8, 51),4	5625,(8, 54),12	5637,(8, 71),164	5801,(8, 74),4	5805,(8, 92),32	5837,(8, 108),16	5853,(8, 120),4	5857,(6, 13),4	5861,(6, 16),132	5993,(6, 23),28	6021,(6, 28),32	6053,(6, 33),64	6117,(6, 42),4	6121,(6, 56),4	6125,(6, 57),4	6129,(6, 65),12	6141,(6, 80),4	6145,(6, 81),24	6169,(6, 97),80	6249,(6, 102),56	6305,(6, 104),36	6341,(6, 115),4	6345,(6, 118),24	6369,(5, 16),4	6373,(5, 17),28	6401,(5, 38),88	6489,(5, 45),64	6553,(5, 52),52	6605,(5, 70),52	6657,(5, 77),48	6705,(5, 79),12	6717,(5, 82),28	6745,(5, 83),32	6777,(5, 99),4	6781,(5, 107),4	6785,(5, 112),4	6789,(5, 113),16	6805,(12, 22),52	6857,(12, 23),32	6889,(12, 24),4	6893,(12, 29),36	6929,(12, 30),16	6945,(12, 34),80	7025,(12, 39),16	7041,(12, 45),4	7045,(12, 48),8	7053,(12, 59),16	7069,(12, 69),4	7073,(12, 78),4	7077,(12, 92),4	7081,(12, 98),4	7085,(12, 119),28	

# Outgoing

5,(3, 14),40	45,(3, 20),20	65,(3, 32),4	69,(3, 84),24	93,(3, 86),64	157,(3, 101),116	273,(3, 111),4	277,(3, 115),804	1081,(3, 116),4	1085,(3, 118),4	1089,(10, 13),4	1093,(10, 40),4	1097,(10, 60),80	1177,(10, 61),4	1181,(10, 64),4	1185,(10, 88),256	1441,(10, 89),688	2129,(10, 98),8	2137,(10, 113),4	2141,(4, 15),132	2273,(4, 19),4	2277,(4, 25),4	2281,(4, 36),596	2877,(4, 38),20	2897,(4, 44),40	2937,(4, 46),48	2985,(4, 47),28	3013,(4, 53),8	3021,(4, 55),8	3029,(4, 58),4	3033,(4, 67),72	3105,(4, 73),4	3109,(4, 96),8	3117,(4, 101),32	3149,(11, 17),280	3429,(11, 31),12	3441,(11, 39),4	3445,(11, 59),72	3517,(11, 63),24	3541,(11, 66),4	3545,(11, 100),32	3577,(11, 105),48	3625,(11, 114),4	3629,(2, 22),8	3637,(2, 39),8	3645,(2, 40),80	3725,(2, 49),44	3769,(2, 67),20	3789,(2, 75),92	3881,(2, 83),60	3941,(2, 95),76	4017,(2, 103),232	4249,(2, 110),4	4253,(9, 42),4	4257,(9, 58),8	4265,(9, 73),76	4341,(9, 74),40	4381,(9, 85),212	4593,(9, 87),8	4601,(9, 90),24	4625,(9, 106),12	4637,(1, 35),4	4641,(1, 37),4	4645,(1, 41),84	4729,(1, 44),28	4757,(1, 49),4	4761,(1, 51),4	4765,(1, 68),4	4769,(1, 76),8	4777,(1, 93),4	4781,(1, 94),24	4805,(1, 96),4	4809,(1, 109),8	4817,(1, 116),184	5001,(1, 117),4	5005,(7, 18),8	5013,(7, 23),28	5041,(7, 26),104	5145,(7, 27),164	5309,(7, 50),16	5325,(7, 62),4	5329,(7, 64),28	5357,(7, 67),4	5361,(7, 72),76	5437,(7, 91),4	5441,(7, 99),40	5481,(7, 103),40	5521,(7, 118),4	5525,(8, 20),20	5545,(8, 21),16	5561,(8, 26),12	5573,(8, 33),44	5617,(8, 43),4	5621,(8, 51),4	5625,(8, 54),12	5637,(8, 71),164	5801,(8, 74),4	5805,(8, 92),32	5837,(8, 108),16	5853,(8, 120),4	5857,(6, 13),4	5861,(6, 16),132	5993,(6, 23),28	6021,(6, 28),32	6053,(6, 33),64	6117,(6, 42),4	6121,(6, 56),4	6125,(6, 57),4	6129,(6, 65),12	6141,(6, 80),4	6145,(6, 81),24	6169,(6, 97),80	6249,(6, 102),56	6305,(6, 104),36	6341,(6, 115),4	6345,(6, 118),24	6369,(5, 16),4	6373,(5, 17),28	6401,(5, 38),88	6489,(5, 45),64	6553,(5, 52),52	6605,(5, 70),52	6657,(5, 77),48	6705,(5, 79),12	6717,(5, 82),28	6745,(5, 83),32	6777,(5, 99),4	6781,(5, 107),4	6785,(5, 112),4	6789,(5, 113),16	6805,(12, 22),52	6857,(12, 23),32	6889,(12, 24),4	6893,(12, 29),36	6929,(12, 30),16	6945,(12, 34),80	7025,(12, 39),16	7041,(12, 45),4	7045,(12, 48),8	7053,(12, 59),16	7069,(12, 69),4	7073,(12, 78),4	7077,(12, 92),4	7081,(12, 98),4	7085,(12, 119),28	
