155
# CPU
5,2,1	6,10,1	7,18,1	8,19,1	9,13,1	10,15,1	11,4,1	12,6,1	21,7,1	23,9,1	33,11,1	37,12,1	39,14,1	49,17,1	
0,0,1	1,1,1	2,5,1	3,16,1	12,3,1	44,8,1	128,20,1	154,21,1	
# Incoming
1,(0, 2),4	5,(1, 4),2	7,(1, 6),2	9,(1, 7),12	21,(1, 9),2	23,(1, 11),10	33,(1, 12),4	37,(1, 14),2	39,(1, 17),10	
6,(2, 3),6	12,(2, 8),32	44,(2, 20),84	128,(10, 21),2	130,(18, 21),2	132,(19, 21),2	134,(13, 21),2	136,(15, 21),2	138,(4, 21),2	140,(6, 21),2	142,(7, 21),2	144,(9, 21),2	146,(11, 21),2	148,(12, 21),2	150,(14, 21),2	152,(17, 21),2	
# Outgoing
6,(2, 3),6	12,(2, 8),32	44,(2, 20),84	128,(10, 21),2	130,(18, 21),2	132,(19, 21),2	134,(13, 21),2	136,(15, 21),2	138,(4, 21),2	140,(6, 21),2	142,(7, 21),2	144,(9, 21),2	146,(11, 21),2	148,(12, 21),2	150,(14, 21),2	152,(17, 21),2	
1,(0, 2),4	5,(1, 4),2	7,(1, 6),2	9,(1, 7),12	21,(1, 9),2	23,(1, 11),10	33,(1, 12),4	37,(1, 14),2	39,(1, 17),10	
