4458
# CPU
0,0,1	1,6,7	8,5,7	15,41,7	22,73,7	29,33,7	36,60,7	43,20,7	50,16,7	57,68,7	64,22,7	71,13,7	78,59,7	85,24,7	92,18,7	253,72,7	961,27,7	1185,38,7	1249,43,7	1381,49,7	1477,56,7	1484,75,7	1577,29,7	1657,79,7	1817,17,7	1824,36,7	1937,71,7	4457,81,1	
13,1,7	20,9,7	27,34,7	34,67,7	41,25,7	48,77,7	55,3,7	62,4,7	69,11,7	76,40,7	83,64,7	90,35,7	97,28,7	104,30,7	111,62,7	118,61,7	125,44,7	132,57,7	139,66,7	146,70,7	153,55,7	160,76,7	167,39,7	174,19,7	181,78,7	188,37,7	195,45,7	
25,2,7	32,10,7	39,48,7	46,51,7	53,65,7	60,21,7	67,58,7	74,7,7	81,8,7	88,32,7	95,42,7	102,74,7	109,63,7	116,69,7	123,80,7	130,14,7	137,54,7	144,53,7	151,52,7	158,12,7	165,15,7	172,50,7	179,26,7	186,46,7	429,23,7	437,31,7	449,47,7	
# Incoming
29,(1, 18),4	33,(1, 43),192	225,(1, 49),16	241,(1, 72),12	253,(1, 79),28	281,(9, 81),72	353,(34, 81),72	425,(10, 81),72	497,(67, 81),72	569,(48, 81),72	641,(25, 81),72	713,(51, 81),72	785,(77, 81),72	857,(65, 81),72	929,(3, 27),32	961,(3, 29),28	989,(3, 38),196	1185,(3, 43),64	1249,(3, 49),132	1381,(3, 56),96	1477,(3, 75),4	1481,(21, 81),72	1553,(4, 29),24	1577,(4, 79),80	1657,(58, 81),72	1729,(11, 81),72	1801,(7, 17),16	1817,(7, 36),4	1821,(40, 81),72	1893,(8, 71),44	1937,(64, 81),72	2009,(32, 81),72	2081,(35, 81),72	2153,(42, 81),72	2225,(28, 81),72	2297,(74, 81),72	2369,(30, 81),72	2441,(63, 81),72	2513,(62, 81),72	2585,(69, 81),72	2657,(61, 81),72	2729,(80, 81),72	2801,(44, 81),72	2873,(14, 81),72	2945,(57, 81),72	3017,(54, 81),72	3089,(66, 81),72	3161,(53, 81),72	3233,(70, 81),72	3305,(52, 81),72	3377,(55, 81),72	3449,(12, 81),72	3521,(76, 81),72	3593,(15, 81),72	3665,(39, 81),72	3737,(50, 81),72	3809,(19, 81),72	3881,(26, 81),72	3953,(78, 81),72	4025,(46, 81),72	4097,(37, 81),72	4169,(45, 81),72	4241,(23, 81),72	4313,(31, 81),72	4385,(47, 81),72	
1,(0, 1),12	25,(0, 3),12	37,(0, 4),12	49,(2, 11),4	53,(2, 66),4	81,(7, 19),4	85,(6, 78),4	89,(8, 37),8	97,(8, 45),4	
13,(0, 2),12	25,(1, 12),4	49,(0, 7),12	61,(0, 8),12	73,(6, 32),4	77,(6, 52),8	425,(3, 23),4	429,(3, 31),8	437,(4, 47),12	
# Outgoing
1,(0, 1),12	13,(0, 2),12	25,(0, 3),12	37,(0, 4),12	49,(0, 7),12	61,(0, 8),12	73,(6, 32),4	77,(6, 52),8	85,(6, 78),4	
25,(1, 12),4	29,(1, 18),4	33,(1, 43),192	225,(1, 49),16	241,(1, 72),12	253,(1, 79),28	281,(9, 81),72	353,(34, 81),72	425,(3, 23),4	429,(3, 31),8	437,(4, 47),12	497,(67, 81),72	641,(25, 81),72	785,(77, 81),72	929,(3, 27),32	961,(3, 29),28	989,(3, 38),196	1185,(3, 43),64	1249,(3, 49),132	1381,(3, 56),96	1477,(3, 75),4	1553,(4, 29),24	1577,(4, 79),80	1729,(11, 81),72	1821,(40, 81),72	1937,(64, 81),72	2081,(35, 81),72	2225,(28, 81),72	2369,(30, 81),72	2513,(62, 81),72	2657,(61, 81),72	2801,(44, 81),72	2945,(57, 81),72	3089,(66, 81),72	3233,(70, 81),72	3377,(55, 81),72	3521,(76, 81),72	3665,(39, 81),72	3809,(19, 81),72	3953,(78, 81),72	4097,(37, 81),72	4169,(45, 81),72	
49,(2, 11),4	53,(2, 66),4	81,(7, 19),4	89,(8, 37),8	97,(8, 45),4	425,(10, 81),72	569,(48, 81),72	713,(51, 81),72	857,(65, 81),72	1481,(21, 81),72	1657,(58, 81),72	1801,(7, 17),16	1817,(7, 36),4	1893,(8, 71),44	2009,(32, 81),72	2153,(42, 81),72	2297,(74, 81),72	2441,(63, 81),72	2585,(69, 81),72	2729,(80, 81),72	2873,(14, 81),72	3017,(54, 81),72	3161,(53, 81),72	3305,(52, 81),72	3449,(12, 81),72	3593,(15, 81),72	3737,(50, 81),72	3881,(26, 81),72	4025,(46, 81),72	4241,(23, 81),72	4313,(31, 81),72	4385,(47, 81),72	
