467
# CPU
13,5,5	18,55,5	23,50,5	28,60,5	33,10,5	38,25,5	43,100,5	48,105,5	53,120,5	58,75,5	63,115,5	68,85,5	73,16,5	78,35,5	83,20,5	88,70,5	93,30,5	98,40,5	109,90,5	114,95,5	163,65,5	175,110,5	228,45,5	257,80,5	
10,4,5	15,69,5	20,74,5	25,79,5	30,64,5	35,9,5	40,24,5	45,84,5	50,99,5	55,104,5	70,29,5	75,15,5	80,39,5	85,44,5	156,49,5	161,54,5	173,94,5	201,119,5	206,34,5	214,89,5	227,59,5	238,19,5	316,114,5	381,109,5	
7,3,5	12,33,5	17,48,5	22,98,5	27,8,5	32,13,5	37,23,5	42,28,5	47,93,5	52,63,5	59,43,5	64,78,5	69,118,5	74,53,5	79,113,5	101,83,5	124,108,5	129,58,5	137,88,5	202,18,5	209,38,5	314,103,5	362,73,5	460,68,5	
4,2,5	9,82,5	14,97,5	19,7,5	24,32,5	29,87,5	34,17,5	39,12,5	44,77,5	49,42,5	54,102,5	59,107,5	64,47,5	69,27,5	74,117,5	91,37,5	110,52,5	253,62,5	313,92,5	327,22,5	351,57,5	356,67,5	361,72,5	387,112,5	
0,0,1	1,11,5	6,6,5	11,1,5	16,14,5	21,56,5	26,111,5	31,101,5	36,66,5	41,86,5	46,31,5	51,61,5	56,91,5	61,36,5	74,106,5	79,26,5	84,71,5	89,41,5	94,81,5	104,51,5	119,116,5	171,46,5	176,21,5	181,76,5	186,96,5	466,121,1	
# Incoming
10,(0, 5),3	15,(4, 55),1	22,(0, 10),3	33,(2, 75),13	46,(8, 115),1	47,(9, 85),1	48,(7, 16),2	50,(7, 35),1	51,(8, 20),8	64,(12, 70),1	70,(11, 30),2	72,(11, 40),2	91,(8, 90),18	109,(8, 95),3	156,(11, 65),7	173,(11, 110),2	209,(6, 45),19	253,(6, 80),4	
7,(0, 4),3	12,(3, 69),1	19,(0, 9),3	28,(2, 24),4	32,(8, 84),1	38,(11, 29),32	70,(7, 15),3	73,(10, 39),1	74,(11, 44),2	76,(11, 49),80	156,(12, 54),5	163,(11, 94),10	175,(11, 119),26	202,(6, 34),1	203,(5, 89),11	214,(10, 59),13	227,(12, 19),11	314,(6, 114),2	362,(1, 109),19	
4,(0, 3),3	16,(0, 8),3	19,(2, 13),9	28,(11, 23),9	37,(11, 28),1	46,(2, 93),1	47,(10, 63),4	51,(7, 43),8	59,(7, 78),3	62,(7, 118),2	64,(10, 53),7	73,(12, 113),1	78,(7, 83),23	101,(7, 108),23	124,(9, 58),5	129,(9, 88),8	201,(6, 18),1	203,(6, 38),6	313,(6, 103),1	353,(1, 73),9	362,(10, 68),98	
1,(0, 2),3	13,(0, 7),3	18,(5, 32),6	25,(0, 12),3	28,(5, 77),6	59,(8, 37),32	104,(9, 52),6	228,(6, 62),25	257,(6, 92),56	316,(1, 22),11	327,(1, 57),24	351,(1, 67),1	352,(1, 72),1	381,(1, 112),6	
32,(2, 31),1	33,(4, 61),4	37,(4, 91),2	39,(33, 121),1	40,(5, 36),1	41,(69, 121),1	42,(48, 121),1	43,(55, 121),1	44,(74, 121),1	45,(98, 121),1	46,(50, 121),1	47,(82, 121),1	48,(4, 106),26	74,(97, 121),1	75,(7, 26),2	77,(7, 71),1	78,(79, 121),1	79,(60, 121),1	80,(64, 121),1	81,(10, 41),3	84,(10, 81),5	89,(9, 51),15	104,(25, 121),1	105,(100, 121),1	106,(105, 121),1	107,(120, 121),1	108,(75, 121),1	109,(115, 121),1	110,(24, 121),1	111,(84, 121),1	112,(13, 121),1	113,(9, 116),6	119,(23, 121),1	120,(28, 121),1	121,(93, 121),1	122,(99, 121),1	123,(63, 121),1	124,(32, 121),1	125,(87, 121),1	126,(10, 46),45	171,(17, 121),1	172,(12, 21),3	175,(12, 76),2	177,(12, 96),5	182,(77, 121),1	183,(42, 121),1	184,(102, 121),1	185,(104, 121),1	186,(43, 121),1	187,(107, 121),1	188,(78, 121),1	189,(47, 121),1	190,(85, 121),1	191,(118, 121),1	192,(27, 121),1	193,(29, 121),1	194,(16, 121),1	195,(53, 121),1	196,(117, 121),1	197,(15, 121),1	198,(35, 121),1	199,(113, 121),1	200,(39, 121),1	201,(20, 121),1	202,(44, 121),1	203,(37, 121),1	204,(83, 121),1	205,(52, 121),1	206,(108, 121),1	207,(58, 121),1	208,(88, 121),1	209,(49, 121),1	210,(54, 121),1	211,(94, 121),1	212,(119, 121),1	213,(18, 121),1	214,(34, 121),1	215,(38, 121),1	219,(89, 121),1	227,(70, 121),1	228,(30, 121),1	229,(40, 121),1	230,(90, 121),1	231,(95, 121),1	232,(65, 121),1	233,(110, 121),1	234,(59, 121),1	235,(45, 121),1	243,(19, 121),1	258,(62, 121),1	262,(80, 121),1	318,(92, 121),1	319,(103, 121),1	321,(114, 121),1	332,(22, 121),1	356,(57, 121),1	361,(67, 121),1	366,(72, 121),1	367,(73, 121),1	386,(109, 121),1	392,(112, 121),1	465,(68, 121),1	
# Outgoing
18,(5, 32),6	28,(5, 77),6	40,(5, 36),1	43,(55, 121),1	46,(50, 121),1	47,(10, 63),4	64,(10, 53),7	73,(10, 39),1	79,(60, 121),1	81,(10, 41),3	84,(10, 81),5	104,(25, 121),1	105,(100, 121),1	106,(105, 121),1	107,(120, 121),1	108,(75, 121),1	109,(115, 121),1	126,(10, 46),45	190,(85, 121),1	194,(16, 121),1	198,(35, 121),1	201,(20, 121),1	203,(5, 89),11	214,(10, 59),13	227,(70, 121),1	228,(30, 121),1	229,(40, 121),1	230,(90, 121),1	231,(95, 121),1	232,(65, 121),1	233,(110, 121),1	235,(45, 121),1	262,(80, 121),1	362,(10, 68),98	
15,(4, 55),1	33,(4, 61),4	37,(4, 91),2	41,(69, 121),1	44,(74, 121),1	47,(9, 85),1	48,(4, 106),26	78,(79, 121),1	80,(64, 121),1	89,(9, 51),15	104,(9, 52),6	110,(24, 121),1	111,(84, 121),1	113,(9, 116),6	122,(99, 121),1	124,(9, 58),5	129,(9, 88),8	185,(104, 121),1	193,(29, 121),1	197,(15, 121),1	200,(39, 121),1	202,(44, 121),1	209,(49, 121),1	210,(54, 121),1	211,(94, 121),1	212,(119, 121),1	214,(34, 121),1	219,(89, 121),1	234,(59, 121),1	243,(19, 121),1	321,(114, 121),1	386,(109, 121),1	
12,(3, 69),1	32,(8, 84),1	39,(33, 121),1	42,(48, 121),1	45,(98, 121),1	46,(8, 115),1	51,(8, 20),8	59,(8, 37),32	91,(8, 90),18	109,(8, 95),3	112,(13, 121),1	119,(23, 121),1	120,(28, 121),1	121,(93, 121),1	123,(63, 121),1	186,(43, 121),1	188,(78, 121),1	191,(118, 121),1	195,(53, 121),1	199,(113, 121),1	204,(83, 121),1	206,(108, 121),1	207,(58, 121),1	208,(88, 121),1	213,(18, 121),1	215,(38, 121),1	319,(103, 121),1	367,(73, 121),1	465,(68, 121),1	
19,(2, 13),9	28,(2, 24),4	32,(2, 31),1	33,(2, 75),13	46,(2, 93),1	47,(82, 121),1	48,(7, 16),2	50,(7, 35),1	51,(7, 43),8	59,(7, 78),3	62,(7, 118),2	64,(12, 70),1	70,(7, 15),3	73,(12, 113),1	74,(97, 121),1	75,(7, 26),2	77,(7, 71),1	78,(7, 83),23	101,(7, 108),23	124,(32, 121),1	125,(87, 121),1	156,(12, 54),5	171,(17, 121),1	172,(12, 21),3	175,(12, 76),2	177,(12, 96),5	182,(77, 121),1	183,(42, 121),1	184,(102, 121),1	187,(107, 121),1	189,(47, 121),1	192,(27, 121),1	196,(117, 121),1	203,(37, 121),1	205,(52, 121),1	227,(12, 19),11	258,(62, 121),1	318,(92, 121),1	332,(22, 121),1	356,(57, 121),1	361,(67, 121),1	366,(72, 121),1	392,(112, 121),1	
1,(0, 2),3	4,(0, 3),3	7,(0, 4),3	10,(0, 5),3	13,(0, 7),3	16,(0, 8),3	19,(0, 9),3	22,(0, 10),3	25,(0, 12),3	28,(11, 23),9	37,(11, 28),1	38,(11, 29),32	70,(11, 30),2	72,(11, 40),2	74,(11, 44),2	76,(11, 49),80	156,(11, 65),7	163,(11, 94),10	173,(11, 110),2	175,(11, 119),26	201,(6, 18),1	202,(6, 34),1	203,(6, 38),6	209,(6, 45),19	228,(6, 62),25	253,(6, 80),4	257,(6, 92),56	313,(6, 103),1	314,(6, 114),2	316,(1, 22),11	327,(1, 57),24	351,(1, 67),1	352,(1, 72),1	353,(1, 73),9	362,(1, 109),19	381,(1, 112),6	
