7302
# CPU
85,4,2	87,33,2	89,104,2	119,34,2	123,51,2	131,85,2	139,110,2	169,8,2	171,28,2	173,91,2	175,98,2	177,107,2	179,116,2	181,35,2	183,40,2	185,49,2	213,63,2	221,80,2	253,12,2	255,44,2	257,45,2	259,48,2	261,84,2	263,108,2	265,76,2	269,92,2	273,58,2	277,73,2	361,57,2	377,59,2	381,71,2	457,24,2	493,82,2	509,25,2	513,31,2	517,65,2	521,81,2	541,86,2	561,87,2	565,89,2	605,102,2	665,103,2	737,111,2	849,120,2	1037,113,2	1061,32,2	1073,50,2	1077,75,2	1081,112,2	1085,53,2	1089,54,2	1221,79,2	1241,95,2	1261,96,2	1281,99,2	1425,117,2	1441,93,2	1445,106,2	1465,42,2	1509,47,2	1513,52,2	1521,83,2	1525,90,2	1537,100,2	1553,114,2	1569,115,2	1585,118,2	1589,119,2	3933,69,2	3965,37,2	3989,97,2	4381,36,2	4441,61,2	4477,77,2	4489,94,2	4505,43,2	4525,46,2	4537,67,2	4565,78,2	4573,101,2	7301,121,1	
57,3,2	59,29,2	61,70,2	141,7,2	143,30,2	145,64,2	177,62,2	225,11,2	227,20,2	229,68,2	231,88,2	233,72,2	235,38,2	277,21,2	321,66,2	525,74,2	625,41,2	825,105,2	915,60,2	1417,109,2	1429,26,2	1449,27,2	
29,2,2	31,17,2	33,55,2	113,6,2	197,10,2	261,18,2	365,23,2	945,19,2	1081,39,2	1649,56,2	
0,0,1	1,1,2	3,9,2	5,5,2	7,13,2	47,14,2	911,22,2	935,15,2	1035,16,2	
# Incoming
57,(0, 4),28	87,(2, 34),32	119,(2, 51),4	123,(2, 85),8	131,(2, 110),8	141,(0, 8),28	177,(2, 63),36	213,(6, 24),4	217,(6, 80),4	221,(6, 114),4	225,(0, 12),28	253,(2, 92),16	269,(10, 58),4	273,(10, 73),4	277,(1, 47),24	301,(1, 57),60	361,(1, 59),16	377,(1, 71),4	381,(2, 24),76	457,(2, 82),36	493,(3, 25),16	509,(3, 31),4	513,(3, 65),4	517,(3, 81),4	521,(3, 100),4	525,(1, 86),16	541,(1, 87),20	561,(1, 89),4	565,(1, 102),40	605,(1, 103),60	665,(1, 111),72	737,(1, 120),112	849,(17, 121),124	973,(3, 112),28	1001,(3, 113),36	1037,(6, 32),24	1061,(6, 50),12	1073,(7, 75),4	1077,(7, 112),4	1081,(9, 53),4	1085,(9, 54),4	1089,(9, 69),96	1185,(9, 79),36	1221,(9, 83),16	1237,(9, 95),4	1241,(9, 96),20	1261,(9, 99),20	1281,(9, 117),144	1425,(6, 93),16	1441,(10, 106),4	1449,(5, 42),16	1465,(5, 47),44	1509,(5, 52),4	1513,(5, 83),8	1521,(5, 90),4	1525,(5, 100),12	1537,(5, 114),16	1553,(5, 115),16	1569,(5, 118),16	1585,(5, 119),4	1589,(13, 121),124	1713,(2, 101),1568	3281,(55, 121),124	3405,(14, 121),124	3529,(29, 121),124	3653,(70, 121),124	3777,(6, 69),156	3933,(7, 37),32	3965,(7, 97),24	3989,(30, 121),124	4113,(64, 121),124	4237,(62, 121),124	4361,(10, 36),20	4381,(10, 61),60	4441,(10, 77),36	4477,(10, 94),12	4489,(11, 43),16	4505,(11, 46),20	4525,(11, 67),12	4537,(11, 78),28	4565,(11, 101),8	4573,(20, 121),124	4697,(68, 121),124	4821,(88, 121),124	4945,(72, 121),124	5069,(38, 121),124	5193,(18, 121),124	5317,(21, 121),124	5441,(66, 121),124	5565,(23, 121),124	5689,(74, 121),124	5813,(41, 121),124	5937,(105, 121),124	6061,(22, 121),124	6185,(60, 121),124	6309,(15, 121),124	6433,(19, 121),124	6557,(16, 121),124	6681,(39, 121),124	6805,(109, 121),124	6929,(26, 121),124	7053,(27, 121),124	7177,(56, 121),124	
29,(0, 3),28	59,(2, 20),28	113,(0, 7),28	141,(2, 62),36	197,(0, 11),28	261,(1, 21),16	277,(6, 66),44	381,(1, 74),144	525,(10, 41),100	625,(10, 105),200	911,(8, 60),4	1073,(10, 109),344	1425,(5, 26),4	1429,(5, 27),20	
1,(0, 2),28	85,(0, 6),28	169,(0, 10),28	253,(1, 18),8	261,(3, 23),104	365,(7, 56),28	849,(9, 19),96	945,(9, 39),136	1081,(8, 56),568	
31,(2, 14),16	47,(2, 15),12	87,(4, 22),824	915,(12, 15),20	935,(12, 16),100	
# Outgoing
87,(4, 22),824	911,(8, 60),4	915,(12, 15),20	935,(12, 16),100	1081,(8, 56),568	
261,(3, 23),104	365,(7, 56),28	493,(3, 25),16	509,(3, 31),4	513,(3, 65),4	517,(3, 81),4	521,(3, 100),4	973,(3, 112),28	1001,(3, 113),36	1073,(7, 75),4	1077,(7, 112),4	3529,(29, 121),124	3653,(70, 121),124	3933,(7, 37),32	3965,(7, 97),24	3989,(30, 121),124	4113,(64, 121),124	4237,(62, 121),124	4489,(11, 43),16	4505,(11, 46),20	4525,(11, 67),12	4537,(11, 78),28	4565,(11, 101),8	4573,(20, 121),124	4697,(68, 121),124	4821,(88, 121),124	4945,(72, 121),124	5069,(38, 121),124	5317,(21, 121),124	5441,(66, 121),124	5689,(74, 121),124	5813,(41, 121),124	5937,(105, 121),124	6185,(60, 121),124	6805,(109, 121),124	6929,(26, 121),124	7053,(27, 121),124	
31,(2, 14),16	47,(2, 15),12	59,(2, 20),28	87,(2, 34),32	119,(2, 51),4	123,(2, 85),8	131,(2, 110),8	141,(2, 62),36	177,(2, 63),36	213,(6, 24),4	217,(6, 80),4	221,(6, 114),4	253,(2, 92),16	269,(10, 58),4	273,(10, 73),4	277,(6, 66),44	381,(2, 24),76	457,(2, 82),36	525,(10, 41),100	625,(10, 105),200	849,(17, 121),124	1037,(6, 32),24	1061,(6, 50),12	1073,(10, 109),344	1425,(6, 93),16	1441,(10, 106),4	1713,(2, 101),1568	3281,(55, 121),124	3777,(6, 69),156	4361,(10, 36),20	4381,(10, 61),60	4441,(10, 77),36	4477,(10, 94),12	5193,(18, 121),124	5565,(23, 121),124	6433,(19, 121),124	6681,(39, 121),124	7177,(56, 121),124	
1,(0, 2),28	29,(0, 3),28	57,(0, 4),28	85,(0, 6),28	113,(0, 7),28	141,(0, 8),28	169,(0, 10),28	197,(0, 11),28	225,(0, 12),28	253,(1, 18),8	261,(1, 21),16	277,(1, 47),24	301,(1, 57),60	361,(1, 59),16	377,(1, 71),4	381,(1, 74),144	525,(1, 86),16	541,(1, 87),20	561,(1, 89),4	565,(1, 102),40	605,(1, 103),60	665,(1, 111),72	737,(1, 120),112	849,(9, 19),96	945,(9, 39),136	1081,(9, 53),4	1085,(9, 54),4	1089,(9, 69),96	1185,(9, 79),36	1221,(9, 83),16	1237,(9, 95),4	1241,(9, 96),20	1261,(9, 99),20	1281,(9, 117),144	1425,(5, 26),4	1429,(5, 27),20	1449,(5, 42),16	1465,(5, 47),44	1509,(5, 52),4	1513,(5, 83),8	1521,(5, 90),4	1525,(5, 100),12	1537,(5, 114),16	1553,(5, 115),16	1569,(5, 118),16	1585,(5, 119),4	1589,(13, 121),124	3405,(14, 121),124	6061,(22, 121),124	6309,(15, 121),124	6557,(16, 121),124	
