3254
# CPU
0,0,1	1,6,38	39,12,38	77,19,38	115,20,38	153,17,38	191,1,38	229,93,38	267,108,38	305,14,38	343,76,38	381,3,38	419,2,38	457,50,38	495,183,38	533,95,38	571,188,38	609,189,38	647,23,38	685,127,38	723,121,38	761,37,38	799,103,38	837,75,38	875,171,38	913,130,38	951,143,38	989,133,38	1027,158,38	1065,122,38	1103,99,38	1141,145,38	1179,31,38	1217,90,38	1255,109,38	1293,180,38	1331,32,38	1369,25,38	1407,107,38	1445,97,38	1483,59,38	1521,176,38	1559,136,38	1597,56,38	1635,160,38	1673,82,38	1711,126,38	1749,184,38	1787,140,38	1825,173,38	1863,70,38	1901,144,38	1939,115,38	1977,101,38	2015,178,38	2053,192,38	2091,131,38	2129,57,38	2167,60,38	2205,153,38	2243,102,38	2281,112,38	2319,142,38	2357,177,38	2395,119,38	2433,51,38	2471,69,38	2509,78,38	2547,42,38	2585,77,38	2623,195,38	2661,117,38	2699,36,38	2737,100,38	2881,182,38	3005,151,38	3215,64,38	3253,201,1	
49,9,38	97,16,38	145,5,38	193,7,38	231,68,38	269,27,38	307,179,38	345,74,38	383,181,38	421,28,38	459,111,38	497,187,38	535,35,38	573,24,38	611,79,38	649,34,38	687,65,38	725,66,38	783,53,38	821,62,38	861,61,38	919,63,38	959,67,38	1003,175,38	1059,98,38	1123,138,38	1203,148,38	1335,94,38	1731,193,38	2007,33,38	2109,169,38	2165,89,38	2223,161,38	2345,54,38	2409,104,38	2479,118,38	3087,154,38	
73,18,38	169,8,38	207,186,38	245,123,38	283,191,38	323,163,38	361,44,38	399,11,38	437,49,38	475,157,38	513,48,38	551,30,38	589,150,38	627,135,38	665,137,38	703,105,38	741,199,38	815,124,38	897,147,38	979,21,38	1033,156,38	1091,83,38	1169,194,38	1305,152,38	1395,197,38	1433,46,38	1473,185,38	1513,84,38	1555,196,38	1643,174,38	1687,139,38	1827,71,38	1967,190,38	2635,22,38	2731,58,38	2829,164,38	2945,132,38	
219,10,38	257,86,38	295,13,38	333,110,38	371,172,38	409,116,38	447,29,38	485,80,38	523,128,38	561,149,38	599,155,38	637,39,38	675,141,38	713,165,38	753,85,38	841,129,38	1275,120,38	1599,106,38	1879,159,38	2283,113,38	2553,87,38	
25,4,38	121,15,38	159,168,38	197,166,38	235,170,38	273,88,38	311,40,38	349,43,38	387,167,38	425,91,38	463,38,38	501,146,38	539,41,38	577,55,38	615,162,38	653,125,38	691,198,38	729,81,38	767,52,38	805,92,38	843,200,38	881,134,38	949,73,38	1155,96,38	1239,26,38	1359,47,38	1777,72,38	1933,45,38	2053,114,38	
# Incoming
135,(16, 50),2	197,(168, 201),2	213,(16, 188),2	227,(4, 23),2	229,(5, 103),2	231,(7, 50),24	255,(166, 201),2	257,(186, 201),2	259,(15, 127),2	265,(15, 171),2	267,(9, 171),2	269,(68, 201),2	273,(170, 201),2	275,(16, 37),4	279,(18, 189),2	281,(18, 127),2	283,(123, 201),2	295,(86, 201),2	297,(18, 121),2	299,(18, 143),2	301,(18, 82),2	303,(4, 144),2	305,(10, 95),2	307,(27, 201),2	309,(15, 115),2	311,(88, 201),2	313,(15, 131),2	315,(10, 103),2	317,(10, 171),2	319,(10, 158),2	321,(191, 201),2	323,(8, 126),2	325,(15, 75),6	331,(10, 25),2	333,(4, 102),2	335,(18, 31),6	341,(15, 119),2	343,(18, 184),2	345,(179, 201),2	347,(8, 184),2	349,(40, 201),2	351,(18, 69),2	353,(13, 23),2	355,(13, 121),2	357,(10, 130),4	361,(163, 201),2	363,(13, 130),2	365,(13, 25),2	367,(13, 136),2	369,(10, 56),2	371,(110, 201),2	373,(4, 99),6	379,(4, 56),4	383,(74, 201),2	385,(4, 100),2	387,(43, 201),2	389,(8, 90),6	395,(8, 177),4	399,(44, 201),2	401,(4, 31),8	409,(172, 201),2	411,(8, 109),6	419,(9, 143),2	421,(181, 201),2	423,(8, 182),2	425,(167, 201),2	427,(4, 109),6	433,(10, 184),2	437,(5, 143),2	439,(5, 122),2	441,(5, 99),2	443,(10, 144),2	445,(10, 101),2	447,(116, 201),2	449,(15, 112),4	455,(16, 90),2	457,(9, 109),2	459,(28, 201),2	463,(91, 201),2	469,(11, 99),2	471,(11, 176),2	473,(11, 136),2	475,(49, 201),2	481,(10, 115),4	485,(29, 201),2	487,(13, 176),6	493,(10, 142),2	495,(9, 180),2	497,(111, 201),2	499,(16, 176),2	501,(38, 201),2	503,(7, 158),6	509,(11, 82),2	511,(11, 140),2	513,(157, 201),2	515,(10, 136),8	523,(80, 201),2	525,(10, 70),10	535,(187, 201),2	537,(13, 119),2	539,(146, 201),2	541,(11, 133),8	549,(11, 173),2	551,(48, 201),2	553,(11, 90),6	559,(7, 176),2	561,(128, 201),2	563,(11, 153),2	565,(11, 77),2	573,(35, 201),2	577,(41, 201),2	585,(11, 117),2	587,(18, 151),2	589,(30, 201),2	591,(10, 51),2	593,(13, 195),2	595,(10, 117),2	599,(149, 201),2	601,(10, 42),8	611,(24, 201),2	613,(16, 136),2	615,(55, 201),2	619,(8, 176),8	627,(150, 201),2	631,(9, 122),6	637,(155, 201),2	639,(5, 145),10	649,(79, 201),2	653,(162, 201),2	655,(18, 180),10	665,(135, 201),2	667,(8, 115),8	675,(39, 201),2	677,(16, 180),4	681,(5, 97),4	685,(7, 160),2	687,(34, 201),2	689,(7, 184),2	691,(125, 201),2	693,(9, 136),6	699,(16, 173),2	701,(9, 144),2	703,(137, 201),2	705,(18, 60),6	713,(141, 201),2	715,(10, 182),4	725,(65, 201),2	729,(198, 201),2	731,(9, 115),4	741,(105, 201),2	743,(18, 182),4	747,(18, 64),4	751,(165, 201),2	753,(18, 115),10	763,(66, 201),2	767,(81, 201),2	769,(11, 192),10	779,(199, 201),2	789,(5, 115),2	791,(85, 201),2	793,(16, 160),12	805,(52, 201),2	807,(4, 25),14	821,(53, 201),2	823,(8, 59),18	843,(92, 201),2	853,(124, 201),2	857,(7, 101),2	859,(62, 201),2	861,(9, 32),16	877,(5, 112),2	879,(129, 201),2	881,(200, 201),2	883,(13, 97),14	897,(9, 51),2	899,(61, 201),2	901,(15, 126),14	919,(134, 201),2	921,(11, 56),14	935,(147, 201),2	945,(5, 160),6	951,(16, 178),6	957,(63, 201),2	959,(9, 107),18	977,(16, 126),8	985,(16, 69),2	987,(73, 201),2	989,(5, 144),8	997,(67, 201),2	999,(9, 82),16	1015,(5, 69),2	1017,(21, 201),2	1019,(5, 184),16	1035,(16, 78),2	1037,(9, 77),2	1039,(5, 195),2	1041,(175, 201),2	1051,(4, 70),16	1067,(7, 117),2	1071,(156, 201),2	1073,(7, 140),22	1097,(98, 201),2	1099,(7, 173),20	1119,(8, 60),10	1129,(83, 201),2	1131,(13, 144),14	1145,(5, 101),12	1161,(138, 201),2	1163,(15, 192),22	1193,(96, 201),2	1207,(194, 201),2	1209,(11, 142),22	1241,(148, 201),2	1243,(13, 101),14	1259,(4, 131),18	1277,(26, 201),2	1279,(13, 178),26	1313,(120, 201),2	1315,(9, 131),14	1329,(7, 112),10	1343,(152, 201),2	1345,(15, 60),22	1367,(7, 64),6	1373,(94, 201),2	1375,(5, 102),16	1397,(47, 201),2	1399,(16, 57),34	1433,(197, 201),2	1435,(10, 102),34	1471,(46, 201),2	1473,(9, 112),18	1491,(16, 142),18	1511,(185, 201),2	1513,(13, 112),22	1535,(18, 177),16	1551,(84, 201),2	1553,(13, 142),20	1573,(18, 42),14	1593,(196, 201),2	1595,(5, 177),42	1637,(106, 201),2	1639,(9, 119),26	1665,(18, 77),14	1681,(174, 201),2	1683,(11, 119),38	1725,(139, 201),2	1727,(16, 51),42	1769,(193, 201),2	1771,(13, 51),28	1799,(4, 117),16	1815,(72, 201),2	1817,(8, 153),46	1865,(71, 201),2	1867,(15, 78),32	1899,(8, 117),16	1917,(159, 201),2	1919,(13, 42),28	1947,(8, 195),20	1971,(45, 201),2	1973,(7, 42),28	2005,(190, 201),2	2007,(5, 77),18	2025,(11, 64),16	2045,(33, 201),2	2047,(9, 78),42	2091,(114, 201),2	2093,(10, 77),42	2147,(169, 201),2	2149,(10, 36),36	2203,(89, 201),2	2205,(16, 195),56	2261,(161, 201),2	2263,(15, 100),48	2321,(113, 201),2	2329,(5, 100),32	2383,(54, 201),2	2385,(9, 69),62	2447,(104, 201),2	2449,(9, 117),68	2517,(118, 201),2	2519,(10, 100),60	2591,(87, 201),2	2593,(11, 36),76	2673,(22, 201),2	2675,(4, 151),60	2769,(58, 201),2	2771,(4, 182),110	2881,(164, 201),2	2883,(9, 151),78	2961,(5, 151),44	3005,(132, 201),2	3007,(15, 64),208	3215,(154, 201),2	
25,(0, 9),24	73,(0, 16),24	121,(0, 5),24	169,(0, 7),24	201,(4, 27),2	211,(4, 181),4	215,(15, 28),6	223,(15, 24),2	225,(4, 79),2	231,(6, 27),8	239,(12, 27),4	243,(19, 27),2	245,(20, 27),2	257,(4, 34),2	261,(15, 65),4	271,(15, 175),2	283,(12, 179),2	285,(17, 179),16	301,(10, 74),2	303,(18, 28),10	313,(10, 24),2	315,(15, 169),2	317,(8, 79),4	321,(4, 53),4	325,(18, 62),2	327,(8, 175),2	329,(18, 98),2	333,(13, 74),2	335,(15, 61),6	341,(19, 181),2	343,(13, 181),10	353,(8, 169),2	355,(20, 181),2	357,(4, 66),16	373,(13, 65),18	391,(4, 98),6	399,(13, 62),4	409,(12, 28),6	415,(19, 28),2	417,(1, 28),2	425,(12, 111),2	427,(8, 53),10	439,(11, 111),2	443,(11, 98),2	445,(17, 187),2	447,(3, 187),4	451,(13, 148),6	457,(2, 111),2	459,(11, 24),10	473,(13, 61),8	481,(12, 35),4	485,(20, 35),8	493,(2, 35),2	501,(11, 34),8	509,(13, 54),6	515,(8, 66),14	529,(14, 24),4	541,(4, 62),26	567,(18, 148),10	577,(8, 148),8	585,(20, 79),12	597,(17, 79),2	599,(11, 62),20	623,(6, 34),14	641,(11, 89),2	663,(13, 63),10	673,(20, 65),2	675,(3, 65),12	693,(15, 118),12	713,(20, 66),2	715,(1, 66),4	719,(10, 118),6	731,(15, 62),30	765,(6, 53),2	767,(19, 53),12	779,(14, 53),2	781,(3, 53),2	783,(15, 89),22	815,(19, 62),2	841,(19, 61),2	843,(20, 61),18	897,(20, 63),10	907,(14, 63),12	919,(10, 67),40	959,(10, 193),20	979,(14, 175),24	1033,(1, 98),26	1091,(19, 138),6	1097,(14, 138),2	1099,(3, 138),2	1101,(2, 138),22	1169,(6, 148),10	1179,(17, 148),20	1199,(1, 148),2	1201,(3, 148),2	1203,(15, 94),56	1305,(6, 94),8	1313,(20, 94),10	1345,(11, 193),48	1687,(14, 193),44	1933,(2, 33),14	1967,(6, 33),40	2053,(20, 169),2	2055,(3, 169),54	2109,(12, 89),16	2125,(20, 89),40	2165,(6, 161),2	2167,(20, 161),2	2169,(17, 161),54	2283,(6, 54),40	2323,(12, 54),2	2325,(2, 54),20	2345,(20, 104),2	2347,(17, 104),8	2355,(1, 104),14	2369,(2, 104),40	2409,(20, 118),2	2411,(3, 118),52	2463,(2, 118),16	2945,(17, 154),56	3001,(1, 154),86	
49,(0, 18),24	145,(0, 8),24	171,(9, 163),10	181,(16, 157),2	187,(16, 163),4	193,(12, 186),2	199,(4, 186),2	203,(4, 44),8	211,(16, 48),2	221,(4, 157),2	223,(19, 123),6	229,(15, 49),8	251,(1, 191),8	259,(9, 30),8	267,(4, 135),2	269,(15, 135),2	271,(16, 135),4	275,(4, 163),24	299,(15, 137),2	301,(7, 199),2	303,(10, 48),2	305,(4, 105),2	307,(10, 137),2	309,(19, 163),12	321,(20, 163),2	323,(10, 105),6	329,(10, 83),2	331,(7, 147),2	333,(1, 44),2	335,(13, 44),4	339,(7, 137),4	343,(4, 152),2	345,(14, 44),2	347,(15, 174),2	351,(4, 21),4	355,(15, 58),2	359,(0, 11),24	383,(15, 164),2	385,(7, 135),16	403,(13, 147),4	407,(13, 156),2	411,(13, 105),10	421,(10, 58),2	423,(3, 49),2	435,(6, 157),2	437,(1, 157),6	443,(15, 185),6	451,(12, 48),2	453,(19, 48),2	455,(20, 48),2	457,(13, 137),16	473,(14, 48),2	475,(5, 105),20	495,(13, 124),12	509,(16, 194),2	511,(6, 30),6	517,(3, 30),8	525,(4, 71),4	533,(9, 46),2	537,(12, 150),6	543,(3, 150),20	563,(16, 21),10	575,(5, 199),16	591,(7, 156),18	609,(9, 84),2	615,(14, 135),2	617,(10, 84),12	637,(7, 174),2	641,(12, 137),4	651,(5, 194),4	655,(4, 199),34	689,(6, 105),4	693,(20, 105),4	697,(14, 105),2	699,(3, 105),2	701,(2, 105),2	703,(9, 197),6	711,(16, 152),14	727,(16, 139),2	729,(1, 199),2	731,(14, 199),4	735,(5, 156),28	763,(10, 174),10	783,(16, 46),4	787,(5, 139),2	791,(17, 124),2	793,(1, 124),2	795,(3, 124),18	813,(2, 124),2	815,(7, 185),6	831,(13, 196),28	871,(17, 147),22	893,(14, 147),2	895,(2, 147),2	901,(7, 197),44	949,(19, 21),18	967,(20, 21),2	969,(14, 21),10	979,(13, 190),18	1003,(6, 156),2	1005,(19, 156),24	1029,(14, 156),4	1033,(4, 139),18	1059,(14, 83),32	1091,(4, 194),56	1155,(19, 194),2	1157,(3, 194),12	1169,(13, 152),70	1243,(7, 190),10	1253,(9, 22),20	1275,(6, 152),24	1299,(20, 152),4	1303,(14, 152),2	1305,(7, 132),10	1359,(20, 197),36	1395,(17, 46),10	1405,(14, 46),2	1407,(3, 46),26	1433,(20, 185),12	1445,(17, 185),26	1471,(14, 185),2	1473,(12, 84),8	1481,(17, 84),16	1497,(14, 84),14	1511,(2, 84),2	1513,(19, 196),12	1525,(1, 196),30	1555,(5, 58),38	1599,(20, 174),44	1643,(12, 139),2	1645,(19, 139),42	1687,(10, 164),78	1777,(19, 71),10	1787,(20, 71),6	1793,(17, 71),8	1801,(1, 71),26	1827,(9, 190),134	1961,(17, 190),6	2263,(5, 22),66	2553,(12, 22),2	2555,(19, 22),10	2565,(17, 22),2	2567,(1, 22),68	2635,(6, 58),28	2663,(14, 58),68	2731,(12, 164),38	2769,(20, 164),22	2791,(1, 164),38	2829,(14, 132),2	2831,(3, 132),96	2927,(2, 132),18	
195,(0, 10),24	219,(5, 86),10	229,(12, 86),2	237,(15, 29),18	255,(7, 86),2	257,(5, 172),2	259,(0, 13),24	285,(18, 172),2	287,(8, 116),2	289,(18, 155),6	295,(9, 80),6	301,(15, 80),2	303,(9, 128),2	305,(9, 149),2	307,(4, 129),2	309,(7, 128),8	317,(16, 149),6	323,(17, 110),4	327,(1, 110),6	333,(7, 155),2	335,(12, 172),6	341,(8, 165),2	343,(7, 141),2	345,(18, 113),2	347,(17, 172),8	355,(18, 87),2	357,(16, 39),20	377,(16, 85),2	379,(5, 129),2	383,(6, 116),2	385,(19, 116),6	391,(17, 116),4	395,(1, 116),14	409,(4, 85),8	417,(8, 85),6	423,(5, 165),14	437,(11, 29),2	439,(4, 159),4	443,(17, 80),2	445,(11, 149),10	461,(2, 80),2	463,(9, 85),12	475,(1, 128),2	477,(2, 128),4	487,(11, 39),14	501,(5, 106),2	503,(15, 120),12	515,(15, 159),8	525,(1, 149),4	529,(8, 129),12	563,(6, 155),8	571,(20, 155),2	573,(17, 155),8	581,(3, 155),2	583,(2, 155),2	585,(15, 165),26	617,(19, 39),6	637,(11, 106),4	645,(17, 141),28	703,(19, 165),10	715,(11, 159),20	735,(19, 85),16	751,(17, 85),2	765,(9, 129),18	805,(9, 159),10	817,(20, 129),6	823,(14, 129),18	1163,(16, 159),74	1239,(19, 120),28	1267,(3, 120),6	1273,(2, 120),2	1555,(6, 106),38	1593,(12, 106),6	1827,(19, 159),4	1831,(17, 159),4	1835,(14, 159),42	1877,(2, 159),2	2223,(20, 113),6	2229,(1, 113),54	2479,(6, 87),2	2481,(20, 87),6	2487,(17, 87),30	2517,(3, 87),36	
1,(0, 4),24	97,(0, 15),24	137,(16, 168),2	139,(16, 88),6	145,(9, 40),26	183,(5, 166),4	191,(5, 167),6	197,(16, 91),4	201,(5, 146),2	203,(9, 41),6	209,(16, 41),2	215,(16, 162),2	217,(5, 162),2	219,(19, 170),4	247,(1, 88),4	259,(8, 40),16	275,(8, 43),4	279,(7, 91),16	295,(8, 52),2	297,(10, 43),2	299,(10, 146),2	301,(19, 40),4	305,(17, 40),2	307,(1, 40),2	309,(10, 162),2	311,(10, 114),2	313,(8, 55),4	323,(9, 55),8	331,(18, 81),4	335,(9, 200),2	337,(5, 200),2	339,(13, 167),2	341,(13, 55),2	343,(14, 43),2	347,(16, 55),10	357,(14, 167),2	363,(18, 198),14	377,(18, 200),4	381,(5, 134),2	383,(8, 134),6	391,(10, 81),8	401,(5, 125),8	409,(7, 134),10	419,(6, 91),2	421,(14, 91),2	423,(13, 96),4	427,(12, 38),6	433,(20, 38),2	435,(13, 26),6	441,(11, 41),2	443,(16, 81),12	455,(11, 198),4	459,(2, 38),2	461,(9, 96),2	463,(14, 146),8	471,(2, 146),2	477,(11, 162),10	495,(17, 41),8	503,(1, 41),6	509,(14, 41),2	511,(9, 125),22	533,(19, 55),2	535,(17, 55),2	537,(5, 52),22	559,(11, 73),4	563,(13, 198),26	591,(11, 52),6	599,(14, 162),16	615,(5, 92),16	631,(18, 26),6	637,(2, 125),4	641,(10, 92),22	663,(16, 200),12	675,(18, 134),12	687,(20, 198),2	689,(13, 200),20	709,(16, 96),2	711,(11, 72),4	719,(19, 81),8	727,(20, 81),2	729,(16, 47),2	735,(18, 114),6	753,(3, 52),8	761,(2, 52),4	783,(20, 92),4	787,(14, 92),4	793,(10, 200),38	831,(9, 134),26	861,(6, 134),4	865,(14, 134),6	871,(11, 47),36	919,(6, 73),6	925,(14, 73),22	947,(2, 73),2	949,(18, 72),24	1043,(9, 72),18	1123,(19, 96),2	1125,(20, 96),20	1145,(17, 96),2	1147,(14, 96),8	1203,(6, 26),8	1211,(1, 26),26	1237,(2, 26),2	1323,(12, 47),28	1351,(20, 47),2	1353,(2, 47),6	1731,(6, 72),18	1749,(12, 72),4	1753,(20, 72),2	1755,(1, 72),22	1879,(12, 45),16	1895,(19, 45),18	1913,(17, 45),18	1931,(1, 45),2	1947,(6, 114),12	1959,(20, 114),2	2007,(17, 114),24	2031,(1, 114),16	2047,(14, 114),6	
# Outgoing
1,(0, 4),24	25,(0, 9),24	49,(0, 18),24	73,(0, 16),24	97,(0, 15),24	121,(0, 5),24	145,(0, 8),24	169,(0, 7),24	193,(12, 186),2	195,(0, 10),24	219,(19, 170),4	223,(19, 123),6	229,(12, 86),2	231,(6, 27),8	239,(12, 27),4	243,(19, 27),2	245,(20, 27),2	247,(1, 88),4	251,(1, 191),8	259,(0, 13),24	283,(12, 179),2	285,(17, 179),16	301,(19, 40),4	305,(17, 40),2	307,(1, 40),2	309,(19, 163),12	321,(20, 163),2	323,(17, 110),4	327,(1, 110),6	333,(1, 44),2	335,(12, 172),6	341,(19, 181),2	343,(14, 43),2	345,(14, 44),2	347,(17, 172),8	355,(20, 181),2	357,(14, 167),2	359,(0, 11),24	383,(6, 116),2	385,(19, 116),6	391,(17, 116),4	395,(1, 116),14	409,(12, 28),6	415,(19, 28),2	417,(1, 28),2	419,(6, 91),2	421,(14, 91),2	423,(3, 49),2	425,(12, 111),2	427,(12, 38),6	433,(20, 38),2	435,(6, 157),2	437,(1, 157),6	443,(17, 80),2	445,(17, 187),2	447,(3, 187),4	451,(12, 48),2	453,(19, 48),2	455,(20, 48),2	457,(2, 111),2	459,(2, 38),2	461,(2, 80),2	463,(14, 146),8	471,(2, 146),2	473,(14, 48),2	475,(1, 128),2	477,(2, 128),4	481,(12, 35),4	485,(20, 35),8	493,(2, 35),2	495,(17, 41),8	503,(1, 41),6	509,(14, 41),2	511,(6, 30),6	517,(3, 30),8	525,(1, 149),4	529,(14, 24),4	533,(19, 55),2	535,(17, 55),2	537,(12, 150),6	543,(3, 150),20	563,(6, 155),8	571,(20, 155),2	573,(17, 155),8	581,(3, 155),2	583,(2, 155),2	585,(20, 79),12	597,(17, 79),2	599,(14, 162),16	615,(14, 135),2	617,(19, 39),6	623,(6, 34),14	637,(2, 125),4	641,(12, 137),4	645,(17, 141),28	673,(20, 65),2	675,(3, 65),12	687,(20, 198),2	689,(6, 105),4	693,(20, 105),4	697,(14, 105),2	699,(3, 105),2	701,(2, 105),2	703,(19, 165),10	713,(20, 66),2	715,(1, 66),4	719,(19, 81),8	727,(20, 81),2	729,(1, 199),2	731,(14, 199),4	735,(19, 85),16	751,(17, 85),2	753,(3, 52),8	761,(2, 52),4	765,(6, 53),2	767,(19, 53),12	779,(14, 53),2	781,(3, 53),2	783,(20, 92),4	787,(14, 92),4	791,(17, 124),2	793,(1, 124),2	795,(3, 124),18	813,(2, 124),2	815,(19, 62),2	817,(20, 129),6	823,(14, 129),18	841,(19, 61),2	843,(20, 61),18	861,(6, 134),4	865,(14, 134),6	871,(17, 147),22	893,(14, 147),2	895,(2, 147),2	897,(20, 63),10	907,(14, 63),12	919,(6, 73),6	925,(14, 73),22	947,(2, 73),2	949,(19, 21),18	967,(20, 21),2	969,(14, 21),10	979,(14, 175),24	1003,(6, 156),2	1005,(19, 156),24	1029,(14, 156),4	1033,(1, 98),26	1059,(14, 83),32	1091,(19, 138),6	1097,(14, 138),2	1099,(3, 138),2	1101,(2, 138),22	1123,(19, 96),2	1125,(20, 96),20	1145,(17, 96),2	1147,(14, 96),8	1155,(19, 194),2	1157,(3, 194),12	1169,(6, 148),10	1179,(17, 148),20	1199,(1, 148),2	1201,(3, 148),2	1203,(6, 26),8	1211,(1, 26),26	1237,(2, 26),2	1239,(19, 120),28	1267,(3, 120),6	1273,(2, 120),2	1275,(6, 152),24	1299,(20, 152),4	1303,(14, 152),2	1305,(6, 94),8	1313,(20, 94),10	1323,(12, 47),28	1351,(20, 47),2	1353,(2, 47),6	1359,(20, 197),36	1395,(17, 46),10	1405,(14, 46),2	1407,(3, 46),26	1433,(20, 185),12	1445,(17, 185),26	1471,(14, 185),2	1473,(12, 84),8	1481,(17, 84),16	1497,(14, 84),14	1511,(2, 84),2	1513,(19, 196),12	1525,(1, 196),30	1555,(6, 106),38	1593,(12, 106),6	1599,(20, 174),44	1643,(12, 139),2	1645,(19, 139),42	1687,(14, 193),44	1731,(6, 72),18	1749,(12, 72),4	1753,(20, 72),2	1755,(1, 72),22	1777,(19, 71),10	1787,(20, 71),6	1793,(17, 71),8	1801,(1, 71),26	1827,(19, 159),4	1831,(17, 159),4	1835,(14, 159),42	1877,(2, 159),2	1879,(12, 45),16	1895,(19, 45),18	1913,(17, 45),18	1931,(1, 45),2	1933,(2, 33),14	1947,(6, 114),12	1959,(20, 114),2	1961,(17, 190),6	1967,(6, 33),40	2007,(17, 114),24	2031,(1, 114),16	2047,(14, 114),6	2053,(20, 169),2	2055,(3, 169),54	2109,(12, 89),16	2125,(20, 89),40	2165,(6, 161),2	2167,(20, 161),2	2169,(17, 161),54	2223,(20, 113),6	2229,(1, 113),54	2283,(6, 54),40	2323,(12, 54),2	2325,(2, 54),20	2345,(20, 104),2	2347,(17, 104),8	2355,(1, 104),14	2369,(2, 104),40	2409,(20, 118),2	2411,(3, 118),52	2463,(2, 118),16	2479,(6, 87),2	2481,(20, 87),6	2487,(17, 87),30	2517,(3, 87),36	2553,(12, 22),2	2555,(19, 22),10	2565,(17, 22),2	2567,(1, 22),68	2635,(6, 58),28	2663,(14, 58),68	2731,(12, 164),38	2769,(20, 164),22	2791,(1, 164),38	2829,(14, 132),2	2831,(3, 132),96	2927,(2, 132),18	2945,(17, 154),56	3001,(1, 154),86	
135,(16, 50),2	137,(16, 168),2	139,(16, 88),6	145,(9, 40),26	171,(9, 163),10	181,(16, 157),2	183,(5, 166),4	187,(16, 163),4	191,(5, 167),6	197,(16, 91),4	201,(5, 146),2	203,(9, 41),6	209,(16, 41),2	211,(16, 48),2	213,(16, 188),2	215,(16, 162),2	217,(5, 162),2	219,(5, 86),10	229,(5, 103),2	231,(7, 50),24	255,(7, 86),2	257,(5, 172),2	259,(9, 30),8	267,(9, 171),2	269,(68, 201),2	271,(16, 135),4	275,(16, 37),4	279,(7, 91),16	295,(9, 80),6	301,(7, 199),2	303,(9, 128),2	305,(9, 149),2	307,(27, 201),2	309,(7, 128),8	317,(16, 149),6	323,(9, 55),8	331,(7, 147),2	333,(7, 155),2	335,(9, 200),2	337,(5, 200),2	339,(7, 137),4	343,(7, 141),2	345,(179, 201),2	347,(16, 55),10	357,(16, 39),20	377,(16, 85),2	379,(5, 129),2	381,(5, 134),2	383,(74, 201),2	385,(7, 135),16	401,(5, 125),8	409,(7, 134),10	419,(9, 143),2	421,(181, 201),2	423,(5, 165),14	437,(5, 143),2	439,(5, 122),2	441,(5, 99),2	443,(16, 81),12	455,(16, 90),2	457,(9, 109),2	459,(28, 201),2	461,(9, 96),2	463,(9, 85),12	475,(5, 105),20	495,(9, 180),2	497,(111, 201),2	499,(16, 176),2	501,(5, 106),2	503,(7, 158),6	509,(16, 194),2	511,(9, 125),22	533,(9, 46),2	535,(187, 201),2	537,(5, 52),22	559,(7, 176),2	563,(16, 21),10	573,(35, 201),2	575,(5, 199),16	591,(7, 156),18	609,(9, 84),2	611,(24, 201),2	613,(16, 136),2	615,(5, 92),16	631,(9, 122),6	637,(7, 174),2	639,(5, 145),10	649,(79, 201),2	651,(5, 194),4	663,(16, 200),12	677,(16, 180),4	681,(5, 97),4	685,(7, 160),2	687,(34, 201),2	689,(7, 184),2	693,(9, 136),6	699,(16, 173),2	701,(9, 144),2	703,(9, 197),6	709,(16, 96),2	711,(16, 152),14	725,(65, 201),2	727,(16, 139),2	729,(16, 47),2	731,(9, 115),4	735,(5, 156),28	763,(66, 201),2	765,(9, 129),18	783,(16, 46),4	787,(5, 139),2	789,(5, 115),2	793,(16, 160),12	805,(9, 159),10	815,(7, 185),6	821,(53, 201),2	831,(9, 134),26	857,(7, 101),2	859,(62, 201),2	861,(9, 32),16	877,(5, 112),2	897,(9, 51),2	899,(61, 201),2	901,(7, 197),44	945,(5, 160),6	951,(16, 178),6	957,(63, 201),2	959,(9, 107),18	977,(16, 126),8	985,(16, 69),2	989,(5, 144),8	997,(67, 201),2	999,(9, 82),16	1015,(5, 69),2	1019,(5, 184),16	1035,(16, 78),2	1037,(9, 77),2	1039,(5, 195),2	1041,(175, 201),2	1043,(9, 72),18	1067,(7, 117),2	1073,(7, 140),22	1097,(98, 201),2	1099,(7, 173),20	1145,(5, 101),12	1161,(138, 201),2	1163,(16, 159),74	1241,(148, 201),2	1243,(7, 190),10	1253,(9, 22),20	1305,(7, 132),10	1315,(9, 131),14	1329,(7, 112),10	1367,(7, 64),6	1373,(94, 201),2	1375,(5, 102),16	1399,(16, 57),34	1473,(9, 112),18	1491,(16, 142),18	1555,(5, 58),38	1595,(5, 177),42	1639,(9, 119),26	1727,(16, 51),42	1769,(193, 201),2	1827,(9, 190),134	1973,(7, 42),28	2007,(5, 77),18	2045,(33, 201),2	2047,(9, 78),42	2147,(169, 201),2	2203,(89, 201),2	2205,(16, 195),56	2261,(161, 201),2	2263,(5, 22),66	2329,(5, 100),32	2383,(54, 201),2	2385,(9, 69),62	2447,(104, 201),2	2449,(9, 117),68	2517,(118, 201),2	2883,(9, 151),78	2961,(5, 151),44	3215,(154, 201),2	
257,(186, 201),2	259,(8, 40),16	275,(8, 43),4	279,(18, 189),2	281,(18, 127),2	283,(123, 201),2	285,(18, 172),2	287,(8, 116),2	289,(18, 155),6	295,(8, 52),2	297,(18, 121),2	299,(18, 143),2	301,(18, 82),2	303,(18, 28),10	313,(8, 55),4	317,(8, 79),4	321,(191, 201),2	323,(8, 126),2	325,(18, 62),2	327,(8, 175),2	329,(18, 98),2	331,(18, 81),4	335,(18, 31),6	341,(8, 165),2	343,(18, 184),2	345,(18, 113),2	347,(8, 184),2	351,(18, 69),2	353,(8, 169),2	355,(18, 87),2	361,(163, 201),2	363,(18, 198),14	377,(18, 200),4	383,(8, 134),6	389,(8, 90),6	395,(8, 177),4	399,(44, 201),2	411,(8, 109),6	417,(8, 85),6	423,(8, 182),2	427,(8, 53),10	437,(11, 29),2	439,(11, 111),2	441,(11, 41),2	443,(11, 98),2	445,(11, 149),10	455,(11, 198),4	459,(11, 24),10	469,(11, 99),2	471,(11, 176),2	473,(11, 136),2	475,(49, 201),2	477,(11, 162),10	487,(11, 39),14	501,(11, 34),8	509,(11, 82),2	511,(11, 140),2	513,(157, 201),2	515,(8, 66),14	529,(8, 129),12	541,(11, 133),8	549,(11, 173),2	551,(48, 201),2	553,(11, 90),6	559,(11, 73),4	563,(11, 153),2	565,(11, 77),2	567,(18, 148),10	577,(8, 148),8	585,(11, 117),2	587,(18, 151),2	589,(30, 201),2	591,(11, 52),6	599,(11, 62),20	619,(8, 176),8	627,(150, 201),2	631,(18, 26),6	637,(11, 106),4	641,(11, 89),2	655,(18, 180),10	665,(135, 201),2	667,(8, 115),8	675,(18, 134),12	703,(137, 201),2	705,(18, 60),6	711,(11, 72),4	715,(11, 159),20	735,(18, 114),6	741,(105, 201),2	743,(18, 182),4	747,(18, 64),4	753,(18, 115),10	769,(11, 192),10	779,(199, 201),2	823,(8, 59),18	853,(124, 201),2	871,(11, 47),36	921,(11, 56),14	935,(147, 201),2	949,(18, 72),24	1017,(21, 201),2	1071,(156, 201),2	1119,(8, 60),10	1129,(83, 201),2	1207,(194, 201),2	1209,(11, 142),22	1343,(152, 201),2	1345,(11, 193),48	1433,(197, 201),2	1471,(46, 201),2	1511,(185, 201),2	1535,(18, 177),16	1551,(84, 201),2	1573,(18, 42),14	1593,(196, 201),2	1665,(18, 77),14	1681,(174, 201),2	1683,(11, 119),38	1725,(139, 201),2	1817,(8, 153),46	1865,(71, 201),2	1899,(8, 117),16	1947,(8, 195),20	2005,(190, 201),2	2025,(11, 64),16	2593,(11, 36),76	2673,(22, 201),2	2769,(58, 201),2	2881,(164, 201),2	3005,(132, 201),2	
295,(86, 201),2	297,(10, 43),2	299,(10, 146),2	301,(10, 74),2	303,(10, 48),2	305,(10, 95),2	307,(10, 137),2	309,(10, 162),2	311,(10, 114),2	313,(10, 24),2	315,(10, 103),2	317,(10, 171),2	319,(10, 158),2	323,(10, 105),6	329,(10, 83),2	331,(10, 25),2	333,(13, 74),2	335,(13, 44),4	339,(13, 167),2	341,(13, 55),2	343,(13, 181),10	353,(13, 23),2	355,(13, 121),2	357,(10, 130),4	363,(13, 130),2	365,(13, 25),2	367,(13, 136),2	369,(10, 56),2	371,(110, 201),2	373,(13, 65),18	391,(10, 81),8	399,(13, 62),4	403,(13, 147),4	407,(13, 156),2	409,(172, 201),2	411,(13, 105),10	421,(10, 58),2	423,(13, 96),4	433,(10, 184),2	435,(13, 26),6	443,(10, 144),2	445,(10, 101),2	447,(116, 201),2	451,(13, 148),6	457,(13, 137),16	473,(13, 61),8	481,(10, 115),4	485,(29, 201),2	487,(13, 176),6	493,(10, 142),2	495,(13, 124),12	509,(13, 54),6	515,(10, 136),8	523,(80, 201),2	525,(10, 70),10	537,(13, 119),2	561,(128, 201),2	563,(13, 198),26	591,(10, 51),2	593,(13, 195),2	595,(10, 117),2	599,(149, 201),2	601,(10, 42),8	617,(10, 84),12	637,(155, 201),2	641,(10, 92),22	663,(13, 63),10	675,(39, 201),2	689,(13, 200),20	713,(141, 201),2	715,(10, 182),4	719,(10, 118),6	751,(165, 201),2	763,(10, 174),10	791,(85, 201),2	793,(10, 200),38	831,(13, 196),28	879,(129, 201),2	883,(13, 97),14	919,(10, 67),40	959,(10, 193),20	979,(13, 190),18	1131,(13, 144),14	1169,(13, 152),70	1243,(13, 101),14	1279,(13, 178),26	1313,(120, 201),2	1435,(10, 102),34	1513,(13, 112),22	1553,(13, 142),20	1637,(106, 201),2	1687,(10, 164),78	1771,(13, 51),28	1917,(159, 201),2	1919,(13, 42),28	2093,(10, 77),42	2149,(10, 36),36	2321,(113, 201),2	2519,(10, 100),60	2591,(87, 201),2	
197,(168, 201),2	199,(4, 186),2	201,(4, 27),2	203,(4, 44),8	211,(4, 181),4	215,(15, 28),6	221,(4, 157),2	223,(15, 24),2	225,(4, 79),2	227,(4, 23),2	229,(15, 49),8	237,(15, 29),18	255,(166, 201),2	257,(4, 34),2	259,(15, 127),2	261,(15, 65),4	265,(15, 171),2	267,(4, 135),2	269,(15, 135),2	271,(15, 175),2	273,(170, 201),2	275,(4, 163),24	299,(15, 137),2	301,(15, 80),2	303,(4, 144),2	305,(4, 105),2	307,(4, 129),2	309,(15, 115),2	311,(88, 201),2	313,(15, 131),2	315,(15, 169),2	321,(4, 53),4	325,(15, 75),6	333,(4, 102),2	335,(15, 61),6	341,(15, 119),2	343,(4, 152),2	347,(15, 174),2	349,(40, 201),2	351,(4, 21),4	355,(15, 58),2	357,(4, 66),16	373,(4, 99),6	379,(4, 56),4	383,(15, 164),2	385,(4, 100),2	387,(43, 201),2	391,(4, 98),6	401,(4, 31),8	409,(4, 85),8	425,(167, 201),2	427,(4, 109),6	439,(4, 159),4	443,(15, 185),6	449,(15, 112),4	463,(91, 201),2	501,(38, 201),2	503,(15, 120),12	515,(15, 159),8	525,(4, 71),4	539,(146, 201),2	541,(4, 62),26	577,(41, 201),2	585,(15, 165),26	615,(55, 201),2	653,(162, 201),2	655,(4, 199),34	691,(125, 201),2	693,(15, 118),12	729,(198, 201),2	731,(15, 62),30	767,(81, 201),2	783,(15, 89),22	805,(52, 201),2	807,(4, 25),14	843,(92, 201),2	881,(200, 201),2	901,(15, 126),14	919,(134, 201),2	987,(73, 201),2	1033,(4, 139),18	1051,(4, 70),16	1091,(4, 194),56	1163,(15, 192),22	1193,(96, 201),2	1203,(15, 94),56	1259,(4, 131),18	1277,(26, 201),2	1345,(15, 60),22	1397,(47, 201),2	1799,(4, 117),16	1815,(72, 201),2	1867,(15, 78),32	1971,(45, 201),2	2091,(114, 201),2	2263,(15, 100),48	2675,(4, 151),60	2771,(4, 182),110	3007,(15, 64),208	
