2286
# CPU
0,0,1	1,2,1	2,9,1	3,7,1	4,183,1	5,3,1	6,187,1	7,8,1	8,96,1	9,138,1	10,102,1	11,35,1	12,12,1	13,195,1	14,124,1	15,17,1	16,108,1	17,87,1	18,5,1	19,185,1	20,200,1	21,188,1	22,53,1	23,194,1	24,46,1	25,20,1	26,118,1	27,25,1	28,176,1	29,117,1	30,181,1	31,141,1	32,16,1	33,163,1	34,164,1	35,184,1	36,6,1	37,94,1	38,85,1	39,60,1	40,14,1	41,91,1	42,70,1	43,100,1	44,149,1	45,15,1	46,111,1	47,39,1	48,80,1	49,169,1	50,109,1	51,4,1	52,56,1	53,120,1	54,192,1	55,62,1	56,131,1	57,112,1	58,199,1	59,105,1	60,146,1	61,99,1	62,86,1	63,61,1	64,72,1	65,115,1	66,1,1	67,116,1	68,136,1	69,71,1	70,82,1	71,132,1	72,37,1	73,110,1	74,74,1	75,27,1	76,92,1	77,147,1	78,68,1	79,154,1	80,84,1	81,49,1	82,67,1	83,11,1	84,189,1	85,29,1	86,129,1	87,101,1	88,167,1	89,103,1	90,98,1	91,63,1	92,59,1	93,81,1	94,23,1	95,33,1	96,155,1	97,104,1	98,140,1	99,83,1	100,52,1	101,42,1	102,28,1	103,157,1	104,122,1	105,32,1	106,44,1	107,19,1	108,47,1	109,93,1	110,97,1	111,40,1	112,166,1	113,177,1	114,26,1	115,76,1	116,43,1	117,162,1	118,54,1	119,153,1	120,65,1	121,45,1	122,178,1	123,13,1	124,107,1	125,174,1	126,21,1	127,48,1	128,128,1	129,30,1	130,36,1	131,137,1	132,186,1	133,90,1	134,78,1	135,133,1	136,51,1	137,196,1	138,182,1	139,89,1	140,144,1	141,171,1	142,197,1	143,113,1	144,121,1	145,58,1	146,79,1	147,75,1	148,170,1	149,165,1	150,126,1	151,50,1	152,175,1	153,64,1	154,130,1	155,142,1	156,179,1	157,161,1	158,173,1	159,159,1	160,193,1	161,95,1	166,180,1	175,172,1	187,38,1	199,190,1	214,66,1	232,123,1	250,57,1	271,152,1	298,134,1	334,191,1	376,145,1	427,106,1	484,156,1	541,31,1	610,150,1	685,198,1	769,125,1	853,151,1	943,160,1	1042,24,1	1177,127,1	1318,41,1	1474,22,1	1669,158,1	1936,119,1	2284,77,1	2285,201,1	



19,10,1	37,18,1	38,73,1	39,168,1	43,139,1	49,34,1	55,135,1	61,55,1	70,114,1	85,88,1	91,69,1	111,143,1	126,148,1	
# Incoming
39,(73, 201),3	42,(168, 201),3	45,(139, 201),3	50,(34, 201),3	53,(10, 113),3	56,(135, 201),3	59,(10, 121),3	62,(55, 201),3	65,(10, 58),3	68,(10, 79),3	71,(114, 201),3	74,(10, 75),3	77,(10, 170),3	80,(18, 165),3	83,(10, 126),3	86,(88, 201),3	89,(18, 50),3	92,(69, 201),3	95,(10, 175),3	98,(18, 64),3	101,(10, 130),3	104,(18, 142),6	112,(143, 201),3	115,(18, 179),6	121,(10, 161),6	127,(148, 201),3	130,(10, 173),6	136,(18, 159),6	142,(10, 193),6	148,(18, 95),9	157,(18, 180),9	166,(10, 172),9	175,(10, 38),12	187,(18, 190),12	199,(10, 66),15	214,(10, 123),18	232,(18, 57),18	250,(10, 152),21	271,(18, 134),27	298,(10, 191),36	334,(10, 145),42	376,(10, 106),3	379,(18, 106),48	427,(10, 156),57	484,(10, 31),57	541,(10, 150),69	610,(18, 198),75	685,(18, 125),84	769,(18, 151),84	853,(10, 160),87	940,(18, 160),3	943,(10, 24),99	1042,(10, 127),24	1066,(18, 127),111	1177,(10, 41),141	1318,(18, 22),156	1474,(18, 158),195	1669,(10, 119),264	1933,(18, 119),3	1936,(18, 77),348	



1,(0, 10),18	19,(0, 18),18	37,(5, 139),6	43,(9, 34),3	46,(20, 34),3	49,(17, 135),3	52,(6, 135),3	55,(9, 55),3	58,(12, 55),3	61,(8, 114),9	70,(4, 88),15	85,(8, 69),3	88,(11, 69),3	91,(9, 143),3	94,(6, 143),6	108,(19, 143),3	111,(2, 148),9	120,(19, 148),6	
# Outgoing
1,(0, 10),18	19,(0, 18),18	37,(5, 139),6	43,(9, 34),3	46,(20, 34),3	49,(17, 135),3	52,(6, 135),3	55,(9, 55),3	58,(12, 55),3	61,(8, 114),9	70,(4, 88),15	85,(8, 69),3	88,(11, 69),3	91,(9, 143),3	94,(6, 143),6	108,(19, 143),3	111,(2, 148),9	120,(19, 148),6	



39,(73, 201),3	42,(168, 201),3	45,(139, 201),3	50,(34, 201),3	53,(10, 113),3	56,(135, 201),3	59,(10, 121),3	62,(55, 201),3	65,(10, 58),3	68,(10, 79),3	71,(114, 201),3	74,(10, 75),3	77,(10, 170),3	80,(18, 165),3	83,(10, 126),3	86,(88, 201),3	89,(18, 50),3	92,(69, 201),3	95,(10, 175),3	98,(18, 64),3	101,(10, 130),3	104,(18, 142),6	112,(143, 201),3	115,(18, 179),6	121,(10, 161),6	127,(148, 201),3	130,(10, 173),6	136,(18, 159),6	142,(10, 193),6	148,(18, 95),9	157,(18, 180),9	166,(10, 172),9	175,(10, 38),12	187,(18, 190),12	199,(10, 66),15	214,(10, 123),18	232,(18, 57),18	250,(10, 152),21	271,(18, 134),27	298,(10, 191),36	334,(10, 145),42	376,(10, 106),3	379,(18, 106),48	427,(10, 156),57	484,(10, 31),57	541,(10, 150),69	610,(18, 198),75	685,(18, 125),84	769,(18, 151),84	853,(10, 160),87	940,(18, 160),3	943,(10, 24),99	1042,(10, 127),24	1066,(18, 127),111	1177,(10, 41),141	1318,(18, 22),156	1474,(18, 158),195	1669,(10, 119),264	1933,(18, 119),3	1936,(18, 77),348	
