1678
# CPU
45,3,21	66,8,21	87,36,21	108,21,21	129,30,21	150,9,21	171,24,21	192,27,21	1237,15,21	1258,18,21	1279,33,21	1300,39,21	1321,12,21	
23,2,21	44,6,21	65,20,21	86,26,21	107,17,21	1211,7,21	1247,32,21	1268,11,21	1323,23,21	1351,35,21	1427,38,21	1473,14,21	1549,29,21	
0,0,1	1,4,21	22,1,21	43,13,21	64,31,21	85,10,21	106,22,21	127,25,21	148,19,21	169,5,21	196,28,21	217,34,21	298,37,21	752,16,21	872,40,21	1677,41,1	
# Incoming
23,(0, 3),22	62,(2, 9),16	78,(2, 15),12	90,(2, 24),4	94,(2, 27),54	1211,(4, 12),24	1235,(4, 15),2	1237,(4, 18),2	1239,(4, 33),10	1249,(4, 39),4	1263,(1, 12),36	
1,(0, 2),22	45,(4, 7),1166	1211,(3, 32),36	1247,(3, 38),2	1253,(1, 11),10	1299,(1, 23),24	1323,(1, 35),28	1351,(1, 38),76	1427,(3, 14),46	1473,(3, 29),76	
44,(2, 5),18	66,(3, 5),2	87,(8, 41),32	148,(2, 28),48	196,(2, 34),12	208,(2, 37),90	298,(2, 40),2	300,(6, 41),32	332,(3, 16),420	752,(3, 40),120	872,(20, 41),32	904,(26, 41),32	936,(36, 41),32	968,(17, 41),32	1000,(21, 41),32	1032,(30, 41),32	1064,(9, 41),32	1096,(24, 41),32	1128,(27, 41),32	1232,(7, 41),32	1264,(15, 41),32	1296,(32, 41),32	1328,(18, 41),32	1360,(11, 41),32	1392,(33, 41),32	1424,(23, 41),32	1456,(35, 41),32	1488,(38, 41),32	1549,(39, 41),32	1581,(12, 41),32	1613,(14, 41),32	1645,(29, 41),32	
# Outgoing
66,(3, 5),2	87,(8, 41),32	332,(3, 16),420	752,(3, 40),120	936,(36, 41),32	1000,(21, 41),32	1032,(30, 41),32	1064,(9, 41),32	1096,(24, 41),32	1128,(27, 41),32	1211,(3, 32),36	1247,(3, 38),2	1264,(15, 41),32	1328,(18, 41),32	1392,(33, 41),32	1427,(3, 14),46	1473,(3, 29),76	1549,(39, 41),32	1581,(12, 41),32	
44,(2, 5),18	62,(2, 9),16	78,(2, 15),12	90,(2, 24),4	94,(2, 27),54	148,(2, 28),48	196,(2, 34),12	208,(2, 37),90	298,(2, 40),2	300,(6, 41),32	872,(20, 41),32	904,(26, 41),32	968,(17, 41),32	1232,(7, 41),32	1296,(32, 41),32	1360,(11, 41),32	1424,(23, 41),32	1456,(35, 41),32	1488,(38, 41),32	1613,(14, 41),32	1645,(29, 41),32	
1,(0, 2),22	23,(0, 3),22	45,(4, 7),1166	1211,(4, 12),24	1235,(4, 15),2	1237,(4, 18),2	1239,(4, 33),10	1249,(4, 39),4	1253,(1, 11),10	1263,(1, 12),36	1299,(1, 23),24	1323,(1, 35),28	1351,(1, 38),76	
