42
# CPU
0,41,1	1,28,1	2,26,1	3,21,1	4,39,1	5,35,1	6,31,1	7,40,1	8,34,1	9,9,1	10,20,1	11,33,1	12,30,1	13,29,1	14,36,1	15,14,1	16,19,1	17,37,1	18,32,1	19,24,1	20,12,1	21,11,1	22,6,1	23,23,1	24,38,1	25,8,1	26,25,1	27,7,1	28,17,1	29,15,1	30,13,1	31,22,1	32,10,1	33,27,1	34,18,1	35,3,1	36,16,1	37,4,1	38,5,1	39,2,1	40,1,1	41,0,1	

# Incoming


# Outgoing


