2145
# CPU
25,5,21	49,10,21	99,20,21	183,55,21	223,65,21	244,100,21	351,60,21	372,85,21	436,25,21	491,40,21	523,50,21	549,75,21	570,90,21	829,17,21	850,45,21	871,70,21	910,110,21	931,115,21	952,120,21	973,95,21	994,30,21	1015,35,21	1036,80,21	1057,105,21	
19,4,21	43,9,21	366,15,21	484,34,21	505,39,21	526,64,21	547,109,21	568,69,21	592,59,21	613,74,21	683,119,21	773,19,21	839,79,21	860,54,21	881,84,21	902,94,21	923,99,21	944,104,21	965,24,21	986,29,21	1007,44,21	1028,49,21	1049,89,21	1070,114,21	
13,3,21	37,8,21	281,88,21	361,38,21	492,23,21	513,48,21	550,33,21	639,93,21	660,78,21	681,63,21	702,113,21	723,108,21	744,83,21	828,28,21	924,14,21	945,18,21	966,43,21	987,53,21	1008,58,21	1029,68,21	1050,73,21	1071,98,21	1092,103,21	1113,118,21	
7,2,21	28,62,21	49,7,21	70,12,21	91,32,21	112,16,21	133,87,21	449,27,21	504,67,21	525,37,21	546,82,21	567,57,21	588,77,21	644,102,21	741,97,21	777,107,21	864,72,21	919,112,21	1322,22,21	1343,42,21	1364,47,21	1385,52,21	1406,92,21	1738,117,21	
0,0,1	1,1,21	22,11,21	43,6,21	214,21,21	242,46,21	272,26,21	306,111,21	391,86,21	412,41,21	433,51,21	454,76,21	475,106,21	496,101,21	519,91,21	540,13,21	561,61,21	582,71,21	664,96,21	685,36,21	706,66,21	727,116,21	875,31,21	918,81,21	1028,56,21	2144,121,1	
# Incoming
19,(0, 5),6	43,(0, 10),6	58,(4, 95),2	60,(4, 115),1	62,(2, 40),13	75,(1, 20),1	76,(2, 25),17	93,(9, 20),6	99,(2, 50),30	129,(2, 55),10	139,(3, 40),22	161,(3, 50),6	167,(3, 55),1	168,(3, 90),1	169,(3, 115),1	170,(3, 120),2	172,(4, 55),11	183,(8, 17),6	189,(8, 40),2	191,(8, 50),28	219,(9, 65),4	223,(9, 100),2	225,(9, 105),1	226,(9, 110),6	232,(9, 120),1	235,(8, 115),1	242,(8, 120),8	275,(9, 115),5	289,(2, 95),1	330,(7, 30),4	334,(7, 70),9	343,(12, 50),7	350,(12, 60),1	351,(12, 80),2	353,(12, 85),2	355,(12, 90),4	413,(12, 25),23	449,(1, 30),4	489,(1, 40),2	491,(1, 45),11	511,(1, 50),12	540,(1, 75),9	562,(1, 90),1	563,(8, 70),39	602,(12, 70),37	639,(1, 95),1	655,(1, 110),3	683,(1, 120),12	695,(7, 17),134	829,(11, 35),1	831,(11, 45),6	850,(11, 70),13	863,(7, 110),47	919,(11, 115),2	922,(11, 120),1	923,(12, 95),17	942,(6, 30),1	943,(6, 35),2	974,(6, 80),13	996,(6, 105),1	
13,(0, 4),6	37,(0, 9),6	50,(2, 19),11	61,(3, 34),1	90,(1, 24),1	103,(3, 44),1	104,(3, 59),3	107,(3, 79),2	122,(3, 109),1	123,(8, 49),1	124,(8, 74),2	126,(8, 89),1	127,(8, 104),1	130,(5, 19),7	137,(5, 24),2	139,(5, 49),1	140,(5, 54),1	141,(5, 109),4	145,(10, 19),1	146,(10, 24),1	147,(10, 39),1	155,(2, 59),4	172,(8, 114),4	179,(5, 64),10	189,(10, 54),1	190,(10, 119),13	219,(8, 59),16	239,(2, 74),9	253,(2, 79),24	281,(2, 94),8	290,(2, 99),4	294,(2, 104),1	306,(2, 119),24	330,(5, 44),34	364,(7, 15),2	366,(7, 24),3	369,(7, 29),5	374,(7, 79),1	375,(8, 69),67	453,(1, 34),31	484,(1, 39),5	489,(7, 64),9	498,(7, 84),4	502,(7, 89),5	510,(1, 49),1	519,(7, 94),1	520,(7, 109),4	524,(1, 59),4	528,(1, 69),7	535,(8, 79),18	555,(1, 79),6	561,(1, 89),1	562,(7, 99),17	579,(7, 114),12	591,(12, 59),1	592,(12, 74),4	596,(12, 84),2	598,(12, 114),4	640,(1, 99),1	658,(1, 119),25	706,(11, 19),67	773,(11, 24),3	828,(11, 29),1	829,(12, 79),10	847,(11, 54),3	864,(11, 84),3	876,(11, 94),8	884,(11, 99),17	901,(10, 104),19	925,(6, 24),2	927,(6, 29),15	945,(6, 44),13	958,(6, 49),1	987,(6, 89),9	997,(6, 114),2	
7,(0, 3),6	31,(0, 8),6	38,(2, 14),12	50,(4, 14),1	51,(4, 38),2	53,(4, 43),1	54,(4, 53),1	55,(4, 83),3	61,(1, 18),14	75,(2, 23),1	76,(4, 33),16	92,(9, 88),1	93,(2, 33),4	97,(2, 38),2	99,(9, 98),1	104,(4, 28),39	143,(2, 58),12	155,(5, 18),12	167,(5, 23),6	173,(5, 63),6	184,(2, 73),55	239,(4, 58),36	275,(5, 93),1	276,(10, 113),1	277,(2, 88),4	281,(4, 73),36	317,(4, 78),43	360,(7, 38),1	361,(7, 78),2	363,(7, 118),1	364,(5, 73),8	372,(5, 83),17	389,(5, 118),24	413,(9, 23),79	492,(9, 48),9	502,(1, 48),8	510,(9, 63),18	528,(9, 68),17	545,(10, 33),5	550,(7, 93),3	553,(12, 58),9	563,(1, 93),76	639,(10, 78),10	649,(12, 63),1	650,(12, 113),1	651,(1, 108),4	655,(12, 83),9	664,(9, 103),8	672,(7, 103),11	683,(12, 68),11	695,(11, 18),11	776,(11, 28),52	828,(9, 118),75	923,(6, 14),1	924,(6, 18),1	925,(10, 43),31	959,(6, 53),1	960,(6, 58),2	962,(6, 68),8	970,(6, 73),4	974,(12, 98),46	1020,(12, 103),7	1027,(12, 118),14	
1,(0, 2),6	25,(0, 7),6	48,(3, 16),1	49,(0, 12),6	55,(1, 16),6	61,(4, 22),3	64,(4, 27),1	65,(4, 32),1	66,(4, 37),2	68,(4, 72),1	69,(9, 16),2	71,(9, 22),1	72,(9, 97),3	76,(1, 22),14	91,(1, 27),358	449,(3, 37),7	456,(3, 92),12	468,(3, 102),11	479,(5, 47),5	484,(5, 72),6	490,(5, 92),1	491,(5, 117),9	500,(8, 37),1	501,(8, 67),3	504,(8, 72),1	505,(8, 77),3	508,(9, 112),2	510,(10, 37),4	514,(10, 82),5	519,(10, 102),4	523,(1, 57),1	535,(1, 72),5	549,(1, 77),6	555,(5, 107),82	641,(1, 102),3	644,(1, 107),7	651,(5, 97),90	741,(8, 107),36	830,(11, 42),1	837,(11, 47),5	842,(11, 52),5	863,(11, 72),1	867,(11, 92),9	901,(11, 112),18	921,(11, 117),1	922,(8, 117),114	1036,(9, 117),281	1317,(6, 22),5	1322,(6, 42),1	1323,(6, 47),1	1324,(6, 52),1	1325,(6, 92),8	1333,(10, 117),405	
28,(2, 13),10	38,(3, 13),10	49,(3, 26),11	60,(3, 46),1	61,(2, 31),1	62,(3, 21),24	86,(3, 41),17	103,(4, 21),1	109,(3, 86),1	110,(3, 91),1	111,(3, 101),1	112,(3, 106),10	122,(5, 13),8	130,(8, 13),6	136,(8, 41),2	139,(2, 56),4	143,(4, 46),1	144,(4, 96),2	146,(4, 116),2	148,(5, 26),3	151,(5, 51),1	152,(5, 106),1	153,(5, 111),2	155,(9, 13),1	156,(9, 31),2	158,(9, 66),1	159,(2, 71),25	184,(4, 76),19	203,(5, 21),11	214,(5, 81),18	232,(5, 91),4	236,(8, 46),6	242,(10, 71),5	247,(10, 81),1	248,(2, 76),5	253,(8, 26),19	272,(8, 56),9	281,(8, 81),14	295,(2, 111),11	306,(3, 31),69	375,(62, 121),14	389,(9, 76),1	390,(9, 86),1	391,(9, 101),8	399,(9, 116),1	400,(7, 31),7	407,(7, 41),1	408,(7, 51),1	409,(7, 56),1	410,(7, 66),2	412,(7, 96),1	413,(10, 51),13	426,(10, 76),9	435,(10, 106),1	436,(7, 13),42	478,(7, 71),2	480,(7, 81),2	482,(7, 101),4	486,(7, 116),3	507,(7, 91),12	524,(12, 13),1	525,(12, 31),17	542,(12, 61),2	544,(12, 71),1	545,(9, 81),54	599,(9, 96),65	664,(12, 36),5	669,(12, 66),3	672,(88, 121),14	694,(12, 116),1	695,(38, 121),14	709,(15, 121),14	723,(34, 121),14	741,(10, 31),134	875,(20, 121),14	889,(23, 121),14	910,(12, 81),8	918,(39, 121),14	940,(32, 121),14	956,(10, 56),72	1041,(16, 121),14	1055,(87, 121),14	1069,(55, 121),14	1083,(65, 121),14	1097,(100, 121),14	1111,(60, 121),14	1125,(85, 121),14	1139,(25, 121),14	1153,(27, 121),14	1167,(40, 121),14	1181,(67, 121),14	1195,(48, 121),14	1209,(50, 121),14	1223,(37, 121),14	1237,(82, 121),14	1251,(75, 121),14	1265,(33, 121),14	1279,(57, 121),14	1293,(90, 121),14	1317,(64, 121),14	1331,(109, 121),14	1345,(69, 121),14	1359,(77, 121),14	1373,(59, 121),14	1387,(74, 121),14	1401,(93, 121),14	1415,(102, 121),14	1429,(78, 121),14	1443,(63, 121),14	1457,(119, 121),14	1471,(113, 121),14	1485,(108, 121),14	1499,(97, 121),14	1513,(83, 121),14	1527,(19, 121),14	1541,(107, 121),14	1555,(28, 121),14	1569,(79, 121),14	1583,(54, 121),14	1597,(72, 121),14	1611,(84, 121),14	1625,(94, 121),14	1639,(112, 121),14	1653,(99, 121),14	1667,(14, 121),14	1681,(104, 121),14	1695,(18, 121),14	1709,(24, 121),14	1723,(43, 121),14	1738,(17, 121),14	1752,(45, 121),14	1766,(70, 121),14	1780,(110, 121),14	1794,(115, 121),14	1808,(120, 121),14	1822,(95, 121),14	1836,(29, 121),14	1850,(53, 121),14	1864,(30, 121),14	1878,(44, 121),14	1892,(58, 121),14	1906,(35, 121),14	1920,(49, 121),14	1934,(68, 121),14	1948,(80, 121),14	1962,(89, 121),14	1976,(73, 121),14	1990,(105, 121),14	2004,(114, 121),14	2018,(98, 121),14	2032,(103, 121),14	2046,(118, 121),14	2060,(22, 121),14	2074,(42, 121),14	2088,(47, 121),14	2102,(52, 121),14	2116,(92, 121),14	2130,(117, 121),14	
# Outgoing
122,(5, 13),8	130,(5, 19),7	137,(5, 24),2	139,(5, 49),1	140,(5, 54),1	141,(5, 109),4	145,(10, 19),1	146,(10, 24),1	147,(10, 39),1	148,(5, 26),3	151,(5, 51),1	152,(5, 106),1	153,(5, 111),2	155,(5, 18),12	167,(5, 23),6	173,(5, 63),6	179,(5, 64),10	189,(10, 54),1	190,(10, 119),13	203,(5, 21),11	214,(5, 81),18	232,(5, 91),4	242,(10, 71),5	247,(10, 81),1	275,(5, 93),1	276,(10, 113),1	330,(5, 44),34	364,(5, 73),8	372,(5, 83),17	389,(5, 118),24	413,(10, 51),13	426,(10, 76),9	435,(10, 106),1	479,(5, 47),5	484,(5, 72),6	490,(5, 92),1	491,(5, 117),9	510,(10, 37),4	514,(10, 82),5	519,(10, 102),4	545,(10, 33),5	555,(5, 107),82	639,(10, 78),10	651,(5, 97),90	741,(10, 31),134	875,(20, 121),14	901,(10, 104),19	925,(10, 43),31	956,(10, 56),72	1069,(55, 121),14	1083,(65, 121),14	1097,(100, 121),14	1111,(60, 121),14	1125,(85, 121),14	1139,(25, 121),14	1167,(40, 121),14	1209,(50, 121),14	1251,(75, 121),14	1293,(90, 121),14	1333,(10, 117),405	1738,(17, 121),14	1752,(45, 121),14	1766,(70, 121),14	1780,(110, 121),14	1794,(115, 121),14	1808,(120, 121),14	1822,(95, 121),14	1864,(30, 121),14	1906,(35, 121),14	1948,(80, 121),14	1990,(105, 121),14	
50,(4, 14),1	51,(4, 38),2	53,(4, 43),1	54,(4, 53),1	55,(4, 83),3	58,(4, 95),2	60,(4, 115),1	61,(4, 22),3	64,(4, 27),1	65,(4, 32),1	66,(4, 37),2	68,(4, 72),1	69,(9, 16),2	71,(9, 22),1	72,(9, 97),3	76,(4, 33),16	92,(9, 88),1	93,(9, 20),6	99,(9, 98),1	103,(4, 21),1	104,(4, 28),39	143,(4, 46),1	144,(4, 96),2	146,(4, 116),2	155,(9, 13),1	156,(9, 31),2	158,(9, 66),1	172,(4, 55),11	184,(4, 76),19	219,(9, 65),4	223,(9, 100),2	225,(9, 105),1	226,(9, 110),6	232,(9, 120),1	239,(4, 58),36	275,(9, 115),5	281,(4, 73),36	317,(4, 78),43	389,(9, 76),1	390,(9, 86),1	391,(9, 101),8	399,(9, 116),1	413,(9, 23),79	492,(9, 48),9	508,(9, 112),2	510,(9, 63),18	528,(9, 68),17	545,(9, 81),54	599,(9, 96),65	664,(9, 103),8	709,(15, 121),14	723,(34, 121),14	828,(9, 118),75	918,(39, 121),14	1036,(9, 117),281	1317,(64, 121),14	1331,(109, 121),14	1345,(69, 121),14	1373,(59, 121),14	1387,(74, 121),14	1457,(119, 121),14	1527,(19, 121),14	1569,(79, 121),14	1583,(54, 121),14	1611,(84, 121),14	1625,(94, 121),14	1653,(99, 121),14	1681,(104, 121),14	1709,(24, 121),14	1836,(29, 121),14	1878,(44, 121),14	1920,(49, 121),14	1962,(89, 121),14	2004,(114, 121),14	
38,(3, 13),10	48,(3, 16),1	49,(3, 26),11	60,(3, 46),1	61,(3, 34),1	62,(3, 21),24	86,(3, 41),17	103,(3, 44),1	104,(3, 59),3	107,(3, 79),2	109,(3, 86),1	110,(3, 91),1	111,(3, 101),1	112,(3, 106),10	122,(3, 109),1	123,(8, 49),1	124,(8, 74),2	126,(8, 89),1	127,(8, 104),1	130,(8, 13),6	136,(8, 41),2	139,(3, 40),22	161,(3, 50),6	167,(3, 55),1	168,(3, 90),1	169,(3, 115),1	170,(3, 120),2	172,(8, 114),4	183,(8, 17),6	189,(8, 40),2	191,(8, 50),28	219,(8, 59),16	235,(8, 115),1	236,(8, 46),6	242,(8, 120),8	253,(8, 26),19	272,(8, 56),9	281,(8, 81),14	306,(3, 31),69	375,(8, 69),67	449,(3, 37),7	456,(3, 92),12	468,(3, 102),11	500,(8, 37),1	501,(8, 67),3	504,(8, 72),1	505,(8, 77),3	535,(8, 79),18	563,(8, 70),39	672,(88, 121),14	695,(38, 121),14	741,(8, 107),36	889,(23, 121),14	922,(8, 117),114	1195,(48, 121),14	1265,(33, 121),14	1401,(93, 121),14	1429,(78, 121),14	1443,(63, 121),14	1471,(113, 121),14	1485,(108, 121),14	1513,(83, 121),14	1555,(28, 121),14	1667,(14, 121),14	1695,(18, 121),14	1723,(43, 121),14	1850,(53, 121),14	1892,(58, 121),14	1934,(68, 121),14	1976,(73, 121),14	2018,(98, 121),14	2032,(103, 121),14	2046,(118, 121),14	
28,(2, 13),10	38,(2, 14),12	50,(2, 19),11	61,(2, 31),1	62,(2, 40),13	75,(2, 23),1	76,(2, 25),17	93,(2, 33),4	97,(2, 38),2	99,(2, 50),30	129,(2, 55),10	139,(2, 56),4	143,(2, 58),12	155,(2, 59),4	159,(2, 71),25	184,(2, 73),55	239,(2, 74),9	248,(2, 76),5	253,(2, 79),24	277,(2, 88),4	281,(2, 94),8	289,(2, 95),1	290,(2, 99),4	294,(2, 104),1	295,(2, 111),11	306,(2, 119),24	330,(7, 30),4	334,(7, 70),9	343,(12, 50),7	350,(12, 60),1	351,(12, 80),2	353,(12, 85),2	355,(12, 90),4	360,(7, 38),1	361,(7, 78),2	363,(7, 118),1	364,(7, 15),2	366,(7, 24),3	369,(7, 29),5	374,(7, 79),1	375,(62, 121),14	400,(7, 31),7	407,(7, 41),1	408,(7, 51),1	409,(7, 56),1	410,(7, 66),2	412,(7, 96),1	413,(12, 25),23	436,(7, 13),42	478,(7, 71),2	480,(7, 81),2	482,(7, 101),4	486,(7, 116),3	489,(7, 64),9	498,(7, 84),4	502,(7, 89),5	507,(7, 91),12	519,(7, 94),1	520,(7, 109),4	524,(12, 13),1	525,(12, 31),17	542,(12, 61),2	544,(12, 71),1	550,(7, 93),3	553,(12, 58),9	562,(7, 99),17	579,(7, 114),12	591,(12, 59),1	592,(12, 74),4	596,(12, 84),2	598,(12, 114),4	602,(12, 70),37	649,(12, 63),1	650,(12, 113),1	655,(12, 83),9	664,(12, 36),5	669,(12, 66),3	672,(7, 103),11	683,(12, 68),11	694,(12, 116),1	695,(7, 17),134	829,(12, 79),10	863,(7, 110),47	910,(12, 81),8	923,(12, 95),17	940,(32, 121),14	974,(12, 98),46	1020,(12, 103),7	1027,(12, 118),14	1041,(16, 121),14	1055,(87, 121),14	1153,(27, 121),14	1181,(67, 121),14	1223,(37, 121),14	1237,(82, 121),14	1279,(57, 121),14	1359,(77, 121),14	1415,(102, 121),14	1499,(97, 121),14	1541,(107, 121),14	1597,(72, 121),14	1639,(112, 121),14	2060,(22, 121),14	2074,(42, 121),14	2088,(47, 121),14	2102,(52, 121),14	2116,(92, 121),14	2130,(117, 121),14	
1,(0, 2),6	7,(0, 3),6	13,(0, 4),6	19,(0, 5),6	25,(0, 7),6	31,(0, 8),6	37,(0, 9),6	43,(0, 10),6	49,(0, 12),6	55,(1, 16),6	61,(1, 18),14	75,(1, 20),1	76,(1, 22),14	90,(1, 24),1	91,(1, 27),358	449,(1, 30),4	453,(1, 34),31	484,(1, 39),5	489,(1, 40),2	491,(1, 45),11	502,(1, 48),8	510,(1, 49),1	511,(1, 50),12	523,(1, 57),1	524,(1, 59),4	528,(1, 69),7	535,(1, 72),5	540,(1, 75),9	549,(1, 77),6	555,(1, 79),6	561,(1, 89),1	562,(1, 90),1	563,(1, 93),76	639,(1, 95),1	640,(1, 99),1	641,(1, 102),3	644,(1, 107),7	651,(1, 108),4	655,(1, 110),3	658,(1, 119),25	683,(1, 120),12	695,(11, 18),11	706,(11, 19),67	773,(11, 24),3	776,(11, 28),52	828,(11, 29),1	829,(11, 35),1	830,(11, 42),1	831,(11, 45),6	837,(11, 47),5	842,(11, 52),5	847,(11, 54),3	850,(11, 70),13	863,(11, 72),1	864,(11, 84),3	867,(11, 92),9	876,(11, 94),8	884,(11, 99),17	901,(11, 112),18	919,(11, 115),2	921,(11, 117),1	922,(11, 120),1	923,(6, 14),1	924,(6, 18),1	925,(6, 24),2	927,(6, 29),15	942,(6, 30),1	943,(6, 35),2	945,(6, 44),13	958,(6, 49),1	959,(6, 53),1	960,(6, 58),2	962,(6, 68),8	970,(6, 73),4	974,(6, 80),13	987,(6, 89),9	996,(6, 105),1	997,(6, 114),2	1317,(6, 22),5	1322,(6, 42),1	1323,(6, 47),1	1324,(6, 52),1	1325,(6, 92),8	
