4824
# CPU
0,201,1	1,197,6	7,88,6	13,97,6	19,34,6	25,172,6	31,106,6	37,163,6	43,36,6	49,92,6	55,168,6	61,80,6	67,94,6	73,112,6	79,193,6	85,57,6	91,39,6	97,28,6	103,187,6	109,196,6	115,160,6	121,52,6	127,111,6	133,123,6	139,171,6	145,103,6	151,174,6	157,55,6	163,84,6	169,82,6	175,101,6	181,25,6	187,177,6	193,135,6	199,86,6	205,195,6	211,89,6	217,156,6	223,179,6	229,154,6	235,56,6	241,109,6	247,38,6	253,71,6	259,91,6	265,67,6	271,26,6	277,128,6	283,113,6	289,102,6	295,173,6	301,58,6	307,198,6	313,108,6	319,22,6	325,64,6	331,53,6	337,83,6	343,110,6	349,127,6	355,45,6	361,100,6	367,125,6	373,119,6	379,93,6	385,54,6	391,122,6	397,105,6	403,107,6	409,143,6	415,146,6	421,151,6	427,68,6	433,150,6	439,199,6	445,161,6	451,194,6	457,190,6	463,42,6	469,51,6	475,43,6	481,158,6	487,99,6	493,121,6	499,191,6	505,149,6	511,98,6	517,35,6	523,170,6	529,169,6	535,59,6	541,37,6	547,182,6	553,132,6	559,131,6	565,104,6	571,155,6	577,72,6	583,145,6	589,46,6	595,66,6	601,115,6	607,117,6	613,24,6	619,47,6	625,144,6	631,65,6	637,40,6	643,90,6	649,166,6	655,32,6	661,133,6	667,96,6	673,138,6	679,130,6	685,141,6	691,148,6	697,186,6	703,129,6	709,23,6	715,29,6	721,75,6	727,178,6	733,60,6	739,140,6	745,76,6	751,126,6	757,175,6	763,137,6	769,184,6	775,153,6	781,78,6	787,87,6	793,85,6	799,69,6	805,33,6	811,74,6	817,41,6	823,70,6	829,95,6	835,152,6	841,147,6	847,192,6	853,31,6	859,44,6	865,81,6	871,21,6	877,63,6	883,77,6	889,50,6	895,180,6	901,188,6	907,134,6	913,61,6	919,120,6	925,162,6	931,30,6	937,116,6	943,114,6	949,49,6	955,124,6	961,79,6	967,183,6	973,189,6	979,165,6	985,159,6	991,164,6	997,181,6	1003,136,6	1009,11,6	1015,18,6	1021,12,6	1027,8,6	1033,7,6	1039,3,6	1045,1,6	1051,4,6	1112,9,6	1166,2,6	1253,10,6	1349,16,6	1455,20,6	1584,19,6	1719,17,6	1879,14,6	2059,13,6	2241,5,6	2552,15,6	4817,6,6	4823,0,1	
83,62,6	165,176,6	247,48,6	411,73,6	493,27,6	657,118,6	903,142,6	985,139,6	


329,200,6	575,157,6	739,185,6	821,167,6	
# Incoming
663,(118, 11),1	664,(176, 18),8	672,(27, 18),1	673,(118, 18),1	674,(62, 12),7	681,(176, 12),1	682,(73, 12),4	686,(62, 8),5	691,(176, 8),2	693,(48, 8),21	714,(73, 8),1	715,(27, 8),1	716,(62, 7),14	730,(48, 7),4	734,(73, 7),4	738,(27, 7),5	743,(118, 7),2	745,(185, 11),1	746,(200, 18),12	758,(157, 12),22	780,(200, 8),3	783,(200, 7),1	784,(62, 3),1	785,(176, 3),1	786,(73, 3),1	787,(48, 1),3	790,(200, 1),1	791,(73, 1),20	811,(118, 1),3	814,(48, 4),2	816,(27, 4),4	820,(157, 4),1	821,(62, 9),4	825,(176, 9),1	826,(48, 9),1	827,(167, 8),2	829,(167, 7),7	836,(167, 3),23	859,(27, 1),40	899,(167, 1),2	901,(167, 4),2	903,(200, 9),5	908,(118, 9),1	909,(142, 12),1	910,(142, 3),1	911,(118, 4),9	920,(185, 4),14	934,(142, 4),3	937,(27, 9),7	944,(167, 9),1	945,(142, 9),5	950,(176, 2),20	970,(200, 2),1	971,(73, 2),2	973,(157, 2),1	974,(185, 2),1	975,(167, 2),2	977,(142, 2),8	985,(62, 10),2	987,(200, 10),1	988,(27, 10),3	991,(139, 11),1	992,(139, 8),1	993,(139, 3),10	1003,(139, 1),6	1009,(139, 4),42	1051,(185, 9),61	1112,(27, 2),54	1166,(176, 10),6	1172,(48, 10),7	1179,(73, 10),25	1204,(157, 10),26	1230,(185, 10),18	1248,(139, 10),5	1253,(62, 16),1	1254,(200, 16),2	1256,(157, 16),11	1267,(118, 16),67	1334,(167, 16),2	1336,(139, 16),13	1349,(176, 20),10	1359,(200, 20),35	1394,(157, 20),2	1396,(185, 20),1	1397,(167, 20),7	1404,(142, 20),51	1455,(200, 19),6	1461,(73, 19),9	1470,(27, 19),1	1471,(118, 19),82	1553,(185, 19),1	1554,(139, 19),30	1584,(62, 17),1	1585,(176, 17),11	1596,(48, 17),26	1622,(73, 17),40	1662,(157, 17),1	1663,(118, 17),13	1676,(185, 17),39	1715,(167, 17),2	1717,(142, 17),1	1718,(139, 17),1	1719,(176, 14),12	1731,(200, 14),13	1744,(73, 14),1	1745,(27, 14),2	1747,(157, 14),27	1774,(185, 14),99	1873,(167, 14),6	1879,(62, 13),6	1885,(176, 13),17	1902,(200, 13),4	1906,(27, 13),9	1915,(157, 13),4	1919,(118, 13),46	1965,(167, 13),9	1974,(142, 13),85	2059,(62, 5),9	2068,(176, 5),1	2069,(200, 5),6	2075,(27, 5),1	2076,(157, 5),65	2141,(118, 5),80	2221,(185, 5),2	2223,(167, 5),8	2231,(142, 5),10	2241,(62, 15),1	2242,(200, 15),25	2267,(73, 15),1	2268,(27, 15),36	2304,(157, 15),1	2305,(118, 15),55	2360,(185, 15),42	2402,(167, 15),128	2530,(142, 15),16	2546,(139, 15),6	2552,(62, 6),3	2555,(176, 6),1	2556,(200, 6),2	2558,(73, 6),1	2559,(27, 6),35	2594,(157, 6),64	2658,(167, 6),3	2661,(142, 6),267	2928,(139, 6),1889	
1,(201, 62),82	83,(201, 176),82	165,(201, 48),82	329,(201, 73),82	411,(201, 27),82	575,(201, 118),82	821,(201, 142),82	903,(201, 139),82	


247,(201, 200),82	493,(201, 157),82	657,(201, 185),82	739,(201, 167),82	
# Outgoing
1,(201, 62),82	83,(201, 176),82	165,(201, 48),82	247,(201, 200),82	329,(201, 73),82	411,(201, 27),82	493,(201, 157),82	575,(201, 118),82	657,(201, 185),82	739,(201, 167),82	821,(201, 142),82	903,(201, 139),82	
663,(118, 11),1	664,(176, 18),8	672,(27, 18),1	673,(118, 18),1	674,(62, 12),7	681,(176, 12),1	682,(73, 12),4	686,(62, 8),5	691,(176, 8),2	693,(48, 8),21	714,(73, 8),1	715,(27, 8),1	716,(62, 7),14	730,(48, 7),4	734,(73, 7),4	738,(27, 7),5	743,(118, 7),2	784,(62, 3),1	785,(176, 3),1	786,(73, 3),1	787,(48, 1),3	791,(73, 1),20	811,(118, 1),3	814,(48, 4),2	816,(27, 4),4	821,(62, 9),4	825,(176, 9),1	826,(48, 9),1	859,(27, 1),40	908,(118, 9),1	909,(142, 12),1	910,(142, 3),1	911,(118, 4),9	934,(142, 4),3	937,(27, 9),7	945,(142, 9),5	950,(176, 2),20	971,(73, 2),2	977,(142, 2),8	985,(62, 10),2	988,(27, 10),3	991,(139, 11),1	992,(139, 8),1	993,(139, 3),10	1003,(139, 1),6	1009,(139, 4),42	1112,(27, 2),54	1166,(176, 10),6	1172,(48, 10),7	1179,(73, 10),25	1248,(139, 10),5	1253,(62, 16),1	1267,(118, 16),67	1336,(139, 16),13	1349,(176, 20),10	1404,(142, 20),51	1461,(73, 19),9	1470,(27, 19),1	1471,(118, 19),82	1554,(139, 19),30	1584,(62, 17),1	1585,(176, 17),11	1596,(48, 17),26	1622,(73, 17),40	1663,(118, 17),13	1717,(142, 17),1	1718,(139, 17),1	1719,(176, 14),12	1744,(73, 14),1	1745,(27, 14),2	1879,(62, 13),6	1885,(176, 13),17	1906,(27, 13),9	1919,(118, 13),46	1974,(142, 13),85	2059,(62, 5),9	2068,(176, 5),1	2075,(27, 5),1	2141,(118, 5),80	2231,(142, 5),10	2241,(62, 15),1	2267,(73, 15),1	2268,(27, 15),36	2305,(118, 15),55	2530,(142, 15),16	2546,(139, 15),6	2552,(62, 6),3	2555,(176, 6),1	2558,(73, 6),1	2559,(27, 6),35	2661,(142, 6),267	2928,(139, 6),1889	


745,(185, 11),1	746,(200, 18),12	758,(157, 12),22	780,(200, 8),3	783,(200, 7),1	790,(200, 1),1	820,(157, 4),1	827,(167, 8),2	829,(167, 7),7	836,(167, 3),23	899,(167, 1),2	901,(167, 4),2	903,(200, 9),5	920,(185, 4),14	944,(167, 9),1	970,(200, 2),1	973,(157, 2),1	974,(185, 2),1	975,(167, 2),2	987,(200, 10),1	1051,(185, 9),61	1204,(157, 10),26	1230,(185, 10),18	1254,(200, 16),2	1256,(157, 16),11	1334,(167, 16),2	1359,(200, 20),35	1394,(157, 20),2	1396,(185, 20),1	1397,(167, 20),7	1455,(200, 19),6	1553,(185, 19),1	1662,(157, 17),1	1676,(185, 17),39	1715,(167, 17),2	1731,(200, 14),13	1747,(157, 14),27	1774,(185, 14),99	1873,(167, 14),6	1902,(200, 13),4	1915,(157, 13),4	1965,(167, 13),9	2069,(200, 5),6	2076,(157, 5),65	2221,(185, 5),2	2223,(167, 5),8	2242,(200, 15),25	2304,(157, 15),1	2360,(185, 15),42	2402,(167, 15),128	2556,(200, 6),2	2594,(157, 6),64	2658,(167, 6),3	
