15479
# CPU
190,10,24	214,102,24	238,53,24	289,36,24	379,20,24	448,87,24	472,126,24	496,97,24	520,34,24	685,74,24	763,148,24	898,134,24	934,109,24	958,45,24	982,63,24	1006,141,24	1030,169,24	1216,185,24	2176,92,24	2278,117,24	2314,80,24	2338,162,24	2362,193,24	2617,155,24	14971,177,24	
169,9,24	247,73,24	292,91,24	316,62,24	340,108,24	364,19,24	388,192,24	412,125,24	436,35,24	460,133,24	484,52,24	508,154,24	772,96,24	802,161,24	889,101,24	988,33,24	1123,42,24	1147,79,24	1171,140,24	1234,168,24	1297,176,24	1918,184,24	2062,116,24	4141,86,24	14785,147,24	
148,8,24	172,84,24	196,66,24	232,99,24	337,18,24	361,77,24	385,47,24	409,89,24	433,129,24	457,150,24	481,56,24	508,171,24	532,119,24	775,195,24	1018,104,24	1066,38,24	1090,30,24	1147,94,24	1171,111,24	1264,157,24	1303,179,24	1678,136,24	2194,187,24	4147,164,24	14722,143,24	
127,7,24	151,78,24	250,95,24	274,85,24	298,152,24	322,17,24	346,190,24	370,71,24	394,105,24	514,159,24	538,100,24	1033,60,24	1084,28,24	1120,40,24	1285,90,24	1309,166,24	1333,145,24	1357,199,24	1381,174,24	1405,122,24	1555,131,24	14437,50,24	14587,113,24	14611,138,24	14992,182,24	
106,6,24	178,178,24	202,194,24	295,16,24	319,46,24	346,103,24	370,76,24	394,55,24	418,65,24	442,27,24	466,37,24	490,82,24	622,110,24	673,118,24	952,170,24	1192,88,24	1216,93,24	1240,142,24	1264,156,24	1288,163,24	1756,149,24	14428,186,24	14452,135,24	14530,98,24	14590,127,24	
85,5,24	109,26,24	133,175,24	157,146,24	181,54,24	205,81,24	274,15,24	799,160,24	904,75,24	928,132,24	952,64,24	976,183,24	1000,107,24	1024,139,24	1048,29,24	1072,115,24	1096,167,24	1126,200,24	1327,153,24	1402,124,24	1432,191,24	1492,41,24	4093,83,24	
64,4,24	253,14,24	277,72,24	421,158,24	445,59,24	484,69,24	508,189,24	532,25,24	556,144,24	580,130,24	610,137,24	1036,173,24	4249,49,24	4273,151,24	4348,120,24	4408,165,24	4432,181,24	4456,198,24	4480,39,24	4642,70,24	14575,112,24	
43,3,24	232,13,24	358,128,24	391,23,24	451,188,24	475,48,24	736,106,24	1087,114,24	1132,57,24	1204,123,24	1279,32,24	1306,180,24	1546,68,24	1765,197,24	3238,172,24	14485,67,24	
22,2,24	46,196,24	130,51,24	211,12,24	934,22,24	1156,58,24	1291,31,24	2605,61,24	3193,121,24	15478,201,1	
0,0,1	1,11,24	25,1,24	568,24,24	739,21,24	1609,43,24	2674,44,24	
# Incoming
169,(0, 10),21	190,(2, 53),36	226,(2, 74),39	265,(3, 34),3	268,(7, 36),21	289,(8, 80),3	292,(4, 92),63	358,(0, 20),21	379,(3, 74),6	385,(4, 117),15	400,(4, 126),33	433,(7, 45),9	442,(7, 87),6	448,(7, 126),6	454,(17, 155),3	457,(19, 63),3	460,(4, 169),9	469,(9, 63),15	484,(11, 97),9	493,(9, 169),9	502,(14, 34),3	505,(11, 117),9	514,(3, 92),102	616,(7, 141),39	655,(8, 74),30	685,(8, 134),18	703,(8, 148),18	721,(14, 80),6	727,(14, 141),3	733,(18, 92),6	739,(5, 148),24	763,(16, 155),12	775,(16, 185),9	787,(13, 109),57	847,(2, 134),51	898,(16, 109),36	934,(15, 45),6	940,(15, 63),3	943,(18, 169),6	955,(11, 141),3	958,(11, 169),54	1012,(4, 185),204	1216,(5, 162),918	2134,(16, 92),42	2176,(16, 117),102	2278,(17, 80),36	2314,(17, 162),12	2326,(18, 177),9	2335,(18, 193),9	2605,(19, 155),12	14785,(15, 177),186	
148,(0, 9),21	169,(3, 86),42	211,(4, 62),3	214,(4, 73),6	220,(4, 86),3	223,(5, 52),9	232,(6, 73),15	247,(7, 52),6	253,(3, 125),3	256,(4, 91),36	292,(10, 33),3	295,(10, 79),3	301,(5, 62),3	304,(5, 108),24	328,(16, 42),3	337,(0, 19),21	370,(3, 192),3	373,(13, 86),3	382,(18, 192),3	385,(3, 140),21	406,(7, 35),21	433,(4, 133),27	460,(7, 86),18	478,(20, 52),3	487,(14, 154),3	490,(14, 168),3	499,(11, 116),6	553,(5, 140),108	673,(20, 147),9	721,(18, 86),12	739,(18, 96),33	772,(18, 161),30	802,(18, 176),27	829,(20, 86),24	853,(20, 101),36	898,(2, 147),27	925,(2, 184),60	985,(15, 33),3	1021,(12, 79),42	1120,(1, 42),3	1132,(1, 79),6	1147,(17, 140),18	1165,(15, 168),3	1210,(17, 168),24	1294,(1, 176),3	1297,(7, 116),447	1744,(7, 184),174	1918,(14, 116),144	4093,(12, 86),48	14722,(15, 147),63	
127,(0, 8),21	148,(2, 119),6	154,(4, 56),3	157,(4, 66),3	160,(4, 77),3	163,(5, 84),3	166,(5, 111),3	169,(6, 30),9	181,(5, 187),9	190,(6, 164),3	193,(4, 143),15	208,(6, 99),24	232,(7, 77),6	256,(9, 129),24	289,(7, 47),27	316,(0, 18),21	337,(10, 77),6	355,(10, 150),12	370,(14, 89),3	373,(14, 129),3	376,(14, 150),3	388,(17, 111),9	397,(11, 30),12	409,(11, 56),27	436,(3, 195),63	502,(19, 164),3	505,(19, 171),3	514,(11, 119),3	517,(4, 187),69	586,(9, 187),63	661,(5, 143),78	739,(14, 38),21	760,(14, 195),15	775,(2, 111),72	847,(13, 104),171	1033,(13, 111),12	1045,(16, 38),21	1084,(1, 30),6	1090,(19, 94),24	1126,(17, 94),21	1156,(15, 111),9	1231,(1, 157),33	1297,(1, 179),6	1402,(16, 136),276	2158,(17, 187),36	4141,(12, 164),6	14596,(15, 143),126	
106,(0, 7),21	127,(3, 71),6	133,(5, 78),3	136,(2, 131),12	148,(5, 60),9	157,(2, 159),12	169,(5, 85),3	172,(5, 166),6	181,(6, 113),3	184,(6, 152),6	226,(8, 95),24	250,(8, 113),3	253,(9, 85),3	256,(3, 174),9	280,(9, 152),3	283,(9, 199),3	295,(0, 17),21	316,(9, 190),15	331,(10, 166),3	334,(16, 105),18	355,(4, 174),15	379,(11, 28),18	397,(5, 100),69	466,(6, 174),45	511,(18, 159),3	514,(19, 100),3	517,(11, 122),438	955,(6, 145),66	1021,(13, 60),12	1036,(11, 174),24	1066,(1, 28),18	1090,(1, 40),30	1120,(6, 182),126	1246,(13, 90),39	1285,(1, 166),9	1294,(18, 145),12	1306,(1, 199),3	1309,(16, 113),18	1327,(10, 174),48	1375,(13, 122),21	1396,(13, 131),159	14428,(15, 50),9	14575,(15, 113),12	14587,(15, 138),9	14971,(15, 182),21	
85,(0, 6),21	106,(2, 27),27	133,(3, 27),18	151,(7, 27),3	157,(5, 65),3	160,(5, 149),3	163,(7, 93),3	166,(7, 194),3	169,(2, 178),9	178,(5, 170),3	187,(2, 194),3	211,(3, 103),42	253,(7, 46),15	268,(8, 55),3	271,(8, 186),3	274,(0, 16),21	295,(8, 135),15	310,(9, 127),3	313,(10, 37),3	316,(7, 103),30	346,(10, 76),6	352,(10, 149),3	355,(17, 55),18	376,(13, 163),3	388,(15, 37),3	391,(15, 65),3	406,(13, 27),12	418,(13, 37),15	433,(19, 88),3	448,(18, 82),21	478,(7, 170),114	592,(14, 110),30	622,(14, 118),15	637,(20, 98),18	655,(20, 118),18	946,(15, 170),6	1138,(1, 88),54	1192,(1, 93),9	1204,(1, 142),3	1207,(1, 156),24	1264,(1, 163),21	1546,(18, 149),210	2134,(5, 186),12294	14428,(12, 135),15	14485,(15, 98),45	14530,(17, 127),60	
64,(0, 5),21	85,(3, 26),6	154,(7, 54),9	163,(4, 81),30	193,(6, 107),3	196,(7, 29),27	223,(4, 132),21	253,(0, 15),21	274,(2, 107),501	775,(4, 160),24	799,(6, 41),78	877,(9, 75),27	904,(10, 132),9	913,(10, 191),15	928,(10, 200),3	931,(14, 64),18	949,(16, 107),6	955,(18, 139),9	964,(18, 183),3	967,(19, 107),3	970,(19, 139),3	985,(12, 29),24	1018,(13, 115),3	1021,(16, 167),15	1063,(11, 191),3	1087,(7, 200),39	1126,(10, 153),201	1327,(16, 124),75	1402,(19, 191),30	1432,(20, 41),60	1918,(17, 83),240	4087,(12, 83),6	
43,(0, 4),21	136,(5, 198),9	154,(2, 158),3	178,(6, 112),3	205,(8, 49),21	232,(0, 14),21	265,(12, 59),3	268,(3, 59),102	370,(6, 189),24	394,(10, 158),27	427,(17, 181),3	430,(17, 189),3	433,(20, 59),3	436,(11, 69),48	484,(18, 189),3	499,(13, 49),6	511,(16, 25),18	529,(19, 144),9	568,(20, 130),12	607,(20, 137),3	616,(3, 151),171	943,(15, 70),3	952,(15, 173),6	1012,(11, 173),24	1060,(11, 181),3	1063,(2, 49),3024	4087,(1, 49),162	4249,(1, 70),18	4267,(1, 151),3	4270,(1, 165),9	4279,(7, 198),48	4327,(12, 120),21	4348,(12, 165),60	4408,(12, 181),3	4411,(12, 198),9	4420,(17, 39),27	4447,(19, 70),195	14530,(15, 112),45	
22,(0, 3),21	130,(5, 67),3	133,(2, 123),3	178,(2, 180),9	211,(0, 13),21	298,(10, 172),3	328,(5, 128),30	358,(8, 188),21	379,(14, 67),6	385,(17, 67),3	388,(18, 23),3	421,(16, 48),15	436,(16, 57),12	448,(19, 188),3	451,(20, 48),3	454,(20, 106),3	493,(11, 114),6	505,(14, 114),9	514,(18, 67),87	682,(17, 106),54	763,(5, 197),51	814,(7, 114),273	1123,(1, 57),9	1201,(1, 123),3	1237,(19, 32),42	1303,(1, 180),3	1306,(18, 68),240	1678,(16, 197),87	3193,(20, 172),45	14437,(15, 67),48	
1,(0, 2),21	109,(5, 51),21	190,(0, 12),21	211,(9, 31),3	232,(5, 61),69	310,(84, 201),27	358,(26, 201),27	385,(15, 31),3	394,(178, 201),27	421,(66, 201),27	466,(5, 121),87	553,(194, 201),27	580,(102, 201),27	607,(99, 201),27	655,(78, 201),27	682,(53, 201),27	709,(73, 201),27	736,(95, 201),27	763,(85, 201),27	790,(17, 61),15	814,(175, 201),27	841,(146, 201),27	868,(54, 201),27	895,(81, 201),27	922,(15, 22),12	949,(72, 201),27	988,(15, 58),168	1156,(91, 201),27	1183,(152, 201),27	1210,(62, 201),27	1246,(16, 31),45	1291,(108, 201),27	1318,(128, 201),27	1345,(192, 201),27	1375,(36, 201),27	1402,(158, 201),27	1432,(125, 201),27	1459,(35, 201),27	1486,(59, 201),27	1513,(133, 201),27	1555,(23, 201),27	1582,(188, 201),27	1609,(48, 201),27	1636,(69, 201),27	1663,(52, 201),27	1690,(189, 201),27	1717,(154, 201),27	1765,(46, 201),27	1792,(103, 201),27	1819,(77, 201),27	1846,(76, 201),27	1873,(47, 201),27	1900,(55, 201),27	1927,(89, 201),27	1954,(65, 201),27	1981,(129, 201),27	2008,(27, 201),27	2035,(150, 201),27	2062,(37, 201),27	2089,(56, 201),27	2116,(171, 201),27	2143,(25, 201),27	2194,(190, 201),27	2221,(19, 61),384	2605,(71, 201),27	2632,(105, 201),27	2674,(20, 121),519	3193,(82, 201),27	3238,(87, 201),27	3265,(126, 201),27	3292,(97, 201),27	3319,(159, 201),27	3346,(34, 201),27	3373,(119, 201),27	3400,(100, 201),27	3427,(144, 201),27	3454,(24, 201),27	3481,(130, 201),27	3508,(137, 201),27	3535,(110, 201),27	3562,(118, 201),27	3589,(74, 201),27	3616,(106, 201),27	3643,(21, 201),27	3670,(148, 201),27	3697,(96, 201),27	3724,(195, 201),27	3751,(161, 201),27	3778,(101, 201),27	3805,(134, 201),27	3832,(109, 201),27	3859,(170, 201),27	3886,(45, 201),27	3913,(63, 201),27	3940,(33, 201),27	3967,(141, 201),27	3994,(104, 201),27	4021,(169, 201),27	4048,(60, 201),27	4075,(173, 201),27	4102,(38, 201),27	4129,(28, 201),27	4156,(114, 201),27	4183,(30, 201),27	4210,(40, 201),27	4237,(42, 201),27	4264,(57, 201),27	4291,(79, 201),27	4318,(94, 201),27	4345,(140, 201),27	4372,(111, 201),27	4399,(88, 201),27	4426,(123, 201),27	4453,(185, 201),27	4480,(93, 201),27	4507,(142, 201),27	4534,(157, 201),27	4561,(156, 201),27	4588,(32, 201),27	4615,(90, 201),27	4642,(168, 201),27	4669,(163, 201),27	4696,(176, 201),27	4723,(179, 201),27	4750,(180, 201),27	4777,(166, 201),27	4804,(145, 201),27	4831,(199, 201),27	4858,(174, 201),27	4885,(122, 201),27	4912,(68, 201),27	4939,(131, 201),27	4966,(43, 201),27	4993,(136, 201),27	5020,(149, 201),27	5047,(197, 201),27	5074,(184, 201),27	5101,(116, 201),27	5128,(92, 201),27	5155,(187, 201),27	5182,(117, 201),27	5209,(80, 201),27	5236,(162, 201),27	5263,(193, 201),27	5290,(155, 201),27	5317,(44, 201),27	5344,(172, 201),27	5371,(86, 201),27	5398,(164, 201),27	5425,(49, 201),27	5452,(151, 201),27	5479,(120, 201),27	5506,(165, 201),27	5533,(181, 201),27	5560,(198, 201),27	5587,(39, 201),27	5614,(70, 201),27	14452,(186, 201),27	14479,(50, 201),27	14506,(135, 201),27	14533,(67, 201),27	14560,(98, 201),27	14599,(112, 201),27	14626,(113, 201),27	14653,(127, 201),27	14680,(138, 201),27	14746,(143, 201),27	14809,(147, 201),27	14992,(160, 201),27	15019,(75, 201),27	15046,(132, 201),27	15073,(64, 201),27	15100,(183, 201),27	15127,(107, 201),27	15154,(139, 201),27	15181,(29, 201),27	15208,(115, 201),27	15235,(167, 201),27	15262,(200, 201),27	15289,(153, 201),27	15316,(124, 201),27	15343,(191, 201),27	15370,(41, 201),27	15397,(83, 201),27	15424,(177, 201),27	15451,(182, 201),27	
172,(8, 44),33	214,(9, 43),6	220,(9, 44),12	346,(17, 43),3	379,(18, 43),3	388,(19, 21),33	421,(20, 21),12	469,(14, 43),18	487,(20, 24),81	580,(16, 21),159	739,(19, 44),102	1009,(12, 43),12	1492,(20, 43),117	1609,(20, 44),1065	
# Outgoing
292,(10, 33),3	295,(10, 79),3	298,(10, 172),3	313,(10, 37),3	331,(10, 166),3	337,(10, 77),6	346,(10, 76),6	352,(10, 149),3	355,(10, 150),12	394,(10, 158),27	421,(20, 21),12	433,(20, 59),3	451,(20, 48),3	454,(20, 106),3	478,(20, 52),3	487,(20, 24),81	568,(20, 130),12	580,(102, 201),27	607,(20, 137),3	637,(20, 98),18	655,(20, 118),18	673,(20, 147),9	682,(53, 201),27	829,(20, 86),24	853,(20, 101),36	904,(10, 132),9	913,(10, 191),15	928,(10, 200),3	1126,(10, 153),201	1327,(10, 174),48	1375,(36, 201),27	1432,(20, 41),60	1492,(20, 43),117	1609,(20, 44),1065	2674,(20, 121),519	3193,(20, 172),45	3238,(87, 201),27	3265,(126, 201),27	3292,(97, 201),27	3346,(34, 201),27	3589,(74, 201),27	3670,(148, 201),27	3805,(134, 201),27	3832,(109, 201),27	3886,(45, 201),27	3913,(63, 201),27	3967,(141, 201),27	4021,(169, 201),27	4453,(185, 201),27	5128,(92, 201),27	5182,(117, 201),27	5209,(80, 201),27	5236,(162, 201),27	5263,(193, 201),27	5290,(155, 201),27	15424,(177, 201),27	
211,(9, 31),3	214,(9, 43),6	220,(9, 44),12	253,(9, 85),3	256,(9, 129),24	280,(9, 152),3	283,(9, 199),3	310,(9, 127),3	316,(9, 190),15	388,(19, 21),33	433,(19, 88),3	448,(19, 188),3	457,(19, 63),3	469,(9, 63),15	493,(9, 169),9	502,(19, 164),3	505,(19, 171),3	514,(19, 100),3	529,(19, 144),9	586,(9, 187),63	709,(73, 201),27	739,(19, 44),102	877,(9, 75),27	967,(19, 107),3	970,(19, 139),3	1090,(19, 94),24	1156,(91, 201),27	1210,(62, 201),27	1237,(19, 32),42	1291,(108, 201),27	1345,(192, 201),27	1402,(19, 191),30	1432,(125, 201),27	1459,(35, 201),27	1513,(133, 201),27	1663,(52, 201),27	1717,(154, 201),27	2221,(19, 61),384	2605,(19, 155),12	3697,(96, 201),27	3751,(161, 201),27	3778,(101, 201),27	3940,(33, 201),27	4237,(42, 201),27	4291,(79, 201),27	4345,(140, 201),27	4447,(19, 70),195	4642,(168, 201),27	4696,(176, 201),27	5074,(184, 201),27	5101,(116, 201),27	5371,(86, 201),27	14809,(147, 201),27	
172,(8, 44),33	205,(8, 49),21	226,(8, 95),24	250,(8, 113),3	268,(8, 55),3	271,(8, 186),3	289,(8, 80),3	295,(8, 135),15	310,(84, 201),27	358,(8, 188),21	379,(18, 43),3	382,(18, 192),3	388,(18, 23),3	421,(66, 201),27	448,(18, 82),21	484,(18, 189),3	511,(18, 159),3	514,(18, 67),87	607,(99, 201),27	655,(8, 74),30	685,(8, 134),18	703,(8, 148),18	721,(18, 86),12	733,(18, 92),6	739,(18, 96),33	772,(18, 161),30	802,(18, 176),27	943,(18, 169),6	955,(18, 139),9	964,(18, 183),3	1294,(18, 145),12	1306,(18, 68),240	1546,(18, 149),210	1819,(77, 201),27	1873,(47, 201),27	1927,(89, 201),27	1981,(129, 201),27	2035,(150, 201),27	2089,(56, 201),27	2116,(171, 201),27	2326,(18, 177),9	2335,(18, 193),9	3373,(119, 201),27	3724,(195, 201),27	3994,(104, 201),27	4102,(38, 201),27	4183,(30, 201),27	4318,(94, 201),27	4372,(111, 201),27	4534,(157, 201),27	4723,(179, 201),27	4993,(136, 201),27	5155,(187, 201),27	5398,(164, 201),27	14746,(143, 201),27	
151,(7, 27),3	154,(7, 54),9	163,(7, 93),3	166,(7, 194),3	196,(7, 29),27	232,(7, 77),6	247,(7, 52),6	253,(7, 46),15	268,(7, 36),21	289,(7, 47),27	316,(7, 103),30	346,(17, 43),3	355,(17, 55),18	385,(17, 67),3	388,(17, 111),9	406,(7, 35),21	427,(17, 181),3	430,(17, 189),3	433,(7, 45),9	442,(7, 87),6	448,(7, 126),6	454,(17, 155),3	460,(7, 86),18	478,(7, 170),114	616,(7, 141),39	655,(78, 201),27	682,(17, 106),54	736,(95, 201),27	763,(85, 201),27	790,(17, 61),15	814,(7, 114),273	1087,(7, 200),39	1126,(17, 94),21	1147,(17, 140),18	1183,(152, 201),27	1210,(17, 168),24	1297,(7, 116),447	1744,(7, 184),174	1918,(17, 83),240	2158,(17, 187),36	2194,(190, 201),27	2278,(17, 80),36	2314,(17, 162),12	2605,(71, 201),27	2632,(105, 201),27	3319,(159, 201),27	3400,(100, 201),27	4048,(60, 201),27	4129,(28, 201),27	4210,(40, 201),27	4279,(7, 198),48	4420,(17, 39),27	4615,(90, 201),27	4777,(166, 201),27	4804,(145, 201),27	4831,(199, 201),27	4858,(174, 201),27	4885,(122, 201),27	4939,(131, 201),27	14479,(50, 201),27	14530,(17, 127),60	14626,(113, 201),27	14680,(138, 201),27	15451,(182, 201),27	
169,(6, 30),9	178,(6, 112),3	181,(6, 113),3	184,(6, 152),6	190,(6, 164),3	193,(6, 107),3	208,(6, 99),24	232,(6, 73),15	328,(16, 42),3	334,(16, 105),18	370,(6, 189),24	394,(178, 201),27	421,(16, 48),15	436,(16, 57),12	466,(6, 174),45	511,(16, 25),18	553,(194, 201),27	580,(16, 21),159	763,(16, 155),12	775,(16, 185),9	799,(6, 41),78	898,(16, 109),36	949,(16, 107),6	955,(6, 145),66	1021,(16, 167),15	1045,(16, 38),21	1120,(6, 182),126	1246,(16, 31),45	1309,(16, 113),18	1327,(16, 124),75	1402,(16, 136),276	1678,(16, 197),87	1765,(46, 201),27	1792,(103, 201),27	1846,(76, 201),27	1900,(55, 201),27	1954,(65, 201),27	2008,(27, 201),27	2062,(37, 201),27	2134,(16, 92),42	2176,(16, 117),102	3193,(82, 201),27	3535,(110, 201),27	3562,(118, 201),27	3859,(170, 201),27	4399,(88, 201),27	4480,(93, 201),27	4507,(142, 201),27	4561,(156, 201),27	4669,(163, 201),27	5020,(149, 201),27	14452,(186, 201),27	14506,(135, 201),27	14560,(98, 201),27	14653,(127, 201),27	
109,(5, 51),21	130,(5, 67),3	133,(5, 78),3	136,(5, 198),9	148,(5, 60),9	157,(5, 65),3	160,(5, 149),3	163,(5, 84),3	166,(5, 111),3	169,(5, 85),3	172,(5, 166),6	178,(5, 170),3	181,(5, 187),9	223,(5, 52),9	232,(5, 61),69	301,(5, 62),3	304,(5, 108),24	328,(5, 128),30	358,(26, 201),27	385,(15, 31),3	388,(15, 37),3	391,(15, 65),3	397,(5, 100),69	466,(5, 121),87	553,(5, 140),108	661,(5, 143),78	739,(5, 148),24	763,(5, 197),51	814,(175, 201),27	841,(146, 201),27	868,(54, 201),27	895,(81, 201),27	922,(15, 22),12	934,(15, 45),6	940,(15, 63),3	943,(15, 70),3	946,(15, 170),6	952,(15, 173),6	985,(15, 33),3	988,(15, 58),168	1156,(15, 111),9	1165,(15, 168),3	1216,(5, 162),918	2134,(5, 186),12294	14428,(15, 50),9	14437,(15, 67),48	14485,(15, 98),45	14530,(15, 112),45	14575,(15, 113),12	14587,(15, 138),9	14596,(15, 143),126	14722,(15, 147),63	14785,(15, 177),186	14971,(15, 182),21	14992,(160, 201),27	15019,(75, 201),27	15046,(132, 201),27	15073,(64, 201),27	15100,(183, 201),27	15127,(107, 201),27	15154,(139, 201),27	15181,(29, 201),27	15208,(115, 201),27	15235,(167, 201),27	15262,(200, 201),27	15289,(153, 201),27	15316,(124, 201),27	15343,(191, 201),27	15370,(41, 201),27	15397,(83, 201),27	
154,(4, 56),3	157,(4, 66),3	160,(4, 77),3	163,(4, 81),30	193,(4, 143),15	211,(4, 62),3	214,(4, 73),6	220,(4, 86),3	223,(4, 132),21	256,(4, 91),36	292,(4, 92),63	355,(4, 174),15	370,(14, 89),3	373,(14, 129),3	376,(14, 150),3	379,(14, 67),6	385,(4, 117),15	400,(4, 126),33	433,(4, 133),27	460,(4, 169),9	469,(14, 43),18	487,(14, 154),3	490,(14, 168),3	502,(14, 34),3	505,(14, 114),9	517,(4, 187),69	592,(14, 110),30	622,(14, 118),15	721,(14, 80),6	727,(14, 141),3	739,(14, 38),21	760,(14, 195),15	775,(4, 160),24	931,(14, 64),18	949,(72, 201),27	1012,(4, 185),204	1402,(158, 201),27	1486,(59, 201),27	1636,(69, 201),27	1690,(189, 201),27	1918,(14, 116),144	2143,(25, 201),27	3427,(144, 201),27	3481,(130, 201),27	3508,(137, 201),27	4075,(173, 201),27	5425,(49, 201),27	5452,(151, 201),27	5479,(120, 201),27	5506,(165, 201),27	5533,(181, 201),27	5560,(198, 201),27	5587,(39, 201),27	5614,(70, 201),27	14599,(112, 201),27	
85,(3, 26),6	127,(3, 71),6	133,(3, 27),18	169,(3, 86),42	211,(3, 103),42	253,(3, 125),3	256,(3, 174),9	265,(3, 34),3	268,(3, 59),102	370,(3, 192),3	373,(13, 86),3	376,(13, 163),3	379,(3, 74),6	385,(3, 140),21	406,(13, 27),12	418,(13, 37),15	436,(3, 195),63	499,(13, 49),6	514,(3, 92),102	616,(3, 151),171	787,(13, 109),57	847,(13, 104),171	1018,(13, 115),3	1021,(13, 60),12	1033,(13, 111),12	1246,(13, 90),39	1318,(128, 201),27	1375,(13, 122),21	1396,(13, 131),159	1555,(23, 201),27	1582,(188, 201),27	1609,(48, 201),27	3616,(106, 201),27	4156,(114, 201),27	4264,(57, 201),27	4426,(123, 201),27	4588,(32, 201),27	4750,(180, 201),27	4912,(68, 201),27	5047,(197, 201),27	5344,(172, 201),27	14533,(67, 201),27	
106,(2, 27),27	133,(2, 123),3	136,(2, 131),12	148,(2, 119),6	154,(2, 158),3	157,(2, 159),12	169,(2, 178),9	178,(2, 180),9	187,(2, 194),3	190,(2, 53),36	226,(2, 74),39	265,(12, 59),3	274,(2, 107),501	775,(2, 111),72	847,(2, 134),51	898,(2, 147),27	925,(2, 184),60	985,(12, 29),24	1009,(12, 43),12	1021,(12, 79),42	1063,(2, 49),3024	4087,(12, 83),6	4093,(12, 86),48	4141,(12, 164),6	4327,(12, 120),21	4348,(12, 165),60	4408,(12, 181),3	4411,(12, 198),9	14428,(12, 135),15	
1,(0, 2),21	22,(0, 3),21	43,(0, 4),21	64,(0, 5),21	85,(0, 6),21	106,(0, 7),21	127,(0, 8),21	148,(0, 9),21	169,(0, 10),21	190,(0, 12),21	211,(0, 13),21	232,(0, 14),21	253,(0, 15),21	274,(0, 16),21	295,(0, 17),21	316,(0, 18),21	337,(0, 19),21	358,(0, 20),21	379,(11, 28),18	397,(11, 30),12	409,(11, 56),27	436,(11, 69),48	484,(11, 97),9	493,(11, 114),6	499,(11, 116),6	505,(11, 117),9	514,(11, 119),3	517,(11, 122),438	955,(11, 141),3	958,(11, 169),54	1012,(11, 173),24	1036,(11, 174),24	1060,(11, 181),3	1063,(11, 191),3	1066,(1, 28),18	1084,(1, 30),6	1090,(1, 40),30	1120,(1, 42),3	1123,(1, 57),9	1132,(1, 79),6	1138,(1, 88),54	1192,(1, 93),9	1201,(1, 123),3	1204,(1, 142),3	1207,(1, 156),24	1231,(1, 157),33	1264,(1, 163),21	1285,(1, 166),9	1294,(1, 176),3	1297,(1, 179),6	1303,(1, 180),3	1306,(1, 199),3	3454,(24, 201),27	3643,(21, 201),27	4087,(1, 49),162	4249,(1, 70),18	4267,(1, 151),3	4270,(1, 165),9	4966,(43, 201),27	5317,(44, 201),27	
