722
# CPU
0,121,1	1,38,6	7,20,6	13,80,6	19,91,6	25,109,6	31,43,6	37,120,6	43,87,6	49,74,6	55,75,6	61,101,6	67,104,6	73,33,6	79,105,6	85,100,6	91,40,6	97,63,6	103,29,6	109,93,6	115,26,6	121,24,6	127,54,6	133,47,6	139,52,6	145,90,6	151,21,6	157,25,6	163,114,6	169,96,6	175,57,6	181,39,6	187,73,6	193,22,6	199,71,6	205,56,6	211,59,6	217,44,6	223,18,6	229,31,6	235,58,6	241,111,6	247,65,6	253,49,6	259,53,6	265,88,6	271,115,6	277,117,6	283,110,6	289,35,6	295,28,6	301,16,6	307,19,6	313,95,6	319,77,6	325,68,6	331,113,6	337,64,6	343,118,6	349,85,6	355,45,6	361,103,6	367,107,6	373,17,6	379,37,6	385,97,6	391,112,6	397,30,6	403,32,6	409,92,6	415,84,6	421,86,6	427,78,6	433,102,6	439,108,6	445,60,6	451,41,6	457,89,6	463,15,6	469,83,6	475,106,6	481,82,6	487,81,6	493,116,6	499,94,6	505,46,6	511,61,6	517,50,6	523,27,6	529,76,6	535,23,6	541,66,6	547,55,6	553,79,6	559,67,6	565,98,6	571,99,6	577,14,6	583,51,6	589,36,6	595,42,6	601,70,6	607,13,6	613,72,6	619,48,6	625,34,6	631,69,6	637,7,6	643,62,6	649,11,6	655,5,6	661,2,6	667,119,6	673,6,6	679,10,6	685,1,6	691,9,6	697,12,6	703,3,6	709,4,6	715,8,6	721,0,1	
# Incoming

# Outgoing

