404
# CPU
0,0,1	1,2,10	11,7,10	21,10,10	31,28,10	41,36,10	51,1,10	61,18,10	71,9,10	81,35,10	91,8,10	111,19,10	131,25,10	155,27,10	179,5,10	203,31,10	275,11,10	387,12,10	403,41,1	
13,4,10	23,21,10	33,16,10	43,22,10	53,17,10	63,20,10	73,39,10	85,6,10	95,30,10	149,29,10	185,32,10	225,15,10	325,34,10	
17,13,10	33,3,10	43,14,10	53,40,10	63,26,10	81,23,10	117,33,10	371,37,10	
21,38,10	65,24,10	

# Incoming
27,(13, 41),8	35,(38, 41),8	43,(21, 41),8	51,(16, 41),8	59,(14, 41),8	67,(22, 41),8	75,(17, 41),8	83,(40, 41),8	91,(20, 41),8	99,(26, 41),8	107,(4, 19),4	111,(24, 41),8	119,(39, 41),8	127,(3, 25),4	131,(23, 41),8	139,(6, 41),8	147,(4, 27),4	151,(3, 27),4	155,(30, 41),8	163,(33, 41),8	171,(4, 5),4	175,(3, 5),4	179,(29, 41),8	187,(4, 31),16	203,(32, 41),8	211,(4, 11),64	275,(15, 41),8	283,(3, 12),104	387,(34, 41),8	395,(37, 41),8	
1,(0, 4),12	47,(3, 30),4	65,(1, 39),4	81,(1, 6),4	85,(1, 30),4	117,(2, 29),32	149,(1, 32),36	185,(2, 15),40	225,(2, 34),100	
13,(2, 13),4	21,(0, 3),12	33,(2, 40),4	37,(2, 26),4	69,(1, 23),12	89,(2, 33),28	283,(4, 37),88	
17,(2, 38),4	43,(3, 24),4	61,(1, 24),4	

# Outgoing
1,(0, 4),12	13,(2, 13),4	17,(2, 38),4	21,(0, 3),12	33,(2, 40),4	37,(2, 26),4	61,(1, 24),4	65,(1, 39),4	69,(1, 23),12	81,(1, 6),4	85,(1, 30),4	89,(2, 33),28	117,(2, 29),32	149,(1, 32),36	185,(2, 15),40	225,(2, 34),100	
43,(21, 41),8	51,(16, 41),8	67,(22, 41),8	75,(17, 41),8	91,(20, 41),8	107,(4, 19),4	119,(39, 41),8	139,(6, 41),8	147,(4, 27),4	155,(30, 41),8	171,(4, 5),4	179,(29, 41),8	187,(4, 31),16	203,(32, 41),8	211,(4, 11),64	275,(15, 41),8	283,(4, 37),88	387,(34, 41),8	
27,(13, 41),8	43,(3, 24),4	47,(3, 30),4	59,(14, 41),8	83,(40, 41),8	99,(26, 41),8	127,(3, 25),4	131,(23, 41),8	151,(3, 27),4	163,(33, 41),8	175,(3, 5),4	283,(3, 12),104	395,(37, 41),8	
35,(38, 41),8	111,(24, 41),8	

