273
# CPU
0,201,1	1,143,1	2,139,1	3,59,1	4,65,1	5,172,1	6,191,1	7,51,1	8,101,1	9,97,1	10,109,1	11,32,1	12,135,1	13,67,1	14,144,1	15,122,1	16,168,1	17,30,1	18,156,1	19,196,1	20,165,1	21,90,1	22,179,1	23,39,1	24,186,1	25,117,1	26,47,1	27,138,1	28,107,1	29,160,1	30,120,1	31,75,1	32,125,1	33,86,1	34,85,1	35,129,1	36,81,1	37,182,1	38,66,1	39,54,1	40,145,1	41,29,1	42,164,1	43,21,1	44,181,1	45,194,1	46,134,1	47,190,1	48,61,1	49,22,1	50,152,1	51,119,1	52,52,1	53,57,1	54,102,1	55,137,1	56,163,1	57,158,1	58,151,1	59,77,1	60,103,1	61,93,1	62,72,1	63,71,1	64,177,1	65,79,1	66,148,1	67,131,1	68,128,1	69,63,1	70,162,1	71,193,1	72,38,1	73,192,1	74,180,1	75,56,1	76,55,1	77,130,1	78,45,1	79,153,1	80,80,1	81,64,1	82,198,1	83,89,1	84,185,1	85,150,1	86,146,1	87,84,1	88,176,1	89,88,1	90,171,1	91,113,1	92,33,1	93,155,1	94,68,1	95,154,1	96,25,1	97,108,1	98,99,1	99,60,1	100,41,1	101,31,1	102,174,1	103,141,1	104,187,1	105,112,1	106,96,1	107,83,1	108,127,1	109,74,1	110,157,1	111,82,1	112,147,1	113,170,1	114,42,1	115,46,1	116,188,1	117,116,1	118,43,1	119,44,1	120,28,1	121,105,1	122,70,1	123,34,1	124,91,1	125,173,1	126,58,1	127,133,1	128,36,1	129,92,1	130,126,1	131,197,1	132,195,1	133,98,1	134,50,1	135,23,1	136,100,1	137,161,1	138,94,1	139,110,1	140,124,1	141,136,1	142,37,1	143,62,1	144,104,1	145,26,1	146,132,1	147,53,1	148,169,1	149,40,1	150,167,1	151,118,1	152,73,1	153,166,1	154,123,1	155,199,1	156,184,1	157,48,1	158,149,1	159,7,1	160,35,1	161,78,1	162,76,1	163,106,1	164,175,1	165,140,1	166,15,1	167,27,1	168,142,1	169,4,1	170,95,1	171,1,1	172,115,1	173,24,1	174,19,1	175,11,1	176,69,1	177,18,1	178,114,1	179,3,1	180,189,1	181,183,1	182,2,1	183,17,1	184,14,1	185,10,1	186,6,1	187,12,1	188,5,1	189,20,1	190,8,1	191,16,1	192,13,1	271,9,1	272,0,1	
24,121,1	70,49,1	139,111,1	
47,159,1	93,200,1	116,178,1	162,87,1	
# Incoming
25,(121, 17),1	71,(49, 5),5	76,(49, 20),6	117,(178, 14),1	118,(178, 10),1	119,(178, 6),2	121,(159, 12),3	124,(200, 20),1	125,(200, 8),6	131,(159, 9),1	140,(111, 8),1	141,(200, 16),11	152,(111, 13),29	181,(178, 9),17	198,(87, 9),73	
1,(201, 121),23	47,(201, 49),23	116,(201, 111),23	
24,(201, 159),23	70,(201, 200),23	93,(201, 178),23	139,(201, 87),23	
# Outgoing
1,(201, 121),23	24,(201, 159),23	47,(201, 49),23	70,(201, 200),23	93,(201, 178),23	116,(201, 111),23	139,(201, 87),23	
25,(121, 17),1	71,(49, 5),5	76,(49, 20),6	140,(111, 8),1	152,(111, 13),29	
117,(178, 14),1	118,(178, 10),1	119,(178, 6),2	121,(159, 12),3	124,(200, 20),1	125,(200, 8),6	131,(159, 9),1	141,(200, 16),11	181,(178, 9),17	198,(87, 9),73	
