1522
# CPU
6,2,1	7,14,1	8,36,1	9,76,1	10,80,1	11,4,1	12,45,1	13,63,1	14,77,1	15,79,1	16,78,1	17,6,1	18,34,1	19,48,1	20,57,1	21,52,1	22,56,1	23,8,1	24,13,1	25,70,1	26,25,1	27,28,1	28,46,1	29,60,1	30,54,1	31,29,1	78,15,1	83,23,1	786,37,1	787,38,1	798,39,1	814,40,1	815,44,1	883,68,1	884,12,1	895,17,1	896,18,1	897,21,1	933,43,1	1117,47,1	1132,49,1	1133,50,1	1138,65,1	1143,75,1	1152,20,1	1153,32,1	1306,51,1	1308,55,1	1348,71,1	1350,72,1	1374,73,1	1376,10,1	1381,11,1	1382,16,1	1383,30,1	1384,33,1	1385,35,1	1412,41,1	1424,42,1	1431,53,1	1442,58,1	1446,59,1	1450,61,1	1452,62,1	1453,64,1	1454,66,1	1472,67,1	1503,69,1	1514,74,1	1521,81,1	
0,0,1	1,1,1	2,5,1	3,7,1	4,3,1	5,31,1	6,22,1	37,9,1	46,24,1	51,26,1	67,19,1	91,27,1	
# Incoming
1,(0, 2),5	6,(0, 4),5	11,(0, 6),5	16,(0, 8),5	21,(1, 11),50	71,(1, 12),1	72,(1, 15),6	78,(1, 23),5	83,(1, 32),686	769,(1, 37),17	786,(1, 38),1	787,(1, 39),11	798,(1, 40),16	814,(1, 44),1	815,(1, 47),1	816,(1, 50),17	833,(1, 59),1	834,(1, 66),48	882,(1, 68),1	883,(5, 12),1	884,(5, 17),11	895,(5, 18),1	896,(5, 21),1	897,(5, 41),31	928,(5, 42),4	932,(5, 43),1	933,(5, 47),184	1117,(5, 49),15	1132,(5, 50),1	1133,(5, 59),1	1134,(5, 61),3	1137,(5, 65),1	1138,(5, 75),5	1143,(7, 20),9	1152,(7, 32),1	1153,(7, 42),141	1294,(7, 51),12	1306,(7, 55),2	1308,(7, 61),3	1311,(7, 71),37	1348,(7, 72),2	1350,(7, 73),24	1374,(7, 74),1	1375,(3, 10),1	1376,(3, 11),5	1381,(3, 16),1	1382,(3, 30),1	1383,(3, 33),1	1384,(3, 35),1	1385,(3, 41),27	1412,(3, 42),12	1424,(3, 53),7	1431,(3, 58),11	1442,(3, 59),4	1446,(3, 61),4	1450,(3, 62),2	1452,(3, 64),1	1453,(3, 66),1	1454,(3, 67),18	1472,(3, 69),31	1503,(3, 74),11	1514,(31, 81),1	1515,(22, 81),1	1516,(9, 81),1	1517,(24, 81),1	1518,(26, 81),1	1519,(19, 81),1	1520,(27, 81),1	
7,(2, 19),17	24,(4, 9),13	37,(4, 24),9	46,(4, 26),5	51,(6, 19),16	67,(8, 27),24	
# Outgoing
7,(2, 19),17	24,(4, 9),13	37,(4, 24),9	46,(4, 26),5	51,(6, 19),16	67,(8, 27),24	
1,(0, 2),5	6,(0, 4),5	11,(0, 6),5	16,(0, 8),5	21,(1, 11),50	71,(1, 12),1	72,(1, 15),6	78,(1, 23),5	83,(1, 32),686	769,(1, 37),17	786,(1, 38),1	787,(1, 39),11	798,(1, 40),16	814,(1, 44),1	815,(1, 47),1	816,(1, 50),17	833,(1, 59),1	834,(1, 66),48	882,(1, 68),1	883,(5, 12),1	884,(5, 17),11	895,(5, 18),1	896,(5, 21),1	897,(5, 41),31	928,(5, 42),4	932,(5, 43),1	933,(5, 47),184	1117,(5, 49),15	1132,(5, 50),1	1133,(5, 59),1	1134,(5, 61),3	1137,(5, 65),1	1138,(5, 75),5	1143,(7, 20),9	1152,(7, 32),1	1153,(7, 42),141	1294,(7, 51),12	1306,(7, 55),2	1308,(7, 61),3	1311,(7, 71),37	1348,(7, 72),2	1350,(7, 73),24	1374,(7, 74),1	1375,(3, 10),1	1376,(3, 11),5	1381,(3, 16),1	1382,(3, 30),1	1383,(3, 33),1	1384,(3, 35),1	1385,(3, 41),27	1412,(3, 42),12	1424,(3, 53),7	1431,(3, 58),11	1442,(3, 59),4	1446,(3, 61),4	1450,(3, 62),2	1452,(3, 64),1	1453,(3, 66),1	1454,(3, 67),18	1472,(3, 69),31	1503,(3, 74),11	1514,(31, 81),1	1515,(22, 81),1	1516,(9, 81),1	1517,(24, 81),1	1518,(26, 81),1	1519,(19, 81),1	1520,(27, 81),1	
