358
# CPU
4,1,2	6,10,2	8,19,2	10,37,2	12,40,2	14,14,2	16,21,2	18,20,2	20,15,2	253,27,2	257,35,2	
10,3,2	12,8,2	14,22,2	16,33,2	18,34,2	20,16,2	22,25,2	24,23,2	236,30,2	285,39,2	
117,11,2	126,13,2	236,29,2	251,32,2	253,5,2	294,24,2	313,38,2	357,41,1	
7,2,2	9,6,2	11,18,2	13,31,2	15,17,2	139,26,2	
0,0,1	1,4,2	3,7,2	5,12,2	7,36,2	9,9,2	11,28,2	
# Incoming
1,(0, 1),3	9,(2, 15),1	251,(4, 35),1	252,(3, 27),1	253,(3, 35),4	
7,(0, 3),3	233,(4, 30),3	282,(4, 39),3	
10,(4, 5),31	41,(4, 11),76	117,(4, 13),9	126,(4, 24),12	138,(1, 24),1	139,(4, 29),94	233,(10, 41),2	235,(2, 29),1	236,(4, 32),15	251,(3, 5),1	252,(4, 38),30	282,(19, 41),2	285,(7, 41),2	287,(12, 41),2	289,(2, 24),5	294,(36, 41),2	296,(6, 41),2	298,(9, 41),2	300,(3, 38),13	313,(37, 41),2	315,(18, 41),2	317,(28, 41),2	319,(40, 41),2	321,(8, 41),2	323,(31, 41),2	325,(14, 41),2	327,(22, 41),2	329,(17, 41),2	331,(21, 41),2	333,(33, 41),2	335,(20, 41),2	337,(34, 41),2	339,(15, 41),2	341,(16, 41),2	343,(25, 41),2	345,(23, 41),2	347,(26, 41),2	349,(30, 41),2	351,(27, 41),2	353,(35, 41),2	355,(39, 41),2	
4,(0, 2),3	7,(1, 6),1	138,(4, 26),1	

# Outgoing
7,(1, 6),1	138,(1, 24),1	233,(10, 41),2	282,(19, 41),2	313,(37, 41),2	319,(40, 41),2	325,(14, 41),2	331,(21, 41),2	335,(20, 41),2	339,(15, 41),2	351,(27, 41),2	353,(35, 41),2	
251,(3, 5),1	252,(3, 27),1	253,(3, 35),4	300,(3, 38),13	321,(8, 41),2	327,(22, 41),2	333,(33, 41),2	337,(34, 41),2	341,(16, 41),2	343,(25, 41),2	345,(23, 41),2	349,(30, 41),2	355,(39, 41),2	

9,(2, 15),1	235,(2, 29),1	289,(2, 24),5	296,(6, 41),2	315,(18, 41),2	323,(31, 41),2	329,(17, 41),2	347,(26, 41),2	
1,(0, 1),3	4,(0, 2),3	7,(0, 3),3	10,(4, 5),31	41,(4, 11),76	117,(4, 13),9	126,(4, 24),12	138,(4, 26),1	139,(4, 29),94	233,(4, 30),3	236,(4, 32),15	251,(4, 35),1	252,(4, 38),30	282,(4, 39),3	285,(7, 41),2	287,(12, 41),2	294,(36, 41),2	298,(9, 41),2	317,(28, 41),2	
