24062
# CPU
181,5,12	361,10,12	12007,19,12	12019,20,12	12112,24,12	12208,27,12	12580,31,12	12592,33,12	12673,35,12	12724,38,12	12814,42,12	12919,46,12	13195,52,12	13288,55,12	13609,58,12	13684,61,12	13852,64,12	13888,68,12	13978,75,12	14005,78,12	14503,84,12	14518,87,12	14590,90,12	14704,94,12	14734,97,12	14914,100,12	14956,103,12	15241,81,12	15400,109,12	15562,112,12	15601,115,12	15829,118,12	16204,72,12	20773,106,12	
136,4,12	316,9,12	11980,16,12	11995,18,12	12094,22,12	12205,26,12	12358,30,12	12586,32,12	12598,34,12	12745,41,12	12913,45,12	13144,50,12	13333,57,12	13654,60,12	13768,63,12	13885,67,12	13903,71,12	13975,74,12	14002,77,12	14143,80,12	14278,83,12	14515,86,12	14527,89,12	14698,92,12	14830,99,12	14941,102,12	15286,105,12	15301,108,12	15448,111,12	15826,117,12	20530,120,12	20932,37,12	21319,54,12	23572,96,12	24046,114,12	
91,3,12	271,8,12	11977,15,12	11989,17,12	12121,25,12	12289,28,12	12343,29,12	12685,36,12	12727,39,12	12817,43,12	12961,48,12	13636,59,12	13762,62,12	13873,65,12	13897,69,12	13909,73,12	13981,76,12	14101,79,12	14191,82,12	14506,85,12	14521,88,12	14692,91,12	14707,95,12	14809,98,12	14935,101,12	15259,104,12	15439,110,12	15565,113,12	15811,116,12	15853,119,12	16429,53,12	17302,56,12	19444,107,12	
46,2,12	226,7,12	406,12,12	11932,14,12	12073,21,12	12100,23,12	12733,40,12	13102,49,12	13156,51,12	13882,66,12	13900,70,12	14701,93,12	15778,44,12	24061,121,1	
0,0,1	1,6,12	13,11,12	25,1,12	5260,13,12	10927,47,12	
# Incoming
136,(0, 5),45	181,(3, 27),3	184,(2, 19),15	199,(2, 20),18	217,(3, 31),3	220,(2, 24),9	229,(2, 27),12	265,(2, 33),12	277,(2, 35),24	301,(2, 38),6	307,(2, 42),3	310,(2, 52),6	316,(0, 10),45	361,(3, 19),24	385,(3, 20),15	400,(3, 24),21	421,(3, 42),3	424,(2, 61),3	427,(3, 33),9	436,(3, 35),6	442,(3, 46),3	445,(3, 68),3	448,(3, 72),3	451,(6, 19),24	475,(6, 20),3	478,(2, 46),12	490,(3, 52),9	499,(3, 55),27	526,(3, 58),21	547,(3, 61),15	562,(3, 81),3	565,(4, 31),3	568,(6, 24),9	577,(2, 31),276	853,(3, 64),24	877,(3, 75),6	883,(3, 84),3	886,(3, 90),9	895,(3, 97),6	901,(3, 100),3	904,(3, 106),6	910,(3, 109),6	916,(2, 55),18	934,(3, 115),3	937,(3, 118),3	940,(4, 20),15	955,(2, 58),21	976,(4, 24),18	994,(2, 64),27	1021,(4, 27),12	1033,(4, 35),6	1039,(4, 38),3	1042,(2, 68),9	1051,(3, 78),42	1093,(3, 94),24	1117,(3, 103),51	1168,(4, 52),6	1174,(4, 58),3	1177,(2, 75),42	1219,(3, 112),51	1270,(4, 61),3	1273,(4, 78),3	1276,(2, 78),3	1279,(4, 97),3	1282,(2, 81),99	1381,(4, 72),15	1396,(4, 100),3	1399,(2, 84),3	1402,(4, 19),24	1426,(4, 46),54	1480,(4, 81),6	1486,(6, 27),1947	3433,(2, 87),12	3445,(2, 97),3	3448,(2, 100),3	3451,(2, 109),3	3454,(6, 31),69	3523,(2, 103),9	3532,(4, 103),3	3535,(4, 106),3	3538,(4, 118),3	3541,(6, 33),27	3568,(2, 90),27	3595,(2, 94),24	3619,(2, 106),42	3661,(2, 112),12	3673,(2, 115),12	3685,(2, 118),18	3703,(3, 87),102	3805,(4, 112),6	3811,(6, 35),21	3832,(4, 75),15	3847,(6, 38),15	3862,(4, 55),21	3883,(4, 68),21	3904,(7, 24),3	3907,(7, 31),3	3910,(7, 38),6	3916,(7, 42),6	3922,(6, 42),156	4078,(3, 38),144	4222,(4, 64),51	4273,(8, 24),3	4276,(8, 33),3	4279,(8, 46),3	4282,(6, 46),27	4309,(4, 33),93	4402,(4, 84),48	4450,(4, 87),27	4477,(4, 90),33	4510,(4, 109),30	4540,(6, 52),24	4564,(4, 115),21	4585,(7, 52),6	4591,(7, 72),3	4594,(7, 87),3	4597,(6, 55),3	4600,(7, 19),21	4621,(7, 81),9	4630,(7, 90),3	4633,(6, 58),3	4636,(7, 84),12	4648,(7, 94),3	4651,(6, 61),108	4759,(8, 64),3	4762,(7, 100),3	4765,(7, 103),3	4768,(6, 64),24	4792,(7, 35),18	4810,(7, 55),24	4834,(7, 106),3	4837,(7, 115),3	4840,(8, 72),3	4843,(6, 68),30	4873,(4, 42),183	5056,(7, 20),54	5110,(8, 78),3	5113,(8, 87),3	5116,(6, 72),1062	6178,(8, 103),3	6181,(8, 109),3	6184,(6, 75),30	6214,(7, 109),9	6223,(6, 78),3	6226,(7, 27),75	6301,(7, 58),21	6322,(8, 112),3	6325,(9, 19),3	6328,(9, 42),3	6331,(6, 81),21	6352,(7, 78),18	6370,(6, 84),36	6406,(8, 20),12	6418,(9, 20),9	6427,(6, 87),357	6784,(8, 31),12	6796,(9, 52),3	6799,(9, 55),3	6802,(6, 90),9	6811,(4, 94),192	7003,(7, 33),87	7090,(8, 52),18	7108,(9, 68),3	7111,(6, 94),3	7114,(8, 75),15	7129,(9, 58),6	7135,(6, 97),24	7159,(7, 46),42	7201,(7, 61),33	7234,(7, 68),36	7270,(8, 35),24	7294,(9, 72),3	7297,(6, 100),3	7300,(7, 97),96	7396,(8, 84),12	7408,(8, 90),18	7426,(6, 103),147	7573,(7, 112),54	7627,(8, 27),42	7669,(9, 64),6	7675,(6, 106),21	7696,(8, 38),42	7738,(9, 38),9	7747,(6, 109),33	7780,(8, 94),15	7795,(8, 115),12	7807,(9, 81),3	7810,(6, 112),6	7816,(7, 75),132	7948,(6, 115),21	7969,(9, 87),6	7975,(6, 118),3	7978,(7, 64),153	8131,(9, 35),15	8146,(11, 19),6	8152,(11, 20),33	8185,(7, 118),84	8269,(8, 19),90	8359,(8, 61),36	8395,(9, 94),3	8398,(11, 24),3	8401,(8, 42),90	8491,(9, 75),9	8500,(9, 97),3	8503,(11, 27),78	8581,(8, 55),72	8653,(8, 58),42	8695,(8, 68),60	8755,(9, 78),12	8767,(11, 31),3	8770,(8, 97),18	8788,(8, 100),45	8833,(11, 33),21	8854,(9, 46),18	8872,(11, 35),165	9037,(9, 61),18	9055,(9, 109),3	9058,(12, 19),3	9061,(11, 38),129	9190,(8, 106),33	9223,(8, 118),27	9250,(9, 24),45	9295,(9, 33),36	9331,(9, 90),12	9343,(12, 20),3	9346,(12, 27),3	9349,(12, 33),3	9352,(11, 42),18	9370,(9, 27),69	9439,(9, 100),42	9481,(9, 103),12	9493,(12, 24),9	9502,(11, 46),45	9547,(9, 31),69	9616,(9, 106),12	9628,(9, 112),54	9682,(9, 115),15	9697,(9, 118),18	9715,(12, 31),12	9727,(12, 42),3	9730,(12, 46),3	9733,(11, 52),21	9754,(12, 35),36	9790,(12, 38),21	9970,(11, 55),147	10141,(11, 58),3	10210,(11, 61),9	10249,(11, 64),9	10315,(11, 68),3	10411,(11, 72),18	10477,(11, 75),3	10537,(11, 78),3	10552,(11, 81),15	10576,(11, 84),3	10600,(11, 87),21	10747,(11, 90),360	11107,(12, 52),18	11125,(12, 55),3	11128,(12, 68),3	11131,(12, 72),3	11134,(12, 75),3	11137,(12, 81),3	11140,(12, 87),6	11146,(11, 94),9	11155,(12, 100),3	11158,(12, 103),3	11161,(11, 97),27	11188,(12, 109),6	11194,(12, 115),3	11197,(12, 118),3	11200,(11, 100),3	11215,(11, 103),144	11359,(12, 58),126	11485,(12, 78),18	11503,(11, 106),3	11512,(11, 109),6	11524,(11, 112),15	11539,(12, 84),18	11557,(11, 115),114	11671,(12, 61),24	11695,(12, 64),78	11773,(12, 90),27	11809,(11, 118),36	11845,(12, 94),60	11905,(12, 97),54	11995,(1, 19),12	12007,(1, 20),3	12100,(1, 24),12	12205,(1, 27),3	12208,(12, 112),132	12358,(1, 31),222	12586,(1, 33),3	12592,(1, 35),81	12688,(1, 38),36	12745,(1, 42),69	12913,(1, 46),6	12919,(9, 84),222	13156,(1, 52),39	13270,(1, 55),18	13333,(1, 58),276	13654,(1, 61),30	13768,(1, 64),84	13885,(1, 68),3	13903,(1, 72),3	13975,(1, 75),3	14002,(1, 78),3	14143,(1, 81),18	14278,(1, 84),225	14515,(1, 87),3	14524,(1, 90),66	14701,(1, 94),3	14731,(1, 97),3	14830,(1, 100),84	14941,(1, 103),15	14956,(8, 81),285	15286,(1, 106),3	15301,(1, 109),99	15448,(1, 112),114	15568,(1, 115),33	15826,(1, 118),3	15829,(2, 72),375	20530,(12, 106),243	
91,(0, 4),45	136,(2, 16),3	139,(2, 18),45	184,(3, 16),3	187,(3, 22),3	190,(3, 26),3	193,(3, 30),3	196,(3, 34),12	208,(3, 37),6	214,(3, 60),3	217,(2, 22),3	220,(3, 74),3	223,(3, 92),3	241,(2, 32),24	271,(0, 9),45	316,(2, 30),66	382,(2, 34),3	409,(2, 37),15	424,(6, 16),9	433,(2, 41),6	439,(2, 63),3	442,(6, 18),9	451,(3, 77),6	457,(3, 99),3	460,(2, 45),9	469,(3, 54),15	484,(3, 89),6	490,(5, 18),3	493,(5, 22),3	496,(5, 26),3	499,(5, 32),3	502,(6, 22),63	565,(3, 18),99	664,(3, 32),66	730,(3, 41),93	823,(3, 57),12	835,(3, 67),15	850,(3, 105),3	853,(2, 50),15	868,(2, 54),48	916,(3, 80),15	931,(3, 117),3	934,(2, 57),21	955,(3, 86),9	964,(5, 30),12	976,(2, 60),18	994,(5, 16),27	1021,(2, 67),21	1042,(3, 102),6	1048,(5, 41),3	1051,(2, 71),120	1171,(2, 74),6	1177,(3, 63),33	1210,(3, 108),9	1219,(2, 77),57	1276,(5, 45),3	1279,(2, 80),3	1282,(3, 45),48	1330,(3, 83),36	1366,(5, 34),15	1381,(2, 83),18	1399,(5, 50),3	1402,(2, 86),51	1453,(6, 26),33	1486,(3, 50),54	1540,(3, 71),60	1600,(3, 96),33	1633,(3, 114),36	1669,(5, 54),3	1672,(5, 60),12	1684,(5, 80),3	1687,(5, 89),3	1690,(2, 26),1080	2770,(3, 120),30	2800,(5, 37),120	2920,(5, 63),18	2938,(5, 67),15	2953,(5, 77),12	2965,(5, 83),9	2974,(5, 92),3	2977,(2, 89),3	2980,(5, 57),69	3049,(5, 71),27	3076,(5, 74),72	3148,(5, 99),3	3151,(5, 105),6	3157,(8, 26),3	3160,(2, 92),24	3184,(8, 30),3	3187,(2, 96),9	3196,(5, 108),12	3208,(8, 32),3	3211,(2, 99),15	3226,(5, 111),6	3232,(2, 102),171	3403,(8, 45),3	3406,(2, 105),12	3418,(5, 114),6	3424,(5, 120),24	3448,(8, 50),3	3451,(6, 30),3	3454,(2, 108),12	3466,(8, 22),6	3472,(2, 111),9	3481,(8, 16),9	3490,(8, 41),9	3499,(8, 60),3	3502,(2, 114),9	3511,(8, 57),12	3523,(6, 32),18	3541,(2, 120),9	3550,(7, 16),3	3553,(7, 26),9	3562,(7, 32),3	3565,(7, 41),3	3568,(6, 34),243	3811,(7, 18),18	3829,(8, 63),3	3832,(7, 37),6	3838,(7, 45),6	3844,(6, 37),3	3847,(5, 86),51	3898,(7, 50),3	3901,(7, 57),3	3904,(8, 74),6	3910,(8, 77),3	3913,(8, 80),3	3916,(8, 89),3	3919,(6, 41),3	3922,(2, 117),201	4123,(5, 117),93	4216,(7, 30),24	4240,(8, 86),9	4249,(8, 99),6	4255,(6, 45),27	4282,(8, 92),9	4291,(7, 54),12	4303,(7, 67),9	4312,(7, 77),6	4318,(8, 96),9	4327,(8, 105),3	4330,(6, 50),171	4501,(7, 22),72	4573,(7, 74),12	4585,(8, 111),3	4588,(8, 114),3	4591,(6, 54),6	4597,(7, 86),3	4600,(8, 117),3	4603,(8, 120),3	4606,(10, 16),9	4615,(10, 18),3	4618,(10, 26),3	4621,(10, 57),3	4624,(10, 60),3	4627,(6, 57),6	4633,(7, 92),3	4636,(10, 63),3	4639,(6, 60),12	4651,(7, 34),102	4753,(7, 80),9	4762,(10, 77),3	4765,(6, 63),3	4768,(7, 60),18	4786,(7, 89),6	4792,(10, 30),9	4801,(10, 34),12	4813,(10, 67),6	4819,(10, 99),3	4822,(6, 67),21	4843,(7, 63),18	4861,(7, 71),93	4954,(7, 83),39	4993,(7, 96),6	4999,(7, 99),54	5053,(7, 105),3	5056,(8, 18),36	5110,(7, 117),3	5113,(6, 71),3	5116,(3, 111),930	6046,(7, 102),6	6052,(7, 108),21	6073,(8, 34),36	6109,(8, 71),57	6166,(10, 83),15	6181,(6, 74),3	6184,(10, 41),24	6208,(10, 102),12	6220,(6, 77),3	6223,(8, 108),42	6265,(10, 105),9	6274,(10, 120),3	6277,(6, 80),54	6331,(10, 45),24	6358,(6, 83),12	6370,(7, 111),33	6403,(10, 86),18	6421,(6, 86),6	6427,(5, 96),138	6565,(8, 37),204	6769,(10, 74),30	6799,(6, 89),3	6802,(12, 16),3	6805,(12, 22),3	6808,(12, 26),3	6811,(12, 41),3	6814,(6, 92),63	6877,(10, 80),33	6910,(10, 89),15	6928,(7, 114),63	6991,(8, 54),84	7090,(12, 18),15	7105,(12, 30),6	7111,(12, 32),6	7117,(12, 34),6	7123,(12, 45),3	7126,(6, 96),9	7135,(10, 108),18	7192,(6, 99),105	7297,(12, 63),3	7303,(6, 102),123	7426,(8, 67),123	7549,(12, 37),21	7570,(12, 71),3	7576,(6, 105),99	7675,(10, 22),60	7735,(6, 108),12	7747,(12, 50),18	7765,(12, 77),3	7768,(12, 80),6	7774,(12, 83),12	7786,(6, 111),24	7819,(6, 114),129	7948,(12, 67),24	7972,(6, 117),3	7981,(6, 120),21	8047,(11, 16),30	8077,(10, 32),63	8140,(12, 86),3	8143,(11, 18),3	8146,(8, 102),87	8233,(10, 50),63	8296,(10, 111),54	8350,(12, 96),3	8353,(11, 22),42	8401,(12, 105),3	8404,(11, 26),99	8503,(10, 71),114	8617,(12, 74),39	8656,(11, 30),111	8770,(11, 32),63	8833,(12, 89),9	8854,(11, 34),18	8872,(10, 92),183	9055,(11, 37),6	9061,(5, 102),267	9328,(11, 41),24	9352,(10, 117),75	9427,(12, 54),48	9475,(11, 45),27	9502,(12, 57),111	9613,(12, 60),51	9664,(12, 99),6	9670,(12, 102),12	9682,(12, 114),3	9685,(12, 117),3	9697,(11, 50),24	9757,(11, 54),213	10120,(11, 57),21	10192,(11, 60),18	10228,(11, 63),21	10291,(11, 67),24	10399,(11, 71),12	10444,(11, 74),33	10483,(11, 77),54	10543,(11, 80),9	10573,(11, 83),3	10588,(11, 86),12	10624,(11, 89),123	10747,(8, 83),246	10993,(12, 108),81	11110,(11, 92),9	11158,(11, 96),3	11197,(11, 99),3	11212,(11, 102),3	11215,(12, 111),63	11278,(12, 120),39	11407,(11, 105),96	11509,(11, 108),3	11521,(11, 111),3	11554,(11, 114),3	11698,(11, 117),111	11890,(11, 120),36	11977,(1, 16),3	11983,(1, 18),12	12073,(1, 22),21	12121,(1, 26),84	12343,(1, 30),15	12358,(12, 92),204	12580,(1, 32),6	12589,(1, 34),3	12685,(1, 37),3	12733,(1, 41),12	12820,(1, 45),93	13102,(1, 50),42	13219,(1, 54),51	13306,(1, 57),27	13636,(1, 60),18	13762,(1, 63),6	13882,(1, 67),3	13900,(1, 71),3	13909,(1, 74),66	13981,(1, 77),21	14101,(1, 80),42	14191,(1, 83),87	14506,(1, 86),9	14521,(1, 89),3	14692,(1, 92),6	14707,(1, 96),24	14809,(1, 99),21	14935,(1, 102),6	15259,(1, 105),27	15298,(1, 108),3	15439,(1, 111),9	15565,(1, 114),3	15811,(1, 117),15	15853,(1, 120),3	16204,(7, 120),4326	20530,(10, 37),402	20932,(10, 54),387	21319,(10, 96),2253	23572,(10, 114),474	
46,(0, 3),45	91,(2, 15),3	94,(2, 17),15	109,(2, 28),6	115,(2, 29),9	124,(2, 39),3	127,(2, 53),3	130,(2, 56),3	133,(2, 69),3	226,(0, 8),45	271,(4, 15),6	277,(4, 17),21	298,(4, 25),3	301,(4, 29),15	316,(4, 43),6	328,(4, 28),33	361,(4, 36),15	376,(4, 48),3	379,(4, 56),3	382,(4, 65),3	385,(2, 36),24	409,(6, 15),15	427,(2, 62),6	433,(6, 17),9	442,(2, 43),18	460,(5, 17),9	469,(2, 65),9	478,(5, 25),6	484,(4, 73),3	487,(4, 76),3	490,(2, 48),87	577,(6, 25),876	1453,(2, 25),237	1690,(4, 39),150	1840,(4, 53),15	1855,(4, 59),30	1885,(4, 62),9	1894,(4, 69),117	2011,(4, 79),75	2086,(4, 82),3	2089,(4, 85),3	2092,(4, 88),87	2179,(4, 91),27	2206,(4, 95),9	2215,(4, 98),3	2218,(4, 101),15	2233,(4, 104),9	2242,(4, 107),156	2398,(4, 110),12	2410,(4, 113),48	2458,(4, 116),24	2482,(4, 119),3	2485,(5, 15),36	2521,(5, 28),3	2524,(5, 29),180	2704,(5, 39),3	2707,(5, 56),6	2713,(5, 59),45	2758,(5, 65),3	2761,(5, 69),3	2764,(5, 73),3	2767,(5, 79),3	2770,(2, 59),30	2800,(2, 73),3	2803,(2, 76),12	2815,(2, 79),108	2923,(2, 82),27	2950,(2, 85),21	2971,(2, 88),6	2977,(5, 85),3	2980,(2, 91),180	3160,(5, 76),24	3184,(2, 95),3	3187,(5, 91),3	3190,(5, 95),3	3193,(5, 98),3	3196,(2, 98),15	3211,(5, 82),15	3226,(2, 101),6	3232,(5, 43),87	3319,(5, 62),60	3379,(5, 88),21	3400,(9, 17),3	3403,(2, 104),3	3406,(5, 113),6	3412,(9, 28),3	3415,(9, 29),3	3418,(2, 107),12	3430,(9, 36),3	3433,(6, 28),15	3448,(6, 29),3	3451,(9, 15),15	3466,(2, 110),6	3472,(9, 39),6	3478,(9, 43),3	3481,(2, 113),21	3502,(9, 48),6	3508,(9, 62),3	3511,(2, 116),6	3517,(2, 119),6	3523,(5, 53),96	3619,(5, 104),57	3676,(5, 107),129	3805,(5, 110),24	3829,(7, 15),3	3832,(6, 36),12	3844,(7, 17),18	3862,(6, 39),54	3916,(5, 116),21	3937,(5, 119),87	4024,(9, 25),18	4042,(9, 59),12	4054,(9, 65),6	4060,(9, 69),3	4063,(9, 82),12	4075,(9, 104),3	4078,(6, 43),3	4081,(9, 73),30	4111,(9, 85),12	4123,(7, 25),36	4159,(7, 28),9	4168,(7, 29),3	4171,(7, 39),18	4189,(7, 43),3	4192,(7, 53),6	4198,(7, 56),3	4201,(7, 65),6	4207,(7, 69),3	4210,(7, 79),3	4213,(7, 82),3	4216,(9, 101),6	4222,(10, 15),3	4225,(10, 28),3	4228,(10, 29),3	4231,(10, 39),3	4234,(10, 48),3	4237,(10, 82),3	4240,(7, 36),51	4291,(9, 76),18	4309,(6, 48),9	4318,(7, 48),63	4381,(7, 59),24	4405,(7, 62),42	4447,(7, 76),15	4462,(7, 88),9	4471,(7, 95),21	4492,(7, 116),6	4498,(7, 119),3	4501,(10, 25),18	4519,(10, 53),9	4528,(10, 69),6	4534,(10, 101),3	4537,(10, 110),3	4540,(9, 91),21	4561,(9, 113),3	4564,(6, 53),27	4591,(9, 119),9	4600,(6, 56),27	4627,(10, 98),9	4636,(6, 59),3	4639,(9, 56),45	4684,(9, 79),27	4711,(9, 95),33	4744,(10, 62),15	4759,(6, 62),6	4765,(9, 110),24	4792,(6, 65),9	4801,(9, 107),48	4849,(10, 73),15	4864,(10, 113),6	4873,(6, 69),30	4903,(5, 36),369	5272,(5, 48),330	5602,(5, 101),483	6085,(7, 85),84	6169,(12, 15),6	6175,(12, 28),3	6178,(6, 73),3	6181,(7, 101),27	6208,(12, 39),3	6211,(12, 62),3	6214,(6, 76),6	6223,(12, 73),3	6226,(6, 79),51	6277,(10, 36),30	6307,(10, 79),15	6322,(7, 104),12	6334,(7, 107),15	6349,(12, 82),3	6352,(6, 82),6	6358,(10, 59),33	6391,(10, 91),12	6403,(12, 85),3	6406,(6, 85),15	6421,(7, 73),183	6604,(7, 91),45	6649,(7, 98),96	6745,(10, 88),24	6769,(12, 25),15	6784,(6, 88),15	6799,(12, 88),3	6811,(6, 91),3	6814,(7, 110),51	6865,(7, 113),63	6928,(10, 17),102	7030,(10, 76),27	7057,(10, 85),36	7093,(10, 104),18	7114,(6, 95),12	7126,(12, 17),18	7144,(12, 36),15	7159,(6, 98),33	7192,(10, 43),102	7300,(6, 101),3	7303,(9, 88),264	7573,(6, 104),3	7576,(10, 65),93	7669,(12, 43),21	7690,(12, 65),6	7696,(6, 107),39	7735,(10, 116),18	7753,(10, 119),27	7780,(6, 110),6	7786,(12, 48),12	7798,(12, 56),18	7816,(6, 113),3	7819,(9, 98),147	7969,(6, 116),3	7972,(12, 79),6	7978,(6, 119),3	8032,(11, 15),15	8077,(11, 17),66	8146,(9, 116),219	8365,(12, 69),21	8386,(12, 76),15	8401,(11, 25),3	8404,(10, 95),60	8464,(12, 29),66	8530,(12, 59),39	8569,(12, 110),6	8581,(11, 28),60	8641,(11, 29),15	8656,(12, 53),108	8764,(12, 91),21	8785,(12, 95),39	8824,(12, 113),9	8842,(12, 98),33	8875,(12, 101),75	8950,(12, 104),30	8980,(12, 107),51	9037,(11, 36),18	9061,(12, 116),24	9190,(11, 39),54	9370,(11, 43),12	9547,(11, 48),27	9754,(11, 53),3	10117,(11, 56),3	10144,(11, 59),48	10219,(11, 62),9	10258,(11, 65),3	10318,(11, 69),3	10429,(11, 73),15	10480,(11, 76),3	10540,(11, 79),3	10567,(11, 82),6	10579,(11, 85),9	10621,(11, 88),3	11107,(11, 91),3	11155,(11, 95),3	11188,(11, 98),9	11203,(11, 101),9	11359,(11, 104),48	11506,(11, 107),3	11518,(11, 110),3	11539,(11, 113),15	11557,(12, 119),108	11671,(11, 116),27	11845,(11, 119),45	11932,(1, 15),45	11980,(1, 17),3	12112,(1, 25),9	12208,(1, 28),81	12289,(1, 29),54	12673,(1, 36),12	12724,(1, 39),3	12814,(1, 43),3	12919,(1, 48),42	13195,(1, 53),24	13288,(1, 56),18	13609,(1, 59),27	13684,(1, 62),78	13852,(1, 65),21	13888,(1, 69),9	13906,(1, 73),3	13978,(1, 76),3	14005,(1, 79),96	14161,(1, 82),30	14503,(1, 85),3	14518,(1, 88),3	14590,(1, 91),102	14704,(1, 95),3	14734,(1, 98),75	14914,(1, 101),21	14956,(1, 104),303	15289,(1, 107),9	15400,(1, 110),39	15562,(1, 113),3	15601,(1, 116),210	15829,(1, 119),24	15853,(9, 53),576	16429,(10, 56),873	17302,(10, 107),2142	
1,(0, 2),45	115,(3, 21),6	121,(3, 23),3	124,(3, 40),3	127,(3, 44),6	136,(3, 49),3	139,(3, 51),18	157,(3, 66),12	181,(0, 7),45	226,(3, 14),75	301,(3, 70),21	322,(4, 14),3	325,(4, 21),3	328,(8, 14),3	331,(8, 21),3	334,(8, 40),12	346,(8, 66),3	349,(8, 93),3	361,(0, 12),45	406,(6, 14),3	409,(4, 40),9	418,(4, 44),24	442,(5, 21),12	454,(5, 44),6	469,(5, 49),3	472,(5, 66),3	475,(5, 93),3	478,(6, 21),24	502,(4, 49),45	547,(4, 51),3	550,(4, 66),3	553,(4, 70),6	559,(9, 14),3	562,(9, 49),3	565,(6, 23),3	568,(4, 23),126	694,(4, 93),51	745,(5, 14),51	796,(5, 23),18	814,(5, 40),120	934,(5, 70),12	946,(10, 14),3	949,(10, 21),3	952,(10, 93),3	955,(9, 40),6	961,(9, 51),3	964,(3, 93),54	1018,(8, 44),18	1036,(10, 51),6	1042,(9, 66),3	1045,(9, 70),3	1051,(5, 51),63	1114,(9, 21),12	1126,(9, 23),21	1147,(10, 23),9	1156,(10, 49),21	1177,(9, 44),24	1201,(9, 93),30	1231,(10, 66),12	1243,(10, 70),6	1669,(8, 23),42	1711,(8, 49),144	1855,(8, 51),78	1933,(8, 70),48	1981,(10, 40),372	3916,(6, 40),3	4081,(6, 44),174	4318,(6, 49),12	4501,(6, 51),39	4801,(6, 66),21	4903,(6, 70),210	6877,(6, 93),234	8002,(11, 14),30	8185,(11, 21),168	8395,(11, 23),3	9244,(11, 40),84	9382,(11, 44),93	9574,(11, 49),123	9721,(11, 51),12	10261,(11, 66),30	10321,(11, 70),78	11119,(11, 93),27	11926,(1, 14),6	11989,(15, 121),3	11992,(16, 121),3	12001,(17, 121),3	12007,(18, 121),3	12010,(1, 21),63	12073,(19, 121),3	12076,(20, 121),3	12094,(1, 23),6	12106,(22, 121),3	12124,(24, 121),3	12133,(25, 121),3	12217,(26, 121),3	12220,(27, 121),3	12301,(28, 121),3	12355,(29, 121),3	12370,(30, 121),3	12592,(31, 121),3	12598,(32, 121),3	12604,(33, 121),3	12610,(34, 121),3	12685,(35, 121),3	12697,(36, 121),3	12727,(1, 40),6	12736,(38, 121),3	12739,(39, 121),3	12757,(41, 121),3	12817,(1, 44),3	12826,(42, 121),3	12829,(43, 121),3	12931,(46, 121),3	12961,(1, 49),141	13102,(48, 121),3	13141,(45, 121),3	13144,(1, 51),12	13156,(50, 121),3	13207,(52, 121),3	13300,(55, 121),3	13345,(57, 121),3	13621,(58, 121),3	13648,(59, 121),3	13666,(60, 121),3	13696,(61, 121),3	13774,(62, 121),3	13780,(63, 121),3	13864,(64, 121),3	13873,(1, 66),9	13885,(65, 121),3	13897,(1, 70),3	13900,(67, 121),3	13903,(68, 121),3	13909,(69, 121),3	13915,(71, 121),3	13921,(73, 121),3	13987,(74, 121),3	13990,(75, 121),3	13993,(76, 121),3	14014,(77, 121),3	14017,(78, 121),3	14113,(79, 121),3	14155,(80, 121),3	14203,(82, 121),3	14290,(83, 121),3	14515,(84, 121),3	14518,(85, 121),3	14527,(86, 121),3	14530,(87, 121),3	14533,(88, 121),3	14539,(89, 121),3	14602,(90, 121),3	14698,(1, 93),3	14701,(10, 44),1077	15778,(91, 121),3	15781,(92, 121),3	15784,(94, 121),3	15787,(95, 121),3	15790,(97, 121),3	15793,(98, 121),3	15796,(99, 121),3	15799,(100, 121),3	15802,(101, 121),3	15805,(102, 121),3	15808,(103, 121),3	15811,(81, 121),3	15814,(104, 121),3	15817,(105, 121),3	15820,(108, 121),3	15823,(109, 121),3	15826,(110, 121),3	15829,(111, 121),3	15832,(112, 121),3	15835,(113, 121),3	15838,(115, 121),3	15841,(116, 121),3	15844,(117, 121),3	15847,(118, 121),3	15856,(13, 121),3	15859,(47, 121),3	15865,(119, 121),3	16216,(72, 121),3	16441,(53, 121),3	17314,(56, 121),3	19456,(107, 121),3	20542,(120, 121),3	20944,(37, 121),3	21331,(54, 121),3	23584,(96, 121),3	24046,(106, 121),3	24058,(114, 121),3	
58,(2, 13),3	61,(2, 47),9	103,(3, 13),12	133,(3, 47),3	148,(4, 13),120	268,(5, 13),168	436,(10, 13),3	442,(4, 47),42	502,(5, 47),27	529,(10, 47),24	745,(9, 13),27	772,(9, 47),48	940,(8, 47),3	1366,(8, 13),87	3430,(7, 13),3	3703,(7, 47),27	5113,(12, 13),147	9811,(12, 47),1116	
# Outgoing
268,(5, 13),168	436,(10, 13),3	442,(5, 21),12	454,(5, 44),6	460,(5, 17),9	469,(5, 49),3	472,(5, 66),3	475,(5, 93),3	478,(5, 25),6	490,(5, 18),3	493,(5, 22),3	496,(5, 26),3	499,(5, 32),3	502,(5, 47),27	529,(10, 47),24	745,(5, 14),51	796,(5, 23),18	814,(5, 40),120	934,(5, 70),12	946,(10, 14),3	949,(10, 21),3	952,(10, 93),3	964,(5, 30),12	994,(5, 16),27	1036,(10, 51),6	1048,(5, 41),3	1051,(5, 51),63	1147,(10, 23),9	1156,(10, 49),21	1231,(10, 66),12	1243,(10, 70),6	1276,(5, 45),3	1366,(5, 34),15	1399,(5, 50),3	1669,(5, 54),3	1672,(5, 60),12	1684,(5, 80),3	1687,(5, 89),3	1981,(10, 40),372	2485,(5, 15),36	2521,(5, 28),3	2524,(5, 29),180	2704,(5, 39),3	2707,(5, 56),6	2713,(5, 59),45	2758,(5, 65),3	2761,(5, 69),3	2764,(5, 73),3	2767,(5, 79),3	2800,(5, 37),120	2920,(5, 63),18	2938,(5, 67),15	2953,(5, 77),12	2965,(5, 83),9	2974,(5, 92),3	2977,(5, 85),3	2980,(5, 57),69	3049,(5, 71),27	3076,(5, 74),72	3148,(5, 99),3	3151,(5, 105),6	3160,(5, 76),24	3187,(5, 91),3	3190,(5, 95),3	3193,(5, 98),3	3196,(5, 108),12	3211,(5, 82),15	3226,(5, 111),6	3232,(5, 43),87	3319,(5, 62),60	3379,(5, 88),21	3406,(5, 113),6	3418,(5, 114),6	3424,(5, 120),24	3523,(5, 53),96	3619,(5, 104),57	3676,(5, 107),129	3805,(5, 110),24	3847,(5, 86),51	3916,(5, 116),21	3937,(5, 119),87	4123,(5, 117),93	4222,(10, 15),3	4225,(10, 28),3	4228,(10, 29),3	4231,(10, 39),3	4234,(10, 48),3	4237,(10, 82),3	4501,(10, 25),18	4519,(10, 53),9	4528,(10, 69),6	4534,(10, 101),3	4537,(10, 110),3	4606,(10, 16),9	4615,(10, 18),3	4618,(10, 26),3	4621,(10, 57),3	4624,(10, 60),3	4627,(10, 98),9	4636,(10, 63),3	4744,(10, 62),15	4762,(10, 77),3	4792,(10, 30),9	4801,(10, 34),12	4813,(10, 67),6	4819,(10, 99),3	4849,(10, 73),15	4864,(10, 113),6	4903,(5, 36),369	5272,(5, 48),330	5602,(5, 101),483	6166,(10, 83),15	6184,(10, 41),24	6208,(10, 102),12	6265,(10, 105),9	6274,(10, 120),3	6277,(10, 36),30	6307,(10, 79),15	6331,(10, 45),24	6358,(10, 59),33	6391,(10, 91),12	6403,(10, 86),18	6427,(5, 96),138	6745,(10, 88),24	6769,(10, 74),30	6877,(10, 80),33	6910,(10, 89),15	6928,(10, 17),102	7030,(10, 76),27	7057,(10, 85),36	7093,(10, 104),18	7135,(10, 108),18	7192,(10, 43),102	7576,(10, 65),93	7675,(10, 22),60	7735,(10, 116),18	7753,(10, 119),27	8077,(10, 32),63	8233,(10, 50),63	8296,(10, 111),54	8404,(10, 95),60	8503,(10, 71),114	8872,(10, 92),183	9061,(5, 102),267	9352,(10, 117),75	12073,(19, 121),3	12076,(20, 121),3	12124,(24, 121),3	12220,(27, 121),3	12592,(31, 121),3	12604,(33, 121),3	12685,(35, 121),3	12736,(38, 121),3	12826,(42, 121),3	12931,(46, 121),3	13207,(52, 121),3	13300,(55, 121),3	13621,(58, 121),3	13696,(61, 121),3	13864,(64, 121),3	13903,(68, 121),3	13990,(75, 121),3	14017,(78, 121),3	14515,(84, 121),3	14530,(87, 121),3	14602,(90, 121),3	14701,(10, 44),1077	15784,(94, 121),3	15790,(97, 121),3	15799,(100, 121),3	15808,(103, 121),3	15811,(81, 121),3	15823,(109, 121),3	15832,(112, 121),3	15838,(115, 121),3	15847,(118, 121),3	16216,(72, 121),3	16429,(10, 56),873	17302,(10, 107),2142	20530,(10, 37),402	20932,(10, 54),387	21319,(10, 96),2253	23572,(10, 114),474	24046,(106, 121),3	
148,(4, 13),120	271,(4, 15),6	277,(4, 17),21	298,(4, 25),3	301,(4, 29),15	316,(4, 43),6	322,(4, 14),3	325,(4, 21),3	328,(4, 28),33	361,(4, 36),15	376,(4, 48),3	379,(4, 56),3	382,(4, 65),3	409,(4, 40),9	418,(4, 44),24	442,(4, 47),42	484,(4, 73),3	487,(4, 76),3	502,(4, 49),45	547,(4, 51),3	550,(4, 66),3	553,(4, 70),6	559,(9, 14),3	562,(9, 49),3	565,(4, 31),3	568,(4, 23),126	694,(4, 93),51	745,(9, 13),27	772,(9, 47),48	940,(4, 20),15	955,(9, 40),6	961,(9, 51),3	976,(4, 24),18	1021,(4, 27),12	1033,(4, 35),6	1039,(4, 38),3	1042,(9, 66),3	1045,(9, 70),3	1114,(9, 21),12	1126,(9, 23),21	1168,(4, 52),6	1174,(4, 58),3	1177,(9, 44),24	1201,(9, 93),30	1270,(4, 61),3	1273,(4, 78),3	1279,(4, 97),3	1381,(4, 72),15	1396,(4, 100),3	1402,(4, 19),24	1426,(4, 46),54	1480,(4, 81),6	1690,(4, 39),150	1840,(4, 53),15	1855,(4, 59),30	1885,(4, 62),9	1894,(4, 69),117	2011,(4, 79),75	2086,(4, 82),3	2089,(4, 85),3	2092,(4, 88),87	2179,(4, 91),27	2206,(4, 95),9	2215,(4, 98),3	2218,(4, 101),15	2233,(4, 104),9	2242,(4, 107),156	2398,(4, 110),12	2410,(4, 113),48	2458,(4, 116),24	2482,(4, 119),3	3400,(9, 17),3	3412,(9, 28),3	3415,(9, 29),3	3430,(9, 36),3	3451,(9, 15),15	3472,(9, 39),6	3478,(9, 43),3	3502,(9, 48),6	3508,(9, 62),3	3532,(4, 103),3	3535,(4, 106),3	3538,(4, 118),3	3805,(4, 112),6	3832,(4, 75),15	3862,(4, 55),21	3883,(4, 68),21	4024,(9, 25),18	4042,(9, 59),12	4054,(9, 65),6	4060,(9, 69),3	4063,(9, 82),12	4075,(9, 104),3	4081,(9, 73),30	4111,(9, 85),12	4216,(9, 101),6	4222,(4, 64),51	4291,(9, 76),18	4309,(4, 33),93	4402,(4, 84),48	4450,(4, 87),27	4477,(4, 90),33	4510,(4, 109),30	4540,(9, 91),21	4561,(9, 113),3	4564,(4, 115),21	4591,(9, 119),9	4639,(9, 56),45	4684,(9, 79),27	4711,(9, 95),33	4765,(9, 110),24	4801,(9, 107),48	4873,(4, 42),183	6325,(9, 19),3	6328,(9, 42),3	6418,(9, 20),9	6796,(9, 52),3	6799,(9, 55),3	6811,(4, 94),192	7108,(9, 68),3	7129,(9, 58),6	7294,(9, 72),3	7303,(9, 88),264	7669,(9, 64),6	7738,(9, 38),9	7807,(9, 81),3	7819,(9, 98),147	7969,(9, 87),6	8131,(9, 35),15	8146,(9, 116),219	8395,(9, 94),3	8491,(9, 75),9	8500,(9, 97),3	8755,(9, 78),12	8854,(9, 46),18	9037,(9, 61),18	9055,(9, 109),3	9250,(9, 24),45	9295,(9, 33),36	9331,(9, 90),12	9370,(9, 27),69	9439,(9, 100),42	9481,(9, 103),12	9547,(9, 31),69	9616,(9, 106),12	9628,(9, 112),54	9682,(9, 115),15	9697,(9, 118),18	11992,(16, 121),3	12007,(18, 121),3	12106,(22, 121),3	12217,(26, 121),3	12370,(30, 121),3	12598,(32, 121),3	12610,(34, 121),3	12757,(41, 121),3	12919,(9, 84),222	13141,(45, 121),3	13156,(50, 121),3	13345,(57, 121),3	13666,(60, 121),3	13780,(63, 121),3	13900,(67, 121),3	13915,(71, 121),3	13987,(74, 121),3	14014,(77, 121),3	14155,(80, 121),3	14290,(83, 121),3	14527,(86, 121),3	14539,(89, 121),3	15781,(92, 121),3	15796,(99, 121),3	15805,(102, 121),3	15817,(105, 121),3	15820,(108, 121),3	15829,(111, 121),3	15844,(117, 121),3	15853,(9, 53),576	20542,(120, 121),3	20944,(37, 121),3	21331,(54, 121),3	23584,(96, 121),3	24058,(114, 121),3	
103,(3, 13),12	115,(3, 21),6	121,(3, 23),3	124,(3, 40),3	127,(3, 44),6	133,(3, 47),3	136,(3, 49),3	139,(3, 51),18	157,(3, 66),12	181,(3, 27),3	184,(3, 16),3	187,(3, 22),3	190,(3, 26),3	193,(3, 30),3	196,(3, 34),12	208,(3, 37),6	214,(3, 60),3	217,(3, 31),3	220,(3, 74),3	223,(3, 92),3	226,(3, 14),75	301,(3, 70),21	328,(8, 14),3	331,(8, 21),3	334,(8, 40),12	346,(8, 66),3	349,(8, 93),3	361,(3, 19),24	385,(3, 20),15	400,(3, 24),21	421,(3, 42),3	427,(3, 33),9	436,(3, 35),6	442,(3, 46),3	445,(3, 68),3	448,(3, 72),3	451,(3, 77),6	457,(3, 99),3	469,(3, 54),15	484,(3, 89),6	490,(3, 52),9	499,(3, 55),27	526,(3, 58),21	547,(3, 61),15	562,(3, 81),3	565,(3, 18),99	664,(3, 32),66	730,(3, 41),93	823,(3, 57),12	835,(3, 67),15	850,(3, 105),3	853,(3, 64),24	877,(3, 75),6	883,(3, 84),3	886,(3, 90),9	895,(3, 97),6	901,(3, 100),3	904,(3, 106),6	910,(3, 109),6	916,(3, 80),15	931,(3, 117),3	934,(3, 115),3	937,(3, 118),3	940,(8, 47),3	955,(3, 86),9	964,(3, 93),54	1018,(8, 44),18	1042,(3, 102),6	1051,(3, 78),42	1093,(3, 94),24	1117,(3, 103),51	1177,(3, 63),33	1210,(3, 108),9	1219,(3, 112),51	1282,(3, 45),48	1330,(3, 83),36	1366,(8, 13),87	1486,(3, 50),54	1540,(3, 71),60	1600,(3, 96),33	1633,(3, 114),36	1669,(8, 23),42	1711,(8, 49),144	1855,(8, 51),78	1933,(8, 70),48	2770,(3, 120),30	3157,(8, 26),3	3184,(8, 30),3	3208,(8, 32),3	3403,(8, 45),3	3448,(8, 50),3	3466,(8, 22),6	3481,(8, 16),9	3490,(8, 41),9	3499,(8, 60),3	3511,(8, 57),12	3703,(3, 87),102	3829,(8, 63),3	3904,(8, 74),6	3910,(8, 77),3	3913,(8, 80),3	3916,(8, 89),3	4078,(3, 38),144	4240,(8, 86),9	4249,(8, 99),6	4273,(8, 24),3	4276,(8, 33),3	4279,(8, 46),3	4282,(8, 92),9	4318,(8, 96),9	4327,(8, 105),3	4585,(8, 111),3	4588,(8, 114),3	4600,(8, 117),3	4603,(8, 120),3	4759,(8, 64),3	4840,(8, 72),3	5056,(8, 18),36	5110,(8, 78),3	5113,(8, 87),3	5116,(3, 111),930	6073,(8, 34),36	6109,(8, 71),57	6178,(8, 103),3	6181,(8, 109),3	6223,(8, 108),42	6322,(8, 112),3	6406,(8, 20),12	6565,(8, 37),204	6784,(8, 31),12	6991,(8, 54),84	7090,(8, 52),18	7114,(8, 75),15	7270,(8, 35),24	7396,(8, 84),12	7408,(8, 90),18	7426,(8, 67),123	7627,(8, 27),42	7696,(8, 38),42	7780,(8, 94),15	7795,(8, 115),12	8146,(8, 102),87	8269,(8, 19),90	8359,(8, 61),36	8401,(8, 42),90	8581,(8, 55),72	8653,(8, 58),42	8695,(8, 68),60	8770,(8, 97),18	8788,(8, 100),45	9190,(8, 106),33	9223,(8, 118),27	10747,(8, 83),246	11989,(15, 121),3	12001,(17, 121),3	12133,(25, 121),3	12301,(28, 121),3	12355,(29, 121),3	12697,(36, 121),3	12739,(39, 121),3	12829,(43, 121),3	13102,(48, 121),3	13648,(59, 121),3	13774,(62, 121),3	13885,(65, 121),3	13909,(69, 121),3	13921,(73, 121),3	13993,(76, 121),3	14113,(79, 121),3	14203,(82, 121),3	14518,(85, 121),3	14533,(88, 121),3	14956,(8, 81),285	15778,(91, 121),3	15787,(95, 121),3	15793,(98, 121),3	15802,(101, 121),3	15814,(104, 121),3	15826,(110, 121),3	15835,(113, 121),3	15841,(116, 121),3	15865,(119, 121),3	16441,(53, 121),3	17314,(56, 121),3	19456,(107, 121),3	
58,(2, 13),3	61,(2, 47),9	91,(2, 15),3	94,(2, 17),15	109,(2, 28),6	115,(2, 29),9	124,(2, 39),3	127,(2, 53),3	130,(2, 56),3	133,(2, 69),3	136,(2, 16),3	139,(2, 18),45	184,(2, 19),15	199,(2, 20),18	217,(2, 22),3	220,(2, 24),9	229,(2, 27),12	241,(2, 32),24	265,(2, 33),12	277,(2, 35),24	301,(2, 38),6	307,(2, 42),3	310,(2, 52),6	316,(2, 30),66	382,(2, 34),3	385,(2, 36),24	409,(2, 37),15	424,(2, 61),3	427,(2, 62),6	433,(2, 41),6	439,(2, 63),3	442,(2, 43),18	460,(2, 45),9	469,(2, 65),9	478,(2, 46),12	490,(2, 48),87	577,(2, 31),276	853,(2, 50),15	868,(2, 54),48	916,(2, 55),18	934,(2, 57),21	955,(2, 58),21	976,(2, 60),18	994,(2, 64),27	1021,(2, 67),21	1042,(2, 68),9	1051,(2, 71),120	1171,(2, 74),6	1177,(2, 75),42	1219,(2, 77),57	1276,(2, 78),3	1279,(2, 80),3	1282,(2, 81),99	1381,(2, 83),18	1399,(2, 84),3	1402,(2, 86),51	1453,(2, 25),237	1690,(2, 26),1080	2770,(2, 59),30	2800,(2, 73),3	2803,(2, 76),12	2815,(2, 79),108	2923,(2, 82),27	2950,(2, 85),21	2971,(2, 88),6	2977,(2, 89),3	2980,(2, 91),180	3160,(2, 92),24	3184,(2, 95),3	3187,(2, 96),9	3196,(2, 98),15	3211,(2, 99),15	3226,(2, 101),6	3232,(2, 102),171	3403,(2, 104),3	3406,(2, 105),12	3418,(2, 107),12	3430,(7, 13),3	3433,(2, 87),12	3445,(2, 97),3	3448,(2, 100),3	3451,(2, 109),3	3454,(2, 108),12	3466,(2, 110),6	3472,(2, 111),9	3481,(2, 113),21	3502,(2, 114),9	3511,(2, 116),6	3517,(2, 119),6	3523,(2, 103),9	3541,(2, 120),9	3550,(7, 16),3	3553,(7, 26),9	3562,(7, 32),3	3565,(7, 41),3	3568,(2, 90),27	3595,(2, 94),24	3619,(2, 106),42	3661,(2, 112),12	3673,(2, 115),12	3685,(2, 118),18	3703,(7, 47),27	3811,(7, 18),18	3829,(7, 15),3	3832,(7, 37),6	3838,(7, 45),6	3844,(7, 17),18	3898,(7, 50),3	3901,(7, 57),3	3904,(7, 24),3	3907,(7, 31),3	3910,(7, 38),6	3916,(7, 42),6	3922,(2, 117),201	4123,(7, 25),36	4159,(7, 28),9	4168,(7, 29),3	4171,(7, 39),18	4189,(7, 43),3	4192,(7, 53),6	4198,(7, 56),3	4201,(7, 65),6	4207,(7, 69),3	4210,(7, 79),3	4213,(7, 82),3	4216,(7, 30),24	4240,(7, 36),51	4291,(7, 54),12	4303,(7, 67),9	4312,(7, 77),6	4318,(7, 48),63	4381,(7, 59),24	4405,(7, 62),42	4447,(7, 76),15	4462,(7, 88),9	4471,(7, 95),21	4492,(7, 116),6	4498,(7, 119),3	4501,(7, 22),72	4573,(7, 74),12	4585,(7, 52),6	4591,(7, 72),3	4594,(7, 87),3	4597,(7, 86),3	4600,(7, 19),21	4621,(7, 81),9	4630,(7, 90),3	4633,(7, 92),3	4636,(7, 84),12	4648,(7, 94),3	4651,(7, 34),102	4753,(7, 80),9	4762,(7, 100),3	4765,(7, 103),3	4768,(7, 60),18	4786,(7, 89),6	4792,(7, 35),18	4810,(7, 55),24	4834,(7, 106),3	4837,(7, 115),3	4843,(7, 63),18	4861,(7, 71),93	4954,(7, 83),39	4993,(7, 96),6	4999,(7, 99),54	5053,(7, 105),3	5056,(7, 20),54	5110,(7, 117),3	5113,(12, 13),147	6046,(7, 102),6	6052,(7, 108),21	6085,(7, 85),84	6169,(12, 15),6	6175,(12, 28),3	6181,(7, 101),27	6208,(12, 39),3	6211,(12, 62),3	6214,(7, 109),9	6223,(12, 73),3	6226,(7, 27),75	6301,(7, 58),21	6322,(7, 104),12	6334,(7, 107),15	6349,(12, 82),3	6352,(7, 78),18	6370,(7, 111),33	6403,(12, 85),3	6421,(7, 73),183	6604,(7, 91),45	6649,(7, 98),96	6769,(12, 25),15	6799,(12, 88),3	6802,(12, 16),3	6805,(12, 22),3	6808,(12, 26),3	6811,(12, 41),3	6814,(7, 110),51	6865,(7, 113),63	6928,(7, 114),63	7003,(7, 33),87	7090,(12, 18),15	7105,(12, 30),6	7111,(12, 32),6	7117,(12, 34),6	7123,(12, 45),3	7126,(12, 17),18	7144,(12, 36),15	7159,(7, 46),42	7201,(7, 61),33	7234,(7, 68),36	7297,(12, 63),3	7300,(7, 97),96	7549,(12, 37),21	7570,(12, 71),3	7573,(7, 112),54	7669,(12, 43),21	7690,(12, 65),6	7747,(12, 50),18	7765,(12, 77),3	7768,(12, 80),6	7774,(12, 83),12	7786,(12, 48),12	7798,(12, 56),18	7816,(7, 75),132	7948,(12, 67),24	7972,(12, 79),6	7978,(7, 64),153	8140,(12, 86),3	8185,(7, 118),84	8350,(12, 96),3	8365,(12, 69),21	8386,(12, 76),15	8401,(12, 105),3	8464,(12, 29),66	8530,(12, 59),39	8569,(12, 110),6	8617,(12, 74),39	8656,(12, 53),108	8764,(12, 91),21	8785,(12, 95),39	8824,(12, 113),9	8833,(12, 89),9	8842,(12, 98),33	8875,(12, 101),75	8950,(12, 104),30	8980,(12, 107),51	9058,(12, 19),3	9061,(12, 116),24	9343,(12, 20),3	9346,(12, 27),3	9349,(12, 33),3	9427,(12, 54),48	9493,(12, 24),9	9502,(12, 57),111	9613,(12, 60),51	9664,(12, 99),6	9670,(12, 102),12	9682,(12, 114),3	9685,(12, 117),3	9715,(12, 31),12	9727,(12, 42),3	9730,(12, 46),3	9754,(12, 35),36	9790,(12, 38),21	9811,(12, 47),1116	10993,(12, 108),81	11107,(12, 52),18	11125,(12, 55),3	11128,(12, 68),3	11131,(12, 72),3	11134,(12, 75),3	11137,(12, 81),3	11140,(12, 87),6	11155,(12, 100),3	11158,(12, 103),3	11188,(12, 109),6	11194,(12, 115),3	11197,(12, 118),3	11215,(12, 111),63	11278,(12, 120),39	11359,(12, 58),126	11485,(12, 78),18	11539,(12, 84),18	11557,(12, 119),108	11671,(12, 61),24	11695,(12, 64),78	11773,(12, 90),27	11845,(12, 94),60	11905,(12, 97),54	12208,(12, 112),132	12358,(12, 92),204	15829,(2, 72),375	16204,(7, 120),4326	20530,(12, 106),243	
1,(0, 2),45	46,(0, 3),45	91,(0, 4),45	136,(0, 5),45	181,(0, 7),45	226,(0, 8),45	271,(0, 9),45	316,(0, 10),45	361,(0, 12),45	406,(6, 14),3	409,(6, 15),15	424,(6, 16),9	433,(6, 17),9	442,(6, 18),9	451,(6, 19),24	475,(6, 20),3	478,(6, 21),24	502,(6, 22),63	565,(6, 23),3	568,(6, 24),9	577,(6, 25),876	1453,(6, 26),33	1486,(6, 27),1947	3433,(6, 28),15	3448,(6, 29),3	3451,(6, 30),3	3454,(6, 31),69	3523,(6, 32),18	3541,(6, 33),27	3568,(6, 34),243	3811,(6, 35),21	3832,(6, 36),12	3844,(6, 37),3	3847,(6, 38),15	3862,(6, 39),54	3916,(6, 40),3	3919,(6, 41),3	3922,(6, 42),156	4078,(6, 43),3	4081,(6, 44),174	4255,(6, 45),27	4282,(6, 46),27	4309,(6, 48),9	4318,(6, 49),12	4330,(6, 50),171	4501,(6, 51),39	4540,(6, 52),24	4564,(6, 53),27	4591,(6, 54),6	4597,(6, 55),3	4600,(6, 56),27	4627,(6, 57),6	4633,(6, 58),3	4636,(6, 59),3	4639,(6, 60),12	4651,(6, 61),108	4759,(6, 62),6	4765,(6, 63),3	4768,(6, 64),24	4792,(6, 65),9	4801,(6, 66),21	4822,(6, 67),21	4843,(6, 68),30	4873,(6, 69),30	4903,(6, 70),210	5113,(6, 71),3	5116,(6, 72),1062	6178,(6, 73),3	6181,(6, 74),3	6184,(6, 75),30	6214,(6, 76),6	6220,(6, 77),3	6223,(6, 78),3	6226,(6, 79),51	6277,(6, 80),54	6331,(6, 81),21	6352,(6, 82),6	6358,(6, 83),12	6370,(6, 84),36	6406,(6, 85),15	6421,(6, 86),6	6427,(6, 87),357	6784,(6, 88),15	6799,(6, 89),3	6802,(6, 90),9	6811,(6, 91),3	6814,(6, 92),63	6877,(6, 93),234	7111,(6, 94),3	7114,(6, 95),12	7126,(6, 96),9	7135,(6, 97),24	7159,(6, 98),33	7192,(6, 99),105	7297,(6, 100),3	7300,(6, 101),3	7303,(6, 102),123	7426,(6, 103),147	7573,(6, 104),3	7576,(6, 105),99	7675,(6, 106),21	7696,(6, 107),39	7735,(6, 108),12	7747,(6, 109),33	7780,(6, 110),6	7786,(6, 111),24	7810,(6, 112),6	7816,(6, 113),3	7819,(6, 114),129	7948,(6, 115),21	7969,(6, 116),3	7972,(6, 117),3	7975,(6, 118),3	7978,(6, 119),3	7981,(6, 120),21	8002,(11, 14),30	8032,(11, 15),15	8047,(11, 16),30	8077,(11, 17),66	8143,(11, 18),3	8146,(11, 19),6	8152,(11, 20),33	8185,(11, 21),168	8353,(11, 22),42	8395,(11, 23),3	8398,(11, 24),3	8401,(11, 25),3	8404,(11, 26),99	8503,(11, 27),78	8581,(11, 28),60	8641,(11, 29),15	8656,(11, 30),111	8767,(11, 31),3	8770,(11, 32),63	8833,(11, 33),21	8854,(11, 34),18	8872,(11, 35),165	9037,(11, 36),18	9055,(11, 37),6	9061,(11, 38),129	9190,(11, 39),54	9244,(11, 40),84	9328,(11, 41),24	9352,(11, 42),18	9370,(11, 43),12	9382,(11, 44),93	9475,(11, 45),27	9502,(11, 46),45	9547,(11, 48),27	9574,(11, 49),123	9697,(11, 50),24	9721,(11, 51),12	9733,(11, 52),21	9754,(11, 53),3	9757,(11, 54),213	9970,(11, 55),147	10117,(11, 56),3	10120,(11, 57),21	10141,(11, 58),3	10144,(11, 59),48	10192,(11, 60),18	10210,(11, 61),9	10219,(11, 62),9	10228,(11, 63),21	10249,(11, 64),9	10258,(11, 65),3	10261,(11, 66),30	10291,(11, 67),24	10315,(11, 68),3	10318,(11, 69),3	10321,(11, 70),78	10399,(11, 71),12	10411,(11, 72),18	10429,(11, 73),15	10444,(11, 74),33	10477,(11, 75),3	10480,(11, 76),3	10483,(11, 77),54	10537,(11, 78),3	10540,(11, 79),3	10543,(11, 80),9	10552,(11, 81),15	10567,(11, 82),6	10573,(11, 83),3	10576,(11, 84),3	10579,(11, 85),9	10588,(11, 86),12	10600,(11, 87),21	10621,(11, 88),3	10624,(11, 89),123	10747,(11, 90),360	11107,(11, 91),3	11110,(11, 92),9	11119,(11, 93),27	11146,(11, 94),9	11155,(11, 95),3	11158,(11, 96),3	11161,(11, 97),27	11188,(11, 98),9	11197,(11, 99),3	11200,(11, 100),3	11203,(11, 101),9	11212,(11, 102),3	11215,(11, 103),144	11359,(11, 104),48	11407,(11, 105),96	11503,(11, 106),3	11506,(11, 107),3	11509,(11, 108),3	11512,(11, 109),6	11518,(11, 110),3	11521,(11, 111),3	11524,(11, 112),15	11539,(11, 113),15	11554,(11, 114),3	11557,(11, 115),114	11671,(11, 116),27	11698,(11, 117),111	11809,(11, 118),36	11845,(11, 119),45	11890,(11, 120),36	11926,(1, 14),6	11932,(1, 15),45	11977,(1, 16),3	11980,(1, 17),3	11983,(1, 18),12	11995,(1, 19),12	12007,(1, 20),3	12010,(1, 21),63	12073,(1, 22),21	12094,(1, 23),6	12100,(1, 24),12	12112,(1, 25),9	12121,(1, 26),84	12205,(1, 27),3	12208,(1, 28),81	12289,(1, 29),54	12343,(1, 30),15	12358,(1, 31),222	12580,(1, 32),6	12586,(1, 33),3	12589,(1, 34),3	12592,(1, 35),81	12673,(1, 36),12	12685,(1, 37),3	12688,(1, 38),36	12724,(1, 39),3	12727,(1, 40),6	12733,(1, 41),12	12745,(1, 42),69	12814,(1, 43),3	12817,(1, 44),3	12820,(1, 45),93	12913,(1, 46),6	12919,(1, 48),42	12961,(1, 49),141	13102,(1, 50),42	13144,(1, 51),12	13156,(1, 52),39	13195,(1, 53),24	13219,(1, 54),51	13270,(1, 55),18	13288,(1, 56),18	13306,(1, 57),27	13333,(1, 58),276	13609,(1, 59),27	13636,(1, 60),18	13654,(1, 61),30	13684,(1, 62),78	13762,(1, 63),6	13768,(1, 64),84	13852,(1, 65),21	13873,(1, 66),9	13882,(1, 67),3	13885,(1, 68),3	13888,(1, 69),9	13897,(1, 70),3	13900,(1, 71),3	13903,(1, 72),3	13906,(1, 73),3	13909,(1, 74),66	13975,(1, 75),3	13978,(1, 76),3	13981,(1, 77),21	14002,(1, 78),3	14005,(1, 79),96	14101,(1, 80),42	14143,(1, 81),18	14161,(1, 82),30	14191,(1, 83),87	14278,(1, 84),225	14503,(1, 85),3	14506,(1, 86),9	14515,(1, 87),3	14518,(1, 88),3	14521,(1, 89),3	14524,(1, 90),66	14590,(1, 91),102	14692,(1, 92),6	14698,(1, 93),3	14701,(1, 94),3	14704,(1, 95),3	14707,(1, 96),24	14731,(1, 97),3	14734,(1, 98),75	14809,(1, 99),21	14830,(1, 100),84	14914,(1, 101),21	14935,(1, 102),6	14941,(1, 103),15	14956,(1, 104),303	15259,(1, 105),27	15286,(1, 106),3	15289,(1, 107),9	15298,(1, 108),3	15301,(1, 109),99	15400,(1, 110),39	15439,(1, 111),9	15448,(1, 112),114	15562,(1, 113),3	15565,(1, 114),3	15568,(1, 115),33	15601,(1, 116),210	15811,(1, 117),15	15826,(1, 118),3	15829,(1, 119),24	15853,(1, 120),3	15856,(13, 121),3	15859,(47, 121),3	
