36966
# CPU
403,52,13	475,110,13	503,48,13	931,29,13	1385,26,13	1415,70,13	1429,74,13	1557,90,13	1631,103,13	1661,21,13	1695,87,13	1709,114,13	1763,72,13	1865,100,13	1911,105,13	1925,34,13	1941,40,13	2007,75,13	2020,86,13	2033,119,13	2545,41,13	2558,51,13	2591,60,13	2604,71,13	2617,84,13	2637,18,13	2650,32,13	2663,38,13	2981,78,13	3021,92,13	3034,102,13	3047,111,13	3549,13,13	3627,14,13	3645,15,13	3658,22,13	3671,30,13	3684,66,13	3769,82,13	3782,115,13	3815,120,13	36965,121,1	
0,0,1	1,2,13	14,6,13	27,7,13	40,20,13	53,77,13	66,17,13	79,67,13	92,35,13	105,107,13	118,33,13	131,76,13	144,31,13	157,42,13	170,39,13	183,37,13	196,56,13	209,36,13	851,44,13	897,108,13	910,113,13	
3,1,13	16,10,13	29,93,13	42,12,13	55,68,13	68,43,13	81,28,13	94,101,13	107,99,13	120,94,13	133,98,13	146,81,13	159,25,13	172,64,13	185,53,13	198,49,13	849,109,13	862,104,13	875,65,13	899,27,13	
7,4,13	20,8,13	33,11,13	46,59,13	59,89,13	72,88,13	85,69,13	98,62,13	111,116,13	124,117,13	137,95,13	150,80,13	163,47,13	176,79,13	189,54,13	202,106,13	215,55,13	228,19,13	893,58,13	906,73,13	
5,3,13	18,5,13	31,9,13	44,46,13	57,63,13	70,61,13	83,23,13	96,118,13	109,83,13	122,96,13	135,16,13	148,97,13	161,112,13	174,91,13	187,45,13	200,24,13	213,85,13	226,50,13	405,57,13	
# Incoming
19,(2, 30),12	31,(2, 34),4	35,(1, 13),4	39,(2, 48),336	375,(2, 52),28	403,(1, 32),2	405,(2, 60),4	409,(2, 90),6	415,(2, 102),20	435,(2, 103),14	449,(2, 110),26	475,(1, 38),8	483,(1, 41),16	499,(1, 48),4	503,(1, 51),8	511,(1, 86),22	533,(1, 90),2	535,(1, 103),14	549,(1, 114),30	579,(1, 115),20	599,(3, 14),6	605,(3, 15),158	763,(3, 22),14	777,(3, 26),40	817,(3, 29),2	819,(3, 60),10	829,(3, 74),8	837,(3, 100),10	847,(4, 13),2	849,(3, 111),42	891,(4, 29),40	931,(4, 40),70	1001,(4, 70),48	1049,(4, 92),62	1111,(6, 26),274	1385,(6, 120),4	1389,(10, 15),20	1409,(10, 21),4	1413,(10, 70),2	1415,(10, 74),14	1429,(10, 75),38	1467,(10, 84),6	1473,(10, 87),76	1549,(10, 90),8	1557,(10, 103),74	1631,(10, 105),14	1645,(10, 119),8	1653,(5, 21),8	1661,(5, 22),6	1667,(5, 72),20	1687,(5, 84),6	1693,(5, 87),2	1695,(5, 92),2	1697,(5, 114),12	1709,(8, 18),30	1739,(8, 34),10	1749,(8, 51),2	1751,(8, 72),12	1763,(8, 78),8	1771,(8, 100),94	1865,(8, 102),42	1907,(8, 105),4	1911,(8, 119),4	1915,(7, 13),6	1921,(7, 34),4	1925,(7, 40),16	1941,(7, 66),6	1947,(7, 71),52	1999,(7, 75),8	2007,(7, 86),6	2013,(7, 119),2	2015,(93, 121),510	2525,(9, 41),20	2545,(9, 51),10	2555,(9, 60),36	2591,(9, 71),12	2603,(9, 84),6	2609,(9, 102),18	2627,(11, 18),10	2637,(11, 22),2	2639,(11, 32),10	2649,(11, 38),6	2655,(11, 66),22	2677,(11, 78),304	2981,(11, 82),4	2985,(11, 92),36	3021,(11, 102),2	3023,(11, 111),8	3031,(20, 121),510	3541,(12, 13),8	3549,(12, 14),78	3627,(12, 15),18	3645,(12, 22),12	3657,(12, 30),8	3665,(12, 66),18	3683,(12, 82),86	3769,(12, 115),6	3775,(12, 120),40	3815,(46, 121),510	4325,(59, 121),510	4835,(77, 121),510	5345,(68, 121),510	5855,(63, 121),510	6365,(89, 121),510	6875,(17, 121),510	7385,(43, 121),510	7895,(61, 121),510	8405,(88, 121),510	8915,(67, 121),510	9425,(28, 121),510	9935,(23, 121),510	10445,(69, 121),510	10955,(35, 121),510	11465,(101, 121),510	11975,(118, 121),510	12485,(62, 121),510	12995,(107, 121),510	13505,(99, 121),510	14015,(83, 121),510	14525,(116, 121),510	15035,(33, 121),510	15545,(94, 121),510	16055,(96, 121),510	16565,(117, 121),510	17075,(76, 121),510	17585,(98, 121),510	18095,(16, 121),510	18605,(95, 121),510	19115,(31, 121),510	19625,(81, 121),510	20135,(97, 121),510	20645,(80, 121),510	21155,(42, 121),510	21665,(25, 121),510	22175,(112, 121),510	22685,(47, 121),510	23195,(39, 121),510	23705,(64, 121),510	24215,(91, 121),510	24725,(79, 121),510	25235,(37, 121),510	25745,(53, 121),510	26255,(45, 121),510	26765,(54, 121),510	27275,(56, 121),510	27785,(49, 121),510	28295,(24, 121),510	28805,(106, 121),510	29315,(36, 121),510	29825,(85, 121),510	30335,(55, 121),510	30845,(50, 121),510	31355,(19, 121),510	31865,(57, 121),510	32375,(109, 121),510	32885,(44, 121),510	33395,(104, 121),510	33905,(65, 121),510	34415,(58, 121),510	34925,(108, 121),510	35435,(27, 121),510	35945,(73, 121),510	36455,(113, 121),510	
39,(1, 56),2	55,(12, 36),2	849,(4, 44),2	853,(4, 108),2	895,(5, 108),2	899,(9, 113),2	
1,(0, 1),2	13,(0, 10),2	17,(0, 12),2	35,(2, 43),4	847,(3, 109),2	851,(4, 104),2	855,(11, 65),2	897,(9, 27),2	
5,(0, 4),2	9,(0, 8),2	15,(0, 11),2	891,(5, 58),2	893,(5, 73),2	
3,(0, 3),2	7,(0, 5),2	11,(0, 9),2	41,(10, 16),2	57,(12, 50),2	403,(2, 57),2	
# Outgoing

1,(0, 1),2	3,(0, 3),2	5,(0, 4),2	7,(0, 5),2	9,(0, 8),2	11,(0, 9),2	13,(0, 10),2	15,(0, 11),2	17,(0, 12),2	19,(2, 30),12	31,(2, 34),4	35,(2, 43),4	39,(2, 48),336	375,(2, 52),28	403,(2, 57),2	405,(2, 60),4	409,(2, 90),6	415,(2, 102),20	435,(2, 103),14	449,(2, 110),26	1111,(6, 26),274	1385,(6, 120),4	1915,(7, 13),6	1921,(7, 34),4	1925,(7, 40),16	1941,(7, 66),6	1947,(7, 71),52	1999,(7, 75),8	2007,(7, 86),6	2013,(7, 119),2	3031,(20, 121),510	4835,(77, 121),510	6875,(17, 121),510	8915,(67, 121),510	10955,(35, 121),510	12995,(107, 121),510	15035,(33, 121),510	17075,(76, 121),510	19115,(31, 121),510	21155,(42, 121),510	23195,(39, 121),510	25235,(37, 121),510	27275,(56, 121),510	29315,(36, 121),510	32885,(44, 121),510	34925,(108, 121),510	36455,(113, 121),510	
35,(1, 13),4	39,(1, 56),2	41,(10, 16),2	55,(12, 36),2	57,(12, 50),2	403,(1, 32),2	475,(1, 38),8	483,(1, 41),16	499,(1, 48),4	503,(1, 51),8	511,(1, 86),22	533,(1, 90),2	535,(1, 103),14	549,(1, 114),30	579,(1, 115),20	1389,(10, 15),20	1409,(10, 21),4	1413,(10, 70),2	1415,(10, 74),14	1429,(10, 75),38	1467,(10, 84),6	1473,(10, 87),76	1549,(10, 90),8	1557,(10, 103),74	1631,(10, 105),14	1645,(10, 119),8	2015,(93, 121),510	3541,(12, 13),8	3549,(12, 14),78	3627,(12, 15),18	3645,(12, 22),12	3657,(12, 30),8	3665,(12, 66),18	3683,(12, 82),86	3769,(12, 115),6	3775,(12, 120),40	5345,(68, 121),510	7385,(43, 121),510	9425,(28, 121),510	11465,(101, 121),510	13505,(99, 121),510	15545,(94, 121),510	17585,(98, 121),510	19625,(81, 121),510	21665,(25, 121),510	23705,(64, 121),510	25745,(53, 121),510	27785,(49, 121),510	32375,(109, 121),510	33395,(104, 121),510	33905,(65, 121),510	35435,(27, 121),510	
847,(4, 13),2	849,(4, 44),2	851,(4, 104),2	853,(4, 108),2	855,(11, 65),2	891,(4, 29),40	931,(4, 40),70	1001,(4, 70),48	1049,(4, 92),62	1709,(8, 18),30	1739,(8, 34),10	1749,(8, 51),2	1751,(8, 72),12	1763,(8, 78),8	1771,(8, 100),94	1865,(8, 102),42	1907,(8, 105),4	1911,(8, 119),4	2627,(11, 18),10	2637,(11, 22),2	2639,(11, 32),10	2649,(11, 38),6	2655,(11, 66),22	2677,(11, 78),304	2981,(11, 82),4	2985,(11, 92),36	3021,(11, 102),2	3023,(11, 111),8	4325,(59, 121),510	6365,(89, 121),510	8405,(88, 121),510	10445,(69, 121),510	12485,(62, 121),510	14525,(116, 121),510	16565,(117, 121),510	18605,(95, 121),510	20645,(80, 121),510	22685,(47, 121),510	24725,(79, 121),510	26765,(54, 121),510	28805,(106, 121),510	30335,(55, 121),510	31355,(19, 121),510	34415,(58, 121),510	35945,(73, 121),510	
599,(3, 14),6	605,(3, 15),158	763,(3, 22),14	777,(3, 26),40	817,(3, 29),2	819,(3, 60),10	829,(3, 74),8	837,(3, 100),10	847,(3, 109),2	849,(3, 111),42	891,(5, 58),2	893,(5, 73),2	895,(5, 108),2	897,(9, 27),2	899,(9, 113),2	1653,(5, 21),8	1661,(5, 22),6	1667,(5, 72),20	1687,(5, 84),6	1693,(5, 87),2	1695,(5, 92),2	1697,(5, 114),12	2525,(9, 41),20	2545,(9, 51),10	2555,(9, 60),36	2591,(9, 71),12	2603,(9, 84),6	2609,(9, 102),18	3815,(46, 121),510	5855,(63, 121),510	7895,(61, 121),510	9935,(23, 121),510	11975,(118, 121),510	14015,(83, 121),510	16055,(96, 121),510	18095,(16, 121),510	20135,(97, 121),510	22175,(112, 121),510	24215,(91, 121),510	26255,(45, 121),510	28295,(24, 121),510	29825,(85, 121),510	30845,(50, 121),510	31865,(57, 121),510	
