837
# CPU
358,5,1	493,8,1	496,11,1	520,14,1	586,17,1	832,20,1	
10,2,1	11,7,1	12,10,1	259,4,1	568,13,1	571,16,1	595,19,1	
0,0,1	1,1,1	2,6,1	3,9,1	4,12,1	38,3,1	134,15,1	149,18,1	836,21,1	
# Incoming
259,(1, 5),99	358,(1, 8),135	493,(1, 11),3	496,(2, 14),24	520,(2, 20),3	571,(1, 17),15	595,(1, 20),237	
1,(0, 2),9	10,(1, 4),249	496,(1, 13),72	568,(1, 16),3	586,(1, 19),9	
11,(2, 3),27	38,(2, 15),96	134,(2, 18),15	149,(7, 21),3	152,(10, 21),3	260,(4, 21),3	359,(5, 21),3	494,(8, 21),3	497,(11, 21),3	521,(14, 21),3	569,(13, 21),3	572,(16, 21),3	587,(17, 21),3	596,(19, 21),3	833,(20, 21),3	
# Outgoing
359,(5, 21),3	494,(8, 21),3	497,(11, 21),3	521,(14, 21),3	587,(17, 21),3	833,(20, 21),3	
11,(2, 3),27	38,(2, 15),96	134,(2, 18),15	149,(7, 21),3	152,(10, 21),3	260,(4, 21),3	496,(2, 14),24	520,(2, 20),3	569,(13, 21),3	572,(16, 21),3	596,(19, 21),3	
1,(0, 2),9	10,(1, 4),249	259,(1, 5),99	358,(1, 8),135	493,(1, 11),3	496,(1, 13),72	568,(1, 16),3	571,(1, 17),15	586,(1, 19),9	595,(1, 20),237	
