462
# CPU
277,26,2	285,31,2	289,16,2	293,23,2	305,19,2	309,35,2	313,36,2	337,29,2	341,39,2	369,37,2	373,27,2	
13,4,2	15,38,2	43,24,2	59,30,2	67,32,2	95,33,2	99,12,2	111,18,2	177,15,2	289,22,2	349,40,2	461,41,1	
9,3,2	11,17,2	13,34,2	165,10,2	173,13,2	321,28,2	
5,2,2	19,6,2	39,14,2	55,9,2	151,21,2	225,25,2	
0,0,1	1,1,2	3,20,2	15,5,2	43,8,2	87,11,2	103,7,2	
# Incoming
177,(1, 19),96	273,(2, 26),4	277,(2, 31),8	285,(3, 16),4	289,(1, 23),4	293,(3, 19),12	305,(3, 35),4	309,(3, 36),4	313,(3, 39),8	321,(1, 29),16	337,(1, 39),4	341,(3, 37),28	369,(4, 27),4	
9,(0, 4),4	15,(2, 15),8	23,(2, 24),20	43,(2, 30),16	59,(2, 32),8	67,(2, 33),28	95,(3, 12),4	99,(3, 18),12	111,(3, 22),8	119,(17, 41),8	127,(34, 41),8	135,(6, 41),8	143,(14, 41),8	151,(9, 41),8	161,(1, 15),16	177,(2, 40),84	261,(21, 41),8	273,(1, 22),16	289,(25, 41),8	297,(26, 41),8	305,(31, 41),8	313,(16, 41),8	321,(10, 41),8	329,(13, 41),8	341,(1, 40),8	349,(20, 41),8	357,(5, 41),8	365,(8, 41),8	373,(11, 41),8	381,(7, 41),8	389,(23, 41),8	397,(19, 41),8	405,(35, 41),8	413,(36, 41),8	421,(28, 41),8	429,(29, 41),8	437,(39, 41),8	445,(37, 41),8	453,(27, 41),8	
5,(0, 3),4	13,(1, 13),148	161,(4, 10),4	165,(4, 13),8	293,(1, 28),28	
1,(0, 2),4	15,(4, 6),4	19,(4, 14),20	43,(3, 9),12	87,(3, 25),4	103,(4, 21),48	173,(4, 25),52	
7,(2, 5),8	15,(3, 8),28	55,(3, 11),32	87,(4, 7),16	
# Outgoing
297,(26, 41),8	305,(31, 41),8	313,(16, 41),8	389,(23, 41),8	397,(19, 41),8	405,(35, 41),8	413,(36, 41),8	429,(29, 41),8	437,(39, 41),8	445,(37, 41),8	453,(27, 41),8	
15,(4, 6),4	19,(4, 14),20	87,(4, 7),16	103,(4, 21),48	161,(4, 10),4	165,(4, 13),8	173,(4, 25),52	369,(4, 27),4	
15,(3, 8),28	43,(3, 9),12	55,(3, 11),32	87,(3, 25),4	95,(3, 12),4	99,(3, 18),12	111,(3, 22),8	119,(17, 41),8	127,(34, 41),8	285,(3, 16),4	293,(3, 19),12	305,(3, 35),4	309,(3, 36),4	313,(3, 39),8	321,(10, 41),8	329,(13, 41),8	341,(3, 37),28	421,(28, 41),8	
7,(2, 5),8	15,(2, 15),8	23,(2, 24),20	43,(2, 30),16	59,(2, 32),8	67,(2, 33),28	135,(6, 41),8	143,(14, 41),8	151,(9, 41),8	177,(2, 40),84	261,(21, 41),8	273,(2, 26),4	277,(2, 31),8	289,(25, 41),8	
1,(0, 2),4	5,(0, 3),4	9,(0, 4),4	13,(1, 13),148	161,(1, 15),16	177,(1, 19),96	273,(1, 22),16	289,(1, 23),4	293,(1, 28),28	321,(1, 29),16	337,(1, 39),4	341,(1, 40),8	349,(20, 41),8	357,(5, 41),8	365,(8, 41),8	373,(11, 41),8	381,(7, 41),8	
