9213
# CPU
253,10,33	4347,22,33	5335,32,33	5431,42,33	5505,52,33	5747,62,33	6599,72,33	6731,82,33	6795,92,33	6951,102,33	7233,112,33	
225,9,33	4345,21,33	4585,31,33	5429,41,33	5503,51,33	5621,61,33	6197,71,33	6793,91,33	6919,101,33	7231,111,33	8351,81,33	
197,8,33	4343,20,33	4581,30,33	5409,40,33	5489,50,33	5617,60,33	6195,70,33	6613,80,33	6765,90,33	6913,100,33	7227,110,33	7531,120,33	
169,7,33	4341,19,33	4549,29,33	5403,39,33	5477,49,33	5593,59,33	6193,69,33	6611,79,33	6751,89,33	6909,99,33	7203,109,33	7501,119,33	
141,6,33	4303,18,33	5089,28,33	5395,38,33	5475,48,33	6547,78,33	6749,88,33	6907,98,33	7201,108,33	7473,118,33	8729,58,33	9175,68,33	
113,5,33	4187,17,33	4449,27,33	5383,37,33	5473,47,33	5527,57,33	6117,67,33	6535,77,33	6745,87,33	6849,97,33	7187,107,33	7471,117,33	
85,4,33	4441,26,33	4831,16,33	5349,36,33	5459,46,33	5525,56,33	6107,66,33	6533,76,33	6741,86,33	6841,96,33	7181,106,33	7403,116,33	
57,3,33	4427,25,33	5347,35,33	5455,45,33	5523,55,33	6105,65,33	6421,75,33	6737,85,33	6801,95,33	6967,105,33	7401,115,33	8227,15,33	
29,2,33	281,12,33	4143,14,33	4425,24,33	5345,34,33	5433,44,33	5517,54,33	6103,64,33	6345,74,33	6735,84,33	6797,94,33	6953,104,33	7399,114,33	
0,0,1	1,1,33	34,11,33	2829,13,33	2862,43,33	2895,53,33	2928,63,33	2961,73,33	2994,83,33	3027,103,33	3060,113,33	3207,33,33	4037,93,33	4361,23,33	9212,121,1	
# Incoming
225,(0, 10),28	255,(4, 22),2	259,(2, 22),2	261,(7, 22),4	267,(8, 42),2	269,(4, 32),2	271,(8, 22),8	279,(8, 52),2	281,(3, 22),22	303,(6, 32),4	307,(3, 32),10	317,(8, 32),6	323,(8, 62),2	325,(8, 72),2	327,(2, 32),2	329,(1, 22),12	341,(9, 22),2	343,(9, 32),8	351,(8, 82),6	357,(8, 92),2	359,(8, 112),2	361,(5, 22),108	469,(6, 22),24	493,(9, 52),6	499,(5, 42),18	523,(5, 52),8	535,(5, 82),2	537,(6, 52),8	545,(7, 52),30	575,(7, 62),10	585,(7, 82),2	587,(5, 72),8	595,(6, 82),2	597,(9, 62),14	613,(3, 42),12	625,(2, 42),22	647,(6, 72),6	653,(4, 72),2	655,(6, 102),8	665,(3, 82),2	667,(2, 52),2	669,(4, 42),20	689,(4, 92),2	691,(9, 82),10	703,(1, 32),38	751,(4, 62),6	761,(3, 52),24	785,(3, 62),8	793,(9, 92),12	807,(4, 102),2	827,(7, 72),14	841,(1, 42),22	879,(2, 62),20	905,(6, 112),10	915,(4, 52),56	971,(4, 82),10	981,(8, 102),8	997,(3, 72),8	1019,(5, 62),32	1051,(7, 92),12	1063,(9, 102),24	1087,(2, 72),12	1099,(7, 102),28	1133,(2, 92),4	1147,(4, 112),8	1155,(7, 112),12	1177,(3, 92),38	1215,(6, 62),34	1263,(5, 102),12	1275,(2, 82),18	1293,(3, 102),10	1303,(9, 42),28	1331,(1, 52),50	1381,(3, 112),36	1447,(6, 92),38	1491,(1, 62),60	1551,(5, 32),88	1639,(5, 112),22	1661,(6, 42),134	1795,(7, 32),52	1881,(2, 102),12	1893,(5, 92),100	2015,(1, 72),2	2017,(2, 112),12	2029,(9, 112),40	2135,(7, 42),48	2235,(1, 82),56	2389,(12, 22),20	2461,(1, 92),2	2481,(12, 32),20	2583,(12, 42),18	2665,(1, 102),6	2675,(12, 52),16	2707,(12, 62),12	2813,(12, 112),2	2845,(1, 112),14	2859,(12, 82),74	2987,(9, 72),226	3555,(12, 92),36	3681,(12, 102),62	4345,(11, 22),2	4585,(11, 32),750	5429,(11, 42),2	5503,(11, 52),2	5621,(11, 62),126	6197,(11, 72),12	6209,(12, 72),390	6637,(11, 82),94	6793,(11, 92),2	6919,(11, 102),32	7231,(11, 112),2	
197,(0, 9),28	225,(6, 21),4	229,(6, 31),2	253,(4, 21),2	255,(7, 21),2	257,(2, 21),2	259,(5, 21),20	279,(3, 21),2	281,(5, 41),2	283,(8, 21),14	297,(8, 31),4	303,(3, 31),4	307,(8, 41),2	309,(8, 61),2	317,(3, 41),8	325,(2, 31),2	327,(1, 21),2	329,(3, 51),2	331,(7, 31),2	335,(7, 61),2	337,(7, 71),2	345,(8, 81),6	355,(2, 41),30	385,(8, 91),6	391,(3, 61),6	397,(8, 101),2	399,(6, 41),22	421,(8, 51),18	463,(8, 111),8	485,(5, 31),14	503,(7, 91),4	515,(6, 51),22	537,(4, 31),32	583,(6, 71),2	599,(5, 91),2	601,(4, 41),16	617,(5, 51),26	643,(6, 91),4	647,(4, 61),4	651,(10, 51),2	653,(10, 71),2	657,(2, 51),10	667,(7, 81),8	675,(10, 31),8	685,(2, 61),2	687,(7, 111),2	695,(1, 31),8	703,(10, 81),6	709,(10, 111),6	723,(7, 101),6	729,(10, 61),16	747,(6, 81),20	777,(4, 81),6	791,(4, 101),2	795,(3, 91),2	799,(5, 101),6	809,(6, 101),4	813,(8, 71),14	839,(1, 41),2	841,(4, 51),74	915,(6, 111),14	937,(5, 61),22	989,(3, 71),8	997,(2, 71),90	1087,(4, 71),28	1115,(5, 81),10	1127,(2, 81),4	1137,(4, 111),10	1147,(10, 91),10	1157,(10, 101),10	1193,(5, 71),38	1255,(2, 101),4	1259,(1, 51),72	1331,(3, 101),8	1361,(3, 111),2	1363,(7, 41),60	1429,(2, 91),20	1473,(1, 61),18	1491,(4, 91),38	1529,(6, 61),102	1631,(7, 51),54	1685,(10, 41),68	1987,(2, 111),22	2009,(1, 71),6	2077,(12, 31),2	2229,(1, 81),6	2341,(12, 21),18	2455,(1, 91),6	2615,(1, 101),50	2665,(5, 111),54	2719,(12, 61),6	2731,(12, 71),8	2761,(12, 81),6	2833,(1, 111),12	2845,(10, 21),292	3137,(12, 41),130	3267,(12, 51),224	3515,(12, 91),40	3629,(12, 101),52	3763,(12, 111),18	4343,(11, 21),2	4581,(11, 31),4	5409,(11, 41),20	5489,(11, 51),14	5617,(11, 61),4	6195,(11, 71),2	6613,(11, 81),24	6765,(11, 91),28	6913,(11, 101),6	7227,(11, 111),4	7231,(3, 81),1120	
169,(0, 8),28	197,(3, 20),6	203,(3, 30),4	207,(3, 50),8	215,(6, 20),2	217,(6, 30),4	231,(2, 20),26	257,(4, 20),2	259,(7, 20),2	261,(9, 40),2	263,(4, 30),6	271,(4, 40),4	275,(9, 60),2	279,(5, 40),2	281,(9, 20),6	287,(9, 30),8	295,(7, 30),2	297,(2, 30),8	305,(9, 90),2	307,(1, 20),20	327,(6, 40),6	333,(7, 40),2	335,(3, 60),4	339,(5, 20),14	353,(9, 80),8	385,(6, 50),6	395,(7, 60),2	399,(3, 80),2	401,(9, 70),16	439,(9, 50),26	469,(5, 30),16	485,(1, 30),210	695,(2, 40),52	747,(2, 50),46	793,(4, 50),2	795,(4, 60),4	799,(4, 80),8	807,(5, 50),6	813,(5, 60),18	831,(6, 70),2	833,(5, 120),2	835,(1, 40),4	839,(4, 110),2	841,(7, 50),10	851,(7, 80),8	859,(7, 100),2	865,(3, 70),10	875,(10, 70),2	877,(2, 60),2	879,(3, 40),58	937,(10, 40),4	941,(10, 100),2	943,(7, 90),12	955,(6, 90),2	957,(9, 110),8	965,(9, 120),6	975,(6, 100),2	977,(10, 90),4	983,(2, 70),14	997,(4, 70),16	1013,(9, 100),32	1051,(5, 70),20	1071,(7, 110),14	1093,(3, 90),6	1099,(5, 80),12	1111,(6, 60),80	1203,(4, 90),28	1231,(5, 90),14	1249,(4, 120),2	1257,(1, 50),2	1259,(2, 80),16	1275,(3, 100),6	1281,(10, 50),22	1307,(3, 110),4	1311,(10, 60),18	1335,(7, 120),10	1345,(10, 80),10	1363,(3, 120),10	1407,(5, 100),14	1445,(5, 110),14	1459,(10, 120),10	1471,(1, 60),2	1511,(7, 70),92	1613,(2, 90),142	1755,(10, 110),24	1815,(10, 20),44	1869,(2, 100),12	1881,(10, 30),46	1959,(2, 110),4	2007,(1, 70),2	2041,(12, 20),4	2081,(12, 40),2	2085,(1, 80),144	2271,(2, 120),62	2333,(6, 80),120	2453,(1, 90),2	2455,(6, 110),74	2529,(6, 120),46	2613,(1, 100),2	2615,(12, 30),58	2673,(12, 50),2	2705,(12, 60),2	2725,(12, 70),6	2769,(12, 90),4	2775,(12, 100),2	2831,(1, 110),2	2833,(4, 100),474	3491,(12, 80),24	3743,(12, 110),20	4135,(1, 120),2	4341,(11, 20),2	4429,(12, 120),36	4549,(11, 30),32	5403,(11, 40),6	5477,(11, 50),12	5593,(11, 60),24	6193,(11, 70),2	6611,(11, 80),2	6751,(11, 90),14	6909,(11, 100),4	7203,(11, 110),24	7501,(11, 120),30	
141,(0, 7),28	169,(3, 19),2	171,(3, 29),6	177,(4, 19),2	187,(6, 29),2	189,(4, 39),2	209,(6, 39),6	217,(2, 19),14	231,(6, 19),20	251,(5, 29),6	257,(8, 19),2	259,(4, 29),4	263,(9, 59),2	265,(8, 29),2	267,(9, 29),8	277,(9, 79),2	283,(6, 49),2	295,(2, 29),2	301,(9, 99),2	305,(1, 19),2	311,(8, 79),2	313,(8, 99),4	331,(3, 59),4	335,(5, 69),4	339,(6, 59),8	353,(2, 39),2	363,(8, 39),22	387,(2, 49),6	397,(3, 79),2	401,(1, 29),84	499,(9, 69),16	515,(9, 89),6	529,(8, 89),6	537,(9, 109),4	567,(9, 119),10	593,(6, 89),2	595,(3, 39),18	613,(8, 49),14	629,(4, 49),16	645,(4, 59),2	647,(5, 49),20	667,(4, 89),2	669,(6, 109),2	671,(3, 89),2	673,(8, 69),14	687,(10, 19),4	691,(5, 89),2	693,(8, 59),22	715,(10, 39),6	721,(10, 49),6	727,(10, 99),2	729,(3, 49),32	761,(4, 69),6	767,(6, 69),38	805,(6, 79),4	811,(4, 109),2	813,(6, 99),12	825,(10, 69),4	829,(6, 119),2	831,(1, 39),4	835,(10, 79),8	843,(10, 119),2	859,(2, 59),18	877,(9, 19),70	953,(10, 89),8	967,(2, 69),16	989,(4, 99),8	1027,(4, 79),22	1049,(10, 29),52	1101,(3, 99),2	1111,(5, 119),4	1137,(2, 99),2	1155,(4, 119),4	1179,(2, 79),74	1255,(1, 49),2	1273,(3, 109),2	1275,(5, 19),132	1419,(2, 89),10	1429,(10, 109),26	1457,(1, 59),14	1471,(3, 69),206	1677,(5, 39),100	1777,(5, 109),16	1795,(3, 119),26	1821,(5, 59),54	1875,(8, 119),64	1957,(2, 109),2	1999,(1, 69),8	2029,(2, 119),12	2047,(12, 19),30	2079,(12, 39),2	2083,(1, 79),2	2085,(8, 109),130	2215,(9, 39),158	2419,(1, 89),34	2453,(5, 79),116	2569,(12, 29),14	2587,(1, 99),26	2663,(10, 59),80	2743,(12, 49),18	2767,(12, 89),2	2773,(12, 99),2	2785,(12, 79),24	2811,(12, 109),2	2815,(1, 109),16	2831,(9, 49),156	3047,(12, 119),8	3601,(5, 99),210	3811,(12, 59),140	4133,(1, 119),2	4135,(12, 69),148	4303,(11, 19),38	4471,(11, 29),78	5395,(11, 39),8	5475,(11, 49),2	5589,(11, 59),4	6189,(11, 69),4	6547,(11, 79),64	6749,(11, 89),2	6907,(11, 99),2	7201,(11, 109),2	7473,(11, 119),28	
113,(0, 6),28	141,(2, 18),76	217,(3, 18),62	279,(4, 18),2	281,(7, 18),12	293,(7, 28),2	297,(9, 58),2	299,(9, 68),2	301,(1, 18),4	305,(2, 28),20	325,(3, 38),2	327,(3, 58),2	329,(2, 38),24	353,(5, 18),8	361,(8, 38),2	363,(9, 38),20	383,(9, 88),2	385,(2, 48),2	387,(7, 38),8	395,(1, 28),6	401,(3, 28),74	475,(9, 98),2	479,(7, 48),8	487,(7, 58),4	491,(8, 58),6	499,(7, 78),2	501,(7, 88),2	507,(4, 28),30	537,(5, 28),44	581,(5, 48),2	583,(5, 58),2	585,(5, 68),2	587,(7, 68),10	597,(8, 48),10	607,(8, 78),6	613,(5, 88),4	617,(9, 108),6	625,(3, 48),26	651,(4, 48),2	655,(7, 108),4	659,(8, 88),6	665,(10, 48),6	673,(2, 58),12	685,(10, 98),2	693,(5, 98),2	695,(10, 78),8	703,(7, 98),20	723,(8, 18),40	763,(10, 18),10	773,(10, 88),6	783,(5, 78),16	809,(4, 108),2	815,(1, 38),16	831,(8, 68),28	859,(10, 28),12	875,(3, 98),4	879,(8, 98),10	889,(10, 118),10	907,(2, 68),60	967,(5, 38),52	1019,(10, 38),28	1049,(4, 88),26	1075,(3, 78),18	1117,(2, 78),10	1127,(5, 118),10	1159,(3, 88),18	1183,(8, 108),44	1229,(1, 48),26	1267,(7, 118),26	1303,(3, 108),4	1311,(3, 118),18	1345,(4, 78),62	1421,(5, 108),24	1455,(1, 58),2	1457,(2, 88),156	1613,(4, 68),152	1765,(4, 118),20	1785,(9, 18),32	1825,(2, 98),44	1869,(9, 28),68	1937,(9, 48),48	1997,(1, 68),2	2013,(2, 118),4	2017,(10, 108),28	2045,(12, 18),2	2055,(1, 78),28	2083,(2, 108),112	2195,(4, 98),218	2417,(1, 88),2	2419,(9, 78),56	2475,(9, 118),50	2531,(12, 38),2	2549,(12, 48),4	2569,(1, 98),18	2587,(10, 58),76	2705,(1, 108),110	2815,(3, 68),794	3609,(4, 38),348	3957,(10, 68),54	4011,(12, 28),48	4059,(12, 78),2	4061,(12, 88),14	4109,(12, 98),4	4121,(1, 118),12	4133,(12, 108),2	4187,(11, 18),116	4303,(12, 58),124	4427,(12, 118),2	4449,(11, 28),22	4471,(8, 28),618	5383,(11, 38),12	5473,(11, 48),2	5527,(11, 58),62	5589,(8, 118),508	6117,(11, 68),72	6535,(11, 78),12	6745,(11, 88),4	6849,(11, 98),58	7187,(11, 108),14	7471,(11, 118),2	7473,(4, 58),1256	8729,(12, 68),446	
85,(0, 5),28	113,(2, 17),2	115,(2, 37),22	137,(3, 17),2	139,(2, 57),2	141,(4, 17),2	149,(3, 27),12	167,(3, 67),2	169,(4, 37),6	179,(4, 27),10	189,(6, 17),2	191,(3, 47),4	203,(6, 27),6	215,(3, 77),2	251,(7, 17),2	255,(8, 17),2	261,(2, 27),34	295,(9, 17),2	297,(1, 17),4	301,(8, 27),2	303,(8, 47),2	305,(8, 87),2	307,(9, 27),2	309,(9, 47),8	317,(9, 67),2	319,(9, 77),8	333,(6, 47),2	341,(7, 27),46	393,(1, 27),2	395,(9, 107),6	417,(7, 37),46	463,(7, 87),4	467,(6, 67),2	475,(3, 37),120	597,(7, 97),2	617,(4, 47),12	631,(7, 117),2	633,(6, 77),4	637,(7, 77),6	643,(10, 47),4	647,(2, 47),10	657,(4, 57),4	661,(4, 67),6	669,(3, 87),2	671,(6, 37),76	747,(7, 47),16	767,(4, 77),10	777,(9, 97),10	787,(10, 87),2	789,(4, 97),2	791,(7, 67),14	807,(1, 37),8	815,(10, 27),8	825,(6, 117),2	827,(8, 107),4	837,(3, 57),28	865,(7, 57),32	901,(2, 67),6	907,(8, 37),20	927,(8, 67),18	945,(10, 57),8	955,(7, 107),12	967,(10, 67),8	981,(4, 87),8	989,(6, 57),100	1089,(8, 117),24	1115,(2, 77),2	1117,(9, 87),18	1141,(1, 47),88	1229,(9, 117),16	1247,(4, 117),2	1249,(8, 77),56	1315,(2, 87),104	1419,(3, 117),18	1441,(1, 57),14	1459,(4, 107),30	1489,(8, 97),38	1527,(9, 37),140	1677,(3, 97),118	1795,(10, 17),20	1817,(2, 97),8	1825,(3, 107),34	1859,(10, 97),16	1927,(10, 107),8	1955,(2, 107),2	1973,(1, 67),24	1997,(6, 87),50	2047,(1, 77),8	2055,(6, 107),44	2099,(10, 77),32	2139,(9, 57),30	2195,(2, 117),76	2271,(10, 37),60	2333,(12, 17),8	2359,(12, 27),2	2361,(12, 37),2	2363,(1, 87),54	2537,(12, 47),10	2557,(1, 97),12	2695,(1, 107),10	2705,(6, 97),210	2915,(8, 57),192	3107,(12, 57),2	3109,(12, 67),2	3111,(12, 77),2	3113,(12, 87),4	3117,(12, 107),4	3121,(12, 117),6	3207,(10, 117),36	3591,(12, 97),38	4021,(1, 117),100	4161,(11, 17),26	4441,(11, 27),8	5349,(11, 37),34	5459,(11, 47),14	5525,(11, 57),2	6107,(11, 67),10	6533,(11, 77),2	6741,(11, 87),4	6841,(11, 97),8	7181,(11, 107),6	7403,(11, 117),68	
57,(0, 4),28	85,(2, 16),10	103,(2, 36),2	122,(3, 16),12	137,(2, 46),2	139,(3, 26),10	177,(3, 36),8	191,(6, 46),2	193,(5, 36),2	195,(3, 76),2	197,(5, 16),40	237,(5, 26),14	251,(6, 16),26	277,(6, 26),6	285,(1, 16),12	297,(7, 26),30	327,(7, 66),4	331,(8, 26),2	333,(9, 26),2	335,(9, 56),2	337,(9, 76),2	339,(3, 66),4	343,(8, 66),2	347,(1, 26),46	393,(2, 26),78	471,(8, 96),2	473,(7, 46),6	479,(9, 36),6	485,(9, 46),8	493,(6, 36),22	517,(5, 46),6	523,(8, 46),6	533,(5, 76),2	535,(8, 56),6	541,(7, 96),2	543,(9, 66),6	549,(9, 106),4	557,(6, 56),26	585,(6, 76),8	597,(5, 86),2	599,(7, 36),30	629,(10, 26),10	639,(8, 86),6	645,(5, 96),2	647,(10, 36),2	649,(10, 46),2	653,(6, 96),2	655,(10, 56),2	659,(7, 116),4	663,(10, 66),2	669,(2, 56),4	673,(3, 46),56	729,(7, 76),18	747,(9, 86),16	763,(7, 56),26	789,(10, 76),2	793,(3, 86),2	795,(8, 76),10	805,(1, 36),2	807,(10, 106),4	811,(10, 116),2	813,(3, 56),24	837,(5, 56),40	899,(2, 66),2	901,(6, 106),4	925,(7, 86),18	959,(5, 106),8	967,(7, 16),80	1047,(8, 16),32	1095,(5, 116),2	1103,(2, 76),12	1131,(2, 86),2	1139,(1, 46),2	1141,(8, 36),42	1183,(10, 16),28	1211,(10, 86),30	1251,(3, 96),20	1271,(3, 106),2	1273,(6, 66),80	1353,(6, 86),52	1437,(1, 56),4	1449,(2, 96),8	1527,(8, 106),100	1725,(7, 106),34	1953,(2, 106),2	1965,(1, 66),8	2011,(2, 116),2	2021,(1, 76),26	2047,(5, 66),96	2143,(6, 116),54	2207,(3, 116),114	2331,(1, 86),32	2363,(12, 16),26	2409,(12, 26),72	2501,(12, 36),30	2533,(12, 46),4	2553,(12, 56),2	2555,(1, 96),2	2565,(12, 66),2	2567,(12, 76),2	2683,(1, 106),12	2743,(10, 96),42	2809,(12, 86),2	2815,(12, 116),2	2869,(1, 116),1152	4075,(12, 96),34	4113,(12, 106),12	4157,(11, 16),4	4161,(8, 116),196	4427,(11, 26),14	4441,(9, 16),390	5347,(11, 36),2	5455,(11, 46),4	5523,(11, 56),2	5525,(9, 96),154	5679,(9, 116),140	6105,(11, 66),2	6421,(11, 76),112	6737,(11, 86),4	6801,(11, 96),40	6967,(11, 106),214	7401,(11, 116),2	
29,(0, 3),28	74,(2, 15),2	95,(2, 25),4	105,(2, 45),8	120,(4, 15),18	138,(4, 25),2	161,(4, 35),2	163,(4, 55),2	185,(5, 15),4	191,(5, 25),2	193,(6, 15),10	245,(7, 15),6	253,(7, 45),2	257,(5, 45),2	259,(8, 15),4	263,(8, 25),2	265,(9, 15),2	269,(8, 55),2	275,(4, 45),4	279,(9, 65),2	281,(8, 75),2	283,(1, 15),2	285,(6, 25),18	303,(9, 85),2	307,(6, 35),20	327,(8, 105),2	329,(9, 95),2	333,(8, 35),10	343,(1, 25),4	347,(6, 45),38	385,(9, 35),6	397,(7, 85),2	401,(7, 25),16	417,(9, 25),16	435,(6, 65),8	443,(8, 45),20	471,(2, 35),154	625,(10, 15),4	629,(7, 95),2	631,(6, 75),2	633,(7, 105),2	641,(6, 95),2	643,(7, 65),12	655,(4, 75),2	657,(10, 45),2	659,(10, 55),2	661,(10, 75),2	667,(5, 55),6	673,(9, 75),16	691,(2, 65),4	695,(5, 35),88	783,(4, 85),6	791,(10, 115),2	797,(1, 35),8	805,(7, 55),22	827,(2, 55),32	859,(8, 95),14	877,(5, 105),8	885,(1, 45),254	1139,(2, 75),40	1179,(5, 65),14	1193,(6, 105),12	1205,(6, 115),8	1213,(9, 105),10	1231,(4, 95),10	1241,(4, 105),6	1253,(2, 85),2	1255,(4, 65),90	1345,(7, 115),12	1357,(8, 65),28	1385,(8, 85),22	1409,(1, 55),28	1437,(7, 35),74	1521,(5, 115),18	1539,(10, 35),22	1573,(4, 115),18	1591,(10, 25),52	1643,(10, 95),38	1685,(7, 75),40	1783,(2, 95),34	1817,(6, 55),128	1947,(1, 65),18	1965,(2, 105),22	2009,(2, 115),2	2019,(1, 75),2	2021,(8, 115),56	2077,(9, 55),62	2139,(10, 105),44	2311,(1, 85),20	2331,(5, 95),62	2393,(10, 65),154	2547,(12, 35),2	2553,(1, 95),2	2555,(12, 25),10	2601,(12, 45),14	2681,(1, 105),2	2691,(12, 55),14	2739,(12, 85),4	2777,(12, 105),4	2837,(12, 95),22	2863,(1, 115),6	2869,(5, 75),346	3215,(5, 85),386	3601,(6, 85),376	3977,(12, 115),24	4143,(11, 15),14	4157,(9, 115),200	4425,(11, 25),2	4427,(10, 85),222	4649,(12, 75),94	4831,(9, 45),426	5345,(11, 35),2	5433,(11, 45),22	5517,(11, 55),6	5523,(12, 65),364	6103,(11, 65),2	6345,(11, 75),76	6735,(11, 85),2	6797,(11, 95),4	6953,(11, 105),14	7399,(11, 115),2	7401,(12, 15),826	
1,(0, 2),28	92,(3, 14),30	143,(4, 34),18	163,(3, 34),2	165,(4, 44),2	175,(4, 64),2	185,(3, 44),6	191,(4, 14),62	253,(0, 12),28	281,(1, 14),2	283,(5, 14),12	295,(5, 24),2	297,(5, 34),6	303,(5, 44),32	335,(6, 14),2	337,(6, 24),2	339,(7, 14),2	341,(1, 24),2	343,(3, 24),48	391,(6, 34),8	399,(7, 24),2	401,(8, 14),12	413,(8, 64),2	415,(8, 74),6	421,(6, 44),8	429,(6, 54),6	435,(9, 44),4	439,(8, 114),2	443,(4, 24),64	507,(7, 44),18	525,(7, 54),2	527,(7, 74),12	539,(7, 94),2	541,(8, 24),10	551,(8, 44),34	585,(9, 34),6	591,(9, 54),2	595,(5, 84),2	597,(6, 64),30	627,(8, 54),12	639,(10, 24),2	641,(10, 44),2	643,(5, 94),2	645,(9, 64),8	653,(9, 94),8	663,(6, 104),2	667,(3, 84),2	673,(5, 64),18	691,(7, 84),12	703,(9, 14),22	725,(9, 84),14	741,(1, 34),56	797,(3, 54),16	813,(4, 54),24	837,(4, 94),2	839,(9, 104),6	845,(10, 34),6	851,(10, 74),6	857,(10, 94),2	863,(1, 44),22	885,(5, 54),52	937,(6, 74),18	957,(6, 94),18	979,(3, 64),10	989,(8, 94),20	1013,(4, 74),14	1027,(8, 104),20	1065,(3, 74),10	1075,(4, 104),12	1093,(5, 114),2	1099,(3, 94),2	1101,(10, 54),12	1115,(4, 84),22	1137,(5, 74),34	1171,(7, 64),96	1267,(10, 64),14	1281,(3, 104),12	1293,(7, 104),24	1317,(7, 114),18	1335,(9, 114),24	1359,(10, 114),20	1381,(1, 54),28	1409,(6, 84),38	1447,(9, 74),42	1489,(10, 14),50	1551,(1, 64),396	1947,(4, 114),8	1955,(10, 84),32	2017,(1, 74),2	2019,(7, 34),116	2147,(3, 114),60	2207,(6, 114),68	2291,(1, 84),20	2393,(5, 104),48	2463,(1, 94),90	2671,(1, 104),10	2681,(8, 34),120	2859,(1, 114),4	3107,(8, 84),174	3281,(9, 24),320	3601,(10, 104),70	4137,(11, 14),6	4347,(11, 24),78	5335,(11, 34),10	5431,(11, 44),2	5505,(11, 54),12	5747,(11, 64),356	6209,(11, 74),136	6731,(11, 84),4	6795,(11, 94),2	6951,(11, 104),2	7233,(11, 114),166	
62,(2, 13),12	76,(2, 23),6	82,(2, 43),2	90,(3, 13),2	99,(2, 33),4	118,(4, 13),2	134,(3, 23),2	161,(3, 33),2	165,(3, 43),2	167,(4, 63),2	169,(5, 13),16	185,(6, 13),2	189,(5, 23),2	195,(5, 43),2	221,(6, 43),4	225,(7, 13),20	245,(8, 13),10	257,(7, 53),2	259,(9, 13),2	265,(7, 23),16	281,(4, 23),162	443,(6, 23),20	463,(6, 63),4	467,(7, 33),6	473,(8, 23),16	489,(8, 53),2	491,(7, 63),8	499,(8, 33),4	503,(8, 43),8	511,(8, 63),2	513,(8, 73),8	521,(8, 103),2	523,(9, 53),6	529,(9, 63),2	531,(5, 53),2	533,(9, 83),2	535,(9, 103),2	541,(9, 113),2	543,(7, 103),2	545,(6, 53),12	557,(9, 93),10	569,(4, 33),32	601,(5, 63),12	613,(10, 13),6	619,(10, 53),2	621,(10, 63),2	623,(10, 83),2	627,(6, 73),4	637,(6, 83),4	651,(3, 53),14	665,(6, 93),4	671,(10, 93),2	675,(7, 93),10	687,(2, 63),4	691,(4, 43),52	743,(4, 53),8	757,(4, 83),4	763,(8, 83),28	793,(2, 53),34	827,(6, 113),2	831,(5, 103),2	833,(6, 33),60	893,(6, 103),6	899,(7, 73),26	925,(10, 43),8	937,(3, 63),42	979,(9, 43),16	1005,(3, 73),60	1071,(5, 73),22	1099,(2, 73),4	1103,(3, 83),56	1159,(4, 73),44	1215,(3, 93),36	1251,(4, 113),2	1253,(5, 83),10	1263,(9, 23),28	1293,(2, 83),22	1339,(3, 103),22	1361,(9, 73),18	1379,(10, 73),16	1395,(10, 103),12	1407,(4, 93),52	1459,(5, 93),62	1529,(4, 103),44	1661,(5, 113),10	1671,(8, 113),60	1755,(2, 93),28	1893,(2, 103),60	1963,(2, 113),2	1965,(3, 113),182	2147,(5, 33),164	2311,(7, 43),126	2437,(7, 83),140	2577,(7, 113),56	2633,(9, 33),148	2781,(12, 23),2	2783,(12, 33),2	2785,(10, 113),36	2821,(12, 13),8	2829,(12, 43),2	2831,(12, 53),2	2833,(12, 63),2	2835,(12, 73),2	2933,(12, 83),46	2979,(12, 93),30	3009,(12, 103),4	3013,(12, 113),34	3137,(10, 33),70	3281,(8, 93),756	4037,(10, 23),324	4361,(17, 121),4	4365,(18, 121),4	4374,(19, 121),4	4378,(20, 121),4	4382,(21, 121),4	4386,(22, 121),4	4460,(25, 121),4	4465,(14, 121),4	4469,(24, 121),4	4474,(26, 121),4	4482,(27, 121),4	4582,(29, 121),4	4864,(16, 121),4	5089,(30, 121),4	5122,(28, 121),4	5257,(31, 121),4	5368,(32, 121),4	5378,(34, 121),4	5382,(35, 121),4	5386,(36, 121),4	5416,(37, 121),4	5428,(38, 121),4	5436,(39, 121),4	5442,(40, 121),4	5462,(41, 121),4	5466,(42, 121),4	5470,(44, 121),4	5488,(45, 121),4	5492,(46, 121),4	5506,(47, 121),4	5510,(48, 121),4	5514,(49, 121),4	5522,(50, 121),4	5538,(52, 121),4	5556,(55, 121),4	5560,(56, 121),4	5564,(57, 121),4	5626,(59, 121),4	5780,(62, 121),4	5819,(51, 121),4	5823,(61, 121),4	5887,(54, 121),4	6097,(60, 121),4	6136,(64, 121),4	6140,(65, 121),4	6144,(66, 121),4	6150,(67, 121),4	6226,(69, 121),4	6230,(70, 121),4	6234,(71, 121),4	6454,(75, 121),4	6566,(76, 121),4	6570,(77, 121),4	6580,(78, 121),4	6599,(74, 121),4	6632,(72, 121),4	6644,(79, 121),4	6648,(80, 121),4	6764,(82, 121),4	6768,(84, 121),4	6772,(85, 121),4	6776,(86, 121),4	6780,(87, 121),4	6784,(88, 121),4	6788,(89, 121),4	6798,(90, 121),4	6826,(91, 121),4	6830,(92, 121),4	6834,(94, 121),4	6838,(95, 121),4	6874,(96, 121),4	6882,(97, 121),4	6940,(98, 121),4	6944,(99, 121),4	6948,(100, 121),4	6952,(101, 121),4	6984,(102, 121),4	6988,(104, 121),4	7000,(105, 121),4	7214,(106, 121),4	7220,(107, 121),4	7234,(108, 121),4	7238,(109, 121),4	7260,(110, 121),4	7264,(111, 121),4	7268,(112, 121),4	7436,(116, 121),4	7504,(117, 121),4	7508,(118, 121),4	7534,(119, 121),4	7564,(120, 121),4	8227,(114, 121),4	8351,(115, 121),4	8355,(15, 121),4	8384,(81, 121),4	8762,(58, 121),4	9208,(68, 121),4	
# Outgoing
613,(10, 13),6	619,(10, 53),2	621,(10, 63),2	623,(10, 83),2	625,(10, 15),4	629,(10, 26),10	639,(10, 24),2	641,(10, 44),2	643,(10, 47),4	647,(10, 36),2	649,(10, 46),2	651,(10, 51),2	653,(10, 71),2	655,(10, 56),2	657,(10, 45),2	659,(10, 55),2	661,(10, 75),2	663,(10, 66),2	665,(10, 48),6	671,(10, 93),2	675,(10, 31),8	685,(10, 98),2	687,(10, 19),4	695,(10, 78),8	703,(10, 81),6	709,(10, 111),6	715,(10, 39),6	721,(10, 49),6	727,(10, 99),2	729,(10, 61),16	763,(10, 18),10	773,(10, 88),6	787,(10, 87),2	789,(10, 76),2	791,(10, 115),2	807,(10, 106),4	811,(10, 116),2	815,(10, 27),8	825,(10, 69),4	835,(10, 79),8	843,(10, 119),2	845,(10, 34),6	851,(10, 74),6	857,(10, 94),2	859,(10, 28),12	875,(10, 70),2	889,(10, 118),10	925,(10, 43),8	937,(10, 40),4	941,(10, 100),2	945,(10, 57),8	953,(10, 89),8	967,(10, 67),8	977,(10, 90),4	1019,(10, 38),28	1049,(10, 29),52	1101,(10, 54),12	1147,(10, 91),10	1157,(10, 101),10	1183,(10, 16),28	1211,(10, 86),30	1267,(10, 64),14	1281,(10, 50),22	1311,(10, 60),18	1345,(10, 80),10	1359,(10, 114),20	1379,(10, 73),16	1395,(10, 103),12	1429,(10, 109),26	1459,(10, 120),10	1489,(10, 14),50	1539,(10, 35),22	1591,(10, 25),52	1643,(10, 95),38	1685,(10, 41),68	1755,(10, 110),24	1795,(10, 17),20	1815,(10, 20),44	1859,(10, 97),16	1881,(10, 30),46	1927,(10, 107),8	1955,(10, 84),32	2017,(10, 108),28	2099,(10, 77),32	2139,(10, 105),44	2271,(10, 37),60	2393,(10, 65),154	2587,(10, 58),76	2663,(10, 59),80	2743,(10, 96),42	2785,(10, 113),36	2845,(10, 21),292	3137,(10, 33),70	3207,(10, 117),36	3601,(10, 104),70	3957,(10, 68),54	4037,(10, 23),324	4386,(22, 121),4	4427,(10, 85),222	5368,(32, 121),4	5466,(42, 121),4	5538,(52, 121),4	5780,(62, 121),4	6632,(72, 121),4	6764,(82, 121),4	6830,(92, 121),4	6984,(102, 121),4	7268,(112, 121),4	
259,(9, 13),2	261,(9, 40),2	263,(9, 59),2	265,(9, 15),2	267,(9, 29),8	275,(9, 60),2	277,(9, 79),2	279,(9, 65),2	281,(9, 20),6	287,(9, 30),8	295,(9, 17),2	297,(9, 58),2	299,(9, 68),2	301,(9, 99),2	303,(9, 85),2	305,(9, 90),2	307,(9, 27),2	309,(9, 47),8	317,(9, 67),2	319,(9, 77),8	329,(9, 95),2	333,(9, 26),2	335,(9, 56),2	337,(9, 76),2	341,(9, 22),2	343,(9, 32),8	353,(9, 80),8	363,(9, 38),20	383,(9, 88),2	385,(9, 35),6	395,(9, 107),6	401,(9, 70),16	417,(9, 25),16	435,(9, 44),4	439,(9, 50),26	475,(9, 98),2	479,(9, 36),6	485,(9, 46),8	493,(9, 52),6	499,(9, 69),16	515,(9, 89),6	523,(9, 53),6	529,(9, 63),2	533,(9, 83),2	535,(9, 103),2	537,(9, 109),4	541,(9, 113),2	543,(9, 66),6	549,(9, 106),4	557,(9, 93),10	567,(9, 119),10	585,(9, 34),6	591,(9, 54),2	597,(9, 62),14	617,(9, 108),6	645,(9, 64),8	653,(9, 94),8	673,(9, 75),16	691,(9, 82),10	703,(9, 14),22	725,(9, 84),14	747,(9, 86),16	777,(9, 97),10	793,(9, 92),12	839,(9, 104),6	877,(9, 19),70	957,(9, 110),8	965,(9, 120),6	979,(9, 43),16	1013,(9, 100),32	1063,(9, 102),24	1117,(9, 87),18	1213,(9, 105),10	1229,(9, 117),16	1263,(9, 23),28	1303,(9, 42),28	1335,(9, 114),24	1361,(9, 73),18	1447,(9, 74),42	1527,(9, 37),140	1785,(9, 18),32	1869,(9, 28),68	1937,(9, 48),48	2029,(9, 112),40	2077,(9, 55),62	2139,(9, 57),30	2215,(9, 39),158	2419,(9, 78),56	2475,(9, 118),50	2633,(9, 33),148	2831,(9, 49),156	2987,(9, 72),226	3281,(9, 24),320	4157,(9, 115),200	4382,(21, 121),4	4441,(9, 16),390	4831,(9, 45),426	5257,(31, 121),4	5462,(41, 121),4	5525,(9, 96),154	5679,(9, 116),140	5819,(51, 121),4	5823,(61, 121),4	6234,(71, 121),4	6826,(91, 121),4	6952,(101, 121),4	7264,(111, 121),4	8384,(81, 121),4	
245,(8, 13),10	255,(8, 17),2	257,(8, 19),2	259,(8, 15),4	263,(8, 25),2	265,(8, 29),2	267,(8, 42),2	269,(8, 55),2	271,(8, 22),8	279,(8, 52),2	281,(8, 75),2	283,(8, 21),14	297,(8, 31),4	301,(8, 27),2	303,(8, 47),2	305,(8, 87),2	307,(8, 41),2	309,(8, 61),2	311,(8, 79),2	313,(8, 99),4	317,(8, 32),6	323,(8, 62),2	325,(8, 72),2	327,(8, 105),2	331,(8, 26),2	333,(8, 35),10	343,(8, 66),2	345,(8, 81),6	351,(8, 82),6	357,(8, 92),2	359,(8, 112),2	361,(8, 38),2	363,(8, 39),22	385,(8, 91),6	397,(8, 101),2	401,(8, 14),12	413,(8, 64),2	415,(8, 74),6	421,(8, 51),18	439,(8, 114),2	443,(8, 45),20	463,(8, 111),8	471,(8, 96),2	473,(8, 23),16	489,(8, 53),2	491,(8, 58),6	499,(8, 33),4	503,(8, 43),8	511,(8, 63),2	513,(8, 73),8	521,(8, 103),2	523,(8, 46),6	529,(8, 89),6	535,(8, 56),6	541,(8, 24),10	551,(8, 44),34	597,(8, 48),10	607,(8, 78),6	613,(8, 49),14	627,(8, 54),12	639,(8, 86),6	659,(8, 88),6	673,(8, 69),14	693,(8, 59),22	723,(8, 18),40	763,(8, 83),28	795,(8, 76),10	813,(8, 71),14	827,(8, 107),4	831,(8, 68),28	859,(8, 95),14	879,(8, 98),10	907,(8, 37),20	927,(8, 67),18	981,(8, 102),8	989,(8, 94),20	1027,(8, 104),20	1047,(8, 16),32	1089,(8, 117),24	1141,(8, 36),42	1183,(8, 108),44	1249,(8, 77),56	1357,(8, 65),28	1385,(8, 85),22	1489,(8, 97),38	1527,(8, 106),100	1671,(8, 113),60	1875,(8, 119),64	2021,(8, 115),56	2085,(8, 109),130	2681,(8, 34),120	2915,(8, 57),192	3107,(8, 84),174	3281,(8, 93),756	4161,(8, 116),196	4378,(20, 121),4	4471,(8, 28),618	5089,(30, 121),4	5442,(40, 121),4	5522,(50, 121),4	5589,(8, 118),508	6097,(60, 121),4	6230,(70, 121),4	6648,(80, 121),4	6798,(90, 121),4	6948,(100, 121),4	7260,(110, 121),4	7564,(120, 121),4	
225,(7, 13),20	245,(7, 15),6	251,(7, 17),2	253,(7, 45),2	255,(7, 21),2	257,(7, 53),2	259,(7, 20),2	261,(7, 22),4	265,(7, 23),16	281,(7, 18),12	293,(7, 28),2	295,(7, 30),2	297,(7, 26),30	327,(7, 66),4	331,(7, 31),2	333,(7, 40),2	335,(7, 61),2	337,(7, 71),2	339,(7, 14),2	341,(7, 27),46	387,(7, 38),8	395,(7, 60),2	397,(7, 85),2	399,(7, 24),2	401,(7, 25),16	417,(7, 37),46	463,(7, 87),4	467,(7, 33),6	473,(7, 46),6	479,(7, 48),8	487,(7, 58),4	491,(7, 63),8	499,(7, 78),2	501,(7, 88),2	503,(7, 91),4	507,(7, 44),18	525,(7, 54),2	527,(7, 74),12	539,(7, 94),2	541,(7, 96),2	543,(7, 103),2	545,(7, 52),30	575,(7, 62),10	585,(7, 82),2	587,(7, 68),10	597,(7, 97),2	599,(7, 36),30	629,(7, 95),2	631,(7, 117),2	633,(7, 105),2	637,(7, 77),6	643,(7, 65),12	655,(7, 108),4	659,(7, 116),4	667,(7, 81),8	675,(7, 93),10	687,(7, 111),2	691,(7, 84),12	703,(7, 98),20	723,(7, 101),6	729,(7, 76),18	747,(7, 47),16	763,(7, 56),26	791,(7, 67),14	805,(7, 55),22	827,(7, 72),14	841,(7, 50),10	851,(7, 80),8	859,(7, 100),2	865,(7, 57),32	899,(7, 73),26	925,(7, 86),18	943,(7, 90),12	955,(7, 107),12	967,(7, 16),80	1051,(7, 92),12	1071,(7, 110),14	1099,(7, 102),28	1155,(7, 112),12	1171,(7, 64),96	1267,(7, 118),26	1293,(7, 104),24	1317,(7, 114),18	1335,(7, 120),10	1345,(7, 115),12	1363,(7, 41),60	1437,(7, 35),74	1511,(7, 70),92	1631,(7, 51),54	1685,(7, 75),40	1725,(7, 106),34	1795,(7, 32),52	2019,(7, 34),116	2135,(7, 42),48	2311,(7, 43),126	2437,(7, 83),140	2577,(7, 113),56	4374,(19, 121),4	4582,(29, 121),4	5436,(39, 121),4	5514,(49, 121),4	5626,(59, 121),4	6226,(69, 121),4	6644,(79, 121),4	6788,(89, 121),4	6944,(99, 121),4	7238,(109, 121),4	7534,(119, 121),4	
185,(6, 13),2	187,(6, 29),2	189,(6, 17),2	191,(6, 46),2	193,(6, 15),10	203,(6, 27),6	209,(6, 39),6	215,(6, 20),2	217,(6, 30),4	221,(6, 43),4	225,(6, 21),4	229,(6, 31),2	231,(6, 19),20	251,(6, 16),26	277,(6, 26),6	283,(6, 49),2	285,(6, 25),18	303,(6, 32),4	307,(6, 35),20	327,(6, 40),6	333,(6, 47),2	335,(6, 14),2	337,(6, 24),2	339,(6, 59),8	347,(6, 45),38	385,(6, 50),6	391,(6, 34),8	399,(6, 41),22	421,(6, 44),8	429,(6, 54),6	435,(6, 65),8	443,(6, 23),20	463,(6, 63),4	467,(6, 67),2	469,(6, 22),24	493,(6, 36),22	515,(6, 51),22	537,(6, 52),8	545,(6, 53),12	557,(6, 56),26	583,(6, 71),2	585,(6, 76),8	593,(6, 89),2	595,(6, 82),2	597,(6, 64),30	627,(6, 73),4	631,(6, 75),2	633,(6, 77),4	637,(6, 83),4	641,(6, 95),2	643,(6, 91),4	647,(6, 72),6	653,(6, 96),2	655,(6, 102),8	663,(6, 104),2	665,(6, 93),4	669,(6, 109),2	671,(6, 37),76	747,(6, 81),20	767,(6, 69),38	805,(6, 79),4	809,(6, 101),4	813,(6, 99),12	825,(6, 117),2	827,(6, 113),2	829,(6, 119),2	831,(6, 70),2	833,(6, 33),60	893,(6, 103),6	901,(6, 106),4	905,(6, 112),10	915,(6, 111),14	937,(6, 74),18	955,(6, 90),2	957,(6, 94),18	975,(6, 100),2	989,(6, 57),100	1111,(6, 60),80	1193,(6, 105),12	1205,(6, 115),8	1215,(6, 62),34	1273,(6, 66),80	1353,(6, 86),52	1409,(6, 84),38	1447,(6, 92),38	1529,(6, 61),102	1661,(6, 42),134	1817,(6, 55),128	1997,(6, 87),50	2055,(6, 107),44	2143,(6, 116),54	2207,(6, 114),68	2333,(6, 80),120	2455,(6, 110),74	2529,(6, 120),46	2705,(6, 97),210	3601,(6, 85),376	4365,(18, 121),4	5122,(28, 121),4	5428,(38, 121),4	5510,(48, 121),4	6580,(78, 121),4	6784,(88, 121),4	6940,(98, 121),4	7234,(108, 121),4	7508,(118, 121),4	8762,(58, 121),4	9208,(68, 121),4	
169,(5, 13),16	185,(5, 15),4	189,(5, 23),2	191,(5, 25),2	193,(5, 36),2	195,(5, 43),2	197,(5, 16),40	237,(5, 26),14	251,(5, 29),6	257,(5, 45),2	259,(5, 21),20	279,(5, 40),2	281,(5, 41),2	283,(5, 14),12	295,(5, 24),2	297,(5, 34),6	303,(5, 44),32	335,(5, 69),4	339,(5, 20),14	353,(5, 18),8	361,(5, 22),108	469,(5, 30),16	485,(5, 31),14	499,(5, 42),18	517,(5, 46),6	523,(5, 52),8	531,(5, 53),2	533,(5, 76),2	535,(5, 82),2	537,(5, 28),44	581,(5, 48),2	583,(5, 58),2	585,(5, 68),2	587,(5, 72),8	595,(5, 84),2	597,(5, 86),2	599,(5, 91),2	601,(5, 63),12	613,(5, 88),4	617,(5, 51),26	643,(5, 94),2	645,(5, 96),2	647,(5, 49),20	667,(5, 55),6	673,(5, 64),18	691,(5, 89),2	693,(5, 98),2	695,(5, 35),88	783,(5, 78),16	799,(5, 101),6	807,(5, 50),6	813,(5, 60),18	831,(5, 103),2	833,(5, 120),2	837,(5, 56),40	877,(5, 105),8	885,(5, 54),52	937,(5, 61),22	959,(5, 106),8	967,(5, 38),52	1019,(5, 62),32	1051,(5, 70),20	1071,(5, 73),22	1093,(5, 114),2	1095,(5, 116),2	1099,(5, 80),12	1111,(5, 119),4	1115,(5, 81),10	1127,(5, 118),10	1137,(5, 74),34	1179,(5, 65),14	1193,(5, 71),38	1231,(5, 90),14	1253,(5, 83),10	1263,(5, 102),12	1275,(5, 19),132	1407,(5, 100),14	1421,(5, 108),24	1445,(5, 110),14	1459,(5, 93),62	1521,(5, 115),18	1551,(5, 32),88	1639,(5, 112),22	1661,(5, 113),10	1677,(5, 39),100	1777,(5, 109),16	1821,(5, 59),54	1893,(5, 92),100	2047,(5, 66),96	2147,(5, 33),164	2331,(5, 95),62	2393,(5, 104),48	2453,(5, 79),116	2665,(5, 111),54	2869,(5, 75),346	3215,(5, 85),386	3601,(5, 99),210	4361,(17, 121),4	4482,(27, 121),4	5416,(37, 121),4	5506,(47, 121),4	5564,(57, 121),4	6150,(67, 121),4	6570,(77, 121),4	6780,(87, 121),4	6882,(97, 121),4	7220,(107, 121),4	7504,(117, 121),4	
118,(4, 13),2	120,(4, 15),18	138,(4, 25),2	141,(4, 17),2	143,(4, 34),18	161,(4, 35),2	163,(4, 55),2	165,(4, 44),2	167,(4, 63),2	169,(4, 37),6	175,(4, 64),2	177,(4, 19),2	179,(4, 27),10	189,(4, 39),2	191,(4, 14),62	253,(4, 21),2	255,(4, 22),2	257,(4, 20),2	259,(4, 29),4	263,(4, 30),6	269,(4, 32),2	271,(4, 40),4	275,(4, 45),4	279,(4, 18),2	281,(4, 23),162	443,(4, 24),64	507,(4, 28),30	537,(4, 31),32	569,(4, 33),32	601,(4, 41),16	617,(4, 47),12	629,(4, 49),16	645,(4, 59),2	647,(4, 61),4	651,(4, 48),2	653,(4, 72),2	655,(4, 75),2	657,(4, 57),4	661,(4, 67),6	667,(4, 89),2	669,(4, 42),20	689,(4, 92),2	691,(4, 43),52	743,(4, 53),8	751,(4, 62),6	757,(4, 83),4	761,(4, 69),6	767,(4, 77),10	777,(4, 81),6	783,(4, 85),6	789,(4, 97),2	791,(4, 101),2	793,(4, 50),2	795,(4, 60),4	799,(4, 80),8	807,(4, 102),2	809,(4, 108),2	811,(4, 109),2	813,(4, 54),24	837,(4, 94),2	839,(4, 110),2	841,(4, 51),74	915,(4, 52),56	971,(4, 82),10	981,(4, 87),8	989,(4, 99),8	997,(4, 70),16	1013,(4, 74),14	1027,(4, 79),22	1049,(4, 88),26	1075,(4, 104),12	1087,(4, 71),28	1115,(4, 84),22	1137,(4, 111),10	1147,(4, 112),8	1155,(4, 119),4	1159,(4, 73),44	1203,(4, 90),28	1231,(4, 95),10	1241,(4, 105),6	1247,(4, 117),2	1249,(4, 120),2	1251,(4, 113),2	1255,(4, 65),90	1345,(4, 78),62	1407,(4, 93),52	1459,(4, 107),30	1491,(4, 91),38	1529,(4, 103),44	1573,(4, 115),18	1613,(4, 68),152	1765,(4, 118),20	1947,(4, 114),8	2195,(4, 98),218	2833,(4, 100),474	3609,(4, 38),348	4474,(26, 121),4	4864,(16, 121),4	5386,(36, 121),4	5492,(46, 121),4	5560,(56, 121),4	6144,(66, 121),4	6566,(76, 121),4	6776,(86, 121),4	6874,(96, 121),4	7214,(106, 121),4	7436,(116, 121),4	7473,(4, 58),1256	
90,(3, 13),2	92,(3, 14),30	122,(3, 16),12	134,(3, 23),2	137,(3, 17),2	139,(3, 26),10	149,(3, 27),12	161,(3, 33),2	163,(3, 34),2	165,(3, 43),2	167,(3, 67),2	169,(3, 19),2	171,(3, 29),6	177,(3, 36),8	185,(3, 44),6	191,(3, 47),4	195,(3, 76),2	197,(3, 20),6	203,(3, 30),4	207,(3, 50),8	215,(3, 77),2	217,(3, 18),62	279,(3, 21),2	281,(3, 22),22	303,(3, 31),4	307,(3, 32),10	317,(3, 41),8	325,(3, 38),2	327,(3, 58),2	329,(3, 51),2	331,(3, 59),4	335,(3, 60),4	339,(3, 66),4	343,(3, 24),48	391,(3, 61),6	397,(3, 79),2	399,(3, 80),2	401,(3, 28),74	475,(3, 37),120	595,(3, 39),18	613,(3, 42),12	625,(3, 48),26	651,(3, 53),14	665,(3, 82),2	667,(3, 84),2	669,(3, 87),2	671,(3, 89),2	673,(3, 46),56	729,(3, 49),32	761,(3, 52),24	785,(3, 62),8	793,(3, 86),2	795,(3, 91),2	797,(3, 54),16	813,(3, 56),24	837,(3, 57),28	865,(3, 70),10	875,(3, 98),4	879,(3, 40),58	937,(3, 63),42	979,(3, 64),10	989,(3, 71),8	997,(3, 72),8	1005,(3, 73),60	1065,(3, 74),10	1075,(3, 78),18	1093,(3, 90),6	1099,(3, 94),2	1101,(3, 99),2	1103,(3, 83),56	1159,(3, 88),18	1177,(3, 92),38	1215,(3, 93),36	1251,(3, 96),20	1271,(3, 106),2	1273,(3, 109),2	1275,(3, 100),6	1281,(3, 104),12	1293,(3, 102),10	1303,(3, 108),4	1307,(3, 110),4	1311,(3, 118),18	1331,(3, 101),8	1339,(3, 103),22	1361,(3, 111),2	1363,(3, 120),10	1381,(3, 112),36	1419,(3, 117),18	1471,(3, 69),206	1677,(3, 97),118	1795,(3, 119),26	1825,(3, 107),34	1965,(3, 113),182	2147,(3, 114),60	2207,(3, 116),114	2815,(3, 68),794	4460,(25, 121),4	5382,(35, 121),4	5488,(45, 121),4	5556,(55, 121),4	6140,(65, 121),4	6454,(75, 121),4	6772,(85, 121),4	6838,(95, 121),4	7000,(105, 121),4	7231,(3, 81),1120	8351,(115, 121),4	8355,(15, 121),4	
62,(2, 13),12	74,(2, 15),2	76,(2, 23),6	82,(2, 43),2	85,(2, 16),10	95,(2, 25),4	99,(2, 33),4	103,(2, 36),2	105,(2, 45),8	113,(2, 17),2	115,(2, 37),22	137,(2, 46),2	139,(2, 57),2	141,(2, 18),76	217,(2, 19),14	231,(2, 20),26	257,(2, 21),2	259,(2, 22),2	261,(2, 27),34	295,(2, 29),2	297,(2, 30),8	305,(2, 28),20	325,(2, 31),2	327,(2, 32),2	329,(2, 38),24	353,(2, 39),2	355,(2, 41),30	385,(2, 48),2	387,(2, 49),6	393,(2, 26),78	471,(2, 35),154	625,(2, 42),22	647,(2, 47),10	657,(2, 51),10	667,(2, 52),2	669,(2, 56),4	673,(2, 58),12	685,(2, 61),2	687,(2, 63),4	691,(2, 65),4	695,(2, 40),52	747,(2, 50),46	793,(2, 53),34	827,(2, 55),32	859,(2, 59),18	877,(2, 60),2	879,(2, 62),20	899,(2, 66),2	901,(2, 67),6	907,(2, 68),60	967,(2, 69),16	983,(2, 70),14	997,(2, 71),90	1087,(2, 72),12	1099,(2, 73),4	1103,(2, 76),12	1115,(2, 77),2	1117,(2, 78),10	1127,(2, 81),4	1131,(2, 86),2	1133,(2, 92),4	1137,(2, 99),2	1139,(2, 75),40	1179,(2, 79),74	1253,(2, 85),2	1255,(2, 101),4	1259,(2, 80),16	1275,(2, 82),18	1293,(2, 83),22	1315,(2, 87),104	1419,(2, 89),10	1429,(2, 91),20	1449,(2, 96),8	1457,(2, 88),156	1613,(2, 90),142	1755,(2, 93),28	1783,(2, 95),34	1817,(2, 97),8	1825,(2, 98),44	1869,(2, 100),12	1881,(2, 102),12	1893,(2, 103),60	1953,(2, 106),2	1955,(2, 107),2	1957,(2, 109),2	1959,(2, 110),4	1963,(2, 113),2	1965,(2, 105),22	1987,(2, 111),22	2009,(2, 115),2	2011,(2, 116),2	2013,(2, 118),4	2017,(2, 112),12	2029,(2, 119),12	2041,(12, 20),4	2045,(12, 18),2	2047,(12, 19),30	2077,(12, 31),2	2079,(12, 39),2	2081,(12, 40),2	2083,(2, 108),112	2195,(2, 117),76	2271,(2, 120),62	2333,(12, 17),8	2341,(12, 21),18	2359,(12, 27),2	2361,(12, 37),2	2363,(12, 16),26	2389,(12, 22),20	2409,(12, 26),72	2481,(12, 32),20	2501,(12, 36),30	2531,(12, 38),2	2533,(12, 46),4	2537,(12, 47),10	2547,(12, 35),2	2549,(12, 48),4	2553,(12, 56),2	2555,(12, 25),10	2565,(12, 66),2	2567,(12, 76),2	2569,(12, 29),14	2583,(12, 42),18	2601,(12, 45),14	2615,(12, 30),58	2673,(12, 50),2	2675,(12, 52),16	2691,(12, 55),14	2705,(12, 60),2	2707,(12, 62),12	2719,(12, 61),6	2725,(12, 70),6	2731,(12, 71),8	2739,(12, 85),4	2743,(12, 49),18	2761,(12, 81),6	2767,(12, 89),2	2769,(12, 90),4	2773,(12, 99),2	2775,(12, 100),2	2777,(12, 105),4	2781,(12, 23),2	2783,(12, 33),2	2785,(12, 79),24	2809,(12, 86),2	2811,(12, 109),2	2813,(12, 112),2	2815,(12, 116),2	2821,(12, 13),8	2829,(12, 43),2	2831,(12, 53),2	2833,(12, 63),2	2835,(12, 73),2	2837,(12, 95),22	2859,(12, 82),74	2933,(12, 83),46	2979,(12, 93),30	3009,(12, 103),4	3013,(12, 113),34	3047,(12, 119),8	3107,(12, 57),2	3109,(12, 67),2	3111,(12, 77),2	3113,(12, 87),4	3117,(12, 107),4	3121,(12, 117),6	3137,(12, 41),130	3267,(12, 51),224	3491,(12, 80),24	3515,(12, 91),40	3555,(12, 92),36	3591,(12, 97),38	3629,(12, 101),52	3681,(12, 102),62	3743,(12, 110),20	3763,(12, 111),18	3811,(12, 59),140	3977,(12, 115),24	4011,(12, 28),48	4059,(12, 78),2	4061,(12, 88),14	4075,(12, 96),34	4109,(12, 98),4	4113,(12, 106),12	4133,(12, 108),2	4135,(12, 69),148	4303,(12, 58),124	4427,(12, 118),2	4429,(12, 120),36	4465,(14, 121),4	4469,(24, 121),4	4649,(12, 75),94	5378,(34, 121),4	5470,(44, 121),4	5523,(12, 65),364	5887,(54, 121),4	6136,(64, 121),4	6209,(12, 72),390	6599,(74, 121),4	6768,(84, 121),4	6834,(94, 121),4	6988,(104, 121),4	7401,(12, 15),826	8227,(114, 121),4	8729,(12, 68),446	
1,(0, 2),28	29,(0, 3),28	57,(0, 4),28	85,(0, 5),28	113,(0, 6),28	141,(0, 7),28	169,(0, 8),28	197,(0, 9),28	225,(0, 10),28	253,(0, 12),28	281,(1, 14),2	283,(1, 15),2	285,(1, 16),12	297,(1, 17),4	301,(1, 18),4	305,(1, 19),2	307,(1, 20),20	327,(1, 21),2	329,(1, 22),12	341,(1, 24),2	343,(1, 25),4	347,(1, 26),46	393,(1, 27),2	395,(1, 28),6	401,(1, 29),84	485,(1, 30),210	695,(1, 31),8	703,(1, 32),38	741,(1, 34),56	797,(1, 35),8	805,(1, 36),2	807,(1, 37),8	815,(1, 38),16	831,(1, 39),4	835,(1, 40),4	839,(1, 41),2	841,(1, 42),22	863,(1, 44),22	885,(1, 45),254	1139,(1, 46),2	1141,(1, 47),88	1229,(1, 48),26	1255,(1, 49),2	1257,(1, 50),2	1259,(1, 51),72	1331,(1, 52),50	1381,(1, 54),28	1409,(1, 55),28	1437,(1, 56),4	1441,(1, 57),14	1455,(1, 58),2	1457,(1, 59),14	1471,(1, 60),2	1473,(1, 61),18	1491,(1, 62),60	1551,(1, 64),396	1947,(1, 65),18	1965,(1, 66),8	1973,(1, 67),24	1997,(1, 68),2	1999,(1, 69),8	2007,(1, 70),2	2009,(1, 71),6	2015,(1, 72),2	2017,(1, 74),2	2019,(1, 75),2	2021,(1, 76),26	2047,(1, 77),8	2055,(1, 78),28	2083,(1, 79),2	2085,(1, 80),144	2229,(1, 81),6	2235,(1, 82),56	2291,(1, 84),20	2311,(1, 85),20	2331,(1, 86),32	2363,(1, 87),54	2417,(1, 88),2	2419,(1, 89),34	2453,(1, 90),2	2455,(1, 91),6	2461,(1, 92),2	2463,(1, 94),90	2553,(1, 95),2	2555,(1, 96),2	2557,(1, 97),12	2569,(1, 98),18	2587,(1, 99),26	2613,(1, 100),2	2615,(1, 101),50	2665,(1, 102),6	2671,(1, 104),10	2681,(1, 105),2	2683,(1, 106),12	2695,(1, 107),10	2705,(1, 108),110	2815,(1, 109),16	2831,(1, 110),2	2833,(1, 111),12	2845,(1, 112),14	2859,(1, 114),4	2863,(1, 115),6	2869,(1, 116),1152	4021,(1, 117),100	4121,(1, 118),12	4133,(1, 119),2	4135,(1, 120),2	4137,(11, 14),6	4143,(11, 15),14	4157,(11, 16),4	4161,(11, 17),26	4187,(11, 18),116	4303,(11, 19),38	4341,(11, 20),2	4343,(11, 21),2	4345,(11, 22),2	4347,(11, 24),78	4425,(11, 25),2	4427,(11, 26),14	4441,(11, 27),8	4449,(11, 28),22	4471,(11, 29),78	4549,(11, 30),32	4581,(11, 31),4	4585,(11, 32),750	5335,(11, 34),10	5345,(11, 35),2	5347,(11, 36),2	5349,(11, 37),34	5383,(11, 38),12	5395,(11, 39),8	5403,(11, 40),6	5409,(11, 41),20	5429,(11, 42),2	5431,(11, 44),2	5433,(11, 45),22	5455,(11, 46),4	5459,(11, 47),14	5473,(11, 48),2	5475,(11, 49),2	5477,(11, 50),12	5489,(11, 51),14	5503,(11, 52),2	5505,(11, 54),12	5517,(11, 55),6	5523,(11, 56),2	5525,(11, 57),2	5527,(11, 58),62	5589,(11, 59),4	5593,(11, 60),24	5617,(11, 61),4	5621,(11, 62),126	5747,(11, 64),356	6103,(11, 65),2	6105,(11, 66),2	6107,(11, 67),10	6117,(11, 68),72	6189,(11, 69),4	6193,(11, 70),2	6195,(11, 71),2	6197,(11, 72),12	6209,(11, 74),136	6345,(11, 75),76	6421,(11, 76),112	6533,(11, 77),2	6535,(11, 78),12	6547,(11, 79),64	6611,(11, 80),2	6613,(11, 81),24	6637,(11, 82),94	6731,(11, 84),4	6735,(11, 85),2	6737,(11, 86),4	6741,(11, 87),4	6745,(11, 88),4	6749,(11, 89),2	6751,(11, 90),14	6765,(11, 91),28	6793,(11, 92),2	6795,(11, 94),2	6797,(11, 95),4	6801,(11, 96),40	6841,(11, 97),8	6849,(11, 98),58	6907,(11, 99),2	6909,(11, 100),4	6913,(11, 101),6	6919,(11, 102),32	6951,(11, 104),2	6953,(11, 105),14	6967,(11, 106),214	7181,(11, 107),6	7187,(11, 108),14	7201,(11, 109),2	7203,(11, 110),24	7227,(11, 111),4	7231,(11, 112),2	7233,(11, 114),166	7399,(11, 115),2	7401,(11, 116),2	7403,(11, 117),68	7471,(11, 118),2	7473,(11, 119),28	7501,(11, 120),30	
