3491
# CPU
184,38,24	211,18,24	235,78,24	259,48,24	283,28,24	2059,58,24	2167,68,24	
979,37,24	1003,17,24	1027,67,24	1165,27,24	1189,77,24	2011,47,24	2044,57,24	
148,8,24	172,36,24	196,66,24	220,16,24	244,26,24	268,46,24	292,56,24	457,76,24	
127,7,24	151,65,24	175,15,24	199,45,24	223,35,24	247,55,24	271,75,24	1630,25,24	
106,6,24	166,14,24	190,34,24	214,44,24	307,64,24	988,24,24	2179,74,24	2587,54,24	
85,5,24	109,23,24	187,33,24	268,53,24	448,63,24	964,13,24	2008,43,24	2176,73,24	
64,4,24	88,12,24	112,72,24	139,22,24	169,32,24	226,42,24	274,62,24	2041,52,24	
43,3,24	67,11,24	91,31,24	142,21,24	178,61,24	229,51,24	2488,41,24	2599,71,24	
22,2,24	133,10,24	175,70,24	283,60,24	382,40,24	478,50,24	2482,20,24	2506,30,24	2608,80,24	
0,0,1	1,1,24	25,9,24	49,69,24	2095,59,24	2188,39,24	2221,79,24	2278,29,24	2317,49,24	2479,19,24	3490,81,1	
# Incoming
181,(1, 38),3	184,(2, 18),27	211,(4, 78),9	229,(2, 48),3	232,(4, 28),27	2044,(3, 58),15	2095,(3, 68),72	
964,(3, 17),3	967,(5, 37),12	979,(6, 17),6	985,(6, 27),18	1003,(6, 67),3	1006,(6, 77),138	1144,(7, 27),21	1165,(7, 57),18	1183,(7, 77),3	2008,(3, 47),3	2041,(3, 57),3	
127,(0, 8),21	148,(5, 36),9	157,(5, 66),6	163,(7, 16),15	211,(2, 26),6	226,(2, 46),3	229,(7, 56),9	310,(1, 76),36	382,(6, 76),75	
106,(0, 7),21	127,(5, 15),3	139,(5, 65),3	148,(6, 45),21	172,(1, 35),9	181,(5, 55),21	202,(6, 75),15	988,(3, 25),642	
85,(0, 6),21	148,(1, 14),18	169,(1, 34),3	184,(1, 44),3	187,(4, 74),15	283,(1, 64),24	967,(3, 24),21	2176,(3, 74),3	2488,(8, 54),99	
64,(0, 5),21	169,(6, 53),6	178,(7, 33),9	187,(1, 53),81	274,(2, 63),174	448,(3, 13),516	1630,(3, 43),378	2167,(3, 73),9	
43,(0, 4),21	130,(5, 22),9	166,(1, 32),3	178,(6, 62),3	217,(2, 42),9	232,(2, 62),42	2011,(3, 52),30	
22,(0, 3),21	88,(4, 21),54	175,(6, 61),3	187,(7, 51),42	238,(7, 71),18	307,(1, 71),3	2485,(8, 41),3	2587,(8, 71),12	
1,(0, 2),21	130,(6, 10),3	133,(6, 20),15	163,(5, 70),12	268,(1, 60),15	283,(6, 40),99	382,(7, 50),96	2479,(8, 20),3	2482,(8, 30),3	2599,(8, 80),9	
2059,(3, 59),36	2095,(4, 39),93	2188,(4, 79),33	2221,(11, 81),18	2239,(12, 81),18	2257,(31, 81),18	2275,(6, 29),3	2278,(6, 49),39	2317,(23, 81),18	2335,(72, 81),18	2353,(10, 81),18	2371,(22, 81),18	2389,(21, 81),18	2407,(8, 19),72	2479,(65, 81),18	2497,(14, 81),18	2515,(32, 81),18	2533,(70, 81),18	2551,(15, 81),18	2569,(61, 81),18	2587,(38, 81),18	2608,(36, 81),18	2626,(33, 81),18	2644,(34, 81),18	2662,(66, 81),18	2680,(45, 81),18	2698,(18, 81),18	2716,(44, 81),18	2734,(16, 81),18	2752,(35, 81),18	2770,(42, 81),18	2788,(51, 81),18	2806,(78, 81),18	2824,(26, 81),18	2842,(55, 81),18	2860,(48, 81),18	2878,(53, 81),18	2896,(46, 81),18	2914,(75, 81),18	2932,(62, 81),18	2950,(28, 81),18	2968,(60, 81),18	2986,(56, 81),18	3004,(64, 81),18	3022,(40, 81),18	3040,(63, 81),18	3058,(76, 81),18	3076,(50, 81),18	3094,(13, 81),18	3112,(37, 81),18	3130,(24, 81),18	3148,(17, 81),18	3166,(67, 81),18	3184,(27, 81),18	3202,(77, 81),18	3220,(25, 81),18	3238,(43, 81),18	3256,(47, 81),18	3274,(52, 81),18	3292,(57, 81),18	3310,(58, 81),18	3328,(68, 81),18	3346,(73, 81),18	3364,(74, 81),18	3382,(20, 81),18	3400,(41, 81),18	3418,(30, 81),18	3436,(54, 81),18	3454,(71, 81),18	3472,(80, 81),18	
# Outgoing
2587,(38, 81),18	2698,(18, 81),18	2806,(78, 81),18	2860,(48, 81),18	2950,(28, 81),18	3310,(58, 81),18	3328,(68, 81),18	
3112,(37, 81),18	3148,(17, 81),18	3166,(67, 81),18	3184,(27, 81),18	3202,(77, 81),18	3256,(47, 81),18	3292,(57, 81),18	
2407,(8, 19),72	2479,(8, 20),3	2482,(8, 30),3	2485,(8, 41),3	2488,(8, 54),99	2587,(8, 71),12	2599,(8, 80),9	2608,(36, 81),18	2662,(66, 81),18	2734,(16, 81),18	2824,(26, 81),18	2896,(46, 81),18	2986,(56, 81),18	3058,(76, 81),18	
163,(7, 16),15	178,(7, 33),9	187,(7, 51),42	229,(7, 56),9	238,(7, 71),18	382,(7, 50),96	1144,(7, 27),21	1165,(7, 57),18	1183,(7, 77),3	2479,(65, 81),18	2551,(15, 81),18	2680,(45, 81),18	2752,(35, 81),18	2842,(55, 81),18	2914,(75, 81),18	3220,(25, 81),18	
130,(6, 10),3	133,(6, 20),15	148,(6, 45),21	169,(6, 53),6	175,(6, 61),3	178,(6, 62),3	202,(6, 75),15	283,(6, 40),99	382,(6, 76),75	979,(6, 17),6	985,(6, 27),18	1003,(6, 67),3	1006,(6, 77),138	2275,(6, 29),3	2278,(6, 49),39	2497,(14, 81),18	2644,(34, 81),18	2716,(44, 81),18	3004,(64, 81),18	3130,(24, 81),18	3364,(74, 81),18	3436,(54, 81),18	
127,(5, 15),3	130,(5, 22),9	139,(5, 65),3	148,(5, 36),9	157,(5, 66),6	163,(5, 70),12	181,(5, 55),21	967,(5, 37),12	2317,(23, 81),18	2626,(33, 81),18	2878,(53, 81),18	3040,(63, 81),18	3094,(13, 81),18	3238,(43, 81),18	3346,(73, 81),18	
88,(4, 21),54	187,(4, 74),15	211,(4, 78),9	232,(4, 28),27	2095,(4, 39),93	2188,(4, 79),33	2239,(12, 81),18	2335,(72, 81),18	2371,(22, 81),18	2515,(32, 81),18	2770,(42, 81),18	2932,(62, 81),18	3274,(52, 81),18	
448,(3, 13),516	964,(3, 17),3	967,(3, 24),21	988,(3, 25),642	1630,(3, 43),378	2008,(3, 47),3	2011,(3, 52),30	2041,(3, 57),3	2044,(3, 58),15	2059,(3, 59),36	2095,(3, 68),72	2167,(3, 73),9	2176,(3, 74),3	2221,(11, 81),18	2257,(31, 81),18	2389,(21, 81),18	2569,(61, 81),18	2788,(51, 81),18	3400,(41, 81),18	3454,(71, 81),18	
184,(2, 18),27	211,(2, 26),6	217,(2, 42),9	226,(2, 46),3	229,(2, 48),3	232,(2, 62),42	274,(2, 63),174	2353,(10, 81),18	2533,(70, 81),18	2968,(60, 81),18	3022,(40, 81),18	3076,(50, 81),18	3382,(20, 81),18	3418,(30, 81),18	3472,(80, 81),18	
1,(0, 2),21	22,(0, 3),21	43,(0, 4),21	64,(0, 5),21	85,(0, 6),21	106,(0, 7),21	127,(0, 8),21	148,(1, 14),18	166,(1, 32),3	169,(1, 34),3	172,(1, 35),9	181,(1, 38),3	184,(1, 44),3	187,(1, 53),81	268,(1, 60),15	283,(1, 64),24	307,(1, 71),3	310,(1, 76),36	
