12104
# CPU
0,0,1	1,1,18	19,15,18	37,17,18	55,19,18	73,11,18	91,20,18	109,2,18	127,5,18	145,13,18	163,8,18	181,16,18	199,172,18	217,152,18	235,162,18	253,70,18	271,104,18	289,63,18	307,130,18	325,191,18	343,45,18	385,143,18	409,49,18	442,60,18	472,77,18	511,151,18	556,89,18	580,196,18	622,131,18	664,65,18	700,38,18	745,158,18	796,139,18	838,86,18	886,154,18	937,76,18	991,145,18	1033,99,18	1084,161,18	1138,91,18	1189,42,18	1246,157,18	1309,94,18	1372,146,18	1432,93,18	1504,56,18	1579,78,18	1654,51,18	1735,110,18	1816,26,18	1897,95,18	1984,96,18	2074,80,18	2164,85,18	2254,79,18	2341,200,18	2437,140,18	2533,163,18	2629,174,18	2725,82,18	2824,69,18	2926,122,18	3028,113,18	3130,156,18	3235,112,18	3340,105,18	3445,44,18	3556,129,18	3664,28,18	3766,169,18	3871,61,18	3985,167,18	4102,57,18	4222,126,18	4345,59,18	4468,133,18	4594,142,18	4720,111,18	4852,159,18	4990,84,18	5116,192,18	5254,179,18	5392,171,18	5536,178,18	5680,189,18	5842,121,18	6010,138,18	6166,195,18	6337,50,18	6523,21,18	6712,47,18	6904,83,18	7099,71,18	7297,182,18	7507,186,18	7720,120,18	7936,64,18	8158,67,18	8377,34,18	8605,73,18	8854,25,18	9112,81,18	9397,128,18	9712,62,18	10027,127,18	10369,98,18	10927,185,18	11509,147,18	12085,183,18	12103,201,1	
4,14,18	22,12,18	40,10,18	58,9,18	76,7,18	94,3,18	112,18,18	130,4,18	148,6,18	166,168,18	184,36,18	202,74,18	220,39,18	238,188,18	256,160,18	274,190,18	292,107,18	310,33,18	328,103,18	346,32,18	367,35,18	415,148,18	466,75,18	517,198,18	568,125,18	625,72,18	688,119,18	751,136,18	814,41,18	880,37,18	946,102,18	1015,118,18	1084,149,18	1156,155,18	1228,55,18	1306,68,18	1387,40,18	1468,88,18	1549,52,18	1630,134,18	1714,187,18	1798,29,18	1882,23,18	1972,116,18	2071,165,18	2170,153,18	2269,176,18	2368,92,18	2470,87,18	2572,197,18	2674,97,18	2779,124,18	2884,22,18	2995,199,18	3106,181,18	3220,24,18	3334,177,18	3448,194,18	3562,31,18	3676,123,18	3793,137,18	3913,100,18	4033,164,18	4165,109,18	4297,48,18	4432,180,18	4567,141,18	4702,106,18	4855,170,18	5008,108,18	5173,66,18	5338,193,18	5503,173,18	5671,117,18	5851,27,18	6037,43,18	6229,101,18	6424,30,18	6619,46,18	6823,150,18	7030,175,18	7243,166,18	7474,114,18	7705,132,18	7942,184,18	8182,54,18	8452,144,18	8791,90,18	9136,115,18	9592,58,18	10111,135,18	10789,53,18	
# Incoming
76,(9, 172),3	79,(9, 152),3	82,(10, 162),3	85,(9, 162),3	88,(14, 70),3	91,(12, 104),3	94,(7, 152),9	103,(7, 162),6	109,(7, 70),3	112,(3, 172),3	115,(10, 104),3	118,(9, 104),6	124,(3, 63),3	127,(12, 130),3	130,(18, 70),15	145,(18, 63),3	148,(4, 162),3	151,(18, 104),12	163,(9, 63),18	181,(6, 63),3	184,(168, 201),6	190,(14, 130),12	202,(36, 201),6	208,(7, 130),12	220,(74, 201),6	226,(3, 130),3	229,(14, 191),6	235,(7, 191),3	238,(39, 201),6	244,(10, 191),12	256,(188, 201),6	262,(4, 191),9	271,(6, 191),3	274,(160, 201),6	280,(9, 45),12	292,(190, 201),6	298,(18, 45),12	310,(107, 201),6	316,(4, 45),12	328,(33, 201),6	334,(6, 45),3	337,(3, 143),3	340,(18, 143),3	343,(10, 49),3	346,(103, 201),6	352,(6, 143),6	358,(3, 49),3	361,(6, 49),3	364,(32, 201),6	370,(9, 143),15	385,(35, 201),6	391,(12, 49),18	409,(10, 60),15	424,(9, 60),3	427,(3, 60),3	430,(18, 60),3	433,(148, 201),6	439,(6, 60),3	442,(3, 77),3	445,(18, 77),24	469,(6, 77),3	472,(14, 151),3	475,(9, 151),3	478,(18, 151),3	481,(12, 89),3	484,(75, 201),6	490,(7, 151),21	511,(10, 89),12	523,(4, 89),3	526,(12, 196),3	529,(10, 196),3	532,(7, 131),3	535,(198, 201),6	541,(9, 89),15	556,(4, 196),24	580,(18, 131),3	583,(3, 65),3	586,(125, 201),6	592,(3, 131),15	607,(6, 131),15	622,(10, 65),12	634,(9, 65),6	640,(6, 65),3	643,(72, 201),6	649,(4, 65),15	664,(14, 38),24	688,(3, 38),3	691,(4, 38),3	694,(6, 38),6	700,(14, 158),3	703,(10, 158),3	706,(119, 201),6	712,(7, 158),9	721,(3, 158),9	730,(4, 158),15	745,(14, 139),12	757,(12, 139),9	766,(7, 139),3	769,(136, 201),6	775,(9, 139),6	781,(3, 139),3	784,(18, 139),12	796,(12, 86),39	835,(6, 86),3	838,(41, 201),6	844,(7, 154),12	856,(18, 154),27	883,(4, 154),3	886,(14, 76),6	892,(10, 76),6	898,(37, 201),6	904,(9, 76),21	925,(7, 76),9	934,(4, 76),3	937,(12, 145),3	940,(10, 145),6	946,(7, 145),15	961,(14, 99),3	964,(102, 201),6	970,(3, 145),21	991,(10, 99),21	1012,(9, 99),3	1015,(7, 99),6	1021,(6, 99),12	1033,(118, 201),6	1039,(10, 161),3	1042,(7, 161),24	1066,(4, 161),18	1084,(14, 91),12	1096,(12, 91),6	1102,(149, 201),6	1108,(10, 91),3	1111,(9, 91),3	1114,(18, 91),18	1132,(4, 91),3	1135,(6, 91),3	1138,(12, 42),12	1150,(7, 42),15	1165,(3, 42),24	1189,(155, 201),6	1195,(9, 157),27	1222,(7, 157),3	1225,(4, 157),3	1228,(6, 157),18	1246,(55, 201),6	1252,(10, 94),24	1276,(9, 94),3	1279,(18, 94),9	1288,(4, 94),21	1309,(14, 146),9	1318,(10, 146),3	1321,(6, 146),3	1324,(68, 201),6	1330,(12, 146),27	1357,(7, 146),9	1366,(4, 146),6	1372,(14, 93),54	1426,(3, 93),6	1432,(40, 201),6	1438,(12, 56),3	1441,(10, 56),12	1453,(7, 56),3	1456,(3, 56),18	1474,(18, 56),12	1486,(6, 56),18	1504,(88, 201),6	1510,(14, 78),48	1558,(12, 78),3	1561,(10, 78),12	1573,(9, 78),3	1576,(4, 78),3	1579,(52, 201),6	1585,(14, 51),21	1606,(9, 51),30	1636,(18, 51),18	1654,(134, 201),6	1660,(14, 110),21	1681,(12, 110),3	1684,(10, 110),21	1705,(9, 110),12	1717,(7, 110),9	1726,(3, 110),9	1735,(187, 201),6	1741,(14, 26),3	1744,(12, 26),54	1798,(9, 26),12	1810,(3, 26),3	1813,(18, 26),3	1816,(29, 201),6	1822,(12, 95),42	1864,(10, 95),12	1876,(9, 95),3	1879,(3, 95),3	1882,(4, 95),15	1897,(6, 96),3	1900,(23, 201),6	1906,(14, 96),18	1924,(12, 96),27	1951,(18, 96),33	1984,(14, 80),3	1987,(6, 85),3	1990,(116, 201),6	1996,(12, 80),6	2002,(18, 80),18	2020,(4, 80),33	2053,(6, 80),21	2074,(9, 85),9	2083,(18, 85),6	2089,(165, 201),6	2095,(7, 85),33	2128,(3, 85),27	2155,(4, 85),9	2164,(9, 79),24	2188,(153, 201),6	2194,(7, 79),3	2197,(3, 79),33	2230,(6, 79),24	2254,(14, 200),33	2287,(10, 200),6	2293,(6, 200),48	2341,(176, 201),6	2347,(14, 140),15	2362,(10, 140),3	2365,(9, 140),15	2380,(7, 140),24	2404,(4, 140),3	2407,(6, 140),30	2437,(92, 201),6	2443,(10, 163),3	2446,(9, 163),51	2497,(3, 163),24	2521,(18, 163),9	2530,(4, 163),3	2533,(87, 201),6	2539,(10, 174),3	2542,(9, 174),3	2545,(7, 174),21	2566,(4, 174),6	2572,(6, 174),57	2629,(197, 201),6	2635,(12, 82),3	2638,(10, 82),36	2674,(9, 82),24	2698,(7, 82),15	2713,(3, 82),3	2716,(18, 82),9	2725,(97, 201),6	2731,(10, 69),30	2761,(18, 69),42	2803,(6, 69),21	2824,(124, 201),6	2830,(12, 122),6	2836,(10, 122),9	2845,(9, 122),30	2875,(7, 122),3	2878,(18, 122),27	2905,(4, 122),9	2914,(6, 122),12	2926,(22, 201),6	2932,(14, 113),54	2986,(4, 113),42	3028,(199, 201),6	3034,(14, 156),48	3082,(12, 156),3	3085,(9, 156),33	3118,(7, 156),3	3121,(4, 156),3	3124,(6, 156),6	3130,(181, 201),6	3136,(10, 112),3	3139,(3, 112),81	3220,(18, 112),6	3226,(6, 112),9	3235,(12, 105),3	3238,(24, 201),6	3244,(14, 105),18	3262,(10, 105),6	3268,(7, 105),6	3274,(3, 105),3	3277,(18, 105),51	3328,(4, 105),9	3337,(6, 105),3	3340,(12, 44),3	3343,(9, 44),3	3346,(6, 44),6	3352,(177, 201),6	3358,(18, 44),78	3436,(4, 44),9	3445,(9, 129),15	3460,(10, 28),3	3463,(14, 61),3	3466,(194, 201),6	3472,(7, 129),24	3496,(3, 129),21	3517,(4, 129),15	3532,(6, 129),24	3556,(12, 28),12	3568,(7, 28),12	3580,(31, 201),6	3586,(4, 28),18	3604,(6, 28),60	3664,(10, 169),54	3718,(18, 169),6	3724,(4, 169),42	3766,(123, 201),6	3772,(7, 61),93	3865,(18, 61),3	3868,(4, 61),3	3871,(137, 201),6	3877,(12, 167),6	3883,(9, 167),12	3895,(7, 167),27	3922,(4, 167),12	3934,(6, 167),51	3985,(100, 201),6	3991,(14, 57),3	3994,(7, 57),15	4009,(3, 57),90	4099,(6, 57),3	4102,(164, 201),6	4108,(12, 126),36	4144,(7, 126),57	4201,(4, 126),18	4219,(6, 126),3	4222,(109, 201),6	4228,(14, 59),3	4231,(7, 59),12	4243,(3, 59),15	4258,(18, 59),81	4339,(4, 59),3	4342,(6, 59),3	4345,(48, 201),6	4351,(12, 133),36	4387,(10, 133),3	4390,(7, 133),21	4411,(4, 133),3	4414,(6, 133),54	4468,(180, 201),6	4474,(14, 142),3	4477,(9, 142),18	4495,(7, 142),21	4516,(4, 142),3	4519,(6, 142),75	4594,(141, 201),6	4600,(12, 111),3	4603,(10, 111),6	4609,(9, 111),78	4687,(18, 111),3	4690,(4, 111),15	4705,(6, 111),15	4720,(106, 201),6	4726,(9, 159),39	4765,(7, 159),18	4783,(6, 159),69	4852,(12, 84),9	4861,(9, 84),3	4864,(7, 84),6	4870,(18, 84),3	4873,(170, 201),6	4879,(3, 84),24	4903,(4, 84),54	4957,(6, 84),33	4990,(14, 192),9	4999,(12, 192),3	5002,(10, 192),24	5026,(9, 192),15	5041,(7, 192),15	5056,(4, 192),60	5116,(108, 201),6	5122,(14, 179),9	5131,(10, 179),3	5134,(7, 179),117	5251,(4, 179),3	5254,(66, 201),6	5260,(14, 171),6	5266,(10, 171),3	5269,(7, 171),21	5290,(3, 171),3	5293,(18, 171),51	5344,(4, 171),6	5350,(6, 171),42	5392,(193, 201),6	5398,(14, 178),57	5455,(3, 178),6	5461,(4, 178),75	5536,(173, 201),6	5542,(14, 189),27	5569,(12, 189),3	5572,(10, 189),90	5662,(9, 189),3	5665,(18, 189),12	5677,(6, 189),3	5680,(12, 121),3	5683,(7, 138),6	5689,(117, 201),6	5695,(14, 121),36	5731,(7, 121),60	5791,(3, 121),30	5821,(4, 121),21	5842,(12, 138),15	5857,(3, 138),3	5860,(10, 195),6	5866,(9, 50),3	5869,(27, 201),6	5875,(4, 138),18	5893,(6, 138),117	6010,(18, 195),123	6133,(4, 195),24	6157,(6, 195),9	6166,(43, 201),6	6172,(14, 50),30	6202,(12, 50),72	6274,(7, 50),3	6277,(3, 50),60	6337,(101, 201),6	6343,(10, 21),3	6346,(7, 21),6	6352,(3, 21),3	6355,(4, 21),147	6502,(6, 21),21	6523,(30, 201),6	6529,(12, 47),3	6532,(10, 47),3	6535,(4, 47),156	6691,(6, 47),21	6712,(46, 201),6	6718,(12, 83),9	6727,(18, 83),3	6730,(4, 83),174	6904,(150, 201),6	6910,(14, 71),30	6940,(12, 71),12	6952,(3, 71),144	7096,(6, 71),3	7099,(175, 201),6	7105,(14, 182),48	7153,(10, 182),6	7159,(9, 182),111	7270,(7, 182),12	7282,(18, 182),3	7285,(4, 182),12	7297,(166, 201),6	7303,(9, 186),105	7408,(7, 186),3	7411,(3, 186),21	7432,(4, 186),9	7441,(6, 186),66	7507,(114, 201),6	7513,(14, 120),39	7552,(9, 120),72	7624,(7, 120),3	7627,(3, 120),81	7708,(18, 120),3	7711,(6, 120),9	7720,(10, 64),3	7723,(132, 201),6	7729,(7, 64),12	7741,(18, 64),90	7831,(4, 64),42	7873,(6, 64),63	7936,(3, 67),21	7957,(14, 25),3	7960,(184, 201),6	7966,(14, 67),132	8098,(18, 67),54	8152,(4, 67),6	8158,(14, 34),48	8206,(12, 34),69	8275,(10, 34),6	8281,(7, 34),90	8371,(18, 34),6	8377,(54, 201),6	8383,(14, 73),81	8464,(7, 73),99	8563,(6, 73),42	8605,(144, 201),6	8611,(12, 25),27	8638,(10, 25),159	8797,(7, 25),15	8812,(3, 25),3	8815,(18, 25),39	8854,(90, 201),6	8860,(14, 81),3	8863,(12, 81),3	8866,(10, 81),21	8887,(9, 81),81	8968,(3, 81),18	8986,(18, 81),78	9064,(4, 81),45	9109,(6, 81),3	9112,(14, 128),9	9121,(12, 128),3	9124,(9, 128),237	9361,(3, 128),3	9364,(4, 128),3	9367,(6, 128),30	9397,(115, 201),6	9403,(14, 62),126	9529,(12, 62),30	9559,(3, 62),15	9574,(6, 62),138	9712,(58, 201),6	9718,(14, 127),24	9742,(12, 127),117	9859,(9, 127),27	9886,(3, 127),138	10024,(6, 127),3	10027,(14, 98),216	10243,(12, 98),72	10315,(10, 98),6	10321,(9, 98),18	10339,(7, 98),27	10366,(18, 98),3	10369,(135, 201),6	10375,(12, 185),51	10426,(9, 185),420	10846,(18, 185),12	10858,(4, 185),66	10924,(6, 185),3	10927,(53, 201),6	10933,(14, 147),18	10951,(9, 147),3	10954,(7, 147),12	10966,(18, 147),3	10969,(4, 147),30	10999,(6, 147),510	11509,(12, 183),6	11515,(3, 183),84	11599,(18, 183),18	11617,(4, 183),12	11629,(6, 183),456	
1,(0, 14),3	4,(0, 12),3	7,(0, 10),3	10,(0, 9),3	13,(0, 7),3	16,(0, 3),3	19,(0, 18),3	22,(0, 4),3	25,(0, 6),3	28,(1, 74),15	43,(15, 188),6	49,(1, 107),3	52,(1, 33),3	55,(17, 168),6	61,(15, 160),12	73,(19, 74),3	76,(19, 39),3	79,(19, 188),6	85,(19, 190),3	88,(19, 107),3	91,(11, 168),3	94,(11, 188),9	103,(17, 107),6	109,(20, 168),3	112,(20, 36),3	115,(20, 39),3	118,(17, 33),9	127,(2, 36),3	130,(2, 74),3	133,(2, 39),3	136,(2, 188),6	142,(11, 103),3	145,(5, 168),3	148,(11, 160),15	163,(13, 168),3	166,(13, 36),15	181,(8, 74),3	184,(11, 39),18	202,(1, 190),27	229,(5, 107),18	247,(11, 33),6	253,(2, 33),9	262,(16, 33),3	265,(15, 103),6	271,(2, 103),9	280,(8, 103),9	289,(16, 103),3	292,(17, 32),3	295,(19, 32),9	304,(2, 32),6	310,(16, 32),15	325,(15, 35),3	328,(17, 35),18	346,(19, 35),9	355,(11, 35),3	358,(20, 35),9	367,(1, 148),12	379,(20, 148),3	382,(2, 148),3	385,(5, 148),3	388,(13, 148),27	415,(19, 75),3	418,(11, 75),45	463,(2, 75),3	466,(1, 198),24	490,(17, 198),18	508,(13, 198),9	517,(15, 125),6	523,(17, 125),15	538,(11, 125),9	547,(5, 125),15	562,(13, 125),3	565,(8, 125),3	568,(1, 72),6	574,(15, 72),3	577,(19, 72),6	583,(11, 72),15	598,(13, 72),3	601,(8, 72),3	604,(16, 72),21	625,(1, 119),27	652,(15, 119),3	655,(17, 119),18	673,(19, 119),3	676,(2, 119),3	679,(5, 119),3	682,(13, 119),3	685,(16, 119),3	688,(1, 136),3	691,(11, 136),3	694,(20, 136),3	697,(13, 136),54	751,(19, 41),51	802,(2, 41),3	805,(5, 41),6	811,(13, 41),3	814,(1, 37),15	829,(11, 37),3	832,(20, 37),15	847,(5, 37),3	850,(13, 37),30	880,(17, 102),3	883,(20, 102),24	907,(5, 102),39	946,(15, 118),27	973,(11, 118),3	976,(20, 118),3	979,(2, 118),6	985,(13, 118),24	1009,(8, 118),6	1015,(1, 149),9	1024,(15, 149),3	1027,(17, 149),12	1039,(19, 149),3	1042,(2, 149),3	1045,(5, 149),3	1048,(16, 149),36	1084,(17, 155),12	1096,(11, 155),36	1132,(20, 155),3	1135,(2, 155),3	1138,(13, 155),3	1141,(8, 155),3	1144,(16, 155),12	1156,(1, 55),3	1159,(19, 55),3	1162,(11, 55),6	1168,(20, 55),3	1171,(5, 55),36	1207,(8, 55),15	1222,(16, 55),6	1228,(17, 68),27	1255,(11, 68),39	1294,(13, 68),9	1303,(16, 68),3	1306,(1, 40),30	1336,(17, 40),12	1348,(20, 40),3	1351,(5, 40),18	1369,(8, 40),12	1381,(16, 40),6	1387,(1, 88),3	1390,(15, 88),6	1396,(11, 88),51	1447,(20, 88),9	1456,(8, 88),12	1468,(15, 52),3	1471,(20, 52),9	1480,(2, 52),6	1486,(13, 52),3	1489,(8, 52),51	1540,(16, 52),9	1549,(1, 134),3	1552,(15, 134),45	1597,(17, 134),30	1627,(16, 134),3	1630,(15, 187),9	1639,(17, 187),3	1642,(19, 187),27	1669,(20, 187),6	1675,(16, 187),39	1714,(1, 29),6	1720,(19, 29),3	1723,(20, 29),18	1741,(5, 29),54	1795,(16, 29),3	1798,(1, 23),3	1801,(17, 23),3	1804,(5, 23),3	1807,(13, 23),54	1861,(8, 23),21	1882,(1, 116),3	1885,(15, 116),18	1903,(11, 116),36	1939,(2, 116),3	1942,(5, 116),6	1948,(13, 116),3	1951,(8, 116),21	1972,(1, 165),3	1975,(17, 165),6	1981,(11, 165),15	1996,(20, 165),12	2008,(2, 165),9	2017,(5, 165),36	2053,(13, 165),12	2065,(16, 165),6	2071,(17, 153),9	2080,(19, 153),57	2137,(20, 153),3	2140,(5, 153),24	2164,(13, 153),6	2170,(15, 176),6	2176,(11, 176),3	2179,(5, 176),54	2233,(8, 176),36	2269,(1, 92),3	2272,(17, 92),33	2305,(19, 92),42	2347,(5, 92),9	2356,(8, 92),3	2359,(16, 92),9	2368,(1, 87),48	2416,(20, 87),33	2449,(2, 87),9	2458,(13, 87),9	2467,(8, 87),3	2470,(1, 197),39	2509,(17, 197),12	2521,(19, 197),15	2536,(11, 197),3	2539,(8, 197),33	2572,(15, 97),18	2590,(17, 97),3	2593,(19, 97),12	2605,(20, 97),6	2611,(5, 97),3	2614,(13, 97),60	2674,(1, 124),24	2698,(17, 124),21	2719,(11, 124),9	2728,(13, 124),12	2740,(8, 124),36	2776,(16, 124),3	2779,(17, 22),3	2782,(2, 22),18	2800,(5, 22),51	2851,(13, 22),33	2884,(1, 199),9	2893,(15, 199),66	2959,(17, 199),3	2962,(11, 199),3	2965,(5, 199),27	2992,(8, 199),3	2995,(1, 181),75	3070,(15, 181),3	3073,(17, 181),3	3076,(19, 181),3	3079,(20, 181),18	3097,(2, 181),3	3100,(16, 181),6	3106,(1, 24),3	3109,(15, 24),24	3133,(20, 24),9	3142,(2, 24),45	3187,(8, 24),9	3196,(16, 24),24	3220,(17, 177),39	3259,(19, 177),54	3313,(11, 177),6	3319,(2, 177),6	3325,(13, 177),9	3334,(1, 194),30	3364,(5, 194),45	3409,(13, 194),39	3448,(19, 31),81	3529,(11, 31),3	3532,(20, 31),18	3550,(13, 31),12	3562,(1, 123),45	3607,(15, 123),12	3619,(2, 123),3	3622,(5, 123),48	3670,(8, 123),3	3673,(16, 123),3	3676,(15, 137),18	3694,(17, 137),63	3757,(19, 137),6	3763,(11, 137),21	3784,(20, 137),3	3787,(2, 137),3	3790,(5, 137),3	3793,(1, 100),3	3796,(15, 100),3	3799,(19, 100),3	3802,(11, 100),36	3838,(13, 100),75	3913,(1, 164),3	3916,(19, 164),45	3961,(11, 164),3	3964,(20, 164),48	4012,(5, 164),3	4015,(16, 164),18	4033,(1, 109),24	4057,(15, 109),9	4066,(11, 109),39	4105,(13, 109),60	4165,(17, 48),3	4168,(19, 48),3	4171,(20, 48),105	4276,(2, 48),3	4279,(5, 48),3	4282,(13, 48),6	4288,(8, 48),3	4291,(16, 48),6	4297,(1, 180),6	4303,(17, 180),3	4306,(19, 180),30	4336,(11, 180),21	4357,(20, 180),39	4396,(5, 180),12	4408,(13, 180),24	4432,(1, 141),36	4468,(15, 141),3	4471,(19, 141),9	4480,(13, 141),87	4567,(11, 106),3	4570,(20, 106),15	4585,(2, 106),81	4666,(13, 106),36	4702,(1, 170),15	4717,(15, 170),6	4723,(20, 170),36	4759,(13, 170),90	4849,(8, 170),6	4855,(1, 108),3	4858,(17, 108),3	4861,(19, 108),81	4942,(11, 108),3	4945,(20, 108),6	4951,(2, 108),15	4966,(13, 108),3	4969,(8, 108),27	4996,(16, 108),12	5008,(1, 66),27	5035,(17, 66),51	5086,(11, 66),3	5089,(13, 66),6	5095,(16, 66),78	5173,(17, 193),51	5224,(11, 193),3	5227,(5, 193),3	5230,(13, 193),108	5338,(15, 173),120	5458,(19, 173),3	5461,(2, 173),3	5464,(5, 173),3	5467,(8, 173),36	5503,(1, 117),87	5590,(19, 117),45	5635,(11, 117),24	5659,(2, 117),3	5662,(13, 117),3	5665,(16, 117),6	5671,(17, 27),36	5707,(20, 27),18	5725,(2, 27),75	5800,(13, 27),27	5827,(8, 27),15	5842,(16, 27),9	5851,(1, 43),3	5854,(15, 43),15	5869,(17, 43),69	5938,(20, 43),36	5974,(13, 43),63	6037,(1, 101),9	6046,(15, 101),78	6124,(19, 101),72	6196,(20, 101),15	6211,(13, 101),15	6226,(8, 101),3	6229,(1, 30),3	6232,(15, 30),54	6286,(11, 30),54	6340,(20, 30),33	6373,(13, 30),51	6424,(1, 46),3	6427,(15, 46),12	6439,(19, 46),30	6469,(11, 46),3	6472,(20, 46),3	6475,(2, 46),126	6601,(16, 46),18	6619,(15, 150),15	6634,(17, 150),3	6637,(20, 150),132	6769,(2, 150),51	6820,(16, 150),3	6823,(1, 175),51	6874,(19, 175),6	6880,(2, 175),105	6985,(5, 175),3	6988,(8, 175),42	7030,(1, 166),3	7033,(17, 166),3	7036,(11, 166),15	7051,(20, 166),48	7099,(5, 166),24	7123,(13, 166),69	7192,(8, 166),51	7243,(19, 114),75	7318,(20, 114),3	7321,(2, 114),3	7324,(5, 114),135	7459,(13, 114),12	7471,(8, 114),3	7474,(1, 132),3	7477,(17, 132),3	7480,(11, 132),42	7522,(20, 132),3	7525,(5, 132),18	7543,(13, 132),162	7705,(1, 184),21	7726,(11, 184),21	7747,(20, 184),3	7750,(2, 184),3	7753,(13, 184),3	7756,(16, 184),186	7942,(15, 54),3	7945,(19, 54),18	7963,(11, 54),60	8023,(20, 54),150	8173,(2, 54),3	8176,(5, 54),3	8179,(16, 54),3	8182,(19, 144),3	8185,(11, 144),78	8263,(2, 144),15	8278,(13, 144),105	8383,(8, 144),69	8452,(1, 90),63	8515,(19, 90),24	8539,(11, 90),138	8677,(5, 90),90	8767,(8, 90),12	8779,(16, 90),12	8791,(1, 115),48	8839,(15, 115),3	8842,(17, 115),48	8890,(11, 115),225	9115,(2, 115),3	9118,(5, 115),9	9127,(13, 115),3	9130,(8, 115),6	9136,(15, 58),372	9508,(19, 58),45	9553,(20, 58),24	9577,(8, 58),3	9580,(16, 58),12	9592,(1, 135),15	9607,(11, 135),60	9667,(20, 135),99	9766,(2, 135),60	9826,(13, 135),6	9832,(8, 135),279	10111,(1, 53),6	10117,(17, 53),6	10123,(19, 53),45	10168,(20, 53),246	10414,(2, 53),3	10417,(13, 53),27	10444,(8, 53),9	10453,(16, 53),336	
# Outgoing
1,(0, 14),3	4,(0, 12),3	7,(0, 10),3	10,(0, 9),3	13,(0, 7),3	16,(0, 3),3	19,(0, 18),3	22,(0, 4),3	25,(0, 6),3	28,(1, 74),15	43,(15, 188),6	49,(1, 107),3	52,(1, 33),3	55,(17, 168),6	61,(15, 160),12	73,(19, 74),3	76,(19, 39),3	79,(19, 188),6	85,(19, 190),3	88,(19, 107),3	91,(11, 168),3	94,(11, 188),9	103,(17, 107),6	109,(20, 168),3	112,(20, 36),3	115,(20, 39),3	118,(17, 33),9	127,(2, 36),3	130,(2, 74),3	133,(2, 39),3	136,(2, 188),6	142,(11, 103),3	145,(5, 168),3	148,(11, 160),15	163,(13, 168),3	166,(13, 36),15	181,(8, 74),3	184,(11, 39),18	202,(1, 190),27	229,(5, 107),18	247,(11, 33),6	253,(2, 33),9	262,(16, 33),3	265,(15, 103),6	271,(2, 103),9	280,(8, 103),9	289,(16, 103),3	292,(17, 32),3	295,(19, 32),9	304,(2, 32),6	310,(16, 32),15	325,(15, 35),3	328,(17, 35),18	346,(19, 35),9	355,(11, 35),3	358,(20, 35),9	367,(1, 148),12	379,(20, 148),3	382,(2, 148),3	385,(5, 148),3	388,(13, 148),27	415,(19, 75),3	418,(11, 75),45	463,(2, 75),3	466,(1, 198),24	490,(17, 198),18	508,(13, 198),9	517,(15, 125),6	523,(17, 125),15	538,(11, 125),9	547,(5, 125),15	562,(13, 125),3	565,(8, 125),3	568,(1, 72),6	574,(15, 72),3	577,(19, 72),6	583,(11, 72),15	598,(13, 72),3	601,(8, 72),3	604,(16, 72),21	625,(1, 119),27	652,(15, 119),3	655,(17, 119),18	673,(19, 119),3	676,(2, 119),3	679,(5, 119),3	682,(13, 119),3	685,(16, 119),3	688,(1, 136),3	691,(11, 136),3	694,(20, 136),3	697,(13, 136),54	751,(19, 41),51	802,(2, 41),3	805,(5, 41),6	811,(13, 41),3	814,(1, 37),15	829,(11, 37),3	832,(20, 37),15	847,(5, 37),3	850,(13, 37),30	880,(17, 102),3	883,(20, 102),24	907,(5, 102),39	946,(15, 118),27	973,(11, 118),3	976,(20, 118),3	979,(2, 118),6	985,(13, 118),24	1009,(8, 118),6	1015,(1, 149),9	1024,(15, 149),3	1027,(17, 149),12	1039,(19, 149),3	1042,(2, 149),3	1045,(5, 149),3	1048,(16, 149),36	1084,(17, 155),12	1096,(11, 155),36	1132,(20, 155),3	1135,(2, 155),3	1138,(13, 155),3	1141,(8, 155),3	1144,(16, 155),12	1156,(1, 55),3	1159,(19, 55),3	1162,(11, 55),6	1168,(20, 55),3	1171,(5, 55),36	1207,(8, 55),15	1222,(16, 55),6	1228,(17, 68),27	1255,(11, 68),39	1294,(13, 68),9	1303,(16, 68),3	1306,(1, 40),30	1336,(17, 40),12	1348,(20, 40),3	1351,(5, 40),18	1369,(8, 40),12	1381,(16, 40),6	1387,(1, 88),3	1390,(15, 88),6	1396,(11, 88),51	1447,(20, 88),9	1456,(8, 88),12	1468,(15, 52),3	1471,(20, 52),9	1480,(2, 52),6	1486,(13, 52),3	1489,(8, 52),51	1540,(16, 52),9	1549,(1, 134),3	1552,(15, 134),45	1597,(17, 134),30	1627,(16, 134),3	1630,(15, 187),9	1639,(17, 187),3	1642,(19, 187),27	1669,(20, 187),6	1675,(16, 187),39	1714,(1, 29),6	1720,(19, 29),3	1723,(20, 29),18	1741,(5, 29),54	1795,(16, 29),3	1798,(1, 23),3	1801,(17, 23),3	1804,(5, 23),3	1807,(13, 23),54	1861,(8, 23),21	1882,(1, 116),3	1885,(15, 116),18	1903,(11, 116),36	1939,(2, 116),3	1942,(5, 116),6	1948,(13, 116),3	1951,(8, 116),21	1972,(1, 165),3	1975,(17, 165),6	1981,(11, 165),15	1996,(20, 165),12	2008,(2, 165),9	2017,(5, 165),36	2053,(13, 165),12	2065,(16, 165),6	2071,(17, 153),9	2080,(19, 153),57	2137,(20, 153),3	2140,(5, 153),24	2164,(13, 153),6	2170,(15, 176),6	2176,(11, 176),3	2179,(5, 176),54	2233,(8, 176),36	2269,(1, 92),3	2272,(17, 92),33	2305,(19, 92),42	2347,(5, 92),9	2356,(8, 92),3	2359,(16, 92),9	2368,(1, 87),48	2416,(20, 87),33	2449,(2, 87),9	2458,(13, 87),9	2467,(8, 87),3	2470,(1, 197),39	2509,(17, 197),12	2521,(19, 197),15	2536,(11, 197),3	2539,(8, 197),33	2572,(15, 97),18	2590,(17, 97),3	2593,(19, 97),12	2605,(20, 97),6	2611,(5, 97),3	2614,(13, 97),60	2674,(1, 124),24	2698,(17, 124),21	2719,(11, 124),9	2728,(13, 124),12	2740,(8, 124),36	2776,(16, 124),3	2779,(17, 22),3	2782,(2, 22),18	2800,(5, 22),51	2851,(13, 22),33	2884,(1, 199),9	2893,(15, 199),66	2959,(17, 199),3	2962,(11, 199),3	2965,(5, 199),27	2992,(8, 199),3	2995,(1, 181),75	3070,(15, 181),3	3073,(17, 181),3	3076,(19, 181),3	3079,(20, 181),18	3097,(2, 181),3	3100,(16, 181),6	3106,(1, 24),3	3109,(15, 24),24	3133,(20, 24),9	3142,(2, 24),45	3187,(8, 24),9	3196,(16, 24),24	3220,(17, 177),39	3259,(19, 177),54	3313,(11, 177),6	3319,(2, 177),6	3325,(13, 177),9	3334,(1, 194),30	3364,(5, 194),45	3409,(13, 194),39	3448,(19, 31),81	3529,(11, 31),3	3532,(20, 31),18	3550,(13, 31),12	3562,(1, 123),45	3607,(15, 123),12	3619,(2, 123),3	3622,(5, 123),48	3670,(8, 123),3	3673,(16, 123),3	3676,(15, 137),18	3694,(17, 137),63	3757,(19, 137),6	3763,(11, 137),21	3784,(20, 137),3	3787,(2, 137),3	3790,(5, 137),3	3793,(1, 100),3	3796,(15, 100),3	3799,(19, 100),3	3802,(11, 100),36	3838,(13, 100),75	3913,(1, 164),3	3916,(19, 164),45	3961,(11, 164),3	3964,(20, 164),48	4012,(5, 164),3	4015,(16, 164),18	4033,(1, 109),24	4057,(15, 109),9	4066,(11, 109),39	4105,(13, 109),60	4165,(17, 48),3	4168,(19, 48),3	4171,(20, 48),105	4276,(2, 48),3	4279,(5, 48),3	4282,(13, 48),6	4288,(8, 48),3	4291,(16, 48),6	4297,(1, 180),6	4303,(17, 180),3	4306,(19, 180),30	4336,(11, 180),21	4357,(20, 180),39	4396,(5, 180),12	4408,(13, 180),24	4432,(1, 141),36	4468,(15, 141),3	4471,(19, 141),9	4480,(13, 141),87	4567,(11, 106),3	4570,(20, 106),15	4585,(2, 106),81	4666,(13, 106),36	4702,(1, 170),15	4717,(15, 170),6	4723,(20, 170),36	4759,(13, 170),90	4849,(8, 170),6	4855,(1, 108),3	4858,(17, 108),3	4861,(19, 108),81	4942,(11, 108),3	4945,(20, 108),6	4951,(2, 108),15	4966,(13, 108),3	4969,(8, 108),27	4996,(16, 108),12	5008,(1, 66),27	5035,(17, 66),51	5086,(11, 66),3	5089,(13, 66),6	5095,(16, 66),78	5173,(17, 193),51	5224,(11, 193),3	5227,(5, 193),3	5230,(13, 193),108	5338,(15, 173),120	5458,(19, 173),3	5461,(2, 173),3	5464,(5, 173),3	5467,(8, 173),36	5503,(1, 117),87	5590,(19, 117),45	5635,(11, 117),24	5659,(2, 117),3	5662,(13, 117),3	5665,(16, 117),6	5671,(17, 27),36	5707,(20, 27),18	5725,(2, 27),75	5800,(13, 27),27	5827,(8, 27),15	5842,(16, 27),9	5851,(1, 43),3	5854,(15, 43),15	5869,(17, 43),69	5938,(20, 43),36	5974,(13, 43),63	6037,(1, 101),9	6046,(15, 101),78	6124,(19, 101),72	6196,(20, 101),15	6211,(13, 101),15	6226,(8, 101),3	6229,(1, 30),3	6232,(15, 30),54	6286,(11, 30),54	6340,(20, 30),33	6373,(13, 30),51	6424,(1, 46),3	6427,(15, 46),12	6439,(19, 46),30	6469,(11, 46),3	6472,(20, 46),3	6475,(2, 46),126	6601,(16, 46),18	6619,(15, 150),15	6634,(17, 150),3	6637,(20, 150),132	6769,(2, 150),51	6820,(16, 150),3	6823,(1, 175),51	6874,(19, 175),6	6880,(2, 175),105	6985,(5, 175),3	6988,(8, 175),42	7030,(1, 166),3	7033,(17, 166),3	7036,(11, 166),15	7051,(20, 166),48	7099,(5, 166),24	7123,(13, 166),69	7192,(8, 166),51	7243,(19, 114),75	7318,(20, 114),3	7321,(2, 114),3	7324,(5, 114),135	7459,(13, 114),12	7471,(8, 114),3	7474,(1, 132),3	7477,(17, 132),3	7480,(11, 132),42	7522,(20, 132),3	7525,(5, 132),18	7543,(13, 132),162	7705,(1, 184),21	7726,(11, 184),21	7747,(20, 184),3	7750,(2, 184),3	7753,(13, 184),3	7756,(16, 184),186	7942,(15, 54),3	7945,(19, 54),18	7963,(11, 54),60	8023,(20, 54),150	8173,(2, 54),3	8176,(5, 54),3	8179,(16, 54),3	8182,(19, 144),3	8185,(11, 144),78	8263,(2, 144),15	8278,(13, 144),105	8383,(8, 144),69	8452,(1, 90),63	8515,(19, 90),24	8539,(11, 90),138	8677,(5, 90),90	8767,(8, 90),12	8779,(16, 90),12	8791,(1, 115),48	8839,(15, 115),3	8842,(17, 115),48	8890,(11, 115),225	9115,(2, 115),3	9118,(5, 115),9	9127,(13, 115),3	9130,(8, 115),6	9136,(15, 58),372	9508,(19, 58),45	9553,(20, 58),24	9577,(8, 58),3	9580,(16, 58),12	9592,(1, 135),15	9607,(11, 135),60	9667,(20, 135),99	9766,(2, 135),60	9826,(13, 135),6	9832,(8, 135),279	10111,(1, 53),6	10117,(17, 53),6	10123,(19, 53),45	10168,(20, 53),246	10414,(2, 53),3	10417,(13, 53),27	10444,(8, 53),9	10453,(16, 53),336	
76,(9, 172),3	79,(9, 152),3	82,(10, 162),3	85,(9, 162),3	88,(14, 70),3	91,(12, 104),3	94,(7, 152),9	103,(7, 162),6	109,(7, 70),3	112,(3, 172),3	115,(10, 104),3	118,(9, 104),6	124,(3, 63),3	127,(12, 130),3	130,(18, 70),15	145,(18, 63),3	148,(4, 162),3	151,(18, 104),12	163,(9, 63),18	181,(6, 63),3	184,(168, 201),6	190,(14, 130),12	202,(36, 201),6	208,(7, 130),12	220,(74, 201),6	226,(3, 130),3	229,(14, 191),6	235,(7, 191),3	238,(39, 201),6	244,(10, 191),12	256,(188, 201),6	262,(4, 191),9	271,(6, 191),3	274,(160, 201),6	280,(9, 45),12	292,(190, 201),6	298,(18, 45),12	310,(107, 201),6	316,(4, 45),12	328,(33, 201),6	334,(6, 45),3	337,(3, 143),3	340,(18, 143),3	343,(10, 49),3	346,(103, 201),6	352,(6, 143),6	358,(3, 49),3	361,(6, 49),3	364,(32, 201),6	370,(9, 143),15	385,(35, 201),6	391,(12, 49),18	409,(10, 60),15	424,(9, 60),3	427,(3, 60),3	430,(18, 60),3	433,(148, 201),6	439,(6, 60),3	442,(3, 77),3	445,(18, 77),24	469,(6, 77),3	472,(14, 151),3	475,(9, 151),3	478,(18, 151),3	481,(12, 89),3	484,(75, 201),6	490,(7, 151),21	511,(10, 89),12	523,(4, 89),3	526,(12, 196),3	529,(10, 196),3	532,(7, 131),3	535,(198, 201),6	541,(9, 89),15	556,(4, 196),24	580,(18, 131),3	583,(3, 65),3	586,(125, 201),6	592,(3, 131),15	607,(6, 131),15	622,(10, 65),12	634,(9, 65),6	640,(6, 65),3	643,(72, 201),6	649,(4, 65),15	664,(14, 38),24	688,(3, 38),3	691,(4, 38),3	694,(6, 38),6	700,(14, 158),3	703,(10, 158),3	706,(119, 201),6	712,(7, 158),9	721,(3, 158),9	730,(4, 158),15	745,(14, 139),12	757,(12, 139),9	766,(7, 139),3	769,(136, 201),6	775,(9, 139),6	781,(3, 139),3	784,(18, 139),12	796,(12, 86),39	835,(6, 86),3	838,(41, 201),6	844,(7, 154),12	856,(18, 154),27	883,(4, 154),3	886,(14, 76),6	892,(10, 76),6	898,(37, 201),6	904,(9, 76),21	925,(7, 76),9	934,(4, 76),3	937,(12, 145),3	940,(10, 145),6	946,(7, 145),15	961,(14, 99),3	964,(102, 201),6	970,(3, 145),21	991,(10, 99),21	1012,(9, 99),3	1015,(7, 99),6	1021,(6, 99),12	1033,(118, 201),6	1039,(10, 161),3	1042,(7, 161),24	1066,(4, 161),18	1084,(14, 91),12	1096,(12, 91),6	1102,(149, 201),6	1108,(10, 91),3	1111,(9, 91),3	1114,(18, 91),18	1132,(4, 91),3	1135,(6, 91),3	1138,(12, 42),12	1150,(7, 42),15	1165,(3, 42),24	1189,(155, 201),6	1195,(9, 157),27	1222,(7, 157),3	1225,(4, 157),3	1228,(6, 157),18	1246,(55, 201),6	1252,(10, 94),24	1276,(9, 94),3	1279,(18, 94),9	1288,(4, 94),21	1309,(14, 146),9	1318,(10, 146),3	1321,(6, 146),3	1324,(68, 201),6	1330,(12, 146),27	1357,(7, 146),9	1366,(4, 146),6	1372,(14, 93),54	1426,(3, 93),6	1432,(40, 201),6	1438,(12, 56),3	1441,(10, 56),12	1453,(7, 56),3	1456,(3, 56),18	1474,(18, 56),12	1486,(6, 56),18	1504,(88, 201),6	1510,(14, 78),48	1558,(12, 78),3	1561,(10, 78),12	1573,(9, 78),3	1576,(4, 78),3	1579,(52, 201),6	1585,(14, 51),21	1606,(9, 51),30	1636,(18, 51),18	1654,(134, 201),6	1660,(14, 110),21	1681,(12, 110),3	1684,(10, 110),21	1705,(9, 110),12	1717,(7, 110),9	1726,(3, 110),9	1735,(187, 201),6	1741,(14, 26),3	1744,(12, 26),54	1798,(9, 26),12	1810,(3, 26),3	1813,(18, 26),3	1816,(29, 201),6	1822,(12, 95),42	1864,(10, 95),12	1876,(9, 95),3	1879,(3, 95),3	1882,(4, 95),15	1897,(6, 96),3	1900,(23, 201),6	1906,(14, 96),18	1924,(12, 96),27	1951,(18, 96),33	1984,(14, 80),3	1987,(6, 85),3	1990,(116, 201),6	1996,(12, 80),6	2002,(18, 80),18	2020,(4, 80),33	2053,(6, 80),21	2074,(9, 85),9	2083,(18, 85),6	2089,(165, 201),6	2095,(7, 85),33	2128,(3, 85),27	2155,(4, 85),9	2164,(9, 79),24	2188,(153, 201),6	2194,(7, 79),3	2197,(3, 79),33	2230,(6, 79),24	2254,(14, 200),33	2287,(10, 200),6	2293,(6, 200),48	2341,(176, 201),6	2347,(14, 140),15	2362,(10, 140),3	2365,(9, 140),15	2380,(7, 140),24	2404,(4, 140),3	2407,(6, 140),30	2437,(92, 201),6	2443,(10, 163),3	2446,(9, 163),51	2497,(3, 163),24	2521,(18, 163),9	2530,(4, 163),3	2533,(87, 201),6	2539,(10, 174),3	2542,(9, 174),3	2545,(7, 174),21	2566,(4, 174),6	2572,(6, 174),57	2629,(197, 201),6	2635,(12, 82),3	2638,(10, 82),36	2674,(9, 82),24	2698,(7, 82),15	2713,(3, 82),3	2716,(18, 82),9	2725,(97, 201),6	2731,(10, 69),30	2761,(18, 69),42	2803,(6, 69),21	2824,(124, 201),6	2830,(12, 122),6	2836,(10, 122),9	2845,(9, 122),30	2875,(7, 122),3	2878,(18, 122),27	2905,(4, 122),9	2914,(6, 122),12	2926,(22, 201),6	2932,(14, 113),54	2986,(4, 113),42	3028,(199, 201),6	3034,(14, 156),48	3082,(12, 156),3	3085,(9, 156),33	3118,(7, 156),3	3121,(4, 156),3	3124,(6, 156),6	3130,(181, 201),6	3136,(10, 112),3	3139,(3, 112),81	3220,(18, 112),6	3226,(6, 112),9	3235,(12, 105),3	3238,(24, 201),6	3244,(14, 105),18	3262,(10, 105),6	3268,(7, 105),6	3274,(3, 105),3	3277,(18, 105),51	3328,(4, 105),9	3337,(6, 105),3	3340,(12, 44),3	3343,(9, 44),3	3346,(6, 44),6	3352,(177, 201),6	3358,(18, 44),78	3436,(4, 44),9	3445,(9, 129),15	3460,(10, 28),3	3463,(14, 61),3	3466,(194, 201),6	3472,(7, 129),24	3496,(3, 129),21	3517,(4, 129),15	3532,(6, 129),24	3556,(12, 28),12	3568,(7, 28),12	3580,(31, 201),6	3586,(4, 28),18	3604,(6, 28),60	3664,(10, 169),54	3718,(18, 169),6	3724,(4, 169),42	3766,(123, 201),6	3772,(7, 61),93	3865,(18, 61),3	3868,(4, 61),3	3871,(137, 201),6	3877,(12, 167),6	3883,(9, 167),12	3895,(7, 167),27	3922,(4, 167),12	3934,(6, 167),51	3985,(100, 201),6	3991,(14, 57),3	3994,(7, 57),15	4009,(3, 57),90	4099,(6, 57),3	4102,(164, 201),6	4108,(12, 126),36	4144,(7, 126),57	4201,(4, 126),18	4219,(6, 126),3	4222,(109, 201),6	4228,(14, 59),3	4231,(7, 59),12	4243,(3, 59),15	4258,(18, 59),81	4339,(4, 59),3	4342,(6, 59),3	4345,(48, 201),6	4351,(12, 133),36	4387,(10, 133),3	4390,(7, 133),21	4411,(4, 133),3	4414,(6, 133),54	4468,(180, 201),6	4474,(14, 142),3	4477,(9, 142),18	4495,(7, 142),21	4516,(4, 142),3	4519,(6, 142),75	4594,(141, 201),6	4600,(12, 111),3	4603,(10, 111),6	4609,(9, 111),78	4687,(18, 111),3	4690,(4, 111),15	4705,(6, 111),15	4720,(106, 201),6	4726,(9, 159),39	4765,(7, 159),18	4783,(6, 159),69	4852,(12, 84),9	4861,(9, 84),3	4864,(7, 84),6	4870,(18, 84),3	4873,(170, 201),6	4879,(3, 84),24	4903,(4, 84),54	4957,(6, 84),33	4990,(14, 192),9	4999,(12, 192),3	5002,(10, 192),24	5026,(9, 192),15	5041,(7, 192),15	5056,(4, 192),60	5116,(108, 201),6	5122,(14, 179),9	5131,(10, 179),3	5134,(7, 179),117	5251,(4, 179),3	5254,(66, 201),6	5260,(14, 171),6	5266,(10, 171),3	5269,(7, 171),21	5290,(3, 171),3	5293,(18, 171),51	5344,(4, 171),6	5350,(6, 171),42	5392,(193, 201),6	5398,(14, 178),57	5455,(3, 178),6	5461,(4, 178),75	5536,(173, 201),6	5542,(14, 189),27	5569,(12, 189),3	5572,(10, 189),90	5662,(9, 189),3	5665,(18, 189),12	5677,(6, 189),3	5680,(12, 121),3	5683,(7, 138),6	5689,(117, 201),6	5695,(14, 121),36	5731,(7, 121),60	5791,(3, 121),30	5821,(4, 121),21	5842,(12, 138),15	5857,(3, 138),3	5860,(10, 195),6	5866,(9, 50),3	5869,(27, 201),6	5875,(4, 138),18	5893,(6, 138),117	6010,(18, 195),123	6133,(4, 195),24	6157,(6, 195),9	6166,(43, 201),6	6172,(14, 50),30	6202,(12, 50),72	6274,(7, 50),3	6277,(3, 50),60	6337,(101, 201),6	6343,(10, 21),3	6346,(7, 21),6	6352,(3, 21),3	6355,(4, 21),147	6502,(6, 21),21	6523,(30, 201),6	6529,(12, 47),3	6532,(10, 47),3	6535,(4, 47),156	6691,(6, 47),21	6712,(46, 201),6	6718,(12, 83),9	6727,(18, 83),3	6730,(4, 83),174	6904,(150, 201),6	6910,(14, 71),30	6940,(12, 71),12	6952,(3, 71),144	7096,(6, 71),3	7099,(175, 201),6	7105,(14, 182),48	7153,(10, 182),6	7159,(9, 182),111	7270,(7, 182),12	7282,(18, 182),3	7285,(4, 182),12	7297,(166, 201),6	7303,(9, 186),105	7408,(7, 186),3	7411,(3, 186),21	7432,(4, 186),9	7441,(6, 186),66	7507,(114, 201),6	7513,(14, 120),39	7552,(9, 120),72	7624,(7, 120),3	7627,(3, 120),81	7708,(18, 120),3	7711,(6, 120),9	7720,(10, 64),3	7723,(132, 201),6	7729,(7, 64),12	7741,(18, 64),90	7831,(4, 64),42	7873,(6, 64),63	7936,(3, 67),21	7957,(14, 25),3	7960,(184, 201),6	7966,(14, 67),132	8098,(18, 67),54	8152,(4, 67),6	8158,(14, 34),48	8206,(12, 34),69	8275,(10, 34),6	8281,(7, 34),90	8371,(18, 34),6	8377,(54, 201),6	8383,(14, 73),81	8464,(7, 73),99	8563,(6, 73),42	8605,(144, 201),6	8611,(12, 25),27	8638,(10, 25),159	8797,(7, 25),15	8812,(3, 25),3	8815,(18, 25),39	8854,(90, 201),6	8860,(14, 81),3	8863,(12, 81),3	8866,(10, 81),21	8887,(9, 81),81	8968,(3, 81),18	8986,(18, 81),78	9064,(4, 81),45	9109,(6, 81),3	9112,(14, 128),9	9121,(12, 128),3	9124,(9, 128),237	9361,(3, 128),3	9364,(4, 128),3	9367,(6, 128),30	9397,(115, 201),6	9403,(14, 62),126	9529,(12, 62),30	9559,(3, 62),15	9574,(6, 62),138	9712,(58, 201),6	9718,(14, 127),24	9742,(12, 127),117	9859,(9, 127),27	9886,(3, 127),138	10024,(6, 127),3	10027,(14, 98),216	10243,(12, 98),72	10315,(10, 98),6	10321,(9, 98),18	10339,(7, 98),27	10366,(18, 98),3	10369,(135, 201),6	10375,(12, 185),51	10426,(9, 185),420	10846,(18, 185),12	10858,(4, 185),66	10924,(6, 185),3	10927,(53, 201),6	10933,(14, 147),18	10951,(9, 147),3	10954,(7, 147),12	10966,(18, 147),3	10969,(4, 147),30	10999,(6, 147),510	11509,(12, 183),6	11515,(3, 183),84	11599,(18, 183),18	11617,(4, 183),12	11629,(6, 183),456	
