79
# CPU
0,81,1	1,15,1	2,56,1	3,59,1	4,53,1	5,65,1	6,71,1	7,19,1	8,36,1	9,18,1	10,33,1	11,35,1	12,80,1	13,29,1	14,27,1	15,78,1	16,12,1	17,77,1	18,46,1	19,41,1	20,74,1	21,26,1	22,21,1	23,9,1	24,31,1	25,52,1	26,47,1	27,10,1	28,67,1	29,48,1	30,75,1	31,68,1	32,66,1	33,64,1	34,16,1	35,44,1	36,28,1	37,34,1	38,37,1	39,11,1	40,42,1	41,22,1	42,55,1	43,70,1	44,23,1	45,50,1	46,39,1	47,14,1	48,76,1	49,73,1	50,40,1	51,57,1	52,63,1	53,58,1	54,20,1	55,51,1	56,61,1	57,6,1	58,72,1	59,49,1	60,2,1	61,25,1	62,60,1	63,7,1	64,45,1	65,54,1	66,32,1	67,79,1	68,4,1	69,62,1	70,30,1	71,43,1	72,3,1	73,17,1	74,13,1	75,8,1	76,5,1	77,1,1	78,0,1	
20,38,1	39,69,1	58,24,1	



# Incoming
21,(38, 8),1	40,(69, 5),6	59,(24, 1),15	
1,(81, 38),19	20,(81, 69),19	39,(81, 24),19	



# Outgoing
1,(81, 38),19	20,(81, 69),19	39,(81, 24),19	
21,(38, 8),1	40,(69, 5),6	59,(24, 1),15	



