291
# CPU
68,12,10	
46,11,10	
232,10,10	271,20,10	
67,9,10	226,19,10	
53,8,10	219,18,10	
25,7,10	53,17,10	
181,16,10	200,6,10	
16,5,10	171,15,10	
2,2,10	12,4,10	69,14,10	
0,0,1	1,1,10	22,3,10	50,13,10	290,21,1	
# Incoming
67,(1, 12),1	
25,(2, 11),21	
226,(1, 20),3	229,(2, 10),3	232,(2, 20),39	
53,(1, 9),14	219,(1, 19),7	
16,(1, 8),37	181,(1, 18),38	
22,(2, 7),3	50,(2, 17),3	
171,(1, 16),10	181,(2, 6),19	
11,(1, 5),5	69,(1, 15),102	
1,(0, 2),1	68,(1, 14),1	
12,(2, 3),10	26,(5, 21),9	35,(7, 21),9	46,(2, 13),4	53,(4, 21),9	62,(11, 21),9	71,(8, 21),9	80,(17, 21),9	89,(9, 21),9	98,(12, 21),9	107,(14, 21),9	181,(15, 21),9	191,(16, 21),9	210,(6, 21),9	229,(18, 21),9	238,(19, 21),9	247,(10, 21),9	281,(20, 21),9	
# Outgoing
98,(12, 21),9	
62,(11, 21),9	
247,(10, 21),9	281,(20, 21),9	
89,(9, 21),9	238,(19, 21),9	
71,(8, 21),9	229,(18, 21),9	
35,(7, 21),9	80,(17, 21),9	
191,(16, 21),9	210,(6, 21),9	
26,(5, 21),9	181,(15, 21),9	
12,(2, 3),10	22,(2, 7),3	25,(2, 11),21	46,(2, 13),4	50,(2, 17),3	53,(4, 21),9	107,(14, 21),9	181,(2, 6),19	229,(2, 10),3	232,(2, 20),39	
1,(0, 2),1	11,(1, 5),5	16,(1, 8),37	53,(1, 9),14	67,(1, 12),1	68,(1, 14),1	69,(1, 15),102	171,(1, 16),10	181,(1, 18),38	219,(1, 19),7	226,(1, 20),3	
