24563
# CPU
12115,100,1	13231,167,1	13264,26,1	13309,180,1	13456,92,1	13822,126,1	13861,151,1	14128,27,1	14401,68,1	14416,30,1	14809,160,1	15046,42,1	15049,51,1	15397,170,1	15517,47,1	15613,72,1	15733,99,1	15829,169,1	16225,66,1	16417,179,1	16468,173,1	16765,54,1	16810,67,1	17011,157,1	17176,56,1	17548,184,1	17569,48,1	17734,71,1	17821,103,1	18082,139,1	18358,34,1	18385,38,1	18694,62,1	18829,80,1	18841,115,1	20869,35,1	20899,52,1	21055,75,1	21109,130,1	21121,163,1	21160,200,1	21199,33,1	21211,86,1	21226,183,1	21253,188,1	21304,21,1	21313,22,1	21967,43,1	22063,111,1	22072,117,1	22108,148,1	22219,155,1	22231,159,1	22270,171,1	22327,197,1	22381,46,1	22390,76,1	22594,78,1	22648,110,1	22696,147,1	22711,162,1	22741,196,1	22807,31,1	22828,32,1	22843,58,1	22852,64,1	22864,90,1	23008,95,1	23371,108,1	23380,121,1	23506,141,1	23524,145,1	23575,194,1	23650,195,1	23689,24,1	23698,25,1	23746,50,1	24040,69,1	24052,119,1	24058,127,1	24085,142,1	24109,144,1	24112,161,1	24562,201,1	
0,0,1	1,4,1	2,11,1	3,20,1	4,15,1	5,3,1	6,7,1	7,18,1	8,6,1	9,1,1	10,12,1	11,91,1	12,109,1	13,164,1	14,82,1	15,191,1	16,181,1	17,39,1	18,59,1	19,93,1	20,168,1	21,135,1	22,199,1	23,107,1	24,112,1	25,146,1	26,176,1	27,186,1	28,149,1	29,175,1	30,166,1	31,114,1	32,189,1	33,123,1	34,138,1	35,106,1	883,94,1	892,185,1	904,29,1	913,124,1	925,118,1	928,122,1	931,128,1	934,172,1	940,49,1	958,120,1	964,105,1	967,113,1	973,133,1	976,96,1	982,158,1	985,156,1	991,165,1	994,190,1	997,28,1	1000,83,1	1003,84,1	1006,88,1	1012,177,1	
64,2,1	127,5,1	128,74,1	129,85,1	190,8,1	253,9,1	254,23,1	255,63,1	256,187,1	316,10,1	317,87,1	318,134,1	379,13,1	380,45,1	381,98,1	382,143,1	442,14,1	443,44,1	444,89,1	445,129,1	446,140,1	505,16,1	506,70,1	507,182,1	508,102,1	509,104,1	510,125,1	568,17,1	569,37,1	570,150,1	571,53,1	631,19,1	632,40,1	633,97,1	1789,137,1	9337,55,1	9352,60,1	10822,61,1	11131,77,1	11158,79,1	11167,136,1	11194,154,1	11302,178,1	11698,131,1	12115,193,1	13309,65,1	13462,116,1	13909,198,1	14200,57,1	14407,73,1	14416,81,1	14521,101,1	14860,174,1	15277,132,1	15514,41,1	15775,152,1	15832,192,1	15997,36,1	16417,153,1	
# Incoming
631,(4, 24),3	634,(4, 26),114	754,(4, 47),93	847,(2, 27),30	877,(2, 51),3	886,(4, 76),234	1120,(4, 78),108	1228,(4, 86),66	1294,(4, 99),387	1681,(4, 100),96	1777,(2, 151),12	1789,(4, 148),3	1792,(4, 160),6153	7945,(4, 161),3	7948,(4, 180),282	8230,(4, 194),93	8323,(4, 196),3	8326,(11, 24),921	9247,(11, 30),12	9259,(11, 46),75	9334,(2, 184),3	9337,(5, 62),3	9340,(11, 58),9	9349,(8, 24),3	9352,(11, 68),48	9400,(11, 76),18	9418,(8, 31),3	9421,(11, 95),159	9580,(11, 103),6	9586,(11, 121),3	9589,(11, 126),3	9592,(11, 147),9	9601,(11, 155),120	9721,(11, 163),15	9736,(11, 167),24	9760,(11, 169),12	9772,(11, 170),42	9814,(11, 179),3	9817,(20, 21),6	9823,(20, 24),36	9859,(20, 26),810	10669,(20, 30),6	10675,(20, 31),18	10693,(20, 35),57	10750,(8, 126),3	10753,(20, 42),12	10765,(20, 51),54	10819,(8, 144),3	10822,(20, 72),306	11128,(8, 151),3	11131,(20, 78),24	11155,(2, 179),12	11167,(20, 142),12	11179,(20, 145),6	11185,(5, 200),6	11191,(8, 196),3	11194,(20, 157),99	11293,(20, 173),3	11296,(9, 71),3	11299,(9, 72),3	11302,(20, 183),24	11326,(20, 188),9	11335,(9, 126),3	11338,(20, 195),120	11458,(15, 22),27	11485,(15, 25),3	11488,(15, 54),18	11506,(15, 56),3	11509,(15, 66),24	11533,(15, 111),3	11536,(15, 126),33	11569,(15, 130),126	11695,(10, 38),3	11698,(15, 141),186	11884,(15, 155),3	11887,(15, 162),138	12025,(15, 169),63	12088,(15, 170),18	12106,(15, 184),6	12112,(10, 100),3	12115,(15, 200),426	12541,(3, 22),21	12562,(10, 71),6	12568,(3, 47),255	12823,(3, 52),6	12829,(3, 54),93	12922,(3, 58),12	12934,(3, 68),3	12937,(3, 71),3	12940,(3, 80),60	13000,(3, 92),87	13087,(3, 117),27	13114,(3, 145),21	13135,(3, 147),3	13138,(3, 157),3	13141,(3, 161),60	13201,(3, 167),30	13231,(3, 170),6	13237,(7, 26),27	13264,(7, 34),3	13267,(7, 43),18	13285,(7, 62),18	13303,(10, 169),3	13306,(10, 180),3	13309,(7, 86),33	13342,(7, 92),114	13456,(13, 30),3	13459,(13, 68),3	13462,(7, 117),60	13522,(7, 121),234	13756,(7, 126),66	13822,(7, 141),3	13825,(7, 151),36	13861,(7, 162),39	13900,(7, 188),6	13906,(13, 95),3	13909,(7, 200),54	13963,(18, 27),165	14128,(18, 34),15	14143,(18, 42),18	14161,(18, 43),3	14164,(18, 51),33	14197,(14, 46),3	14200,(18, 58),6	14206,(18, 64),3	14209,(18, 68),192	14401,(2, 30),15	14416,(18, 90),102	14518,(14, 54),3	14521,(18, 115),168	14689,(18, 141),12	14701,(18, 147),93	14794,(18, 148),9	14803,(18, 160),6	14809,(18, 163),45	14854,(16, 69),3	14857,(16, 99),3	14860,(18, 184),57	14917,(18, 194),60	14977,(6, 21),39	15016,(6, 32),15	15031,(6, 38),3	15034,(6, 42),12	15046,(6, 51),3	15049,(6, 76),18	15067,(6, 103),21	15088,(6, 110),48	15136,(6, 130),132	15268,(74, 201),9	15277,(6, 169),3	15280,(6, 170),117	15397,(6, 173),48	15445,(6, 179),63	15508,(17, 43),3	15511,(17, 62),3	15514,(1, 47),3	15517,(1, 62),12	15529,(1, 71),12	15541,(1, 72),72	15613,(1, 75),3	15616,(1, 99),117	15733,(1, 139),9	15742,(1, 147),21	15763,(1, 148),3	15766,(85, 201),9	15775,(1, 159),39	15814,(1, 169),15	15829,(17, 162),3	15832,(1, 197),87	15919,(12, 21),18	15937,(12, 24),9	15946,(12, 25),12	15958,(12, 32),33	15991,(17, 147),6	15997,(12, 38),21	16018,(12, 50),60	16078,(12, 52),6	16084,(12, 56),99	16183,(12, 64),24	16207,(12, 66),18	16225,(12, 67),18	16243,(12, 69),42	16285,(12, 95),54	16339,(12, 117),6	16345,(12, 119),3	16348,(12, 148),66	16414,(17, 179),3	16417,(12, 157),24	16441,(12, 173),27	16468,(12, 196),27	16495,(91, 201),9	16504,(109, 201),9	16513,(164, 201),9	16522,(82, 201),9	16531,(191, 201),9	16540,(181, 201),9	16549,(39, 201),9	16558,(59, 201),9	16567,(93, 201),9	16576,(168, 201),9	16585,(135, 201),9	16594,(199, 201),9	16603,(107, 201),9	16612,(112, 201),9	16621,(146, 201),9	16630,(176, 201),9	16639,(186, 201),9	16648,(149, 201),9	16657,(175, 201),9	16666,(166, 201),9	16675,(114, 201),9	16684,(189, 201),9	16693,(123, 201),9	16702,(138, 201),9	16711,(106, 201),9	16720,(2, 31),15	16735,(2, 54),30	16765,(2, 58),21	16786,(2, 67),24	16810,(2, 75),15	16825,(2, 78),51	16876,(2, 86),45	16921,(2, 121),21	16942,(2, 130),27	16969,(2, 157),42	17011,(5, 32),21	17032,(5, 33),21	17053,(5, 35),33	17086,(5, 48),45	17131,(5, 56),45	17176,(5, 58),15	17191,(5, 80),45	17236,(5, 127),237	17473,(5, 171),60	17533,(5, 184),15	17548,(8, 48),21	17569,(8, 50),111	17680,(8, 71),54	17734,(8, 76),39	17773,(8, 103),48	17821,(8, 108),15	17836,(8, 110),129	17965,(8, 115),9	17974,(8, 119),15	17989,(8, 139),93	18082,(8, 161),165	18247,(9, 34),111	18358,(9, 38),27	18385,(9, 43),267	18652,(9, 52),30	18682,(9, 62),12	18694,(9, 64),60	18754,(9, 78),66	18820,(9, 80),9	18829,(9, 115),12	18841,(9, 127),186	19027,(9, 141),18	19045,(9, 144),1494	20539,(23, 201),9	20548,(63, 201),9	20557,(187, 201),9	20566,(10, 24),54	20620,(10, 32),24	20644,(10, 35),225	20869,(10, 52),30	20899,(10, 64),9	20908,(10, 69),105	21013,(10, 75),42	21055,(10, 111),12	21067,(10, 130),42	21109,(10, 163),12	21121,(10, 188),12	21133,(10, 200),27	21160,(87, 201),9	21169,(134, 201),9	21178,(13, 33),21	21199,(13, 86),12	21211,(13, 183),15	21226,(13, 188),27	21253,(45, 201),9	21262,(98, 201),9	21271,(143, 201),9	21280,(14, 21),24	21304,(14, 22),9	21313,(14, 25),24	21337,(14, 43),630	21967,(14, 111),96	22063,(14, 117),9	22072,(14, 148),36	22108,(14, 155),111	22219,(14, 159),12	22231,(14, 171),39	22270,(14, 197),57	22327,(44, 201),9	22336,(89, 201),9	22345,(129, 201),9	22354,(140, 201),9	22363,(16, 46),18	22381,(16, 76),9	22390,(16, 78),204	22594,(16, 95),30	22624,(16, 108),15	22639,(16, 110),9	22648,(16, 147),48	22696,(16, 162),15	22711,(16, 196),30	22741,(70, 201),9	22750,(182, 201),9	22759,(102, 201),9	22768,(104, 201),9	22777,(125, 201),9	22786,(17, 31),21	22807,(17, 32),21	22828,(17, 58),15	22843,(17, 64),9	22852,(17, 90),12	22864,(17, 95),144	23008,(17, 108),363	23371,(17, 121),9	23380,(17, 141),126	23506,(17, 145),18	23524,(17, 194),51	23575,(17, 195),75	23650,(37, 201),9	23659,(150, 201),9	23668,(53, 201),9	23677,(19, 24),12	23689,(19, 25),9	23698,(19, 50),48	23746,(19, 69),294	24040,(19, 119),12	24052,(19, 127),6	24058,(19, 142),27	24085,(19, 144),24	24109,(19, 161),3	24112,(40, 201),9	24121,(97, 201),9	24130,(94, 201),9	24139,(185, 201),9	24148,(29, 201),9	24157,(124, 201),9	24166,(118, 201),9	24175,(122, 201),9	24184,(128, 201),9	24193,(172, 201),9	24202,(49, 201),9	24211,(120, 201),9	24220,(105, 201),9	24229,(113, 201),9	24238,(133, 201),9	24247,(96, 201),9	24256,(158, 201),9	24265,(156, 201),9	24274,(165, 201),9	24283,(190, 201),9	24292,(28, 201),9	24301,(83, 201),9	24310,(84, 201),9	24319,(88, 201),9	24328,(177, 201),9	24337,(137, 201),9	24346,(55, 201),9	24355,(60, 201),9	24364,(61, 201),9	24373,(77, 201),9	24382,(79, 201),9	24391,(136, 201),9	24400,(154, 201),9	24409,(178, 201),9	24418,(131, 201),9	24427,(193, 201),9	24436,(65, 201),9	24445,(116, 201),9	24454,(198, 201),9	24463,(57, 201),9	24472,(73, 201),9	24481,(81, 201),9	24490,(101, 201),9	24499,(174, 201),9	24508,(132, 201),9	24517,(41, 201),9	24526,(152, 201),9	24535,(192, 201),9	24544,(36, 201),9	24553,(153, 201),9	
880,(2, 94),3	883,(2, 124),3	886,(2, 133),3	889,(2, 185),3	892,(5, 84),3	895,(8, 29),9	904,(8, 118),3	907,(8, 124),6	913,(8, 190),6	919,(9, 88),3	922,(9, 118),3	925,(9, 122),3	928,(9, 128),3	931,(9, 172),3	934,(10, 49),6	940,(10, 83),9	949,(10, 88),6	955,(10, 120),3	958,(10, 190),3	961,(13, 105),3	964,(13, 113),3	967,(13, 133),6	973,(14, 96),3	976,(14, 158),6	982,(16, 156),3	985,(16, 165),6	991,(16, 190),3	994,(17, 28),3	997,(17, 83),3	1000,(17, 84),3	1003,(19, 88),3	1006,(19, 177),6	
1,(0, 2),63	64,(0, 5),63	127,(0, 8),63	190,(0, 9),63	253,(0, 10),63	316,(0, 13),63	379,(0, 14),63	442,(0, 16),63	505,(0, 17),63	568,(0, 19),63	748,(4, 41),6	847,(4, 57),36	883,(4, 61),3	1777,(4, 137),12	9334,(11, 55),3	9337,(11, 57),3	9349,(11, 60),3	9418,(11, 79),3	10750,(20, 36),3	10819,(20, 61),3	11128,(20, 77),3	11155,(20, 79),3	11158,(20, 81),3	11161,(20, 136),6	11185,(20, 154),9	11296,(20, 174),3	11299,(20, 178),3	11335,(20, 192),3	11695,(15, 131),3	12112,(15, 193),3	12562,(3, 36),6	13303,(7, 65),6	13456,(7, 116),6	13906,(7, 198),3	14197,(18, 57),3	14401,(18, 73),6	14407,(18, 81),9	14518,(18, 101),3	14854,(18, 174),6	15268,(6, 132),9	15508,(1, 41),6	15766,(1, 152),9	15829,(1, 192),3	15991,(12, 36),6	16414,(12, 153),3	
# Outgoing

1,(0, 2),63	64,(0, 5),63	127,(0, 8),63	190,(0, 9),63	253,(0, 10),63	316,(0, 13),63	379,(0, 14),63	442,(0, 16),63	505,(0, 17),63	568,(0, 19),63	631,(4, 24),3	634,(4, 26),114	748,(4, 41),6	754,(4, 47),93	847,(4, 57),36	883,(4, 61),3	886,(4, 76),234	1120,(4, 78),108	1228,(4, 86),66	1294,(4, 99),387	1681,(4, 100),96	1777,(4, 137),12	1789,(4, 148),3	1792,(4, 160),6153	7945,(4, 161),3	7948,(4, 180),282	8230,(4, 194),93	8323,(4, 196),3	8326,(11, 24),921	9247,(11, 30),12	9259,(11, 46),75	9334,(11, 55),3	9337,(11, 57),3	9340,(11, 58),9	9349,(11, 60),3	9352,(11, 68),48	9400,(11, 76),18	9418,(11, 79),3	9421,(11, 95),159	9580,(11, 103),6	9586,(11, 121),3	9589,(11, 126),3	9592,(11, 147),9	9601,(11, 155),120	9721,(11, 163),15	9736,(11, 167),24	9760,(11, 169),12	9772,(11, 170),42	9814,(11, 179),3	9817,(20, 21),6	9823,(20, 24),36	9859,(20, 26),810	10669,(20, 30),6	10675,(20, 31),18	10693,(20, 35),57	10750,(20, 36),3	10753,(20, 42),12	10765,(20, 51),54	10819,(20, 61),3	10822,(20, 72),306	11128,(20, 77),3	11131,(20, 78),24	11155,(20, 79),3	11158,(20, 81),3	11161,(20, 136),6	11167,(20, 142),12	11179,(20, 145),6	11185,(20, 154),9	11194,(20, 157),99	11293,(20, 173),3	11296,(20, 174),3	11299,(20, 178),3	11302,(20, 183),24	11326,(20, 188),9	11335,(20, 192),3	11338,(20, 195),120	11458,(15, 22),27	11485,(15, 25),3	11488,(15, 54),18	11506,(15, 56),3	11509,(15, 66),24	11533,(15, 111),3	11536,(15, 126),33	11569,(15, 130),126	11695,(15, 131),3	11698,(15, 141),186	11884,(15, 155),3	11887,(15, 162),138	12025,(15, 169),63	12088,(15, 170),18	12106,(15, 184),6	12112,(15, 193),3	12115,(15, 200),426	12541,(3, 22),21	12562,(3, 36),6	12568,(3, 47),255	12823,(3, 52),6	12829,(3, 54),93	12922,(3, 58),12	12934,(3, 68),3	12937,(3, 71),3	12940,(3, 80),60	13000,(3, 92),87	13087,(3, 117),27	13114,(3, 145),21	13135,(3, 147),3	13138,(3, 157),3	13141,(3, 161),60	13201,(3, 167),30	13231,(3, 170),6	13237,(7, 26),27	13264,(7, 34),3	13267,(7, 43),18	13285,(7, 62),18	13303,(7, 65),6	13309,(7, 86),33	13342,(7, 92),114	13456,(7, 116),6	13462,(7, 117),60	13522,(7, 121),234	13756,(7, 126),66	13822,(7, 141),3	13825,(7, 151),36	13861,(7, 162),39	13900,(7, 188),6	13906,(7, 198),3	13909,(7, 200),54	13963,(18, 27),165	14128,(18, 34),15	14143,(18, 42),18	14161,(18, 43),3	14164,(18, 51),33	14197,(18, 57),3	14200,(18, 58),6	14206,(18, 64),3	14209,(18, 68),192	14401,(18, 73),6	14407,(18, 81),9	14416,(18, 90),102	14518,(18, 101),3	14521,(18, 115),168	14689,(18, 141),12	14701,(18, 147),93	14794,(18, 148),9	14803,(18, 160),6	14809,(18, 163),45	14854,(18, 174),6	14860,(18, 184),57	14917,(18, 194),60	14977,(6, 21),39	15016,(6, 32),15	15031,(6, 38),3	15034,(6, 42),12	15046,(6, 51),3	15049,(6, 76),18	15067,(6, 103),21	15088,(6, 110),48	15136,(6, 130),132	15268,(6, 132),9	15277,(6, 169),3	15280,(6, 170),117	15397,(6, 173),48	15445,(6, 179),63	15508,(1, 41),6	15514,(1, 47),3	15517,(1, 62),12	15529,(1, 71),12	15541,(1, 72),72	15613,(1, 75),3	15616,(1, 99),117	15733,(1, 139),9	15742,(1, 147),21	15763,(1, 148),3	15766,(1, 152),9	15775,(1, 159),39	15814,(1, 169),15	15829,(1, 192),3	15832,(1, 197),87	15919,(12, 21),18	15937,(12, 24),9	15946,(12, 25),12	15958,(12, 32),33	15991,(12, 36),6	15997,(12, 38),21	16018,(12, 50),60	16078,(12, 52),6	16084,(12, 56),99	16183,(12, 64),24	16207,(12, 66),18	16225,(12, 67),18	16243,(12, 69),42	16285,(12, 95),54	16339,(12, 117),6	16345,(12, 119),3	16348,(12, 148),66	16414,(12, 153),3	16417,(12, 157),24	16441,(12, 173),27	16468,(12, 196),27	16495,(91, 201),9	16504,(109, 201),9	16513,(164, 201),9	16522,(82, 201),9	16531,(191, 201),9	16540,(181, 201),9	16549,(39, 201),9	16558,(59, 201),9	16567,(93, 201),9	16576,(168, 201),9	16585,(135, 201),9	16594,(199, 201),9	16603,(107, 201),9	16612,(112, 201),9	16621,(146, 201),9	16630,(176, 201),9	16639,(186, 201),9	16648,(149, 201),9	16657,(175, 201),9	16666,(166, 201),9	16675,(114, 201),9	16684,(189, 201),9	16693,(123, 201),9	16702,(138, 201),9	16711,(106, 201),9	24130,(94, 201),9	24139,(185, 201),9	24148,(29, 201),9	24157,(124, 201),9	24166,(118, 201),9	24175,(122, 201),9	24184,(128, 201),9	24193,(172, 201),9	24202,(49, 201),9	24211,(120, 201),9	24220,(105, 201),9	24229,(113, 201),9	24238,(133, 201),9	24247,(96, 201),9	24256,(158, 201),9	24265,(156, 201),9	24274,(165, 201),9	24283,(190, 201),9	24292,(28, 201),9	24301,(83, 201),9	24310,(84, 201),9	24319,(88, 201),9	24328,(177, 201),9	
847,(2, 27),30	877,(2, 51),3	880,(2, 94),3	883,(2, 124),3	886,(2, 133),3	889,(2, 185),3	892,(5, 84),3	895,(8, 29),9	904,(8, 118),3	907,(8, 124),6	913,(8, 190),6	919,(9, 88),3	922,(9, 118),3	925,(9, 122),3	928,(9, 128),3	931,(9, 172),3	934,(10, 49),6	940,(10, 83),9	949,(10, 88),6	955,(10, 120),3	958,(10, 190),3	961,(13, 105),3	964,(13, 113),3	967,(13, 133),6	973,(14, 96),3	976,(14, 158),6	982,(16, 156),3	985,(16, 165),6	991,(16, 190),3	994,(17, 28),3	997,(17, 83),3	1000,(17, 84),3	1003,(19, 88),3	1006,(19, 177),6	1777,(2, 151),12	9334,(2, 184),3	9337,(5, 62),3	9349,(8, 24),3	9418,(8, 31),3	10750,(8, 126),3	10819,(8, 144),3	11128,(8, 151),3	11155,(2, 179),12	11185,(5, 200),6	11191,(8, 196),3	11296,(9, 71),3	11299,(9, 72),3	11335,(9, 126),3	11695,(10, 38),3	12112,(10, 100),3	12562,(10, 71),6	13303,(10, 169),3	13306,(10, 180),3	13456,(13, 30),3	13459,(13, 68),3	13906,(13, 95),3	14197,(14, 46),3	14401,(2, 30),15	14518,(14, 54),3	14854,(16, 69),3	14857,(16, 99),3	15268,(74, 201),9	15508,(17, 43),3	15511,(17, 62),3	15766,(85, 201),9	15829,(17, 162),3	15991,(17, 147),6	16414,(17, 179),3	16720,(2, 31),15	16735,(2, 54),30	16765,(2, 58),21	16786,(2, 67),24	16810,(2, 75),15	16825,(2, 78),51	16876,(2, 86),45	16921,(2, 121),21	16942,(2, 130),27	16969,(2, 157),42	17011,(5, 32),21	17032,(5, 33),21	17053,(5, 35),33	17086,(5, 48),45	17131,(5, 56),45	17176,(5, 58),15	17191,(5, 80),45	17236,(5, 127),237	17473,(5, 171),60	17533,(5, 184),15	17548,(8, 48),21	17569,(8, 50),111	17680,(8, 71),54	17734,(8, 76),39	17773,(8, 103),48	17821,(8, 108),15	17836,(8, 110),129	17965,(8, 115),9	17974,(8, 119),15	17989,(8, 139),93	18082,(8, 161),165	18247,(9, 34),111	18358,(9, 38),27	18385,(9, 43),267	18652,(9, 52),30	18682,(9, 62),12	18694,(9, 64),60	18754,(9, 78),66	18820,(9, 80),9	18829,(9, 115),12	18841,(9, 127),186	19027,(9, 141),18	19045,(9, 144),1494	20539,(23, 201),9	20548,(63, 201),9	20557,(187, 201),9	20566,(10, 24),54	20620,(10, 32),24	20644,(10, 35),225	20869,(10, 52),30	20899,(10, 64),9	20908,(10, 69),105	21013,(10, 75),42	21055,(10, 111),12	21067,(10, 130),42	21109,(10, 163),12	21121,(10, 188),12	21133,(10, 200),27	21160,(87, 201),9	21169,(134, 201),9	21178,(13, 33),21	21199,(13, 86),12	21211,(13, 183),15	21226,(13, 188),27	21253,(45, 201),9	21262,(98, 201),9	21271,(143, 201),9	21280,(14, 21),24	21304,(14, 22),9	21313,(14, 25),24	21337,(14, 43),630	21967,(14, 111),96	22063,(14, 117),9	22072,(14, 148),36	22108,(14, 155),111	22219,(14, 159),12	22231,(14, 171),39	22270,(14, 197),57	22327,(44, 201),9	22336,(89, 201),9	22345,(129, 201),9	22354,(140, 201),9	22363,(16, 46),18	22381,(16, 76),9	22390,(16, 78),204	22594,(16, 95),30	22624,(16, 108),15	22639,(16, 110),9	22648,(16, 147),48	22696,(16, 162),15	22711,(16, 196),30	22741,(70, 201),9	22750,(182, 201),9	22759,(102, 201),9	22768,(104, 201),9	22777,(125, 201),9	22786,(17, 31),21	22807,(17, 32),21	22828,(17, 58),15	22843,(17, 64),9	22852,(17, 90),12	22864,(17, 95),144	23008,(17, 108),363	23371,(17, 121),9	23380,(17, 141),126	23506,(17, 145),18	23524,(17, 194),51	23575,(17, 195),75	23650,(37, 201),9	23659,(150, 201),9	23668,(53, 201),9	23677,(19, 24),12	23689,(19, 25),9	23698,(19, 50),48	23746,(19, 69),294	24040,(19, 119),12	24052,(19, 127),6	24058,(19, 142),27	24085,(19, 144),24	24109,(19, 161),3	24112,(40, 201),9	24121,(97, 201),9	24337,(137, 201),9	24346,(55, 201),9	24355,(60, 201),9	24364,(61, 201),9	24373,(77, 201),9	24382,(79, 201),9	24391,(136, 201),9	24400,(154, 201),9	24409,(178, 201),9	24418,(131, 201),9	24427,(193, 201),9	24436,(65, 201),9	24445,(116, 201),9	24454,(198, 201),9	24463,(57, 201),9	24472,(73, 201),9	24481,(81, 201),9	24490,(101, 201),9	24499,(174, 201),9	24508,(132, 201),9	24517,(41, 201),9	24526,(152, 201),9	24535,(192, 201),9	24544,(36, 201),9	24553,(153, 201),9	
