731
# CPU
95,12,1	
94,11,1	
90,10,1	122,20,1	
49,9,1	63,19,1	
45,8,1	111,18,1	
81,7,1	110,17,1	
56,16,1	72,6,1	
52,15,1	65,5,1	
6,2,1	7,4,1	51,14,1	
0,0,1	1,1,1	2,3,1	96,13,1	730,21,1	
# Incoming
94,(2, 12),1	
90,(2, 11),4	
49,(1, 10),1	81,(2, 10),9	111,(2, 20),11	
45,(1, 9),4	56,(1, 19),7	
6,(1, 8),39	110,(2, 18),1	
72,(2, 7),9	96,(2, 17),14	
52,(1, 16),4	65,(2, 6),7	
51,(1, 15),1	52,(2, 5),13	
1,(0, 2),5	50,(1, 14),1	
95,(2, 13),1	122,(4, 21),38	160,(8, 21),38	198,(9, 21),38	236,(14, 21),38	274,(15, 21),38	312,(16, 21),38	350,(19, 21),38	388,(5, 21),38	426,(6, 21),38	464,(7, 21),38	502,(10, 21),38	540,(11, 21),38	578,(12, 21),38	616,(17, 21),38	654,(18, 21),38	692,(20, 21),38	
# Outgoing
578,(12, 21),38	
540,(11, 21),38	
502,(10, 21),38	692,(20, 21),38	
198,(9, 21),38	350,(19, 21),38	
160,(8, 21),38	654,(18, 21),38	
464,(7, 21),38	616,(17, 21),38	
312,(16, 21),38	426,(6, 21),38	
274,(15, 21),38	388,(5, 21),38	
52,(2, 5),13	65,(2, 6),7	72,(2, 7),9	81,(2, 10),9	90,(2, 11),4	94,(2, 12),1	95,(2, 13),1	96,(2, 17),14	110,(2, 18),1	111,(2, 20),11	122,(4, 21),38	236,(14, 21),38	
1,(0, 2),5	6,(1, 8),39	45,(1, 9),4	49,(1, 10),1	50,(1, 14),1	51,(1, 15),1	52,(1, 16),4	56,(1, 19),7	
