1296
# CPU
0,0,1	1,10,10	11,64,10	21,92,10	31,96,10	41,11,10	51,84,10	61,110,10	71,4,10	81,86,10	91,67,10	101,37,10	111,14,10	121,66,10	131,3,10	141,75,10	151,77,10	161,93,10	171,68,10	181,40,10	191,19,10	201,6,10	211,82,10	221,90,10	231,114,10	241,81,10	251,22,10	261,9,10	271,73,10	281,104,10	291,95,10	301,17,10	311,35,10	321,105,10	331,117,10	341,57,10	351,18,10	361,15,10	371,53,10	381,34,10	391,45,10	401,109,10	411,119,10	437,61,10	457,62,10	477,60,10	501,28,10	535,118,10	565,21,10	589,39,10	617,43,10	637,44,10	661,107,10	697,78,10	737,24,10	797,120,10	861,33,10	969,71,10	1077,69,10	1285,87,10	1295,121,1	
5,12,10	15,83,10	25,63,10	35,7,10	45,65,10	55,56,10	65,1,10	75,50,10	85,38,10	95,16,10	105,59,10	115,76,10	125,5,10	135,13,10	145,88,10	155,36,10	165,103,10	175,2,10	185,72,10	195,52,10	205,27,10	215,89,10	225,79,10	235,49,10	245,70,10	255,8,10	265,100,10	275,30,10	285,91,10	295,41,10	305,29,10	315,26,10	325,74,10	335,106,10	345,42,10	355,46,10	365,101,10	375,108,10	385,55,10	395,115,10	405,85,10	415,32,10	425,25,10	435,47,10	445,54,10	455,20,10	465,58,10	475,23,10	485,51,10	495,116,10	505,113,10	515,111,10	525,112,10	535,48,10	545,98,10	583,97,10	643,99,10	703,94,10	771,80,10	843,102,10	975,31,10	
# Incoming
25,(83, 121),4	29,(12, 117),4	35,(63, 121),4	39,(12, 15),4	43,(12, 34),4	47,(7, 107),8	55,(65, 121),4	65,(56, 121),4	75,(1, 57),4	79,(1, 60),4	85,(50, 121),4	95,(38, 121),4	105,(16, 121),4	115,(59, 121),4	125,(76, 121),4	135,(5, 53),4	139,(5, 45),4	145,(13, 121),4	155,(88, 121),4	165,(36, 121),4	175,(103, 121),4	185,(2, 18),4	195,(72, 121),4	205,(52, 121),4	215,(27, 121),4	225,(89, 121),4	235,(79, 121),4	245,(49, 121),4	255,(70, 121),4	259,(2, 109),8	267,(2, 119),8	275,(100, 121),4	285,(30, 121),4	295,(91, 121),4	305,(41, 121),4	315,(29, 121),4	325,(26, 121),4	335,(74, 121),4	345,(106, 121),4	355,(42, 121),4	365,(46, 121),4	375,(101, 121),4	385,(108, 121),4	395,(55, 121),4	405,(115, 121),4	415,(85, 121),4	425,(32, 121),4	429,(5, 61),8	437,(25, 121),4	445,(47, 121),4	449,(5, 62),8	457,(54, 121),4	465,(20, 121),4	469,(5, 60),8	477,(58, 121),4	485,(23, 121),4	489,(1, 28),12	501,(51, 121),4	505,(116, 121),4	515,(113, 121),4	519,(8, 118),16	535,(111, 121),4	539,(112, 121),4	545,(48, 121),4	549,(7, 21),16	565,(98, 121),4	569,(1, 39),20	593,(97, 121),4	597,(5, 43),20	617,(7, 44),20	637,(2, 107),24	661,(99, 121),4	665,(1, 78),8	673,(2, 78),24	697,(12, 24),32	729,(2, 24),8	737,(94, 121),4	741,(7, 120),56	797,(80, 121),4	801,(1, 33),60	861,(102, 121),4	865,(7, 71),80	945,(5, 71),24	969,(12, 69),20	989,(5, 69),56	1045,(2, 69),32	1077,(31, 121),4	1081,(12, 87),204	
1,(0, 12),4	5,(0, 7),4	11,(10, 63),4	15,(0, 1),4	19,(0, 5),4	23,(0, 2),4	27,(0, 8),4	31,(10, 55),8	39,(10, 102),4	51,(11, 56),4	55,(11, 101),4	59,(11, 115),4	63,(10, 47),16	81,(4, 49),4	85,(4, 46),4	89,(4, 85),8	97,(4, 32),12	109,(11, 58),24	133,(4, 112),8	141,(3, 103),4	145,(3, 108),4	149,(3, 54),16	165,(3, 20),24	211,(6, 79),4	215,(6, 70),4	219,(6, 108),4	223,(6, 115),4	227,(10, 23),24	251,(6, 116),4	271,(9, 26),4	275,(9, 74),4	279,(9, 106),4	283,(9, 42),4	287,(9, 25),12	299,(10, 51),28	327,(3, 116),28	355,(6, 113),20	375,(9, 113),12	387,(6, 111),32	419,(3, 112),24	443,(3, 48),44	487,(11, 98),44	531,(6, 97),52	583,(6, 99),60	643,(10, 94),32	675,(6, 94),28	703,(3, 80),40	743,(9, 80),28	771,(3, 102),72	843,(3, 31),64	907,(9, 31),68	
# Outgoing
1,(0, 12),4	5,(0, 7),4	11,(10, 63),4	15,(0, 1),4	19,(0, 5),4	23,(0, 2),4	27,(0, 8),4	31,(10, 55),8	39,(10, 102),4	51,(11, 56),4	55,(11, 101),4	59,(11, 115),4	63,(10, 47),16	81,(4, 49),4	85,(4, 46),4	89,(4, 85),8	97,(4, 32),12	109,(11, 58),24	133,(4, 112),8	141,(3, 103),4	145,(3, 108),4	149,(3, 54),16	165,(3, 20),24	211,(6, 79),4	215,(6, 70),4	219,(6, 108),4	223,(6, 115),4	227,(10, 23),24	251,(6, 116),4	271,(9, 26),4	275,(9, 74),4	279,(9, 106),4	283,(9, 42),4	287,(9, 25),12	299,(10, 51),28	327,(3, 116),28	355,(6, 113),20	375,(9, 113),12	387,(6, 111),32	419,(3, 112),24	443,(3, 48),44	487,(11, 98),44	531,(6, 97),52	583,(6, 99),60	643,(10, 94),32	675,(6, 94),28	703,(3, 80),40	743,(9, 80),28	771,(3, 102),72	843,(3, 31),64	907,(9, 31),68	
25,(83, 121),4	29,(12, 117),4	35,(63, 121),4	39,(12, 15),4	43,(12, 34),4	47,(7, 107),8	55,(65, 121),4	65,(56, 121),4	75,(1, 57),4	79,(1, 60),4	85,(50, 121),4	95,(38, 121),4	105,(16, 121),4	115,(59, 121),4	125,(76, 121),4	135,(5, 53),4	139,(5, 45),4	145,(13, 121),4	155,(88, 121),4	165,(36, 121),4	175,(103, 121),4	185,(2, 18),4	195,(72, 121),4	205,(52, 121),4	215,(27, 121),4	225,(89, 121),4	235,(79, 121),4	245,(49, 121),4	255,(70, 121),4	259,(2, 109),8	267,(2, 119),8	275,(100, 121),4	285,(30, 121),4	295,(91, 121),4	305,(41, 121),4	315,(29, 121),4	325,(26, 121),4	335,(74, 121),4	345,(106, 121),4	355,(42, 121),4	365,(46, 121),4	375,(101, 121),4	385,(108, 121),4	395,(55, 121),4	405,(115, 121),4	415,(85, 121),4	425,(32, 121),4	429,(5, 61),8	437,(25, 121),4	445,(47, 121),4	449,(5, 62),8	457,(54, 121),4	465,(20, 121),4	469,(5, 60),8	477,(58, 121),4	485,(23, 121),4	489,(1, 28),12	501,(51, 121),4	505,(116, 121),4	515,(113, 121),4	519,(8, 118),16	535,(111, 121),4	539,(112, 121),4	545,(48, 121),4	549,(7, 21),16	565,(98, 121),4	569,(1, 39),20	593,(97, 121),4	597,(5, 43),20	617,(7, 44),20	637,(2, 107),24	661,(99, 121),4	665,(1, 78),8	673,(2, 78),24	697,(12, 24),32	729,(2, 24),8	737,(94, 121),4	741,(7, 120),56	797,(80, 121),4	801,(1, 33),60	861,(102, 121),4	865,(7, 71),80	945,(5, 71),24	969,(12, 69),20	989,(5, 69),56	1045,(2, 69),32	1077,(31, 121),4	1081,(12, 87),204	
