1674
# CPU
0,0,1	1,1,223	224,11,223	447,8,223	670,18,223	893,9,223	1116,10,223	1339,16,223	1673,21,1	
13,2,223	236,4,223	459,6,223	682,20,223	905,15,223	1128,19,223	1351,13,223	
227,12,223	450,17,223	673,5,223	896,3,223	1119,14,223	1342,7,223	
# Incoming
236,(2, 8),9	251,(2, 9),3	263,(2, 10),6	302,(2, 16),21	450,(12, 21),54	504,(4, 21),54	673,(17, 21),54	727,(6, 21),54	896,(5, 21),54	950,(20, 21),54	1119,(3, 21),54	1173,(15, 21),54	1342,(14, 21),54	1396,(19, 21),54	1565,(7, 21),54	1619,(13, 21),54	
1,(0, 2),12	239,(1, 13),6	
224,(1, 12),3	227,(1, 5),3	230,(1, 3),3	233,(1, 14),6	245,(2, 17),3	248,(2, 5),3	254,(2, 3),9	269,(2, 14),33	302,(1, 7),9	323,(2, 7),36	
# Outgoing
1,(0, 2),12	224,(1, 12),3	227,(1, 5),3	230,(1, 3),3	233,(1, 14),6	239,(1, 13),6	302,(1, 7),9	
236,(2, 8),9	245,(2, 17),3	248,(2, 5),3	251,(2, 9),3	254,(2, 3),9	263,(2, 10),6	269,(2, 14),33	302,(2, 16),21	323,(2, 7),36	504,(4, 21),54	727,(6, 21),54	950,(20, 21),54	1173,(15, 21),54	1396,(19, 21),54	1619,(13, 21),54	
450,(12, 21),54	673,(17, 21),54	896,(5, 21),54	1119,(3, 21),54	1342,(14, 21),54	1565,(7, 21),54	
