3386
# CPU
77,10,1	85,9,1	97,11,1	113,14,1	121,16,1	169,18,1	261,20,1	
49,7,1	65,8,1	69,15,1	153,17,1	229,19,1	
17,2,1	18,5,1	45,6,1	113,12,1	141,13,1	
0,0,1	1,1,1	2,4,1	50,3,1	3385,21,1	
# Incoming
65,(1, 10),12	77,(2, 9),8	85,(2, 11),12	97,(2, 14),16	113,(2, 16),8	153,(1, 18),16	229,(1, 20),32	
45,(1, 7),4	49,(1, 8),16	65,(2, 15),4	141,(1, 17),12	169,(1, 19),60	
1,(0, 2),16	17,(1, 6),28	77,(1, 12),36	113,(1, 13),28	
18,(2, 3),32	121,(5, 21),204	325,(6, 21),204	529,(7, 21),204	733,(8, 21),204	937,(15, 21),204	1141,(10, 21),204	1345,(9, 21),204	1549,(11, 21),204	1753,(12, 21),204	1957,(14, 21),204	2161,(16, 21),204	2365,(13, 21),204	2569,(17, 21),204	2773,(18, 21),204	2977,(19, 21),204	3181,(20, 21),204	
# Outgoing
1141,(10, 21),204	1345,(9, 21),204	1549,(11, 21),204	1957,(14, 21),204	2161,(16, 21),204	2773,(18, 21),204	3181,(20, 21),204	
529,(7, 21),204	733,(8, 21),204	937,(15, 21),204	2569,(17, 21),204	2977,(19, 21),204	
18,(2, 3),32	65,(2, 15),4	77,(2, 9),8	85,(2, 11),12	97,(2, 14),16	113,(2, 16),8	121,(5, 21),204	325,(6, 21),204	1753,(12, 21),204	2365,(13, 21),204	
1,(0, 2),16	17,(1, 6),28	45,(1, 7),4	49,(1, 8),16	65,(1, 10),12	77,(1, 12),36	113,(1, 13),28	141,(1, 17),12	153,(1, 18),16	169,(1, 19),60	229,(1, 20),32	
