4695
# CPU
10,4,1	11,24,1	12,57,1	13,70,1	14,79,1	15,58,1	16,59,1	17,67,1	18,49,1	19,8,1	20,34,1	21,43,1	22,44,1	23,50,1	24,62,1	25,76,1	26,60,1	55,52,1	67,54,1	109,55,1	112,14,1	142,18,1	154,32,1	190,69,1	220,72,1	226,33,1	235,37,1	247,48,1	340,65,1	391,74,1	400,22,1	415,27,1	418,40,1	454,68,1	484,20,1	490,29,1	541,36,1	571,53,1	592,61,1	637,77,1	646,30,1	679,31,1	682,35,1	685,38,1	697,39,1	745,41,1	769,56,1	772,63,1	778,73,1	781,80,1	817,75,1	853,46,1	889,47,1	898,51,1	913,66,1	952,78,1	1021,45,1	4694,81,1	
7,3,1	8,13,1	16,7,1	46,15,1	49,21,1	418,64,1	526,28,1	820,23,1	826,26,1	4687,17,1	
4,2,1	13,6,1	14,19,1	22,11,1	220,25,1	256,12,1	781,71,1	
0,0,1	1,5,1	2,1,1	3,16,1	4,9,1	5,10,1	4657,42,1	
# Incoming
7,(0, 4),3	16,(0, 8),3	19,(2, 52),36	55,(2, 54),12	67,(2, 55),42	109,(3, 14),3	112,(3, 18),30	142,(3, 32),12	154,(3, 69),36	190,(3, 72),30	220,(5, 33),6	226,(5, 37),9	235,(5, 48),12	247,(3, 65),93	340,(3, 74),51	391,(13, 81),6	397,(6, 22),3	400,(6, 27),15	415,(6, 40),3	418,(5, 68),36	454,(6, 20),30	484,(6, 29),6	490,(6, 36),51	541,(6, 53),30	571,(6, 61),21	592,(6, 77),45	637,(19, 81),6	643,(7, 30),3	646,(7, 31),33	679,(7, 35),3	682,(7, 38),3	685,(7, 39),12	697,(7, 41),48	745,(7, 56),24	769,(7, 63),3	772,(7, 73),6	778,(7, 80),3	781,(5, 75),36	817,(11, 81),6	826,(1, 46),27	853,(1, 47),36	889,(1, 51),9	898,(1, 66),15	913,(1, 78),39	952,(16, 81),6	958,(9, 81),6	964,(10, 81),6	970,(7, 45),51	1021,(15, 81),6	1027,(21, 81),6	1033,(25, 81),6	1039,(12, 81),6	1045,(64, 81),6	1051,(28, 81),6	1057,(71, 81),6	1063,(23, 81),6	1069,(26, 81),6	4658,(42, 81),6	4688,(17, 81),6	
4,(0, 3),3	13,(0, 7),3	19,(5, 15),27	46,(5, 21),3	247,(5, 64),171	418,(4, 28),108	817,(1, 23),3	820,(1, 26),6	4657,(8, 17),30	
1,(0, 2),3	10,(0, 6),3	13,(3, 11),9	49,(5, 25),171	220,(4, 12),36	454,(5, 71),327	
526,(4, 42),4131	
# Outgoing
220,(4, 12),36	418,(4, 28),108	526,(4, 42),4131	4657,(8, 17),30	
13,(3, 11),9	109,(3, 14),3	112,(3, 18),30	142,(3, 32),12	154,(3, 69),36	190,(3, 72),30	247,(3, 65),93	340,(3, 74),51	391,(13, 81),6	643,(7, 30),3	646,(7, 31),33	679,(7, 35),3	682,(7, 38),3	685,(7, 39),12	697,(7, 41),48	745,(7, 56),24	769,(7, 63),3	772,(7, 73),6	778,(7, 80),3	970,(7, 45),51	1021,(15, 81),6	1027,(21, 81),6	1045,(64, 81),6	1051,(28, 81),6	1063,(23, 81),6	1069,(26, 81),6	4688,(17, 81),6	
19,(2, 52),36	55,(2, 54),12	67,(2, 55),42	397,(6, 22),3	400,(6, 27),15	415,(6, 40),3	454,(6, 20),30	484,(6, 29),6	490,(6, 36),51	541,(6, 53),30	571,(6, 61),21	592,(6, 77),45	637,(19, 81),6	817,(11, 81),6	1033,(25, 81),6	1039,(12, 81),6	1057,(71, 81),6	
1,(0, 2),3	4,(0, 3),3	7,(0, 4),3	10,(0, 6),3	13,(0, 7),3	16,(0, 8),3	19,(5, 15),27	46,(5, 21),3	49,(5, 25),171	220,(5, 33),6	226,(5, 37),9	235,(5, 48),12	247,(5, 64),171	418,(5, 68),36	454,(5, 71),327	781,(5, 75),36	817,(1, 23),3	820,(1, 26),6	826,(1, 46),27	853,(1, 47),36	889,(1, 51),9	898,(1, 66),15	913,(1, 78),39	952,(16, 81),6	958,(9, 81),6	964,(10, 81),6	4658,(42, 81),6	
