515
# CPU
19,3,2	21,8,2	23,22,2	25,33,2	27,34,2	29,23,2	31,7,2	33,9,2	46,12,2	73,17,2	121,28,2	130,30,2	175,32,2	181,36,2	271,38,2	280,39,2	286,10,2	313,14,2	316,15,2	349,26,2	394,20,2	397,21,2	400,24,2	403,27,2	442,35,2	445,37,2	466,40,2	514,41,1	
10,2,2	12,18,2	14,31,2	73,13,2	106,16,2	172,25,2	283,6,2	364,19,2	
0,0,1	1,4,2	3,1,2	5,11,2	76,29,2	79,5,2	
# Incoming
10,(0, 3),9	19,(4, 7),6	25,(4, 9),3	28,(4, 12),18	46,(2, 15),3	49,(2, 17),24	73,(4, 24),36	109,(4, 26),3	112,(4, 28),9	121,(4, 30),9	130,(4, 32),45	175,(4, 35),3	178,(4, 36),3	181,(4, 38),90	271,(4, 39),9	283,(1, 10),3	286,(1, 14),27	313,(1, 15),3	316,(2, 24),15	331,(2, 26),18	349,(18, 41),6	355,(31, 41),6	364,(1, 20),30	394,(1, 21),3	397,(1, 24),3	400,(1, 27),3	403,(1, 35),39	442,(1, 37),3	445,(1, 40),21	466,(11, 41),6	472,(13, 41),6	478,(29, 41),6	484,(5, 41),6	490,(16, 41),6	496,(25, 41),6	502,(6, 41),6	508,(19, 41),6	
1,(0, 2),9	46,(4, 13),27	79,(3, 16),27	106,(3, 25),66	280,(1, 6),3	316,(1, 19),48	
73,(2, 29),3	76,(3, 5),3	
# Outgoing
76,(3, 5),3	79,(3, 16),27	106,(3, 25),66	
46,(2, 15),3	49,(2, 17),24	73,(2, 29),3	316,(2, 24),15	331,(2, 26),18	349,(18, 41),6	355,(31, 41),6	472,(13, 41),6	490,(16, 41),6	496,(25, 41),6	502,(6, 41),6	508,(19, 41),6	
1,(0, 2),9	10,(0, 3),9	19,(4, 7),6	25,(4, 9),3	28,(4, 12),18	46,(4, 13),27	73,(4, 24),36	109,(4, 26),3	112,(4, 28),9	121,(4, 30),9	130,(4, 32),45	175,(4, 35),3	178,(4, 36),3	181,(4, 38),90	271,(4, 39),9	280,(1, 6),3	283,(1, 10),3	286,(1, 14),27	313,(1, 15),3	316,(1, 19),48	364,(1, 20),30	394,(1, 21),3	397,(1, 24),3	400,(1, 27),3	403,(1, 35),39	442,(1, 37),3	445,(1, 40),21	466,(11, 41),6	478,(29, 41),6	484,(5, 41),6	
