1474
# CPU
649,14,2	653,6,2	669,18,2	1413,16,2	1425,20,2	1473,21,1	
217,5,2	555,9,2	567,10,2	575,17,2	631,19,2	661,15,2	
205,2,2	207,7,2	213,4,2	313,8,2	457,11,2	637,12,2	
0,0,1	1,1,2	547,3,2	1409,13,2	
# Incoming
637,(1, 14),12	649,(2, 6),4	653,(5, 21),8	661,(1, 18),8	669,(3, 21),8	677,(9, 21),8	685,(10, 21),8	693,(17, 21),8	701,(19, 21),8	709,(15, 21),8	1409,(2, 16),4	1413,(2, 20),12	1425,(7, 21),8	1433,(4, 21),8	1441,(8, 21),8	1449,(11, 21),8	1457,(12, 21),8	1465,(13, 21),8	
213,(1, 5),4	313,(1, 9),8	547,(2, 9),8	555,(2, 10),12	567,(2, 17),8	575,(2, 19),56	649,(1, 15),12	
1,(0, 2),204	205,(1, 4),8	217,(1, 8),96	321,(1, 11),136	457,(1, 12),180	
207,(2, 3),340	653,(2, 13),756	
# Outgoing

653,(5, 21),8	677,(9, 21),8	685,(10, 21),8	693,(17, 21),8	701,(19, 21),8	709,(15, 21),8	
207,(2, 3),340	547,(2, 9),8	555,(2, 10),12	567,(2, 17),8	575,(2, 19),56	649,(2, 6),4	653,(2, 13),756	1409,(2, 16),4	1413,(2, 20),12	1425,(7, 21),8	1433,(4, 21),8	1441,(8, 21),8	1449,(11, 21),8	1457,(12, 21),8	
1,(0, 2),204	205,(1, 4),8	213,(1, 5),4	217,(1, 8),96	313,(1, 9),8	321,(1, 11),136	457,(1, 12),180	637,(1, 14),12	649,(1, 15),12	661,(1, 18),8	669,(3, 21),8	1465,(13, 21),8	
