509
# CPU
0,0,1	1,1,13	14,16,13	27,28,13	40,10,13	53,25,13	66,4,13	79,17,13	92,11,13	105,7,13	118,6,13	131,21,13	144,2,13	157,39,13	170,22,13	183,8,13	196,13,13	209,31,13	222,33,13	508,41,1	
17,40,13	77,3,13	90,5,13	103,18,13	116,36,13	129,38,13	142,35,13	160,29,13	184,23,13	208,34,13	
20,32,13	85,24,13	99,37,13	169,14,13	
26,19,13	93,30,13	108,27,13	
94,15,13	130,12,13	
102,26,13	
82,20,13	96,9,13	



# Incoming
130,(40, 41),18	148,(32, 41),18	166,(19, 41),18	184,(20, 41),18	202,(24, 41),18	220,(5, 41),18	238,(30, 41),18	256,(15, 41),18	274,(9, 41),18	292,(37, 41),18	310,(26, 41),18	328,(18, 41),18	346,(27, 41),18	364,(36, 41),18	382,(38, 41),18	400,(12, 41),18	418,(35, 41),18	436,(29, 41),18	454,(14, 41),18	472,(23, 41),18	490,(34, 41),18	
14,(1, 40),3	26,(0, 3),51	109,(1, 29),12	121,(4, 34),15	157,(2, 29),3	169,(2, 23),15	184,(2, 34),24	
17,(1, 32),3	82,(4, 24),3	96,(3, 37),3	160,(2, 14),9	
20,(1, 19),6	90,(3, 30),3	102,(3, 27),6	
85,(4, 15),9	97,(1, 12),12	109,(3, 12),21	
94,(1, 26),3	99,(3, 26),3	
79,(4, 20),3	93,(3, 9),3	



# Outgoing
14,(1, 40),3	17,(1, 32),3	20,(1, 19),6	26,(0, 3),51	79,(4, 20),3	82,(4, 24),3	85,(4, 15),9	94,(1, 26),3	97,(1, 12),12	109,(1, 29),12	121,(4, 34),15	157,(2, 29),3	160,(2, 14),9	169,(2, 23),15	184,(2, 34),24	
90,(3, 30),3	93,(3, 9),3	96,(3, 37),3	99,(3, 26),3	102,(3, 27),6	109,(3, 12),21	130,(40, 41),18	220,(5, 41),18	328,(18, 41),18	364,(36, 41),18	382,(38, 41),18	418,(35, 41),18	436,(29, 41),18	472,(23, 41),18	490,(34, 41),18	
148,(32, 41),18	202,(24, 41),18	292,(37, 41),18	454,(14, 41),18	
166,(19, 41),18	238,(30, 41),18	346,(27, 41),18	
256,(15, 41),18	400,(12, 41),18	
310,(26, 41),18	
184,(20, 41),18	274,(9, 41),18	



