2702
# CPU
3,2,2	5,4,2	7,74,2	9,110,2	11,109,2	13,61,2	15,6,2	17,89,2	19,91,2	21,38,2	23,48,2	25,8,2	27,10,2	29,12,2	31,77,2	33,42,2	35,23,2	37,69,2	39,106,2	41,29,2	43,44,2	45,49,2	47,57,2	49,47,2	51,31,2	53,68,2	55,83,2	57,101,2	59,114,2	61,63,2	209,43,2	219,46,2	241,53,2	277,55,2	279,67,2	729,90,2	769,92,2	897,96,2	1025,111,2	1075,21,2	1079,25,2	1093,35,2	1097,40,2	1109,41,2	1443,81,2	1479,113,2	1489,118,2	1671,15,2	1685,18,2	1697,28,2	1729,50,2	1731,51,2	1733,52,2	1735,56,2	1741,58,2	1871,65,2	1917,85,2	1945,14,2	1955,30,2	1959,33,2	2011,59,2	2013,60,2	2025,71,2	2039,75,2	2041,93,2	2121,98,2	2123,100,2	2125,103,2	2127,105,2	2129,108,2	2131,115,2	2183,117,2	2233,17,2	2253,19,2	2265,45,2	2279,64,2	2289,66,2	2291,70,2	2299,99,2	2335,112,2	2345,119,2	2357,26,2	2361,39,2	2367,54,2	2405,62,2	2409,72,2	2415,73,2	2425,79,2	2437,88,2	2439,94,2	2451,95,2	2461,97,2	2463,102,2	2485,104,2	2493,107,2	2495,116,2	2497,120,2	2701,121,1	
0,0,1	1,9,2	3,3,2	5,11,2	7,7,2	9,5,2	11,1,2	13,22,2	25,76,2	41,82,2	45,86,2	237,20,2	269,24,2	271,32,2	283,34,2	285,36,2	1815,87,2	1817,78,2	1823,80,2	1831,13,2	1847,16,2	1879,27,2	2061,37,2	2073,84,2	
# Incoming
1,(0, 2),2	3,(0, 4),2	5,(0, 6),2	7,(0, 8),2	9,(0, 10),2	11,(0, 12),2	13,(9, 14),8	21,(9, 17),4	25,(9, 18),62	87,(9, 21),50	137,(9, 33),18	155,(9, 35),32	187,(9, 39),2	189,(9, 43),20	209,(9, 46),10	219,(9, 50),2	221,(9, 53),20	241,(9, 55),36	277,(9, 67),2	279,(9, 70),2	281,(9, 71),412	693,(9, 72),2	695,(9, 73),2	697,(9, 85),24	721,(9, 90),8	729,(9, 92),40	769,(9, 94),2	771,(9, 96),126	897,(9, 100),20	917,(9, 103),76	993,(9, 111),32	1025,(9, 115),12	1037,(9, 116),12	1049,(9, 120),2	1051,(3, 19),20	1071,(3, 21),4	1075,(3, 25),4	1079,(3, 26),12	1091,(3, 35),2	1093,(3, 40),4	1097,(3, 41),12	1109,(3, 45),142	1251,(3, 56),24	1275,(3, 62),26	1301,(3, 70),136	1437,(3, 79),2	1439,(3, 81),4	1443,(3, 88),8	1451,(3, 100),10	1461,(3, 105),2	1463,(3, 112),12	1475,(3, 113),4	1479,(3, 118),10	1489,(3, 119),180	1669,(11, 15),2	1671,(11, 18),14	1685,(11, 28),12	1697,(11, 30),8	1705,(11, 50),24	1729,(11, 51),2	1731,(11, 52),2	1733,(11, 56),2	1735,(11, 58),6	1741,(11, 64),128	1869,(11, 65),2	1871,(11, 72),32	1903,(11, 79),4	1907,(11, 85),10	1917,(11, 103),22	1939,(7, 14),6	1945,(7, 30),10	1955,(7, 33),4	1959,(7, 59),52	2011,(7, 60),2	2013,(7, 70),2	2015,(7, 71),10	2025,(7, 75),14	2039,(7, 93),2	2041,(7, 98),80	2121,(7, 100),2	2123,(7, 103),2	2125,(7, 105),2	2127,(7, 108),2	2129,(7, 115),2	2131,(7, 117),52	2183,(5, 17),50	2233,(5, 19),20	2253,(5, 45),12	2265,(5, 64),14	2279,(5, 66),10	2289,(5, 70),2	2291,(5, 88),4	2295,(5, 97),2	2297,(5, 99),2	2299,(5, 112),36	2335,(5, 119),10	2345,(1, 26),12	2357,(1, 39),4	2361,(1, 54),6	2367,(1, 62),38	2405,(1, 72),4	2409,(1, 73),6	2415,(1, 79),10	2425,(1, 88),12	2437,(1, 94),2	2439,(1, 95),12	2451,(1, 97),10	2461,(1, 102),2	2463,(1, 104),22	2485,(1, 107),8	2493,(1, 116),2	2495,(1, 120),2	2497,(22, 121),12	2509,(76, 121),12	2521,(82, 121),12	2533,(86, 121),12	2545,(20, 121),12	2557,(24, 121),12	2569,(32, 121),12	2581,(34, 121),12	2593,(36, 121),12	2605,(87, 121),12	2617,(78, 121),12	2629,(80, 121),12	2641,(13, 121),12	2653,(16, 121),12	2665,(27, 121),12	2677,(37, 121),12	2689,(84, 121),12	
5,(2, 32),14	19,(4, 27),2	21,(4, 34),2	23,(4, 76),2	25,(4, 80),6	31,(4, 82),10	41,(4, 86),4	45,(6, 13),8	53,(6, 20),164	217,(8, 20),20	237,(8, 24),32	269,(8, 32),2	271,(8, 34),12	283,(8, 36),2	285,(8, 37),36	321,(8, 87),1494	1815,(10, 78),2	1817,(10, 80),6	1823,(12, 13),8	1831,(12, 16),16	1847,(12, 27),32	1879,(12, 37),182	2061,(12, 84),12	
# Outgoing
5,(2, 32),14	19,(4, 27),2	21,(4, 34),2	23,(4, 76),2	25,(4, 80),6	31,(4, 82),10	41,(4, 86),4	45,(6, 13),8	53,(6, 20),164	217,(8, 20),20	237,(8, 24),32	269,(8, 32),2	271,(8, 34),12	283,(8, 36),2	285,(8, 37),36	321,(8, 87),1494	1815,(10, 78),2	1817,(10, 80),6	1823,(12, 13),8	1831,(12, 16),16	1847,(12, 27),32	1879,(12, 37),182	2061,(12, 84),12	
1,(0, 2),2	3,(0, 4),2	5,(0, 6),2	7,(0, 8),2	9,(0, 10),2	11,(0, 12),2	13,(9, 14),8	21,(9, 17),4	25,(9, 18),62	87,(9, 21),50	137,(9, 33),18	155,(9, 35),32	187,(9, 39),2	189,(9, 43),20	209,(9, 46),10	219,(9, 50),2	221,(9, 53),20	241,(9, 55),36	277,(9, 67),2	279,(9, 70),2	281,(9, 71),412	693,(9, 72),2	695,(9, 73),2	697,(9, 85),24	721,(9, 90),8	729,(9, 92),40	769,(9, 94),2	771,(9, 96),126	897,(9, 100),20	917,(9, 103),76	993,(9, 111),32	1025,(9, 115),12	1037,(9, 116),12	1049,(9, 120),2	1051,(3, 19),20	1071,(3, 21),4	1075,(3, 25),4	1079,(3, 26),12	1091,(3, 35),2	1093,(3, 40),4	1097,(3, 41),12	1109,(3, 45),142	1251,(3, 56),24	1275,(3, 62),26	1301,(3, 70),136	1437,(3, 79),2	1439,(3, 81),4	1443,(3, 88),8	1451,(3, 100),10	1461,(3, 105),2	1463,(3, 112),12	1475,(3, 113),4	1479,(3, 118),10	1489,(3, 119),180	1669,(11, 15),2	1671,(11, 18),14	1685,(11, 28),12	1697,(11, 30),8	1705,(11, 50),24	1729,(11, 51),2	1731,(11, 52),2	1733,(11, 56),2	1735,(11, 58),6	1741,(11, 64),128	1869,(11, 65),2	1871,(11, 72),32	1903,(11, 79),4	1907,(11, 85),10	1917,(11, 103),22	1939,(7, 14),6	1945,(7, 30),10	1955,(7, 33),4	1959,(7, 59),52	2011,(7, 60),2	2013,(7, 70),2	2015,(7, 71),10	2025,(7, 75),14	2039,(7, 93),2	2041,(7, 98),80	2121,(7, 100),2	2123,(7, 103),2	2125,(7, 105),2	2127,(7, 108),2	2129,(7, 115),2	2131,(7, 117),52	2183,(5, 17),50	2233,(5, 19),20	2253,(5, 45),12	2265,(5, 64),14	2279,(5, 66),10	2289,(5, 70),2	2291,(5, 88),4	2295,(5, 97),2	2297,(5, 99),2	2299,(5, 112),36	2335,(5, 119),10	2345,(1, 26),12	2357,(1, 39),4	2361,(1, 54),6	2367,(1, 62),38	2405,(1, 72),4	2409,(1, 73),6	2415,(1, 79),10	2425,(1, 88),12	2437,(1, 94),2	2439,(1, 95),12	2451,(1, 97),10	2461,(1, 102),2	2463,(1, 104),22	2485,(1, 107),8	2493,(1, 116),2	2495,(1, 120),2	2497,(22, 121),12	2509,(76, 121),12	2521,(82, 121),12	2533,(86, 121),12	2545,(20, 121),12	2557,(24, 121),12	2569,(32, 121),12	2581,(34, 121),12	2593,(36, 121),12	2605,(87, 121),12	2617,(78, 121),12	2629,(80, 121),12	2641,(13, 121),12	2653,(16, 121),12	2665,(27, 121),12	2677,(37, 121),12	2689,(84, 121),12	
