256
# CPU
0,81,1	1,29,1	2,71,1	3,72,1	4,10,1	5,79,1	6,78,1	7,75,1	8,14,1	9,58,1	10,68,1	11,33,1	12,32,1	13,27,1	14,19,1	15,11,1	16,46,1	17,54,1	18,39,1	19,47,1	20,66,1	21,36,1	22,37,1	23,20,1	24,52,1	25,64,1	26,49,1	27,70,1	28,16,1	29,51,1	30,42,1	31,55,1	32,59,1	33,67,1	34,18,1	35,45,1	36,25,1	37,65,1	38,24,1	39,28,1	40,30,1	41,13,1	42,50,1	43,34,1	44,31,1	45,26,1	46,23,1	47,12,1	48,80,1	49,22,1	50,21,1	51,35,1	52,56,1	53,76,1	54,17,1	55,15,1	56,44,1	57,41,1	58,53,1	59,43,1	60,77,1	61,63,1	62,62,1	63,48,1	64,60,1	65,40,1	66,1,1	67,3,1	68,74,1	69,9,1	70,61,1	71,4,1	72,8,1	73,2,1	101,6,1	131,5,1	254,7,1	255,0,1	
16,57,1	61,73,1	


31,69,1	46,38,1	
# Incoming
62,(73, 8),3	65,(57, 2),6	71,(38, 6),30	101,(69, 5),18	119,(73, 5),12	131,(73, 7),123	
1,(81, 57),15	46,(81, 73),15	


16,(81, 69),15	31,(81, 38),15	
# Outgoing
1,(81, 57),15	16,(81, 69),15	31,(81, 38),15	46,(81, 73),15	
62,(73, 8),3	65,(57, 2),6	119,(73, 5),12	131,(73, 7),123	


71,(38, 6),30	101,(69, 5),18	
