2991
# CPU
92,25,16	108,9,16	124,20,16	140,15,16	156,29,16	172,33,16	188,38,16	204,13,16	
10,4,16	26,39,16	44,14,16	83,22,16	99,8,16	115,26,16	131,30,16	147,34,16	163,18,16	
7,3,16	38,10,16	54,7,16	70,23,16	119,31,16	161,16,16	177,27,16	197,36,16	
4,2,16	20,19,16	36,37,16	52,6,16	68,12,16	116,24,16	132,28,16	148,32,16	
0,0,1	1,1,16	17,35,16	62,5,16	107,11,16	230,17,16	734,40,16	1010,21,16	2990,41,1	
# Incoming
83,(1, 25),9	92,(3, 9),3	95,(3, 20),6	107,(4, 15),3	113,(1, 29),3	119,(1, 33),3	125,(1, 38),12	137,(4, 13),9	
7,(0, 4),3	38,(1, 14),6	44,(1, 22),39	83,(2, 8),6	92,(1, 26),21	113,(3, 30),9	122,(1, 34),3	125,(3, 18),12	
4,(0, 3),3	17,(1, 10),21	38,(2, 7),3	44,(2, 23),3	116,(1, 31),3	119,(2, 16),42	161,(4, 27),6	167,(4, 36),30	
1,(0, 2),3	23,(3, 6),6	29,(3, 12),27	110,(4, 24),6	116,(4, 28),6	122,(4, 32),6	
41,(2, 11),3	44,(4, 5),18	62,(4, 11),45	161,(2, 17),69	230,(2, 40),504	734,(4, 21),276	1010,(19, 41),66	1076,(39, 41),66	1142,(37, 41),66	1208,(10, 41),66	1274,(14, 41),66	1340,(6, 41),66	1406,(7, 41),66	1472,(12, 41),66	1538,(23, 41),66	1604,(22, 41),66	1670,(25, 41),66	1736,(8, 41),66	1802,(9, 41),66	1868,(26, 41),66	1934,(24, 41),66	2000,(31, 41),66	2066,(20, 41),66	2132,(30, 41),66	2198,(28, 41),66	2264,(15, 41),66	2330,(34, 41),66	2396,(32, 41),66	2462,(29, 41),66	2528,(16, 41),66	2594,(18, 41),66	2660,(33, 41),66	2726,(27, 41),66	2792,(38, 41),66	2858,(36, 41),66	2924,(13, 41),66	
# Outgoing
1670,(25, 41),66	1802,(9, 41),66	2066,(20, 41),66	2264,(15, 41),66	2462,(29, 41),66	2660,(33, 41),66	2792,(38, 41),66	2924,(13, 41),66	
44,(4, 5),18	62,(4, 11),45	107,(4, 15),3	110,(4, 24),6	116,(4, 28),6	122,(4, 32),6	137,(4, 13),9	161,(4, 27),6	167,(4, 36),30	734,(4, 21),276	1076,(39, 41),66	1274,(14, 41),66	1604,(22, 41),66	1736,(8, 41),66	1868,(26, 41),66	2132,(30, 41),66	2330,(34, 41),66	2594,(18, 41),66	
23,(3, 6),6	29,(3, 12),27	92,(3, 9),3	95,(3, 20),6	113,(3, 30),9	125,(3, 18),12	1208,(10, 41),66	1406,(7, 41),66	1538,(23, 41),66	2000,(31, 41),66	2528,(16, 41),66	2726,(27, 41),66	2858,(36, 41),66	
38,(2, 7),3	41,(2, 11),3	44,(2, 23),3	83,(2, 8),6	119,(2, 16),42	161,(2, 17),69	230,(2, 40),504	1010,(19, 41),66	1142,(37, 41),66	1340,(6, 41),66	1472,(12, 41),66	1934,(24, 41),66	2198,(28, 41),66	2396,(32, 41),66	
1,(0, 2),3	4,(0, 3),3	7,(0, 4),3	17,(1, 10),21	38,(1, 14),6	44,(1, 22),39	83,(1, 25),9	92,(1, 26),21	113,(1, 29),3	116,(1, 31),3	119,(1, 33),3	122,(1, 34),3	125,(1, 38),12	
