1205
# CPU
0,0,1	1,9,1	2,50,1	3,99,1	4,101,1	5,120,1	6,3,1	7,86,1	8,14,1	9,42,1	10,105,1	11,60,1	12,79,1	13,80,1	14,61,1	15,1,1	16,113,1	17,93,1	18,17,1	19,36,1	20,89,1	21,56,1	22,7,1	23,48,1	24,108,1	25,94,1	26,92,1	27,44,1	28,83,1	29,47,1	30,81,1	31,25,1	32,90,1	33,98,1	34,10,1	35,24,1	36,119,1	37,28,1	38,111,1	39,43,1	40,4,1	41,71,1	42,102,1	43,107,1	44,95,1	45,49,1	46,20,1	47,57,1	48,62,1	49,58,1	50,5,1	51,39,1	52,31,1	53,26,1	54,21,1	55,76,1	56,100,1	57,88,1	58,54,1	59,45,1	60,51,1	61,2,1	62,109,1	63,29,1	64,85,1	65,69,1	66,55,1	67,52,1	68,30,1	69,106,1	70,65,1	71,11,1	72,75,1	73,23,1	74,37,1	75,118,1	76,13,1	77,12,1	78,104,1	79,103,1	80,18,1	81,27,1	82,67,1	83,78,1	84,87,1	85,114,1	86,74,1	87,16,1	88,70,1	89,117,1	90,41,1	95,53,1	99,110,1	103,40,1	119,112,1	139,22,1	207,19,1	335,64,1	539,115,1	795,15,1	1203,91,1	1204,121,1	








17,6,1	18,63,1	19,66,1	20,72,1	21,84,1	22,34,1	23,33,1	24,77,1	25,116,1	26,96,1	27,73,1	33,8,1	34,32,1	35,46,1	36,97,1	37,35,1	38,82,1	39,38,1	40,68,1	41,59,1	
# Incoming
19,(63, 121),4	23,(66, 121),4	27,(72, 121),4	31,(84, 121),4	35,(34, 121),4	39,(33, 121),4	43,(77, 121),4	47,(116, 121),4	51,(96, 121),4	55,(73, 121),4	59,(32, 121),4	63,(46, 121),4	67,(97, 121),4	71,(35, 121),4	75,(82, 121),4	79,(38, 121),4	83,(68, 121),4	87,(59, 121),4	91,(6, 53),4	95,(8, 110),4	99,(6, 40),4	103,(6, 112),16	119,(6, 22),20	139,(8, 19),68	207,(6, 64),128	335,(8, 115),204	539,(8, 15),256	795,(8, 91),408	








1,(0, 6),16	17,(0, 8),16	
# Outgoing
1,(0, 6),16	17,(0, 8),16	








19,(63, 121),4	23,(66, 121),4	27,(72, 121),4	31,(84, 121),4	35,(34, 121),4	39,(33, 121),4	43,(77, 121),4	47,(116, 121),4	51,(96, 121),4	55,(73, 121),4	59,(32, 121),4	63,(46, 121),4	67,(97, 121),4	71,(35, 121),4	75,(82, 121),4	79,(38, 121),4	83,(68, 121),4	87,(59, 121),4	91,(6, 53),4	95,(8, 110),4	99,(6, 40),4	103,(6, 112),16	119,(6, 22),20	139,(8, 19),68	207,(6, 64),128	335,(8, 115),204	539,(8, 15),256	795,(8, 91),408	
