913
# CPU
3,3,1	4,39,1	203,20,1	422,15,1	427,18,1	496,13,1	502,26,1	531,10,1	562,12,1	573,16,1	576,17,1	593,21,1	595,23,1	620,24,1	629,28,1	638,30,1	645,36,1	671,14,1	691,22,1	723,25,1	785,32,1	825,34,1	906,40,1	912,41,1	
2,2,1	102,7,1	156,11,1	440,31,1	496,33,1	510,35,1	521,8,1	528,9,1	621,27,1	635,29,1	649,37,1	750,38,1	
0,0,1	1,1,1	2,4,1	97,6,1	101,5,1	227,19,1	
# Incoming
2,(0, 3),1	55,(1, 10),1	56,(1, 12),70	126,(1, 13),59	185,(1, 14),1	186,(1, 15),1	187,(1, 18),4	191,(1, 20),12	203,(1, 22),168	371,(1, 24),43	414,(2, 12),7	421,(2, 15),1	422,(2, 17),2	424,(2, 18),3	427,(2, 21),5	432,(2, 24),1	433,(7, 41),1	434,(11, 41),1	435,(1, 30),4	440,(1, 32),11	451,(2, 10),29	480,(2, 13),16	496,(1, 34),2	498,(2, 26),4	502,(31, 41),1	503,(33, 41),1	510,(1, 36),2	512,(35, 41),1	516,(1, 40),4	522,(8, 41),1	528,(4, 10),3	531,(4, 12),31	562,(4, 16),11	573,(4, 17),3	576,(4, 21),17	593,(4, 23),2	595,(4, 24),25	620,(9, 41),1	621,(4, 28),8	629,(27, 41),1	635,(4, 30),3	638,(4, 32),2	640,(4, 34),1	641,(4, 36),4	645,(2, 14),26	671,(2, 22),20	691,(2, 25),32	723,(2, 32),62	785,(2, 34),40	825,(2, 40),81	906,(6, 41),1	907,(5, 41),1	908,(19, 41),1	909,(29, 41),1	910,(37, 41),1	911,(38, 41),1	
1,(0, 2),1	3,(1, 8),38	41,(1, 9),14	101,(3, 7),1	102,(3, 8),1	103,(3, 9),8	111,(3, 11),45	227,(3, 29),1	228,(3, 31),1	229,(3, 35),13	242,(3, 37),1	243,(3, 38),6	414,(1, 27),12	426,(1, 29),9	439,(1, 31),1	451,(1, 33),45	498,(1, 35),12	512,(1, 37),3	515,(1, 38),1	520,(4, 8),1	521,(4, 9),7	620,(4, 27),1	629,(4, 29),6	645,(4, 37),4	649,(4, 38),101	
3,(2, 5),9	12,(2, 6),85	97,(2, 19),2	99,(3, 5),2	156,(3, 19),71	
# Outgoing
99,(3, 5),2	101,(3, 7),1	102,(3, 8),1	103,(3, 9),8	111,(3, 11),45	156,(3, 19),71	227,(3, 29),1	228,(3, 31),1	229,(3, 35),13	242,(3, 37),1	243,(3, 38),6	
3,(2, 5),9	12,(2, 6),85	97,(2, 19),2	414,(2, 12),7	421,(2, 15),1	422,(2, 17),2	424,(2, 18),3	427,(2, 21),5	432,(2, 24),1	433,(7, 41),1	434,(11, 41),1	451,(2, 10),29	480,(2, 13),16	498,(2, 26),4	502,(31, 41),1	503,(33, 41),1	512,(35, 41),1	522,(8, 41),1	620,(9, 41),1	629,(27, 41),1	645,(2, 14),26	671,(2, 22),20	691,(2, 25),32	723,(2, 32),62	785,(2, 34),40	825,(2, 40),81	909,(29, 41),1	910,(37, 41),1	911,(38, 41),1	
1,(0, 2),1	2,(0, 3),1	3,(1, 8),38	41,(1, 9),14	55,(1, 10),1	56,(1, 12),70	126,(1, 13),59	185,(1, 14),1	186,(1, 15),1	187,(1, 18),4	191,(1, 20),12	203,(1, 22),168	371,(1, 24),43	414,(1, 27),12	426,(1, 29),9	435,(1, 30),4	439,(1, 31),1	440,(1, 32),11	451,(1, 33),45	496,(1, 34),2	498,(1, 35),12	510,(1, 36),2	512,(1, 37),3	515,(1, 38),1	516,(1, 40),4	520,(4, 8),1	521,(4, 9),7	528,(4, 10),3	531,(4, 12),31	562,(4, 16),11	573,(4, 17),3	576,(4, 21),17	593,(4, 23),2	595,(4, 24),25	620,(4, 27),1	621,(4, 28),8	629,(4, 29),6	635,(4, 30),3	638,(4, 32),2	640,(4, 34),1	641,(4, 36),4	645,(4, 37),4	649,(4, 38),101	906,(6, 41),1	907,(5, 41),1	908,(19, 41),1	
