38546
# CPU
8089,3,1	8090,48,1	8091,63,1	8092,102,1	8093,67,1	8094,93,1	8721,85,1	16177,6,1	16178,28,1	16179,65,1	16180,87,1	16181,100,1	16182,34,1	16185,45,1	17013,69,1	17149,73,1	17157,88,1	17205,97,1	24265,9,1	24266,40,1	24267,68,1	24268,82,1	24269,91,1	24270,98,1	24271,27,1	24401,52,1	24409,72,1	24413,86,1	32353,12,1	32354,51,1	32355,74,1	32356,76,1	32357,103,1	32358,116,1	32359,83,1	32360,44,1	32409,26,1	32429,49,1	32433,53,1	32465,55,1	32493,56,1	32529,57,1	32541,58,1	32553,81,1	32637,99,1	32833,108,1	32849,110,1	32853,54,1	32873,59,1	32889,66,1	32897,36,1	33005,43,1	33009,46,1	33013,62,1	33021,64,1	33025,70,1	33149,89,1	33157,118,1	33193,61,1	33197,90,1	33249,120,1	33253,94,1	33265,18,1	33269,21,1	33273,39,1	33285,42,1	33293,50,1	33301,71,1	33393,80,1	33397,101,1	33441,106,1	33513,114,1	33553,29,1	33589,32,1	33613,96,1	33617,41,1	33621,47,1	33637,75,1	33657,79,1	33681,92,1	33685,95,1	33709,104,1	33757,112,1	33929,78,1	
4045,2,1	4046,33,1	4047,37,1	12133,5,1	12333,84,1	20221,8,1	20225,15,1	20229,30,1	20245,117,1	28309,11,1	28310,113,1	28311,77,1	32413,25,1	32417,19,1	32425,23,1	32657,107,1	32829,105,1	32841,115,1	33057,38,1	33197,119,1	33253,16,1	33517,22,1	33613,35,1	33737,109,1	33753,111,1	38545,121,1	
0,0,1	1,7,1	2,4,1	3,10,1	4,1,1	5,13,1	4394,31,1	8094,17,1	12234,20,1	15094,60,1	16250,14,1	32753,24,1	
# Incoming
4045,(0, 3),4044	8089,(2, 49),4	8093,(2, 51),4	8097,(2, 59),460	8557,(2, 64),40	8597,(2, 69),56	8653,(2, 70),36	8689,(2, 85),32	8721,(2, 89),4	12133,(0, 6),4044	16177,(5, 34),4	16181,(5, 45),4	16185,(5, 50),620	16805,(5, 57),12	16817,(5, 66),184	17001,(5, 69),12	17013,(5, 73),136	17149,(5, 86),4	17153,(5, 88),4	17157,(5, 90),8	17165,(5, 97),40	17205,(5, 108),60	20221,(0, 9),4044	24265,(8, 27),4	24269,(8, 39),80	24349,(8, 51),16	24365,(8, 52),36	24401,(8, 70),4	24405,(8, 72),4	24409,(8, 86),4	24413,(8, 106),116	24529,(8, 110),36	24565,(8, 120),28	28309,(0, 12),4044	32353,(11, 26),56	32409,(11, 36),4	32413,(7, 49),16	32429,(7, 53),4	32433,(7, 55),32	32465,(7, 56),28	32493,(7, 57),36	32529,(7, 58),12	32541,(7, 61),4	32545,(7, 80),4	32549,(7, 81),4	32553,(7, 92),4	32557,(7, 99),80	32637,(11, 50),20	32657,(7, 108),176	32833,(7, 110),16	32849,(11, 54),4	32853,(11, 59),20	32873,(11, 66),16	32889,(4, 36),8	32897,(4, 43),108	33005,(4, 46),4	33009,(4, 62),4	33013,(4, 64),8	33021,(4, 70),4	33025,(4, 71),44	33069,(4, 75),4	33073,(4, 78),8	33081,(4, 79),4	33085,(4, 89),64	33149,(4, 118),8	33157,(11, 61),36	33193,(11, 90),4	33197,(4, 120),52	33249,(11, 94),4	33253,(10, 18),12	33265,(10, 21),4	33269,(10, 39),4	33273,(10, 42),12	33285,(10, 50),8	33293,(10, 71),8	33301,(10, 79),72	33373,(10, 80),20	33393,(10, 101),4	33397,(10, 106),44	33441,(10, 114),72	33517,(1, 29),36	33553,(1, 32),36	33589,(11, 96),24	33613,(1, 41),4	33617,(1, 47),4	33621,(1, 75),16	33637,(1, 78),4	33641,(1, 79),16	33657,(1, 92),24	33681,(1, 95),4	33685,(1, 104),24	33753,(1, 112),4	33757,(11, 78),172	
1,(0, 2),4044	8089,(0, 5),4044	12133,(3, 84),200	12333,(3, 115),64	12397,(48, 121),84	12481,(63, 121),84	12565,(102, 121),84	12649,(67, 121),84	12733,(93, 121),84	12817,(85, 121),84	16177,(0, 8),4044	20221,(6, 15),4	20225,(6, 30),4	20229,(6, 113),12	20241,(6, 117),4	20245,(28, 121),84	20329,(65, 121),84	20413,(87, 121),84	20497,(100, 121),84	20581,(34, 121),84	20665,(45, 121),84	20749,(69, 121),84	20833,(73, 121),84	20917,(88, 121),84	21001,(97, 121),84	24265,(0, 11),4044	28309,(40, 121),84	28393,(68, 121),84	28477,(82, 121),84	28561,(91, 121),84	28645,(98, 121),84	28729,(27, 121),84	28813,(52, 121),84	28897,(72, 121),84	28981,(86, 121),84	32353,(7, 25),60	32413,(12, 19),4	32417,(12, 23),8	32637,(7, 107),20	32753,(12, 105),76	32829,(12, 109),4	32833,(12, 115),8	32849,(7, 119),4	32853,(4, 35),36	32889,(12, 38),168	33057,(51, 121),84	33157,(4, 119),40	33249,(10, 16),4	33253,(74, 121),84	33337,(76, 121),84	33421,(103, 121),84	33513,(1, 22),4	33589,(1, 35),24	33613,(116, 121),84	33709,(1, 109),28	33737,(1, 111),16	33757,(13, 121),84	33841,(31, 121),84	33925,(17, 121),84	34009,(20, 121),84	34093,(60, 121),84	34177,(14, 121),84	34261,(83, 121),84	34345,(44, 121),84	34429,(26, 121),84	34513,(49, 121),84	34597,(53, 121),84	34681,(55, 121),84	34765,(56, 121),84	34849,(57, 121),84	34933,(58, 121),84	35017,(81, 121),84	35101,(99, 121),84	35185,(24, 121),84	35269,(108, 121),84	35353,(110, 121),84	35437,(54, 121),84	35521,(59, 121),84	35605,(66, 121),84	35689,(36, 121),84	35773,(43, 121),84	35857,(46, 121),84	35941,(62, 121),84	36025,(64, 121),84	36109,(70, 121),84	36193,(89, 121),84	36277,(118, 121),84	36361,(61, 121),84	36445,(90, 121),84	36529,(120, 121),84	36613,(94, 121),84	36697,(18, 121),84	36781,(21, 121),84	36865,(39, 121),84	36949,(42, 121),84	37033,(50, 121),84	37117,(71, 121),84	37201,(80, 121),84	37285,(101, 121),84	37369,(106, 121),84	37453,(114, 121),84	37537,(29, 121),84	37621,(32, 121),84	37705,(96, 121),84	37789,(41, 121),84	37873,(47, 121),84	37957,(75, 121),84	38041,(79, 121),84	38125,(92, 121),84	38209,(95, 121),84	38293,(104, 121),84	38377,(112, 121),84	38461,(78, 121),84	
4046,(2, 14),4	4050,(2, 31),344	8090,(3, 17),4	12134,(5, 20),100	12234,(5, 60),2860	16178,(6, 14),72	32425,(12, 24),328	
# Outgoing
8090,(3, 17),4	12133,(3, 84),200	12333,(3, 115),64	12397,(48, 121),84	12481,(63, 121),84	12565,(102, 121),84	12649,(67, 121),84	12733,(93, 121),84	12817,(85, 121),84	16178,(6, 14),72	20221,(6, 15),4	20225,(6, 30),4	20229,(6, 113),12	20241,(6, 117),4	20245,(28, 121),84	20329,(65, 121),84	20413,(87, 121),84	20497,(100, 121),84	20581,(34, 121),84	20665,(45, 121),84	20749,(69, 121),84	20833,(73, 121),84	20917,(88, 121),84	21001,(97, 121),84	28309,(40, 121),84	28393,(68, 121),84	28477,(82, 121),84	28561,(91, 121),84	28645,(98, 121),84	28729,(27, 121),84	28813,(52, 121),84	28897,(72, 121),84	28981,(86, 121),84	32413,(12, 19),4	32417,(12, 23),8	32425,(12, 24),328	32753,(12, 105),76	32829,(12, 109),4	32833,(12, 115),8	32889,(12, 38),168	33057,(51, 121),84	33253,(74, 121),84	33337,(76, 121),84	33421,(103, 121),84	33613,(116, 121),84	34261,(83, 121),84	34345,(44, 121),84	34429,(26, 121),84	34513,(49, 121),84	34597,(53, 121),84	34681,(55, 121),84	34765,(56, 121),84	34849,(57, 121),84	34933,(58, 121),84	35017,(81, 121),84	35101,(99, 121),84	35269,(108, 121),84	35353,(110, 121),84	35437,(54, 121),84	35521,(59, 121),84	35605,(66, 121),84	35689,(36, 121),84	35773,(43, 121),84	35857,(46, 121),84	35941,(62, 121),84	36025,(64, 121),84	36109,(70, 121),84	36193,(89, 121),84	36277,(118, 121),84	36361,(61, 121),84	36445,(90, 121),84	36529,(120, 121),84	36613,(94, 121),84	36697,(18, 121),84	36781,(21, 121),84	36865,(39, 121),84	36949,(42, 121),84	37033,(50, 121),84	37117,(71, 121),84	37201,(80, 121),84	37285,(101, 121),84	37369,(106, 121),84	37453,(114, 121),84	37537,(29, 121),84	37621,(32, 121),84	37705,(96, 121),84	37789,(41, 121),84	37873,(47, 121),84	37957,(75, 121),84	38041,(79, 121),84	38125,(92, 121),84	38209,(95, 121),84	38293,(104, 121),84	38377,(112, 121),84	38461,(78, 121),84	
4046,(2, 14),4	4050,(2, 31),344	8089,(2, 49),4	8093,(2, 51),4	8097,(2, 59),460	8557,(2, 64),40	8597,(2, 69),56	8653,(2, 70),36	8689,(2, 85),32	8721,(2, 89),4	12134,(5, 20),100	12234,(5, 60),2860	16177,(5, 34),4	16181,(5, 45),4	16185,(5, 50),620	16805,(5, 57),12	16817,(5, 66),184	17001,(5, 69),12	17013,(5, 73),136	17149,(5, 86),4	17153,(5, 88),4	17157,(5, 90),8	17165,(5, 97),40	17205,(5, 108),60	24265,(8, 27),4	24269,(8, 39),80	24349,(8, 51),16	24365,(8, 52),36	24401,(8, 70),4	24405,(8, 72),4	24409,(8, 86),4	24413,(8, 106),116	24529,(8, 110),36	24565,(8, 120),28	32353,(11, 26),56	32409,(11, 36),4	32637,(11, 50),20	32849,(11, 54),4	32853,(11, 59),20	32873,(11, 66),16	33157,(11, 61),36	33193,(11, 90),4	33249,(11, 94),4	33589,(11, 96),24	33757,(11, 78),172	
1,(0, 2),4044	4045,(0, 3),4044	8089,(0, 5),4044	12133,(0, 6),4044	16177,(0, 8),4044	20221,(0, 9),4044	24265,(0, 11),4044	28309,(0, 12),4044	32353,(7, 25),60	32413,(7, 49),16	32429,(7, 53),4	32433,(7, 55),32	32465,(7, 56),28	32493,(7, 57),36	32529,(7, 58),12	32541,(7, 61),4	32545,(7, 80),4	32549,(7, 81),4	32553,(7, 92),4	32557,(7, 99),80	32637,(7, 107),20	32657,(7, 108),176	32833,(7, 110),16	32849,(7, 119),4	32853,(4, 35),36	32889,(4, 36),8	32897,(4, 43),108	33005,(4, 46),4	33009,(4, 62),4	33013,(4, 64),8	33021,(4, 70),4	33025,(4, 71),44	33069,(4, 75),4	33073,(4, 78),8	33081,(4, 79),4	33085,(4, 89),64	33149,(4, 118),8	33157,(4, 119),40	33197,(4, 120),52	33249,(10, 16),4	33253,(10, 18),12	33265,(10, 21),4	33269,(10, 39),4	33273,(10, 42),12	33285,(10, 50),8	33293,(10, 71),8	33301,(10, 79),72	33373,(10, 80),20	33393,(10, 101),4	33397,(10, 106),44	33441,(10, 114),72	33513,(1, 22),4	33517,(1, 29),36	33553,(1, 32),36	33589,(1, 35),24	33613,(1, 41),4	33617,(1, 47),4	33621,(1, 75),16	33637,(1, 78),4	33641,(1, 79),16	33657,(1, 92),24	33681,(1, 95),4	33685,(1, 104),24	33709,(1, 109),28	33737,(1, 111),16	33753,(1, 112),4	33757,(13, 121),84	33841,(31, 121),84	33925,(17, 121),84	34009,(20, 121),84	34093,(60, 121),84	34177,(14, 121),84	35185,(24, 121),84	
