28902
# CPU
5,1,10	15,50,10	25,76,10	35,59,10	53,72,10	93,16,10	183,54,10	195,88,10	343,31,10	353,74,10	375,80,10	24933,111,10	24957,115,10	
9,2,10	19,89,10	97,27,10	107,106,10	135,30,10	145,55,10	231,25,10	22117,49,10	24785,94,10	24837,97,10	24953,113,10	
13,3,10	23,40,10	33,68,10	43,75,10	185,34,10	237,48,10	261,107,10	271,119,10	22093,33,10	22109,44,10	24961,116,10	
37,11,10	47,84,10	57,110,10	79,19,10	99,43,10	127,21,10	137,15,10	147,53,10	157,105,10	22657,62,10	23441,28,10	
21,6,10	31,81,10	115,78,10	131,35,10	149,57,10	221,60,10	255,90,10	287,24,10	21997,95,10	22077,114,10	22661,82,10	
41,12,10	51,83,10	61,56,10	75,38,10	91,52,10	195,58,10	225,63,10	235,64,10	259,103,10	22089,32,10	24533,70,10	
881,66,10	21961,92,10	22085,42,10	23185,51,10	23345,102,10	23437,22,10	24837,71,10	28233,73,10	28341,45,10	28361,69,10	28565,87,10	28901,121,1	
0,0,1	1,10,10	11,4,10	21,96,10	31,37,10	41,14,10	51,86,10	61,67,10	71,77,10	81,93,10	91,61,10	395,118,10	
25,7,10	35,9,10	45,65,10	55,18,10	65,17,10	75,26,10	85,120,10	95,36,10	105,109,10	115,20,10	143,117,10	173,39,10	22021,104,10	24737,79,10	24897,99,10	
17,5,10	29,8,10	39,29,10	49,91,10	59,41,10	69,100,10	79,13,10	89,101,10	171,98,10	249,23,10	311,47,10	22113,46,10	22669,85,10	22693,112,10	24901,108,10	
# Incoming
1,(0, 1),4	49,(2, 72),4	59,(11, 115),4	71,(5, 88),4	77,(7, 16),16	103,(3, 31),64	167,(3, 54),16	183,(7, 88),12	203,(3, 80),40	243,(8, 31),32	275,(9, 31),68	343,(9, 74),4	347,(9, 80),28	24901,(6, 111),32	24953,(6, 115),4	
5,(0, 2),4	15,(1, 25),36	51,(5, 49),4	75,(8, 30),4	93,(7, 27),4	97,(7, 94),4	101,(9, 106),4	131,(12, 30),4	137,(10, 55),8	195,(7, 97),24	219,(9, 25),12	235,(9, 113),12	21961,(10, 94),32	22113,(4, 49),4	24757,(6, 94),28	24785,(6, 97),52	24933,(6, 113),20	
9,(0, 3),4	47,(11, 34),8	61,(2, 119),8	73,(10, 44),20	93,(1, 33),60	153,(7, 44),20	173,(7, 107),8	181,(12, 34),4	185,(12, 116),16	217,(1, 48),20	237,(2, 107),24	261,(9, 44),4	265,(9, 119),4	22089,(4, 33),4	22093,(4, 44),16	24957,(6, 116),4	
33,(0, 11),4	51,(1, 28),12	63,(3, 19),16	79,(5, 43),20	99,(5, 53),4	103,(5, 62),8	111,(7, 21),16	127,(12, 15),4	131,(9, 53),12	143,(9, 105),4	183,(3, 62),20	22653,(4, 62),4	23437,(6, 28),4	
17,(0, 6),4	37,(3, 60),4	41,(2, 24),8	55,(5, 60),8	65,(10, 24),4	75,(1, 57),4	79,(1, 60),4	83,(1, 78),8	91,(2, 78),24	115,(11, 90),12	127,(9, 35),4	145,(10, 57),4	149,(10, 60),72	231,(9, 95),4	243,(3, 90),12	255,(12, 24),32	21993,(10, 95),4	22021,(10, 114),56	22657,(4, 82),4	
37,(0, 12),4	41,(5, 32),4	55,(11, 56),4	63,(1, 38),12	75,(2, 52),16	111,(8, 58),60	171,(11, 58),24	221,(10, 63),4	225,(10, 64),4	255,(3, 103),4	22077,(4, 32),12	24529,(6, 70),4	
109,(10, 51),28	137,(2, 42),84	221,(5, 45),4	225,(89, 121),4	229,(10, 66),652	881,(10, 71),40	921,(10, 73),21036	21957,(10, 92),4	21961,(1, 102),16	21977,(50, 121),4	21981,(40, 121),4	21985,(76, 121),4	21989,(68, 121),4	21993,(9, 42),4	21997,(10, 102),4	22001,(1, 42),84	22085,(2, 69),32	22117,(4, 22),532	22649,(4, 45),4	22653,(59, 121),4	22657,(11, 87),4	22661,(29, 121),4	22665,(75, 121),4	22669,(4, 87),16	22685,(3, 22),48	22733,(3, 69),32	22765,(3, 71),80	22845,(3, 73),92	22937,(3, 87),156	23093,(3, 102),72	23165,(5, 51),20	23185,(5, 69),56	23241,(5, 71),24	23265,(5, 102),80	23345,(6, 22),92	23437,(96, 121),4	23441,(6, 69),1088	24529,(37, 121),4	24533,(6, 73),200	24733,(14, 121),4	24737,(6, 87),20	24757,(7, 71),80	24837,(9, 69),120	24957,(65, 121),4	24961,(81, 121),4	24965,(9, 45),3212	28177,(9, 73),56	28233,(11, 45),108	28341,(12, 69),20	28361,(12, 87),204	28565,(84, 121),4	28569,(91, 121),4	28573,(83, 121),4	28577,(86, 121),4	28581,(72, 121),4	28585,(18, 121),4	28589,(110, 121),4	28593,(41, 121),4	28597,(56, 121),4	28601,(67, 121),4	28605,(17, 121),4	28609,(100, 121),4	28613,(77, 121),4	28617,(38, 121),4	28621,(26, 121),4	28625,(19, 121),4	28629,(13, 121),4	28633,(93, 121),4	28637,(120, 121),4	28641,(101, 121),4	28645,(52, 121),4	28649,(61, 121),4	28653,(16, 121),4	28657,(36, 121),4	28661,(27, 121),4	28665,(43, 121),4	28669,(109, 121),4	28673,(106, 121),4	28677,(78, 121),4	28681,(20, 121),4	28685,(21, 121),4	28689,(35, 121),4	28693,(30, 121),4	28697,(15, 121),4	28701,(117, 121),4	28705,(55, 121),4	28709,(53, 121),4	28713,(57, 121),4	28717,(105, 121),4	28721,(98, 121),4	28725,(39, 121),4	28729,(54, 121),4	28733,(34, 121),4	28737,(58, 121),4	28741,(88, 121),4	28745,(60, 121),4	28749,(63, 121),4	28753,(25, 121),4	28757,(64, 121),4	28761,(48, 121),4	28765,(23, 121),4	28769,(90, 121),4	28773,(103, 121),4	28777,(107, 121),4	28781,(119, 121),4	28785,(24, 121),4	28789,(47, 121),4	28793,(31, 121),4	28797,(74, 121),4	28801,(80, 121),4	28805,(118, 121),4	28809,(95, 121),4	28813,(104, 121),4	28817,(114, 121),4	28821,(32, 121),4	28825,(33, 121),4	28829,(44, 121),4	28833,(46, 121),4	28837,(49, 121),4	28841,(62, 121),4	28845,(82, 121),4	28849,(85, 121),4	28853,(112, 121),4	28857,(28, 121),4	28861,(70, 121),4	28865,(79, 121),4	28869,(94, 121),4	28873,(97, 121),4	28877,(99, 121),4	28881,(108, 121),4	28885,(111, 121),4	28889,(113, 121),4	28893,(115, 121),4	28897,(116, 121),4	
41,(3, 77),16	57,(3, 93),4	63,(5, 61),8	225,(8, 118),16	375,(9, 118),20	
21,(0, 7),4	25,(2, 18),4	29,(0, 9),4	33,(3, 17),4	45,(5, 36),4	53,(2, 109),8	69,(10, 39),4	79,(3, 20),24	135,(12, 99),4	139,(12, 117),4	153,(1, 39),20	173,(5, 99),44	22001,(10, 104),20	24733,(6, 79),4	24837,(6, 99),60	
13,(0, 5),4	25,(0, 8),4	29,(2, 23),12	41,(10, 23),24	65,(7, 13),12	77,(11, 101),4	93,(10, 47),16	127,(11, 98),44	173,(1, 47),44	217,(12, 23),32	259,(3, 108),4	263,(3, 112),24	287,(12, 47),24	22109,(4, 46),4	22661,(4, 85),8	22685,(4, 112),8	24897,(6, 108),4	
# Outgoing
15,(1, 25),36	51,(1, 28),12	63,(1, 38),12	75,(1, 57),4	79,(1, 60),4	83,(1, 78),8	93,(1, 33),60	153,(1, 39),20	173,(1, 47),44	217,(1, 48),20	21961,(1, 102),16	21977,(50, 121),4	21985,(76, 121),4	22001,(1, 42),84	22653,(59, 121),4	28581,(72, 121),4	28653,(16, 121),4	28729,(54, 121),4	28741,(88, 121),4	28793,(31, 121),4	28797,(74, 121),4	28801,(80, 121),4	28885,(111, 121),4	28893,(115, 121),4	
25,(2, 18),4	29,(2, 23),12	41,(2, 24),8	49,(2, 72),4	53,(2, 109),8	61,(2, 119),8	75,(2, 52),16	91,(2, 78),24	137,(2, 42),84	225,(89, 121),4	237,(2, 107),24	22085,(2, 69),32	28661,(27, 121),4	28673,(106, 121),4	28693,(30, 121),4	28705,(55, 121),4	28753,(25, 121),4	28837,(49, 121),4	28869,(94, 121),4	28873,(97, 121),4	28889,(113, 121),4	
33,(3, 17),4	37,(3, 60),4	41,(3, 77),16	57,(3, 93),4	63,(3, 19),16	79,(3, 20),24	103,(3, 31),64	167,(3, 54),16	183,(3, 62),20	203,(3, 80),40	243,(3, 90),12	255,(3, 103),4	259,(3, 108),4	263,(3, 112),24	21981,(40, 121),4	21989,(68, 121),4	22665,(75, 121),4	22685,(3, 22),48	22733,(3, 69),32	22765,(3, 71),80	22845,(3, 73),92	22937,(3, 87),156	23093,(3, 102),72	28733,(34, 121),4	28761,(48, 121),4	28777,(107, 121),4	28781,(119, 121),4	28825,(33, 121),4	28829,(44, 121),4	28897,(116, 121),4	
47,(11, 34),8	55,(11, 56),4	59,(11, 115),4	77,(11, 101),4	115,(11, 90),12	127,(11, 98),44	171,(11, 58),24	22657,(11, 87),4	28233,(11, 45),108	28565,(84, 121),4	28589,(110, 121),4	28625,(19, 121),4	28665,(43, 121),4	28685,(21, 121),4	28697,(15, 121),4	28709,(53, 121),4	28717,(105, 121),4	28841,(62, 121),4	28857,(28, 121),4	
23345,(6, 22),92	23437,(6, 28),4	23441,(6, 69),1088	24529,(6, 70),4	24533,(6, 73),200	24733,(6, 79),4	24737,(6, 87),20	24757,(6, 94),28	24785,(6, 97),52	24837,(6, 99),60	24897,(6, 108),4	24901,(6, 111),32	24933,(6, 113),20	24953,(6, 115),4	24957,(6, 116),4	24961,(81, 121),4	28677,(78, 121),4	28689,(35, 121),4	28713,(57, 121),4	28745,(60, 121),4	28769,(90, 121),4	28785,(24, 121),4	28809,(95, 121),4	28817,(114, 121),4	28845,(82, 121),4	
127,(12, 15),4	131,(12, 30),4	135,(12, 99),4	139,(12, 117),4	181,(12, 34),4	185,(12, 116),16	217,(12, 23),32	255,(12, 24),32	287,(12, 47),24	28341,(12, 69),20	28361,(12, 87),204	28573,(83, 121),4	28597,(56, 121),4	28617,(38, 121),4	28645,(52, 121),4	28737,(58, 121),4	28749,(63, 121),4	28757,(64, 121),4	28773,(103, 121),4	28821,(32, 121),4	28861,(70, 121),4	

1,(0, 1),4	5,(0, 2),4	9,(0, 3),4	13,(0, 5),4	17,(0, 6),4	21,(0, 7),4	25,(0, 8),4	29,(0, 9),4	33,(0, 11),4	37,(0, 12),4	41,(10, 23),24	65,(10, 24),4	69,(10, 39),4	73,(10, 44),20	93,(10, 47),16	109,(10, 51),28	137,(10, 55),8	145,(10, 57),4	149,(10, 60),72	221,(10, 63),4	225,(10, 64),4	229,(10, 66),652	881,(10, 71),40	921,(10, 73),21036	21957,(10, 92),4	21961,(10, 94),32	21993,(10, 95),4	21997,(10, 102),4	22001,(10, 104),20	22021,(10, 114),56	22077,(4, 32),12	22089,(4, 33),4	22093,(4, 44),16	22109,(4, 46),4	22113,(4, 49),4	22117,(4, 22),532	22649,(4, 45),4	22653,(4, 62),4	22657,(4, 82),4	22661,(4, 85),8	22669,(4, 87),16	22685,(4, 112),8	23437,(96, 121),4	24529,(37, 121),4	24733,(14, 121),4	28577,(86, 121),4	28601,(67, 121),4	28613,(77, 121),4	28633,(93, 121),4	28649,(61, 121),4	28805,(118, 121),4	
65,(7, 13),12	77,(7, 16),16	93,(7, 27),4	97,(7, 94),4	101,(9, 106),4	111,(7, 21),16	127,(9, 35),4	131,(9, 53),12	143,(9, 105),4	153,(7, 44),20	173,(7, 107),8	183,(7, 88),12	195,(7, 97),24	219,(9, 25),12	231,(9, 95),4	235,(9, 113),12	261,(9, 44),4	265,(9, 119),4	275,(9, 31),68	343,(9, 74),4	347,(9, 80),28	375,(9, 118),20	21993,(9, 42),4	24757,(7, 71),80	24837,(9, 69),120	24957,(65, 121),4	24965,(9, 45),3212	28177,(9, 73),56	28585,(18, 121),4	28605,(17, 121),4	28621,(26, 121),4	28637,(120, 121),4	28657,(36, 121),4	28669,(109, 121),4	28681,(20, 121),4	28701,(117, 121),4	28725,(39, 121),4	28813,(104, 121),4	28865,(79, 121),4	28877,(99, 121),4	
41,(5, 32),4	45,(5, 36),4	51,(5, 49),4	55,(5, 60),8	63,(5, 61),8	71,(5, 88),4	75,(8, 30),4	79,(5, 43),20	99,(5, 53),4	103,(5, 62),8	111,(8, 58),60	173,(5, 99),44	221,(5, 45),4	225,(8, 118),16	243,(8, 31),32	22661,(29, 121),4	23165,(5, 51),20	23185,(5, 69),56	23241,(5, 71),24	23265,(5, 102),80	28569,(91, 121),4	28593,(41, 121),4	28609,(100, 121),4	28629,(13, 121),4	28641,(101, 121),4	28721,(98, 121),4	28765,(23, 121),4	28789,(47, 121),4	28833,(46, 121),4	28849,(85, 121),4	28853,(112, 121),4	28881,(108, 121),4	
