4818
# CPU
49,2,6	55,18,6	61,75,6	67,104,6	73,94,6	79,97,6	85,98,6	91,102,6	97,25,6	103,46,6	109,49,6	115,54,6	121,59,6	127,4,6	133,21,6	139,62,6	145,68,6	151,89,6	157,99,6	163,45,6	169,6,6	175,28,6	181,64,6	187,67,6	193,84,6	199,92,6	205,69,6	211,76,6	217,57,6	223,8,6	229,17,6	235,56,6	241,112,6	247,58,6	253,79,6	259,30,6	265,10,6	271,20,6	277,23,6	283,60,6	289,119,6	295,105,6	301,33,6	307,55,6	313,12,6	319,19,6	325,22,6	331,41,6	337,42,6	343,93,6	349,110,6	355,44,6	361,47,6	367,91,6	941,50,6	1793,51,6	1865,74,6	1873,78,6	1901,108,6	1961,109,6	2013,116,6	2037,35,6	2529,52,6	2537,71,6	2613,86,6	2619,95,6	2633,103,6	2769,113,6	3181,77,6	3205,88,6	3241,90,6	3277,101,6	3317,107,6	3413,114,6	3433,117,6	3441,118,6	3447,32,6	3669,43,6	3675,48,6	3705,53,6	3711,81,6	3721,115,6	3727,16,6	3733,29,6	3805,31,6	3881,34,6	3889,40,6	3917,61,6	3929,70,6	3937,83,6	3993,85,6	4129,96,6	4153,100,6	4201,120,6	4285,36,6	4291,37,6	4341,38,6	4373,39,6	4389,63,6	4449,65,6	4455,66,6	4461,72,6	4545,73,6	4653,80,6	4669,82,6	4777,87,6	4785,106,6	4793,111,6	4817,121,1	
0,0,1	1,5,6	7,3,6	13,11,6	19,1,6	25,7,6	31,9,6	37,14,6	43,27,6	49,15,6	55,13,6	261,24,6	331,26,6	
# Incoming
1,(0, 2),48	49,(0, 4),48	97,(0, 6),48	145,(0, 8),48	193,(0, 10),48	241,(0, 12),48	289,(5, 19),4	293,(5, 22),4	297,(5, 48),476	773,(5, 50),168	941,(5, 51),852	1793,(5, 65),32	1825,(5, 74),40	1865,(5, 77),4	1869,(5, 78),4	1873,(5, 108),28	1901,(5, 109),60	1961,(5, 116),52	2013,(3, 35),24	2037,(3, 37),8	2045,(3, 52),484	2529,(3, 71),8	2537,(3, 82),12	2549,(3, 86),64	2613,(3, 95),4	2617,(3, 103),16	2633,(3, 113),136	2769,(11, 70),268	3037,(11, 77),144	3181,(11, 83),4	3185,(11, 88),20	3205,(11, 90),36	3241,(11, 101),36	3277,(11, 107),40	3317,(11, 114),96	3413,(11, 117),20	3433,(11, 118),8	3441,(1, 32),4	3445,(1, 43),224	3669,(1, 48),4	3673,(1, 53),32	3705,(1, 81),4	3709,(1, 115),12	3721,(7, 16),4	3725,(7, 29),4	3729,(7, 31),76	3805,(7, 34),76	3881,(7, 40),8	3889,(7, 61),28	3917,(7, 70),12	3929,(7, 83),8	3937,(7, 85),56	3993,(7, 96),136	4129,(7, 100),24	4153,(7, 106),4	4157,(7, 120),44	4201,(9, 36),84	4285,(9, 37),4	4289,(9, 38),52	4341,(9, 39),32	4373,(9, 63),16	4389,(9, 65),60	4449,(9, 66),4	4453,(9, 72),4	4457,(9, 73),88	4545,(9, 80),108	4653,(9, 82),16	4669,(9, 87),108	4777,(9, 106),8	4785,(9, 111),8	4793,(14, 121),4	4797,(27, 121),4	4801,(15, 121),4	4805,(13, 121),4	4809,(24, 121),4	4813,(26, 121),4	
133,(4, 26),8	229,(8, 24),32	271,(10, 26),60	
# Outgoing
133,(4, 26),8	229,(8, 24),32	271,(10, 26),60	
1,(0, 2),48	49,(0, 4),48	97,(0, 6),48	145,(0, 8),48	193,(0, 10),48	241,(0, 12),48	289,(5, 19),4	293,(5, 22),4	297,(5, 48),476	773,(5, 50),168	941,(5, 51),852	1793,(5, 65),32	1825,(5, 74),40	1865,(5, 77),4	1869,(5, 78),4	1873,(5, 108),28	1901,(5, 109),60	1961,(5, 116),52	2013,(3, 35),24	2037,(3, 37),8	2045,(3, 52),484	2529,(3, 71),8	2537,(3, 82),12	2549,(3, 86),64	2613,(3, 95),4	2617,(3, 103),16	2633,(3, 113),136	2769,(11, 70),268	3037,(11, 77),144	3181,(11, 83),4	3185,(11, 88),20	3205,(11, 90),36	3241,(11, 101),36	3277,(11, 107),40	3317,(11, 114),96	3413,(11, 117),20	3433,(11, 118),8	3441,(1, 32),4	3445,(1, 43),224	3669,(1, 48),4	3673,(1, 53),32	3705,(1, 81),4	3709,(1, 115),12	3721,(7, 16),4	3725,(7, 29),4	3729,(7, 31),76	3805,(7, 34),76	3881,(7, 40),8	3889,(7, 61),28	3917,(7, 70),12	3929,(7, 83),8	3937,(7, 85),56	3993,(7, 96),136	4129,(7, 100),24	4153,(7, 106),4	4157,(7, 120),44	4201,(9, 36),84	4285,(9, 37),4	4289,(9, 38),52	4341,(9, 39),32	4373,(9, 63),16	4389,(9, 65),60	4449,(9, 66),4	4453,(9, 72),4	4457,(9, 73),88	4545,(9, 80),108	4653,(9, 82),16	4669,(9, 87),108	4777,(9, 106),8	4785,(9, 111),8	4793,(14, 121),4	4797,(27, 121),4	4801,(15, 121),4	4805,(13, 121),4	4809,(24, 121),4	4813,(26, 121),4	
