5000
# CPU
153,3,1	154,198,1	185,93,1	305,6,1	457,9,1	458,195,1	609,12,1	761,15,1	762,51,1	913,18,1	914,111,1	1213,150,1	1909,36,1	2041,105,1	2049,186,1	2401,42,1	2403,60,1	2409,75,1	2419,156,1	2469,138,1	2481,21,1	2485,30,1	2767,81,1	2771,96,1	2781,102,1	2797,162,1	2905,183,1	2911,168,1	2925,57,1	2965,159,1	2967,87,1	3041,132,1	3085,63,1	3111,153,1	3169,27,1	3223,69,1	3293,48,1	3315,54,1	3337,141,1	3355,123,1	3397,24,1	3413,33,1	3471,78,1	3477,90,1	3515,108,1	3537,117,1	3555,120,1	3601,126,1	3681,177,1	3689,192,1	3721,39,1	3723,45,1	3749,72,1	3753,84,1	3773,99,1	3785,135,1	3787,147,1	3855,171,1	3857,174,1	3871,189,1	4029,180,1	4127,114,1	4267,165,1	4405,66,1	4481,129,1	4565,144,1	
77,2,1	229,5,1	230,167,1	381,8,1	382,50,1	533,11,1	534,65,1	551,155,1	685,14,1	686,38,1	837,17,1	909,95,1	989,20,1	990,158,1	991,89,1	992,149,1	1301,86,1	1323,41,1	1359,134,1	1361,140,1	1395,71,1	1435,77,1	1453,137,1	1485,119,1	1487,122,1	1705,29,1	1959,53,1	2025,62,1	2067,110,1	2173,188,1	2343,128,1	2361,68,1	2379,197,1	2607,170,1	2773,113,1	2777,125,1	2913,47,1	2965,74,1	3087,101,1	3093,146,1	3109,152,1	3115,179,1	3123,185,1	3183,194,1	3215,116,1	3295,80,1	3311,92,1	3317,104,1	3337,107,1	3361,143,1	3381,173,1	3383,200,1	3409,26,1	3415,35,1	3457,44,1	3467,56,1	3523,83,1	3543,182,1	3605,131,1	3621,161,1	3671,176,1	3699,23,1	3731,59,1	3755,98,1	3795,164,1	4481,32,1	4789,191,1	
0,0,1	1,19,1	2,1,1	3,13,1	4,16,1	5,7,1	6,10,1	7,4,1	8,31,1	9,130,1	10,127,1	148,193,1	245,52,1	251,73,1	365,94,1	519,25,1	659,133,1	667,142,1	751,157,1	1179,178,1	1191,88,1	1193,115,1	1211,139,1	1249,163,1	1251,100,1	1255,172,1	1261,184,1	1387,49,1	1391,55,1	1395,61,1	1523,64,1	1543,85,1	1551,124,1	1553,145,1	1571,148,1	1591,151,1	1707,181,1	1733,37,1	1737,121,1	1745,166,1	1747,70,1	1773,112,1	1797,187,1	1803,22,1	1807,106,1	2237,34,1	2245,196,1	2323,43,1	2337,103,1	2383,175,1	2407,79,1	2427,97,1	2451,28,1	2469,109,1	2497,76,1	2533,91,1	2557,118,1	2599,40,1	2617,46,1	2625,67,1	2643,154,1	2655,160,1	2867,58,1	2895,190,1	2933,82,1	2957,136,1	2971,169,1	2981,199,1	4999,201,1	
# Incoming
77,(0, 3),76	153,(2, 42),2	155,(2, 87),16	171,(2, 93),14	185,(2, 141),10	195,(2, 168),20	215,(2, 180),2	229,(0, 6),76	305,(2, 189),72	377,(5, 63),4	381,(0, 9),76	457,(5, 21),8	465,(5, 42),14	479,(5, 96),2	533,(0, 12),76	657,(5, 126),24	681,(5, 135),2	685,(0, 15),76	837,(0, 18),76	913,(5, 132),118	1031,(8, 33),30	1061,(8, 36),2	1063,(8, 39),2	1099,(8, 84),6	1105,(8, 99),2	1157,(8, 108),4	1161,(8, 129),48	1209,(8, 150),4	1249,(8, 171),2	1273,(11, 21),2	1293,(19, 39),10	1339,(19, 66),22	1383,(11, 45),2	1395,(19, 75),14	1409,(19, 84),2	1411,(19, 87),2	1413,(19, 102),50	1471,(19, 117),2	1487,(19, 144),2	1491,(19, 156),268	1759,(11, 54),42	1801,(11, 72),4	1805,(11, 105),2	1817,(19, 177),6	1823,(19, 183),76	1899,(1, 36),10	1909,(1, 39),32	1973,(1, 72),4	2013,(1, 87),20	2035,(1, 102),2	2039,(1, 105),2	2045,(11, 159),2	2047,(11, 186),2	2067,(1, 123),258	2325,(14, 129),2	2327,(14, 156),8	2335,(14, 159),2	2343,(1, 132),56	2399,(17, 42),2	2401,(17, 60),2	2403,(17, 75),6	2409,(17, 84),6	2415,(17, 108),2	2417,(1, 156),2	2427,(20, 33),2	2429,(1, 171),2	2431,(11, 138),38	2469,(17, 99),4	2479,(13, 21),2	2481,(13, 24),2	2483,(13, 30),2	2485,(14, 117),20	2515,(13, 63),250	2765,(13, 81),2	2767,(13, 84),2	2769,(13, 96),2	2771,(17, 120),8	2779,(20, 102),2	2781,(13, 162),16	2797,(13, 165),44	2841,(13, 180),62	2903,(13, 183),2	2905,(16, 39),4	2909,(20, 168),2	2913,(16, 48),8	2923,(16, 57),2	2925,(16, 66),32	2957,(17, 159),8	2965,(16, 87),2	2967,(11, 132),74	3041,(11, 174),36	3077,(20, 63),8	3087,(16, 123),2	3089,(20, 27),12	3101,(20, 108),8	3109,(16, 153),2	3111,(14, 27),58	3187,(7, 39),8	3195,(7, 69),28	3223,(14, 48),70	3293,(17, 54),22	3315,(17, 141),22	3337,(7, 117),8	3345,(7, 123),10	3383,(10, 24),14	3409,(10, 33),4	3467,(10, 78),4	3471,(10, 90),6	3477,(10, 108),38	3515,(10, 114),14	3529,(10, 117),8	3537,(10, 120),18	3555,(10, 126),46	3605,(10, 144),14	3621,(10, 165),2	3623,(10, 171),36	3671,(10, 177),10	3681,(10, 192),8	3715,(4, 39),6	3721,(4, 45),2	3731,(4, 72),18	3749,(4, 84),4	3755,(4, 99),18	3773,(4, 135),12	3785,(4, 147),2	3795,(4, 165),30	3825,(4, 171),30	3855,(4, 174),2	3857,(4, 189),14	3871,(11, 180),158	4029,(17, 114),98	4127,(17, 165),140	4267,(20, 66),138	4405,(20, 129),76	4481,(20, 144),84	
1,(0, 2),76	153,(0, 5),76	229,(3, 35),2	235,(3, 44),12	247,(3, 47),2	251,(3, 74),10	261,(3, 83),8	305,(0, 8),76	381,(3, 104),2	457,(0, 11),76	533,(3, 143),16	549,(3, 155),2	551,(3, 176),12	563,(6, 38),2	565,(6, 41),16	581,(6, 47),10	591,(6, 101),6	597,(6, 146),6	603,(6, 158),2	605,(9, 113),2	607,(9, 173),2	609,(0, 14),76	685,(6, 137),38	723,(9, 26),12	735,(9, 74),6	741,(9, 140),6	747,(12, 23),2	749,(12, 92),8	757,(12, 179),2	761,(0, 17),76	837,(6, 164),64	901,(12, 95),8	909,(15, 29),2	911,(15, 170),2	913,(0, 20),76	989,(19, 29),304	1293,(12, 134),6	1299,(18, 86),2	1301,(18, 107),2	1303,(19, 41),20	1323,(19, 62),16	1339,(9, 200),18	1357,(18, 134),2	1359,(18, 140),2	1361,(19, 71),34	1395,(9, 77),40	1435,(12, 119),12	1447,(12, 137),6	1453,(15, 74),6	1459,(18, 173),2	1461,(18, 191),2	1463,(19, 104),8	1473,(19, 119),12	1485,(19, 122),2	1489,(19, 146),2	1491,(6, 143),128	1619,(9, 29),86	1705,(12, 32),42	1759,(19, 176),58	1817,(9, 128),102	1919,(12, 176),12	1931,(18, 176),6	1941,(1, 53),18	1959,(1, 59),14	1977,(1, 74),36	2013,(15, 62),12	2025,(18, 200),8	2033,(1, 101),2	2037,(1, 104),2	2041,(1, 107),14	2055,(1, 110),12	2067,(9, 188),106	2173,(12, 56),72	2325,(1, 128),18	2343,(15, 68),18	2361,(15, 197),18	2399,(1, 146),2	2401,(1, 152),16	2419,(1, 161),2	2421,(1, 164),8	2431,(1, 194),4	2435,(1, 200),44	2485,(13, 56),30	2515,(12, 170),92	2607,(15, 116),32	2639,(15, 143),34	2771,(13, 113),2	2773,(13, 125),4	2777,(13, 131),4	2867,(18, 80),42	2909,(16, 44),2	2911,(16, 47),2	2921,(16, 56),2	2957,(16, 74),8	2967,(16, 98),4	2971,(16, 101),116	3089,(16, 143),2	3091,(16, 146),2	3093,(16, 152),16	3111,(16, 179),4	3115,(16, 185),8	3123,(16, 191),10	3133,(16, 194),50	3183,(7, 23),2	3185,(7, 35),2	3187,(18, 116),28	3223,(7, 80),72	3295,(7, 92),16	3311,(7, 104),6	3317,(7, 107),20	3355,(7, 143),6	3361,(7, 164),12	3373,(7, 173),8	3381,(7, 200),2	3397,(10, 26),12	3413,(10, 35),2	3415,(10, 44),42	3457,(10, 56),10	3467,(18, 83),56	3523,(18, 182),20	3601,(10, 131),4	3619,(10, 161),2	3659,(10, 176),12	3689,(4, 23),10	3699,(4, 32),16	3723,(4, 59),8	3753,(4, 98),2	3787,(4, 164),8	3795,(6, 32),686	4481,(9, 191),308	
78,(2, 34),4	82,(2, 73),26	108,(2, 88),2	110,(2, 91),14	124,(2, 145),16	140,(2, 178),2	142,(2, 193),6	231,(3, 40),4	235,(5, 52),10	245,(5, 85),2	247,(5, 100),2	249,(3, 73),2	251,(5, 49),18	269,(3, 85),76	345,(3, 88),8	353,(3, 94),12	365,(3, 148),2	367,(3, 166),10	377,(6, 28),2	379,(6, 118),2	383,(3, 142),78	461,(198, 201),10	471,(93, 201),10	481,(5, 25),38	519,(5, 76),6	525,(5, 79),6	531,(5, 103),72	603,(5, 112),54	657,(6, 133),2	659,(6, 142),8	667,(9, 70),10	677,(9, 154),6	683,(5, 145),54	737,(5, 157),14	751,(5, 166),118	869,(5, 181),20	889,(5, 184),4	893,(167, 201),10	903,(8, 37),6	909,(8, 55),2	911,(8, 175),2	913,(9, 22),138	1051,(9, 91),8	1059,(9, 172),2	1061,(12, 61),4	1065,(8, 40),34	1099,(9, 97),8	1107,(8, 103),50	1157,(9, 124),16	1173,(9, 178),6	1179,(195, 201),10	1189,(12, 88),2	1191,(12, 115),2	1193,(12, 121),12	1205,(12, 139),6	1211,(15, 40),2	1213,(8, 151),28	1241,(8, 163),8	1249,(15, 100),2	1251,(8, 172),4	1255,(8, 184),6	1261,(8, 196),2	1263,(50, 201),10	1273,(15, 160),2	1275,(11, 22),8	1283,(11, 34),84	1367,(11, 40),16	1385,(11, 49),2	1387,(11, 55),4	1391,(11, 61),4	1395,(11, 64),128	1523,(11, 67),2	1525,(11, 82),16	1541,(11, 85),2	1543,(11, 124),8	1551,(11, 145),2	1553,(11, 148),18	1571,(11, 151),20	1591,(11, 160),60	1651,(11, 181),56	1707,(65, 201),10	1717,(155, 201),10	1727,(14, 37),6	1733,(14, 43),2	1735,(14, 121),2	1737,(14, 166),8	1745,(17, 70),2	1747,(12, 112),26	1773,(12, 187),24	1797,(15, 22),6	1803,(15, 106),4	1807,(11, 109),238	2049,(14, 28),40	2089,(14, 118),34	2123,(14, 160),96	2219,(38, 201),10	2229,(17, 34),8	2237,(17, 136),2	2239,(20, 82),2	2241,(20, 103),2	2243,(20, 196),2	2245,(12, 199),66	2311,(15, 43),12	2323,(15, 103),14	2337,(14, 175),46	2383,(15, 79),24	2407,(51, 201),10	2417,(17, 97),10	2427,(18, 28),24	2451,(18, 46),10	2461,(18, 109),8	2473,(95, 201),10	2483,(18, 76),14	2505,(17, 91),28	2533,(17, 118),24	2557,(17, 190),32	2589,(20, 40),10	2599,(20, 46),18	2617,(20, 67),8	2625,(20, 154),18	2643,(20, 160),12	2655,(158, 201),10	2673,(18, 58),194	2867,(20, 190),28	2895,(89, 201),10	2909,(18, 82),24	2933,(18, 136),24	2957,(18, 169),14	2971,(18, 199),10	2981,(111, 201),10	2991,(150, 201),10	3001,(36, 201),10	3011,(105, 201),10	3021,(186, 201),10	3031,(42, 201),10	3041,(60, 201),10	3051,(75, 201),10	3061,(156, 201),10	3071,(138, 201),10	3081,(21, 201),10	3091,(30, 201),10	3101,(81, 201),10	3111,(96, 201),10	3121,(102, 201),10	3131,(162, 201),10	3141,(183, 201),10	3151,(168, 201),10	3169,(149, 201),10	3179,(86, 201),10	3189,(41, 201),10	3199,(134, 201),10	3209,(140, 201),10	3219,(57, 201),10	3229,(159, 201),10	3239,(87, 201),10	3249,(132, 201),10	3259,(63, 201),10	3269,(153, 201),10	3279,(27, 201),10	3289,(69, 201),10	3299,(48, 201),10	3316,(54, 201),10	3337,(71, 201),10	3347,(77, 201),10	3357,(137, 201),10	3367,(119, 201),10	3377,(122, 201),10	3387,(29, 201),10	3397,(53, 201),10	3407,(62, 201),10	3417,(110, 201),10	3427,(188, 201),10	3437,(128, 201),10	3447,(68, 201),10	3457,(197, 201),10	3467,(170, 201),10	3477,(113, 201),10	3487,(125, 201),10	3497,(47, 201),10	3507,(74, 201),10	3517,(101, 201),10	3527,(146, 201),10	3537,(152, 201),10	3547,(179, 201),10	3557,(185, 201),10	3567,(194, 201),10	3577,(116, 201),10	3587,(80, 201),10	3597,(92, 201),10	3607,(104, 201),10	3617,(141, 201),10	3627,(107, 201),10	3637,(123, 201),10	3647,(143, 201),10	3657,(173, 201),10	3667,(200, 201),10	3677,(24, 201),10	3687,(26, 201),10	3697,(33, 201),10	3707,(35, 201),10	3717,(44, 201),10	3727,(56, 201),10	3737,(78, 201),10	3747,(90, 201),10	3757,(108, 201),10	3767,(83, 201),10	3777,(117, 201),10	3787,(182, 201),10	3797,(131, 201),10	3807,(161, 201),10	3817,(176, 201),10	3827,(23, 201),10	3837,(59, 201),10	3847,(98, 201),10	3857,(164, 201),10	4565,(32, 201),10	4789,(120, 201),10	4799,(126, 201),10	4809,(177, 201),10	4819,(192, 201),10	4829,(39, 201),10	4839,(45, 201),10	4849,(72, 201),10	4859,(84, 201),10	4869,(99, 201),10	4879,(135, 201),10	4889,(147, 201),10	4899,(171, 201),10	4909,(174, 201),10	4919,(189, 201),10	4929,(180, 201),10	4939,(114, 201),10	4949,(165, 201),10	4959,(66, 201),10	4969,(129, 201),10	4979,(144, 201),10	4989,(191, 201),10	
# Outgoing
229,(3, 35),2	231,(3, 40),4	235,(3, 44),12	247,(3, 47),2	249,(3, 73),2	251,(3, 74),10	261,(3, 83),8	269,(3, 85),76	345,(3, 88),8	353,(3, 94),12	365,(3, 148),2	367,(3, 166),10	377,(6, 28),2	379,(6, 118),2	381,(3, 104),2	383,(3, 142),78	461,(198, 201),10	471,(93, 201),10	533,(3, 143),16	549,(3, 155),2	551,(3, 176),12	563,(6, 38),2	565,(6, 41),16	581,(6, 47),10	591,(6, 101),6	597,(6, 146),6	603,(6, 158),2	605,(9, 113),2	607,(9, 173),2	657,(6, 133),2	659,(6, 142),8	667,(9, 70),10	677,(9, 154),6	685,(6, 137),38	723,(9, 26),12	735,(9, 74),6	741,(9, 140),6	747,(12, 23),2	749,(12, 92),8	757,(12, 179),2	837,(6, 164),64	901,(12, 95),8	909,(15, 29),2	911,(15, 170),2	913,(9, 22),138	1051,(9, 91),8	1059,(9, 172),2	1061,(12, 61),4	1099,(9, 97),8	1157,(9, 124),16	1173,(9, 178),6	1179,(195, 201),10	1189,(12, 88),2	1191,(12, 115),2	1193,(12, 121),12	1205,(12, 139),6	1211,(15, 40),2	1249,(15, 100),2	1273,(15, 160),2	1293,(12, 134),6	1299,(18, 86),2	1301,(18, 107),2	1339,(9, 200),18	1357,(18, 134),2	1359,(18, 140),2	1395,(9, 77),40	1435,(12, 119),12	1447,(12, 137),6	1453,(15, 74),6	1459,(18, 173),2	1461,(18, 191),2	1491,(6, 143),128	1619,(9, 29),86	1705,(12, 32),42	1747,(12, 112),26	1773,(12, 187),24	1797,(15, 22),6	1803,(15, 106),4	1817,(9, 128),102	1919,(12, 176),12	1931,(18, 176),6	2013,(15, 62),12	2025,(18, 200),8	2067,(9, 188),106	2173,(12, 56),72	2245,(12, 199),66	2311,(15, 43),12	2323,(15, 103),14	2343,(15, 68),18	2361,(15, 197),18	2383,(15, 79),24	2407,(51, 201),10	2427,(18, 28),24	2451,(18, 46),10	2461,(18, 109),8	2483,(18, 76),14	2515,(12, 170),92	2607,(15, 116),32	2639,(15, 143),34	2673,(18, 58),194	2867,(18, 80),42	2909,(18, 82),24	2933,(18, 136),24	2957,(18, 169),14	2971,(18, 199),10	2981,(111, 201),10	2991,(150, 201),10	3001,(36, 201),10	3011,(105, 201),10	3021,(186, 201),10	3031,(42, 201),10	3041,(60, 201),10	3051,(75, 201),10	3061,(156, 201),10	3071,(138, 201),10	3081,(21, 201),10	3091,(30, 201),10	3101,(81, 201),10	3111,(96, 201),10	3121,(102, 201),10	3131,(162, 201),10	3141,(183, 201),10	3151,(168, 201),10	3187,(18, 116),28	3219,(57, 201),10	3229,(159, 201),10	3239,(87, 201),10	3249,(132, 201),10	3259,(63, 201),10	3269,(153, 201),10	3279,(27, 201),10	3289,(69, 201),10	3299,(48, 201),10	3316,(54, 201),10	3467,(18, 83),56	3523,(18, 182),20	3617,(141, 201),10	3637,(123, 201),10	3677,(24, 201),10	3697,(33, 201),10	3737,(78, 201),10	3747,(90, 201),10	3757,(108, 201),10	3777,(117, 201),10	3795,(6, 32),686	4481,(9, 191),308	4789,(120, 201),10	4799,(126, 201),10	4809,(177, 201),10	4819,(192, 201),10	4829,(39, 201),10	4839,(45, 201),10	4849,(72, 201),10	4859,(84, 201),10	4869,(99, 201),10	4879,(135, 201),10	4889,(147, 201),10	4899,(171, 201),10	4909,(174, 201),10	4919,(189, 201),10	4929,(180, 201),10	4939,(114, 201),10	4949,(165, 201),10	4959,(66, 201),10	4969,(129, 201),10	4979,(144, 201),10	
78,(2, 34),4	82,(2, 73),26	108,(2, 88),2	110,(2, 91),14	124,(2, 145),16	140,(2, 178),2	142,(2, 193),6	153,(2, 42),2	155,(2, 87),16	171,(2, 93),14	185,(2, 141),10	195,(2, 168),20	215,(2, 180),2	235,(5, 52),10	245,(5, 85),2	247,(5, 100),2	251,(5, 49),18	305,(2, 189),72	377,(5, 63),4	457,(5, 21),8	465,(5, 42),14	479,(5, 96),2	481,(5, 25),38	519,(5, 76),6	525,(5, 79),6	531,(5, 103),72	603,(5, 112),54	657,(5, 126),24	681,(5, 135),2	683,(5, 145),54	737,(5, 157),14	751,(5, 166),118	869,(5, 181),20	889,(5, 184),4	893,(167, 201),10	903,(8, 37),6	909,(8, 55),2	911,(8, 175),2	913,(5, 132),118	1031,(8, 33),30	1061,(8, 36),2	1063,(8, 39),2	1065,(8, 40),34	1099,(8, 84),6	1105,(8, 99),2	1107,(8, 103),50	1157,(8, 108),4	1161,(8, 129),48	1209,(8, 150),4	1213,(8, 151),28	1241,(8, 163),8	1249,(8, 171),2	1251,(8, 172),4	1255,(8, 184),6	1261,(8, 196),2	1263,(50, 201),10	1273,(11, 21),2	1275,(11, 22),8	1283,(11, 34),84	1367,(11, 40),16	1383,(11, 45),2	1385,(11, 49),2	1387,(11, 55),4	1391,(11, 61),4	1395,(11, 64),128	1523,(11, 67),2	1525,(11, 82),16	1541,(11, 85),2	1543,(11, 124),8	1551,(11, 145),2	1553,(11, 148),18	1571,(11, 151),20	1591,(11, 160),60	1651,(11, 181),56	1707,(65, 201),10	1717,(155, 201),10	1727,(14, 37),6	1733,(14, 43),2	1735,(14, 121),2	1737,(14, 166),8	1745,(17, 70),2	1759,(11, 54),42	1801,(11, 72),4	1805,(11, 105),2	1807,(11, 109),238	2045,(11, 159),2	2047,(11, 186),2	2049,(14, 28),40	2089,(14, 118),34	2123,(14, 160),96	2219,(38, 201),10	2229,(17, 34),8	2237,(17, 136),2	2239,(20, 82),2	2241,(20, 103),2	2243,(20, 196),2	2325,(14, 129),2	2327,(14, 156),8	2335,(14, 159),2	2337,(14, 175),46	2399,(17, 42),2	2401,(17, 60),2	2403,(17, 75),6	2409,(17, 84),6	2415,(17, 108),2	2417,(17, 97),10	2427,(20, 33),2	2431,(11, 138),38	2469,(17, 99),4	2473,(95, 201),10	2485,(14, 117),20	2505,(17, 91),28	2533,(17, 118),24	2557,(17, 190),32	2589,(20, 40),10	2599,(20, 46),18	2617,(20, 67),8	2625,(20, 154),18	2643,(20, 160),12	2655,(158, 201),10	2771,(17, 120),8	2779,(20, 102),2	2867,(20, 190),28	2895,(89, 201),10	2909,(20, 168),2	2957,(17, 159),8	2967,(11, 132),74	3041,(11, 174),36	3077,(20, 63),8	3089,(20, 27),12	3101,(20, 108),8	3111,(14, 27),58	3169,(149, 201),10	3179,(86, 201),10	3189,(41, 201),10	3199,(134, 201),10	3209,(140, 201),10	3223,(14, 48),70	3293,(17, 54),22	3315,(17, 141),22	3337,(71, 201),10	3347,(77, 201),10	3357,(137, 201),10	3367,(119, 201),10	3377,(122, 201),10	3387,(29, 201),10	3397,(53, 201),10	3407,(62, 201),10	3417,(110, 201),10	3427,(188, 201),10	3437,(128, 201),10	3447,(68, 201),10	3457,(197, 201),10	3467,(170, 201),10	3477,(113, 201),10	3487,(125, 201),10	3497,(47, 201),10	3507,(74, 201),10	3517,(101, 201),10	3527,(146, 201),10	3537,(152, 201),10	3547,(179, 201),10	3557,(185, 201),10	3567,(194, 201),10	3577,(116, 201),10	3587,(80, 201),10	3597,(92, 201),10	3607,(104, 201),10	3627,(107, 201),10	3647,(143, 201),10	3657,(173, 201),10	3667,(200, 201),10	3687,(26, 201),10	3707,(35, 201),10	3717,(44, 201),10	3727,(56, 201),10	3767,(83, 201),10	3787,(182, 201),10	3797,(131, 201),10	3807,(161, 201),10	3817,(176, 201),10	3827,(23, 201),10	3837,(59, 201),10	3847,(98, 201),10	3857,(164, 201),10	3871,(11, 180),158	4029,(17, 114),98	4127,(17, 165),140	4267,(20, 66),138	4405,(20, 129),76	4481,(20, 144),84	4565,(32, 201),10	4989,(191, 201),10	
1,(0, 2),76	77,(0, 3),76	153,(0, 5),76	229,(0, 6),76	305,(0, 8),76	381,(0, 9),76	457,(0, 11),76	533,(0, 12),76	609,(0, 14),76	685,(0, 15),76	761,(0, 17),76	837,(0, 18),76	913,(0, 20),76	989,(19, 29),304	1293,(19, 39),10	1303,(19, 41),20	1323,(19, 62),16	1339,(19, 66),22	1361,(19, 71),34	1395,(19, 75),14	1409,(19, 84),2	1411,(19, 87),2	1413,(19, 102),50	1463,(19, 104),8	1471,(19, 117),2	1473,(19, 119),12	1485,(19, 122),2	1487,(19, 144),2	1489,(19, 146),2	1491,(19, 156),268	1759,(19, 176),58	1817,(19, 177),6	1823,(19, 183),76	1899,(1, 36),10	1909,(1, 39),32	1941,(1, 53),18	1959,(1, 59),14	1973,(1, 72),4	1977,(1, 74),36	2013,(1, 87),20	2033,(1, 101),2	2035,(1, 102),2	2037,(1, 104),2	2039,(1, 105),2	2041,(1, 107),14	2055,(1, 110),12	2067,(1, 123),258	2325,(1, 128),18	2343,(1, 132),56	2399,(1, 146),2	2401,(1, 152),16	2417,(1, 156),2	2419,(1, 161),2	2421,(1, 164),8	2429,(1, 171),2	2431,(1, 194),4	2435,(1, 200),44	2479,(13, 21),2	2481,(13, 24),2	2483,(13, 30),2	2485,(13, 56),30	2515,(13, 63),250	2765,(13, 81),2	2767,(13, 84),2	2769,(13, 96),2	2771,(13, 113),2	2773,(13, 125),4	2777,(13, 131),4	2781,(13, 162),16	2797,(13, 165),44	2841,(13, 180),62	2903,(13, 183),2	2905,(16, 39),4	2909,(16, 44),2	2911,(16, 47),2	2913,(16, 48),8	2921,(16, 56),2	2923,(16, 57),2	2925,(16, 66),32	2957,(16, 74),8	2965,(16, 87),2	2967,(16, 98),4	2971,(16, 101),116	3087,(16, 123),2	3089,(16, 143),2	3091,(16, 146),2	3093,(16, 152),16	3109,(16, 153),2	3111,(16, 179),4	3115,(16, 185),8	3123,(16, 191),10	3133,(16, 194),50	3183,(7, 23),2	3185,(7, 35),2	3187,(7, 39),8	3195,(7, 69),28	3223,(7, 80),72	3295,(7, 92),16	3311,(7, 104),6	3317,(7, 107),20	3337,(7, 117),8	3345,(7, 123),10	3355,(7, 143),6	3361,(7, 164),12	3373,(7, 173),8	3381,(7, 200),2	3383,(10, 24),14	3397,(10, 26),12	3409,(10, 33),4	3413,(10, 35),2	3415,(10, 44),42	3457,(10, 56),10	3467,(10, 78),4	3471,(10, 90),6	3477,(10, 108),38	3515,(10, 114),14	3529,(10, 117),8	3537,(10, 120),18	3555,(10, 126),46	3601,(10, 131),4	3605,(10, 144),14	3619,(10, 161),2	3621,(10, 165),2	3623,(10, 171),36	3659,(10, 176),12	3671,(10, 177),10	3681,(10, 192),8	3689,(4, 23),10	3699,(4, 32),16	3715,(4, 39),6	3721,(4, 45),2	3723,(4, 59),8	3731,(4, 72),18	3749,(4, 84),4	3753,(4, 98),2	3755,(4, 99),18	3773,(4, 135),12	3785,(4, 147),2	3787,(4, 164),8	3795,(4, 165),30	3825,(4, 171),30	3855,(4, 174),2	3857,(4, 189),14	
