602
# CPU
0,0,1	1,3,48	49,9,48	97,12,48	145,16,48	193,18,48	241,22,48	364,29,48	553,25,48	601,41,1	
7,2,48	55,39,48	103,24,48	151,5,48	199,21,48	247,13,48	
10,1,48	58,26,48	106,23,48	154,30,48	202,37,48	250,34,48	298,10,48	346,15,48	
52,33,48	
58,6,48	115,20,48	
55,36,48	
70,14,48	118,35,48	166,11,48	214,17,48	
64,7,48	
85,40,48	133,19,48	
4,4,48	52,8,48	100,31,48	148,27,48	196,38,48	244,28,48	292,32,48	
# Incoming
100,(8, 41),12	112,(33, 41),12	124,(39, 41),12	136,(36, 41),12	148,(26, 41),12	160,(6, 41),12	172,(7, 41),12	184,(14, 41),12	196,(40, 41),12	208,(31, 41),12	220,(24, 41),12	232,(23, 41),12	244,(20, 41),12	256,(35, 41),12	268,(19, 41),12	280,(27, 41),12	292,(5, 41),12	304,(30, 41),12	316,(11, 41),12	328,(4, 29),36	364,(38, 41),12	376,(21, 41),12	388,(37, 41),12	400,(17, 41),12	412,(28, 41),12	424,(13, 41),12	436,(34, 41),12	448,(4, 25),105	553,(32, 41),12	565,(10, 41),12	577,(15, 41),12	
4,(0, 2),3	
7,(0, 1),3	
49,(3, 33),3	
55,(3, 6),3	112,(4, 20),3	
52,(3, 36),3	
64,(3, 14),6	115,(4, 35),3	127,(4, 11),18	145,(4, 17),12	157,(2, 17),39	
58,(3, 7),6	
70,(3, 40),15	118,(4, 19),9	
1,(0, 4),3	
# Outgoing
1,(0, 4),3	4,(0, 2),3	7,(0, 1),3	49,(3, 33),3	52,(3, 36),3	55,(3, 6),3	58,(3, 7),6	64,(3, 14),6	70,(3, 40),15	
124,(39, 41),12	157,(2, 17),39	220,(24, 41),12	292,(5, 41),12	376,(21, 41),12	424,(13, 41),12	
148,(26, 41),12	232,(23, 41),12	304,(30, 41),12	388,(37, 41),12	436,(34, 41),12	565,(10, 41),12	577,(15, 41),12	
112,(33, 41),12	
160,(6, 41),12	244,(20, 41),12	
136,(36, 41),12	
184,(14, 41),12	256,(35, 41),12	316,(11, 41),12	400,(17, 41),12	
172,(7, 41),12	
196,(40, 41),12	268,(19, 41),12	
100,(8, 41),12	112,(4, 20),3	115,(4, 35),3	118,(4, 19),9	127,(4, 11),18	145,(4, 17),12	208,(31, 41),12	280,(27, 41),12	328,(4, 29),36	364,(38, 41),12	412,(28, 41),12	448,(4, 25),105	553,(32, 41),12	
