56638
# CPU
1729,4,4	1733,36,4	1833,32,4	1857,84,4	2633,28,4	2637,56,4	2641,80,4	2677,104,4	3457,8,4	3461,20,4	3465,108,4	3469,120,4	3561,72,4	4453,40,4	4533,60,4	4537,64,4	5185,12,4	5189,24,4	5193,48,4	5197,92,4	5217,44,4	5225,68,4	5233,76,4	5261,96,4	5445,116,4	5449,16,4	5589,52,4	5725,112,4	5981,88,4	6013,100,4	
1153,3,4	1157,111,4	1317,75,4	1453,95,4	1865,15,4	1869,19,4	1897,47,4	1905,55,4	2881,7,4	2885,103,4	2889,67,4	2893,27,4	2897,91,4	2913,115,4	3465,43,4	3633,71,4	4609,11,4	4613,31,4	4617,63,4	5189,35,4	5221,51,4	5253,23,4	5405,39,4	5421,59,4	5449,119,4	5653,79,4	5713,83,4	5717,99,4	5721,107,4	5785,87,4	
577,2,4	581,110,4	1197,14,4	1261,86,4	2305,6,4	2309,102,4	2373,46,4	3137,18,4	3257,50,4	3261,62,4	3265,118,4	4033,10,4	4045,26,4	4057,54,4	5205,30,4	5209,78,4	5213,98,4	5257,94,4	5309,22,4	5389,34,4	5537,38,4	5641,70,4	5681,82,4	5729,42,4	5737,58,4	5777,74,4	5781,66,4	5785,114,4	5809,90,4	5821,106,4	
0,0,1	1,1,4	5,5,4	9,9,4	13,37,4	17,109,4	21,93,4	25,117,4	29,41,4	33,77,4	37,85,4	1205,49,4	5773,25,4	5781,53,4	5785,73,4	5817,101,4	10509,57,4	10521,65,4	10545,81,4	10625,97,4	20541,21,4	20585,33,4	24549,13,4	24553,61,4	25241,89,4	25245,113,4	28825,17,4	28873,105,4	30229,29,4	30233,45,4	30237,69,4	56637,121,1	
# Incoming
1153,(0, 4),576	1729,(2, 40),80	1809,(3, 20),20	1829,(3, 32),4	1833,(3, 84),24	1857,(3, 116),4	2469,(6, 16),132	2601,(6, 28),32	2633,(6, 56),4	2637,(6, 80),4	2641,(6, 104),36	2881,(0, 8),576	3457,(7, 64),28	3485,(7, 72),76	4449,(10, 40),4	4453,(10, 60),80	4533,(10, 64),4	4609,(0, 12),576	5189,(1, 44),28	5221,(1, 68),4	5225,(1, 76),8	5257,(1, 96),4	5261,(1, 116),184	5445,(5, 16),4	5537,(5, 52),52	5721,(5, 112),4	5725,(10, 88),256	5981,(11, 100),32	
577,(0, 3),576	1153,(2, 39),8	1205,(2, 67),20	1225,(2, 75),92	1317,(2, 83),60	1377,(2, 95),76	1453,(2, 103),232	1733,(4, 15),132	1865,(4, 19),4	1869,(4, 47),28	1897,(4, 55),8	1905,(4, 67),72	2305,(0, 7),576	2881,(6, 23),28	2909,(6, 115),4	3461,(8, 43),4	3465,(8, 51),4	3469,(8, 71),164	4033,(0, 11),576	5185,(1, 35),4	5217,(1, 51),4	5221,(12, 23),32	5389,(12, 39),16	5405,(12, 59),16	5421,(12, 119),28	5641,(5, 79),12	5681,(5, 83),32	5713,(5, 99),4	5717,(5, 107),4	5777,(9, 87),8	
1,(0, 2),576	1157,(3, 14),40	1197,(3, 86),64	1377,(3, 118),4	1729,(0, 6),576	2305,(4, 38),20	2325,(4, 46),48	2373,(4, 58),4	3129,(7, 18),8	3137,(7, 26),104	3241,(7, 50),16	3257,(7, 62),4	3261,(7, 118),4	3457,(0, 10),576	4033,(8, 26),12	4045,(8, 54),12	4057,(8, 74),4	5189,(12, 30),16	5205,(12, 78),4	5209,(12, 98),4	5233,(1, 94),24	5257,(12, 22),52	5309,(12, 34),80	5449,(5, 38),88	5589,(5, 70),52	5653,(5, 82),28	5725,(9, 42),4	5729,(9, 58),8	5737,(9, 74),40	5777,(11, 66),4	5781,(11, 114),4	5785,(9, 90),24	5809,(9, 106),12	
1161,(2, 49),44	1261,(3, 101),116	1809,(110, 121),660	2469,(111, 121),660	3129,(14, 121),660	3789,(86, 121),660	4449,(75, 121),660	5109,(95, 121),660	5769,(4, 25),4	5773,(4, 53),8	5781,(4, 73),4	5785,(4, 101),32	5817,(36, 121),660	6477,(32, 121),660	7137,(84, 121),660	7797,(15, 121),660	8457,(19, 121),660	9117,(47, 121),660	9777,(55, 121),660	10437,(6, 13),4	10441,(6, 33),64	10505,(6, 57),4	10509,(6, 65),12	10521,(6, 81),24	10545,(6, 97),80	10625,(102, 121),660	11285,(46, 121),660	11945,(28, 121),660	12605,(56, 121),660	13265,(80, 121),660	13925,(104, 121),660	14585,(103, 121),660	15245,(67, 121),660	15905,(27, 121),660	16565,(91, 121),660	17225,(115, 121),660	17885,(18, 121),660	18545,(50, 121),660	19205,(62, 121),660	19865,(118, 121),660	20525,(8, 21),16	20541,(8, 33),44	20585,(20, 121),660	21245,(43, 121),660	21905,(108, 121),660	22565,(120, 121),660	23225,(72, 121),660	23885,(71, 121),660	24545,(10, 13),4	24549,(10, 61),4	24553,(10, 89),688	25241,(10, 113),4	25245,(26, 121),660	25905,(54, 121),660	26565,(40, 121),660	27225,(60, 121),660	27885,(64, 121),660	28545,(11, 17),280	28825,(11, 105),48	28873,(31, 121),660	29533,(63, 121),660	30193,(12, 29),36	30229,(12, 45),4	30233,(12, 69),4	30237,(24, 121),660	30897,(35, 121),660	31557,(48, 121),660	32217,(92, 121),660	32877,(30, 121),660	33537,(78, 121),660	34197,(98, 121),660	34857,(44, 121),660	35517,(51, 121),660	36177,(68, 121),660	36837,(76, 121),660	37497,(23, 121),660	38157,(94, 121),660	38817,(96, 121),660	39477,(22, 121),660	40137,(34, 121),660	40797,(39, 121),660	41457,(59, 121),660	42117,(116, 121),660	42777,(16, 121),660	43437,(119, 121),660	44097,(38, 121),660	44757,(52, 121),660	45417,(70, 121),660	46077,(79, 121),660	46737,(82, 121),660	47397,(83, 121),660	48057,(99, 121),660	48717,(107, 121),660	49377,(112, 121),660	50037,(42, 121),660	50697,(58, 121),660	51357,(74, 121),660	52017,(66, 121),660	52677,(114, 121),660	53337,(87, 121),660	53997,(90, 121),660	54657,(106, 121),660	55317,(88, 121),660	55977,(100, 121),660	
# Outgoing
1733,(4, 15),132	1865,(4, 19),4	1869,(4, 47),28	1897,(4, 55),8	1905,(4, 67),72	2305,(4, 38),20	2325,(4, 46),48	2373,(4, 58),4	3461,(8, 43),4	3465,(8, 51),4	3469,(8, 71),164	4033,(8, 26),12	4045,(8, 54),12	4057,(8, 74),4	5189,(12, 30),16	5205,(12, 78),4	5209,(12, 98),4	5221,(12, 23),32	5257,(12, 22),52	5309,(12, 34),80	5389,(12, 39),16	5405,(12, 59),16	5421,(12, 119),28	5769,(4, 25),4	5773,(4, 53),8	5781,(4, 73),4	5785,(4, 101),32	5817,(36, 121),660	6477,(32, 121),660	7137,(84, 121),660	11945,(28, 121),660	12605,(56, 121),660	13265,(80, 121),660	13925,(104, 121),660	20525,(8, 21),16	20541,(8, 33),44	20585,(20, 121),660	21905,(108, 121),660	22565,(120, 121),660	23225,(72, 121),660	26565,(40, 121),660	27225,(60, 121),660	27885,(64, 121),660	30193,(12, 29),36	30229,(12, 45),4	30233,(12, 69),4	30237,(24, 121),660	31557,(48, 121),660	32217,(92, 121),660	34857,(44, 121),660	36177,(68, 121),660	36837,(76, 121),660	38817,(96, 121),660	42117,(116, 121),660	42777,(16, 121),660	44757,(52, 121),660	49377,(112, 121),660	55317,(88, 121),660	55977,(100, 121),660	
1157,(3, 14),40	1197,(3, 86),64	1261,(3, 101),116	1377,(3, 118),4	1809,(3, 20),20	1829,(3, 32),4	1833,(3, 84),24	1857,(3, 116),4	2469,(111, 121),660	3129,(7, 18),8	3137,(7, 26),104	3241,(7, 50),16	3257,(7, 62),4	3261,(7, 118),4	3457,(7, 64),28	3485,(7, 72),76	4449,(75, 121),660	5109,(95, 121),660	5777,(11, 66),4	5781,(11, 114),4	5981,(11, 100),32	7797,(15, 121),660	8457,(19, 121),660	9117,(47, 121),660	9777,(55, 121),660	14585,(103, 121),660	15245,(67, 121),660	15905,(27, 121),660	16565,(91, 121),660	17225,(115, 121),660	21245,(43, 121),660	23885,(71, 121),660	28545,(11, 17),280	28825,(11, 105),48	28873,(31, 121),660	29533,(63, 121),660	30897,(35, 121),660	35517,(51, 121),660	37497,(23, 121),660	40797,(39, 121),660	41457,(59, 121),660	43437,(119, 121),660	46077,(79, 121),660	47397,(83, 121),660	48057,(99, 121),660	48717,(107, 121),660	53337,(87, 121),660	
1153,(2, 39),8	1161,(2, 49),44	1205,(2, 67),20	1225,(2, 75),92	1317,(2, 83),60	1377,(2, 95),76	1453,(2, 103),232	1729,(2, 40),80	1809,(110, 121),660	2469,(6, 16),132	2601,(6, 28),32	2633,(6, 56),4	2637,(6, 80),4	2641,(6, 104),36	2881,(6, 23),28	2909,(6, 115),4	3129,(14, 121),660	3789,(86, 121),660	4449,(10, 40),4	4453,(10, 60),80	4533,(10, 64),4	5725,(10, 88),256	10437,(6, 13),4	10441,(6, 33),64	10505,(6, 57),4	10509,(6, 65),12	10521,(6, 81),24	10545,(6, 97),80	10625,(102, 121),660	11285,(46, 121),660	17885,(18, 121),660	18545,(50, 121),660	19205,(62, 121),660	19865,(118, 121),660	24545,(10, 13),4	24549,(10, 61),4	24553,(10, 89),688	25241,(10, 113),4	25245,(26, 121),660	25905,(54, 121),660	32877,(30, 121),660	33537,(78, 121),660	34197,(98, 121),660	38157,(94, 121),660	39477,(22, 121),660	40137,(34, 121),660	44097,(38, 121),660	45417,(70, 121),660	46737,(82, 121),660	50037,(42, 121),660	50697,(58, 121),660	51357,(74, 121),660	52017,(66, 121),660	52677,(114, 121),660	53997,(90, 121),660	54657,(106, 121),660	
1,(0, 2),576	577,(0, 3),576	1153,(0, 4),576	1729,(0, 6),576	2305,(0, 7),576	2881,(0, 8),576	3457,(0, 10),576	4033,(0, 11),576	4609,(0, 12),576	5185,(1, 35),4	5189,(1, 44),28	5217,(1, 51),4	5221,(1, 68),4	5225,(1, 76),8	5233,(1, 94),24	5257,(1, 96),4	5261,(1, 116),184	5445,(5, 16),4	5449,(5, 38),88	5537,(5, 52),52	5589,(5, 70),52	5641,(5, 79),12	5653,(5, 82),28	5681,(5, 83),32	5713,(5, 99),4	5717,(5, 107),4	5721,(5, 112),4	5725,(9, 42),4	5729,(9, 58),8	5737,(9, 74),40	5777,(9, 87),8	5785,(9, 90),24	5809,(9, 106),12	
