327
# CPU
0,0,1	1,1,10	11,9,10	21,35,10	31,2,10	41,7,10	51,13,10	61,38,10	71,36,10	81,8,10	91,18,10	101,27,10	111,5,10	121,31,10	131,11,10	157,15,10	235,12,10	
10,4,10	20,21,10	30,16,10	40,22,10	50,17,10	60,20,10	70,19,10	80,39,10	90,6,10	100,30,10	110,29,10	137,32,10	212,34,10	326,41,1	
19,3,10	29,14,10	39,24,10	49,10,10	59,28,10	69,40,10	79,26,10	89,25,10	99,23,10	109,33,10	223,37,10	
# Incoming
20,(4, 27),3	23,(4, 5),3	26,(4, 31),12	40,(3, 27),3	43,(3, 5),3	46,(4, 11),48	94,(4, 15),63	157,(3, 12),78	
1,(0, 4),9	22,(1, 39),3	31,(1, 6),3	34,(1, 30),3	37,(3, 30),3	50,(2, 19),3	53,(14, 41),6	59,(24, 41),6	65,(10, 41),6	71,(28, 41),6	79,(40, 41),6	86,(2, 29),24	110,(1, 32),27	137,(2, 34),75	212,(9, 41),6	218,(35, 41),6	224,(7, 41),6	230,(13, 41),6	236,(38, 41),6	242,(36, 41),6	248,(26, 41),6	254,(8, 41),6	260,(25, 41),6	266,(18, 41),6	272,(23, 41),6	278,(27, 41),6	284,(33, 41),6	290,(5, 41),6	296,(31, 41),6	302,(11, 41),6	308,(15, 41),6	314,(37, 41),6	320,(12, 41),6	
10,(0, 3),9	19,(1, 24),3	25,(1, 25),6	41,(2, 10),3	44,(2, 28),3	47,(2, 40),3	53,(2, 26),3	56,(1, 23),9	65,(2, 33),21	157,(4, 37),66	
# Outgoing
1,(0, 4),9	10,(0, 3),9	19,(1, 24),3	22,(1, 39),3	25,(1, 25),6	31,(1, 6),3	34,(1, 30),3	41,(2, 10),3	44,(2, 28),3	47,(2, 40),3	50,(2, 19),3	53,(2, 26),3	56,(1, 23),9	65,(2, 33),21	86,(2, 29),24	110,(1, 32),27	137,(2, 34),75	212,(9, 41),6	218,(35, 41),6	224,(7, 41),6	230,(13, 41),6	236,(38, 41),6	242,(36, 41),6	254,(8, 41),6	266,(18, 41),6	278,(27, 41),6	290,(5, 41),6	296,(31, 41),6	302,(11, 41),6	308,(15, 41),6	320,(12, 41),6	
20,(4, 27),3	23,(4, 5),3	26,(4, 31),12	46,(4, 11),48	94,(4, 15),63	157,(4, 37),66	
37,(3, 30),3	40,(3, 27),3	43,(3, 5),3	53,(14, 41),6	59,(24, 41),6	65,(10, 41),6	71,(28, 41),6	79,(40, 41),6	157,(3, 12),78	248,(26, 41),6	260,(25, 41),6	272,(23, 41),6	284,(33, 41),6	314,(37, 41),6	
