963
# CPU
0,0,1	1,4,31	32,25,31	63,19,31	94,49,31	125,2,31	156,77,31	187,63,31	218,12,31	249,6,31	280,79,31	311,45,31	342,33,31	373,16,31	404,5,31	435,26,31	466,60,31	497,14,31	528,23,31	559,42,31	590,9,31	621,18,31	652,39,31	683,58,31	714,75,31	745,43,31	776,15,31	903,20,31	962,81,1	
9,3,31	40,28,31	71,13,31	102,29,31	133,62,31	164,36,31	195,11,31	226,50,31	257,10,31	288,37,31	319,55,31	350,57,31	381,68,31	412,1,31	443,53,31	474,35,31	505,66,31	536,78,31	567,76,31	598,34,31	629,51,31	660,48,31	691,27,31	722,54,31	753,64,31	784,52,31	927,38,31	
17,7,31	48,80,31	79,17,31	110,44,31	141,56,31	172,59,31	203,30,31	234,67,31	265,8,31	296,73,31	327,41,31	358,22,31	389,32,31	420,69,31	451,40,31	482,31,31	513,24,31	544,61,31	575,72,31	606,21,31	637,71,31	668,70,31	699,47,31	730,46,31	761,65,31	792,74,31	
# Incoming
71,(28, 81),4	79,(80, 81),4	99,(3, 15),2	102,(13, 81),4	110,(17, 81),4	133,(29, 81),4	141,(44, 81),4	164,(62, 81),4	172,(56, 81),4	195,(36, 81),4	203,(59, 81),4	226,(11, 81),4	234,(30, 81),4	257,(50, 81),4	265,(67, 81),4	288,(10, 81),4	302,(8, 43),2	319,(37, 81),4	327,(73, 81),4	350,(55, 81),4	358,(41, 81),4	381,(57, 81),4	389,(22, 81),4	412,(68, 81),4	420,(32, 81),4	451,(69, 81),4	459,(1, 58),2	461,(1, 75),2	474,(53, 81),4	482,(40, 81),4	505,(35, 81),4	513,(31, 81),4	536,(66, 81),4	544,(24, 81),4	567,(78, 81),4	575,(61, 81),4	598,(76, 81),4	606,(72, 81),4	629,(34, 81),4	637,(21, 81),4	660,(51, 81),4	668,(71, 81),4	691,(48, 81),4	699,(70, 81),4	722,(27, 81),4	730,(47, 81),4	753,(54, 81),4	761,(46, 81),4	784,(64, 81),4	792,(65, 81),4	815,(52, 81),4	823,(74, 81),4	827,(7, 20),28	855,(1, 20),48	958,(38, 81),4	
1,(0, 3),8	34,(0, 1),8	83,(7, 57),4	87,(7, 48),4	91,(7, 27),8	114,(7, 64),24	156,(2, 50),2	158,(2, 10),6	164,(2, 68),6	176,(2, 48),12	202,(2, 27),10	242,(2, 38),2	280,(6, 37),2	282,(6, 57),2	296,(8, 55),2	298,(8, 34),2	300,(8, 51),2	302,(6, 64),52	439,(5, 54),22	461,(2, 52),82	855,(7, 38),30	885,(8, 38),42	
9,(0, 7),8	17,(0, 8),8	32,(4, 30),2	42,(4, 31),2	44,(4, 71),10	75,(3, 67),2	77,(3, 69),6	83,(3, 61),6	89,(3, 21),10	99,(4, 47),22	121,(3, 46),12	137,(3, 74),2	170,(2, 32),2	172,(2, 24),4	188,(2, 70),14	212,(2, 46),30	284,(6, 69),2	354,(2, 65),64	435,(5, 61),2	437,(5, 71),2	443,(1, 40),2	445,(1, 31),2	447,(1, 24),2	449,(1, 72),10	543,(2, 74),106	
# Outgoing
1,(0, 3),8	9,(0, 7),8	17,(0, 8),8	32,(4, 30),2	34,(0, 1),8	42,(4, 31),2	44,(4, 71),10	99,(4, 47),22	156,(2, 50),2	158,(2, 10),6	164,(2, 68),6	170,(2, 32),2	172,(2, 24),4	176,(2, 48),12	188,(2, 70),14	202,(2, 27),10	212,(2, 46),30	242,(2, 38),2	280,(6, 37),2	282,(6, 57),2	284,(6, 69),2	302,(6, 64),52	354,(2, 65),64	435,(5, 61),2	437,(5, 71),2	439,(5, 54),22	461,(2, 52),82	543,(2, 74),106	
71,(28, 81),4	75,(3, 67),2	77,(3, 69),6	83,(3, 61),6	89,(3, 21),10	99,(3, 15),2	102,(13, 81),4	121,(3, 46),12	133,(29, 81),4	137,(3, 74),2	164,(62, 81),4	195,(36, 81),4	226,(11, 81),4	257,(50, 81),4	288,(10, 81),4	319,(37, 81),4	350,(55, 81),4	381,(57, 81),4	412,(68, 81),4	443,(1, 40),2	445,(1, 31),2	447,(1, 24),2	449,(1, 72),10	459,(1, 58),2	461,(1, 75),2	474,(53, 81),4	505,(35, 81),4	536,(66, 81),4	567,(78, 81),4	598,(76, 81),4	629,(34, 81),4	660,(51, 81),4	691,(48, 81),4	722,(27, 81),4	753,(54, 81),4	784,(64, 81),4	815,(52, 81),4	855,(1, 20),48	958,(38, 81),4	
79,(80, 81),4	83,(7, 57),4	87,(7, 48),4	91,(7, 27),8	110,(17, 81),4	114,(7, 64),24	141,(44, 81),4	172,(56, 81),4	203,(59, 81),4	234,(30, 81),4	265,(67, 81),4	296,(8, 55),2	298,(8, 34),2	300,(8, 51),2	302,(8, 43),2	327,(73, 81),4	358,(41, 81),4	389,(22, 81),4	420,(32, 81),4	451,(69, 81),4	482,(40, 81),4	513,(31, 81),4	544,(24, 81),4	575,(61, 81),4	606,(72, 81),4	637,(21, 81),4	668,(71, 81),4	699,(70, 81),4	730,(47, 81),4	761,(46, 81),4	792,(65, 81),4	823,(74, 81),4	827,(7, 20),28	855,(7, 38),30	885,(8, 38),42	
