6412
# CPU
0,121,1	1,63,1	2,13,1	3,49,1	4,100,1	5,93,1	6,85,1	7,99,1	8,35,1	9,47,1	10,32,1	11,108,1	12,20,1	13,115,1	14,109,1	15,84,1	16,79,1	17,104,1	18,78,1	19,106,1	20,118,1	21,40,1	22,82,1	23,19,1	24,25,1	25,26,1	26,110,1	27,65,1	28,69,1	29,57,1	30,58,1	31,33,1	32,81,1	33,88,1	34,41,1	35,28,1	36,48,1	37,23,1	38,83,1	39,75,1	40,112,1	41,70,1	42,15,1	43,117,1	44,116,1	45,96,1	46,55,1	47,62,1	48,103,1	49,120,1	50,76,1	51,16,1	52,54,1	53,98,1	54,53,1	55,43,1	56,36,1	57,14,1	58,91,1	59,94,1	60,24,1	61,64,1	62,52,1	63,18,1	64,29,1	65,42,1	66,114,1	67,89,1	68,111,1	69,27,1	70,38,1	71,56,1	72,21,1	73,101,1	74,95,1	75,61,1	76,80,1	77,92,1	78,107,1	79,50,1	80,87,1	81,34,1	82,51,1	83,102,1	84,86,1	85,90,1	86,44,1	87,72,1	88,31,1	89,39,1	90,67,1	91,68,1	92,60,1	93,5,1	94,9,1	95,37,1	96,59,1	97,45,1	98,71,1	99,74,1	100,97,1	101,30,1	102,66,1	103,77,1	104,4,1	105,105,1	106,113,1	107,17,1	108,2,1	109,3,1	110,22,1	111,46,1	112,10,1	113,12,1	118,6,1	150,1,1	230,7,1	342,8,1	6410,11,1	6411,0,1	
113,73,1	
57,119,1	
# Incoming
114,(73, 6),4	118,(73, 1),32	150,(119, 7),80	230,(119, 8),4	234,(73, 8),108	342,(73, 11),6068	
57,(121, 73),56	
1,(121, 119),56	
# Outgoing
1,(121, 119),56	57,(121, 73),56	
114,(73, 6),4	118,(73, 1),32	234,(73, 8),108	342,(73, 11),6068	
150,(119, 7),80	230,(119, 8),4	
